order-id	order-item-id	purchase-date	payments-date	reporting-date	promise-date	days-past-promise	buyer-email	buyer-name	buyer-phone-number	sku	product-name	quantity-purchased	quantity-shipped	quantity-to-ship	ship-service-level	recipient-name	ship-address-1	ship-address-2	ship-address-3	ship-city	ship-state	ship-postal-code	ship-country	gift-wrap-type	gift-message-text	is-business-order	purchase-order-number	price-designation
113-7051924-2629065	09536474580970	2020-04-11T17:10:29+00:00	2020-04-11T10:10:29-07:00	2020-04-11T17:38:44+00:00	2020-04-15T06:59:59+00:00	-2	sycklxx1pybc85s@marketplace.amazon.com	rochelle lomax	+1 314-282-9402 ext. 40551	ABR0022	Arabella Bouquets | Purchase by 11.30 AM EST Monday | Delivery on Wednesday | Bouquet of 12 Fresh Cut Pink Roses	1	0	1	Expedited	Lori Quirk	9324 NASTRAND CIR			PORT CHARLOTTE	FL	33981-4031	US		Thinking of you today. I’m here for you❤️ From rochelle lomax	false		
112-3752939-0222616	60879291408234	2020-04-11T19:45:28+00:00	2020-04-11T12:45:28-07:00	2020-04-11T20:08:39+00:00	2020-04-15T06:59:59+00:00	-2	gw183r5gyrcl03m@marketplace.amazon.com	Jim Mayo	+1 347-448-3190 ext. 48479	ABM010	Arabella Farm Direct The World Bouquet of Fresh Cut Flowers with a Free Glass Vase	1	0	1	Standard	Donna Campbell	2139 EVANS PRAIRIE TRL			THE VILLAGES	FL	32163-6320	US			false		
113-0940620-5432222	58733745470170	2020-04-11T20:28:57+00:00	2020-04-11T13:28:57-07:00	2020-04-11T20:57:45+00:00	2020-04-15T06:59:59+00:00	-2	twbdx7xm85snd5p@marketplace.amazon.com	rene brown	+1 314-282-9402 ext. 68727	ABM010	Arabella Farm Direct The World Bouquet of Fresh Cut Flowers with a Free Glass Vase	1	0	1	Expedited	Gloria Randall	7129 FORUM ST			SAN DIEGO	CA	92111-3439	US		Hi Gloria, Happy Birthday for you Love you! From rene brown	false		
111-8980885-5789832	54695174376050	2020-04-11T21:33:01+00:00	2020-04-11T14:33:01-07:00	2020-04-11T22:02:01+00:00	2020-04-15T06:59:59+00:00	-2	zsswgwmjmc7fdyk@marketplace.amazon.com	Brooks R Winfree	+1 314-282-9402 ext. 93655	ABM010	Arabella Farm Direct The World Bouquet of Fresh Cut Flowers with a Free Glass Vase	1	0	1	Expedited	Brooks R Winfree	31811 TREE FARM LN			FULSHEAR	TX	77441-4384	US			false		
113-9099440-7333027	70310650017834	2020-04-12T01:46:30+00:00	2020-04-11T18:46:30-07:00	2020-04-12T02:11:08+00:00	2020-04-15T06:59:59+00:00	-2	myzw450szmxntrq@marketplace.amazon.com	Ken conard	+1 210-728-4548 ext. 05481	ABM010	Arabella Farm Direct The World Bouquet of Fresh Cut Flowers with a Free Glass Vase	1	0	1	Expedited	Joyce Civello	728 NORRISTOWN RD			AMBLER	PA	19002-2125	US		Thinking of you. Love you Joyce!!!! From Sydney	false		
113-7257977-2391448	08147248927682	2020-04-12T09:58:13+00:00	2020-04-12T02:58:13-07:00	2020-04-12T10:23:35+00:00	2020-04-15T06:59:59+00:00	-2	m19v6dd4309p5hr@marketplace.amazon.com	david k. walker	+1 347-448-3190 ext. 86517	ABM010	Arabella Farm Direct The World Bouquet of Fresh Cut Flowers with a Free Glass Vase	1	0	1	Expedited	Sherry Walker	126 WOODSIDE CIR			DRESDEN	TN	38225-2370	US		Enjoy your gift! Love you! Hope this helps your week! From david k. walker	false		
112-3228768-1471417	54125384503234	2020-04-12T14:36:08+00:00	2020-04-12T07:36:08-07:00	2020-04-12T15:04:43+00:00	2020-04-15T06:59:59+00:00	-2	9ckjvvskhxfzgm6@marketplace.amazon.com	simona rossi	+1 347-448-3190 ext. 89378	ABM010	Arabella Farm Direct The World Bouquet of Fresh Cut Flowers with a Free Glass Vase	1	0	1	Expedited	Caterina rossi	731 FAIRVIEW LN			FORKED RIVER	NJ	08731-4966	US		Happy Anniversary! love Simona, Figlio, Jaden, Noah, Thor and Bailey (la cana)	false		
113-4571660-8139461	32593741418434	2020-04-12T15:07:05+00:00	2020-04-12T08:07:05-07:00	2020-04-12T15:34:23+00:00	2020-04-15T06:59:59+00:00	-2	359mjjb2ssdwqrs@marketplace.amazon.com	LARIE	+1 314-282-9402 ext. 52185	ABM010	Arabella Farm Direct The World Bouquet of Fresh Cut Flowers with a Free Glass Vase	1	0	1	Expedited	Dorothy Harnish	27 GASPAR RD			COLUMBIA	PA	17512-9723	US		Dorothy Thank you for all you do for our parents,  From the Reilly Kids From LARIE	false		
111-7361510-6476236	04305117227994	2020-04-12T16:26:20+00:00	2020-04-12T09:26:20-07:00	2020-04-12T16:54:29+00:00	2020-04-15T06:59:59+00:00	-2	g4mz9hgnt8gl1fd@marketplace.amazon.com	Marlene Malson	+1 314-282-9402 ext. 18451	ABM010	Arabella Farm Direct The World Bouquet of Fresh Cut Flowers with a Free Glass Vase	1	0	1	Expedited	Patricia Ziefle	509 FOUNTAIN AVE			GEORGETOWN	KY	40324-1536	US		Hi Sis - I meant to send you flowers for Easter, but time got away from me. Hope these brighten your day! Love, Marlene	false		
113-8944420-6451461	32718233830442	2020-04-12T19:03:35+00:00	2020-04-12T12:03:35-07:00	2020-04-12T19:04:27+00:00	2020-04-15T06:59:59+00:00	-2	4ggfw12fg6kvsmn@marketplace.amazon.com	lee markholt	+1 347-448-3190 ext. 37429	ABM010	Arabella Farm Direct The World Bouquet of Fresh Cut Flowers with a Free Glass Vase	1	0	1	Expedited	Jenny Bache	1018 E WISHKAH ST			ABERDEEN	WA	98520-2937	US		Jenny & family ,  Love and condolences from all the Markholts .  Fred was truly a increddible human being . he will be dearly missed by us and all the people whos lives he touched ! Forever in our hearts , The Markholts	false		
114-8845841-5742651	32011502430010	2020-04-12T22:05:29+00:00	2020-04-12T15:05:29-07:00	2020-04-12T22:34:34+00:00	2020-04-15T06:59:59+00:00	-2	wkpzpfg760yytz8@marketplace.amazon.com	Bernice M Jones	+1 210-728-4548 ext. 49086	ABM010	Arabella Farm Direct The World Bouquet of Fresh Cut Flowers with a Free Glass Vase	1	0	1	Expedited	Caryn Herman	9411 69TH AVE # 306			FOREST HILLS	NY	11375-5801	US			false		
113-4649207-5533012	44603835213754	2020-04-12T22:15:29+00:00	2020-04-12T15:15:29-07:00	2020-04-12T22:44:33+00:00	2020-04-15T06:59:59+00:00	-2	nbyw3vs3r6c5mcq@marketplace.amazon.com	sharon js ward	+1 347-448-3190 ext. 68888	ABM010	Arabella Farm Direct The World Bouquet of Fresh Cut Flowers with a Free Glass Vase	1	0	1	Expedited	Bobbie Sammons	16390 STATE HIGHWAY 149 N			TATUM	TEXAS	75691-3757	US			false		
111-9464238-4347444	39436402370250	2020-04-12T23:26:33+00:00	2020-04-12T16:26:33-07:00	2020-04-12T23:56:12+00:00	2020-04-15T06:59:59+00:00	-2	1jshrw4k9n4xzzd@marketplace.amazon.com	Bob	+1 347-448-3190 ext. 67428	ABM010	Arabella Farm Direct The World Bouquet of Fresh Cut Flowers with a Free Glass Vase	1	0	1	Expedited	Ann Korman	614 W BROWN ST UNIT F			SOUTHPORT	NC	28461-3364	US		Happy Birthday Mom  Love Rob and Laura	false		
113-8321802-9510619	01376133038866	2020-04-13T02:40:08+00:00	2020-04-12T19:40:08-07:00	2020-04-13T03:09:27+00:00	2020-04-15T06:59:59+00:00	-2	c7bkzd9317c8wpl@marketplace.amazon.com	Kimya S Lee	+1 347-448-3190 ext. 19975	ABM010	Arabella Farm Direct The World Bouquet of Fresh Cut Flowers with a Free Glass Vase	1	0	1	Expedited	Marie Dely	122 CLINTON AVE			NYACK	NY	10960-4315	US		Happy Easter Mom and Dad! Embrace the renewal of life during this season of rebirth. Miss you lots.  Love the Girls	false		
114-5503195-3474635	12462905002090	2020-04-13T06:00:03+00:00	2020-04-12T23:00:03-07:00	2020-04-13T06:26:09+00:00	2020-04-15T06:59:59+00:00	-2	z8wpqx5xvrd6mlm@marketplace.amazon.com	leisa	+1 210-728-4548 ext. 62239	ABM010	Arabella Farm Direct The World Bouquet of Fresh Cut Flowers with a Free Glass Vase	1	0	1	Expedited	Ruth Jacobs	3536 JACKSON BLVD APT 1			HIGHLAND	MI	48356-2024	US		Happy birthday Mom, I hope these will brighten your day. Love you so much!!! From Chris & Leisa	false		
113-1707044-7296226	31574645456426	2020-04-13T07:46:32+00:00	2020-04-13T00:46:32-07:00	2020-04-13T08:16:50+00:00	2020-04-16T06:59:59+00:00	-3	zwgnznxzj9s1sqx@marketplace.amazon.com	Ming Hui	+1 314-282-9402 ext. 78947	ABM010	Arabella Farm Direct The World Bouquet of Fresh Cut Flowers with a Free Glass Vase	1	0	1	Expedited	Ming Hui	11 S CENTRAL AVE CITYSCAPE 2300			PHOENIX	AZ	85004-2524	US			false		
112-8942636-1770655	59832648180266	2020-04-13T12:53:49+00:00	2020-04-13T05:53:49-07:00	2020-04-13T13:22:34+00:00	2020-04-16T06:59:59+00:00	-3	kwmjmdvz1bw7chc@marketplace.amazon.com	Jamie Flick	+1 347-448-3190 ext. 01026	ABM010	Arabella Farm Direct The World Bouquet of Fresh Cut Flowers with a Free Glass Vase	1	0	1	Expedited	Dana Aten	946 RIVER RUN DR			MACEDONIA	OH	44056-2369	US		Dear Dana,  Thought I would brighten up your day a little! I know it’s hard stuck being in all day. Love and miss you so much my sweet and beautiful friend!  Love you,  Jamie From Jamie Flick	false		
113-9132627-3275458	21000725461474	2020-04-13T13:28:50+00:00	2020-04-13T06:28:50-07:00	2020-04-13T13:58:31+00:00	2020-04-16T06:59:59+00:00	-3	zdvsr985xzjcn37@marketplace.amazon.com	Joan Lords	+1 347-448-3190 ext. 99222	ABM010	Arabella Farm Direct The World Bouquet of Fresh Cut Flowers with a Free Glass Vase	1	0	1	Expedited	MaryLee Jackson	321 BEDFORD RD			LAS VEGAS	NV	89107-4301	US			false		
113-0316462-9225814	17946190649714	2020-04-13T13:26:51+00:00	2020-04-13T06:26:51-07:00	2020-04-13T14:00:11+00:00	2020-04-16T06:59:59+00:00	-3	z5k3l7sq8lw38ft@marketplace.amazon.com	Angela Zientek	+1 347-448-3190 ext. 41204	ABM0033	Arabella Farm Direct Bouquet of 5 Fresh Cut White Hydrangea with a Free Glass Vase	1	0	1	Expedited	Angela Zientek	14635 PENICK RD			WALLER	TX	77484-5021	US			false		
112-1258682-5716230	35146445462642	2020-04-13T13:35:25+00:00	2020-04-13T06:35:25-07:00	2020-04-13T14:04:31+00:00	2020-04-16T06:59:59+00:00	-3	7b3sh8xdw0qqwd2@marketplace.amazon.com	Cathy Ratchford	+1 314-282-9402 ext. 08887	ABM010	Arabella Farm Direct The World Bouquet of Fresh Cut Flowers with a Free Glass Vase	1	0	1	Expedited	Amanda lung	21845 LYON MEADOW CT			SOUTH LYON	MI	48178-9048	US		Hi Amanda, I know this is a difficult time and sorry for your loss.  From Cathy and Deidra	false		
113-3349651-7763432	62035134381802	2020-04-13T14:42:01+00:00	2020-04-13T07:42:01-07:00	2020-04-13T15:10:24+00:00	2020-04-16T06:59:59+00:00	-3	s7dpyblswbfqdgl@marketplace.amazon.com	Cheryl Stathakis	+1 347-448-3190 ext. 88233	ABM010	Arabella Farm Direct The World Bouquet of Fresh Cut Flowers with a Free Glass Vase	1	0	1	Expedited	Melissa Stathakis	1225 N WELLS ST APT 1507			CHICAGO	IL	60610-2526	US		Happiest of Birthdays Lauren!! Enjoy some pretty flowers to keep you company :) <3 Melissa	false		
114-4997109-1100226	30944556658738	2020-04-13T15:08:35+00:00	2020-04-13T08:08:35-07:00	2020-04-13T15:38:38+00:00	2020-04-16T06:59:59+00:00	-3	jgdpppdfcg62pnp@marketplace.amazon.com	Effrossyni Gkrania	+1 314-282-9402 ext. 38866	ABR0022	Arabella Bouquets | Purchase by 11.30 AM EST Monday | Delivery on Wednesday | Bouquet of 12 Fresh Cut Pink Roses	1	0	1	Standard	EVANGELOS KOBOTIS	7451 KILBOURN AVE			SKOKIE	IL	60076-3841	US			false		
114-7379004-8667449	68364713360378	2020-04-13T15:16:41+00:00	2020-04-13T08:16:41-07:00	2020-04-13T15:46:11+00:00	2020-04-16T06:59:59+00:00	-3	nr098c6vgynzvhh@marketplace.amazon.com	seles padilla	+1 347-448-3190 ext. 65456	ABR0022	Arabella Bouquets | Purchase by 11.30 AM EST Monday | Delivery on Wednesday | Bouquet of 12 Fresh Cut Pink Roses	1	0	1	Expedited	seles padilla	604 GIANERA ST			SOCORRO	NM	87801-4812	US			false		
114-7024601-7276231	61958761886218	2020-04-13T15:24:50+00:00	2020-04-13T08:24:50-07:00	2020-04-13T15:52:10+00:00	2020-04-16T06:59:59+00:00	-3	4w7lcwsslzv91z1@marketplace.amazon.com	Ana Cambero	+1 314-282-9402 ext. 59343	ABR0022	Arabella Bouquets | Purchase by 11.30 AM EST Monday | Delivery on Wednesday | Bouquet of 12 Fresh Cut Pink Roses	1	0	1	Expedited	Breauna Cambero	8469 DROP CAMP ST			LAS VEGAS	NV	89123-2646	US		Happy birthday! We love you baby banana!!!! From Aunt Kitty, Jack and Ty	false		
111-8150049-0193054	33732215588490	2020-04-13T15:22:47+00:00	2020-04-13T08:22:47-07:00	2020-04-13T15:52:48+00:00	2020-04-16T06:59:59+00:00	-3	jh5wff0wn8q48nc@marketplace.amazon.com	sarahmpody	+1 347-448-3190 ext. 44623	ABR013	Arabella Bouquets | Purchase by 11.30 AM EST Tuesday | Delivery on Thursday | Bouquet of 18 Fresh Cut Yellow Roses	1	0	1	Expedited	Cathy Bice and Dylan Bice	121 BLAIRWOOD CT			LEBANON	TN	37087-3044	US			false		
111-6804953-2311405	34541769774626	2020-04-13T15:24:15+00:00	2020-04-13T08:24:15-07:00	2020-04-13T15:53:51+00:00	2020-04-16T06:59:59+00:00	-3	x01612s2qk447xh@marketplace.amazon.com	Barbara	+1 347-448-3190 ext. 21756	ABR0022	Arabella Bouquets | Purchase by 11.30 AM EST Monday | Delivery on Wednesday | Bouquet of 12 Fresh Cut Pink Roses	1	0	1	Expedited	Barbara Brown	104 CIRCLEVIEW DR S			HURST	TX	76054-3626	US		Happy 94th with much love, Ann	false		
113-0214333-5289869	12856381094666	2020-04-13T15:24:29+00:00	2020-04-13T08:24:29-07:00	2020-04-13T15:54:10+00:00	2020-04-16T06:59:59+00:00	-3	mv7lbg14p3b91gn@marketplace.amazon.com	Nick	+1 347-448-3190 ext. 93277	ABR0022	Arabella Bouquets | Purchase by 11.30 AM EST Monday | Delivery on Wednesday | Bouquet of 12 Fresh Cut Pink Roses	1	0	1	Expedited	Nikolai Tahmin	149 RIDGE RD 1A			CEDAR GROVE	NJ	07009-2038	US			false		
112-0353460-9348220	55661380016482	2020-04-13T15:31:30+00:00	2020-04-13T08:31:30-07:00	2020-04-13T15:58:36+00:00	2020-04-16T06:59:59+00:00	-3	4gq04gw61vj8s2b@marketplace.amazon.com	yvonne	+1 210-728-4548 ext. 98299	ABR0022	Arabella Bouquets | Purchase by 11.30 AM EST Tuesday | Delivery on Thursday | Bouquet of 12 Fresh Cut Pink Roses	1	0	1	Expedited	Greg Farnan	1255 22ND ST NW APT 602			WASHINGTON	DC	20037-1294	US		Grace,  Happy birthday!! I hope you have loads of puzzles to keep you busy! From The farnan fam X	false		
113-3293431-9969017	01458122769770	2020-04-13T15:45:19+00:00	2020-04-13T08:45:19-07:00	2020-04-13T16:10:54+00:00	2020-04-16T06:59:59+00:00	-3	psqckjw0rhrrhkf@marketplace.amazon.com	Richard Curran	+1 347-448-3190 ext. 82624	ABR0022	Arabella Bouquets | Purchase by 11.30 AM EST Tuesday | Delivery on Thursday | Bouquet of 12 Fresh Cut Pink Roses	1	0	1	Expedited	Kathy Roth	1640 MARITIME DR			CARLSBAD	CA	92011-4077	US		Happy birthday to you❤️ From Kim, Richard, Izzy & Jack	false		
112-5016582-8834611	63273475447794	2020-04-13T15:46:41+00:00	2020-04-13T08:46:41-07:00	2020-04-13T16:14:55+00:00	2020-04-16T06:59:59+00:00	-3	ygtmpx39t0sqz6m@marketplace.amazon.com	Saultczy Bleu	+1 347-448-3190 ext. 71164	ABM010	Arabella Farm Direct The World Bouquet of Fresh Cut Flowers with a Free Glass Vase	1	0	1	Expedited	Jeanne Berger	53 KENDAL DR			OBERLIN	OH	44074-1902	US		Happy birthday!!  We hope these will make your isolated birthday a little brighter.  Love, Scott and Saultczy	false		
112-8418008-5402611	19924498372970	2020-04-13T15:52:17+00:00	2020-04-13T08:52:17-07:00	2020-04-13T16:19:08+00:00	2020-04-16T06:59:59+00:00	-3	yycwrgdf3wzkkdw@marketplace.amazon.com	michael hammes	+1 314-282-9402 ext. 87822	ABR0022	Arabella Bouquets | Purchase by 11.30 AM EST Tuesday | Delivery on Thursday | Bouquet of 12 Fresh Cut Pink Roses	1	0	1	Expedited	Kristen McKenna	5241 WESTPATH WAY			BETHESDA	MD	20816-2260	US		Congratulations Kristen   Three more to go to “catch up”   Only kidding!!  Lenore and Mike Hammes	false		
111-9795972-8848268	59637318563874	2020-04-13T15:50:11+00:00	2020-04-13T08:50:11-07:00	2020-04-13T16:20:30+00:00	2020-04-16T06:59:59+00:00	-3	rywwgrz0fv39xcm@marketplace.amazon.com	s egerson	+1 347-448-3190 ext. 89142	ABR0022	Arabella Bouquets | Purchase by 11.30 AM EST Tuesday | Delivery on Thursday | Bouquet of 12 Fresh Cut Pink Roses	1	0	1	Expedited	C Dumas	3216 Cotton Grove Run			Raleigh	NC	27610	US			false		
114-0813392-9221011	57387861900202	2020-04-13T15:56:23+00:00	2020-04-13T08:56:23-07:00	2020-04-13T16:25:15+00:00	2020-04-16T06:59:59+00:00	-3	0nbwgkq1mp3b7zk@marketplace.amazon.com	Kathleen Stonedahl	+1 347-448-3190 ext. 01458	ABR012	Arabella Bouquets | Purchase by 11.30 AM EST Tuesday | Delivery on Thursday | Bouquet of 18 Fresh Cut Pink Roses	1	0	1	Expedited	Darlene Stonedahl	4206 SPRINGLAND LN			BELLINGHAM	WA	98226-6864	US		Happy 60th Seesta,  You old broad, oh wait, I'm a old broad too, but even older	false		
112-3501764-4053041	51657410388698	2020-04-13T16:33:00+00:00	2020-04-13T09:33:00-07:00	2020-04-13T16:46:34+00:00	2020-04-16T06:59:59+00:00	-3	yggp6tv2rg85znq@marketplace.amazon.com	Angelique green	+1 314-282-9402 ext. 06622	ABR0022	Arabella Bouquets | Purchase by 11.30 AM EST Tuesday | Delivery on Thursday | Bouquet of 12 Fresh Cut Pink Roses	1	0	1	Expedited	Betty Rodgers	6865 HIGHSPIRE DR			DALLAS	TX	75217-1215	US		Thanks for being my friend! From Angelique green	false		
112-7723435-9697020	08271046779946	2020-04-13T16:28:23+00:00	2020-04-13T09:28:23-07:00	2020-04-13T16:52:55+00:00	2020-04-16T06:59:59+00:00	-3	wdfl4qqcz4rcsbc@marketplace.amazon.com	Clarissa K. Posey	+1 347-448-3190 ext. 58209	ABR0022	Arabella Bouquets | Purchase by 11.30 AM EST Tuesday | Delivery on Thursday | Bouquet of 12 Fresh Cut Pink Roses	1	0	1	Expedited	Paula Garrick	1289 ASHWORTH AVE SW			MARIETTA	GA	30064-3894	US		Hi Paula,  Wishing you an awesome 60th Birthday!!  Enjoy your Roses. HAPPY BIRTHDAY TO YOU!  Love You, Clarissa	false		
113-0364899-2470607	01613182292154	2020-04-13T16:43:34+00:00	2020-04-13T09:43:34-07:00	2020-04-13T17:13:27+00:00	2020-04-16T06:59:59+00:00	-3	qj0zmh9mwm0tyg4@marketplace.amazon.com	RJConnor	+1 314-282-9402 ext. 70276	ABR0022	Arabella Bouquets | Purchase by 11.30 AM EST Tuesday | Delivery on Thursday | Bouquet of 12 Fresh Cut Pink Roses	1	0	1	Expedited	Maggie Gotch	54 MAIN ST APT 215			CAMILLUS	NY	13031-1070	US			false		
111-8564663-7738660	25036675713106	2020-04-13T16:58:40+00:00	2020-04-13T09:58:40-07:00	2020-04-13T17:16:24+00:00	2020-04-16T06:59:59+00:00	-3	0y8fkb1qf3ybn9f@marketplace.amazon.com	Janel Jacobs	+1 347-448-3190 ext. 55747	ABR0022	Arabella Bouquets | Purchase by 11.30 AM EST Tuesday | Delivery on Thursday | Bouquet of 12 Fresh Cut Pink Roses	1	0	1	Expedited	Ginny Brown	NUCOR BUILDING SYSTEMS	305 INDUSTRIAL PKWY		WATERLOO	IN	46793-9498	US		Hi Ginny, Wishing you the best birthday!  Hope to see you soon. Love, Janel	false		
113-2132282-9767438	23459928071298	2020-04-13T17:03:41+00:00	2020-04-13T10:03:41-07:00	2020-04-13T17:30:25+00:00	2020-04-16T06:59:59+00:00	-3	vffdkz0gb6gsjzs@marketplace.amazon.com	Kayleh Levy- Weller	+1 314-282-9402 ext. 11966	ABR0022	Arabella Bouquets | Purchase by 11.30 AM EST Tuesday | Delivery on Thursday | Bouquet of 12 Fresh Cut Pink Roses	1	0	1	Expedited	Ari Afilalo	255 W 84TH ST APT 7C			NEW YORK	NY	10024-4336	US		Happy Birthday! You are an amazing boss, mentor, and role model. On your birthday, I wish you all the best. Wishing you good health and happiness in this upcoming year. From Chaviva Mandel From Kayleh Levy- Weller	false		
113-0087811-1905050	42401549282658	2020-04-13T17:15:12+00:00	2020-04-13T10:15:12-07:00	2020-04-13T17:43:04+00:00	2020-04-16T06:59:59+00:00	-3	3xnkkzbwy013gx4@marketplace.amazon.com	Regina	+1 314-282-9402 ext. 22749	ABR0022	Arabella Bouquets | Purchase by 11.30 AM EST Tuesday | Delivery on Thursday | Bouquet of 12 Fresh Cut Pink Roses	1	0	1	Expedited	Margaret Frey	66 VAN CORTLANDT PARK S	ROOM NUMBER 823A		BRONX	NY	10463-3102	US		Enjoy your gift! From Love, Gina and Gerry	false		
111-9806287-4820242	37551785997426	2020-04-13T17:25:01+00:00	2020-04-13T10:25:01-07:00	2020-04-13T17:55:11+00:00	2020-04-16T06:59:59+00:00	-3	63vhr6p6frp0v0b@marketplace.amazon.com	Donna Shelto	+1 347-448-3190 ext. 12077	ABR004	Arabella Farm Direct Bouquet of 12 Fresh Cut Yellow Roses with a Free Glass Vase	1	0	1	Expedited	Donna Shelto	224 Gould Rd.			Weare	New Hampshire	03281	US			false		
112-5124945-6785048	06302969457258	2020-04-13T17:31:40+00:00	2020-04-13T10:31:40-07:00	2020-04-13T17:59:38+00:00	2020-04-16T06:59:59+00:00	-3	clz8pp7vq1hx7xw@marketplace.amazon.com	Tristan Edwards	+1 210-728-4548 ext. 12964	ABR0022	Arabella Bouquets | Purchase by 11.30 AM EST Tuesday | Delivery on Thursday | Bouquet of 12 Fresh Cut Pink Roses	1	0	1	Expedited	Beverly Edwards	592 W 34TH ST			SAN BERNARDINO	CA	92405-2466	US		Happy Birthday mi madre!!! From Tristan Edwards	false		
114-6481012-8456216	36133426881250	2020-04-13T18:10:04+00:00	2020-04-13T11:10:04-07:00	2020-04-13T18:10:56+00:00	2020-04-16T06:59:59+00:00	-3	m2n74syh02lfgb8@marketplace.amazon.com	Charles M. Young III	+1 347-448-3190 ext. 10398	ABR004	Arabella Farm Direct Bouquet of 12 Fresh Cut Yellow Roses with a Free Glass Vase	1	0	1	Expedited	Deborah Greenwell	10016 WILDHORSE CANYON AVE			LAS VEGAS	NV	89166-5155	US		Happy Anniversary Baby	false		
114-1747582-4687433	10244995282002	2020-04-13T17:49:58+00:00	2020-04-13T10:49:58-07:00	2020-04-13T18:18:05+00:00	2020-04-16T06:59:59+00:00	-3	rdz532rmfs97r9d@marketplace.amazon.com	Jonathan Waugh	+1 314-282-9402 ext. 62257	ABR0022	Arabella Bouquets | Purchase by 11.30 AM EST Tuesday | Delivery on Thursday | Bouquet of 12 Fresh Cut Pink Roses	1	0	1	Expedited	Olivia Orr	1811 E 75TH AVE			DENVER	CO	80229-6514	US		Olivia, I love you with all of my heart! I miss you, and I can't wait to hug you!  Love, Jon	false		
111-8084938-3442641	57788826426634	2020-04-13T18:04:59+00:00	2020-04-13T11:04:59-07:00	2020-04-13T18:30:26+00:00	2020-04-16T06:59:59+00:00	-3	5mj701tkrkbvg9g@marketplace.amazon.com	Rosa Lancaster	+1 347-448-3190 ext. 73398	ABM010	Arabella Farm Direct The World Bouquet of Fresh Cut Flowers with a Free Glass Vase	1	0	1	Expedited	Jean Lancaster	115 PARK LAUREATE DR			HOUSTON	TX	77024-5636	US		Happy Birthday Jean!! Hope you enjoy your special day today, I know it's hard but hopefully we'll meet soon. Hugs, Kisses & God Bless. Love, Peter & Rosa Dee, Veronica, & Esmeralda From Rosa Lancaster	false		
114-5559933-5396256	44328888675010	2020-04-13T18:15:40+00:00	2020-04-13T11:15:40-07:00	2020-04-13T18:38:25+00:00	2020-04-16T06:59:59+00:00	-3	ld01js1slhzdbf7@marketplace.amazon.com	Chris & Michele	+1 210-728-4548 ext. 92043	ABR0022	Arabella Bouquets | Purchase by 11.30 AM EST Tuesday | Delivery on Thursday | Bouquet of 12 Fresh Cut Pink Roses	1	0	1	Expedited	Cyndy Hardie	36296 SUNFLOWER BLVD			SELBYVILLE	DE	19975-3752	US		Dear Cyndy and Bob, We're truly sorry for your loss. Please know that our hearts, our prayers, and our thoughts are with you and your family. Love, Christine, Ginny, Jamie, Jan, & Michele	false		
113-8120406-0059427	14066683559498	2020-04-13T18:23:58+00:00	2020-04-13T11:23:58-07:00	2020-04-13T18:53:48+00:00	2020-04-16T06:59:59+00:00	-3	dv8whntrss802wj@marketplace.amazon.com	Alyssa Everett	+1 314-282-9402 ext. 67144	ABR0022	Arabella Bouquets | Purchase by 11.30 AM EST Tuesday | Delivery on Thursday | Bouquet of 12 Fresh Cut Pink Roses	1	0	1	Expedited	Amber	27274 OAK CREST DR			ATHENS	AL	35613-5581	US		Just a little something to show how much I and the girls love you From Alyssa, Zoey, Llana	false		
113-8302639-5156239	30134888856426	2020-04-13T18:31:12+00:00	2020-04-13T11:31:12-07:00	2020-04-13T19:01:23+00:00	2020-04-16T06:59:59+00:00	-3	6f6c60wx86yr3x3@marketplace.amazon.com	Tony John	+1 314-282-9402 ext. 16351	ABR0022	Arabella Bouquets | Purchase by 11.30 AM EST Tuesday | Delivery on Thursday | Bouquet of 12 Fresh Cut Pink Roses	1	0	1	Expedited	Vasantha Kondamudi	15 Bakley Terrace			West Orange	NJ	07052	US		Happy birthday Mommy! Hope you have an amazing day ! We love you. -Preethi, Tony, Izzy, Isaac, Aiden	false		
111-8425747-7532266	38614559439058	2020-04-13T18:39:11+00:00	2020-04-13T11:39:11-07:00	2020-04-13T19:07:18+00:00	2020-04-16T06:59:59+00:00	-3	zs3thnrj2w4qxkm@marketplace.amazon.com	Levi krempel	+1 347-448-3190 ext. 75931	ABR0033	Arabella Bouquets | Purchase by 11.30 AM EST Tuesday | Delivery on Thursday | Bouquet of 12 Fresh Cut Orange Roses	1	0	1	Expedited	Natalee Paul	32949 E LINCOLN WAY			COBURG	OR	97408-9522	US		'Little' Natalee,   You've got this.  You are strong. You are resilient. You are SO loved.   Kick some ass,  Katie, Levi, & Addie <3	false		
113-5445550-6898641	16617129217858	2020-04-13T18:48:26+00:00	2020-04-13T11:48:26-07:00	2020-04-13T19:17:58+00:00	2020-04-16T06:59:59+00:00	-3	jzp2w19fkyv1wql@marketplace.amazon.com	Shizuka Sakai	+1 347-448-3190 ext. 05152	ABR0055	Arabella Bouquets | Purchase by 11.30 AM EST Tuesday | Delivery on Thursday | Bouquet of 12 Fresh Cut Hot Pink Roses	1	0	1	Expedited	Kadir Ozgol	357 87TH ST APT 3C			BROOKLYN	NY	11209-5125	US			false		
111-9514325-7303435	30617940669906	2020-04-13T18:55:23+00:00	2020-04-13T11:55:23-07:00	2020-04-13T19:24:17+00:00	2020-04-16T06:59:59+00:00	-3	c2gt4dfmj4sgxrg@marketplace.amazon.com	Erik	+1 210-728-4548 ext. 13447	ABR0022	Arabella Bouquets | Purchase by 11.30 AM EST Tuesday | Delivery on Thursday | Bouquet of 12 Fresh Cut Pink Roses	1	0	1	Expedited	Kurt Hammer	20819 N 55TH AVE			GLENDALE	AZ	85308-9338	US		Happy Birthday Mom! Hope you have a special day.  Love,  Alyssa and Erik	false		
111-2426679-3997010	28473309045282	2020-04-13T19:15:22+00:00	2020-04-13T12:15:22-07:00	2020-04-13T19:32:26+00:00	2020-04-16T06:59:59+00:00	-3	n9z84yfx9lvqykq@marketplace.amazon.com	Jeff Irving	+1 347-448-3190 ext. 95302	ABR0022	Arabella Bouquets | Purchase by 11.30 AM EST Tuesday | Delivery on Thursday | Bouquet of 12 Fresh Cut Pink Roses	1	0	1	Expedited	Jeff Irving	1 Hayes RD			Amityville	NY	11701	US		Dear Faye, happy 11  anniversary be careful out there. So we can have many more anniversaries together love you always Jeff,  xoxoxo From Jeff Irving	false		
113-8571100-5329827	26393655339146	2020-04-13T19:07:35+00:00	2020-04-13T12:07:35-07:00	2020-04-13T19:36:39+00:00	2020-04-16T06:59:59+00:00	-3	f4g9fyzqwgybk57@marketplace.amazon.com	Michael Sanford	+1 210-728-4548 ext. 69446	ABM0044	Arabella Farm Direct Bouquet of 5 Fresh Cut Blue Hydrangea with a Free Glass Vase	1	0	1	Expedited	Tina Diershaw	9013 STEINER ST			FORT WORTH	TX	76244-6195	US			false		
112-7492192-9280233	10466306291434	2020-04-13T19:09:16+00:00	2020-04-13T12:09:16-07:00	2020-04-13T19:37:01+00:00	2020-04-16T06:59:59+00:00	-3	5nd376lwc29cd5h@marketplace.amazon.com	Lauren Hope Wells	+1 314-282-9402 ext. 84063	ABR0033	Arabella Bouquets | Purchase by 11.30 AM EST Tuesday | Delivery on Thursday | Bouquet of 12 Fresh Cut Orange Roses	1	0	1	Expedited	Doris Schweinhart	6100 ARLONE CT			LOUISVILLE	KY	40216-1418	US		We love you grandma! From Love, Tony & Lauren	false		
111-5023370-0333826	28854842598122	2020-04-13T19:10:51+00:00	2020-04-13T12:10:51-07:00	2020-04-13T19:37:18+00:00	2020-04-16T06:59:59+00:00	-3	6rwd8kxx48wjmxm@marketplace.amazon.com	Muny	+1 347-448-3190 ext. 96858	ABM010	Arabella Farm Direct The World Bouquet of Fresh Cut Flowers with a Free Glass Vase	1	0	1	Expedited	Eva Chen Kram	100 E MAIN ST UNIT 422			WAUKESHA	WI	53186-5070	US			false		
112-1286237-7640262	43787223433266	2020-04-13T19:08:34+00:00	2020-04-13T12:08:34-07:00	2020-04-13T19:37:32+00:00	2020-04-16T06:59:59+00:00	-3	8ypdm8br625d0q8@marketplace.amazon.com	Roger Whitaker	+1 314-282-9402 ext. 18590	ABM010	Arabella Farm Direct The World Bouquet of Fresh Cut Flowers with a Free Glass Vase	1	0	1	Standard	Kristen Malloure	21390 WATERLOO RD			CHELSEA	MI	48118-9122	US		Hi Kristen, Some cheer to help you celebrate with us on Saturday! From Aunt Sue	false		
111-3488789-1957034	30804069943242	2020-04-13T19:25:20+00:00	2020-04-13T12:25:20-07:00	2020-04-13T19:53:03+00:00	2020-04-16T06:59:59+00:00	-3	yqy68yrds5vpjb8@marketplace.amazon.com	Mackenzie	+1 347-448-3190 ext. 68683	ABR0022	Arabella Bouquets | Purchase by 11.30 AM EST Tuesday | Delivery on Thursday | Bouquet of 12 Fresh Cut Pink Roses	1	0	1	Expedited	The Rich Family	196 MAPLE ST			ENGLEWOOD	NJ	07631-3630	US		Congratulations! I'm so excited for you! I'm so excited to meet the newest member of the family in October! Love you guys so much! From Aunt Mackenzie	false		
112-1089904-7254623	36344013338690	2020-04-13T19:25:14+00:00	2020-04-13T12:25:14-07:00	2020-04-13T19:53:29+00:00	2020-04-16T06:59:59+00:00	-3	71txz5c743gvqcn@marketplace.amazon.com	Matthew  T Zimmerman	+1 314-282-9402 ext. 51683	ABR0022	Arabella Bouquets | Purchase by 11.30 AM EST Tuesday | Delivery on Thursday | Bouquet of 12 Fresh Cut Pink Roses	1	0	1	Expedited	Angela Shank	12516 TWIN BRANCH ACRES RD			TAMPA	FL	33626-4425	US			false		
113-5624444-5064211	02935245301458	2020-04-13T19:47:16+00:00	2020-04-13T12:47:16-07:00	2020-04-13T20:04:45+00:00	2020-04-16T06:59:59+00:00	-3	zslcqm8rlvc66z2@marketplace.amazon.com	Mary Curtis	+1 210-728-4548 ext. 37799	ABR0055	Arabella Bouquets | Purchase by 11.30 AM EST Tuesday | Delivery on Thursday | Bouquet of 12 Fresh Cut Hot Pink Roses	1	0	1	Expedited	Kaitlin Curtis	3020 VERANDA VISTA DR			FT WORTH	TX	76177-2010	US		Hi Kate Happy Birthday Love Mom & Kurt	false		
111-2042560-5429821	00093695737370	2020-04-13T19:42:12+00:00	2020-04-13T12:42:12-07:00	2020-04-13T20:12:15+00:00	2020-04-16T06:59:59+00:00	-3	00hq22w26vx2gnz@marketplace.amazon.com	MBH	+1 314-282-9402 ext. 38297	ABR0022	Arabella Bouquets | Purchase by 11.30 AM EST Tuesday | Delivery on Thursday | Bouquet of 12 Fresh Cut Pink Roses	1	0	1	Expedited	BJ Russell	78 27th Street	Apt 222		Billings	MT	59102-8604	US			false		
112-2659072-5644211	67050783796066	2020-04-13T19:51:28+00:00	2020-04-13T12:51:28-07:00	2020-04-13T20:19:27+00:00	2020-04-16T06:59:59+00:00	-3	d8b2twyrnckhjlh@marketplace.amazon.com	melinda Aldag	+1 210-728-4548 ext. 00964	ABR0066	Arabella Bouquets | Purchase by 11.30 AM EST Tuesday | Delivery on Thursday | Bouquet of 12 Fresh Cut White Roses	1	0	1	Expedited	Marion Bishop	320 ELONIE AVE			THOMASVILLE	AL	36784-2852	US		Missing you! I love you! From Melinda	false		
111-1684406-0594649	69245287866266	2020-04-13T19:54:40+00:00	2020-04-13T12:54:40-07:00	2020-04-13T20:23:54+00:00	2020-04-16T06:59:59+00:00	-3	5pl2qpbwqzjrg7m@marketplace.amazon.com	kathy thomas	+1 210-728-4548 ext. 73584	ABR0022	Arabella Bouquets | Purchase by 11.30 AM EST Tuesday | Delivery on Thursday | Bouquet of 12 Fresh Cut Pink Roses	1	0	1	Expedited	Coon Memorial Nursing Home	EVA DAVIS 210 E TEXAS BLVD			DALHART	TX	79022-4322	US		Aunt Eva Happy Spring!  I love you so very much!  I am so sorry that we could not be there for Easter.    Kathy	false		
111-9736769-4267416	08587238272506	2020-04-13T19:57:47+00:00	2020-04-13T12:57:47-07:00	2020-04-13T20:26:33+00:00	2020-04-16T06:59:59+00:00	-3	86w9y5c3p19czqm@marketplace.amazon.com	Beth Graham	+1 347-448-3190 ext. 00965	ABR0022	Arabella Bouquets | Purchase by 11.30 AM EST Tuesday | Delivery on Thursday | Bouquet of 12 Fresh Cut Pink Roses	1	0	1	Expedited	Phyllis Vogel	4621 Main Street North	14 Montebello Hill Apts		Newbury	Vermont	05051	US		Happy Spring Mom.....good job on taking such good care of yourself at home....We all love you and miss you! Beth, John, Frannie, Jay and Ava	false		
113-1133099-2115424	31291899092730	2020-04-13T20:15:09+00:00	2020-04-13T13:15:09-07:00	2020-04-13T20:32:32+00:00	2020-04-16T06:59:59+00:00	-3	crp74gmd2swrf7q@marketplace.amazon.com	Virginia R. Mosley	+1 347-448-3190 ext. 68340	ABM010	Arabella Farm Direct The World Bouquet of Fresh Cut Flowers with a Free Glass Vase	1	0	1	Expedited	Ali Moalem	899 ANDALUSIA DR			ALEXANDRIA	VA	22308-1336	US		Hi Ali, Thinking of you and wishing you a speedy recovery!   Hope you are feeling better and able to get up and around.    Take care and stay safe.     Love, The Mosleys	false		
114-5377565-9954666	11674790288642	2020-04-13T20:26:39+00:00	2020-04-13T13:26:39-07:00	2020-04-13T20:56:04+00:00	2020-04-16T06:59:59+00:00	-3	v6ffbsb56jkvhnz@marketplace.amazon.com	Robert Raynolds	+1 210-728-4548 ext. 42482	ABR0022	Arabella Bouquets | Purchase by 11.30 AM EST Tuesday | Delivery on Thursday | Bouquet of 12 Fresh Cut Pink Roses	1	0	1	Expedited	Robert Raynolds	827 HACIENDA CIR			PASO ROBLES	CA	93446-5805	US			false		
114-8493096-3031422	62700802060602	2020-04-13T20:42:08+00:00	2020-04-13T13:42:08-07:00	2020-04-13T21:05:03+00:00	2020-04-16T06:59:59+00:00	-3	9rs1hvcksln6bqk@marketplace.amazon.com	Ingrid Lehrfeld	+1 210-728-4548 ext. 73401	ABR0022	Arabella Bouquets | Purchase by 11.30 AM EST Tuesday | Delivery on Thursday | Bouquet of 12 Fresh Cut Pink Roses	1	0	1	Expedited	Victoria Lacuesta	4606 WOODFIELD RD			BETHESDA	MD	20814-4044	US		Happy Birthday Victoria!!!  Love,  Will, Ingrid & Robert From Ingrid Lehrfeld	false		
114-4853573-6513002	26264609545226	2020-04-13T20:41:26+00:00	2020-04-13T13:41:26-07:00	2020-04-13T21:09:03+00:00	2020-04-16T06:59:59+00:00	-3	z8gtc519kdc975s@marketplace.amazon.com	Jenny Weaver	+1 314-282-9402 ext. 23824	ABR0022	Arabella Bouquets | Purchase by 11.30 AM EST Tuesday | Delivery on Thursday | Bouquet of 12 Fresh Cut Pink Roses	1	0	1	Expedited	Adam Weaver	2815 WOODLANDS DR SE			SMYRNA	GA	30080-8410	US		Sarah, hope these flowers bring you some joy.  I am so sorry about your Grandfather.  It is so hard even in the best of times.  I know you will keep his love in your heart and hope that soon your will be able to think of him and smile.  Love mom	false		
111-9906809-3980234	19761478974274	2020-04-13T20:54:09+00:00	2020-04-13T13:54:09-07:00	2020-04-13T21:19:32+00:00	2020-04-16T06:59:59+00:00	-3	n9rt5x1nsm0chf0@marketplace.amazon.com	Michael A Lazzari	+1 347-448-3190 ext. 80954	ABR001	Arabella Bouquets | Purchase by 11.30 AM EST Tuesday | Delivery on Thursday | Bouquet of 12 Fresh Cut Red Roses	1	0	1	Standard	Samantha Stumpo	7435 VALHALLA DR			HUDSONVILLE	MI	49426-7551	US		Thinking of you during this difficult time. Sending our love. From The Lazzari's From Michael A Lazzari	false		
111-9530215-0879402	65686864241690	2020-04-13T20:58:09+00:00	2020-04-13T13:58:09-07:00	2020-04-13T21:28:47+00:00	2020-04-16T06:59:59+00:00	-3	25tybkpsfzw4s7p@marketplace.amazon.com	Daniella	+1 210-728-4548 ext. 06871	ABM0033	Arabella Farm Direct Bouquet of 5 Fresh Cut White Hydrangea with a Free Glass Vase	1	0	1	Expedited	Daniella Lisker	706 EASTERN PKWY APT 6B			BROOKLYN	NY	11213-3408	US			false		
113-3747699-2643408	06885423492602	2020-04-13T21:18:21+00:00	2020-04-13T14:18:21-07:00	2020-04-13T21:43:14+00:00	2020-04-16T06:59:59+00:00	-3	g9z7t7gptnjh0k0@marketplace.amazon.com	cindy Hammonds	+1 347-448-3190 ext. 83995	ABM010	Arabella Farm Direct The World Bouquet of Fresh Cut Flowers with a Free Glass Vase	1	0	1	Expedited	Rebecca Hammonds	8601 PALISADES LAKES DR			ROYAL PALM BEACH	FL	33411-6331	US			false		
111-8221969-3261053	61410895246490	2020-04-13T21:19:49+00:00	2020-04-13T14:19:49-07:00	2020-04-13T21:47:47+00:00	2020-04-16T06:59:59+00:00	-3	bm4hh8qtp3qdfpd@marketplace.amazon.com	Kim M. Sciole	+1 347-448-3190 ext. 69013	ABM010	Arabella Farm Direct The World Bouquet of Fresh Cut Flowers with a Free Glass Vase	1	0	1	Expedited	Kim M. Sciole	4862 CADIZ CIR			PALM BEACH GARDENS	FL	33418-8982	US		Happy Birthday Honey. Hope you create an awesome day for your self Love: Domenick	false		
113-7395298-5685819	01153583456042	2020-04-13T21:39:02+00:00	2020-04-13T14:39:02-07:00	2020-04-13T21:48:34+00:00	2020-04-16T06:59:59+00:00	-3	7jfsck9484kj7t1@marketplace.amazon.com	Brenda	+1 347-448-3190 ext. 21168	ABR012	Arabella Bouquets | Purchase by 11.30 AM EST Tuesday | Delivery on Thursday | Bouquet of 18 Fresh Cut Pink Roses	1	0	1	Expedited	Jeannie Cipriani	115 E LEAMING AVE # 2			WILDWOOD	NJ	08260-4546	US		Happy Birthday Girlie! Miss you, love you and appreciate you so so much! Enjoy your special day, you deserve it. Love, Brenda	false		
114-5107801-5236200	02043745202402	2020-04-13T21:22:55+00:00	2020-04-13T14:22:55-07:00	2020-04-13T21:51:29+00:00	2020-04-16T06:59:59+00:00	-3	91nb82ggf6jkc27@marketplace.amazon.com	Karen L. O'Brien	+1 314-282-9402 ext. 06145	ABR0022	Arabella Bouquets | Purchase by 11.30 AM EST Tuesday | Delivery on Thursday | Bouquet of 12 Fresh Cut Pink Roses	1	0	1	Expedited	Denise Lang	25326 HAMDEN VALLEY DR			RICHMOND	TX	77406-7260	US		Happy birthday Aunt Denise!!  Love you From Summer	false		
114-5978603-4717853	24025239613210	2020-04-13T21:33:01+00:00	2020-04-13T14:33:01-07:00	2020-04-13T22:00:31+00:00	2020-04-16T06:59:59+00:00	-3	sft9d4qg9sxv09g@marketplace.amazon.com	Tiffany Henery-Brown	+1 314-282-9402 ext. 52067	ABR0033	Arabella Bouquets | Purchase by 11.30 AM EST Tuesday | Delivery on Thursday | Bouquet of 12 Fresh Cut Orange Roses	1	0	1	Expedited	Scyvonne Shedrick	18 THERESA CT			PATCHOGUE	NY	11772-1451	US		To Scyvonne,  Sending our deepest condolences to you.  Love,   The Brown’s From Tiffany Henery-Brown	false		
114-6377436-3736228	15889092964586	2020-04-13T21:41:34+00:00	2020-04-13T14:41:34-07:00	2020-04-13T22:07:58+00:00	2020-04-16T06:59:59+00:00	-3	6zd0mr12s2tr810@marketplace.amazon.com	Holly Kristine McKhann	+1 347-448-3190 ext. 58197	ABR004	Arabella Farm Direct Bouquet of 12 Fresh Cut Yellow Roses with a Free Glass Vase	1	0	1	Standard	Shannon Jager	15860 BENT TREE RD			POWAY	CA	92064-2355	US		Happy Birthday Mom! I Love You! Holly	false		
114-2900644-4831408	01141934797658	2020-04-13T21:40:16+00:00	2020-04-13T14:40:16-07:00	2020-04-13T22:09:14+00:00	2020-04-16T06:59:59+00:00	-3	rgty161l0ytx9d7@marketplace.amazon.com	Marilyn Burress	+1 314-282-9402 ext. 66271	ABR0022	Arabella Bouquets | Purchase by 11.30 AM EST Tuesday | Delivery on Thursday | Bouquet of 12 Fresh Cut Pink Roses	1	0	1	Standard	Taylor Sims	4248 N 76TH ST APT 206			MILWAUKEE	WI	53222-2042	US		Hi Taylor, Enjoy your gift! From Marilyn Burress	false		
112-5655255-4421847	67049636855282	2020-04-13T21:47:44+00:00	2020-04-13T14:47:44-07:00	2020-04-13T22:16:11+00:00	2020-04-16T06:59:59+00:00	-3	gf3gtqmvq969v21@marketplace.amazon.com	Samantha	+1 314-282-9402 ext. 84049	ABM010	Arabella Farm Direct The World Bouquet of Fresh Cut Flowers with a Free Glass Vase	1	0	1	Standard	Maria Curto	9 LAKE SHORE AVE			DERRY	NH	03038-5104	US		Christos Anesti and Happy birthday Uncle Wayne! From Sam & Eddie	false		
111-1965883-4157800	36146576683522	2020-04-13T21:48:20+00:00	2020-04-13T14:48:20-07:00	2020-04-13T22:19:12+00:00	2020-04-16T06:59:59+00:00	-3	ffs2nw1xfgjq0sw@marketplace.amazon.com	Courtney Smith	+1 314-282-9402 ext. 74040	ABR0022	Arabella Bouquets | Purchase by 11.30 AM EST Tuesday | Delivery on Thursday | Bouquet of 12 Fresh Cut Pink Roses	1	0	1	Expedited	Julie smith	226 BARNETT ST			SANTA ROSA	CA	95407-7008	US		Loveeeee you beautiful your about to get more shittt biiitch happy bday 💕 From Courtney Smith	false		
113-6085164-4370620	45072413205842	2020-04-13T21:53:11+00:00	2020-04-13T14:53:11-07:00	2020-04-13T22:20:57+00:00	2020-04-16T06:59:59+00:00	-3	5cwxld0p5g2239x@marketplace.amazon.com	Lavelle Romain	+1 347-448-3190 ext. 42920	ABR004	Arabella Farm Direct Bouquet of 12 Fresh Cut Yellow Roses with a Free Glass Vase	1	0	1	Expedited	Neila Jones	8045 WINCHESTER BLVD			QUEENS VILLAGE	NY	11427-2193	US			false		
113-8413062-1330609	46669190733362	2020-04-13T21:52:25+00:00	2020-04-13T14:52:25-07:00	2020-04-13T22:21:04+00:00	2020-04-16T06:59:59+00:00	-3	26d5xzqnk06v1fc@marketplace.amazon.com	Brandon thein	+1 347-448-3190 ext. 78463	ABR0022	Arabella Bouquets | Purchase by 11.30 AM EST Tuesday | Delivery on Thursday | Bouquet of 12 Fresh Cut Pink Roses	1	0	1	Standard	Brandon thein	40145			Waterford	Va	20197	US		Happy Birthday to the most caring woman in the world! I hope your day is filled with joy! Ye Amo! From Brandon	false		
112-0913028-4806637	03843852079794	2020-04-13T22:03:26+00:00	2020-04-13T15:03:26-07:00	2020-04-13T22:32:24+00:00	2020-04-16T06:59:59+00:00	-3	xfkk19wwhcb6ky6@marketplace.amazon.com	Joyce	+1 347-448-3190 ext. 43296	ABR0055	Arabella Bouquets | Purchase by 11.30 AM EST Tuesday | Delivery on Thursday | Bouquet of 12 Fresh Cut Hot Pink Roses	1	0	1	Expedited	Gail Barrett	3205 211th Street S.E			Bothell	WA	98021	US		Happy Birthday!!! Hope you enjoy!!!  Love you, Joyce. ❤️❤️ From Joyce	false		
113-4696867-7775425	62645898400498	2020-04-13T22:14:29+00:00	2020-04-13T15:14:29-07:00	2020-04-13T22:36:45+00:00	2020-04-16T06:59:59+00:00	-3	d9mb8j0gvzsfrv6@marketplace.amazon.com	Suzanne	+1 314-282-9402 ext. 96715	ABR004	Arabella Farm Direct Bouquet of 12 Fresh Cut Yellow Roses with a Free Glass Vase	1	0	1	Expedited	Hank Zekanis	40300 WASHINGTON ST APT B-108			BERMUDA DUNES	CA	92203-9526	US		Dear Hank Missing Max.  My love, Sue	false		
113-2536566-3787441	08416718202458	2020-04-13T22:13:39+00:00	2020-04-13T15:13:39-07:00	2020-04-13T22:42:38+00:00	2020-04-16T06:59:59+00:00	-3	85q4tyk2y9xxq34@marketplace.amazon.com	Jeff Galvin	+1 347-448-3190 ext. 17171	ABR0022	Arabella Bouquets | Purchase by 11.30 AM EST Tuesday | Delivery on Thursday | Bouquet of 12 Fresh Cut Pink Roses	1	0	1	Expedited	Jeff Galvin	5918 GRISBY HOUSE CT			CENTREVILLE	VA	20120-2864	US			false		
114-0238404-2109829	05425973782058	2020-04-13T22:51:12+00:00	2020-04-13T15:51:12-07:00	2020-04-13T23:15:55+00:00	2020-04-16T06:59:59+00:00	-3	nxj00y2qkdh2byw@marketplace.amazon.com	Sawyer	+1 210-728-4548 ext. 63476	ABM010	Arabella Farm Direct The World Bouquet of Fresh Cut Flowers with a Free Glass Vase	1	0	1	Expedited	Marlene DeGroot	637 E MABERRY DR			LYNDEN	WA	98264-9337	US		We are so thankful to hear that you are on the mend! Our thoughts and prayers are with you. May you feel the love of God and family as you continue to recover.   Love, The Pasma Clan	false		
113-8019516-5431414	38794912484594	2020-04-13T23:06:33+00:00	2020-04-13T16:06:33-07:00	2020-04-13T23:26:31+00:00	2020-04-16T06:59:59+00:00	-3	4bl3bdqynlj6s87@marketplace.amazon.com	MARIA FERNANDA ORTEGA	+1 210-728-4548 ext. 44601	ABR0022	Arabella Bouquets | Purchase by 11.30 AM EST Tuesday | Delivery on Thursday | Bouquet of 12 Fresh Cut Pink Roses	1	0	1	Expedited	Carolina & Paulo	415 L ST NW APT 232			WASHINGTON	DC	20001-2923	US		Parabéns à nova família! Estamos muito felizes e em breve estaremos juntos comemorando a chegada da Muzunguinha ♥️ From Fernanda, Gui e Botter	false		
114-9553579-8629816	57635589820810	2020-04-13T22:41:20+00:00	2020-04-13T15:41:20-07:00	2020-04-13T23:28:19+00:00	2020-04-16T06:59:59+00:00	-3	hvzb13qkj1tpgnl@marketplace.amazon.com	Amanda	+1 314-282-9402 ext. 49650	ABR0022	Arabella Bouquets | Purchase by 11.30 AM EST Tuesday | Delivery on Thursday | Bouquet of 12 Fresh Cut Pink Roses	1	0	1	Expedited	Shawna Willoughby	318 S LOCUST ST			CRESCENT	OK	73028-9119	US		words can not describe how much our friendship means to me. I am lucky to have you in my life. Happy (uber) Belated my uni-soulmate. I wish I could give you more but you know this comes from the heart. Affinity/Infinity xoxo From Amanda	false		
114-1279293-8521817	23718532899210	2020-04-13T23:10:37+00:00	2020-04-13T16:10:37-07:00	2020-04-13T23:33:57+00:00	2020-04-16T06:59:59+00:00	-3	f04yt654l7crw7p@marketplace.amazon.com	Dorian Lewis	+1 347-448-3190 ext. 39863	ABR0022	Arabella Bouquets | Purchase by 11.30 AM EST Tuesday | Delivery on Thursday | Bouquet of 12 Fresh Cut Pink Roses	1	0	1	Expedited	Janene Sprague	2602 MUSCADINE LN			PASADENA	TX	77502-5733	US		Hi Janene, Thank you for all that you do for us!  Gracie Perez, Dorian Rogers, Alice Chin & Luis Hernandez	false		
114-8747836-1105025	28862191343986	2020-04-13T23:12:57+00:00	2020-04-13T16:12:57-07:00	2020-04-13T23:41:45+00:00	2020-04-16T06:59:59+00:00	-3	f04yt654l7crw7p@marketplace.amazon.com	Dorian Lewis	7135745422 ext 62122	ABR0022	Arabella Bouquets | Purchase by 11.30 AM EST Tuesday | Delivery on Thursday | Bouquet of 12 Fresh Cut Pink Roses	1	0	1	Expedited	Jackie Elerby	9814 FM 1960 BYPASS RD W APT 404			HUMBLE	TX	77338-3584	US		Hi Jackie, Thank you for all that you do for us!  Gracie Perez, Dorian Rogers, Luis Hernandez and Alice Chin	false		
114-4620925-4569007	22060374546698	2020-04-13T23:23:19+00:00	2020-04-13T16:23:19-07:00	2020-04-13T23:46:12+00:00	2020-04-16T06:59:59+00:00	-3	11gspk87bhyy3pw@marketplace.amazon.com	Julie Allen	+1 210-728-4548 ext. 81558	ABR0022	Arabella Bouquets | Purchase by 11.30 AM EST Tuesday | Delivery on Thursday | Bouquet of 12 Fresh Cut Pink Roses	1	0	1	Expedited	Miss Amanda Allen	23025 FOREST WAY			CALIFORNIA	MD	20619-6006	US		Happy 13th Birthday, Dear sweet Amanda❤️ May your journey into teens years bring you the blueprints for your adult life.  Enjoy this time! And remember all you can always call me😊 From Love, Oma From Julie Allen	false		
112-7616210-2857009	64530338489826	2020-04-13T23:22:37+00:00	2020-04-13T16:22:37-07:00	2020-04-13T23:52:48+00:00	2020-04-16T06:59:59+00:00	-3	w1njc98w7l2tpm0@marketplace.amazon.com	diego	+1 347-448-3190 ext. 69930	ABR0022	Arabella Bouquets | Purchase by 11.30 AM EST Tuesday | Delivery on Thursday | Bouquet of 12 Fresh Cut Pink Roses	1	0	1	Expedited	Diego mendiola	1708 LA VISTA DEL OCEANO			SANTA BARBARA	CA	93109-1673	US			false		
113-4928865-9552261	26556986233378	2020-04-13T23:32:16+00:00	2020-04-13T16:32:16-07:00	2020-04-13T23:59:37+00:00	2020-04-16T06:59:59+00:00	-3	7qbdffdp9kdhtr0@marketplace.amazon.com	Gabriela Savici	+1 347-448-3190 ext. 69684	ABR0022	Arabella Bouquets | Purchase by 11.30 AM EST Tuesday | Delivery on Thursday | Bouquet of 12 Fresh Cut Pink Roses	1	0	1	Standard	Oana Vesa	15045 SW ROYALTY PKWY APT L15			TIGARD	OR	97224-3976	US		Happy birthday beautiful ! I miss having coffee with you ! I hope to see you soon. Have a woderful birthday Oana ! XOXO From Gabriela Savici	false		
114-7929850-8421031	34803145769730	2020-04-13T23:44:32+00:00	2020-04-13T16:44:32-07:00	2020-04-14T00:10:26+00:00	2020-04-16T06:59:59+00:00	-3	3mcv07w53wdfy0z@marketplace.amazon.com	cheryl anderson	+1 347-448-3190 ext. 26097	ABR0055	Arabella Bouquets | Purchase by 11.30 AM EST Tuesday | Delivery on Thursday | Bouquet of 12 Fresh Cut Hot Pink Roses	1	0	1	Expedited	Marsha Anderson	2325 EMERSON ST			PALO ALTO	CA	94301-4117	US		Hi Marsha, To honor and celebrate you! Happy Birthday dear sister. Love, Cher	false		
113-3767782-1733801	36185810372754	2020-04-14T00:22:12+00:00	2020-04-13T17:22:12-07:00	2020-04-14T00:47:46+00:00	2020-04-16T06:59:59+00:00	-3	hmj8jkty6llfbjg@marketplace.amazon.com	Martha Zepeda	+1 314-282-9402 ext. 03761	ABR0055	Arabella Bouquets | Purchase by 11.30 AM EST Tuesday | Delivery on Thursday | Bouquet of 12 Fresh Cut Hot Pink Roses	1	0	1	Expedited	Freida Lutz	7323 DELTA COMMERCE DR APT 14	ASSISTED LIVING		LANSING	MI	48917-1069	US		Can't wait to see you again. We love you! From Martha Zepeda, David Jr, Snoopy, Trixie	false		
113-2174137-0529851	05731034781794	2020-04-14T00:27:32+00:00	2020-04-13T17:27:32-07:00	2020-04-14T00:51:11+00:00	2020-04-16T06:59:59+00:00	-3	5wllqr8hd0qv0hh@marketplace.amazon.com	Stacy Massengill	+1 347-448-3190 ext. 47166	ABR013	Arabella Bouquets | Purchase by 11.30 AM EST Tuesday | Delivery on Thursday | Bouquet of 18 Fresh Cut Yellow Roses	1	0	1	Expedited	Lynne Kramer	1225 SHELLY AVE			MAUMEE	OH	43537-2920	US		Happy Birthday!  Love, Max From Max Stierwalt From Max Stierwalt	false		
112-2670306-3998644	14642429141842	2020-04-14T00:30:42+00:00	2020-04-13T17:30:42-07:00	2020-04-14T01:00:07+00:00	2020-04-16T06:59:59+00:00	-3	2k2htd1gr6jmnbb@marketplace.amazon.com	Uland	+1 347-448-3190 ext. 95210	ABR0022	Arabella Bouquets | Purchase by 11.30 AM EST Tuesday | Delivery on Thursday | Bouquet of 12 Fresh Cut Pink Roses	1	0	1	Expedited	Meredith Saladis	350 RICHMOND TER APT 6J			STATEN ISLAND	NY	10301-1526	US		Enjoy your gift! From Uland	false		
114-4250082-4251402	40913063052106	2020-04-14T00:36:02+00:00	2020-04-13T17:36:02-07:00	2020-04-14T01:01:50+00:00	2020-04-16T06:59:59+00:00	-3	g5pbcrtxkhw2nwm@marketplace.amazon.com	Lacey Ogle	+1 314-282-9402 ext. 83132	ABR0066	Arabella Bouquets | Purchase by 11.30 AM EST Tuesday | Delivery on Thursday | Bouquet of 12 Fresh Cut White Roses	1	0	1	Expedited	Annette Watkins	27003 NE BJUR RD			RIDGEFIELD	WA	98642-9756	US		Dear Annette,  We are so sorry for your loss. Know that we are all thinking of you at this time. Our thoughts and prayers are with you.  From Jevon and all of us at Academy Mortgage Battle Ground.	false		
112-5727823-1419412	45342618537018	2020-04-14T00:42:49+00:00	2020-04-13T17:42:49-07:00	2020-04-14T01:12:36+00:00	2020-04-16T06:59:59+00:00	-3	zfc8r5f4q8phn4q@marketplace.amazon.com	Karen Yochum	+1 210-728-4548 ext. 11444	ABM010	Arabella Farm Direct The World Bouquet of Fresh Cut Flowers with a Free Glass Vase	1	0	1	Expedited	Alice J Yochum	225 W ROSE HILL AVE APT 317			KIRKWOOD	MO	63122-5978	US			false		
111-7191199-5593862	08872079553882	2020-04-14T01:05:58+00:00	2020-04-13T18:05:58-07:00	2020-04-14T01:34:50+00:00	2020-04-16T06:59:59+00:00	-3	jbrs36dwkxb7wbm@marketplace.amazon.com	Cindy	+1 347-448-3190 ext. 90599	ABR015	Arabella Bouquets | Purchase by 11.30 AM EST Tuesday | Delivery on Thursday | Bouquet of 18 Fresh Cut Orange Roses	1	0	1	Expedited	Sam Longfellow	108 LA VISTA RD			PUEBLO	CO	81005-2617	US		Happy Birthday Lindsey!  Love you more every year! From Cindy and Gary	false		
114-9190562-2925848	06795873904314	2020-04-14T01:09:02+00:00	2020-04-13T18:09:02-07:00	2020-04-14T01:39:39+00:00	2020-04-16T06:59:59+00:00	-3	k54vlnzp1lmd69v@marketplace.amazon.com	andy foote	+1 210-728-4548 ext. 02165	ABR0022	Arabella Bouquets | Purchase by 11.30 AM EST Tuesday | Delivery on Thursday | Bouquet of 12 Fresh Cut Pink Roses	1	0	1	Expedited	Andy Foote	19 BOOK LN			JACKSONVILLE	IL	62650-2753	US			false		
113-5672043-4174667	36268063912922	2020-04-14T01:16:59+00:00	2020-04-13T18:16:59-07:00	2020-04-14T01:46:17+00:00	2020-04-16T06:59:59+00:00	-3	z2bspqjvhmhh8m2@marketplace.amazon.com	Terry Macky	+1 347-448-3190 ext. 18271	ABR015	Arabella Bouquets | Purchase by 11.30 AM EST Tuesday | Delivery on Thursday | Bouquet of 18 Fresh Cut Orange Roses	1	0	1	Expedited	Jo Ann Trubiano	54982 RIDGE RD			NEW BALTIMORE	MI	48047-5804	US		Happy Birthday Momma, I miss you so much. Hoping you have a beautiful day! Love, Terry and Family	false		
113-3567461-5535453	30967115645546	2020-04-14T01:31:10+00:00	2020-04-13T18:31:10-07:00	2020-04-14T01:58:51+00:00	2020-04-16T06:59:59+00:00	-3	qkchkq6tk56zbzw@marketplace.amazon.com	Kendall LHeureux	+1 347-448-3190 ext. 00301	ABR001	Arabella Bouquets | Purchase by 11.30 AM EST Tuesday | Delivery on Thursday | Bouquet of 12 Fresh Cut Red Roses	1	0	1	Standard	Natalya Jaime	2328 CARRIAGE WAY			MILFORD	MI	48381-3167	US		Figured the one from Barcelona has withered so I wanted to replace it :) From Pumpkin	false		
113-1892682-2442662	25034330513874	2020-04-14T01:31:10+00:00	2020-04-13T18:31:10-07:00	2020-04-14T01:59:22+00:00	2020-04-16T06:59:59+00:00	-3	jd2nj0rpysf2nwg@marketplace.amazon.com	Julia Riddle	+1 347-448-3190 ext. 74989	ABR0022	Arabella Bouquets | Purchase by 11.30 AM EST Tuesday | Delivery on Thursday | Bouquet of 12 Fresh Cut Pink Roses	1	0	1	Expedited	Christina  Mesurac	3530 SOUTHERS RD			GAINESVILLE	GA	30506-2027	US		Thank you for 'all' you do! We appreciate 'so' much what you have done for Tristan and LB Love you  Brian and Julie	false		
113-1471424-6350645	45824630636514	2020-04-14T01:38:56+00:00	2020-04-13T18:38:56-07:00	2020-04-14T02:03:22+00:00	2020-04-16T06:59:59+00:00	-3	rtf1nd1xhcqkhks@marketplace.amazon.com	Saurabh	+1 347-448-3190 ext. 30450	ABR0055	Arabella Bouquets | Purchase by 11.30 AM EST Tuesday | Delivery on Thursday | Bouquet of 12 Fresh Cut Hot Pink Roses	1	0	1	Standard	Mary Beth Keller	PITTSBURGH 106 SUNRISE DR			PITTSBURGH	PA	15236-3752	US		Hi Mary Beth, Happy Executive Assistant day ... thanks for all the support during last year, Enjoy your gift! From Saurabh	false		
114-9431962-4988245	51515660509690	2020-04-14T01:36:41+00:00	2020-04-13T18:36:41-07:00	2020-04-14T02:05:03+00:00	2020-04-16T06:59:59+00:00	-3	7zhp6vm3rgvd67k@marketplace.amazon.com	craig kay	+1 347-448-3190 ext. 45825	ABR0022	Arabella Bouquets | Purchase by 11.30 AM EST Tuesday | Delivery on Thursday | Bouquet of 12 Fresh Cut Pink Roses	1	0	1	Expedited	Chalene Duquella	14 CLIFFORD CT			WARWICK	NY	10990-3610	US		Just want you all know know how sorry we are and how much we wish we could be there With you. From Alexandra, Craig & Sophia	false		
112-7846227-3005017	14645658461938	2020-04-14T01:52:16+00:00	2020-04-13T18:52:16-07:00	2020-04-14T02:21:23+00:00	2020-04-16T06:59:59+00:00	-3	xv9frjx9p40qfsh@marketplace.amazon.com	Kurt Lavetti	+1 210-728-4548 ext. 63364	ABM007	Arabella Farm Direct Bouquet of 7 Fresh Cut Orange Lilies with a Free Glass Vase	1	0	1	Expedited	Susan B Lavetti	13005 Bryantown Ct			Bryantown	MD	20617	US		Happy birthday!!!  Wish I could be there!  <3 Kurt	false		
113-1549220-3025868	23126492988218	2020-04-14T02:23:52+00:00	2020-04-13T19:23:52-07:00	2020-04-14T02:52:21+00:00	2020-04-16T06:59:59+00:00	-3	w5btl0f3g10qkqr@marketplace.amazon.com	Linda Larsen	+1 210-728-4548 ext. 74981	ABR0022	Arabella Bouquets | Purchase by 11.30 AM EST Tuesday | Delivery on Thursday | Bouquet of 12 Fresh Cut Pink Roses	1	0	1	Expedited	Bev Johnson	12390 MILAM RD			COLORADO SPRINGS	CO	80908-3846	US		Happy Birthday!!! From Love, Linda, Sue and Carol	false		
111-8561866-1742636	39381137793178	2020-04-14T02:24:54+00:00	2020-04-13T19:24:54-07:00	2020-04-14T02:54:56+00:00	2020-04-16T06:59:59+00:00	-3	8dshpnpcstww9ln@marketplace.amazon.com	Marc	+1 347-448-3190 ext. 99031	ABR0055	Arabella Bouquets | Purchase by 11.30 AM EST Tuesday | Delivery on Thursday | Bouquet of 12 Fresh Cut Hot Pink Roses	1	0	1	Expedited	Neda Rahimi	602 PLUM ST SW			VIENNA	VA	22180-6328	US			false		
113-3355851-2790658	26229521732362	2020-04-14T02:31:56+00:00	2020-04-13T19:31:56-07:00	2020-04-14T02:55:47+00:00	2020-04-16T06:59:59+00:00	-3	klxzvhxcf5f8bxb@marketplace.amazon.com	Isaure Mignotte	+1 314-282-9402 ext. 17937	ABR012	Arabella Bouquets | Purchase by 11.30 AM EST Tuesday | Delivery on Thursday | Bouquet of 18 Fresh Cut Pink Roses	1	0	1	Expedited	Anna Umbreit	1006 ORCHARD RD			RICHMOND	VA	23226-3054	US		Happy Birthday Month, my sweet Anna!! Happy anniversary -at least I’m early for that one- to you both!! Lots of love and happiness in your new home! Love you! Isaure From Isaure Mignotte	false		
111-4742643-6969047	60717863567810	2020-04-14T02:34:30+00:00	2020-04-13T19:34:30-07:00	2020-04-14T03:00:42+00:00	2020-04-16T06:59:59+00:00	-3	jgqqz1ck03xc7tr@marketplace.amazon.com	Kristen Stoll	+1 210-728-4548 ext. 22254	ABR0022	Arabella Bouquets | Purchase by 11.30 AM EST Tuesday | Delivery on Thursday | Bouquet of 12 Fresh Cut Pink Roses	1	0	1	Standard	Linda Marino	4 LAKE SPRING CT			ISLAND HEIGHTS	NJ	08732-7802	US		I love and miss you Mom!! ❤️🌸❤️ Kristen From Kristen Stoll	false		
113-5337906-1194611	39415463798906	2020-04-14T02:31:32+00:00	2020-04-13T19:31:32-07:00	2020-04-14T03:01:43+00:00	2020-04-16T06:59:59+00:00	-3	xx9xkwqjg9kq8tj@marketplace.amazon.com	karla noboa	+1 347-448-3190 ext. 72103	ABR0022	Arabella Bouquets | Purchase by 11.30 AM EST Tuesday | Delivery on Thursday | Bouquet of 12 Fresh Cut Pink Roses	1	0	1	Expedited	Karla Noboa-eckardt	34 E SLOPE RD			BAYVILLE	NEW YORK	11709-2112	US			false		
112-3974702-0538648	24566996399586	2020-04-14T02:37:38+00:00	2020-04-13T19:37:38-07:00	2020-04-14T03:06:22+00:00	2020-04-16T06:59:59+00:00	-3	gcygc94p22ncbr3@marketplace.amazon.com	Greg Gugliotta	+1 314-282-9402 ext. 72261	ABR0066	Arabella Bouquets | Purchase by 11.30 AM EST Tuesday | Delivery on Thursday | Bouquet of 12 Fresh Cut White Roses	1	0	1	Expedited	Pam Gugliotta	36 CATOONAH ST UNIT 18			RIDGEFIELD	CT	06877-4117	US		Dear Mom, Wishing you a Happy Birthday! Love, Greg & FJ	false		
111-0978529-3359440	07255055284906	2020-04-14T02:42:13+00:00	2020-04-13T19:42:13-07:00	2020-04-14T03:12:53+00:00	2020-04-16T06:59:59+00:00	-3	2sx23b05gr80cp6@marketplace.amazon.com	Brian	+1 347-448-3190 ext. 98405	ABR0055	Arabella Bouquets | Purchase by 11.30 AM EST Tuesday | Delivery on Thursday | Bouquet of 12 Fresh Cut Hot Pink Roses	1	0	1	Expedited	Jeffrey B French	10 Cragmont Ct.			SAN MATEO	CA	94403	US			false		
