order-id	order-item-id	purchase-date	payments-date	reporting-date	promise-date	days-past-promise	buyer-email	buyer-name	buyer-phone-number	sku	product-name	quantity-purchased	quantity-shipped	quantity-to-ship	ship-service-level	recipient-name	ship-address-1	ship-address-2	ship-address-3	ship-city	ship-state	ship-postal-code	ship-country	gift-wrap-type	gift-message-text	is-business-order	purchase-order-number	price-designation
111-2657623-3437857	37904691082106	2020-04-21T14:58:04+00:00	2020-04-21T07:58:04-07:00	2020-04-21T15:23:11+00:00	2020-04-24T06:59:59+00:00	-3	3l12lzdnx5s84mm@marketplace.amazon.com	Judith King	+1 347-448-3190 ext. 08769	ABM010	Arabella Farm Direct Fields of The World Bouquet of Fresh Cut Flowers with a Free Glass Vase	1	0	1	Expedited	Patricia Saari	619 MOUNTAINBROOK DR			BOILING SPRINGS	SC	29316-6112	US			false		
114-2044124-4955458	23602780614786	2020-04-21T15:18:00+00:00	2020-04-21T08:18:00-07:00	2020-04-21T15:48:15+00:00	2020-04-25T06:59:59+00:00	-4	x5dgc0ywhpsv04t@marketplace.amazon.com	Joanna Konikoff	+1 210-728-4548 ext. 13771	ABR0022	Arabella Bouquets | Purchase by 11.30 AM EST Wednesday | Delivery on Friday | Bouquet of 12 Fresh Cut Pink Roses	1	0	1	Expedited	Joanna Konikoff	4766 Cherokee Drive			Suffolk	VA	23434	US			false		
111-8127353-8882648	16028295397114	2020-04-21T15:26:27+00:00	2020-04-21T08:26:27-07:00	2020-04-21T15:48:34+00:00	2020-04-24T06:59:59+00:00	-3	7tpv4pp343lq2tt@marketplace.amazon.com	Lance Lamar Cox	+1 210-728-4548 ext. 97488	ABR0033	Arabella Bouquets | Purchase by 11.30 AM EST Wednesday | Delivery on Friday | Bouquet of 12 Fresh Cut Orange Roses	1	0	1	Expedited	Ruby Madole	12825 OSR			Midway	TX	75852	US		Look at me, I’m 83!  Wouldn’t you like to be like me! Happy Birthday!   Your Darling 3 Oh, and Lance and Tom heeeheehee From Lance Lamar Cox	false		
112-6281927-4591427	34934734376058	2020-04-21T15:27:31+00:00	2020-04-21T08:27:31-07:00	2020-04-21T15:58:01+00:00	2020-04-24T06:59:59+00:00	-3	8sn8l8vmj5gdcvm@marketplace.amazon.com	Erica Olson	+1 347-448-3190 ext. 43601	ABR004	Arabella Farm Direct Bouquet of 12 Fresh Cut Yellow Roses with a Free Glass Vase	1	0	1	Expedited	Erica Olson	290 CLEARVIEW DR			PALMERTON	PA	18071-6304	US			false		
113-7793612-0084238	08812233616426	2020-04-21T15:37:17+00:00	2020-04-21T08:37:17-07:00	2020-04-21T16:05:16+00:00	2020-04-24T06:59:59+00:00	-3	wtlmy6fccvwvncg@marketplace.amazon.com	donna s nichols	+1 412-532-4665 ext. 89925	ABM010	Arabella Farm Direct Fields of The World Bouquet of Fresh Cut Flowers with a Free Glass Vase	1	0	1	Standard	Carolyn Silver	4410 FELLOWSHIP LN			VA BEACH	VA	23455-6138	US		Wishing you an early “Happy Mother’s Day”! I can’t wait for us to get together for lunch & shopping again! Love You So Very Much, Donna	false		
114-9178420-3616252	37391473334594	2020-04-21T15:37:24+00:00	2020-04-21T08:37:24-07:00	2020-04-21T16:06:00+00:00	2020-04-25T06:59:59+00:00	-4	zzs3bg756wxfy6l@marketplace.amazon.com	Rosanne   Betz	+1 314-282-9402 ext. 00538	ABR0022	Arabella Bouquets | Purchase by 11.30 AM EST Wednesday | Delivery on Friday | Bouquet of 12 Fresh Cut Pink Roses	1	0	1	Expedited	Dianne Frerichs	644 SOUTHERN WOODS CIR SW			ROCHESTER	MN	55902-1836	US			false		
113-0056117-4616240	26685398021026	2020-04-21T15:45:22+00:00	2020-04-21T08:45:22-07:00	2020-04-21T16:13:43+00:00	2020-04-25T06:59:59+00:00	-4	jk35cc543fb0mp3@marketplace.amazon.com	Janis L. Harding	+1 347-448-3190 ext. 38632	ABR0022	Arabella Bouquets | Purchase by 11.30 AM EST Wednesday | Delivery on Friday | Bouquet of 12 Fresh Cut Pink Roses	1	0	1	Expedited	Cathy Carroll	601 E 32ND ST APT 809			CHICAGO	IL	60616-4094	US		Dear Cathy, I hope these brighten your day.  You are in my prayers. God Bless,  Jan	false		
112-9436071-0960237	03742328663818	2020-04-21T15:46:13+00:00	2020-04-21T08:46:13-07:00	2020-04-21T16:16:53+00:00	2020-04-25T06:59:59+00:00	-4	j16c55prg1hypqr@marketplace.amazon.com	lisa	+1 314-282-9402 ext. 72976	ABR0022	Arabella Bouquets | Purchase by 11.30 AM EST Wednesday | Delivery on Friday | Bouquet of 12 Fresh Cut Pink Roses	1	0	1	Expedited	Bouasa Xoumphonphakdy	178 SPRING GARDEN CIR			HIGH POINT	NC	27260-5957	US			false		
114-8934560-5469010	33699189797866	2020-04-21T15:54:39+00:00	2020-04-21T08:54:39-07:00	2020-04-21T16:17:30+00:00	2020-04-25T06:59:59+00:00	-4	9dwc9ljncj5nbt2@marketplace.amazon.com	Cynthia A. Stintzi	+1 210-728-4548 ext. 69165	ABR0022	Arabella Bouquets | Purchase by 11.30 AM EST Wednesday | Delivery on Friday | Bouquet of 12 Fresh Cut Pink Roses	1	0	1	Expedited	The Hyde Family	7911 S THOMAS MALLEN RD			CHENEY	WA	99004-9676	US		Dearest Hydes, So sorry to hear of Papa Hydes passing.  He was a joy and we know he loved you all dearly.  We know he was proud to call you his family. Love to you all, The Stintzis From Cynthia A. Stintzi	false		
112-8958164-7724227	45881495451074	2020-04-21T16:01:46+00:00	2020-04-21T09:01:46-07:00	2020-04-21T16:29:01+00:00	2020-04-25T06:59:59+00:00	-4	53px8tg6qkgns7y@marketplace.amazon.com	Tim Koch	+1 210-728-4548 ext. 89398	ABR015	Arabella Bouquets | Purchase by 11.30 AM EST Wednesday | Delivery on Friday | Bouquet of 18 Fresh Cut Orange Roses	1	0	1	Expedited	Juanita Stott	31719 ROCKY VILLAGE DR APT 115			EVERGREEN	CO	80439-7542	US		Hello Juanita, Happy Birthday! Love, Vicki, Tim, Matt, Charlie, Joe, and Eric the Cat	false		
111-1030721-2505004	09434665120306	2020-04-21T16:01:59+00:00	2020-04-21T09:01:59-07:00	2020-04-21T16:30:37+00:00	2020-04-25T06:59:59+00:00	-4	vrtvxq4k2wyr1gk@marketplace.amazon.com	Adina Wolf	+1 314-282-9402 ext. 51038	ABR0022	Arabella Bouquets | Purchase by 11.30 AM EST Wednesday | Delivery on Friday | Bouquet of 12 Fresh Cut Pink Roses	1	0	1	Expedited	Jeny Mutari	2600 GRAY ST			WHEAT RIDGE	CO	80214-8122	US		Hi Jeny,  Happy 3 Year Anniversary! We are so grateful for all that you do  for us and our clients.  Adina & Kerry	false		
114-0007688-7523405	35289928241642	2020-04-21T16:28:06+00:00	2020-04-21T09:28:06-07:00	2020-04-21T16:53:56+00:00	2020-04-24T06:59:59+00:00	-3	78s22dz0j69d82d@marketplace.amazon.com	shannon jones	+1 347-448-3190 ext. 83714	ABR0066	Arabella Bouquets | Purchase by 11.30 AM EST Wednesday | Delivery on Friday | Bouquet of 12 Fresh Cut White Roses	1	0	1	Expedited	Emilie Dinonno	36 COLDSPRING XING			SOUTH GLASTONBURY	CT	06073-2800	US		My deepest sympathy. Thinking and praying for you. From Rita Jones	true		
111-9605937-2758662	12545854413530	2020-04-21T16:35:30+00:00	2020-04-21T09:35:30-07:00	2020-04-21T17:03:28+00:00	2020-04-24T06:59:59+00:00	-3	p515bn1hfckzj72@marketplace.amazon.com	james fields	+1 314-282-9402 ext. 33487	ABM010	Arabella Farm Direct Fields of The World Bouquet of Fresh Cut Flowers with a Free Glass Vase	1	0	1	Expedited	Kelsey loveland	67 RACE ST			BUFFALO	NY	14207-1828	US			false		
113-2443118-7688230	41855259836938	2020-04-21T16:36:57+00:00	2020-04-21T09:36:57-07:00	2020-04-21T17:05:04+00:00	2020-04-24T06:59:59+00:00	-3	5f37c9gqjnksrtc@marketplace.amazon.com	Karen kyle	+1 210-728-4548 ext. 23581	ABM010	Arabella Farm Direct Fields of The World Bouquet of Fresh Cut Flowers with a Free Glass Vase	1	0	1	Expedited	Virginia kyle	731 LAFAYETTE AVE			LINDSAY	CA	93247-1716	US		Enjoy your gift!    Happy Birthday From Karen kyle	false		
114-4897067-1757007	65016071612954	2020-04-21T16:37:09+00:00	2020-04-21T09:37:09-07:00	2020-04-21T17:06:19+00:00	2020-04-24T06:59:59+00:00	-3	5xf6h1rvkb59z58@marketplace.amazon.com	Nancy J. Rowlands	+1 347-448-3190 ext. 20097	ABR0055	Arabella Bouquets | Purchase by 11.30 AM EST Wednesday | Delivery on Friday | Bouquet of 12 Fresh Cut Hot Pink Roses	1	0	1	Expedited	Carol shuttleworth	44 CHESTNUT LN			HIGHLANDS	NC	28741-8365	US		Happy Birthday!  We love you! From Gary, Nancy Luke, Brody, and Stella	false		
111-0743280-8988229	31973098016898	2020-04-21T16:49:37+00:00	2020-04-21T09:49:37-07:00	2020-04-21T17:18:57+00:00	2020-04-25T06:59:59+00:00	-4	s7b6k44s4x8vfff@marketplace.amazon.com	Abdul Momin	+1 314-282-9402 ext. 20904	ABR0022	Arabella Bouquets | Purchase by 11.30 AM EST Wednesday | Delivery on Friday | Bouquet of 12 Fresh Cut Pink Roses	1	0	1	Expedited	Ramsha Khawar	8533 CRAWFORD AVE			SKOKIE	IL	60076-2123	US		Ramadan Mubarak! From Ramsha Khawar	false		
114-7372505-2719453	10525325352442	2020-04-21T16:55:33+00:00	2020-04-21T09:55:33-07:00	2020-04-21T17:25:56+00:00	2020-04-24T06:59:59+00:00	-3	cqhxggcgy7qmc0g@marketplace.amazon.com	Grace Marvuglio	+1 347-448-3190 ext. 10526	ABM010	Arabella Farm Direct Fields of The World Bouquet of Fresh Cut Flowers with a Free Glass Vase	1	0	1	Expedited	Megan Marvuglio	2705 MAGAZINE ST APT D			NEW ORLEANS	LA	70130-5628	US			false		
113-1267135-2664244	20330542619450	2020-04-21T17:02:24+00:00	2020-04-21T10:02:24-07:00	2020-04-21T17:29:53+00:00	2020-04-24T06:59:59+00:00	-3	brn1m04nnxv8pwd@marketplace.amazon.com	Una H. Wright	+1 210-728-4548 ext. 69380	ABR0055	Arabella Bouquets | Purchase by 11.30 AM EST Wednesday | Delivery on Friday | Bouquet of 12 Fresh Cut Hot Pink Roses	1	0	1	Expedited	ERIKA WRIGHT	9 OLD RIDGE RD			FREDERICKSBURG	VA	22407-2301	US		Enjoy your gift!Happy zBirthday.  With love. Una and Lowell From Una H. Wright sndvLowell zweight	false		
112-9058278-3714613	54269024337314	2020-04-21T17:14:39+00:00	2020-04-21T10:14:39-07:00	2020-04-21T17:38:22+00:00	2020-04-25T06:59:59+00:00	-4	m0tpn4ys054yf3z@marketplace.amazon.com	Abby Lievense	+1 347-448-3190 ext. 36829	ABR0022	Arabella Bouquets | Purchase by 11.30 AM EST Wednesday | Delivery on Friday | Bouquet of 12 Fresh Cut Pink Roses	1	0	1	Expedited	Geraldine Bliss	2 LEISURE LN			HOUSTON	TX	77024-5123	US		Geraldine.  You are truly an inspiration to me and so many others, I'm sure.  Thank you for ALL that you do!  I feel so fortunate to be your partner.  All my best, Abby	false		
111-6260250-0240222	01763803985410	2020-04-21T17:15:32+00:00	2020-04-21T10:15:32-07:00	2020-04-21T17:41:08+00:00	2020-04-25T06:59:59+00:00	-4	t58rbpr99yqd5w1@marketplace.amazon.com	art drummond	+1 412-532-4665 ext. 15396	ABR0022	Arabella Bouquets | Purchase by 11.30 AM EST Wednesday | Delivery on Friday | Bouquet of 12 Fresh Cut Pink Roses	1	0	1	Expedited	MACKENZIE PEMBERTON	1174 SAN MARCOS DR			SALINAS	CA	93901-3907	US			false		
112-7905538-5718638	23051625733618	2020-04-21T17:16:13+00:00	2020-04-21T10:16:13-07:00	2020-04-21T17:45:40+00:00	2020-04-25T06:59:59+00:00	-4	m0tpn4ys054yf3z@marketplace.amazon.com	Abby Lievense	+1 210-728-4548 ext. 08484	ABR0022	Arabella Bouquets | Purchase by 11.30 AM EST Wednesday | Delivery on Friday | Bouquet of 12 Fresh Cut Pink Roses	1	0	1	Expedited	Paulina Rychenkova	3S670 GLEN DR S			WARRENVILLE	IL	60555-3506	US		Hi Paulina, I'm honored to be your partner in CureSHANK!  Thank you for ALL that you do.  You are truly an inspiration! With sincere gratitude, Abby	false		
112-3069178-7639432	51607318179418	2020-04-21T17:16:27+00:00	2020-04-21T10:16:27-07:00	2020-04-21T17:45:51+00:00	2020-04-25T06:59:59+00:00	-4	s8t2kyh8jqk0j37@marketplace.amazon.com	Sohrab Harooni	+1 347-448-3190 ext. 58487	ABR0022	Arabella Bouquets | Purchase by 11.30 AM EST Wednesday | Delivery on Friday | Bouquet of 12 Fresh Cut Pink Roses	1	0	1	Expedited	Virginia Tedesco	6235 HOFFMAN ST RM A-4			NORTH PORT	FL	34287-2285	US		Love you and miss you. So glad you are safe even if you are bored! We are all safe and well here in California. From Whitney Sohrab Lennon Francisco & Shelby	false		
111-1054525-2867404	58451913606498	2020-04-21T17:22:27+00:00	2020-04-21T10:22:27-07:00	2020-04-21T17:50:28+00:00	2020-04-25T06:59:59+00:00	-4	4npqkndsg9ggs8w@marketplace.amazon.com	Ryan Dufresne	+1 314-282-9402 ext. 28943	ABR0022	Arabella Bouquets | Purchase by 11.30 AM EST Wednesday | Delivery on Friday | Bouquet of 12 Fresh Cut Pink Roses	1	0	1	Expedited	Eli Rodriguez	10 MAIN ST APT 504			FRAMINGHAM	MA	01702-2940	US			false		
112-7510115-2817853	29115111843314	2020-04-21T17:33:21+00:00	2020-04-21T10:33:21-07:00	2020-04-21T17:51:35+00:00	2020-04-24T06:59:59+00:00	-3	g9mqz5hp8qj1plf@marketplace.amazon.com	PJ. Garner	+1 210-728-4548 ext. 93211	ABM010	Arabella Farm Direct Fields of The World Bouquet of Fresh Cut Flowers with a Free Glass Vase	1	0	1	Expedited	Wilson Lee	724 N EVERGREEN ST			PLYMOUTH	MI	48170-1174	US		Thinking of you and hoping everything settles down for you all soon!  Your team & Vinny, too	false		
114-1800883-3296236	09697339386538	2020-04-21T17:22:38+00:00	2020-04-21T10:22:38-07:00	2020-04-21T17:53:22+00:00	2020-04-25T06:59:59+00:00	-4	r0d7nqh4hkbjvmp@marketplace.amazon.com	Jagadish Kumar	+1 314-282-9402 ext. 95474	ABR0022	Arabella Bouquets | Purchase by 11.30 AM EST Wednesday | Delivery on Friday | Bouquet of 12 Fresh Cut Pink Roses	1	0	1	Expedited	Sujatha Raman	496 VALLEY VIEW DR			LOS ALTOS	CA	94024-4742	US			false		
113-0410856-4035446	12051527158778	2020-04-21T17:31:09+00:00	2020-04-21T10:31:09-07:00	2020-04-21T17:58:49+00:00	2020-04-25T06:59:59+00:00	-4	d2g3hvzztpdznlf@marketplace.amazon.com	mariama rivera	+1 412-532-4665 ext. 54387	ABR0022	Arabella Bouquets | Purchase by 11.30 AM EST Wednesday | Delivery on Friday | Bouquet of 12 Fresh Cut Pink Roses	1	0	1	Expedited	Elke Foster	7718 BURDELL DR			COLUMBIA	SC	29209-3908	US		Happy Anniversary Mom From Julio Mariama Lucas & Lelah	false		
114-2786888-3492227	59809420568650	2020-04-21T17:44:54+00:00	2020-04-21T10:44:54-07:00	2020-04-21T18:02:56+00:00	2020-04-24T06:59:59+00:00	-3	f1ljpphmfzxncr4@marketplace.amazon.com	Sinatra	+1 314-282-9402 ext. 19401	ABM0033	Arabella Farm Direct Bouquet of 5 Fresh Cut White Hydrangea with a Free Glass Vase	1	0	1	Expedited	Michele Shaffer	18 MEMORY LN			DENVILLE	NJ	07834-2428	US		Michele, Please accept my prayers for you and your mother. I know how close she was to you. Our hearts go out to your family at this time. Love The Sinatra Family	false		
111-7822952-1985821	10310657680298	2020-04-21T17:38:14+00:00	2020-04-21T10:38:14-07:00	2020-04-21T18:04:16+00:00	2020-04-25T06:59:59+00:00	-4	yfvfv0m9xc3pqnj@marketplace.amazon.com	Carl Schultz	+1 347-448-3190 ext. 32911	ABR0022	Arabella Bouquets | Purchase by 11.30 AM EST Wednesday | Delivery on Friday | Bouquet of 12 Fresh Cut Pink Roses	1	0	1	Expedited	Carl Schultz	571 s ave faro			Anaheim	California	92807	US		Happy Birthday Nan!!!                                     Love ya From Carl	false		
111-8543512-8544242	41995101177178	2020-04-21T17:50:51+00:00	2020-04-21T10:50:51-07:00	2020-04-21T18:08:04+00:00	2020-04-25T06:59:59+00:00	-4	rs0hs3btqgpjqz6@marketplace.amazon.com	bill	+1 210-728-4548 ext. 17805	ABR0022	Arabella Bouquets | Purchase by 11.30 AM EST Wednesday | Delivery on Friday | Bouquet of 12 Fresh Cut Pink Roses	1	0	1	Expedited	Kriss Seco	86 MADISON AVE APT 203			PARK RIDGE	NJ	07656-1383	US		Miss you so much.    All my love, From Bill xx	false		
111-1531803-7240218	41232931665266	2020-04-21T18:08:52+00:00	2020-04-21T11:08:52-07:00	2020-04-21T18:15:58+00:00	2020-04-25T06:59:59+00:00	-4	0r6lngd351bm79q@marketplace.amazon.com	nina caris	+1 347-448-3190 ext. 11352	ABR0022	Arabella Bouquets | Purchase by 11.30 AM EST Wednesday | Delivery on Friday | Bouquet of 12 Fresh Cut Pink Roses	1	0	1	Expedited	Anna Lichtman	4327 BEEMAN AVE			STUDIO CITY	CA	91604-1521	US		Hi Anna,  Thinking of you on your Birthday and looking forward to see you Andre soon!  Hugs Nina	false		
111-0488233-9517806	25649787505466	2020-04-21T17:57:58+00:00	2020-04-21T10:57:58-07:00	2020-04-21T18:22:33+00:00	2020-04-25T06:59:59+00:00	-4	lmm0c6ght7frltj@marketplace.amazon.com	Dawn Barba	+1 314-282-9402 ext. 59485	ABR0022	Arabella Bouquets | Purchase by 11.30 AM EST Wednesday | Delivery on Friday | Bouquet of 12 Fresh Cut Pink Roses	1	0	1	Expedited	Carol Barba	626 S BROAD ST LOT 5			BROOKSVILLE	FL	34601-2855	US		Hi Mom! Happy Mother's Day!!! Enjoy your gift! Love, Dawn, Jordan & Anthony	false		
111-7521478-4919404	22777371687154	2020-04-21T17:54:28+00:00	2020-04-21T10:54:28-07:00	2020-04-21T18:23:37+00:00	2020-04-24T06:59:59+00:00	-3	8yz0nc11xvlf9lq@marketplace.amazon.com	Natacha Fahey	+1 210-728-4548 ext. 28159	ABR012	Arabella Bouquets | Purchase by 11.30 AM EST Wednesday | Delivery on Friday | Bouquet of 18 Fresh Cut Pink Roses	1	0	1	Expedited	Helen Geiger	1407 SKIPPER DR APT 102			WATERFORD	MI	48327-2492	US			false		
112-7790437-5317046	24521474968274	2020-04-21T18:12:19+00:00	2020-04-21T11:12:19-07:00	2020-04-21T18:33:15+00:00	2020-04-25T06:59:59+00:00	-4	ty81c3gvzkm9w9j@marketplace.amazon.com	Nicos Rivera	+1 347-448-3190 ext. 65474	ABR0022	Arabella Bouquets | Purchase by 11.30 AM EST Wednesday | Delivery on Friday | Bouquet of 12 Fresh Cut Pink Roses	1	0	1	Expedited	Traci M Cain	13706 MANDA MILL LN			PHOENIX	MD	21131-1612	US		Traci, Mothers always live, they never leave us... They live in our hearts and memories... Mothers are angels who never leave us. From Sandy, Dora and Clarence	false		
113-7281839-5167467	05229423140114	2020-04-21T18:16:29+00:00	2020-04-21T11:16:29-07:00	2020-04-21T18:43:39+00:00	2020-04-25T06:59:59+00:00	-4	7zqcf02q3744s49@marketplace.amazon.com	Rachael Hayes	+1 412-532-4665 ext. 75641	ABR0022	Arabella Bouquets | Purchase by 11.30 AM EST Wednesday | Delivery on Friday | Bouquet of 12 Fresh Cut Pink Roses	1	0	1	Expedited	Linh Recendiz	125 N DAVIS LN APT 135			DEFUNIAK SPRINGS	FL	32433-3155	US		I have been thinking and praying for you and your sweet brother since I heard of his accident.  Please take care of yourself during this time. From Rachael Hayes	false		
111-1118157-6911417	05215738632170	2020-04-21T18:11:10+00:00	2020-04-21T11:11:10-07:00	2020-04-21T18:45:08+00:00	2020-04-24T06:59:59+00:00	-3	tlm5h3hblf8qqp1@marketplace.amazon.com	Jill Burke	+1 347-448-3190 ext. 90645	ABR0055	Arabella Bouquets | Purchase by 11.30 AM EST Wednesday | Delivery on Friday | Bouquet of 12 Fresh Cut Hot Pink Roses	1	0	1	Standard	Maria Niemela	12723 BARBATA RD			LA MIRADA	CA	90638-2401	US		Happy Birthday Mom! Love - Jill & Tim!	false		
111-6222619-0316213	09520766751594	2020-04-21T18:19:50+00:00	2020-04-21T11:19:50-07:00	2020-04-21T18:46:42+00:00	2020-04-24T06:59:59+00:00	-3	5xmfnl26fmfbnlr@marketplace.amazon.com	Steven Overbeek	+1 347-448-3190 ext. 93730	ABR004	Arabella Farm Direct Bouquet of 12 Fresh Cut Yellow Roses with a Free Glass Vase	1	0	1	Expedited	Diane Overbeek	4049 JEWFISH DR			HERNANDO BEACH	FL	34607-3650	US		Just something to brighten day!  We know these next few weeks will be filled with memories of past celebrations and just wanted to let you know we are thinking of you!  Love, Steve, Cindy, Ashley, Kelly & Kayla	false		
114-8781203-0295413	67432201223466	2020-04-21T18:17:41+00:00	2020-04-21T11:17:41-07:00	2020-04-21T18:47:27+00:00	2020-04-24T06:59:59+00:00	-3	s1pg1rs960fd71x@marketplace.amazon.com	Mauricio Hernandez	+1 314-282-9402 ext. 07865	ABR0055	Arabella Bouquets | Purchase by 11.30 AM EST Wednesday | Delivery on Friday | Bouquet of 12 Fresh Cut Hot Pink Roses	1	0	1	Expedited	Edith Davila	2519 DAVIS AVE			LAREDO	TX	78040-2459	US		I love you babe.	false		
113-9473305-3957837	53241603243626	2020-04-21T18:20:29+00:00	2020-04-21T11:20:29-07:00	2020-04-21T18:50:12+00:00	2020-04-24T06:59:59+00:00	-3	vmkd6hz8sbn2tgd@marketplace.amazon.com	Kim Cook		ABR012	Arabella Bouquets | Purchase by 11.30 AM EST Wednesday | Delivery on Friday | Bouquet of 18 Fresh Cut Pink Roses	1	0	1	Expedited	Cecile Cook	2310 TUSTIN AVE			NEWPORT BEACH	CA	92660-3424	US			false		
114-9440282-0838662	65254651052706	2020-04-21T18:27:19+00:00	2020-04-21T11:27:19-07:00	2020-04-21T18:51:52+00:00	2020-04-25T06:59:59+00:00	-4	gdx6hzywqr2m87y@marketplace.amazon.com	Maria Dayi	+1 347-448-3190 ext. 64213	ABR0022	Arabella Bouquets | Purchase by 11.30 AM EST Wednesday | Delivery on Friday | Bouquet of 12 Fresh Cut Pink Roses	1	0	1	Expedited	Glenis Rojas	7433 LOCH NESS DR			MIAMI LAKES	FL	33014-6011	US		Glenis, May these flowers brighten your day and bring a smile. I think of you often. Receive a hug from me. Call me anytime you need. Much love, From MariAngie  Dayi	false		
111-8286495-3522619	40741872997530	2020-04-21T18:25:35+00:00	2020-04-21T11:25:35-07:00	2020-04-21T18:54:58+00:00	2020-04-24T06:59:59+00:00	-3	k59pg5m641f4r69@marketplace.amazon.com	Tim Hickle	+1 347-448-3190 ext. 68907	ABR012	Arabella Bouquets | Purchase by 11.30 AM EST Wednesday | Delivery on Friday | Bouquet of 18 Fresh Cut Pink Roses	1	0	1	Expedited	Lauren Hickle	646 ALABAMA ST			IMPERIAL BEACH	CA	91932-1104	US			false		
114-5508231-7468262	46885576722514	2020-04-21T18:34:36+00:00	2020-04-21T11:34:36-07:00	2020-04-21T18:56:31+00:00	2020-04-24T06:59:59+00:00	-3	zh2bpsw6vyrn74v@marketplace.amazon.com	Louise M. LaPlante	+1 347-448-3190 ext. 64427	ABR0055	Arabella Bouquets | Purchase by 11.30 AM EST Wednesday | Delivery on Friday | Bouquet of 12 Fresh Cut Hot Pink Roses	1	0	1	Standard	Amanda LaPlante	43 KING ST			UXBRIDGE	MA	01569-2121	US		Hi Amanda, Happy Birthday! From Louise & Dan	false		
112-1771767-5880265	15243827951274	2020-04-21T18:36:44+00:00	2020-04-21T11:36:44-07:00	2020-04-21T19:04:48+00:00	2020-04-24T06:59:59+00:00	-3	vzl6kzby9m28l5m@marketplace.amazon.com	Celina Perez	+1 347-448-3190 ext. 52489	ABR0055	Arabella Bouquets | Purchase by 11.30 AM EST Wednesday | Delivery on Friday | Bouquet of 12 Fresh Cut Hot Pink Roses	1	0	1	Expedited	Anita Perez	730 N OLD COACHMAN RD APT I-8			CLEARWATER	FL	33765-2326	US		Feliz Cumpleaños!!! Amiga te quiero mucho y dios te bendiga siempre... From Celina Perez	false		
112-0736442-7113029	11597950135306	2020-04-21T18:47:18+00:00	2020-04-21T11:47:18-07:00	2020-04-21T19:11:14+00:00	2020-04-24T06:59:59+00:00	-3	s6mqrxczs177tvn@marketplace.amazon.com	Paul Pobanz	+1 347-448-3190 ext. 73050	ABR0033	Arabella Bouquets | Purchase by 11.30 AM EST Wednesday | Delivery on Friday | Bouquet of 12 Fresh Cut Orange Roses	1	0	1	Expedited	Sister Hannah Cosper	1353 MARTINGALE ST			EUGENE	OR	97401-5242	US		Sister Cosper, Roses are red Well these ones are orange Without you i would be dead Shoot nothing rhymes with orange  I LOVE YOU	false		
112-8164302-3144227	53091614313922	2020-04-21T18:54:10+00:00	2020-04-21T11:54:10-07:00	2020-04-21T19:22:42+00:00	2020-04-25T06:59:59+00:00	-4	ssm78npg9gtm7p8@marketplace.amazon.com	Mary R. Damsky	+1 314-282-9402 ext. 99423	ABR0022	Arabella Bouquets | Purchase by 11.30 AM EST Wednesday | Delivery on Friday | Bouquet of 12 Fresh Cut Pink Roses	1	0	1	Expedited	Bianca Langer	20 E 68TH ST APT 8F			NEW YORK	NY	10065-5842	US		Dear Bianca, Much love on your birthday! From Mary & Ken	false		
111-6857686-3474649	06842077219042	2020-04-21T19:05:44+00:00	2020-04-21T12:05:44-07:00	2020-04-21T19:31:52+00:00	2020-04-25T06:59:59+00:00	-4	8mn1g1yph6d6k6g@marketplace.amazon.com	Brandon Flanders	+1 347-448-3190 ext. 99648	ABR0022	Arabella Bouquets | Purchase by 11.30 AM EST Wednesday | Delivery on Friday | Bouquet of 12 Fresh Cut Pink Roses	1	0	1	Expedited	Amarah Amireh	9440 LIVE OAK PL APT 307			DAVIE	FL	33324-4738	US		Hi mama I’m sorry I can’t be there right now with you but once this is over your gonna get so many smooches! I miss and love you more everyday, even if u mad! Enjoy this token of my love muuuuuuuahhhh I love you! From Hubby	false		
113-6845856-3283418	42924768265698	2020-04-21T19:16:39+00:00	2020-04-21T12:16:39-07:00	2020-04-21T19:47:11+00:00	2020-04-25T06:59:59+00:00	-4	y9320k0cqjb07fb@marketplace.amazon.com	Jenny Mayronne	+1 314-282-9402 ext. 48612	ABR0022	Arabella Bouquets | Purchase by 11.30 AM EST Wednesday | Delivery on Friday | Bouquet of 12 Fresh Cut Pink Roses	1	0	1	Expedited	Kurt Wilson	3025 42ND AVE			GREELEY	CO	80634-8369	US			false		
111-9870021-4453866	37479602266114	2020-04-21T19:23:22+00:00	2020-04-21T12:23:22-07:00	2020-04-21T19:50:21+00:00	2020-04-25T06:59:59+00:00	-4	1p99gn3230kf76y@marketplace.amazon.com	Michelle Nathan	+1 210-728-4548 ext. 00786	ABR0022	Arabella Bouquets | Purchase by 11.30 AM EST Wednesday | Delivery on Friday | Bouquet of 12 Fresh Cut Pink Roses	1	0	1	Expedited	Florence Muir	1925 SUNNY CREST DR			FULLERTON	CA	92835-3628	US		HAPPY BIRTHDAY MOM!  Thinking of you. Love your daughter, Michelle xoxo	false		
112-5707606-4488269	10876288100186	2020-04-21T19:24:28+00:00	2020-04-21T12:24:28-07:00	2020-04-21T19:52:43+00:00	2020-04-25T06:59:59+00:00	-4	853hfh4l7y0hyz4@marketplace.amazon.com	Julia W Meyer	+1 347-448-3190 ext. 27435	ABR0022	Arabella Bouquets | Purchase by 11.30 AM EST Wednesday | Delivery on Friday | Bouquet of 12 Fresh Cut Pink Roses	1	0	1	Standard	Barbara Whitehurst	108 BATTLE MOUNTAIN RD			AMISSVILLE	VA	20106-4340	US		Happy Mothers Day!!!   We love you so much and can't wait to see you again! Hopefully soon!!!!   Love Jules, Chris and Mason	false		
114-7383617-8004266	24649050274666	2020-04-21T19:53:03+00:00	2020-04-21T12:53:03-07:00	2020-04-21T19:54:00+00:00	2020-04-25T06:59:59+00:00	-4	6qhby21nyg272ry@marketplace.amazon.com	Donald E. Cox	+1 314-282-9402 ext. 08556	ABR0022	Arabella Bouquets | Purchase by 11.30 AM EST Wednesday | Delivery on Friday | Bouquet of 12 Fresh Cut Pink Roses	1	0	1	Expedited	Mrs. Jane Parker	3214 VOSSLER RD			WELLSVILLE	NY	14895-9502	US		Happy birthday Aunt Jane! From Vicki, Don, Leah, Gary and Susan	false		
113-5932168-6804251	59144755151578	2020-04-21T19:38:08+00:00	2020-04-21T12:38:08-07:00	2020-04-21T19:55:06+00:00	2020-04-25T06:59:59+00:00	-4	zcsx4yblty0vx8s@marketplace.amazon.com	mary anderson burns	+1 347-448-3190 ext. 91511	ABR0022	Arabella Bouquets | Purchase by 11.30 AM EST Wednesday | Delivery on Friday | Bouquet of 12 Fresh Cut Pink Roses	1	0	1	Expedited	Denise Neimeier	104 PINELEDGE RD			CAMILLUS	NY	13031-2078	US		Denise, Spring is a time for new beginnings and fresh starts. I'm so proud of your strength and courage. I feel fortunate our paths crossed on our journey through life.   Fondly, Mary	false		
112-1996303-9324261	67202091565394	2020-04-21T19:35:49+00:00	2020-04-21T12:35:49-07:00	2020-04-21T20:02:38+00:00	2020-04-25T06:59:59+00:00	-4	l61vvgysbv2v0qy@marketplace.amazon.com	Marie-Clare Starrs	07878425173	ABR0022	Arabella Bouquets | Purchase by 11.30 AM EST Wednesday | Delivery on Friday | Bouquet of 12 Fresh Cut Pink Roses	1	0	1	Expedited	Anne Campbell	195 Camp Run Road			Harmony	Pennsylvania	16037-9738	US			false		
114-7547592-0992208	66408363753114	2020-04-21T13:09:47+00:00	2020-04-21T06:09:47-07:00	2020-04-21T20:08:35+00:00	2020-04-24T06:59:59+00:00	-3	xt5bk5bysvc2g14@marketplace.amazon.com	Curtis De Gale	+1 314-282-9402 ext. 35569	ABR012	Arabella Bouquets | Purchase by 11.30 AM EST Tuesday | Delivery on Thursday | Bouquet of 18 Fresh Cut Pink Roses	1	0	1	Expedited	Yvonne Viechweg	617 KRULL ST 1ST FLOOR			UNIONDALE	NY	11553-3134	US		Happy Birthday, Mom. Love you! From Abbie	false		
112-0810492-4877068	62211130704250	2020-04-21T19:51:17+00:00	2020-04-21T12:51:17-07:00	2020-04-21T20:09:08+00:00	2020-04-25T06:59:59+00:00	-4	r2c4s8535g4qphr@marketplace.amazon.com	Bonnie J. Daniels	+1 210-728-4548 ext. 20125	ABR0022	Arabella Bouquets | Purchase by 11.30 AM EST Wednesday | Delivery on Friday | Bouquet of 12 Fresh Cut Pink Roses	1	0	1	Expedited	Crystal Riley	212 PALOMAR ST APT 34			CHULA VISTA	CA	91911-4203	US		Flowers still happen even if Prom doesn’t. From HS Senior Celebrate Member From Bonnie Daniels	false		
111-8915931-8413068	42827585262162	2020-04-21T19:48:42+00:00	2020-04-21T12:48:42-07:00	2020-04-21T20:17:15+00:00	2020-04-25T06:59:59+00:00	-4	h4gbkz8n14s8v6z@marketplace.amazon.com	Ace Vu	+1 210-728-4548 ext. 14302	ABR0022	Arabella Bouquets | Purchase by 11.30 AM EST Wednesday | Delivery on Friday | Bouquet of 12 Fresh Cut Pink Roses	1	0	1	Expedited	Ethan Giang	2137 RIO GUACIMAL CT			SAN JOSE	CA	95116-1583	US		Fresh scent :D	false		
111-7062635-5435454	62590523875338	2020-04-21T19:54:26+00:00	2020-04-21T12:54:26-07:00	2020-04-21T20:20:46+00:00	2020-04-25T06:59:59+00:00	-4	h4gbkz8n14s8v6z@marketplace.amazon.com	Ace Vu	+1 210-728-4548 ext. 07076	ABR0022	Arabella Bouquets | Purchase by 11.30 AM EST Wednesday | Delivery on Friday | Bouquet of 12 Fresh Cut Pink Roses	1	0	1	Expedited	Shernaz Pavri	976 E DUANE AVE			SUNNYVALE	CA	94085-3919	US		Something from nature for you.  ace :)	false		
112-3072114-4432234	30699063051970	2020-04-21T20:11:05+00:00	2020-04-21T13:11:05-07:00	2020-04-21T20:32:48+00:00	2020-04-24T06:59:59+00:00	-3	s7dpyblswbfqdgl@marketplace.amazon.com	Cheryl Stathakis	+1 412-532-4665 ext. 08377	ABM010	Arabella Farm Direct Fields of The World Bouquet of Fresh Cut Flowers with a Free Glass Vase	1	0	1	Expedited	Dan & Cindy Kuesis	79 HAWTHORNE RD			BARRINGTON	IL	60010-5321	US		Dan & Cindy, Thank you so much for the Greek Easter meal!  It was yummy!  Can't wait to see you guys soon!   From  Mike & Cheryl Stathakis	false		
113-1723128-9649033	08127545879394	2020-04-21T20:06:46+00:00	2020-04-21T13:06:46-07:00	2020-04-21T20:33:42+00:00	2020-04-25T06:59:59+00:00	-4	l875lqmg0880m5y@marketplace.amazon.com	lilian sims	+1 347-448-3190 ext. 37854	ABR0022	Arabella Bouquets | Purchase by 11.30 AM EST Wednesday | Delivery on Friday | Bouquet of 12 Fresh Cut Pink Roses	1	0	1	Expedited	Amanda Sims	65 BOTHFELD RD			NEWTON	MA	02459-1401	US		Darling Mandy, Josh & Jake, In memory of your beloved Michael and Dad. Sending lots of love, Mom & Dad, Gran & Zaida	false		
112-9150535-3770602	06093972453978	2020-04-21T20:14:27+00:00	2020-04-21T13:14:27-07:00	2020-04-21T20:41:35+00:00	2020-04-25T06:59:59+00:00	-4	xkv0hb3d752fybt@marketplace.amazon.com	koralee	+1 347-448-3190 ext. 91321	ABR0022	Arabella Bouquets | Purchase by 11.30 AM EST Wednesday | Delivery on Friday | Bouquet of 12 Fresh Cut Pink Roses	1	0	1	Expedited	koralee	22417 15TH PL W			BOTHELL	WA	98021-9108	US		Congratulations guys! Love you all so much! Can't wait to meet you Ty.  Love Auntie Kora	false		
112-5769534-3931457	11815969659306	2020-04-21T20:17:54+00:00	2020-04-21T13:17:54-07:00	2020-04-21T20:46:25+00:00	2020-04-25T06:59:59+00:00	-4	jwp26dz7q4qm0pb@marketplace.amazon.com	Colt Greenberg	+1 412-532-4665 ext. 70427	ABR0022	Arabella Bouquets | Purchase by 11.30 AM EST Wednesday | Delivery on Friday | Bouquet of 12 Fresh Cut Pink Roses	1	0	1	Expedited	Sharyl Tschillard (Ally)	2764 QUINSON LN			HENDERSON	NV	89044-0322	US		Thanks for putting up with all my bullshit. Miss you From Colton Greenberg	false		
112-8596290-0646611	06064130579810	2020-04-21T20:29:03+00:00	2020-04-21T13:29:03-07:00	2020-04-21T20:48:38+00:00	2020-04-24T06:59:59+00:00	-3	2qcb4rfwv0ctcch@marketplace.amazon.com	Barbara J Reilly	+1 314-282-9402 ext. 49293	ABR013	Arabella Bouquets | Purchase by 11.30 AM EST Wednesday | Delivery on Friday | Bouquet of 18 Fresh Cut Yellow Roses	1	0	1	Expedited	Carol Cucci	192 TURNBERRY CT S SO			ATLANTIS	FL	33462-1025	US		Carol,  Wishing you a BIG happy birthday  Much love....Barbara	false		
111-7068395-7572230	33232947698986	2020-04-21T20:18:45+00:00	2020-04-21T13:18:45-07:00	2020-04-21T20:48:52+00:00	2020-04-24T06:59:59+00:00	-3	2j7n80hk6p21tdz@marketplace.amazon.com	Priscilla	+1 314-282-9402 ext. 60675	ABR0066	Arabella Bouquets | Purchase by 11.30 AM EST Wednesday | Delivery on Friday | Bouquet of 12 Fresh Cut White Roses	1	0	1	Expedited	Debbie Green	4305 ISH BRANT CT E			JACKSONVILLE	FL	32210-7045	US			false		
111-0090021-8945000	20435307716482	2020-04-21T20:23:21+00:00	2020-04-21T13:23:21-07:00	2020-04-21T20:50:36+00:00	2020-04-24T06:59:59+00:00	-3	rpb8cfbkptbhhy7@marketplace.amazon.com	brandon stuckey	+1 347-448-3190 ext. 03892	ABR004	Arabella Farm Direct Bouquet of 12 Fresh Cut Yellow Roses with a Free Glass Vase	1	0	1	Expedited	Brandon Stuckey	23338 BALTHASAR ST			SPRING	TX	77373-6947	US		Regardless of my numerous faults, thanks for just being my friend. From brandon stuckey	false		
111-1633630-1081001	30216864857946	2020-04-21T20:40:35+00:00	2020-04-21T13:40:35-07:00	2020-04-21T21:00:05+00:00	2020-04-25T06:59:59+00:00	-4	7g5x257csvtchdx@marketplace.amazon.com	Benjamin Baker	+1 347-448-3190 ext. 75051	ABR0022	Arabella Bouquets | Purchase by 11.30 AM EST Wednesday | Delivery on Friday | Bouquet of 12 Fresh Cut Pink Roses	1	0	1	Expedited	Pauline Baker	2827 GEORGIA AVE			HALETHORPE	MD	21227-3716	US		Happy Birthday Grandma! Love you! Tom & Crystal, Nathan, Tessa, Andrew, Samantha, Daniel, Olivia, Adam, Lily, Benjamin & Corah, Benaiah, Chyella, Jairus & Ruth Love to you from around the world!	false		
114-2334404-3936227	06694344418082	2020-04-21T20:38:11+00:00	2020-04-21T13:38:11-07:00	2020-04-21T21:06:48+00:00	2020-04-24T06:59:59+00:00	-3	phk55xjmwzzyz5m@marketplace.amazon.com	John Kuharik	+1 314-282-9402 ext. 49847	ABM010	Arabella Farm Direct Fields of The World Bouquet of Fresh Cut Flowers with a Free Glass Vase	1	0	1	Expedited	John M Kuharik	14037 NW HARBOR LN			PORTLAND	OR	97229-2457	US		Jessie, Happy Birthday to my one and only! Love, John	false		
114-3327493-9056232	20604689635154	2020-04-21T20:43:18+00:00	2020-04-21T13:43:18-07:00	2020-04-21T21:09:38+00:00	2020-04-25T06:59:59+00:00	-4	5q50r540wqnp5j8@marketplace.amazon.com	Melinda Bradway	+1 314-282-9402 ext. 90347	ABR0022	Arabella Bouquets | Purchase by 11.30 AM EST Wednesday | Delivery on Friday | Bouquet of 12 Fresh Cut Pink Roses	1	0	1	Expedited	Mr. and Mrs. Matthew Francolino	101 MOTT LN			MOODUS	CT	06469-1345	US		Happy Anniversary to you lovebirds!  We love you and cherish you and all our wonderful memories!!! ❤️🙏❤️ From Love, Mom and Dad B and of course Kylie	false		
112-9578529-8854616	05747901226066	2020-04-21T20:53:55+00:00	2020-04-21T13:53:55-07:00	2020-04-21T21:17:55+00:00	2020-04-25T06:59:59+00:00	-4	lpv73dq8g66q8r5@marketplace.amazon.com	Shawn Brogdon	+1 347-448-3190 ext. 63083	ABR0022	Arabella Bouquets | Purchase by 11.30 AM EST Wednesday | Delivery on Friday | Bouquet of 12 Fresh Cut Pink Roses	1	0	1	Expedited	Tina Kirkland	147 UPCHURCH RD			MCDONOUGH	GA	30252-5667	US		Sweetie, I Love You so Much. Just a little beauty to say Thank You for Your Beauty that feels me up. You mean the world to me. You make me the luckiest man alive. Love Shawn	false		
113-4490168-3168218	06401742592658	2020-04-21T20:54:18+00:00	2020-04-21T13:54:18-07:00	2020-04-21T21:18:22+00:00	2020-04-25T06:59:59+00:00	-4	pwhk0qpkc8h9170@marketplace.amazon.com	Ady	+1 347-448-3190 ext. 59266	ABR0022	Arabella Bouquets | Purchase by 11.30 AM EST Wednesday | Delivery on Friday | Bouquet of 12 Fresh Cut Pink Roses	1	0	1	Expedited	Ancelma Avitia Ortega	4028 N 76TH AVE			PHOENIX	AZ	85033-3731	US		Las rosas rosas me recuerdan a usted! La quiero mucho! Que Dios me la guarde muchos años mas. From Adriana (China) From Ady	false		
111-7104856-5749853	51078209870978	2020-04-21T20:52:12+00:00	2020-04-21T13:52:12-07:00	2020-04-21T21:19:51+00:00	2020-04-25T06:59:59+00:00	-4	w7vqynt3mty21n6@marketplace.amazon.com	Heath Locke	+1 314-282-9402 ext. 84640	ABR0022	Arabella Bouquets | Purchase by 11.30 AM EST Wednesday | Delivery on Friday | Bouquet of 12 Fresh Cut Pink Roses	1	0	1	Expedited	Shayne Corson	21890 SW MOUNTAIN HOME RD			SHERWOOD	OR	97140-8636	US		To the Love of my Life! I pray these bring a smile to your face and scent to the air. One day soon we will be quarantined together and the world will be better.  I am madly in love with you Your, Future Husband.	false		
114-8756958-0771432	32444860879482	2020-04-21T20:52:13+00:00	2020-04-21T13:52:13-07:00	2020-04-21T21:20:14+00:00	2020-04-25T06:59:59+00:00	-4	5q50r540wqnp5j8@marketplace.amazon.com	Melinda Bradway	+1 347-448-3190 ext. 50352	ABR0022	Arabella Bouquets | Purchase by 11.30 AM EST Wednesday | Delivery on Friday | Bouquet of 12 Fresh Cut Pink Roses	1	0	1	Expedited	Krista Theile	163 E HADDAM COLCHESTER TPKE			MOODUS	CT	06469-1240	US		Love you brave friend! Be safe! From Melinda❤️	false		
111-8586350-1434633	45704285085426	2020-04-21T20:55:13+00:00	2020-04-21T13:55:13-07:00	2020-04-21T21:24:52+00:00	2020-04-25T06:59:59+00:00	-4	tz06jt98zdkgp86@marketplace.amazon.com	Lourdes P	+1 210-728-4548 ext. 09851	ABR0022	Arabella Bouquets | Purchase by 11.30 AM EST Wednesday | Delivery on Friday | Bouquet of 12 Fresh Cut Pink Roses	1	0	1	Expedited	Minerva Patron	11377 SW 84TH ST APT 239			MIAMI	FL	33173-3645	US			false		
113-8680726-2041020	21544072866298	2020-04-21T21:13:32+00:00	2020-04-21T14:13:32-07:00	2020-04-21T21:28:35+00:00	2020-04-24T06:59:59+00:00	-3	lbvs1pr9hkc6m6g@marketplace.amazon.com	Karen DiTommaso	+1 412-532-4665 ext. 43757	ABR012	Arabella Bouquets | Purchase by 11.30 AM EST Wednesday | Delivery on Friday | Bouquet of 18 Fresh Cut Pink Roses	1	0	1	Expedited	Mary Ellen DiTommaso	1340 N ASTOR ST UNIT 1805			CHICAGO	IL	60610-8428	US		love is patient, but yours is too special to spend it 6 feet apart.  We'll all be together soon to celebrate Love, Mom Karen DiTommaso	false		
114-2292997-1485844	31530808854474	2020-04-21T21:09:09+00:00	2020-04-21T14:09:09-07:00	2020-04-21T21:35:28+00:00	2020-04-25T06:59:59+00:00	-4	8rh4t2sv8xj260r@marketplace.amazon.com	Laura  Baldwin	+1 210-728-4548 ext. 67417	ABR0022	Arabella Bouquets | Purchase by 11.30 AM EST Wednesday | Delivery on Friday | Bouquet of 12 Fresh Cut Pink Roses	1	0	1	Expedited	Laura Novacic	131 LEHR AVE			PITTSBURGH	PA	15223-1421	US		Thanks for all you do!    Laura and Nancy	false		
113-8542383-9125809	25636720786498	2020-04-21T21:09:50+00:00	2020-04-21T14:09:50-07:00	2020-04-21T21:37:06+00:00	2020-04-25T06:59:59+00:00	-4	d0gzy6dl75t46wm@marketplace.amazon.com	MARY KNABBE	+1 314-282-9402 ext. 16634	ABR0022	Arabella Bouquets | Purchase by 11.30 AM EST Wednesday | Delivery on Friday | Bouquet of 12 Fresh Cut Pink Roses	1	0	1	Expedited	Courtney  KNABBE	14 FOREST RD			ROCKY POINT	NY	11778-9378	US		Happy 1st mother's day.  We love you John and Mary From  KNABBE	false		
111-8590352-5456243	62423734241938	2020-04-21T21:17:23+00:00	2020-04-21T14:17:23-07:00	2020-04-21T21:42:32+00:00	2020-04-25T06:59:59+00:00	-4	j6r1v0pbh1461ys@marketplace.amazon.com	diane riquez	+1 210-728-4548 ext. 45219	ABR0022	Arabella Bouquets | Purchase by 11.30 AM EST Wednesday | Delivery on Friday | Bouquet of 12 Fresh Cut Pink Roses	1	0	1	Expedited	victoria krisel	1374 MIDLAND AVE			BRONXVILLE	NY	10708-6848	US		HAPPY BIRTHDAY HOPE THESE BRING SUNSHINE TO YOUR DAY AND A SMILE TO YOUR FACE, WE LOVE YOU Enjoy your gift! From diane riquez	false		
113-1502213-3974614	58147816595682	2020-04-21T21:21:16+00:00	2020-04-21T14:21:16-07:00	2020-04-21T21:43:39+00:00	2020-04-25T06:59:59+00:00	-4	sr1fz5dbnp1j7x6@marketplace.amazon.com	Ashish A. Palekar	+1 347-448-3190 ext. 43573	ABR0022	Arabella Bouquets | Purchase by 11.30 AM EST Wednesday | Delivery on Friday | Bouquet of 12 Fresh Cut Pink Roses	1	0	1	Expedited	Melanie Doubroff	1217 PERSHING ST			WENATCHEE	WA	98801-1431	US		Hi Melanie,  Thank you for everything that you do! Happy Administrative Professionals Day.  Best wishes Ashish	false		
111-7806969-7438646	68074287872906	2020-04-21T21:29:01+00:00	2020-04-21T14:29:01-07:00	2020-04-21T21:53:55+00:00	2020-04-25T06:59:59+00:00	-4	h4gbkz8n14s8v6z@marketplace.amazon.com	Ace Vu	+1 412-532-4665 ext. 12350	ABR0022	Arabella Bouquets | Purchase by 11.30 AM EST Wednesday | Delivery on Friday | Bouquet of 12 Fresh Cut Pink Roses	1	0	1	Expedited	Poonam	10175 CAMINO RUIZ APT A082			SAN DIEGO	CA	92126-6413	US		Enjoy fresh scent from nature. ace :)	false		
113-3715300-0475457	45897250930514	2020-04-21T21:43:51+00:00	2020-04-21T14:43:51-07:00	2020-04-21T22:01:44+00:00	2020-04-24T06:59:59+00:00	-3	1vthbqk8p3bq9z7@marketplace.amazon.com	Clancy's Outdoors	+1 210-728-4548 ext. 62477	ABR0055	Arabella Bouquets | Purchase by 11.30 AM EST Wednesday | Delivery on Friday | Bouquet of 12 Fresh Cut Hot Pink Roses	1	0	1	Expedited	Penni Dotzler	21829 CLOVER RD			DEERWOOD	MN	56444-1500	US		Penni! Congratulations on your recent promotion to Director in March. I am so proud of you and will continue to cheer you on as you reach for your goals! Love, Emily	true		
112-1945388-5387466	58128741978266	2020-04-21T21:39:48+00:00	2020-04-21T14:39:48-07:00	2020-04-21T22:02:26+00:00	2020-04-25T06:59:59+00:00	-4	s1xz9j64dm2fys0@marketplace.amazon.com	Mary Roy	+1 347-448-3190 ext. 29053	ABR0022	Arabella Bouquets | Purchase by 11.30 AM EST Wednesday | Delivery on Friday | Bouquet of 12 Fresh Cut Pink Roses	1	0	1	Expedited	Paula Bane	906 E MAIN ST			HOOPESTON	IL	60942-1530	US		I love you and miss you! From Mary	false		
114-8845292-0413013	57890194685562	2020-04-21T21:38:10+00:00	2020-04-21T14:38:10-07:00	2020-04-21T22:03:27+00:00	2020-04-25T06:59:59+00:00	-4	tg5vfc079lgxxyt@marketplace.amazon.com	genielamp	+1 412-532-4665 ext. 83973	ABR0022	Arabella Bouquets | Purchase by 11.30 AM EST Wednesday | Delivery on Friday | Bouquet of 12 Fresh Cut Pink Roses	1	0	1	Expedited	genielamp	2110 CRUDEN BAY WAY			GILROY	CA	95020-3080	US		Elizabeth,  Wishing you a very Happy Birthday! I hope you celebrate the best way you can! ❤️  Love, Genie From genielamp	false		
113-4746685-4591412	01360858688146	2020-04-21T21:36:30+00:00	2020-04-21T14:36:30-07:00	2020-04-21T22:05:30+00:00	2020-04-24T06:59:59+00:00	-3	n5lm4rzd0xwyklb@marketplace.amazon.com	Thonie Borowiak	+1 314-282-9402 ext. 11316	ABR0055	Arabella Bouquets | Purchase by 11.30 AM EST Wednesday | Delivery on Friday | Bouquet of 12 Fresh Cut Hot Pink Roses	1	0	1	Expedited	Kathleen Byers	389 W COOK RD APT 1			MANSFIELD	OH	44907-2346	US			false		
111-5675411-3991436	66597180657626	2020-04-21T21:42:55+00:00	2020-04-21T14:42:55-07:00	2020-04-21T22:11:30+00:00	2020-04-25T06:59:59+00:00	-4	h4gbkz8n14s8v6z@marketplace.amazon.com	Ace Vu	+1 347-448-3190 ext. 67437	ABR0022	Arabella Bouquets | Purchase by 11.30 AM EST Wednesday | Delivery on Friday | Bouquet of 12 Fresh Cut Pink Roses	1	0	1	Expedited	Paulina Zeng	1685 CANARY DR			SUNNYVALE	CA	94087-4633	US		Hi Paulina, Enjoy your gift! From Ace Vu	false		
112-8134884-9544254	66585545002866	2020-04-21T21:43:43+00:00	2020-04-21T14:43:43-07:00	2020-04-21T22:12:12+00:00	2020-04-25T06:59:59+00:00	-4	s1xz9j64dm2fys0@marketplace.amazon.com	Mary Roy	+1 347-448-3190 ext. 43202	ABR0022	Arabella Bouquets | Purchase by 11.30 AM EST Wednesday | Delivery on Friday | Bouquet of 12 Fresh Cut Pink Roses	1	0	1	Expedited	JoAnn Williams	114A W KING ST			FAIRFIELD	IL	62837-2524	US		I love you and miss you! From Mary	false		
112-0760528-1953846	21506904584346	2020-04-21T21:43:56+00:00	2020-04-21T14:43:56-07:00	2020-04-21T22:13:05+00:00	2020-04-25T06:59:59+00:00	-4	b95pw7vjndwvx0h@marketplace.amazon.com	Alice Jordan	+1 210-728-4548 ext. 63059	ABR0022	Arabella Bouquets | Purchase by 11.30 AM EST Wednesday | Delivery on Friday | Bouquet of 12 Fresh Cut Pink Roses	1	0	1	Expedited	Robert Jordan	2201 FROST CREEK RD			ELDERSBURG	MD	21784-6960	US		Happy Birthday Alice! Love, Jordan From Jordan	false		
112-5393222-8293053	25193494249330	2020-04-21T21:46:20+00:00	2020-04-21T14:46:20-07:00	2020-04-21T22:14:41+00:00	2020-04-25T06:59:59+00:00	-4	s6ptfgbs7636s9q@marketplace.amazon.com	ross	07428493649	ABR0022	Arabella Bouquets | Purchase by 11.30 AM EST Wednesday | Delivery on Friday | Bouquet of 12 Fresh Cut Pink Roses	1	0	1	Expedited	Shmagin Anton	11-10 Hopper Ave.			FAIR LAWN	NEW JERSEY	07410-2226	US		Happy Birthday Soon Meen!   From Rostik	false		
112-6569517-6194615	08498959169458	2020-04-21T21:59:20+00:00	2020-04-21T14:59:20-07:00	2020-04-21T22:15:31+00:00	2020-04-24T06:59:59+00:00	-3	yt7jpf542nvyc48@marketplace.amazon.com	Jennifer Ballard	+1 314-282-9402 ext. 41701	ABM010	Arabella Farm Direct Fields of The World Bouquet of Fresh Cut Flowers with a Free Glass Vase	1	0	1	Expedited	The Wells Family	8415 MADISON DR			DUNWOODY	GA	30346-2461	US		The Wells Family, Our prayers for a speedy recovery.   The SOFPREP team from Hurlburt.	true		
111-1957433-5138615	50847470564618	2020-04-21T21:53:44+00:00	2020-04-21T14:53:44-07:00	2020-04-21T22:19:42+00:00	2020-04-25T06:59:59+00:00	-4	h4gbkz8n14s8v6z@marketplace.amazon.com	Ace Vu	+1 210-728-4548 ext. 79634	ABR0022	Arabella Bouquets | Purchase by 11.30 AM EST Wednesday | Delivery on Friday | Bouquet of 12 Fresh Cut Pink Roses	1	0	1	Expedited	Mi Pham	1144 MORSE ST NE # A			WASHINGTON	DC	20002-3850	US		Hi Mi, Enjoy your gift! From Ace Vu	false		
111-3772031-7685847	23450945464530	2020-04-21T21:51:48+00:00	2020-04-21T14:51:48-07:00	2020-04-21T22:20:47+00:00	2020-04-25T06:59:59+00:00	-4	45cgqx9v97ygp8b@marketplace.amazon.com	James S. Kaplan	+1 210-728-4548 ext. 83821	ABR0022	Arabella Bouquets | Purchase by 11.30 AM EST Wednesday | Delivery on Friday | Bouquet of 12 Fresh Cut Pink Roses	1	0	1	Expedited	Melanie Cebula	13442 CARRIAGE HILL DR			MANASSAS	VA	20112-3837	US		Hi Melanie, Thanks for being such a terrific administrative assistant!  You make my work so much easier.  Celebrate your week. Warmly, Jim	false		
112-4677413-1756213	24442602983666	2020-04-21T21:55:37+00:00	2020-04-21T14:55:37-07:00	2020-04-21T22:24:33+00:00	2020-04-24T06:59:59+00:00	-3	m1xlr52flfg106y@marketplace.amazon.com	Mike kleinz	+1 314-282-9402 ext. 82855	ABR012	Arabella Bouquets | Purchase by 11.30 AM EST Wednesday | Delivery on Friday | Bouquet of 18 Fresh Cut Pink Roses	1	0	1	Expedited	Trishlyn Fuelle	31 N MAPLE AVE APT 172			MARLTON	NJ	08053-1722	US		Thank you for my cut Titi! Love, Loki	false		
113-1413982-9046618	50710931465986	2020-04-21T22:09:25+00:00	2020-04-21T15:09:25-07:00	2020-04-21T22:35:03+00:00	2020-04-25T06:59:59+00:00	-4	b0zm9jhrpqvk8j0@marketplace.amazon.com	Stephen	+1 314-282-9402 ext. 17079	ABR0022	Arabella Bouquets | Purchase by 11.30 AM EST Wednesday | Delivery on Friday | Bouquet of 12 Fresh Cut Pink Roses	1	0	1	Expedited	Marcia Andersen	521 AUTUMN LN APT A			CEDAR FALLS	IA	50613-8928	US		Hi Marcia, Happy Birthday! Love, Paula	false		
111-3193890-8894624	61723998778602	2020-04-21T22:18:11+00:00	2020-04-21T15:18:11-07:00	2020-04-21T22:39:29+00:00	2020-04-24T06:59:59+00:00	-3	msj3cdrmnyg26w2@marketplace.amazon.com	Michael Shemenski	+1 347-448-3190 ext. 29094	ABR012	Arabella Bouquets | Purchase by 11.30 AM EST Wednesday | Delivery on Friday | Bouquet of 18 Fresh Cut Pink Roses	1	0	1	Expedited	Callan Kapush	1303 EAGLE BAY DR			OSSINING	NY	10562-2373	US		Callan!! Thank you SO much for being an amazing friend, and especially for being the biggest help to me while job hunting. Hope you like this + a couple other things  :) -Michael	false		
113-9759191-3690613	67005840604402	2020-04-21T22:19:18+00:00	2020-04-21T15:19:18-07:00	2020-04-21T22:47:19+00:00	2020-04-25T06:59:59+00:00	-4	9bqghjxp9jr52cd@marketplace.amazon.com	Terresha Dinkel	+1 314-282-9402 ext. 49959	ABR0022	Arabella Bouquets | Purchase by 11.30 AM EST Wednesday | Delivery on Friday | Bouquet of 12 Fresh Cut Pink Roses	1	0	1	Expedited	Corrine Watkins	7408 W 140TH TER APT 2702			OVERLAND PARK	KS	66223-4255	US		Corrine, Thank you for all of the CCA projects you facilitate and oversee with ease to help our team run well and be a fun place to be!  Your team is lucky to have you! Terresha	true		Business Price
112-8861266-6724247	34344913042546	2020-04-21T22:23:28+00:00	2020-04-21T15:23:28-07:00	2020-04-21T22:53:47+00:00	2020-04-25T06:59:59+00:00	-4	458qjhvm7vt4lzy@marketplace.amazon.com	kiki	+1 210-728-4548 ext. 08386	ABR0022	Arabella Bouquets | Purchase by 11.30 AM EST Wednesday | Delivery on Friday | Bouquet of 12 Fresh Cut Pink Roses	1	0	1	Expedited	Yian deng	290 GEORGE ST APT 214B			NEW BRUNSWICK	NJ	08901-4708	US			false		
113-1409126-8155445	34830695051242	2020-04-21T22:27:39+00:00	2020-04-21T15:27:39-07:00	2020-04-21T22:54:01+00:00	2020-04-24T06:59:59+00:00	-3	kd3d3yjsfj7p0lw@marketplace.amazon.com	Natalie Pasquarette	+1 210-728-4548 ext. 19604	ABM010	Arabella Farm Direct Fields of The World Bouquet of Fresh Cut Flowers with a Free Glass Vase	1	0	1	Expedited	Three Trails Animal Hospital-Lindsey M	600 W 23RD ST			INDEPENDENCE	MO	64055-1102	US		I know people suck right now but remember I love you! From Mom	false		
114-7125127-6822635	40293984265010	2020-04-21T22:32:16+00:00	2020-04-21T15:32:16-07:00	2020-04-21T22:59:31+00:00	2020-04-24T06:59:59+00:00	-3	c4cvg2kh7rb8zg2@marketplace.amazon.com	Enrique Infante	+7138253553	ABR0033	Arabella Bouquets | Purchase by 11.30 AM EST Wednesday | Delivery on Friday | Bouquet of 12 Fresh Cut Orange Roses	1	0	1	Expedited	Miriam Damaris Maldonado	2250 HOLLY HALL ST APT 229			HOUSTON	TX	77054-3983	US		Para mi loca Amazónica With Love	false		
111-2722342-0454637	29690795978994	2020-04-21T22:32:19+00:00	2020-04-21T15:32:19-07:00	2020-04-21T23:00:49+00:00	2020-04-24T06:59:59+00:00	-3	g5c6m3cg9n4xqlz@marketplace.amazon.com	Kelly Salzman	+1 347-448-3190 ext. 57710	ABM010	Arabella Farm Direct Fields of The World Bouquet of Fresh Cut Flowers with a Free Glass Vase	1	0	1	Expedited	Wanda Markham	10200 SUNSET VIEW DR			FORT WORTH	TX	76108-4074	US		Mom, Happy 80th Birthday!  Love Michelle and Family!	false		
111-3106469-7655455	34972029253658	2020-04-21T22:34:39+00:00	2020-04-21T15:34:39-07:00	2020-04-21T23:03:12+00:00	2020-04-25T06:59:59+00:00	-4	8shw023v0w0pszp@marketplace.amazon.com	Katherine	+1 210-728-4548 ext. 59266	ABR0022	Arabella Bouquets | Purchase by 11.30 AM EST Wednesday | Delivery on Friday | Bouquet of 12 Fresh Cut Pink Roses	1	0	1	Expedited	Amanda Dennison	22441 SOUTHPOINT ST			WOODHAVEN	MI	48183-1426	US			false		
112-9880934-0394633	32414594979810	2020-04-21T22:53:38+00:00	2020-04-21T15:53:38-07:00	2020-04-21T23:17:07+00:00	2020-04-25T06:59:59+00:00	-4	tyblvng17dyldvh@marketplace.amazon.com	MATTHEW ROSS	+1 314-282-9402 ext. 26088	ABR0022	Arabella Bouquets | Purchase by 11.30 AM EST Wednesday | Delivery on Friday | Bouquet of 12 Fresh Cut Pink Roses	1	0	1	Expedited	Leah Warhane	1111 S PALOMINO CREEK DR			GILBERT	AZ	85296-3727	US		Hi Leah, Get well soon!  From The Gold Medal Gang	false		
112-6496045-6237057	20767990597954	2020-04-21T22:53:58+00:00	2020-04-21T15:53:58-07:00	2020-04-21T23:22:00+00:00	2020-04-25T06:59:59+00:00	-4	t7zxv19jtz1s3h5@marketplace.amazon.com	ilene m. shupnick	+1 347-448-3190 ext. 94690	ABR0022	Arabella Bouquets | Purchase by 11.30 AM EST Wednesday | Delivery on Friday | Bouquet of 12 Fresh Cut Pink Roses	1	0	1	Expedited	susan santini	2841 NICOLE CT			OCEANSIDE	NY	11572-3349	US			false		
114-2930743-2477806	16049707129250	2020-04-21T22:53:18+00:00	2020-04-21T15:53:18-07:00	2020-04-21T23:24:02+00:00	2020-04-24T06:59:59+00:00	-3	0sx3wb9rg43tyzg@marketplace.amazon.com	Steven Banks	+1 314-282-9402 ext. 24356	ABR012	Arabella Bouquets | Purchase by 11.30 AM EST Wednesday | Delivery on Friday | Bouquet of 18 Fresh Cut Pink Roses	1	0	1	Expedited	Steven Banks	3422 ODONNELL ST			BALTIMORE	MD	21224-5116	US			false		
114-8987945-7121839	38750120770298	2020-04-21T23:00:37+00:00	2020-04-21T16:00:37-07:00	2020-04-21T23:28:20+00:00	2020-04-24T06:59:59+00:00	-3	x4brqkzbgd3jx0v@marketplace.amazon.com	Keith Wade	+1 314-282-9402 ext. 67540	ABR004	Arabella Farm Direct Bouquet of 12 Fresh Cut Yellow Roses with a Free Glass Vase	1	0	1	Expedited	Pat Wade	2202 REDWOOD AVE			EMPORIA	KS	66801-5915	US		Hi Mom,  Happy Birthday  From Keith Wade	false		
114-5116053-7123447	14263968636066	2020-04-21T22:59:49+00:00	2020-04-21T15:59:49-07:00	2020-04-21T23:30:49+00:00	2020-04-25T06:59:59+00:00	-4	pf870rbyqtsw1fy@marketplace.amazon.com	Kimberly Green	+1 314-282-9402 ext. 96928	ABR0022	Arabella Bouquets | Purchase by 11.30 AM EST Wednesday | Delivery on Friday | Bouquet of 12 Fresh Cut Pink Roses	1	0	1	Expedited	Danielle Sharman	2241 KIETZKE LN APT C			RENO	NV	89502-3644	US		Happy Graduation.  I am so happy for you.  I love you to the moon and back!! Aunt Kim, Unc. Larry and Brooke, Tiff, Nat and Britt.	false		
113-9072925-9136221	22111236922874	2020-04-21T23:10:50+00:00	2020-04-21T16:10:50-07:00	2020-04-21T23:40:32+00:00	2020-04-24T06:59:59+00:00	-3	381ylzq4nvzzt9p@marketplace.amazon.com	Maria Villarreal		ABR012	Arabella Bouquets | Purchase by 11.30 AM EST Wednesday | Delivery on Friday | Bouquet of 18 Fresh Cut Pink Roses	1	0	1	Expedited	MARIA M VILLARREAL	218 N BETO GARCIA DR			WESLACO	TX	78599-3039	US			false		
114-8279471-4659415	58489839518450	2020-04-21T23:17:03+00:00	2020-04-21T16:17:03-07:00	2020-04-21T23:44:53+00:00	2020-04-25T06:59:59+00:00	-4	0zrjcnqkwpfdwc4@marketplace.amazon.com	kenneth johnson	+1 314-282-9402 ext. 70154	ABR0022	Arabella Bouquets | Purchase by 11.30 AM EST Wednesday | Delivery on Friday | Bouquet of 12 Fresh Cut Pink Roses	1	0	1	Expedited	Kenneth Johnson	3815 MARLA CIR			CLARKSVILLE	TN	37042-7237	US		Happy Anniversary PLove I love you so much!!! From Kenny Ray Johnson	false		
114-8364163-6224207	24149412918882	2020-04-21T23:27:43+00:00	2020-04-21T16:27:43-07:00	2020-04-21T23:54:00+00:00	2020-04-24T06:59:59+00:00	-3	60sg0p4jp25yk17@marketplace.amazon.com	Jennifer Tschimperle	+1 347-448-3190 ext. 84076	ABR0055	Arabella Bouquets | Purchase by 11.30 AM EST Wednesday | Delivery on Friday | Bouquet of 12 Fresh Cut Hot Pink Roses	1	0	1	Expedited	Kathy Molzahn	211 18TH AVE N			HOPKINS	MN	55343-6979	US		Thank you so much for all that you do for dad.  We sure love and appreciate you, Tom & Jenn From Jennifer Tschimperle	false		
111-7820973-3077860	22199809866754	2020-04-21T23:31:04+00:00	2020-04-21T16:31:04-07:00	2020-04-22T00:01:02+00:00	2020-04-24T06:59:59+00:00	-3	88q88fh4hnyqrky@marketplace.amazon.com	David Chestnut	+1 314-282-9402 ext. 49133	ABR004	Arabella Farm Direct Bouquet of 12 Fresh Cut Yellow Roses with a Free Glass Vase	1	0	1	Expedited	Karen Sciortino	223 E LINCOLN AVE			BELVIDERE	IL	61008-3218	US			false		
112-0950582-0692221	01945607085850	2020-04-21T23:36:16+00:00	2020-04-21T16:36:16-07:00	2020-04-22T00:02:36+00:00	2020-04-25T06:59:59+00:00	-4	yf6x030sf525xp6@marketplace.amazon.com	Norma	+1 314-282-9402 ext. 21182	ABR0022	Arabella Bouquets | Purchase by 11.30 AM EST Wednesday | Delivery on Friday | Bouquet of 12 Fresh Cut Pink Roses	1	0	1	Expedited	Yislayn Ramirez	14 RIDGEWAY ST			DEDHAM	MA	02026-6506	US		Congratulations on your graduation! I pray that you and your family are well and staying safe! Lots of love! From Tia Norma & Tio Uriel	false		
112-5685408-2181059	59904935534426	2020-04-21T23:39:37+00:00	2020-04-21T16:39:37-07:00	2020-04-22T00:06:58+00:00	2020-04-25T06:59:59+00:00	-4	p0nrs2xnvx4zhx9@marketplace.amazon.com	Todd abbott	+1 347-448-3190 ext. 92139	ABR0022	Arabella Bouquets | Purchase by 11.30 AM EST Wednesday | Delivery on Friday | Bouquet of 12 Fresh Cut Pink Roses	1	0	1	Expedited	Kathy swartz	8242 WOODS END CT			WASHINGTON	MI	48095-1368	US		Hope this puts a smile on your face.  You continue to be our angel!  What you do is nothing less than amazing! From Love ya!  Todd & Kim	false		
113-1322338-0419466	05803497090266	2020-04-22T00:04:51+00:00	2020-04-21T17:04:51-07:00	2020-04-22T00:31:13+00:00	2020-04-25T06:59:59+00:00	-4	ykm3t78r5cy5gtb@marketplace.amazon.com	Misha Leder	+1 347-448-3190 ext. 53665	ABR0022	Arabella Bouquets | Purchase by 11.30 AM EST Wednesday | Delivery on Friday | Bouquet of 12 Fresh Cut Pink Roses	1	0	1	Expedited	Marina Mitbreit	1509 GREEN WAY			WOODBURY	NY	11797-1647	US		Pust v etot den tebe i vsem budet svetlee! S dnjom rozhdeniya, Marinochka! Pozdravleniya iz moskvy! A/	false		
114-6067712-2434615	19754914621354	2020-04-22T00:05:16+00:00	2020-04-21T17:05:16-07:00	2020-04-22T00:31:53+00:00	2020-04-25T06:59:59+00:00	-4	7wp1twx2dnl48sx@marketplace.amazon.com	Gary L Parker Jr	+1 412-532-4665 ext. 09769	ABR0022	Arabella Bouquets | Purchase by 11.30 AM EST Wednesday | Delivery on Friday | Bouquet of 12 Fresh Cut Pink Roses	1	0	1	Expedited	Marlena Montano-Shore	3471 LADOGA AVE			LONG BEACH	CA	90808-2951	US		In Loving Memory of Grandma	false		
112-8263846-2505848	29630124215610	2020-04-22T00:12:13+00:00	2020-04-21T17:12:13-07:00	2020-04-22T00:41:13+00:00	2020-04-25T06:59:59+00:00	-4	l46ncjpmb1kkygv@marketplace.amazon.com	Josephine Tournier Ingram	+1 412-532-4665 ext. 52584	ABR0022	Arabella Bouquets | Purchase by 11.30 AM EST Wednesday | Delivery on Friday | Bouquet of 12 Fresh Cut Pink Roses	1	0	1	Expedited	Gundula Tournier	298 E ELFIN GRN ST			PORT HUENEME	CA	93041-1908	US		Happy Birthday!!!! Love from Joséphine, Jared, Daxon & Ace From Josephine Tournier Ingram	false		
112-2392044-8975454	16839599200058	2020-04-22T00:13:23+00:00	2020-04-21T17:13:23-07:00	2020-04-22T00:41:32+00:00	2020-04-24T06:59:59+00:00	-3	1dxrqq8191kvbq2@marketplace.amazon.com	Ian B Keil	+1 412-532-4665 ext. 78469	ABR0066	Arabella Bouquets | Purchase by 11.30 AM EST Wednesday | Delivery on Friday | Bouquet of 12 Fresh Cut White Roses	1	0	1	Expedited	Casey Matthews	6358 DEERGLEN DR			HILLIARD	OH	43026-0318	US		Dear Aaron, Casey, Isaiah, Kayla and Sam, We know this is a hard time for you all and we want you to know that we love you so much! Our thoughts and prayers are with you! Ian, Cris, Sophia and Agustin	false		
111-9236890-7821041	30689517327410	2020-04-22T00:16:18+00:00	2020-04-21T17:16:18-07:00	2020-04-22T00:43:33+00:00	2020-04-25T06:59:59+00:00	-4	zmz5l0273vt1nhk@marketplace.amazon.com	Tawanna Fields	+1 347-448-3190 ext. 06641	ABR0022	Arabella Bouquets | Purchase by 11.30 AM EST Wednesday | Delivery on Friday | Bouquet of 12 Fresh Cut Pink Roses	1	0	1	Expedited	Henrietta Wall	PARK CENTRAL 870 7TH AVE	ROOM # 808		NEW YORK	NY	10019-4369	US		Retta,   You are a courageous and strong woman.  I am proud of you.   Love, Tawanna and Mom	false		
114-3656573-4041866	30686012252346	2020-04-22T00:21:08+00:00	2020-04-21T17:21:08-07:00	2020-04-22T00:48:31+00:00	2020-04-25T06:59:59+00:00	-4	22j1mg617bhgv4t@marketplace.amazon.com	Kim	+1 314-282-9402 ext. 80932	ABR0022	Arabella Bouquets | Purchase by 11.30 AM EST Wednesday | Delivery on Friday | Bouquet of 12 Fresh Cut Pink Roses	1	0	1	Expedited	Annemarie Garceau	79 ELM ST			WATERVLIET	NY	12189-1757	US		HAPPY BIRTHDAY, AG!! Hope you have a beautiful day!  Love, Kim & Chris	false		
111-8457402-3922640	30127886512466	2020-04-22T00:20:37+00:00	2020-04-21T17:20:37-07:00	2020-04-22T00:49:29+00:00	2020-04-24T06:59:59+00:00	-3	r60r55tryq4dgdd@marketplace.amazon.com	kristen	+1 347-448-3190 ext. 80172	ABR0055	Arabella Bouquets | Purchase by 11.30 AM EST Wednesday | Delivery on Friday | Bouquet of 12 Fresh Cut Hot Pink Roses	1	0	1	Standard	Cherry Mcknight	1038 SE 207TH AVE			GRESHAM	OR	97030-2200	US		Happy birthday beautiful!! Love, Kristen From kristen	false		
112-4637881-0882626	02920309893026	2020-04-22T00:28:05+00:00	2020-04-21T17:28:05-07:00	2020-04-22T00:56:50+00:00	2020-04-24T06:59:59+00:00	-3	qlqscchwf6m5zkf@marketplace.amazon.com	Dean Arthur Richmond	+1 314-282-9402 ext. 15892	ABR001	Arabella Bouquets | Purchase by 11.30 AM EST Wednesday | Delivery on Friday | Bouquet of 12 Fresh Cut Red Roses	1	0	1	Standard	Aunchalee Byrd	1016 Daisy Ct			Sunnyvale	CA	94086-8210	US		Hi Grandma Byrd,  We want to wish you a Happy Birthday all the way from San Diego.  We love you so much and look forward to you visiting once this quarantine is over. xoxo, Joy, Dean, Lucas and Chloe.	false		
112-4513018-6616220	33214465990474	2020-04-22T00:34:23+00:00	2020-04-21T17:34:23-07:00	2020-04-22T01:01:08+00:00	2020-04-24T06:59:59+00:00	-3	fqm4r9cz6flr1b3@marketplace.amazon.com	Gabriela I. Chavando	+1 347-448-3190 ext. 61975	ABR012	Arabella Bouquets | Purchase by 11.30 AM EST Wednesday | Delivery on Friday | Bouquet of 18 Fresh Cut Pink Roses	1	0	1	Expedited	Gabriela I. Chavando	10416 Saltbush Cir			Moreno Valley	Ca	92557	US		Happy Birthday Mama-san!!!!  Love,  Isabel and Tim Xoxo	false		
114-1822289-4241004	01439404853746	2020-04-22T00:39:54+00:00	2020-04-21T17:39:54-07:00	2020-04-22T01:10:10+00:00	2020-04-25T06:59:59+00:00	-4	y3yrwzl0wnn7wm7@marketplace.amazon.com	Brian D. Dougherty	+1 347-448-3190 ext. 07931	ABR0022	Arabella Bouquets | Purchase by 11.30 AM EST Wednesday | Delivery on Friday | Bouquet of 12 Fresh Cut Pink Roses	1	0	1	Expedited	May Dougherty	28 APPLEGLEN DR			IRVINE	CA	92602-0763	US			false		
112-4436393-3586608	35434304243714	2020-04-22T00:42:58+00:00	2020-04-21T17:42:58-07:00	2020-04-22T01:11:05+00:00	2020-04-24T06:59:59+00:00	-3	tp2c7wxxw2kn0d8@marketplace.amazon.com	Sammy C.	+1 314-282-9402 ext. 26614	ABR0055	Arabella Bouquets | Purchase by 11.30 AM EST Wednesday | Delivery on Friday | Bouquet of 12 Fresh Cut Hot Pink Roses	1	0	1	Expedited	Deborah Stottlemyre	103 North Broadway	Unit A		Redondo Beach	CALIFORNIA	90277	US		Happy Birthday Sis!   I wish these were home grown. I love you Ronnie.	false		
