order-id	order-item-id	purchase-date	payments-date	reporting-date	promise-date	days-past-promise	buyer-email	buyer-name	buyer-phone-number	sku	product-name	quantity-purchased	quantity-shipped	quantity-to-ship	ship-service-level	recipient-name	ship-address-1	ship-address-2	ship-address-3	ship-city	ship-state	ship-postal-code	ship-country	gift-wrap-type	gift-message-text	is-business-order	purchase-order-number	price-designation
111-2657623-3437857	37904691082106	2020-04-21T14:58:04+00:00	2020-04-21T07:58:04-07:00	2020-04-21T15:23:11+00:00	2020-04-24T06:59:59+00:00	-3	3l12lzdnx5s84mm@marketplace.amazon.com	Judith King	+1 347-448-3190 ext. 08769	ABM010	Arabella Farm Direct Fields of The World Bouquet of Fresh Cut Flowers with a Free Glass Vase	1	0	1	Expedited	Patricia Saari	619 MOUNTAINBROOK DR			BOILING SPRINGS	SC	29316-6112	US			false		
114-2044124-4955458	23602780614786	2020-04-21T15:18:00+00:00	2020-04-21T08:18:00-07:00	2020-04-21T15:48:15+00:00	2020-04-25T06:59:59+00:00	-4	x5dgc0ywhpsv04t@marketplace.amazon.com	Joanna Konikoff	+1 210-728-4548 ext. 13771	ABR0022	Arabella Bouquets | Purchase by 11.30 AM EST Wednesday | Delivery on Friday | Bouquet of 12 Fresh Cut Pink Roses	1	0	1	Expedited	Joanna Konikoff	4766 Cherokee Drive			Suffolk	VA	23434	US			false		
111-8127353-8882648	16028295397114	2020-04-21T15:26:27+00:00	2020-04-21T08:26:27-07:00	2020-04-21T15:48:34+00:00	2020-04-24T06:59:59+00:00	-3	7tpv4pp343lq2tt@marketplace.amazon.com	Lance Lamar Cox	+1 210-728-4548 ext. 97488	ABR0033	Arabella Bouquets | Purchase by 11.30 AM EST Wednesday | Delivery on Friday | Bouquet of 12 Fresh Cut Orange Roses	1	0	1	Expedited	Ruby Madole	12825 OSR			Midway	TX	75852	US		Look at me, I’m 83!  Wouldn’t you like to be like me! Happy Birthday!   Your Darling 3 Oh, and Lance and Tom heeeheehee From Lance Lamar Cox	false		
112-6281927-4591427	34934734376058	2020-04-21T15:27:31+00:00	2020-04-21T08:27:31-07:00	2020-04-21T15:58:01+00:00	2020-04-24T06:59:59+00:00	-3	8sn8l8vmj5gdcvm@marketplace.amazon.com	Erica Olson	+1 347-448-3190 ext. 43601	ABR004	Arabella Farm Direct Bouquet of 12 Fresh Cut Yellow Roses with a Free Glass Vase	1	0	1	Expedited	Erica Olson	290 CLEARVIEW DR			PALMERTON	PA	18071-6304	US			false		
113-7793612-0084238	08812233616426	2020-04-21T15:37:17+00:00	2020-04-21T08:37:17-07:00	2020-04-21T16:05:16+00:00	2020-04-24T06:59:59+00:00	-3	wtlmy6fccvwvncg@marketplace.amazon.com	donna s nichols	+1 412-532-4665 ext. 89925	ABM010	Arabella Farm Direct Fields of The World Bouquet of Fresh Cut Flowers with a Free Glass Vase	1	0	1	Standard	Carolyn Silver	4410 FELLOWSHIP LN			VA BEACH	VA	23455-6138	US		Wishing you an early “Happy Mother’s Day”! I can’t wait for us to get together for lunch & shopping again! Love You So Very Much, Donna	false		
114-9178420-3616252	37391473334594	2020-04-21T15:37:24+00:00	2020-04-21T08:37:24-07:00	2020-04-21T16:06:00+00:00	2020-04-25T06:59:59+00:00	-4	zzs3bg756wxfy6l@marketplace.amazon.com	Rosanne   Betz	+1 314-282-9402 ext. 00538	ABR0022	Arabella Bouquets | Purchase by 11.30 AM EST Wednesday | Delivery on Friday | Bouquet of 12 Fresh Cut Pink Roses	1	0	1	Expedited	Dianne Frerichs	644 SOUTHERN WOODS CIR SW			ROCHESTER	MN	55902-1836	US			false		
113-0056117-4616240	26685398021026	2020-04-21T15:45:22+00:00	2020-04-21T08:45:22-07:00	2020-04-21T16:13:43+00:00	2020-04-25T06:59:59+00:00	-4	jk35cc543fb0mp3@marketplace.amazon.com	Janis L. Harding	+1 347-448-3190 ext. 38632	ABR0022	Arabella Bouquets | Purchase by 11.30 AM EST Wednesday | Delivery on Friday | Bouquet of 12 Fresh Cut Pink Roses	1	0	1	Expedited	Cathy Carroll	601 E 32ND ST APT 809			CHICAGO	IL	60616-4094	US		Dear Cathy, I hope these brighten your day.  You are in my prayers. God Bless,  Jan	false		
112-9436071-0960237	03742328663818	2020-04-21T15:46:13+00:00	2020-04-21T08:46:13-07:00	2020-04-21T16:16:53+00:00	2020-04-25T06:59:59+00:00	-4	j16c55prg1hypqr@marketplace.amazon.com	lisa	+1 314-282-9402 ext. 72976	ABR0022	Arabella Bouquets | Purchase by 11.30 AM EST Wednesday | Delivery on Friday | Bouquet of 12 Fresh Cut Pink Roses	1	0	1	Expedited	Bouasa Xoumphonphakdy	178 SPRING GARDEN CIR			HIGH POINT	NC	27260-5957	US			false		
114-8934560-5469010	33699189797866	2020-04-21T15:54:39+00:00	2020-04-21T08:54:39-07:00	2020-04-21T16:17:30+00:00	2020-04-25T06:59:59+00:00	-4	9dwc9ljncj5nbt2@marketplace.amazon.com	Cynthia A. Stintzi	+1 210-728-4548 ext. 69165	ABR0022	Arabella Bouquets | Purchase by 11.30 AM EST Wednesday | Delivery on Friday | Bouquet of 12 Fresh Cut Pink Roses	1	0	1	Expedited	The Hyde Family	7911 S THOMAS MALLEN RD			CHENEY	WA	99004-9676	US		Dearest Hydes, So sorry to hear of Papa Hydes passing.  He was a joy and we know he loved you all dearly.  We know he was proud to call you his family. Love to you all, The Stintzis From Cynthia A. Stintzi	false		
112-8958164-7724227	45881495451074	2020-04-21T16:01:46+00:00	2020-04-21T09:01:46-07:00	2020-04-21T16:29:01+00:00	2020-04-25T06:59:59+00:00	-4	53px8tg6qkgns7y@marketplace.amazon.com	Tim Koch	+1 210-728-4548 ext. 89398	ABR015	Arabella Bouquets | Purchase by 11.30 AM EST Wednesday | Delivery on Friday | Bouquet of 18 Fresh Cut Orange Roses	1	0	1	Expedited	Juanita Stott	31719 ROCKY VILLAGE DR APT 115			EVERGREEN	CO	80439-7542	US		Hello Juanita, Happy Birthday! Love, Vicki, Tim, Matt, Charlie, Joe, and Eric the Cat	false		
111-1030721-2505004	09434665120306	2020-04-21T16:01:59+00:00	2020-04-21T09:01:59-07:00	2020-04-21T16:30:37+00:00	2020-04-25T06:59:59+00:00	-4	vrtvxq4k2wyr1gk@marketplace.amazon.com	Adina Wolf	+1 314-282-9402 ext. 51038	ABR0022	Arabella Bouquets | Purchase by 11.30 AM EST Wednesday | Delivery on Friday | Bouquet of 12 Fresh Cut Pink Roses	1	0	1	Expedited	Jeny Mutari	2600 GRAY ST			WHEAT RIDGE	CO	80214-8122	US		Hi Jeny,  Happy 3 Year Anniversary! We are so grateful for all that you do  for us and our clients.  Adina & Kerry	false		
114-0007688-7523405	35289928241642	2020-04-21T16:28:06+00:00	2020-04-21T09:28:06-07:00	2020-04-21T16:53:56+00:00	2020-04-24T06:59:59+00:00	-3	78s22dz0j69d82d@marketplace.amazon.com	shannon jones	+1 347-448-3190 ext. 83714	ABR0066	Arabella Bouquets | Purchase by 11.30 AM EST Wednesday | Delivery on Friday | Bouquet of 12 Fresh Cut White Roses	1	0	1	Expedited	Emilie Dinonno	36 COLDSPRING XING			SOUTH GLASTONBURY	CT	06073-2800	US		My deepest sympathy. Thinking and praying for you. From Rita Jones	true		
111-9605937-2758662	12545854413530	2020-04-21T16:35:30+00:00	2020-04-21T09:35:30-07:00	2020-04-21T17:03:28+00:00	2020-04-24T06:59:59+00:00	-3	p515bn1hfckzj72@marketplace.amazon.com	james fields	+1 314-282-9402 ext. 33487	ABM010	Arabella Farm Direct Fields of The World Bouquet of Fresh Cut Flowers with a Free Glass Vase	1	0	1	Expedited	Kelsey loveland	67 RACE ST			BUFFALO	NY	14207-1828	US			false		
113-2443118-7688230	41855259836938	2020-04-21T16:36:57+00:00	2020-04-21T09:36:57-07:00	2020-04-21T17:05:04+00:00	2020-04-24T06:59:59+00:00	-3	5f37c9gqjnksrtc@marketplace.amazon.com	Karen kyle	+1 210-728-4548 ext. 23581	ABM010	Arabella Farm Direct Fields of The World Bouquet of Fresh Cut Flowers with a Free Glass Vase	1	0	1	Expedited	Virginia kyle	731 LAFAYETTE AVE			LINDSAY	CA	93247-1716	US		Enjoy your gift!    Happy Birthday From Karen kyle	false		
114-4897067-1757007	65016071612954	2020-04-21T16:37:09+00:00	2020-04-21T09:37:09-07:00	2020-04-21T17:06:19+00:00	2020-04-24T06:59:59+00:00	-3	5xf6h1rvkb59z58@marketplace.amazon.com	Nancy J. Rowlands	+1 347-448-3190 ext. 20097	ABR0055	Arabella Bouquets | Purchase by 11.30 AM EST Wednesday | Delivery on Friday | Bouquet of 12 Fresh Cut Hot Pink Roses	1	0	1	Expedited	Carol shuttleworth	44 CHESTNUT LN			HIGHLANDS	NC	28741-8365	US		Happy Birthday!  We love you! From Gary, Nancy Luke, Brody, and Stella	false		
111-0743280-8988229	31973098016898	2020-04-21T16:49:37+00:00	2020-04-21T09:49:37-07:00	2020-04-21T17:18:57+00:00	2020-04-25T06:59:59+00:00	-4	s7b6k44s4x8vfff@marketplace.amazon.com	Abdul Momin	+1 314-282-9402 ext. 20904	ABR0022	Arabella Bouquets | Purchase by 11.30 AM EST Wednesday | Delivery on Friday | Bouquet of 12 Fresh Cut Pink Roses	1	0	1	Expedited	Ramsha Khawar	8533 CRAWFORD AVE			SKOKIE	IL	60076-2123	US		Ramadan Mubarak! From Ramsha Khawar	false		
114-7372505-2719453	10525325352442	2020-04-21T16:55:33+00:00	2020-04-21T09:55:33-07:00	2020-04-21T17:25:56+00:00	2020-04-24T06:59:59+00:00	-3	cqhxggcgy7qmc0g@marketplace.amazon.com	Grace Marvuglio	+1 347-448-3190 ext. 10526	ABM010	Arabella Farm Direct Fields of The World Bouquet of Fresh Cut Flowers with a Free Glass Vase	1	0	1	Expedited	Megan Marvuglio	2705 MAGAZINE ST APT D			NEW ORLEANS	LA	70130-5628	US			false		
113-1267135-2664244	20330542619450	2020-04-21T17:02:24+00:00	2020-04-21T10:02:24-07:00	2020-04-21T17:29:53+00:00	2020-04-24T06:59:59+00:00	-3	brn1m04nnxv8pwd@marketplace.amazon.com	Una H. Wright	+1 210-728-4548 ext. 69380	ABR0055	Arabella Bouquets | Purchase by 11.30 AM EST Wednesday | Delivery on Friday | Bouquet of 12 Fresh Cut Hot Pink Roses	1	0	1	Expedited	ERIKA WRIGHT	9 OLD RIDGE RD			FREDERICKSBURG	VA	22407-2301	US		Enjoy your gift!Happy zBirthday.  With love. Una and Lowell From Una H. Wright sndvLowell zweight	false		
112-9058278-3714613	54269024337314	2020-04-21T17:14:39+00:00	2020-04-21T10:14:39-07:00	2020-04-21T17:38:22+00:00	2020-04-25T06:59:59+00:00	-4	m0tpn4ys054yf3z@marketplace.amazon.com	Abby Lievense	+1 347-448-3190 ext. 36829	ABR0022	Arabella Bouquets | Purchase by 11.30 AM EST Wednesday | Delivery on Friday | Bouquet of 12 Fresh Cut Pink Roses	1	0	1	Expedited	Geraldine Bliss	2 LEISURE LN			HOUSTON	TX	77024-5123	US		Geraldine.  You are truly an inspiration to me and so many others, I'm sure.  Thank you for ALL that you do!  I feel so fortunate to be your partner.  All my best, Abby	false		
111-6260250-0240222	01763803985410	2020-04-21T17:15:32+00:00	2020-04-21T10:15:32-07:00	2020-04-21T17:41:08+00:00	2020-04-25T06:59:59+00:00	-4	t58rbpr99yqd5w1@marketplace.amazon.com	art drummond	+1 412-532-4665 ext. 15396	ABR0022	Arabella Bouquets | Purchase by 11.30 AM EST Wednesday | Delivery on Friday | Bouquet of 12 Fresh Cut Pink Roses	1	0	1	Expedited	MACKENZIE PEMBERTON	1174 SAN MARCOS DR			SALINAS	CA	93901-3907	US			false		
112-7905538-5718638	23051625733618	2020-04-21T17:16:13+00:00	2020-04-21T10:16:13-07:00	2020-04-21T17:45:40+00:00	2020-04-25T06:59:59+00:00	-4	m0tpn4ys054yf3z@marketplace.amazon.com	Abby Lievense	+1 210-728-4548 ext. 08484	ABR0022	Arabella Bouquets | Purchase by 11.30 AM EST Wednesday | Delivery on Friday | Bouquet of 12 Fresh Cut Pink Roses	1	0	1	Expedited	Paulina Rychenkova	3S670 GLEN DR S			WARRENVILLE	IL	60555-3506	US		Hi Paulina, I'm honored to be your partner in CureSHANK!  Thank you for ALL that you do.  You are truly an inspiration! With sincere gratitude, Abby	false		
112-3069178-7639432	51607318179418	2020-04-21T17:16:27+00:00	2020-04-21T10:16:27-07:00	2020-04-21T17:45:51+00:00	2020-04-25T06:59:59+00:00	-4	s8t2kyh8jqk0j37@marketplace.amazon.com	Sohrab Harooni	+1 347-448-3190 ext. 58487	ABR0022	Arabella Bouquets | Purchase by 11.30 AM EST Wednesday | Delivery on Friday | Bouquet of 12 Fresh Cut Pink Roses	1	0	1	Expedited	Virginia Tedesco	6235 HOFFMAN ST RM A-4			NORTH PORT	FL	34287-2285	US		Love you and miss you. So glad you are safe even if you are bored! We are all safe and well here in California. From Whitney Sohrab Lennon Francisco & Shelby	false		
111-1054525-2867404	58451913606498	2020-04-21T17:22:27+00:00	2020-04-21T10:22:27-07:00	2020-04-21T17:50:28+00:00	2020-04-25T06:59:59+00:00	-4	4npqkndsg9ggs8w@marketplace.amazon.com	Ryan Dufresne	+1 314-282-9402 ext. 28943	ABR0022	Arabella Bouquets | Purchase by 11.30 AM EST Wednesday | Delivery on Friday | Bouquet of 12 Fresh Cut Pink Roses	1	0	1	Expedited	Eli Rodriguez	10 MAIN ST APT 504			FRAMINGHAM	MA	01702-2940	US			false		
112-7510115-2817853	29115111843314	2020-04-21T17:33:21+00:00	2020-04-21T10:33:21-07:00	2020-04-21T17:51:35+00:00	2020-04-24T06:59:59+00:00	-3	g9mqz5hp8qj1plf@marketplace.amazon.com	PJ. Garner	+1 210-728-4548 ext. 93211	ABM010	Arabella Farm Direct Fields of The World Bouquet of Fresh Cut Flowers with a Free Glass Vase	1	0	1	Expedited	Wilson Lee	724 N EVERGREEN ST			PLYMOUTH	MI	48170-1174	US		Thinking of you and hoping everything settles down for you all soon!  Your team & Vinny, too	false		
114-1800883-3296236	09697339386538	2020-04-21T17:22:38+00:00	2020-04-21T10:22:38-07:00	2020-04-21T17:53:22+00:00	2020-04-25T06:59:59+00:00	-4	r0d7nqh4hkbjvmp@marketplace.amazon.com	Jagadish Kumar	+1 314-282-9402 ext. 95474	ABR0022	Arabella Bouquets | Purchase by 11.30 AM EST Wednesday | Delivery on Friday | Bouquet of 12 Fresh Cut Pink Roses	1	0	1	Expedited	Sujatha Raman	496 VALLEY VIEW DR			LOS ALTOS	CA	94024-4742	US			false		
113-0410856-4035446	12051527158778	2020-04-21T17:31:09+00:00	2020-04-21T10:31:09-07:00	2020-04-21T17:58:49+00:00	2020-04-25T06:59:59+00:00	-4	d2g3hvzztpdznlf@marketplace.amazon.com	mariama rivera	+1 412-532-4665 ext. 54387	ABR0022	Arabella Bouquets | Purchase by 11.30 AM EST Wednesday | Delivery on Friday | Bouquet of 12 Fresh Cut Pink Roses	1	0	1	Expedited	Elke Foster	7718 BURDELL DR			COLUMBIA	SC	29209-3908	US		Happy Anniversary Mom From Julio Mariama Lucas & Lelah	false		
114-2786888-3492227	59809420568650	2020-04-21T17:44:54+00:00	2020-04-21T10:44:54-07:00	2020-04-21T18:02:56+00:00	2020-04-24T06:59:59+00:00	-3	f1ljpphmfzxncr4@marketplace.amazon.com	Sinatra	+1 314-282-9402 ext. 19401	ABM0033	Arabella Farm Direct Bouquet of 5 Fresh Cut White Hydrangea with a Free Glass Vase	1	0	1	Expedited	Michele Shaffer	18 MEMORY LN			DENVILLE	NJ	07834-2428	US		Michele, Please accept my prayers for you and your mother. I know how close she was to you. Our hearts go out to your family at this time. Love The Sinatra Family	false		
111-7822952-1985821	10310657680298	2020-04-21T17:38:14+00:00	2020-04-21T10:38:14-07:00	2020-04-21T18:04:16+00:00	2020-04-25T06:59:59+00:00	-4	yfvfv0m9xc3pqnj@marketplace.amazon.com	Carl Schultz	+1 347-448-3190 ext. 32911	ABR0022	Arabella Bouquets | Purchase by 11.30 AM EST Wednesday | Delivery on Friday | Bouquet of 12 Fresh Cut Pink Roses	1	0	1	Expedited	Carl Schultz	571 s ave faro			Anaheim	California	92807	US		Happy Birthday Nan!!!                                     Love ya From Carl	false		
111-8543512-8544242	41995101177178	2020-04-21T17:50:51+00:00	2020-04-21T10:50:51-07:00	2020-04-21T18:08:04+00:00	2020-04-25T06:59:59+00:00	-4	rs0hs3btqgpjqz6@marketplace.amazon.com	bill	+1 210-728-4548 ext. 17805	ABR0022	Arabella Bouquets | Purchase by 11.30 AM EST Wednesday | Delivery on Friday | Bouquet of 12 Fresh Cut Pink Roses	1	0	1	Expedited	Kriss Seco	86 MADISON AVE APT 203			PARK RIDGE	NJ	07656-1383	US		Miss you so much.    All my love, From Bill xx	false		
111-1531803-7240218	41232931665266	2020-04-21T18:08:52+00:00	2020-04-21T11:08:52-07:00	2020-04-21T18:15:58+00:00	2020-04-25T06:59:59+00:00	-4	0r6lngd351bm79q@marketplace.amazon.com	nina caris	+1 347-448-3190 ext. 11352	ABR0022	Arabella Bouquets | Purchase by 11.30 AM EST Wednesday | Delivery on Friday | Bouquet of 12 Fresh Cut Pink Roses	1	0	1	Expedited	Anna Lichtman	4327 BEEMAN AVE			STUDIO CITY	CA	91604-1521	US		Hi Anna,  Thinking of you on your Birthday and looking forward to see you Andre soon!  Hugs Nina	false		
111-0488233-9517806	25649787505466	2020-04-21T17:57:58+00:00	2020-04-21T10:57:58-07:00	2020-04-21T18:22:33+00:00	2020-04-25T06:59:59+00:00	-4	lmm0c6ght7frltj@marketplace.amazon.com	Dawn Barba	+1 314-282-9402 ext. 59485	ABR0022	Arabella Bouquets | Purchase by 11.30 AM EST Wednesday | Delivery on Friday | Bouquet of 12 Fresh Cut Pink Roses	1	0	1	Expedited	Carol Barba	626 S BROAD ST LOT 5			BROOKSVILLE	FL	34601-2855	US		Hi Mom! Happy Mother's Day!!! Enjoy your gift! Love, Dawn, Jordan & Anthony	false		
111-7521478-4919404	22777371687154	2020-04-21T17:54:28+00:00	2020-04-21T10:54:28-07:00	2020-04-21T18:23:37+00:00	2020-04-24T06:59:59+00:00	-3	8yz0nc11xvlf9lq@marketplace.amazon.com	Natacha Fahey	+1 210-728-4548 ext. 28159	ABR012	Arabella Bouquets | Purchase by 11.30 AM EST Wednesday | Delivery on Friday | Bouquet of 18 Fresh Cut Pink Roses	1	0	1	Expedited	Helen Geiger	1407 SKIPPER DR APT 102			WATERFORD	MI	48327-2492	US			false		
112-7790437-5317046	24521474968274	2020-04-21T18:12:19+00:00	2020-04-21T11:12:19-07:00	2020-04-21T18:33:15+00:00	2020-04-25T06:59:59+00:00	-4	ty81c3gvzkm9w9j@marketplace.amazon.com	Nicos Rivera	+1 347-448-3190 ext. 65474	ABR0022	Arabella Bouquets | Purchase by 11.30 AM EST Wednesday | Delivery on Friday | Bouquet of 12 Fresh Cut Pink Roses	1	0	1	Expedited	Traci M Cain	13706 MANDA MILL LN			PHOENIX	MD	21131-1612	US		Traci, Mothers always live, they never leave us... They live in our hearts and memories... Mothers are angels who never leave us. From Sandy, Dora and Clarence	false		
113-7281839-5167467	05229423140114	2020-04-21T18:16:29+00:00	2020-04-21T11:16:29-07:00	2020-04-21T18:43:39+00:00	2020-04-25T06:59:59+00:00	-4	7zqcf02q3744s49@marketplace.amazon.com	Rachael Hayes	+1 412-532-4665 ext. 75641	ABR0022	Arabella Bouquets | Purchase by 11.30 AM EST Wednesday | Delivery on Friday | Bouquet of 12 Fresh Cut Pink Roses	1	0	1	Expedited	Linh Recendiz	125 N DAVIS LN APT 135			DEFUNIAK SPRINGS	FL	32433-3155	US		I have been thinking and praying for you and your sweet brother since I heard of his accident.  Please take care of yourself during this time. From Rachael Hayes	false		
111-1118157-6911417	05215738632170	2020-04-21T18:11:10+00:00	2020-04-21T11:11:10-07:00	2020-04-21T18:45:08+00:00	2020-04-24T06:59:59+00:00	-3	tlm5h3hblf8qqp1@marketplace.amazon.com	Jill Burke	+1 347-448-3190 ext. 90645	ABR0055	Arabella Bouquets | Purchase by 11.30 AM EST Wednesday | Delivery on Friday | Bouquet of 12 Fresh Cut Hot Pink Roses	1	0	1	Standard	Maria Niemela	12723 BARBATA RD			LA MIRADA	CA	90638-2401	US		Happy Birthday Mom! Love - Jill & Tim!	false		
111-6222619-0316213	09520766751594	2020-04-21T18:19:50+00:00	2020-04-21T11:19:50-07:00	2020-04-21T18:46:42+00:00	2020-04-24T06:59:59+00:00	-3	5xmfnl26fmfbnlr@marketplace.amazon.com	Steven Overbeek	+1 347-448-3190 ext. 93730	ABR004	Arabella Farm Direct Bouquet of 12 Fresh Cut Yellow Roses with a Free Glass Vase	1	0	1	Expedited	Diane Overbeek	4049 JEWFISH DR			HERNANDO BEACH	FL	34607-3650	US		Just something to brighten day!  We know these next few weeks will be filled with memories of past celebrations and just wanted to let you know we are thinking of you!  Love, Steve, Cindy, Ashley, Kelly & Kayla	false		
114-8781203-0295413	67432201223466	2020-04-21T18:17:41+00:00	2020-04-21T11:17:41-07:00	2020-04-21T18:47:27+00:00	2020-04-24T06:59:59+00:00	-3	s1pg1rs960fd71x@marketplace.amazon.com	Mauricio Hernandez	+1 314-282-9402 ext. 07865	ABR0055	Arabella Bouquets | Purchase by 11.30 AM EST Wednesday | Delivery on Friday | Bouquet of 12 Fresh Cut Hot Pink Roses	1	0	1	Expedited	Edith Davila	2519 DAVIS AVE			LAREDO	TX	78040-2459	US		I love you babe.	false		
113-9473305-3957837	53241603243626	2020-04-21T18:20:29+00:00	2020-04-21T11:20:29-07:00	2020-04-21T18:50:12+00:00	2020-04-24T06:59:59+00:00	-3	vmkd6hz8sbn2tgd@marketplace.amazon.com	Kim Cook		ABR012	Arabella Bouquets | Purchase by 11.30 AM EST Wednesday | Delivery on Friday | Bouquet of 18 Fresh Cut Pink Roses	1	0	1	Expedited	Cecile Cook	2310 TUSTIN AVE			NEWPORT BEACH	CA	92660-3424	US			false		
114-9440282-0838662	65254651052706	2020-04-21T18:27:19+00:00	2020-04-21T11:27:19-07:00	2020-04-21T18:51:52+00:00	2020-04-25T06:59:59+00:00	-4	gdx6hzywqr2m87y@marketplace.amazon.com	Maria Dayi	+1 347-448-3190 ext. 64213	ABR0022	Arabella Bouquets | Purchase by 11.30 AM EST Wednesday | Delivery on Friday | Bouquet of 12 Fresh Cut Pink Roses	1	0	1	Expedited	Glenis Rojas	7433 LOCH NESS DR			MIAMI LAKES	FL	33014-6011	US		Glenis, May these flowers brighten your day and bring a smile. I think of you often. Receive a hug from me. Call me anytime you need. Much love, From MariAngie  Dayi	false		
111-8286495-3522619	40741872997530	2020-04-21T18:25:35+00:00	2020-04-21T11:25:35-07:00	2020-04-21T18:54:58+00:00	2020-04-24T06:59:59+00:00	-3	k59pg5m641f4r69@marketplace.amazon.com	Tim Hickle	+1 347-448-3190 ext. 68907	ABR012	Arabella Bouquets | Purchase by 11.30 AM EST Wednesday | Delivery on Friday | Bouquet of 18 Fresh Cut Pink Roses	1	0	1	Expedited	Lauren Hickle	646 ALABAMA ST			IMPERIAL BEACH	CA	91932-1104	US			false		
114-5508231-7468262	46885576722514	2020-04-21T18:34:36+00:00	2020-04-21T11:34:36-07:00	2020-04-21T18:56:31+00:00	2020-04-24T06:59:59+00:00	-3	zh2bpsw6vyrn74v@marketplace.amazon.com	Louise M. LaPlante	+1 347-448-3190 ext. 64427	ABR0055	Arabella Bouquets | Purchase by 11.30 AM EST Wednesday | Delivery on Friday | Bouquet of 12 Fresh Cut Hot Pink Roses	1	0	1	Standard	Amanda LaPlante	43 KING ST			UXBRIDGE	MA	01569-2121	US		Hi Amanda, Happy Birthday! From Louise & Dan	false		
112-1771767-5880265	15243827951274	2020-04-21T18:36:44+00:00	2020-04-21T11:36:44-07:00	2020-04-21T19:04:48+00:00	2020-04-24T06:59:59+00:00	-3	vzl6kzby9m28l5m@marketplace.amazon.com	Celina Perez	+1 347-448-3190 ext. 52489	ABR0055	Arabella Bouquets | Purchase by 11.30 AM EST Wednesday | Delivery on Friday | Bouquet of 12 Fresh Cut Hot Pink Roses	1	0	1	Expedited	Anita Perez	730 N OLD COACHMAN RD APT I-8			CLEARWATER	FL	33765-2326	US		Feliz Cumpleaños!!! Amiga te quiero mucho y dios te bendiga siempre... From Celina Perez	false		
112-0736442-7113029	11597950135306	2020-04-21T18:47:18+00:00	2020-04-21T11:47:18-07:00	2020-04-21T19:11:14+00:00	2020-04-24T06:59:59+00:00	-3	s6mqrxczs177tvn@marketplace.amazon.com	Paul Pobanz	+1 347-448-3190 ext. 73050	ABR0033	Arabella Bouquets | Purchase by 11.30 AM EST Wednesday | Delivery on Friday | Bouquet of 12 Fresh Cut Orange Roses	1	0	1	Expedited	Sister Hannah Cosper	1353 MARTINGALE ST			EUGENE	OR	97401-5242	US		Sister Cosper, Roses are red Well these ones are orange Without you i would be dead Shoot nothing rhymes with orange  I LOVE YOU	false		
112-8164302-3144227	53091614313922	2020-04-21T18:54:10+00:00	2020-04-21T11:54:10-07:00	2020-04-21T19:22:42+00:00	2020-04-25T06:59:59+00:00	-4	ssm78npg9gtm7p8@marketplace.amazon.com	Mary R. Damsky	+1 314-282-9402 ext. 99423	ABR0022	Arabella Bouquets | Purchase by 11.30 AM EST Wednesday | Delivery on Friday | Bouquet of 12 Fresh Cut Pink Roses	1	0	1	Expedited	Bianca Langer	20 E 68TH ST APT 8F			NEW YORK	NY	10065-5842	US		Dear Bianca, Much love on your birthday! From Mary & Ken	false		
