order-id	order-item-id	purchase-date	payments-date	reporting-date	promise-date	days-past-promise	buyer-email	buyer-name	buyer-phone-number	sku	product-name	quantity-purchased	quantity-shipped	quantity-to-ship	ship-service-level	recipient-name	ship-address-1	ship-address-2	ship-address-3	ship-city	ship-state	ship-postal-code	ship-country	gift-wrap-type	gift-message-text	is-business-order	purchase-order-number	price-designation
112-3833442-7729011	40149115548314	2020-04-22T01:06:48+00:00	2020-04-21T18:06:48-07:00	2020-04-22T01:32:25+00:00	2020-04-25T06:59:59+00:00	-2	hx2jh8l22951bv4@marketplace.amazon.com	Sheila Tozier	+1 210-728-4548 ext. 05377	ABR0022	Arabella Bouquets | Purchase by 11.30 AM EST Wednesday | Delivery on Friday | Bouquet of 12 Fresh Cut Pink Roses	1	0	1	Expedited	Dorothy Nuccitelli	26 STATE ROUTE 37			NEW FAIRFIELD	CT	06812-5003	US			false		
111-9797931-5850624	23205792595242	2020-04-22T15:06:01+00:00	2020-04-22T08:06:01-07:00	2020-04-22T15:32:15+00:00	2020-04-25T06:59:59+00:00	-2	9xxf126cm66g4y4@marketplace.amazon.com	Kenneth L. Meador	+1 347-448-3190 ext. 65781	ABM0033	Arabella Farm Direct Bouquet of 5 Fresh Cut White Hydrangea with a Free Glass Vase	1	0	1	Expedited	patsy walker	1237 N PEEBLY RD			CHOCTAW	OK	73020-7955	US		Kathy, We wish you a quick recovery. Patsy is dear to me, and I thank you for raising such a fantastic person! You’re a great momma!  Get better soon! From Anita Meador	false		
113-6289031-6508201	01007466143418	2020-04-22T15:35:43+00:00	2020-04-22T08:35:43-07:00	2020-04-22T16:02:50+00:00	2020-04-28T06:59:59+00:00	-5	53t53ph314zpffw@marketplace.amazon.com	Vanessa turner	+1 210-728-4548 ext. 76694	ABR0022	Arabella Bouquets | Purchase by 11.30 AM EST Friday | Delivery on Monday | Bouquet of 12 Fresh Cut Pink Roses	1	0	1	Expedited	Melissa Turner	1330 CAMERON GLEN DR			MARIETTA	GA	30062-3047	US		Dearest Melissa, Thinking about you!!  “The Lord Almighty  is with us” Psalm 46:11.  Love you and miss you!!! Nessa xoxoxo From Vanessa turner	false		
113-0262875-4376223	46678935241058	2020-04-22T15:38:32+00:00	2020-04-22T08:38:32-07:00	2020-04-22T16:04:36+00:00	2020-04-28T06:59:59+00:00	-5	r9qmm7wp8tm0wct@marketplace.amazon.com	Michael Barinbaum	+1 347-448-3190 ext. 46530	ABR0022	Arabella Bouquets | Purchase by 11.30 AM EST Friday | Delivery on Monday | Bouquet of 12 Fresh Cut Pink Roses	1	0	1	Expedited	Sara Lerner	18021 26TH DR SE			BOTHELL	WA	98012-9314	US		Dear Sara and John, we had hoped that these arrived on April 25 to let you know we were thinking about you. We love you! From mom and pop	false		
112-3340835-1849044	08759749668586	2020-04-22T15:40:19+00:00	2020-04-22T08:40:19-07:00	2020-04-22T16:10:50+00:00	2020-04-25T06:59:59+00:00	-2	9kmq13h1mxp5g6t@marketplace.amazon.com	Juan Perez	+1 347-448-3190 ext. 51081	ABR001	Arabella Bouquets | Purchase by 11.30 AM EST Friday | Delivery on Monday | Bouquet of 12 Fresh Cut Red Roses	1	0	1	Standard	Juan Daniel Perez Gijon	507 E GRANT ST			SANTA MARIA	CA	93454-1412	US			false		
113-9975230-0551437	08674850977906	2020-04-22T15:38:22+00:00	2020-04-22T08:38:22-07:00	2020-04-22T16:14:57+00:00	2020-04-28T06:59:59+00:00	-5	6bq3y9lfdgwx01y@marketplace.amazon.com	Lindsay Perkins	+1 347-448-3190 ext. 07271	ABR0022	Arabella Bouquets | Purchase by 11.30 AM EST Friday | Delivery on Monday | Bouquet of 12 Fresh Cut Pink Roses	1	0	1	Expedited	Louise Coe	1023 BIG ROCK LOOP			SUN VALLEY	NV	89433-8304	US		Congrats on your new home!!  May your new home be a foundation for many happy memories.      The best compliment you can give me is a Refferal.	false		
111-6197855-8617869	18021401916738	2020-04-22T15:37:20+00:00	2020-04-22T08:37:20-07:00	2020-04-22T16:26:47+00:00	2020-04-28T06:59:59+00:00	-5	861vlxgk39xsm8v@marketplace.amazon.com	Kathleen Nichols	+1 412-532-4665 ext. 60953	ABR0022	Arabella Bouquets | Purchase by 11.30 AM EST Friday | Delivery on Monday | Bouquet of 12 Fresh Cut Pink Roses	1	0	1	Expedited	Bridget & Sawyer VUOLO	141 HOWLAND DR			PONTE VEDRA	FL	32081-8420	US		Hi Bridget, Happy Birthday!  We miss you! Enjoy your gift! Love, Mom & Rich	false		
112-9035458-2570654	10908827744946	2020-04-22T16:03:42+00:00	2020-04-22T09:03:42-07:00	2020-04-22T16:32:01+00:00	2020-04-25T06:59:59+00:00	-2	gnffncpnvxn396b@marketplace.amazon.com	michael	+1 314-282-9402 ext. 49627	ABM010	Arabella Farm Direct Fields of The World Bouquet of Fresh Cut Flowers with a Free Glass Vase	1	0	1	Expedited	Linda	4312 W ARROWHEAD RD			SPOKANE	WA	99208-4962	US			false		
112-0691942-9004240	13052515335962	2020-04-22T16:04:51+00:00	2020-04-22T09:04:51-07:00	2020-04-22T16:32:31+00:00	2020-04-25T06:59:59+00:00	-2	42ctv77kxqx3x0f@marketplace.amazon.com	Callena Burns	+1 412-532-4665 ext. 10995	ABM017	Prosperous Day a Farm Direct Bouquet with a Free Glass Vase	1	0	1	Expedited	Terry Rhoton	213 PILOT HOUSE PL			CALABASH	NC	28467-2444	US		Happy happy Birthday!  Wish we could be there to celebrate! We miss youcan't wait until we're all together again!  Love, Brad + Callie	false		
113-2947776-3761811	45626902979242	2020-04-22T16:09:00+00:00	2020-04-22T09:09:00-07:00	2020-04-22T16:37:56+00:00	2020-04-28T06:59:59+00:00	-5	0dtmdf4jwbc59td@marketplace.amazon.com	Mark J. Brotman	+1 347-448-3190 ext. 87265	ABSR003	Arabella Bouquets | Purchase by 11.30 AM EST Friday | Delivery on Monday | Bouquet of Fresh Cut Yellow Spray Roses with a Free Glass Vase	1	0	1	Expedited	Jan Brotman	28 THAYER ST			NORTHBOROUGH	MA	01532-2408	US		Happy Birthday Jan! Love, Mark and Laura-Beth	false		
111-7327034-1524219	05134195591466	2020-04-22T16:12:47+00:00	2020-04-22T09:12:47-07:00	2020-04-22T16:38:41+00:00	2020-04-25T06:59:59+00:00	-2	pnv3zpdx6wycfxl@marketplace.amazon.com	edna shams	+1 347-448-3190 ext. 61248	ABR0066	Arabella Bouquets | Purchase by 11.30 AM EST Friday | Delivery on Monday | Bouquet of 12 Fresh Cut White Roses	1	0	1	Expedited	Mrs. Sabrina Rahmani	94A Wildwood Road			Kings Point	NY	11024	US		Dearest Sabrina, Our deepest condolences to you and your family. May you cherish her memories for many years. Hope these tough days will be over soon. Regards, Edna & Saeed Shamsian	false		
112-5889215-2810616	68926638189474	2020-04-22T16:26:43+00:00	2020-04-22T09:26:43-07:00	2020-04-22T16:51:13+00:00	2020-04-25T06:59:59+00:00	-2	26v11v57bwqfn18@marketplace.amazon.com	Cecilia M. Russo	+1 347-448-3190 ext. 50182	ABM010	Arabella Farm Direct Fields of The World Bouquet of Fresh Cut Flowers with a Free Glass Vase	1	0	1	Expedited	Janet Agruso, room 206B	C/O WHITTIER REHAB HOSPITAL	145 WARD HILL AVE		HAVERHILL	MA	01835-6928	US		Hi Janet, We are thinking of you and praying  for a speedy recovery! Love you so much, Joe & Ceil	false		
111-1813078-1462606	21166055649586	2020-04-22T16:28:50+00:00	2020-04-22T09:28:50-07:00	2020-04-22T16:59:01+00:00	2020-04-28T06:59:59+00:00	-5	1218qjybnq7h70y@marketplace.amazon.com	Denise J. Marshall	+1 314-282-9402 ext. 65203	ABR014	Arabella Bouquets | Purchase by 11.30 AM EST Friday | Delivery on Monday | Bouquet of 18 Fresh Cut White Roses	1	0	1	Expedited	Colleen Johnson.  (DM)	209 E DESERT ROSE WAY			IVINS	UT	84738-5116	US			false		
112-3202951-2764216	07531835950106	2020-04-22T16:34:15+00:00	2020-04-22T09:34:15-07:00	2020-04-22T16:59:25+00:00	2020-04-28T06:59:59+00:00	-5	nr1vv1tn7ry8lnw@marketplace.amazon.com	Norma Tanner	+1 347-448-3190 ext. 70195	ABR0022	Arabella Bouquets | Purchase by 11.30 AM EST Friday | Delivery on Monday | Bouquet of 12 Fresh Cut Pink Roses	1	0	1	Expedited	Tammy Huddleston	11115 ANGLE CT			KANSAS CITY	KS	66109-3475	US			false		
112-3085383-9597849	07313600570514	2020-04-22T16:33:09+00:00	2020-04-22T09:33:09-07:00	2020-04-22T17:00:44+00:00	2020-04-25T06:59:59+00:00	-2	1p0r4h044y09gpp@marketplace.amazon.com	LeeAnn McCoy-Tomlin	+1 412-532-4665 ext. 95690	ABR0055	Arabella Bouquets | Purchase by 11.30 AM EST Friday | Delivery on Monday | Bouquet of 12 Fresh Cut Hot Pink Roses	1	0	1	Expedited	Teresa Sims	1606 N TENNESSEE BLVD APT NN217			MURFREESBORO	TN	37130-2051	US		Hi Teresa, Happy Birthday! With Love your Small Business CSC Team	false		
111-0062716-2029879	64933481075690	2020-04-22T16:34:14+00:00	2020-04-22T09:34:14-07:00	2020-04-22T17:04:25+00:00	2020-04-28T06:59:59+00:00	-5	x25wstfy9yq9ymf@marketplace.amazon.com	Erin Marquardt	+1 347-448-3190 ext. 10845	ABR0022	Arabella Bouquets | Purchase by 11.30 AM EST Friday | Delivery on Monday | Bouquet of 12 Fresh Cut Pink Roses	1	0	1	Expedited	Brenda Belmudez	16740 SHADOW WOOD CT			HUDSON	CO	80642-7955	US			false		
111-6561404-6269805	50609669639170	2020-04-22T16:38:12+00:00	2020-04-22T09:38:12-07:00	2020-04-22T17:04:29+00:00	2020-04-25T06:59:59+00:00	-2	cs59wyg3smhq52w@marketplace.amazon.com	Allie Sturtridge	+1 210-728-4548 ext. 02027	ABM010	Arabella Farm Direct Fields of The World Bouquet of Fresh Cut Flowers with a Free Glass Vase	1	0	1	Expedited	Katelyn Lewis	3450 N LAKE SHORE DR APT 2215			CHICAGO	IL	60657-2860	US		Katelyn-- Happy Advisor Appreciation Month! Thank you for all of your hard work and dedication to the ladies of Beta Pi! Hope you are staying healthy and safe! TLM<3 Allie	false		
111-6476622-0613867	58451182313354	2020-04-22T16:39:23+00:00	2020-04-22T09:39:23-07:00	2020-04-22T17:09:35+00:00	2020-04-28T06:59:59+00:00	-5	gdgnrkj6rf192nw@marketplace.amazon.com	John Dodgson	+1 314-282-9402 ext. 91580	ABR0022	Arabella Bouquets | Purchase by 11.30 AM EST Friday | Delivery on Monday | Bouquet of 12 Fresh Cut Pink Roses	1	0	1	Expedited	Ms Emily Pooler	243 FORREST DR			GETTYSBURG	PA	17325-8982	US			false		
113-3603526-0222603	15570398984378	2020-04-22T16:47:57+00:00	2020-04-22T09:47:57-07:00	2020-04-22T17:18:36+00:00	2020-04-28T06:59:59+00:00	-5	jctlmbf7dcfdtvp@marketplace.amazon.com	Peggy	+1 347-448-3190 ext. 86157	ABR0022	Arabella Bouquets | Purchase by 11.30 AM EST Friday | Delivery on Monday | Bouquet of 12 Fresh Cut Pink Roses	1	0	1	Expedited	Margaret Hutchins	1169 Ponte Vedra Blvd			PONTE VEDRA BEACH	FL	32082	US			false		
114-4628189-8396245	66127063126442	2020-04-22T16:58:46+00:00	2020-04-22T09:58:46-07:00	2020-04-22T17:24:35+00:00	2020-04-25T06:59:59+00:00	-2	q8gjylwls4l3mmy@marketplace.amazon.com	Margie Prior	+1 314-282-9402 ext. 47298	ABM010	Arabella Farm Direct Fields of The World Bouquet of Fresh Cut Flowers with a Free Glass Vase	1	0	1	Expedited	Angela Prior	6153 GOLIAD AVE			DALLAS	TX	75214-3631	US		Since we can’t be there for you maybe these flowers will brighten your day! From Love, Mom and Dad xoxo	false		
113-6900073-8265061	57457512030290	2020-04-22T16:59:21+00:00	2020-04-22T09:59:21-07:00	2020-04-22T17:28:39+00:00	2020-04-25T06:59:59+00:00	-2	h5fz78gtc7f0hmq@marketplace.amazon.com	Patricia Batdorf	+1 412-532-4665 ext. 67486	ABR0055	Arabella Bouquets | Purchase by 11.30 AM EST Friday | Delivery on Monday | Bouquet of 12 Fresh Cut Hot Pink Roses	1	0	1	Expedited	Marcia Miller	630 MILLER FARM RD			INMAN	SC	29349-9696	US		Enjoy your gift! Happy Birthday! Love you! Patty From Patricia Batdorf	false		
114-7625708-0524230	48081896150850	2020-04-22T17:09:31+00:00	2020-04-22T10:09:31-07:00	2020-04-22T17:37:14+00:00	2020-04-25T06:59:59+00:00	-2	3hwr7tbrjk2bykl@marketplace.amazon.com	Amour Doyle	+1 412-532-4665 ext. 62634	ABM010	Arabella Farm Direct Fields of The World Bouquet of Fresh Cut Flowers with a Free Glass Vase	1	0	1	Expedited	Richard/Elain Doyle	2311 DOWNING ST			READING	PA	19605-2823	US		Happy Birthday Elaine,  love you From Amour, Christopher and The King From Amour Doyle	false		
112-9574517-9095440	09224158783250	2020-04-22T17:17:24+00:00	2020-04-22T10:17:24-07:00	2020-04-22T17:46:36+00:00	2020-04-25T06:59:59+00:00	-2	dwhbwmc31gh4rjb@marketplace.amazon.com	Kirsten Sorensen	+1 314-282-9402 ext. 96953	ABM010	Arabella Farm Direct Fields of The World Bouquet of Fresh Cut Flowers with a Free Glass Vase	1	0	1	Expedited	Heather Jafar	275 CONOVER ST			BROOKLYN	NY	11231-1035	US		Hi Heather, Enjoy your gift! Congratulations and welcome to Otis! Love,  Kirsten	false		
113-9627986-0550656	69201605173290	2020-04-22T17:08:33+00:00	2020-04-22T10:08:33-07:00	2020-04-22T17:50:26+00:00	2020-04-25T06:59:59+00:00	-2	v8ppzk40rsjn9p7@marketplace.amazon.com	Dag Alfstad	+1 347-448-3190 ext. 92335	ABR012	Arabella Bouquets | Purchase by 11.30 AM EST Friday | Delivery on Monday | Bouquet of 18 Fresh Cut Pink Roses	1	0	1	Expedited	Dag Alfstad	12 SALINAS			FOOTHILL RANCH	CA	92610-1861	US		Gratulerer så masse med dagen Nina!!! Vi digger deg, Hilde og Dag	false		
112-3825387-4047447	14960705303810	2020-04-22T17:29:06+00:00	2020-04-22T10:29:06-07:00	2020-04-22T17:56:50+00:00	2020-04-25T06:59:59+00:00	-2	hx200wcqdgkh0dh@marketplace.amazon.com	Victoria Denault	+1 314-282-9402 ext. 95954	ABR001	Arabella Bouquets | Purchase by 11.30 AM EST Friday | Delivery on Monday | Bouquet of 12 Fresh Cut Red Roses	1	0	1	Standard	Bessie F. Gray	3600 OAK MANOR LN APT 39			LARGO	FL	33774-1240	US			false		
113-6044306-2142606	04947125821090	2020-04-22T17:34:23+00:00	2020-04-22T10:34:23-07:00	2020-04-22T18:00:11+00:00	2020-04-28T06:59:59+00:00	-5	96w0qvw1js3kr1w@marketplace.amazon.com	ladyfoote@yahoo.com	+1 210-728-4548 ext. 37447	ABR0022	Arabella Bouquets | Purchase by 11.30 AM EST Friday | Delivery on Monday | Bouquet of 12 Fresh Cut Pink Roses	1	0	1	Expedited	ladyfoote@yahoo.com	8110 SANDY HOOK DR			CLINTON	WA	98236-8937	US			false		
111-3573571-2598648	63658185964674	2020-04-22T18:10:07+00:00	2020-04-22T11:10:07-07:00	2020-04-22T18:33:18+00:00	2020-04-28T06:59:59+00:00	-5	8xc2j1547b44cfy@marketplace.amazon.com	Martha M. Medford	+1 347-448-3190 ext. 19883	ABR0022	Arabella Bouquets | Purchase by 11.30 AM EST Friday | Delivery on Monday | Bouquet of 12 Fresh Cut Pink Roses	1	0	1	Expedited	Regina Stalnaker	18817 106TH LN E			PUYALLUP	WA	98374-6485	US		Wishing you wonderful days ahead. With Love From Martha  and Dennis	false		
113-0689553-3195424	37221720235322	2020-04-22T18:22:10+00:00	2020-04-22T11:22:10-07:00	2020-04-22T18:44:17+00:00	2020-04-25T06:59:59+00:00	-2	1cpzsblsp2g403d@marketplace.amazon.com	lane ruth	+1 347-448-3190 ext. 73472	ABR0033	Arabella Bouquets | Purchase by 11.30 AM EST Friday | Delivery on Monday | Bouquet of 12 Fresh Cut Orange Roses	1	0	1	Expedited	Delcie Lane	1005 E MELBOURNE AVE			PEORIA	IL	61603-2025	US		Happy Anniversary!  Celebrating the best gift my Dad ever gave me was you.  Know that you are loved, Ruth	false		
113-5069507-9673046	15832971985242	2020-04-22T18:24:59+00:00	2020-04-22T11:24:59-07:00	2020-04-22T18:53:42+00:00	2020-04-25T06:59:59+00:00	-2	b5d0sl96hrkxl9l@marketplace.amazon.com	sandy	+1 347-448-3190 ext. 62116	ABR0033	Arabella Bouquets | Purchase by 11.30 AM EST Friday | Delivery on Monday | Bouquet of 12 Fresh Cut Orange Roses	1	0	1	Standard	Stanley and Virginia Harris	PO BOX 637			WHEATLAND	WY	82201-0637	US		Enjoy your gift! Sorry about chubs, hopefully it gets better soon From sandy	false		
114-4529490-2253065	14105174608074	2020-04-22T18:33:01+00:00	2020-04-22T11:33:01-07:00	2020-04-22T18:59:58+00:00	2020-04-25T06:59:59+00:00	-2	typkxybfpc60hdr@marketplace.amazon.com	Melissa Taylor	+1 210-728-4548 ext. 65057	ABM017	Prosperous Day a Farm Direct Bouquet with a Free Glass Vase	1	0	1	Expedited	Michael and Sue Griggs	6096 Lookaway Farms			Franklin	TN	37067	US		Dear Michael and Sue, Just a thinking about you guys during this difficult time.  Love, Missy and Jenny	false		
113-1861320-4265042	61444164052082	2020-04-22T18:35:04+00:00	2020-04-22T11:35:04-07:00	2020-04-22T19:04:53+00:00	2020-04-25T06:59:59+00:00	-2	rr5hwk618jtbm6k@marketplace.amazon.com	jerriann cronk	+1 412-532-4665 ext. 92385	ABM010	Arabella Farm Direct Fields of The World Bouquet of Fresh Cut Flowers with a Free Glass Vase	1	0	1	Expedited	Judy Smith	915 FRESNO ST			ELGIN	OR	97827-9661	US			false		
114-9114726-0973004	43591466478226	2020-04-22T18:40:07+00:00	2020-04-22T11:40:07-07:00	2020-04-22T19:07:55+00:00	2020-04-25T06:59:59+00:00	-2	typkxybfpc60hdr@marketplace.amazon.com	Melissa Taylor	+1 347-448-3190 ext. 22379	ABM017	Prosperous Day a Farm Direct Bouquet with a Free Glass Vase	1	0	1	Expedited	Shelly Griggs	1587 WELLINGTON AVE			SAVANNAH	NY	13146-3161	US		Hi, This is just something to cheer you up during these difficult time. Love Jenny and Missy	false		
112-5772421-3684258	30960049475954	2020-04-22T18:56:23+00:00	2020-04-22T11:56:23-07:00	2020-04-22T19:25:04+00:00	2020-04-25T06:59:59+00:00	-2	4pblkfvqp5jpvmk@marketplace.amazon.com	kim a king	+1 412-532-4665 ext. 20646	ABR0055	Arabella Bouquets | Purchase by 11.30 AM EST Friday | Delivery on Monday | Bouquet of 12 Fresh Cut Hot Pink Roses	1	0	1	Expedited	Mrs. Addie Starck	6055 VERDE TRL S APT 216	ST ANDREWS		BOCA RATON	FL	33433-4423	US		Happy Mothers Day With much love Kim	false		
112-2026816-1902626	25259950871930	2020-04-22T18:59:29+00:00	2020-04-22T11:59:29-07:00	2020-04-22T19:29:00+00:00	2020-04-25T06:59:59+00:00	-2	gy7xg0yzvytm2k7@marketplace.amazon.com	Susan Jimenez	+1 347-448-3190 ext. 67702	ABR012	Arabella Bouquets | Purchase by 11.30 AM EST Friday | Delivery on Monday | Bouquet of 18 Fresh Cut Pink Roses	1	0	1	Expedited	Carissa Orozco	5 RUGBY RD			MASSAPEQUA	NY	11758-5946	US			false		
112-6877935-6893820	26714393603738	2020-04-22T19:12:16+00:00	2020-04-22T12:12:16-07:00	2020-04-22T19:32:47+00:00	2020-04-25T06:59:59+00:00	-2	11qk1mz4c9qtx42@marketplace.amazon.com	Jeff Gerbers	+1 210-728-4548 ext. 86196	ABR0055	Arabella Bouquets | Purchase by 11.30 AM EST Friday | Delivery on Monday | Bouquet of 12 Fresh Cut Hot Pink Roses	1	0	1	Expedited	Diane Hackney	121 HANWORTH LN			DANIELS	WV	25832-9029	US		Hi Diane!  Thinking of you and wishing you a happy day!   We hope you know how special you are to both of us!  With much love and hugs, Kristy & Tracy	false		
111-4500956-9429050	36785683732106	2020-04-22T19:14:12+00:00	2020-04-22T12:14:12-07:00	2020-04-22T19:42:13+00:00	2020-04-25T06:59:59+00:00	-2	7m7y6jf3zw3w5jl@marketplace.amazon.com	MS Mandy Lyons	07720616526	ABR012	Arabella Bouquets | Purchase by 11.30 AM EST Friday | Delivery on Monday | Bouquet of 18 Fresh Cut Pink Roses	1	0	1	Expedited	Donna Hoyt	19016 N 47TH LN			GLENDALE	AZ	85308-4851	US		Enjoy your gift! From MS Mandy Lyons	false		
111-0633326-6820255	02466469733218	2020-04-22T19:27:51+00:00	2020-04-22T12:27:51-07:00	2020-04-22T19:56:47+00:00	2020-04-28T06:59:59+00:00	-5	vsy7m4vqfx3gdnc@marketplace.amazon.com	Nathan	+1 347-448-3190 ext. 27953	ABR0022	Arabella Bouquets | Purchase by 11.30 AM EST Friday | Delivery on Monday | Bouquet of 12 Fresh Cut Pink Roses	1	0	1	Standard	Daun Deemer	1445 SCHOOL AVE NE APT 10			NORTH CANTON	OH	44720-6249	US		Happy Mother's Day, Grandma! Love you! Hope, Nathan, Tina & Bill	false		
114-5831251-5307461	12505238758850	2020-04-22T19:47:47+00:00	2020-04-22T12:47:47-07:00	2020-04-22T20:11:50+00:00	2020-04-25T06:59:59+00:00	-2	9b6z8zfcf4knr8s@marketplace.amazon.com	naomireneelewton	+1 210-728-4548 ext. 12635	ABM010	Arabella Farm Direct Fields of The World Bouquet of Fresh Cut Flowers with a Free Glass Vase	1	0	1	Expedited	Sarilla Curtis	12320 huntingdon dr.			Indianapolis	Indiana	46229	US		This is for Eliza lol💕 From Your friend	false		
112-8269831-3357027	44791162955714	2020-04-22T19:45:15+00:00	2020-04-22T12:45:15-07:00	2020-04-22T20:15:02+00:00	2020-04-28T06:59:59+00:00	-5	ptfs28z0dz8ln5v@marketplace.amazon.com	Amanda Schiff	+1 314-282-9402 ext. 88077	ABR0022	Arabella Bouquets | Purchase by 11.30 AM EST Friday | Delivery on Monday | Bouquet of 12 Fresh Cut Pink Roses	1	0	1	Expedited	Amanda Schiff	649 Fox Hollow Way			Vacaville	CA	95687	US			false		
113-7069210-4440252	07486073002394	2020-04-22T19:51:29+00:00	2020-04-22T12:51:29-07:00	2020-04-22T20:19:33+00:00	2020-04-25T06:59:59+00:00	-2	p04gsz2fwry8tmp@marketplace.amazon.com	Christina valery	+1 314-282-9402 ext. 52211	ABM010	Arabella Farm Direct Fields of The World Bouquet of Fresh Cut Flowers with a Free Glass Vase	1	0	1	Expedited	ERIKA CANELA	1822 W CANTON ST			LONG BEACH	CA	90810-2932	US		HAPPY BIRTHDAY!!!! We love you and miss you! From Marna, James, Christina	false		
111-2127902-9441861	39292629820714	2020-04-22T20:33:53+00:00	2020-04-22T13:33:53-07:00	2020-04-22T20:57:30+00:00	2020-04-28T06:59:59+00:00	-5	lzwkm8hrdvdsmk8@marketplace.amazon.com	Sue Coleman	+1 347-448-3190 ext. 91273	ABR0022	Arabella Bouquets | Purchase by 11.30 AM EST Friday | Delivery on Monday | Bouquet of 12 Fresh Cut Pink Roses	1	0	1	Expedited	Carina Aguirre	114 E STATE ST			NORTH AURORA	IL	60542-1618	US		Congratulations Carina and Edgar on your beautiful baby girl! From QA and Training Team @ MAXIMUS	false		
114-5837791-9599445	11760938118122	2020-04-22T20:48:23+00:00	2020-04-22T13:48:23-07:00	2020-04-22T21:12:42+00:00	2020-04-25T06:59:59+00:00	-2	98kjvmw56kgpq10@marketplace.amazon.com	markus greese	+1 210-728-4548 ext. 17250	ABM010	Arabella Farm Direct Fields of The World Bouquet of Fresh Cut Flowers with a Free Glass Vase	1	0	1	Expedited	CHIARO GABRIELE	FOREST LAKE ESTATES	5319 NW 67TH AVE		LAUDERHILL	FL	33319-7223	US		Hallo liebe 'Mupfl' Mit den besten Wünschen, zum Geburtstag viel Gesundheit und liebe Grüße, herzlich, Dein Sohn Markus  Enjoy your gift!	false		
113-8565540-1673060	47661113249218	2020-04-22T20:51:26+00:00	2020-04-22T13:51:26-07:00	2020-04-22T21:20:09+00:00	2020-04-25T06:59:59+00:00	-2	nw4bty10b8pmqt5@marketplace.amazon.com	Sherrie Olson	+1 347-448-3190 ext. 91849	ABR0033	Arabella Bouquets | Purchase by 11.30 AM EST Friday | Delivery on Monday | Bouquet of 12 Fresh Cut Orange Roses	1	0	1	Expedited	Dominika Batten	10260 CAVALRY CIR			RENO	NV	89521-4194	US		Thinking of you! Sending you the biggest hug and all my love! From Sherrie	false		
112-5150010-4529058	10851628754138	2020-04-22T21:42:54+00:00	2020-04-22T14:42:54-07:00	2020-04-22T22:11:31+00:00	2020-04-28T06:59:59+00:00	-5	908w1m9g4vvl1nh@marketplace.amazon.com	brian a smith	+1 412-532-4665 ext. 14659	ABR0022	Arabella Bouquets | Purchase by 11.30 AM EST Friday | Delivery on Monday | Bouquet of 12 Fresh Cut Pink Roses	1	0	1	Standard	Melanie Carlisle	337 E MARTHONA RD			MADISON	TN	37115-4503	US			false		
112-0483723-7649801	63339673988346	2020-04-22T21:45:02+00:00	2020-04-22T14:45:02-07:00	2020-04-22T22:15:16+00:00	2020-04-28T06:59:59+00:00	-5	908w1m9g4vvl1nh@marketplace.amazon.com	brian a smith	+1 314-282-9402 ext. 09234	ABR0022	Arabella Bouquets | Purchase by 11.30 AM EST Friday | Delivery on Monday | Bouquet of 12 Fresh Cut Pink Roses	1	0	1	Standard	Linda Hutcherson	4550 N TROOPER LN			BLOOMINGTON	IN	47404-9659	US			false		
111-3785780-0713861	13318795064658	2020-04-22T21:55:17+00:00	2020-04-22T14:55:17-07:00	2020-04-22T22:22:03+00:00	2020-04-28T06:59:59+00:00	-5	74ygyqgvsnkx8hm@marketplace.amazon.com	Jonathan Johnson	+1 210-728-4548 ext. 73084	ABR0022	Arabella Bouquets | Purchase by 11.30 AM EST Friday | Delivery on Monday | Bouquet of 12 Fresh Cut Pink Roses	1	0	1	Expedited	Denise Johnson	1813 DALHOUSIE CT APT C1			PARKVILLE	MD	21234-5338	US		Hi Denise, HAPPY BIRTHDAY !!!!!!!!!!  From: Ellie :)	false		
111-2117866-9387406	59411912669282	2020-04-22T22:02:29+00:00	2020-04-22T15:02:29-07:00	2020-04-22T22:24:09+00:00	2020-04-25T06:59:59+00:00	-2	bfjsc3q3q4ft1qw@marketplace.amazon.com	Diana Rose	+1 347-448-3190 ext. 73703	ABR0055	Arabella Bouquets | Purchase by 11.30 AM EST Friday | Delivery on Monday | Bouquet of 12 Fresh Cut Hot Pink Roses	1	0	1	Expedited	Debbie Bump	715 ENCINO DR			ARCADIA	CA	91006-4467	US		Thank you Deb for all your hard work and compassion for MOM: taking her to med. appts, organizing & managing meds, investments, prop mgmt, getting her home & on hospice and working on all the paperwork.  We appreciate and love you, Rob, Diana & Donna	false		
113-4134949-8941855	09423230156578	2020-04-22T22:09:59+00:00	2020-04-22T15:09:59-07:00	2020-04-22T22:35:07+00:00	2020-04-25T06:59:59+00:00	-2	mwyz4hctkyx464s@marketplace.amazon.com	Robert Mitchell	+1 347-448-3190 ext. 67998	ABR012	Arabella Bouquets | Purchase by 11.30 AM EST Friday | Delivery on Monday | Bouquet of 18 Fresh Cut Pink Roses	1	0	1	Expedited	Francis Taylor-Pleasant	3157 WELSH CIR			RICHMOND	VA	23223-2180	US		Hi Francis, I was deeply saddened to hear of the loss of your husband. Please know that my thoughts are with you during this very difficult time. I look forward to seeing you soon. With Love, Cousin Bob	false		
113-9550228-7333827	65967575910338	2020-04-22T22:12:47+00:00	2020-04-22T15:12:47-07:00	2020-04-22T22:37:08+00:00	2020-04-28T06:59:59+00:00	-5	zj58k7vrhvngjjz@marketplace.amazon.com	Renee	+1 347-448-3190 ext. 90050	ABR0022	Arabella Bouquets | Purchase by 11.30 AM EST Friday | Delivery on Monday | Bouquet of 12 Fresh Cut Pink Roses	1	0	1	Expedited	Gini kestner	126 OLD CARTWHEEL RD			MARSHALLBERG	NC	28553-9701	US		Happy one month I can’t believe it’s gone by this fast and there will be many more to come. From Nick	false		
111-0905066-5250619	57286585215322	2020-04-22T22:15:40+00:00	2020-04-22T15:15:40-07:00	2020-04-22T22:38:18+00:00	2020-04-25T06:59:59+00:00	-2	29qlgw1l83z3ny4@marketplace.amazon.com	Matt hull	+1 210-728-4548 ext. 93366	ABM010	Arabella Farm Direct Fields of The World Bouquet of Fresh Cut Flowers with a Free Glass Vase	1	0	1	Expedited	Rocket launch friends	552B ADAMS AVE			CAPE CANAVERAL	FL	32920-2102	US		Thank you for letting us park here to enjoy the rocket launch! Sorry if I left my flip flops in your driveway. Thanks so much we enjoyed our short time there!   Love, newfriends From New friends	false		
114-0478924-5259414	44302396830066	2020-04-22T22:41:53+00:00	2020-04-22T15:41:53-07:00	2020-04-22T23:05:36+00:00	2020-04-25T06:59:59+00:00	-2	63rpy0xvpl018ht@marketplace.amazon.com	lucy kelly-cohen	+347.261-5362	ABR0033	Arabella Bouquets | Purchase by 11.30 AM EST Friday | Delivery on Monday | Bouquet of 12 Fresh Cut Orange Roses	1	0	1	Expedited	Lupe Tucuri	3808 100TH ST			CORONA	NY	11368-1849	US		Enjoy your gift! From 2xLL’s ❤️	false		
112-8131931-6793042	58607522433698	2020-04-22T22:48:39+00:00	2020-04-22T15:48:39-07:00	2020-04-22T23:18:09+00:00	2020-04-25T06:59:59+00:00	-2	szl98p5t2lfkdky@marketplace.amazon.com	Jeff ross	+1 314-282-9402 ext. 16829	ABM010	Arabella Farm Direct Fields of The World Bouquet of Fresh Cut Flowers with a Free Glass Vase	1	0	1	Expedited	Maryjo Pollack	951 W ORANGE GROVE RD APT 21-101			TUCSON	AZ	85704-4055	US		Hi Maryjo, Please don’t eat the daisys.  Happy birthday!1 From Vuff	false		
113-1860202-2236267	21940069258578	2020-04-22T23:29:03+00:00	2020-04-22T16:29:03-07:00	2020-04-22T23:59:27+00:00	2020-04-25T06:59:59+00:00	-2	8xtzvv63g96ft0x@marketplace.amazon.com	Stanley Kornblum	+1 314-282-9402 ext. 89897	ABR012	Arabella Bouquets | Purchase by 11.30 AM EST Friday | Delivery on Monday | Bouquet of 18 Fresh Cut Pink Roses	1	0	1	Expedited	stanley kornblum	8106 ROSSINI WAY			LAKE WORTH	FL	33467-7094	US			false		
112-5289144-3973065	23501832281082	2020-04-22T23:35:45+00:00	2020-04-22T16:35:45-07:00	2020-04-23T00:02:56+00:00	2020-04-28T06:59:59+00:00	-5	zd7py35bcnsxpps@marketplace.amazon.com	Paula	+1 314-282-9402 ext. 12300	ABM0044	Arabella Farm Direct Bouquet of Fresh Cut Blue Hydrangea with a Free Glass Vase	1	0	1	Expedited	Linda Berlin	300 HARRISON AVE UNIT 228			BOSTON	MA	02118-2823	US		Happy 75th Birthday, Mom!  We will celebrate properly at our next patio party. Cheers 🥂 From Love you, Jim and Paula	false		
112-0454767-0352225	09295993462714	2020-04-22T23:37:38+00:00	2020-04-22T16:37:38-07:00	2020-04-23T00:07:03+00:00	2020-04-28T06:59:59+00:00	-5	mh6dd4s8fcs2kw5@marketplace.amazon.com	Ursula	+1 347-448-3190 ext. 28527	ABR0022	Arabella Bouquets | Purchase by 11.30 AM EST Friday | Delivery on Monday | Bouquet of 12 Fresh Cut Pink Roses	1	0	1	Expedited	Donna Voye	4464 LAKESHORE TER			EAGAN	MN	55122-2474	US		Hi Donna, Thank you very much for everything. Here is a little color to brighten your day. From Ursula	false		
112-6714114-2260238	08392230404386	2020-04-22T23:52:13+00:00	2020-04-22T16:52:13-07:00	2020-04-23T00:23:08+00:00	2020-04-28T06:59:59+00:00	-5	d2q8f0c3lrgnblw@marketplace.amazon.com	Roy Davis	+1 314-282-9402 ext. 96489	ABR0022	Arabella Bouquets | Purchase by 11.30 AM EST Friday | Delivery on Monday | Bouquet of 12 Fresh Cut Pink Roses	1	0	1	Expedited	Roy Davis	4100 DUCK POND CT			WINSTON SALEM	NC	27107-6976	US			false		
114-0239972-4601004	54683852494066	2020-04-23T00:05:32+00:00	2020-04-22T17:05:32-07:00	2020-04-23T00:35:17+00:00	2020-04-25T06:59:59+00:00	-2	nf8qdpbp57tnyb5@marketplace.amazon.com	James I. Sevier	+1 314-282-9402 ext. 77651	ABM010	Arabella Farm Direct Fields of The World Bouquet of Fresh Cut Flowers with a Free Glass Vase	1	0	1	Expedited	Jackie Mendoza	225 PALOMAR ST APT 1			CHULA VISTA	CA	91911-4205	US			false		
111-1867596-1779405	51415254274450	2020-04-23T00:12:53+00:00	2020-04-22T17:12:53-07:00	2020-04-23T00:38:19+00:00	2020-04-28T06:59:59+00:00	-5	z1vglgkgk555plw@marketplace.amazon.com	Yusuke Fujino	+1 314-282-9402 ext. 18139	ABR0022	Arabella Bouquets | Purchase by 11.30 AM EST Friday | Delivery on Monday | Bouquet of 12 Fresh Cut Pink Roses	1	0	1	Standard	Yusuke Fujino	444 SARATOGA AVE APT 12G			SANTA CLARA	CA	95050-7051	US		First wedding anniversary!!! 05/01/2020 from Yusuke	false		
113-7862336-9026619	31877391596826	2020-04-23T00:14:49+00:00	2020-04-22T17:14:49-07:00	2020-04-23T00:44:53+00:00	2020-04-28T06:59:59+00:00	-5	d6nqp1wspq2m1zr@marketplace.amazon.com	Bryce Brown	+1 347-448-3190 ext. 57653	ABR0022	Arabella Bouquets | Purchase by 11.30 AM EST Friday | Delivery on Monday | Bouquet of 12 Fresh Cut Pink Roses	1	0	1	Expedited	Eugenia Soulier	6560 PONTO DR UNIT 24			CARLSBAD	CA	92011-2301	US			false		
112-2816654-1761031	05867579882802	2020-04-23T01:08:02+00:00	2020-04-22T18:08:02-07:00	2020-04-23T01:29:42+00:00	2020-04-25T06:59:59+00:00	-2	q5q528zxcsd49gx@marketplace.amazon.com	John Curzon	+1 347-448-3190 ext. 52487	ABM010	Arabella Farm Direct Fields of The World Bouquet of Fresh Cut Flowers with a Free Glass Vase	1	0	1	Expedited	JULIE WHITWORTH	2909 RAMADA DR			BILLINGS	MT	59102-0732	US		Hi JULIE,  WE LOVE YOU AND ARE WISHING YOU A WONDERFUL WEEK    MAMA AND JOHN	false		
113-0598107-6687444	33794272193002	2020-04-23T01:15:35+00:00	2020-04-22T18:15:35-07:00	2020-04-23T01:43:25+00:00	2020-04-25T06:59:59+00:00	-2	g06zzl7rnz4yvj7@marketplace.amazon.com	Kim White	+1 314-282-9402 ext. 02268	ABR012	Arabella Bouquets | Purchase by 11.30 AM EST Friday | Delivery on Monday | Bouquet of 18 Fresh Cut Pink Roses	1	0	1	Expedited	Meena Rumao	1353 CROWNDALE LN			CANTON	MI	48188-6211	US		Dear Meena, Happy Birthday to you on your special day! Wishing you blessings in the year ahead! Sending Love, Kim	false		
114-2066138-4209845	66098838337146	2020-04-23T01:17:25+00:00	2020-04-22T18:17:25-07:00	2020-04-23T01:45:09+00:00	2020-04-28T06:59:59+00:00	-5	17rkm6ws603gc2x@marketplace.amazon.com	Rebecca Walsh	+1 210-728-4548 ext. 79338	ABR0022	Arabella Bouquets | Purchase by 11.30 AM EST Friday | Delivery on Monday | Bouquet of 12 Fresh Cut Pink Roses	1	0	1	Expedited	Margaret McMurtagh	4276 ARBOR CLUB DR			MARIETTA	GA	30066-2200	US		Congratulations, Margaret!!!   Love, Rebecca, Karen, Vivian, and Angela From Rebecca Walsh	false		
111-5750395-7691436	34649718688906	2020-04-23T02:04:48+00:00	2020-04-22T19:04:48-07:00	2020-04-23T02:29:58+00:00	2020-04-28T06:59:59+00:00	-5	dq20pf4d90kh23f@marketplace.amazon.com	Tyler	+1 314-282-9402 ext. 08222	ABR0022	Arabella Bouquets | Purchase by 11.30 AM EST Friday | Delivery on Monday | Bouquet of 12 Fresh Cut Pink Roses	1	0	1	Standard	Cathy Frazer	442 HIGHLANDS CIR			ERIE	CO	80516-2670	US			false		
112-5295703-6554637	49666883926538	2020-04-23T02:19:42+00:00	2020-04-22T19:19:42-07:00	2020-04-23T02:46:18+00:00	2020-04-25T06:59:59+00:00	-2	wx7khfjhdf1qm34@marketplace.amazon.com	gosia	+1 347-448-3190 ext. 90572	ABR0033	Arabella Bouquets | Purchase by 11.30 AM EST Friday | Delivery on Monday | Bouquet of 12 Fresh Cut Orange Roses	1	0	1	Expedited	Lidia Liszkiewicz	81 COLUMBIA ST APT 20 A			NEW YORK	NY	10002-2641	US		Dear Lidzia,  Thank you for taking care of William and helping us in this challenging time.  With love, William, Gosia & Raj	false		
112-8016884-4850614	30722985464482	2020-04-23T02:27:04+00:00	2020-04-22T19:27:04-07:00	2020-04-23T02:52:28+00:00	2020-04-28T06:59:59+00:00	-5	hs0ysyd3m42b8p9@marketplace.amazon.com	Jacqueline Hendricks	+1 210-728-4548 ext. 70713	ABR0022	Arabella Bouquets | Purchase by 11.30 AM EST Friday | Delivery on Monday | Bouquet of 12 Fresh Cut Pink Roses	1	0	1	Expedited	Mary Lee Carter	4 IVY STONE CT SE			CARTERSVILLE	GA	30120-2003	US		Today and always you are in our prayers.  We Love You! From Mary and Jackie	false		
113-2660486-2781868	69243286554266	2020-04-23T02:38:24+00:00	2020-04-22T19:38:24-07:00	2020-04-23T03:01:50+00:00	2020-04-28T06:59:59+00:00	-5	zl46kj9h0njyhwb@marketplace.amazon.com	Tina Cortina	+1 347-448-3190 ext. 93741	ABR0022	Arabella Bouquets | Purchase by 11.30 AM EST Friday | Delivery on Monday | Bouquet of 12 Fresh Cut Pink Roses	1	0	1	Expedited	Teresa Marini	16 HIGH MEADOW RD			TRUMBULL	CT	06611-2637	US		Happy Birthday ZiZi Teresa  Enjoy your day !!!!  Love always Justin and Tina From Tina Cortina	false		
112-8920296-0677060	56556756841842	2020-04-23T02:38:37+00:00	2020-04-22T19:38:37-07:00	2020-04-23T03:09:03+00:00	2020-04-25T06:59:59+00:00	-2	p61lx18jh0rdg77@marketplace.amazon.com	Marie Covin	+1 314-282-9402 ext. 29519	ABR012	Arabella Bouquets | Purchase by 11.30 AM EST Friday | Delivery on Monday | Bouquet of 18 Fresh Cut Pink Roses	1	0	1	Expedited	Marie Covin	2601 Cameo Crt			Bakersfield	CA	93304	US			false		
114-9596285-3171411	32280148679162	2020-04-23T03:02:44+00:00	2020-04-22T20:02:44-07:00	2020-04-23T03:31:08+00:00	2020-04-25T06:59:59+00:00	-2	k51y2tgy01vwltk@marketplace.amazon.com	V P Winterscheidt	+1 210-728-4548 ext. 31063	ABR0055	Arabella Bouquets | Purchase by 11.30 AM EST Friday | Delivery on Monday | Bouquet of 12 Fresh Cut Hot Pink Roses	1	0	1	Expedited	Janine Funk	2639 AGUILAR DR			TRINIDAD	CO	81082-3903	US		Dearest Janine, Sending lots of love to you on your birthday and on every day! We send love and hugs! Love, Christy, Linda, Mary, and Vicky	false		
112-2959221-8597832	01152754057834	2020-04-23T03:24:03+00:00	2020-04-22T20:24:03-07:00	2020-04-23T03:54:15+00:00	2020-04-25T06:59:59+00:00	-2	rszr2t79p60dtjg@marketplace.amazon.com	gerardo villarreal	+1 347-448-3190 ext. 54670	ABR001	Arabella Bouquets | Purchase by 11.30 AM EST Friday | Delivery on Monday | Bouquet of 12 Fresh Cut Red Roses	1	0	1	Standard	gerardo villarreal	2202 SANDSTONE DR			KILLEEN	TX	76549-4911	US			false		
114-6946840-6865049	50947186789850	2020-04-23T04:03:47+00:00	2020-04-22T21:03:47-07:00	2020-04-23T04:33:50+00:00	2020-04-25T06:59:59+00:00	-2	2d5prm2f2lkbpq2@marketplace.amazon.com	Trent Avvenire	+1 347-448-3190 ext. 36635	ABR012	Arabella Bouquets | Purchase by 11.30 AM EST Friday | Delivery on Monday | Bouquet of 18 Fresh Cut Pink Roses	1	0	1	Expedited	MOMMY!	11020 ENCHANTO VISTA DR			SAN JOSE	CA	95127-1325	US		Because we love you! From Trent Avvenire	false		
113-2426967-4906628	26908860049434	2020-04-23T04:17:33+00:00	2020-04-22T21:17:33-07:00	2020-04-23T04:47:13+00:00	2020-04-28T06:59:59+00:00	-5	bqznskykmc0zlg9@marketplace.amazon.com	Clarice MacDonell	+1 412-532-4665 ext. 03254	ABR0022	Arabella Bouquets | Purchase by 11.30 AM EST Friday | Delivery on Monday | Bouquet of 12 Fresh Cut Pink Roses	1	0	1	Expedited	Clarice MacDonell	410 WAVERLEY ST			MENLO PARK	CA	94025-3718	US			false		
112-8272531-2272269	40658684783226	2020-04-23T04:19:26+00:00	2020-04-22T21:19:26-07:00	2020-04-23T04:48:36+00:00	2020-04-28T06:59:59+00:00	-5	8mbm9v4slgzz2dm@marketplace.amazon.com	Dave & Teresa Snipes	+1 314-282-9402 ext. 20200	ABR0022	Arabella Bouquets | Purchase by 11.30 AM EST Friday | Delivery on Monday | Bouquet of 12 Fresh Cut Pink Roses	1	0	1	Standard	Mary Snipes	2044 PAGELAND HWY	LANCASTER CONVALESCENT CENTER RM 104		LANCASTER	SC	29720-7608	US		Hi Mom, Happy Mother’s Day!  We love you, Dave & Teresa	false		
114-5242897-4813007	24051490624642	2020-04-22T07:49:32+00:00	2020-04-22T00:49:32-07:00	2020-04-23T05:19:18+00:00	2020-04-28T06:59:59+00:00	-5	07dc1lx4l2nkgl8@marketplace.amazon.com	Scorp	+1 314-282-9402 ext. 32137	ABR0022	Arabella Bouquets | Purchase by 11.30 AM EST Wednesday | Delivery on Friday | Bouquet of 12 Fresh Cut Pink Roses	1	0	1	Expedited	Megan	401 W FILMORE AVE			HARLINGEN	TX	78550-6655	US		red roses are ordinary & ur no where near that , hope u love these pink ones loml From Scorpio	false		
112-1497700-4377827	64508517813826	2020-04-23T05:38:57+00:00	2020-04-22T22:38:57-07:00	2020-04-23T06:01:09+00:00	2020-04-25T06:59:59+00:00	-2	mmp1y6d803n6yjw@marketplace.amazon.com	Darlingtonusa	+1 314-282-9402 ext. 59196	ABR001	Arabella Bouquets | Purchase by 11.30 AM EST Friday | Delivery on Monday | Bouquet of 12 Fresh Cut Red Roses	1	0	1	Standard	Oriana Lozano	321 SANDSTONE CT			CHULA VISTA	CA	91911-5919	US		Much love and well wishes! From Darling	false		
114-6840926-9614602	23246483032210	2020-04-23T08:57:53+00:00	2020-04-23T01:57:53-07:00	2020-04-23T09:26:59+00:00	2020-04-24T06:59:59+00:00	-1	sqcxp7mb4cpxx34@marketplace.amazon.com	Dean A Cagle	+1 347-448-3190 ext. 63221	ABR001	Arabella Bouquets | Purchase by 11.30 AM EST Friday | Delivery on Monday | Bouquet of 12 Fresh Cut Red Roses	1	0	1	SecondDay	Tyler Cagle	7541 ALMONDWOOD AVE			CITRUS HEIGHTS	CA	95610-4440	US			false		
112-9392787-5485001	39458141027154	2020-04-23T10:14:30+00:00	2020-04-23T03:14:30-07:00	2020-04-23T10:40:25+00:00	2020-04-28T06:59:59+00:00	-5	dtbwzczyc5fh0k9@marketplace.amazon.com	D W Whitbourne	+1 210-728-4548 ext. 40910	ABR0033	Arabella Bouquets | Purchase by 11.30 AM EST Friday | Delivery on Monday | Bouquet of 12 Fresh Cut Orange Roses	1	0	1	Expedited	Matthew & Sarah Whitbourne	21 FAUST CT			COLD SPRING	NY	10516-4048	US		Happy Anniversary Matthew and Sarah, Hopefully these would have arrived by the 30th. Lots of Love Mum and Dad xx   From D W Whitbourne	false		
112-5114217-7409818	44487481565666	2020-04-23T10:34:07+00:00	2020-04-23T03:34:07-07:00	2020-04-23T10:53:51+00:00	2020-04-28T06:59:59+00:00	-5	d7hk9bnkpgg88n2@marketplace.amazon.com	Dena Nesheiwat	+1 347-448-3190 ext. 93869	ABM010	Arabella Farm Direct Fields of The World Bouquet of Fresh Cut Flowers with a Free Glass Vase	1	0	1	Expedited	Gloria Volz	81 BAKER ST APT 1			SARANAC LAKE	NY	12983-1169	US		Gloria,  Thank you sincerely for everything you do! I am so grateful for you!   Dena Nesheiwat	false		
112-0147482-5031402	10732589823370	2020-04-23T10:34:07+00:00	2020-04-23T03:34:07-07:00	2020-04-23T10:56:32+00:00	2020-04-28T06:59:59+00:00	-5	d7hk9bnkpgg88n2@marketplace.amazon.com	Dena Nesheiwat	+1 314-282-9402 ext. 89321	ABM010	Arabella Farm Direct Fields of The World Bouquet of Fresh Cut Flowers with a Free Glass Vase	1	0	1	Expedited	Corinna Carrillo	38 MANCHESTER CIR APT A			POUGHKEEPSIE	NY	12603-2539	US		Corinna,  Thank you sincerely for everything you do! I am so grateful for you!  Dena Nesheiwat	false		
112-3018024-4110617	12288884172698	2020-04-23T10:34:07+00:00	2020-04-23T03:34:07-07:00	2020-04-23T10:57:20+00:00	2020-04-28T06:59:59+00:00	-5	d7hk9bnkpgg88n2@marketplace.amazon.com	Dena Nesheiwat	+1 314-282-9402 ext. 45645	ABM010	Arabella Farm Direct Fields of The World Bouquet of Fresh Cut Flowers with a Free Glass Vase	1	0	1	Expedited	Tracy Betterton	192 RIVER RD N			WAPPINGERS FALLS	NY	12590-5430	US		Tracy, Thank you for everything you do! I am so grateful for you! Zoo! XX! Dena Nesheiwat	false		
112-8457271-5619417	11427553536682	2020-04-23T10:34:07+00:00	2020-04-23T03:34:07-07:00	2020-04-23T10:59:24+00:00	2020-04-28T06:59:59+00:00	-5	d7hk9bnkpgg88n2@marketplace.amazon.com	Dena Nesheiwat	+1 314-282-9402 ext. 02189	ABM010	Arabella Farm Direct Fields of The World Bouquet of Fresh Cut Flowers with a Free Glass Vase	1	0	1	Expedited	Lezia Bagnato	57 CONCORD DR			MAHOPAC	NY	10541-2027	US		Lezia, Thank you sincerely for everything you do! I am so grateful for you!  Dena Nesheiwat	false		
112-0191589-0069803	46765495199026	2020-04-23T10:34:07+00:00	2020-04-23T03:34:07-07:00	2020-04-23T11:03:43+00:00	2020-04-28T06:59:59+00:00	-5	d7hk9bnkpgg88n2@marketplace.amazon.com	Dena Nesheiwat	+1 314-282-9402 ext. 65267	ABM010	Arabella Farm Direct Fields of The World Bouquet of Fresh Cut Flowers with a Free Glass Vase	1	0	1	Expedited	Denise Sohl West	99 BONIFACE DR APT 3B			PINE BUSH	NY	12566-7054	US		Denise, Thank you sincerely for everything you do! I am so grateful for you!  Dena Nesheiwat	false		
112-9344641-7868243	07513720651474	2020-04-23T10:57:45+00:00	2020-04-23T03:57:45-07:00	2020-04-23T11:24:17+00:00	2020-04-29T06:59:59+00:00	-6	gk2bjtm1gly5cw7@marketplace.amazon.com	Junior Scates	+1 314-282-9402 ext. 89340	ABR0022	Arabella Bouquets | Purchase by 11.30 AM EST Friday | Delivery on Monday | Bouquet of 12 Fresh Cut Pink Roses	1	0	1	Expedited	Maria stuart	211 W GRACIA AVE			MARCELINE	MO	64658-1227	US		You are my sunshine From Brookfield resident	false		
111-3738616-5688224	22847346853050	2020-04-23T11:09:30+00:00	2020-04-23T04:09:30-07:00	2020-04-23T11:34:32+00:00	2020-04-24T06:59:59+00:00	-1	hpdvh19qjrmyh4p@marketplace.amazon.com	Tina	+1 314-282-9402 ext. 26921	ABR001	Arabella Bouquets | Purchase by 11.30 AM EST Friday | Delivery on Monday | Bouquet of 12 Fresh Cut Red Roses	1	0	1	SecondDay	Debbie Ricci	1283 SHADY LAKES DR			KENT	OH	44240-1886	US		Hi Debbie, Happy Birthday!  I hope you have a great day!  Love and miss you! Love, Matt and Tina	false		
111-1253639-6813045	24752745337306	2020-04-23T11:53:28+00:00	2020-04-23T04:53:28-07:00	2020-04-23T12:22:13+00:00	2020-04-24T06:59:59+00:00	-1	9p1q00sxh7nh8cx@marketplace.amazon.com	Lewis Watson	+1 347-448-3190 ext. 37015	ABR001	Arabella Bouquets | Purchase by 11.30 AM EST Friday | Delivery on Monday | Bouquet of 12 Fresh Cut Red Roses	1	0	1	SecondDay	Dana Grigsby	1568 NEW COLUMBIA RD			NEW COLUMBIA	PA	17856-9312	US		Happy Anniversary, my Queen. This has been the best year of my life and I hope for many more with you. I'll love you now and always <3 From Lewis Watson	false		
112-4524743-8418669	39314883449810	2020-04-23T12:01:52+00:00	2020-04-23T05:01:52-07:00	2020-04-23T12:31:03+00:00	2020-04-28T06:59:59+00:00	-5	r2dt9jh87gpsqj6@marketplace.amazon.com	antonio Iyarsami	+1 210-728-4548 ext. 96882	ABM010	Arabella Farm Direct Fields of The World Bouquet of Fresh Cut Flowers with a Free Glass Vase	1	0	1	Expedited	Andrea  David	30903 PARROT REEF CT			WESLEY CHAPEL	FL	33545-5147	US		Enjoy your gift! Happy birthday bed love you miss you From antonio Iyarsami	false		
111-8287561-8479411	44997853578554	2020-04-23T12:36:55+00:00	2020-04-23T05:36:55-07:00	2020-04-23T13:07:01+00:00	2020-04-28T06:59:59+00:00	-5	x5dsf4760vzhshs@marketplace.amazon.com	Jacob Berrios	+1 347-448-3190 ext. 86541	ABM010	Arabella Farm Direct Fields of The World Bouquet of Fresh Cut Flowers with a Free Glass Vase	1	0	1	Expedited	Rosio guerrero	SAN LORENZO LUMBER AND HOME CENTER	235 RIVER ST SANTA CRUZ		SANTA CRUZ	CA	95060-2720	US			false		
111-0786548-9876208	17876799585682	2020-04-23T13:05:57+00:00	2020-04-23T06:05:57-07:00	2020-04-23T13:33:47+00:00	2020-04-24T06:59:59+00:00	-1	ymfp1rjhk5pw86y@marketplace.amazon.com	Charles M Bryden	+1 347-448-3190 ext. 66335	ABR001	Arabella Bouquets | Purchase by 11.30 AM EST Friday | Delivery on Monday | Bouquet of 12 Fresh Cut Red Roses	1	0	1	SecondDay	Christi Bryden	701 COMPASS COVE CIR			MONETA	VA	24121-3574	US		Happy birthday mom! Love Chuck, Kristin, Jack and Caleb	false		
114-3416206-3663445	68731564763058	2020-04-23T13:11:53+00:00	2020-04-23T06:11:53-07:00	2020-04-23T13:40:45+00:00	2020-04-28T06:59:59+00:00	-5	flr7fhbwclw6xhl@marketplace.amazon.com	Cynthia P Cherny	+1 314-282-9402 ext. 33779	ABR0055	Arabella Bouquets | Purchase by 11.30 AM EST Friday | Delivery on Monday | Bouquet of 12 Fresh Cut Hot Pink Roses	1	0	1	Standard	Mrs Debbie Bopp	12564 HUMMINGBIRD ST			MUKILTEO	WA	98275-5472	US		Happy happy 65th. Sending these early so I know they make it in time. Love you tons enjoy your day and I wish I could be there to help you celebrate From Love, Cynthia	false		
112-6958047-9161850	22715417526026	2020-04-23T13:43:28+00:00	2020-04-23T06:43:28-07:00	2020-04-23T13:44:31+00:00	2020-04-28T06:59:59+00:00	-5	pqxyhqshx11ch1w@marketplace.amazon.com	Kathryn Sauer	+1 210-728-4548 ext. 11706	ABR012	Arabella Bouquets | Purchase by 11.30 AM EST Friday | Delivery on Monday | Bouquet of 18 Fresh Cut Pink Roses	1	0	1	Expedited	Kathryn Sauer	3740 FAIRBROOK PT			HIGHLANDS RANCH	CO	80130-6974	US		Mom, We're so sorry for your loss. I have many special memories of Granddad. He loved his family. We all witnessed his emotional outpour when everyone was together in a room. We will continue to hold you up in prayer. We love you! D,R,J+A	false		
112-9996089-7141811	62563741890738	2020-04-23T13:36:23+00:00	2020-04-23T06:36:23-07:00	2020-04-23T14:02:55+00:00	2020-04-28T06:59:59+00:00	-5	d7hk9bnkpgg88n2@marketplace.amazon.com	Dena Nesheiwat	+1 210-728-4548 ext. 01294	ABM010	Arabella Farm Direct Fields of The World Bouquet of Fresh Cut Flowers with a Free Glass Vase	1	0	1	Expedited	Kathy Meester	8 ROBINWOOD LN			LAGRANGEVILLE	NY	12540-5401	US		Kathy, Thank you sincerely for everything you do! From Dena Nesheiwat	false		
113-6191502-5622652	46975779834794	2020-04-23T13:41:57+00:00	2020-04-23T06:41:57-07:00	2020-04-23T14:10:13+00:00	2020-04-29T06:59:59+00:00	-6	v0jcwjmf1501ltd@marketplace.amazon.com	Lisa Redden	+1 314-282-9402 ext. 01139	ABR0022	Arabella Bouquets | Purchase by 11.30 AM EST Friday | Delivery on Monday | Bouquet of 12 Fresh Cut Pink Roses	1	0	1	Expedited	Laura Stevens	3704 WILLING AVE			FORT WORTH	TX	76110-4945	US		Hi Laura, Enjoy your gift! From Lisa Redden	false		
114-9972062-5965018	10754074296714	2020-04-23T13:45:41+00:00	2020-04-23T06:45:41-07:00	2020-04-23T14:13:59+00:00	2020-04-29T06:59:59+00:00	-6	y0t5l0tdwv1590m@marketplace.amazon.com	Tammy litchfield	+1 314-282-9402 ext. 74794	ABR0022	Arabella Bouquets | Purchase by 11.30 AM EST Friday | Delivery on Monday | Bouquet of 12 Fresh Cut Pink Roses	1	0	1	Expedited	Crystal Roy	5350 SW MENLO DR			BEAVERTON	OR	97005-3831	US		Crystal, Hope you recover quickly, From Tammy litchfield	false		
114-7729400-9376216	68275986808434	2020-04-23T13:50:48+00:00	2020-04-23T06:50:48-07:00	2020-04-23T14:19:18+00:00	2020-04-29T06:59:59+00:00	-6	wd00d108xhk3b90@marketplace.amazon.com	marilu pittman sherer	+1 210-728-4548 ext. 83652	ABR0022	Arabella Bouquets | Purchase by 11.30 AM EST Friday | Delivery on Monday | Bouquet of 12 Fresh Cut Pink Roses	1	0	1	Expedited	Laurie Cobb	10450 LOTTSFORD RD APT 1005			MITCHELLVILLE	MD	20721-2745	US		Dear Laurie, we are holding you and Stan tenderly in our hearts. xxxMarilu and Peter	false		
111-0911836-6372209	12714046450426	2020-04-23T14:17:55+00:00	2020-04-23T07:17:55-07:00	2020-04-23T14:45:27+00:00	2020-04-28T06:59:59+00:00	-5	dfpc05xt2tk1lln@marketplace.amazon.com	Daniel Chu	+1 347-448-3190 ext. 05480	ABR012	Arabella Bouquets | Purchase by 11.30 AM EST Friday | Delivery on Monday | Bouquet of 18 Fresh Cut Pink Roses	1	0	1	Expedited	Paner Ying	37 birch street			Port Washington	NY	11050	US		Happy Birthday! From Daniel Chu	false		
113-1526095-3558660	59689211927042	2020-04-23T14:15:13+00:00	2020-04-23T07:15:13-07:00	2020-04-23T14:45:29+00:00	2020-04-29T06:59:59+00:00	-6	sdq1pqrg8wbnp4g@marketplace.amazon.com	Abel Ramirez	+1 347-448-3190 ext. 87886	ABR0022	Arabella Bouquets | Purchase by 11.30 AM EST Friday | Delivery on Monday | Bouquet of 12 Fresh Cut Pink Roses	1	0	1	Expedited	Natalie ramirez	1181 PACIFIC AVE			SAN FRANCISCO	CA	94133-4231	US			false		
114-2511196-0266616	26595300558434	2020-04-23T14:38:34+00:00	2020-04-23T07:38:34-07:00	2020-04-23T15:05:37+00:00	2020-04-29T06:59:59+00:00	-6	qddd3tpwdxnll7f@marketplace.amazon.com	Lauren Peluso	+1 347-448-3190 ext. 76194	ABR0022	Arabella Bouquets | Purchase by 11.30 AM EST Friday | Delivery on Monday | Bouquet of 12 Fresh Cut Pink Roses	1	0	1	Expedited	kathleen O'Connell	1257 NETTLES BLVD			JENSEN BEACH	FL	34957-3396	US		Happy Birthday to a very special lady! We love you very much... John, Theresa, Lauren and Bailey too! xxoxoxoxoxoxoxoxoxoxoxo	false		
114-6691795-6842666	67072001993514	2020-04-23T14:45:24+00:00	2020-04-23T07:45:24-07:00	2020-04-23T15:10:40+00:00	2020-04-28T06:59:59+00:00	-5	63fmzvv6mpx56b0@marketplace.amazon.com	Isaiah	+1 347-448-3190 ext. 08250	ABR012	Arabella Bouquets | Purchase by 11.30 AM EST Friday | Delivery on Monday | Bouquet of 18 Fresh Cut Pink Roses	1	0	1	Expedited	Blake Racine	2210 HAMPTONS XING			ALPHARETTA	GA	30005-7412	US		Happy sweet 16 Blake! Hope your day is just as special as you! Love,  Auntie Beth, Isaiah, and Olivia	false		
113-7357195-5074608	27030277288482	2020-04-23T14:50:04+00:00	2020-04-23T07:50:04-07:00	2020-04-23T15:19:04+00:00	2020-04-28T06:59:59+00:00	-5	wynxx1351qlb55v@marketplace.amazon.com	Danielle Picard	+1 314-282-9402 ext. 08794	ABR004	Arabella Farm Direct Bouquet of 12 Fresh Cut Yellow Roses with a Free Glass Vase	1	0	1	Expedited	Annemarie Pophal	64 E 211TH ST			EUCLID	OH	44123-1057	US		missing you. Love dani and drew	false		
114-3736841-3852206	38198613794570	2020-04-23T14:58:08+00:00	2020-04-23T07:58:08-07:00	2020-04-23T15:27:16+00:00	2020-04-29T06:59:59+00:00	-6	64bfzlkkbnvzgzy@marketplace.amazon.com	Maureen Billisits	+1 210-728-4548 ext. 49495	ABR0022	Arabella Bouquets | Purchase by 11.30 AM EST Friday | Delivery on Monday | Bouquet of 12 Fresh Cut Pink Roses	1	0	1	Expedited	Ron and Jennifer McCarty	18292 DEEP PASSAGE LN			FORT MYERS BEACH	FL	33931-2311	US		I am grateful for you!!    Love Renie From Maureen Billisits	false		
114-6693556-2682601	35811024788818	2020-04-23T15:42:59+00:00	2020-04-23T08:42:59-07:00	2020-04-23T16:05:26+00:00	2020-04-28T06:59:59+00:00	-5	6yhyx5qgsczrgv5@marketplace.amazon.com	Marjorie Dell	+1 347-448-3190 ext. 42733	ABM010	Arabella Farm Direct Fields of The World Bouquet of Fresh Cut Flowers with a Free Glass Vase	1	0	1	Expedited	Marjorie Dell	65 GREEN RIVER LN			HILLSDALE	NY	12529-5733	US			false		
114-5029885-1670657	26316112534346	2020-04-23T15:48:02+00:00	2020-04-23T08:48:02-07:00	2020-04-23T16:15:40+00:00	2020-04-29T06:59:59+00:00	-6	sgtkp8w98k9lzrt@marketplace.amazon.com	Janice Jaffee	+1 314-282-9402 ext. 18910	ABR0022	Arabella Bouquets | Purchase by 11.30 AM EST Friday | Delivery on Monday | Bouquet of 12 Fresh Cut Pink Roses	1	0	1	Expedited	Colleen Thomas	49 ALSCOT LN			LANGHORNE	PA	19047-2035	US		Hi Colleen, It is now time for Colleen! From Janice Jaffee	false		
114-7359760-7701036	44822904222538	2020-04-23T15:49:37+00:00	2020-04-23T08:49:37-07:00	2020-04-23T16:19:47+00:00	2020-04-29T06:59:59+00:00	-6	c4hv6vzxcgnzsz7@marketplace.amazon.com	Kyle	+1 347-448-3190 ext. 22363	ABR0022	Arabella Bouquets | Purchase by 11.30 AM EST Friday | Delivery on Monday | Bouquet of 12 Fresh Cut Pink Roses	1	0	1	Expedited	Kyle Lawhon	411 COUNTY ROAD 4851			NEWARK	TX	76071-3021	US			false		
111-5328428-2459456	52267497645642	2020-04-23T15:46:53+00:00	2020-04-23T08:46:53-07:00	2020-04-23T16:25:29+00:00	2020-04-28T06:59:59+00:00	-5	bjg5rgr614kjl6q@marketplace.amazon.com	Alayna Shook	+1 210-728-4548 ext. 00397	ABM0033	Arabella Farm Direct Bouquet of Fresh Cut White Hydrangea with a Free Glass Vase	1	0	1	Expedited	Andrea Shook	1703 WARFIELD DR			NASHVILLE	TN	37215-3528	US		HAPPY GOLDEN BIRTHDAY! Sorry bout the Rona. We love you!  Xoxo,  Alayna & Ryan From Alayna Bledsoe	false		
111-3315259-6525021	12397966612938	2020-04-23T16:07:08+00:00	2020-04-23T09:07:08-07:00	2020-04-23T16:31:22+00:00	2020-04-28T06:59:59+00:00	-5	lrgyvvg99wzv3x7@marketplace.amazon.com	Frank W. Schlehofer	+1 347-448-3190 ext. 09653	ABR0066	Arabella Bouquets | Purchase by 11.30 AM EST Friday | Delivery on Monday | Bouquet of 12 Fresh Cut White Roses	1	0	1	Expedited	Lili Zhang and Phil Clark	5483 30TH ST NW			WASHINGTON	DC	20015-1259	US		Dear Lili and Phil, We were so sorry to hear of Lili's fathers passing. Our prayers are with you and. may wonderful memories lessen your pain.	false		
114-6141761-7378650	03544511244482	2020-04-23T16:13:36+00:00	2020-04-23T09:13:36-07:00	2020-04-23T16:41:31+00:00	2020-04-28T06:59:59+00:00	-5	rtlftfckb3dg8mm@marketplace.amazon.com	ANTHONY COLLINS	+1 347-448-3190 ext. 01527	ABM010	Arabella Farm Direct Fields of The World Bouquet of Fresh Cut Flowers with a Free Glass Vase	1	0	1	Standard	Nola Daughtry	1731 S 4TH PL			ST CHARLES	IL	60174-4318	US		I know these are early BUT.....all the flowers I wanted for you kept getting sold. Happy Mothers Day!!! I love you....D'Nette	false		
111-4506109-9676256	18947307012370	2020-04-23T16:17:07+00:00	2020-04-23T09:17:07-07:00	2020-04-23T16:42:28+00:00	2020-04-28T06:59:59+00:00	-5	bm4hh8qtp3qdfpd@marketplace.amazon.com	Kim M. Sciole	+1 210-728-4548 ext. 35231	ABM017	Prosperous Day a Farm Direct Bouquet with a Free Glass Vase	1	0	1	Expedited	Sawyer Family	4689 E HOLT RD			WEBBERVILLE	MI	48892-9205	US		Our Sawyer Family, We were sadden to hear of the lost of DAD. Please accept our condolences and know our prayer are with all of you during this time of sorrow.  Love: Domenick & Kim	false		
114-9675261-8465805	09131244298090	2020-04-23T16:12:02+00:00	2020-04-23T09:12:02-07:00	2020-04-23T16:42:33+00:00	2020-04-28T06:59:59+00:00	-5	zl7qxcx1g962k7q@marketplace.amazon.com	MICHAEL MCKINNEY	+1 347-448-3190 ext. 61546	ABM010	Arabella Farm Direct Fields of The World Bouquet of Fresh Cut Flowers with a Free Glass Vase	1	0	1	Expedited	John McKinney	586 COLLEGE ST			YOUNGSVILLE	PA	16371-1116	US			false		
113-8289438-9315443	32546881141402	2020-04-23T16:19:18+00:00	2020-04-23T09:19:18-07:00	2020-04-23T16:42:33+00:00	2020-04-28T06:59:59+00:00	-5	4d9bn8k2z07gwnv@marketplace.amazon.com	Austin Karraker	+1 412-532-4665 ext. 67316	ABM010	Arabella Farm Direct Fields of The World Bouquet of Fresh Cut Flowers with a Free Glass Vase	1	0	1	Expedited	Katie Thiel	4484 W DEER RUN DR APT 202			BROWN DEER	WI	53223-6408	US		Hi Katie,  Congratulations on the new job and on your graduation! Sorry that you cannot celebrate the way you planned!   From Austin Karraker	false		
112-0261987-3503477	38784114846098	2020-04-23T16:20:59+00:00	2020-04-23T09:20:59-07:00	2020-04-23T16:51:46+00:00	2020-04-28T06:59:59+00:00	-5	y2w13yx6r2yy48y@marketplace.amazon.com	Charlene Aust	+1 347-448-3190 ext. 22761	ABR0055	Arabella Bouquets | Purchase by 11.30 AM EST Friday | Delivery on Monday | Bouquet of 12 Fresh Cut Hot Pink Roses	1	0	1	Expedited	Frances Candelaria	442 HYDE PARK DR			SAN JOSE	CA	95136-2918	US			false		
111-5443909-6572220	60190369963338	2020-04-23T16:31:32+00:00	2020-04-23T09:31:32-07:00	2020-04-23T16:58:06+00:00	2020-04-24T06:59:59+00:00	-1	bwj0zyc3v30qq2j@marketplace.amazon.com	Jamar Adams	+1 347-448-3190 ext. 28589	ABR001	Arabella Bouquets | Purchase by 11.30 AM EST Friday | Delivery on Monday | Bouquet of 12 Fresh Cut Red Roses	1	0	1	SecondDay	Laneasha	14209 SPORTS CLUB WAY			ORLANDO	FL	32837-6973	US		Love you! When He protected you He blessed me 🥰. From Jamar Adams	false		
114-5892284-1995407	58074959198098	2020-04-23T16:30:11+00:00	2020-04-23T09:30:11-07:00	2020-04-23T16:59:43+00:00	2020-04-28T06:59:59+00:00	-5	5ygpvhzz18vvys4@marketplace.amazon.com	Wadha	+1 210-728-4548 ext. 34297	ABM010	Arabella Farm Direct Fields of The World Bouquet of Fresh Cut Flowers with a Free Glass Vase	1	0	1	Expedited	Wadha Rashid	5265 EDWARDS PLANTATION DR			COLUMBUS	OH	43221-5665	US			false		
112-0015512-1949860	26668994776906	2020-04-23T16:40:50+00:00	2020-04-23T09:40:50-07:00	2020-04-23T17:04:52+00:00	2020-04-28T06:59:59+00:00	-5	tp2c7wxxw2kn0d8@marketplace.amazon.com	Sammy C.	+1 347-448-3190 ext. 83474	ABR0055	Arabella Bouquets | Purchase by 11.30 AM EST Friday | Delivery on Monday | Bouquet of 12 Fresh Cut Hot Pink Roses	1	0	1	Expedited	Rhonda Hale	2357 THUNDERBIRD DR			THOUSAND OAKS	CA	91362-3237	US		For my lovely friend 'Bunny Baby' So much kindness and thoughtfulness surrounds you. With all my love, your 'Big Bunny'	false		
112-2206741-5999461	63502050214450	2020-04-23T16:36:45+00:00	2020-04-23T09:36:45-07:00	2020-04-23T17:07:17+00:00	2020-04-24T06:59:59+00:00	-1	0xb9078dbd6vjs2@marketplace.amazon.com	Gary Broyles	+1 314-282-9402 ext. 16716	ABR001	Arabella Bouquets | Purchase by 11.30 AM EST Friday | Delivery on Monday | Bouquet of 12 Fresh Cut Red Roses	1	0	1	SecondDay	Juanita Hernandez	3600 BENTON ST APT 7			SANTA CLARA	CA	95051-4545	US			false		
113-9338492-9809850	49673560252578	2020-04-23T16:48:16+00:00	2020-04-23T09:48:16-07:00	2020-04-23T17:11:38+00:00	2020-04-28T06:59:59+00:00	-5	jxd813jyq4lvvzf@marketplace.amazon.com	Michael Maurer	+1 347-448-3190 ext. 07347	ABM010	Arabella Farm Direct Fields of The World Bouquet of Fresh Cut Flowers with a Free Glass Vase	1	0	1	Expedited	Birthday Girl Dayna Contri	2619 MORGAN LN			TROPHY CLUB	TX	76262-5046	US		Happy Birthday!  Sorry were not in TN right now :( From Katie Hannah	false		
111-0886912-9394656	14386382012882	2020-04-23T17:00:09+00:00	2020-04-23T10:00:09-07:00	2020-04-23T17:27:15+00:00	2020-04-28T06:59:59+00:00	-5	vgwmm2mt2j7wp1j@marketplace.amazon.com	Joyce Henderson	+1 347-448-3190 ext. 45300	ABM010	Arabella Farm Direct Fields of The World Bouquet of Fresh Cut Flowers with a Free Glass Vase	1	0	1	Expedited	Lora HENDERSON	1745 FOREST DR APT 40			INVERNESS	FL	34453-3832	US			false		
113-7727887-4503409	07955764626578	2020-04-23T17:13:39+00:00	2020-04-23T10:13:39-07:00	2020-04-23T17:42:55+00:00	2020-04-29T06:59:59+00:00	-6	mp4rk28s4gpkxfw@marketplace.amazon.com	Maichoua Phengphaeng	+1 314-282-9402 ext. 88117	ABR0022	Arabella Bouquets | Purchase by 11.30 AM EST Friday | Delivery on Monday | Bouquet of 12 Fresh Cut Pink Roses	1	0	1	Expedited	Roger Phantgachith	103 BLACKMORE ST			TONAWANDA	NY	14150-7972	US		Happy Mother's day! Ricky and I miss you. Please stay healthy <3 From Maichoua Phengphaeng	false		
113-4159566-7293815	70037312831130	2020-04-23T17:27:07+00:00	2020-04-23T10:27:07-07:00	2020-04-23T17:57:43+00:00	2020-04-29T06:59:59+00:00	-6	h2nsygm9n1l1716@marketplace.amazon.com	ruth	+1 347-448-3190 ext. 45338	ABR0022	Arabella Bouquets | Purchase by 11.30 AM EST Friday | Delivery on Monday | Bouquet of 12 Fresh Cut Pink Roses	1	0	1	Expedited	Barbara LeBoss	249 NE 4TH ST			NEWPORT	OR	97365-3008	US			false		
112-2435530-8078624	11587331580810	2020-04-23T17:42:42+00:00	2020-04-23T10:42:42-07:00	2020-04-23T18:13:01+00:00	2020-04-29T06:59:59+00:00	-6	j7pmb1r78zy5015@marketplace.amazon.com	Eric Foster	+1 412-532-4665 ext. 20904	ABR0022	Arabella Bouquets | Purchase by 11.30 AM EST Friday | Delivery on Monday | Bouquet of 12 Fresh Cut Pink Roses	1	0	1	Expedited	Lakia Jones	510 MADISON AVE			SAINT MARYS	GA	31558-3956	US			false		
112-5932932-8681843	22956244251418	2020-04-23T17:47:54+00:00	2020-04-23T10:47:54-07:00	2020-04-23T18:18:07+00:00	2020-04-29T06:59:59+00:00	-6	1dbtpvds7xvkzj9@marketplace.amazon.com	Jsj	+1 347-448-3190 ext. 23918	ABR0022	Arabella Bouquets | Purchase by 11.30 AM EST Friday | Delivery on Monday | Bouquet of 12 Fresh Cut Pink Roses	1	0	1	Expedited	Diane Logan	1734 W NURSERY RD			LINTHICUM	MD	21090-2907	US			false		
111-1434928-7249039	51089736883514	2020-04-23T17:54:10+00:00	2020-04-23T10:54:10-07:00	2020-04-23T18:23:14+00:00	2020-04-24T06:59:59+00:00	-1	sbhj436wp44nlq4@marketplace.amazon.com	Scott J Baurys	+1 210-728-4548 ext. 79009	ABR001	Arabella Bouquets | Purchase by 11.30 AM EST Friday | Delivery on Monday | Bouquet of 12 Fresh Cut Red Roses	1	0	1	SecondDay	Scott J Baurys	46 HOMESTEAD DR			CAMDEN	DE	19934-1998	US		To Delawares Newest and Best Doctor !!!  Congrats and so proud of you ❤️ ! From Scott J Baurys	false		
112-8083267-9100243	47219635156802	2020-04-23T18:01:55+00:00	2020-04-23T11:01:55-07:00	2020-04-23T18:38:33+00:00	2020-04-29T06:59:59+00:00	-6	4zfxk7230cxhs9s@marketplace.amazon.com	kahkashan aziz	+1 347-448-3190 ext. 33329	ABSR005	Arabella Bouquets | Purchase by 11.30 AM EST Friday | Delivery on Monday | Bouquet of Fresh Cut Orange Spray Roses with a Free Glass Vase	1	0	1	Expedited	Samia Shahnawaz	11 JILL CT			SOMERSET	NJ	08873-4799	US			false		
111-2470712-9699451	09413584138666	2020-04-23T18:15:30+00:00	2020-04-23T11:15:30-07:00	2020-04-23T18:42:46+00:00	2020-04-29T06:59:59+00:00	-6	k1sbq828zdp0rb5@marketplace.amazon.com	Carolyn Quinn	+1 347-448-3190 ext. 91031	ABR0022	Arabella Bouquets | Purchase by 11.30 AM EST Friday | Delivery on Monday | Bouquet of 12 Fresh Cut Pink Roses	1	0	1	Expedited	Cheryl Igo	17520 LINDEN AVE N APT A106	APT # A106		SHORELINE	WA	98133-4828	US		Happy Birthday Cheryl All our love, Carolyn, Kevin, Joan, John, Brad, Jason and Paul	false		
112-6255512-5816222	31574231084146	2020-04-23T18:17:17+00:00	2020-04-23T11:17:17-07:00	2020-04-23T18:45:45+00:00	2020-04-29T06:59:59+00:00	-6	nt512931bc3cd0q@marketplace.amazon.com	Jacquelynn Friedrich	+1 347-448-3190 ext. 98121	ABR0022	Arabella Bouquets | Purchase by 11.30 AM EST Friday | Delivery on Monday | Bouquet of 12 Fresh Cut Pink Roses	1	0	1	Expedited	Merrilee Hewitt	5329 FRONTIER CIR			OAKLEY	UT	84055-2117	US			false		
111-2598568-4473840	41771736256746	2020-04-23T18:12:00+00:00	2020-04-23T11:12:00-07:00	2020-04-23T18:47:37+00:00	2020-04-28T06:59:59+00:00	-5	kglw86gsr19vzyd@marketplace.amazon.com	John zieser	+1 314-282-9402 ext. 44198	ABR0055	Arabella Bouquets | Purchase by 11.30 AM EST Friday | Delivery on Monday | Bouquet of 12 Fresh Cut Hot Pink Roses	1	0	1	Expedited	Christine Arnold	505 SE PALMETTO AVE			KEYSTONE HEIGHTS	FL	32656-9244	US			false		
113-2002718-8550625	07180534316738	2020-04-23T18:19:05+00:00	2020-04-23T11:19:05-07:00	2020-04-23T18:48:08+00:00	2020-04-28T06:59:59+00:00	-5	fwbmz5mf6b3x77r@marketplace.amazon.com	angela cammarano	+1 210-728-4548 ext. 27406	ABR0055	Arabella Bouquets | Purchase by 11.30 AM EST Friday | Delivery on Monday | Bouquet of 12 Fresh Cut Hot Pink Roses	1	0	1	Expedited	Annalese Moses	105 HANOVER DR			VILLA RICA	GA	30180-7201	US			false		
114-5051832-2665012	61419341268698	2020-04-23T18:33:40+00:00	2020-04-23T11:33:40-07:00	2020-04-23T18:59:37+00:00	2020-04-28T06:59:59+00:00	-5	rb6k1pk0svqdtz3@marketplace.amazon.com	Ellen W MacVean	+1 347-448-3190 ext. 44839	ABM010	Arabella Farm Direct Fields of The World Bouquet of Fresh Cut Flowers with a Free Glass Vase	1	0	1	Expedited	Sally Ashburn	2744 INVERNESS DR			LA JOLLA	CA	92037-2042	US		Dear Sally, We wish you a VERY Happy Birthday and a year filled with Blessings. Love, Ellen and Charlie	false		
112-5663407-9781030	26446072937362	2020-04-23T18:34:44+00:00	2020-04-23T11:34:44-07:00	2020-04-23T19:01:33+00:00	2020-04-28T06:59:59+00:00	-5	8b2ff21zl2f4s57@marketplace.amazon.com	christine chicoine	+1 210-728-4548 ext. 91394	ABR0033	Arabella Bouquets | Purchase by 11.30 AM EST Friday | Delivery on Monday | Bouquet of 12 Fresh Cut Orange Roses	1	0	1	Standard	Cheri Collette	26 AMARANTE			LAGUNA NIGUEL	CA	92677-8929	US		Happy Mother’s Day! We love you very much! From Chicoines	false		
114-5665001-3785054	37343867357226	2020-04-23T18:45:28+00:00	2020-04-23T11:45:28-07:00	2020-04-23T19:14:49+00:00	2020-04-29T06:59:59+00:00	-6	vj061j67n90by5c@marketplace.amazon.com	Briana bucheli	+1 314-282-9402 ext. 70028	ABR0022	Arabella Bouquets | Purchase by 11.30 AM EST Friday | Delivery on Monday | Bouquet of 12 Fresh Cut Pink Roses	1	0	1	Expedited	Aurea C. Espinoza	6306 SW 23RD ST			MIRAMAR	FL	33023-2859	US			false		
111-1658498-0817052	19465975004602	2020-04-23T18:48:01+00:00	2020-04-23T11:48:01-07:00	2020-04-23T19:16:12+00:00	2020-04-29T06:59:59+00:00	-6	skk4t3dpq8kbs0x@marketplace.amazon.com	Adelaide Polito	+1 412-532-4665 ext. 20309	ABR0022	Arabella Bouquets | Purchase by 11.30 AM EST Friday | Delivery on Monday | Bouquet of 12 Fresh Cut Pink Roses	1	0	1	Expedited	Amanda Jankowski	93 OVERHILL RD			MAHOPAC	NY	10541-2338	US		Happy Birthday Amanda!  Hope you enjoy these and have a great birthday. Thanks for all the sacrifices you’re making.  God bless!  Love Addie From Adelaide Polito	false		
114-5143974-7401801	60213955456890	2020-04-23T19:14:12+00:00	2020-04-23T12:14:12-07:00	2020-04-23T19:42:53+00:00	2020-04-28T06:59:59+00:00	-5	9qqxbt6kw64ngkv@marketplace.amazon.com	abel ferreira	+1 412-532-4665 ext. 76119	ABR004	Arabella Farm Direct Bouquet of 12 Fresh Cut Yellow Roses with a Free Glass Vase	1	0	1	Expedited	Camila Ferreira Keaton	9001 SUNSET BLFS			CLARKSTON	MI	48348-2589	US		Hi Camila, Happy Birthday. You will be fine. Better days wioll come. Love you,  Dad	false		
113-3942769-6670644	49201317523010	2020-04-23T19:13:37+00:00	2020-04-23T12:13:37-07:00	2020-04-23T19:42:55+00:00	2020-04-29T06:59:59+00:00	-6	bkwlhhqt1qwgp8q@marketplace.amazon.com	C faherty	+1 347-448-3190 ext. 82146	ABR0022	Arabella Bouquets | Purchase by 11.30 AM EST Friday | Delivery on Monday | Bouquet of 12 Fresh Cut Pink Roses	1	0	1	Expedited	Rills Faherty	115 NE GILHAM AVE			PORTLAND	OREGON	97213-5665	US			false		
113-4553553-4678649	12888251153234	2020-04-23T19:18:57+00:00	2020-04-23T12:18:57-07:00	2020-04-23T19:46:49+00:00	2020-04-28T06:59:59+00:00	-5	5xzjkt25776f0jr@marketplace.amazon.com	Gayle Wells	+1 412-532-4665 ext. 31878	ABR0055	Arabella Bouquets | Purchase by 11.30 AM EST Friday | Delivery on Monday | Bouquet of 12 Fresh Cut Hot Pink Roses	1	0	1	Expedited	David & Cheryl Hawley	9627 W TRAILS RD			SPOKANE	WA	99224-9189	US		Hi Sherry Happy Birthday, From Bob & Gayle.	false		
111-6278430-8101831	34583747089298	2020-04-23T19:33:34+00:00	2020-04-23T12:33:34-07:00	2020-04-23T19:48:35+00:00	2020-04-29T06:59:59+00:00	-6	442bp3jl7dy28qq@marketplace.amazon.com	Randel Mitchell	+1 347-448-3190 ext. 01472	ABR0022	Arabella Bouquets | Purchase by 11.30 AM EST Friday | Delivery on Monday | Bouquet of 12 Fresh Cut Pink Roses	1	0	1	Expedited	Sylvia Medrano	5370 SAN MATEO BLVD NE	70D49		ALBUQUERQUE	NM	87109-6265	US		Happy Birthday Mom, We love you                    Love Always Beverly and Randy	false		
114-3020144-9262604	69704618353378	2020-04-23T19:27:24+00:00	2020-04-23T12:27:24-07:00	2020-04-23T19:52:46+00:00	2020-04-29T06:59:59+00:00	-6	qwslqmp5z889874@marketplace.amazon.com	sara bennett	+1 314-282-9402 ext. 72530	ABSR005	Arabella Bouquets | Purchase by 11.30 AM EST Friday | Delivery on Monday | Bouquet of Fresh Cut Orange Spray Roses with a Free Glass Vase	1	0	1	Expedited	Bill and Lisa Royals	3017 KANUGA RD			HENDERSONVILLE	NC	28739-7042	US			false		
113-8927936-6497046	43532034058570	2020-04-23T19:27:46+00:00	2020-04-23T12:27:46-07:00	2020-04-23T19:54:40+00:00	2020-04-29T06:59:59+00:00	-6	2f6nr6gjy73k7qh@marketplace.amazon.com	Esther Bearda	+1 347-448-3190 ext. 40563	ABR0022	Arabella Bouquets | Purchase by 11.30 AM EST Friday | Delivery on Monday | Bouquet of 12 Fresh Cut Pink Roses	1	0	1	Expedited	Aukje Bearda	35223 SUNSET DR			OCONOMOWOC	WI	53066-9277	US		Mem en Heit, We wish we could bring you these flowers in person, but for now we’ll send them with our best wishes from Nederland. Love, From Esther, Carole en Raphaël	false		
112-9427446-3472239	23387495427714	2020-04-23T19:26:37+00:00	2020-04-23T12:26:37-07:00	2020-04-23T19:56:12+00:00	2020-04-29T06:59:59+00:00	-6	s8pvgk0pqj8qvyl@marketplace.amazon.com	KATHY SHELBURNE	+1 347-448-3190 ext. 58761	ABR0022	Arabella Bouquets | Purchase by 11.30 AM EST Friday | Delivery on Monday | Bouquet of 12 Fresh Cut Pink Roses	1	0	1	Expedited	Pat Drow	5533 N FRESNO ST APT 218			FRESNO	CA	93710-6178	US		Hugs and kisses!! From KATHY SHELBURNE	false		
111-2463791-1674629	63639364780826	2020-04-23T19:29:41+00:00	2020-04-23T12:29:41-07:00	2020-04-23T19:58:37+00:00	2020-04-28T06:59:59+00:00	-5	bcsgh38jzvnqt5c@marketplace.amazon.com	Andy Nowak	+1 210-728-4548 ext. 64384	ABM010	Arabella Farm Direct Fields of The World Bouquet of Fresh Cut Flowers with a Free Glass Vase	1	0	1	Expedited	Grace Martin	21832 SHOCKLEY RD			MILFORD	DE	19963-4357	US		Grace - We as a TEAM are grateful for all you do for us.  It may seem like we don't listen or use all the great REPORTs that you do for us, but we do.  It may just be that it took a Pandemic for us to pay attention, much Love, Team Condor!	true		
114-1879497-3637864	67036682275850	2020-04-23T19:42:23+00:00	2020-04-23T12:42:23-07:00	2020-04-23T20:11:07+00:00	2020-04-28T06:59:59+00:00	-5	p46lvtyysxbhzlw@marketplace.amazon.com	Dr. Herbert F. Abbott	+1 210-728-4548 ext. 56682	ABR013	Arabella Bouquets | Purchase by 11.30 AM EST Friday | Delivery on Monday | Bouquet of 18 Fresh Cut Yellow Roses	1	0	1	Expedited	Kitty Knox	465 MARJON AVE APT B			DUNEDIN	FL	34698-7894	US		Happy Birthday Kitty! We love and miss you! Sending Hugs! Teresa, Herb and Evan	false		
111-1513941-4353047	52225848371634	2020-04-23T19:56:48+00:00	2020-04-23T12:56:48-07:00	2020-04-23T20:25:05+00:00	2020-04-28T06:59:59+00:00	-5	11v7lrbp0ds7j02@marketplace.amazon.com	Nancy Gillingham	+1 210-728-4548 ext. 86427	ABR012	Arabella Bouquets | Purchase by 11.30 AM EST Friday | Delivery on Monday | Bouquet of 18 Fresh Cut Pink Roses	1	0	1	Expedited	Colin Gillingham	876 CHESTNUT ST			SAN FRANCISCO	CA	94133-2206	US		Love to you both on this special day! From Cary Nancy Ashley Gillingham	false		
113-3908851-8844211	54899386604490	2020-04-23T20:07:25+00:00	2020-04-23T13:07:25-07:00	2020-04-23T20:29:00+00:00	2020-04-29T06:59:59+00:00	-6	1ssg796pnx5rsr9@marketplace.amazon.com	Doris halleran	+1 314-282-9402 ext. 41584	ABR0022	Arabella Bouquets | Purchase by 11.30 AM EST Friday | Delivery on Monday | Bouquet of 12 Fresh Cut Pink Roses	1	0	1	Expedited	Joy Tomlinson	35 PEGGY LN			MANAHAWKIN	NJ	08050-4329	US		Hi Joy ,      Our deepest sympathy,  Love,  Cindy, and Aunt Doris	false		
113-8459833-5310651	63775174641170	2020-04-23T20:05:18+00:00	2020-04-23T13:05:18-07:00	2020-04-23T20:35:29+00:00	2020-04-28T06:59:59+00:00	-5	16rj8mnkg6gnfvb@marketplace.amazon.com	Joyce Celaya	+1 210-728-4548 ext. 46514	ABM010	Arabella Farm Direct Fields of The World Bouquet of Fresh Cut Flowers with a Free Glass Vase	1	0	1	Expedited	Joyce Celaya	4135 PALM FOREST DR N			DELRAY BEACH	FL	33445-5704	US			false		
112-4297430-1885865	39684981405162	2020-04-23T20:23:05+00:00	2020-04-23T13:23:05-07:00	2020-04-23T20:37:06+00:00	2020-04-28T06:59:59+00:00	-5	2f7tfqv5hmc9zm8@marketplace.amazon.com	George Moloney	+1 210-728-4548 ext. 46422	ABR004	Arabella Farm Direct Bouquet of 12 Fresh Cut Yellow Roses with a Free Glass Vase	1	0	1	Expedited	Helen F. Moloney	1230 N WESTERN AVE APT 104			LAKE FOREST	IL	60045-1244	US		Mom -  Happy Mother's Day!!  George & Judy	false		
113-7815239-2585847	32213258011162	2020-04-23T20:37:44+00:00	2020-04-23T13:37:44-07:00	2020-04-23T21:04:48+00:00	2020-04-28T06:59:59+00:00	-5	307vrq0hz8txbk0@marketplace.amazon.com	Patricia	+1 412-532-4665 ext. 54368	ABR004	Arabella Farm Direct Bouquet of 12 Fresh Cut Yellow Roses with a Free Glass Vase	1	0	1	Expedited	Mrs. Carleen Hall	737 Holly Hills Drive			Biloxi	MS	39532	US		You are in our constant thoughts and prayers!   Love you so so much!  Blessings!   Pattie & Al	false		
112-7453372-8429835	45015186879898	2020-04-23T20:49:43+00:00	2020-04-23T13:49:43-07:00	2020-04-23T21:10:31+00:00	2020-04-28T06:59:59+00:00	-5	sdnn4ckr4fwjmrl@marketplace.amazon.com	Eileen Blovad	+1 314-282-9402 ext. 55338	ABR012	Arabella Bouquets | Purchase by 11.30 AM EST Friday | Delivery on Monday | Bouquet of 18 Fresh Cut Pink Roses	1	0	1	Expedited	D,Anna Dickstein	61 E MIDLAND AVE			KEARNY	NJ	07032-4125	US			false		
114-4644168-7157819	45146822017394	2020-04-23T21:23:01+00:00	2020-04-23T14:23:01-07:00	2020-04-23T21:23:53+00:00	2020-04-29T06:59:59+00:00	-6	64bfzlkkbnvzgzy@marketplace.amazon.com	Maureen Billisits	+1 347-448-3190 ext. 98266	ABR0022	Arabella Bouquets | Purchase by 11.30 AM EST Friday | Delivery on Monday | Bouquet of 12 Fresh Cut Pink Roses	1	0	1	Expedited	Vikki Luft	700 COWEETA LAB RD			OTTO	NC	28763-9201	US		I am grateful for you guys!!!  I hope this brightens your day a bit!  Love, Renie From Maureen Billisits	false		
113-2734640-7237841	05370043004898	2020-04-23T20:57:59+00:00	2020-04-23T13:57:59-07:00	2020-04-23T21:25:10+00:00	2020-04-28T06:59:59+00:00	-5	8t5406th3l9sb3t@marketplace.amazon.com	Sophia Wong Boccio	+1 347-448-3190 ext. 20354	ABR004	Arabella Farm Direct Bouquet of 12 Fresh Cut Yellow Roses with a Free Glass Vase	1	0	1	Expedited	Yumi Hara	2351 MOHAWK LN			GLENVIEW	IL	60026-1063	US		Hi Yumi, Congratulations about recovering from the infection!  Please stay healthy and be well!  Best regards Sophia and rest of the Board members	true		
