order-id	order-item-id	purchase-date	payments-date	reporting-date	promise-date	days-past-promise	buyer-email	buyer-name	buyer-phone-number	sku	product-name	quantity-purchased	quantity-shipped	quantity-to-ship	ship-service-level	recipient-name	ship-address-1	ship-address-2	ship-address-3	ship-city	ship-state	ship-postal-code	ship-country	gift-wrap-type	gift-message-text	is-business-order	purchase-order-number	price-designation
112-3833442-7729011	40149115548314	2020-04-22T01:06:48+00:00	2020-04-21T18:06:48-07:00	2020-04-22T01:32:25+00:00	2020-04-25T06:59:59+00:00	-3	hx2jh8l22951bv4@marketplace.amazon.com	Sheila Tozier	+1 210-728-4548 ext. 05377	ABR0022	Arabella Bouquets | Purchase by 11.30 AM EST Wednesday | Delivery on Friday | Bouquet of 12 Fresh Cut Pink Roses	1	0	1	Expedited	Dorothy Nuccitelli	26 STATE ROUTE 37			NEW FAIRFIELD	CT	06812-5003	US			false		
111-9797931-5850624	23205792595242	2020-04-22T15:06:01+00:00	2020-04-22T08:06:01-07:00	2020-04-22T15:32:15+00:00	2020-04-25T06:59:59+00:00	-3	9xxf126cm66g4y4@marketplace.amazon.com	Kenneth L. Meador	+1 347-448-3190 ext. 65781	ABM0033	Arabella Farm Direct Bouquet of 5 Fresh Cut White Hydrangea with a Free Glass Vase	1	0	1	Expedited	patsy walker	1237 N PEEBLY RD			CHOCTAW	OK	73020-7955	US		Kathy, We wish you a quick recovery. Patsy is dear to me, and I thank you for raising such a fantastic person! You’re a great momma!  Get better soon! From Anita Meador	false		
113-6289031-6508201	01007466143418	2020-04-22T15:35:43+00:00	2020-04-22T08:35:43-07:00	2020-04-22T16:02:50+00:00	2020-04-28T06:59:59+00:00	-6	53t53ph314zpffw@marketplace.amazon.com	Vanessa turner	+1 210-728-4548 ext. 76694	ABR0022	Arabella Bouquets | Purchase by 11.30 AM EST Friday | Delivery on Monday | Bouquet of 12 Fresh Cut Pink Roses	1	0	1	Expedited	Melissa Turner	1330 CAMERON GLEN DR			MARIETTA	GA	30062-3047	US		Dearest Melissa, Thinking about you!!  “The Lord Almighty  is with us” Psalm 46:11.  Love you and miss you!!! Nessa xoxoxo From Vanessa turner	false		
113-0262875-4376223	46678935241058	2020-04-22T15:38:32+00:00	2020-04-22T08:38:32-07:00	2020-04-22T16:04:36+00:00	2020-04-28T06:59:59+00:00	-6	r9qmm7wp8tm0wct@marketplace.amazon.com	Michael Barinbaum	+1 347-448-3190 ext. 46530	ABR0022	Arabella Bouquets | Purchase by 11.30 AM EST Friday | Delivery on Monday | Bouquet of 12 Fresh Cut Pink Roses	1	0	1	Expedited	Sara Lerner	18021 26TH DR SE			BOTHELL	WA	98012-9314	US		Dear Sara and John, we had hoped that these arrived on April 25 to let you know we were thinking about you. We love you! From mom and pop	false		
112-3340835-1849044	08759749668586	2020-04-22T15:40:19+00:00	2020-04-22T08:40:19-07:00	2020-04-22T16:10:50+00:00	2020-04-25T06:59:59+00:00	-3	9kmq13h1mxp5g6t@marketplace.amazon.com	Juan Perez	+1 347-448-3190 ext. 51081	ABR001	Arabella Bouquets | Purchase by 11.30 AM EST Friday | Delivery on Monday | Bouquet of 12 Fresh Cut Red Roses	1	0	1	Standard	Juan Daniel Perez Gijon	507 E GRANT ST			SANTA MARIA	CA	93454-1412	US			false		
113-9975230-0551437	08674850977906	2020-04-22T15:38:22+00:00	2020-04-22T08:38:22-07:00	2020-04-22T16:14:57+00:00	2020-04-28T06:59:59+00:00	-6	6bq3y9lfdgwx01y@marketplace.amazon.com	Lindsay Perkins	+1 347-448-3190 ext. 07271	ABR0022	Arabella Bouquets | Purchase by 11.30 AM EST Friday | Delivery on Monday | Bouquet of 12 Fresh Cut Pink Roses	1	0	1	Expedited	Louise Coe	1023 BIG ROCK LOOP			SUN VALLEY	NV	89433-8304	US		Congrats on your new home!!  May your new home be a foundation for many happy memories.      The best compliment you can give me is a Refferal.	false		
111-6197855-8617869	18021401916738	2020-04-22T15:37:20+00:00	2020-04-22T08:37:20-07:00	2020-04-22T16:26:47+00:00	2020-04-28T06:59:59+00:00	-6	861vlxgk39xsm8v@marketplace.amazon.com	Kathleen Nichols	+1 412-532-4665 ext. 60953	ABR0022	Arabella Bouquets | Purchase by 11.30 AM EST Friday | Delivery on Monday | Bouquet of 12 Fresh Cut Pink Roses	1	0	1	Expedited	Bridget & Sawyer VUOLO	141 HOWLAND DR			PONTE VEDRA	FL	32081-8420	US		Hi Bridget, Happy Birthday!  We miss you! Enjoy your gift! Love, Mom & Rich	false		
112-9035458-2570654	10908827744946	2020-04-22T16:03:42+00:00	2020-04-22T09:03:42-07:00	2020-04-22T16:32:01+00:00	2020-04-25T06:59:59+00:00	-3	gnffncpnvxn396b@marketplace.amazon.com	michael	+1 314-282-9402 ext. 49627	ABM010	Arabella Farm Direct Fields of The World Bouquet of Fresh Cut Flowers with a Free Glass Vase	1	0	1	Expedited	Linda	4312 W ARROWHEAD RD			SPOKANE	WA	99208-4962	US			false		
112-0691942-9004240	13052515335962	2020-04-22T16:04:51+00:00	2020-04-22T09:04:51-07:00	2020-04-22T16:32:31+00:00	2020-04-25T06:59:59+00:00	-3	42ctv77kxqx3x0f@marketplace.amazon.com	Callena Burns	+1 412-532-4665 ext. 10995	ABM017	Prosperous Day a Farm Direct Bouquet with a Free Glass Vase	1	0	1	Expedited	Terry Rhoton	213 PILOT HOUSE PL			CALABASH	NC	28467-2444	US		Happy happy Birthday!  Wish we could be there to celebrate! We miss youcan't wait until we're all together again!  Love, Brad + Callie	false		
113-2947776-3761811	45626902979242	2020-04-22T16:09:00+00:00	2020-04-22T09:09:00-07:00	2020-04-22T16:37:56+00:00	2020-04-28T06:59:59+00:00	-6	0dtmdf4jwbc59td@marketplace.amazon.com	Mark J. Brotman	+1 347-448-3190 ext. 87265	ABSR003	Arabella Bouquets | Purchase by 11.30 AM EST Friday | Delivery on Monday | Bouquet of Fresh Cut Yellow Spray Roses with a Free Glass Vase	1	0	1	Expedited	Jan Brotman	28 THAYER ST			NORTHBOROUGH	MA	01532-2408	US		Happy Birthday Jan! Love, Mark and Laura-Beth	false		
111-7327034-1524219	05134195591466	2020-04-22T16:12:47+00:00	2020-04-22T09:12:47-07:00	2020-04-22T16:38:41+00:00	2020-04-25T06:59:59+00:00	-3	pnv3zpdx6wycfxl@marketplace.amazon.com	edna shams	+1 347-448-3190 ext. 61248	ABR0066	Arabella Bouquets | Purchase by 11.30 AM EST Friday | Delivery on Monday | Bouquet of 12 Fresh Cut White Roses	1	0	1	Expedited	Mrs. Sabrina Rahmani	94A Wildwood Road			Kings Point	NY	11024	US		Dearest Sabrina, Our deepest condolences to you and your family. May you cherish her memories for many years. Hope these tough days will be over soon. Regards, Edna & Saeed Shamsian	false		
112-5889215-2810616	68926638189474	2020-04-22T16:26:43+00:00	2020-04-22T09:26:43-07:00	2020-04-22T16:51:13+00:00	2020-04-25T06:59:59+00:00	-3	26v11v57bwqfn18@marketplace.amazon.com	Cecilia M. Russo	+1 347-448-3190 ext. 50182	ABM010	Arabella Farm Direct Fields of The World Bouquet of Fresh Cut Flowers with a Free Glass Vase	1	0	1	Expedited	Janet Agruso, room 206B	C/O WHITTIER REHAB HOSPITAL	145 WARD HILL AVE		HAVERHILL	MA	01835-6928	US		Hi Janet, We are thinking of you and praying  for a speedy recovery! Love you so much, Joe & Ceil	false		
111-1813078-1462606	21166055649586	2020-04-22T16:28:50+00:00	2020-04-22T09:28:50-07:00	2020-04-22T16:59:01+00:00	2020-04-28T06:59:59+00:00	-6	1218qjybnq7h70y@marketplace.amazon.com	Denise J. Marshall	+1 314-282-9402 ext. 65203	ABR014	Arabella Bouquets | Purchase by 11.30 AM EST Friday | Delivery on Monday | Bouquet of 18 Fresh Cut White Roses	1	0	1	Expedited	Colleen Johnson.  (DM)	209 E DESERT ROSE WAY			IVINS	UT	84738-5116	US			false		
112-3202951-2764216	07531835950106	2020-04-22T16:34:15+00:00	2020-04-22T09:34:15-07:00	2020-04-22T16:59:25+00:00	2020-04-28T06:59:59+00:00	-6	nr1vv1tn7ry8lnw@marketplace.amazon.com	Norma Tanner	+1 347-448-3190 ext. 70195	ABR0022	Arabella Bouquets | Purchase by 11.30 AM EST Friday | Delivery on Monday | Bouquet of 12 Fresh Cut Pink Roses	1	0	1	Expedited	Tammy Huddleston	11115 ANGLE CT			KANSAS CITY	KS	66109-3475	US			false		
112-3085383-9597849	07313600570514	2020-04-22T16:33:09+00:00	2020-04-22T09:33:09-07:00	2020-04-22T17:00:44+00:00	2020-04-25T06:59:59+00:00	-3	1p0r4h044y09gpp@marketplace.amazon.com	LeeAnn McCoy-Tomlin	+1 412-532-4665 ext. 95690	ABR0055	Arabella Bouquets | Purchase by 11.30 AM EST Friday | Delivery on Monday | Bouquet of 12 Fresh Cut Hot Pink Roses	1	0	1	Expedited	Teresa Sims	1606 N TENNESSEE BLVD APT NN217			MURFREESBORO	TN	37130-2051	US		Hi Teresa, Happy Birthday! With Love your Small Business CSC Team	false		
111-0062716-2029879	64933481075690	2020-04-22T16:34:14+00:00	2020-04-22T09:34:14-07:00	2020-04-22T17:04:25+00:00	2020-04-28T06:59:59+00:00	-6	x25wstfy9yq9ymf@marketplace.amazon.com	Erin Marquardt	+1 347-448-3190 ext. 10845	ABR0022	Arabella Bouquets | Purchase by 11.30 AM EST Friday | Delivery on Monday | Bouquet of 12 Fresh Cut Pink Roses	1	0	1	Expedited	Brenda Belmudez	16740 SHADOW WOOD CT			HUDSON	CO	80642-7955	US			false		
111-6561404-6269805	50609669639170	2020-04-22T16:38:12+00:00	2020-04-22T09:38:12-07:00	2020-04-22T17:04:29+00:00	2020-04-25T06:59:59+00:00	-3	cs59wyg3smhq52w@marketplace.amazon.com	Allie Sturtridge	+1 210-728-4548 ext. 02027	ABM010	Arabella Farm Direct Fields of The World Bouquet of Fresh Cut Flowers with a Free Glass Vase	1	0	1	Expedited	Katelyn Lewis	3450 N LAKE SHORE DR APT 2215			CHICAGO	IL	60657-2860	US		Katelyn-- Happy Advisor Appreciation Month! Thank you for all of your hard work and dedication to the ladies of Beta Pi! Hope you are staying healthy and safe! TLM<3 Allie	false		
111-6476622-0613867	58451182313354	2020-04-22T16:39:23+00:00	2020-04-22T09:39:23-07:00	2020-04-22T17:09:35+00:00	2020-04-28T06:59:59+00:00	-6	gdgnrkj6rf192nw@marketplace.amazon.com	John Dodgson	+1 314-282-9402 ext. 91580	ABR0022	Arabella Bouquets | Purchase by 11.30 AM EST Friday | Delivery on Monday | Bouquet of 12 Fresh Cut Pink Roses	1	0	1	Expedited	Ms Emily Pooler	243 FORREST DR			GETTYSBURG	PA	17325-8982	US			false		
113-3603526-0222603	15570398984378	2020-04-22T16:47:57+00:00	2020-04-22T09:47:57-07:00	2020-04-22T17:18:36+00:00	2020-04-28T06:59:59+00:00	-6	jctlmbf7dcfdtvp@marketplace.amazon.com	Peggy	+1 347-448-3190 ext. 86157	ABR0022	Arabella Bouquets | Purchase by 11.30 AM EST Friday | Delivery on Monday | Bouquet of 12 Fresh Cut Pink Roses	1	0	1	Expedited	Margaret Hutchins	1169 Ponte Vedra Blvd			PONTE VEDRA BEACH	FL	32082	US			false		
114-4628189-8396245	66127063126442	2020-04-22T16:58:46+00:00	2020-04-22T09:58:46-07:00	2020-04-22T17:24:35+00:00	2020-04-25T06:59:59+00:00	-3	q8gjylwls4l3mmy@marketplace.amazon.com	Margie Prior	+1 314-282-9402 ext. 47298	ABM010	Arabella Farm Direct Fields of The World Bouquet of Fresh Cut Flowers with a Free Glass Vase	1	0	1	Expedited	Angela Prior	6153 GOLIAD AVE			DALLAS	TX	75214-3631	US		Since we can’t be there for you maybe these flowers will brighten your day! From Love, Mom and Dad xoxo	false		
113-6900073-8265061	57457512030290	2020-04-22T16:59:21+00:00	2020-04-22T09:59:21-07:00	2020-04-22T17:28:39+00:00	2020-04-25T06:59:59+00:00	-3	h5fz78gtc7f0hmq@marketplace.amazon.com	Patricia Batdorf	+1 412-532-4665 ext. 67486	ABR0055	Arabella Bouquets | Purchase by 11.30 AM EST Friday | Delivery on Monday | Bouquet of 12 Fresh Cut Hot Pink Roses	1	0	1	Expedited	Marcia Miller	630 MILLER FARM RD			INMAN	SC	29349-9696	US		Enjoy your gift! Happy Birthday! Love you! Patty From Patricia Batdorf	false		
114-7625708-0524230	48081896150850	2020-04-22T17:09:31+00:00	2020-04-22T10:09:31-07:00	2020-04-22T17:37:14+00:00	2020-04-25T06:59:59+00:00	-3	3hwr7tbrjk2bykl@marketplace.amazon.com	Amour Doyle	+1 412-532-4665 ext. 62634	ABM010	Arabella Farm Direct Fields of The World Bouquet of Fresh Cut Flowers with a Free Glass Vase	1	0	1	Expedited	Richard/Elain Doyle	2311 DOWNING ST			READING	PA	19605-2823	US		Happy Birthday Elaine,  love you From Amour, Christopher and The King From Amour Doyle	false		
112-9574517-9095440	09224158783250	2020-04-22T17:17:24+00:00	2020-04-22T10:17:24-07:00	2020-04-22T17:46:36+00:00	2020-04-25T06:59:59+00:00	-3	dwhbwmc31gh4rjb@marketplace.amazon.com	Kirsten Sorensen	+1 314-282-9402 ext. 96953	ABM010	Arabella Farm Direct Fields of The World Bouquet of Fresh Cut Flowers with a Free Glass Vase	1	0	1	Expedited	Heather Jafar	275 CONOVER ST			BROOKLYN	NY	11231-1035	US		Hi Heather, Enjoy your gift! Congratulations and welcome to Otis! Love,  Kirsten	false		
113-9627986-0550656	69201605173290	2020-04-22T17:08:33+00:00	2020-04-22T10:08:33-07:00	2020-04-22T17:50:26+00:00	2020-04-25T06:59:59+00:00	-3	v8ppzk40rsjn9p7@marketplace.amazon.com	Dag Alfstad	+1 347-448-3190 ext. 92335	ABR012	Arabella Bouquets | Purchase by 11.30 AM EST Friday | Delivery on Monday | Bouquet of 18 Fresh Cut Pink Roses	1	0	1	Expedited	Dag Alfstad	12 SALINAS			FOOTHILL RANCH	CA	92610-1861	US		Gratulerer så masse med dagen Nina!!! Vi digger deg, Hilde og Dag	false		
112-3825387-4047447	14960705303810	2020-04-22T17:29:06+00:00	2020-04-22T10:29:06-07:00	2020-04-22T17:56:50+00:00	2020-04-25T06:59:59+00:00	-3	hx200wcqdgkh0dh@marketplace.amazon.com	Victoria Denault	+1 314-282-9402 ext. 95954	ABR001	Arabella Bouquets | Purchase by 11.30 AM EST Friday | Delivery on Monday | Bouquet of 12 Fresh Cut Red Roses	1	0	1	Standard	Bessie F. Gray	3600 OAK MANOR LN APT 39			LARGO	FL	33774-1240	US			false		
113-6044306-2142606	04947125821090	2020-04-22T17:34:23+00:00	2020-04-22T10:34:23-07:00	2020-04-22T18:00:11+00:00	2020-04-28T06:59:59+00:00	-6	96w0qvw1js3kr1w@marketplace.amazon.com	ladyfoote@yahoo.com	+1 210-728-4548 ext. 37447	ABR0022	Arabella Bouquets | Purchase by 11.30 AM EST Friday | Delivery on Monday | Bouquet of 12 Fresh Cut Pink Roses	1	0	1	Expedited	ladyfoote@yahoo.com	8110 SANDY HOOK DR			CLINTON	WA	98236-8937	US			false		
114-8637333-5077011	06424400661746	2020-04-22T17:50:51+00:00	2020-04-22T10:50:51-07:00	2020-04-22T18:20:03+00:00	2020-04-28T06:59:59+00:00	-6	rlv54k7hz2k3mmj@marketplace.amazon.com	Kaye Brazier	+1 314-282-9402 ext. 15437	ABR0022	Arabella Bouquets | Purchase by 11.30 AM EST Friday | Delivery on Monday | Bouquet of 12 Fresh Cut Pink Roses	1	0	1	Expedited	Janet Brazier	1010 CAVAN DR			APOPKA	FL	32703-8342	US		Hi Mum, Happy Birthday to You! Love Kaye and Jon OXOXOX	false		
111-3573571-2598648	63658185964674	2020-04-22T18:10:07+00:00	2020-04-22T11:10:07-07:00	2020-04-22T18:33:18+00:00	2020-04-28T06:59:59+00:00	-6	8xc2j1547b44cfy@marketplace.amazon.com	Martha M. Medford	+1 347-448-3190 ext. 19883	ABR0022	Arabella Bouquets | Purchase by 11.30 AM EST Friday | Delivery on Monday | Bouquet of 12 Fresh Cut Pink Roses	1	0	1	Expedited	Regina Stalnaker	18817 106TH LN E			PUYALLUP	WA	98374-6485	US		Wishing you wonderful days ahead. With Love From Martha  and Dennis	false		
113-0689553-3195424	37221720235322	2020-04-22T18:22:10+00:00	2020-04-22T11:22:10-07:00	2020-04-22T18:44:17+00:00	2020-04-25T06:59:59+00:00	-3	1cpzsblsp2g403d@marketplace.amazon.com	lane ruth	+1 347-448-3190 ext. 73472	ABR0033	Arabella Bouquets | Purchase by 11.30 AM EST Friday | Delivery on Monday | Bouquet of 12 Fresh Cut Orange Roses	1	0	1	Expedited	Delcie Lane	1005 E MELBOURNE AVE			PEORIA	IL	61603-2025	US		Happy Anniversary!  Celebrating the best gift my Dad ever gave me was you.  Know that you are loved, Ruth	false		
113-5069507-9673046	15832971985242	2020-04-22T18:24:59+00:00	2020-04-22T11:24:59-07:00	2020-04-22T18:53:42+00:00	2020-04-25T06:59:59+00:00	-3	b5d0sl96hrkxl9l@marketplace.amazon.com	sandy	+1 347-448-3190 ext. 62116	ABR0033	Arabella Bouquets | Purchase by 11.30 AM EST Friday | Delivery on Monday | Bouquet of 12 Fresh Cut Orange Roses	1	0	1	Standard	Stanley and Virginia Harris	PO BOX 637			WHEATLAND	WY	82201-0637	US		Enjoy your gift! Sorry about chubs, hopefully it gets better soon From sandy	false		
114-4529490-2253065	14105174608074	2020-04-22T18:33:01+00:00	2020-04-22T11:33:01-07:00	2020-04-22T18:59:58+00:00	2020-04-25T06:59:59+00:00	-3	typkxybfpc60hdr@marketplace.amazon.com	Melissa Taylor	+1 210-728-4548 ext. 65057	ABM017	Prosperous Day a Farm Direct Bouquet with a Free Glass Vase	1	0	1	Expedited	Michael and Sue Griggs	6096 Lookaway Farms			Franklin	TN	37067	US		Dear Michael and Sue, Just a thinking about you guys during this difficult time.  Love, Missy and Jenny	false		
113-1861320-4265042	61444164052082	2020-04-22T18:35:04+00:00	2020-04-22T11:35:04-07:00	2020-04-22T19:04:53+00:00	2020-04-25T06:59:59+00:00	-3	rr5hwk618jtbm6k@marketplace.amazon.com	jerriann cronk	+1 412-532-4665 ext. 92385	ABM010	Arabella Farm Direct Fields of The World Bouquet of Fresh Cut Flowers with a Free Glass Vase	1	0	1	Expedited	Judy Smith	915 FRESNO ST			ELGIN	OR	97827-9661	US			false		
114-9114726-0973004	43591466478226	2020-04-22T18:40:07+00:00	2020-04-22T11:40:07-07:00	2020-04-22T19:07:55+00:00	2020-04-25T06:59:59+00:00	-3	typkxybfpc60hdr@marketplace.amazon.com	Melissa Taylor	+1 347-448-3190 ext. 22379	ABM017	Prosperous Day a Farm Direct Bouquet with a Free Glass Vase	1	0	1	Expedited	Shelly Griggs	1587 WELLINGTON AVE			SAVANNAH	NY	13146-3161	US		Hi, This is just something to cheer you up during these difficult time. Love Jenny and Missy	false		
112-5772421-3684258	30960049475954	2020-04-22T18:56:23+00:00	2020-04-22T11:56:23-07:00	2020-04-22T19:25:04+00:00	2020-04-25T06:59:59+00:00	-3	4pblkfvqp5jpvmk@marketplace.amazon.com	kim a king	+1 412-532-4665 ext. 20646	ABR0055	Arabella Bouquets | Purchase by 11.30 AM EST Friday | Delivery on Monday | Bouquet of 12 Fresh Cut Hot Pink Roses	1	0	1	Expedited	Mrs. Addie Starck	6055 VERDE TRL S APT 216	ST ANDREWS		BOCA RATON	FL	33433-4423	US		Happy Mothers Day With much love Kim	false		
112-2026816-1902626	25259950871930	2020-04-22T18:59:29+00:00	2020-04-22T11:59:29-07:00	2020-04-22T19:29:00+00:00	2020-04-25T06:59:59+00:00	-3	gy7xg0yzvytm2k7@marketplace.amazon.com	Susan Jimenez	+1 347-448-3190 ext. 67702	ABR012	Arabella Bouquets | Purchase by 11.30 AM EST Friday | Delivery on Monday | Bouquet of 18 Fresh Cut Pink Roses	1	0	1	Expedited	Carissa Orozco	5 RUGBY RD			MASSAPEQUA	NY	11758-5946	US			false		
112-6877935-6893820	26714393603738	2020-04-22T19:12:16+00:00	2020-04-22T12:12:16-07:00	2020-04-22T19:32:47+00:00	2020-04-25T06:59:59+00:00	-3	11qk1mz4c9qtx42@marketplace.amazon.com	Jeff Gerbers	+1 210-728-4548 ext. 86196	ABR0055	Arabella Bouquets | Purchase by 11.30 AM EST Friday | Delivery on Monday | Bouquet of 12 Fresh Cut Hot Pink Roses	1	0	1	Expedited	Diane Hackney	121 HANWORTH LN			DANIELS	WV	25832-9029	US		Hi Diane!  Thinking of you and wishing you a happy day!   We hope you know how special you are to both of us!  With much love and hugs, Kristy & Tracy	false		
111-4500956-9429050	36785683732106	2020-04-22T19:14:12+00:00	2020-04-22T12:14:12-07:00	2020-04-22T19:42:13+00:00	2020-04-25T06:59:59+00:00	-3	7m7y6jf3zw3w5jl@marketplace.amazon.com	MS Mandy Lyons	07720616526	ABR012	Arabella Bouquets | Purchase by 11.30 AM EST Friday | Delivery on Monday | Bouquet of 18 Fresh Cut Pink Roses	1	0	1	Expedited	Donna Hoyt	19016 N 47TH LN			GLENDALE	AZ	85308-4851	US		Enjoy your gift! From MS Mandy Lyons	false		
111-0633326-6820255	02466469733218	2020-04-22T19:27:51+00:00	2020-04-22T12:27:51-07:00	2020-04-22T19:56:47+00:00	2020-04-28T06:59:59+00:00	-6	vsy7m4vqfx3gdnc@marketplace.amazon.com	Nathan	+1 347-448-3190 ext. 27953	ABR0022	Arabella Bouquets | Purchase by 11.30 AM EST Friday | Delivery on Monday | Bouquet of 12 Fresh Cut Pink Roses	1	0	1	Standard	Daun Deemer	1445 SCHOOL AVE NE APT 10			NORTH CANTON	OH	44720-6249	US		Happy Mother's Day, Grandma! Love you! Hope, Nathan, Tina & Bill	false		
114-5831251-5307461	12505238758850	2020-04-22T19:47:47+00:00	2020-04-22T12:47:47-07:00	2020-04-22T20:11:50+00:00	2020-04-25T06:59:59+00:00	-3	9b6z8zfcf4knr8s@marketplace.amazon.com	naomireneelewton	+1 210-728-4548 ext. 12635	ABM010	Arabella Farm Direct Fields of The World Bouquet of Fresh Cut Flowers with a Free Glass Vase	1	0	1	Expedited	Sarilla Curtis	12320 huntingdon dr.			Indianapolis	Indiana	46229	US		This is for Eliza lol💕 From Your friend	false		
112-8269831-3357027	44791162955714	2020-04-22T19:45:15+00:00	2020-04-22T12:45:15-07:00	2020-04-22T20:15:02+00:00	2020-04-28T06:59:59+00:00	-6	ptfs28z0dz8ln5v@marketplace.amazon.com	Amanda Schiff	+1 314-282-9402 ext. 88077	ABR0022	Arabella Bouquets | Purchase by 11.30 AM EST Friday | Delivery on Monday | Bouquet of 12 Fresh Cut Pink Roses	1	0	1	Expedited	Amanda Schiff	649 Fox Hollow Way			Vacaville	CA	95687	US			false		
113-7069210-4440252	07486073002394	2020-04-22T19:51:29+00:00	2020-04-22T12:51:29-07:00	2020-04-22T20:19:33+00:00	2020-04-25T06:59:59+00:00	-3	p04gsz2fwry8tmp@marketplace.amazon.com	Christina valery	+1 314-282-9402 ext. 52211	ABM010	Arabella Farm Direct Fields of The World Bouquet of Fresh Cut Flowers with a Free Glass Vase	1	0	1	Expedited	ERIKA CANELA	1822 W CANTON ST			LONG BEACH	CA	90810-2932	US		HAPPY BIRTHDAY!!!! We love you and miss you! From Marna, James, Christina	false		
111-2127902-9441861	39292629820714	2020-04-22T20:33:53+00:00	2020-04-22T13:33:53-07:00	2020-04-22T20:57:30+00:00	2020-04-28T06:59:59+00:00	-6	lzwkm8hrdvdsmk8@marketplace.amazon.com	Sue Coleman	+1 347-448-3190 ext. 91273	ABR0022	Arabella Bouquets | Purchase by 11.30 AM EST Friday | Delivery on Monday | Bouquet of 12 Fresh Cut Pink Roses	1	0	1	Expedited	Carina Aguirre	114 E STATE ST			NORTH AURORA	IL	60542-1618	US		Congratulations Carina and Edgar on your beautiful baby girl! From QA and Training Team @ MAXIMUS	false		
114-5837791-9599445	11760938118122	2020-04-22T20:48:23+00:00	2020-04-22T13:48:23-07:00	2020-04-22T21:12:42+00:00	2020-04-25T06:59:59+00:00	-3	98kjvmw56kgpq10@marketplace.amazon.com	markus greese	+1 210-728-4548 ext. 17250	ABM010	Arabella Farm Direct Fields of The World Bouquet of Fresh Cut Flowers with a Free Glass Vase	1	0	1	Expedited	CHIARO GABRIELE	FOREST LAKE ESTATES	5319 NW 67TH AVE		LAUDERHILL	FL	33319-7223	US		Hallo liebe 'Mupfl' Mit den besten Wünschen, zum Geburtstag viel Gesundheit und liebe Grüße, herzlich, Dein Sohn Markus  Enjoy your gift!	false		
113-8565540-1673060	47661113249218	2020-04-22T20:51:26+00:00	2020-04-22T13:51:26-07:00	2020-04-22T21:20:09+00:00	2020-04-25T06:59:59+00:00	-3	nw4bty10b8pmqt5@marketplace.amazon.com	Sherrie Olson	+1 347-448-3190 ext. 91849	ABR0033	Arabella Bouquets | Purchase by 11.30 AM EST Friday | Delivery on Monday | Bouquet of 12 Fresh Cut Orange Roses	1	0	1	Expedited	Dominika Batten	10260 CAVALRY CIR			RENO	NV	89521-4194	US		Thinking of you! Sending you the biggest hug and all my love! From Sherrie	false		
112-5150010-4529058	10851628754138	2020-04-22T21:42:54+00:00	2020-04-22T14:42:54-07:00	2020-04-22T22:11:31+00:00	2020-04-28T06:59:59+00:00	-6	908w1m9g4vvl1nh@marketplace.amazon.com	brian a smith	+1 412-532-4665 ext. 14659	ABR0022	Arabella Bouquets | Purchase by 11.30 AM EST Friday | Delivery on Monday | Bouquet of 12 Fresh Cut Pink Roses	1	0	1	Standard	Melanie Carlisle	337 E MARTHONA RD			MADISON	TN	37115-4503	US			false		
112-0483723-7649801	63339673988346	2020-04-22T21:45:02+00:00	2020-04-22T14:45:02-07:00	2020-04-22T22:15:16+00:00	2020-04-28T06:59:59+00:00	-6	908w1m9g4vvl1nh@marketplace.amazon.com	brian a smith	+1 314-282-9402 ext. 09234	ABR0022	Arabella Bouquets | Purchase by 11.30 AM EST Friday | Delivery on Monday | Bouquet of 12 Fresh Cut Pink Roses	1	0	1	Standard	Linda Hutcherson	4550 N TROOPER LN			BLOOMINGTON	IN	47404-9659	US			false		
111-3785780-0713861	13318795064658	2020-04-22T21:55:17+00:00	2020-04-22T14:55:17-07:00	2020-04-22T22:22:03+00:00	2020-04-28T06:59:59+00:00	-6	74ygyqgvsnkx8hm@marketplace.amazon.com	Jonathan Johnson	+1 210-728-4548 ext. 73084	ABR0022	Arabella Bouquets | Purchase by 11.30 AM EST Friday | Delivery on Monday | Bouquet of 12 Fresh Cut Pink Roses	1	0	1	Expedited	Denise Johnson	1813 DALHOUSIE CT APT C1			PARKVILLE	MD	21234-5338	US		Hi Denise, HAPPY BIRTHDAY !!!!!!!!!!  From: Ellie :)	false		
111-2117866-9387406	59411912669282	2020-04-22T22:02:29+00:00	2020-04-22T15:02:29-07:00	2020-04-22T22:24:09+00:00	2020-04-25T06:59:59+00:00	-3	bfjsc3q3q4ft1qw@marketplace.amazon.com	Diana Rose	+1 347-448-3190 ext. 73703	ABR0055	Arabella Bouquets | Purchase by 11.30 AM EST Friday | Delivery on Monday | Bouquet of 12 Fresh Cut Hot Pink Roses	1	0	1	Expedited	Debbie Bump	715 ENCINO DR			ARCADIA	CA	91006-4467	US		Thank you Deb for all your hard work and compassion for MOM: taking her to med. appts, organizing & managing meds, investments, prop mgmt, getting her home & on hospice and working on all the paperwork.  We appreciate and love you, Rob, Diana & Donna	false		
113-4134949-8941855	09423230156578	2020-04-22T22:09:59+00:00	2020-04-22T15:09:59-07:00	2020-04-22T22:35:07+00:00	2020-04-25T06:59:59+00:00	-3	mwyz4hctkyx464s@marketplace.amazon.com	Robert Mitchell	+1 347-448-3190 ext. 67998	ABR012	Arabella Bouquets | Purchase by 11.30 AM EST Friday | Delivery on Monday | Bouquet of 18 Fresh Cut Pink Roses	1	0	1	Expedited	Francis Taylor-Pleasant	3157 WELSH CIR			RICHMOND	VA	23223-2180	US		Hi Francis, I was deeply saddened to hear of the loss of your husband. Please know that my thoughts are with you during this very difficult time. I look forward to seeing you soon. With Love, Cousin Bob	false		
113-9550228-7333827	65967575910338	2020-04-22T22:12:47+00:00	2020-04-22T15:12:47-07:00	2020-04-22T22:37:08+00:00	2020-04-28T06:59:59+00:00	-6	zj58k7vrhvngjjz@marketplace.amazon.com	Renee	+1 347-448-3190 ext. 90050	ABR0022	Arabella Bouquets | Purchase by 11.30 AM EST Friday | Delivery on Monday | Bouquet of 12 Fresh Cut Pink Roses	1	0	1	Expedited	Gini kestner	126 OLD CARTWHEEL RD			MARSHALLBERG	NC	28553-9701	US		Happy one month I can’t believe it’s gone by this fast and there will be many more to come. From Nick	false		
111-0905066-5250619	57286585215322	2020-04-22T22:15:40+00:00	2020-04-22T15:15:40-07:00	2020-04-22T22:38:18+00:00	2020-04-25T06:59:59+00:00	-3	29qlgw1l83z3ny4@marketplace.amazon.com	Matt hull	+1 210-728-4548 ext. 93366	ABM010	Arabella Farm Direct Fields of The World Bouquet of Fresh Cut Flowers with a Free Glass Vase	1	0	1	Expedited	Rocket launch friends	552B ADAMS AVE			CAPE CANAVERAL	FL	32920-2102	US		Thank you for letting us park here to enjoy the rocket launch! Sorry if I left my flip flops in your driveway. Thanks so much we enjoyed our short time there!   Love, newfriends From New friends	false		
114-0478924-5259414	44302396830066	2020-04-22T22:41:53+00:00	2020-04-22T15:41:53-07:00	2020-04-22T23:05:36+00:00	2020-04-25T06:59:59+00:00	-3	63rpy0xvpl018ht@marketplace.amazon.com	lucy kelly-cohen	+347.261-5362	ABR0033	Arabella Bouquets | Purchase by 11.30 AM EST Friday | Delivery on Monday | Bouquet of 12 Fresh Cut Orange Roses	1	0	1	Expedited	Lupe Tucuri	3808 100TH ST			CORONA	NY	11368-1849	US		Enjoy your gift! From 2xLL’s ❤️	false		
112-8131931-6793042	58607522433698	2020-04-22T22:48:39+00:00	2020-04-22T15:48:39-07:00	2020-04-22T23:18:09+00:00	2020-04-25T06:59:59+00:00	-3	szl98p5t2lfkdky@marketplace.amazon.com	Jeff ross	+1 314-282-9402 ext. 16829	ABM010	Arabella Farm Direct Fields of The World Bouquet of Fresh Cut Flowers with a Free Glass Vase	1	0	1	Expedited	Maryjo Pollack	951 W ORANGE GROVE RD APT 21-101			TUCSON	AZ	85704-4055	US		Hi Maryjo, Please don’t eat the daisys.  Happy birthday!1 From Vuff	false		
114-4712877-4341845	50483748547922	2020-04-22T23:29:17+00:00	2020-04-22T16:29:17-07:00	2020-04-22T23:58:45+00:00	2020-04-25T06:59:59+00:00	-3	l51jgzdqs3rd6cq@marketplace.amazon.com	Amy	+1 314-282-9402 ext. 07660	ABM010	Arabella Farm Direct Fields of The World Bouquet of Fresh Cut Flowers with a Free Glass Vase	1	0	1	Expedited	Susie Pappas	5130 PONVALLEY RD			BLOOMFIELD HILLS	MI	48302-2818	US		Thank you for letting us come take refuge at the house in Florida! It’s been exactly what was needed during this time! So appreciate it. Love you both very much!! From Amy	false		
113-1860202-2236267	21940069258578	2020-04-22T23:29:03+00:00	2020-04-22T16:29:03-07:00	2020-04-22T23:59:27+00:00	2020-04-25T06:59:59+00:00	-3	8xtzvv63g96ft0x@marketplace.amazon.com	Stanley Kornblum	+1 314-282-9402 ext. 89897	ABR012	Arabella Bouquets | Purchase by 11.30 AM EST Friday | Delivery on Monday | Bouquet of 18 Fresh Cut Pink Roses	1	0	1	Expedited	stanley kornblum	8106 ROSSINI WAY			LAKE WORTH	FL	33467-7094	US			false		
112-5289144-3973065	23501832281082	2020-04-22T23:35:45+00:00	2020-04-22T16:35:45-07:00	2020-04-23T00:02:56+00:00	2020-04-28T06:59:59+00:00	-6	zd7py35bcnsxpps@marketplace.amazon.com	Paula	+1 314-282-9402 ext. 12300	ABM0044	Arabella Farm Direct Bouquet of Fresh Cut Blue Hydrangea with a Free Glass Vase	1	0	1	Expedited	Linda Berlin	300 HARRISON AVE UNIT 228			BOSTON	MA	02118-2823	US		Happy 75th Birthday, Mom!  We will celebrate properly at our next patio party. Cheers 🥂 From Love you, Jim and Paula	false		
112-0454767-0352225	09295993462714	2020-04-22T23:37:38+00:00	2020-04-22T16:37:38-07:00	2020-04-23T00:07:03+00:00	2020-04-28T06:59:59+00:00	-6	mh6dd4s8fcs2kw5@marketplace.amazon.com	Ursula	+1 347-448-3190 ext. 28527	ABR0022	Arabella Bouquets | Purchase by 11.30 AM EST Friday | Delivery on Monday | Bouquet of 12 Fresh Cut Pink Roses	1	0	1	Expedited	Donna Voye	4464 LAKESHORE TER			EAGAN	MN	55122-2474	US		Hi Donna, Thank you very much for everything. Here is a little color to brighten your day. From Ursula	false		
112-6714114-2260238	08392230404386	2020-04-22T23:52:13+00:00	2020-04-22T16:52:13-07:00	2020-04-23T00:23:08+00:00	2020-04-28T06:59:59+00:00	-6	d2q8f0c3lrgnblw@marketplace.amazon.com	Roy Davis	+1 314-282-9402 ext. 96489	ABR0022	Arabella Bouquets | Purchase by 11.30 AM EST Friday | Delivery on Monday | Bouquet of 12 Fresh Cut Pink Roses	1	0	1	Expedited	Roy Davis	4100 DUCK POND CT			WINSTON SALEM	NC	27107-6976	US			false		
114-0239972-4601004	54683852494066	2020-04-23T00:05:32+00:00	2020-04-22T17:05:32-07:00	2020-04-23T00:35:17+00:00	2020-04-25T06:59:59+00:00	-3	nf8qdpbp57tnyb5@marketplace.amazon.com	James I. Sevier	+1 314-282-9402 ext. 77651	ABM010	Arabella Farm Direct Fields of The World Bouquet of Fresh Cut Flowers with a Free Glass Vase	1	0	1	Expedited	Jackie Mendoza	225 PALOMAR ST APT 1			CHULA VISTA	CA	91911-4205	US			false		
111-1867596-1779405	51415254274450	2020-04-23T00:12:53+00:00	2020-04-22T17:12:53-07:00	2020-04-23T00:38:19+00:00	2020-04-28T06:59:59+00:00	-6	z1vglgkgk555plw@marketplace.amazon.com	Yusuke Fujino	+1 314-282-9402 ext. 18139	ABR0022	Arabella Bouquets | Purchase by 11.30 AM EST Friday | Delivery on Monday | Bouquet of 12 Fresh Cut Pink Roses	1	0	1	Standard	Yusuke Fujino	444 SARATOGA AVE APT 12G			SANTA CLARA	CA	95050-7051	US		First wedding anniversary!!! 05/01/2020 from Yusuke	false		
113-7862336-9026619	31877391596826	2020-04-23T00:14:49+00:00	2020-04-22T17:14:49-07:00	2020-04-23T00:44:53+00:00	2020-04-28T06:59:59+00:00	-6	d6nqp1wspq2m1zr@marketplace.amazon.com	Bryce Brown	+1 347-448-3190 ext. 57653	ABR0022	Arabella Bouquets | Purchase by 11.30 AM EST Friday | Delivery on Monday | Bouquet of 12 Fresh Cut Pink Roses	1	0	1	Expedited	Eugenia Soulier	6560 PONTO DR UNIT 24			CARLSBAD	CA	92011-2301	US			false		
112-2816654-1761031	05867579882802	2020-04-23T01:08:02+00:00	2020-04-22T18:08:02-07:00	2020-04-23T01:29:42+00:00	2020-04-25T06:59:59+00:00	-3	q5q528zxcsd49gx@marketplace.amazon.com	John Curzon	+1 347-448-3190 ext. 52487	ABM010	Arabella Farm Direct Fields of The World Bouquet of Fresh Cut Flowers with a Free Glass Vase	1	0	1	Expedited	JULIE WHITWORTH	2909 RAMADA DR			BILLINGS	MT	59102-0732	US		Hi JULIE,  WE LOVE YOU AND ARE WISHING YOU A WONDERFUL WEEK    MAMA AND JOHN	false		
113-0598107-6687444	33794272193002	2020-04-23T01:15:35+00:00	2020-04-22T18:15:35-07:00	2020-04-23T01:43:25+00:00	2020-04-25T06:59:59+00:00	-3	g06zzl7rnz4yvj7@marketplace.amazon.com	Kim White	+1 314-282-9402 ext. 02268	ABR012	Arabella Bouquets | Purchase by 11.30 AM EST Friday | Delivery on Monday | Bouquet of 18 Fresh Cut Pink Roses	1	0	1	Expedited	Meena Rumao	1353 CROWNDALE LN			CANTON	MI	48188-6211	US		Dear Meena, Happy Birthday to you on your special day! Wishing you blessings in the year ahead! Sending Love, Kim	false		
114-2066138-4209845	66098838337146	2020-04-23T01:17:25+00:00	2020-04-22T18:17:25-07:00	2020-04-23T01:45:09+00:00	2020-04-28T06:59:59+00:00	-6	17rkm6ws603gc2x@marketplace.amazon.com	Rebecca Walsh	+1 210-728-4548 ext. 79338	ABR0022	Arabella Bouquets | Purchase by 11.30 AM EST Friday | Delivery on Monday | Bouquet of 12 Fresh Cut Pink Roses	1	0	1	Expedited	Margaret McMurtagh	4276 ARBOR CLUB DR			MARIETTA	GA	30066-2200	US		Congratulations, Margaret!!!   Love, Rebecca, Karen, Vivian, and Angela From Rebecca Walsh	false		
111-5750395-7691436	34649718688906	2020-04-23T02:04:48+00:00	2020-04-22T19:04:48-07:00	2020-04-23T02:29:58+00:00	2020-04-28T06:59:59+00:00	-6	dq20pf4d90kh23f@marketplace.amazon.com	Tyler	+1 314-282-9402 ext. 08222	ABR0022	Arabella Bouquets | Purchase by 11.30 AM EST Friday | Delivery on Monday | Bouquet of 12 Fresh Cut Pink Roses	1	0	1	Standard	Cathy Frazer	442 HIGHLANDS CIR			ERIE	CO	80516-2670	US			false		
112-5295703-6554637	49666883926538	2020-04-23T02:19:42+00:00	2020-04-22T19:19:42-07:00	2020-04-23T02:46:18+00:00	2020-04-25T06:59:59+00:00	-3	wx7khfjhdf1qm34@marketplace.amazon.com	gosia	+1 347-448-3190 ext. 90572	ABR0033	Arabella Bouquets | Purchase by 11.30 AM EST Friday | Delivery on Monday | Bouquet of 12 Fresh Cut Orange Roses	1	0	1	Expedited	Lidia Liszkiewicz	81 COLUMBIA ST APT 20 A			NEW YORK	NY	10002-2641	US		Dear Lidzia,  Thank you for taking care of William and helping us in this challenging time.  With love, William, Gosia & Raj	false		
112-8016884-4850614	30722985464482	2020-04-23T02:27:04+00:00	2020-04-22T19:27:04-07:00	2020-04-23T02:52:28+00:00	2020-04-28T06:59:59+00:00	-6	hs0ysyd3m42b8p9@marketplace.amazon.com	Jacqueline Hendricks	+1 210-728-4548 ext. 70713	ABR0022	Arabella Bouquets | Purchase by 11.30 AM EST Friday | Delivery on Monday | Bouquet of 12 Fresh Cut Pink Roses	1	0	1	Expedited	Mary Lee Carter	4 IVY STONE CT SE			CARTERSVILLE	GA	30120-2003	US		Today and always you are in our prayers.  We Love You! From Mary and Jackie	false		
113-2660486-2781868	69243286554266	2020-04-23T02:38:24+00:00	2020-04-22T19:38:24-07:00	2020-04-23T03:01:50+00:00	2020-04-28T06:59:59+00:00	-6	zl46kj9h0njyhwb@marketplace.amazon.com	Tina Cortina	+1 347-448-3190 ext. 93741	ABR0022	Arabella Bouquets | Purchase by 11.30 AM EST Friday | Delivery on Monday | Bouquet of 12 Fresh Cut Pink Roses	1	0	1	Expedited	Teresa Marini	16 HIGH MEADOW RD			TRUMBULL	CT	06611-2637	US		Happy Birthday ZiZi Teresa  Enjoy your day !!!!  Love always Justin and Tina From Tina Cortina	false		
112-8920296-0677060	56556756841842	2020-04-23T02:38:37+00:00	2020-04-22T19:38:37-07:00	2020-04-23T03:09:03+00:00	2020-04-25T06:59:59+00:00	-3	p61lx18jh0rdg77@marketplace.amazon.com	Marie Covin	+1 314-282-9402 ext. 29519	ABR012	Arabella Bouquets | Purchase by 11.30 AM EST Friday | Delivery on Monday | Bouquet of 18 Fresh Cut Pink Roses	1	0	1	Expedited	Marie Covin	2601 Cameo Crt			Bakersfield	CA	93304	US			false		
114-9596285-3171411	32280148679162	2020-04-23T03:02:44+00:00	2020-04-22T20:02:44-07:00	2020-04-23T03:31:08+00:00	2020-04-25T06:59:59+00:00	-3	k51y2tgy01vwltk@marketplace.amazon.com	V P Winterscheidt	+1 210-728-4548 ext. 31063	ABR0055	Arabella Bouquets | Purchase by 11.30 AM EST Friday | Delivery on Monday | Bouquet of 12 Fresh Cut Hot Pink Roses	1	0	1	Expedited	Janine Funk	2639 AGUILAR DR			TRINIDAD	CO	81082-3903	US		Dearest Janine, Sending lots of love to you on your birthday and on every day! We send love and hugs! Love, Christy, Linda, Mary, and Vicky	false		
