order-id	order-item-id	purchase-date	payments-date	reporting-date	promise-date	days-past-promise	buyer-email	buyer-name	buyer-phone-number	sku	product-name	quantity-purchased	quantity-shipped	quantity-to-ship	ship-service-level	recipient-name	ship-address-1	ship-address-2	ship-address-3	ship-city	ship-state	ship-postal-code	ship-country	gift-wrap-type	gift-message-text	is-business-order	purchase-order-number	price-designation
114-0365401-2705063	55982953289114	2020-04-23T22:41:13+00:00	2020-04-23T15:41:13-07:00	2020-04-23T23:11:40+00:00	2020-04-28T06:59:59+00:00	-3	19n8mjyh0dp614n@marketplace.amazon.com	sophia	+1 314-282-9402 ext. 83957	ABR0055	Arabella Bouquets | Purchase by 11.30 AM EST Friday | Delivery on Monday | Bouquet of 12 Fresh Cut Hot Pink Roses	1	0	1	Expedited	Tom Damore	3620 3RD AVE UNIT 205	TREVIS VILLA		SAN DIEGO	CA	92103-4144	US			false		
113-5152689-5799406	45568730207946	2020-04-24T13:57:09+00:00	2020-04-24T06:57:09-07:00	2020-04-24T14:23:02+00:00	2020-04-29T06:59:59+00:00	-4	lzbk17gptpghwhp@marketplace.amazon.com	Maya Fritz	+1 347-448-3190 ext. 81964	ABR0033	Arabella Bouquets | Purchase by 11.30 AM EST Friday | Delivery on Monday | Bouquet of 12 Fresh Cut Orange Roses	1	0	1	Expedited	Maya Fritz	15426 WILKSHIRE CT			HOUSTON	TX	77069-1551	US		Love you Fufu and Margaux From Maya	false		
113-4136962-5604252	35621402373434	2020-04-24T15:02:03+00:00	2020-04-24T08:02:03-07:00	2020-04-24T15:30:33+00:00	2020-04-29T06:59:59+00:00	-4	g38myl0lbchxnj9@marketplace.amazon.com	supraja	+1 210-728-4548 ext. 06753	ABM010	Arabella Farm Direct Fields of The World Bouquet of Fresh Cut Flowers with a Free Glass Vase	1	0	1	Standard	Susan Bogan	1056 S HEINCKE RD			MIAMISBURG	OH	45342-3859	US		Dear Susan, Happy Birthday. God Bless you!!! Love, Priyanka	false		
113-3058147-5688247	43030799245930	2020-04-24T15:31:27+00:00	2020-04-24T08:31:27-07:00	2020-04-24T16:01:51+00:00	2020-04-29T06:59:59+00:00	-4	5phy94vtrzzy0d0@marketplace.amazon.com	Dalia Zia	+1 210-728-4548 ext. 48507	ABR011	Arabella Bouquets | Purchase by 8 AM EST Saturday | Delivery on Tuesday | Bouquet of 18 Fresh Cut Red Roses	1	0	1	Expedited	Jawad Marzook	18373 W 13 MILE RD APT 24			SOUTHFIELD	MICHIGAN	48076-8023	US			false		
112-4938151-0354656	19962979573722	2020-04-24T15:35:06+00:00	2020-04-24T08:35:06-07:00	2020-04-24T16:02:09+00:00	2020-04-30T06:59:59+00:00	-5	p47cvw2nbkzw3pz@marketplace.amazon.com	Kevin Bess	+1 347-448-3190 ext. 56898	ABR0022	Arabella Bouquets | Purchase by 8 AM EST Saturday | Delivery on Tuesday | Bouquet of 12 Fresh Cut Pink Roses	1	0	1	Standard	Virginia Walker	402 PINEFIELD PL			THOMASVILLE	NC	27360-3245	US			false		
112-1106654-9775412	57556955265730	2020-04-24T15:37:05+00:00	2020-04-24T08:37:05-07:00	2020-04-24T16:05:31+00:00	2020-04-29T06:59:59+00:00	-4	52yq98m27lsj8hb@marketplace.amazon.com	vanessa conger	+1 347-448-3190 ext. 69676	ABR0066	Arabella Bouquets | Purchase by 8 AM EST Saturday | Delivery on Tuesday | Bouquet of 12 Fresh Cut White Roses	1	0	1	Expedited	kiesz	739 RIVERLAKE WAY			SACRAMENTO	CA	95831-1124	US		Alissa, Enjoy. From vanessa conger	false		
114-6510925-8975425	43519869957394	2020-04-24T15:33:19+00:00	2020-04-24T08:33:19-07:00	2020-04-24T16:06:06+00:00	2020-04-29T06:59:59+00:00	-4	kwkswvw97nz83jq@marketplace.amazon.com	J. Gipson	+1 314-282-9402 ext. 13279	ABM010	Arabella Farm Direct Fields of The World Bouquet of Fresh Cut Flowers with a Free Glass Vase	1	0	1	Expedited	Chelsea Johnson and Kids	2440 ORSOTA CIR			OCOEE	FL	34761-5002	US		You are thought of and loved!!! From Your sisters, Jen and Chantel	false		
111-1158009-3702645	57678667842610	2020-04-24T15:39:02+00:00	2020-04-24T08:39:02-07:00	2020-04-24T16:09:11+00:00	2020-04-29T06:59:59+00:00	-4	4ljf1t3cl4k91fq@marketplace.amazon.com	karen barnard	+1 210-728-4548 ext. 40157	ABM006	Arabella Farm Direct Bouquet of Fresh Cut Yellow Lilies with a Free Glass Vase	1	0	1	Expedited	Karen E Barnard	443 Old Surrey Rd			Hinsdale	Il	60521	US			false		
111-5782322-0137859	20791340686274	2020-04-24T15:46:34+00:00	2020-04-24T08:46:34-07:00	2020-04-24T16:17:06+00:00	2020-04-30T06:59:59+00:00	-5	5twl917n40p7rxq@marketplace.amazon.com	Amy Harris	6179095812Sirrah Har	ABR0022	Arabella Bouquets | Purchase by 8 AM EST Saturday | Delivery on Tuesday | Bouquet of 12 Fresh Cut Pink Roses	1	0	1	Expedited	Sirrah Harris	3343 CRESCENT ST APT 1L			ASTORIA	NY	11106-3802	US			false		
114-3173565-0163450	03612533868314	2020-04-24T15:43:04+00:00	2020-04-24T08:43:04-07:00	2020-04-24T16:19:00+00:00	2020-04-30T06:59:59+00:00	-5	sqgqg9p0lyscdff@marketplace.amazon.com	Paula Ghanem	+1 412-532-4665 ext. 64299	ABR0022	Arabella Bouquets | Purchase by 8 AM EST Saturday | Delivery on Tuesday | Bouquet of 12 Fresh Cut Pink Roses	1	0	1	Standard	Carla Ghanem	2333 E SOUTHERN AVE UNIT 1085			TEMPE	AZ	85282-7642	US			false		
111-9166743-2679400	19633558707154	2020-04-24T15:54:00+00:00	2020-04-24T08:54:00-07:00	2020-04-24T16:19:06+00:00	2020-04-29T06:59:59+00:00	-4	tq1plyyzt6k5ml6@marketplace.amazon.com	Linda Gurak	+1 210-728-4548 ext. 89083	ABM006	Arabella Farm Direct Bouquet of Fresh Cut Yellow Lilies with a Free Glass Vase	1	0	1	Expedited	Jane Knigge	AMITA ST JOSEPH MEDICAL CENTER JOLIET	333 MADISON ST RM 926		JOLIET	IL	60435-8200	US		Hi Jane, Hope you are home soon. Love, Roger	false		
113-5110965-4731464	15268141179394	2020-04-24T16:01:23+00:00	2020-04-24T09:01:23-07:00	2020-04-24T16:29:04+00:00	2020-04-30T06:59:59+00:00	-5	8mbn32sd9xlhl1j@marketplace.amazon.com	Audrey Barbarotta	+1 210-728-4548 ext. 88713	ABM002	Arabella Farm Direct Bouquet of Fresh Cut White Calla Lilies with a Free Glass Vase	1	0	1	Expedited	Dori Rivers	15824 BEREA DR			ODESSA	FL	33556-3040	US		Dori, just wanted you to know how much I respect, admire & love you! From always, Aud xoxo	false		
112-9797990-8853057	14332733024242	2020-04-24T15:55:56+00:00	2020-04-24T08:55:56-07:00	2020-04-24T16:29:05+00:00	2020-04-29T06:59:59+00:00	-4	jg16ptsvyzj1cmx@marketplace.amazon.com	Amie	+1 347-448-3190 ext. 71962	ABR0033	Arabella Bouquets | Purchase by 8 AM EST Saturday | Delivery on Tuesday | Bouquet of 12 Fresh Cut Orange Roses	1	0	1	Expedited	Amie Kohl	245 EL RIO DR			YAKIMA	WA	98908-8968	US			false		
111-3870786-8329040	30496511396058	2020-04-24T16:10:08+00:00	2020-04-24T09:10:08-07:00	2020-04-24T16:31:46+00:00	2020-04-30T06:59:59+00:00	-5	ymrnhlxzm8w3krh@marketplace.amazon.com	Colleen Moore	+1 314-282-9402 ext. 66304	ABR0022	Arabella Bouquets | Purchase by 8 AM EST Saturday | Delivery on Tuesday | Bouquet of 12 Fresh Cut Pink Roses	1	0	1	Expedited	Carol Anne Chupak	29 VAN DUYNE AVE			WAYNE	NJ	07470-4704	US		Dear Carol Anne, Sending our deepest condolences on the loss of your father. Love, The CTC Sunshine Committee	false		
112-6691854-3574600	15655664639162	2020-04-24T16:39:28+00:00	2020-04-24T09:39:28-07:00	2020-04-24T16:40:20+00:00	2020-04-29T06:59:59+00:00	-4	r5b1lr3h6mqljyb@marketplace.amazon.com	nikki	+1 210-728-4548 ext. 95159	ABR0055	Arabella Bouquets | Purchase by 11.30 AM EST Friday | Delivery on Monday | Bouquet of 12 Fresh Cut Hot Pink Roses	1	0	1	Expedited	Debbie Bailey	9 BRADFORD PLACE DR			MADEIRA	OH	45243-2455	US		So glad your surgery went well. Now get better soon! We love you! From Andy, Jack + Nikki	false		
114-8789109-6998637	64526973302730	2020-04-24T16:14:56+00:00	2020-04-24T09:14:56-07:00	2020-04-24T16:43:39+00:00	2020-04-30T06:59:59+00:00	-5	b5w8d8hltsdckcc@marketplace.amazon.com	Marianne Carpenter	+1 347-448-3190 ext. 41221	ABR0022	Arabella Bouquets | Purchase by 8 AM EST Saturday | Delivery on Tuesday | Bouquet of 12 Fresh Cut Pink Roses	1	0	1	Expedited	Honey mcdounough	33 UNION ST			WOBURN	MA	01801-4260	US		Enjoy your gift! Happy mothers day aunty honey  love mary bob bj kate and baby fox From Marianne Carpenter	false		
111-2607393-5432245	36153240725130	2020-04-24T16:21:22+00:00	2020-04-24T09:21:22-07:00	2020-04-24T16:47:29+00:00	2020-04-29T06:59:59+00:00	-4	n0pstx0m2d154xg@marketplace.amazon.com	Lacey Hall	+1 347-448-3190 ext. 73008	ABR012	Arabella Bouquets | Purchase by 8 AM EST Saturday | Delivery on Tuesday | Bouquet of 18 Fresh Cut Pink Roses	1	0	1	Standard	Janet Henery	1016 LILY PAD			LEANDER	TX	78641-1993	US		We love you, Gigi! From Audrey and Henry	false		
113-5559129-3680262	02624463961834	2020-04-24T16:22:20+00:00	2020-04-24T09:22:20-07:00	2020-04-24T16:50:40+00:00	2020-04-30T06:59:59+00:00	-5	vkhntj5d737gn1r@marketplace.amazon.com	Encarnacion Juarez	+1 347-448-3190 ext. 37627	ABR0022	Arabella Bouquets | Purchase by 8 AM EST Saturday | Delivery on Tuesday | Bouquet of 12 Fresh Cut Pink Roses	1	0	1	Expedited	Clara Juarez	1400 S 2ND ST APT A810			MINNEAPOLIS	MN	55454-2068	US		Hola Clara, Enhorabuena por tu examen y dedicación, disfruta estas flores mientras salgan los geranios.  Un fuerte abrazo y mucho cariño de Encarna y Robert From Encarnacion Juarez	false		
113-3697058-1505054	46147081481050	2020-04-24T16:22:53+00:00	2020-04-24T09:22:53-07:00	2020-04-24T16:50:47+00:00	2020-04-30T06:59:59+00:00	-5	bcks2354xkn3ppf@marketplace.amazon.com	Tricia Budig	+1 347-448-3190 ext. 60333	ABR0022	Arabella Bouquets | Purchase by 8 AM EST Saturday | Delivery on Tuesday | Bouquet of 12 Fresh Cut Pink Roses	1	0	1	Standard	Charles Brennan	607 COUNTRY CLUB DR			BLOOMSBURG	PA	17815-8529	US		Happy Mother's Day!  Love, Terry and Trish	false		
112-9232384-1669066	43501295588106	2020-04-24T16:29:32+00:00	2020-04-24T09:29:32-07:00	2020-04-24T16:51:48+00:00	2020-04-30T06:59:59+00:00	-5	tfcgsx6mf8cg62j@marketplace.amazon.com	eleanor f. minor	+1 347-448-3190 ext. 15772	ABR0022	Arabella Bouquets | Purchase by 8 AM EST Saturday | Delivery on Tuesday | Bouquet of 12 Fresh Cut Pink Roses	1	0	1	Expedited	Renie Violet Pauley	19025 NY STATE ROUTE 177			ADAMS CENTER	NEW YORK	13606-2207	US		Dear Renie,   Love you very much!  It's so much fun getting to talk to you on the phone!   You take good care of yourself!   Your Sis, Eleanor☺	false		
114-3742227-7932212	46007956396202	2020-04-24T16:29:38+00:00	2020-04-24T09:29:38-07:00	2020-04-24T16:57:39+00:00	2020-04-29T06:59:59+00:00	-4	1st87fpwqdy75ds@marketplace.amazon.com	Wende Eckard	+1 314-282-9402 ext. 24157	ABR0033	Arabella Bouquets | Purchase by 8 AM EST Saturday | Delivery on Tuesday | Bouquet of 12 Fresh Cut Orange Roses	1	0	1	Expedited	Christine Koltas	16206 BANCROFT CIR			OMAHA	NE	68130-1845	US		Happy Birthday CK! Love you, sister  XOXOXO - Wende From Wende Eckard	false		
113-9685763-8344269	27162133387274	2020-04-24T16:35:24+00:00	2020-04-24T09:35:24-07:00	2020-04-24T17:03:58+00:00	2020-04-30T06:59:59+00:00	-5	r15jsypv88ncbt4@marketplace.amazon.com	Meredith Watkins	+1 210-728-4548 ext. 15986	ABR0022	Arabella Bouquets | Purchase by 8 AM EST Saturday | Delivery on Tuesday | Bouquet of 12 Fresh Cut Pink Roses	1	0	1	Expedited	Betty Hudson	116 REDONDO DR			GUN BARREL CITY	TX	75156-3622	US		Amom, we are so proud of you for your strength and faithfulness during this battle with cancer. You did it!! We are so grateful you are HEALTHY and pray you always stay that way. All of our love, Mere & Bennett	false		
111-3599625-4897044	51759176449306	2020-04-24T16:44:55+00:00	2020-04-24T09:44:55-07:00	2020-04-24T17:13:43+00:00	2020-04-30T06:59:59+00:00	-5	kj8fkhnp378r3rs@marketplace.amazon.com	Jim	+1 347-448-3190 ext. 74977	ABR0022	Arabella Bouquets | Purchase by 8 AM EST Saturday | Delivery on Tuesday | Bouquet of 12 Fresh Cut Pink Roses	1	0	1	Expedited	Meg Finebeck	1321 SW 127TH TER			DAVIE	FL	33325-5564	US			false		
114-5671506-8029012	09931212860754	2020-04-24T16:54:14+00:00	2020-04-24T09:54:14-07:00	2020-04-24T17:18:34+00:00	2020-04-29T06:59:59+00:00	-4	fz376j18rcnm1g3@marketplace.amazon.com	mary pattyn	+1 347-448-3190 ext. 58126	ABM010	Arabella Farm Direct Fields of The World Bouquet of Fresh Cut Flowers with a Free Glass Vase	1	0	1	Expedited	Mrs Rita Duffy	BENCHMARK ASSISTED LIVING AT PLYMOUTH CROSSING	157 SOUTH ST APT 208		PLYMOUTH	MA	02360-7620	US		Rita,  We hope these add smile your day! Please know we are thinking about you everyday and praying that you stay well. We Love you. Love  Josh, Mary Esther, Claire and Grace Pattyn.	false		
111-3458226-4554606	04571188746338	2020-04-24T16:50:26+00:00	2020-04-24T09:50:26-07:00	2020-04-24T17:19:24+00:00	2020-04-29T06:59:59+00:00	-4	ct5b1gdzfrj2lxm@marketplace.amazon.com	donna	+1 210-728-4548 ext. 70139	ABR004	Arabella Farm Direct Bouquet of 12 Fresh Cut Yellow Roses with a Free Glass Vase	1	0	1	Expedited	Dick Fox	4311 COUNTY ROAD 2234			GREENVILLE	TX	75402-5028	US		Dick— You have our deepest sympathy.  Dan and Donna Perkins From donna	false		
111-8756898-4269800	05196603822058	2020-04-24T16:53:36+00:00	2020-04-24T09:53:36-07:00	2020-04-24T17:21:40+00:00	2020-04-29T06:59:59+00:00	-4	ct5b1gdzfrj2lxm@marketplace.amazon.com	donna	+1 347-448-3190 ext. 17480	ABR004	Arabella Farm Direct Bouquet of 12 Fresh Cut Yellow Roses with a Free Glass Vase	1	0	1	Expedited	Tom and Geneva Browning	3137 FM 903			GREENVILLE	TX	75401-7553	US		Geneva and Tom These flowers are in honor of your family. All are in our prayers. From Dan and Donna Perkins	false		
111-3380249-9277063	29853074818130	2020-04-24T17:08:13+00:00	2020-04-24T10:08:13-07:00	2020-04-24T17:35:35+00:00	2020-04-30T06:59:59+00:00	-5	q422vv0f9m5l84y@marketplace.amazon.com	Lori Hayden	+1 347-448-3190 ext. 82824	ABR0022	Arabella Bouquets | Purchase by 8 AM EST Saturday | Delivery on Tuesday | Bouquet of 12 Fresh Cut Pink Roses	1	0	1	Standard	Donna Willoughby	GUARDIAN ANGEL HOMES COTTAGE	245 VAN GIESEN ST		RICHLAND	WA	99354-2691	US		Happy Mother’s Day Mom, I love you so much and I wish I could be there to celebrate with you! See you soon I hope! Love you From Lori And Greg	false		
112-5968157-8081033	02417200064186	2020-04-24T17:11:16+00:00	2020-04-24T10:11:16-07:00	2020-04-24T17:39:02+00:00	2020-04-30T06:59:59+00:00	-5	2667k7mw8hthx5y@marketplace.amazon.com	Kim Geller	+1 347-448-3190 ext. 06844	ABR0022	Arabella Bouquets | Purchase by 8 AM EST Saturday | Delivery on Tuesday | Bouquet of 12 Fresh Cut Pink Roses	1	0	1	Expedited	Michael Geller	1081 LAMBERT RD			TEANECK	NJ	07666-2721	US		Happy Mother's Day! Sending all our Love, The Jenney's - Kim, Ken, Lia, and Mando	false		
112-6575448-6000223	37285942229586	2020-04-24T17:21:37+00:00	2020-04-24T10:21:37-07:00	2020-04-24T17:48:50+00:00	2020-04-30T06:59:59+00:00	-5	dpht11k795rj3th@marketplace.amazon.com	Patricia M. Dillon	+1 412-532-4665 ext. 71146	ABR0022	Arabella Bouquets | Purchase by 8 AM EST Saturday | Delivery on Tuesday | Bouquet of 12 Fresh Cut Pink Roses	1	0	1	Expedited	Kathy P. Mone	740 GARDEN ST			HOBOKEN	NJ	07030-4004	US			false		
111-4732727-0384224	51016494697786	2020-04-24T17:19:40+00:00	2020-04-24T10:19:40-07:00	2020-04-24T17:49:03+00:00	2020-04-30T06:59:59+00:00	-5	q422vv0f9m5l84y@marketplace.amazon.com	Lori Hayden	+1 314-282-9402 ext. 41324	ABR0022	Arabella Bouquets | Purchase by 8 AM EST Saturday | Delivery on Tuesday | Bouquet of 12 Fresh Cut Pink Roses	1	0	1	Standard	Lorna Hayden	1112 MCMURRAY ST			RICHLAND	WA	99354-2120	US		Happy mothers day,  we are hoping to see you soon.  Love you, From Greg and Lori	false		
111-1111388-6776245	08112795414674	2020-04-24T17:32:51+00:00	2020-04-24T10:32:51-07:00	2020-04-24T17:59:28+00:00	2020-04-29T06:59:59+00:00	-4	yvrncngf52c1cy6@marketplace.amazon.com	jessica bello	+1 210-728-4548 ext. 24018	ABR012	Arabella Bouquets | Purchase by 8 AM EST Saturday | Delivery on Tuesday | Bouquet of 18 Fresh Cut Pink Roses	1	0	1	Expedited	Melissa Bello	425 78TH ST  2FLOOR			NORTH BERGEN	NJ	07047-5523	US		Happy Birthday I love you so much.God will always bless your beautiful soul. From jessica bello	false		
113-7009943-5538646	21475015246050	2020-04-24T17:31:58+00:00	2020-04-24T10:31:58-07:00	2020-04-24T18:01:03+00:00	2020-04-30T06:59:59+00:00	-5	8b9gkjjhht8l4y0@marketplace.amazon.com	Lesli  Klein		ABR0022	Arabella Bouquets | Purchase by 8 AM EST Saturday | Delivery on Tuesday | Bouquet of 12 Fresh Cut Pink Roses	1	0	1	Expedited	Zoe klein	294 CABOT ST			NEWTONVILLE	MA	02460-2264	US			false		
114-7775854-2086665	04019905270946	2020-04-24T17:32:38+00:00	2020-04-24T10:32:38-07:00	2020-04-24T18:01:33+00:00	2020-04-30T06:59:59+00:00	-5	2xv3rrkrxpljw6j@marketplace.amazon.com	Jamie cowan	+1 347-448-3190 ext. 93045	ABR0022	Arabella Bouquets | Purchase by 8 AM EST Saturday | Delivery on Tuesday | Bouquet of 12 Fresh Cut Pink Roses	1	0	1	Standard	Sheila Cowan	249 PRIVATE ROAD 8000			JASPER	TX	75951-7601	US		Happy Mother's Day! I love you soooo much! I wish I could be there and hug you!  love, Jamie	false		
112-4939034-5752201	41029033541346	2020-04-24T17:49:48+00:00	2020-04-24T10:49:48-07:00	2020-04-24T18:17:08+00:00	2020-04-29T06:59:59+00:00	-4	nn5rv4g1rp3lk3j@marketplace.amazon.com	Peggy S Thompson	+1 314-282-9402 ext. 25592	ABR012	Arabella Bouquets | Purchase by 8 AM EST Saturday | Delivery on Tuesday | Bouquet of 18 Fresh Cut Pink Roses	1	0	1	Expedited	Helene Roberson	117 KEY COLONY CT			DAYTONA BEACH SHORES	FL	32118-5650	US		Helene, Wishing you the happiest of birthdays and many, many more. Much Love, Sue and Bert	false		
114-3416309-5272236	01955209393586	2020-04-24T17:57:53+00:00	2020-04-24T10:57:53-07:00	2020-04-24T18:19:16+00:00	2020-04-29T06:59:59+00:00	-4	1vt8bj6n3mwdpnj@marketplace.amazon.com	lisa orkney	+1 210-728-4548 ext. 81055	ABM010	Arabella Farm Direct Fields of The World Bouquet of Fresh Cut Flowers with a Free Glass Vase	1	0	1	Expedited	Joan deane	46 CARVER ST			BANGOR	ME	04401-6011	US		Hi Joan!  Thinking of you and wishing you happiness!    Love,   Lisa and Kevin 💞	false		
114-5004805-2885813	10572712919354	2020-04-24T17:58:44+00:00	2020-04-24T10:58:44-07:00	2020-04-24T18:23:34+00:00	2020-04-30T06:59:59+00:00	-5	6mtxk9gqd6pw05r@marketplace.amazon.com	Cathy	+1 314-282-9402 ext. 83965	ABR0022	Arabella Bouquets | Purchase by 8 AM EST Saturday | Delivery on Tuesday | Bouquet of 12 Fresh Cut Pink Roses	1	0	1	Expedited	Xingyu Lu	84 THORNAPPLE			IRVINE	CA	92620-3337	US		Happy birthday my sweetheart From Cathy	false		
113-2161391-1805803	08283475780810	2020-04-24T17:55:54+00:00	2020-04-24T10:55:54-07:00	2020-04-24T18:23:41+00:00	2020-04-29T06:59:59+00:00	-4	531jq8r3bdcjfr9@marketplace.amazon.com	Cindy Foltz	+1 347-448-3190 ext. 06224	ABR0033	Arabella Bouquets | Purchase by 8 AM EST Saturday | Delivery on Tuesday | Bouquet of 12 Fresh Cut Orange Roses	1	0	1	Expedited	Brianna Breshears	17675 BUTTEVILLE RD NE			WOODBURN	OR	97071-8436	US		Brianna - No Instagram/FB post please  Cause some times you just need some flippin roses!  Love you to moon and back	false		
111-6361139-7141834	40574827810530	2020-04-24T18:00:21+00:00	2020-04-24T11:00:21-07:00	2020-04-24T18:26:10+00:00	2020-04-25T06:59:59+00:00	0	vpcbgpzj5v6b15q@marketplace.amazon.com	Prakash Kasiraj	+1 210-728-4548 ext. 17734	ABR001	Arabella Bouquets | Purchase by 8 AM EST Saturday | Delivery on Tuesday | Bouquet of 12 Fresh Cut Red Roses	1	0	1	SecondDay	Prakash Kasiraj	1787 DELAWARE ST			SOUTH LAKE TAHOE	CA	96150-5384	US		Laurie,   I'm always here for you.  Lean on me! Love you very much, Prakash	false		
112-8608947-7164267	15683083745194	2020-04-24T18:09:14+00:00	2020-04-24T11:09:14-07:00	2020-04-24T18:28:23+00:00	2020-04-25T06:59:59+00:00	0	kx9k7zw684wnx2c@marketplace.amazon.com	Juan C Orrante	+1 347-448-3190 ext. 59229	ABR001	Arabella Bouquets | Purchase by 8 AM EST Saturday | Delivery on Tuesday | Bouquet of 12 Fresh Cut Red Roses	1	0	1	SecondDay	Sandra Del Cid	7300 LANKERSHIM BLVD APT 232			NORTH HOLLYWOOD	CA	91605-3866	US		Se que el perdón no se consigue con flores Dios quiere cosas buenas para mi vida yo lo sabía pero no entendí como... también se que el sufrimiento quedó atrás y ahora viene el tiempo de bendicion From Juan C Orrante	false		
114-2886856-2142626	06011798557242	2020-04-24T18:03:01+00:00	2020-04-24T11:03:01-07:00	2020-04-24T18:30:18+00:00	2020-04-29T06:59:59+00:00	-4	rrt178kdbf86glv@marketplace.amazon.com	Rhonda Chicko	+1 314-282-9402 ext. 92042	ABM010	Arabella Farm Direct Fields of The World Bouquet of Fresh Cut Flowers with a Free Glass Vase	1	0	1	Expedited	Laura Jordan	717 FOSTER ST			NORTH ANDOVER	MA	01845-1433	US		Hi Laura, Our thoughts and prayers are with you!  Your mother was a wonderful woman and loved by all.  Please find comfort in your fond memories with her!  Hugs to you and your family! Love, Rhonda & the entire Chicko Family	false		
111-2629014-5690645	62741606984306	2020-04-24T18:29:23+00:00	2020-04-24T11:29:23-07:00	2020-04-24T18:30:21+00:00	2020-04-30T06:59:59+00:00	-5	xph99605gwx4z8r@marketplace.amazon.com	Milton J. Wiggins	+1 412-532-4665 ext. 34143	ABR0022	Arabella Bouquets | Purchase by 8 AM EST Saturday | Delivery on Tuesday | Bouquet of 12 Fresh Cut Pink Roses	1	0	1	Expedited	David A. Wiggins	8153 COLQUITT RD APT E			ATLANTA	GA	30350-5944	US			false		
111-2285081-5602627	25315780355210	2020-04-24T18:02:31+00:00	2020-04-24T11:02:31-07:00	2020-04-24T18:33:00+00:00	2020-04-29T06:59:59+00:00	-4	stgrr7rmpbdb7sh@marketplace.amazon.com	Julie Cavanaugh-Bill	+1 210-728-4548 ext. 38588	ABR013	Arabella Bouquets | Purchase by 8 AM EST Saturday | Delivery on Tuesday | Bouquet of 18 Fresh Cut Yellow Roses	3	0	3	Expedited	Julie Cavanaugh-Bill	288 EMIGRANT TRL # 12 C/O	314 STAATS PARK		SPRING CREEK	NV	89815-9772	US			false		
114-8204988-8667440	01525126106474	2020-04-24T18:06:51+00:00	2020-04-24T11:06:51-07:00	2020-04-24T18:35:07+00:00	2020-04-30T06:59:59+00:00	-5	8v8s8tbwp66h8zp@marketplace.amazon.com	Beka Whitemarsh	+1 314-282-9402 ext. 29453	ABR0022	Arabella Bouquets | Purchase by 8 AM EST Saturday | Delivery on Tuesday | Bouquet of 12 Fresh Cut Pink Roses	1	0	1	Standard	Marie Whitemarsh	2820 DEER RD			WISCONSIN RAPIDS	WI	54494-1529	US		Happy Mother’s Day, Mom! Hope you feel loved, honored, appreciated, and cherished. We all love you! From Love, Beka, Abbi, Jake, Joe, Eli and Dad	false		
113-7276361-8180239	69226260520770	2020-04-24T18:11:45+00:00	2020-04-24T11:11:45-07:00	2020-04-24T18:39:32+00:00	2020-04-29T06:59:59+00:00	-4	nhcw312x1dphygw@marketplace.amazon.com	Laura Matthys	+1 314-282-9402 ext. 09603	ABM010	Arabella Farm Direct Fields of The World Bouquet of Fresh Cut Flowers with a Free Glass Vase	1	0	1	Expedited	Alison Bercik	1519 OHIO AVE			WHITING	IN	46394-1718	US		Sending you lots of love and comfort, we are so sorry for your loss.  Franciscan Senior Health & Wellness	false		
113-8653248-0765821	01007721828322	2020-04-24T18:33:24+00:00	2020-04-24T11:33:24-07:00	2020-04-24T18:55:53+00:00	2020-04-30T06:59:59+00:00	-5	gthm2hys8942v32@marketplace.amazon.com	angee	+1 210-728-4548 ext. 86635	ABR0022	Arabella Bouquets | Purchase by 8 AM EST Saturday | Delivery on Tuesday | Bouquet of 12 Fresh Cut Pink Roses	1	0	1	Expedited	Lonnitt Kingara	1204 DENMARK ST			YUKON	OK	73099-9622	US		Love you Mom!! Thinking of you and I miss you! From Angee and Gerald	false		
112-9103809-4221814	43918881286378	2020-04-24T18:50:23+00:00	2020-04-24T11:50:23-07:00	2020-04-24T19:04:38+00:00	2020-04-30T06:59:59+00:00	-5	2667k7mw8hthx5y@marketplace.amazon.com	Kim Geller	+1 347-448-3190 ext. 95622	ABR0022	Arabella Bouquets | Purchase by 8 AM EST Saturday | Delivery on Tuesday | Bouquet of 12 Fresh Cut Pink Roses	1	0	1	Expedited	Jodi Levine	16 ROSALIE RD			NEEDHAM	MA	02494-2018	US		Happy Mothers Day to one of the best! We love you! Sending hugs and kisses! Kim, Ken, Lia, Mando	false		
111-3103286-7030655	58766911090434	2020-04-24T18:37:18+00:00	2020-04-24T11:37:18-07:00	2020-04-24T19:06:13+00:00	2020-04-29T06:59:59+00:00	-4	rcyzs2ydkjvvkkr@marketplace.amazon.com	NANNETTE TURNER	+1 347-448-3190 ext. 13507	ABR0055	Arabella Bouquets | Purchase by 8 AM EST Saturday | Delivery on Tuesday | Bouquet of 12 Fresh Cut Hot Pink Roses	1	0	1	Expedited	Catherine buell	3320 HOWARD AVE			PENNSAUKEN	NJ	08109-3521	US		Happy birthday Auntie many blessings  Much love From John &Nannette	false		
111-5737724-6899465	58329250027946	2020-04-24T18:45:58+00:00	2020-04-24T11:45:58-07:00	2020-04-24T19:12:57+00:00	2020-04-30T06:59:59+00:00	-5	ms0ggsqdjfl8jwj@marketplace.amazon.com	Tolle Murphy	+1 210-728-4548 ext. 83831	ABR0022	Arabella Bouquets | Purchase by 8 AM EST Saturday | Delivery on Tuesday | Bouquet of 12 Fresh Cut Pink Roses	1	0	1	Expedited	Kentha Wagner	488 MAJESTIC DR			ORCUTT	CA	93455-2312	US		Happy (early) Mother’s Day Kentha and be well, my dear ! You are loved. From Tolle VanLaanen	false		
114-5867560-0388246	47480905688042	2020-04-24T18:48:26+00:00	2020-04-24T11:48:26-07:00	2020-04-24T19:17:34+00:00	2020-04-29T06:59:59+00:00	-4	8v8s8tbwp66h8zp@marketplace.amazon.com	Beka Whitemarsh	+1 347-448-3190 ext. 12317	ABR0055	Arabella Bouquets | Purchase by 8 AM EST Saturday | Delivery on Tuesday | Bouquet of 12 Fresh Cut Hot Pink Roses	1	0	1	Standard	Joan Hunter and Melody Barker	PO BOX 111			TOMBALL	TX	77377-0111	US		Joan and Melody,   Love and miss you both! From Love, Beka	false		
114-0006059-4249013	28533306411466	2020-04-24T18:48:04+00:00	2020-04-24T11:48:04-07:00	2020-04-24T19:17:36+00:00	2020-04-29T06:59:59+00:00	-4	4b62vvrfhxx0g45@marketplace.amazon.com	Kelly stone	+1 347-448-3190 ext. 39352	ABR0066	Arabella Bouquets | Purchase by 8 AM EST Saturday | Delivery on Tuesday | Bouquet of 12 Fresh Cut White Roses	1	0	1	Expedited	Bloom	1251 SUNSET PLAZA DR			LOS ANGELES	CA	90069-1256	US		Love you both soooooo much  Kelly & Bruce From Kelly stone	false		
114-4022303-9567401	04155667502114	2020-04-24T18:49:25+00:00	2020-04-24T11:49:25-07:00	2020-04-24T19:19:15+00:00	2020-04-29T06:59:59+00:00	-4	4b62vvrfhxx0g45@marketplace.amazon.com	Kelly stone	+1 347-448-3190 ext. 34150	ABR0066	Arabella Bouquets | Purchase by 8 AM EST Saturday | Delivery on Tuesday | Bouquet of 12 Fresh Cut White Roses	1	0	1	Expedited	Stone	1338 DAWNRIDGE DR			BEVERLY HILLS	CA	90210-2215	US		Love you  Kel From Kelly stone	false		
111-4948055-8086621	39227304244002	2020-04-24T18:54:19+00:00	2020-04-24T11:54:19-07:00	2020-04-24T19:21:29+00:00	2020-04-29T06:59:59+00:00	-4	4yk0tdz248qbyx9@marketplace.amazon.com	Debbie Schmidtke	+1 347-448-3190 ext. 68783	ABR004	Arabella Farm Direct Bouquet of 12 Fresh Cut Yellow Roses with a Free Glass Vase	1	0	1	Expedited	Toni Hurley	538 CAYUGA AVE			SAN FRANCISCO	CA	94112-1915	US		Early Happy Birthday!  I hope this is something cheery for this dreary period. Hugs and kisses!! From Sam & Debbie Schmidtke	false		
114-5292532-0701818	19058828072146	2020-04-24T18:56:43+00:00	2020-04-24T11:56:43-07:00	2020-04-24T19:24:50+00:00	2020-04-30T06:59:59+00:00	-5	fyd1bylt8dqvhtf@marketplace.amazon.com	Ross Williams	+1 347-448-3190 ext. 69443	ABR0022	Arabella Bouquets | Purchase by 8 AM EST Saturday | Delivery on Tuesday | Bouquet of 12 Fresh Cut Pink Roses	1	0	1	Expedited	Phyllis Tuber	MOLDAW FAMILY RESIDENCES	899 E CHARLESTON RD APT G203		PALO ALTO	CA	94303-4651	US		Happy Mother's Day and Birthday, Mom.  We'll celebrate together soon.  Love, Jan and Ross	false		
111-7911616-0776222	59942072387250	2020-04-24T19:07:19+00:00	2020-04-24T12:07:19-07:00	2020-04-24T19:30:14+00:00	2020-04-29T06:59:59+00:00	-4	4yk0tdz248qbyx9@marketplace.amazon.com	Debbie Schmidtke	+1 210-728-4548 ext. 24409	ABR004	Arabella Farm Direct Bouquet of 12 Fresh Cut Yellow Roses with a Free Glass Vase	1	0	1	Expedited	Patricia Browning	1415 84TH ST SE UNIT 14			EVERETT	WA	98208-2121	US		Happy Spring Aunt Pat! Hugs and love from Debbie From Debbie Schmidtke	false		
112-2885271-5261059	68864083162658	2020-04-24T19:09:21+00:00	2020-04-24T12:09:21-07:00	2020-04-24T19:38:37+00:00	2020-04-30T06:59:59+00:00	-5	yxjc1vd6ctgy7q5@marketplace.amazon.com	Jaymie Baiza	+1 347-448-3190 ext. 14919	ABR0022	Arabella Bouquets | Purchase by 8 AM EST Saturday | Delivery on Tuesday | Bouquet of 12 Fresh Cut Pink Roses	1	0	1	Expedited	Allison Scher	7244 CARPA CT			CARLSBAD	CA	92009-7812	US		Hi Allison, Congratulations!  I feel so lucky to have worked with you this past year!  Good luck with everything you do.  Keep in touch!  <3 Jaymie	false		
113-8176493-5230645	51147524161770	2020-04-24T19:12:28+00:00	2020-04-24T12:12:28-07:00	2020-04-24T19:41:45+00:00	2020-04-30T06:59:59+00:00	-5	0bs32xhfynpsnsy@marketplace.amazon.com	KC Worrall	+1 314-282-9402 ext. 93214	ABSR004	Arabella Bouquets | Purchase by 8 AM EST Saturday | Delivery on Tuesday | Bouquet of Fresh Cut White Spray Roses with a Free Glass Vase	1	0	1	Expedited	P Christiansen	2109 W WILSON AVE			CHICAGO	IL	60625-1521	US		Paula, you and your family are in our constant thoughts. We love all of you!  K.C. & Kirk	false		
112-6138390-9683422	51939876646754	2020-04-24T19:13:31+00:00	2020-04-24T12:13:31-07:00	2020-04-24T19:42:55+00:00	2020-04-30T06:59:59+00:00	-5	58ck0zhplnyh2rz@marketplace.amazon.com	louisa szasz	+1 412-532-4665 ext. 74151	ABR0022	Arabella Bouquets | Purchase by 8 AM EST Saturday | Delivery on Tuesday | Bouquet of 12 Fresh Cut Pink Roses	1	0	1	Expedited	Joan  Malayter	21690 HERSCHEL RD			SONOMA	CA	95476-9627	US			false		
112-5873057-9114617	17688373718242	2020-04-24T19:32:17+00:00	2020-04-24T12:32:17-07:00	2020-04-24T20:03:00+00:00	2020-04-30T06:59:59+00:00	-5	92trk7md9gl3vgn@marketplace.amazon.com	Alyssa	+1 347-448-3190 ext. 53200	ABM0044	Arabella Farm Direct Bouquet of Fresh Cut Blue Hydrangea with a Free Glass Vase	1	0	1	Expedited	Alyssa Verdegem	72 BLUEBERRY HILL RD			DEERING	NH	03244-6229	US			false		
111-2530488-5919433	12174236437098	2020-04-24T19:43:04+00:00	2020-04-24T12:43:04-07:00	2020-04-24T20:11:25+00:00	2020-04-30T06:59:59+00:00	-5	j41sk31jd4fwnyd@marketplace.amazon.com	Kortenay	+1 412-532-4665 ext. 94117	ABR0022	Arabella Bouquets | Purchase by 8 AM EST Saturday | Delivery on Tuesday | Bouquet of 12 Fresh Cut Pink Roses	1	0	1	Expedited	Jennifer	1377 MORNING MIST DR			HOWELL	MI	48843-7012	US		I am so sorry for your loss. From Kortenay	false		
114-6526398-5323432	61100426107562	2020-04-24T19:43:45+00:00	2020-04-24T12:43:45-07:00	2020-04-24T20:13:09+00:00	2020-04-29T06:59:59+00:00	-4	zbttf93r51p57tx@marketplace.amazon.com	Janet Irwin	+1 347-448-3190 ext. 56187	ABR0055	Arabella Bouquets | Purchase by 8 AM EST Saturday | Delivery on Tuesday | Bouquet of 12 Fresh Cut Hot Pink Roses	1	0	1	Expedited	Ms. Janet Butler	22812 BUCKBOARD LN			CLOVIS	CA	93619-9611	US			false		
113-4341684-9414603	35995133344578	2020-04-24T19:45:41+00:00	2020-04-24T12:45:41-07:00	2020-04-24T20:13:10+00:00	2020-04-30T06:59:59+00:00	-5	b4c3qqh8s7jrfzd@marketplace.amazon.com	Lindell B. Jones	+1 314-282-9402 ext. 69912	ABR0022	Arabella Bouquets | Purchase by 8 AM EST Saturday | Delivery on Tuesday | Bouquet of 12 Fresh Cut Pink Roses	1	0	1	Expedited	Lindell B. Jones	230 PIGEON DR			LAKE ST LOUIS	MO	63367-1845	US		Dearest Darling Wife, Happy Mothers Day to the best wife ever. Love, Lindell	false		
113-6301269-2493803	42910894522914	2020-04-24T19:46:19+00:00	2020-04-24T12:46:19-07:00	2020-04-24T20:16:53+00:00	2020-04-29T06:59:59+00:00	-4	vgg49thfzhyfmfn@marketplace.amazon.com	Michael Spelfogel	+1 347-448-3190 ext. 90244	ABR004	Arabella Farm Direct Bouquet of 12 Fresh Cut Yellow Roses with a Free Glass Vase	1	0	1	Expedited	Alexandra Rodriguez	11336 WILLOW GARDENS DR			WINDERMERE	FL	34786-6000	US			false		
112-2096412-0819436	55397640546546	2020-04-24T19:58:29+00:00	2020-04-24T12:58:29-07:00	2020-04-24T20:26:16+00:00	2020-04-30T06:59:59+00:00	-5	n78p6ckl9f8xsn7@marketplace.amazon.com	Cynthia young	+1 210-728-4548 ext. 96665	ABR0022	Arabella Bouquets | Purchase by 8 AM EST Saturday | Delivery on Tuesday | Bouquet of 12 Fresh Cut Pink Roses	1	0	1	Expedited	Cynthia Young	26704 Foggy Meadows Street			San Antonio	Texas	78260	US		HAPPY MOTHERS DAY! I LOVE YOU FROM YOUR DAUGHTER!	false		
114-7369500-1439448	62061786039306	2020-04-24T20:03:04+00:00	2020-04-24T13:03:04-07:00	2020-04-24T20:31:13+00:00	2020-04-30T06:59:59+00:00	-5	sffxd4ysczvg39t@marketplace.amazon.com	Joanne Hough	+1 347-448-3190 ext. 48810	ABM0044	Arabella Farm Direct Bouquet of Fresh Cut Blue Hydrangea with a Free Glass Vase	1	0	1	Expedited	Stephanie Hough	441 MORRISON DR			PITTSBURGH	PA	15216-1205	US		Congratulations on your graduation! We will celebrate with a nice dinner out as soon as we are free!! From Love ya! J and T	false		
114-3329969-7606648	57874328763354	2020-04-24T20:05:07+00:00	2020-04-24T13:05:07-07:00	2020-04-24T20:34:36+00:00	2020-04-29T06:59:59+00:00	-4	34rxybpbb5xc7mx@marketplace.amazon.com	Rachel	+1 347-448-3190 ext. 97618	ABM010	Arabella Farm Direct Fields of The World Bouquet of Fresh Cut Flowers with a Free Glass Vase	1	0	1	Expedited	Sharon Rubsam	17120 VALLEY VIEW RD			TOWNSEND	WI	54175-9751	US		I hope you enjoy Grandma! I miss you and love you tons. From Rachel	false		
111-2792722-4555446	48656424922938	2020-04-24T20:10:46+00:00	2020-04-24T13:10:46-07:00	2020-04-24T20:34:48+00:00	2020-04-30T06:59:59+00:00	-5	xbz6h1brnpy0m54@marketplace.amazon.com	Kathy Herrera	+1 412-532-4665 ext. 93787	ABR0022	Arabella Bouquets | Purchase by 8 AM EST Saturday | Delivery on Tuesday | Bouquet of 12 Fresh Cut Pink Roses	1	0	1	Expedited	Beverly Kliene	902 TOWNSEND AVE			AZTEC	NM	87410-1631	US		Gran,You have truly have helped make this world a better place. You have helped bring in many lives into this world and we are are grateful that you have done that! Congratulation! Enjoy Retirement! Love Alex& Lisa	false		
114-9687921-0473001	34141943177146	2020-04-24T20:07:37+00:00	2020-04-24T13:07:37-07:00	2020-04-24T20:35:53+00:00	2020-04-29T06:59:59+00:00	-4	ssfj17ml36m519c@marketplace.amazon.com	Ann	+1 347-448-3190 ext. 02384	ABR0066	Arabella Bouquets | Purchase by 8 AM EST Saturday | Delivery on Tuesday | Bouquet of 12 Fresh Cut White Roses	1	0	1	Expedited	Debra Lance	1114 W OVERLOOK RD			MARION	INDIANA	46952-1329	US		Debbie  Enjoy your gift! Love Mom	false		
112-8029576-3657007	48238313157594	2020-04-24T20:17:20+00:00	2020-04-24T13:17:20-07:00	2020-04-24T20:39:56+00:00	2020-04-29T06:59:59+00:00	-4	t263sxgcr93rg7q@marketplace.amazon.com	Annette Ray	+1 314-282-9402 ext. 95165	ABM010	Arabella Farm Direct Fields of The World Bouquet of Fresh Cut Flowers with a Free Glass Vase	1	0	1	Expedited	Ahou Line	10114 BELL ROCK RD			FRISCO	TX	75035-9200	US		Thanks for all you've done on the grant team! I hope these brighten your day! Dee	false		
112-7587599-2989057	29150967594282	2020-04-24T20:17:20+00:00	2020-04-24T13:17:20-07:00	2020-04-24T20:42:19+00:00	2020-04-29T06:59:59+00:00	-4	t263sxgcr93rg7q@marketplace.amazon.com	Annette Ray	+1 347-448-3190 ext. 74893	ABM010	Arabella Farm Direct Fields of The World Bouquet of Fresh Cut Flowers with a Free Glass Vase	1	0	1	Expedited	Regine Chung	425 BERNARD ST APT 512			DENTON	TX	76201-5977	US		Thanks for all you've done for CPT! I hope these brighten your day! Dee	false		
113-8128602-9825058	52395808743978	2020-04-24T20:13:18+00:00	2020-04-24T13:13:18-07:00	2020-04-24T20:42:20+00:00	2020-04-30T06:59:59+00:00	-5	1y3hd2hz17j5hjg@marketplace.amazon.com	Will Bracken	+1 412-532-4665 ext. 98862	ABR0022	Arabella Bouquets | Purchase by 8 AM EST Saturday | Delivery on Tuesday | Bouquet of 12 Fresh Cut Pink Roses	1	0	1	Expedited	June Harding	891 UNION STATION PKWY APT 16413			LEWISVILLE	TX	75057-5261	US			false		
112-3634368-9137052	09331988339770	2020-04-24T20:17:20+00:00	2020-04-24T13:17:20-07:00	2020-04-24T20:42:23+00:00	2020-04-29T06:59:59+00:00	-4	t263sxgcr93rg7q@marketplace.amazon.com	Annette Ray	+1 314-282-9402 ext. 51261	ABM010	Arabella Farm Direct Fields of The World Bouquet of Fresh Cut Flowers with a Free Glass Vase	1	0	1	Expedited	Carol Quinn	2400 DENISON ST			DENTON	TX	76201-0843	US		Thanks for all you've done on the grant team! I hope these brighten your day! Dee	false		
112-2714418-7758605	41300213383770	2020-04-24T20:17:20+00:00	2020-04-24T13:17:20-07:00	2020-04-24T20:42:58+00:00	2020-04-29T06:59:59+00:00	-4	t263sxgcr93rg7q@marketplace.amazon.com	Annette Ray	+1 314-282-9402 ext. 45563	ABM010	Arabella Farm Direct Fields of The World Bouquet of Fresh Cut Flowers with a Free Glass Vase	1	0	1	Expedited	Kim Walker	805 EMERY ST			DENTON	TX	76201-2681	US		Thanks for all you've done for CPT! I hope these brighten your day! Dee	false		
112-4223783-3896260	32200513853082	2020-04-24T20:17:20+00:00	2020-04-24T13:17:20-07:00	2020-04-24T20:43:49+00:00	2020-04-29T06:59:59+00:00	-4	t263sxgcr93rg7q@marketplace.amazon.com	Annette Ray	+1 412-532-4665 ext. 18480	ABM010	Arabella Farm Direct Fields of The World Bouquet of Fresh Cut Flowers with a Free Glass Vase	1	0	1	Expedited	Hannah Robinson	2248 HEMINGWAY LN			CARROLLTON	TX	75010-4926	US		Thanks for all you've done for CPT! I hope these brighten your day! Dee	false		
112-7960000-1986638	47801475822618	2020-04-24T20:17:20+00:00	2020-04-24T13:17:20-07:00	2020-04-24T20:43:52+00:00	2020-04-29T06:59:59+00:00	-4	t263sxgcr93rg7q@marketplace.amazon.com	Annette Ray	+1 314-282-9402 ext. 67242	ABM010	Arabella Farm Direct Fields of The World Bouquet of Fresh Cut Flowers with a Free Glass Vase	1	0	1	Expedited	Elizabeth Burgin	5640 SUGAR MAPLE DR			FORT WORTH	TX	76244-6710	US		Thanks for all you've done for CPT and the grant team! I hope these brighten your day! Dee	false		
111-4662513-0077862	45471995671490	2020-04-24T20:17:53+00:00	2020-04-24T13:17:53-07:00	2020-04-24T20:44:12+00:00	2020-04-29T06:59:59+00:00	-4	1hvy93rnhdc832j@marketplace.amazon.com	JERRY JIN	+1 347-448-3190 ext. 62236	ABM010	Arabella Farm Direct Fields of The World Bouquet of Fresh Cut Flowers with a Free Glass Vase	1	0	1	Expedited	SUHROB KAKHAROV	431 COSTA MESA TER APT D			SUNNYVALE	CA	94085-1612	US		Hi Dominic Wishing you a Happy Birthday From Acha	false		
112-3507017-7080252	67235761558458	2020-04-24T20:17:20+00:00	2020-04-24T13:17:20-07:00	2020-04-24T20:46:00+00:00	2020-04-29T06:59:59+00:00	-4	t263sxgcr93rg7q@marketplace.amazon.com	Annette Ray	+1 347-448-3190 ext. 93096	ABM010	Arabella Farm Direct Fields of The World Bouquet of Fresh Cut Flowers with a Free Glass Vase	1	0	1	Expedited	Sara Weeks	400 FOXTAIL CT			COPPELL	TX	75019-5581	US		Thanks for all you've done for the grant team! I hope these brighten your day! Dee	false		
112-0732982-0868251	02722833649538	2020-04-24T20:17:20+00:00	2020-04-24T13:17:20-07:00	2020-04-24T20:46:24+00:00	2020-04-29T06:59:59+00:00	-4	t263sxgcr93rg7q@marketplace.amazon.com	Annette Ray	+1 347-448-3190 ext. 99852	ABM010	Arabella Farm Direct Fields of The World Bouquet of Fresh Cut Flowers with a Free Glass Vase	1	0	1	Expedited	Torie Cunningham	2411 S INTERSTATE 35 E APT 1535			DENTON	TX	76210-4958	US		Thanks for all you've done for the grant team! I hope these brighten your day! Dee	false		
113-3984378-5677025	25108218678610	2020-04-24T20:45:50+00:00	2020-04-24T13:45:50-07:00	2020-04-24T20:46:47+00:00	2020-04-30T06:59:59+00:00	-5	6yvglrnmhzhz1k9@marketplace.amazon.com	Haruna Ukai	+1 210-728-4548 ext. 87012	ABR0022	Arabella Bouquets | Purchase by 8 AM EST Saturday | Delivery on Tuesday | Bouquet of 12 Fresh Cut Pink Roses	1	0	1	Expedited	Akane Smith	2304 160TH AVENUE CT E			SUMNER	WA	98391-4922	US		Hi Akane-saaaaan, Wishing you all the best with your expected new arrival. Hope you enjoy this little gift for you. Haruna Ukai	false		
114-8016314-7681814	00450184049194	2020-04-24T20:27:10+00:00	2020-04-24T13:27:10-07:00	2020-04-24T20:47:40+00:00	2020-04-29T06:59:59+00:00	-4	lhfr8jb54r4fv7z@marketplace.amazon.com	kathy hanish	+1 210-728-4548 ext. 14162	ABR0055	Arabella Bouquets | Purchase by 8 AM EST Saturday | Delivery on Tuesday | Bouquet of 12 Fresh Cut Hot Pink Roses	1	0	1	Expedited	Mary Novotny	7828 N 5TH AVE			PHOENIX	AZ	85021-7215	US		Hi Mary, Enjoy your gift! Happy 70th  Sorry this is late Love Kathy and Charlie From kathy hanish	false		
113-0759325-0059466	40602537991442	2020-04-24T20:18:50+00:00	2020-04-24T13:18:50-07:00	2020-04-24T20:49:24+00:00	2020-04-29T06:59:59+00:00	-4	w32p3l8v59m5p1c@marketplace.amazon.com	John E Harlow	+1 347-448-3190 ext. 32629	ABR004	Arabella Farm Direct Bouquet of 12 Fresh Cut Yellow Roses with a Free Glass Vase	1	0	1	Expedited	Nina Harlow ----from John and Tish	4004 24TH AVE S			GRAND FORKS	ND	58201-8863	US			false		
112-3750156-0909047	66946135542994	2020-04-24T20:23:13+00:00	2020-04-24T13:23:13-07:00	2020-04-24T20:52:47+00:00	2020-04-30T06:59:59+00:00	-5	8g64h41s2901qcv@marketplace.amazon.com	Oscar Ibanez	+1 347-448-3190 ext. 98481	ABR0022	Arabella Bouquets | Purchase by 8 AM EST Saturday | Delivery on Tuesday | Bouquet of 12 Fresh Cut Pink Roses	1	0	1	Expedited	Erika Yallico	1805 SANS SOUCI BLVD APT 429			NORTH MIAMI	FL	33181-3064	US		Hi Erika,  Early birthday roses   From Oscar Ibanez	false		
112-3960872-4351437	05509399750674	2020-04-24T20:25:57+00:00	2020-04-24T13:25:57-07:00	2020-04-24T20:55:06+00:00	2020-04-29T06:59:59+00:00	-4	t263sxgcr93rg7q@marketplace.amazon.com	Annette Ray	+1 347-448-3190 ext. 21571	ABM010	Arabella Farm Direct Fields of The World Bouquet of Fresh Cut Flowers with a Free Glass Vase	1	0	1	Expedited	Brittany Wilson	654 S MUNSON RD			ROYSE CITY	TX	75189-6350	US		Thank you so much for all you've done for CPT! I hope these brighten your day! Love, Dee	false		
114-6732928-4817062	29457015000418	2020-04-24T20:28:11+00:00	2020-04-24T13:28:11-07:00	2020-04-24T20:56:07+00:00	2020-04-29T06:59:59+00:00	-4	3hr3qsfj9r3pmm7@marketplace.amazon.com	alex reckling	+1 314-282-9402 ext. 44713	ABM010	Arabella Farm Direct Fields of The World Bouquet of Fresh Cut Flowers with a Free Glass Vase	1	0	1	Expedited	Susan Reckling	557 CANAL DR			MIDDLETOWN	DE	19709-9820	US			false		
111-9601464-0955446	50993290358962	2020-04-24T20:39:47+00:00	2020-04-24T13:39:47-07:00	2020-04-24T21:03:40+00:00	2020-04-29T06:59:59+00:00	-4	tbq4jw5t1vrhv6q@marketplace.amazon.com	Lindsay Hiebert	+1 210-728-4548 ext. 03193	ABR0055	Arabella Bouquets | Purchase by 8 AM EST Saturday | Delivery on Tuesday | Bouquet of 12 Fresh Cut Hot Pink Roses	1	0	1	Expedited	Eliizabeth Williams	10341 MOHAWK LN			LEAWOOD	KS	66206-2524	US		Liz, happy bday! I-y,Lindsay From Lindsay Hiebert	false		
113-1560349-9709809	31212053661738	2020-04-24T20:42:46+00:00	2020-04-24T13:42:46-07:00	2020-04-24T21:08:26+00:00	2020-04-30T06:59:59+00:00	-5	bd45th56hnsqpnb@marketplace.amazon.com	Melissa Rowland	+1 347-448-3190 ext. 31923	ABR0022	Arabella Bouquets | Purchase by 8 AM EST Saturday | Delivery on Tuesday | Bouquet of 12 Fresh Cut Pink Roses	1	0	1	Expedited	Sharon Nelson	5505 S BRAEBOURNE RD			ROGERS	AR	72758-8969	US		Grateful for you taking a chance on me!  Cheers and love!  Melissa	false		
114-9980388-9291419	15161716052586	2020-04-24T20:54:11+00:00	2020-04-24T13:54:11-07:00	2020-04-24T21:24:40+00:00	2020-04-29T06:59:59+00:00	-4	jgs898sqwdvblpz@marketplace.amazon.com	David Aloisio	+1 347-448-3190 ext. 37735	ABR0055	Arabella Bouquets | Purchase by 8 AM EST Saturday | Delivery on Tuesday | Bouquet of 12 Fresh Cut Hot Pink Roses	1	0	1	Expedited	Lexi Gilbert	155 S CHAPEL ST UNIT 103			NEWARK	DE	19711-5346	US			false		
113-7903870-0129849	45699282707290	2020-04-24T20:57:48+00:00	2020-04-24T13:57:48-07:00	2020-04-24T21:25:54+00:00	2020-04-30T06:59:59+00:00	-5	56psk9sd5xw00jv@marketplace.amazon.com	James Pendleton	+1 210-728-4548 ext. 82348	ABR0022	Arabella Bouquets | Purchase by 8 AM EST Saturday | Delivery on Tuesday | Bouquet of 12 Fresh Cut Pink Roses	1	0	1	Expedited	James	38698 Reservation Highway 1			Morton	Minnesota	56270	US		Here’s your last present :) From James Pendleton	false		
111-8693755-5885034	58457219593522	2020-04-24T20:04:04+00:00	2020-04-24T13:04:04-07:00	2020-04-24T21:29:44+00:00	2020-04-30T06:59:59+00:00	-5	25t4ch25lnx7h5r@marketplace.amazon.com	Kevin	+1 347-448-3190 ext. 19900	ABR0022	Arabella Bouquets | Purchase by 8 AM EST Saturday | Delivery on Tuesday | Bouquet of 12 Fresh Cut Pink Roses	1	0	1	Standard	Madeline Bantad	1125 SEQUOIA CREEK LN			CARY	NC	27519-7249	US			false		
111-7232973-0096268	13675523942042	2020-04-24T21:11:04+00:00	2020-04-24T14:11:04-07:00	2020-04-24T21:33:59+00:00	2020-04-29T06:59:59+00:00	-4	x3pv3pbvt9qyj0q@marketplace.amazon.com	John M. Linge	+1 347-448-3190 ext. 51904	ABR0033	Arabella Bouquets | Purchase by 8 AM EST Saturday | Delivery on Tuesday | Bouquet of 12 Fresh Cut Orange Roses	1	0	1	Expedited	Donna Monahan	42 MARSHMALLOW DR			COMMACK	NY	11725-1023	US			false		
113-0658009-1214605	66899187029098	2020-04-24T21:10:50+00:00	2020-04-24T14:10:50-07:00	2020-04-24T21:39:42+00:00	2020-04-30T06:59:59+00:00	-5	lby1kqskpxg72hw@marketplace.amazon.com	Renee H. Grau	+1 347-448-3190 ext. 60097	ABR0022	Arabella Bouquets | Purchase by 8 AM EST Saturday | Delivery on Tuesday | Bouquet of 12 Fresh Cut Pink Roses	1	0	1	Expedited	Connie Siler	3300 BROOKSIDE DR			MIDWEST CITY	OK	73110-7229	US		We love you!!!  Happy Early Mother’s Day! From Renee, Randy, Reagan and Roman	false		
112-1414072-0665830	46963424000842	2020-04-24T21:10:59+00:00	2020-04-24T14:10:59-07:00	2020-04-24T21:39:56+00:00	2020-04-29T06:59:59+00:00	-4	nsvql91dq0wxw0z@marketplace.amazon.com	Catherine Hemmenway	+1 210-728-4548 ext. 43977	ABR012	Arabella Bouquets | Purchase by 8 AM EST Saturday | Delivery on Tuesday | Bouquet of 18 Fresh Cut Pink Roses	1	0	1	Expedited	Nicole Dyer	17484 CARRIAGE LAMP WAY			MORGAN HILL	CA	95037-3746	US		Hi Nicole, Congratulations! We are so proud of you.  Missing you! Love, Mom and Dad	false		
112-9659854-2541057	52819864753666	2020-04-24T21:12:32+00:00	2020-04-24T14:12:32-07:00	2020-04-24T21:41:23+00:00	2020-04-29T06:59:59+00:00	-4	8ny4sqt8z6hry8f@marketplace.amazon.com	Rashad	+1 314-282-9402 ext. 75167	ABR0066	Arabella Bouquets | Purchase by 8 AM EST Saturday | Delivery on Tuesday | Bouquet of 12 Fresh Cut White Roses	1	0	1	Expedited	Tiara	842 ERUDO ST LINDEN NJ 07036			LINDEN	NJ	07036-4019	US		I appreciate you angel. 😘 From Rashad	false		
113-1791342-0476210	34124361630298	2020-04-24T21:19:03+00:00	2020-04-24T14:19:03-07:00	2020-04-24T21:43:00+00:00	2020-04-30T06:59:59+00:00	-5	lby1kqskpxg72hw@marketplace.amazon.com	Renee H. Grau	+1 314-282-9402 ext. 01035	ABR0022	Arabella Bouquets | Purchase by 8 AM EST Saturday | Delivery on Tuesday | Bouquet of 12 Fresh Cut Pink Roses	1	0	1	Expedited	Ashley Grau	1372 BLUEBIRD ST			EL CAJON	CA	92020-1405	US		I love you!!! Miss you! From Renee	false		
111-6586439-8060253	69256961159898	2020-04-24T21:16:47+00:00	2020-04-24T14:16:47-07:00	2020-04-24T21:46:53+00:00	2020-04-30T06:59:59+00:00	-5	7hdqyw3q0gynqbg@marketplace.amazon.com	Rose Bergeron	+1 210-728-4548 ext. 66739	ABR0022	Arabella Bouquets | Purchase by 8 AM EST Saturday | Delivery on Tuesday | Bouquet of 12 Fresh Cut Pink Roses	1	0	1	Expedited	betty goodwin	1647 WADE HAMPTON BLVD CVA A-508			GREENVILLE	SC	29614-2099	US			false		
113-7286553-2546626	59810826081538	2020-04-24T21:27:21+00:00	2020-04-24T14:27:21-07:00	2020-04-24T21:54:54+00:00	2020-04-30T06:59:59+00:00	-5	lby1kqskpxg72hw@marketplace.amazon.com	Renee H. Grau	+1 412-532-4665 ext. 19474	ABR0022	Arabella Bouquets | Purchase by 8 AM EST Saturday | Delivery on Tuesday | Bouquet of 12 Fresh Cut Pink Roses	1	0	1	Expedited	Karen Kennedy	2500 STRATTON DR			EDMOND	OK	73013-6526	US		Thank you for being the world’s best neighbors. We are truly blessed by you! From The Graus	false		
113-8168664-0443454	07625176787434	2020-04-24T21:36:42+00:00	2020-04-24T14:36:42-07:00	2020-04-24T22:06:14+00:00	2020-04-29T06:59:59+00:00	-4	f9shc8mcnv8t1b1@marketplace.amazon.com	Andrew Ponder	+1 210-728-4548 ext. 42982	ABM010	Arabella Farm Direct Fields of The World Bouquet of Fresh Cut Flowers with a Free Glass Vase	1	0	1	Expedited	Andrew Ponder	7210 STREAMHAVEN DR			HARRISBURG	NC	28075-0018	US		Happy Birthday Love!  From Daddy, Davis, Emma and Sam	false		
113-9573668-1963463	31072654285458	2020-04-24T21:42:25+00:00	2020-04-24T14:42:25-07:00	2020-04-24T22:11:36+00:00	2020-04-30T06:59:59+00:00	-5	p8fzbpzy7frsyf6@marketplace.amazon.com	Analisa Packham	+1 347-448-3190 ext. 21186	ABR0022	Arabella Bouquets | Purchase by 8 AM EST Saturday | Delivery on Tuesday | Bouquet of 12 Fresh Cut Pink Roses	1	0	1	Expedited	Elizabeth Brown	306 SUBURBAN CT APT 1			ROCHESTER	NY	14620-3829	US		Hope you’re enjoying your new place! These are just another pretty thing to view while you’re unpacking <3  Michael and Analisa From Analisa Packham	false		
113-1104088-0969867	34302065795514	2020-04-24T21:42:57+00:00	2020-04-24T14:42:57-07:00	2020-04-24T22:12:35+00:00	2020-04-30T06:59:59+00:00	-5	2sgh2cr7jcl19d6@marketplace.amazon.com	Paulette L. Hand	+1 314-282-9402 ext. 81462	ABSR005	Arabella Bouquets | Purchase by 8 AM EST Saturday | Delivery on Tuesday | Bouquet of Fresh Cut Orange Spray Roses with a Free Glass Vase	1	0	1	Expedited	Mrs. Yvonne Jacobs	THE INN ON HOLLY 120 W HOLLY AVE			PITMAN	NJ	08071-1407	US			false		
114-3844014-7727434	41597251429410	2020-04-24T21:43:44+00:00	2020-04-24T14:43:44-07:00	2020-04-24T22:13:08+00:00	2020-04-29T06:59:59+00:00	-4	xr89qhp25fn85p8@marketplace.amazon.com	Alice Melkumian	+1 210-728-4548 ext. 50335	ABR0033	Arabella Bouquets | Purchase by 8 AM EST Saturday | Delivery on Tuesday | Bouquet of 12 Fresh Cut Orange Roses	1	0	1	Expedited	Tara Feld	42 PRAIRIE RD			MACOMB	IL	61455-9750	US		Hi Tara, Wishing you a very happy birthday! Alla and Stan Melkumian	false		
113-4423162-6530625	13339021969570	2020-04-24T21:49:15+00:00	2020-04-24T14:49:15-07:00	2020-04-24T22:15:44+00:00	2020-04-29T06:59:59+00:00	-4	98p3fgr31hl3rfs@marketplace.amazon.com	Anthony Healy	+1 314-282-9402 ext. 32449	ABM010	Arabella Farm Direct Fields of The World Bouquet of Fresh Cut Flowers with a Free Glass Vase	1	0	1	Expedited	Rhonda Nielsen	10048 E THORNBUSH AVE			MESA	AZ	85212-8421	US			false		
114-3579870-6597842	46493120308322	2020-04-24T21:47:55+00:00	2020-04-24T14:47:55-07:00	2020-04-24T22:16:19+00:00	2020-04-30T06:59:59+00:00	-5	7qzpns7v6rt7s95@marketplace.amazon.com	Miles Friedman	+1 314-282-9402 ext. 97408	ABR0022	Arabella Bouquets | Purchase by 8 AM EST Saturday | Delivery on Tuesday | Bouquet of 12 Fresh Cut Pink Roses	1	0	1	Expedited	Miles Friedman	8033 WHITTING DR			MANASSAS	VA	20112-4704	US			false		
111-5832382-6029026	45120470634458	2020-04-24T21:52:05+00:00	2020-04-24T14:52:05-07:00	2020-04-24T22:22:40+00:00	2020-04-30T06:59:59+00:00	-5	1rwc575k8qygw33@marketplace.amazon.com	Ted Wood	+1 347-448-3190 ext. 38632	ABM0044	Arabella Farm Direct Bouquet of Fresh Cut Blue Hydrangea with a Free Glass Vase	1	0	1	Expedited	Dawn Wood	2570 FM 252			JASPER	TX	75951-7901	US			false		
114-9556150-7221816	18666030144738	2020-04-24T21:59:05+00:00	2020-04-24T14:59:05-07:00	2020-04-24T22:25:35+00:00	2020-04-30T06:59:59+00:00	-5	n5ydbllkhc97dvr@marketplace.amazon.com	Peter Gertson	+1 347-448-3190 ext. 64322	ABR0022	Arabella Bouquets | Purchase by 8 AM EST Saturday | Delivery on Tuesday | Bouquet of 12 Fresh Cut Pink Roses	1	0	1	Expedited	Kathy Augustine	100 Oakmont Forest Drive			Cedar Park	Texas	78613	US		Kathy, I have been thinking about you and praying for you.  Hope all is well.  Love you, Cindy	false		
114-9557625-7341060	07389187362722	2020-04-24T22:07:17+00:00	2020-04-24T15:07:17-07:00	2020-04-24T22:35:20+00:00	2020-04-30T06:59:59+00:00	-5	fw8dsj3q8mdrbtg@marketplace.amazon.com	Negel Martin	+1 314-282-9402 ext. 32751	ABR0022	Arabella Bouquets | Purchase by 8 AM EST Saturday | Delivery on Tuesday | Bouquet of 12 Fresh Cut Pink Roses	1	0	1	Expedited	Negel Martin	1460 WILDERNESS RD			WEST PALM BEACH	FL	33409-2021	US			false		
113-9429855-4029028	26502608382690	2020-04-24T22:10:49+00:00	2020-04-24T15:10:49-07:00	2020-04-24T22:39:19+00:00	2020-04-29T06:59:59+00:00	-4	70z5m7bk4tp8k0l@marketplace.amazon.com	Stacy Baghdanov	+1 347-448-3190 ext. 85222	ABR0055	Arabella Bouquets | Purchase by 8 AM EST Saturday | Delivery on Tuesday | Bouquet of 12 Fresh Cut Hot Pink Roses	1	0	1	Expedited	Lisa Armstrong	172 OLD JAFFREY RD			RINDGE	NH	03461-5028	US		I love you so much my beautiful sis!! YOU are a beautiful soul. Muah! From Love, Stacy	false		
112-0991441-1618643	51906254386522	2020-04-24T22:26:45+00:00	2020-04-24T15:26:45-07:00	2020-04-24T22:54:04+00:00	2020-04-29T06:59:59+00:00	-4	2dn1b7056h08ydy@marketplace.amazon.com	Francis	+1 347-448-3190 ext. 71100	ABM010	Arabella Farm Direct Fields of The World Bouquet of Fresh Cut Flowers with a Free Glass Vase	1	0	1	Standard	Rachel Beckman	103 S LAKESHORE DR			RACINE	WI	53403-9601	US		Dear Rachel,  Happy 21st Birthday! I wish I could give these flowers to you in person, and also celebrate you in person :) I am so excited for you as you enter into the big 21 :) ~ Yours truly	false		
114-9573337-1673063	68644710241210	2020-04-24T22:31:56+00:00	2020-04-24T15:31:56-07:00	2020-04-24T23:02:29+00:00	2020-04-30T06:59:59+00:00	-5	8rvpv5mt8c7j0g1@marketplace.amazon.com	tomokobrzozowski	+1 210-728-4548 ext. 20109	ABR0022	Arabella Bouquets | Purchase by 8 AM EST Saturday | Delivery on Tuesday | Bouquet of 12 Fresh Cut Pink Roses	1	0	1	Expedited	Ryuko Mack	400 SOUTHFIELD RD APT 1 A			BIRMINGHAM	MI	48009-1665	US			false		
114-5895194-2309056	19737126085506	2020-04-24T22:39:15+00:00	2020-04-24T15:39:15-07:00	2020-04-24T23:08:58+00:00	2020-04-29T06:59:59+00:00	-4	vh623xp3fzwrbnv@marketplace.amazon.com	Martin Mitchell	+1 347-448-3190 ext. 36956	ABR0066	Arabella Bouquets | Purchase by 8 AM EST Saturday | Delivery on Tuesday | Bouquet of 12 Fresh Cut White Roses	1	0	1	Expedited	Kellie Tapp	411 SUREYYA DR			CANTON	GA	30114-1244	US			false		
114-4122323-7087448	41651801712658	2020-04-24T22:46:12+00:00	2020-04-24T15:46:12-07:00	2020-04-24T23:16:37+00:00	2020-04-30T06:59:59+00:00	-5	v6pm2tg8p4zlw3q@marketplace.amazon.com	ken kopek	+1 347-448-3190 ext. 23737	ABR0022	Arabella Bouquets | Purchase by 8 AM EST Saturday | Delivery on Tuesday | Bouquet of 12 Fresh Cut Pink Roses	1	0	1	Expedited	ken kopek	2929 SE OCEAN BLVD APT C9			STUART	FL	34996-2772	US			false		
112-7870180-0310669	04791943060274	2020-04-24T22:47:01+00:00	2020-04-24T15:47:01-07:00	2020-04-24T23:16:44+00:00	2020-04-29T06:59:59+00:00	-4	hfws16zt1y28xyx@marketplace.amazon.com	judy darling	+1 347-448-3190 ext. 62513	ABR0055	Arabella Bouquets | Purchase by 8 AM EST Saturday | Delivery on Tuesday | Bouquet of 12 Fresh Cut Hot Pink Roses	1	0	1	Expedited	Judith Schroeder C/O Manor Care	7807 UPLANDS WAY RM 109			CITRUS HEIGHTS	CA	95610-7500	US			false		
114-0703319-4082609	40445481787346	2020-04-24T22:47:32+00:00	2020-04-24T15:47:32-07:00	2020-04-24T23:16:47+00:00	2020-04-30T06:59:59+00:00	-5	2g1fqylb2b6t37q@marketplace.amazon.com	Nicole Houghton	+1 347-448-3190 ext. 82630	ABR0022	Arabella Bouquets | Purchase by 8 AM EST Saturday | Delivery on Tuesday | Bouquet of 12 Fresh Cut Pink Roses	1	0	1	Standard	Roberta Gibbs	2121 CROCKETT RIDGE RD			FUQUAY VARINA	NC	27526-4859	US		Happy Mother’s Day! Love you From Nicole	false		
113-1599677-1130644	69038081204546	2020-04-24T22:52:06+00:00	2020-04-24T15:52:06-07:00	2020-04-24T23:22:18+00:00	2020-04-30T06:59:59+00:00	-5	kytxqq25wx5lk3q@marketplace.amazon.com	Matthew Bush	+1 314-282-9402 ext. 63777	ABR0022	Arabella Bouquets | Purchase by 8 AM EST Saturday | Delivery on Tuesday | Bouquet of 12 Fresh Cut Pink Roses	1	0	1	Expedited	Hayley Gorham	11251 S STATE ST APT F102			SANDY	UT	84070-5136	US			false		
112-6720508-1181869	13548334741906	2020-04-24T22:53:48+00:00	2020-04-24T15:53:48-07:00	2020-04-24T23:22:56+00:00	2020-04-29T06:59:59+00:00	-4	hfws16zt1y28xyx@marketplace.amazon.com	judy darling	+1 210-728-4548 ext. 36050	ABR0055	Arabella Bouquets | Purchase by 8 AM EST Saturday | Delivery on Tuesday | Bouquet of 12 Fresh Cut Hot Pink Roses	1	0	1	Expedited	Mary C/O Manor Care	7807 UPLANDS WAY RM 109			CITRUS HEIGHTS	CA	95610-7500	US		Thanks for being a good friend to our mom! The Schroeder girls From judy darling	false		
111-4637809-0385834	34785845001986	2020-04-24T22:54:30+00:00	2020-04-24T15:54:30-07:00	2020-04-24T23:23:35+00:00	2020-04-30T06:59:59+00:00	-5	rgvhbpyr4cyk2ct@marketplace.amazon.com	Angela Cole	+1 347-448-3190 ext. 62816	ABR0022	Arabella Bouquets | Purchase by 8 AM EST Saturday | Delivery on Tuesday | Bouquet of 12 Fresh Cut Pink Roses	1	0	1	Expedited	Ana Sanchez	1739 VASILI LN			BEAUMONT	CA	92223-4774	US		Happy Birthday!  Enjoy your special day! From Angela Cole	false		
113-9447979-3417025	18426173223274	2020-04-24T23:02:38+00:00	2020-04-24T16:02:38-07:00	2020-04-24T23:32:23+00:00	2020-04-29T06:59:59+00:00	-4	l3j7kw79st66jhr@marketplace.amazon.com	Judy	+1 347-448-3190 ext. 60091	ABM010	Arabella Farm Direct Fields of The World Bouquet of Fresh Cut Flowers with a Free Glass Vase	1	0	1	Expedited	Nedra Vasquez	29338 HIDDEN OAK PL			CANYON COUNTRY	CA	91387-5902	US		Happy Mother's Day Mom, we love you From Ken, Angela & Kenzi	false		
114-1758511-2762634	64118186023826	2020-04-24T23:02:43+00:00	2020-04-24T16:02:43-07:00	2020-04-24T23:33:04+00:00	2020-04-29T06:59:59+00:00	-4	jvvgmh9sg3pm651@marketplace.amazon.com	Kayli	+1 314-282-9402 ext. 51088	ABR004	Arabella Farm Direct Bouquet of 12 Fresh Cut Yellow Roses with a Free Glass Vase	1	0	1	Expedited	Kara Mariotti	12123 OAKWOOD VIEW DR APT 204			RALEIGH	NC	27614-6873	US			false		
111-2088107-0816268	59285942283602	2020-04-24T23:06:07+00:00	2020-04-24T16:06:07-07:00	2020-04-24T23:34:54+00:00	2020-04-30T06:59:59+00:00	-5	44rgp6sd0qflcrm@marketplace.amazon.com	john wright	+1 314-282-9402 ext. 32470	ABR0022	Arabella Bouquets | Purchase by 8 AM EST Saturday | Delivery on Tuesday | Bouquet of 12 Fresh Cut Pink Roses	1	0	1	Expedited	Joseph D Wright	10501 WYNDTREE DR			EMERALD ISLE	NC	28594-2124	US			false		
112-4616102-5036241	02314495709786	2020-04-24T23:14:15+00:00	2020-04-24T16:14:15-07:00	2020-04-24T23:41:53+00:00	2020-04-29T06:59:59+00:00	-4	z6801rvmcwm3jdb@marketplace.amazon.com	Kenneth Mishark, MD	+1 347-448-3190 ext. 76692	ABR0055	Arabella Bouquets | Purchase by 8 AM EST Saturday | Delivery on Tuesday | Bouquet of 12 Fresh Cut Hot Pink Roses	1	0	1	Expedited	dawn crosby	215 Golf Ct			Cold Spring	MN	56320-8749	US		Hi dawn, Happy Birthday!  Love, Julie,Ken,Lynn and Erin	false		
111-6441100-9223452	48358114600762	2020-04-24T23:15:41+00:00	2020-04-24T16:15:41-07:00	2020-04-24T23:43:59+00:00	2020-04-29T06:59:59+00:00	-4	67qbdggm2wk417l@marketplace.amazon.com	lucy	+1 347-448-3190 ext. 10143	ABR0055	Arabella Bouquets | Purchase by 8 AM EST Saturday | Delivery on Tuesday | Bouquet of 12 Fresh Cut Hot Pink Roses	1	0	1	Expedited	ALLI DOWNS	3880 LITTLE FALLS DR			CUMMING	GA	30041-1566	US		Happy Mother’s Day !!! I know I missed your birthday, hopefully this will make up for that. Love Tio and Lulu From lucy	false		
113-7726569-8632245	22111178211026	2020-04-24T23:16:27+00:00	2020-04-24T16:16:27-07:00	2020-04-24T23:46:09+00:00	2020-04-29T06:59:59+00:00	-4	cbflvnvxkgc10j6@marketplace.amazon.com	tara	+1 347-448-3190 ext. 57286	ABM010	Arabella Farm Direct Fields of The World Bouquet of Fresh Cut Flowers with a Free Glass Vase	1	0	1	Standard	Debbie kelly	4500 FLORIDA AVE			NEWTOWN SQ	PA	19073-3120	US		Happy Mother’s Day, Grandma! We love you! From Love, Chase and Brandy	false		
111-9537511-3547436	18371860027890	2020-04-24T23:18:33+00:00	2020-04-24T16:18:33-07:00	2020-04-24T23:47:34+00:00	2020-04-30T06:59:59+00:00	-5	67qbdggm2wk417l@marketplace.amazon.com	lucy	+1 347-448-3190 ext. 48771	ABR0022	Arabella Bouquets | Purchase by 8 AM EST Saturday | Delivery on Tuesday | Bouquet of 12 Fresh Cut Pink Roses	1	0	1	Expedited	Emma prince	9561 HIGHEDGE DR			DALLAS	TX	75238-2534	US		Happy Mother’s Day 3 times over Love Tio and Lulu From lucy	false		
111-8114498-4672204	27684495492770	2020-04-24T23:19:53+00:00	2020-04-24T16:19:53-07:00	2020-04-24T23:50:00+00:00	2020-04-30T06:59:59+00:00	-5	67qbdggm2wk417l@marketplace.amazon.com	lucy	+1 314-282-9402 ext. 08317	ABR0022	Arabella Bouquets | Purchase by 8 AM EST Saturday | Delivery on Tuesday | Bouquet of 12 Fresh Cut Pink Roses	1	0	1	Expedited	Margaret Abroms	7600 STETSON AVE			LOS ANGELES	CA	90045-1375	US			false		
111-7272739-0224206	63846280363146	2020-04-24T23:20:03+00:00	2020-04-24T16:20:03-07:00	2020-04-24T23:50:24+00:00	2020-04-29T06:59:59+00:00	-4	7vycgsd3wx7nnvf@marketplace.amazon.com	Hugo Morales	+1 314-282-9402 ext. 78112	ABR0033	Arabella Bouquets | Purchase by 8 AM EST Saturday | Delivery on Tuesday | Bouquet of 12 Fresh Cut Orange Roses	1	0	1	Expedited	Hugo Morales	173 SHERMAN AVE APT 16			PATERSON	NJ	07502-1753	US			false		
111-4257463-6561868	20216734972698	2020-04-24T23:23:01+00:00	2020-04-24T16:23:01-07:00	2020-04-24T23:52:40+00:00	2020-04-29T06:59:59+00:00	-4	3z548pxm5qtpkzb@marketplace.amazon.com	Annette	+1 347-448-3190 ext. 22290	ABM010	Arabella Farm Direct Fields of The World Bouquet of Fresh Cut Flowers with a Free Glass Vase	1	0	1	Expedited	Sabrina Novak	1241 E 70TH ST			BROOKLYN	NY	11234-5716	US		thunking of you and your family. Stay strong. Love Alana and Joanna	false		
111-5544907-8224241	39301210200618	2020-04-24T23:29:14+00:00	2020-04-24T16:29:14-07:00	2020-04-24T23:56:59+00:00	2020-04-30T06:59:59+00:00	-5	67qbdggm2wk417l@marketplace.amazon.com	lucy	+1 314-282-9402 ext. 54201	ABR0022	Arabella Bouquets | Purchase by 8 AM EST Saturday | Delivery on Tuesday | Bouquet of 12 Fresh Cut Pink Roses	1	0	1	Expedited	Patricia Gutierrez	12051 LUCILE ST			CULVER CITY	CA	90230-6239	US		Happy Mother’s Day !!! Love Robert and Lucy From Robert/lucy	false		
111-8819723-4748228	66613195431154	2020-04-24T23:29:51+00:00	2020-04-24T16:29:51-07:00	2020-04-24T23:59:10+00:00	2020-04-30T06:59:59+00:00	-5	qfm96dkh2ks3j6w@marketplace.amazon.com	Becca	+1 210-728-4548 ext. 93607	ABR0022	Arabella Bouquets | Purchase by 8 AM EST Saturday | Delivery on Tuesday | Bouquet of 12 Fresh Cut Pink Roses	1	0	1	Standard	Tamara Wanket	1805 RIDGECREST ST			SPRINGDALE	AR	72762-5960	US		Happy Mother’s Day! I hope you have a wonderful day. I love you From Love, Rebecca	false		
111-5325636-7714613	03425013975562	2020-04-24T23:33:02+00:00	2020-04-24T16:33:02-07:00	2020-04-25T00:02:41+00:00	2020-04-29T06:59:59+00:00	-4	92rl0c135q4d3cm@marketplace.amazon.com	Brittany Engel	+1 210-728-4548 ext. 67942	ABR012	Arabella Bouquets | Purchase by 8 AM EST Saturday | Delivery on Tuesday | Bouquet of 18 Fresh Cut Pink Roses	1	0	1	Expedited	Brianna Medina	3218 GONZALES ST APT 1109			AUSTIN	TX	78702-3831	US		Congratulations, Dr. Medina! We love you! From Brittany, Colton, Lisa, Read, and Morgan	false		
114-2509062-2061047	48490336356210	2020-04-24T23:37:34+00:00	2020-04-24T16:37:34-07:00	2020-04-25T00:08:14+00:00	2020-04-30T06:59:59+00:00	-5	dkm5hbf2f5w7j9d@marketplace.amazon.com	Dorothy Baker	+1 314-282-9402 ext. 56409	ABR0022	Arabella Bouquets | Purchase by 8 AM EST Saturday | Delivery on Tuesday | Bouquet of 12 Fresh Cut Pink Roses	1	0	1	Expedited	Azizi  Baker	65 Addison Place Unit C			Clifton	New Jersey	07012	US			false		
114-6507929-0002617	59091773218986	2020-04-24T23:41:33+00:00	2020-04-24T16:41:33-07:00	2020-04-25T00:12:08+00:00	2020-04-29T06:59:59+00:00	-4	dkm5hbf2f5w7j9d@marketplace.amazon.com	Dorothy Baker	+1 412-532-4665 ext. 30301	ABR0033	Arabella Bouquets | Purchase by 8 AM EST Saturday | Delivery on Tuesday | Bouquet of 12 Fresh Cut Orange Roses	1	0	1	Expedited	Malcolm Baylor	12 E 116TH ST APT 5A			NEW YORK	NY	10029-1052	US			false		
113-8597251-3950669	27509679182242	2020-04-24T23:42:02+00:00	2020-04-24T16:42:02-07:00	2020-04-25T00:12:44+00:00	2020-04-30T06:59:59+00:00	-5	59ztsz5bcxpfl10@marketplace.amazon.com	Emily Burwinkle	+1 347-448-3190 ext. 55007	ABR0022	Arabella Bouquets | Purchase by 8 AM EST Saturday | Delivery on Tuesday | Bouquet of 12 Fresh Cut Pink Roses	1	0	1	Expedited	Emily Burwinkle	408 S FRONT ST APT 508			MEMPHIS	TN	38103-4450	US			false		
111-4282698-4534624	20649945124482	2020-04-25T00:03:30+00:00	2020-04-24T17:03:30-07:00	2020-04-25T00:31:44+00:00	2020-04-30T06:59:59+00:00	-5	6b9byh2gw9b75vc@marketplace.amazon.com	Brian Brenner	+1 347-448-3190 ext. 21712	ABR0022	Arabella Bouquets | Purchase by 8 AM EST Saturday | Delivery on Tuesday | Bouquet of 12 Fresh Cut Pink Roses	1	0	1	Expedited	Kathy Taussig	5417 COPPER CREEK RD			FLOWERY BRANCH	GA	30542-5137	US			false		
112-1063284-8389847	62004790882138	2020-04-25T00:06:02+00:00	2020-04-24T17:06:02-07:00	2020-04-25T00:35:21+00:00	2020-04-30T06:59:59+00:00	-5	gw32fxv4lrr0384@marketplace.amazon.com	Kim Gillespie	+1 412-532-4665 ext. 68821	ABR0022	Arabella Bouquets | Purchase by 8 AM EST Saturday | Delivery on Tuesday | Bouquet of 12 Fresh Cut Pink Roses	1	0	1	Standard	Rosemary Gillespie	814 PEAKSVIEW ST			BEDFORD	VA	24523-1324	US		Happy Mother's Day!  Love, John and Kim	false		
112-3993597-6297846	34303504937698	2020-04-25T00:08:41+00:00	2020-04-24T17:08:41-07:00	2020-04-25T00:38:13+00:00	2020-04-30T06:59:59+00:00	-5	gw32fxv4lrr0384@marketplace.amazon.com	Kim Gillespie	+1 210-728-4548 ext. 82613	ABR0022	Arabella Bouquets | Purchase by 8 AM EST Saturday | Delivery on Tuesday | Bouquet of 12 Fresh Cut Pink Roses	1	0	1	Standard	Deborah Gillespie	2304 Eads Mill Road			Athens	WV	24712	US		Happy Mother's Day Deborah!  We love you, John and Kim	false		
112-8460140-0267462	17214033967210	2020-04-25T00:12:53+00:00	2020-04-24T17:12:53-07:00	2020-04-25T00:40:09+00:00	2020-04-30T06:59:59+00:00	-5	gw32fxv4lrr0384@marketplace.amazon.com	Kim Gillespie	+1 347-448-3190 ext. 72046	ABR0022	Arabella Bouquets | Purchase by 8 AM EST Saturday | Delivery on Tuesday | Bouquet of 12 Fresh Cut Pink Roses	1	0	1	Expedited	Shirley Jacobs	7 JAKES LN			PASADENA	MD	21122-4036	US		Happy Mother's Day Mom!  Miss you and love you, Kim and John	false		
112-2816710-3081011	29666123772826	2020-04-25T00:16:45+00:00	2020-04-24T17:16:45-07:00	2020-04-25T00:45:53+00:00	2020-04-30T06:59:59+00:00	-5	gw32fxv4lrr0384@marketplace.amazon.com	Kim Gillespie	+1 210-728-4548 ext. 89390	ABR0022	Arabella Bouquets | Purchase by 8 AM EST Saturday | Delivery on Tuesday | Bouquet of 12 Fresh Cut Pink Roses	1	0	1	Standard	Jessica Zeh	102 4TH AVE SE			GLEN BURNIE	MD	21061-3614	US		A Happy Mother's Day to Our Beautiful Daughter!  We love  you Jessica, Mom and John	false		
112-8885960-8769865	01871824426018	2020-04-25T00:21:20+00:00	2020-04-24T17:21:20-07:00	2020-04-25T00:50:26+00:00	2020-04-29T06:59:59+00:00	-4	dbmtc72xrxdtvwy@marketplace.amazon.com	ROY C HERMAN	+1 314-282-9402 ext. 95131	ABR012	Arabella Bouquets | Purchase by 8 AM EST Saturday | Delivery on Tuesday | Bouquet of 18 Fresh Cut Pink Roses	1	0	1	Expedited	Roy Herman	5136 Grimm Dr			Alexandria	VA	22304-8652	US		You are my sun, my stars, my gravity, my oxygen.  Thank you for giving me life, stability, inspiration and purpose.  Sorry it took so long for my dense brain to catch up with my heart.	false		
112-4175553-4581834	33292753895618	2020-04-25T00:27:26+00:00	2020-04-24T17:27:26-07:00	2020-04-25T00:54:31+00:00	2020-04-30T06:59:59+00:00	-5	6j3dyjsr901ygwh@marketplace.amazon.com	Rifatt Mohammad	+1 314-282-9402 ext. 05257	ABR0022	Arabella Bouquets | Purchase by 8 AM EST Saturday | Delivery on Tuesday | Bouquet of 12 Fresh Cut Pink Roses	1	0	1	Expedited	Suzan Kaya	9618 STONEY CREEK LN			PARMA HEIGHTS	OH	44130-4767	US		HAPPY BIRTHDAY! I LOVE YOU! From Rifatt Mohammad	false		
112-0649728-1910617	25422871293898	2020-04-25T00:34:53+00:00	2020-04-24T17:34:53-07:00	2020-04-25T00:56:23+00:00	2020-04-30T06:59:59+00:00	-5	3qq9xyp1kk6wbyz@marketplace.amazon.com	Darius	+1 347-448-3190 ext. 77300	ABR0022	Arabella Bouquets | Purchase by 8 AM EST Saturday | Delivery on Tuesday | Bouquet of 12 Fresh Cut Pink Roses	1	0	1	Expedited	Darius Moody	114 MICHIGAN CIR			JACKSONVILLE	AR	72076-1039	US		Aireonna Daylise Rene Moody, you are unbelievably strong, effortlessly amazing, watching you grow is a sight to see, being by your side through the ups and downs is something I won't trade for any amount of money. ILYSM, LOML From D	false		
114-9324251-9027405	29263064509794	2020-04-25T00:33:18+00:00	2020-04-24T17:33:18-07:00	2020-04-25T00:57:45+00:00	2020-04-29T06:59:59+00:00	-4	xmdf70jphj5p9hz@marketplace.amazon.com	Erin Goodell	+1 210-728-4548 ext. 29130	ABR012	Arabella Bouquets | Purchase by 8 AM EST Saturday | Delivery on Tuesday | Bouquet of 18 Fresh Cut Pink Roses	1	0	1	Expedited	Mum Mum & Papa Goodell	12415 TENBURRY AVE			BAKERSFIELD	CA	93312-5839	US		I miss you guys SO much!! Just something to brighten your day, love you both more than you will ever know! Love, Madi From Madi Goodell	false		
113-9424576-7456266	54148283429962	2020-04-25T00:31:07+00:00	2020-04-24T17:31:07-07:00	2020-04-25T00:58:53+00:00	2020-04-30T06:59:59+00:00	-5	s5j7rk40lf1q2c8@marketplace.amazon.com	rhonda	+1 347-448-3190 ext. 85996	ABR0022	Arabella Bouquets | Purchase by 8 AM EST Saturday | Delivery on Tuesday | Bouquet of 12 Fresh Cut Pink Roses	1	0	1	Expedited	Patricia Duke	14061 NW 9TH RD			NEWBERRY	FL	32669-8001	US		Hi Mom!  HAPPY MOTHER'S DAY! Enjoy your gift! Love, Rhonda, Pat, Norah, and Joey, Harley, & Speedy!	false		
113-5779847-2108267	09232432223634	2020-04-25T00:31:30+00:00	2020-04-24T17:31:30-07:00	2020-04-25T01:02:06+00:00	2020-04-28T06:59:59+00:00	-3	9bkdbkyxt19y0fn@marketplace.amazon.com	Thariha Jordan	+1 347-448-3190 ext. 07172	ABR001	Arabella Bouquets | Purchase by 8 AM EST Saturday | Delivery on Tuesday | Bouquet of 12 Fresh Cut Red Roses	1	0	1	SecondDay	Danielle Lalk	3167 TAMMY LYNN DR SW			MARIETTA	GA	30060-6341	US			false		
111-1760192-1982624	15586630473458	2020-04-25T00:34:51+00:00	2020-04-24T17:34:51-07:00	2020-04-25T01:03:00+00:00	2020-04-30T06:59:59+00:00	-5	j6x73hcqg932g2m@marketplace.amazon.com	Shelley Salko-Culbreath	+1 347-448-3190 ext. 21547	ABR0022	Arabella Bouquets | Purchase by 8 AM EST Saturday | Delivery on Tuesday | Bouquet of 12 Fresh Cut Pink Roses	1	0	1	Expedited	Heather Salko	372 PARKDALE BLVD			LEHIGH ACRES	FL	33974-9681	US		Happy Birthday Heather!!! We love and miss you!! Hope you have a great day!! Love Shelley, Mark, Katelynn, Michaela and Jonah From Shelley Salko-Culbreath	false		
111-6709470-0161800	19337388171738	2020-04-25T00:33:55+00:00	2020-04-24T17:33:55-07:00	2020-04-25T01:03:38+00:00	2020-04-30T06:59:59+00:00	-5	xypxprvpyygdy5t@marketplace.amazon.com	Brock Marbaugh	+1 347-448-3190 ext. 80783	ABR0022	Arabella Bouquets | Purchase by 8 AM EST Saturday | Delivery on Tuesday | Bouquet of 12 Fresh Cut Pink Roses	1	0	1	Expedited	DB	1486 CLUBVIEW BLVD S			COLUMBUS	OHIO	43235-1636	US			false		
114-3547129-3453846	14891076334610	2020-04-25T00:56:30+00:00	2020-04-24T17:56:30-07:00	2020-04-25T01:06:20+00:00	2020-04-30T06:59:59+00:00	-5	wwy0ym2hp46dmxx@marketplace.amazon.com	Ashley	+1 347-448-3190 ext. 72962	ABR0022	Arabella Bouquets | Purchase by 8 AM EST Saturday | Delivery on Tuesday | Bouquet of 12 Fresh Cut Pink Roses	1	0	1	Expedited	Marlene Callejas	800 HEAD ST			SAN FRANCISCO	CA	94132-2814	US		Marlene, you light up my life! My family and I love you so much! you have the biggest heart and I get so happy when i hear your voice. You are loved by many and we are cheering you on! Love, Ashley Stagliano	false		
112-8102218-2793035	68742065413754	2020-04-25T00:42:37+00:00	2020-04-24T17:42:37-07:00	2020-04-25T01:06:43+00:00	2020-04-29T06:59:59+00:00	-4	clcxxltntrfmqhy@marketplace.amazon.com	Krystean Ray	+1 210-728-4548 ext. 21278	ABR004	Arabella Farm Direct Bouquet of 12 Fresh Cut Yellow Roses with a Free Glass Vase	1	0	1	Expedited	Angelita Ray	7206 BRANDYRIDGE			SAN ANTONIO	TX	78250-3334	US		Only the best Moms become Grandmothers. Happy Mother’s Day Grams! Love you the most~ From Krys Ray	false		
111-9862181-9122659	53054593143210	2020-04-25T00:52:42+00:00	2020-04-24T17:52:42-07:00	2020-04-25T01:19:29+00:00	2020-04-29T06:59:59+00:00	-4	szjtf40fqb6t4hc@marketplace.amazon.com	Cristina Duran	+1 347-448-3190 ext. 50798	ABR0055	Arabella Bouquets | Purchase by 8 AM EST Saturday | Delivery on Tuesday | Bouquet of 12 Fresh Cut Hot Pink Roses	1	0	1	Expedited	Maria Magallanes	6601 CORNELL DR			ALEXANDRIA	VA	22307-1329	US		Hi Sammy, Happy 6th Birthday 🎂 🥰 Love you, Grandma and Grandpa	false		
113-4230977-3926607	32561493055770	2020-04-25T01:00:51+00:00	2020-04-24T18:00:51-07:00	2020-04-25T01:19:53+00:00	2020-04-30T06:59:59+00:00	-5	hs4cg6vtvxxg72m@marketplace.amazon.com	joel	+1 314-282-9402 ext. 43855	ABR0022	Arabella Bouquets | Purchase by 8 AM EST Saturday | Delivery on Tuesday | Bouquet of 12 Fresh Cut Pink Roses	1	0	1	Expedited	Joel A Matute Ortiz	343 Jersey dr			sevierville	TN	37862	US		Happy Mothers Day Kat! still feels weird saying it haha I love you!	false		
113-4230977-3926607	65333923508770	2020-04-25T01:00:51+00:00	2020-04-24T18:00:51-07:00	2020-04-25T01:19:53+00:00	2020-04-30T06:59:59+00:00	-5	hs4cg6vtvxxg72m@marketplace.amazon.com	joel	+1 314-282-9402 ext. 43855	ABR0022	Arabella Bouquets | Purchase by 8 AM EST Saturday | Delivery on Tuesday | Bouquet of 12 Fresh Cut Pink Roses	1	0	1	Expedited	Joel A Matute Ortiz	343 Jersey dr			sevierville	TN	37862	US		Feliz dia de las madres Abuela <3 la quiero mucho! quidese y no trabaje mucho jaja!	false		
113-4230977-3926607	29441654044634	2020-04-25T01:00:51+00:00	2020-04-24T18:00:51-07:00	2020-04-25T01:19:53+00:00	2020-04-30T06:59:59+00:00	-5	hs4cg6vtvxxg72m@marketplace.amazon.com	joel	+1 314-282-9402 ext. 43855	ABR0022	Arabella Bouquets | Purchase by 8 AM EST Saturday | Delivery on Tuesday | Bouquet of 12 Fresh Cut Pink Roses	1	0	1	Expedited	Joel A Matute Ortiz	343 Jersey dr			sevierville	TN	37862	US		Feliz dia de las madres Mami <3 te quiero mucho!!! espero que gusten estas flores! sos mi mejor amiga i love you	false		
113-7059958-9197056	41783024765810	2020-04-25T01:03:28+00:00	2020-04-24T18:03:28-07:00	2020-04-25T01:32:59+00:00	2020-04-28T06:59:59+00:00	-3	9xlfq9ty9j33km4@marketplace.amazon.com	Leonard	+1 347-448-3190 ext. 93669	ABR001	Arabella Bouquets | Purchase by 8 AM EST Saturday | Delivery on Tuesday | Bouquet of 12 Fresh Cut Red Roses	1	0	1	SecondDay	Kylie	10368 LARKIN RD			NORTH COLLINS	NY	14111-9500	US		I love and miss you so much! From Leonard	false		
114-5884428-1606654	57403647960802	2020-04-25T01:23:12+00:00	2020-04-24T18:23:12-07:00	2020-04-25T01:43:38+00:00	2020-04-30T06:59:59+00:00	-5	h0ny7qt2bh5rks4@marketplace.amazon.com	cherrymae sepulveda	+1 314-282-9402 ext. 47663	ABR0022	Arabella Bouquets | Purchase by 8 AM EST Saturday | Delivery on Tuesday | Bouquet of 12 Fresh Cut Pink Roses	1	0	1	Expedited	Carol DeMaio	168 ELIOT LN			ALBRIGHTSVILLE	PA	18210-3593	US		Mom,  You have been the most caring  grandmother and a great mom, not only during this crisis but everyday  We love you. From Isabella, cherry and Anthony From From us	false		
113-3530232-3533815	19373296500058	2020-04-25T01:13:45+00:00	2020-04-24T18:13:45-07:00	2020-04-25T01:44:08+00:00	2020-04-29T06:59:59+00:00	-4	l7klhp3jrk7xs1w@marketplace.amazon.com	michelle punch	+1 347-448-3190 ext. 89780	ABR0033	Arabella Bouquets | Purchase by 8 AM EST Saturday | Delivery on Tuesday | Bouquet of 12 Fresh Cut Orange Roses	1	0	1	Expedited	MICHELLE PUNCH	1706 PHEASANT ROOST			AUSTIN	TX	78758-3507	US			false		
111-2501726-6605837	31774282177786	2020-04-25T01:23:17+00:00	2020-04-24T18:23:17-07:00	2020-04-25T01:52:24+00:00	2020-04-29T06:59:59+00:00	-4	jb3jv5ytzdj3vqc@marketplace.amazon.com	joyce roberts	+1 347-448-3190 ext. 27103	ABR0055	Arabella Bouquets | Purchase by 8 AM EST Saturday | Delivery on Tuesday | Bouquet of 12 Fresh Cut Hot Pink Roses	1	0	1	Expedited	Kelsey Cobb	432 BURNSIDE AVE			NORRISTOWN	PA	19403-2610	US		Happy 30th! From Love Mom & Dad	false		
114-0689026-4821065	13800654072818	2020-04-25T01:43:10+00:00	2020-04-24T18:43:10-07:00	2020-04-25T01:56:32+00:00	2020-04-30T06:59:59+00:00	-5	6p3psj2r4f6m324@marketplace.amazon.com	Walter H. Ellenberger	+1 314-282-9402 ext. 53128	ABR0022	Arabella Bouquets | Purchase by 8 AM EST Saturday | Delivery on Tuesday | Bouquet of 12 Fresh Cut Pink Roses	1	0	1	Expedited	Barbara McHale	THE CULPEPPER 12425 VILLAGE LOOP			CULPEPER	VA	22701-4306	US		Hi Barbara, Enjoy your gift! Hope these put a little sunshine in your life today Peace and Love From Gert Ellenberger	false		
114-0638134-5609844	36080043768570	2020-04-25T01:37:04+00:00	2020-04-24T18:37:04-07:00	2020-04-25T02:04:36+00:00	2020-04-30T06:59:59+00:00	-5	f305bzs5gy1wys1@marketplace.amazon.com	rachele	+1 314-282-9402 ext. 81620	ABR0022	Arabella Bouquets | Purchase by 8 AM EST Saturday | Delivery on Tuesday | Bouquet of 12 Fresh Cut Pink Roses	1	0	1	Standard	Courtney	29076 FOURNER AVE			MADISON HEIGHTS	MI	48071-4404	US		This chapter in life will be full of wonderful surprises,We can't wait to share them with you. Congratulations Mommy to be. From Dad and Rachele	false		
114-0516294-0197833	44868053479514	2020-04-25T01:55:58+00:00	2020-04-24T18:55:58-07:00	2020-04-25T02:12:27+00:00	2020-04-29T06:59:59+00:00	-4	vxlg5yjxtvy5y6d@marketplace.amazon.com	Patrick Nardelli	+1 314-282-9402 ext. 70990	ABR0066	Arabella Bouquets | Purchase by 8 AM EST Saturday | Delivery on Tuesday | Bouquet of 12 Fresh Cut White Roses	1	0	1	Expedited	Mrs. Jeanine O'Toole	121 ANTONIA CT			LINCROFT	NJ	07738-1537	US		Dear Jeanine, You are the family hero! We are very sorry for your grief. We will always remember your dad in our thoughts and prayers. Stay strong. Love always, Zory and Pat	false		
111-3406706-2494604	35782849349210	2020-04-25T01:48:07+00:00	2020-04-24T18:48:07-07:00	2020-04-25T02:14:13+00:00	2020-04-30T06:59:59+00:00	-5	6slvfyr3y76763d@marketplace.amazon.com	Jennifer Gonyon	+1 347-448-3190 ext. 03946	ABR0022	Arabella Bouquets | Purchase by 8 AM EST Saturday | Delivery on Tuesday | Bouquet of 12 Fresh Cut Pink Roses	1	0	1	Expedited	Mrs. Donna Macha	4591 PURDY LN APT 1			WEST PALM BEACH	FL	33415-7406	US		Dear Mom, Happy Mother’s Day! You are awesome, amazing, GREATLY loved, & so appreciated. Wishing you an extra special day & hope you know how much we love you. We thank God for you! Love, Jennifer & Eric From Jennifer Gonyon	true		Business Price
114-0795602-9109818	38234890235858	2020-04-25T01:51:48+00:00	2020-04-24T18:51:48-07:00	2020-04-25T02:25:20+00:00	2020-04-30T06:59:59+00:00	-5	5rxkkr959n31bd5@marketplace.amazon.com	diego m rubio	+1 347-448-3190 ext. 46993	ABR0022	Arabella Bouquets | Purchase by 8 AM EST Saturday | Delivery on Tuesday | Bouquet of 12 Fresh Cut Pink Roses	1	0	1	Expedited	Nicolas Gaviria	2648 APERTURE CIR			SAN DIEGO	CA	92108-2628	US			false		
113-5314778-3513016	57860308025898	2020-04-25T02:02:29+00:00	2020-04-24T19:02:29-07:00	2020-04-25T02:31:00+00:00	2020-04-30T06:59:59+00:00	-5	kw6c43dxymdg289@marketplace.amazon.com	Nancy P. Brown	+1 347-448-3190 ext. 70580	ABR0022	Arabella Bouquets | Purchase by 8 AM EST Saturday | Delivery on Tuesday | Bouquet of 12 Fresh Cut Pink Roses	1	0	1	Standard	Mona Brown	5025 MELISSA ST			HALTOM CITY	TX	76117-3138	US		Happy Mother's Day, early... From Nancy P. Brown	false		
112-7979635-5917061	69449775418314	2020-04-25T02:19:16+00:00	2020-04-24T19:19:16-07:00	2020-04-25T02:46:04+00:00	2020-04-30T06:59:59+00:00	-5	z259sv0xf907h3d@marketplace.amazon.com	heather backhaus	+1 347-448-3190 ext. 29537	ABR0022	Arabella Bouquets | Purchase by 8 AM EST Saturday | Delivery on Tuesday | Bouquet of 12 Fresh Cut Pink Roses	1	0	1	Expedited	Priscalla Green	603 N WILLIAMS AVE			SIOUX FALLS	SD	57104-1927	US		Hi Priscalla, Enjoy your gift! From heather backhaus	false		
114-8613306-7425040	35182108597882	2020-04-25T02:20:06+00:00	2020-04-24T19:20:06-07:00	2020-04-25T02:48:01+00:00	2020-04-30T06:59:59+00:00	-5	qv0hc83x9p4zymk@marketplace.amazon.com	David Guzman	+1 210-728-4548 ext. 82325	ABR0022	Arabella Bouquets | Purchase by 8 AM EST Saturday | Delivery on Tuesday | Bouquet of 12 Fresh Cut Pink Roses	1	0	1	Expedited	Raquel Gardea	5833 W VALLEY CIR			EL PASO	TX	79932-1959	US			false		
113-5292197-1720212	26053213755970	2020-04-25T02:18:54+00:00	2020-04-24T19:18:54-07:00	2020-04-25T02:48:39+00:00	2020-04-30T06:59:59+00:00	-5	8k9sg3j3h4q3d9z@marketplace.amazon.com	Jere Schlossberg	+1 210-728-4548 ext. 36476	ABR0022	Arabella Bouquets | Purchase by 8 AM EST Saturday | Delivery on Tuesday | Bouquet of 12 Fresh Cut Pink Roses	1	0	1	Expedited	Jere Schlossberg	100 VALLEY OAK CT			FOLSOM	CALIFORNIA	95630-1821	US			false		
114-7711943-2865060	57909686385498	2020-04-25T02:26:08+00:00	2020-04-24T19:26:08-07:00	2020-04-25T02:51:45+00:00	2020-04-30T06:59:59+00:00	-5	j4y6jmb9m76brbs@marketplace.amazon.com	Dustin Fuller	+1 347-448-3190 ext. 16894	ABR0022	Arabella Bouquets | Purchase by 8 AM EST Saturday | Delivery on Tuesday | Bouquet of 12 Fresh Cut Pink Roses	1	0	1	Expedited	Diana Fuller	52901 201ST AVE			HODGEN	OK	74939-3006	US		HAPPY MOTHER’S DAY WE LOVE YOU 💖💖 From Dustin, Amanda, Mason, Violet	false		
113-6522836-9197022	27717871250130	2020-04-25T02:21:40+00:00	2020-04-24T19:21:40-07:00	2020-04-25T02:51:52+00:00	2020-04-29T06:59:59+00:00	-4	16wxtrd480hbwk9@marketplace.amazon.com	Megan  Spiesman	+1 314-282-9402 ext. 25368	ABR0055	Arabella Bouquets | Purchase by 8 AM EST Saturday | Delivery on Tuesday | Bouquet of 12 Fresh Cut Hot Pink Roses	1	0	1	Expedited	Megan Spiesman	136 APPIAN WAY			COVENTRY	CT	06238-1186	US			false		
111-8735171-5137039	64317066113618	2020-04-25T02:25:05+00:00	2020-04-24T19:25:05-07:00	2020-04-25T02:53:31+00:00	2020-04-30T06:59:59+00:00	-5	y9m5h59y9q28rrs@marketplace.amazon.com	Zoilo Rodriguez Jr	+1 314-282-9402 ext. 60889	ABR0022	Arabella Bouquets | Purchase by 8 AM EST Saturday | Delivery on Tuesday | Bouquet of 12 Fresh Cut Pink Roses	1	0	1	Expedited	Milagros Rodriguez	1192 STATE ROUTE 32			WALLKILL	NY	12589-2765	US		Happy Birthday!  Love Pepo and Megan From Pepo and Megan	false		
112-5656201-2401061	23781873256626	2020-04-25T02:31:46+00:00	2020-04-24T19:31:46-07:00	2020-04-25T02:55:57+00:00	2020-04-29T06:59:59+00:00	-4	q5dy9zdnvl1drrf@marketplace.amazon.com	Elisha	+1 412-532-4665 ext. 75574	ABR0055	Arabella Bouquets | Purchase by 8 AM EST Saturday | Delivery on Tuesday | Bouquet of 12 Fresh Cut Hot Pink Roses	1	0	1	Expedited	Gabrielle Blew	43662 YULAN ST			CALIFORNIA	MD	20619-7149	US		Happy 18th Birthday Beautiful!!!! We Love you so much and can't wait to see the positive, lasting mark you make on this world!!!! Love, Julia, Eli, and Levi From Julia, Eli, and Levi	false		
113-7464699-0323418	62605059355674	2020-04-25T02:43:38+00:00	2020-04-24T19:43:38-07:00	2020-04-25T03:05:36+00:00	2020-04-30T06:59:59+00:00	-5	949wx53skhxbw55@marketplace.amazon.com	Helen Elimelakh	+1 210-728-4548 ext. 53570	ABR0022	Arabella Bouquets | Purchase by 8 AM EST Saturday | Delivery on Tuesday | Bouquet of 12 Fresh Cut Pink Roses	1	0	1	Expedited	Boris Elimelakh	3030 CABRILLO ST APT 202			SAN FRANCISCO	CA	94121-3558	US		Congratulations and our best wishes on your anniversary! From all your children, grandchildren and great grandchildren in Australia.	false		
111-8071008-1195452	39955871748954	2020-04-25T02:46:18+00:00	2020-04-24T19:46:18-07:00	2020-04-25T03:15:15+00:00	2020-04-30T06:59:59+00:00	-5	6736bq8bvz87gbz@marketplace.amazon.com	Robert and Judith Grimm	+1 347-448-3190 ext. 64260	ABR0022	Arabella Bouquets | Purchase by 8 AM EST Saturday | Delivery on Tuesday | Bouquet of 12 Fresh Cut Pink Roses	1	0	1	Expedited	Judy Bynum	476 COLLINS LINE RD			DERMOTT	AR	71638-8768	US		We love you! Love, Jody, Robert, Emma, Matthew, Garraway, and Allison From Robert and Judith Grimm	false		
114-9581691-9079459	29875213428658	2020-04-25T02:47:47+00:00	2020-04-24T19:47:47-07:00	2020-04-25T03:16:32+00:00	2020-04-30T06:59:59+00:00	-5	fgbjnmf9j24v88g@marketplace.amazon.com	Michelle Berra	+1 314-282-9402 ext. 53722	ABR0022	Arabella Bouquets | Purchase by 8 AM EST Saturday | Delivery on Tuesday | Bouquet of 12 Fresh Cut Pink Roses	1	0	1	Expedited	Marina Berra	5574 COUNTY ROAD 311			IGNACIO	CO	81137-9751	US			false		
111-0704370-8217002	07278917430034	2020-04-25T02:50:24+00:00	2020-04-24T19:50:24-07:00	2020-04-25T03:19:39+00:00	2020-04-30T06:59:59+00:00	-5	6736bq8bvz87gbz@marketplace.amazon.com	Robert and Judith Grimm	+1 314-282-9402 ext. 12641	ABR0022	Arabella Bouquets | Purchase by 8 AM EST Saturday | Delivery on Tuesday | Bouquet of 12 Fresh Cut Pink Roses	1	0	1	Expedited	Sherry Grimm	717 WINDBROOK CT			FORT SMITH	AR	72908-8195	US		We love you!!! Love, Robert, Jody, Emma, Matthew, Garraway, and Allison From Robert and Judith Grimm	false		
111-6595487-6544254	24861027812066	2020-04-25T02:52:46+00:00	2020-04-24T19:52:46-07:00	2020-04-25T03:22:06+00:00	2020-04-30T06:59:59+00:00	-5	6736bq8bvz87gbz@marketplace.amazon.com	Robert and Judith Grimm	+1 347-448-3190 ext. 10147	ABR0022	Arabella Bouquets | Purchase by 8 AM EST Saturday | Delivery on Tuesday | Bouquet of 12 Fresh Cut Pink Roses	1	0	1	Expedited	Peggy Carey	510 BROOKSIDE DR			LITTLE ROCK	AR	72205-1694	US		We are praying for you and hope you feel better soon! Love, Jody (Bynum) Grimm and family From Robert and Judith Grimm	false		
112-9508941-6427418	66782419337778	2020-04-25T03:02:00+00:00	2020-04-24T20:02:00-07:00	2020-04-25T03:28:54+00:00	2020-04-30T06:59:59+00:00	-5	m1139w1j5vzxg7s@marketplace.amazon.com	Cynthia Mumford	+1 314-282-9402 ext. 02243	ABR0022	Arabella Bouquets | Purchase by 8 AM EST Saturday | Delivery on Tuesday | Bouquet of 12 Fresh Cut Pink Roses	1	0	1	Expedited	Shari Egeland	8194 NIESSEN WAY			FAIR OAKS	CA	95628-2756	US		Dear Shari, Happy Birthday from Omni! Here's hoping the upcoming year is like walking on a bed of roses! Sweet, beautiful, whimsical and very indulgent. You deserve them all! With love,  Cynthia, Chris and Jayna	false		
114-1663180-3861052	13663973582674	2020-04-25T03:40:55+00:00	2020-04-24T20:40:55-07:00	2020-04-25T04:08:30+00:00	2020-04-30T06:59:59+00:00	-5	d6q31ftj85bjjbn@marketplace.amazon.com	Lisa M Forsyth	+1 412-532-4665 ext. 92947	ABR0022	Arabella Bouquets | Purchase by 8 AM EST Saturday | Delivery on Tuesday | Bouquet of 12 Fresh Cut Pink Roses	1	0	1	Expedited	Roberta Burnett	318 W 20TH ST			DEER PARK	NY	11729-6318	US		With our sympathy for the loss of your sister. From Your AmTrust Family	false		
113-8021185-0497841	10853317009658	2020-04-25T03:48:10+00:00	2020-04-24T20:48:10-07:00	2020-04-25T04:09:15+00:00	2020-04-30T06:59:59+00:00	-5	f4n8kcrynzrgrk1@marketplace.amazon.com	Nick Eberhardt	+1 347-448-3190 ext. 82578	ABR0022	Arabella Bouquets | Purchase by 8 AM EST Saturday | Delivery on Tuesday | Bouquet of 12 Fresh Cut Pink Roses	1	0	1	Expedited	Danielle Williams	30 WEST ST			MADISON	NJ	07940-1543	US		Happy Birthday!!! Pretty girls get pretty flowers!!!  Love you!! NIck	false		
111-2717321-1069021	34894201761930	2020-04-25T03:47:30+00:00	2020-04-24T20:47:30-07:00	2020-04-25T04:15:51+00:00	2020-04-29T06:59:59+00:00	-4	26xkns3m9k3xttf@marketplace.amazon.com	Heidi Zeak	+1 314-282-9402 ext. 72978	ABM010	Arabella Farm Direct Fields of The World Bouquet of Fresh Cut Flowers with a Free Glass Vase	1	0	1	Expedited	Amy Owen	404 N PINE ST			EMPORIUM	PA	15834-1620	US		Sis,  We are thinking of you & love you!   Love, Peter, Heidi, Brodie & Asher From Heidi Zeak	false		
112-3328787-4929819	44776977403410	2020-04-25T04:12:13+00:00	2020-04-24T21:12:13-07:00	2020-04-25T04:37:55+00:00	2020-04-29T06:59:59+00:00	-4	c8x9npnx8zw6bmb@marketplace.amazon.com	Kristen Agtonton	+1 314-282-9402 ext. 49638	ABR0066	Arabella Bouquets | Purchase by 8 AM EST Saturday | Delivery on Tuesday | Bouquet of 12 Fresh Cut White Roses	1	0	1	Expedited	Janet Heth	17748 93RD AVE E			PUYALLUP	WA	98375-9684	US		Happy Happy belated birthday to one of my favorite people!  Wishing I could celebrate with you and hoping to see you soon.  Love you lots and Lots Janet!  XOXO Kristen From Kristen Agtonton	false		
113-8022479-5144237	40299660940666	2020-04-25T04:17:03+00:00	2020-04-24T21:17:03-07:00	2020-04-25T04:45:13+00:00	2020-04-30T06:59:59+00:00	-5	tfxdks50vgky571@marketplace.amazon.com	Sarah Abbas	+1 314-282-9402 ext. 76724	ABR0022	Arabella Bouquets | Purchase by 8 AM EST Saturday | Delivery on Tuesday | Bouquet of 12 Fresh Cut Pink Roses	1	0	1	Expedited	Sarah Abbas	393 HUNNEWELL AVE			ELMONT	NY	11003-3437	US		So this is just part 1 of everything. There’s more coming soon ;) But I love you more than anything and I hope you never forget that. Once this over, bday dinner date on me. Happy Early Birthday Beautiful <3 From Sarah Abbas	false		
113-4270978-4152241	12673362403970	2020-04-25T04:19:39+00:00	2020-04-24T21:19:39-07:00	2020-04-25T04:49:30+00:00	2020-04-29T06:59:59+00:00	-4	pm2vw7q6p2zzv5q@marketplace.amazon.com	kyra miles	+1 412-532-4665 ext. 83295	ABM010	Arabella Farm Direct Fields of The World Bouquet of Fresh Cut Flowers with a Free Glass Vase	1	0	1	Expedited	MP Savoie	141 WOODIN RD			CLIFTON PARK	NY	12065-6142	US			false		
113-0731382-9737855	66395306875346	2020-04-25T04:32:50+00:00	2020-04-24T21:32:50-07:00	2020-04-25T05:01:02+00:00	2020-04-30T06:59:59+00:00	-5	nm3s8cyq7fp7wlt@marketplace.amazon.com	Rhonda Hayden	+1 347-448-3190 ext. 93279	ABR0022	Arabella Bouquets | Purchase by 8 AM EST Saturday | Delivery on Tuesday | Bouquet of 12 Fresh Cut Pink Roses	1	0	1	Expedited	Zoe Lyons	89 BALTIC BLVD			POTTSBORO	TX	75076-3117	US		Happy Mother`s Day!  We  love you!	false		
114-9205482-8417811	19951241502354	2020-04-25T05:03:33+00:00	2020-04-24T22:03:33-07:00	2020-04-25T05:04:30+00:00	2020-04-30T06:59:59+00:00	-5	xpyk4x4j1lrgx4p@marketplace.amazon.com	STEPHEN EDWARD HENDERSON	+1 314-282-9402 ext. 63894	ABR0022	Arabella Bouquets | Purchase by 8 AM EST Saturday | Delivery on Tuesday | Bouquet of 12 Fresh Cut Pink Roses	1	0	1	Standard	STEPHEN EDWARD HENDERSON	58 DEERWOOD DR			LITTLETON	COLORADO	80127-2616	US			false		
112-6071975-1104229	10982472349858	2020-04-25T04:43:23+00:00	2020-04-24T21:43:23-07:00	2020-04-25T05:11:08+00:00	2020-04-30T06:59:59+00:00	-5	lvk562dp6mg95lq@marketplace.amazon.com	Geraldine klonarides	+1 210-728-4548 ext. 08517	ABR0022	Arabella Bouquets | Purchase by 8 AM EST Saturday | Delivery on Tuesday | Bouquet of 12 Fresh Cut Pink Roses	1	0	1	Expedited	Juanita Acevedo	9030 VISTA WAY			PARKLAND	FL	33076-2848	US		Happy Birthday, Juanita!!! We love you and hope you are well. Besitos Kevin & Geraldine	false		
111-6735418-7535446	67266818298618	2020-04-25T04:57:30+00:00	2020-04-24T21:57:30-07:00	2020-04-25T05:33:48+00:00	2020-04-30T06:59:59+00:00	-5	43rssydy7f3sly0@marketplace.amazon.com	Christopher Holsen	+1 412-532-4665 ext. 51050	ABR0022	Arabella Bouquets | Purchase by 8 AM EST Saturday | Delivery on Tuesday | Bouquet of 12 Fresh Cut Pink Roses	1	0	1	Expedited	CW Holsen	3118 MAPLE VALLEY DR APT 202			MADISON	WI	53719-4317	US		May 1st isn't really our anniversary anymore but I don't need a good reason to buy you flowers. From Christopher Holsen	false		
111-7939963-3932221	18279918863586	2020-04-25T05:35:53+00:00	2020-04-24T22:35:53-07:00	2020-04-25T06:05:47+00:00	2020-04-28T06:59:59+00:00	-3	3nmgb9sxq31b3cf@marketplace.amazon.com	Anna Strumba	+1 314-282-9402 ext. 14326	ABR001	Arabella Bouquets | Purchase by 8 AM EST Saturday | Delivery on Tuesday | Bouquet of 12 Fresh Cut Red Roses	1	0	1	SecondDay	Anna Strumba	29308 Glencastle Dr			Farmington Hills	MI	48336	US			false		
112-3993162-6693847	33604081973106	2020-04-25T05:52:34+00:00	2020-04-24T22:52:34-07:00	2020-04-25T06:23:02+00:00	2020-04-30T06:59:59+00:00	-5	svkdq3pknv8498j@marketplace.amazon.com	David Bishop	+1 347-448-3190 ext. 11902	ABR0022	Arabella Bouquets | Purchase by 8 AM EST Saturday | Delivery on Tuesday | Bouquet of 12 Fresh Cut Pink Roses	1	0	1	Expedited	David or Ruby Bishop	308 Senior Circle			Pawhuska	Oklahoma	74056	US			false		
114-9770022-2331447	37739173315962	2020-04-25T06:45:13+00:00	2020-04-24T23:45:13-07:00	2020-04-25T07:14:58+00:00	2020-04-30T06:59:59+00:00	-5	34pby094dy7jd7r@marketplace.amazon.com	Charles M Melder Jr	+1 314-282-9402 ext. 54594	ABR0022	Arabella Bouquets | Purchase by 8 AM EST Saturday | Delivery on Tuesday | Bouquet of 12 Fresh Cut Pink Roses	1	0	1	Expedited	Charles Melder	43221 WILDERNESS DR			CANTON	MI	48188-5024	US		Love you, happy mother's day From Charlotte & Charles	false		
113-5547150-4958656	46289026511922	2020-04-25T07:12:37+00:00	2020-04-25T00:12:37-07:00	2020-04-25T07:36:24+00:00	2020-04-30T06:59:59+00:00	-5	kz7vtv3ywd9gh9l@marketplace.amazon.com	Mia	+1 347-448-3190 ext. 36537	ABR0022	Arabella Bouquets | Purchase by 8 AM EST Saturday | Delivery on Tuesday | Bouquet of 12 Fresh Cut Pink Roses	1	0	1	Expedited	Nancy Roland	27000 SW WILEY RD			SHERIDAN	OR	97378-9717	US		Happy Mother’s Day for a special lady.   I love  you so much! From Debbie	false		
111-7475665-6355454	02442229134402	2020-04-25T07:58:56+00:00	2020-04-25T00:58:56-07:00	2020-04-25T08:18:22+00:00	2020-04-29T06:59:59+00:00	-4	phfw29ytgrw4p36@marketplace.amazon.com	lycurgis	+1 210-728-4548 ext. 76932	ABM010	Arabella Farm Direct Fields of The World Bouquet of Fresh Cut Flowers with a Free Glass Vase	1	0	1	Expedited	Rena Blount	9228 SE GLADSTONE ST			PORTLAND	OR	97266-2715	US		I’m so sorry to hear about our puppy.  My heart goes out to you From Clinton	false		
114-4188420-8387447	48736853353762	2020-04-25T08:47:20+00:00	2020-04-25T01:47:20-07:00	2020-04-25T09:16:30+00:00	2020-04-29T06:59:59+00:00	-4	rnk2k66sg883ncz@marketplace.amazon.com	RJ Conte	+1 314-282-9402 ext. 16891	ABR004	Arabella Farm Direct Bouquet of 12 Fresh Cut Yellow Roses with a Free Glass Vase	1	0	1	Expedited	Nicole Wright	2012 CARRIAGE CLUB DR			CEDAR PARK	TX	78613-7188	US		We love you, Nicole!  Standing with you and hoping you hang in there!  Love, RJ	false		
114-3607602-0357064	18003595694106	2020-04-25T09:53:57+00:00	2020-04-25T02:53:57-07:00	2020-04-25T10:23:53+00:00	2020-04-30T06:59:59+00:00	-5	5l58ckhdkrcxtdz@marketplace.amazon.com	Jamie Kent	+1 210-728-4548 ext. 55386	ABR0022	Arabella Bouquets | Purchase by 8 AM EST Saturday | Delivery on Tuesday | Bouquet of 12 Fresh Cut Pink Roses	1	0	1	Expedited	Jamie Kent	19 E 11TH ST			WASHINGTON	MO	63090-4520	US		Hey Jamie,  Just from a friend to a friend on her birthday.	false		
111-0859069-8289054	65219890223938	2020-04-25T10:09:05+00:00	2020-04-25T03:09:05-07:00	2020-04-25T10:37:55+00:00	2020-04-29T06:59:59+00:00	-4	q11stdjg0l4lc3x@marketplace.amazon.com	Jonathan Lieb	+1 210-728-4548 ext. 24050	ABM010	Arabella Farm Direct Fields of The World Bouquet of Fresh Cut Flowers with a Free Glass Vase	1	0	1	Expedited	Kjellaug Lieb	2335 EASTLAKE DR			KELSEYVILLE	CA	95451-7015	US		Happy Mother’s Day, mom! From Love, Jon & Maggie	false		
114-9403800-3552220	23474937918338	2020-04-25T10:13:28+00:00	2020-04-25T03:13:28-07:00	2020-04-25T10:43:01+00:00	2020-04-29T06:59:59+00:00	-4	kt3v27pg5d5tg00@marketplace.amazon.com	Mrs E Myhill	+1 314-282-9402 ext. 73903	ABM010	Arabella Farm Direct Fields of The World Bouquet of Fresh Cut Flowers with a Free Glass Vase	1	0	1	Expedited	Sarah Farrell	26 DELBARTON CT			HACKETTSTOWN	NJ	07840-4214	US		Love you xx From Eileen and Steve xx	false		
113-5081487-2889832	16788672351218	2020-04-25T11:08:17+00:00	2020-04-25T04:08:17-07:00	2020-04-25T11:35:36+00:00	2020-04-29T06:59:59+00:00	-4	wp761lb3q1n6t8n@marketplace.amazon.com	Carol DeVault	+1 347-448-3190 ext. 44592	ABR0033	Arabella Bouquets | Purchase by 8 AM EST Saturday | Delivery on Tuesday | Bouquet of 12 Fresh Cut Orange Roses	1	0	1	Expedited	Abby  Bevington	752 SUMTER DR			YARDLEY	PA	19067	US		You are beautiful sunshine... sending a big hug and love your way, Abbs! Carol From Carol DeVault	false		
111-7236516-7485848	45124383019922	2020-04-25T11:11:38+00:00	2020-04-25T04:11:38-07:00	2020-04-25T11:36:24+00:00	2020-04-28T06:59:59+00:00	-3	vkdklrbblspyl0l@marketplace.amazon.com	william	+1 347-448-3190 ext. 91994	ABR001	Arabella Bouquets | Purchase by 8 AM EST Saturday | Delivery on Tuesday | Bouquet of 12 Fresh Cut Red Roses	1	0	1	SecondDay	Susan Bettis	102 RUSSELL PL SYRACUSE NY 13207	APT		SYRACUSE	NY	13207-2144	US		Hi Susan,   You are my dream come true the reason why smiles never cease to leave my cheeks, my pearl of passion I just want you to know that I love you!  Michael Moore	false		
112-9466915-7521036	23381998629650	2020-04-25T11:47:45+00:00	2020-04-25T04:47:45-07:00	2020-04-25T12:15:52+00:00	2020-04-29T06:59:59+00:00	-4	tbw0lqn03rd68nx@marketplace.amazon.com	Christie Tatum	+1 314-282-9402 ext. 95624	ABR012	Arabella Bouquets | Purchase by 8 AM EST Saturday | Delivery on Tuesday | Bouquet of 18 Fresh Cut Pink Roses	1	0	1	Expedited	Frances Smith	467 TWELVE OAKS DR			ADAMSVILLE	TN	38310-2839	US		Happy Mother’s Day!!!  We love you & thankful for you! Hugs and kisses! From Brian & Christie  & Michaiah	false		
114-6615479-7989009	06315725644114	2020-04-25T11:47:42+00:00	2020-04-25T04:47:42-07:00	2020-04-25T12:17:20+00:00	2020-04-30T06:59:59+00:00	-5	2j698l3vhb9bbnz@marketplace.amazon.com	Randolph t Page	+1 314-282-9402 ext. 12547	ABR0022	Arabella Bouquets | Purchase by 8 AM EST Saturday | Delivery on Tuesday | Bouquet of 12 Fresh Cut Pink Roses	1	0	1	Expedited	Wayne Hardie	15 Bonito Place			Los Alamos	NM	87544	US			false		
114-6927187-2787420	48216872538266	2020-04-25T11:52:51+00:00	2020-04-25T04:52:51-07:00	2020-04-25T12:19:43+00:00	2020-04-30T06:59:59+00:00	-5	2j698l3vhb9bbnz@marketplace.amazon.com	Randolph t Page	+1 347-448-3190 ext. 38930	ABR0022	Arabella Bouquets | Purchase by 8 AM EST Saturday | Delivery on Tuesday | Bouquet of 12 Fresh Cut Pink Roses	1	0	1	Expedited	Jodi Jaffe	17337 MOSS SIDE LN			OLNEY	MD	20832-2917	US			false		
114-5775715-1169822	09976386006642	2020-04-25T11:53:10+00:00	2020-04-25T04:53:10-07:00	2020-04-25T12:20:51+00:00	2020-04-30T06:59:59+00:00	-5	5r7jw6yj87rnz20@marketplace.amazon.com	robert wissel	+1 210-728-4548 ext. 05896	ABM002	Arabella Farm Direct Bouquet of Fresh Cut White Calla Lilies with a Free Glass Vase	1	0	1	Expedited	Ashley Wissel	108 S RIVER RD APT 424 A			WEST LAFAYETTE	IN	47906-3772	US		Hi Ashley, I am so proud of you. -Dad	false		
114-3873583-1274646	14670293434866	2020-04-25T12:04:35+00:00	2020-04-25T05:04:35-07:00	2020-04-25T12:33:39+00:00	2020-04-29T06:59:59+00:00	-4	wnl6yk7kjft4xfm@marketplace.amazon.com	gavin mullen	+1 347-448-3190 ext. 14551	ABM0033	Arabella Farm Direct Bouquet of Fresh Cut White Hydrangea with a Free Glass Vase	2	0	2	Expedited	Diana Stovall	80 SEAVIEW TER NO 21			GUILFORD	CONNECTICUT	06437-3464	US		Happy Mother’s Day I love you Gavin From gavin mullen	false		
114-4261828-1735438	03980334778842	2020-04-25T12:06:16+00:00	2020-04-25T05:06:16-07:00	2020-04-25T12:35:35+00:00	2020-04-29T06:59:59+00:00	-4	wnl6yk7kjft4xfm@marketplace.amazon.com	gavin mullen	+1 347-448-3190 ext. 89641	ABM0033	Arabella Farm Direct Bouquet of Fresh Cut White Hydrangea with a Free Glass Vase	1	0	1	Expedited	Dr Barbara Rocah	1110 N LAKE SHORE DR APT 30-S			CHICAGO	ILLINOIS	60611-1022	US		Happy Mother’s Day Gavin From gavin mullen	false		
114-8465797-9421800	11545207187402	2020-04-25T12:08:32+00:00	2020-04-25T05:08:32-07:00	2020-04-25T12:38:03+00:00	2020-04-29T06:59:59+00:00	-4	wnl6yk7kjft4xfm@marketplace.amazon.com	gavin mullen	+1 412-532-4665 ext. 84103	ABM0033	Arabella Farm Direct Bouquet of Fresh Cut White Hydrangea with a Free Glass Vase	1	0	1	Expedited	Louise holden	1111 24TH ST NW UNIT 66			WASHINGTON	DC	20037-1483	US		Happy Mother’s Day I love you Gavin From gavin mullen	false		
114-6861080-7155408	31149101648946	2020-04-25T12:11:00+00:00	2020-04-25T05:11:00-07:00	2020-04-25T12:40:21+00:00	2020-04-29T06:59:59+00:00	-4	wnl6yk7kjft4xfm@marketplace.amazon.com	gavin mullen	+1 347-448-3190 ext. 95905	ABM0033	Arabella Farm Direct Bouquet of Fresh Cut White Hydrangea with a Free Glass Vase	1	0	1	Expedited	Marcy Stovall	86 COTTAGE ST			NEW HAVEN	CT	06511-2404	US		Happy Mother’s Day I love you Gavin From gavin mullen	false		
113-4047349-8629069	08925880166122	2020-04-25T12:15:14+00:00	2020-04-25T05:15:14-07:00	2020-04-25T12:45:50+00:00	2020-04-30T06:59:59+00:00	-5	pb98bmt7678gvrl@marketplace.amazon.com	Charles L. Duval III	+1 347-448-3190 ext. 69070	ABR0022	Arabella Bouquets | Purchase by 8 AM EST Saturday | Delivery on Tuesday | Bouquet of 12 Fresh Cut Pink Roses	1	0	1	Expedited	Charles L Duval III	12721 CREAMELLO AVE			FORT WORTH	TX	76244-9460	US			false		
112-4067074-2457016	01946338452066	2020-04-25T12:25:42+00:00	2020-04-25T05:25:42-07:00	2020-04-25T12:56:05+00:00	2020-04-30T06:59:59+00:00	-5	lhvcdsk0k3535z3@marketplace.amazon.com	Chris Haney	+1 314-282-9402 ext. 99400	ABR0022	Arabella Bouquets | Purchase by 11.30 AM EST Monday | Delivery on Wednesday | Bouquet of 12 Fresh Cut Pink Roses	1	0	1	Expedited	Rita Kyle	1800 WEBSTER RD			SUMMERSVILLE	WV	26651-1032	US			false		
