order-id	order-item-id	purchase-date	payments-date	reporting-date	promise-date	days-past-promise	buyer-email	buyer-name	buyer-phone-number	sku	product-name	quantity-purchased	quantity-shipped	quantity-to-ship	ship-service-level	recipient-name	ship-address-1	ship-address-2	ship-address-3	ship-city	ship-state	ship-postal-code	ship-country	gift-wrap-type	gift-message-text	is-business-order	purchase-order-number	price-designation
114-9724160-1017037	34113356961674	2020-04-25T13:51:53+00:00	2020-04-25T06:51:53-07:00	2020-04-25T14:20:32+00:00	2020-04-29T06:59:59+00:00	-4	lcp4bgd5rqtknbq@marketplace.amazon.com	chris	+1 314-282-9402 ext. 54306	ABM010	Arabella Farm Direct Fields of The World Bouquet of Fresh Cut Flowers with a Free Glass Vase	1	0	1	Expedited	Phylis McCarron	14 KINGFISHER LN			CLINTON	CT	06413-2710	US		Happy Mother’s Day.   Love, Chris and family	false		
111-3786752-0352247	40431784631034	2020-04-25T13:52:19+00:00	2020-04-25T06:52:19-07:00	2020-04-25T14:22:58+00:00	2020-04-30T06:59:59+00:00	-5	yl5zlm9wndqwpzq@marketplace.amazon.com	Trevor Bloodworth	+1 210-728-4548 ext. 32444	ABR0022	Arabella Bouquets | Purchase by 11.30 AM EST Monday | Delivery on Wednesday | Bouquet of 12 Fresh Cut Pink Roses	1	0	1	Expedited	Trevor Bloodworth	422 Ridgecrest Road			Elizabethtown	Kentucky	42701	US			false		
113-3538804-9695457	42403676735810	2020-04-25T14:11:00+00:00	2020-04-25T07:11:00-07:00	2020-04-25T14:39:37+00:00	2020-04-29T06:59:59+00:00	-4	hlhxwrxbxb022v0@marketplace.amazon.com	Jennie	+1 347-448-3190 ext. 27037	ABR0033	Arabella Bouquets | Purchase by 11.30 AM EST Monday | Delivery on Wednesday | Bouquet of 12 Fresh Cut Orange Roses	1	0	1	Expedited	Carly Mullady	1720 BUCKSNORT RD			COVINGTON	TN	38019-6240	US		Happy First Mother’s Day! I hope these bring a little sunshine your way! From Love, Jennie	false		
111-5771357-8804214	06501546948010	2020-04-25T14:09:36+00:00	2020-04-25T07:09:36-07:00	2020-04-25T14:42:12+00:00	2020-04-29T06:59:59+00:00	-4	24plw6w9f7j00fz@marketplace.amazon.com	Kathleen	+1 347-448-3190 ext. 85365	ABM010	Arabella Farm Direct Fields of The World Bouquet of Fresh Cut Flowers with a Free Glass Vase	1	0	1	Expedited	Marilyn Myer	2700 NW 51ST PL			FT LAUDERDALE	FL	33309-2926	US		Hi Mom! Happy Mother's Day! Wishing we were with you! With love, Kath, Chris & Hamish	false		
113-6719412-7131468	17104351963114	2020-04-25T14:11:48+00:00	2020-04-25T07:11:48-07:00	2020-04-25T14:42:28+00:00	2020-04-29T06:59:59+00:00	-4	7hk0t9j11sjrkxy@marketplace.amazon.com	Christine Wiger	+1 314-282-9402 ext. 46942	ABM010	Arabella Farm Direct Fields of The World Bouquet of Fresh Cut Flowers with a Free Glass Vase	1	0	1	Expedited	Carolyn Wiger	1629 HIGHWAY 96 E			WHITE BEAR LAKE	MN	55110-7622	US			false		
111-6995735-8641044	53381120757442	2020-04-25T14:13:43+00:00	2020-04-25T07:13:43-07:00	2020-04-25T14:43:05+00:00	2020-04-30T06:59:59+00:00	-5	dx9pdngwx4n5mtc@marketplace.amazon.com	Lynn DeButts	+1 314-282-9402 ext. 20506	ABR0022	Arabella Bouquets | Purchase by 11.30 AM EST Monday | Delivery on Wednesday | Bouquet of 12 Fresh Cut Pink Roses	1	0	1	Expedited	Tricia Hudson	6 LITTLE BROOK LN			RICHMOND	VA	23228-5405	US		Happy Happy birthday dear Tricia, we love you Lynn and Kimo	false		
113-0214396-4452278	44792014341602	2020-04-25T14:14:58+00:00	2020-04-25T07:14:58-07:00	2020-04-25T14:44:31+00:00	2020-04-29T06:59:59+00:00	-4	dx8wvdndqlkzp0n@marketplace.amazon.com	James T. Andreesen	+1 210-728-4548 ext. 02054	ABM010	Arabella Farm Direct Fields of The World Bouquet of Fresh Cut Flowers with a Free Glass Vase	1	0	1	Expedited	Janet Andreesen	2500 GRANT ST			BETTENDORF	IA	52722-5092	US		We send all of our love, Mother/ Grandma! From The Chicago Andreesens	false		
114-3555089-7916221	14694800275602	2020-04-25T14:26:03+00:00	2020-04-25T07:26:03-07:00	2020-04-25T14:56:11+00:00	2020-04-30T06:59:59+00:00	-5	2j698l3vhb9bbnz@marketplace.amazon.com	Randolph t Page	+1 314-282-9402 ext. 10867	ABR0022	Arabella Bouquets | Purchase by 11.30 AM EST Monday | Delivery on Wednesday | Bouquet of 12 Fresh Cut Pink Roses	1	0	1	Expedited	Jorie Feldman	8221 LARRY PL			CHEVY CHASE	MD	20815-3017	US			false		
114-5385903-6775467	65712485958002	2020-04-25T14:34:55+00:00	2020-04-25T07:34:55-07:00	2020-04-25T14:58:45+00:00	2020-04-30T06:59:59+00:00	-5	ptt8d7hn15jd8rm@marketplace.amazon.com	Deborah Castelli	+1 347-448-3190 ext. 81575	ABR0022	Arabella Bouquets | Purchase by 11.30 AM EST Monday | Delivery on Wednesday | Bouquet of 12 Fresh Cut Pink Roses	1	0	1	Expedited	Ann Creamer Behen	11 ROCKLAND RD			DANVERS	MA	01923-1130	US		Ann, Treatment is almost over! Thinking of you and thought these might brighten up your day ... So glad we have reconnected after all those years..... Hugs Deb From Deborah Castelli	false		
114-4994594-3249835	27853912998194	2020-04-25T14:29:48+00:00	2020-04-25T07:29:48-07:00	2020-04-25T14:59:32+00:00	2020-04-30T06:59:59+00:00	-5	vrh1mnlwfvnxjyp@marketplace.amazon.com	karen	+1 412-532-4665 ext. 59511	ABR0022	Arabella Bouquets | Purchase by 11.30 AM EST Monday | Delivery on Wednesday | Bouquet of 12 Fresh Cut Pink Roses	1	0	1	Expedited	Karen Richardson	752 VT ROUTE 5A			ORLEANS	VT	05860-9478	US			false		
114-0480861-8153825	65582605719506	2020-04-25T15:06:12+00:00	2020-04-25T08:06:12-07:00	2020-04-25T15:07:03+00:00	2020-04-29T06:59:59+00:00	-4	gb9b2f15y043d6t@marketplace.amazon.com	Elaine L Richards	+1 347-448-3190 ext. 06248	ABM010	Arabella Farm Direct Fields of The World Bouquet of Fresh Cut Flowers with a Free Glass Vase	1	0	1	Expedited	Mercedes Lastra	2694 W 71ST PL			HIALEAH	FL	33016-5413	US		Feliz Cumpleanos 70's Mami! Lo amarillo de estas flores me recuerda de ti: Una mami feliz, con una presensia que brilla; una mami fuerte y eterna.  Te quiero y extrano muchisimo!   - Elaine	false		
113-7154266-2286643	59718939738314	2020-04-25T14:43:43+00:00	2020-04-25T07:43:43-07:00	2020-04-25T15:07:34+00:00	2020-04-30T06:59:59+00:00	-5	fl08j6xx6fsn42f@marketplace.amazon.com	Calvin Thomas III	+1 347-448-3190 ext. 48218	ABR0022	Arabella Bouquets | Purchase by 11.30 AM EST Monday | Delivery on Wednesday | Bouquet of 12 Fresh Cut Pink Roses	1	0	1	Expedited	Aunt Ollie Williams	1922 ARLINGTON AVE			SAINT LOUIS	MO	63112-4318	US		Hello! Glad to know you made it back to your lovely home! Missing you very much! Can't  wait to see you!  Keep the Faith!  Love Always, Calvin and Ervine	false		
112-7656523-9431421	67163257531098	2020-04-25T14:41:20+00:00	2020-04-25T07:41:20-07:00	2020-04-25T15:11:06+00:00	2020-04-29T06:59:59+00:00	-4	jml0mr3xtpbvxbl@marketplace.amazon.com	penny palmer	+1 347-448-3190 ext. 45821	ABR012	Arabella Bouquets | Purchase by 11.30 AM EST Monday | Delivery on Wednesday | Bouquet of 18 Fresh Cut Pink Roses	1	0	1	Expedited	Sarah Burkhead	23016 SE 290TH ST			BLACK DIAMOND	WA	98010-1715	US		WIshing you a very special 16th birthday!! Love Aunt Penny and Uncle Jay	false		
114-4933686-3621856	27895949354090	2020-04-25T15:10:02+00:00	2020-04-25T08:10:02-07:00	2020-04-25T15:35:26+00:00	2020-04-29T06:59:59+00:00	-4	wtbw165qj1yh0fz@marketplace.amazon.com	Connie Adams	+1 347-448-3190 ext. 50230	ABM010	Arabella Farm Direct Fields of The World Bouquet of Fresh Cut Flowers with a Free Glass Vase	1	0	1	Expedited	Mrs. Elsie Adams	555 RIVERDALE CV			SOUTHAVEN	MS	38671-7943	US		Happy Mother’s Day! I know this is early but wanted to make sure you got these before they run out. We are thinking of you. Love and miss you always, Tim & Connie	false		
114-3332055-6769806	22715496760106	2020-04-25T15:14:18+00:00	2020-04-25T08:14:18-07:00	2020-04-25T15:38:34+00:00	2020-04-30T06:59:59+00:00	-5	4hyyd6m0n63wd2j@marketplace.amazon.com	robin kriebel	+1 347-448-3190 ext. 67123	ABR0022	Arabella Bouquets | Purchase by 11.30 AM EST Monday | Delivery on Wednesday | Bouquet of 12 Fresh Cut Pink Roses	1	0	1	Expedited	Staci and Ricky Cattaneo	5276 POLO FIELDS DR			ANN ARBOR	MI	48103-8955	US		Staci and Ricky, We are so happy for the blessing you have received. We are anxiously awaiting to meet our fist grand-baby. Love and Prayers, Mom and Dad	false		
114-9415510-1681004	20269843114082	2020-04-25T15:14:37+00:00	2020-04-25T08:14:37-07:00	2020-04-25T15:44:09+00:00	2020-04-30T06:59:59+00:00	-5	q7yrm5r5dm8z5t6@marketplace.amazon.com	johnnie m. enos	+1 210-728-4548 ext. 54227	ABR0022	Arabella Bouquets | Purchase by 11.30 AM EST Monday | Delivery on Wednesday | Bouquet of 12 Fresh Cut Pink Roses	1	0	1	Expedited	johnnie m. enos	119 OLD AIRPORT RD APT 217			LAGRANGE	GA	30240-6472	US			false		
111-0638671-8903449	20253170413810	2020-04-25T15:24:43+00:00	2020-04-25T08:24:43-07:00	2020-04-25T15:54:34+00:00	2020-04-30T06:59:59+00:00	-5	92jmwwj15lvf666@marketplace.amazon.com	Melodie L. Goodwin	+1 210-728-4548 ext. 71316	ABR0022	Arabella Bouquets | Purchase by 11.30 AM EST Monday | Delivery on Wednesday | Bouquet of 12 Fresh Cut Pink Roses	1	0	1	Expedited	Rose Siano	78 HAYWOOD ST			GREENFIELD	MA	01301-2011	US		Dear Rose, I hope these brighten your day. Mel	false		
112-9875624-3534640	58055549610746	2020-04-25T15:41:07+00:00	2020-04-25T08:41:07-07:00	2020-04-25T16:07:10+00:00	2020-04-29T06:59:59+00:00	-4	yt601l9vz4fv9zg@marketplace.amazon.com	patty blanchette	+1 347-448-3190 ext. 30663	ABM010	Arabella Farm Direct Fields of The World Bouquet of Fresh Cut Flowers with a Free Glass Vase	1	0	1	Expedited	Bonnie Blanchette	158 MAIN ST			DOUGLAS	MA	01516-2404	US		Hi Bonnie,  Enjoy your flowers, you are a great mom!  Love,  Patty and Tim	false		
112-5073510-7847431	40274147106498	2020-04-25T15:40:08+00:00	2020-04-25T08:40:08-07:00	2020-04-25T16:10:27+00:00	2020-04-29T06:59:59+00:00	-4	m1rz2j4zjxqqh9v@marketplace.amazon.com	Julie Jacobs	+1 210-728-4548 ext. 03076	ABM010	Arabella Farm Direct Fields of The World Bouquet of Fresh Cut Flowers with a Free Glass Vase	1	0	1	Expedited	Mary Ironside	6126 ROCKWELL DR NE APT 204			CEDAR RAPIDS	IA	52402-4782	US			false		
112-4167160-9108241	50471485748818	2020-04-25T15:43:39+00:00	2020-04-25T08:43:39-07:00	2020-04-25T16:12:35+00:00	2020-04-30T06:59:59+00:00	-5	4c9nskdb1t3gch7@marketplace.amazon.com	Kathy Connor	+1 412-532-4665 ext. 22078	ABR0022	Arabella Bouquets | Purchase by 11.30 AM EST Monday | Delivery on Wednesday | Bouquet of 12 Fresh Cut Pink Roses	1	0	1	Expedited	Gay Connor	25384 Calaroga Ave			Hayward	CA	94545	US		Happy Mother's Day!  Wish you lived closer and we'd have you over for brunch!  Daren	false		
114-4149630-9438642	37273626967250	2020-04-25T15:52:02+00:00	2020-04-25T08:52:02-07:00	2020-04-25T16:16:48+00:00	2020-04-30T06:59:59+00:00	-5	cv235x80k925q9w@marketplace.amazon.com	Nanette	+1 347-448-3190 ext. 15159	ABR0022	Arabella Bouquets | Purchase by 11.30 AM EST Monday | Delivery on Wednesday | Bouquet of 12 Fresh Cut Pink Roses	1	0	1	Expedited	Neva Noggle	1095 SAN ADRIANO ST			SAN LUIS OBISPO	CA	93405-6112	US		Happy 99th Birthday, Mom !!!  Wow !!! Sorry we cannot be there, hope to see you soon. Love, Nanette, John, Mike Jacquie, David, Austin and Raelynn	false		
112-0655588-3785026	60767038251386	2020-04-25T15:49:02+00:00	2020-04-25T08:49:02-07:00	2020-04-25T16:18:36+00:00	2020-04-29T06:59:59+00:00	-4	x1xf2gs7510d3fv@marketplace.amazon.com	EL	+1 412-532-4665 ext. 04558	ABR012	Arabella Bouquets | Purchase by 11.30 AM EST Monday | Delivery on Wednesday | Bouquet of 18 Fresh Cut Pink Roses	1	0	1	Expedited	Maryann Lewantowicz	3279 FRITZ CT			BEAVERCREEK	OH	45434-5871	US		Happy Birthday, Mom!! A little quarantine cheer. Love, Eric	false		
111-3143533-7417865	66834971266682	2020-04-25T16:14:49+00:00	2020-04-25T09:14:49-07:00	2020-04-25T16:26:21+00:00	2020-04-30T06:59:59+00:00	-5	3qjzhbg57xlcx0y@marketplace.amazon.com	Javier Solis	+1 412-532-4665 ext. 07936	ABR0022	Arabella Bouquets | Purchase by 11.30 AM EST Monday | Delivery on Wednesday | Bouquet of 12 Fresh Cut Pink Roses	1	0	1	Expedited	Caitlin Brooks	150 JACOBS CIR SE			MILLEDGEVILLE	GA	31061-8313	US		Hiiii best friend lol you mean a lot to me I know this probably won't make up for it and I understand if you're still mad at me I deserve it but I love you!!! a lot. I'm really sorry <3 From Jay	false		
114-3205297-4681818	32069706426898	2020-04-25T15:59:08+00:00	2020-04-25T08:59:08-07:00	2020-04-25T16:27:39+00:00	2020-04-30T06:59:59+00:00	-5	2j698l3vhb9bbnz@marketplace.amazon.com	Randolph t Page	+1 210-728-4548 ext. 67156	ABR0022	Arabella Bouquets | Purchase by 11.30 AM EST Monday | Delivery on Wednesday | Bouquet of 12 Fresh Cut Pink Roses	1	0	1	Expedited	Jorie Feldman	8221 LARRY PL			CHEVY CHASE	MD	20815-3017	US			false		
111-8802612-5918665	19086350554762	2020-04-25T15:59:37+00:00	2020-04-25T08:59:37-07:00	2020-04-25T16:28:51+00:00	2020-04-30T06:59:59+00:00	-5	kj7gxly7215s6ls@marketplace.amazon.com	Christine Brown	+1 347-448-3190 ext. 26653	ABR0022	Arabella Bouquets | Purchase by 11.30 AM EST Monday | Delivery on Wednesday | Bouquet of 12 Fresh Cut Pink Roses	1	0	1	Standard	Carolyn Brown	136 BROOME CENTER RD			GILBOA	NEW YORK	12076-2533	US		Happy Mother's Day!  Love you!  Love, Tim ,Chris, Richard and Curtis	false		
112-4131222-7162608	17898725240738	2020-04-25T16:11:14+00:00	2020-04-25T09:11:14-07:00	2020-04-25T16:36:20+00:00	2020-04-30T06:59:59+00:00	-5	k9dpxt6mdx389b5@marketplace.amazon.com	Jan Krzysko	+1 314-282-9402 ext. 36078	ABR0022	Arabella Bouquets | Purchase by 11.30 AM EST Monday | Delivery on Wednesday | Bouquet of 12 Fresh Cut Pink Roses	1	0	1	Expedited	Susan Marie Johns	4 N 650 Brookside West Dr.			St. Charles	Il	60175	US		Feel better soon and late happy bday hon!!! From Jan Krzysko w lots of love	false		
114-1258817-1481842	55258422587298	2020-04-25T16:06:13+00:00	2020-04-25T09:06:13-07:00	2020-04-25T16:36:30+00:00	2020-04-29T06:59:59+00:00	-4	p2l5wv32s9yh163@marketplace.amazon.com	Chantell Boyd	+1 347-448-3190 ext. 35631	ABR0055	Arabella Bouquets | Purchase by 11.30 AM EST Monday | Delivery on Wednesday | Bouquet of 12 Fresh Cut Hot Pink Roses	1	0	1	Expedited	Chantell Boyd	6247 HIGH VALLEY DR			WHITE LAKE	MI	48383-3381	US			false		
113-7089444-2921053	20689997856970	2020-04-25T16:13:02+00:00	2020-04-25T09:13:02-07:00	2020-04-25T16:38:13+00:00	2020-04-30T06:59:59+00:00	-5	f3sksf4v5m2dnh4@marketplace.amazon.com	sherry hansel	+1 347-448-3190 ext. 65269	ABR0022	Arabella Bouquets | Purchase by 11.30 AM EST Monday | Delivery on Wednesday | Bouquet of 12 Fresh Cut Pink Roses	1	0	1	Expedited	sherry hansel	12004 SHALIMAR DR			DENTON	TX	76207-5687	US		Joyce, Thank you so much for your help and guidance.  I hope we can get together after the pandemic. Blessings, Sherry Hansel	false		
111-2312794-7501800	64432929776970	2020-04-25T16:13:09+00:00	2020-04-25T09:13:09-07:00	2020-04-25T16:42:00+00:00	2020-04-30T06:59:59+00:00	-5	8m29gcy22plmd3x@marketplace.amazon.com	Kimberly Bailey	+1 347-448-3190 ext. 67043	ABR0022	Arabella Bouquets | Purchase by 11.30 AM EST Monday | Delivery on Wednesday | Bouquet of 12 Fresh Cut Pink Roses	1	0	1	Expedited	Denise Miller	1211 13TH ST NW APT 104			WASHINGTON	DC	20005-5248	US		Happy Birthday Denise!  I look forward to celebrating with you soon. From Kimberly Bailey	false		
112-5505108-9573051	14892514629682	2020-04-25T16:29:15+00:00	2020-04-25T09:29:15-07:00	2020-04-25T16:56:12+00:00	2020-04-30T06:59:59+00:00	-5	dsx7cs4749sx0sd@marketplace.amazon.com	Nicole Scotti	+1 314-282-9402 ext. 67138	ABR0022	Arabella Bouquets | Purchase by 11.30 AM EST Monday | Delivery on Wednesday | Bouquet of 12 Fresh Cut Pink Roses	1	0	1	Expedited	Rosemarie Scotti	8475 SE RETREAT DR			HOBE SOUND	FL	33455-8944	US		Amos, Happy Mother's Day! Love, Ann , Mikayla, and Danielle	false		
113-1615393-3918655	31784842360738	2020-04-25T16:33:46+00:00	2020-04-25T09:33:46-07:00	2020-04-25T17:01:04+00:00	2020-04-30T06:59:59+00:00	-5	nf65wrttyw5zpx9@marketplace.amazon.com	Brenda Hendrick	+1 314-282-9402 ext. 61601	ABR0022	Arabella Bouquets | Purchase by 11.30 AM EST Monday | Delivery on Wednesday | Bouquet of 12 Fresh Cut Pink Roses	1	0	1	Expedited	Mary Cochran	500 W HENDRICKSON RD STOP 5014			SEQUIM	WA	98382-3047	US		We love you and are praying for you! From Brenda, Greg, Anna’s and Lisa’s family	false		
113-1052601-4525009	00284632162178	2020-04-25T16:31:59+00:00	2020-04-25T09:31:59-07:00	2020-04-25T17:02:25+00:00	2020-04-29T06:59:59+00:00	-4	l7klhp3jrk7xs1w@marketplace.amazon.com	michelle punch	+1 347-448-3190 ext. 24410	ABR0066	Arabella Bouquets | Purchase by 11.30 AM EST Monday | Delivery on Wednesday | Bouquet of 12 Fresh Cut White Roses	1	0	1	Expedited	MICHELLE PUNCH	1706 PHEASANT ROOST			AUSTIN	TX	78758-3507	US			false		
114-7117102-8511434	22076919968290	2020-04-25T16:47:28+00:00	2020-04-25T09:47:28-07:00	2020-04-25T17:06:13+00:00	2020-04-29T06:59:59+00:00	-4	t3dwswt4y5jb7sq@marketplace.amazon.com	Gregg Langtry	+1 314-282-9402 ext. 38527	ABR0055	Arabella Bouquets | Purchase by 11.30 AM EST Monday | Delivery on Wednesday | Bouquet of 12 Fresh Cut Hot Pink Roses	1	0	1	Expedited	Kaebrie Dae	10543 LAKE MONTAUK DR			RIVERVIEW	FL	33578-9509	US		Beautiful flowers for a beautiful woman to brighten her day!  You are such a sweetheart Kae!  I hope this makes you smile! From Gregg Langtry	false		
111-4741101-8845066	04317429691466	2020-04-25T16:46:42+00:00	2020-04-25T09:46:42-07:00	2020-04-25T17:11:38+00:00	2020-04-30T06:59:59+00:00	-5	9102b37tqpmjm8n@marketplace.amazon.com	De'Jon Betterson	+1 347-448-3190 ext. 01301	ABR0022	Arabella Bouquets | Purchase by 11.30 AM EST Monday | Delivery on Wednesday | Bouquet of 12 Fresh Cut Pink Roses	1	0	1	Standard	Jasmyn Johnson	3552 WESTMORELAND DR			MAYS LANDING	NJ	08330-3225	US		Just to let you know I,m always loving and thinking about you Happy Mother's Day and kiss Bella for me.                          TC	false		
111-8258446-7721039	23258036676090	2020-04-25T16:45:45+00:00	2020-04-25T09:45:45-07:00	2020-04-25T17:16:06+00:00	2020-04-30T06:59:59+00:00	-5	1b8qtmjbp6wt88j@marketplace.amazon.com	Renay Scheffer	+1 314-282-9402 ext. 67829	ABR0022	Arabella Bouquets | Purchase by 11.30 AM EST Monday | Delivery on Wednesday | Bouquet of 12 Fresh Cut Pink Roses	1	0	1	Expedited	Sandy Roderwald	5 CORI ST			PARLIN	NJ	08859-1719	US			false		
113-1499372-8123433	07163459104194	2020-04-25T16:57:57+00:00	2020-04-25T09:57:57-07:00	2020-04-25T17:18:23+00:00	2020-04-29T06:59:59+00:00	-4	dhqddsj2bnz998q@marketplace.amazon.com	John Collins	+1 347-448-3190 ext. 79219	ABR0066	Arabella Bouquets | Purchase by 11.30 AM EST Monday | Delivery on Wednesday | Bouquet of 12 Fresh Cut White Roses	1	0	1	Expedited	Tracy Elizabeth Gretsch	118 SHANGRI LA RD APT 9			CENTERTOWN	MO	65023-1049	US		Just letting you know how much you mean to me baby girl. From Gary Aaroni	false		
112-4298090-7655444	57259731410362	2020-04-25T17:00:57+00:00	2020-04-25T10:00:57-07:00	2020-04-25T17:30:13+00:00	2020-04-29T06:59:59+00:00	-4	ytmc825c2qstr6t@marketplace.amazon.com	elizabeth	+1 347-448-3190 ext. 59600	ABR0055	Arabella Bouquets | Purchase by 11.30 AM EST Monday | Delivery on Wednesday | Bouquet of 12 Fresh Cut Hot Pink Roses	1	0	1	Expedited	Elizabeth Jaurique	3356 San Rafael Ct.			Merced	CA	95348	US		Happy Mother’s Day xoxo From Beth	false		
114-6207796-1132217	11149709669058	2020-04-25T17:03:14+00:00	2020-04-25T10:03:14-07:00	2020-04-25T17:32:48+00:00	2020-04-30T06:59:59+00:00	-5	y1nkmm18p6293hw@marketplace.amazon.com	Anna	+1 210-728-4548 ext. 48067	ABR0022	Arabella Bouquets | Purchase by 11.30 AM EST Monday | Delivery on Wednesday | Bouquet of 12 Fresh Cut Pink Roses	1	0	1	Expedited	Ula Glowacki	3800 N NORDICA AVE			CHICAGO	IL	60634-2378	US		God loves you endlessly!	false		
112-3941924-4849817	06090219868154	2020-04-25T17:14:31+00:00	2020-04-25T10:14:31-07:00	2020-04-25T17:44:35+00:00	2020-04-29T06:59:59+00:00	-4	t2kyrg036xs30kr@marketplace.amazon.com	Debra Mosko	+1 412-532-4665 ext. 29497	ABM010	Arabella Farm Direct Fields of The World Bouquet of Fresh Cut Flowers with a Free Glass Vase	1	0	1	Expedited	Judith Erlick	7415 BELLINGHAM PT			BOYNTON BEACH	FL	33437-3971	US		Happy Birthday and Happy Mother's Day, Love, Ollie and Deb	false		
112-5646834-5895421	40497602212826	2020-04-25T16:24:25+00:00	2020-04-25T09:24:25-07:00	2020-04-25T17:48:32+00:00	2020-04-30T06:59:59+00:00	-5	l90ck46ksp6k21d@marketplace.amazon.com	Jerath steele	+1 347-448-3190 ext. 91416	ABR0022	Arabella Bouquets | Purchase by 11.30 AM EST Monday | Delivery on Wednesday | Bouquet of 12 Fresh Cut Pink Roses	1	0	1	Expedited	Jerath steele	1005 CRAIG ST			COPPERAS COVE	TX	76522-3204	US		Happy One Year Amelia❤️, I love you From Jerath steele	false		
112-0938753-1446652	52931705058418	2020-04-25T17:26:49+00:00	2020-04-25T10:26:49-07:00	2020-04-25T17:50:02+00:00	2020-04-29T06:59:59+00:00	-4	ybtd6pf699zsxkj@marketplace.amazon.com	Gerald Broening	619-99No	ABR0033	Arabella Bouquets | Purchase by 11.30 AM EST Monday | Delivery on Wednesday | Bouquet of 12 Fresh Cut Orange Roses	1	0	1	Expedited	E.L. Texiera	5501 CAMBRIA CT			SAN DIEGO	CA	92120-4505	US		Love,  Mom, Dad and Pete., Enjoy your gift! From Gerald Broening	false		
113-3308212-8542661	00128697263178	2020-04-25T17:21:33+00:00	2020-04-25T10:21:33-07:00	2020-04-25T17:51:48+00:00	2020-04-29T06:59:59+00:00	-4	73zj0y7gdhkv3j5@marketplace.amazon.com	Julianne M. Heldt	+1 412-532-4665 ext. 85237	ABR0055	Arabella Bouquets | Purchase by 11.30 AM EST Monday | Delivery on Wednesday | Bouquet of 12 Fresh Cut Hot Pink Roses	1	0	1	Expedited	Sharon McCarthy	13522 WESTON PARK DR			SAINT LOUIS	MO	63131-1044	US			false		
114-8320878-7198622	57606679594562	2020-04-25T17:28:37+00:00	2020-04-25T10:28:37-07:00	2020-04-25T17:58:22+00:00	2020-04-30T06:59:59+00:00	-5	xzbtdjhxqpl1n62@marketplace.amazon.com	Nora G Martinez	+1 347-448-3190 ext. 34602	ABR0022	Arabella Bouquets | Purchase by 11.30 AM EST Monday | Delivery on Wednesday | Bouquet of 12 Fresh Cut Pink Roses	1	0	1	Expedited	Susy Mata Martinez	3903 CONRAD DR APT 84			SPRING VALLEY	CA	91977-1449	US			false		
113-7221071-4909865	26341416642578	2020-04-25T17:35:25+00:00	2020-04-25T10:35:25-07:00	2020-04-25T17:58:58+00:00	2020-04-29T06:59:59+00:00	-4	1lv70ygwqzz9rdm@marketplace.amazon.com	Natalia Castillo	+1 314-282-9402 ext. 51408	ABR012	Arabella Bouquets | Purchase by 11.30 AM EST Monday | Delivery on Wednesday | Bouquet of 18 Fresh Cut Pink Roses	1	0	1	Standard	Natalia Castillo	3 LAWSON DR			EASTHAMPTON	MA	01027-2713	US			false		
113-8789160-7466643	17778745370714	2020-04-25T17:32:45+00:00	2020-04-25T10:32:45-07:00	2020-04-25T18:02:20+00:00	2020-04-29T06:59:59+00:00	-4	b6th120bfb9nknm@marketplace.amazon.com	Gary K. Witschy	+1 210-728-4548 ext. 28048	ABM010	Arabella Farm Direct Fields of The World Bouquet of Fresh Cut Flowers with a Free Glass Vase	1	0	1	Expedited	Diane S. K. Larabee	4557 W TALMADGE DR			SAN DIEGO	CA	92116-4832	US			false		
112-9304870-6977064	22881389308642	2020-04-25T17:55:01+00:00	2020-04-25T10:55:01-07:00	2020-04-25T18:22:45+00:00	2020-04-29T06:59:59+00:00	-4	lx2pblqlg0wbv4b@marketplace.amazon.com	Celina Lopez	+1 347-448-3190 ext. 22125	ABM0033	Arabella Farm Direct Bouquet of Fresh Cut White Hydrangea with a Free Glass Vase	1	0	1	Expedited	Capital Title/Martha Lopez	8025 N 10TH ST STE 100			MCALLEN	TX	78504-9428	US		Happy Mother's Day Marthita!!  Thank you for putting up with us!  ❤ you!! From Your Favorite Child	false		
111-9732975-0605818	45807718248362	2020-04-25T18:02:39+00:00	2020-04-25T11:02:39-07:00	2020-04-25T18:26:42+00:00	2020-04-30T06:59:59+00:00	-5	mh99zvk35hlnw03@marketplace.amazon.com	kgoble	+1 347-448-3190 ext. 71461	ABR0022	Arabella Bouquets | Purchase by 11.30 AM EST Monday | Delivery on Wednesday | Bouquet of 12 Fresh Cut Pink Roses	1	0	1	Expedited	Sarah wooldridge	1417 PECAN ST			FLORALA	AL	36442-4118	US		Happy Covid Mother’s Day Memaw	false		
114-1727804-4949042	30186142696154	2020-04-25T18:00:49+00:00	2020-04-25T11:00:49-07:00	2020-04-25T18:28:32+00:00	2020-04-30T06:59:59+00:00	-5	0myk85mz28710pb@marketplace.amazon.com	Nadene  Funkhouser	+1 412-532-4665 ext. 60744	ABR0022	Arabella Bouquets | Purchase by 11.30 AM EST Monday | Delivery on Wednesday | Bouquet of 12 Fresh Cut Pink Roses	1	0	1	Standard	Jennifer Funkhouser	2931 Gloria Ct			Montgomery	Illinois	60538	US		To our Beautiful Mom.  Thank you for everything you do for us and for choosing to be our Mother.  We love you very very very much.  Happy Mothers Day Larissa & Kameron	false		
112-1398991-3100248	66303089780738	2020-04-25T18:02:29+00:00	2020-04-25T11:02:29-07:00	2020-04-25T18:31:15+00:00	2020-04-30T06:59:59+00:00	-5	yf08k1pqmpzdcf5@marketplace.amazon.com	Dana D Hanton	+1 347-448-3190 ext. 58498	ABR0022	Arabella Bouquets | Purchase by 11.30 AM EST Monday | Delivery on Wednesday | Bouquet of 12 Fresh Cut Pink Roses	1	0	1	Expedited	KATIE HANTON	1011 PROGRESS ST NW			BLACKSBURG	VA	24060-3456	US		Congrats on finishing your first year of grad school.  We are so proud of you! Love Mom and Dad From Dana D Hanton	false		
114-3198439-5813017	25470242818602	2020-04-25T18:09:03+00:00	2020-04-25T11:09:03-07:00	2020-04-25T18:36:05+00:00	2020-04-29T06:59:59+00:00	-4	35864xsqmjmkfb6@marketplace.amazon.com	Paul & Vicki Loetz	+1 347-448-3190 ext. 67588	ABR0055	Arabella Bouquets | Purchase by 11.30 AM EST Monday | Delivery on Wednesday | Bouquet of 12 Fresh Cut Hot Pink Roses	1	0	1	Expedited	Lois Loetz	3031 KAY DR SE			GRAND RAPIDS	MI	49508-1589	US			false		
114-9778545-0781021	70227120804354	2020-04-25T16:25:48+00:00	2020-04-25T09:25:48-07:00	2020-04-25T18:39:57+00:00	2020-04-30T06:59:59+00:00	-5	n335z1bkk2t5ghr@marketplace.amazon.com	George Metzger	+1 347-448-3190 ext. 41635	ABB006	Arabella Bouquets | Purchase by 11.30 AM EST Monday | Delivery on Wednesday | Farm Direct 48 Fresh Cut Red Roses	1	0	1	Standard	Raven Metzger	527 N LAS CASAS AVE			PACIFIC PALISADES	CA	90272-3311	US		Have a fantastic birthday darling!!!  From your husband	false		
112-1115897-5053825	18339387859954	2020-04-25T18:21:47+00:00	2020-04-25T11:21:47-07:00	2020-04-25T18:43:51+00:00	2020-04-30T06:59:59+00:00	-5	1l2s81q3qcc1q8p@marketplace.amazon.com	Pat Schilling	+1 314-282-9402 ext. 40095	ABR0022	Arabella Bouquets | Purchase by 11.30 AM EST Monday | Delivery on Wednesday | Bouquet of 12 Fresh Cut Pink Roses	1	0	1	Expedited	Mrs a b figler	2032 PAW PAW PL			CHARLESTON	SC	29412-2487	US		Happy birthday mom grandma in gina great mema pat Bob Chris Tim Wyatt and cole	false		
114-5656949-7353033	30226181804802	2020-04-25T18:19:48+00:00	2020-04-25T11:19:48-07:00	2020-04-25T18:45:38+00:00	2020-04-29T06:59:59+00:00	-4	1lsg7vxs5x50qr2@marketplace.amazon.com	Kyle Miller	+1 210-728-4548 ext. 95986	ABM010	Arabella Farm Direct Fields of The World Bouquet of Fresh Cut Flowers with a Free Glass Vase	1	0	1	Expedited	Lisa Janke	6807 BURBAGE LAKE CIR			SUFFOLK	VA	23435-2916	US		Thank you for including Austin in your family's Easter celebration. From Monica Miller	false		
112-9583182-2297054	31365856807754	2020-04-25T18:31:07+00:00	2020-04-25T11:31:07-07:00	2020-04-25T18:50:13+00:00	2020-04-29T06:59:59+00:00	-4	2r5l3kxvzc73wrb@marketplace.amazon.com	Norman Rodich	+1 314-282-9402 ext. 78498	ABR012	Arabella Bouquets | Purchase by 11.30 AM EST Monday | Delivery on Wednesday | Bouquet of 18 Fresh Cut Pink Roses	1	0	1	Expedited	Judith A. Rodich	10 MOUNT RAINIER DR			SAN RAFAEL	CA	94903-1078	US		Dear Nana, Happy Mother’s Day! Wish we could be with you. Hope you have a wonderful day. Love, Norm, Susie and Kalia From Norman Rodich	false		
113-2754095-6055419	05590602518042	2020-04-25T18:23:28+00:00	2020-04-25T11:23:28-07:00	2020-04-25T18:50:47+00:00	2020-04-29T06:59:59+00:00	-4	9b624t2s0fv1vty@marketplace.amazon.com	Roni stern	+1 314-282-9402 ext. 06395	ABR0055	Arabella Bouquets | Purchase by 11.30 AM EST Monday | Delivery on Wednesday | Bouquet of 12 Fresh Cut Hot Pink Roses	1	0	1	Standard	Amy Halper	5 LOCKHERN DR			LIVINGSTON	NJ	07039-6224	US			false		
112-2828542-0481005	21361378320818	2020-04-25T18:25:00+00:00	2020-04-25T11:25:00-07:00	2020-04-25T18:53:05+00:00	2020-04-29T06:59:59+00:00	-4	gr58h63sksvyfdw@marketplace.amazon.com	Sally Dikeman	+1 314-282-9402 ext. 59529	ABM010	Arabella Farm Direct Fields of The World Bouquet of Fresh Cut Flowers with a Free Glass Vase	1	0	1	Expedited	Pat Foster	571 S CAMINO DEL PORTILLO			GREEN VALLEY	AZ	85614-4751	US		Enjoy your gift!  Love and Hugs   Bill and Sally From Sally Dikeman	false		
113-9997515-3661825	40334005819986	2020-04-25T18:25:04+00:00	2020-04-25T11:25:04-07:00	2020-04-25T18:53:24+00:00	2020-04-29T06:59:59+00:00	-4	8dp5p5vkhn7jld2@marketplace.amazon.com	Christel Passink	+1 210-728-4548 ext. 97574	ABR0033	Arabella Bouquets | Purchase by 11.30 AM EST Monday | Delivery on Wednesday | Bouquet of 12 Fresh Cut Orange Roses	1	0	1	Expedited	Marilee Passink	401 CORALINE ST			WOODLAND PARK	CO	80863-2351	US		Happy Birthday Grandma Marilee! We hope you have a great day, love always. Christian, Christel, Sydney and Haley	false		
111-8141062-5484238	41952477959890	2020-04-25T18:30:52+00:00	2020-04-25T11:30:52-07:00	2020-04-25T19:01:21+00:00	2020-04-29T06:59:59+00:00	-4	svv980w5jrk6sk9@marketplace.amazon.com	lucinda baxter	+1 314-282-9402 ext. 08275	ABR0033	Arabella Bouquets | Purchase by 11.30 AM EST Monday | Delivery on Wednesday | Bouquet of 12 Fresh Cut Orange Roses	1	0	1	Expedited	Alisha baxter	4001 KIPPAX DR			HOPEWELL	VA	23860-5320	US			false		
114-1868821-9602611	40770784099682	2020-04-25T18:38:53+00:00	2020-04-25T11:38:53-07:00	2020-04-25T19:08:51+00:00	2020-04-30T06:59:59+00:00	-5	7wg798rvn0dncbp@marketplace.amazon.com	Janice Townsend	+1 347-448-3190 ext. 44007	ABR0022	Arabella Bouquets | Purchase by 11.30 AM EST Monday | Delivery on Wednesday | Bouquet of 12 Fresh Cut Pink Roses	1	0	1	Expedited	Elizabeth Przybylski	5240 WYNDHAM PL			FENTON	MI	48430-9160	US		Quarantine sucks!  Hopefully this will make it less sucky. From Janice Townsend	false		
114-1649860-9077862	58644868081466	2020-04-25T18:39:38+00:00	2020-04-25T11:39:38-07:00	2020-04-25T19:17:36+00:00	2020-04-30T06:59:59+00:00	-5	hrx66d3jm2h39pg@marketplace.amazon.com	Gloria J Eitel	+1 210-728-4548 ext. 40170	ABR0022	Arabella Bouquets | Purchase by 11.30 AM EST Monday | Delivery on Wednesday | Bouquet of 12 Fresh Cut Pink Roses	1	0	1	Expedited	Julie Spencer	6000 PERSHING AVE			DOWNERS GROVE	IL	60516-1725	US		Hi Julie, Enjoy your gift! From Gloria J Eitel	false		
113-3445752-0846639	70131981231242	2020-04-25T18:59:15+00:00	2020-04-25T11:59:15-07:00	2020-04-25T19:19:46+00:00	2020-04-29T06:59:59+00:00	-4	3f14myldvtm3c79@marketplace.amazon.com	Stephanie Hatcher	865748252t	ABR0055	Arabella Bouquets | Purchase by 11.30 AM EST Monday | Delivery on Wednesday | Bouquet of 12 Fresh Cut Hot Pink Roses	1	0	1	Expedited	Betty Sims	147 OLD COUNTY RD			MINERAL	VA	23117-4138	US		Sending our love From Yvonne and Shirley	false		
114-0345710-2748203	21100963852618	2020-04-25T18:51:46+00:00	2020-04-25T11:51:46-07:00	2020-04-25T19:25:22+00:00	2020-04-30T06:59:59+00:00	-5	2j698l3vhb9bbnz@marketplace.amazon.com	Randolph t Page	+1 210-728-4548 ext. 79631	ABR0022	Arabella Bouquets | Purchase by 11.30 AM EST Monday | Delivery on Wednesday | Bouquet of 12 Fresh Cut Pink Roses	1	0	1	Expedited	Arthur and Corrine Page	1501 Michael Street			Moriarty	New Mexico	87035	US			false		
111-9131672-5272265	32779191043922	2020-04-25T19:04:22+00:00	2020-04-25T12:04:22-07:00	2020-04-25T19:29:49+00:00	2020-04-29T06:59:59+00:00	-4	8m7zfzq2px0v9q2@marketplace.amazon.com	Bob	+1 347-448-3190 ext. 90940	ABR0055	Arabella Bouquets | Purchase by 11.30 AM EST Monday | Delivery on Wednesday | Bouquet of 12 Fresh Cut Hot Pink Roses	1	0	1	Expedited	Leona Arder	126 RED ROSE DR			ST CHARLES	IL	60175-4603	US		Hi Leona, Bobby and I hope you are enjoying your new home!! Hopefully, we will be out to see it soon. Love Lorraine and Bob	false		
113-4399113-0627460	26380811695722	2020-04-25T19:03:50+00:00	2020-04-25T12:03:50-07:00	2020-04-25T19:31:07+00:00	2020-04-30T06:59:59+00:00	-5	j2365mqg97r1md6@marketplace.amazon.com	Lisa	+1 347-448-3190 ext. 62423	ABR0022	Arabella Bouquets | Purchase by 11.30 AM EST Monday | Delivery on Wednesday | Bouquet of 12 Fresh Cut Pink Roses	1	0	1	Expedited	Maria McShane	32 CARTER LN			MARLTON	NJ	08053-5590	US		Maria, Happy 65th Birthday!!  Hope you have an amazing birthday and year.  Love you, Lisa & Victor From Lisa	false		
111-6401275-7744224	50321969305530	2020-04-25T19:05:03+00:00	2020-04-25T12:05:03-07:00	2020-04-25T19:32:35+00:00	2020-04-30T06:59:59+00:00	-5	nbfv53gbdg87c71@marketplace.amazon.com	Steve Woods	+1 210-728-4548 ext. 71475	ABR0022	Arabella Bouquets | Purchase by 11.30 AM EST Monday | Delivery on Wednesday | Bouquet of 12 Fresh Cut Pink Roses	1	0	1	Expedited	Marcia Lorena	133 NE 2ND AVE APT 2319			MIAMI	FL	33132-2916	US			false		
111-3552291-7001036	52642118164410	2020-04-25T19:08:01+00:00	2020-04-25T12:08:01-07:00	2020-04-25T19:32:43+00:00	2020-04-30T06:59:59+00:00	-5	5cgzgy0db7y5nwk@marketplace.amazon.com	Wendy Jones	+1 210-728-4548 ext. 50535	ABR0022	Arabella Bouquets | Purchase by 11.30 AM EST Monday | Delivery on Wednesday | Bouquet of 12 Fresh Cut Pink Roses	1	0	1	Expedited	Vivian Cook	13381 MAGNOLIA AVE SPC 85			CORONA	CA	92879-1943	US		Hi Mom! A little early Mother's Day gift to brighten your day. We love you, Wendy & Rusty	false		
114-5319726-8929065	70150278057874	2020-04-25T19:05:27+00:00	2020-04-25T12:05:27-07:00	2020-04-25T19:33:17+00:00	2020-04-29T06:59:59+00:00	-4	113279n6ry1r844@marketplace.amazon.com	Kimberly A Fenner	+1 314-282-9402 ext. 98070	ABR0055	Arabella Bouquets | Purchase by 11.30 AM EST Monday | Delivery on Wednesday | Bouquet of 12 Fresh Cut Hot Pink Roses	1	0	1	Expedited	Edna Fish	405 Collins St	Palo Duro Nursing Home		Claude	Texas	79019	US		Happy Birthday Granny !!!   Hope this brightens your day....  Love you! Kelly, Kim and Brandon	false		
114-9911131-9928239	48792117420866	2020-04-25T19:20:29+00:00	2020-04-25T12:20:29-07:00	2020-04-25T19:45:01+00:00	2020-04-30T06:59:59+00:00	-5	08gr8dbgc5d3y6f@marketplace.amazon.com	Elizabeth	+1 210-728-4548 ext. 11925	ABR0022	Arabella Bouquets | Purchase by 11.30 AM EST Monday | Delivery on Wednesday | Bouquet of 12 Fresh Cut Pink Roses	1	0	1	Expedited	Keitha Daugherty	6177 HIGHWAY 198 E			LUCEDALE	MS	39452-8701	US		We love you!!! Love,  Elizabeth and Lance From Elizabeth	false		
112-1870069-9981020	27308828271178	2020-04-25T19:17:23+00:00	2020-04-25T12:17:23-07:00	2020-04-25T19:45:52+00:00	2020-04-29T06:59:59+00:00	-4	79hqfcy4jj38py9@marketplace.amazon.com	Kim	+1 314-282-9402 ext. 03794	ABR0055	Arabella Bouquets | Purchase by 11.30 AM EST Monday | Delivery on Wednesday | Bouquet of 12 Fresh Cut Hot Pink Roses	1	0	1	Standard	Charlotte Patterson	306 DONNA DR			O FALLON	IL	62269-2435	US		Happy Mother’s Day! We love you. From Love, Kim, Chris, Ethan and Cody	false		
114-7952595-1830614	60044859621322	2020-04-25T19:31:08+00:00	2020-04-25T12:31:08-07:00	2020-04-25T19:55:01+00:00	2020-04-30T06:59:59+00:00	-5	z6fhrnnyp7xrnyf@marketplace.amazon.com	jolinekanda	+1 347-448-3190 ext. 51051	ABR0022	Arabella Bouquets | Purchase by 11.30 AM EST Monday | Delivery on Wednesday | Bouquet of 12 Fresh Cut Pink Roses	1	0	1	Expedited	Helen Rovner	1781 ALMOND AVE			WALNUT CREEK	CA	94596-4346	US		Hi Helen, congratulations Helen and RJ on your beautiful baby girl God Bless your family,  Love, Aunt Joline and Uncle Mike	false		
113-6297221-6893803	10852795572634	2020-04-25T19:20:29+00:00	2020-04-25T12:20:29-07:00	2020-04-25T19:56:10+00:00	2020-04-30T06:59:59+00:00	-5	z2b2067m4jf5slk@marketplace.amazon.com	Faith	+1 210-728-4548 ext. 00573	ABR0022	Arabella Bouquets | Purchase by 11.30 AM EST Monday | Delivery on Wednesday | Bouquet of 12 Fresh Cut Pink Roses	1	0	1	Expedited	Faith Njoroge	3293 Windsor Ridge South			Williamsburg	Virginia	23188	US			false		
112-0459363-7788255	20544561406954	2020-04-25T19:31:06+00:00	2020-04-25T12:31:06-07:00	2020-04-25T19:57:16+00:00	2020-04-28T06:59:59+00:00	-3	5rb0dcx8tpqgw5y@marketplace.amazon.com	Simran Verma	+1 314-282-9402 ext. 35113	ABR001	Arabella Bouquets | Purchase by 11.30 AM EST Monday | Delivery on Wednesday | Bouquet of 12 Fresh Cut Red Roses	1	0	1	SecondDay	Shalini Kwatra	1480 QUEENSBURY AVE			LOS ALTOS	CA	94024-5839	US			false		
112-5570216-5857003	15496110053954	2020-04-25T19:28:28+00:00	2020-04-25T12:28:28-07:00	2020-04-25T19:57:54+00:00	2020-04-29T06:59:59+00:00	-4	gmd3nxz2j5wmsss@marketplace.amazon.com	Sean Gilmore	+1 347-448-3190 ext. 47169	ABR0055	Arabella Bouquets | Purchase by 11.30 AM EST Monday | Delivery on Wednesday | Bouquet of 12 Fresh Cut Hot Pink Roses	1	0	1	Expedited	Sean Gilmore	170 EDGECLIFF DR			HIGHLAND PARK	IL	60035-1957	US		Happy 5 year Anniversary Pie!  I love you lots and look forward to many more years to come. From Sean Gilmore	false		
112-6872341-6144213	28129210200922	2020-04-25T19:37:15+00:00	2020-04-25T12:37:15-07:00	2020-04-25T19:58:52+00:00	2020-04-30T06:59:59+00:00	-5	kkgnpl7fnzqjtxl@marketplace.amazon.com	Andrea Sheets	+1 314-282-9402 ext. 55311	ABR0022	Arabella Bouquets | Purchase by 11.30 AM EST Monday | Delivery on Wednesday | Bouquet of 12 Fresh Cut Pink Roses	1	0	1	Expedited	Alyssa N. Sheets	6286 CATES AVE APT 1E			UNIVERSITY CITY	MO	63130-3427	US		We Love You Alyssa! Thinking of you as you complete your finals in Law School.  A HUGE accomplishment for our talented, hard-working, and beautiful daughter/sister.  We are always, always proud of you.   Love, Mom, Dad, Brandt and Molly	false		
114-9284749-8921019	41627079353626	2020-04-25T19:29:41+00:00	2020-04-25T12:29:41-07:00	2020-04-25T19:59:58+00:00	2020-04-30T06:59:59+00:00	-5	2ft4bxhj8j7c3y9@marketplace.amazon.com	Cory adam	+1 210-728-4548 ext. 42979	ABR0022	Arabella Bouquets | Purchase by 11.30 AM EST Monday | Delivery on Wednesday | Bouquet of 12 Fresh Cut Pink Roses	1	0	1	Expedited	Amanda Cadle	453 OAK AVE			WAYNESBORO	VA	22980-4424	US			false		
113-7413456-9728234	12007322141818	2020-04-25T19:38:54+00:00	2020-04-25T12:38:54-07:00	2020-04-25T20:07:53+00:00	2020-04-30T06:59:59+00:00	-5	ggz0ff2bk0v2tg9@marketplace.amazon.com	Samantha	+1 347-448-3190 ext. 93893	ABR0022	Arabella Bouquets | Purchase by 11.30 AM EST Monday | Delivery on Wednesday | Bouquet of 12 Fresh Cut Pink Roses	1	0	1	Expedited	Sara Lacy Gambs	4100 MOLLER RD			INDIANAPOLIS	IN	46254-2935	US		Congrats!!! Proud of you! Xoxo From Samantha	false		
112-1095290-9585820	39492439559442	2020-04-25T19:40:18+00:00	2020-04-25T12:40:18-07:00	2020-04-25T20:08:57+00:00	2020-04-29T06:59:59+00:00	-4	fyh7dvcntk52dm6@marketplace.amazon.com	Jim Damon	+1 314-282-9402 ext. 84401	ABR001	Arabella Bouquets | Purchase by 11.30 AM EST Monday | Delivery on Wednesday | Bouquet of 12 Fresh Cut Red Roses	1	0	1	Standard	James Damon	443 NEW YORK AVE NW APT 1015			WASHINGTON	DC	20001-4868	US		Happy Mothers Day!!! to the BEST Daughter-in-law!!!!!!!!!!!!!!!!!!!!!!!!! Enjoy!! From Mom And Dad Damon	false		
113-2592726-9532268	65124660901362	2020-04-25T19:51:38+00:00	2020-04-25T12:51:38-07:00	2020-04-25T20:17:44+00:00	2020-04-30T06:59:59+00:00	-5	tdtkvh74djjyc1x@marketplace.amazon.com	Annelies Paluso	+1 347-448-3190 ext. 00145	ABR0022	Arabella Bouquets | Purchase by 11.30 AM EST Monday | Delivery on Wednesday | Bouquet of 12 Fresh Cut Pink Roses	1	0	1	Expedited	Kodi and Kassy Stuart	640 8TH ST			BLAINE	WA	98230-5196	US		Happy 14th Kodi!!!  I love you tons 💕💕💕 You are the best! From Grandma	false		
112-2012944-3150613	05526775825474	2020-04-25T19:57:46+00:00	2020-04-25T12:57:46-07:00	2020-04-25T20:25:44+00:00	2020-04-30T06:59:59+00:00	-5	r64gd9fx8g5kbhr@marketplace.amazon.com	Grant Saylor	+1 210-728-4548 ext. 72726	ABR0022	Arabella Bouquets | Purchase by 11.30 AM EST Monday | Delivery on Wednesday | Bouquet of 12 Fresh Cut Pink Roses	1	0	1	Standard	Betty Saylor	350 STRATFORD CT			DIMONDALE	MI	48821-9779	US		Happy Mother's Day!!!! We love you and miss you!!! Enjoy your special day :)  Love,  Todd and Connie From Todd	false		
112-5642064-9022624	21325346458946	2020-04-25T20:00:55+00:00	2020-04-25T13:00:55-07:00	2020-04-25T20:29:38+00:00	2020-04-30T06:59:59+00:00	-5	r64gd9fx8g5kbhr@marketplace.amazon.com	Grant Saylor	+1 314-282-9402 ext. 71466	ABR0022	Arabella Bouquets | Purchase by 11.30 AM EST Monday | Delivery on Wednesday | Bouquet of 12 Fresh Cut Pink Roses	1	0	1	Standard	Joan Lodewyk	2695 JOHNATHAN AVE NE			GRAND RAPIDS	MI	49525-3169	US		Happy Mother's Day!!! Love you and miss you!!! Enjoy your special day :)  Love,  Connie From Connie	false		
111-2480429-6141052	39517480480426	2020-04-25T20:03:24+00:00	2020-04-25T13:03:24-07:00	2020-04-25T20:30:40+00:00	2020-04-29T06:59:59+00:00	-4	lbpb1wm1j4j824g@marketplace.amazon.com	Wendy Adams	+1 347-448-3190 ext. 02040	ABM010	Arabella Farm Direct Fields of The World Bouquet of Fresh Cut Flowers with a Free Glass Vase	1	0	1	Expedited	Iola Deese	4425 WOODLAND AVE			CHARLOTTE	NC	28227-7530	US		Happy Mother's Day We Love You Wayne, Wendy, Kasey, and Misty	false		
112-7723172-9620269	45301160044914	2020-04-25T20:06:08+00:00	2020-04-25T13:06:08-07:00	2020-04-25T20:34:16+00:00	2020-04-29T06:59:59+00:00	-4	9njftkcd1w573q6@marketplace.amazon.com	tammy shay	+1 314-282-9402 ext. 25608	ABM010	Arabella Farm Direct Fields of The World Bouquet of Fresh Cut Flowers with a Free Glass Vase	1	0	1	Expedited	karen zacharias	11549 E VIA CANADA			YUMA	AZ	85367-7246	US		Happy Mothers day!! From tammy shay	false		
111-6219070-0651427	21871772211810	2020-04-25T20:15:33+00:00	2020-04-25T13:15:33-07:00	2020-04-25T20:38:50+00:00	2020-04-29T06:59:59+00:00	-4	k8c9m0hv3wn57xm@marketplace.amazon.com	Lori Strickland	+1 347-448-3190 ext. 29814	ABM010	Arabella Farm Direct Fields of The World Bouquet of Fresh Cut Flowers with a Free Glass Vase	1	0	1	Expedited	Lori Arcon	9210 MARKET PL UNIT G-104			LAKE STEVENS	WA	98258-3354	US		For my Beautiful Soul Sister. Love you so much, enjoy! From Lori	false		
111-9283639-0192213	61259535616426	2020-04-25T20:03:51+00:00	2020-04-25T13:03:51-07:00	2020-04-25T20:41:37+00:00	2020-04-29T06:59:59+00:00	-4	rp9hxyl19z8m1qx@marketplace.amazon.com	dave rodriquez	+1 347-448-3190 ext. 60735	ABR0055	Arabella Bouquets | Purchase by 11.30 AM EST Monday | Delivery on Wednesday | Bouquet of 12 Fresh Cut Hot Pink Roses	1	0	1	Expedited	david rodriquez	7039 PALMDELL WAY			FAIR OAKS	CA	95628-3268	US			false		
114-5160658-1257035	23177297071690	2020-04-25T20:16:44+00:00	2020-04-25T13:16:44-07:00	2020-04-25T20:45:51+00:00	2020-04-30T06:59:59+00:00	-5	vl3b66q4cyx50r3@marketplace.amazon.com	LJMoore	+1 314-282-9402 ext. 31271	ABR0022	Arabella Bouquets | Purchase by 11.30 AM EST Monday | Delivery on Wednesday | Bouquet of 12 Fresh Cut Pink Roses	1	0	1	Expedited	Michael Moore	1892 GREMPLER WAY			EDGEWOOD	MD	21040-1809	US		Hi Sweetheart, Hope you enjoy!! Michael	false		
114-1205346-1405034	58483007094226	2020-04-25T20:29:42+00:00	2020-04-25T13:29:42-07:00	2020-04-25T20:53:38+00:00	2020-04-30T06:59:59+00:00	-5	qx2t2fscj1nqf71@marketplace.amazon.com	Ania Worthington	+1 347-448-3190 ext. 81840	ABR0022	Arabella Bouquets | Purchase by 11.30 AM EST Monday | Delivery on Wednesday | Bouquet of 12 Fresh Cut Pink Roses	1	0	1	Expedited	Moni Worthington	BROOKLYN 239 STARR ST			BROOKLYN	NY	11237-2607	US		Dear Moni,  We hope these will brighten up your day - thinking of you all and wishing we could all be together. Love the Williworthies :) xx	false		
114-8311702-3370603	31599184920458	2020-04-25T20:31:10+00:00	2020-04-25T13:31:10-07:00	2020-04-25T20:54:09+00:00	2020-04-29T06:59:59+00:00	-4	l46psddrp5rcw55@marketplace.amazon.com	ALICIA A. Clowe	+1 347-448-3190 ext. 84659	ABM017	Prosperous Day a Farm Direct Bouquet with a Free Glass Vase	1	0	1	Expedited	Mrs Sheila Morrow	24 3RD AVE			CENTRAL ISLIP	NY	11722-3008	US		Dear Sheila, My deepest sympathy to you and your family. Know that you are in my thoughts and prayers always.  Rainbow Alert, Jackie	false		
112-4016830-1149054	32662787945474	2020-04-25T20:30:42+00:00	2020-04-25T13:30:42-07:00	2020-04-25T20:57:06+00:00	2020-04-29T06:59:59+00:00	-4	yc46qr6t0vnmy6f@marketplace.amazon.com	Linda Huet	+1 347-448-3190 ext. 96751	ABM010	Arabella Farm Direct Fields of The World Bouquet of Fresh Cut Flowers with a Free Glass Vase	1	0	1	Expedited	Bob and Mary Bell	3601 LA JOYA RD			ROSWELL	NM	88201-9108	US		Thanks for your hospitality. Really enjoyed the evening. Great food, great friendship.  Come see us.  Matt and Linda	false		
114-5409916-9239430	18212130878602	2020-04-25T20:33:20+00:00	2020-04-25T13:33:20-07:00	2020-04-25T20:58:42+00:00	2020-04-30T06:59:59+00:00	-5	ylnp87rn883wr4t@marketplace.amazon.com	Teresa Rocha	+1 347-448-3190 ext. 81550	ABR0022	Arabella Bouquets | Purchase by 11.30 AM EST Monday | Delivery on Wednesday | Bouquet of 12 Fresh Cut Pink Roses	1	0	1	Standard	Shirley Scalise	622 LA COSTA DR			BANNING	CA	92220-5316	US		To my beautiful and loving Mommy!  Happy Mother's Day!  I love you with all my heart.  Love, Tu XOXOXO	false		
113-4359899-4766657	43969208734274	2020-04-25T20:36:08+00:00	2020-04-25T13:36:08-07:00	2020-04-25T21:05:12+00:00	2020-04-30T06:59:59+00:00	-5	mj5kpj9rkrh8g6f@marketplace.amazon.com	barbara patton	+1 347-448-3190 ext. 41209	ABR0022	Arabella Bouquets | Purchase by 11.30 AM EST Monday | Delivery on Wednesday | Bouquet of 12 Fresh Cut Pink Roses	1	0	1	Expedited	Barbara Patterson	1050 Mc Neilly Road	Apt 542		Pittsburgh	PA	15226	US		Happy Mother’s Day From Barbie and Charlie	false		
112-7483219-6938654	21743063867346	2020-04-25T20:39:09+00:00	2020-04-25T13:39:09-07:00	2020-04-25T21:05:55+00:00	2020-04-30T06:59:59+00:00	-5	1xlk0pm9cy4tlmk@marketplace.amazon.com	Jaya Singh	+1 412-532-4665 ext. 51584	ABR0022	Arabella Bouquets | Purchase by 11.30 AM EST Monday | Delivery on Wednesday | Bouquet of 12 Fresh Cut Pink Roses	1	0	1	Expedited	KEVIN AND FARRAH LATCHMAN	39 WHITTLESEY AVE			WEST ORANGE	NJ	07052-6029	US		Aunty Naino, Kevin and Farrah Hope this makes you all smile, even for a moment Our prayers and love are with you ❤ The Backreedy and Singh Families From Jaya Singh	false		
113-3256429-4201069	50793230256554	2020-04-25T20:36:44+00:00	2020-04-25T13:36:44-07:00	2020-04-25T21:06:20+00:00	2020-04-30T06:59:59+00:00	-5	7jxzxgm9hbh39m9@marketplace.amazon.com	Michael	+1 347-448-3190 ext. 84164	ABR0022	Arabella Bouquets | Purchase by 11.30 AM EST Monday | Delivery on Wednesday | Bouquet of 12 Fresh Cut Pink Roses	1	0	1	Standard	Wanda Magill	6008 CARPENTER AVE			NORTH HOLLYWOOD	CA	91606-4704	US		Happy Mother's Day! Love, Michael	false		
112-8668615-2123464	54858498662866	2020-04-25T20:39:51+00:00	2020-04-25T13:39:51-07:00	2020-04-25T21:08:30+00:00	2020-04-30T06:59:59+00:00	-5	lsjksf9mzx4y728@marketplace.amazon.com	Alyssa Cherrington	+1 347-448-3190 ext. 45253	ABR0022	Arabella Bouquets | Purchase by 11.30 AM EST Monday | Delivery on Wednesday | Bouquet of 12 Fresh Cut Pink Roses	1	0	1	Expedited	Kirk Family	2264 E GARBER DR			MERIDIAN	ID	83646-4752	US			false		
113-5163540-2963457	25096271542290	2020-04-25T20:43:04+00:00	2020-04-25T13:43:04-07:00	2020-04-25T21:12:28+00:00	2020-04-29T06:59:59+00:00	-4	hn0x0m4mhxd4m6p@marketplace.amazon.com	David ig	+1 347-448-3190 ext. 47259	ABM010	Arabella Farm Direct Fields of The World Bouquet of Fresh Cut Flowers with a Free Glass Vase	1	0	1	Expedited	Judi ignaszewski	1735 W EAGLE TALON TRL			PHOENIX	AZ	85085-5344	US		Jeff and Judi, You are in our thoughts and prayers. Love Mom and Dad David and Julie	false		
113-8066431-3763423	53156185719482	2020-04-25T20:54:50+00:00	2020-04-25T13:54:50-07:00	2020-04-25T21:22:26+00:00	2020-04-30T06:59:59+00:00	-5	mj22p7g9gf94ygx@marketplace.amazon.com	Marcy Haakonsen	+1 412-532-4665 ext. 40605	ABR0022	Arabella Bouquets | Purchase by 11.30 AM EST Monday | Delivery on Wednesday | Bouquet of 12 Fresh Cut Pink Roses	1	0	1	Expedited	Madison Broadwell	311 6TH ST			STEILACOOM	WA	98388-1903	US		Congratulations, Madison and James! We can’t wait to hold your little girl. Love you both so much! From Love, Mom and Anna From Marcy Haakonsen	false		
114-0990201-2669825	45883941448266	2020-04-25T20:53:10+00:00	2020-04-25T13:53:10-07:00	2020-04-25T21:23:39+00:00	2020-04-30T06:59:59+00:00	-5	k2sk2r47xzxzzkt@marketplace.amazon.com	John Keith	+1 347-448-3190 ext. 19370	ABR0022	Arabella Bouquets | Purchase by 11.30 AM EST Monday | Delivery on Wednesday | Bouquet of 12 Fresh Cut Pink Roses	1	0	1	Expedited	Jeannette Lazzaro	2148 MARINA SHORES DR			VIRGINIA BEACH	VA	23451-6800	US			false		
113-2315940-5065856	12104512112010	2020-04-25T20:54:33+00:00	2020-04-25T13:54:33-07:00	2020-04-25T21:24:33+00:00	2020-04-29T06:59:59+00:00	-4	xrhlfh5pvpl4kjr@marketplace.amazon.com	Donna Lloyd	+1 210-728-4548 ext. 08116	ABM010	Arabella Farm Direct Fields of The World Bouquet of Fresh Cut Flowers with a Free Glass Vase	1	0	1	Expedited	E.& G. McCandless	2613 CHRISTOPHER FARMS DR			VIRGINIA BEACH	VA	23453-6608	US			false		
113-2574135-9214626	20419911604258	2020-04-25T21:00:24+00:00	2020-04-25T14:00:24-07:00	2020-04-25T21:26:03+00:00	2020-04-30T06:59:59+00:00	-5	h1wlk01zlyjz07r@marketplace.amazon.com	Deborah	+1 412-532-4665 ext. 32671	ABR0022	Arabella Bouquets | Purchase by 11.30 AM EST Monday | Delivery on Wednesday | Bouquet of 12 Fresh Cut Pink Roses	1	0	1	Expedited	Biana Jones	221 NW 5TH CT			BOYNTON BEACH	FL	33435-3744	US		Hi Biana, Enjoy your gift!.  Were thinking of you and wishing you a Early Happy Mothers Day From Deborah and James Hubbard	false		
114-2654812-0601013	28908324320034	2020-04-25T21:06:56+00:00	2020-04-25T14:06:56-07:00	2020-04-25T21:34:18+00:00	2020-04-30T06:59:59+00:00	-5	vz8jzn5bhjmxm77@marketplace.amazon.com	Jasmine	+1 347-448-3190 ext. 55880	ABR0022	Arabella Bouquets | Purchase by 11.30 AM EST Monday | Delivery on Wednesday | Bouquet of 12 Fresh Cut Pink Roses	1	0	1	Expedited	Patrick Jeffries	2754 E KAEL ST			MESA	AZ	85213-2364	US		I love you so much Patrick. Have great day my love. Kisses Mwah From Jasmine	false		
114-5581118-8783455	16209821987618	2020-04-25T21:16:20+00:00	2020-04-25T14:16:20-07:00	2020-04-25T21:41:44+00:00	2020-04-30T06:59:59+00:00	-5	2lcyd4pmdfn192q@marketplace.amazon.com	angela hawkins	+1 347-448-3190 ext. 91051	ABR0022	Arabella Bouquets | Purchase by 11.30 AM EST Monday | Delivery on Wednesday | Bouquet of 12 Fresh Cut Pink Roses	1	0	1	Expedited	Nakia Bomar	1299 HUNTERS LAKE DR E			CUYAHOGA FALLS	OH	44221-5269	US		Hi Nakia, Love You Very Much!!! From  Mom	false		
111-4272325-0644265	62696590978434	2020-04-25T21:16:03+00:00	2020-04-25T14:16:03-07:00	2020-04-25T21:45:43+00:00	2020-04-30T06:59:59+00:00	-5	2nhcrvbhzr3pwlm@marketplace.amazon.com	Lisa Kelly	+1 314-282-9402 ext. 48476	ABR0022	Arabella Bouquets | Purchase by 11.30 AM EST Monday | Delivery on Wednesday | Bouquet of 12 Fresh Cut Pink Roses	1	0	1	Expedited	Mary Tatum	12355 CLARETH DR			HERNDON	VA	20171-2032	US		We hope you feel better soon! We love you. Jim, Lisa, Liam, Nora and Rose	false		
112-7123875-1579426	21747888340874	2020-04-25T21:25:13+00:00	2020-04-25T14:25:13-07:00	2020-04-25T21:48:32+00:00	2020-04-30T06:59:59+00:00	-5	1y5wyghjm812lsh@marketplace.amazon.com	Phiroze Vasunia	+1 314-282-9402 ext. 89783	ABR0022	Arabella Bouquets | Purchase by 11.30 AM EST Monday | Delivery on Wednesday | Bouquet of 12 Fresh Cut Pink Roses	1	0	1	Expedited	Leia Tyebjee	320 COVERT ST APT 4R			BROOKLYN	NY	11237-6327	US		Happy Birthday, Leia!   Have a wonderful celebration (even if you're in lockdown).   Love, Mama, Nana, Anu, Vikram, Tazzy, Miriam, Phiroze, and Isaac	false		
111-3161257-5269817	40480542139242	2020-04-25T21:33:17+00:00	2020-04-25T14:33:17-07:00	2020-04-25T21:59:55+00:00	2020-04-30T06:59:59+00:00	-5	rl9k3hnhmljjmyf@marketplace.amazon.com	adrienne elias	+1 314-282-9402 ext. 63017	ABR0022	Arabella Bouquets | Purchase by 11.30 AM EST Monday | Delivery on Wednesday | Bouquet of 12 Fresh Cut Pink Roses	1	0	1	Standard	Anne Franklin	2034 E 10TH ST			TUCSON	AZ	85719-5924	US		Happy mother's day mom!  Love, Adrie	false		
111-5856500-0626646	10822197462594	2020-04-25T21:40:14+00:00	2020-04-25T14:40:14-07:00	2020-04-25T22:05:35+00:00	2020-04-29T06:59:59+00:00	-4	2fkynkmvl46wyg7@marketplace.amazon.com	patricia tramp	+1 314-282-9402 ext. 29531	ABM010	Arabella Farm Direct Fields of The World Bouquet of Fresh Cut Flowers with a Free Glass Vase	1	0	1	Expedited	Estelle Simpson	172 MILL ST			SPRINGVILLE	NY	14141-1052	US		Happy Birthday Aunt Estelle! Much love, Tricia & Keith Mary & Charlie Bud & Dee Dee From patricia tramp	false		
111-2786412-8845018	11695368807402	2020-04-25T21:46:12+00:00	2020-04-25T14:46:12-07:00	2020-04-25T22:15:17+00:00	2020-04-30T06:59:59+00:00	-5	0flc87bgf19955p@marketplace.amazon.com	thomas griffin	+1 210-728-4548 ext. 86807	ABR0022	Arabella Bouquets | Purchase by 11.30 AM EST Monday | Delivery on Wednesday | Bouquet of 12 Fresh Cut Pink Roses	1	0	1	Expedited	ella mae HUNTER	408 DELAWARE ST			WINCHESTER	KS	66097-4003	US		Hi Mom I hope you enjoy these From thomas griffin	false		
113-0321787-1305002	01023372697394	2020-04-25T21:47:24+00:00	2020-04-25T14:47:24-07:00	2020-04-25T22:16:09+00:00	2020-04-30T06:59:59+00:00	-5	w58f5l6z0zcmfp9@marketplace.amazon.com	Daniel Hernández	+1 347-448-3190 ext. 87711	ABR0022	Arabella Bouquets | Purchase by 11.30 AM EST Monday | Delivery on Wednesday | Bouquet of 12 Fresh Cut Pink Roses	1	0	1	Expedited	Mikayla Mata	1646 NEPTUNE LN			HOUSTON	TX	77062-4516	US			false		
114-6422325-2689831	11193356520818	2020-04-25T21:49:49+00:00	2020-04-25T14:49:49-07:00	2020-04-25T22:18:48+00:00	2020-04-30T06:59:59+00:00	-5	wcj8t4vnhnvs54r@marketplace.amazon.com	Tamera K. Kiger	+1 314-282-9402 ext. 14800	ABR0022	Arabella Bouquets | Purchase by 11.30 AM EST Monday | Delivery on Wednesday | Bouquet of 12 Fresh Cut Pink Roses	1	0	1	Expedited	Suzy Radocaj	22349 OAK ST			WOODHAVEN	MI	48183-1538	US		Suzy - I am sorry about the UTI - and - I am thankful for you and how hard you worked to make the food distribution a success - and you put up with me! Get well soon! TK	false		
113-0230649-2090655	47802798769146	2020-04-25T21:54:06+00:00	2020-04-25T14:54:06-07:00	2020-04-25T22:24:12+00:00	2020-04-29T06:59:59+00:00	-4	jbpf8jq4skpzfkl@marketplace.amazon.com	Lindsay Guddee	+1 210-728-4548 ext. 88612	ABR0033	Arabella Bouquets | Purchase by 11.30 AM EST Monday | Delivery on Wednesday | Bouquet of 12 Fresh Cut Orange Roses	1	0	1	Expedited	Jeanne Guddee	113 IVY ARBOR CT			LINCOLN	CA	95648-8654	US		Happy Birthday Mom!!! I love you!!! Wish I could have been there to celebrate!!! Xoxo              Love, Lindsay From Lindsay Guddee	false		
111-4808911-4423448	67024502861626	2020-04-25T22:00:16+00:00	2020-04-25T15:00:16-07:00	2020-04-25T22:29:31+00:00	2020-04-30T06:59:59+00:00	-5	8md9l8r0gwwxd9p@marketplace.amazon.com	Smitha Dante	+1 347-448-3190 ext. 71607	ABR0022	Arabella Bouquets | Purchase by 11.30 AM EST Monday | Delivery on Wednesday | Bouquet of 12 Fresh Cut Pink Roses	1	0	1	Standard	Cynthia Dante	14324 RIVERDOWNS SOUTH DR			MIDLOTHIAN	VA	23113-3967	US		Happy Mother'a Day! Ordered the flowers a little bit early, but I figured that was better than a little bit late... Love, From Smitha and Nathan	false		
112-3376672-5545840	14544309259498	2020-04-25T22:05:17+00:00	2020-04-25T15:05:17-07:00	2020-04-25T22:31:49+00:00	2020-04-30T06:59:59+00:00	-5	7y6z06r7sc81wcx@marketplace.amazon.com	Kathy	+1 210-728-4548 ext. 83591	ABR0022	Arabella Bouquets | Purchase by 11.30 AM EST Monday | Delivery on Wednesday | Bouquet of 12 Fresh Cut Pink Roses	1	0	1	Expedited	Tina Cummings	919 PARSONS DR			MADISON	MD	21648-1103	US		I hope these make you feel happy and know that I love you and pray for you to heal quickly so you can do your yard work !! I miss you From Love, Kathy	false		
