order-id	order-item-id	purchase-date	payments-date	reporting-date	promise-date	days-past-promise	buyer-email	buyer-name	buyer-phone-number	sku	product-name	quantity-purchased	quantity-shipped	quantity-to-ship	ship-service-level	recipient-name	ship-address-1	ship-address-2	ship-address-3	ship-city	ship-state	ship-postal-code	ship-country	gift-wrap-type	gift-message-text	is-business-order	purchase-order-number	price-designation
113-0378164-5849042	33133648309834	2020-04-26T08:56:34+00:00	2020-04-26T01:56:34-07:00	2020-04-26T09:24:50+00:00	2020-04-28T06:59:59+00:00	0	r13j7s8mww9ypkb@marketplace.amazon.com	Praveen Prakash	+1 347-448-3190 ext. 86843	ABR001	Arabella Bouquets | Purchase by 11.30 AM EST Monday | Delivery on Wednesday | Bouquet of 12 Fresh Cut Red Roses	1	0	1	SecondDay	Praveen p	305 HARVARD ST			BROOKLINE	MA	02446-2906	US		Hi Praveen, Enjoy your gift! From Praveen Prakash	false		
111-5119660-3586620	60086074561426	2020-04-27T21:09:26+00:00	2020-04-27T14:09:26-07:00	2020-04-27T21:34:38+00:00	2020-04-30T06:59:59+00:00	-2	rbsn8rmxps1d63f@marketplace.amazon.com	Veronica Guzman	+1 210-728-4548 ext. 42645	ABR0022	Arabella Farm Direct Bouquet of 12 Fresh Cut Pink Roses with a Free Glass Vase	1	0	1	Standard	Aurora Garcia Martinez	9460 E CORRAL ST			YUMA	AZ	85365-6947	US		Feliz día de las Madres, Tía Muñeca!  Saludos y felicidades a Chely y Maritza! La quiero mucho! From Veronica Guzman	false		
114-2334373-6346634	41565726041810	2020-04-28T14:09:14+00:00	2020-04-28T07:09:14-07:00	2020-04-28T14:38:22+00:00	2020-05-02T06:59:59+00:00	-4	7h5cgbjgl9m8r43@marketplace.amazon.com	Kristen	+1 210-728-4548 ext. 56658	ABR015	Arabella Farm Direct Bouquet of 18 Fresh Cut Orange Roses with a Free Glass Vase	1	0	1	Expedited	Kathy Moyle	2475 ZELLA DR			BUTTE	MT	59701-7103	US		Happy Mother's Day!  Miss you lots!!!! Love, Kristen, Brendan, Millie, and Harrison	false		
113-4879470-3653035	16499747509914	2020-04-28T14:22:48+00:00	2020-04-28T07:22:48-07:00	2020-04-28T14:52:56+00:00	2020-05-02T06:59:59+00:00	-4	fjbx2lwzv44qrrd@marketplace.amazon.com	Gene	+1 347-448-3190 ext. 99546	ABB011	Arabella Farm Direct Bouquet of 24 Fresh Cut Hot Pink Roses with a Free Glass Vase	1	0	1	Standard	Gene Lachner	3072 Killearn Pointe Ct.			Tallahassee	FL	32312	US			false		
114-5042138-3475439	50457162214210	2020-04-28T14:14:48+00:00	2020-04-28T07:14:48-07:00	2020-04-28T14:54:08+00:00	2020-05-02T06:59:59+00:00	-4	f4stnsn666qk4qq@marketplace.amazon.com	Ashley Giebel	+1 314-282-9402 ext. 30193	ABR0033	Arabella Farm Direct Bouquet of 12 Fresh Cut Orange Roses with a Free Glass Vase	1	0	1	Expedited	Ashley Giebel	1207 HARDING AVE			CANON CITY	CO	81212-2228	US			false		
111-8282333-7669811	48572534419634	2020-04-28T14:26:43+00:00	2020-04-28T07:26:43-07:00	2020-04-28T14:55:47+00:00	2020-05-02T06:59:59+00:00	-4	mg3ymlmkz7wjd72@marketplace.amazon.com	Jeanna Goudey	+1 347-448-3190 ext. 13734	ABR004	Arabella Farm Direct Bouquet of 12 Fresh Cut Yellow Roses with a Free Glass Vase	1	0	1	Standard	Chris goudey	70 LONG DR			DRACUT	MA	01826-2049	US		Happy Mother’s Day love you Xoxo Jeanna and Joey From Jeanna Joey Sergio Reeses and Rocky	false		
111-8223766-8605029	09518116995298	2020-04-28T14:41:13+00:00	2020-04-28T07:41:13-07:00	2020-04-28T15:11:41+00:00	2020-04-29T06:59:59+00:00	-1	fkq8qx0dvsjsp9y@marketplace.amazon.com	Erick Wigdahl	+1 347-448-3190 ext. 93683	ABR001	Arabella Farm Direct Bouquet of 12 Fresh Cut Red Roses with a Free Glass Vase	1	0	1	SecondDay	Erick Wigdahl	423 MIAMI CONSERVANCY RD			PIQUA	OH	45356-9619	US			false		
112-7705664-7073002	64025549233986	2020-04-28T15:08:56+00:00	2020-04-28T08:08:56-07:00	2020-04-28T15:36:33+00:00	2020-04-29T06:59:59+00:00	-1	cz9ss99rm0c6kzf@marketplace.amazon.com	Kathy McCarthy	+1 347-448-3190 ext. 63300	ABR001	Arabella Farm Direct Bouquet of 12 Fresh Cut Red Roses with a Free Glass Vase	1	0	1	SecondDay	Angel McDowell	5 BLACK OAK DR			OCEAN VIEW	NJ	08230-1422	US			false		
112-2506358-8934624	68333333989034	2020-04-28T15:08:57+00:00	2020-04-28T08:08:57-07:00	2020-04-28T15:37:16+00:00	2020-05-02T06:59:59+00:00	-4	7fhn714hrtgyvxx@marketplace.amazon.com	joey bryan	+1 314-282-9402 ext. 07222	ABM010	Arabella Farm Direct Fields of The World Bouquet of Fresh Cut Flowers with a Free Glass Vase	1	0	1	Expedited	Goska Bryan	1516 MARIA PL			ROHNERT PARK	CA	94928-8158	US		Happy Mother’s Day! I love you and all you do for me! I couldn’t have asked for a better mother. I hope your day is full of fun, peace, and joy!!!  Love, From Joey, Brie, & Kirbi	false		
114-0241950-2049871	08605676462706	2020-04-28T15:14:26+00:00	2020-04-28T08:14:26-07:00	2020-04-28T15:37:39+00:00	2020-05-02T06:59:59+00:00	-4	09fdmk9dsw9szkx@marketplace.amazon.com	Christina	+1 347-448-3190 ext. 55201	ABB011	Arabella Farm Direct Bouquet of 24 Fresh Cut Hot Pink Roses with a Free Glass Vase	1	0	1	Expedited	Noi Servais	10407 HILLSIDE LN			FREDERICKSBURG	VA	22408-2681	US		Happy Mother’s Day mom!  I really, really like you.  Love you! From a 2 time appreciative daughter. (And you’re favorite)  Christina	false		
114-2333819-9305864	65060227903050	2020-04-28T15:15:22+00:00	2020-04-28T08:15:22-07:00	2020-04-28T15:42:06+00:00	2020-05-02T06:59:59+00:00	-4	1bpl4g280chhz3f@marketplace.amazon.com	JOHN CALTON	+1 347-448-3190 ext. 35484	ABM010	Arabella Farm Direct Fields of The World Bouquet of Fresh Cut Flowers with a Free Glass Vase	1	0	1	Expedited	Mom and Dad	30405 N 43RD ST			CAVE CREEK	AZ	85331-3859	US		Happy mother's day mom! We love and miss you!  -John, Shell, Jenna, & Jonathon From John	false		
111-8635979-6193060	33217838399834	2020-04-28T15:20:27+00:00	2020-04-28T08:20:27-07:00	2020-04-28T15:46:21+00:00	2020-05-02T06:59:59+00:00	-4	b389hknm1nlj2vq@marketplace.amazon.com	Sneha Patel	+1 347-448-3190 ext. 01001	ABR0066	Arabella Farm Direct Bouquet of 12 Fresh Cut White Roses with a Free Glass Vase	1	0	1	Expedited	Abdurahman Abubakar	753 CROSS POINTE RD STE H			GAHANNA	OH	43230-7046	US		Hi Abdul, So so sorry for your loss. Condolences to you and family!  From: M&R Grievances	false		
113-6337938-0942617	00796109757074	2020-04-28T15:45:36+00:00	2020-04-28T08:45:36-07:00	2020-04-28T15:46:39+00:00	2020-05-02T06:59:59+00:00	-4	qk31t5y4sgz8nvc@marketplace.amazon.com	Jennifer Ramkawsky	+1 210-728-4548 ext. 48034	ABR004	Arabella Farm Direct Bouquet of 12 Fresh Cut Yellow Roses with a Free Glass Vase	1	0	1	Expedited	Grace Ramkawsky	27 BITTERN LN			BAYVILLE	NJ	08721-1638	US		Happy Mother's Day!  Sending you lots of love, John, Jen, Joe & Rachel	false		
112-0027677-8325842	26319987966642	2020-04-28T15:30:55+00:00	2020-04-28T08:30:55-07:00	2020-04-28T15:49:51+00:00	2020-05-02T06:59:59+00:00	-4	s73l7288j22t7ql@marketplace.amazon.com	Erline	+1 210-728-4548 ext. 35181	ABR004	Arabella Farm Direct Bouquet of 12 Fresh Cut Yellow Roses with a Free Glass Vase	1	0	1	Expedited	Abir Abyad	3627 MALIBU CIR APT 102			FALLS CHURCH	VA	22041-3627	US		Abir, thank you so much for all you have done for us. We appreciate you a lot and have cherished every semester we have spent together with you. We love and will miss you! We wish you the best through everything.  - Arabic 2020 class	false		
113-0372032-6311437	52059100802506	2020-04-28T15:24:59+00:00	2020-04-28T08:24:59-07:00	2020-04-28T15:50:29+00:00	2020-05-02T06:59:59+00:00	-4	2ft1w5zw7y4m0s9@marketplace.amazon.com	kimberlye swain	+1 314-282-9402 ext. 36164	ABR0033	Arabella Farm Direct Bouquet of 12 Fresh Cut Orange Roses with a Free Glass Vase	1	0	1	Expedited	Grace Dove	2485 ASHVILLE AVE			THE VILLAGES	FL	32162-7003	US		Happy Mother's Day!  We love you, wish we could be there to celebrate with you.  We will be thinking of you, so thankful and blessed that your our Mom.  Love, Jerry and Kim	false		
113-0816875-3539417	40291772483298	2020-04-28T15:27:48+00:00	2020-04-28T08:27:48-07:00	2020-04-28T15:56:41+00:00	2020-05-02T06:59:59+00:00	-4	cbn97wrv42vh0bz@marketplace.amazon.com	Katelyn Shankroff	+1 314-282-9402 ext. 57704	ABM010	Arabella Farm Direct Fields of The World Bouquet of Fresh Cut Flowers with a Free Glass Vase	1	0	1	Expedited	Mark Shankroff	380 GOLF RD			MYERSTOWN	PA	17067-2207	US		Happy Mother's Day! We wish we could be there to celebrate with you. Love you!  xoxo, Katie and Sarah	false		
112-5234109-6109835	52593187937994	2020-04-28T15:29:37+00:00	2020-04-28T08:29:37-07:00	2020-04-28T15:58:33+00:00	2020-05-02T06:59:59+00:00	-4	zndr7qcrm3xryyg@marketplace.amazon.com	Daniel Garver	+1 347-448-3190 ext. 19546	ABM010	Arabella Farm Direct Fields of The World Bouquet of Fresh Cut Flowers with a Free Glass Vase	1	0	1	Expedited	Barbara Garver	485 E CENTRAL ST APT 333			FRANKLIN	MA	02038-1777	US		Happy Mother's Day  Love, Dan	false		
111-5920472-2641839	36703466283978	2020-04-28T15:30:37+00:00	2020-04-28T08:30:37-07:00	2020-04-28T16:00:13+00:00	2020-05-02T06:59:59+00:00	-4	c6b5yp841jjvvkb@marketplace.amazon.com	Brooke Sommers	+1 210-728-4548 ext. 60369	ABR0033	Arabella Farm Direct Bouquet of 12 Fresh Cut Orange Roses with a Free Glass Vase	1	0	1	Expedited	Cori Rosen	6890 E CACTUS WREN RD			PARADISE VALLEY	AZ	85253-4323	US		Happy Mother's Day/Savti's Day! We love you and hope to see you soon! Love, Brooke, Matt, Stone, and Miles	false		
112-6655482-9232215	06337123701570	2020-04-28T15:34:30+00:00	2020-04-28T08:34:30-07:00	2020-04-28T16:01:37+00:00	2020-05-02T06:59:59+00:00	-4	hzrksl0rdqgg81f@marketplace.amazon.com	DeLinda Kreitlein	+1 314-282-9402 ext. 18134	ABM010	Arabella Farm Direct Fields of The World Bouquet of Fresh Cut Flowers with a Free Glass Vase	1	0	1	Standard	Evelyn Hardin	7206 GLEN CROSS			SAN ANTONIO	TX	78239-3715	US			false		
111-8030083-0989857	13755308916234	2020-04-28T15:32:03+00:00	2020-04-28T08:32:03-07:00	2020-04-28T16:01:42+00:00	2020-05-02T06:59:59+00:00	-4	c6b5yp841jjvvkb@marketplace.amazon.com	Brooke Sommers	+1 314-282-9402 ext. 57249	ABR0033	Arabella Farm Direct Bouquet of 12 Fresh Cut Orange Roses with a Free Glass Vase	1	0	1	Expedited	Joan Sommers	1938 LESLIE LN			MERRICK	NY	11566-5210	US		Happy Mother's Day/Gaggie's Day! We love you and hope to see you soon! Love, Brooke, Matt, Stone, and Miles	false		
114-8583045-1786603	58580539212626	2020-04-28T15:41:14+00:00	2020-04-28T08:41:14-07:00	2020-04-28T16:04:13+00:00	2020-05-02T06:59:59+00:00	-4	xpyk4x4j1lrgx4p@marketplace.amazon.com	STEPHEN EDWARD HENDERSON	+1 347-448-3190 ext. 57047	ABSR002	Arabella Farm Direct Bouquet of Fresh Cut Pink Multicolor Spray Roses with a Free Glass Vase	1	0	1	Expedited	Frances Henderson	12256 COUNTRY MANOR LN			CREVE COEUR	MO	63141-6650	US		Mom/Grandma,  Happy Mothers Day !!  Love,    Steve, Danette, Stephanie, Christina, and Chuck	false		
113-0690318-9086628	27475954889994	2020-04-28T15:40:30+00:00	2020-04-28T08:40:30-07:00	2020-04-28T16:09:24+00:00	2020-05-02T06:59:59+00:00	-4	0dv0dgv59x6mjjw@marketplace.amazon.com	Michele Burke	+1 314-282-9402 ext. 18558	ABM010	Arabella Farm Direct Fields of The World Bouquet of Fresh Cut Flowers with a Free Glass Vase	1	0	1	Expedited	Shari Burke	123 JONATHAN HOLMES RD			CREAM RIDGE	NJ	08514-1916	US		Happy birthday to the best mom and grandma around!! We love you!! <3 From Michele, Zach and Norah	false		
112-0096345-9930619	31782503677418	2020-04-28T15:39:48+00:00	2020-04-28T08:39:48-07:00	2020-04-28T16:09:31+00:00	2020-05-02T06:59:59+00:00	-4	yq2093xlc8cppzh@marketplace.amazon.com	Ken Scheuber Jr	+1 314-282-9402 ext. 45927	ABM010	Arabella Farm Direct Fields of The World Bouquet of Fresh Cut Flowers with a Free Glass Vase	1	0	1	Expedited	Melissa Anderson	6531 GATERIDGE DR APT 307			RALEIGH	NC	27613-3229	US		Happy Mother's Day Melissa! Stay awesome. Stay amazing!! Enjoy you day! From Ken	false		
112-2449774-9970663	13443405567858	2020-04-28T15:41:31+00:00	2020-04-28T08:41:31-07:00	2020-04-28T16:11:02+00:00	2020-05-02T06:59:59+00:00	-4	6dpz345117nxyhk@marketplace.amazon.com	mark	+1 347-448-3190 ext. 47969	ABR004	Arabella Farm Direct Bouquet of 12 Fresh Cut Yellow Roses with a Free Glass Vase	1	0	1	Expedited	Karen Simmank	4616 BORAGE DR			AUSTIN	TX	78744-6421	US		Just a little something to brighten your day! Love you Mark, JoJo and Hannah!	false		
114-2726082-5639446	23078964414346	2020-04-28T15:43:16+00:00	2020-04-28T08:43:16-07:00	2020-04-28T16:12:42+00:00	2020-05-02T06:59:59+00:00	-4	ts0zzfntsw4j1yx@marketplace.amazon.com	Lisa	+1 347-448-3190 ext. 79777	ABM010	Arabella Farm Direct Fields of The World Bouquet of Fresh Cut Flowers with a Free Glass Vase	1	0	1	Expedited	Cindy Joyner	158 SFC 543			HETH	AR	72346-9100	US		So sorry for your loss. We love you! From Lisa and Liam	false		
113-0376543-8997011	22371608901562	2020-04-28T15:47:04+00:00	2020-04-28T08:47:04-07:00	2020-04-28T16:15:15+00:00	2020-05-02T06:59:59+00:00	-4	0dv0dgv59x6mjjw@marketplace.amazon.com	Michele Burke	+1 314-282-9402 ext. 07097	ABM010	Arabella Farm Direct Fields of The World Bouquet of Fresh Cut Flowers with a Free Glass Vase	1	0	1	Expedited	Donna Tremaine (aka: Nana)	1510 MULLIS RD			BLYTHEWOOD	SC	29016-8963	US		Happy birthday to the best mom and Nana around!! We love you!! <3 From Zach, Michele, Norah & Ruby	false		
111-3164328-5166629	34931510326506	2020-04-28T15:49:49+00:00	2020-04-28T08:49:49-07:00	2020-04-28T16:20:11+00:00	2020-05-02T06:59:59+00:00	-4	bm9bsm96nmpn935@marketplace.amazon.com	Queen	+1 314-282-9402 ext. 88238	ABM010	Arabella Farm Direct Fields of The World Bouquet of Fresh Cut Flowers with a Free Glass Vase	1	0	1	Expedited	Charlotte Douglas	22 OVERLOOK DR			QUEENSBURY	NY	12804-9781	US			false		
114-0446595-6977834	03207534112890	2020-04-28T15:54:10+00:00	2020-04-28T08:54:10-07:00	2020-04-28T16:23:49+00:00	2020-05-02T06:59:59+00:00	-4	g8fckz5qp08gfn2@marketplace.amazon.com	Tom Quinn	+1 347-448-3190 ext. 28395	ABM010	Arabella Farm Direct Fields of The World Bouquet of Fresh Cut Flowers with a Free Glass Vase	1	0	1	Expedited	Evi Quinn	1682  A -110 Circa Del Lago			Lake San Marcos	Ca	92078	US			false		
111-7969695-7131424	45985454777234	2020-04-28T15:56:08+00:00	2020-04-28T08:56:08-07:00	2020-04-28T16:25:23+00:00	2020-05-02T06:59:59+00:00	-4	c6b5yp841jjvvkb@marketplace.amazon.com	Brooke Sommers	+1 412-532-4665 ext. 29979	ABR0033	Arabella Farm Direct Bouquet of 12 Fresh Cut Orange Roses with a Free Glass Vase	1	0	1	Expedited	Ingrid Cohen	9000 E SAN VICTOR DR			SCOTTSDALE	AZ	85258-5051	US		Happy Mother's Day Ninni! We love you and hope to see you soon! Love, Brooke, Matt, Stone, and Miles	false		
114-4737347-0088263	69862703749506	2020-04-28T15:51:36+00:00	2020-04-28T08:51:36-07:00	2020-04-28T16:30:15+00:00	2020-05-02T06:59:59+00:00	-4	j5blqsl5d04sty4@marketplace.amazon.com	Eddie K Min	+1 347-448-3190 ext. 77517	ABM010	Arabella Farm Direct Fields of The World Bouquet of Fresh Cut Flowers with a Free Glass Vase	1	0	1	Expedited	Eddie K. Min	25219 FOREST ST			CORONA	CA	92883-3079	US			false		
112-3355972-3636261	13331204114922	2020-04-28T16:05:29+00:00	2020-04-28T09:05:29-07:00	2020-04-28T16:34:39+00:00	2020-05-02T06:59:59+00:00	-4	cbqkx6dqlh275l8@marketplace.amazon.com	Alison Carelli	+1 210-728-4548 ext. 17286	ABM010	Arabella Farm Direct Fields of The World Bouquet of Fresh Cut Flowers with a Free Glass Vase	1	0	1	Standard	Peggy Baker	7602 N KICKAPOO AVE			SHAWNEE	OK	74804-9131	US		Hope that you have a WONDERFUL Mother's Day! Love and Miss You!!! Love, Justin, Alison, Austin, & Abbey	false		
111-5600642-8020235	54426460211594	2020-04-28T16:15:47+00:00	2020-04-28T09:15:47-07:00	2020-04-28T16:41:43+00:00	2020-05-02T06:59:59+00:00	-4	c6b5yp841jjvvkb@marketplace.amazon.com	Brooke Sommers	+1 314-282-9402 ext. 54514	ABR0033	Arabella Farm Direct Bouquet of 12 Fresh Cut Orange Roses with a Free Glass Vase	1	0	1	Expedited	Sandy Sommers	C/O LURI 5093 WINDSOR PARKE DR			BOCA RATON	FL	33496-1635	US		Happy Mothers Day/Grandma’s Day! We love you and hope to see you soon! Love, Brooke, Matt, Stone, and Miles	false		
112-3985825-6775460	48897442645402	2020-04-28T16:14:44+00:00	2020-04-28T09:14:44-07:00	2020-04-28T16:44:25+00:00	2020-05-02T06:59:59+00:00	-4	z52pcpgjw008b55@marketplace.amazon.com	Guy Colglazier	+1 210-728-4548 ext. 44104	ABM010	Arabella Farm Direct Fields of The World Bouquet of Fresh Cut Flowers with a Free Glass Vase	1	0	1	Standard	Sara Colglazier	250 MILL ST			PHOENIXVILLE	PA	19460-3423	US		Happy Mothers Day! We love you!! From Allie and Sara &#60;3	false		
112-2962953-5826659	66742773939418	2020-04-28T16:16:31+00:00	2020-04-28T09:16:31-07:00	2020-04-28T16:45:30+00:00	2020-05-02T06:59:59+00:00	-4	40q4kgg3wsrwncr@marketplace.amazon.com	Bryant  McNeill	+1 210-728-4548 ext. 63610	ABM010	Arabella Farm Direct Fields of The World Bouquet of Fresh Cut Flowers with a Free Glass Vase	1	0	1	Standard	Rowan Reynolds	20153 SEDGEMERE RD			MONUMENT	CO	80132-2864	US		Happy Birthday to a beautiful lady and a wonderful friend! I wish I could give you a hug, take you to lunch and get a pedicure with you! You have a beautiful day! Love, Audrey From Audrey  McNeill	false		
113-9708157-0321020	46675513910026	2020-04-28T16:19:02+00:00	2020-04-28T09:19:02-07:00	2020-04-28T16:47:19+00:00	2020-05-02T06:59:59+00:00	-4	fnht1mfntthfgsl@marketplace.amazon.com	Thomas M Scott	+1 314-282-9402 ext. 91590	ABR004	Arabella Farm Direct Bouquet of 12 Fresh Cut Yellow Roses with a Free Glass Vase	1	0	1	Expedited	Ann and Casey Tasber	47689 WOOLCOTT SQ			STERLING	VA	20165-4747	US		Just thought we would say Hello to our favorite people in Virginia! From Pamela and Tom	false		
114-8792121-2142615	69770203186738	2020-04-28T16:19:09+00:00	2020-04-28T09:19:09-07:00	2020-04-28T16:48:09+00:00	2020-05-02T06:59:59+00:00	-4	84rw4ykl73dtd5h@marketplace.amazon.com	Rafael	+1 347-448-3190 ext. 60678	ABM010	Arabella Farm Direct Fields of The World Bouquet of Fresh Cut Flowers with a Free Glass Vase	1	0	1	Expedited	Rafael Silva Cano	2216 SADLERS CREEK LN			FORT WORTH	TX	76108-2087	US		Feliz Aniversario , eres única como esposa madre e hija !  Te amo mucho.   Rafael David	false		
112-3672255-4476248	34629037477826	2020-04-28T16:19:36+00:00	2020-04-28T09:19:36-07:00	2020-04-28T16:50:07+00:00	2020-05-02T06:59:59+00:00	-4	3s9f8tb6b7njq5x@marketplace.amazon.com	Greg LaRose	+1 347-448-3190 ext. 13776	ABR004	Arabella Farm Direct Bouquet of 12 Fresh Cut Yellow Roses with a Free Glass Vase	1	0	1	Expedited	GREG A LAROSE	4729 S FERN CREEK AVE			ORLANDO	FL	32806-7834	US			false		
111-8351967-4977860	15264619752274	2020-04-28T16:24:00+00:00	2020-04-28T09:24:00-07:00	2020-04-28T16:53:46+00:00	2020-05-02T06:59:59+00:00	-4	0bwm01t8fw8w21p@marketplace.amazon.com	Mathew Viator	+1 210-728-4548 ext. 16967	ABM010	Arabella Farm Direct Fields of The World Bouquet of Fresh Cut Flowers with a Free Glass Vase	1	0	1	Expedited	Connie Smith	1240 BENNETT JONES RD			EDDYVILLE	KY	42038-8119	US		Happy early Mother's Day! Love you!! From Amanda & Koda	false		
114-6904970-9089824	03228657797354	2020-04-28T16:33:19+00:00	2020-04-28T09:33:19-07:00	2020-04-28T17:02:24+00:00	2020-05-02T06:59:59+00:00	-4	3w8dtdmbb8pvfn3@marketplace.amazon.com	Sara Hashem Liles	+1 347-448-3190 ext. 73137	ABM010	Arabella Farm Direct Fields of The World Bouquet of Fresh Cut Flowers with a Free Glass Vase	1	0	1	Expedited	Mary Ann Liles	16107 EPPES RD			DEWITT	VA	23840-3031	US			false		
114-8136317-1624201	54222706235586	2020-04-28T16:34:16+00:00	2020-04-28T09:34:16-07:00	2020-04-28T17:03:11+00:00	2020-05-02T06:59:59+00:00	-4	qz8v8pr0d82mn5j@marketplace.amazon.com	Dave White	+1 210-728-4548 ext. 30775	ABM010	Arabella Farm Direct Fields of The World Bouquet of Fresh Cut Flowers with a Free Glass Vase	1	0	1	Expedited	Dave white	17323 Heather Lane			Clinton township	Michigan	48038	US		Happy Mother’s Day we miss you Love Dave, Marcia, Meredith and Cameron From Dave White	false		
112-2495370-9181831	55495125537626	2020-04-28T16:34:44+00:00	2020-04-28T09:34:44-07:00	2020-04-28T17:03:44+00:00	2020-05-02T06:59:59+00:00	-4	c5wpwz7mmv8fhwx@marketplace.amazon.com	lynda allera	+1 314-282-9402 ext. 82639	ABM010	Arabella Farm Direct Fields of The World Bouquet of Fresh Cut Flowers with a Free Glass Vase	1	0	1	Expedited	Wilda Webster	7910 FRANKFORD RD # 1117			DALLAS	TX	75252-6865	US		Happy Mother's Day!  I love you!  Lynda	false		
113-6451263-1393864	61186556919906	2020-04-28T16:36:35+00:00	2020-04-28T09:36:35-07:00	2020-04-28T17:06:24+00:00	2020-05-02T06:59:59+00:00	-4	mm0kfm1wshzlmpd@marketplace.amazon.com	Irma	+1 347-448-3190 ext. 48515	ABM010	Arabella Farm Direct Fields of The World Bouquet of Fresh Cut Flowers with a Free Glass Vase	1	0	1	Expedited	Monica Herdez	7644 S 27TH AVE			LAVEEN	AZ	85339-1836	US			false		
113-5305698-6165807	64628294864978	2020-04-28T16:37:14+00:00	2020-04-28T09:37:14-07:00	2020-04-28T17:07:42+00:00	2020-05-02T06:59:59+00:00	-4	w6q7q4zc0bzxydt@marketplace.amazon.com	gayla arendt	+1 412-532-4665 ext. 59345	ABR013	Arabella Farm Direct Bouquet of 18 Fresh Cut Yellow Roses with a Free Glass Vase	1	0	1	Expedited	Gayla Arendt	2107 WHIRLWIND ST			BRYANT	AR	72022-6620	US			false		
113-8383397-7004263	44936384344866	2020-04-28T16:39:34+00:00	2020-04-28T09:39:34-07:00	2020-04-28T17:08:34+00:00	2020-05-02T06:59:59+00:00	-4	mm0kfm1wshzlmpd@marketplace.amazon.com	Irma	+1 347-448-3190 ext. 21749	ABM010	Arabella Farm Direct Fields of The World Bouquet of Fresh Cut Flowers with a Free Glass Vase	1	0	1	Expedited	Monica Urista	8847 S 4TH ST			PHOENIX	AZ	85042-7650	US			false		
112-7354828-1182626	53542691750490	2020-04-28T16:57:33+00:00	2020-04-28T09:57:33-07:00	2020-04-28T17:17:57+00:00	2020-05-02T06:59:59+00:00	-4	0vmyy84vjvjmvq2@marketplace.amazon.com	patrick chang	+1 347-448-3190 ext. 09522	ABM010	Arabella Farm Direct Fields of The World Bouquet of Fresh Cut Flowers with a Free Glass Vase	1	0	1	Expedited	May Wong	1956 KIRBY RD			MCLEAN	VA	22101-5508	US		Happy Mother's Day! Thank you for everything you do! We love you! -Carmen and Pat	false		
111-1958985-2957804	19721224702978	2020-04-28T16:55:14+00:00	2020-04-28T09:55:14-07:00	2020-04-28T17:23:17+00:00	2020-05-02T06:59:59+00:00	-4	4gwzmgmlt3c0mxq@marketplace.amazon.com	Pam Holt	+1 347-448-3190 ext. 30335	ABR004	Arabella Farm Direct Bouquet of 12 Fresh Cut Yellow Roses with a Free Glass Vase	1	0	1	Expedited	Carolyn Pierson	4931 W PONKAN RD			APOPKA	FL	32712-5473	US		Dear Mom- Hope the flowers brighten your day. Happy Mothers Day Love you Pam & Michael	false		
114-1214788-0452200	15269144388466	2020-04-28T16:55:47+00:00	2020-04-28T09:55:47-07:00	2020-04-28T17:25:32+00:00	2020-05-02T06:59:59+00:00	-4	bm0kv9khsl9z9hf@marketplace.amazon.com	Edward Trayers	+1 210-728-4548 ext. 06560	ABM010	Arabella Farm Direct Fields of The World Bouquet of Fresh Cut Flowers with a Free Glass Vase	1	0	1	Expedited	Rose Trayers	2193 MICKANIN RD			NORTH HUNTINGDON	PA	15642-8711	US			false		
114-4390066-6802651	04180297943506	2020-04-28T16:55:47+00:00	2020-04-28T09:55:47-07:00	2020-04-28T17:25:41+00:00	2020-05-02T06:59:59+00:00	-4	bm0kv9khsl9z9hf@marketplace.amazon.com	Edward Trayers	+1 347-448-3190 ext. 83387	ABM010	Arabella Farm Direct Fields of The World Bouquet of Fresh Cut Flowers with a Free Glass Vase	1	0	1	Expedited	Linda Branthoover	518 SCIANDRO DR			GREENSBURG	PA	15601-4559	US			false		
111-5876169-9779439	50437470683082	2020-04-28T17:04:32+00:00	2020-04-28T10:04:32-07:00	2020-04-28T17:26:23+00:00	2020-05-02T06:59:59+00:00	-4	lx4tgj72yhzwv8s@marketplace.amazon.com	Alison Arbacheski	+1 210-728-4548 ext. 84446	ABM010	Arabella Farm Direct Fields of The World Bouquet of Fresh Cut Flowers with a Free Glass Vase	1	0	1	Standard	Gail Devers	312 PHILADELPHIA AVE			WEST PITTSTON	PA	18643-2147	US		Happy Mother’s Day, Mom/Nanny!!! Wish we could celebrate with you in person. Hope you have a nice day. Thanks for all you do! Love, Ali, Jason, Rynne, and Cami From Ali, Jason, Rynne, and Cami	false		
111-6623385-3214610	44409575158546	2020-04-28T17:03:37+00:00	2020-04-28T10:03:37-07:00	2020-04-28T17:29:43+00:00	2020-05-02T06:59:59+00:00	-4	0pjb0l6hkr6yfxz@marketplace.amazon.com	gloria Pollock	+1 314-282-9402 ext. 46800	ABR0033	Arabella Farm Direct Bouquet of 12 Fresh Cut Orange Roses with a Free Glass Vase	1	0	1	Expedited	Christina Pollock	307 PEEBLES ST			SEWICKLEY	PA	15143-1823	US		Hi Christina, Happy Mother's Day with our love, Always, Mimi and Poppi	false		
114-6556665-1227400	19673777589178	2020-04-28T17:10:58+00:00	2020-04-28T10:10:58-07:00	2020-04-28T17:39:43+00:00	2020-05-02T06:59:59+00:00	-4	2gjncykfs8mgk3f@marketplace.amazon.com	alison a miller	+1 314-282-9402 ext. 90946	ABM002	Arabella Farm Direct Bouquet of Fresh Cut White Calla Lilies with a Free Glass Vase	1	0	1	Expedited	Abba Gardner	6426 DORINDA WAY			CARMICHAEL	CA	95608-1110	US		Happy Mother’s Day! Love, Brian,Alison,Drew and Adam From alison a miller	false		
112-3215513-6581049	27428517105082	2020-04-28T17:11:06+00:00	2020-04-28T10:11:06-07:00	2020-04-28T17:41:35+00:00	2020-05-02T06:59:59+00:00	-4	w6729mm8f4nws2s@marketplace.amazon.com	Sky	+1 314-282-9402 ext. 69662	ABM0033	Arabella Farm Direct Bouquet of Fresh Cut White Hydrangea with a Free Glass Vase	1	0	1	Expedited	Sky Moore	254 GRAYS LN			ELIZABETHTOWN	NC	28337-6322	US			false		
113-4880917-7443457	57341474412338	2020-04-28T17:17:51+00:00	2020-04-28T10:17:51-07:00	2020-04-28T17:45:11+00:00	2020-05-02T06:59:59+00:00	-4	xd3f8kr61mv5tst@marketplace.amazon.com	romona robinson	+1 314-282-9402 ext. 13804	ABM010	Arabella Farm Direct Fields of The World Bouquet of Fresh Cut Flowers with a Free Glass Vase	1	0	1	Expedited	Charlie M. Robinson	3212 BRUNER AVE FL 1ST			BRONX	NY	10469-3125	US		Mom, Wishing you a blessed and happy day (under the circumstances). Big hugs and kisses from afar.  Love u much. From romona	false		
111-1866624-6664254	37116124712546	2020-04-28T17:18:31+00:00	2020-04-28T10:18:31-07:00	2020-04-28T17:45:25+00:00	2020-05-02T06:59:59+00:00	-4	wldrtgyvbb36sj8@marketplace.amazon.com	Paulette Moylan	+1 314-282-9402 ext. 07419	ABR015	Arabella Farm Direct Bouquet of 18 Fresh Cut Orange Roses with a Free Glass Vase	1	0	1	Expedited	Joan Polich	1090 WEXFORD LEAS BLVD			PALM HARBOR	FL	34683-5942	US		Happy Mother's Day! Enjoy your gift! Love, Pol & Brad	false		
113-3301373-3958623	43216273386962	2020-04-28T17:34:16+00:00	2020-04-28T10:34:16-07:00	2020-04-28T17:57:20+00:00	2020-05-02T06:59:59+00:00	-4	gbph8vzxxw63bcg@marketplace.amazon.com	Rob Westergaard	+1 314-282-9402 ext. 33055	ABR014	Arabella Farm Direct Bouquet of 18 Fresh Cut White Roses with a Free Glass Vase	1	0	1	Standard	Carol Dickinson	26168 Wimple Shores Drive	West		Salvo	NC	27972	US		Happy, happy Mother's Day, Mom! I hope you have a day as beautiful as these flowers. Much love, Deb (your most favorite daughter)	false		
111-3870896-7348223	30090472218274	2020-04-28T17:28:42+00:00	2020-04-28T10:28:42-07:00	2020-04-28T17:57:59+00:00	2020-05-02T06:59:59+00:00	-4	vd6ngm91nshr957@marketplace.amazon.com	Gladys Vasquez	+1 314-282-9402 ext. 72106	ABM010	Arabella Farm Direct Fields of The World Bouquet of Fresh Cut Flowers with a Free Glass Vase	1	0	1	Expedited	Elena Vasquez	40 Pine St			Pawtucket	RI	02860	US		FELIZ DIA DE LA MADRE!!! From China	false		
113-5530225-5353825	50869162605930	2020-04-28T17:27:59+00:00	2020-04-28T10:27:59-07:00	2020-04-28T17:57:59+00:00	2020-05-02T06:59:59+00:00	-4	pgw8vc3vn5r8w1h@marketplace.amazon.com	Kristin Garst	+1 210-728-4548 ext. 35010	ABM017	Prosperous Day a Farm Direct Bouquet with a Free Glass Vase	1	0	1	Expedited	Judy Brattlie	91 WILDWIND DR			CHAPEL HILL	NC	27516-4131	US		Happy Mother's Day!  Love,  Kristin, Mike, Riley, Nathan, and Tyler	false		
112-1783888-1224202	60813306339602	2020-04-28T17:25:42+00:00	2020-04-28T10:25:42-07:00	2020-04-28T18:00:57+00:00	2020-05-02T06:59:59+00:00	-4	hvf8rq4bvhx00nf@marketplace.amazon.com	Jenna Obsniuk	+1 347-448-3190 ext. 59203	ABR0033	Arabella Farm Direct Bouquet of 12 Fresh Cut Orange Roses with a Free Glass Vase	1	0	1	Standard	Jenna Lemke	PO BOX 222	240 ROBINSON ST		LYONS	MI	48851-0222	US			false		
113-0261912-1327417	62248939718490	2020-04-28T17:39:19+00:00	2020-04-28T10:39:19-07:00	2020-04-28T18:07:00+00:00	2020-05-02T06:59:59+00:00	-4	svdw1gnxrgyzks9@marketplace.amazon.com	Beth E. Todd	+1 347-448-3190 ext. 07726	ABM010	Arabella Farm Direct Fields of The World Bouquet of Fresh Cut Flowers with a Free Glass Vase	1	0	1	Expedited	Tiffany Hansen	6626 CRESTMOOR LN			SACHSE	TX	75048-5538	US		Hi Tiffany, We were so sorry to hear about the loss of your mother.  You are in our prayers.  Your Friends - Crisha, Matt, Shawn, David and Bethie	false		
112-4687941-8180245	01227259527058	2020-04-28T17:39:49+00:00	2020-04-28T10:39:49-07:00	2020-04-28T18:09:51+00:00	2020-05-02T06:59:59+00:00	-4	d7yrp1bwjjr7b0v@marketplace.amazon.com	Angela Mascall	+1 210-728-4548 ext. 52832	ABM010	Arabella Farm Direct Fields of The World Bouquet of Fresh Cut Flowers with a Free Glass Vase	1	0	1	Expedited	Tatiana Orosco and Family	821 E GEORGIA AVE			NAMPA	ID	83686-7419	US			false		
111-6472511-1227433	39339633988426	2020-04-28T17:42:33+00:00	2020-04-28T10:42:33-07:00	2020-04-28T18:12:05+00:00	2020-05-02T06:59:59+00:00	-4	bm9bsm96nmpn935@marketplace.amazon.com	Queen	+1 210-728-4548 ext. 92937	ABR0033	Arabella Farm Direct Bouquet of 12 Fresh Cut Orange Roses with a Free Glass Vase	1	0	1	Expedited	Tracey Douglas	1168 MUIRWOOD LN			BATAVIA	OH	45103-1070	US		Happy Mother's Day J and Crew	false		
114-5023629-2602652	49074431749258	2020-04-28T17:54:36+00:00	2020-04-28T10:54:36-07:00	2020-04-28T18:13:14+00:00	2020-05-02T06:59:59+00:00	-4	jkd1p9xb5pszfdr@marketplace.amazon.com	Laura Gonzalez	+1 347-448-3190 ext. 67074	ABM010	Arabella Farm Direct Fields of The World Bouquet of Fresh Cut Flowers with a Free Glass Vase	1	0	1	Expedited	Peg Holzbach	5063 SHIELDS RD			CANFIELD	OH	44406-9521	US		Have a wonderful mother's day!!! you deserve it. The angels provided me with the best Mom anyone could ever ask for!!!  I love you Mom From Your Daughter Laura	false		
111-1597753-0325868	54648646637778	2020-04-28T17:44:51+00:00	2020-04-28T10:44:51-07:00	2020-04-28T18:13:43+00:00	2020-05-02T06:59:59+00:00	-4	rhm3ls441bm7wdc@marketplace.amazon.com	Lauren Shack	+1 412-532-4665 ext. 96126	ABR004	Arabella Farm Direct Bouquet of 12 Fresh Cut Yellow Roses with a Free Glass Vase	1	0	1	Standard	Mrs Barbara Frankel	3740 S OCEAN BLVD APT 904			HIGHLAND BEACH	FL	33487-3403	US		Happy Mother’s Day! We love you From Lauren Adam Ryan Parker&Skylar	false		
113-2257545-9227433	15913812879058	2020-04-28T17:46:14+00:00	2020-04-28T10:46:14-07:00	2020-04-28T18:15:14+00:00	2020-05-02T06:59:59+00:00	-4	0dmxblgkqjqy7g0@marketplace.amazon.com	Anthony N Musi	+1 210-728-4548 ext. 07233	ABM010	Arabella Farm Direct Fields of The World Bouquet of Fresh Cut Flowers with a Free Glass Vase	1	0	1	Expedited	Patricia Musi	34 VINCENT RD			HICKSVILLE	NY	11801-1908	US		Dearest Grandma,  Happy Mother's Day. We love you endlessly. From Austin, Leo, Loni, and Anthony	false		
113-7685992-9964210	34137424481530	2020-04-28T17:56:43+00:00	2020-04-28T10:56:43-07:00	2020-04-28T18:20:15+00:00	2020-05-02T06:59:59+00:00	-4	1wyrcj4tndg89ps@marketplace.amazon.com	Elizabeth Hollingworth	+1 210-728-4548 ext. 30395	ABM010	Arabella Farm Direct Fields of The World Bouquet of Fresh Cut Flowers with a Free Glass Vase	1	0	1	Expedited	Tenured Professor Leslie Ann Locke	506 S 7TH AVE			IOWA CITY	IA	52245-4538	US		Congratulations on getting TENURE! From your Ed Leadership Colleagues: Liz, Ain, & Trip	false		
113-7871425-5733023	36655540606914	2020-04-28T17:53:11+00:00	2020-04-28T10:53:11-07:00	2020-04-28T18:22:16+00:00	2020-05-02T06:59:59+00:00	-4	0dmxblgkqjqy7g0@marketplace.amazon.com	Anthony N Musi	+1 210-728-4548 ext. 09666	ABM010	Arabella Farm Direct Fields of The World Bouquet of Fresh Cut Flowers with a Free Glass Vase	1	0	1	Expedited	Loni Musi	21 NORTHGATE			GOSHEN	NY	10924-5715	US		Happy Mother's Day. Thank you for being the best mother and wife in the world. Keep being you. We love you! From Austin, Leo and Anthony	false		
112-5580063-1669038	26736715079746	2020-04-28T17:58:36+00:00	2020-04-28T10:58:36-07:00	2020-04-28T18:25:19+00:00	2020-05-02T06:59:59+00:00	-4	t2g9fh4nmgtpbx5@marketplace.amazon.com	Obadele Brown	+1 347-448-3190 ext. 30329	ABR004	Arabella Farm Direct Bouquet of 12 Fresh Cut Yellow Roses with a Free Glass Vase	1	0	1	Expedited	Obadele Brown	2409 GREEN VALLEY DR			SUITLAND	MD	20746-2308	US			false		
114-2844068-4828269	61070023010354	2020-04-28T17:57:08+00:00	2020-04-28T10:57:08-07:00	2020-04-28T18:26:03+00:00	2020-05-02T06:59:59+00:00	-4	sm6msz2fl8b7bjb@marketplace.amazon.com	Julie Lefebvre	+1 347-448-3190 ext. 47302	ABM010	Arabella Farm Direct Fields of The World Bouquet of Fresh Cut Flowers with a Free Glass Vase	1	0	1	Expedited	Virginia Smith	5214 SW 92ND CT			GAINESVILLE	FL	32608-4128	US		Happy Mother’s Day Mom!! We love and miss you guys!! Love, Juls, Steven and broc From Julie Lefebvre	false		
111-9916352-3485840	40429222660426	2020-04-28T17:55:49+00:00	2020-04-28T10:55:49-07:00	2020-04-28T18:30:15+00:00	2020-05-02T06:59:59+00:00	-4	tk01754l2vdlv3b@marketplace.amazon.com	Guilherme de Sousa Gonçalves Augusto	+1 314-282-9402 ext. 06871	ABM010	Arabella Farm Direct Fields of The World Bouquet of Fresh Cut Flowers with a Free Glass Vase	1	0	1	Expedited	Alexandra Palmer	1956 E FOREST CREEK LN			SALT LAKE CITY	UT	84121-5049	US		Hi, Alex You know I'm not good writing poetry or music,but I still  want to tell you that you're very special to me.I hope you'll enjoy this little gift. Happy Birthday!  Amon Peres	false		
111-5786149-8971461	55668839130226	2020-04-28T18:04:56+00:00	2020-04-28T11:04:56-07:00	2020-04-28T18:30:20+00:00	2020-05-02T06:59:59+00:00	-4	58d612q5qxr1blf@marketplace.amazon.com	frank	+1 210-728-4548 ext. 96417	ABR004	Arabella Farm Direct Bouquet of 12 Fresh Cut Yellow Roses with a Free Glass Vase	1	0	1	Expedited	Mary Owens	16216 ASH CIR			OVERLAND PARK	KS	66085-7816	US		Enjoy your gift! Thanks for all you do for me and my family. Love you From frank	false		
113-7970043-0071435	33694650524802	2020-04-28T18:07:03+00:00	2020-04-28T11:07:03-07:00	2020-04-28T18:35:35+00:00	2020-04-30T06:59:59+00:00	-2	xq7zyhz2b31f4h4@marketplace.amazon.com	jack sanford	+1 210-728-4548 ext. 64031	ABR001	Arabella Farm Direct Bouquet of 12 Fresh Cut Red Roses with a Free Glass Vase	1	0	1	SecondDay	Valerie Sanford	1687 BEARDEN DR			LOS GATOS	CA	95032-1002	US			false		
113-7402999-4924255	15919122329074	2020-04-28T18:16:15+00:00	2020-04-28T11:16:15-07:00	2020-04-28T18:38:51+00:00	2020-05-02T06:59:59+00:00	-4	bg4h2yrqp588wks@marketplace.amazon.com	Brenda Hendricks	+1 314-282-9402 ext. 26642	ABM010	Arabella Farm Direct Fields of The World Bouquet of Fresh Cut Flowers with a Free Glass Vase	1	0	1	Expedited	Ruth Anderson	643 N CHAPMAN ST			WEST COVINA	CA	91790-1726	US			false		
111-1089891-8341010	61852090408562	2020-04-28T18:10:48+00:00	2020-04-28T11:10:48-07:00	2020-04-28T18:39:42+00:00	2020-05-02T06:59:59+00:00	-4	5sbtq3x1pvx1rz2@marketplace.amazon.com	justin gardner	+1 314-282-9402 ext. 44864	ABM010	Arabella Farm Direct Fields of The World Bouquet of Fresh Cut Flowers with a Free Glass Vase	1	0	1	Expedited	Patti Gardner	503 FOUR SEASONS BLVD			SUMMERVILLE	SC	29486-2430	US		Happy Mother’s Day <3 From justin	false		
113-7848814-6866606	27576377554890	2020-04-28T18:09:41+00:00	2020-04-28T11:09:41-07:00	2020-04-28T18:39:58+00:00	2020-05-02T06:59:59+00:00	-4	y9ck3xcqpq81w7m@marketplace.amazon.com	mark ferguson	+1 210-728-4548 ext. 67505	ABM010	Arabella Farm Direct Fields of The World Bouquet of Fresh Cut Flowers with a Free Glass Vase	1	0	1	Expedited	mark e. ferguson	40 KINGSLEY WAY			GLEN CARBON	IL	62034-1546	US			false		
112-0725836-5376240	30424489925250	2020-04-28T18:14:57+00:00	2020-04-28T11:14:57-07:00	2020-04-28T18:42:36+00:00	2020-05-02T06:59:59+00:00	-4	cq47w6fmpjzrtyd@marketplace.amazon.com	Kathy	+1 347-448-3190 ext. 34690	ABR004	Arabella Farm Direct Bouquet of 12 Fresh Cut Yellow Roses with a Free Glass Vase	1	0	1	Expedited	Jenny Wade	5200 FM 715			MIDLAND	TX	79706-6540	US		Happy Mother’s Day! I love you so very much! Thank you for being my Mother! From Kathy	false		
113-8018329-8935449	17641234156714	2020-04-28T18:15:38+00:00	2020-04-28T11:15:38-07:00	2020-04-28T18:42:51+00:00	2020-05-02T06:59:59+00:00	-4	nn4541fzxtvsbsp@marketplace.amazon.com	Sean Coyle	+1 347-448-3190 ext. 62057	ABM010	Arabella Farm Direct Fields of The World Bouquet of Fresh Cut Flowers with a Free Glass Vase	1	0	1	Expedited	Marilyn Hyland	332 W UNION ST			BURLINGTON	NJ	08016-1334	US		Happy Mother’s Day Mama!! Thank you for being you and molding me to be the man I am today, I love you! From Boogie	false		
111-7319364-8628225	08639893671354	2020-04-28T18:14:22+00:00	2020-04-28T11:14:22-07:00	2020-04-28T18:50:24+00:00	2020-05-02T06:59:59+00:00	-4	z4gxyz7sd9tl0hb@marketplace.amazon.com	Bernadette Mayer	+1 347-448-3190 ext. 02596	ABR004	Arabella Farm Direct Bouquet of 12 Fresh Cut Yellow Roses with a Free Glass Vase	1	0	1	Expedited	Bernadette Mayer	1415 N DEE RD			PARK RIDGE	ILLINOIS	60068-1511	US			false		
112-4024430-0662618	07617780458362	2020-04-28T18:24:56+00:00	2020-04-28T11:24:56-07:00	2020-04-28T18:52:56+00:00	2020-05-02T06:59:59+00:00	-4	vs2xbwgnb1jrt73@marketplace.amazon.com	kentha wallace	+1 347-448-3190 ext. 61429	ABR015	Arabella Farm Direct Bouquet of 18 Fresh Cut Orange Roses with a Free Glass Vase	1	0	1	Expedited	Sydney Herzberg	13663 183RD AVE SE			RENTON	WA	98059-7658	US		Happy Mother’s Day Sydney  from kentha	false		
112-1448788-7544229	49709613951650	2020-04-28T18:30:04+00:00	2020-04-28T11:30:04-07:00	2020-04-28T18:54:48+00:00	2020-05-02T06:59:59+00:00	-4	mp538s79v9ght0p@marketplace.amazon.com	Janet Schaefer	+1 314-282-9402 ext. 83271	ABM010	Arabella Farm Direct Fields of The World Bouquet of Fresh Cut Flowers with a Free Glass Vase	1	0	1	Standard	Debbie Dubey	2003 CLIFF ALEX CT S UNIT C			WAUKESHA	WI	53189-2105	US		Happy Mothers Day! Mothers and Daughters  Are never apart Maybe in distance Never in heart! From Nicole, Chad, Chase, and Lacy	false		
111-7080621-0725849	48094545231938	2020-04-28T18:39:02+00:00	2020-04-28T11:39:02-07:00	2020-04-28T19:06:46+00:00	2020-05-02T06:59:59+00:00	-4	k4nlmfdwbstd5tk@marketplace.amazon.com	Stacey Carroll	+1 314-282-9402 ext. 98779	ABM010	Arabella Farm Direct Fields of The World Bouquet of Fresh Cut Flowers with a Free Glass Vase	1	0	1	Expedited	Glenda Wyatt	205 WOLFE BLVD			ERIN	TN	37061-5120	US			false		
111-5114671-1691422	44012848952938	2020-04-28T18:44:44+00:00	2020-04-28T11:44:44-07:00	2020-04-28T19:13:17+00:00	2020-05-02T06:59:59+00:00	-4	lqjdxr1d03snptc@marketplace.amazon.com	JoBeth Hill	+1 347-448-3190 ext. 22854	ABR013	Arabella Farm Direct Bouquet of 18 Fresh Cut Yellow Roses with a Free Glass Vase	1	0	1	Expedited	Toni Bailey	4258 MORNING GLORY RD			FORT COLLINS	CO	80526-5295	US		Happiest birthday to such a wonderful friend! Love, Joanie	false		
114-7046347-3013045	07519095980250	2020-04-28T18:51:23+00:00	2020-04-28T11:51:23-07:00	2020-04-28T19:18:23+00:00	2020-05-02T06:59:59+00:00	-4	zwvb9hcyvn3kw7b@marketplace.amazon.com	Andrea Schwinghammer	+1 314-282-9402 ext. 19925	ABB007	Arabella Farm Direct Bouquet of 24 Fresh Cut Pink Roses with a Free Glass Vase	1	0	1	Expedited	Andrea Peters	2555 78TH ST E			INVER GROVE HEIGHTS	MN	55076-2946	US		Happy Mothers Day to the woman who has taught me the most important life lessons. Thank you for mothering generations of children and I am honored to share your name. I love you, Grandma From Andrea Schwinghammer	false		
111-0294889-4186642	21626055219794	2020-04-28T19:01:01+00:00	2020-04-28T12:01:01-07:00	2020-04-28T19:28:09+00:00	2020-05-02T06:59:59+00:00	-4	n47bdvc5fhscf5m@marketplace.amazon.com	Ali Midon	+1 347-448-3190 ext. 40378	ABR0022	Arabella Farm Direct Bouquet of 12 Fresh Cut Pink Roses with a Free Glass Vase	1	0	1	Standard	Christine Trznadel	29 RAMGREN RD			LUNENBURG	MA	01462-2326	US		Happy Mother's Day!!!  We love you!  Love, Ali & Nate	false		
113-0900703-3748256	18670287750370	2020-04-28T19:05:25+00:00	2020-04-28T12:05:25-07:00	2020-04-28T19:29:53+00:00	2020-05-02T06:59:59+00:00	-4	nbqtdfy3fbxpcyf@marketplace.amazon.com	ALEXIS ARTEL	+1 314-282-9402 ext. 34976	ABR0022	Arabella Farm Direct Bouquet of 12 Fresh Cut Pink Roses with a Free Glass Vase	1	0	1	Expedited	Ms. Lynn Zaber	468 ECKARD AVE			AKRON	OH	44314-3548	US		Dear Lynn and Cheryl, I'm so sad and whish it were safer to travel. Although not blood relatives, your Mom/Grandma always trated me as though we were. A fondest memory is of her teaching me to tie my shoes.  Love, Lex	false		
111-1606058-6519443	33891565277066	2020-04-28T19:04:40+00:00	2020-04-28T12:04:40-07:00	2020-04-28T19:31:07+00:00	2020-05-02T06:59:59+00:00	-4	3dxdrvk00vrc7cx@marketplace.amazon.com	Elaine Froeschl	941-402-1236 Nurses	ABM010	Arabella Farm Direct Fields of The World Bouquet of Fresh Cut Flowers with a Free Glass Vase	1	0	1	Standard	Norma Froeschl	910 TAMIAMI TRL S LUKE APT 319			VENICE	FL	34285-3629	US		Happy Mother's Day!  Wish we could be with you. Love, Bruce and Elaine	false		
111-5169159-1348207	64683372870858	2020-04-28T19:08:03+00:00	2020-04-28T12:08:03-07:00	2020-04-28T19:33:26+00:00	2020-05-02T06:59:59+00:00	-4	pkp1p9csnshb73s@marketplace.amazon.com	Brian Applewhite	+1 347-448-3190 ext. 60776	ABR0022	Arabella Farm Direct Bouquet of 12 Fresh Cut Pink Roses with a Free Glass Vase	1	0	1	Expedited	Tenice Johnson	10135 MARION AVE			MONTCLAIR	CA	91763-3827	US		Auntie, You’re truly a blessing to everyone that you come in contact with. You’re  the blueprint in which every mother should strive to be like. I love you and hope you enjoy Mother’s Day  Your No-Knee’s Nephew	false		
114-0736414-5101837	54193988358690	2020-04-28T19:08:51+00:00	2020-04-28T12:08:51-07:00	2020-04-28T19:36:33+00:00	2020-05-02T06:59:59+00:00	-4	sg4qsrx0b2z0zwz@marketplace.amazon.com	Jennifer	+1 210-728-4548 ext. 93147	ABR0022	Arabella Farm Direct Bouquet of 12 Fresh Cut Pink Roses with a Free Glass Vase	1	0	1	Expedited	Connie Hoffman	1050 STARKEY RD UNIT 2103			LARGO	FL	33771-5476	US		Thank you for always taking care of me. I love both. Also, happy early mother’s day. XO From Jennifer Lynn	false		
113-6645163-7471429	54207784070810	2020-04-28T19:08:11+00:00	2020-04-28T12:08:11-07:00	2020-04-28T19:36:46+00:00	2020-05-02T06:59:59+00:00	-4	m3ktbbfkd1z661q@marketplace.amazon.com	Susan graham	+1 210-728-4548 ext. 81901	ABM010	Arabella Farm Direct Fields of The World Bouquet of Fresh Cut Flowers with a Free Glass Vase	1	0	1	Expedited	Elizabeth Johnson	664 E RIVERCHASE WAY			EAGLE	ID	83616-6340	US		Happy Mother’s Day I love you so so much 😘😘🤗🤗🙏 From Mom	false		
113-4394815-7608241	14326806530978	2020-04-28T19:15:35+00:00	2020-04-28T12:15:35-07:00	2020-04-28T19:39:42+00:00	2020-05-02T06:59:59+00:00	-4	f3z8n8jzh0wkyl1@marketplace.amazon.com	Michelle Wentworth	+1 210-728-4548 ext. 66431	ABM010	Arabella Farm Direct Fields of The World Bouquet of Fresh Cut Flowers with a Free Glass Vase	1	0	1	Expedited	Alton Mann	1410 MIRAMAR DR			FULLERTON	CA	92831-2042	US		Happy Birthday and Mother's Day Grandmother!!!  We love you! Jason, Michelle, Kara and Chloe	false		
114-8919390-6144233	14461273989234	2020-04-28T19:19:10+00:00	2020-04-28T12:19:10-07:00	2020-04-28T19:41:04+00:00	2020-04-30T06:59:59+00:00	-2	07jh906c4qrb5vn@marketplace.amazon.com	Dennis H. Snipe, Jr.	+1 347-448-3190 ext. 36699	ABR001	Arabella Farm Direct Bouquet of 12 Fresh Cut Red Roses with a Free Glass Vase	1	0	1	SecondDay	Jacques Whatley	10850 S EMERALD AVE			CHICAGO	IL	60628-3122	US			false		
111-6560211-3750615	04473049293842	2020-04-28T19:17:44+00:00	2020-04-28T12:17:44-07:00	2020-04-28T19:41:33+00:00	2020-05-02T06:59:59+00:00	-4	7l6mw9mm6s87kzw@marketplace.amazon.com	Sarah L. Friedman	+1 347-448-3190 ext. 23616	ABR0022	Arabella Farm Direct Bouquet of 12 Fresh Cut Pink Roses with a Free Glass Vase	1	0	1	Expedited	Dr. Suzanne Le Menestrel	1641 WRIGHTSON DR			MCLEAN	VA	22101-5146	US		Dear Suzanne,  Thank you for your very interesting online presentation to GWU students.  Warmly, Sarah	false		
113-3806953-6592245	42321905284906	2020-04-28T19:11:49+00:00	2020-04-28T12:11:49-07:00	2020-04-28T19:41:47+00:00	2020-05-02T06:59:59+00:00	-4	vjrd54m05hgtpgy@marketplace.amazon.com	Sarah Bartlett	+1 347-448-3190 ext. 30954	ABM010	Arabella Farm Direct Fields of The World Bouquet of Fresh Cut Flowers with a Free Glass Vase	1	0	1	Expedited	Linda McLagan	7384 BEAL ST			SAN DIEGO	CA	92111-4216	US		Happy Mother’s Day! XOXO From Kristina & Randy	false		
113-5705783-1079442	34842123641226	2020-04-28T19:13:47+00:00	2020-04-28T12:13:47-07:00	2020-04-28T19:42:25+00:00	2020-05-02T06:59:59+00:00	-4	m3ktbbfkd1z661q@marketplace.amazon.com	Susan graham	+1 314-282-9402 ext. 69335	ABR012	Arabella Farm Direct Bouquet of 18 Fresh Cut Pink Roses with a Free Glass Vase	1	0	1	Expedited	Victoria graham	19248 E COSTILLA PL			CENTENNIAL	CO	80016-2172	US		Happy Mother’s Day   Love 💕 you sooo much From Susan	false		
113-3208562-1980203	68851201964234	2020-04-28T19:13:23+00:00	2020-04-28T12:13:23-07:00	2020-04-28T19:42:37+00:00	2020-05-02T06:59:59+00:00	-4	9c186dy7lbckm8n@marketplace.amazon.com	michelle	+1 347-448-3190 ext. 85453	ABR0022	Arabella Farm Direct Bouquet of 12 Fresh Cut Pink Roses with a Free Glass Vase	1	0	1	Expedited	Vennie Marble	2918 BUICE LN			GAINESVILLE	GA	30504-5808	US		Happy Mother’s Day!!!!! We ❤️Love You From The McSwain’s	false		
111-4092768-2452267	44684727981978	2020-04-28T19:15:51+00:00	2020-04-28T12:15:51-07:00	2020-04-28T19:43:24+00:00	2020-05-02T06:59:59+00:00	-4	h0psj0nl0flf6d9@marketplace.amazon.com	Mary Porcella	+1 347-448-3190 ext. 03890	ABR0022	Arabella Farm Direct Bouquet of 12 Fresh Cut Pink Roses with a Free Glass Vase	1	0	1	Expedited	Karla Bulovscak	68 GERARD RD			TRENTON	NJ	08620-1553	US		Dear Karla, You and Aaron are in our hearts.  Prayers for God's healing love  and peace.  Lots of love tucked in these flowers.  We love you, Jane O. and Darlene D.	false		
111-2559691-0501041	13085247304946	2020-04-28T19:14:34+00:00	2020-04-28T12:14:34-07:00	2020-04-28T19:45:12+00:00	2020-05-02T06:59:59+00:00	-4	kw68mr50y2wt308@marketplace.amazon.com	Nancy Gray	+1 412-532-4665 ext. 93465	ABR0022	Arabella Farm Direct Bouquet of 12 Fresh Cut Pink Roses with a Free Glass Vase	1	0	1	Expedited	Monique Shelby	10728 S SAVANNAH DR			SANDY	UT	84094-4967	US			false		
112-8319852-5664231	56689439325706	2020-04-28T19:20:37+00:00	2020-04-28T12:20:37-07:00	2020-04-28T19:47:27+00:00	2020-05-02T06:59:59+00:00	-4	jnjbqdksht430w1@marketplace.amazon.com	Amy Eckerson	+1 314-282-9402 ext. 18916	ABR0033	Arabella Farm Direct Bouquet of 12 Fresh Cut Orange Roses with a Free Glass Vase	1	0	1	Standard	Marsha Eckerson	17 SAGAMORE DR			OTISVILLE	NY	10963-3506	US		Hi Marsha, Happy Mother’s Day From Amy Jim Ant and Emily	false		
112-0108844-5859441	65944635333066	2020-04-28T19:24:25+00:00	2020-04-28T12:24:25-07:00	2020-04-28T19:52:23+00:00	2020-05-02T06:59:59+00:00	-4	xrv4l4p32mjypk1@marketplace.amazon.com	V Snowdon	+1 347-448-3190 ext. 66009	ABR0022	Arabella Farm Direct Bouquet of 12 Fresh Cut Pink Roses with a Free Glass Vase	1	0	1	Expedited	MRS. ANN BEADLING	OAKBRIDGE TERRACE BUILDING	3950 VILLAGE VIEW DR APT 229		GAINESVILLE	GA	30506-4364	US		DEAR NANNY,  WE LOVE YOU!!! YOU'RE THE BEST!!! xoxo Love, Will, Jack, & Bea	false		
113-9041093-5105025	10235812903042	2020-04-28T19:34:57+00:00	2020-04-28T12:34:57-07:00	2020-04-28T19:56:22+00:00	2020-05-02T06:59:59+00:00	-4	cv7hrmw2hyb4xcz@marketplace.amazon.com	Mandip Raju	+1 314-282-9402 ext. 84704	ABR0022	Arabella Farm Direct Bouquet of 12 Fresh Cut Pink Roses with a Free Glass Vase	1	0	1	Standard	Premi Azeez	7202 BRIGHT AVE APT A			WHITTIER	CA	90602-1430	US		Dear Ammi, We want to wish you a very happy Mother’s Day from across the miles! Hope these flowers brighten up your day! Sending you lots of love, M&M xx	false		
111-8817592-8940203	35858573215298	2020-04-28T19:27:55+00:00	2020-04-28T12:27:55-07:00	2020-04-28T19:57:05+00:00	2020-05-02T06:59:59+00:00	-4	hbs01hd82t0qcsl@marketplace.amazon.com	Diane Coldren	+1 347-448-3190 ext. 41403	ABM010	Arabella Farm Direct Fields of The World Bouquet of Fresh Cut Flowers with a Free Glass Vase	1	0	1	Standard	Dr Jill Fegley	206 BARTLETT CIR			HILLSBOROUGH	NC	27278-6763	US			false		
114-2598915-8366629	03753598172330	2020-04-28T19:30:58+00:00	2020-04-28T12:30:58-07:00	2020-04-28T19:57:29+00:00	2020-05-02T06:59:59+00:00	-4	p4blxz4wwmkxbjt@marketplace.amazon.com	Noah Maypole	+1 347-448-3190 ext. 07230	ABR0022	Arabella Farm Direct Bouquet of 12 Fresh Cut Pink Roses with a Free Glass Vase	1	0	1	Expedited	Maypoles	112 HERMOSA			SEGUIN	TX	78155-1132	US		Happy Mothers Day Mom! I wish you a wonderful day with lots of love, happiness and booze. Love you mom!  -Hilda and Noah	false		
112-2622607-7391423	12369474312986	2020-04-28T19:29:08+00:00	2020-04-28T12:29:08-07:00	2020-04-28T19:59:28+00:00	2020-05-02T06:59:59+00:00	-4	7v78yy7y79hn64k@marketplace.amazon.com	Katy Gonzalez	+1 347-448-3190 ext. 20959	ABM010	Arabella Farm Direct Fields of The World Bouquet of Fresh Cut Flowers with a Free Glass Vase	1	0	1	Expedited	Teresita Gonzalez	1344 SW 143RD AVE			MIAMI	FL	33184-3223	US			false		
111-6120684-8747411	40136728072642	2020-04-28T19:34:52+00:00	2020-04-28T12:34:52-07:00	2020-04-28T19:59:59+00:00	2020-05-02T06:59:59+00:00	-4	hbs01hd82t0qcsl@marketplace.amazon.com	Diane Coldren	+1 210-728-4548 ext. 41902	ABM010	Arabella Farm Direct Fields of The World Bouquet of Fresh Cut Flowers with a Free Glass Vase	1	0	1	Standard	Jennifer Warren	1451 W 162ND ST APT 1			GARDENA	CA	90247-3924	US			false		
113-0804488-2482604	30168262867650	2020-04-28T19:31:42+00:00	2020-04-28T12:31:42-07:00	2020-04-28T20:01:24+00:00	2020-05-02T06:59:59+00:00	-4	68pv92735wp196y@marketplace.amazon.com	P John Null	+1 347-448-3190 ext. 85304	ABR0022	Arabella Farm Direct Bouquet of 12 Fresh Cut Pink Roses with a Free Glass Vase	1	0	1	Standard	P.John Null	117 MORGANFORD PL			CARY	NC	27518-6485	US		Happy Mother’s Day   Love Preston and Anna From Preston and Anna	false		
113-0052644-7522606	03318780152986	2020-04-28T19:32:15+00:00	2020-04-28T12:32:15-07:00	2020-04-28T20:01:30+00:00	2020-05-02T06:59:59+00:00	-4	f3z8n8jzh0wkyl1@marketplace.amazon.com	Michelle Wentworth	+1 412-532-4665 ext. 11975	ABM010	Arabella Farm Direct Fields of The World Bouquet of Fresh Cut Flowers with a Free Glass Vase	1	0	1	Expedited	Cathy Gray	70285 S 341 LOOP			WAGONER	OK	74467-8335	US		Happy Mother's Day!  Love, Jason, Michelle, Kara and Chloe	false		
113-2610895-7409042	03353263694602	2020-04-28T19:36:26+00:00	2020-04-28T12:36:26-07:00	2020-04-28T20:04:46+00:00	2020-05-02T06:59:59+00:00	-4	rxj1sz0xqd72jyn@marketplace.amazon.com	Tina Chapman	+1 210-728-4548 ext. 41322	ABM010	Arabella Farm Direct Fields of The World Bouquet of Fresh Cut Flowers with a Free Glass Vase	1	0	1	Expedited	Dee Ingram	1230 GARNET CT			POLLOCK PINES	CA	95726-9538	US		Happy Mother’s Day! Love, Tina, Ross and Madison From Tina Chapman	false		
111-6327470-2050638	00858632280690	2020-04-28T19:38:35+00:00	2020-04-28T12:38:35-07:00	2020-04-28T20:06:11+00:00	2020-05-02T06:59:59+00:00	-4	1xxt2hmht0rkwt1@marketplace.amazon.com	Daniel Walters	+1 210-728-4548 ext. 66288	ABR014	Arabella Farm Direct Bouquet of 18 Fresh Cut White Roses with a Free Glass Vase	1	0	1	Expedited	Margaret Walters	4307 BAYLOR ST			GREENSBORO	NC	27455-2549	US		Happy Mother’s Day!  Love, Dan From Daniel Walters	false		
112-8269923-8858647	38024235888874	2020-04-28T20:03:54+00:00	2020-04-28T13:03:54-07:00	2020-04-28T20:20:33+00:00	2020-05-02T06:59:59+00:00	-4	pj7t773yvpw0ggz@marketplace.amazon.com	James Knowles III	+1 412-532-4665 ext. 08434	ABM010	Arabella Farm Direct Fields of The World Bouquet of Fresh Cut Flowers with a Free Glass Vase	1	0	1	Expedited	Mary Reed	200 S 4TH ST			STE GENEVIEVE	MO	63670-1685	US		Happy Mother's Day! We love you and miss you very much!  Hope you have a great day!  Love, Lisa, James, Jace and Delaney	false		
112-8136011-0061842	28992331283410	2020-04-28T19:53:46+00:00	2020-04-28T12:53:46-07:00	2020-04-28T20:23:26+00:00	2020-05-02T06:59:59+00:00	-4	r01s65cbkgjjzv5@marketplace.amazon.com	curtis f. smith	+1 210-728-4548 ext. 39402	ABM010	Arabella Farm Direct Fields of The World Bouquet of Fresh Cut Flowers with a Free Glass Vase	1	0	1	Expedited	margaret schalit	1133 VAN CURLER AVE			SCHENECTADY	NY	12308-2604	US			false		
112-4819424-3821068	25321094216482	2020-04-28T19:57:17+00:00	2020-04-28T12:57:17-07:00	2020-04-28T20:26:24+00:00	2020-05-02T06:59:59+00:00	-4	30wnss0803gq5kq@marketplace.amazon.com	duane v. larson	+1 314-282-9402 ext. 03462	ABM010	Arabella Farm Direct Fields of The World Bouquet of Fresh Cut Flowers with a Free Glass Vase	1	0	1	Expedited	helen kupka	17 BLUE ANCHOR CAY RD			CORONADO	CA	92118-3220	US		Happy Birthday! We'll be there soon to celebrate with you :) Susan and Duane	false		
111-4758076-2674606	37795159106298	2020-04-28T20:00:17+00:00	2020-04-28T13:00:17-07:00	2020-04-28T20:26:37+00:00	2020-05-02T06:59:59+00:00	-4	9nx6ty7crh6fhhj@marketplace.amazon.com	Ann Marie	+1 210-728-4548 ext. 38661	ABR013	Arabella Farm Direct Bouquet of 18 Fresh Cut Yellow Roses with a Free Glass Vase	1	0	1	Expedited	Marie Merkel	4491 S MAIN ST APT 226			ACWORTH	GA	30101-5550	US		Happy Mother's Day!  We miss you...........  Love you, Warren and AnnMarie	false		
111-8351839-1937823	02029001294426	2020-04-28T20:05:18+00:00	2020-04-28T13:05:18-07:00	2020-04-28T20:28:25+00:00	2020-05-02T06:59:59+00:00	-4	hbs01hd82t0qcsl@marketplace.amazon.com	Diane Coldren	+1 412-532-4665 ext. 05176	ABM010	Arabella Farm Direct Fields of The World Bouquet of Fresh Cut Flowers with a Free Glass Vase	1	0	1	Expedited	Siti Abdul Rahman	1410 22ND ST S			ARLINGTON	VA	22202-1510	US			false		
114-4917361-4117803	58970342633490	2020-04-28T19:57:38+00:00	2020-04-28T12:57:38-07:00	2020-04-28T20:28:55+00:00	2020-05-02T06:59:59+00:00	-4	b5bb1bm795tn2d0@marketplace.amazon.com	Walter Dondero	+1 347-448-3190 ext. 87698	ABR0022	Arabella Farm Direct Bouquet of 12 Fresh Cut Pink Roses with a Free Glass Vase	1	0	1	Expedited	Walter Dondero	74 Nauset Ave East			North Falmouth	MA	02556	US		Jannie, Happy Mother's Day to my favorite girl. Love, Wally	false		
111-8511272-8100252	22929500531058	2020-04-28T20:03:40+00:00	2020-04-28T13:03:40-07:00	2020-04-28T20:32:31+00:00	2020-05-02T06:59:59+00:00	-4	9nx6ty7crh6fhhj@marketplace.amazon.com	Ann Marie	+1 412-532-4665 ext. 88790	ABR013	Arabella Farm Direct Bouquet of 18 Fresh Cut Yellow Roses with a Free Glass Vase	1	0	1	Expedited	Paula Shepard	1410 SUGAR CANE DR			KISSIMMEE	FL	34744-6038	US		Happy Mother's Day!  Lots of Love, Warren and AnnMarie	false		
113-8226951-2033021	10202506871322	2020-04-28T20:10:35+00:00	2020-04-28T13:10:35-07:00	2020-04-28T20:39:37+00:00	2020-05-02T06:59:59+00:00	-4	5v5dzf72cx30cwr@marketplace.amazon.com	National MPS Society	+1 210-728-4548 ext. 21806	ABR0066	Arabella Farm Direct Bouquet of 12 Fresh Cut White Roses with a Free Glass Vase	1	0	1	Expedited	Katie Hanson	21809 30TH AVE S APT 1			DES MOINES	WA	98198-6799	US		Katie, We are thinking of you and your family and remembering Willow. With love and sympathy, National MPS Society	false		
114-9325003-0354625	60076396000570	2020-04-28T20:16:17+00:00	2020-04-28T13:16:17-07:00	2020-04-28T20:41:55+00:00	2020-05-02T06:59:59+00:00	-4	0z5kps33ydfx1jp@marketplace.amazon.com	Jackie	+1 314-282-9402 ext. 43981	ABM010	Arabella Farm Direct Fields of The World Bouquet of Fresh Cut Flowers with a Free Glass Vase	1	0	1	Expedited	Michelle Warner	56 IFFLEY RD			BOSTON	MA	02130-2307	US		Congratulations, Michelle! We will miss having you on the tobacco team and wish you all the best. From From all of us at MTCP	false		
111-0265301-4353812	50265812796778	2020-04-28T20:14:43+00:00	2020-04-28T13:14:43-07:00	2020-04-28T20:42:39+00:00	2020-05-02T06:59:59+00:00	-4	c24sv4m40c5ntty@marketplace.amazon.com	Deborah L Hatland	+1 347-448-3190 ext. 29364	ABR004	Arabella Farm Direct Bouquet of 12 Fresh Cut Yellow Roses with a Free Glass Vase	1	0	1	Expedited	Ardella Hatland	902 Pleasant View Ln			Ottawa	IL	61350-4332	US		Happy Mother's Day.  Love Steve and Deb	false		
114-9509197-4757805	30449373039650	2020-04-28T20:16:48+00:00	2020-04-28T13:16:48-07:00	2020-04-28T20:45:30+00:00	2020-05-02T06:59:59+00:00	-4	5w7zhscb80d2lcq@marketplace.amazon.com	K. J. Stuono	+1 210-728-4548 ext. 74780	ABR014	Arabella Farm Direct Bouquet of 18 Fresh Cut White Roses with a Free Glass Vase	1	0	1	Expedited	Jean Nestor	2053 45TH ST			ASTORIA	NY	11105-1229	US		Happy Birthday to my beautiful mom! Love you with all my heart. From Kathy	false		
113-2023477-4142625	38906664961346	2020-04-28T20:20:04+00:00	2020-04-28T13:20:04-07:00	2020-04-28T20:49:56+00:00	2020-05-02T06:59:59+00:00	-4	q4xnvlqgptzfzzh@marketplace.amazon.com	brian kujawa	+1 347-448-3190 ext. 16401	ABR0022	Arabella Farm Direct Bouquet of 12 Fresh Cut Pink Roses with a Free Glass Vase	1	0	1	Expedited	Kittie kujawa	10108 DEEP SKIES DR			LAUREL	MD	20723-5776	US			false		
111-3985871-9095410	15744960294818	2020-04-28T20:24:47+00:00	2020-04-28T13:24:47-07:00	2020-04-28T20:50:43+00:00	2020-05-02T06:59:59+00:00	-4	hvsgzjl5ywy5pky@marketplace.amazon.com	chris roussel	+1 210-728-4548 ext. 26349	ABR0022	Arabella Farm Direct Bouquet of 12 Fresh Cut Pink Roses with a Free Glass Vase	1	0	1	Expedited	Gwen Roussel	2333 RUBY DR			AUGUSTA	GA	30906-3047	US		Happy Mother’s Day Gwen! It may have arrived a day early or a day late, but you arrived at the perfect time in my life.  Many great memories with you and Devan.  Love, Chris From Chris Roussel	false		
112-3110512-0941855	56786482309434	2020-04-28T20:23:03+00:00	2020-04-28T13:23:03-07:00	2020-04-28T20:51:41+00:00	2020-05-02T06:59:59+00:00	-4	1yrg9l980vjd4bq@marketplace.amazon.com	Li	+1 314-282-9402 ext. 27878	ABR0022	Arabella Farm Direct Bouquet of 12 Fresh Cut Pink Roses with a Free Glass Vase	1	0	1	Standard	Mr. and Mrs. Wadlington	10981 TWINLEAF CT			SAN DIEGO	CA	92131-3643	US		Dear Mrs. Wadlington, Happy Mother’s Day! Hope you enjoy these flowers to brighten your day. From Love, Li&Scott	false		
111-4703934-9657021	66446358306914	2020-04-28T20:42:48+00:00	2020-04-28T13:42:48-07:00	2020-04-28T21:01:44+00:00	2020-05-02T06:59:59+00:00	-4	56y95h50xjl7jcx@marketplace.amazon.com	Patrick Whewell	+1 347-448-3190 ext. 10932	ABM010	Arabella Farm Direct Fields of The World Bouquet of Fresh Cut Flowers with a Free Glass Vase	1	0	1	Expedited	Sheila Whewell	10013 DARNAWAY CT			BRISTOW	VA	20136-3038	US		Happy Mother's Day!!  Hope you have a good one. You deserve it  -Patrick	false		
111-4086758-5285004	63012465899586	2020-04-28T20:33:05+00:00	2020-04-28T13:33:05-07:00	2020-04-28T21:01:47+00:00	2020-05-02T06:59:59+00:00	-4	lmzqksvymxxr7sm@marketplace.amazon.com	Mike Royal	+1 314-282-9402 ext. 11173	ABM010	Arabella Farm Direct Fields of The World Bouquet of Fresh Cut Flowers with a Free Glass Vase	1	0	1	Expedited	Haleigh Harley	168 CHILVERS RD	UNIT G CHEHALIS WA 98532 UNIT G		CHEHALIS	WA	98532-9658	US		Happy 1st Mother’s Day! We love and miss you💕You are an awesome Mom and Harper is so lucky to have you as her Mom❤️ From Mike & Mom Royal	false		
114-9268155-8913047	14823681350618	2020-04-28T20:38:16+00:00	2020-04-28T13:38:16-07:00	2020-04-28T21:06:25+00:00	2020-05-02T06:59:59+00:00	-4	s2njw6xyw5h2yk7@marketplace.amazon.com	Christy	+1 347-448-3190 ext. 00322	ABM010	Arabella Farm Direct Fields of The World Bouquet of Fresh Cut Flowers with a Free Glass Vase	1	0	1	Expedited	Cecilia Doubrava	1048 García Street			Camarillo	CA	93010	US		Happy Birthday! Love you! From Christy, Scott, Gavin and Charlotte	false		
111-8223686-1857049	66450281961554	2020-04-28T21:00:45+00:00	2020-04-28T14:00:45-07:00	2020-04-28T21:19:35+00:00	2020-05-02T06:59:59+00:00	-4	9zs1tmd4v53ncj5@marketplace.amazon.com	Susan lyon	+1 210-728-4548 ext. 54892	ABM010	Arabella Farm Direct Fields of The World Bouquet of Fresh Cut Flowers with a Free Glass Vase	1	0	1	Expedited	Lorna pahl	2795 130TH ST			WILTON	IA	52778-9333	US		Enjoy your gift! Happy Mothers day From Susan lyon	false		
111-2648360-7780249	34998023815138	2020-04-28T20:50:52+00:00	2020-04-28T13:50:52-07:00	2020-04-28T21:20:28+00:00	2020-05-02T06:59:59+00:00	-4	51sl9l8ln2bjgwk@marketplace.amazon.com	Aaron Hayes	+1 347-448-3190 ext. 46073	ABM010	Arabella Farm Direct Fields of The World Bouquet of Fresh Cut Flowers with a Free Glass Vase	1	0	1	Expedited	Cathy Hayes	2603 HASKELL BLVD			MUSKOGEE	OK	74403-3830	US			false		
114-2552824-2615416	46451776233266	2020-04-28T20:52:10+00:00	2020-04-28T13:52:10-07:00	2020-04-28T21:25:38+00:00	2020-05-02T06:59:59+00:00	-4	3s824rdxjqc4c3w@marketplace.amazon.com	liz	+1 347-448-3190 ext. 01940	ABM0044	Arabella Farm Direct Bouquet of Fresh Cut Blue Hydrangea with a Free Glass Vase	1	0	1	Expedited	Donna Rypma	5534 SIMONELLI RD			WHITEHALL	MI	49461-9631	US		Happy Mother's Day, Mom!  Although I can't see you in person, I thought I'd send some flowers!  Love, Liz and Chris	false		
114-3963358-1241040	28336392423410	2020-04-28T20:59:58+00:00	2020-04-28T13:59:58-07:00	2020-04-28T21:27:09+00:00	2020-05-02T06:59:59+00:00	-4	vkrz6hpv71hvvbs@marketplace.amazon.com	tim watters	+1 314-282-9402 ext. 13903	ABM010	Arabella Farm Direct Fields of The World Bouquet of Fresh Cut Flowers with a Free Glass Vase	1	0	1	Expedited	Eunice Abrams	25 SUTTON PL S APT 4F			NEW YORK	NY	10022-2454	US		Dear Eunice, We are deeply sorry for your loss. From everyone at Watters Financial Services	false		
111-8870620-7913867	64489841554290	2020-04-28T21:07:43+00:00	2020-04-28T14:07:43-07:00	2020-04-28T21:27:14+00:00	2020-05-02T06:59:59+00:00	-4	n2xb1wdg803vpcg@marketplace.amazon.com	Dawn Strauch	+1 314-282-9402 ext. 88069	ABR004	Arabella Farm Direct Bouquet of 12 Fresh Cut Yellow Roses with a Free Glass Vase	1	0	1	Expedited	Kathy Young	2529 WOODS DR			WADESVILLE	IN	47638-9708	US		Mom, !!Happy Mother's Day!! Love and miss you, Mark, Dawn, Tyler and Kaylee	false		
112-5422278-6886650	48382211059706	2020-04-28T20:55:41+00:00	2020-04-28T13:55:41-07:00	2020-04-28T21:28:21+00:00	2020-05-02T06:59:59+00:00	-4	jmmsqhrh1f5x5q9@marketplace.amazon.com	Lauren Burks	+1 347-448-3190 ext. 74518	ABR0022	Arabella Farm Direct Bouquet of 12 Fresh Cut Pink Roses with a Free Glass Vase	1	0	1	Expedited	Kayla	136 NW CIRCLE DR # 63			HINES	OR	97738-2507	US		Happy birthday!!! And you are an amazing mother!!! From Lauren Mom Aksel dad shelly Finn	false		
112-5357075-8877826	28062604228562	2020-04-28T21:01:27+00:00	2020-04-28T14:01:27-07:00	2020-04-28T21:30:58+00:00	2020-05-02T06:59:59+00:00	-4	x7t552bfwwcv03p@marketplace.amazon.com	Andrea M Woodhouse	+1 412-532-4665 ext. 07810	ABM010	Arabella Farm Direct Fields of The World Bouquet of Fresh Cut Flowers with a Free Glass Vase	1	0	1	Standard	Anita Woodhouse	1011 S HIGHWAY 27			BURLEY	ID	83318-5305	US		Happy Mother's Day!!  Scott & Andrea & kids	false		
112-6129579-0579436	38892983329794	2020-04-28T21:03:24+00:00	2020-04-28T14:03:24-07:00	2020-04-28T21:33:29+00:00	2020-05-02T06:59:59+00:00	-4	c2bnxt9hcsxs37q@marketplace.amazon.com	Elisa D Rogge	+1 347-448-3190 ext. 54896	ABR0033	Arabella Farm Direct Bouquet of 12 Fresh Cut Orange Roses with a Free Glass Vase	1	0	1	Expedited	Mary Rogge	26021 S FOXGLENN DR			SUN LAKES	AZ	85248-7256	US			false		
113-2154317-0410662	22278980218594	2020-04-28T21:07:44+00:00	2020-04-28T14:07:44-07:00	2020-04-28T21:34:54+00:00	2020-05-02T06:59:59+00:00	-4	fgcyf6qs0xyfhn7@marketplace.amazon.com	valerie	+1 347-448-3190 ext. 40223	ABM010	Arabella Farm Direct Fields of The World Bouquet of Fresh Cut Flowers with a Free Glass Vase	1	0	1	Standard	Cindy Rasmussen	43 QUARRY RD			PORT LUDLOW	WA	98365-9457	US		Dearest Mom/Grandma Cindy, Wishing you a very Happy Mother's Day! Wish we could see you, but sending lots of love. Xoxo  Mark, Val and David From Val, Mark and David	false		
112-7684303-1885800	48750917022778	2020-04-28T21:08:38+00:00	2020-04-28T14:08:38-07:00	2020-04-28T21:37:39+00:00	2020-05-02T06:59:59+00:00	-4	mhp6nymr2dfh4wz@marketplace.amazon.com	Julie Staadecker	+1 210-728-4548 ext. 68643	ABR0022	Arabella Farm Direct Bouquet of 12 Fresh Cut Pink Roses with a Free Glass Vase	1	0	1	Expedited	Nancy Anderson	7930 E CAMELBACK RD UNIT 305			SCOTTSDALE	AZ	85251-2634	US		Happy Mother’s Day! We love you. - Mike, Julie and Cam From Julie Staadecker	false		
111-4289833-6057064	44477867729842	2020-04-28T21:12:33+00:00	2020-04-28T14:12:33-07:00	2020-04-28T21:37:41+00:00	2020-05-02T06:59:59+00:00	-4	2b5wgh7xpctc72g@marketplace.amazon.com	Clark Taylor	+1 210-728-4548 ext. 02288	ABM010	Arabella Farm Direct Fields of The World Bouquet of Fresh Cut Flowers with a Free Glass Vase	1	0	1	Expedited	Jayme Pavia	12609 CANNON CREST DR			FREDERICKSBURG	VA	22407-5201	US		Happy Mother’s Day! From Chris, Jayme, Hayley and Christopher	false		
114-6350350-2145037	02139503214938	2020-04-28T21:09:44+00:00	2020-04-28T14:09:44-07:00	2020-04-28T21:37:49+00:00	2020-05-02T06:59:59+00:00	-4	f4g6g7gj6nfgx9y@marketplace.amazon.com	CECILIA IRIZARRY	+1 347-448-3190 ext. 08452	ABM010	Arabella Farm Direct Fields of The World Bouquet of Fresh Cut Flowers with a Free Glass Vase	1	0	1	Expedited	Dorothy Grennan	620 SCHULTZ RD			PERKIOMENVILLE	PA	18074-9562	US		Happy Mother’s Day!! Love you! From Victor and Cecilia	false		
113-5381378-1617867	10567652160682	2020-04-28T21:10:54+00:00	2020-04-28T14:10:54-07:00	2020-04-28T21:38:27+00:00	2020-05-02T06:59:59+00:00	-4	2wkl3htl0kkv0xd@marketplace.amazon.com	Belinda	+1 347-448-3190 ext. 50574	ABR0022	Arabella Farm Direct Bouquet of 12 Fresh Cut Pink Roses with a Free Glass Vase	1	0	1	Expedited	Lois Heiman	300 E OVERLOOK APT 236			PORT WASHINGTON	NY	11050-4732	US			false		
111-5975077-6250669	26067624192114	2020-04-28T21:15:47+00:00	2020-04-28T14:15:47-07:00	2020-04-28T21:45:53+00:00	2020-05-02T06:59:59+00:00	-4	5h9zkwb8c6m6wf0@marketplace.amazon.com	cathy heathcock	+1 347-448-3190 ext. 81959	ABR0033	Arabella Farm Direct Bouquet of 12 Fresh Cut Orange Roses with a Free Glass Vase	1	0	1	Expedited	Christina Rizzo	6562 CRENSHAW RD			OZARK	MO	65721-8971	US			false		
111-2125472-3767431	23456781815314	2020-04-28T21:33:13+00:00	2020-04-28T14:33:13-07:00	2020-04-28T21:49:17+00:00	2020-05-02T06:59:59+00:00	-4	wbw81blpf4w091f@marketplace.amazon.com	paul ambrose	+1 347-448-3190 ext. 96706	ABR004	Arabella Farm Direct Bouquet of 12 Fresh Cut Yellow Roses with a Free Glass Vase	1	0	1	Expedited	Mrs Sue Ambrose	4170 33RD ST UNIT 201			SAN DIEGO	CA	92104-2149	US		Happy Mother's Day! Love Paul From paul ambrose	false		
114-8137327-2563435	19961608782434	2020-04-28T21:24:33+00:00	2020-04-28T14:24:33-07:00	2020-04-28T21:49:40+00:00	2020-05-02T06:59:59+00:00	-4	5mh4kd8vd4rqgkn@marketplace.amazon.com	doug bray	+1 210-728-4548 ext. 44052	ABM010	Arabella Farm Direct Fields of The World Bouquet of Fresh Cut Flowers with a Free Glass Vase	1	0	1	Standard	Stanton County Long Term Care Marcile Nicholas	404 N CHESTNUT ST			JOHNSON	KS	67855-5001	US		Happy Mother’s Day! We love you! Tammy and Doug	false		
112-3437094-2813819	63240814926554	2020-04-28T21:24:17+00:00	2020-04-28T14:24:17-07:00	2020-04-28T21:50:07+00:00	2020-05-02T06:59:59+00:00	-4	tbx3zz18hh0phjr@marketplace.amazon.com	Jeanne Paul	+1 347-448-3190 ext. 47251	ABR012	Arabella Farm Direct Bouquet of 18 Fresh Cut Pink Roses with a Free Glass Vase	1	0	1	Expedited	Victoria Gearlds	106 STEVEN CT			COLUMBIA	TN	38401-5566	US		Happy Mother’s Day, my sweet Boogins! I hope you have a wonderful day of celebrating being a mom. I love you, Mom From Jeanne Paul	false		
112-0578347-7273858	02173010898082	2020-04-28T21:21:09+00:00	2020-04-28T14:21:09-07:00	2020-04-28T21:50:26+00:00	2020-05-02T06:59:59+00:00	-4	shtk68y7l6lfmjy@marketplace.amazon.com	Cammie Heinhold	+1 412-532-4665 ext. 58956	ABM010	Arabella Farm Direct Fields of The World Bouquet of Fresh Cut Flowers with a Free Glass Vase	1	0	1	Standard	wendy Heinhold	34 HALL MNR			ALPHARETTA	GA	30022-1816	US		Happy Mother's Day! Love Brian, Cammie and Dylan	false		
114-6304389-1363406	30070177169842	2020-04-28T21:24:58+00:00	2020-04-28T14:24:58-07:00	2020-04-28T21:51:11+00:00	2020-05-02T06:59:59+00:00	-4	3fj3jtdd9qt6ynd@marketplace.amazon.com	Jason Thompson	+1 314-282-9402 ext. 96467	ABM017	Prosperous Day a Farm Direct Bouquet with a Free Glass Vase	1	0	1	Expedited	Mary Ann Thompson	5400 PEACH DR			GIBSONIA	PA	15044-9542	US		Happy Mother’s Day, Mom Love you From Jason Thompson	false		
114-1667583-8695432	44008630628586	2020-04-28T21:25:06+00:00	2020-04-28T14:25:06-07:00	2020-04-28T21:51:34+00:00	2020-05-02T06:59:59+00:00	-4	3grgc8hbs37lzxn@marketplace.amazon.com	Beth Thomas	+1 347-448-3190 ext. 24035	ABR004	Arabella Farm Direct Bouquet of 12 Fresh Cut Yellow Roses with a Free Glass Vase	1	0	1	Expedited	Bailey Family	740 HIDDEN VALLEY DR			RICHMOND	IN	47374-5154	US		Dear Bailey Family,  Thinking of you all and glad you are together,  Fondly, Beth Woodman Thomas	false		
111-5042914-8616223	42240506459778	2020-04-28T21:22:52+00:00	2020-04-28T14:22:52-07:00	2020-04-28T21:52:29+00:00	2020-05-02T06:59:59+00:00	-4	n2xb1wdg803vpcg@marketplace.amazon.com	Dawn Strauch	+1 210-728-4548 ext. 69596	ABR0033	Arabella Farm Direct Bouquet of 12 Fresh Cut Orange Roses with a Free Glass Vase	1	0	1	Expedited	Debbie Strauch	2022 WHISPER VALLEY DR			LAFAYETTE	IN	47909-8064	US		Mom, Happy Mother's Day! We love you, Mark, Dawn, Tyler and Kaylee	false		
114-9418089-0585016	22740583179674	2020-04-28T21:29:06+00:00	2020-04-28T14:29:06-07:00	2020-04-28T21:54:32+00:00	2020-05-02T06:59:59+00:00	-4	btl725jpf5lwsc5@marketplace.amazon.com	wrlord	+1 347-448-3190 ext. 58235	ABM010	Arabella Farm Direct Fields of The World Bouquet of Fresh Cut Flowers with a Free Glass Vase	1	0	1	Expedited	Edina Mejicovsky	1634 OSWEGO ST			EAST MEADOW	NY	11554-2317	US		Edina, We are so sorry for your loss.  We are thinking of you and wanted to send you some comfort and love during this difficult time.  Warmly, Wendy and Michael	false		
113-2644163-3360210	16061184310306	2020-04-28T21:16:51+00:00	2020-04-28T14:16:51-07:00	2020-04-28T21:55:01+00:00	2020-05-02T06:59:59+00:00	-4	bf9qf9ntsftqls2@marketplace.amazon.com	shanley rassler	+1 314-282-9402 ext. 62999	ABM002	Arabella Farm Direct Bouquet of Fresh Cut White Calla Lilies with a Free Glass Vase	1	0	1	Expedited	Patrick Campbell	2426 PINE ST			PHILADELPHIA	PA	19103-6417	US			false		
112-3779815-9635427	50681536850234	2020-04-28T21:25:56+00:00	2020-04-28T14:25:56-07:00	2020-04-28T21:55:52+00:00	2020-05-02T06:59:59+00:00	-4	srl3h3gl4zgg3v3@marketplace.amazon.com	Candace Matty	+1 347-448-3190 ext. 41236	ABM010	Arabella Farm Direct Fields of The World Bouquet of Fresh Cut Flowers with a Free Glass Vase	1	0	1	Expedited	Candace Matty	4720 WILD OAK WAY			NORTH LAS VEGAS	NV	89031-0164	US			false		
113-1078916-1643461	39814666794658	2020-04-28T21:32:48+00:00	2020-04-28T14:32:48-07:00	2020-04-28T22:01:04+00:00	2020-05-02T06:59:59+00:00	-4	vjtdgq7cpklyh8m@marketplace.amazon.com	Kathleen Spera	+1 347-448-3190 ext. 67920	ABR0022	Arabella Farm Direct Bouquet of 12 Fresh Cut Pink Roses with a Free Glass Vase	1	0	1	Standard	Mrs. Betty Mulvey	6638 7TH AVENUE CIR W			BRADENTON	FL	34209-4134	US		Happy Mother's Day, Mom! All our love, Kathy and Mark	false		
111-0673166-2181063	60548230071154	2020-04-28T21:46:25+00:00	2020-04-28T14:46:25-07:00	2020-04-28T22:16:19+00:00	2020-05-02T06:59:59+00:00	-4	srmv0khw8ktd4qs@marketplace.amazon.com	Eric Tarakjian	+1 347-448-3190 ext. 45078	ABM002	Arabella Farm Direct Bouquet of Fresh Cut White Calla Lilies with a Free Glass Vase	1	0	1	Expedited	Dawn Turner	2122 PASEO DORADO			LA JOLLA	CA	92037-3233	US		I hope you like these  Always	false		
114-6230925-0755447	27214065874626	2020-04-28T22:02:04+00:00	2020-04-28T15:02:04-07:00	2020-04-28T22:20:01+00:00	2020-05-02T06:59:59+00:00	-4	tbjmmx4332srzbd@marketplace.amazon.com	Liana Garnier	+1 347-448-3190 ext. 62980	ABR0022	Arabella Farm Direct Bouquet of 12 Fresh Cut Pink Roses with a Free Glass Vase	1	0	1	Expedited	Giana Montero	2430 ML King Jr Way	APT 6		Berkeley,	California	94704	US		Feliz Cumpleaños Giana! Que pases super bien este nuevo año! Te queremos muchísimos, tus padres.	false		
112-5831174-3545031	34866477206818	2020-04-28T21:52:26+00:00	2020-04-28T14:52:26-07:00	2020-04-28T22:22:17+00:00	2020-05-02T06:59:59+00:00	-4	kmt78f3wghthhfp@marketplace.amazon.com	Sarah Tarbox	+1 347-448-3190 ext. 01131	ABR0022	Arabella Farm Direct Bouquet of 12 Fresh Cut Pink Roses with a Free Glass Vase	1	0	1	Expedited	Judy DaDalt	26 TOLLAND AVE			STAFFORD SPRINGS	CT	06076-1359	US		We miss you and love you so much Mom!   Love Sarah and Tony	false		
114-7812929-7114644	04151816621786	2020-04-28T21:58:37+00:00	2020-04-28T14:58:37-07:00	2020-04-28T22:27:41+00:00	2020-04-30T06:59:59+00:00	-2	7hr3bdsm4gsbgyk@marketplace.amazon.com	Mona Bugdal	+1 314-282-9402 ext. 39578	ABR001	Arabella Farm Direct Bouquet of 12 Fresh Cut Red Roses with a Free Glass Vase	1	0	1	SecondDay	Elizabeth Coates	356 DEERFIELD DR			HARRISON	OH	45030-2079	US		Congratulations on your graduation. We are so proud of you! Love, Bruce and Mona	false		
111-2070152-8787410	18701098178306	2020-04-28T22:03:38+00:00	2020-04-28T15:03:38-07:00	2020-04-28T22:28:20+00:00	2020-05-02T06:59:59+00:00	-4	t5tsf20gvk0ljp4@marketplace.amazon.com	Beth Coleman	+1 314-282-9402 ext. 09229	ABR0022	Arabella Farm Direct Bouquet of 12 Fresh Cut Pink Roses with a Free Glass Vase	1	0	1	Expedited	Suzanne Schack	27010 GRAND CENTRAL PKWY APT 10X			FLORAL PARK	NY	11005-1110	US		Dear Mom, Wishing you a Happy Mother’s Day  with love from a distance, Beth & Marshal	false		
112-8016842-0193013	07648106321882	2020-04-28T22:01:14+00:00	2020-04-28T15:01:14-07:00	2020-04-28T22:30:42+00:00	2020-05-02T06:59:59+00:00	-4	jlwywl9fqc6cmn8@marketplace.amazon.com	Tyler Graham	+1 314-282-9402 ext. 25714	ABR0022	Arabella Farm Direct Bouquet of 12 Fresh Cut Pink Roses with a Free Glass Vase	1	0	1	Expedited	Tyler Graham	119 RICHMOND CIR			PITTSBURGH	PA	15237-3627	US		Happy Mother's Day! Love you! From Tyler Graham	false		
111-8632921-2745067	02437419874002	2020-04-28T22:00:59+00:00	2020-04-28T15:00:59-07:00	2020-04-28T22:31:43+00:00	2020-05-02T06:59:59+00:00	-4	jhcvl7tfd2lrg0l@marketplace.amazon.com	Margaret O'Hair	+1 210-728-4548 ext. 13222	ABR0022	Arabella Farm Direct Bouquet of 12 Fresh Cut Pink Roses with a Free Glass Vase	1	0	1	Expedited	Marjorie Fisher	250 E RIVERVIEW CIR			RENO	NV	89509-1115	US			false		
113-3930504-4597005	59153496965098	2020-04-28T22:04:03+00:00	2020-04-28T15:04:03-07:00	2020-04-28T22:32:51+00:00	2020-05-02T06:59:59+00:00	-4	4j1hf7y0gmz3zjr@marketplace.amazon.com	Melissa	+1 347-448-3190 ext. 78681	ABR0033	Arabella Farm Direct Bouquet of 12 Fresh Cut Orange Roses with a Free Glass Vase	1	0	1	Expedited	Melissa Morris	499-B State Highway 371	(PO Box 488)		Thoreau	New Mexico	87323	US			false		
111-1763104-4012212	50691742682794	2020-04-28T22:09:32+00:00	2020-04-28T15:09:32-07:00	2020-04-28T22:33:33+00:00	2020-05-02T06:59:59+00:00	-4	v6v5zbt5h6p1z4n@marketplace.amazon.com	Deborah Humbert	+1 412-532-4665 ext. 65800	ABR0022	Arabella Farm Direct Bouquet of 12 Fresh Cut Pink Roses with a Free Glass Vase	1	0	1	Standard	Deborah Humbert	7806 POND RIDGE CT			STOKESDALE	NC	27357-9385	US		To the best Mother & Wife in the world. We Love You & Thank God for You! From Jamie, Maggie, & Daniel Humbert	false		
112-3657883-0273056	67625605007434	2020-04-28T22:03:40+00:00	2020-04-28T15:03:40-07:00	2020-04-28T22:33:51+00:00	2020-05-02T06:59:59+00:00	-4	0lqjy7th30v2f76@marketplace.amazon.com	Zeeshan	+1 347-448-3190 ext. 65633	ABR0022	Arabella Farm Direct Bouquet of 12 Fresh Cut Pink Roses with a Free Glass Vase	1	0	1	Expedited	Aneeqa Anser Lone	5 DONNA CT			HOLTSVILLE	NY	11742-1228	US			false		
113-1245258-6777032	53066313569162	2020-04-28T22:38:01+00:00	2020-04-28T15:38:01-07:00	2020-04-28T22:38:55+00:00	2020-05-02T06:59:59+00:00	-4	gf25y17dnmr8nrc@marketplace.amazon.com	Deborah M Barnes	+1 347-448-3190 ext. 15924	ABM010	Arabella Farm Direct Fields of The World Bouquet of Fresh Cut Flowers with a Free Glass Vase	1	0	1	Standard	Pam Schutz	1130 MARNEY CT			HENRICO	VA	23229-6086	US		Hope you have a wonderful day. You are a cherished member of our family and we are very glad to celebrate you . Thank you for all you do for us and the girls From DeeDee, Bill, Sadie, and Jessie	false		
111-9524622-7477008	50770951638490	2020-04-28T22:11:04+00:00	2020-04-28T15:11:04-07:00	2020-04-28T22:39:00+00:00	2020-05-02T06:59:59+00:00	-4	8nhb6fhbjkr0m2l@marketplace.amazon.com	Donald L. Klingensmith Jr.	+1 210-728-4548 ext. 24859	ABR0022	Arabella Farm Direct Bouquet of 12 Fresh Cut Pink Roses with a Free Glass Vase	1	0	1	Expedited	Bettty Rector	8518 OLD LEMAY FERRY RD			HILLSBORO	MO	63050-2614	US		Hi Mother’s Day Mama!!!     -from Virginia & Don	false		
111-6655395-7746604	17576400906378	2020-04-28T22:15:04+00:00	2020-04-28T15:15:04-07:00	2020-04-28T22:44:24+00:00	2020-05-02T06:59:59+00:00	-4	1p4zjvmf7g4fkz8@marketplace.amazon.com	Rosanna Searles	+7322645479	ABR012	Arabella Farm Direct Bouquet of 18 Fresh Cut Pink Roses with a Free Glass Vase	1	0	1	Expedited	Ann Frega	16 CHESTNUT RIDGE RD			HOLMDEL	NJ	07733-1441	US		Hi Grandma,  Happy Birthday and Happy Mother's Day!!  We love you sooooo much!  xoxoxo  -Robbie, Kayla, JJ, Paul, Jordan & Vicki	false		
111-1493784-2690622	16059976775306	2020-04-28T22:18:39+00:00	2020-04-28T15:18:39-07:00	2020-04-28T22:44:55+00:00	2020-05-02T06:59:59+00:00	-4	8nhb6fhbjkr0m2l@marketplace.amazon.com	Donald L. Klingensmith Jr.	+1 412-532-4665 ext. 47536	ABR004	Arabella Farm Direct Bouquet of 12 Fresh Cut Yellow Roses with a Free Glass Vase	1	0	1	Expedited	Mrs. Sally Klingensmith	8762 HEMLOCK LN			PORT RICHEY	FL	34668-5214	US		Happy Mother’s Day Mom!    - from Don & Virginia	false		
