order-id	order-item-id	purchase-date	payments-date	reporting-date	promise-date	days-past-promise	buyer-email	buyer-name	buyer-phone-number	sku	product-name	quantity-purchased	quantity-shipped	quantity-to-ship	ship-service-level	recipient-name	ship-address-1	ship-address-2	ship-address-3	ship-city	ship-state	ship-postal-code	ship-country	gift-wrap-type	gift-message-text	is-business-order	purchase-order-number	price-designation
113-6755544-4482607	13250127162522	2020-05-09T16:17:07+00:00	2020-05-09T09:17:07-07:00	2020-05-09T16:45:51+00:00	2020-05-14T06:59:59+00:00	-2	qq5v1fhcxqqyv45@marketplace.amazon.com	Tom Hennig	+1 412-532-4665 ext. 93217	ABM010	Arabella Bouquets | Fields of The World Bouquet of Fresh Cut Flowers in a Free Designer Glass Vase	1	0	1	Expedited	John and Linda DeRiggi	9731 ACQUA CT UNIT 514			NAPLES	FL	34113-8143	US		Happy Mother’s Day mama! Better late than never as I always say. Love you so much, and miss you something fierce! Stay safe! From Sarah DeRiggi	false		
113-8581115-9377009	16839198272314	2020-05-09T17:09:50+00:00	2020-05-09T10:09:50-07:00	2020-05-09T17:39:07+00:00	2020-05-14T06:59:59+00:00	-2	6bzplzbxrxyt2dm@marketplace.amazon.com	Marcus Bejar	+1 347-448-3190 ext. 17999	ABM010	Arabella Bouquets | Fields of The World Bouquet of Fresh Cut Flowers in a Free Designer Glass Vase	1	0	1	Expedited	Mrs Shawnessy Axe	5182 NE 37TH ST			KANSAS CITY	MO	64117-2772	US			false		
111-3969465-4221018	10731868815698	2020-05-09T17:33:59+00:00	2020-05-09T10:33:59-07:00	2020-05-09T18:04:31+00:00	2020-05-14T06:59:59+00:00	-2	8whbb4c0kznk30r@marketplace.amazon.com	Brandon Sills	+1 314-282-9402 ext. 33176	ABR0022	Arabella Farm Direct Bouquet of 12 Fresh Cut Pink Roses with a Free Glass Vase	2	1	1	Expedited	Brandon Sills	110 GANTT ST			TERRELL	TX	75160-1713	US			false		
112-5006364-1631408	07478712276626	2020-05-09T18:27:46+00:00	2020-05-09T11:27:46-07:00	2020-05-09T18:52:22+00:00	2020-05-14T06:59:59+00:00	-2	2l5qgx57w1f4m34@marketplace.amazon.com	Timothy Egan	+1 210-728-4548 ext. 80854	ABM010	Arabella Bouquets | Fields of The World Bouquet of Fresh Cut Flowers in a Free Designer Glass Vase	1	0	1	Expedited	Teresa Egan	11950 CALLE LIMONERO			EL CAJON	CA	92019-4041	US		I hope you have a great day! Love, Tim	false		
114-3560306-0627438	38442949148418	2020-05-09T19:13:37+00:00	2020-05-09T12:13:37-07:00	2020-05-09T19:42:09+00:00	2020-05-14T06:59:59+00:00	-2	5gvjrn0c6fhq7vr@marketplace.amazon.com	jonathan	+1 347-448-3190 ext. 09498	ABR0022	Arabella Farm Direct Bouquet of 12 Fresh Cut Pink Roses with a Free Glass Vase	1	0	1	Expedited	Jonathan	345 NORTHERN BLVD			SAINT JAMES	NY	11780-1715	US			false		
111-1460432-6284203	37625486765594	2020-05-09T19:17:26+00:00	2020-05-09T12:17:26-07:00	2020-05-09T19:43:12+00:00	2020-05-14T06:59:59+00:00	-2	zsdlr2lns4vd9xz@marketplace.amazon.com	Marisa	+1 314-282-9402 ext. 17989	ABM010	Arabella Bouquets | Fields of The World Bouquet of Fresh Cut Flowers in a Free Designer Glass Vase	1	0	1	Expedited	Marie Vander Griend	1414 ELM CT APT 250			SHELDON	IA	51201-1853	US		Happy Mother’s Day, Grandma Vander Griend! Thank you for blessing this world with amazing children, grandchildren, and great grandchildren. We send all our love and hope to see you soon! From Marisa Zayat and Family	false		
111-1069535-4746634	69753817012514	2020-05-09T20:00:51+00:00	2020-05-09T13:00:51-07:00	2020-05-09T20:30:59+00:00	2020-05-14T06:59:59+00:00	-2	hp7x3l0nwk8bmhb@marketplace.amazon.com	Douglas	+1 210-728-4548 ext. 58283	ABM010	Arabella Bouquets | Fields of The World Bouquet of Fresh Cut Flowers in a Free Designer Glass Vase	2	1	1	Expedited	Douglas	2276 DARK CANYON CT			LAUGHLIN	NV	89029-0723	US			false		
113-7987413-5741827	13442626974906	2020-05-09T20:35:29+00:00	2020-05-09T13:35:29-07:00	2020-05-09T21:03:30+00:00	2020-05-14T06:59:59+00:00	-2	9ydf7kn88b9s1d7@marketplace.amazon.com	Jeffrey Swope	+1 210-728-4548 ext. 74459	ABM010	Arabella Bouquets | Fields of The World Bouquet of Fresh Cut Flowers in a Free Designer Glass Vase	1	0	1	Expedited	Lisa Swope	6192 MAGPIE DR			LAKELAND	FL	33809-7356	US		Love you Mom! From Jeffrey Swope	false		
113-0289742-6144217	24833900082554	2020-05-09T21:28:11+00:00	2020-05-09T14:28:11-07:00	2020-05-09T21:57:11+00:00	2020-05-14T06:59:59+00:00	-2	hfvz0cf80x2ms7m@marketplace.amazon.com	Peter M Nason	+1 347-448-3190 ext. 20741	ABM010	Arabella Bouquets | Fields of The World Bouquet of Fresh Cut Flowers in a Free Designer Glass Vase	1	0	1	Expedited	Joy Bryant	888 S MICHIGAN AVE UNIT 703			CHICAGO	IL	60605-2251	US			false		
112-3396086-2985005	46075491953602	2020-05-09T22:21:48+00:00	2020-05-09T15:21:48-07:00	2020-05-09T22:51:31+00:00	2020-05-14T06:59:59+00:00	-2	j55cjczhcnngpsw@marketplace.amazon.com	Hannah Riche	+1 347-448-3190 ext. 98837	ABM010	Arabella Bouquets | Fields of The World Bouquet of Fresh Cut Flowers in a Free Designer Glass Vase	1	0	1	Expedited	Vickie Riche	14915 176TH AVE NW			GIG HARBOR	WA	98329-5109	US		Happy Mother's Day! I love you! From Hannah Riche	false		
113-1549151-7469863	24145049638002	2020-05-09T23:44:40+00:00	2020-05-09T16:44:40-07:00	2020-05-10T00:13:07+00:00	2020-05-14T06:59:59+00:00	-2	f240x9r2cdgqmbm@marketplace.amazon.com	Victoria Mosle	+1 314-282-9402 ext. 68539	ABM010	Arabella Bouquets | Fields of The World Bouquet of Fresh Cut Flowers in a Free Designer Glass Vase	1	0	1	Expedited	Gina Rangel	3107 PARKWAY NORTH ST			HAMMOND	IN	46323-1156	US		Happy Mother’s Day! You are such an amazing mother and grandma. We are so lucky to have you. We can’t wait to visit! We love you. From Jimbo, Victoria, and Sofia Rose	false		
112-7815533-7513854	21776272161698	2020-05-10T01:24:56+00:00	2020-05-09T18:24:56-07:00	2020-05-10T01:55:28+00:00	2020-05-14T06:59:59+00:00	-2	vgsb60blff74ckw@marketplace.amazon.com	mirna peralta	+1 210-728-4548 ext. 49677	ABM010	Arabella Bouquets | Fields of The World Bouquet of Fresh Cut Flowers in a Free Designer Glass Vase	1	0	1	Expedited	Gloria escobar	13021 ORLEANS ST			WOODBRIDGE	VA	22192-3708	US			false		
112-0736807-8217863	37193921148498	2020-05-10T03:28:34+00:00	2020-05-09T20:28:34-07:00	2020-05-10T03:57:35+00:00	2020-05-14T06:59:59+00:00	-2	zjxkzcwyntdzcvg@marketplace.amazon.com	Nii Amaah Ofosu-Amaah	+1 314-282-9402 ext. 35317	ABM010	Arabella Bouquets | Fields of The World Bouquet of Fresh Cut Flowers in a Free Designer Glass Vase	1	0	1	Expedited	Patricia O'Donnell	306 Union Wharf West			Boston	MA	02109	US		Hemma - Happy Mother’s Day!  I miss seeing you.  Hope you had a great day and are staying safe through these unprecedented times.  Lots of Love - From Nii Amaah Ofosu-Amaah	false		
114-4724828-6549021	21578937009818	2020-05-10T05:11:09+00:00	2020-05-09T22:11:09-07:00	2020-05-10T05:36:58+00:00	2020-05-14T06:59:59+00:00	-2	g73pq3l6wysmf9k@marketplace.amazon.com	michelle huerta	+1 314-282-9402 ext. 30760	ABM010	Arabella Bouquets | Fields of The World Bouquet of Fresh Cut Flowers in a Free Designer Glass Vase	1	0	1	Expedited	Jullie Shanks	1147 HERBERT AVE UNIT 225			SOUTH LAKE TAHOE	CA	96150-8439	US		Happy mother's day hope you have a beautiful blessed day we miss and love you ❤ From Love michelle huerta	false		
111-4724321-3545862	57013542686154	2020-05-10T09:03:12+00:00	2020-05-10T02:03:12-07:00	2020-05-10T09:31:55+00:00	2020-05-14T06:59:59+00:00	-2	7spykpdj9z9pv8h@marketplace.amazon.com	Demid Fedorov	+1 314-282-9402 ext. 65894	ABM010	Arabella Bouquets | Fields of The World Bouquet of Fresh Cut Flowers in a Free Designer Glass Vase	1	0	1	Expedited	Natalie Fedorova	318 CROWN PARK AVE			GAITHERSBURG	MD	20878-4660	US			false		
113-3843514-4896249	65722531873954	2020-05-10T12:40:00+00:00	2020-05-10T05:40:00-07:00	2020-05-10T13:10:18+00:00	2020-05-14T06:59:59+00:00	-2	y0mvg4mtg74dm8v@marketplace.amazon.com	Kyle	+1 210-728-4548 ext. 28734	ABM010	Arabella Bouquets | Fields of The World Bouquet of Fresh Cut Flowers in a Free Designer Glass Vase	1	0	1	Expedited	Natalie Lynn Brittain	1377 ENOLA RD MORGANTON NC 28655			MORGANTON	NC	28655-7352	US			false		
111-5604468-2297804	29049643627458	2020-05-10T14:12:07+00:00	2020-05-10T07:12:07-07:00	2020-05-10T14:40:13+00:00	2020-05-14T06:59:59+00:00	-2	v4fw86shpvy07zy@marketplace.amazon.com	Jack Liekar	+1 314-282-9402 ext. 63696	ABM010	Arabella Bouquets | Fields of The World Bouquet of Fresh Cut Flowers in a Free Designer Glass Vase	1	0	1	Expedited	Chris Liekar	122 WILL SCARLET RD			MCMURRAY	PA	15317-2514	US			false		
111-9138594-7377037	49933148433970	2020-05-10T15:09:46+00:00	2020-05-10T08:09:46-07:00	2020-05-10T15:28:41+00:00	2020-05-14T06:59:59+00:00	-2	9l33brxrg12vqgt@marketplace.amazon.com	John Walker	+1 210-728-4548 ext. 33692	ABM010	Arabella Bouquets | Fields of The World Bouquet of Fresh Cut Flowers in a Free Designer Glass Vase	1	0	1	Expedited	Gloria Jorque	11431 ASHFORD HAVEN DR			SUGAR LAND	TX	77478-6165	US		HAPPY BIRTHDAY MOM!  Love Keith, John & Henry	false		
112-6271794-3813838	16156098776970	2020-05-10T15:53:48+00:00	2020-05-10T08:53:48-07:00	2020-05-10T16:22:50+00:00	2020-05-14T06:59:59+00:00	-2	2gzq11y4f5c87q5@marketplace.amazon.com	Sam Riley	+1 347-448-3190 ext. 89312	ABM010	Arabella Bouquets | Fields of The World Bouquet of Fresh Cut Flowers in a Free Designer Glass Vase	1	0	1	Expedited	Barbara Riley	9808 WOODLAND VIEW LN			CORDOVA	TN	38018-6618	US		Happy Mother’s day. From Sam Riley	false		
111-9922321-9717847	48632884695778	2020-05-10T16:52:14+00:00	2020-05-10T09:52:14-07:00	2020-05-10T17:22:39+00:00	2020-05-14T06:59:59+00:00	-2	s8vptf1dp61db8n@marketplace.amazon.com	dakota aldrich	+1 347-448-3190 ext. 15608	ABM010	Arabella Bouquets | Fields of The World Bouquet of Fresh Cut Flowers in a Free Designer Glass Vase	1	0	1	Expedited	Mckenzie Moody	16 EDWIN AVE			CLAREMONT	NH	03743-3308	US		I love you, I hope these flowers brighten your day From dakota aldrich	false		
111-5304236-5938618	00978015546074	2020-05-10T17:40:15+00:00	2020-05-10T10:40:15-07:00	2020-05-10T18:07:16+00:00	2020-05-14T06:59:59+00:00	-2	6hg2679plwvg9fy@marketplace.amazon.com	Andrey George	+1 210-728-4548 ext. 93039	ABM010	Arabella Bouquets | Fields of The World Bouquet of Fresh Cut Flowers in a Free Designer Glass Vase	1	0	1	Expedited	Joia Baker	9559 GUNSTON RD			FORT BELVOIR	VA	22060-8054	US			false		
113-1220428-4351427	28269281898434	2020-05-10T18:18:28+00:00	2020-05-10T11:18:28-07:00	2020-05-10T18:47:03+00:00	2020-05-14T06:59:59+00:00	-2	2k26qjq7g8hx13x@marketplace.amazon.com	Joseph J. Radetich	+1 210-728-4548 ext. 70119	ABM010	Arabella Bouquets | Fields of The World Bouquet of Fresh Cut Flowers in a Free Designer Glass Vase	1	0	1	Expedited	Deborah M Peters	1325 WESTWOOD AVE			NORTH TONAWANDA	NEW YORK	14120-2318	US		Happy Mother’s Day! Thank you for all that you do for us and hopefully we will get to see you soon! From Ashley, Joe, Joey and Toby	false		
114-6302435-4464263	42607186079138	2020-05-10T18:13:22+00:00	2020-05-10T11:13:22-07:00	2020-05-10T19:34:28+00:00	2020-05-14T06:59:59+00:00	-2	lt3btyj00nssxws@marketplace.amazon.com	Maxim	+1 412-532-4665 ext. 18806	ABR0022	Arabella Farm Direct Bouquet of 12 Fresh Cut Pink Roses with a Free Glass Vase	1	0	1	Expedited	Kourov Viktor	3685 ELKHORN BLVD APT 323			NORTH HIGHLANDS	CA	95660-3778	US		Hello Mum, Happy birthday! With love from Maxim!	false		
112-9797865-7394622	28899463582306	2020-05-10T19:24:28+00:00	2020-05-10T12:24:28-07:00	2020-05-10T19:53:00+00:00	2020-05-14T06:59:59+00:00	-2	c4fpmqq2t2kq1c9@marketplace.amazon.com	Merve Erkanli	+1 347-448-3190 ext. 93582	ABM010	Arabella Bouquets | Fields of The World Bouquet of Fresh Cut Flowers in a Free Designer Glass Vase	1	0	1	Expedited	Merve Erkanli Idil Kara	717 EMERSON ST APT C1			EVANSTON	IL	60201-3833	US			false		
111-0695375-8517026	19903766275994	2020-05-10T20:33:39+00:00	2020-05-10T13:33:39-07:00	2020-05-10T21:04:04+00:00	2020-05-14T06:59:59+00:00	-2	w1jknjtf87840c7@marketplace.amazon.com	Harley Bundy	+1 314-282-9402 ext. 46093	ABM010	Arabella Bouquets | Fields of The World Bouquet of Fresh Cut Flowers in a Free Designer Glass Vase	1	0	1	Expedited	Lisa Lind	2111 DIAMOND MOUNTAIN RD			GREENVILLE	CA	95947-9642	US			false		
113-8410305-3068240	02554239348202	2020-05-10T21:20:37+00:00	2020-05-10T14:20:37-07:00	2020-05-10T21:50:29+00:00	2020-05-14T06:59:59+00:00	-2	c5qpczdxq1n1bfm@marketplace.amazon.com	Chris	+1 347-448-3190 ext. 69858	ABM010	Arabella Bouquets | Fields of The World Bouquet of Fresh Cut Flowers in a Free Designer Glass Vase	1	0	1	Expedited	Mom Green	2540 BEENE BLVD APT A 206			BOSSIER CITY	LA	71111-5459	US		Happy Mothers Day Mom! From Chris	false		
111-5915672-9892246	34107085550186	2020-05-10T22:33:11+00:00	2020-05-10T15:33:11-07:00	2020-05-10T23:01:09+00:00	2020-05-14T06:59:59+00:00	-2	l38zgk14dndmmnf@marketplace.amazon.com	Jovan White	+1 412-532-4665 ext. 83481	ABM010	Arabella Bouquets | Fields of The World Bouquet of Fresh Cut Flowers in a Free Designer Glass Vase	1	0	1	Expedited	Faye White	67776 AMOS WHITE RD			YULEE	FL	32097-2505	US			false		
114-7182431-7647418	23170670866618	2020-05-10T23:17:03+00:00	2020-05-10T16:17:03-07:00	2020-05-10T23:43:07+00:00	2020-05-14T06:59:59+00:00	-2	73t6tr0nzj5j5j1@marketplace.amazon.com	Valencia Classen	+1 210-728-4548 ext. 25739	ABM010	Arabella Bouquets | Fields of The World Bouquet of Fresh Cut Flowers in a Free Designer Glass Vase	1	0	1	Expedited	Carol Botha	901 RIGGINS RD APT 333			TALLAHASSEE	FL	32308-2201	US		Happy birthday, Carol From Valencia Classen	false		
111-7642076-6834667	66675780414114	2020-05-10T23:43:45+00:00	2020-05-10T16:43:45-07:00	2020-05-11T00:13:32+00:00	2020-05-14T06:59:59+00:00	-2	14vcl6v786vnjjt@marketplace.amazon.com	laura gallagher	+1 347-448-3190 ext. 99556	ABM010	Arabella Bouquets | Fields of The World Bouquet of Fresh Cut Flowers in a Free Designer Glass Vase	2	1	1	Expedited	Pat Valasky	1939 LONGVIEW DR			LANCASTER	PA	17601-4719	US			false		
113-3417779-3074605	69929349735114	2020-05-11T00:20:06+00:00	2020-05-10T17:20:06-07:00	2020-05-11T00:49:29+00:00	2020-05-14T06:59:59+00:00	-2	9trjk6jwtmh0jqc@marketplace.amazon.com	kara ann desmarais	+1 347-448-3190 ext. 38380	ABM010	Arabella Bouquets | Fields of The World Bouquet of Fresh Cut Flowers in a Free Designer Glass Vase	1	0	1	Expedited	Andy and Annette Desmarais	3312 MENDON RD			CUMBERLAND	RI	02864-2130	US		Mom,  Happy Mother’s Day!  We love and miss you. From Denis and Kara	false		
113-8964515-1927402	28722043767178	2020-05-11T02:32:34+00:00	2020-05-10T19:32:34-07:00	2020-05-11T03:00:52+00:00	2020-05-14T06:59:59+00:00	-2	yst4ly2ylzg55d1@marketplace.amazon.com	Erick Harrington	+1 314-282-9402 ext. 89098	ABM010	Arabella Bouquets | Fields of The World Bouquet of Fresh Cut Flowers in a Free Designer Glass Vase	1	0	1	Expedited	Naomi Kramer	19 SEWARD DR			WOODBURY	NY	11797-2608	US		Happy Mother’s Day! Beautiful flowers for a beautiful woman! We miss and love you lots!!! From Love, Ronda, Savannah & Nathan	false		
113-9897151-5436229	66873584165050	2020-05-11T04:52:41+00:00	2020-05-10T21:52:41-07:00	2020-05-11T05:21:37+00:00	2020-05-14T06:59:59+00:00	-2	vhxx8v6shwrbwjw@marketplace.amazon.com	Brittany	+1 210-728-4548 ext. 99261	ABM010	Arabella Bouquets | Fields of The World Bouquet of Fresh Cut Flowers in a Free Designer Glass Vase	1	0	1	Expedited	Michael Youngblood	753 BURNT HOUSE PT			COLONIAL BEACH	VA	22443-5716	US		Cookie!! Get better fast! From Love Hazel and Mojo	false		
112-3311257-3224213	25462330182826	2020-05-11T11:54:10+00:00	2020-05-11T04:54:10-07:00	2020-05-11T12:21:21+00:00	2020-05-15T06:59:59+00:00	-3	b4cmgkmzy0nqp08@marketplace.amazon.com	kyle siniard	+1 347-448-3190 ext. 11956	ABM010	Arabella Bouquets | Fields of The World Bouquet of Fresh Cut Flowers in a Free Designer Glass Vase	1	0	1	Expedited	Sheri Siniard	23070 PINEY CREEK DR			ATHENS	AL	35613-8147	US		Couldn’t ask for a better mama!  Thank you for everything you’ve done for me.   I love you, From Your Favorite Son	false		
114-5407706-5397035	58584017249786	2020-05-11T14:13:08+00:00	2020-05-11T07:13:08-07:00	2020-05-11T14:41:57+00:00	2020-05-15T06:59:59+00:00	-3	xcnhjc5bsplrfbj@marketplace.amazon.com	Zach	+1 347-448-3190 ext. 43645	ABM010	Arabella Bouquets | Fields of The World Bouquet of Fresh Cut Flowers in a Free Designer Glass Vase	1	0	1	Expedited	Thanas Russakis	7205 CITRUS PARK BLVD			FORT PIERCE	FL	34951-1291	US		Happy Mother's Day to the best mom I could have asked for.  Love you. From Zach	false		
111-4076360-8797057	68664272547866	2020-05-11T15:38:05+00:00	2020-05-11T08:38:05-07:00	2020-05-11T16:11:41+00:00	2020-05-15T06:59:59+00:00	-3	bwn0y8ry9j0lb3b@marketplace.amazon.com	mindy	+1 347-448-3190 ext. 12372	ABM010	Arabella Bouquets | Fields of The World Bouquet of Fresh Cut Flowers in a Free Designer Glass Vase	1	0	1	Expedited	mary	E9018 COUNTY ROAD 440			WETMORE	MI	49895-9104	US		I hope your Mothers Day was the BEST because you are!!! I LOVE you LOADS!! From mindy	false		
114-4977500-8577034	60981656372442	2020-05-11T18:23:47+00:00	2020-05-11T11:23:47-07:00	2020-05-11T18:54:01+00:00	2020-05-15T06:59:59+00:00	-3	tkmmw4qzcppqg56@marketplace.amazon.com	Barbara  Morris	+1 314-282-9402 ext. 71832	ABM010	Arabella Bouquets | Fields of The World Bouquet of Fresh Cut Flowers in a Free Designer Glass Vase	1	0	1	Expedited	Andrew Morris	4809 W 149TH ST			LEAWOOD	KS	66224-3623	US			false		
113-4473981-7096269	45108519646946	2020-05-11T18:44:01+00:00	2020-05-11T11:44:01-07:00	2020-05-11T18:58:57+00:00	2020-05-15T06:59:59+00:00	-3	mzxzfzfr2p7tkjc@marketplace.amazon.com	Sr Mary E Olaguer	+1 314-282-9402 ext. 79322	ABR0022	Arabella Farm Direct Bouquet of 12 Fresh Cut Pink Roses with a Free Glass Vase	1	0	1	Expedited	Sr Margaret Annunciata Rosa, rgs	BETHANY HEALTH CARE CENTER	97 BETHANY RD		FRAMINGHAM	MA	01702-7237	US		Dearest Sister Annunciata Our Love and Prayers are with you from Your Sisters in Wolcott, CT	false		
113-0188843-5447477	08763792443658	2020-05-11T19:59:26+00:00	2020-05-11T12:59:26-07:00	2020-05-11T20:28:21+00:00	2020-05-15T06:59:59+00:00	-3	67cz516yqs8358k@marketplace.amazon.com	tammy deangelis	+1 314-282-9402 ext. 14926	ABM010	Arabella Bouquets | Fields of The World Bouquet of Fresh Cut Flowers in a Free Designer Glass Vase	1	0	1	Expedited	Mrs. Hope Blackert	1200 COUNTRY CLUB DR APT 4306			LARGO	FL	33771-2180	US		Happy Mothers Day Mom!! To the Best Mother EVER!!! Thank you for always being there for me. All our Love, Tammy, Steve, and Nico	false		
112-7285499-7008244	40985899193746	2020-05-11T21:38:38+00:00	2020-05-11T14:38:38-07:00	2020-05-11T22:08:56+00:00	2020-05-15T06:59:59+00:00	-3	690cpplhl9h3m32@marketplace.amazon.com	Calderon	+1 347-448-3190 ext. 75013	ABM010	Arabella Bouquets | Fields of The World Bouquet of Fresh Cut Flowers in a Free Designer Glass Vase	1	0	1	Expedited	Laura veraza	302 W MAIN ST APT 1 APARTAMENTO			ARCADIA	WI	54612-1221	US			false		
114-0128037-8187426	69104869367298	2020-05-11T23:46:42+00:00	2020-05-11T16:46:42-07:00	2020-05-12T00:17:14+00:00	2020-05-15T06:59:59+00:00	-3	7tbr1g8yqw3mvwj@marketplace.amazon.com	Lori Pech	+1 412-532-4665 ext. 02593	ABM010	Arabella Bouquets | Fields of The World Bouquet of Fresh Cut Flowers in a Free Designer Glass Vase	1	0	1	Expedited	Mr. and Mrs Ron Edwards	13742 W GREENVIEW DR			SUN CITY WEST	AZ	85375-5440	US			false		
114-0338605-5185026	53178972373730	2020-05-11T23:39:28+00:00	2020-05-11T16:39:28-07:00	2020-05-12T00:18:02+00:00	2020-05-15T06:59:59+00:00	-3	dh7glwldqb72w6g@marketplace.amazon.com	Nada	+1 210-728-4548 ext. 32015	ABR0022	Arabella Farm Direct Bouquet of 12 Fresh Cut Pink Roses with a Free Glass Vase	1	0	1	Expedited	Dania Arafeh	4734 West 130th Street, Unit B			Hawthorne	CA	90250	US			false		
114-6776713-4156232	44083183459194	2020-05-12T00:26:57+00:00	2020-05-11T17:26:57-07:00	2020-05-12T00:57:25+00:00	2020-05-15T06:59:59+00:00	-3	b42dlw949wxc3zt@marketplace.amazon.com	Guadalupe barrera jr	+1 347-448-3190 ext. 93860	ABR0022	Arabella Farm Direct Bouquet of 12 Fresh Cut Pink Roses with a Free Glass Vase	1	0	1	Expedited	Ernestina Halfecorn	15705 LOGAN LN			HAYWARD	WI	54843-4255	US			false		
112-6471968-7177052	29586114475538	2020-05-12T02:34:19+00:00	2020-05-11T19:34:19-07:00	2020-05-12T03:02:29+00:00	2020-05-15T06:59:59+00:00	-3	jlnvtp8f1zppw2h@marketplace.amazon.com	Martha	+1 347-448-3190 ext. 49391	ABM010	Arabella Bouquets | Fields of The World Bouquet of Fresh Cut Flowers in a Free Designer Glass Vase	1	0	1	Expedited	Santiago Paguaga	1022 SW 12TH ST			MIAMI	FL	33129-1825	US		Happy mothers day. Sorry for the gift being late. From Santiago	false		
112-0181830-3305837	37288133723802	2020-05-12T07:22:50+00:00	2020-05-12T00:22:50-07:00	2020-05-12T07:41:48+00:00	2020-05-16T06:59:59+00:00	-4	tn0rz6tc4l62lmq@marketplace.amazon.com	Shane Lawson	+1 763-225-9463 ext. 89827	ABM010	Arabella Bouquets | Fields of The World Bouquet of Fresh Cut Flowers in a Free Designer Glass Vase	1	0	1	Standard	Ruby Dickens	178 WILLIAMS BR			NAOMA	WV	25140-9675	US		Hi Ruby, Happy Birthday! From Shane Lawson	false		
111-1637132-3535450	06281562729666	2020-05-12T09:11:56+00:00	2020-05-12T02:11:56-07:00	2020-05-12T09:42:06+00:00	2020-05-16T06:59:59+00:00	-4	9dwz70s0hg3g0j8@marketplace.amazon.com	Monte Confer	+1 347-448-3190 ext. 66806	ABR0033	Arabella Farm Direct Bouquet of 12 Fresh Cut Orange Roses with a Free Glass Vase	1	0	1	Expedited	Monte confer	27 QUEENSLAND CIR			PONTE VEDRA	FL	32081-6061	US			false		
114-9437787-4524231	60394819379570	2020-05-12T09:42:10+00:00	2020-05-12T02:42:10-07:00	2020-05-12T10:09:44+00:00	2020-05-16T06:59:59+00:00	-4	bbbp40zjgx3pc0x@marketplace.amazon.com	Michelle Frechette	+1 314-282-9402 ext. 20987	ABM010	Arabella Bouquets | Fields of The World Bouquet of Fresh Cut Flowers in a Free Designer Glass Vase	1	0	1	Expedited	Kay Dubose	236 CONCORD HILL DR			ALTAMONT	NY	12009-2504	US		Dear Kay, We are so sorry for your loss.  Please know we are thinking of you at this sad time. Love, Garth and Michelle	false		
113-0690824-4127459	41548615883090	2020-05-12T10:58:19+00:00	2020-05-12T03:58:19-07:00	2020-05-12T11:23:07+00:00	2020-05-16T06:59:59+00:00	-4	m17wdstlggvy3lz@marketplace.amazon.com	Linda Weinberg	+1 314-282-9402 ext. 41481	ABR0033	Arabella Farm Direct Bouquet of 12 Fresh Cut Orange Roses with a Free Glass Vase	1	0	1	Expedited	Mary Lu Horkay	1380 E MEDICAL CENTER DR RM W106			SAINT GEORGE	UT	84790-2123	US		We love you and are praying for a successful recovery. Life is good.  Texas is looking forward to your return.  Lots of bird sanctuaries to visit too.   Grand babies looking forward to seeing Mary Lu. From Linda Weinberg	false		
111-9573739-1640249	63615188665106	2020-05-12T11:13:10+00:00	2020-05-12T04:13:10-07:00	2020-05-12T11:52:50+00:00	2020-05-16T06:59:59+00:00	-4	mzxp1gjr9rfyyp4@marketplace.amazon.com	jimmeka mack	+1 347-448-3190 ext. 28647	ABR0055	Arabella Farm Direct Bouquet of 12 Stems of Fresh Cut Hot Pink Roses in a Free Designer Glass Vase	1	0	1	Expedited	Jimmeka L Mack	3126 LENWAY ST			DALLAS	TX	75215-3000	US			false		
111-6601889-4032267	06314537487738	2020-05-12T11:48:45+00:00	2020-05-12T04:48:45-07:00	2020-05-12T12:17:01+00:00	2020-05-16T06:59:59+00:00	-4	xl3jdn1sfxy22f4@marketplace.amazon.com	Valerie Chrstopherson	+1 210-728-4548 ext. 00924	ABM010	Arabella Bouquets | Fields of The World Bouquet of Fresh Cut Flowers in a Free Designer Glass Vase	1	0	1	Expedited	Valerie Chrstopherson	4734 CLAREMONT PARK DR			LAKEWOOD RANCH	FL	34211-9417	US		Happy Birthday! From The Christopherson Family	false		
111-1499416-4472254	18965814498890	2020-05-12T12:12:53+00:00	2020-05-12T05:12:53-07:00	2020-05-12T12:30:19+00:00	2020-05-16T06:59:59+00:00	-4	d2rzdg49fwxj3pp@marketplace.amazon.com	Candi Kaplan	+1 210-728-4548 ext. 04697	ABR0055	Arabella Farm Direct Bouquet of 12 Stems of Fresh Cut Hot Pink Roses in a Free Designer Glass Vase	1	0	1	Expedited	Janet Lambert	5610 WISCONSIN AVE APT 1109			CHEVY CHASE	MD	20815-4419	US			false		
114-9230109-4272237	03351249652682	2020-05-12T12:18:39+00:00	2020-05-12T05:18:39-07:00	2020-05-12T12:44:03+00:00	2020-05-16T06:59:59+00:00	-4	96c07l4s0c0j31s@marketplace.amazon.com	James H Bodenstedt	+1 210-728-4548 ext. 09033	ABM010	Arabella Bouquets | Fields of The World Bouquet of Fresh Cut Flowers in a Free Designer Glass Vase	1	0	1	Expedited	Carmela Santucci	7 POND HILL RD			CHAPPAQUA	NY	10514-2531	US		Thinking of you! Love DeAnna, James and Marguerite From James H Bodenstedt	false		
113-8133142-8360242	05710888950698	2020-05-12T12:21:44+00:00	2020-05-12T05:21:44-07:00	2020-05-12T12:45:40+00:00	2020-05-16T06:59:59+00:00	-4	dyq6p2q8n0l1lcr@marketplace.amazon.com	Tim Habeck	+1 210-728-4548 ext. 89578	ABM010	Arabella Bouquets | Fields of The World Bouquet of Fresh Cut Flowers in a Free Designer Glass Vase	1	0	1	Expedited	Harriet Habeck	2625 SHAW AVE			CUYAHOGA FALLS	OHIO	44223-1535	US		Happy belated Mother’s Day! Hope these brighten up your day - We love you! Tim and Kim	false		
111-7023225-3883403	09954365072994	2020-05-12T12:24:25+00:00	2020-05-12T05:24:25-07:00	2020-05-12T12:46:48+00:00	2020-05-16T06:59:59+00:00	-4	rwt2xn3qljpz4wn@marketplace.amazon.com	Bill Gowanloch	+1 347-448-3190 ext. 08094	ABM010	Arabella Bouquets | Fields of The World Bouquet of Fresh Cut Flowers in a Free Designer Glass Vase	1	0	1	Expedited	The Gowanloch's	7725 WHITE ASH ST			ORLANDO	FL	32819-7170	US		A cheery arrangement for all of my Gowanloch's Love Grace From Grace Gowanloch	false		
114-4867977-5693025	00177504442402	2020-05-12T12:20:19+00:00	2020-05-12T05:20:19-07:00	2020-05-12T12:50:45+00:00	2020-05-16T06:59:59+00:00	-4	4qnnxhg4m052bvh@marketplace.amazon.com	Randolph Williams	+1 347-448-3190 ext. 00880	ABM010	Arabella Bouquets | Fields of The World Bouquet of Fresh Cut Flowers in a Free Designer Glass Vase	1	0	1	Expedited	randy and cherry williams	3308 MARY AVE			COLUMBUS	OHIO	43204-1797	US			false		
113-2346402-4394644	03897492152442	2020-05-12T12:28:07+00:00	2020-05-12T05:28:07-07:00	2020-05-12T12:55:41+00:00	2020-05-16T06:59:59+00:00	-4	dyq6p2q8n0l1lcr@marketplace.amazon.com	Tim Habeck	+1 314-282-9402 ext. 15029	ABM010	Arabella Bouquets | Fields of The World Bouquet of Fresh Cut Flowers in a Free Designer Glass Vase	1	0	1	Expedited	Kathy Spiegel	3180 KAREN WHITE DR			SUWANEE	GA	30024-1358	US			false		
111-1464989-3471405	61131318860530	2020-05-12T12:28:58+00:00	2020-05-12T05:28:58-07:00	2020-05-12T12:59:23+00:00	2020-05-16T06:59:59+00:00	-4	lgf89qlccxbx0gt@marketplace.amazon.com	Dale W. Tuott	+1 210-728-4548 ext. 34340	ABM010	Arabella Bouquets | Fields of The World Bouquet of Fresh Cut Flowers in a Free Designer Glass Vase	1	0	1	Expedited	Charlotte McPherson	673 Copper Head Circle			Saint Augustine	FL	32092	US			false		
113-1530073-9187467	58903464677914	2020-05-12T13:08:36+00:00	2020-05-12T06:08:36-07:00	2020-05-12T13:38:58+00:00	2020-05-16T06:59:59+00:00	-4	y95nsvs7jm1s0jf@marketplace.amazon.com	Deryca	+1 210-728-4548 ext. 76263	ABR0033	Arabella Farm Direct Bouquet of 12 Fresh Cut Orange Roses with a Free Glass Vase	1	0	1	Expedited	Cheryl Johnson	4913 PEPPER DR			HARRISBURG	NC	28075-0348	US			false		
113-4906205-6326626	23469003954634	2020-05-12T13:25:38+00:00	2020-05-12T06:25:38-07:00	2020-05-12T13:54:41+00:00	2020-05-16T06:59:59+00:00	-4	tvz1vr1w4xb0qhl@marketplace.amazon.com	Brianna Santos	+1 314-282-9402 ext. 07188	ABM010	Arabella Bouquets | Fields of The World Bouquet of Fresh Cut Flowers in a Free Designer Glass Vase	1	0	1	Expedited	Rebecca Williams	109 EARLWOOD RD			PITTSBURGH	PA	15235-1904	US		Sorry for your loss mom. We love you and we loved Lourdes. Sending you a bright and cheery flower arrangement to brighten your day! From Brianna Santos	false		
112-7255807-9818607	44476311967322	2020-05-12T13:31:42+00:00	2020-05-12T06:31:42-07:00	2020-05-12T14:00:07+00:00	2020-05-16T06:59:59+00:00	-4	z9v0mdnllwm0ftz@marketplace.amazon.com	Julie Hutchinson	+1 347-448-3190 ext. 65861	ABR0055	Arabella Farm Direct Bouquet of 12 Stems of Fresh Cut Hot Pink Roses in a Free Designer Glass Vase	1	0	1	Expedited	Lidia Saltos	1933 LACOMBE AVE			BRONX	NY	10473-2625	US		Happy birthday my beautiful mommy! God bless you. I love you. From Julie Hutchinson	false		
113-6901412-2407442	27807526632850	2020-05-12T13:33:34+00:00	2020-05-12T06:33:34-07:00	2020-05-12T14:03:01+00:00	2020-05-16T06:59:59+00:00	-4	wx725gbxy45f2f7@marketplace.amazon.com	Angus Shipe	+1 210-728-4548 ext. 32888	ABR0033	Arabella Farm Direct Bouquet of 12 Fresh Cut Orange Roses with a Free Glass Vase	1	0	1	Expedited	Jill Marie Scaggs	2881 W LONG DR APT F			LITTLETON	CO	80120-8172	US		Enjoy your gift! From Angus Shipe	false		
113-0076710-2412220	06368151519682	2020-05-12T13:29:55+00:00	2020-05-12T06:29:55-07:00	2020-05-12T14:04:03+00:00	2020-05-16T06:59:59+00:00	-4	gn7tlwklvtkp1gq@marketplace.amazon.com	Timothy Dillon	+1 314-282-9402 ext. 77420	ABR0022	Arabella Farm Direct Bouquet of 12 Fresh Cut Pink Roses with a Free Glass Vase	1	0	1	Expedited	Nicole Mitchell	4413 ALPINE WAY			MURFREESBORO	TN	37129-7014	US		Thanks for being a friend. Love you like words can't express From Tim	false		
113-0413449-4205003	38827606488722	2020-05-12T13:36:43+00:00	2020-05-12T06:36:43-07:00	2020-05-12T14:04:16+00:00	2020-05-16T06:59:59+00:00	-4	r62n61xtf1s8k9v@marketplace.amazon.com	Blake	+1 347-448-3190 ext. 16275	ABR0055	Arabella Farm Direct Bouquet of 12 Stems of Fresh Cut Hot Pink Roses in a Free Designer Glass Vase	1	0	1	Expedited	Brenna Kress	1845 HARMONY HEIGHTS LN APT 204			RAPID CITY	SD	57702-6245	US		Surprise! I love you so much Princess & I cannot wait to come home and wake up next to you thanks for being the Best Girl in the world From Blake	false		
112-8345245-8972202	32635512861042	2020-05-12T13:37:13+00:00	2020-05-12T06:37:13-07:00	2020-05-12T14:06:44+00:00	2020-05-16T06:59:59+00:00	-4	4qg4xs5xj1rf200@marketplace.amazon.com	Harrison Duran	+1 347-448-3190 ext. 48653	ABR0022	Arabella Farm Direct Bouquet of 12 Fresh Cut Pink Roses with a Free Glass Vase	1	0	1	Expedited	Harrison Duran	1801 NW 51ST ST			MIAMI	FL	33142-3722	US			false		
113-2147907-9298613	56103588112410	2020-05-12T13:41:01+00:00	2020-05-12T06:41:01-07:00	2020-05-12T14:09:30+00:00	2020-05-16T06:59:59+00:00	-4	mxnvlp186khtjq3@marketplace.amazon.com	sophie	+1 763-225-9463 ext. 43612	ABR0022	Arabella Farm Direct Bouquet of 12 Fresh Cut Pink Roses with a Free Glass Vase	1	0	1	Expedited	Felecia	2429 DEL LAGO DR			FT LAUDERDALE	FL	33316-2301	US		Happy Mother’s Day  We Love You!!!!!!!! From Avantis and Sophie	false		
111-3865803-6300225	00907436862746	2020-05-12T14:01:23+00:00	2020-05-12T07:01:23-07:00	2020-05-12T14:20:04+00:00	2020-05-16T06:59:59+00:00	-4	z3k8csv6s3m70q4@marketplace.amazon.com	Kelvin	+1 210-728-4548 ext. 76439	ABR012	Arabella Farm Direct Bouquet of 18 Fresh Cut Pink Roses with a Free Glass Vase	1	0	1	Expedited	Mari Cravey	SUNRISE OF LOWER MAKEFIELD SUNRISE OF LOWER MAKEFIELD	631 STONY HILL RD YARDLEY		YARDLEY	PA	19067-4418	US		Hello sweetheart, kindly take this as a token of my love for you. You are my everything baby, may your smile blossom more beautiful than the flower in your hands  . I love you more each day to the moon and back Mari Cravey From Kelvin Cravey	false		
112-0422682-0168253	34327577692738	2020-05-12T14:00:32+00:00	2020-05-12T07:00:32-07:00	2020-05-12T14:24:25+00:00	2020-05-16T06:59:59+00:00	-4	wynjc2sgx8k3vs4@marketplace.amazon.com	RICK  GLYNN	+1 347-448-3190 ext. 83747	ABR0055	Arabella Farm Direct Bouquet of 12 Stems of Fresh Cut Hot Pink Roses in a Free Designer Glass Vase	1	0	1	Expedited	JENNIFER GLYNN	107 CLEOPATRA DR			PLEASANT HILL	CA	94523-3409	US		Happy Birthday Jennifer! Wish we could deliver these in person!  Enjoy! Love you, Mom & Dad	false		
114-1869369-8907416	49209864353882	2020-05-12T13:56:31+00:00	2020-05-12T06:56:31-07:00	2020-05-12T14:25:58+00:00	2020-05-16T06:59:59+00:00	-4	9hxfggklskpxddr@marketplace.amazon.com	Samuel Cruz	+1 347-448-3190 ext. 38773	ABR0022	Arabella Farm Direct Bouquet of 12 Fresh Cut Pink Roses with a Free Glass Vase	1	0	1	Expedited	Damaris Cruz	12525 W BUCHANAN ST			AVONDALE	AZ	85323-8248	US		Happy Birthday Dee!  Love ya!	false		
111-9796304-4313056	64333959355786	2020-05-12T14:03:15+00:00	2020-05-12T07:03:15-07:00	2020-05-12T14:30:06+00:00	2020-05-16T06:59:59+00:00	-4	nlvhmvnx0171jn6@marketplace.amazon.com	Mylee Perkins	+1 347-448-3190 ext. 00213	ABM010	Arabella Bouquets | Fields of The World Bouquet of Fresh Cut Flowers in a Free Designer Glass Vase	1	0	1	Expedited	Ms. Peyton Adair	3900 N CHARLES ST APT 502			BALTIMORE	MD	21218-1724	US		Peyton, Congratulations 2020 graduate 🎓 of Johns Hopkins University. We are so proud! Love you From Grandma, auntie Mylee, Mom,Auntie Josette	false		
112-2161219-0244231	44260794637898	2020-05-12T14:06:40+00:00	2020-05-12T07:06:40-07:00	2020-05-12T14:35:38+00:00	2020-05-16T06:59:59+00:00	-4	c937wt627sqqswr@marketplace.amazon.com	Tammy	+1 412-532-4665 ext. 48524	ABM010	Arabella Bouquets | Fields of The World Bouquet of Fresh Cut Flowers in a Free Designer Glass Vase	1	0	1	Expedited	Zohreh Pourali	10 ALFALFA DR			SOUTH GRAFTON	MA	01560-1241	US		Happy Mother’s Day beautiful mama! We love and miss you so much! From Tammy, Armin and Isla	false		
114-1963272-6261020	34977892077850	2020-05-12T14:08:52+00:00	2020-05-12T07:08:52-07:00	2020-05-12T14:37:23+00:00	2020-05-16T06:59:59+00:00	-4	kzpsf5hsjllt05h@marketplace.amazon.com	Casey	+1 210-728-4548 ext. 12947	ABR0022	Arabella Farm Direct Bouquet of 12 Fresh Cut Pink Roses with a Free Glass Vase	1	0	1	Expedited	Karen Lewis	4609 BOXFORD RD			VIRGINIA BEACH	VA	23456-4854	US		Happy Mother’s Day to the most beautiful mom. Sorry the flowers showed up late From Your favorite child, Sean	false		
112-5602411-3905810	14887132641626	2020-05-10T08:10:04+00:00	2020-05-10T01:10:04-07:00	2020-05-12T14:38:32+00:00	2020-05-16T06:59:59+00:00	-4	g6n4hxkqcdzs6wz@marketplace.amazon.com	Zorak	+1 347-448-3190 ext. 25461	ABR0055	Arabella Farm Direct Bouquet of 12 Stems of Fresh Cut Hot Pink Roses in a Free Designer Glass Vase	1	0	1	Expedited	Marian Clare	43 ELIZABETH DR			BELLA VISTA	AR	72715-8417	US		I love you Mom From Zorak	false		
113-5048453-3573806	01817741595986	2020-05-12T14:12:23+00:00	2020-05-12T07:12:23-07:00	2020-05-12T14:40:27+00:00	2020-05-16T06:59:59+00:00	-4	pfmxv5m97xm8d5k@marketplace.amazon.com	Catherine L. Lavin	+1 347-448-3190 ext. 17836	ABM010	Arabella Bouquets | Fields of The World Bouquet of Fresh Cut Flowers in a Free Designer Glass Vase	1	0	1	Expedited	Ximena Saenz	266 SYCAMORE DR			EAST STROUDSBURG	PA	18301-8236	US		Hi Ximena, I am afraid these will arrive after your actually birthday but know that I love you and hope you had a very Happy Sweet Sixteen! Love, Cathy	false		
113-9424747-4153043	38316606191570	2020-05-12T14:12:01+00:00	2020-05-12T07:12:01-07:00	2020-05-12T14:42:00+00:00	2020-05-16T06:59:59+00:00	-4	95jqwqmxw7qqcmf@marketplace.amazon.com	maggie knerr	+1 210-728-4548 ext. 72310	ABM010	Arabella Bouquets | Fields of The World Bouquet of Fresh Cut Flowers in a Free Designer Glass Vase	1	0	1	Expedited	BEA KNERR	1607 JAMES ST			SINKING SPRING	PA	19608-1426	US			false		
111-2367347-3831452	35801662381674	2020-05-12T14:17:19+00:00	2020-05-12T07:17:19-07:00	2020-05-12T14:45:57+00:00	2020-05-16T06:59:59+00:00	-4	p22n7zcsxsrtvn5@marketplace.amazon.com	Jennifer A Wright	+1 210-728-4548 ext. 43959	ABM010	Arabella Bouquets | Fields of The World Bouquet of Fresh Cut Flowers in a Free Designer Glass Vase	1	0	1	Expedited	Sonia Rimer	202 PERSIA ESTATES DR			ROGERSVILLE	TN	37857-5346	US		Love you Aunt Sonia! From Jenner, Jim Bob and Sissy	false		
113-4607217-7089039	46762175138594	2020-05-12T14:22:15+00:00	2020-05-12T07:22:15-07:00	2020-05-12T14:49:42+00:00	2020-05-16T06:59:59+00:00	-4	wf7yvh42zdbl85k@marketplace.amazon.com	Nicole Rosado	+1 347-448-3190 ext. 54456	ABR0022	Arabella Farm Direct Bouquet of 12 Fresh Cut Pink Roses with a Free Glass Vase	1	0	1	Expedited	Luz I Lopez	112 IRENE ST			ELGIN	TX	78621-1255	US		Thank you for being the best Mami in the World!  We love you! From Moe, Nicole, X, Abby, Maddy, Ella & Snoopy	false		
111-8966570-5199459	21305938231738	2020-05-12T14:22:25+00:00	2020-05-12T07:22:25-07:00	2020-05-12T14:51:39+00:00	2020-05-16T06:59:59+00:00	-4	hsyf19yvg36vw7h@marketplace.amazon.com	Lenore Boerner	+1 347-448-3190 ext. 03161	ABR0055	Arabella Farm Direct Bouquet of 12 Stems of Fresh Cut Hot Pink Roses in a Free Designer Glass Vase	1	0	1	Expedited	Samantha Lanz	81 BOWDOIN ST APT A220			WINTHROP	ME	04364-1256	US		Hi Samantha,  Happy Mother's Day  From Mom and Sisters	false		
114-2690790-2662615	57057883719970	2020-05-12T14:37:56+00:00	2020-05-12T07:37:56-07:00	2020-05-12T15:07:13+00:00	2020-05-16T06:59:59+00:00	-4	f775rp7z8lc77ty@marketplace.amazon.com	Chase	+1 210-728-4548 ext. 32065	ABM010	Arabella Bouquets | Fields of The World Bouquet of Fresh Cut Flowers in a Free Designer Glass Vase	1	0	1	Expedited	Linda Lanier	8304 INDIGO ROW			CHARLOTTE	NORTH CAROLINA	28277-3290	US		Happy Mother’s Day! From Chase	false		
112-6147775-6953047	04328336636002	2020-05-12T14:39:51+00:00	2020-05-12T07:39:51-07:00	2020-05-12T15:09:36+00:00	2020-05-16T06:59:59+00:00	-4	f1pkzvg7k545j41@marketplace.amazon.com	Alaina	+1 347-448-3190 ext. 99820	ABR014	Arabella Bouquets 18 Stems of Fresh Cut White Roses in a Free Designer Glass Vase	1	0	1	Expedited	Alaina Witherell	5002 WHISPERING HOLW			PALM BEACH GARDENS	FL	33418-3536	US		Enjoy your gift! From Alaina	false		
114-4068036-6951461	60424721896242	2020-05-12T14:49:43+00:00	2020-05-12T07:49:43-07:00	2020-05-12T15:17:03+00:00	2020-05-16T06:59:59+00:00	-4	r9nk35yxrtsmx3j@marketplace.amazon.com	John Patrick Terrano III	+1 763-225-9463 ext. 19808	ABR0033	Arabella Farm Direct Bouquet of 12 Fresh Cut Orange Roses with a Free Glass Vase	1	0	1	Expedited	JeanMarie Holmes	8 KELLY RIDGE RD			CARMEL	NY	10512-2005	US		Happy Belated Birthday..lol Just wanted you to know how much I love you and treasure our longtime friendship. You r in my prayers and thoughts. Feel better my oldest friend❤️	false		
111-8838366-8888249	44232522438226	2020-05-12T14:49:27+00:00	2020-05-12T07:49:27-07:00	2020-05-12T15:17:29+00:00	2020-05-16T06:59:59+00:00	-4	kty4kj01lm3xtk9@marketplace.amazon.com	Anthony Davey	+1 347-448-3190 ext. 69356	ABM010	Arabella Bouquets | Fields of The World Bouquet of Fresh Cut Flowers in a Free Designer Glass Vase	1	0	1	Expedited	Anthony Davey	6133 S OAK PARK AVE			CHICAGO	IL	60638-4092	US		Happy 9yr Anniversary My Love ! You are my Favorite person ! And I'm so lucky to spend my whole life with you ! I love you so much Baby 💗💗 From Anthony Davey	false		
111-7266421-0056241	06376001832146	2020-05-12T14:50:56+00:00	2020-05-12T07:50:56-07:00	2020-05-12T15:21:00+00:00	2020-05-16T06:59:59+00:00	-4	pr11t3wjzy6hjq3@marketplace.amazon.com	Anna Lehmann	+1 210-728-4548 ext. 46817	ABM002	Arabella Bouquets Fresh Cut White Calla Lilies in a Free Designer Glass Vase	1	0	1	Expedited	Anna Lehmann	5 WATERFORD CIR			NACOGDOCHES	TX	75965-8714	US			false		
111-7897147-5392255	01957817987978	2020-05-12T15:04:09+00:00	2020-05-12T08:04:09-07:00	2020-05-12T15:27:42+00:00	2020-05-16T06:59:59+00:00	-4	1r2kp27d7qgwxd5@marketplace.amazon.com	Ethel L. Crawford	+1 314-282-9402 ext. 85505	ABM010	Arabella Bouquets | Fields of The World Bouquet of Fresh Cut Flowers in a Free Designer Glass Vase	1	0	1	Expedited	Catherine Young	1301 MULBERRY ST			KILMICHAEL	MS	39747-9414	US		Celebrating you!! Servant of God on this Special Mother's Day. 🙏❤ From Aunt Ethel & Family	false		
112-5206472-9432243	61598059468754	2020-05-12T14:57:37+00:00	2020-05-12T07:57:37-07:00	2020-05-12T15:27:48+00:00	2020-05-16T06:59:59+00:00	-4	rq6k60b21zjf826@marketplace.amazon.com	Alicia sandavol	+1 210-728-4548 ext. 94168	ABR0022	Arabella Farm Direct Bouquet of 12 Fresh Cut Pink Roses with a Free Glass Vase	1	0	1	Expedited	Alicia sandavol	5969 LARIMER LN			BILLINGS	MT	59105-4961	US			false		
113-8616222-1482611	65283856110178	2020-05-12T15:09:49+00:00	2020-05-12T08:09:49-07:00	2020-05-12T15:41:07+00:00	2020-05-16T06:59:59+00:00	-4	zjg5h26tpdd7r2v@marketplace.amazon.com	Kunal Kathuria	+1 763-225-9463 ext. 67755	ABM010	Arabella Bouquets | Fields of The World Bouquet of Fresh Cut Flowers in a Free Designer Glass Vase	1	0	1	Expedited	Kunal Kathuria	11136 MARTHA WAY			FULTON	MD	20759-2210	US			false		
111-0728456-4404219	05153864451546	2020-05-12T15:18:07+00:00	2020-05-12T08:18:07-07:00	2020-05-12T15:41:59+00:00	2020-05-16T06:59:59+00:00	-4	ck4dl3z1g5s8j5k@marketplace.amazon.com	Christine M Pastore	+1 314-282-9402 ext. 56969	ABR0022	Arabella Farm Direct Bouquet of 12 Fresh Cut Pink Roses with a Free Glass Vase	1	0	1	Expedited	Miss Sarah Barber	5901 CENTER DR APT 552			LOS ANGELES	CA	90045-8975	US		Happy Birthday Sarah!! Have the best 21st birthday in the history of 21st birthdays (well it might be the most unique I guess with social distance but hey you can still buy stuff)!! Love you! Aunt Chris and Uncle Dominick	false		
113-3883093-8808228	01885342679370	2020-05-11T15:14:34+00:00	2020-05-11T08:14:34-07:00	2020-05-12T15:42:32+00:00	2020-05-16T06:59:59+00:00	-4	yzqwc8dsfwvk21s@marketplace.amazon.com	Dawn Fleming	+1 347-448-3190 ext. 06820	ABM010	Arabella Bouquets | Fields of The World Bouquet of Fresh Cut Flowers in a Free Designer Glass Vase	1	0	1	Expedited	Gina BurrellPOPCO2563178	7683 CURTIS DR			GLOUCESTER	VA	23061-4215	US		Gina, We hope that you are feeling better!  Best wishes for a speedy recovery. Your Friends at VIMS	true	PCO2563178	
114-5125888-7793016	11871933622786	2020-05-12T15:19:13+00:00	2020-05-12T08:19:13-07:00	2020-05-12T15:46:42+00:00	2020-05-16T06:59:59+00:00	-4	w3thc634n393c02@marketplace.amazon.com	marion haines hart	+1 314-282-9402 ext. 59330	ABR0033	Arabella Farm Direct Bouquet of 12 Fresh Cut Orange Roses with a Free Glass Vase	1	0	1	Expedited	Sue Hart	20 WHITEHOUSE AVE			POUGHKEEPSIE	NY	12601-4940	US			false		
114-3491301-3297037	08562054017002	2020-05-12T15:22:29+00:00	2020-05-12T08:22:29-07:00	2020-05-12T15:49:25+00:00	2020-05-16T06:59:59+00:00	-4	zkm1hhh9j956ly4@marketplace.amazon.com	LaVerne Daisy Miller	+1 347-448-3190 ext. 84649	ABR0055	Arabella Farm Direct Bouquet of 12 Stems of Fresh Cut Hot Pink Roses in a Free Designer Glass Vase	1	0	1	Expedited	Diane Green	GARDEN APARTMENT 397 MACON ST			BROOKLYN	NY	11233-3972	US		Happy Birthday!  Love you From LaVerne, Doreen, Helen, and Bernard, Jr.	false		
112-5518665-5765831	63672579105282	2020-05-12T15:31:35+00:00	2020-05-12T08:31:35-07:00	2020-05-12T15:53:05+00:00	2020-05-16T06:59:59+00:00	-4	nmgzkfpysbfvyl9@marketplace.amazon.com	Susan Parke Monroe	+1 314-282-9402 ext. 88208	ABM010	Arabella Bouquets | Fields of The World Bouquet of Fresh Cut Flowers in a Free Designer Glass Vase	1	0	1	Expedited	Sarah Parke	3134 LINCOLN ST APT C			CARLSBAD	CA	92008-2970	US		To brighter and happier days! Love, Mom From Susan Parke Monroe	false		
112-5904578-3537015	39877304658146	2020-05-12T15:29:21+00:00	2020-05-12T08:29:21-07:00	2020-05-12T15:58:07+00:00	2020-05-16T06:59:59+00:00	-4	v6dmh6zb3k6yv2p@marketplace.amazon.com	Paula Christie	+1 347-448-3190 ext. 23350	ABM010	Arabella Bouquets | Fields of The World Bouquet of Fresh Cut Flowers in a Free Designer Glass Vase	1	0	1	Expedited	Doris Christie	9 DONALD DR			SHREWSBURY	PA	17361-1540	US		Mom, A little something to brighten your day. We hope to see you soon. Take care. Love, Paula & Jeff	false		
114-8549014-8620252	37574533604538	2020-05-12T15:32:23+00:00	2020-05-12T08:32:23-07:00	2020-05-12T16:00:08+00:00	2020-05-16T06:59:59+00:00	-4	8s9mlhzsxwkcr6d@marketplace.amazon.com	Korin	+1 314-282-9402 ext. 64955	ABM010	Arabella Bouquets | Fields of The World Bouquet of Fresh Cut Flowers in a Free Designer Glass Vase	1	0	1	Expedited	KELLY CLARY	5574 UNION LEVEL RD			SOUTH HILL	VA	23970-6148	US		Happy Birthday beautiful Sis! I hope you enjoy your day!  We cherish and celebrate you every day!  Love and miss you much! ~Kori & family	false		
113-1031393-5353027	18303197615866	2020-05-12T15:37:53+00:00	2020-05-12T08:37:53-07:00	2020-05-12T16:01:58+00:00	2020-05-16T06:59:59+00:00	-4	1gj84ctn2nxgsrn@marketplace.amazon.com	David C Brenton	+1 347-448-3190 ext. 76281	ABM010	Arabella Bouquets | Fields of The World Bouquet of Fresh Cut Flowers in a Free Designer Glass Vase	1	0	1	Expedited	Renee Joy	8 N STATE ST			DUBOIS	PA	15801-1719	US			false		
111-2091057-0560230	61826097203338	2020-05-12T15:39:46+00:00	2020-05-12T08:39:46-07:00	2020-05-12T16:06:06+00:00	2020-05-16T06:59:59+00:00	-4	hfrv6dtnjdwqggv@marketplace.amazon.com	Kevin Wayt	+1 210-728-4548 ext. 12628	ABM010	Arabella Bouquets | Fields of The World Bouquet of Fresh Cut Flowers in a Free Designer Glass Vase	1	0	1	Expedited	Bob and Flora DeVries	2743 TOUMEY LN			CORONA	CA	92881-3540	US		We’ve been thinking of you ! Sending our love and prayers! Remembering with love your mom Nettie! Hope to see you soon! From Love Kevin and Marisa	false		
112-2291323-8473031	04752450718810	2020-05-12T15:43:41+00:00	2020-05-12T08:43:41-07:00	2020-05-12T16:11:05+00:00	2020-05-16T06:59:59+00:00	-4	dfdxln6fd257w29@marketplace.amazon.com	susie rogers	+1 347-448-3190 ext. 69172	ABR0022	Arabella Farm Direct Bouquet of 12 Fresh Cut Pink Roses with a Free Glass Vase	1	0	1	Expedited	Mandana Rogers	99 GOLD ST			BROOKLYN	NY	11201-1503	US		Just a bit of cheer I hope they smell.  Thinking of you lovely.  Hugs  Susie, Jim, Finny and Keeva	false		
112-0702287-4517865	58101175217554	2020-05-12T15:48:22+00:00	2020-05-12T08:48:22-07:00	2020-05-12T16:17:57+00:00	2020-05-16T06:59:59+00:00	-4	qv45zf72smdr8rx@marketplace.amazon.com	Julie Joy Stilwell	+1 314-282-9402 ext. 74663	ABM010	Arabella Bouquets | Fields of The World Bouquet of Fresh Cut Flowers in a Free Designer Glass Vase	1	0	1	Expedited	Jocelyn Stuart	4001 VIA CAMPESINA			PALOS VERDES ESTATES	CA	90274-1470	US		Happy Birthday! From Jason, Julie and Brody	false		
113-6508164-6153846	21235408017818	2020-05-12T15:50:44+00:00	2020-05-12T08:50:44-07:00	2020-05-12T16:20:36+00:00	2020-05-16T06:59:59+00:00	-4	hd94psdz7splm2r@marketplace.amazon.com	susann loveridge	+1 763-225-9463 ext. 92978	ABR0022	Arabella Farm Direct Bouquet of 12 Fresh Cut Pink Roses with a Free Glass Vase	1	0	1	Expedited	Stephanie Huber	2355 SW NEAL RD			PORT SAINT LUCIE	FL	34953-5790	US			false		
114-6241052-2813827	12757267192514	2020-05-12T16:03:06+00:00	2020-05-12T09:03:06-07:00	2020-05-12T16:25:48+00:00	2020-05-16T06:59:59+00:00	-4	rfs48xbxhmsyc3t@marketplace.amazon.com	Alex maxwell	+1 347-448-3190 ext. 40053	ABR0066	Arabella Bouquets | 12 Stems of Fresh Cut White Roses in a Free Designer Glass Vase	1	0	1	Expedited	Samantha Demayo	613 SUNNYHILL TER			RIVER VALE	NJ	07675-5917	US		To: The Demayo Family,  With heartfelt condolences. Keeping you in our thoughts and prayers.   From,  Lily Weber, Jenn Roll, Danielle Maxwell, Julianna Tirelli and Andria Dileo	false		
114-4065811-8316252	55778035015442	2020-05-12T16:01:01+00:00	2020-05-12T09:01:01-07:00	2020-05-12T16:26:13+00:00	2020-05-16T06:59:59+00:00	-4	hhdvs24sl156z6b@marketplace.amazon.com	Jerry Herman	+1 314-282-9402 ext. 87443	ABM010	Arabella Bouquets | Fields of The World Bouquet of Fresh Cut Flowers in a Free Designer Glass Vase	1	0	1	Expedited	Delores Herman, C/O Villages of Jackson Creek	3980 South Jackson Drive	Room 429		Independence,	MIssouri	64057	US		Mom Thinking of you today and everyday!  Love, Jerry and Brenda	false		
113-9018071-4402600	39578129710010	2020-05-12T15:58:20+00:00	2020-05-12T08:58:20-07:00	2020-05-12T16:27:30+00:00	2020-05-16T06:59:59+00:00	-4	6m25p93y27l07fh@marketplace.amazon.com	Carmen Williams	+1 412-532-4665 ext. 99719	ABR0022	Arabella Farm Direct Bouquet of 12 Fresh Cut Pink Roses with a Free Glass Vase	1	0	1	Expedited	Ann Williams	7055 WILSON LN			BETHESDA	MD	20817-4946	US		Love Steve, Carmen, Sam,Jake,isabel and olivia❤️	false		
112-6835406-9021801	14011991184466	2020-05-12T15:57:26+00:00	2020-05-12T08:57:26-07:00	2020-05-12T16:27:31+00:00	2020-05-16T06:59:59+00:00	-4	0tlwj4rj6z97tdw@marketplace.amazon.com	Mary Riedlin	+1 314-282-9402 ext. 00287	ABM010	Arabella Bouquets | Fields of The World Bouquet of Fresh Cut Flowers in a Free Designer Glass Vase	1	0	1	Expedited	Sally Reinhart	5115 POLARIS CT			ATLANTIC BEACH	FL	32233-4584	US			false		
112-0026172-2512229	07356732029514	2020-05-12T16:03:45+00:00	2020-05-12T09:03:45-07:00	2020-05-12T16:29:49+00:00	2020-05-16T06:59:59+00:00	-4	vwy9bdrmn86sqc3@marketplace.amazon.com	MJ Clancy	+1 314-282-9402 ext. 13253	ABR0022	Arabella Farm Direct Bouquet of 12 Fresh Cut Pink Roses with a Free Glass Vase	1	0	1	Expedited	Katie Kaliszak	17507 OLD FARM LN			NEW FREEDOM	PA	17349-8702	US		Hi Katie! Happy 50th birthday week!! Love and miss you!   From Jeannie and Bob Clancy	false		
112-1219309-8221851	25013536954634	2020-05-12T16:01:47+00:00	2020-05-12T09:01:47-07:00	2020-05-12T16:30:09+00:00	2020-05-16T06:59:59+00:00	-4	mcw2d9h62j2r11b@marketplace.amazon.com	stephanie morehead	+1 347-448-3190 ext. 48664	ABR0022	Arabella Farm Direct Bouquet of 12 Fresh Cut Pink Roses with a Free Glass Vase	1	0	1	Expedited	Debbie mckee	7411 STONESFIELD PL			SPRING	TX	77389-2117	US		Get well soon Debbie, we love you! From stephanie and mom	false		
114-5045305-3506614	08642526704522	2020-05-12T16:06:43+00:00	2020-05-12T09:06:43-07:00	2020-05-12T16:32:26+00:00	2020-05-16T06:59:59+00:00	-4	vylqqkvnly0cycv@marketplace.amazon.com	Rita Ryder	+1 763-225-9463 ext. 49652	ABR0022	Arabella Farm Direct Bouquet of 12 Fresh Cut Pink Roses with a Free Glass Vase	1	0	1	Expedited	Ann biderbost	23909 state route 203			Monroe	Wa	98272	US		Hi Ann and Pat, Thanks for the meat, greatly appreciated. Pie was great! Love Rita and Michelle	false		
111-9976928-4773835	03816936817034	2020-05-12T16:02:22+00:00	2020-05-12T09:02:22-07:00	2020-05-12T16:34:45+00:00	2020-05-16T06:59:59+00:00	-4	0lj8fw9f1t4m41v@marketplace.amazon.com	Stephen Stolle	+1 210-728-4548 ext. 72248	ABR013	Arabella Farm Direct Bouquet of 18 Fresh Cut Yellow Roses with a Free Glass Vase	1	0	1	Expedited	Ms. Amy Cooper	61 OXFORD DR			EAST HARTFORD	CT	06118-2644	US		Dear Amy,  Thinking of you!  Love, Steve & JoAnn	false		
112-9036883-8766638	59057476651178	2020-05-12T16:16:38+00:00	2020-05-12T09:16:38-07:00	2020-05-12T16:45:07+00:00	2020-05-16T06:59:59+00:00	-4	1zjnzqy04m4c7nf@marketplace.amazon.com	Robbie	+1 347-448-3190 ext. 93130	ABSR003	Arabella Bouquets Fresh Cut Yellow Spray Roses in a Free Designer Glass Vase	1	0	1	Expedited	Lynwood Cross	7977 NEW CASTLE CV			SOUTHAVEN	MS	38672-6363	US		Dear Aunt Lynn,  May God provide comfort, peace, and love during this time. God bless you. Sincerely, Robbie, Matthew & Family	false		
114-8136153-6525834	21320243999402	2020-05-12T16:30:57+00:00	2020-05-12T09:30:57-07:00	2020-05-12T16:52:06+00:00	2020-05-16T06:59:59+00:00	-4	pmmg0vrlwdhmqzj@marketplace.amazon.com	Lawrence A Rowell	+1 314-282-9402 ext. 34888	ABM010	Arabella Bouquets | Fields of The World Bouquet of Fresh Cut Flowers in a Free Designer Glass Vase	1	0	1	Expedited	Marylyn Rowell	821 NW 39TH ST			OKLAHOMA CITY	OK	73118-7119	US		Hi Mom - I love you!! You are the best honky mama ever! I hope you like the flowers.   Lawrence	false		
114-3503013-2117848	68386918924402	2020-05-12T16:27:58+00:00	2020-05-12T09:27:58-07:00	2020-05-12T16:54:52+00:00	2020-05-16T06:59:59+00:00	-4	yj0kp29rxvpyn2z@marketplace.amazon.com	Sylvia Heck	+1 314-282-9402 ext. 64300	ABM010	Arabella Bouquets | Fields of The World Bouquet of Fresh Cut Flowers in a Free Designer Glass Vase	1	0	1	Expedited	Holley Shelley	11420 SAINT MICHAELS DR			DALLAS	TX	75230-2436	US		Congratulations!!! Sylvia and I are so happy for you!!!  We cannot wait to meet Henry. From David Heck	false		
111-4471161-1906649	07324220830706	2020-05-10T16:36:47+00:00	2020-05-10T09:36:47-07:00	2020-05-12T17:07:53+00:00	2020-05-16T06:59:59+00:00	-4	nzjm1z59197dckk@marketplace.amazon.com	tannah tate	+1 347-448-3190 ext. 56989	ABM010	Arabella Bouquets | Fields of The World Bouquet of Fresh Cut Flowers in a Free Designer Glass Vase	1	0	1	Standard	Tannah tate	900 ORO WAY			LODI	CA	95240-0652	US		Gods plan is so perfect! I love you so very much! You make me strong, everyday i wake up with a smile because i know im loved because of you!!! From tannah tate	false		
111-7163408-9884219	48348032668466	2020-05-12T16:44:31+00:00	2020-05-12T09:44:31-07:00	2020-05-12T17:08:22+00:00	2020-05-16T06:59:59+00:00	-4	m1txfs0d4q42lcs@marketplace.amazon.com	sima busquila	+1 347-448-3190 ext. 05492	ABR0022	Arabella Farm Direct Bouquet of 12 Fresh Cut Pink Roses with a Free Glass Vase	1	0	1	Expedited	Erika Cordova	100 W 31ST ST APT 40J			NEW YORK	NY	10001-3648	US		Erikita,  We wish you all the best with health and happiness.  From Brazil, our best regards.  Kisses	false		
112-7479243-6640226	35285046851658	2020-05-12T17:12:25+00:00	2020-05-12T10:12:25-07:00	2020-05-12T17:34:40+00:00	2020-05-16T06:59:59+00:00	-4	5t530wmlpbjrrpd@marketplace.amazon.com	Tyler	+1 210-728-4548 ext. 24018	ABR0022	Arabella Farm Direct Bouquet of 12 Fresh Cut Pink Roses with a Free Glass Vase	1	0	1	Expedited	Tyler Beaver	10241 MILLSTONE DR APT 6205			LENEXA	KS	66220-2709	US		Happy Birthday Bailey  love Granny From Granny	false		
112-8963809-8139408	62151386741986	2020-05-12T17:10:24+00:00	2020-05-12T10:10:24-07:00	2020-05-12T17:39:15+00:00	2020-05-16T06:59:59+00:00	-4	wb967zythx339xt@marketplace.amazon.com	Steven A Offley	+1 412-532-4665 ext. 31677	ABR0022	Arabella Farm Direct Bouquet of 12 Fresh Cut Pink Roses with a Free Glass Vase	1	0	1	Expedited	steven ali offley	1110 E 165TH ST APT 2B			BRONX	NY	10459-2521	US		For Belinda offley. From Steven A Offley	false		
112-5989310-5153048	68340548736242	2020-05-12T17:21:05+00:00	2020-05-12T10:21:05-07:00	2020-05-12T17:46:02+00:00	2020-05-16T06:59:59+00:00	-4	fj0txrsnbhmqmhr@marketplace.amazon.com	Michelle Casella	+1 314-282-9402 ext. 87631	ABR0022	Arabella Farm Direct Bouquet of 12 Fresh Cut Pink Roses with a Free Glass Vase	1	0	1	Expedited	Kerin and Hunter Smith	8403 CIMA SERENA CT			AUSTIN	TX	78759-8257	US		In loving memory of Cyrus. We are so sorry for your loss. From Brenna, Michelle and Katie	false		
112-9327670-8093842	11687523288290	2020-05-12T17:27:02+00:00	2020-05-12T10:27:02-07:00	2020-05-12T17:54:24+00:00	2020-05-16T06:59:59+00:00	-4	k0fv0t2sq2b10wv@marketplace.amazon.com	KeyanaK	+1 210-728-4548 ext. 62744	ABR0066	Arabella Bouquets | 12 Stems of Fresh Cut White Roses in a Free Designer Glass Vase	1	0	1	Expedited	Judith Riley	302 MORGAN TRACE LN			GOLDSBORO	NC	27530-7595	US		Because you deserve flowers everyday! ❤️ Happy Mother’s Day From Your Son	false		
113-2176793-1676242	15077008602922	2020-05-12T17:25:38+00:00	2020-05-12T10:25:38-07:00	2020-05-12T17:54:46+00:00	2020-05-16T06:59:59+00:00	-4	b6b5s2d07l8y3yh@marketplace.amazon.com	Irvette Ladd	+1 347-448-3190 ext. 98500	ABR0033	Arabella Farm Direct Bouquet of 12 Fresh Cut Orange Roses with a Free Glass Vase	1	0	1	Expedited	Evelyn Burgess	330 E HARRIS PL APT A			EDEN	NC	27288-9002	US		MOM  THANK YOU FOR ALLOWING GOD TO USE YOU TO BRING ME INTO THIS WORLD and FOR SHOWING ME UNCONDITIONAL LOVE . Irvette	false		
114-1138793-8136250	47650093581626	2020-05-12T17:35:43+00:00	2020-05-12T10:35:43-07:00	2020-05-12T18:00:32+00:00	2020-05-16T06:59:59+00:00	-4	mcrjnhj5r4wqq0v@marketplace.amazon.com	Tatyana	+1 347-448-3190 ext. 01940	ABR0033	Arabella Farm Direct Bouquet of 12 Fresh Cut Orange Roses with a Free Glass Vase	1	0	1	Expedited	Natalia	94 AMITY DR			CHESTERBROOK	PA	19087-5508	US		Happy birthday, dear Natasha.  Many happy returns of the day.  Enjoy your gift! From Tatyana and Vladimir	false		
112-2286541-4396242	66315877953466	2020-05-12T17:32:49+00:00	2020-05-12T10:32:49-07:00	2020-05-12T18:00:53+00:00	2020-05-16T06:59:59+00:00	-4	3ct1cg3stc1h9rv@marketplace.amazon.com	Alyssa Spencer	+1 347-448-3190 ext. 73921	ABR0033	Arabella Farm Direct Bouquet of 12 Fresh Cut Orange Roses with a Free Glass Vase	1	0	1	Expedited	Alyssa Lauren Spencer	29711 N YELLOW BEE DR			SAN TAN VALLEY	AZ	85143-3984	US		Hi Mom! I love you so much, and I miss you tons. Here's some flowers I hope you enjoy - they're in colors that made me think of you! I can't wait until you come to Budapest! Thanks for being such a wonderful mom - I love you! Alyssa	false		
112-7756806-9892256	49015965356562	2020-05-12T17:37:04+00:00	2020-05-12T10:37:04-07:00	2020-05-12T18:06:27+00:00	2020-05-16T06:59:59+00:00	-4	cfmh1z4rjb4w3bh@marketplace.amazon.com	Duncan Pankopf	+1 347-448-3190 ext. 60712	ABM010	Arabella Bouquets | Fields of The World Bouquet of Fresh Cut Flowers in a Free Designer Glass Vase	1	0	1	Expedited	Pankopf	11 WAKEFIELD DR APT 2204			ASHEVILLE	NC	28803-4157	US		Hi Mom we love you and think of you everyday!  Looking forward to seeing you soon with hugs! From Dunc and girls	false		
112-8998111-2641026	68155857181306	2020-05-12T17:39:43+00:00	2020-05-12T10:39:43-07:00	2020-05-12T18:06:30+00:00	2020-05-16T06:59:59+00:00	-4	8dsxqzrjkcvbvrf@marketplace.amazon.com	Bernadette MacFadyen	+1 210-728-4548 ext. 13455	ABR014	Arabella Bouquets 18 Stems of Fresh Cut White Roses in a Free Designer Glass Vase	1	0	1	Expedited	Blanca Becerra	409 DELAWARE CIR			BOLINGBROOK	IL	60440-1466	US		Blanca and family, Thinking of you and all your family is going through.  Your friends, The MacFadyens	false		
112-6414156-1861825	36839216244666	2020-05-12T17:44:27+00:00	2020-05-12T10:44:27-07:00	2020-05-12T18:11:24+00:00	2020-05-16T06:59:59+00:00	-4	xbclym32kv2hdys@marketplace.amazon.com	Cyerra Stokes	+1 412-532-4665 ext. 13867	ABR0022	Arabella Farm Direct Bouquet of 12 Fresh Cut Pink Roses with a Free Glass Vase	1	0	1	Expedited	Felicha Brown	2404 N ELMWOOD AVE			PEORIA	IL	61604-3206	US		Happy Mother’s Day from me and Tony ❤️Your the best gift from God love you always! From Tariya & Tony	false		
112-3300670-8087420	02526192630650	2020-05-12T17:44:16+00:00	2020-05-12T10:44:16-07:00	2020-05-12T18:14:02+00:00	2020-05-16T06:59:59+00:00	-4	wnysllh8fz67zxs@marketplace.amazon.com	Frances Click	+1 347-448-3190 ext. 37840	ABM010	Arabella Bouquets | Fields of The World Bouquet of Fresh Cut Flowers in a Free Designer Glass Vase	1	0	1	Expedited	Patty Neal	212 PALM BLVD N APT A			NICEVILLE	FL	32578-1267	US		Happy Mother's Day! You are the best!!! We love you!!!  Love Frankie, Zac, and Zig Zag From Frances Click	false		
112-6622034-8813063	04046708190474	2020-05-12T17:46:38+00:00	2020-05-12T10:46:38-07:00	2020-05-12T18:14:28+00:00	2020-05-16T06:59:59+00:00	-4	tkxysw4gmqt3gxs@marketplace.amazon.com	carolyn hawley	+7192390781	ABM010	Arabella Bouquets | Fields of The World Bouquet of Fresh Cut Flowers in a Free Designer Glass Vase	1	0	1	Expedited	Erika Hawley	720 D ST			SALIDA	CO	81201-2728	US		Happy Birthday Erika! Love Torrey, Carolyn & Nathaniel	false		
114-3910259-9098627	04231016120946	2020-05-12T18:00:46+00:00	2020-05-12T11:00:46-07:00	2020-05-12T18:27:01+00:00	2020-05-16T06:59:59+00:00	-4	l7727t2z8bcxn7f@marketplace.amazon.com	Sally McKechnie	+1 347-448-3190 ext. 48375	ABM010	Arabella Bouquets | Fields of The World Bouquet of Fresh Cut Flowers in a Free Designer Glass Vase	1	0	1	Expedited	Sarah Gillespie	926 MELLON ST			PITTSBURGH	PA	15206-2130	US		Happy 40th Birthday, Sarah!! Love, Aunt Sal and Uncle Les From Sally McKechnie	false		
111-7845255-9432240	42347353880058	2020-05-12T18:12:50+00:00	2020-05-12T11:12:50-07:00	2020-05-12T18:29:00+00:00	2020-05-16T06:59:59+00:00	-4	qhky5zf5jm9bsvw@marketplace.amazon.com	GERALDINE CRAWFORD	+1 314-282-9402 ext. 31077	ABR0022	Arabella Farm Direct Bouquet of 12 Fresh Cut Pink Roses with a Free Glass Vase	1	0	1	Expedited	Rose Green	770 BROOK AVE APT C			BRONX	NY	10451-4675	US		Thank you for being such a good friend.  This bouquet of flowers and strawberries is just a token to show you I care and love you.   Rose From GERALDINE CRAWFORD	false		
111-9359430-8292264	13624751433130	2020-05-12T18:06:04+00:00	2020-05-12T11:06:04-07:00	2020-05-12T18:29:16+00:00	2020-05-16T06:59:59+00:00	-4	2plz3sp4qhsb90w@marketplace.amazon.com	Patsy Greene	+1 314-282-9402 ext. 58046	ABM010	Arabella Bouquets | Fields of The World Bouquet of Fresh Cut Flowers in a Free Designer Glass Vase	1	0	1	Expedited	Mary Campos	4201 EAST AVE			STICKNEY	IL	60402-4418	US		🎊Happy Birthday, Mary🎉 Love you, Patsy and Bud	false		
114-9312356-2830610	35518518904506	2020-05-12T18:02:28+00:00	2020-05-12T11:02:28-07:00	2020-05-12T18:32:28+00:00	2020-05-16T06:59:59+00:00	-4	2dlt669rpnmwlg0@marketplace.amazon.com	Aaron Van de Car	+1 210-728-4548 ext. 76845	ABR0022	Arabella Farm Direct Bouquet of 12 Fresh Cut Pink Roses with a Free Glass Vase	1	0	1	Expedited	Sue Ruggeri	29 HOUGHTON LN			NEW BOSTON	NH	03070-3805	US		Happy Mother's Day!  Love,   Aaron	false		
112-8081166-5369045	66596264604122	2020-05-12T18:12:30+00:00	2020-05-12T11:12:30-07:00	2020-05-12T18:41:38+00:00	2020-05-16T06:59:59+00:00	-4	krj41lxqkpvyg2h@marketplace.amazon.com	Jeff Earle	+1 347-448-3190 ext. 72750	ABM010	Arabella Bouquets | Fields of The World Bouquet of Fresh Cut Flowers in a Free Designer Glass Vase	1	0	1	Expedited	Jeffrey Earle	7771 Via Capri			Burbank	California	91504	US			false		
111-5589310-9614637	38527109604986	2020-05-12T18:17:13+00:00	2020-05-12T11:17:13-07:00	2020-05-12T18:44:53+00:00	2020-05-16T06:59:59+00:00	-4	r5582jdx9snsk8m@marketplace.amazon.com	Brian Staeden	+1 314-282-9402 ext. 25671	ABM010	Arabella Bouquets | Fields of The World Bouquet of Fresh Cut Flowers in a Free Designer Glass Vase	1	0	1	Expedited	Staeden Family	808 74 1/2 Ave N			Brooklyn Park	MN	55444-2620	US		Hi Michelle Praying you get well soon! From Lucas, Julia, Tammy, Brian and Roxie	false		
112-0382221-9255445	09956768980946	2020-05-12T18:18:27+00:00	2020-05-12T11:18:27-07:00	2020-05-12T18:49:10+00:00	2020-05-16T06:59:59+00:00	-4	wcx2sw5ncpvkxzl@marketplace.amazon.com	Lindsey Fellows	+1 210-728-4548 ext. 82938	ABR0022	Arabella Farm Direct Bouquet of 12 Fresh Cut Pink Roses with a Free Glass Vase	1	0	1	Expedited	Peggy Finewood	84910 East Port Bay Rd			Wolcott	New York	14950	US			false		
111-6715235-5520220	60822996158234	2020-05-12T18:20:21+00:00	2020-05-12T11:20:21-07:00	2020-05-12T18:49:34+00:00	2020-05-16T06:59:59+00:00	-4	k72r9xd0spf6ykc@marketplace.amazon.com	Dianne	+1 347-448-3190 ext. 93404	ABM0033	Arabella Farm Direct Bouquet of Fresh Cut White Hydrangea with a Free Glass Vase	1	0	1	Expedited	Dawn Lindley	46 LAWTON RD APT 1			RIVERSIDE	IL	60546-2601	US		Happy Birthday, Love Art, Dianne and Mike	false		
113-4492721-9261808	64797431054474	2020-05-12T18:25:38+00:00	2020-05-12T11:25:38-07:00	2020-05-12T18:50:40+00:00	2020-05-16T06:59:59+00:00	-4	z5x2w03q5wgt6lr@marketplace.amazon.com	Felioe	+1 347-448-3190 ext. 25276	ABR0022	Arabella Farm Direct Bouquet of 12 Fresh Cut Pink Roses with a Free Glass Vase	1	0	1	Expedited	Felipe	1680 COLLINGWOOD AVE			SAN JOSE	CA	95125-3807	US		Eu não tenho nem palavras para dizer o quanto eu te amo, isso é apenas um lembrança, não é nada perto do que quero fazer por você. Obrigado por me fazer a pessoa mais feliz do mundo ♥️ Feliz 1 ano, eu te amo! From Felipe	false		
113-1996936-7520234	10415160953090	2020-05-12T18:30:59+00:00	2020-05-12T11:30:59-07:00	2020-05-12T18:53:03+00:00	2020-05-16T06:59:59+00:00	-4	dc9hk534fvfjmrw@marketplace.amazon.com	Edward P. Muller	+1 210-728-4548 ext. 68745	ABM010	Arabella Bouquets | Fields of The World Bouquet of Fresh Cut Flowers in a Free Designer Glass Vase	1	0	1	Expedited	Eva Muller	411 VIADUCT RD			CALLICOON	NY	12723-5042	US		Happy birthday, Weeze!  Have a great day, and a great year!!  Love, Ted and Rose	false		
113-7121264-5005001	33732321380778	2020-05-12T18:47:15+00:00	2020-05-12T11:47:15-07:00	2020-05-12T19:04:19+00:00	2020-05-16T06:59:59+00:00	-4	cprcpy5d5nblgs2@marketplace.amazon.com	rosie walker	+1 210-728-4548 ext. 86216	ABM010	Arabella Bouquets | Fields of The World Bouquet of Fresh Cut Flowers in a Free Designer Glass Vase	1	0	1	Expedited	Ryan Phillip Hausher Jr	1901 WOODHILL RD			EDMOND	OK	73025-2927	US			false		
111-9148499-8406664	32645189459562	2020-05-12T18:34:45+00:00	2020-05-12T11:34:45-07:00	2020-05-12T19:05:04+00:00	2020-05-16T06:59:59+00:00	-4	92qy36v8gbsbn9j@marketplace.amazon.com	elvin	+1 314-282-9402 ext. 97229	ABR0022	Arabella Farm Direct Bouquet of 12 Fresh Cut Pink Roses with a Free Glass Vase	1	0	1	Expedited	Genesis Ayala	148-06 35th ave apt1b			Flushing	New York	11354	US			false		
111-3751747-6963445	21847093155442	2020-05-12T18:35:12+00:00	2020-05-12T11:35:12-07:00	2020-05-12T19:05:35+00:00	2020-05-16T06:59:59+00:00	-4	10n1r2xy6k9704l@marketplace.amazon.com	Teena lowe	+1 763-225-9463 ext. 87531	ABR0022	Arabella Farm Direct Bouquet of 12 Fresh Cut Pink Roses with a Free Glass Vase	1	0	1	Expedited	Dianne E Chadburn	515 HARRIS ST RM 207 PRESTIGE	ASSISTED LIVING		MARYSVILLE	CA	95901-4400	US			false		
111-8132602-8807440	15196542485426	2020-05-12T18:45:42+00:00	2020-05-12T11:45:42-07:00	2020-05-12T19:12:09+00:00	2020-05-16T06:59:59+00:00	-4	smxgvgybq1ww7y7@marketplace.amazon.com	LuAnn Bohnsack	+1 314-282-9402 ext. 08908	ABM010	Arabella Bouquets | Fields of The World Bouquet of Fresh Cut Flowers in a Free Designer Glass Vase	1	0	1	Expedited	Mrs Ray Ruona	860 BITTERSWEET DR			NORTHBROOK	IL	60062-3702	US		Happy birthday, Auntie! We send our love. From Lu and Dave	false		
111-7207393-3965860	39197945404666	2020-05-12T18:46:04+00:00	2020-05-12T11:46:04-07:00	2020-05-12T19:12:44+00:00	2020-05-16T06:59:59+00:00	-4	3xw7ws0l008lzv1@marketplace.amazon.com	Katherine	+1 347-448-3190 ext. 67931	ABM0033	Arabella Farm Direct Bouquet of Fresh Cut White Hydrangea with a Free Glass Vase	1	0	1	Expedited	Karen Parker and The Price Family	12222 MARINE VIEW DR			EDMONDS	WA	98026-3130	US		Dear Mrs. Parker and Family, We are completely saddened to hear about the passing of Harvey.  Please know you are all in our thoughts and prayers.  Love, Josh, Kat, Addie and Evan	false		
111-1243699-2532232	36262435497538	2020-05-12T18:51:49+00:00	2020-05-12T11:51:49-07:00	2020-05-12T19:16:54+00:00	2020-05-16T06:59:59+00:00	-4	mywv5vtrhk649w0@marketplace.amazon.com	David	+1 347-448-3190 ext. 44934	ABR0022	Arabella Farm Direct Bouquet of 12 Fresh Cut Pink Roses with a Free Glass Vase	1	0	1	Expedited	Miriam	2131 N COLLINS ST # 433-726			ARLINGTON	TX	76011-2849	US		Enjoy this gift of Love and hopefully brings a smile to you face. Keep being the positive person you are my Queen!! From David	false		
112-7082284-0769033	07875104400930	2020-05-12T18:49:34+00:00	2020-05-12T11:49:34-07:00	2020-05-12T19:18:31+00:00	2020-05-16T06:59:59+00:00	-4	mxxfqsd7258761r@marketplace.amazon.com	robert sutherland	+1 347-448-3190 ext. 79693	ABR0022	Arabella Farm Direct Bouquet of 12 Fresh Cut Pink Roses with a Free Glass Vase	1	0	1	Expedited	Olivia Stricklin	170 JESUIT BEND DR			BELLE CHASSE	LA	70037-4164	US		Happy Birthday Olivia!   I love you! From Robert Sutherland	false		
111-5564998-2545834	34856585038586	2020-05-12T18:59:20+00:00	2020-05-12T11:59:20-07:00	2020-05-12T19:22:19+00:00	2020-05-16T06:59:59+00:00	-4	csz7rlmc2759c5b@marketplace.amazon.com	Gayle Easley	+1 763-225-9463 ext. 78471	ABR0033	Arabella Farm Direct Bouquet of 12 Fresh Cut Orange Roses with a Free Glass Vase	1	0	1	Expedited	Judy Mackintosh	1238 E HAMPTON DR			STATESBORO	GA	30461-2985	US		Happy Birthday!!!!! We love you. John, Gayle & Johnny	false		
111-1053186-8279438	26502351988082	2020-05-12T18:53:30+00:00	2020-05-12T11:53:30-07:00	2020-05-12T19:24:17+00:00	2020-05-16T06:59:59+00:00	-4	vqbg6qyxs3r08ml@marketplace.amazon.com	McKenzie Allen	+1 347-448-3190 ext. 23192	ABM0033	Arabella Farm Direct Bouquet of Fresh Cut White Hydrangea with a Free Glass Vase	1	0	1	Expedited	McKenzie Allen	8401 17 mile road	7		MARSHALL	MI	49068-1706	US			false		
113-9754005-3985067	66795296580418	2020-05-12T18:54:37+00:00	2020-05-12T11:54:37-07:00	2020-05-12T19:24:50+00:00	2020-05-16T06:59:59+00:00	-4	xlxl4xl0j02879n@marketplace.amazon.com	Gabriel	+1 347-448-3190 ext. 41675	ABR0022	Arabella Farm Direct Bouquet of 12 Fresh Cut Pink Roses with a Free Glass Vase	1	0	1	Expedited	Gabriel	10 HART PL DIX HILLS			DIX HILLS	NY	11746-6214	US			false		
113-6523433-4385023	59432105437410	2020-05-12T19:00:45+00:00	2020-05-12T12:00:45-07:00	2020-05-12T19:27:48+00:00	2020-05-16T06:59:59+00:00	-4	sb2qcln4qtz15th@marketplace.amazon.com	Arshad Latif	+1 314-282-9402 ext. 20415	ABR0022	Arabella Farm Direct Bouquet of 12 Fresh Cut Pink Roses with a Free Glass Vase	1	0	1	Expedited	Abdul Jalil	802 BRUMMEL ST APT 1			EVANSTON	IL	60202-3971	US		Enjoy your gift! From Arshad	false		
114-9950784-0293821	11316311149290	2020-05-12T19:27:33+00:00	2020-05-12T12:27:33-07:00	2020-05-12T19:28:28+00:00	2020-05-16T06:59:59+00:00	-4	1wh661tz6rmvsh2@marketplace.amazon.com	Jennifer	+1 314-282-9402 ext. 18133	ABM010	Arabella Bouquets | Fields of The World Bouquet of Fresh Cut Flowers in a Free Designer Glass Vase	1	0	1	Expedited	Dana Reelick	173 TODD HILL RD			BETHLEHEM	CT	06751-1020	US		Happy Birthday to my beautiful friend!  49!!! Crazy! From Love Always, Jennifer	false		
113-4567156-1922669	65455644233986	2020-05-12T19:02:35+00:00	2020-05-12T12:02:35-07:00	2020-05-12T19:28:49+00:00	2020-05-16T06:59:59+00:00	-4	h23dqlm71dgv9tr@marketplace.amazon.com	Donna kelley	+1 210-728-4548 ext. 98119	ABR0022	Arabella Farm Direct Bouquet of 12 Fresh Cut Pink Roses with a Free Glass Vase	1	0	1	Expedited	Liz Husser	4727 W CROWLEY CT			VISALIA	CA	93291-5264	US			false		
114-4568128-0385847	61346152662642	2020-05-12T19:03:09+00:00	2020-05-12T12:03:09-07:00	2020-05-12T19:33:04+00:00	2020-05-16T06:59:59+00:00	-4	6wwhfwlm0h1kqww@marketplace.amazon.com	Greg Holsclaw	+1 210-728-4548 ext. 08067	ABR0022	Arabella Farm Direct Bouquet of 12 Fresh Cut Pink Roses with a Free Glass Vase	1	0	1	Expedited	Marlene Holsclaw	2106 LEONARD ST NE APT 319			GRAND RAPIDS	MI	49505-5896	US		Happy Mothers Day! Love Greg and Tracy	false		
112-1205500-4358652	12945147586506	2020-05-12T19:04:15+00:00	2020-05-12T12:04:15-07:00	2020-05-12T19:34:53+00:00	2020-05-16T06:59:59+00:00	-4	h6374hvsmr6jdnt@marketplace.amazon.com	Brian	+1 347-448-3190 ext. 58107	ABR0022	Arabella Farm Direct Bouquet of 12 Fresh Cut Pink Roses with a Free Glass Vase	1	0	1	Expedited	Brian villa	3625 MOCA DR			SAINT CLOUD	FL	34772-8147	US			false		
112-3178008-5074632	11882754537298	2020-05-12T19:08:07+00:00	2020-05-12T12:08:07-07:00	2020-05-12T19:37:54+00:00	2020-05-16T06:59:59+00:00	-4	m4bwz02y07jtjww@marketplace.amazon.com	Steve Gotz	+1 210-728-4548 ext. 02266	ABR0022	Arabella Farm Direct Bouquet of 12 Fresh Cut Pink Roses with a Free Glass Vase	1	0	1	Expedited	Lena Gotz	12632 PEARL ST			SOUTHGATE	MI	48195-1777	US		Better late than never.  Love you Mom.  Stay Safe.  - Love, -Steve From Steve Gotz	false		
112-7928127-2034655	58012914771418	2020-05-12T19:09:21+00:00	2020-05-12T12:09:21-07:00	2020-05-12T19:38:10+00:00	2020-05-16T06:59:59+00:00	-4	t3wl7x8w80r1nd7@marketplace.amazon.com	Park, Jay Hyearn	+1 347-448-3190 ext. 79950	ABM010	Arabella Bouquets | Fields of The World Bouquet of Fresh Cut Flowers in a Free Designer Glass Vase	1	0	1	Expedited	Ji Hyearn (Ginny) Park	1910 MAGDALENA CIR APT 95			SANTA CLARA	CA	95051-2591	US		Meow From Danny	false		
112-6230919-6088257	20937280983506	2020-05-12T19:11:48+00:00	2020-05-12T12:11:48-07:00	2020-05-12T19:41:05+00:00	2020-05-16T06:59:59+00:00	-4	p4h48ktrrsq59w7@marketplace.amazon.com	Neil Fridman	+1 347-448-3190 ext. 30579	ABR0022	Arabella Farm Direct Bouquet of 12 Fresh Cut Pink Roses with a Free Glass Vase	1	0	1	Expedited	Neil Fridman	155 FISHER RD			MAHWAH	NJ	07430-3215	US			false		
111-5261349-0179452	46809704406586	2020-05-12T19:14:47+00:00	2020-05-12T12:14:47-07:00	2020-05-12T19:43:58+00:00	2020-05-16T06:59:59+00:00	-4	npryn77gpdwm96g@marketplace.amazon.com	Silvia Moore	+1 210-728-4548 ext. 11807	ABR0055	Arabella Farm Direct Bouquet of 12 Stems of Fresh Cut Hot Pink Roses in a Free Designer Glass Vase	1	0	1	Expedited	Sally moore	61647 Daly Estates			Bend	Oregon	97702	US			false		
114-4615516-8186654	68405561414850	2020-05-12T19:16:14+00:00	2020-05-12T12:16:14-07:00	2020-05-12T19:45:26+00:00	2020-05-16T06:59:59+00:00	-4	7s3jg59mcnrmmwk@marketplace.amazon.com	frank	+1 347-448-3190 ext. 66816	ABR0022	Arabella Farm Direct Bouquet of 12 Fresh Cut Pink Roses with a Free Glass Vase	1	0	1	Expedited	Kay Grose	1328 HIGH ST	DECATUR INDIANA 46733		DECATUR	IN	46733-3206	US		Loving you my beautiful angel is the best thing that has ever happened to me.You are my life,my world and my everything.I will love and cherish you forever.MICHAEL SMITH	false		
111-9654009-4757020	22840546823522	2020-05-12T19:24:14+00:00	2020-05-12T12:24:14-07:00	2020-05-12T19:51:09+00:00	2020-05-16T06:59:59+00:00	-4	cgyc9qhq827ymjs@marketplace.amazon.com	Lisa Cone	+1 314-282-9402 ext. 27648	ABR0022	Arabella Farm Direct Bouquet of 12 Fresh Cut Pink Roses with a Free Glass Vase	1	0	1	Expedited	Mr. and Mrs. Morton	60 BUDENOS DR			SAYVILLE	NY	11782-2228	US		Dear Mom and Dad,  We are truly saddened by the loss of Bobby and Uncle Robbie.   I hope  these flowers & your memories of these two special people bring you some peace during this very challenging season.  Much love, Lisa & Family	false		
112-9870287-6269869	57239972588538	2020-05-12T19:23:55+00:00	2020-05-12T12:23:55-07:00	2020-05-12T19:54:12+00:00	2020-05-16T06:59:59+00:00	-4	plq0nl19zcgchdt@marketplace.amazon.com	Brendan Mallon	+1 347-448-3190 ext. 86432	ABR0022	Arabella Farm Direct Bouquet of 12 Fresh Cut Pink Roses with a Free Glass Vase	1	0	1	Expedited	Brendan Mallon	51 MORRIS RD			TENAFLY	NJ	07670-2440	US			false		
112-8755457-1653802	41270042482162	2020-05-12T19:27:45+00:00	2020-05-12T12:27:45-07:00	2020-05-12T19:56:42+00:00	2020-05-16T06:59:59+00:00	-4	mvq8vj0hjhkcy6n@marketplace.amazon.com	narciso martinez	+1 210-728-4548 ext. 53995	ABR0022	Arabella Farm Direct Bouquet of 12 Fresh Cut Pink Roses with a Free Glass Vase	1	0	1	Expedited	Sylvia martinez	1530 HILL GLEN DR			GRANITE SHOALS	TX	78654-2462	US			false		
114-8910653-8073063	14107168366082	2020-05-12T19:39:39+00:00	2020-05-12T12:39:39-07:00	2020-05-12T20:08:08+00:00	2020-05-16T06:59:59+00:00	-4	8qd3jb1b36wl2lc@marketplace.amazon.com	Matthew Detterman	+1 347-448-3190 ext. 43215	ABR0022	Arabella Farm Direct Bouquet of 12 Fresh Cut Pink Roses with a Free Glass Vase	1	0	1	Expedited	Laney Hunt	4924 MARYLIN LN			CHATTANOOGA	TN	37411-2509	US		Congratulations!  Welcome Karis Ann! Beautiful baby girl.  Lots of Love! From Oma and Opa	false		
111-7652673-3538621	28311383599882	2020-05-12T19:44:56+00:00	2020-05-12T12:44:56-07:00	2020-05-12T20:14:25+00:00	2020-05-16T06:59:59+00:00	-4	n8zf6bygx2kb9b3@marketplace.amazon.com	Randy Latini	+1 210-728-4548 ext. 88293	ABM010	Arabella Bouquets | Fields of The World Bouquet of Fresh Cut Flowers in a Free Designer Glass Vase	1	0	1	Expedited	Leslie Judd	2804 DESERT ROSE ST			LITTLE RIVER	SC	29566-7142	US		Happy Mother’s Day! We Love You! From Randy, Chelsea, Cayden, Hadley	false		
112-1373477-7309820	55348772328242	2020-05-12T19:57:38+00:00	2020-05-12T12:57:38-07:00	2020-05-12T20:23:46+00:00	2020-05-16T06:59:59+00:00	-4	t2zz1bysx8pkbxp@marketplace.amazon.com	Andrew Gladkowski	+1 763-225-9463 ext. 24987	ABR0022	Arabella Farm Direct Bouquet of 12 Fresh Cut Pink Roses with a Free Glass Vase	1	0	1	Expedited	Jordan Collier	4210 VIA CLEMENTE			OCEANSIDE	CA	92057-8529	US		Congratulations Jordan! We are so happy for you and we look forward to seeing where God takes you! Love the Gladkowski family From Corinne Gladkowski	false		
114-9912035-0360261	61459634134498	2020-05-12T19:59:43+00:00	2020-05-12T12:59:43-07:00	2020-05-12T20:24:48+00:00	2020-05-16T06:59:59+00:00	-4	x55tmcmr0ry35r5@marketplace.amazon.com	Nora Anderson	+1 314-282-9402 ext. 57475	ABM010	Arabella Bouquets | Fields of The World Bouquet of Fresh Cut Flowers in a Free Designer Glass Vase	1	0	1	Expedited	John Thomas	28 WOOLWORTH ST			LONGMEADOW	MA	01106-2044	US		Sending our deepest condolences,  Nora, Larry, Terri (Carlson School of Management, University of Minnesota)	false		
111-6377899-6329040	14374888063450	2020-05-12T19:59:46+00:00	2020-05-12T12:59:46-07:00	2020-05-12T20:27:39+00:00	2020-05-16T06:59:59+00:00	-4	rdp68l521g8xtyx@marketplace.amazon.com	Kanwaldeep SIDHU	+1 210-728-4548 ext. 17641	ABR0022	Arabella Farm Direct Bouquet of 12 Fresh Cut Pink Roses with a Free Glass Vase	1	0	1	Expedited	Val Kmak	231 VENDOME RD			GROSSE POINTE FARMS	MI	48236-3348	US		Dear Mrs. Kmak, Thank you so much for all of your help! I really appreciate it.  Sincerely, Rita Sidhu	false		
114-8567777-2787467	32607129379514	2020-05-12T20:05:45+00:00	2020-05-12T13:05:45-07:00	2020-05-12T20:30:04+00:00	2020-05-16T06:59:59+00:00	-4	4j5c6f4nvh9dc7y@marketplace.amazon.com	Yin	+1 347-448-3190 ext. 14022	ABR0022	Arabella Farm Direct Bouquet of 12 Fresh Cut Pink Roses with a Free Glass Vase	1	0	1	Expedited	EmmaLeigh Anderson	501 WOODLAND PARK			GEORGETOWN	TX	78633-2033	US		I just wanna talk. please, message me sometime, discord or texts if i dont answer. I love you beyond belief. everything reminds me of you, my love. Please, give it another chance. For us. I'll never find one like you again. From Anaya Banks	false		
111-9639544-7883409	04923240302706	2020-05-12T20:04:46+00:00	2020-05-12T13:04:46-07:00	2020-05-12T20:35:01+00:00	2020-05-16T06:59:59+00:00	-4	2rt90l6my4gy8gv@marketplace.amazon.com	Dawn	+1 210-728-4548 ext. 54636	ABM010	Arabella Bouquets | Fields of The World Bouquet of Fresh Cut Flowers in a Free Designer Glass Vase	1	0	1	Expedited	Lisa Miller	22 TEEPEE RD			ROCKY POINT	NY	11778-9581	US			false		
111-3379883-9985822	02436082551242	2020-05-12T20:10:55+00:00	2020-05-12T13:10:55-07:00	2020-05-12T20:40:36+00:00	2020-05-16T06:59:59+00:00	-4	gv4cb7fjpvy7bvn@marketplace.amazon.com	Robert	+1 314-282-9402 ext. 02101	ABR0022	Arabella Farm Direct Bouquet of 12 Fresh Cut Pink Roses with a Free Glass Vase	1	0	1	Expedited	Robert M. Demara	89 S INGLIS AVE			INGLIS	FL	34449-9460	US			false		
111-9061477-4465812	06950171562354	2020-05-12T20:11:50+00:00	2020-05-12T13:11:50-07:00	2020-05-12T20:41:15+00:00	2020-05-16T06:59:59+00:00	-4	x5v94rv9dzj0p5h@marketplace.amazon.com	Shanon A Cooper	+1 314-282-9402 ext. 11913	ABM010	Arabella Bouquets | Fields of The World Bouquet of Fresh Cut Flowers in a Free Designer Glass Vase	1	0	1	Expedited	Susan Daniels	8723 Andante Drive			Houston	Texas	77040	US			false		
111-0976206-7348222	45540207104178	2020-05-12T20:20:02+00:00	2020-05-12T13:20:02-07:00	2020-05-12T20:43:31+00:00	2020-05-16T06:59:59+00:00	-4	9xbgjv0441869g7@marketplace.amazon.com	Thomas Kuhn	+1 210-728-4548 ext. 86910	ABR001	Arabella Bouquets 12 Stems of Fresh Cut Red Roses in a Free Designer Glass Vase	1	0	1	Expedited	Christen D Kuhn	4 Hayes Hill Drive			Northport	New York	11768	US		Happy Anniversary!!! Thank you for being a wonderful wife and mother!!!   Love, T From T	false		
111-0430630-6204223	54411930902418	2020-05-12T20:19:34+00:00	2020-05-12T13:19:34-07:00	2020-05-12T20:47:57+00:00	2020-05-16T06:59:59+00:00	-4	g16ly1dx19nmpvb@marketplace.amazon.com	Nicole Y Compton	+1 347-448-3190 ext. 38903	ABR015	Arabella Farm Direct Bouquet of 18 Fresh Cut Orange Roses with a Free Glass Vase	1	0	1	Expedited	Abby Berry	156 GLADE SPRINGS RD			LITTLE MOUNTAIN	SC	29075-9174	US		Thinking of your and your family.  Love you! From Nicole And Cady Compton	false		
113-7611269-3987410	55754074303778	2020-05-12T20:26:56+00:00	2020-05-12T13:26:56-07:00	2020-05-12T20:48:36+00:00	2020-05-16T06:59:59+00:00	-4	y8c43czqzbv1p62@marketplace.amazon.com	Sharon Fleet	+1 314-282-9402 ext. 41181	ABR0033	Arabella Farm Direct Bouquet of 12 Fresh Cut Orange Roses with a Free Glass Vase	1	0	1	Expedited	Debbie Alexander	149 BLUEBELL CT			NEW HOLLAND	PA	17557-9493	US		Happy 70th Birthday, Debbie! We look forward to celebrating with you. Love,  Petersons, Hutzels, and Fleets	false		
111-7431335-4153824	13083290591578	2020-05-12T20:20:39+00:00	2020-05-12T13:20:39-07:00	2020-05-12T20:49:40+00:00	2020-05-16T06:59:59+00:00	-4	jnvynvsrnq200cy@marketplace.amazon.com	joseph	+1 210-728-4548 ext. 69410	ABM010	Arabella Bouquets | Fields of The World Bouquet of Fresh Cut Flowers in a Free Designer Glass Vase	1	0	1	Expedited	Bo & Terra Gerling	10015 N 175TH AVE			WADDELL	AZ	85355-9846	US		Congratulation!  Welcome baby Waylon! Love, Papa Joe, Grandma Connie and Great Grandma Moon	false		
113-1057983-2095435	05611797005322	2020-05-12T20:30:20+00:00	2020-05-12T13:30:20-07:00	2020-05-12T20:54:03+00:00	2020-05-16T06:59:59+00:00	-4	7zrlzzck7bmch21@marketplace.amazon.com	carmarie glogoza	+1 347-448-3190 ext. 74639	ABR013	Arabella Farm Direct Bouquet of 18 Fresh Cut Yellow Roses with a Free Glass Vase	1	0	1	Expedited	Carmella Lyman	27 BUHMAN CT			NAPA	CA	94558-5357	US		Carmella, We are all thinking of you.   We hope you have a fast recovery. Love  Uncle Rocky, Aunt Marge, Glogoza, Millich, Guthrie,  Genau's From All of us	false		
112-5421521-0861853	35900427125666	2020-05-12T20:31:06+00:00	2020-05-12T13:31:06-07:00	2020-05-12T20:57:41+00:00	2020-05-16T06:59:59+00:00	-4	g3cvvd7sln75pp5@marketplace.amazon.com	Sara Nickerson	+1 347-448-3190 ext. 51923	ABR015	Arabella Farm Direct Bouquet of 18 Fresh Cut Orange Roses with a Free Glass Vase	1	0	1	Expedited	Shannon Pope	212 FLINT BROOK DR			O FALLON	MO	63366-4994	US		Hi Shannon, Happy Birthday! From Sara and TJ	false		
113-2370875-4404229	69811884273738	2020-05-12T20:29:47+00:00	2020-05-12T13:29:47-07:00	2020-05-12T20:59:17+00:00	2020-05-16T06:59:59+00:00	-4	nmc706krt0l37hl@marketplace.amazon.com	Anthony Amaya	+1 314-282-9402 ext. 85415	ABR0022	Arabella Farm Direct Bouquet of 12 Fresh Cut Pink Roses with a Free Glass Vase	1	0	1	Expedited	Debra Chapman	31 N MAIN			CEDAR SPRINGS	MI	49319-5140	US		Hi Mum, Enjoy your gift! Happy Mothers day. From Anthony Amaya and Ken Terbrack	false		
112-1956024-3982633	27237649022522	2020-05-12T16:15:18+00:00	2020-05-12T09:15:18-07:00	2020-05-12T20:59:24+00:00	2020-05-16T06:59:59+00:00	-4	ggtx8287y3lvdxc@marketplace.amazon.com	sahar	+1 314-282-9402 ext. 56520	ABR0022	Arabella Farm Direct Bouquet of 12 Fresh Cut Pink Roses with a Free Glass Vase	1	0	1	Expedited	Farrah Qureshi	644 WILLOW DR			CAROL STREAM	IL	60188-4433	US		Congrats Farrah and Ahmed on your beautiful baby girl! May Allah SWT shower his endless blessings on Hanan and all of your family. Lots of love! From Farah & Sahar	false		
112-9314947-9053022	49969152765298	2020-05-12T20:32:48+00:00	2020-05-12T13:32:48-07:00	2020-05-12T21:02:55+00:00	2020-05-16T06:59:59+00:00	-4	gvp742lg1vzpv5b@marketplace.amazon.com	Bob Grout	+1 763-225-9463 ext. 08874	ABR0055	Arabella Farm Direct Bouquet of 12 Stems of Fresh Cut Hot Pink Roses in a Free Designer Glass Vase	1	0	1	Expedited	Jene Goldhammer	3970 SE REEDWAY Street			PORTLAND	OR	97202-7530	US			false		
113-3655594-1321816	18782076708202	2020-05-12T20:35:28+00:00	2020-05-12T13:35:28-07:00	2020-05-12T21:04:52+00:00	2020-05-16T06:59:59+00:00	-4	nmc706krt0l37hl@marketplace.amazon.com	Anthony Amaya	+1 412-532-4665 ext. 17286	ABR0022	Arabella Farm Direct Bouquet of 12 Fresh Cut Pink Roses with a Free Glass Vase	1	0	1	Expedited	Mrs. Dorothy M Koss	3139 OLD LAKESHORE RD			HARBOR BEACH	MI	48441-7992	US		Dear Grandma Koss Happy Mothers Day. Love, Ken and Anthony	false		
113-1629749-4656217	66168074536930	2020-05-12T20:32:40+00:00	2020-05-12T13:32:40-07:00	2020-05-12T21:05:01+00:00	2020-05-16T06:59:59+00:00	-4	nmc706krt0l37hl@marketplace.amazon.com	Anthony Amaya	+1 412-532-4665 ext. 73677	ABR0022	Arabella Farm Direct Bouquet of 12 Fresh Cut Pink Roses with a Free Glass Vase	1	0	1	Expedited	Nancy Terbrack	208 BROAD ST			HARBOR BEACH	MI	48441-1247	US		Dear Mum,  Enjoy your gift! Happy Mothers Day From Anthony Amaya and Ken Terbrack	false		
113-7238208-5798647	00349637225010	2020-05-12T20:39:04+00:00	2020-05-12T13:39:04-07:00	2020-05-12T21:07:02+00:00	2020-05-16T06:59:59+00:00	-4	y95p9bdc78x4fc0@marketplace.amazon.com	Nicki Lehrer	+1 347-448-3190 ext. 95582	ABM010	Arabella Bouquets | Fields of The World Bouquet of Fresh Cut Flowers in a Free Designer Glass Vase	1	0	1	Expedited	Jocelyn Grahame	22 CAYUGA WAY			SHORT HILLS	NJ	07078-1203	US		Jocelyn, Thank you for your dedication to our MAO people. Really appreciate your leadership in reviews and all the time and effort spent to ensure a smooth cycle. We are so lucky to work with you! From, The MAO PD Team	false		
113-0252515-1348279	46380592421698	2020-05-12T00:52:43+00:00	2020-05-11T17:52:43-07:00	2020-05-12T21:10:57+00:00	2020-05-16T06:59:59+00:00	-4	wj4vbqyh0pyk7s5@marketplace.amazon.com	grady williams	+1 347-448-3190 ext. 35165	ABR0022	Arabella Farm Direct Bouquet of 12 Fresh Cut Pink Roses with a Free Glass Vase	1	0	1	Expedited	Grady Williams	1400 LONG ACRE DR			LOGANVILLE	GA	30052-3148	US		Enjoy your gift! From grady williams	false		
113-0275648-6663466	19342664656202	2020-05-12T20:46:23+00:00	2020-05-12T13:46:23-07:00	2020-05-12T21:15:09+00:00	2020-05-16T06:59:59+00:00	-4	xck8tmt5mpw4f37@marketplace.amazon.com	Lendal Sloan	+1 412-532-4665 ext. 66718	ABM010	Arabella Bouquets | Fields of The World Bouquet of Fresh Cut Flowers in a Free Designer Glass Vase	1	0	1	Expedited	Peggy Hannon	2119 ACADIA GREENS DR			SUN CITY CENTER	FL	33573-8056	US		Hi Peggy, Have a wonderful birthday. Love, Lendal and the kids	false		
113-3770607-9875408	13425167037258	2020-05-12T20:50:35+00:00	2020-05-12T13:50:35-07:00	2020-05-12T21:17:37+00:00	2020-05-14T06:59:59+00:00	-2	rqnmrwv2y7p2lw5@marketplace.amazon.com	Vonnie Plott	+1 763-225-9463 ext. 70038	ABR001	Arabella Bouquets 12 Stems of Fresh Cut Red Roses in a Free Designer Glass Vase	1	0	1	SecondDay	Vonnie	4808 HELGA WAY NE			WOODSTOCK	GA	30188-4066	US			false		
113-8298959-6871410	05630346224962	2020-05-12T20:50:09+00:00	2020-05-12T13:50:09-07:00	2020-05-12T21:20:32+00:00	2020-05-16T06:59:59+00:00	-4	gt717lyw08hzp82@marketplace.amazon.com	Leonard Carmack	+1 763-225-9463 ext. 02868	ABM010	Arabella Bouquets | Fields of The World Bouquet of Fresh Cut Flowers in a Free Designer Glass Vase	1	0	1	Expedited	Kerry Carmack	168 HOME STRETCH LN			RAEFORD	NC	28376-7716	US			false		
114-2264755-8817847	25919998714818	2020-05-12T20:59:18+00:00	2020-05-12T13:59:18-07:00	2020-05-12T21:21:12+00:00	2020-05-16T06:59:59+00:00	-4	rm9sg3t1ntytdyc@marketplace.amazon.com	Moe	+1 347-448-3190 ext. 69050	ABR0022	Arabella Farm Direct Bouquet of 12 Fresh Cut Pink Roses with a Free Glass Vase	1	0	1	Expedited	Mia Watson	500 N ANDREWS AVE APT 562			FT LAUDERDALE	FL	33301-4159	US		Cheers to all of your “newness” Happy Birthday Month! From Soror Blayre	false		
114-2437637-0249815	52217484384794	2020-05-12T20:52:51+00:00	2020-05-12T13:52:51-07:00	2020-05-12T21:23:05+00:00	2020-05-16T06:59:59+00:00	-4	jl9kdj50rm8tvp0@marketplace.amazon.com	noel orsborn	+1 347-448-3190 ext. 83318	ABM0033	Arabella Farm Direct Bouquet of Fresh Cut White Hydrangea with a Free Glass Vase	1	0	1	Expedited	Dakota and Ghost McCain	95 CAMBIUM CT			INLET BEACH	FL	32461-7406	US			false		
