order-id	order-item-id	purchase-date	payments-date	reporting-date	promise-date	days-past-promise	buyer-email	buyer-name	buyer-phone-number	sku	product-name	quantity-purchased	quantity-shipped	quantity-to-ship	ship-service-level	recipient-name	ship-address-1	ship-address-2	ship-address-3	ship-city	ship-state	ship-postal-code	ship-country	gift-wrap-type	gift-message-text	is-business-order	purchase-order-number	price-designation
113-0076710-2412220	06368151519682	2020-05-12T13:29:55+00:00	2020-05-12T06:29:55-07:00	2020-05-12T14:04:03+00:00	2020-05-16T06:59:59+00:00	-3	gn7tlwklvtkp1gq@marketplace.amazon.com	Timothy Dillon	+1 314-282-9402 ext. 77420	ABR0022	Arabella Farm Direct Bouquet of 12 Fresh Cut Pink Roses with a Free Glass Vase	1	0	1	Expedited	Nicole Mitchell	4413 ALPINE WAY			MURFREESBORO	TN	37129-7014	US		Thanks for being a friend. Love you like words can't express From Tim	false		
112-8345245-8972202	32635512861042	2020-05-12T13:37:13+00:00	2020-05-12T06:37:13-07:00	2020-05-12T14:06:44+00:00	2020-05-16T06:59:59+00:00	-3	4qg4xs5xj1rf200@marketplace.amazon.com	Harrison Duran	+1 347-448-3190 ext. 48653	ABR0022	Arabella Farm Direct Bouquet of 12 Fresh Cut Pink Roses with a Free Glass Vase	1	0	1	Expedited	Harrison Duran	1801 NW 51ST ST			MIAMI	FL	33142-3722	US			false		
113-2147907-9298613	56103588112410	2020-05-12T13:41:01+00:00	2020-05-12T06:41:01-07:00	2020-05-12T14:09:30+00:00	2020-05-16T06:59:59+00:00	-3	mxnvlp186khtjq3@marketplace.amazon.com	sophie	+1 763-225-9463 ext. 43612	ABR0022	Arabella Farm Direct Bouquet of 12 Fresh Cut Pink Roses with a Free Glass Vase	1	0	1	Expedited	Felecia	2429 DEL LAGO DR			FT LAUDERDALE	FL	33316-2301	US		Happy Mother’s Day  We Love You!!!!!!!! From Avantis and Sophie	false		
112-2291323-8473031	04752450718810	2020-05-12T15:43:41+00:00	2020-05-12T08:43:41-07:00	2020-05-12T16:11:05+00:00	2020-05-16T06:59:59+00:00	-3	dfdxln6fd257w29@marketplace.amazon.com	susie rogers	+1 347-448-3190 ext. 69172	ABR0022	Arabella Farm Direct Bouquet of 12 Fresh Cut Pink Roses with a Free Glass Vase	1	0	1	Expedited	Mandana Rogers	99 GOLD ST			BROOKLYN	NY	11201-1503	US		Just a bit of cheer I hope they smell.  Thinking of you lovely.  Hugs  Susie, Jim, Finny and Keeva	false		
113-6508164-6153846	21235408017818	2020-05-12T15:50:44+00:00	2020-05-12T08:50:44-07:00	2020-05-12T16:20:36+00:00	2020-05-16T06:59:59+00:00	-3	hd94psdz7splm2r@marketplace.amazon.com	susann loveridge	+1 763-225-9463 ext. 92978	ABR0022	Arabella Farm Direct Bouquet of 12 Fresh Cut Pink Roses with a Free Glass Vase	1	0	1	Expedited	Stephanie Huber	2355 SW NEAL RD			PORT SAINT LUCIE	FL	34953-5790	US			false		
112-6414156-1861825	36839216244666	2020-05-12T17:44:27+00:00	2020-05-12T10:44:27-07:00	2020-05-12T18:11:24+00:00	2020-05-16T06:59:59+00:00	-3	xbclym32kv2hdys@marketplace.amazon.com	Cyerra Stokes	+1 412-532-4665 ext. 13867	ABR0022	Arabella Farm Direct Bouquet of 12 Fresh Cut Pink Roses with a Free Glass Vase	1	0	1	Expedited	Felicha Brown	2404 N ELMWOOD AVE			PEORIA	IL	61604-3206	US		Happy Mother’s Day from me and Tony ❤️Your the best gift from God love you always! From Tariya & Tony	false		
112-1205500-4358652	12945147586506	2020-05-12T19:04:15+00:00	2020-05-12T12:04:15-07:00	2020-05-12T19:34:53+00:00	2020-05-16T06:59:59+00:00	-3	h6374hvsmr6jdnt@marketplace.amazon.com	Brian	+1 347-448-3190 ext. 58107	ABR0022	Arabella Farm Direct Bouquet of 12 Fresh Cut Pink Roses with a Free Glass Vase	1	0	1	Expedited	Brian villa	3625 MOCA DR			SAINT CLOUD	FL	34772-8147	US			false		
112-3178008-5074632	11882754537298	2020-05-12T19:08:07+00:00	2020-05-12T12:08:07-07:00	2020-05-12T19:37:54+00:00	2020-05-16T06:59:59+00:00	-3	m4bwz02y07jtjww@marketplace.amazon.com	Steve Gotz	+1 210-728-4548 ext. 02266	ABR0022	Arabella Farm Direct Bouquet of 12 Fresh Cut Pink Roses with a Free Glass Vase	1	0	1	Expedited	Lena Gotz	12632 PEARL ST			SOUTHGATE	MI	48195-1777	US		Better late than never.  Love you Mom.  Stay Safe.  - Love, -Steve From Steve Gotz	false		
112-6230919-6088257	20937280983506	2020-05-12T19:11:48+00:00	2020-05-12T12:11:48-07:00	2020-05-12T19:41:05+00:00	2020-05-16T06:59:59+00:00	-3	p4h48ktrrsq59w7@marketplace.amazon.com	Neil Fridman	+1 347-448-3190 ext. 30579	ABR0022	Arabella Farm Direct Bouquet of 12 Fresh Cut Pink Roses with a Free Glass Vase	1	0	1	Expedited	Neil Fridman	155 FISHER RD			MAHWAH	NJ	07430-3215	US			false		
113-2370875-4404229	69811884273738	2020-05-12T20:29:47+00:00	2020-05-12T13:29:47-07:00	2020-05-12T20:59:17+00:00	2020-05-16T06:59:59+00:00	-3	nmc706krt0l37hl@marketplace.amazon.com	Anthony Amaya	+1 314-282-9402 ext. 85415	ABR0022	Arabella Farm Direct Bouquet of 12 Fresh Cut Pink Roses with a Free Glass Vase	1	0	1	Expedited	Debra Chapman	31 N MAIN			CEDAR SPRINGS	MI	49319-5140	US		Hi Mum, Enjoy your gift! Happy Mothers day. From Anthony Amaya and Ken Terbrack	false		
112-1956024-3982633	27237649022522	2020-05-12T16:15:18+00:00	2020-05-12T09:15:18-07:00	2020-05-12T20:59:24+00:00	2020-05-16T06:59:59+00:00	-3	ggtx8287y3lvdxc@marketplace.amazon.com	sahar	+1 314-282-9402 ext. 56520	ABR0022	Arabella Farm Direct Bouquet of 12 Fresh Cut Pink Roses with a Free Glass Vase	1	0	1	Expedited	Farrah Qureshi	644 WILLOW DR			CAROL STREAM	IL	60188-4433	US		Congrats Farrah and Ahmed on your beautiful baby girl! May Allah SWT shower his endless blessings on Hanan and all of your family. Lots of love! From Farah & Sahar	false		
113-2701234-5744254	33135515775018	2020-05-12T22:00:59+00:00	2020-05-12T15:00:59-07:00	2020-05-12T22:30:10+00:00	2020-05-16T06:59:59+00:00	-3	qwjmgcvc71mxv4d@marketplace.amazon.com	MONICA	+1 314-282-9402 ext. 53113	ABR0022	Arabella Farm Direct Bouquet of 12 Fresh Cut Pink Roses with a Free Glass Vase	1	0	1	Expedited	Tia Irma	508 N GALE HILL AVE			LINDSAY	CA	93247-2009	US		Hi Tia, La queremos mucho! Feliz Dia de las Madres todos los dias!!!	false		
113-2290823-6083464	35098877871602	2020-05-12T22:02:44+00:00	2020-05-12T15:02:44-07:00	2020-05-12T22:32:03+00:00	2020-05-16T06:59:59+00:00	-3	qwjmgcvc71mxv4d@marketplace.amazon.com	MONICA	+1 412-532-4665 ext. 03632	ABR0022	Arabella Farm Direct Bouquet of 12 Fresh Cut Pink Roses with a Free Glass Vase	1	0	1	Expedited	MARIA DE JESUS LOPEZ	2806 N 5TH ST			ENID	OK	73701-1354	US		Happy MOthers Day Every day is Mothers Day! We love you!  Nacho, Monica, Sebastian, Lucas, y abuelita!!	false		
113-1958619-3478624	61804121365714	2020-05-12T22:02:34+00:00	2020-05-12T15:02:34-07:00	2020-05-12T22:32:19+00:00	2020-05-16T06:59:59+00:00	-3	xq2cx5ds3v1n3nv@marketplace.amazon.com	Emily Perdue	+1 314-282-9402 ext. 80080	ABR0022	Arabella Farm Direct Bouquet of 12 Fresh Cut Pink Roses with a Free Glass Vase	3	1	2	Expedited	Regina Perdue	11408 MISSOURI ROUTE A			LIBERTY	MO	64068-8107	US			false		
114-5118040-2989820	38018265199594	2020-05-12T22:59:32+00:00	2020-05-12T15:59:32-07:00	2020-05-12T23:29:17+00:00	2020-05-16T06:59:59+00:00	-3	zrfq187nfrsr1s5@marketplace.amazon.com	Jenny	+1 314-282-9402 ext. 25296	ABR0022	Arabella Farm Direct Bouquet of 12 Fresh Cut Pink Roses with a Free Glass Vase	1	0	1	Expedited	Dianne Madruga	2677 BARCELLS AVE			SANTA CLARA	CA	95051-5729	US		Happy Mother’s/Mae/Avo Day Love  Madrugas Jr. From Jenny	false		
113-6488521-1739414	17564703259050	2020-05-12T23:54:52+00:00	2020-05-12T16:54:52-07:00	2020-05-13T00:24:29+00:00	2020-05-16T06:59:59+00:00	-3	nk1qthf4bbdxw31@marketplace.amazon.com	nick jarvis	+1 210-728-4548 ext. 63590	ABR0022	Arabella Farm Direct Bouquet of 12 Fresh Cut Pink Roses with a Free Glass Vase	1	0	1	Expedited	Nicholas Jarvis	1420 Ambassador St	apartment 111		Los Angeles	CA	90035	US			false		
112-3840513-7711414	26559111377490	2020-05-13T00:03:31+00:00	2020-05-12T17:03:31-07:00	2020-05-13T00:31:15+00:00	2020-05-16T06:59:59+00:00	-3	dlg5lt3kg9jftb0@marketplace.amazon.com	Gabi Stewart	+1 347-448-3190 ext. 97354	ABR0022	Arabella Farm Direct Bouquet of 12 Fresh Cut Pink Roses with a Free Glass Vase	1	0	1	Expedited	Nicole Koch	65 ROWAN TREE LN			HILLSBOROUGH	CA	94010-6333	US		I love you so much my best friend! You are the most incredible woman I know! From Gabi	false		
112-5118566-0464236	36769495413698	2020-05-13T01:52:28+00:00	2020-05-12T18:52:28-07:00	2020-05-13T02:20:17+00:00	2020-05-16T06:59:59+00:00	-3	2vkjnn5x1dk7zfm@marketplace.amazon.com	JASON L HARRISON	+1 347-448-3190 ext. 47431	ABR0022	Arabella Farm Direct Bouquet of 12 Fresh Cut Pink Roses with a Free Glass Vase	1	0	1	Expedited	jasmin Harrison	41 GLENWOOD ST			ALBANY	NY	12208-2820	US		Happy birthday Jasmin, always chase your dreams and define your own path From Love Daddy	false		
111-1867717-8585838	47377268544250	2020-05-13T03:54:52+00:00	2020-05-12T20:54:52-07:00	2020-05-13T04:23:59+00:00	2020-05-16T06:59:59+00:00	-3	cl8n8284sbh6m2v@marketplace.amazon.com	Saige Horsley	+1 347-448-3190 ext. 42851	ABR0022	Arabella Farm Direct Bouquet of 12 Fresh Cut Pink Roses with a Free Glass Vase	1	0	1	Expedited	Saige Horsley	44053 W PALO ABETO DR			MARICOPA	AZ	85138-3586	US		Happy mother day mom, I know this will be showing up late, but I just wanted to let you know that you are such an amazing mom, and I say that with such pride. Love you From Saige Horsley	false		
111-4655360-6862606	13305900642338	2020-05-13T11:31:15+00:00	2020-05-13T04:31:15-07:00	2020-05-13T11:59:21+00:00	2020-05-19T06:59:59+00:00	-6	z28bn58qdmxwfk3@marketplace.amazon.com	Susan R. Oleksy	+1 347-448-3190 ext. 24881	ABR0022	Arabella Farm Direct Bouquet of 12 Fresh Cut Pink Roses with a Free Glass Vase	1	0	1	Expedited	Angela Roach	7323 ERICA LN			N TONAWANDA	NY	14120-4904	US		Hi Angela, thinking of you and wishing you a good day. You’re always in our hearts and prayers. Let’s hope spring is here for certain! Love, Jerry and Sue	false		
111-9130618-9029865	33952514900778	2020-05-13T12:32:44+00:00	2020-05-13T05:32:44-07:00	2020-05-13T13:02:02+00:00	2020-05-19T06:59:59+00:00	-6	pz5x5gmmxxmpmlz@marketplace.amazon.com	Lori	+1 347-448-3190 ext. 29376	ABR0022	Arabella Farm Direct Bouquet of 12 Fresh Cut Pink Roses with a Free Glass Vase	1	0	1	Expedited	KEVIN AND KURSTIN ROY	1250 SANTA CORA AVE APT 527			CHULA VISTA	CA	91913-1545	US		Happy Birthday sis Love you Brice and Carter From Brice and Carter	false		
113-7341738-8601006	52027085208074	2020-05-13T12:38:23+00:00	2020-05-13T05:38:23-07:00	2020-05-13T13:07:20+00:00	2020-05-19T06:59:59+00:00	-6	68m6zmbbnhgcncp@marketplace.amazon.com	kurt leisenring	+1 314-282-9402 ext. 43749	ABR0022	Arabella Farm Direct Bouquet of 12 Fresh Cut Pink Roses with a Free Glass Vase	1	0	1	Expedited	Emily Leisenring	442 SPAULDING HOLLOW RD			NEW HAVEN	KY	40051-6508	US		I love you very much and you’re so amazing.  Love you forever & miss you. From kurt leisenring	false		
114-0214026-5957015	28678876885210	2020-05-13T12:43:49+00:00	2020-05-13T05:43:49-07:00	2020-05-13T13:08:35+00:00	2020-05-19T06:59:59+00:00	-6	jj1fb74j7py0g8l@marketplace.amazon.com	Yi Zhang	+1 347-448-3190 ext. 02531	ABR0022	Arabella Farm Direct Bouquet of 12 Fresh Cut Pink Roses with a Free Glass Vase	1	0	1	Expedited	Karen Wei	2 MILLER AVE			EAST BRUNSWICK	NJ	08816-5414	US		和你在一起 愈发体会到原来平淡生活也可以如此幸福~  爱对了人， 天天520!  520 forever! From Yi Zhang	false		
111-1192040-3588237	69260095690194	2020-05-13T13:02:04+00:00	2020-05-13T06:02:04-07:00	2020-05-13T13:23:50+00:00	2020-05-19T06:59:59+00:00	-6	l3cmr2g1g9rxgwn@marketplace.amazon.com	Sandra	+1 347-448-3190 ext. 90446	ABR0022	Arabella Farm Direct Bouquet of 12 Fresh Cut Pink Roses with a Free Glass Vase	1	0	1	Expedited	Paula Santos	74 GEORGETOWN RD			EATONTOWN	NJ	07724-2436	US		Happy Birthday Paula! Love, Sandy & Lisa XOXOXOXO From Sandra	false		
113-2632143-2656209	20507427027306	2020-05-13T13:13:25+00:00	2020-05-13T06:13:25-07:00	2020-05-13T13:41:42+00:00	2020-05-19T06:59:59+00:00	-6	7mz938k2wqsh4s6@marketplace.amazon.com	Abbie	+1 347-448-3190 ext. 98138	ABM0033	Arabella Farm Direct Bouquet of Fresh Cut White Hydrangea with a Free Glass Vase	1	0	1	Expedited	Temple Judea c/o Morli Josza	4311 HOOD RD			PALM BEACH GARDENS	FL	33410-2177	US		Morli, We are thinking of you and your family during this time.  We are so sorry for your loss and sending love from afar. From Feivel and Abbie Strauss	false		
114-7018605-8105065	45454273813570	2020-05-13T14:04:01+00:00	2020-05-13T07:04:01-07:00	2020-05-13T14:32:53+00:00	2020-05-19T06:59:59+00:00	-6	sqj8xrttzgzlwyy@marketplace.amazon.com	R. A. Kelsey	+1 210-728-4548 ext. 53999	ABR0022	Arabella Farm Direct Bouquet of 12 Fresh Cut Pink Roses with a Free Glass Vase	1	0	1	Expedited	Yvonne Krnjaic	258 PARK LAKE DR			BULLHEAD CITY	AZ	86429-7252	US		Happy Birthday Amma! We love and miss you lots! From Natalie, Ronnie, Sid & Iggy	false		
111-0871912-2613034	15092220615002	2020-05-13T14:03:46+00:00	2020-05-13T07:03:46-07:00	2020-05-13T14:33:09+00:00	2020-05-19T06:59:59+00:00	-6	zlgm1jfwwn9hmqz@marketplace.amazon.com	Valerie Krutanova	+1 347-448-3190 ext. 49706	ABR0022	Arabella Farm Direct Bouquet of 12 Fresh Cut Pink Roses with a Free Glass Vase	1	0	1	Expedited	Inna Martsinyuk	5962 WOODBRIAR WAY			CITRUS HEIGHTS	CA	95621-1616	US			false		
111-6700444-6822642	03386010639050	2020-05-13T14:10:47+00:00	2020-05-13T07:10:47-07:00	2020-05-13T14:36:31+00:00	2020-05-19T06:59:59+00:00	-6	26swqjlb5cr5pq1@marketplace.amazon.com	Darrin Coley	+1 210-728-4548 ext. 53175	ABR0022	Arabella Farm Direct Bouquet of 12 Fresh Cut Pink Roses with a Free Glass Vase	1	0	1	Expedited	Linwood Hearne Jr.	4001 DERBY MANOR DR APT 1B			BALTIMORE	MD	21215-7099	US			false		
114-8505368-3141822	01127830483170	2020-05-13T14:22:23+00:00	2020-05-13T07:22:23-07:00	2020-05-13T14:51:51+00:00	2020-05-19T06:59:59+00:00	-6	q091m4mld781y66@marketplace.amazon.com	barry green	+1 347-448-3190 ext. 28140	ABR0022	Arabella Farm Direct Bouquet of 12 Fresh Cut Pink Roses with a Free Glass Vase	1	0	1	Expedited	lauri	127 LOCUST RD			PLEASANTVILLE	NY	10570-3334	US		hope this brightens up your day	false		
114-4616361-1501860	34676563645930	2020-05-13T14:24:34+00:00	2020-05-13T07:24:34-07:00	2020-05-13T14:55:05+00:00	2020-05-19T06:59:59+00:00	-6	9mp25nj8zdbf82g@marketplace.amazon.com	Hanna	+1 210-728-4548 ext. 35486	ABR0022	Arabella Farm Direct Bouquet of 12 Fresh Cut Pink Roses with a Free Glass Vase	1	0	1	Expedited	Mike Raffaniello	50 W 15TH ST APT 3B			NEW YORK	NY	10011-6872	US			false		
113-9484923-1536238	67214623188986	2020-05-13T14:35:27+00:00	2020-05-13T07:35:27-07:00	2020-05-13T14:57:33+00:00	2020-05-19T06:59:59+00:00	-6	zthbx3sk943npkd@marketplace.amazon.com	Kristen	+1 347-448-3190 ext. 63057	ABR0022	Arabella Farm Direct Bouquet of 12 Fresh Cut Pink Roses with a Free Glass Vase	1	0	1	Expedited	Geri Pasche	3 MONTICELLO CIR			BILLERICA	MA	01821-1111	US		Happy Mothers Day! We love you so much and can't wait to see you next month💗 From Love, Dennis and Kristen	false		
114-5447937-0001016	32338529954058	2020-05-13T14:33:59+00:00	2020-05-13T07:33:59-07:00	2020-05-13T15:03:25+00:00	2020-05-19T06:59:59+00:00	-6	q091m4mld781y66@marketplace.amazon.com	barry green	+1 210-728-4548 ext. 65207	ABR0022	Arabella Farm Direct Bouquet of 12 Fresh Cut Pink Roses with a Free Glass Vase	1	0	1	Expedited	Sheri GREEN	3306 ODONNELL ST			BALTIMORE	MD	21224-5114	US		Hi, Hope this brightens your day. Mom and Dad	false		
114-6442700-0638656	25373585552714	2020-05-13T14:52:07+00:00	2020-05-13T07:52:07-07:00	2020-05-13T15:17:30+00:00	2020-05-19T06:59:59+00:00	-6	pvmlfb2sw6w9v7y@marketplace.amazon.com	Henry Velazquez	+1 314-282-9402 ext. 76179	ABSR003	Arabella Bouquets Fresh Cut Yellow Spray Roses in a Free Designer Glass Vase	1	0	1	Expedited	Tom & Rosemary DeJulio	1561 MIDLAND AVE			BRONXVILLE	NY	10708-6039	US		Dear Rosemary,  I can't let a Mother's Day pass without thanking you for the love & care you've given me and so many others through the years.  God bless you always!  Love, Henry	false		
114-2114269-4396221	59006713615802	2020-05-13T15:03:35+00:00	2020-05-13T08:03:35-07:00	2020-05-13T15:33:15+00:00	2020-05-19T06:59:59+00:00	-6	r7glpbbkk9md40q@marketplace.amazon.com	Nelly Doobay	+1 347-448-3190 ext. 06437	ABR004	Arabella Farm Direct Bouquet of 12 Fresh Cut Yellow Roses with a Free Glass Vase	1	0	1	Expedited	Marcia Prashad	605 Shropshire loop			sanford	florida	32771	US			false		
113-4263699-2328253	03587737721602	2020-05-13T15:06:14+00:00	2020-05-13T08:06:14-07:00	2020-05-13T15:33:41+00:00	2020-05-19T06:59:59+00:00	-6	sb2qcln4qtz15th@marketplace.amazon.com	Arshad Latif	+1 314-282-9402 ext. 81629	ABR011	Arabella Bouquets 18 Stems of Fresh Cut Red Roses in a Free Glass Vase	1	0	1	Expedited	Abdul Jalil	802 BRUMMEL ST APT 1			EVANSTON	IL	60202-3971	US		Eid Mubarak Ammi, Abbu From Arshad, Faaiza, Manahil & Talha	false		
113-8157503-9626644	36778720205634	2020-05-13T15:08:43+00:00	2020-05-13T08:08:43-07:00	2020-05-13T15:33:42+00:00	2020-05-19T06:59:59+00:00	-6	118clj3jbm2n4tv@marketplace.amazon.com	Aalyah Duncan	+1 347-448-3190 ext. 14189	ABM010	Arabella Bouquets | Fields of The World Bouquet of Fresh Cut Flowers in a Free Designer Glass Vase	1	0	1	Expedited	Shydia Cannady	19 MERION CIR			NORTH EAST	MD	21901-3830	US		Happy Birthday Mom! From: Aalyah, Divine, Heniyah, Shani Love you! xoxox	false		
112-5669168-1869023	66094851600402	2020-05-13T15:04:53+00:00	2020-05-13T08:04:53-07:00	2020-05-13T15:34:36+00:00	2020-05-19T06:59:59+00:00	-6	2swgwt4qgg3hj34@marketplace.amazon.com	Karen Clark	+1 314-282-9402 ext. 89446	ABR015	Arabella Farm Direct Bouquet of 18 Fresh Cut Orange Roses with a Free Glass Vase	1	0	1	Expedited	Severin Spitzer	9266 MICKELBERRY RD NW			SILVERDALE	WA	98383-9109	US		Happy Early Birthday!  We love you! Karen and Travis From Karen Clark	false		
111-6617021-8332254	56850595436994	2020-05-13T15:05:15+00:00	2020-05-13T08:05:15-07:00	2020-05-13T15:34:44+00:00	2020-05-19T06:59:59+00:00	-6	zw224hfwly2v3sb@marketplace.amazon.com	Eric Whalen	+1 314-282-9402 ext. 33847	ABR0022	Arabella Farm Direct Bouquet of 12 Fresh Cut Pink Roses with a Free Glass Vase	1	0	1	Expedited	Aleyna Yilmaz	210 E MIDDLE ST 1ST FLOOR			HANOVER	PA	17331-2527	US			false		
113-0118087-2243469	48259837656490	2020-05-13T15:22:06+00:00	2020-05-13T08:22:06-07:00	2020-05-13T15:43:56+00:00	2020-05-19T06:59:59+00:00	-6	798wf218rd6d3j5@marketplace.amazon.com	Ed Connolly	+1 314-282-9402 ext. 71594	ABR0022	Arabella Farm Direct Bouquet of 12 Fresh Cut Pink Roses with a Free Glass Vase	1	0	1	Expedited	Sharon Brandt	504 N FRONT ST			SUTTONS BAY	MI	49682-5138	US		Thinking of you and sending our love, Angie & Ed Connolly	false		
113-7672998-8001012	59044994360154	2020-05-13T15:52:26+00:00	2020-05-13T08:52:26-07:00	2020-05-13T15:57:14+00:00	2020-05-19T06:59:59+00:00	-6	0cjsg07b2wf4x81@marketplace.amazon.com	Sara prothe	+1 347-448-3190 ext. 93838	ABM010	Arabella Bouquets | Fields of The World Bouquet of Fresh Cut Flowers in a Free Designer Glass Vase	1	0	1	Expedited	Pam Johnson	4300 Sanders St.	4300 Sanders St.		COLLEGE STATION	AR	72053-0583	US		Happy Mother's day to the #1 Mom. I hope you have a great! Enjoy your gift! From Emmanuel McKeever	false		
112-0498591-5735445	52807311961786	2020-05-13T15:19:53+00:00	2020-05-13T08:19:53-07:00	2020-05-13T15:59:58+00:00	2020-05-19T06:59:59+00:00	-6	cfscltzp1ks8sbp@marketplace.amazon.com	WILLIAM WILSON	+1 347-448-3190 ext. 45543	ABM010	Arabella Bouquets | Fields of The World Bouquet of Fresh Cut Flowers in a Free Designer Glass Vase	1	0	1	Expedited	WILLIAM WILSON	5830 lakeshore dr			columbia	SC	29206	US			false		
111-5097269-2991469	61927591743954	2020-05-13T15:43:30+00:00	2020-05-13T08:43:30-07:00	2020-05-13T16:05:49+00:00	2020-05-19T06:59:59+00:00	-6	06b0tm7kt8vspyd@marketplace.amazon.com	Michael Rabinowitz	+1 210-728-4548 ext. 58591	ABM010	Arabella Bouquets | Fields of The World Bouquet of Fresh Cut Flowers in a Free Designer Glass Vase	1	0	1	Expedited	Alice Brandow	216 ELIZABETH AVE			HOLBROOK	NY	11741-3311	US		HAPPY BIRTHDAY AND MOTHERS DAY!  LOVE Little Jen!!! From Little Jen	false		
113-1058955-8081841	48498719249626	2020-05-13T15:39:19+00:00	2020-05-13T08:39:19-07:00	2020-05-13T16:06:11+00:00	2020-05-19T06:59:59+00:00	-6	cqxzctmgcr64z0f@marketplace.amazon.com	Mike	+1 347-448-3190 ext. 47072	ABM002	Arabella Bouquets Fresh Cut White Calla Lilies in a Free Designer Glass Vase	1	0	1	Expedited	Jeff and Carol Osborn	754 THE ALAMEDA APT 5103			SAN JOSE	CA	95126-3176	US		Thinking of you both during this difficult time. Just know we love you.  Michael and Robin Doria	false		
113-5723515-2429805	51147312749002	2020-05-13T15:41:57+00:00	2020-05-13T08:41:57-07:00	2020-05-13T16:12:34+00:00	2020-05-19T06:59:59+00:00	-6	yl25d827kbjxvdp@marketplace.amazon.com	Amanda Carroll	+1 763-225-9463 ext. 96063	ABM010	Arabella Bouquets | Fields of The World Bouquet of Fresh Cut Flowers in a Free Designer Glass Vase	1	0	1	Expedited	Amanda Carroll	124 RUNAWAY BAY DR APT 212			VIRGINIA BEACH	VA	23452-8144	US			false		
114-1569682-5804239	12802301550498	2020-05-13T15:50:10+00:00	2020-05-13T08:50:10-07:00	2020-05-13T16:12:41+00:00	2020-05-19T06:59:59+00:00	-6	sbmxyr8c0rv9zm9@marketplace.amazon.com	kayla Schoenow	+1 347-448-3190 ext. 12960	ABM010	Arabella Bouquets | Fields of The World Bouquet of Fresh Cut Flowers in a Free Designer Glass Vase	1	0	1	Expedited	Cherish Leland	27807 DELTON ST			MADISON HEIGHTS	MI	48071-3350	US		HAPPY BIRTHDAY!!! Hope your day was filled with magical things and you felt so very special! I’m sorry it’s a little late but now we can celebrate you a bit longer!!  Love, Kayl From Kayla Schoenow	false		
112-3707883-3959425	68881226632706	2020-05-13T15:48:12+00:00	2020-05-13T08:48:12-07:00	2020-05-13T16:15:07+00:00	2020-05-19T06:59:59+00:00	-6	gkw6vlx2txm1t9r@marketplace.amazon.com	Francis Cahill	+1 347-448-3190 ext. 85832	ABR0022	Arabella Farm Direct Bouquet of 12 Fresh Cut Pink Roses with a Free Glass Vase	1	0	1	Expedited	Diana Hughes	9453 RIDGE BLVD APT 3B			BROOKLYN	NY	11209-6760	US			false		
114-2922960-9745018	61989972568594	2020-05-13T15:50:04+00:00	2020-05-13T08:50:04-07:00	2020-05-13T16:17:47+00:00	2020-05-19T06:59:59+00:00	-6	j42nz73frzjr0z4@marketplace.amazon.com	DOREIDA HAJDINI	+1 314-282-9402 ext. 05634	ABR0022	Arabella Farm Direct Bouquet of 12 Fresh Cut Pink Roses with a Free Glass Vase	1	0	1	Expedited	Ediane Gallo	103 CALIFORNIA AVE			JACKSONVILLE	AR	72076-1010	US		Happy Birthday Chicka!!!! Hope these make you smile.  Love, your twin	false		
113-7571284-7449830	67084177691074	2020-05-13T15:52:49+00:00	2020-05-13T08:52:49-07:00	2020-05-13T16:19:22+00:00	2020-05-19T06:59:59+00:00	-6	2zry14p1cb10z9d@marketplace.amazon.com	Carrie	+1 210-728-4548 ext. 92792	ABR0022	Arabella Farm Direct Bouquet of 12 Fresh Cut Pink Roses with a Free Glass Vase	1	0	1	Expedited	Yingtong Chen	10415 NE 32ND PL APT E302			BELLEVUE	WA	98004-4708	US		Love From Little pig	false		
112-1677767-9707415	61545722133698	2020-05-13T15:55:45+00:00	2020-05-13T08:55:45-07:00	2020-05-13T16:21:53+00:00	2020-05-19T06:59:59+00:00	-6	xv568d1vq4lq5wb@marketplace.amazon.com	Patricia Mason	+1 314-282-9402 ext. 17964	ABR0055	Arabella Farm Direct Bouquet of 12 Stems of Fresh Cut Hot Pink Roses in a Free Designer Glass Vase	1	0	1	Expedited	Clarine Mullens	18 HALPINE ST			PATERSON	NJ	07522-1836	US		Wishing you the best birthday ever!  Love  Patricia, Lexus, Marqueese and RayRay  Hope to see you Soon	false		
113-1518157-8681801	17359585767098	2020-05-13T15:57:16+00:00	2020-05-13T08:57:16-07:00	2020-05-13T16:23:38+00:00	2020-05-19T06:59:59+00:00	-6	59j39dhj71njnn2@marketplace.amazon.com	Beth Maag	+1 347-448-3190 ext. 04182	ABM010	Arabella Bouquets | Fields of The World Bouquet of Fresh Cut Flowers in a Free Designer Glass Vase	1	0	1	Expedited	Carolyn Rappa	51 KENWOOD TER			HAMILTON	NJ	08610-2512	US		Happy Anniversary Carolyn and Charlie! We love you and hope you enjoy the flowers. Looking forward to the day we can be together again. Love, Mom and Dad	false		
114-1691100-0839438	69572602936810	2020-05-13T15:47:28+00:00	2020-05-13T08:47:28-07:00	2020-05-13T16:26:54+00:00	2020-05-19T06:59:59+00:00	-6	f6cpx75jvx87ks8@marketplace.amazon.com	amanda zgraggen	+1 347-448-3190 ext. 05222	ABR0055	Arabella Farm Direct Bouquet of 12 Stems of Fresh Cut Hot Pink Roses in a Free Designer Glass Vase	1	0	1	Expedited	Grace Zgraggen	6120 ESCHINGER RD			ELK GROVE	CA	95757-9758	US		Happy Birthday  Love, Amanda & Clint	false		
112-3354143-8020250	03397403288522	2020-05-13T16:03:43+00:00	2020-05-13T09:03:43-07:00	2020-05-13T16:33:32+00:00	2020-05-19T06:59:59+00:00	-6	t3m4g3bl0ggz3gj@marketplace.amazon.com	kaye adkins	+1 210-728-4548 ext. 89061	ABR0066	Arabella Bouquets | 12 Stems of Fresh Cut White Roses in a Free Designer Glass Vase	1	0	1	Expedited	helen dennis	54 knickerbocker Avenue, 4B			brooklyn	new york	11237	US			false		
113-4175242-2381813	16631027973266	2020-05-13T15:41:07+00:00	2020-05-13T08:41:07-07:00	2020-05-13T16:34:09+00:00	2020-05-19T06:59:59+00:00	-6	jnj7nxmvp599t9t@marketplace.amazon.com	Lawson Gibbs	+1 314-282-9402 ext. 42013	ABR001	Arabella Bouquets 12 Stems of Fresh Cut Red Roses in a Free Designer Glass Vase	1	0	1	Expedited	RHONDA BROWN	3874 MS HIGHWAY 50 E			MABEN	MS	39750-6848	US		Hello Irene, this is a surprise from me to you and I want you to know that you have a special place in my heart. From Douglas Marling	false		
112-3846518-8597050	01601295044442	2020-05-13T16:07:13+00:00	2020-05-13T09:07:13-07:00	2020-05-13T16:37:55+00:00	2020-05-19T06:59:59+00:00	-6	x4jrz768w54r2gh@marketplace.amazon.com	Paulette Hill	+1 314-282-9402 ext. 04499	ABR0022	Arabella Farm Direct Bouquet of 12 Fresh Cut Pink Roses with a Free Glass Vase	1	0	1	Expedited	Paulette C. Hill	7172 SPRINGHOUSE LN			CHESTNUT HILL COVE	MD	21226-2200	US			false		
113-3034528-3842626	08788688205378	2020-05-13T16:10:52+00:00	2020-05-13T09:10:52-07:00	2020-05-13T16:39:11+00:00	2020-05-19T06:59:59+00:00	-6	d0n57ftc59hs1nk@marketplace.amazon.com	Kate Bare	+1 347-448-3190 ext. 90122	ABR0022	Arabella Farm Direct Bouquet of 12 Fresh Cut Pink Roses with a Free Glass Vase	1	0	1	Expedited	Eleanor Conner c/o Heritage Corner	HERITAGE CORNER 1069 KLOTZ RD			BOWLING GREEN	OH	43402-4828	US		Dearest Nana/Mom, You are THE best Nana and Mom anyone could ask for. We love you SO much. Hugs and love, Abby and Stacy-Kate From Kate and Abby Bare	false		
114-3919497-5377846	04069042680986	2020-05-13T16:21:27+00:00	2020-05-13T09:21:27-07:00	2020-05-13T16:43:57+00:00	2020-05-19T06:59:59+00:00	-6	233w9sdmrbpfr4y@marketplace.amazon.com	Rose A. Smith	+1 412-532-4665 ext. 21667	ABR0022	Arabella Farm Direct Bouquet of 12 Fresh Cut Pink Roses with a Free Glass Vase	1	0	1	Expedited	Lillie and Brett Seagrist	9032 CONNELL DR			OVERLAND PARK	KS	66212-4746	US		We send our loving band best wishes to Dr. Lillie Seagrist and to her husband, Brett Seagrist MBA.   Both of you have worked so hard.  We are so proud!  Love, Gma and Gpa Smith From Rose A. Smith	false		
112-3327876-0692242	16584268979826	2020-05-13T16:18:13+00:00	2020-05-13T09:18:13-07:00	2020-05-13T16:46:03+00:00	2020-05-19T06:59:59+00:00	-6	cw5zf7v7m8q4dt3@marketplace.amazon.com	Brian Lipinoga	+1 210-728-4548 ext. 99101	ABM010	Arabella Bouquets | Fields of The World Bouquet of Fresh Cut Flowers in a Free Designer Glass Vase	1	0	1	Expedited	Angela Quiroz	2671 BARKSDALE CT			CLEARWATER	FL	33761-3706	US		Hi Angela,  Welcome to the team! We are excited to work with you.  - Brian, HRBP Team & Florida Market	false		
113-1141928-1960224	04219076436626	2020-05-13T16:16:41+00:00	2020-05-13T09:16:41-07:00	2020-05-13T16:46:05+00:00	2020-05-19T06:59:59+00:00	-6	cjtwbjn7s2q4lvd@marketplace.amazon.com	Edlin Figueroa	+1 210-728-4548 ext. 09632	ABR0022	Arabella Farm Direct Bouquet of 12 Fresh Cut Pink Roses with a Free Glass Vase	1	0	1	Expedited	Edlin Figueroa	11920 SINGLETON DR			LA MIRADA	CA	90638-1142	US		Love You! I APPRECIATE ALL YOU DO!!! From Freddy Avendano	false		
113-0618903-3877020	29847320250578	2020-05-13T16:17:38+00:00	2020-05-13T09:17:38-07:00	2020-05-13T16:47:37+00:00	2020-05-19T06:59:59+00:00	-6	rsqvnbxzdc6m077@marketplace.amazon.com	Devin Day	+1 412-532-4665 ext. 44175	ABR0022	Arabella Farm Direct Bouquet of 12 Fresh Cut Pink Roses with a Free Glass Vase	1	0	1	Standard	Devin Day	6174 LEDGESTONE CT			INDIANAPOLIS	IN	46236-7398	US			false		
114-0026294-4085028	30344916664610	2020-05-13T16:31:58+00:00	2020-05-13T09:31:58-07:00	2020-05-13T16:53:30+00:00	2020-05-19T06:59:59+00:00	-6	jkkhvw6g8wwv0gt@marketplace.amazon.com	catherinemoyer	+1 314-282-9402 ext. 47836	ABM010	Arabella Bouquets | Fields of The World Bouquet of Fresh Cut Flowers in a Free Designer Glass Vase	1	0	1	Expedited	Fran Axelrad	16008 FLINTLOCK RD			CUPERTINO	CA	95014-5401	US		Hi, Lots of hugs and love for you to feel better soon From Catherine and Dean	false		
113-1928424-4627414	49064083023642	2020-05-13T16:26:46+00:00	2020-05-13T09:26:46-07:00	2020-05-13T16:56:14+00:00	2020-05-19T06:59:59+00:00	-6	bmylvgfqj9b6hsy@marketplace.amazon.com	Denna	+1 210-728-4548 ext. 60622	ABM010	Arabella Bouquets | Fields of The World Bouquet of Fresh Cut Flowers in a Free Designer Glass Vase	1	0	1	Expedited	Jo Butler	MONOCO RIDGE ASSISTED LIVING	10101 DOUBLE R BLVD APT A09		RENO	NV	89521-5933	US			false		
112-9544071-9665864	29143929440722	2020-05-13T16:30:14+00:00	2020-05-13T09:30:14-07:00	2020-05-13T17:00:52+00:00	2020-05-19T06:59:59+00:00	-6	q3xvqct3gnx8b0l@marketplace.amazon.com	devayas	+1 314-282-9402 ext. 11365	ABR0022	Arabella Farm Direct Bouquet of 12 Fresh Cut Pink Roses with a Free Glass Vase	1	0	1	Expedited	Carmen caudillo	925 JACKSON ST			GRIDLEY	CA	95948-2211	US			false		
112-3021688-2224240	66823381391458	2020-05-13T16:33:02+00:00	2020-05-13T09:33:02-07:00	2020-05-13T17:01:05+00:00	2020-05-19T06:59:59+00:00	-6	6y4ynnns7hpvjxm@marketplace.amazon.com	Zachary Riddell	+1 347-448-3190 ext. 79759	ABR0055	Arabella Farm Direct Bouquet of 12 Stems of Fresh Cut Hot Pink Roses in a Free Designer Glass Vase	1	0	1	Expedited	Madison Henry	129 LINDBERG RD			WINCHESTER	KY	40391-1745	US		Beautiful Flowers for a Beautiful Girl on a Beautiful Day 🌷 From Zachary	false		
111-5503573-7701048	31885758728930	2020-05-13T16:34:01+00:00	2020-05-13T09:34:01-07:00	2020-05-13T17:02:09+00:00	2020-05-19T06:59:59+00:00	-6	ymgxttt0s79h2q6@marketplace.amazon.com	rashid smith	+1 314-282-9402 ext. 22545	ABR0033	Arabella Farm Direct Bouquet of 12 Fresh Cut Orange Roses with a Free Glass Vase	1	0	1	Expedited	Aunt Linda	2313 HARRIS ST			ALEXANDRIA	LA	71301-5924	US			false		
112-3694223-6272266	04383508606730	2020-05-13T16:44:51+00:00	2020-05-13T09:44:51-07:00	2020-05-13T17:12:41+00:00	2020-05-19T06:59:59+00:00	-6	qfln62x5dhct1ns@marketplace.amazon.com	Justin	+1 763-225-9463 ext. 47000	ABM0044	Arabella Farm Direct Bouquet of Fresh Cut Blue Hydrangea with a Free Glass Vase	1	0	1	Expedited	Traci Howard	586 E MCKELLAR AVE			MEMPHIS	TN	38106-7236	US		Love you so very much. Justin	false		
111-3058153-1610601	05817422306178	2020-05-13T16:49:14+00:00	2020-05-13T09:49:14-07:00	2020-05-13T17:17:14+00:00	2020-05-19T06:59:59+00:00	-6	w3gctk3pm7bn5sk@marketplace.amazon.com	Xiaoxiao	+1 210-728-4548 ext. 95016	ABR0022	Arabella Farm Direct Bouquet of 12 Fresh Cut Pink Roses with a Free Glass Vase	1	0	1	Expedited	Jessica Teng	1919 MARKET ST UNIT 813			PHILADELPHIA	PA	19103-1941	US		Congratulations on your graduation ! I’m very proud of you! Love From Mum	false		
114-3168162-9185814	15918025371114	2020-05-13T16:58:04+00:00	2020-05-13T09:58:04-07:00	2020-05-13T17:27:53+00:00	2020-05-19T06:59:59+00:00	-6	cglscm18g1z4l7t@marketplace.amazon.com	Christopher Robin	+1 347-448-3190 ext. 86063	ABM010	Arabella Bouquets | Fields of The World Bouquet of Fresh Cut Flowers in a Free Designer Glass Vase	1	0	1	Expedited	Karen Arnone	431 GEYSER CT			VACAVILLE	CA	95687-3464	US			false		
112-9011011-1393811	20131244346586	2020-05-13T17:32:47+00:00	2020-05-13T10:32:47-07:00	2020-05-13T17:33:46+00:00	2020-05-19T06:59:59+00:00	-6	ctjrznxqcynt572@marketplace.amazon.com	Phara Boyer	+1 347-448-3190 ext. 12935	ABR0066	Arabella Bouquets | 12 Stems of Fresh Cut White Roses in a Free Designer Glass Vase	1	0	1	Expedited	Alison Wade	20A BUSINESS TER			BOSTON	MA	02136-2158	US		Revelation 14:13: "I heard from heaven, blessed are the dead who die in the Lord from now on. Blessed indeed, says the Spirit, that they may rest from their labors, for their deeds follow them!"   I am so sorry for your loss. From -Phara Boyer	false		
114-6116576-3446665	32124104247674	2020-05-13T17:06:33+00:00	2020-05-13T10:06:33-07:00	2020-05-13T17:35:29+00:00	2020-05-19T06:59:59+00:00	-6	jhsrfq5h3pz7jl9@marketplace.amazon.com	richard russ	+1 412-532-4665 ext. 47647	ABM010	Arabella Bouquets | Fields of The World Bouquet of Fresh Cut Flowers in a Free Designer Glass Vase	1	0	1	Expedited	Julia Ogurcak	131 Rexmont Road	Box 38		Cornwall	Pennsylvania	17016	US		Happy Birthday Mom enjoy your day From Love Jen	false		
113-1264184-3265035	31885292493850	2020-05-13T17:26:03+00:00	2020-05-13T10:26:03-07:00	2020-05-13T17:38:33+00:00	2020-05-19T06:59:59+00:00	-6	k84dh0rf5mvqts2@marketplace.amazon.com	Carolyn B. Brand	+1 347-448-3190 ext. 03506	ABR001	Arabella Bouquets 12 Stems of Fresh Cut Red Roses in a Free Designer Glass Vase	1	0	1	Expedited	Bonnie Keppel	11201 MONTE CARLO BLVD			BONITA SPRINGS	FL	34135-3116	US		Hi Bonnie, Get well soon.  Will be thinking of you. Much Love,  BFF Carolyn	false		
111-9473819-7094627	36448901108546	2020-05-13T17:09:41+00:00	2020-05-13T10:09:41-07:00	2020-05-13T17:38:57+00:00	2020-05-19T06:59:59+00:00	-6	p7xwz5vt9tbj9vn@marketplace.amazon.com	Thomas	+1 314-282-9402 ext. 78237	ABR0022	Arabella Farm Direct Bouquet of 12 Fresh Cut Pink Roses with a Free Glass Vase	1	0	1	Expedited	Barbara Aschenbrener	N84W17147 MENOMONEE AVE			MENOMONEE FALLS	WI	53051-2779	US		Enjoy the roses, Mom!  Love Tom From Thomas	false		
114-2030707-0103458	03785694248186	2020-05-13T17:18:11+00:00	2020-05-13T10:18:11-07:00	2020-05-13T17:46:28+00:00	2020-05-19T06:59:59+00:00	-6	733771kq36n48q4@marketplace.amazon.com	Robin	+1 347-448-3190 ext. 02504	ABM010	Arabella Bouquets | Fields of The World Bouquet of Fresh Cut Flowers in a Free Designer Glass Vase	1	0	1	Expedited	Hannah Lynn Storm	171 STANWICH RD			GREENWICH	CT	06830-4019	US		Extending our thoughts and prayers to comfort you.  Blessings and peace to you and your family during this time of sorrow.  Love.  The Kiley's: Mike, Pat, Kim, Kerry, Colleen, Dan, Casey, Liz, Sean and Chris. From The Kiley's	false		
112-6669340-9627439	15164750153266	2020-05-13T17:10:54+00:00	2020-05-13T10:10:54-07:00	2020-05-13T17:46:44+00:00	2020-05-19T06:59:59+00:00	-6	4l396g0qxt60mk1@marketplace.amazon.com	Kashif M Siddiqui	+1 314-282-9402 ext. 15524	ABR0022	Arabella Farm Direct Bouquet of 12 Fresh Cut Pink Roses with a Free Glass Vase	1	0	1	Expedited	Shoaib M. Siddiqi	4424 SNOWCLOUD CT			CONCORD	CA	94518-1937	US			false		
112-6054889-7633067	24075200694362	2020-05-13T17:22:57+00:00	2020-05-13T10:22:57-07:00	2020-05-13T17:46:51+00:00	2020-05-19T06:59:59+00:00	-6	7fz3dh06t72mh64@marketplace.amazon.com	MARIA BAUZON	+1 210-728-4548 ext. 27043	ABR0022	Arabella Farm Direct Bouquet of 12 Fresh Cut Pink Roses with a Free Glass Vase	1	0	1	Expedited	Lisa ONeill	64 SUNRISE ST			PLAINVIEW	NY	11803-4634	US		Dear Lisa,       Happy Mother’s Day! Enjoy the flowers. Love, Matthew From MARIA BAUZON	false		
113-7310111-7547425	67891987917034	2020-05-13T18:05:33+00:00	2020-05-13T11:05:33-07:00	2020-05-13T18:06:27+00:00	2020-05-19T06:59:59+00:00	-6	k818zh0xf1r2v5b@marketplace.amazon.com	Sheryl Page	+1 763-225-9463 ext. 86424	ABR001	Arabella Bouquets 12 Stems of Fresh Cut Red Roses in a Free Designer Glass Vase	1	0	1	Expedited	Adam Page	8515 GRACE ST			HIGHLAND	INDIANA	46322-1757	US		Dear Judy, Hoping these flowers find you feeling better. Best wishes for a speedy recovery! XOXO, Michael & Sheryl From Sheryl Page	false		
113-0820625-7530636	31503672630130	2020-05-13T17:58:23+00:00	2020-05-13T10:58:23-07:00	2020-05-13T18:11:45+00:00	2020-05-19T06:59:59+00:00	-6	h3h2nvc8c098cy8@marketplace.amazon.com	Jaehoon Jeong	+1 210-728-4548 ext. 82725	ABM010	Arabella Bouquets | Fields of The World Bouquet of Fresh Cut Flowers in a Free Designer Glass Vase	1	0	1	Expedited	Sandra Hendren	19942 FERN WAY			CASTRO VALLEY	CA	94546-4513	US		Sandy,   Happy belated, belated (x3) mother's day!  Thank you for being one of the greatest moms I know in my life. Much love and miss you!   - Jae	false		
111-4232598-6178648	03239970522418	2020-05-13T17:50:39+00:00	2020-05-13T10:50:39-07:00	2020-05-13T18:18:41+00:00	2020-05-19T06:59:59+00:00	-6	x9f5k33swmhfq27@marketplace.amazon.com	Tina Luce	+1 210-728-4548 ext. 64772	ABM010	Arabella Bouquets | Fields of The World Bouquet of Fresh Cut Flowers in a Free Designer Glass Vase	1	0	1	Expedited	Marion Luce	3A MAKE YOUR OWN WAY			SARATOGA SPRINGS	NY	12866-7238	US			false		
114-4673158-9479425	45484470177370	2020-05-13T17:46:57+00:00	2020-05-13T10:46:57-07:00	2020-05-13T18:21:27+00:00	2020-05-19T06:59:59+00:00	-6	zj6mb85sbw7xxb8@marketplace.amazon.com	Evan J. Segal	+1 347-448-3190 ext. 27008	ABR0055	Arabella Farm Direct Bouquet of 12 Stems of Fresh Cut Hot Pink Roses in a Free Designer Glass Vase	1	0	1	Expedited	Sarah Bradley	8 GURNEY ST			ROCKPORT	MAINE	04856-4829	US			false		
114-8084369-4213037	68303825251770	2020-05-13T17:55:41+00:00	2020-05-13T10:55:41-07:00	2020-05-13T18:23:20+00:00	2020-05-19T06:59:59+00:00	-6	z91c9jk27hrh565@marketplace.amazon.com	cris hunt	+1 347-448-3190 ext. 97835	ABR0022	Arabella Farm Direct Bouquet of 12 Fresh Cut Pink Roses with a Free Glass Vase	1	0	1	Expedited	Carol Hainey	220 SUGAR LOAF DR			STAR VALLEY RANCH	WY	83127-8006	US		Dear Carol, Brent and family, Our deepest love and sympathy for the loss of your mother, she will be greatly missed. She was blessed with a loving family. From Love, Cris & Den Hunt & family	false		
111-5026617-7769032	50275748257362	2020-05-13T18:04:35+00:00	2020-05-13T11:04:35-07:00	2020-05-13T18:26:47+00:00	2020-05-19T06:59:59+00:00	-6	slp15t6mvb3g44k@marketplace.amazon.com	Kevin Petnuch	+1 210-728-4548 ext. 15692	ABR0022	Arabella Farm Direct Bouquet of 12 Fresh Cut Pink Roses with a Free Glass Vase	1	0	1	Expedited	Maureen Murphy	3980 GORDON DR			NAPLES	FL	34102-7962	US		Dear Aunt Maureen, Uncle Jim, Chris & John, Thank you for letting me stay with you the past few months. I hope to see you all this summer and maybe we can all play some cards! Love, Kevin From Kevin Petnuch	false		
111-5849025-9841815	05135095829154	2020-05-13T18:07:27+00:00	2020-05-13T11:07:27-07:00	2020-05-13T18:29:48+00:00	2020-05-19T06:59:59+00:00	-6	hl488ybr1d1l2f1@marketplace.amazon.com	sherry ebbing	+1 210-728-4548 ext. 64434	ABM010	Arabella Bouquets | Fields of The World Bouquet of Fresh Cut Flowers in a Free Designer Glass Vase	1	0	1	Expedited	Patricia Iler	1786 KILLINGSWORTH RD			JESUP	GA	31545-4900	US		Happy Mother's day. We love you.  Love  Mike and Sherry From sherry ebbing	false		
111-4741245-4729846	02843592587754	2020-05-13T18:01:03+00:00	2020-05-13T11:01:03-07:00	2020-05-13T18:31:17+00:00	2020-05-19T06:59:59+00:00	-6	lrm6jtxfd60gh0b@marketplace.amazon.com	Lawrence	+1 412-532-4665 ext. 98627	ABM010	Arabella Bouquets | Fields of The World Bouquet of Fresh Cut Flowers in a Free Designer Glass Vase	1	0	1	Expedited	Michele Tuzzio	10 EXETER AVE			LYNBROOK	NY	11563-3710	US			false		
112-5776151-9751456	63123553867730	2020-05-13T18:03:59+00:00	2020-05-13T11:03:59-07:00	2020-05-13T18:31:41+00:00	2020-05-19T06:59:59+00:00	-6	bngtz60h3d59xl1@marketplace.amazon.com	V Smith	+1 347-448-3190 ext. 23490	ABR0033	Arabella Farm Direct Bouquet of 12 Fresh Cut Orange Roses with a Free Glass Vase	1	0	1	Expedited	Doris smith	215 QUACKENBUSH RD			SCHENECTADY	NY	12306-5434	US		Hi Doris, Enjoy your gift! From V Smith	false		
114-7414618-9952266	33454115302842	2020-05-13T18:05:59+00:00	2020-05-13T11:05:59-07:00	2020-05-13T18:31:52+00:00	2020-05-19T06:59:59+00:00	-6	z91c9jk27hrh565@marketplace.amazon.com	cris hunt	+1 347-448-3190 ext. 00700	ABR0033	Arabella Farm Direct Bouquet of 12 Fresh Cut Orange Roses with a Free Glass Vase	1	0	1	Expedited	Lori Ann Serrano-Mondragon Families	357 HONDO SECO RD			EL PRADO	NM	87529-6025	US		Teresa,Joseph,Cecilia,Robert,Lori Ann and Families, Our deepest love & sympathy for the loss of your father & our Tio Lino. He was blessed with a loving family. From Love,Cristine(Hunt),Max,Rose Romero	false		
112-9978505-0734639	70356470898466	2020-05-13T18:09:42+00:00	2020-05-13T11:09:42-07:00	2020-05-13T18:36:55+00:00	2020-05-19T06:59:59+00:00	-6	h2hmjrph5sff3yy@marketplace.amazon.com	Monika  Nunez	+1 314-282-9402 ext. 06607	ABR0022	Arabella Farm Direct Bouquet of 12 Fresh Cut Pink Roses with a Free Glass Vase	1	0	1	Expedited	Nathalie Quinonez	74 S MUNN AVE APT 7H			EAST ORANGE	NJ	07018-4311	US			false		
114-0438076-6509031	30745272466882	2020-05-13T18:02:32+00:00	2020-05-13T11:02:32-07:00	2020-05-13T18:41:01+00:00	2020-05-19T06:59:59+00:00	-6	ss8sprzzz0z950n@marketplace.amazon.com	Micah D Ristow	+1 347-448-3190 ext. 47793	ABSR003	Arabella Bouquets Fresh Cut Yellow Spray Roses in a Free Designer Glass Vase	1	0	1	Expedited	Kirk Gebert	1217 COUNTY ROAD 112			CARBONDALE	CO	81623-9643	US		Happy b-lated birthday to you Lisa. From Micah and Sarah Ristow	false		
113-4603005-6120219	25600085745714	2020-05-13T18:15:16+00:00	2020-05-13T11:15:16-07:00	2020-05-13T18:44:48+00:00	2020-05-19T06:59:59+00:00	-6	31pcjj6zw6274c3@marketplace.amazon.com	Toluh	+1 347-448-3190 ext. 51126	ABR0022	Arabella Farm Direct Bouquet of 12 Fresh Cut Pink Roses with a Free Glass Vase	1	0	1	Expedited	Kathleen Ketelboeter	8358 COUNTY ROAD K			CROSS PLAINS	WI	53528-9751	US		Love you so much ❤️❤️❤️ From CSL	false		
113-3231136-9373853	61720955628314	2020-05-13T18:23:40+00:00	2020-05-13T11:23:40-07:00	2020-05-13T18:46:45+00:00	2020-05-19T06:59:59+00:00	-6	5pfqgc6ydb32zyj@marketplace.amazon.com	shardae gordon	+1 347-448-3190 ext. 49533	ABM0044	Arabella Farm Direct Bouquet of Fresh Cut Blue Hydrangea with a Free Glass Vase	1	0	1	Expedited	Aaron and Raven Graham	25016 W 8 MILE RD APT 206			SOUTHFIELD	MI	48033-4051	US			false		
111-3907109-0644231	38021327553866	2020-05-13T18:22:26+00:00	2020-05-13T11:22:26-07:00	2020-05-13T18:47:31+00:00	2020-05-19T06:59:59+00:00	-6	xrvlvd4yb8j5p99@marketplace.amazon.com	michael rodriguez	+1 210-728-4548 ext. 56843	ABR001	Arabella Bouquets 12 Stems of Fresh Cut Red Roses in a Free Designer Glass Vase	1	0	1	Expedited	Ziomara Rodriguez	239 ELM ST APT 5			SAN MATEO	CA	94401-2650	US			false		
113-5894093-2493009	47805707740178	2020-05-13T18:18:52+00:00	2020-05-13T11:18:52-07:00	2020-05-13T18:49:26+00:00	2020-05-19T06:59:59+00:00	-6	8g58dsgn5jzth8q@marketplace.amazon.com	clint w davis	+1 314-282-9402 ext. 65306	ABR001	Arabella Bouquets 12 Stems of Fresh Cut Red Roses in a Free Designer Glass Vase	1	0	1	Expedited	Clint Davis	1610 DORIS ST			WALL TOWNSHIP	NJ	07753-6945	US			false		
112-0860054-2986652	23937385072450	2020-05-13T18:23:48+00:00	2020-05-13T11:23:48-07:00	2020-05-13T18:51:19+00:00	2020-05-19T06:59:59+00:00	-6	gwt5sznd2m96fn8@marketplace.amazon.com	Cedrick A Hayward	+1 347-448-3190 ext. 18559	ABR001	Arabella Bouquets 12 Stems of Fresh Cut Red Roses in a Free Designer Glass Vase	1	0	1	Expedited	Hilda Hayward	105 Mauk Circle			Warner Robins	GA	31093	US		Happy belated Mother's Day to the best mom I know~! I Love you!!!! From Ced Al Hay	false		
114-8596569-8206607	60668358259666	2020-05-13T18:35:58+00:00	2020-05-13T11:35:58-07:00	2020-05-13T18:59:38+00:00	2020-05-19T06:59:59+00:00	-6	37m6q07dltr7q1t@marketplace.amazon.com	Jo Whitman	+1 347-448-3190 ext. 96388	ABR0022	Arabella Farm Direct Bouquet of 12 Fresh Cut Pink Roses with a Free Glass Vase	1	0	1	Expedited	Leigh Limoges	1589 BOHLAND AVE			SAINT PAUL	MN	55116-2122	US		Happy birthday Leigh! I have loved you for 42 years, and have been so proud of you always! Love❤️Jo From Jo Whitman	false		
113-3248161-0213043	15958622120338	2020-05-13T18:29:40+00:00	2020-05-13T11:29:40-07:00	2020-05-13T19:00:20+00:00	2020-05-19T06:59:59+00:00	-6	xx17dgr1d4s8b5r@marketplace.amazon.com	bert boksen	+1 314-282-9402 ext. 49701	ABM010	Arabella Bouquets | Fields of The World Bouquet of Fresh Cut Flowers in a Free Designer Glass Vase	1	0	1	Expedited	Bert Boksen	1610 HAMPTON CT			SAFETY HARBOR	FL	34695-5240	US			false		
114-1471994-3648259	20694102493842	2020-05-13T18:40:04+00:00	2020-05-13T11:40:04-07:00	2020-05-13T19:08:56+00:00	2020-05-19T06:59:59+00:00	-6	n1rbn4fv0qrkgp6@marketplace.amazon.com	Anna Holtzman	+1 314-282-9402 ext. 84612	ABR0022	Arabella Farm Direct Bouquet of 12 Fresh Cut Pink Roses with a Free Glass Vase	1	0	1	Expedited	Cheryl Holtzman	312 WALKLEY HILL RD			HADDAM	CT	06438-1016	US		Happy belated Mother’s Day, Mimmy! I forgot that flower delivery still existed in lockdown land, but a birdy told me it still does :) XOXO From Anna Holtzman	false		
111-0159050-2287446	08220238177874	2020-05-13T18:52:05+00:00	2020-05-13T11:52:05-07:00	2020-05-13T19:14:38+00:00	2020-05-19T06:59:59+00:00	-6	b5gvl7djf05h50c@marketplace.amazon.com	maria	+1 210-728-4548 ext. 28275	ABR0022	Arabella Farm Direct Bouquet of 12 Fresh Cut Pink Roses with a Free Glass Vase	1	0	1	Expedited	Tania DeAngelo	7 GLENWOOD CIR			EAST WINDSOR	NJ	08520-2303	US		Hi Tania, Here they are - FINALLY! Enjoy your flowers. Love, Maria	false		
113-9246567-7366630	40829815559594	2020-05-12T16:34:45+00:00	2020-05-12T09:34:45-07:00	2020-05-13T19:31:56+00:00	2020-05-19T06:59:59+00:00	-6	5scklylhjkrpltc@marketplace.amazon.com	Wijdanal-khateeb2020@u.northwestern.edu	+1 314-282-9402 ext. 69105	ABR0066	Arabella Bouquets | 12 Stems of Fresh Cut White Roses in a Free Designer Glass Vase	1	0	1	Expedited	Hanadi Jarrar	12102 La Cienga Blvd			Hawthorne	California	90250	US		Congratulations on graduating Hanoud, we are so so so proud of you Ms. Engineer! We wish we could be together to celebrate, and hopefully we will get to celebrate inshallah. Love and miss you - Aaya, Raneem & Wijdan	false		
111-8285777-1854644	64546875817570	2020-05-13T19:05:31+00:00	2020-05-13T12:05:31-07:00	2020-05-13T19:33:09+00:00	2020-05-19T06:59:59+00:00	-6	8mlhb26yj965s5b@marketplace.amazon.com	Sandy Wiles	+1 314-282-9402 ext. 00590	ABM010	Arabella Bouquets | Fields of The World Bouquet of Fresh Cut Flowers in a Free Designer Glass Vase	1	0	1	Expedited	Sandy Wiles	3017 MORLEY LN			ROSEVILLE	CA	95747-9046	US		Hi Marsha, We are all praying for you and hope that you have a speedy recovery! We love you Marsha!! Sandy, Eric, and Jody	false		
111-9588139-3885060	08223084822850	2020-05-13T19:07:10+00:00	2020-05-13T12:07:10-07:00	2020-05-13T19:34:33+00:00	2020-05-19T06:59:59+00:00	-6	g45c2626wrxcstq@marketplace.amazon.com	Michelle Rico	+1 347-448-3190 ext. 53457	ABR0022	Arabella Farm Direct Bouquet of 12 Fresh Cut Pink Roses with a Free Glass Vase	1	0	1	Expedited	MARIBEL HURTADO	21985 BYRON ST			PERRIS	CA	92570-8717	US			true		
113-7810219-9952202	18996206510074	2020-05-13T19:08:57+00:00	2020-05-13T12:08:57-07:00	2020-05-13T19:36:33+00:00	2020-05-19T06:59:59+00:00	-6	dn455t8w2hh55zs@marketplace.amazon.com	kevin furtado	+1 347-448-3190 ext. 99917	ABM010	Arabella Bouquets | Fields of The World Bouquet of Fresh Cut Flowers in a Free Designer Glass Vase	1	0	1	Expedited	kevin furtado	2226 DIANNE DR			SANTA CLARA	CA	95050-4527	US		Happy Late Mothers Day Kevin	true		
114-9774248-4480241	23902089292906	2020-05-13T19:09:37+00:00	2020-05-13T12:09:37-07:00	2020-05-13T19:38:05+00:00	2020-05-19T06:59:59+00:00	-6	yfmkphf4jhb8r21@marketplace.amazon.com	Macy King	+1 763-225-9463 ext. 67891	ABR0022	Arabella Farm Direct Bouquet of 12 Fresh Cut Pink Roses with a Free Glass Vase	1	0	1	Expedited	Amanda Ackley	410 KINGSLEY HILL RD			TOWANDA	PA	18848-8370	US		Welcome to the world Savannah Rose! You did so good Amanda! Sending our love! From Macy King and Lukas Mathews	false		
114-2432095-1469035	04336925724106	2020-05-13T19:17:36+00:00	2020-05-13T12:17:36-07:00	2020-05-13T19:39:54+00:00	2020-05-19T06:59:59+00:00	-6	3pm2sbnrb4zq1s5@marketplace.amazon.com	Philip	+1 763-225-9463 ext. 50587	ABR0033	Arabella Farm Direct Bouquet of 12 Fresh Cut Orange Roses with a Free Glass Vase	1	0	1	Expedited	Mandy Self	5856 TETHERWOOD DR			TOLEDO	OH	43613-1614	US		Dear Mandy, Congratulations on your 30th Anniversary with Key! We are so fortunate to have you on our team! Best wishes, Your Employee Relations Team	false		
111-2696423-7555448	59992882452778	2020-05-13T19:17:56+00:00	2020-05-13T12:17:56-07:00	2020-05-13T19:45:52+00:00	2020-05-19T06:59:59+00:00	-6	39qnj4k36wr7mf5@marketplace.amazon.com	Pantar Solutions	+1 210-728-4548 ext. 91821	ABR001	Arabella Bouquets 12 Stems of Fresh Cut Red Roses in a Free Designer Glass Vase	1	0	1	Expedited	VINAY DANAGERI	7404 BRISTOL VILLAGE DR			BLOOMINGTON	MN	55438-2558	US		Hi Vinay CONGRATULATIONS ON YOUR NEW BORN BABY BOY! From Pantar Solutions	false		
114-3900478-5723466	69272618021354	2020-05-13T19:25:07+00:00	2020-05-13T12:25:07-07:00	2020-05-13T19:45:58+00:00	2020-05-19T06:59:59+00:00	-6	vw5xysn4zcmk6wb@marketplace.amazon.com	Jessica Santos	+1 314-282-9402 ext. 42623	ABR0022	Arabella Farm Direct Bouquet of 12 Fresh Cut Pink Roses with a Free Glass Vase	1	0	1	Expedited	Laura J. Ferguson	1303 MURRAY RD			ODENTON	MD	21113-1630	US		Thank you for everything you do to support our coworkers and the HR team. Enjoy! From HR Team	false		
112-8745394-6796200	33533460609034	2020-05-13T19:16:57+00:00	2020-05-13T12:16:57-07:00	2020-05-13T19:47:29+00:00	2020-05-19T06:59:59+00:00	-6	zcfn2tb6zhyzg76@marketplace.amazon.com	Nathan Marsh	+1 347-448-3190 ext. 71043	ABM010	Arabella Bouquets | Fields of The World Bouquet of Fresh Cut Flowers in a Free Designer Glass Vase	1	0	1	Expedited	David and Christine Dunn	15295 SW BULL MOUNTAIN RD			TIGARD	OR	97224-1224	US			false		
113-8448973-8506650	32934745019090	2020-05-13T19:24:42+00:00	2020-05-13T12:24:42-07:00	2020-05-13T19:53:19+00:00	2020-05-19T06:59:59+00:00	-6	njyqqmf7glfqdj3@marketplace.amazon.com	Julie Love	+1 210-728-4548 ext. 21753	ABR0022	Arabella Farm Direct Bouquet of 12 Fresh Cut Pink Roses with a Free Glass Vase	1	0	1	Expedited	Renee Stapleton	16900 NE PIT RD			HILLSBORO	OR	97123-8782	US		Thank you for all you do for Oregon OSHA! Wishing you a very happy birthday!! From Julie Love	false		
111-2777484-4711439	16489109421818	2020-05-13T19:26:36+00:00	2020-05-13T12:26:36-07:00	2020-05-13T19:56:09+00:00	2020-05-19T06:59:59+00:00	-6	chzxl2bpxrt82b7@marketplace.amazon.com	Erik	+1 347-448-3190 ext. 12637	ABR001	Arabella Bouquets 12 Stems of Fresh Cut Red Roses in a Free Designer Glass Vase	1	0	1	Expedited	Esme Hernandez	101 DEERWOOD DR APT 12			SONORA	TX	76950-2004	US			false		
114-6087384-1658635	17529795435050	2020-05-13T19:55:27+00:00	2020-05-13T12:55:27-07:00	2020-05-13T19:56:55+00:00	2020-05-19T06:59:59+00:00	-6	gqwfx1jky0mvc2g@marketplace.amazon.com	Reece Hagler	+1 347-448-3190 ext. 94647	ABR0022	Arabella Farm Direct Bouquet of 12 Fresh Cut Pink Roses with a Free Glass Vase	1	0	1	Expedited	John Hagler	8008 CANDLEWOOD DR			ALEXANDRIA	VA	22306-3221	US			false		
111-3936167-5467417	31299600715250	2020-05-13T19:31:22+00:00	2020-05-13T12:31:22-07:00	2020-05-13T19:59:47+00:00	2020-05-19T06:59:59+00:00	-6	mybdsrq34hl4g6d@marketplace.amazon.com	Claire Patalano	+1 210-728-4548 ext. 14414	ABM0044	Arabella Farm Direct Bouquet of Fresh Cut Blue Hydrangea with a Free Glass Vase	1	0	1	Expedited	Aunt Ronnie Gambino	483 FANNING ST			STATEN ISLAND	NY	10314-6466	US		HAPPY BELATED MOTHER’S DAY! From Love Claire Xoxoxo	false		
114-7666030-3986668	10748912769922	2020-05-13T19:43:37+00:00	2020-05-13T12:43:37-07:00	2020-05-13T20:06:38+00:00	2020-05-19T06:59:59+00:00	-6	7bkkp1lwdw0nrbl@marketplace.amazon.com	Ray Stark	+1 347-448-3190 ext. 46165	ABR0055	Arabella Farm Direct Bouquet of 12 Stems of Fresh Cut Hot Pink Roses in a Free Designer Glass Vase	1	0	1	Expedited	C & M Smith	423 COUNTY ROAD 2153			NACOGDOCHES	TX	75965-4885	US		Hi Just thought  you guys could have some cheer in these shut in days.  Love, Ray	false		
112-5254463-1796216	57341467698090	2020-05-13T19:55:32+00:00	2020-05-13T12:55:32-07:00	2020-05-13T20:09:01+00:00	2020-05-19T06:59:59+00:00	-6	ltvdqjkfcy0bg4x@marketplace.amazon.com	Veronica Ansalve	+1 314-282-9402 ext. 81926	ABM010	Arabella Bouquets | Fields of The World Bouquet of Fresh Cut Flowers in a Free Designer Glass Vase	1	0	1	Expedited	Mrs. Toni Maltese	177 EDWIN GREMILLION RD			HESSMER	LA	71341-4155	US		Happy Mother's Day Ms. T Love  Ms. V and Terry	false		
114-6227808-2129809	16884329492058	2020-05-13T19:46:31+00:00	2020-05-13T12:46:31-07:00	2020-05-13T20:15:01+00:00	2020-05-19T06:59:59+00:00	-6	dx59trkhvxbwb42@marketplace.amazon.com	Dorian Alfaro	+1 347-448-3190 ext. 93828	ABR0022	Arabella Farm Direct Bouquet of 12 Fresh Cut Pink Roses with a Free Glass Vase	1	0	1	Expedited	Cindy Miller	2475 W WARWICK RD			MUNCIE	IN	47304-3348	US		I hope you are feeling better Cindy!  Praying for your quick recovery! Xoxo -Sarah From Sarah Alfaro	false		
114-7721920-9073814	29149654918522	2020-05-13T19:52:50+00:00	2020-05-13T12:52:50-07:00	2020-05-13T20:15:59+00:00	2020-05-19T06:59:59+00:00	-6	1g3yq9d7sjt28mz@marketplace.amazon.com	David Swift	+1 210-728-4548 ext. 34242	ABM010	Arabella Bouquets | Fields of The World Bouquet of Fresh Cut Flowers in a Free Designer Glass Vase	1	0	1	Expedited	Pat Swift	555 E MEMORY LN APT B301			SANTA ANA	CA	92706-1711	US			false		
111-6484010-6118628	38872603039722	2020-05-13T19:57:31+00:00	2020-05-13T12:57:31-07:00	2020-05-13T20:27:28+00:00	2020-05-19T06:59:59+00:00	-6	mj436qgkr31x6nl@marketplace.amazon.com	Eric	+1 314-282-9402 ext. 69111	ABR0055	Arabella Farm Direct Bouquet of 12 Stems of Fresh Cut Hot Pink Roses in a Free Designer Glass Vase	1	0	1	Expedited	Eric	14 DAYLILY DR			MOUNT LAUREL	NJ	08054-5722	US			false		
114-1490890-0206616	37026923485674	2020-05-13T20:09:52+00:00	2020-05-13T13:09:52-07:00	2020-05-13T20:38:18+00:00	2020-05-19T06:59:59+00:00	-6	27qtrytwd6m6pkz@marketplace.amazon.com	Latoya Martin	+1 210-728-4548 ext. 65224	ABR0022	Arabella Farm Direct Bouquet of 12 Fresh Cut Pink Roses with a Free Glass Vase	1	0	1	Expedited	Rita Martin	4302 N 62ND ST			MILWAUKEE	WI	53216-1219	US			false		
114-6912888-2555405	50713321558186	2020-05-13T20:33:43+00:00	2020-05-13T13:33:43-07:00	2020-05-13T20:58:16+00:00	2020-05-19T06:59:59+00:00	-6	n410189tblngzbv@marketplace.amazon.com	Lisa Andrews	+1 314-282-9402 ext. 71830	ABR0033	Arabella Farm Direct Bouquet of 12 Fresh Cut Orange Roses with a Free Glass Vase	1	0	1	Expedited	Gail Batchelor	88731 OLD HWY			TAVERNIER	FL	33070-4006	US		Gail, Thank you so much for all of  your time and assistance with the fogger. Stay safe and well! With much appreciation,  Joe Hoffman (PECO RE&F)	false		
111-2121083-3445865	70153704337106	2020-05-13T20:30:47+00:00	2020-05-13T13:30:47-07:00	2020-05-13T20:59:20+00:00	2020-05-19T06:59:59+00:00	-6	twqg6z86wrkvqp9@marketplace.amazon.com	Tegan McKim	+1 210-728-4548 ext. 30486	ABR0022	Arabella Farm Direct Bouquet of 12 Fresh Cut Pink Roses with a Free Glass Vase	1	0	1	Expedited	Billie Wells	2171 NE 44TH ST			LIGHTHOUSE POINT	FL	33064-7337	US		Hope these make your day! They’re sent with love from Desirée, Nana Koko, Tegan and Duncan... From Desirée	false		
112-7934447-2107441	46109222780386	2020-05-13T20:42:18+00:00	2020-05-13T13:42:18-07:00	2020-05-13T21:03:36+00:00	2020-05-19T06:59:59+00:00	-6	thfxz5j97x0s1tk@marketplace.amazon.com	Renee	+1 210-728-4548 ext. 32852	ABR0022	Arabella Farm Direct Bouquet of 12 Fresh Cut Pink Roses with a Free Glass Vase	1	0	1	Expedited	Montie Esmali	5770 WINFIELD BLVD SPC 100			SAN JOSE	CA	95123-2416	US		Happy Birthday! I hope you have a wonderful year filled with love, laughter, fun times with family and friends and good health. I love you and I’m blessed to have you in my life. XOXO 😘 From Renee	false		
112-9028230-4781821	08801844387994	2020-05-13T20:18:35+00:00	2020-05-13T13:18:35-07:00	2020-05-13T21:03:53+00:00	2020-05-19T06:59:59+00:00	-6	616lctvmtwfwd6w@marketplace.amazon.com	Maggie	+1 314-282-9402 ext. 27720	ABM010	Arabella Bouquets | Fields of The World Bouquet of Fresh Cut Flowers in a Free Designer Glass Vase	1	0	1	Expedited	Shahrnaz Niktash	17240 SANDY KNOLL DR			OLNEY	MD	20832-2036	US			false		
112-2104672-7535448	55113185483330	2020-05-13T20:42:56+00:00	2020-05-13T13:42:56-07:00	2020-05-13T21:10:51+00:00	2020-05-19T06:59:59+00:00	-6	d32c644ftphw1cs@marketplace.amazon.com	BethKuettel	+1 314-282-9402 ext. 80199	ABR0055	Arabella Farm Direct Bouquet of 12 Stems of Fresh Cut Hot Pink Roses in a Free Designer Glass Vase	1	0	1	Expedited	Sarah and Dean Hirschy	5706 BELLECHASSE ST			CHARLOTTE	NC	28210-6415	US		Dear Sarah and Dean, I am so sorry to hear about Lois. She was such a nice lady. Wanted to let you know I am thinking about you during this difficult time, Love, Marcia From Marcia Hirschy	false		
111-9237254-7080219	39950627111250	2020-05-13T20:43:01+00:00	2020-05-13T13:43:01-07:00	2020-05-13T21:11:20+00:00	2020-05-19T06:59:59+00:00	-6	5fdnppsb5m3s5qv@marketplace.amazon.com	megumi omichi	+1 210-728-4548 ext. 39905	ABR0033	Arabella Farm Direct Bouquet of 12 Fresh Cut Orange Roses with a Free Glass Vase	1	0	1	Expedited	Jenna  Coudin	799 GRAND ST APT 2F			BROOKLYN	NY	11211-5072	US			false		
112-2608813-6155400	49940414242714	2020-05-13T20:29:08+00:00	2020-05-13T13:29:08-07:00	2020-05-13T21:11:26+00:00	2020-05-19T06:59:59+00:00	-6	616lctvmtwfwd6w@marketplace.amazon.com	Maggie	+1 347-448-3190 ext. 68487	ABM010	Arabella Bouquets | Fields of The World Bouquet of Fresh Cut Flowers in a Free Designer Glass Vase	1	0	1	Expedited	Arezou Amani	26 MARTINS LN			ROCKVILLE	MD	20850-1852	US			false		
114-2323851-6302656	27674496903426	2020-05-13T20:50:05+00:00	2020-05-13T13:50:05-07:00	2020-05-13T21:19:22+00:00	2020-05-19T06:59:59+00:00	-6	kcnyw5hc4g9q5gg@marketplace.amazon.com	joe	+1 347-448-3190 ext. 35877	ABR0022	Arabella Farm Direct Bouquet of 12 Fresh Cut Pink Roses with a Free Glass Vase	1	0	1	Expedited	Deloris	412 10TH ST SE			WATERTOWN	SD	57201-4558	US		Hey sweetie this is just for everything you do love you have a great day From joe	false		
111-1502946-0729065	64797203730330	2020-05-13T20:50:01+00:00	2020-05-13T13:50:01-07:00	2020-05-13T21:19:29+00:00	2020-05-19T06:59:59+00:00	-6	338qmf9rqt7s4fm@marketplace.amazon.com	Susan Delehanty	+1 412-532-4665 ext. 51649	ABR0033	Arabella Farm Direct Bouquet of 12 Fresh Cut Orange Roses with a Free Glass Vase	1	0	1	Expedited	Kathleen Garrand	5519 PRESERVE PT			FLOWERY BRANCH	GA	30542-6111	US		Happy Birthday! From Mom and Dad	false		
111-5963288-3470622	05422016920282	2020-05-13T20:53:17+00:00	2020-05-13T13:53:17-07:00	2020-05-13T21:22:53+00:00	2020-05-19T06:59:59+00:00	-6	fzmyr7cvx3kgphz@marketplace.amazon.com	Steve	+1 210-728-4548 ext. 77326	ABM010	Arabella Bouquets | Fields of The World Bouquet of Fresh Cut Flowers in a Free Designer Glass Vase	1	0	1	Expedited	Justin Maneri	6010 E CAMINO MANZANO			ANAHEIM	CA	92807-3217	US			false		
112-1281557-4629812	42932510777042	2020-05-13T20:56:18+00:00	2020-05-13T13:56:18-07:00	2020-05-13T21:26:49+00:00	2020-05-19T06:59:59+00:00	-6	tjdrdwqjpx7ml5t@marketplace.amazon.com	Jake Duperon	+1 763-225-9463 ext. 51894	ABR0033	Arabella Farm Direct Bouquet of 12 Fresh Cut Orange Roses with a Free Glass Vase	1	0	1	Expedited	Jake Duperon	246 RIVER RD			BOW	NH	03304-3354	US			false		
114-7631584-5893050	05328951780538	2020-05-13T21:10:03+00:00	2020-05-13T14:10:03-07:00	2020-05-13T21:37:34+00:00	2020-05-19T06:59:59+00:00	-6	bctf9c2f45hjn1m@marketplace.amazon.com	Terri Schilthorn	+1 210-728-4548 ext. 23666	ABM010	Arabella Bouquets | Fields of The World Bouquet of Fresh Cut Flowers in a Free Designer Glass Vase	1	0	1	Expedited	Karan Bowman	2342 ROBERT D RD			MOUNT DORA	FL	32757-9786	US		Hi Karan, Just wanted to brighten your day a bit!  Thinking of you. From Terri Schilthorn	false		
111-5749226-1010639	42388703999410	2020-05-13T21:08:10+00:00	2020-05-13T14:08:10-07:00	2020-05-13T21:37:35+00:00	2020-05-19T06:59:59+00:00	-6	z9520zwh9m5my5n@marketplace.amazon.com	Zachary Arrendell	+1 763-225-9463 ext. 64599	ABR0055	Arabella Farm Direct Bouquet of 12 Stems of Fresh Cut Hot Pink Roses in a Free Designer Glass Vase	1	0	1	Expedited	Candice R. Arrendell	18631 CROSS COUNTRY LN			GAITHERSBURG	MD	20879-4604	US			false		
114-9566968-9313860	54285062372178	2020-05-13T21:09:06+00:00	2020-05-13T14:09:06-07:00	2020-05-13T21:38:28+00:00	2020-05-19T06:59:59+00:00	-6	nb5f9pv644rjfv9@marketplace.amazon.com	Ryan Schrock	+1 347-448-3190 ext. 93281	ABR0022	Arabella Farm Direct Bouquet of 12 Fresh Cut Pink Roses with a Free Glass Vase	1	0	1	Expedited	Mama KJ Smith	2960 CLARKS CHAPEL RD			FRANKLIN	NC	28734-4651	US		Happy Mother’s Day Momma KJ!  We love you, sorry for the late delivery!  Love  The Schrock Family From Ryan Schrock	false		
114-6107451-4501809	62706252929746	2020-05-13T21:14:56+00:00	2020-05-13T14:14:56-07:00	2020-05-13T21:43:50+00:00	2020-05-19T06:59:59+00:00	-6	hgrrwl05xm2vn6z@marketplace.amazon.com	Valerie Picataggio	+1 314-282-9402 ext. 28778	ABM010	Arabella Bouquets | Fields of The World Bouquet of Fresh Cut Flowers in a Free Designer Glass Vase	1	0	1	Expedited	Irene Dominique	449 SKYLINE LAKE DR			RINGWOOD	NJ	07456-1954	US		Congratulations Graduate! You did it! We are so happy for you! From Dave and Susan Picataggio	false		
111-7454570-4728208	29051783634594	2020-05-13T21:24:46+00:00	2020-05-13T14:24:46-07:00	2020-05-13T21:51:26+00:00	2020-05-19T06:59:59+00:00	-6	848vm1wqmvb36zr@marketplace.amazon.com	ayidh	+1 314-282-9402 ext. 08944	ABR0022	Arabella Farm Direct Bouquet of 12 Fresh Cut Pink Roses with a Free Glass Vase	1	0	1	Expedited	Abeer alharbi	79 ALEXANDER ST APT 1129			YONKERS	NY	10701-2984	US		Happy eid 🥰 Enjoy your gift! From ayidh	false		
114-6688396-0356210	05185434348106	2020-05-13T21:26:01+00:00	2020-05-13T14:26:01-07:00	2020-05-13T21:55:42+00:00	2020-05-19T06:59:59+00:00	-6	9z4vfbs3clm1r3b@marketplace.amazon.com	peter violini	+1 314-282-9402 ext. 00830	ABR001	Arabella Bouquets 12 Stems of Fresh Cut Red Roses in a Free Designer Glass Vase	1	0	1	Expedited	Kyle Violini	4105 RICHARDSON COVE RD			SEVIERVILLE	TN	37876-6723	US			false		
111-0100336-1035413	22804362623850	2020-05-13T21:39:23+00:00	2020-05-13T14:39:23-07:00	2020-05-13T21:56:38+00:00	2020-05-19T06:59:59+00:00	-6	nhqp4lq8mhtjkyz@marketplace.amazon.com	Nick Bartich	+1 347-448-3190 ext. 16551	ABR0022	Arabella Farm Direct Bouquet of 12 Fresh Cut Pink Roses with a Free Glass Vase	1	0	1	Expedited	Michele Ogston	5037 KING PL			ROHNERT PARK	CA	94928-5030	US		Auntie, Congratulations!! We are so proud of you!! You are amazing and are The Best Life Coach!! You found your true calling.  We love you!! From The Bartich Crew	false		
113-1501643-5149850	28123745373498	2020-05-13T21:29:20+00:00	2020-05-13T14:29:20-07:00	2020-05-13T21:57:41+00:00	2020-05-19T06:59:59+00:00	-6	1wmjd7jft31z3ph@marketplace.amazon.com	Jen	+1 210-728-4548 ext. 10496	ABR0055	Arabella Farm Direct Bouquet of 12 Stems of Fresh Cut Hot Pink Roses in a Free Designer Glass Vase	1	0	1	Expedited	Janna Alvarez	786 BRENTLY AVE			CAMARILLO	CA	93010-4515	US		Congratulations! Can’t wait to meet Lennon Rose. Love, Jen Zev From Jen	false		
111-3184663-7745815	44256779361234	2020-05-13T21:30:16+00:00	2020-05-13T14:30:16-07:00	2020-05-13T21:59:28+00:00	2020-05-19T06:59:59+00:00	-6	6ynrz55kvcrc17j@marketplace.amazon.com	Debbie Rose	+1 314-282-9402 ext. 29369	ABM010	Arabella Bouquets | Fields of The World Bouquet of Fresh Cut Flowers in a Free Designer Glass Vase	1	0	1	Expedited	Brenda Fullmer	COLUMBIA BASIN HOSPITAL	200 NAT WASHINGTON WAY		EPHRATA	WA	98823-1997	US			false		
114-6928876-0525839	52323392248762	2020-05-13T21:40:40+00:00	2020-05-13T14:40:40-07:00	2020-05-13T22:06:46+00:00	2020-05-19T06:59:59+00:00	-6	0rwysf1h030cscj@marketplace.amazon.com	Justin Miller	+1 314-282-9402 ext. 26163	ABM010	Arabella Bouquets | Fields of The World Bouquet of Fresh Cut Flowers in a Free Designer Glass Vase	1	0	1	Expedited	Sandy Miller	10202 RICHFIELD ST			COMMERCE CITY	CO	80022-0683	US		The memories of our loved one’s will forever be in our minds and souls. From Justin Miller	false		
111-7543396-0689055	33900596625450	2020-05-13T21:45:47+00:00	2020-05-13T14:45:47-07:00	2020-05-13T22:12:21+00:00	2020-05-19T06:59:59+00:00	-6	nhqp4lq8mhtjkyz@marketplace.amazon.com	Nick Bartich	+1 763-225-9463 ext. 97111	ABR0055	Arabella Farm Direct Bouquet of 12 Stems of Fresh Cut Hot Pink Roses in a Free Designer Glass Vase	1	0	1	Expedited	Sophie Beck	5037 KING PL			ROHNERT PARK	CA	94928-5030	US		Sophie!! Honey we could not be more happy for you if we tried. We are endlessly proud of you! What an accomplishment and with honors to boot!! We love you sweetie!! Congratulations! From Auntie, Uncle Nick, Bailey, Summer and Rosie	false		
111-0878830-7162629	37112438443690	2020-05-13T21:48:08+00:00	2020-05-13T14:48:08-07:00	2020-05-13T22:13:39+00:00	2020-05-19T06:59:59+00:00	-6	vmkljfxg18kbhzq@marketplace.amazon.com	Cheri	+1 347-448-3190 ext. 14042	ABR0022	Arabella Farm Direct Bouquet of 12 Fresh Cut Pink Roses with a Free Glass Vase	1	0	1	Expedited	Muriel Konoloff	5306 W PLATTNER RD			COLUMBIA CITY	IN	46725-8196	US		I’m so happy you are out of the hospital and doing better.  I hope you have a speedy recovery. You will be in my thoughts. I love you xoxoxo From Cheri	false		
113-1408594-7349068	55731478997218	2020-05-13T21:49:45+00:00	2020-05-13T14:49:45-07:00	2020-05-13T22:14:32+00:00	2020-05-19T06:59:59+00:00	-6	8jbtmj9s2j67b2t@marketplace.amazon.com	Timothy P. Lehan	+1 314-282-9402 ext. 94150	ABR0022	Arabella Farm Direct Bouquet of 12 Fresh Cut Pink Roses with a Free Glass Vase	1	0	1	Expedited	Susannah Steele and David Weigel	1904 N BURLING ST APT 1			CHICAGO	IL	60614-7905	US		Happy Virtual Baby Shower From Tim and Leigh	false		
113-2270341-1289067	01472605138050	2020-05-13T21:47:43+00:00	2020-05-13T14:47:43-07:00	2020-05-13T22:17:36+00:00	2020-05-19T06:59:59+00:00	-6	zqfs9lntwk8jlsn@marketplace.amazon.com	sangeetha mohanchandran	+1 314-282-9402 ext. 57118	ABR0022	Arabella Farm Direct Bouquet of 12 Fresh Cut Pink Roses with a Free Glass Vase	1	0	1	Expedited	Debbie Haremski	4438 LAUER RD			SAGINAW	MICHIGAN	48603-1214	US		Get well soon Debbie From sangeetha mohanchandran	false		
114-5307142-2833859	59207942225394	2020-05-13T21:56:02+00:00	2020-05-13T14:56:02-07:00	2020-05-13T22:22:43+00:00	2020-05-19T06:59:59+00:00	-6	rxxjl88lq68j8f1@marketplace.amazon.com	Kathleen A Hahn	+1 210-728-4548 ext. 56377	ABR0022	Arabella Farm Direct Bouquet of 12 Fresh Cut Pink Roses with a Free Glass Vase	1	0	1	Expedited	Kaitlin Hahn	133 COTTAGE ST APT 2			BOSTON	MA	02128-4296	US		So sorry sweetie that we all couldn’t attend your graduation this Sunday. Strange times, but they will get better and life will return to a somewhat normal state soon. I’m very proud of you! ❤️ From Kathleen A Hahn	false		
114-4460116-3047467	59520226633066	2020-05-13T22:02:58+00:00	2020-05-13T15:02:58-07:00	2020-05-13T22:28:12+00:00	2020-05-19T06:59:59+00:00	-6	dmv6cwykt985tqp@marketplace.amazon.com	Jessica peters	+1 314-282-9402 ext. 81983	ABR0022	Arabella Farm Direct Bouquet of 12 Fresh Cut Pink Roses with a Free Glass Vase	1	0	1	Expedited	Mary Ann Monty	39 CHERRY TREE LN			SARANAC LAKE	NY	12983-5502	US		I love you feel better From Jessica,Tony,Mackenzie,Kendrick	false		
114-8917956-1588262	35181915738506	2020-05-13T22:01:05+00:00	2020-05-13T15:01:05-07:00	2020-05-13T22:31:41+00:00	2020-05-19T06:59:59+00:00	-6	xp422vgl6861s55@marketplace.amazon.com	rob	+1 763-225-9463 ext. 47644	ABM010	Arabella Bouquets | Fields of The World Bouquet of Fresh Cut Flowers in a Free Designer Glass Vase	1	0	1	Expedited	Mom	82 BAUER AVE			MANORVILLE	NY	11949-2502	US			false		
