order-id	order-item-id	purchase-date	payments-date	reporting-date	promise-date	days-past-promise	buyer-email	buyer-name	buyer-phone-number	sku	product-name	quantity-purchased	quantity-shipped	quantity-to-ship	ship-service-level	recipient-name	ship-address-1	ship-address-2	ship-address-3	ship-city	ship-state	ship-postal-code	ship-country	gift-wrap-type	gift-message-text	is-business-order	purchase-order-number	price-designation
113-1958619-3478624	61804121365714	2020-05-12T22:02:34+00:00	2020-05-12T15:02:34-07:00	2020-05-12T22:32:19+00:00	2020-05-16T06:59:59+00:00	0	xq2cx5ds3v1n3nv@marketplace.amazon.com	Emily Perdue	+1 314-282-9402 ext. 80080	ABR0022	Arabella Farm Direct Bouquet of 12 Fresh Cut Pink Roses with a Free Glass Vase	3	2	1	Expedited	Regina Perdue	11408 MISSOURI ROUTE A			LIBERTY	MO	64068-8107	US			false		
112-3840513-7711414	26559111377490	2020-05-13T00:03:31+00:00	2020-05-12T17:03:31-07:00	2020-05-13T00:31:15+00:00	2020-05-16T06:59:59+00:00	0	dlg5lt3kg9jftb0@marketplace.amazon.com	Gabi Stewart	+1 347-448-3190 ext. 97354	ABR0022	Arabella Farm Direct Bouquet of 12 Fresh Cut Pink Roses with a Free Glass Vase	1	0	1	Expedited	Nicole Koch	65 ROWAN TREE LN			HILLSBOROUGH	CA	94010-6333	US		I love you so much my best friend! You are the most incredible woman I know! From Gabi	false		
112-9978505-0734639	70356470898466	2020-05-13T18:09:42+00:00	2020-05-13T11:09:42-07:00	2020-05-13T18:36:55+00:00	2020-05-19T06:59:59+00:00	-3	h2hmjrph5sff3yy@marketplace.amazon.com	Monika  Nunez	+1 314-282-9402 ext. 06607	ABR0022	Arabella Farm Direct Bouquet of 12 Fresh Cut Pink Roses with a Free Glass Vase	1	0	1	Expedited	Nathalie Quinonez	74 S MUNN AVE APT 7H			EAST ORANGE	NJ	07018-4311	US			false		
111-3050988-1584256	42971414133818	2020-05-13T22:40:29+00:00	2020-05-13T15:40:29-07:00	2020-05-13T23:09:31+00:00	2020-05-19T06:59:59+00:00	-3	bg5z2bsv22bn8d0@marketplace.amazon.com	Charlia Boyer	+1 412-532-4665 ext. 90480	ABR0022	Arabella Farm Direct Bouquet of 12 Fresh Cut Pink Roses with a Free Glass Vase	1	0	1	Expedited	Bobbie Boyer	760 VADO RD			VADO	NM	88072-7216	US		Mom/Grandma,  We love you!! From Charlia & Jordyn-Nia	false		
114-1403494-6474669	36630289313474	2020-05-14T06:46:18+00:00	2020-05-13T23:46:18-07:00	2020-05-14T07:16:11+00:00	2020-05-19T06:59:59+00:00	-3	m3zbb5g8y9d5gf6@marketplace.amazon.com	Eva Solheim	+1 314-282-9402 ext. 66066	ABR0022	Arabella Farm Direct Bouquet of 12 Fresh Cut Pink Roses with a Free Glass Vase	1	0	1	Expedited	Yennie Fuller	539 NOE ST			SAN FRANCISCO	CA	94114-2527	US			false		
113-9452116-3038631	31530341782426	2020-05-14T13:11:04+00:00	2020-05-14T06:11:04-07:00	2020-05-14T13:39:51+00:00	2020-05-20T06:59:59+00:00	-4	k467q1229c12qld@marketplace.amazon.com	Josette M Longstreet	+1 210-728-4548 ext. 39370	ABR0022	Arabella Farm Direct Bouquet of 12 Fresh Cut Pink Roses with a Free Glass Vase	1	0	1	Expedited	Dorothy Pishkur	13 OLD MILL RD			NEW PALTZ	NY	12561-1317	US		HAPPY BIRTHDAY BEAUTIFUL GIRL!! WE LOVE YOU! From Josette & Ron	false		
111-1969495-3653021	34997158730890	2020-05-14T18:29:54+00:00	2020-05-14T11:29:54-07:00	2020-05-14T18:57:53+00:00	2020-05-20T06:59:59+00:00	-4	1q9byv0klyv824q@marketplace.amazon.com	Tony	+1 314-282-9402 ext. 07910	ABR0022	Arabella Farm Direct Bouquet of 12 Fresh Cut Pink Roses with a Free Glass Vase	1	0	1	Expedited	VERONICA GARZA	2190 E JEFFERSON AVE			REEDLEY	CA	93654-9343	US		Hi Vero,  Don't sweat this lockdown, we will miss all this time at home when it's over.  Love you Bitch! From Tony	false		
114-7013091-3031465	40975121413914	2020-05-14T20:10:06+00:00	2020-05-14T13:10:06-07:00	2020-05-14T20:38:47+00:00	2020-05-20T06:59:59+00:00	-4	f30g4s1fk8kj58g@marketplace.amazon.com	Kathleen McMahon	+1 314-282-9402 ext. 35695	ABR0022	Arabella Farm Direct Bouquet of 12 Fresh Cut Pink Roses with a Free Glass Vase	1	0	1	Expedited	Kate Buchanan	4924 N OAKLEY AVE			CHICAGO	IL	60625-1926	US		Happy 18th and almost graduation, Kate! We love you!!! From Love, Aunt Kathleen & Uncle George	false		
111-9376174-3065013	35606290868570	2020-05-14T21:09:10+00:00	2020-05-14T14:09:10-07:00	2020-05-14T21:38:32+00:00	2020-05-20T06:59:59+00:00	-4	kt9gs9jsl41pn0j@marketplace.amazon.com	Talia C Fleming	+1 347-448-3190 ext. 90557	ABR0022	Arabella Farm Direct Bouquet of 12 Fresh Cut Pink Roses with a Free Glass Vase	1	0	1	Expedited	Julie Shaffer	10757 E 350 RD			TALALA	OK	74080-9689	US		Just wanted to say I love you and bring a smile to your face during our first week! :) From Talia C Fleming	false		
113-3539789-5415439	51840509351426	2020-05-15T01:33:59+00:00	2020-05-14T18:33:59-07:00	2020-05-15T02:04:10+00:00	2020-05-20T06:59:59+00:00	-4	7xfsbr12m019qw5@marketplace.amazon.com	KENNETH WHITLOCK	+1 347-448-3190 ext. 31621	ABR0033	Arabella Farm Direct Bouquet of 12 Fresh Cut Orange Roses with a Free Glass Vase	1	0	1	Expedited	KRISTA THOMPSON	4915 CERISE ST			JACKSONVILLE	FL	32258-2210	US			false		
112-7253760-2579452	24729140549706	2020-05-13T04:25:32+00:00	2020-05-12T21:25:32-07:00	2020-05-15T04:57:23+00:00	2020-05-20T06:59:59+00:00	-4	l5rjgdt6vmxtgy2@marketplace.amazon.com	Natasha Vasilenko	+1 412-532-4665 ext. 26275	ABR0022	Arabella Farm Direct Bouquet of 12 Fresh Cut Pink Roses with a Free Glass Vase	1	0	1	Expedited	Jennifer Gregson	13666 S 300 E			DRAPER	UT	84020-9280	US			false		
114-4593452-3676241	49875936330106	2020-05-15T09:14:25+00:00	2020-05-15T02:14:25-07:00	2020-05-15T09:42:31+00:00	2020-05-21T06:59:59+00:00	-5	hj63jyv0qtmm7n4@marketplace.amazon.com	Leslie Iverson	+1 347-448-3190 ext. 45853	ABR0022	Arabella Farm Direct Bouquet of 12 Fresh Cut Pink Roses with a Free Glass Vase	1	0	1	Expedited	Hilary DeVries	14 BONNY RD			BROOKFIELD	CT	06804-3600	US		Happy graduation Hilary!  We are so proud of you.  Love, Mom and Sy From Leslie Iverson	false		
114-6665332-9848211	70191592377626	2020-05-15T09:39:30+00:00	2020-05-15T02:39:30-07:00	2020-05-15T10:06:42+00:00	2020-05-21T06:59:59+00:00	-5	w24vlpknnmgk1dn@marketplace.amazon.com	Sebastian Valdes	+1 314-282-9402 ext. 70581	ABR0022	Arabella Farm Direct Bouquet of 12 Fresh Cut Pink Roses with a Free Glass Vase	1	0	1	Expedited	Ashley Capobianco	2 GARDNER WAY			BURLINGTON	MA	01803-1718	US		Happy 7 Months Ashley! It’s truly a blessing to be loved by you, and I’m looking forward to what the future holds for us. I love you so much beautiful! From Sebastian Valdes	false		
113-2863077-7017844	01741367765882	2020-05-15T11:19:06+00:00	2020-05-15T04:19:06-07:00	2020-05-15T11:47:31+00:00	2020-05-21T06:59:59+00:00	-5	jvx2cnmdp933m69@marketplace.amazon.com	Manda Boyer	+1 314-282-9402 ext. 05512	ABM010	Arabella Bouquets | Fields of The World Bouquet of Fresh Cut Flowers in a Free Designer Glass Vase	1	0	1	Expedited	ANALISHA KINNISON	708 BROWNING AVE S APT 12			SALEM	OR	97302-6185	US		Annie- Just a little something to let you know that we still love you, and You are still the FAVORITE OLDEST NIECE IN OREGON!  LOVE YOU ALWAYS. From Aunt Manda and Uncle Dave	false		
112-2248617-3373054	41517785673802	2020-05-15T11:26:51+00:00	2020-05-15T04:26:51-07:00	2020-05-15T11:56:01+00:00	2020-05-21T06:59:59+00:00	-5	t1l4dn1z766n2b5@marketplace.amazon.com	Daniel Gochenour	+1 210-728-4548 ext. 92202	ABR0022	Arabella Farm Direct Bouquet of 12 Fresh Cut Pink Roses with a Free Glass Vase	1	0	1	Expedited	Ashley Lester	320 TWO RIVERS DR			TROY	VA	22974-3983	US		Happy 30th Birthday!!! We hope you can enjoy your quarantine-th birthday! Love, Sam & Daniel From Daniel and Sam	false		
113-7386291-2055449	50620231928098	2020-05-15T11:52:00+00:00	2020-05-15T04:52:00-07:00	2020-05-15T12:22:19+00:00	2020-05-21T06:59:59+00:00	-5	dv559hwtd0hhl2s@marketplace.amazon.com	Helen Maslocka	+1 347-448-3190 ext. 04953	ABR0022	Arabella Farm Direct Bouquet of 12 Fresh Cut Pink Roses with a Free Glass Vase	1	0	1	Expedited	Helen Maslocka	25 CRESCENT ST	UNIT 631 HANDICAPPED DELIVER TO 631		WALTHAM	MA	02453-4381	US			false		
113-9907937-7220269	43843922148042	2020-05-15T12:12:36+00:00	2020-05-15T05:12:36-07:00	2020-05-15T12:43:00+00:00	2020-05-21T06:59:59+00:00	-5	8403w1qp7wv91b6@marketplace.amazon.com	Jay Finlayson	+1 314-282-9402 ext. 21461	ABM0044	Arabella Farm Direct Bouquet of Fresh Cut Blue Hydrangea with a Free Glass Vase	1	0	1	Expedited	Jay Finlayson	103 SUNSET CT			SEVERNA PARK	MD	21146-3221	US			false		
112-5164537-2637867	27484277607954	2020-05-15T12:15:02+00:00	2020-05-15T05:15:02-07:00	2020-05-15T12:44:29+00:00	2020-05-21T06:59:59+00:00	-5	tstpqt8891r28yb@marketplace.amazon.com	Robert E. Gaddis	+1 314-282-9402 ext. 34578	ABR0022	Arabella Farm Direct Bouquet of 12 Fresh Cut Pink Roses with a Free Glass Vase	1	0	1	Expedited	Joy and Edgar Gaddis	2540 BEENE BLVD	APT 205-A BROOKDALE SENIOR LIVING		BOSSIER CITY	LA	71111-5459	US			false		
114-9711221-5057859	64844805004114	2020-05-15T12:27:17+00:00	2020-05-15T05:27:17-07:00	2020-05-15T12:56:42+00:00	2020-05-21T06:59:59+00:00	-5	xzzy49j4zbv706n@marketplace.amazon.com	Jeanne Bianco	+1 210-728-4548 ext. 16406	ABM010	Arabella Bouquets | Fields of The World Bouquet of Fresh Cut Flowers in a Free Designer Glass Vase	1	0	1	Expedited	Barbara Cascino	22 SYCAMORE CIR			STONY BROOK	NY	11790-3141	US		We are so sorry for your loss. From Love Bobby & Jeanne	false		
114-4786179-2274658	67196858647522	2020-05-15T12:55:37+00:00	2020-05-15T05:55:37-07:00	2020-05-15T13:00:07+00:00	2020-05-21T06:59:59+00:00	-5	x907y08cmx89r7b@marketplace.amazon.com	Bono Giuseppe Nool	+1 347-448-3190 ext. 50657	ABR0022	Arabella Farm Direct Bouquet of 12 Fresh Cut Pink Roses with a Free Glass Vase	1	0	1	Expedited	Rowena Muñoz	412 SERRANO DR			SAN FRANCISCO	CA	94132-2240	US		Tita Rowena. Sorry po for the disappointment. Alam po namin na nagkamali kami ni Rk. Pero nagmamahalan po kmi ng totoo at wala akong balak iwan sila ni kulot. Love ko po sila. Sorry po again tita. Sana mapatawad niyo po kami. From Bono Giuseppe Nool	false		
112-3026886-1824223	64516361203618	2020-05-15T12:48:40+00:00	2020-05-15T05:48:40-07:00	2020-05-15T13:17:24+00:00	2020-05-21T06:59:59+00:00	-5	ptmz4ngx6c3g6cw@marketplace.amazon.com	William Paolini	+1 314-282-9402 ext. 83277	ABM010	Arabella Bouquets | Fields of The World Bouquet of Fresh Cut Flowers in a Free Designer Glass Vase	1	0	1	Expedited	Ruby Duritan	131 SUMMERFIELD LN			WATER MILL	NY	11976-3601	US		Hello Sweetheart, Hope I can make your day a little brighter. I miss you so much. Love You,                Bill	true		
113-4161301-5018608	69495868002298	2020-05-15T12:54:27+00:00	2020-05-15T05:54:27-07:00	2020-05-15T13:25:09+00:00	2020-05-21T06:59:59+00:00	-5	41rhc7jdmykcbvk@marketplace.amazon.com	Jake	+1 347-448-3190 ext. 95276	ABM010	Arabella Bouquets | Fields of The World Bouquet of Fresh Cut Flowers in a Free Designer Glass Vase	1	0	1	Expedited	Lisa Tucker	57 SARA CIR			TAMWORTH	NH	03886-4704	US			false		
114-2280166-2731403	12507584247698	2020-05-15T13:02:24+00:00	2020-05-15T06:02:24-07:00	2020-05-15T13:36:29+00:00	2020-05-21T06:59:59+00:00	-5	tldnk172r9l33b1@marketplace.amazon.com	Jean-Claude Schubel	+1 210-728-4548 ext. 20421	ABR0022	Arabella Farm Direct Bouquet of 12 Fresh Cut Pink Roses with a Free Glass Vase	1	0	1	Expedited	Angela Phillips	12517 EL CAMINO REAL UNIT E			SAN DIEGO	CA	92130-4024	US		Because you complete me too. Love. JCS	false		
111-1593916-4623432	19965638113826	2020-05-15T13:09:47+00:00	2020-05-15T06:09:47-07:00	2020-05-15T13:40:12+00:00	2020-05-21T06:59:59+00:00	-5	flpcmz6tpjtc6rn@marketplace.amazon.com	Duo	+1 347-448-3190 ext. 68831	ABM010	Arabella Bouquets | Fields of The World Bouquet of Fresh Cut Flowers in a Free Designer Glass Vase	1	0	1	Expedited	Duo	660 OCEAN AVE APT 329			REVERE	MA	02151-1289	US			false		
113-0077436-9114641	29109279764330	2020-05-15T13:16:27+00:00	2020-05-15T06:16:27-07:00	2020-05-15T13:45:26+00:00	2020-05-21T06:59:59+00:00	-5	q5dkh159rq0nj27@marketplace.amazon.com	Beth Linthicum	+1 347-448-3190 ext. 80238	ABM010	Arabella Bouquets | Fields of The World Bouquet of Fresh Cut Flowers in a Free Designer Glass Vase	1	0	1	Expedited	Jane Arnold	144 ELDERBERRY DR			WINCHESTER	VA	22603-4212	US			false		
112-2577610-7511412	59530517302530	2020-05-15T13:26:50+00:00	2020-05-15T06:26:50-07:00	2020-05-15T13:52:59+00:00	2020-05-21T06:59:59+00:00	-5	p8lsb3dkl3kr89q@marketplace.amazon.com	Deborah Trotter	+1 347-448-3190 ext. 90532	ABM010	Arabella Bouquets | Fields of The World Bouquet of Fresh Cut Flowers in a Free Designer Glass Vase	1	0	1	Expedited	Miriam Trotter	8810 WALTHER BLVD	3223 TREVOR PLACE SECOND FLOOR		PARKVILLE	MD	21234-5714	US		Happy Birthday, Mom! Hope this brightens up the condo and brightens up your day! Miss not being with you for your Birthday but celebrating that you are SAFE and Healthy! Love you bunches, Deb & Michele From Deborah Trotter	false		
113-2266291-3873045	26023053393674	2020-05-15T13:26:58+00:00	2020-05-15T06:26:58-07:00	2020-05-15T13:56:06+00:00	2020-05-21T06:59:59+00:00	-5	hd83bkxv8b6xxbt@marketplace.amazon.com	Donna Lester	+1 314-282-9402 ext. 61460	ABM010	Arabella Bouquets | Fields of The World Bouquet of Fresh Cut Flowers in a Free Designer Glass Vase	1	0	1	Expedited	Ed Lester	983 NICKLAUS DR			ROCKLEDGE	FL	32955-2336	US		So sorry for your loss. We love you, grandma. From Rachel, Donna, Harper, Molly	false		
114-9639176-7875445	13081289147514	2020-05-15T13:28:58+00:00	2020-05-15T06:28:58-07:00	2020-05-15T13:56:50+00:00	2020-05-21T06:59:59+00:00	-5	pt8s201lk1nf69h@marketplace.amazon.com	Lesley A. Brown	+1 314-282-9402 ext. 70463	ABM010	Arabella Bouquets | Fields of The World Bouquet of Fresh Cut Flowers in a Free Designer Glass Vase	1	0	1	Expedited	Jennifer and John Celano	844 N TAYLOR ST			PHILADELPHIA	PA	19130-1945	US		Some flowers to brighten your day, John. From Lesley Brown and the Documentation and Training Dev Team at Change Healthcare. From Lesley A. Brown	false		
112-6707500-3365824	00674171722946	2020-05-15T13:41:07+00:00	2020-05-15T06:41:07-07:00	2020-05-15T14:08:49+00:00	2020-05-21T06:59:59+00:00	-5	rpn7z5z89583fdt@marketplace.amazon.com	maurice wilkins	+1 347-448-3190 ext. 82235	ABR0022	Arabella Farm Direct Bouquet of 12 Fresh Cut Pink Roses with a Free Glass Vase	2	0	2	Expedited	Erin Wilkins	732 KENT WAY			SMYRNA	DE	19977-1300	US			false		
114-7838356-7895409	25356472775338	2020-05-15T13:49:29+00:00	2020-05-15T06:49:29-07:00	2020-05-15T14:13:32+00:00	2020-05-21T06:59:59+00:00	-5	q7jtyk9wnwhf789@marketplace.amazon.com	Diane M Sanchez	+1 314-282-9402 ext. 78575	ABR0022	Arabella Farm Direct Bouquet of 12 Fresh Cut Pink Roses with a Free Glass Vase	1	0	1	Expedited	Ms. Judith Williams	31975 CORTE RUIZ			TEMECULA	CA	92592-3621	US		Happy Birthday! I am thinking of you. Wish I could see you. Enjoy your gift! From Diane M Sanchez	false		
113-8598080-9955410	32567284664210	2020-05-15T13:46:11+00:00	2020-05-15T06:46:11-07:00	2020-05-15T14:15:22+00:00	2020-05-21T06:59:59+00:00	-5	ctmhpq8sx5gmjg0@marketplace.amazon.com	Rod Hamilton	+1 347-448-3190 ext. 96456	ABR0022	Arabella Farm Direct Bouquet of 12 Fresh Cut Pink Roses with a Free Glass Vase	1	0	1	Expedited	Momma delores	1834 ABBOTSFORD DR			VIENNA	VA	22182-3420	US		Happy late Mother’s Day! Hope it was great! Miss you! From Your Son Rod	false		
114-8370968-3581034	24281872011154	2020-05-15T13:57:05+00:00	2020-05-15T06:57:05-07:00	2020-05-15T14:20:34+00:00	2020-05-21T06:59:59+00:00	-5	1p62cv81yrzgs21@marketplace.amazon.com	george eng	+1 314-282-9402 ext. 09264	ABM010	Arabella Bouquets | Fields of The World Bouquet of Fresh Cut Flowers in a Free Designer Glass Vase	1	0	1	Expedited	Janina and Stan Pawelec	18 CHURCHILL RD			WHITING	NJ	08759-2309	US		Happy Anniversary Babcia and Dziadzio!  Love, Rabarbar, Michael, Dexter, Daisy	false		
113-3047551-7576203	13864682995218	2020-05-15T13:58:12+00:00	2020-05-15T06:58:12-07:00	2020-05-15T14:27:33+00:00	2020-05-21T06:59:59+00:00	-5	9jmgjbl0d5kbgtw@marketplace.amazon.com	Rachel Seghetto	+1 412-532-4665 ext. 24702	ABM010	Arabella Bouquets | Fields of The World Bouquet of Fresh Cut Flowers in a Free Designer Glass Vase	1	0	1	Expedited	Jenn Holland	35 ANCHORAGE WAY			BARRINGTON	RI	02806-4436	US		We just wanted you to know that we are thinking of you and hope you are healing well. We love you! From The Seghetto Family	false		
114-1482888-0974641	38881875565522	2020-05-15T14:02:34+00:00	2020-05-15T07:02:34-07:00	2020-05-15T14:28:44+00:00	2020-05-21T06:59:59+00:00	-5	4dk1jys72k455l4@marketplace.amazon.com	Sally Biedscheid	+1 347-448-3190 ext. 21116	ABR0022	Arabella Farm Direct Bouquet of 12 Fresh Cut Pink Roses with a Free Glass Vase	1	0	1	Expedited	Tanya Reed	2400 BELLEVUE TER			WEST LINN	OR	97068-2297	US			false		
114-7227133-8256206	38044848390658	2020-05-15T13:59:49+00:00	2020-05-15T06:59:49-07:00	2020-05-15T14:29:34+00:00	2020-05-21T06:59:59+00:00	-5	l41b1ktfd6vghvt@marketplace.amazon.com	Pedro L Llanes	+1 347-448-3190 ext. 76671	ABM010	Arabella Bouquets | Fields of The World Bouquet of Fresh Cut Flowers in a Free Designer Glass Vase	1	0	1	Expedited	Pedro Llanes	8531 NW 178TH ST			HIALEAH	FL	33015-3532	US			false		
113-4323728-0688230	06849602374722	2020-05-15T14:13:45+00:00	2020-05-15T07:13:45-07:00	2020-05-15T14:43:45+00:00	2020-05-21T06:59:59+00:00	-5	bl8nslz50bx8thg@marketplace.amazon.com	Margaret Leonard Kerrigan	+1 210-728-4548 ext. 53512	ABM010	Arabella Bouquets | Fields of The World Bouquet of Fresh Cut Flowers in a Free Designer Glass Vase	1	0	1	Expedited	Kay Kerrigan	17 MELLON RD			WARWICK	RI	02889-8231	US			false		
113-2706211-4002652	61965583391418	2020-05-15T14:16:13+00:00	2020-05-15T07:16:13-07:00	2020-05-15T14:46:33+00:00	2020-05-21T06:59:59+00:00	-5	wyk6p5c2vvrw07k@marketplace.amazon.com	Danny	+1 314-282-9402 ext. 04549	ABM010	Arabella Bouquets | Fields of The World Bouquet of Fresh Cut Flowers in a Free Designer Glass Vase	1	0	1	Expedited	Danny Payne	149 MAIN ST			HIGHLAND FALLS	NY	10928-1515	US			false		
111-9407762-5156215	59613395112210	2020-05-15T14:32:46+00:00	2020-05-15T07:32:46-07:00	2020-05-15T15:00:43+00:00	2020-05-21T06:59:59+00:00	-5	mrs3wjwnmsl5mw1@marketplace.amazon.com	Edith Brewer	+1 347-448-3190 ext. 51136	ABR0022	Arabella Farm Direct Bouquet of 12 Fresh Cut Pink Roses with a Free Glass Vase	1	0	1	Expedited	Dawn lane	207 ABIGAIL RD			PLANT CITY	FL	33563-8520	US		Hey cuz. Just because I appreciate you so much.  Love always Edogg. From Edith Brewer	false		
114-9565643-6021834	07301233003066	2020-05-15T15:04:49+00:00	2020-05-15T08:04:49-07:00	2020-05-15T15:05:48+00:00	2020-05-21T06:59:59+00:00	-5	6tymt5217nld3pt@marketplace.amazon.com	Elizabeth	+1 210-728-4548 ext. 75864	ABR0022	Arabella Farm Direct Bouquet of 12 Fresh Cut Pink Roses with a Free Glass Vase	1	0	1	Expedited	Susan Jansen	2891 ROUTE 22			PATTERSON	NY	12563-2228	US		Thank you very much Susan for your example of humanity and love towards all of us and towards Jehovah.  I just wanted to tell you how much we love you. Thanks for showing what it says: Proverbs 17:17. ❤ From Elizabeth Abril	false		
113-6990665-3619402	66557730823698	2020-05-15T14:37:21+00:00	2020-05-15T07:37:21-07:00	2020-05-15T15:06:37+00:00	2020-05-21T06:59:59+00:00	-5	vzl2ywkz940n0l5@marketplace.amazon.com	Melody A. Williams	+1 347-448-3190 ext. 77473	ABR0022	Arabella Farm Direct Bouquet of 12 Fresh Cut Pink Roses with a Free Glass Vase	1	0	1	Expedited	Mrs. Suzanne Duguid	1303 SE 59TH ST			OCALA	FL	34480-6146	US		Sue,  Sorry these were not there for Mother's Day  Love Melody	false		
114-7000842-8998632	61437317906850	2020-05-15T14:44:01+00:00	2020-05-15T07:44:01-07:00	2020-05-15T15:08:50+00:00	2020-05-21T06:59:59+00:00	-5	pj4983v1jk7ygjb@marketplace.amazon.com	Carolina Alduez	+1 314-282-9402 ext. 45650	ABR0022	Arabella Farm Direct Bouquet of 12 Fresh Cut Pink Roses with a Free Glass Vase	1	0	1	Expedited	Andrea Castillo	624 46TH ST PH			BROOKLYN	NY	11220-1411	US		Su amistad es valiosa para mi! Dios le conceda muchos años mas! Feliz Cumpleaños!!! From Carolina Alduez	false		
114-7921300-6963418	42767419727674	2020-05-15T14:58:08+00:00	2020-05-15T07:58:08-07:00	2020-05-15T15:25:14+00:00	2020-05-21T06:59:59+00:00	-5	8sv2ztpb8kmng78@marketplace.amazon.com	harry liu	+1 210-728-4548 ext. 02378	ABM0033	Arabella Farm Direct Bouquet of Fresh Cut White Hydrangea with a Free Glass Vase	1	0	1	Expedited	Kimberly	16395 SW DEKALB ST	PORTLAND OREGON 97224 UNITED STATES		PORTLAND	OR	97224-0837	US		Kim, pedro and I would like to extend our condolences to your family. We are very sorry for your loss. But we know that Steve is resting in peace.  We love you, From harry liu and Pedro	false		
114-8896315-1328248	48289358599194	2020-05-15T15:09:37+00:00	2020-05-15T08:09:37-07:00	2020-05-15T15:26:34+00:00	2020-05-21T06:59:59+00:00	-5	mltblvlspd7g86d@marketplace.amazon.com	Jonathan Danilich	+1 347-448-3190 ext. 49851	ABR0022	Arabella Farm Direct Bouquet of 12 Fresh Cut Pink Roses with a Free Glass Vase	1	0	1	Expedited	Mya Pfeifer	1562 PARTRIDGE CIR			LINDENHURST	IL	60046-9506	US		Mya, I miss you more than you can imagine. Here's a little something I've been wanting to do for a while. Hope you enjoy. :)  Love, Jonathan	false		
112-1968614-9349039	35820098940698	2020-05-15T15:12:23+00:00	2020-05-15T08:12:23-07:00	2020-05-15T15:30:03+00:00	2020-05-21T06:59:59+00:00	-5	3cjkc7sk9xz1bfr@marketplace.amazon.com	Maryanne Spatola	+1 210-728-4548 ext. 90047	ABM010	Arabella Bouquets | Fields of The World Bouquet of Fresh Cut Flowers in a Free Designer Glass Vase	1	0	1	Expedited	Annie Perkins	65 TREMONT DR			EAST HANOVER	NJ	07936-3321	US		THANK YOU for all of your support and help getting Joe through this difficult time.  Love you mean it!!! From Maryanne Spatola	false		
111-9158894-6258637	64410200362730	2020-05-15T15:05:31+00:00	2020-05-15T08:05:31-07:00	2020-05-15T15:32:31+00:00	2020-05-21T06:59:59+00:00	-5	ykqwb77prmhjmhn@marketplace.amazon.com	ariesfir	+1 347-448-3190 ext. 47731	ABR0022	Arabella Farm Direct Bouquet of 12 Fresh Cut Pink Roses with a Free Glass Vase	1	0	1	Expedited	Chia Li	7282 REGENCY SQUARE CT			HOUSTON	TX	77036-3115	US		Hi Chia, Can't love you more! I miss you so much, my Sweetie! From Shan	false		
113-0717519-4116261	11170396706130	2020-05-15T15:08:08+00:00	2020-05-15T08:08:08-07:00	2020-05-15T15:37:29+00:00	2020-05-21T06:59:59+00:00	-5	j5qzrmfgq357259@marketplace.amazon.com	Beng Salvino Tabernero	+1 314-282-9402 ext. 20018	ABR0022	Arabella Farm Direct Bouquet of 12 Fresh Cut Pink Roses with a Free Glass Vase	1	0	1	Expedited	Rita Sebastian	2601 HILLTOP DR APT 815			RICHMOND	CA	94806-5797	US			false		
114-9932568-3129817	46278895764882	2020-05-15T15:09:39+00:00	2020-05-15T08:09:39-07:00	2020-05-15T15:38:27+00:00	2020-05-21T06:59:59+00:00	-5	6tymt5217nld3pt@marketplace.amazon.com	Elizabeth	+1 347-448-3190 ext. 57604	ABR0022	Arabella Farm Direct Bouquet of 12 Fresh Cut Pink Roses with a Free Glass Vase	1	0	1	Expedited	Adriana Bejar	2891 ROUTE 22			PATTERSON	NY	12563-2228	US		Thank you very much Adriana for your example of humanity and love towards all of us and towards Jehovah. I just wanted to tell you how much we love you.  Thanks for showing what it says: Proverbs 17:17. We miss you!❤ From Elizabeth Abril	false		
111-8867334-5649811	44423538276778	2020-05-15T15:08:46+00:00	2020-05-15T08:08:46-07:00	2020-05-15T15:38:55+00:00	2020-05-21T06:59:59+00:00	-5	0qq6mpw8rvcxjwb@marketplace.amazon.com	charles suritz	+1 210-728-4548 ext. 62105	ABM0033	Arabella Farm Direct Bouquet of Fresh Cut White Hydrangea with a Free Glass Vase	1	0	1	Expedited	Natalie Sayre	29 S WALNUT ST			PALATINE	IL	60067-6039	US			false		
113-7635554-0569005	39142254975682	2020-05-15T15:08:45+00:00	2020-05-15T08:08:45-07:00	2020-05-15T15:38:59+00:00	2020-05-21T06:59:59+00:00	-5	k1zdh8h438ws5r5@marketplace.amazon.com	snd	+1 314-282-9402 ext. 06869	ABR0022	Arabella Farm Direct Bouquet of 12 Fresh Cut Pink Roses with a Free Glass Vase	1	0	1	Expedited	Afshan Ahmed	43 HOYT ST APT 1B			STAMFORD	CT	06905-5608	US			false		
111-9377841-5341855	69966114003818	2020-05-15T15:32:56+00:00	2020-05-15T08:32:56-07:00	2020-05-15T16:01:58+00:00	2020-05-21T06:59:59+00:00	-5	6gsczj0gjjsskr9@marketplace.amazon.com	Sindhu Thomas	+1 412-532-4665 ext. 31805	ABR0022	Arabella Farm Direct Bouquet of 12 Fresh Cut Pink Roses with a Free Glass Vase	1	0	1	Expedited	Annu Jacob	25 MESA PL			NANUET	NY	10954-5926	US		Just to brighten up your day!! ❤️. From ASS Events!	false		
113-9422552-9574606	59579140825834	2020-05-15T15:39:44+00:00	2020-05-15T08:39:44-07:00	2020-05-15T16:07:00+00:00	2020-05-21T06:59:59+00:00	-5	9tc19gqnjmkwxn2@marketplace.amazon.com	Mary	+1 210-728-4548 ext. 95389	ABR0022	Arabella Farm Direct Bouquet of 12 Fresh Cut Pink Roses with a Free Glass Vase	1	0	1	Expedited	Elizabeth & Lali	5558 SW 89TH PL			MIAMI	FL	33165-6627	US		Thank you for always being there for me and for all the love you infused into my life. I will always carry that with me. You are God's most precious gift for me mama and I love you so much.  Happy Belated Mothers Day!	false		
114-0398847-8382632	09837374961650	2020-05-15T15:45:44+00:00	2020-05-15T08:45:44-07:00	2020-05-15T16:15:11+00:00	2020-05-21T06:59:59+00:00	-5	3nm61c8dbd0nhmy@marketplace.amazon.com	Katherine Scott	+1 314-282-9402 ext. 88215	ABR0022	Arabella Farm Direct Bouquet of 12 Fresh Cut Pink Roses with a Free Glass Vase	1	0	1	Expedited	Marsha Scott	203 GREENFIELD CT			STERLING	VA	20164-1236	US		Hi Marsha,  Thinking of you daily and sending you and CJ our love. Please stay strong and well and keep in touch.  -Nathan and Katherine Scott	false		
111-2441233-2074622	36879284672178	2020-05-15T15:50:26+00:00	2020-05-15T08:50:26-07:00	2020-05-15T16:20:12+00:00	2020-05-21T06:59:59+00:00	-5	z0p47nbpspm1hp3@marketplace.amazon.com	sharon	+1 210-728-4548 ext. 83493	ABM010	Arabella Bouquets | Fields of The World Bouquet of Fresh Cut Flowers in a Free Designer Glass Vase	1	0	1	Expedited	Delores Vernon	1515 BARRINGTON RD APT 301			HOFFMAN ESTATES	IL	60169-5021	US		Happy mother's day!  I knew you'd have a lot of flowers last week... Thought you might be ready for a fresh bouquet! Love you From sharon	false		
111-7754366-3528206	53935701739898	2020-05-15T16:00:41+00:00	2020-05-15T09:00:41-07:00	2020-05-15T16:30:12+00:00	2020-05-21T06:59:59+00:00	-5	4vdt0dcdy8gmh0p@marketplace.amazon.com	Bruce Hunt	+1 210-728-4548 ext. 20962	ABR0022	Arabella Farm Direct Bouquet of 12 Fresh Cut Pink Roses with a Free Glass Vase	1	0	1	Expedited	Rochelle Hunt	15410 FOX CREST LN			MIDLOTHIAN	VA	23112-6349	US			false		
112-3085530-4341031	11989225723554	2020-05-15T16:02:57+00:00	2020-05-15T09:02:57-07:00	2020-05-15T16:31:26+00:00	2020-05-21T06:59:59+00:00	-5	cz1w6vhbdsxs7m6@marketplace.amazon.com	Alexey Teslja	+1 314-282-9402 ext. 45155	ABM010	Arabella Bouquets | Fields of The World Bouquet of Fresh Cut Flowers in a Free Designer Glass Vase	1	0	1	Expedited	Sonia Krotoff	71 TAYLORTOWN RD			MONTVILLE	NJ	07045-9763	US		Dear Sonia, Hope that you feel better! Love Valia Teslja	false		
111-1072413-9877054	34518550616754	2020-05-15T16:12:54+00:00	2020-05-15T09:12:54-07:00	2020-05-15T16:35:03+00:00	2020-05-21T06:59:59+00:00	-5	n8hpzc1235lx8hz@marketplace.amazon.com	michael czyzewski	+1 314-282-9402 ext. 46071	ABM010	Arabella Bouquets | Fields of The World Bouquet of Fresh Cut Flowers in a Free Designer Glass Vase	1	0	1	Expedited	Emily Finke	187 LAKEOVER CIR			ATHENS	GA	30607-2044	US		Sending wishes of love and healing. Our thoughts are with you. Get well soon.  The England Sisters From Cher, Ana, Rebecca, and Rhonda	false		
111-0857892-1541021	29094072326914	2020-05-15T16:12:13+00:00	2020-05-15T09:12:13-07:00	2020-05-15T16:35:27+00:00	2020-05-21T06:59:59+00:00	-5	6lwg1d3wmls74v1@marketplace.amazon.com	Kristina P. Cheng	+1 347-448-3190 ext. 60043	ABM010	Arabella Bouquets | Fields of The World Bouquet of Fresh Cut Flowers in a Free Designer Glass Vase	1	0	1	Expedited	Neesha Zollinger	150 E HANSEN AVE			JACKSON	WY	83001-8780	US		Enjoy your gift! From kpc	false		
114-8276587-4015424	66788318967114	2020-05-15T16:08:56+00:00	2020-05-15T09:08:56-07:00	2020-05-15T16:38:35+00:00	2020-05-21T06:59:59+00:00	-5	js4vks5vprhh7bl@marketplace.amazon.com	Leah P Harrell	+1 347-448-3190 ext. 56563	ABM010	Arabella Bouquets | Fields of The World Bouquet of Fresh Cut Flowers in a Free Designer Glass Vase	1	0	1	Expedited	Margaret Riggins	2110 FLEISCHMANN RD APT 258			TALLAHASSEE	FL	32308-0562	US		Enjoy your gift! From Leah P Harrell	false		
114-0699420-0867449	61685108171274	2020-05-15T16:09:49+00:00	2020-05-15T09:09:49-07:00	2020-05-15T16:39:11+00:00	2020-05-21T06:59:59+00:00	-5	rzp634pv49kjvlg@marketplace.amazon.com	George	+1 314-282-9402 ext. 34404	ABR004	Arabella Farm Direct Bouquet of 12 Fresh Cut Yellow Roses with a Free Glass Vase	1	0	1	Expedited	Monica Gavran	1371 Longwood Dr.			Bull Valley	IL	60098	US			false		
114-1592215-2908207	02953328959570	2020-05-15T16:14:20+00:00	2020-05-15T09:14:20-07:00	2020-05-15T16:42:49+00:00	2020-05-21T06:59:59+00:00	-5	9qwnbq3zvcy6x7y@marketplace.amazon.com	Rebekah	+1 412-532-4665 ext. 05399	ABR0022	Arabella Farm Direct Bouquet of 12 Fresh Cut Pink Roses with a Free Glass Vase	1	0	1	Expedited	Yonca Ongun	2601 E 19TH ST APT 20			SIGNAL HILL	CA	90755-1160	US		Leif and Yonca (my Turkish Delight), So happy for you for your growing baby girl! I can’t wait to meet her in a few months! Congratulations, again! We love you! From Rebekah	false		
112-2159931-3039420	62716905203146	2020-05-15T16:14:06+00:00	2020-05-15T09:14:06-07:00	2020-05-15T16:44:12+00:00	2020-05-21T06:59:59+00:00	-5	sxpfmddczzsn6h5@marketplace.amazon.com	Catharina Bearse	+1 314-282-9402 ext. 25838	ABR0033	Arabella Farm Direct Bouquet of 12 Fresh Cut Orange Roses with a Free Glass Vase	1	0	1	Expedited	Pilavin	6 MEADOW RD			LINCOLN	RI	02865-4566	US			false		
114-2555566-4569008	51775761019922	2020-05-15T16:18:01+00:00	2020-05-15T09:18:01-07:00	2020-05-15T16:47:31+00:00	2020-05-21T06:59:59+00:00	-5	gn7ds7rc2q93ptz@marketplace.amazon.com	Jadden castle	+1 314-282-9402 ext. 80750	ABR004	Arabella Farm Direct Bouquet of 12 Fresh Cut Yellow Roses with a Free Glass Vase	1	0	1	Expedited	Jadden castle	303 CENTER ST			GREENVILLE	KY	42345-1607	US		Happy Mother’s Day to the best bonus mom! Thank you for loving me and being there when you didn’t have to be! We love you! From Jadden castle	false		
114-8140430-3389814	69081293867706	2020-05-15T16:20:23+00:00	2020-05-15T09:20:23-07:00	2020-05-15T16:48:36+00:00	2020-05-21T06:59:59+00:00	-5	k5c0yxzd7v0wmjg@marketplace.amazon.com	Stephanie Benson	+1 210-728-4548 ext. 04808	ABR0033	Arabella Farm Direct Bouquet of 12 Fresh Cut Orange Roses with a Free Glass Vase	1	0	1	Expedited	REATHEL ANN SIMPSON	0855 S 700 E			MILL CREEK	IN	46365-9505	US		Thinking of you and all the reasons to send you flowers:  Love you, Miss you, Thank you, Hoping your recover went well & Just to brighten your day! Love - The Benson Girls From Stephanie Benson	false		
113-4573899-1429039	24097574802554	2020-05-15T16:23:47+00:00	2020-05-15T09:23:47-07:00	2020-05-15T16:49:40+00:00	2020-05-21T06:59:59+00:00	-5	h4r3mlgc4c47r4b@marketplace.amazon.com	Lynn M. Reynolds	+1 314-282-9402 ext. 43483	ABM010	Arabella Bouquets | Fields of The World Bouquet of Fresh Cut Flowers in a Free Designer Glass Vase	1	0	1	Expedited	Mrs. Pamela Evans	190 WATKINS GLEN DR			MCDONOUGH	GA	30252-4084	US		Even though I forgot your birthday, I wanted you to know how much I appreciate you!  Love, Lynn Reynolds From Lynn M. Reynolds	false		
112-7976275-4511409	65076992808522	2020-05-15T16:26:23+00:00	2020-05-15T09:26:23-07:00	2020-05-15T16:55:44+00:00	2020-05-21T06:59:59+00:00	-5	7gfyptdp5ph774j@marketplace.amazon.com	Kristine Zimmerman	+1 347-448-3190 ext. 52081	ABM010	Arabella Bouquets | Fields of The World Bouquet of Fresh Cut Flowers in a Free Designer Glass Vase	1	0	1	Expedited	Mrs. Mary Shuart	1550 PANTOPS MOUNTAIN PL APT 322			CHARLOTTESVILLE	VA	22911-8831	US		Happy Birthday, Aunt Mary! We hope these flowers brighten your new place. Lots of Love, Kristi, Scott, Max and Macy From Kristine Zimmerman	false		
113-1737776-1890628	01781260016266	2020-05-15T16:27:41+00:00	2020-05-15T09:27:41-07:00	2020-05-15T16:57:19+00:00	2020-05-21T06:59:59+00:00	-5	qltqcjksfp7n3v2@marketplace.amazon.com	Latoya	+1 347-448-3190 ext. 10596	ABR0022	Arabella Farm Direct Bouquet of 12 Fresh Cut Pink Roses with a Free Glass Vase	1	0	1	Expedited	Clara Moorman	11415 SANDSTONE ST			HOUSTON	TX	77072-2905	US			false		
111-3550212-0816208	13320131290250	2020-05-15T16:41:42+00:00	2020-05-15T09:41:42-07:00	2020-05-15T17:03:50+00:00	2020-05-21T06:59:59+00:00	-5	h4zq7l07y3bs1lg@marketplace.amazon.com	Melissa Christman	+1 210-728-4548 ext. 13078	ABR0022	Arabella Farm Direct Bouquet of 12 Fresh Cut Pink Roses with a Free Glass Vase	1	0	1	Expedited	Anna Chase	628 HILLSIDE CT			FUQUAY VARINA	NC	27526-2547	US		Happy Mother’s Day!!!!        Love Always~    Missy & Justin               ❤️ From Melissa Christman	false		
112-8692659-4199403	37000991186850	2020-05-15T16:39:10+00:00	2020-05-15T09:39:10-07:00	2020-05-15T17:07:01+00:00	2020-05-21T06:59:59+00:00	-5	cmmyky6fvwxgt26@marketplace.amazon.com	Douglas Bernhoft	+1 412-532-4665 ext. 58760	ABR0022	Arabella Farm Direct Bouquet of 12 Fresh Cut Pink Roses with a Free Glass Vase	1	0	1	Expedited	Douglas Bernhoft	9602 RAVENSWOOD RD			GRANBURY	TX	76049-4526	US		Have a wonderful Mothers day. From Douglas Bernhoft	false		
112-8692659-4199403	69044699159050	2020-05-15T16:39:10+00:00	2020-05-15T09:39:10-07:00	2020-05-15T17:07:01+00:00	2020-05-21T06:59:59+00:00	-5	cmmyky6fvwxgt26@marketplace.amazon.com	Douglas Bernhoft	+1 412-532-4665 ext. 58760	ABM010	Arabella Bouquets | Fields of The World Bouquet of Fresh Cut Flowers in a Free Designer Glass Vase	1	0	1	Expedited	Douglas Bernhoft	9602 RAVENSWOOD RD			GRANBURY	TX	76049-4526	US		Did you all kidnap the Randal or let him leave? From Douglas Bernhoft	false		
112-8692659-4199403	34550901773458	2020-05-15T16:39:10+00:00	2020-05-15T09:39:10-07:00	2020-05-15T17:07:01+00:00	2020-05-21T06:59:59+00:00	-5	cmmyky6fvwxgt26@marketplace.amazon.com	Douglas Bernhoft	+1 412-532-4665 ext. 58760	ABR0055	Arabella Farm Direct Bouquet of 12 Stems of Fresh Cut Hot Pink Roses in a Free Designer Glass Vase	1	0	1	Expedited	Douglas Bernhoft	9602 RAVENSWOOD RD			GRANBURY	TX	76049-4526	US		I bet you kidnapped him. From Douglas Bernhoft	false		
111-0132173-3109841	11459640363706	2020-05-15T16:54:47+00:00	2020-05-15T09:54:47-07:00	2020-05-15T17:23:41+00:00	2020-05-21T06:59:59+00:00	-5	kk32rz320p2xv3g@marketplace.amazon.com	Joe	+1 314-282-9402 ext. 84892	ABR0022	Arabella Farm Direct Bouquet of 12 Fresh Cut Pink Roses with a Free Glass Vase	1	0	1	Expedited	Joe	10700 HALSEY RD			GRAND BLANC	MI	48439-8201	US			false		
112-2139417-4511407	03046210254266	2020-05-15T16:56:25+00:00	2020-05-15T09:56:25-07:00	2020-05-15T17:26:57+00:00	2020-05-21T06:59:59+00:00	-5	8q6y429v0yb1mmr@marketplace.amazon.com	Jianxin Bao	+1 347-448-3190 ext. 62275	ABR001	Arabella Bouquets 12 Stems of Fresh Cut Red Roses in a Free Designer Glass Vase	1	0	1	Expedited	Ziyu Qiu	1E Loop Rd.	Apt 18i-2		New York	NY	10044	US			false		
114-9912171-3229022	58696786741386	2020-05-15T17:01:08+00:00	2020-05-15T10:01:08-07:00	2020-05-15T17:30:37+00:00	2020-05-21T06:59:59+00:00	-5	51lv02dj1cg01rb@marketplace.amazon.com	Beth Grew	+1 314-282-9402 ext. 38613	ABM0044	Arabella Farm Direct Bouquet of Fresh Cut Blue Hydrangea with a Free Glass Vase	1	0	1	Expedited	Arminda Ressurreicao	106 PACIFIC ST			NEWARK	NJ	07105-5168	US		Dear Mum,  Happy Birthday!@  Much love Beta	false		
114-2515535-1061825	51633015533618	2020-05-15T17:06:53+00:00	2020-05-15T10:06:53-07:00	2020-05-15T17:33:42+00:00	2020-05-21T06:59:59+00:00	-5	xhgjb15tx38qs7p@marketplace.amazon.com	Brian E. Clickner	+1 314-282-9402 ext. 45023	ABM010	Arabella Bouquets | Fields of The World Bouquet of Fresh Cut Flowers in a Free Designer Glass Vase	1	0	1	Expedited	Terressa Mannix	7 ROSA RD			SCHENECTADY	NY	12308-2114	US		Hi Terressa, Hope you had a wonderful Birthday!!! Looking forward to celebrating in person, in September ❤️❤️❤️  Much love, Brian	false		
113-5109484-7541837	67038850132498	2020-05-15T17:14:08+00:00	2020-05-15T10:14:08-07:00	2020-05-15T17:39:32+00:00	2020-05-21T06:59:59+00:00	-5	lwbtwp85ttmvl15@marketplace.amazon.com	Renah	+1 412-532-4665 ext. 23554	ABR0033	Arabella Farm Direct Bouquet of 12 Fresh Cut Orange Roses with a Free Glass Vase	1	0	1	Expedited	Neighbor Friends	1511 ELSON RD			BROOKHAVEN	PA	19015-1926	US		Hi Neighbor, Enjoy your gift! From Renah If you ever need anything from us we are right across the street. Please don't hesitate to text or call! (484)716-5055	false		
111-5635516-9861856	35431508286978	2020-05-15T17:23:59+00:00	2020-05-15T10:23:59-07:00	2020-05-15T17:48:12+00:00	2020-05-21T06:59:59+00:00	-5	gg11sv315jwbjbk@marketplace.amazon.com	Matthew Kogok	+1 347-448-3190 ext. 09568	ABR0033	Arabella Farm Direct Bouquet of 12 Fresh Cut Orange Roses with a Free Glass Vase	1	0	1	Expedited	Debra Storm	5732 CANADIAN MIST LN			HOLLY SPRINGS	NC	27540-8146	US		Wipe down every last flower!! Happy belated Mother's Day!	false		
113-2498107-0835400	48421172388170	2020-05-15T17:20:03+00:00	2020-05-15T10:20:03-07:00	2020-05-15T17:50:06+00:00	2020-05-21T06:59:59+00:00	-5	vfbw5lmw8x09m5z@marketplace.amazon.com	Rink Carpenter	+1 347-448-3190 ext. 94493	ABR0055	Arabella Farm Direct Bouquet of 12 Stems of Fresh Cut Hot Pink Roses in a Free Designer Glass Vase	1	0	1	Expedited	Sheila Carlos	75 JENNIFER LN			BURLINGTON	NJ	08016-1145	US			false		
112-2648144-2700221	29313465529666	2020-05-15T17:46:10+00:00	2020-05-15T10:46:10-07:00	2020-05-15T18:03:31+00:00	2020-05-21T06:59:59+00:00	-5	wxkhfd8y8s2fbn1@marketplace.amazon.com	Sandra Garza	+1 210-728-4548 ext. 65976	ABR001	Arabella Bouquets 12 Stems of Fresh Cut Red Roses in a Free Designer Glass Vase	1	0	1	Expedited	Marie Dextra	722 Beerchmot Street			Hyde Park	MA	02136	US		HAPPY BIRTHDAY MOM!!!!!! LOVE YOU!!! From Maria,Pierre,Tony	false		
112-3042447-5522660	44874254337826	2020-05-15T17:35:44+00:00	2020-05-15T10:35:44-07:00	2020-05-15T18:05:10+00:00	2020-05-21T06:59:59+00:00	-5	4hwdb8vyhfcv2z6@marketplace.amazon.com	Robin Moeller	+1 347-448-3190 ext. 46988	ABM010	Arabella Bouquets | Fields of The World Bouquet of Fresh Cut Flowers in a Free Designer Glass Vase	1	0	1	Expedited	Lisa Atkinson	3525 ELM DR			CALABASAS	CA	91302-2012	US		Sorry for your loss.  We love you!  Robin and Roy From Robin Moeller	false		
114-8287319-8793035	25071445831394	2020-05-15T17:39:01+00:00	2020-05-15T10:39:01-07:00	2020-05-15T18:07:38+00:00	2020-05-21T06:59:59+00:00	-5	nq6k449t61ssmxv@marketplace.amazon.com	Michelle M Curry	+1 210-728-4548 ext. 43475	ABR0022	Arabella Farm Direct Bouquet of 12 Fresh Cut Pink Roses with a Free Glass Vase	1	0	1	Expedited	Michelle M. Curry	837 Avonia Road			Fairview	PA	16415	US			false		
111-9873599-1771465	64963607350938	2020-05-15T17:42:32+00:00	2020-05-15T10:42:32-07:00	2020-05-15T18:10:38+00:00	2020-05-21T06:59:59+00:00	-5	g781xccy79vrlgh@marketplace.amazon.com	Larry Noble	+1 314-282-9402 ext. 56297	ABM010	Arabella Bouquets | Fields of The World Bouquet of Fresh Cut Flowers in a Free Designer Glass Vase	1	0	1	Expedited	Marjorie Noble	3615 CEDAR CREEK CIR			TRUSSVILLE	AL	35173-3256	US		Hope your back is feeling better (leave those pots alone!) Love, Larry and Julie From Larry & Julie	false		
111-4662744-2371401	63986721963186	2020-05-15T17:40:11+00:00	2020-05-15T10:40:11-07:00	2020-05-15T18:19:01+00:00	2020-05-21T06:59:59+00:00	-5	6lwg1d3wmls74v1@marketplace.amazon.com	Kristina P. Cheng	+1 210-728-4548 ext. 26237	ABM010	Arabella Bouquets | Fields of The World Bouquet of Fresh Cut Flowers in a Free Designer Glass Vase	2	0	2	Expedited	Theresa and Sam Shih Family	THE ST REGIS	88 W PACES FERRY RD NW		ATLANTA	GA	30305-1444	US			false		
111-4662744-2371401	32887906714154	2020-05-15T17:40:11+00:00	2020-05-15T10:40:11-07:00	2020-05-15T18:19:01+00:00	2020-05-21T06:59:59+00:00	-5	6lwg1d3wmls74v1@marketplace.amazon.com	Kristina P. Cheng	+1 210-728-4548 ext. 26237	ABR0022	Arabella Farm Direct Bouquet of 12 Fresh Cut Pink Roses with a Free Glass Vase	1	0	1	Expedited	Theresa and Sam Shih Family	THE ST REGIS	88 W PACES FERRY RD NW		ATLANTA	GA	30305-1444	US			false		
114-8817389-8525023	08472602617554	2020-05-15T18:00:29+00:00	2020-05-15T11:00:29-07:00	2020-05-15T18:26:57+00:00	2020-05-21T06:59:59+00:00	-5	nwsbkrpcf5d724n@marketplace.amazon.com	Dean Kowalefski	+1 314-282-9402 ext. 47978	ABR0022	Arabella Farm Direct Bouquet of 12 Fresh Cut Pink Roses with a Free Glass Vase	1	0	1	Expedited	Jill Butterfield	2440 N WAUWATOSA AVE			WAUWATOSA	WI	53213-1133	US		Happy Birthday Jill!  I hope you have a day as wonderful as you❤️ From Claire Kowalefski	false		
113-8532916-1909063	40444052372258	2020-05-15T18:02:09+00:00	2020-05-15T11:02:09-07:00	2020-05-15T18:28:11+00:00	2020-05-21T06:59:59+00:00	-5	hv74b5q2dqbzvjv@marketplace.amazon.com	frehiwet tesfai	+1 347-448-3190 ext. 88566	ABR0022	Arabella Farm Direct Bouquet of 12 Fresh Cut Pink Roses with a Free Glass Vase	1	0	1	Expedited	Mama Lemlem	5803 10TH PL # CHILLHM			HYATTSVILLE	MD	20782-2204	US		It’s never too late to appreciate your mom. Happy Mother’s Day, Mama Lemlem! Thank you for always being there and loving me like one of your own.  God truly blessed me when he gave me not one, but two moms. I love you♥️ From Fifi	false		
113-1132146-7017062	06128070508850	2020-05-15T18:06:09+00:00	2020-05-15T11:06:09-07:00	2020-05-15T18:31:19+00:00	2020-05-21T06:59:59+00:00	-5	tw4ctvdxhq2hp89@marketplace.amazon.com	Michaelsimpsons1978@gmail.com	+1 314-282-9402 ext. 04310	ABM010	Arabella Bouquets | Fields of The World Bouquet of Fresh Cut Flowers in a Free Designer Glass Vase	1	0	1	Expedited	Jennifer Hudak	BUILDING 25100 PINE HL			LEESBURG	FL	34748-9470	US		Wish I could give this to you in person but until I can do that I think this is the best way for now.. I love you so much. Enjoy your gift! From steve	false		
112-4566491-6263436	43656893454250	2020-05-13T18:00:16+00:00	2020-05-13T11:00:16-07:00	2020-05-15T18:32:13+00:00	2020-05-21T06:59:59+00:00	-5	jb8ckd8527tbbcy@marketplace.amazon.com	Charles Kansanback	+1 347-448-3190 ext. 63124	ABR0033	Arabella Farm Direct Bouquet of 12 Fresh Cut Orange Roses with a Free Glass Vase	1	0	1	Expedited	Rachel Momma	6824 MERRIMAC LN N			MAPLE GROVE	MN	55311-3823	US			false		
114-0639542-9705009	02016605845586	2020-05-15T18:10:29+00:00	2020-05-15T11:10:29-07:00	2020-05-15T18:37:16+00:00	2020-05-21T06:59:59+00:00	-5	36d80kv3bzw4c9q@marketplace.amazon.com	Mary Tien	+1 314-282-9402 ext. 25589	ABR0022	Arabella Farm Direct Bouquet of 12 Fresh Cut Pink Roses with a Free Glass Vase	1	0	1	Expedited	Deanna Price	828 N 1ST AVE			BOONVILLE	IN	47601-1248	US		Hi Mom, Enjoy your gift! From Mary Tien	false		
113-3434692-1653819	54474817065370	2020-05-15T18:34:22+00:00	2020-05-15T11:34:22-07:00	2020-05-15T18:40:45+00:00	2020-05-21T06:59:59+00:00	-5	z99hbftzxn5tfb2@marketplace.amazon.com	Martin Spinelli	+1 314-282-9402 ext. 05710	ABR0022	Arabella Farm Direct Bouquet of 12 Fresh Cut Pink Roses with a Free Glass Vase	1	0	1	Expedited	Nell Martin	7377 SCOTLAND WAY # 6344 AT	THE HIGHLANDS		SARASOTA	FL	34238-8555	US		Dear Nell and Bill Martin and Brian are thinking of you  & looking forward to visiting one fine day!  Cheers, Martin	false		
114-4580603-4445817	24452153962058	2020-05-15T18:12:00+00:00	2020-05-15T11:12:00-07:00	2020-05-15T18:40:50+00:00	2020-05-21T06:59:59+00:00	-5	gly731pncskscpb@marketplace.amazon.com	vicki smith	6-786-7017	ABR014	Arabella Bouquets 18 Stems of Fresh Cut White Roses in a Free Designer Glass Vase	1	0	1	Expedited	mrs. Deanna Davis	1417 126TH ST SE			EVERETT	WA	98208-6567	US		Dearest Deanna, our hearts are with you love mom and dad	false		
113-6193700-1701003	34926593751354	2020-05-15T18:18:54+00:00	2020-05-15T11:18:54-07:00	2020-05-15T18:42:40+00:00	2020-05-21T06:59:59+00:00	-5	3g4rhtq5gjrhh6m@marketplace.amazon.com	Pam McBryde	+1 347-448-3190 ext. 60910	ABM010	Arabella Bouquets | Fields of The World Bouquet of Fresh Cut Flowers in a Free Designer Glass Vase	1	0	1	Expedited	Patricia Crowley	3795 GEORGIA ST APT 202			SAN DIEGO	CA	92103-7611	US		Hello Pat,  I'm so sorry to hear about Chip.  I really liked him!  I really enjoyed meeting him, even if only for a short period of time.  Praying for comfort for you.  Take Care.  Love you, Pam	false		
114-5339882-2361059	14594862885362	2020-05-15T18:14:08+00:00	2020-05-15T11:14:08-07:00	2020-05-15T18:43:52+00:00	2020-05-21T06:59:59+00:00	-5	rytcydgyhns90cy@marketplace.amazon.com	Melissa Johnston	+1 347-448-3190 ext. 59838	ABR0055	Arabella Farm Direct Bouquet of 12 Stems of Fresh Cut Hot Pink Roses in a Free Designer Glass Vase	1	0	1	Expedited	Gail and Woody Postle	52 CONNIE LN			DOVER	DE	19901-2872	US		Happy Mother's Day, Gail!  Sorry, the original plant we tried to send you got lost in the mail. Hope these make it to you!  Love, Melissa and Mark	false		
113-5179771-0933035	27894379430442	2020-05-15T18:20:36+00:00	2020-05-15T11:20:36-07:00	2020-05-15T18:50:03+00:00	2020-05-21T06:59:59+00:00	-5	kmf0k2qtvmdt655@marketplace.amazon.com	David H. Fleischmann	+1 314-282-9402 ext. 00568	ABR0033	Arabella Farm Direct Bouquet of 12 Fresh Cut Orange Roses with a Free Glass Vase	1	0	1	Expedited	Diane Quarles	11812 W BUTEO DR			NAMPA	ID	83686-7032	US			false		
111-6145531-2124220	57929947732818	2020-05-15T18:24:22+00:00	2020-05-15T11:24:22-07:00	2020-05-15T18:51:06+00:00	2020-05-21T06:59:59+00:00	-5	nrv3rf9v83bb0gr@marketplace.amazon.com	Janis S. Lowen	+1 210-728-4548 ext. 88058	ABM010	Arabella Bouquets | Fields of The World Bouquet of Fresh Cut Flowers in a Free Designer Glass Vase	1	0	1	Expedited	Monique Erlichman	67 PLAINS DR			ONEONTA	NY	13820-2463	US		Happy 90th birthday Aunt Monique.  We love you and hope to celebrate with you soon.  Best wishes and lots of love from Ilene, Lenny, Brianna, Kylie, Janis and Jack. From Janis	false		
112-4871643-3600232	32631012454146	2020-05-15T18:28:51+00:00	2020-05-15T11:28:51-07:00	2020-05-15T18:54:59+00:00	2020-05-21T06:59:59+00:00	-5	l6bd41qnxmn9w4x@marketplace.amazon.com	Sharon Petit	+1 314-282-9402 ext. 74858	ABR014	Arabella Bouquets 18 Stems of Fresh Cut White Roses in a Free Designer Glass Vase	1	0	1	Expedited	Anna Blair	3602 N NARROWS DR UNIT 14B			TACOMA	WA	98407-1551	US			false		
114-4437843-9920216	53848392458242	2020-05-15T18:25:45+00:00	2020-05-15T11:25:45-07:00	2020-05-15T18:55:54+00:00	2020-05-21T06:59:59+00:00	-5	gthy5hdd0bg751y@marketplace.amazon.com	Steve Marek	+1 412-532-4665 ext. 36672	ABR014	Arabella Bouquets 18 Stems of Fresh Cut White Roses in a Free Designer Glass Vase	1	0	1	Expedited	Dr. Reyhan Berkel	677 YORKTOWN PL			PARAMUS	NJ	07652-2249	US			true		
114-8719617-6242640	15813103094738	2020-05-15T18:33:50+00:00	2020-05-15T11:33:50-07:00	2020-05-15T19:00:47+00:00	2020-05-21T06:59:59+00:00	-5	1f3w1rzyq4jqp2c@marketplace.amazon.com	GLORIA RAKOVIC	+1 210-728-4548 ext. 96562	ABM010	Arabella Bouquets | Fields of The World Bouquet of Fresh Cut Flowers in a Free Designer Glass Vase	1	0	1	Expedited	Charles  Rakovic	301 BOULEVARD DR			WAYNE	NJ	07470-7607	US		DEAR BARBARA, WE ARE THINKING OF YOU AND SEND OUR LOVE AND SUPPORT DURING THIS SAD TIME. GLORIA AND JAN From GLORIA RAKOVIC	false		
111-7073218-9727464	04210599405402	2020-05-15T18:31:16+00:00	2020-05-15T11:31:16-07:00	2020-05-15T19:01:33+00:00	2020-05-21T06:59:59+00:00	-5	cffjtz4zrvby93x@marketplace.amazon.com	Kenny Second	+1 314-282-9402 ext. 30032	ABR0055	Arabella Farm Direct Bouquet of 12 Stems of Fresh Cut Hot Pink Roses in a Free Designer Glass Vase	1	0	1	Expedited	Kenny Second	1024 Blake Ave			Brooklyn	New York	11208	US			false		
114-0053389-6542613	12982722218914	2020-05-15T18:38:42+00:00	2020-05-15T11:38:42-07:00	2020-05-15T19:08:36+00:00	2020-05-21T06:59:59+00:00	-5	bf33z04mvz04bz9@marketplace.amazon.com	Ibrahim bakare	+1 314-282-9402 ext. 80605	ABR0022	Arabella Farm Direct Bouquet of 12 Fresh Cut Pink Roses with a Free Glass Vase	1	0	1	Expedited	Adriana	490 PROSPECT AVE APT 3L			BROOKLYN	NY	11215-6025	US			false		
111-8092209-2861812	44429110266818	2020-05-15T18:55:58+00:00	2020-05-15T11:55:58-07:00	2020-05-15T19:22:01+00:00	2020-05-21T06:59:59+00:00	-5	lc3lqbxhz2pz4k1@marketplace.amazon.com	Martha Twichell	+1 210-728-4548 ext. 88267	ABM010	Arabella Bouquets | Fields of The World Bouquet of Fresh Cut Flowers in a Free Designer Glass Vase	1	0	1	Expedited	Heather Moses	701 BALSAM ST			LIVERPOOL	NY	13088-4430	US		Happy 50th Birthday! I hope you enjoy your day and find some time for relaxing!  Hugs,  Martha From Martha Twichell	false		
114-3403545-0181047	03737056199074	2020-05-15T19:05:24+00:00	2020-05-15T12:05:24-07:00	2020-05-15T19:34:56+00:00	2020-05-21T06:59:59+00:00	-5	bv1dn4pc5rvrwx6@marketplace.amazon.com	Rebecca Walton Adrian	+1 314-282-9402 ext. 13471	ABR0022	Arabella Farm Direct Bouquet of 12 Fresh Cut Pink Roses with a Free Glass Vase	1	0	1	Expedited	Botum Davy Son	3717 69TH DR NE			MARYSVILLE	WA	98270-7015	US		Sending much love. Thank you for the joy you have given us. Rebecca and Scott From Rebecca Walton Adrian	false		
111-1735436-1989068	40578335033618	2020-05-15T19:17:43+00:00	2020-05-15T12:17:43-07:00	2020-05-15T19:47:05+00:00	2020-05-21T06:59:59+00:00	-5	1lkxl0pqzpq6vb9@marketplace.amazon.com	Brian Rubi	+1 347-448-3190 ext. 98075	ABR0022	Arabella Farm Direct Bouquet of 12 Fresh Cut Pink Roses with a Free Glass Vase	1	0	1	Expedited	Ingrid Cruz	149 TWIN LAWNS AVE			BRENTWOOD	NY	11717-6018	US			false		
112-0340416-6556229	14207315550554	2020-05-15T19:28:16+00:00	2020-05-15T12:28:16-07:00	2020-05-15T19:54:16+00:00	2020-05-21T06:59:59+00:00	-5	xyjqkqbqrbskgvt@marketplace.amazon.com	Kuky	+1 347-448-3190 ext. 70726	ABM010	Arabella Bouquets | Fields of The World Bouquet of Fresh Cut Flowers in a Free Designer Glass Vase	1	0	1	Expedited	Idongesit Udonkuku	1923 DEVORE DR SW			MARIETTA	GA	30008-5611	US		Happy mother's day! From Sam & Rukaya.	false		
113-5008740-7512264	16634358220714	2020-05-15T19:27:02+00:00	2020-05-15T12:27:02-07:00	2020-05-15T19:57:22+00:00	2020-05-21T06:59:59+00:00	-5	btmdgm1nm6h6gl4@marketplace.amazon.com	gabriel gaxiola	+1 347-448-3190 ext. 90861	ABR0022	Arabella Farm Direct Bouquet of 12 Fresh Cut Pink Roses with a Free Glass Vase	1	0	1	Expedited	Yvonne	16682 LEIANA CT			RIVERSIDE	CA	92503-0566	US			false		
114-0993420-3202658	15240181416266	2020-05-15T19:27:18+00:00	2020-05-15T12:27:18-07:00	2020-05-15T19:57:44+00:00	2020-05-21T06:59:59+00:00	-5	k0t0jdzd5ryqw04@marketplace.amazon.com	Johnathan Schultz	+1 347-448-3190 ext. 31444	ABM010	Arabella Bouquets | Fields of The World Bouquet of Fresh Cut Flowers in a Free Designer Glass Vase	1	0	1	Expedited	Maria Perna	520 NORWOOD AVE			BUFFALO	NY	14222-1319	US			false		
111-6772032-5085067	14732698931898	2020-05-15T19:29:57+00:00	2020-05-15T12:29:57-07:00	2020-05-15T20:00:13+00:00	2020-05-21T06:59:59+00:00	-5	3qv704rmgkc8kz2@marketplace.amazon.com	Christopher Schalk	+1 210-728-4548 ext. 54043	ABR0033	Arabella Farm Direct Bouquet of 12 Fresh Cut Orange Roses with a Free Glass Vase	1	0	1	Expedited	Jackie Vannoy	5636 5TH AVE			KOPPEL	PA	16136-1142	US			false		
111-8824335-9785856	65428358456386	2020-05-15T19:30:59+00:00	2020-05-15T12:30:59-07:00	2020-05-15T20:01:01+00:00	2020-05-21T06:59:59+00:00	-5	248txkg1twzkzpg@marketplace.amazon.com	Heather Dahl	+1 210-728-4548 ext. 32095	ABR001	Arabella Bouquets 12 Stems of Fresh Cut Red Roses in a Free Designer Glass Vase	1	0	1	Expedited	Lindsey Furbacher	1 MAIN ST			CROWN KING	AZ	86343-9800	US			false		
113-0753410-0169006	64906584198050	2020-05-15T19:31:18+00:00	2020-05-15T12:31:18-07:00	2020-05-15T20:01:32+00:00	2020-05-21T06:59:59+00:00	-5	xnvrtwt1mdn8cn8@marketplace.amazon.com	linda shell	+1 314-282-9402 ext. 77100	ABM010	Arabella Bouquets | Fields of The World Bouquet of Fresh Cut Flowers in a Free Designer Glass Vase	1	0	1	Expedited	Daniel J Cox	2000 KELLOGG WAY			RANCHO CORDOVA	CA	95670-2435	US			false		
111-7273493-5604254	19965525280690	2020-05-15T19:46:31+00:00	2020-05-15T12:46:31-07:00	2020-05-15T20:13:23+00:00	2020-05-21T06:59:59+00:00	-5	fzr9bf6rpjmyk20@marketplace.amazon.com	Kerri Kearns	+1 314-282-9402 ext. 39848	ABR004	Arabella Farm Direct Bouquet of 12 Fresh Cut Yellow Roses with a Free Glass Vase	1	0	1	Expedited	Phil and Melissa Barlit	197 SILVER ST			HANOVER	MA	02339-1934	US		Phil, Melissa, & Lindsay, We are so sorry for your loss.  We hope that good memories will comfort you during this difficult time. Love, Center School Sunshine	false		
111-5247463-6539457	17018563335578	2020-05-15T19:44:22+00:00	2020-05-15T12:44:22-07:00	2020-05-15T20:14:46+00:00	2020-05-21T06:59:59+00:00	-5	zphptxxb2klcj41@marketplace.amazon.com	corliss jackson	+1 314-282-9402 ext. 67052	ABR0066	Arabella Bouquets | 12 Stems of Fresh Cut White Roses in a Free Designer Glass Vase	1	0	1	Expedited	Queen McGee	620 BRAMPTON PL			RIDGELAND	MS	39157-4195	US			false		
112-4373490-9098626	11240688098842	2020-05-15T19:49:34+00:00	2020-05-15T12:49:34-07:00	2020-05-15T20:15:47+00:00	2020-05-21T06:59:59+00:00	-5	fd6w4ll8614ts16@marketplace.amazon.com	Qun Li	+1 210-728-4548 ext. 81266	ABR0022	Arabella Farm Direct Bouquet of 12 Fresh Cut Pink Roses with a Free Glass Vase	1	0	1	Expedited	Ruoting Qiu	504 MYRTLE AVE APT 7B			BROOKLYN	NY	11205-3548	US		Congratulations! You are such pretty and sweet and smart beautiful girl, best wishes for you! From Li Family	false		
114-8475068-8785023	63446472892586	2020-05-15T19:56:02+00:00	2020-05-15T12:56:02-07:00	2020-05-15T20:16:06+00:00	2020-05-21T06:59:59+00:00	-5	0sxbbq9fxhg268c@marketplace.amazon.com	Yahir Romero	+1 314-282-9402 ext. 87605	ABR0055	Arabella Farm Direct Bouquet of 12 Stems of Fresh Cut Hot Pink Roses in a Free Designer Glass Vase	1	0	1	Expedited	Jen Coleman	86705 E SAGEBRUSH RD			KENNEWICK	WA	99338-2367	US		Hi friend,  I hope this will brighten you day. Hugs! From Yahir	false		
113-9952414-2635400	13309044265610	2020-05-15T19:50:42+00:00	2020-05-15T12:50:42-07:00	2020-05-15T20:16:43+00:00	2020-05-21T06:59:59+00:00	-5	27swxmqxwj50thf@marketplace.amazon.com	Shelby Graham	+1 314-282-9402 ext. 26787	ABM010	Arabella Bouquets | Fields of The World Bouquet of Fresh Cut Flowers in a Free Designer Glass Vase	1	0	1	Expedited	Allison Tatman	228 WISSO RD			GRIFFIN	GA	30223-6751	US		I know you have so many flowers outside, but here's some for inside! Thinking of you guys and we are here if you need anything! From Shelby & Nat	false		
111-8049949-8114608	64493875849194	2020-05-15T19:51:35+00:00	2020-05-15T12:51:35-07:00	2020-05-15T20:17:23+00:00	2020-05-21T06:59:59+00:00	-5	s7f5szwck8cmmzk@marketplace.amazon.com	Jill Rondeau	+1 210-728-4548 ext. 98370	ABM010	Arabella Bouquets | Fields of The World Bouquet of Fresh Cut Flowers in a Free Designer Glass Vase	1	0	1	Expedited	Jean Metcalf	655 BONNIE LN			CONWAY	AR	72034-5540	US		Jean,  Happy Happy Happy Birthday !!  and many many many more !!  LOVE YOU !!! From Scott and Jill	false		
112-8120627-5158637	20099585987466	2020-05-13T19:54:06+00:00	2020-05-13T12:54:06-07:00	2020-05-15T20:26:01+00:00	2020-05-21T06:59:59+00:00	-5	8ty6lj609jckj6q@marketplace.amazon.com	Raheem Dillard	+1 347-448-3190 ext. 80939	ABM010	Arabella Bouquets | Fields of The World Bouquet of Fresh Cut Flowers in a Free Designer Glass Vase	1	0	1	Expedited	Mikeeva lyons	3525 TESORO DEL VALLE CT			NORTH LAS VEGAS	NV	89081-4065	US			false		
111-9368270-2407425	20990230680082	2020-05-15T19:59:49+00:00	2020-05-15T12:59:49-07:00	2020-05-15T20:27:36+00:00	2020-05-21T06:59:59+00:00	-5	t8xll1f977r3m0w@marketplace.amazon.com	Brooke Woodley	+1 210-728-4548 ext. 98735	ABR0022	Arabella Farm Direct Bouquet of 12 Fresh Cut Pink Roses with a Free Glass Vase	1	0	1	Expedited	Shauna Maya	535 S GREENWOOD AVE			DECATUR	IL	62522-3349	US		May God be your strength and peace.  With Love,  Zach and Brooke From Zach and Brooke Woodley	false		
111-4332542-6348237	05752976088346	2020-05-15T20:04:34+00:00	2020-05-15T13:04:34-07:00	2020-05-15T20:29:25+00:00	2020-05-21T06:59:59+00:00	-5	l270452r8c60n0v@marketplace.amazon.com	Devin Kasunich	+1 347-448-3190 ext. 76197	ABM010	Arabella Bouquets | Fields of The World Bouquet of Fresh Cut Flowers in a Free Designer Glass Vase	1	0	1	Expedited	Devin Kasunich	3095 COWLEY WAY UNIT 26			SAN DIEGO	CA	92117-6842	US			false		
111-1521827-1750666	49826627918506	2020-05-15T20:03:02+00:00	2020-05-15T13:03:02-07:00	2020-05-15T20:29:32+00:00	2020-05-21T06:59:59+00:00	-5	l29129jc9rdvywh@marketplace.amazon.com	Alvin Harden	+1 347-448-3190 ext. 99547	ABR0022	Arabella Farm Direct Bouquet of 12 Fresh Cut Pink Roses with a Free Glass Vase	1	0	1	Expedited	Alvin Harden	22904 SCRIBNER DR			MORENO VALLEY	CA	92553-7825	US			false		
111-4677268-1433030	32505621819898	2020-05-15T20:00:25+00:00	2020-05-15T13:00:25-07:00	2020-05-15T20:31:07+00:00	2020-05-21T06:59:59+00:00	-5	yqsms4nn88kwn7f@marketplace.amazon.com	Lawrence Hancock	71332083073	ABR0033	Arabella Farm Direct Bouquet of 12 Fresh Cut Orange Roses with a Free Glass Vase	1	0	1	Expedited	Lawrence Hancock	4383 COUNTY ROAD 4516			HONDO	TX	78861-6128	US			false		
114-4917113-4176260	41920417762906	2020-05-15T20:03:14+00:00	2020-05-15T13:03:14-07:00	2020-05-15T20:43:35+00:00	2020-05-21T06:59:59+00:00	-5	nxzkn27nb8hfhs6@marketplace.amazon.com	Nicholas Butler	+1 314-282-9402 ext. 09470	ABM010	Arabella Bouquets | Fields of The World Bouquet of Fresh Cut Flowers in a Free Designer Glass Vase	1	0	1	Expedited	Teniusha Griffin	618 S 124TH AVE AVONDALE AZ 85323			AVONDALE	AZ	85323-8487	US			false		
113-3770341-7959425	57291817416298	2020-05-15T20:13:31+00:00	2020-05-15T13:13:31-07:00	2020-05-15T20:51:11+00:00	2020-05-21T06:59:59+00:00	-5	ch3c3y2wbf9lkzq@marketplace.amazon.com	Patricia Durr	+1 347-448-3190 ext. 95177	ABR0022	Arabella Farm Direct Bouquet of 12 Fresh Cut Pink Roses with a Free Glass Vase	1	0	1	Expedited	Marlana Bianchi	337 APPLETON ST			NORTH ANDOVER	MA	01845-3136	US		Congratulations Marlana on your graduation.  I am so sorry  I can't be there but you are always in my mind.  I love you and hope even under these circumstances you have an exciting day.  Love you, From Grandma	false		
111-0443732-4143448	47804017925682	2020-05-15T18:34:52+00:00	2020-05-15T11:34:52-07:00	2020-05-15T20:52:32+00:00	2020-05-21T06:59:59+00:00	-5	ss0jxq3phkpzf7b@marketplace.amazon.com	Chris	+1 314-282-9402 ext. 78576	ABR0022	Arabella Farm Direct Bouquet of 12 Fresh Cut Pink Roses with a Free Glass Vase	1	0	1	Expedited	Diane harris	11000 BUDDY ELLIS RD APT 228			DENHAM SPRINGS	LA	70726-6161	US			false		
111-5265174-5602628	43492815443770	2020-05-15T20:30:07+00:00	2020-05-15T13:30:07-07:00	2020-05-15T20:58:41+00:00	2020-05-21T06:59:59+00:00	-5	ckdb5s9pfy2ppv4@marketplace.amazon.com	Lynn Franco	+1 314-282-9402 ext. 94694	ABR0022	Arabella Farm Direct Bouquet of 12 Fresh Cut Pink Roses with a Free Glass Vase	1	0	1	Expedited	Laura Cassavant	88 NEW LENOX RD			LENOX	MASSACHUSETTS	01240-2241	US			false		
113-4667639-7979403	47615621861722	2020-05-15T20:30:04+00:00	2020-05-15T13:30:04-07:00	2020-05-15T21:00:33+00:00	2020-05-21T06:59:59+00:00	-5	vgg49thfzhyfmfn@marketplace.amazon.com	Michael Spelfogel	+1 314-282-9402 ext. 99957	ABR004	Arabella Farm Direct Bouquet of 12 Fresh Cut Yellow Roses with a Free Glass Vase	1	0	1	Expedited	Alexandra Rodriguez	603 PEBBLE CT			BETHANY BEACH	DE	19930-9687	US			false		
111-7474119-6673861	09812398978682	2020-05-15T20:30:51+00:00	2020-05-15T13:30:51-07:00	2020-05-15T21:03:38+00:00	2020-05-21T06:59:59+00:00	-5	dcjlk6k6h429b0q@marketplace.amazon.com	BB Lee	+1 412-532-4665 ext. 71431	ABR0022	Arabella Farm Direct Bouquet of 12 Fresh Cut Pink Roses with a Free Glass Vase	1	0	1	Expedited	Beverly Lee	5730 RODMAN ST			PHILADELPHIA	PA	19143-1942	US			false		
111-0728886-8693056	58339834479090	2020-05-15T20:42:27+00:00	2020-05-15T13:42:27-07:00	2020-05-15T21:12:58+00:00	2020-05-21T06:59:59+00:00	-5	8dv6z0cckgkl4pm@marketplace.amazon.com	Scott Reid	+1 314-282-9402 ext. 86549	ABM010	Arabella Bouquets | Fields of The World Bouquet of Fresh Cut Flowers in a Free Designer Glass Vase	1	0	1	Expedited	Diane Reid	CALLAWASSIE ISLAND	17 RIVER MARSH LN		OKATIE	SC	29909-4235	US			false		
114-5171365-7757056	08469013579754	2020-05-15T20:48:45+00:00	2020-05-15T13:48:45-07:00	2020-05-15T21:18:58+00:00	2020-05-21T06:59:59+00:00	-5	5fg4ly4lwrdgb77@marketplace.amazon.com	Nancy Torres	+1 412-532-4665 ext. 46912	ABR001	Arabella Bouquets 12 Stems of Fresh Cut Red Roses in a Free Designer Glass Vase	1	0	1	Expedited	Doreen Torres	2001 torched hill rd	9A		Columbus	Georgia	31903	US			false		
113-5922331-6506605	54510375074554	2020-05-15T20:47:33+00:00	2020-05-15T13:47:33-07:00	2020-05-15T21:22:26+00:00	2020-05-21T06:59:59+00:00	-5	937hy9827l4rh8p@marketplace.amazon.com	Emily E Stone	+1 763-225-9463 ext. 37188	ABM0044	Arabella Farm Direct Bouquet of Fresh Cut Blue Hydrangea with a Free Glass Vase	1	0	1	Expedited	Emily Elizabeth Stone	24612 S MILLER RD			HARRISONVILLE	MO	64701-1175	US			false		
111-5246565-7713801	29297705301450	2020-05-15T21:09:57+00:00	2020-05-15T14:09:57-07:00	2020-05-15T21:29:15+00:00	2020-05-21T06:59:59+00:00	-5	jwbygpt8yrv3t5f@marketplace.amazon.com	Lynn Kneeland	+1 347-448-3190 ext. 55918	ABM0033	Arabella Farm Direct Bouquet of Fresh Cut White Hydrangea with a Free Glass Vase	1	0	1	Expedited	Diane Slater	19557 DRAKES RD SE			SILVERTON	OR	97381-9414	US		We pray for the sweet kindness of our Father to be beside you today, reminding you of how precious you are to Him and how deeply loved... From Lynn And Karen	false		
112-0133697-5122633	66766135676106	2020-05-15T21:02:07+00:00	2020-05-15T14:02:07-07:00	2020-05-15T21:31:43+00:00	2020-05-21T06:59:59+00:00	-5	m2txt1frdybnc63@marketplace.amazon.com	Anne Marie Nicoll Turner	+1 210-728-4548 ext. 20946	ABM010	Arabella Bouquets | Fields of The World Bouquet of Fresh Cut Flowers in a Free Designer Glass Vase	1	0	1	Expedited	Marge Nicoll	64 W BYRSONIMA LOOP			HOMOSASSA	FL	34446-4648	US		Happy Birthday, Grandma! From Anne, Brad, Hunter, & Jacob	false		
112-0316805-1275426	61872715042026	2020-05-15T21:18:14+00:00	2020-05-15T14:18:14-07:00	2020-05-15T21:47:45+00:00	2020-05-21T06:59:59+00:00	-5	sqnzxhlgtp3pnfp@marketplace.amazon.com	Brett	+1 347-448-3190 ext. 10590	ABR0022	Arabella Farm Direct Bouquet of 12 Fresh Cut Pink Roses with a Free Glass Vase	1	0	1	Expedited	Lita Larkin	1030 ROBINSON AVE UNIT 308			SAN DIEGO	CA	92103-4480	US		Thank you for your endless kindness, even though I’m as crappy at keeping in touch as Ellen Ripley. I hope you’re well, and I hope you’re thriving <3 From Brett	false		
112-4200689-6804217	29889361449298	2020-05-15T21:20:45+00:00	2020-05-15T14:20:45-07:00	2020-05-15T21:50:20+00:00	2020-05-21T06:59:59+00:00	-5	4d7vcrrnq6l09db@marketplace.amazon.com	Shannon M. Martin	+1 210-728-4548 ext. 36854	ABM010	Arabella Bouquets | Fields of The World Bouquet of Fresh Cut Flowers in a Free Designer Glass Vase	1	0	1	Expedited	Kacy Walz	3958 BOTANICAL AVE			SAINT LOUIS	MO	63110-4006	US		Happy birthday, Kacy! We cannot wait to see you again. Have a fantastic birthday! Shannon and Stuart. From Shannon M. Martin	false		
111-5869768-4665045	09088225890554	2020-05-15T21:35:01+00:00	2020-05-15T14:35:01-07:00	2020-05-15T21:59:24+00:00	2020-05-21T06:59:59+00:00	-5	fcmfcttc61qm02x@marketplace.amazon.com	nahrin	+1 347-448-3190 ext. 77297	ABR0022	Arabella Farm Direct Bouquet of 12 Fresh Cut Pink Roses with a Free Glass Vase	1	0	1	Expedited	Lisa Underdown	6036 N LODI AVE			FRESNO	CA	93722-3276	US		Dear Mrs Underdown , Thank you for all your handwork, Care and dedication for Joshua's education this year. You are truly a great teacher and we are very pleassed with Joshua's progress in your class. Gitti's family From nahrin	false		
112-8652276-1250600	31391642518802	2020-05-15T21:35:36+00:00	2020-05-15T14:35:36-07:00	2020-05-15T22:00:05+00:00	2020-05-21T06:59:59+00:00	-5	bzn85l5rhn5cdt6@marketplace.amazon.com	Sheila Bonds	+1 314-282-9402 ext. 83984	ABR0022	Arabella Farm Direct Bouquet of 12 Fresh Cut Pink Roses with a Free Glass Vase	1	0	1	Expedited	Whitney Branch	1888 EMERY ST NW UNIT 575			ATLANTA	GA	30318-3093	US		Much Love, proud of the woman that you are at 21. From Sheila Bonds GodMommy	false		
113-9679351-7747401	36174552117746	2020-05-15T21:34:24+00:00	2020-05-15T14:34:24-07:00	2020-05-15T22:02:58+00:00	2020-05-21T06:59:59+00:00	-5	f2dshc6yy03ffjn@marketplace.amazon.com	Lucille cuttino	+1 347-448-3190 ext. 93539	ABR004	Arabella Farm Direct Bouquet of 12 Fresh Cut Yellow Roses with a Free Glass Vase	1	0	1	Expedited	Jewel.   Gordon	220-  02134 Th  Road			LAURELTON	NY	11413-1906	US		Happy birthday Angie. From Aunt Lucille with love	false		
112-5071199-4930669	58409677186706	2020-05-15T22:03:57+00:00	2020-05-15T15:03:57-07:00	2020-05-15T22:04:52+00:00	2020-05-21T06:59:59+00:00	-5	cfdbx7wwtlxzgr9@marketplace.amazon.com	Haley Golding	+1 210-728-4548 ext. 07137	ABM0033	Arabella Farm Direct Bouquet of Fresh Cut White Hydrangea with a Free Glass Vase	1	0	1	Expedited	Kay Segal	825 312TH AVE			BURLINGTON	WI	53105-9331	US		Wishing you a speedy recovery. You've got this!! Love, Linda and Rick From Linda Golding	false		
113-1499152-4941038	35336848777306	2020-05-15T21:47:01+00:00	2020-05-15T14:47:01-07:00	2020-05-15T22:14:37+00:00	2020-05-21T06:59:59+00:00	-5	zyptfty5hxmrwb4@marketplace.amazon.com	nayazarabili	+1 347-448-3190 ext. 37296	ABM010	Arabella Bouquets | Fields of The World Bouquet of Fresh Cut Flowers in a Free Designer Glass Vase	1	0	1	Expedited	Ahmad al Zarabili	2 JENNIFER WAY			FAIRFIELD	NJ	07004-2215	US		Happy eid my sweetheart  Love you both From Ahmad	false		
113-5408543-6691404	43172898343258	2020-05-15T21:49:14+00:00	2020-05-15T14:49:14-07:00	2020-05-15T22:16:08+00:00	2020-05-21T06:59:59+00:00	-5	rn4h36yhc4p6xjg@marketplace.amazon.com	jane gallagher	+1 210-728-4548 ext. 32866	ABR0022	Arabella Farm Direct Bouquet of 12 Fresh Cut Pink Roses with a Free Glass Vase	1	0	1	Expedited	Lexi Cook	369 MORRILL ST			GILFORD	NH	03249-6421	US		Hope you had a great birthday  Love Grandma Jane and Auntie From jane gallagher	false		
112-9677651-2838633	28597546855210	2020-05-15T21:51:59+00:00	2020-05-15T14:51:59-07:00	2020-05-15T22:20:39+00:00	2020-05-21T06:59:59+00:00	-5	wmsmy1cjhqpjncb@marketplace.amazon.com	jessica Simmons	+1 210-728-4548 ext. 15491	ABR0066	Arabella Bouquets | 12 Stems of Fresh Cut White Roses in a Free Designer Glass Vase	1	0	1	Expedited	The Brisbin Family	528 FROST RD			SANDIA PARK	NM	87047-9430	US		Jack, Lulu, and Waldon, We are holding you and our thoughts and prayers. From With much love, Aaron, Jess, and Jacob	false		
111-9795786-5361830	53251308568394	2020-05-15T21:57:19+00:00	2020-05-15T14:57:19-07:00	2020-05-15T22:21:32+00:00	2020-05-21T06:59:59+00:00	-5	8dv6pl133f3x7hc@marketplace.amazon.com	William Dawson	+1 412-532-4665 ext. 42630	ABR0022	Arabella Farm Direct Bouquet of 12 Fresh Cut Pink Roses with a Free Glass Vase	1	0	1	Expedited	Savanna Woodson	1501 Mossy Ridge Circle			Crossroads	Texas	76227	US		Happy Birthday Savanna From &#34;Uncle&#34; Bill	false		
112-8302470-5970645	55419693259882	2020-05-15T22:09:13+00:00	2020-05-15T15:09:13-07:00	2020-05-15T22:37:45+00:00	2020-05-21T06:59:59+00:00	-5	rrwtw24l5mfn778@marketplace.amazon.com	Troy Marchman	+1 347-448-3190 ext. 84758	ABM010	Arabella Bouquets | Fields of The World Bouquet of Fresh Cut Flowers in a Free Designer Glass Vase	1	0	1	Expedited	Marliss Marchman	9803 PEDDLERS WAY			ORLANDO	FL	32817-1827	US			false		
111-1374534-2559406	62382114397330	2020-05-15T22:29:19+00:00	2020-05-15T15:29:19-07:00	2020-05-15T22:59:31+00:00	2020-05-21T06:59:59+00:00	-5	xj37cg2nh92glxh@marketplace.amazon.com	Jeremy	+1 210-728-4548 ext. 46808	ABM010	Arabella Bouquets | Fields of The World Bouquet of Fresh Cut Flowers in a Free Designer Glass Vase	1	0	1	Expedited	Morgan Davis	435 VALLEY VIEW RD			PITTSFIELD	IL	62363-1665	US			false		
113-9576056-3441051	69861650826538	2020-05-15T22:35:34+00:00	2020-05-15T15:35:34-07:00	2020-05-15T23:02:44+00:00	2020-05-21T06:59:59+00:00	-5	lzhnnvdpcdsc51h@marketplace.amazon.com	Jaynalene etessami	+1 347-448-3190 ext. 96100	ABM010	Arabella Bouquets | Fields of The World Bouquet of Fresh Cut Flowers in a Free Designer Glass Vase	1	0	1	Expedited	Lois m willis	GRACE ASSISTED LIVING	250 S ALLUMBAUGH WAY		BOISE	ID	83709-5624	US		Hi Lois, Hope they brighten your day! From Jaynalene an Farshad	false		
112-8768407-9549014	40246711527802	2020-05-15T22:33:18+00:00	2020-05-15T15:33:18-07:00	2020-05-15T23:03:28+00:00	2020-05-21T06:59:59+00:00	-5	06lwmpcqj6gxm9l@marketplace.amazon.com	Zachary Antonelli	+1 314-282-9402 ext. 61150	ABR0033	Arabella Farm Direct Bouquet of 12 Fresh Cut Orange Roses with a Free Glass Vase	1	0	1	Expedited	Zachary Antonelli	15 Country Road 3086	Taylor Oaks Rentals		Oxford	MS	38655	US			false		
114-0983187-9059458	27269778396386	2020-05-15T23:30:53+00:00	2020-05-15T16:30:53-07:00	2020-05-15T23:58:22+00:00	2020-05-21T06:59:59+00:00	-5	1nww15qqcz7865p@marketplace.amazon.com	Pamela Santore	+1 210-728-4548 ext. 09731	ABR0022	Arabella Farm Direct Bouquet of 12 Fresh Cut Pink Roses with a Free Glass Vase	1	0	1	Expedited	Eli & Makaila Lewis	17713 CADDY DR			DERWOOD	MD	20855-1003	US		My deepest condolences for your loss. Sending my love to you and your family. From Gio Santore	false		
112-9991926-3685847	30733223152170	2020-05-15T23:31:59+00:00	2020-05-15T16:31:59-07:00	2020-05-15T23:58:29+00:00	2020-05-21T06:59:59+00:00	-5	wf5cqqjmcf9dvbr@marketplace.amazon.com	Victoria Bogdonovich	+1 763-225-9463 ext. 60540	ABM010	Arabella Bouquets | Fields of The World Bouquet of Fresh Cut Flowers in a Free Designer Glass Vase	1	0	1	Expedited	Kendra Taber	N5468 THORNAPPLE RD			LADYSMITH	WI	54848-9571	US		A beautiful day begins with a beautiful mindset. From I can and I will	false		
112-3295344-6850628	29232595131202	2020-05-15T23:33:59+00:00	2020-05-15T16:33:59-07:00	2020-05-16T00:01:39+00:00	2020-05-21T06:59:59+00:00	-5	x10mhb2fpn45y6n@marketplace.amazon.com	Erin McCauley	+1 210-728-4548 ext. 50551	ABM010	Arabella Bouquets | Fields of The World Bouquet of Fresh Cut Flowers in a Free Designer Glass Vase	1	0	1	Expedited	Martin McCauley	295 W CONTINENTAL VISTA PL			GREEN VALLEY	AZ	85614-1454	US		Happy Birthday Mom! Hope you enjoy your flowers! Love,  Pat & Erin	false		
113-5028157-0913806	54577206032826	2020-05-16T00:02:06+00:00	2020-05-15T17:02:06-07:00	2020-05-16T00:28:06+00:00	2020-05-21T06:59:59+00:00	-5	5b5j61gwp72g20y@marketplace.amazon.com	Sally Angell	+1 347-448-3190 ext. 69355	ABR0022	Arabella Farm Direct Bouquet of 12 Fresh Cut Pink Roses with a Free Glass Vase	1	0	1	Expedited	Judith McAllister	210 CUMBERLAND RD			LEMOYNE	PA	17043-1619	US		Happy Birthday Judy. Please raise a glass to you and Fred. Hope you enjoy!    Love, Sally From Sally Angell	false		
113-7621139-9341866	67492925646778	2020-05-16T00:41:52+00:00	2020-05-15T17:41:52-07:00	2020-05-16T00:45:38+00:00	2020-05-21T06:59:59+00:00	-5	kqdd25mc0zsft8j@marketplace.amazon.com	David R Bird	+1 347-448-3190 ext. 64872	ABR0066	Arabella Bouquets | 12 Stems of Fresh Cut White Roses in a Free Designer Glass Vase	1	0	1	Expedited	Lydia Bird	128 HILLSIDE ST APT 2			ROXBURY CROSSING	MA	02120-2973	US		Happy Birthday! Enjoy your special day, I love you♥️ From Mom	false		
114-4553567-3009028	26157094692258	2020-05-16T00:23:33+00:00	2020-05-15T17:23:33-07:00	2020-05-16T00:46:52+00:00	2020-05-21T06:59:59+00:00	-5	qpk58q91f3jszc0@marketplace.amazon.com	Leah Easton	+1 347-448-3190 ext. 93088	ABR0022	Arabella Farm Direct Bouquet of 12 Fresh Cut Pink Roses with a Free Glass Vase	1	0	1	Expedited	Keri Stutesman	2404 MAIA LOOP			SPRINGFIELD	OR	97477-6542	US		Keri,     We are holding you close, and sending you all of our love from Portland! From Love, Leah, Everett, and Ruby Easton	false		
112-7307929-6089046	02059948431402	2020-05-16T00:33:17+00:00	2020-05-15T17:33:17-07:00	2020-05-16T00:53:31+00:00	2020-05-21T06:59:59+00:00	-5	6653st0j9mg284g@marketplace.amazon.com	Joseph Brow	+1 347-448-3190 ext. 75593	ABR0055	Arabella Farm Direct Bouquet of 12 Stems of Fresh Cut Hot Pink Roses in a Free Designer Glass Vase	1	0	1	Expedited	Adreyan Caldeyro	6407 ENGEL RD			RICHMOND	VA	23226-2809	US		Hi lil sexy!!!! I hope you enjoy the random flowers! Wish  I could have given them to you personally but you knw im stuck for now. Stay fine AF mama Enjoy your gift!  Jae	false		
113-8056650-8583438	04785297670442	2020-05-16T00:29:55+00:00	2020-05-15T17:29:55-07:00	2020-05-16T00:55:47+00:00	2020-05-21T06:59:59+00:00	-5	99bth8lgt8r857q@marketplace.amazon.com	JOSE HUMBERTO CONTRERAS CERÓN	+1 314-282-9402 ext. 79696	ABR0022	Arabella Farm Direct Bouquet of 12 Fresh Cut Pink Roses with a Free Glass Vase	1	0	1	Expedited	Alberto Penate	335 BEULAH RD			DRIPPING SPRINGS	TX	78620-3488	US		Feliz cumpleaños tio Beto. Lo quiero y extraño un montón. Espero pase un día maravilloso. Con todo mi amor Joyce.	false		
113-3848030-0922631	33881093334738	2020-05-16T00:28:32+00:00	2020-05-15T17:28:32-07:00	2020-05-16T00:59:10+00:00	2020-05-21T06:59:59+00:00	-5	8460gk9cnbt45df@marketplace.amazon.com	Frank Beck	+1 347-448-3190 ext. 13501	ABR0022	Arabella Farm Direct Bouquet of 12 Fresh Cut Pink Roses with a Free Glass Vase	1	0	1	Expedited	Doris M. Aboltin	13101 DEL MONTE DR APT 279B			SEAL BEACH	CA	90740-4316	US			false		
114-4925675-7465035	20506875202954	2020-05-16T00:35:30+00:00	2020-05-15T17:35:30-07:00	2020-05-16T01:06:06+00:00	2020-05-21T06:59:59+00:00	-5	pbmwvgfmylgx00m@marketplace.amazon.com	Ronald F. Cota	+1 314-282-9402 ext. 63678	ABR001	Arabella Bouquets 12 Stems of Fresh Cut Red Roses in a Free Designer Glass Vase	1	0	1	Expedited	Ronald F. Cota	8400 VAMO RD APT 461			SARASOTA	FL	34231-7872	US			false		
111-5819393-7480210	27872725098234	2020-05-16T00:50:32+00:00	2020-05-15T17:50:32-07:00	2020-05-16T01:19:53+00:00	2020-05-21T06:59:59+00:00	-5	pg107yb0vbyf0bb@marketplace.amazon.com	Ronald Artinger	+1 347-448-3190 ext. 69556	ABM010	Arabella Bouquets | Fields of The World Bouquet of Fresh Cut Flowers in a Free Designer Glass Vase	1	0	1	Expedited	Janice Artinger	1116 FIELDSTONE CIR			OVIEDO	FL	32765-7312	US		Happy Mother’s Day. Love you. From Ron, Liz and Avery	false		
111-8219615-5706631	08165498723010	2020-05-16T00:56:21+00:00	2020-05-15T17:56:21-07:00	2020-05-16T01:23:33+00:00	2020-05-21T06:59:59+00:00	-5	m518sw4qc9drmgl@marketplace.amazon.com	Davide Gerli	+1 314-282-9402 ext. 92442	ABR0055	Arabella Farm Direct Bouquet of 12 Stems of Fresh Cut Hot Pink Roses in a Free Designer Glass Vase	1	0	1	Expedited	Juanita Higuera	21402 DELTA SPRING LN			KATY	TX	77450-6168	US		Cara Juanita, Tanti Auguri! Per un compleanno speciale, in attesa di rivederti presto e festeggiare insieme! Mi manchi Davide	false		
114-8157591-4345003	02977986981826	2020-05-16T01:08:30+00:00	2020-05-15T18:08:30-07:00	2020-05-16T01:38:42+00:00	2020-05-21T06:59:59+00:00	-5	5l50dbzspn7k5q2@marketplace.amazon.com	Joycefeliciano	+1 314-282-9402 ext. 84502	ABM010	Arabella Bouquets | Fields of The World Bouquet of Fresh Cut Flowers in a Free Designer Glass Vase	1	0	1	Expedited	Erin and Jared. Celauro	3330 MIDLAND DR 105			WEST HAVEN	UT	84401-6957	US			false		
111-7989982-4175439	29206152338034	2020-05-16T01:46:13+00:00	2020-05-15T18:46:13-07:00	2020-05-16T02:10:07+00:00	2020-05-21T06:59:59+00:00	-5	fmttcp9bpjg48c9@marketplace.amazon.com	Judy Kennedy	+1 347-448-3190 ext. 56692	ABM0044	Arabella Farm Direct Bouquet of Fresh Cut Blue Hydrangea with a Free Glass Vase	1	0	1	Expedited	Botzler Family	577 GREGORY LN			DEVON	PA	19333-1021	US		Welcome, Ben!!  Love , Uncle Bob and Aunt Judy	false		
112-7740750-5312201	60146138458018	2020-05-16T01:45:17+00:00	2020-05-15T18:45:17-07:00	2020-05-16T02:11:10+00:00	2020-05-21T06:59:59+00:00	-5	vszd0h2ym3th164@marketplace.amazon.com	paula	+1 210-728-4548 ext. 89978	ABR0033	Arabella Farm Direct Bouquet of 12 Fresh Cut Orange Roses with a Free Glass Vase	1	0	1	Expedited	Lee Wierdsma	2707 NOB HILL AVE N			SEATTLE	WA	98109-1747	US		thank you forever From paula	false		
113-7945057-1930617	57199383207498	2020-05-16T01:45:26+00:00	2020-05-15T18:45:26-07:00	2020-05-16T02:12:43+00:00	2020-05-21T06:59:59+00:00	-5	cs24yd13mnkml5h@marketplace.amazon.com	Sam Washburn	+1 210-728-4548 ext. 07368	ABR0022	Arabella Farm Direct Bouquet of 12 Fresh Cut Pink Roses with a Free Glass Vase	1	0	1	Expedited	Tim and Malene Thompson	4391 SUNSET DR			RISING FAWN	GA	30738-5127	US		Thanks so much for the space in your garage all this spring😊 From Sam Washburn	false		
111-8999543-9117819	10371866021602	2020-05-16T01:57:34+00:00	2020-05-15T18:57:34-07:00	2020-05-16T02:26:09+00:00	2020-05-21T06:59:59+00:00	-5	m9pdsbf11tp3x1c@marketplace.amazon.com	Laura Rosenthal	+1 347-448-3190 ext. 45964	ABR0022	Arabella Farm Direct Bouquet of 12 Fresh Cut Pink Roses with a Free Glass Vase	1	0	1	Expedited	Barbara M. Lang	BOOTH MANOR 1421 YALE PL APT 1603			MINNEAPOLIS	MN	55403-2113	US		Wishing you a happy, happy birthday, Barbara!  Love you very much.  Enjoy your special day!  Love, Laura, Mark, & Max From Laura Rosenthal	false		
111-8111245-1100213	48910043973274	2020-05-16T02:00:30+00:00	2020-05-15T19:00:30-07:00	2020-05-16T02:29:10+00:00	2020-05-21T06:59:59+00:00	-5	s33f4tf8q462xgb@marketplace.amazon.com	Willard Predmore	+1 347-448-3190 ext. 54949	ABR0022	Arabella Farm Direct Bouquet of 12 Fresh Cut Pink Roses with a Free Glass Vase	1	0	1	Expedited	Sophie Cowley	3443 GALLATIN RD			TOLEDO	OH	43606-2443	US		Beautiful flowers for my beautiful flower :) I love you!! Congratulations on getting through your first week of work! From Will	false		
113-0979940-5289023	03502705504506	2020-05-16T02:02:16+00:00	2020-05-15T19:02:16-07:00	2020-05-16T02:31:02+00:00	2020-05-21T06:59:59+00:00	-5	ywbp9ht5rh3g3xw@marketplace.amazon.com	Arfak	+1 210-728-4548 ext. 09072	ABR0022	Arabella Farm Direct Bouquet of 12 Fresh Cut Pink Roses with a Free Glass Vase	1	0	1	Expedited	Jack Morrow	100 WESTBRIAR BLVD			NEWBURGH	IN	47630-2430	US		Dear Niki,  Love you so much Happy Birthday From Swadhin	false		
114-3230992-3670644	29682839032194	2020-05-16T02:01:23+00:00	2020-05-15T19:01:23-07:00	2020-05-16T02:31:14+00:00	2020-05-21T06:59:59+00:00	-5	xdsmpf6yldfpz2k@marketplace.amazon.com	KIM RUNG	+1 347-448-3190 ext. 84128	ABM010	Arabella Bouquets | Fields of The World Bouquet of Fresh Cut Flowers in a Free Designer Glass Vase	1	0	1	Expedited	Carol Daulton	7407 Saunderland Road			Columbus	OH	43235	US		Praying for a speedy recovery ❤️ Kim From KIM RUNG	false		
112-8111935-5315438	43029199922546	2020-05-16T02:05:27+00:00	2020-05-15T19:05:27-07:00	2020-05-16T02:35:04+00:00	2020-05-21T06:59:59+00:00	-5	9l25pdzx7gf9jr4@marketplace.amazon.com	Tricia Llewellyn Konan	+1 314-282-9402 ext. 88351	ABR0022	Arabella Farm Direct Bouquet of 12 Fresh Cut Pink Roses with a Free Glass Vase	1	0	1	Expedited	Lindora Llewellyn	432 WATERCREST ST			SEBASTIAN	FL	32958-5549	US		Happy Birthday!!! From Tricia And March	false		
111-4934900-8770606	27998094465890	2020-05-16T02:15:07+00:00	2020-05-15T19:15:07-07:00	2020-05-16T02:45:29+00:00	2020-05-21T06:59:59+00:00	-5	pq6hzwrjry8kvkx@marketplace.amazon.com	ryan easton	+1 210-728-4548 ext. 29743	ABR0022	Arabella Farm Direct Bouquet of 12 Fresh Cut Pink Roses with a Free Glass Vase	1	0	1	Expedited	Tracy Nguyen	2816 ELMHURST CIR			FAIRFIELD	CA	94533-1334	US			false		
111-9735671-0705826	44961631258002	2020-05-16T02:20:31+00:00	2020-05-15T19:20:31-07:00	2020-05-16T02:59:31+00:00	2020-05-21T06:59:59+00:00	-5	q0lzyj2j3shrtsl@marketplace.amazon.com	Breyanna Hanif	+1 314-282-9402 ext. 21715	ABM010	Arabella Bouquets | Fields of The World Bouquet of Fresh Cut Flowers in a Free Designer Glass Vase	1	0	1	Expedited	SHARIEMA HANIFF	175-12 93rd ave			Jamaica	NY	11433	US			false		
114-8097893-4833069	51024760805618	2020-05-16T02:47:27+00:00	2020-05-15T19:47:27-07:00	2020-05-16T03:17:55+00:00	2020-05-21T06:59:59+00:00	-5	399d7j4t2jrx1qg@marketplace.amazon.com	Gilbert	+1 347-448-3190 ext. 27246	ABR001	Arabella Bouquets 12 Stems of Fresh Cut Red Roses in a Free Designer Glass Vase	1	0	1	Expedited	Karen Eileen Swain	360 WOODPOINT AVE HAGERSTOWN MD			HAGERSTOWN	MD	21740-3556	US			false		
113-6198787-5828222	59511592665970	2020-05-16T02:57:14+00:00	2020-05-15T19:57:14-07:00	2020-05-16T03:23:04+00:00	2020-05-21T06:59:59+00:00	-5	vpz7r5cv17rwbkh@marketplace.amazon.com	Chrystel Wasembeck	+1 412-532-4665 ext. 00433	ABR001	Arabella Bouquets 12 Stems of Fresh Cut Red Roses in a Free Designer Glass Vase	1	0	1	Expedited	Rita Gilot	1458 E 52ND ST			BROOKLYN	NY	11234-3206	US			false		
114-7372497-8073069	42038402274130	2020-05-16T03:04:48+00:00	2020-05-15T20:04:48-07:00	2020-05-16T03:33:46+00:00	2020-05-21T06:59:59+00:00	-5	lt95x1flpp850wy@marketplace.amazon.com	Natasha Lekwa	+1 412-532-4665 ext. 25148	ABM010	Arabella Bouquets | Fields of The World Bouquet of Fresh Cut Flowers in a Free Designer Glass Vase	1	0	1	Expedited	Ali Agins	27072 #A Calle Caballero			San Juan Capistrano	CA	92675	US		Happy [belated] Mother’s Day Ali!! Love you and so happy we are blessed to have you in our family. <3 Tasha From Natasha Lekwa	false		
114-2228039-9669819	54991061081522	2020-05-16T03:07:51+00:00	2020-05-15T20:07:51-07:00	2020-05-16T03:34:36+00:00	2020-05-21T06:59:59+00:00	-5	ysd5hx3w95d04xc@marketplace.amazon.com	Erik Kennon	+1 314-282-9402 ext. 83997	ABR0022	Arabella Farm Direct Bouquet of 12 Fresh Cut Pink Roses with a Free Glass Vase	1	0	1	Expedited	Wega Kennon	548 STATE ST			DUPO	IL	62239-1418	US		Happy late Mother's Day to the greatest Mom and Nana ever. We hope your enjoy these roses! We Love you! Love Always - Tyrone, Chrissy, Erik, and Kai. From The Barr and Kennon Family	false		
114-0178073-0018667	12321040965562	2020-05-16T03:18:21+00:00	2020-05-15T20:18:21-07:00	2020-05-16T03:48:23+00:00	2020-05-21T06:59:59+00:00	-5	1t1tsnh5drjxd37@marketplace.amazon.com	Kurt/Taryn	+1 347-448-3190 ext. 69375	ABM010	Arabella Bouquets | Fields of The World Bouquet of Fresh Cut Flowers in a Free Designer Glass Vase	1	0	1	Expedited	Jay Bendes	14805 W 3RD ST			DALEVILLE	IN	47334-9644	US			false		
113-2670815-0757820	51171434290338	2020-05-16T03:41:43+00:00	2020-05-15T20:41:43-07:00	2020-05-16T04:02:35+00:00	2020-05-21T06:59:59+00:00	-5	241zfkgsdypk4t0@marketplace.amazon.com	nancy Bing	+1 314-282-9402 ext. 15844	ABR0022	Arabella Farm Direct Bouquet of 12 Fresh Cut Pink Roses with a Free Glass Vase	1	0	1	Expedited	nancy Bing	709 WINDSOR RD			GLENVIEW	IL	60025-4454	US			false		
113-2977670-1989824	64459825393626	2020-05-16T03:42:56+00:00	2020-05-15T20:42:56-07:00	2020-05-16T04:11:12+00:00	2020-05-21T06:59:59+00:00	-5	mkcvl8mwjlqkwj9@marketplace.amazon.com	Michelle	+1 210-728-4548 ext. 61712	ABR014	Arabella Bouquets 18 Stems of Fresh Cut White Roses in a Free Designer Glass Vase	1	0	1	Expedited	Michelle Chmielowiec	20608 Anndyke Way			Germantown	MD	20874	US		Congrats on graduating you deserve the world! From Michelle	false		
111-5368899-6232212	11757145951202	2020-05-16T04:09:50+00:00	2020-05-15T21:09:50-07:00	2020-05-16T04:39:14+00:00	2020-05-21T06:59:59+00:00	-5	4jdksnglpv8ryy9@marketplace.amazon.com	Tino	+1 314-282-9402 ext. 52847	ABR0066	Arabella Bouquets | 12 Stems of Fresh Cut White Roses in a Free Designer Glass Vase	1	0	1	Expedited	Jacqueline	14932 COLBY PL			FONTANA	CA	92337-3418	US		Enjoy your favorite roses. From Tino	false		
114-9133291-1863422	31825551264082	2020-05-16T04:20:40+00:00	2020-05-15T21:20:40-07:00	2020-05-16T04:46:09+00:00	2020-05-21T06:59:59+00:00	-5	4436bpcmpqj09w5@marketplace.amazon.com	Gabrielle	+1 314-282-9402 ext. 03901	ABR0022	Arabella Farm Direct Bouquet of 12 Fresh Cut Pink Roses with a Free Glass Vase	1	0	1	Expedited	Shenna McNamara	825 DAHLIA ST APT 106			DENVER	CO	80220-4223	US		Congratulations! You are one of the most thoughtful and caring people I know. The world is incredibly lucky to have a dedicated nurse like you. I’m so proud to call you my friend and I love you so much. From Gabrielle	false		
112-1825826-1033048	47656170924962	2020-05-16T04:41:48+00:00	2020-05-15T21:41:48-07:00	2020-05-16T05:10:39+00:00	2020-05-21T06:59:59+00:00	-5	w4f24w8r8hpjg9q@marketplace.amazon.com	Anne Crowbridge	+1 314-282-9402 ext. 88519	ABR0022	Arabella Farm Direct Bouquet of 12 Fresh Cut Pink Roses with a Free Glass Vase	1	0	1	Expedited	Anne Crowbridge	2222 S 62ND ST			WEST ALLIS	WI	53219-2139	US			false		
114-6823365-5075443	60859514836322	2020-05-16T05:12:14+00:00	2020-05-15T22:12:14-07:00	2020-05-16T05:38:38+00:00	2020-05-21T06:59:59+00:00	-5	ykq0cgcm0ychxy1@marketplace.amazon.com	mauro	+1 210-728-4548 ext. 28642	ABR0055	Arabella Farm Direct Bouquet of 12 Stems of Fresh Cut Hot Pink Roses in a Free Designer Glass Vase	1	0	1	Expedited	NANCY MURDOCK	243 BRAZILIAN AVE			PALM BEACH	FL	33480-4620	US			false		
111-0771566-0728241	02408331464602	2020-05-16T05:11:35+00:00	2020-05-15T22:11:35-07:00	2020-05-16T05:51:14+00:00	2020-05-21T06:59:59+00:00	-5	nn3y3ctt8ncrmqx@marketplace.amazon.com	olasunkanmi akadri	+1 347-448-3190 ext. 56300	ABR001	Arabella Bouquets 12 Stems of Fresh Cut Red Roses in a Free Designer Glass Vase	1	0	1	Expedited	Minnie Sparks	7290 STATE HIGHWAY 1496			GRAYSON	KY	41143-7695	US		Hi Minnie, When I wake up every morning, I pinch myself remembering that you're in my life. From Noah Williams	false		
113-4563178-2454623	00130149972938	2020-05-16T05:30:32+00:00	2020-05-15T22:30:32-07:00	2020-05-16T05:56:04+00:00	2020-05-21T06:59:59+00:00	-5	dxn2h4qny68zpj3@marketplace.amazon.com	Patricia E Mora	+1 210-728-4548 ext. 93656	ABR0022	Arabella Farm Direct Bouquet of 12 Fresh Cut Pink Roses with a Free Glass Vase	1	0	1	Expedited	Patricia E Mora	2133 LISCARD RD E JAX			JACKSONVILLE	FL	32246-1743	US			false		
113-2482676-1534600	06488116655362	2020-05-16T05:43:57+00:00	2020-05-15T22:43:57-07:00	2020-05-16T06:14:36+00:00	2020-05-21T06:59:59+00:00	-5	b254p5ps8r2wblg@marketplace.amazon.com	Kayden	+1 314-282-9402 ext. 32121	ABM0044	Arabella Farm Direct Bouquet of Fresh Cut Blue Hydrangea with a Free Glass Vase	1	0	1	Expedited	Bingqiao Chen	1315 N 15TH ST APT 202			PHILADELPHIA	PA	19121-4483	US			false		
114-4189073-6183461	53124821905034	2020-05-16T06:01:57+00:00	2020-05-15T23:01:57-07:00	2020-05-16T06:32:08+00:00	2020-05-21T06:59:59+00:00	-5	sb599mmhhlrb294@marketplace.amazon.com	AdrianN	+1 763-225-9463 ext. 15607	ABR0033	Arabella Farm Direct Bouquet of 12 Fresh Cut Orange Roses with a Free Glass Vase	1	0	1	Expedited	Ellen Nastase	20971 SURGE LN			HUNTINGTON BEACH	CA	92646-6625	US			false		
111-7565409-1064218	00411690098906	2020-05-16T06:04:13+00:00	2020-05-15T23:04:13-07:00	2020-05-16T06:33:40+00:00	2020-05-21T06:59:59+00:00	-5	07hjrvy0v2fcfmt@marketplace.amazon.com	Brandon Cizek	+1 314-282-9402 ext. 71054	ABR0022	Arabella Farm Direct Bouquet of 12 Fresh Cut Pink Roses with a Free Glass Vase	1	0	1	Expedited	Brandon Cizek	114 S MILTON AVE			GLEN ELLYN	ILLINOIS	60137-6321	US			false		
112-1203624-4869868	08719074726522	2020-05-16T06:05:03+00:00	2020-05-15T23:05:03-07:00	2020-05-16T06:35:11+00:00	2020-05-21T06:59:59+00:00	-5	shywxntrkzn67lz@marketplace.amazon.com	wiliam bob	+1 347-448-3190 ext. 08600	ABR0055	Arabella Farm Direct Bouquet of 12 Stems of Fresh Cut Hot Pink Roses in a Free Designer Glass Vase	1	0	1	Expedited	William Z Chen	10199 LOCKWOOD DR			CUPERTINO	CA	95014-2613	US			false		
114-6163197-2200249	36943070362098	2020-05-16T07:04:36+00:00	2020-05-16T00:04:36-07:00	2020-05-16T07:35:11+00:00	2020-05-21T06:59:59+00:00	-5	n2881cd57ltlw9r@marketplace.amazon.com	Robert Young	+1 347-448-3190 ext. 56305	ABR0033	Arabella Farm Direct Bouquet of 12 Fresh Cut Orange Roses with a Free Glass Vase	1	0	1	Expedited	Aiesha Hooper	7408 PRINCE GEORGE RD			PIKESVILLE	MD	21208-5710	US			false		
111-9814047-4385061	44225531953322	2020-05-16T07:38:16+00:00	2020-05-16T00:38:16-07:00	2020-05-16T08:08:47+00:00	2020-05-21T06:59:59+00:00	-5	y3ppw3mb3tdynb2@marketplace.amazon.com	DR. Donna Thomas	+1 347-448-3190 ext. 01139	ABR0055	Arabella Farm Direct Bouquet of 12 Stems of Fresh Cut Hot Pink Roses in a Free Designer Glass Vase	1	0	1	Expedited	Brenda Netz	18204 E 18TH TER N			INDEPENDENCE	MO	64058-1013	US			false		
112-8704027-3551406	44441559637314	2020-05-16T08:48:09+00:00	2020-05-16T01:48:09-07:00	2020-05-16T09:23:56+00:00	2020-05-21T06:59:59+00:00	-5	vkjwt9gh0x36ytv@marketplace.amazon.com	Paul Trotter	+1 347-448-3190 ext. 24266	ABR0055	Arabella Farm Direct Bouquet of 12 Stems of Fresh Cut Hot Pink Roses in a Free Designer Glass Vase	1	0	1	Expedited	Mia Trotter	3212 WINESAP RD			HOPE MILLS	NC	28348-8322	US		To my best friend, the greatest wife, and mother a man could ask for, love you baby.	false		
111-2049836-1090666	64353499463074	2020-05-16T10:15:11+00:00	2020-05-16T03:15:11-07:00	2020-05-16T10:38:18+00:00	2020-05-21T06:59:59+00:00	-5	4mkstf7bnlfqjsx@marketplace.amazon.com	Markus Pauly	+1 314-282-9402 ext. 60736	ABB015	Arabella Farm Direct Bouquet of 24 Fresh Cut Orange Roses with a Free Glass Vase	1	0	1	Expedited	Susan Santos	1629 BRANDI LN			HIXSON	TN	37343-5724	US			false		
113-1984679-1060225	18109746451274	2020-05-16T10:46:58+00:00	2020-05-16T03:46:58-07:00	2020-05-16T11:16:53+00:00	2020-05-21T06:59:59+00:00	-5	jmqymzssk9zg42z@marketplace.amazon.com	Ryan Wardley	+1 347-448-3190 ext. 29795	ABM0033	Arabella Farm Direct Bouquet of Fresh Cut White Hydrangea with a Free Glass Vase	1	0	1	Expedited	Ryan Wardley	499 ALPINE DR			COLFAX	CA	95713-9427	US			false		
111-9639152-9401066	10323127870666	2020-05-16T10:54:41+00:00	2020-05-16T03:54:41-07:00	2020-05-16T11:22:14+00:00	2020-05-21T06:59:59+00:00	-5	7qgsz8g9hmfzsz5@marketplace.amazon.com	jeremy	+1 347-448-3190 ext. 25205	ABR0022	Arabella Farm Direct Bouquet of 12 Fresh Cut Pink Roses with a Free Glass Vase	1	0	1	Expedited	Megan Boemmel	125 BETH ANN LOOP			TAYLOR	TX	76574-4526	US		Enjoy your gift! From jeremy	false		
112-0887993-5249862	60370290633506	2020-05-16T11:21:18+00:00	2020-05-16T04:21:18-07:00	2020-05-16T11:48:58+00:00	2020-05-21T06:59:59+00:00	-5	7kh9w52q26q501t@marketplace.amazon.com	Melissa Burke	+1 412-532-4665 ext. 80340	ABR0022	Arabella Farm Direct Bouquet of 12 Fresh Cut Pink Roses with a Free Glass Vase	1	0	1	Expedited	Melissa Kennedy	2029 ROCK LAKE LOOP			VIRGINIA BEACH	VA	23456-6102	US		Happy Birthday 🎈 I love and miss you❣️❣️❣️🤗🥰😊💗 Love, Mom From Melissa Burke	false		
111-1427501-3648211	49831474150834	2020-05-16T11:35:50+00:00	2020-05-16T04:35:50-07:00	2020-05-16T12:04:05+00:00	2020-05-21T06:59:59+00:00	-5	rltlrghs24zfmcq@marketplace.amazon.com	Payton Mercer	+1 314-282-9402 ext. 20542	ABM010	Arabella Bouquets | Fields of The World Bouquet of Fresh Cut Flowers in a Free Designer Glass Vase	1	0	1	Expedited	Todd and Melissa Mercer	14671 FRONTIER RD			CAMDEN	MI	49232-9743	US		Happy Mother's Day I hope your day goes well and i cant wait to visit! Love you very very much!😀 From Payton Mercer	false		
114-4482128-2938668	58839849994634	2020-05-16T11:52:14+00:00	2020-05-16T04:52:14-07:00	2020-05-16T12:18:39+00:00	2020-05-21T06:59:59+00:00	-5	4pf77t5pdqg78qc@marketplace.amazon.com	Lauret DeWolf	+1 412-532-4665 ext. 63841	ABR004	Arabella Farm Direct Bouquet of 12 Fresh Cut Yellow Roses with a Free Glass Vase	1	0	1	Expedited	Loren Crane	2211 PAYTON			IRVINE	CA	92620-3455	US		Happy Birthday Loren. From Lauret and Tom DeWolf	false		
111-0573433-2603415	12998325606098	2020-05-16T11:58:23+00:00	2020-05-16T04:58:23-07:00	2020-05-16T12:27:26+00:00	2020-05-21T06:59:59+00:00	-5	6m0vzrgr5w35pbq@marketplace.amazon.com	Sherri L. Steward	+1 347-448-3190 ext. 56422	ABR0022	Arabella Farm Direct Bouquet of 12 Fresh Cut Pink Roses with a Free Glass Vase	1	0	1	Expedited	Diane Eicher	28112 GOBY TRL			BONITA SPRINGS	FL	34135-8469	US		Diane, Have a happy birthday!  We love you!  Sherri, Sonny, and "The Gang" From Sherri L. Steward	false		
114-2011025-4048256	03171395301962	2020-05-16T12:03:26+00:00	2020-05-16T05:03:26-07:00	2020-05-16T12:33:57+00:00	2020-05-21T06:59:59+00:00	-5	gj789cyfwtfxlqd@marketplace.amazon.com	Edward T. Maguire	+1 314-282-9402 ext. 35945	ABR001	Arabella Bouquets 12 Stems of Fresh Cut Red Roses in a Free Designer Glass Vase	1	0	1	Expedited	Patricia Maguire / Brightview	1 SYMMES RD	APT 2		ARLINGTON	MA	02474	US			false		
