order-id	order-item-id	purchase-date	payments-date	reporting-date	promise-date	days-past-promise	buyer-email	buyer-name	buyer-phone-number	sku	product-name	quantity-purchased	quantity-shipped	quantity-to-ship	ship-service-level	recipient-name	ship-address-1	ship-address-2	ship-address-3	ship-city	ship-state	ship-postal-code	ship-country	gift-wrap-type	gift-message-text	is-business-order	purchase-order-number	price-designation
113-9907937-7220269	43843922148042	2020-05-15T12:12:36+00:00	2020-05-15T05:12:36-07:00	2020-05-15T12:43:00+00:00	2020-05-21T06:59:59+00:00	-5	8403w1qp7wv91b6@marketplace.amazon.com	Jay Finlayson	+1 314-282-9402 ext. 21461	ABM0044	Arabella Farm Direct Bouquet of Fresh Cut Blue Hydrangea with a Free Glass Vase	1	0	1	Expedited	Jay Finlayson	103 SUNSET CT			SEVERNA PARK	MD	21146-3221	US			false		
112-6707500-3365824	00674171722946	2020-05-15T13:41:07+00:00	2020-05-15T06:41:07-07:00	2020-05-15T14:08:49+00:00	2020-05-21T06:59:59+00:00	-5	rpn7z5z89583fdt@marketplace.amazon.com	maurice wilkins	+1 347-448-3190 ext. 82235	ABR0022	Arabella Farm Direct Bouquet of 12 Fresh Cut Pink Roses with a Free Glass Vase	2	1	1	Expedited	Erin Wilkins	732 KENT WAY			SMYRNA	DE	19977-1300	US			false		
114-7921300-6963418	42767419727674	2020-05-15T14:58:08+00:00	2020-05-15T07:58:08-07:00	2020-05-15T15:25:14+00:00	2020-05-21T06:59:59+00:00	-5	8sv2ztpb8kmng78@marketplace.amazon.com	harry liu	+1 210-728-4548 ext. 02378	ABM0033	Arabella Farm Direct Bouquet of Fresh Cut White Hydrangea with a Free Glass Vase	1	0	1	Expedited	Kimberly	16395 SW DEKALB ST	PORTLAND OREGON 97224 UNITED STATES		PORTLAND	OR	97224-0837	US		Kim, pedro and I would like to extend our condolences to your family. We are very sorry for your loss. But we know that Steve is resting in peace.  We love you, From harry liu and Pedro	false		
111-8867334-5649811	44423538276778	2020-05-15T15:08:46+00:00	2020-05-15T08:08:46-07:00	2020-05-15T15:38:55+00:00	2020-05-21T06:59:59+00:00	-5	0qq6mpw8rvcxjwb@marketplace.amazon.com	charles suritz	+1 210-728-4548 ext. 62105	ABM0033	Arabella Farm Direct Bouquet of Fresh Cut White Hydrangea with a Free Glass Vase	1	0	1	Expedited	Natalie Sayre	29 S WALNUT ST			PALATINE	IL	60067-6039	US			false		
114-9912171-3229022	58696786741386	2020-05-15T17:01:08+00:00	2020-05-15T10:01:08-07:00	2020-05-15T17:30:37+00:00	2020-05-21T06:59:59+00:00	-5	51lv02dj1cg01rb@marketplace.amazon.com	Beth Grew	+1 314-282-9402 ext. 38613	ABM0044	Arabella Farm Direct Bouquet of Fresh Cut Blue Hydrangea with a Free Glass Vase	1	0	1	Expedited	Arminda Ressurreicao	106 PACIFIC ST			NEWARK	NJ	07105-5168	US		Dear Mum,  Happy Birthday!@  Much love Beta	false		
111-4662744-2371401	63986721963186	2020-05-15T17:40:11+00:00	2020-05-15T10:40:11-07:00	2020-05-15T18:19:01+00:00	2020-05-21T06:59:59+00:00	-5	6lwg1d3wmls74v1@marketplace.amazon.com	Kristina P. Cheng	+1 210-728-4548 ext. 26237	ABM010	Arabella Bouquets | Fields of The World Bouquet of Fresh Cut Flowers in a Free Designer Glass Vase	2	1	1	Expedited	Theresa and Sam Shih Family	THE ST REGIS	88 W PACES FERRY RD NW		ATLANTA	GA	30305-1444	US			false		
113-5922331-6506605	54510375074554	2020-05-15T20:47:33+00:00	2020-05-15T13:47:33-07:00	2020-05-15T21:22:26+00:00	2020-05-21T06:59:59+00:00	-5	937hy9827l4rh8p@marketplace.amazon.com	Emily E Stone	+1 763-225-9463 ext. 37188	ABM0044	Arabella Farm Direct Bouquet of Fresh Cut Blue Hydrangea with a Free Glass Vase	1	0	1	Expedited	Emily Elizabeth Stone	24612 S MILLER RD			HARRISONVILLE	MO	64701-1175	US			false		
111-5246565-7713801	29297705301450	2020-05-15T21:09:57+00:00	2020-05-15T14:09:57-07:00	2020-05-15T21:29:15+00:00	2020-05-21T06:59:59+00:00	-5	jwbygpt8yrv3t5f@marketplace.amazon.com	Lynn Kneeland	+1 347-448-3190 ext. 55918	ABM0033	Arabella Farm Direct Bouquet of Fresh Cut White Hydrangea with a Free Glass Vase	1	0	1	Expedited	Diane Slater	19557 DRAKES RD SE			SILVERTON	OR	97381-9414	US		We pray for the sweet kindness of our Father to be beside you today, reminding you of how precious you are to Him and how deeply loved... From Lynn And Karen	false		
112-5071199-4930669	58409677186706	2020-05-15T22:03:57+00:00	2020-05-15T15:03:57-07:00	2020-05-15T22:04:52+00:00	2020-05-21T06:59:59+00:00	-5	cfdbx7wwtlxzgr9@marketplace.amazon.com	Haley Golding	+1 210-728-4548 ext. 07137	ABM0033	Arabella Farm Direct Bouquet of Fresh Cut White Hydrangea with a Free Glass Vase	1	0	1	Expedited	Kay Segal	825 312TH AVE			BURLINGTON	WI	53105-9331	US		Wishing you a speedy recovery. You've got this!! Love, Linda and Rick From Linda Golding	false		
111-7989982-4175439	29206152338034	2020-05-16T01:46:13+00:00	2020-05-15T18:46:13-07:00	2020-05-16T02:10:07+00:00	2020-05-21T06:59:59+00:00	-5	fmttcp9bpjg48c9@marketplace.amazon.com	Judy Kennedy	+1 347-448-3190 ext. 56692	ABM0044	Arabella Farm Direct Bouquet of Fresh Cut Blue Hydrangea with a Free Glass Vase	1	0	1	Expedited	Botzler Family	577 GREGORY LN			DEVON	PA	19333-1021	US		Welcome, Ben!!  Love , Uncle Bob and Aunt Judy	false		
113-2482676-1534600	06488116655362	2020-05-16T05:43:57+00:00	2020-05-15T22:43:57-07:00	2020-05-16T06:14:36+00:00	2020-05-21T06:59:59+00:00	-5	b254p5ps8r2wblg@marketplace.amazon.com	Kayden	+1 314-282-9402 ext. 32121	ABM0044	Arabella Farm Direct Bouquet of Fresh Cut Blue Hydrangea with a Free Glass Vase	1	0	1	Expedited	Bingqiao Chen	1315 N 15TH ST APT 202			PHILADELPHIA	PA	19121-4483	US			false		
113-1984679-1060225	18109746451274	2020-05-16T10:46:58+00:00	2020-05-16T03:46:58-07:00	2020-05-16T11:16:53+00:00	2020-05-21T06:59:59+00:00	-5	jmqymzssk9zg42z@marketplace.amazon.com	Ryan Wardley	+1 347-448-3190 ext. 29795	ABM0033	Arabella Farm Direct Bouquet of Fresh Cut White Hydrangea with a Free Glass Vase	1	0	1	Expedited	Ryan Wardley	499 ALPINE DR			COLFAX	CA	95713-9427	US			false		
111-9639152-9401066	10323127870666	2020-05-16T10:54:41+00:00	2020-05-16T03:54:41-07:00	2020-05-16T11:22:14+00:00	2020-05-21T06:59:59+00:00	-5	7qgsz8g9hmfzsz5@marketplace.amazon.com	jeremy	+1 347-448-3190 ext. 25205	ABR0022	Arabella Farm Direct Bouquet of 12 Fresh Cut Pink Roses with a Free Glass Vase	1	0	1	Expedited	Megan Boemmel	125 BETH ANN LOOP			TAYLOR	TX	76574-4526	US		Enjoy your gift! From jeremy	false		
112-0887993-5249862	60370290633506	2020-05-16T11:21:18+00:00	2020-05-16T04:21:18-07:00	2020-05-16T11:48:58+00:00	2020-05-21T06:59:59+00:00	-5	7kh9w52q26q501t@marketplace.amazon.com	Melissa Burke	+1 412-532-4665 ext. 80340	ABR0022	Arabella Farm Direct Bouquet of 12 Fresh Cut Pink Roses with a Free Glass Vase	1	0	1	Expedited	Melissa Kennedy	2029 ROCK LAKE LOOP			VIRGINIA BEACH	VA	23456-6102	US		Happy Birthday 🎈 I love and miss you❣️❣️❣️🤗🥰😊💗 Love, Mom From Melissa Burke	false		
111-1427501-3648211	49831474150834	2020-05-16T11:35:50+00:00	2020-05-16T04:35:50-07:00	2020-05-16T12:04:05+00:00	2020-05-21T06:59:59+00:00	-5	rltlrghs24zfmcq@marketplace.amazon.com	Payton Mercer	+1 314-282-9402 ext. 20542	ABM010	Arabella Bouquets | Fields of The World Bouquet of Fresh Cut Flowers in a Free Designer Glass Vase	1	0	1	Expedited	Todd and Melissa Mercer	14671 FRONTIER RD			CAMDEN	MI	49232-9743	US		Happy Mother's Day I hope your day goes well and i cant wait to visit! Love you very very much!😀 From Payton Mercer	false		
114-4482128-2938668	58839849994634	2020-05-16T11:52:14+00:00	2020-05-16T04:52:14-07:00	2020-05-16T12:18:39+00:00	2020-05-21T06:59:59+00:00	-5	4pf77t5pdqg78qc@marketplace.amazon.com	Lauret DeWolf	+1 412-532-4665 ext. 63841	ABR004	Arabella Farm Direct Bouquet of 12 Fresh Cut Yellow Roses with a Free Glass Vase	1	0	1	Expedited	Loren Crane	2211 PAYTON			IRVINE	CA	92620-3455	US		Happy Birthday Loren. From Lauret and Tom DeWolf	false		
111-0573433-2603415	12998325606098	2020-05-16T11:58:23+00:00	2020-05-16T04:58:23-07:00	2020-05-16T12:27:26+00:00	2020-05-21T06:59:59+00:00	-5	6m0vzrgr5w35pbq@marketplace.amazon.com	Sherri L. Steward	+1 347-448-3190 ext. 56422	ABR0022	Arabella Farm Direct Bouquet of 12 Fresh Cut Pink Roses with a Free Glass Vase	1	0	1	Expedited	Diane Eicher	28112 GOBY TRL			BONITA SPRINGS	FL	34135-8469	US		Diane, Have a happy birthday!  We love you!  Sherri, Sonny, and "The Gang" From Sherri L. Steward	false		
114-2011025-4048256	03171395301962	2020-05-16T12:03:26+00:00	2020-05-16T05:03:26-07:00	2020-05-16T12:33:57+00:00	2020-05-21T06:59:59+00:00	-5	gj789cyfwtfxlqd@marketplace.amazon.com	Edward T. Maguire	+1 314-282-9402 ext. 35945	ABR001	Arabella Bouquets 12 Stems of Fresh Cut Red Roses in a Free Designer Glass Vase	1	0	1	Expedited	Patricia Maguire / Brightview	1 SYMMES RD	APT 2		ARLINGTON	MA	02474	US			false		
111-0892596-2190666	46221929026610	2020-05-16T13:23:28+00:00	2020-05-16T06:23:28-07:00	2020-05-16T13:24:24+00:00	2020-05-21T06:59:59+00:00	-5	vyfvx6k6t18kt13@marketplace.amazon.com	James Walter	+1 347-448-3190 ext. 76505	ABR0055	Arabella Farm Direct Bouquet of 12 Stems of Fresh Cut Hot Pink Roses in a Free Designer Glass Vase	1	0	1	Expedited	Lisa b	453 NEWELL RD	FAYETTE CITY PA 15438		FAYETTE CITY	PA	15438-1157	US			false		
114-6676082-9641838	62746583267122	2020-05-16T13:08:27+00:00	2020-05-16T06:08:27-07:00	2020-05-16T13:34:54+00:00	2020-05-21T06:59:59+00:00	-5	8pn1mzrxm7my6xr@marketplace.amazon.com	Frederik Nielsen	004526326181	ABR0022	Arabella Farm Direct Bouquet of 12 Fresh Cut Pink Roses with a Free Glass Vase	1	0	1	Expedited	Rali Sloan	6536 BEULAH HILL CHURCH RD			WEST END	NC	27376-9164	US		Hej min skat,  Jeg elsker dig, og jeg savner dig <3 I think about you all the the time and I cannot wait to be with you and hug you again when possible. See you soon  Rgrds Freddy boi	false		
114-8653423-8627407	49820179806234	2020-05-16T13:49:20+00:00	2020-05-16T06:49:20-07:00	2020-05-16T14:05:36+00:00	2020-05-21T06:59:59+00:00	-5	8vr9857zy6b542l@marketplace.amazon.com	Pedro Mansouri	+1 412-532-4665 ext. 45186	ABR0022	Arabella Farm Direct Bouquet of 12 Fresh Cut Pink Roses with a Free Glass Vase	1	0	1	Expedited	Mirabelle Nehneh	307 HESTON AVE			RUSHVILLE	NE	69360-1000	US		Love you my Bella! From Mona	false		
113-0133567-4879414	09656621349906	2020-05-16T13:42:52+00:00	2020-05-16T06:42:52-07:00	2020-05-16T14:11:01+00:00	2020-05-21T06:59:59+00:00	-5	sj6j43k5j7xbbj3@marketplace.amazon.com	Holly Harris	+1 314-282-9402 ext. 24302	ABR0022	Arabella Farm Direct Bouquet of 12 Fresh Cut Pink Roses with a Free Glass Vase	1	0	1	Expedited	Peggy Sturman	4715 E TIMBERLINE RD			GILBERT	AZ	85297-9736	US		Happy Retirement!!! Wish we were there to celebrate with you! We love you! From Holly and Craig	false		
114-8146855-5134657	35843624888914	2020-05-16T14:05:52+00:00	2020-05-16T07:05:52-07:00	2020-05-16T14:31:40+00:00	2020-05-21T06:59:59+00:00	-5	yyn10r4fps0p4cj@marketplace.amazon.com	Kathleen Kabir	+1 412-532-4665 ext. 19908	ABR0022	Arabella Farm Direct Bouquet of 12 Fresh Cut Pink Roses with a Free Glass Vase	1	0	1	Expedited	Alice Uhly	1020 W VINE ST			PRINCETON	IN	47670-1164	US		Happy 100th Birthday Aunt Alice!!!! Love, Homayoun, Kathleen, Patrick & Meghan From Kathleen Kabir	false		
111-8309969-4106658	14266788763866	2020-05-16T14:20:22+00:00	2020-05-16T07:20:22-07:00	2020-05-16T14:43:47+00:00	2020-05-21T06:59:59+00:00	-5	k2mfw64tbdntm6k@marketplace.amazon.com	Kelly DeMarco	+1 210-728-4548 ext. 54872	ABM019	Arabella Bouquets | The Desert Sun Bouquet in a Free Designer Glass Vase	1	0	1	Expedited	Douglas Oratz	2487 ATCO AVE			ATCO	NJ	08004-1134	US		D, I love you more than you will ever know! Xoxoxoxoxoxoxoxoxoxoxo’s to the best daddy grandpa! From K AKA Dreamy/Sheena	false		
112-4320439-8638624	09781485461458	2020-05-16T14:19:29+00:00	2020-05-16T07:19:29-07:00	2020-05-16T14:49:15+00:00	2020-05-21T06:59:59+00:00	-5	34kndr1k97gdz71@marketplace.amazon.com	Sandra Simpson	+1 347-448-3190 ext. 94972	ABR0022	Arabella Farm Direct Bouquet of 12 Fresh Cut Pink Roses with a Free Glass Vase	1	0	1	Expedited	Mrs. Pamela Loftus	3 OAKWOOD PL			VOORHEES	NEW JERSEY	08043-3925	US			false		
114-6668268-2500229	04080483484754	2020-05-16T14:31:47+00:00	2020-05-16T07:31:47-07:00	2020-05-16T15:00:21+00:00	2020-05-21T06:59:59+00:00	-5	ty76p32ygm999p8@marketplace.amazon.com	suzanne garliepp	+1 347-448-3190 ext. 87050	ABM0033	Arabella Farm Direct Bouquet of Fresh Cut White Hydrangea with a Free Glass Vase	1	0	1	Expedited	Robin Fortelny	5675 VIA DEL COYOTE			YORBA LINDA	CA	92887-3542	US		Happy birthday, love you From suzanne garliepp	false		
113-6920514-3147414	29602070515090	2020-05-16T14:37:58+00:00	2020-05-16T07:37:58-07:00	2020-05-16T15:04:11+00:00	2020-05-21T06:59:59+00:00	-5	c80t496nrr9054h@marketplace.amazon.com	Catherine M Semancik	+1 347-448-3190 ext. 23472	ABR0022	Arabella Farm Direct Bouquet of 12 Fresh Cut Pink Roses with a Free Glass Vase	1	0	1	Expedited	Theresa Schaub	6010 BONANZA DR			STEVENSVILLE	MI	49127-9431	US		Thank you for being an amazing mom and grandmother to our boys! We love you so much! From Catherine M Semancik	false		
112-1107610-8754601	38176781569418	2020-05-16T14:35:46+00:00	2020-05-16T07:35:46-07:00	2020-05-16T15:05:59+00:00	2020-05-21T06:59:59+00:00	-5	4ngbjhc5mkqn5t0@marketplace.amazon.com	Chad smith	+1 210-728-4548 ext. 73616	ABM010	Arabella Bouquets | Fields of The World Bouquet of Fresh Cut Flowers in a Free Designer Glass Vase	1	0	1	Expedited	Nicole Russell	2030 EBINPORT RD	ROCK HILL SC 29732		ROCK HILL	SC	29732-1291	US			false		
114-6880623-9537819	34538040286466	2020-05-16T14:43:00+00:00	2020-05-16T07:43:00-07:00	2020-05-16T15:13:13+00:00	2020-05-19T06:59:59+00:00	-3	62dx905rqf53909@marketplace.amazon.com	Richard angelo	+1 347-448-3190 ext. 42063	ABR001	Arabella Bouquets 12 Stems of Fresh Cut Red Roses in a Free Designer Glass Vase	1	0	1	SecondDay	Sherry Carone	384 PARDEEVILLE RD			COLD BROOK	NY	13324-2733	US			false		
111-9329921-0242631	39528382332538	2020-05-16T14:50:56+00:00	2020-05-16T07:50:56-07:00	2020-05-16T15:20:07+00:00	2020-05-19T06:59:59+00:00	-3	q3tx5x3m9n1vqzv@marketplace.amazon.com	Don Middleton	+1 314-282-9402 ext. 65678	ABR001	Arabella Bouquets 12 Stems of Fresh Cut Red Roses in a Free Designer Glass Vase	1	0	1	SecondDay	Don Middleton	6160 WHIRLWIND DR			COLORADO SPRINGS	CO	80923-7564	US		Thanks for being the wonderful mother that you are! We love you! From Your Colorado family	false		
114-8888210-4491408	17187869996314	2020-05-16T14:55:34+00:00	2020-05-16T07:55:34-07:00	2020-05-16T15:21:47+00:00	2020-05-21T06:59:59+00:00	-5	zr8v0rbbvmydvjk@marketplace.amazon.com	nl baskin	+1 210-728-4548 ext. 09056	ABR0022	Arabella Farm Direct Bouquet of 12 Fresh Cut Pink Roses with a Free Glass Vase	1	0	1	Expedited	norman baskin	8242 DUOMO CIR			BOYNTON BEACH	FL	33472-7129	US		Happy Birthday Sweetheart	false		
111-0239495-4389033	67599799620202	2020-05-16T14:54:00+00:00	2020-05-16T07:54:00-07:00	2020-05-16T15:24:17+00:00	2020-05-19T06:59:59+00:00	-3	q3tx5x3m9n1vqzv@marketplace.amazon.com	Don Middleton	+1 210-728-4548 ext. 87204	ABR001	Arabella Bouquets 12 Stems of Fresh Cut Red Roses in a Free Designer Glass Vase	1	0	1	SecondDay	Ilene Middleton	401 S LAFAYETTE ST			ALBION	IN	46701-1611	US			false		
111-2993716-3289807	15996041718930	2020-05-16T15:14:30+00:00	2020-05-16T08:14:30-07:00	2020-05-16T15:39:45+00:00	2020-05-21T06:59:59+00:00	-5	56xbhdfb3qrh3s6@marketplace.amazon.com	Antoinette Burton	+1 347-448-3190 ext. 51691	ABR0022	Arabella Farm Direct Bouquet of 12 Fresh Cut Pink Roses with a Free Glass Vase	1	0	1	Expedited	Jenny Davis	1601 S HILLCREST ST			URBANA	IL	61801-5005	US		Tenure! Promotion! so happy for you ... lucky for us ... especially for me :) love Antoinette	false		
111-2162076-6582637	32184563960186	2020-05-16T15:31:27+00:00	2020-05-16T08:31:27-07:00	2020-05-16T16:02:03+00:00	2020-05-21T06:59:59+00:00	-5	4573m4y2wf6rb6t@marketplace.amazon.com	MD Heli	+1 210-728-4548 ext. 75903	ABM0033	Arabella Farm Direct Bouquet of Fresh Cut White Hydrangea with a Free Glass Vase	1	0	1	Expedited	Healy Keenan	231 Ridgeland Drive			Drummonds	Tennessee	38023	US			false		
114-8727453-1474669	35243489956394	2020-05-16T15:36:58+00:00	2020-05-16T08:36:58-07:00	2020-05-16T16:07:36+00:00	2020-05-21T06:59:59+00:00	-5	vv7q7106w54mh72@marketplace.amazon.com	Kyle	+1 347-448-3190 ext. 06025	ABM010	Arabella Bouquets | Fields of The World Bouquet of Fresh Cut Flowers in a Free Designer Glass Vase	1	0	1	Expedited	Kyle Boss	5443 BARTON AVE			LOS ANGELES	CA	90038-3203	US			false		
113-8102212-9733860	05326982769090	2020-05-16T16:14:15+00:00	2020-05-16T09:14:15-07:00	2020-05-16T16:15:23+00:00	2020-05-21T06:59:59+00:00	-5	hrs3214khwl15hv@marketplace.amazon.com	Stephanie M Hougaard	+1 347-448-3190 ext. 43677	ABM0033	Arabella Farm Direct Bouquet of Fresh Cut White Hydrangea with a Free Glass Vase	1	0	1	Expedited	Andrea Woodhouse	2894 MELANIE LN			OAKTON	VA	22124-1809	US		Dear Andrea. Sending you SO much love and gratitude for the efforts you made on our behalf. You are a top notch agent and friend and I appreciate you more than you can know. Looking forward to spending more time together soon. Love. Steph Hougaard	false		
113-6033233-9977035	63054610925050	2020-05-16T15:47:58+00:00	2020-05-16T08:47:58-07:00	2020-05-16T16:15:38+00:00	2020-05-21T06:59:59+00:00	-5	33yck3jk0234wz9@marketplace.amazon.com	Connie J Marsh	+1 210-728-4548 ext. 51242	ABR0022	Arabella Farm Direct Bouquet of 12 Fresh Cut Pink Roses with a Free Glass Vase	1	0	1	Expedited	NICK AND ANN ORTENZI	3510 E Hampton Ave 122			MESA	AZ	85204	US		Get well soon my friend!   Love and hugs, Connie From Connie J Marsh	false		
111-9369300-1312213	38924419156618	2020-05-16T16:14:28+00:00	2020-05-16T09:14:28-07:00	2020-05-16T16:25:30+00:00	2020-05-19T06:59:59+00:00	-3	vy3pcn91pt8sx9t@marketplace.amazon.com	Ruth and Jack Wilson	+1 347-448-3190 ext. 35254	ABR0022	Arabella Farm Direct Bouquet of 12 Fresh Cut Pink Roses with a Free Glass Vase	1	0	1	SecondDay	Dawn King	800 oak Brook Blvd			Sumter	SC	29150	US		Enjoy your gift! Looking great at 60. God bless you and keep you. From ❤️ Mom and Dad	false		
112-2034310-4128249	14427367577066	2020-05-16T15:56:04+00:00	2020-05-16T08:56:04-07:00	2020-05-16T16:26:33+00:00	2020-05-19T06:59:59+00:00	-3	851k5gv1plh6111@marketplace.amazon.com	William Buccheri	+1 314-282-9402 ext. 94644	ABR001	Arabella Bouquets 12 Stems of Fresh Cut Red Roses in a Free Designer Glass Vase	1	0	1	SecondDay	William Buccheri	39 ACKERLY LN			RONKONKOMA	NY	11779-4545	US			false		
111-8495769-7496215	52012008795306	2020-05-16T16:03:53+00:00	2020-05-16T09:03:53-07:00	2020-05-16T16:28:43+00:00	2020-05-19T06:59:59+00:00	-3	q0l88szf7y2rnmx@marketplace.amazon.com	Kevin King	+1 412-532-4665 ext. 82747	ABM010	Arabella Bouquets | Fields of The World Bouquet of Fresh Cut Flowers in a Free Designer Glass Vase	1	0	1	SecondDay	Jessica Pegram	251 MCFALLS ST			FORT BENNING	GA	31905-7609	US		Congratulations!!!!! From The Kings	false		
114-8546204-4706608	23210007283378	2020-05-16T15:59:45+00:00	2020-05-16T08:59:45-07:00	2020-05-16T16:29:15+00:00	2020-05-19T06:59:59+00:00	-3	j942mnwvgshg0j4@marketplace.amazon.com	shawn bailey	+1 412-532-4665 ext. 22426	ABR0022	Arabella Farm Direct Bouquet of 12 Fresh Cut Pink Roses with a Free Glass Vase	1	0	1	SecondDay	Alexis Harris	415 AVALON FOREST DR			LAWRENCEVILLE	GA	30044-7800	US		Happy Birthday! Love Prices’s ❤️ From shawn bailey	false		
111-9553808-5186645	39093643795402	2020-05-16T16:03:44+00:00	2020-05-16T09:03:44-07:00	2020-05-16T16:32:29+00:00	2020-05-19T06:59:59+00:00	-3	ksv24fnkbslsvzv@marketplace.amazon.com	arline wasserman	+1 210-728-4548 ext. 99048	ABR0055	Arabella Farm Direct Bouquet of 12 Stems of Fresh Cut Hot Pink Roses in a Free Designer Glass Vase	1	0	1	SecondDay	MANDY FARRICKER	1050 STATE ST APT 527			NEW HAVEN	CT	06511-2778	US		Hi MANDY, Hi JACK, Enjoy the cheer that flowers bring! Love,  Mom	false		
114-5398824-3438610	01933305075594	2020-05-16T16:06:44+00:00	2020-05-16T09:06:44-07:00	2020-05-16T16:34:58+00:00	2020-05-19T06:59:59+00:00	-3	7ksdvvp463lg9j3@marketplace.amazon.com	James Flanagan	+1 347-448-3190 ext. 52349	ABR0055	Arabella Farm Direct Bouquet of 12 Stems of Fresh Cut Hot Pink Roses in a Free Designer Glass Vase	1	0	1	SecondDay	James J Flanagan	10618 N 8TH ST			PHOENIX	AZ	85020-5814	US			false		
112-8773274-0591462	53509428880194	2020-05-16T16:14:57+00:00	2020-05-16T09:14:57-07:00	2020-05-16T16:44:49+00:00	2020-05-19T06:59:59+00:00	-3	9m54s2b5b27wd59@marketplace.amazon.com	Mariya Denezhko	+1 763-225-9463 ext. 22343	ABR0055	Arabella Farm Direct Bouquet of 12 Stems of Fresh Cut Hot Pink Roses in a Free Designer Glass Vase	1	0	1	SecondDay	Tanya Katarkov	8009 WATERFORD LAKES DR APT 2138			CHARLOTTE	NC	28210-9474	US			false		
112-5396882-5314607	02409659649962	2020-05-16T16:25:46+00:00	2020-05-16T09:25:46-07:00	2020-05-16T16:52:58+00:00	2020-05-19T06:59:59+00:00	-3	tnrc726m3bbmnv5@marketplace.amazon.com	Brandon Elder	+1 347-448-3190 ext. 20110	ABM010	Arabella Bouquets | Fields of The World Bouquet of Fresh Cut Flowers in a Free Designer Glass Vase	1	0	1	SecondDay	Michelle Elder	907 FALLSGROVE WAY			VACAVILLE	CA	95687-7887	US		Happy Birthday Mom. I love you very much! From Brandon	false		
112-3203267-4230655	15831121320346	2020-05-16T16:24:23+00:00	2020-05-16T09:24:23-07:00	2020-05-16T16:53:16+00:00	2020-05-19T06:59:59+00:00	-3	zklbbylwnwc78kf@marketplace.amazon.com	John P McVey	+1 347-448-3190 ext. 01747	ABR0022	Arabella Farm Direct Bouquet of 12 Fresh Cut Pink Roses with a Free Glass Vase	1	0	1	SecondDay	Colleen McVey	726 SALEM RD			UNIONDALE	NY	11553-1933	US			false		
111-3427675-0696204	45307364209402	2020-05-16T16:39:57+00:00	2020-05-16T09:39:57-07:00	2020-05-16T17:03:24+00:00	2020-05-19T06:59:59+00:00	-3	7nmt79npkql8068@marketplace.amazon.com	gailyn spence	+1 412-532-4665 ext. 10655	ABR013	Arabella Farm Direct Bouquet of 18 Fresh Cut Yellow Roses with a Free Glass Vase	1	0	1	SecondDay	NETTIE LEE	14123 S HILLFORD AVE			COMPTON	CA	90222-3617	US		HAPPY BIRTHDAY AUNT NETTIE, LOVE YOU TO PIECES. HAVE A WONDERFUL BLESSED BIRTHDAY Love your niece, Gailyn	false		
113-8052979-3073834	41009930638594	2020-05-16T16:35:51+00:00	2020-05-16T09:35:51-07:00	2020-05-16T17:03:48+00:00	2020-05-19T06:59:59+00:00	-3	hrs3214khwl15hv@marketplace.amazon.com	Stephanie M Hougaard	+1 347-448-3190 ext. 30209	ABM0033	Arabella Farm Direct Bouquet of Fresh Cut White Hydrangea with a Free Glass Vase	1	0	1	SecondDay	Rebecca Rushforth	1003 PICKETT PL SW			VIENNA	VA	22180-6472	US		Dear Rebecca. Sending you SO much love and gratitude for the efforts you made on our behalf. You are a top notch agent and friend and I appreciate you more than you can know. Looking forward to seeing you soon. Love, Steph	false		
111-5701114-0665008	45297951578114	2020-05-16T16:43:36+00:00	2020-05-16T09:43:36-07:00	2020-05-16T17:10:18+00:00	2020-05-19T06:59:59+00:00	-3	2l2fl1wlrhzn18l@marketplace.amazon.com	Bertrand	+1 347-448-3190 ext. 51362	ABR014	Arabella Bouquets 18 Stems of Fresh Cut White Roses in a Free Designer Glass Vase	2	0	2	SecondDay	Francisco Freire	10201 COLLINS AVE OCEANA	UNIT 2106		BAL HARBOUR	FL	33154-1694	US			false		
113-9990931-0107401	64652159709186	2020-05-16T16:57:44+00:00	2020-05-16T09:57:44-07:00	2020-05-16T17:18:31+00:00	2020-05-19T06:59:59+00:00	-3	4rhlczmxbbfw0gb@marketplace.amazon.com	Jean Shanahan	+1 347-448-3190 ext. 03770	ABR0022	Arabella Farm Direct Bouquet of 12 Fresh Cut Pink Roses with a Free Glass Vase	1	0	1	SecondDay	Lori Lorraine	306 N WAYNE AVE			WAYNE	PA	19087-3256	US			false		
111-6706750-8955422	55838599709210	2020-05-16T16:52:39+00:00	2020-05-16T09:52:39-07:00	2020-05-16T17:21:53+00:00	2020-05-19T06:59:59+00:00	-3	js8k5g5jwqv5qlg@marketplace.amazon.com	Heather Hardcastle	+1 210-728-4548 ext. 94092	ABM010	Arabella Bouquets | Fields of The World Bouquet of Fresh Cut Flowers in a Free Designer Glass Vase	1	0	1	SecondDay	Becky Hardcastle	7779 COUNTY ROAD 15			WHEELER	TX	79096-7625	US		Happy Birthday! From Marcus, Heather, Justin, Houston, and Sierra	false		
112-3788168-2634636	59729113083738	2020-05-16T16:57:57+00:00	2020-05-16T09:57:57-07:00	2020-05-16T17:22:49+00:00	2020-05-19T06:59:59+00:00	-3	ntbbjyhqgzgyhnd@marketplace.amazon.com	Rosemary Keibel	+1 347-448-3190 ext. 72457	ABR0022	Arabella Farm Direct Bouquet of 12 Fresh Cut Pink Roses with a Free Glass Vase	1	0	1	SecondDay	Mrs. Diana Mullins	222 WALNUT HILL DR			RICHMOND	KY	40475-3621	US		To our dear munchkin, Dad and I love you so very, very much. Wishing you happiness, joys, and good health. Hugs and Kisses to our dear sweetheart,  Mama and Daddy	false		
112-5559913-3645032	63199523021794	2020-05-16T17:04:58+00:00	2020-05-16T10:04:58-07:00	2020-05-16T17:33:18+00:00	2020-05-19T06:59:59+00:00	-3	pr5m7rxhrwnl1l0@marketplace.amazon.com	Carolyn Reed	+1 314-282-9402 ext. 80324	ABR0022	Arabella Farm Direct Bouquet of 12 Fresh Cut Pink Roses with a Free Glass Vase	1	0	1	SecondDay	Cherylyn Klemens	16087 GERANIUM CT			MORENO VALLEY	CA	92551-7293	US		With love and sympathy on the passing of our dad Jim.  I love you. You are the best sister EVER!!! From Carolyn Reed	false		
111-7626827-0914631	57724974796226	2020-05-16T17:10:47+00:00	2020-05-16T10:10:47-07:00	2020-05-16T17:39:58+00:00	2020-05-19T06:59:59+00:00	-3	vzd8ds9qsq3ysw7@marketplace.amazon.com	DeAnna Soccio	+1 347-448-3190 ext. 64898	ABM010	Arabella Bouquets | Fields of The World Bouquet of Fresh Cut Flowers in a Free Designer Glass Vase	1	0	1	SecondDay	Darlene Hughes	22074 DE BERRY ST			GRAND TERRACE	CA	92313-5413	US		Happy Late Mother's Day!  Sorry the other order was cancelled.  Love you,  Tim and DeAnna	false		
112-1709275-4911411	64506854009914	2020-05-16T17:10:07+00:00	2020-05-16T10:10:07-07:00	2020-05-16T17:43:18+00:00	2020-05-19T06:59:59+00:00	-3	xv1xc19wd8198jq@marketplace.amazon.com	王	+1 347-448-3190 ext. 21965	ABR0022	Arabella Farm Direct Bouquet of 12 Fresh Cut Pink Roses with a Free Glass Vase	1	0	1	SecondDay	Peri	THE GREENHOUSE APARTMENTS	150 HUNTINGTON AVE		BOSTON	MA	02115-4808	US		Hey, I just like you, the formal confession . Unfortunately the starting point is also the ending point.  From someone who likes you	false		
113-5943731-8344211	52639430428802	2020-05-16T17:23:14+00:00	2020-05-16T10:23:14-07:00	2020-05-16T17:53:09+00:00	2020-05-19T06:59:59+00:00	-3	rn88rzb1hxlj40y@marketplace.amazon.com	kayla frazier	+1 314-282-9402 ext. 36786	ABR0022	Arabella Farm Direct Bouquet of 12 Fresh Cut Pink Roses with a Free Glass Vase	1	0	1	SecondDay	the Lowe Gang	53 FORT PANIC RD			SANTA ROSA BEACH	FL	32459-3667	US		Enjoy your gift! From kayla frazier	false		
111-9407711-9303461	14226427402826	2020-05-16T17:36:57+00:00	2020-05-16T10:36:57-07:00	2020-05-16T18:00:06+00:00	2020-05-19T06:59:59+00:00	-3	zvhrmjm74xp5gzy@marketplace.amazon.com	debra guillotte	+1 314-282-9402 ext. 49196	ABR0055	Arabella Farm Direct Bouquet of 12 Stems of Fresh Cut Hot Pink Roses in a Free Designer Glass Vase	1	0	1	SecondDay	Laura Hughen	92 PASTO RICO			RANCHO STA MARG	CA	92688-2995	US		Hi Laura, Thinking of you with love and prayers! Love, Harry and Debbie	false		
112-4750367-3064253	69304441124034	2020-05-16T17:33:17+00:00	2020-05-16T10:33:17-07:00	2020-05-16T18:02:55+00:00	2020-05-19T06:59:59+00:00	-3	lj64vbh3yz6vxt0@marketplace.amazon.com	Megan Humble	+1 314-282-9402 ext. 17859	ABR0022	Arabella Farm Direct Bouquet of 12 Fresh Cut Pink Roses with a Free Glass Vase	1	0	1	SecondDay	Erin	CONNORS 17187 CREEKSIDE CIR			MORGAN HILL	CA	95037-4649	US		Erin, Congrats on Director! I’m so happy for you and so proud of you! From Megan Humble	false		
113-4486667-3614605	07269498364138	2020-05-16T17:41:23+00:00	2020-05-16T10:41:23-07:00	2020-05-16T18:10:16+00:00	2020-05-19T06:59:59+00:00	-3	c80t496nrr9054h@marketplace.amazon.com	Catherine M Semancik	+1 347-448-3190 ext. 74814	ABR0022	Arabella Farm Direct Bouquet of 12 Fresh Cut Pink Roses with a Free Glass Vase	1	0	1	SecondDay	Barbara Semancik	962 MAUMEE AVE			MANSFIELD	OH	44906-2909	US		Happy Mother’s Day and Happy Birthday!! From Sean, Catherine and the boys	false		
112-1825795-6961065	55015815386162	2020-05-16T17:40:19+00:00	2020-05-16T10:40:19-07:00	2020-05-16T18:10:45+00:00	2020-05-19T06:59:59+00:00	-3	f6b243m2tmj0z1j@marketplace.amazon.com	wanda wesley	+1 210-728-4548 ext. 40348	ABM010	Arabella Bouquets | Fields of The World Bouquet of Fresh Cut Flowers in a Free Designer Glass Vase	1	0	1	SecondDay	Patricia Mack	404 OLD MILL RD			SAVANNAH	GA	31419-2814	US			false		
113-6546801-2753053	36439868421202	2020-05-16T17:51:08+00:00	2020-05-16T10:51:08-07:00	2020-05-16T18:12:35+00:00	2020-05-19T06:59:59+00:00	-3	9x20g3kz5232pn7@marketplace.amazon.com	Reham Shehata	+1 314-282-9402 ext. 00178	ABR0022	Arabella Farm Direct Bouquet of 12 Fresh Cut Pink Roses with a Free Glass Vase	1	0	1	SecondDay	Lupe Aguayo c/o Reham	2226 274TH CT SE			SAMMAMISH	WA	98075-7941	US		My Dearest Lupita, May Allah make you the strongest and May the time during your treatment fly by InshaAllah. Love you always ❤️ Reham & The Badrans From Reham Shehata	false		
112-1154399-7141044	44730576489434	2020-05-16T18:15:45+00:00	2020-05-16T11:15:45-07:00	2020-05-16T18:16:42+00:00	2020-05-19T06:59:59+00:00	-3	sxjjrrqrv31qnss@marketplace.amazon.com	Dr. Michelle Beltran	+1 347-448-3190 ext. 18689	ABR0022	Arabella Farm Direct Bouquet of 12 Fresh Cut Pink Roses with a Free Glass Vase	1	0	1	SecondDay	Katrina Beltran	836 CAMARITAS CIR SSF			SOUTH SAN FRANCISCO	CA	94080-1119	US		You are beautiful, you are kind, you are strong, and you are fierce.  Katch- you are an amazing mom and cousin.  Love you. -Meesh   Love you -Meesh From Dr. Michelle Beltran	false		
111-7683968-8523446	40553526921546	2020-05-16T17:52:35+00:00	2020-05-16T10:52:35-07:00	2020-05-16T18:22:57+00:00	2020-05-19T06:59:59+00:00	-3	0t26h0d3nk6gwhd@marketplace.amazon.com	Steve Baldwin	+1 412-532-4665 ext. 79217	ABR0022	Arabella Farm Direct Bouquet of 12 Fresh Cut Pink Roses with a Free Glass Vase	1	0	1	SecondDay	David Baldwin	901 ROBINWOOD RD			ABERDEEN	NC	28315-2522	US			false		
114-9677406-4734666	11779326839386	2020-05-16T18:00:12+00:00	2020-05-16T11:00:12-07:00	2020-05-16T18:28:59+00:00	2020-05-19T06:59:59+00:00	-3	72l7s49k4mgppwd@marketplace.amazon.com	Jake	+1 347-448-3190 ext. 97285	ABR0022	Arabella Farm Direct Bouquet of 12 Fresh Cut Pink Roses with a Free Glass Vase	1	0	1	SecondDay	Xun Guo	PST1302-1 1921 W FULTON ST			CHICAGO	IL	60612-2403	US		Zhu Zhu 521 From Gou Gou	false		
112-9044000-8545843	32655905097058	2020-05-16T18:05:04+00:00	2020-05-16T11:05:04-07:00	2020-05-16T18:34:03+00:00	2020-05-19T06:59:59+00:00	-3	cp427jt677nscds@marketplace.amazon.com	Katherine	+1 763-225-9463 ext. 45536	ABR0022	Arabella Farm Direct Bouquet of 12 Fresh Cut Pink Roses with a Free Glass Vase	1	0	1	SecondDay	Karen M Kohler	100 S HAMLIN CT			LONGWOOD	FL	32750-4015	US		Hope your feeling better!! All our live From Kathy & Lou	false		
113-4696135-7697835	31943261572682	2020-05-16T18:11:04+00:00	2020-05-16T11:11:04-07:00	2020-05-16T18:41:19+00:00	2020-05-19T06:59:59+00:00	-3	dp50ghhbmvzw4pl@marketplace.amazon.com	emilia morey	+1 347-448-3190 ext. 04668	ABM010	Arabella Bouquets | Fields of The World Bouquet of Fresh Cut Flowers in a Free Designer Glass Vase	1	0	1	SecondDay	Emily Newton	396 S WHITE HORSE PIKE APT 1218			BERLIN	NJ	08009-1968	US			false		
113-2413662-9356258	34324510342818	2020-05-16T18:14:23+00:00	2020-05-16T11:14:23-07:00	2020-05-16T18:42:33+00:00	2020-05-19T06:59:59+00:00	-3	4wt3krc7hfyh7jt@marketplace.amazon.com	Theresa M. Barash	+1 347-448-3190 ext. 20436	ABM010	Arabella Bouquets | Fields of The World Bouquet of Fresh Cut Flowers in a Free Designer Glass Vase	1	0	1	SecondDay	Jim and Anne Newton	2300 MASONIC WAY APT 235			FOREST GROVE	OR	97116-2037	US		Hi Jim and Anne, Hope this brightens you day...... From Theresa M. Barash	false		
114-1802895-8609012	63081636652034	2020-05-16T18:18:09+00:00	2020-05-16T11:18:09-07:00	2020-05-16T18:44:49+00:00	2020-05-19T06:59:59+00:00	-3	vpb7pfsxz24dcw9@marketplace.amazon.com	Jesse Beach	+1 347-448-3190 ext. 80083	ABR0022	Arabella Farm Direct Bouquet of 12 Fresh Cut Pink Roses with a Free Glass Vase	1	0	1	SecondDay	Mary Ellen Hunt	2804 BETHANY LN			ELLICOTT CITY	MD	21042-2214	US		Happy Birthday Mary Ellen.   I love you with all my heart! Love you always, Sue (Pue) From Jesse Beach	false		
111-4171237-3310609	06740313148850	2020-05-16T18:16:24+00:00	2020-05-16T11:16:24-07:00	2020-05-16T18:46:06+00:00	2020-05-19T06:59:59+00:00	-3	fm1js798pwh5fyg@marketplace.amazon.com	Robert Buell	+1 314-282-9402 ext. 02072	ABR0055	Arabella Farm Direct Bouquet of 12 Stems of Fresh Cut Hot Pink Roses in a Free Designer Glass Vase	1	0	1	SecondDay	Robert Buell	803 NW ALBATROSS DR			GRAIN VALLEY	MO	64029-7335	US			false		
112-4136075-3567407	27589325043106	2020-05-16T18:32:45+00:00	2020-05-16T11:32:45-07:00	2020-05-16T18:59:59+00:00	2020-05-19T06:59:59+00:00	-3	vx608t5td0tgc3c@marketplace.amazon.com	scott koppelman	+1 347-448-3190 ext. 19121	ABM010	Arabella Bouquets | Fields of The World Bouquet of Fresh Cut Flowers in a Free Designer Glass Vase	1	0	1	SecondDay	Lisa M Godt	8 WATERSEDGE WAY			PORT JEFFERSON	NY	11777-1435	US		Feel better Lisa! We know you can’t sit still. Take a step back enjoy life. Take a deep breath and smell the flowers. From SABRINA, SCOTT, JORDAN, MICHELLE, JAKE & VAL❤️	false		
114-7991108-6807416	11990598726138	2020-05-16T18:42:24+00:00	2020-05-16T11:42:24-07:00	2020-05-16T19:08:42+00:00	2020-05-19T06:59:59+00:00	-3	sksxps9fs36n7hn@marketplace.amazon.com	Tia Standard	+1 210-728-4548 ext. 58573	ABM010	Arabella Bouquets | Fields of The World Bouquet of Fresh Cut Flowers in a Free Designer Glass Vase	1	0	1	SecondDay	Majeeda Gathers	402 CANAL CIR			LUMBERTON	NJ	08048-3110	US		Just because we love you!  We wanted you to know it.💜💞💜💞💜 From Tia, Calvin & Justin	false		
111-1281584-1983469	27674943680570	2020-05-16T18:40:48+00:00	2020-05-16T11:40:48-07:00	2020-05-16T19:10:36+00:00	2020-05-19T06:59:59+00:00	-3	64gy7dk4l40gs8q@marketplace.amazon.com	Eugene	+1 347-448-3190 ext. 78165	ABM010	Arabella Bouquets | Fields of The World Bouquet of Fresh Cut Flowers in a Free Designer Glass Vase	1	0	1	SecondDay	JANET Drew	111 FREESIA CT			HOLMDEL	NJ	07733-2912	US		Just because I love you and miss you.  Jaja	false		
113-5011408-6585059	38603227949354	2020-05-16T18:57:53+00:00	2020-05-16T11:57:53-07:00	2020-05-16T19:17:31+00:00	2020-05-19T06:59:59+00:00	-3	71cwgz356gx4s90@marketplace.amazon.com	Michal Zidkyahu	+1 347-448-3190 ext. 94329	ABM010	Arabella Bouquets | Fields of The World Bouquet of Fresh Cut Flowers in a Free Designer Glass Vase	1	0	1	SecondDay	Pressner Daniella	3730 WHITLAND AVE			NASHVILLE	TN	37205-2443	US		To Daniella, All the love in the world Today and every day  From Michal Zidkyahu	false		
111-1236687-0095448	53996003524850	2020-05-16T18:48:13+00:00	2020-05-16T11:48:13-07:00	2020-05-16T19:18:44+00:00	2020-05-19T06:59:59+00:00	-3	tpt2g907frdrhhr@marketplace.amazon.com	Paula	+1 314-282-9402 ext. 70354	ABR0022	Arabella Farm Direct Bouquet of 12 Fresh Cut Pink Roses with a Free Glass Vase	1	0	1	SecondDay	Debi Williams	1132 BULL RUN			RICHARDSON	TX	75080-1403	US			false		
113-4527016-0418640	58239521905866	2020-05-16T19:07:18+00:00	2020-05-16T12:07:18-07:00	2020-05-16T19:37:54+00:00	2020-05-19T06:59:59+00:00	-3	bblj1qtfdj9yn9b@marketplace.amazon.com	Dawn M Steere	+1 347-448-3190 ext. 97622	ABR0022	Arabella Farm Direct Bouquet of 12 Fresh Cut Pink Roses with a Free Glass Vase	1	0	1	SecondDay	Jaune Monroe	1201 WARWICK CT			LAS VEGAS	NV	89110-1043	US			false		
114-7159518-9112220	69332184122002	2020-05-16T19:12:05+00:00	2020-05-16T12:12:05-07:00	2020-05-16T19:42:41+00:00	2020-05-19T06:59:59+00:00	-3	m7hymcl8zrzr1z8@marketplace.amazon.com	Steven	+1 347-448-3190 ext. 11040	ABR0022	Arabella Farm Direct Bouquet of 12 Fresh Cut Pink Roses with a Free Glass Vase	1	0	1	SecondDay	Steven Gleim	3514	Gatetree Rd		JOHNS ISLAND	SC	29455	US			false		
112-0438551-6258662	39945327060258	2020-05-16T19:14:15+00:00	2020-05-16T12:14:15-07:00	2020-05-16T19:44:18+00:00	2020-05-19T06:59:59+00:00	-3	c0p1h9k2wy68m18@marketplace.amazon.com	Constance M. Humbert	+1 763-225-9463 ext. 59888	ABR0022	Arabella Farm Direct Bouquet of 12 Fresh Cut Pink Roses with a Free Glass Vase	1	0	1	SecondDay	Peggy Sweeny	9525 MADORA WAY			SACRAMENTO	CA	95829-9383	US			false		
112-3559494-0448205	34446787592930	2020-05-16T19:23:40+00:00	2020-05-16T12:23:40-07:00	2020-05-16T19:53:15+00:00	2020-05-19T06:59:59+00:00	-3	cxjl4stwlhv7pzj@marketplace.amazon.com	Joan Altschuler	+1 210-728-4548 ext. 57913	ABM010	Arabella Bouquets | Fields of The World Bouquet of Fresh Cut Flowers in a Free Designer Glass Vase	1	0	1	SecondDay	Tracy & Sean Fleischman	22 WHITE OAK CIR			WINGDALE	NY	12594-1354	US			false		
114-8694383-7007454	61396664514994	2020-05-16T19:41:54+00:00	2020-05-16T12:41:54-07:00	2020-05-16T20:10:46+00:00	2020-05-19T06:59:59+00:00	-3	31m160hbwyl6h61@marketplace.amazon.com	nicole wells	+1 314-282-9402 ext. 49518	ABM0044	Arabella Farm Direct Bouquet of Fresh Cut Blue Hydrangea with a Free Glass Vase	1	0	1	SecondDay	camille pare	1440 STONY LN			NORTH KINGSTOWN	RI	02852-2912	US		Happy Mother's Day!  Love,  Hannah Jack Stephen and Nicole  xoxoxo	false		
112-2721719-2888259	61026767544346	2020-05-16T19:45:06+00:00	2020-05-16T12:45:06-07:00	2020-05-16T20:12:58+00:00	2020-05-19T06:59:59+00:00	-3	5y0z86nc3z25fk4@marketplace.amazon.com	Kelly Diaz	+1 347-448-3190 ext. 30441	ABR004	Arabella Farm Direct Bouquet of 12 Fresh Cut Yellow Roses with a Free Glass Vase	1	0	1	SecondDay	Nancy McClure	1220 GARVEY DR			LAKE HAVASU CITY	AZ	86404-2163	US		Enjoy your gift! Thank you for being there for me. You always go beyond for me. My friend My Mom I love you. From Kelly Diaz	false		
114-5340212-6100254	60479145723066	2020-05-16T19:44:55+00:00	2020-05-16T12:44:55-07:00	2020-05-16T20:14:13+00:00	2020-05-19T06:59:59+00:00	-3	rd52l5f58w19vwc@marketplace.amazon.com	Kim Kirby	+1 314-282-9402 ext. 31206	ABR0022	Arabella Farm Direct Bouquet of 12 Fresh Cut Pink Roses with a Free Glass Vase	1	0	1	SecondDay	Marilyn Hardin	1333 OAK FOREST DR			THE VILLAGES	FL	32162-7591	US			false		
111-8886372-2563419	54878580176034	2020-05-16T20:05:26+00:00	2020-05-16T13:05:26-07:00	2020-05-16T20:35:04+00:00	2020-05-19T06:59:59+00:00	-3	ncnqmx9dsqvqtrz@marketplace.amazon.com	George Fossett	+1 412-532-4665 ext. 12763	ABR0055	Arabella Farm Direct Bouquet of 12 Stems of Fresh Cut Hot Pink Roses in a Free Designer Glass Vase	1	0	1	SecondDay	Louisa Fossett	100 JUSTIN DR			SAN FRANCISCO	CA	94112-1127	US		Hope you feel better soon! From George and Bob	false		
111-1578537-3713006	17641363118962	2020-05-14T00:40:29+00:00	2020-05-13T17:40:29-07:00	2020-05-16T20:52:46+00:00	2020-05-21T06:59:59+00:00	-5	88fflz2zf8rd0wd@marketplace.amazon.com	timothy lucas	+1 210-728-4548 ext. 47679	ABR013	Arabella Farm Direct Bouquet of 18 Fresh Cut Yellow Roses with a Free Glass Vase	1	0	1	Expedited	Nancy Zagorac	128 MANCHESTER DR			IRWIN	PA	15642-3213	US		Hi Nancy, Enjoy your gift! From timothy lucas	false		
113-4998349-4027445	41094705947978	2020-05-16T20:44:05+00:00	2020-05-16T13:44:05-07:00	2020-05-16T21:12:32+00:00	2020-05-19T06:59:59+00:00	-3	4ncdjhygzhckps1@marketplace.amazon.com	Nathan Truax	+1 347-448-3190 ext. 34020	ABR0022	Arabella Farm Direct Bouquet of 12 Fresh Cut Pink Roses with a Free Glass Vase	1	0	1	SecondDay	Bob and Brenda Truax	2179 KIRKER PASS RD			CONCORD	CA	94521-1629	US		Wanted to make sure you were back from Texas before these arrived. Happy Mother’s Day! From Nate Ki and Caleb	false		
114-0067204-1714645	67866240464018	2020-05-16T20:48:11+00:00	2020-05-16T13:48:11-07:00	2020-05-16T21:14:52+00:00	2020-05-19T06:59:59+00:00	-3	tl0p08m4qcmt55c@marketplace.amazon.com	Steve Poppe	+1 314-282-9402 ext. 34213	ABR0022	Arabella Farm Direct Bouquet of 12 Fresh Cut Pink Roses with a Free Glass Vase	1	0	1	SecondDay	Mark Sherry Duin	3915 NE LAURELHURST PL			PORTLAND	OR	97232-2656	US		HAPPY BIRTHDAY SHERRY!! Thanks for everything you do for me. Pops From Steve Poppe	false		
114-8747396-1898662	34846449067810	2020-05-16T21:03:12+00:00	2020-05-16T14:03:12-07:00	2020-05-16T21:31:57+00:00	2020-05-19T06:59:59+00:00	-3	y0y2snx2xd8zhty@marketplace.amazon.com	Mary Mikel	+1 210-728-4548 ext. 09220	ABR0022	Arabella Farm Direct Bouquet of 12 Fresh Cut Pink Roses with a Free Glass Vase	1	0	1	SecondDay	Mary Jones	1515 SW ARCHER RD	UF HEALTH SHANDS RM 5234		GAINESVILLE	FL	32608-1134	US		Dear MJ,  We hope these flowers brighten up your day.  Our prayers and thoughts are with you.   Love,  MM and Bob From Mary Mikel	false		
112-8151883-4051443	02735382557378	2020-05-16T21:11:12+00:00	2020-05-16T14:11:12-07:00	2020-05-16T21:37:26+00:00	2020-05-19T06:59:59+00:00	-3	5ccj9nflts2ybwp@marketplace.amazon.com	Sarah B Sullivan	+1 763-225-9463 ext. 82456	ABR0022	Arabella Farm Direct Bouquet of 12 Fresh Cut Pink Roses with a Free Glass Vase	1	0	1	SecondDay	Lauren Howe	917 N VICTORIA PARK RD			FORT LAUDERDALE	FL	33304-4586	US		I hope you enjoy the flowers and feel better! Miss you! From Gavin Sullivan	false		
113-2769494-3586636	19439209587786	2020-05-16T21:14:17+00:00	2020-05-16T14:14:17-07:00	2020-05-16T21:43:13+00:00	2020-05-19T06:59:59+00:00	-3	1cm1nqqh310nbl6@marketplace.amazon.com	Jeff Zander	+1 347-448-3190 ext. 09887	ABR004	Arabella Farm Direct Bouquet of 12 Fresh Cut Yellow Roses with a Free Glass Vase	1	0	1	SecondDay	Jeff Zander	4701 PETIT AVE			ENCINO	CA	91436	US		Happy Anniversary My Love, You make every day a PaulaDay and Ziggy and I adore you... Forever and AlwayZ.	false		
114-5155652-9268220	08577973255858	2020-05-16T21:22:34+00:00	2020-05-16T14:22:34-07:00	2020-05-16T21:46:54+00:00	2020-05-19T06:59:59+00:00	-3	8dq7h7r11ydp132@marketplace.amazon.com	ursline charles	+1 314-282-9402 ext. 82744	ABR0055	Arabella Farm Direct Bouquet of 12 Stems of Fresh Cut Hot Pink Roses in a Free Designer Glass Vase	1	0	1	SecondDay	Quiana Franklin	50 E HILL RD APT 1E			CANTON	CT	06019-2423	US		To my best friend, my sister...gratitude, appreciation, recognition!! love you to bits...Barbara... your Urscy!! You mean the world to me!!! From ursline charles	false		
114-7196015-7373865	59899923616290	2020-05-16T21:33:42+00:00	2020-05-16T14:33:42-07:00	2020-05-16T21:49:57+00:00	2020-05-19T06:59:59+00:00	-3	7rgzp68ljbcyhgl@marketplace.amazon.com	Anthony Celeste	+1 314-282-9402 ext. 97032	ABR0022	Arabella Farm Direct Bouquet of 12 Fresh Cut Pink Roses with a Free Glass Vase	1	0	1	SecondDay	Deborah Dellavechia Councilwoman	49 LOCKWOOD DR			WALDWICK	NJ	07463-1018	US		Deb I apologize for my nut job rants. Please do not take the rants to heart or seriously. You have been a incredible council member. From Anthony Celeste	false		
114-8088284-6049855	14125024089106	2020-05-16T21:27:19+00:00	2020-05-16T14:27:19-07:00	2020-05-16T21:54:01+00:00	2020-05-19T06:59:59+00:00	-3	nrvghgfchtsh7c9@marketplace.amazon.com	Dominique Arnold	+1 347-448-3190 ext. 83392	ABR0055	Arabella Farm Direct Bouquet of 12 Stems of Fresh Cut Hot Pink Roses in a Free Designer Glass Vase	1	0	1	SecondDay	Dominique Arnold	8260 ROSELAND DR			FAIRFAX STATION	VA	22039-2534	US			false		
113-3268555-8323433	27174607757666	2020-05-16T21:32:49+00:00	2020-05-16T14:32:49-07:00	2020-05-16T22:03:23+00:00	2020-05-19T06:59:59+00:00	-3	mj38ymmymwfj1zf@marketplace.amazon.com	Keira braggs	+1 314-282-9402 ext. 96256	ABR0066	Arabella Bouquets | 12 Stems of Fresh Cut White Roses in a Free Designer Glass Vase	1	0	1	SecondDay	Keyira Braggs	4219 ELBA ST			NEW ORLEANS	LA	70125-2853	US			false		
113-1085294-6283465	08895465363010	2020-05-16T21:38:57+00:00	2020-05-16T14:38:57-07:00	2020-05-16T22:07:11+00:00	2020-05-19T06:59:59+00:00	-3	6gz6y0pc2kw9yxz@marketplace.amazon.com	Dennis Troy	+1 210-728-4548 ext. 57359	ABR0022	Arabella Farm Direct Bouquet of 12 Fresh Cut Pink Roses with a Free Glass Vase	1	0	1	SecondDay	Corinne J. Troy	4411 CLAY ST			ZEPHYRHILLS	FL	33542-7111	US			false		
112-2963307-8653036	21221639231498	2020-05-16T21:50:01+00:00	2020-05-16T14:50:01-07:00	2020-05-16T22:19:20+00:00	2020-05-21T06:59:59+00:00	-5	618fshfk53pd3tw@marketplace.amazon.com	christina kruger	+1 314-282-9402 ext. 93895	ABM010	Arabella Bouquets | Fields of The World Bouquet of Fresh Cut Flowers in a Free Designer Glass Vase	1	0	1	Standard	Christie Kruger	4702 GARDEN ARBOR WAY			BRADENTON	FL	34203-5564	US		Get well soon!  Sorry we can’t help!  Love you!! From Randy and Christie	false		
113-3317728-7999438	18907112381794	2020-05-16T22:04:40+00:00	2020-05-16T15:04:40-07:00	2020-05-16T22:31:12+00:00	2020-05-19T06:59:59+00:00	-3	ymncv9z9dqcrcnh@marketplace.amazon.com	Rocky L Nibert	+1 347-448-3190 ext. 01973	ABM010	Arabella Bouquets | Fields of The World Bouquet of Fresh Cut Flowers in a Free Designer Glass Vase	1	0	1	SecondDay	David & Aya Kovanen	1 CALEDONIA SMT NE			TACOMA	WA	98422-1600	US		Hi Aya, We hope you have a speedy recovery from your upcoming surgery! Please get well soon! From Mariko & Rocky L Nibert	false		
114-5901380-8716223	51549474994210	2020-05-16T22:32:12+00:00	2020-05-16T15:32:12-07:00	2020-05-16T22:52:46+00:00	2020-05-19T06:59:59+00:00	-3	f9d80rvn75g3062@marketplace.amazon.com	Thomas H Bunker	+1 347-448-3190 ext. 04611	ABR0022	Arabella Farm Direct Bouquet of 12 Fresh Cut Pink Roses with a Free Glass Vase	1	0	1	SecondDay	Thomas Hartford Bunker	2569 LOTUS CREEK DR			VIRGINIA BEACH	VA	23456-6450	US		Happy Birthday Love you!!	false		
112-2264946-6291439	27578107083826	2020-05-16T22:27:58+00:00	2020-05-16T15:27:58-07:00	2020-05-16T22:53:33+00:00	2020-05-19T06:59:59+00:00	-3	5478g7nblmlfdzq@marketplace.amazon.com	Elizabeth Duvall	+1 314-282-9402 ext. 07822	ABM010	Arabella Bouquets | Fields of The World Bouquet of Fresh Cut Flowers in a Free Designer Glass Vase	1	0	1	SecondDay	Mrs. Joyce Elizabeth Gardner	3048 HIGHWAY 140			RYDAL	GA	30171-1120	US		I hope these are better and as pretty as you are! I love you!!!! From Elizabeth Duvall	false		
112-7588393-4617044	08608816410826	2020-05-16T22:46:15+00:00	2020-05-16T15:46:15-07:00	2020-05-16T23:11:33+00:00	2020-05-19T06:59:59+00:00	-3	1jzv6yfhx9txd57@marketplace.amazon.com	Jane  Dolphin	+1 347-448-3190 ext. 91463	ABR013	Arabella Farm Direct Bouquet of 18 Fresh Cut Yellow Roses with a Free Glass Vase	1	0	1	SecondDay	Pat Jacques	5541 DALHART WAY			SACRAMENTO	CA	95835-1533	US		Our deepest sympathy. Love, T & Jane	false		
