order-id	order-item-id	purchase-date	payments-date	reporting-date	promise-date	days-past-promise	buyer-email	buyer-name	buyer-phone-number	sku	product-name	quantity-purchased	quantity-shipped	quantity-to-ship	ship-service-level	recipient-name	ship-address-1	ship-address-2	ship-address-3	ship-city	ship-state	ship-postal-code	ship-country	gift-wrap-type	gift-message-text	is-business-order	purchase-order-number	price-designation
114-7411663-6513052	28277857907642	2020-05-19T14:47:20+00:00	2020-05-19T07:47:20-07:00	2020-05-19T15:17:49+00:00	2020-05-23T06:59:59+00:00	-4	kg07htm330lq4gm@marketplace.amazon.com	Leo DiSanto	+1 347-448-3190 ext. 16787	ABR0022	Arabella Farm Direct Bouquet of 12 Fresh Cut Pink Roses with a Free Glass Vase	1	0	1	Expedited	Leo DiSanto	39 MIDLAND AVE			KEARNY	NJ	07032-2210	US			false		
111-0248239-9224223	69659196910026	2020-05-19T15:04:18+00:00	2020-05-19T08:04:18-07:00	2020-05-19T15:34:32+00:00	2020-05-23T06:59:59+00:00	-4	hqf35jtlwc8l8vn@marketplace.amazon.com	Rachel	+1 347-448-3190 ext. 11662	ABR0022	Arabella Farm Direct Bouquet of 12 Fresh Cut Pink Roses with a Free Glass Vase	1	0	1	Expedited	Joan Gates	487 MILL HOLLOW RD			JEWETT	NY	12444-5628	US			false		
111-2888229-2214623	25389323206418	2020-05-19T16:17:50+00:00	2020-05-19T09:17:50-07:00	2020-05-19T16:37:20+00:00	2020-05-23T06:59:59+00:00	-4	zrgmmbdk11zjrqk@marketplace.amazon.com	Ilene Kenney	+1 347-448-3190 ext. 73855	ABR0022	Arabella Farm Direct Bouquet of 12 Fresh Cut Pink Roses with a Free Glass Vase	1	0	1	Expedited	Jenifer Hammond	122 E BROOKLYN AVE			DALLAS	TX	75203-2812	US		Dear Jenifer You are in our thoughts and prayers. Love, Paul and Ilene From Ilene Kenney	false		
111-1238396-5943438	36721875628914	2020-05-19T16:41:45+00:00	2020-05-19T09:41:45-07:00	2020-05-19T17:07:51+00:00	2020-05-23T06:59:59+00:00	-4	p27th2lgx8zm9y5@marketplace.amazon.com	Ron	+1 347-448-3190 ext. 36582	ABR0022	Arabella Farm Direct Bouquet of 12 Fresh Cut Pink Roses with a Free Glass Vase	1	0	1	Expedited	Rachael Bartlett	123 RICHARDSON AVE			UTICA	NY	13502-5924	US		Good luck, and have a wonderful day! From Rony LeRouge	false		
112-0548884-4939421	55969402090578	2020-05-19T16:55:21+00:00	2020-05-19T09:55:21-07:00	2020-05-19T17:24:47+00:00	2020-05-23T06:59:59+00:00	-4	p7930sz8xcqfp77@marketplace.amazon.com	Kevin	+1 210-728-4548 ext. 19431	ABR0022	Arabella Farm Direct Bouquet of 12 Fresh Cut Pink Roses with a Free Glass Vase	1	0	1	Expedited	Judy Lambert	1309 TEENAJO DR SE			HUNTSVILLE	AL	35803-2432	US		I miss you and love you mommy! From Your Daughter, Renee	false		
114-0578140-9273823	31580591979082	2020-05-19T17:16:40+00:00	2020-05-19T10:16:40-07:00	2020-05-19T17:45:38+00:00	2020-05-23T06:59:59+00:00	-4	1plq7w6tshygvsh@marketplace.amazon.com	hunter datzker	+1 210-728-4548 ext. 97270	ABR0022	Arabella Farm Direct Bouquet of 12 Fresh Cut Pink Roses with a Free Glass Vase	1	0	1	Expedited	krista marie clarkson	92 W 680 S			OREM	UT	84058-3123	US			false		
111-6667225-6561820	63774225073258	2020-05-19T17:57:26+00:00	2020-05-19T10:57:26-07:00	2020-05-19T18:18:30+00:00	2020-05-21T06:59:59+00:00	-2	m9q6x8pd46lfr0f@marketplace.amazon.com	steven j. schultz	+1 347-448-3190 ext. 58112	ABM010	Arabella Bouquets | Fields of The World Bouquet of Fresh Cut Flowers in a Free Designer Glass Vase	1	0	1	SecondDay	John F. Schultz	500 MARIS GROVE WAY ROSE COURT	RM 218		GLEN MILLS	PA	19342-3371	US		Pop, Sorry we can't be with you right now, but we wanted to send something to brighten your day and your room a little. We love you lots! Diane, Steve, Matthew & Nick From steven j. schultz	false		
111-5764979-2649826	09320405289498	2020-05-19T17:50:36+00:00	2020-05-19T10:50:36-07:00	2020-05-19T18:19:31+00:00	2020-05-21T06:59:59+00:00	-2	0677jlgcjhlhvp1@marketplace.amazon.com	Donghao Wang	+1 314-282-9402 ext. 83409	ABB013	Arabella Bouquets | 24 Stems of Fresh Cut White Roses in a Free Designer Glass Vase	1	0	1	SecondDay	Hong Wang	294 SPRINGDALE RD			PRINCETON	NJ	08540-4935	US		Dear Hong, Happy Birthday! From Donghao Wang	false		
111-1318483-9869823	54745697488946	2020-05-19T17:58:40+00:00	2020-05-19T10:58:40-07:00	2020-05-19T18:21:11+00:00	2020-05-23T06:59:59+00:00	-4	dm2ftzhw6c4xnbx@marketplace.amazon.com	taohuay bullock	+1 210-728-4548 ext. 98256	ABR001	Arabella Bouquets 12 Stems of Fresh Cut Red Roses in a Free Designer Glass Vase	1	0	1	Standard	taohuay bullock	12381 Terria Inca			El Paso	TX	79938	US		Hi, Happy Birthday.  I love you! From Anthony Hall	false		
111-3426569-6765053	31594735619490	2020-05-19T17:56:27+00:00	2020-05-19T10:56:27-07:00	2020-05-19T18:21:16+00:00	2020-05-21T06:59:59+00:00	-2	33b1r2qc78xfbzs@marketplace.amazon.com	Haekyong S. Nott	+1 347-448-3190 ext. 63688	ABM010	Arabella Bouquets | Fields of The World Bouquet of Fresh Cut Flowers in a Free Designer Glass Vase	1	0	1	SecondDay	Frances Nott	3001 SW 18TH TER LOT 126			FORT LAUDERDALE	FL	33315-2747	US			false		
112-9654504-6546639	13188305054850	2020-05-19T17:56:08+00:00	2020-05-19T10:56:08-07:00	2020-05-19T18:23:35+00:00	2020-05-21T06:59:59+00:00	-2	wv36cv4s98k21jp@marketplace.amazon.com	jean r mckay	+1 210-728-4548 ext. 72672	ABM010	Arabella Bouquets | Fields of The World Bouquet of Fresh Cut Flowers in a Free Designer Glass Vase	1	0	1	SecondDay	Becky Kilgus	102 CUNNINGHAM DR			GREER	SC	29650-1617	US		So thankful for your dear friendship, and have been praying for you at this time.  You are a delight! love, Jean	false		
113-1361621-3913808	44507102379674	2020-05-19T18:00:24+00:00	2020-05-19T11:00:24-07:00	2020-05-19T18:27:37+00:00	2020-05-23T06:59:59+00:00	-4	0jcj6m3nyn7q2q4@marketplace.amazon.com	ALMA	+1 347-448-3190 ext. 67925	ABR0022	Arabella Farm Direct Bouquet of 12 Fresh Cut Pink Roses with a Free Glass Vase	1	0	1	Expedited	PEGGY GOMEZ	13961 BRENAN WAY			NORTH TUSTIN	CA	92705-2714	US		Congratulations on your graduation my sweetest granddaughter MORGAN!  GG is very very proud of you! Thank you for all the hard work- I LOVE YOU!	false		
114-7040562-2044234	00730813380906	2020-05-19T18:00:58+00:00	2020-05-19T11:00:58-07:00	2020-05-19T18:27:44+00:00	2020-05-23T06:59:59+00:00	-4	wpbz564dc8b0mdf@marketplace.amazon.com	Olivia	+1 210-728-4548 ext. 01396	ABR0022	Arabella Farm Direct Bouquet of 12 Fresh Cut Pink Roses with a Free Glass Vase	1	0	1	Expedited	Brooke Burki	18682 VALE AVE			SANTA ANA	CA	92705-2158	US		Happy Birthday, Brooklynn!! Cheers to you and an amazing year ahead!! Love and miss you tons!! From Love, OJ	false		
113-0312088-1881010	03035519092858	2020-05-19T18:02:12+00:00	2020-05-19T11:02:12-07:00	2020-05-19T18:31:39+00:00	2020-05-23T06:59:59+00:00	-4	d8t4rhwf5v5vp56@marketplace.amazon.com	Amy E. Moody	+1 412-532-4665 ext. 40914	ABR0022	Arabella Farm Direct Bouquet of 12 Fresh Cut Pink Roses with a Free Glass Vase	1	0	1	Expedited	Kathy Davis	4212 DON ARELLANES DR			LOS ANGELES	CA	90008-4203	US		Happy Birthday! From Amy E. Burke	false		
114-6309802-8763429	48392732439458	2020-05-19T18:03:30+00:00	2020-05-19T11:03:30-07:00	2020-05-19T18:32:51+00:00	2020-05-23T06:59:59+00:00	-4	vfh47jws128l00l@marketplace.amazon.com	JASON A FRENTZEL	+1 314-282-9402 ext. 67493	ABR0022	Arabella Farm Direct Bouquet of 12 Fresh Cut Pink Roses with a Free Glass Vase	1	0	1	Expedited	Kathi Karsnitz	202 HERONWOOD LN			MILTON	DE	19968-3662	US		Happy Birthday Aunt Kathi! We love and miss you! From Nat, Jason and Edison	false		
114-8233109-2503442	61342475202554	2020-05-19T18:16:21+00:00	2020-05-19T11:16:21-07:00	2020-05-19T18:33:53+00:00	2020-05-21T06:59:59+00:00	-2	jg7wjb3f73z1sk4@marketplace.amazon.com	Lisa A. Perry	+1 314-282-9402 ext. 86149	ABM010	Arabella Bouquets | Fields of The World Bouquet of Fresh Cut Flowers in a Free Designer Glass Vase	1	0	1	SecondDay	Sharon Walker	503 Bromley Brook Road			Manchester Center	VT	05255	US		We were thinking about you and wanted to send a little sunshine to brighten your day.  Hope you are feeling better.  Love, Paul & Lisa	false		
113-8579717-8211434	26385117199058	2020-05-19T18:08:02+00:00	2020-05-19T11:08:02-07:00	2020-05-19T18:34:37+00:00	2020-05-21T06:59:59+00:00	-2	t33tk8q1vzf4sss@marketplace.amazon.com	Sandy Olsen	+1 210-728-4548 ext. 46487	ABM010	Arabella Bouquets | Fields of The World Bouquet of Fresh Cut Flowers in a Free Designer Glass Vase	1	0	1	SecondDay	Mrs Elizabeth Barbolt	1012 HUDSON AVE			STILLWATER	NY	12170-3431	US		Dearest Aunt Betty,  wishing you a belated Happy Birthday.  I am forever thinking of you.  Much love,   Sandy From Sandy Olsen	false		
114-2903271-3147429	26996031670706	2020-05-19T18:07:25+00:00	2020-05-19T11:07:25-07:00	2020-05-19T18:37:20+00:00	2020-05-21T06:59:59+00:00	-2	9nq1h8vczv6gxkj@marketplace.amazon.com	Carrie Lockwood	+1 347-448-3190 ext. 16217	ABR014	Arabella Bouquets 18 Stems of Fresh Cut White Roses in a Free Designer Glass Vase	1	0	1	SecondDay	Elaine Mrugala	11179 TREVETT RD			SPRINGVILLE	NY	14141-9535	US			false		
111-4052119-4563415	23225826700474	2020-05-19T18:12:40+00:00	2020-05-19T11:12:40-07:00	2020-05-19T18:39:21+00:00	2020-05-23T06:59:59+00:00	-4	ns51kt57djgm61s@marketplace.amazon.com	Fareed Yasin	+1 314-282-9402 ext. 14068	ABR0022	Arabella Farm Direct Bouquet of 12 Fresh Cut Pink Roses with a Free Glass Vase	1	0	1	Expedited	Java Juice House	1061 HAMILTON PL DR			JOHNSON CITY	TN	37604-7917	US		Happy Birthday from your LOVELY Husband! Love You	false		
114-2020713-3876204	69381934614490	2020-05-19T18:11:10+00:00	2020-05-19T11:11:10-07:00	2020-05-19T18:39:21+00:00	2020-05-21T06:59:59+00:00	-2	ysfsxtcdktfg6mc@marketplace.amazon.com	Laura benson	+1 347-448-3190 ext. 84729	ABM010	Arabella Bouquets | Fields of The World Bouquet of Fresh Cut Flowers in a Free Designer Glass Vase	1	0	1	SecondDay	Roxanne Leach	46 Hampshire Drive			Hamden	CT	06518-2104	US		Happy belated birthday Roxanne!  Love, Laura, Tim, Nick, Natalie, & Timmy From Laura benson	false		
112-0100084-6986662	44547334670386	2020-05-19T18:14:27+00:00	2020-05-19T11:14:27-07:00	2020-05-19T18:39:33+00:00	2020-05-23T06:59:59+00:00	-4	01tzvpk1c52vhv7@marketplace.amazon.com	David Kawakami	+1 210-728-4548 ext. 06844	ABR0022	Arabella Farm Direct Bouquet of 12 Fresh Cut Pink Roses with a Free Glass Vase	1	0	1	Expedited	David Kawakami	4587 TILBURY DR			SAN JOSE	CA	95130-2067	US		Happy Anniversary Cindy  Love David	false		
111-4478719-7431416	27589505234266	2020-05-19T17:24:54+00:00	2020-05-19T10:24:54-07:00	2020-05-19T18:41:02+00:00	2020-05-21T06:59:59+00:00	-2	z03w6wbtf7yck4h@marketplace.amazon.com	David Pham	+1 314-282-9402 ext. 90717	ABR001	Arabella Bouquets 12 Stems of Fresh Cut Red Roses in a Free Designer Glass Vase	1	0	1	SecondDay	Lorna Handy	3016 CANTON RD			MARIETTA	GA	30066-3884	US			false		
114-9263493-5284204	03128730160962	2020-05-19T18:35:50+00:00	2020-05-19T11:35:50-07:00	2020-05-19T18:43:35+00:00	2020-05-21T06:59:59+00:00	-2	y7tlvsnmbsj2k0q@marketplace.amazon.com	janet schofield	+1 347-448-3190 ext. 58514	ABM010	Arabella Bouquets | Fields of The World Bouquet of Fresh Cut Flowers in a Free Designer Glass Vase	1	0	1	SecondDay	Mr. Paul Andrews	7 STONEMAN AVE			LAKEWOOD	NY	14750-1023	US		This our most sincere condolences on your loss. From Janet  and Doug Schofield	false		
114-1516706-3961862	64919435649338	2020-05-19T18:17:37+00:00	2020-05-19T11:17:37-07:00	2020-05-19T18:45:13+00:00	2020-05-21T06:59:59+00:00	-2	ywn8cq1p4nsvh2r@marketplace.amazon.com	Lana Machwitz	+1 314-282-9402 ext. 29938	ABR001	Arabella Bouquets 12 Stems of Fresh Cut Red Roses in a Free Designer Glass Vase	1	0	1	SecondDay	Henrietta mignone	330 SE 2ND ST APT 203G			HALLANDALE BEACH	FL	33009-5689	US		Hi Henrietta, Enjoy your gift! From Lana Machwitz	false		
112-6544761-9712259	06021472592042	2020-05-19T18:22:16+00:00	2020-05-19T11:22:16-07:00	2020-05-19T18:52:36+00:00	2020-05-21T06:59:59+00:00	-2	rlmr21nrcqdbyyg@marketplace.amazon.com	Joseph Brennan	+1 314-282-9402 ext. 75066	ABR0022	Arabella Farm Direct Bouquet of 12 Fresh Cut Pink Roses with a Free Glass Vase	1	0	1	SecondDay	Erin Brennan	30 CROUSE RD			ALEXANDRIA	NH	03222-6547	US			false		
112-7010538-2825830	07492838512962	2020-05-19T18:25:32+00:00	2020-05-19T11:25:32-07:00	2020-05-19T18:54:55+00:00	2020-05-21T06:59:59+00:00	-2	tp02553bb1wcyzv@marketplace.amazon.com	Thomas Kollig	+1 210-728-4548 ext. 23356	ABR012	Arabella Farm Direct Bouquet of 18 Fresh Cut Pink Roses with a Free Glass Vase	1	0	1	SecondDay	Doris Ledbetter	6323 EVERGREEN DR			SOUTHAVEN	MS	38671-8832	US		Hi Mom, Grandma, Doris,  Hope you have a happy birthday weekend!  Love, Gail, Faye & Sara, Thomas	false		
112-3583714-6020246	30216668555546	2020-05-19T18:30:15+00:00	2020-05-19T11:30:15-07:00	2020-05-19T18:58:43+00:00	2020-05-21T06:59:59+00:00	-2	2h23k8mrsdhvj3w@marketplace.amazon.com	Ralph	+1 210-728-4548 ext. 75917	ABR0022	Arabella Farm Direct Bouquet of 12 Fresh Cut Pink Roses with a Free Glass Vase	1	0	1	SecondDay	Leslie Hope	23228 SE 15TH CT			SAMMAMISH	WA	98075-8123	US		Thinking about that special day!! It wasn't so long ago! From Love, Ralph	false		
111-6140943-1343434	15850020601890	2020-05-19T18:31:13+00:00	2020-05-19T11:31:13-07:00	2020-05-19T19:00:57+00:00	2020-05-21T06:59:59+00:00	-2	hm80rbvl43tqzqd@marketplace.amazon.com	stephen adams	+1 347-448-3190 ext. 61506	ABR0022	Arabella Farm Direct Bouquet of 12 Fresh Cut Pink Roses with a Free Glass Vase	1	0	1	SecondDay	Linda Adams	17345 BITTERSWEET TRL			CHAGRIN FALLS	OH	44023-5700	US		Mom, something to brighten your day!  Love, Steve From stephen adams	false		
111-8562459-1157012	02832210884466	2020-05-19T18:31:05+00:00	2020-05-19T11:31:05-07:00	2020-05-19T19:01:41+00:00	2020-05-21T06:59:59+00:00	-2	4vs6jlxs5xjhwvr@marketplace.amazon.com	James Gilroy	+1 347-448-3190 ext. 04824	ABR0022	Arabella Farm Direct Bouquet of 12 Fresh Cut Pink Roses with a Free Glass Vase	1	0	1	SecondDay	James C Gilroy	25791 BAY MEADOWS WAY			MURRIETA	CA	92562-9378	US			false		
114-4803518-3499405	51249209323354	2020-05-19T18:37:01+00:00	2020-05-19T11:37:01-07:00	2020-05-19T19:02:23+00:00	2020-05-21T06:59:59+00:00	-2	1hb9hcxw7386r6c@marketplace.amazon.com	Suzanne Barton	+1 210-728-4548 ext. 75060	ABM0044	Arabella Farm Direct Bouquet of Fresh Cut Blue Hydrangea with a Free Glass Vase	1	0	1	SecondDay	Mrs Betty Barton	395 REDDING RD APT 42			LEXINGTON	KY	40517-2369	US		Happy Birthday Betty!  Lots of love on your special day!  Love, Michael and Suzanne	false		
112-4710852-0741854	09199172492346	2020-05-19T18:51:17+00:00	2020-05-19T11:51:17-07:00	2020-05-19T19:03:43+00:00	2020-05-21T06:59:59+00:00	-2	9l9r3rydn0jwnsx@marketplace.amazon.com	Eli K. Barlow	+1 314-282-9402 ext. 68563	ABR0022	Arabella Farm Direct Bouquet of 12 Fresh Cut Pink Roses with a Free Glass Vase	1	0	1	SecondDay	Father Stephen Roman	4931 35th Ave SW	Providence Mount Saint Vincent, Room # 315 North		Seattle	WA	98126	US		Hi Father, Steve,  Congratulations on your 63rd Priestly Anniversary!  I so enjoyed our phone conversation. Enjoy your gift! From Eli K. Barlow	false		
113-5782849-1836269	44817858576826	2020-05-19T18:34:09+00:00	2020-05-19T11:34:09-07:00	2020-05-19T19:03:51+00:00	2020-05-21T06:59:59+00:00	-2	rth6rqs4trvf5jv@marketplace.amazon.com	John Weldon Brewster JR	+1 210-728-4548 ext. 04736	ABR0033	Arabella Farm Direct Bouquet of 12 Fresh Cut Orange Roses with a Free Glass Vase	1	0	1	SecondDay	Pam Brewster	1881 E CREEK DR			DRIPPING SPRINGS	TX	78620-4239	US		Happy Birthday !!  Love Weldon, Renée, Buzzy and Piper	false		
113-0369825-7231422	03322314684842	2020-05-19T18:40:10+00:00	2020-05-19T11:40:10-07:00	2020-05-19T19:05:37+00:00	2020-05-21T06:59:59+00:00	-2	5mg9sjfq8ft8x12@marketplace.amazon.com	Laura Weldon	+1 314-282-9402 ext. 87205	ABR0033	Arabella Farm Direct Bouquet of 12 Fresh Cut Orange Roses with a Free Glass Vase	1	0	1	SecondDay	Stephanie Lehman	7574 DELAWARE LN			VANCOUVER	WA	98664-2165	US		We hope you are feeling better very soon.  Rest up my friend.  .  We love you  Laura Izzy Joey and Jack From Laura Weldon	false		
112-2455847-6543426	45011873941178	2020-05-19T19:03:26+00:00	2020-05-19T12:03:26-07:00	2020-05-19T19:07:51+00:00	2020-05-21T06:59:59+00:00	-2	2cmtrbrltmlsk97@marketplace.amazon.com	Lisa K. Scott	+1 347-448-3190 ext. 49698	ABM0044	Arabella Farm Direct Bouquet of Fresh Cut Blue Hydrangea with a Free Glass Vase	1	0	1	SecondDay	Andressa and James Bryant	5339 BOULWARE CT			CHARLOTTE	NC	28277-9645	US		Enjoy your day, Mom and  Dad! From Lisa K. Scott	false		
112-1486251-0273021	53511443049594	2020-05-19T18:49:30+00:00	2020-05-19T11:49:30-07:00	2020-05-19T19:08:05+00:00	2020-05-21T06:59:59+00:00	-2	xgs1zg7pf96z41v@marketplace.amazon.com	Atika Begum	+1 210-728-4548 ext. 74181	ABR0022	Arabella Farm Direct Bouquet of 12 Fresh Cut Pink Roses with a Free Glass Vase	1	0	1	SecondDay	Zeenat Jahan	2563 Xenia st			Denver	co	80238	US		Hi Monu Khala, I am so proud of you for completing the treatment as a real fighter. Stay healthy to keep our friendship alive for many more years to come. We need to grow old to spend time with our grand children! Luna	false		
113-0863742-9561033	17644053289794	2020-05-19T19:01:27+00:00	2020-05-19T12:01:27-07:00	2020-05-19T19:08:42+00:00	2020-05-21T06:59:59+00:00	-2	0r59pgbr0nxzd9p@marketplace.amazon.com	Harry Lowell Oakley	+1 210-728-4548 ext. 30313	ABR0022	Arabella Farm Direct Bouquet of 12 Fresh Cut Pink Roses with a Free Glass Vase	1	0	1	SecondDay	Lowell Oakley	23 GRANVILLE WAY			BASKING RIDGE	NJ	07920-2546	US		Surprise!! Hahahaha Lowell	false		
112-2335204-5807450	52409403576482	2020-05-19T18:48:29+00:00	2020-05-19T11:48:29-07:00	2020-05-19T19:14:11+00:00	2020-05-21T06:59:59+00:00	-2	7zhp6vm3rgvd67k@marketplace.amazon.com	craig kay	+1 314-282-9402 ext. 17121	ABR0022	Arabella Farm Direct Bouquet of 12 Fresh Cut Pink Roses with a Free Glass Vase	1	0	1	SecondDay	Ruth Caratala Vargas	20222 SENDERA OAKS LN			CYPRESS	TX	77433-2050	US		We are so sorry about your abuela. I know how much she meant To you.  Jehovah will call and she will answer soon Ruth! Love Alexandra, Sophia, craig From kay family	false		
113-7785449-7136236	10092276544018	2020-05-19T18:48:06+00:00	2020-05-19T11:48:06-07:00	2020-05-19T19:14:20+00:00	2020-05-21T06:59:59+00:00	-2	6hqv787bt6t1zjv@marketplace.amazon.com	Stuart Wolf	+1 210-728-4548 ext. 37054	ABR0055	Arabella Farm Direct Bouquet of 12 Stems of Fresh Cut Hot Pink Roses in a Free Designer Glass Vase	1	0	1	SecondDay	Barbara Rubin	200 JENNY GAY CT			SEVERN	MD	21144-3450	US		Happy Birthday.  Hope the brighten up your day.  Next time we’ll celebrate with coffee cups in hand😊😊 From Iris	false		
112-3343722-6997068	58882457885578	2020-05-19T18:47:11+00:00	2020-05-19T11:47:11-07:00	2020-05-19T19:14:45+00:00	2020-05-21T06:59:59+00:00	-2	9n2rhmk0j571gr3@marketplace.amazon.com	Andrew Messer	+1 347-448-3190 ext. 49858	ABR0055	Arabella Farm Direct Bouquet of 12 Stems of Fresh Cut Hot Pink Roses in a Free Designer Glass Vase	1	0	1	SecondDay	Amanda Messer	4101 E RANCIER AVE APT 1204			KILLEEN	TX	76543-3813	US		I love you so much beautiful. I'm glad to be able to call you mine. You are the best darling. From Your husband	false		
114-4975329-7574611	21965842821106	2020-05-19T18:47:04+00:00	2020-05-19T11:47:04-07:00	2020-05-19T19:15:44+00:00	2020-05-21T06:59:59+00:00	-2	9fkpyrhg8yvcxc7@marketplace.amazon.com	dianna voiles	+1 347-448-3190 ext. 85642	ABR0055	Arabella Farm Direct Bouquet of 12 Stems of Fresh Cut Hot Pink Roses in a Free Designer Glass Vase	1	0	1	SecondDay	Terri Husso	404 N BALDWIN ST			MCVILLE	ND	58254-4817	US		Feel better soon ❤️ From Dianne and Barb	false		
111-5442025-1025006	57345525460522	2020-05-19T19:00:40+00:00	2020-05-19T12:00:40-07:00	2020-05-19T19:20:53+00:00	2020-05-21T06:59:59+00:00	-2	t9ng02vl662v2c4@marketplace.amazon.com	jacobo montejano	+1 763-225-9463 ext. 46861	ABM010	Arabella Bouquets | Fields of The World Bouquet of Fresh Cut Flowers in a Free Designer Glass Vase	1	0	1	SecondDay	Marífeli Reyes	4055 MANZANITA AVE UNIT 2			SOUTH LAKE TAHOE	CA	96150-7176	US		Mari Feliz Cumpleaños la queremos mucho De Yuri/Jacobo	false		
112-9042367-0468208	34314969689834	2020-05-19T18:55:55+00:00	2020-05-19T11:55:55-07:00	2020-05-19T19:23:00+00:00	2020-05-21T06:59:59+00:00	-2	h3qhnqls18x05l5@marketplace.amazon.com	bill	+1 763-225-9463 ext. 43076	ABM010	Arabella Bouquets | Fields of The World Bouquet of Fresh Cut Flowers in a Free Designer Glass Vase	1	0	1	SecondDay	Gina Yunker	2271 SE ELDERBERRY LN			GRANTS PASS	OR	97527-5238	US		I hope you Enjoy your gift! Happy Birthday! Love you to infinity and  beyond!! Dad From bill	false		
112-7190872-8034641	10674736025154	2020-05-19T18:55:38+00:00	2020-05-19T11:55:38-07:00	2020-05-19T19:24:58+00:00	2020-05-21T06:59:59+00:00	-2	kclkq53vmmr0qft@marketplace.amazon.com	Asha Wong	+1 314-282-9402 ext. 29258	ABR0022	Arabella Farm Direct Bouquet of 12 Fresh Cut Pink Roses with a Free Glass Vase	1	0	1	SecondDay	Babita Mangroo	3610 KIRKPATRICK CIR UNIT 8			JACKSONVILLE	FL	32210-0202	US		Happy Mother’s Day, I love you and miss you! From Alexis	false		
112-7504157-2795430	42917057365122	2020-05-19T18:55:55+00:00	2020-05-19T11:55:55-07:00	2020-05-19T19:25:16+00:00	2020-05-21T06:59:59+00:00	-2	g5wrwyrd2frjr25@marketplace.amazon.com	Candy sparks	+1 210-728-4548 ext. 76533	ABR001	Arabella Bouquets 12 Stems of Fresh Cut Red Roses in a Free Designer Glass Vase	1	0	1	SecondDay	leslie bianco	4014 CALLE ARIANA			SAN CLEMENTE	CA	92672-4505	US		Hi Leslie, Just Because From Candy sparks	false		
111-1122087-2364226	40641014155354	2020-05-19T18:52:31+00:00	2020-05-19T11:52:31-07:00	2020-05-19T19:29:31+00:00	2020-05-21T06:59:59+00:00	-2	v20jxcqts6ksxrn@marketplace.amazon.com	Bruce Hammerstrom	+1 210-728-4548 ext. 24540	ABM010	Arabella Bouquets | Fields of The World Bouquet of Fresh Cut Flowers in a Free Designer Glass Vase	1	0	1	SecondDay	Bruce Hammerstrom	5405 NW 134TH ST			VANCOUVER	WA	98685-1464	US			false		
114-7905953-4256269	41430221535226	2020-05-19T18:59:46+00:00	2020-05-19T11:59:46-07:00	2020-05-19T19:30:22+00:00	2020-05-21T06:59:59+00:00	-2	qd3yqj7tptsmqbj@marketplace.amazon.com	Kevin bartnick	+1 314-282-9402 ext. 94253	ABM010	Arabella Bouquets | Fields of The World Bouquet of Fresh Cut Flowers in a Free Designer Glass Vase	1	0	1	SecondDay	Kevin bartnick	925 N GARFIELD ST APT 301			ARLINGTON	VA	22201-2198	US			false		
111-2299900-4731440	10467372512154	2020-05-19T19:05:41+00:00	2020-05-19T12:05:41-07:00	2020-05-19T19:32:16+00:00	2020-05-21T06:59:59+00:00	-2	y8x522b50njkbxx@marketplace.amazon.com	Mark Minton	+1 763-225-9463 ext. 27795	ABM010	Arabella Bouquets | Fields of The World Bouquet of Fresh Cut Flowers in a Free Designer Glass Vase	1	0	1	SecondDay	Minnie Hooks	8074 GATE PKWY W APT 5415			JACKSONVILLE	FL	32216-1623	US		Mom,   Thank you for all that you are doing for Myles, and have ever done for the boys.  We love you!  Mark, Myles, and Noah From Mark Minton	false		
111-7148712-1904240	00805566000098	2020-05-19T19:07:49+00:00	2020-05-19T12:07:49-07:00	2020-05-19T19:36:48+00:00	2020-05-21T06:59:59+00:00	-2	39qv6vxnv84vnml@marketplace.amazon.com	Bethany Ward	+1 210-728-4548 ext. 83027	ABR0022	Arabella Farm Direct Bouquet of 12 Fresh Cut Pink Roses with a Free Glass Vase	1	0	1	SecondDay	Lisa Sibits	474 HAMILTON DR			BROADVIEW HEIGHTS	OH	44147-4218	US		Lisa, I’m so happy your surgery went well. Hope you continue to feel better each day!   Xoxo, Beth From Bethany Ward	false		
113-9961069-1769841	04658134112730	2020-05-19T19:09:14+00:00	2020-05-19T12:09:14-07:00	2020-05-19T19:39:18+00:00	2020-05-21T06:59:59+00:00	-2	d2m3hwkk94x05w9@marketplace.amazon.com	Lonnie Kishiyama	+1 210-728-4548 ext. 09490	ABR0022	Arabella Farm Direct Bouquet of 12 Fresh Cut Pink Roses with a Free Glass Vase	1	0	1	SecondDay	Lonnie Kishiyama	426 CHAMPION CT			SEVERN	MD	21144-2772	US		Happy Anniversary! From Lonnie	false		
113-3646694-9673842	21811766961066	2020-05-19T19:12:11+00:00	2020-05-19T12:12:11-07:00	2020-05-19T19:39:59+00:00	2020-05-21T06:59:59+00:00	-2	p8yk4z09r0ywnl0@marketplace.amazon.com	Matthew DeCormier	+1 412-532-4665 ext. 15584	ABR0022	Arabella Farm Direct Bouquet of 12 Fresh Cut Pink Roses with a Free Glass Vase	1	0	1	SecondDay	Linda Widell	842A HIGH POINT BLVD N - NORTH			DELRAY BEACH	FL	33445-3077	US		We wish you a speedy recovery! With love, Letitia & Matthew xoxoox	false		
114-4165188-8696258	67704010699666	2020-05-19T19:13:45+00:00	2020-05-19T12:13:45-07:00	2020-05-19T19:40:16+00:00	2020-05-21T06:59:59+00:00	-2	mfnkln4clpndn2r@marketplace.amazon.com	dina miller	+1 210-728-4548 ext. 33710	ABR0022	Arabella Farm Direct Bouquet of 12 Fresh Cut Pink Roses with a Free Glass Vase	1	0	1	SecondDay	Mr & Mrs Rodway	13271 JUNEBERRY LN			HUNTLEY	IL	60142-7741	US		Bev & Jerry Our deepest condolences . Love Theresa & Sol Battaglia	false		
114-6304786-6963450	56212819998450	2020-05-19T19:13:50+00:00	2020-05-19T12:13:50-07:00	2020-05-19T19:41:38+00:00	2020-05-21T06:59:59+00:00	-2	c54cqcglfwgwgbj@marketplace.amazon.com	KIm M Celento	4120337-6262	ABM010	Arabella Bouquets | Fields of The World Bouquet of Fresh Cut Flowers in a Free Designer Glass Vase	1	0	1	SecondDay	Christine Caropresi	137 BROOKFIELD ESTATES DR			WEXFORD	PA	15090-6334	US		Christine,  Wishing you love and birghter days ahead remember we're always here for you. Love, Missy and Kim XOXO From KIm and Missy	false		
113-8285313-7175409	35692319667074	2020-05-19T19:12:56+00:00	2020-05-19T12:12:56-07:00	2020-05-19T19:41:41+00:00	2020-05-21T06:59:59+00:00	-2	dhsm9qc1rx2nmw2@marketplace.amazon.com	Meredith M Bowes	+1 763-225-9463 ext. 90758	ABR0022	Arabella Farm Direct Bouquet of 12 Fresh Cut Pink Roses with a Free Glass Vase	1	0	1	SecondDay	Kathy Bowes	3816 N BARTLETT AVE			MILWAUKEE	WISCONSIN	53211-2201	US		Dear Kathy,   We love you and are so sorry for your loss. Our prayers are with you.   Love always, David, Meredith, Virginia, Julia, Katie, and Jack From Meredith M Bowes	false		
113-0419392-9141821	05719633090562	2020-05-19T19:16:23+00:00	2020-05-19T12:16:23-07:00	2020-05-19T19:45:36+00:00	2020-05-21T06:59:59+00:00	-2	s4yg5sb8k1mf3pd@marketplace.amazon.com	Brian Rigg	+1 347-448-3190 ext. 31625	ABR0022	Arabella Farm Direct Bouquet of 12 Fresh Cut Pink Roses with a Free Glass Vase	1	0	1	SecondDay	Peggy Rigg	558 Willow Lane			Perrysburg	OH	43551	US		Happy Birthday Mom! xoxo From Brian	false		
114-4300375-7817868	67115965675170	2020-05-19T19:18:58+00:00	2020-05-19T12:18:58-07:00	2020-05-19T19:48:25+00:00	2020-05-21T06:59:59+00:00	-2	21hlz1cs81thm13@marketplace.amazon.com	kristeena	+1 412-532-4665 ext. 95983	ABR0022	Arabella Farm Direct Bouquet of 12 Fresh Cut Pink Roses with a Free Glass Vase	1	0	1	SecondDay	Kaye Swindell	110 RUTH LN			LA VERGNE	TN	37086-2035	US		Just a little something to brighten your day. From Your LTSS family	false		
114-7476870-5606612	10154043775906	2020-05-19T19:21:58+00:00	2020-05-19T12:21:58-07:00	2020-05-19T19:50:40+00:00	2020-05-21T06:59:59+00:00	-2	q10yfx9l545l9zt@marketplace.amazon.com	Courtney M Winters	+1 347-448-3190 ext. 56299	ABM010	Arabella Bouquets | Fields of The World Bouquet of Fresh Cut Flowers in a Free Designer Glass Vase	1	0	1	SecondDay	Annie McGarry	2507 JARRELL RD			GREENVILLE	GA	30222-3225	US		Happy Birthday!  We are thinking of you. Love, Chris, Courtney, Hunter and Ryleigh From Winters	false		
113-6666529-4145001	27818035884786	2020-05-19T19:24:43+00:00	2020-05-19T12:24:43-07:00	2020-05-19T19:51:56+00:00	2020-05-21T06:59:59+00:00	-2	n5tf0s2wdb3y8mx@marketplace.amazon.com	SANDRA J MESSERSMITH	+1 347-448-3190 ext. 47128	ABR0022	Arabella Farm Direct Bouquet of 12 Fresh Cut Pink Roses with a Free Glass Vase	1	0	1	SecondDay	Ora Richter	3164 NORTHWESTERN PIKE			WINCHESTER	VA	22603-3817	US		Hi Mom/Grandmom, we are thinking of you and sending sympathy on the loss of your dear brother, our Uncle John. We love you! From Sandi, Jason and Kailey	false		
114-8545252-2832243	68608749577434	2020-05-19T19:57:20+00:00	2020-05-19T12:57:20-07:00	2020-05-19T19:58:15+00:00	2020-05-23T06:59:59+00:00	-4	tlbx850d4jcv9d1@marketplace.amazon.com	anthony adduci	+1 210-728-4548 ext. 11716	ABSR003	Arabella Bouquets Fresh Cut Yellow Spray Roses in a Free Designer Glass Vase	1	0	1	Standard	cathy hankerson	7601 FARMINGTON WAY			MADISON	WI	53717-1812	US		Hi Cookie; May this be the best birthday yet !!  From; your SAGE Brother	false		
113-8279823-8965067	39076372925762	2020-05-19T19:34:39+00:00	2020-05-19T12:34:39-07:00	2020-05-19T20:00:38+00:00	2020-05-21T06:59:59+00:00	-2	nnsk0gxfb4qnxjk@marketplace.amazon.com	Keely M	+1 347-448-3190 ext. 89627	ABR0055	Arabella Farm Direct Bouquet of 12 Stems of Fresh Cut Hot Pink Roses in a Free Designer Glass Vase	1	0	1	SecondDay	Angie Vandermause	1107 2ND ST			KIEL	WI	53042-1131	US		We said a prayer for you today, that God would touch you with His healing hand and give you the comfort and strength you need to get through. Norah is remembered, Norah is missed, Norah is loved...Always From Brad, Keely & Family	false		
113-0076949-1048219	10457738926586	2020-05-19T19:42:09+00:00	2020-05-19T12:42:09-07:00	2020-05-19T20:03:38+00:00	2020-05-21T06:59:59+00:00	-2	5t0xp6k925x6kjs@marketplace.amazon.com	Evangelia Micas	+1 347-448-3190 ext. 30389	ABM0033	Arabella Farm Direct Bouquet of Fresh Cut White Hydrangea with a Free Glass Vase	1	0	1	SecondDay	Anna Mack	4321 LAUREL CANYON BLVD APT 205			STUDIO CITY	CA	91604-1779	US		Happy Birthday Anna! Love your cousins Kelley, Alexander and Bianca From Evangelia Micas	false		
111-1717829-1956229	29209816064546	2020-05-19T19:34:20+00:00	2020-05-19T12:34:20-07:00	2020-05-19T20:03:39+00:00	2020-05-21T06:59:59+00:00	-2	j03wtw17v51ym93@marketplace.amazon.com	Carolyn Knigge	+1 347-448-3190 ext. 78318	ABR0033	Arabella Farm Direct Bouquet of 12 Fresh Cut Orange Roses with a Free Glass Vase	1	0	1	SecondDay	Tammy Gindrup	1106 BUENA VISTA DR			DENTON	TX	76210-3832	US		Thinking of you this week... Love & hugs, Mom	false		
114-8242578-9324202	32832358435010	2020-05-19T19:46:43+00:00	2020-05-19T12:46:43-07:00	2020-05-19T20:09:05+00:00	2020-05-23T06:59:59+00:00	-4	yntrthppfk1sxq9@marketplace.amazon.com	Linda Vetten	303_344_1244	ABM010	Arabella Bouquets | Fields of The World Bouquet of Fresh Cut Flowers in a Free Designer Glass Vase	1	0	1	Standard	Janet Simon	2315 STOCKTON BLVD	UC DAVIS MEDICAL CENTER		SACRAMENTO	CA	95817-2201	US		Hi Janet, Enjoy your gift! From Linda Vetten,Andrea, Lee, Sandy, and Gramma Roberts Remember our love always goes with you!  Sending lots of hugs and kisses and prayers!	false		
114-7402956-7669016	02586148633362	2020-05-19T19:49:00+00:00	2020-05-19T12:49:00-07:00	2020-05-19T20:09:16+00:00	2020-05-21T06:59:59+00:00	-2	67dmpd63r5ll57h@marketplace.amazon.com	Albu Alin	0016784997832	ABM0033	Arabella Farm Direct Bouquet of Fresh Cut White Hydrangea with a Free Glass Vase	1	0	1	SecondDay	Alexandra Henry	778 Chelsea Park Dr			MARIETTA	GEORGIA	30068	US		La multi ani, draga noastra Alex! From Albu family	false		
111-7355851-3798660	06243133112114	2020-05-19T19:42:42+00:00	2020-05-19T12:42:42-07:00	2020-05-19T20:11:13+00:00	2020-05-21T06:59:59+00:00	-2	xcdf3kcssmflkqk@marketplace.amazon.com	jeff north	+1 314-282-9402 ext. 13820	ABR0022	Arabella Farm Direct Bouquet of 12 Fresh Cut Pink Roses with a Free Glass Vase	1	0	1	SecondDay	Daphany Bauer	375 E HINMAN AVE			COLUMBUS	OH	43207-1907	US		Call Me!!! 6145067513 Miss You! From jeff north	false		
111-2571950-6937033	26844611062314	2020-05-19T19:54:46+00:00	2020-05-19T12:54:46-07:00	2020-05-19T20:23:56+00:00	2020-05-21T06:59:59+00:00	-2	5g6drrlt7y2jkrd@marketplace.amazon.com	Darbie Everhart	+1 347-448-3190 ext. 44709	ABM010	Arabella Bouquets | Fields of The World Bouquet of Fresh Cut Flowers in a Free Designer Glass Vase	1	0	1	SecondDay	Kathleen Starr	5879 NEWBRIDGE DR			DUBLIN	OH	43017-2624	US		Enjoy your flowers!! Thank you so much for all your help with Dawson!! From Darbie, Scott and Dawson	false		
114-7647271-7124220	40462871373258	2020-05-19T19:56:28+00:00	2020-05-19T12:56:28-07:00	2020-05-19T20:24:43+00:00	2020-05-21T06:59:59+00:00	-2	dj6jxs4g7v3zzr5@marketplace.amazon.com	Adam Rosepink	+1 210-728-4548 ext. 43351	ABR0022	Arabella Farm Direct Bouquet of 12 Fresh Cut Pink Roses with a Free Glass Vase	1	0	1	SecondDay	Diana Duarte	1070 S HIGLEY RD			GILBERT	AZ	85296-2701	US		I know that it has been a long and tough week, but just know that I will always be there for you mi amor!!! From Adam Rosepink	false		
113-6963296-8556250	24421259350898	2020-05-19T20:06:29+00:00	2020-05-19T13:06:29-07:00	2020-05-19T20:28:38+00:00	2020-05-21T06:59:59+00:00	-2	ccwfb5zf2cylhk7@marketplace.amazon.com	Giuliana Ciminelli	+1 347-448-3190 ext. 00527	ABR0066	Arabella Bouquets | 12 Stems of Fresh Cut White Roses in a Free Designer Glass Vase	1	0	1	SecondDay	Gherardo Milanesi	20075 BASIL ST			DETROIT	MI	48235-1672	US		Un piccolo pensiero per te. Sono piena di difetti, ma ti voglio un mondo di bene. Mi impegno a migliorare, lo so che ce la faccio, te lo giuro, ma nel frattempo, mi aiuti?  Scusami di tutto il male che ho causato... :-* From Giuly	false		
111-5112328-6598601	52200895212978	2020-05-19T20:15:08+00:00	2020-05-19T13:15:08-07:00	2020-05-19T20:34:13+00:00	2020-05-21T06:59:59+00:00	-2	707kvbrvplr49sc@marketplace.amazon.com	Christen Shaffer	+1 347-448-3190 ext. 81325	ABM010	Arabella Bouquets | Fields of The World Bouquet of Fresh Cut Flowers in a Free Designer Glass Vase	1	0	1	SecondDay	Christel Johnson	868 KNOLLWOOD DR			WINDER	GA	30680-2825	US		Christel, Congratulations on your retirement!  Thank you for always being so sweet and helpful!  We will miss you!  Enjoy your time with your grandchildren. BRES 5th Grade - Christen, Bridget, Todd, and Dawn From Christen Shaffer	false		
112-2191063-1864264	62054492933290	2020-05-19T20:05:30+00:00	2020-05-19T13:05:30-07:00	2020-05-19T20:34:58+00:00	2020-05-21T06:59:59+00:00	-2	d8353d12pdvf1rb@marketplace.amazon.com	Ashley	+1 347-448-3190 ext. 03695	ABM010	Arabella Bouquets | Fields of The World Bouquet of Fresh Cut Flowers in a Free Designer Glass Vase	1	0	1	SecondDay	Maya and Christian Tuinstra	N9443 EMILY LN			APPLETON	WI	54915-8509	US		Thinking of you during this incredibly sad time. xoxo  We love you! Ashley, Eric & Arlo	false		
112-9940017-6804236	30879622019194	2020-05-19T20:12:16+00:00	2020-05-19T13:12:16-07:00	2020-05-19T20:35:47+00:00	2020-05-21T06:59:59+00:00	-2	1m98t2yjdky22td@marketplace.amazon.com	Danelle Chan	+1 347-448-3190 ext. 04137	ABR0066	Arabella Bouquets | 12 Stems of Fresh Cut White Roses in a Free Designer Glass Vase	1	0	1	SecondDay	Patricia Michell	4851 CADIZ CIR			PALM BEACH GARDENS	FL	33418-8983	US		PATRICIA, HAPPY BIRTHDAY!   HAVE A BLESSED DAY. WE LOVE YOU & MISS YOU. LOVE & KISSES, TOM & SHERRY	false		
113-6369985-7361069	61614500430698	2020-05-19T20:09:28+00:00	2020-05-19T13:09:28-07:00	2020-05-19T20:38:42+00:00	2020-05-21T06:59:59+00:00	-2	ymwkkwsxyv0tvdx@marketplace.amazon.com	ashley	+1 347-448-3190 ext. 63730	ABM0033	Arabella Farm Direct Bouquet of Fresh Cut White Hydrangea with a Free Glass Vase	1	0	1	SecondDay	Kelly Tyson	23411 SUMMERFIELD APT 59I			ALISO VIEJO	CA	92656-2842	US		Happy happy birthday!!! Love you!!! From ashley	false		
111-3012989-9561827	34112854218722	2020-05-19T20:30:49+00:00	2020-05-19T13:30:49-07:00	2020-05-19T20:40:43+00:00	2020-05-21T06:59:59+00:00	-2	ykmcjyp75whkd6g@marketplace.amazon.com	Carol Messier	+1 763-225-9463 ext. 31767	ABR0033	Arabella Farm Direct Bouquet of 12 Fresh Cut Orange Roses with a Free Glass Vase	1	0	1	SecondDay	Valerie Bortner	637 CAPESIDE DR			WILMINGTON	NC	28412-3035	US		Happy 60th Girlfriend!  I had to go with flowers this time, since I'm sure you can't go out to eat yet.  I hope they arrive before your birthday, and bloom on THE day.  Much love and best wishes for a great day! XO Carol From Carol Messier	false		
112-1214115-5626622	07301923505842	2020-05-19T20:19:52+00:00	2020-05-19T13:19:52-07:00	2020-05-19T20:49:37+00:00	2020-05-21T06:59:59+00:00	-2	xdnljf24h4rphsh@marketplace.amazon.com	Nicole Moline	+1 210-728-4548 ext. 33044	ABR0022	Arabella Farm Direct Bouquet of 12 Fresh Cut Pink Roses with a Free Glass Vase	1	0	1	SecondDay	Karen Strauch	5710 N SHEPHERD RD			ROSEBUSH	MI	48878-9752	US		Happy retirement! From Moline's	false		
111-3069055-4427463	28557933564754	2020-05-19T20:19:16+00:00	2020-05-19T13:19:16-07:00	2020-05-19T20:49:40+00:00	2020-05-21T06:59:59+00:00	-2	gmnf4hv3b47yqmd@marketplace.amazon.com	dean blikre	+1 314-282-9402 ext. 52260	ABR012	Arabella Farm Direct Bouquet of 18 Fresh Cut Pink Roses with a Free Glass Vase	1	0	1	SecondDay	Betty Kehoe	7505 PINTO DR SE			CALEDONIA	MI	49316-9771	US			false		
111-7270802-1949048	35566006494874	2020-05-19T20:22:10+00:00	2020-05-19T13:22:10-07:00	2020-05-19T20:51:08+00:00	2020-05-21T06:59:59+00:00	-2	6hx26y842w2fvwf@marketplace.amazon.com	Gregg	+1 210-728-4548 ext. 58566	ABR0022	Arabella Farm Direct Bouquet of 12 Fresh Cut Pink Roses with a Free Glass Vase	1	0	1	SecondDay	Serena Rector	607 VALDESE AVE APT E302			MORGANTON	NC	28655-2983	US		I miss you Victoria.  From Sean	false		
113-4629292-2019421	15155797485114	2020-05-19T20:20:08+00:00	2020-05-19T13:20:08-07:00	2020-05-19T20:51:41+00:00	2020-05-21T06:59:59+00:00	-2	czqgcz26ks8qr9l@marketplace.amazon.com	Edra	+1 347-448-3190 ext. 89158	ABR0066	Arabella Bouquets | 12 Stems of Fresh Cut White Roses in a Free Designer Glass Vase	1	0	1	SecondDay	Nena Nga Jacob	7318 SACKETT ST			PHILADELPHIA	PA	19152-4512	US			false		
112-8781880-8611455	55365580910650	2020-05-19T20:23:42+00:00	2020-05-19T13:23:42-07:00	2020-05-19T20:52:41+00:00	2020-05-21T06:59:59+00:00	-2	w0wnw2bswfqsxdw@marketplace.amazon.com	Tracey Fusco	+1 347-448-3190 ext. 36220	ABM010	Arabella Bouquets | Fields of The World Bouquet of Fresh Cut Flowers in a Free Designer Glass Vase	1	0	1	SecondDay	Perla Rolfe	15507 KINDER BLUFF LN			CYPRESS	TX	77429-0211	US		Perla Thank you for all you do.  I hope these brighten your day. Tracey	false		
111-6300511-0266636	61812078431706	2020-05-19T20:28:34+00:00	2020-05-19T13:28:34-07:00	2020-05-19T20:54:06+00:00	2020-05-21T06:59:59+00:00	-2	fw18j7cs7sy3ghy@marketplace.amazon.com	matt zamorano	+1 314-282-9402 ext. 14794	ABR0022	Arabella Farm Direct Bouquet of 12 Fresh Cut Pink Roses with a Free Glass Vase	1	0	1	SecondDay	Mom and Sister Jara	4503 TOUCAN ST			TORRANCE	CA	90503-2023	US			false		
111-9789563-3637818	50545499979474	2020-05-19T20:26:54+00:00	2020-05-19T13:26:54-07:00	2020-05-19T20:55:57+00:00	2020-05-21T06:59:59+00:00	-2	x7n1y13j0pm7cct@marketplace.amazon.com	Charlotte R. Baker	+1 314-282-9402 ext. 67364	ABR0055	Arabella Farm Direct Bouquet of 12 Stems of Fresh Cut Hot Pink Roses in a Free Designer Glass Vase	1	0	1	SecondDay	Mrs. Kim Carlton	16007 BLOOMING RD			CHESTERFIELD	VA	23832-1538	US		Happy Birthday BFF! Love, Charlotte	false		
112-9870264-9576233	45180719961658	2020-05-19T20:35:47+00:00	2020-05-19T13:35:47-07:00	2020-05-19T21:03:16+00:00	2020-05-21T06:59:59+00:00	-2	86k9v4ygnyt8l8x@marketplace.amazon.com	KIRSTEEN ROBERTSON	+1 210-728-4548 ext. 18745	ABR0055	Arabella Farm Direct Bouquet of 12 Stems of Fresh Cut Hot Pink Roses in a Free Designer Glass Vase	1	0	1	SecondDay	Joan McKechnie	10 HALFMOON CT			SPRING	TX	77380-4600	US		Happy birthday darling Joan xx Thinking of you all the time and missing you so much xx  All our love, Mark, Kirst, Blair, Alex, Scott, Jackie and Milly XXXXXXX From Love you xxxx	false		
112-6821685-5633008	19002107990322	2020-05-19T20:41:33+00:00	2020-05-19T13:41:33-07:00	2020-05-19T21:07:05+00:00	2020-05-21T06:59:59+00:00	-2	ss8q30tvvz95ljx@marketplace.amazon.com	David Rozen	+1 210-728-4548 ext. 07290	ABR0033	Arabella Farm Direct Bouquet of 12 Fresh Cut Orange Roses with a Free Glass Vase	1	0	1	SecondDay	Sarah Lichtenstein	2 SLEEPY HOLLOW LN			DIX HILLS	NY	11746-6110	US		Sarah: While we might be separated today, know that we're still celebrating with you! HAPPY BIRTHDAY! We love you! - David, Mark, Cuddles, Snuggles, Mindy, Jon, Samatha, Matthew & Zoey	false		
114-9230354-8142606	44532401611130	2020-05-19T20:38:35+00:00	2020-05-19T13:38:35-07:00	2020-05-19T21:08:17+00:00	2020-05-23T06:59:59+00:00	-4	cs0xhn31jwgtmxc@marketplace.amazon.com	Randee	+1 347-448-3190 ext. 90186	ABR0022	Arabella Farm Direct Bouquet of 12 Fresh Cut Pink Roses with a Free Glass Vase	1	0	1	Standard	L Lampell	39 CARLISLE DR			JACKSON	NJ	08527-6304	US			false		
113-6329026-0430634	38298003268642	2020-05-19T20:39:49+00:00	2020-05-19T13:39:49-07:00	2020-05-19T21:08:38+00:00	2020-05-21T06:59:59+00:00	-2	7fzt6stmnbzbt1r@marketplace.amazon.com	Steve Dennis	+1 347-448-3190 ext. 84278	ABR0055	Arabella Farm Direct Bouquet of 12 Stems of Fresh Cut Hot Pink Roses in a Free Designer Glass Vase	1	0	1	SecondDay	Marie Dennis	311 3RD ST NE			WASHINGTON	DC	20002-5745	US			false		
111-2994142-5016267	64598552226018	2020-05-19T20:39:48+00:00	2020-05-19T13:39:48-07:00	2020-05-19T21:09:35+00:00	2020-05-21T06:59:59+00:00	-2	w0k06n6bnggw1vb@marketplace.amazon.com	Kathryn A. Stibor	+1 314-282-9402 ext. 05243	ABM010	Arabella Bouquets | Fields of The World Bouquet of Fresh Cut Flowers in a Free Designer Glass Vase	1	0	1	SecondDay	Marie Stibor	2338 THOREAU DR			FORT COLLINS	CO	80524-1417	US			false		
114-6991984-2337060	41228190719490	2020-05-19T20:41:31+00:00	2020-05-19T13:41:31-07:00	2020-05-19T21:11:09+00:00	2020-05-21T06:59:59+00:00	-2	j9fvh3bg3xk5413@marketplace.amazon.com	Zyshawn Russell	+1 347-448-3190 ext. 47391	ABB013	Arabella Bouquets | 24 Stems of Fresh Cut White Roses in a Free Designer Glass Vase	1	0	1	SecondDay	Kailah Hickman	12729 HAMPTON HILL DR			RIVERVIEW	FL	33578-7593	US			false		
114-3544674-5105027	47100295009258	2020-05-19T20:51:23+00:00	2020-05-19T13:51:23-07:00	2020-05-19T21:11:44+00:00	2020-05-21T06:59:59+00:00	-2	v3k372msl7745bq@marketplace.amazon.com	jacques a girard	+1 314-282-9402 ext. 38112	ABM010	Arabella Bouquets | Fields of The World Bouquet of Fresh Cut Flowers in a Free Designer Glass Vase	1	0	1	SecondDay	Kathleen Mercogliano	537 W DOERR PATH			HERNANDO	FL	34442-5178	US		My Kathleen Anne, I Miss you very very very much. Love you always and forever. Jacques Andre	false		
112-7957152-9658636	05701084512018	2020-05-19T17:26:18+00:00	2020-05-19T10:26:18-07:00	2020-05-19T21:15:07+00:00	2020-05-23T06:59:59+00:00	-4	5s51hgq7dsn6lv7@marketplace.amazon.com	Kaito Sawada	+1 210-728-4548 ext. 03214	ABR0066	Arabella Bouquets | 12 Stems of Fresh Cut White Roses in a Free Designer Glass Vase	1	0	1	Standard	Deanna Whitely	437 E MAIN ST APT N2			BAY SHORE	NY	11706-8525	US		Hey baby, you deserve this. You have been more than enough for me so I hope this shows my gratitude towards you. Dun know how we ting set <3	false		
113-7770108-9809032	22439934165546	2020-05-19T20:45:55+00:00	2020-05-19T13:45:55-07:00	2020-05-19T21:18:21+00:00	2020-05-21T06:59:59+00:00	-2	czqgcz26ks8qr9l@marketplace.amazon.com	Edra	+1 347-448-3190 ext. 86733	ABR0066	Arabella Bouquets | 12 Stems of Fresh Cut White Roses in a Free Designer Glass Vase	1	0	1	SecondDay	Oma, Love Joey, Edra and Jacob	122 WILSON AVE			SEWELL	NJ	08080-4564	US			false		
111-9550639-0947408	54416368293018	2020-05-19T20:49:46+00:00	2020-05-19T13:49:46-07:00	2020-05-19T21:18:41+00:00	2020-05-21T06:59:59+00:00	-2	ws7zl7s3hkdz7k5@marketplace.amazon.com	Elaine E. Englehardt	+1 347-448-3190 ext. 85011	ABM010	Arabella Bouquets | Fields of The World Bouquet of Fresh Cut Flowers in a Free Designer Glass Vase	1	0	1	SecondDay	Kyra Pritchard	3325 IROQUOIS TRL			KALAMAZOO	MI	49006-2030	US		Happy Birthday to our wonderful Kyra.  We love you and wish you an abundance of health, happiness, brilliance and beauty!  Love G. Elaine and Papa Mike From Elaine E. Englehardt	false		
113-9792596-9005836	05791685973098	2020-05-19T20:51:43+00:00	2020-05-19T13:51:43-07:00	2020-05-19T21:19:08+00:00	2020-05-21T06:59:59+00:00	-2	0km67ytjb3cg985@marketplace.amazon.com	Ann	+1 347-448-3190 ext. 81272	ABR014	Arabella Bouquets 18 Stems of Fresh Cut White Roses in a Free Designer Glass Vase	1	0	1	SecondDay	Angela Silverstein	1789 READING ST			CROFTON	MD	21114-2605	US		Happiest birthday Aunt Angela! Love, Antoinette From Antoinette	false		
112-2276311-6298639	09944520796442	2020-05-19T20:49:44+00:00	2020-05-19T13:49:44-07:00	2020-05-19T21:19:43+00:00	2020-05-21T06:59:59+00:00	-2	ywrkkrkygw5ndcl@marketplace.amazon.com	Mary Dowling	+1 210-728-4548 ext. 97727	ABR0033	Arabella Farm Direct Bouquet of 12 Fresh Cut Orange Roses with a Free Glass Vase	1	0	1	SecondDay	Lenore Dowling	6152 COOLIDGE ST			DEARBORN HEIGHTS	MI	48127-2863	US		Happy Birthday!!! We love you! From Mary and Bill	false		
112-7836977-8917043	57641447638274	2020-05-19T20:57:21+00:00	2020-05-19T13:57:21-07:00	2020-05-19T21:27:29+00:00	2020-05-21T06:59:59+00:00	-2	pbv85j8q518phcn@marketplace.amazon.com	peggy	+1 314-282-9402 ext. 67784	ABR0033	Arabella Farm Direct Bouquet of 12 Fresh Cut Orange Roses with a Free Glass Vase	1	0	1	SecondDay	Tanis Christensen	12795 S CABRIOLET WAY			NAMPA	ID	83686-6326	US		Happy Birthday my Friend!  I hope you have a wonderful day- you deserve it!  We love & miss you! From Naff Family	false		
114-4121448-1131425	06201012111466	2020-05-19T20:57:24+00:00	2020-05-19T13:57:24-07:00	2020-05-19T21:27:33+00:00	2020-05-21T06:59:59+00:00	-2	8cdc4flvhpmskdg@marketplace.amazon.com	Leticia	+1 210-728-4548 ext. 81783	ABR0022	Arabella Farm Direct Bouquet of 12 Fresh Cut Pink Roses with a Free Glass Vase	1	0	1	SecondDay	Elenita Rubio	60 E MONROE ST UNIT 4601			CHICAGO	IL	60603-2765	US		Happy birthday!! From Love: Nate and Leticia	false		
114-6542124-4666625	65918549965826	2020-05-16T21:22:16+00:00	2020-05-16T14:22:16-07:00	2020-05-19T21:29:55+00:00	2020-05-21T06:59:59+00:00	-2	rm0pffygzwcc16m@marketplace.amazon.com	Nelly	+1 347-448-3190 ext. 09546	ABR0022	Arabella Farm Direct Bouquet of 12 Fresh Cut Pink Roses with a Free Glass Vase	1	0	1	SecondDay	Carmen Villalba	155100 BAYVIEW AVE			ROSEDALE	NY	11422-3118	US		Te amo Mamita  Nelly	false		
111-8536769-6688261	38113092551146	2020-05-19T21:18:36+00:00	2020-05-19T14:18:36-07:00	2020-05-19T21:35:21+00:00	2020-05-21T06:59:59+00:00	-2	1cwpsvpy655h1b6@marketplace.amazon.com	Richard Gordon II & Leslie Chang	+1 763-225-9463 ext. 58392	ABM0033	Arabella Farm Direct Bouquet of Fresh Cut White Hydrangea with a Free Glass Vase	1	0	1	SecondDay	Phuong Le-Lam	28 BOX TURTLE LN			SICKLERVILLE	NJ	08081-5683	US		So sorry you all have to go through such a tough time. If there's anything you guys need let us know.  Lots of love From Richard Gordon II & Leslie Chang	false		
112-0259532-2900264	09806786667842	2020-05-19T21:13:44+00:00	2020-05-19T14:13:44-07:00	2020-05-19T21:40:54+00:00	2020-05-21T06:59:59+00:00	-2	12w55v2f5b67xz3@marketplace.amazon.com	Nikhil Dhall	+1 347-448-3190 ext. 60834	ABR0022	Arabella Farm Direct Bouquet of 12 Fresh Cut Pink Roses with a Free Glass Vase	1	0	1	SecondDay	Sneha Mathew	4718 FOREST HOME DR			MISSOURI CITY	TX	77459-2766	US		Sneha,   Hope you're feeling better! Can't wait to see you soon.   Lots of Love,  Riya	false		
113-7510676-0241059	56010468229010	2020-05-19T21:17:29+00:00	2020-05-19T14:17:29-07:00	2020-05-19T21:44:16+00:00	2020-05-21T06:59:59+00:00	-2	mcpn6zd6jntnwfk@marketplace.amazon.com	audrey van kirk	+1 412-532-4665 ext. 75998	ABR0022	Arabella Farm Direct Bouquet of 12 Fresh Cut Pink Roses with a Free Glass Vase	1	0	1	SecondDay	Rachel Das	17 BRIDGET CIR			COHOES	NY	12047-3821	US		Enjoy your gift! Rachel, happy graduation! We are proud of you!, Love.  Audrey and Mike From audrey van kirk	false		
111-9918082-5923404	10721818986242	2020-05-19T21:20:10+00:00	2020-05-19T14:20:10-07:00	2020-05-19T21:46:28+00:00	2020-05-21T06:59:59+00:00	-2	b16dhxh28jbsdwq@marketplace.amazon.com	donna	+1 210-728-4548 ext. 53530	ABR0022	Arabella Farm Direct Bouquet of 12 Fresh Cut Pink Roses with a Free Glass Vase	1	0	1	SecondDay	MONIQUE RANDALL	544 GLENVILLE SCHOOL RD			GLENVILLE	NC	28736-8361	US		Hi MONIQUE, Welcome to your mountains!!!!!!!! Thank you for all you do for the MOUNTAIN DIVAS that all love you	true		
113-6391565-5825056	62799593013858	2020-05-19T21:20:41+00:00	2020-05-19T14:20:41-07:00	2020-05-19T21:48:50+00:00	2020-05-21T06:59:59+00:00	-2	8vb01n38wc4lm4f@marketplace.amazon.com	Dani Wisner	+1 347-448-3190 ext. 61039	ABR012	Arabella Farm Direct Bouquet of 18 Fresh Cut Pink Roses with a Free Glass Vase	1	0	1	SecondDay	Anna DeFord	287 NE KIRRA ST			HILLSBORO	OR	97124-2686	US		Happy Birthday,  Dear One! We love you!! From Dani,  Dan and Mom	false		
114-3841428-3744248	67246572799786	2020-05-19T21:24:40+00:00	2020-05-19T14:24:40-07:00	2020-05-19T21:52:03+00:00	2020-05-21T06:59:59+00:00	-2	hhttzfklrxp7rtt@marketplace.amazon.com	Marci GC	+1 347-448-3190 ext. 12135	ABR0022	Arabella Farm Direct Bouquet of 12 Fresh Cut Pink Roses with a Free Glass Vase	1	0	1	SecondDay	DanniRose Baertsch + Taylor Sanders	12222 19TH AVE SE APT 4			EVERETT	WA	98208-6229	US		Congratulations, Danni, Taylor and Baby!  Welcome to the world. From: Your Hoover Family From Hoover Peeps	false		
112-7767422-3014619	65516473892362	2020-05-19T21:10:04+00:00	2020-05-19T14:10:04-07:00	2020-05-19T21:52:27+00:00	2020-05-21T06:59:59+00:00	-2	6tcx8ljdgy9x2y8@marketplace.amazon.com	Nicholas Mills	+1 347-448-3190 ext. 79067	ABM010	Arabella Bouquets | Fields of The World Bouquet of Fresh Cut Flowers in a Free Designer Glass Vase	1	0	1	SecondDay	Margaret Mills	311 W MAIN ST			DENMARK	ME	04022-5215	US			false		
112-5696027-8887409	40302602502066	2020-05-19T21:26:55+00:00	2020-05-19T14:26:55-07:00	2020-05-19T21:57:30+00:00	2020-05-21T06:59:59+00:00	-2	5m1f15nc8dq1pbg@marketplace.amazon.com	Priscille Duvalsaint Garnett	+1 347-448-3190 ext. 80410	ABR0022	Arabella Farm Direct Bouquet of 12 Fresh Cut Pink Roses with a Free Glass Vase	1	0	1	SecondDay	Priscille Duvalsaint Garnett	1247 FAIRLAKE TRCE APT 1107			WESTON	FL	33326-2877	US			false		
112-6176935-7680259	32186111556602	2020-05-19T21:28:02+00:00	2020-05-19T14:28:02-07:00	2020-05-19T21:58:12+00:00	2020-05-21T06:59:59+00:00	-2	5m1f15nc8dq1pbg@marketplace.amazon.com	Priscille Duvalsaint Garnett	+1 210-728-4548 ext. 60860	ABR0066	Arabella Bouquets | 12 Stems of Fresh Cut White Roses in a Free Designer Glass Vase	1	0	1	SecondDay	Priscille Duvalsaint Garnett	1247 FAIRLAKE TRCE APT 1107			WESTON	FL	33326-2877	US			false		
111-7899493-1343403	64984363349082	2020-05-19T21:32:11+00:00	2020-05-19T14:32:11-07:00	2020-05-19T21:59:16+00:00	2020-05-21T06:59:59+00:00	-2	dy5j0jc2n6khkrk@marketplace.amazon.com	Steven D lesh	+1 314-282-9402 ext. 58304	ABR012	Arabella Farm Direct Bouquet of 18 Fresh Cut Pink Roses with a Free Glass Vase	1	0	1	SecondDay	Mr. and Mrs. Gary Opperman	187 LITTLE BRITAIN RD			NOTTINGHAM	PA	19362-1304	US			false		
114-7133806-9332228	12690826538618	2020-05-19T21:48:34+00:00	2020-05-19T14:48:34-07:00	2020-05-19T22:01:10+00:00	2020-05-21T06:59:59+00:00	-2	k3nc9lwn57sy7jb@marketplace.amazon.com	carlos bonnin	+1 347-448-3190 ext. 32878	ABM010	Arabella Bouquets | Fields of The World Bouquet of Fresh Cut Flowers in a Free Designer Glass Vase	1	0	1	SecondDay	Mair  bonnin	281 Bay Harbour Rd			Mooresville	North Carolina	28117	US		Happy Birthday Mair From Carlos and Haydee   Enjoy you day	false		
112-5658701-9058610	61591131831554	2020-05-19T22:08:42+00:00	2020-05-19T15:08:42-07:00	2020-05-19T22:09:47+00:00	2020-05-21T06:59:59+00:00	-2	7kz4kf0518tv6hx@marketplace.amazon.com	Lynne Mansfield	+1 412-532-4665 ext. 20960	ABM010	Arabella Bouquets | Fields of The World Bouquet of Fresh Cut Flowers in a Free Designer Glass Vase	1	0	1	SecondDay	Rita and Paul Fantaroni	26128 SAINT MICHAEL LN			BONITA SPRINGS	FL	34135-3118	US		Rita n Paul, So sorry about little Molly’s passing. Hope this bouquet replaces your loss with a bit of joy! We’ll  always remember Molly as one of the best cared for, sweetest doggies we’ve ever met! From Love, Lynne n Dave	false		
113-2906403-9458663	62187174162050	2020-05-19T21:39:49+00:00	2020-05-19T14:39:49-07:00	2020-05-19T22:10:19+00:00	2020-05-21T06:59:59+00:00	-2	wh0rnzrzj4nrsz4@marketplace.amazon.com	Nikki	+1 347-448-3190 ext. 85067	ABR004	Arabella Farm Direct Bouquet of 12 Fresh Cut Yellow Roses with a Free Glass Vase	1	0	1	SecondDay	Nikki Rogers	26 EVA ST			LATHAM	NY	12110-4224	US			false		
113-6561679-8224217	53553178976714	2020-05-19T21:40:24+00:00	2020-05-19T14:40:24-07:00	2020-05-19T22:10:35+00:00	2020-05-21T06:59:59+00:00	-2	059vtjhcymq59hf@marketplace.amazon.com	Mark Jagielski	+1 210-728-4548 ext. 02504	ABR0022	Arabella Farm Direct Bouquet of 12 Fresh Cut Pink Roses with a Free Glass Vase	1	0	1	SecondDay	Pam green	1846 FINEL HOLLOW RD			POULTNEY	VT	05764-9134	US			true		
113-6819127-7076200	69242568292082	2020-05-19T21:44:53+00:00	2020-05-19T14:44:53-07:00	2020-05-19T22:12:00+00:00	2020-05-21T06:59:59+00:00	-2	2jpv6q1zk067x4g@marketplace.amazon.com	Matt Pavich	+1 314-282-9402 ext. 96719	ABR0033	Arabella Farm Direct Bouquet of 12 Fresh Cut Orange Roses with a Free Glass Vase	1	0	1	SecondDay	Maria Pavich	52 high street			East Williston	New York	11596	US		Happy belated Mother’s Day  From Matt From Matt Pavich	false		
113-5174126-2425008	24365144194194	2020-05-19T21:48:00+00:00	2020-05-19T14:48:00-07:00	2020-05-19T22:18:14+00:00	2020-05-21T06:59:59+00:00	-2	kwhw19j746tl2js@marketplace.amazon.com	Hussain Dahodwala	+1 347-448-3190 ext. 04352	ABR0022	Arabella Farm Direct Bouquet of 12 Fresh Cut Pink Roses with a Free Glass Vase	1	0	1	SecondDay	Hussain Dahodwala	11 LUPINE RD			NATICK	MA	01760-2003	US			false		
114-1197052-2126657	41883266646386	2020-05-19T21:53:59+00:00	2020-05-19T14:53:59-07:00	2020-05-19T22:20:46+00:00	2020-05-21T06:59:59+00:00	-2	wwxq06r0bn4b1d6@marketplace.amazon.com	Allison Barkauskas	+1 314-282-9402 ext. 32673	ABM010	Arabella Bouquets | Fields of The World Bouquet of Fresh Cut Flowers in a Free Designer Glass Vase	1	0	1	SecondDay	Katie Pekkala	6 ABBOTT RD			MAYNARD	MA	01754-1572	US		We hope you feel better soon Katie!!! Sending lots of love from your favorite gals <3 From Al, Mad, Ken, Tilly & Dale	false		
111-8509583-6838635	23882812950778	2020-05-19T21:59:36+00:00	2020-05-19T14:59:36-07:00	2020-05-19T22:22:59+00:00	2020-05-21T06:59:59+00:00	-2	wj2dsw6k04v5lnp@marketplace.amazon.com	Sarah Shainfeld	+1 314-282-9402 ext. 30606	ABM010	Arabella Bouquets | Fields of The World Bouquet of Fresh Cut Flowers in a Free Designer Glass Vase	1	0	1	SecondDay	Lisa Meade	102 HUGHES RD			SCHUYLERVILLE	NY	12871-1843	US		Lisa, en los años que vienen te deseo paz, porque lo mereces. Aunque el corazón duele, tú brillas una luz que esparce y ilumina las vidas de tus hijos, colegas, y estudiantes. Abrazo fuerte, Sarah	false		
114-1557143-7421024	07276098105610	2020-05-19T21:54:25+00:00	2020-05-19T14:54:25-07:00	2020-05-19T22:25:25+00:00	2020-05-21T06:59:59+00:00	-2	36n8rbbl0rcznst@marketplace.amazon.com	JOHN B. ARMSTRONG	+1 210-728-4548 ext. 14139	ABR0022	Arabella Farm Direct Bouquet of 12 Fresh Cut Pink Roses with a Free Glass Vase	1	0	1	SecondDay	Rory Armstrong	1030 6TH ST			BOULDER	CO	80302-7157	US		Congratulations!! We loved hearing you sing!! love From Gammy and Papa	false		
112-2021792-7724264	30636054846802	2020-05-19T21:56:02+00:00	2020-05-19T14:56:02-07:00	2020-05-19T22:25:27+00:00	2020-05-21T06:59:59+00:00	-2	g2rrd45ds1wnvk6@marketplace.amazon.com	Grace	+1 210-728-4548 ext. 19851	ABR0022	Arabella Farm Direct Bouquet of 12 Fresh Cut Pink Roses with a Free Glass Vase	1	0	1	SecondDay	Elora Wall	1005 N HAMILTON ST APT F			RICHMOND	VA	23221-1234	US		Happy Birthday Elora! This is probably going to arrive late but love you 😘 From Grace	false		
111-7246661-2241031	38185238232386	2020-05-19T21:57:01+00:00	2020-05-19T14:57:01-07:00	2020-05-19T22:25:56+00:00	2020-05-21T06:59:59+00:00	-2	fw06z81fl5j4fq2@marketplace.amazon.com	Paul-Andre White	+1 347-448-3190 ext. 44778	ABM010	Arabella Bouquets | Fields of The World Bouquet of Fresh Cut Flowers in a Free Designer Glass Vase	1	0	1	SecondDay	Melissa Valentine	5526 DONNER AVE			BUENA PARK	CA	90621-1644	US			false		
114-4146658-9773850	66619583463474	2020-05-19T22:00:29+00:00	2020-05-19T15:00:29-07:00	2020-05-19T22:29:46+00:00	2020-05-21T06:59:59+00:00	-2	36n8rbbl0rcznst@marketplace.amazon.com	JOHN B. ARMSTRONG	+1 347-448-3190 ext. 63779	ABR004	Arabella Farm Direct Bouquet of 12 Fresh Cut Yellow Roses with a Free Glass Vase	1	0	1	SecondDay	Skylar Armstrong	1030 6TH ST			BOULDER	CO	80302-7157	US		Congratulations!  We loved hearing you sing. love, From Gammy and Papa	false		
113-1956631-1942664	16866298382154	2020-05-19T22:14:56+00:00	2020-05-19T15:14:56-07:00	2020-05-19T22:39:15+00:00	2020-05-21T06:59:59+00:00	-2	q9wmhtk8tpkp8tn@marketplace.amazon.com	Lawrence G Herringer	+1 210-728-4548 ext. 90585	ABM010	Arabella Bouquets | Fields of The World Bouquet of Fresh Cut Flowers in a Free Designer Glass Vase	1	0	1	SecondDay	Sue Herringer	26179 W RUNION DR			BUCKEYE	AZ	85396-7284	US		Happy Birthday Sue! We hope you have a wonderful day and get to spend it exactly the way you want. Love, Larry & Terry	false		
112-5252378-0175461	09464251186474	2020-05-19T22:12:33+00:00	2020-05-19T15:12:33-07:00	2020-05-19T22:43:01+00:00	2020-05-21T06:59:59+00:00	-2	dyv7g1qtws8wpsq@marketplace.amazon.com	Corbin	+1 763-225-9463 ext. 88940	ABM010	Arabella Bouquets | Fields of The World Bouquet of Fresh Cut Flowers in a Free Designer Glass Vase	1	0	1	SecondDay	Corbin barney	1008 E PLATINUM WAY			SANDY	UT	84094-4605	US			false		
113-0807304-0018613	51457435410730	2020-05-19T22:15:13+00:00	2020-05-19T15:15:13-07:00	2020-05-19T22:43:10+00:00	2020-05-21T06:59:59+00:00	-2	26trz5n7wq2q894@marketplace.amazon.com	joann munch	+1 347-448-3190 ext. 50208	ABR0033	Arabella Farm Direct Bouquet of 12 Fresh Cut Orange Roses with a Free Glass Vase	1	0	1	SecondDay	Sylvia Augusto	651 OAKMONT CT			LODI	CA	95242-4682	US		Sylvia, Happy 60th Birthday !!!  We hope your day is as special as you are ! Hope to ‘see’ you soon ! Our Love and Hugs,  Joann, Chuck & Finley !	false		
114-8763978-8477843	57578336540922	2020-05-19T22:22:52+00:00	2020-05-19T15:22:52-07:00	2020-05-19T22:49:55+00:00	2020-05-21T06:59:59+00:00	-2	b389hknm1nlj2vq@marketplace.amazon.com	Sneha Patel	+1 314-282-9402 ext. 14743	ABR0066	Arabella Bouquets | 12 Stems of Fresh Cut White Roses in a Free Designer Glass Vase	1	0	1	SecondDay	Jennifer Williams	305 HURLEY AVE APT 25J			KINGSTON	NY	12401-6810	US		Dear Jenn,  So so sorry for your loss! Condolences to you and family!  From: Team Williams, Sneha, and Debbie From Sneha Patel	false		
113-9356503-3412241	30480366008098	2020-05-19T22:22:02+00:00	2020-05-19T15:22:02-07:00	2020-05-19T22:49:56+00:00	2020-05-21T06:59:59+00:00	-2	nns3dp1bg2hsz53@marketplace.amazon.com	Jonathan Webb	+1 210-728-4548 ext. 38592	ABR001	Arabella Bouquets 12 Stems of Fresh Cut Red Roses in a Free Designer Glass Vase	1	0	1	SecondDay	Vicky Webb	905 HOLLYWOOD AVE			DES PLAINES	IL	60016-3214	US		Hi Vicky, Happy Anniversary! From Jonathan	false		
112-8329911-2718605	58074305104490	2020-05-19T22:21:30+00:00	2020-05-19T15:21:30-07:00	2020-05-19T22:51:58+00:00	2020-05-23T06:59:59+00:00	-4	r887pryfw7tf2bb@marketplace.amazon.com	Seamus Owens	+1 412-532-4665 ext. 76697	ABR0022	Arabella Farm Direct Bouquet of 12 Fresh Cut Pink Roses with a Free Glass Vase	1	0	1	Expedited	Whitney Owens	4771 FARNDON CT			FAIRFAX	VA	22032-1912	US			false		
113-4046035-7013800	66710457501826	2020-05-19T22:24:18+00:00	2020-05-19T15:24:18-07:00	2020-05-19T22:54:11+00:00	2020-05-21T06:59:59+00:00	-2	tx85ffghwbnk5mv@marketplace.amazon.com	Lizzie Braidwood	+1 412-532-4665 ext. 37238	ABR014	Arabella Bouquets 18 Stems of Fresh Cut White Roses in a Free Designer Glass Vase	1	0	1	SecondDay	Jaelyn Daniella Rose	9730 SW 35TH DR APT 10			PORTLAND	OR	97219-6122	US		I love you From Lizzie x	false		
