order-id	order-item-id	purchase-date	payments-date	reporting-date	promise-date	days-past-promise	buyer-email	buyer-name	buyer-phone-number	sku	product-name	quantity-purchased	quantity-shipped	quantity-to-ship	ship-service-level	recipient-name	ship-address-1	ship-address-2	ship-address-3	ship-city	ship-state	ship-postal-code	ship-country	gift-wrap-type	gift-message-text	is-business-order	purchase-order-number	price-designation
114-7411663-6513052	28277857907642	2020-05-19T14:47:20+00:00	2020-05-19T07:47:20-07:00	2020-05-19T15:17:49+00:00	2020-05-23T06:59:59+00:00	-4	kg07htm330lq4gm@marketplace.amazon.com	Leo DiSanto	+1 347-448-3190 ext. 16787	ABR0022	Arabella Farm Direct Bouquet of 12 Fresh Cut Pink Roses with a Free Glass Vase	1	0	1	Expedited	Leo DiSanto	39 MIDLAND AVE			KEARNY	NJ	07032-2210	US			false		
111-0248239-9224223	69659196910026	2020-05-19T15:04:18+00:00	2020-05-19T08:04:18-07:00	2020-05-19T15:34:32+00:00	2020-05-23T06:59:59+00:00	-4	hqf35jtlwc8l8vn@marketplace.amazon.com	Rachel	+1 347-448-3190 ext. 11662	ABR0022	Arabella Farm Direct Bouquet of 12 Fresh Cut Pink Roses with a Free Glass Vase	1	0	1	Expedited	Joan Gates	487 MILL HOLLOW RD			JEWETT	NY	12444-5628	US			false		
111-2888229-2214623	25389323206418	2020-05-19T16:17:50+00:00	2020-05-19T09:17:50-07:00	2020-05-19T16:37:20+00:00	2020-05-23T06:59:59+00:00	-4	zrgmmbdk11zjrqk@marketplace.amazon.com	Ilene Kenney	+1 347-448-3190 ext. 73855	ABR0022	Arabella Farm Direct Bouquet of 12 Fresh Cut Pink Roses with a Free Glass Vase	1	0	1	Expedited	Jenifer Hammond	122 E BROOKLYN AVE			DALLAS	TX	75203-2812	US		Dear Jenifer You are in our thoughts and prayers. Love, Paul and Ilene From Ilene Kenney	false		
111-1238396-5943438	36721875628914	2020-05-19T16:41:45+00:00	2020-05-19T09:41:45-07:00	2020-05-19T17:07:51+00:00	2020-05-23T06:59:59+00:00	-4	p27th2lgx8zm9y5@marketplace.amazon.com	Ron	+1 347-448-3190 ext. 36582	ABR0022	Arabella Farm Direct Bouquet of 12 Fresh Cut Pink Roses with a Free Glass Vase	1	0	1	Expedited	Rachael Bartlett	123 RICHARDSON AVE			UTICA	NY	13502-5924	US		Good luck, and have a wonderful day! From Rony LeRouge	false		
112-0548884-4939421	55969402090578	2020-05-19T16:55:21+00:00	2020-05-19T09:55:21-07:00	2020-05-19T17:24:47+00:00	2020-05-23T06:59:59+00:00	-4	p7930sz8xcqfp77@marketplace.amazon.com	Kevin	+1 210-728-4548 ext. 19431	ABR0022	Arabella Farm Direct Bouquet of 12 Fresh Cut Pink Roses with a Free Glass Vase	1	0	1	Expedited	Judy Lambert	1309 TEENAJO DR SE			HUNTSVILLE	AL	35803-2432	US		I miss you and love you mommy! From Your Daughter, Renee	false		
114-0578140-9273823	31580591979082	2020-05-19T17:16:40+00:00	2020-05-19T10:16:40-07:00	2020-05-19T17:45:38+00:00	2020-05-23T06:59:59+00:00	-4	1plq7w6tshygvsh@marketplace.amazon.com	hunter datzker	+1 210-728-4548 ext. 97270	ABR0022	Arabella Farm Direct Bouquet of 12 Fresh Cut Pink Roses with a Free Glass Vase	1	0	1	Expedited	krista marie clarkson	92 W 680 S			OREM	UT	84058-3123	US			false		
111-6667225-6561820	63774225073258	2020-05-19T17:57:26+00:00	2020-05-19T10:57:26-07:00	2020-05-19T18:18:30+00:00	2020-05-21T06:59:59+00:00	-2	m9q6x8pd46lfr0f@marketplace.amazon.com	steven j. schultz	+1 347-448-3190 ext. 58112	ABM010	Arabella Bouquets | Fields of The World Bouquet of Fresh Cut Flowers in a Free Designer Glass Vase	1	0	1	SecondDay	John F. Schultz	500 MARIS GROVE WAY ROSE COURT	RM 218		GLEN MILLS	PA	19342-3371	US		Pop, Sorry we can't be with you right now, but we wanted to send something to brighten your day and your room a little. We love you lots! Diane, Steve, Matthew & Nick From steven j. schultz	false		
111-5764979-2649826	09320405289498	2020-05-19T17:50:36+00:00	2020-05-19T10:50:36-07:00	2020-05-19T18:19:31+00:00	2020-05-21T06:59:59+00:00	-2	0677jlgcjhlhvp1@marketplace.amazon.com	Donghao Wang	+1 314-282-9402 ext. 83409	ABB013	Arabella Bouquets | 24 Stems of Fresh Cut White Roses in a Free Designer Glass Vase	1	0	1	SecondDay	Hong Wang	294 SPRINGDALE RD			PRINCETON	NJ	08540-4935	US		Dear Hong, Happy Birthday! From Donghao Wang	false		
111-1318483-9869823	54745697488946	2020-05-19T17:58:40+00:00	2020-05-19T10:58:40-07:00	2020-05-19T18:21:11+00:00	2020-05-23T06:59:59+00:00	-4	dm2ftzhw6c4xnbx@marketplace.amazon.com	taohuay bullock	+1 210-728-4548 ext. 98256	ABR001	Arabella Bouquets 12 Stems of Fresh Cut Red Roses in a Free Designer Glass Vase	1	0	1	Standard	taohuay bullock	12381 Terria Inca			El Paso	TX	79938	US		Hi, Happy Birthday.  I love you! From Anthony Hall	false		
111-3426569-6765053	31594735619490	2020-05-19T17:56:27+00:00	2020-05-19T10:56:27-07:00	2020-05-19T18:21:16+00:00	2020-05-21T06:59:59+00:00	-2	33b1r2qc78xfbzs@marketplace.amazon.com	Haekyong S. Nott	+1 347-448-3190 ext. 63688	ABM010	Arabella Bouquets | Fields of The World Bouquet of Fresh Cut Flowers in a Free Designer Glass Vase	1	0	1	SecondDay	Frances Nott	3001 SW 18TH TER LOT 126			FORT LAUDERDALE	FL	33315-2747	US			false		
112-9654504-6546639	13188305054850	2020-05-19T17:56:08+00:00	2020-05-19T10:56:08-07:00	2020-05-19T18:23:35+00:00	2020-05-21T06:59:59+00:00	-2	wv36cv4s98k21jp@marketplace.amazon.com	jean r mckay	+1 210-728-4548 ext. 72672	ABM010	Arabella Bouquets | Fields of The World Bouquet of Fresh Cut Flowers in a Free Designer Glass Vase	1	0	1	SecondDay	Becky Kilgus	102 CUNNINGHAM DR			GREER	SC	29650-1617	US		So thankful for your dear friendship, and have been praying for you at this time.  You are a delight! love, Jean	false		
113-1361621-3913808	44507102379674	2020-05-19T18:00:24+00:00	2020-05-19T11:00:24-07:00	2020-05-19T18:27:37+00:00	2020-05-23T06:59:59+00:00	-4	0jcj6m3nyn7q2q4@marketplace.amazon.com	ALMA	+1 347-448-3190 ext. 67925	ABR0022	Arabella Farm Direct Bouquet of 12 Fresh Cut Pink Roses with a Free Glass Vase	1	0	1	Expedited	PEGGY GOMEZ	13961 BRENAN WAY			NORTH TUSTIN	CA	92705-2714	US		Congratulations on your graduation my sweetest granddaughter MORGAN!  GG is very very proud of you! Thank you for all the hard work- I LOVE YOU!	false		
114-7040562-2044234	00730813380906	2020-05-19T18:00:58+00:00	2020-05-19T11:00:58-07:00	2020-05-19T18:27:44+00:00	2020-05-23T06:59:59+00:00	-4	wpbz564dc8b0mdf@marketplace.amazon.com	Olivia	+1 210-728-4548 ext. 01396	ABR0022	Arabella Farm Direct Bouquet of 12 Fresh Cut Pink Roses with a Free Glass Vase	1	0	1	Expedited	Brooke Burki	18682 VALE AVE			SANTA ANA	CA	92705-2158	US		Happy Birthday, Brooklynn!! Cheers to you and an amazing year ahead!! Love and miss you tons!! From Love, OJ	false		
113-0312088-1881010	03035519092858	2020-05-19T18:02:12+00:00	2020-05-19T11:02:12-07:00	2020-05-19T18:31:39+00:00	2020-05-23T06:59:59+00:00	-4	d8t4rhwf5v5vp56@marketplace.amazon.com	Amy E. Moody	+1 412-532-4665 ext. 40914	ABR0022	Arabella Farm Direct Bouquet of 12 Fresh Cut Pink Roses with a Free Glass Vase	1	0	1	Expedited	Kathy Davis	4212 DON ARELLANES DR			LOS ANGELES	CA	90008-4203	US		Happy Birthday! From Amy E. Burke	false		
114-6309802-8763429	48392732439458	2020-05-19T18:03:30+00:00	2020-05-19T11:03:30-07:00	2020-05-19T18:32:51+00:00	2020-05-23T06:59:59+00:00	-4	vfh47jws128l00l@marketplace.amazon.com	JASON A FRENTZEL	+1 314-282-9402 ext. 67493	ABR0022	Arabella Farm Direct Bouquet of 12 Fresh Cut Pink Roses with a Free Glass Vase	1	0	1	Expedited	Kathi Karsnitz	202 HERONWOOD LN			MILTON	DE	19968-3662	US		Happy Birthday Aunt Kathi! We love and miss you! From Nat, Jason and Edison	false		
114-8233109-2503442	61342475202554	2020-05-19T18:16:21+00:00	2020-05-19T11:16:21-07:00	2020-05-19T18:33:53+00:00	2020-05-21T06:59:59+00:00	-2	jg7wjb3f73z1sk4@marketplace.amazon.com	Lisa A. Perry	+1 314-282-9402 ext. 86149	ABM010	Arabella Bouquets | Fields of The World Bouquet of Fresh Cut Flowers in a Free Designer Glass Vase	1	0	1	SecondDay	Sharon Walker	503 Bromley Brook Road			Manchester Center	VT	05255	US		We were thinking about you and wanted to send a little sunshine to brighten your day.  Hope you are feeling better.  Love, Paul & Lisa	false		
113-8579717-8211434	26385117199058	2020-05-19T18:08:02+00:00	2020-05-19T11:08:02-07:00	2020-05-19T18:34:37+00:00	2020-05-21T06:59:59+00:00	-2	t33tk8q1vzf4sss@marketplace.amazon.com	Sandy Olsen	+1 210-728-4548 ext. 46487	ABM010	Arabella Bouquets | Fields of The World Bouquet of Fresh Cut Flowers in a Free Designer Glass Vase	1	0	1	SecondDay	Mrs Elizabeth Barbolt	1012 HUDSON AVE			STILLWATER	NY	12170-3431	US		Dearest Aunt Betty,  wishing you a belated Happy Birthday.  I am forever thinking of you.  Much love,   Sandy From Sandy Olsen	false		
114-2903271-3147429	26996031670706	2020-05-19T18:07:25+00:00	2020-05-19T11:07:25-07:00	2020-05-19T18:37:20+00:00	2020-05-21T06:59:59+00:00	-2	9nq1h8vczv6gxkj@marketplace.amazon.com	Carrie Lockwood	+1 347-448-3190 ext. 16217	ABR014	Arabella Bouquets 18 Stems of Fresh Cut White Roses in a Free Designer Glass Vase	1	0	1	SecondDay	Elaine Mrugala	11179 TREVETT RD			SPRINGVILLE	NY	14141-9535	US			false		
111-4052119-4563415	23225826700474	2020-05-19T18:12:40+00:00	2020-05-19T11:12:40-07:00	2020-05-19T18:39:21+00:00	2020-05-23T06:59:59+00:00	-4	ns51kt57djgm61s@marketplace.amazon.com	Fareed Yasin	+1 314-282-9402 ext. 14068	ABR0022	Arabella Farm Direct Bouquet of 12 Fresh Cut Pink Roses with a Free Glass Vase	1	0	1	Expedited	Java Juice House	1061 HAMILTON PL DR			JOHNSON CITY	TN	37604-7917	US		Happy Birthday from your LOVELY Husband! Love You	false		
114-2020713-3876204	69381934614490	2020-05-19T18:11:10+00:00	2020-05-19T11:11:10-07:00	2020-05-19T18:39:21+00:00	2020-05-21T06:59:59+00:00	-2	ysfsxtcdktfg6mc@marketplace.amazon.com	Laura benson	+1 347-448-3190 ext. 84729	ABM010	Arabella Bouquets | Fields of The World Bouquet of Fresh Cut Flowers in a Free Designer Glass Vase	1	0	1	SecondDay	Roxanne Leach	46 Hampshire Drive			Hamden	CT	06518-2104	US		Happy belated birthday Roxanne!  Love, Laura, Tim, Nick, Natalie, & Timmy From Laura benson	false		
112-0100084-6986662	44547334670386	2020-05-19T18:14:27+00:00	2020-05-19T11:14:27-07:00	2020-05-19T18:39:33+00:00	2020-05-23T06:59:59+00:00	-4	01tzvpk1c52vhv7@marketplace.amazon.com	David Kawakami	+1 210-728-4548 ext. 06844	ABR0022	Arabella Farm Direct Bouquet of 12 Fresh Cut Pink Roses with a Free Glass Vase	1	0	1	Expedited	David Kawakami	4587 TILBURY DR			SAN JOSE	CA	95130-2067	US		Happy Anniversary Cindy  Love David	false		
111-4478719-7431416	27589505234266	2020-05-19T17:24:54+00:00	2020-05-19T10:24:54-07:00	2020-05-19T18:41:02+00:00	2020-05-21T06:59:59+00:00	-2	z03w6wbtf7yck4h@marketplace.amazon.com	David Pham	+1 314-282-9402 ext. 90717	ABR001	Arabella Bouquets 12 Stems of Fresh Cut Red Roses in a Free Designer Glass Vase	1	0	1	SecondDay	Lorna Handy	3016 CANTON RD			MARIETTA	GA	30066-3884	US			false		
114-9263493-5284204	03128730160962	2020-05-19T18:35:50+00:00	2020-05-19T11:35:50-07:00	2020-05-19T18:43:35+00:00	2020-05-21T06:59:59+00:00	-2	y7tlvsnmbsj2k0q@marketplace.amazon.com	janet schofield	+1 347-448-3190 ext. 58514	ABM010	Arabella Bouquets | Fields of The World Bouquet of Fresh Cut Flowers in a Free Designer Glass Vase	1	0	1	SecondDay	Mr. Paul Andrews	7 STONEMAN AVE			LAKEWOOD	NY	14750-1023	US		This our most sincere condolences on your loss. From Janet  and Doug Schofield	false		
114-1516706-3961862	64919435649338	2020-05-19T18:17:37+00:00	2020-05-19T11:17:37-07:00	2020-05-19T18:45:13+00:00	2020-05-21T06:59:59+00:00	-2	ywn8cq1p4nsvh2r@marketplace.amazon.com	Lana Machwitz	+1 314-282-9402 ext. 29938	ABR001	Arabella Bouquets 12 Stems of Fresh Cut Red Roses in a Free Designer Glass Vase	1	0	1	SecondDay	Henrietta mignone	330 SE 2ND ST APT 203G			HALLANDALE BEACH	FL	33009-5689	US		Hi Henrietta, Enjoy your gift! From Lana Machwitz	false		
112-6544761-9712259	06021472592042	2020-05-19T18:22:16+00:00	2020-05-19T11:22:16-07:00	2020-05-19T18:52:36+00:00	2020-05-21T06:59:59+00:00	-2	rlmr21nrcqdbyyg@marketplace.amazon.com	Joseph Brennan	+1 314-282-9402 ext. 75066	ABR0022	Arabella Farm Direct Bouquet of 12 Fresh Cut Pink Roses with a Free Glass Vase	1	0	1	SecondDay	Erin Brennan	30 CROUSE RD			ALEXANDRIA	NH	03222-6547	US			false		
112-7010538-2825830	07492838512962	2020-05-19T18:25:32+00:00	2020-05-19T11:25:32-07:00	2020-05-19T18:54:55+00:00	2020-05-21T06:59:59+00:00	-2	tp02553bb1wcyzv@marketplace.amazon.com	Thomas Kollig	+1 210-728-4548 ext. 23356	ABR012	Arabella Farm Direct Bouquet of 18 Fresh Cut Pink Roses with a Free Glass Vase	1	0	1	SecondDay	Doris Ledbetter	6323 EVERGREEN DR			SOUTHAVEN	MS	38671-8832	US		Hi Mom, Grandma, Doris,  Hope you have a happy birthday weekend!  Love, Gail, Faye & Sara, Thomas	false		
112-3583714-6020246	30216668555546	2020-05-19T18:30:15+00:00	2020-05-19T11:30:15-07:00	2020-05-19T18:58:43+00:00	2020-05-21T06:59:59+00:00	-2	2h23k8mrsdhvj3w@marketplace.amazon.com	Ralph	+1 210-728-4548 ext. 75917	ABR0022	Arabella Farm Direct Bouquet of 12 Fresh Cut Pink Roses with a Free Glass Vase	1	0	1	SecondDay	Leslie Hope	23228 SE 15TH CT			SAMMAMISH	WA	98075-8123	US		Thinking about that special day!! It wasn't so long ago! From Love, Ralph	false		
111-6140943-1343434	15850020601890	2020-05-19T18:31:13+00:00	2020-05-19T11:31:13-07:00	2020-05-19T19:00:57+00:00	2020-05-21T06:59:59+00:00	-2	hm80rbvl43tqzqd@marketplace.amazon.com	stephen adams	+1 347-448-3190 ext. 61506	ABR0022	Arabella Farm Direct Bouquet of 12 Fresh Cut Pink Roses with a Free Glass Vase	1	0	1	SecondDay	Linda Adams	17345 BITTERSWEET TRL			CHAGRIN FALLS	OH	44023-5700	US		Mom, something to brighten your day!  Love, Steve From stephen adams	false		
111-8562459-1157012	02832210884466	2020-05-19T18:31:05+00:00	2020-05-19T11:31:05-07:00	2020-05-19T19:01:41+00:00	2020-05-21T06:59:59+00:00	-2	4vs6jlxs5xjhwvr@marketplace.amazon.com	James Gilroy	+1 347-448-3190 ext. 04824	ABR0022	Arabella Farm Direct Bouquet of 12 Fresh Cut Pink Roses with a Free Glass Vase	1	0	1	SecondDay	James C Gilroy	25791 BAY MEADOWS WAY			MURRIETA	CA	92562-9378	US			false		
114-4803518-3499405	51249209323354	2020-05-19T18:37:01+00:00	2020-05-19T11:37:01-07:00	2020-05-19T19:02:23+00:00	2020-05-21T06:59:59+00:00	-2	1hb9hcxw7386r6c@marketplace.amazon.com	Suzanne Barton	+1 210-728-4548 ext. 75060	ABM0044	Arabella Farm Direct Bouquet of Fresh Cut Blue Hydrangea with a Free Glass Vase	1	0	1	SecondDay	Mrs Betty Barton	395 REDDING RD APT 42			LEXINGTON	KY	40517-2369	US		Happy Birthday Betty!  Lots of love on your special day!  Love, Michael and Suzanne	false		
112-4710852-0741854	09199172492346	2020-05-19T18:51:17+00:00	2020-05-19T11:51:17-07:00	2020-05-19T19:03:43+00:00	2020-05-21T06:59:59+00:00	-2	9l9r3rydn0jwnsx@marketplace.amazon.com	Eli K. Barlow	+1 314-282-9402 ext. 68563	ABR0022	Arabella Farm Direct Bouquet of 12 Fresh Cut Pink Roses with a Free Glass Vase	1	0	1	SecondDay	Father Stephen Roman	4931 35th Ave SW	Providence Mount Saint Vincent, Room # 315 North		Seattle	WA	98126	US		Hi Father, Steve,  Congratulations on your 63rd Priestly Anniversary!  I so enjoyed our phone conversation. Enjoy your gift! From Eli K. Barlow	false		
113-5782849-1836269	44817858576826	2020-05-19T18:34:09+00:00	2020-05-19T11:34:09-07:00	2020-05-19T19:03:51+00:00	2020-05-21T06:59:59+00:00	-2	rth6rqs4trvf5jv@marketplace.amazon.com	John Weldon Brewster JR	+1 210-728-4548 ext. 04736	ABR0033	Arabella Farm Direct Bouquet of 12 Fresh Cut Orange Roses with a Free Glass Vase	1	0	1	SecondDay	Pam Brewster	1881 E CREEK DR			DRIPPING SPRINGS	TX	78620-4239	US		Happy Birthday !!  Love Weldon, Renée, Buzzy and Piper	false		
113-0369825-7231422	03322314684842	2020-05-19T18:40:10+00:00	2020-05-19T11:40:10-07:00	2020-05-19T19:05:37+00:00	2020-05-21T06:59:59+00:00	-2	5mg9sjfq8ft8x12@marketplace.amazon.com	Laura Weldon	+1 314-282-9402 ext. 87205	ABR0033	Arabella Farm Direct Bouquet of 12 Fresh Cut Orange Roses with a Free Glass Vase	1	0	1	SecondDay	Stephanie Lehman	7574 DELAWARE LN			VANCOUVER	WA	98664-2165	US		We hope you are feeling better very soon.  Rest up my friend.  .  We love you  Laura Izzy Joey and Jack From Laura Weldon	false		
112-2455847-6543426	45011873941178	2020-05-19T19:03:26+00:00	2020-05-19T12:03:26-07:00	2020-05-19T19:07:51+00:00	2020-05-21T06:59:59+00:00	-2	2cmtrbrltmlsk97@marketplace.amazon.com	Lisa K. Scott	+1 347-448-3190 ext. 49698	ABM0044	Arabella Farm Direct Bouquet of Fresh Cut Blue Hydrangea with a Free Glass Vase	1	0	1	SecondDay	Andressa and James Bryant	5339 BOULWARE CT			CHARLOTTE	NC	28277-9645	US		Enjoy your day, Mom and  Dad! From Lisa K. Scott	false		
112-1486251-0273021	53511443049594	2020-05-19T18:49:30+00:00	2020-05-19T11:49:30-07:00	2020-05-19T19:08:05+00:00	2020-05-21T06:59:59+00:00	-2	xgs1zg7pf96z41v@marketplace.amazon.com	Atika Begum	+1 210-728-4548 ext. 74181	ABR0022	Arabella Farm Direct Bouquet of 12 Fresh Cut Pink Roses with a Free Glass Vase	1	0	1	SecondDay	Zeenat Jahan	2563 Xenia st			Denver	co	80238	US		Hi Monu Khala, I am so proud of you for completing the treatment as a real fighter. Stay healthy to keep our friendship alive for many more years to come. We need to grow old to spend time with our grand children! Luna	false		
113-0863742-9561033	17644053289794	2020-05-19T19:01:27+00:00	2020-05-19T12:01:27-07:00	2020-05-19T19:08:42+00:00	2020-05-21T06:59:59+00:00	-2	0r59pgbr0nxzd9p@marketplace.amazon.com	Harry Lowell Oakley	+1 210-728-4548 ext. 30313	ABR0022	Arabella Farm Direct Bouquet of 12 Fresh Cut Pink Roses with a Free Glass Vase	1	0	1	SecondDay	Lowell Oakley	23 GRANVILLE WAY			BASKING RIDGE	NJ	07920-2546	US		Surprise!! Hahahaha Lowell	false		
112-2335204-5807450	52409403576482	2020-05-19T18:48:29+00:00	2020-05-19T11:48:29-07:00	2020-05-19T19:14:11+00:00	2020-05-21T06:59:59+00:00	-2	7zhp6vm3rgvd67k@marketplace.amazon.com	craig kay	+1 314-282-9402 ext. 17121	ABR0022	Arabella Farm Direct Bouquet of 12 Fresh Cut Pink Roses with a Free Glass Vase	1	0	1	SecondDay	Ruth Caratala Vargas	20222 SENDERA OAKS LN			CYPRESS	TX	77433-2050	US		We are so sorry about your abuela. I know how much she meant To you.  Jehovah will call and she will answer soon Ruth! Love Alexandra, Sophia, craig From kay family	false		
113-7785449-7136236	10092276544018	2020-05-19T18:48:06+00:00	2020-05-19T11:48:06-07:00	2020-05-19T19:14:20+00:00	2020-05-21T06:59:59+00:00	-2	6hqv787bt6t1zjv@marketplace.amazon.com	Stuart Wolf	+1 210-728-4548 ext. 37054	ABR0055	Arabella Farm Direct Bouquet of 12 Stems of Fresh Cut Hot Pink Roses in a Free Designer Glass Vase	1	0	1	SecondDay	Barbara Rubin	200 JENNY GAY CT			SEVERN	MD	21144-3450	US		Happy Birthday.  Hope the brighten up your day.  Next time we’ll celebrate with coffee cups in hand😊😊 From Iris	false		
112-3343722-6997068	58882457885578	2020-05-19T18:47:11+00:00	2020-05-19T11:47:11-07:00	2020-05-19T19:14:45+00:00	2020-05-21T06:59:59+00:00	-2	9n2rhmk0j571gr3@marketplace.amazon.com	Andrew Messer	+1 347-448-3190 ext. 49858	ABR0055	Arabella Farm Direct Bouquet of 12 Stems of Fresh Cut Hot Pink Roses in a Free Designer Glass Vase	1	0	1	SecondDay	Amanda Messer	4101 E RANCIER AVE APT 1204			KILLEEN	TX	76543-3813	US		I love you so much beautiful. I'm glad to be able to call you mine. You are the best darling. From Your husband	false		
114-4975329-7574611	21965842821106	2020-05-19T18:47:04+00:00	2020-05-19T11:47:04-07:00	2020-05-19T19:15:44+00:00	2020-05-21T06:59:59+00:00	-2	9fkpyrhg8yvcxc7@marketplace.amazon.com	dianna voiles	+1 347-448-3190 ext. 85642	ABR0055	Arabella Farm Direct Bouquet of 12 Stems of Fresh Cut Hot Pink Roses in a Free Designer Glass Vase	1	0	1	SecondDay	Terri Husso	404 N BALDWIN ST			MCVILLE	ND	58254-4817	US		Feel better soon ❤️ From Dianne and Barb	false		
111-5442025-1025006	57345525460522	2020-05-19T19:00:40+00:00	2020-05-19T12:00:40-07:00	2020-05-19T19:20:53+00:00	2020-05-21T06:59:59+00:00	-2	t9ng02vl662v2c4@marketplace.amazon.com	jacobo montejano	+1 763-225-9463 ext. 46861	ABM010	Arabella Bouquets | Fields of The World Bouquet of Fresh Cut Flowers in a Free Designer Glass Vase	1	0	1	SecondDay	Marífeli Reyes	4055 MANZANITA AVE UNIT 2			SOUTH LAKE TAHOE	CA	96150-7176	US		Mari Feliz Cumpleaños la queremos mucho De Yuri/Jacobo	false		
112-9042367-0468208	34314969689834	2020-05-19T18:55:55+00:00	2020-05-19T11:55:55-07:00	2020-05-19T19:23:00+00:00	2020-05-21T06:59:59+00:00	-2	h3qhnqls18x05l5@marketplace.amazon.com	bill	+1 763-225-9463 ext. 43076	ABM010	Arabella Bouquets | Fields of The World Bouquet of Fresh Cut Flowers in a Free Designer Glass Vase	1	0	1	SecondDay	Gina Yunker	2271 SE ELDERBERRY LN			GRANTS PASS	OR	97527-5238	US		I hope you Enjoy your gift! Happy Birthday! Love you to infinity and  beyond!! Dad From bill	false		
112-7190872-8034641	10674736025154	2020-05-19T18:55:38+00:00	2020-05-19T11:55:38-07:00	2020-05-19T19:24:58+00:00	2020-05-21T06:59:59+00:00	-2	kclkq53vmmr0qft@marketplace.amazon.com	Asha Wong	+1 314-282-9402 ext. 29258	ABR0022	Arabella Farm Direct Bouquet of 12 Fresh Cut Pink Roses with a Free Glass Vase	1	0	1	SecondDay	Babita Mangroo	3610 KIRKPATRICK CIR UNIT 8			JACKSONVILLE	FL	32210-0202	US		Happy Mother’s Day, I love you and miss you! From Alexis	false		
112-7504157-2795430	42917057365122	2020-05-19T18:55:55+00:00	2020-05-19T11:55:55-07:00	2020-05-19T19:25:16+00:00	2020-05-21T06:59:59+00:00	-2	g5wrwyrd2frjr25@marketplace.amazon.com	Candy sparks	+1 210-728-4548 ext. 76533	ABR001	Arabella Bouquets 12 Stems of Fresh Cut Red Roses in a Free Designer Glass Vase	1	0	1	SecondDay	leslie bianco	4014 CALLE ARIANA			SAN CLEMENTE	CA	92672-4505	US		Hi Leslie, Just Because From Candy sparks	false		
111-1122087-2364226	40641014155354	2020-05-19T18:52:31+00:00	2020-05-19T11:52:31-07:00	2020-05-19T19:29:31+00:00	2020-05-21T06:59:59+00:00	-2	v20jxcqts6ksxrn@marketplace.amazon.com	Bruce Hammerstrom	+1 210-728-4548 ext. 24540	ABM010	Arabella Bouquets | Fields of The World Bouquet of Fresh Cut Flowers in a Free Designer Glass Vase	1	0	1	SecondDay	Bruce Hammerstrom	5405 NW 134TH ST			VANCOUVER	WA	98685-1464	US			false		
114-7905953-4256269	41430221535226	2020-05-19T18:59:46+00:00	2020-05-19T11:59:46-07:00	2020-05-19T19:30:22+00:00	2020-05-21T06:59:59+00:00	-2	qd3yqj7tptsmqbj@marketplace.amazon.com	Kevin bartnick	+1 314-282-9402 ext. 94253	ABM010	Arabella Bouquets | Fields of The World Bouquet of Fresh Cut Flowers in a Free Designer Glass Vase	1	0	1	SecondDay	Kevin bartnick	925 N GARFIELD ST APT 301			ARLINGTON	VA	22201-2198	US			false		
111-2299900-4731440	10467372512154	2020-05-19T19:05:41+00:00	2020-05-19T12:05:41-07:00	2020-05-19T19:32:16+00:00	2020-05-21T06:59:59+00:00	-2	y8x522b50njkbxx@marketplace.amazon.com	Mark Minton	+1 763-225-9463 ext. 27795	ABM010	Arabella Bouquets | Fields of The World Bouquet of Fresh Cut Flowers in a Free Designer Glass Vase	1	0	1	SecondDay	Minnie Hooks	8074 GATE PKWY W APT 5415			JACKSONVILLE	FL	32216-1623	US		Mom,   Thank you for all that you are doing for Myles, and have ever done for the boys.  We love you!  Mark, Myles, and Noah From Mark Minton	false		
111-7148712-1904240	00805566000098	2020-05-19T19:07:49+00:00	2020-05-19T12:07:49-07:00	2020-05-19T19:36:48+00:00	2020-05-21T06:59:59+00:00	-2	39qv6vxnv84vnml@marketplace.amazon.com	Bethany Ward	+1 210-728-4548 ext. 83027	ABR0022	Arabella Farm Direct Bouquet of 12 Fresh Cut Pink Roses with a Free Glass Vase	1	0	1	SecondDay	Lisa Sibits	474 HAMILTON DR			BROADVIEW HEIGHTS	OH	44147-4218	US		Lisa, I’m so happy your surgery went well. Hope you continue to feel better each day!   Xoxo, Beth From Bethany Ward	false		
113-3646694-9673842	21811766961066	2020-05-19T19:12:11+00:00	2020-05-19T12:12:11-07:00	2020-05-19T19:39:59+00:00	2020-05-21T06:59:59+00:00	-2	p8yk4z09r0ywnl0@marketplace.amazon.com	Matthew DeCormier	+1 412-532-4665 ext. 15584	ABR0022	Arabella Farm Direct Bouquet of 12 Fresh Cut Pink Roses with a Free Glass Vase	1	0	1	SecondDay	Linda Widell	842A HIGH POINT BLVD N - NORTH			DELRAY BEACH	FL	33445-3077	US		We wish you a speedy recovery! With love, Letitia & Matthew xoxoox	false		
114-4165188-8696258	67704010699666	2020-05-19T19:13:45+00:00	2020-05-19T12:13:45-07:00	2020-05-19T19:40:16+00:00	2020-05-21T06:59:59+00:00	-2	mfnkln4clpndn2r@marketplace.amazon.com	dina miller	+1 210-728-4548 ext. 33710	ABR0022	Arabella Farm Direct Bouquet of 12 Fresh Cut Pink Roses with a Free Glass Vase	1	0	1	SecondDay	Mr & Mrs Rodway	13271 JUNEBERRY LN			HUNTLEY	IL	60142-7741	US		Bev & Jerry Our deepest condolences . Love Theresa & Sol Battaglia	false		
114-6304786-6963450	56212819998450	2020-05-19T19:13:50+00:00	2020-05-19T12:13:50-07:00	2020-05-19T19:41:38+00:00	2020-05-21T06:59:59+00:00	-2	c54cqcglfwgwgbj@marketplace.amazon.com	KIm M Celento	4120337-6262	ABM010	Arabella Bouquets | Fields of The World Bouquet of Fresh Cut Flowers in a Free Designer Glass Vase	1	0	1	SecondDay	Christine Caropresi	137 BROOKFIELD ESTATES DR			WEXFORD	PA	15090-6334	US		Christine,  Wishing you love and birghter days ahead remember we're always here for you. Love, Missy and Kim XOXO From KIm and Missy	false		
113-8285313-7175409	35692319667074	2020-05-19T19:12:56+00:00	2020-05-19T12:12:56-07:00	2020-05-19T19:41:41+00:00	2020-05-21T06:59:59+00:00	-2	dhsm9qc1rx2nmw2@marketplace.amazon.com	Meredith M Bowes	+1 763-225-9463 ext. 90758	ABR0022	Arabella Farm Direct Bouquet of 12 Fresh Cut Pink Roses with a Free Glass Vase	1	0	1	SecondDay	Kathy Bowes	3816 N BARTLETT AVE			MILWAUKEE	WISCONSIN	53211-2201	US		Dear Kathy,   We love you and are so sorry for your loss. Our prayers are with you.   Love always, David, Meredith, Virginia, Julia, Katie, and Jack From Meredith M Bowes	false		
113-0419392-9141821	05719633090562	2020-05-19T19:16:23+00:00	2020-05-19T12:16:23-07:00	2020-05-19T19:45:36+00:00	2020-05-21T06:59:59+00:00	-2	s4yg5sb8k1mf3pd@marketplace.amazon.com	Brian Rigg	+1 347-448-3190 ext. 31625	ABR0022	Arabella Farm Direct Bouquet of 12 Fresh Cut Pink Roses with a Free Glass Vase	1	0	1	SecondDay	Peggy Rigg	558 Willow Lane			Perrysburg	OH	43551	US		Happy Birthday Mom! xoxo From Brian	false		
114-4300375-7817868	67115965675170	2020-05-19T19:18:58+00:00	2020-05-19T12:18:58-07:00	2020-05-19T19:48:25+00:00	2020-05-21T06:59:59+00:00	-2	21hlz1cs81thm13@marketplace.amazon.com	kristeena	+1 412-532-4665 ext. 95983	ABR0022	Arabella Farm Direct Bouquet of 12 Fresh Cut Pink Roses with a Free Glass Vase	1	0	1	SecondDay	Kaye Swindell	110 RUTH LN			LA VERGNE	TN	37086-2035	US		Just a little something to brighten your day. From Your LTSS family	false		
114-7476870-5606612	10154043775906	2020-05-19T19:21:58+00:00	2020-05-19T12:21:58-07:00	2020-05-19T19:50:40+00:00	2020-05-21T06:59:59+00:00	-2	q10yfx9l545l9zt@marketplace.amazon.com	Courtney M Winters	+1 347-448-3190 ext. 56299	ABM010	Arabella Bouquets | Fields of The World Bouquet of Fresh Cut Flowers in a Free Designer Glass Vase	1	0	1	SecondDay	Annie McGarry	2507 JARRELL RD			GREENVILLE	GA	30222-3225	US		Happy Birthday!  We are thinking of you. Love, Chris, Courtney, Hunter and Ryleigh From Winters	false		
113-6666529-4145001	27818035884786	2020-05-19T19:24:43+00:00	2020-05-19T12:24:43-07:00	2020-05-19T19:51:56+00:00	2020-05-21T06:59:59+00:00	-2	n5tf0s2wdb3y8mx@marketplace.amazon.com	SANDRA J MESSERSMITH	+1 347-448-3190 ext. 47128	ABR0022	Arabella Farm Direct Bouquet of 12 Fresh Cut Pink Roses with a Free Glass Vase	1	0	1	SecondDay	Ora Richter	3164 NORTHWESTERN PIKE			WINCHESTER	VA	22603-3817	US		Hi Mom/Grandmom, we are thinking of you and sending sympathy on the loss of your dear brother, our Uncle John. We love you! From Sandi, Jason and Kailey	false		
114-8545252-2832243	68608749577434	2020-05-19T19:57:20+00:00	2020-05-19T12:57:20-07:00	2020-05-19T19:58:15+00:00	2020-05-23T06:59:59+00:00	-4	tlbx850d4jcv9d1@marketplace.amazon.com	anthony adduci	+1 210-728-4548 ext. 11716	ABSR003	Arabella Bouquets Fresh Cut Yellow Spray Roses in a Free Designer Glass Vase	1	0	1	Standard	cathy hankerson	7601 FARMINGTON WAY			MADISON	WI	53717-1812	US		Hi Cookie; May this be the best birthday yet !!  From; your SAGE Brother	false		
113-8279823-8965067	39076372925762	2020-05-19T19:34:39+00:00	2020-05-19T12:34:39-07:00	2020-05-19T20:00:38+00:00	2020-05-21T06:59:59+00:00	-2	nnsk0gxfb4qnxjk@marketplace.amazon.com	Keely M	+1 347-448-3190 ext. 89627	ABR0055	Arabella Farm Direct Bouquet of 12 Stems of Fresh Cut Hot Pink Roses in a Free Designer Glass Vase	1	0	1	SecondDay	Angie Vandermause	1107 2ND ST			KIEL	WI	53042-1131	US		We said a prayer for you today, that God would touch you with His healing hand and give you the comfort and strength you need to get through. Norah is remembered, Norah is missed, Norah is loved...Always From Brad, Keely & Family	false		
113-0076949-1048219	10457738926586	2020-05-19T19:42:09+00:00	2020-05-19T12:42:09-07:00	2020-05-19T20:03:38+00:00	2020-05-21T06:59:59+00:00	-2	5t0xp6k925x6kjs@marketplace.amazon.com	Evangelia Micas	+1 347-448-3190 ext. 30389	ABM0033	Arabella Farm Direct Bouquet of Fresh Cut White Hydrangea with a Free Glass Vase	1	0	1	SecondDay	Anna Mack	4321 LAUREL CANYON BLVD APT 205			STUDIO CITY	CA	91604-1779	US		Happy Birthday Anna! Love your cousins Kelley, Alexander and Bianca From Evangelia Micas	false		
111-1717829-1956229	29209816064546	2020-05-19T19:34:20+00:00	2020-05-19T12:34:20-07:00	2020-05-19T20:03:39+00:00	2020-05-21T06:59:59+00:00	-2	j03wtw17v51ym93@marketplace.amazon.com	Carolyn Knigge	+1 347-448-3190 ext. 78318	ABR0033	Arabella Farm Direct Bouquet of 12 Fresh Cut Orange Roses with a Free Glass Vase	1	0	1	SecondDay	Tammy Gindrup	1106 BUENA VISTA DR			DENTON	TX	76210-3832	US		Thinking of you this week... Love & hugs, Mom	false		
114-8242578-9324202	32832358435010	2020-05-19T19:46:43+00:00	2020-05-19T12:46:43-07:00	2020-05-19T20:09:05+00:00	2020-05-23T06:59:59+00:00	-4	yntrthppfk1sxq9@marketplace.amazon.com	Linda Vetten	303_344_1244	ABM010	Arabella Bouquets | Fields of The World Bouquet of Fresh Cut Flowers in a Free Designer Glass Vase	1	0	1	Standard	Janet Simon	2315 STOCKTON BLVD	UC DAVIS MEDICAL CENTER		SACRAMENTO	CA	95817-2201	US		Hi Janet, Enjoy your gift! From Linda Vetten,Andrea, Lee, Sandy, and Gramma Roberts Remember our love always goes with you!  Sending lots of hugs and kisses and prayers!	false		
114-7402956-7669016	02586148633362	2020-05-19T19:49:00+00:00	2020-05-19T12:49:00-07:00	2020-05-19T20:09:16+00:00	2020-05-21T06:59:59+00:00	-2	67dmpd63r5ll57h@marketplace.amazon.com	Albu Alin	0016784997832	ABM0033	Arabella Farm Direct Bouquet of Fresh Cut White Hydrangea with a Free Glass Vase	1	0	1	SecondDay	Alexandra Henry	778 Chelsea Park Dr			MARIETTA	GEORGIA	30068	US		La multi ani, draga noastra Alex! From Albu family	false		
111-7355851-3798660	06243133112114	2020-05-19T19:42:42+00:00	2020-05-19T12:42:42-07:00	2020-05-19T20:11:13+00:00	2020-05-21T06:59:59+00:00	-2	xcdf3kcssmflkqk@marketplace.amazon.com	jeff north	+1 314-282-9402 ext. 13820	ABR0022	Arabella Farm Direct Bouquet of 12 Fresh Cut Pink Roses with a Free Glass Vase	1	0	1	SecondDay	Daphany Bauer	375 E HINMAN AVE			COLUMBUS	OH	43207-1907	US		Call Me!!! 6145067513 Miss You! From jeff north	false		
111-2571950-6937033	26844611062314	2020-05-19T19:54:46+00:00	2020-05-19T12:54:46-07:00	2020-05-19T20:23:56+00:00	2020-05-21T06:59:59+00:00	-2	5g6drrlt7y2jkrd@marketplace.amazon.com	Darbie Everhart	+1 347-448-3190 ext. 44709	ABM010	Arabella Bouquets | Fields of The World Bouquet of Fresh Cut Flowers in a Free Designer Glass Vase	1	0	1	SecondDay	Kathleen Starr	5879 NEWBRIDGE DR			DUBLIN	OH	43017-2624	US		Enjoy your flowers!! Thank you so much for all your help with Dawson!! From Darbie, Scott and Dawson	false		
114-7647271-7124220	40462871373258	2020-05-19T19:56:28+00:00	2020-05-19T12:56:28-07:00	2020-05-19T20:24:43+00:00	2020-05-21T06:59:59+00:00	-2	dj6jxs4g7v3zzr5@marketplace.amazon.com	Adam Rosepink	+1 210-728-4548 ext. 43351	ABR0022	Arabella Farm Direct Bouquet of 12 Fresh Cut Pink Roses with a Free Glass Vase	1	0	1	SecondDay	Diana Duarte	1070 S HIGLEY RD			GILBERT	AZ	85296-2701	US		I know that it has been a long and tough week, but just know that I will always be there for you mi amor!!! From Adam Rosepink	false		
113-6963296-8556250	24421259350898	2020-05-19T20:06:29+00:00	2020-05-19T13:06:29-07:00	2020-05-19T20:28:38+00:00	2020-05-21T06:59:59+00:00	-2	ccwfb5zf2cylhk7@marketplace.amazon.com	Giuliana Ciminelli	+1 347-448-3190 ext. 00527	ABR0066	Arabella Bouquets | 12 Stems of Fresh Cut White Roses in a Free Designer Glass Vase	1	0	1	SecondDay	Gherardo Milanesi	20075 BASIL ST			DETROIT	MI	48235-1672	US		Un piccolo pensiero per te. Sono piena di difetti, ma ti voglio un mondo di bene. Mi impegno a migliorare, lo so che ce la faccio, te lo giuro, ma nel frattempo, mi aiuti?  Scusami di tutto il male che ho causato... :-* From Giuly	false		
111-5112328-6598601	52200895212978	2020-05-19T20:15:08+00:00	2020-05-19T13:15:08-07:00	2020-05-19T20:34:13+00:00	2020-05-21T06:59:59+00:00	-2	707kvbrvplr49sc@marketplace.amazon.com	Christen Shaffer	+1 347-448-3190 ext. 81325	ABM010	Arabella Bouquets | Fields of The World Bouquet of Fresh Cut Flowers in a Free Designer Glass Vase	1	0	1	SecondDay	Christel Johnson	868 KNOLLWOOD DR			WINDER	GA	30680-2825	US		Christel, Congratulations on your retirement!  Thank you for always being so sweet and helpful!  We will miss you!  Enjoy your time with your grandchildren. BRES 5th Grade - Christen, Bridget, Todd, and Dawn From Christen Shaffer	false		
112-2191063-1864264	62054492933290	2020-05-19T20:05:30+00:00	2020-05-19T13:05:30-07:00	2020-05-19T20:34:58+00:00	2020-05-21T06:59:59+00:00	-2	d8353d12pdvf1rb@marketplace.amazon.com	Ashley	+1 347-448-3190 ext. 03695	ABM010	Arabella Bouquets | Fields of The World Bouquet of Fresh Cut Flowers in a Free Designer Glass Vase	1	0	1	SecondDay	Maya and Christian Tuinstra	N9443 EMILY LN			APPLETON	WI	54915-8509	US		Thinking of you during this incredibly sad time. xoxo  We love you! Ashley, Eric & Arlo	false		
112-9940017-6804236	30879622019194	2020-05-19T20:12:16+00:00	2020-05-19T13:12:16-07:00	2020-05-19T20:35:47+00:00	2020-05-21T06:59:59+00:00	-2	1m98t2yjdky22td@marketplace.amazon.com	Danelle Chan	+1 347-448-3190 ext. 04137	ABR0066	Arabella Bouquets | 12 Stems of Fresh Cut White Roses in a Free Designer Glass Vase	1	0	1	SecondDay	Patricia Michell	4851 CADIZ CIR			PALM BEACH GARDENS	FL	33418-8983	US		PATRICIA, HAPPY BIRTHDAY!   HAVE A BLESSED DAY. WE LOVE YOU & MISS YOU. LOVE & KISSES, TOM & SHERRY	false		
113-6369985-7361069	61614500430698	2020-05-19T20:09:28+00:00	2020-05-19T13:09:28-07:00	2020-05-19T20:38:42+00:00	2020-05-21T06:59:59+00:00	-2	ymwkkwsxyv0tvdx@marketplace.amazon.com	ashley	+1 347-448-3190 ext. 63730	ABM0033	Arabella Farm Direct Bouquet of Fresh Cut White Hydrangea with a Free Glass Vase	1	0	1	SecondDay	Kelly Tyson	23411 SUMMERFIELD APT 59I			ALISO VIEJO	CA	92656-2842	US		Happy happy birthday!!! Love you!!! From ashley	false		
111-3012989-9561827	34112854218722	2020-05-19T20:30:49+00:00	2020-05-19T13:30:49-07:00	2020-05-19T20:40:43+00:00	2020-05-21T06:59:59+00:00	-2	ykmcjyp75whkd6g@marketplace.amazon.com	Carol Messier	+1 763-225-9463 ext. 31767	ABR0033	Arabella Farm Direct Bouquet of 12 Fresh Cut Orange Roses with a Free Glass Vase	1	0	1	SecondDay	Valerie Bortner	637 CAPESIDE DR			WILMINGTON	NC	28412-3035	US		Happy 60th Girlfriend!  I had to go with flowers this time, since I'm sure you can't go out to eat yet.  I hope they arrive before your birthday, and bloom on THE day.  Much love and best wishes for a great day! XO Carol From Carol Messier	false		
112-1214115-5626622	07301923505842	2020-05-19T20:19:52+00:00	2020-05-19T13:19:52-07:00	2020-05-19T20:49:37+00:00	2020-05-21T06:59:59+00:00	-2	xdnljf24h4rphsh@marketplace.amazon.com	Nicole Moline	+1 210-728-4548 ext. 33044	ABR0022	Arabella Farm Direct Bouquet of 12 Fresh Cut Pink Roses with a Free Glass Vase	1	0	1	SecondDay	Karen Strauch	5710 N SHEPHERD RD			ROSEBUSH	MI	48878-9752	US		Happy retirement! From Moline's	false		
111-3069055-4427463	28557933564754	2020-05-19T20:19:16+00:00	2020-05-19T13:19:16-07:00	2020-05-19T20:49:40+00:00	2020-05-21T06:59:59+00:00	-2	gmnf4hv3b47yqmd@marketplace.amazon.com	dean blikre	+1 314-282-9402 ext. 52260	ABR012	Arabella Farm Direct Bouquet of 18 Fresh Cut Pink Roses with a Free Glass Vase	1	0	1	SecondDay	Betty Kehoe	7505 PINTO DR SE			CALEDONIA	MI	49316-9771	US			false		
111-7270802-1949048	35566006494874	2020-05-19T20:22:10+00:00	2020-05-19T13:22:10-07:00	2020-05-19T20:51:08+00:00	2020-05-21T06:59:59+00:00	-2	6hx26y842w2fvwf@marketplace.amazon.com	Gregg	+1 210-728-4548 ext. 58566	ABR0022	Arabella Farm Direct Bouquet of 12 Fresh Cut Pink Roses with a Free Glass Vase	1	0	1	SecondDay	Serena Rector	607 VALDESE AVE APT E302			MORGANTON	NC	28655-2983	US		I miss you Victoria.  From Sean	false		
113-4629292-2019421	15155797485114	2020-05-19T20:20:08+00:00	2020-05-19T13:20:08-07:00	2020-05-19T20:51:41+00:00	2020-05-21T06:59:59+00:00	-2	czqgcz26ks8qr9l@marketplace.amazon.com	Edra	+1 347-448-3190 ext. 89158	ABR0066	Arabella Bouquets | 12 Stems of Fresh Cut White Roses in a Free Designer Glass Vase	1	0	1	SecondDay	Nena Nga Jacob	7318 SACKETT ST			PHILADELPHIA	PA	19152-4512	US			false		
112-8781880-8611455	55365580910650	2020-05-19T20:23:42+00:00	2020-05-19T13:23:42-07:00	2020-05-19T20:52:41+00:00	2020-05-21T06:59:59+00:00	-2	w0wnw2bswfqsxdw@marketplace.amazon.com	Tracey Fusco	+1 347-448-3190 ext. 36220	ABM010	Arabella Bouquets | Fields of The World Bouquet of Fresh Cut Flowers in a Free Designer Glass Vase	1	0	1	SecondDay	Perla Rolfe	15507 KINDER BLUFF LN			CYPRESS	TX	77429-0211	US		Perla Thank you for all you do.  I hope these brighten your day. Tracey	false		
111-6300511-0266636	61812078431706	2020-05-19T20:28:34+00:00	2020-05-19T13:28:34-07:00	2020-05-19T20:54:06+00:00	2020-05-21T06:59:59+00:00	-2	fw18j7cs7sy3ghy@marketplace.amazon.com	matt zamorano	+1 314-282-9402 ext. 14794	ABR0022	Arabella Farm Direct Bouquet of 12 Fresh Cut Pink Roses with a Free Glass Vase	1	0	1	SecondDay	Mom and Sister Jara	4503 TOUCAN ST			TORRANCE	CA	90503-2023	US			false		
111-9789563-3637818	50545499979474	2020-05-19T20:26:54+00:00	2020-05-19T13:26:54-07:00	2020-05-19T20:55:57+00:00	2020-05-21T06:59:59+00:00	-2	x7n1y13j0pm7cct@marketplace.amazon.com	Charlotte R. Baker	+1 314-282-9402 ext. 67364	ABR0055	Arabella Farm Direct Bouquet of 12 Stems of Fresh Cut Hot Pink Roses in a Free Designer Glass Vase	1	0	1	SecondDay	Mrs. Kim Carlton	16007 BLOOMING RD			CHESTERFIELD	VA	23832-1538	US		Happy Birthday BFF! Love, Charlotte	false		
112-9870264-9576233	45180719961658	2020-05-19T20:35:47+00:00	2020-05-19T13:35:47-07:00	2020-05-19T21:03:16+00:00	2020-05-21T06:59:59+00:00	-2	86k9v4ygnyt8l8x@marketplace.amazon.com	KIRSTEEN ROBERTSON	+1 210-728-4548 ext. 18745	ABR0055	Arabella Farm Direct Bouquet of 12 Stems of Fresh Cut Hot Pink Roses in a Free Designer Glass Vase	1	0	1	SecondDay	Joan McKechnie	10 HALFMOON CT			SPRING	TX	77380-4600	US		Happy birthday darling Joan xx Thinking of you all the time and missing you so much xx  All our love, Mark, Kirst, Blair, Alex, Scott, Jackie and Milly XXXXXXX From Love you xxxx	false		
112-6821685-5633008	19002107990322	2020-05-19T20:41:33+00:00	2020-05-19T13:41:33-07:00	2020-05-19T21:07:05+00:00	2020-05-21T06:59:59+00:00	-2	ss8q30tvvz95ljx@marketplace.amazon.com	David Rozen	+1 210-728-4548 ext. 07290	ABR0033	Arabella Farm Direct Bouquet of 12 Fresh Cut Orange Roses with a Free Glass Vase	1	0	1	SecondDay	Sarah Lichtenstein	2 SLEEPY HOLLOW LN			DIX HILLS	NY	11746-6110	US		Sarah: While we might be separated today, know that we're still celebrating with you! HAPPY BIRTHDAY! We love you! - David, Mark, Cuddles, Snuggles, Mindy, Jon, Samatha, Matthew & Zoey	false		
114-9230354-8142606	44532401611130	2020-05-19T20:38:35+00:00	2020-05-19T13:38:35-07:00	2020-05-19T21:08:17+00:00	2020-05-23T06:59:59+00:00	-4	cs0xhn31jwgtmxc@marketplace.amazon.com	Randee	+1 347-448-3190 ext. 90186	ABR0022	Arabella Farm Direct Bouquet of 12 Fresh Cut Pink Roses with a Free Glass Vase	1	0	1	Standard	L Lampell	39 CARLISLE DR			JACKSON	NJ	08527-6304	US			false		
113-6329026-0430634	38298003268642	2020-05-19T20:39:49+00:00	2020-05-19T13:39:49-07:00	2020-05-19T21:08:38+00:00	2020-05-21T06:59:59+00:00	-2	7fzt6stmnbzbt1r@marketplace.amazon.com	Steve Dennis	+1 347-448-3190 ext. 84278	ABR0055	Arabella Farm Direct Bouquet of 12 Stems of Fresh Cut Hot Pink Roses in a Free Designer Glass Vase	1	0	1	SecondDay	Marie Dennis	311 3RD ST NE			WASHINGTON	DC	20002-5745	US			false		
111-2994142-5016267	64598552226018	2020-05-19T20:39:48+00:00	2020-05-19T13:39:48-07:00	2020-05-19T21:09:35+00:00	2020-05-21T06:59:59+00:00	-2	w0k06n6bnggw1vb@marketplace.amazon.com	Kathryn A. Stibor	+1 314-282-9402 ext. 05243	ABM010	Arabella Bouquets | Fields of The World Bouquet of Fresh Cut Flowers in a Free Designer Glass Vase	1	0	1	SecondDay	Marie Stibor	2338 THOREAU DR			FORT COLLINS	CO	80524-1417	US			false		
114-6991984-2337060	41228190719490	2020-05-19T20:41:31+00:00	2020-05-19T13:41:31-07:00	2020-05-19T21:11:09+00:00	2020-05-21T06:59:59+00:00	-2	j9fvh3bg3xk5413@marketplace.amazon.com	Zyshawn Russell	+1 347-448-3190 ext. 47391	ABB013	Arabella Bouquets | 24 Stems of Fresh Cut White Roses in a Free Designer Glass Vase	1	0	1	SecondDay	Kailah Hickman	12729 HAMPTON HILL DR			RIVERVIEW	FL	33578-7593	US			false		
114-3544674-5105027	47100295009258	2020-05-19T20:51:23+00:00	2020-05-19T13:51:23-07:00	2020-05-19T21:11:44+00:00	2020-05-21T06:59:59+00:00	-2	v3k372msl7745bq@marketplace.amazon.com	jacques a girard	+1 314-282-9402 ext. 38112	ABM010	Arabella Bouquets | Fields of The World Bouquet of Fresh Cut Flowers in a Free Designer Glass Vase	1	0	1	SecondDay	Kathleen Mercogliano	537 W DOERR PATH			HERNANDO	FL	34442-5178	US		My Kathleen Anne, I Miss you very very very much. Love you always and forever. Jacques Andre	false		
112-7957152-9658636	05701084512018	2020-05-19T17:26:18+00:00	2020-05-19T10:26:18-07:00	2020-05-19T21:15:07+00:00	2020-05-23T06:59:59+00:00	-4	5s51hgq7dsn6lv7@marketplace.amazon.com	Kaito Sawada	+1 210-728-4548 ext. 03214	ABR0066	Arabella Bouquets | 12 Stems of Fresh Cut White Roses in a Free Designer Glass Vase	1	0	1	Standard	Deanna Whitely	437 E MAIN ST APT N2			BAY SHORE	NY	11706-8525	US		Hey baby, you deserve this. You have been more than enough for me so I hope this shows my gratitude towards you. Dun know how we ting set <3	false		
113-7770108-9809032	22439934165546	2020-05-19T20:45:55+00:00	2020-05-19T13:45:55-07:00	2020-05-19T21:18:21+00:00	2020-05-21T06:59:59+00:00	-2	czqgcz26ks8qr9l@marketplace.amazon.com	Edra	+1 347-448-3190 ext. 86733	ABR0066	Arabella Bouquets | 12 Stems of Fresh Cut White Roses in a Free Designer Glass Vase	1	0	1	SecondDay	Oma, Love Joey, Edra and Jacob	122 WILSON AVE			SEWELL	NJ	08080-4564	US			false		
111-9550639-0947408	54416368293018	2020-05-19T20:49:46+00:00	2020-05-19T13:49:46-07:00	2020-05-19T21:18:41+00:00	2020-05-21T06:59:59+00:00	-2	ws7zl7s3hkdz7k5@marketplace.amazon.com	Elaine E. Englehardt	+1 347-448-3190 ext. 85011	ABM010	Arabella Bouquets | Fields of The World Bouquet of Fresh Cut Flowers in a Free Designer Glass Vase	1	0	1	SecondDay	Kyra Pritchard	3325 IROQUOIS TRL			KALAMAZOO	MI	49006-2030	US		Happy Birthday to our wonderful Kyra.  We love you and wish you an abundance of health, happiness, brilliance and beauty!  Love G. Elaine and Papa Mike From Elaine E. Englehardt	false		
113-9792596-9005836	05791685973098	2020-05-19T20:51:43+00:00	2020-05-19T13:51:43-07:00	2020-05-19T21:19:08+00:00	2020-05-21T06:59:59+00:00	-2	0km67ytjb3cg985@marketplace.amazon.com	Ann	+1 347-448-3190 ext. 81272	ABR014	Arabella Bouquets 18 Stems of Fresh Cut White Roses in a Free Designer Glass Vase	1	0	1	SecondDay	Angela Silverstein	1789 READING ST			CROFTON	MD	21114-2605	US		Happiest birthday Aunt Angela! Love, Antoinette From Antoinette	false		
112-2276311-6298639	09944520796442	2020-05-19T20:49:44+00:00	2020-05-19T13:49:44-07:00	2020-05-19T21:19:43+00:00	2020-05-21T06:59:59+00:00	-2	ywrkkrkygw5ndcl@marketplace.amazon.com	Mary Dowling	+1 210-728-4548 ext. 97727	ABR0033	Arabella Farm Direct Bouquet of 12 Fresh Cut Orange Roses with a Free Glass Vase	1	0	1	SecondDay	Lenore Dowling	6152 COOLIDGE ST			DEARBORN HEIGHTS	MI	48127-2863	US		Happy Birthday!!! We love you! From Mary and Bill	false		
112-7836977-8917043	57641447638274	2020-05-19T20:57:21+00:00	2020-05-19T13:57:21-07:00	2020-05-19T21:27:29+00:00	2020-05-21T06:59:59+00:00	-2	pbv85j8q518phcn@marketplace.amazon.com	peggy	+1 314-282-9402 ext. 67784	ABR0033	Arabella Farm Direct Bouquet of 12 Fresh Cut Orange Roses with a Free Glass Vase	1	0	1	SecondDay	Tanis Christensen	12795 S CABRIOLET WAY			NAMPA	ID	83686-6326	US		Happy Birthday my Friend!  I hope you have a wonderful day- you deserve it!  We love & miss you! From Naff Family	false		
114-4121448-1131425	06201012111466	2020-05-19T20:57:24+00:00	2020-05-19T13:57:24-07:00	2020-05-19T21:27:33+00:00	2020-05-21T06:59:59+00:00	-2	8cdc4flvhpmskdg@marketplace.amazon.com	Leticia	+1 210-728-4548 ext. 81783	ABR0022	Arabella Farm Direct Bouquet of 12 Fresh Cut Pink Roses with a Free Glass Vase	1	0	1	SecondDay	Elenita Rubio	60 E MONROE ST UNIT 4601			CHICAGO	IL	60603-2765	US		Happy birthday!! From Love: Nate and Leticia	false		
114-6542124-4666625	65918549965826	2020-05-16T21:22:16+00:00	2020-05-16T14:22:16-07:00	2020-05-19T21:29:55+00:00	2020-05-21T06:59:59+00:00	-2	rm0pffygzwcc16m@marketplace.amazon.com	Nelly	+1 347-448-3190 ext. 09546	ABR0022	Arabella Farm Direct Bouquet of 12 Fresh Cut Pink Roses with a Free Glass Vase	1	0	1	SecondDay	Carmen Villalba	155100 BAYVIEW AVE			ROSEDALE	NY	11422-3118	US		Te amo Mamita  Nelly	false		
111-8536769-6688261	38113092551146	2020-05-19T21:18:36+00:00	2020-05-19T14:18:36-07:00	2020-05-19T21:35:21+00:00	2020-05-21T06:59:59+00:00	-2	1cwpsvpy655h1b6@marketplace.amazon.com	Richard Gordon II & Leslie Chang	+1 763-225-9463 ext. 58392	ABM0033	Arabella Farm Direct Bouquet of Fresh Cut White Hydrangea with a Free Glass Vase	1	0	1	SecondDay	Phuong Le-Lam	28 BOX TURTLE LN			SICKLERVILLE	NJ	08081-5683	US		So sorry you all have to go through such a tough time. If there's anything you guys need let us know.  Lots of love From Richard Gordon II & Leslie Chang	false		
112-0259532-2900264	09806786667842	2020-05-19T21:13:44+00:00	2020-05-19T14:13:44-07:00	2020-05-19T21:40:54+00:00	2020-05-21T06:59:59+00:00	-2	12w55v2f5b67xz3@marketplace.amazon.com	Nikhil Dhall	+1 347-448-3190 ext. 60834	ABR0022	Arabella Farm Direct Bouquet of 12 Fresh Cut Pink Roses with a Free Glass Vase	1	0	1	SecondDay	Sneha Mathew	4718 FOREST HOME DR			MISSOURI CITY	TX	77459-2766	US		Sneha,   Hope you're feeling better! Can't wait to see you soon.   Lots of Love,  Riya	false		
113-7510676-0241059	56010468229010	2020-05-19T21:17:29+00:00	2020-05-19T14:17:29-07:00	2020-05-19T21:44:16+00:00	2020-05-21T06:59:59+00:00	-2	mcpn6zd6jntnwfk@marketplace.amazon.com	audrey van kirk	+1 412-532-4665 ext. 75998	ABR0022	Arabella Farm Direct Bouquet of 12 Fresh Cut Pink Roses with a Free Glass Vase	1	0	1	SecondDay	Rachel Das	17 BRIDGET CIR			COHOES	NY	12047-3821	US		Enjoy your gift! Rachel, happy graduation! We are proud of you!, Love.  Audrey and Mike From audrey van kirk	false		
111-9918082-5923404	10721818986242	2020-05-19T21:20:10+00:00	2020-05-19T14:20:10-07:00	2020-05-19T21:46:28+00:00	2020-05-21T06:59:59+00:00	-2	b16dhxh28jbsdwq@marketplace.amazon.com	donna	+1 210-728-4548 ext. 53530	ABR0022	Arabella Farm Direct Bouquet of 12 Fresh Cut Pink Roses with a Free Glass Vase	1	0	1	SecondDay	MONIQUE RANDALL	544 GLENVILLE SCHOOL RD			GLENVILLE	NC	28736-8361	US		Hi MONIQUE, Welcome to your mountains!!!!!!!! Thank you for all you do for the MOUNTAIN DIVAS that all love you	true		
113-6391565-5825056	62799593013858	2020-05-19T21:20:41+00:00	2020-05-19T14:20:41-07:00	2020-05-19T21:48:50+00:00	2020-05-21T06:59:59+00:00	-2	8vb01n38wc4lm4f@marketplace.amazon.com	Dani Wisner	+1 347-448-3190 ext. 61039	ABR012	Arabella Farm Direct Bouquet of 18 Fresh Cut Pink Roses with a Free Glass Vase	1	0	1	SecondDay	Anna DeFord	287 NE KIRRA ST			HILLSBORO	OR	97124-2686	US		Happy Birthday,  Dear One! We love you!! From Dani,  Dan and Mom	false		
114-3841428-3744248	67246572799786	2020-05-19T21:24:40+00:00	2020-05-19T14:24:40-07:00	2020-05-19T21:52:03+00:00	2020-05-21T06:59:59+00:00	-2	hhttzfklrxp7rtt@marketplace.amazon.com	Marci GC	+1 347-448-3190 ext. 12135	ABR0022	Arabella Farm Direct Bouquet of 12 Fresh Cut Pink Roses with a Free Glass Vase	1	0	1	SecondDay	DanniRose Baertsch + Taylor Sanders	12222 19TH AVE SE APT 4			EVERETT	WA	98208-6229	US		Congratulations, Danni, Taylor and Baby!  Welcome to the world. From: Your Hoover Family From Hoover Peeps	false		
112-7767422-3014619	65516473892362	2020-05-19T21:10:04+00:00	2020-05-19T14:10:04-07:00	2020-05-19T21:52:27+00:00	2020-05-21T06:59:59+00:00	-2	6tcx8ljdgy9x2y8@marketplace.amazon.com	Nicholas Mills	+1 347-448-3190 ext. 79067	ABM010	Arabella Bouquets | Fields of The World Bouquet of Fresh Cut Flowers in a Free Designer Glass Vase	1	0	1	SecondDay	Margaret Mills	311 W MAIN ST			DENMARK	ME	04022-5215	US			false		
112-5696027-8887409	40302602502066	2020-05-19T21:26:55+00:00	2020-05-19T14:26:55-07:00	2020-05-19T21:57:30+00:00	2020-05-21T06:59:59+00:00	-2	5m1f15nc8dq1pbg@marketplace.amazon.com	Priscille Duvalsaint Garnett	+1 347-448-3190 ext. 80410	ABR0022	Arabella Farm Direct Bouquet of 12 Fresh Cut Pink Roses with a Free Glass Vase	1	0	1	SecondDay	Priscille Duvalsaint Garnett	1247 FAIRLAKE TRCE APT 1107			WESTON	FL	33326-2877	US			false		
112-6176935-7680259	32186111556602	2020-05-19T21:28:02+00:00	2020-05-19T14:28:02-07:00	2020-05-19T21:58:12+00:00	2020-05-21T06:59:59+00:00	-2	5m1f15nc8dq1pbg@marketplace.amazon.com	Priscille Duvalsaint Garnett	+1 210-728-4548 ext. 60860	ABR0066	Arabella Bouquets | 12 Stems of Fresh Cut White Roses in a Free Designer Glass Vase	1	0	1	SecondDay	Priscille Duvalsaint Garnett	1247 FAIRLAKE TRCE APT 1107			WESTON	FL	33326-2877	US			false		
111-7899493-1343403	64984363349082	2020-05-19T21:32:11+00:00	2020-05-19T14:32:11-07:00	2020-05-19T21:59:16+00:00	2020-05-21T06:59:59+00:00	-2	dy5j0jc2n6khkrk@marketplace.amazon.com	Steven D lesh	+1 314-282-9402 ext. 58304	ABR012	Arabella Farm Direct Bouquet of 18 Fresh Cut Pink Roses with a Free Glass Vase	1	0	1	SecondDay	Mr. and Mrs. Gary Opperman	187 LITTLE BRITAIN RD			NOTTINGHAM	PA	19362-1304	US			false		
114-7133806-9332228	12690826538618	2020-05-19T21:48:34+00:00	2020-05-19T14:48:34-07:00	2020-05-19T22:01:10+00:00	2020-05-21T06:59:59+00:00	-2	k3nc9lwn57sy7jb@marketplace.amazon.com	carlos bonnin	+1 347-448-3190 ext. 32878	ABM010	Arabella Bouquets | Fields of The World Bouquet of Fresh Cut Flowers in a Free Designer Glass Vase	1	0	1	SecondDay	Mair  bonnin	281 Bay Harbour Rd			Mooresville	North Carolina	28117	US		Happy Birthday Mair From Carlos and Haydee   Enjoy you day	false		
112-5658701-9058610	61591131831554	2020-05-19T22:08:42+00:00	2020-05-19T15:08:42-07:00	2020-05-19T22:09:47+00:00	2020-05-21T06:59:59+00:00	-2	7kz4kf0518tv6hx@marketplace.amazon.com	Lynne Mansfield	+1 412-532-4665 ext. 20960	ABM010	Arabella Bouquets | Fields of The World Bouquet of Fresh Cut Flowers in a Free Designer Glass Vase	1	0	1	SecondDay	Rita and Paul Fantaroni	26128 SAINT MICHAEL LN			BONITA SPRINGS	FL	34135-3118	US		Rita n Paul, So sorry about little Molly’s passing. Hope this bouquet replaces your loss with a bit of joy! We’ll  always remember Molly as one of the best cared for, sweetest doggies we’ve ever met! From Love, Lynne n Dave	false		
113-2906403-9458663	62187174162050	2020-05-19T21:39:49+00:00	2020-05-19T14:39:49-07:00	2020-05-19T22:10:19+00:00	2020-05-21T06:59:59+00:00	-2	wh0rnzrzj4nrsz4@marketplace.amazon.com	Nikki	+1 347-448-3190 ext. 85067	ABR004	Arabella Farm Direct Bouquet of 12 Fresh Cut Yellow Roses with a Free Glass Vase	1	0	1	SecondDay	Nikki Rogers	26 EVA ST			LATHAM	NY	12110-4224	US			false		
113-6561679-8224217	53553178976714	2020-05-19T21:40:24+00:00	2020-05-19T14:40:24-07:00	2020-05-19T22:10:35+00:00	2020-05-21T06:59:59+00:00	-2	059vtjhcymq59hf@marketplace.amazon.com	Mark Jagielski	+1 210-728-4548 ext. 02504	ABR0022	Arabella Farm Direct Bouquet of 12 Fresh Cut Pink Roses with a Free Glass Vase	1	0	1	SecondDay	Pam green	1846 FINEL HOLLOW RD			POULTNEY	VT	05764-9134	US			true		
113-6819127-7076200	69242568292082	2020-05-19T21:44:53+00:00	2020-05-19T14:44:53-07:00	2020-05-19T22:12:00+00:00	2020-05-21T06:59:59+00:00	-2	2jpv6q1zk067x4g@marketplace.amazon.com	Matt Pavich	+1 314-282-9402 ext. 96719	ABR0033	Arabella Farm Direct Bouquet of 12 Fresh Cut Orange Roses with a Free Glass Vase	1	0	1	SecondDay	Maria Pavich	52 high street			East Williston	New York	11596	US		Happy belated Mother’s Day  From Matt From Matt Pavich	false		
113-5174126-2425008	24365144194194	2020-05-19T21:48:00+00:00	2020-05-19T14:48:00-07:00	2020-05-19T22:18:14+00:00	2020-05-21T06:59:59+00:00	-2	kwhw19j746tl2js@marketplace.amazon.com	Hussain Dahodwala	+1 347-448-3190 ext. 04352	ABR0022	Arabella Farm Direct Bouquet of 12 Fresh Cut Pink Roses with a Free Glass Vase	1	0	1	SecondDay	Hussain Dahodwala	11 LUPINE RD			NATICK	MA	01760-2003	US			false		
114-1197052-2126657	41883266646386	2020-05-19T21:53:59+00:00	2020-05-19T14:53:59-07:00	2020-05-19T22:20:46+00:00	2020-05-21T06:59:59+00:00	-2	wwxq06r0bn4b1d6@marketplace.amazon.com	Allison Barkauskas	+1 314-282-9402 ext. 32673	ABM010	Arabella Bouquets | Fields of The World Bouquet of Fresh Cut Flowers in a Free Designer Glass Vase	1	0	1	SecondDay	Katie Pekkala	6 ABBOTT RD			MAYNARD	MA	01754-1572	US		We hope you feel better soon Katie!!! Sending lots of love from your favorite gals <3 From Al, Mad, Ken, Tilly & Dale	false		
111-8509583-6838635	23882812950778	2020-05-19T21:59:36+00:00	2020-05-19T14:59:36-07:00	2020-05-19T22:22:59+00:00	2020-05-21T06:59:59+00:00	-2	wj2dsw6k04v5lnp@marketplace.amazon.com	Sarah Shainfeld	+1 314-282-9402 ext. 30606	ABM010	Arabella Bouquets | Fields of The World Bouquet of Fresh Cut Flowers in a Free Designer Glass Vase	1	0	1	SecondDay	Lisa Meade	102 HUGHES RD			SCHUYLERVILLE	NY	12871-1843	US		Lisa, en los años que vienen te deseo paz, porque lo mereces. Aunque el corazón duele, tú brillas una luz que esparce y ilumina las vidas de tus hijos, colegas, y estudiantes. Abrazo fuerte, Sarah	false		
114-1557143-7421024	07276098105610	2020-05-19T21:54:25+00:00	2020-05-19T14:54:25-07:00	2020-05-19T22:25:25+00:00	2020-05-21T06:59:59+00:00	-2	36n8rbbl0rcznst@marketplace.amazon.com	JOHN B. ARMSTRONG	+1 210-728-4548 ext. 14139	ABR0022	Arabella Farm Direct Bouquet of 12 Fresh Cut Pink Roses with a Free Glass Vase	1	0	1	SecondDay	Rory Armstrong	1030 6TH ST			BOULDER	CO	80302-7157	US		Congratulations!! We loved hearing you sing!! love From Gammy and Papa	false		
112-2021792-7724264	30636054846802	2020-05-19T21:56:02+00:00	2020-05-19T14:56:02-07:00	2020-05-19T22:25:27+00:00	2020-05-21T06:59:59+00:00	-2	g2rrd45ds1wnvk6@marketplace.amazon.com	Grace	+1 210-728-4548 ext. 19851	ABR0022	Arabella Farm Direct Bouquet of 12 Fresh Cut Pink Roses with a Free Glass Vase	1	0	1	SecondDay	Elora Wall	1005 N HAMILTON ST APT F			RICHMOND	VA	23221-1234	US		Happy Birthday Elora! This is probably going to arrive late but love you 😘 From Grace	false		
111-7246661-2241031	38185238232386	2020-05-19T21:57:01+00:00	2020-05-19T14:57:01-07:00	2020-05-19T22:25:56+00:00	2020-05-21T06:59:59+00:00	-2	fw06z81fl5j4fq2@marketplace.amazon.com	Paul-Andre White	+1 347-448-3190 ext. 44778	ABM010	Arabella Bouquets | Fields of The World Bouquet of Fresh Cut Flowers in a Free Designer Glass Vase	1	0	1	SecondDay	Melissa Valentine	5526 DONNER AVE			BUENA PARK	CA	90621-1644	US			false		
114-4146658-9773850	66619583463474	2020-05-19T22:00:29+00:00	2020-05-19T15:00:29-07:00	2020-05-19T22:29:46+00:00	2020-05-21T06:59:59+00:00	-2	36n8rbbl0rcznst@marketplace.amazon.com	JOHN B. ARMSTRONG	+1 347-448-3190 ext. 63779	ABR004	Arabella Farm Direct Bouquet of 12 Fresh Cut Yellow Roses with a Free Glass Vase	1	0	1	SecondDay	Skylar Armstrong	1030 6TH ST			BOULDER	CO	80302-7157	US		Congratulations!  We loved hearing you sing. love, From Gammy and Papa	false		
113-1956631-1942664	16866298382154	2020-05-19T22:14:56+00:00	2020-05-19T15:14:56-07:00	2020-05-19T22:39:15+00:00	2020-05-21T06:59:59+00:00	-2	q9wmhtk8tpkp8tn@marketplace.amazon.com	Lawrence G Herringer	+1 210-728-4548 ext. 90585	ABM010	Arabella Bouquets | Fields of The World Bouquet of Fresh Cut Flowers in a Free Designer Glass Vase	1	0	1	SecondDay	Sue Herringer	26179 W RUNION DR			BUCKEYE	AZ	85396-7284	US		Happy Birthday Sue! We hope you have a wonderful day and get to spend it exactly the way you want. Love, Larry & Terry	false		
112-5252378-0175461	09464251186474	2020-05-19T22:12:33+00:00	2020-05-19T15:12:33-07:00	2020-05-19T22:43:01+00:00	2020-05-21T06:59:59+00:00	-2	dyv7g1qtws8wpsq@marketplace.amazon.com	Corbin	+1 763-225-9463 ext. 88940	ABM010	Arabella Bouquets | Fields of The World Bouquet of Fresh Cut Flowers in a Free Designer Glass Vase	1	0	1	SecondDay	Corbin barney	1008 E PLATINUM WAY			SANDY	UT	84094-4605	US			false		
113-0807304-0018613	51457435410730	2020-05-19T22:15:13+00:00	2020-05-19T15:15:13-07:00	2020-05-19T22:43:10+00:00	2020-05-21T06:59:59+00:00	-2	26trz5n7wq2q894@marketplace.amazon.com	joann munch	+1 347-448-3190 ext. 50208	ABR0033	Arabella Farm Direct Bouquet of 12 Fresh Cut Orange Roses with a Free Glass Vase	1	0	1	SecondDay	Sylvia Augusto	651 OAKMONT CT			LODI	CA	95242-4682	US		Sylvia, Happy 60th Birthday !!!  We hope your day is as special as you are ! Hope to ‘see’ you soon ! Our Love and Hugs,  Joann, Chuck & Finley !	false		
114-8763978-8477843	57578336540922	2020-05-19T22:22:52+00:00	2020-05-19T15:22:52-07:00	2020-05-19T22:49:55+00:00	2020-05-21T06:59:59+00:00	-2	b389hknm1nlj2vq@marketplace.amazon.com	Sneha Patel	+1 314-282-9402 ext. 14743	ABR0066	Arabella Bouquets | 12 Stems of Fresh Cut White Roses in a Free Designer Glass Vase	1	0	1	SecondDay	Jennifer Williams	305 HURLEY AVE APT 25J			KINGSTON	NY	12401-6810	US		Dear Jenn,  So so sorry for your loss! Condolences to you and family!  From: Team Williams, Sneha, and Debbie From Sneha Patel	false		
113-9356503-3412241	30480366008098	2020-05-19T22:22:02+00:00	2020-05-19T15:22:02-07:00	2020-05-19T22:49:56+00:00	2020-05-21T06:59:59+00:00	-2	nns3dp1bg2hsz53@marketplace.amazon.com	Jonathan Webb	+1 210-728-4548 ext. 38592	ABR001	Arabella Bouquets 12 Stems of Fresh Cut Red Roses in a Free Designer Glass Vase	1	0	1	SecondDay	Vicky Webb	905 HOLLYWOOD AVE			DES PLAINES	IL	60016-3214	US		Hi Vicky, Happy Anniversary! From Jonathan	false		
112-8329911-2718605	58074305104490	2020-05-19T22:21:30+00:00	2020-05-19T15:21:30-07:00	2020-05-19T22:51:58+00:00	2020-05-23T06:59:59+00:00	-4	r887pryfw7tf2bb@marketplace.amazon.com	Seamus Owens	+1 412-532-4665 ext. 76697	ABR0022	Arabella Farm Direct Bouquet of 12 Fresh Cut Pink Roses with a Free Glass Vase	1	0	1	Expedited	Whitney Owens	4771 FARNDON CT			FAIRFAX	VA	22032-1912	US			false		
113-4046035-7013800	66710457501826	2020-05-19T22:24:18+00:00	2020-05-19T15:24:18-07:00	2020-05-19T22:54:11+00:00	2020-05-21T06:59:59+00:00	-2	tx85ffghwbnk5mv@marketplace.amazon.com	Lizzie Braidwood	+1 412-532-4665 ext. 37238	ABR014	Arabella Bouquets 18 Stems of Fresh Cut White Roses in a Free Designer Glass Vase	1	0	1	SecondDay	Jaelyn Daniella Rose	9730 SW 35TH DR APT 10			PORTLAND	OR	97219-6122	US		I love you From Lizzie x	false		
112-9993463-4218609	00967774155634	2020-05-19T22:44:40+00:00	2020-05-19T15:44:40-07:00	2020-05-19T23:09:31+00:00	2020-05-21T06:59:59+00:00	-2	mn0tjjpl2y2w1fk@marketplace.amazon.com	Christina Stevens	+1 210-728-4548 ext. 15618	ABR0055	Arabella Farm Direct Bouquet of 12 Stems of Fresh Cut Hot Pink Roses in a Free Designer Glass Vase	1	0	1	SecondDay	Ashaley Calcano	27 EMPIRE ST			LYNN	MA	01902-1838	US		Hi Ashaley, Congratulations on your college graduation!  Such a huge accomplishment, especially during a pandemic!  I’m proud of you and I appreciate everything you do! Chrissie	false		
111-4323436-3894631	60418710324882	2020-05-19T23:05:57+00:00	2020-05-19T16:05:57-07:00	2020-05-19T23:35:08+00:00	2020-05-21T06:59:59+00:00	-2	fvsq24f6ymsw8b4@marketplace.amazon.com	Kathleen DeMott	+1 210-728-4548 ext. 05688	ABR004	Arabella Farm Direct Bouquet of 12 Fresh Cut Yellow Roses with a Free Glass Vase	1	0	1	SecondDay	Kathleen Demott	31 PHEASANT DR			COMMACK	NY	11725-4928	US			false		
114-9307761-9674639	16732316522690	2020-05-19T23:16:33+00:00	2020-05-19T16:16:33-07:00	2020-05-19T23:40:49+00:00	2020-05-23T06:59:59+00:00	-4	7v8ygs5f69ksb68@marketplace.amazon.com	Richard Koopmans	+1 314-282-9402 ext. 87174	ABR0022	Arabella Farm Direct Bouquet of 12 Fresh Cut Pink Roses with a Free Glass Vase	1	0	1	Expedited	Jordan Ryan	2715 140TH PL SE			MILL CREEK	WA	98012-5016	US			false		
114-1574125-0633846	67134803772314	2020-05-19T23:21:26+00:00	2020-05-19T16:21:26-07:00	2020-05-19T23:44:18+00:00	2020-05-23T06:59:59+00:00	-4	ggwbwsq5dk9yc4x@marketplace.amazon.com	Sarah Huchendorf	+1 314-282-9402 ext. 97418	ABR0022	Arabella Farm Direct Bouquet of 12 Fresh Cut Pink Roses with a Free Glass Vase	1	0	1	Expedited	Rita Huchendorf	1544 NW 9TH CT			MCMINNVILLE	OR	97128-5302	US		Happy late Mothers Day!! You may not of gave me the gift of life but life gave me the gift of you my beautiful mother.  Love your daughter ..Sarah From Sarah Huchendorf	false		
113-3916644-8567424	29342693663194	2020-05-19T23:25:02+00:00	2020-05-19T16:25:02-07:00	2020-05-19T23:51:09+00:00	2020-05-23T06:59:59+00:00	-4	ds6zpdq9nrk221p@marketplace.amazon.com	Julian Maldonado	+1 347-448-3190 ext. 89056	ABM010	Arabella Bouquets | Fields of The World Bouquet of Fresh Cut Flowers in a Free Designer Glass Vase	1	0	1	Expedited	Kaitlyn Shannon	1367 FRONTIER DR UNIT 2			MOREHEAD	KY	40351-1375	US		Kaitlyn, thank you for your support during this very challenging time . It means the world. From Nashville	false		
111-3307140-1818622	54147929378066	2020-05-19T23:29:50+00:00	2020-05-19T16:29:50-07:00	2020-05-19T23:55:35+00:00	2020-05-23T06:59:59+00:00	-4	dh346fhd7018s4g@marketplace.amazon.com	Season Bell	+1 314-282-9402 ext. 07276	ABM010	Arabella Bouquets | Fields of The World Bouquet of Fresh Cut Flowers in a Free Designer Glass Vase	1	0	1	Expedited	Darlene Joseph	12384 DE COOK DR			STERLING HEIGHTS	MI	48313-2548	US		Praying for a speedy recovery and hope you are feeling like yourself again soon! Love,  Season, Michelle and The Students in Room 8 From Season Bell, Michelle Nowinski and The Students in Room 8	false		
112-8689269-8422600	67635853724674	2020-05-19T23:33:01+00:00	2020-05-19T16:33:01-07:00	2020-05-20T00:00:35+00:00	2020-05-23T06:59:59+00:00	-4	hkwb7n32s03v5kw@marketplace.amazon.com	John	+1 210-728-4548 ext. 49551	ABM010	Arabella Bouquets | Fields of The World Bouquet of Fresh Cut Flowers in a Free Designer Glass Vase	1	0	1	Expedited	Bill and Lucille Gash	24 LAYTON LN			CENTEREACH	NY	11720-3631	US		Happy 60th Birthday Lucille. We wish we could be there with you. I hope you have a day filled with joy and laughter.  Lots of love, John, Sandy and Kelly	false		
112-1341955-5177026	65104930693586	2020-05-19T23:37:34+00:00	2020-05-19T16:37:34-07:00	2020-05-20T00:07:43+00:00	2020-05-21T06:59:59+00:00	-2	wf91546pmwswnp9@marketplace.amazon.com	Carlos	+1 347-448-3190 ext. 83784	ABR0055	Arabella Farm Direct Bouquet of 12 Stems of Fresh Cut Hot Pink Roses in a Free Designer Glass Vase	1	0	1	SecondDay	Esmeralda Castellón	705 N 11TH ST			READING	PA	19604-2503	US			false		
113-7151149-4667439	54056664001026	2020-05-19T23:41:13+00:00	2020-05-19T16:41:13-07:00	2020-05-20T00:09:16+00:00	2020-05-23T06:59:59+00:00	-4	y85jl8xtd0g8nk7@marketplace.amazon.com	Hannah E. Michaelsen	+1 314-282-9402 ext. 56624	ABR0022	Arabella Farm Direct Bouquet of 12 Fresh Cut Pink Roses with a Free Glass Vase	1	0	1	Expedited	Rosa Valledor	313 NEWBURY ST			HERCULES	CA	94547-3690	US		Happy Birthday Rosa! I hope you feel of all of the love those in your life have for you today and always. Wishing you a blessed year.  Love, Hannah	false		
114-5788446-7522601	42215979564754	2020-05-19T23:51:03+00:00	2020-05-19T16:51:03-07:00	2020-05-20T00:16:15+00:00	2020-05-21T06:59:59+00:00	-2	f62gym0bhl16bwy@marketplace.amazon.com	Helen Glunz	+1 347-448-3190 ext. 57289	ABR0066	Arabella Bouquets | 12 Stems of Fresh Cut White Roses in a Free Designer Glass Vase	1	0	1	SecondDay	Tyler Glunz	6140 N KILBOURN AVE			CHICAGO	IL	60646-5020	US		Dearest Tyler, After lots of hard work congratulations on your graduation! We are so proud of you! We love you very much,  Grandma and Papa G. From Helen Glunz	false		
111-5901964-9996240	57585029818098	2020-05-19T23:48:17+00:00	2020-05-19T16:48:17-07:00	2020-05-20T00:16:54+00:00	2020-05-23T06:59:59+00:00	-4	5vphk2bqsvx2fj4@marketplace.amazon.com	Dawn Lovell	+1 314-282-9402 ext. 49366	ABR0022	Arabella Farm Direct Bouquet of 12 Fresh Cut Pink Roses with a Free Glass Vase	1	0	1	Expedited	Mrs. Carolyn Lee	3348 Ouachita 67			Louann	AR	71751	US		Love and miss my mama! From Dawn Lovell	false		
114-1480179-9860242	11532179393474	2020-05-19T23:57:03+00:00	2020-05-19T16:57:03-07:00	2020-05-20T00:27:39+00:00	2020-05-23T06:59:59+00:00	-4	9rb6y44d8f5g3sy@marketplace.amazon.com	JOE VICARI	+1 210-728-4548 ext. 04808	ABM010	Arabella Bouquets | Fields of The World Bouquet of Fresh Cut Flowers in a Free Designer Glass Vase	1	0	1	Expedited	JOE VICARI JR	4181 CARNEROS WAY			JACKSON	WI	53037-9121	US			false		
114-2293536-7192206	00441479767506	2020-05-20T00:04:56+00:00	2020-05-19T17:04:56-07:00	2020-05-20T00:32:55+00:00	2020-05-23T06:59:59+00:00	-4	lsr4k2dn4jnbz8w@marketplace.amazon.com	Jonathan	+1 314-282-9402 ext. 01820	ABR0033	Arabella Farm Direct Bouquet of 12 Fresh Cut Orange Roses with a Free Glass Vase	1	0	1	Expedited	Judy Zizzo	3986 JOSH ST			EUGENE	OR	97402-5645	US		Happy Birthday!  We love you so much! From Jonathan & Michelle	false		
114-3009881-4853837	06353053443402	2020-05-20T00:04:50+00:00	2020-05-19T17:04:50-07:00	2020-05-20T00:35:19+00:00	2020-05-21T06:59:59+00:00	-2	5fg4ly4lwrdgb77@marketplace.amazon.com	Nancy Torres	+1 314-282-9402 ext. 27501	ABR001	Arabella Bouquets 12 Stems of Fresh Cut Red Roses in a Free Designer Glass Vase	1	0	1	SecondDay	Judy Miller	4848 CLIBURN DR			KELLER	TX	76244-6128	US			false		
112-3118722-6485830	40244093604466	2020-05-20T00:25:55+00:00	2020-05-19T17:25:55-07:00	2020-05-20T00:47:23+00:00	2020-05-23T06:59:59+00:00	-4	n3d83l0wydyk62w@marketplace.amazon.com	Mary Ellen Radosevich	+1 314-282-9402 ext. 81226	ABR0022	Arabella Farm Direct Bouquet of 12 Fresh Cut Pink Roses with a Free Glass Vase	1	0	1	Expedited	Sharon Kent-Lanes	2650 CHESTNUT AVE			CARLSBAD	CA	92010-2123	US		Happy Birthday to a special lady! Love, Peri From Peri Earlywine	false		
112-9269275-3453017	09039750005130	2020-05-20T00:24:31+00:00	2020-05-19T17:24:31-07:00	2020-05-20T00:52:59+00:00	2020-05-23T06:59:59+00:00	-4	j19xgj601t5dhq6@marketplace.amazon.com	William Allgood	+1 210-728-4548 ext. 30675	ABR0022	Arabella Farm Direct Bouquet of 12 Fresh Cut Pink Roses with a Free Glass Vase	1	0	1	Expedited	Sarah Stutsman	757 SUNSET VISTA DR			SIERRA VISTA	AZ	85635-6734	US		Because a beautiful woman always deserves flowers From William Allgood	false		
114-8905736-6757801	13820080025818	2020-05-20T00:30:03+00:00	2020-05-19T17:30:03-07:00	2020-05-20T00:57:55+00:00	2020-05-23T06:59:59+00:00	-4	6kh62689k2g97rg@marketplace.amazon.com	Stephanie Lewis	+1 347-448-3190 ext. 41507	ABR0033	Arabella Farm Direct Bouquet of 12 Fresh Cut Orange Roses with a Free Glass Vase	1	0	1	Expedited	Kimberly Clark	16 N LINCOLN AVE			FOND DU LAC	WI	54935-3202	US		We are so sorry to hear about your brother.  You and your family are in our thoughts and prayers. Love, 2014 triplet moms	false		
113-8659982-2047426	17480967510642	2020-05-20T00:36:15+00:00	2020-05-19T17:36:15-07:00	2020-05-20T01:01:54+00:00	2020-05-23T06:59:59+00:00	-4	kghw6z95v26q92l@marketplace.amazon.com	Humeyra Selcukbiricik	+1 347-448-3190 ext. 46942	ABR0033	Arabella Farm Direct Bouquet of 12 Fresh Cut Orange Roses with a Free Glass Vase	1	0	1	Expedited	Sarah Stiles	162 RIVER SONG LN			SPERRYVILLE	VA	22740-2388	US		Dear Professor Stiles, Thank you for looking after me for four years. You were like a second mother to me. Happy Mother’s Day.  -Meyra From Humeyra Selcukbiricik	false		
111-1694390-8544269	38425794090314	2020-05-20T00:47:59+00:00	2020-05-19T17:47:59-07:00	2020-05-20T01:05:01+00:00	2020-05-23T06:59:59+00:00	-4	tjmbxmv3dbmpqlj@marketplace.amazon.com	marie salter	+1 347-448-3190 ext. 35400	ABR0022	Arabella Farm Direct Bouquet of 12 Fresh Cut Pink Roses with a Free Glass Vase	1	0	1	Expedited	Ms. Battle	387 GREENWOOD DR			BILOXI	MS	39531-3011	US		I just wanted you to know that we were thinking if you. I know it's not much. But I hope it brightens up your day and put a smile on your beautiful face. We love you and praying for you! From Marie and Marcus Salter	false		
114-1524110-6418663	31094128872482	2020-05-20T00:52:06+00:00	2020-05-19T17:52:06-07:00	2020-05-20T01:07:33+00:00	2020-05-23T06:59:59+00:00	-4	nd41nfx6tv13wxh@marketplace.amazon.com	Ann Stumbaugh	+1 210-728-4548 ext. 13743	ABR0022	Arabella Farm Direct Bouquet of 12 Fresh Cut Pink Roses with a Free Glass Vase	1	0	1	Expedited	Carrie Christine	274 COUNTRY CLUB RD			YORK	PA	17403-3648	US		Enjoy! Love you! From Uncle Fred & Aunt Ann	false		
111-0588375-5293057	67377225715962	2020-05-20T00:40:35+00:00	2020-05-19T17:40:35-07:00	2020-05-20T01:10:20+00:00	2020-05-23T06:59:59+00:00	-4	k51nh2q7zbrtz44@marketplace.amazon.com	Brianna Schmidt	+1 347-448-3190 ext. 04212	ABM010	Arabella Bouquets | Fields of The World Bouquet of Fresh Cut Flowers in a Free Designer Glass Vase	1	0	1	Expedited	Dana Watson	314 W TAYLOR RD			LOMBARD	IL	60148-3265	US		Happy birthday! Love Brie From Brianna Schmidt	false		
114-5188823-6400229	58835637470682	2020-05-20T00:44:45+00:00	2020-05-19T17:44:45-07:00	2020-05-20T01:11:30+00:00	2020-05-21T06:59:59+00:00	-2	x4fbbgdlby9lw6w@marketplace.amazon.com	Jan Nastick	+1 347-448-3190 ext. 51373	ABR0055	Arabella Farm Direct Bouquet of 12 Stems of Fresh Cut Hot Pink Roses in a Free Designer Glass Vase	1	0	1	SecondDay	Aubrey Strock	1464 OLDENBURG DR			MOUNT PLEASANT	SC	29429-4965	US		Happy 5th Grade Graduation Aubrey! We are so very proud of all your hard work and accomplishments, you are amazing! From Love you always, Gram & Grandpa	false		
112-8995425-7033009	66534617135722	2020-05-19T20:23:39+00:00	2020-05-19T13:23:39-07:00	2020-05-20T01:14:52+00:00	2020-05-21T06:59:59+00:00	-2	g8yrtt2nccpqnvm@marketplace.amazon.com	linda karlins	+1 314-282-9402 ext. 97042	ABR0022	Arabella Farm Direct Bouquet of 12 Fresh Cut Pink Roses with a Free Glass Vase	1	0	1	SecondDay	Kym Cecil	114 SOMERSET PARK DR			HUNTSVILLE	AL	35811-7113	US		I hope you feel better soon! From Aunt Ella	false		
111-0472965-1513835	46491813713114	2020-05-20T00:46:15+00:00	2020-05-19T17:46:15-07:00	2020-05-20T01:16:49+00:00	2020-05-21T06:59:59+00:00	-2	jtg3k4mz88j6xys@marketplace.amazon.com	Lawrence	+1 314-282-9402 ext. 43019	ABR001	Arabella Bouquets 12 Stems of Fresh Cut Red Roses in a Free Designer Glass Vase	1	0	1	SecondDay	Lawrence T Chan	223 CENTRAL AVE			NEW PROVIDENCE	NJ	07974-2608	US			false		
114-6482755-1752261	58028214228218	2020-05-20T00:56:44+00:00	2020-05-19T17:56:44-07:00	2020-05-20T01:19:57+00:00	2020-05-21T06:59:59+00:00	-2	q190zj3x5mg5wr8@marketplace.amazon.com	HU LIU	+1 210-728-4548 ext. 39429	ABR001	Arabella Bouquets 12 Stems of Fresh Cut Red Roses in a Free Designer Glass Vase	1	0	1	SecondDay	Ji Wang	558 WILLIAMSBURG CT APT D			WOOSTER	OH	44691-2445	US			false		
112-8572492-4880215	06232188859994	2020-05-20T00:57:33+00:00	2020-05-19T17:57:33-07:00	2020-05-20T01:20:17+00:00	2020-05-23T06:59:59+00:00	-4	bv8444jyxw16n6s@marketplace.amazon.com	Aven Bittinger	+1 210-728-4548 ext. 53141	ABR0022	Arabella Farm Direct Bouquet of 12 Fresh Cut Pink Roses with a Free Glass Vase	1	0	1	Expedited	Proano Lee Casandra	950 E SPRUCE ST			TITUSVILLE	PA	16354-2063	US		Just something to brighten the day, Shutdown sucks but who says there can't be any joy? Hope all is well and that you and your family are staying safe. From Aven B	false		
112-0957672-5006658	58914346002738	2020-05-20T01:16:39+00:00	2020-05-19T18:16:39-07:00	2020-05-20T01:31:24+00:00	2020-05-23T06:59:59+00:00	-4	h0phtdprq2ff8k1@marketplace.amazon.com	Cory Lee	+1 347-448-3190 ext. 85043	ABR0022	Arabella Farm Direct Bouquet of 12 Fresh Cut Pink Roses with a Free Glass Vase	1	0	1	Expedited	Kiesha Pinson	4824 W CRYSTAL ST			CHICAGO	IL	60651-1523	US		Hi Kisha, Happy Birthday and enjoy your gift! From Cory Lee	false		
113-6879247-5004224	38412317478474	2020-05-20T01:06:00+00:00	2020-05-19T18:06:00-07:00	2020-05-20T01:35:02+00:00	2020-05-23T06:59:59+00:00	-4	llc56vs708zy4pc@marketplace.amazon.com	Lidija Polutnik	+1 347-448-3190 ext. 21126	ABR0033	Arabella Farm Direct Bouquet of 12 Fresh Cut Orange Roses with a Free Glass Vase	1	0	1	Expedited	Judy and Larry Dragiewicz	801 N SCENIC DR			PAYSON	AZ	85541-2925	US		Dear Judy and Larry, Wishing you a lovely time in Payson. Sending love, Lidija From Lidija Polutnik	false		
114-4002467-5262652	00670644740226	2020-05-20T01:17:18+00:00	2020-05-19T18:17:18-07:00	2020-05-20T01:39:00+00:00	2020-05-23T06:59:59+00:00	-4	fs173j1xtp799tk@marketplace.amazon.com	Kassandra Cassily	+1 347-448-3190 ext. 44797	ABR0033	Arabella Farm Direct Bouquet of 12 Fresh Cut Orange Roses with a Free Glass Vase	1	0	1	Expedited	Will Reeves & Randy Baidas	12381 SW Bayshore Drive			Traverse City	MI	49684	US		I love you both SO much and have been thinking of you constantly!  Here’s a bit of spring to brighten up your recovery!! Xo From Kassandra Cassily	false		
112-0345023-8190673	36329418517170	2020-05-20T01:13:17+00:00	2020-05-19T18:13:17-07:00	2020-05-20T01:41:17+00:00	2020-05-23T06:59:59+00:00	-4	yld5kwg3tr6tw8y@marketplace.amazon.com	Imraan Ahmed	+1 210-728-4548 ext. 24902	ABR0022	Arabella Farm Direct Bouquet of 12 Fresh Cut Pink Roses with a Free Glass Vase	1	0	1	Expedited	Dinaz Ali Yasin	564 PONTIAC RD			EAST MEADOW	NY	11554-5417	US		Dearest Dinaz & Family,  Thinking of you and sending love & hugs, From Anita	false		
112-7610938-9107411	30282611715474	2020-05-20T01:11:34+00:00	2020-05-19T18:11:34-07:00	2020-05-20T01:41:43+00:00	2020-05-21T06:59:59+00:00	-2	jd2xrzd31vy1937@marketplace.amazon.com	Miles Payne	+1 210-728-4548 ext. 53348	ABR001	Arabella Bouquets 12 Stems of Fresh Cut Red Roses in a Free Designer Glass Vase	1	0	1	SecondDay	Miles Payne	DUPLEX A 1550 W 42ND ST			NORFOLK	VA	23508-2208	US			false		
114-2465698-4901853	49922408214186	2020-05-20T01:15:39+00:00	2020-05-19T18:15:39-07:00	2020-05-20T01:41:45+00:00	2020-05-21T06:59:59+00:00	-2	30bpgkzbrcrqg0x@marketplace.amazon.com	Robyn	+1 347-448-3190 ext. 26148	ABR0055	Arabella Farm Direct Bouquet of 12 Stems of Fresh Cut Hot Pink Roses in a Free Designer Glass Vase	1	0	1	SecondDay	Bev Dorion	9610 FAIRBURY LN			LINCOLN	NE	68516-9437	US		Happy Birthday!  Love you From Marty and Robyn	false		
114-9431380-0273821	07519372592266	2020-05-20T01:17:07+00:00	2020-05-19T18:17:07-07:00	2020-05-20T01:46:37+00:00	2020-05-23T06:59:59+00:00	-4	f30g4s1fk8kj58g@marketplace.amazon.com	Kathleen McMahon	+1 347-448-3190 ext. 20420	ABR0022	Arabella Farm Direct Bouquet of 12 Fresh Cut Pink Roses with a Free Glass Vase	1	0	1	Expedited	Lilly Buchanan	4924 N OAKLEY AVE			CHICAGO	IL	60625-1926	US		Happy graduation, Lil! We’re so proud of you. Love you! From Love, Aunt Kathleen & Uncle George	false		
113-3836261-1206617	18382396396618	2020-05-20T01:06:40+00:00	2020-05-19T18:06:40-07:00	2020-05-20T01:46:48+00:00	2020-05-23T06:59:59+00:00	-4	0gsw1hhdsfgq5kx@marketplace.amazon.com	Jess	+1 210-728-4548 ext. 26385	ABM010	Arabella Bouquets | Fields of The World Bouquet of Fresh Cut Flowers in a Free Designer Glass Vase	1	0	1	Expedited	Jesse G Gamboa	613 FLAGSTAFF AVE			GRANTS	NM	87020-2926	US			false		
114-6393063-5428254	54718185930482	2020-05-20T01:21:02+00:00	2020-05-19T18:21:02-07:00	2020-05-20T01:51:30+00:00	2020-05-23T06:59:59+00:00	-4	yn5x17z96xj8hhs@marketplace.amazon.com	Kelly Roberts	+1 347-448-3190 ext. 79555	ABR0022	Arabella Farm Direct Bouquet of 12 Fresh Cut Pink Roses with a Free Glass Vase	1	0	1	Expedited	MaryAnn Mansker	13590 S OUTER 40 RD APT 118			CHESTERFIELD	MO	63017-5824	US			false		
113-5834014-8792262	00413325776642	2020-05-20T01:33:48+00:00	2020-05-19T18:33:48-07:00	2020-05-20T01:57:14+00:00	2020-05-21T06:59:59+00:00	-2	zjyr36km3y89jj1@marketplace.amazon.com	Tehgah	+1 412-532-4665 ext. 45376	ABR011	Arabella Bouquets 18 Stems of Fresh Cut Red Roses in a Free Glass Vase	1	0	1	SecondDay	J Christelle Mokpissoko	25 W 132ND ST NY NY 10037			NEW YORK	NY	10037-3202	US		Des pensées sur vous ... tous les jours surtout ... profondément aussi  Profitez de votre cadeau From #Tehgah!	false		
113-1528856-6681058	15284217382074	2020-05-20T01:38:00+00:00	2020-05-19T18:38:00-07:00	2020-05-20T02:06:16+00:00	2020-05-23T06:59:59+00:00	-4	56gz7xd28xmggqf@marketplace.amazon.com	carmen	+1 347-448-3190 ext. 44145	ABM010	Arabella Bouquets | Fields of The World Bouquet of Fresh Cut Flowers in a Free Designer Glass Vase	1	0	1	Expedited	Carmen Eyvazi	19741 BRYANT ST			WINNETKA	CA	91306-1407	US			false		
112-4157545-2893853	63805612918890	2020-05-20T01:43:44+00:00	2020-05-19T18:43:44-07:00	2020-05-20T02:13:15+00:00	2020-05-23T06:59:59+00:00	-4	p9jfqfrd7ffhmg6@marketplace.amazon.com	mark kaplan	+1 347-448-3190 ext. 80360	ABM010	Arabella Bouquets | Fields of The World Bouquet of Fresh Cut Flowers in a Free Designer Glass Vase	1	0	1	Expedited	mark kaplan	51 TULIP DR			BREWSTER	NY	10509-2823	US			false		
113-4118661-8494653	21267679641418	2020-05-20T01:49:02+00:00	2020-05-19T18:49:02-07:00	2020-05-20T02:14:59+00:00	2020-05-23T06:59:59+00:00	-4	07726yxzlgpcl5b@marketplace.amazon.com	Elizabeth A Russell	+1 347-448-3190 ext. 22241	ABR0022	Arabella Farm Direct Bouquet of 12 Fresh Cut Pink Roses with a Free Glass Vase	1	0	1	Expedited	Catherine Bing	15 EMERSON RD			SOMERSET	NJ	08873-1614	US		HAPPY BIRTHDAY!!!! We wish you all the best.  Love you, From Betty Ann and Bob	false		
113-3091700-3546650	17194072267346	2020-05-20T02:00:49+00:00	2020-05-19T19:00:49-07:00	2020-05-20T02:22:18+00:00	2020-05-23T06:59:59+00:00	-4	9jt0rnqtgm9b5tw@marketplace.amazon.com	Mark	+1 314-282-9402 ext. 30135	ABM010	Arabella Bouquets | Fields of The World Bouquet of Fresh Cut Flowers in a Free Designer Glass Vase	1	0	1	Expedited	Eulalia Herrera Nuñez	33 TALBOT AVE APT 204			NORTH BILLERICA	MA	01862-1429	US			false		
111-9756695-7512234	18496353379506	2020-05-20T02:09:45+00:00	2020-05-19T19:09:45-07:00	2020-05-20T02:32:15+00:00	2020-05-23T06:59:59+00:00	-4	07jdbflgxw42pbc@marketplace.amazon.com	boyan	+1 314-282-9402 ext. 62315	ABR0022	Arabella Farm Direct Bouquet of 12 Fresh Cut Pink Roses with a Free Glass Vase	1	0	1	Expedited	meizhizi Jin	3726 36TH ST APT 9G			LONG ISLAND CITY	NY	11101-1646	US			false		
114-5538978-0141850	23720790389970	2020-05-20T02:09:35+00:00	2020-05-19T19:09:35-07:00	2020-05-20T02:34:25+00:00	2020-05-23T06:59:59+00:00	-4	b41292k31bfzsr8@marketplace.amazon.com	Linda Santillan	+1 210-728-4548 ext. 98273	ABM010	Arabella Bouquets | Fields of The World Bouquet of Fresh Cut Flowers in a Free Designer Glass Vase	1	0	1	Expedited	Chapel of the chimes	32992 MISSION BLVD			HAYWARD	CA	94544-8257	US			false		
111-0341333-7244278	31599627461610	2020-05-20T02:11:08+00:00	2020-05-19T19:11:08-07:00	2020-05-20T02:34:43+00:00	2020-05-21T06:59:59+00:00	-2	k1rc7ts7dy2fnm3@marketplace.amazon.com	Julia Cantor	+1 347-448-3190 ext. 87824	ABM0044	Arabella Farm Direct Bouquet of Fresh Cut Blue Hydrangea with a Free Glass Vase	1	0	1	SecondDay	Keri Palacio	217 MYSTIC QUARTZ LN			HOLLY SPRINGS	NC	27540-6461	US		Dear Keri, We love you!  Thinking of you and your family. Love, Natalie, Angela and Julia From Julia, Natalie, and Angela	false		
114-3980779-5830627	64420146357626	2020-05-20T02:35:41+00:00	2020-05-19T19:35:41-07:00	2020-05-20T02:36:33+00:00	2020-05-21T06:59:59+00:00	-2	8cmc6lts4g6kmwl@marketplace.amazon.com	Daniel Eikom	+1 347-448-3190 ext. 06836	ABR0055	Arabella Farm Direct Bouquet of 12 Stems of Fresh Cut Hot Pink Roses in a Free Designer Glass Vase	1	0	1	SecondDay	Steve & Nancy Hagberg	810 WHISPERING WIND CT			PORT ORANGE	FL	32128-7515	US		Congratulations on your 30th Anniversary! From Daniel Eikom	false		
114-2108789-4393061	06904425419218	2020-05-20T02:15:10+00:00	2020-05-19T19:15:10-07:00	2020-05-20T02:44:16+00:00	2020-05-23T06:59:59+00:00	-4	43w5l2w36rx2hdq@marketplace.amazon.com	Christian E Doepp	+1 412-532-4665 ext. 79963	ABR0033	Arabella Farm Direct Bouquet of 12 Fresh Cut Orange Roses with a Free Glass Vase	1	0	1	Expedited	Ms. Victoria Edwards	49 WILLOWOOD			ALISO VIEJO	CA	92656-2974	US		Victoria, Thought it was a good time to resend these as the first time it didn't work out..... Love you!  C. From Christian E Doepp	false		
112-7035780-6373860	45711445874442	2020-05-20T02:18:47+00:00	2020-05-19T19:18:47-07:00	2020-05-20T02:45:44+00:00	2020-05-23T06:59:59+00:00	-4	1gp3tf1xv6f3w2t@marketplace.amazon.com	Deborah Kalcevic	+1 210-728-4548 ext. 79592	ABM010	Arabella Bouquets | Fields of The World Bouquet of Fresh Cut Flowers in a Free Designer Glass Vase	1	0	1	Expedited	Chilelu and Becky Kakanwa	13031 POPPY SEED			SAN ANTONIO	TX	78253-6146	US		Becky, Happy Birthday!! From Miss Debb	false		
114-7691979-9225840	43659457368778	2020-05-20T02:27:52+00:00	2020-05-19T19:27:52-07:00	2020-05-20T02:56:26+00:00	2020-05-23T06:59:59+00:00	-4	r14ybhj7md8snmm@marketplace.amazon.com	david rodriguez	+1 763-225-9463 ext. 01181	ABM010	Arabella Bouquets | Fields of The World Bouquet of Fresh Cut Flowers in a Free Designer Glass Vase	1	0	1	Expedited	Brian Bomaster	302 N JOHNSON RD RM128			MOORESVILLE	IN	46158-5504	US			false		
111-5005678-5189857	47454888560010	2020-05-20T02:30:05+00:00	2020-05-19T19:30:05-07:00	2020-05-20T03:08:23+00:00	2020-05-23T06:59:59+00:00	-4	s2lxn78nkqjj2tp@marketplace.amazon.com	Diana Pan	+1 347-448-3190 ext. 62041	ABR0022	Arabella Farm Direct Bouquet of 12 Fresh Cut Pink Roses with a Free Glass Vase	1	0	1	Expedited	Diana Pan	9201 W SUNSET BLVD STE GF-1			WEST HOLLYWOOD	CA	90069-3711	US		Happy Happy Birthday, Sandita!!!! From Diana Pan	false		
112-2713726-1153846	65135508507626	2020-05-20T02:40:29+00:00	2020-05-19T19:40:29-07:00	2020-05-20T03:09:33+00:00	2020-05-23T06:59:59+00:00	-4	hly9j7x4fpsfm5r@marketplace.amazon.com	WILLIAM R DEWITT	+1 347-448-3190 ext. 02709	ABR0022	Arabella Farm Direct Bouquet of 12 Fresh Cut Pink Roses with a Free Glass Vase	1	0	1	Expedited	Karen Gibson	11436 W 18 MILE RD			RUDYARD	MI	49780-9463	US		Happy Birthday Mom! From Bill, Christina, Claire, Luke, and Hodor	false		
114-7870218-1330619	32343509748298	2020-05-20T02:46:22+00:00	2020-05-19T19:46:22-07:00	2020-05-20T03:12:19+00:00	2020-05-21T06:59:59+00:00	-2	55h1xww21wgqy24@marketplace.amazon.com	Mary Rutherford	+1 347-448-3190 ext. 04851	ABM0033	Arabella Farm Direct Bouquet of Fresh Cut White Hydrangea with a Free Glass Vase	1	0	1	SecondDay	Chloe Carlstrom	1015 ARAPAHOE CIR			LOUISVILLE	CO	80027-1065	US		Happy 21st Birthday, Chloe!! Love you! Nanny Jane, Dave, Mary, Taylor, Max (and Buddy!) From Mary Rutherford	false		
111-2600896-6574614	33337066670362	2020-05-20T02:47:58+00:00	2020-05-19T19:47:58-07:00	2020-05-20T03:12:20+00:00	2020-05-21T06:59:59+00:00	-2	5m113f6y5f07s1c@marketplace.amazon.com	Osmin Hernández	+1 314-282-9402 ext. 53783	ABSR004	Arabella Farm Direct Bouquet of Fresh Cut White Spray Roses with a Free Glass Vase	1	0	1	SecondDay	EVELIN Hercules	4649 PEACHTREE PLACE PKWY APT H			ATLANTA	GA	30360-2379	US		Mi reina. Tenerla en mi vida  es una bendición maravillosa   me siento dichoso de yamarla mi reina  TEAMO usted es la mujer que amo con toda mi Alma TEAMO  EVELIN JESSENIA HÉRCULES De Su otra mi tad 😍😍😍	false		
113-7803700-0541811	12266655868626	2020-05-20T02:52:41+00:00	2020-05-19T19:52:41-07:00	2020-05-20T03:17:29+00:00	2020-05-23T06:59:59+00:00	-4	0zqmym69ymghty3@marketplace.amazon.com	Mary Madrid	+1 347-448-3190 ext. 97358	ABR0022	Arabella Farm Direct Bouquet of 12 Fresh Cut Pink Roses with a Free Glass Vase	1	0	1	Expedited	Jennifer Jimenez	15342 WIEMER AVE			PARAMOUNT	CA	90723-4459	US		Baby Cub, Happy Anniversary and I love you so much! I'm so blessed and honored to have u as my best friend and lover. Thank you for always being there for me. I love you with all my heart and soul. From Mama bear	false		
113-8318748-6977851	27521134987002	2020-05-20T03:00:40+00:00	2020-05-19T20:00:40-07:00	2020-05-20T03:23:11+00:00	2020-05-21T06:59:59+00:00	-2	3dscpspmd9gtn3z@marketplace.amazon.com	Allen J Rooney	+1 347-448-3190 ext. 33704	ABSR004	Arabella Farm Direct Bouquet of Fresh Cut White Spray Roses with a Free Glass Vase	1	0	1	SecondDay	Carolina Flores	5900 TEJAS DR			EL PASO	TX	79905-1915	US		Dear Grandma,  We wish that we could be with you now. We are going to miss Grandpa very much. We are with you in our thoughts and prayers. We love you!  Sincerely, Gigi, AJ & James From Gigi, AJ, and James	false		
114-5057058-1459442	04090256857754	2020-05-20T02:53:49+00:00	2020-05-19T19:53:49-07:00	2020-05-20T03:25:15+00:00	2020-05-21T06:59:59+00:00	-2	gh43t48vr3fjjhd@marketplace.amazon.com	Tatiana Palomino	+1 347-448-3190 ext. 68311	ABR0055	Arabella Farm Direct Bouquet of 12 Stems of Fresh Cut Hot Pink Roses in a Free Designer Glass Vase	1	0	1	SecondDay	Cat O'Neil	11880 E STIRRUP HIGH DR E			DEWEY	AZ	86327-6021	US		Happy Birthday, Cat! Hope you have a beautiful day! Love & Miss You! Hugs from California XoXo From Tati & Nelda ❤️	false		
111-7816450-4983417	51265844706186	2020-05-20T03:03:59+00:00	2020-05-19T20:03:59-07:00	2020-05-20T03:29:04+00:00	2020-05-23T06:59:59+00:00	-4	rl22hmmn00gb5lg@marketplace.amazon.com	JULIE ODITA	+1 314-282-9402 ext. 59127	ABR0022	Arabella Farm Direct Bouquet of 12 Fresh Cut Pink Roses with a Free Glass Vase	1	0	1	Expedited	JULIE M ODITA	6 SUNFLOWER CIRCLE			LUMBERTON	NJ	08048	US			false		
111-6772665-4318662	60130170204178	2020-05-20T03:00:24+00:00	2020-05-19T20:00:24-07:00	2020-05-20T03:31:03+00:00	2020-05-23T06:59:59+00:00	-4	tmw6grphrlzq7c8@marketplace.amazon.com	STEVEN CRAWFORD	+1 347-448-3190 ext. 91936	ABR0022	Arabella Farm Direct Bouquet of 12 Fresh Cut Pink Roses with a Free Glass Vase	1	0	1	Expedited	Margôt Stephenson	7238 MEADOW WOOD WAY			CLARKSVILLE	MD	21029-1715	US			false		
114-5645749-4265820	31700087764106	2020-05-20T03:05:44+00:00	2020-05-19T20:05:44-07:00	2020-05-20T03:33:17+00:00	2020-05-23T06:59:59+00:00	-4	3cv7z7pjpnq98vr@marketplace.amazon.com	Junfei Cao	+1 347-448-3190 ext. 47824	ABR0022	Arabella Farm Direct Bouquet of 12 Fresh Cut Pink Roses with a Free Glass Vase	1	0	1	Expedited	Lena Sun	40 WATERSIDE PLZ APT 21C			NEW YORK	NY	10010-2633	US			false		
112-2339475-4971434	16272826042866	2020-05-20T03:10:32+00:00	2020-05-19T20:10:32-07:00	2020-05-20T03:39:17+00:00	2020-05-23T06:59:59+00:00	-4	zyq0zjxsxzcm0by@marketplace.amazon.com	Alexa Ransonet	+1 314-282-9402 ext. 46900	ABR0022	Arabella Farm Direct Bouquet of 12 Fresh Cut Pink Roses with a Free Glass Vase	1	0	1	Expedited	Mary Kelley c/o Premier Wound Care	1550 E WASHINGTON ST STE 101			COLTON	CA	92324-4624	US		We love and miss you Mom (Grandma) Mary! Happy birthday!  C/o Gina From Alexa Ransonet	false		
114-8849382-3488216	61882652480314	2020-05-20T03:14:43+00:00	2020-05-19T20:14:43-07:00	2020-05-20T03:39:52+00:00	2020-05-23T06:59:59+00:00	-4	ps7kdmt6ysgzdyd@marketplace.amazon.com	盛志强	+1 210-728-4548 ext. 65931	ABR0022	Arabella Farm Direct Bouquet of 12 Fresh Cut Pink Roses with a Free Glass Vase	1	0	1	Expedited	Jessica Yang	1105 W NC Highway 12J			Chapel Hill	North Carolina	27516	US		My dear Jessica .Enjoy your 520 gift!  I love U forever. From Jonhnny	false		
114-6652327-8379447	28932980972418	2020-05-20T03:20:49+00:00	2020-05-19T20:20:49-07:00	2020-05-20T03:43:21+00:00	2020-05-23T06:59:59+00:00	-4	kdgw2zs06chzwz9@marketplace.amazon.com	vincent d scala	+1 347-448-3190 ext. 76815	ABR0022	Arabella Farm Direct Bouquet of 12 Fresh Cut Pink Roses with a Free Glass Vase	1	0	1	Expedited	Mrs Lisa Sparacino	54 W END AVE			MASSAPEQUA	NY	11758-7912	US		Hi Lisa! A little something to make you smile today!   Love you  Teresa and Vincent	false		
114-4941694-9674606	59916270609658	2020-05-20T03:40:04+00:00	2020-05-19T20:40:04-07:00	2020-05-20T04:07:19+00:00	2020-05-23T06:59:59+00:00	-4	nvlmd7rd54t2xkq@marketplace.amazon.com	Kehinde Akoja	+1 314-282-9402 ext. 29602	ABR0022	Arabella Farm Direct Bouquet of 12 Fresh Cut Pink Roses with a Free Glass Vase	1	0	1	Expedited	Adedoyinsola	119 BROWN ST			WALTHAM	MA	02453-5118	US		Happy birthday Adedoyinsola! I hope your birthday is as beautiful and wonderful as you're to my eyes. From Kenny	false		
114-2180526-5869836	57082010741458	2020-05-20T03:41:29+00:00	2020-05-19T20:41:29-07:00	2020-05-20T04:08:49+00:00	2020-05-23T06:59:59+00:00	-4	6b72xgn80hjp2ld@marketplace.amazon.com	steven lee	+1 347-448-3190 ext. 84008	ABR0022	Arabella Farm Direct Bouquet of 12 Fresh Cut Pink Roses with a Free Glass Vase	1	0	1	Expedited	Cindy Yang	1395 40TH AVE APT 1			SAN FRANCISCO	CA	94122-1251	US		Happy Birthday Cindy!!!!!!!!!! I’m sorry your bday is during shelter in place. From Jenny Tommy Jocelyn	false		
113-2277369-5129000	57419056926098	2020-05-20T03:47:46+00:00	2020-05-19T20:47:46-07:00	2020-05-20T04:15:05+00:00	2020-05-23T06:59:59+00:00	-4	htmbf02380pqjjj@marketplace.amazon.com	Raymond west	+1 347-448-3190 ext. 07906	ABM010	Arabella Bouquets | Fields of The World Bouquet of Fresh Cut Flowers in a Free Designer Glass Vase	1	0	1	Expedited	Lucy Wright	19036 FLAGSTONE DR			BOLES	AR	72926-8904	US		Love and prayers From Teresa Ray West, Jim Patsy Owens, and Sherri Steve Wright	false		
111-3230448-5527415	56480701995306	2020-05-20T03:48:55+00:00	2020-05-19T20:48:55-07:00	2020-05-20T04:19:00+00:00	2020-05-21T06:59:59+00:00	-2	lngz210dvdr21p9@marketplace.amazon.com	Esosa Agbongiator	+1 314-282-9402 ext. 73440	ABR0055	Arabella Farm Direct Bouquet of 12 Stems of Fresh Cut Hot Pink Roses in a Free Designer Glass Vase	1	0	1	SecondDay	Agbongiator Esosa	60 CRITTENDEN BLVD GOLER HOUSE	APT 913		ROCHESTER	NY	14620-4046	US			false		
111-3712669-7480263	55032325542394	2020-05-20T04:16:09+00:00	2020-05-19T21:16:09-07:00	2020-05-20T04:32:13+00:00	2020-05-23T06:59:59+00:00	-4	9g3lc33k9ldhzbj@marketplace.amazon.com	Ying Huang	+1 210-728-4548 ext. 58524	ABR0022	Arabella Farm Direct Bouquet of 12 Fresh Cut Pink Roses with a Free Glass Vase	1	0	1	Expedited	Weiyuan Fan	625 N SPRING ST # 915			MIDDLETOWN	PA	17057-1926	US		I love you blue; I love you green; I love you more than peach ice cream.	false		
113-6377292-2907428	25951908510394	2020-05-20T04:31:17+00:00	2020-05-19T21:31:17-07:00	2020-05-20T04:44:59+00:00	2020-05-23T06:59:59+00:00	-4	8nvkngp3hstj51z@marketplace.amazon.com	Carrie Leonetti	+1 347-448-3190 ext. 54139	ABR0033	Arabella Farm Direct Bouquet of 12 Fresh Cut Orange Roses with a Free Glass Vase	1	0	1	Expedited	Carolyn Burgess	1967 TUNNEL RD			BERKELEY	CA	94705-1762	US		Hi Carolyn. We're thinking of you and hoping that you're doing well. Love you, Carrie & Giovanni	false		
113-8246822-5361861	67614900879450	2020-05-20T04:21:11+00:00	2020-05-19T21:21:11-07:00	2020-05-20T04:47:51+00:00	2020-05-21T06:59:59+00:00	-2	vymjdrjmmn412n1@marketplace.amazon.com	Gloria A. Vogt-Nilsen	+1 347-448-3190 ext. 26688	ABR0066	Arabella Bouquets | 12 Stems of Fresh Cut White Roses in a Free Designer Glass Vase	1	0	1	SecondDay	Ana Gonzalez	2700 TICATICA DR			HACIENDA HEIGHTS	CA	91745-5437	US		Happy belated Mother's Day sis! So blessed to have you in our lives.  Yoyi, Erik y Bryan From Gloria A. Vogt-Nilsen	false		
113-2169086-2433805	35827146936090	2020-05-20T04:20:47+00:00	2020-05-19T21:20:47-07:00	2020-05-20T04:51:21+00:00	2020-05-23T06:59:59+00:00	-4	mnfd0zcwhc73gyf@marketplace.amazon.com	Joseph Boski	+1 347-448-3190 ext. 42951	ABR0022	Arabella Farm Direct Bouquet of 12 Fresh Cut Pink Roses with a Free Glass Vase	1	0	1	Expedited	Mia Karlita Peeler	1982 S 800 W			WOODS CROSS	UT	84087-1730	US			false		
114-5093558-7403443	68766207624770	2020-05-20T04:26:58+00:00	2020-05-19T21:26:58-07:00	2020-05-20T04:53:59+00:00	2020-05-21T06:59:59+00:00	-2	mfxx7wkzw0htczn@marketplace.amazon.com	dannylunajr	+1 347-448-3190 ext. 64014	ABR011	Arabella Bouquets 18 Stems of Fresh Cut Red Roses in a Free Glass Vase	1	0	1	SecondDay	danny luna jr	992 LAKEWOOD DR			HANFORD	CA	93230-1535	US			false		
113-8551500-1974664	21573467999418	2020-05-20T04:24:33+00:00	2020-05-19T21:24:33-07:00	2020-05-20T04:55:07+00:00	2020-05-23T06:59:59+00:00	-4	l6pnz4zz7cjm8jy@marketplace.amazon.com	Jermain T	+1 347-448-3190 ext. 34373	ABM010	Arabella Bouquets | Fields of The World Bouquet of Fresh Cut Flowers in a Free Designer Glass Vase	1	0	1	Expedited	Jermain thorpe	1327 NALLEY TER			HYATTSVILLE	MD	20785-4400	US			false		
114-1616658-3513809	21307317847634	2020-05-20T04:36:45+00:00	2020-05-19T21:36:45-07:00	2020-05-20T05:00:00+00:00	2020-05-21T06:59:59+00:00	-2	lkyfld090bn4xpc@marketplace.amazon.com	Victoria Parker	+1 347-448-3190 ext. 51051	ABR0055	Arabella Farm Direct Bouquet of 12 Stems of Fresh Cut Hot Pink Roses in a Free Designer Glass Vase	1	0	1	SecondDay	Cathy Mantell	1728 RUXTON LN APT A			REDONDO BEACH	CA	90278-3989	US		Cathy, I’m so sorry your feeling so sad. Everything is so sad right now. Hopefully things will get better soon. Your family is watching over you.    Luv, Victoria From Victoria Parker	false		
