order-id	order-item-id	purchase-date	payments-date	reporting-date	promise-date	days-past-promise	buyer-email	buyer-name	buyer-phone-number	sku	product-name	quantity-purchased	quantity-shipped	quantity-to-ship	ship-service-level	recipient-name	ship-address-1	ship-address-2	ship-address-3	ship-city	ship-state	ship-postal-code	ship-country	gift-wrap-type	gift-message-text	is-business-order	purchase-order-number	price-designation
112-2208700-8453846	44870111773170	2020-05-20T12:19:20+00:00	2020-05-20T05:19:20-07:00	2020-05-20T12:45:15+00:00	2020-05-28T06:59:59+00:00	-7	qxrzg341gg74t4k@marketplace.amazon.com	Pamela F. Martin	+1 347-448-3190 ext. 91869	ABR0022	Arabella Farm Direct Bouquet of 12 Fresh Cut Pink Roses with a Free Glass Vase	1	0	1	Expedited	Soror Joyce Veasley	38 PHEASANT RD			MATTESON	IL	60443-1021	US		Soror Joyce,  So sorry for your loss!  May God keep you and the family in his arms and give you peace and comfort.  Sisterly, Soror Pam Martin From Pamela F. Martin	false		
111-0016476-6921027	47334253781690	2020-05-20T12:41:43+00:00	2020-05-20T05:41:43-07:00	2020-05-20T13:09:28+00:00	2020-05-28T06:59:59+00:00	-7	smcg8gcr11mlhj5@marketplace.amazon.com	brandon childs	+1 763-225-9463 ext. 58395	ABR0022	Arabella Farm Direct Bouquet of 12 Fresh Cut Pink Roses with a Free Glass Vase	1	0	1	Expedited	Aunt Val	3418 183RD DR NE			SNOHOMISH	WA	98290-5689	US			false		
113-2764057-8316202	42967893447746	2020-05-20T13:17:47+00:00	2020-05-20T06:17:47-07:00	2020-05-20T13:47:00+00:00	2020-05-28T06:59:59+00:00	-7	mfv5rksmp18b1gw@marketplace.amazon.com	Abayomi	+1 763-225-9463 ext. 66581	ABR0022	Arabella Farm Direct Bouquet of 12 Fresh Cut Pink Roses with a Free Glass Vase	1	0	1	Expedited	Megan Smith	122 DUCANE ST	SUMMERVILLE SC 29483		SUMMERVILLE	SC	29483-8345	US		Enjoy your gift! I love you From Patrick Donald	false		
114-9921798-3526606	09334202241786	2020-05-20T13:23:40+00:00	2020-05-20T06:23:40-07:00	2020-05-20T13:51:15+00:00	2020-05-28T06:59:59+00:00	-7	rv380dkjq16756y@marketplace.amazon.com	Daniel Kim	+1 314-282-9402 ext. 09777	ABM010	Arabella Bouquets | Fields of The World Bouquet of Fresh Cut Flowers in a Free Designer Glass Vase	1	0	1	Expedited	Gary Dickman	2636 SW 57th Place			Oklahoma City	OK	73119	US		Queridos Amigos, Feliz Aniversario!!  Que Jehova les sigue colmando a ustedes con su Amor y sus bendiciones! From Daniel and Evelyn	false		
111-6778700-9259426	10032657750866	2020-05-20T14:10:33+00:00	2020-05-20T07:10:33-07:00	2020-05-20T14:37:30+00:00	2020-05-29T06:59:59+00:00	-8	b16dhxh28jbsdwq@marketplace.amazon.com	donna	+1 347-448-3190 ext. 44769	ABM010	Arabella Bouquets | Fields of The World Bouquet of Fresh Cut Flowers in a Free Designer Glass Vase	1	0	1	Expedited	GEORGEANN WILLIAMS	14287 ROYAL HARBOUR CT			FORT MYERS	FL	33908-6502	US		Dear Frank, Take good care of your mother!! Donna	true		
113-3526336-1567460	09508076552978	2020-05-20T14:15:47+00:00	2020-05-20T07:15:47-07:00	2020-05-20T14:42:59+00:00	2020-05-29T06:59:59+00:00	-8	pbt2rkwvpwstwnb@marketplace.amazon.com	tina jackson	+1 347-448-3190 ext. 77343	ABR0022	Arabella Farm Direct Bouquet of 12 Fresh Cut Pink Roses with a Free Glass Vase	1	0	1	Expedited	Isabella Sauro	1717 SHILLING LN			SILVER SPRING	MD	20906-2037	US		happy sweet 16 bells. i hope you have a day that's as amazing as you are...and i hope that you EAT CAKE!!!    enjoy beautiful! i love you more than chocolate!! xoxo, aunt tina	false		
113-8526419-9345816	35392419069738	2020-05-20T14:36:16+00:00	2020-05-20T07:36:16-07:00	2020-05-20T15:04:19+00:00	2020-05-28T06:59:59+00:00	-7	px0jvq29by4zlk6@marketplace.amazon.com	Chris Zahner	+1 314-282-9402 ext. 42913	ABM010	Arabella Bouquets | Fields of The World Bouquet of Fresh Cut Flowers in a Free Designer Glass Vase	1	0	1	Expedited	Rianna Schanno	14 WESTGATE RD			MASSAPEQUA PARK	NY	11762-1951	US		Rianna, so happy for you and family in welcoming Raelyn to the Schanno crew! From Enabl-ify Team	false		
113-2834869-3703440	01240464500706	2020-05-20T14:52:44+00:00	2020-05-20T07:52:44-07:00	2020-05-20T15:15:31+00:00	2020-05-28T06:59:59+00:00	-7	y5mwrc2gy3gd4q0@marketplace.amazon.com	Joshua speller	+1 347-448-3190 ext. 21881	ABM010	Arabella Bouquets | Fields of The World Bouquet of Fresh Cut Flowers in a Free Designer Glass Vase	1	0	1	Expedited	Joshua speller	7610 34TH AVE APT 5N			JACKSON HEIGHTS	NY	11372-2241	US		Happy mother's day!!!!! And hope you all enjoy these😇 From Joshua speller	false		
114-0134801-9906652	30043549196394	2020-05-20T14:58:06+00:00	2020-05-20T07:58:06-07:00	2020-05-20T15:16:20+00:00	2020-05-28T06:59:59+00:00	-7	jg0vlvhtbq1wk2l@marketplace.amazon.com	pam frazier	+1 314-282-9402 ext. 14281	ABM010	Arabella Bouquets | Fields of The World Bouquet of Fresh Cut Flowers in a Free Designer Glass Vase	1	0	1	Expedited	Nicole Rivera	1622 JIMMY DODD RD			BUFORD	GA	30518-2216	US		Hi Ms. Rivera! We are so thankful for your family. You have been such a blessing to us! Thank you for all the time you have put in to our class parties & gifts, & for all the work you do with Jonah! Love, Michael, Patty, & Courtney	false		
114-8210009-0025832	19168223881722	2020-05-20T14:46:56+00:00	2020-05-20T07:46:56-07:00	2020-05-20T15:16:33+00:00	2020-05-28T06:59:59+00:00	-7	zd6mqksb31pvj4c@marketplace.amazon.com	Michael F Bray	+1 314-282-9402 ext. 86793	ABR0022	Arabella Farm Direct Bouquet of 12 Fresh Cut Pink Roses with a Free Glass Vase	1	0	1	Expedited	Kim Markey	2115 BROOKLYN AVE			FORT WAYNE	IN	46802-6707	US		Kim,  Thank you for all you do for us here at ZKC! You have saved us many, many times!  All the best! From Mike Bray	false		
113-0425119-9905867	28454869562298	2020-05-20T15:03:55+00:00	2020-05-20T08:03:55-07:00	2020-05-20T15:30:17+00:00	2020-05-27T06:59:59+00:00	-6	zzln9fl3rp89dt4@marketplace.amazon.com	gerardo munoz	+1 314-282-9402 ext. 71829	ABR0022	Arabella Farm Direct Bouquet of 12 Fresh Cut Pink Roses with a Free Glass Vase	1	0	1	Expedited	DORA ESQUIVEL	2280 1st Ave. Lot #136			Greeley	Colorado	80631	US		I love you Mommy! I Know you wanted flowers. ❤️ From gerard munoz	false		
113-0392359-9011447	58159709264482	2020-05-20T15:14:39+00:00	2020-05-20T08:14:39-07:00	2020-05-20T15:34:22+00:00	2020-05-27T06:59:59+00:00	-6	nc1qzdpn42gdbnp@marketplace.amazon.com	Victoria	+1 314-282-9402 ext. 16887	ABR0022	Arabella Farm Direct Bouquet of 12 Fresh Cut Pink Roses with a Free Glass Vase	1	0	1	Expedited	Yah Sargbah Flomo	303 DEERFIELD AVE			DURHAM	NC	27712-2313	US		Hi Yah, Enjoy your gift! From Victoria	false		
112-8386614-5895439	06644727738362	2020-05-20T15:13:46+00:00	2020-05-20T08:13:46-07:00	2020-05-20T15:43:58+00:00	2020-05-28T06:59:59+00:00	-7	mkb7kx3j0rvymx2@marketplace.amazon.com	habib rahman	+1 314-282-9402 ext. 77205	ABM010	Arabella Bouquets | Fields of The World Bouquet of Fresh Cut Flowers in a Free Designer Glass Vase	1	0	1	Expedited	Meredith Rahman	1507 HAMPTON AVE SW			ROANOKE	VA	24015-5203	US			false		
112-7045050-4222655	07475131768658	2020-05-20T15:17:04+00:00	2020-05-20T08:17:04-07:00	2020-05-20T15:44:56+00:00	2020-05-28T06:59:59+00:00	-7	mkb7kx3j0rvymx2@marketplace.amazon.com	habib rahman	+1 347-448-3190 ext. 62285	ABM010	Arabella Bouquets | Fields of The World Bouquet of Fresh Cut Flowers in a Free Designer Glass Vase	1	0	1	Expedited	Dr Shaukat Jahan	12107 SNOW SHOE CT			HERNDON	VA	20170-2338	US			false		
111-1854160-4090604	41631147502298	2020-05-20T15:15:40+00:00	2020-05-20T08:15:40-07:00	2020-05-20T15:45:00+00:00	2020-05-28T06:59:59+00:00	-7	czbkvq9xpn1zy2y@marketplace.amazon.com	Tennille	+1 763-225-9463 ext. 03416	ABM010	Arabella Bouquets | Fields of The World Bouquet of Fresh Cut Flowers in a Free Designer Glass Vase	1	0	1	Expedited	John and Agnes Tobar	614 PARK AVE			BRISTOL	PA	19007-3026	US			false		
114-2052218-0777058	02999639524770	2020-05-20T15:44:58+00:00	2020-05-20T08:44:58-07:00	2020-05-20T15:45:58+00:00	2020-05-27T06:59:59+00:00	-6	t0lbc3cx7fw4d4h@marketplace.amazon.com	John T Ondrejcka	+1 347-448-3190 ext. 94490	ABR0022	Arabella Farm Direct Bouquet of 12 Fresh Cut Pink Roses with a Free Glass Vase	1	0	1	Expedited	Jill Grunewald	27040 ELENA RD			LOS ALTOS HILLS	CA	94022-3346	US		Happy birthday, mom! We love you.  - Whitney, John, Brie and Baby Girl Ondrejcka	false		
111-1925901-9829815	05618777183922	2020-05-20T15:29:18+00:00	2020-05-20T08:29:18-07:00	2020-05-20T15:56:39+00:00	2020-05-27T06:59:59+00:00	-6	f9h5tvp7b701bj9@marketplace.amazon.com	Katie Nestor	+1 314-282-9402 ext. 80322	ABR0022	Arabella Farm Direct Bouquet of 12 Fresh Cut Pink Roses with a Free Glass Vase	1	0	1	Expedited	Leanne Zureikat	1511 BILTMORE LN			PITTSBURGH	PA	15217-4501	US		Leanne, Thank you for all of your hard work as our homeroom parent this year! We really appreciate everything you did to make this a great year!   With gratitude,  5th Grade	true		
111-0944886-4089845	60643991823274	2020-05-20T15:32:29+00:00	2020-05-20T08:32:29-07:00	2020-05-20T16:00:30+00:00	2020-05-27T06:59:59+00:00	-6	f9h5tvp7b701bj9@marketplace.amazon.com	Katie Nestor	+1 314-282-9402 ext. 10919	ABR0022	Arabella Farm Direct Bouquet of 12 Fresh Cut Pink Roses with a Free Glass Vase	1	0	1	Expedited	Meri Iannetti	6216 HOWE ST			PITTSBURGH	PA	15206-4209	US		Meri, Thank you for all of your hard work as our homeroom parent this year! We really appreciate everything you did to make this a great year!   With gratitude,  5th Grade	true		
113-9158722-9621020	64374862393010	2020-05-20T15:58:23+00:00	2020-05-20T08:58:23-07:00	2020-05-20T16:28:07+00:00	2020-05-27T06:59:59+00:00	-6	7jsps7bqf77k5mx@marketplace.amazon.com	Lori Markman	+1 347-448-3190 ext. 01242	ABR0022	Arabella Farm Direct Bouquet of 12 Fresh Cut Pink Roses with a Free Glass Vase	1	0	1	Expedited	Lori Markman	21350 RIOS ST			WOODLAND HILLS	CA	91364-4427	US		Happy Birthday Honey!! From Lori Markman	false		
113-9079067-3001812	16859040027978	2020-05-20T16:21:33+00:00	2020-05-20T09:21:33-07:00	2020-05-20T16:51:49+00:00	2020-05-27T06:59:59+00:00	-6	p0h0cv52qsp2hyt@marketplace.amazon.com	C Reuben	+1 412-532-4665 ext. 20306	ABM010	Arabella Bouquets | Fields of The World Bouquet of Fresh Cut Flowers in a Free Designer Glass Vase	1	0	1	Expedited	Clive Reuben	98 Rogers Rd			Bristol	CT	06010	US			false		
112-7810358-1722612	62400075130426	2020-05-20T16:27:08+00:00	2020-05-20T09:27:08-07:00	2020-05-20T16:52:57+00:00	2020-05-27T06:59:59+00:00	-6	xcdvxgst296q2x6@marketplace.amazon.com	Kimberly Petzel	+1 347-448-3190 ext. 98931	ABR0022	Arabella Farm Direct Bouquet of 12 Fresh Cut Pink Roses with a Free Glass Vase	1	0	1	Expedited	Kristina Douglas	11 DEVAUX RD			TORRINGTON	CT	06790-2133	US		Hi Miss Kristina, We wish we were on stage dancing at the recital with you .We can't wait for dance to start back up ! Miss you lots  CFDA Dance Team Families	false		
112-9679246-7859462	50913877522938	2020-05-20T16:31:15+00:00	2020-05-20T09:31:15-07:00	2020-05-20T16:58:25+00:00	2020-05-27T06:59:59+00:00	-6	xcdvxgst296q2x6@marketplace.amazon.com	Kimberly Petzel	+1 210-728-4548 ext. 51199	ABR0022	Arabella Farm Direct Bouquet of 12 Fresh Cut Pink Roses with a Free Glass Vase	1	0	1	Expedited	Miss Vicki	6 STONEFIELD WAY			NEW HARTFORD	CT	06057-3239	US		Hi Miss Vicki , We wish we were on stage dancing at the recital with you .We can't wait for dance to start back up ! Miss you lots  CFDA Dance Team Families	false		
112-0752368-3957016	35486110302802	2020-05-20T16:39:38+00:00	2020-05-20T09:39:38-07:00	2020-05-20T17:07:07+00:00	2020-05-27T06:59:59+00:00	-6	xcdvxgst296q2x6@marketplace.amazon.com	Kimberly Petzel	+1 347-448-3190 ext. 23844	ABR0022	Arabella Farm Direct Bouquet of 12 Fresh Cut Pink Roses with a Free Glass Vase	1	0	1	Expedited	Yvonne Donaghy	403 RED MOUNTAIN AVE			TORRINGTON	CT	06790-3217	US		HI Miss Yvonne, Happy Recital Week!!! <3 We wish we were on stage dancing at the recital with you .We can't wait for dance to start back up ! Miss you lots  <3CFDA Dance Team Families <3	false		
113-6144039-7411406	69848891316538	2020-05-20T16:41:43+00:00	2020-05-20T09:41:43-07:00	2020-05-20T17:08:44+00:00	2020-05-27T06:59:59+00:00	-6	8tbbqsw2mykpmqn@marketplace.amazon.com	Bria	+1 347-448-3190 ext. 31401	ABR0022	Arabella Farm Direct Bouquet of 12 Fresh Cut Pink Roses with a Free Glass Vase	1	0	1	Expedited	Gertrude Redd	1740 PORTAL DR NW			WASHINGTON	DC	20012-1116	US		Hope these flowers turned out better! Enjoy your gift! Love you Grandma and Happy Memorial Day and Belated Mother’s Day! From Briana	false		
112-1647133-7209055	62533961463330	2020-05-20T16:42:21+00:00	2020-05-20T09:42:21-07:00	2020-05-20T17:10:44+00:00	2020-05-27T06:59:59+00:00	-6	xcdvxgst296q2x6@marketplace.amazon.com	Kimberly Petzel	+1 347-448-3190 ext. 34986	ABR0022	Arabella Farm Direct Bouquet of 12 Fresh Cut Pink Roses with a Free Glass Vase	1	0	1	Expedited	Miss Meg	9 SAINT ANDREWS CLOSE			TORRINGTON	CT	06790-3053	US		Hi Miss Meg, We wish we were on stage dancing at the recital with you .We can't wait for dance to start back up ! Miss you lots  CFDA Dance Team Families	false		
114-0332523-0750668	15297482806810	2020-05-20T17:01:14+00:00	2020-05-20T10:01:14-07:00	2020-05-20T17:25:58+00:00	2020-05-27T06:59:59+00:00	-6	t8gcm0c7989qtj5@marketplace.amazon.com	Michael Dixon	+1 210-728-4548 ext. 69108	ABM010	Arabella Bouquets | Fields of The World Bouquet of Fresh Cut Flowers in a Free Designer Glass Vase	1	0	1	Expedited	Anita Miller	7018 BRADY HILL DR			CORDOVA	TN	38018-2883	US		Thinking of you. Get well soon!!  Best, Hallie Goss	false		
114-6192575-1742652	24284649234050	2020-05-20T17:00:39+00:00	2020-05-20T10:00:39-07:00	2020-05-20T17:27:27+00:00	2020-05-27T06:59:59+00:00	-6	sdxg2c0bq7fl9yf@marketplace.amazon.com	Kelly Klein	+1 210-728-4548 ext. 46910	ABM010	Arabella Bouquets | Fields of The World Bouquet of Fresh Cut Flowers in a Free Designer Glass Vase	1	0	1	Expedited	Kristi Longcore	10021 YOUNG AVE NE			ROCKFORD	MI	49341-9559	US		Kristi, Steve and family  Our thoughts are with you. From Kelly, Dave, Dean and Natalie	false		
113-8075521-7772229	15622176240826	2020-05-20T17:30:17+00:00	2020-05-20T10:30:17-07:00	2020-05-20T17:52:28+00:00	2020-05-27T06:59:59+00:00	-6	sqtn0y5r3wztqcs@marketplace.amazon.com	Abby Lewis	+1 314-282-9402 ext. 17052	ABR0022	Arabella Farm Direct Bouquet of 12 Fresh Cut Pink Roses with a Free Glass Vase	1	0	1	Expedited	Great Lakes Academy	6000 CUSTER RD STE 7			PLANO	TX	75023-5100	US		Ms. Swift.  Your knowledge and skills are impressive and made every task much easier. I appreciate the time you took out of your day to assist Aidan and myself.  Enjoy retirement! Thank you!  Lane-Lewis family From Abby Lewis	false		
113-5060801-1923426	66997190701546	2020-05-20T17:34:03+00:00	2020-05-20T10:34:03-07:00	2020-05-20T17:58:12+00:00	2020-05-27T06:59:59+00:00	-6	dzvb9y5gcpshw7f@marketplace.amazon.com	Devin	+1 210-728-4548 ext. 46948	ABM010	Arabella Bouquets | Fields of The World Bouquet of Fresh Cut Flowers in a Free Designer Glass Vase	1	0	1	Expedited	Patricia martinez	867 N LAMB BLVD SPC 100			LAS VEGAS	NV	89110-2327	US			false		
113-0287977-6827438	11005392618802	2020-05-20T17:39:34+00:00	2020-05-20T10:39:34-07:00	2020-05-20T18:01:39+00:00	2020-05-27T06:59:59+00:00	-6	vdy02tcr3wccm95@marketplace.amazon.com	Judith A. Bronston	+1 347-448-3190 ext. 76196	ABR0066	Arabella Bouquets | 12 Stems of Fresh Cut White Roses in a Free Designer Glass Vase	1	0	1	Expedited	Erin Servillo	28 WEDGE DR			HAMILTON	NJ	08610-5718	US		Erin,  So sorry for the loss of your dear Chuck. My deepest sympathy and condolences. From Judy Bronston	false		
114-6534445-5921834	25454359932210	2020-05-20T17:42:49+00:00	2020-05-20T10:42:49-07:00	2020-05-20T18:12:39+00:00	2020-05-27T06:59:59+00:00	-6	gwyxcx7ddkd0ppl@marketplace.amazon.com	elaine wolford	+1 347-448-3190 ext. 93522	ABR0022	Arabella Farm Direct Bouquet of 12 Fresh Cut Pink Roses with a Free Glass Vase	1	0	1	Expedited	Aimee Woodward	3710 LAUREL FORK DR			DAYTON	OH	45415-1512	US			false		
111-7688301-2721052	35939443918282	2020-05-20T17:58:00+00:00	2020-05-20T10:58:00-07:00	2020-05-20T18:18:33+00:00	2020-05-27T06:59:59+00:00	-6	g4vln0zp3hs4v13@marketplace.amazon.com	Phyllis Nola	+1 412-532-4665 ext. 20953	ABR0022	Arabella Farm Direct Bouquet of 12 Fresh Cut Pink Roses with a Free Glass Vase	1	0	1	Expedited	Keri Nola	6500 AMBROSIA LN APT 1724			CARLSBAD	CA	92011-2625	US		Pink roses signify grace and elegance; just two of your many qualities we love about you.   May your birthday & the coming year bring you peace-love & happiness.Welcome to your 40’s! From xo Mom & Dad	false		
113-2067922-9478646	07741232683698	2020-05-20T17:53:18+00:00	2020-05-20T10:53:18-07:00	2020-05-20T18:22:49+00:00	2020-05-27T06:59:59+00:00	-6	l5t92dsp99yvjrl@marketplace.amazon.com	JUNO SUNG	+1 210-728-4548 ext. 73207	ABR0022	Arabella Farm Direct Bouquet of 12 Fresh Cut Pink Roses with a Free Glass Vase	1	0	1	Expedited	Hana Kim	6529 SPRING RUN DR			WESTERVILLE	OH	43082-9354	US			false		
112-3190680-4410603	14454590571450	2020-05-20T17:59:28+00:00	2020-05-20T10:59:28-07:00	2020-05-20T18:29:43+00:00	2020-05-27T06:59:59+00:00	-6	29vvqkxqm5k88r0@marketplace.amazon.com	Mark W. Harris	+1 210-728-4548 ext. 99468	ABM0033	Arabella Farm Direct Bouquet of Fresh Cut White Hydrangea with a Free Glass Vase	1	0	1	Expedited	Mark Harris	203 BIRCH TREE LN			MICHIGAN CITY	IN	46360-1804	US			false		
111-8539511-8090660	48543330908258	2020-05-20T18:04:47+00:00	2020-05-20T11:04:47-07:00	2020-05-20T18:35:15+00:00	2020-05-27T06:59:59+00:00	-6	trczw1gptjvxhw9@marketplace.amazon.com	Kristle Carter	+1 412-532-4665 ext. 31587	ABM010	Arabella Bouquets | Fields of The World Bouquet of Fresh Cut Flowers in a Free Designer Glass Vase	1	0	1	Expedited	Eddie Mae Oneal	1701 N JONES BLVD APT 1021			LAS VEGAS	NV	89108-1675	US			false		
113-6855458-7150632	65038492245594	2020-05-20T18:16:36+00:00	2020-05-20T11:16:36-07:00	2020-05-20T18:43:24+00:00	2020-05-27T06:59:59+00:00	-6	x36z9trx08ffkxk@marketplace.amazon.com	Dieter Desch	+1 412-532-4665 ext. 03470	ABR0022	Arabella Farm Direct Bouquet of 12 Fresh Cut Pink Roses with a Free Glass Vase	1	0	1	Expedited	Giesela Garloff	5939 Castlewood Xing			Milford	Ohio	45150-2694	US		Happy Birthday , Love you From Dieter Desch	false		
112-1987442-3877847	23724162247338	2020-05-20T18:14:02+00:00	2020-05-20T11:14:02-07:00	2020-05-20T18:43:44+00:00	2020-05-27T06:59:59+00:00	-6	q8cjbldk1tm9dkh@marketplace.amazon.com	Erika Rojas Vasquez	+1 347-448-3190 ext. 05449	ABR0022	Arabella Farm Direct Bouquet of 12 Fresh Cut Pink Roses with a Free Glass Vase	1	0	1	Expedited	Coleen DeVega	39 DANIEL BROWN DR			MYSTIC	CT	06355-1611	US			false		
113-5745882-4379421	18958476473930	2020-05-20T18:15:04+00:00	2020-05-20T11:15:04-07:00	2020-05-20T18:43:46+00:00	2020-05-27T06:59:59+00:00	-6	blgsw16t6s138kc@marketplace.amazon.com	Ericka A. Mashhoon	+1 347-448-3190 ext. 07550	ABM0033	Arabella Farm Direct Bouquet of Fresh Cut White Hydrangea with a Free Glass Vase	1	0	1	Expedited	Yoli Troncoso Spaulding	9502 SW 89TH CT			MIAMI	FL	33176-9501	US		Happy Anniversary  Love Mom and dad From Ericka A. Mashhoon	false		
113-5745882-4379421	50869167403218	2020-05-20T18:15:04+00:00	2020-05-20T11:15:04-07:00	2020-05-20T18:43:46+00:00	2020-05-27T06:59:59+00:00	-6	blgsw16t6s138kc@marketplace.amazon.com	Ericka A. Mashhoon	+1 347-448-3190 ext. 07550	ABM0044	Arabella Farm Direct Bouquet of Fresh Cut Blue Hydrangea with a Free Glass Vase	1	0	1	Expedited	Yoli Troncoso Spaulding	9502 SW 89TH CT			MIAMI	FL	33176-9501	US		Happy anniversary  Love Mom and dad From Ericka A. Mashhoon	false		
111-8498567-9112233	36583418229658	2020-05-20T18:18:22+00:00	2020-05-20T11:18:22-07:00	2020-05-20T18:47:14+00:00	2020-05-27T06:59:59+00:00	-6	gqmv0h6pm7vrrv0@marketplace.amazon.com	Sperotherapeutics	+1 314-282-9402 ext. 19012	ABM010	Arabella Bouquets | Fields of The World Bouquet of Fresh Cut Flowers in a Free Designer Glass Vase	1	0	1	Expedited	Akash Jain	71 WILMINGTON RD			BURLINGTON	MA	01803-1428	US		Akash and family,  Our sincerest condolences on the loss of your father. Thinking of you and your family during this difficult time.  Sincerely, Your Spero Family	false		
112-5335561-7081837	60242237216818	2020-05-20T18:36:07+00:00	2020-05-20T11:36:07-07:00	2020-05-20T18:52:33+00:00	2020-05-27T06:59:59+00:00	-6	8f097xtwrcxwj4x@marketplace.amazon.com	Eileen O'Gara	1718-748-4759 or347-	ABR004	Arabella Farm Direct Bouquet of 12 Fresh Cut Yellow Roses with a Free Glass Vase	1	0	1	Expedited	Helen Christoforou	9511 Shots Rd			Brooklyn	New York	11209	US		Hi Helen, Happy birthday my honey, wish I could be there with you, enjoy the flowers!  Love Eileen oxxo	false		
114-7382124-8700233	24782103219034	2020-05-20T18:27:34+00:00	2020-05-20T11:27:34-07:00	2020-05-20T18:55:20+00:00	2020-05-27T06:59:59+00:00	-6	v5kh86c0d4ps3c8@marketplace.amazon.com	Mia Pandey	+1 347-448-3190 ext. 26541	ABM010	Arabella Bouquets | Fields of The World Bouquet of Fresh Cut Flowers in a Free Designer Glass Vase	1	0	1	Expedited	Bridgette Jackson	15043 MINERVA AVE APT 2N			DOLTON	IL	60419-2839	US		Dearest Bridgette, We all wish you a speedy recovery. Love, Your Crisis Team at St Francis From Crisis Team	false		
112-5034643-4181810	50442213295298	2020-05-20T18:32:15+00:00	2020-05-20T11:32:15-07:00	2020-05-20T18:56:23+00:00	2020-05-27T06:59:59+00:00	-6	p5kfvnzkmdb9fs8@marketplace.amazon.com	helen Saccomandi	+1 347-448-3190 ext. 47985	ABM010	Arabella Bouquets | Fields of The World Bouquet of Fresh Cut Flowers in a Free Designer Glass Vase	1	0	1	Expedited	Margie Hanlon	1208 North Tulip Drive			West Chester	Pa	19380	US		Dear Margie, We are so sorry about your loss. Jimmy was a wonderful man who made such a mark in this world. His memory will live on forever. Please know we are here for you💕 From Helen and Jim McClafferty	false		
114-0230405-2093825	21887074977874	2020-05-20T18:33:17+00:00	2020-05-20T11:33:17-07:00	2020-05-20T18:57:13+00:00	2020-05-27T06:59:59+00:00	-6	0tcys92fs6lv8nl@marketplace.amazon.com	Samantha Jane Cox	+1 210-728-4548 ext. 46933	ABR0022	Arabella Farm Direct Bouquet of 12 Fresh Cut Pink Roses with a Free Glass Vase	1	0	1	Expedited	Zoe Cox	2001 TEA ISLAND CT			ODENTON	MD	21113-4001	US		Zoe  Happy Graduation!! So proud of you! Lots of love Mum and Dad Cox xxx	false		
111-5956239-5438667	61242458333754	2020-05-20T18:40:02+00:00	2020-05-20T11:40:02-07:00	2020-05-20T18:59:52+00:00	2020-05-27T06:59:59+00:00	-6	yqjsq2w0kcrpsq5@marketplace.amazon.com	Antje Abshoff	+1 347-448-3190 ext. 53898	ABM0044	Arabella Farm Direct Bouquet of Fresh Cut Blue Hydrangea with a Free Glass Vase	1	0	1	Expedited	Alexandra Segers	207 13TH ST NE APT 2412			ATLANTA	GA	30309-4612	US		Liebe Alexandra, Wir freuen uns auf das nächste Wiedersehen!  Wenn ich mich richtig erinnere, magst Du Hortensien  - hoffentlich halten sie länger als die von Whole Foods :).  Alles Liebe von Antje, Oliver, Leonie & Amélie	false		
111-6137372-2034617	20028903614074	2020-05-20T18:46:09+00:00	2020-05-20T11:46:09-07:00	2020-05-20T19:16:47+00:00	2020-05-27T06:59:59+00:00	-6	qwytd811hthg26h@marketplace.amazon.com	Marcia	+1 210-728-4548 ext. 54656	ABR0022	Arabella Farm Direct Bouquet of 12 Fresh Cut Pink Roses with a Free Glass Vase	1	0	1	Expedited	Diana lozada	24 MULFORD PL APTO 1E APT 1E			HEMPSTEAD	NY	11550-2115	US			false		
111-1354904-1018667	21179367880538	2020-05-20T19:08:02+00:00	2020-05-20T12:08:02-07:00	2020-05-20T19:34:56+00:00	2020-05-27T06:59:59+00:00	-6	1mjpyybb1k4c8mb@marketplace.amazon.com	justine mercader	+1 314-282-9402 ext. 33703	ABR0022	Arabella Farm Direct Bouquet of 12 Fresh Cut Pink Roses with a Free Glass Vase	1	0	1	Expedited	Cherryl Magno	3129 BELTRADA AVE			HENDERSON	NV	89044-1660	US			false		
114-9937354-5227418	51289381561642	2020-05-20T19:07:52+00:00	2020-05-20T12:07:52-07:00	2020-05-20T19:37:01+00:00	2020-05-27T06:59:59+00:00	-6	7czv9p7k4q81l9q@marketplace.amazon.com	Pat Flippen	+1 347-448-3190 ext. 27061	ABR0055	Arabella Farm Direct Bouquet of 12 Stems of Fresh Cut Hot Pink Roses in a Free Designer Glass Vase	1	0	1	Expedited	Catherine Pryor	194 TRAILBLAZER DR			BASTROP	TX	78602-3574	US		Better late than never.....hopefully this one gets to you. Happy Mother’s Day! Love you, Patty	false		
114-1944957-1149048	59175936561634	2020-05-20T18:57:31+00:00	2020-05-20T11:57:31-07:00	2020-05-20T19:41:34+00:00	2020-05-27T06:59:59+00:00	-6	kwjk7sg48s9zn89@marketplace.amazon.com	Gwendolyn P. Quinn	+1 210-728-4548 ext. 72258	ABM010	Arabella Bouquets | Fields of The World Bouquet of Fresh Cut Flowers in a Free Designer Glass Vase	1	0	1	Expedited	Amanda Banks	15902 BENTON CT			TAMPA	FL	33647-1128	US			false		
112-1006208-1865009	34075394512882	2020-05-20T19:14:04+00:00	2020-05-20T12:14:04-07:00	2020-05-20T19:42:56+00:00	2020-05-27T06:59:59+00:00	-6	tv464fkmbvwk1yf@marketplace.amazon.com	Dan Toleno	+1 347-448-3190 ext. 82348	ABR001	Arabella Bouquets 12 Stems of Fresh Cut Red Roses in a Free Designer Glass Vase	1	0	1	Expedited	Dan Toleno	10346 NOBLE AVE N			BROOKLYN PARK	MN	55443-1318	US		Happy birthday Doll! I wish we could celebrate together. I’ll be home soon. Love you From Dan Toleno	false		
112-4454482-5428209	09365578595714	2020-05-20T19:18:45+00:00	2020-05-20T12:18:45-07:00	2020-05-20T19:47:37+00:00	2020-05-27T06:59:59+00:00	-6	khfrn8m21mpwshp@marketplace.amazon.com	Mike	+1 412-532-4665 ext. 40969	ABR0022	Arabella Farm Direct Bouquet of 12 Fresh Cut Pink Roses with a Free Glass Vase	1	0	1	Expedited	Tsianna Barnwell	7938 LOWER PERSE CIR			ORLANDO	FL	32827-7551	US		Thinking of you :) miss you a lot. XOXO From Mike	false		
114-2182607-5833033	61502281930418	2020-05-20T19:18:29+00:00	2020-05-20T12:18:29-07:00	2020-05-20T19:49:06+00:00	2020-05-27T06:59:59+00:00	-6	bqv6zgmxtg3hkzd@marketplace.amazon.com	Linda Hill	+1 314-282-9402 ext. 09117	ABM010	Arabella Bouquets | Fields of The World Bouquet of Fresh Cut Flowers in a Free Designer Glass Vase	1	0	1	Expedited	Linda Hill	1211 ALLENTOWN RD APT 5			LANSDALE	PA	19446-6924	US			false		
113-0850945-0729063	44758570622122	2020-05-20T19:43:23+00:00	2020-05-20T12:43:23-07:00	2020-05-20T20:00:23+00:00	2020-05-27T06:59:59+00:00	-6	s6wvytqrwl5zdny@marketplace.amazon.com	gailbrady@yahoo.com	+1 347-448-3190 ext. 49666	ABR0066	Arabella Bouquets | 12 Stems of Fresh Cut White Roses in a Free Designer Glass Vase	1	0	1	Expedited	AMANDA AND DJ VELA	13475 EAGLES REST DR			LEESBURG	VA	20176-5033	US		Enjoy your gift! From Mom Brady	false		
114-1272698-7602600	45425534580234	2020-05-20T20:06:06+00:00	2020-05-20T13:06:06-07:00	2020-05-20T20:36:23+00:00	2020-05-27T06:59:59+00:00	-6	jl3wvknqytfjpng@marketplace.amazon.com	Elliott Solheid	+1 210-728-4548 ext. 68714	ABM010	Arabella Bouquets | Fields of The World Bouquet of Fresh Cut Flowers in a Free Designer Glass Vase	1	0	1	Expedited	Elliott Solheid	3292 West Coriander Dr.			Tucson	AZ	85741	US			false		
113-5983493-3572214	13807365817970	2020-05-20T20:07:53+00:00	2020-05-20T13:07:53-07:00	2020-05-20T20:36:51+00:00	2020-05-27T06:59:59+00:00	-6	5w44l49kf142fzq@marketplace.amazon.com	bob	+1 314-282-9402 ext. 51346	ABR0033	Arabella Farm Direct Bouquet of 12 Fresh Cut Orange Roses with a Free Glass Vase	1	0	1	Expedited	mary ferguson	803a harwood  ct.			MOUNT LAUREL	NJ	08054	US			false		
114-2428689-9901055	48985687984850	2020-05-20T20:11:15+00:00	2020-05-20T13:11:15-07:00	2020-05-20T20:41:54+00:00	2020-05-27T06:59:59+00:00	-6	wryncvp68b43qr0@marketplace.amazon.com	Marisa	+1 347-448-3190 ext. 53411	ABM002	Arabella Bouquets Fresh Cut White Calla Lilies in a Free Designer Glass Vase	1	0	1	Expedited	Marisa Bettina Sciortino	65 ROCKLEDGE DR			PELHAM	NEW YORK	10803-3310	US			false		
112-7354753-6601828	01828424288002	2020-05-20T20:20:33+00:00	2020-05-20T13:20:33-07:00	2020-05-20T20:42:28+00:00	2020-05-27T06:59:59+00:00	-6	zb1fy4d03gmyjjv@marketplace.amazon.com	Michelle Short	+1 347-448-3190 ext. 71386	ABR0066	Arabella Bouquets | 12 Stems of Fresh Cut White Roses in a Free Designer Glass Vase	1	0	1	Expedited	Andy Warot	3 EVANDALE TER			BOSTON	MA	02125-1022	US		Andy,  Our hearts are saddened by your loss. Our thoughts and prayers are with you and your family.  From- Your Friends at SHP Financial	true		
114-7662832-4501007	45870122601490	2020-05-20T19:55:55+00:00	2020-05-20T12:55:55-07:00	2020-05-20T20:48:48+00:00	2020-05-27T06:59:59+00:00	-6	6c47xrq9hlkc55g@marketplace.amazon.com	Sara	+1 347-448-3190 ext. 97719	ABR001	Arabella Bouquets 12 Stems of Fresh Cut Red Roses in a Free Designer Glass Vase	1	0	1	Expedited	Daniel Rule	1511 CLIPPER HILLS DR			BAKERSFIELD	CA	93307-7278	US		Sweetheart, I’m so happy to have you in my life. You are very special to me. ❤️ From Sara	false		
111-6387871-6963457	13276493195410	2020-05-20T20:42:35+00:00	2020-05-20T13:42:35-07:00	2020-05-20T21:08:08+00:00	2020-05-27T06:59:59+00:00	-6	z98ng1wzrf3d115@marketplace.amazon.com	DEB REINART	+1 314-282-9402 ext. 08470	ABR0033	Arabella Farm Direct Bouquet of 12 Fresh Cut Orange Roses with a Free Glass Vase	1	0	1	Expedited	Carol Jones	6475 MULLIGAN CT			SPRING HILL	FL	34606-3666	US		Get well wishes from Ohio! Glad you are home. Take care. From Mark & Deb	false		
111-6716603-9498669	67999011921154	2020-05-20T20:48:53+00:00	2020-05-20T13:48:53-07:00	2020-05-20T21:16:48+00:00	2020-05-27T06:59:59+00:00	-6	0wp8mhbp0lgf78d@marketplace.amazon.com	antonio	+1 210-728-4548 ext. 74385	ABR0022	Arabella Farm Direct Bouquet of 12 Fresh Cut Pink Roses with a Free Glass Vase	1	0	1	Expedited	Lauren Young	3938 SNAPFINGER RD			STONECREST	GA	30038-3647	US		Happy Birthday!! From Nono	false		
112-5637891-5199448	18035687959162	2020-05-20T21:08:49+00:00	2020-05-20T14:08:49-07:00	2020-05-20T21:38:56+00:00	2020-05-27T06:59:59+00:00	-6	rqypccgmb92cvq1@marketplace.amazon.com	kristy willis	+1 763-225-9463 ext. 41489	ABR0022	Arabella Farm Direct Bouquet of 12 Fresh Cut Pink Roses with a Free Glass Vase	1	0	1	Expedited	Ann Ratray	905 W END AVE APT 101			NEW YORK	NY	10025-3530	US			false		
114-8637716-5945006	06953646258778	2020-05-20T21:08:12+00:00	2020-05-20T14:08:12-07:00	2020-05-20T21:42:00+00:00	2020-05-27T06:59:59+00:00	-6	6vgy6lx46r0n55m@marketplace.amazon.com	Huyen	+1 347-448-3190 ext. 61177	ABR0022	Arabella Farm Direct Bouquet of 12 Fresh Cut Pink Roses with a Free Glass Vase	1	0	1	Expedited	Nguyet Hoang	10925 SW 31ST ST			YUKON	OK	73099-3362	US			false		
113-3801702-9884216	12999948364490	2020-05-20T21:22:41+00:00	2020-05-20T14:22:41-07:00	2020-05-20T21:49:44+00:00	2020-05-27T06:59:59+00:00	-6	5y9rv4d71ffb4pn@marketplace.amazon.com	Norma Lozada	+1 412-532-4665 ext. 07797	ABR001	Arabella Bouquets 12 Stems of Fresh Cut Red Roses in a Free Designer Glass Vase	1	0	1	Expedited	Jessica Hart	2639 ARLEIGH RD			EAST MEADOW	NY	11554-3413	US		Happy birthday Jess! I love you so much!! Thank you for always being my #1 <3 From Enrique	false		
111-2809622-7609850	38148805849386	2020-05-20T21:28:05+00:00	2020-05-20T14:28:05-07:00	2020-05-20T21:56:44+00:00	2020-05-27T06:59:59+00:00	-6	dqdckf3grh2hnl3@marketplace.amazon.com	Peggy Herrera	+1 347-448-3190 ext. 55043	ABR001	Arabella Bouquets 12 Stems of Fresh Cut Red Roses in a Free Designer Glass Vase	1	0	1	Expedited	Jacqueline Herrera	1734 SHERBOURNE ST			WINTER GARDEN	FL	34787-4600	US		Perdon por las Flores fake love Mami & peggy From Peggy Herrera	false		
114-6461833-9802607	42516456702546	2020-05-20T21:31:28+00:00	2020-05-20T14:31:28-07:00	2020-05-20T21:59:34+00:00	2020-05-27T06:59:59+00:00	-6	zlcbq3280n14mdn@marketplace.amazon.com	Mrityunjay Daksha	+1 347-448-3190 ext. 92109	ABM010	Arabella Bouquets | Fields of The World Bouquet of Fresh Cut Flowers in a Free Designer Glass Vase	1	0	1	Expedited	Chaitanya Daksha	215 N MARKET ST APT 318			WILMINGTON	DE	19801-2563	US		Happy graduation Children!! We are really proud of you both!! From Paa, Maa and Bhiya	false		
111-6167471-7092239	49359711903418	2020-05-20T21:44:21+00:00	2020-05-20T14:44:21-07:00	2020-05-20T22:11:14+00:00	2020-05-27T06:59:59+00:00	-6	yxw97b66jshbcfz@marketplace.amazon.com	Amy S Johnson	+402-616-3759	ABR0022	Arabella Farm Direct Bouquet of 12 Fresh Cut Pink Roses with a Free Glass Vase	1	0	1	Expedited	Pam Viestenz	5 SHAUN CIR			COUNCIL BLUFFS	IA	51503-5843	US		Pam and Whiskers, We’re so sorry for your loss. You gave Flealess so much love and such a wonderful life.  Love, From Amy, Lily, Willow, Mochi and Henry	false		
111-6171318-1188213	05518041874826	2020-05-20T21:49:07+00:00	2020-05-20T14:49:07-07:00	2020-05-20T22:12:35+00:00	2020-05-27T06:59:59+00:00	-6	0xh9q42xdpxp75f@marketplace.amazon.com	Corey Winkelman	+1 347-448-3190 ext. 25089	ABM010	Arabella Bouquets | Fields of The World Bouquet of Fresh Cut Flowers in a Free Designer Glass Vase	1	0	1	Expedited	Téa Duplex	120 LOST HLS			IRVINE	CA	92618-0823	US		Hi Téa,  Thank you for being a great reference and an amazing friend.  Sincerely, Corey Winkelman	false		
111-6105155-1599463	68825930512938	2020-05-20T21:59:13+00:00	2020-05-20T14:59:13-07:00	2020-05-20T22:21:51+00:00	2020-05-27T06:59:59+00:00	-6	lcq8f8gxw1llfbb@marketplace.amazon.com	Edward Tepper	+1 210-728-4548 ext. 41751	ABM010	Arabella Bouquets | Fields of The World Bouquet of Fresh Cut Flowers in a Free Designer Glass Vase	1	0	1	Expedited	Laura Hisey	1023 ORLANDO DR			FORT WAYNE	IN	46825-4039	US		Sorry for the passing of your brother in law.  Saying prayers for you and your family. Love you. From Laura, Ed & Kate	false		
111-4768712-3999464	17486120727490	2020-05-20T21:54:04+00:00	2020-05-20T14:54:04-07:00	2020-05-20T22:24:30+00:00	2020-05-27T06:59:59+00:00	-6	tyr6bkdzp37px17@marketplace.amazon.com	alex	+1 314-282-9402 ext. 87055	ABM010	Arabella Bouquets | Fields of The World Bouquet of Fresh Cut Flowers in a Free Designer Glass Vase	1	0	1	Expedited	alexander rosario	6 CASTLE HILL DR			BETHEL	CT	06801-1203	US			false		
112-5260804-9842634	63060053020962	2020-05-20T22:00:42+00:00	2020-05-20T15:00:42-07:00	2020-05-20T22:26:43+00:00	2020-05-27T06:59:59+00:00	-6	nqmw1qksyp8xl4d@marketplace.amazon.com	Your husband	+1 347-448-3190 ext. 31860	ABR001	Arabella Bouquets 12 Stems of Fresh Cut Red Roses in a Free Designer Glass Vase	1	0	1	Expedited	Vicki Christenson	209 S ADAMS ST CITY			JUNCTION CITY	KS	66441-3512	US			false		
114-3012529-3169038	35393637550002	2020-05-20T22:05:55+00:00	2020-05-20T15:05:55-07:00	2020-05-20T22:32:20+00:00	2020-05-27T06:59:59+00:00	-6	9wh9z61z7vtrp6r@marketplace.amazon.com	hogenshero	+1 210-728-4548 ext. 40707	ABM010	Arabella Bouquets | Fields of The World Bouquet of Fresh Cut Flowers in a Free Designer Glass Vase	1	0	1	Expedited	Cecelia Espin	4505 HAMILTON DR			WOODBRIDGE	VA	22193-5281	US			false		
112-5819442-8445854	22598486959242	2020-05-20T22:21:08+00:00	2020-05-20T15:21:08-07:00	2020-05-20T22:50:19+00:00	2020-05-27T06:59:59+00:00	-6	y039pn6n6n9tdl9@marketplace.amazon.com	Brett Hayden	+1 210-728-4548 ext. 63532	ABR014	Arabella Bouquets 18 Stems of Fresh Cut White Roses in a Free Designer Glass Vase	1	0	1	Expedited	Allison Dyer	1816 ROCKING HORSE DR			SIMI VALLEY	CA	93065-5912	US			false		
112-4146539-3717033	44938621730162	2020-05-20T22:26:00+00:00	2020-05-20T15:26:00-07:00	2020-05-20T22:51:01+00:00	2020-05-27T06:59:59+00:00	-6	f8xprbgbpjcwcyz@marketplace.amazon.com	Carly E LaMantia	+1 210-728-4548 ext. 59674	ABM010	Arabella Bouquets | Fields of The World Bouquet of Fresh Cut Flowers in a Free Designer Glass Vase	1	0	1	Expedited	Michelle Garcia	1469 FLAIR ENCINITAS DR			ENCINITAS	CA	92024-2935	US		So sorry about your mom, Michelle. I hope you are finding comfort in her memories. Thinking of you, and I'm sorry this is so late! xoxo - Carly From Carly E LaMantia	false		
113-8011599-2209061	42076629890210	2020-05-20T22:32:49+00:00	2020-05-20T15:32:49-07:00	2020-05-20T23:02:07+00:00	2020-05-27T06:59:59+00:00	-6	m9g6qkkbprqxv62@marketplace.amazon.com	Mary Lou Villanueav	+1 210-728-4548 ext. 62173	ABR0022	Arabella Farm Direct Bouquet of 12 Fresh Cut Pink Roses with a Free Glass Vase	1	0	1	Expedited	Zoila Garcia Fragoso	7548 N OZARK AVE			CHICAGO	IL	60631-4233	US		Dear Mrs. Garcia, from the girl who lived across the street from IAMS and always came to school with wet hair. Thank you for showing me and countless others what a strong educated badass Latina looks like.    -Mary Lou Villanueva	false		
113-5486027-7933853	47258438020682	2020-05-20T22:40:30+00:00	2020-05-20T15:40:30-07:00	2020-05-20T23:04:46+00:00	2020-05-27T06:59:59+00:00	-6	czslydtpmcwdddb@marketplace.amazon.com	preety	0019018505574	ABM010	Arabella Bouquets | Fields of The World Bouquet of Fresh Cut Flowers in a Free Designer Glass Vase	1	0	1	Expedited	Sanjay Kumar Srivastava	973 HANDFORTH CV COLLIERVILLE			COLLIERVILLE	TN	38017-8677	US		Dear Bhaiya & Bhabhi Aap dono ka saath hamesha phoolo ki tarah mahkti rahi :) From Ranjeet & Preety	false		
113-7283992-5433010	03213303296882	2020-05-20T22:45:07+00:00	2020-05-20T15:45:07-07:00	2020-05-20T23:12:20+00:00	2020-05-27T06:59:59+00:00	-6	qzzr5z5hnkjv6sz@marketplace.amazon.com	Naureen Butt	+1 347-448-3190 ext. 08079	ABR0022	Arabella Farm Direct Bouquet of 12 Fresh Cut Pink Roses with a Free Glass Vase	1	0	1	Expedited	sophia Ali	34 ENCLAVE MANOR DR			SUGAR LAND	TX	77479-1686	US		Congratulations darling Doctor Sophia Ali<3,  I share the pride, joy, exhilaration and celebration of your huge achievement.  Khush rahoe, Allah bless you my darling,  Love forever, Naureen	false		
114-4797065-8613028	19390385801274	2020-05-20T22:47:46+00:00	2020-05-20T15:47:46-07:00	2020-05-20T23:12:24+00:00	2020-05-27T06:59:59+00:00	-6	fghsvq5sf1x2rpk@marketplace.amazon.com	Noel F. Meekins	+1 347-448-3190 ext. 27590	ABR001	Arabella Bouquets 12 Stems of Fresh Cut Red Roses in a Free Designer Glass Vase	1	0	1	Expedited	Sarah Price Thomas	11501 HARTS RD APT 104			JACKSONVILLE	FL	32218-3743	US			false		
113-3207106-6099425	29043773920322	2020-05-20T22:59:20+00:00	2020-05-20T15:59:20-07:00	2020-05-20T23:27:14+00:00	2020-05-27T06:59:59+00:00	-6	7ftm871x3dv6p1g@marketplace.amazon.com	MARSHA FRACTOR	+1 314-282-9402 ext. 97096	ABR0022	Arabella Farm Direct Bouquet of 12 Fresh Cut Pink Roses with a Free Glass Vase	1	0	1	Expedited	Sue Fischer	10201 VANALDEN AVE			NORTHRIDGE	CA	91324-1240	US		Hi Sue, Miss you!  Hopefully this will brighten up your day! Love, Marsha and Mark	false		
114-7925067-6699432	05879229169330	2020-05-20T22:59:18+00:00	2020-05-20T15:59:18-07:00	2020-05-20T23:29:41+00:00	2020-05-27T06:59:59+00:00	-6	2h1jfrst37sdrtv@marketplace.amazon.com	Shijie Luan	+1 210-728-4548 ext. 65530	ABR0022	Arabella Farm Direct Bouquet of 12 Fresh Cut Pink Roses with a Free Glass Vase	1	0	1	Expedited	Shijie Luan	3726 SHARP ST			PHILADELPHIA	PA	19127-1814	US			false		
112-8851214-2325816	47740075752738	2020-05-20T23:01:07+00:00	2020-05-20T16:01:07-07:00	2020-05-20T23:30:51+00:00	2020-05-27T06:59:59+00:00	-6	x66v02jm20t88xd@marketplace.amazon.com	Andrzej Skonieczny	+1 347-448-3190 ext. 41514	ABR0022	Arabella Farm Direct Bouquet of 12 Fresh Cut Pink Roses with a Free Glass Vase	1	0	1	Expedited	Melisa Skonieczny	170 PLAZA DR			MIDDLETOWN	CT	06457-2561	US		Happy Birthday! From Andrzej Skonieczny	false		
113-4226739-9885814	47837262688674	2020-05-20T23:06:59+00:00	2020-05-20T16:06:59-07:00	2020-05-20T23:32:59+00:00	2020-05-27T06:59:59+00:00	-6	jtx0tzm839b8b25@marketplace.amazon.com	Jacob Abusharkh	+1 347-448-3190 ext. 48155	ABR0022	Arabella Farm Direct Bouquet of 12 Fresh Cut Pink Roses with a Free Glass Vase	1	0	1	Expedited	Teresa Lee	236 SPRINGWOOD DR			GRAHAM	TX	76450-6424	US		Happy Birthday Miss Teresa! I hope you enjoy your special day. Let’s celebrate together soon! Miss you.  Love, Nina From Nina Abusharkh	false		
111-1066789-9804240	51979810366946	2020-05-20T23:07:03+00:00	2020-05-20T16:07:03-07:00	2020-05-20T23:33:14+00:00	2020-05-27T06:59:59+00:00	-6	jq8j4cdch0122cp@marketplace.amazon.com	dina  drago	+1 347-448-3190 ext. 80918	ABR0022	Arabella Farm Direct Bouquet of 12 Fresh Cut Pink Roses with a Free Glass Vase	1	0	1	Expedited	Andrea Wilemon	3 MOSS LNDG			LAGUNA NIGUEL	CA	92677-1006	US		Congratulations From Aunt Dina & Uncle Joe	false		
113-9019894-0721863	52579706877274	2020-05-20T23:07:42+00:00	2020-05-20T16:07:42-07:00	2020-05-20T23:35:36+00:00	2020-05-27T06:59:59+00:00	-6	qvq7cy6lth1631g@marketplace.amazon.com	Britne	+1 210-728-4548 ext. 00307	ABR0022	Arabella Farm Direct Bouquet of 12 Fresh Cut Pink Roses with a Free Glass Vase	1	0	1	Expedited	Rachael Kersey	2600 N LAKEVIEW AVE APT 1T			CHICAGO	IL	60614-1834	US		Happy Birthday Rach! I hope it’s as fabulous as you are. Can’t wait to see you in August! From Britne (&Anthony & Chester)	false		
111-2957654-5757030	42758220867282	2020-05-20T23:38:00+00:00	2020-05-20T16:38:00-07:00	2020-05-20T23:38:57+00:00	2020-05-27T06:59:59+00:00	-6	x4dxxyz5m2nsc80@marketplace.amazon.com	Bel	+1 347-448-3190 ext. 13345	ABM010	Arabella Bouquets | Fields of The World Bouquet of Fresh Cut Flowers in a Free Designer Glass Vase	1	0	1	Expedited	Mr. & Mrs. Potter	Mount Pleasant Road	101		Petersburg	NJ	08270	US		You’re in our thoughts and prayers. From Love, ACAHS Staff	false		
114-0812407-4876265	45177057066386	2020-05-20T23:24:26+00:00	2020-05-20T16:24:26-07:00	2020-05-20T23:46:38+00:00	2020-05-27T06:59:59+00:00	-6	n4zj6xqmz53r4jw@marketplace.amazon.com	Karen Finney	+1 347-448-3190 ext. 98839	ABR0022	Arabella Farm Direct Bouquet of 12 Fresh Cut Pink Roses with a Free Glass Vase	1	0	1	Expedited	Shelbi Wiles	101 S ELLWOOD AVE APT 514			BALTIMORE	MD	21224-2279	US		Happy Birthday Shelbi. We love you. Love Mom, Dad and Boys From Karen Finney	false		
111-8416537-3869033	59522109628266	2020-05-20T23:31:30+00:00	2020-05-20T16:31:30-07:00	2020-05-20T23:59:01+00:00	2020-05-27T06:59:59+00:00	-6	cf5rcbx6fvmqmft@marketplace.amazon.com	Lacy Wallace	+1 347-448-3190 ext. 06236	ABM010	Arabella Bouquets | Fields of The World Bouquet of Fresh Cut Flowers in a Free Designer Glass Vase	1	0	1	Expedited	Cynthia Hamblin	7914 GLEASON DR APT 1038			KNOXVILLE	TN	37919-5467	US		Hi Cynthia, THANK YOU FOR BEING SUCH A ROCK STAR!!!  YOU ARE AMAZING! Appreciate all of your hard work! From Lacy	false		
111-4110714-1669030	40168537310906	2020-05-20T23:34:27+00:00	2020-05-20T16:34:27-07:00	2020-05-21T00:03:08+00:00	2020-05-27T06:59:59+00:00	-6	cf5rcbx6fvmqmft@marketplace.amazon.com	Lacy Wallace	+1 412-532-4665 ext. 54961	ABM010	Arabella Bouquets | Fields of The World Bouquet of Fresh Cut Flowers in a Free Designer Glass Vase	1	0	1	Expedited	Katie Stone	1716 GOLDEN NUGGET LN			KNOXVILLE	TN	37932-2172	US		KATIE - THANK YOU FOR BEING A ROCK STAR!  I APPRECIATE YOU MORE THAN YOU WILL EVER KNOW! From Lacy	false		
111-6099806-8527448	41735321857914	2020-05-20T23:38:14+00:00	2020-05-20T16:38:14-07:00	2020-05-21T00:05:33+00:00	2020-05-27T06:59:59+00:00	-6	cf5rcbx6fvmqmft@marketplace.amazon.com	Lacy Wallace	+1 347-448-3190 ext. 65072	ABM010	Arabella Bouquets | Fields of The World Bouquet of Fresh Cut Flowers in a Free Designer Glass Vase	1	0	1	Expedited	Pam White	1126 MARTINS GLEN LN			GRAY	TN	37615-3264	US		Pam - Thank you for being such a ROCK STAR!  I appreciate all you do more than you will ever know!   THANK YOU for everything you do for our team!   Lacy	false		
111-7463362-6165043	02207160288898	2020-05-20T23:53:26+00:00	2020-05-20T16:53:26-07:00	2020-05-21T00:18:56+00:00	2020-05-27T06:59:59+00:00	-6	07zzx1y5m36zbgy@marketplace.amazon.com	Alba Mercedes	+1 347-448-3190 ext. 45263	ABR001	Arabella Bouquets 12 Stems of Fresh Cut Red Roses in a Free Designer Glass Vase	1	0	1	Expedited	Gladys Rodriguez	4151 SW 33RD DR			WEST PARK	FL	33023-5608	US			false		
114-6727791-5507444	64493702272946	2020-05-20T23:50:40+00:00	2020-05-20T16:50:40-07:00	2020-05-21T00:21:10+00:00	2020-05-27T06:59:59+00:00	-6	9sqcvp3wf6c1d1r@marketplace.amazon.com	julie dock	+1 347-448-3190 ext. 19782	ABM0044	Arabella Farm Direct Bouquet of Fresh Cut Blue Hydrangea with a Free Glass Vase	1	0	1	Expedited	Julie Dock	44 NORFOLK ST			BERGENFIELD	NJ	07621-3907	US			false		
113-5240616-7046600	02328094051978	2020-05-21T00:02:45+00:00	2020-05-20T17:02:45-07:00	2020-05-21T00:31:12+00:00	2020-05-27T06:59:59+00:00	-6	xbxszzxhksb0d3d@marketplace.amazon.com	Eric Wen	+1 210-728-4548 ext. 52045	ABR0022	Arabella Farm Direct Bouquet of 12 Fresh Cut Pink Roses with a Free Glass Vase	1	0	1	Expedited	Kelly Huynh	2539 CLEMENT ST			SAN FRANCISCO	CA	94121-1842	US		Diff color than usual :P From Eric Wen	false		
114-5580878-8035464	60420798358986	2020-05-21T00:01:46+00:00	2020-05-20T17:01:46-07:00	2020-05-21T00:31:31+00:00	2020-05-27T06:59:59+00:00	-6	rzh9jvlmpmm1pkc@marketplace.amazon.com	Nathan Burns	+1 210-728-4548 ext. 12584	ABR0022	Arabella Farm Direct Bouquet of 12 Fresh Cut Pink Roses with a Free Glass Vase	1	0	1	Expedited	Pilar Mathur	124 UNDERHILL RD			OSSINING	NY	10562-4409	US		Les mandamos un beso! From The Burns del Castillo	false		
114-2843312-7277819	63645508662210	2020-05-21T00:08:55+00:00	2020-05-20T17:08:55-07:00	2020-05-21T00:38:19+00:00	2020-05-27T06:59:59+00:00	-6	whjfjw6kz2k75p9@marketplace.amazon.com	Claudia Eusse		ABR0022	Arabella Farm Direct Bouquet of 12 Fresh Cut Pink Roses with a Free Glass Vase	1	0	1	Expedited	billingAddress	4000 towerside terrace	Suite 609		Miami	FL	33138	US			true		
111-2255388-7237040	27836088529690	2020-05-21T00:41:37+00:00	2020-05-20T17:41:37-07:00	2020-05-21T00:59:18+00:00	2020-05-27T06:59:59+00:00	-6	qn2vb0tl5mvzp6t@marketplace.amazon.com	jane bertsch-wells	+1 347-448-3190 ext. 29293	ABM0033	Arabella Farm Direct Bouquet of Fresh Cut White Hydrangea with a Free Glass Vase	1	0	1	Expedited	Kevin David Jordan	4 CEDAR RIDGE LN			BAY SHORE	NY	11706-8842	US			false		
113-7753403-4634669	27094042645386	2020-05-21T00:41:15+00:00	2020-05-20T17:41:15-07:00	2020-05-21T01:11:29+00:00	2020-05-27T06:59:59+00:00	-6	rzsylmcmqdz9g31@marketplace.amazon.com	madisen	+1 210-728-4548 ext. 41130	ABR0022	Arabella Farm Direct Bouquet of 12 Fresh Cut Pink Roses with a Free Glass Vase	1	0	1	Expedited	Hillary Harshmen	840 SE PARKSIDE PL			COLLEGE PLACE	WA	99324-1676	US			false		
114-1875145-1033861	57489158679050	2020-05-21T00:47:14+00:00	2020-05-20T17:47:14-07:00	2020-05-21T01:15:50+00:00	2020-05-27T06:59:59+00:00	-6	bxhrczkn94d6yzx@marketplace.amazon.com	Ashley	+1 210-728-4548 ext. 50703	ABR0022	Arabella Farm Direct Bouquet of 12 Fresh Cut Pink Roses with a Free Glass Vase	1	0	1	Expedited	Mary Crocker	773 CHASE DR			CORPUS CHRISTI	TX	78412-3038	US		Love you Nanny Poo! Wishing you a wonderful birthday!! From Akie	false		
111-8677924-6960239	56710977351314	2020-05-21T00:49:56+00:00	2020-05-20T17:49:56-07:00	2020-05-21T01:19:28+00:00	2020-05-27T06:59:59+00:00	-6	swjsqgbby1m2p3n@marketplace.amazon.com	Thomas J. Herdman	+1 347-448-3190 ext. 24053	ABM010	Arabella Bouquets | Fields of The World Bouquet of Fresh Cut Flowers in a Free Designer Glass Vase	1	0	1	Expedited	Kate Herdman	109 COALRIDGE PKWY			WADSWORTH	OH	44281-8284	US		Hi Kate, We love you very much! From Tommy, Nadia, Vova, Slava, and wee Ivan	false		
113-3774746-5815445	24050697216266	2020-05-21T00:57:04+00:00	2020-05-20T17:57:04-07:00	2020-05-21T01:25:49+00:00	2020-05-27T06:59:59+00:00	-6	rytf9snq1dsm944@marketplace.amazon.com	Thomas Hayhurst	+1 347-448-3190 ext. 16737	ABM010	Arabella Bouquets | Fields of The World Bouquet of Fresh Cut Flowers in a Free Designer Glass Vase	1	0	1	Expedited	Marcia Coudyser	4348 CANTELOW RD			VACAVILLE	CA	95688-9306	US		Hi Marcia, Happy birthday from Tom & Sharon.	false		
113-3687887-4421858	27970923026938	2020-05-21T00:57:01+00:00	2020-05-20T17:57:01-07:00	2020-05-21T01:27:38+00:00	2020-05-27T06:59:59+00:00	-6	mz38mcn56ftvwct@marketplace.amazon.com	Lauren Lazin	+1 314-282-9402 ext. 01748	ABR0022	Arabella Farm Direct Bouquet of 12 Fresh Cut Pink Roses with a Free Glass Vase	1	0	1	Expedited	Lauren Lazin	79 WASHINGTON PL 3R			NEW YORK	NY	10011-9105	US			false		
112-7535329-9709014	51766722150690	2020-05-21T01:09:27+00:00	2020-05-20T18:09:27-07:00	2020-05-21T01:33:05+00:00	2020-05-27T06:59:59+00:00	-6	xnbxskr1xzt9p50@marketplace.amazon.com	Christine Long	+1 210-728-4548 ext. 94885	ABR0022	Arabella Farm Direct Bouquet of 12 Fresh Cut Pink Roses with a Free Glass Vase	1	0	1	Expedited	Donna linski	9726 FAIRWAY DR			NEW MARKET	VA	22844-9634	US		Our prayer is that the memories of your mother will be filled with the joy of all she brought to those she loved. You are in our thoughts and prayers!   Love, Chris and Jerry	false		
113-8149112-8273868	03383148029602	2020-05-21T01:13:08+00:00	2020-05-20T18:13:08-07:00	2020-05-21T01:42:07+00:00	2020-05-27T06:59:59+00:00	-6	qsnd2qq4gt49tlp@marketplace.amazon.com	Jocelyn Tedder	703-60019137	ABR0055	Arabella Farm Direct Bouquet of 12 Stems of Fresh Cut Hot Pink Roses in a Free Designer Glass Vase	1	0	1	Expedited	Felicia Adamowicz	8644 N BEECH DALY RD			DEARBORN HEIGHTS	MI	48127-1151	US		Happy Birthday! Hope you have a great day. Being a mom is hard work and it never ends. Luv you! Jocelyn From Jocelyn Tedder	false		
113-9805154-7241019	38480196305202	2020-05-21T01:08:53+00:00	2020-05-20T18:08:53-07:00	2020-05-21T01:46:22+00:00	2020-05-27T06:59:59+00:00	-6	dq7dc6z10l3w3xf@marketplace.amazon.com	azniv	+1 314-282-9402 ext. 38299	ABM0033	Arabella Farm Direct Bouquet of Fresh Cut White Hydrangea with a Free Glass Vase	3	0	3	Expedited	azniv	9837 GLENOAKS BLVD			SUN VALLEY	CA	91352-1016	US			false		
113-1346772-5633864	25165565115082	2020-05-21T01:21:43+00:00	2020-05-20T18:21:43-07:00	2020-05-21T01:47:23+00:00	2020-05-27T06:59:59+00:00	-6	d2b6z974qng5jgp@marketplace.amazon.com	Scott Bielby	+1 347-448-3190 ext. 68581	ABR0022	Arabella Farm Direct Bouquet of 12 Fresh Cut Pink Roses with a Free Glass Vase	1	0	1	Expedited	Scott Bielby c/o Elena Kesterson	8242 MIRAMAR WAY			LAKEWOOD RANCH	FL	34202-9002	US		With all my love, happy anniversary!	false		
114-9350081-1328219	33020295405418	2020-05-21T01:23:08+00:00	2020-05-20T18:23:08-07:00	2020-05-21T01:53:39+00:00	2020-05-27T06:59:59+00:00	-6	8dyc681gmqllktk@marketplace.amazon.com	Oren Coby	+1 347-448-3190 ext. 93189	ABR004	Arabella Farm Direct Bouquet of 12 Fresh Cut Yellow Roses with a Free Glass Vase	1	0	1	Expedited	Mary Yvonne Linan	3120 SANTA FE ST APT 3 UPSTAIRS			CORPUS CHRISTI	TX	78404-1633	US			false		
112-7714516-5259462	00256625374114	2020-05-21T01:35:59+00:00	2020-05-20T18:35:59-07:00	2020-05-21T01:53:40+00:00	2020-05-27T06:59:59+00:00	-6	3fgq0lb1c8fnv1g@marketplace.amazon.com	Jeru Harrison	+1 347-448-3190 ext. 22116	ABR0022	Arabella Farm Direct Bouquet of 12 Fresh Cut Pink Roses with a Free Glass Vase	1	0	1	Expedited	Jeru Harrison	7704 ENFIELD AVE APT B3			NORFOLK	VA	23505-1962	US		Happy birthday baby I know it’s early but I had to send stuff early because all the amazon stuff be getting sold but always remember YUNG NOLIMIT WORLD I love you baby always and forever From Husband	false		
114-0394878-2661803	10736168051674	2020-05-21T01:27:27+00:00	2020-05-20T18:27:27-07:00	2020-05-21T01:54:51+00:00	2020-05-27T06:59:59+00:00	-6	z7l1hbj8bf5km9l@marketplace.amazon.com	Andrew	+1 347-448-3190 ext. 73814	ABM010	Arabella Bouquets | Fields of The World Bouquet of Fresh Cut Flowers in a Free Designer Glass Vase	1	0	1	Expedited	LENKA PEKSA	7440 SEPULVEDA BLVD APT 220			VAN NUYS	CA	91405-4933	US		Happy 50th Anniversary Best Wishes & Hugs Love Hugo & Andrew X From Hugo & Andrew	false		
111-4917292-0867414	20973117506090	2020-05-21T01:28:24+00:00	2020-05-20T18:28:24-07:00	2020-05-21T01:57:07+00:00	2020-05-27T06:59:59+00:00	-6	4yh4f7sh7d8gr7x@marketplace.amazon.com	Alyscia	+1 210-728-4548 ext. 86782	ABR0055	Arabella Farm Direct Bouquet of 12 Stems of Fresh Cut Hot Pink Roses in a Free Designer Glass Vase	1	0	1	Expedited	Leslie Stilphen	1550 19TH ST			ORANGE CITY	FL	32763-2424	US			false		
111-0254830-8119467	42115358702850	2020-05-21T01:31:28+00:00	2020-05-20T18:31:28-07:00	2020-05-21T02:01:47+00:00	2020-05-27T06:59:59+00:00	-6	hpcmq788xjgv8p6@marketplace.amazon.com	Steven Mayhew	+1 347-448-3190 ext. 49604	ABM010	Arabella Bouquets | Fields of The World Bouquet of Fresh Cut Flowers in a Free Designer Glass Vase	1	0	1	Expedited	Sonya Funk	33 CROWLEY RD			WESTHAMPTON	MA	01027-9637	US			false		
111-7268380-8550654	56206968699314	2020-05-21T01:33:47+00:00	2020-05-20T18:33:47-07:00	2020-05-21T02:03:36+00:00	2020-05-27T06:59:59+00:00	-6	l1mt34tjz4536rw@marketplace.amazon.com	evelyn pinckley	+1 412-532-4665 ext. 79334	ABR0022	Arabella Farm Direct Bouquet of 12 Fresh Cut Pink Roses with a Free Glass Vase	1	0	1	Expedited	evelyn pinckley	1209 RUDGATE CV			LOUISVILLE	KY	40214-6201	US			false		
114-8791981-3301034	37674668821426	2020-05-21T01:55:06+00:00	2020-05-20T18:55:06-07:00	2020-05-21T02:22:55+00:00	2020-05-27T06:59:59+00:00	-6	6jjwn17hzk143g0@marketplace.amazon.com	Darren Brewer	+1 412-532-4665 ext. 70880	ABM010	Arabella Bouquets | Fields of The World Bouquet of Fresh Cut Flowers in a Free Designer Glass Vase	1	0	1	Expedited	Mr. and Mrs. Michael Tuccinardi	660 CLEGHORN MILL RD			RUTHERFORDTON	NC	28139-6947	US		Love and blessings! From Darren, Susie, Rachel, and Erin	false		
114-8939387-1494617	42919955074754	2020-05-21T02:10:24+00:00	2020-05-20T19:10:24-07:00	2020-05-21T02:35:13+00:00	2020-05-27T06:59:59+00:00	-6	b79m30yjxzwf0mr@marketplace.amazon.com	macklee	+1 210-728-4548 ext. 47871	ABM010	Arabella Bouquets | Fields of The World Bouquet of Fresh Cut Flowers in a Free Designer Glass Vase	1	0	1	Expedited	Amber MACK	1325 JASMINE ST			DENVER	CO	80220-2721	US		Congratulations Amber!!  Hope the future is filled with happiness! We are very proud of you!! We love  you! From Grandma and Grandpa	false		
111-7938881-8805061	00390006700354	2020-05-21T02:40:42+00:00	2020-05-20T19:40:42-07:00	2020-05-21T03:11:13+00:00	2020-05-27T06:59:59+00:00	-6	d91xr9hq9w0fg0t@marketplace.amazon.com	Todd Wilson	+1 314-282-9402 ext. 95258	ABR004	Arabella Farm Direct Bouquet of 12 Fresh Cut Yellow Roses with a Free Glass Vase	1	0	1	Expedited	KRISTINA WILSON	8424 E PALM LN			SCOTTSDALE	AZ	85257-2951	US			false		
112-1967176-7551455	23319187643874	2020-05-21T02:44:09+00:00	2020-05-20T19:44:09-07:00	2020-05-21T03:14:32+00:00	2020-05-27T06:59:59+00:00	-6	r40c69cn84ftby6@marketplace.amazon.com	Sandra Kay Kimble	+1 314-282-9402 ext. 90826	ABM010	Arabella Bouquets | Fields of The World Bouquet of Fresh Cut Flowers in a Free Designer Glass Vase	1	0	1	Expedited	Patricia Seaman	165 KEIGHER DR			MANTENO	IL	60950-1509	US			false		
113-1427871-8066641	56981112136674	2020-05-21T02:50:43+00:00	2020-05-20T19:50:43-07:00	2020-05-21T03:22:45+00:00	2020-05-27T06:59:59+00:00	-6	kt0rx1tjm61g5l3@marketplace.amazon.com	V.I.P. Safety & Tool	+1 314-282-9402 ext. 63916	ABR0066	Arabella Bouquets | 12 Stems of Fresh Cut White Roses in a Free Designer Glass Vase	1	0	1	Expedited	BELINDA SMITH	3232 DISCOVERY LN			CONROE	TX	77301-5400	US			true		
112-8891769-0698645	06636767319730	2020-05-21T03:10:15+00:00	2020-05-20T20:10:15-07:00	2020-05-21T03:39:56+00:00	2020-05-27T06:59:59+00:00	-6	5wq9qyzzxtdw30t@marketplace.amazon.com	Beverly Januszewski	+1 347-448-3190 ext. 56330	ABR0022	Arabella Farm Direct Bouquet of 12 Fresh Cut Pink Roses with a Free Glass Vase	1	0	1	Expedited	Robert & Nancy Auburn	4401 TOWHEE DR NW			GIG HARBOR	WA	98332-7806	US		Dear Nancy, happy birthday!   We love you, Zooski Family From Beverly Januszewski	false		
113-1408250-5770617	03474473245322	2020-05-21T03:17:12+00:00	2020-05-20T20:17:12-07:00	2020-05-21T03:46:57+00:00	2020-05-27T06:59:59+00:00	-6	0b283nbcf5mt5yj@marketplace.amazon.com	ralph morrison	+1 347-448-3190 ext. 93428	ABR0055	Arabella Farm Direct Bouquet of 12 Stems of Fresh Cut Hot Pink Roses in a Free Designer Glass Vase	1	0	1	Expedited	Donna Evans	ADDRESS 1503 MARBLEHEAD CT			WILMINGTON	NC	28412-2084	US		Just wanted to make you smile..Love ALWAYS... From ralph morrison	false		
113-8427676-4519463	23848737966778	2020-05-21T03:32:01+00:00	2020-05-20T20:32:01-07:00	2020-05-21T03:59:39+00:00	2020-05-27T06:59:59+00:00	-6	y374cd17hd1mjnz@marketplace.amazon.com	Ramon	+1 347-448-3190 ext. 78948	ABM010	Arabella Bouquets | Fields of The World Bouquet of Fresh Cut Flowers in a Free Designer Glass Vase	1	0	1	Expedited	Maria Garcia	4612 FLORENCE AVE APT 3			BELL	CA	90201-4355	US		Feliz Cumpleaños Mom! Que cumplas muchos más. Te quiero mucho! From Tu hija y nietos!	false		
111-2485197-1298644	56773245148090	2020-05-21T03:38:29+00:00	2020-05-20T20:38:29-07:00	2020-05-21T04:00:41+00:00	2020-05-27T06:59:59+00:00	-6	rwb7hdvv7wfr3yj@marketplace.amazon.com	JENNY	+1 314-282-9402 ext. 48522	ABR014	Arabella Bouquets 18 Stems of Fresh Cut White Roses in a Free Designer Glass Vase	1	0	1	Expedited	Lorainne and Patrick Ramdass	600 HARMONY RD			MIDDLETOWN	NJ	07748-1031	US		ENJOY YOUR GIFT           HAPPY ANNIVERSARY                            .  Love you Guys.❤️ From JENNY And FAMILY.	false		
114-2548386-8561057	26622575385226	2020-05-21T03:35:04+00:00	2020-05-20T20:35:04-07:00	2020-05-21T04:05:00+00:00	2020-05-27T06:59:59+00:00	-6	qnmn4r1z7j2mwyz@marketplace.amazon.com	Brian Bell	+1 210-728-4548 ext. 05854	ABR001	Arabella Bouquets 12 Stems of Fresh Cut Red Roses in a Free Designer Glass Vase	1	0	1	Expedited	Veronica Ramirez	8197 KELTON DR  1			GILROY	CA	95020-3834	US			false		
113-1782423-9788237	64001936190410	2020-05-21T03:39:32+00:00	2020-05-20T20:39:32-07:00	2020-05-21T04:09:21+00:00	2020-05-27T06:59:59+00:00	-6	vf1m548t6lvxsrx@marketplace.amazon.com	Lori Ramsey	+1 314-282-9402 ext. 94074	ABR0022	Arabella Farm Direct Bouquet of 12 Fresh Cut Pink Roses with a Free Glass Vase	1	0	1	Expedited	Desteni Contreraz	8680 BOROFF RD			VAN WERT	OH	45891-9648	US			false		
112-1894640-3054669	59753242174938	2020-05-21T03:44:02+00:00	2020-05-20T20:44:02-07:00	2020-05-21T04:10:54+00:00	2020-05-27T06:59:59+00:00	-6	fnzgfg4btchs398@marketplace.amazon.com	Lindsey Bobay	+1 314-282-9402 ext. 15231	ABM010	Arabella Bouquets | Fields of The World Bouquet of Fresh Cut Flowers in a Free Designer Glass Vase	1	0	1	Expedited	Rippons	1054 NOBLE WAY			THE VILLAGES	FL	32162-6445	US		Thank you for being such good friends to our family From Lindsey Bobay	false		
113-1663427-9556228	28260909582650	2020-05-21T04:42:53+00:00	2020-05-20T21:42:53-07:00	2020-05-21T05:09:45+00:00	2020-05-27T06:59:59+00:00	-6	7pp8mjl0592klt6@marketplace.amazon.com	Anna Wetherbee	+1 210-728-4548 ext. 42452	ABR0022	Arabella Farm Direct Bouquet of 12 Fresh Cut Pink Roses with a Free Glass Vase	1	0	1	Expedited	Brigid O'Neil	811 AYLESBURY GARTH			ARNOLD	MD	21012-1341	US		Bridgid, I was so sorry to hear about your loss. Sending you love and a giant hug.  - Anna From Anna Wetherbee	false		
114-8343938-8557846	52448920676706	2020-05-21T04:45:13+00:00	2020-05-20T21:45:13-07:00	2020-05-21T05:10:07+00:00	2020-05-27T06:59:59+00:00	-6	6y7wbpd1f4vh6nk@marketplace.amazon.com	Jay	+1 210-728-4548 ext. 02257	ABR001	Arabella Bouquets 12 Stems of Fresh Cut Red Roses in a Free Designer Glass Vase	1	0	1	Expedited	Jay Dismukes	167 PELICAN WAY			PANAMA CITY BEACH	FLORIDA	32408-5548	US		Happy Anniversary Mi Amore!! You make me the happiest man in the whole world. Your my soul mate. From Jay	false		
111-3607175-7734601	04305406724674	2020-05-21T04:52:03+00:00	2020-05-20T21:52:03-07:00	2020-05-21T05:20:17+00:00	2020-05-27T06:59:59+00:00	-6	d5rgnpd747b99qw@marketplace.amazon.com	Jeff Fisher	+1 210-728-4548 ext. 35044	ABM010	Arabella Bouquets | Fields of The World Bouquet of Fresh Cut Flowers in a Free Designer Glass Vase	1	0	1	Expedited	Donna Fisher	7411 HITCHING POST DR			PARK CITY	UT	84098-5328	US		Happy Birthday Mom from Jeff, Brenda, Crystal and Jeffrey.	false		
114-3944099-4671409	62508274121706	2020-05-21T05:45:44+00:00	2020-05-20T22:45:44-07:00	2020-05-21T06:04:00+00:00	2020-05-27T06:59:59+00:00	-6	s4jzxd80w8q3vnd@marketplace.amazon.com	Adrian Santoyo	+1 210-728-4548 ext. 40972	ABM010	Arabella Bouquets | Fields of The World Bouquet of Fresh Cut Flowers in a Free Designer Glass Vase	1	0	1	Expedited	Jordan Castillo	6934 RADFORD AVE APT 1			NORTH HOLLYWOOD	CA	91605-6050	US		These flowers are for you Jordan! We love you so much! Wishing you a speedy recovery! XOXO <3 From Adrian Santoyo, Alyssa Martinez and the family	false		
111-1858408-4513827	48058792075690	2020-05-21T05:44:45+00:00	2020-05-20T22:44:45-07:00	2020-05-21T06:14:34+00:00	2020-05-27T06:59:59+00:00	-6	3z7r3cz61nz2tjv@marketplace.amazon.com	SHI XU	+1 347-448-3190 ext. 87081	ABR0066	Arabella Bouquets | 12 Stems of Fresh Cut White Roses in a Free Designer Glass Vase	1	0	1	Expedited	Qian Jingyi	1226 WEATHERSTONE DR NE			ATLANTA	GA	30324-4643	US			false		
113-7835656-1815452	45647602378690	2020-05-21T06:31:27+00:00	2020-05-20T23:31:27-07:00	2020-05-21T06:56:29+00:00	2020-05-27T06:59:59+00:00	-6	sq89cylrc4ygvk0@marketplace.amazon.com	Alison Weaver	+1 314-282-9402 ext. 72506	ABM010	Arabella Bouquets | Fields of The World Bouquet of Fresh Cut Flowers in a Free Designer Glass Vase	1	0	1	Expedited	Lynne Weaver	1889 IVINS RD			BANCROFT	ID	83217-5207	US		SORRY about the first flowers that were sent. 😀 We didn’t realize they weren’t real! Oops! Ha Ha!   HAPPY 2nd MOTHER’S DAY!   Love, Steve and family.	false		
113-4317182-9625057	07242766117026	2020-05-21T06:32:08+00:00	2020-05-20T23:32:08-07:00	2020-05-21T07:02:42+00:00	2020-05-27T06:59:59+00:00	-6	g9cw1ksk9d5p2z2@marketplace.amazon.com	Adam	+1 347-448-3190 ext. 37599	ABM010	Arabella Bouquets | Fields of The World Bouquet of Fresh Cut Flowers in a Free Designer Glass Vase	1	0	1	Expedited	Adam Kempton	2787 CALVANO DR			LAND O LAKES	FL	34639-5484	US			false		
114-3009644-1717042	34626544296370	2020-05-21T07:02:05+00:00	2020-05-21T00:02:05-07:00	2020-05-21T07:11:43+00:00	2020-05-27T06:59:59+00:00	-6	ffp65tlgk2lcsn1@marketplace.amazon.com	Christina Fischer	0014253143549	ABM010	Arabella Bouquets | Fields of The World Bouquet of Fresh Cut Flowers in a Free Designer Glass Vase	1	0	1	Expedited	Laura Einsetler	68 VIA CAPRI			RANCHO PALOS VERDES	CA	90275-5372	US		So much love from Germany to Carlifornia....Happy Bithday my dear Laura. Enjoy your B-Day and i wish that everyone is  healthy. See you later alligator...  Love Christina	false		
113-1578820-1037015	32803475414418	2020-05-21T07:13:12+00:00	2020-05-21T00:13:12-07:00	2020-05-21T07:41:47+00:00	2020-05-28T06:59:59+00:00	-7	hzv7tk67xv3zm73@marketplace.amazon.com	C wilson	+1 210-728-4548 ext. 17196	ABR0022	Arabella Farm Direct Bouquet of 12 Fresh Cut Pink Roses with a Free Glass Vase	1	0	1	Expedited	Michelle Lee	1205 GILEAD RUPE RD			LEXINGTON	MO	64067-7183	US		Haa told you I'd surprise you... hope you like em... oh yea I LOVE YOU MORRRREEEEE WIFEY!!! From Your Boo	false		
114-8407626-7848213	57557217383370	2020-05-21T09:09:34+00:00	2020-05-21T02:09:34-07:00	2020-05-21T09:32:45+00:00	2020-05-28T06:59:59+00:00	-7	p9nsr2b9q5212s8@marketplace.amazon.com	brian banules	+1 347-448-3190 ext. 81756	ABR0022	Arabella Farm Direct Bouquet of 12 Fresh Cut Pink Roses with a Free Glass Vase	1	0	1	Expedited	Sara Medina	3543 WHEELHOUSE ST			SAINT CHARLES	MO	63301-8516	US		Happy Birthday Babe... I love you too the moon and back. I hope you have a amazing birthday. Wish I was to enjoy it with you.  Your now and forever From brian banules	false		
112-0593023-0631461	41911399236450	2020-05-21T10:31:05+00:00	2020-05-21T03:31:05-07:00	2020-05-21T11:00:22+00:00	2020-05-28T06:59:59+00:00	-7	r3dz60w6ldwd44n@marketplace.amazon.com	Iris Janey	+1 347-448-3190 ext. 00370	ABR0022	Arabella Farm Direct Bouquet of 12 Fresh Cut Pink Roses with a Free Glass Vase	1	0	1	Expedited	Iris Janey	18 HILL ST  18			BROCKTON	MA	02302-3229	US		Iris & Juanita, Us here at the Catholic Center are in deep  grief over the loss of your grandmother/mother. May the Lord continue to comfort you and your family at this difficult time. From Father Bill	false		
113-6881368-6073823	53880397702010	2020-05-21T11:11:08+00:00	2020-05-21T04:11:08-07:00	2020-05-21T11:38:59+00:00	2020-05-28T06:59:59+00:00	-7	j5xjhyl1m314d01@marketplace.amazon.com	Vinit Shah	+1 347-448-3190 ext. 00592	ABR0055	Arabella Farm Direct Bouquet of 12 Stems of Fresh Cut Hot Pink Roses in a Free Designer Glass Vase	1	0	1	Expedited	Hemali Gunt	202 CORSAIR DR			MORRISVILLE	NC	27560-5718	US			false		
114-1009696-3264201	29219499073586	2020-05-21T11:18:23+00:00	2020-05-21T04:18:23-07:00	2020-05-21T11:46:46+00:00	2020-05-28T06:59:59+00:00	-7	v37ymcx3jqdj4m2@marketplace.amazon.com	David Smith	+1 210-728-4548 ext. 54444	ABR0022	Arabella Farm Direct Bouquet of 12 Fresh Cut Pink Roses with a Free Glass Vase	1	0	1	Expedited	Janice Smith	8364 E RADCLIFF AVE UNIT 398			DENVER	CO	80237-2582	US		Hi Janice, We hope these flowers help to brighten your recovery! Love, Shirley & David	false		
112-7095585-0028264	48881063741698	2020-05-21T11:38:24+00:00	2020-05-21T04:38:24-07:00	2020-05-21T12:06:41+00:00	2020-05-28T06:59:59+00:00	-7	50ml0x6ppxxr815@marketplace.amazon.com	Shanna	+1 210-728-4548 ext. 08227	ABM010	Arabella Bouquets | Fields of The World Bouquet of Fresh Cut Flowers in a Free Designer Glass Vase	1	0	1	Expedited	Kim Keller	77 NELSON ST			FARMINGDALE	NY	11735-4227	US		Happy 40th Birthday, Kim! Wish we could get together to celebrate! We love you! From Shanna, Tom, & Evan	false		
113-4128049-7277857	64432539812234	2020-05-21T11:51:36+00:00	2020-05-21T04:51:36-07:00	2020-05-21T12:28:35+00:00	2020-05-28T06:59:59+00:00	-7	5n1df6n4wqnl7m8@marketplace.amazon.com	Michelle Wysocki	+1 210-728-4548 ext. 31098	ABR004	Arabella Farm Direct Bouquet of 12 Fresh Cut Yellow Roses with a Free Glass Vase	1	0	1	Expedited	Michelle Wysocki	129 N RIVER DR			PENNSVILLE	NJ	08070-1609	US			false		
114-0615166-9690640	47139313100394	2020-05-21T12:08:49+00:00	2020-05-21T05:08:49-07:00	2020-05-21T12:38:58+00:00	2020-05-28T06:59:59+00:00	-7	z3sgqptqty8pfrq@marketplace.amazon.com	Larry Kopowski	+1 314-282-9402 ext. 71962	ABR0022	Arabella Farm Direct Bouquet of 12 Fresh Cut Pink Roses with a Free Glass Vase	1	0	1	Expedited	Debbie Woodworth	31500 BEXLEY DR			BAY VILLAGE	OH	44140-1475	US			false		
113-7810608-9741027	68649892632114	2020-05-21T12:22:22+00:00	2020-05-21T05:22:22-07:00	2020-05-21T12:44:27+00:00	2020-05-28T06:59:59+00:00	-7	jfgv3jyt08rdnz4@marketplace.amazon.com	Mary Walter	+1 347-448-3190 ext. 07814	ABR0055	Arabella Farm Direct Bouquet of 12 Stems of Fresh Cut Hot Pink Roses in a Free Designer Glass Vase	1	0	1	Expedited	Lisa Klink	17047 NE 18TH ST			BELLEVUE	WA	98008-2940	US		Hi Lisa, Happy Birthday! Love, Mom & Dad	false		
112-8317653-8697815	52121047857586	2020-05-21T12:24:53+00:00	2020-05-21T05:24:53-07:00	2020-05-21T12:55:09+00:00	2020-05-28T06:59:59+00:00	-7	508y04x08nxgkvx@marketplace.amazon.com	dan watters	+1 210-728-4548 ext. 94935	ABM010	Arabella Bouquets | Fields of The World Bouquet of Fresh Cut Flowers in a Free Designer Glass Vase	1	0	1	Expedited	danny watters	11027 e crestline circle			Englewood	CO	80111	US			false		
112-6368595-0176236	01593622688330	2020-05-21T12:41:14+00:00	2020-05-21T05:41:14-07:00	2020-05-21T13:11:47+00:00	2020-05-28T06:59:59+00:00	-7	fprhwt932mqjrsp@marketplace.amazon.com	Will	+1 210-728-4548 ext. 80864	ABR001	Arabella Bouquets 12 Stems of Fresh Cut Red Roses in a Free Designer Glass Vase	1	0	1	Expedited	Will	2732 NOTTINGHAM LN APT I			MONROE	NC	28110-6510	US			false		
113-2595647-5415416	16351770016466	2020-05-21T12:52:02+00:00	2020-05-21T05:52:02-07:00	2020-05-21T13:14:03+00:00	2020-05-28T06:59:59+00:00	-7	qc4y084v7qjtwbc@marketplace.amazon.com	Charles F Jenks Jr	+1 210-728-4548 ext. 91671	ABM010	Arabella Bouquets | Fields of The World Bouquet of Fresh Cut Flowers in a Free Designer Glass Vase	1	0	1	Expedited	Mrs. Ashleigh Thomas	204 Vaderbuilt Blvd			Locust	NC	28097	US		Congratulations on the birth of Abel Thomas Love you From GG and GNana2	false		
112-8266261-2246625	55134004782546	2020-05-21T12:49:18+00:00	2020-05-21T05:49:18-07:00	2020-05-21T13:19:54+00:00	2020-05-28T06:59:59+00:00	-7	pq5xd9dtlg3rbpl@marketplace.amazon.com	Frank Heine	+1 347-448-3190 ext. 74766	ABR0022	Arabella Farm Direct Bouquet of 12 Fresh Cut Pink Roses with a Free Glass Vase	1	0	1	Expedited	Frank Heine	6442 MILL VIEW DR			BYRNES MILL	MISSOURI	63051-1280	US			false		
114-4370019-3056209	08011118377026	2020-05-21T13:05:12+00:00	2020-05-21T06:05:12-07:00	2020-05-21T13:31:59+00:00	2020-05-28T06:59:59+00:00	-7	xjhqpfssnvvlvvv@marketplace.amazon.com	Roberta Moak	+1 763-225-9463 ext. 36387	ABR0022	Arabella Farm Direct Bouquet of 12 Fresh Cut Pink Roses with a Free Glass Vase	1	0	1	Expedited	Kate Moak	1926 ALPINE DR			ERIE	CO	80516-4683	US		Congratulations Kate!  We love you! From Roberta Moak	false		
114-0815325-5127412	65611140042266	2020-05-21T13:24:09+00:00	2020-05-21T06:24:09-07:00	2020-05-21T13:49:11+00:00	2020-05-28T06:59:59+00:00	-7	l8lt22lvc66v3ky@marketplace.amazon.com	Jeanne	+1 314-282-9402 ext. 66155	ABR0022	Arabella Farm Direct Bouquet of 12 Fresh Cut Pink Roses with a Free Glass Vase	1	0	1	Expedited	Brenda Rose	661 CHICKASAW DR			SUMTER	SC	29150-2238	US		Sending our love and prayers for a fast recovery From Jenny, Rick and Jeanne	false		
113-3858265-2066629	13137387584962	2020-05-21T13:21:08+00:00	2020-05-21T06:21:08-07:00	2020-05-21T13:49:48+00:00	2020-05-28T06:59:59+00:00	-7	knlvtxnl9rphh3m@marketplace.amazon.com	john dell	+1 314-282-9402 ext. 21620	ABR001	Arabella Bouquets 12 Stems of Fresh Cut Red Roses in a Free Designer Glass Vase	1	0	1	Expedited	l smith	717 E NORTH 11TH ST			ABILENE	TX	79601-3826	US			false		
114-5276976-5615446	30193895615114	2020-05-21T13:28:49+00:00	2020-05-21T06:28:49-07:00	2020-05-21T13:59:21+00:00	2020-05-28T06:59:59+00:00	-7	wz02k2pjwv7dwb1@marketplace.amazon.com	Matt Cushing	+1 347-448-3190 ext. 96090	ABR0033	Arabella Farm Direct Bouquet of 12 Fresh Cut Orange Roses with a Free Glass Vase	1	0	1	Expedited	Matthew Cushing	335 NORTON ST			BOULDER	CO	80305-5256	US			false		
112-1959248-6909810	35446874941010	2020-05-21T14:03:36+00:00	2020-05-21T07:03:36-07:00	2020-05-21T14:33:57+00:00	2020-05-28T06:59:59+00:00	-7	5nk1snx2kcfrnr4@marketplace.amazon.com	alyssa	+1 314-282-9402 ext. 03979	ABM010	Arabella Bouquets | Fields of The World Bouquet of Fresh Cut Flowers in a Free Designer Glass Vase	1	0	1	Expedited	Janice Carlin	400 LESLIE DR APT 208			HALLANDALE BEACH	FL	33009-2963	US			false		
114-1867887-9717807	63810723616538	2020-05-21T14:14:56+00:00	2020-05-21T07:14:56-07:00	2020-05-21T14:36:35+00:00	2020-05-28T06:59:59+00:00	-7	jpl03ghk2nxp8jb@marketplace.amazon.com	Maggie Causgrove	+1 347-448-3190 ext. 14606	ABR0022	Arabella Farm Direct Bouquet of 12 Fresh Cut Pink Roses with a Free Glass Vase	1	0	1	Expedited	B Causgrove	474 W 143RD ST			NEW YORK	NY	10031-6210	US		Happy early birthday, B! Miss you and hope to see you soon! xoxo Love, Maggie	false		
113-4477154-4112237	46052785770346	2020-05-21T14:13:11+00:00	2020-05-21T07:13:11-07:00	2020-05-21T14:40:23+00:00	2020-05-28T06:59:59+00:00	-7	qj0bdk13f670nl9@marketplace.amazon.com	Sarah OFlaherty	+1 347-448-3190 ext. 32368	ABM010	Arabella Bouquets | Fields of The World Bouquet of Fresh Cut Flowers in a Free Designer Glass Vase	1	0	1	Expedited	Sandra Milholland	12820 TEE TIME WAY			RALEIGH	NC	27614-6569	US		Hi Sandra  Wishing you a fast recovery and looking forward to seeing you soon From The Romero Family	false		
114-7114602-0753048	69640832543818	2020-05-21T14:11:30+00:00	2020-05-21T07:11:30-07:00	2020-05-21T14:41:06+00:00	2020-05-28T06:59:59+00:00	-7	c86qrqyhfxf5plg@marketplace.amazon.com	danielle duggan	+1 314-282-9402 ext. 38120	ABM010	Arabella Bouquets | Fields of The World Bouquet of Fresh Cut Flowers in a Free Designer Glass Vase	1	0	1	Expedited	Jeannine Brayman	29 FOREST EDGE			PLYMOUTH	MA	02360-8218	US		Happy Birthday Mom. Love you!! Dani & Gerry	false		
111-2572377-1854611	20145279057266	2020-05-21T14:46:22+00:00	2020-05-21T07:46:22-07:00	2020-05-21T15:14:13+00:00	2020-05-28T06:59:59+00:00	-7	ct5b1gdzfrj2lxm@marketplace.amazon.com	donna	+1 763-225-9463 ext. 16728	ABM010	Arabella Bouquets | Fields of The World Bouquet of Fresh Cut Flowers in a Free Designer Glass Vase	1	0	1	Expedited	Tina Briscoe	5308 SUMMER CT			FORT WORTH	TX	76123-1919	US		Tina— our prayers are with you.  Love, Dan and Donna From Dan and Donna Perkins	false		
111-2118244-8272213	01782903584090	2020-05-21T14:45:05+00:00	2020-05-21T07:45:05-07:00	2020-05-21T15:14:19+00:00	2020-05-28T06:59:59+00:00	-7	xszktxwh3h1r54h@marketplace.amazon.com	Marion T Hirsch	+1 347-448-3190 ext. 77114	ABM010	Arabella Bouquets | Fields of The World Bouquet of Fresh Cut Flowers in a Free Designer Glass Vase	1	0	1	Expedited	Nella Beize	2702 CEMBALO BLVD APT 344			SAN ANTONIO	TX	78230-3049	US		Enjoy your gift!    Love and Hugs From Mio	false		
114-3362078-0573818	53729768594330	2020-05-21T14:44:18+00:00	2020-05-21T07:44:18-07:00	2020-05-21T15:14:55+00:00	2020-05-28T06:59:59+00:00	-7	28lwljlw44xgx9j@marketplace.amazon.com	James pepe	+1 347-448-3190 ext. 51945	ABR004	Arabella Farm Direct Bouquet of 12 Fresh Cut Yellow Roses with a Free Glass Vase	1	0	1	Expedited	Nan eisenberg shiff	1 LINCOLN PLZ APT 30 L			NEW YORK	NY	10023-7137	US			false		
114-2786377-0882635	01890607450146	2020-05-21T14:45:40+00:00	2020-05-21T07:45:40-07:00	2020-05-21T15:16:20+00:00	2020-05-28T06:59:59+00:00	-7	28lwljlw44xgx9j@marketplace.amazon.com	James pepe	+1 210-728-4548 ext. 09333	ABM0033	Arabella Farm Direct Bouquet of Fresh Cut White Hydrangea with a Free Glass Vase	1	0	1	Expedited	Nan eisenberg shiff	1 LINCOLN PLZ APT 30 L			NEW YORK	NY	10023-7137	US			false		
112-3531315-6073039	22207526189898	2020-05-21T14:51:05+00:00	2020-05-21T07:51:05-07:00	2020-05-21T15:21:34+00:00	2020-05-28T06:59:59+00:00	-7	3qq9xyp1kk6wbyz@marketplace.amazon.com	Darius	+1 210-728-4548 ext. 67322	ABR0066	Arabella Bouquets | 12 Stems of Fresh Cut White Roses in a Free Designer Glass Vase	1	0	1	Expedited	Darius Moody	114 MICHIGAN CIR			JACKSONVILLE	AR	72076-1039	US			false		
113-5911917-9410626	25168579456562	2020-05-21T14:54:46+00:00	2020-05-21T07:54:46-07:00	2020-05-21T15:23:30+00:00	2020-05-28T06:59:59+00:00	-7	fxqgjhvt0f86cdk@marketplace.amazon.com	Andreea Stefanescu	+1 314-282-9402 ext. 50526	ABM010	Arabella Bouquets | Fields of The World Bouquet of Fresh Cut Flowers in a Free Designer Glass Vase	1	0	1	Expedited	Linda Dixon	214 W CHATHAM ST			APEX	NC	27502-1408	US		Dear Linda,  We miss you and are thinking of you!!! From Love, CCM Department	false		
113-8459219-2433866	23245903684266	2020-05-21T15:05:10+00:00	2020-05-21T08:05:10-07:00	2020-05-21T15:24:55+00:00	2020-05-28T06:59:59+00:00	-7	htvpfqgk8swp6ck@marketplace.amazon.com	manuel polanco	+1 314-282-9402 ext. 42477	ABR001	Arabella Bouquets 12 Stems of Fresh Cut Red Roses in a Free Designer Glass Vase	1	0	1	Expedited	Nathaly Asuaje	4400 NW 79TH AVE APT 216 DORAL	FL 33166		MIAMI	FL	33166-6305	US		Eres el pensamiento que mantengo recurrente en mis días, cura infinita, ecualizas mi mente, te convertiste en alguien muy importante para mi. Feliz cumpleañoooos😊 PD: No se cuando llegue esto 😉🌹 De Manuel	false		
114-4043658-6944237	58507224761418	2020-05-21T14:55:29+00:00	2020-05-21T07:55:29-07:00	2020-05-21T15:25:43+00:00	2020-05-28T06:59:59+00:00	-7	sb599mmhhlrb294@marketplace.amazon.com	AdrianN	+1 347-448-3190 ext. 14091	ABR0033	Arabella Farm Direct Bouquet of 12 Fresh Cut Orange Roses with a Free Glass Vase	1	0	1	Expedited	Ellen Nastase	20971 SURGE LN			HUNTINGTON BEACH	CA	92646-6625	US			false		
114-4393281-1938610	02836316414058	2020-05-21T14:58:26+00:00	2020-05-21T07:58:26-07:00	2020-05-21T15:28:42+00:00	2020-05-28T06:59:59+00:00	-7	xmwdrb0b70zjr9f@marketplace.amazon.com	Jason Ward	+1 347-448-3190 ext. 89720	ABM010	Arabella Bouquets | Fields of The World Bouquet of Fresh Cut Flowers in a Free Designer Glass Vase	1	0	1	Expedited	James Ward	1300 CALDWELL DR			HAMPTON	VA	23666-2454	US			false		
111-1707110-8498666	63929390336090	2020-05-21T15:27:42+00:00	2020-05-21T08:27:42-07:00	2020-05-21T15:53:43+00:00	2020-05-28T06:59:59+00:00	-7	b5shyvz9m9p5txn@marketplace.amazon.com	val renhard	+1 314-282-9402 ext. 43310	ABM010	Arabella Bouquets | Fields of The World Bouquet of Fresh Cut Flowers in a Free Designer Glass Vase	1	0	1	Expedited	KayDince Beach	3535 SE HARBOR DR APT # G66			LINCOLN CITY	OR	97367-1942	US			false		
114-1150603-3006601	34834298313554	2020-05-21T15:35:36+00:00	2020-05-21T08:35:36-07:00	2020-05-21T16:00:02+00:00	2020-05-28T06:59:59+00:00	-7	nlz8mkhybcs6dkf@marketplace.amazon.com	Martin Collins	+1 347-448-3190 ext. 91358	ABR001	Arabella Bouquets 12 Stems of Fresh Cut Red Roses in a Free Designer Glass Vase	1	0	1	Expedited	Sharon Seager	6916 SUPERIOR STREET CIR			SARASOTA	FL	34243-5307	US		Thinking of you at this difficult time.  Marty and Mary Lynne	false		
112-7406990-2924237	34382823477034	2020-05-21T15:36:13+00:00	2020-05-21T08:36:13-07:00	2020-05-21T16:05:31+00:00	2020-05-28T06:59:59+00:00	-7	364fzcwrmdyvlsn@marketplace.amazon.com	Shaun Frederiksen	+1 314-282-9402 ext. 42654	ABR0033	Arabella Farm Direct Bouquet of 12 Fresh Cut Orange Roses with a Free Glass Vase	1	0	1	Expedited	Un Choi	5002 FERN LK			SAN ANTONIO	TX	78244-2065	US		Happy birthday umma! We love you very much! From Shaun & David	false		
113-8059978-1133061	45038017325410	2020-05-21T15:43:45+00:00	2020-05-21T08:43:45-07:00	2020-05-21T16:13:33+00:00	2020-05-28T06:59:59+00:00	-7	hsqr1v2s72mdmp9@marketplace.amazon.com	Dave	+1 314-282-9402 ext. 53491	ABM010	Arabella Bouquets | Fields of The World Bouquet of Fresh Cut Flowers in a Free Designer Glass Vase	1	0	1	Expedited	Dave McCauley	1640 SHERWOOD VILLAGE CIR			PLACENTIA	CA	92870-3117	US			false		
114-2657334-1823455	48425339928754	2020-05-21T16:01:30+00:00	2020-05-21T09:01:30-07:00	2020-05-21T16:27:47+00:00	2020-05-28T06:59:59+00:00	-7	sh4cmlshbvrqwp0@marketplace.amazon.com	Christopher Layton	+1 347-448-3190 ext. 33105	ABM010	Arabella Bouquets | Fields of The World Bouquet of Fresh Cut Flowers in a Free Designer Glass Vase	1	0	1	Expedited	Nancy Murphy	12 CONANT RD			WESTON	MA	02493-1626	US		Hi Nancy Happy Birthday.  Love you and thinking and praying for you always Chris and Jeanne	false		
111-0988044-9729002	67749509779170	2020-05-21T16:07:27+00:00	2020-05-21T09:07:27-07:00	2020-05-21T16:35:15+00:00	2020-05-28T06:59:59+00:00	-7	cklbnkfmqyvzrz7@marketplace.amazon.com	Zibo ZHAO	+1 314-282-9402 ext. 25767	ABR0022	Arabella Farm Direct Bouquet of 12 Fresh Cut Pink Roses with a Free Glass Vase	1	0	1	Expedited	Zibo ZHAO	25 W RANDOLPH ST APT 1919			CHICAGO	IL	60601-3524	US		Hi, Enjoy your gift! From Zibo ZHAO	false		
114-9174223-7662663	55253632540930	2020-05-21T16:36:48+00:00	2020-05-21T09:36:48-07:00	2020-05-21T17:03:55+00:00	2020-05-28T06:59:59+00:00	-7	b5t5tsmnq6bhzrp@marketplace.amazon.com	Sue Haddad	+1 210-728-4548 ext. 83180	ABR0022	Arabella Farm Direct Bouquet of 12 Fresh Cut Pink Roses with a Free Glass Vase	1	0	1	Expedited	Rosanna Cruz	4920 TOTHILL DR			OLNEY	MD	20832-1872	US			false		
113-9016255-7919447	60704965752626	2020-05-21T16:43:41+00:00	2020-05-21T09:43:41-07:00	2020-05-21T17:07:26+00:00	2020-05-28T06:59:59+00:00	-7	h92n78rj2x8gw52@marketplace.amazon.com	Jaivyon hawkins	+1 763-225-9463 ext. 15012	ABR0022	Arabella Farm Direct Bouquet of 12 Fresh Cut Pink Roses with a Free Glass Vase	1	0	1	Expedited	Aniyah Lové Jenkins	4231 W STILES ST			PHILADELPHIA	PA	19104-1024	US		You deserve the world so let me start by giving you this little piece of it ❤️ From Jaivyon hawkins	false		
114-2945985-8908215	30649885726642	2020-05-21T16:40:07+00:00	2020-05-21T09:40:07-07:00	2020-05-21T17:07:52+00:00	2020-05-28T06:59:59+00:00	-7	gnjjt42qv0fzggc@marketplace.amazon.com	Anne Ziegler	+1 210-728-4548 ext. 69985	ABM010	Arabella Bouquets | Fields of The World Bouquet of Fresh Cut Flowers in a Free Designer Glass Vase	1	0	1	Expedited	Chris Pendleton	7506 MAYFAIR CT			MOUNT AIRY	MD	21771-8400	US		Chrissy,  We just heard, so so sorry for your loss.   From Anne & Keith Ziegler	false		
113-9057295-4540269	20162995539690	2020-05-21T16:32:46+00:00	2020-05-21T09:32:46-07:00	2020-05-21T17:08:58+00:00	2020-05-28T06:59:59+00:00	-7	bjwwctjhzykh6tj@marketplace.amazon.com	Hope Dibble	+1 763-225-9463 ext. 93740	ABR0033	Arabella Farm Direct Bouquet of 12 Fresh Cut Orange Roses with a Free Glass Vase	1	0	1	Expedited	Bill & Joey Wheeler	571 RIVERLAND DR			CRESTED BUTTE	COLORADO	81224-8006	US		5 FOREVER      * * * * *	false		
114-0218613-7886643	60000621864314	2020-05-21T16:45:46+00:00	2020-05-21T09:45:46-07:00	2020-05-21T17:13:26+00:00	2020-05-28T06:59:59+00:00	-7	bwn5vkds35zy3cb@marketplace.amazon.com	Aman	+1 347-448-3190 ext. 85302	ABR0055	Arabella Farm Direct Bouquet of 12 Stems of Fresh Cut Hot Pink Roses in a Free Designer Glass Vase	1	0	1	Expedited	Monica Prasad	4801 TUSK WAY			ELK GROVE	CA	95757-1722	US		Congratulations to the Gill and Prasad family. We cannot wait to meet our little Princess Zara. From The Pabla’s & Gahoonia’s From The Pabla’s & Gahoonia’s	false		
112-7446485-7955460	48727663412394	2020-05-21T16:51:00+00:00	2020-05-21T09:51:00-07:00	2020-05-21T17:15:37+00:00	2020-05-28T06:59:59+00:00	-7	4y0df7n8c4hpyt3@marketplace.amazon.com	Christine  Seling	001-609-6646114	ABR004	Arabella Farm Direct Bouquet of 12 Fresh Cut Yellow Roses with a Free Glass Vase	1	0	1	Expedited	Deborah Cacho	532 WOODRIDGE DR			PORT LUDLOW	WA	98365-8236	US			false		
111-4097528-3575408	27849928803786	2020-05-21T16:50:28+00:00	2020-05-21T09:50:28-07:00	2020-05-21T17:19:09+00:00	2020-05-28T06:59:59+00:00	-7	cvdjyprrgzvy7zx@marketplace.amazon.com	Lawrence Miller	+1 347-448-3190 ext. 33868	ABM010	Arabella Bouquets | Fields of The World Bouquet of Fresh Cut Flowers in a Free Designer Glass Vase	1	0	1	Expedited	Walker Miller	309 LOCK LN S			RICHMOND	VA	23226-1713	US			false		
114-7119428-2647401	13091326609970	2020-05-21T16:57:10+00:00	2020-05-21T09:57:10-07:00	2020-05-21T17:19:55+00:00	2020-05-28T06:59:59+00:00	-7	92n04wf6pqqrlvv@marketplace.amazon.com	Paula Ellison	+1 763-225-9463 ext. 54729	ABR004	Arabella Farm Direct Bouquet of 12 Fresh Cut Yellow Roses with a Free Glass Vase	1	0	1	Expedited	Jackie Gash	5385 ASPENWOOD CT			CONCORD	CA	94521-5415	US		Thinking of you and hoping you are back on you feet soon! We love you!  John & Paula Marlene Jessi & Holen	false		
112-7635448-4189860	47929791542522	2020-05-21T17:02:00+00:00	2020-05-21T10:02:00-07:00	2020-05-21T17:29:38+00:00	2020-05-28T06:59:59+00:00	-7	8rqhcr1fkvk004l@marketplace.amazon.com	shelley beard	33024248486	ABR0022	Arabella Farm Direct Bouquet of 12 Fresh Cut Pink Roses with a Free Glass Vase	1	0	1	Expedited	Sheila Evensen	4034 ALAMEDA CT			MEDINA	OH	44256-5617	US		She-She - we love you and hope you are recovering!  Many Hugs and Kisses -  Andrew, Nick, Kate and Shelley	false		
111-4734866-9805815	42658767994346	2020-05-21T17:03:01+00:00	2020-05-21T10:03:01-07:00	2020-05-21T17:29:39+00:00	2020-05-28T06:59:59+00:00	-7	g6j6r019zz86zzd@marketplace.amazon.com	BanD	+1 210-728-4548 ext. 29563	ABM002	Arabella Bouquets Fresh Cut White Calla Lilies in a Free Designer Glass Vase	1	0	1	Expedited	Amanda Boden	3844 43RD AVE NE			SEATTLE	WA	98105-5447	US		Amanda, As mothers we both know how amazing and heartbreaking life can be. Thank you for supporting me over the last few months.  Lilies were GG's favorite and Nana loved them too. Enjoy! With love, Daina From Daina Boden	false		
111-0174156-9037052	47678392143266	2020-05-21T17:23:20+00:00	2020-05-21T10:23:20-07:00	2020-05-21T17:51:47+00:00	2020-05-28T06:59:59+00:00	-7	s4l64scby2y6246@marketplace.amazon.com	libby	+1 347-448-3190 ext. 56037	ABM010	Arabella Bouquets | Fields of The World Bouquet of Fresh Cut Flowers in a Free Designer Glass Vase	1	0	1	Expedited	Christina Malinowski	5810 BIRDIE LN			MENTOR	OH	44060-0905	US		Thank you so much for hanging out with us in Arizona for so long! We can’t possibly express how much we loved having you here! So many wonderful memories made. Rest up and see you again in 2 weeks From Emily & Henry	false		
112-1764533-2457824	49100047358130	2020-05-21T17:29:00+00:00	2020-05-21T10:29:00-07:00	2020-05-21T17:59:26+00:00	2020-05-28T06:59:59+00:00	-7	fpnj6h8s10hjrjc@marketplace.amazon.com	Rosary Stephen	+1 347-448-3190 ext. 29052	ABR0066	Arabella Bouquets | 12 Stems of Fresh Cut White Roses in a Free Designer Glass Vase	1	0	1	Expedited	Rosary Stephen	4642 CRAIGIE ST			SAN DIEGO	CA	92102-3662	US			false		
112-7413344-0959456	57418381193098	2020-05-21T17:38:45+00:00	2020-05-21T10:38:45-07:00	2020-05-21T18:07:03+00:00	2020-05-28T06:59:59+00:00	-7	z9wx07l7xr9p6c5@marketplace.amazon.com	Crystal Cherico	+1 314-282-9402 ext. 48269	ABR0033	Arabella Farm Direct Bouquet of 12 Fresh Cut Orange Roses with a Free Glass Vase	1	0	1	Expedited	Glenn and Denise Caskey	165 TRISTEN CV			LIBERTY HILL	TX	78642-4556	US			false		
111-9289699-1751431	40529421432746	2020-05-21T17:49:42+00:00	2020-05-21T10:49:42-07:00	2020-05-21T18:09:01+00:00	2020-05-28T06:59:59+00:00	-7	rlsls5brr27qjzf@marketplace.amazon.com	Kathryn Glaser	+1 763-225-9463 ext. 62789	ABR0055	Arabella Farm Direct Bouquet of 12 Stems of Fresh Cut Hot Pink Roses in a Free Designer Glass Vase	1	0	1	Expedited	Kristen Glaser	960 E PACES FERRY RD NE APT 305			ATLANTA	GA	30326-2849	US		Happy Birthday!   I hope you have a great year with lots of great memories!    Love, Mom and Dad	false		
113-8898671-1624241	32870506373658	2020-05-21T17:45:14+00:00	2020-05-21T10:45:14-07:00	2020-05-21T18:14:46+00:00	2020-05-28T06:59:59+00:00	-7	0s010tt7k6f6n5g@marketplace.amazon.com	Joe	+1 347-448-3190 ext. 68110	ABM010	Arabella Bouquets | Fields of The World Bouquet of Fresh Cut Flowers in a Free Designer Glass Vase	1	0	1	Expedited	Theresa Molyneux	46 HARRISON AVE			EAST BRUNSWICK	NJ	08816-4758	US		Happy Birthday Terri! We can’t wait to celebrate with you soon! We love you! From Nicole and Lea	false		
113-4335377-2529852	23922458332026	2020-05-21T17:54:07+00:00	2020-05-21T10:54:07-07:00	2020-05-21T18:22:19+00:00	2020-05-28T06:59:59+00:00	-7	3nkz5s16wcfff36@marketplace.amazon.com	J. Read Hendon	+1 347-448-3190 ext. 78950	ABM010	Arabella Bouquets | Fields of The World Bouquet of Fresh Cut Flowers in a Free Designer Glass Vase	1	0	1	Expedited	Helen-Ruth Hendon	111 PERSIMMON PL			MADISON	MS	39110-6821	US		Happy Birthday!  We love you very much.  Hope you have a great day!!!	false		
111-3987287-5941024	02560250202714	2020-05-21T17:56:45+00:00	2020-05-21T10:56:45-07:00	2020-05-21T18:24:11+00:00	2020-05-28T06:59:59+00:00	-7	y2qq84qc0cj9mr3@marketplace.amazon.com	Edie Larson	+1 314-282-9402 ext. 41744	ABR014	Arabella Bouquets 18 Stems of Fresh Cut White Roses in a Free Designer Glass Vase	1	0	1	Expedited	Jane Kiger	901 ANDERSON ST			WARRENSBURG	MO	64093-2521	US		After a senior year completely on your own terms....HAPPY GRADUATION! From Edie	false		
112-5850218-8183453	07754747899562	2020-05-21T17:52:58+00:00	2020-05-21T10:52:58-07:00	2020-05-21T18:25:00+00:00	2020-05-28T06:59:59+00:00	-7	zc0yz6ssqptll5g@marketplace.amazon.com	Laura Zayac	+1 210-728-4548 ext. 96266	ABR0022	Arabella Farm Direct Bouquet of 12 Fresh Cut Pink Roses with a Free Glass Vase	1	0	1	Expedited	Helen Little	138 SONAT RD			NEWHEBRON	MS	39140-5512	US		Just want to brighten your day! From Laura Zayac	false		
113-5519035-1187461	11794215476842	2020-05-21T18:15:26+00:00	2020-05-21T11:15:26-07:00	2020-05-21T18:43:53+00:00	2020-05-28T06:59:59+00:00	-7	xrtls2f87r4wk4r@marketplace.amazon.com	Harry pope	+1 347-448-3190 ext. 17247	ABR0022	Arabella Farm Direct Bouquet of 12 Fresh Cut Pink Roses with a Free Glass Vase	1	0	1	Expedited	GAYLE LOMBARDI	12 AIKEN COURT			MALVERN	PA	19355	US			false		
113-9044374-5270613	55603426895394	2020-05-21T18:14:11+00:00	2020-05-21T11:14:11-07:00	2020-05-21T18:44:30+00:00	2020-05-28T06:59:59+00:00	-7	nzmwzbscjcny7xr@marketplace.amazon.com	Heidi Gearing	+1 347-448-3190 ext. 30506	ABR0033	Arabella Farm Direct Bouquet of 12 Fresh Cut Orange Roses with a Free Glass Vase	1	0	1	Expedited	Terry Gearing	11690 FICUS ST			PALM BEACH GARDENS	FL	33410-2618	US			false		
114-0239827-4869800	07201998671362	2020-05-21T18:26:39+00:00	2020-05-21T11:26:39-07:00	2020-05-21T18:53:26+00:00	2020-05-28T06:59:59+00:00	-7	mnhvb2f23lq6x2f@marketplace.amazon.com	Mary Kate McNamara	+1 763-225-9463 ext. 63014	ABR004	Arabella Farm Direct Bouquet of 12 Fresh Cut Yellow Roses with a Free Glass Vase	1	0	1	Expedited	Nancy Hart	7011 VALLEY AVE			PHILADELPHIA	PA	19128-1519	US		Our hearts are broken.  What a great life you gave Lisa!  Now she will smile down on all of us!  I will do a word search in her honor. With deepest sorrow and love, From Mary Kate and Chris	false		
114-8962813-6700265	37455574819754	2020-05-21T18:28:26+00:00	2020-05-21T11:28:26-07:00	2020-05-21T18:56:01+00:00	2020-05-28T06:59:59+00:00	-7	ky7fm7b37r0wtqt@marketplace.amazon.com	Elena Rae	+1 763-225-9463 ext. 45035	ABM010	Arabella Bouquets | Fields of The World Bouquet of Fresh Cut Flowers in a Free Designer Glass Vase	1	0	1	Expedited	Ellen Kushner	8566 CASTOR AVE			PHILADELPHIA	PA	19152-1213	US		Happy Mother's Day and Happy Birthday, Mom. I love you.  Enjoy your gift! From Elena Rae	false		
111-5719937-5665035	51753152440682	2020-05-21T19:07:04+00:00	2020-05-21T12:07:04-07:00	2020-05-21T19:10:35+00:00	2020-05-28T06:59:59+00:00	-7	w8xxg7j6gtw4q2l@marketplace.amazon.com	Leticia Lopez	+1 210-728-4548 ext. 00837	ABR0022	Arabella Farm Direct Bouquet of 12 Fresh Cut Pink Roses with a Free Glass Vase	1	0	1	Expedited	Ashley McCormicks	5446 GOV BARBOUR ST APT 4			BARBOURSVILLE	VA	22923-8361	US		Ashley, Thank you so much for all your gifts you made my Senior Graduation extra special and this is for you and thank you for everything From Karina Lopez	false		
113-7335522-3828259	68575251588714	2020-05-21T18:56:39+00:00	2020-05-21T11:56:39-07:00	2020-05-21T19:24:26+00:00	2020-05-28T06:59:59+00:00	-7	2tkfy0k991bgzym@marketplace.amazon.com	Pera Harish	+1 412-532-4665 ext. 43874	ABR001	Arabella Bouquets 12 Stems of Fresh Cut Red Roses in a Free Designer Glass Vase	1	0	1	Expedited	Rohan & Rishi Pera	19 NORWEGIAN WOOD DR			NEWARK	DE	19702-8627	US		To Chinni:  " HAPPY BIRTHDAY - 2020 "  From  Harish Pera	false		
112-0642000-5164263	17563856659706	2020-05-21T19:10:43+00:00	2020-05-21T12:10:43-07:00	2020-05-21T19:30:23+00:00	2020-05-28T06:59:59+00:00	-7	n3wryxglkqk97wm@marketplace.amazon.com	Evel Cevere	+1 314-282-9402 ext. 88477	ABR0022	Arabella Farm Direct Bouquet of 12 Fresh Cut Pink Roses with a Free Glass Vase	1	0	1	Expedited	Evel Cevere	480 NE 114TH ST			MIAMI	FL	33161-6651	US		There are less than 20 million people LUCKY enough to be Haitians. There are only 3 people BLESSED enough to have you as their mother. I am one of those LUCKY BLESSED few. Happy Haitian Mother’s Day. I Love You Mommy! From Evel Cevere Jr	false		
113-9204530-1760255	67508114985106	2020-05-21T19:29:01+00:00	2020-05-21T12:29:01-07:00	2020-05-21T19:54:29+00:00	2020-05-28T06:59:59+00:00	-7	jbf41ff5hl3tkb7@marketplace.amazon.com	Michael L. Chippie	+1 347-448-3190 ext. 53566	ABR0033	Arabella Farm Direct Bouquet of 12 Fresh Cut Orange Roses with a Free Glass Vase	1	0	1	Expedited	Doris Anne Isele	44 PROSPECT LN			PONTE VEDRA	FL	32081-8533	US		To: Doris and Karl Wishing you and Karl a very Happy 50th Anniversary. From: Unca/Brudda Mike Chippie	false		
113-6631302-6487455	00533451431994	2020-05-21T19:53:02+00:00	2020-05-21T12:53:02-07:00	2020-05-21T20:19:43+00:00	2020-05-28T06:59:59+00:00	-7	src6z09bvggyzzy@marketplace.amazon.com	Afrooz	+1 210-728-4548 ext. 12424	ABR0022	Arabella Farm Direct Bouquet of 12 Fresh Cut Pink Roses with a Free Glass Vase	1	0	1	Expedited	Elham Sahraei	2200 BENJAMIN FRANKLIN PKWY	STE 1407 WAY		PHILADELPHIA	PA	19130-3601	US		Happy Birthday My Dearest Sister! Love you sooo much!😘 From Afi🥰	false		
114-4683802-2453865	32421150244506	2020-05-21T19:58:25+00:00	2020-05-21T12:58:25-07:00	2020-05-21T20:27:02+00:00	2020-05-28T06:59:59+00:00	-7	4148gxj2bqdvr28@marketplace.amazon.com	TracyPoiry	+1 347-448-3190 ext. 78166	ABM010	Arabella Bouquets | Fields of The World Bouquet of Fresh Cut Flowers in a Free Designer Glass Vase	1	0	1	Expedited	Hannah Myers	3421 BLUEGRASS DR			LAKE HAVASU CITY	AZ	86406-6248	US		You are so special! WE love you! Happy Birthday! From Mom and Dad	false		
112-5202058-7445847	13954943154138	2020-05-21T20:11:22+00:00	2020-05-21T13:11:22-07:00	2020-05-21T20:41:55+00:00	2020-05-28T06:59:59+00:00	-7	wyp6rq9sf7f4p1c@marketplace.amazon.com	otis prescott	+1 210-728-4548 ext. 39861	ABM010	Arabella Bouquets | Fields of The World Bouquet of Fresh Cut Flowers in a Free Designer Glass Vase	1	0	1	Expedited	Otis Prescott	30 RANGER RD			DUMONT	NJ	07628-1813	US			false		
114-3433851-9343458	29861521952218	2020-05-21T20:13:22+00:00	2020-05-21T13:13:22-07:00	2020-05-21T20:42:18+00:00	2020-05-28T06:59:59+00:00	-7	78p57n491g55tqx@marketplace.amazon.com	Quintez Long	+1 210-728-4548 ext. 77666	ABR001	Arabella Bouquets 12 Stems of Fresh Cut Red Roses in a Free Designer Glass Vase	1	0	1	Expedited	Kaya Wade	4700 SILVERBROOK WAY			BOWIE	MD	20720-3469	US		A couple of pretty flowers for a very pretty lady.  P.S. Tell them other niggas step their game up. From Quintez Long	false		
111-4244222-8568265	34317345318442	2020-05-21T20:24:11+00:00	2020-05-21T13:24:11-07:00	2020-05-21T20:46:23+00:00	2020-05-28T06:59:59+00:00	-7	r8k5595970kzyjw@marketplace.amazon.com	Yin Liu	+1 210-728-4548 ext. 93436	ABM010	Arabella Bouquets | Fields of The World Bouquet of Fresh Cut Flowers in a Free Designer Glass Vase	1	0	1	Expedited	Lisa Morrison	41 JENNIE LN			WESTPORT	CT	06880-6003	US		Dear Lisa and Todd, Congratulations on your new addition! From Yin Liu and Chloe	false		
111-7722445-3285849	61500204556346	2020-05-21T20:24:44+00:00	2020-05-21T13:24:44-07:00	2020-05-21T20:53:25+00:00	2020-05-28T06:59:59+00:00	-7	ftlln9trxs201gk@marketplace.amazon.com	Nir Wiener	+1 347-448-3190 ext. 61967	ABR0022	Arabella Farm Direct Bouquet of 12 Fresh Cut Pink Roses with a Free Glass Vase	1	0	1	Expedited	Derek Goeglein	300 COLLEGE PARK	210 GOSIGER		DAYTON	OH	45469	US		Melissa, We are so sorry for your loss. Please know that we are praying for you and your family. We love you. From Nir and Jillian Wiener	false		
114-6952664-6072235	02829171621554	2020-05-21T20:26:27+00:00	2020-05-21T13:26:27-07:00	2020-05-21T20:55:42+00:00	2020-05-28T06:59:59+00:00	-7	6xz4dd2lmxrjv6x@marketplace.amazon.com	Margaret A. Brolly	+1 763-225-9463 ext. 36611	ABM0044	Arabella Farm Direct Bouquet of Fresh Cut Blue Hydrangea with a Free Glass Vase	1	0	1	Expedited	Heidi Allen	137 SYLVANIA AVE			AVON BY THE SEA	NJ	07717-1338	US		Happy Birthday Booshie! Love you!!! xoxo From Peggy	false		
114-9618618-6698645	15702165863418	2020-05-21T20:37:33+00:00	2020-05-21T13:37:33-07:00	2020-05-21T21:05:33+00:00	2020-05-28T06:59:59+00:00	-7	hmczw7dvv78w5ys@marketplace.amazon.com	Tom Willard	+1 210-728-4548 ext. 14917	ABM010	Arabella Bouquets | Fields of The World Bouquet of Fresh Cut Flowers in a Free Designer Glass Vase	1	0	1	Expedited	Thomas F. Willard and Edith Marshall	1414 NAVIGATOR RD			PORT CHARLOTTE	FL	33983-6288	US		Just thinking of you, Grandma! Have a wonderful day! From Love, Elliot and Tommy	false		
114-4997784-5365058	50172260685130	2020-05-21T21:32:27+00:00	2020-05-21T14:32:27-07:00	2020-05-21T22:00:19+00:00	2020-05-28T06:59:59+00:00	-7	7c5zm436t7tsrfl@marketplace.amazon.com	Nicole	+1 314-282-9402 ext. 39319	ABR0022	Arabella Farm Direct Bouquet of 12 Fresh Cut Pink Roses with a Free Glass Vase	1	0	1	Expedited	Cora Hendrix	122 9TH ST E			SCOTT CITY	MO	63780-2715	US		Cora,  I am so sorry for your loss. I’m here for you for whatever you need. Sending you lots of love From Nicole	false		
114-0830351-4231423	60055358707002	2020-05-21T21:42:13+00:00	2020-05-21T14:42:13-07:00	2020-05-21T22:11:25+00:00	2020-05-28T06:59:59+00:00	-7	vd164b0vw3flynh@marketplace.amazon.com	Lisa Barone	+1 314-282-9402 ext. 53520	ABM010	Arabella Bouquets | Fields of The World Bouquet of Fresh Cut Flowers in a Free Designer Glass Vase	1	0	1	Expedited	Patricia McDonald	8435 MIDDLE RD			SPRINGVILLE	NY	14141-9601	US		Happy Birthday. Love Lisa, Mike and Nick From Lisa Barone	false		
