order-id	order-item-id	purchase-date	payments-date	reporting-date	promise-date	days-past-promise	buyer-email	buyer-name	buyer-phone-number	sku	product-name	quantity-purchased	quantity-shipped	quantity-to-ship	ship-service-level	recipient-name	ship-address-1	ship-address-2	ship-address-3	ship-city	ship-state	ship-postal-code	ship-country	gift-wrap-type	gift-message-text	is-business-order	purchase-order-number	price-designation
113-3611121-5027415	08874431025386	2020-05-26T13:02:15+00:00	2020-05-26T06:02:15-07:00	2020-05-26T13:30:35+00:00	2020-05-29T06:59:59+00:00	-3	gpplld05kvw9fy8@marketplace.amazon.com	edwin lefkovitz	+1 210-728-4548 ext. 56096	ABR0022	Purchase Now for Delivery by Friday | Arabella Farm Direct Bouquet of 12 Fresh Cut Pink Roses with a Free Glass Vase	1	0	1	Expedited	Christa Kakaeltris	114 S TOWNSEND ST			NEW BUFFALO	MI	49117-1459	US		Christa hope you have an amazing day filled with love and happiness Happy Birthday   Love Ed,Sweetie June Lauren Jackie From edwin lefkovitz	false		
114-5280340-1345017	40080524552826	2020-05-26T13:51:12+00:00	2020-05-26T06:51:12-07:00	2020-05-26T14:25:34+00:00	2020-05-29T06:59:59+00:00	-3	cmtd0phhykdpf1y@marketplace.amazon.com	Ulle Pope	+1 210-728-4548 ext. 43293	ABR0022	Purchase Now for Delivery by Friday | Arabella Farm Direct Bouquet of 12 Fresh Cut Pink Roses with a Free Glass Vase	1	0	1	Expedited	Jill Kelley	105 HURRICANE RD			FALMOUTH	ME	04105-2525	US			false		
111-3582255-3408253	19012680797410	2020-05-26T14:30:45+00:00	2020-05-26T07:30:45-07:00	2020-05-26T14:59:42+00:00	2020-05-30T06:59:59+00:00	-4	9g6w0z94c1n2dmv@marketplace.amazon.com	patriciatraina	+1 210-728-4548 ext. 82884	ABM002	Purchase Now for Delivery by Thursday | Arabella Bouquets Fresh Cut White Calla Lilies in a Free Designer Glass Vase	2	1	1	Standard	Sam Zimmerman	8384 116TH ST APT 6H			RICHMOND HILL	NY	11418-3444	US			false		
111-7203236-8109023	58439213911170	2020-05-26T14:40:26+00:00	2020-05-26T07:40:26-07:00	2020-05-26T15:05:39+00:00	2020-05-29T06:59:59+00:00	-3	n80m8z8n7cld0qw@marketplace.amazon.com	Martha J Bell	+1 314-282-9402 ext. 09183	ABR0022	Purchase Now for Delivery by Friday | Arabella Farm Direct Bouquet of 12 Fresh Cut Pink Roses with a Free Glass Vase	1	0	1	Expedited	Lisa Linares	309 GOLDEN AVE			WISCONSIN DELLS	WI	53965-8651	US		Hi Lisa, from 3 Bigs to our 4th Big.  We 💓 u.	false		
113-4067539-3405839	56730504359626	2020-05-26T14:47:20+00:00	2020-05-26T07:47:20-07:00	2020-05-26T15:12:12+00:00	2020-05-29T06:59:59+00:00	-3	hcwcfq2q4ctpm5m@marketplace.amazon.com	Jillian	+1 314-282-9402 ext. 21141	ABR0022	Purchase Now for Delivery by Friday | Arabella Farm Direct Bouquet of 12 Fresh Cut Pink Roses with a Free Glass Vase	1	0	1	Expedited	Lori orourke	153 LEAMING AVE F1			WEST CAPE MAY	NJ	08204-1233	US		Wishing I was there to Celebrate our 33rd Anniversary with you!  So enjoy the aroma of fresh flowers in the house until I get back up there to celebrate in person with my honey! Love ya foreverered! From Your Loving Husband	false		
112-4594299-2948249	06414197357810	2020-05-26T14:44:11+00:00	2020-05-26T07:44:11-07:00	2020-05-26T15:13:53+00:00	2020-05-29T06:59:59+00:00	-3	nbgqxv1vcb533wc@marketplace.amazon.com	alison	+1 314-282-9402 ext. 08635	ABR0022	Purchase Now for Delivery by Friday | Arabella Farm Direct Bouquet of 12 Fresh Cut Pink Roses with a Free Glass Vase	1	0	1	Expedited	Gisela Kuczynski	150 BAYVIEW DR			NORTH HERO	VT	05474-9518	US			false		
113-5504573-2457001	12106815061642	2020-05-26T14:59:44+00:00	2020-05-26T07:59:44-07:00	2020-05-26T15:26:55+00:00	2020-05-29T06:59:59+00:00	-3	phb9zypzftsl5mp@marketplace.amazon.com	Maria Rosario	+1 210-728-4548 ext. 29330	ABR0022	Purchase Now for Delivery by Friday | Arabella Farm Direct Bouquet of 12 Fresh Cut Pink Roses with a Free Glass Vase	1	0	1	Expedited	Yesenia Rosario	300 PARK POINT DR UNIT 207			ROCHESTER	NY	14623-2968	US		Congratulations  You did It Jessie! You’re the Best!!!!!!!! From Tony & Mom ❤️ From Tony & Mom ❤️	false		
113-7067176-8736225	40725776515482	2020-05-26T14:47:01+00:00	2020-05-26T07:47:01-07:00	2020-05-26T15:40:35+00:00	2020-05-29T06:59:59+00:00	-3	nmj4932vchgs1by@marketplace.amazon.com	Stanford Care and Rehabilitation	+1 347-448-3190 ext. 15110	ABR0022	Purchase Now for Delivery by Friday | Arabella Farm Direct Bouquet of 12 Fresh Cut Pink Roses with a Free Glass Vase	1	0	1	Expedited	Shelli Clarkson	105 HARMON HTS			STANFORD	KY	40484-1111	US			true		
112-8192672-4589001	21156642892610	2020-05-26T15:36:35+00:00	2020-05-26T08:36:35-07:00	2020-05-26T16:18:04+00:00	2020-05-29T06:59:59+00:00	-3	y73jlyvk347ycnk@marketplace.amazon.com	Brandt	+1 347-448-3190 ext. 61535	ABR0022	Purchase Now for Delivery by Friday | Arabella Farm Direct Bouquet of 12 Fresh Cut Pink Roses with a Free Glass Vase	1	0	1	Expedited	Riley chafin	29088 N CHALFEN BLVD			PEORIA	AZ	85383-5327	US			false		
112-8402098-8955465	41043539669154	2020-05-26T15:50:24+00:00	2020-05-26T08:50:24-07:00	2020-05-26T16:18:29+00:00	2020-05-29T06:59:59+00:00	-3	45qsv13d6k54zlk@marketplace.amazon.com	Krista Hoey	+1 314-282-9402 ext. 07813	ABR0022	Purchase Now for Delivery by Friday | Arabella Farm Direct Bouquet of 12 Fresh Cut Pink Roses with a Free Glass Vase	1	0	1	Expedited	Paula Caldwell	1613 US 64 HWY W			APEX	NC	27523-8992	US		Enjoy your gift! Have a wonderful birthday mom! You are very loved by me. From Krista Hoey	false		
114-5791620-9413855	62429311868210	2020-05-26T15:57:37+00:00	2020-05-26T08:57:37-07:00	2020-05-26T16:26:12+00:00	2020-05-29T06:59:59+00:00	-3	7y5w3mmgxvhyfyn@marketplace.amazon.com	Valentin Ramirez	+1 347-448-3190 ext. 51166	ABR0022	Purchase Now for Delivery by Friday | Arabella Farm Direct Bouquet of 12 Fresh Cut Pink Roses with a Free Glass Vase	1	0	1	Expedited	Angie Ramirez	1939 W LIVINGSTON ST			ALLENTOWN	PA	18104-3717	US		Enjoy your gift! Feliz compleanos, love you From Valie y Norma	false		
113-7682783-4577057	32752383642442	2020-05-26T16:37:25+00:00	2020-05-26T09:37:25-07:00	2020-05-26T17:07:21+00:00	2020-05-29T06:59:59+00:00	-3	t37371nnk8sjc8p@marketplace.amazon.com	Heather Wikander	+1 347-448-3190 ext. 04339	ABR0022	Purchase Now for Delivery by Friday | Arabella Farm Direct Bouquet of 12 Fresh Cut Pink Roses with a Free Glass Vase	1	0	1	Expedited	Barbara Coaker	6726 CHADBOURNE DR			NORTH OLMSTED	OH	44070-5039	US		Love from Peter Happy Birthday From Peter	false		
113-2024886-2801826	30893392749954	2020-05-26T16:52:15+00:00	2020-05-26T09:52:15-07:00	2020-05-26T17:14:29+00:00	2020-05-29T06:59:59+00:00	-3	94r9rd8yh6ckqg2@marketplace.amazon.com	Christy Hindorff	+1 314-282-9402 ext. 40212	ABR0022	Purchase Now for Delivery by Friday | Arabella Farm Direct Bouquet of 12 Fresh Cut Pink Roses with a Free Glass Vase	1	0	1	Expedited	Mrs. Cindy Krystyniak	60 PRESIDENTIAL DR			SIMI VALLEY	CA	93065-0600	US		HAPPY BIRTHDAY, CINDY! Hope your weekend and day is filled with happiness, laughter and good times. Miss you so much! Love The Hindorff's	false		
113-3883925-2895418	38272802384738	2020-05-26T16:50:01+00:00	2020-05-26T09:50:01-07:00	2020-05-26T17:17:32+00:00	2020-05-29T06:59:59+00:00	-3	wz0r8gcvkflfcxv@marketplace.amazon.com	Peter Fazio	+1 347-448-3190 ext. 39114	ABR0022	Purchase Now for Delivery by Friday | Arabella Farm Direct Bouquet of 12 Fresh Cut Pink Roses with a Free Glass Vase	1	0	1	Expedited	Cassidy Keller	338 N OAK ST			PALATINE	IL	60067-5227	US		Happy Birthday, Cassidy.  Love, Patti and Peter	false		
112-3990418-8160249	38766092204770	2020-05-26T16:52:29+00:00	2020-05-26T09:52:29-07:00	2020-05-26T17:22:38+00:00	2020-05-29T06:59:59+00:00	-3	1dbtpvds7xvkzj9@marketplace.amazon.com	Jsj	+1 347-448-3190 ext. 69803	ABR0022	Purchase Now for Delivery by Friday | Arabella Farm Direct Bouquet of 12 Fresh Cut Pink Roses with a Free Glass Vase	1	0	1	Expedited	Jacquelyne bell	187 COWESETT AVE			WEST WARWICK	RI	02893-3227	US			false		
112-0284833-7164214	51722161205810	2020-05-26T17:03:17+00:00	2020-05-26T10:03:17-07:00	2020-05-26T17:23:45+00:00	2020-05-29T06:59:59+00:00	-3	mrmg9tpvyr1hzgd@marketplace.amazon.com	Patricia J. Dixon	+1 314-282-9402 ext. 52413	ABR0022	Purchase Now for Delivery by Friday | Arabella Farm Direct Bouquet of 12 Fresh Cut Pink Roses with a Free Glass Vase	1	0	1	Expedited	Mrs. Toni Charming	15705 WOODVALE RD			ENCINO	CA	91436-3416	US		Hi Family, Sorry for your loss. Wish we could be there to celebrate Aunt Jean's life with you. Please accept our condolences and love. Peace and Blessings,  From Delroe Dixon and Family	false		
114-4828291-8163439	52694332712410	2020-05-26T17:12:35+00:00	2020-05-26T10:12:35-07:00	2020-05-26T17:36:22+00:00	2020-05-29T06:59:59+00:00	-3	946lv98yzg26b3w@marketplace.amazon.com	Mike O'Neill	+1 347-448-3190 ext. 09127	ABR0022	Purchase Now for Delivery by Friday | Arabella Farm Direct Bouquet of 12 Fresh Cut Pink Roses with a Free Glass Vase	1	0	1	Expedited	Emily Lanigan	251 MCINTOSH RD			WEST CHESTER	PA	19382-1915	US		Hi Emily, I know I was a jerk and I want to say I'm sorry. I miss you and that pretty face of yours and hope to talk to you and see you soon!  Mike	false		
112-0348973-4650666	38529487571154	2020-05-26T17:30:52+00:00	2020-05-26T10:30:52-07:00	2020-05-26T17:59:45+00:00	2020-05-29T06:59:59+00:00	-3	n73frs34l2xd7n1@marketplace.amazon.com	Owen Richter	+1 314-282-9402 ext. 02666	ABR0022	Purchase Now for Delivery by Friday | Arabella Farm Direct Bouquet of 12 Fresh Cut Pink Roses with a Free Glass Vase	1	0	1	Expedited	Erin Hamric	200 HEYWOOD AVE APT 503			SPARTANBURG	SC	29307-1799	US			false		
114-4312336-8686652	42432631864794	2020-05-26T17:35:48+00:00	2020-05-26T10:35:48-07:00	2020-05-26T18:01:51+00:00	2020-05-29T06:59:59+00:00	-3	8nrk9kc5lccz25w@marketplace.amazon.com	WIL Alpharetta	+1 314-282-9402 ext. 68414	ABR0022	Purchase Now for Delivery by Friday | Arabella Farm Direct Bouquet of 12 Fresh Cut Pink Roses with a Free Glass Vase	1	0	1	Expedited	Bernadine Jacocks	8 CARRIAGE DR			MOUNT HOLLY	NJ	08060-4393	US		Hi Bernadine, We hope you enjoy this lovely token, sending you love.  From WIL-Alpharetta & the Ultimate Sofware family!	false		
113-9199141-9787412	50341897847442	2020-05-26T17:33:21+00:00	2020-05-26T10:33:21-07:00	2020-05-26T18:03:11+00:00	2020-05-29T06:59:59+00:00	-3	y9qjfpj3xkhj0wy@marketplace.amazon.com	Gaye Tully Salisbury	+1 347-448-3190 ext. 77688	ABR0022	Purchase Now for Delivery by Friday | Arabella Farm Direct Bouquet of 12 Fresh Cut Pink Roses with a Free Glass Vase	1	0	1	Expedited	Rachel Segvich	3426 CATHY DR			JOLIET	IL	60431-9072	US		Rachel,  We LOVE you to the moon and back, Your HOB Sisters	false		
114-9598074-2113023	10333610487746	2020-05-26T17:55:59+00:00	2020-05-26T10:55:59-07:00	2020-05-26T18:23:24+00:00	2020-05-30T06:59:59+00:00	-4	qjmwkwkljlxtp01@marketplace.amazon.com	Linda Anderson	+1 210-728-4548 ext. 59786	ABM010	Purchase Now for Delivery by Thursday | Arabella Bouquets | Fields of The World Bouquet of Fresh Cut Flowers in a Free Designer Glass Vase	1	0	1	Expedited	Alison Anderson	2920 COLUMBIA ST APT F			SAN DIEGO	CA	92103-6078	US		Our hearts are overflowing with love! Weslyn, May the Lord bless you with health and happiness all of your days! From Linda Anderson	false		
114-3193940-3993062	42044581111394	2020-05-26T17:54:59+00:00	2020-05-26T10:54:59-07:00	2020-05-26T18:25:20+00:00	2020-05-29T06:59:59+00:00	-3	4mgkgdkg1245mq4@marketplace.amazon.com	Monica Lopez	+1 347-448-3190 ext. 36848	ABR0022	Purchase Now for Delivery by Friday | Arabella Farm Direct Bouquet of 12 Fresh Cut Pink Roses with a Free Glass Vase	1	0	1	Expedited	Hilda Lopez	1117 W 40TH PL			LOS ANGELES	CA	90037-1802	US			false		
112-6371789-0730632	20342792631394	2020-05-26T18:02:01+00:00	2020-05-26T11:02:01-07:00	2020-05-26T18:30:25+00:00	2020-05-29T06:59:59+00:00	-3	cvdhckvz17s3cmp@marketplace.amazon.com	Judy Martin	+1 347-448-3190 ext. 11491	ABR0022	Purchase Now for Delivery by Friday | Arabella Farm Direct Bouquet of 12 Fresh Cut Pink Roses with a Free Glass Vase	1	0	1	Expedited	Macy Moise	5635 W HANOVER AVE			DALLAS	TX	75209-3427	US		Congratulations to our Macy! We are so proud of you!!! From Love, Nanny and Papa	false		
114-0610038-4180224	46400626350698	2020-05-26T18:01:10+00:00	2020-05-26T11:01:10-07:00	2020-05-26T18:31:17+00:00	2020-05-29T06:59:59+00:00	-3	4ypcvn08vn8gdnx@marketplace.amazon.com	Vera Springett	+1 210-728-4548 ext. 32038	ABR0022	Purchase Now for Delivery by Friday | Arabella Farm Direct Bouquet of 12 Fresh Cut Pink Roses with a Free Glass Vase	1	0	1	Expedited	Spenta Behrana	8918 N 81ST PL			SCOTTSDALE	AZ	85258-2222	US		Get well soon, Diana Masi! From Aryana Springett	false		
113-5935576-8167453	23794650275114	2020-05-26T18:15:38+00:00	2020-05-26T11:15:38-07:00	2020-05-26T18:43:26+00:00	2020-05-28T06:59:59+00:00	-2	lml8htcydt9ftnq@marketplace.amazon.com	sally ohalloran	+1 314-282-9402 ext. 50942	ABR012	Purchase Now for Delivery by Thursday | Arabella Farm Direct Bouquet of 18 Fresh Cut Pink Roses with a Free Glass Vase	1	0	1	SecondDay	Dr. Sharyn Ohalloran	44 MORNINGSIDE DR # 51			NEW YORK	NY	10025-1719	US		Wishig you the Happiest of Birthdays!!! Much love,   Mom From sally ohalloran	false		
114-2486004-0946631	32959091636346	2020-05-26T18:27:29+00:00	2020-05-26T11:27:29-07:00	2020-05-26T18:46:28+00:00	2020-05-28T06:59:59+00:00	-2	sqjg10vdthb1hxz@marketplace.amazon.com	Maria Joy Frank	+1 347-448-3190 ext. 41930	ABM010	Purchase Now for Delivery by Thursday | Arabella Bouquets | Fields of The World Bouquet of Fresh Cut Flowers in a Free Designer Glass Vase	1	0	1	SecondDay	Wanda Clements	5847 DECKER RD			LIVONIA	NY	14487-9526	US		Dear Wanda,  Get well soon.  We love you.  Phil and Nancy, Valerie and Rick, Joy and Dave From Maria Joy Frank	false		
112-7167027-6780266	25406835782490	2020-05-26T18:20:40+00:00	2020-05-26T11:20:40-07:00	2020-05-26T18:49:39+00:00	2020-05-28T06:59:59+00:00	-2	8jwkx441hwtfwrp@marketplace.amazon.com	Trevor Crabb	+1 314-282-9402 ext. 32220	ABR0022	Purchase Now for Delivery by Friday | Arabella Farm Direct Bouquet of 12 Fresh Cut Pink Roses with a Free Glass Vase	1	0	1	SecondDay	Branagan Fuller	23185 SINGLE OAK WAY			MURRIETA	CA	92562-9355	US		Law school Graduate From Trevor Crabb	false		
111-3328416-7620242	29572375220770	2020-05-26T18:52:26+00:00	2020-05-26T11:52:26-07:00	2020-05-26T19:14:04+00:00	2020-05-28T06:59:59+00:00	-2	39slybflrmjyjc8@marketplace.amazon.com	Charlotte	+1 347-448-3190 ext. 84646	ABR0022	Purchase Now for Delivery by Friday | Arabella Farm Direct Bouquet of 12 Fresh Cut Pink Roses with a Free Glass Vase	1	0	1	SecondDay	Regina Ernst	27255 HICKORY HILL RD			BROOKSVILLE	FL	34602-8257	US		Hi Regina, Happy Birthday  From Charlotte	false		
112-4178758-7619465	08707633233754	2020-05-26T18:51:39+00:00	2020-05-26T11:51:39-07:00	2020-05-26T19:19:28+00:00	2020-05-28T06:59:59+00:00	-2	py6g73rw2vj7qpn@marketplace.amazon.com	La Dona Hein	+1 347-448-3190 ext. 36095	ABR0055	Purchase Now for Delivery by Friday | Arabella Farm Direct Bouquet of 12 Stems of Fresh Cut Hot Pink Roses in a Free Designer Glass Vase	1	0	1	SecondDay	Meghan Hein	1310 AVENIDA PANTERA			SAN MARCOS	CA	92069-7388	US		Happy 8th birthday Emmerson!! I love you! From Grammie	false		
112-3297101-5981834	42238881451754	2020-05-26T18:51:56+00:00	2020-05-26T11:51:56-07:00	2020-05-26T19:20:26+00:00	2020-05-28T06:59:59+00:00	-2	8q3799vg3zxfw3p@marketplace.amazon.com	Linda H Horsley	+1 347-448-3190 ext. 75964	ABR0022	Purchase Now for Delivery by Friday | Arabella Farm Direct Bouquet of 12 Fresh Cut Pink Roses with a Free Glass Vase	1	0	1	SecondDay	Sarah Stuart Horsley	2300 Hamilton Street	Apt 1R		Philadelphia	PA	19104	US		Congrats on a great Fashion Show. We are so proud of you! Love, Mom and Dad From Linda H Horsley	false		
114-6374957-7913834	22214025962170	2020-05-26T18:59:54+00:00	2020-05-26T11:59:54-07:00	2020-05-26T19:23:50+00:00	2020-05-28T06:59:59+00:00	-2	cp9vbjmq6zjnqg0@marketplace.amazon.com	Lorilee Bultinck	+1 412-532-4665 ext. 39464	ABM010	Purchase Now for Delivery by Friday | Arabella Bouquets | Fields of The World Bouquet of Fresh Cut Flowers in a Free Designer Glass Vase	1	0	1	SecondDay	Lucy Gabriel	4825 W MESCAL ST			GLENDALE	AZ	85304-4028	US		Dear Lucy,  We are thinking of you at this time...June 4th is a very sad day for all of us.  We know that you loved and cared for Phil...we are grateful. Gayle, Mimi, & Lori	false		
114-9972832-4105044	64352350335594	2020-05-26T19:02:16+00:00	2020-05-26T12:02:16-07:00	2020-05-26T19:30:23+00:00	2020-05-28T06:59:59+00:00	-2	dyscqvfd07ymvqs@marketplace.amazon.com	Kaitlin Hughes	+1 347-448-3190 ext. 89478	ABM010	Purchase Now for Delivery by Friday | Arabella Bouquets | Fields of The World Bouquet of Fresh Cut Flowers in a Free Designer Glass Vase	1	0	1	SecondDay	Nicole Jansen	10 GORHAM LN			SMITHTOWN	NY	11787-4702	US		Happy 30th Birthday!! Can't wait to eventually celebrate with you! We hope you have an awesome day! From Kaitlin, Kyle, and Mason XOXO	false		
112-0614621-6463423	29504654258738	2020-05-26T19:04:34+00:00	2020-05-26T12:04:34-07:00	2020-05-26T19:34:09+00:00	2020-05-28T06:59:59+00:00	-2	80kls99dtkcdxnv@marketplace.amazon.com	Judith Carrillo	+1 314-282-9402 ext. 86332	ABR0022	Purchase Now for Delivery by Friday | Arabella Farm Direct Bouquet of 12 Fresh Cut Pink Roses with a Free Glass Vase	1	0	1	SecondDay	Matilde Carrillo	184 EVERGREEN PKWY			OCEANSIDE	CA	92054-5412	US		Mami, lo siento lo que paso con el gatito. La quiero mucho. From Judith	false		
112-0490863-8353859	09557377170586	2020-05-26T19:14:59+00:00	2020-05-26T12:14:59-07:00	2020-05-26T19:40:18+00:00	2020-05-28T06:59:59+00:00	-2	3sw2298hbyrkn3x@marketplace.amazon.com	Yeliana	+1 314-282-9402 ext. 69649	ABM010	Purchase Now for Delivery by Friday | Arabella Bouquets | Fields of The World Bouquet of Fresh Cut Flowers in a Free Designer Glass Vase	1	0	1	SecondDay	Magalys Velez	912 N BUCHANAN BLVD			DURHAM	NC	27701-1544	US		Feliz dia de las madres dominicanas a mi North Carolinian mom! Un beso 😘 From Yeliana	false		
114-1866588-1277815	52168188730922	2020-05-26T19:17:35+00:00	2020-05-26T12:17:35-07:00	2020-05-26T19:40:18+00:00	2020-05-28T06:59:59+00:00	-2	hbpn4lw6c7wbl6s@marketplace.amazon.com	Laurie Morrison	+1 314-282-9402 ext. 61294	ABM0033	Purchase Now for Delivery by Friday | Arabella Farm Direct Bouquet of Fresh Cut White Hydrangea with a Free Glass Vase	1	0	1	SecondDay	Alexandra Carmen Collell	280 QUAIL ST APT 2			ALBANY	NY	12208-3370	US		Alex- So proud of you and the hard work, sleepless nights and hours of study you have put in to complete 3 years of med school. So pleased that you are near the end. Know you are an inspiration to us all. With love, Laurie From Laurie Morrison	false		
111-1708611-0655425	42408748247698	2020-05-26T19:17:29+00:00	2020-05-26T12:17:29-07:00	2020-05-26T19:45:56+00:00	2020-05-28T06:59:59+00:00	-2	tzsvt9pkzxxj0x9@marketplace.amazon.com	Dianne Cruce	+1 210-728-4548 ext. 51180	ABR012	Purchase Now for Delivery by Friday | Arabella Farm Direct Bouquet of 18 Fresh Cut Pink Roses with a Free Glass Vase	1	0	1	SecondDay	Fay and Dawn Sage	1322 OAKWOOD ST			BELDING	MI	48809-1028	US			false		
112-3285802-2505851	28216852942042	2020-05-26T19:20:17+00:00	2020-05-26T12:20:17-07:00	2020-05-26T19:47:21+00:00	2020-05-28T06:59:59+00:00	-2	x25dpxmbdbr24rp@marketplace.amazon.com	Carlos González	+1 314-282-9402 ext. 14888	ABR001	Purchase Now for Delivery by Friday | Arabella Bouquets 12 Stems of Fresh Cut Red Roses in a Free Designer Glass Vase	1	0	1	SecondDay	Alejandra guel	614 SW 30TH ST			OKLAHOMA CITY	OK	73109-2508	US			false		
114-1087801-1878613	08931342765458	2020-05-26T19:20:21+00:00	2020-05-26T12:20:21-07:00	2020-05-26T19:50:04+00:00	2020-05-28T06:59:59+00:00	-2	x296tgt8pwl7rgb@marketplace.amazon.com	Richard F Shearer	+1 347-448-3190 ext. 43032	ABR012	Purchase Now for Delivery by Friday | Arabella Farm Direct Bouquet of 18 Fresh Cut Pink Roses with a Free Glass Vase	1	0	1	SecondDay	Suzanne Shearer	16409 ROSEHILL ST			OVERLAND PARK	KS	66221-8473	US		Happy Birthday!!!! We love you!!!!  Teddy and Dad.	false		
112-9339787-1937062	62696921344738	2020-05-26T19:30:51+00:00	2020-05-26T12:30:51-07:00	2020-05-26T19:59:57+00:00	2020-05-28T06:59:59+00:00	-2	czmc8c6plm59dp0@marketplace.amazon.com	Kathryn A. King	+1 314-282-9402 ext. 51083	ABR0022	Purchase Now for Delivery by Friday | Arabella Farm Direct Bouquet of 12 Fresh Cut Pink Roses with a Free Glass Vase	1	0	1	SecondDay	Meghan Doyle	35 HASE RD			PENSACOLA	FL	32508-1020	US		Take care of you!  Love From Mom Damon	false		
114-2467830-6741861	06684041134410	2020-05-26T19:31:51+00:00	2020-05-26T12:31:51-07:00	2020-05-26T20:00:34+00:00	2020-05-28T06:59:59+00:00	-2	msvdkdpl4byblqg@marketplace.amazon.com	Erik Abrahamson	+1 314-282-9402 ext. 16034	ABM010	Purchase Now for Delivery by Friday | Arabella Bouquets | Fields of The World Bouquet of Fresh Cut Flowers in a Free Designer Glass Vase	1	0	1	SecondDay	Joann Muhlman	601 51ST AVE S			ST PETERSBURG	FL	33705-4945	US		Hi Joann, Thinking of you and hope you are feeling better soon!  Your AU Family	true		
114-5228553-0039429	28989543989218	2020-05-26T19:33:57+00:00	2020-05-26T12:33:57-07:00	2020-05-26T20:03:18+00:00	2020-05-28T06:59:59+00:00	-2	q62f7wwvtt6yt53@marketplace.amazon.com	Joellen Saddock	+1 347-448-3190 ext. 50393	ABR0033	Purchase Now for Delivery by Friday | Arabella Farm Direct Bouquet of 12 Fresh Cut Orange Roses with a Free Glass Vase	1	0	1	SecondDay	Charity Harris	310 KARL LINN DR APT 215			NORTH CHESTERFIELD	VA	23225-6909	US		You did it! Much love and admiration ;-) From Joellen Saddock	false		
112-3287053-8097800	16650178352306	2020-05-26T19:44:12+00:00	2020-05-26T12:44:12-07:00	2020-05-26T20:08:36+00:00	2020-05-28T06:59:59+00:00	-2	3sw2298hbyrkn3x@marketplace.amazon.com	Yeliana	+1 210-728-4548 ext. 40317	ABR011	Purchase Now for Delivery by Friday | Arabella Bouquets 18 Stems of Fresh Cut Red Roses in a Free Glass Vase	1	0	1	SecondDay	Maria Pena	5988 SW 8TH ST APT 4			MIAMI	FL	33144-5025	US		Feliz cumpleaños, mamitín! Te quiero mucho! ❤ From Yeliana	false		
114-7723150-9209063	69084242245154	2020-05-26T19:47:51+00:00	2020-05-26T12:47:51-07:00	2020-05-26T20:13:08+00:00	2020-05-28T06:59:59+00:00	-2	31jxrz4swfz61ht@marketplace.amazon.com	Matthew E Garrick	+1 210-728-4548 ext. 17112	ABR0022	Purchase Now for Delivery by Friday | Arabella Farm Direct Bouquet of 12 Fresh Cut Pink Roses with a Free Glass Vase	1	0	1	SecondDay	Leslie cochran	1145 HOLLY ANN PL			SAN JOSE	CA	95120-5418	US		Hi Leslie, Enjoy your gift! From Matthew E Garrick	false		
113-3610963-4840241	25617783640986	2020-05-26T19:45:59+00:00	2020-05-26T12:45:59-07:00	2020-05-26T20:15:23+00:00	2020-05-28T06:59:59+00:00	-2	h0ckhyv7ym5wrkt@marketplace.amazon.com	Laurie Axford	+1 347-448-3190 ext. 71841	ABR0022	Purchase Now for Delivery by Friday | Arabella Farm Direct Bouquet of 12 Fresh Cut Pink Roses with a Free Glass Vase	1	0	1	SecondDay	Vanessa Bedarfas	6350 SATTES DR			RANCHO PALOS VERDES	CA	90275-5750	US		Happy Belated Birthday Vanessa!  I hope you enjoy these flowers !  Love, Laurie & Emily	false		
114-8819058-5589020	08643233728226	2020-05-26T19:51:47+00:00	2020-05-26T12:51:47-07:00	2020-05-26T20:17:53+00:00	2020-05-28T06:59:59+00:00	-2	22qndhmmycw6l47@marketplace.amazon.com	eamonn johnston	+1 314-282-9402 ext. 59729	ABM010	Purchase Now for Delivery by Friday | Arabella Bouquets | Fields of The World Bouquet of Fresh Cut Flowers in a Free Designer Glass Vase	1	0	1	SecondDay	Melissa Johnston	3326 HARTWELL CT			FALLS CHURCH	VA	22042-3510	US			false		
114-9077768-9693832	13080565904082	2020-05-26T19:58:31+00:00	2020-05-26T12:58:31-07:00	2020-05-26T20:26:19+00:00	2020-05-28T06:59:59+00:00	-2	l32qn8vv24r74w7@marketplace.amazon.com	Milan Brkovic	+1 347-448-3190 ext. 10102	ABM010	Purchase Now for Delivery by Friday | Arabella Bouquets | Fields of The World Bouquet of Fresh Cut Flowers in a Free Designer Glass Vase	1	0	1	SecondDay	Erin Perkins	34754 LAKE SHORE BLVD			EASTLAKE	OH	44095-2014	US		Happy Birthday Erin!!!!! XOXOXO From Velmo	false		
113-9263537-3838656	09149951506250	2020-05-26T19:59:43+00:00	2020-05-26T12:59:43-07:00	2020-05-26T20:29:38+00:00	2020-05-28T06:59:59+00:00	-2	8bw717n0htl559h@marketplace.amazon.com	Elaine palmer	+1 210-728-4548 ext. 61426	ABR0055	Purchase Now for Delivery by Friday | Arabella Farm Direct Bouquet of 12 Stems of Fresh Cut Hot Pink Roses in a Free Designer Glass Vase	1	0	1	SecondDay	Elaine palmer	131 SW 39TH ST			CAPE CORAL	FL	33914-8422	US			false		
114-5340884-5718647	16463390895314	2020-05-26T20:11:44+00:00	2020-05-26T13:11:44-07:00	2020-05-26T20:39:58+00:00	2020-05-28T06:59:59+00:00	-2	jt1jx2l233xz61z@marketplace.amazon.com	Jose Zaldivar	+1 347-448-3190 ext. 61312	ABR0022	Purchase Now for Delivery by Friday | Arabella Farm Direct Bouquet of 12 Fresh Cut Pink Roses with a Free Glass Vase	1	0	1	SecondDay	MAGDA IZAGUIERRE/JUAN CARCARMO	CAL-MAIN FOODS INC 22600 HAZEN RD			ROBERTSDALE	AL	36567-2775	US		Feliz cumpleaños hermanita.  de Silvia Zaldivar	false		
111-0795001-2299467	46720525228778	2020-05-26T20:17:31+00:00	2020-05-26T13:17:31-07:00	2020-05-26T20:43:09+00:00	2020-05-28T06:59:59+00:00	-2	g3sb10yn1n3gs9c@marketplace.amazon.com	lillian m gleeson	+1 347-448-3190 ext. 03675	ABR0033	Purchase Now for Delivery by Friday | Arabella Farm Direct Bouquet of 12 Fresh Cut Orange Roses with a Free Glass Vase	1	0	1	SecondDay	The Messina Family	1340 WELSH RD			HUNTINGDON VALLEY	PA	19006-5830	US		Tony, Gina and Marisa, We are so,so sorry for your loss. All of you are in our thoughts and prayers. Love, Lillian and Tom From lillian m gleeson	false		
114-9035765-1056234	19829166009826	2020-05-26T20:16:33+00:00	2020-05-26T13:16:33-07:00	2020-05-26T20:43:27+00:00	2020-05-28T06:59:59+00:00	-2	3lfq6h3zy4pxwjt@marketplace.amazon.com	lanita Bryant-Gant	+1 763-225-9463 ext. 71765	ABR0066	Purchase Now for Delivery by Friday | Arabella Bouquets | 12 Stems of Fresh Cut White Roses in a Free Designer Glass Vase	1	0	1	SecondDay	Nicole o'neal	21221 WHITNEY AVE			MATTESON	IL	60443-1456	US			false		
111-6866328-1555420	53192228239674	2020-05-26T20:21:58+00:00	2020-05-26T13:21:58-07:00	2020-05-26T20:46:58+00:00	2020-05-28T06:59:59+00:00	-2	q5r86kvjxh2v1kh@marketplace.amazon.com	Wayne Anderson	+1 210-728-4548 ext. 86231	ABR0022	Purchase Now for Delivery by Friday | Arabella Farm Direct Bouquet of 12 Fresh Cut Pink Roses with a Free Glass Vase	1	0	1	SecondDay	Helen Anderson	8401 So. Kolb Rd.	Space 375		Tucson	Arizona	85756	US			false		
112-3872901-5042611	55838747923650	2020-05-26T20:28:35+00:00	2020-05-26T13:28:35-07:00	2020-05-26T20:52:42+00:00	2020-05-28T06:59:59+00:00	-2	t1zxncdrkvxkj5d@marketplace.amazon.com	Myrna Re	+1 347-448-3190 ext. 34948	ABR0055	Purchase Now for Delivery by Friday | Arabella Farm Direct Bouquet of 12 Stems of Fresh Cut Hot Pink Roses in a Free Designer Glass Vase	1	0	1	SecondDay	Latchmini Hemraj	21011 34TH RD			BAYSIDE	NY	11361-1426	US		To my beautiful, kind and caring friend! Thanks you for your time and expert care during my time of need! Love you! Enjoy your gift! From Myrna Re	false		
114-8845008-9899462	31945274149842	2020-05-26T20:28:50+00:00	2020-05-26T13:28:50-07:00	2020-05-26T20:54:31+00:00	2020-05-28T06:59:59+00:00	-2	0s70pth3mnt48d5@marketplace.amazon.com	Maria Diakatos	+1 314-282-9402 ext. 08481	ABM010	Purchase Now for Delivery by Friday | Arabella Bouquets | Fields of The World Bouquet of Fresh Cut Flowers in a Free Designer Glass Vase	1	0	1	SecondDay	Maria diakatos	119 brandywine ave			Elk grove village	Illinois	60007	US		Stella, Congratulations on finishing 5th grade! We love you very much! We wish you the best of luck in middle school. From Love: Jerry, mommy, & daddy	false		
113-1239531-5763445	33135332067234	2020-05-26T20:25:03+00:00	2020-05-26T13:25:03-07:00	2020-05-26T20:55:13+00:00	2020-05-28T06:59:59+00:00	-2	35w0l94h2t31j1q@marketplace.amazon.com	Bryan	+1 347-448-3190 ext. 59643	ABR0022	Purchase Now for Delivery by Friday | Arabella Farm Direct Bouquet of 12 Fresh Cut Pink Roses with a Free Glass Vase	1	0	1	SecondDay	Bryan Molinelli	115 WEST RD			BEACON FALLS	CONNECTICUT	06403-1533	US			false		
111-8472708-0972249	08009335332890	2020-05-26T20:33:32+00:00	2020-05-26T13:33:32-07:00	2020-05-26T21:03:16+00:00	2020-05-28T06:59:59+00:00	-2	r1r1xh7fbn4hl6f@marketplace.amazon.com	Michael Hurley	+1 314-282-9402 ext. 92966	ABR001	Purchase Now for Delivery by Friday | Arabella Bouquets 12 Stems of Fresh Cut Red Roses in a Free Designer Glass Vase	1	0	1	SecondDay	Lisa Bramlage	1780 DEBORAH DR APT 18			PUNTA GORDA	FL	33950-8162	US			true		Business Price
113-1658275-9847451	17118246090674	2020-05-26T20:57:06+00:00	2020-05-26T13:57:06-07:00	2020-05-26T21:24:50+00:00	2020-05-28T06:59:59+00:00	-2	2tlp87hc4g2scll@marketplace.amazon.com	SUSAN L. WOODARD	+1 347-448-3190 ext. 93544	ABR001	Purchase Now for Delivery by Friday | Arabella Bouquets 12 Stems of Fresh Cut Red Roses in a Free Designer Glass Vase	1	0	1	SecondDay	Bruna Crea	37880 MORAVIAN DR			CLINTON TOWNSHIP	MI	48036-1759	US		Happy birthday, Bruna!  Love, Susie	false		
114-5303871-7253816	60515748911746	2020-05-26T21:03:21+00:00	2020-05-26T14:03:21-07:00	2020-05-26T21:32:01+00:00	2020-05-28T06:59:59+00:00	-2	k538sc3cjnl2494@marketplace.amazon.com	Adam Jaynes	+1 314-282-9402 ext. 56034	ABM010	Purchase Now for Delivery by Friday | Arabella Bouquets | Fields of The World Bouquet of Fresh Cut Flowers in a Free Designer Glass Vase	1	0	1	SecondDay	Adam Jaynes	491 N 600 E			PAYSON	UT	84651-1949	US		Hope you have an amazing day momma! I am thankful to be blessed with such an incredible woman that I get to call mom!  Love - Adam	false		
113-6452042-1147404	51084622159890	2020-05-26T21:14:14+00:00	2020-05-26T14:14:14-07:00	2020-05-26T21:40:22+00:00	2020-05-28T06:59:59+00:00	-2	yqt4y6ffxjcqhwj@marketplace.amazon.com	Tammy Wilkes	+1 314-282-9402 ext. 20131	ABB001	Arabella Farm Direct Fresh Cut White Hydrangea	1	0	1	SecondDay	Tammy Wilkes	22996 N 94TH LN			PEORIA	AZ	85383-4212	US		Thank you so much for your kindness and generosity to Ty!  Much love from Tammy and Dave!	false		
111-6246141-1425032	07145331294442	2020-05-26T21:14:18+00:00	2020-05-26T14:14:18-07:00	2020-05-26T21:41:56+00:00	2020-05-28T06:59:59+00:00	-2	vd8pd1k6j3y10s7@marketplace.amazon.com	Debi Pottorff	+1 347-448-3190 ext. 71828	ABR0022	Purchase Now for Delivery by Friday | Arabella Farm Direct Bouquet of 12 Fresh Cut Pink Roses with a Free Glass Vase	1	0	1	SecondDay	Jane Merrifield Beecher	5208 N CAMINO DE LA CUMBRE			TUCSON	AZ	85750-1506	US			false		
111-8478381-4744258	20443991148514	2020-05-26T21:29:29+00:00	2020-05-26T14:29:29-07:00	2020-05-26T21:58:42+00:00	2020-05-28T06:59:59+00:00	-2	0ykgwyktky0r1s6@marketplace.amazon.com	adriana osmun	+1 314-282-9402 ext. 26461	ABM0033	Purchase Now for Delivery by Friday | Arabella Farm Direct Bouquet of Fresh Cut White Hydrangea with a Free Glass Vase	1	0	1	SecondDay	Cindy Payton	14509 BURR OAK RD			MAYVIEW	MO	64071-8193	US		Hi Cindy, Happy HAPPY Birthday!  We love and miss you and hope you have an amazing day! Love, Chris, Dree, Alex and Nick	false		
111-3073720-2854650	55611964554562	2020-05-26T21:30:42+00:00	2020-05-26T14:30:42-07:00	2020-05-26T22:00:29+00:00	2020-05-28T06:59:59+00:00	-2	9gzv96sjvsx28tn@marketplace.amazon.com	Jim	1+813-789-7055	ABR0066	Purchase Now for Delivery by Friday | Arabella Bouquets | 12 Stems of Fresh Cut White Roses in a Free Designer Glass Vase	1	0	1	SecondDay	Marian Winters	719 SEDDON COVE WAY			TAMPA	FL	33602-5702	US			false		
