order-id	order-item-id	purchase-date	payments-date	reporting-date	promise-date	days-past-promise	buyer-email	buyer-name	buyer-phone-number	sku	product-name	quantity-purchased	quantity-shipped	quantity-to-ship	ship-service-level	recipient-name	ship-address-1	ship-address-2	ship-address-3	ship-city	ship-state	ship-postal-code	ship-country	gift-wrap-type	gift-message-text	is-business-order	purchase-order-number	price-designation
113-5565032-2178623	23315552801522	2020-05-25T11:48:16+00:00	2020-05-25T04:48:16-07:00	2020-05-25T12:15:19+00:00	2020-05-27T06:59:59+00:00	-1	bwvk92xw8x9xqlv@marketplace.amazon.com	Janet Griggs	+1 347-448-3190 ext. 56324	ABSR005	Arabella Bouquets | Fresh Cut Orange Spray Roses in a Free Designer Glass Vase	1	0	1	SecondDay	Janet Griggs	23505 DELFORD AVE			CARSON	CA	90745-5720	US			false		
112-8124530-3429859	09585231476074	2020-05-25T12:23:22+00:00	2020-05-25T05:23:22-07:00	2020-05-25T12:53:39+00:00	2020-05-27T06:59:59+00:00	-1	s68pkpqzqdy3v43@marketplace.amazon.com	Michael Altes	+1 210-728-4548 ext. 65074	ABR0055	Purchase Now for Delivery by Thursday | Arabella Farm Direct Bouquet of 12 Stems of Fresh Cut Hot Pink Roses in a Free Designer Glass Vase	1	0	1	SecondDay	Katrina Anderson	313 KEARNEY BLVD RM 117			GOODFELOW AFB	TX	76908-3215	US			false		
112-8212583-3895440	03986356635194	2020-05-25T12:42:57+00:00	2020-05-25T05:42:57-07:00	2020-05-25T13:09:56+00:00	2020-05-27T06:59:59+00:00	-1	wq4vlqqr8pb51r8@marketplace.amazon.com	Jazzman	+1 210-728-4548 ext. 47014	ABR0022	Purchase Now for Delivery by Thursday | Arabella Farm Direct Bouquet of 12 Fresh Cut Pink Roses with a Free Glass Vase	1	0	1	SecondDay	Jazzman Johnson	4348 KENNERLY AVE APT B			SAINT LOUIS	MO	63113-2517	US			false		
111-2111365-6792205	09460378766410	2020-05-25T12:58:17+00:00	2020-05-25T05:58:17-07:00	2020-05-25T13:25:15+00:00	2020-05-29T06:59:59+00:00	-3	kx6f5r6qp50mkmj@marketplace.amazon.com	Dianne Jackson	+1 347-448-3190 ext. 00956	ABM0033	Purchase Now for Delivery by Thursday | Arabella Farm Direct Bouquet of Fresh Cut White Hydrangea with a Free Glass Vase	1	0	1	Standard	Doris Woodward	345 CHANNEL VIEW DR			WARSAW	IN	46580-2171	US		A very Happy Birthday to You! May this year be filled with joy and smiles. I hope we can see you soon! From The Lams and the Jacksons	false		
112-9854354-5288260	21819251081322	2020-05-25T13:01:57+00:00	2020-05-25T06:01:57-07:00	2020-05-25T13:30:30+00:00	2020-05-27T06:59:59+00:00	-1	4n387j262x8kdd3@marketplace.amazon.com	Daniel Moravec	+1 347-448-3190 ext. 57786	ABM010	Purchase Now for Delivery by Thursday | Arabella Bouquets | Fields of The World Bouquet of Fresh Cut Flowers in a Free Designer Glass Vase	1	0	1	SecondDay	Anne Wagner	280 BRANDYWINE DR			COLORADO SPRINGS	CO	80906-7666	US		HaPpY bIrThDaY  Anne !  Hope you have a WONderful birthday celebrating LIFE... Sending LOVE and HUGS, Marg, Dan, and Emily :-) From Moravecs	false		
114-4081181-3951431	26964511461418	2020-05-25T13:09:22+00:00	2020-05-25T06:09:22-07:00	2020-05-25T13:36:57+00:00	2020-05-27T06:59:59+00:00	-1	sbqs580dq5h8bn1@marketplace.amazon.com	Rosa	+1 210-728-4548 ext. 67803	ABR0022	Purchase Now for Delivery by Thursday | Arabella Farm Direct Bouquet of 12 Fresh Cut Pink Roses with a Free Glass Vase	1	0	1	SecondDay	Sandra Houston	801 BRICKELL BAY DR APT 868			MIAMI	FL	33131-2937	US		Feliz dia de las madres tia Sandra. Esperamos verte pronto. Te queremos mucho. From Adolfo y Alvaro  Muniz	false		
113-5501653-5349020	61753488038562	2020-05-25T13:08:57+00:00	2020-05-25T06:08:57-07:00	2020-05-25T13:38:02+00:00	2020-05-27T06:59:59+00:00	-1	2lgzkxdmvc41t08@marketplace.amazon.com	loraine collins	+1 210-728-4548 ext. 29343	ABR0022	Purchase Now for Delivery by Thursday | Arabella Farm Direct Bouquet of 12 Fresh Cut Pink Roses with a Free Glass Vase	1	0	1	SecondDay	loraine collins	15 country view drive			johnston	ri	02919	US		All our love to you Mom. We can’t wait to have you here with us ! From loraine collins	false		
111-9156831-3823445	57365672838450	2020-05-25T13:18:28+00:00	2020-05-25T06:18:28-07:00	2020-05-25T13:39:53+00:00	2020-05-27T06:59:59+00:00	-1	whgcj9ky3rhc9b7@marketplace.amazon.com	Cindy Tejada	+1 347-448-3190 ext. 87881	ABM010	Purchase Now for Delivery by Thursday | Arabella Bouquets | Fields of The World Bouquet of Fresh Cut Flowers in a Free Designer Glass Vase	1	0	1	SecondDay	Sherllyn Tejada	440 W 2ND AVE			ROSELLE	NJ	07203-1007	US		Hey Sherllyn,  Hope you enjoy your very special B-Day and please take this birthday gift of appreciation and being a great mother!  Thanks for being awesome! :) From Tia Cindy	false		
112-2486975-3705850	66834024646706	2020-05-25T13:11:16+00:00	2020-05-25T06:11:16-07:00	2020-05-25T13:39:59+00:00	2020-05-29T06:59:59+00:00	-3	n1yzzvdvlj1gj4x@marketplace.amazon.com	Abraham Chavez	+1 210-728-4548 ext. 76013	ABR001	Purchase Now for Delivery by Thursday | Arabella Bouquets 12 Stems of Fresh Cut Red Roses in a Free Designer Glass Vase	1	0	1	Expedited	Maria Hernandez	2817 BLANCHARD ST			LOS ANGELES	CA	90033-2616	US			false		
111-0933245-1973025	40149116005626	2020-05-25T13:33:58+00:00	2020-05-25T06:33:58-07:00	2020-05-25T14:02:15+00:00	2020-05-27T06:59:59+00:00	-1	56fffccbfyqpgrr@marketplace.amazon.com	Sylvester Dew	+1 347-448-3190 ext. 84179	ABM010	Purchase Now for Delivery by Thursday | Arabella Bouquets | Fields of The World Bouquet of Fresh Cut Flowers in a Free Designer Glass Vase	1	0	1	SecondDay	Erica Rodriguez	2355 SPRINGWELLS ST			DETROIT	MI	48209-1110	US			false		
114-6544815-7405834	28890812785642	2020-05-25T13:58:07+00:00	2020-05-25T06:58:07-07:00	2020-05-25T14:27:26+00:00	2020-05-27T06:59:59+00:00	-1	0nydkkgr79mtm0r@marketplace.amazon.com	Heidi Hood	+1 347-448-3190 ext. 39922	ABM0044	Purchase Now for Delivery by Thursday | Arabella Farm Direct Bouquet of Fresh Cut Blue Hydrangea with a Free Glass Vase	1	0	1	SecondDay	Beth Parker and Peter Kidwell	44 SKIPPING STONE			PLYMOUTH	MA	02360-3575	US		Happy housewarming Beth, Peter, and Charlie! We miss you!  Best,  Heidi, Tom, and Olivia	false		
112-7442882-0048204	40285604370706	2020-05-25T14:03:56+00:00	2020-05-25T07:03:56-07:00	2020-05-25T14:33:16+00:00	2020-05-27T06:59:59+00:00	-1	4rgcssnyy5g8vyw@marketplace.amazon.com	Jennifer Shannon	+1 314-282-9402 ext. 46898	ABM010	Purchase Now for Delivery by Thursday | Arabella Bouquets | Fields of The World Bouquet of Fresh Cut Flowers in a Free Designer Glass Vase	1	0	1	SecondDay	Jessica Schrank	308 E VAN BUREN ST			JANESVILLE	WI	53545-4047	US		Happiest of Birthday’s to you Jessica! From Love, Jennifer Shannon	false		
113-6811160-0660208	53299641825474	2020-05-25T14:07:34+00:00	2020-05-25T07:07:34-07:00	2020-05-25T14:36:02+00:00	2020-05-27T06:59:59+00:00	-1	l10v7dnthk1lp8y@marketplace.amazon.com	bob mcbay	+1 210-728-4548 ext. 61932	ABR0022	Purchase Now for Delivery by Thursday | Arabella Farm Direct Bouquet of 12 Fresh Cut Pink Roses with a Free Glass Vase	1	0	1	SecondDay	Donna DeChellis	21 HOLLAND ST			SAUGUS	MA	01906-2233	US		Happy birthday Donna.  Love, Rob and Joey.	false		
112-2823981-0336266	07887123850122	2020-05-25T14:17:39+00:00	2020-05-25T07:17:39-07:00	2020-05-25T14:47:39+00:00	2020-05-27T06:59:59+00:00	-1	33zg8b15dt4k6vc@marketplace.amazon.com	Lia Rivera	+1 210-728-4548 ext. 35236	ABM010	Purchase Now for Delivery by Thursday | Arabella Bouquets | Fields of The World Bouquet of Fresh Cut Flowers in a Free Designer Glass Vase	1	0	1	SecondDay	Tammie Crispino	917 CRANFORD AVE			WESTFIELD	NJ	07090-1201	US			false		
113-3886375-0950643	68022968350506	2020-05-25T14:49:05+00:00	2020-05-25T07:49:05-07:00	2020-05-25T15:11:24+00:00	2020-05-27T06:59:59+00:00	-1	j87h1h8zq65yydl@marketplace.amazon.com	Mrs Lindsay N. Bowden	+1 763-225-9463 ext. 77397	ABM002	Purchase Now for Delivery by Thursday | Arabella Bouquets Fresh Cut White Calla Lilies in a Free Designer Glass Vase	1	0	1	SecondDay	Colette Bolitho	149 11TH ST			DEL MAR	CA	92014-2310	US		Hi Colette, Enjoy your gift! From Mrs Lindsay N. Bowden	false		
113-0611489-1957001	38981986474386	2020-05-25T14:43:37+00:00	2020-05-25T07:43:37-07:00	2020-05-25T15:11:46+00:00	2020-05-27T06:59:59+00:00	-1	p4cxwd9bblfxksq@marketplace.amazon.com	sally  L. van orden	+1 763-225-9463 ext. 33086	ABR0055	Purchase Now for Delivery by Thursday | Arabella Farm Direct Bouquet of 12 Stems of Fresh Cut Hot Pink Roses in a Free Designer Glass Vase	1	0	1	SecondDay	Nancy Rumfield	627 E STREET RD			WEST CHESTER	PA	19382-7414	US		Congratulations on your Retirement! Love, Sally From sally  L. van orden	false		
112-2750943-0957801	33541641827002	2020-05-25T14:50:38+00:00	2020-05-25T07:50:38-07:00	2020-05-25T15:13:27+00:00	2020-05-27T06:59:59+00:00	-1	hdr4qhb0jgvggj2@marketplace.amazon.com	L Sheldon	+1 314-282-9402 ext. 92136	ABR0022	Purchase Now for Delivery by Thursday | Arabella Farm Direct Bouquet of 12 Fresh Cut Pink Roses with a Free Glass Vase	1	0	1	SecondDay	P Endicott	17 CONANT ST APT W-39			BEVERLY	MA	01915-1763	US		To Aunt Phyllis, Hope these brighten your day!  Love, Lori From L Sheldon	false		
111-8880139-9960229	15010733976930	2020-05-25T14:47:19+00:00	2020-05-25T07:47:19-07:00	2020-05-25T15:14:57+00:00	2020-05-27T06:59:59+00:00	-1	vphfmqlr463rdgb@marketplace.amazon.com	Tammy Johnson	+1 210-728-4548 ext. 19349	ABM010	Purchase Now for Delivery by Thursday | Arabella Bouquets | Fields of The World Bouquet of Fresh Cut Flowers in a Free Designer Glass Vase	1	0	1	SecondDay	Jerry and Jessica Wiedenfeld	500 WINDSTONE CT			WATERTOWN	WI	53094-1100	US		Dear Jess, Jerry, Madelyn, Lena, Max, and Eli,  In loving memory of your Grandma. Peace and much love to you all. From Tammy, Hayden, Reese, and Adele	false		
113-3338681-9309017	63811901035818	2020-05-25T14:49:05+00:00	2020-05-25T07:49:05-07:00	2020-05-25T15:16:58+00:00	2020-05-27T06:59:59+00:00	-1	j7tsdhbv9hqrx0k@marketplace.amazon.com	bern	+1 347-448-3190 ext. 91351	ABM010	Purchase Now for Delivery by Thursday | Arabella Bouquets | Fields of The World Bouquet of Fresh Cut Flowers in a Free Designer Glass Vase	1	0	1	SecondDay	Mary Boyle	301 GARDEN RD			SPRINGFIELD	PA	19064-3504	US			false		
112-1288337-7586669	10186691442562	2020-05-25T14:51:38+00:00	2020-05-25T07:51:38-07:00	2020-05-25T15:19:07+00:00	2020-05-27T06:59:59+00:00	-1	4n22lxyltgzrnqv@marketplace.amazon.com	Greg Peters	+1 210-728-4548 ext. 75217	ABR0022	Purchase Now for Delivery by Thursday | Arabella Farm Direct Bouquet of 12 Fresh Cut Pink Roses with a Free Glass Vase	1	0	1	SecondDay	Greg Peters	1047 22ND AVE			BELLWOOD	IL	60104-2505	US			false		
113-9158412-0929039	48102393002346	2020-05-25T14:50:08+00:00	2020-05-25T07:50:08-07:00	2020-05-25T15:19:55+00:00	2020-05-27T06:59:59+00:00	-1	39l1sgpsdls0ygj@marketplace.amazon.com	Tonya	+1 347-448-3190 ext. 34294	ABR012	Purchase Now for Delivery by Thursday | Arabella Farm Direct Bouquet of 18 Fresh Cut Pink Roses with a Free Glass Vase	1	0	1	SecondDay	Grandma Dorothy Thompson	241 LAURELCREST CIR			VALRICO	FL	33594-3213	US		Happy Mother's Day, Grandma! Love you! Tonya & Dale	false		
113-6577693-0504211	07567222132130	2020-05-25T15:00:02+00:00	2020-05-25T08:00:02-07:00	2020-05-25T15:30:33+00:00	2020-05-27T06:59:59+00:00	-1	kps77g2z9zb2ygg@marketplace.amazon.com	DD	+1 347-448-3190 ext. 89504	ABR0055	Purchase Now for Delivery by Thursday | Arabella Farm Direct Bouquet of 12 Stems of Fresh Cut Hot Pink Roses in a Free Designer Glass Vase	1	0	1	SecondDay	Dereje Desta	8158 COPPERCREEK DR			LOUISVILLE	KY	40222-6813	US		Happy  Birth Day Abigail, Rebecca and Dereje	false		
112-9228033-2147439	61088775421210	2020-05-25T15:16:37+00:00	2020-05-25T08:16:37-07:00	2020-05-25T15:35:49+00:00	2020-05-27T06:59:59+00:00	-1	11s0lyyrb3jqjfy@marketplace.amazon.com	Carissa	+1 347-448-3190 ext. 04677	ABR0022	Purchase Now for Delivery by Thursday | Arabella Farm Direct Bouquet of 12 Fresh Cut Pink Roses with a Free Glass Vase	1	0	1	SecondDay	Daisy Walker	72 SILVER LEAF LOOP			PHENIX CITY	AL	36867-7306	US		Hi Daisy! Just thinking of you, and I hope you are doing well. I miss you lots!  Love Carissa Curley	false		
112-8234309-1443464	01377432588642	2020-05-25T15:15:41+00:00	2020-05-25T08:15:41-07:00	2020-05-25T15:43:23+00:00	2020-05-27T06:59:59+00:00	-1	zwhltc7z8nwl4z0@marketplace.amazon.com	Eric Ray Decker	+1 210-728-4548 ext. 62566	ABR0066	Purchase Now for Delivery by Thursday | Arabella Bouquets | 12 Stems of Fresh Cut White Roses in a Free Designer Glass Vase	1	0	1	SecondDay	Ernesto Unanue	14839 W RIVER RD			INGLIS	FL	34449-9257	US		Lamentamos mucho el fallecimiento de Elaine.  Te queremos mucho y estás en nuestros pensamientos y oraciones. From Eric y Raquel Decker	false		
113-2519960-4596238	37904777731594	2020-05-25T15:15:42+00:00	2020-05-25T08:15:42-07:00	2020-05-25T15:44:27+00:00	2020-05-27T06:59:59+00:00	-1	bp0cfdfk4sd3g6q@marketplace.amazon.com	Barbara Barcinas	+1 347-448-3190 ext. 04802	ABR0033	Purchase Now for Delivery by Thursday | Arabella Farm Direct Bouquet of 12 Fresh Cut Orange Roses with a Free Glass Vase	1	0	1	SecondDay	Mrs. Anitra Ackerman	16651 TRUDY LN			HUNTINGTON BEACH	CA	92647-4254	US		Love Dad & Barb	false		
112-1391081-2289837	63502648299210	2020-05-25T15:45:43+00:00	2020-05-25T08:45:43-07:00	2020-05-25T15:49:59+00:00	2020-05-27T06:59:59+00:00	-1	kcqqyymthktvfy7@marketplace.amazon.com	Maureen Stevens	+1 347-448-3190 ext. 15159	ABM010	Purchase Now for Delivery by Thursday | Arabella Bouquets | Fields of The World Bouquet of Fresh Cut Flowers in a Free Designer Glass Vase	1	0	1	SecondDay	catherine weber	8966 WOODLAND DR			NEWBURGH	IN	47630-2404	US		Happy Birthday, Mom!! Hope we can celebrate together soon!! Love, Maureen, Glenn, Ryan, Neal and Erin	false		
114-6554072-5258619	52367084384298	2020-05-25T15:30:41+00:00	2020-05-25T08:30:41-07:00	2020-05-25T15:59:51+00:00	2020-05-29T06:59:59+00:00	-3	ymkzmbfzbdlhhdw@marketplace.amazon.com	Luis	+1 347-448-3190 ext. 00747	ABR001	Purchase Now for Delivery by Thursday | Arabella Bouquets 12 Stems of Fresh Cut Red Roses in a Free Designer Glass Vase	1	0	1	Expedited	LAURA  OLAYO	8801 GUSTINE LN APT 307			HOUSTON	TX	77031-1408	US		HAPPY BIRTHDAY LAURITA 😊 De Luis	false		
111-1500154-7485866	09705965433770	2020-05-25T15:41:02+00:00	2020-05-25T08:41:02-07:00	2020-05-25T16:10:09+00:00	2020-05-27T06:59:59+00:00	-1	f2hnh2s6gzty487@marketplace.amazon.com	Allison B. Steyskal	+1 314-282-9402 ext. 97866	ABR0022	Purchase Now for Delivery by Thursday | Arabella Farm Direct Bouquet of 12 Fresh Cut Pink Roses with a Free Glass Vase	1	0	1	SecondDay	Pat Tapp	1978 REANEY AVE E			SAINT PAUL	MN	55119-3917	US		Thinking about you AP.  We love you, and can't wait to see you...whenever that may be. ❤ From Ali, Brad & kids	false		
113-5817240-6936243	01788539660282	2020-05-25T15:45:27+00:00	2020-05-25T08:45:27-07:00	2020-05-25T16:13:34+00:00	2020-05-27T06:59:59+00:00	-1	rdq03l3bqn7j4ws@marketplace.amazon.com	Melanie Schneider	+1 314-282-9402 ext. 73544	ABR0022	Purchase Now for Delivery by Thursday | Arabella Farm Direct Bouquet of 12 Fresh Cut Pink Roses with a Free Glass Vase	1	0	1	SecondDay	Beth Fogle	2011 CHILHOWEE DR			JOHNS ISLAND	SC	29455-8198	US		Hi Beth HAPPY BIRTHDAY!  I LOVEYOU SOOOO MUCH.  ENJOY. MOM	false		
114-2355488-0549009	58690284446402	2020-05-25T15:52:26+00:00	2020-05-25T08:52:26-07:00	2020-05-25T16:19:37+00:00	2020-05-27T06:59:59+00:00	-1	yq6tm1wcwg7rb16@marketplace.amazon.com	cathy	+1 347-448-3190 ext. 37447	ABR0022	Purchase Now for Delivery by Thursday | Arabella Farm Direct Bouquet of 12 Fresh Cut Pink Roses with a Free Glass Vase	1	0	1	SecondDay	Meri Difiore	36 WHEATFIELD LN			COMMACK	NY	11725-2630	US		Hi Meri, Enjoy your gift!  We miss you, Cathy, Cristalle, Arissa and Alisa	true		
112-0287036-8124219	10437122374410	2020-05-25T16:00:36+00:00	2020-05-25T09:00:36-07:00	2020-05-25T16:27:26+00:00	2020-05-27T06:59:59+00:00	-1	ggs1989jvlkrt3n@marketplace.amazon.com	adrian diamond	+1 210-728-4548 ext. 55246	ABR0022	Purchase Now for Delivery by Thursday | Arabella Farm Direct Bouquet of 12 Fresh Cut Pink Roses with a Free Glass Vase	1	0	1	SecondDay	Lydia Borgatta	410 NE 152ND ST			MIAMI	FL	33162-5020	US		Happy Birthday Lydia, I love you very much. Adrian From adrian	false		
111-2367108-5065838	31723849006218	2020-05-25T16:13:54+00:00	2020-05-25T09:13:54-07:00	2020-05-25T16:43:33+00:00	2020-05-27T06:59:59+00:00	-1	nch0gyq8lkf944j@marketplace.amazon.com	Gustavo	+1 314-282-9402 ext. 58002	ABM010	Purchase Now for Delivery by Thursday | Arabella Bouquets | Fields of The World Bouquet of Fresh Cut Flowers in a Free Designer Glass Vase	1	0	1	SecondDay	Gustavo henriquez	2010 N 11TH ST			GARDEN CITY	KS	67846-2920	US			false		
111-9967691-1901821	26305061574906	2020-05-25T16:18:58+00:00	2020-05-25T09:18:58-07:00	2020-05-25T16:44:06+00:00	2020-05-27T06:59:59+00:00	-1	fm8vmcbfy00skmy@marketplace.amazon.com	Teresa Tenis	+1 347-448-3190 ext. 41526	ABM010	Purchase Now for Delivery by Thursday | Arabella Bouquets | Fields of The World Bouquet of Fresh Cut Flowers in a Free Designer Glass Vase	1	0	1	SecondDay	Anna Bean	6000 ROYAL CT - 6006			NORTH HILLS	NY	11040-2614	US		Dear Aunt Anna.  Happy Birthday.   I love you. Love, Teresa	false		
112-6753509-0612219	36202974165146	2020-05-25T16:20:21+00:00	2020-05-25T09:20:21-07:00	2020-05-25T16:46:57+00:00	2020-05-27T06:59:59+00:00	-1	0cz8pb2xnss452f@marketplace.amazon.com	Teresa Santos	+1 412-532-4665 ext. 42653	ABR0022	Purchase Now for Delivery by Thursday | Arabella Farm Direct Bouquet of 12 Fresh Cut Pink Roses with a Free Glass Vase	1	0	1	SecondDay	Maria Bustamante	15725 SHEPHERD RD			ATASCOSA	TX	78002-4906	US		Happy birthday, God bless you!  Enjoy your day... 🎉😘 De Teresa Santos	false		
113-3248660-7069034	46050543027898	2020-05-25T16:22:19+00:00	2020-05-25T09:22:19-07:00	2020-05-25T16:47:00+00:00	2020-05-27T06:59:59+00:00	-1	lz2hskcdm6drw4k@marketplace.amazon.com	Jim Roth	+1 210-728-4548 ext. 42679	ABM002	Purchase Now for Delivery by Thursday | Arabella Bouquets Fresh Cut White Calla Lilies in a Free Designer Glass Vase	1	0	1	SecondDay	Evelyn Cea	51 HOMESTEAD RD			SCARSDALE	NY	10583-5842	US		Hi Evelyn, Happy Special Birthday. Love, Mary and Jimmy From Jim Roth	false		
112-0735600-5778654	05737100660426	2020-05-25T16:28:23+00:00	2020-05-25T09:28:23-07:00	2020-05-25T16:57:10+00:00	2020-05-27T06:59:59+00:00	-1	ywkqhxv58vcqvhb@marketplace.amazon.com	Nicolas Carrizo	+1 347-448-3190 ext. 17258	ABR0022	Purchase Now for Delivery by Thursday | Arabella Farm Direct Bouquet of 12 Fresh Cut Pink Roses with a Free Glass Vase	1	0	1	SecondDay	Blanca vega	9881 HARRELLS HWY			GARLAND	NC	28441-8527	US		Especialmente para ti bombón tan hermosas como tu con mucho amor para ti 😘❤️ From Nicolas Carrizo	false		
114-2209799-5151413	30502524034090	2020-05-25T16:48:53+00:00	2020-05-25T09:48:53-07:00	2020-05-25T16:59:14+00:00	2020-05-27T06:59:59+00:00	-1	xdlpffhc04zclh6@marketplace.amazon.com	Eric Wood	+1 210-728-4548 ext. 53593	ABB013	Arabella Bouquets | 24 Stems of Fresh Cut White Roses in a Free Designer Glass Vase	1	0	1	SecondDay	Eric Wood	411 N 2480 W			HURRICANE	UT	84737-3512	US			false		
111-2518124-8765033	25817273233666	2020-05-25T16:35:57+00:00	2020-05-25T09:35:57-07:00	2020-05-25T17:05:44+00:00	2020-05-27T06:59:59+00:00	-1	2brttctcm331zvn@marketplace.amazon.com	Nedra O'Hara	+1 347-448-3190 ext. 64994	ABM010	Purchase Now for Delivery by Thursday | Arabella Bouquets | Fields of The World Bouquet of Fresh Cut Flowers in a Free Designer Glass Vase	1	0	1	SecondDay	Beth Sweeney	1706 HUNTINGTON CT			SAFETY HARBOR	FL	34695-5635	US		Happy Birthday, Beth! Thank you for being such a very special daughter. We love you very much. From Mom and Dad	false		
113-6049189-7881855	59712699754706	2020-05-25T16:38:12+00:00	2020-05-25T09:38:12-07:00	2020-05-25T17:06:38+00:00	2020-05-27T06:59:59+00:00	-1	6jxgzx354qlc5jp@marketplace.amazon.com	Chris	+1 314-282-9402 ext. 26613	ABR0022	Purchase Now for Delivery by Thursday | Arabella Farm Direct Bouquet of 12 Fresh Cut Pink Roses with a Free Glass Vase	1	0	1	SecondDay	Anna Olik	6143 56TH RD			MASPETH	NY	11378-2409	US		Happy birthday, Mommy! From Tommy	false		
113-7358372-3671447	61747701036634	2020-05-25T16:46:47+00:00	2020-05-25T09:46:47-07:00	2020-05-25T17:14:45+00:00	2020-05-27T06:59:59+00:00	-1	pv669n716f1mzy7@marketplace.amazon.com	Meera Iyengar	+1 763-225-9463 ext. 68864	ABR0066	Purchase Now for Delivery by Thursday | Arabella Bouquets | 12 Stems of Fresh Cut White Roses in a Free Designer Glass Vase	1	0	1	SecondDay	Nancy Tran	10225 SW 20TH ST			DAVIE	FL	33324-7427	US		Hi Nancy, Happy Birthday!!  From Meera Iyengar	false		
113-0263988-1056276	10601704684818	2020-05-25T16:47:44+00:00	2020-05-25T09:47:44-07:00	2020-05-25T17:16:07+00:00	2020-05-27T06:59:59+00:00	-1	cs6ssfvw96smxdd@marketplace.amazon.com	Christopher Lundgren	+1 314-282-9402 ext. 40080	ABM010	Purchase Now for Delivery by Thursday | Arabella Bouquets | Fields of The World Bouquet of Fresh Cut Flowers in a Free Designer Glass Vase	1	0	1	SecondDay	Susan Lundgren	3472 MONTAIR AVE			LONG BEACH	CA	90808-2646	US		Happy Birthday! From Christopher Lundgren	false		
113-6109334-3168251	25103711621874	2020-05-25T16:55:47+00:00	2020-05-25T09:55:47-07:00	2020-05-25T17:17:55+00:00	2020-05-27T06:59:59+00:00	-1	nrbg1144xm8r5bl@marketplace.amazon.com	Joel	+1 347-448-3190 ext. 05721	ABR0022	Purchase Now for Delivery by Thursday | Arabella Farm Direct Bouquet of 12 Fresh Cut Pink Roses with a Free Glass Vase	1	0	1	SecondDay	Sarah Eischen	1223 S 11TH PL			CORNELIUS	OR	97113-6526	US		Hi Sarah, Enjoy these Flowers that I Freshly Picked! :) From Joel	false		
111-0385011-9177841	41381325121218	2020-05-25T17:12:49+00:00	2020-05-25T10:12:49-07:00	2020-05-25T17:38:36+00:00	2020-05-27T06:59:59+00:00	-1	qx9l2zpkzsc8jcc@marketplace.amazon.com	Srinivas Muthu	+1 763-225-9463 ext. 49108	ABR0022	Purchase Now for Delivery by Thursday | Arabella Farm Direct Bouquet of 12 Fresh Cut Pink Roses with a Free Glass Vase	1	0	1	SecondDay	Julia Canning	1187 MANZANO WAY			SUNNYVALE	CA	94089-2323	US		Sorry I forgot. From Dude who forgot.	false		
114-7337403-0235419	09711901345714	2020-05-25T17:13:49+00:00	2020-05-25T10:13:49-07:00	2020-05-25T17:41:57+00:00	2020-05-27T06:59:59+00:00	-1	sglqpfl60cztjlq@marketplace.amazon.com	Brian Thiede	+1 314-282-9402 ext. 63522	ABR0022	Purchase Now for Delivery by Thursday | Arabella Farm Direct Bouquet of 12 Fresh Cut Pink Roses with a Free Glass Vase	1	0	1	SecondDay	Erin Bolan	19022 STORY RD			ROCKY RIVER	OH	44116-4229	US		Just because From Brian	false		
111-3463537-6043402	59657716292562	2020-05-25T17:25:02+00:00	2020-05-25T10:25:02-07:00	2020-05-25T17:47:25+00:00	2020-05-27T06:59:59+00:00	-1	4d134ms7w41xp36@marketplace.amazon.com	Viergelie Gaston	+1 314-282-9402 ext. 28258	ABR0055	Purchase Now for Delivery by Thursday | Arabella Farm Direct Bouquet of 12 Stems of Fresh Cut Hot Pink Roses in a Free Designer Glass Vase	1	0	1	SecondDay	Viergelie Gaston	75 BOARDMAN LN			ATTLEBORO	MA	02703-5611	US		May these flowers brighten your day because I love and cherish you more than words can say.  Happy Birthday Beautiful Chisna! From Viergelie Luna	false		
114-7638564-0432231	13495281735146	2020-05-25T17:23:21+00:00	2020-05-25T10:23:21-07:00	2020-05-25T17:49:35+00:00	2020-05-27T06:59:59+00:00	-1	1wkm6xswny6ncx6@marketplace.amazon.com	Mary Mandl	+1 763-225-9463 ext. 50876	ABR004	Arabella Farm Direct Bouquet of 12 Fresh Cut Yellow Roses with a Free Glass Vase	1	0	1	SecondDay	Venetia Boyd	14755 Kentucky Ave.			Fontana	CA	92336	US		Dear Venetia, I am sooo sorry we missed your birthday! (senior moment?)   I hope it was magical.  All our love, Uncle Bill & Aunt Mary	false		
112-9891524-6457029	62460440749282	2020-05-25T17:39:16+00:00	2020-05-25T10:39:16-07:00	2020-05-25T18:04:55+00:00	2020-05-27T06:59:59+00:00	-1	cbbck72cwk3k712@marketplace.amazon.com	Raj and Shweta Singhal	+1 314-282-9402 ext. 28485	ABR0022	Purchase Now for Delivery by Thursday | Arabella Farm Direct Bouquet of 12 Fresh Cut Pink Roses with a Free Glass Vase	1	0	1	SecondDay	Dr. JP and Madhu Mittal	28652 CEDAR RIDGE RD			TRABUCO CANYON	CA	92679-1125	US		Happy 45th Anniversary Papa (Nana) & Mummy (Nani)!!!  Lots of love, Raj,Shweta,Nikki,Sameer From Raj and Shweta Singhal	false		
113-4835309-3070661	65083278275890	2020-05-25T18:03:44+00:00	2020-05-25T11:03:44-07:00	2020-05-25T18:23:57+00:00	2020-05-27T06:59:59+00:00	-1	ccqgfmgyf1m4hy4@marketplace.amazon.com	Debbie	+1 347-448-3190 ext. 01661	ABR0066	Purchase Now for Delivery by Thursday | Arabella Bouquets | 12 Stems of Fresh Cut White Roses in a Free Designer Glass Vase	1	0	1	SecondDay	Ralph Fiore	6 Coach Road			Billerica	Ma	01862	US		Debbie You are a gift sent from Heaven, you are my angel. Happy Birthday  Love Always and Always..Ralph	false		
114-3351416-1923433	06882561092194	2020-05-25T17:55:07+00:00	2020-05-25T10:55:07-07:00	2020-05-25T18:25:11+00:00	2020-05-27T06:59:59+00:00	-1	dkm5hbf2f5w7j9d@marketplace.amazon.com	Dorothy Baker	+1 347-448-3190 ext. 83031	ABR0022	Purchase Now for Delivery by Thursday | Arabella Farm Direct Bouquet of 12 Fresh Cut Pink Roses with a Free Glass Vase	1	0	1	SecondDay	Gwen Mcswain	3520 OLINVILLE AVE APT 5B			BRONX	NY	10467-5544	US			false		
111-3029957-7330658	47527096334290	2020-05-25T18:13:00+00:00	2020-05-25T11:13:00-07:00	2020-05-25T18:34:06+00:00	2020-05-27T06:59:59+00:00	-1	cdfjbg5qbm6v9cn@marketplace.amazon.com	Christoph Wollny	015125049428	ABR0022	Purchase Now for Delivery by Thursday | Arabella Farm Direct Bouquet of 12 Fresh Cut Pink Roses with a Free Glass Vase	1	0	1	SecondDay	Philip Sand	509 SAMPSON			KYLE	TX	78640-5264	US		Alles Gute zum Geburtstag von Mama,Papa und Bruderherz!!!	false		
113-3173450-8429059	41251588511546	2020-05-25T18:12:58+00:00	2020-05-25T11:12:58-07:00	2020-05-25T18:42:21+00:00	2020-05-27T06:59:59+00:00	-1	xr4cxy98bv8skcd@marketplace.amazon.com	renee	+1 210-728-4548 ext. 60450	ABM010	Purchase Now for Delivery by Thursday | Arabella Bouquets | Fields of The World Bouquet of Fresh Cut Flowers in a Free Designer Glass Vase	1	0	1	SecondDay	Andrea Washington	4925 S 204TH EAST AVE			BROKEN ARROW	OK	74014-1730	US			false		
112-9253223-3835466	47531446019250	2020-05-25T18:20:26+00:00	2020-05-25T11:20:26-07:00	2020-05-25T18:49:46+00:00	2020-05-27T06:59:59+00:00	-1	rmxrkmrcllxqjrq@marketplace.amazon.com	Matt	+1 314-282-9402 ext. 23781	ABM0033	Purchase Now for Delivery by Thursday | Arabella Farm Direct Bouquet of Fresh Cut White Hydrangea with a Free Glass Vase	1	0	1	SecondDay	Maggi Meehan	25 FRANKLIN BLVD APT 6H			LONG BEACH	NY	11561-4504	US		Happy birthday Mags! Welcome to the decade of our lives, Facccccking love you and so lucky to have you in my life. Have the best day ever! From Love, Jen	false		
114-1577381-9255420	52467907136514	2020-05-25T18:25:34+00:00	2020-05-25T11:25:34-07:00	2020-05-25T18:52:24+00:00	2020-05-27T06:59:59+00:00	-1	0zq4h1m98fqt5m6@marketplace.amazon.com	William Groshelle	+1 210-728-4548 ext. 29045	ABR0022	Purchase Now for Delivery by Thursday | Arabella Farm Direct Bouquet of 12 Fresh Cut Pink Roses with a Free Glass Vase	1	0	1	SecondDay	Peg Armbruster	268 WOODWARD AVE			SAUSALITO	CA	94965-1746	US		Hi Peg, Happy birthday! Sorry this is a day late, but will be thinking of you on your birthday. Wish we were there to celebrate with you! Love, Susan and Bill	false		
114-4867362-7061812	12761476299362	2020-05-25T18:37:53+00:00	2020-05-25T11:37:53-07:00	2020-05-25T19:08:23+00:00	2020-05-27T06:59:59+00:00	-1	xyyblwr15qrhfw1@marketplace.amazon.com	Deborah Henry	+1 347-448-3190 ext. 74832	ABR0022	Purchase Now for Delivery by Thursday | Arabella Farm Direct Bouquet of 12 Fresh Cut Pink Roses with a Free Glass Vase	1	0	1	SecondDay	Sarah Viera	6411 176TH PL NW			STANWOOD	WA	98292-8975	US			false		
114-9936526-3250648	43014201068458	2020-05-25T18:54:30+00:00	2020-05-25T11:54:30-07:00	2020-05-25T19:19:37+00:00	2020-05-27T06:59:59+00:00	-1	vq8nh162ddnpfc1@marketplace.amazon.com	Patricia Kaiser	+1 210-728-4548 ext. 72394	ABR0022	Purchase Now for Delivery by Thursday | Arabella Farm Direct Bouquet of 12 Fresh Cut Pink Roses with a Free Glass Vase	1	0	1	SecondDay	Isabel Kaiser	3012 LAKE VISTA DR			LOUISVILLE	KY	40241-3425	US		Congratulations!!!! Have a wonderful graduation time and an exciting college life. From Grandma/Grandpa, Aunt Beth & family, Aunt Susan & family, Aunt Christine & family, Uncle Tim, Aunt Margaret & family	false		
114-8180352-0501005	29727882521530	2020-05-25T19:10:08+00:00	2020-05-25T12:10:08-07:00	2020-05-25T19:36:50+00:00	2020-05-27T06:59:59+00:00	-1	zqbyn33rkh0snjp@marketplace.amazon.com	Elizabeth Kitazono	+1 763-225-9463 ext. 66162	ABR0033	Purchase Now for Delivery by Thursday | Arabella Farm Direct Bouquet of 12 Fresh Cut Orange Roses with a Free Glass Vase	1	0	1	SecondDay	Elizabeth Kitazono	470 HEARST AVE			SAN FRANCISCO	CA	94112-1351	US		Dear Sarah, Happy Birthday!  Hope you have an amazing day! Love, Liz, Kara, and Ben	false		
111-8171337-2971454	56789709271626	2020-05-25T19:08:22+00:00	2020-05-25T12:08:22-07:00	2020-05-25T19:38:50+00:00	2020-05-27T06:59:59+00:00	-1	gwd37fbxm5l5wnn@marketplace.amazon.com	Christopher McCall	+1 210-728-4548 ext. 44980	ABR0022	Purchase Now for Delivery by Thursday | Arabella Farm Direct Bouquet of 12 Fresh Cut Pink Roses with a Free Glass Vase	1	0	1	SecondDay	Sandy Cima	27131 Stagewood St			Sun City	CA	92586	US			false		
114-3473249-0268207	56578188995378	2020-05-25T19:17:01+00:00	2020-05-25T12:17:01-07:00	2020-05-25T19:42:25+00:00	2020-05-27T06:59:59+00:00	-1	xpr50yfl48tknby@marketplace.amazon.com	Poornima Dabhade	+1 314-282-9402 ext. 45546	ABR0022	Purchase Now for Delivery by Thursday | Arabella Farm Direct Bouquet of 12 Fresh Cut Pink Roses with a Free Glass Vase	1	0	1	SecondDay	Chaitanya Kurhade	6022 S DREXEL AVE APT 308			CHICAGO	IL	60637-2684	US		Happy birthday hubby!! Special roses for the special one...stay happy and stay blessed sweetheart..love you so much ❤️ Yours Gabru😘 From Poornima Chaitanya kurhade	false		
111-0511733-1313825	02382764284786	2020-05-25T19:21:32+00:00	2020-05-25T12:21:32-07:00	2020-05-25T19:48:57+00:00	2020-05-27T06:59:59+00:00	-1	shxcb51tz0gylt8@marketplace.amazon.com	Corin E West	+1 412-532-4665 ext. 21885	ABM010	Purchase Now for Delivery by Thursday | Arabella Bouquets | Fields of The World Bouquet of Fresh Cut Flowers in a Free Designer Glass Vase	1	0	1	SecondDay	Jessie Harris	2962 EATON RD			CHICO	CA	95973-1804	US		Thinking of you. See you this weekend. Love You, Cory From Corin E West	false		
112-8299307-6335400	14543853647938	2020-05-25T19:40:39+00:00	2020-05-25T12:40:39-07:00	2020-05-25T19:56:54+00:00	2020-05-27T06:59:59+00:00	-1	1215s1ryv7y7fdq@marketplace.amazon.com	Monica Hummons	+1 763-225-9463 ext. 72912	ABR0055	Purchase Now for Delivery by Thursday | Arabella Farm Direct Bouquet of 12 Stems of Fresh Cut Hot Pink Roses in a Free Designer Glass Vase	1	0	1	SecondDay	Sierra Milz	W381 Golden Lake Park Circle			Oconomowoc	WI	53066	US		To my wonderful daughter, Happy Birthday! I love you, Raymond	false		
113-5561614-2296229	58750644524258	2020-05-25T19:31:04+00:00	2020-05-25T12:31:04-07:00	2020-05-25T19:57:59+00:00	2020-05-27T06:59:59+00:00	-1	g042mkbbntkgdcp@marketplace.amazon.com	Kay Kavanaugh	+1 347-448-3190 ext. 11088	ABM010	Purchase Now for Delivery by Thursday | Arabella Bouquets | Fields of The World Bouquet of Fresh Cut Flowers in a Free Designer Glass Vase	1	0	1	SecondDay	Kathleen Cowles	ROOM 8115 UNIVERSITY MEDICAL CENTER BANNER	1625 N CAMPBELL AVE		TUCSON	AZ	85719-4330	US		Feel better soon! From your cousins Bob and Kay	false		
112-4302935-9248211	18691586795578	2020-05-25T19:39:16+00:00	2020-05-25T12:39:16-07:00	2020-05-25T20:07:15+00:00	2020-05-27T06:59:59+00:00	-1	sc36gn1tqwhxjt3@marketplace.amazon.com	Jareekus	+1 210-728-4548 ext. 13298	ABM010	Purchase Now for Delivery by Thursday | Arabella Bouquets | Fields of The World Bouquet of Fresh Cut Flowers in a Free Designer Glass Vase	1	0	1	SecondDay	Annie robinson	1009 bishop dr			Utica	Mississippi	39175	US		From your grandson. I love you From Jareekus	false		
112-7789665-6537028	46555439596866	2020-05-25T19:53:24+00:00	2020-05-25T12:53:24-07:00	2020-05-25T20:22:34+00:00	2020-05-27T06:59:59+00:00	-1	vqmyqsn3qcpl9s6@marketplace.amazon.com	stewart cripps	+1 347-448-3190 ext. 43769	ABR013	Purchase Now for Delivery by May 28 THU | Arabella Farm Direct Bouquet of 18 Fresh Cut Yellow Roses with a Free Glass Vase	1	0	1	SecondDay	Ramylene c. Garcia	83 SAINT ANDREWS DR			SANTA TERESA	NM	88008-9643	US			false		
111-4266075-3597862	44765084294402	2020-05-25T19:59:13+00:00	2020-05-25T12:59:13-07:00	2020-05-25T20:25:25+00:00	2020-05-27T06:59:59+00:00	-1	7yq8hgx6jsvs8f0@marketplace.amazon.com	Kris Johnston	+1 210-728-4548 ext. 84319	ABM002	Purchase Now for Delivery by Thursday | Arabella Bouquets Fresh Cut White Calla Lilies in a Free Designer Glass Vase	1	0	1	SecondDay	Tease Salon Erica Hardy-Knoop	429 WILLIAM ST			CORPUS CHRISTI	TX	78401	US			false		
114-8134705-3358651	60766335376314	2020-05-25T20:05:15+00:00	2020-05-25T13:05:15-07:00	2020-05-25T20:30:39+00:00	2020-05-27T06:59:59+00:00	-1	xw4tcz7pk2v5r5k@marketplace.amazon.com	Pernell Briggs	+1 347-448-3190 ext. 47256	ABR0022	Purchase Now for Delivery by Thursday | Arabella Farm Direct Bouquet of 12 Fresh Cut Pink Roses with a Free Glass Vase	1	0	1	SecondDay	Joyce Bittle	1103 WOODLAND AVE			MONROE	NC	28112-5246	US		Happy Birthday Mrs Bittle... Enjoy your special day and I wish you many many more... From Pernell Briggs	false		
114-2031855-7081043	40028547362162	2020-05-25T20:12:51+00:00	2020-05-25T13:12:51-07:00	2020-05-25T20:32:32+00:00	2020-05-27T06:59:59+00:00	-1	jpfsyngf4wv7knx@marketplace.amazon.com	Terry Pollock	+1 347-448-3190 ext. 36640	ABR012	Purchase Now for Delivery by Thursday | Arabella Farm Direct Bouquet of 18 Fresh Cut Pink Roses with a Free Glass Vase	1	0	1	SecondDay	Kathy Plummer	8609 N WARE RD			MCALLEN	TEXAS	78504-9634	US		Happy Birthday! Love you, Terry From Terry Pollock	false		
111-4560575-9700237	03987045747866	2020-05-25T20:17:33+00:00	2020-05-25T13:17:33-07:00	2020-05-25T20:41:14+00:00	2020-05-27T06:59:59+00:00	-1	tk173gwk72ybjzs@marketplace.amazon.com	Anne M Martorana	+1 347-448-3190 ext. 02733	ABR013	Purchase Now for Delivery by May 28 THU | Arabella Farm Direct Bouquet of 18 Fresh Cut Yellow Roses with a Free Glass Vase	1	0	1	SecondDay	Cecelia Underwood	141 GOLF CLUB LN			GROVE CITY	PA	16127-4355	US			false		
111-0987980-7325814	52008960082322	2020-05-25T20:13:02+00:00	2020-05-25T13:13:02-07:00	2020-05-25T20:42:06+00:00	2020-05-27T06:59:59+00:00	-1	8mcjd7316dzp4y0@marketplace.amazon.com	liz	+1 314-282-9402 ext. 60813	ABR004	Arabella Farm Direct Bouquet of 12 Fresh Cut Yellow Roses with a Free Glass Vase	1	0	1	SecondDay	Lina Maciunas and Jack Schmidt	34 MORGAN HILL DR			DOYLESTOWN	PA	18901-2980	US		Congrats on your new home and your marriage! We can’t wait to celebrate with you in person! From liz and brian	false		
112-3026690-3701009	65395002121834	2020-05-25T20:29:19+00:00	2020-05-25T13:29:19-07:00	2020-05-25T20:54:49+00:00	2020-05-27T06:59:59+00:00	-1	ww79x4mzywvg084@marketplace.amazon.com	Larry Reimann	+1 347-448-3190 ext. 04889	ABR0033	Purchase Now for Delivery by Thursday | Arabella Farm Direct Bouquet of 12 Fresh Cut Orange Roses with a Free Glass Vase	1	0	1	SecondDay	Dorothy Moss	605 3RD AVE			MIAMI	AZ	85539-9740	US		Happy 89th Birthday, Nana!! Wish we could be with you to celebrate! We love and miss you!  Love, Kimberly, Larry, Gabi, Natalie, and Curtis	false		
111-3256444-5262612	35000808801250	2020-05-25T20:36:53+00:00	2020-05-25T13:36:53-07:00	2020-05-25T20:56:16+00:00	2020-05-27T06:59:59+00:00	-1	d5thw5rvqc63qx7@marketplace.amazon.com	Trudy Arnett	+1 314-282-9402 ext. 66734	ABM002	Purchase Now for Delivery by Thursday | Arabella Bouquets Fresh Cut White Calla Lilies in a Free Designer Glass Vase	1	0	1	SecondDay	Khon Pickard	4406 RIDGE VIEW DR			KENT	OH	44240-7562	US		Dearest Khon, Victor & Mila Sending all our love now & always! You are in our hearts and prayers.  Love Trudy, Jason & Tyler	false		
113-3076023-3968231	59359493554570	2020-05-25T20:34:12+00:00	2020-05-25T13:34:12-07:00	2020-05-25T21:02:32+00:00	2020-05-27T06:59:59+00:00	-1	zbk1x1vyrfj9t3b@marketplace.amazon.com	Lee Flaster	+1 347-448-3190 ext. 02731	ABR0022	Purchase Now for Delivery by Thursday | Arabella Farm Direct Bouquet of 12 Fresh Cut Pink Roses with a Free Glass Vase	1	0	1	SecondDay	Rocio Milf Mayo	500 E LAS OLAS BLVD APT 3308			FORT LAUDERDALE	FL	33301-2586	US		HAPPY BIRTHDAY ROCIO!!! We love you and look forward to celebrating soon! LEE&MARIO From DUKE, DINO, FRANKIE, FRIJOLITO	false		
114-4292225-0522649	48231384680786	2020-05-25T20:43:41+00:00	2020-05-25T13:43:41-07:00	2020-05-25T21:12:49+00:00	2020-05-27T06:59:59+00:00	-1	nqsmylhgnfjycjt@marketplace.amazon.com	Patrick McCarthy	+1 347-448-3190 ext. 87057	ABR0022	Purchase Now for Delivery by Thursday | Arabella Farm Direct Bouquet of 12 Fresh Cut Pink Roses with a Free Glass Vase	1	0	1	SecondDay	Ashley McCarthy	25 BREWSTER AVE			BRAINTREE	MA	02184-8407	US			false		
111-1262630-4581067	09905399063362	2020-05-25T20:51:20+00:00	2020-05-25T13:51:20-07:00	2020-05-25T21:13:49+00:00	2020-05-27T06:59:59+00:00	-1	jn3p17g5c9b87jb@marketplace.amazon.com	Robert A Ochoa		ABR0022	Purchase Now for Delivery by Thursday | Arabella Farm Direct Bouquet of 12 Fresh Cut Pink Roses with a Free Glass Vase	1	0	1	SecondDay	Robert A Ochoa	92 W Eric Dorman Street			Vail	AZ	85641	US		Happy Anniversary! Love you, Bobby	false		
114-6584714-5867413	03202585369850	2020-05-25T21:07:41+00:00	2020-05-25T14:07:41-07:00	2020-05-26T00:11:20+00:00	2020-05-29T06:59:59+00:00	-3	fx4xfq39bfqk2yw@marketplace.amazon.com	Tish	+1 347-448-3190 ext. 60545	ABR001	Purchase Now for Delivery by Thursday | Arabella Bouquets 12 Stems of Fresh Cut Red Roses in a Free Designer Glass Vase	1	0	1	Expedited	letitia	29 LAUREL LN			TUCKERTON	NEW JERSEY	08087-9639	US			false		
111-1168434-7153004	26972708317250	2020-05-25T23:40:00+00:00	2020-05-25T16:40:00-07:00	2020-05-26T00:19:05+00:00	2020-05-27T06:59:59+00:00	-1	wf380fggbxt9g1j@marketplace.amazon.com	Phyllis petrolina	+1 314-282-9402 ext. 82690	ABR0055	Purchase Now for Delivery by Thursday | Arabella Farm Direct Bouquet of 12 Stems of Fresh Cut Hot Pink Roses in a Free Designer Glass Vase	1	0	1	SecondDay	Doris Petrolina	314 BRANDON RD # 3			NORRISTOWN	PA	19403-5502	US			false		
113-1487024-4237862	36831204335058	2020-05-25T23:55:47+00:00	2020-05-25T16:55:47-07:00	2020-05-26T00:30:45+00:00	2020-05-27T06:59:59+00:00	-1	kw7gkjxtd2v0n0b@marketplace.amazon.com	DR. ARNALDO REYES	+1 210-728-4548 ext. 38792	ABR0022	Purchase Now for Delivery by Thursday | Arabella Farm Direct Bouquet of 12 Fresh Cut Pink Roses with a Free Glass Vase	1	0	1	SecondDay	Sahily Reyes-Esteves	912 DUDLEY ST			PHILADELPHIA	PA	19148-2321	US			false		
111-0968558-3377060	39238287090282	2020-05-26T00:02:17+00:00	2020-05-25T17:02:17-07:00	2020-05-26T00:30:53+00:00	2020-05-27T06:59:59+00:00	-1	h69ddncrstq8xnt@marketplace.amazon.com	Alison	+1 763-225-9463 ext. 66936	ABM010	Purchase Now for Delivery by Thursday | Arabella Bouquets | Fields of The World Bouquet of Fresh Cut Flowers in a Free Designer Glass Vase	1	0	1	SecondDay	Brittany Konsoer	14541 TRIPP AVE			MIDLOTHIAN	IL	60445-2667	US		Happy birthday Britt! Love and miss you! From Ali, Danny, Conner and Charlotte	false		
112-0290166-7566609	66285224273338	2020-05-26T00:08:55+00:00	2020-05-25T17:08:55-07:00	2020-05-26T00:52:05+00:00	2020-05-29T06:59:59+00:00	-3	tqpf1sh3bk4vxxz@marketplace.amazon.com	Temitope Ogunfiditimi	+1 347-448-3190 ext. 28112	ABR001	Purchase Now for Delivery by Thursday | Arabella Bouquets 12 Stems of Fresh Cut Red Roses in a Free Designer Glass Vase	1	0	1	Expedited	Temitope Ogunfiditimi	101 KENNEDY ST NE			WASHINGTON	DC	20011-2425	US			false		
112-2489353-2941016	31124710485002	2020-05-25T23:00:48+00:00	2020-05-25T16:00:48-07:00	2020-05-26T00:54:08+00:00	2020-05-27T06:59:59+00:00	-1	t45dwrz3trl4c69@marketplace.amazon.com	Kelsey	+1 314-282-9402 ext. 46677	ABM010	Purchase Now for Delivery by Thursday | Arabella Bouquets | Fields of The World Bouquet of Fresh Cut Flowers in a Free Designer Glass Vase	1	0	1	SecondDay	Mary Schmidt	347 S NICHOLAS RD # 103A			NIXA	MO	65714-7174	US		We are so sorry for your loss. He was loved by so many. We love you and our hearts are with you everyday! From Kelsey, Mario and Your Grandkids	false		
113-0096335-5496262	42197286355970	2020-05-25T21:53:55+00:00	2020-05-25T14:53:55-07:00	2020-05-26T01:02:05+00:00	2020-05-27T06:59:59+00:00	-1	3hxyp4zqgpsp8g6@marketplace.amazon.com	Isaiah	+1 314-282-9402 ext. 79268	ABR0055	Purchase Now for Delivery by Thursday | Arabella Farm Direct Bouquet of 12 Stems of Fresh Cut Hot Pink Roses in a Free Designer Glass Vase	1	0	1	SecondDay	Celeste Reyes	701 BERKELEY LN			NEPTUNE	NJ	07753-4307	US		Enjoy your gift! From Isaiah	false		
112-9547356-0248226	36955003571770	2020-05-25T23:30:29+00:00	2020-05-25T16:30:29-07:00	2020-05-26T01:26:23+00:00	2020-05-27T06:59:59+00:00	-1	8rkh49c3b5gmkk2@marketplace.amazon.com	Alisa	+1 347-448-3190 ext. 13624	ABM010	Purchase Now for Delivery by Thursday | Arabella Bouquets | Fields of The World Bouquet of Fresh Cut Flowers in a Free Designer Glass Vase	1	0	1	SecondDay	Gloria Angon	1085 ORCHID ST			HEMET	CA	92545-4751	US		Enjoy your gift! Happy Birthday Mom!! From Love, Alisa, David, and kids	false		
113-8165657-0165800	47915632793522	2020-05-25T22:36:58+00:00	2020-05-25T15:36:58-07:00	2020-05-26T01:31:18+00:00	2020-05-27T06:59:59+00:00	-1	bmk1186l91x20dp@marketplace.amazon.com	JOHN DECOSTE	+1 347-448-3190 ext. 19455	ABR0033	Purchase Now for Delivery by Thursday | Arabella Farm Direct Bouquet of 12 Fresh Cut Orange Roses with a Free Glass Vase	1	0	1	SecondDay	Melanie Brown	6951 ROSWELL RD APT C			ATLANTA	GA	30328-2329	US		Mel, I'm super proud of how you've managed a really uncertain health journey! Here's to a new chapter of wellness and balance! Happy recovery!  Love,  Alicia From Alicia	false		
113-0894052-9898649	66266027941746	2020-05-25T22:19:05+00:00	2020-05-25T15:19:05-07:00	2020-05-26T01:31:34+00:00	2020-05-27T06:59:59+00:00	-1	dhg89kpmf6gn6nf@marketplace.amazon.com	Hong Li	+1 347-448-3190 ext. 97356	ABM010	Purchase Now for Delivery by Thursday | Arabella Bouquets | Fields of The World Bouquet of Fresh Cut Flowers in a Free Designer Glass Vase	1	0	1	SecondDay	Michael Cerny	1200 THOMAS PL			FORT WORTH	TX	76107-2430	US		Hi Michael, Warmest congratulations on your graduation! I am so proud of you, and I wish you happiness and success as you begin a new chapter in your life. From Hong Li	false		
112-2574782-4114628	24781024594282	2020-05-25T22:29:29+00:00	2020-05-25T15:29:29-07:00	2020-05-26T01:33:28+00:00	2020-05-27T06:59:59+00:00	-1	f7qcn900jlzhvz1@marketplace.amazon.com	Kenneth Joseph Brubaker	+1 347-448-3190 ext. 51999	ABR0022	Purchase Now for Delivery by Thursday | Arabella Farm Direct Bouquet of 12 Fresh Cut Pink Roses with a Free Glass Vase	1	0	1	SecondDay	Kenneth J. Brubaker	C724 County Road 7			Hamler	OH	43524-9733	US			false		
114-4078249-7549002	40349724887210	2020-05-25T21:29:53+00:00	2020-05-25T14:29:53-07:00	2020-05-26T01:34:25+00:00	2020-05-27T06:59:59+00:00	-1	92tjd592vckgnm8@marketplace.amazon.com	laura ors	+1 314-282-9402 ext. 11534	ABR0066	Purchase Now for Delivery by Thursday | Arabella Bouquets | 12 Stems of Fresh Cut White Roses in a Free Designer Glass Vase	1	0	1	SecondDay	Amelia Taveras	3148 CASTERTON DR			MELBOURNE	FL	32940-7598	US		Feliz día  de las madres!  Con cariño From OMG	false		
113-0232789-6077023	29332897465338	2020-05-25T22:31:30+00:00	2020-05-25T15:31:30-07:00	2020-05-26T01:34:59+00:00	2020-05-27T06:59:59+00:00	-1	jyg1s1kw1cmr6vk@marketplace.amazon.com	Janet Goddard	+1 210-728-4548 ext. 98168	ABM0044	Purchase Now for Delivery by Thursday | Arabella Farm Direct Bouquet of Fresh Cut Blue Hydrangea with a Free Glass Vase	1	0	1	SecondDay	Adrienne Mills	734 NATCHEZ TRACE DR			LEXINGTON	TN	38351-4128	US		With much LOVE & PRAYERS from your Georgia Family! We all Love you so dearly & miss you terribly! Get well & Hurry back soon! Chuck, Janet, Rick, Kellie, David, & Lisa From Janet Goddard	false		
114-9381013-3381054	61200755677538	2020-05-25T23:31:02+00:00	2020-05-25T16:31:02-07:00	2020-05-26T01:37:11+00:00	2020-05-27T06:59:59+00:00	-1	x4xlsznx3l2zkph@marketplace.amazon.com	Christine Cooper	+1 763-225-9463 ext. 63783	ABR0022	Purchase Now for Delivery by Thursday | Arabella Farm Direct Bouquet of 12 Fresh Cut Pink Roses with a Free Glass Vase	1	0	1	SecondDay	Pam Tompkins	104 RICH NECK RD			WILLIAMSBURG	VA	23185-3233	US		Dear Pam, I’m so sorry I missed your birthday. I hope it was happy and that you all are doing well.  Love, Christine From Christine Cooper	false		
112-6900236-5372244	14359985751954	2020-05-25T21:09:30+00:00	2020-05-25T14:09:30-07:00	2020-05-26T01:38:01+00:00	2020-05-27T06:59:59+00:00	-1	667zds02n0gnf8s@marketplace.amazon.com	Mayra Guevara	+1 314-282-9402 ext. 17001	ABM010	Purchase Now for Delivery by Thursday | Arabella Bouquets | Fields of The World Bouquet of Fresh Cut Flowers in a Free Designer Glass Vase	1	0	1	SecondDay	Mayra Guevara	11915 STONEHOLLOW DR APT 537			AUSTIN	TX	78758-3108	US			false		
114-1780868-3589047	11579967508754	2020-05-25T22:00:05+00:00	2020-05-25T15:00:05-07:00	2020-05-26T01:39:06+00:00	2020-05-27T06:59:59+00:00	-1	1r0xht72lfd2mtz@marketplace.amazon.com	Kim Warren	+1 347-448-3190 ext. 77235	ABM010	Purchase Now for Delivery by Thursday | Arabella Bouquets | Fields of The World Bouquet of Fresh Cut Flowers in a Free Designer Glass Vase	1	0	1	SecondDay	Julia Coolbroth	999 HOOD RD NE APT 218			MARIETTA	GA	30068-2277	US		Happy 100th Birthday Julia!  While we can't be there to celebrate with you, we hope you have a very special day! Love, John and Jenn Warren	false		
112-6633567-0151401	40238216642866	2020-05-25T22:35:41+00:00	2020-05-25T15:35:41-07:00	2020-05-26T01:45:05+00:00	2020-05-27T06:59:59+00:00	-1	kx0wt1kms0dghqg@marketplace.amazon.com	Joe R. Merkley	+1 347-448-3190 ext. 86345	ABM010	Purchase Now for Delivery by Thursday | Arabella Bouquets | Fields of The World Bouquet of Fresh Cut Flowers in a Free Designer Glass Vase	1	0	1	SecondDay	Scarlett Vera	10563 S SAGE CREEK RD			SOUTH JORDAN	UT	84009-3972	US		I hope these brighten your day. :)	false		
111-4115066-8797005	10755960400178	2020-05-26T00:04:54+00:00	2020-05-25T17:04:54-07:00	2020-05-26T01:51:23+00:00	2020-05-27T06:59:59+00:00	-1	2lf3zj1yp4gw616@marketplace.amazon.com	Sherry	+1 210-728-4548 ext. 57744	ABR0022	Purchase Now for Delivery by Thursday | Arabella Farm Direct Bouquet of 12 Fresh Cut Pink Roses with a Free Glass Vase	1	0	1	SecondDay	Emiliano Trejo	1210 E VIRGINIA AVE			VICTORIA	TX	77901-5449	US		Hello grandma  Enjoy your gift!  Happy birthday! From Sherry,Emiliano,Antonio,Diego,Tyler,Ryan and Chelsey	false		
113-4986629-0686652	44435580499066	2020-05-26T01:07:55+00:00	2020-05-25T18:07:55-07:00	2020-05-26T01:56:35+00:00	2020-05-27T06:59:59+00:00	-1	lcb1blt3c3d0kyr@marketplace.amazon.com	Joy K Layton	+1 314-282-9402 ext. 91253	ABM010	Purchase Now for Delivery by Thursday | Arabella Bouquets | Fields of The World Bouquet of Fresh Cut Flowers in a Free Designer Glass Vase	1	0	1	SecondDay	Missy Clay	86 PEQUOT LN			NEW CANAAN	CT	06840-2020	US		Missy, I hope your recovery is smooth.  I love you. Much love,  Joy From Joy Layton	false		
111-3931692-0185849	63305637401738	2020-05-26T01:32:00+00:00	2020-05-25T18:32:00-07:00	2020-05-26T02:01:17+00:00	2020-05-27T06:59:59+00:00	-1	ry0vdh7ddns49nd@marketplace.amazon.com	Polina Leapman	+1 347-448-3190 ext. 35075	ABR0066	Purchase Now for Delivery by Thursday | Arabella Bouquets | 12 Stems of Fresh Cut White Roses in a Free Designer Glass Vase	1	0	1	SecondDay	Matthew Guenther	1 DEVONSHIRE PL APT 2903			BOSTON	MA	02109-3538	US			false		
111-3931692-0185849	27830115228194	2020-05-26T01:32:00+00:00	2020-05-25T18:32:00-07:00	2020-05-26T02:01:17+00:00	2020-05-27T06:59:59+00:00	-1	ry0vdh7ddns49nd@marketplace.amazon.com	Polina Leapman	+1 347-448-3190 ext. 35075	ABR0033	Purchase Now for Delivery by Thursday | Arabella Farm Direct Bouquet of 12 Fresh Cut Orange Roses with a Free Glass Vase	1	0	1	SecondDay	Matthew Guenther	1 DEVONSHIRE PL APT 2903			BOSTON	MA	02109-3538	US			false		
113-3956999-3368203	43199176918250	2020-05-26T01:02:41+00:00	2020-05-25T18:02:41-07:00	2020-05-26T02:03:23+00:00	2020-05-27T06:59:59+00:00	-1	lz2r5x4s13bbktv@marketplace.amazon.com	David W Sloan	+1 347-448-3190 ext. 20459	ABR0033	Purchase Now for Delivery by Thursday | Arabella Farm Direct Bouquet of 12 Fresh Cut Orange Roses with a Free Glass Vase	1	0	1	SecondDay	Cortney George	9595 NE WATCH HILL DR			BAINBRIDGE ISLAND	WA	98110-4801	US		Hi friend, these are for the little girl in that picture who figured out how to light up her world! :) Love you! Heather From Heather Sloan	false		
113-5099504-5815456	32556141963626	2020-05-26T00:37:47+00:00	2020-05-25T17:37:47-07:00	2020-05-26T02:03:47+00:00	2020-05-27T06:59:59+00:00	-1	p9pw2dmtwcn98j5@marketplace.amazon.com	Cindy Howard	+1 347-448-3190 ext. 91913	ABM010	Purchase Now for Delivery by Thursday | Arabella Bouquets | Fields of The World Bouquet of Fresh Cut Flowers in a Free Designer Glass Vase	1	0	1	SecondDay	JODY THORNTON	1825 NATALIE PL			OXNARD	CA	93030-4712	US			false		
114-9175705-6297035	09418039222618	2020-05-25T21:19:04+00:00	2020-05-25T14:19:04-07:00	2020-05-26T02:05:26+00:00	2020-05-27T06:59:59+00:00	-1	gkrqn2yxhscvb0p@marketplace.amazon.com	Edie O Maney	+1 347-448-3190 ext. 04296	ABSR003	Arabella Bouquets Fresh Cut Yellow Spray Roses in a Free Designer Glass Vase	1	0	1	SecondDay	Judy Truitt	3519 WALTON WAY			SAN JOSE	CA	95117-2962	US		To our favorite sister... Your special color. Love, e & JRF From jerry and edie	false		
114-8860203-2026635	52378000660994	2020-05-25T22:59:30+00:00	2020-05-25T15:59:30-07:00	2020-05-26T02:16:42+00:00	2020-05-27T06:59:59+00:00	-1	n0kcyxd96j8tkk5@marketplace.amazon.com	Marissa Cripps	+1 210-728-4548 ext. 05011	ABM010	Purchase Now for Delivery by Thursday | Arabella Bouquets | Fields of The World Bouquet of Fresh Cut Flowers in a Free Designer Glass Vase	1	0	1	SecondDay	Debbie Banuelos	1513 LA ROSSA CIR			SAN JOSE	CA	95125-1222	US			false		
112-9122882-8925825	40380903077346	2020-05-25T23:27:17+00:00	2020-05-25T16:27:17-07:00	2020-05-26T02:19:58+00:00	2020-05-27T06:59:59+00:00	-1	gbjd0mwttyblk37@marketplace.amazon.com	art hammer	+1 347-448-3190 ext. 41303	ABM010	Purchase Now for Delivery by Thursday | Arabella Bouquets | Fields of The World Bouquet of Fresh Cut Flowers in a Free Designer Glass Vase	1	0	1	SecondDay	Brittany Widau	4372 HIGH ST			BROWNSBURG	IN	46112-8774	US			false		
111-7472735-7141847	02197905658234	2020-05-25T21:34:50+00:00	2020-05-25T14:34:50-07:00	2020-05-26T02:21:12+00:00	2020-05-27T06:59:59+00:00	-1	n7kpffkhlkd8qsj@marketplace.amazon.com	Rosa M. Zamora		ABR012	Purchase Now for Delivery by Thursday | Arabella Farm Direct Bouquet of 18 Fresh Cut Pink Roses with a Free Glass Vase	1	0	1	SecondDay	ROSA M ZAMORA	9246 S 44TH ST			FRANKLIN	WI	53132	US			false		
112-9012262-0802619	10917195437466	2020-05-25T21:39:12+00:00	2020-05-25T14:39:12-07:00	2020-05-26T02:25:06+00:00	2020-05-27T06:59:59+00:00	-1	ghplvtk28dn7d00@marketplace.amazon.com	Bill Chamberlin	+1 314-282-9402 ext. 15832	ABR0022	Purchase Now for Delivery by Thursday | Arabella Farm Direct Bouquet of 12 Fresh Cut Pink Roses with a Free Glass Vase	1	0	1	SecondDay	Paul & Carol Chamberlin	69 GROVE ST			LEIPSIC	OH	45856-1413	US		Happy Birthday Love Bill and Kathy From Bill Chamberlin	false		
113-9486902-5622611	45034792786314	2020-05-25T23:43:38+00:00	2020-05-25T16:43:38-07:00	2020-05-26T02:29:29+00:00	2020-05-27T06:59:59+00:00	-1	0lhgdwpknr9l0hm@marketplace.amazon.com	Amy Uplinger	+1 210-728-4548 ext. 50587	ABM010	Purchase Now for Delivery by Thursday | Arabella Bouquets | Fields of The World Bouquet of Fresh Cut Flowers in a Free Designer Glass Vase	1	0	1	SecondDay	Care for People	C/O DEB UPLINGER	220 S WOODBINE RD		SAINT JOSEPH	MO	64506-3447	US			false		
112-0014350-4369844	14476988155898	2020-05-26T02:11:40+00:00	2020-05-25T19:11:40-07:00	2020-05-26T02:31:30+00:00	2020-05-27T06:59:59+00:00	-1	68mhw71l5frxhhj@marketplace.amazon.com	Susan Wittrup	+1 347-448-3190 ext. 31454	ABR0055	Purchase Now for Delivery by Thursday | Arabella Farm Direct Bouquet of 12 Stems of Fresh Cut Hot Pink Roses in a Free Designer Glass Vase	1	0	1	SecondDay	Carin Monk	97 TIMBER BROOK CIR			DENISON	TX	75021-5911	US		Dearest Carin, With heartfelt condolences, please accept these roses as the hug I wish I could give you. Holding you close in my heart. Ingrid will be deeply missed. Love you always, Susan From Susan Wittrup	false		
113-2942057-7370622	27388714404322	2020-05-26T01:09:25+00:00	2020-05-25T18:09:25-07:00	2020-05-26T02:31:34+00:00	2020-05-27T06:59:59+00:00	-1	vc7505zvbw7nlll@marketplace.amazon.com	Larry Kent	+1 210-728-4548 ext. 89199	ABM010	Purchase Now for Delivery by Thursday | Arabella Bouquets | Fields of The World Bouquet of Fresh Cut Flowers in a Free Designer Glass Vase	1	0	1	SecondDay	Winsome Barnett	2612 RENEGADE DR			ORLANDO	FL	32818-2614	US		A token of appreciation for all you did for my mom. I hope your new job is going well!! Thanks again,  Larry Kent From Larry Kent	false		
114-9464144-6270640	29403806675610	2020-05-26T01:56:08+00:00	2020-05-25T18:56:08-07:00	2020-05-26T02:32:15+00:00	2020-05-27T06:59:59+00:00	-1	qkd1w5bwssjv6g2@marketplace.amazon.com	Timothy Hunter	+1 314-282-9402 ext. 31516	ABR013	Purchase Now for Delivery by May 28 THU | Arabella Farm Direct Bouquet of 18 Fresh Cut Yellow Roses with a Free Glass Vase	1	0	1	SecondDay	Jacqueline Bailey	1480 OLMSTED DR			BEAR	DE	19701-4958	US		We are so sorry about the loss of your wonderful father.  But we pray these roses make you smile today! Love Juanita and Debbie ❤️ From Juanita and Debbie	false		
113-8317310-7265005	04445455484098	2020-05-25T23:37:10+00:00	2020-05-25T16:37:10-07:00	2020-05-26T02:38:39+00:00	2020-05-29T06:59:59+00:00	-3	x82t5pf6484p371@marketplace.amazon.com	Naveen Kumaran	+1 347-448-3190 ext. 92767	ABR001	Purchase Now for Delivery by Thursday | Arabella Bouquets 12 Stems of Fresh Cut Red Roses in a Free Designer Glass Vase	1	0	1	Expedited	Tran	259 EISENHOWER DR			NASHVILLE	TN	37211-4030	US		Babe sweeter than sugar :nko<3: Thank you for all the food and sweet words. Really makes my day and is an instant pick me up :3 I'll treat you better food when you get here hehe. From Naveen	false		
112-3782404-3266642	52102109175970	2020-05-26T01:50:38+00:00	2020-05-25T18:50:38-07:00	2020-05-26T02:40:33+00:00	2020-05-27T06:59:59+00:00	-1	g07qzbj7wg34wgx@marketplace.amazon.com	Chas Wintermeyer	+1 763-225-9463 ext. 56133	ABR0022	Purchase Now for Delivery by Thursday | Arabella Farm Direct Bouquet of 12 Fresh Cut Pink Roses with a Free Glass Vase	1	0	1	SecondDay	Christine Juhl	7416 DOROTHY CT			SPRINGFIELD	VA	22153-1613	US		Dear Christine--  We hope you have a fun and happy retirement! From Nazli and Charlie Wintermeyer	false		
111-7164607-4358664	59832126816026	2020-05-25T23:15:08+00:00	2020-05-25T16:15:08-07:00	2020-05-26T02:41:45+00:00	2020-05-27T06:59:59+00:00	-1	prk274t42mt0mmz@marketplace.amazon.com	brady hickey	+1 347-448-3190 ext. 48443	ABM010	Purchase Now for Delivery by Thursday | Arabella Bouquets | Fields of The World Bouquet of Fresh Cut Flowers in a Free Designer Glass Vase	1	0	1	SecondDay	brady hickey	407 11TH ST NW			DODGE CENTER	MN	55927-2607	US		I miss you very much and can’t wait to see you!! From LOVE BRADY	false		
111-6149794-8393017	04944009560634	2020-05-26T00:28:25+00:00	2020-05-25T17:28:25-07:00	2020-05-26T02:43:53+00:00	2020-05-27T06:59:59+00:00	-1	nh13bpkmhx2j468@marketplace.amazon.com	Michelle Pent	+1 347-448-3190 ext. 26254	ABR0055	Purchase Now for Delivery by Thursday | Arabella Farm Direct Bouquet of 12 Stems of Fresh Cut Hot Pink Roses in a Free Designer Glass Vase	1	0	1	SecondDay	Dar Howerton	5328 TUCK RD			PADUCAH	KY	42001-9675	US		Happy Birthday Dar!  Here's to a fabulous day and celebration and more good things for this coming orbit around the sun.  I cherish our friendship and your humor, faith and spirit.  Love, Michelle and Xavier	false		
114-0181597-0642653	62846029304658	2020-05-25T21:26:18+00:00	2020-05-25T14:26:18-07:00	2020-05-26T02:46:06+00:00	2020-05-27T06:59:59+00:00	-1	92tjd592vckgnm8@marketplace.amazon.com	laura ors	+1 210-728-4548 ext. 19472	ABR0066	Purchase Now for Delivery by Thursday | Arabella Bouquets | 12 Stems of Fresh Cut White Roses in a Free Designer Glass Vase	1	0	1	SecondDay	Aimeé Castillos	9735 FONTAINEBLEAU BLVD APT 203			MIAMI	FL	33172-6714	US		Feliz día de las madres!  Con cariño From OMG	false		
112-0968229-5390654	18595655302154	2020-05-26T02:22:42+00:00	2020-05-25T19:22:42-07:00	2020-05-26T02:49:30+00:00	2020-05-27T06:59:59+00:00	-1	fhj89m0k6zgn2gd@marketplace.amazon.com	Staci Beckel	+1 314-282-9402 ext. 72932	ABR0055	Purchase Now for Delivery by Thursday | Arabella Farm Direct Bouquet of 12 Stems of Fresh Cut Hot Pink Roses in a Free Designer Glass Vase	1	0	1	SecondDay	Lia Beckel	506 6TH AVE NW			AUSTIN	MN	55912-2101	US		Happy birthday ERNIE!!! I love you with all my heart!! Thank you for being the best mother in the world! I AM SO BLESSED FOR YOU IN MY LIFE! Thank you for all your support! Have a great day you deserve it! I LOVE YOU! From Staci Beckel	false		
112-3507767-1592235	23891520135442	2020-05-26T02:25:10+00:00	2020-05-25T19:25:10-07:00	2020-05-26T02:51:56+00:00	2020-05-27T06:59:59+00:00	-1	jyn1tysqxdj155n@marketplace.amazon.com	Rafaela Viveiros	+1 210-728-4548 ext. 21554	ABM010	Purchase Now for Delivery by Thursday | Arabella Bouquets | Fields of The World Bouquet of Fresh Cut Flowers in a Free Designer Glass Vase	1	0	1	SecondDay	Rafaela Viveiros	3401 BRISTOL OXFORD VALLEY RD	APT I 13		LEVITTOWN	PA	19057-3526	US		Feliz aniversário honey. Te amo muito! S2 From Rafaela Viveiros	false		
113-1882691-8695457	40249869440434	2020-05-26T02:22:17+00:00	2020-05-25T19:22:17-07:00	2020-05-26T02:52:03+00:00	2020-05-27T06:59:59+00:00	-1	q9jznx34vzkct55@marketplace.amazon.com	Jordan Gold	+1 314-282-9402 ext. 31556	ABR0022	Purchase Now for Delivery by Thursday | Arabella Farm Direct Bouquet of 12 Fresh Cut Pink Roses with a Free Glass Vase	1	0	1	SecondDay	Shannon Nye	412 7TH ST			HUNTINGTON BEACH	CA	92648-4609	US		To the best teacher and girlfriend on the planet! I love you! From Jordan Gold	false		
114-9297545-7185834	54894997540090	2020-05-26T01:12:57+00:00	2020-05-25T18:12:57-07:00	2020-05-26T02:58:31+00:00	2020-05-27T06:59:59+00:00	-1	rqvfnpjs1yxcl3l@marketplace.amazon.com	Tanayasia Monay Smith	+1 314-282-9402 ext. 86621	ABR0022	Purchase Now for Delivery by Thursday | Arabella Farm Direct Bouquet of 12 Fresh Cut Pink Roses with a Free Glass Vase	1	0	1	SecondDay	Amanda Rivera	344 VAN NOSTRAND AVE			JERSEY CITY	NJ	07305-1309	US		Congratulations on graduating! You’ve worked very hard and I am beyond proud of you. Continue to be the brightest of them all. From Anonymous	false		
111-8688532-6379458	20765093017882	2020-05-26T02:30:55+00:00	2020-05-25T19:30:55-07:00	2020-05-26T02:59:22+00:00	2020-05-27T06:59:59+00:00	-1	69gt7m4xny3f0sf@marketplace.amazon.com	Jana Lacombe	+1 210-728-4548 ext. 06312	ABR0022	Purchase Now for Delivery by Thursday | Arabella Farm Direct Bouquet of 12 Fresh Cut Pink Roses with a Free Glass Vase	1	0	1	SecondDay	Linda Lacombe	8700 CATHEDRAL FOREST DR			FAIRFAX STATION	VA	22039-2751	US		Thanks Mom From  Lacombe	false		
113-6418746-9321840	69183518917082	2020-05-26T02:27:31+00:00	2020-05-25T19:27:31-07:00	2020-05-26T03:01:45+00:00	2020-05-27T06:59:59+00:00	-1	shbhfgyqj3v0jkx@marketplace.amazon.com	Terry Loge	+1 210-728-4548 ext. 23738	ABM002	Purchase Now for Delivery by Thursday | Arabella Bouquets Fresh Cut White Calla Lilies in a Free Designer Glass Vase	1	0	1	SecondDay	Terry Loge	11245 QUINTANA DR			EL PASO	TX	79936-1207	US			false		
114-6734525-2921858	03378839294394	2020-05-26T02:36:44+00:00	2020-05-25T19:36:44-07:00	2020-05-26T03:06:13+00:00	2020-05-27T06:59:59+00:00	-1	bw8vv6841mtq54r@marketplace.amazon.com	Jim Aiello	+1 210-728-4548 ext. 90832	ABR0022	Purchase Now for Delivery by Thursday | Arabella Farm Direct Bouquet of 12 Fresh Cut Pink Roses with a Free Glass Vase	1	0	1	SecondDay	Patricia Iwanyszyn	1030 MATHEWS AVE			UTICA	NY	13502-3714	US			false		
112-3386599-7640206	14109006149506	2020-05-26T02:25:38+00:00	2020-05-25T19:25:38-07:00	2020-05-26T03:14:31+00:00	2020-05-27T06:59:59+00:00	-1	w3xnnt95bsvnxp9@marketplace.amazon.com	rahel	+1 347-448-3190 ext. 78010	ABR004	Arabella Farm Direct Bouquet of 12 Fresh Cut Yellow Roses with a Free Glass Vase	1	0	1	SecondDay	Karen Huss	8616 AQUEDUCT RD			POTOMAC	MD	20854-6249	US		Wishing you warmest wishes to the wonderful two of you on your anniversary ❤ Rahel From RAHEL TAFESSE	false		
114-3502393-1593860	66212439235130	2020-05-26T03:11:19+00:00	2020-05-25T20:11:19-07:00	2020-05-26T03:39:19+00:00	2020-05-27T06:59:59+00:00	-1	wjqds7tvxyjwj8b@marketplace.amazon.com	Afroze rahman	+1 314-282-9402 ext. 34672	ABR014	Purchase Now for Delivery by Thursday | Arabella Bouquets 18 Stems of Fresh Cut White Roses in a Free Designer Glass Vase	1	0	1	SecondDay	Benaz Hossain Meyer	1802 MAPLE AVE UNIT A			AUSTIN	TX	78702-1436	US		Enjoy your gift!, I love you and I am sorry. From Shelly Hossain	false		
113-5203639-0015400	02460810258106	2020-05-26T01:13:56+00:00	2020-05-25T18:13:56-07:00	2020-05-26T03:44:36+00:00	2020-05-27T06:59:59+00:00	-1	h2pzcx132syxn2k@marketplace.amazon.com	Jath DiCecco	+1 347-448-3190 ext. 51387	ABR0022	Purchase Now for Delivery by Thursday | Arabella Farm Direct Bouquet of 12 Fresh Cut Pink Roses with a Free Glass Vase	1	0	1	SecondDay	Keonta Conner	11 COTTAGE GROVE DR			OXFORD	MS	38655-7381	US		Stay cute :)	false		
112-5419028-7714602	61299182830234	2020-05-25T23:57:10+00:00	2020-05-25T16:57:10-07:00	2020-05-26T03:47:19+00:00	2020-05-27T06:59:59+00:00	-1	vy7xjtcn2z0p3zg@marketplace.amazon.com	Greg	+1 347-448-3190 ext. 50396	ABR0022	Purchase Now for Delivery by Thursday | Arabella Farm Direct Bouquet of 12 Fresh Cut Pink Roses with a Free Glass Vase	1	0	1	SecondDay	NELRINE MORSON	1805 ROSWELL RD BLDG 19 APT E			MARIETTA	GA	30062-8910	US		I WILL ALWAYS LOVE YOU  SOMETHING TO BRIGHTENS  YOU DAY From Greg	false		
113-1620069-8989804	46474085626754	2020-05-26T03:22:05+00:00	2020-05-25T20:22:05-07:00	2020-05-26T03:50:25+00:00	2020-05-27T06:59:59+00:00	-1	j48nmx7hyvvtgpd@marketplace.amazon.com	Karl Frisch	+1 314-282-9402 ext. 18638	ABM010	Purchase Now for Delivery by Thursday | Arabella Bouquets | Fields of The World Bouquet of Fresh Cut Flowers in a Free Designer Glass Vase	1	0	1	SecondDay	Melissa Trevino	110 BROOKLINE RD APT B3			BALLSTON SPA	NY	12020-3590	US		No matter what problems we face we'll get through them together. Love you more	false		
111-7036503-1879441	67813994375018	2020-05-26T03:25:50+00:00	2020-05-25T20:25:50-07:00	2020-05-26T03:51:24+00:00	2020-05-27T06:59:59+00:00	-1	ccclxt6wq0cyw9n@marketplace.amazon.com	Cynthia Lance Houghton	+1 210-728-4548 ext. 39337	ABR0022	Purchase Now for Delivery by Thursday | Arabella Farm Direct Bouquet of 12 Fresh Cut Pink Roses with a Free Glass Vase	1	0	1	SecondDay	Barbara Summerfield	BIRTHDAY GIRL	38130 LOCUST GROVE RD		REEDSVILLE	OH	45772-9802	US		Happy Birthday to my precious sister ❤️ I love you 💕	false		
112-5046296-1583453	17918867361234	2020-05-26T03:43:33+00:00	2020-05-25T20:43:33-07:00	2020-05-26T04:02:04+00:00	2020-05-27T06:59:59+00:00	-1	rw9jth6vdvq2qrq@marketplace.amazon.com	bonnielantz	+1 314-282-9402 ext. 29025	ABR012	Purchase Now for Delivery by Thursday | Arabella Farm Direct Bouquet of 18 Fresh Cut Pink Roses with a Free Glass Vase	1	0	1	SecondDay	Betty Monello	5509 SHOUP AVE			WOODLAND HILLS	CA	91367-4465	US		BETTY,  HOPE THINGS GO WELL ON FRIDAY. I’LL BE THINKING OF YOU LOVE, BON 💖👩‍❤️‍👩🌺 From bonnielantz	false		
113-2653637-9430663	56357868060674	2020-05-25T22:45:40+00:00	2020-05-25T15:45:40-07:00	2020-05-26T04:08:37+00:00	2020-05-27T06:59:59+00:00	-1	nd0bg6gmxq684wq@marketplace.amazon.com	Alejandro	+1 210-728-4548 ext. 02053	ABR0055	Purchase Now for Delivery by Thursday | Arabella Farm Direct Bouquet of 12 Stems of Fresh Cut Hot Pink Roses in a Free Designer Glass Vase	1	0	1	SecondDay	Anahi Vazquez	1930 VILLANUEVA CT			CALEXICO	CA	92231-9784	US		Te amo hermosa	false		
112-4311567-9222658	67407652822170	2020-05-25T20:39:10+00:00	2020-05-25T13:39:10-07:00	2020-05-26T04:08:49+00:00	2020-05-27T06:59:59+00:00	-1	ctx6fzz3q4zdkdv@marketplace.amazon.com	non	+1 210-728-4548 ext. 38878	ABM010	Purchase Now for Delivery by Thursday | Arabella Bouquets | Fields of The World Bouquet of Fresh Cut Flowers in a Free Designer Glass Vase	1	0	1	SecondDay	Liliana Pérez	148 Emily Laurel Trl.			Pikeville	TN	37367	US			false		
113-3260272-5490660	28866644926498	2020-05-26T01:51:11+00:00	2020-05-25T18:51:11-07:00	2020-05-26T04:12:30+00:00	2020-05-27T06:59:59+00:00	-1	k6x6v481j3tprvm@marketplace.amazon.com	Brad Hunter	+1 347-448-3190 ext. 22676	ABM010	Purchase Now for Delivery by Thursday | Arabella Bouquets | Fields of The World Bouquet of Fresh Cut Flowers in a Free Designer Glass Vase	1	0	1	SecondDay	Brad Hunter	5200 SUMMIT RIDGE DR APT 1022			RENO	NV	89523-9026	US			false		
111-1056942-8470651	43469474746074	2020-05-25T21:46:42+00:00	2020-05-25T14:46:42-07:00	2020-05-26T04:13:16+00:00	2020-05-27T06:59:59+00:00	-1	48z677lzxkb2x11@marketplace.amazon.com	Katie	+1 347-448-3190 ext. 80717	ABM010	Purchase Now for Delivery by Thursday | Arabella Bouquets | Fields of The World Bouquet of Fresh Cut Flowers in a Free Designer Glass Vase	1	0	1	SecondDay	Katie McArthur	6726 CAMBRIDGE CT			SUMMERSET	SD	57718-6701	US			false		
114-0900398-8837053	61203742844418	2020-05-26T03:38:44+00:00	2020-05-25T20:38:44-07:00	2020-05-26T04:18:31+00:00	2020-05-27T06:59:59+00:00	-1	1gqj9tg5gl7c6mb@marketplace.amazon.com	zack	+1 347-448-3190 ext. 74777	ABM0044	Purchase Now for Delivery by Thursday | Arabella Farm Direct Bouquet of Fresh Cut Blue Hydrangea with a Free Glass Vase	1	0	1	SecondDay	Mika Alimova	18 COBBS CREEK WAY			LAS VEGAS	NV	89148-4434	US		Just know. From Z	false		
113-2691807-5284222	17212360764778	2020-05-25T23:15:04+00:00	2020-05-25T16:15:04-07:00	2020-05-26T04:20:11+00:00	2020-05-29T06:59:59+00:00	-3	z2h247tlhkl5gdm@marketplace.amazon.com	Indira Gajula	+1 210-728-4548 ext. 95036	ABR001	Purchase Now for Delivery by Thursday | Arabella Bouquets 12 Stems of Fresh Cut Red Roses in a Free Designer Glass Vase	1	0	1	Expedited	Amulya Vallabhaneni	104 MACEDON CT			SAN RAMON	CA	94582-2574	US			false		
111-5021468-5073813	37417814633666	2020-05-26T04:19:34+00:00	2020-05-25T21:19:34-07:00	2020-05-26T04:47:45+00:00	2020-05-27T06:59:59+00:00	-1	7t6dwwz7zb2ry7q@marketplace.amazon.com	Scott L Tate	+1 314-282-9402 ext. 00426	ABR0022	Purchase Now for Delivery by Thursday | Arabella Farm Direct Bouquet of 12 Fresh Cut Pink Roses with a Free Glass Vase	1	0	1	SecondDay	Amanda Tate	7312 REDHAWK CT			NORTH RICHLAND HILLS	TX	76180-6380	US		Because you are amazing and I’m thinking of you. From Scott L Tate	false		
112-4204955-4616222	39887706772682	2020-05-26T04:22:15+00:00	2020-05-25T21:22:15-07:00	2020-05-26T04:52:24+00:00	2020-05-27T06:59:59+00:00	-1	4zpylb03tvddv74@marketplace.amazon.com	drew collins	+1 347-448-3190 ext. 57702	ABR0055	Purchase Now for Delivery by Thursday | Arabella Farm Direct Bouquet of 12 Stems of Fresh Cut Hot Pink Roses in a Free Designer Glass Vase	1	0	1	SecondDay	Jennifer Marie Washington	1806 OAK CREEK LN APT C			BEDFORD	TX	76022-8917	US			false		
113-9293910-0761843	05970439113754	2020-05-25T23:58:30+00:00	2020-05-25T16:58:30-07:00	2020-05-26T05:00:50+00:00	2020-05-27T06:59:59+00:00	-1	yfqkzln2f2ddj8m@marketplace.amazon.com	sheiladouglas@comcast.net	+1 347-448-3190 ext. 45711	ABM010	Purchase Now for Delivery by Thursday | Arabella Bouquets | Fields of The World Bouquet of Fresh Cut Flowers in a Free Designer Glass Vase	1	0	1	SecondDay	Hannah Spiro	1649 GALES ST NE  E			WASHINGTON	DC	20002-4523	US		Hi Hannah, Happy happy 30th With love from Sheila and ken	false		
112-7178203-5422659	27430603235354	2020-05-25T22:02:15+00:00	2020-05-25T15:02:15-07:00	2020-05-26T05:02:14+00:00	2020-05-27T06:59:59+00:00	-1	fwrsn1skj8t6sy6@marketplace.amazon.com	S.J.R. van Schaik	+1 314-282-9402 ext. 47229	ABM010	Purchase Now for Delivery by Thursday | Arabella Bouquets | Fields of The World Bouquet of Fresh Cut Flowers in a Free Designer Glass Vase	1	0	1	SecondDay	Stephan van Schaik	1843 POINTE CROSSING ST APT 203			ANN ARBOR	MI	48105-2182	US			false		
111-9651088-0013826	51793343461458	2020-05-26T04:34:36+00:00	2020-05-25T21:34:36-07:00	2020-05-26T05:05:10+00:00	2020-05-27T06:59:59+00:00	-1	y9lz46xpwky3mpb@marketplace.amazon.com	Audra D Myerchin	+1 412-532-4665 ext. 69664	ABM0033	Purchase Now for Delivery by Thursday | Arabella Farm Direct Bouquet of Fresh Cut White Hydrangea with a Free Glass Vase	1	0	1	SecondDay	Thomas Elledge/Mom's Bday	205 19TH ST SE			RIO RANCHO	NM	87124-2464	US			false		
114-4495891-6609028	48315986727994	2020-05-26T02:07:42+00:00	2020-05-25T19:07:42-07:00	2020-05-26T05:21:19+00:00	2020-05-27T06:59:59+00:00	-1	x93z0xs4qdf09g9@marketplace.amazon.com	juan manuel	+1 347-448-3190 ext. 34557	ABR0022	Purchase Now for Delivery by Thursday | Arabella Farm Direct Bouquet of 12 Fresh Cut Pink Roses with a Free Glass Vase	1	0	1	SecondDay	Marisol Rodriguez	1438 SHERIDAN ST NW	WASHINGTON D C		WASHINGTON	DC	20011-8015	US		QUERIDA MARISOL FELIZ CUMPLEAÑOS! COMO NO PODEMOS LLEGAR A TU CASA PARA SALUDARTE, ENVIAMOS EN REPRESENTACIÓN DE NUESTRA FAMILIA, ESTAS FLORES, QUE EXPRESAN NUESTRO APRECIO POR TI Y AGRADECIMIENTO POR SER PARTE DE NUESTRA VIDA!! MANOLO PAME FCO Y NOE	false		
111-0832215-8117037	54152903496778	2020-05-26T01:51:10+00:00	2020-05-25T18:51:10-07:00	2020-05-26T05:26:47+00:00	2020-05-27T06:59:59+00:00	-1	304b021zz0kgg04@marketplace.amazon.com	Mike Huddleston	+1 314-282-9402 ext. 22365	ABM010	Purchase Now for Delivery by Thursday | Arabella Bouquets | Fields of The World Bouquet of Fresh Cut Flowers in a Free Designer Glass Vase	1	0	1	SecondDay	Stephanie moore	658 WILD FLOWER DR			WAYLAND	MI	49348-1390	US			false		
111-1238401-3312227	02844012716402	2020-05-26T00:25:11+00:00	2020-05-25T17:25:11-07:00	2020-05-26T05:38:17+00:00	2020-05-29T06:59:59+00:00	-3	rxpynby6y1c9txh@marketplace.amazon.com	Lin Moore	+1 314-282-9402 ext. 78581	ABR001	Purchase Now for Delivery by Thursday | Arabella Bouquets 12 Stems of Fresh Cut Red Roses in a Free Designer Glass Vase	1	0	1	Expedited	Anne Brooks	3233 NE 34TH ST APT 314			FT LAUDERDALE	FL	33308-6937	US		Happy Birthday, Naz!  Love, Bob and Lin	false		
111-5444076-1741033	22149348028994	2020-05-26T05:22:58+00:00	2020-05-25T22:22:58-07:00	2020-05-26T05:52:04+00:00	2020-05-27T06:59:59+00:00	-1	d727hcp2b46c9vp@marketplace.amazon.com	Jarrod	+1 210-728-4548 ext. 95243	ABM010	Purchase Now for Delivery by Thursday | Arabella Bouquets | Fields of The World Bouquet of Fresh Cut Flowers in a Free Designer Glass Vase	1	0	1	SecondDay	Ashley Smith	197 TRENTON CT			RAEFORD	NC	28376-7441	US			false		
114-6471921-4349051	53344426669058	2020-05-26T05:52:56+00:00	2020-05-25T22:52:56-07:00	2020-05-26T06:23:16+00:00	2020-05-27T06:59:59+00:00	-1	hzz14b041qzn19t@marketplace.amazon.com	Joshua Oxentenko	+1 210-728-4548 ext. 58803	ABM010	Purchase Now for Delivery by Thursday | Arabella Bouquets | Fields of The World Bouquet of Fresh Cut Flowers in a Free Designer Glass Vase	1	0	1	SecondDay	Lorinda Guptar Fields	105 MILITIA CT			YORKTOWN	VA	23693-4634	US			false		
112-3214592-0094610	18181117299130	2020-05-26T06:00:29+00:00	2020-05-25T23:00:29-07:00	2020-05-26T06:29:00+00:00	2020-05-27T06:59:59+00:00	-1	8hcfbtqczhzk6fj@marketplace.amazon.com	Stella Hahm	+1 314-282-9402 ext. 05581	ABR0022	Purchase Now for Delivery by Thursday | Arabella Farm Direct Bouquet of 12 Fresh Cut Pink Roses with a Free Glass Vase	1	0	1	SecondDay	Star	7860 S ZIMMERMAN RD			CANBY	OR	97013-7503	US		:) From S	false		
112-4882275-5505836	57217858754242	2020-05-26T07:28:13+00:00	2020-05-26T00:28:13-07:00	2020-05-26T07:54:24+00:00	2020-05-27T06:59:59+00:00	-1	3v5ptsz94tzvds2@marketplace.amazon.com	Angelove Alcinous	+1 314-282-9402 ext. 49277	ABR0022	Purchase Now for Delivery by Thursday | Arabella Farm Direct Bouquet of 12 Fresh Cut Pink Roses with a Free Glass Vase	1	0	1	SecondDay	Florence Alcinois	120 WOODROW AVE			DORCHESTER	MA	02124-3242	US			false		
112-9299303-6294606	59383464480322	2020-05-26T07:42:31+00:00	2020-05-26T00:42:31-07:00	2020-05-26T08:07:42+00:00	2020-05-27T06:59:59+00:00	-1	lfy9lvjy23fxcd7@marketplace.amazon.com	Rita	+1 314-282-9402 ext. 81406	ABR0066	Purchase Now for Delivery by Thursday | Arabella Bouquets | 12 Stems of Fresh Cut White Roses in a Free Designer Glass Vase	1	0	1	SecondDay	Tyresa Leader	4715 FLEMING AVE APT # 1			OAKLAND	CA	94619-2568	US		Happy Birthday Beautiful! Enjoy your roses! From Syreeta	false		
114-3276409-1049839	35835720529066	2020-05-26T08:33:52+00:00	2020-05-26T01:33:52-07:00	2020-05-26T09:02:54+00:00	2020-05-27T06:59:59+00:00	-1	zx24x7tpbnxx7jg@marketplace.amazon.com	yukiko obata	+1 347-448-3190 ext. 68831	ABR0022	Purchase Now for Delivery by Thursday | Arabella Farm Direct Bouquet of 12 Fresh Cut Pink Roses with a Free Glass Vase	1	0	1	SecondDay	Naoko Turkel	230 W COURT ST			DOYLESTOWN	PA	18901-4108	US			false		
113-4481502-8457831	11206962373594	2020-05-26T08:35:51+00:00	2020-05-26T01:35:51-07:00	2020-05-26T09:04:12+00:00	2020-05-27T06:59:59+00:00	-1	9yh1dp1nmzn0jxp@marketplace.amazon.com	kjell yadon	+1 314-282-9402 ext. 41393	ABR0022	Purchase Now for Delivery by Thursday | Arabella Farm Direct Bouquet of 12 Fresh Cut Pink Roses with a Free Glass Vase	1	0	1	SecondDay	Kjell Yadon	4198 SE 16TH ST			GRESHAM	OR	97080-6184	US		Happy Birthday Grandma! We love you and miss you! Please enjoy your special day! Love,  Kjell, Kiyo & Kole	false		
113-3243199-0026668	18723169992138	2020-05-26T08:51:40+00:00	2020-05-26T01:51:40-07:00	2020-05-26T09:22:10+00:00	2020-05-27T06:59:59+00:00	-1	4tytvmmwjmt8n87@marketplace.amazon.com	KUOCHI FAN	+1 347-448-3190 ext. 70285	ABR0022	Purchase Now for Delivery by Thursday | Arabella Farm Direct Bouquet of 12 Fresh Cut Pink Roses with a Free Glass Vase	1	0	1	SecondDay	KUOCHI FAN	4119 RENNELLWOOD WAY			PLEASANTON	CA	94566-4723	US			false		
114-9630082-8058669	46542250868834	2020-05-26T08:10:45+00:00	2020-05-26T01:10:45-07:00	2020-05-26T10:14:48+00:00	2020-05-27T06:59:59+00:00	-1	m5vfwm814w582r8@marketplace.amazon.com	Ellis Seneca	+1 347-448-3190 ext. 02945	ABR0022	Purchase Now for Delivery by Thursday | Arabella Farm Direct Bouquet of 12 Fresh Cut Pink Roses with a Free Glass Vase	1	0	1	SecondDay	Ellis Seneca	65425 BAYOU RD			PLAQUEMINE	LA	70764-5939	US			false		
113-2989785-8351425	65706975614922	2020-05-26T10:29:07+00:00	2020-05-26T03:29:07-07:00	2020-05-26T10:56:41+00:00	2020-05-27T06:59:59+00:00	-1	45fd5f6b3szh4sr@marketplace.amazon.com	MA LE	+1 347-448-3190 ext. 68913	ABR0022	Purchase Now for Delivery by Thursday | Arabella Farm Direct Bouquet of 12 Fresh Cut Pink Roses with a Free Glass Vase	1	0	1	SecondDay	Li LiaoLiao	8853 COLEBROOK RD			BREINIGSVILLE	PA	18031-1476	US			false		
112-8146804-8695435	17954972863522	2020-05-26T09:52:51+00:00	2020-05-26T02:52:51-07:00	2020-05-26T11:05:22+00:00	2020-05-30T06:59:59+00:00	-4	1rlhb1w77vcw1sy@marketplace.amazon.com	Simon	+1 314-282-9402 ext. 86726	ABR001	Purchase Now for Delivery by Thursday | Arabella Bouquets 12 Stems of Fresh Cut Red Roses in a Free Designer Glass Vase	1	0	1	Expedited	Emerald  ARRIOLA	HOUSE 4932 CALMVIEW AVE			BALDWIN PARK	CA	91706-1954	US		Enjoy your gift my love,,, Have a happy birthday I love you so much. From Fred Maldini	false		
112-6497487-7390628	68901130029674	2020-05-26T10:58:48+00:00	2020-05-26T03:58:48-07:00	2020-05-26T11:19:42+00:00	2020-05-27T06:59:59+00:00	-1	wht5rhb1j65zbbv@marketplace.amazon.com	Elizabeth Romito	+1 210-728-4548 ext. 43397	ABR0022	Purchase Now for Delivery by Thursday | Arabella Farm Direct Bouquet of 12 Fresh Cut Pink Roses with a Free Glass Vase	1	0	1	SecondDay	Courtney Chappel	1911 E CENTRAL BLVD			ORLANDO	FL	32803-5905	US			false		
112-1645004-9673033	28653923306194	2020-05-26T11:06:31+00:00	2020-05-26T04:06:31-07:00	2020-05-26T11:29:17+00:00	2020-05-27T06:59:59+00:00	-1	wssbct5pztf1wzc@marketplace.amazon.com	Gail Skolek	+1 347-448-3190 ext. 58790	ABM010	Purchase Now for Delivery by Thursday | Arabella Bouquets | Fields of The World Bouquet of Fresh Cut Flowers in a Free Designer Glass Vase	1	0	1	SecondDay	Mary Hoveln	2304A COUNTY ROAD 3000 N APT 202			GIFFORD	IL	61847-9794	US		Happy Birthday Mom, we love you!  These flowers reminded us of you!! So beautiful and bright. May God pour out his love upon you and reveal to you what a blessing you are! From Your girls ❤️❤️	false		
111-1727808-5956223	46892049332338	2020-05-26T11:35:20+00:00	2020-05-26T04:35:20-07:00	2020-05-26T12:04:45+00:00	2020-05-27T06:59:59+00:00	-1	bql2bls49prslwz@marketplace.amazon.com	Missy Tuttle Ferrio	+1 763-225-9463 ext. 43211	ABM010	Purchase Now for Delivery by Thursday | Arabella Bouquets | Fields of The World Bouquet of Fresh Cut Flowers in a Free Designer Glass Vase	1	0	1	SecondDay	Mary Lou Schultz	4378 TOWNLINE RD			LOCKPORT	NY	14094-9714	US		Happy Birthday to the world’s best mother! I love you!!! From Missy	false		
111-5908793-7028224	18317767523554	2020-05-26T12:08:21+00:00	2020-05-26T05:08:21-07:00	2020-05-26T12:32:02+00:00	2020-05-30T06:59:59+00:00	-4	8661l8z8m435kxy@marketplace.amazon.com	Shelly Cloud	+1 210-728-4548 ext. 34222	ABR0022	Purchase Now for Delivery by Thursday | Arabella Farm Direct Bouquet of 12 Fresh Cut Pink Roses with a Free Glass Vase	1	0	1	Expedited	Martina Becker	11 KINGSLAND AVE			HARRISON	NJ	07029-1665	US		Happy Birthday, Martina! I hope you're birthday is BestOOO, just like you! From Sean	false		
114-5396308-8289028	47797047846122	2020-05-26T12:09:40+00:00	2020-05-26T05:09:40-07:00	2020-05-26T12:33:33+00:00	2020-05-27T06:59:59+00:00	-1	xc3glsjmstspkvy@marketplace.amazon.com	Alec Wasilewski	+1 314-282-9402 ext. 61137	ABR004	Arabella Farm Direct Bouquet of 12 Fresh Cut Yellow Roses with a Free Glass Vase	1	0	1	SecondDay	Alec Wasilewski	11 BENNETT RD			SPOFFORD	NH	03462-3850	US		Happy Mother's Day   Love, Alec	false		
112-6019268-1362660	02867812403242	2020-05-26T12:26:03+00:00	2020-05-26T05:26:03-07:00	2020-05-26T12:55:35+00:00	2020-05-27T06:59:59+00:00	-1	1s9zphw2tl65r5n@marketplace.amazon.com	Bill Smith	+1 347-448-3190 ext. 26203	ABR0055	Purchase Now for Delivery by Thursday | Arabella Farm Direct Bouquet of 12 Stems of Fresh Cut Hot Pink Roses in a Free Designer Glass Vase	1	0	1	SecondDay	Linda Smith	5713 COUNTY ROAD 31			KILLEN	AL	35645-6607	US		Thought you might need a replacement. From Chris Smith	false		
114-6928090-8434637	42519886922306	2020-05-26T12:27:40+00:00	2020-05-26T05:27:40-07:00	2020-05-26T12:55:35+00:00	2020-05-27T06:59:59+00:00	-1	j03ckcztv1vcvks@marketplace.amazon.com	Joshua A Knight	+1 314-282-9402 ext. 65379	ABM010	Purchase Now for Delivery by Thursday | Arabella Bouquets | Fields of The World Bouquet of Fresh Cut Flowers in a Free Designer Glass Vase	1	0	1	SecondDay	Brenda Watts	3457 INDIAN LAKE LN			PELHAM	AL	35124-2715	US			false		
111-9469904-0672251	06872312839306	2020-05-26T12:30:06+00:00	2020-05-26T05:30:06-07:00	2020-05-26T12:56:53+00:00	2020-05-27T06:59:59+00:00	-1	wrl0d9k45cxr0lj@marketplace.amazon.com	Daniel Tomlinson	+1 314-282-9402 ext. 16467	ABM0033	Purchase Now for Delivery by Thursday | Arabella Farm Direct Bouquet of Fresh Cut White Hydrangea with a Free Glass Vase	1	0	1	SecondDay	Anne Raible	99 N ARCH ST			JOHNSON CITY	NY	13790-1427	US		Happy Birthday to my kind, funny, and beautiful lifelong friend. I hope you have the most amazing year ahead! XO love you Annette From Annette Tomlinson	false		
114-9737179-7080222	50201538824522	2020-05-23T18:56:35+00:00	2020-05-23T11:56:35-07:00	2020-05-26T13:20:40+00:00	2020-05-27T06:59:59+00:00	-1	8xlf691yt6q1yv8@marketplace.amazon.com	Lex Sheehan	+1 314-282-9402 ext. 98226	ABR001	Arabella Bouquets 12 Stems of Fresh Cut Red Roses in a Free Designer Glass Vase	1	0	1	SecondDay	Lex Sheehan	1203 ASHFORD PKWY			DUNWOODY	GA	30338-5546	US		Congratulations!  Love, Mimi & Lex	false		
114-0266879-8574621	24891882474506	2020-05-26T12:52:30+00:00	2020-05-26T05:52:30-07:00	2020-05-26T13:21:16+00:00	2020-05-27T06:59:59+00:00	-1	24zb98lcxz1j3vg@marketplace.amazon.com	Londa Benjamini	713304303o	ABR013	Purchase Now for Delivery by May 28 THU | Arabella Farm Direct Bouquet of 18 Fresh Cut Yellow Roses with a Free Glass Vase	1	0	1	SecondDay	Lisa Benjamini	5 HUNTERS RIDGE CT			HOUSTON	TX	77024-7635	US		Thinking of you Love Mom From Londa Benjamini	false		
113-5055409-3773029	40333433024338	2020-05-26T12:55:41+00:00	2020-05-26T05:55:41-07:00	2020-05-26T13:23:50+00:00	2020-05-30T06:59:59+00:00	-4	7tps1sr23qbck3x@marketplace.amazon.com	Merry Ross	+1 347-448-3190 ext. 37947	ABR001	Purchase Now for Delivery by Thursday | Arabella Bouquets 12 Stems of Fresh Cut Red Roses in a Free Designer Glass Vase	1	0	1	Expedited	Jane Edwards	3304 SECRETARIAT WAY			ABERDEEN	NC	28315-3671	US			false		
113-3611121-5027415	08874431025386	2020-05-26T13:02:15+00:00	2020-05-26T06:02:15-07:00	2020-05-26T13:30:35+00:00	2020-05-29T06:59:59+00:00	-3	gpplld05kvw9fy8@marketplace.amazon.com	edwin lefkovitz	+1 210-728-4548 ext. 56096	ABR0022	Purchase Now for Delivery by Friday | Arabella Farm Direct Bouquet of 12 Fresh Cut Pink Roses with a Free Glass Vase	1	0	1	Expedited	Christa Kakaeltris	114 S TOWNSEND ST			NEW BUFFALO	MI	49117-1459	US		Christa hope you have an amazing day filled with love and happiness Happy Birthday   Love Ed,Sweetie June Lauren Jackie From edwin lefkovitz	false		
111-5969233-0925054	32985859677394	2020-05-26T13:05:53+00:00	2020-05-26T06:05:53-07:00	2020-05-26T13:34:33+00:00	2020-05-27T06:59:59+00:00	-1	sc3dsvk1rs20xtg@marketplace.amazon.com	george wessell	+1 314-282-9402 ext. 17019	ABR0055	Purchase Now for Delivery by Thursday | Arabella Farm Direct Bouquet of 12 Stems of Fresh Cut Hot Pink Roses in a Free Designer Glass Vase	1	0	1	SecondDay	Julia Draper	94 SIMONSON PL			STATEN ISLAND	NEW YORK	10302-1816	US		Happy Birthday Mom, Love. Judy and George	false		
114-3022019-1495452	16068718924418	2020-05-26T13:13:42+00:00	2020-05-26T06:13:42-07:00	2020-05-26T13:39:03+00:00	2020-05-27T06:59:59+00:00	-1	r6ps27mm4l3cbjr@marketplace.amazon.com	Christopher M Frankle	+1 314-282-9402 ext. 28150	ABR0066	Purchase Now for Delivery by Thursday | Arabella Bouquets | 12 Stems of Fresh Cut White Roses in a Free Designer Glass Vase	1	0	1	SecondDay	Beatrice Hill	4318 HILLDALE AVE			MEMPHIS	TENNESSEE	38117-1622	US		Grandma, Happy Birthday!! I wish I was there to celebrate with you 101 years young!!! Love, Ashleigh, Chris, Avery & Christopher From Christopher M Frankle	false		
112-0372001-0240269	62339473733874	2020-05-26T13:33:55+00:00	2020-05-26T06:33:55-07:00	2020-05-26T13:55:41+00:00	2020-05-27T06:59:59+00:00	-1	bk60d0yywpm4kf9@marketplace.amazon.com	Sam Neisner	+1 763-225-9463 ext. 59669	ABR012	Purchase Now for Delivery by Thursday | Arabella Farm Direct Bouquet of 18 Fresh Cut Pink Roses with a Free Glass Vase	1	0	1	SecondDay	Roberta Parker	3544 BIRDFIELD CT			LELAND	NC	28451-1898	US		Hi Roberta, Enjoy the Big 80! From Paula and Sam	false		
111-9986954-2721043	55972357606986	2020-05-26T13:34:27+00:00	2020-05-26T06:34:27-07:00	2020-05-26T14:02:47+00:00	2020-05-27T06:59:59+00:00	-1	x62hltf00jtws1h@marketplace.amazon.com	Thomas William Martineau	+1 347-448-3190 ext. 33090	ABM010	Purchase Now for Delivery by Thursday | Arabella Bouquets | Fields of The World Bouquet of Fresh Cut Flowers in a Free Designer Glass Vase	1	0	1	SecondDay	Zoe Martineau	427 BAHIA BEACH BLVD			RUSKIN	FL	33570-3053	US			false		
114-8839597-8346667	69740178501114	2020-05-26T13:36:32+00:00	2020-05-26T06:36:32-07:00	2020-05-26T14:05:22+00:00	2020-05-27T06:59:59+00:00	-1	jpdqpz92ywwjv34@marketplace.amazon.com	Amy Thompson	+1 314-282-9402 ext. 98612	ABM0044	Purchase Now for Delivery by Thursday | Arabella Farm Direct Bouquet of Fresh Cut Blue Hydrangea with a Free Glass Vase	1	0	1	SecondDay	Dawn Smith	5226 MAKATI CIR			SAN JOSE	CA	95123-6244	US		Happy Birthday, Dawn! Sorry we're so late. Hope you had a wonderful day!!! Love,  Amy, Shane, Bella, Luke & Grace From Amy Thompson	false		
112-0258757-9096262	55234349418946	2020-05-26T13:41:42+00:00	2020-05-26T06:41:42-07:00	2020-05-26T14:09:56+00:00	2020-05-27T06:59:59+00:00	-1	hyfwybq5gmhzh47@marketplace.amazon.com	B M Hareland	+1 210-728-4548 ext. 24045	ABR0055	Purchase Now for Delivery by Thursday | Arabella Farm Direct Bouquet of 12 Stems of Fresh Cut Hot Pink Roses in a Free Designer Glass Vase	1	0	1	SecondDay	Kim Padilla	1115 EVERGREEN DR			SOCORRO	NM	87801-4303	US		Hi Kim, Have a great day! Peace, Berna	false		
114-3223785-0725069	69750101874362	2020-05-26T13:45:18+00:00	2020-05-26T06:45:18-07:00	2020-05-26T14:15:06+00:00	2020-05-27T06:59:59+00:00	-1	mt1hxfvjhmsdpj5@marketplace.amazon.com	elizabeth fanning	+1 314-282-9402 ext. 85512	ABR0033	Purchase Now for Delivery by Thursday | Arabella Farm Direct Bouquet of 12 Fresh Cut Orange Roses with a Free Glass Vase	1	0	1	SecondDay	Tasmin Fannng	233 GEORGIA AVE SE			ATLANTA	GA	30312-3001	US		Sending you love. You are always in my heart. XX0 Mama	false		
114-5280340-1345017	40080524552826	2020-05-26T13:51:12+00:00	2020-05-26T06:51:12-07:00	2020-05-26T14:25:34+00:00	2020-05-29T06:59:59+00:00	-3	cmtd0phhykdpf1y@marketplace.amazon.com	Ulle Pope	+1 210-728-4548 ext. 43293	ABR0022	Purchase Now for Delivery by Friday | Arabella Farm Direct Bouquet of 12 Fresh Cut Pink Roses with a Free Glass Vase	1	0	1	Expedited	Jill Kelley	105 HURRICANE RD			FALMOUTH	ME	04105-2525	US			false		
111-6459557-7821045	44178874836258	2020-05-26T14:00:48+00:00	2020-05-26T07:00:48-07:00	2020-05-26T14:27:01+00:00	2020-05-27T06:59:59+00:00	-1	5xpz9pn1npfyv5v@marketplace.amazon.com	Yelena Filippovich	+1 347-448-3190 ext. 25899	ABR0033	Purchase Now for Delivery by Thursday | Arabella Farm Direct Bouquet of 12 Fresh Cut Orange Roses with a Free Glass Vase	1	0	1	SecondDay	Yelena Durez	7705 ULIVA WAY			SARASOTA	FL	34238-1700	US		Happy B-day !!!!!!!!!!!!!!!!! We miss you !!!!!!!!!	false		
111-9203506-7992227	67734188651154	2020-05-26T13:57:18+00:00	2020-05-26T06:57:18-07:00	2020-05-26T14:27:50+00:00	2020-05-27T06:59:59+00:00	-1	2nxnhw7gr1mkz1q@marketplace.amazon.com	Mario	+1 347-448-3190 ext. 16577	ABR0055	Purchase Now for Delivery by Thursday | Arabella Farm Direct Bouquet of 12 Stems of Fresh Cut Hot Pink Roses in a Free Designer Glass Vase	1	0	1	SecondDay	Michelle Marie	721 BOURBON ST APT 2			PAHRUMP	NV	89048-5646	US			false		
111-5080735-8998624	65367324062170	2020-05-26T13:46:23+00:00	2020-05-26T06:46:23-07:00	2020-05-26T14:42:14+00:00	2020-05-27T06:59:59+00:00	-1	z6cll31mtn37x8b@marketplace.amazon.com	mic	+1 314-282-9402 ext. 78237	ABM0044	Purchase Now for Delivery by Thursday | Arabella Farm Direct Bouquet of Fresh Cut Blue Hydrangea with a Free Glass Vase	1	0	1	SecondDay	Terri Brillon Hayes	3472 Airport Road			Montpelier	Vermont	05602	US			false		
112-5147967-5517020	37099126687746	2020-05-26T14:19:54+00:00	2020-05-26T07:19:54-07:00	2020-05-26T14:46:10+00:00	2020-05-27T06:59:59+00:00	-1	hyfwybq5gmhzh47@marketplace.amazon.com	B M Hareland	+1 347-448-3190 ext. 92456	ABR0055	Purchase Now for Delivery by Thursday | Arabella Farm Direct Bouquet of 12 Stems of Fresh Cut Hot Pink Roses in a Free Designer Glass Vase	1	0	1	SecondDay	Luggy Shorter	908 STAGECOACH DR			LAS CRUCES	NM	88011-9092	US		Thinking of you My Auntie, You are in our thoughts and prayers, Love you bunches, Geir, Bunn Bunn, Geir Jr., Katrine and Sofi	false		
111-3029034-8223461	40602776684338	2020-05-26T14:18:45+00:00	2020-05-26T07:18:45-07:00	2020-05-26T14:49:04+00:00	2020-05-27T06:59:59+00:00	-1	f9pg18b3w3rmncm@marketplace.amazon.com	Phil & Margaret Stark	+1 210-728-4548 ext. 07279	ABR0055	Purchase Now for Delivery by Thursday | Arabella Farm Direct Bouquet of 12 Stems of Fresh Cut Hot Pink Roses in a Free Designer Glass Vase	1	0	1	SecondDay	Barbara Norman	2401 W 12195 S			RIVERTON	UT	84065-2101	US			false		
111-3582255-3408253	19012680797410	2020-05-26T14:30:45+00:00	2020-05-26T07:30:45-07:00	2020-05-26T14:59:42+00:00	2020-05-30T06:59:59+00:00	-4	9g6w0z94c1n2dmv@marketplace.amazon.com	patriciatraina	+1 210-728-4548 ext. 82884	ABM002	Purchase Now for Delivery by Thursday | Arabella Bouquets Fresh Cut White Calla Lilies in a Free Designer Glass Vase	2	0	2	Standard	Sam Zimmerman	8384 116TH ST APT 6H			RICHMOND HILL	NY	11418-3444	US			false		
111-3582255-3408253	54904815849290	2020-05-26T14:30:45+00:00	2020-05-26T07:30:45-07:00	2020-05-26T14:59:42+00:00	2020-05-30T06:59:59+00:00	-4	9g6w0z94c1n2dmv@marketplace.amazon.com	patriciatraina	+1 210-728-4548 ext. 82884	ABR0066	Purchase Now for Delivery by Thursday | Arabella Bouquets | 12 Stems of Fresh Cut White Roses in a Free Designer Glass Vase	1	0	1	Standard	Sam Zimmerman	8384 116TH ST APT 6H			RICHMOND HILL	NY	11418-3444	US			false		
111-6648995-9705807	00471733587898	2020-05-26T14:32:54+00:00	2020-05-26T07:32:54-07:00	2020-05-26T15:03:33+00:00	2020-05-27T06:59:59+00:00	-1	tfnf4ln5917lkb2@marketplace.amazon.com	Jennifer Vekert	+1 347-448-3190 ext. 00930	ABR004	Arabella Farm Direct Bouquet of 12 Fresh Cut Yellow Roses with a Free Glass Vase	1	0	1	SecondDay	Jennifer Vekert	616 Oberlin Rd	Apt. 240		Raleigh	North Carolina	27605	US			false		
113-6796627-2899422	63338434164490	2020-05-26T15:00:59+00:00	2020-05-26T08:00:59-07:00	2020-05-26T15:04:15+00:00	2020-05-27T06:59:59+00:00	-1	m561cw2rckxl7sz@marketplace.amazon.com	ANTWONE HICKS	+1 347-448-3190 ext. 97168	ABR0066	Purchase Now for Delivery by Thursday | Arabella Bouquets | 12 Stems of Fresh Cut White Roses in a Free Designer Glass Vase	1	0	1	SecondDay	Nicole Waters	104 ROCK GLEN CT			ANTIOCH	TN	37013-2239	US		Enjoy your gift! From ANTWONE HICKS	false		
111-7203236-8109023	58439213911170	2020-05-26T14:40:26+00:00	2020-05-26T07:40:26-07:00	2020-05-26T15:05:39+00:00	2020-05-29T06:59:59+00:00	-3	n80m8z8n7cld0qw@marketplace.amazon.com	Martha J Bell	+1 314-282-9402 ext. 09183	ABR0022	Purchase Now for Delivery by Friday | Arabella Farm Direct Bouquet of 12 Fresh Cut Pink Roses with a Free Glass Vase	1	0	1	Expedited	Lisa Linares	309 GOLDEN AVE			WISCONSIN DELLS	WI	53965-8651	US		Hi Lisa, from 3 Bigs to our 4th Big.  We 💓 u.	false		
113-4067539-3405839	56730504359626	2020-05-26T14:47:20+00:00	2020-05-26T07:47:20-07:00	2020-05-26T15:12:12+00:00	2020-05-29T06:59:59+00:00	-3	hcwcfq2q4ctpm5m@marketplace.amazon.com	Jillian	+1 314-282-9402 ext. 21141	ABR0022	Purchase Now for Delivery by Friday | Arabella Farm Direct Bouquet of 12 Fresh Cut Pink Roses with a Free Glass Vase	1	0	1	Expedited	Lori orourke	153 LEAMING AVE F1			WEST CAPE MAY	NJ	08204-1233	US		Wishing I was there to Celebrate our 33rd Anniversary with you!  So enjoy the aroma of fresh flowers in the house until I get back up there to celebrate in person with my honey! Love ya foreverered! From Your Loving Husband	false		
112-4594299-2948249	06414197357810	2020-05-26T14:44:11+00:00	2020-05-26T07:44:11-07:00	2020-05-26T15:13:53+00:00	2020-05-29T06:59:59+00:00	-3	nbgqxv1vcb533wc@marketplace.amazon.com	alison	+1 314-282-9402 ext. 08635	ABR0022	Purchase Now for Delivery by Friday | Arabella Farm Direct Bouquet of 12 Fresh Cut Pink Roses with a Free Glass Vase	1	0	1	Expedited	Gisela Kuczynski	150 BAYVIEW DR			NORTH HERO	VT	05474-9518	US			false		
113-5504573-2457001	12106815061642	2020-05-26T14:59:44+00:00	2020-05-26T07:59:44-07:00	2020-05-26T15:26:55+00:00	2020-05-29T06:59:59+00:00	-3	phb9zypzftsl5mp@marketplace.amazon.com	Maria Rosario	+1 210-728-4548 ext. 29330	ABR0022	Purchase Now for Delivery by Friday | Arabella Farm Direct Bouquet of 12 Fresh Cut Pink Roses with a Free Glass Vase	1	0	1	Expedited	Yesenia Rosario	300 PARK POINT DR UNIT 207			ROCHESTER	NY	14623-2968	US		Congratulations  You did It Jessie! You’re the Best!!!!!!!! From Tony & Mom ❤️ From Tony & Mom ❤️	false		
113-7265811-9041813	54407472647546	2020-05-26T15:12:24+00:00	2020-05-26T08:12:24-07:00	2020-05-26T15:33:21+00:00	2020-05-27T06:59:59+00:00	-1	sbmf3xcyr5q8496@marketplace.amazon.com	emma vazzana	+1 314-282-9402 ext. 57327	ABM010	Purchase Now for Delivery by Thursday | Arabella Bouquets | Fields of The World Bouquet of Fresh Cut Flowers in a Free Designer Glass Vase	1	0	1	SecondDay	Margaret Frankel	4932 SENTINEL DR APT 305			BETHESDA	MD	20816-3547	US		Dear Peggy, Congratulations on the purchase of the apartment. Our family has enjoyed the amenities and community of the Sumner Village and we trust you will do the same.  Best wishes,  The Briamonte family	false		
112-2777258-2615443	62626124930234	2020-05-26T15:12:24+00:00	2020-05-26T08:12:24-07:00	2020-05-26T15:36:33+00:00	2020-05-27T06:59:59+00:00	-1	v0qp2pyqlkbt93d@marketplace.amazon.com	Kathryn Debraux	+1 314-282-9402 ext. 12926	ABR0033	Purchase Now for Delivery by Thursday | Arabella Farm Direct Bouquet of 12 Fresh Cut Orange Roses with a Free Glass Vase	1	0	1	SecondDay	Nia Wolfe-Jones	95 MARY LOU DR			HASTINGS	MI	49058-8510	US		To say I miss you is an understatement! What makes it worse is we are so close yet so far away! There is a void in my life that only our friendship can fill. I love and miss you Bestie, forever and always! From Kathryn Debraux	false		
112-7933262-2969857	67518994519930	2020-05-26T15:30:34+00:00	2020-05-26T08:30:34-07:00	2020-05-26T15:40:19+00:00	2020-05-27T06:59:59+00:00	-1	wj007x2fm43nbyt@marketplace.amazon.com	Jared McDonald	+1 347-448-3190 ext. 04352	ABR0033	Purchase Now for Delivery by Thursday | Arabella Farm Direct Bouquet of 12 Fresh Cut Orange Roses with a Free Glass Vase	1	0	1	SecondDay	Darryl Hansome	19 HICKORY DR			ASHEVILLE	NC	28806-9758	US		dear Uncle Darry & Brother D, just wanted to send a little love your way for your birthday. we are so appreciative of you, jared & jj From jared & jj	false		
113-7067176-8736225	40725776515482	2020-05-26T14:47:01+00:00	2020-05-26T07:47:01-07:00	2020-05-26T15:40:35+00:00	2020-05-29T06:59:59+00:00	-3	nmj4932vchgs1by@marketplace.amazon.com	Stanford Care and Rehabilitation	+1 347-448-3190 ext. 15110	ABR0022	Purchase Now for Delivery by Friday | Arabella Farm Direct Bouquet of 12 Fresh Cut Pink Roses with a Free Glass Vase	1	0	1	Expedited	Shelli Clarkson	105 HARMON HTS			STANFORD	KY	40484-1111	US			true		
111-6797626-6874619	28882661917930	2020-05-26T15:13:57+00:00	2020-05-26T08:13:57-07:00	2020-05-26T15:40:43+00:00	2020-05-27T06:59:59+00:00	-1	318v252ktcbglby@marketplace.amazon.com	Brenda Carleton	+1 347-448-3190 ext. 80190	ABM010	Purchase Now for Delivery by Thursday | Arabella Bouquets | Fields of The World Bouquet of Fresh Cut Flowers in a Free Designer Glass Vase	1	0	1	SecondDay	Jayne Jones	5422 GLENFIELD SPRING LN			SPRING	TX	77389-1715	US		Happy Birthday!  Bouquets of love, peace & happiness. We may have to stay isolated but you are always in our thoughts. Xoxo BG, Bruce & Westanna From Brenda Carleton	false		
114-1168851-4430602	62047683263178	2020-05-26T15:36:44+00:00	2020-05-26T08:36:44-07:00	2020-05-26T16:00:42+00:00	2020-05-27T06:59:59+00:00	-1	04n9cy5bwjsjkxj@marketplace.amazon.com	Margaret	+1 347-448-3190 ext. 07315	ABR0066	Purchase Now for Delivery by Thursday | Arabella Bouquets | 12 Stems of Fresh Cut White Roses in a Free Designer Glass Vase	1	0	1	SecondDay	Lynn and Paul Maginn	5539 E LAKE RD			CONESUS	NY	14435-9740	US		Hi Lynn and Paul no matter how old they are no matter how old we are it hurts with sincere sympathy hugssssss margaret freudigman	false		
