order-id	order-item-id	purchase-date	payments-date	reporting-date	promise-date	days-past-promise	buyer-email	buyer-name	buyer-phone-number	sku	product-name	quantity-purchased	quantity-shipped	quantity-to-ship	ship-service-level	recipient-name	ship-address-1	ship-address-2	ship-address-3	ship-city	ship-state	ship-postal-code	ship-country	gift-wrap-type	gift-message-text	is-business-order	purchase-order-number	price-designation
113-3611121-5027415	08874431025386	2020-05-26T13:02:15+00:00	2020-05-26T06:02:15-07:00	2020-05-26T13:30:35+00:00	2020-05-29T06:59:59+00:00	-2	gpplld05kvw9fy8@marketplace.amazon.com	edwin lefkovitz	+1 210-728-4548 ext. 56096	ABR0022	Purchase Now for Delivery by Friday | Arabella Farm Direct Bouquet of 12 Fresh Cut Pink Roses with a Free Glass Vase	1	0	1	Expedited	Christa Kakaeltris	114 S TOWNSEND ST			NEW BUFFALO	MI	49117-1459	US		Christa hope you have an amazing day filled with love and happiness Happy Birthday   Love Ed,Sweetie June Lauren Jackie From edwin lefkovitz	false		
114-5280340-1345017	40080524552826	2020-05-26T13:51:12+00:00	2020-05-26T06:51:12-07:00	2020-05-26T14:25:34+00:00	2020-05-29T06:59:59+00:00	-2	cmtd0phhykdpf1y@marketplace.amazon.com	Ulle Pope	+1 210-728-4548 ext. 43293	ABR0022	Purchase Now for Delivery by Friday | Arabella Farm Direct Bouquet of 12 Fresh Cut Pink Roses with a Free Glass Vase	1	0	1	Expedited	Jill Kelley	105 HURRICANE RD			FALMOUTH	ME	04105-2525	US			false		
111-7203236-8109023	58439213911170	2020-05-26T14:40:26+00:00	2020-05-26T07:40:26-07:00	2020-05-26T15:05:39+00:00	2020-05-29T06:59:59+00:00	-2	n80m8z8n7cld0qw@marketplace.amazon.com	Martha J Bell	+1 314-282-9402 ext. 09183	ABR0022	Purchase Now for Delivery by Friday | Arabella Farm Direct Bouquet of 12 Fresh Cut Pink Roses with a Free Glass Vase	1	0	1	Expedited	Lisa Linares	309 GOLDEN AVE			WISCONSIN DELLS	WI	53965-8651	US		Hi Lisa, from 3 Bigs to our 4th Big.  We 💓 u.	false		
113-4067539-3405839	56730504359626	2020-05-26T14:47:20+00:00	2020-05-26T07:47:20-07:00	2020-05-26T15:12:12+00:00	2020-05-29T06:59:59+00:00	-2	hcwcfq2q4ctpm5m@marketplace.amazon.com	Jillian	+1 314-282-9402 ext. 21141	ABR0022	Purchase Now for Delivery by Friday | Arabella Farm Direct Bouquet of 12 Fresh Cut Pink Roses with a Free Glass Vase	1	0	1	Expedited	Lori orourke	153 LEAMING AVE F1			WEST CAPE MAY	NJ	08204-1233	US		Wishing I was there to Celebrate our 33rd Anniversary with you!  So enjoy the aroma of fresh flowers in the house until I get back up there to celebrate in person with my honey! Love ya foreverered! From Your Loving Husband	false		
112-4594299-2948249	06414197357810	2020-05-26T14:44:11+00:00	2020-05-26T07:44:11-07:00	2020-05-26T15:13:53+00:00	2020-05-29T06:59:59+00:00	-2	nbgqxv1vcb533wc@marketplace.amazon.com	alison	+1 314-282-9402 ext. 08635	ABR0022	Purchase Now for Delivery by Friday | Arabella Farm Direct Bouquet of 12 Fresh Cut Pink Roses with a Free Glass Vase	1	0	1	Expedited	Gisela Kuczynski	150 BAYVIEW DR			NORTH HERO	VT	05474-9518	US			false		
113-5504573-2457001	12106815061642	2020-05-26T14:59:44+00:00	2020-05-26T07:59:44-07:00	2020-05-26T15:26:55+00:00	2020-05-29T06:59:59+00:00	-2	phb9zypzftsl5mp@marketplace.amazon.com	Maria Rosario	+1 210-728-4548 ext. 29330	ABR0022	Purchase Now for Delivery by Friday | Arabella Farm Direct Bouquet of 12 Fresh Cut Pink Roses with a Free Glass Vase	1	0	1	Expedited	Yesenia Rosario	300 PARK POINT DR UNIT 207			ROCHESTER	NY	14623-2968	US		Congratulations  You did It Jessie! You’re the Best!!!!!!!! From Tony & Mom ❤️ From Tony & Mom ❤️	false		
113-7067176-8736225	40725776515482	2020-05-26T14:47:01+00:00	2020-05-26T07:47:01-07:00	2020-05-26T15:40:35+00:00	2020-05-29T06:59:59+00:00	-2	nmj4932vchgs1by@marketplace.amazon.com	Stanford Care and Rehabilitation	+1 347-448-3190 ext. 15110	ABR0022	Purchase Now for Delivery by Friday | Arabella Farm Direct Bouquet of 12 Fresh Cut Pink Roses with a Free Glass Vase	1	0	1	Expedited	Shelli Clarkson	105 HARMON HTS			STANFORD	KY	40484-1111	US			true		
112-8192672-4589001	21156642892610	2020-05-26T15:36:35+00:00	2020-05-26T08:36:35-07:00	2020-05-26T16:18:04+00:00	2020-05-29T06:59:59+00:00	-2	y73jlyvk347ycnk@marketplace.amazon.com	Brandt	+1 347-448-3190 ext. 61535	ABR0022	Purchase Now for Delivery by Friday | Arabella Farm Direct Bouquet of 12 Fresh Cut Pink Roses with a Free Glass Vase	1	0	1	Expedited	Riley chafin	29088 N CHALFEN BLVD			PEORIA	AZ	85383-5327	US			false		
112-8402098-8955465	41043539669154	2020-05-26T15:50:24+00:00	2020-05-26T08:50:24-07:00	2020-05-26T16:18:29+00:00	2020-05-29T06:59:59+00:00	-2	45qsv13d6k54zlk@marketplace.amazon.com	Krista Hoey	+1 314-282-9402 ext. 07813	ABR0022	Purchase Now for Delivery by Friday | Arabella Farm Direct Bouquet of 12 Fresh Cut Pink Roses with a Free Glass Vase	1	0	1	Expedited	Paula Caldwell	1613 US 64 HWY W			APEX	NC	27523-8992	US		Enjoy your gift! Have a wonderful birthday mom! You are very loved by me. From Krista Hoey	false		
114-5791620-9413855	62429311868210	2020-05-26T15:57:37+00:00	2020-05-26T08:57:37-07:00	2020-05-26T16:26:12+00:00	2020-05-29T06:59:59+00:00	-2	7y5w3mmgxvhyfyn@marketplace.amazon.com	Valentin Ramirez	+1 347-448-3190 ext. 51166	ABR0022	Purchase Now for Delivery by Friday | Arabella Farm Direct Bouquet of 12 Fresh Cut Pink Roses with a Free Glass Vase	1	0	1	Expedited	Angie Ramirez	1939 W LIVINGSTON ST			ALLENTOWN	PA	18104-3717	US		Enjoy your gift! Feliz compleanos, love you From Valie y Norma	false		
113-7682783-4577057	32752383642442	2020-05-26T16:37:25+00:00	2020-05-26T09:37:25-07:00	2020-05-26T17:07:21+00:00	2020-05-29T06:59:59+00:00	-2	t37371nnk8sjc8p@marketplace.amazon.com	Heather Wikander	+1 347-448-3190 ext. 04339	ABR0022	Purchase Now for Delivery by Friday | Arabella Farm Direct Bouquet of 12 Fresh Cut Pink Roses with a Free Glass Vase	1	0	1	Expedited	Barbara Coaker	6726 CHADBOURNE DR			NORTH OLMSTED	OH	44070-5039	US		Love from Peter Happy Birthday From Peter	false		
113-2024886-2801826	30893392749954	2020-05-26T16:52:15+00:00	2020-05-26T09:52:15-07:00	2020-05-26T17:14:29+00:00	2020-05-29T06:59:59+00:00	-2	94r9rd8yh6ckqg2@marketplace.amazon.com	Christy Hindorff	+1 314-282-9402 ext. 40212	ABR0022	Purchase Now for Delivery by Friday | Arabella Farm Direct Bouquet of 12 Fresh Cut Pink Roses with a Free Glass Vase	1	0	1	Expedited	Mrs. Cindy Krystyniak	60 PRESIDENTIAL DR			SIMI VALLEY	CA	93065-0600	US		HAPPY BIRTHDAY, CINDY! Hope your weekend and day is filled with happiness, laughter and good times. Miss you so much! Love The Hindorff's	false		
113-3883925-2895418	38272802384738	2020-05-26T16:50:01+00:00	2020-05-26T09:50:01-07:00	2020-05-26T17:17:32+00:00	2020-05-29T06:59:59+00:00	-2	wz0r8gcvkflfcxv@marketplace.amazon.com	Peter Fazio	+1 347-448-3190 ext. 39114	ABR0022	Purchase Now for Delivery by Friday | Arabella Farm Direct Bouquet of 12 Fresh Cut Pink Roses with a Free Glass Vase	1	0	1	Expedited	Cassidy Keller	338 N OAK ST			PALATINE	IL	60067-5227	US		Happy Birthday, Cassidy.  Love, Patti and Peter	false		
112-3990418-8160249	38766092204770	2020-05-26T16:52:29+00:00	2020-05-26T09:52:29-07:00	2020-05-26T17:22:38+00:00	2020-05-29T06:59:59+00:00	-2	1dbtpvds7xvkzj9@marketplace.amazon.com	Jsj	+1 347-448-3190 ext. 69803	ABR0022	Purchase Now for Delivery by Friday | Arabella Farm Direct Bouquet of 12 Fresh Cut Pink Roses with a Free Glass Vase	1	0	1	Expedited	Jacquelyne bell	187 COWESETT AVE			WEST WARWICK	RI	02893-3227	US			false		
112-0284833-7164214	51722161205810	2020-05-26T17:03:17+00:00	2020-05-26T10:03:17-07:00	2020-05-26T17:23:45+00:00	2020-05-29T06:59:59+00:00	-2	mrmg9tpvyr1hzgd@marketplace.amazon.com	Patricia J. Dixon	+1 314-282-9402 ext. 52413	ABR0022	Purchase Now for Delivery by Friday | Arabella Farm Direct Bouquet of 12 Fresh Cut Pink Roses with a Free Glass Vase	1	0	1	Expedited	Mrs. Toni Charming	15705 WOODVALE RD			ENCINO	CA	91436-3416	US		Hi Family, Sorry for your loss. Wish we could be there to celebrate Aunt Jean's life with you. Please accept our condolences and love. Peace and Blessings,  From Delroe Dixon and Family	false		
114-4828291-8163439	52694332712410	2020-05-26T17:12:35+00:00	2020-05-26T10:12:35-07:00	2020-05-26T17:36:22+00:00	2020-05-29T06:59:59+00:00	-2	946lv98yzg26b3w@marketplace.amazon.com	Mike O'Neill	+1 347-448-3190 ext. 09127	ABR0022	Purchase Now for Delivery by Friday | Arabella Farm Direct Bouquet of 12 Fresh Cut Pink Roses with a Free Glass Vase	1	0	1	Expedited	Emily Lanigan	251 MCINTOSH RD			WEST CHESTER	PA	19382-1915	US		Hi Emily, I know I was a jerk and I want to say I'm sorry. I miss you and that pretty face of yours and hope to talk to you and see you soon!  Mike	false		
112-0348973-4650666	38529487571154	2020-05-26T17:30:52+00:00	2020-05-26T10:30:52-07:00	2020-05-26T17:59:45+00:00	2020-05-29T06:59:59+00:00	-2	n73frs34l2xd7n1@marketplace.amazon.com	Owen Richter	+1 314-282-9402 ext. 02666	ABR0022	Purchase Now for Delivery by Friday | Arabella Farm Direct Bouquet of 12 Fresh Cut Pink Roses with a Free Glass Vase	1	0	1	Expedited	Erin Hamric	200 HEYWOOD AVE APT 503			SPARTANBURG	SC	29307-1799	US			false		
114-4312336-8686652	42432631864794	2020-05-26T17:35:48+00:00	2020-05-26T10:35:48-07:00	2020-05-26T18:01:51+00:00	2020-05-29T06:59:59+00:00	-2	8nrk9kc5lccz25w@marketplace.amazon.com	WIL Alpharetta	+1 314-282-9402 ext. 68414	ABR0022	Purchase Now for Delivery by Friday | Arabella Farm Direct Bouquet of 12 Fresh Cut Pink Roses with a Free Glass Vase	1	0	1	Expedited	Bernadine Jacocks	8 CARRIAGE DR			MOUNT HOLLY	NJ	08060-4393	US		Hi Bernadine, We hope you enjoy this lovely token, sending you love.  From WIL-Alpharetta & the Ultimate Sofware family!	false		
113-9199141-9787412	50341897847442	2020-05-26T17:33:21+00:00	2020-05-26T10:33:21-07:00	2020-05-26T18:03:11+00:00	2020-05-29T06:59:59+00:00	-2	y9qjfpj3xkhj0wy@marketplace.amazon.com	Gaye Tully Salisbury	+1 347-448-3190 ext. 77688	ABR0022	Purchase Now for Delivery by Friday | Arabella Farm Direct Bouquet of 12 Fresh Cut Pink Roses with a Free Glass Vase	1	0	1	Expedited	Rachel Segvich	3426 CATHY DR			JOLIET	IL	60431-9072	US		Rachel,  We LOVE you to the moon and back, Your HOB Sisters	false		
114-9598074-2113023	10333610487746	2020-05-26T17:55:59+00:00	2020-05-26T10:55:59-07:00	2020-05-26T18:23:24+00:00	2020-05-30T06:59:59+00:00	-3	qjmwkwkljlxtp01@marketplace.amazon.com	Linda Anderson	+1 210-728-4548 ext. 59786	ABM010	Purchase Now for Delivery by Thursday | Arabella Bouquets | Fields of The World Bouquet of Fresh Cut Flowers in a Free Designer Glass Vase	1	0	1	Expedited	Alison Anderson	2920 COLUMBIA ST APT F			SAN DIEGO	CA	92103-6078	US		Our hearts are overflowing with love! Weslyn, May the Lord bless you with health and happiness all of your days! From Linda Anderson	false		
114-3193940-3993062	42044581111394	2020-05-26T17:54:59+00:00	2020-05-26T10:54:59-07:00	2020-05-26T18:25:20+00:00	2020-05-29T06:59:59+00:00	-2	4mgkgdkg1245mq4@marketplace.amazon.com	Monica Lopez	+1 347-448-3190 ext. 36848	ABR0022	Purchase Now for Delivery by Friday | Arabella Farm Direct Bouquet of 12 Fresh Cut Pink Roses with a Free Glass Vase	1	0	1	Expedited	Hilda Lopez	1117 W 40TH PL			LOS ANGELES	CA	90037-1802	US			false		
112-6371789-0730632	20342792631394	2020-05-26T18:02:01+00:00	2020-05-26T11:02:01-07:00	2020-05-26T18:30:25+00:00	2020-05-29T06:59:59+00:00	-2	cvdhckvz17s3cmp@marketplace.amazon.com	Judy Martin	+1 347-448-3190 ext. 11491	ABR0022	Purchase Now for Delivery by Friday | Arabella Farm Direct Bouquet of 12 Fresh Cut Pink Roses with a Free Glass Vase	1	0	1	Expedited	Macy Moise	5635 W HANOVER AVE			DALLAS	TX	75209-3427	US		Congratulations to our Macy! We are so proud of you!!! From Love, Nanny and Papa	false		
114-0610038-4180224	46400626350698	2020-05-26T18:01:10+00:00	2020-05-26T11:01:10-07:00	2020-05-26T18:31:17+00:00	2020-05-29T06:59:59+00:00	-2	4ypcvn08vn8gdnx@marketplace.amazon.com	Vera Springett	+1 210-728-4548 ext. 32038	ABR0022	Purchase Now for Delivery by Friday | Arabella Farm Direct Bouquet of 12 Fresh Cut Pink Roses with a Free Glass Vase	1	0	1	Expedited	Spenta Behrana	8918 N 81ST PL			SCOTTSDALE	AZ	85258-2222	US		Get well soon, Diana Masi! From Aryana Springett	false		
113-5935576-8167453	23794650275114	2020-05-26T18:15:38+00:00	2020-05-26T11:15:38-07:00	2020-05-26T18:43:26+00:00	2020-05-28T06:59:59+00:00	-1	lml8htcydt9ftnq@marketplace.amazon.com	sally ohalloran	+1 314-282-9402 ext. 50942	ABR012	Purchase Now for Delivery by Thursday | Arabella Farm Direct Bouquet of 18 Fresh Cut Pink Roses with a Free Glass Vase	1	0	1	SecondDay	Dr. Sharyn Ohalloran	44 MORNINGSIDE DR # 51			NEW YORK	NY	10025-1719	US		Wishig you the Happiest of Birthdays!!! Much love,   Mom From sally ohalloran	false		
114-2486004-0946631	32959091636346	2020-05-26T18:27:29+00:00	2020-05-26T11:27:29-07:00	2020-05-26T18:46:28+00:00	2020-05-28T06:59:59+00:00	-1	sqjg10vdthb1hxz@marketplace.amazon.com	Maria Joy Frank	+1 347-448-3190 ext. 41930	ABM010	Purchase Now for Delivery by Thursday | Arabella Bouquets | Fields of The World Bouquet of Fresh Cut Flowers in a Free Designer Glass Vase	1	0	1	SecondDay	Wanda Clements	5847 DECKER RD			LIVONIA	NY	14487-9526	US		Dear Wanda,  Get well soon.  We love you.  Phil and Nancy, Valerie and Rick, Joy and Dave From Maria Joy Frank	false		
112-7167027-6780266	25406835782490	2020-05-26T18:20:40+00:00	2020-05-26T11:20:40-07:00	2020-05-26T18:49:39+00:00	2020-05-28T06:59:59+00:00	-1	8jwkx441hwtfwrp@marketplace.amazon.com	Trevor Crabb	+1 314-282-9402 ext. 32220	ABR0022	Purchase Now for Delivery by Friday | Arabella Farm Direct Bouquet of 12 Fresh Cut Pink Roses with a Free Glass Vase	1	0	1	SecondDay	Branagan Fuller	23185 SINGLE OAK WAY			MURRIETA	CA	92562-9355	US		Law school Graduate From Trevor Crabb	false		
111-3328416-7620242	29572375220770	2020-05-26T18:52:26+00:00	2020-05-26T11:52:26-07:00	2020-05-26T19:14:04+00:00	2020-05-28T06:59:59+00:00	-1	39slybflrmjyjc8@marketplace.amazon.com	Charlotte	+1 347-448-3190 ext. 84646	ABR0022	Purchase Now for Delivery by Friday | Arabella Farm Direct Bouquet of 12 Fresh Cut Pink Roses with a Free Glass Vase	1	0	1	SecondDay	Regina Ernst	27255 HICKORY HILL RD			BROOKSVILLE	FL	34602-8257	US		Hi Regina, Happy Birthday  From Charlotte	false		
112-4178758-7619465	08707633233754	2020-05-26T18:51:39+00:00	2020-05-26T11:51:39-07:00	2020-05-26T19:19:28+00:00	2020-05-28T06:59:59+00:00	-1	py6g73rw2vj7qpn@marketplace.amazon.com	La Dona Hein	+1 347-448-3190 ext. 36095	ABR0055	Purchase Now for Delivery by Friday | Arabella Farm Direct Bouquet of 12 Stems of Fresh Cut Hot Pink Roses in a Free Designer Glass Vase	1	0	1	SecondDay	Meghan Hein	1310 AVENIDA PANTERA			SAN MARCOS	CA	92069-7388	US		Happy 8th birthday Emmerson!! I love you! From Grammie	false		
112-3297101-5981834	42238881451754	2020-05-26T18:51:56+00:00	2020-05-26T11:51:56-07:00	2020-05-26T19:20:26+00:00	2020-05-28T06:59:59+00:00	-1	8q3799vg3zxfw3p@marketplace.amazon.com	Linda H Horsley	+1 347-448-3190 ext. 75964	ABR0022	Purchase Now for Delivery by Friday | Arabella Farm Direct Bouquet of 12 Fresh Cut Pink Roses with a Free Glass Vase	1	0	1	SecondDay	Sarah Stuart Horsley	2300 Hamilton Street	Apt 1R		Philadelphia	PA	19104	US		Congrats on a great Fashion Show. We are so proud of you! Love, Mom and Dad From Linda H Horsley	false		
114-6374957-7913834	22214025962170	2020-05-26T18:59:54+00:00	2020-05-26T11:59:54-07:00	2020-05-26T19:23:50+00:00	2020-05-28T06:59:59+00:00	-1	cp9vbjmq6zjnqg0@marketplace.amazon.com	Lorilee Bultinck	+1 412-532-4665 ext. 39464	ABM010	Purchase Now for Delivery by Friday | Arabella Bouquets | Fields of The World Bouquet of Fresh Cut Flowers in a Free Designer Glass Vase	1	0	1	SecondDay	Lucy Gabriel	4825 W MESCAL ST			GLENDALE	AZ	85304-4028	US		Dear Lucy,  We are thinking of you at this time...June 4th is a very sad day for all of us.  We know that you loved and cared for Phil...we are grateful. Gayle, Mimi, & Lori	false		
114-9972832-4105044	64352350335594	2020-05-26T19:02:16+00:00	2020-05-26T12:02:16-07:00	2020-05-26T19:30:23+00:00	2020-05-28T06:59:59+00:00	-1	dyscqvfd07ymvqs@marketplace.amazon.com	Kaitlin Hughes	+1 347-448-3190 ext. 89478	ABM010	Purchase Now for Delivery by Friday | Arabella Bouquets | Fields of The World Bouquet of Fresh Cut Flowers in a Free Designer Glass Vase	1	0	1	SecondDay	Nicole Jansen	10 GORHAM LN			SMITHTOWN	NY	11787-4702	US		Happy 30th Birthday!! Can't wait to eventually celebrate with you! We hope you have an awesome day! From Kaitlin, Kyle, and Mason XOXO	false		
112-0614621-6463423	29504654258738	2020-05-26T19:04:34+00:00	2020-05-26T12:04:34-07:00	2020-05-26T19:34:09+00:00	2020-05-28T06:59:59+00:00	-1	80kls99dtkcdxnv@marketplace.amazon.com	Judith Carrillo	+1 314-282-9402 ext. 86332	ABR0022	Purchase Now for Delivery by Friday | Arabella Farm Direct Bouquet of 12 Fresh Cut Pink Roses with a Free Glass Vase	1	0	1	SecondDay	Matilde Carrillo	184 EVERGREEN PKWY			OCEANSIDE	CA	92054-5412	US		Mami, lo siento lo que paso con el gatito. La quiero mucho. From Judith	false		
112-0490863-8353859	09557377170586	2020-05-26T19:14:59+00:00	2020-05-26T12:14:59-07:00	2020-05-26T19:40:18+00:00	2020-05-28T06:59:59+00:00	-1	3sw2298hbyrkn3x@marketplace.amazon.com	Yeliana	+1 314-282-9402 ext. 69649	ABM010	Purchase Now for Delivery by Friday | Arabella Bouquets | Fields of The World Bouquet of Fresh Cut Flowers in a Free Designer Glass Vase	1	0	1	SecondDay	Magalys Velez	912 N BUCHANAN BLVD			DURHAM	NC	27701-1544	US		Feliz dia de las madres dominicanas a mi North Carolinian mom! Un beso 😘 From Yeliana	false		
114-1866588-1277815	52168188730922	2020-05-26T19:17:35+00:00	2020-05-26T12:17:35-07:00	2020-05-26T19:40:18+00:00	2020-05-28T06:59:59+00:00	-1	hbpn4lw6c7wbl6s@marketplace.amazon.com	Laurie Morrison	+1 314-282-9402 ext. 61294	ABM0033	Purchase Now for Delivery by Friday | Arabella Farm Direct Bouquet of Fresh Cut White Hydrangea with a Free Glass Vase	1	0	1	SecondDay	Alexandra Carmen Collell	280 QUAIL ST APT 2			ALBANY	NY	12208-3370	US		Alex- So proud of you and the hard work, sleepless nights and hours of study you have put in to complete 3 years of med school. So pleased that you are near the end. Know you are an inspiration to us all. With love, Laurie From Laurie Morrison	false		
111-1708611-0655425	42408748247698	2020-05-26T19:17:29+00:00	2020-05-26T12:17:29-07:00	2020-05-26T19:45:56+00:00	2020-05-28T06:59:59+00:00	-1	tzsvt9pkzxxj0x9@marketplace.amazon.com	Dianne Cruce	+1 210-728-4548 ext. 51180	ABR012	Purchase Now for Delivery by Friday | Arabella Farm Direct Bouquet of 18 Fresh Cut Pink Roses with a Free Glass Vase	1	0	1	SecondDay	Fay and Dawn Sage	1322 OAKWOOD ST			BELDING	MI	48809-1028	US			false		
112-3285802-2505851	28216852942042	2020-05-26T19:20:17+00:00	2020-05-26T12:20:17-07:00	2020-05-26T19:47:21+00:00	2020-05-28T06:59:59+00:00	-1	x25dpxmbdbr24rp@marketplace.amazon.com	Carlos González	+1 314-282-9402 ext. 14888	ABR001	Purchase Now for Delivery by Friday | Arabella Bouquets 12 Stems of Fresh Cut Red Roses in a Free Designer Glass Vase	1	0	1	SecondDay	Alejandra guel	614 SW 30TH ST			OKLAHOMA CITY	OK	73109-2508	US			false		
114-1087801-1878613	08931342765458	2020-05-26T19:20:21+00:00	2020-05-26T12:20:21-07:00	2020-05-26T19:50:04+00:00	2020-05-28T06:59:59+00:00	-1	x296tgt8pwl7rgb@marketplace.amazon.com	Richard F Shearer	+1 347-448-3190 ext. 43032	ABR012	Purchase Now for Delivery by Friday | Arabella Farm Direct Bouquet of 18 Fresh Cut Pink Roses with a Free Glass Vase	1	0	1	SecondDay	Suzanne Shearer	16409 ROSEHILL ST			OVERLAND PARK	KS	66221-8473	US		Happy Birthday!!!! We love you!!!!  Teddy and Dad.	false		
112-9339787-1937062	62696921344738	2020-05-26T19:30:51+00:00	2020-05-26T12:30:51-07:00	2020-05-26T19:59:57+00:00	2020-05-28T06:59:59+00:00	-1	czmc8c6plm59dp0@marketplace.amazon.com	Kathryn A. King	+1 314-282-9402 ext. 51083	ABR0022	Purchase Now for Delivery by Friday | Arabella Farm Direct Bouquet of 12 Fresh Cut Pink Roses with a Free Glass Vase	1	0	1	SecondDay	Meghan Doyle	35 HASE RD			PENSACOLA	FL	32508-1020	US		Take care of you!  Love From Mom Damon	false		
114-2467830-6741861	06684041134410	2020-05-26T19:31:51+00:00	2020-05-26T12:31:51-07:00	2020-05-26T20:00:34+00:00	2020-05-28T06:59:59+00:00	-1	msvdkdpl4byblqg@marketplace.amazon.com	Erik Abrahamson	+1 314-282-9402 ext. 16034	ABM010	Purchase Now for Delivery by Friday | Arabella Bouquets | Fields of The World Bouquet of Fresh Cut Flowers in a Free Designer Glass Vase	1	0	1	SecondDay	Joann Muhlman	601 51ST AVE S			ST PETERSBURG	FL	33705-4945	US		Hi Joann, Thinking of you and hope you are feeling better soon!  Your AU Family	true		
114-5228553-0039429	28989543989218	2020-05-26T19:33:57+00:00	2020-05-26T12:33:57-07:00	2020-05-26T20:03:18+00:00	2020-05-28T06:59:59+00:00	-1	q62f7wwvtt6yt53@marketplace.amazon.com	Joellen Saddock	+1 347-448-3190 ext. 50393	ABR0033	Purchase Now for Delivery by Friday | Arabella Farm Direct Bouquet of 12 Fresh Cut Orange Roses with a Free Glass Vase	1	0	1	SecondDay	Charity Harris	310 KARL LINN DR APT 215			NORTH CHESTERFIELD	VA	23225-6909	US		You did it! Much love and admiration ;-) From Joellen Saddock	false		
112-3287053-8097800	16650178352306	2020-05-26T19:44:12+00:00	2020-05-26T12:44:12-07:00	2020-05-26T20:08:36+00:00	2020-05-28T06:59:59+00:00	-1	3sw2298hbyrkn3x@marketplace.amazon.com	Yeliana	+1 210-728-4548 ext. 40317	ABR011	Purchase Now for Delivery by Friday | Arabella Bouquets 18 Stems of Fresh Cut Red Roses in a Free Glass Vase	1	0	1	SecondDay	Maria Pena	5988 SW 8TH ST APT 4			MIAMI	FL	33144-5025	US		Feliz cumpleaños, mamitín! Te quiero mucho! ❤ From Yeliana	false		
114-7723150-9209063	69084242245154	2020-05-26T19:47:51+00:00	2020-05-26T12:47:51-07:00	2020-05-26T20:13:08+00:00	2020-05-28T06:59:59+00:00	-1	31jxrz4swfz61ht@marketplace.amazon.com	Matthew E Garrick	+1 210-728-4548 ext. 17112	ABR0022	Purchase Now for Delivery by Friday | Arabella Farm Direct Bouquet of 12 Fresh Cut Pink Roses with a Free Glass Vase	1	0	1	SecondDay	Leslie cochran	1145 HOLLY ANN PL			SAN JOSE	CA	95120-5418	US		Hi Leslie, Enjoy your gift! From Matthew E Garrick	false		
113-3610963-4840241	25617783640986	2020-05-26T19:45:59+00:00	2020-05-26T12:45:59-07:00	2020-05-26T20:15:23+00:00	2020-05-28T06:59:59+00:00	-1	h0ckhyv7ym5wrkt@marketplace.amazon.com	Laurie Axford	+1 347-448-3190 ext. 71841	ABR0022	Purchase Now for Delivery by Friday | Arabella Farm Direct Bouquet of 12 Fresh Cut Pink Roses with a Free Glass Vase	1	0	1	SecondDay	Vanessa Bedarfas	6350 SATTES DR			RANCHO PALOS VERDES	CA	90275-5750	US		Happy Belated Birthday Vanessa!  I hope you enjoy these flowers !  Love, Laurie & Emily	false		
114-8819058-5589020	08643233728226	2020-05-26T19:51:47+00:00	2020-05-26T12:51:47-07:00	2020-05-26T20:17:53+00:00	2020-05-28T06:59:59+00:00	-1	22qndhmmycw6l47@marketplace.amazon.com	eamonn johnston	+1 314-282-9402 ext. 59729	ABM010	Purchase Now for Delivery by Friday | Arabella Bouquets | Fields of The World Bouquet of Fresh Cut Flowers in a Free Designer Glass Vase	1	0	1	SecondDay	Melissa Johnston	3326 HARTWELL CT			FALLS CHURCH	VA	22042-3510	US			false		
114-9077768-9693832	13080565904082	2020-05-26T19:58:31+00:00	2020-05-26T12:58:31-07:00	2020-05-26T20:26:19+00:00	2020-05-28T06:59:59+00:00	-1	l32qn8vv24r74w7@marketplace.amazon.com	Milan Brkovic	+1 347-448-3190 ext. 10102	ABM010	Purchase Now for Delivery by Friday | Arabella Bouquets | Fields of The World Bouquet of Fresh Cut Flowers in a Free Designer Glass Vase	1	0	1	SecondDay	Erin Perkins	34754 LAKE SHORE BLVD			EASTLAKE	OH	44095-2014	US		Happy Birthday Erin!!!!! XOXOXO From Velmo	false		
113-9263537-3838656	09149951506250	2020-05-26T19:59:43+00:00	2020-05-26T12:59:43-07:00	2020-05-26T20:29:38+00:00	2020-05-28T06:59:59+00:00	-1	8bw717n0htl559h@marketplace.amazon.com	Elaine palmer	+1 210-728-4548 ext. 61426	ABR0055	Purchase Now for Delivery by Friday | Arabella Farm Direct Bouquet of 12 Stems of Fresh Cut Hot Pink Roses in a Free Designer Glass Vase	1	0	1	SecondDay	Elaine palmer	131 SW 39TH ST			CAPE CORAL	FL	33914-8422	US			false		
114-5340884-5718647	16463390895314	2020-05-26T20:11:44+00:00	2020-05-26T13:11:44-07:00	2020-05-26T20:39:58+00:00	2020-05-28T06:59:59+00:00	-1	jt1jx2l233xz61z@marketplace.amazon.com	Jose Zaldivar	+1 347-448-3190 ext. 61312	ABR0022	Purchase Now for Delivery by Friday | Arabella Farm Direct Bouquet of 12 Fresh Cut Pink Roses with a Free Glass Vase	1	0	1	SecondDay	MAGDA IZAGUIERRE/JUAN CARCARMO	CAL-MAIN FOODS INC 22600 HAZEN RD			ROBERTSDALE	AL	36567-2775	US		Feliz cumpleaños hermanita.  de Silvia Zaldivar	false		
111-0795001-2299467	46720525228778	2020-05-26T20:17:31+00:00	2020-05-26T13:17:31-07:00	2020-05-26T20:43:09+00:00	2020-05-28T06:59:59+00:00	-1	g3sb10yn1n3gs9c@marketplace.amazon.com	lillian m gleeson	+1 347-448-3190 ext. 03675	ABR0033	Purchase Now for Delivery by Friday | Arabella Farm Direct Bouquet of 12 Fresh Cut Orange Roses with a Free Glass Vase	1	0	1	SecondDay	The Messina Family	1340 WELSH RD			HUNTINGDON VALLEY	PA	19006-5830	US		Tony, Gina and Marisa, We are so,so sorry for your loss. All of you are in our thoughts and prayers. Love, Lillian and Tom From lillian m gleeson	false		
114-9035765-1056234	19829166009826	2020-05-26T20:16:33+00:00	2020-05-26T13:16:33-07:00	2020-05-26T20:43:27+00:00	2020-05-28T06:59:59+00:00	-1	3lfq6h3zy4pxwjt@marketplace.amazon.com	lanita Bryant-Gant	+1 763-225-9463 ext. 71765	ABR0066	Purchase Now for Delivery by Friday | Arabella Bouquets | 12 Stems of Fresh Cut White Roses in a Free Designer Glass Vase	1	0	1	SecondDay	Nicole o'neal	21221 WHITNEY AVE			MATTESON	IL	60443-1456	US			false		
111-6866328-1555420	53192228239674	2020-05-26T20:21:58+00:00	2020-05-26T13:21:58-07:00	2020-05-26T20:46:58+00:00	2020-05-28T06:59:59+00:00	-1	q5r86kvjxh2v1kh@marketplace.amazon.com	Wayne Anderson	+1 210-728-4548 ext. 86231	ABR0022	Purchase Now for Delivery by Friday | Arabella Farm Direct Bouquet of 12 Fresh Cut Pink Roses with a Free Glass Vase	1	0	1	SecondDay	Helen Anderson	8401 So. Kolb Rd.	Space 375		Tucson	Arizona	85756	US			false		
112-3872901-5042611	55838747923650	2020-05-26T20:28:35+00:00	2020-05-26T13:28:35-07:00	2020-05-26T20:52:42+00:00	2020-05-28T06:59:59+00:00	-1	t1zxncdrkvxkj5d@marketplace.amazon.com	Myrna Re	+1 347-448-3190 ext. 34948	ABR0055	Purchase Now for Delivery by Friday | Arabella Farm Direct Bouquet of 12 Stems of Fresh Cut Hot Pink Roses in a Free Designer Glass Vase	1	0	1	SecondDay	Latchmini Hemraj	21011 34TH RD			BAYSIDE	NY	11361-1426	US		To my beautiful, kind and caring friend! Thanks you for your time and expert care during my time of need! Love you! Enjoy your gift! From Myrna Re	false		
114-8845008-9899462	31945274149842	2020-05-26T20:28:50+00:00	2020-05-26T13:28:50-07:00	2020-05-26T20:54:31+00:00	2020-05-28T06:59:59+00:00	-1	0s70pth3mnt48d5@marketplace.amazon.com	Maria Diakatos	+1 314-282-9402 ext. 08481	ABM010	Purchase Now for Delivery by Friday | Arabella Bouquets | Fields of The World Bouquet of Fresh Cut Flowers in a Free Designer Glass Vase	1	0	1	SecondDay	Maria diakatos	119 brandywine ave			Elk grove village	Illinois	60007	US		Stella, Congratulations on finishing 5th grade! We love you very much! We wish you the best of luck in middle school. From Love: Jerry, mommy, & daddy	false		
113-1239531-5763445	33135332067234	2020-05-26T20:25:03+00:00	2020-05-26T13:25:03-07:00	2020-05-26T20:55:13+00:00	2020-05-28T06:59:59+00:00	-1	35w0l94h2t31j1q@marketplace.amazon.com	Bryan	+1 347-448-3190 ext. 59643	ABR0022	Purchase Now for Delivery by Friday | Arabella Farm Direct Bouquet of 12 Fresh Cut Pink Roses with a Free Glass Vase	1	0	1	SecondDay	Bryan Molinelli	115 WEST RD			BEACON FALLS	CONNECTICUT	06403-1533	US			false		
111-8472708-0972249	08009335332890	2020-05-26T20:33:32+00:00	2020-05-26T13:33:32-07:00	2020-05-26T21:03:16+00:00	2020-05-28T06:59:59+00:00	-1	r1r1xh7fbn4hl6f@marketplace.amazon.com	Michael Hurley	+1 314-282-9402 ext. 92966	ABR001	Purchase Now for Delivery by Friday | Arabella Bouquets 12 Stems of Fresh Cut Red Roses in a Free Designer Glass Vase	1	0	1	SecondDay	Lisa Bramlage	1780 DEBORAH DR APT 18			PUNTA GORDA	FL	33950-8162	US			true		Business Price
113-1658275-9847451	17118246090674	2020-05-26T20:57:06+00:00	2020-05-26T13:57:06-07:00	2020-05-26T21:24:50+00:00	2020-05-28T06:59:59+00:00	-1	2tlp87hc4g2scll@marketplace.amazon.com	SUSAN L. WOODARD	+1 347-448-3190 ext. 93544	ABR001	Purchase Now for Delivery by Friday | Arabella Bouquets 12 Stems of Fresh Cut Red Roses in a Free Designer Glass Vase	1	0	1	SecondDay	Bruna Crea	37880 MORAVIAN DR			CLINTON TOWNSHIP	MI	48036-1759	US		Happy birthday, Bruna!  Love, Susie	false		
114-5303871-7253816	60515748911746	2020-05-26T21:03:21+00:00	2020-05-26T14:03:21-07:00	2020-05-26T21:32:01+00:00	2020-05-28T06:59:59+00:00	-1	k538sc3cjnl2494@marketplace.amazon.com	Adam Jaynes	+1 314-282-9402 ext. 56034	ABM010	Purchase Now for Delivery by Friday | Arabella Bouquets | Fields of The World Bouquet of Fresh Cut Flowers in a Free Designer Glass Vase	1	0	1	SecondDay	Adam Jaynes	491 N 600 E			PAYSON	UT	84651-1949	US		Hope you have an amazing day momma! I am thankful to be blessed with such an incredible woman that I get to call mom!  Love - Adam	false		
113-6452042-1147404	51084622159890	2020-05-26T21:14:14+00:00	2020-05-26T14:14:14-07:00	2020-05-26T21:40:22+00:00	2020-05-28T06:59:59+00:00	-1	yqt4y6ffxjcqhwj@marketplace.amazon.com	Tammy Wilkes	+1 314-282-9402 ext. 20131	ABB001	Arabella Farm Direct Fresh Cut White Hydrangea	1	0	1	SecondDay	Tammy Wilkes	22996 N 94TH LN			PEORIA	AZ	85383-4212	US		Thank you so much for your kindness and generosity to Ty!  Much love from Tammy and Dave!	false		
111-6246141-1425032	07145331294442	2020-05-26T21:14:18+00:00	2020-05-26T14:14:18-07:00	2020-05-26T21:41:56+00:00	2020-05-28T06:59:59+00:00	-1	vd8pd1k6j3y10s7@marketplace.amazon.com	Debi Pottorff	+1 347-448-3190 ext. 71828	ABR0022	Purchase Now for Delivery by Friday | Arabella Farm Direct Bouquet of 12 Fresh Cut Pink Roses with a Free Glass Vase	1	0	1	SecondDay	Jane Merrifield Beecher	5208 N CAMINO DE LA CUMBRE			TUCSON	AZ	85750-1506	US			false		
111-8478381-4744258	20443991148514	2020-05-26T21:29:29+00:00	2020-05-26T14:29:29-07:00	2020-05-26T21:58:42+00:00	2020-05-28T06:59:59+00:00	-1	0ykgwyktky0r1s6@marketplace.amazon.com	adriana osmun	+1 314-282-9402 ext. 26461	ABM0033	Purchase Now for Delivery by Friday | Arabella Farm Direct Bouquet of Fresh Cut White Hydrangea with a Free Glass Vase	1	0	1	SecondDay	Cindy Payton	14509 BURR OAK RD			MAYVIEW	MO	64071-8193	US		Hi Cindy, Happy HAPPY Birthday!  We love and miss you and hope you have an amazing day! Love, Chris, Dree, Alex and Nick	false		
111-3073720-2854650	55611964554562	2020-05-26T21:30:42+00:00	2020-05-26T14:30:42-07:00	2020-05-26T22:00:29+00:00	2020-05-28T06:59:59+00:00	-1	9gzv96sjvsx28tn@marketplace.amazon.com	Jim	1+813-789-7055	ABR0066	Purchase Now for Delivery by Friday | Arabella Bouquets | 12 Stems of Fresh Cut White Roses in a Free Designer Glass Vase	1	0	1	SecondDay	Marian Winters	719 SEDDON COVE WAY			TAMPA	FL	33602-5702	US			false		
111-7529644-7807465	27156561435314	2020-05-26T21:36:33+00:00	2020-05-26T14:36:33-07:00	2020-05-26T22:04:00+00:00	2020-05-28T06:59:59+00:00	-1	zvhrmjm74xp5gzy@marketplace.amazon.com	debra guillotte	+1 347-448-3190 ext. 32049	ABR0033	Purchase Now for Delivery by Friday | Arabella Farm Direct Bouquet of 12 Fresh Cut Orange Roses with a Free Glass Vase	1	0	1	SecondDay	Dawn Morgado	30 QUANAPOAG RD			EAST FREETOWN	MA	02717-1520	US		Hi Dawn, We love you!!!! From Debbie and Harry	false		
114-8718190-9793845	16951071461402	2020-05-26T21:37:22+00:00	2020-05-26T14:37:22-07:00	2020-05-26T22:06:47+00:00	2020-05-28T06:59:59+00:00	-1	jsl570btl1cqxc6@marketplace.amazon.com	TINA MOORES	+1 347-448-3190 ext. 42178	ABR0022	Purchase Now for Delivery by Friday | Arabella Farm Direct Bouquet of 12 Fresh Cut Pink Roses with a Free Glass Vase	1	0	1	SecondDay	Judy Denny	14 WILLOW OAK LN			FORT MITCHELL	AL	36856-5222	US		Get feeling better soon! We are thinking about you! Sending a big hug to you! See you soon! Love, The Moores Family From TINA MOORES	false		
113-6759676-6361065	32231204941458	2020-05-26T21:47:47+00:00	2020-05-26T14:47:47-07:00	2020-05-26T22:16:37+00:00	2020-05-28T06:59:59+00:00	-1	lj8t3wzs3n42t2h@marketplace.amazon.com	Marc Kamm	+1 314-282-9402 ext. 79632	ABR0066	Purchase Now for Delivery by Friday | Arabella Bouquets | 12 Stems of Fresh Cut White Roses in a Free Designer Glass Vase	1	0	1	SecondDay	Patricia Kluck	35 HIGHLAND RD APT 5110			BETHEL PARK	PA	15102-1873	US		Happy 67th Mom and Pop!!! We love you....  Love Marc and Julie	false		
114-1229934-8701028	50409609318538	2020-05-26T22:14:17+00:00	2020-05-26T15:14:17-07:00	2020-05-26T22:19:01+00:00	2020-05-28T06:59:59+00:00	-1	9mgtydn0g4nrg39@marketplace.amazon.com	Cynthiajeems@yahoo.com	+1 347-448-3190 ext. 85502	ABM002	Purchase Now for Delivery by Friday | Arabella Bouquets Fresh Cut White Calla Lilies in a Free Designer Glass Vase	1	0	1	SecondDay	Regency Hospital Northwest Attn: Dorothy Jeems	4321 FIR ST 4TH FLOOR			EAST CHICAGO	IN	46312-3049	US			false		
113-4539562-6750658	60970785948906	2020-05-26T21:48:48+00:00	2020-05-26T14:48:48-07:00	2020-05-26T22:19:17+00:00	2020-05-28T06:59:59+00:00	-1	d21w3bq5qjdncj2@marketplace.amazon.com	Racheli raz Nahum	+1 210-728-4548 ext. 14985	ABR0022	Purchase Now for Delivery by Friday | Arabella Farm Direct Bouquet of 12 Fresh Cut Pink Roses with a Free Glass Vase	1	0	1	SecondDay	Fame	SANDY SPRINGS PRIVATE HOUSE	3920 SPALDING DR		ATLANTA	GA	30350-1022	US			false		
112-4844054-4267414	58583908224858	2020-05-26T21:59:26+00:00	2020-05-26T14:59:26-07:00	2020-05-26T22:21:03+00:00	2020-05-28T06:59:59+00:00	-1	70m2xddb5ck72ym@marketplace.amazon.com	Christine Madden	+1 210-728-4548 ext. 62283	ABM010	Purchase Now for Delivery by Friday | Arabella Bouquets | Fields of The World Bouquet of Fresh Cut Flowers in a Free Designer Glass Vase	1	0	1	SecondDay	Karen Moore	866 N FIRESTONE BLVD			AKRON	OH	44306-2716	US		Our deepest condolences and prayers for you and the family we love you. From Henry & Christine Madden	false		
113-4370933-0594655	33022450338394	2020-05-26T21:58:14+00:00	2020-05-26T14:58:14-07:00	2020-05-26T22:25:23+00:00	2020-05-28T06:59:59+00:00	-1	cz1rncq33jskxm3@marketplace.amazon.com	Pary A. Davis	+1 314-282-9402 ext. 04563	ABM010	Purchase Now for Delivery by Friday | Arabella Bouquets | Fields of The World Bouquet of Fresh Cut Flowers in a Free Designer Glass Vase	1	0	1	SecondDay	Bola Odunuga	15 MORNING BREEZE CT			SILVER SPRING	MD	20904-1248	US		Congratulations Bola! We are so happy for you! We know you will do well at FDA, they are lucky to have you. You will be greatly miss3d. Love Pary, Kevin, Christopher and Justin From Pary A. Davis	false		
112-7232888-6147416	10572953783106	2020-05-26T22:01:06+00:00	2020-05-26T15:01:06-07:00	2020-05-26T22:29:51+00:00	2020-05-28T06:59:59+00:00	-1	y8bph8t3yx79zfx@marketplace.amazon.com	Jim Graebner	+1 347-448-3190 ext. 21928	ABR0022	Purchase Now for Delivery by Friday | Arabella Farm Direct Bouquet of 12 Fresh Cut Pink Roses with a Free Glass Vase	1	0	1	SecondDay	Jim Graebner	4913 Royene Ave NE			Albuquerque	NM	87110-5837	US		Ella--           Happy Birthday! From Grubb	false		
113-5266288-4583432	28847396385770	2020-05-26T22:06:43+00:00	2020-05-26T15:06:43-07:00	2020-05-26T22:35:59+00:00	2020-05-28T06:59:59+00:00	-1	303rnbyv81f5g3f@marketplace.amazon.com	Peter Cotrona	+1 210-728-4548 ext. 59661	ABM010	Purchase Now for Delivery by Friday | Arabella Bouquets | Fields of The World Bouquet of Fresh Cut Flowers in a Free Designer Glass Vase	1	0	1	SecondDay	Vicki Ambro	1093 N. FARMS RD.			WALLINGFORD	CT	06493	US		Happy Birthday! Hope you're feeling better. Love Peter. From Peter Cotrona	false		
112-9967907-7033058	01741962317250	2020-05-26T22:15:48+00:00	2020-05-26T15:15:48-07:00	2020-05-26T22:46:00+00:00	2020-05-28T06:59:59+00:00	-1	wt7y7040rdm9y2c@marketplace.amazon.com	briannhatlam	+1 412-532-4665 ext. 85934	ABR0055	Purchase Now for Delivery by Friday | Arabella Farm Direct Bouquet of 12 Stems of Fresh Cut Hot Pink Roses in a Free Designer Glass Vase	1	0	1	SecondDay	Nancy styler	2104 CAMELIA CIR C-110			MIDLOTHIAN	VA	23112-4144	US			false		
112-7000396-5917814	56606402702850	2020-05-26T22:19:07+00:00	2020-05-26T15:19:07-07:00	2020-05-26T22:46:51+00:00	2020-05-28T06:59:59+00:00	-1	42ccy4bls3jskhj@marketplace.amazon.com	Charles Teleki	+1 314-282-9402 ext. 50122	ABR0022	Purchase Now for Delivery by Friday | Arabella Farm Direct Bouquet of 12 Fresh Cut Pink Roses with a Free Glass Vase	1	0	1	SecondDay	Theresa Teleki	3465 AMBOY RD APT 4C			STATEN ISLAND	NY	10306-2773	US		Happy Birthday I love you. From Charles Teleki	false		
112-7000396-5917814	20714134549434	2020-05-26T22:19:07+00:00	2020-05-26T15:19:07-07:00	2020-05-26T22:46:51+00:00	2020-05-28T06:59:59+00:00	-1	42ccy4bls3jskhj@marketplace.amazon.com	Charles Teleki	+1 314-282-9402 ext. 50122	ABR001	Purchase Now for Delivery by Friday | Arabella Bouquets 12 Stems of Fresh Cut Red Roses in a Free Designer Glass Vase	1	0	1	SecondDay	Theresa Teleki	3465 AMBOY RD APT 4C			STATEN ISLAND	NY	10306-2773	US		Happy Birthday I Love you. From Charles Teleki	false		
112-5711638-3781824	03300658668826	2020-05-26T22:31:27+00:00	2020-05-26T15:31:27-07:00	2020-05-26T22:54:35+00:00	2020-05-28T06:59:59+00:00	-1	r56vzc7qbhpc1jv@marketplace.amazon.com	Tracy Southerland	+1 347-448-3190 ext. 14198	ABM010	Purchase Now for Delivery by Friday | Arabella Bouquets | Fields of The World Bouquet of Fresh Cut Flowers in a Free Designer Glass Vase	1	0	1	SecondDay	Lisa Richards	10511 FAIRGROVE AVE			TUJUNGA	CA	91042-1905	US		Happy 20th Anniversary From Jeramy Kaiman	false		
111-7466010-7894643	51762209452474	2020-05-26T22:25:25+00:00	2020-05-26T15:25:25-07:00	2020-05-26T22:55:55+00:00	2020-05-28T06:59:59+00:00	-1	s4mmvvmmdz88nr9@marketplace.amazon.com	JUSTIN COGAR	+1 314-282-9402 ext. 43123	ABR0055	Purchase Now for Delivery by Friday | Arabella Farm Direct Bouquet of 12 Stems of Fresh Cut Hot Pink Roses in a Free Designer Glass Vase	1	0	1	SecondDay	JUSTIN COGAR	4454 ARBOR LN			SPRINGFIELD	OH	45503-6067	US			false		
111-3810990-7977046	04013258681794	2020-05-26T22:36:16+00:00	2020-05-26T15:36:16-07:00	2020-05-26T23:01:50+00:00	2020-05-28T06:59:59+00:00	-1	904vdslv1c48s2j@marketplace.amazon.com	Gregory Willard	+1 347-448-3190 ext. 97243	ABR0022	Purchase Now for Delivery by Friday | Arabella Farm Direct Bouquet of 12 Fresh Cut Pink Roses with a Free Glass Vase	1	0	1	SecondDay	Taylor Foth	4576 W PALO ALTO AVE APT 101			FRESNO	CA	93722-2927	US		Not in anyway related to a love fern! From Gregory Willard	false		
114-2765463-7116218	16384402783938	2020-05-26T22:32:47+00:00	2020-05-26T15:32:47-07:00	2020-05-26T23:03:05+00:00	2020-05-28T06:59:59+00:00	-1	js74xz6bhy2jhd4@marketplace.amazon.com	JASON DOMENICO	+1 210-728-4548 ext. 52213	ABR0022	Purchase Now for Delivery by Friday | Arabella Farm Direct Bouquet of 12 Fresh Cut Pink Roses with a Free Glass Vase	1	0	1	SecondDay	Thomas Domenico	N272 W2638 Appletree Ln	N272 W2638 Appletree Ln		Pewaukee	WI	53072	US			false		
114-9268146-2681823	45460441083522	2020-05-26T22:44:45+00:00	2020-05-26T15:44:45-07:00	2020-05-26T23:07:09+00:00	2020-05-28T06:59:59+00:00	-1	yqr5g12s6yn4vxh@marketplace.amazon.com	Jo Mella	+1 210-728-4548 ext. 62869	ABR0022	Purchase Now for Delivery by Friday | Arabella Farm Direct Bouquet of 12 Fresh Cut Pink Roses with a Free Glass Vase	1	0	1	SecondDay	Kathy Bond	612 SIXPENCE LN			GEORGETOWN	TX	78628-2368	US		Enjoy your gift! Happy Birthday with all our love From Debi and Mom	false		
112-6517618-2277053	15769540216826	2020-05-26T22:50:02+00:00	2020-05-26T15:50:02-07:00	2020-05-26T23:13:32+00:00	2020-05-28T06:59:59+00:00	-1	lssjzt4cxpdfrq2@marketplace.amazon.com	Whitney Stanton	+1 347-448-3190 ext. 68170	ABR0022	Purchase Now for Delivery by Friday | Arabella Farm Direct Bouquet of 12 Fresh Cut Pink Roses with a Free Glass Vase	1	0	1	SecondDay	Begona Romero	800 HIGH SCHOOL WAY APT 326			MOUNTAIN VIEW	CA	94041-1984	US		Happy Birthday Begs! We hope you had an awesome day. You are the best and we are all grateful to work with you! -Nicole, Christina, Jenna, Joyce, Amit, Omar, and Leerone From Begs's Google Team	false		
112-6452259-1541018	47608138645282	2020-05-26T22:51:02+00:00	2020-05-26T15:51:02-07:00	2020-05-26T23:16:03+00:00	2020-05-28T06:59:59+00:00	-1	2y2kn5zx5jsm13w@marketplace.amazon.com	Carolyn R Jackson	+1 314-282-9402 ext. 66156	ABR0022	Purchase Now for Delivery by Friday | Arabella Farm Direct Bouquet of 12 Fresh Cut Pink Roses with a Free Glass Vase	1	0	1	SecondDay	Valerie O. Jackson	1407 VALLEYMEDE RD			GREENSBORO	NC	27410-3937	US		Hi Cupcake, Congrats  Luv you,Reno From	false		
113-6771837-0775429	25490287440994	2020-05-26T22:53:34+00:00	2020-05-26T15:53:34-07:00	2020-05-26T23:18:11+00:00	2020-05-28T06:59:59+00:00	-1	8zyyffql1hzv3g3@marketplace.amazon.com	Jayne Young	+1 210-728-4548 ext. 45527	ABR0022	Purchase Now for Delivery by Friday | Arabella Farm Direct Bouquet of 12 Fresh Cut Pink Roses with a Free Glass Vase	1	0	1	SecondDay	Brennan Young & Kallie Campbell	244 W 74TH ST APT 8-C			NEW YORK	NY	10023-2117	US		We are overjoyed with happiness for both of you! You will be fantastic parents of our little granddaughter. Love, Mom and Dad From Mom and Dad	false		
111-1653728-9254623	29386162809682	2020-05-26T22:50:55+00:00	2020-05-26T15:50:55-07:00	2020-05-26T23:18:49+00:00	2020-05-28T06:59:59+00:00	-1	9jfcf8f62t4089p@marketplace.amazon.com	Laura	+1 314-282-9402 ext. 37711	ABR0022	Purchase Now for Delivery by Friday | Arabella Farm Direct Bouquet of 12 Fresh Cut Pink Roses with a Free Glass Vase	1	0	1	SecondDay	Martha Dean	6030 BELL ST			CLARKSBURG	WV	26301-7115	US		You are the strongest woman I know. Thank you for teaching me to live my life through Christ. We love you so much. I hope we can see you soon. Until then, we will continue to pray for you everyday. From Renee & Roger From Renee & Roger	false		
113-3174181-0638654	18714467196330	2020-05-26T22:52:14+00:00	2020-05-26T15:52:14-07:00	2020-05-26T23:19:38+00:00	2020-05-28T06:59:59+00:00	-1	vfpvhhh2rn1ljy7@marketplace.amazon.com	Tim McDougall	+1 210-728-4548 ext. 56158	ABR0022	Purchase Now for Delivery by Friday | Arabella Farm Direct Bouquet of 12 Fresh Cut Pink Roses with a Free Glass Vase	1	0	1	SecondDay	Floydelle Cummings	4606 PELHAM DR			AUSTIN	TX	78727-5826	US			false		
111-4666538-2304206	59452213784354	2020-05-26T23:00:33+00:00	2020-05-26T16:00:33-07:00	2020-05-26T23:20:15+00:00	2020-05-28T06:59:59+00:00	-1	p9xvh24xvb5hzw5@marketplace.amazon.com	vincent a salemi	+1 412-532-4665 ext. 95972	ABR0022	Purchase Now for Delivery by Friday | Arabella Farm Direct Bouquet of 12 Fresh Cut Pink Roses with a Free Glass Vase	1	0	1	SecondDay	Marian DiNovi	221 N MAISON CT			ELMHURST	IL	60126-2917	US		Feel Better Love, Aunt Mary, Vince, Rose, and Family	false		
113-0734950-5329035	16050726318842	2020-05-26T22:56:57+00:00	2020-05-26T15:56:57-07:00	2020-05-26T23:20:48+00:00	2020-05-28T06:59:59+00:00	-1	pznvykqgv1nj26f@marketplace.amazon.com	Craig Barwell	+1 314-282-9402 ext. 35539	ABR0066	Purchase Now for Delivery by Friday | Arabella Bouquets | 12 Stems of Fresh Cut White Roses in a Free Designer Glass Vase	1	0	1	SecondDay	Natalie Corven	6543 BROOKVIEW MANOR DR			GALENA	OH	43021-2521	US		Another love lost, but never forgotten ❤️  I wish we could be there to support you in person, but I hope these roses remind you of your angels looking down on you every day! We love you endlessly, and pray for peace of heart. From Love, Casey	false		
113-0249640-5986676	22735194732738	2020-05-26T22:57:34+00:00	2020-05-26T15:57:34-07:00	2020-05-26T23:22:18+00:00	2020-05-28T06:59:59+00:00	-1	t22hn2sdqwpnx3z@marketplace.amazon.com	Nanette Ross	+1 347-448-3190 ext. 36409	ABR0033	Purchase Now for Delivery by Friday | Arabella Farm Direct Bouquet of 12 Fresh Cut Orange Roses with a Free Glass Vase	1	0	1	SecondDay	Marie Howland	500 W HARBOR DR UNIT 1707			SAN DIEGO	CA	92101-7736	US		Hi Marie, Happy 70th! Welcome to the club. Love, Nan	false		
113-0243241-8536264	46495273058090	2020-05-26T22:56:43+00:00	2020-05-26T15:56:43-07:00	2020-05-26T23:27:09+00:00	2020-05-28T06:59:59+00:00	-1	1zxvv3wfk5rrbm9@marketplace.amazon.com	Aaron Sanchez	+1 347-448-3190 ext. 69004	ABR0033	Purchase Now for Delivery by Friday | Arabella Farm Direct Bouquet of 12 Fresh Cut Orange Roses with a Free Glass Vase	1	0	1	SecondDay	Aaron J Sanchez	2514 57TH AVE SW	103		SEATTLE	WA	98116-2256	US			false		
113-7094260-1458606	37763947892986	2020-05-26T23:04:03+00:00	2020-05-26T16:04:03-07:00	2020-05-26T23:34:00+00:00	2020-05-28T06:59:59+00:00	-1	7g2pwzh2v2gw11z@marketplace.amazon.com	john strathman	+1 210-728-4548 ext. 14849	ABR0033	Purchase Now for Delivery by Friday | Arabella Farm Direct Bouquet of 12 Fresh Cut Orange Roses with a Free Glass Vase	1	0	1	SecondDay	The Hills	24176 SPRING MEADOW CIR			ALDIE	VA	20105-3476	US			false		
111-8566929-1384216	47180504509234	2020-05-26T23:12:23+00:00	2020-05-26T16:12:23-07:00	2020-05-26T23:38:18+00:00	2020-05-28T06:59:59+00:00	-1	fqc98bnkyxjp1fs@marketplace.amazon.com	Ashley Gelman	+1 347-448-3190 ext. 34577	ABR0055	Purchase Now for Delivery by Friday | Arabella Farm Direct Bouquet of 12 Stems of Fresh Cut Hot Pink Roses in a Free Designer Glass Vase	1	0	1	SecondDay	Rachel Walter	4222 STONEHAVEN RD			SOUTH EUCLID	OH	44121-3135	US		Wish I could be there - like you've always been there for me - but sending lots of love and well wishes!  Love ya, Ash From Ashley Gelman	false		
114-0642097-2565041	29230478468770	2020-05-26T23:13:52+00:00	2020-05-26T16:13:52-07:00	2020-05-26T23:41:06+00:00	2020-05-28T06:59:59+00:00	-1	qbf8bp6hdjkx53n@marketplace.amazon.com	Bret Waddell	+1 347-448-3190 ext. 04569	ABR013	Purchase Now for Delivery by Friday | Arabella Farm Direct Bouquet of 18 Fresh Cut Yellow Roses with a Free Glass Vase	1	0	1	SecondDay	Bret Waddell	6598 MICKEYS TRL			KALAMAZOO	MI	49009-5814	US			false		
113-9875994-9448241	28153594536530	2020-05-26T23:18:51+00:00	2020-05-26T16:18:51-07:00	2020-05-26T23:47:25+00:00	2020-05-28T06:59:59+00:00	-1	1b8t01kfxfjg7f9@marketplace.amazon.com	Kimberly A. Fruin	+1 210-728-4548 ext. 83673	ABR012	Purchase Now for Delivery by Friday | Arabella Farm Direct Bouquet of 18 Fresh Cut Pink Roses with a Free Glass Vase	1	0	1	SecondDay	Jackie Gilpin	2008 MARCONI WAY			SOUTH LAKE TAHOE	CA	96150-6635	US		Happy Birthday Jackie.. We love you! Wish we could be together again this year like last year but hopefully soon!! Love Uncle Tony and "Auntie" Kim	false		
111-6432473-3917810	08981958689874	2020-05-26T23:23:06+00:00	2020-05-26T16:23:06-07:00	2020-05-26T23:49:59+00:00	2020-05-28T06:59:59+00:00	-1	bc2k0vjvdn2prtx@marketplace.amazon.com	ravilaakeram@gmail.com	+1 347-448-3190 ext. 99466	ABM010	Purchase Now for Delivery by Friday | Arabella Bouquets | Fields of The World Bouquet of Fresh Cut Flowers in a Free Designer Glass Vase	1	0	1	SecondDay	Bheemadaye Pooran	12949 135TH ST			SOUTH OZONE PARK	NY	11420-3543	US		Bheema, I love u and misses u a lot  Sorry for all the times I make u feel hurt. From Laakeram	false		
112-3564279-9769008	41576215494562	2020-05-26T23:32:09+00:00	2020-05-26T16:32:09-07:00	2020-05-26T23:58:08+00:00	2020-05-30T06:59:59+00:00	-3	dwx7js2mcx44f15@marketplace.amazon.com	A A Whittingham	+1 314-282-9402 ext. 84460	ABR013	Purchase Now for Delivery by Friday | Arabella Farm Direct Bouquet of 18 Fresh Cut Yellow Roses with a Free Glass Vase	1	0	1	Standard	Amber Midkiff	2821 WAYWOOD DR			MURFREESBORO	TN	37128-7689	US		Hi Sweetheart hope you are feeling better wish i could be there with you. Love  Andrew xxxxx	false		
111-7183647-6581059	13889257113938	2020-05-26T23:37:31+00:00	2020-05-26T16:37:31-07:00	2020-05-27T00:00:45+00:00	2020-05-28T06:59:59+00:00	-1	lf6c7d0v8yybm3d@marketplace.amazon.com	Mary	+1 347-448-3190 ext. 61169	ABR0022	Purchase Now for Delivery by Friday | Arabella Farm Direct Bouquet of 12 Fresh Cut Pink Roses with a Free Glass Vase	1	0	1	SecondDay	Colleen and Wade Smith	2334 LAMBETH DR			UPPER ST CLAIR	PA	15241-2414	US		Remembering our Angel 30 years ago.  Love you guys! Sis and Dan	false		
113-0048881-4337841	28914985482562	2020-05-26T23:33:24+00:00	2020-05-26T16:33:24-07:00	2020-05-27T00:03:53+00:00	2020-05-28T06:59:59+00:00	-1	6p479lbn2965xs2@marketplace.amazon.com	jeff clegg	+1 210-728-4548 ext. 04582	ABM010	Purchase Now for Delivery by Friday | Arabella Bouquets | Fields of The World Bouquet of Fresh Cut Flowers in a Free Designer Glass Vase	1	0	1	SecondDay	Elena Baker	240 W WESTFIELD AVE APT 614			ROSELLE PARK	NJ	07204-1819	US			false		
112-2208015-4149019	27404536028634	2020-05-26T23:38:50+00:00	2020-05-26T16:38:50-07:00	2020-05-27T00:06:41+00:00	2020-05-28T06:59:59+00:00	-1	2vhjv1lghnmk3ds@marketplace.amazon.com	Wendy Lanski	+1 763-225-9463 ext. 90093	ABR0022	Purchase Now for Delivery by Friday | Arabella Farm Direct Bouquet of 12 Fresh Cut Pink Roses with a Free Glass Vase	1	0	1	SecondDay	Mary Armstrong	6808 COUNTY ROAD 305			FULTON	MO	65251-6202	US		Happy housewarming and birthday! From Libi, Liam, Wendy & Steve	false		
113-7038399-0259447	02011985201130	2020-05-26T23:39:45+00:00	2020-05-26T16:39:45-07:00	2020-05-27T00:09:17+00:00	2020-05-28T06:59:59+00:00	-1	sbh51ypx4dhqvwt@marketplace.amazon.com	Sonilyn Alvarado	+1 347-448-3190 ext. 90188	ABM010	Purchase Now for Delivery by Friday | Arabella Bouquets | Fields of The World Bouquet of Fresh Cut Flowers in a Free Designer Glass Vase	1	0	1	SecondDay	Waldina Sanchez	20 tanager lane			Levittown	NY	11756	US		Solo porque la amamos !! R&S ♥️!! From Sonilyn Alvarado	false		
112-8295402-8953802	00784987947666	2020-05-26T23:43:29+00:00	2020-05-26T16:43:29-07:00	2020-05-27T00:13:56+00:00	2020-05-28T06:59:59+00:00	-1	96vdlppgzlz4671@marketplace.amazon.com	LAURIE SHIRK	817995671	ABM010	Purchase Now for Delivery by Friday | Arabella Bouquets | Fields of The World Bouquet of Fresh Cut Flowers in a Free Designer Glass Vase	1	0	1	SecondDay	The Lacey Family	609 PARK PLACE CT			SOUTHLAKE	TX	76092-7020	US			false		
113-9888002-2242640	23467526338042	2020-05-27T00:00:24+00:00	2020-05-26T17:00:24-07:00	2020-05-27T00:16:22+00:00	2020-05-28T06:59:59+00:00	-1	fhh25gjk9h3vsqb@marketplace.amazon.com	Michael Gorelick	+1 314-282-9402 ext. 57237	ABR0066	Purchase Now for Delivery by Friday | Arabella Bouquets | 12 Stems of Fresh Cut White Roses in a Free Designer Glass Vase	1	0	1	SecondDay	The Bugge Family	263 KERRY ST			HOLBROOK	NY	11741-3817	US		We are so sorry for the loss of your  Mother. Sending you hugs. You're in our thoughts. From Nancy & The Northeast Team From Nancy & The Northeast Team,	false		
112-8288066-8706623	52834605016738	2020-05-26T23:54:27+00:00	2020-05-26T16:54:27-07:00	2020-05-27T00:19:47+00:00	2020-05-28T06:59:59+00:00	-1	9z7jkvhf95rhzqr@marketplace.amazon.com	dan	+1 314-282-9402 ext. 50726	ABR0022	Purchase Now for Delivery by Friday | Arabella Farm Direct Bouquet of 12 Fresh Cut Pink Roses with a Free Glass Vase	1	0	1	SecondDay	Eileen Bauth	3813 WOODSIDE RD			LAWTONS	NY	14091-9614	US		Happy Birthday!!!🥰🌷😍🦋😊🌸😁🌹😜 We love you and miss you. ❤️💜❤️ From Kim, Dan, Noah, Ava and Ellie	false		
113-2469005-6749068	59510775542610	2020-05-26T23:57:40+00:00	2020-05-26T16:57:40-07:00	2020-05-27T00:26:47+00:00	2020-05-28T06:59:59+00:00	-1	rtsd9xytsjr6k1g@marketplace.amazon.com	Pat Rybak	+1 347-448-3190 ext. 99858	ABR0022	Purchase Now for Delivery by Friday | Arabella Farm Direct Bouquet of 12 Fresh Cut Pink Roses with a Free Glass Vase	1	0	1	SecondDay	Colleen Curran	63 BUSH ST			ASHLAND	OR	97520-2605	US		Wishing you all the best, From Patrick and Ana and Nick	false		
114-4914509-1359400	40002121601354	2020-05-26T23:59:50+00:00	2020-05-26T16:59:50-07:00	2020-05-27T00:29:42+00:00	2020-05-28T06:59:59+00:00	-1	68lqm1c7cvqzp9t@marketplace.amazon.com	Richard Brunk	+1 347-448-3190 ext. 41647	ABR0022	Purchase Now for Delivery by Friday | Arabella Farm Direct Bouquet of 12 Fresh Cut Pink Roses with a Free Glass Vase	1	0	1	SecondDay	Richard Brunk	1024 COPPERAS BND			CALDWELL	TX	77836-2334	US			false		
114-7922330-6195403	36201723330466	2020-05-27T00:18:31+00:00	2020-05-26T17:18:31-07:00	2020-05-27T00:45:36+00:00	2020-05-28T06:59:59+00:00	-1	tbh7wvtd5gpf7zd@marketplace.amazon.com	Corey Seward	+1 210-728-4548 ext. 84522	ABR0066	Purchase Now for Delivery by Friday | Arabella Bouquets | 12 Stems of Fresh Cut White Roses in a Free Designer Glass Vase	1	0	1	SecondDay	Lois Jirgens	310 E GARFIELD ST			LAURENS	IA	50554-1118	US		Happy Birthday!!  Love. Corey Amy and Nathaniel From Corey Seward	false		
111-3477781-6148246	43772889388090	2020-05-27T00:20:05+00:00	2020-05-26T17:20:05-07:00	2020-05-27T00:49:29+00:00	2020-05-28T06:59:59+00:00	-1	cfyx1j0kszxhf92@marketplace.amazon.com	Mark Dosch	+1 347-448-3190 ext. 31405	ABR012	Purchase Now for Delivery by Friday | Arabella Farm Direct Bouquet of 18 Fresh Cut Pink Roses with a Free Glass Vase	1	0	1	SecondDay	Debra Cecere	5 CHESHIRE RDG			VICTOR	NY	14564-8978	US		Dear Mom, Happy Birthday!  We wish we were with you this weekend.  Love you so much!  Wear your Tiara and we will be thinking of you all day. From Dina, Mark, Mary, Mike and Joe	false		
114-7507908-1260260	07019202467866	2020-05-27T00:25:52+00:00	2020-05-26T17:25:52-07:00	2020-05-27T00:52:26+00:00	2020-05-28T06:59:59+00:00	-1	5g7pkdjf4lbpb75@marketplace.amazon.com	Maulik Purohit	+1 412-532-4665 ext. 74316	ABR0033	Purchase Now for Delivery by Friday | Arabella Farm Direct Bouquet of 12 Fresh Cut Orange Roses with a Free Glass Vase	1	0	1	SecondDay	Maulik Purohit	113 WEATHERSTONE DR			BEREA	OH	44017-1090	US		Hi Jennifer, Very sorry to hear about your loss.  I wish you the best during these difficult times.  Will keep you and your family in my thoughts and prayers.   Warm regards, Maulik Purohit	false		
111-7360021-9680234	31841859962930	2020-05-27T00:36:52+00:00	2020-05-26T17:36:52-07:00	2020-05-27T00:56:35+00:00	2020-05-28T06:59:59+00:00	-1	pvq00jw9bdx8hnz@marketplace.amazon.com	Linell M. Griffin	+1 314-282-9402 ext. 40143	ABR0033	Purchase Now for Delivery by Friday | Arabella Farm Direct Bouquet of 12 Fresh Cut Orange Roses with a Free Glass Vase	1	0	1	SecondDay	JONI SCOTT	194 SAPPHIRE LANE			FRANKLIN PARK	NJ	08823	US			false		
113-4600854-0085012	12883918664530	2020-05-27T00:36:55+00:00	2020-05-26T17:36:55-07:00	2020-05-27T01:01:51+00:00	2020-05-28T06:59:59+00:00	-1	c9m6l7654phrblk@marketplace.amazon.com	Andy Wojack	+1 347-448-3190 ext. 04820	ABM010	Purchase Now for Delivery by Friday | Arabella Bouquets | Fields of The World Bouquet of Fresh Cut Flowers in a Free Designer Glass Vase	1	0	1	SecondDay	Karen Wojack	2060 CHEROKEE ST # E			GRAFTON	WI	53024-9311	US		Happy Birthday Mom! Have a great day! Love, Andy, Crista & Siena	false		
114-7525060-9537845	18983721327954	2020-05-27T00:33:49+00:00	2020-05-26T17:33:49-07:00	2020-05-27T01:02:23+00:00	2020-05-28T06:59:59+00:00	-1	z7s1691ry4pds0f@marketplace.amazon.com	Michael Murphy	+1 314-282-9402 ext. 86029	ABR0055	Purchase Now for Delivery by Friday | Arabella Farm Direct Bouquet of 12 Stems of Fresh Cut Hot Pink Roses in a Free Designer Glass Vase	1	0	1	SecondDay	Michael Murphy	9138 CARDWELL ST			HOUSTON	TX	77055-7418	US		HAPPY ANNIVERSARY FROM DAD, MIKE, GENA AND GARY! From Michael Murphy	false		
112-6655728-2917819	41993998481690	2020-05-27T01:12:17+00:00	2020-05-26T18:12:17-07:00	2020-05-27T01:13:10+00:00	2020-05-29T06:59:59+00:00	-2	hnfb2v4dhj2j9ys@marketplace.amazon.com	Ryan	+1 347-448-3190 ext. 51391	ABR0022	Purchase Now for Delivery by Friday | Arabella Farm Direct Bouquet of 12 Fresh Cut Pink Roses with a Free Glass Vase	1	0	1	Expedited	Felicia French	837 REDWOOD DR			DANVILLE	CA	94506-2183	US		Hi Mom,  Happy belated Mother's Day! I miss you very much and wish I could blink myself home during these trying times. Thank you for being an outstanding mom and being the driving force in my life. I love you	false		
111-0183747-3649864	37089417015882	2020-05-27T00:55:57+00:00	2020-05-26T17:55:57-07:00	2020-05-27T01:25:08+00:00	2020-05-29T06:59:59+00:00	-2	gnffmq61cbm6f6b@marketplace.amazon.com	G Friedman	+1 210-728-4548 ext. 37114	ABR0022	Arabella Farm Direct Bouquet of 12 Fresh Cut Pink Roses with a Free Glass Vase	1	0	1	Expedited	Gudrun Swann	4474 IRISH IVY			SPRINGFIELD	MO	65804-6751	US		Happy happy birthday!!! We love you!!!! From Melissa, Greg, Kaitlyn, Alex and Kinley too	false		
112-7268309-2066608	03577715974106	2020-05-27T00:56:23+00:00	2020-05-26T17:56:23-07:00	2020-05-27T01:26:13+00:00	2020-05-28T06:59:59+00:00	-1	xb5vwdhhkp1fnlp@marketplace.amazon.com	Heather Jirka	+1 347-448-3190 ext. 92903	ABM0033	Purchase Now for Delivery by Friday | Arabella Farm Direct Bouquet of Fresh Cut White Hydrangea with a Free Glass Vase	1	0	1	SecondDay	SAVANNAH BIRTHDAY GIRL AHRENS	2640 LAREDO LN			SIDNEY	NE	69162-2426	US		Happy Birthday! From Mom and Dad....ok T too	false		
112-1829416-2505057	58315615832826	2020-05-27T00:58:33+00:00	2020-05-26T17:58:33-07:00	2020-05-27T01:29:02+00:00	2020-05-28T06:59:59+00:00	-1	g1plcw0vvfws1nv@marketplace.amazon.com	Lowella	+1 314-282-9402 ext. 17886	ABR001	Purchase Now for Delivery by Friday | Arabella Bouquets 12 Stems of Fresh Cut Red Roses in a Free Designer Glass Vase	1	0	1	SecondDay	Lowella Balagtas	30 OAK GROVE RD			PALMYRA	VA	22963-2534	US			false		
113-0823069-5846605	01858198024346	2020-05-27T01:19:04+00:00	2020-05-26T18:19:04-07:00	2020-05-27T01:46:40+00:00	2020-05-29T06:59:59+00:00	-2	pt7h31935p4dqyy@marketplace.amazon.com	Christina	+1 314-282-9402 ext. 72238	ABR0022	Arabella Farm Direct Bouquet of 12 Fresh Cut Pink Roses with a Free Glass Vase	1	0	1	Expedited	Sara Sweeney	10 LAURIE AVE			COVENTRY	RI	02816-6356	US		Congrats on the newest addition to your family! From Christina Bordieri	false		
112-5003050-0897804	53698986802754	2020-05-27T01:22:46+00:00	2020-05-26T18:22:46-07:00	2020-05-27T01:54:51+00:00	2020-05-29T06:59:59+00:00	-2	1m6n1q27glvfshh@marketplace.amazon.com	Pooja Pradhan	+1 347-448-3190 ext. 67799	ABR0022	Arabella Farm Direct Bouquet of 12 Fresh Cut Pink Roses with a Free Glass Vase	1	0	1	Expedited	Anna Favrot Young	3814 24TH ST APT 101			SAN FRANCISCO	CA	94114-3861	US		Dear Anna,  Wishing you a very happy bday and hope you take time out to celebrate YOU!  Best Wishes From Pooja	false		
111-0391512-0965844	34308931491322	2020-05-27T01:32:20+00:00	2020-05-26T18:32:20-07:00	2020-05-27T01:57:56+00:00	2020-05-29T06:59:59+00:00	-2	xbcbptl0gs0jqrg@marketplace.amazon.com	Lynn Kuroski	+1 347-448-3190 ext. 90392	ABR0022	Arabella Farm Direct Bouquet of 12 Fresh Cut Pink Roses with a Free Glass Vase	1	0	1	Expedited	Faye Morelock	118 COUNTRYSHIRE CT			KINGSPORT	TN	37663-2810	US		Happy Birthday Mom!    Love, Lynn and Jennifer From Lynn Kuroski	false		
112-4622896-4720234	50702634377906	2020-05-27T01:34:32+00:00	2020-05-26T18:34:32-07:00	2020-05-27T02:03:12+00:00	2020-05-28T06:59:59+00:00	-1	pxytcn96gh0nfyb@marketplace.amazon.com	Carolina Osorio	+1 347-448-3190 ext. 18197	ABM0033	Purchase Now for Delivery by Friday | Arabella Farm Direct Bouquet of Fresh Cut White Hydrangea with a Free Glass Vase	1	0	1	SecondDay	Carolina Osorio C	21205 NE 37TH AVE APT 703			AVENTURA	FL	33180-4053	US		Patouchy, que cumplas muchos mas!!! Te queremos mucho De Los Arboleda Osorio	false		
112-5278752-9884267	65089792379978	2020-05-27T01:37:13+00:00	2020-05-26T18:37:13-07:00	2020-05-27T02:03:30+00:00	2020-05-28T06:59:59+00:00	-1	9wlzdxr33p4mv35@marketplace.amazon.com	RIDLC	+1 314-282-9402 ext. 62270	ABM010	Purchase Now for Delivery by Friday | Arabella Bouquets | Fields of The World Bouquet of Fresh Cut Flowers in a Free Designer Glass Vase	1	0	1	SecondDay	Dulce Silvestre de De Leon	4322 HOWLAND ST			PHILADELPHIA	PA	19124-4320	US		Ere una Madre excepcional. FELIZ DÍA DE LAS MADRES.   TE AMO.. De RIDLC	false		
111-2792048-3565029	39949038435018	2020-05-27T01:40:32+00:00	2020-05-26T18:40:32-07:00	2020-05-27T02:05:57+00:00	2020-05-28T06:59:59+00:00	-1	tq8tsnv97206wg2@marketplace.amazon.com	Cindy	+1 347-448-3190 ext. 66841	ABM010	Purchase Now for Delivery by Friday | Arabella Bouquets | Fields of The World Bouquet of Fresh Cut Flowers in a Free Designer Glass Vase	1	0	1	SecondDay	Christina Bhola	1340 LONGCREEK DR APT 910			COLUMBIA	SC	29210-7179	US		Congratulations on the your new and first apartment. I'm so proud of you. Hope you enjoy your own space. It only gets better from here. Love you, Mom ♥️ From Cindy	false		
114-1958072-3904228	59921194609898	2020-05-27T01:41:14+00:00	2020-05-26T18:41:14-07:00	2020-05-27T02:07:26+00:00	2020-05-28T06:59:59+00:00	-1	drh16y0npkfn1w7@marketplace.amazon.com	Amy Watson	+1 210-728-4548 ext. 11483	ABR004	Arabella Farm Direct Bouquet of 12 Fresh Cut Yellow Roses with a Free Glass Vase	1	0	1	SecondDay	Emma & Janine Giammanco	1214 VIRGINIA AVE			MONACA	PA	15061-1951	US		We hope you both heal soon from your loss.       Love Riley & her California family	false		
113-1634814-9113803	59200195225498	2020-05-27T01:47:23+00:00	2020-05-26T18:47:23-07:00	2020-05-27T02:17:16+00:00	2020-05-29T06:59:59+00:00	-2	bvm39p8ydd1yhtl@marketplace.amazon.com	carmela rizzi	+1 347-448-3190 ext. 77319	ABR0022	Arabella Farm Direct Bouquet of 12 Fresh Cut Pink Roses with a Free Glass Vase	1	0	1	Expedited	Maria Impastato	564 DRUMGOOLE RD E			STATEN ISLAND	NY	10312-3307	US		Happy Anniversary! Love Joe From Joe I	false		
112-4410585-0523408	04574509462130	2020-05-27T01:56:42+00:00	2020-05-26T18:56:42-07:00	2020-05-27T02:25:20+00:00	2020-05-28T06:59:59+00:00	-1	rv4twbb38zcq2tv@marketplace.amazon.com	Ellen B	+1 347-448-3190 ext. 58914	ABR001	Purchase Now for Delivery by Friday | Arabella Bouquets 12 Stems of Fresh Cut Red Roses in a Free Designer Glass Vase	1	0	1	SecondDay	Mrs. Helen Oliveira	5800 NE Island Coveway	Unit #2 104		Stuart	Florida	34996	US		Love you, Helen From Michael and Bonnie	false		
113-5532335-9242638	60359808626954	2020-05-27T01:57:50+00:00	2020-05-26T18:57:50-07:00	2020-05-27T02:27:15+00:00	2020-05-28T06:59:59+00:00	-1	xqn79bs65t8bcqy@marketplace.amazon.com	Albert Tyas	+1 347-448-3190 ext. 07151	ABR0055	Purchase Now for Delivery by Friday | Arabella Farm Direct Bouquet of 12 Stems of Fresh Cut Hot Pink Roses in a Free Designer Glass Vase	1	0	1	SecondDay	Sharlene Tyas	157 MILLER ST  705			SEEKONK	MA	02771-1951	US		Hey Sharl,  Happy Birthday, even if we're still stuck in quarantine!  Love, Al From Albert Tyas	false		
113-1978789-3929056	24095552873074	2020-05-27T01:58:31+00:00	2020-05-26T18:58:31-07:00	2020-05-27T02:28:09+00:00	2020-05-29T06:59:59+00:00	-2	62vwxb5hss9pj7n@marketplace.amazon.com	Susan Heffner	+1 763-225-9463 ext. 15107	ABR0022	Arabella Farm Direct Bouquet of 12 Fresh Cut Pink Roses with a Free Glass Vase	1	0	1	Expedited	Turist	14311 43RD AVE W			LYNNWOOD	WA	98087-1864	US		Enjoy your gift! From Susan Heffner	false		
114-2254841-4382606	03722872898970	2020-05-27T02:32:56+00:00	2020-05-26T19:32:56-07:00	2020-05-27T02:59:19+00:00	2020-05-28T06:59:59+00:00	-1	n4zd40pp0fx9wjy@marketplace.amazon.com	Arpad Kovacsy	+1 412-532-4665 ext. 41301	ABM010	Purchase Now for Delivery by Friday | Arabella Bouquets | Fields of The World Bouquet of Fresh Cut Flowers in a Free Designer Glass Vase	1	0	1	SecondDay	Melanie Harrison	5506 ASHTON OAKS CT			FAIRFAX	VA	22030-7219	US		Dearest Melanie, You're in my heart and prayers.  May your Mother's eternal love always comfort you and bring you joy. Arpad	false		
114-2460059-1511430	46739762075882	2020-05-27T02:33:13+00:00	2020-05-26T19:33:13-07:00	2020-05-27T02:59:52+00:00	2020-05-29T06:59:59+00:00	-2	w4f6sr01c7b1rdf@marketplace.amazon.com	payton truttschel	+1 314-282-9402 ext. 32946	ABR0022	Arabella Farm Direct Bouquet of 12 Fresh Cut Pink Roses with a Free Glass Vase	1	0	1	Expedited	Grandma Truttschel	16916 LAX CHAPEL RD			KIEL	WI	53042-3128	US		Happy birthday Grandma! We love you so much and hope you have a great week of celebrating. Sending lots of love and hugs! - Payton, Taylor and Greta From payton truttschel	false		
113-0889218-9361858	28005857008330	2020-05-27T02:36:41+00:00	2020-05-26T19:36:41-07:00	2020-05-27T03:04:40+00:00	2020-05-28T06:59:59+00:00	-1	xhxl8l9qnwj7p6g@marketplace.amazon.com	Annette Vaughn	+1 763-225-9463 ext. 03014	ABR0066	Purchase Now for Delivery by Friday | Arabella Bouquets | 12 Stems of Fresh Cut White Roses in a Free Designer Glass Vase	1	0	1	SecondDay	Cami Vaughn	18733 WHITE MOON DR			MORGAN HILL	CA	95037-9089	US		Happy Birthday Cami❣️ We love you💕. Have a great day! Love, Dad, Annette, Tanner and Grayden	false		
111-7552565-2772233	24100648220618	2020-05-27T02:52:03+00:00	2020-05-26T19:52:03-07:00	2020-05-27T03:20:56+00:00	2020-05-28T06:59:59+00:00	-1	l3skfp0nblrmn98@marketplace.amazon.com	Phyllis Leone	+1 210-728-4548 ext. 60075	ABR013	Purchase Now for Delivery by Friday | Arabella Farm Direct Bouquet of 18 Fresh Cut Yellow Roses with a Free Glass Vase	1	0	1	SecondDay	Gloria Ngai	606 SAINT CLAIR AVE APT 303			SHEBOYGAN	WI	53081-3450	US		Happy Birthday Gloria!!! Love you Bob,Phyllis,Gregory. From Phyllis Leone	false		
112-3098245-1849053	23579182308586	2020-05-27T03:02:53+00:00	2020-05-26T20:02:53-07:00	2020-05-27T03:26:55+00:00	2020-05-28T06:59:59+00:00	-1	yw3yk1tfcn5hzwx@marketplace.amazon.com	mary ann tullock	+1 210-728-4548 ext. 93267	ABM002	Purchase Now for Delivery by Friday | Arabella Bouquets Fresh Cut White Calla Lilies in a Free Designer Glass Vase	1	0	1	SecondDay	Lauren Tullock	4711 HEEGE RD			SAINT LOUIS	MO	63123-5801	US		We are so proud of you... hang in there with the job struggles... Hope these brighten your day... Love,  Mom and Dad Tullock From Art and Mary Ann	false		
111-5408766-9409864	46218382336522	2020-05-27T03:14:40+00:00	2020-05-26T20:14:40-07:00	2020-05-27T03:52:03+00:00	2020-05-29T06:59:59+00:00	-2	40kyqw2mj2bk3k6@marketplace.amazon.com	RUTH KAUFMAN	+1 347-448-3190 ext. 41737	ABR0022	Arabella Farm Direct Bouquet of 12 Fresh Cut Pink Roses with a Free Glass Vase	1	0	1	Expedited	Jackie Gerken	175 SUMMIT AVE			CENTRAL VALLEY	NY	10917-3536	US		Happy Birthday From RUTH KAUFMAN	false		
112-6652425-1354610	44172375696874	2020-05-27T03:32:34+00:00	2020-05-26T20:32:34-07:00	2020-05-27T04:01:40+00:00	2020-05-28T06:59:59+00:00	-1	c3zzn9l3d1s26bw@marketplace.amazon.com	Craig Mayer	+1 210-728-4548 ext. 99968	ABR0066	Purchase Now for Delivery by Friday | Arabella Bouquets | 12 Stems of Fresh Cut White Roses in a Free Designer Glass Vase	1	0	1	SecondDay	Craig Mayer	632 TWELVE OAKS LN			AUSTIN	TX	78704-6355	US		Happy Anniversary and Congratulations on Your New Kitchen. I Love You!! From Craig	false		
114-7624113-6217002	36936426497802	2020-05-27T03:32:04+00:00	2020-05-26T20:32:04-07:00	2020-05-27T04:02:22+00:00	2020-05-28T06:59:59+00:00	-1	gj789cyfwtfxlqd@marketplace.amazon.com	Edward T. Maguire	+1 347-448-3190 ext. 32178	ABR001	Purchase Now for Delivery by Friday | Arabella Bouquets 12 Stems of Fresh Cut Red Roses in a Free Designer Glass Vase	1	0	1	SecondDay	Patricia Maguire / Brightview	1 SYMMES RD	APT 2		ARLINGTON	MA	02474	US			false		
111-8467808-5333027	43762050718194	2020-05-27T03:36:43+00:00	2020-05-26T20:36:43-07:00	2020-05-27T04:03:08+00:00	2020-05-28T06:59:59+00:00	-1	f5hf294f1wvjz53@marketplace.amazon.com	Vijaya  Chalamalasetty	+1 210-728-4548 ext. 50744	ABR001	Purchase Now for Delivery by Friday | Arabella Bouquets 12 Stems of Fresh Cut Red Roses in a Free Designer Glass Vase	1	0	1	SecondDay	Dr. Lalitha Raguthu	17809 SAINT LUCIA ISLE DR			TAMPA	FL	33647-2715	US		Dear Lalitha and Prasad Happy Anniversary Bharani and Raghav	false		
113-7883752-5506607	46909836610794	2020-05-27T03:40:51+00:00	2020-05-26T20:40:51-07:00	2020-05-27T04:04:45+00:00	2020-05-29T06:59:59+00:00	-2	j3r3tpr9s86y80v@marketplace.amazon.com	agnes m duarte	+1 347-448-3190 ext. 11563	ABR0022	Arabella Farm Direct Bouquet of 12 Fresh Cut Pink Roses with a Free Glass Vase	1	0	1	Expedited	Jacqueline lang	2719 OAKHURST AVE			LOS ANGELES	CA	90034-1850	US		Hi, Enjoy your gift! From agnes m duarte	false		
112-1556770-8149829	64894942148978	2020-05-27T03:57:26+00:00	2020-05-26T20:57:26-07:00	2020-05-27T04:21:39+00:00	2020-05-29T06:59:59+00:00	-2	1hz07865p5c1j6j@marketplace.amazon.com	Gillian Rittman	+1 314-282-9402 ext. 91325	ABR0022	Arabella Farm Direct Bouquet of 12 Fresh Cut Pink Roses with a Free Glass Vase	1	0	1	Expedited	Eula Henderson	1814 MEADOW CREEK DR			PEARLAND	TX	77581-5648	US		Hi Eula we miss you! Love Barry and Gill	false		
114-7539932-7645834	16970859485826	2020-05-27T04:06:29+00:00	2020-05-26T21:06:29-07:00	2020-05-27T04:36:55+00:00	2020-05-28T06:59:59+00:00	-1	5h6nmq8ch5nrvgl@marketplace.amazon.com	Lara Postiglione	+1 314-282-9402 ext. 92946	ABM010	Purchase Now for Delivery by Friday | Arabella Bouquets | Fields of The World Bouquet of Fresh Cut Flowers in a Free Designer Glass Vase	1	0	1	SecondDay	Lara Postiglione	25211 E OTTAWA DR			AURORA	CO	80016-7533	US		Enjoy your gift! From Lara Postiglione	false		
113-4828945-3352255	19461718796986	2020-05-27T04:11:25+00:00	2020-05-26T21:11:25-07:00	2020-05-27T04:37:56+00:00	2020-05-29T06:59:59+00:00	-2	s1z5kp9t01jqwsr@marketplace.amazon.com	Scott Smigielski	+1 210-728-4548 ext. 36152	ABR0022	Arabella Farm Direct Bouquet of 12 Fresh Cut Pink Roses with a Free Glass Vase	1	0	1	Expedited	Ashley Hemkin	1068 COUNTRY CLUB DR			MORAGA	CA	94556-1924	US		Dear Hemkin Family, Thank you for everything while Kim was out of town. We appreciate your friendship and feel lucky we can count on you like family. Love, Kim, Scott, Graham and Grier From Smigielskis	false		
113-0247077-5797011	40391560618794	2020-05-27T04:07:00+00:00	2020-05-26T21:07:00-07:00	2020-05-27T04:41:12+00:00	2020-05-28T06:59:59+00:00	-1	9gpvyvblxjt2w5n@marketplace.amazon.com	joyce r richardson	+1 314-282-9402 ext. 16647	ABM010	Purchase Now for Delivery by Friday | Arabella Bouquets | Fields of The World Bouquet of Fresh Cut Flowers in a Free Designer Glass Vase	1	0	1	SecondDay	andrea richardson	103 VAUGHNWOOD TRCE			HUNTSVILLE	AL	35806-4085	US			false		
113-1117628-6841026	27614367600026	2020-05-27T04:14:46+00:00	2020-05-26T21:14:46-07:00	2020-05-27T04:43:13+00:00	2020-05-29T06:59:59+00:00	-2	s1z5kp9t01jqwsr@marketplace.amazon.com	Scott Smigielski	+1 210-728-4548 ext. 80931	ABR0022	Arabella Farm Direct Bouquet of 12 Fresh Cut Pink Roses with a Free Glass Vase	1	0	1	Expedited	Ashley Brush	17 THUNE AVE			MORAGA	CA	94556-1827	US		Dear Brush Family, Thank you for a fabulous trip to Alta! Thank you for being our extended family. Love, Kim, Scott, Graham and Grier From Kim Smigielski	false		
111-4388493-5230638	14586510214434	2020-05-27T04:12:12+00:00	2020-05-26T21:12:12-07:00	2020-05-27T04:47:33+00:00	2020-05-29T06:59:59+00:00	-2	w5zd1rncw2fnl0v@marketplace.amazon.com	Dallas Owens	+1 347-448-3190 ext. 97109	ABR0022	Arabella Farm Direct Bouquet of 12 Fresh Cut Pink Roses with a Free Glass Vase	1	0	1	Expedited	Dallas Owens	13346 CANOPY GROVE DR APT 402			TAMPA	FL	33625-4034	US		Mom,  Just was thinking of you and wanted to send you something for the dinner table.   Miss & Love You! From Dallas Owens	false		
111-9581853-1017851	15373984960506	2020-05-27T04:37:46+00:00	2020-05-26T21:37:46-07:00	2020-05-27T05:04:53+00:00	2020-05-28T06:59:59+00:00	-1	f7pg45l962mtp8b@marketplace.amazon.com	Sylvia Gomez	+1 210-728-4548 ext. 57058	ABM010	Purchase Now for Delivery by Friday | Arabella Bouquets | Fields of The World Bouquet of Fresh Cut Flowers in a Free Designer Glass Vase	1	0	1	SecondDay	Lora Carter	6858 SAN BRUNO CT			FONTANA	CA	92336-5061	US		Have a beautiful birthday Lora. I’ll be thinking of you. From Sylvia Gomez	false		
111-2998067-3417832	02495514308202	2020-05-27T04:44:01+00:00	2020-05-26T21:44:01-07:00	2020-05-27T05:13:18+00:00	2020-05-29T06:59:59+00:00	-2	8cnpgc4r506pxhf@marketplace.amazon.com	anastasia	+1 210-728-4548 ext. 15643	ABR0022	Arabella Farm Direct Bouquet of 12 Fresh Cut Pink Roses with a Free Glass Vase	1	0	1	Expedited	Lulu Pharris	65 E LAUREL AVE			LAKE FOREST	IL	60045-1203	US		Hi Mom, Happy Birthday!  Miss you so much!  Love, Anastasia and the girls	false		
113-8226912-8493848	53427376650650	2020-05-27T05:02:46+00:00	2020-05-26T22:02:46-07:00	2020-05-27T05:30:06+00:00	2020-05-28T06:59:59+00:00	-1	r3m5z5xy5l3s2l4@marketplace.amazon.com	Ebony Davis	+1 347-448-3190 ext. 21831	ABR014	Purchase Now for Delivery by Friday | Arabella Bouquets 18 Stems of Fresh Cut White Roses in a Free Designer Glass Vase	1	0	1	SecondDay	Marion Townes	138 DUNN CIR			GEORGETOWN	KY	40324-8796	US			false		
113-2454549-3605860	32456729652202	2020-05-27T05:21:03+00:00	2020-05-26T22:21:03-07:00	2020-05-27T05:47:57+00:00	2020-05-28T06:59:59+00:00	-1	q5087vbhqbd7k7w@marketplace.amazon.com	Abigail Avellan	+1 314-282-9402 ext. 76998	ABR0055	Purchase Now for Delivery by Friday | Arabella Farm Direct Bouquet of 12 Stems of Fresh Cut Hot Pink Roses in a Free Designer Glass Vase	1	0	1	SecondDay	Argelia Montenegro	21640 OLD CUTLER RD			MIAMI	FL	33190-1008	US		Feliz día de las Madres From Abigail Avellan	false		
113-1813717-4089855	33507120015850	2020-05-27T05:23:02+00:00	2020-05-26T22:23:02-07:00	2020-05-27T05:50:24+00:00	2020-05-28T06:59:59+00:00	-1	53nm9fhr5mhyql9@marketplace.amazon.com	Ashley Pennell Creech	+1 210-728-4548 ext. 14245	ABR012	Purchase Now for Delivery by Friday | Arabella Farm Direct Bouquet of 18 Fresh Cut Pink Roses with a Free Glass Vase	1	0	1	SecondDay	Jennifer Lewis	136 WINGHURST BLVD			ORLANDO	FL	32828-8058	US		Happy Birthday to my sweet Sister/Cousin. We love you Jennifer! Have a great day celebrating! From Love ~ Ash, Scott, Liam & Lanier	false		
111-2281015-7273806	51568623389058	2020-05-27T06:17:54+00:00	2020-05-26T23:17:54-07:00	2020-05-27T06:46:17+00:00	2020-05-28T06:59:59+00:00	-1	5fc1m5ftcbd4kwf@marketplace.amazon.com	samra m khan	+1 412-532-4665 ext. 33114	ABR0055	Purchase Now for Delivery by Friday | Arabella Farm Direct Bouquet of 12 Stems of Fresh Cut Hot Pink Roses in a Free Designer Glass Vase	1	0	1	SecondDay	Khadija Hamid	4229 NW 149TH ST			OKLAHOMA CITY	OK	73134-1814	US		Hi Khadija, Eid Greetings! God Bless you. From Samra & Javed Mohsin Khan	false		
113-6161728-0068242	23691098043290	2020-05-27T06:19:27+00:00	2020-05-26T23:19:27-07:00	2020-05-27T06:48:44+00:00	2020-05-29T06:59:59+00:00	-2	jn6s9xhbjy43yhk@marketplace.amazon.com	michael	+1 314-282-9402 ext. 83519	ABR0022	Arabella Farm Direct Bouquet of 12 Fresh Cut Pink Roses with a Free Glass Vase	1	0	1	Expedited	Michael Freeman	1006 185TH ST SE			BOTHELL	WA	98012-6898	US		Happy Anniversary! From michael	false		
111-3858677-2829822	45236140312794	2020-05-27T06:35:34+00:00	2020-05-26T23:35:34-07:00	2020-05-27T06:54:03+00:00	2020-05-29T06:59:59+00:00	-2	s5pk6hnxmrp7842@marketplace.amazon.com	Carol Robertson	+1 210-728-4548 ext. 75010	ABR0022	Arabella Farm Direct Bouquet of 12 Fresh Cut Pink Roses with a Free Glass Vase	1	0	1	Expedited	Arzu Brown	1708 GOLDEN RAIN RD APT 7			WALNUT CREEK	CA	94595-2140	US		Dear Arzu, Yea!  It's over!  Hurry and feel good fast! Love, Carol and Jim	false		
113-3630808-8946614	70367959456330	2020-05-27T06:32:26+00:00	2020-05-26T23:32:26-07:00	2020-05-27T07:02:51+00:00	2020-05-29T06:59:59+00:00	-2	f3zlwhfxdj8pjdg@marketplace.amazon.com	John Mendoza	+1 347-448-3190 ext. 15851	ABR0022	Arabella Farm Direct Bouquet of 12 Fresh Cut Pink Roses with a Free Glass Vase	1	0	1	Expedited	John Mendoza	5450 CONCORD BLVD APT M7			CONCORD	CA	94521-2404	US			false		
113-4359932-2901060	57189766402018	2020-05-27T06:47:30+00:00	2020-05-26T23:47:30-07:00	2020-05-27T07:13:37+00:00	2020-05-28T06:59:59+00:00	-1	td3bl0lftfqwgfn@marketplace.amazon.com	linda gregory	+1 210-728-4548 ext. 68870	ABR0055	Purchase Now for Delivery by Friday | Arabella Farm Direct Bouquet of 12 Stems of Fresh Cut Hot Pink Roses in a Free Designer Glass Vase	1	0	1	SecondDay	Kristin Addison	63126 BUNIFF LN			AMITE	LA	70422-6110	US		Happy birthday to the specialest person I know - you're the fucking bee's knees Kristin! Whenever someone's called a bad bitch, you're the yardstick they measure them by (8 From Grant Gregory	false		
112-8986250-4929813	38722397246962	2020-05-27T07:16:21+00:00	2020-05-27T00:16:21-07:00	2020-05-27T07:45:29+00:00	2020-05-28T06:59:59+00:00	-1	n5r95ghcy0s39x3@marketplace.amazon.com	Andreas Gömmel	+1 347-448-3190 ext. 42364	ABM010	Purchase Now for Delivery by Friday | Arabella Bouquets | Fields of The World Bouquet of Fresh Cut Flowers in a Free Designer Glass Vase	1	0	1	SecondDay	Waltraud Caswell	1882 E PALM BEACH DR			CHANDLER	AZ	85249-8717	US		Liebe Trudy, zum Geburtstag alles Gute! Gehts Dir gut? Viele Grüße aus Stuttgart Stefan und Andreas	false		
113-7739308-3201043	39590067885402	2020-05-27T08:21:18+00:00	2020-05-27T01:21:18-07:00	2020-05-27T08:47:14+00:00	2020-05-28T06:59:59+00:00	-1	kvkp0rk9b09shf1@marketplace.amazon.com	Linda Smith	+1 347-448-3190 ext. 12856	ABR0055	Purchase Now for Delivery by Friday | Arabella Farm Direct Bouquet of 12 Stems of Fresh Cut Hot Pink Roses in a Free Designer Glass Vase	1	0	1	SecondDay	Sandy Greenwood	9849 SAINT GEORGE ST			SPRING VALLEY	CA	91977-5252	US		Hope your heart feels better And know I'm sorry it hurts Love you Linda From Linda Smith	false		
112-4834989-2046618	59856721224930	2020-05-27T09:12:31+00:00	2020-05-27T02:12:31-07:00	2020-05-27T09:39:08+00:00	2020-05-30T06:59:59+00:00	-3	ngg41p82lkphk4p@marketplace.amazon.com	WITCHYWOMAN	+1 412-532-4665 ext. 31003	ABR0022	Arabella Farm Direct Bouquet of 12 Fresh Cut Pink Roses with a Free Glass Vase	1	0	1	Expedited	CAROL STANKUS	101 EAST CHESTNUT AVENUE			MERCHANTVILLE	NJ	08109	US		“All our dreams can come true, if we have the courage to pursue them.”  We are SO proud of you! Congratulations on your Graduation!  We love you!! Dad, Mum, Lexi, Pumpkin, Snacky, The Birds, The Cats and Zeus xx From Dad and Mum	false		
