order-id	order-item-id	purchase-date	payments-date	reporting-date	promise-date	days-past-promise	buyer-email	buyer-name	buyer-phone-number	sku	product-name	quantity-purchased	quantity-shipped	quantity-to-ship	ship-service-level	recipient-name	ship-address-1	ship-address-2	ship-address-3	ship-city	ship-state	ship-postal-code	ship-country	gift-wrap-type	gift-message-text	is-business-order	purchase-order-number	price-designation
112-4834989-2046618	59856721224930	2020-05-27T09:12:31+00:00	2020-05-27T02:12:31-07:00	2020-05-27T09:39:08+00:00	2020-05-30T06:59:59+00:00	-3	ngg41p82lkphk4p@marketplace.amazon.com	WITCHYWOMAN	+1 412-532-4665 ext. 31003	ABR0022	Arabella Farm Direct Bouquet of 12 Fresh Cut Pink Roses with a Free Glass Vase	1	0	1	Expedited	CAROL STANKUS	101 EAST CHESTNUT AVENUE			MERCHANTVILLE	NJ	08109	US		“All our dreams can come true, if we have the courage to pursue them.”  We are SO proud of you! Congratulations on your Graduation!  We love you!! Dad, Mum, Lexi, Pumpkin, Snacky, The Birds, The Cats and Zeus xx From Dad and Mum	false		
112-3332013-2705013	40506063375138	2020-05-27T10:29:26+00:00	2020-05-27T03:29:26-07:00	2020-05-27T10:50:50+00:00	2020-06-02T06:59:59+00:00	-6	sy500xbkcfc8hvn@marketplace.amazon.com	Alexandre Aubert	+1 210-728-4548 ext. 41271	ABR0022	Arabella Farm Direct Bouquet of 12 Fresh Cut Pink Roses with a Free Glass Vase	1	0	1	Expedited	Maria Cabral	BUILDING 1029 LUCIO ST	MANTECA CALIFORNIA		MANTECA	CA	95336-8237	US			false		
113-2730822-8100237	40571188043514	2020-05-27T12:00:48+00:00	2020-05-27T05:00:48-07:00	2020-05-27T12:27:15+00:00	2020-06-02T06:59:59+00:00	-6	nzmwzbscjcny7xr@marketplace.amazon.com	Heidi Gearing	+1 412-532-4665 ext. 26917	ABR0022	Arabella Farm Direct Bouquet of 12 Fresh Cut Pink Roses with a Free Glass Vase	1	0	1	Expedited	Liz Gearing	51 WINTER ST			ARLINGTON	MA	02474-6919	US			false		
112-1009779-1092215	14987691722378	2020-05-27T13:16:43+00:00	2020-05-27T06:16:43-07:00	2020-05-27T13:42:30+00:00	2020-06-02T06:59:59+00:00	-6	66t5z6m5108969d@marketplace.amazon.com	Audrey	+1 763-225-9463 ext. 77714	ABR0022	Arabella Farm Direct Bouquet of 12 Fresh Cut Pink Roses with a Free Glass Vase	1	0	1	Expedited	Connie	6444 DESERTER CREEK RD			WHITESVILLE	KY	42378-9705	US			false		
114-9165463-6985859	29829692829370	2020-05-27T13:38:06+00:00	2020-05-27T06:38:06-07:00	2020-05-27T14:04:35+00:00	2020-06-02T06:59:59+00:00	-6	scrbkt76bl3snn7@marketplace.amazon.com	dean h. creasey	+1 210-728-4548 ext. 01941	ABR0022	Arabella Farm Direct Bouquet of 12 Fresh Cut Pink Roses with a Free Glass Vase	1	0	1	Expedited	Joni Bernahl	11 BIRCH DR			CHATHAM	IL	62629-9714	US		Just a little pick me up now that Audrey and Henry have gone home. Happy belated birthday, too!  Jeris From Dean H. Creasey	false		
113-9654325-4031419	29425248678370	2020-05-27T14:01:05+00:00	2020-05-27T07:01:05-07:00	2020-05-27T14:26:53+00:00	2020-06-02T06:59:59+00:00	-6	qxfsfky5gqyrttp@marketplace.amazon.com	Joseph D. Hanlon	+1 314-282-9402 ext. 28094	ABR0022	Arabella Farm Direct Bouquet of 12 Fresh Cut Pink Roses with a Free Glass Vase	1	0	1	Expedited	Sophie M. Lynch	10 SARATOGA WAY			GLASSBORO	NJ	08028-2066	US		Happy 5th Birthday Sophie Can't wait to see you soon ! Love, Uncle Joe	false		
112-7274758-4265801	09654067888666	2020-05-27T14:50:28+00:00	2020-05-27T07:50:28-07:00	2020-05-27T15:18:30+00:00	2020-06-02T06:59:59+00:00	-6	fr6q7ts7s5xqv0j@marketplace.amazon.com	Gail r. Combs	+1 210-728-4548 ext. 67650	ABR0022	Arabella Farm Direct Bouquet of 12 Fresh Cut Pink Roses with a Free Glass Vase	1	0	1	Expedited	Darlene Dasch	44 CHERYL DR			RONKONKOMA	NY	11779-4349	US		Happy Birthday Darlene!!! From Love, Pop and Gail	false		
111-4767256-3313828	45927334368274	2020-05-27T15:15:02+00:00	2020-05-27T08:15:02-07:00	2020-05-27T15:44:55+00:00	2020-06-02T06:59:59+00:00	-6	ldm3tsxdx46t669@marketplace.amazon.com	Felipe Zapata	+1 347-448-3190 ext. 34657	ABR0022	Arabella Farm Direct Bouquet of 12 Fresh Cut Pink Roses with a Free Glass Vase	1	0	1	Expedited	Emily's hair salon	9523 ANTOINE DR STE D			HOUSTON	TX	77086-3948	US			false		
111-9046285-1579459	50108314224202	2020-05-27T15:26:01+00:00	2020-05-27T08:26:01-07:00	2020-05-27T15:56:09+00:00	2020-06-02T06:59:59+00:00	-6	2jv8vcsc6q74xly@marketplace.amazon.com	Tracker Winks	+1 347-448-3190 ext. 98321	ABR0022	Arabella Farm Direct Bouquet of 12 Fresh Cut Pink Roses with a Free Glass Vase	1	0	1	Expedited	Tracy E Bailey	43 KNOLLS RD			BLOOMINGDALE	NJ	07403-1547	US		Mommy,  Thanks for believing in me.  I love you!  Love, AJ	false		
113-2278084-0810662	65032461054594	2020-05-27T15:34:34+00:00	2020-05-27T08:34:34-07:00	2020-05-27T16:06:01+00:00	2020-06-02T06:59:59+00:00	-6	vzt8c3mp7y96cmr@marketplace.amazon.com	Jonny	+1 314-282-9402 ext. 38176	ABR0022	Arabella Farm Direct Bouquet of 12 Fresh Cut Pink Roses with a Free Glass Vase	1	0	1	Expedited	Elaine William	180 EPPS BRIDGE RD			ATHENS	GA	30606-3312	US			false		
111-7518339-0681834	21528665501602	2020-05-27T15:40:38+00:00	2020-05-27T08:40:38-07:00	2020-05-27T16:11:13+00:00	2020-06-02T06:59:59+00:00	-6	ggsj7f4r8fdhlj4@marketplace.amazon.com	jan gonsalves	+1 314-282-9402 ext. 01988	ABR0022	Arabella Farm Direct Bouquet of 12 Fresh Cut Pink Roses with a Free Glass Vase	1	0	1	Expedited	Michele Gonzales	1501 YOSEMITE CIR			OAKLEY	CA	94561-5211	US			false		
111-1621354-2527400	65597053225770	2020-05-27T15:46:45+00:00	2020-05-27T08:46:45-07:00	2020-05-27T16:13:17+00:00	2020-06-02T06:59:59+00:00	-6	f2x4m4zsyn7h668@marketplace.amazon.com	William F. Hedgecock	+1 347-448-3190 ext. 86189	ABR0022	Arabella Farm Direct Bouquet of 12 Fresh Cut Pink Roses with a Free Glass Vase	1	0	1	Expedited	Mr. and Mrs. David Marshall	1630 W DAHL LN			SANTA ANA	CA	92704-3304	US			false		
112-7701434-0370644	47795670891490	2020-05-27T15:53:23+00:00	2020-05-27T08:53:23-07:00	2020-05-27T16:21:28+00:00	2020-06-02T06:59:59+00:00	-6	3rg53xprl4wj9b0@marketplace.amazon.com	Theanne ballios	+1 347-448-3190 ext. 33452	ABR0022	Arabella Farm Direct Bouquet of 12 Fresh Cut Pink Roses with a Free Glass Vase	1	0	1	Expedited	Tina Melonakos	1222 HOLLYWOOD DR			MONROE	MI	48162-3022	US			false		
114-1744827-0402606	09288716946666	2020-05-27T16:32:25+00:00	2020-05-27T09:32:25-07:00	2020-05-27T16:57:10+00:00	2020-06-02T06:59:59+00:00	-6	kxw6zzg1jkylbtb@marketplace.amazon.com	John O. Summers	+1 347-448-3190 ext. 17657	ABR0022	Arabella Farm Direct Bouquet of 12 Fresh Cut Pink Roses with a Free Glass Vase	1	0	1	Expedited	Linda Riley	11 FROST LN			HADLEY	MA	01035-9621	US		Enjoy your gift!  Thank you, Linda, for your consule and friendship! From Anne C. Summers	false		
114-9830622-1401010	48736890571610	2020-05-27T17:29:48+00:00	2020-05-27T10:29:48-07:00	2020-05-27T17:58:49+00:00	2020-06-02T06:59:59+00:00	-6	s4ytcgq2p1c01gz@marketplace.amazon.com	Heather Walker	+1 210-728-4548 ext. 46870	ABR0022	Arabella Farm Direct Bouquet of 12 Fresh Cut Pink Roses with a Free Glass Vase	1	0	1	Expedited	Mack House	9628 BARKSDALE DR			FORT WORTH	TX	76244-6006	US		To T&J  We love you guys. From Andrew and Heather	false		
112-5800322-6261834	35280730964298	2020-05-27T02:50:54+00:00	2020-05-26T19:50:54-07:00	2020-05-27T18:14:16+00:00	2020-05-30T06:59:59+00:00	-3	z60fgnbfd1r2d8v@marketplace.amazon.com	Pearl Sanchez	+1 210-728-4548 ext. 26622	ABR0022	Arabella Farm Direct Bouquet of 12 Fresh Cut Pink Roses with a Free Glass Vase	1	0	1	Expedited	Deserie Areola	81824 Ave N W			Minot	North Dakota	58703	US			false		
114-5642308-0254642	19984517141466	2020-05-27T18:13:12+00:00	2020-05-27T11:13:12-07:00	2020-05-27T18:16:23+00:00	2020-06-02T06:59:59+00:00	-6	wv13tm61z31ylp8@marketplace.amazon.com	Chrim A. Robinson	+1 210-728-4548 ext. 83917	ABR0022	Purchase Now for Delivery by Monday | Arabella Farm Direct Bouquet of 12 Fresh Cut Pink Roses with a Free Glass Vase	1	0	1	Expedited	Sandy Sampong	9212 ORIOLE PL			GAITHERSBURG	MD	20879-1709	US		Sandy, Love-ease of heart, fondness & emotional peace. Such a perfect place ideally exists but not in such a perfect way. Love, like life, we dream and work to achieve. ❤️🙏🏾	false		
114-3915242-4408233	41358852355570	2020-05-27T18:02:53+00:00	2020-05-27T11:02:53-07:00	2020-05-27T18:17:08+00:00	2020-06-02T06:59:59+00:00	-6	ymrnhlxzm8w3krh@marketplace.amazon.com	Colleen Moore	+1 314-282-9402 ext. 62297	ABR0022	Purchase Now for Delivery by Monday | Arabella Farm Direct Bouquet of 12 Fresh Cut Pink Roses with a Free Glass Vase	1	0	1	Expedited	Meaghan McDonough	25 PROSPECT AVE			NORTH ARLINGTON	NJ	07031-6123	US		Dear Meaghan, Sending our deepest condolences for the loss of your grandmother. Love, CTC Sunshine Committee	false		
111-9926081-7570646	50404170620578	2020-05-27T17:48:51+00:00	2020-05-27T10:48:51-07:00	2020-05-27T18:17:37+00:00	2020-06-02T06:59:59+00:00	-6	zc461qhrq6cc1qf@marketplace.amazon.com	Barry J Stich	+1 347-448-3190 ext. 51645	ABR0022	Purchase Now for Delivery by Monday | Arabella Farm Direct Bouquet of 12 Fresh Cut Pink Roses with a Free Glass Vase	1	0	1	Expedited	Jodi Outley	6043 WILD BERRY DR			LAS VEGAS	NV	89142-0620	US		Dear Jodi, Here's to kicking its ass!!! Love, Barry & Baz	false		
111-7639542-1767414	29949502928794	2020-05-27T17:53:48+00:00	2020-05-27T10:53:48-07:00	2020-05-27T18:23:27+00:00	2020-06-02T06:59:59+00:00	-6	l52dc6d769bzcg9@marketplace.amazon.com	J P Cain	+1 347-448-3190 ext. 89887	ABR0022	Purchase Now for Delivery by Monday | Arabella Farm Direct Bouquet of 12 Fresh Cut Pink Roses with a Free Glass Vase	1	0	1	Expedited	Rita Cain	4510 S PRINCE OF PEACE PL APT 234			SIOUX FALLS	SD	57103-5874	US			false		
111-2376997-5672227	05969236295018	2020-05-27T18:08:57+00:00	2020-05-27T11:08:57-07:00	2020-05-27T18:24:20+00:00	2020-06-02T06:59:59+00:00	-6	qb4hnbmxtvsff0b@marketplace.amazon.com	Victoria kosanovich	+1 314-282-9402 ext. 81879	ABM002	Purchase Now for Delivery by Friday | Arabella Bouquets Fresh Cut White Calla Lilies in a Free Designer Glass Vase	1	0	1	Expedited	Karen Orosco	17 DATE AVE			LACKAWANNA	NY	14218-1412	US		Karen, as difficult as it was, we are glad you were there forUncle Meecho.  With love, George & Vicky	false		
112-5926809-2504216	13848397856506	2020-05-27T17:59:57+00:00	2020-05-27T10:59:57-07:00	2020-05-27T18:29:06+00:00	2020-06-02T06:59:59+00:00	-6	73yrmzg9xcnlqqg@marketplace.amazon.com	Dave Weller	+1 210-728-4548 ext. 10565	ABM010	Purchase Now for Delivery by Monday | Arabella Bouquets | Fields of The World Bouquet of Fresh Cut Flowers in a Free Designer Glass Vase	1	0	1	Expedited	Jane Moran	11 BEECHWOOD ST			COHASSET	MA	02025-2101	US		Hi Jane, Thanks for being the best ever boss Have a great birthday! Dave	false		
113-8807068-1421805	03994103350546	2020-05-27T18:37:28+00:00	2020-05-27T11:37:28-07:00	2020-05-27T19:05:51+00:00	2020-06-02T06:59:59+00:00	-6	cgxgp64rm8gmk77@marketplace.amazon.com	Rashmati Rampersaud	+1 314-282-9402 ext. 31045	ABM010	Purchase Now for Delivery by Monday | Arabella Bouquets | Fields of The World Bouquet of Fresh Cut Flowers in a Free Designer Glass Vase	1	0	1	Expedited	Rishi Rampersaud	8958 212TH ST			QUEENS VILLAGE	NY	11427-2333	US		Mom, We love and cherish you always. Today and every day we wish you love and happiness.   Love Always, Sunil, Rachel, Sonya, and Matthew. From Sunil	false		
112-9944467-5158663	68397715789482	2020-05-27T18:45:27+00:00	2020-05-27T11:45:27-07:00	2020-05-27T19:11:50+00:00	2020-06-02T06:59:59+00:00	-6	yzgbh5nzf5bdxjl@marketplace.amazon.com	Veronica Martinez	+1 314-282-9402 ext. 74373	ABR004	Arabella Farm Direct Bouquet of 12 Fresh Cut Yellow Roses with a Free Glass Vase	1	0	1	Expedited	Martinez Family	15906 1ST ST			CHANNELVIEW	TX	77530-4330	US		Thank you for caring, and making Tomas feel loved.  I really appreciate everything you and your family has done to make baby feel at home away from home. Always grateful,  Veronica From Veronica Martinez	false		
113-8265340-5104224	50610981461378	2020-05-27T18:48:57+00:00	2020-05-27T11:48:57-07:00	2020-05-27T19:17:28+00:00	2020-06-02T06:59:59+00:00	-6	mmhjc1155s82nv1@marketplace.amazon.com	sheryl benningfield	+1 210-728-4548 ext. 92971	ABM010	Purchase Now for Delivery by Monday | Arabella Bouquets | Fields of The World Bouquet of Fresh Cut Flowers in a Free Designer Glass Vase	1	0	1	Expedited	Kendra Szagola	1149 WOODWINDS DR			WAXHAW	NC	28173-7887	US			false		
111-0324295-7281802	45519925796538	2020-05-27T19:15:41+00:00	2020-05-27T12:15:41-07:00	2020-05-27T19:45:02+00:00	2020-06-02T06:59:59+00:00	-6	1dd0324b86fglg3@marketplace.amazon.com	jacqueline h stuart	+1 314-282-9402 ext. 12851	ABR0033	Purchase Now for Delivery by Monday | Arabella Farm Direct Bouquet of 12 Fresh Cut Orange Roses with a Free Glass Vase	1	0	1	Expedited	Jennie Hill	179 CASTLE DR			HUBERT	NC	28539-4618	US		Love you Mom!! Jacqui & Wayne From jacqueline h stuart	false		
113-9330961-4716269	06673545026338	2020-05-27T19:17:18+00:00	2020-05-27T12:17:18-07:00	2020-05-27T19:45:22+00:00	2020-06-02T06:59:59+00:00	-6	0yhrzsl21pt8nf3@marketplace.amazon.com	Jürgen Kaiser	+1 347-448-3190 ext. 68124	ABR0033	Purchase Now for Delivery by Monday | Arabella Farm Direct Bouquet of 12 Fresh Cut Orange Roses with a Free Glass Vase	1	0	1	Standard	Geraldine Gale	6528 E KIKI CT			MISSOULA	MT	59808-1216	US		Dear Grandmere, Wishing you a very Happy Birthday!!  We hope you have a lovely day. Love, Cara, Juergen, and Helena	false		
113-5316661-0529844	43216965495354	2020-05-27T19:22:18+00:00	2020-05-27T12:22:18-07:00	2020-05-27T19:50:04+00:00	2020-06-02T06:59:59+00:00	-6	c3tl8kxmsvqr8zg@marketplace.amazon.com	Daniel A Vaccaro	+1 347-448-3190 ext. 76969	ABR012	Purchase Now for Delivery by Monday | Arabella Farm Direct Bouquet of 18 Fresh Cut Pink Roses with a Free Glass Vase	1	0	1	Expedited	Mrs. Carol Saharian, Hubbard Hill, Room 2217	28070 COUNTY ROAD 24			ELKHART	IN	46517-9717	US		Enjoy your gift! HAPPY BIRTHDAY WITH ALL OUR LOVE   DIANE AND DAN VACCARO From DIANE & Daniel A Vaccaro	false		
112-1799080-2281865	17064778619978	2020-05-27T19:28:41+00:00	2020-05-27T12:28:41-07:00	2020-05-27T19:54:54+00:00	2020-06-02T06:59:59+00:00	-6	x8lg5ffswlzc4l4@marketplace.amazon.com	stephanie hunter	+1 210-728-4548 ext. 61103	ABR0022	Purchase Now for Delivery by Monday | Arabella Farm Direct Bouquet of 12 Fresh Cut Pink Roses with a Free Glass Vase	1	0	1	Expedited	Connie Davenport	655 PERRIE DR APT 204			ELK GROVE VILLAGE	IL	60007-1824	US		Happy Birthday! From Love, Mike and Stephanie	false		
114-6978661-3922614	50977968011786	2020-05-27T19:30:11+00:00	2020-05-27T12:30:11-07:00	2020-05-27T19:58:36+00:00	2020-06-02T06:59:59+00:00	-6	bh8msylb2fhntsx@marketplace.amazon.com	Wing-Sze Vinny Chau-Chin	+1 210-728-4548 ext. 88179	ABR0022	Purchase Now for Delivery by Monday | Arabella Farm Direct Bouquet of 12 Fresh Cut Pink Roses with a Free Glass Vase	1	0	1	Expedited	Bella Chau	1011 OAKLAND CT			BARRINGTON	IL	60010-6310	US		Happy Sweet 16, Bella!  Wish we were there to celebrate with you.  Enjoy a wonderful birthday celebration! With love from the Pacific NW, Vinny, Bill, Ariana, and Elijah	false		
111-1836012-6344268	44799229335938	2020-05-27T19:51:59+00:00	2020-05-27T12:51:59-07:00	2020-05-27T20:18:27+00:00	2020-06-02T06:59:59+00:00	-6	v20jxcqts6ksxrn@marketplace.amazon.com	Bruce Hammerstrom	+1 347-448-3190 ext. 19233	ABM010	Purchase Now for Delivery by Monday | Arabella Bouquets | Fields of The World Bouquet of Fresh Cut Flowers in a Free Designer Glass Vase	1	0	1	Expedited	Bruce Hammerstrom	5405 NW 134TH ST			VANCOUVER	WA	98685-1464	US			false		
113-7641898-0265823	27097091240650	2020-05-27T20:01:25+00:00	2020-05-27T13:01:25-07:00	2020-05-27T20:27:38+00:00	2020-06-02T06:59:59+00:00	-6	hwjmjbpmly295nw@marketplace.amazon.com	Travis	+1 314-282-9402 ext. 28772	ABM010	Purchase Now for Delivery by Monday | Arabella Bouquets | Fields of The World Bouquet of Fresh Cut Flowers in a Free Designer Glass Vase	1	0	1	Expedited	Travis Stephenson	4901 HIGH FOREST RD			COLORADO SPRINGS	COLORADO	80908-3021	US		We heard you have had some family challenges and wanted to brighten your day!!!!! Your friends at Mortgage300.	false		
114-4562052-7090666	29690738186530	2020-05-27T20:06:21+00:00	2020-05-27T13:06:21-07:00	2020-05-27T20:31:14+00:00	2020-06-02T06:59:59+00:00	-6	zfvbg5hp4h33wnq@marketplace.amazon.com	linda cobb thompson	+1 210-728-4548 ext. 14762	ABR015	Purchase Now for Delivery by Monday | Arabella Farm Direct Bouquet of 18 Fresh Cut Orange Roses with a Free Glass Vase	1	0	1	Expedited	Joyce Cobb	3067 CHISCA AVE			MEMPHIS	TN	38111-3027	US		Happy Birthday Gemini Twins! May this coming year bring you love, joy and happiness. We love you dearly! From Linda and your MN family	false		
114-1918562-1890622	62641838908714	2020-05-27T20:51:32+00:00	2020-05-27T13:51:32-07:00	2020-05-27T21:22:08+00:00	2020-06-02T06:59:59+00:00	-6	5ptd84txbk65ww5@marketplace.amazon.com	Ryan shack	+1 314-282-9402 ext. 58114	ABR0022	Purchase Now for Delivery by Monday | Arabella Farm Direct Bouquet of 12 Fresh Cut Pink Roses with a Free Glass Vase	1	0	1	Expedited	Candace McElroy	6407 W TORONTO WAY			PHOENIX	AZ	85043-7557	US			false		
113-0463064-4263412	69848166364810	2020-05-27T21:04:00+00:00	2020-05-27T14:04:00-07:00	2020-05-27T21:34:03+00:00	2020-06-02T06:59:59+00:00	-6	y5jw6lfm35wgbld@marketplace.amazon.com	Lolita Tart	+1 347-448-3190 ext. 34422	ABR0022	Purchase Now for Delivery by Monday | Arabella Farm Direct Bouquet of 12 Fresh Cut Pink Roses with a Free Glass Vase	1	0	1	Expedited	Joanne Jones	4263 DROWFIELD DR			TROTWOOD	OH	45426-1915	US			false		
114-8575056-4237868	26141712511922	2020-05-27T21:21:27+00:00	2020-05-27T14:21:27-07:00	2020-05-27T21:40:36+00:00	2020-06-02T06:59:59+00:00	-6	6shhc9x7ls2bs8k@marketplace.amazon.com	Steven Wolfgram	+1 347-448-3190 ext. 81599	ABM010	Purchase Now for Delivery by Monday | Arabella Bouquets | Fields of The World Bouquet of Fresh Cut Flowers in a Free Designer Glass Vase	1	0	1	Expedited	Beckie, Neil & Ross	7430 SE BENNER LAKE RD			DEARBORN	MO	64439-8144	US		Thank you for treating me like royalty :) From Monica Wolfgram	false		
113-4127837-1450650	62205983424162	2020-05-27T21:14:16+00:00	2020-05-27T14:14:16-07:00	2020-05-27T21:40:56+00:00	2020-06-02T06:59:59+00:00	-6	v9twt75j4csw5pg@marketplace.amazon.com	Martin Conroy	+1 210-728-4548 ext. 02984	ABR0022	Purchase Now for Delivery by Monday | Arabella Farm Direct Bouquet of 12 Fresh Cut Pink Roses with a Free Glass Vase	1	0	1	Expedited	Carol Thommes	3404 FREMONT AVE S			MINNEAPOLIS	MN	55408-3807	US		Carol,  We are so sorry for the lose of your beloved grandson, Mason.  With love and prayers, The Peterson’s, Angela and Lois From Lois Conroy	false		
111-4725223-0337820	50510810478714	2020-05-27T21:25:09+00:00	2020-05-27T14:25:09-07:00	2020-05-27T21:54:20+00:00	2020-06-02T06:59:59+00:00	-6	9czlpz3lb060nmm@marketplace.amazon.com	Richard A. Sandstrom	+1 210-728-4548 ext. 96409	ABR0022	Purchase Now for Delivery by Monday | Arabella Farm Direct Bouquet of 12 Fresh Cut Pink Roses with a Free Glass Vase	1	0	1	Expedited	Kristen Sandstrom	117 BUCKHURST DR			CARY	NC	27513-3836	US			false		
114-6903603-3593862	35025981561986	2020-05-27T21:29:15+00:00	2020-05-27T14:29:15-07:00	2020-05-27T21:56:12+00:00	2020-06-02T06:59:59+00:00	-6	tvcyj7ypnwwr5h9@marketplace.amazon.com	Janell Adams	+1 314-282-9402 ext. 83578	ABR0033	Purchase Now for Delivery by Monday | Arabella Farm Direct Bouquet of 12 Fresh Cut Orange Roses with a Free Glass Vase	1	0	1	Expedited	Iman Donaldson	6207 E VILLA CASSANDRA WAY			CAVE CREEK	AZ	85331-9148	US			false		
114-7244989-5404236	58262646043418	2020-05-27T21:43:02+00:00	2020-05-27T14:43:02-07:00	2020-05-27T22:06:44+00:00	2020-06-02T06:59:59+00:00	-6	g4gf047h8xxyr2m@marketplace.amazon.com	Silas scott	+1 314-282-9402 ext. 84035	ABR0022	Purchase Now for Delivery by Monday | Arabella Farm Direct Bouquet of 12 Fresh Cut Pink Roses with a Free Glass Vase	1	0	1	Expedited	Silas Scott	1947 BADER AVE SW			ATLANTA	GA	30310-5027	US		I’m late but I’m an man of my word  Enjoy Beautiful From Silas scott	false		
111-2095702-0457816	45235533721442	2020-05-27T21:40:25+00:00	2020-05-27T14:40:25-07:00	2020-05-27T22:07:01+00:00	2020-06-02T06:59:59+00:00	-6	6gtg3npjbm71cgs@marketplace.amazon.com	Liz	+1 347-448-3190 ext. 96408	ABR0055	Purchase Now for Delivery by Monday | Arabella Farm Direct Bouquet of 12 Stems of Fresh Cut Hot Pink Roses in a Free Designer Glass Vase	1	0	1	Expedited	Shirley Reutter	609 YORKSHIRE DR			FINDLAY	OH	45840-6936	US		Happy Birthday!! I hope you are able to have a special birthday celebration despite the restrictions. Wish we could be there to celebrate with you! Love always, Liz & Todd	false		
113-0234139-3044233	56906610570802	2020-05-27T21:56:12+00:00	2020-05-27T14:56:12-07:00	2020-05-27T22:24:58+00:00	2020-06-02T06:59:59+00:00	-6	v7fcmpcngkbfjgx@marketplace.amazon.com	Lauren Burton	+1 210-728-4548 ext. 63935	ABR0022	Purchase Now for Delivery by Monday | Arabella Farm Direct Bouquet of 12 Fresh Cut Pink Roses with a Free Glass Vase	1	0	1	Expedited	Alexis Sanchez	425 W 18TH ST APT 11K			NEW YORK	NY	10011-3881	US		Te quiero, amorcito From Azucita	false		
111-5966221-8661813	28020361245562	2020-05-27T21:57:33+00:00	2020-05-27T14:57:33-07:00	2020-05-27T22:26:48+00:00	2020-06-02T06:59:59+00:00	-6	ptl6q6n47h25z2l@marketplace.amazon.com	Greg Koski	+1 412-532-4665 ext. 91489	ABR012	Purchase Now for Delivery by Monday | Arabella Farm Direct Bouquet of 18 Fresh Cut Pink Roses with a Free Glass Vase	1	0	1	Expedited	Greg Koski	51 Naples St			Leominster	Ma	01453	US		Macy Buttercup Koski, I love you... enjoy! From Greg Koski	true		
112-8302286-8762666	67029696560378	2020-05-27T22:09:13+00:00	2020-05-27T15:09:13-07:00	2020-05-27T22:36:50+00:00	2020-06-02T06:59:59+00:00	-6	gb0xr2pc8dcw1rv@marketplace.amazon.com	jeanne wondra	+1 347-448-3190 ext. 80832	ABR0055	Purchase Now for Delivery by Monday | Arabella Farm Direct Bouquet of 12 Stems of Fresh Cut Hot Pink Roses in a Free Designer Glass Vase	1	0	1	Expedited	Faith Tannenbaum	18250 ALEXANDRA WAY			GRASS VALLEY	CA	95949-7359	US		Congratulations on your high school graduation Faith!! We are very proud of you and love you so much!  Love, The Wondra's From jeanne wondra	false		
113-2618061-7590622	66942256367986	2020-05-27T22:21:46+00:00	2020-05-27T15:21:46-07:00	2020-05-27T22:48:25+00:00	2020-06-02T06:59:59+00:00	-6	lllmtkd3383t0sw@marketplace.amazon.com	Eileen	+1 347-448-3190 ext. 46918	ABM010	Purchase Now for Delivery by Monday | Arabella Bouquets | Fields of The World Bouquet of Fresh Cut Flowers in a Free Designer Glass Vase	1	0	1	Expedited	Eileen Unold	715 MICHAEL CT			LAKEWOOD	NJ	08701-5793	US		Dear Charlotte, All my prayers and love are with you. I hope you’re up and about real soon. If there’s anything I can do for you, please let me know. Love, Eileen	false		
113-6703434-4929049	34900899666266	2020-05-27T23:15:51+00:00	2020-05-27T16:15:51-07:00	2020-05-27T23:18:20+00:00	2020-06-02T06:59:59+00:00	-6	wq3f23dn2f4d31c@marketplace.amazon.com	Linda Michael	+1 210-728-4548 ext. 86878	ABR0022	Purchase Now for Delivery by Monday | Arabella Farm Direct Bouquet of 12 Fresh Cut Pink Roses with a Free Glass Vase	1	0	1	Expedited	Danielle Breuchoc	15823 HEATH ASTER WAY			DAVIDSON	NC	28036-8957	US		Danielle, Happy 50th Birthday my friend.   In my heart I'm having a huge party and celebrating with you.  Wishing you a fun-filled fabulous 50th!   Miss and love you my friend,   Linda	false		
114-0173486-9224278	38509841504970	2020-05-27T22:51:00+00:00	2020-05-27T15:51:00-07:00	2020-05-27T23:20:59+00:00	2020-06-02T06:59:59+00:00	-6	bnqkdjrgp11ydv9@marketplace.amazon.com	Helen Collue	+1 210-728-4548 ext. 18083	ABM010	Purchase Now for Delivery by Monday | Arabella Bouquets | Fields of The World Bouquet of Fresh Cut Flowers in a Free Designer Glass Vase	1	0	1	Expedited	Cindy Freeman	15178 NEWTONIA ST			WINTER GARDEN	FL	34787-5646	US			false		
113-4280041-3565000	58264355409474	2020-05-27T23:09:51+00:00	2020-05-27T16:09:51-07:00	2020-05-27T23:30:10+00:00	2020-06-02T06:59:59+00:00	-6	8cr9jhfz5dmrmny@marketplace.amazon.com	Cheryl Moikobu	+1 314-282-9402 ext. 34431	ABR0022	Purchase Now for Delivery by Monday | Arabella Farm Direct Bouquet of 12 Fresh Cut Pink Roses with a Free Glass Vase	1	0	1	Expedited	Chelsea Montgomery	5332 E BASELINE RD APT 2079			MESA	AZ	85206-4733	US		You are so awesome.  Congratulations Chelsea.  Auntie Cheri	false		
111-6723502-0941004	40581157389018	2020-05-27T23:13:30+00:00	2020-05-27T16:13:30-07:00	2020-05-27T23:41:18+00:00	2020-06-02T06:59:59+00:00	-6	lcw1n34pk8h9b3b@marketplace.amazon.com	Beth Phillips	+1 210-728-4548 ext. 63011	ABR0033	Purchase Now for Delivery by Monday | Arabella Farm Direct Bouquet of 12 Fresh Cut Orange Roses with a Free Glass Vase	1	0	1	Expedited	Barb Bozek	16451 CRESCENT LAKE DR			CREST HILL	IL	60403-1648	US		Hi Barb, Thank you for getting my hospital equipment into my house. I don’t expect you to respond to this message From Beth Phillips	false		
112-8532863-4561833	42530835191058	2020-05-27T23:15:44+00:00	2020-05-27T16:15:44-07:00	2020-05-27T23:46:15+00:00	2020-06-02T06:59:59+00:00	-6	lqy1nctqndptpfk@marketplace.amazon.com	obsitu kelifa	+1 314-282-9402 ext. 44777	ABR0022	Purchase Now for Delivery by Monday | Arabella Farm Direct Bouquet of 12 Fresh Cut Pink Roses with a Free Glass Vase	1	0	1	Expedited	Abby Wilson	2211 METZEROTT RD			ADELPHI	MD	20783-1623	US			false		
114-7936591-3440246	55717313950298	2020-05-27T23:24:05+00:00	2020-05-27T16:24:05-07:00	2020-05-27T23:54:38+00:00	2020-06-02T06:59:59+00:00	-6	8phnm8py4sc5nq5@marketplace.amazon.com	Brandon Jackson	+1 314-282-9402 ext. 40098	ABR001	Purchase Now for Delivery by Monday | Arabella Bouquets 12 Stems of Fresh Cut Red Roses in a Free Designer Glass Vase	1	0	1	Expedited	Brandon Jackson	10016 Rutland St			DETROIT	MI	48227-4506	US			false		
112-7727122-1888245	15429765222106	2020-05-27T23:31:52+00:00	2020-05-27T16:31:52-07:00	2020-05-27T23:59:55+00:00	2020-06-02T06:59:59+00:00	-6	jwmxpw375gp500c@marketplace.amazon.com	Haley Hinshaw	+707-477-6195	ABR0022	Purchase Now for Delivery by Monday | Arabella Farm Direct Bouquet of 12 Fresh Cut Pink Roses with a Free Glass Vase	1	0	1	Expedited	Emily Baize	901 Bauer Rd / 78			Laytonville	CA	95454	US		Happy birthday, love!! Here's something pretty to look at!  Love,  Haley	false		
114-0722212-0948220	03709831957530	2020-05-27T23:53:48+00:00	2020-05-27T16:53:48-07:00	2020-05-28T00:24:15+00:00	2020-06-02T06:59:59+00:00	-6	5yl8c48gbknv4q8@marketplace.amazon.com	Richard Huskins	+1 347-448-3190 ext. 85868	ABR0055	Purchase Now for Delivery by Monday | Arabella Farm Direct Bouquet of 12 Stems of Fresh Cut Hot Pink Roses in a Free Designer Glass Vase	1	0	1	Expedited	Ellen Huskins	310 TANGERINE ST			ALTAMONTE SPRINGS	FL	32701-7744	US			false		
114-6897660-1095441	27624226906130	2020-05-27T23:56:36+00:00	2020-05-27T16:56:36-07:00	2020-05-28T00:25:25+00:00	2020-06-02T06:59:59+00:00	-6	5yl8c48gbknv4q8@marketplace.amazon.com	Richard Huskins	+1 210-728-4548 ext. 48954	ABR0055	Purchase Now for Delivery by Monday | Arabella Farm Direct Bouquet of 12 Stems of Fresh Cut Hot Pink Roses in a Free Designer Glass Vase	1	0	1	Expedited	K Christy	109 N BRAYFORD CT			BLUFFTON	SC	29910-6263	US		Hi, Happy Belated Mother’s Day! From Richard and Elaine	false		
113-0194970-8017021	47195604315138	2020-05-28T00:02:12+00:00	2020-05-27T17:02:12-07:00	2020-05-28T00:28:44+00:00	2020-06-02T06:59:59+00:00	-6	ds1tbljk21r8fm5@marketplace.amazon.com	Ben Lanzoni	+1 210-728-4548 ext. 11916	ABM010	Purchase Now for Delivery by Monday | Arabella Bouquets | Fields of The World Bouquet of Fresh Cut Flowers in a Free Designer Glass Vase	1	0	1	Expedited	Nancy Lanzoni	29 HALSEY DR			OLD GREENWICH	CT	06870-1228	US		Happy (VERY belated) Mother’s Day! Only a month late! Not too bad from across the world :) love you tons From Candice, Willy and Ben	false		
111-5758111-4641051	01020391971370	2020-05-28T00:01:06+00:00	2020-05-27T17:01:06-07:00	2020-05-28T00:29:07+00:00	2020-06-02T06:59:59+00:00	-6	w3nj0s07wt6ggny@marketplace.amazon.com	Alfred	+1 347-448-3190 ext. 31706	ABR0022	Purchase Now for Delivery by Monday | Arabella Farm Direct Bouquet of 12 Fresh Cut Pink Roses with a Free Glass Vase	1	0	1	Expedited	Bunny	1221 S VIRGINIA DARE TRL C-3			KILL DEVIL HILLS	NC	27948-7748	US		HAPPY BIRTHDAY! Mom, we Love you 😘 From Love Terry and Sue &the Kids	false		
113-3296843-1392263	16222353154890	2020-05-28T00:10:32+00:00	2020-05-27T17:10:32-07:00	2020-05-28T00:37:33+00:00	2020-06-02T06:59:59+00:00	-6	pk66mr7mr86h7cr@marketplace.amazon.com	Ann Canale	+1 210-728-4548 ext. 93528	ABM0033	Purchase Now for Delivery by Monday | Arabella Farm Direct Bouquet of Fresh Cut White Hydrangea with a Free Glass Vase	1	0	1	Expedited	Rosalie Bootz.   Room 2229	ST CAMILLUS SKILLED NURSING	10101 W WISCONSIN AVE		MILWAUKEE	WI	53226-4861	US		Get Well!  We love you and are praying for you!! From Fr. Crawford, Bevan, and Ann	false		
111-1367259-6417063	24115483475874	2020-05-28T01:03:20+00:00	2020-05-27T18:03:20-07:00	2020-05-28T01:30:48+00:00	2020-06-02T06:59:59+00:00	-6	5gb9f3g9tsclwhv@marketplace.amazon.com	Luz Aranda	+1 763-225-9463 ext. 37561	ABR0022	Purchase Now for Delivery by Monday | Arabella Farm Direct Bouquet of 12 Fresh Cut Pink Roses with a Free Glass Vase	1	0	1	Expedited	Valerie Downs	24414 UNIVERSITY AVE SPC 56			LOMA LINDA	CA	92354-2652	US		As days pass, we continue praying that the love of God keeps surrounding and strengthening you as we continue life .. waiting for that special day . From Luz Aranda/Inland Spanish Adventurers	false		
111-2687125-2857014	46448540066682	2020-05-28T01:16:56+00:00	2020-05-27T18:16:56-07:00	2020-05-28T01:46:35+00:00	2020-06-02T06:59:59+00:00	-6	1d2rh7my7wp20v1@marketplace.amazon.com	jarod	+1 347-448-3190 ext. 85914	ABR0022	Purchase Now for Delivery by Monday | Arabella Farm Direct Bouquet of 12 Fresh Cut Pink Roses with a Free Glass Vase	1	0	1	Expedited	Dr. Lauren Marano	219 WARWICK RD APT A			HADDONFIELD	NJ	08033-3708	US		4 Dr. Lolo	false		
111-8360349-3493823	10968621569074	2020-05-28T01:22:15+00:00	2020-05-27T18:22:15-07:00	2020-05-28T01:49:07+00:00	2020-06-02T06:59:59+00:00	-6	19m2jrg1lptwn5k@marketplace.amazon.com	Chris Hendershot	+1 314-282-9402 ext. 75059	ABR004	Arabella Farm Direct Bouquet of 12 Fresh Cut Yellow Roses with a Free Glass Vase	1	0	1	Expedited	Angie Hendershot	12317 W WILSHIRE DR			AVONDALE	AZ	85392-5500	US			false		
112-0313200-5277821	07267466137146	2020-05-28T01:47:44+00:00	2020-05-27T18:47:44-07:00	2020-05-28T02:08:43+00:00	2020-06-02T06:59:59+00:00	-6	1sk18lfpw56hb8q@marketplace.amazon.com	Alexis Rosas	+1 763-225-9463 ext. 54564	ABR0055	Purchase Now for Delivery by Monday | Arabella Farm Direct Bouquet of 12 Stems of Fresh Cut Hot Pink Roses in a Free Designer Glass Vase	1	0	1	Expedited	Leticia Garcia	18144 ROBSCOTT AVE			HAYWARD	CA	94541-2242	US		Enjoy your gift! From Alexis Rosas	false		
111-7376908-2121063	40463481989914	2020-05-28T01:39:09+00:00	2020-05-27T18:39:09-07:00	2020-05-28T02:09:18+00:00	2020-06-02T06:59:59+00:00	-6	0xzn2cbw9zpswbf@marketplace.amazon.com	Jane Palombo	+1 314-282-9402 ext. 38437	ABR0022	Purchase Now for Delivery by Monday | Arabella Farm Direct Bouquet of 12 Fresh Cut Pink Roses with a Free Glass Vase	1	0	1	Expedited	Elizabeth   Holloway	5505 BLUFF RD			INDIANAPOLIS	INDIANA	46217-3697	US			false		
112-1334414-0894662	69735465557810	2020-05-28T01:52:06+00:00	2020-05-27T18:52:06-07:00	2020-05-28T02:18:57+00:00	2020-06-02T06:59:59+00:00	-6	r87r2gt6wcgvs3w@marketplace.amazon.com	Samantha Baez	+1 347-448-3190 ext. 20239	ABM010	Purchase Now for Delivery by Monday | Arabella Bouquets | Fields of The World Bouquet of Fresh Cut Flowers in a Free Designer Glass Vase	1	0	1	Expedited	Rosa Luna	1109 N 10TH ST			READING	PA	19604-2101	US		Feliz día de las madres!  Con amor, Katy	false		
113-1914468-6815400	37575722897634	2020-05-28T01:53:50+00:00	2020-05-27T18:53:50-07:00	2020-05-28T02:20:53+00:00	2020-06-02T06:59:59+00:00	-6	j4fcxy7vbpp3gps@marketplace.amazon.com	Mayvis Rebeira	+1 314-282-9402 ext. 60300	ABR0066	Purchase Now for Delivery by Monday | Arabella Bouquets | 12 Stems of Fresh Cut White Roses in a Free Designer Glass Vase	1	0	1	Expedited	Hanno Leisen	3915 CAPTAIN DR			ATLANTA	GA	30341-1807	US		Dear Hanno, We are very sorry to hear about your mum, Heidi. May she lives in you forever and you are able to celebrate her long and happy life. Mummy, Laly, Mohan and Molly May 2020	false		
112-5122099-9650625	04998013508746	2020-05-28T01:52:06+00:00	2020-05-27T18:52:06-07:00	2020-05-28T02:26:07+00:00	2020-06-02T06:59:59+00:00	-6	r87r2gt6wcgvs3w@marketplace.amazon.com	Samantha Baez	+1 210-728-4548 ext. 74594	ABM010	Purchase Now for Delivery by Monday | Arabella Bouquets | Fields of The World Bouquet of Fresh Cut Flowers in a Free Designer Glass Vase	1	0	1	Expedited	Kevin Del Rosario	28 BULLARD ST 3RD FLOOR			DORCHESTER	MA	02121-4264	US		Feliz día de las madres! Con amor,  Katy	false		
111-7342357-6148246	14841470906658	2020-05-28T01:57:49+00:00	2020-05-27T18:57:49-07:00	2020-05-28T02:26:21+00:00	2020-06-02T06:59:59+00:00	-6	8y82b5b733gy7xf@marketplace.amazon.com	Collette Fidecaro	+1 210-728-4548 ext. 86512	ABM010	Purchase Now for Delivery by Monday | Arabella Bouquets | Fields of The World Bouquet of Fresh Cut Flowers in a Free Designer Glass Vase	1	0	1	Expedited	Jennie Klugman	47 REDWOOD AVE APT 20			CORTE MADERA	CA	94925-1478	US		Happy Birthday..love you and miss you SO MUCH From Collette	false		
111-8998197-0494653	50207580839658	2020-05-28T02:12:26+00:00	2020-05-27T19:12:26-07:00	2020-05-28T02:42:00+00:00	2020-06-02T06:59:59+00:00	-6	jdj70r1tc4ylgyq@marketplace.amazon.com	Pamela Johnson	+1 347-448-3190 ext. 65945	ABR0022	Purchase Now for Delivery by Monday | Arabella Farm Direct Bouquet of 12 Fresh Cut Pink Roses with a Free Glass Vase	1	0	1	Expedited	Ann Tuliano	10725 E RIVERSIDE DR			BOTHELL	WA	98011-3716	US		Happy Birthday Honey! Love you! Pam From Pamela Johnson	false		
113-0482778-7353821	20329257878890	2020-05-28T02:23:55+00:00	2020-05-27T19:23:55-07:00	2020-05-28T02:52:49+00:00	2020-06-02T06:59:59+00:00	-6	lhgsp07n9wtwf18@marketplace.amazon.com	Rosalind Dixon	+1 347-448-3190 ext. 25444	ABR0033	Purchase Now for Delivery by Monday | Arabella Farm Direct Bouquet of 12 Fresh Cut Orange Roses with a Free Glass Vase	1	0	1	Expedited	Professor Jennifer Pitts	5650 S DORCHESTER AVE			CHICAGO	IL	60637-6853	US		Dear Jennifer. I was so sorry to hear the news about your mom. It is always such a loss and hard thing to go through - but especially now . You are in my thoughts a great deal! Ros	false		
