order-id	order-item-id	purchase-date	payments-date	reporting-date	promise-date	days-past-promise	buyer-email	buyer-name	buyer-phone-number	sku	product-name	quantity-purchased	quantity-shipped	quantity-to-ship	ship-service-level	recipient-name	ship-address-1	ship-address-2	ship-address-3	ship-city	ship-state	ship-postal-code	ship-country	gift-wrap-type	gift-message-text	is-business-order	purchase-order-number	price-designation
114-9598074-2113023	10333610487746	2020-05-26T17:55:59+00:00	2020-05-26T10:55:59-07:00	2020-05-26T18:23:24+00:00	2020-05-30T06:59:59+00:00	-3	qjmwkwkljlxtp01@marketplace.amazon.com	Linda Anderson	+1 210-728-4548 ext. 59786	ABM010	Purchase Now for Delivery by Thursday | Arabella Bouquets | Fields of The World Bouquet of Fresh Cut Flowers in a Free Designer Glass Vase	1	0	1	Expedited	Alison Anderson	2920 COLUMBIA ST APT F			SAN DIEGO	CA	92103-6078	US		Our hearts are overflowing with love! Weslyn, May the Lord bless you with health and happiness all of your days! From Linda Anderson	false		
114-2486004-0946631	32959091636346	2020-05-26T18:27:29+00:00	2020-05-26T11:27:29-07:00	2020-05-26T18:46:28+00:00	2020-05-28T06:59:59+00:00	-1	sqjg10vdthb1hxz@marketplace.amazon.com	Maria Joy Frank	+1 347-448-3190 ext. 41930	ABM010	Purchase Now for Delivery by Thursday | Arabella Bouquets | Fields of The World Bouquet of Fresh Cut Flowers in a Free Designer Glass Vase	1	0	1	SecondDay	Wanda Clements	5847 DECKER RD			LIVONIA	NY	14487-9526	US		Dear Wanda,  Get well soon.  We love you.  Phil and Nancy, Valerie and Rick, Joy and Dave From Maria Joy Frank	false		
114-6374957-7913834	22214025962170	2020-05-26T18:59:54+00:00	2020-05-26T11:59:54-07:00	2020-05-26T19:23:50+00:00	2020-05-28T06:59:59+00:00	-1	cp9vbjmq6zjnqg0@marketplace.amazon.com	Lorilee Bultinck	+1 412-532-4665 ext. 39464	ABM010	Purchase Now for Delivery by Friday | Arabella Bouquets | Fields of The World Bouquet of Fresh Cut Flowers in a Free Designer Glass Vase	1	0	1	SecondDay	Lucy Gabriel	4825 W MESCAL ST			GLENDALE	AZ	85304-4028	US		Dear Lucy,  We are thinking of you at this time...June 4th is a very sad day for all of us.  We know that you loved and cared for Phil...we are grateful. Gayle, Mimi, & Lori	false		
114-9972832-4105044	64352350335594	2020-05-26T19:02:16+00:00	2020-05-26T12:02:16-07:00	2020-05-26T19:30:23+00:00	2020-05-28T06:59:59+00:00	-1	dyscqvfd07ymvqs@marketplace.amazon.com	Kaitlin Hughes	+1 347-448-3190 ext. 89478	ABM010	Purchase Now for Delivery by Friday | Arabella Bouquets | Fields of The World Bouquet of Fresh Cut Flowers in a Free Designer Glass Vase	1	0	1	SecondDay	Nicole Jansen	10 GORHAM LN			SMITHTOWN	NY	11787-4702	US		Happy 30th Birthday!! Can't wait to eventually celebrate with you! We hope you have an awesome day! From Kaitlin, Kyle, and Mason XOXO	false		
112-0490863-8353859	09557377170586	2020-05-26T19:14:59+00:00	2020-05-26T12:14:59-07:00	2020-05-26T19:40:18+00:00	2020-05-28T06:59:59+00:00	-1	3sw2298hbyrkn3x@marketplace.amazon.com	Yeliana	+1 314-282-9402 ext. 69649	ABM010	Purchase Now for Delivery by Friday | Arabella Bouquets | Fields of The World Bouquet of Fresh Cut Flowers in a Free Designer Glass Vase	1	0	1	SecondDay	Magalys Velez	912 N BUCHANAN BLVD			DURHAM	NC	27701-1544	US		Feliz dia de las madres dominicanas a mi North Carolinian mom! Un beso 😘 From Yeliana	false		
114-1866588-1277815	52168188730922	2020-05-26T19:17:35+00:00	2020-05-26T12:17:35-07:00	2020-05-26T19:40:18+00:00	2020-05-28T06:59:59+00:00	-1	hbpn4lw6c7wbl6s@marketplace.amazon.com	Laurie Morrison	+1 314-282-9402 ext. 61294	ABM0033	Purchase Now for Delivery by Friday | Arabella Farm Direct Bouquet of Fresh Cut White Hydrangea with a Free Glass Vase	1	0	1	SecondDay	Alexandra Carmen Collell	280 QUAIL ST APT 2			ALBANY	NY	12208-3370	US		Alex- So proud of you and the hard work, sleepless nights and hours of study you have put in to complete 3 years of med school. So pleased that you are near the end. Know you are an inspiration to us all. With love, Laurie From Laurie Morrison	false		
114-2467830-6741861	06684041134410	2020-05-26T19:31:51+00:00	2020-05-26T12:31:51-07:00	2020-05-26T20:00:34+00:00	2020-05-28T06:59:59+00:00	-1	msvdkdpl4byblqg@marketplace.amazon.com	Erik Abrahamson	+1 314-282-9402 ext. 16034	ABM010	Purchase Now for Delivery by Friday | Arabella Bouquets | Fields of The World Bouquet of Fresh Cut Flowers in a Free Designer Glass Vase	1	0	1	SecondDay	Joann Muhlman	601 51ST AVE S			ST PETERSBURG	FL	33705-4945	US		Hi Joann, Thinking of you and hope you are feeling better soon!  Your AU Family	true		
114-8819058-5589020	08643233728226	2020-05-26T19:51:47+00:00	2020-05-26T12:51:47-07:00	2020-05-26T20:17:53+00:00	2020-05-28T06:59:59+00:00	-1	22qndhmmycw6l47@marketplace.amazon.com	eamonn johnston	+1 314-282-9402 ext. 59729	ABM010	Purchase Now for Delivery by Friday | Arabella Bouquets | Fields of The World Bouquet of Fresh Cut Flowers in a Free Designer Glass Vase	1	0	1	SecondDay	Melissa Johnston	3326 HARTWELL CT			FALLS CHURCH	VA	22042-3510	US			false		
114-9077768-9693832	13080565904082	2020-05-26T19:58:31+00:00	2020-05-26T12:58:31-07:00	2020-05-26T20:26:19+00:00	2020-05-28T06:59:59+00:00	-1	l32qn8vv24r74w7@marketplace.amazon.com	Milan Brkovic	+1 347-448-3190 ext. 10102	ABM010	Purchase Now for Delivery by Friday | Arabella Bouquets | Fields of The World Bouquet of Fresh Cut Flowers in a Free Designer Glass Vase	1	0	1	SecondDay	Erin Perkins	34754 LAKE SHORE BLVD			EASTLAKE	OH	44095-2014	US		Happy Birthday Erin!!!!! XOXOXO From Velmo	false		
114-8845008-9899462	31945274149842	2020-05-26T20:28:50+00:00	2020-05-26T13:28:50-07:00	2020-05-26T20:54:31+00:00	2020-05-28T06:59:59+00:00	-1	0s70pth3mnt48d5@marketplace.amazon.com	Maria Diakatos	+1 314-282-9402 ext. 08481	ABM010	Purchase Now for Delivery by Friday | Arabella Bouquets | Fields of The World Bouquet of Fresh Cut Flowers in a Free Designer Glass Vase	1	0	1	SecondDay	Maria diakatos	119 brandywine ave			Elk grove village	Illinois	60007	US		Stella, Congratulations on finishing 5th grade! We love you very much! We wish you the best of luck in middle school. From Love: Jerry, mommy, & daddy	false		
114-5303871-7253816	60515748911746	2020-05-26T21:03:21+00:00	2020-05-26T14:03:21-07:00	2020-05-26T21:32:01+00:00	2020-05-28T06:59:59+00:00	-1	k538sc3cjnl2494@marketplace.amazon.com	Adam Jaynes	+1 314-282-9402 ext. 56034	ABM010	Purchase Now for Delivery by Friday | Arabella Bouquets | Fields of The World Bouquet of Fresh Cut Flowers in a Free Designer Glass Vase	1	0	1	SecondDay	Adam Jaynes	491 N 600 E			PAYSON	UT	84651-1949	US		Hope you have an amazing day momma! I am thankful to be blessed with such an incredible woman that I get to call mom!  Love - Adam	false		
113-6452042-1147404	51084622159890	2020-05-26T21:14:14+00:00	2020-05-26T14:14:14-07:00	2020-05-26T21:40:22+00:00	2020-05-28T06:59:59+00:00	-1	yqt4y6ffxjcqhwj@marketplace.amazon.com	Tammy Wilkes	+1 314-282-9402 ext. 20131	ABB001	Arabella Farm Direct Fresh Cut White Hydrangea	1	0	1	SecondDay	Tammy Wilkes	22996 N 94TH LN			PEORIA	AZ	85383-4212	US		Thank you so much for your kindness and generosity to Ty!  Much love from Tammy and Dave!	false		
111-8478381-4744258	20443991148514	2020-05-26T21:29:29+00:00	2020-05-26T14:29:29-07:00	2020-05-26T21:58:42+00:00	2020-05-28T06:59:59+00:00	-1	0ykgwyktky0r1s6@marketplace.amazon.com	adriana osmun	+1 314-282-9402 ext. 26461	ABM0033	Purchase Now for Delivery by Friday | Arabella Farm Direct Bouquet of Fresh Cut White Hydrangea with a Free Glass Vase	1	0	1	SecondDay	Cindy Payton	14509 BURR OAK RD			MAYVIEW	MO	64071-8193	US		Hi Cindy, Happy HAPPY Birthday!  We love and miss you and hope you have an amazing day! Love, Chris, Dree, Alex and Nick	false		
114-1229934-8701028	50409609318538	2020-05-26T22:14:17+00:00	2020-05-26T15:14:17-07:00	2020-05-26T22:19:01+00:00	2020-05-28T06:59:59+00:00	-1	9mgtydn0g4nrg39@marketplace.amazon.com	Cynthiajeems@yahoo.com	+1 347-448-3190 ext. 85502	ABM002	Purchase Now for Delivery by Friday | Arabella Bouquets Fresh Cut White Calla Lilies in a Free Designer Glass Vase	1	0	1	SecondDay	Regency Hospital Northwest Attn: Dorothy Jeems	4321 FIR ST 4TH FLOOR			EAST CHICAGO	IN	46312-3049	US			false		
112-4844054-4267414	58583908224858	2020-05-26T21:59:26+00:00	2020-05-26T14:59:26-07:00	2020-05-26T22:21:03+00:00	2020-05-28T06:59:59+00:00	-1	70m2xddb5ck72ym@marketplace.amazon.com	Christine Madden	+1 210-728-4548 ext. 62283	ABM010	Purchase Now for Delivery by Friday | Arabella Bouquets | Fields of The World Bouquet of Fresh Cut Flowers in a Free Designer Glass Vase	1	0	1	SecondDay	Karen Moore	866 N FIRESTONE BLVD			AKRON	OH	44306-2716	US		Our deepest condolences and prayers for you and the family we love you. From Henry & Christine Madden	false		
113-4370933-0594655	33022450338394	2020-05-26T21:58:14+00:00	2020-05-26T14:58:14-07:00	2020-05-26T22:25:23+00:00	2020-05-28T06:59:59+00:00	-1	cz1rncq33jskxm3@marketplace.amazon.com	Pary A. Davis	+1 314-282-9402 ext. 04563	ABM010	Purchase Now for Delivery by Friday | Arabella Bouquets | Fields of The World Bouquet of Fresh Cut Flowers in a Free Designer Glass Vase	1	0	1	SecondDay	Bola Odunuga	15 MORNING BREEZE CT			SILVER SPRING	MD	20904-1248	US		Congratulations Bola! We are so happy for you! We know you will do well at FDA, they are lucky to have you. You will be greatly miss3d. Love Pary, Kevin, Christopher and Justin From Pary A. Davis	false		
113-5266288-4583432	28847396385770	2020-05-26T22:06:43+00:00	2020-05-26T15:06:43-07:00	2020-05-26T22:35:59+00:00	2020-05-28T06:59:59+00:00	-1	303rnbyv81f5g3f@marketplace.amazon.com	Peter Cotrona	+1 210-728-4548 ext. 59661	ABM010	Purchase Now for Delivery by Friday | Arabella Bouquets | Fields of The World Bouquet of Fresh Cut Flowers in a Free Designer Glass Vase	1	0	1	SecondDay	Vicki Ambro	1093 N. FARMS RD.			WALLINGFORD	CT	06493	US		Happy Birthday! Hope you're feeling better. Love Peter. From Peter Cotrona	false		
112-5711638-3781824	03300658668826	2020-05-26T22:31:27+00:00	2020-05-26T15:31:27-07:00	2020-05-26T22:54:35+00:00	2020-05-28T06:59:59+00:00	-1	r56vzc7qbhpc1jv@marketplace.amazon.com	Tracy Southerland	+1 347-448-3190 ext. 14198	ABM010	Purchase Now for Delivery by Friday | Arabella Bouquets | Fields of The World Bouquet of Fresh Cut Flowers in a Free Designer Glass Vase	1	0	1	SecondDay	Lisa Richards	10511 FAIRGROVE AVE			TUJUNGA	CA	91042-1905	US		Happy 20th Anniversary From Jeramy Kaiman	false		
111-6432473-3917810	08981958689874	2020-05-26T23:23:06+00:00	2020-05-26T16:23:06-07:00	2020-05-26T23:49:59+00:00	2020-05-28T06:59:59+00:00	-1	bc2k0vjvdn2prtx@marketplace.amazon.com	ravilaakeram@gmail.com	+1 347-448-3190 ext. 99466	ABM010	Purchase Now for Delivery by Friday | Arabella Bouquets | Fields of The World Bouquet of Fresh Cut Flowers in a Free Designer Glass Vase	1	0	1	SecondDay	Bheemadaye Pooran	12949 135TH ST			SOUTH OZONE PARK	NY	11420-3543	US		Bheema, I love u and misses u a lot  Sorry for all the times I make u feel hurt. From Laakeram	false		
113-0048881-4337841	28914985482562	2020-05-26T23:33:24+00:00	2020-05-26T16:33:24-07:00	2020-05-27T00:03:53+00:00	2020-05-28T06:59:59+00:00	-1	6p479lbn2965xs2@marketplace.amazon.com	jeff clegg	+1 210-728-4548 ext. 04582	ABM010	Purchase Now for Delivery by Friday | Arabella Bouquets | Fields of The World Bouquet of Fresh Cut Flowers in a Free Designer Glass Vase	1	0	1	SecondDay	Elena Baker	240 W WESTFIELD AVE APT 614			ROSELLE PARK	NJ	07204-1819	US			false		
113-7038399-0259447	02011985201130	2020-05-26T23:39:45+00:00	2020-05-26T16:39:45-07:00	2020-05-27T00:09:17+00:00	2020-05-28T06:59:59+00:00	-1	sbh51ypx4dhqvwt@marketplace.amazon.com	Sonilyn Alvarado	+1 347-448-3190 ext. 90188	ABM010	Purchase Now for Delivery by Friday | Arabella Bouquets | Fields of The World Bouquet of Fresh Cut Flowers in a Free Designer Glass Vase	1	0	1	SecondDay	Waldina Sanchez	20 tanager lane			Levittown	NY	11756	US		Solo porque la amamos !! R&S ♥️!! From Sonilyn Alvarado	false		
112-8295402-8953802	00784987947666	2020-05-26T23:43:29+00:00	2020-05-26T16:43:29-07:00	2020-05-27T00:13:56+00:00	2020-05-28T06:59:59+00:00	-1	96vdlppgzlz4671@marketplace.amazon.com	LAURIE SHIRK	817995671	ABM010	Purchase Now for Delivery by Friday | Arabella Bouquets | Fields of The World Bouquet of Fresh Cut Flowers in a Free Designer Glass Vase	1	0	1	SecondDay	The Lacey Family	609 PARK PLACE CT			SOUTHLAKE	TX	76092-7020	US			false		
113-4600854-0085012	12883918664530	2020-05-27T00:36:55+00:00	2020-05-26T17:36:55-07:00	2020-05-27T01:01:51+00:00	2020-05-28T06:59:59+00:00	-1	c9m6l7654phrblk@marketplace.amazon.com	Andy Wojack	+1 347-448-3190 ext. 04820	ABM010	Purchase Now for Delivery by Friday | Arabella Bouquets | Fields of The World Bouquet of Fresh Cut Flowers in a Free Designer Glass Vase	1	0	1	SecondDay	Karen Wojack	2060 CHEROKEE ST # E			GRAFTON	WI	53024-9311	US		Happy Birthday Mom! Have a great day! Love, Andy, Crista & Siena	false		
112-7268309-2066608	03577715974106	2020-05-27T00:56:23+00:00	2020-05-26T17:56:23-07:00	2020-05-27T01:26:13+00:00	2020-05-28T06:59:59+00:00	-1	xb5vwdhhkp1fnlp@marketplace.amazon.com	Heather Jirka	+1 347-448-3190 ext. 92903	ABM0033	Purchase Now for Delivery by Friday | Arabella Farm Direct Bouquet of Fresh Cut White Hydrangea with a Free Glass Vase	1	0	1	SecondDay	SAVANNAH BIRTHDAY GIRL AHRENS	2640 LAREDO LN			SIDNEY	NE	69162-2426	US		Happy Birthday! From Mom and Dad....ok T too	false		
112-4622896-4720234	50702634377906	2020-05-27T01:34:32+00:00	2020-05-26T18:34:32-07:00	2020-05-27T02:03:12+00:00	2020-05-28T06:59:59+00:00	-1	pxytcn96gh0nfyb@marketplace.amazon.com	Carolina Osorio	+1 347-448-3190 ext. 18197	ABM0033	Purchase Now for Delivery by Friday | Arabella Farm Direct Bouquet of Fresh Cut White Hydrangea with a Free Glass Vase	1	0	1	SecondDay	Carolina Osorio C	21205 NE 37TH AVE APT 703			AVENTURA	FL	33180-4053	US		Patouchy, que cumplas muchos mas!!! Te queremos mucho De Los Arboleda Osorio	false		
112-5278752-9884267	65089792379978	2020-05-27T01:37:13+00:00	2020-05-26T18:37:13-07:00	2020-05-27T02:03:30+00:00	2020-05-28T06:59:59+00:00	-1	9wlzdxr33p4mv35@marketplace.amazon.com	RIDLC	+1 314-282-9402 ext. 62270	ABM010	Purchase Now for Delivery by Friday | Arabella Bouquets | Fields of The World Bouquet of Fresh Cut Flowers in a Free Designer Glass Vase	1	0	1	SecondDay	Dulce Silvestre de De Leon	4322 HOWLAND ST			PHILADELPHIA	PA	19124-4320	US		Ere una Madre excepcional. FELIZ DÍA DE LAS MADRES.   TE AMO.. De RIDLC	false		
111-2792048-3565029	39949038435018	2020-05-27T01:40:32+00:00	2020-05-26T18:40:32-07:00	2020-05-27T02:05:57+00:00	2020-05-28T06:59:59+00:00	-1	tq8tsnv97206wg2@marketplace.amazon.com	Cindy	+1 347-448-3190 ext. 66841	ABM010	Purchase Now for Delivery by Friday | Arabella Bouquets | Fields of The World Bouquet of Fresh Cut Flowers in a Free Designer Glass Vase	1	0	1	SecondDay	Christina Bhola	1340 LONGCREEK DR APT 910			COLUMBIA	SC	29210-7179	US		Congratulations on the your new and first apartment. I'm so proud of you. Hope you enjoy your own space. It only gets better from here. Love you, Mom ♥️ From Cindy	false		
114-2254841-4382606	03722872898970	2020-05-27T02:32:56+00:00	2020-05-26T19:32:56-07:00	2020-05-27T02:59:19+00:00	2020-05-28T06:59:59+00:00	-1	n4zd40pp0fx9wjy@marketplace.amazon.com	Arpad Kovacsy	+1 412-532-4665 ext. 41301	ABM010	Purchase Now for Delivery by Friday | Arabella Bouquets | Fields of The World Bouquet of Fresh Cut Flowers in a Free Designer Glass Vase	1	0	1	SecondDay	Melanie Harrison	5506 ASHTON OAKS CT			FAIRFAX	VA	22030-7219	US		Dearest Melanie, You're in my heart and prayers.  May your Mother's eternal love always comfort you and bring you joy. Arpad	false		
112-3098245-1849053	23579182308586	2020-05-27T03:02:53+00:00	2020-05-26T20:02:53-07:00	2020-05-27T03:26:55+00:00	2020-05-28T06:59:59+00:00	-1	yw3yk1tfcn5hzwx@marketplace.amazon.com	mary ann tullock	+1 210-728-4548 ext. 93267	ABM002	Purchase Now for Delivery by Friday | Arabella Bouquets Fresh Cut White Calla Lilies in a Free Designer Glass Vase	1	0	1	SecondDay	Lauren Tullock	4711 HEEGE RD			SAINT LOUIS	MO	63123-5801	US		We are so proud of you... hang in there with the job struggles... Hope these brighten your day... Love,  Mom and Dad Tullock From Art and Mary Ann	false		
114-7539932-7645834	16970859485826	2020-05-27T04:06:29+00:00	2020-05-26T21:06:29-07:00	2020-05-27T04:36:55+00:00	2020-05-28T06:59:59+00:00	-1	5h6nmq8ch5nrvgl@marketplace.amazon.com	Lara Postiglione	+1 314-282-9402 ext. 92946	ABM010	Purchase Now for Delivery by Friday | Arabella Bouquets | Fields of The World Bouquet of Fresh Cut Flowers in a Free Designer Glass Vase	1	0	1	SecondDay	Lara Postiglione	25211 E OTTAWA DR			AURORA	CO	80016-7533	US		Enjoy your gift! From Lara Postiglione	false		
113-0247077-5797011	40391560618794	2020-05-27T04:07:00+00:00	2020-05-26T21:07:00-07:00	2020-05-27T04:41:12+00:00	2020-05-28T06:59:59+00:00	-1	9gpvyvblxjt2w5n@marketplace.amazon.com	joyce r richardson	+1 314-282-9402 ext. 16647	ABM010	Purchase Now for Delivery by Friday | Arabella Bouquets | Fields of The World Bouquet of Fresh Cut Flowers in a Free Designer Glass Vase	1	0	1	SecondDay	andrea richardson	103 VAUGHNWOOD TRCE			HUNTSVILLE	AL	35806-4085	US			false		
111-9581853-1017851	15373984960506	2020-05-27T04:37:46+00:00	2020-05-26T21:37:46-07:00	2020-05-27T05:04:53+00:00	2020-05-28T06:59:59+00:00	-1	f7pg45l962mtp8b@marketplace.amazon.com	Sylvia Gomez	+1 210-728-4548 ext. 57058	ABM010	Purchase Now for Delivery by Friday | Arabella Bouquets | Fields of The World Bouquet of Fresh Cut Flowers in a Free Designer Glass Vase	1	0	1	SecondDay	Lora Carter	6858 SAN BRUNO CT			FONTANA	CA	92336-5061	US		Have a beautiful birthday Lora. I’ll be thinking of you. From Sylvia Gomez	false		
112-8986250-4929813	38722397246962	2020-05-27T07:16:21+00:00	2020-05-27T00:16:21-07:00	2020-05-27T07:45:29+00:00	2020-05-28T06:59:59+00:00	-1	n5r95ghcy0s39x3@marketplace.amazon.com	Andreas Gömmel	+1 347-448-3190 ext. 42364	ABM010	Purchase Now for Delivery by Friday | Arabella Bouquets | Fields of The World Bouquet of Fresh Cut Flowers in a Free Designer Glass Vase	1	0	1	SecondDay	Waltraud Caswell	1882 E PALM BEACH DR			CHANDLER	AZ	85249-8717	US		Liebe Trudy, zum Geburtstag alles Gute! Gehts Dir gut? Viele Grüße aus Stuttgart Stefan und Andreas	false		
112-4834989-2046618	59856721224930	2020-05-27T09:12:31+00:00	2020-05-27T02:12:31-07:00	2020-05-27T09:39:08+00:00	2020-05-30T06:59:59+00:00	-3	ngg41p82lkphk4p@marketplace.amazon.com	WITCHYWOMAN	+1 412-532-4665 ext. 31003	ABR0022	Arabella Farm Direct Bouquet of 12 Fresh Cut Pink Roses with a Free Glass Vase	1	0	1	Expedited	CAROL STANKUS	101 EAST CHESTNUT AVENUE			MERCHANTVILLE	NJ	08109	US		“All our dreams can come true, if we have the courage to pursue them.”  We are SO proud of you! Congratulations on your Graduation!  We love you!! Dad, Mum, Lexi, Pumpkin, Snacky, The Birds, The Cats and Zeus xx From Dad and Mum	false		
111-2141324-6025021	44859556600322	2020-05-27T10:09:06+00:00	2020-05-27T03:09:06-07:00	2020-05-27T10:38:56+00:00	2020-05-28T06:59:59+00:00	-1	d0cyhr6czj216pq@marketplace.amazon.com	Jessica Morley	+1 314-282-9402 ext. 00095	ABM010	Purchase Now for Delivery by Friday | Arabella Bouquets | Fields of The World Bouquet of Fresh Cut Flowers in a Free Designer Glass Vase	1	0	1	SecondDay	Stacey Gamer	4073 BUCHANAN AVE SW			BEMIDJI	MN	56601-6111	US		Missing you and soul baby so much!  I think of you guys all the time.  Lots of love ♡ From Jessica Morley	false		
111-0309769-0775418	01004747067074	2020-05-27T10:09:24+00:00	2020-05-27T03:09:24-07:00	2020-05-27T10:39:54+00:00	2020-05-28T06:59:59+00:00	-1	tmrz6h9b494sphp@marketplace.amazon.com	susan	+1 347-448-3190 ext. 16627	ABM010	Purchase Now for Delivery by Friday | Arabella Bouquets | Fields of The World Bouquet of Fresh Cut Flowers in a Free Designer Glass Vase	1	0	1	SecondDay	Bruce Johnson	300 STRODE AVE APT 313			VALLEY TOWNSHIP	PA	19320-2874	US			false		
114-1251682-6182641	46234511486498	2020-05-27T10:12:14+00:00	2020-05-27T03:12:14-07:00	2020-05-27T10:41:06+00:00	2020-05-28T06:59:59+00:00	-1	0vz0zklff8nnv4k@marketplace.amazon.com	stephanie henderson	+1 347-448-3190 ext. 88788	ABM010	Purchase Now for Delivery by Friday | Arabella Bouquets | Fields of The World Bouquet of Fresh Cut Flowers in a Free Designer Glass Vase	1	0	1	SecondDay	Cindy Webber	116 SILVERADO TRL			BERRY CREEK	CA	95916-9528	US		Happy Birthday Sister  We love you very much From stephanie henderson	false		
112-3332013-2705013	40506063375138	2020-05-27T10:29:26+00:00	2020-05-27T03:29:26-07:00	2020-05-27T10:50:50+00:00	2020-06-02T06:59:59+00:00	-6	sy500xbkcfc8hvn@marketplace.amazon.com	Alexandre Aubert	+1 210-728-4548 ext. 41271	ABR0022	Arabella Farm Direct Bouquet of 12 Fresh Cut Pink Roses with a Free Glass Vase	1	0	1	Expedited	Maria Cabral	BUILDING 1029 LUCIO ST	MANTECA CALIFORNIA		MANTECA	CA	95336-8237	US			false		
112-2231703-1425832	07171151374946	2020-05-27T11:19:48+00:00	2020-05-27T04:19:48-07:00	2020-05-27T11:48:16+00:00	2020-05-28T06:59:59+00:00	-1	sby8ys24wjbnhsq@marketplace.amazon.com	Penny Zortman	+1 412-532-4665 ext. 68696	ABM010	Purchase Now for Delivery by Friday | Arabella Bouquets | Fields of The World Bouquet of Fresh Cut Flowers in a Free Designer Glass Vase	1	0	1	SecondDay	Michelle Naelitz	369 Crestway Oval			Brunswick	Ohio	44212	US		Happy Birthday Michelle!  Wish I was there to celebrate with you.  Sending you many Birthday hugs from NC! XOXOXOXO Love always,   Penny From Penny (Southern Belle)	false		
111-5882226-4653848	67489771238362	2020-05-27T11:36:10+00:00	2020-05-27T04:36:10-07:00	2020-05-27T12:04:17+00:00	2020-05-28T06:59:59+00:00	-1	zs1jtb1h6k2hcpx@marketplace.amazon.com	Deborah Spence-Cooper	+1 347-448-3190 ext. 37119	ABM010	Purchase Now for Delivery by Friday | Arabella Bouquets | Fields of The World Bouquet of Fresh Cut Flowers in a Free Designer Glass Vase	1	0	1	SecondDay	Janet Goldsack	9811 SW 198TH CIR			DUNNELLON	FL	34432-4151	US		Happy Birthday Janet!!  With lots of love From Deb	false		
113-2730822-8100237	40571188043514	2020-05-27T12:00:48+00:00	2020-05-27T05:00:48-07:00	2020-05-27T12:27:15+00:00	2020-06-02T06:59:59+00:00	-6	nzmwzbscjcny7xr@marketplace.amazon.com	Heidi Gearing	+1 412-532-4665 ext. 26917	ABR0022	Arabella Farm Direct Bouquet of 12 Fresh Cut Pink Roses with a Free Glass Vase	1	0	1	Expedited	Liz Gearing	51 WINTER ST			ARLINGTON	MA	02474-6919	US			false		
112-3714320-3898655	41149838618562	2020-05-27T12:37:37+00:00	2020-05-27T05:37:37-07:00	2020-05-27T13:06:22+00:00	2020-05-28T06:59:59+00:00	-1	7jqbnxt5sz5t2ct@marketplace.amazon.com	Vicki Pfizenmaier	+1 314-282-9402 ext. 23324	ABM010	Purchase Now for Delivery by Friday | Arabella Bouquets | Fields of The World Bouquet of Fresh Cut Flowers in a Free Designer Glass Vase	1	0	1	SecondDay	Marilyn Pfizenmaier	2813 S CALLE TRAFALGAR			GREEN VALLEY	AZ	85622-4516	US			false		
112-1703155-4324255	65669894938674	2020-05-27T13:05:39+00:00	2020-05-27T06:05:39-07:00	2020-05-27T13:34:15+00:00	2020-05-28T06:59:59+00:00	-1	82tmq3bnh6kfkfq@marketplace.amazon.com	Gerard A. Desrochers	+1 314-282-9402 ext. 65679	ABM010	Purchase Now for Delivery by Friday | Arabella Bouquets | Fields of The World Bouquet of Fresh Cut Flowers in a Free Designer Glass Vase	1	0	1	SecondDay	Juliette Desrochers	280 4TH AVE			LOWELL	MA	01854-2443	US		Happy Anniversary! Gerry & Illy From Gerry & Illy	false		
112-2681106-8006622	18992606660322	2020-05-27T13:09:34+00:00	2020-05-27T06:09:34-07:00	2020-05-27T13:40:08+00:00	2020-05-28T06:59:59+00:00	-1	1lsdmtrs1wmw7p4@marketplace.amazon.com	Albert	+1 763-225-9463 ext. 86616	ABM010	Purchase Now for Delivery by Friday | Arabella Bouquets | Fields of The World Bouquet of Fresh Cut Flowers in a Free Designer Glass Vase	1	0	1	SecondDay	Albert	TOVAR 32610 PINEDALE LN			GOBLES	MI	49055-9723	US			false		
111-4032137-3253815	42700262288682	2020-05-27T13:10:30+00:00	2020-05-27T06:10:30-07:00	2020-05-27T13:40:27+00:00	2020-05-28T06:59:59+00:00	-1	m970wy88cynxv3f@marketplace.amazon.com	Steven Crispell	+1 412-532-4665 ext. 67814	ABM010	Purchase Now for Delivery by Friday | Arabella Bouquets | Fields of The World Bouquet of Fresh Cut Flowers in a Free Designer Glass Vase	1	0	1	SecondDay	Leroy Crispell	227 HURD RD			FREEVILLE	NY	13068-9819	US			false		
112-1009779-1092215	14987691722378	2020-05-27T13:16:43+00:00	2020-05-27T06:16:43-07:00	2020-05-27T13:42:30+00:00	2020-06-02T06:59:59+00:00	-6	66t5z6m5108969d@marketplace.amazon.com	Audrey	+1 763-225-9463 ext. 77714	ABR0022	Arabella Farm Direct Bouquet of 12 Fresh Cut Pink Roses with a Free Glass Vase	1	0	1	Expedited	Connie	6444 DESERTER CREEK RD			WHITESVILLE	KY	42378-9705	US			false		
114-9165463-6985859	29829692829370	2020-05-27T13:38:06+00:00	2020-05-27T06:38:06-07:00	2020-05-27T14:04:35+00:00	2020-06-02T06:59:59+00:00	-6	scrbkt76bl3snn7@marketplace.amazon.com	dean h. creasey	+1 210-728-4548 ext. 01941	ABR0022	Arabella Farm Direct Bouquet of 12 Fresh Cut Pink Roses with a Free Glass Vase	1	0	1	Expedited	Joni Bernahl	11 BIRCH DR			CHATHAM	IL	62629-9714	US		Just a little pick me up now that Audrey and Henry have gone home. Happy belated birthday, too!  Jeris From Dean H. Creasey	false		
114-2436295-6143421	34751966443050	2020-05-27T13:57:30+00:00	2020-05-27T06:57:30-07:00	2020-05-27T14:25:28+00:00	2020-05-28T06:59:59+00:00	-1	02swgbb4d1t10ls@marketplace.amazon.com	jking521	+1 210-728-4548 ext. 81674	ABM010	Purchase Now for Delivery by Friday | Arabella Bouquets | Fields of The World Bouquet of Fresh Cut Flowers in a Free Designer Glass Vase	1	0	1	SecondDay	Nicole Prosser	206 PISTACHIO LN			KINGSLAND	GA	31548-6925	US		Dear Nicole, Congratulations on the new home and we are all thinking of you and send all our love xxx From Jamie, Jenny, & Maggie	false		
113-9654325-4031419	29425248678370	2020-05-27T14:01:05+00:00	2020-05-27T07:01:05-07:00	2020-05-27T14:26:53+00:00	2020-06-02T06:59:59+00:00	-6	qxfsfky5gqyrttp@marketplace.amazon.com	Joseph D. Hanlon	+1 314-282-9402 ext. 28094	ABR0022	Arabella Farm Direct Bouquet of 12 Fresh Cut Pink Roses with a Free Glass Vase	1	0	1	Expedited	Sophie M. Lynch	10 SARATOGA WAY			GLASSBORO	NJ	08028-2066	US		Happy 5th Birthday Sophie Can't wait to see you soon ! Love, Uncle Joe	false		
112-7274758-4265801	09654067888666	2020-05-27T14:50:28+00:00	2020-05-27T07:50:28-07:00	2020-05-27T15:18:30+00:00	2020-06-02T06:59:59+00:00	-6	fr6q7ts7s5xqv0j@marketplace.amazon.com	Gail r. Combs	+1 210-728-4548 ext. 67650	ABR0022	Arabella Farm Direct Bouquet of 12 Fresh Cut Pink Roses with a Free Glass Vase	1	0	1	Expedited	Darlene Dasch	44 CHERYL DR			RONKONKOMA	NY	11779-4349	US		Happy Birthday Darlene!!! From Love, Pop and Gail	false		
114-3222593-7493061	61766773043010	2020-05-27T15:07:53+00:00	2020-05-27T08:07:53-07:00	2020-05-27T15:33:42+00:00	2020-05-28T06:59:59+00:00	-1	p86mxnkhcvn2f86@marketplace.amazon.com	Lisa Murphy	+1 210-728-4548 ext. 93469	ABM002	Purchase Now for Delivery by Friday | Arabella Bouquets Fresh Cut White Calla Lilies in a Free Designer Glass Vase	1	0	1	SecondDay	Nana	135 ANARECE AVE			AUBURNDALE	FL	33823-3803	US		Sending lots of love and well wishes!  ❤️ From Lisa Murphy	false		
111-4218275-2254667	21687940140394	2020-05-27T15:09:19+00:00	2020-05-27T08:09:19-07:00	2020-05-27T15:36:39+00:00	2020-05-28T06:59:59+00:00	-1	4sfz93vqjpr38ry@marketplace.amazon.com	Kristen Hughes	+1 210-728-4548 ext. 94965	ABM010	Purchase Now for Delivery by Friday | Arabella Bouquets | Fields of The World Bouquet of Fresh Cut Flowers in a Free Designer Glass Vase	1	0	1	SecondDay	Kim and Kaylin Moreland	1 LAKEWOOD DR			OAKWOOD HILLS	IL	60013-1119	US		Auntie and Sis, Sorry for not sending these earlier! I want to sincerely thank you for throwing the best bridal shower we could ever dream of. It really meant a lot to us. We love you! From Kristen Hughes	false		
112-5822323-4433850	33731924740922	2020-05-27T15:11:55+00:00	2020-05-27T08:11:55-07:00	2020-05-27T15:41:02+00:00	2020-05-28T06:59:59+00:00	-1	43lclp7b7wy65cy@marketplace.amazon.com	caysi marshall	+1 347-448-3190 ext. 65188	ABM010	Purchase Now for Delivery by Friday | Arabella Bouquets | Fields of The World Bouquet of Fresh Cut Flowers in a Free Designer Glass Vase	1	0	1	SecondDay	DAN MARSHALL	516 SLIGO ST			CORTEZ	CO	81321-2948	US		WE LOVE YOU!!1 From THE LAMPLEYS	false		
112-1774556-9982619	42870219721834	2020-05-27T15:41:13+00:00	2020-05-27T08:41:13-07:00	2020-05-27T15:42:11+00:00	2020-05-28T06:59:59+00:00	-1	r56vzc7qbhpc1jv@marketplace.amazon.com	Tracy Southerland	+1 347-448-3190 ext. 22860	ABM010	Purchase Now for Delivery by Friday | Arabella Bouquets | Fields of The World Bouquet of Fresh Cut Flowers in a Free Designer Glass Vase	1	0	1	SecondDay	Lisa Groover	1040 HELEN DR			MILLBRAE	CA	94030-1054	US		Happy 15 year anniversary.  Thank you for all of your hard work! Jeramy From Jeramy Kaiman	false		
111-4767256-3313828	45927334368274	2020-05-27T15:15:02+00:00	2020-05-27T08:15:02-07:00	2020-05-27T15:44:55+00:00	2020-06-02T06:59:59+00:00	-6	ldm3tsxdx46t669@marketplace.amazon.com	Felipe Zapata	+1 347-448-3190 ext. 34657	ABR0022	Arabella Farm Direct Bouquet of 12 Fresh Cut Pink Roses with a Free Glass Vase	1	0	1	Expedited	Emily's hair salon	9523 ANTOINE DR STE D			HOUSTON	TX	77086-3948	US			false		
113-5332122-3075411	60115545771498	2020-05-27T15:19:35+00:00	2020-05-27T08:19:35-07:00	2020-05-27T15:50:14+00:00	2020-05-28T06:59:59+00:00	-1	sqdz7r7d3fdkmyt@marketplace.amazon.com	Greg becker	+1 347-448-3190 ext. 46549	ABM010	Purchase Now for Delivery by Friday | Arabella Bouquets | Fields of The World Bouquet of Fresh Cut Flowers in a Free Designer Glass Vase	1	0	1	SecondDay	Greg becker	612 N CHERRY ST			AVOCA	IA	51521-5159	US			false		
113-9241945-9005824	56958869322994	2020-05-27T15:25:02+00:00	2020-05-27T08:25:02-07:00	2020-05-27T15:53:59+00:00	2020-05-28T06:59:59+00:00	-1	1x0p6nj5sc6rdwg@marketplace.amazon.com	Sharon Hampel	+1 347-448-3190 ext. 94070	ABM010	Purchase Now for Delivery by Friday | Arabella Bouquets | Fields of The World Bouquet of Fresh Cut Flowers in a Free Designer Glass Vase	1	0	1	SecondDay	Rabbi Lazer Rivkin Rebbitzen Devorah Rivkin	2001 W SWANN AVE			TAMPA	FL	33606-2422	US		Chag Someach!  Fondly, Sorah Libah	false		
111-9046285-1579459	50108314224202	2020-05-27T15:26:01+00:00	2020-05-27T08:26:01-07:00	2020-05-27T15:56:09+00:00	2020-06-02T06:59:59+00:00	-6	2jv8vcsc6q74xly@marketplace.amazon.com	Tracker Winks	+1 347-448-3190 ext. 98321	ABR0022	Arabella Farm Direct Bouquet of 12 Fresh Cut Pink Roses with a Free Glass Vase	1	0	1	Expedited	Tracy E Bailey	43 KNOLLS RD			BLOOMINGDALE	NJ	07403-1547	US		Mommy,  Thanks for believing in me.  I love you!  Love, AJ	false		
114-9970337-5097850	45128944413610	2020-05-27T15:57:42+00:00	2020-05-27T08:57:42-07:00	2020-05-27T15:58:36+00:00	2020-05-28T06:59:59+00:00	-1	q403fwvpgw2j6wr@marketplace.amazon.com	Ryan Conaghan	+1 210-728-4548 ext. 30048	ABM010	Purchase Now for Delivery by Friday | Arabella Bouquets | Fields of The World Bouquet of Fresh Cut Flowers in a Free Designer Glass Vase	1	0	1	SecondDay	Ryan Conaghan	4225 WHITE HERON PT			PORTSMOUTH	VA	23703-5359	US			false		
111-1772026-7481859	19301963907418	2020-05-27T15:36:01+00:00	2020-05-27T08:36:01-07:00	2020-05-27T16:03:38+00:00	2020-05-28T06:59:59+00:00	-1	gm7szhkkdsxh88q@marketplace.amazon.com	Susan Touhsaent	+1 347-448-3190 ext. 46597	ABM010	Purchase Now for Delivery by Friday | Arabella Bouquets | Fields of The World Bouquet of Fresh Cut Flowers in a Free Designer Glass Vase	1	0	1	SecondDay	Judy Price	1441 OLD CHAPIN RD APT 913			LEXINGTON	SC	29072-9373	US		Happy Anniversary! Love, Susan & Bob	false		
113-2278084-0810662	65032461054594	2020-05-27T15:34:34+00:00	2020-05-27T08:34:34-07:00	2020-05-27T16:06:01+00:00	2020-06-02T06:59:59+00:00	-6	vzt8c3mp7y96cmr@marketplace.amazon.com	Jonny	+1 314-282-9402 ext. 38176	ABR0022	Arabella Farm Direct Bouquet of 12 Fresh Cut Pink Roses with a Free Glass Vase	1	0	1	Expedited	Elaine William	180 EPPS BRIDGE RD			ATHENS	GA	30606-3312	US			false		
113-8862624-8081063	37601344877354	2020-05-27T15:39:56+00:00	2020-05-27T08:39:56-07:00	2020-05-27T16:09:30+00:00	2020-05-28T06:59:59+00:00	-1	xk7hf2pd8rt7hsk@marketplace.amazon.com	Judith MacLaren	+1 763-225-9463 ext. 88008	ABM0044	Purchase Now for Delivery by Friday | Arabella Farm Direct Bouquet of Fresh Cut Blue Hydrangea with a Free Glass Vase	1	0	1	SecondDay	Teresa Morrissey	377 OLDHAM ST			PEMBROKE	MA	02359-2106	US		My deepest sympathy Judy Mac From Judith MacLaren	false		
111-7518339-0681834	21528665501602	2020-05-27T15:40:38+00:00	2020-05-27T08:40:38-07:00	2020-05-27T16:11:13+00:00	2020-06-02T06:59:59+00:00	-6	ggsj7f4r8fdhlj4@marketplace.amazon.com	jan gonsalves	+1 314-282-9402 ext. 01988	ABR0022	Arabella Farm Direct Bouquet of 12 Fresh Cut Pink Roses with a Free Glass Vase	1	0	1	Expedited	Michele Gonzales	1501 YOSEMITE CIR			OAKLEY	CA	94561-5211	US			false		
111-1621354-2527400	65597053225770	2020-05-27T15:46:45+00:00	2020-05-27T08:46:45-07:00	2020-05-27T16:13:17+00:00	2020-06-02T06:59:59+00:00	-6	f2x4m4zsyn7h668@marketplace.amazon.com	William F. Hedgecock	+1 347-448-3190 ext. 86189	ABR0022	Arabella Farm Direct Bouquet of 12 Fresh Cut Pink Roses with a Free Glass Vase	1	0	1	Expedited	Mr. and Mrs. David Marshall	1630 W DAHL LN			SANTA ANA	CA	92704-3304	US			false		
112-4637365-7700269	58971734489562	2020-05-27T15:49:42+00:00	2020-05-27T08:49:42-07:00	2020-05-27T16:17:52+00:00	2020-05-28T06:59:59+00:00	-1	q8m75frc6fp07fx@marketplace.amazon.com	Vona Upham	+1 347-448-3190 ext. 64762	ABM016	Arabella Farm Direct Bouquet of Sunflowers with a Free Glass Vase	1	0	1	SecondDay	Diann Rutherford	2916 27TH ST			CLARKSTON	WA	99403-1690	US		Hi, For a Sunny and Happy Birthday and Year.  Love you so much From Vona and Don	false		
112-7701434-0370644	47795670891490	2020-05-27T15:53:23+00:00	2020-05-27T08:53:23-07:00	2020-05-27T16:21:28+00:00	2020-06-02T06:59:59+00:00	-6	3rg53xprl4wj9b0@marketplace.amazon.com	Theanne ballios	+1 347-448-3190 ext. 33452	ABR0022	Arabella Farm Direct Bouquet of 12 Fresh Cut Pink Roses with a Free Glass Vase	1	0	1	Expedited	Tina Melonakos	1222 HOLLYWOOD DR			MONROE	MI	48162-3022	US			false		
111-0666782-7652228	56309344902650	2020-05-27T15:52:10+00:00	2020-05-27T08:52:10-07:00	2020-05-27T16:22:46+00:00	2020-05-28T06:59:59+00:00	-1	hd72fd6cbl2gg14@marketplace.amazon.com	bill valois	+1 347-448-3190 ext. 70748	ABM010	Purchase Now for Delivery by Friday | Arabella Bouquets | Fields of The World Bouquet of Fresh Cut Flowers in a Free Designer Glass Vase	1	0	1	SecondDay	William P Valois	10004 E 97th Pl N.			Owasso	OK	74055	US			false		
114-1744827-0402606	09288716946666	2020-05-27T16:32:25+00:00	2020-05-27T09:32:25-07:00	2020-05-27T16:57:10+00:00	2020-06-02T06:59:59+00:00	-6	kxw6zzg1jkylbtb@marketplace.amazon.com	John O. Summers	+1 347-448-3190 ext. 17657	ABR0022	Arabella Farm Direct Bouquet of 12 Fresh Cut Pink Roses with a Free Glass Vase	1	0	1	Expedited	Linda Riley	11 FROST LN			HADLEY	MA	01035-9621	US		Enjoy your gift!  Thank you, Linda, for your consule and friendship! From Anne C. Summers	false		
111-5607505-9570620	04054945159178	2020-05-27T16:39:47+00:00	2020-05-27T09:39:47-07:00	2020-05-27T17:08:43+00:00	2020-05-28T06:59:59+00:00	-1	0flnv23k06y6dt2@marketplace.amazon.com	Tsedenia M. Beyene	+1 347-448-3190 ext. 40147	ABM010	Purchase Now for Delivery by Friday | Arabella Bouquets | Fields of The World Bouquet of Fresh Cut Flowers in a Free Designer Glass Vase	1	0	1	SecondDay	Nardos ghbermechael	1210 S INDIANA AVE			CHICAGO	IL	60605-2748	US		We appreciate your lovely meal and cupcake 💜 Thank you 🙏🏽 From Seble Tekalign	false		
113-5428918-8510628	52548666446130	2020-05-27T16:43:47+00:00	2020-05-27T09:43:47-07:00	2020-05-27T17:21:17+00:00	2020-05-29T06:59:59+00:00	-2	0ddkz5gjlwr2fxd@marketplace.amazon.com	Lily Song Ebersole	+1 347-448-3190 ext. 13408	ABM010	Purchase Now for Delivery by Friday | Arabella Bouquets | Fields of The World Bouquet of Fresh Cut Flowers in a Free Designer Glass Vase	1	0	1	SecondDay	Gabby Perez Nava and Diego Garcia and Family	63 ROSA PARKS BLVD			PATERSON	NJ	07524-2422	US		Más sinceras condolencias. Nuestros pensamientos están con usted y con tu familia. Si necesita algo, no dude en hacérnoslo saber.  Danny, Douglas, Lily and Goffa	false		
111-0765673-0519466	65360736913618	2020-05-27T17:18:37+00:00	2020-05-27T10:18:37-07:00	2020-05-27T17:38:10+00:00	2020-05-29T06:59:59+00:00	-2	8k5p5ql4hg9chnl@marketplace.amazon.com	Crystal A Bush	+1 314-282-9402 ext. 42103	ABM010	Purchase Now for Delivery by Friday | Arabella Bouquets | Fields of The World Bouquet of Fresh Cut Flowers in a Free Designer Glass Vase	1	0	1	SecondDay	Hannah Chaudoin	SELAH HOUSE 2541 NORTHSHORE BLVD			ANDERSON	IN	46011-9600	US		Hi Hannah, I think about you daily. I'm so proud of the hard work you are putting in. I imagine it is very hard.  Just keep swimming because you are so worth all of it. I love and miss you! Love, Aunt Crysti	false		
114-9830622-1401010	48736890571610	2020-05-27T17:29:48+00:00	2020-05-27T10:29:48-07:00	2020-05-27T17:58:49+00:00	2020-06-02T06:59:59+00:00	-6	s4ytcgq2p1c01gz@marketplace.amazon.com	Heather Walker	+1 210-728-4548 ext. 46870	ABR0022	Arabella Farm Direct Bouquet of 12 Fresh Cut Pink Roses with a Free Glass Vase	1	0	1	Expedited	Mack House	9628 BARKSDALE DR			FORT WORTH	TX	76244-6006	US		To T&J  We love you guys. From Andrew and Heather	false		
112-5800322-6261834	35280730964298	2020-05-27T02:50:54+00:00	2020-05-26T19:50:54-07:00	2020-05-27T18:14:16+00:00	2020-05-30T06:59:59+00:00	-3	z60fgnbfd1r2d8v@marketplace.amazon.com	Pearl Sanchez	+1 210-728-4548 ext. 26622	ABR0022	Arabella Farm Direct Bouquet of 12 Fresh Cut Pink Roses with a Free Glass Vase	1	0	1	Expedited	Deserie Areola	81824 Ave N W			Minot	North Dakota	58703	US			false		
114-5642308-0254642	19984517141466	2020-05-27T18:13:12+00:00	2020-05-27T11:13:12-07:00	2020-05-27T18:16:23+00:00	2020-06-02T06:59:59+00:00	-6	wv13tm61z31ylp8@marketplace.amazon.com	Chrim A. Robinson	+1 210-728-4548 ext. 83917	ABR0022	Purchase Now for Delivery by Monday | Arabella Farm Direct Bouquet of 12 Fresh Cut Pink Roses with a Free Glass Vase	1	0	1	Expedited	Sandy Sampong	9212 ORIOLE PL			GAITHERSBURG	MD	20879-1709	US		Sandy, Love-ease of heart, fondness & emotional peace. Such a perfect place ideally exists but not in such a perfect way. Love, like life, we dream and work to achieve. ❤️🙏🏾	false		
114-3915242-4408233	41358852355570	2020-05-27T18:02:53+00:00	2020-05-27T11:02:53-07:00	2020-05-27T18:17:08+00:00	2020-06-02T06:59:59+00:00	-6	ymrnhlxzm8w3krh@marketplace.amazon.com	Colleen Moore	+1 314-282-9402 ext. 62297	ABR0022	Purchase Now for Delivery by Monday | Arabella Farm Direct Bouquet of 12 Fresh Cut Pink Roses with a Free Glass Vase	1	0	1	Expedited	Meaghan McDonough	25 PROSPECT AVE			NORTH ARLINGTON	NJ	07031-6123	US		Dear Meaghan, Sending our deepest condolences for the loss of your grandmother. Love, CTC Sunshine Committee	false		
111-9926081-7570646	50404170620578	2020-05-27T17:48:51+00:00	2020-05-27T10:48:51-07:00	2020-05-27T18:17:37+00:00	2020-06-02T06:59:59+00:00	-6	zc461qhrq6cc1qf@marketplace.amazon.com	Barry J Stich	+1 347-448-3190 ext. 51645	ABR0022	Purchase Now for Delivery by Monday | Arabella Farm Direct Bouquet of 12 Fresh Cut Pink Roses with a Free Glass Vase	1	0	1	Expedited	Jodi Outley	6043 WILD BERRY DR			LAS VEGAS	NV	89142-0620	US		Dear Jodi, Here's to kicking its ass!!! Love, Barry & Baz	false		
111-7639542-1767414	29949502928794	2020-05-27T17:53:48+00:00	2020-05-27T10:53:48-07:00	2020-05-27T18:23:27+00:00	2020-06-02T06:59:59+00:00	-6	l52dc6d769bzcg9@marketplace.amazon.com	J P Cain	+1 347-448-3190 ext. 89887	ABR0022	Purchase Now for Delivery by Monday | Arabella Farm Direct Bouquet of 12 Fresh Cut Pink Roses with a Free Glass Vase	1	0	1	Expedited	Rita Cain	4510 S PRINCE OF PEACE PL APT 234			SIOUX FALLS	SD	57103-5874	US			false		
111-2376997-5672227	05969236295018	2020-05-27T18:08:57+00:00	2020-05-27T11:08:57-07:00	2020-05-27T18:24:20+00:00	2020-06-02T06:59:59+00:00	-6	qb4hnbmxtvsff0b@marketplace.amazon.com	Victoria kosanovich	+1 314-282-9402 ext. 81879	ABM002	Purchase Now for Delivery by Friday | Arabella Bouquets Fresh Cut White Calla Lilies in a Free Designer Glass Vase	1	0	1	Expedited	Karen Orosco	17 DATE AVE			LACKAWANNA	NY	14218-1412	US		Karen, as difficult as it was, we are glad you were there forUncle Meecho.  With love, George & Vicky	false		
112-5926809-2504216	13848397856506	2020-05-27T17:59:57+00:00	2020-05-27T10:59:57-07:00	2020-05-27T18:29:06+00:00	2020-06-02T06:59:59+00:00	-6	73yrmzg9xcnlqqg@marketplace.amazon.com	Dave Weller	+1 210-728-4548 ext. 10565	ABM010	Purchase Now for Delivery by Monday | Arabella Bouquets | Fields of The World Bouquet of Fresh Cut Flowers in a Free Designer Glass Vase	1	0	1	Expedited	Jane Moran	11 BEECHWOOD ST			COHASSET	MA	02025-2101	US		Hi Jane, Thanks for being the best ever boss Have a great birthday! Dave	false		
113-8807068-1421805	03994103350546	2020-05-27T18:37:28+00:00	2020-05-27T11:37:28-07:00	2020-05-27T19:05:51+00:00	2020-06-02T06:59:59+00:00	-6	cgxgp64rm8gmk77@marketplace.amazon.com	Rashmati Rampersaud	+1 314-282-9402 ext. 31045	ABM010	Purchase Now for Delivery by Monday | Arabella Bouquets | Fields of The World Bouquet of Fresh Cut Flowers in a Free Designer Glass Vase	1	0	1	Expedited	Rishi Rampersaud	8958 212TH ST			QUEENS VILLAGE	NY	11427-2333	US		Mom, We love and cherish you always. Today and every day we wish you love and happiness.   Love Always, Sunil, Rachel, Sonya, and Matthew. From Sunil	false		
112-9944467-5158663	68397715789482	2020-05-27T18:45:27+00:00	2020-05-27T11:45:27-07:00	2020-05-27T19:11:50+00:00	2020-06-02T06:59:59+00:00	-6	yzgbh5nzf5bdxjl@marketplace.amazon.com	Veronica Martinez	+1 314-282-9402 ext. 74373	ABR004	Arabella Farm Direct Bouquet of 12 Fresh Cut Yellow Roses with a Free Glass Vase	1	0	1	Expedited	Martinez Family	15906 1ST ST			CHANNELVIEW	TX	77530-4330	US		Thank you for caring, and making Tomas feel loved.  I really appreciate everything you and your family has done to make baby feel at home away from home. Always grateful,  Veronica From Veronica Martinez	false		
113-8265340-5104224	50610981461378	2020-05-27T18:48:57+00:00	2020-05-27T11:48:57-07:00	2020-05-27T19:17:28+00:00	2020-06-02T06:59:59+00:00	-6	mmhjc1155s82nv1@marketplace.amazon.com	sheryl benningfield	+1 210-728-4548 ext. 92971	ABM010	Purchase Now for Delivery by Monday | Arabella Bouquets | Fields of The World Bouquet of Fresh Cut Flowers in a Free Designer Glass Vase	1	0	1	Expedited	Kendra Szagola	1149 WOODWINDS DR			WAXHAW	NC	28173-7887	US			false		
112-5850604-7625053	50484412483650	2020-05-27T19:20:48+00:00	2020-05-27T12:20:48-07:00	2020-05-27T19:38:28+00:00	2020-06-02T06:59:59+00:00	-6	8jpzc4whhllw9z2@marketplace.amazon.com	Katherina Griffin	+1 314-282-9402 ext. 69177	ABR0066	Purchase Now for Delivery by Monday | Arabella Bouquets | 12 Stems of Fresh Cut White Roses in a Free Designer Glass Vase	1	0	1	Expedited	Katherina Griffin	410 MARIE ST APT 301			CAPE GIRARDEAU	MO	63701-4853	US		Happy Father's Day! From Katherina Griffin	false		
111-0324295-7281802	45519925796538	2020-05-27T19:15:41+00:00	2020-05-27T12:15:41-07:00	2020-05-27T19:45:02+00:00	2020-06-02T06:59:59+00:00	-6	1dd0324b86fglg3@marketplace.amazon.com	jacqueline h stuart	+1 314-282-9402 ext. 12851	ABR0033	Purchase Now for Delivery by Monday | Arabella Farm Direct Bouquet of 12 Fresh Cut Orange Roses with a Free Glass Vase	1	0	1	Expedited	Jennie Hill	179 CASTLE DR			HUBERT	NC	28539-4618	US		Love you Mom!! Jacqui & Wayne From jacqueline h stuart	false		
113-9330961-4716269	06673545026338	2020-05-27T19:17:18+00:00	2020-05-27T12:17:18-07:00	2020-05-27T19:45:22+00:00	2020-06-02T06:59:59+00:00	-6	0yhrzsl21pt8nf3@marketplace.amazon.com	Jürgen Kaiser	+1 347-448-3190 ext. 68124	ABR0033	Purchase Now for Delivery by Monday | Arabella Farm Direct Bouquet of 12 Fresh Cut Orange Roses with a Free Glass Vase	1	0	1	Standard	Geraldine Gale	6528 E KIKI CT			MISSOULA	MT	59808-1216	US		Dear Grandmere, Wishing you a very Happy Birthday!!  We hope you have a lovely day. Love, Cara, Juergen, and Helena	false		
113-5316661-0529844	43216965495354	2020-05-27T19:22:18+00:00	2020-05-27T12:22:18-07:00	2020-05-27T19:50:04+00:00	2020-06-02T06:59:59+00:00	-6	c3tl8kxmsvqr8zg@marketplace.amazon.com	Daniel A Vaccaro	+1 347-448-3190 ext. 76969	ABR012	Purchase Now for Delivery by Monday | Arabella Farm Direct Bouquet of 18 Fresh Cut Pink Roses with a Free Glass Vase	1	0	1	Expedited	Mrs. Carol Saharian, Hubbard Hill, Room 2217	28070 COUNTY ROAD 24			ELKHART	IN	46517-9717	US		Enjoy your gift! HAPPY BIRTHDAY WITH ALL OUR LOVE   DIANE AND DAN VACCARO From DIANE & Daniel A Vaccaro	false		
112-1799080-2281865	17064778619978	2020-05-27T19:28:41+00:00	2020-05-27T12:28:41-07:00	2020-05-27T19:54:54+00:00	2020-06-02T06:59:59+00:00	-6	x8lg5ffswlzc4l4@marketplace.amazon.com	stephanie hunter	+1 210-728-4548 ext. 61103	ABR0022	Purchase Now for Delivery by Monday | Arabella Farm Direct Bouquet of 12 Fresh Cut Pink Roses with a Free Glass Vase	1	0	1	Expedited	Connie Davenport	655 PERRIE DR APT 204			ELK GROVE VILLAGE	IL	60007-1824	US		Happy Birthday! From Love, Mike and Stephanie	false		
114-6978661-3922614	50977968011786	2020-05-27T19:30:11+00:00	2020-05-27T12:30:11-07:00	2020-05-27T19:58:36+00:00	2020-06-02T06:59:59+00:00	-6	bh8msylb2fhntsx@marketplace.amazon.com	Wing-Sze Vinny Chau-Chin	+1 210-728-4548 ext. 88179	ABR0022	Purchase Now for Delivery by Monday | Arabella Farm Direct Bouquet of 12 Fresh Cut Pink Roses with a Free Glass Vase	1	0	1	Expedited	Bella Chau	1011 OAKLAND CT			BARRINGTON	IL	60010-6310	US		Happy Sweet 16, Bella!  Wish we were there to celebrate with you.  Enjoy a wonderful birthday celebration! With love from the Pacific NW, Vinny, Bill, Ariana, and Elijah	false		
111-1836012-6344268	44799229335938	2020-05-27T19:51:59+00:00	2020-05-27T12:51:59-07:00	2020-05-27T20:18:27+00:00	2020-06-02T06:59:59+00:00	-6	v20jxcqts6ksxrn@marketplace.amazon.com	Bruce Hammerstrom	+1 347-448-3190 ext. 19233	ABM010	Purchase Now for Delivery by Monday | Arabella Bouquets | Fields of The World Bouquet of Fresh Cut Flowers in a Free Designer Glass Vase	1	0	1	Expedited	Bruce Hammerstrom	5405 NW 134TH ST			VANCOUVER	WA	98685-1464	US			false		
113-7641898-0265823	27097091240650	2020-05-27T20:01:25+00:00	2020-05-27T13:01:25-07:00	2020-05-27T20:27:38+00:00	2020-06-02T06:59:59+00:00	-6	hwjmjbpmly295nw@marketplace.amazon.com	Travis	+1 314-282-9402 ext. 28772	ABM010	Purchase Now for Delivery by Monday | Arabella Bouquets | Fields of The World Bouquet of Fresh Cut Flowers in a Free Designer Glass Vase	1	0	1	Expedited	Travis Stephenson	4901 HIGH FOREST RD			COLORADO SPRINGS	COLORADO	80908-3021	US		We heard you have had some family challenges and wanted to brighten your day!!!!! Your friends at Mortgage300.	false		
114-4562052-7090666	29690738186530	2020-05-27T20:06:21+00:00	2020-05-27T13:06:21-07:00	2020-05-27T20:31:14+00:00	2020-06-02T06:59:59+00:00	-6	zfvbg5hp4h33wnq@marketplace.amazon.com	linda cobb thompson	+1 210-728-4548 ext. 14762	ABR015	Purchase Now for Delivery by Monday | Arabella Farm Direct Bouquet of 18 Fresh Cut Orange Roses with a Free Glass Vase	1	0	1	Expedited	Joyce Cobb	3067 CHISCA AVE			MEMPHIS	TN	38111-3027	US		Happy Birthday Gemini Twins! May this coming year bring you love, joy and happiness. We love you dearly! From Linda and your MN family	false		
