order-id	order-item-id	purchase-date	payments-date	reporting-date	promise-date	days-past-promise	buyer-email	buyer-name	buyer-phone-number	sku	product-name	quantity-purchased	quantity-shipped	quantity-to-ship	ship-service-level	recipient-name	ship-address-1	ship-address-2	ship-address-3	ship-city	ship-state	ship-postal-code	ship-country	gift-wrap-type	gift-message-text	is-business-order	purchase-order-number	price-designation
112-4834989-2046618	59856721224930	2020-05-27T09:12:31+00:00	2020-05-27T02:12:31-07:00	2020-05-27T09:39:08+00:00	2020-05-30T06:59:59+00:00	-2	ngg41p82lkphk4p@marketplace.amazon.com	WITCHYWOMAN	+1 412-532-4665 ext. 31003	ABR0022	Arabella Farm Direct Bouquet of 12 Fresh Cut Pink Roses with a Free Glass Vase	1	0	1	Expedited	CAROL STANKUS	101 EAST CHESTNUT AVENUE			MERCHANTVILLE	NJ	08109	US		“All our dreams can come true, if we have the courage to pursue them.”  We are SO proud of you! Congratulations on your Graduation!  We love you!! Dad, Mum, Lexi, Pumpkin, Snacky, The Birds, The Cats and Zeus xx From Dad and Mum	false		
112-3332013-2705013	40506063375138	2020-05-27T10:29:26+00:00	2020-05-27T03:29:26-07:00	2020-05-27T10:50:50+00:00	2020-06-02T06:59:59+00:00	-5	sy500xbkcfc8hvn@marketplace.amazon.com	Alexandre Aubert	+1 210-728-4548 ext. 41271	ABR0022	Arabella Farm Direct Bouquet of 12 Fresh Cut Pink Roses with a Free Glass Vase	1	0	1	Expedited	Maria Cabral	BUILDING 1029 LUCIO ST	MANTECA CALIFORNIA		MANTECA	CA	95336-8237	US			false		
113-2730822-8100237	40571188043514	2020-05-27T12:00:48+00:00	2020-05-27T05:00:48-07:00	2020-05-27T12:27:15+00:00	2020-06-02T06:59:59+00:00	-5	nzmwzbscjcny7xr@marketplace.amazon.com	Heidi Gearing	+1 412-532-4665 ext. 26917	ABR0022	Arabella Farm Direct Bouquet of 12 Fresh Cut Pink Roses with a Free Glass Vase	1	0	1	Expedited	Liz Gearing	51 WINTER ST			ARLINGTON	MA	02474-6919	US			false		
112-1009779-1092215	14987691722378	2020-05-27T13:16:43+00:00	2020-05-27T06:16:43-07:00	2020-05-27T13:42:30+00:00	2020-06-02T06:59:59+00:00	-5	66t5z6m5108969d@marketplace.amazon.com	Audrey	+1 763-225-9463 ext. 77714	ABR0022	Arabella Farm Direct Bouquet of 12 Fresh Cut Pink Roses with a Free Glass Vase	1	0	1	Expedited	Connie	6444 DESERTER CREEK RD			WHITESVILLE	KY	42378-9705	US			false		
114-9165463-6985859	29829692829370	2020-05-27T13:38:06+00:00	2020-05-27T06:38:06-07:00	2020-05-27T14:04:35+00:00	2020-06-02T06:59:59+00:00	-5	scrbkt76bl3snn7@marketplace.amazon.com	dean h. creasey	+1 210-728-4548 ext. 01941	ABR0022	Arabella Farm Direct Bouquet of 12 Fresh Cut Pink Roses with a Free Glass Vase	1	0	1	Expedited	Joni Bernahl	11 BIRCH DR			CHATHAM	IL	62629-9714	US		Just a little pick me up now that Audrey and Henry have gone home. Happy belated birthday, too!  Jeris From Dean H. Creasey	false		
113-9654325-4031419	29425248678370	2020-05-27T14:01:05+00:00	2020-05-27T07:01:05-07:00	2020-05-27T14:26:53+00:00	2020-06-02T06:59:59+00:00	-5	qxfsfky5gqyrttp@marketplace.amazon.com	Joseph D. Hanlon	+1 314-282-9402 ext. 28094	ABR0022	Arabella Farm Direct Bouquet of 12 Fresh Cut Pink Roses with a Free Glass Vase	1	0	1	Expedited	Sophie M. Lynch	10 SARATOGA WAY			GLASSBORO	NJ	08028-2066	US		Happy 5th Birthday Sophie Can't wait to see you soon ! Love, Uncle Joe	false		
112-7274758-4265801	09654067888666	2020-05-27T14:50:28+00:00	2020-05-27T07:50:28-07:00	2020-05-27T15:18:30+00:00	2020-06-02T06:59:59+00:00	-5	fr6q7ts7s5xqv0j@marketplace.amazon.com	Gail r. Combs	+1 210-728-4548 ext. 67650	ABR0022	Arabella Farm Direct Bouquet of 12 Fresh Cut Pink Roses with a Free Glass Vase	1	0	1	Expedited	Darlene Dasch	44 CHERYL DR			RONKONKOMA	NY	11779-4349	US		Happy Birthday Darlene!!! From Love, Pop and Gail	false		
111-4767256-3313828	45927334368274	2020-05-27T15:15:02+00:00	2020-05-27T08:15:02-07:00	2020-05-27T15:44:55+00:00	2020-06-02T06:59:59+00:00	-5	ldm3tsxdx46t669@marketplace.amazon.com	Felipe Zapata	+1 347-448-3190 ext. 34657	ABR0022	Arabella Farm Direct Bouquet of 12 Fresh Cut Pink Roses with a Free Glass Vase	1	0	1	Expedited	Emily's hair salon	9523 ANTOINE DR STE D			HOUSTON	TX	77086-3948	US			false		
111-9046285-1579459	50108314224202	2020-05-27T15:26:01+00:00	2020-05-27T08:26:01-07:00	2020-05-27T15:56:09+00:00	2020-06-02T06:59:59+00:00	-5	2jv8vcsc6q74xly@marketplace.amazon.com	Tracker Winks	+1 347-448-3190 ext. 98321	ABR0022	Arabella Farm Direct Bouquet of 12 Fresh Cut Pink Roses with a Free Glass Vase	1	0	1	Expedited	Tracy E Bailey	43 KNOLLS RD			BLOOMINGDALE	NJ	07403-1547	US		Mommy,  Thanks for believing in me.  I love you!  Love, AJ	false		
113-2278084-0810662	65032461054594	2020-05-27T15:34:34+00:00	2020-05-27T08:34:34-07:00	2020-05-27T16:06:01+00:00	2020-06-02T06:59:59+00:00	-5	vzt8c3mp7y96cmr@marketplace.amazon.com	Jonny	+1 314-282-9402 ext. 38176	ABR0022	Arabella Farm Direct Bouquet of 12 Fresh Cut Pink Roses with a Free Glass Vase	1	0	1	Expedited	Elaine William	180 EPPS BRIDGE RD			ATHENS	GA	30606-3312	US			false		
111-7518339-0681834	21528665501602	2020-05-27T15:40:38+00:00	2020-05-27T08:40:38-07:00	2020-05-27T16:11:13+00:00	2020-06-02T06:59:59+00:00	-5	ggsj7f4r8fdhlj4@marketplace.amazon.com	jan gonsalves	+1 314-282-9402 ext. 01988	ABR0022	Arabella Farm Direct Bouquet of 12 Fresh Cut Pink Roses with a Free Glass Vase	1	0	1	Expedited	Michele Gonzales	1501 YOSEMITE CIR			OAKLEY	CA	94561-5211	US			false		
111-1621354-2527400	65597053225770	2020-05-27T15:46:45+00:00	2020-05-27T08:46:45-07:00	2020-05-27T16:13:17+00:00	2020-06-02T06:59:59+00:00	-5	f2x4m4zsyn7h668@marketplace.amazon.com	William F. Hedgecock	+1 347-448-3190 ext. 86189	ABR0022	Arabella Farm Direct Bouquet of 12 Fresh Cut Pink Roses with a Free Glass Vase	1	0	1	Expedited	Mr. and Mrs. David Marshall	1630 W DAHL LN			SANTA ANA	CA	92704-3304	US			false		
112-7701434-0370644	47795670891490	2020-05-27T15:53:23+00:00	2020-05-27T08:53:23-07:00	2020-05-27T16:21:28+00:00	2020-06-02T06:59:59+00:00	-5	3rg53xprl4wj9b0@marketplace.amazon.com	Theanne ballios	+1 347-448-3190 ext. 33452	ABR0022	Arabella Farm Direct Bouquet of 12 Fresh Cut Pink Roses with a Free Glass Vase	1	0	1	Expedited	Tina Melonakos	1222 HOLLYWOOD DR			MONROE	MI	48162-3022	US			false		
114-1744827-0402606	09288716946666	2020-05-27T16:32:25+00:00	2020-05-27T09:32:25-07:00	2020-05-27T16:57:10+00:00	2020-06-02T06:59:59+00:00	-5	kxw6zzg1jkylbtb@marketplace.amazon.com	John O. Summers	+1 347-448-3190 ext. 17657	ABR0022	Arabella Farm Direct Bouquet of 12 Fresh Cut Pink Roses with a Free Glass Vase	1	0	1	Expedited	Linda Riley	11 FROST LN			HADLEY	MA	01035-9621	US		Enjoy your gift!  Thank you, Linda, for your consule and friendship! From Anne C. Summers	false		
114-9830622-1401010	48736890571610	2020-05-27T17:29:48+00:00	2020-05-27T10:29:48-07:00	2020-05-27T17:58:49+00:00	2020-06-02T06:59:59+00:00	-5	s4ytcgq2p1c01gz@marketplace.amazon.com	Heather Walker	+1 210-728-4548 ext. 46870	ABR0022	Arabella Farm Direct Bouquet of 12 Fresh Cut Pink Roses with a Free Glass Vase	1	0	1	Expedited	Mack House	9628 BARKSDALE DR			FORT WORTH	TX	76244-6006	US		To T&J  We love you guys. From Andrew and Heather	false		
112-5800322-6261834	35280730964298	2020-05-27T02:50:54+00:00	2020-05-26T19:50:54-07:00	2020-05-27T18:14:16+00:00	2020-05-30T06:59:59+00:00	-2	z60fgnbfd1r2d8v@marketplace.amazon.com	Pearl Sanchez	+1 210-728-4548 ext. 26622	ABR0022	Arabella Farm Direct Bouquet of 12 Fresh Cut Pink Roses with a Free Glass Vase	1	0	1	Expedited	Deserie Areola	81824 Ave N W			Minot	North Dakota	58703	US			false		
114-5642308-0254642	19984517141466	2020-05-27T18:13:12+00:00	2020-05-27T11:13:12-07:00	2020-05-27T18:16:23+00:00	2020-06-02T06:59:59+00:00	-5	wv13tm61z31ylp8@marketplace.amazon.com	Chrim A. Robinson	+1 210-728-4548 ext. 83917	ABR0022	Purchase Now for Delivery by Monday | Arabella Farm Direct Bouquet of 12 Fresh Cut Pink Roses with a Free Glass Vase	1	0	1	Expedited	Sandy Sampong	9212 ORIOLE PL			GAITHERSBURG	MD	20879-1709	US		Sandy, Love-ease of heart, fondness & emotional peace. Such a perfect place ideally exists but not in such a perfect way. Love, like life, we dream and work to achieve. ❤️🙏🏾	false		
114-3915242-4408233	41358852355570	2020-05-27T18:02:53+00:00	2020-05-27T11:02:53-07:00	2020-05-27T18:17:08+00:00	2020-06-02T06:59:59+00:00	-5	ymrnhlxzm8w3krh@marketplace.amazon.com	Colleen Moore	+1 314-282-9402 ext. 62297	ABR0022	Purchase Now for Delivery by Monday | Arabella Farm Direct Bouquet of 12 Fresh Cut Pink Roses with a Free Glass Vase	1	0	1	Expedited	Meaghan McDonough	25 PROSPECT AVE			NORTH ARLINGTON	NJ	07031-6123	US		Dear Meaghan, Sending our deepest condolences for the loss of your grandmother. Love, CTC Sunshine Committee	false		
111-9926081-7570646	50404170620578	2020-05-27T17:48:51+00:00	2020-05-27T10:48:51-07:00	2020-05-27T18:17:37+00:00	2020-06-02T06:59:59+00:00	-5	zc461qhrq6cc1qf@marketplace.amazon.com	Barry J Stich	+1 347-448-3190 ext. 51645	ABR0022	Purchase Now for Delivery by Monday | Arabella Farm Direct Bouquet of 12 Fresh Cut Pink Roses with a Free Glass Vase	1	0	1	Expedited	Jodi Outley	6043 WILD BERRY DR			LAS VEGAS	NV	89142-0620	US		Dear Jodi, Here's to kicking its ass!!! Love, Barry & Baz	false		
111-7639542-1767414	29949502928794	2020-05-27T17:53:48+00:00	2020-05-27T10:53:48-07:00	2020-05-27T18:23:27+00:00	2020-06-02T06:59:59+00:00	-5	l52dc6d769bzcg9@marketplace.amazon.com	J P Cain	+1 347-448-3190 ext. 89887	ABR0022	Purchase Now for Delivery by Monday | Arabella Farm Direct Bouquet of 12 Fresh Cut Pink Roses with a Free Glass Vase	1	0	1	Expedited	Rita Cain	4510 S PRINCE OF PEACE PL APT 234			SIOUX FALLS	SD	57103-5874	US			false		
111-2376997-5672227	05969236295018	2020-05-27T18:08:57+00:00	2020-05-27T11:08:57-07:00	2020-05-27T18:24:20+00:00	2020-06-02T06:59:59+00:00	-5	qb4hnbmxtvsff0b@marketplace.amazon.com	Victoria kosanovich	+1 314-282-9402 ext. 81879	ABM002	Purchase Now for Delivery by Friday | Arabella Bouquets Fresh Cut White Calla Lilies in a Free Designer Glass Vase	1	0	1	Expedited	Karen Orosco	17 DATE AVE			LACKAWANNA	NY	14218-1412	US		Karen, as difficult as it was, we are glad you were there forUncle Meecho.  With love, George & Vicky	false		
112-5926809-2504216	13848397856506	2020-05-27T17:59:57+00:00	2020-05-27T10:59:57-07:00	2020-05-27T18:29:06+00:00	2020-06-02T06:59:59+00:00	-5	73yrmzg9xcnlqqg@marketplace.amazon.com	Dave Weller	+1 210-728-4548 ext. 10565	ABM010	Purchase Now for Delivery by Monday | Arabella Bouquets | Fields of The World Bouquet of Fresh Cut Flowers in a Free Designer Glass Vase	1	0	1	Expedited	Jane Moran	11 BEECHWOOD ST			COHASSET	MA	02025-2101	US		Hi Jane, Thanks for being the best ever boss Have a great birthday! Dave	false		
113-8807068-1421805	03994103350546	2020-05-27T18:37:28+00:00	2020-05-27T11:37:28-07:00	2020-05-27T19:05:51+00:00	2020-06-02T06:59:59+00:00	-5	cgxgp64rm8gmk77@marketplace.amazon.com	Rashmati Rampersaud	+1 314-282-9402 ext. 31045	ABM010	Purchase Now for Delivery by Monday | Arabella Bouquets | Fields of The World Bouquet of Fresh Cut Flowers in a Free Designer Glass Vase	1	0	1	Expedited	Rishi Rampersaud	8958 212TH ST			QUEENS VILLAGE	NY	11427-2333	US		Mom, We love and cherish you always. Today and every day we wish you love and happiness.   Love Always, Sunil, Rachel, Sonya, and Matthew. From Sunil	false		
112-9944467-5158663	68397715789482	2020-05-27T18:45:27+00:00	2020-05-27T11:45:27-07:00	2020-05-27T19:11:50+00:00	2020-06-02T06:59:59+00:00	-5	yzgbh5nzf5bdxjl@marketplace.amazon.com	Veronica Martinez	+1 314-282-9402 ext. 74373	ABR004	Arabella Farm Direct Bouquet of 12 Fresh Cut Yellow Roses with a Free Glass Vase	1	0	1	Expedited	Martinez Family	15906 1ST ST			CHANNELVIEW	TX	77530-4330	US		Thank you for caring, and making Tomas feel loved.  I really appreciate everything you and your family has done to make baby feel at home away from home. Always grateful,  Veronica From Veronica Martinez	false		
113-8265340-5104224	50610981461378	2020-05-27T18:48:57+00:00	2020-05-27T11:48:57-07:00	2020-05-27T19:17:28+00:00	2020-06-02T06:59:59+00:00	-5	mmhjc1155s82nv1@marketplace.amazon.com	sheryl benningfield	+1 210-728-4548 ext. 92971	ABM010	Purchase Now for Delivery by Monday | Arabella Bouquets | Fields of The World Bouquet of Fresh Cut Flowers in a Free Designer Glass Vase	1	0	1	Expedited	Kendra Szagola	1149 WOODWINDS DR			WAXHAW	NC	28173-7887	US			false		
111-0324295-7281802	45519925796538	2020-05-27T19:15:41+00:00	2020-05-27T12:15:41-07:00	2020-05-27T19:45:02+00:00	2020-06-02T06:59:59+00:00	-5	1dd0324b86fglg3@marketplace.amazon.com	jacqueline h stuart	+1 314-282-9402 ext. 12851	ABR0033	Purchase Now for Delivery by Monday | Arabella Farm Direct Bouquet of 12 Fresh Cut Orange Roses with a Free Glass Vase	1	0	1	Expedited	Jennie Hill	179 CASTLE DR			HUBERT	NC	28539-4618	US		Love you Mom!! Jacqui & Wayne From jacqueline h stuart	false		
113-9330961-4716269	06673545026338	2020-05-27T19:17:18+00:00	2020-05-27T12:17:18-07:00	2020-05-27T19:45:22+00:00	2020-06-02T06:59:59+00:00	-5	0yhrzsl21pt8nf3@marketplace.amazon.com	Jürgen Kaiser	+1 347-448-3190 ext. 68124	ABR0033	Purchase Now for Delivery by Monday | Arabella Farm Direct Bouquet of 12 Fresh Cut Orange Roses with a Free Glass Vase	1	0	1	Standard	Geraldine Gale	6528 E KIKI CT			MISSOULA	MT	59808-1216	US		Dear Grandmere, Wishing you a very Happy Birthday!!  We hope you have a lovely day. Love, Cara, Juergen, and Helena	false		
113-5316661-0529844	43216965495354	2020-05-27T19:22:18+00:00	2020-05-27T12:22:18-07:00	2020-05-27T19:50:04+00:00	2020-06-02T06:59:59+00:00	-5	c3tl8kxmsvqr8zg@marketplace.amazon.com	Daniel A Vaccaro	+1 347-448-3190 ext. 76969	ABR012	Purchase Now for Delivery by Monday | Arabella Farm Direct Bouquet of 18 Fresh Cut Pink Roses with a Free Glass Vase	1	0	1	Expedited	Mrs. Carol Saharian, Hubbard Hill, Room 2217	28070 COUNTY ROAD 24			ELKHART	IN	46517-9717	US		Enjoy your gift! HAPPY BIRTHDAY WITH ALL OUR LOVE   DIANE AND DAN VACCARO From DIANE & Daniel A Vaccaro	false		
112-1799080-2281865	17064778619978	2020-05-27T19:28:41+00:00	2020-05-27T12:28:41-07:00	2020-05-27T19:54:54+00:00	2020-06-02T06:59:59+00:00	-5	x8lg5ffswlzc4l4@marketplace.amazon.com	stephanie hunter	+1 210-728-4548 ext. 61103	ABR0022	Purchase Now for Delivery by Monday | Arabella Farm Direct Bouquet of 12 Fresh Cut Pink Roses with a Free Glass Vase	1	0	1	Expedited	Connie Davenport	655 PERRIE DR APT 204			ELK GROVE VILLAGE	IL	60007-1824	US		Happy Birthday! From Love, Mike and Stephanie	false		
114-6978661-3922614	50977968011786	2020-05-27T19:30:11+00:00	2020-05-27T12:30:11-07:00	2020-05-27T19:58:36+00:00	2020-06-02T06:59:59+00:00	-5	bh8msylb2fhntsx@marketplace.amazon.com	Wing-Sze Vinny Chau-Chin	+1 210-728-4548 ext. 88179	ABR0022	Purchase Now for Delivery by Monday | Arabella Farm Direct Bouquet of 12 Fresh Cut Pink Roses with a Free Glass Vase	1	0	1	Expedited	Bella Chau	1011 OAKLAND CT			BARRINGTON	IL	60010-6310	US		Happy Sweet 16, Bella!  Wish we were there to celebrate with you.  Enjoy a wonderful birthday celebration! With love from the Pacific NW, Vinny, Bill, Ariana, and Elijah	false		
111-1836012-6344268	44799229335938	2020-05-27T19:51:59+00:00	2020-05-27T12:51:59-07:00	2020-05-27T20:18:27+00:00	2020-06-02T06:59:59+00:00	-5	v20jxcqts6ksxrn@marketplace.amazon.com	Bruce Hammerstrom	+1 347-448-3190 ext. 19233	ABM010	Purchase Now for Delivery by Monday | Arabella Bouquets | Fields of The World Bouquet of Fresh Cut Flowers in a Free Designer Glass Vase	1	0	1	Expedited	Bruce Hammerstrom	5405 NW 134TH ST			VANCOUVER	WA	98685-1464	US			false		
113-7641898-0265823	27097091240650	2020-05-27T20:01:25+00:00	2020-05-27T13:01:25-07:00	2020-05-27T20:27:38+00:00	2020-06-02T06:59:59+00:00	-5	hwjmjbpmly295nw@marketplace.amazon.com	Travis	+1 314-282-9402 ext. 28772	ABM010	Purchase Now for Delivery by Monday | Arabella Bouquets | Fields of The World Bouquet of Fresh Cut Flowers in a Free Designer Glass Vase	1	0	1	Expedited	Travis Stephenson	4901 HIGH FOREST RD			COLORADO SPRINGS	COLORADO	80908-3021	US		We heard you have had some family challenges and wanted to brighten your day!!!!! Your friends at Mortgage300.	false		
114-4562052-7090666	29690738186530	2020-05-27T20:06:21+00:00	2020-05-27T13:06:21-07:00	2020-05-27T20:31:14+00:00	2020-06-02T06:59:59+00:00	-5	zfvbg5hp4h33wnq@marketplace.amazon.com	linda cobb thompson	+1 210-728-4548 ext. 14762	ABR015	Purchase Now for Delivery by Monday | Arabella Farm Direct Bouquet of 18 Fresh Cut Orange Roses with a Free Glass Vase	1	0	1	Expedited	Joyce Cobb	3067 CHISCA AVE			MEMPHIS	TN	38111-3027	US		Happy Birthday Gemini Twins! May this coming year bring you love, joy and happiness. We love you dearly! From Linda and your MN family	false		
114-1918562-1890622	62641838908714	2020-05-27T20:51:32+00:00	2020-05-27T13:51:32-07:00	2020-05-27T21:22:08+00:00	2020-06-02T06:59:59+00:00	-5	5ptd84txbk65ww5@marketplace.amazon.com	Ryan shack	+1 314-282-9402 ext. 58114	ABR0022	Purchase Now for Delivery by Monday | Arabella Farm Direct Bouquet of 12 Fresh Cut Pink Roses with a Free Glass Vase	1	0	1	Expedited	Candace McElroy	6407 W TORONTO WAY			PHOENIX	AZ	85043-7557	US			false		
113-0463064-4263412	69848166364810	2020-05-27T21:04:00+00:00	2020-05-27T14:04:00-07:00	2020-05-27T21:34:03+00:00	2020-06-02T06:59:59+00:00	-5	y5jw6lfm35wgbld@marketplace.amazon.com	Lolita Tart	+1 347-448-3190 ext. 34422	ABR0022	Purchase Now for Delivery by Monday | Arabella Farm Direct Bouquet of 12 Fresh Cut Pink Roses with a Free Glass Vase	1	0	1	Expedited	Joanne Jones	4263 DROWFIELD DR			TROTWOOD	OH	45426-1915	US			false		
114-8575056-4237868	26141712511922	2020-05-27T21:21:27+00:00	2020-05-27T14:21:27-07:00	2020-05-27T21:40:36+00:00	2020-06-02T06:59:59+00:00	-5	6shhc9x7ls2bs8k@marketplace.amazon.com	Steven Wolfgram	+1 347-448-3190 ext. 81599	ABM010	Purchase Now for Delivery by Monday | Arabella Bouquets | Fields of The World Bouquet of Fresh Cut Flowers in a Free Designer Glass Vase	1	0	1	Expedited	Beckie, Neil & Ross	7430 SE BENNER LAKE RD			DEARBORN	MO	64439-8144	US		Thank you for treating me like royalty :) From Monica Wolfgram	false		
113-4127837-1450650	62205983424162	2020-05-27T21:14:16+00:00	2020-05-27T14:14:16-07:00	2020-05-27T21:40:56+00:00	2020-06-02T06:59:59+00:00	-5	v9twt75j4csw5pg@marketplace.amazon.com	Martin Conroy	+1 210-728-4548 ext. 02984	ABR0022	Purchase Now for Delivery by Monday | Arabella Farm Direct Bouquet of 12 Fresh Cut Pink Roses with a Free Glass Vase	1	0	1	Expedited	Carol Thommes	3404 FREMONT AVE S			MINNEAPOLIS	MN	55408-3807	US		Carol,  We are so sorry for the lose of your beloved grandson, Mason.  With love and prayers, The Peterson’s, Angela and Lois From Lois Conroy	false		
111-4725223-0337820	50510810478714	2020-05-27T21:25:09+00:00	2020-05-27T14:25:09-07:00	2020-05-27T21:54:20+00:00	2020-06-02T06:59:59+00:00	-5	9czlpz3lb060nmm@marketplace.amazon.com	Richard A. Sandstrom	+1 210-728-4548 ext. 96409	ABR0022	Purchase Now for Delivery by Monday | Arabella Farm Direct Bouquet of 12 Fresh Cut Pink Roses with a Free Glass Vase	1	0	1	Expedited	Kristen Sandstrom	117 BUCKHURST DR			CARY	NC	27513-3836	US			false		
114-6903603-3593862	35025981561986	2020-05-27T21:29:15+00:00	2020-05-27T14:29:15-07:00	2020-05-27T21:56:12+00:00	2020-06-02T06:59:59+00:00	-5	tvcyj7ypnwwr5h9@marketplace.amazon.com	Janell Adams	+1 314-282-9402 ext. 83578	ABR0033	Purchase Now for Delivery by Monday | Arabella Farm Direct Bouquet of 12 Fresh Cut Orange Roses with a Free Glass Vase	1	0	1	Expedited	Iman Donaldson	6207 E VILLA CASSANDRA WAY			CAVE CREEK	AZ	85331-9148	US			false		
114-7244989-5404236	58262646043418	2020-05-27T21:43:02+00:00	2020-05-27T14:43:02-07:00	2020-05-27T22:06:44+00:00	2020-06-02T06:59:59+00:00	-5	g4gf047h8xxyr2m@marketplace.amazon.com	Silas scott	+1 314-282-9402 ext. 84035	ABR0022	Purchase Now for Delivery by Monday | Arabella Farm Direct Bouquet of 12 Fresh Cut Pink Roses with a Free Glass Vase	1	0	1	Expedited	Silas Scott	1947 BADER AVE SW			ATLANTA	GA	30310-5027	US		I’m late but I’m an man of my word  Enjoy Beautiful From Silas scott	false		
111-2095702-0457816	45235533721442	2020-05-27T21:40:25+00:00	2020-05-27T14:40:25-07:00	2020-05-27T22:07:01+00:00	2020-06-02T06:59:59+00:00	-5	6gtg3npjbm71cgs@marketplace.amazon.com	Liz	+1 347-448-3190 ext. 96408	ABR0055	Purchase Now for Delivery by Monday | Arabella Farm Direct Bouquet of 12 Stems of Fresh Cut Hot Pink Roses in a Free Designer Glass Vase	1	0	1	Expedited	Shirley Reutter	609 YORKSHIRE DR			FINDLAY	OH	45840-6936	US		Happy Birthday!! I hope you are able to have a special birthday celebration despite the restrictions. Wish we could be there to celebrate with you! Love always, Liz & Todd	false		
113-0234139-3044233	56906610570802	2020-05-27T21:56:12+00:00	2020-05-27T14:56:12-07:00	2020-05-27T22:24:58+00:00	2020-06-02T06:59:59+00:00	-5	v7fcmpcngkbfjgx@marketplace.amazon.com	Lauren Burton	+1 210-728-4548 ext. 63935	ABR0022	Purchase Now for Delivery by Monday | Arabella Farm Direct Bouquet of 12 Fresh Cut Pink Roses with a Free Glass Vase	1	0	1	Expedited	Alexis Sanchez	425 W 18TH ST APT 11K			NEW YORK	NY	10011-3881	US		Te quiero, amorcito From Azucita	false		
111-5966221-8661813	28020361245562	2020-05-27T21:57:33+00:00	2020-05-27T14:57:33-07:00	2020-05-27T22:26:48+00:00	2020-06-02T06:59:59+00:00	-5	ptl6q6n47h25z2l@marketplace.amazon.com	Greg Koski	+1 412-532-4665 ext. 91489	ABR012	Purchase Now for Delivery by Monday | Arabella Farm Direct Bouquet of 18 Fresh Cut Pink Roses with a Free Glass Vase	1	0	1	Expedited	Greg Koski	51 Naples St			Leominster	Ma	01453	US		Macy Buttercup Koski, I love you... enjoy! From Greg Koski	true		
112-8302286-8762666	67029696560378	2020-05-27T22:09:13+00:00	2020-05-27T15:09:13-07:00	2020-05-27T22:36:50+00:00	2020-06-02T06:59:59+00:00	-5	gb0xr2pc8dcw1rv@marketplace.amazon.com	jeanne wondra	+1 347-448-3190 ext. 80832	ABR0055	Purchase Now for Delivery by Monday | Arabella Farm Direct Bouquet of 12 Stems of Fresh Cut Hot Pink Roses in a Free Designer Glass Vase	1	0	1	Expedited	Faith Tannenbaum	18250 ALEXANDRA WAY			GRASS VALLEY	CA	95949-7359	US		Congratulations on your high school graduation Faith!! We are very proud of you and love you so much!  Love, The Wondra's From jeanne wondra	false		
113-2618061-7590622	66942256367986	2020-05-27T22:21:46+00:00	2020-05-27T15:21:46-07:00	2020-05-27T22:48:25+00:00	2020-06-02T06:59:59+00:00	-5	lllmtkd3383t0sw@marketplace.amazon.com	Eileen	+1 347-448-3190 ext. 46918	ABM010	Purchase Now for Delivery by Monday | Arabella Bouquets | Fields of The World Bouquet of Fresh Cut Flowers in a Free Designer Glass Vase	1	0	1	Expedited	Eileen Unold	715 MICHAEL CT			LAKEWOOD	NJ	08701-5793	US		Dear Charlotte, All my prayers and love are with you. I hope you’re up and about real soon. If there’s anything I can do for you, please let me know. Love, Eileen	false		
113-6703434-4929049	34900899666266	2020-05-27T23:15:51+00:00	2020-05-27T16:15:51-07:00	2020-05-27T23:18:20+00:00	2020-06-02T06:59:59+00:00	-5	wq3f23dn2f4d31c@marketplace.amazon.com	Linda Michael	+1 210-728-4548 ext. 86878	ABR0022	Purchase Now for Delivery by Monday | Arabella Farm Direct Bouquet of 12 Fresh Cut Pink Roses with a Free Glass Vase	1	0	1	Expedited	Danielle Breuchoc	15823 HEATH ASTER WAY			DAVIDSON	NC	28036-8957	US		Danielle, Happy 50th Birthday my friend.   In my heart I'm having a huge party and celebrating with you.  Wishing you a fun-filled fabulous 50th!   Miss and love you my friend,   Linda	false		
114-0173486-9224278	38509841504970	2020-05-27T22:51:00+00:00	2020-05-27T15:51:00-07:00	2020-05-27T23:20:59+00:00	2020-06-02T06:59:59+00:00	-5	bnqkdjrgp11ydv9@marketplace.amazon.com	Helen Collue	+1 210-728-4548 ext. 18083	ABM010	Purchase Now for Delivery by Monday | Arabella Bouquets | Fields of The World Bouquet of Fresh Cut Flowers in a Free Designer Glass Vase	1	0	1	Expedited	Cindy Freeman	15178 NEWTONIA ST			WINTER GARDEN	FL	34787-5646	US			false		
113-4280041-3565000	58264355409474	2020-05-27T23:09:51+00:00	2020-05-27T16:09:51-07:00	2020-05-27T23:30:10+00:00	2020-06-02T06:59:59+00:00	-5	8cr9jhfz5dmrmny@marketplace.amazon.com	Cheryl Moikobu	+1 314-282-9402 ext. 34431	ABR0022	Purchase Now for Delivery by Monday | Arabella Farm Direct Bouquet of 12 Fresh Cut Pink Roses with a Free Glass Vase	1	0	1	Expedited	Chelsea Montgomery	5332 E BASELINE RD APT 2079			MESA	AZ	85206-4733	US		You are so awesome.  Congratulations Chelsea.  Auntie Cheri	false		
111-6723502-0941004	40581157389018	2020-05-27T23:13:30+00:00	2020-05-27T16:13:30-07:00	2020-05-27T23:41:18+00:00	2020-06-02T06:59:59+00:00	-5	lcw1n34pk8h9b3b@marketplace.amazon.com	Beth Phillips	+1 210-728-4548 ext. 63011	ABR0033	Purchase Now for Delivery by Monday | Arabella Farm Direct Bouquet of 12 Fresh Cut Orange Roses with a Free Glass Vase	1	0	1	Expedited	Barb Bozek	16451 CRESCENT LAKE DR			CREST HILL	IL	60403-1648	US		Hi Barb, Thank you for getting my hospital equipment into my house. I don’t expect you to respond to this message From Beth Phillips	false		
112-8532863-4561833	42530835191058	2020-05-27T23:15:44+00:00	2020-05-27T16:15:44-07:00	2020-05-27T23:46:15+00:00	2020-06-02T06:59:59+00:00	-5	lqy1nctqndptpfk@marketplace.amazon.com	obsitu kelifa	+1 314-282-9402 ext. 44777	ABR0022	Purchase Now for Delivery by Monday | Arabella Farm Direct Bouquet of 12 Fresh Cut Pink Roses with a Free Glass Vase	1	0	1	Expedited	Abby Wilson	2211 METZEROTT RD			ADELPHI	MD	20783-1623	US			false		
114-7936591-3440246	55717313950298	2020-05-27T23:24:05+00:00	2020-05-27T16:24:05-07:00	2020-05-27T23:54:38+00:00	2020-06-02T06:59:59+00:00	-5	8phnm8py4sc5nq5@marketplace.amazon.com	Brandon Jackson	+1 314-282-9402 ext. 40098	ABR001	Purchase Now for Delivery by Monday | Arabella Bouquets 12 Stems of Fresh Cut Red Roses in a Free Designer Glass Vase	1	0	1	Expedited	Brandon Jackson	10016 Rutland St			DETROIT	MI	48227-4506	US			false		
112-7727122-1888245	15429765222106	2020-05-27T23:31:52+00:00	2020-05-27T16:31:52-07:00	2020-05-27T23:59:55+00:00	2020-06-02T06:59:59+00:00	-5	jwmxpw375gp500c@marketplace.amazon.com	Haley Hinshaw	+707-477-6195	ABR0022	Purchase Now for Delivery by Monday | Arabella Farm Direct Bouquet of 12 Fresh Cut Pink Roses with a Free Glass Vase	1	0	1	Expedited	Emily Baize	901 Bauer Rd / 78			Laytonville	CA	95454	US		Happy birthday, love!! Here's something pretty to look at!  Love,  Haley	false		
114-0722212-0948220	03709831957530	2020-05-27T23:53:48+00:00	2020-05-27T16:53:48-07:00	2020-05-28T00:24:15+00:00	2020-06-02T06:59:59+00:00	-5	5yl8c48gbknv4q8@marketplace.amazon.com	Richard Huskins	+1 347-448-3190 ext. 85868	ABR0055	Purchase Now for Delivery by Monday | Arabella Farm Direct Bouquet of 12 Stems of Fresh Cut Hot Pink Roses in a Free Designer Glass Vase	1	0	1	Expedited	Ellen Huskins	310 TANGERINE ST			ALTAMONTE SPRINGS	FL	32701-7744	US			false		
114-6897660-1095441	27624226906130	2020-05-27T23:56:36+00:00	2020-05-27T16:56:36-07:00	2020-05-28T00:25:25+00:00	2020-06-02T06:59:59+00:00	-5	5yl8c48gbknv4q8@marketplace.amazon.com	Richard Huskins	+1 210-728-4548 ext. 48954	ABR0055	Purchase Now for Delivery by Monday | Arabella Farm Direct Bouquet of 12 Stems of Fresh Cut Hot Pink Roses in a Free Designer Glass Vase	1	0	1	Expedited	K Christy	109 N BRAYFORD CT			BLUFFTON	SC	29910-6263	US		Hi, Happy Belated Mother’s Day! From Richard and Elaine	false		
113-0194970-8017021	47195604315138	2020-05-28T00:02:12+00:00	2020-05-27T17:02:12-07:00	2020-05-28T00:28:44+00:00	2020-06-02T06:59:59+00:00	-5	ds1tbljk21r8fm5@marketplace.amazon.com	Ben Lanzoni	+1 210-728-4548 ext. 11916	ABM010	Purchase Now for Delivery by Monday | Arabella Bouquets | Fields of The World Bouquet of Fresh Cut Flowers in a Free Designer Glass Vase	1	0	1	Expedited	Nancy Lanzoni	29 HALSEY DR			OLD GREENWICH	CT	06870-1228	US		Happy (VERY belated) Mother’s Day! Only a month late! Not too bad from across the world :) love you tons From Candice, Willy and Ben	false		
111-5758111-4641051	01020391971370	2020-05-28T00:01:06+00:00	2020-05-27T17:01:06-07:00	2020-05-28T00:29:07+00:00	2020-06-02T06:59:59+00:00	-5	w3nj0s07wt6ggny@marketplace.amazon.com	Alfred	+1 347-448-3190 ext. 31706	ABR0022	Purchase Now for Delivery by Monday | Arabella Farm Direct Bouquet of 12 Fresh Cut Pink Roses with a Free Glass Vase	1	0	1	Expedited	Bunny	1221 S VIRGINIA DARE TRL C-3			KILL DEVIL HILLS	NC	27948-7748	US		HAPPY BIRTHDAY! Mom, we Love you 😘 From Love Terry and Sue &the Kids	false		
113-3296843-1392263	16222353154890	2020-05-28T00:10:32+00:00	2020-05-27T17:10:32-07:00	2020-05-28T00:37:33+00:00	2020-06-02T06:59:59+00:00	-5	pk66mr7mr86h7cr@marketplace.amazon.com	Ann Canale	+1 210-728-4548 ext. 93528	ABM0033	Purchase Now for Delivery by Monday | Arabella Farm Direct Bouquet of Fresh Cut White Hydrangea with a Free Glass Vase	1	0	1	Expedited	Rosalie Bootz.   Room 2229	ST CAMILLUS SKILLED NURSING	10101 W WISCONSIN AVE		MILWAUKEE	WI	53226-4861	US		Get Well!  We love you and are praying for you!! From Fr. Crawford, Bevan, and Ann	false		
111-1367259-6417063	24115483475874	2020-05-28T01:03:20+00:00	2020-05-27T18:03:20-07:00	2020-05-28T01:30:48+00:00	2020-06-02T06:59:59+00:00	-5	5gb9f3g9tsclwhv@marketplace.amazon.com	Luz Aranda	+1 763-225-9463 ext. 37561	ABR0022	Purchase Now for Delivery by Monday | Arabella Farm Direct Bouquet of 12 Fresh Cut Pink Roses with a Free Glass Vase	1	0	1	Expedited	Valerie Downs	24414 UNIVERSITY AVE SPC 56			LOMA LINDA	CA	92354-2652	US		As days pass, we continue praying that the love of God keeps surrounding and strengthening you as we continue life .. waiting for that special day . From Luz Aranda/Inland Spanish Adventurers	false		
111-2687125-2857014	46448540066682	2020-05-28T01:16:56+00:00	2020-05-27T18:16:56-07:00	2020-05-28T01:46:35+00:00	2020-06-02T06:59:59+00:00	-5	1d2rh7my7wp20v1@marketplace.amazon.com	jarod	+1 347-448-3190 ext. 85914	ABR0022	Purchase Now for Delivery by Monday | Arabella Farm Direct Bouquet of 12 Fresh Cut Pink Roses with a Free Glass Vase	1	0	1	Expedited	Dr. Lauren Marano	219 WARWICK RD APT A			HADDONFIELD	NJ	08033-3708	US		4 Dr. Lolo	false		
111-8360349-3493823	10968621569074	2020-05-28T01:22:15+00:00	2020-05-27T18:22:15-07:00	2020-05-28T01:49:07+00:00	2020-06-02T06:59:59+00:00	-5	19m2jrg1lptwn5k@marketplace.amazon.com	Chris Hendershot	+1 314-282-9402 ext. 75059	ABR004	Arabella Farm Direct Bouquet of 12 Fresh Cut Yellow Roses with a Free Glass Vase	1	0	1	Expedited	Angie Hendershot	12317 W WILSHIRE DR			AVONDALE	AZ	85392-5500	US			false		
112-0313200-5277821	07267466137146	2020-05-28T01:47:44+00:00	2020-05-27T18:47:44-07:00	2020-05-28T02:08:43+00:00	2020-06-02T06:59:59+00:00	-5	1sk18lfpw56hb8q@marketplace.amazon.com	Alexis Rosas	+1 763-225-9463 ext. 54564	ABR0055	Purchase Now for Delivery by Monday | Arabella Farm Direct Bouquet of 12 Stems of Fresh Cut Hot Pink Roses in a Free Designer Glass Vase	1	0	1	Expedited	Leticia Garcia	18144 ROBSCOTT AVE			HAYWARD	CA	94541-2242	US		Enjoy your gift! From Alexis Rosas	false		
111-7376908-2121063	40463481989914	2020-05-28T01:39:09+00:00	2020-05-27T18:39:09-07:00	2020-05-28T02:09:18+00:00	2020-06-02T06:59:59+00:00	-5	0xzn2cbw9zpswbf@marketplace.amazon.com	Jane Palombo	+1 314-282-9402 ext. 38437	ABR0022	Purchase Now for Delivery by Monday | Arabella Farm Direct Bouquet of 12 Fresh Cut Pink Roses with a Free Glass Vase	1	0	1	Expedited	Elizabeth   Holloway	5505 BLUFF RD			INDIANAPOLIS	INDIANA	46217-3697	US			false		
112-1334414-0894662	69735465557810	2020-05-28T01:52:06+00:00	2020-05-27T18:52:06-07:00	2020-05-28T02:18:57+00:00	2020-06-02T06:59:59+00:00	-5	r87r2gt6wcgvs3w@marketplace.amazon.com	Samantha Baez	+1 347-448-3190 ext. 20239	ABM010	Purchase Now for Delivery by Monday | Arabella Bouquets | Fields of The World Bouquet of Fresh Cut Flowers in a Free Designer Glass Vase	1	0	1	Expedited	Rosa Luna	1109 N 10TH ST			READING	PA	19604-2101	US		Feliz día de las madres!  Con amor, Katy	false		
113-1914468-6815400	37575722897634	2020-05-28T01:53:50+00:00	2020-05-27T18:53:50-07:00	2020-05-28T02:20:53+00:00	2020-06-02T06:59:59+00:00	-5	j4fcxy7vbpp3gps@marketplace.amazon.com	Mayvis Rebeira	+1 314-282-9402 ext. 60300	ABR0066	Purchase Now for Delivery by Monday | Arabella Bouquets | 12 Stems of Fresh Cut White Roses in a Free Designer Glass Vase	1	0	1	Expedited	Hanno Leisen	3915 CAPTAIN DR			ATLANTA	GA	30341-1807	US		Dear Hanno, We are very sorry to hear about your mum, Heidi. May she lives in you forever and you are able to celebrate her long and happy life. Mummy, Laly, Mohan and Molly May 2020	false		
112-5122099-9650625	04998013508746	2020-05-28T01:52:06+00:00	2020-05-27T18:52:06-07:00	2020-05-28T02:26:07+00:00	2020-06-02T06:59:59+00:00	-5	r87r2gt6wcgvs3w@marketplace.amazon.com	Samantha Baez	+1 210-728-4548 ext. 74594	ABM010	Purchase Now for Delivery by Monday | Arabella Bouquets | Fields of The World Bouquet of Fresh Cut Flowers in a Free Designer Glass Vase	1	0	1	Expedited	Kevin Del Rosario	28 BULLARD ST 3RD FLOOR			DORCHESTER	MA	02121-4264	US		Feliz día de las madres! Con amor,  Katy	false		
111-7342357-6148246	14841470906658	2020-05-28T01:57:49+00:00	2020-05-27T18:57:49-07:00	2020-05-28T02:26:21+00:00	2020-06-02T06:59:59+00:00	-5	8y82b5b733gy7xf@marketplace.amazon.com	Collette Fidecaro	+1 210-728-4548 ext. 86512	ABM010	Purchase Now for Delivery by Monday | Arabella Bouquets | Fields of The World Bouquet of Fresh Cut Flowers in a Free Designer Glass Vase	1	0	1	Expedited	Jennie Klugman	47 REDWOOD AVE APT 20			CORTE MADERA	CA	94925-1478	US		Happy Birthday..love you and miss you SO MUCH From Collette	false		
111-8998197-0494653	50207580839658	2020-05-28T02:12:26+00:00	2020-05-27T19:12:26-07:00	2020-05-28T02:42:00+00:00	2020-06-02T06:59:59+00:00	-5	jdj70r1tc4ylgyq@marketplace.amazon.com	Pamela Johnson	+1 347-448-3190 ext. 65945	ABR0022	Purchase Now for Delivery by Monday | Arabella Farm Direct Bouquet of 12 Fresh Cut Pink Roses with a Free Glass Vase	1	0	1	Expedited	Ann Tuliano	10725 E RIVERSIDE DR			BOTHELL	WA	98011-3716	US		Happy Birthday Honey! Love you! Pam From Pamela Johnson	false		
113-0482778-7353821	20329257878890	2020-05-28T02:23:55+00:00	2020-05-27T19:23:55-07:00	2020-05-28T02:52:49+00:00	2020-06-02T06:59:59+00:00	-5	lhgsp07n9wtwf18@marketplace.amazon.com	Rosalind Dixon	+1 347-448-3190 ext. 25444	ABR0033	Purchase Now for Delivery by Monday | Arabella Farm Direct Bouquet of 12 Fresh Cut Orange Roses with a Free Glass Vase	1	0	1	Expedited	Professor Jennifer Pitts	5650 S DORCHESTER AVE			CHICAGO	IL	60637-6853	US		Dear Jennifer. I was so sorry to hear the news about your mom. It is always such a loss and hard thing to go through - but especially now . You are in my thoughts a great deal! Ros	false		
113-3848409-1012229	36446251987370	2020-05-28T02:57:35+00:00	2020-05-27T19:57:35-07:00	2020-05-28T03:25:00+00:00	2020-06-02T06:59:59+00:00	-5	hm45lm7lvfsm8sq@marketplace.amazon.com	Kisha	+1 347-448-3190 ext. 72866	ABR0033	Purchase Now for Delivery by Monday | Arabella Farm Direct Bouquet of 12 Fresh Cut Orange Roses with a Free Glass Vase	1	0	1	Expedited	Gloria Lansdowne	9745 W VILLAGE PL			MAIZE	KS	67101-3783	US		Miss you dear friend, love you bunches!! From Kisha	false		
111-5111184-0632264	22947439424290	2020-05-28T03:27:36+00:00	2020-05-27T20:27:36-07:00	2020-05-28T03:58:01+00:00	2020-06-02T06:59:59+00:00	-5	c40dv6ndlzylvnj@marketplace.amazon.com	margie giorgi	+1 347-448-3190 ext. 02357	ABR0066	Purchase Now for Delivery by Monday | Arabella Bouquets | 12 Stems of Fresh Cut White Roses in a Free Designer Glass Vase	1	0	1	Expedited	Rebecca Mitreski	839 W 59TH PL			MERRILLVILLE	IN	46410-2419	US			false		
111-3599329-3687424	42364718046266	2020-05-28T03:37:23+00:00	2020-05-27T20:37:23-07:00	2020-05-28T04:04:42+00:00	2020-06-02T06:59:59+00:00	-5	bdnt0g6nxzm1gfn@marketplace.amazon.com	Amy Szambelak	+1 210-728-4548 ext. 04081	ABR0022	Purchase Now for Delivery by Monday | Arabella Farm Direct Bouquet of 12 Fresh Cut Pink Roses with a Free Glass Vase	1	0	1	Expedited	Janice Markey	191 VILLAGE GLEN DR			HARRISBURG	PA	17112-8741	US		Happy Birthday!!!! Love you! Love Amy From Amy Szambelak	false		
111-7859617-9068220	15905258346146	2020-05-28T03:46:20+00:00	2020-05-27T20:46:20-07:00	2020-05-28T04:13:22+00:00	2020-06-02T06:59:59+00:00	-5	wpfx9dly3mz6qkx@marketplace.amazon.com	Ian	+1 412-532-4665 ext. 54931	ABM002	Purchase Now for Delivery by Monday | Arabella Bouquets Fresh Cut White Calla Lilies in a Free Designer Glass Vase	1	0	1	Expedited	Janet Fetterolf	5063 MARTINIQUE DR			NAPLES	FL	34113-8165	US		HAPPY BIRTHDAY MOM!!   I love you!! From Ian	false		
114-3946817-9174617	69598662357058	2020-05-28T03:53:42+00:00	2020-05-27T20:53:42-07:00	2020-05-28T04:22:09+00:00	2020-06-02T06:59:59+00:00	-5	rb2qqb8l60sthfg@marketplace.amazon.com	Robert Lascheid	+1 210-728-4548 ext. 87639	ABR0022	Purchase Now for Delivery by Monday | Arabella Farm Direct Bouquet of 12 Fresh Cut Pink Roses with a Free Glass Vase	1	0	1	Expedited	tammy lascheid	155 HANSON LOOP RD			BURBANK	WA	99323-8504	US		happy birthday Mom, Love you and miss you. hope your shoulder heals soon. love robert	false		
111-7990657-5873057	64958688992450	2020-05-28T04:04:30+00:00	2020-05-27T21:04:30-07:00	2020-05-28T04:32:21+00:00	2020-06-02T06:59:59+00:00	-5	zsykn7kn9kxdpb5@marketplace.amazon.com	Marc fox	+1 210-728-4548 ext. 69680	ABR0055	Purchase Now for Delivery by Monday | Arabella Farm Direct Bouquet of 12 Stems of Fresh Cut Hot Pink Roses in a Free Designer Glass Vase	1	0	1	Expedited	Bonnie Huppert	284 SE SCOTT ST			BEND	OR	97702-1322	US		Kellie, thank you so much for taking such thoughtful care of our home and of our family!  We appreciate you and the entire team.  Your the best ❤️ From Maria fox	false		
113-6913185-2581018	31484838703274	2020-05-28T04:09:53+00:00	2020-05-27T21:09:53-07:00	2020-05-28T04:36:31+00:00	2020-06-02T06:59:59+00:00	-5	m35sf1xbl9k24k3@marketplace.amazon.com	Chris Burkhardt	+1 314-282-9402 ext. 30534	ABR0022	Purchase Now for Delivery by Monday | Arabella Farm Direct Bouquet of 12 Fresh Cut Pink Roses with a Free Glass Vase	1	0	1	Expedited	Bernie Burkhardt	8160 S WILDING DR			OAK CREEK	WI	53154-7432	US		Happy Belated Mother's Day. I love you Mom!! From Chris Burkhardt	false		
111-2405554-4184267	62881999377418	2020-05-28T04:07:29+00:00	2020-05-27T21:07:29-07:00	2020-05-28T04:36:59+00:00	2020-06-02T06:59:59+00:00	-5	0mqgnd24c1fh4ww@marketplace.amazon.com	Jasper R. King	+1 347-448-3190 ext. 44752	ABR0022	Purchase Now for Delivery by Monday | Arabella Farm Direct Bouquet of 12 Fresh Cut Pink Roses with a Free Glass Vase	1	0	1	Expedited	Sheryll A. Nicolas	2410 S HOLDEN RD APT C			GREENSBORO	NC	27407-5728	US			false		
113-5952130-6613850	28144707545682	2020-05-28T04:36:05+00:00	2020-05-27T21:36:05-07:00	2020-05-28T05:05:18+00:00	2020-06-02T06:59:59+00:00	-5	ch0dwrs1g0xhpp2@marketplace.amazon.com	Kylie	+1 347-448-3190 ext. 77945	ABR015	Purchase Now for Delivery by Monday | Arabella Farm Direct Bouquet of 18 Fresh Cut Orange Roses with a Free Glass Vase	1	0	1	Expedited	Kylie A. Welch	19930 LIMELIGHT DR UNIT 409			BEND	OR	97702-9064	US			false		
111-3252456-4104235	05808907499842	2020-05-28T05:17:59+00:00	2020-05-27T22:17:59-07:00	2020-05-28T05:43:25+00:00	2020-06-02T06:59:59+00:00	-5	wp6b0hkdhlpbbyx@marketplace.amazon.com	Rebecca Booth	+1 210-728-4548 ext. 24054	ABR0022	Purchase Now for Delivery by Monday | Arabella Farm Direct Bouquet of 12 Fresh Cut Pink Roses with a Free Glass Vase	1	0	1	Expedited	Belkis Hernandez Reynoso	5501 SW 8TH CT			MARGATE	FL	33068-2930	US		Hi Sis! Hoping these flowers will brighten your day.  I love you and I pray for you daily.  Love you forever! From Rebecca Booth	false		
112-4729065-3390646	62442647666002	2020-05-28T05:50:45+00:00	2020-05-27T22:50:45-07:00	2020-05-28T06:15:36+00:00	2020-06-02T06:59:59+00:00	-5	ym2k08nhyr79f1r@marketplace.amazon.com	Sherry	+1 347-448-3190 ext. 06963	ABR0022	Purchase Now for Delivery by Monday | Arabella Farm Direct Bouquet of 12 Fresh Cut Pink Roses with a Free Glass Vase	1	0	1	Expedited	MICHAEL STEVENS	6006 NW WOLVERINE RD			PORT ST LUCIE	FL	34986-3704	US		My Minamahal, Sending my love to cheer you up! I LOVE YOU and I MISSED YOU! LL	false		
112-3882080-6305868	42122240109074	2020-05-28T06:29:53+00:00	2020-05-27T23:29:53-07:00	2020-05-28T06:47:24+00:00	2020-06-02T06:59:59+00:00	-5	wlfvkjtsvdnfsc2@marketplace.amazon.com	JESSE C HERRERA	+1 210-728-4548 ext. 09941	ABR001	Purchase Now for Delivery by Monday | Arabella Bouquets 12 Stems of Fresh Cut Red Roses in a Free Designer Glass Vase	1	0	1	Expedited	Jesse Herrera	505 10TH ST			ARBUCKLE	CA	95912-9511	US		Happy Birthday my love! I hope you have an amazing day. From JESSE C HERRERA	false		
113-3554349-7874620	46228674046122	2020-05-28T06:42:28+00:00	2020-05-27T23:42:28-07:00	2020-05-28T07:11:19+00:00	2020-06-02T06:59:59+00:00	-5	9sb15tq1jgzzjr5@marketplace.amazon.com	Taylor	+1 347-448-3190 ext. 63982	ABM010	Purchase Now for Delivery by Monday | Arabella Bouquets | Fields of The World Bouquet of Fresh Cut Flowers in a Free Designer Glass Vase	1	0	1	Expedited	Catherine Luo	994 60TH ST APT B			OAKLAND	CA	94608-2304	US		A flower for you my dear. I really love you a lot From Taylor	false		
114-6120851-6832226	57456447618794	2020-05-28T07:16:26+00:00	2020-05-28T00:16:26-07:00	2020-05-28T07:43:29+00:00	2020-06-03T06:59:59+00:00	-6	pgnqwdsnpvkv56z@marketplace.amazon.com	Benjamin	+1 347-448-3190 ext. 29498	ABR001	Purchase Now for Delivery by Monday | Arabella Bouquets 12 Stems of Fresh Cut Red Roses in a Free Designer Glass Vase	1	0	1	Expedited	Sindy Fourny	518 GREGORY AVE APT A-411			WEEHAWKEN	NJ	07086-5708	US		Ciaooo Amoreee!  Happy Bday !! to the most amazing person I know :)  I love you and i can't wait to see you!!!  Your beebo From Benjamin	false		
113-4395980-0693816	36692543230666	2020-05-28T07:33:40+00:00	2020-05-28T00:33:40-07:00	2020-05-28T07:53:47+00:00	2020-06-03T06:59:59+00:00	-6	69ddhzshv7rgh41@marketplace.amazon.com	Tyler Thacker	+1 314-282-9402 ext. 28987	ABR0055	Purchase Now for Delivery by Monday | Arabella Farm Direct Bouquet of 12 Stems of Fresh Cut Hot Pink Roses in a Free Designer Glass Vase	1	0	1	Expedited	Tyler Thacker	554 SPRING BR			PIKEVILLE	KY	41501-7626	US			false		
112-0447442-9582628	42400951403090	2020-05-28T11:03:55+00:00	2020-05-28T04:03:55-07:00	2020-05-28T11:33:36+00:00	2020-06-03T06:59:59+00:00	-6	2sjpd70xx7mm0y1@marketplace.amazon.com	Robert Jampel	+1 412-532-4665 ext. 92155	ABR0022	Purchase Now for Delivery by Monday | Arabella Farm Direct Bouquet of 12 Fresh Cut Pink Roses with a Free Glass Vase	1	0	1	Expedited	Sondra Marwill and James Jampel	215 VALENTINE ST			NEWTON	MA	02465-3001	US			false		
114-5342444-6298613	52008791705994	2020-05-28T11:08:09+00:00	2020-05-28T04:08:09-07:00	2020-05-28T11:37:44+00:00	2020-06-03T06:59:59+00:00	-6	fm520trd49n59m1@marketplace.amazon.com	Jordan T. Sirlin	+1 314-282-9402 ext. 00960	ABR0033	Purchase Now for Delivery by Monday | Arabella Farm Direct Bouquet of 12 Fresh Cut Orange Roses with a Free Glass Vase	1	0	1	Expedited	Mary French	11810 TULARE WAY W			TULALIP	WA	98271-9344	US		Love you Mary. Hopefully these are real ones :) From Jordan & Patrick	false		
111-8648331-4802661	18143866472122	2020-05-28T11:43:46+00:00	2020-05-28T04:43:46-07:00	2020-05-28T12:11:21+00:00	2020-06-03T06:59:59+00:00	-6	bfzx1hp0vmkbnwm@marketplace.amazon.com	Rachel Ray	+1 314-282-9402 ext. 63985	ABR0022	Purchase Now for Delivery by Monday | Arabella Farm Direct Bouquet of 12 Fresh Cut Pink Roses with a Free Glass Vase	1	0	1	Expedited	Rachel Ray	6112 HEIDI PL			MONTGOMERY	AL	36117-2504	US		Thank you for teaching me to be a great mom. Sorry for the mishap with the last gift. Love you. From Rachel Ray	false		
114-9320136-7532266	38944072846778	2020-05-28T11:50:24+00:00	2020-05-28T04:50:24-07:00	2020-05-28T12:19:25+00:00	2020-06-03T06:59:59+00:00	-6	r18v2n83qsw9x43@marketplace.amazon.com	Sharon D Hennessy	+1 210-728-4548 ext. 29721	ABM010	Purchase Now for Delivery by Monday | Arabella Bouquets | Fields of The World Bouquet of Fresh Cut Flowers in a Free Designer Glass Vase	1	0	1	Expedited	AJ, Vincent and Rhett	84 FOX RUN RD			SUDBURY	MA	01776-2768	US		Hi Jess  Happy birthday to you  Love “ The Mister”	false		
111-4991397-0084246	60578309319858	2020-05-28T12:17:02+00:00	2020-05-28T05:17:02-07:00	2020-05-28T12:44:08+00:00	2020-06-03T06:59:59+00:00	-6	jpy4lthjhwf7hh3@marketplace.amazon.com	jessica nielson	+1 314-282-9402 ext. 83889	ABR0022	Purchase Now for Delivery by Monday | Arabella Farm Direct Bouquet of 12 Fresh Cut Pink Roses with a Free Glass Vase	1	0	1	Expedited	Tammy Parry	4884 W WOOD RANCH DR			SOUTH JORDAN	UT	84009-1530	US		Good luck with your surgery. Kids picked pink. From jessica nielson	false		
112-4720138-6549038	29851832584770	2020-05-28T12:23:16+00:00	2020-05-28T05:23:16-07:00	2020-05-28T12:50:34+00:00	2020-06-03T06:59:59+00:00	-6	hhsq9hmj7v7qzms@marketplace.amazon.com	Mark Usher	+1 210-728-4548 ext. 12497	ABR0022	Purchase Now for Delivery by Monday | Arabella Farm Direct Bouquet of 12 Fresh Cut Pink Roses with a Free Glass Vase	1	0	1	Expedited	Linda Penn	247 NETTLEMAN RD			BRONSON	MICHIGAN	49028-9257	US		Happy 45th Anniversary! Love, Mari & Mark and Beth & Greg	false		
114-4725783-3672211	08119885513106	2020-05-28T12:38:03+00:00	2020-05-28T05:38:03-07:00	2020-05-28T13:02:51+00:00	2020-06-03T06:59:59+00:00	-6	dtg32t3lk7g3c6w@marketplace.amazon.com	carole	+1 210-728-4548 ext. 17711	ABR0055	Purchase Now for Delivery by Monday | Arabella Farm Direct Bouquet of 12 Stems of Fresh Cut Hot Pink Roses in a Free Designer Glass Vase	1	0	1	Expedited	Alanna Collins	179 NOBLEBORO RD			BREMEN	ME	04551-3413	US			false		
111-1925064-1715436	07369026546210	2020-05-28T12:44:03+00:00	2020-05-28T05:44:03-07:00	2020-05-28T13:11:55+00:00	2020-06-03T06:59:59+00:00	-6	lgp4y21p1kh6vfj@marketplace.amazon.com	Deborah Bastien	+1 763-225-9463 ext. 52793	ABM010	Purchase Now for Delivery by Monday | Arabella Bouquets | Fields of The World Bouquet of Fresh Cut Flowers in a Free Designer Glass Vase	1	0	1	Standard	Dolores Dulude	10330 ORCHID DR			PORT RICHEY	FL	34668-3293	US			false		
111-2067919-5002659	63412731975058	2020-05-28T14:01:52+00:00	2020-05-28T07:01:52-07:00	2020-05-28T14:28:25+00:00	2020-06-03T06:59:59+00:00	-6	2grtp2kn0hzkqlm@marketplace.amazon.com	edwin tostige	+1 314-282-9402 ext. 45080	ABM010	Purchase Now for Delivery by Monday | Arabella Bouquets | Fields of The World Bouquet of Fresh Cut Flowers in a Free Designer Glass Vase	1	0	1	Expedited	Mom Schrock	29300 GRIX RD			NEW BOSTON	MI	48164-9496	US		We're so sorry for your loss. We all love you.  Love,  Laura, Joey, Jojo and Emma!! From edwin tostige	false		
114-4225469-6606600	09391607740610	2020-05-28T14:05:32+00:00	2020-05-28T07:05:32-07:00	2020-05-28T14:30:07+00:00	2020-06-03T06:59:59+00:00	-6	jzl2j00ct362x82@marketplace.amazon.com	Brandy Franco	+1 210-728-4548 ext. 62661	ABR0022	Purchase Now for Delivery by Monday | Arabella Farm Direct Bouquet of 12 Fresh Cut Pink Roses with a Free Glass Vase	1	0	1	Expedited	Brandy Franco	1412 LAFAYETTE ST			LEBANON	PA	17042-5832	US		You’re the most beautiful girlllll jamas te olvides de eso, I love you mamas and see you soon, esperar valdrá la pena verás I can’t wait to be with you again Mami.❤️ 02/10/19 From Brandy Franco	false		
113-8652895-4246641	51676866284450	2020-05-28T14:15:33+00:00	2020-05-28T07:15:33-07:00	2020-05-28T14:35:29+00:00	2020-06-03T06:59:59+00:00	-6	kdlqxb96tktc5xw@marketplace.amazon.com	Johnbrowne	+1 347-448-3190 ext. 20674	ABR0022	Purchase Now for Delivery by Monday | Arabella Farm Direct Bouquet of 12 Fresh Cut Pink Roses with a Free Glass Vase	1	0	1	Expedited	Elena Moynihan	348 HIBERNIA RD SALT POINT			SALT POINT	NY	12578-2116	US		Dearest Darling Elena, Our thoughts and prayers are with you and your Family Stay safe. From Browne Family	false		
114-3929801-8009030	48863289814098	2020-05-28T14:22:35+00:00	2020-05-28T07:22:35-07:00	2020-05-28T14:47:37+00:00	2020-06-03T06:59:59+00:00	-6	sfty066787651jr@marketplace.amazon.com	Lacey Buhr	+1 210-728-4548 ext. 26990	ABR0022	Purchase Now for Delivery by Monday | Arabella Farm Direct Bouquet of 12 Fresh Cut Pink Roses with a Free Glass Vase	1	0	1	Expedited	Crystal Nedland	66 8 1/4 ST			PRAIRIE FARM	WI	54762-9450	US		Mrs. Nedland, you were the best 3rd Grade teacher ever! Thank you for zoom meetings, book readings, and all the extra stuff you did for us that wasn't required or necessary! I miss you so much!! Hugs!! From Clarissa Buhr	false		
114-1471830-7563454	22489239979682	2020-05-28T14:21:15+00:00	2020-05-28T07:21:15-07:00	2020-05-28T14:51:58+00:00	2020-06-03T06:59:59+00:00	-6	z29z05zldg1mfzt@marketplace.amazon.com	Aaron Sargent	+1 347-448-3190 ext. 38619	ABR0033	Purchase Now for Delivery by Monday | Arabella Farm Direct Bouquet of 12 Fresh Cut Orange Roses with a Free Glass Vase	1	0	1	Expedited	Aaron Sargent	348 SOUTHWILDE WAY			POOLER	GA	31322-3805	US			false		
111-5683819-0775402	13411650777250	2020-05-28T14:31:17+00:00	2020-05-28T07:31:17-07:00	2020-05-28T15:00:08+00:00	2020-06-03T06:59:59+00:00	-6	jq8j4cdch0122cp@marketplace.amazon.com	dina  drago	+1 210-728-4548 ext. 41752	ABR0022	Purchase Now for Delivery by Monday | Arabella Farm Direct Bouquet of 12 Fresh Cut Pink Roses with a Free Glass Vase	1	0	1	Expedited	Hedy Crowley	323 FREEHOLD ENGLISHTOWN RD			FREEHOLD	NJ	07728-8258	US		Happy Birthday Hedy I Love You From Joe & Dina Drago	false		
112-6206167-5776228	41355333085570	2020-05-28T14:40:57+00:00	2020-05-28T07:40:57-07:00	2020-05-28T15:08:18+00:00	2020-06-03T06:59:59+00:00	-6	xktcc1lvbpv3ddv@marketplace.amazon.com	Michelle D. Granata	+1 210-728-4548 ext. 18842	ABR0022	Purchase Now for Delivery by Monday | Arabella Farm Direct Bouquet of 12 Fresh Cut Pink Roses with a Free Glass Vase	1	0	1	Expedited	Ms. Cristina Kove	50 HARRISON AVE			NEW CANAAN	CT	06840-5801	US		Dear Eda,  HAPPY BIRTHDAY :) !!  We wish we could have delivered flowers and a hug ... in person !!  We love you - Shelley, Tony and Chip xoxoxo	false		
113-6387866-1181814	23339447958658	2020-05-28T14:38:19+00:00	2020-05-28T07:38:19-07:00	2020-05-28T15:08:26+00:00	2020-06-03T06:59:59+00:00	-6	bbd8g2kv5rylgsj@marketplace.amazon.com	cory	+1 210-728-4548 ext. 91661	ABM010	Purchase Now for Delivery by Monday | Arabella Bouquets | Fields of The World Bouquet of Fresh Cut Flowers in a Free Designer Glass Vase	1	0	1	Expedited	cory leppert	2364 CINNABAR RD			COLORADO SPRINGS	COLORADO	80921-7009	US		HAPPY BIRTHDAY MOM!  LOVE, CORY	false		
111-7179313-7161010	07644767692146	2020-05-28T14:52:09+00:00	2020-05-28T07:52:09-07:00	2020-05-28T15:12:09+00:00	2020-06-03T06:59:59+00:00	-6	5mw11dsb3sj5cxj@marketplace.amazon.com	Robert P Kaub	+1 210-728-4548 ext. 06841	ABM010	Purchase Now for Delivery by Monday | Arabella Bouquets | Fields of The World Bouquet of Fresh Cut Flowers in a Free Designer Glass Vase	1	0	1	Expedited	Gary Morgan	7860 CAMERRA WAY			BALDWINSVILLE	NY	13027-9040	US		Get well soon. Our thoughts are with you. From Robert P Kaub	false		
112-0316532-2373063	70262261680258	2020-05-28T14:43:51+00:00	2020-05-28T07:43:51-07:00	2020-05-28T15:16:34+00:00	2020-06-03T06:59:59+00:00	-6	tg4bn8jk2pc9f3f@marketplace.amazon.com	Nicole Gregory	+1 347-448-3190 ext. 45004	ABM010	Purchase Now for Delivery by Monday | Arabella Bouquets | Fields of The World Bouquet of Fresh Cut Flowers in a Free Designer Glass Vase	1	0	1	Expedited	Allison Cook	1501 RIDGE RD			MONROE	NC	28110-9487	US		Your eAssist family is thinking of you and sending hugs.  Lots of love and condolences from everyone here at eAssist!	false		
112-9072292-1565818	14271265044802	2020-05-28T15:18:15+00:00	2020-05-28T08:18:15-07:00	2020-05-28T15:45:38+00:00	2020-06-03T06:59:59+00:00	-6	3xg1642p1ksjc2t@marketplace.amazon.com	Tristan Rudolph	+1 314-282-9402 ext. 44657	ABR001	Purchase Now for Delivery by Monday | Arabella Bouquets 12 Stems of Fresh Cut Red Roses in a Free Designer Glass Vase	1	0	1	Expedited	Margaret Rudolph	203 WALNUT CREEK DR			GOLDSBORO	NC	27534-8992	US		Happy Birthday grandma! I love you so so much! I know that a birthday isn’t complete without flowers and I hope you have an amazing day! I miss and love you! From Melissa Rudolph	false		
112-0083859-5470621	41635954517882	2020-05-28T15:24:28+00:00	2020-05-28T08:24:28-07:00	2020-05-28T15:51:50+00:00	2020-06-03T06:59:59+00:00	-6	cqmq6j239c6j235@marketplace.amazon.com	anne marie nordbo	+1 210-728-4548 ext. 12206	ABR0055	Purchase Now for Delivery by Monday | Arabella Farm Direct Bouquet of 12 Stems of Fresh Cut Hot Pink Roses in a Free Designer Glass Vase	1	0	1	Expedited	Alicia & Kent Womack	7210 SUN VALLEY DR			TEMPLE	TX	76502-3304	US		Enjoy your gift! From anne marie nordbo	false		
112-5385061-9819427	34394132650074	2020-05-28T15:27:57+00:00	2020-05-28T08:27:57-07:00	2020-05-28T15:57:27+00:00	2020-06-03T06:59:59+00:00	-6	j9v0m8tjmfpbscg@marketplace.amazon.com	Laing Akers	+1 347-448-3190 ext. 10275	ABM010	Purchase Now for Delivery by Monday | Arabella Bouquets | Fields of The World Bouquet of Fresh Cut Flowers in a Free Designer Glass Vase	1	0	1	Expedited	Bev Kantor	395 MAPLEWOOD AVE			WHITEHALL	OH	43213-1732	US		Hi Bev,  Thanks for all you do!   Laing	false		
111-9446883-0655467	58965908264578	2020-05-28T15:36:45+00:00	2020-05-28T08:36:45-07:00	2020-05-28T16:02:15+00:00	2020-06-03T06:59:59+00:00	-6	vvhpvxsqwlk9qw4@marketplace.amazon.com	Patrick Burbine	+1 210-728-4548 ext. 34930	ABM010	Purchase Now for Delivery by Monday | Arabella Bouquets | Fields of The World Bouquet of Fresh Cut Flowers in a Free Designer Glass Vase	1	0	1	Expedited	Thomas Burbine	26 SYMMES ST			MEDFORD	MA	02155-1538	US		Dear Mom and Dad,  Our condolences. We will miss Nana Barbara very much. Hope you are doing well in this difficult time.	false		
113-1130108-3129003	64842732045634	2020-05-28T16:01:36+00:00	2020-05-28T09:01:36-07:00	2020-05-28T16:24:39+00:00	2020-06-03T06:59:59+00:00	-6	ww6zr0szn5mf7k6@marketplace.amazon.com	Cassandra Hosler	+1 347-448-3190 ext. 56290	ABR0033	Purchase Now for Delivery by Monday | Arabella Farm Direct Bouquet of 12 Fresh Cut Orange Roses with a Free Glass Vase	1	0	1	Expedited	Ellen and Ron Sayers	617 Lake Drive West			Smyrna	DE	19977	US		Ellen and Ron, We are so sorry for your loss.  June lived a wonderful life and brought joy to those around her.  We will be thinking of you.  Love, Cassie, Wade, Owen and Evan	false		
112-6777354-4354626	33448471541722	2020-05-28T16:09:17+00:00	2020-05-28T09:09:17-07:00	2020-05-28T16:27:58+00:00	2020-06-03T06:59:59+00:00	-6	mjm3pc644n90mlj@marketplace.amazon.com	Hein Dekkers	+1 347-448-3190 ext. 84354	ABM010	Purchase Now for Delivery by Monday | Arabella Bouquets | Fields of The World Bouquet of Fresh Cut Flowers in a Free Designer Glass Vase	1	0	1	Expedited	Bob Foley	16130 GRAND CYPRESS DR			NOBLESVILLE	IN	46060-4469	US		Hi Bob, We want to thank you and your wife for your service at Cisco. We know you only can be successful with the great support of your spouse.Enjoy your well-deserved retirement, Wishing you and your family all the best ,Cisco Cyber Vision team	false		
113-6589390-8473809	45497695867746	2020-05-28T16:39:07+00:00	2020-05-28T09:39:07-07:00	2020-05-28T17:02:46+00:00	2020-06-03T06:59:59+00:00	-6	s6wvytqrwl5zdny@marketplace.amazon.com	gailbrady@yahoo.com	+1 347-448-3190 ext. 16492	ABR0066	Purchase Now for Delivery by Monday | Arabella Bouquets | 12 Stems of Fresh Cut White Roses in a Free Designer Glass Vase	1	0	1	Expedited	Ms. Susan Loehr	1133 WARBURTON AVE # PH5N			YONKERS	NY	10701-1087	US		Dearest Suz, CONGRATURLATIONS on being a gorgeous, exciting, amazing "50" (or just a bit more)! Grab this virtual hug!  xo From Gail	false		
113-7125589-2802647	62922835005898	2020-05-28T16:38:51+00:00	2020-05-28T09:38:51-07:00	2020-05-28T17:06:43+00:00	2020-06-03T06:59:59+00:00	-6	zk3584630v2dhw0@marketplace.amazon.com	Virginia Wiltbank	+1 210-728-4548 ext. 10811	ABR0066	Purchase Now for Delivery by Monday | Arabella Bouquets | 12 Stems of Fresh Cut White Roses in a Free Designer Glass Vase	1	0	1	Expedited	Mrs. Ashley Wiltbank	1106 CARPER ST			MCLEAN	VA	22101-2108	US		Happy birthday, Ashley!  I hope it's a fun day and the beginning of a great year!  love, Gini	false		
114-7596471-4793016	27361280569762	2020-05-28T16:41:49+00:00	2020-05-28T09:41:49-07:00	2020-05-28T17:06:54+00:00	2020-06-03T06:59:59+00:00	-6	q742h9dw15xrbzv@marketplace.amazon.com	Mohammad	+1 347-448-3190 ext. 47785	ABR0033	Purchase Now for Delivery by Monday | Arabella Farm Direct Bouquet of 12 Fresh Cut Orange Roses with a Free Glass Vase	1	0	1	Expedited	Ovais Sayeed	64 BEECHWOOD DR			MANORVILLE	NY	11949-2947	US		Congratulations on your baby princess  We cant wait to meet her From Asra, Ali, Alayna &Ayaan	false		
112-2688769-1966656	20248451382906	2020-05-28T17:04:14+00:00	2020-05-28T10:04:14-07:00	2020-05-28T17:11:21+00:00	2020-06-03T06:59:59+00:00	-6	9pxwp2j1tnrzzmf@marketplace.amazon.com	Daniel Norton	+1 347-448-3190 ext. 10728	ABR0055	Purchase Now for Delivery by Monday | Arabella Farm Direct Bouquet of 12 Stems of Fresh Cut Hot Pink Roses in a Free Designer Glass Vase	1	0	1	Expedited	Rhona Karina Torrivilla	5690 HONEYSUCKLE DR			WEST PALM BEACH	FL	33415-6328	US		I just wanted to let you know what a super amazing, inspiring, beautiful, & smart woman you are! I’m truly blessed to have you in my life! 🥰 if I had a flower for every time I thought of you, I could walk in my gardenforever From Daniel Norton	false		
114-3373155-2617829	05161787899362	2020-05-28T16:43:39+00:00	2020-05-28T09:43:39-07:00	2020-05-28T17:13:49+00:00	2020-06-03T06:59:59+00:00	-6	tdsp8ybths7dz2j@marketplace.amazon.com	Patricia Kapavik	+1 314-282-9402 ext. 93104	ABR004	Arabella Farm Direct Bouquet of 12 Fresh Cut Yellow Roses with a Free Glass Vase	1	0	1	Expedited	Theresa Pesek	2294 E COMMON ST APT 420			NEW BRAUNFELS	TX	78130-3583	US		Happy Birthday Mom! From Love, Your Family	false		
111-9855916-7092210	68562876895106	2020-05-28T16:53:45+00:00	2020-05-28T09:53:45-07:00	2020-05-28T17:22:40+00:00	2020-06-03T06:59:59+00:00	-6	7hhmrh382z36ynz@marketplace.amazon.com	Andrew Reca	+1 347-448-3190 ext. 02059	ABR0022	Purchase Now for Delivery by Monday | Arabella Farm Direct Bouquet of 12 Fresh Cut Pink Roses with a Free Glass Vase	1	0	1	Expedited	Veronica Koval	3015 W HIGHLAND ST			ALLENTOWN	PA	18104-3523	US		I’m Sorry for acting like I did. I hope you can forgive me and know the real me. From Andrew Reca	false		
113-5952950-3347443	33077457687626	2020-05-28T17:01:03+00:00	2020-05-28T10:01:03-07:00	2020-05-28T17:29:41+00:00	2020-06-03T06:59:59+00:00	-6	fj3205rhpwb6w5v@marketplace.amazon.com	nina	+1 347-448-3190 ext. 34255	ABM010	Purchase Now for Delivery by Monday | Arabella Bouquets | Fields of The World Bouquet of Fresh Cut Flowers in a Free Designer Glass Vase	1	0	1	Expedited	Lauren orlando	667 BIRCH LN			GROSSE POINTE WOODS	MI	48236-2462	US		With deepest sympathy.  We are both so sorry.  Love Nina and Netanel	false		
114-2107000-0993041	39103513259218	2020-05-28T17:20:45+00:00	2020-05-28T10:20:45-07:00	2020-05-28T17:39:55+00:00	2020-06-03T06:59:59+00:00	-6	5sb9fdmw5n9fsq4@marketplace.amazon.com	Joseph B. Johnson	+1 314-282-9402 ext. 17243	ABM0033	Purchase Now for Delivery by Monday | Arabella Farm Direct Bouquet of Fresh Cut White Hydrangea with a Free Glass Vase	1	0	1	Expedited	Emily Duffy	13 CAPTAINS WALK			NORTH CHATHAM	MA	02650-1041	US		Dear Emily, Thank you for my daily wake up calls. Love you, Grammy and Grandpa From Joseph B. Johnson	false		
112-5865929-7503447	12700540077202	2020-05-28T17:12:51+00:00	2020-05-28T10:12:51-07:00	2020-05-28T17:41:43+00:00	2020-06-03T06:59:59+00:00	-6	c5d6s6vsd4sr9pn@marketplace.amazon.com	tingtzhao	+1 314-282-9402 ext. 67210	ABM010	Purchase Now for Delivery by Monday | Arabella Bouquets | Fields of The World Bouquet of Fresh Cut Flowers in a Free Designer Glass Vase	1	0	1	Expedited	Winnie Tubbs	9252 SIDEVIEW DR			DOWNEY	CA	90240-2443	US		Happy Birthday Winnie! I hope you enjoy your special day. We appreciate you for what you are doing for us. Love, Rongni Cai & Shengshun Hong	false		
112-0955060-6151440	01771107840506	2020-05-28T17:29:11+00:00	2020-05-28T10:29:11-07:00	2020-05-28T17:58:04+00:00	2020-06-03T06:59:59+00:00	-6	9t88ldbffjv6ztd@marketplace.amazon.com	Mother Turtle	+1 347-448-3190 ext. 03313	ABR0022	Purchase Now for Delivery by Monday | Arabella Farm Direct Bouquet of 12 Fresh Cut Pink Roses with a Free Glass Vase	1	0	1	Expedited	Charliemae Harris	43 ALEXANDER AVE			MADISON	NJ	07940-2135	US		I love you!!!!! Always and Forever.  Your daughter, Shuron From Marsia Shuron Harris	false		
113-2686355-5095439	04418194482946	2020-05-28T17:34:57+00:00	2020-05-28T10:34:57-07:00	2020-05-28T18:05:24+00:00	2020-06-03T06:59:59+00:00	-6	pcv2m2jj8bzjxx3@marketplace.amazon.com	Rebecca A Roy	+1 210-728-4548 ext. 30135	ABR0066	Purchase Now for Delivery by Monday | Arabella Bouquets | 12 Stems of Fresh Cut White Roses in a Free Designer Glass Vase	1	0	1	Expedited	Erin Chaplin	19 N 37TH AVE			YAKIMA	WA	98902-2706	US			false		
112-7519215-2350607	17932715077490	2020-05-28T18:12:27+00:00	2020-05-28T11:12:27-07:00	2020-05-28T18:17:08+00:00	2020-05-30T06:59:59+00:00	-2	45qsv13d6k54zlk@marketplace.amazon.com	Krista Hoey	+1 347-448-3190 ext. 94290	ABR0033	Purchase Now for Delivery by Monday | Arabella Farm Direct Bouquet of 12 Fresh Cut Orange Roses with a Free Glass Vase	1	0	1	NextDay	Karen Reid	6816 BRANTON DR			CARY	NC	27519-5257	US		Congratulations!! Enjoy being a grandma and safe travels From Krista Hoey and the office staff	false		
114-1519192-2199462	41308841098386	2020-05-28T18:19:02+00:00	2020-05-28T11:19:02-07:00	2020-05-28T18:22:16+00:00	2020-05-30T06:59:59+00:00	-2	c2jv7fywfj4hkqy@marketplace.amazon.com	Billy Herman	+1 314-282-9402 ext. 19237	ABR0022	Purchase Now for Delivery by Monday | Arabella Farm Direct Bouquet of 12 Fresh Cut Pink Roses with a Free Glass Vase	1	0	1	NextDay	Lynh Nguyen	8 VIOLANTE CT			EATONTOWN	NJ	07724-3438	US		Your cuteness knows no bounds, your beauty has no limit, you are the only woman in the world, to which I will commit. I look at you and gasp in awe, you take my breath away my dear, for you I’ll walk the line. From Billy Herman	false		
111-1391701-5075462	37016450966930	2020-05-28T17:54:27+00:00	2020-05-28T10:54:27-07:00	2020-05-28T18:24:37+00:00	2020-06-03T06:59:59+00:00	-6	myjtvm56lq6nbj5@marketplace.amazon.com	Winifred Burson	+1 347-448-3190 ext. 64380	ABR0022	Purchase Now for Delivery by Monday | Arabella Farm Direct Bouquet of 12 Fresh Cut Pink Roses with a Free Glass Vase	1	0	1	Expedited	margaret dettmer	108 CHERRY VALLEY RD			REISTERSTOWN	MD	21136-3202	US			false		
111-1207411-4616259	69158248367394	2020-05-28T18:26:50+00:00	2020-05-28T11:26:50-07:00	2020-05-28T18:28:12+00:00	2020-05-30T06:59:59+00:00	-2	s7f5szwck8cmmzk@marketplace.amazon.com	Jill Rondeau	+1 210-728-4548 ext. 05137	ABR0022	Purchase Now for Delivery by Monday | Arabella Farm Direct Bouquet of 12 Fresh Cut Pink Roses with a Free Glass Vase	1	0	1	NextDay	Debbie Martin	3765 George Washington Memorial Highway			Hayes	VA	23072	US		Debbie,  Thanks for going to bat for us on the Chowning House.  We're looking forward to inviting you back for dinner when there's a "finished product" . YOU ROCK ! From Scott and Jill	false		
112-2879090-0125810	62345862409674	2020-05-28T18:27:20+00:00	2020-05-28T11:27:20-07:00	2020-05-28T18:30:11+00:00	2020-05-30T06:59:59+00:00	-2	ch8xy47f2yj23rj@marketplace.amazon.com	Tony & Marsha Pesa	+1 210-728-4548 ext. 82671	ABR014	Purchase Now for Delivery by Monday | Arabella Bouquets 18 Stems of Fresh Cut White Roses in a Free Designer Glass Vase	1	0	1	NextDay	Tony & Marsha Pesa	3521 RIVER NARROWS RD			HILLIARD	OH	43026-7833	US		Happy Birthday to my beautiful wife. From T	false		
111-9777765-5363428	53466701072154	2020-05-28T18:29:24+00:00	2020-05-28T11:29:24-07:00	2020-05-28T18:31:19+00:00	2020-05-30T06:59:59+00:00	-2	6pvjkwvhbs6zt0g@marketplace.amazon.com	Daniel Fagelman	+1 210-728-4548 ext. 27900	ABR0022	Purchase Now for Delivery by Monday | Arabella Farm Direct Bouquet of 12 Fresh Cut Pink Roses with a Free Glass Vase	1	0	1	NextDay	Fayth Stephenson	65 RAILROAD AVE UNIT B			BEACHWOOD	NJ	08722-3825	US		Welcome Home Fayth! From Daniel Fagelman	false		
112-1252375-9990622	02598045521298	2020-05-28T18:34:39+00:00	2020-05-28T11:34:39-07:00	2020-05-28T18:35:53+00:00	2020-05-30T06:59:59+00:00	-2	fsc2tr9f9wq998s@marketplace.amazon.com	Alex Delgado	+1 347-448-3190 ext. 65078	ABR0022	Purchase Now for Delivery by Monday | Arabella Farm Direct Bouquet of 12 Fresh Cut Pink Roses with a Free Glass Vase	1	0	1	NextDay	Florence Sabella	68 STORM JIB CT			BAYVILLE	NJ	08721-1416	US			false		
114-1586769-0723430	05412456445538	2020-05-28T16:54:18+00:00	2020-05-28T09:54:18-07:00	2020-05-28T18:40:28+00:00	2020-06-03T06:59:59+00:00	-6	4fkkmt7qdlbm8zj@marketplace.amazon.com	Mark Iden	+1 347-448-3190 ext. 17817	ABR0055	Purchase Now for Delivery by Monday | Arabella Farm Direct Bouquet of 12 Stems of Fresh Cut Hot Pink Roses in a Free Designer Glass Vase	1	0	1	Expedited	Michaela D'Angelo	c/o Jean Sibley	40 Etna Highlands Road		Etna	NH	03750	US			false		
112-3061320-2945041	13811277296994	2020-05-28T18:37:34+00:00	2020-05-28T11:37:34-07:00	2020-05-28T18:40:49+00:00	2020-05-30T06:59:59+00:00	-2	dhq9cht5b2db75v@marketplace.amazon.com	Patricia Crouch	+1 347-448-3190 ext. 76026	ABM010	Purchase Now for Delivery by Monday | Arabella Bouquets | Fields of The World Bouquet of Fresh Cut Flowers in a Free Designer Glass Vase	1	0	1	NextDay	Reggie Graham	1166 E COMMONS DR			BLOOMINGTON	IN	47401-8736	US		Dear Reggie, Our deepest sympathies for your loss. ~Dean Allison & Your School of Public Health Family	true		
114-1596589-1302621	26060787090474	2020-05-28T18:44:24+00:00	2020-05-28T11:44:24-07:00	2020-05-28T18:45:30+00:00	2020-05-30T06:59:59+00:00	-2	059j9vtpygbntww@marketplace.amazon.com	David Sherman	+1610413435577228523	ABR0055	Purchase Now for Delivery by Monday | Arabella Farm Direct Bouquet of 12 Stems of Fresh Cut Hot Pink Roses in a Free Designer Glass Vase	1	0	1	NextDay	Maxine Greth	AURORA REHABILITATION	1800 S POTOMAC ST		AURORA	CO	80012-5430	US		Hope you are feeling better really soon. Miss you.  Marlene From Marlene	false		
112-7541329-8656243	67187807988346	2020-05-28T19:01:16+00:00	2020-05-28T12:01:16-07:00	2020-05-28T19:03:10+00:00	2020-05-30T06:59:59+00:00	-2	lfdgsfg700svqx8@marketplace.amazon.com	azizfmc	+1 210-728-4548 ext. 26871	ABR0022	Purchase Now for Delivery by Monday | Arabella Farm Direct Bouquet of 12 Fresh Cut Pink Roses with a Free Glass Vase	1	0	1	NextDay	Roma farooqui	2660 FEATHERWOOD ST			WESTLAKE VILLAGE	CA	91362-5148	US		Dearest Roma  We are so proud of you ! Congrats on your graduation! All the best ahead. From Soha & Samir From Soha & Samir	true		
111-3549914-6424260	42491452796418	2020-05-28T19:04:10+00:00	2020-05-28T12:04:10-07:00	2020-05-28T19:05:07+00:00	2020-05-30T06:59:59+00:00	-2	702dwfnhpdnx4jw@marketplace.amazon.com	Albert Avi Arenfeld	+1 347-448-3190 ext. 72927	ABR0066	Purchase Now for Delivery by Monday | Arabella Bouquets | 12 Stems of Fresh Cut White Roses in a Free Designer Glass Vase	1	0	1	NextDay	Anne and Moshe Arenfeld	1452 OAK FOREST DR			THE VILLAGES	FL	32162-7597	US		We are very sorry for your loss. Please accept our deepest condolences during this difficult time. From Lyla and Avi	false		
113-1512005-4920245	31254657430514	2020-05-28T19:07:31+00:00	2020-05-28T12:07:31-07:00	2020-05-28T19:11:52+00:00	2020-05-30T06:59:59+00:00	-2	2gwdm56r8hxwpjc@marketplace.amazon.com	kimberly price	+1 763-225-9463 ext. 92493	ABR0022	Purchase Now for Delivery by Monday | Arabella Farm Direct Bouquet of 12 Fresh Cut Pink Roses with a Free Glass Vase	1	0	1	NextDay	Amanda Powell	50023 LIN CHRIS DR LOT 8	ST CLAIRSVILLE		SAINT CLAIRSVILLE	OH	43950-9101	US		Hi Amanda, True love is what i offer you, and i hope to get the energy i put into this relationship. I LOVE YOU	false		
111-5152491-1109063	19429193606042	2020-05-28T19:09:21+00:00	2020-05-28T12:09:21-07:00	2020-05-28T19:13:25+00:00	2020-05-30T06:59:59+00:00	-2	qhmwgzhkj95j1hk@marketplace.amazon.com	veer shah	+1 347-448-3190 ext. 69213	ABR0022	Purchase Now for Delivery by Monday | Arabella Farm Direct Bouquet of 12 Fresh Cut Pink Roses with a Free Glass Vase	1	0	1	NextDay	Babloo Masi	4052 TEAK CIR			NAPERVILLE	IL	60564-1103	US		To the best Masi, our darling Babloo Masi Happy Happy Birthday. We love you so much. Boo and Veeri From Boo and Veeri	false		
114-6931701-0085838	38418360869450	2020-05-28T19:20:11+00:00	2020-05-28T12:20:11-07:00	2020-05-28T19:25:09+00:00	2020-05-30T06:59:59+00:00	-2	vl7w7lh5fr7k7yf@marketplace.amazon.com	Elaine	+1 210-728-4548 ext. 02329	ABR012	Purchase Now for Delivery by Monday | Arabella Farm Direct Bouquet of 18 Fresh Cut Pink Roses with a Free Glass Vase	1	0	1	NextDay	Solange Immel	3629 TIERRA ABIERTA PL NE			RIO RANCHO	NM	87124-1870	US			false		
114-3503580-8782617	40278070820914	2020-05-28T19:27:13+00:00	2020-05-28T12:27:13-07:00	2020-05-28T19:31:08+00:00	2020-05-30T06:59:59+00:00	-2	1nxk341lsg62r4y@marketplace.amazon.com	DANIEL MAYNARD	+1 210-728-4548 ext. 98379	ABR001	Purchase Now for Delivery by Monday | Arabella Bouquets 12 Stems of Fresh Cut Red Roses in a Free Designer Glass Vase	1	0	1	NextDay	CAROL MAYNARD	13773 E CARRUTHERS ST			VAIL	AZ	85641-5903	US			false		
114-4256176-0409050	12158340700578	2020-05-28T19:32:48+00:00	2020-05-28T12:32:48-07:00	2020-05-28T19:37:05+00:00	2020-05-30T06:59:59+00:00	-2	ql3tqpgn2lrvz15@marketplace.amazon.com	Julie  Sorum	+1 412-532-4665 ext. 89498	ABR004	Arabella Farm Direct Bouquet of 12 Fresh Cut Yellow Roses with a Free Glass Vase	1	0	1	NextDay	Quincy Cronenworth	303 SW 22ND ST			SEMINOLE	TX	79360-3825	US		I hope you feel better soon! Rest!!! Love you 😘 From Julie  Sorum	false		
113-0227264-5249051	23589222700810	2020-05-28T19:45:39+00:00	2020-05-28T12:45:39-07:00	2020-05-28T19:49:58+00:00	2020-05-30T06:59:59+00:00	-2	3d8xmkr0bchfy74@marketplace.amazon.com	Arthur Sajdera	+1 763-225-9463 ext. 36509	ABR0033	Purchase Now for Delivery by Monday | Arabella Farm Direct Bouquet of 12 Fresh Cut Orange Roses with a Free Glass Vase	1	0	1	NextDay	Kalinda Unruh	10924 SCOTCH ROSE ST			HENDERSON	NV	89052-8653	US			false		
114-1215478-1873030	04220401493210	2020-05-28T20:01:38+00:00	2020-05-28T13:01:38-07:00	2020-05-28T20:05:18+00:00	2020-05-30T06:59:59+00:00	-2	8251lk914cfcsq4@marketplace.amazon.com	DeVan Pardue	+1 412-532-4665 ext. 81981	ABR0055	Purchase Now for Delivery by Monday | Arabella Farm Direct Bouquet of 12 Stems of Fresh Cut Hot Pink Roses in a Free Designer Glass Vase	1	0	1	NextDay	Linda Boschen	4803 E TEXAS ST LOT 24			BOSSIER CITY	LA	71111-2525	US		Happy Birthday!  Get well! From Bill	false		
111-4903487-0497833	22517499199994	2020-05-28T20:11:39+00:00	2020-05-28T13:11:39-07:00	2020-05-28T20:12:35+00:00	2020-05-30T06:59:59+00:00	-2	wsd4tvdkc4txbvc@marketplace.amazon.com	Tyler	+1 314-282-9402 ext. 46166	ABR0022	Purchase Now for Delivery by Monday | Arabella Farm Direct Bouquet of 12 Fresh Cut Pink Roses with a Free Glass Vase	1	0	1	NextDay	Brittney Andrews	8690 PIERCE ST			MERRILLVILLE	IN	46410-7337	US		Happy Birthday! From Tyler	false		
112-3850726-8200227	51867968145426	2020-05-28T20:11:25+00:00	2020-05-28T13:11:25-07:00	2020-05-28T20:17:35+00:00	2020-05-30T06:59:59+00:00	-2	8cwkxw5x7t925cv@marketplace.amazon.com	Vicki janisse	+1 347-448-3190 ext. 93245	ABR0055	Purchase Now for Delivery by Monday | Arabella Farm Direct Bouquet of 12 Stems of Fresh Cut Hot Pink Roses in a Free Designer Glass Vase	1	0	1	NextDay	Kim hafele	5254 PROS DR			WEST CHESTER	OH	45069-1885	US		Enjoy your gift! Hope your feeling better ❤️ From Vicki janisse	false		
113-3844585-8718623	11126240310810	2020-05-28T20:18:36+00:00	2020-05-28T13:18:36-07:00	2020-05-28T20:23:00+00:00	2020-05-30T06:59:59+00:00	-2	81kjvy6m4ck40tk@marketplace.amazon.com	Joelle Pacos	+1 314-282-9402 ext. 24639	ABM010	Purchase Now for Delivery by Monday | Arabella Bouquets | Fields of The World Bouquet of Fresh Cut Flowers in a Free Designer Glass Vase	1	0	1	NextDay	Debi Pacos	25 BELL CANYON DR			DOVE CANYON	CA	92679-3806	US			false		
112-0584002-5640240	08581642021682	2020-05-28T20:25:25+00:00	2020-05-28T13:25:25-07:00	2020-05-28T20:26:18+00:00	2020-05-30T06:59:59+00:00	-2	59rqfjqk88nt0dv@marketplace.amazon.com	Nicole	+1 347-448-3190 ext. 29317	ABR0033	Purchase Now for Delivery by Monday | Arabella Farm Direct Bouquet of 12 Fresh Cut Orange Roses with a Free Glass Vase	1	0	1	NextDay	Mariamu Mjumbe	2725 BELLBROOK ST			TEMPLE HILLS	MD	20748-1103	US		OH HAPPY DAY!  Remembering your FIERCE & BRILLIANT 1st born...today and everyday!   xxoo, Nicole	false		
112-4831592-6304226	44656748543378	2020-05-28T20:30:12+00:00	2020-05-28T13:30:12-07:00	2020-05-28T20:33:05+00:00	2020-05-30T06:59:59+00:00	-2	8r9h0wpmqf412vn@marketplace.amazon.com	peter geremia	+1 210-728-4548 ext. 58709	ABR0022	Purchase Now for Delivery by Monday | Arabella Farm Direct Bouquet of 12 Fresh Cut Pink Roses with a Free Glass Vase	1	0	1	NextDay	Michele renke	7695 ESCALADE CT			WEST DES MOINES	IA	50266-2480	US			false		
113-8595144-2868242	29931028603082	2020-05-28T20:28:03+00:00	2020-05-28T13:28:03-07:00	2020-05-28T20:33:06+00:00	2020-05-30T06:59:59+00:00	-2	hkcc6c1qz9n8l01@marketplace.amazon.com	Chris Finney	+1 314-282-9402 ext. 34305	ABM0044	Purchase Now for Delivery by Monday | Arabella Farm Direct Bouquet of Fresh Cut Blue Hydrangea with a Free Glass Vase	1	0	1	NextDay	Lucy Carpenter	400 Lakeside Ave. S	#209		Seattle	WA	98144	US			false		
112-3321107-2821008	38391268940914	2020-05-28T20:34:16+00:00	2020-05-28T13:34:16-07:00	2020-05-28T20:37:22+00:00	2020-05-30T06:59:59+00:00	-2	f989rjzx2ryyrqx@marketplace.amazon.com	Garrett Pazur	+1 347-448-3190 ext. 32218	ABR001	Purchase Now for Delivery by Monday | Arabella Bouquets 12 Stems of Fresh Cut Red Roses in a Free Designer Glass Vase	1	0	1	NextDay	Rosanne Holmes	5651 RAVENS ROOST LN			TRAVERSE CITY	MI	49684-7766	US		Happy Birthday, Rose!  Love Gary and Michelle.	false		
111-5726440-7585044	67782475902922	2020-05-28T20:38:41+00:00	2020-05-28T13:38:41-07:00	2020-05-28T20:39:39+00:00	2020-05-30T06:59:59+00:00	-2	z1sphg20j9rhfvx@marketplace.amazon.com	Carolyn Matinzi	+1 347-448-3190 ext. 22080	ABM0044	Purchase Now for Delivery by Monday | Arabella Farm Direct Bouquet of Fresh Cut Blue Hydrangea with a Free Glass Vase	1	0	1	NextDay	Mr. And Mrs. Donald Alexander	1091 MARGARITA CT			MONETA	VA	24121-2678	US		Praying for you both! Lots of love, From Carolyn and Paul	false		
113-6662388-6609821	16469364980210	2020-05-28T18:36:32+00:00	2020-05-28T11:36:32-07:00	2020-05-28T20:49:56+00:00	2020-05-30T06:59:59+00:00	-2	m3bjsd9vqplqr5v@marketplace.amazon.com	Krystal L. Gulisano	+1 210-728-4548 ext. 77932	ABR0022	Purchase Now for Delivery by Monday | Arabella Farm Direct Bouquet of 12 Fresh Cut Pink Roses with a Free Glass Vase	1	0	1	NextDay	Jeanette Gulisano	791 MANOR RD APT 2C			STATEN ISLAND	NY	10314-7023	US		Happy Late Mother’s Day! Life and the relationships we have with God and others are only what we make it! 💖 Enjoy these I know you love pink, J. Pink Love Always, Krystal From Krystal L. Gulisano	false		
114-5127972-5568262	16662444900906	2020-05-28T20:51:20+00:00	2020-05-28T13:51:20-07:00	2020-05-28T20:53:45+00:00	2020-05-30T06:59:59+00:00	-2	x43lk5t6p81qcpz@marketplace.amazon.com	Tina M Collins	+1 210-728-4548 ext. 96171	ABR0022	Purchase Now for Delivery by Monday | Arabella Farm Direct Bouquet of 12 Fresh Cut Pink Roses with a Free Glass Vase	1	0	1	NextDay	Olivia Kulp	2831 OGDENSBURG RD			ROARING BRANCH	PA	17765-9140	US		Happy Birthday Livey!🎂🎈 From Uncle Tom, Aunt Tina, Matt, & Meg	false		
111-8388045-4549850	50125093818674	2020-05-28T20:58:07+00:00	2020-05-28T13:58:07-07:00	2020-05-28T20:59:03+00:00	2020-05-30T06:59:59+00:00	-2	77mgsl67k2k8n48@marketplace.amazon.com	barry	+1 210-728-4548 ext. 47532	ABR0055	Purchase Now for Delivery by Monday | Arabella Farm Direct Bouquet of 12 Stems of Fresh Cut Hot Pink Roses in a Free Designer Glass Vase	1	0	1	NextDay	Barry  k  Booker	15850 LIVINGSTON RD			ACCOKEEK	MD	20607-2220	US			false		
111-0133870-4284207	19464301897922	2020-05-28T20:58:20+00:00	2020-05-28T13:58:20-07:00	2020-05-28T20:59:14+00:00	2020-05-30T06:59:59+00:00	-2	g4j8q1df9z2tnvr@marketplace.amazon.com	katherene brown	+1 210-728-4548 ext. 30504	ABM010	Purchase Now for Delivery by Monday | Arabella Bouquets | Fields of The World Bouquet of Fresh Cut Flowers in a Free Designer Glass Vase	1	0	1	NextDay	Judy Varela	2024 PINE ST			TEXARKANA	TX	75501-3826	US		Hi Judy, Enjoy your gift! Happy Birthday sister!!! Still planning on Hawaii trip! Thought you might like some roses!!! Love you dearly sister, please be OH, SO, CAREFUL THESE DAYS! Love, Kitty & Harold	false		
111-5933296-1219425	26894848091122	2020-05-28T20:54:14+00:00	2020-05-28T13:54:14-07:00	2020-05-28T20:59:40+00:00	2020-05-30T06:59:59+00:00	-2	bvcqv4rmcjt9qq8@marketplace.amazon.com	Bob West	+1 210-728-4548 ext. 99063	ABR001	Purchase Now for Delivery by Monday | Arabella Bouquets 12 Stems of Fresh Cut Red Roses in a Free Designer Glass Vase	1	0	1	NextDay	Bob West	50 RIVERSIDE ST APT 1			WATERTOWN	MA	02472-2652	US			false		
112-9815693-3907460	59569672757434	2020-05-28T21:00:04+00:00	2020-05-28T14:00:04-07:00	2020-05-28T21:01:10+00:00	2020-05-30T06:59:59+00:00	-2	9921ff2k9n0zx4n@marketplace.amazon.com	Martin Martinez	+1 314-282-9402 ext. 24393	ABR0022	Purchase Now for Delivery by Monday | Arabella Farm Direct Bouquet of 12 Fresh Cut Pink Roses with a Free Glass Vase	1	0	1	NextDay	Robert and Marie Martinez	6749 MILPA ALTA RD NE			RIO RANCHO	NM	87144-5580	US		Hi Mom, You are the best Mom in the world. I am truly blessed to have parents like you and  Dad. Enjoy your gift! Have an awesome birthday! Love, Bo	false		
111-1348733-8385021	13052392891618	2020-05-28T21:03:34+00:00	2020-05-28T14:03:34-07:00	2020-05-28T21:07:40+00:00	2020-05-30T06:59:59+00:00	-2	8y6t6c8ph06l7dk@marketplace.amazon.com	Mary Avallone	+1 347-448-3190 ext. 52149	ABR0033	Purchase Now for Delivery by Monday | Arabella Farm Direct Bouquet of 12 Fresh Cut Orange Roses with a Free Glass Vase	1	0	1	NextDay	Antoinette Frees	REFORMED CHURCH HOME	1990 STATE ROUTE 18		OLD BRIDGE	NJ	08857-3771	US			false		
111-3277707-1981826	34391871852362	2020-05-28T21:07:20+00:00	2020-05-28T14:07:20-07:00	2020-05-28T21:11:22+00:00	2020-05-30T06:59:59+00:00	-2	1yxp4w5gbqflc4x@marketplace.amazon.com	Greg Levien	+1 314-282-9402 ext. 65489	ABR0055	Purchase Now for Delivery by Monday | Arabella Farm Direct Bouquet of 12 Stems of Fresh Cut Hot Pink Roses in a Free Designer Glass Vase	1	0	1	NextDay	Denise Levien	15323 SWEETBAY ST			WOODBINE	MD	21797-7733	US			false		
111-9312169-4435408	30932143477858	2020-05-28T21:12:17+00:00	2020-05-28T14:12:17-07:00	2020-05-28T21:13:10+00:00	2020-05-30T06:59:59+00:00	-2	m1kfhscjtdx8w2k@marketplace.amazon.com	Carol Rogers	+1 314-282-9402 ext. 18493	ABR0022	Purchase Now for Delivery by Monday | Arabella Farm Direct Bouquet of 12 Fresh Cut Pink Roses with a Free Glass Vase	1	0	1	NextDay	Louis Rapuano Family	11 TOBI CT			FREEHOLD	NJ	07728-8824	US		Congratulations everyone. Josie is a lucky baby to have all of you! Give her a kiss for me.  Lots of love,  Mom- Mom	false		
113-5237804-2831461	42885315302682	2020-05-28T21:15:36+00:00	2020-05-28T14:15:36-07:00	2020-05-28T21:20:26+00:00	2020-05-30T06:59:59+00:00	-2	8b00q4hmbrqqy06@marketplace.amazon.com	Beverly Hubers	+1 347-448-3190 ext. 80866	ABR0022	Purchase Now for Delivery by Monday | Arabella Farm Direct Bouquet of 12 Fresh Cut Pink Roses with a Free Glass Vase	1	0	1	NextDay	GWEN HEETDERKS	1861 LARAWAY LAKE DR SE			GRAND RAPIDS	MI	49546-6638	US		Thanks for talking when when I needed you! Love you, Beverly From Beverly Hubers	false		
111-2031098-5616236	27075583470050	2020-05-28T21:21:41+00:00	2020-05-28T14:21:41-07:00	2020-05-28T21:24:47+00:00	2020-05-30T06:59:59+00:00	-2	0fls31hdz4ptwwr@marketplace.amazon.com	Megan E Philip	+1 314-282-9402 ext. 97217	ABR0022	Purchase Now for Delivery by Monday | Arabella Farm Direct Bouquet of 12 Fresh Cut Pink Roses with a Free Glass Vase	1	0	1	NextDay	Megan Philip	406 Ridge Road			Mahomet	IL	61853	US		Happy Birthday Mom! May these beautiful flowers remind you of God's great love for you and our forever love for you as well! Kisses and hugs from Kyoto!	false		
112-3492312-6194626	40606445485434	2020-05-28T21:28:52+00:00	2020-05-28T14:28:52-07:00	2020-05-28T21:31:37+00:00	2020-05-30T06:59:59+00:00	-2	56yz9xdcmjgy7jv@marketplace.amazon.com	Maureen	+1 210-728-4548 ext. 83353	ABR0022	Purchase Now for Delivery by Monday | Arabella Farm Direct Bouquet of 12 Fresh Cut Pink Roses with a Free Glass Vase	1	0	1	NextDay	rick hatzel	6454 SYCAMORE ST			KATY	TX	77493-1134	US		Happy Birthday Enjoy your gift! Lots of Love Moe!!!	false		
114-3954956-7564225	14505570617490	2020-05-28T21:31:13+00:00	2020-05-28T14:31:13-07:00	2020-05-28T21:32:13+00:00	2020-05-30T06:59:59+00:00	-2	20k6lyp8nh33zw7@marketplace.amazon.com	Kara Putrino	+1 314-282-9402 ext. 35841	ABR0066	Purchase Now for Delivery by Monday | Arabella Bouquets | 12 Stems of Fresh Cut White Roses in a Free Designer Glass Vase	1	0	1	NextDay	Nicole Yerk	1 WEST ST APT 3510			NEW YORK	NY	10004-1037	US		Nicole, I will miss you. Love, Kara	false		
112-5786712-6759459	00510080737202	2020-05-28T21:31:10+00:00	2020-05-28T14:31:10-07:00	2020-05-28T21:35:41+00:00	2020-05-30T06:59:59+00:00	-2	5ywzphtbv54lf96@marketplace.amazon.com	Deb Gunderson	+1 347-448-3190 ext. 70941	ABR0022	Purchase Now for Delivery by Monday | Arabella Farm Direct Bouquet of 12 Fresh Cut Pink Roses with a Free Glass Vase	1	0	1	NextDay	Angie Bosma	5620 NW 11TH CIR			LINCOLN	NE	68521-4236	US			false		
114-5405459-3724214	67500612942474	2020-05-28T21:36:13+00:00	2020-05-28T14:36:13-07:00	2020-05-28T21:38:26+00:00	2020-05-30T06:59:59+00:00	-2	0xfxgg0s7hbytjm@marketplace.amazon.com	Margaret Ann Garrison	+1 412-532-4665 ext. 43042	ABM010	Purchase Now for Delivery by Monday | Arabella Bouquets | Fields of The World Bouquet of Fresh Cut Flowers in a Free Designer Glass Vase	1	0	1	NextDay	Peggy and John Stokes	1206 BEAVER TREE DR			ODENTON	MD	21113-6001	US		Hi Peggy and John Thinking of you both at this tough time....  Kisses Ann and Armond	false		
112-7643928-6914637	43422282014346	2020-05-28T21:56:51+00:00	2020-05-28T14:56:51-07:00	2020-05-28T21:57:43+00:00	2020-05-30T06:59:59+00:00	-2	0vsbfrl354l1206@marketplace.amazon.com	Janet Drayer	+1 210-728-4548 ext. 06871	ABM010	Purchase Now for Delivery by Monday | Arabella Bouquets | Fields of The World Bouquet of Fresh Cut Flowers in a Free Designer Glass Vase	1	0	1	NextDay	Caroline Oliveria	19620 CARMELITA AVE			CORONA	CA	92881-4304	US		Caroline - Thank you for your sparkling and positive attitude, willingness to go the extra mile, and your help over the last couple of months.  It is greatly appreciated!  Wishing you joy and happiness in this crazy time. From From, Janet Drayer	false		
114-6123812-5237805	11747938526954	2020-05-28T21:58:26+00:00	2020-05-28T14:58:26-07:00	2020-05-28T22:03:43+00:00	2020-05-30T06:59:59+00:00	-2	grzgmsrfjcz8dw2@marketplace.amazon.com	ahmadu abimbola	+1 314-282-9402 ext. 56972	ABR0022	Purchase Now for Delivery by Monday | Arabella Farm Direct Bouquet of 12 Fresh Cut Pink Roses with a Free Glass Vase	1	0	1	NextDay	Linnette Harris	2651 MARTIN LUTHER KING JR AVE SE	APT 201		WASHINGTON	DC	20020-7706	US			false		
112-8051543-0819427	58194025788514	2020-05-28T22:02:36+00:00	2020-05-28T15:02:36-07:00	2020-05-28T22:04:47+00:00	2020-05-30T06:59:59+00:00	-2	x8x7glhp53tsqwb@marketplace.amazon.com	Pam rumsby	+1 210-728-4548 ext. 57960	ABM010	Purchase Now for Delivery by Monday | Arabella Bouquets | Fields of The World Bouquet of Fresh Cut Flowers in a Free Designer Glass Vase	1	0	1	NextDay	Jenny Griswold	1507 CLARENCE CT APT 3			WEST BEND	WI	53095-8526	US		Hi Jen Thinking of you luv Lots of love Pam xxx	false		
112-2317387-8869839	63122444991490	2020-05-28T22:44:33+00:00	2020-05-28T15:44:33-07:00	2020-05-28T22:45:23+00:00	2020-05-30T06:59:59+00:00	-2	2dkg9x8l6n0pmrr@marketplace.amazon.com	amanda ghanie	+1 347-448-3190 ext. 87691	ABR0033	Purchase Now for Delivery by Monday | Arabella Farm Direct Bouquet of 12 Fresh Cut Orange Roses with a Free Glass Vase	1	0	1	NextDay	Sapna Jairath	2218 JACKSON AVE APT 214			LONG ISLAND CITY	NY	11101-4930	US		Dear Love, Congratulations on your GRADUATION! So proud of you :) You are the best Psychiatrist I know!  Love, Amanda	false		
113-3077011-9121069	57802932849762	2020-05-28T22:57:26+00:00	2020-05-28T15:57:26-07:00	2020-05-28T22:58:19+00:00	2020-05-30T06:59:59+00:00	-2	2r26tjp98wqkt6q@marketplace.amazon.com	Edward Corrigan	+1 210-728-4548 ext. 39260	ABR0022	Purchase Now for Delivery by Monday | Arabella Farm Direct Bouquet of 12 Fresh Cut Pink Roses with a Free Glass Vase	1	0	1	NextDay	Elaine Schlosser	SEGOVIA - 39905 VIA SCENA			PALM DESERT	CA	92260-1822	US		Dear Elaine,  Happy Birthday! Hope these brighten your home.  Love and miss you! Love, Ryan and Laura From Ryan and Laura O'Connell	false		
111-7368463-7026604	14709167549618	2020-05-28T22:58:54+00:00	2020-05-28T15:58:54-07:00	2020-05-28T23:02:23+00:00	2020-05-30T06:59:59+00:00	-2	wtj5n8v4mfbbslt@marketplace.amazon.com	Kathy Corey	+1 314-282-9402 ext. 10258	ABM010	Purchase Now for Delivery by Monday | Arabella Bouquets | Fields of The World Bouquet of Fresh Cut Flowers in a Free Designer Glass Vase	1	0	1	NextDay	Mary Madsen	1140 ELKVIEW DR APT 43			GAYLORD	MI	49735-2049	US		HAPPY BIRTHDAY MOM!!! We wish we could be there to celebrate with you!🥳 From Kathy, Dale, Jackie & Will	false		
112-4855075-2869854	37716532080458	2020-05-28T23:00:17+00:00	2020-05-28T16:00:17-07:00	2020-05-28T23:04:51+00:00	2020-05-30T06:59:59+00:00	-2	l0npjc302tdzj23@marketplace.amazon.com	Steve Clements		ABR0022	Purchase Now for Delivery by Monday | Arabella Farm Direct Bouquet of 12 Fresh Cut Pink Roses with a Free Glass Vase	1	0	1	NextDay	STEVEN CLEMENTS	2066 W 161ST STREET			TORRANCE	CA	90504	US			false		
114-0632455-7909810	58993610841682	2020-05-28T23:07:53+00:00	2020-05-28T16:07:53-07:00	2020-05-28T23:08:54+00:00	2020-05-30T06:59:59+00:00	-2	yty0n1kxfysfjsw@marketplace.amazon.com	Jack Radley	+1 210-728-4548 ext. 95783	ABR0022	Purchase Now for Delivery by Monday | Arabella Farm Direct Bouquet of 12 Fresh Cut Pink Roses with a Free Glass Vase	1	0	1	NextDay	Rebecca Piassek	221 PAWNEE RD			CRANFORD	NJ	07016-1517	US		I love you!!! Thank you for being you From Jack Radley	false		
113-5738477-9879417	31498300495314	2020-05-28T23:12:05+00:00	2020-05-28T16:12:05-07:00	2020-05-28T23:13:02+00:00	2020-05-30T06:59:59+00:00	-2	wdyblmkpymf4m0y@marketplace.amazon.com	R Eric Frank	+1 314-282-9402 ext. 77604	ABM0044	Purchase Now for Delivery by Monday | Arabella Farm Direct Bouquet of Fresh Cut Blue Hydrangea with a Free Glass Vase	1	0	1	NextDay	Judy Wise	386 OWEN AVE			FAIR LAWN	NJ	07410-3617	US		Happy Birthday. We love you. From Shari, Eric, Sierra, Selena, and Evan	false		
114-2098254-9094605	45453579331346	2020-05-28T23:21:23+00:00	2020-05-28T16:21:23-07:00	2020-05-28T23:24:42+00:00	2020-05-30T06:59:59+00:00	-2	0hy9qb5nc3wlq37@marketplace.amazon.com	Anthony Bryant	+1 347-448-3190 ext. 16086	ABM010	Purchase Now for Delivery by Monday | Arabella Bouquets | Fields of The World Bouquet of Fresh Cut Flowers in a Free Designer Glass Vase	1	0	1	NextDay	Whitney Watts	2514 N NORDICA AVE # 2			ELMWOOD PARK	IL	60707-2110	US		Hey Babe,  I hope you have a wonderful Birthday! I celebrate you! Enjoy, Beautiful..!! From Anthony	false		
114-2937369-0965842	26665714215562	2020-05-28T23:24:18+00:00	2020-05-28T16:24:18-07:00	2020-05-28T23:25:08+00:00	2020-05-30T06:59:59+00:00	-2	5fy3yp7zpgzwtsq@marketplace.amazon.com	Jennifer Grandfield	+1 347-448-3190 ext. 46678	ABM019	Arabella Bouquets | The Desert Sun Bouquet in a Free Designer Glass Vase	1	0	1	NextDay	The Kirchmanns	217 N LAIRD ST			NAPERVILLE	IL	60540-4334	US		Thinking about your guys during this difficult time. Love you so so so much. From Jennifer Grandfield	false		
112-9474558-7460217	19632893778010	2020-05-28T23:21:18+00:00	2020-05-28T16:21:18-07:00	2020-05-28T23:25:49+00:00	2020-05-30T06:59:59+00:00	-2	4g37hbp0xty7mzl@marketplace.amazon.com	Emmanuel Adoki	+1 763-225-9463 ext. 56398	ABR001	Purchase Now for Delivery by Monday | Arabella Bouquets 12 Stems of Fresh Cut Red Roses in a Free Designer Glass Vase	1	0	1	NextDay	Grace Okoro	1387 MOUNTAIN LN			GARDENDALE	AL	35071-4201	US			false		
