order-id	order-item-id	purchase-date	payments-date	reporting-date	promise-date	days-past-promise	buyer-email	buyer-name	buyer-phone-number	sku	product-name	quantity-purchased	quantity-shipped	quantity-to-ship	ship-service-level	recipient-name	ship-address-1	ship-address-2	ship-address-3	ship-city	ship-state	ship-postal-code	ship-country	gift-wrap-type	gift-message-text	is-business-order	purchase-order-number	price-designation
114-6211171-9242643	17113085896146	2020-05-29T13:30:38+00:00	2020-05-29T06:30:38-07:00	2020-05-29T13:56:33+00:00	2020-06-04T06:59:59+00:00	-6	bfxkxbyzkgdc1tr@marketplace.amazon.com	Kenric Lee Carson Sr.	+1 210-728-4548 ext. 76503	ABR0022	Purchase Now for Delivery by Tuesday | Arabella Farm Direct Bouquet of 12 Fresh Cut Pink Roses with a Free Glass Vase	1	0	1	Expedited	Rosie Carson (Grandmother)	3525 N 41ST ST			MILWAUKEE	WI	53216-3434	US		To A Wonderful Grandmother!!  Love You!! ❤️ From Kenric Lee Carson Sr. and Melisha Carson	false		
111-8491596-4201064	68081687507402	2020-05-29T14:35:06+00:00	2020-05-29T07:35:06-07:00	2020-05-29T14:54:11+00:00	2020-06-04T06:59:59+00:00	-6	qqp5cxjlq8gf1s7@marketplace.amazon.com	Tiffany	+1 347-448-3190 ext. 41423	ABR0022	Purchase Now for Delivery by Tuesday | Arabella Farm Direct Bouquet of 12 Fresh Cut Pink Roses with a Free Glass Vase	1	0	1	Expedited	Mary Mcgee	3687 SMITHFIELD ST			JACKSONVILLE	FL	32217-2503	US		I love you Mary. You are always special to me. Thank you for being my friend and spiritual mama. From Tiffany White ( Duff)	false		
112-6408220-9017856	18355661245690	2020-05-29T15:24:00+00:00	2020-05-29T08:24:00-07:00	2020-05-29T15:52:51+00:00	2020-06-04T06:59:59+00:00	-6	lst9vqwdm07hdly@marketplace.amazon.com	Chris Deaver	+1 347-448-3190 ext. 35478	ABR0022	Purchase Now for Delivery by Tuesday | Arabella Farm Direct Bouquet of 12 Fresh Cut Pink Roses with a Free Glass Vase	1	0	1	Expedited	Mom / Devi Deaver	25 S 1350 W			VERNAL	UT	84078-2205	US		Love you, Mom!  Love, Chris From Chris	false		
113-1032995-7682620	07184198721610	2020-05-29T15:23:28+00:00	2020-05-29T08:23:28-07:00	2020-05-29T15:53:28+00:00	2020-06-04T06:59:59+00:00	-6	mk0h09zylncfcw4@marketplace.amazon.com	Jake Yannes	+1 347-448-3190 ext. 69015	ABR0022	Purchase Now for Delivery by Tuesday | Arabella Farm Direct Bouquet of 12 Fresh Cut Pink Roses with a Free Glass Vase	1	0	1	Expedited	Anna Wardwell	561 GREENHOWE DR			LITITZ	PA	17543-9053	US		To many more... From Jake	false		
113-9206488-7209817	34593985685914	2020-05-29T16:53:32+00:00	2020-05-29T09:53:32-07:00	2020-05-29T17:03:07+00:00	2020-06-04T06:59:59+00:00	-6	thtrsmjvfn8vrb5@marketplace.amazon.com	davidmlustigmd@gmail.com	+1 347-448-3190 ext. 05725	ABR0022	Purchase Now for Delivery by Tuesday | Arabella Farm Direct Bouquet of 12 Fresh Cut Pink Roses with a Free Glass Vase	1	0	1	Expedited	grace C jones	3012 WATERGATE LN			VIRGINIA BEACH	VA	23452-7024	US		Enjoy your gift!happy birthday ! Love you so very much!Eileen,David and David From Eileen	false		
114-6051646-8219455	08960199959754	2020-05-29T16:49:57+00:00	2020-05-29T09:49:57-07:00	2020-05-29T17:17:25+00:00	2020-06-04T06:59:59+00:00	-6	zjd2qz9kgy7xdjn@marketplace.amazon.com	Christina jones	+1 210-728-4548 ext. 52696	ABR0022	Purchase Now for Delivery by Tuesday | Arabella Farm Direct Bouquet of 12 Fresh Cut Pink Roses with a Free Glass Vase	1	0	1	Expedited	Shana Robinson	125 BARKLEY LN			SANDY SPRINGS	GA	30328-5466	US		Shana  We love you!!! Rest up!!! Positive things coming your way!!! Love  Ben, Christina, Ella and little Ben From Christina Jones	false		
114-2145739-6919463	46439966494442	2020-05-29T17:00:58+00:00	2020-05-29T10:00:58-07:00	2020-05-29T17:18:31+00:00	2020-06-04T06:59:59+00:00	-6	4cl5sqpm1hvs1cw@marketplace.amazon.com	William Pease	+1 210-728-4548 ext. 28789	ABR0022	Purchase Now for Delivery by Tuesday | Arabella Farm Direct Bouquet of 12 Fresh Cut Pink Roses with a Free Glass Vase	1	0	1	Expedited	Betty Junod	393 WARREN DR			SAN FRANCISCO	CA	94131-1033	US		Hi Betty  Thank you so much for your amazing support 2019-2020 school year for Room 7. Have a great summer!  Best Ji Young Park From Ji Young Park	false		
111-9044563-1504254	64366101758858	2020-05-29T16:55:16+00:00	2020-05-29T09:55:16-07:00	2020-05-29T17:24:54+00:00	2020-06-04T06:59:59+00:00	-6	rvh8zzg964fn0g2@marketplace.amazon.com	Dan Keshen	+1 347-448-3190 ext. 85480	ABR0022	Purchase Now for Delivery by Tuesday | Arabella Farm Direct Bouquet of 12 Fresh Cut Pink Roses with a Free Glass Vase	1	0	1	Expedited	Dan Keshen	25040 ABBEY LN			MANHATTAN	IL	60442-1427	US			false		
113-9523588-7189852	69760485090314	2020-05-29T17:14:57+00:00	2020-05-29T10:14:57-07:00	2020-05-29T17:25:16+00:00	2020-06-04T06:59:59+00:00	-6	3kzjs7x4n6nycw7@marketplace.amazon.com	James Dormon	+1 314-282-9402 ext. 76769	ABR0022	Purchase Now for Delivery by Tuesday | Arabella Farm Direct Bouquet of 12 Fresh Cut Pink Roses with a Free Glass Vase	1	0	1	Expedited	Candice Dormon	26 Roydon Road			New Haven	CT	06511	US		To my wife of many years, it never gets old to say I love you.  Love, James	false		
114-8174167-0652226	01252851648562	2020-05-29T17:04:49+00:00	2020-05-29T10:04:49-07:00	2020-05-29T17:32:21+00:00	2020-06-04T06:59:59+00:00	-6	4cl5sqpm1hvs1cw@marketplace.amazon.com	William Pease	+1 347-448-3190 ext. 04017	ABR0022	Purchase Now for Delivery by Tuesday | Arabella Farm Direct Bouquet of 12 Fresh Cut Pink Roses with a Free Glass Vase	1	0	1	Expedited	Christina Kim	3342 FULTON ST			SAN FRANCISCO	CA	94118-3608	US		Hi Christina!  Thank you so much for your amazing support 2019-2020 school year for Room 7. Have a great summer!  Best Ji Young Park From Ji Young Park	false		
111-7161061-0274640	10849060107666	2020-05-29T17:29:17+00:00	2020-05-29T10:29:17-07:00	2020-05-29T17:51:49+00:00	2020-06-04T06:59:59+00:00	-6	5nnrxlrl93sv6m8@marketplace.amazon.com	Phyllis R. Earley	+1 347-448-3190 ext. 60581	ABR0022	Purchase Now for Delivery by Tuesday | Arabella Farm Direct Bouquet of 12 Fresh Cut Pink Roses with a Free Glass Vase	1	0	1	Expedited	Courtney Parecki	40 GOLDEN SHADOW CIR			THE WOODLANDS	TX	77381-4148	US		Hi Courtney, Enjoy your gift! From Phyllis R. Earley	false		
114-2500069-1236204	45311627236242	2020-05-29T17:34:31+00:00	2020-05-29T10:34:31-07:00	2020-05-29T18:03:20+00:00	2020-06-04T06:59:59+00:00	-6	k7ztwxzy1znbss5@marketplace.amazon.com	kojo essilfie burah	+1 412-532-4665 ext. 37841	ABR0022	Purchase Now for Delivery by Tuesday | Arabella Farm Direct Bouquet of 12 Fresh Cut Pink Roses with a Free Glass Vase	1	0	1	Expedited	Jennifer Ampadu	1711 COMMONWEALTH AVE APT 3			BRIGHTON	MA	02135-4045	US		Enjoy your gift! From Papa Kojo.	false		
112-5741953-5246661	40109203728410	2020-05-29T17:39:46+00:00	2020-05-29T10:39:46-07:00	2020-05-29T18:04:16+00:00	2020-06-04T06:59:59+00:00	-6	mqy4r3n51944jrk@marketplace.amazon.com	Sarina Molina	+1 210-728-4548 ext. 67668	ABR0022	Purchase Now for Delivery by Tuesday | Arabella Farm Direct Bouquet of 12 Fresh Cut Pink Roses with a Free Glass Vase	1	0	1	Expedited	GRANDMAMA (c/o Sonali Santiago)	2343 KYANITE PL			CARLSBAD	CA	92009-1737	US			false		
113-6184542-4931448	38003682494178	2020-05-29T17:50:44+00:00	2020-05-29T10:50:44-07:00	2020-05-29T18:10:49+00:00	2020-06-04T06:59:59+00:00	-6	p3fnwfkfnqwt1cr@marketplace.amazon.com	Kiwi Lee	+1 314-282-9402 ext. 94578	ABR0022	Purchase Now for Delivery by Tuesday | Arabella Farm Direct Bouquet of 12 Fresh Cut Pink Roses with a Free Glass Vase	1	0	1	Expedited	Son, YuJin	2115 GANTON GRN APT 105			WOODSTOCK	MD	21163-1434	US		KweonSaNim,  May You continue to be blessed  in health and spirit!!!   Moonjoo Lee	false		
112-6177361-6901828	65229306353642	2020-05-29T18:04:16+00:00	2020-05-29T11:04:16-07:00	2020-05-29T18:31:48+00:00	2020-06-04T06:59:59+00:00	-6	4prvs87vpkt9lxm@marketplace.amazon.com	Lynn Nezin	+1 314-282-9402 ext. 80336	ABR0066	Purchase Now for Delivery by Tuesday | Arabella Bouquets | 12 Stems of Fresh Cut White Roses in a Free Designer Glass Vase	1	0	1	Expedited	Jeanne Samuels	1016 WILLOW ST			ALAMEDA	CA	94501-4372	US		Dear Jeanne: So sorry for your loss. Joe will be greatly missed and we are glad you were able to be by his side. Much love, Lynn, Stu, Rebecca, Casey and YangYang	false		
111-6790404-3527467	68041460070218	2020-05-29T18:14:00+00:00	2020-05-29T11:14:00-07:00	2020-05-29T18:40:29+00:00	2020-06-04T06:59:59+00:00	-6	hf26jdlw3gp8d2b@marketplace.amazon.com	Eric Dietz	+1 314-282-9402 ext. 92082	ABM010	Purchase Now for Delivery by Tuesday | Arabella Bouquets | Fields of The World Bouquet of Fresh Cut Flowers in a Free Designer Glass Vase	1	0	1	Expedited	Brooke Guilliams	582 SWEETBAY WAY			HERSHEY	PA	17033-3611	US		Hi Brooke, Happy Birthday!  Hope you have a terrific day! We love you and miss you very much! Love, Leigh and Eric	false		
114-6823296-8582618	67891531757122	2020-05-29T18:43:02+00:00	2020-05-29T11:43:02-07:00	2020-05-29T19:00:42+00:00	2020-06-04T06:59:59+00:00	-6	tk6nygqttc9ypxw@marketplace.amazon.com	Nash	+1 347-448-3190 ext. 46305	ABM002	Purchase Now for Delivery by Tuesday | Arabella Bouquets Fresh Cut White Calla Lilies in a Free Designer Glass Vase	1	0	1	Standard	Inna Ilson	24900 via valmonte, torrance CA 90505			valmonte, torrance	CA	90505	US		Hi, Happy birthday! Love, Roza	false		
112-7380780-3725812	37878344664866	2020-05-29T18:38:55+00:00	2020-05-29T11:38:55-07:00	2020-05-29T19:02:30+00:00	2020-06-04T06:59:59+00:00	-6	12jyld50f8xzv8r@marketplace.amazon.com	Alex Frantom	+1 210-728-4548 ext. 94171	ABR0022	Purchase Now for Delivery by Tuesday | Arabella Farm Direct Bouquet of 12 Fresh Cut Pink Roses with a Free Glass Vase	1	0	1	Expedited	Breann Clayman	329 N FISKE RD			COLDWATER	MI	49036-9138	US		Happy 1 Year! I love you so much babe! 12 flowers for 12 whole months that you've had to put up with me! From Alex	false		
111-8181230-3696208	31208078352290	2020-05-29T18:36:06+00:00	2020-05-29T11:36:06-07:00	2020-05-29T19:04:29+00:00	2020-06-04T06:59:59+00:00	-6	mf4fpfjcgq5b3rh@marketplace.amazon.com	Antonio	+1 347-448-3190 ext. 50412	ABR0022	Purchase Now for Delivery by Tuesday | Arabella Farm Direct Bouquet of 12 Fresh Cut Pink Roses with a Free Glass Vase	1	0	1	Expedited	Antonio J Venegas	873 MUIRFIELD DR			OCEANSIDE	CA	92058-7017	US		Happy Birthday my love! I hope you have an absolutely amazing day. I love you Gerrie, you truly mean the world to me! From Antonio	false		
111-4272865-5693033	26783373371690	2020-05-29T18:40:27+00:00	2020-05-29T11:40:27-07:00	2020-05-29T19:09:01+00:00	2020-06-04T06:59:59+00:00	-6	098jccyqn3svt8c@marketplace.amazon.com	Ralph Jones	+1 314-282-9402 ext. 39523	ABR0022	Purchase Now for Delivery by Tuesday | Arabella Farm Direct Bouquet of 12 Fresh Cut Pink Roses with a Free Glass Vase	1	0	1	Expedited	Ralph Jones	4549 S GREENWOOD AVE			CHICAGO	IL	60653-4411	US		Fantasia, Happy Graduation! Great Job. Love, Ralph and Shellie From Ralph Jones	false		
111-1617714-0800255	64155601637386	2020-05-29T18:45:31+00:00	2020-05-29T11:45:31-07:00	2020-05-29T19:15:14+00:00	2020-06-04T06:59:59+00:00	-6	8xny2s14zgr0m7r@marketplace.amazon.com	George Affe	+1 314-282-9402 ext. 42895	ABR0055	Purchase Now for Delivery by Tuesday | Arabella Farm Direct Bouquet of 12 Stems of Fresh Cut Hot Pink Roses in a Free Designer Glass Vase	1	0	1	Expedited	Irina Belyaeva	13063 WALLICH WAY			GERMANTOWN	MD	20874-1887	US			false		
114-2939993-9089836	61375455539378	2020-05-29T19:09:26+00:00	2020-05-29T12:09:26-07:00	2020-05-29T19:31:12+00:00	2020-06-04T06:59:59+00:00	-6	gp14wtff1dd3fk4@marketplace.amazon.com	Suzanne gaschler	+1 314-282-9402 ext. 47670	ABR0022	Purchase Now for Delivery by Tuesday | Arabella Farm Direct Bouquet of 12 Fresh Cut Pink Roses with a Free Glass Vase	1	0	1	Standard	KATHY PISCITELLI	1345 LILY WAY			SOUTHAMPTON	PA	18966-3313	US			false		
113-4637946-3480269	15436701499778	2020-05-29T19:16:49+00:00	2020-05-29T12:16:49-07:00	2020-05-29T19:44:38+00:00	2020-06-04T06:59:59+00:00	-6	g9qbyx3vqqvbqyp@marketplace.amazon.com	Norman WARREN BRADFORD	+1 210-728-4548 ext. 58783	ABM010	Purchase Now for Delivery by Tuesday | Arabella Bouquets | Fields of The World Bouquet of Fresh Cut Flowers in a Free Designer Glass Vase	1	0	1	Expedited	Grandma Elsie Warren	2419 Lincoln Ave.			Oceanside	NY	11572	US		Aloha Grandma, Enjoy the flowers! We love you !!! From Norman and Rie in Hawaii	false		
114-1337713-3912237	69856579953466	2020-05-29T19:18:33+00:00	2020-05-29T12:18:33-07:00	2020-05-29T19:46:38+00:00	2020-06-04T06:59:59+00:00	-6	0rpsbch5888rrs1@marketplace.amazon.com	Evan Alexander	+1 347-448-3190 ext. 59919	ABR0022	Purchase Now for Delivery by Tuesday | Arabella Farm Direct Bouquet of 12 Fresh Cut Pink Roses with a Free Glass Vase	1	0	1	Expedited	Jessica Hansen	539 E MENDOCINO ST			ALTADENA	CA	91001-2231	US		Hi Jessica, Miss & Love YOU! Cant Wait to see you soon! Love,  Evan Alexander	false		
113-2546980-6442622	57694337965298	2020-05-29T19:18:41+00:00	2020-05-29T12:18:41-07:00	2020-05-29T19:48:19+00:00	2020-06-04T06:59:59+00:00	-6	b0qc4zmxtnctkj6@marketplace.amazon.com	Kay H. Shannon	+1 314-282-9402 ext. 12351	ABR0022	Purchase Now for Delivery by Tuesday | Arabella Farm Direct Bouquet of 12 Fresh Cut Pink Roses with a Free Glass Vase	1	0	1	Expedited	Ann Long	215 TWINFLOWER LN			IRMO	SC	29063-7704	US			false		
111-7230198-8196236	57976051610730	2020-05-29T19:36:35+00:00	2020-05-29T12:36:35-07:00	2020-05-29T20:04:03+00:00	2020-06-04T06:59:59+00:00	-6	vwc4jglv8t8ysp0@marketplace.amazon.com	Judith Blodgett	+1 412-532-4665 ext. 86964	ABM002	Purchase Now for Delivery by Tuesday | Arabella Bouquets Fresh Cut White Calla Lilies in a Free Designer Glass Vase	1	0	1	Expedited	Guy Blodgett	7955 E COLORADO AVE APT 5			DENVER	CO	80231-5610	US		Hi Guy, Enjoy !!! With love, Mom	false		
113-1133323-9424223	01657529586010	2020-05-29T19:36:51+00:00	2020-05-29T12:36:51-07:00	2020-05-29T20:05:33+00:00	2020-06-04T06:59:59+00:00	-6	v79th54z2714z2k@marketplace.amazon.com	Diane  Maa	+1 314-282-9402 ext. 51506	ABM0044	Purchase Now for Delivery by Tuesday | Arabella Farm Direct Bouquet of Fresh Cut Blue Hydrangea with a Free Glass Vase	1	0	1	Expedited	Debra Walker	311 CHISWICK CT			GOODLETTSVILLE	TN	37072-2155	US		Happy 30th birthday you crazy cat! Hope you have an amazing day! Love you! From Seth and Diane	false		
112-6875980-1346613	50583501806194	2020-05-29T19:45:50+00:00	2020-05-29T12:45:50-07:00	2020-05-29T20:11:08+00:00	2020-06-04T06:59:59+00:00	-6	7kq9ycrtmpgrq3q@marketplace.amazon.com	Cheryl Gleason	+1 347-448-3190 ext. 84810	ABM010	Purchase Now for Delivery by Tuesday | Arabella Bouquets | Fields of The World Bouquet of Fresh Cut Flowers in a Free Designer Glass Vase	1	0	1	Expedited	Patty CooperPOGift	133 MILTON RD			BRAINTREE	MA	02184-8632	US		Patty, I love you so much and I am so happy you are my sister and thank you so so much for everything that you do! Love you Cheryl and Jim From Cheryl and Jim	true	Gift	
111-0171387-8923468	64386118442642	2020-05-29T19:50:37+00:00	2020-05-29T12:50:37-07:00	2020-05-29T20:14:05+00:00	2020-06-04T06:59:59+00:00	-6	bcsgh38jzvnqt5c@marketplace.amazon.com	Andy Nowak	+1 347-448-3190 ext. 53737	ABM010	Purchase Now for Delivery by Tuesday | Arabella Bouquets | Fields of The World Bouquet of Fresh Cut Flowers in a Free Designer Glass Vase	1	0	1	Expedited	Mrs. Ashley GeorgePOJH Happiness	906 WATERLILLY LN			MIDDLETOWN	DE	19709-9308	US		Ashley - Congrats to you, Jeremy, Willow, Wren, & the newest member of the family - Winter!  We are so very happy for you.  Praying for nothing but the happiest of moments in the journey ahead!  Blessings from the Entire Condor Team Ps127:3	true	JH Happiness	
113-4564719-2806648	24983498300786	2020-05-29T19:53:55+00:00	2020-05-29T12:53:55-07:00	2020-05-29T20:14:58+00:00	2020-06-04T06:59:59+00:00	-6	40w709467hwry4p@marketplace.amazon.com	Tammy Trowbridge	+1 210-728-4548 ext. 38008	ABR0022	Purchase Now for Delivery by Tuesday | Arabella Farm Direct Bouquet of 12 Fresh Cut Pink Roses with a Free Glass Vase	1	0	1	Expedited	COLLEEN CATALANO	1557 OVERLOOK RD			KENT	OH	44240-5901	US		COLLEEN, YOU GOT THIS SIS, THE ROAD AHEAD IS TOUGH BUT THE IRISH ARE TOUGHER!!! WE LOVE YOU AND ARE SENDING STRENGTH AND LOVE EVERYDAY From Tammy AND Jack	false		
111-8982890-6828265	51123426323082	2020-05-29T19:50:04+00:00	2020-05-29T12:50:04-07:00	2020-05-29T20:17:50+00:00	2020-06-04T06:59:59+00:00	-6	7zv460z7xqfcqp2@marketplace.amazon.com	Heath Slane	+1 210-728-4548 ext. 03912	ABR0022	Purchase Now for Delivery by Tuesday | Arabella Farm Direct Bouquet of 12 Fresh Cut Pink Roses with a Free Glass Vase	1	0	1	Expedited	Lola Gimbel	80 CLIFF DR			SAG HARBOR	NY	11963-1805	US		Dear Lola.....Congratulations for your hard work and graduation!!!  So proud of you....Thanks for including me...  Love You HUGE!!!...Auntie and Belle	false		
112-1189297-2622664	56387585630114	2020-05-29T19:54:51+00:00	2020-05-29T12:54:51-07:00	2020-05-29T20:21:32+00:00	2020-06-04T06:59:59+00:00	-6	nn3v3dkl8zhqlmk@marketplace.amazon.com	abraham	+1 314-282-9402 ext. 79732	ABR0022	Purchase Now for Delivery by Tuesday | Arabella Farm Direct Bouquet of 12 Fresh Cut Pink Roses with a Free Glass Vase	1	0	1	Expedited	Perla E Martinez	5135 SW HILLVIEW AVE			CORVALLIS	OR	97333-3903	US		Hello Perla Esmeralda Happy Birthday..  You deserve this and much more. Enjoy your day!.  Abraham Uribe I love you chula	true		
112-7832324-1739469	15847130905322	2020-05-29T20:08:25+00:00	2020-05-29T13:08:25-07:00	2020-05-29T20:34:31+00:00	2020-06-04T06:59:59+00:00	-6	l79gnzwvlfpb2vd@marketplace.amazon.com	gilberto guerrero	+1 314-282-9402 ext. 00972	ABR001	Purchase Now for Delivery by Tuesday | Arabella Bouquets 12 Stems of Fresh Cut Red Roses in a Free Designer Glass Vase	1	0	1	Expedited	Patricia Argibay	41 SE 5TH ST APT 1402			MIAMI	FL	33131-2546	US		CONGRATULATIONS!!! #7 is always #7	false		
113-8027705-3230621	64736360109818	2020-05-29T20:23:12+00:00	2020-05-29T13:23:12-07:00	2020-05-29T20:49:27+00:00	2020-06-04T06:59:59+00:00	-6	t8s90cr81y8936v@marketplace.amazon.com	crystal brown	+1 210-728-4548 ext. 14021	ABM002	Purchase Now for Delivery by Tuesday | Arabella Bouquets Fresh Cut White Calla Lilies in a Free Designer Glass Vase	1	0	1	Expedited	Kim Beko	7562 SE CYPRESS AVE			MILWAUKIE	OR	97267-3412	US		Happy Birthday (possibly late) you Precious Soul!   I hope these flowers make you feel loved and special!    Lv, Crissy	false		
111-3954316-1117055	50533219266642	2020-05-29T20:29:56+00:00	2020-05-29T13:29:56-07:00	2020-05-29T20:59:17+00:00	2020-06-04T06:59:59+00:00	-6	pmzjfvgfpp2m1bx@marketplace.amazon.com	Wayne King	+1 314-282-9402 ext. 63115	ABR011	Purchase Now for Delivery by Tuesday | Arabella Bouquets 18 Stems of Fresh Cut Red Roses in a Free Glass Vase	1	0	1	Expedited	Wayne King	218 Dunkirk Road			BALTIMORE	MD	21212	US			false		
114-2576404-9025828	61282269452914	2020-05-29T20:31:09+00:00	2020-05-29T13:31:09-07:00	2020-05-29T21:00:25+00:00	2020-06-04T06:59:59+00:00	-6	7s6d2phd4122xyp@marketplace.amazon.com	Charlotte Markey	+1 347-448-3190 ext. 17932	ABR0033	Purchase Now for Delivery by Tuesday | Arabella Farm Direct Bouquet of 12 Fresh Cut Orange Roses with a Free Glass Vase	1	0	1	Expedited	Ar Monica Pribuss	11 PINECREST TER			SAN MATEO	CA	94402-1068	US		Better late than never?! Happy birthday even though it’s not May. XOXO From Charlotte Markey	false		
113-5662976-8516242	27019751946322	2020-05-29T21:29:58+00:00	2020-05-29T14:29:58-07:00	2020-05-29T21:58:33+00:00	2020-06-04T06:59:59+00:00	-6	fy0k2lrtxyrphyn@marketplace.amazon.com	renee	+1 763-225-9463 ext. 30995	ABM010	Purchase Now for Delivery by Tuesday | Arabella Bouquets | Fields of The World Bouquet of Fresh Cut Flowers in a Free Designer Glass Vase	1	0	1	Expedited	Joan Rauschenberger	14980 LAKE OLIVE DR			FORT MYERS	FL	33919-8336	US		Enjoy your gift!  Happy Birthday!🎉🎁🎂 From Renee, Ashley, Brooke, Rob, Richard, Bert and Rylee	false		
111-3303307-9761043	16139536269346	2020-05-29T21:48:00+00:00	2020-05-29T14:48:00-07:00	2020-05-29T22:18:14+00:00	2020-06-04T06:59:59+00:00	-6	66zk45p3bf1d5sj@marketplace.amazon.com	thomas g bunting	+1 210-728-4548 ext. 20077	ABR0022	Purchase Now for Delivery by Tuesday | Arabella Farm Direct Bouquet of 12 Fresh Cut Pink Roses with a Free Glass Vase	1	0	1	Expedited	Dr. Thomas G. Bunting	8782 PARKVIEW OAKS CIR			OLIVE BRANCH	MS	38654-6711	US			false		
111-8899782-8869057	70359353804114	2020-05-29T22:29:52+00:00	2020-05-29T15:29:52-07:00	2020-05-29T22:55:45+00:00	2020-06-04T06:59:59+00:00	-6	r8fmc158c88rlzy@marketplace.amazon.com	Chris Alvarado	+1 347-448-3190 ext. 24089	ABM0033	Purchase Now for Delivery by Tuesday | Arabella Farm Direct Bouquet of Fresh Cut White Hydrangea with a Free Glass Vase	1	0	1	Expedited	Mrs. Pat Frescas	858 GREENBERRY DR			LA PUENTE	CA	91744-2640	US		Dear Aunt Pat, Our heartfelt condolences and prayers being sent your way during this difficult time. All our love, Dan, Marly and boys From Dan Alvarado & Family	false		
111-3874651-7041007	06863189385890	2020-05-29T23:12:03+00:00	2020-05-29T16:12:03-07:00	2020-05-29T23:38:06+00:00	2020-06-04T06:59:59+00:00	-6	9kvsjls8t2f9x0x@marketplace.amazon.com	Salvador Garza	+1 412-532-4665 ext. 74534	ABR001	Purchase Now for Delivery by Tuesday | Arabella Bouquets 12 Stems of Fresh Cut Red Roses in a Free Designer Glass Vase	1	0	1	Expedited	Elizabeth Vazquez	9125 AIRPORT BLVD STE E3			HOUSTON	TX	77061-3462	US			false		
113-0778666-9562654	46599481657530	2020-05-29T23:23:09+00:00	2020-05-29T16:23:09-07:00	2020-05-29T23:47:30+00:00	2020-06-04T06:59:59+00:00	-6	524b215474lxltr@marketplace.amazon.com	Ruscenapw	+1 210-728-4548 ext. 34385	ABR0022	Purchase Now for Delivery by Tuesday | Arabella Farm Direct Bouquet of 12 Fresh Cut Pink Roses with a Free Glass Vase	1	0	1	Expedited	Karena Rice	4817 E 3RD ST			TUCSON	AZ	85711-1242	US		Hi Karena, Hope you enjoy these! From Ruscena	false		
112-7805831-1889863	51064277771426	2020-05-29T23:31:23+00:00	2020-05-29T16:31:23-07:00	2020-05-29T23:58:43+00:00	2020-06-04T06:59:59+00:00	-6	tlkyttwn1fnqrdt@marketplace.amazon.com	Oasis Marchena	+1 763-225-9463 ext. 14906	ABR0022	Purchase Now for Delivery by Tuesday | Arabella Farm Direct Bouquet of 12 Fresh Cut Pink Roses with a Free Glass Vase	1	0	1	Expedited	Lidia Báez	535 E 182ND ST APT 8D			BRONX	NY	10457-1535	US		Feliz Día de las Madres Mamá!  La quiero mucho! From Teresa Baez	false		
111-6124358-4456254	03114835324602	2020-05-30T00:08:13+00:00	2020-05-29T17:08:13-07:00	2020-05-30T00:34:01+00:00	2020-06-04T06:59:59+00:00	-6	m9pdsbf11tp3x1c@marketplace.amazon.com	Laura Rosenthal	+1 347-448-3190 ext. 72131	ABR0022	Purchase Now for Delivery by Tuesday | Arabella Farm Direct Bouquet of 12 Fresh Cut Pink Roses with a Free Glass Vase	1	0	1	Expedited	Tami McConkey	345 WABASHA ST N STE 120			SAINT PAUL	MN	55102-1428	US		Wishing you a happy, happy birthday!  Enjoy your special day!  Love, Laura From Laura Rosenthal	false		
114-4360443-8635423	62230220683666	2020-05-30T00:05:40+00:00	2020-05-29T17:05:40-07:00	2020-05-30T00:36:25+00:00	2020-06-04T06:59:59+00:00	-6	8n3jj75c6dvkrrx@marketplace.amazon.com	Jen	+1 314-282-9402 ext. 21073	ABR0022	Purchase Now for Delivery by Tuesday | Arabella Farm Direct Bouquet of 12 Fresh Cut Pink Roses with a Free Glass Vase	1	0	1	Expedited	J DANIELS	717 INLET QUAY APT I			CHESAPEAKE	VA	23320	US			false		
114-2091382-8449032	66578657018058	2020-05-30T00:25:02+00:00	2020-05-29T17:25:02-07:00	2020-05-30T00:54:56+00:00	2020-06-04T06:59:59+00:00	-6	vsl364gt4b6xcj3@marketplace.amazon.com	Lacie Murtha	+1 210-728-4548 ext. 06952	ABR0022	Purchase Now for Delivery by Tuesday | Arabella Farm Direct Bouquet of 12 Fresh Cut Pink Roses with a Free Glass Vase	1	0	1	Expedited	Leona Thorpe	181 SEWALL ST			AUGUSTA	ME	04330-7025	US		I love you, thinking of you always From Lacie	false		
113-4085131-7463451	37268415285706	2020-05-30T00:38:54+00:00	2020-05-29T17:38:54-07:00	2020-05-30T01:00:30+00:00	2020-06-04T06:59:59+00:00	-6	8n2vx5q81tlyn6z@marketplace.amazon.com	Stephen Paine	+1 347-448-3190 ext. 67152	ABM010	Purchase Now for Delivery by Tuesday | Arabella Bouquets | Fields of The World Bouquet of Fresh Cut Flowers in a Free Designer Glass Vase	1	0	1	Expedited	Stephen Paine	1033 FAIRVIEW ROAD			ALBANY	GA	31705	US			false		
113-9116084-3317012	09644632791898	2020-05-30T00:34:11+00:00	2020-05-29T17:34:11-07:00	2020-05-30T01:02:12+00:00	2020-06-04T06:59:59+00:00	-6	q62pcn3vjz8pzqm@marketplace.amazon.com	Rose Coon	+1 412-532-4665 ext. 97448	ABR014	Purchase Now for Delivery by Tuesday | Arabella Bouquets 18 Stems of Fresh Cut White Roses in a Free Designer Glass Vase	1	0	1	Expedited	Christine Argiris	4028 N PARKSIDE AVE			CHICAGO	IL	60634-1833	US		Have a great birthday.   Will have some wine tonight, toasting you in our matching glasses From Rose Coon	false		
114-4244841-7006603	50946611376594	2020-05-30T00:37:05+00:00	2020-05-29T17:37:05-07:00	2020-05-30T01:06:08+00:00	2020-06-04T06:59:59+00:00	-6	0bsss33pt931gjn@marketplace.amazon.com	yuvraj lal	+1 347-448-3190 ext. 06092	ABR0022	Purchase Now for Delivery by Tuesday | Arabella Farm Direct Bouquet of 12 Fresh Cut Pink Roses with a Free Glass Vase	1	0	1	Expedited	Suhana Lal	330 CRESCENT VILLAGE CIR	UNIT 1426		SAN JOSE	CA	95134-3525	US		Happy birthday SL!  Hope you're having a good day! From Bhaiya and mummy	false		
111-1837354-2699432	00896951425610	2020-05-30T00:51:34+00:00	2020-05-29T17:51:34-07:00	2020-05-30T01:16:58+00:00	2020-06-04T06:59:59+00:00	-6	rbwqx6wl1ctlfcz@marketplace.amazon.com	Melanie Kitchen	+1 412-532-4665 ext. 69762	ABM010	Purchase Now for Delivery by Tuesday | Arabella Bouquets | Fields of The World Bouquet of Fresh Cut Flowers in a Free Designer Glass Vase	1	0	1	Expedited	Jennifer Kitchen	133 ALLEN LN			LEXINGTON	TN	38351-4813	US		Hope these flowers put a smile on your face honey!  Hope you are feeling better.       Love You,   Mom. xoxo.                           Your favorite flower From Mom	false		
112-1820329-8513866	37694529697690	2020-05-30T00:51:53+00:00	2020-05-29T17:51:53-07:00	2020-05-30T01:21:07+00:00	2020-06-04T06:59:59+00:00	-6	vvb20b5hkw8b76g@marketplace.amazon.com	Gary Kippel	+1 314-282-9402 ext. 50765	ABR0055	Purchase Now for Delivery by Tuesday | Arabella Farm Direct Bouquet of 12 Stems of Fresh Cut Hot Pink Roses in a Free Designer Glass Vase	1	0	1	Expedited	Jackie Spilka	2975 MARTHASVILLE TRL			CUMMING	GA	30041-3218	US		Dear Jackie, happy special birthday!! With much love, From Aunt Ronnie, Uncle Gary, and Cousin Aliza	false		
112-7283171-7357054	26504198641066	2020-05-30T01:11:21+00:00	2020-05-29T18:11:21-07:00	2020-05-30T01:41:21+00:00	2020-06-04T06:59:59+00:00	-6	f9r86939lsr7lvv@marketplace.amazon.com	Scott Whitmore	+1 210-728-4548 ext. 42438	ABR0033	Purchase Now for Delivery by Tuesday | Arabella Farm Direct Bouquet of 12 Fresh Cut Orange Roses with a Free Glass Vase	1	0	1	Expedited	Scott Lee Whitmore	21019 north county road 2180 east			Havana	Illinois	62644	US			false		
111-1096311-3481025	05608730391026	2020-05-30T01:24:49+00:00	2020-05-29T18:24:49-07:00	2020-05-30T01:52:23+00:00	2020-06-04T06:59:59+00:00	-6	bs2h7x0jt3q2dnv@marketplace.amazon.com	Janet Boetsch	+1 347-448-3190 ext. 45333	ABR0066	Purchase Now for Delivery by Tuesday | Arabella Bouquets | 12 Stems of Fresh Cut White Roses in a Free Designer Glass Vase	1	0	1	Expedited	Janet Biasi	58 MARVIN LN			ISLIP	NY	11751-4209	US		Dear Janet, Thinking of you.  You are in our hearts & prayers. Love, Janet xoxo From Janet Boetsch	false		
113-6675948-2575424	46911164155634	2020-05-30T01:57:55+00:00	2020-05-29T18:57:55-07:00	2020-05-30T02:17:13+00:00	2020-06-04T06:59:59+00:00	-6	zdtr3hghw587b0d@marketplace.amazon.com	Eric McBeth	+1 210-728-4548 ext. 02645	ABR0066	Purchase Now for Delivery by Tuesday | Arabella Bouquets | 12 Stems of Fresh Cut White Roses in a Free Designer Glass Vase	1	0	1	Expedited	Sarah	23 FURY LN NE			LUDOWICI	GA	31316-7846	US		I know this is a little late but as promised I sent you something.  You can consider it a Mother's and Father's Day gift.  I know you have to be both a lot of times.  I love you much.  I hope you still have feelings for me. From Eric McBeth	false		
112-1368759-5789800	40479465273034	2020-05-30T02:00:28+00:00	2020-05-29T19:00:28-07:00	2020-05-30T02:28:33+00:00	2020-06-04T06:59:59+00:00	-6	wgkgb1222wqg8kx@marketplace.amazon.com	Matty Mulligan	+1 210-728-4548 ext. 14379	ABR0022	Purchase Now for Delivery by Tuesday | Arabella Farm Direct Bouquet of 12 Fresh Cut Pink Roses with a Free Glass Vase	1	0	1	Expedited	Leyla Manabat	778 PINE ST			MIDDLETOWN	CT	06457-4146	US		Hi Leyla, Enjoy your gift!   I am so lucky to have a sister like you.  Love you. Matty	false		
112-0323144-0344206	57134698149210	2020-05-30T02:11:25+00:00	2020-05-29T19:11:25-07:00	2020-05-30T02:35:38+00:00	2020-06-04T06:59:59+00:00	-6	7kf22hg473bz0bq@marketplace.amazon.com	Gayle Long	+1 210-728-4548 ext. 95479	ABM002	Purchase Now for Delivery by Tuesday | Arabella Bouquets Fresh Cut White Calla Lilies in a Free Designer Glass Vase	1	0	1	Expedited	Mrs. Kelly Fisackerly	5400 PARK AVE APT 121			MEMPHIS	TN	38119-3613	US		Love and prayers, Gloria McDaneil	true		
112-1805552-2503444	22594174989018	2020-05-30T02:09:44+00:00	2020-05-29T19:09:44-07:00	2020-05-30T02:39:33+00:00	2020-06-04T06:59:59+00:00	-6	1zt3mb2cwzl0f8b@marketplace.amazon.com	phothisat daravong	+1 314-282-9402 ext. 03309	ABR0022	Purchase Now for Delivery by Tuesday | Arabella Farm Direct Bouquet of 12 Fresh Cut Pink Roses with a Free Glass Vase	1	0	1	Expedited	Anastasia Daravong	6815 SIMI PL			SAN DIEGO	CA	92139-3226	US			false		
114-7813056-1714642	30362725619050	2020-05-30T02:11:21+00:00	2020-05-29T19:11:21-07:00	2020-05-30T02:41:24+00:00	2020-06-04T06:59:59+00:00	-6	my7pt0h31q5v34j@marketplace.amazon.com	Akshar Patel	+1 347-448-3190 ext. 46614	ABR0022	Purchase Now for Delivery by Tuesday | Arabella Farm Direct Bouquet of 12 Fresh Cut Pink Roses with a Free Glass Vase	1	0	1	Expedited	Dharni rao	31 WESTBURY RD			ISELIN	NJ	08830-2413	US			false		
