order-id	order-item-id	purchase-date	payments-date	reporting-date	promise-date	days-past-promise	buyer-email	buyer-name	buyer-phone-number	sku	product-name	quantity-purchased	quantity-shipped	quantity-to-ship	ship-service-level	recipient-name	ship-address-1	ship-address-2	ship-address-3	ship-city	ship-state	ship-postal-code	ship-country	gift-wrap-type	gift-message-text	is-business-order	purchase-order-number	price-designation
112-1059264-8952253	68297992479266	2020-05-30T12:22:24+00:00	2020-05-30T05:22:24-07:00	2020-05-30T12:50:24+00:00	2020-06-02T06:59:59+00:00	-2	q6sjw74mkdsnd9w@marketplace.amazon.com	Allison Batty	+1 412-532-4665 ext. 82412	ABR0022	Purchase Now for Delivery by Tuesday | Arabella Farm Direct Bouquet of 12 Fresh Cut Pink Roses with a Free Glass Vase	1	0	1	SecondDay	Ashley Moore	2301 CASEY CV			CEDAR PARK	TX	78613-5918	US		Ashley,    We hope you will feel better soon!        Love Aunt Allison and Bobby From Allison Batty	false		
113-1310151-9913007	22695596406482	2020-05-30T13:03:11+00:00	2020-05-30T06:03:11-07:00	2020-05-30T13:03:53+00:00	2020-06-02T06:59:59+00:00	-2	3cwr68b2qlzkssw@marketplace.amazon.com	Alex Thomas	+1 347-448-3190 ext. 50596	ABR0022	Purchase Now for Delivery by Tuesday | Arabella Farm Direct Bouquet of 12 Fresh Cut Pink Roses with a Free Glass Vase	1	0	1	SecondDay	Rachel Turner	4580 W 22ND PL			YUMA	AZ	85364-7835	US		Hey sexypants! I know I’m not supposed to buy you anything but happy 50 THOUSAND subscribers! I’m so proud of you babe! What a milestone! I love you so much xox kissy kiss PS Plz take a selfie w the flowers From Your Alex	false		
114-4619161-3708235	61431179977242	2020-05-30T12:38:57+00:00	2020-05-30T05:38:57-07:00	2020-05-30T13:06:42+00:00	2020-06-02T06:59:59+00:00	-2	rdvhty65qb1p4vt@marketplace.amazon.com	eddy	+1 314-282-9402 ext. 17434	ABR0055	Purchase Now for Delivery by Wednesday | Arabella Farm Direct Bouquet of 12 Stems of Fresh Cut Hot Pink Roses in a Free Designer Glass Vase	1	0	1	SecondDay	Sharon Giuffre	24915 RIVERS EDGE RD	MILLSBORO DE 19966		MILLSBORO	DE	19966-7218	US			false		
113-9733479-3578615	63793045058818	2020-05-30T12:47:51+00:00	2020-05-30T05:47:51-07:00	2020-05-30T13:13:12+00:00	2020-06-02T06:59:59+00:00	-2	sqtwrgm6fw045rb@marketplace.amazon.com	Samantha Berman	+1 412-532-4665 ext. 27029	ABR0022	Purchase Now for Delivery by Wednesday | Arabella Farm Direct Bouquet of 12 Fresh Cut Pink Roses with a Free Glass Vase	1	0	1	SecondDay	Mary Arter	1307 FAIRLAND PL			LOUISVILLE	KY	40211-2425	US		Happy Birthday Mommy! We all love you so much. I know you will love your flowers!! From Berman Family	false		
111-1691392-6181843	05383542928706	2020-05-30T13:19:42+00:00	2020-05-30T06:19:42-07:00	2020-05-30T13:41:36+00:00	2020-06-02T06:59:59+00:00	-2	scyg6np65q1khxh@marketplace.amazon.com	Jacqueline Goodwin	+1 314-282-9402 ext. 49541	ABR0022	Purchase Now for Delivery by Wednesday | Arabella Farm Direct Bouquet of 12 Fresh Cut Pink Roses with a Free Glass Vase	1	0	1	SecondDay	Khadija  Drayton-Bey	11 OVERLOOK TER			YONKERS	NY	10701-3011	US		Hi Khadija, Cheers to your Retirement Love, Jacqui Goodwin	false		
112-5258993-8319425	48618427415946	2020-05-30T14:03:56+00:00	2020-05-30T07:03:56-07:00	2020-05-30T14:30:38+00:00	2020-06-02T06:59:59+00:00	-2	wj14x38cj8kpjkl@marketplace.amazon.com	Jeffrey Rose	+1 314-282-9402 ext. 95940	ABR0066	Purchase Now for Delivery by Wednesday | Arabella Bouquets | 12 Stems of Fresh Cut White Roses in a Free Designer Glass Vase	1	0	1	SecondDay	Brooke Hunnady	17426 HIGHLAND WAY DR			CHESTERFIELD	MO	63005-4255	US		Wishing you all good things, speedy recovery and sending all positive vibes!! Jeff and Jill From Jeff and Jill Rose	false		
113-9752115-7234657	07683380888410	2020-05-30T14:21:37+00:00	2020-05-30T07:21:37-07:00	2020-05-30T14:47:56+00:00	2020-06-02T06:59:59+00:00	-2	3dv3vkvjsdxz1tm@marketplace.amazon.com	Karen A. Silvestro	+1 347-448-3190 ext. 34138	ABR0055	Purchase Now for Delivery by Wednesday | Arabella Farm Direct Bouquet of 12 Stems of Fresh Cut Hot Pink Roses in a Free Designer Glass Vase	1	0	1	SecondDay	Mary Silvestro	4725 BELLWETHER LN RM 3			OXFORD	FL	34484-2980	US			false		
112-7905460-2342667	55067923793906	2020-05-30T14:31:51+00:00	2020-05-30T07:31:51-07:00	2020-05-30T14:59:20+00:00	2020-06-02T06:59:59+00:00	-2	wd86jwbf7vg69br@marketplace.amazon.com	LuAnn Dzura	+1 314-282-9402 ext. 25317	ABR0055	Purchase Now for Delivery by Wednesday | Arabella Farm Direct Bouquet of 12 Stems of Fresh Cut Hot Pink Roses in a Free Designer Glass Vase	1	0	1	SecondDay	Joella Hamlin	200 E MAIN ST			NORTH BALTIMORE	OH	45872-9301	US		We are thinking of you.  We love you!  Have a great day! From Mom and Andy	false		
111-6242992-4233807	26809611593602	2020-05-30T14:47:22+00:00	2020-05-30T07:47:22-07:00	2020-05-30T15:16:27+00:00	2020-06-02T06:59:59+00:00	-2	rjghjy0cv0r0zkx@marketplace.amazon.com	Nicholas McCorkel	+1 347-448-3190 ext. 42476	ABR0022	Purchase Now for Delivery by Wednesday | Arabella Farm Direct Bouquet of 12 Fresh Cut Pink Roses with a Free Glass Vase	1	0	1	SecondDay	Janell Clark	1106 VALLEY PL			WINDSOR	CO	80550-5718	US		I think of to you every day and nothing ever makes it fade. Just be happy From N	false		
112-2053263-4017824	52191112004866	2020-05-30T14:51:44+00:00	2020-05-30T07:51:44-07:00	2020-05-30T15:20:52+00:00	2020-06-02T06:59:59+00:00	-2	bc7jdyh1xfdsfbp@marketplace.amazon.com	Patra Kersey	+1 314-282-9402 ext. 83283	ABR0022	Purchase Now for Delivery by Wednesday | Arabella Farm Direct Bouquet of 12 Fresh Cut Pink Roses with a Free Glass Vase	1	0	1	SecondDay	Vicki Randall	36 OLD MILLER RD			BLUFFTON	SC	29910-5500	US		Happy Birthday Ma Vicki, Love you so very much!  Patti From Patra Kersey	false		
113-1047852-0484203	22069647307786	2020-05-30T14:52:48+00:00	2020-05-30T07:52:48-07:00	2020-05-30T15:21:34+00:00	2020-06-02T06:59:59+00:00	-2	rjpx1pljmjqkd9d@marketplace.amazon.com	kurt a kulig	+1 314-282-9402 ext. 37744	ABR001	Purchase Now for Delivery by Wednesday | Arabella Bouquets 12 Stems of Fresh Cut Red Roses in a Free Designer Glass Vase	1	0	1	SecondDay	Patricia Trevino Biederman	87 LARRICK RD			SABINA	OH	45169-9252	US		Sorry for the late birthday gift. Hope you had a great Birthday month and that everyday was special. Love you From kurt a kulig	false		
113-9633781-8010653	06464584952066	2020-05-30T14:54:47+00:00	2020-05-30T07:54:47-07:00	2020-05-30T15:22:26+00:00	2020-06-02T06:59:59+00:00	-2	9pndlkhwpmjss37@marketplace.amazon.com	Margaret	+1 347-448-3190 ext. 99485	ABR0022	Purchase Now for Delivery by Wednesday | Arabella Farm Direct Bouquet of 12 Fresh Cut Pink Roses with a Free Glass Vase	1	0	1	SecondDay	Mrs. Tamara Lovier	4420 THOMASON DR APT A			MIDLAND	TX	79703-6966	US		Happy Birthday to our beautiful daughter-in-law! Hope your day was perfect in every way! We love you! From Margaret and Frank	false		
112-0705701-2099447	53575995337394	2020-05-30T14:52:33+00:00	2020-05-30T07:52:33-07:00	2020-05-30T15:22:44+00:00	2020-06-02T06:59:59+00:00	-2	bc7jdyh1xfdsfbp@marketplace.amazon.com	Patra Kersey	+1 314-282-9402 ext. 73906	ABR0022	Purchase Now for Delivery by Wednesday | Arabella Farm Direct Bouquet of 12 Fresh Cut Pink Roses with a Free Glass Vase	1	0	1	SecondDay	Vicki Randall	36 OLD MILLER RD			BLUFFTON	SC	29910-5500	US			false		
113-3989487-4505036	18379964974482	2020-05-30T15:02:26+00:00	2020-05-30T08:02:26-07:00	2020-05-30T15:33:00+00:00	2020-06-02T06:59:59+00:00	-2	mly9lwzbvy7zk3n@marketplace.amazon.com	Janice Wilkinson	+1 347-448-3190 ext. 64917	ABR0022	Purchase Now for Delivery by Wednesday | Arabella Farm Direct Bouquet of 12 Fresh Cut Pink Roses with a Free Glass Vase	1	0	1	SecondDay	Jacquie Hogan Fahan	910 D Hope Street	9 B		STAMFORD	CT	06907-2331	US			false		
114-0846536-4416224	51339557829786	2020-05-30T15:07:43+00:00	2020-05-30T08:07:43-07:00	2020-05-30T15:38:21+00:00	2020-06-02T06:59:59+00:00	-2	pbmwvgfmylgx00m@marketplace.amazon.com	Ronald F. Cota	+1 314-282-9402 ext. 48445	ABR001	Purchase Now for Delivery by Wednesday | Arabella Bouquets 12 Stems of Fresh Cut Red Roses in a Free Designer Glass Vase	1	0	1	SecondDay	Ronald F. Cota	8400 VAMO RD APT 461			SARASOTA	FL	34231-7872	US			false		
112-6094652-7003456	17924988927738	2020-05-30T15:28:39+00:00	2020-05-30T08:28:39-07:00	2020-05-30T15:57:43+00:00	2020-06-02T06:59:59+00:00	-2	rvs44lt1q25ps8c@marketplace.amazon.com	Liam	+1 314-282-9402 ext. 25750	ABR0055	Purchase Now for Delivery by Wednesday | Arabella Farm Direct Bouquet of 12 Stems of Fresh Cut Hot Pink Roses in a Free Designer Glass Vase	1	0	1	SecondDay	Ane Arrieta	136 PROSPECT AVE			MIDDLETOWN	RI	02842-5604	US			false		
111-0937718-8965823	49517531001074	2020-05-30T15:31:00+00:00	2020-05-30T08:31:00-07:00	2020-05-30T15:59:21+00:00	2020-06-02T06:59:59+00:00	-2	zms8zpkzc53sxdt@marketplace.amazon.com	Terry Messer	+1 347-448-3190 ext. 68561	ABR0055	Purchase Now for Delivery by Wednesday | Arabella Farm Direct Bouquet of 12 Stems of Fresh Cut Hot Pink Roses in a Free Designer Glass Vase	1	0	1	SecondDay	Karen Rawlings	2127 HEMMINGWAY DR			NESBIT	MS	38651-9406	US			false		
114-7678492-6658604	10021495233850	2020-05-30T15:49:33+00:00	2020-05-30T08:49:33-07:00	2020-05-30T16:08:47+00:00	2020-06-02T06:59:59+00:00	-2	wy95kbmmq107b80@marketplace.amazon.com	mike edwards	+1 314-282-9402 ext. 36910	ABM010	Purchase Now for Delivery by Wednesday | Arabella Bouquets | Fields of The World Bouquet of Fresh Cut Flowers in a Free Designer Glass Vase	1	0	1	SecondDay	marlena griego	6263 S SUNSET LINKS DR			MURRAY	UT	84123-6528	US		Hi marlena  thanks so much for your help with Shellie Much appreciated! Mike and Tomata	false		
112-2986675-2693821	57386029849490	2020-05-30T15:43:48+00:00	2020-05-30T08:43:48-07:00	2020-05-30T16:11:29+00:00	2020-06-02T06:59:59+00:00	-2	c4tjx9ts1hjj4fp@marketplace.amazon.com	Chris	+1 314-282-9402 ext. 84611	ABR0066	Purchase Now for Delivery by Wednesday | Arabella Bouquets | 12 Stems of Fresh Cut White Roses in a Free Designer Glass Vase	1	0	1	SecondDay	Milyss	1306 FRAZIER RD			FRANKLIN	NC	28734-4661	US		For all the time we have lost. Much love, Chris From Chris	false		
114-0231809-2298673	49622839953026	2020-05-30T15:49:33+00:00	2020-05-30T08:49:33-07:00	2020-05-30T16:13:23+00:00	2020-06-02T06:59:59+00:00	-2	wy95kbmmq107b80@marketplace.amazon.com	mike edwards	+1 314-282-9402 ext. 70033	ABM010	Purchase Now for Delivery by Wednesday | Arabella Bouquets | Fields of The World Bouquet of Fresh Cut Flowers in a Free Designer Glass Vase	1	0	1	SecondDay	Amber Ryan	6749 S ENCHANTED DR			MIDVALE	UT	84047-1401	US		Hi Amber, Thanks so much for your help with Shellie. Much appreciated! Mike and Tomata	false		
111-5446684-9306641	01184097784314	2020-05-30T15:50:31+00:00	2020-05-30T08:50:31-07:00	2020-05-30T16:19:40+00:00	2020-06-02T06:59:59+00:00	-2	nk8cwckqxg4drtm@marketplace.amazon.com	Tyler Hamilton	+1 763-225-9463 ext. 40136	ABR001	Purchase Now for Delivery by Wednesday | Arabella Bouquets 12 Stems of Fresh Cut Red Roses in a Free Designer Glass Vase	1	0	1	SecondDay	Justina McDonald	1947 MARWELL BLVD			HUDSON	OH	44236-1349	US		I’m sorry 💔 From Tyler Hamilton	false		
114-0967272-2275427	36314603540466	2020-05-30T16:04:00+00:00	2020-05-30T09:04:00-07:00	2020-05-30T16:32:08+00:00	2020-06-02T06:59:59+00:00	-2	5dxd9j4zn21qpm6@marketplace.amazon.com	Jairo	+1 314-282-9402 ext. 63257	ABR0033	Purchase Now for Delivery by Wednesday | Arabella Farm Direct Bouquet of 12 Fresh Cut Orange Roses with a Free Glass Vase	1	0	1	SecondDay	Chen Jingmei	14 SUMMERFIELD PL			STATEN ISLAND	NY	10303-2117	US		Chen Xiaofen Que no dia de hoje tudo seja recompensado pelas ótimas lembranças que fizemos juntos. Feliz aniversário From Jairo	false		
112-2200834-4033837	31448837080946	2020-05-30T16:05:07+00:00	2020-05-30T09:05:07-07:00	2020-05-30T16:34:03+00:00	2020-06-02T06:59:59+00:00	-2	7hdmf2xkx1x022m@marketplace.amazon.com	Jessica Benson	+1 210-728-4548 ext. 26634	ABR0022	Purchase Now for Delivery by Wednesday | Arabella Farm Direct Bouquet of 12 Fresh Cut Pink Roses with a Free Glass Vase	1	0	1	SecondDay	Sydney Neeley	40 SE 129TH AVE			PORTLAND	OR	97233-1502	US		I am so incredibly proud of you! Your beauty (inside & out), bravery, & perseverance make you the amazing teacher that you are. Keep raising the vibrations of the planet! Love you! From Your mentor, Gina	false		
113-1066411-9285808	23897012133882	2020-05-30T16:24:16+00:00	2020-05-30T09:24:16-07:00	2020-05-30T16:48:41+00:00	2020-06-02T06:59:59+00:00	-2	zp48c0x7v0n069w@marketplace.amazon.com	Drago	+1 210-728-4548 ext. 78315	ABR0033	Purchase Now for Delivery by Wednesday | Arabella Farm Direct Bouquet of 12 Fresh Cut Orange Roses with a Free Glass Vase	1	0	1	SecondDay	Shelly Sawyer	53 PARK ST			BRANDON	VT	05733-1121	US		Hi Shelly,  I was just thinking of you and wanted to brighten your day. Sending many hugs to you!   Love, Denise From Drago	false		
112-5166379-6662641	28529401970770	2020-05-30T16:23:51+00:00	2020-05-30T09:23:51-07:00	2020-05-30T16:51:26+00:00	2020-06-02T06:59:59+00:00	-2	zq6q4ww9tvhhts5@marketplace.amazon.com	Hal Walton	+1 347-448-3190 ext. 99739	ABM010	Purchase Now for Delivery by Wednesday | Arabella Bouquets | Fields of The World Bouquet of Fresh Cut Flowers in a Free Designer Glass Vase	1	0	1	SecondDay	Nancy Hanks	104 TOMLINSON DR			FOLSOM	CA	95630-1586	US		Hi Nancy, I love you, Hal	false		
114-5934236-3937019	12501969246442	2020-05-30T16:28:52+00:00	2020-05-30T09:28:52-07:00	2020-05-30T16:55:57+00:00	2020-06-02T06:59:59+00:00	-2	y5rzbb3cf0kgd4y@marketplace.amazon.com	Kelly Anne Spillman	+1 347-448-3190 ext. 54172	ABR0055	Purchase Now for Delivery by Wednesday | Arabella Farm Direct Bouquet of 12 Stems of Fresh Cut Hot Pink Roses in a Free Designer Glass Vase	1	0	1	SecondDay	Maryellen Buchanan	31791 SCHOONER DR			MILLSBORO	DE	19966-4535	US			false		
112-2262526-0917051	58520409607162	2020-05-30T16:33:28+00:00	2020-05-30T09:33:28-07:00	2020-05-30T16:58:26+00:00	2020-06-02T06:59:59+00:00	-2	l44hcxz448r1cq9@marketplace.amazon.com	Nick chavez	+1 347-448-3190 ext. 83632	ABR0022	Purchase Now for Delivery by Wednesday | Arabella Farm Direct Bouquet of 12 Fresh Cut Pink Roses with a Free Glass Vase	1	0	1	SecondDay	Anastasia Castaneda   Chavez	130 POST AVE APT 425			NEW YORK	NY	10034-3421	US			false		
113-0966797-5558608	47072240730058	2020-05-30T16:34:14+00:00	2020-05-30T09:34:14-07:00	2020-05-30T17:04:55+00:00	2020-06-02T06:59:59+00:00	-2	rjmh9s7f1j8kwpw@marketplace.amazon.com	John/Maria	+1 347-448-3190 ext. 11903	ABR0066	Purchase Now for Delivery by Wednesday | Arabella Bouquets | 12 Stems of Fresh Cut White Roses in a Free Designer Glass Vase	1	0	1	SecondDay	John/Maria	3156 ROYAL TUSCAN LN			VALRICO	FL	33594-2604	US			false		
112-2367161-3396229	32647462334978	2020-05-30T16:44:40+00:00	2020-05-30T09:44:40-07:00	2020-05-30T17:09:55+00:00	2020-06-02T06:59:59+00:00	-2	cpq6kc3yr004g3c@marketplace.amazon.com	Andrea  Winkel	+1 347-448-3190 ext. 08906	ABR0066	Purchase Now for Delivery by Wednesday | Arabella Bouquets | 12 Stems of Fresh Cut White Roses in a Free Designer Glass Vase	1	0	1	SecondDay	Elayne Miller-Jones	832 OCEAN AVE APT 2A			BROOKLYN	NY	11226-5924	US		Happy 85th Birthday to the greatest, most fabulous, most beautiful Aunt in the world!  Love you more than you can possibly imagine! Love, kisses, and hugs, Andrea From Andrea  Winkel	false		
112-8677391-1509805	50197028413242	2020-05-30T16:43:49+00:00	2020-05-30T09:43:49-07:00	2020-05-30T17:11:35+00:00	2020-06-02T06:59:59+00:00	-2	7bfkgxzp3km3jxp@marketplace.amazon.com	sheryl	+1 347-448-3190 ext. 77872	ABR001	Purchase Now for Delivery by Wednesday | Arabella Bouquets 12 Stems of Fresh Cut Red Roses in a Free Designer Glass Vase	1	0	1	SecondDay	Ann Strawhun and Family	403 CAMERON AVE			SANTA MARIA	CA	93455-1936	US			false		
114-4553538-2658639	60181836708130	2020-05-30T16:48:00+00:00	2020-05-30T09:48:00-07:00	2020-05-30T17:16:40+00:00	2020-06-02T06:59:59+00:00	-2	ksh543csxvx3pc0@marketplace.amazon.com	ursula	+1 314-282-9402 ext. 14808	ABR0022	Purchase Now for Delivery by Wednesday | Arabella Farm Direct Bouquet of 12 Fresh Cut Pink Roses with a Free Glass Vase	1	0	1	SecondDay	Lana Hanas	3869 E LINCOLN ST			AMARGOSA VALLEY	NV	89020-4514	US		Sorry for your loss of your sister. Aunt Diane was special to all of us. We will miss our visits and memories with her. Love and Sympathy The Sengua Family From ursula	false		
114-2615297-7969853	18988006998930	2020-05-30T16:50:05+00:00	2020-05-30T09:50:05-07:00	2020-05-30T17:19:05+00:00	2020-06-02T06:59:59+00:00	-2	6px6mh6fs617sh4@marketplace.amazon.com	Michelle A Cormier	+1 347-448-3190 ext. 06295	ABM0044	Purchase Now for Delivery by Wednesday | Arabella Farm Direct Bouquet of Fresh Cut Blue Hydrangea with a Free Glass Vase	1	0	1	SecondDay	Dolores Cormier	4 COTTAGE ST APT 9			NATICK	MA	01760-5864	US		Happy Birthday Mom!  Love you.  Hope to see you soon. From Michelle	false		
111-6960455-1558603	24522440212986	2020-05-30T17:06:53+00:00	2020-05-30T10:06:53-07:00	2020-05-30T17:36:29+00:00	2020-06-02T06:59:59+00:00	-2	whn4jt822g3p7nc@marketplace.amazon.com	Dakotah	+1 210-728-4548 ext. 14392	ABR004	Arabella Farm Direct Bouquet of 12 Fresh Cut Yellow Roses with a Free Glass Vase	1	0	1	SecondDay	Dakotah Lepper	388 S SHORE TER 5			PRINCE FREDERICK	MD	20678-4809	US		Happy Birthday my love. Hope it is wonderful. Enjoy your new lamps. From Love Dakotah	false		
113-0449431-0346629	44047057250834	2020-05-30T17:10:08+00:00	2020-05-30T10:10:08-07:00	2020-05-30T17:38:40+00:00	2020-06-02T06:59:59+00:00	-2	qz0zwbsp4p04lpz@marketplace.amazon.com	Farah Siblini	+1 314-282-9402 ext. 47294	ABM010	Purchase Now for Delivery by Wednesday | Arabella Bouquets | Fields of The World Bouquet of Fresh Cut Flowers in a Free Designer Glass Vase	1	0	1	SecondDay	Ahmed Atef Abdelsalam Mohamed	2201 TREMONT ST APT C 422			PHILADELPHIA	PA	19115-5086	US		We love youu From Farah &Jasmin	false		
112-3445060-1209047	69974620063826	2020-05-30T17:14:13+00:00	2020-05-30T10:14:13-07:00	2020-05-30T17:43:03+00:00	2020-06-02T06:59:59+00:00	-2	5zm83k2yjfg5tw9@marketplace.amazon.com	Jim Thibodeau	+1 347-448-3190 ext. 70388	ABM010	Purchase Now for Delivery by Wednesday | Arabella Bouquets | Fields of The World Bouquet of Fresh Cut Flowers in a Free Designer Glass Vase	1	0	1	SecondDay	Theresa Grabowski	1558 CHELSEA CIR			HOWELL	MI	48843-7105	US		Hi, just wanted to give you a smile today :)  Jim From Jim Thibodeau	false		
112-4372082-5469802	42376748907698	2020-05-30T17:15:59+00:00	2020-05-30T10:15:59-07:00	2020-05-30T17:45:48+00:00	2020-06-02T06:59:59+00:00	-2	88h46md32p0m34r@marketplace.amazon.com	David Bishop	+1 763-225-9463 ext. 97189	ABR0022	Purchase Now for Delivery by Wednesday | Arabella Farm Direct Bouquet of 12 Fresh Cut Pink Roses with a Free Glass Vase	1	0	1	SecondDay	David J Bishop	16 Natural Drive	#1558		East Orleans	MA	02643-1558	US			false		
114-6176222-9857046	31115021179538	2020-05-30T17:34:39+00:00	2020-05-30T10:34:39-07:00	2020-05-30T17:59:57+00:00	2020-06-02T06:59:59+00:00	-2	93j76c6lxbskw2x@marketplace.amazon.com	Joe Jacquinto	+1 314-282-9402 ext. 55703	ABM010	Purchase Now for Delivery by Wednesday | Arabella Bouquets | Fields of The World Bouquet of Fresh Cut Flowers in a Free Designer Glass Vase	1	0	1	SecondDay	Shayna Carnevale	240 GUILFORD RD			FAIRLESS HILLS	PA	19030-1312	US		For a special girl for no special reason, other than being awesome....Enjoy! From Joe Jacquinto	false		
112-9866419-0426664	17572821070178	2020-05-30T17:35:53+00:00	2020-05-30T10:35:53-07:00	2020-05-30T18:05:05+00:00	2020-06-02T06:59:59+00:00	-2	z3jvr51f7hty6rv@marketplace.amazon.com	Laura Machon	+1 347-448-3190 ext. 76826	ABM010	Purchase Now for Delivery by Wednesday | Arabella Bouquets | Fields of The World Bouquet of Fresh Cut Flowers in a Free Designer Glass Vase	1	0	1	SecondDay	Mary G. Bowers	9659 MANASSAS DR PARK PLACE	APT 423		MANASSAS PARK	VA	20111-8037	US		Happy Birthday, Ma Enjoy your gift! From The Machons	false		
113-0586760-4210640	50635906262546	2020-05-30T17:41:26+00:00	2020-05-30T10:41:26-07:00	2020-05-30T18:06:25+00:00	2020-06-02T06:59:59+00:00	-2	gw490ddj03h4pw6@marketplace.amazon.com	c s rao	+1 347-448-3190 ext. 02010	ABR0022	Purchase Now for Delivery by Wednesday | Arabella Farm Direct Bouquet of 12 Fresh Cut Pink Roses with a Free Glass Vase	1	0	1	SecondDay	CHALLA VENNELA	8738 126TH AVE NE			KIRKLAND	WA	98033-5906	US		A very beautiful happy and pleasant birthday 🎂 😊 ❤ lots and lots of love kisses and hugs to you. From Amma and Nanna	false		
114-1272852-9406640	50049526226498	2020-05-30T17:39:36+00:00	2020-05-30T10:39:36-07:00	2020-05-30T18:09:26+00:00	2020-06-02T06:59:59+00:00	-2	05cysscjskrs5q2@marketplace.amazon.com	BOB WALKER	+1 210-728-4548 ext. 91704	ABR0055	Purchase Now for Delivery by Wednesday | Arabella Farm Direct Bouquet of 12 Stems of Fresh Cut Hot Pink Roses in a Free Designer Glass Vase	1	0	1	SecondDay	Darra-Lee Walker	3510 RIVER OAKS BLVD APT 3012	APARTMENT 3012		ROCHESTER HILLS	MI	48309-2798	US			false		
112-9618197-1274643	33967200131906	2020-05-30T17:40:48+00:00	2020-05-30T10:40:48-07:00	2020-05-30T18:09:50+00:00	2020-06-02T06:59:59+00:00	-2	cv40sps75lyg3vk@marketplace.amazon.com	Duane Falls	+1 210-728-4548 ext. 02403	ABR0022	Purchase Now for Delivery by Wednesday | Arabella Farm Direct Bouquet of 12 Fresh Cut Pink Roses with a Free Glass Vase	1	0	1	SecondDay	Duane Falls	198 SHADOW VALLEY DR			REEDS SPRING	MO	65737-7585	US		Love you so much !!! You drive me crazy but never a dull moment. From Duane Falls	false		
113-2752393-9081065	65947394944850	2020-05-30T17:42:37+00:00	2020-05-30T10:42:37-07:00	2020-05-30T18:11:38+00:00	2020-06-02T06:59:59+00:00	-2	jywtxtx33wqbq7z@marketplace.amazon.com	Samantha Latawski	+1 210-728-4548 ext. 12902	ABR0033	Purchase Now for Delivery by Wednesday | Arabella Farm Direct Bouquet of 12 Fresh Cut Orange Roses with a Free Glass Vase	1	0	1	SecondDay	Elizabeth Skibo	5170 N STATE ROUTE 741			SPRINGBORO	OH	45066-7738	US			false		
113-5813020-4548231	52849723736994	2020-05-30T17:56:32+00:00	2020-05-30T10:56:32-07:00	2020-05-30T18:18:19+00:00	2020-06-02T06:59:59+00:00	-2	cbzz7r5tq92dcqd@marketplace.amazon.com	Stina Anastacio	+1 347-448-3190 ext. 40749	ABB013	Arabella Bouquets | 24 Stems of Fresh Cut White Roses in a Free Designer Glass Vase	1	0	1	SecondDay	Reynaldo Anastacio	62 SUNSET AVE			SOUTH PORTLAND	MAINE	04106-6124	US		Welcome Back to the USA Mom and Dad. Hope you are settling back ok during the Pandemic. Love You BOTH Always. Belated Mother’s Day Mom & Early Happy Father’s Day Dad! From Renan Anastacio & Family	false		
111-5255992-8483403	35496375774706	2020-05-30T17:51:46+00:00	2020-05-30T10:51:46-07:00	2020-05-30T18:19:26+00:00	2020-06-02T06:59:59+00:00	-2	95pckz5fl2tz0c8@marketplace.amazon.com	LINDA D. PETERSON	+1 347-448-3190 ext. 97141	ABR0022	Purchase Now for Delivery by Wednesday | Arabella Farm Direct Bouquet of 12 Fresh Cut Pink Roses with a Free Glass Vase	1	0	1	SecondDay	Patricia A. Crow	7 HIGHLAND PARK RD			RUTLAND	MA	01543-1741	US		HAPPY BIRTHDAY MOM!!   LOVE, LINDA, MILO, MACY, BARNEY & CHARLIE	false		
114-6076097-1421009	47113153077450	2020-05-30T17:53:05+00:00	2020-05-30T10:53:05-07:00	2020-05-30T18:23:33+00:00	2020-06-02T06:59:59+00:00	-2	6nprygzzcb1kqct@marketplace.amazon.com	Angela Viola	+1 314-282-9402 ext. 04122	ABR0022	Purchase Now for Delivery by Wednesday | Arabella Farm Direct Bouquet of 12 Fresh Cut Pink Roses with a Free Glass Vase	1	0	1	SecondDay	Kathy Viola	25 SABLE LOOP			STATEN ISLAND	NY	10306-6300	US			false		
114-6962246-2851455	37054692766698	2020-05-30T17:57:34+00:00	2020-05-30T10:57:34-07:00	2020-05-30T18:24:43+00:00	2020-06-02T06:59:59+00:00	-2	jzqls1f6dg79b6d@marketplace.amazon.com	Sarah Flohr	+1 347-448-3190 ext. 54807	ABR0055	Purchase Now for Delivery by Wednesday | Arabella Farm Direct Bouquet of 12 Stems of Fresh Cut Hot Pink Roses in a Free Designer Glass Vase	1	0	1	SecondDay	Leila Perez	16183 E 53RD PL			DENVER	CO	80239-6492	US		Leila, I am so proud of you! Next year you’re going to kick high school’s butt. From Sarah Flohr	false		
114-9249784-5906658	14916125299474	2020-05-30T17:57:49+00:00	2020-05-30T10:57:49-07:00	2020-05-30T18:25:58+00:00	2020-06-02T06:59:59+00:00	-2	gy9t7574755nkw7@marketplace.amazon.com	Debra Colvin	+1 347-448-3190 ext. 82813	ABM010	Purchase Now for Delivery by Wednesday | Arabella Bouquets | Fields of The World Bouquet of Fresh Cut Flowers in a Free Designer Glass Vase	1	0	1	SecondDay	Gerd  Guiberson	80 MOCKINGBIRD LN			PORT LUDLOW	WA	98365-9759	US		We hope you are feeling better soon! We love you. Dan & Deb From Debra Colvin	false		
112-2239073-4726640	35191166538330	2020-05-30T18:20:18+00:00	2020-05-30T11:20:18-07:00	2020-05-30T18:47:22+00:00	2020-06-02T06:59:59+00:00	-2	tx0msz8xng9ctg3@marketplace.amazon.com	Britney N Kelley	+1 347-448-3190 ext. 23135	ABR0055	Purchase Now for Delivery by Wednesday | Arabella Farm Direct Bouquet of 12 Stems of Fresh Cut Hot Pink Roses in a Free Designer Glass Vase	1	0	1	SecondDay	Ashlee Gierszewski	10650 N INDIAN WELLS DR			FOUNTAIN HILLS	AZ	85268-5746	US		Abbey you are brave. From Love PA	false		
111-6300782-2281811	22100182657162	2020-05-30T18:36:11+00:00	2020-05-30T11:36:11-07:00	2020-05-30T19:03:43+00:00	2020-06-02T06:59:59+00:00	-2	66w5nn4l8b2sd7k@marketplace.amazon.com	Nancy	+1 347-448-3190 ext. 12737	ABR0066	Purchase Now for Delivery by Wednesday | Arabella Bouquets | 12 Stems of Fresh Cut White Roses in a Free Designer Glass Vase	1	0	1	SecondDay	Audrey Piraneo	107 THORNBIRD DR			RAEFORD	NC	28376-9269	US		Dearest Audrey, Prayers Ascending for your healing!  I wish you a speedy recovery. From Love , Nancy xxxx	false		
114-0450601-9912232	69207239180194	2020-05-30T18:38:49+00:00	2020-05-30T11:38:49-07:00	2020-05-30T19:08:39+00:00	2020-06-02T06:59:59+00:00	-2	jlpy6p1p6k01tsk@marketplace.amazon.com	jacob meyer	+1 314-282-9402 ext. 88210	ABR001	Purchase Now for Delivery by Wednesday | Arabella Bouquets 12 Stems of Fresh Cut Red Roses in a Free Designer Glass Vase	1	0	1	SecondDay	Gabrielle	5117 E WOODGLEN CT MEAD WA 99021			MEAD	WA	99021-9433	US			false		
111-4360150-5023426	18249690184154	2020-05-30T18:39:57+00:00	2020-05-30T11:39:57-07:00	2020-05-30T19:08:47+00:00	2020-06-02T06:59:59+00:00	-2	glnjh28bdgj150d@marketplace.amazon.com	Rabecca Wiseman	+1 347-448-3190 ext. 73273	ABR0022	Purchase Now for Delivery by Wednesday | Arabella Farm Direct Bouquet of 12 Fresh Cut Pink Roses with a Free Glass Vase	1	0	1	SecondDay	Debbie Karunaratne	1704 NW 174TH ST			EDMOND	OK	73012-6963	US		Happy birthday! We love you so much! Relax and enjoy your special day! From Evan Rabecca Sam Sophie &Sangria	false		
111-5842494-8248233	52099728303170	2020-05-30T18:48:14+00:00	2020-05-30T11:48:14-07:00	2020-05-30T19:14:35+00:00	2020-06-02T06:59:59+00:00	-2	glnjh28bdgj150d@marketplace.amazon.com	Rabecca Wiseman	+1 347-448-3190 ext. 21899	ABB013	Arabella Bouquets | 24 Stems of Fresh Cut White Roses in a Free Designer Glass Vase	1	0	1	SecondDay	Grandma Wilkerson	849 COUNTY STREET 2930			TUTTLE	OK	73089-3040	US		Happy birthday to the most fabulous matriarch!! You have exemplified strength, beauty, and grace to all in our family. We are so blessed to have you as a grandma! From Rabecca and Evan	false		
114-0987015-1393036	66810689073658	2020-05-30T18:47:45+00:00	2020-05-30T11:47:45-07:00	2020-05-30T19:16:39+00:00	2020-06-02T06:59:59+00:00	-2	b15f3rsgb867k4h@marketplace.amazon.com	Siri-Gian Khalsa	+1 347-448-3190 ext. 30214	ABM010	Purchase Now for Delivery by Wednesday | Arabella Bouquets | Fields of The World Bouquet of Fresh Cut Flowers in a Free Designer Glass Vase	1	0	1	SecondDay	Virginia & Thomas Browning--Helen!!	4305 Indian Oaks			Round Rock,	TX	78681	US			false		
114-7303664-8965828	63545915878178	2020-05-30T18:57:28+00:00	2020-05-30T11:57:28-07:00	2020-05-30T19:27:15+00:00	2020-06-02T06:59:59+00:00	-2	t77t19mzwfhcvjn@marketplace.amazon.com	Emily Acevedo	+1 314-282-9402 ext. 64286	ABM010	Purchase Now for Delivery by Wednesday | Arabella Bouquets | Fields of The World Bouquet of Fresh Cut Flowers in a Free Designer Glass Vase	1	0	1	SecondDay	Veronica Ashley	2390 FAIRBURN RD LOT 219-A			DOUGLASVILLE	GA	30135-1457	US		Happy Birthday!!! From Emmy, Seby & Astrid	false		
111-7862351-8578663	31781978086626	2020-05-30T19:00:48+00:00	2020-05-30T12:00:48-07:00	2020-05-30T19:30:49+00:00	2020-06-02T06:59:59+00:00	-2	c2j2cv607sr1rs8@marketplace.amazon.com	raman rampal	858213596	ABR0022	Purchase Now for Delivery by Wednesday | Arabella Farm Direct Bouquet of 12 Fresh Cut Pink Roses with a Free Glass Vase	1	0	1	SecondDay	liz clark rr	709 STRATFORD DR			PHILADELPHIA	PA	19115-2819	US		Happy Birthday my love! Raman From raman rampal	false		
111-5401302-0838616	15385242996706	2020-05-30T19:05:50+00:00	2020-05-30T12:05:50-07:00	2020-05-30T19:36:27+00:00	2020-06-02T06:59:59+00:00	-2	dzv1c4j30f8277n@marketplace.amazon.com	Sheetal Patel	+1 347-448-3190 ext. 48079	ABR0022	Purchase Now for Delivery by Wednesday | Arabella Farm Direct Bouquet of 12 Fresh Cut Pink Roses with a Free Glass Vase	1	0	1	SecondDay	Sneha Patel	344 WESTBROOK LN			POOLER	GA	31322-9605	US			false		
112-1915316-7837841	20407924791866	2020-05-30T19:32:51+00:00	2020-05-30T12:32:51-07:00	2020-05-30T20:03:28+00:00	2020-06-02T06:59:59+00:00	-2	yh2mpl3m56ffdkr@marketplace.amazon.com	Colin A Haley	+1 347-448-3190 ext. 78926	ABM010	Purchase Now for Delivery by Wednesday | Arabella Bouquets | Fields of The World Bouquet of Fresh Cut Flowers in a Free Designer Glass Vase	1	0	1	SecondDay	Brandi Johansen	2306 N 178TH ST			OMAHA	NE	68116-2255	US			false		
114-4177236-2281805	32463493147770	2020-05-30T19:35:42+00:00	2020-05-30T12:35:42-07:00	2020-05-30T20:04:38+00:00	2020-06-02T06:59:59+00:00	-2	nf12jz36zp7nnmj@marketplace.amazon.com	Kim Salera	+1 347-448-3190 ext. 85568	ABM010	Purchase Now for Delivery by Wednesday | Arabella Bouquets | Fields of The World Bouquet of Fresh Cut Flowers in a Free Designer Glass Vase	1	0	1	SecondDay	Beverly Salera	605 RED MAPLE RD			MIDDLETOWN	DE	19709-8683	US		Happy Birthday!  Wishing you a wonderful day! Love,  Craig, Kim, Cory & Ethan From Kim Salera	false		
111-9923840-5013022	39802783822530	2020-05-30T19:35:50+00:00	2020-05-30T12:35:50-07:00	2020-05-30T20:06:26+00:00	2020-06-02T06:59:59+00:00	-2	jhgkhw866sy6ht7@marketplace.amazon.com	Dawn Sabatello	+1 314-282-9402 ext. 98859	ABR015	Purchase Now for Delivery by Wednesday | Arabella Farm Direct Bouquet of 18 Fresh Cut Orange Roses with a Free Glass Vase	1	0	1	SecondDay	Dawn Sabatello	5002 WHISPERING HOLW			PALM BEACH GARDENS	FL	33418-3536	US			false		
111-9923840-5013022	08725307175034	2020-05-30T19:35:50+00:00	2020-05-30T12:35:50-07:00	2020-05-30T20:06:26+00:00	2020-06-02T06:59:59+00:00	-2	jhgkhw866sy6ht7@marketplace.amazon.com	Dawn Sabatello	+1 314-282-9402 ext. 98859	ABM0033	Purchase Now for Delivery by Wednesday | Arabella Farm Direct Bouquet of Fresh Cut White Hydrangea with a Free Glass Vase	1	0	1	SecondDay	Dawn Sabatello	5002 WHISPERING HOLW			PALM BEACH GARDENS	FL	33418-3536	US			false		
114-1313652-1188201	40459321443746	2020-05-30T19:12:05+00:00	2020-05-30T12:12:05-07:00	2020-05-30T20:17:18+00:00	2020-06-02T06:59:59+00:00	-2	8vl8qg4z8rk8tnc@marketplace.amazon.com	Ibram issa	+1 347-448-3190 ext. 91410	ABR001	Purchase Now for Delivery by Wednesday | Arabella Bouquets 12 Stems of Fresh Cut Red Roses in a Free Designer Glass Vase	1	0	1	SecondDay	Lance ostrowski	823 DEVON AVE PARK RIDGE			PARK RIDGE	IL	60068-4736	US			false		
111-7367444-0376207	32879483585570	2020-05-30T19:57:37+00:00	2020-05-30T12:57:37-07:00	2020-05-30T20:27:09+00:00	2020-06-02T06:59:59+00:00	-2	cpzgnnsr80lwjbx@marketplace.amazon.com	Kristine		ABR0022	Purchase Now for Delivery by Wednesday | Arabella Farm Direct Bouquet of 12 Fresh Cut Pink Roses with a Free Glass Vase	1	0	1	SecondDay	Brian and Tyler Nims	32410 7 MILE LN			TANGENT	OR	97389-9773	US		So proud of our new Grad! Congratulations Paytie! Love, Aunt Kristine From Kristine	false		
111-2937136-2699453	04351147962298	2020-05-30T20:09:12+00:00	2020-05-30T13:09:12-07:00	2020-05-30T20:35:01+00:00	2020-06-02T06:59:59+00:00	-2	10dmf2dkfcg70bk@marketplace.amazon.com	Grace Tu	+1 763-225-9463 ext. 15194	ABR0022	Purchase Now for Delivery by Wednesday | Arabella Farm Direct Bouquet of 12 Fresh Cut Pink Roses with a Free Glass Vase	1	0	1	SecondDay	Hongyee Luk	8300 BRYN GLEN WAY			SAN DIEGO	CA	92129-4467	US		Happy Birthday, Maria!! Hope to see you soon! I miss you! From Grace Tu	false		
111-9938557-3105000	65431565858650	2020-05-30T20:10:38+00:00	2020-05-30T13:10:38-07:00	2020-05-30T20:40:26+00:00	2020-06-02T06:59:59+00:00	-2	qhjwc0ktz7c58f2@marketplace.amazon.com	Andy Arey	+1 210-728-4548 ext. 13574	ABR004	Arabella Farm Direct Bouquet of 12 Fresh Cut Yellow Roses with a Free Glass Vase	1	0	1	SecondDay	Katie Jansen	7551 BRIDGE POINT PASS			CINCINNATI	OH	45248-1927	US			false		
112-5952751-8259447	11967092449938	2020-05-30T20:37:06+00:00	2020-05-30T13:37:06-07:00	2020-05-30T21:03:55+00:00	2020-06-02T06:59:59+00:00	-2	kjl0gycsjlf468j@marketplace.amazon.com	Angela & Eric Harral	+1 347-448-3190 ext. 46170	ABM010	Purchase Now for Delivery by Wednesday | Arabella Bouquets | Fields of The World Bouquet of Fresh Cut Flowers in a Free Designer Glass Vase	1	0	1	SecondDay	Taylor Redfearn	1608 W SHORE DR			RICHARDSON	TX	75080-3017	US		Hope your day is fantastic! Happy Birthday, Tay Love, Mom!	false		
113-9198972-8080209	42749840953890	2020-05-30T20:41:59+00:00	2020-05-30T13:41:59-07:00	2020-05-30T21:07:44+00:00	2020-06-02T06:59:59+00:00	-2	nr9zy432df8yp5r@marketplace.amazon.com	Patrick Holden	+1 314-282-9402 ext. 57923	ABM010	Purchase Now for Delivery by Wednesday | Arabella Bouquets | Fields of The World Bouquet of Fresh Cut Flowers in a Free Designer Glass Vase	1	0	1	SecondDay	Diane Haupert	801 Capitol Way South			Olympia	WA	98501	US		Hi Diane,  We are so sorry to hear of your father's passing.  Our sincere thoughts and prayers are with you and your family.   Kindest regards, Deb and Pat Holden	false		
111-0328065-1171446	37477144476314	2020-05-30T20:41:38+00:00	2020-05-30T13:41:38-07:00	2020-05-30T21:10:36+00:00	2020-06-02T06:59:59+00:00	-2	9rymgl1trbctw13@marketplace.amazon.com	Bonnadeene Trimble	+1 314-282-9402 ext. 46600	ABM010	Purchase Now for Delivery by Wednesday | Arabella Bouquets | Fields of The World Bouquet of Fresh Cut Flowers in a Free Designer Glass Vase	1	0	1	SecondDay	Mrs. Evans	13169 SHADOW WOOD PL MOORPARK			MOORPARK	CA	93021-1188	US		Happy Belated Birthday my sweet girl. I love you so much. Love Bonnadeene and Brian From Bonnadeene Trimble	false		
111-2998828-2960241	15182655422978	2020-05-30T20:50:38+00:00	2020-05-30T13:50:38-07:00	2020-05-30T21:16:43+00:00	2020-06-02T06:59:59+00:00	-2	96zvckhpx3j6f38@marketplace.amazon.com	jess toby	+1 210-728-4548 ext. 89702	ABR004	Arabella Farm Direct Bouquet of 12 Fresh Cut Yellow Roses with a Free Glass Vase	1	0	1	SecondDay	Natalie Schwirzke	460 DRY CREEK RD			MONTEREY	CA	93940-4234	US		Happy Birthday! From Anonymous	false		
112-0079767-8800276	50821149505906	2020-05-30T19:00:32+00:00	2020-05-30T12:00:32-07:00	2020-05-30T21:16:53+00:00	2020-06-02T06:59:59+00:00	-2	ztg2jmc5kbdbr8c@marketplace.amazon.com	Armon Carter	+1 347-448-3190 ext. 12710	ABR012	Purchase Now for Delivery by Wednesday | Arabella Farm Direct Bouquet of 18 Fresh Cut Pink Roses with a Free Glass Vase	1	0	1	SecondDay	Armon Clement	5801 RICHWOOD ST APT 33			LANSING	MI	48911-5258	US			false		
113-3717664-3278635	07595331100154	2020-05-30T21:03:32+00:00	2020-05-30T14:03:32-07:00	2020-05-30T21:29:27+00:00	2020-06-02T06:59:59+00:00	-2	1rypg103qwxdvsk@marketplace.amazon.com	Angela Chavez	+1 347-448-3190 ext. 50188	ABR0033	Purchase Now for Delivery by Wednesday | Arabella Farm Direct Bouquet of 12 Fresh Cut Orange Roses with a Free Glass Vase	1	0	1	SecondDay	Cheryl Coffman	208 N MAY ST			GUYMON	OK	73942-5350	US		We hope you are well soon! We love and miss you. Love from Angie and Paul & Tony and Chanda From Chavez/Daggs	false		
114-2521432-5457817	13858510522146	2020-05-30T21:08:29+00:00	2020-05-30T14:08:29-07:00	2020-05-30T21:36:12+00:00	2020-06-02T06:59:59+00:00	-2	33022q7tvxfn4y3@marketplace.amazon.com	William Radtke	+1 347-448-3190 ext. 61034	ABR0022	Purchase Now for Delivery by Wednesday | Arabella Farm Direct Bouquet of 12 Fresh Cut Pink Roses with a Free Glass Vase	1	0	1	SecondDay	William Radtke	490 SAILFISH DR E			ATLANTIC BEACH	FL	32233-4133	US			false		
112-7413087-7589804	51942143545234	2020-05-30T21:13:35+00:00	2020-05-30T14:13:35-07:00	2020-05-30T21:38:40+00:00	2020-06-02T06:59:59+00:00	-2	g6cvf3j3gcytsl6@marketplace.amazon.com	Margaret Scholnik	+1 314-282-9402 ext. 96928	ABR0022	Purchase Now for Delivery by Wednesday | Arabella Farm Direct Bouquet of 12 Fresh Cut Pink Roses with a Free Glass Vase	1	0	1	SecondDay	Ms Lily Scholnik	1412 WOODMAN AVE			SILVER SPRING	MD	20902-3905	US		Hope you are back on your feet soon. Crutches are no fun. From Gram & Gramps	false		
112-1466433-5369852	59257267229618	2020-05-30T21:11:34+00:00	2020-05-30T14:11:34-07:00	2020-05-30T21:39:12+00:00	2020-06-02T06:59:59+00:00	-2	fyf9mqjwxr4v4bc@marketplace.amazon.com	Mariam Karadjian	+1 314-282-9402 ext. 85879	ABM010	Purchase Now for Delivery by Wednesday | Arabella Bouquets | Fields of The World Bouquet of Fresh Cut Flowers in a Free Designer Glass Vase	1	0	1	SecondDay	Haroutun Karadjian	11423 TAMPA AVE UNIT 130			PORTER RANCH	CA	91326-1734	US		Dear Heghinug, Congratulations on your new child Daniel! We love you! From Mamulik & Derayrig	false		
113-4129087-9372206	26701907134578	2020-05-30T21:13:59+00:00	2020-05-30T14:13:59-07:00	2020-05-30T21:42:02+00:00	2020-06-02T06:59:59+00:00	-2	5ykcvpjqqv0nbfn@marketplace.amazon.com	Raymond C Saucy	+1 347-448-3190 ext. 48296	ABR0033	Purchase Now for Delivery by Wednesday | Arabella Farm Direct Bouquet of 12 Fresh Cut Orange Roses with a Free Glass Vase	1	0	1	SecondDay	Brock & Jessi Saucy	160 PARKSIDE AVE APT 15C			BROOKLYN	NEW YORK	11226-1248	US			false		
112-1824539-2579457	29773840201026	2020-05-30T21:19:34+00:00	2020-05-30T14:19:34-07:00	2020-05-30T21:47:07+00:00	2020-06-02T06:59:59+00:00	-2	yjrp32j6441pps4@marketplace.amazon.com	Dan Collins	+1 347-448-3190 ext. 67880	ABR0022	Purchase Now for Delivery by Wednesday | Arabella Farm Direct Bouquet of 12 Fresh Cut Pink Roses with a Free Glass Vase	1	0	1	SecondDay	Kelly Kubera	106 SUNRISE LN			VENETIA	PA	15367-1370	US		Happy birthday Kelly!! :) xoxo From Collins Family	false		
111-9235413-4843405	56805735522994	2020-05-30T21:46:05+00:00	2020-05-30T14:46:05-07:00	2020-05-30T22:15:15+00:00	2020-06-02T06:59:59+00:00	-2	9vjntx1vnvp7yjm@marketplace.amazon.com	Arvind Ravi	+1 412-532-4665 ext. 35525	ABR0022	Purchase Now for Delivery by Wednesday | Arabella Farm Direct Bouquet of 12 Fresh Cut Pink Roses with a Free Glass Vase	1	0	1	SecondDay	Allison Tuma	8 WHITTIER PL APT 2A			BOSTON	MA	02114-1410	US		Hope your next year is filled with new recipes, exotic escapes, and more taking over the world...  Warmly, (One of your many) secret admirers.	false		
111-0697438-1121059	26293603899130	2020-05-30T21:50:52+00:00	2020-05-30T14:50:52-07:00	2020-05-30T22:19:55+00:00	2020-06-02T06:59:59+00:00	-2	9l732db8x8j829v@marketplace.amazon.com	Malvi Savani	+1 347-448-3190 ext. 31847	ABR0033	Purchase Now for Delivery by Wednesday | Arabella Farm Direct Bouquet of 12 Fresh Cut Orange Roses with a Free Glass Vase	1	0	1	SecondDay	Arti Aunty and Pankaj Uncle	1745 OLD HICKORY BLVD			BRENTWOOD	TN	37027-4040	US		Thank you so much, Aarti Aunty and Pankaj Uncle, for everything you have done in making our wedding weekend so special for me and Neil!  We love you!! From Malvi and Neil	false		
114-1835652-6026661	02909309264498	2020-05-30T22:13:51+00:00	2020-05-30T15:13:51-07:00	2020-05-30T22:43:53+00:00	2020-06-02T06:59:59+00:00	-2	fzyh33bvk8g3f46@marketplace.amazon.com	Dennis De Paz	+1 763-225-9463 ext. 71445	ABR0022	Purchase Now for Delivery by Wednesday | Arabella Farm Direct Bouquet of 12 Fresh Cut Pink Roses with a Free Glass Vase	1	0	1	SecondDay	Cindy Cisneros	240 NE 38TH ST APT 12			OAKLAND PARK	FL	33334-1241	US			false		
112-5705400-0627436	69351866639570	2020-05-30T22:15:38+00:00	2020-05-30T15:15:38-07:00	2020-05-30T22:46:08+00:00	2020-06-02T06:59:59+00:00	-2	78v0c2v4sys3fhy@marketplace.amazon.com	Michael Handing	+1 347-448-3190 ext. 41279	ABR0055	Purchase Now for Delivery by Wednesday | Arabella Farm Direct Bouquet of 12 Stems of Fresh Cut Hot Pink Roses in a Free Designer Glass Vase	1	0	1	SecondDay	Michael Handing	6245 BIRMINGHAM ST			CHICAGO RIDGE	IL	60415-1532	US			false		
112-4596668-6221039	34576651337586	2020-05-30T22:23:20+00:00	2020-05-30T15:23:20-07:00	2020-05-30T22:52:21+00:00	2020-06-02T06:59:59+00:00	-2	2flvk7g5qrkj0s7@marketplace.amazon.com	Paul Puglisi	+1 314-282-9402 ext. 10241	ABR0022	Purchase Now for Delivery by Wednesday | Arabella Farm Direct Bouquet of 12 Fresh Cut Pink Roses with a Free Glass Vase	1	0	1	SecondDay	Leigh Lynch	2905 NOYES AVE			CHARLESTON	WV	25304-1107	US		Happy Birthday! From Paul Puglisi	false		
111-3380346-0276252	28507543421722	2020-05-30T22:34:13+00:00	2020-05-30T15:34:13-07:00	2020-05-30T23:01:35+00:00	2020-06-02T06:59:59+00:00	-2	54zh21htq8w64x1@marketplace.amazon.com	Debbie	+1 210-728-4548 ext. 18092	ABM010	Purchase Now for Delivery by Wednesday | Arabella Bouquets | Fields of The World Bouquet of Fresh Cut Flowers in a Free Designer Glass Vase	1	0	1	SecondDay	Judy Jarret	129 BIG BEND DR			WHITNEY	TX	76692-2277	US		Thinking of you! Much love From Debbie, Mike,  Reagan & kids, Becky,  Matt & kids From Debbie, Mike,  Reagan & kids, Becky,  Matt & kids	false		
113-5070763-8260231	08252312983322	2020-05-30T22:35:14+00:00	2020-05-30T15:35:14-07:00	2020-05-30T23:02:10+00:00	2020-06-02T06:59:59+00:00	-2	7sysghhb7nwhnpv@marketplace.amazon.com	Austin Branch	+1 314-282-9402 ext. 83806	ABR0022	Purchase Now for Delivery by Wednesday | Arabella Farm Direct Bouquet of 12 Fresh Cut Pink Roses with a Free Glass Vase	1	0	1	SecondDay	Austin Branch	13327 SUNSET RAINBOW			SAN ANTONIO	TX	78245-3431	US		I hope you like these Miss Henderson. Specially ordered for you.  -From Austin From Austin Branch	false		
114-8579169-2309058	08906321065434	2020-05-30T22:35:57+00:00	2020-05-30T15:35:57-07:00	2020-05-30T23:06:38+00:00	2020-06-02T06:59:59+00:00	-2	gvnwqyxhrj94kp8@marketplace.amazon.com	Joseph aguiar	+1 314-282-9402 ext. 04495	ABR0033	Purchase Now for Delivery by Wednesday | Arabella Farm Direct Bouquet of 12 Fresh Cut Orange Roses with a Free Glass Vase	1	0	1	SecondDay	Joseph aguiar	1400 sw131 way	310q		Pennbroke pines	Florida	33027	US			false		
111-0083871-3767420	28699402732378	2020-05-30T22:46:35+00:00	2020-05-30T15:46:35-07:00	2020-05-30T23:11:04+00:00	2020-06-02T06:59:59+00:00	-2	qrl0dsycbk7qh4d@marketplace.amazon.com	Larell Hilliard	+1 347-448-3190 ext. 68700	ABR0055	Purchase Now for Delivery by Wednesday | Arabella Farm Direct Bouquet of 12 Stems of Fresh Cut Hot Pink Roses in a Free Designer Glass Vase	1	0	1	SecondDay	Larell Hilliard	234 CRESCENT RD			EMPORIA	VA	23847-6454	US		HAPPY ANNIVERSARY BABY I LOVE YOU AND I WISH US MORE WONDERFUL YEARS TOGETHER!! From BAE	false		
112-7649031-8800228	00688988154010	2020-05-30T22:47:12+00:00	2020-05-30T15:47:12-07:00	2020-05-30T23:16:12+00:00	2020-06-02T06:59:59+00:00	-2	jkzgddvg26s1g26@marketplace.amazon.com	Mindi Dickstein	+1 347-448-3190 ext. 81679	ABR0022	Purchase Now for Delivery by Wednesday | Arabella Farm Direct Bouquet of 12 Fresh Cut Pink Roses with a Free Glass Vase	1	0	1	SecondDay	Frayda Faigel	55 KENSINGTON CIR			CHESTNUT HILL	MA	02467-2675	US		Happy Birthday Mom!  Sending love love love love! Hope you have a wonderful day. Love, Mindi From Mindi Dickstein	false		
114-4530273-5967421	01947582471274	2020-05-30T23:07:56+00:00	2020-05-30T16:07:56-07:00	2020-05-30T23:35:03+00:00	2020-06-02T06:59:59+00:00	-2	83mjgfpqlddg5fv@marketplace.amazon.com	Lillian Sanchez	+1 314-282-9402 ext. 71449	ABR0033	Purchase Now for Delivery by Wednesday | Arabella Farm Direct Bouquet of 12 Fresh Cut Orange Roses with a Free Glass Vase	1	0	1	SecondDay	Lillian Sanchez	2775 STORY AVE			MERCED	CA	95340-3322	US		So proud of you!!!!! Congratulations Eva, que Dios te bendiga hoy y siempre! From Lillian Sanchez-Ramos	false		
113-9445671-5700230	34769558632666	2020-05-30T23:24:00+00:00	2020-05-30T16:24:00-07:00	2020-05-30T23:51:19+00:00	2020-06-02T06:59:59+00:00	-2	76d0tlf1x7wckc1@marketplace.amazon.com	Denise	+1 347-448-3190 ext. 80839	ABM010	Purchase Now for Delivery by Wednesday | Arabella Bouquets | Fields of The World Bouquet of Fresh Cut Flowers in a Free Designer Glass Vase	1	0	1	SecondDay	Mary Martin	31 LOBOS ST			SAN FRANCISCO	CA	94112-3019	US		Auntie Ree, We are sending love, hugs, and prayer to you! May God continue to keep you in His loving arms. From Calvin, Denise, and Crew	false		
112-8377088-3718628	57900506769098	2020-05-30T23:31:35+00:00	2020-05-30T16:31:35-07:00	2020-05-30T23:53:57+00:00	2020-06-02T06:59:59+00:00	-2	k4zv24f1bbjs958@marketplace.amazon.com	Karan	+1 314-282-9402 ext. 60508	ABR0022	Purchase Now for Delivery by Wednesday | Arabella Farm Direct Bouquet of 12 Fresh Cut Pink Roses with a Free Glass Vase	1	0	1	SecondDay	Erin Lanigan	202 IVY RIDGE RD APT 34			SYRACUSE	NY	13210-4105	US		Happy 30th birthday! *Big bear hug* Hope to see you soon!  Lots of love, Karan From Karan	false		
114-8587893-1488259	50580542507514	2020-05-30T23:25:41+00:00	2020-05-30T16:25:41-07:00	2020-05-30T23:54:00+00:00	2020-06-02T06:59:59+00:00	-2	8t0xjlb69vbt10y@marketplace.amazon.com	Sarahhayden79@gmail.com	+1 210-728-4548 ext. 82521	ABR0022	Purchase Now for Delivery by Wednesday | Arabella Farm Direct Bouquet of 12 Fresh Cut Pink Roses with a Free Glass Vase	1	0	1	SecondDay	Brianna and nate long	107 FENLEY AVE APT F-9			LOUISVILLE	KY	40207-2515	US		We love you guys! We have been where you are and you will make it through with jehovahs help, we promise. Many hugs and prayers to you both From Sarah, philip and k	false		
112-5858593-6166646	40621524856442	2020-05-30T23:27:21+00:00	2020-05-30T16:27:21-07:00	2020-05-30T23:57:54+00:00	2020-06-02T06:59:59+00:00	-2	v9h0v59fv4cdjpg@marketplace.amazon.com	Huan Wang	+1 210-728-4548 ext. 42504	ABR0022	Purchase Now for Delivery by Wednesday | Arabella Farm Direct Bouquet of 12 Fresh Cut Pink Roses with a Free Glass Vase	1	0	1	SecondDay	Huan Wang	21 RED MAPLE CT			DANVILLE	CA	94506-4629	US			false		
112-2915973-6601054	68579027617738	2020-05-30T23:33:03+00:00	2020-05-30T16:33:03-07:00	2020-05-31T00:02:05+00:00	2020-06-02T06:59:59+00:00	-2	ksq3hzmp5mz3nn1@marketplace.amazon.com	matthew naudasher	+1 763-225-9463 ext. 30941	ABR0022	Purchase Now for Delivery by Wednesday | Arabella Farm Direct Bouquet of 12 Fresh Cut Pink Roses with a Free Glass Vase	1	0	1	SecondDay	sybil stallone	62 E SERENE AVE UNIT 104			LAS VEGAS	NV	89123-7801	US		Happy birthday! Thank you for all that you do and don't ever change From Matty	false		
112-6325190-9617857	22345099552370	2020-05-30T23:39:20+00:00	2020-05-30T16:39:20-07:00	2020-05-31T00:05:48+00:00	2020-06-02T06:59:59+00:00	-2	43jvzq0wl590mkc@marketplace.amazon.com	Thomas Staffa	+1 210-728-4548 ext. 92634	ABM0044	Purchase Now for Delivery by Wednesday | Arabella Farm Direct Bouquet of Fresh Cut Blue Hydrangea with a Free Glass Vase	1	0	1	SecondDay	margee greenberg	3414 ODONNELL ST			BALTIMORE	MD	21224-5116	US			false		
111-4787868-5809867	07470184658066	2020-05-31T00:09:35+00:00	2020-05-30T17:09:35-07:00	2020-05-31T00:39:55+00:00	2020-06-02T06:59:59+00:00	-2	q8l5c4z3mfshkc0@marketplace.amazon.com	John Urso	+1 347-448-3190 ext. 92649	ABR0033	Purchase Now for Delivery by Wednesday | Arabella Farm Direct Bouquet of 12 Fresh Cut Orange Roses with a Free Glass Vase	1	0	1	SecondDay	John Urso	1105 FAIRVIEW RD APT 6			SOUTH ABINGTON TOWNSHIP	PA	18411-8875	US			false		
112-4593036-5089020	01018640877618	2020-05-31T00:21:49+00:00	2020-05-30T17:21:49-07:00	2020-05-31T00:50:01+00:00	2020-06-02T06:59:59+00:00	-2	ym8fvy5hn39qbdm@marketplace.amazon.com	Krista Donnelly	+1 412-532-4665 ext. 03043	ABM010	Purchase Now for Delivery by Wednesday | Arabella Bouquets | Fields of The World Bouquet of Fresh Cut Flowers in a Free Designer Glass Vase	1	0	1	SecondDay	Jena Donnelly	2280 South Vaughn Way 203			Aurora	CO	80014	US		We LOVE YOU SOOOO MUCH!!!! From Your favorite sister and (brother in law)	false		
111-8389464-4919445	28766005364138	2020-05-31T00:30:49+00:00	2020-05-30T17:30:49-07:00	2020-05-31T01:00:19+00:00	2020-06-02T06:59:59+00:00	-2	9cm3xsg77f29ck4@marketplace.amazon.com	Joshua Klarin	+1 314-282-9402 ext. 81050	ABR0022	Purchase Now for Delivery by Wednesday | Arabella Farm Direct Bouquet of 12 Fresh Cut Pink Roses with a Free Glass Vase	1	0	1	SecondDay	Maura Crossin	5257 E IVYGLEN ST			MESA	AZ	85205-3438	US			false		
111-6102614-0145050	55529837850290	2020-05-31T00:52:48+00:00	2020-05-30T17:52:48-07:00	2020-05-31T01:04:30+00:00	2020-06-02T06:59:59+00:00	-2	3yfxqwp2x3v98bj@marketplace.amazon.com	benjamin forrest	+1 412-532-4665 ext. 98314	ABR0022	Purchase Now for Delivery by Wednesday | Arabella Farm Direct Bouquet of 12 Fresh Cut Pink Roses with a Free Glass Vase	1	0	1	SecondDay	Jeff Forrest	14327 82ND AVE NE			KIRKLAND	WA	98034-5073	US		Take time to smell the roses Jeff. I miss you. The pink rose is a symbol of appreciation and gracefulness. Giving a pink rose is a genuine way to say thank you! The pink rose is a symbol of elegance and grace. I Love you! From benjamin forrest	false		
114-3832741-4165018	28673760576034	2020-05-31T00:42:42+00:00	2020-05-30T17:42:42-07:00	2020-05-31T01:07:39+00:00	2020-06-02T06:59:59+00:00	-2	qxqkkhh8s0d2f8c@marketplace.amazon.com	Jessica Thurmond	+1 314-282-9402 ext. 03089	ABR0033	Purchase Now for Delivery by Wednesday | Arabella Farm Direct Bouquet of 12 Fresh Cut Orange Roses with a Free Glass Vase	1	0	1	SecondDay	Teresa Salgado	693 STOWEWOOD DR			SOUTHAVEN	MS	38671-5525	US			false		
112-4252774-1696269	51243635720234	2020-05-31T00:41:42+00:00	2020-05-30T17:41:42-07:00	2020-05-31T01:08:46+00:00	2020-06-02T06:59:59+00:00	-2	s8bhqwxt8h68gyk@marketplace.amazon.com	Kathy DeWild	+1 210-728-4548 ext. 59360	ABR0022	Purchase Now for Delivery by Wednesday | Arabella Farm Direct Bouquet of 12 Fresh Cut Pink Roses with a Free Glass Vase	1	0	1	SecondDay	Maureen DeWild	12542 GARNET ST			GARDEN GROVE	CA	92845-2723	US		Happy Birthday, Maury K!  Hope you have a fabulous day, even thought it's the apocalypse.  Love, Kathy and Karen From Kathy DeWild	false		
114-1168425-5033866	56489800347298	2020-05-31T00:56:56+00:00	2020-05-30T17:56:56-07:00	2020-05-31T01:18:01+00:00	2020-06-02T06:59:59+00:00	-2	014zm1jj06kwsfn@marketplace.amazon.com	Victoria Thurgar	+1 347-448-3190 ext. 94172	ABM010	Purchase Now for Delivery by Wednesday | Arabella Bouquets | Fields of The World Bouquet of Fresh Cut Flowers in a Free Designer Glass Vase	1	0	1	SecondDay	Erin Grogan	5472 ALAMO TER			FREMONT	CA	94555-1958	US			false		
112-0147450-8519436	51376503325306	2020-05-31T00:51:57+00:00	2020-05-30T17:51:57-07:00	2020-05-31T01:18:57+00:00	2020-06-02T06:59:59+00:00	-2	xrv4l4p32mjypk1@marketplace.amazon.com	V Snowdon	+1 210-728-4548 ext. 03833	ABR0022	Purchase Now for Delivery by Wednesday | Arabella Farm Direct Bouquet of 12 Fresh Cut Pink Roses with a Free Glass Vase	1	0	1	SecondDay	MRS. ANN BEADLING	OAKBRIDGE TERRACE BUILDING	3950 VILLAGE VIEW DR APT 229		GAINESVILLE	GA	30506-4364	US		DEAR MOM/ NANNY,  WE LOVE YOU SO MUCH.   WE MISS YOU A LOT. WE ARE THINKING OF YOU EVERYDAY! XOXO LOVE, BEA, WILL, & JACK	false		
112-5498033-6921024	30971939147138	2020-05-31T00:51:39+00:00	2020-05-30T17:51:39-07:00	2020-05-31T01:22:08+00:00	2020-06-02T06:59:59+00:00	-2	x9hzprwsn9xhq4d@marketplace.amazon.com	Christy Hall	+1 347-448-3190 ext. 89010	ABR0022	Purchase Now for Delivery by Wednesday | Arabella Farm Direct Bouquet of 12 Fresh Cut Pink Roses with a Free Glass Vase	1	0	1	SecondDay	Christy A. Hall	1226 KNOLLWOOD PL			MARTINSVILLE	VA	24112-5506	US			false		
112-0301956-7876215	64475934919162	2020-05-31T01:07:05+00:00	2020-05-30T18:07:05-07:00	2020-05-31T01:36:51+00:00	2020-06-02T06:59:59+00:00	-2	gxqtycsv6tprfhz@marketplace.amazon.com	Jose	+1 210-728-4548 ext. 00403	ABR0022	Purchase Now for Delivery by Wednesday | Arabella Farm Direct Bouquet of 12 Fresh Cut Pink Roses with a Free Glass Vase	1	0	1	SecondDay	Joe	CORAL CLUB APARTMENTS	5909 FONDREN RD APT 1601		HOUSTON	TX	77036-2912	US			false		
114-2043587-2491463	20395071218594	2020-05-31T01:28:58+00:00	2020-05-30T18:28:58-07:00	2020-05-31T01:54:08+00:00	2020-06-02T06:59:59+00:00	-2	ylm94yxyxn0rg5y@marketplace.amazon.com	Samuel Shippen	+1 210-728-4548 ext. 37800	ABM010	Purchase Now for Delivery by Wednesday | Arabella Bouquets | Fields of The World Bouquet of Fresh Cut Flowers in a Free Designer Glass Vase	1	0	1	SecondDay	Deborah Shippen	4201 TOPANGA CANYON BLVD SPC 195			WOODLAND HILLS	CA	91364-5228	US			false		
113-9115909-8002664	50995567607850	2020-05-31T01:42:47+00:00	2020-05-30T18:42:47-07:00	2020-05-31T02:02:52+00:00	2020-06-02T06:59:59+00:00	-2	kgq4fh9g9pjq8mx@marketplace.amazon.com	Leslie Miranda	+1 210-728-4548 ext. 17020	ABM010	Purchase Now for Delivery by Wednesday | Arabella Bouquets | Fields of The World Bouquet of Fresh Cut Flowers in a Free Designer Glass Vase	1	0	1	SecondDay	Dr. Dorcas Zuniga	813 INDEPENDENCE BLVD STE A			VIRGINIA BEACH	VA	23455-6004	US		Happy Birthday My Dr. Z!!!  Always thinking of you! I just wanted to wish you an awesome birthday and reminding you how much I love you and miss you!! From Your best and awesome CMA ever, Leslie	false		
113-3482541-3441842	10682733833338	2020-05-31T01:47:42+00:00	2020-05-30T18:47:42-07:00	2020-05-31T02:15:49+00:00	2020-06-02T06:59:59+00:00	-2	kbpw9vsp0006vn8@marketplace.amazon.com	Joetta Graham	+1 314-282-9402 ext. 41437	ABM0044	Purchase Now for Delivery by Wednesday | Arabella Farm Direct Bouquet of Fresh Cut Blue Hydrangea with a Free Glass Vase	1	0	1	SecondDay	Maya Bamba	8645 HOMESTEAD AVE NE			OLYMPIA	WA	98516-2265	US		Happy Anniversary Maya  Here's to another year of being great together!  Herzen	false		
114-9223969-3616224	52464338847706	2020-05-31T01:52:15+00:00	2020-05-30T18:52:15-07:00	2020-05-31T02:22:38+00:00	2020-06-02T06:59:59+00:00	-2	md1mt19z1l6ddl4@marketplace.amazon.com	J S Titus	+1 314-282-9402 ext. 22227	ABR012	Purchase Now for Delivery by Wednesday | Arabella Farm Direct Bouquet of 18 Fresh Cut Pink Roses with a Free Glass Vase	1	0	1	SecondDay	Patricia Neel	3128 E 66TH PL			TULSA	OK	74136-1238	US			false		
112-0436733-2829832	66207062486690	2020-05-31T02:00:38+00:00	2020-05-30T19:00:38-07:00	2020-05-31T02:30:55+00:00	2020-06-02T06:59:59+00:00	-2	smk73bvd7qj3dxm@marketplace.amazon.com	christine clayton	+1 210-728-4548 ext. 51844	ABM010	Purchase Now for Delivery by Wednesday | Arabella Bouquets | Fields of The World Bouquet of Fresh Cut Flowers in a Free Designer Glass Vase	1	0	1	SecondDay	Kathy Lund	6889 W REMUDA DR			PEORIA	AZ	85383-7001	US		Enjoy your gift! Happy Birthday From christine clayton	false		
114-9499872-1433009	68119563121114	2020-05-31T02:07:59+00:00	2020-05-30T19:07:59-07:00	2020-05-31T02:35:39+00:00	2020-06-02T06:59:59+00:00	-2	sdwyl0bv20qnsvd@marketplace.amazon.com	DeAnna McVeigh	+1 347-448-3190 ext. 41031	ABR0022	Purchase Now for Delivery by Wednesday | Arabella Farm Direct Bouquet of 12 Fresh Cut Pink Roses with a Free Glass Vase	1	0	1	SecondDay	Jessica Francis	83 THURMAN ST			WARWICK	RI	02888-2854	US		Have a small smile on me. I love you From DeAnna McVeigh	false		
112-4329590-4990640	50929781810714	2020-05-31T02:24:10+00:00	2020-05-30T19:24:10-07:00	2020-05-31T02:49:14+00:00	2020-06-02T06:59:59+00:00	-2	dlkzpgqr8hx3wq2@marketplace.amazon.com	david spina	+1 347-448-3190 ext. 12946	ABR0066	Purchase Now for Delivery by Wednesday | Arabella Bouquets | 12 Stems of Fresh Cut White Roses in a Free Designer Glass Vase	1	0	1	SecondDay	Mary Jean Spina	532 AUSTIN BLVD			ACME	PA	15610-2108	US			false		
114-1179522-8403421	19272202574666	2020-05-31T02:23:03+00:00	2020-05-30T19:23:03-07:00	2020-05-31T02:51:54+00:00	2020-06-02T06:59:59+00:00	-2	fyfmg6tdjvgx9y7@marketplace.amazon.com	CARRIE DONEGAN	+1 314-282-9402 ext. 88611	ABM010	Purchase Now for Delivery by Wednesday | Arabella Bouquets | Fields of The World Bouquet of Fresh Cut Flowers in a Free Designer Glass Vase	1	0	1	SecondDay	Elena Yordan	352 Algonquin Road			Franklin Lakes	NJ	07417	US			false		
113-1167301-2184240	32001788504130	2020-05-31T00:00:46+00:00	2020-05-30T17:00:46-07:00	2020-05-31T02:57:23+00:00	2020-06-02T06:59:59+00:00	-2	mtw16prxjdm477d@marketplace.amazon.com	Jeffrey dilldine	+1 412-532-4665 ext. 78663	ABR0022	Purchase Now for Delivery by Wednesday | Arabella Farm Direct Bouquet of 12 Fresh Cut Pink Roses with a Free Glass Vase	1	0	1	SecondDay	Kimberly Follmer	220 MAPLE LN APT 103			BIG LAKE	MN	55309-8227	US		My love, Life is like a river and each year is a drop that makes it up. It has bn difficult living without you this last couple of months but I know that you are thinking of me at all times just like my heart is aching to be with you.	false		
113-4208175-8650661	35721600087994	2020-05-28T08:59:08+00:00	2020-05-28T01:59:08-07:00	2020-05-31T03:44:51+00:00	2020-06-04T06:59:59+00:00	-4	z7vl0jqf2qx51s4@marketplace.amazon.com	Daniel Jack W	+1 210-728-4548 ext. 18164	ABM010	Purchase Now for Delivery by Monday | Arabella Bouquets | Fields of The World Bouquet of Fresh Cut Flowers in a Free Designer Glass Vase	1	0	1	Expedited	Daniel Walker	313 SPRING LAKE DR			DELAND	FLORIDA	32724-1172	US			false		
111-2042971-8089804	14857062245802	2020-05-31T03:22:17+00:00	2020-05-30T20:22:17-07:00	2020-05-31T03:49:05+00:00	2020-06-02T06:59:59+00:00	-2	prvphkg98gthd0m@marketplace.amazon.com	Ireland Lee	+1 210-728-4548 ext. 72169	ABR0022	Purchase Now for Delivery by Wednesday | Arabella Farm Direct Bouquet of 12 Fresh Cut Pink Roses with a Free Glass Vase	1	0	1	SecondDay	Grandma and Grandpa Lee	4169 KNEELAND RD			LEWISTON	MI	49756-7520	US		Just as she is watching over us, she will always be in our hearts. We can only hope that one day we will feel the same peace she is feeling now. Love always From Ireland and Madison	false		
113-4264547-6737827	56148142785610	2020-05-31T03:28:01+00:00	2020-05-30T20:28:01-07:00	2020-05-31T03:55:57+00:00	2020-06-02T06:59:59+00:00	-2	ggvy799b3wrzdxj@marketplace.amazon.com	Divjot	+1 347-448-3190 ext. 78650	ABR0022	Purchase Now for Delivery by Wednesday | Arabella Farm Direct Bouquet of 12 Fresh Cut Pink Roses with a Free Glass Vase	1	0	1	SecondDay	Ranjit singh	28351 52ND AVE S AUBURN WA 98001			AUBURN	WA	98001-1922	US			false		
112-8352664-9820256	41821434982010	2020-05-31T03:44:07+00:00	2020-05-30T20:44:07-07:00	2020-05-31T04:12:03+00:00	2020-06-02T06:59:59+00:00	-2	6xhm9mlch3877ws@marketplace.amazon.com	Ivonne St. Julien	+1 412-532-4665 ext. 41823	ABR0022	Purchase Now for Delivery by Wednesday | Arabella Farm Direct Bouquet of 12 Fresh Cut Pink Roses with a Free Glass Vase	1	0	1	SecondDay	Stella Javiel Mesa	8201 SW 183RD ST			PALMETTO BAY	FL	33157-6137	US		Gracias por existir! From Ivonne & Glenn St. Julien	false		
111-6626738-2448208	23170577044938	2020-05-31T04:02:30+00:00	2020-05-30T21:02:30-07:00	2020-05-31T04:26:23+00:00	2020-06-02T06:59:59+00:00	-2	fkw83wxbgqyfrbg@marketplace.amazon.com	Virginia Privitar	+1 347-448-3190 ext. 55637	ABR0022	Purchase Now for Delivery by Wednesday | Arabella Farm Direct Bouquet of 12 Fresh Cut Pink Roses with a Free Glass Vase	1	0	1	SecondDay	Madeline A. Youngberg	173 WASHINGTON PARK APT 3			BROOKLYN	NY	11205-3274	US		Hi Maddie, Best wishes for a Happy Birthday and a wonderful year! Love, Georgie xoxoxo	false		
112-8071244-5434619	22529421880778	2020-05-31T04:15:55+00:00	2020-05-30T21:15:55-07:00	2020-05-31T04:45:05+00:00	2020-06-02T06:59:59+00:00	-2	cpzvj6ssltgfv60@marketplace.amazon.com	Serafin	+1 347-448-3190 ext. 24883	ABR0022	Purchase Now for Delivery by Wednesday | Arabella Farm Direct Bouquet of 12 Fresh Cut Pink Roses with a Free Glass Vase	1	0	1	SecondDay	Gloria	30765 MCCABE RD			GUSTINE	CA	95322-9749	US		Hi Gloria, Enjoy your gift! From Changuito	false		
112-3817745-5137042	50430713800778	2020-05-31T03:46:40+00:00	2020-05-30T20:46:40-07:00	2020-05-31T04:47:38+00:00	2020-06-02T06:59:59+00:00	-2	44byjzpgtt46r4w@marketplace.amazon.com	Marty McCann	+1 314-282-9402 ext. 31955	ABR012	Purchase Now for Delivery by Wednesday | Arabella Farm Direct Bouquet of 18 Fresh Cut Pink Roses with a Free Glass Vase	1	0	1	SecondDay	Lane Andrews	254 W 225 S			IVINS	UT	84738-5102	US			false		
113-3710901-2520251	28188893785098	2020-05-31T04:18:43+00:00	2020-05-30T21:18:43-07:00	2020-05-31T04:48:59+00:00	2020-06-02T06:59:59+00:00	-2	24zhdfj25gzwcp2@marketplace.amazon.com	Katherine Short	+1 347-448-3190 ext. 56530	ABR0022	Purchase Now for Delivery by Wednesday | Arabella Farm Direct Bouquet of 12 Fresh Cut Pink Roses with a Free Glass Vase	1	0	1	SecondDay	Katherine Hartley	2872 WESTSHIRE DR			LOS ANGELES	CA	90068-1932	US			false		
111-1686190-4386644	55597373548466	2020-05-31T05:02:35+00:00	2020-05-30T22:02:35-07:00	2020-05-31T05:31:08+00:00	2020-06-02T06:59:59+00:00	-2	3t625xm5slzyvps@marketplace.amazon.com	Julian vanhouzen	+1 314-282-9402 ext. 43314	ABR0066	Purchase Now for Delivery by Wednesday | Arabella Bouquets | 12 Stems of Fresh Cut White Roses in a Free Designer Glass Vase	1	0	1	SecondDay	Julian vanhouzen	4931 ELMGATE DR			ORCHARD LAKE	MI	48324-3012	US		Almost as pretty as you, I miss you. Drink a wheatie for me today and remember to water these this time. From Julian vanhouzen	false		
113-3802596-0744217	55987569958762	2020-05-31T07:21:27+00:00	2020-05-31T00:21:27-07:00	2020-05-31T07:48:11+00:00	2020-06-02T06:59:59+00:00	-2	3pvyvd9dvw4ctrb@marketplace.amazon.com	Bonnie Brown	+1 347-448-3190 ext. 20330	ABR0055	Purchase Now for Delivery by Wednesday | Arabella Farm Direct Bouquet of 12 Stems of Fresh Cut Hot Pink Roses in a Free Designer Glass Vase	1	0	1	SecondDay	Dr. Shannon Mari King	128 CHATTERSON DR			RALEIGH	NC	27615-3101	US		Happy “ 29th” birthday!😂 Love, Mom and Dad😘 From Bonnie Brown	false		
