order-id	order-item-id	purchase-date	payments-date	reporting-date	promise-date	days-past-promise	buyer-email	buyer-name	buyer-phone-number	sku	product-name	quantity-purchased	quantity-shipped	quantity-to-ship	ship-service-level	recipient-name	ship-address-1	ship-address-2	ship-address-3	ship-city	ship-state	ship-postal-code	ship-country	gift-wrap-type	gift-message-text	is-business-order	purchase-order-number	price-designation
111-7420941-3086606	21018686535338	2020-05-31T14:16:00+00:00	2020-05-31T07:16:00-07:00	2020-05-31T14:40:06+00:00	2020-06-04T06:59:59+00:00	-3	h1wxvrd9m54ktyd@marketplace.amazon.com	Amber Hayden Anderson	+1 347-448-3190 ext. 09930	ABR0022	Arabella Farm Direct Bouquet of 12 Fresh Cut Pink Roses with a Free Glass Vase	1	0	1	Expedited	Jess and Trey Dove	488 OVERBROOK DR NW			ATLANTA	GA	30318-2635	US		Congrats Jess & Trey! Queen Victoria is just BEAUTIFUL!!   Lots of Love, Amber & Richie xoxo From The Andersons	false		
113-0189829-1086620	05907886510834	2020-05-31T16:13:24+00:00	2020-05-31T09:13:24-07:00	2020-05-31T16:41:36+00:00	2020-06-04T06:59:59+00:00	-3	qj4sjtnv8rk6n75@marketplace.amazon.com	Charlie Schnitzlein	+1 314-282-9402 ext. 80262	ABR0022	Arabella Farm Direct Bouquet of 12 Fresh Cut Pink Roses with a Free Glass Vase	1	0	1	Expedited	Beverley Schnitzlein	4 FAREWELL ST			NEWPORT	RI	02840-5100	US			false		
114-7195159-9251456	68973325220362	2020-05-31T16:26:32+00:00	2020-05-31T09:26:32-07:00	2020-05-31T17:03:55+00:00	2020-06-04T06:59:59+00:00	-3	pwglnrp4xqfhzxg@marketplace.amazon.com	Nataliya A. Holl	+1 412-532-4665 ext. 35867	ABR0022	Arabella Farm Direct Bouquet of 12 Fresh Cut Pink Roses with a Free Glass Vase	1	0	1	Expedited	Olena Romashko	627 CUESTA AVE			SAN MATEO	CA	94403-1201	US		Have a wonderful and Happy Birthday, Olga! Love mom	false		
111-4346530-9609043	07720491417234	2020-05-31T17:11:17+00:00	2020-05-31T10:11:17-07:00	2020-05-31T17:41:30+00:00	2020-06-02T06:59:59+00:00	-1	htvl3j5vwjt6gz0@marketplace.amazon.com	Angel Muniz Jr	+1 314-282-9402 ext. 26452	ABR001	Purchase Now for Delivery by Wednesday | Arabella Bouquets 12 Stems of Fresh Cut Red Roses in a Free Designer Glass Vase	3	1	2	SecondDay	Solanyi Paulino Jerez	486 ALLEN PARK RD			SPRINGFIELD	MA	01118-2636	US			false		
112-9510503-5052250	02162594063594	2020-05-31T18:11:15+00:00	2020-05-31T11:11:15-07:00	2020-05-31T18:39:57+00:00	2020-06-04T06:59:59+00:00	-3	nx6sb9x0wnms8mr@marketplace.amazon.com	Seif Rebhi	+1 347-448-3190 ext. 58740	ABR0022	Arabella Farm Direct Bouquet of 12 Fresh Cut Pink Roses with a Free Glass Vase	1	0	1	Expedited	Marika Semerdzhian	975 JOHN ST APT 721			SEATTLE	WA	98109-5280	US			false		
114-8790446-8632246	36065942733842	2020-05-31T18:19:38+00:00	2020-05-31T11:19:38-07:00	2020-05-31T18:50:09+00:00	2020-06-04T06:59:59+00:00	-3	j7j9zz2vjfgt1db@marketplace.amazon.com	nigel bennett	+1 314-282-9402 ext. 81585	ABR0022	Arabella Farm Direct Bouquet of 12 Fresh Cut Pink Roses with a Free Glass Vase	1	0	1	Expedited	nigel bennett	2771 BAINBRIDGE AVE APT 6C			BRONX	NY	10458-3438	US			false		
114-6026243-0906643	26890180374922	2020-05-31T18:49:15+00:00	2020-05-31T11:49:15-07:00	2020-05-31T19:13:21+00:00	2020-06-04T06:59:59+00:00	-3	0zdcgrgj99lk9yw@marketplace.amazon.com	Dennis Turner	+1 210-728-4548 ext. 62830	ABR0022	Arabella Farm Direct Bouquet of 12 Fresh Cut Pink Roses with a Free Glass Vase	1	0	1	Expedited	Ray & Diane McGinnis	1016 DAWNE DR			WILLIAMSPORT	PA	17701-9767	US		Congratulations, Diane and Ray,  on 40 glorious years together! From Dennis and Sue	false		
111-3699849-9400230	68292597475946	2020-05-31T18:47:53+00:00	2020-05-31T11:47:53-07:00	2020-05-31T19:14:51+00:00	2020-06-04T06:59:59+00:00	-3	9qg8ngy6844b234@marketplace.amazon.com	peter lau	+1 347-448-3190 ext. 10688	ABR0022	Arabella Farm Direct Bouquet of 12 Fresh Cut Pink Roses with a Free Glass Vase	1	0	1	Expedited	Josephine Quiso	5240 W SCHOOL ST			CHICAGO	IL	60641-4230	US		Happy birthday to my beautiful sister! From Susan Quiso	false		
112-0615829-6627418	56269373197850	2020-05-31T18:56:58+00:00	2020-05-31T11:56:58-07:00	2020-05-31T19:27:33+00:00	2020-06-04T06:59:59+00:00	-3	4j5wfy9v2dpczkw@marketplace.amazon.com	Justin Broderick	+1 210-728-4548 ext. 88740	ABR0022	Arabella Farm Direct Bouquet of 12 Fresh Cut Pink Roses with a Free Glass Vase	1	0	1	Expedited	Megan and Bella Broderick	4602 PREWITT RANCH RD			KILLEEN	TX	76549-1612	US			false		
111-6306363-8122633	17180325700482	2020-05-31T19:18:08+00:00	2020-05-31T12:18:08-07:00	2020-05-31T19:38:26+00:00	2020-06-04T06:59:59+00:00	-3	016xq215m5d7w3l@marketplace.amazon.com	Sharon L Sarsfield	+1 412-532-4665 ext. 54442	ABR0022	Arabella Farm Direct Bouquet of 12 Fresh Cut Pink Roses with a Free Glass Vase	1	0	1	Expedited	Kaitlyn Rose Forde	1340 E 28TH ST APT B			OAKLAND	CA	94606-3274	US		Congratulations!  Loved hearing all your good news. So many wonderful things are ahead. I love you. From NaNa	false		
111-0992021-0630655	28634664225690	2020-05-31T20:02:32+00:00	2020-05-31T13:02:32-07:00	2020-05-31T20:27:32+00:00	2020-06-04T06:59:59+00:00	-3	b1vwh28bzxhtdf7@marketplace.amazon.com	irene  kang	+1 412-532-4665 ext. 24049	ABR0022	Arabella Farm Direct Bouquet of 12 Fresh Cut Pink Roses with a Free Glass Vase	1	0	1	Expedited	Alexandria Han	150 HUNTINGTON AVE THE GREENHOUSE	APT SFL		BOSTON	MA	02115-6705	US		Happy birthday ~♥ My Aly♥ May all your wishes come true. I love ♥ you so~~ much ♥ From Mom	false		
113-2837301-9270631	37424212740402	2020-05-31T21:21:50+00:00	2020-05-31T14:21:50-07:00	2020-05-31T21:49:54+00:00	2020-06-04T06:59:59+00:00	-3	nn12wb8fmfnxgjg@marketplace.amazon.com	Alexandra Garcia	+1 210-728-4548 ext. 30719	ABR0022	Arabella Farm Direct Bouquet of 12 Fresh Cut Pink Roses with a Free Glass Vase	1	0	1	Expedited	Angela Garcia	37 Waldo Ave			Bloomfield	NJ	07003	US		Muy Feliz Cumpleanos!!  Que cumplas muchos, muchos mas! la queremos mucho Lorenzo, Alexandra & Francois From Alexandra Garcia	false		
114-5355658-8237025	47647810052770	2020-05-31T21:28:31+00:00	2020-05-31T14:28:31-07:00	2020-05-31T21:54:43+00:00	2020-06-04T06:59:59+00:00	-3	3mwfwbb317yn3t7@marketplace.amazon.com	Garrhett Franko	+1 412-532-4665 ext. 36641	ABR0022	Arabella Farm Direct Bouquet of 12 Fresh Cut Pink Roses with a Free Glass Vase	1	0	1	Expedited	Natalie Riggi	10179 REGATTA TRL			AURORA	OH	44202-8132	US		“I’m not perfect, I make mistakes, I hurt people. But when I say sorry, I mean it.“ From Garrhett	false		
113-6009136-9387439	02421781149042	2020-05-31T21:13:50+00:00	2020-05-31T14:13:50-07:00	2020-05-31T22:05:00+00:00	2020-06-04T06:59:59+00:00	-3	h3qxl5gdlkkwsxc@marketplace.amazon.com	William Jones	+1 210-728-4548 ext. 83388	ABR0022	Arabella Farm Direct Bouquet of 12 Fresh Cut Pink Roses with a Free Glass Vase	1	0	1	Standard	William Jones	9646 Royal Palm Blvd.			Coral Springs	Florida	33065	US		I hope this makes you smile.	false		
114-1586989-5272244	28813849051666	2020-05-31T21:59:45+00:00	2020-05-31T14:59:45-07:00	2020-05-31T22:30:14+00:00	2020-06-04T06:59:59+00:00	-3	x7xcsl5jg6vl2xs@marketplace.amazon.com	Ping Chen	+1 314-282-9402 ext. 12093	ABR0022	Arabella Farm Direct Bouquet of 12 Fresh Cut Pink Roses with a Free Glass Vase	1	0	1	Expedited	Ping Chen	4322 QUEENS ST APT 4311			LONG ISLAND CITY	NY	11101-7976	US			false		
112-8683088-2954662	40475964486458	2020-05-31T22:17:36+00:00	2020-05-31T15:17:36-07:00	2020-05-31T22:48:01+00:00	2020-06-04T06:59:59+00:00	-3	bzg1rbghqd34nk6@marketplace.amazon.com	Cathy Maddox	+1 347-448-3190 ext. 12683	ABR0022	Arabella Farm Direct Bouquet of 12 Fresh Cut Pink Roses with a Free Glass Vase	1	0	1	Standard	catherine b maddox	13912 126TH AVE NE			KIRKLAND	WA	98034-2245	US			false		
114-2220759-5808257	02062798221586	2020-05-31T22:40:43+00:00	2020-05-31T15:40:43-07:00	2020-05-31T23:04:59+00:00	2020-06-04T06:59:59+00:00	-3	hm5sb2hhy61df0d@marketplace.amazon.com	BONITA L. ADAMS	+1 347-448-3190 ext. 89776	ABR0022	Arabella Farm Direct Bouquet of 12 Fresh Cut Pink Roses with a Free Glass Vase	1	0	1	Expedited	Linda Ji	10590 PINNACLE WAY			WOODBURY	MN	55129-4282	US		Enjoy your gift! From BONITA L. ADAMS	false		
114-6949729-0016237	67831506915602	2020-05-31T22:53:50+00:00	2020-05-31T15:53:50-07:00	2020-05-31T23:20:03+00:00	2020-06-04T06:59:59+00:00	-3	tfgw5f6rp5n65ff@marketplace.amazon.com	Leslie Skeans	+1 314-282-9402 ext. 65296	ABR0022	Arabella Farm Direct Bouquet of 12 Fresh Cut Pink Roses with a Free Glass Vase	1	0	1	Expedited	Dorothy McGraw	20451 POWELL RD LOT 111			DUNNELLON	FL	34431-6555	US		Happy birthday Aunt Dot!   Much love,  Mary Les	false		
112-3292447-0873019	04989495031626	2020-05-31T23:03:08+00:00	2020-05-31T16:03:08-07:00	2020-05-31T23:33:20+00:00	2020-06-04T06:59:59+00:00	-3	ct5q1y1324363f1@marketplace.amazon.com	Kyle Johnson	+1 210-728-4548 ext. 31629	ABR0022	Arabella Farm Direct Bouquet of 12 Fresh Cut Pink Roses with a Free Glass Vase	1	0	1	Expedited	Kyle Johnson	2804 STUBBS RITCHIE RD			MONROE	LA	71203-9554	US			false		
114-4248245-2067402	02703843337634	2020-06-01T00:06:27+00:00	2020-05-31T17:06:27-07:00	2020-06-01T00:31:28+00:00	2020-06-04T06:59:59+00:00	-3	0ht1vy7n9w4xtd1@marketplace.amazon.com	Marx Andrews	+1 210-728-4548 ext. 71901	ABR0022	Arabella Farm Direct Bouquet of 12 Fresh Cut Pink Roses with a Free Glass Vase	1	0	1	Expedited	Grandma Mary	1233 HALF ST SW			WASHINGTON	DC	20024-4109	US		Happy birthday Grandma! You mean the world to me, I promise to come see you soon. I love you and I miss you. From Jerel	false		
114-7204553-3822625	55468552018746	2020-06-01T00:26:24+00:00	2020-05-31T17:26:24-07:00	2020-06-01T00:55:43+00:00	2020-06-04T06:59:59+00:00	-3	qsvpy91vlgvw4tz@marketplace.amazon.com	Michael Rosati	+1 210-728-4548 ext. 44824	ABR0022	Arabella Farm Direct Bouquet of 12 Fresh Cut Pink Roses with a Free Glass Vase	1	0	1	Expedited	Amy Gates	1208 BROOK VIEW CIR			MARLTON	NJ	08053-1655	US			false		
112-8418660-8777809	12838623574874	2020-06-01T00:59:58+00:00	2020-05-31T17:59:58-07:00	2020-06-01T01:25:19+00:00	2020-06-04T06:59:59+00:00	-3	mxlfwyhm22rzffv@marketplace.amazon.com	Norm Jacobs	+1 314-282-9402 ext. 83301	ABR0022	Arabella Farm Direct Bouquet of 12 Fresh Cut Pink Roses with a Free Glass Vase	1	0	1	Expedited	Shiryl Everhart	1507 YORKTOWN RD			YORKTOWN	VA	23693-3033	US		This is part 2 of 2 from your secret pal From Paige Jacobs	false		
112-6316778-8586644	34923298974650	2020-06-01T00:57:06+00:00	2020-05-31T17:57:06-07:00	2020-06-01T01:27:19+00:00	2020-06-04T06:59:59+00:00	-3	55lpyscjh117bl5@marketplace.amazon.com	Albert la Grange	+1 210-728-4548 ext. 06026	ABR0022	Arabella Farm Direct Bouquet of 12 Fresh Cut Pink Roses with a Free Glass Vase	1	0	1	Expedited	Albert La Grange	11516 GOVERNORS DR			CHAPEL HILL	NC	27517-8421	US			false		
111-1703412-3968258	16929097924650	2020-06-01T01:28:29+00:00	2020-05-31T18:28:29-07:00	2020-06-01T01:58:45+00:00	2020-06-04T06:59:59+00:00	-3	q560f2fzlfl5yxn@marketplace.amazon.com	Michael Robostello	+1 347-448-3190 ext. 30508	ABR0022	Arabella Farm Direct Bouquet of 12 Fresh Cut Pink Roses with a Free Glass Vase	1	0	1	Expedited	Michael Robostello	282 ACADEMY ST			CLARKSBORO	NJ	08020-1304	US			false		
114-3270239-1449047	61949174130898	2020-06-01T02:41:48+00:00	2020-05-31T19:41:48-07:00	2020-06-01T03:09:32+00:00	2020-06-04T06:59:59+00:00	-3	c2nbgs5hhm05fby@marketplace.amazon.com	Rose M. Hernandez	+1 347-448-3190 ext. 80202	ABR0022	Arabella Farm Direct Bouquet of 12 Fresh Cut Pink Roses with a Free Glass Vase	1	0	1	Expedited	Olga Hernandez	3005 BRONXWOOD AVE			BRONX	NY	10469-3603	US			false		
114-3748475-5246613	35231857285130	2020-06-01T03:40:18+00:00	2020-05-31T20:40:18-07:00	2020-06-01T04:10:45+00:00	2020-06-04T06:59:59+00:00	-3	0kbrn0s2mwbjzff@marketplace.amazon.com	david b. rodden	+1 347-448-3190 ext. 30721	ABR0022	Arabella Farm Direct Bouquet of 12 Fresh Cut Pink Roses with a Free Glass Vase	1	0	1	Expedited	Laura Fabian	3024 N 169TH AVE			OMAHA	NE	68116-2627	US			false		
112-0356708-7943456	44889350568130	2020-06-01T04:17:17+00:00	2020-05-31T21:17:17-07:00	2020-06-01T04:43:56+00:00	2020-06-04T06:59:59+00:00	-3	p29ztjyxn7xkvbh@marketplace.amazon.com	Lisette	+1 347-448-3190 ext. 17010	ABR0022	Arabella Farm Direct Bouquet of 12 Fresh Cut Pink Roses with a Free Glass Vase	1	0	1	Expedited	Sophia Rueda	267 E HEDDING ST			SAN JOSE	CA	95112-4408	US		Giving you hugs from a far on your birthday ! I hope you enjoy your special day! From Tia Lisette	false		
114-9455905-3408223	33038526685538	2020-06-01T05:07:19+00:00	2020-05-31T22:07:19-07:00	2020-06-01T05:32:44+00:00	2020-06-04T06:59:59+00:00	-3	cdvhjrpdhztv9bw@marketplace.amazon.com	amir chase	+1 347-448-3190 ext. 31754	ABR0022	Arabella Farm Direct Bouquet of 12 Fresh Cut Pink Roses with a Free Glass Vase	1	0	1	Expedited	Amir chase	2819 WHITEMARSH PL 2819			MACUNGIE	PA	18062-1406	US		To the Two most Important women of my life , I write to you with Love , and many Blessings,   Enjoy your gift! From amir chase	false		
114-1091698-1453808	00819675673738	2020-06-01T06:21:53+00:00	2020-05-31T23:21:53-07:00	2020-06-01T06:52:18+00:00	2020-06-04T06:59:59+00:00	-3	dw1hmnpgtbq9z96@marketplace.amazon.com	jeff armstead	+1 210-728-4548 ext. 78393	ABR0022	Arabella Farm Direct Bouquet of 12 Fresh Cut Pink Roses with a Free Glass Vase	1	0	1	Expedited	jeff armstead	1013 PHINNEY AVE ALTON IL 62002			ALTON	IL	62002-3867	US			false		
112-1919840-5117009	35206993148202	2020-06-01T12:18:47+00:00	2020-06-01T05:18:47-07:00	2020-06-01T12:48:16+00:00	2020-06-05T06:59:59+00:00	-4	b9ywvfg7124ydtt@marketplace.amazon.com	Teressa Shelton	+1 763-225-9463 ext. 59508	ABR0022	Arabella Farm Direct Bouquet of 12 Fresh Cut Pink Roses with a Free Glass Vase	1	0	1	Expedited	Karen Horner	501 ASPEN LN			INDIAN TRAIL	NC	28079-4282	US		Happy Birthday Sister!  Marc and Teressa	false		
111-9059684-9969849	69098365731346	2020-06-01T12:20:12+00:00	2020-06-01T05:20:12-07:00	2020-06-01T12:49:00+00:00	2020-06-05T06:59:59+00:00	-4	xsddnsb9ww6mpff@marketplace.amazon.com	Dee Foster	+1 347-448-3190 ext. 68030	ABR0022	Arabella Farm Direct Bouquet of 12 Fresh Cut Pink Roses with a Free Glass Vase	1	0	1	Expedited	Brooke Foster	2102 ANTHEM AVE APT P			AUGUSTA	GA	30909-0035	US		We love you! You can do this!  -Mom and Dad Foster From Dee Foster	false		
113-0259677-2479426	42603959396498	2020-06-01T13:00:02+00:00	2020-06-01T06:00:02-07:00	2020-06-01T13:22:58+00:00	2020-06-05T06:59:59+00:00	-4	y4g5ndgzjw7w35w@marketplace.amazon.com	Shelia parker	+1 210-728-4548 ext. 39235	ABR0022	Arabella Farm Direct Bouquet of 12 Fresh Cut Pink Roses with a Free Glass Vase	1	0	1	Expedited	Kourtney Parker	1408 CREEKSIDE DR APT 6			WALNUT CREEK	CA	94596-5524	US			false		
114-7653312-5621864	16191072677018	2020-06-01T12:59:51+00:00	2020-06-01T05:59:51-07:00	2020-06-01T13:28:17+00:00	2020-06-05T06:59:59+00:00	-4	g0sszq1jc69f2zh@marketplace.amazon.com	duaa al-khafaji	+1 314-282-9402 ext. 88025	ABR0022	Arabella Farm Direct Bouquet of 12 Fresh Cut Pink Roses with a Free Glass Vase	1	0	1	Expedited	Amena Alkhafaji	3301 W ESPLANADE AVE N APT 10163A			METAIRIE	LA	70002-2600	US		HAPPY BIRTHDAY LOVE!!! THESE FLOWERS ARE ALMOST AS BEAUTIFUL AS YOU ARE! ❤❤🥰🥰 From duaa al-khafaji	false		
111-4329820-4437866	44179442090226	2020-06-01T14:12:28+00:00	2020-06-01T07:12:28-07:00	2020-06-01T14:32:11+00:00	2020-06-05T06:59:59+00:00	-4	md1hfbcm1kbqmz6@marketplace.amazon.com	Etsuko Kuwahara	+1 347-448-3190 ext. 48160	ABR0022	Arabella Farm Direct Bouquet of 12 Fresh Cut Pink Roses with a Free Glass Vase	1	0	1	Expedited	Tomoko Kuwahara	61 S OXFORD ST			BROOKLYN	NY	11217-4738	US		Have happy last stage maternity days! We love you! From Mom and Dad	false		
113-5899130-4837067	15530209055474	2020-06-01T14:25:08+00:00	2020-06-01T07:25:08-07:00	2020-06-01T14:53:17+00:00	2020-06-05T06:59:59+00:00	-4	c2z0h0lq9s9rfsv@marketplace.amazon.com	Kris Torres	+1 347-448-3190 ext. 56295	ABR0022	Arabella Farm Direct Bouquet of 12 Fresh Cut Pink Roses with a Free Glass Vase	1	0	1	Expedited	Katie Gray	352 FORT COBB WAY			GEORGETOWN	TX	78628-2111	US		Love you! From Kris Torres	false		
112-5204815-2463420	23704679489650	2020-06-01T14:51:30+00:00	2020-06-01T07:51:30-07:00	2020-06-01T15:18:26+00:00	2020-06-05T06:59:59+00:00	-4	7przqwkycm98dzk@marketplace.amazon.com	Theron C. Toole II	+1 210-728-4548 ext. 83112	ABR0022	Arabella Farm Direct Bouquet of 12 Fresh Cut Pink Roses with a Free Glass Vase	1	0	1	Expedited	Melinda Mcclure-Toole	1500 RYE DR			SAN ANTONIO	TX	78260-5154	US		I miss you beautiful! Thanks for all you do.  I’m so blessed to have you as my best friend and wife. 143 From Theron C. Toole II	false		
112-3669034-3186600	24951919251490	2020-06-01T14:50:48+00:00	2020-06-01T07:50:48-07:00	2020-06-01T15:19:22+00:00	2020-06-05T06:59:59+00:00	-4	nxps401bz1pjc3g@marketplace.amazon.com	kyle reed	+1 314-282-9402 ext. 34309	ABR0022	Arabella Farm Direct Bouquet of 12 Fresh Cut Pink Roses with a Free Glass Vase	1	0	1	Expedited	Erika Gucfa	2040 MARKET ST PH			PHILADELPHIA	PA	19103-3302	US		Gucfa, You are a badass bitch! You got this! From Love you, Mo & Kyle xo	false		
111-6715777-3248246	09765066820978	2020-06-01T15:07:46+00:00	2020-06-01T08:07:46-07:00	2020-06-01T15:37:31+00:00	2020-06-05T06:59:59+00:00	-4	3bkltbh2z7g039p@marketplace.amazon.com	alexis	+1 210-728-4548 ext. 03331	ABR0022	Arabella Farm Direct Bouquet of 12 Fresh Cut Pink Roses with a Free Glass Vase	1	0	1	Expedited	Susie Rivas	293 PUFFIN DR			VISTA	CA	92083-3030	US		I love you momma! From Alexis	false		
113-9905927-3233812	53715994747626	2020-06-01T15:20:08+00:00	2020-06-01T08:20:08-07:00	2020-06-01T15:48:37+00:00	2020-06-05T06:59:59+00:00	-4	kcfcf1c2f71ghg4@marketplace.amazon.com	Kyle  Callahan	+1 347-448-3190 ext. 35522	ABR0022	Arabella Farm Direct Bouquet of 12 Fresh Cut Pink Roses with a Free Glass Vase	1	0	1	Expedited	Ali Callahan	8042 STARZ LOOP			FORT HOOD	TX	76544-1793	US			false		
112-0674439-0001856	42310935869770	2020-06-01T15:30:21+00:00	2020-06-01T08:30:21-07:00	2020-06-01T15:57:37+00:00	2020-06-05T06:59:59+00:00	-4	bmcb70myywvxyr7@marketplace.amazon.com	Somerville Sylvia	+1 210-728-4548 ext. 98804	ABR0022	Arabella Farm Direct Bouquet of 12 Fresh Cut Pink Roses with a Free Glass Vase	1	0	1	Expedited	Alika Middleton	17979 SANDS RD			HAMILTON	VA	20158-3459	US		Alika,  Thank you so much for the most beautiful shower. I am still surrounded by so much love. From the bottom of my heart, thank you! I love you so much. From Victoria	false		
112-1088627-9593019	31528217469658	2020-06-01T15:32:29+00:00	2020-06-01T08:32:29-07:00	2020-06-01T16:01:36+00:00	2020-06-05T06:59:59+00:00	-4	bmcb70myywvxyr7@marketplace.amazon.com	Somerville Sylvia	+1 210-728-4548 ext. 71681	ABR0022	Arabella Farm Direct Bouquet of 12 Fresh Cut Pink Roses with a Free Glass Vase	1	0	1	Expedited	Hannah Lidicker	1100 BRICKELL BAY DR APT 39N			MIAMI	FL	33131-3555	US		Hannah,  Thank you so much for the most beautiful shower. I am still surrounded by so much love. From the bottom of my heart, thank you! I love you so much. From Victoria	false		
112-1208824-5675467	29983924227218	2020-06-01T15:35:19+00:00	2020-06-01T08:35:19-07:00	2020-06-01T16:04:36+00:00	2020-06-05T06:59:59+00:00	-4	bmcb70myywvxyr7@marketplace.amazon.com	Somerville Sylvia	+1 314-282-9402 ext. 98854	ABR0022	Arabella Farm Direct Bouquet of 12 Fresh Cut Pink Roses with a Free Glass Vase	1	0	1	Expedited	Kelly Zarcone	10 SUNRISE TER			BLACK MOUNTAIN	NC	28711-3271	US		Kelly,  Thank you so much for the most beautiful shower. I am still surrounded by so much love. From the bottom of my heart, thank you! I love you so much. From Victoria	false		
113-6271029-7153035	17247679664050	2020-06-01T15:54:38+00:00	2020-06-01T08:54:38-07:00	2020-06-01T16:20:29+00:00	2020-06-05T06:59:59+00:00	-4	fsldl5jhlfjwy3b@marketplace.amazon.com	Theron Adkins	+1 314-282-9402 ext. 60039	ABR0022	Arabella Farm Direct Bouquet of 12 Fresh Cut Pink Roses with a Free Glass Vase	1	0	1	Expedited	Mrs. Rachel Friedlander	34 SHORT OAK DR			BROOKFIELD	CT	06804-2080	US		Rachel, Congratulations on the exciting news!  We are so happy for you, Robert and Bug.  Sorry you aren't feeling great but hopefully that will pass soon.  Take care and get lots of rest.  Tara, Theron and the boys	false		
114-3587102-7386661	49312844327898	2020-06-01T16:06:55+00:00	2020-06-01T09:06:55-07:00	2020-06-01T16:32:54+00:00	2020-06-05T06:59:59+00:00	-4	9l1025p2wqs5klz@marketplace.amazon.com	Art Viola	+1 314-282-9402 ext. 77639	ABR0022	Arabella Farm Direct Bouquet of 12 Fresh Cut Pink Roses with a Free Glass Vase	1	0	1	Expedited	June momma Groff	3582 POLLINA AVE			FORT GRATIOT	MI	48059-4135	US		Hi June, Enjoy your gift! Happy 87. We love you From Art And Terry	false		
113-1360888-3261048	55744141905122	2020-06-01T16:31:33+00:00	2020-06-01T09:31:33-07:00	2020-06-01T17:00:50+00:00	2020-06-06T06:59:59+00:00	-5	sd1x6q79fdmdfrv@marketplace.amazon.com	Wendy Derish	+1 210-728-4548 ext. 58078	ABR0022	Delivery by Friday | Arabella Farm Direct Bouquet of 12 Fresh Cut Pink Roses with a Free Glass Vase	1	0	1	Expedited	Ms. Lynn Reynolds	8023 QUARRY RIDGE WAY			BETHESDA	MD	20817-6950	US		Happy Birthday! From Brad & Wendy	false		
114-4724845-1062659	68302228654186	2020-06-01T17:31:05+00:00	2020-06-01T10:31:05-07:00	2020-06-01T17:47:17+00:00	2020-06-05T06:59:59+00:00	-4	s17s7jbpst09v7n@marketplace.amazon.com	Faith	+1 347-448-3190 ext. 30210	ABM010	Purchase Now for Delivery by Thursday | Arabella Bouquets | Fields of The World Bouquet of Fresh Cut Flowers in a Free Designer Glass Vase	1	0	1	Expedited	Melody Smith	7050 GREENSBORO HWY			WATKINSVILLE	GA	30677-3722	US		Melody, I may not be there with you, but i'll always be there for you. Just hoping to brighten your day the way you always do mine. (Hoping the flowers aren't dead because that'd basically do the opposite of that lol) From Faith	false		
113-2852758-5036218	21257283395522	2020-06-01T17:37:52+00:00	2020-06-01T10:37:52-07:00	2020-06-01T18:01:04+00:00	2020-06-05T06:59:59+00:00	-4	3kdmdztt270x5yl@marketplace.amazon.com	Martha Karen Largent	+1 314-282-9402 ext. 87941	ABM010	Purchase Now for Delivery by Thursday | Arabella Bouquets | Fields of The World Bouquet of Fresh Cut Flowers in a Free Designer Glass Vase	1	0	1	Expedited	Shellie Glaush	608 JENKINS ST			PITTSTON	PA	18643-1612	US		To our dear Shellie! Something to brighten your day as you brighten so many for others! From Love, Craig and Karen	false		
111-7453852-5086654	53934816568138	2020-06-01T17:35:59+00:00	2020-06-01T10:35:59-07:00	2020-06-01T18:04:41+00:00	2020-06-03T06:59:59+00:00	-2	qmzdn8z7jm8gss7@marketplace.amazon.com	Mike Meyers	+1 347-448-3190 ext. 89265	ABR001	Purchase Now for Delivery by Wednesday | Arabella Bouquets 12 Stems of Fresh Cut Red Roses in a Free Designer Glass Vase	1	0	1	SecondDay	MICHAEL MEYERS. C/o CFT Deliverush	75 SHOREHAM DR E			DIX HILLS	NY	11746-6534	US		Dear Mary  Love you hope you like flowers From Love Mike	true		Business Price
113-5873096-7779457	16361758999554	2020-06-01T17:38:23+00:00	2020-06-01T10:38:23-07:00	2020-06-01T18:09:05+00:00	2020-06-03T06:59:59+00:00	-2	2xmxdv3yrlbjqcy@marketplace.amazon.com	Linda Jane Maaia	+1 347-448-3190 ext. 05191	ABM0044	Purchase Now for Delivery by Wednesday | Arabella Farm Direct Bouquet of Fresh Cut Blue Hydrangea with a Free Glass Vase	1	0	1	SecondDay	Linda Jane Maaia	18 BOURNE AVE			RUMFORD	RI	02916-2702	US			false		
111-2865030-8981825	63547280064458	2020-06-01T17:42:55+00:00	2020-06-01T10:42:55-07:00	2020-06-01T18:13:15+00:00	2020-06-06T06:59:59+00:00	-5	lt2xrxxp6g5czgs@marketplace.amazon.com	Joy white	+1 347-448-3190 ext. 27598	ABR0022	Delivery by Friday | Arabella Farm Direct Bouquet of 12 Fresh Cut Pink Roses with a Free Glass Vase	1	0	1	Expedited	Joy white	829 Ellingtinton court			Indianapolis	IN	46234	US			false		
113-8831795-4273815	17541780276018	2020-06-01T17:55:50+00:00	2020-06-01T10:55:50-07:00	2020-06-01T18:24:28+00:00	2020-06-05T06:59:59+00:00	-4	4z0w58xjmbrylq5@marketplace.amazon.com	Renee Milch	+1 347-448-3190 ext. 94129	ABR004	Arabella Farm Direct Bouquet of 12 Fresh Cut Yellow Roses with a Free Glass Vase	1	0	1	Expedited	Renee Milch	209 43RD ST			NEWPORT BEACH	CA	92663-2910	US			false		
114-2530084-4695445	40246667093706	2020-06-01T17:57:53+00:00	2020-06-01T10:57:53-07:00	2020-06-01T18:24:53+00:00	2020-06-06T06:59:59+00:00	-5	kx8rxftkf5n2kf8@marketplace.amazon.com	charlie reaves	+1 210-728-4548 ext. 70668	ABR0022	Delivery by Friday | Arabella Farm Direct Bouquet of 12 Fresh Cut Pink Roses with a Free Glass Vase	1	0	1	Expedited	Jamie Hays	471 LINCOLN PL # 1			BROOKLYN	NY	11238-6201	US		To Jamie and Taylor  Thinking of you both, take care.   Charles From charles reaves	false		
114-2224011-9546623	41338416852450	2020-06-01T18:22:48+00:00	2020-06-01T11:22:48-07:00	2020-06-01T18:51:54+00:00	2020-06-05T06:59:59+00:00	-4	5lvb2nljv7z7zcv@marketplace.amazon.com	Vicki Slick	+1 314-282-9402 ext. 51267	ABR0055	Purchase Now for Delivery by Thursday | Arabella Farm Direct Bouquet of 12 Stems of Fresh Cut Hot Pink Roses in a Free Designer Glass Vase	1	0	1	Expedited	Dad	466 Milledge Gate Ter SE			Marietta	GA	30067	US		Happy Birthday Mom, I hope you like the flowers. The kids and I send our love to you!!  Love Vicki, Roland and EriKa From Vicki Slick	false		
112-4120452-5582652	06078935335490	2020-06-01T18:31:34+00:00	2020-06-01T11:31:34-07:00	2020-06-01T18:57:32+00:00	2020-06-05T06:59:59+00:00	-4	9ztv79b0wm2g17x@marketplace.amazon.com	thelma C Duff	+1 314-282-9402 ext. 04806	ABR004	Arabella Farm Direct Bouquet of 12 Fresh Cut Yellow Roses with a Free Glass Vase	1	0	1	Expedited	Jeanne Goodman	6083 STUDLEY RD			MECHANICSVILLE	VA	23116-4744	US		Hoping for a speedy recovery!!  Kip From Thelma C Duff	false		
112-0307697-5785023	41053561992890	2020-06-01T18:33:54+00:00	2020-06-01T11:33:54-07:00	2020-06-01T19:03:42+00:00	2020-06-06T06:59:59+00:00	-5	bmcb70myywvxyr7@marketplace.amazon.com	Somerville Sylvia	+1 314-282-9402 ext. 57335	ABR0022	Delivery by Friday | Arabella Farm Direct Bouquet of 12 Fresh Cut Pink Roses with a Free Glass Vase	1	0	1	Expedited	Adalia Tara Middleton	402 4TH AVE			WASHINGTON GROVE	MD	20880-2005	US		Thank you so much for making the shower so special. I am still feeling so filled with love. I am so grateful to have you in my life. I love you! From Victoria	false		
114-5715446-2214657	54649768473970	2020-06-01T18:41:33+00:00	2020-06-01T11:41:33-07:00	2020-06-01T19:04:26+00:00	2020-06-06T06:59:59+00:00	-5	smlsvj0vk6fyvd0@marketplace.amazon.com	DIANE ABRAHAMSON	+1 347-448-3190 ext. 02235	ABR012	Arabella Farm Direct Bouquet of 18 Fresh Cut Pink Roses with a Free Glass Vase	1	0	1	Expedited	Gisele Sullivan	3 BRENDA CIR			SACO	ME	04072-9737	US		I hope these roses smell as sweet as they look.  The pink color was always a favorite on your mom!  This comes with an invisible hug from us!  We love you!    Di & Mark From DIANE ABRAHAMSON	false		
111-3651877-6393864	50835256539170	2020-06-01T18:35:51+00:00	2020-06-01T11:35:51-07:00	2020-06-01T19:06:15+00:00	2020-06-06T06:59:59+00:00	-5	8m29gcy22plmd3x@marketplace.amazon.com	Kimberly Bailey	+1 347-448-3190 ext. 76642	ABR0022	Delivery by Friday | Arabella Farm Direct Bouquet of 12 Fresh Cut Pink Roses with a Free Glass Vase	1	0	1	Expedited	Kimberly Bailey	13508 ORLANDO RD			NOKESVILLE	VA	20181-3021	US			false		
112-0165026-3922611	49683228216738	2020-06-01T18:38:27+00:00	2020-06-01T11:38:27-07:00	2020-06-01T19:09:00+00:00	2020-06-03T06:59:59+00:00	-2	9ztv79b0wm2g17x@marketplace.amazon.com	thelma C Duff	+1 210-728-4548 ext. 25424	ABR004	Arabella Farm Direct Bouquet of 12 Fresh Cut Yellow Roses with a Free Glass Vase	1	0	1	SecondDay	Elizabeth Duff	309 MANSFIELD PKWY			MOREHEAD CITY	NC	28557-2723	US			false		
111-9649259-5818650	50686491079058	2020-06-01T18:41:14+00:00	2020-06-01T11:41:14-07:00	2020-06-01T19:09:30+00:00	2020-06-03T06:59:59+00:00	-2	ws2srymgt6vdn5h@marketplace.amazon.com	Steve Heitmiller	+1 314-282-9402 ext. 52637	ABM010	Purchase Now for Delivery by Thursday | Arabella Bouquets | Fields of The World Bouquet of Fresh Cut Flowers in a Free Designer Glass Vase	1	0	1	SecondDay	susie rainville	8317 DILLARD RD			WILTON	CA	95693-9680	US		Happy Birthday Susie! Love, Nena :) From Nena Heitmiller	false		
112-5532413-3426656	17271945810194	2020-06-01T18:56:00+00:00	2020-06-01T11:56:00-07:00	2020-06-01T19:22:53+00:00	2020-06-06T06:59:59+00:00	-5	fqcjhlq831jktcc@marketplace.amazon.com	John Maher	715-601-27709	ABR0022	Delivery by Friday | Arabella Farm Direct Bouquet of 12 Fresh Cut Pink Roses with a Free Glass Vase	1	0	1	Expedited	Jackie Sullivan	86 HARVARD AVE			DEPEW	NY	14043-2810	US			false		
114-7809804-1351464	57759115746138	2020-06-01T19:06:03+00:00	2020-06-01T12:06:03-07:00	2020-06-01T19:27:48+00:00	2020-06-06T06:59:59+00:00	-5	cs0xhn31jwgtmxc@marketplace.amazon.com	Randee	+1 210-728-4548 ext. 39624	ABR0022	Delivery by Friday | Arabella Farm Direct Bouquet of 12 Fresh Cut Pink Roses with a Free Glass Vase	1	0	1	Expedited	Meryl Fischer	38 DRAW BRIDGE DR			MONROE	NJ	08831-7953	US		Sending love to you. From Randee, Rob and Trevor	false		
112-2938118-8373818	27230237358738	2020-06-01T19:15:31+00:00	2020-06-01T12:15:31-07:00	2020-06-01T19:35:46+00:00	2020-06-03T06:59:59+00:00	-2	lfj50kvc99sj5z8@marketplace.amazon.com	Bruce Allen	+1 347-448-3190 ext. 80662	ABR0055	Purchase Now for Delivery by Thursday | Arabella Farm Direct Bouquet of 12 Stems of Fresh Cut Hot Pink Roses in a Free Designer Glass Vase	1	0	1	SecondDay	Brea Allen	1618 URBANA AVE			NEW SHARON	IA	50207-8218	US		We’re so sorry you’re going through such a heartbreaking time right now. You guys are the best pet parents ever, providing a warm and loving home to Deej, Nallah and Meatball.  Sending lots of hugs your way! From Love T and Dad	true		
114-9501186-1807435	06039902181490	2020-06-01T19:10:32+00:00	2020-06-01T12:10:32-07:00	2020-06-01T19:40:21+00:00	2020-06-03T06:59:59+00:00	-2	zqkch96w42bzkpy@marketplace.amazon.com	eric Johnson	+1 347-448-3190 ext. 67836	ABM010	Purchase Now for Delivery by Thursday | Arabella Bouquets | Fields of The World Bouquet of Fresh Cut Flowers in a Free Designer Glass Vase	1	0	1	SecondDay	Louise Paparella	19364 CEDAR CREST CT LOT 5E			N FORT MYERS	FL	33903-6648	US			false		
112-5182798-6689854	51458274936362	2020-06-01T19:03:56+00:00	2020-06-01T12:03:56-07:00	2020-06-01T19:43:52+00:00	2020-06-03T06:59:59+00:00	-2	mjzlp7dv6tmcr2f@marketplace.amazon.com	Celeste	+1 210-728-4548 ext. 74205	ABM010	Purchase Now for Delivery by Thursday | Arabella Bouquets | Fields of The World Bouquet of Fresh Cut Flowers in a Free Designer Glass Vase	1	0	1	SecondDay	Annie	3781 W PONY TRL			TUCSON	AZ	85742-8850	US		I hope these brighten up your day :) I love you so much Annie! From Celeste	false		
113-3975302-6123404	37331443103346	2020-06-01T19:18:25+00:00	2020-06-01T12:18:25-07:00	2020-06-01T19:46:46+00:00	2020-06-03T06:59:59+00:00	-2	nxy0d79zx3khj28@marketplace.amazon.com	Benjamin Milligan	+1 210-728-4548 ext. 68289	ABR0033	Arabella Farm Direct Bouquet of 12 Fresh Cut Orange Roses with a Free Glass Vase	1	0	1	SecondDay	Carol schultheis	124 EAST ST			DERRY	PA	15627-1914	US		Happy birthday. We love you.                         Love Amy Ben and kids From Benjamin Milligan	false		
113-6794431-8447419	10536677088466	2020-06-01T19:25:20+00:00	2020-06-01T12:25:20-07:00	2020-06-01T19:53:53+00:00	2020-06-06T06:59:59+00:00	-5	z17wzqqmxgj4cqy@marketplace.amazon.com	Martha Killeen	+1 210-728-4548 ext. 87972	ABR0022	Delivery by Friday | Arabella Farm Direct Bouquet of 12 Fresh Cut Pink Roses with a Free Glass Vase	1	0	1	Expedited	Hilda Goldstein	11401 OLD SAINT AUGUSTINE RD	RIVER GARDEN HEBREW HOME # 149		JACKSONVILLE	FL	32258-1402	US			false		
114-6569454-6683458	31476120933138	2020-06-01T19:41:56+00:00	2020-06-01T12:41:56-07:00	2020-06-01T20:04:32+00:00	2020-06-03T06:59:59+00:00	-2	lbkwjlmbqg3h89p@marketplace.amazon.com	Sadek Omary	+1 347-448-3190 ext. 88369	ABR0066	Purchase Now for Delivery by Thursday | Arabella Bouquets | 12 Stems of Fresh Cut White Roses in a Free Designer Glass Vase	1	0	1	SecondDay	Dana Feeney	1025 OLD FORD RD			HUNTINGDON VALLEY	PA	19006-8606	US		Our deepest condolences to your family - Happy that you all can finally get the closure that you need and deserve. From Nora Omary & Family	false		
113-9841918-0161814	49997959841202	2020-06-01T19:34:31+00:00	2020-06-01T12:34:31-07:00	2020-06-01T20:04:43+00:00	2020-06-03T06:59:59+00:00	-2	6qfzdbzylbp1m5z@marketplace.amazon.com	Marie L Robinson	+1 314-282-9402 ext. 32905	ABM019	Arabella Bouquets | The Desert Sun Bouquet in a Free Designer Glass Vase	1	0	1	SecondDay	Diana Stuelke	1235 S 24TH ST LAUREL GROVE	RM 216		MANITOWOC	WI	54220-5516	US			false		
112-7223253-5289054	68603178258834	2020-06-01T20:20:11+00:00	2020-06-01T13:20:11-07:00	2020-06-01T20:45:22+00:00	2020-06-03T06:59:59+00:00	-2	rfxp7fhfrhy2yhn@marketplace.amazon.com	Berkeley College Information Systems	+1 210-728-4548 ext. 09308	ABR014	Purchase Now for Delivery by Thursday | Arabella Bouquets 18 Stems of Fresh Cut White Roses in a Free Designer Glass Vase	1	0	1	SecondDay	Sunder NagarajanPOS.Nagarajan - flowers (LEN)	19 ASH LN			RANDOLPH	NJ	07869-4758	US		Sunder, My deepest condolences to you and your family during this time. Len on behalf of the IS team	true	S.Nagarajan - flowers (LEN)	
112-1681417-9923402	58753333033034	2020-06-01T20:24:03+00:00	2020-06-01T13:24:03-07:00	2020-06-01T20:51:32+00:00	2020-06-03T06:59:59+00:00	-2	zrn4mqxcnyl9d0n@marketplace.amazon.com	Patricia Benson	+1 412-532-4665 ext. 24768	ABR0033	Arabella Farm Direct Bouquet of 12 Fresh Cut Orange Roses with a Free Glass Vase	1	0	1	SecondDay	Tiffany Olson	23907 NOOKACHAMP HILLS DR			MOUNT VERNON	WA	98274-9187	US		Hope you feel better soon! Love Mom and Mike From Patricia Benson	false		
111-5382483-0080234	64017751546282	2020-06-01T20:23:42+00:00	2020-06-01T13:23:42-07:00	2020-06-01T20:53:04+00:00	2020-06-03T06:59:59+00:00	-2	vv353dw23j0dysb@marketplace.amazon.com	rylan	+1 347-448-3190 ext. 21440	ABR0055	Purchase Now for Delivery by Thursday | Arabella Farm Direct Bouquet of 12 Stems of Fresh Cut Hot Pink Roses in a Free Designer Glass Vase	1	0	1	SecondDay	Rylan Macallister	11587 DAFFODIL LN			REDDING	CA	96003-8206	US		Happy Anniversary beautiful !	false		
113-7306633-3011456	58764323197882	2020-06-01T20:31:45+00:00	2020-06-01T13:31:45-07:00	2020-06-01T20:55:08+00:00	2020-06-03T06:59:59+00:00	-2	gp43hbm5lrpnfmx@marketplace.amazon.com	Amanda Morin	+1 763-225-9463 ext. 88917	ABM010	Purchase Now for Delivery by Thursday | Arabella Bouquets | Fields of The World Bouquet of Fresh Cut Flowers in a Free Designer Glass Vase	1	0	1	SecondDay	Cyndi Tredway	3 ALMADOR			IRVINE	CA	92614-8400	US		Hi Cyndi, Congrats on the birth of your baby girl Navien welcomes Leah Robles to the family!!	true		
114-3605425-0863401	04852968966650	2020-06-01T20:49:56+00:00	2020-06-01T13:49:56-07:00	2020-06-01T21:06:49+00:00	2020-06-03T06:59:59+00:00	-2	ys7gkb0fgszs8pd@marketplace.amazon.com	jonathan osborne	+1 210-728-4548 ext. 94133	ABM010	Purchase Now for Delivery by Thursday | Arabella Bouquets | Fields of The World Bouquet of Fresh Cut Flowers in a Free Designer Glass Vase	1	0	1	SecondDay	Jennifer Rager	6417 HAZELFIELD CT			WENDELL	NC	27591-9799	US		Hello, Sister Jennifer! You are in the prayers of Highland Hills Church. We love you and Bro. Bill!! Love from Greeley, Pastor Osborne and Church	false		
114-9353713-6071424	66763878057442	2020-06-01T20:50:40+00:00	2020-06-01T13:50:40-07:00	2020-06-01T21:07:09+00:00	2020-06-03T06:59:59+00:00	-2	zqkq20y4qwnf28l@marketplace.amazon.com	Dr. William Martin Sloane	+1 314-282-9402 ext. 75752	ABSR003	Arabella Bouquets Fresh Cut Yellow Spray Roses in a Free Designer Glass Vase	1	0	1	SecondDay	Sara Sloane McMahon	301 CAMPBELL RD			WILMINGTON	DE	19807-2009	US		Hi Baby Girl, You get only one 30th -- hope it's great! Love, Daddy, Asya, Lozanka, Will & Carys OXOX	false		
114-0272976-8988255	39711294063410	2020-06-01T20:40:51+00:00	2020-06-01T13:40:51-07:00	2020-06-01T21:10:51+00:00	2020-06-03T06:59:59+00:00	-2	ffrp9ncb7d7n2n5@marketplace.amazon.com	Simon D Sherr	+1 210-728-4548 ext. 28916	ABR0055	Purchase Now for Delivery by Thursday | Arabella Farm Direct Bouquet of 12 Stems of Fresh Cut Hot Pink Roses in a Free Designer Glass Vase	1	0	1	SecondDay	Simon Sherr	296 TUSKA RESERVE CV			CASSELBERRY	FL	32707-4121	US			false		
112-1304167-4317060	47884342173978	2020-06-01T20:48:41+00:00	2020-06-01T13:48:41-07:00	2020-06-01T21:17:31+00:00	2020-06-03T06:59:59+00:00	-2	74tnj4tg3yxq5wg@marketplace.amazon.com	Jim Jemail	+1 763-225-9463 ext. 71325	ABR0066	Purchase Now for Delivery by Thursday | Arabella Bouquets | 12 Stems of Fresh Cut White Roses in a Free Designer Glass Vase	1	0	1	SecondDay	The Robbins Family	93 PACER CIR			WELLINGTON	FL	33414-4049	US		Happy happy birthday to my big-hearted, beautiful friend! I hope you have a wonderful day! Love you lots❤️ From Nasreen Jemail	false		
111-0434468-6108207	08241224385466	2020-06-01T20:57:41+00:00	2020-06-01T13:57:41-07:00	2020-06-01T21:28:22+00:00	2020-06-06T06:59:59+00:00	-5	lt2xrxxp6g5czgs@marketplace.amazon.com	Joy white	+1 314-282-9402 ext. 45552	ABR0022	Delivery by Friday | Arabella Farm Direct Bouquet of 12 Fresh Cut Pink Roses with a Free Glass Vase	1	0	1	Expedited	Joy white	829 Ellingtinton court			Indianapolis	IN	46234	US			false		
113-2755522-0625839	44110799741642	2020-06-01T21:08:52+00:00	2020-06-01T14:08:52-07:00	2020-06-01T21:37:23+00:00	2020-06-03T06:59:59+00:00	-2	78qd7n4m1814hbr@marketplace.amazon.com	Dorothy Hoffmann	+1 347-448-3190 ext. 82341	ABM010	Purchase Now for Delivery by Thursday | Arabella Bouquets | Fields of The World Bouquet of Fresh Cut Flowers in a Free Designer Glass Vase	1	0	1	SecondDay	Gail Jackson	4255 S Olive Street #13			Denver	CO	80237	US		Hi Gail, Happy Milestone Birthday! Love you! From Dorothy Hoffmann	false		
112-4070113-4086650	40482057040498	2020-06-01T21:24:50+00:00	2020-06-01T14:24:50-07:00	2020-06-01T21:41:36+00:00	2020-06-03T06:59:59+00:00	-2	286wr541hlnllsb@marketplace.amazon.com	Monty	+1 314-282-9402 ext. 48666	ABR001	Purchase Now for Delivery by Thursday | Arabella Bouquets 12 Stems of Fresh Cut Red Roses in a Free Designer Glass Vase	1	0	1	SecondDay	Jessica Newhard	1441 PRESTON RD			CATAULA	GA	31804-3017	US		Mom, Im sorry Im not there. I know your heartbroken and in pain. I know you want to talk but I'm not ready. All I ask is patience and space. I want a relationship in the future I just need time. Happy Birthday! I love you.	false		
113-4736959-2090634	43618498589098	2020-06-01T21:14:42+00:00	2020-06-01T14:14:42-07:00	2020-06-01T21:44:19+00:00	2020-06-03T06:59:59+00:00	-2	2y2d0s64mvjrtzz@marketplace.amazon.com	jrm325@scarletmail.rutgers.edu	+1 210-728-4548 ext. 66863	ABB011	Arabella Bouquets 24 Stems of Fresh Cut Hot Pink Roses in a Free Designer Glass Vase	1	0	1	SecondDay	Yui Kurakake	2 KATHY CT			LOCUST VALLEY	NY	11560-1914	US		Congrats on finishing your second year of Vet School! You’re half way there! From Jake	false		
113-0133260-3952278	26095564552042	2020-06-01T21:30:31+00:00	2020-06-01T14:30:31-07:00	2020-06-01T21:52:49+00:00	2020-06-03T06:59:59+00:00	-2	2zctv6bhycdp8kx@marketplace.amazon.com	mary mcdonald	+1 314-282-9402 ext. 68851	ABM010	Purchase Now for Delivery by Thursday | Arabella Bouquets | Fields of The World Bouquet of Fresh Cut Flowers in a Free Designer Glass Vase	1	0	1	SecondDay	Margaux Filet	609 CLAYTON LN APT 552			AUSTIN	TX	78752-0619	US		Hi Margaux and James,  Wishing you much happiness and love as you settle into your new apartment!    XXOO Mom, Dad, Nora and Nala	false		
112-3070829-6815435	22999957590514	2020-06-01T21:25:28+00:00	2020-06-01T14:25:28-07:00	2020-06-01T21:53:33+00:00	2020-06-03T06:59:59+00:00	-2	08trgs7s3rxx60d@marketplace.amazon.com	Tim Brosnan	+1 314-282-9402 ext. 49458	ABM010	Purchase Now for Delivery by Thursday | Arabella Bouquets | Fields of The World Bouquet of Fresh Cut Flowers in a Free Designer Glass Vase	1	0	1	SecondDay	Kathleen Brosnan	1112 FOUNTAIN GATE CT			NORMAN	OK	73072-3908	US		Enjoy your gift! Happy Birthday Kathy!!❤️🍾🎂 From With Love, Tim & Barb & Family From With Love, Tim & Barb & Family	false		
111-4973519-6869015	35560923704722	2020-06-01T21:25:25+00:00	2020-06-01T14:25:25-07:00	2020-06-01T21:55:14+00:00	2020-06-03T06:59:59+00:00	-2	hskhpxkbjpfspf4@marketplace.amazon.com	madi nassiri	+1 210-728-4548 ext. 28273	ABR001	Purchase Now for Delivery by Thursday | Arabella Bouquets 12 Stems of Fresh Cut Red Roses in a Free Designer Glass Vase	1	0	1	SecondDay	Holly	10613 SHADY CIR			SILVER SPRING	MD	20903-1236	US			false		
112-1620005-9497866	00633963171698	2020-06-01T21:31:19+00:00	2020-06-01T14:31:19-07:00	2020-06-01T21:56:14+00:00	2020-06-03T06:59:59+00:00	-2	39cqppmfpk0kmtf@marketplace.amazon.com	krystal torres	+1 314-282-9402 ext. 53551	ABM010	Purchase Now for Delivery by Thursday | Arabella Bouquets | Fields of The World Bouquet of Fresh Cut Flowers in a Free Designer Glass Vase	1	0	1	SecondDay	Serena Cunneen	1558 AVENIDA ENTRADA			SAN DIMAS	CA	91773-4006	US		Mrs. Cunneen, We are so very grateful for your hard work and dedication this year! We are wishing you such a wonderful summer break! It has been well earned! From Brooklyn and The Torres Family	false		
114-5840911-0434634	36746912192682	2020-06-01T21:26:26+00:00	2020-06-01T14:26:26-07:00	2020-06-01T21:56:31+00:00	2020-06-03T06:59:59+00:00	-2	d69dkhcnvz15tl7@marketplace.amazon.com	lajuan	+1 347-448-3190 ext. 94927	ABR001	Purchase Now for Delivery by Thursday | Arabella Bouquets 12 Stems of Fresh Cut Red Roses in a Free Designer Glass Vase	1	0	1	SecondDay	Erica	12938 W WHITTON AVE AVONDALE			AVONDALE	AZ	85392-6705	US			false		
112-3956419-1870666	06209190491186	2020-06-01T21:29:54+00:00	2020-06-01T14:29:54-07:00	2020-06-01T21:59:31+00:00	2020-06-03T06:59:59+00:00	-2	99gczst856x27gs@marketplace.amazon.com	Erika	+1 347-448-3190 ext. 49419	ABR001	Purchase Now for Delivery by Thursday | Arabella Bouquets 12 Stems of Fresh Cut Red Roses in a Free Designer Glass Vase	1	0	1	SecondDay	Irena Connelly	5824 LOCUST VALLEY RD			COOPERSBURG	PA	18036-2714	US		Vsetko najlepsie From Mama	false		
114-9494913-3058664	60362401925946	2020-06-01T21:50:54+00:00	2020-06-01T14:50:54-07:00	2020-06-01T22:21:01+00:00	2020-06-03T06:59:59+00:00	-2	fh0kz8bv9whrhl3@marketplace.amazon.com	Tyler	+1 347-448-3190 ext. 69373	ABR001	Purchase Now for Delivery by Thursday | Arabella Bouquets 12 Stems of Fresh Cut Red Roses in a Free Designer Glass Vase	1	0	1	SecondDay	Caralene Fisher	224 ORANGE LN HAWTHORNE FL 32640			HAWTHORNE	FL	32640-4144	US			false		
114-5819205-0925020	22418102641042	2020-06-01T21:51:27+00:00	2020-06-01T14:51:27-07:00	2020-06-01T22:22:03+00:00	2020-06-03T06:59:59+00:00	-2	s395psw1wb46wn0@marketplace.amazon.com	Daryl		ABM0044	Purchase Now for Delivery by Thursday | Arabella Farm Direct Bouquet of Fresh Cut Blue Hydrangea with a Free Glass Vase	1	0	1	SecondDay	DARYL Fletcher	3655 DAVIS BLVD			ATLANTA	GA	30349	US			false		
114-2362700-7052261	64976323844066	2020-06-01T21:56:44+00:00	2020-06-01T14:56:44-07:00	2020-06-01T22:25:24+00:00	2020-06-03T06:59:59+00:00	-2	d7t09vytgd37dlf@marketplace.amazon.com	Daniel Olaniran	+1 210-728-4548 ext. 82827	ABR001	Purchase Now for Delivery by Thursday | Arabella Bouquets 12 Stems of Fresh Cut Red Roses in a Free Designer Glass Vase	1	0	1	SecondDay	Oluwatosin Gloria Ayoade	9608 SMITHVIEW PL			GLENARDEN	MD	20706-1698	US		Can’t wait to marry you babe ❤️. Love you. From Mayowa	false		
114-2802592-1729867	23832131214714	2020-06-01T22:06:36+00:00	2020-06-01T15:06:36-07:00	2020-06-01T22:34:03+00:00	2020-06-03T06:59:59+00:00	-2	0cnygk8nr9s9rrt@marketplace.amazon.com	Kristi Loiacono	+1 210-728-4548 ext. 14162	ABR0055	Purchase Now for Delivery by Thursday | Arabella Farm Direct Bouquet of 12 Stems of Fresh Cut Hot Pink Roses in a Free Designer Glass Vase	1	0	1	SecondDay	Patti Hensel	811 S 2ND ST			HAMILTON	MT	59840-3063	US		Thinking of you and hope you're feeling a little better!  Love you, Kristi From Kristi Loiacono	false		
111-6753456-6882651	41241422029242	2020-06-01T22:12:01+00:00	2020-06-01T15:12:01-07:00	2020-06-01T22:42:36+00:00	2020-06-03T06:59:59+00:00	-2	5qvdyhhxdwvk7bl@marketplace.amazon.com	Marcus jones	+1 347-448-3190 ext. 57330	ABR0055	Purchase Now for Delivery by Thursday | Arabella Farm Direct Bouquet of 12 Stems of Fresh Cut Hot Pink Roses in a Free Designer Glass Vase	1	0	1	SecondDay	Marcus Jones	2707 W 84TH PL			CHICAGO	IL	60652-3913	US			false		
114-8278447-0681810	05297388302746	2020-06-01T22:18:33+00:00	2020-06-01T15:18:33-07:00	2020-06-01T22:49:07+00:00	2020-06-06T06:59:59+00:00	-5	2z9tnb6s5vfqx2y@marketplace.amazon.com	Sylvia Blumberg	+1 210-728-4548 ext. 10643	ABR0022	Delivery by Friday | Arabella Farm Direct Bouquet of 12 Fresh Cut Pink Roses with a Free Glass Vase	1	0	1	Expedited	Sylvia Blumberg	150 OCEAN PKWY APT 5D			BROOKLYN	NY	11218-2485	US			false		
112-6635812-3651407	11033780441610	2020-06-01T22:32:34+00:00	2020-06-01T15:32:34-07:00	2020-06-01T22:55:58+00:00	2020-06-03T06:59:59+00:00	-2	pn8w611by3h1jxj@marketplace.amazon.com	Edward Thomas Canuel	+1 347-448-3190 ext. 34378	ABM010	Purchase Now for Delivery by Thursday | Arabella Bouquets | Fields of The World Bouquet of Fresh Cut Flowers in a Free Designer Glass Vase	1	0	1	SecondDay	Teresa Canuel	21 BURNSIDE DR			SWANSEA	MA	02777-1005	US		Despite my best efforts, you made it through another year!  Hope you celebrate in style with a really big ice cream cone!  You deserve that (and much more). From With lots of love, Ed (your amazing son)	false		
111-4239277-7627440	51657112127978	2020-06-01T22:29:39+00:00	2020-06-01T15:29:39-07:00	2020-06-01T23:00:13+00:00	2020-06-06T06:59:59+00:00	-5	wfgn5m6dpxnfryc@marketplace.amazon.com	Joy N Sacco	+1 210-728-4548 ext. 34011	ABR0022	Delivery by Friday | Arabella Farm Direct Bouquet of 12 Fresh Cut Pink Roses with a Free Glass Vase	1	0	1	Expedited	Jillian Joy Sacco	1474 FAIRHAVEN CT			SAN JOSE	CALIFORNIA	95118-1114	US			false		
114-5759207-5008208	45900016150386	2020-06-01T22:36:08+00:00	2020-06-01T15:36:08-07:00	2020-06-01T23:04:13+00:00	2020-06-03T06:59:59+00:00	-2	5pmy4vztwmj9vmz@marketplace.amazon.com	gracelee	+1 347-448-3190 ext. 70723	ABR0066	Purchase Now for Delivery by Thursday | Arabella Bouquets | 12 Stems of Fresh Cut White Roses in a Free Designer Glass Vase	1	0	1	SecondDay	Ant Wilson	49 WASHINGTON ST			SPRINGFIELD	MA	01108-2762	US		Antoinette im so sorry for your loss. I will always be here for you . I love you ant. From Gracelee V.	false		
113-2601689-1640237	62057548412442	2020-06-01T22:38:36+00:00	2020-06-01T15:38:36-07:00	2020-06-01T23:04:39+00:00	2020-06-03T06:59:59+00:00	-2	gq4n45mw2k4l8j3@marketplace.amazon.com	Darlene Potts	+1 314-282-9402 ext. 66981	ABM010	Purchase Now for Delivery by Thursday | Arabella Bouquets | Fields of The World Bouquet of Fresh Cut Flowers in a Free Designer Glass Vase	1	0	1	SecondDay	Vickie Ware	8341 W 52ND AVE			ARVADA	CO	80002-3506	US		We think about you every day. We love you. Love, Lori, Hank, Marc and Marie From Marie Doucette	false		
112-0451916-6739401	34960861517474	2020-06-01T22:37:52+00:00	2020-06-01T15:37:52-07:00	2020-06-01T23:06:32+00:00	2020-06-03T06:59:59+00:00	-2	9xk4lx4bzzjbzyk@marketplace.amazon.com	David Hodge	+1 314-282-9402 ext. 91211	ABR0033	Arabella Farm Direct Bouquet of 12 Fresh Cut Orange Roses with a Free Glass Vase	1	0	1	SecondDay	Joan jordan	908 FLORA LN			UPPER CHICHESTER	PA	19061-3107	US		Hi Joan, Wishing you a happy birthday! From Ursula, Susan, and Sharon	false		
114-6843099-9745831	53948905533858	2020-06-01T22:57:44+00:00	2020-06-01T15:57:44-07:00	2020-06-01T23:10:40+00:00	2020-06-05T06:59:59+00:00	-4	93gdsp7l778pfwn@marketplace.amazon.com	Dharam Kumar	+1 314-282-9402 ext. 29810	ABR004	Arabella Farm Direct Bouquet of 12 Fresh Cut Yellow Roses with a Free Glass Vase	1	0	1	Standard	Gautam Kumar	1700 HALFORD AVE APT 223			SANTA CLARA	CA	95051-2604	US		Dear Gautam, many happy returns of the day. We hope you have a lovely day of celebrations.  We very fondly remember our time in the USA. Hoping to see you very soon. Warm wishes, Dharam & Swati From Dr Dharam Kumar	false		
111-2620106-8260263	37791350213874	2020-06-01T22:56:52+00:00	2020-06-01T15:56:52-07:00	2020-06-01T23:21:20+00:00	2020-06-03T06:59:59+00:00	-2	89kn8dl7849kmzt@marketplace.amazon.com	JAROSLAVA SUTAK	+1 210-728-4548 ext. 15394	ABR0055	Purchase Now for Delivery by Thursday | Arabella Farm Direct Bouquet of 12 Stems of Fresh Cut Hot Pink Roses in a Free Designer Glass Vase	1	0	1	SecondDay	KATELYN MAINE	160 GAGE RD			OWEGO	NY	13827-4541	US		HAPPY 18TH BIRTHDAY!!! LOVE GRANDMA AND GRANDPA From JAROSLAVA SUTAK	false		
112-1047672-0017032	06299676431074	2020-06-01T22:54:23+00:00	2020-06-01T15:54:23-07:00	2020-06-01T23:23:26+00:00	2020-06-03T06:59:59+00:00	-2	h3zcmtr87bldg02@marketplace.amazon.com	Chris	+1 763-225-9463 ext. 15483	ABM010	Purchase Now for Delivery by Thursday | Arabella Bouquets | Fields of The World Bouquet of Fresh Cut Flowers in a Free Designer Glass Vase	1	0	1	SecondDay	Grace Rijo	28 SYLVIA LN			LINCOLN	RI	02865-4537	US		I hope you enjoy these flowers and that they brighten up your day. I love you! From Chris Thornton	false		
111-2098168-1825857	03061888190698	2020-06-01T23:01:12+00:00	2020-06-01T16:01:12-07:00	2020-06-01T23:30:17+00:00	2020-06-03T06:59:59+00:00	-2	j5ft30y9r59lkcx@marketplace.amazon.com	Jay	+1 210-728-4548 ext. 46423	ABR0055	Purchase Now for Delivery by Thursday | Arabella Farm Direct Bouquet of 12 Stems of Fresh Cut Hot Pink Roses in a Free Designer Glass Vase	1	0	1	SecondDay	Angie Boparai	2024 FEATHERMINT DR			SAN RAMON	CA	94582-5268	US		Happy Happy Birthday!! We hope you have a smiling, laughing, peaceful day. May you always be living life to the fullest! Love you:) Love- The Chawlas From Chawla Family	false		
113-4654279-8825819	19143346043274	2020-06-01T23:01:50+00:00	2020-06-01T16:01:50-07:00	2020-06-01T23:30:17+00:00	2020-06-03T06:59:59+00:00	-2	4qxpdgsjt9kvm5k@marketplace.amazon.com	Hope Malone	+1 347-448-3190 ext. 63641	ABM002	Purchase Now for Delivery by Thursday | Arabella Bouquets Fresh Cut White Calla Lilies in a Free Designer Glass Vase	1	0	1	SecondDay	Jennifer Villasor	2134 RED TIMBER CT			LEAGUE CITY	TX	77573-3284	US		Hey Brownie!!  Happy Happy Birthday!! Hope you have a beautiful day!! Love you bunches. From Hope McCartney	false		
111-7609601-2341814	53682206001930	2020-06-01T23:23:48+00:00	2020-06-01T16:23:48-07:00	2020-06-01T23:45:24+00:00	2020-06-03T06:59:59+00:00	-2	qwggmb6vg1b1spr@marketplace.amazon.com	Pamela Ferris	+1 347-448-3190 ext. 41926	ABR0055	Purchase Now for Delivery by Thursday | Arabella Farm Direct Bouquet of 12 Stems of Fresh Cut Hot Pink Roses in a Free Designer Glass Vase	1	0	1	SecondDay	Margaret Allis	2770 MANCHESTER RD			ANN ARBOR	MI	48104-6570	US		Happy birthday my beautiful Mother-we love you so much- and hope we can give you a hug very soon! XxooPam, Kenny and Ken Sr. From Pamela Ferris	false		
112-2870175-6581855	23586148395466	2020-06-01T23:25:51+00:00	2020-06-01T16:25:51-07:00	2020-06-01T23:53:15+00:00	2020-06-06T06:59:59+00:00	-5	45ddswp8mznyv19@marketplace.amazon.com	Tamara Tilton	+1 314-282-9402 ext. 74296	ABR0022	Delivery by Friday | Arabella Farm Direct Bouquet of 12 Fresh Cut Pink Roses with a Free Glass Vase	1	0	1	Expedited	Kimberly Fischer	7629 W CARLOTA LN			PEORIA	AZ	85383-3116	US		Because I love you! All my love - Tam From Tamara Tilton	false		
114-2515381-8179448	35555802932490	2020-06-01T23:28:11+00:00	2020-06-01T16:28:11-07:00	2020-06-01T23:57:03+00:00	2020-06-06T06:59:59+00:00	-5	63mwh4x8bddq4jj@marketplace.amazon.com	Kevin S. Kullby	+331 225 9174	ABR0022	Delivery by Friday | Arabella Farm Direct Bouquet of 12 Fresh Cut Pink Roses with a Free Glass Vase	1	0	1	Expedited	Lisa Zabratanski	1023 PETERS CT			LAKE ZURICH	IL	60047-1451	US			false		
112-5309579-8419405	30766838148506	2020-06-01T23:41:00+00:00	2020-06-01T16:41:00-07:00	2020-06-02T00:02:12+00:00	2020-06-03T06:59:59+00:00	-2	2mbygsrtw187zy3@marketplace.amazon.com	Phyllis E. Bomas	+1 347-448-3190 ext. 98360	ABR012	Arabella Farm Direct Bouquet of 18 Fresh Cut Pink Roses with a Free Glass Vase	1	0	1	SecondDay	Sue Micros	324 MARINA VIEW LN			WEBSTER	NY	14580-1756	US		Thinking of you and praying for your good health.  Love, Phyl and Ken From Phyllis E. Bomas	false		
113-3228786-9712255	04841624102906	2020-06-02T00:06:31+00:00	2020-06-01T17:06:31-07:00	2020-06-02T00:34:14+00:00	2020-06-03T06:59:59+00:00	-2	725dy47jnq3k63g@marketplace.amazon.com	SusFrat	+1 210-728-4548 ext. 82881	ABM010	Purchase Now for Delivery by Thursday | Arabella Bouquets | Fields of The World Bouquet of Fresh Cut Flowers in a Free Designer Glass Vase	1	0	1	SecondDay	Amy Marston	318 PATRICK WAY			ROYERSFORD	PA	19468-3325	US		Happy Birthday To My Beautiful Daughter who I love so much.  xoxoxoxo From Love, Your Mom	false		
111-1237295-4272214	49308033198546	2020-06-02T00:18:56+00:00	2020-06-01T17:18:56-07:00	2020-06-02T00:46:41+00:00	2020-06-03T06:59:59+00:00	-2	xg6jtj3mj18jgj0@marketplace.amazon.com	Taggart C. Sorensen	+1 347-448-3190 ext. 78704	ABR0055	Purchase Now for Delivery by Thursday | Arabella Farm Direct Bouquet of 12 Stems of Fresh Cut Hot Pink Roses in a Free Designer Glass Vase	1	0	1	SecondDay	Alicia Sorensen	2312 BROCK ST			MISSION	TX	78572-3219	US		Enjoy your gift! From Taggart C. Sorensen	false		
113-4206239-6217023	18462143974882	2020-06-02T00:32:34+00:00	2020-06-01T17:32:34-07:00	2020-06-02T01:00:30+00:00	2020-06-03T06:59:59+00:00	-2	9t3m1ybrg2wn5jv@marketplace.amazon.com	Cathy	+1 314-282-9402 ext. 82780	ABR0066	Purchase Now for Delivery by Thursday | Arabella Bouquets | 12 Stems of Fresh Cut White Roses in a Free Designer Glass Vase	1	0	1	SecondDay	Mandy Hlusak	106 LAUGHING OAK LN APT 107			WILMINGTON	NC	28401-6172	US			false		
112-2924223-1657864	29729217971594	2020-06-02T00:34:46+00:00	2020-06-01T17:34:46-07:00	2020-06-02T01:04:43+00:00	2020-06-03T06:59:59+00:00	-2	vlrfnb5sy493vvw@marketplace.amazon.com	Sandra Jackson	+1 210-728-4548 ext. 85540	ABR001	Purchase Now for Delivery by Thursday | Arabella Bouquets 12 Stems of Fresh Cut Red Roses in a Free Designer Glass Vase	1	0	1	SecondDay	Wilma Wilkerson	7316 THOMAS JEFFERSON CIR E			BARTOW	FL	33830-9463	US			false		
112-6374549-1936208	35346606135226	2020-06-02T00:39:34+00:00	2020-06-01T17:39:34-07:00	2020-06-02T01:05:55+00:00	2020-06-03T06:59:59+00:00	-2	zkrrvfm8qcd7bbm@marketplace.amazon.com	Heeyde Hidalgo	+1 314-282-9402 ext. 79087	ABR011	Purchase Now for Delivery by Thursday | Arabella Bouquets 18 Stems of Fresh Cut Red Roses in a Free Glass Vase	1	0	1	SecondDay	David Guarrera	32 N ST NW			WASHINGTON	DC	20001-1255	US		Feliz cumpleaños mi amor perfecto! De Heeyde Hidalgo	false		
114-3915192-1713841	60051234649754	2020-06-02T01:05:58+00:00	2020-06-01T18:05:58-07:00	2020-06-02T01:06:48+00:00	2020-06-03T06:59:59+00:00	-2	kkmhnknwhybfks3@marketplace.amazon.com	Patricia Larson	+1 347-448-3190 ext. 58922	ABR012	Arabella Farm Direct Bouquet of 18 Fresh Cut Pink Roses with a Free Glass Vase	1	0	1	SecondDay	Dolly Mach	105 VEDDERS AVE			PEASE	MN	56363-2500	US			false		
114-7753922-6945826	08162798126594	2020-06-02T00:37:30+00:00	2020-06-01T17:37:30-07:00	2020-06-02T01:08:11+00:00	2020-06-03T06:59:59+00:00	-2	j6l093gnsv956bm@marketplace.amazon.com	Sarah Case	+1 314-282-9402 ext. 90679	ABR001	Purchase Now for Delivery by Thursday | Arabella Bouquets 12 Stems of Fresh Cut Red Roses in a Free Designer Glass Vase	1	0	1	SecondDay	Lori Gautier	331 RAPID RILL LN			BROWNSBURG	IN	46112-2154	US			false		
113-2057707-0002654	65688385848146	2020-06-02T00:46:00+00:00	2020-06-01T17:46:00-07:00	2020-06-02T01:15:01+00:00	2020-06-03T06:59:59+00:00	-2	pcjbkfmtp2gslhz@marketplace.amazon.com	Taushia Haist	+1 314-282-9402 ext. 03515	ABR004	Arabella Farm Direct Bouquet of 12 Fresh Cut Yellow Roses with a Free Glass Vase	1	0	1	SecondDay	Diane Bronson	11470 CAMPBELL RD			TITUSVILLE	PA	16354-5720	US		Happy Birthday, Grandma Diane! We love you!!! From The Haist Crew	false		
111-0570452-9957003	33244161837354	2020-06-02T01:11:36+00:00	2020-06-01T18:11:36-07:00	2020-06-02T01:37:05+00:00	2020-06-03T06:59:59+00:00	-2	crycvljd37pp1jp@marketplace.amazon.com	Karen Kerr	+1 347-448-3190 ext. 68481	ABR0055	Purchase Now for Delivery by Thursday | Arabella Farm Direct Bouquet of 12 Stems of Fresh Cut Hot Pink Roses in a Free Designer Glass Vase	1	0	1	SecondDay	Lynda Charleroy	108 DALTON TER			CHERRY HILL	NJ	08003-4601	US		Hi Lynda,     Happy Birthday🎂  Love, Bill and Bitsy	false		
114-5825763-2548252	05197179767498	2020-06-02T01:16:51+00:00	2020-06-01T18:16:51-07:00	2020-06-02T01:43:57+00:00	2020-06-03T06:59:59+00:00	-2	2f81wgnlc89912h@marketplace.amazon.com	Jenni Schilling	+1 347-448-3190 ext. 20337	ABR0033	Arabella Farm Direct Bouquet of 12 Fresh Cut Orange Roses with a Free Glass Vase	1	0	1	SecondDay	Beatrice Rinholen (Grandma Bea)	N675 W Cty Rd O			Mondovi	Wi	54755	US		Happy Belated "100th" Birthday Grandma Bea!!! From Love, Jenni, Ryan, Jacob, & Richard Schilling	false		
111-6317676-5120219	54282810375866	2020-06-02T01:25:47+00:00	2020-06-01T18:25:47-07:00	2020-06-02T01:55:22+00:00	2020-06-06T06:59:59+00:00	-5	nv18bn3ddfrszhc@marketplace.amazon.com	Daniel Treadaway	+1 347-448-3190 ext. 05302	ABR0022	Delivery by Friday | Arabella Farm Direct Bouquet of 12 Fresh Cut Pink Roses with a Free Glass Vase	1	0	1	Expedited	Shelley Treadaway	3540 Marilyn Drive			PHOENIX	AZ	85032-2258	US		Congratulations, Shelley! We are so excited to meet baby Isla. We love you!   -Danny and Jourdan From Danny and Jourdan	false		
113-2889244-8702600	12738074847618	2020-06-02T02:20:37+00:00	2020-06-01T19:20:37-07:00	2020-06-02T02:26:27+00:00	2020-06-06T06:59:59+00:00	-5	3gg6vc2gdsqrkll@marketplace.amazon.com	maliq singleton	+1 210-728-4548 ext. 23060	ABR0022	Delivery by Friday | Arabella Farm Direct Bouquet of 12 Fresh Cut Pink Roses with a Free Glass Vase	1	0	1	Expedited	Alizé Charles	603 SW JEANNE ST			PORT SAINT LUCIE	FL	34953-6374	US		L is for "laughter" we will have along the way. O is for "optimism" you give me every day. V is for "value" for us even being friends . E is for "eternity," a love that has no end. From Maliq	false		
111-3880454-5873011	20343545158842	2020-06-02T02:09:44+00:00	2020-06-01T19:09:44-07:00	2020-06-02T02:37:24+00:00	2020-06-05T06:59:59+00:00	-4	f5xdfbk3przpyft@marketplace.amazon.com	Clyde Lee Richardson II	+1 210-728-4548 ext. 72617	ABM010	Purchase Now for Delivery by Thursday | Arabella Bouquets | Fields of The World Bouquet of Fresh Cut Flowers in a Free Designer Glass Vase	1	0	1	Standard	Lee Richardson	9 HENRY CT			MT ARLINGTON	NJ	07856-1201	US			false		
113-5476932-3689838	50048562720650	2020-06-02T02:43:47+00:00	2020-06-01T19:43:47-07:00	2020-06-02T02:48:38+00:00	2020-06-03T06:59:59+00:00	-2	2gf3wmhkdvnvbpl@marketplace.amazon.com	Gina Lang	+1 210-728-4548 ext. 03402	ABR0066	Purchase Now for Delivery by Thursday | Arabella Bouquets | 12 Stems of Fresh Cut White Roses in a Free Designer Glass Vase	1	0	1	SecondDay	Razanna Lang	540 MIDWAY DR			BEAVER	PA	15009-1420	US			false		
111-0399418-6187409	57036317507890	2020-06-02T02:23:11+00:00	2020-06-01T19:23:11-07:00	2020-06-02T02:48:46+00:00	2020-06-06T06:59:59+00:00	-5	n58wytr990b4srb@marketplace.amazon.com	WILLIE R THOMAS JR	+1 210-728-4548 ext. 83462	ABR0022	Delivery by Friday | Arabella Farm Direct Bouquet of 12 Fresh Cut Pink Roses with a Free Glass Vase	1	0	1	Expedited	Renee Palmer	1502 BENTON BLVD APT 7203			SAVANNAH	GA	31407-5150	US		Lady Renee, I love you. -- Robert	false		
111-3128790-0047434	54161288208618	2020-06-02T03:02:09+00:00	2020-06-01T20:02:09-07:00	2020-06-02T03:18:48+00:00	2020-06-06T06:59:59+00:00	-5	zf46vlblhh9052x@marketplace.amazon.com	kim	+1 210-728-4548 ext. 80991	ABR0022	Delivery by Friday | Arabella Farm Direct Bouquet of 12 Fresh Cut Pink Roses with a Free Glass Vase	1	0	1	Expedited	Diamond Thigpen	120 MARYLAND AVE W			SAINT PAUL	MN	55117-4527	US		Enjoy your gift! CONGRATULATIONS DIAMOND and Crystal ON GRADUATING IN 2020 WE ARE SO PROUD OF YOU AND LOOK FORWARD TO A BRIGHT FUTURE FOR YOU BOTH LOVE AUNTI KIM AND YOUR COUSINS From Aunti Kim and Family	false		
114-9866669-3968223	48609379239570	2020-06-02T02:58:33+00:00	2020-06-01T19:58:33-07:00	2020-06-02T03:21:34+00:00	2020-06-06T06:59:59+00:00	-5	90gdhj62hrrdsv6@marketplace.amazon.com	Antonia Parker	+1 210-728-4548 ext. 00892	ABR0022	Delivery by Friday | Arabella Farm Direct Bouquet of 12 Fresh Cut Pink Roses with a Free Glass Vase	1	0	1	Standard	Antonia Parker	228 ROLLING RD			GAITHERSBURG	MD	20877-2042	US		Mom  I  Hope  U Feel  Better!  And  Yes  I DO  Love  U!   Your  Daughter  Antonia From Antonia Parker	false		
