order-id	order-item-id	purchase-date	payments-date	reporting-date	promise-date	days-past-promise	buyer-email	buyer-name	buyer-phone-number	sku	product-name	quantity-purchased	quantity-shipped	quantity-to-ship	ship-service-level	recipient-name	ship-address-1	ship-address-2	ship-address-3	ship-city	ship-state	ship-postal-code	ship-country	gift-wrap-type	gift-message-text	is-business-order	purchase-order-number	price-designation
111-4346530-9609043	07720491417234	2020-05-31T17:11:17+00:00	2020-05-31T10:11:17-07:00	2020-05-31T17:41:30+00:00	2020-06-02T06:59:59+00:00	0	htvl3j5vwjt6gz0@marketplace.amazon.com	Angel Muniz Jr	+1 314-282-9402 ext. 26452	ABR001	Purchase Now for Delivery by Wednesday | Arabella Bouquets 12 Stems of Fresh Cut Red Roses in a Free Designer Glass Vase	3	1	2	SecondDay	Solanyi Paulino Jerez	486 ALLEN PARK RD			SPRINGFIELD	MA	01118-2636	US			false		
114-7809804-1351464	57759115746138	2020-06-01T19:06:03+00:00	2020-06-01T12:06:03-07:00	2020-06-01T19:27:48+00:00	2020-06-06T06:59:59+00:00	-4	cs0xhn31jwgtmxc@marketplace.amazon.com	Randee	+1 210-728-4548 ext. 39624	ABR0022	Delivery by Friday | Arabella Farm Direct Bouquet of 12 Fresh Cut Pink Roses with a Free Glass Vase	1	0	1	Expedited	Meryl Fischer	38 DRAW BRIDGE DR			MONROE	NJ	08831-7953	US		Sending love to you. From Randee, Rob and Trevor	false		
113-6794431-8447419	10536677088466	2020-06-01T19:25:20+00:00	2020-06-01T12:25:20-07:00	2020-06-01T19:53:53+00:00	2020-06-06T06:59:59+00:00	-4	z17wzqqmxgj4cqy@marketplace.amazon.com	Martha Killeen	+1 210-728-4548 ext. 87972	ABR0022	Delivery by Friday | Arabella Farm Direct Bouquet of 12 Fresh Cut Pink Roses with a Free Glass Vase	1	0	1	Expedited	Hilda Goldstein	11401 OLD SAINT AUGUSTINE RD	RIVER GARDEN HEBREW HOME # 149		JACKSONVILLE	FL	32258-1402	US			false		
114-8278447-0681810	05297388302746	2020-06-01T22:18:33+00:00	2020-06-01T15:18:33-07:00	2020-06-01T22:49:07+00:00	2020-06-06T06:59:59+00:00	-4	2z9tnb6s5vfqx2y@marketplace.amazon.com	Sylvia Blumberg	+1 210-728-4548 ext. 10643	ABR0022	Delivery by Friday | Arabella Farm Direct Bouquet of 12 Fresh Cut Pink Roses with a Free Glass Vase	1	0	1	Expedited	Sylvia Blumberg	150 OCEAN PKWY APT 5D			BROOKLYN	NY	11218-2485	US			false		
111-4239277-7627440	51657112127978	2020-06-01T22:29:39+00:00	2020-06-01T15:29:39-07:00	2020-06-01T23:00:13+00:00	2020-06-06T06:59:59+00:00	-4	wfgn5m6dpxnfryc@marketplace.amazon.com	Joy N Sacco	+1 210-728-4548 ext. 34011	ABR0022	Delivery by Friday | Arabella Farm Direct Bouquet of 12 Fresh Cut Pink Roses with a Free Glass Vase	1	0	1	Expedited	Jillian Joy Sacco	1474 FAIRHAVEN CT			SAN JOSE	CALIFORNIA	95118-1114	US			false		
112-2870175-6581855	23586148395466	2020-06-01T23:25:51+00:00	2020-06-01T16:25:51-07:00	2020-06-01T23:53:15+00:00	2020-06-06T06:59:59+00:00	-4	45ddswp8mznyv19@marketplace.amazon.com	Tamara Tilton	+1 314-282-9402 ext. 74296	ABR0022	Delivery by Friday | Arabella Farm Direct Bouquet of 12 Fresh Cut Pink Roses with a Free Glass Vase	1	0	1	Expedited	Kimberly Fischer	7629 W CARLOTA LN			PEORIA	AZ	85383-3116	US		Because I love you! All my love - Tam From Tamara Tilton	false		
114-2515381-8179448	35555802932490	2020-06-01T23:28:11+00:00	2020-06-01T16:28:11-07:00	2020-06-01T23:57:03+00:00	2020-06-06T06:59:59+00:00	-4	63mwh4x8bddq4jj@marketplace.amazon.com	Kevin S. Kullby	+331 225 9174	ABR0022	Delivery by Friday | Arabella Farm Direct Bouquet of 12 Fresh Cut Pink Roses with a Free Glass Vase	1	0	1	Expedited	Lisa Zabratanski	1023 PETERS CT			LAKE ZURICH	IL	60047-1451	US			false		
111-6317676-5120219	54282810375866	2020-06-02T01:25:47+00:00	2020-06-01T18:25:47-07:00	2020-06-02T01:55:22+00:00	2020-06-06T06:59:59+00:00	-4	nv18bn3ddfrszhc@marketplace.amazon.com	Daniel Treadaway	+1 347-448-3190 ext. 05302	ABR0022	Delivery by Friday | Arabella Farm Direct Bouquet of 12 Fresh Cut Pink Roses with a Free Glass Vase	1	0	1	Expedited	Shelley Treadaway	3540 Marilyn Drive			PHOENIX	AZ	85032-2258	US		Congratulations, Shelley! We are so excited to meet baby Isla. We love you!   -Danny and Jourdan From Danny and Jourdan	false		
113-2889244-8702600	12738074847618	2020-06-02T02:20:37+00:00	2020-06-01T19:20:37-07:00	2020-06-02T02:26:27+00:00	2020-06-06T06:59:59+00:00	-4	3gg6vc2gdsqrkll@marketplace.amazon.com	maliq singleton	+1 210-728-4548 ext. 23060	ABR0022	Delivery by Friday | Arabella Farm Direct Bouquet of 12 Fresh Cut Pink Roses with a Free Glass Vase	1	0	1	Expedited	Alizé Charles	603 SW JEANNE ST			PORT SAINT LUCIE	FL	34953-6374	US		L is for "laughter" we will have along the way. O is for "optimism" you give me every day. V is for "value" for us even being friends . E is for "eternity," a love that has no end. From Maliq	false		
111-0399418-6187409	57036317507890	2020-06-02T02:23:11+00:00	2020-06-01T19:23:11-07:00	2020-06-02T02:48:46+00:00	2020-06-06T06:59:59+00:00	-4	n58wytr990b4srb@marketplace.amazon.com	WILLIE R THOMAS JR	+1 210-728-4548 ext. 83462	ABR0022	Delivery by Friday | Arabella Farm Direct Bouquet of 12 Fresh Cut Pink Roses with a Free Glass Vase	1	0	1	Expedited	Renee Palmer	1502 BENTON BLVD APT 7203			SAVANNAH	GA	31407-5150	US		Lady Renee, I love you. -- Robert	false		
111-3128790-0047434	54161288208618	2020-06-02T03:02:09+00:00	2020-06-01T20:02:09-07:00	2020-06-02T03:18:48+00:00	2020-06-06T06:59:59+00:00	-4	zf46vlblhh9052x@marketplace.amazon.com	kim	+1 210-728-4548 ext. 80991	ABR0022	Delivery by Friday | Arabella Farm Direct Bouquet of 12 Fresh Cut Pink Roses with a Free Glass Vase	1	0	1	Expedited	Diamond Thigpen	120 MARYLAND AVE W			SAINT PAUL	MN	55117-4527	US		Enjoy your gift! CONGRATULATIONS DIAMOND and Crystal ON GRADUATING IN 2020 WE ARE SO PROUD OF YOU AND LOOK FORWARD TO A BRIGHT FUTURE FOR YOU BOTH LOVE AUNTI KIM AND YOUR COUSINS From Aunti Kim and Family	false		
112-7213219-6157800	06268738117794	2020-06-02T05:25:16+00:00	2020-06-01T22:25:16-07:00	2020-06-02T05:53:19+00:00	2020-06-06T06:59:59+00:00	-4	2gfnh97dndrqzlr@marketplace.amazon.com	Saiyana	+1 763-225-9463 ext. 62515	ABR0022	Delivery by Friday | Arabella Farm Direct Bouquet of 12 Fresh Cut Pink Roses with a Free Glass Vase	1	0	1	Expedited	Saiyana Jules	11 Paerdegat 6th street			Brooklyn	New York	11236	US		Just because you’re the best mom ever! You go above and beyond for your kids despite your own struggles.   WE LOVE YOU ! From Saiyana	false		
112-5789784-0884202	53503072606130	2020-06-02T01:34:50+00:00	2020-06-01T18:34:50-07:00	2020-06-02T12:08:12+00:00	2020-06-09T06:59:59+00:00	-7	jv05ylb8k927rjx@marketplace.amazon.com	Flo Doughty	+1 210-728-4548 ext. 36222	ABR0022	Delivery by Friday | Arabella Farm Direct Bouquet of 12 Fresh Cut Pink Roses with a Free Glass Vase	1	0	1	Expedited	Flo Doughty	2101 TAYLOR ST APT 315			DALLAS	TX	75201-6157	US			false		
114-7315775-6708247	41068523438730	2020-06-02T12:50:31+00:00	2020-06-02T05:50:31-07:00	2020-06-02T13:19:28+00:00	2020-06-09T06:59:59+00:00	-7	8tpwhxs1wyzncpj@marketplace.amazon.com	Janet	+1 210-728-4548 ext. 74271	ABR0022	Delivery by Friday | Arabella Farm Direct Bouquet of 12 Fresh Cut Pink Roses with a Free Glass Vase	1	0	1	Expedited	Zeny Labutap	3841 E TWAIN AVE			LAS VEGAS	NV	89121-4520	US		Enjoy your gift! For all you do, thank you. From Janet	false		
114-2972024-2832205	25612370355402	2020-06-02T13:13:18+00:00	2020-06-02T06:13:18-07:00	2020-06-02T13:42:01+00:00	2020-06-09T06:59:59+00:00	-7	zx167xy9stkndvx@marketplace.amazon.com	Beth Gould	+1 763-225-9463 ext. 96635	ABR0022	Delivery by Friday | Arabella Farm Direct Bouquet of 12 Fresh Cut Pink Roses with a Free Glass Vase	1	0	1	Expedited	Kellie Gould	248 REDWOOD RD			LOUDON	NH	03307-0848	US			false		
114-3086943-0306626	70361308828890	2020-06-02T13:57:41+00:00	2020-06-02T06:57:41-07:00	2020-06-02T14:25:29+00:00	2020-06-09T06:59:59+00:00	-7	x745vyl0ld6xvq3@marketplace.amazon.com	Linda Tiger	+1 347-448-3190 ext. 35097	ABR0022	Delivery by Friday | Arabella Farm Direct Bouquet of 12 Fresh Cut Pink Roses with a Free Glass Vase	1	0	1	Expedited	Cheryl Gambino	44524 HIGHGATE DR			CLINTON TWP	MI	48038-1491	US		Happy Birthday.  We love you  Linda & William	false		
113-6458443-0604250	02475592223722	2020-06-02T13:56:26+00:00	2020-06-02T06:56:26-07:00	2020-06-02T14:26:35+00:00	2020-06-09T06:59:59+00:00	-7	5zbhvskzvt3rzm0@marketplace.amazon.com	Darnisha Harrison	+1 210-728-4548 ext. 49910	ABR0022	Delivery by Friday | Arabella Farm Direct Bouquet of 12 Fresh Cut Pink Roses with a Free Glass Vase	1	0	1	Expedited	Dianne Brooks	14504 S. Atlantic Ave			Riverdale	IL	60827	US			false		
114-3762154-5273024	19838049472818	2020-06-02T14:33:29+00:00	2020-06-02T07:33:29-07:00	2020-06-02T14:58:45+00:00	2020-06-09T06:59:59+00:00	-7	tt3d4g80csjyln4@marketplace.amazon.com	Markus Mühl	00 1 (650) 625-7019	ABR0022	Delivery by Friday | Arabella Farm Direct Bouquet of 12 Fresh Cut Pink Roses with a Free Glass Vase	1	0	1	Standard	Sebastian Mühl	1002 BORANDA AVE APT B			MOUNTAIN VIEW	CA	94040-3174	US			false		
111-2919271-6242636	40438124474898	2020-06-02T14:58:48+00:00	2020-06-02T07:58:48-07:00	2020-06-02T15:26:01+00:00	2020-06-09T06:59:59+00:00	-7	cx2nfjz5jww40ll@marketplace.amazon.com	Xen Truong	+1 347-448-3190 ext. 16688	ABR0022	Delivery by Friday | Arabella Farm Direct Bouquet of 12 Fresh Cut Pink Roses with a Free Glass Vase	1	0	1	Expedited	Anthony Dippolito	7267 ANGEL FALLS CT			BOYNTON BEACH	FL	33437-6322	US			true		
114-2347688-1985061	33448646650770	2020-06-02T15:21:36+00:00	2020-06-02T08:21:36-07:00	2020-06-02T15:52:07+00:00	2020-06-09T06:59:59+00:00	-7	md9flkrpyxm158f@marketplace.amazon.com	David	+1 347-448-3190 ext. 54883	ABR0022	Delivery by Friday | Arabella Farm Direct Bouquet of 12 Fresh Cut Pink Roses with a Free Glass Vase	1	0	1	Expedited	David Adams	220 KILLARNEY TRL			MONCKS CORNER	SC	29461-8836	US			false		
111-3541169-4293867	05636129383530	2020-06-02T15:58:40+00:00	2020-06-02T08:58:40-07:00	2020-06-02T16:25:10+00:00	2020-06-09T06:59:59+00:00	-7	55h40hv7pkvdhgl@marketplace.amazon.com	janet messina	+1 347-448-3190 ext. 38461	ABR0022	Delivery by Friday | Arabella Farm Direct Bouquet of 12 Fresh Cut Pink Roses with a Free Glass Vase	1	0	1	Expedited	Lindsey Davis	132 CLAREMONT DR			LANSDALE	PA	19446-6361	US			false		
114-1761168-2972238	66359391112378	2020-06-02T16:45:45+00:00	2020-06-02T09:45:45-07:00	2020-06-02T16:46:38+00:00	2020-06-09T06:59:59+00:00	-7	z8b71yyb0k05zn0@marketplace.amazon.com	Osmeikel	+1 210-728-4548 ext. 38297	ABR0022	Delivery by Friday | Arabella Farm Direct Bouquet of 12 Fresh Cut Pink Roses with a Free Glass Vase	1	0	1	Expedited	secret admirer	3195 50TH ST SW			NAPLES	FL	34116-8139	US		espero que las disfrutes. encontré las más hermosas.. como tu. 😘 From tu algo	false		
114-1193642-2019420	60392285184106	2020-06-02T16:46:07+00:00	2020-06-02T09:46:07-07:00	2020-06-02T17:16:23+00:00	2020-06-09T06:59:59+00:00	-7	qymfjmpsyhmkry1@marketplace.amazon.com	Sergio calpe castro	+1 314-282-9402 ext. 31022	ABR0022	Delivery by Friday | Arabella Farm Direct Bouquet of 12 Fresh Cut Pink Roses with a Free Glass Vase	1	0	1	Expedited	Erin Keefe	8647 BRIAR PATCH			BALDWINSVILLE	NY	13027-8914	US			false		
111-3578553-2365834	00373781221450	2020-06-02T17:02:27+00:00	2020-06-02T10:02:27-07:00	2020-06-02T17:26:57+00:00	2020-06-09T06:59:59+00:00	-7	z7h90vgv10wgs90@marketplace.amazon.com	Jerry Newell	+1 347-448-3190 ext. 48688	ABR0022	Delivery by Friday | Arabella Farm Direct Bouquet of 12 Fresh Cut Pink Roses with a Free Glass Vase	1	0	1	Standard	Shirley Beers	APERION CARE BRIDGEPORT	900 CORPORATION ST		BRIDGEPORT	IL	62417-2206	US		Enjoy your gift! From Jerry Newell	false		
113-5534624-3242653	62252275922354	2020-06-02T17:28:26+00:00	2020-06-02T10:28:26-07:00	2020-06-02T17:47:40+00:00	2020-06-09T06:59:59+00:00	-7	my5p198m943kn4s@marketplace.amazon.com	Carleen Gilbride	+1 210-728-4548 ext. 00352	ABR0022	Delivery by Friday | Arabella Farm Direct Bouquet of 12 Fresh Cut Pink Roses with a Free Glass Vase	1	0	1	Expedited	Harriet Hann	125 BROOK ST REAR			MOSCOW	PA	18444-6068	US		Hi, Happy Birthday Carleen and Jim	false		
111-9164854-6043460	22647826122122	2020-06-02T17:33:10+00:00	2020-06-02T10:33:10-07:00	2020-06-02T17:55:20+00:00	2020-06-09T06:59:59+00:00	-7	gcpqj32m1bp0nbj@marketplace.amazon.com	Jeffrey S. Dingrando	+1 412-532-4665 ext. 92738	ABR0022	Delivery by Friday | Arabella Farm Direct Bouquet of 12 Fresh Cut Pink Roses with a Free Glass Vase	1	0	1	Expedited	Greg Dingrando	5568 BLUE MOON DR			COLORADO SPRINGS	CO	80924-4212	US		Lauren and Greg,   Congrats on your new house!  Jeff, Leo, and Michael	false		
111-8157637-7688230	09599257264978	2020-06-02T17:38:03+00:00	2020-06-02T10:38:03-07:00	2020-06-02T18:06:19+00:00	2020-06-06T06:59:59+00:00	-4	w6cvby36jhdg1p0@marketplace.amazon.com	kenneth Hollenbeck	+1 210-728-4548 ext. 56288	ABR0055	Purchase Now for Delivery by Friday | Arabella Farm Direct Bouquet of 12 Stems of Fresh Cut Hot Pink Roses in a Free Designer Glass Vase	1	0	1	Standard	Candy Sweeney	3328 ROBINSON RD			JACKSON	MI	49203-4965	US		Happy Birthday, Candy, Love you Pa	false		
112-8457056-8713857	63857669414634	2020-06-02T18:48:00+00:00	2020-06-02T11:48:00-07:00	2020-06-02T19:14:26+00:00	2020-06-09T06:59:59+00:00	-7	pq20nzyg25zf4x9@marketplace.amazon.com	Janet Cohen	+1 314-282-9402 ext. 42879	ABR0022	Arabella Farm Direct Bouquet of 12 Fresh Cut Pink Roses with a Free Glass Vase	1	0	1	Expedited	Allie Thompson	353 E PINE ST			LONG BEACH	NY	11561-2334	US		Love you beautiful lady All my love, aunt Franki From Franki	false		
113-0679424-1933027	31276330794730	2020-06-02T18:47:33+00:00	2020-06-02T11:47:33-07:00	2020-06-02T19:16:23+00:00	2020-06-06T06:59:59+00:00	-4	8kt9mtjs7dfbb7g@marketplace.amazon.com	Daniela	+1 347-448-3190 ext. 58102	ABR0055	Purchase Now for Delivery by Friday | Arabella Farm Direct Bouquet of 12 Stems of Fresh Cut Hot Pink Roses in a Free Designer Glass Vase	1	0	1	Expedited	Maria Riccardi	330 MARCELLUS RD			MINEOLA	NY	11501-1426	US		Dear Maria,  Wishing you a very Happy belated Mother's Day!    Love,  Daniela, Giuseppe, & Lucas	false		
114-8790337-1628213	19835427813474	2020-06-02T18:52:49+00:00	2020-06-02T11:52:49-07:00	2020-06-02T19:20:56+00:00	2020-06-09T06:59:59+00:00	-7	n6lg4255klyr71q@marketplace.amazon.com	Elizabeth	+1 210-728-4548 ext. 91269	ABR0022	Arabella Farm Direct Bouquet of 12 Fresh Cut Pink Roses with a Free Glass Vase	1	0	1	Expedited	Marlene Paul	288 LEXINGTON AVE			BROOKLYN	NY	11216-1206	US			false		
111-5212734-1521042	07707748448450	2020-06-02T18:58:33+00:00	2020-06-02T11:58:33-07:00	2020-06-02T19:28:28+00:00	2020-06-04T06:59:59+00:00	-2	c4z08lvzxdcv3mn@marketplace.amazon.com	Brittney Finlin	+1 210-728-4548 ext. 24963	ABM010	Purchase Now for Delivery by Friday | Arabella Bouquets | Fields of The World Bouquet of Fresh Cut Flowers in a Free Designer Glass Vase	1	0	1	SecondDay	Kathy Bedore	8395 ROYALHAVEN DR			NORTH ROYALTON	OH	44133-1616	US		I love you From Grandbabies	false		
111-6331128-2164229	15400896791122	2020-06-02T19:00:00+00:00	2020-06-02T12:00:00-07:00	2020-06-02T19:29:56+00:00	2020-06-09T06:59:59+00:00	-7	c4z08lvzxdcv3mn@marketplace.amazon.com	Brittney Finlin	+1 347-448-3190 ext. 79609	ABR0022	Arabella Farm Direct Bouquet of 12 Fresh Cut Pink Roses with a Free Glass Vase	1	0	1	Expedited	Cathy  Miller	10669 DEVONSHIRE DR			NORTH ROYALTON	OH	44133-1995	US		We love you Nana From Colin and Liam	false		
114-8750585-8880229	46474106166914	2020-06-02T19:00:25+00:00	2020-06-02T12:00:25-07:00	2020-06-02T19:30:47+00:00	2020-06-04T06:59:59+00:00	-2	ytwqns9djwkf7xc@marketplace.amazon.com	carrie otte	+1 347-448-3190 ext. 72056	ABR0033	Arabella Farm Direct Bouquet of 12 Fresh Cut Orange Roses with a Free Glass Vase	1	0	1	SecondDay	Kayla	4262 WILLOW BEND DR APT B			BEECH GROVE	IN	46107-2703	US			false		
111-5993274-9494643	59100771863914	2020-06-02T19:11:18+00:00	2020-06-02T12:11:18-07:00	2020-06-02T19:40:02+00:00	2020-06-04T06:59:59+00:00	-2	1btsy5z47qngdq7@marketplace.amazon.com	Sovansuny Uy	+1 210-728-4548 ext. 23979	ABSR005	Arabella Bouquets | Fresh Cut Orange Spray Roses in a Free Designer Glass Vase	1	0	1	SecondDay	Hannah Lewis	5307 WYTHE AVE			RICHMOND	VA	23226-1412	US			false		
113-5436599-7566659	27035721592730	2020-06-02T19:42:45+00:00	2020-06-02T12:42:45-07:00	2020-06-02T19:43:40+00:00	2020-06-04T06:59:59+00:00	-2	r4rzzrtvth6b7nc@marketplace.amazon.com	Kimberly Strong	+1 347-448-3190 ext. 50958	ABM010	Purchase Now for Delivery by Friday | Arabella Bouquets | Fields of The World Bouquet of Fresh Cut Flowers in a Free Designer Glass Vase	1	0	1	SecondDay	Annette Staehle	15902 NOTTINGHILL DR			LUTZ	FL	33548-6116	US		Get well wishes for a speedy recovery! From Love, the entire RICOH PMO	false		
111-9622879-4817861	23443721043810	2020-06-02T19:28:30+00:00	2020-06-02T12:28:30-07:00	2020-06-02T19:57:48+00:00	2020-06-04T06:59:59+00:00	-2	4njzf21spc0x1j2@marketplace.amazon.com	Salimah Muhammad Zahid	+1 347-448-3190 ext. 99182	ABR001	Purchase Now for Delivery by Friday | Arabella Bouquets 12 Stems of Fresh Cut Red Roses in a Free Designer Glass Vase	1	0	1	SecondDay	Salima Rahama	1126 VIZCAYA LAKE RD APT 208			OCOEE	FL	34761-6939	US			false		
113-8719375-0374640	61830867317570	2020-06-02T19:37:51+00:00	2020-06-02T12:37:51-07:00	2020-06-02T20:04:46+00:00	2020-06-04T06:59:59+00:00	-2	481jdslrs9p01sd@marketplace.amazon.com	Ryan Murphy	+1 347-448-3190 ext. 95208	ABR0055	Purchase Now for Delivery by Friday | Arabella Farm Direct Bouquet of 12 Stems of Fresh Cut Hot Pink Roses in a Free Designer Glass Vase	1	0	1	SecondDay	Nancy Eklund	7516 QUAIL RUN CT			ORLANDO	FL	32819-3401	US		Hi Nancy! Happy birthday! Hope you’re feeling better. Love Kathy From Kathy Murphy	false		
114-3813771-1137849	13832579598274	2020-06-02T19:55:13+00:00	2020-06-02T12:55:13-07:00	2020-06-02T20:25:03+00:00	2020-06-04T06:59:59+00:00	-2	fr34b00fhrbf628@marketplace.amazon.com	Krista Dawley	+1 347-448-3190 ext. 12477	ABR0033	Arabella Farm Direct Bouquet of 12 Fresh Cut Orange Roses with a Free Glass Vase	1	0	1	SecondDay	Judy Bryant	5720 Blue Mountain Road			Grizzly Flats	CA	95636	US		Happy birthday Auntie!! We love you! From Bun-bun, Brian, Ben & Sam	false		
113-2269078-9562609	64043706861738	2020-06-02T20:07:38+00:00	2020-06-02T13:07:38-07:00	2020-06-02T20:37:31+00:00	2020-06-04T06:59:59+00:00	-2	f31vbhzmx7tr3l5@marketplace.amazon.com	Sarah Koenig	+1 210-728-4548 ext. 65434	ABR0066	Purchase Now for Delivery by Friday | Arabella Bouquets | 12 Stems of Fresh Cut White Roses in a Free Designer Glass Vase	1	0	1	SecondDay	Amanda Davis	9861 23 MILE RD			HOMER	MI	49245-9413	US		Amanda,  I can't stop thinking about you. Know that I am here for you.   Love, Sarah Roberts	false		
112-1392153-9313802	04457476981802	2020-06-02T20:19:44+00:00	2020-06-02T13:19:44-07:00	2020-06-02T20:39:00+00:00	2020-06-04T06:59:59+00:00	-2	980y8p0f3jgvpwq@marketplace.amazon.com	cynthia m. munar	+1 347-448-3190 ext. 46039	ABR0055	Purchase Now for Delivery by Friday | Arabella Farm Direct Bouquet of 12 Stems of Fresh Cut Hot Pink Roses in a Free Designer Glass Vase	1	0	1	SecondDay	Julia Mack	12 CONDICT ST			JERSEY CITY	NJ	07306-7010	US		Hi Julia, Enjoy your gift! From cynthia m. munar	false		
111-5451706-6213019	43082904904546	2020-06-02T20:25:44+00:00	2020-06-02T13:25:44-07:00	2020-06-02T20:55:54+00:00	2020-06-04T06:59:59+00:00	-2	p0n3xwh0jtfg1pg@marketplace.amazon.com	Rebecca Wellcome	4104105351465	ABR004	Arabella Farm Direct Bouquet of 12 Fresh Cut Yellow Roses with a Free Glass Vase	1	0	1	SecondDay	Rebecca A, Wellcome	5435 HUNTINGTOWN RD			HUNTINGTOWN	MD	20639-8904	US			false		
112-1077361-0937030	58117772396130	2020-06-02T20:29:38+00:00	2020-06-02T13:29:38-07:00	2020-06-02T20:56:26+00:00	2020-06-04T06:59:59+00:00	-2	br2hsq2b0xpnldh@marketplace.amazon.com	Janet Deal	+1 314-282-9402 ext. 24821	ABR014	Purchase Now for Delivery by Friday | Arabella Bouquets 18 Stems of Fresh Cut White Roses in a Free Designer Glass Vase	1	0	1	SecondDay	Nycia Deal	10304 QUAIL VALLEY BLVD			AUSTIN	TX	78758-5009	US		Happy Almost Birthday, Buzzlehead! We love you so much!  Mom and Dad	false		
111-9507302-7847435	45769672045458	2020-06-02T20:28:40+00:00	2020-06-02T13:28:40-07:00	2020-06-02T20:59:07+00:00	2020-06-04T06:59:59+00:00	-2	lltpw9m07b6ytgg@marketplace.amazon.com	Christopher Lopez	+1 347-448-3190 ext. 71857	ABR001	Purchase Now for Delivery by Friday | Arabella Bouquets 12 Stems of Fresh Cut Red Roses in a Free Designer Glass Vase	1	0	1	SecondDay	Christopher Lopez	3351 WILD FILLY LN			NORTH LAS VEGAS	NV	89032-2476	US			false		
111-6573709-5911454	67258183182882	2020-06-02T20:45:10+00:00	2020-06-02T13:45:10-07:00	2020-06-02T21:14:41+00:00	2020-06-04T06:59:59+00:00	-2	yhfv96r80v2cmrt@marketplace.amazon.com	Susan Newburger	+1 347-448-3190 ext. 16632	ABR0055	Purchase Now for Delivery by Friday | Arabella Farm Direct Bouquet of 12 Stems of Fresh Cut Hot Pink Roses in a Free Designer Glass Vase	1	0	1	SecondDay	Arnold Stone	1909 NW KILLARNEY LN			LEES SUMMIT	MO	64081-1681	US		Happy 73rd Annivesary! You two are an amazing, inspirational couple. Love, Susan From Susan Newburger	false		
112-2459556-1267437	13170552657946	2020-06-02T21:03:44+00:00	2020-06-02T14:03:44-07:00	2020-06-02T21:24:59+00:00	2020-06-04T06:59:59+00:00	-2	fkkdnynk1z3zh8k@marketplace.amazon.com	Matt	+1 314-282-9402 ext. 40623	ABR012	Arabella Farm Direct Bouquet of 18 Fresh Cut Pink Roses with a Free Glass Vase	1	0	1	SecondDay	Coby Stuart!	223 GEORGE AVE			AMERY	WI	54001-1511	US		Coby Elisabeth Stuart,  Deeply sorry I forgot about your foot surgery, I hope you have it in your heart to forgive me. I wish for you to have a speedy recovery!!!   Love You, Puppy	false		
114-8661280-6796207	34344590091498	2020-06-02T21:14:15+00:00	2020-06-02T14:14:15-07:00	2020-06-02T21:40:36+00:00	2020-06-09T06:59:59+00:00	-7	6y4fdpbk6yhzvfg@marketplace.amazon.com	Judy Pierce	+1 347-448-3190 ext. 32966	ABR0022	Arabella Farm Direct Bouquet of 12 Fresh Cut Pink Roses with a Free Glass Vase	1	0	1	Standard	Mrs. Julie Houser	3203 174TH AVE NE			REDMOND	WA	98052-5733	US		Jules, Happy 9th remission anniversary!  We wish we could deliver these roses in person.  We love you so very much! Love Mom, Marc and Charlie	false		
111-1051961-9051462	03608361593946	2020-06-02T21:17:35+00:00	2020-06-02T14:17:35-07:00	2020-06-02T21:48:09+00:00	2020-06-04T06:59:59+00:00	-2	0yf6xk6890ntbq3@marketplace.amazon.com	Angela McCoy	+1 347-448-3190 ext. 68973	ABR014	Purchase Now for Delivery by Friday | Arabella Bouquets 18 Stems of Fresh Cut White Roses in a Free Designer Glass Vase	1	0	1	SecondDay	William E. McCoy	33 Timberwood Drive			Asheville	NC	28806	US			false		
114-3719413-1025046	69069963159378	2020-06-02T21:27:41+00:00	2020-06-02T14:27:41-07:00	2020-06-02T21:56:22+00:00	2020-06-04T06:59:59+00:00	-2	d0t1v1n0ytbdxvx@marketplace.amazon.com	Amy Roberts	+1 347-448-3190 ext. 42469	ABM010	Purchase Now for Delivery by Friday | Arabella Bouquets | Fields of The World Bouquet of Fresh Cut Flowers in a Free Designer Glass Vase	1	0	1	SecondDay	Joan Kellermann	5250 GOLF DR			AUBURN	IL	62615-9659	US		Happy Mother’s Day! From Amy Roberts	false		
112-6717844-9384221	16644476732234	2020-06-02T21:56:14+00:00	2020-06-02T14:56:14-07:00	2020-06-02T22:23:33+00:00	2020-06-04T06:59:59+00:00	-2	b389hknm1nlj2vq@marketplace.amazon.com	Sneha Patel	+1 210-728-4548 ext. 40515	ABR0066	Purchase Now for Delivery by Friday | Arabella Bouquets | 12 Stems of Fresh Cut White Roses in a Free Designer Glass Vase	1	0	1	SecondDay	Keshonda Godfrey	11407 KAY LN			PEARLAND	TX	77584-7270	US		Dear Keshonda,  So sorry for your loss! Condolences to you and family during this tough time.   From: Team Howard, Sneha, and Debbie From Sneha Patel	false		
114-6382990-8055428	56628457601930	2020-06-02T22:02:17+00:00	2020-06-02T15:02:17-07:00	2020-06-02T22:26:22+00:00	2020-06-04T06:59:59+00:00	-2	mbwm196bhlz2m40@marketplace.amazon.com	Dr. Roger Mazze	+1 347-448-3190 ext. 58530	ABR013	Purchase Now for Delivery by Friday | Arabella Farm Direct Bouquet of 18 Fresh Cut Yellow Roses with a Free Glass Vase	1	0	1	SecondDay	Samantha Mazze	103 CEDAR CLIFF CT			CARY	NC	27518-8209	US		Hi Samantha, Congratulations on your graduation and wishing you a very successful experience at UNC Asheville. Love  Nana and Grandpa	false		
112-9177529-6794655	62559867205890	2020-06-02T22:02:38+00:00	2020-06-02T15:02:38-07:00	2020-06-02T22:30:29+00:00	2020-06-04T06:59:59+00:00	-2	v6tb5r0xg4qn8tg@marketplace.amazon.com	Matt Urbanowicz	+1 347-448-3190 ext. 11199	ABM010	Purchase Now for Delivery by Friday | Arabella Bouquets | Fields of The World Bouquet of Fresh Cut Flowers in a Free Designer Glass Vase	1	0	1	SecondDay	B. Hulse	1819 KNOX AVE S			MINNEAPOLIS	MN	55403-2838	US		Congratulations on elementary school graduation! We all love you very much and are looking forward to the next middle school chapter!    Mary, Tim, Matt, Erin, Audrey and Liam From Matt Urbanowicz	false		
112-5660657-4124230	28526362410050	2020-06-02T22:01:13+00:00	2020-06-02T15:01:13-07:00	2020-06-02T22:31:40+00:00	2020-06-04T06:59:59+00:00	-2	5ks5g3lvxz0wvtz@marketplace.amazon.com	Kirk Luther	+1 210-728-4548 ext. 43133	ABR012	Arabella Farm Direct Bouquet of 18 Fresh Cut Pink Roses with a Free Glass Vase	1	0	1	SecondDay	Lena Hinkle	554 Lee 329			Marianna	Arkansas	72360	US			false		
114-3195676-1222633	16519981467106	2020-06-02T22:06:56+00:00	2020-06-02T15:06:56-07:00	2020-06-02T22:35:15+00:00	2020-06-04T06:59:59+00:00	-2	ysspt9yw38sq8pf@marketplace.amazon.com	stephen dennis	+1 347-448-3190 ext. 51268	ABR001	Purchase Now for Delivery by Friday | Arabella Bouquets 12 Stems of Fresh Cut Red Roses in a Free Designer Glass Vase	1	0	1	SecondDay	Jean Dennis	218 W HOUSTONIA AVE			ROYAL OAK	MI	48073-4188	US		Happy Birthday Jean !!  Love,  Meghan & Doug, Joey & Jamie, Milo, Kyle and Max Sparty, Geist and Harlow !!	false		
114-3008748-5008214	66527932305634	2020-06-02T22:15:46+00:00	2020-06-02T15:15:46-07:00	2020-06-02T22:43:18+00:00	2020-06-04T06:59:59+00:00	-2	tsdjdzxx009p30v@marketplace.amazon.com	b	+1 347-448-3190 ext. 41131	ABR0066	Purchase Now for Delivery by Friday | Arabella Bouquets | 12 Stems of Fresh Cut White Roses in a Free Designer Glass Vase	1	0	1	SecondDay	Everyln Brooks	207 WARWICK AVE			COLUMBIA	TN	38401-2640	US		Happy Birthday From Luv Brittany	false		
113-4220376-2168217	38227072526770	2020-06-02T22:15:10+00:00	2020-06-02T15:15:10-07:00	2020-06-02T22:44:46+00:00	2020-06-04T06:59:59+00:00	-2	wbclv3lqgw2c2z1@marketplace.amazon.com	Fabiana Bravo	+1 314-282-9402 ext. 37335	ABR001	Purchase Now for Delivery by Friday | Arabella Bouquets 12 Stems of Fresh Cut Red Roses in a Free Designer Glass Vase	1	0	1	SecondDay	Fabiana Bravo	12612 KEMPSTON LN			WOODBRIDGE	VA	22192-5070	US			false		
