order-id	order-item-id	purchase-date	payments-date	reporting-date	promise-date	days-past-promise	buyer-email	buyer-name	buyer-phone-number	sku	product-name	quantity-purchased	quantity-shipped	quantity-to-ship	ship-service-level	recipient-name	ship-address-1	ship-address-2	ship-address-3	ship-city	ship-state	ship-postal-code	ship-country	gift-wrap-type	gift-message-text	is-business-order	purchase-order-number	price-designation
111-4346530-9609043	07720491417234	2020-05-31T17:11:17+00:00	2020-05-31T10:11:17-07:00	2020-05-31T17:41:30+00:00	2020-06-02T06:59:59+00:00	0	htvl3j5vwjt6gz0@marketplace.amazon.com	Angel Muniz Jr	+1 314-282-9402 ext. 26452	ABR001	Purchase Now for Delivery by Wednesday | Arabella Bouquets 12 Stems of Fresh Cut Red Roses in a Free Designer Glass Vase	3	1	2	SecondDay	Solanyi Paulino Jerez	486 ALLEN PARK RD			SPRINGFIELD	MA	01118-2636	US			false		
114-7809804-1351464	57759115746138	2020-06-01T19:06:03+00:00	2020-06-01T12:06:03-07:00	2020-06-01T19:27:48+00:00	2020-06-06T06:59:59+00:00	-4	cs0xhn31jwgtmxc@marketplace.amazon.com	Randee	+1 210-728-4548 ext. 39624	ABR0022	Delivery by Friday | Arabella Farm Direct Bouquet of 12 Fresh Cut Pink Roses with a Free Glass Vase	1	0	1	Expedited	Meryl Fischer	38 DRAW BRIDGE DR			MONROE	NJ	08831-7953	US		Sending love to you. From Randee, Rob and Trevor	false		
113-6794431-8447419	10536677088466	2020-06-01T19:25:20+00:00	2020-06-01T12:25:20-07:00	2020-06-01T19:53:53+00:00	2020-06-06T06:59:59+00:00	-4	z17wzqqmxgj4cqy@marketplace.amazon.com	Martha Killeen	+1 210-728-4548 ext. 87972	ABR0022	Delivery by Friday | Arabella Farm Direct Bouquet of 12 Fresh Cut Pink Roses with a Free Glass Vase	1	0	1	Expedited	Hilda Goldstein	11401 OLD SAINT AUGUSTINE RD	RIVER GARDEN HEBREW HOME # 149		JACKSONVILLE	FL	32258-1402	US			false		
114-8278447-0681810	05297388302746	2020-06-01T22:18:33+00:00	2020-06-01T15:18:33-07:00	2020-06-01T22:49:07+00:00	2020-06-06T06:59:59+00:00	-4	2z9tnb6s5vfqx2y@marketplace.amazon.com	Sylvia Blumberg	+1 210-728-4548 ext. 10643	ABR0022	Delivery by Friday | Arabella Farm Direct Bouquet of 12 Fresh Cut Pink Roses with a Free Glass Vase	1	0	1	Expedited	Sylvia Blumberg	150 OCEAN PKWY APT 5D			BROOKLYN	NY	11218-2485	US			false		
111-4239277-7627440	51657112127978	2020-06-01T22:29:39+00:00	2020-06-01T15:29:39-07:00	2020-06-01T23:00:13+00:00	2020-06-06T06:59:59+00:00	-4	wfgn5m6dpxnfryc@marketplace.amazon.com	Joy N Sacco	+1 210-728-4548 ext. 34011	ABR0022	Delivery by Friday | Arabella Farm Direct Bouquet of 12 Fresh Cut Pink Roses with a Free Glass Vase	1	0	1	Expedited	Jillian Joy Sacco	1474 FAIRHAVEN CT			SAN JOSE	CALIFORNIA	95118-1114	US			false		
112-2870175-6581855	23586148395466	2020-06-01T23:25:51+00:00	2020-06-01T16:25:51-07:00	2020-06-01T23:53:15+00:00	2020-06-06T06:59:59+00:00	-4	45ddswp8mznyv19@marketplace.amazon.com	Tamara Tilton	+1 314-282-9402 ext. 74296	ABR0022	Delivery by Friday | Arabella Farm Direct Bouquet of 12 Fresh Cut Pink Roses with a Free Glass Vase	1	0	1	Expedited	Kimberly Fischer	7629 W CARLOTA LN			PEORIA	AZ	85383-3116	US		Because I love you! All my love - Tam From Tamara Tilton	false		
114-2515381-8179448	35555802932490	2020-06-01T23:28:11+00:00	2020-06-01T16:28:11-07:00	2020-06-01T23:57:03+00:00	2020-06-06T06:59:59+00:00	-4	63mwh4x8bddq4jj@marketplace.amazon.com	Kevin S. Kullby	+331 225 9174	ABR0022	Delivery by Friday | Arabella Farm Direct Bouquet of 12 Fresh Cut Pink Roses with a Free Glass Vase	1	0	1	Expedited	Lisa Zabratanski	1023 PETERS CT			LAKE ZURICH	IL	60047-1451	US			false		
111-6317676-5120219	54282810375866	2020-06-02T01:25:47+00:00	2020-06-01T18:25:47-07:00	2020-06-02T01:55:22+00:00	2020-06-06T06:59:59+00:00	-4	nv18bn3ddfrszhc@marketplace.amazon.com	Daniel Treadaway	+1 347-448-3190 ext. 05302	ABR0022	Delivery by Friday | Arabella Farm Direct Bouquet of 12 Fresh Cut Pink Roses with a Free Glass Vase	1	0	1	Expedited	Shelley Treadaway	3540 Marilyn Drive			PHOENIX	AZ	85032-2258	US		Congratulations, Shelley! We are so excited to meet baby Isla. We love you!   -Danny and Jourdan From Danny and Jourdan	false		
113-2889244-8702600	12738074847618	2020-06-02T02:20:37+00:00	2020-06-01T19:20:37-07:00	2020-06-02T02:26:27+00:00	2020-06-06T06:59:59+00:00	-4	3gg6vc2gdsqrkll@marketplace.amazon.com	maliq singleton	+1 210-728-4548 ext. 23060	ABR0022	Delivery by Friday | Arabella Farm Direct Bouquet of 12 Fresh Cut Pink Roses with a Free Glass Vase	1	0	1	Expedited	Alizé Charles	603 SW JEANNE ST			PORT SAINT LUCIE	FL	34953-6374	US		L is for "laughter" we will have along the way. O is for "optimism" you give me every day. V is for "value" for us even being friends . E is for "eternity," a love that has no end. From Maliq	false		
111-0399418-6187409	57036317507890	2020-06-02T02:23:11+00:00	2020-06-01T19:23:11-07:00	2020-06-02T02:48:46+00:00	2020-06-06T06:59:59+00:00	-4	n58wytr990b4srb@marketplace.amazon.com	WILLIE R THOMAS JR	+1 210-728-4548 ext. 83462	ABR0022	Delivery by Friday | Arabella Farm Direct Bouquet of 12 Fresh Cut Pink Roses with a Free Glass Vase	1	0	1	Expedited	Renee Palmer	1502 BENTON BLVD APT 7203			SAVANNAH	GA	31407-5150	US		Lady Renee, I love you. -- Robert	false		
111-3128790-0047434	54161288208618	2020-06-02T03:02:09+00:00	2020-06-01T20:02:09-07:00	2020-06-02T03:18:48+00:00	2020-06-06T06:59:59+00:00	-4	zf46vlblhh9052x@marketplace.amazon.com	kim	+1 210-728-4548 ext. 80991	ABR0022	Delivery by Friday | Arabella Farm Direct Bouquet of 12 Fresh Cut Pink Roses with a Free Glass Vase	1	0	1	Expedited	Diamond Thigpen	120 MARYLAND AVE W			SAINT PAUL	MN	55117-4527	US		Enjoy your gift! CONGRATULATIONS DIAMOND and Crystal ON GRADUATING IN 2020 WE ARE SO PROUD OF YOU AND LOOK FORWARD TO A BRIGHT FUTURE FOR YOU BOTH LOVE AUNTI KIM AND YOUR COUSINS From Aunti Kim and Family	false		
112-7213219-6157800	06268738117794	2020-06-02T05:25:16+00:00	2020-06-01T22:25:16-07:00	2020-06-02T05:53:19+00:00	2020-06-06T06:59:59+00:00	-4	2gfnh97dndrqzlr@marketplace.amazon.com	Saiyana	+1 763-225-9463 ext. 62515	ABR0022	Delivery by Friday | Arabella Farm Direct Bouquet of 12 Fresh Cut Pink Roses with a Free Glass Vase	1	0	1	Expedited	Saiyana Jules	11 Paerdegat 6th street			Brooklyn	New York	11236	US		Just because you’re the best mom ever! You go above and beyond for your kids despite your own struggles.   WE LOVE YOU ! From Saiyana	false		
112-5789784-0884202	53503072606130	2020-06-02T01:34:50+00:00	2020-06-01T18:34:50-07:00	2020-06-02T12:08:12+00:00	2020-06-09T06:59:59+00:00	-7	jv05ylb8k927rjx@marketplace.amazon.com	Flo Doughty	+1 210-728-4548 ext. 36222	ABR0022	Delivery by Friday | Arabella Farm Direct Bouquet of 12 Fresh Cut Pink Roses with a Free Glass Vase	1	0	1	Expedited	Flo Doughty	2101 TAYLOR ST APT 315			DALLAS	TX	75201-6157	US			false		
114-7315775-6708247	41068523438730	2020-06-02T12:50:31+00:00	2020-06-02T05:50:31-07:00	2020-06-02T13:19:28+00:00	2020-06-09T06:59:59+00:00	-7	8tpwhxs1wyzncpj@marketplace.amazon.com	Janet	+1 210-728-4548 ext. 74271	ABR0022	Delivery by Friday | Arabella Farm Direct Bouquet of 12 Fresh Cut Pink Roses with a Free Glass Vase	1	0	1	Expedited	Zeny Labutap	3841 E TWAIN AVE			LAS VEGAS	NV	89121-4520	US		Enjoy your gift! For all you do, thank you. From Janet	false		
114-2972024-2832205	25612370355402	2020-06-02T13:13:18+00:00	2020-06-02T06:13:18-07:00	2020-06-02T13:42:01+00:00	2020-06-09T06:59:59+00:00	-7	zx167xy9stkndvx@marketplace.amazon.com	Beth Gould	+1 763-225-9463 ext. 96635	ABR0022	Delivery by Friday | Arabella Farm Direct Bouquet of 12 Fresh Cut Pink Roses with a Free Glass Vase	1	0	1	Expedited	Kellie Gould	248 REDWOOD RD			LOUDON	NH	03307-0848	US			false		
114-3086943-0306626	70361308828890	2020-06-02T13:57:41+00:00	2020-06-02T06:57:41-07:00	2020-06-02T14:25:29+00:00	2020-06-09T06:59:59+00:00	-7	x745vyl0ld6xvq3@marketplace.amazon.com	Linda Tiger	+1 347-448-3190 ext. 35097	ABR0022	Delivery by Friday | Arabella Farm Direct Bouquet of 12 Fresh Cut Pink Roses with a Free Glass Vase	1	0	1	Expedited	Cheryl Gambino	44524 HIGHGATE DR			CLINTON TWP	MI	48038-1491	US		Happy Birthday.  We love you  Linda & William	false		
113-6458443-0604250	02475592223722	2020-06-02T13:56:26+00:00	2020-06-02T06:56:26-07:00	2020-06-02T14:26:35+00:00	2020-06-09T06:59:59+00:00	-7	5zbhvskzvt3rzm0@marketplace.amazon.com	Darnisha Harrison	+1 210-728-4548 ext. 49910	ABR0022	Delivery by Friday | Arabella Farm Direct Bouquet of 12 Fresh Cut Pink Roses with a Free Glass Vase	1	0	1	Expedited	Dianne Brooks	14504 S. Atlantic Ave			Riverdale	IL	60827	US			false		
114-3762154-5273024	19838049472818	2020-06-02T14:33:29+00:00	2020-06-02T07:33:29-07:00	2020-06-02T14:58:45+00:00	2020-06-09T06:59:59+00:00	-7	tt3d4g80csjyln4@marketplace.amazon.com	Markus Mühl	00 1 (650) 625-7019	ABR0022	Delivery by Friday | Arabella Farm Direct Bouquet of 12 Fresh Cut Pink Roses with a Free Glass Vase	1	0	1	Standard	Sebastian Mühl	1002 BORANDA AVE APT B			MOUNTAIN VIEW	CA	94040-3174	US			false		
111-2919271-6242636	40438124474898	2020-06-02T14:58:48+00:00	2020-06-02T07:58:48-07:00	2020-06-02T15:26:01+00:00	2020-06-09T06:59:59+00:00	-7	cx2nfjz5jww40ll@marketplace.amazon.com	Xen Truong	+1 347-448-3190 ext. 16688	ABR0022	Delivery by Friday | Arabella Farm Direct Bouquet of 12 Fresh Cut Pink Roses with a Free Glass Vase	1	0	1	Expedited	Anthony Dippolito	7267 ANGEL FALLS CT			BOYNTON BEACH	FL	33437-6322	US			true		
114-2347688-1985061	33448646650770	2020-06-02T15:21:36+00:00	2020-06-02T08:21:36-07:00	2020-06-02T15:52:07+00:00	2020-06-09T06:59:59+00:00	-7	md9flkrpyxm158f@marketplace.amazon.com	David	+1 347-448-3190 ext. 54883	ABR0022	Delivery by Friday | Arabella Farm Direct Bouquet of 12 Fresh Cut Pink Roses with a Free Glass Vase	1	0	1	Expedited	David Adams	220 KILLARNEY TRL			MONCKS CORNER	SC	29461-8836	US			false		
111-3541169-4293867	05636129383530	2020-06-02T15:58:40+00:00	2020-06-02T08:58:40-07:00	2020-06-02T16:25:10+00:00	2020-06-09T06:59:59+00:00	-7	55h40hv7pkvdhgl@marketplace.amazon.com	janet messina	+1 347-448-3190 ext. 38461	ABR0022	Delivery by Friday | Arabella Farm Direct Bouquet of 12 Fresh Cut Pink Roses with a Free Glass Vase	1	0	1	Expedited	Lindsey Davis	132 CLAREMONT DR			LANSDALE	PA	19446-6361	US			false		
114-1761168-2972238	66359391112378	2020-06-02T16:45:45+00:00	2020-06-02T09:45:45-07:00	2020-06-02T16:46:38+00:00	2020-06-09T06:59:59+00:00	-7	z8b71yyb0k05zn0@marketplace.amazon.com	Osmeikel	+1 210-728-4548 ext. 38297	ABR0022	Delivery by Friday | Arabella Farm Direct Bouquet of 12 Fresh Cut Pink Roses with a Free Glass Vase	1	0	1	Expedited	secret admirer	3195 50TH ST SW			NAPLES	FL	34116-8139	US		espero que las disfrutes. encontré las más hermosas.. como tu. 😘 From tu algo	false		
114-1193642-2019420	60392285184106	2020-06-02T16:46:07+00:00	2020-06-02T09:46:07-07:00	2020-06-02T17:16:23+00:00	2020-06-09T06:59:59+00:00	-7	qymfjmpsyhmkry1@marketplace.amazon.com	Sergio calpe castro	+1 314-282-9402 ext. 31022	ABR0022	Delivery by Friday | Arabella Farm Direct Bouquet of 12 Fresh Cut Pink Roses with a Free Glass Vase	1	0	1	Expedited	Erin Keefe	8647 BRIAR PATCH			BALDWINSVILLE	NY	13027-8914	US			false		
111-3578553-2365834	00373781221450	2020-06-02T17:02:27+00:00	2020-06-02T10:02:27-07:00	2020-06-02T17:26:57+00:00	2020-06-09T06:59:59+00:00	-7	z7h90vgv10wgs90@marketplace.amazon.com	Jerry Newell	+1 347-448-3190 ext. 48688	ABR0022	Delivery by Friday | Arabella Farm Direct Bouquet of 12 Fresh Cut Pink Roses with a Free Glass Vase	1	0	1	Standard	Shirley Beers	APERION CARE BRIDGEPORT	900 CORPORATION ST		BRIDGEPORT	IL	62417-2206	US		Enjoy your gift! From Jerry Newell	false		
113-5534624-3242653	62252275922354	2020-06-02T17:28:26+00:00	2020-06-02T10:28:26-07:00	2020-06-02T17:47:40+00:00	2020-06-09T06:59:59+00:00	-7	my5p198m943kn4s@marketplace.amazon.com	Carleen Gilbride	+1 210-728-4548 ext. 00352	ABR0022	Delivery by Friday | Arabella Farm Direct Bouquet of 12 Fresh Cut Pink Roses with a Free Glass Vase	1	0	1	Expedited	Harriet Hann	125 BROOK ST REAR			MOSCOW	PA	18444-6068	US		Hi, Happy Birthday Carleen and Jim	false		
111-9164854-6043460	22647826122122	2020-06-02T17:33:10+00:00	2020-06-02T10:33:10-07:00	2020-06-02T17:55:20+00:00	2020-06-09T06:59:59+00:00	-7	gcpqj32m1bp0nbj@marketplace.amazon.com	Jeffrey S. Dingrando	+1 412-532-4665 ext. 92738	ABR0022	Delivery by Friday | Arabella Farm Direct Bouquet of 12 Fresh Cut Pink Roses with a Free Glass Vase	1	0	1	Expedited	Greg Dingrando	5568 BLUE MOON DR			COLORADO SPRINGS	CO	80924-4212	US		Lauren and Greg,   Congrats on your new house!  Jeff, Leo, and Michael	false		
111-8157637-7688230	09599257264978	2020-06-02T17:38:03+00:00	2020-06-02T10:38:03-07:00	2020-06-02T18:06:19+00:00	2020-06-06T06:59:59+00:00	-4	w6cvby36jhdg1p0@marketplace.amazon.com	kenneth Hollenbeck	+1 210-728-4548 ext. 56288	ABR0055	Purchase Now for Delivery by Friday | Arabella Farm Direct Bouquet of 12 Stems of Fresh Cut Hot Pink Roses in a Free Designer Glass Vase	1	0	1	Standard	Candy Sweeney	3328 ROBINSON RD			JACKSON	MI	49203-4965	US		Happy Birthday, Candy, Love you Pa	false		
112-8457056-8713857	63857669414634	2020-06-02T18:48:00+00:00	2020-06-02T11:48:00-07:00	2020-06-02T19:14:26+00:00	2020-06-09T06:59:59+00:00	-7	pq20nzyg25zf4x9@marketplace.amazon.com	Janet Cohen	+1 314-282-9402 ext. 42879	ABR0022	Arabella Farm Direct Bouquet of 12 Fresh Cut Pink Roses with a Free Glass Vase	1	0	1	Expedited	Allie Thompson	353 E PINE ST			LONG BEACH	NY	11561-2334	US		Love you beautiful lady All my love, aunt Franki From Franki	false		
113-0679424-1933027	31276330794730	2020-06-02T18:47:33+00:00	2020-06-02T11:47:33-07:00	2020-06-02T19:16:23+00:00	2020-06-06T06:59:59+00:00	-4	8kt9mtjs7dfbb7g@marketplace.amazon.com	Daniela	+1 347-448-3190 ext. 58102	ABR0055	Purchase Now for Delivery by Friday | Arabella Farm Direct Bouquet of 12 Stems of Fresh Cut Hot Pink Roses in a Free Designer Glass Vase	1	0	1	Expedited	Maria Riccardi	330 MARCELLUS RD			MINEOLA	NY	11501-1426	US		Dear Maria,  Wishing you a very Happy belated Mother's Day!    Love,  Daniela, Giuseppe, & Lucas	false		
114-8790337-1628213	19835427813474	2020-06-02T18:52:49+00:00	2020-06-02T11:52:49-07:00	2020-06-02T19:20:56+00:00	2020-06-09T06:59:59+00:00	-7	n6lg4255klyr71q@marketplace.amazon.com	Elizabeth	+1 210-728-4548 ext. 91269	ABR0022	Arabella Farm Direct Bouquet of 12 Fresh Cut Pink Roses with a Free Glass Vase	1	0	1	Expedited	Marlene Paul	288 LEXINGTON AVE			BROOKLYN	NY	11216-1206	US			false		
111-5212734-1521042	07707748448450	2020-06-02T18:58:33+00:00	2020-06-02T11:58:33-07:00	2020-06-02T19:28:28+00:00	2020-06-04T06:59:59+00:00	-2	c4z08lvzxdcv3mn@marketplace.amazon.com	Brittney Finlin	+1 210-728-4548 ext. 24963	ABM010	Purchase Now for Delivery by Friday | Arabella Bouquets | Fields of The World Bouquet of Fresh Cut Flowers in a Free Designer Glass Vase	1	0	1	SecondDay	Kathy Bedore	8395 ROYALHAVEN DR			NORTH ROYALTON	OH	44133-1616	US		I love you From Grandbabies	false		
111-6331128-2164229	15400896791122	2020-06-02T19:00:00+00:00	2020-06-02T12:00:00-07:00	2020-06-02T19:29:56+00:00	2020-06-09T06:59:59+00:00	-7	c4z08lvzxdcv3mn@marketplace.amazon.com	Brittney Finlin	+1 347-448-3190 ext. 79609	ABR0022	Arabella Farm Direct Bouquet of 12 Fresh Cut Pink Roses with a Free Glass Vase	1	0	1	Expedited	Cathy  Miller	10669 DEVONSHIRE DR			NORTH ROYALTON	OH	44133-1995	US		We love you Nana From Colin and Liam	false		
114-8750585-8880229	46474106166914	2020-06-02T19:00:25+00:00	2020-06-02T12:00:25-07:00	2020-06-02T19:30:47+00:00	2020-06-04T06:59:59+00:00	-2	ytwqns9djwkf7xc@marketplace.amazon.com	carrie otte	+1 347-448-3190 ext. 72056	ABR0033	Arabella Farm Direct Bouquet of 12 Fresh Cut Orange Roses with a Free Glass Vase	1	0	1	SecondDay	Kayla	4262 WILLOW BEND DR APT B			BEECH GROVE	IN	46107-2703	US			false		
111-5993274-9494643	59100771863914	2020-06-02T19:11:18+00:00	2020-06-02T12:11:18-07:00	2020-06-02T19:40:02+00:00	2020-06-04T06:59:59+00:00	-2	1btsy5z47qngdq7@marketplace.amazon.com	Sovansuny Uy	+1 210-728-4548 ext. 23979	ABSR005	Arabella Bouquets | Fresh Cut Orange Spray Roses in a Free Designer Glass Vase	1	0	1	SecondDay	Hannah Lewis	5307 WYTHE AVE			RICHMOND	VA	23226-1412	US			false		
113-5436599-7566659	27035721592730	2020-06-02T19:42:45+00:00	2020-06-02T12:42:45-07:00	2020-06-02T19:43:40+00:00	2020-06-04T06:59:59+00:00	-2	r4rzzrtvth6b7nc@marketplace.amazon.com	Kimberly Strong	+1 347-448-3190 ext. 50958	ABM010	Purchase Now for Delivery by Friday | Arabella Bouquets | Fields of The World Bouquet of Fresh Cut Flowers in a Free Designer Glass Vase	1	0	1	SecondDay	Annette Staehle	15902 NOTTINGHILL DR			LUTZ	FL	33548-6116	US		Get well wishes for a speedy recovery! From Love, the entire RICOH PMO	false		
111-9622879-4817861	23443721043810	2020-06-02T19:28:30+00:00	2020-06-02T12:28:30-07:00	2020-06-02T19:57:48+00:00	2020-06-04T06:59:59+00:00	-2	4njzf21spc0x1j2@marketplace.amazon.com	Salimah Muhammad Zahid	+1 347-448-3190 ext. 99182	ABR001	Purchase Now for Delivery by Friday | Arabella Bouquets 12 Stems of Fresh Cut Red Roses in a Free Designer Glass Vase	1	0	1	SecondDay	Salima Rahama	1126 VIZCAYA LAKE RD APT 208			OCOEE	FL	34761-6939	US			false		
113-8719375-0374640	61830867317570	2020-06-02T19:37:51+00:00	2020-06-02T12:37:51-07:00	2020-06-02T20:04:46+00:00	2020-06-04T06:59:59+00:00	-2	481jdslrs9p01sd@marketplace.amazon.com	Ryan Murphy	+1 347-448-3190 ext. 95208	ABR0055	Purchase Now for Delivery by Friday | Arabella Farm Direct Bouquet of 12 Stems of Fresh Cut Hot Pink Roses in a Free Designer Glass Vase	1	0	1	SecondDay	Nancy Eklund	7516 QUAIL RUN CT			ORLANDO	FL	32819-3401	US		Hi Nancy! Happy birthday! Hope you’re feeling better. Love Kathy From Kathy Murphy	false		
114-3813771-1137849	13832579598274	2020-06-02T19:55:13+00:00	2020-06-02T12:55:13-07:00	2020-06-02T20:25:03+00:00	2020-06-04T06:59:59+00:00	-2	fr34b00fhrbf628@marketplace.amazon.com	Krista Dawley	+1 347-448-3190 ext. 12477	ABR0033	Arabella Farm Direct Bouquet of 12 Fresh Cut Orange Roses with a Free Glass Vase	1	0	1	SecondDay	Judy Bryant	5720 Blue Mountain Road			Grizzly Flats	CA	95636	US		Happy birthday Auntie!! We love you! From Bun-bun, Brian, Ben & Sam	false		
113-2269078-9562609	64043706861738	2020-06-02T20:07:38+00:00	2020-06-02T13:07:38-07:00	2020-06-02T20:37:31+00:00	2020-06-04T06:59:59+00:00	-2	f31vbhzmx7tr3l5@marketplace.amazon.com	Sarah Koenig	+1 210-728-4548 ext. 65434	ABR0066	Purchase Now for Delivery by Friday | Arabella Bouquets | 12 Stems of Fresh Cut White Roses in a Free Designer Glass Vase	1	0	1	SecondDay	Amanda Davis	9861 23 MILE RD			HOMER	MI	49245-9413	US		Amanda,  I can't stop thinking about you. Know that I am here for you.   Love, Sarah Roberts	false		
112-1392153-9313802	04457476981802	2020-06-02T20:19:44+00:00	2020-06-02T13:19:44-07:00	2020-06-02T20:39:00+00:00	2020-06-04T06:59:59+00:00	-2	980y8p0f3jgvpwq@marketplace.amazon.com	cynthia m. munar	+1 347-448-3190 ext. 46039	ABR0055	Purchase Now for Delivery by Friday | Arabella Farm Direct Bouquet of 12 Stems of Fresh Cut Hot Pink Roses in a Free Designer Glass Vase	1	0	1	SecondDay	Julia Mack	12 CONDICT ST			JERSEY CITY	NJ	07306-7010	US		Hi Julia, Enjoy your gift! From cynthia m. munar	false		
111-5451706-6213019	43082904904546	2020-06-02T20:25:44+00:00	2020-06-02T13:25:44-07:00	2020-06-02T20:55:54+00:00	2020-06-04T06:59:59+00:00	-2	p0n3xwh0jtfg1pg@marketplace.amazon.com	Rebecca Wellcome	4104105351465	ABR004	Arabella Farm Direct Bouquet of 12 Fresh Cut Yellow Roses with a Free Glass Vase	1	0	1	SecondDay	Rebecca A, Wellcome	5435 HUNTINGTOWN RD			HUNTINGTOWN	MD	20639-8904	US			false		
112-1077361-0937030	58117772396130	2020-06-02T20:29:38+00:00	2020-06-02T13:29:38-07:00	2020-06-02T20:56:26+00:00	2020-06-04T06:59:59+00:00	-2	br2hsq2b0xpnldh@marketplace.amazon.com	Janet Deal	+1 314-282-9402 ext. 24821	ABR014	Purchase Now for Delivery by Friday | Arabella Bouquets 18 Stems of Fresh Cut White Roses in a Free Designer Glass Vase	1	0	1	SecondDay	Nycia Deal	10304 QUAIL VALLEY BLVD			AUSTIN	TX	78758-5009	US		Happy Almost Birthday, Buzzlehead! We love you so much!  Mom and Dad	false		
111-9507302-7847435	45769672045458	2020-06-02T20:28:40+00:00	2020-06-02T13:28:40-07:00	2020-06-02T20:59:07+00:00	2020-06-04T06:59:59+00:00	-2	lltpw9m07b6ytgg@marketplace.amazon.com	Christopher Lopez	+1 347-448-3190 ext. 71857	ABR001	Purchase Now for Delivery by Friday | Arabella Bouquets 12 Stems of Fresh Cut Red Roses in a Free Designer Glass Vase	1	0	1	SecondDay	Christopher Lopez	3351 WILD FILLY LN			NORTH LAS VEGAS	NV	89032-2476	US			false		
111-6573709-5911454	67258183182882	2020-06-02T20:45:10+00:00	2020-06-02T13:45:10-07:00	2020-06-02T21:14:41+00:00	2020-06-04T06:59:59+00:00	-2	yhfv96r80v2cmrt@marketplace.amazon.com	Susan Newburger	+1 347-448-3190 ext. 16632	ABR0055	Purchase Now for Delivery by Friday | Arabella Farm Direct Bouquet of 12 Stems of Fresh Cut Hot Pink Roses in a Free Designer Glass Vase	1	0	1	SecondDay	Arnold Stone	1909 NW KILLARNEY LN			LEES SUMMIT	MO	64081-1681	US		Happy 73rd Annivesary! You two are an amazing, inspirational couple. Love, Susan From Susan Newburger	false		
112-2459556-1267437	13170552657946	2020-06-02T21:03:44+00:00	2020-06-02T14:03:44-07:00	2020-06-02T21:24:59+00:00	2020-06-04T06:59:59+00:00	-2	fkkdnynk1z3zh8k@marketplace.amazon.com	Matt	+1 314-282-9402 ext. 40623	ABR012	Arabella Farm Direct Bouquet of 18 Fresh Cut Pink Roses with a Free Glass Vase	1	0	1	SecondDay	Coby Stuart!	223 GEORGE AVE			AMERY	WI	54001-1511	US		Coby Elisabeth Stuart,  Deeply sorry I forgot about your foot surgery, I hope you have it in your heart to forgive me. I wish for you to have a speedy recovery!!!   Love You, Puppy	false		
114-8661280-6796207	34344590091498	2020-06-02T21:14:15+00:00	2020-06-02T14:14:15-07:00	2020-06-02T21:40:36+00:00	2020-06-09T06:59:59+00:00	-7	6y4fdpbk6yhzvfg@marketplace.amazon.com	Judy Pierce	+1 347-448-3190 ext. 32966	ABR0022	Arabella Farm Direct Bouquet of 12 Fresh Cut Pink Roses with a Free Glass Vase	1	0	1	Standard	Mrs. Julie Houser	3203 174TH AVE NE			REDMOND	WA	98052-5733	US		Jules, Happy 9th remission anniversary!  We wish we could deliver these roses in person.  We love you so very much! Love Mom, Marc and Charlie	false		
111-1051961-9051462	03608361593946	2020-06-02T21:17:35+00:00	2020-06-02T14:17:35-07:00	2020-06-02T21:48:09+00:00	2020-06-04T06:59:59+00:00	-2	0yf6xk6890ntbq3@marketplace.amazon.com	Angela McCoy	+1 347-448-3190 ext. 68973	ABR014	Purchase Now for Delivery by Friday | Arabella Bouquets 18 Stems of Fresh Cut White Roses in a Free Designer Glass Vase	1	0	1	SecondDay	William E. McCoy	33 Timberwood Drive			Asheville	NC	28806	US			false		
114-3719413-1025046	69069963159378	2020-06-02T21:27:41+00:00	2020-06-02T14:27:41-07:00	2020-06-02T21:56:22+00:00	2020-06-04T06:59:59+00:00	-2	d0t1v1n0ytbdxvx@marketplace.amazon.com	Amy Roberts	+1 347-448-3190 ext. 42469	ABM010	Purchase Now for Delivery by Friday | Arabella Bouquets | Fields of The World Bouquet of Fresh Cut Flowers in a Free Designer Glass Vase	1	0	1	SecondDay	Joan Kellermann	5250 GOLF DR			AUBURN	IL	62615-9659	US		Happy Mother’s Day! From Amy Roberts	false		
112-6717844-9384221	16644476732234	2020-06-02T21:56:14+00:00	2020-06-02T14:56:14-07:00	2020-06-02T22:23:33+00:00	2020-06-04T06:59:59+00:00	-2	b389hknm1nlj2vq@marketplace.amazon.com	Sneha Patel	+1 210-728-4548 ext. 40515	ABR0066	Purchase Now for Delivery by Friday | Arabella Bouquets | 12 Stems of Fresh Cut White Roses in a Free Designer Glass Vase	1	0	1	SecondDay	Keshonda Godfrey	11407 KAY LN			PEARLAND	TX	77584-7270	US		Dear Keshonda,  So sorry for your loss! Condolences to you and family during this tough time.   From: Team Howard, Sneha, and Debbie From Sneha Patel	false		
114-6382990-8055428	56628457601930	2020-06-02T22:02:17+00:00	2020-06-02T15:02:17-07:00	2020-06-02T22:26:22+00:00	2020-06-04T06:59:59+00:00	-2	mbwm196bhlz2m40@marketplace.amazon.com	Dr. Roger Mazze	+1 347-448-3190 ext. 58530	ABR013	Purchase Now for Delivery by Friday | Arabella Farm Direct Bouquet of 18 Fresh Cut Yellow Roses with a Free Glass Vase	1	0	1	SecondDay	Samantha Mazze	103 CEDAR CLIFF CT			CARY	NC	27518-8209	US		Hi Samantha, Congratulations on your graduation and wishing you a very successful experience at UNC Asheville. Love  Nana and Grandpa	false		
112-9177529-6794655	62559867205890	2020-06-02T22:02:38+00:00	2020-06-02T15:02:38-07:00	2020-06-02T22:30:29+00:00	2020-06-04T06:59:59+00:00	-2	v6tb5r0xg4qn8tg@marketplace.amazon.com	Matt Urbanowicz	+1 347-448-3190 ext. 11199	ABM010	Purchase Now for Delivery by Friday | Arabella Bouquets | Fields of The World Bouquet of Fresh Cut Flowers in a Free Designer Glass Vase	1	0	1	SecondDay	B. Hulse	1819 KNOX AVE S			MINNEAPOLIS	MN	55403-2838	US		Congratulations on elementary school graduation! We all love you very much and are looking forward to the next middle school chapter!    Mary, Tim, Matt, Erin, Audrey and Liam From Matt Urbanowicz	false		
112-5660657-4124230	28526362410050	2020-06-02T22:01:13+00:00	2020-06-02T15:01:13-07:00	2020-06-02T22:31:40+00:00	2020-06-04T06:59:59+00:00	-2	5ks5g3lvxz0wvtz@marketplace.amazon.com	Kirk Luther	+1 210-728-4548 ext. 43133	ABR012	Arabella Farm Direct Bouquet of 18 Fresh Cut Pink Roses with a Free Glass Vase	1	0	1	SecondDay	Lena Hinkle	554 Lee 329			Marianna	Arkansas	72360	US			false		
114-3195676-1222633	16519981467106	2020-06-02T22:06:56+00:00	2020-06-02T15:06:56-07:00	2020-06-02T22:35:15+00:00	2020-06-04T06:59:59+00:00	-2	ysspt9yw38sq8pf@marketplace.amazon.com	stephen dennis	+1 347-448-3190 ext. 51268	ABR001	Purchase Now for Delivery by Friday | Arabella Bouquets 12 Stems of Fresh Cut Red Roses in a Free Designer Glass Vase	1	0	1	SecondDay	Jean Dennis	218 W HOUSTONIA AVE			ROYAL OAK	MI	48073-4188	US		Happy Birthday Jean !!  Love,  Meghan & Doug, Joey & Jamie, Milo, Kyle and Max Sparty, Geist and Harlow !!	false		
114-3008748-5008214	66527932305634	2020-06-02T22:15:46+00:00	2020-06-02T15:15:46-07:00	2020-06-02T22:43:18+00:00	2020-06-04T06:59:59+00:00	-2	tsdjdzxx009p30v@marketplace.amazon.com	b	+1 347-448-3190 ext. 41131	ABR0066	Purchase Now for Delivery by Friday | Arabella Bouquets | 12 Stems of Fresh Cut White Roses in a Free Designer Glass Vase	1	0	1	SecondDay	Everyln Brooks	207 WARWICK AVE			COLUMBIA	TN	38401-2640	US		Happy Birthday From Luv Brittany	false		
113-4220376-2168217	38227072526770	2020-06-02T22:15:10+00:00	2020-06-02T15:15:10-07:00	2020-06-02T22:44:46+00:00	2020-06-04T06:59:59+00:00	-2	wbclv3lqgw2c2z1@marketplace.amazon.com	Fabiana Bravo	+1 314-282-9402 ext. 37335	ABR001	Purchase Now for Delivery by Friday | Arabella Bouquets 12 Stems of Fresh Cut Red Roses in a Free Designer Glass Vase	1	0	1	SecondDay	Fabiana Bravo	12612 KEMPSTON LN			WOODBRIDGE	VA	22192-5070	US			false		
113-7320494-8589827	19054713751298	2020-06-02T22:21:29+00:00	2020-06-02T15:21:29-07:00	2020-06-02T22:50:32+00:00	2020-06-04T06:59:59+00:00	-2	v2lx9x2m0rj8rt8@marketplace.amazon.com	Terri	+1 412-532-4665 ext. 66840	ABR0055	Purchase Now for Delivery by Friday | Arabella Farm Direct Bouquet of 12 Stems of Fresh Cut Hot Pink Roses in a Free Designer Glass Vase	1	0	1	SecondDay	Ella Jones	682 ELLA AVE			INVERNESS	FL	34450-3427	US		Dear Ella, HAPPY HAPPY BIRTHDAY!!! From Lots of love, Terri	false		
111-2399658-3534641	66313341297234	2020-06-02T22:35:23+00:00	2020-06-02T15:35:23-07:00	2020-06-02T22:52:27+00:00	2020-06-04T06:59:59+00:00	-2	s1mxvs046745c7z@marketplace.amazon.com	Stephen	+1 314-282-9402 ext. 11691	ABM010	Purchase Now for Delivery by Friday | Arabella Bouquets | Fields of The World Bouquet of Fresh Cut Flowers in a Free Designer Glass Vase	1	0	1	SecondDay	Toni Pontice	2511 FREMONT DR UNIT 102			LAKE HAVASU CITY	AZ	86406-8271	US		Toni, I'm so sorry to hear of your dads passing Hope this cheers you up a little  Love Stephen	false		
112-2239141-0341036	07698454863018	2020-06-02T22:44:42+00:00	2020-06-02T15:44:42-07:00	2020-06-02T23:11:00+00:00	2020-06-04T06:59:59+00:00	-2	nl0dw7qhpfzjh9v@marketplace.amazon.com	Jeanie benedetti	+1 412-532-4665 ext. 21911	ABR015	Purchase Now for Delivery by Friday | Arabella Farm Direct Bouquet of 18 Fresh Cut Orange Roses with a Free Glass Vase	1	0	1	SecondDay	Jan benedetti	7021 SE LILLIAN CT			STUART	FL	34997-2230	US			false		
111-4114063-4549040	26699494309810	2020-06-02T22:43:16+00:00	2020-06-02T15:43:16-07:00	2020-06-02T23:12:47+00:00	2020-06-04T06:59:59+00:00	-2	tjdny7y35d8h91s@marketplace.amazon.com	Big momma	+1 314-282-9402 ext. 43422	ABM0044	Purchase Now for Delivery by Friday | Arabella Farm Direct Bouquet of Fresh Cut Blue Hydrangea with a Free Glass Vase	1	0	1	SecondDay	Barbara and Jack Calvert	14716 IL ROUTE 173			HARVARD	IL	60033-9195	US		Happy Birthday to Beth!  We love you! From Us	false		
113-2138329-5984224	48429339760546	2020-06-02T22:45:18+00:00	2020-06-02T15:45:18-07:00	2020-06-02T23:13:51+00:00	2020-06-04T06:59:59+00:00	-2	n9t8m6p7wbfrkh2@marketplace.amazon.com	Tony	+1 210-728-4548 ext. 77323	ABM010	Purchase Now for Delivery by Friday | Arabella Bouquets | Fields of The World Bouquet of Fresh Cut Flowers in a Free Designer Glass Vase	1	0	1	SecondDay	Madison Flowers	10 NELSON RD			PITTSTON	ME	04345-6815	US		No matter how pretty these flowers are, you’re still the prettiest Flower I have ever laid eyes on.  I love you bunches madi, more than words can describe. From Tony	false		
111-5746185-0410611	08768891462130	2020-06-02T22:52:38+00:00	2020-06-02T15:52:38-07:00	2020-06-02T23:21:01+00:00	2020-06-04T06:59:59+00:00	-2	4592twwmnq6crqn@marketplace.amazon.com	Anthony Wang	+1 347-448-3190 ext. 97136	ABR012	Arabella Farm Direct Bouquet of 18 Fresh Cut Pink Roses with a Free Glass Vase	1	0	1	SecondDay	Joyce Lee	22 BOULDER VW			IRVINE	CA	92603-0410	US		Dear Joyce, Thinking of you and praying for a quick recovery!  Love you, Courtney, BigAl, Karen, Dana, Ashley, Nat	false		
111-3362257-3607441	04416206297298	2020-06-02T23:04:39+00:00	2020-06-02T16:04:39-07:00	2020-06-02T23:30:23+00:00	2020-06-04T06:59:59+00:00	-2	74k8k6h51tn8qt2@marketplace.amazon.com	Joan kafer	+1 347-448-3190 ext. 41745	ABM010	Purchase Now for Delivery by Friday | Arabella Bouquets | Fields of The World Bouquet of Fresh Cut Flowers in a Free Designer Glass Vase	1	0	1	SecondDay	Joe and Rhoda Kafer	7738 LAKESIDE BLVD			BOCA RATON	FL	33434-6415	US		Dear Joe and Rhoda, Wishing you health, happiness and love in your new home.   Love,  Mike and Joan, Kathy and Jeff, Marcy and Mark	false		
113-8027347-6437015	04772831340706	2020-06-02T23:15:44+00:00	2020-06-02T16:15:44-07:00	2020-06-02T23:36:23+00:00	2020-06-04T06:59:59+00:00	-2	b8zfl9yt17t7kxc@marketplace.amazon.com	vprice001	+1 210-728-4548 ext. 97451	ABR0055	Purchase Now for Delivery by Friday | Arabella Farm Direct Bouquet of 12 Stems of Fresh Cut Hot Pink Roses in a Free Designer Glass Vase	1	0	1	SecondDay	Kamille Green	4808 HENDERSON RD			TEMPLE HILLS	MD	20748-2107	US		Happy belated Mother's Day KG. From VP	false		
114-1240072-6508252	04341320023234	2020-06-02T23:28:42+00:00	2020-06-02T16:28:42-07:00	2020-06-02T23:39:52+00:00	2020-06-04T06:59:59+00:00	-2	402v1t28rhk65jt@marketplace.amazon.com	Maria Merritt	+1 314-282-9402 ext. 79642	ABR004	Arabella Farm Direct Bouquet of 12 Fresh Cut Yellow Roses with a Free Glass Vase	1	0	1	SecondDay	Hillarie Yelton	1216 N CLEVELAND ST			ARLINGTON	VA	22201-2820	US		Hi Hillarie, A sunny Happy Birthday that you so deserve! From Maria Merritt	false		
113-9135841-9998624	58871899605370	2020-06-02T23:16:34+00:00	2020-06-02T16:16:34-07:00	2020-06-02T23:44:21+00:00	2020-06-04T06:59:59+00:00	-2	9p7bwq3jt1zsfdr@marketplace.amazon.com	Kristin Szutz	+1 314-282-9402 ext. 14765	ABR0055	Purchase Now for Delivery by Friday | Arabella Farm Direct Bouquet of 12 Stems of Fresh Cut Hot Pink Roses in a Free Designer Glass Vase	1	0	1	SecondDay	Kristie Walthard	2115 PARK AVE			SAN JOSE	CA	95126-1303	US		Happy birthday and congratulations on your graduation!! We love you to the moon and back and couldn’t be prouder of you! Love, Kristin, Tom, + Teagan From Kristin Szutz	false		
114-6575327-3683436	04834893036770	2020-06-02T23:14:59+00:00	2020-06-02T16:14:59-07:00	2020-06-02T23:45:07+00:00	2020-06-04T06:59:59+00:00	-2	5wp3hgg44fcp4p2@marketplace.amazon.com	June Meeks	+1 347-448-3190 ext. 52634	ABR0055	Purchase Now for Delivery by Friday | Arabella Farm Direct Bouquet of 12 Stems of Fresh Cut Hot Pink Roses in a Free Designer Glass Vase	1	0	1	SecondDay	MRS. Jeanne Bledsoe	425 COUNTRY CLUB DR GOLDEN CREST	RM 322		STOCKBRIDGE	GA	30281-7342	US			false		
111-8346307-0015415	08362202839474	2020-06-02T23:44:53+00:00	2020-06-02T16:44:53-07:00	2020-06-02T23:56:04+00:00	2020-06-09T06:59:59+00:00	-7	81n9f42h30601b5@marketplace.amazon.com	Katrieia N. Snipes	+1 763-225-9463 ext. 21233	ABR0022	Arabella Farm Direct Bouquet of 12 Fresh Cut Pink Roses with a Free Glass Vase	1	0	1	Expedited	Jill Cloud	15100 ROLLING MEADOWS RD			UPPER MARLBORO	MD	20772-8333	US		Thanks for being you. From KT	false		
113-2179535-7819442	47868095933226	2020-06-02T23:30:56+00:00	2020-06-02T16:30:56-07:00	2020-06-02T23:57:43+00:00	2020-06-04T06:59:59+00:00	-2	t41b12d9shn91h5@marketplace.amazon.com	Leo Sporgitas	+1 210-728-4548 ext. 03331	ABM010	Purchase Now for Delivery by Friday | Arabella Bouquets | Fields of The World Bouquet of Fresh Cut Flowers in a Free Designer Glass Vase	1	0	1	SecondDay	David & Tammy Hill	6341 BALMORAL DR			HUNTINGTON BEACH	CA	92647-6558	US		David & Tammy - A little something to brighten your day.  Please know that you're in our thoughts.  Sending positive thoughts.  Stay strong!  You can beat this! From Melissa & Leo Sporgitas	false		
114-5123984-5571400	26305986402706	2020-06-02T23:42:21+00:00	2020-06-02T16:42:21-07:00	2020-06-03T00:04:47+00:00	2020-06-04T06:59:59+00:00	-2	rnjv4mb0rls96mm@marketplace.amazon.com	Veessa	+1 347-448-3190 ext. 55191	ABM010	Purchase Now for Delivery by Friday | Arabella Bouquets | Fields of The World Bouquet of Fresh Cut Flowers in a Free Designer Glass Vase	1	0	1	SecondDay	Kate Guay	232 MAIN BLVD			PITTSBURGH	PA	15237-1970	US		Kate, we have been keeping you in our heart felt prayers,words can't explain the love and respect that we all have for you. You have been a wonderful role model and a great woman. From Veessa and Pat	false		
114-5272060-4573047	56380801337810	2020-06-02T23:46:56+00:00	2020-06-02T16:46:56-07:00	2020-06-03T00:17:27+00:00	2020-06-04T06:59:59+00:00	-2	fbxgf5zt74v1yyn@marketplace.amazon.com	Matthew Quirin	+1 314-282-9402 ext. 72868	ABM010	Purchase Now for Delivery by Friday | Arabella Bouquets | Fields of The World Bouquet of Fresh Cut Flowers in a Free Designer Glass Vase	1	0	1	SecondDay	Matthew  Quirin	150 Pine Creek Dr			Carlisle	PA	17013-9680	US			false		
112-2578982-8094609	40891601828994	2020-06-03T00:09:32+00:00	2020-06-02T17:09:32-07:00	2020-06-03T00:36:44+00:00	2020-06-04T06:59:59+00:00	-2	7cpqzgbxghh34cb@marketplace.amazon.com	Timothy M Costello	+1 347-448-3190 ext. 54388	ABM010	Purchase Now for Delivery by Friday | Arabella Bouquets | Fields of The World Bouquet of Fresh Cut Flowers in a Free Designer Glass Vase	1	0	1	SecondDay	Mr. and Mrs. John M. Dhane	33405 US HIGHWAY 97			OROVILLE	WA	98844-9514	US		Sue the bastard! Love and Hugs, Tim and Therese From Timothy M Costello	false		
114-0536438-4695446	27468365331378	2020-06-03T00:10:35+00:00	2020-06-02T17:10:35-07:00	2020-06-03T00:40:11+00:00	2020-06-04T06:59:59+00:00	-2	9lt75r56nxpdpw6@marketplace.amazon.com	Blake Nickle	+1 347-448-3190 ext. 99849	ABM010	Purchase Now for Delivery by Friday | Arabella Bouquets | Fields of The World Bouquet of Fresh Cut Flowers in a Free Designer Glass Vase	1	0	1	SecondDay	Sarah Conner	68050 LAKE TRL			BREMEN	IN	46506-7804	US		Happy birthday mom! We love you with all our hearts:) From Love, Jess, Blake, Grace, Ella & Augie	false		
111-1166339-7772266	24658664492002	2020-06-03T00:17:42+00:00	2020-06-02T17:17:42-07:00	2020-06-03T00:41:56+00:00	2020-06-04T06:59:59+00:00	-2	hyd890bcq5tnf68@marketplace.amazon.com	Ronald	+1 314-282-9402 ext. 47520	ABR0033	Arabella Farm Direct Bouquet of 12 Fresh Cut Orange Roses with a Free Glass Vase	1	0	1	SecondDay	Katia Brock	34 PLEASANT ST APT 2			BRATTLEBORO	VT	05301-6565	US		¡HaPpY BiRtHdAY! From Dad	false		
112-1841176-5575428	54472079321538	2020-06-03T00:45:08+00:00	2020-06-02T17:45:08-07:00	2020-06-03T01:12:30+00:00	2020-06-04T06:59:59+00:00	-2	nn3v3dkl8zhqlmk@marketplace.amazon.com	abraham	+1 314-282-9402 ext. 36748	ABR001	Purchase Now for Delivery by Friday | Arabella Bouquets 12 Stems of Fresh Cut Red Roses in a Free Designer Glass Vase	1	0	1	SecondDay	Perla E Martinez	5135 SW HILLVIEW AVE			CORVALLIS	OR	97333-3903	US		TE AMO From Abraham	true		Business Price
113-3723476-1733066	10829658717802	2020-06-03T01:03:01+00:00	2020-06-02T18:03:01-07:00	2020-06-03T01:27:08+00:00	2020-06-04T06:59:59+00:00	-2	nvttx94v1037ld9@marketplace.amazon.com	Harold  Columbo	+1 210-728-4548 ext. 77881	ABR015	Purchase Now for Delivery by Friday | Arabella Farm Direct Bouquet of 18 Fresh Cut Orange Roses with a Free Glass Vase	1	0	1	SecondDay	Lora Micheaud	1976 PULASKI DR			BEAUFORT	SC	29906-9410	US		Enjoy your gift! From Loving you!!	true		
112-9173158-3114612	27264128169954	2020-06-03T01:00:06+00:00	2020-06-02T18:00:06-07:00	2020-06-03T01:28:57+00:00	2020-06-04T06:59:59+00:00	-2	2dt8dsp1c63tjg5@marketplace.amazon.com	Tiphanie Anderson	+1 347-448-3190 ext. 35665	ABR012	Arabella Farm Direct Bouquet of 18 Fresh Cut Pink Roses with a Free Glass Vase	1	0	1	SecondDay	Don and Linda Reynolds	1479 PURITAN DR			OCEANSIDE	CA	92057-1807	US		Happy birthday Linda! We hope you have a wonderful day! From Tim, Tiphanie, Trey and Tabitha	false		
111-5236585-7665864	65450389793330	2020-06-03T00:59:09+00:00	2020-06-02T17:59:09-07:00	2020-06-03T01:29:29+00:00	2020-06-04T06:59:59+00:00	-2	bzkmqs0fcgn1096@marketplace.amazon.com	FaLaBao	+1 347-448-3190 ext. 23559	ABM010	Purchase Now for Delivery by Friday | Arabella Bouquets | Fields of The World Bouquet of Fresh Cut Flowers in a Free Designer Glass Vase	1	0	1	SecondDay	Shuaimin Liu	340 VENTURA AVE APT 28			PALO ALTO	CA	94306-3481	US			false		
112-0426220-4590623	41131690549322	2020-06-03T01:22:52+00:00	2020-06-02T18:22:52-07:00	2020-06-03T01:49:51+00:00	2020-06-04T06:59:59+00:00	-2	fyysbjp43zj3xp5@marketplace.amazon.com	Kathy	+1 314-282-9402 ext. 72353	ABM010	Purchase Now for Delivery by Friday | Arabella Bouquets | Fields of The World Bouquet of Fresh Cut Flowers in a Free Designer Glass Vase	1	0	1	SecondDay	Marian Magness	13595 GREENHORN RD			GRASS VALLEY	CA	95945-9337	US		Happy Birthday Mom! Lots of Love Kathy and Bob	false		
112-3291522-7761860	46958454510522	2020-06-03T01:24:16+00:00	2020-06-02T18:24:16-07:00	2020-06-03T01:51:24+00:00	2020-06-04T06:59:59+00:00	-2	nqmw1qksyp8xl4d@marketplace.amazon.com	Your husband	+1 210-728-4548 ext. 63287	ABR001	Purchase Now for Delivery by Friday | Arabella Bouquets 12 Stems of Fresh Cut Red Roses in a Free Designer Glass Vase	1	0	1	SecondDay	Catherine Besler	1486 ADAMS AVE			PHILADELPHIA	PA	19124-4504	US			false		
114-5825603-6698663	59238618150074	2020-06-03T01:33:43+00:00	2020-06-02T18:33:43-07:00	2020-06-03T01:56:11+00:00	2020-06-04T06:59:59+00:00	-2	6s9d38pjd6pzvp0@marketplace.amazon.com	Fredericka Coleman	+1 763-225-9463 ext. 26836	ABR0033	Arabella Farm Direct Bouquet of 12 Fresh Cut Orange Roses with a Free Glass Vase	1	0	1	SecondDay	Melody Huff	3720 RENAISSANCE CIR			ATLANTA	GA	30349-1045	US		Hi Melody, Enjoy your gift! Enjoy your birthday! Stay safe, Stay healthy, Stay in the present. Yesterday is gone, Tomorrow is uncertain. Today is a gift to be enjoyed. From Mommy	false		
112-1771584-2820228	47711920582698	2020-06-03T01:32:19+00:00	2020-06-02T18:32:19-07:00	2020-06-03T01:57:27+00:00	2020-06-04T06:59:59+00:00	-2	nqmw1qksyp8xl4d@marketplace.amazon.com	Your husband	+1 347-448-3190 ext. 21266	ABR001	Purchase Now for Delivery by Friday | Arabella Bouquets 12 Stems of Fresh Cut Red Roses in a Free Designer Glass Vase	1	0	1	SecondDay	Monica sosa	738 N ADAIR ST APT 36			CORNELIUS	OR	97113-9106	US			false		
114-3651733-0873829	35461796003618	2020-06-03T01:50:54+00:00	2020-06-02T18:50:54-07:00	2020-06-03T02:11:55+00:00	2020-06-04T06:59:59+00:00	-2	zx02tbr398xqc21@marketplace.amazon.com	Michael Vrchota	+1 347-448-3190 ext. 73460	ABM010	Purchase Now for Delivery by Friday | Arabella Bouquets | Fields of The World Bouquet of Fresh Cut Flowers in a Free Designer Glass Vase	1	0	1	SecondDay	Laura Sante	475 MAIN ST			CORNISH	ME	04020-3228	US		Honey, Welcome Home Darling! Something to brighten your days. AML  Michael	false		
112-8070481-4255406	42116316724522	2020-06-03T01:46:09+00:00	2020-06-02T18:46:09-07:00	2020-06-03T02:13:18+00:00	2020-06-09T06:59:59+00:00	-7	hvtnh1z3587b96h@marketplace.amazon.com	Arnold Charnoski	+1 347-448-3190 ext. 49116	ABR0022	Arabella Farm Direct Bouquet of 12 Fresh Cut Pink Roses with a Free Glass Vase	1	0	1	Expedited	lauren labeff	39253 S TRIFECTA DR			TUCSON	AZ	85739-1445	US		Enjoy your flowers Angel!! Happy Birthday Lauren. From Jonsnow aka RayC	false		
111-6399132-0041042	12075551265218	2020-06-03T01:46:30+00:00	2020-06-02T18:46:30-07:00	2020-06-03T02:14:14+00:00	2020-06-06T06:59:59+00:00	-4	cw21bjblkrf6lg7@marketplace.amazon.com	Tara Neal	+1 210-728-4548 ext. 29364	ABM010	Purchase Now for Delivery by Friday | Arabella Bouquets | Fields of The World Bouquet of Fresh Cut Flowers in a Free Designer Glass Vase	1	0	1	Standard	Elaine Neal	280 WILTON FARM RD			HAGUE	VA	22469-2901	US		Hi, Mom: I know these are early, but wanted to wish you a Happy Birthday Month. Love, Tara	false		
114-3807013-6360222	37118522479938	2020-06-03T02:15:38+00:00	2020-06-02T19:15:38-07:00	2020-06-03T02:45:55+00:00	2020-06-04T06:59:59+00:00	-2	x8wfx07w0qbdsd0@marketplace.amazon.com	Dawn C	+1 412-532-4665 ext. 42535	ABM0033	Purchase Now for Delivery by Friday | Arabella Farm Direct Bouquet of Fresh Cut White Hydrangea with a Free Glass Vase	1	0	1	SecondDay	Shannon Viswanath	14 INTREPID CIR			ROCKWALL	TX	75032-5750	US			false		
113-4936956-6905848	45950045244490	2020-06-03T02:18:01+00:00	2020-06-02T19:18:01-07:00	2020-06-03T02:47:05+00:00	2020-06-04T06:59:59+00:00	-2	5ns1hr23rpds9m4@marketplace.amazon.com	Susan McMillian	+1 412-532-4665 ext. 78974	ABR0033	Arabella Farm Direct Bouquet of 12 Fresh Cut Orange Roses with a Free Glass Vase	1	0	1	SecondDay	Lorna Croney	3475 NW SHOEMAKER RD			PLATTSBURG	MO	64477-1498	US		Thinking of you in your time of loss. We love you!  Love, Robert, Mark, Amy, Susan, James Matthew & Families From Susan McMillian	false		
112-2443344-6483441	64774015689290	2020-06-03T02:18:29+00:00	2020-06-02T19:18:29-07:00	2020-06-03T02:47:07+00:00	2020-06-04T06:59:59+00:00	-2	qnythyfsst65x3r@marketplace.amazon.com	Stephen J Chowaniec	+1 347-448-3190 ext. 78629	ABM002	Purchase Now for Delivery by Friday | Arabella Bouquets Fresh Cut White Calla Lilies in a Free Designer Glass Vase	1	0	1	SecondDay	Peppas Family	75 PFOHL PL			WILLIAMSVILLE	NY	14221-6821	US			false		
114-2447839-1497859	01363379505218	2020-06-03T02:23:11+00:00	2020-06-02T19:23:11-07:00	2020-06-03T02:52:06+00:00	2020-06-09T06:59:59+00:00	-7	8vnbjtjc9xrzjhj@marketplace.amazon.com	Almira lizarazo	+1 347-448-3190 ext. 56444	ABR0022	Arabella Farm Direct Bouquet of 12 Fresh Cut Pink Roses with a Free Glass Vase	1	0	1	Expedited	Elena Nunez	777 BROADWAY			NORWOOD	NJ	07648-1609	US			false		
113-0798202-7615462	02092694407858	2020-06-03T02:45:32+00:00	2020-06-02T19:45:32-07:00	2020-06-03T02:55:40+00:00	2020-06-04T06:59:59+00:00	-2	8yn5nst4jjxrxv3@marketplace.amazon.com	Janet M Hovis	+1 347-448-3190 ext. 32289	ABR0033	Arabella Farm Direct Bouquet of 12 Fresh Cut Orange Roses with a Free Glass Vase	1	0	1	SecondDay	Colleen Jakey	9545 W PARK VILLAGE DR			TAMPA	FL	33626-5154	US		Happy Birthday. Enjoy your flowers Love, Mom From Janet M Hovis	false		
114-0126620-0373814	39206344230562	2020-06-03T02:30:31+00:00	2020-06-02T19:30:31-07:00	2020-06-03T02:58:19+00:00	2020-06-04T06:59:59+00:00	-2	4nj5ns51t3s3m62@marketplace.amazon.com	Jena Kleppinger	+1 210-728-4548 ext. 46365	ABR004	Arabella Farm Direct Bouquet of 12 Fresh Cut Yellow Roses with a Free Glass Vase	1	0	1	SecondDay	Dorothy davis	7 FLAGLER LN APT 210			HOLLY HILL	FL	32117-2527	US			false		
111-3417585-4464230	42444571917210	2020-06-03T02:59:08+00:00	2020-06-02T19:59:08-07:00	2020-06-03T03:29:19+00:00	2020-06-04T06:59:59+00:00	-2	h403fksvnycnxg6@marketplace.amazon.com	Jon	+1 210-728-4548 ext. 09902	ABM010	Purchase Now for Delivery by Friday | Arabella Bouquets | Fields of The World Bouquet of Fresh Cut Flowers in a Free Designer Glass Vase	1	0	1	SecondDay	Marisa Mora	104 THOMPSON ST NW			HOPKINTON	IA	52237-9702	US			false		
111-6693578-5521864	23383217593482	2020-06-03T03:02:15+00:00	2020-06-02T20:02:15-07:00	2020-06-03T03:32:50+00:00	2020-06-04T06:59:59+00:00	-2	wqjg04nqc2xtfr8@marketplace.amazon.com	Rosemary Casey Carter	+1 210-728-4548 ext. 38437	ABR0066	Purchase Now for Delivery by Friday | Arabella Bouquets | 12 Stems of Fresh Cut White Roses in a Free Designer Glass Vase	1	0	1	SecondDay	Rosemary  C. Carter	3901 CONNECTICUT AVE NW APT 402			WASHINGTON	DC	20008-6405	US			false		
