order-id	order-item-id	purchase-date	payments-date	reporting-date	promise-date	days-past-promise	buyer-email	buyer-name	buyer-phone-number	sku	product-name	quantity-purchased	quantity-shipped	quantity-to-ship	ship-service-level	recipient-name	ship-address-1	ship-address-2	ship-address-3	ship-city	ship-state	ship-postal-code	ship-country	gift-wrap-type	gift-message-text	is-business-order	purchase-order-number	price-designation
111-4114063-4549040	26699494309810	2020-06-02T22:43:16+00:00	2020-06-02T15:43:16-07:00	2020-06-02T23:12:47+00:00	2020-06-04T06:59:59+00:00	-1	tjdny7y35d8h91s@marketplace.amazon.com	Big momma	+1 314-282-9402 ext. 43422	ABM0044	Purchase Now for Delivery by Friday | Arabella Farm Direct Bouquet of Fresh Cut Blue Hydrangea with a Free Glass Vase	1	0	1	SecondDay	Barbara and Jack Calvert	14716 IL ROUTE 173			HARVARD	IL	60033-9195	US		Happy Birthday to Beth!  We love you! From Us	false		
114-3807013-6360222	37118522479938	2020-06-03T02:15:38+00:00	2020-06-02T19:15:38-07:00	2020-06-03T02:45:55+00:00	2020-06-04T06:59:59+00:00	-1	x8wfx07w0qbdsd0@marketplace.amazon.com	Dawn C	+1 412-532-4665 ext. 42535	ABM0033	Purchase Now for Delivery by Friday | Arabella Farm Direct Bouquet of Fresh Cut White Hydrangea with a Free Glass Vase	1	0	1	SecondDay	Shannon Viswanath	14 INTREPID CIR			ROCKWALL	TX	75032-5750	US			false		
111-3578180-0432240	41639269941946	2020-06-03T15:26:04+00:00	2020-06-03T08:26:04-07:00	2020-06-03T15:55:36+00:00	2020-06-04T06:59:59+00:00	-1	0ghh49732brzv1v@marketplace.amazon.com	JAMES HUCKINS-NOSS	+1 210-728-4548 ext. 33646	ABM0044	Purchase Now for Delivery by Friday | Arabella Farm Direct Bouquet of Fresh Cut Blue Hydrangea with a Free Glass Vase	1	0	1	SecondDay	JAMES HUCKINS-NOSS	11512 N MOON RANCH PL			MARANA	AZ	85658-4537	US			false		
112-7641613-6470655	69884039735530	2020-06-03T17:39:16+00:00	2020-06-03T10:39:16-07:00	2020-06-03T18:03:56+00:00	2020-06-09T06:59:59+00:00	-6	cp9vbjmq6zjnqg0@marketplace.amazon.com	Lorilee Bultinck	+1 347-448-3190 ext. 65335	ABM010	Purchase Now for Delivery by Friday | Arabella Bouquets | Fields of The World Bouquet of Fresh Cut Flowers in a Free Designer Glass Vase	1	0	1	Expedited	Carol Morrison	2560 PORTAGE RD			NILES	MI	49120-8767	US		Dear Carol,  Happy birthday to you! With love, Lori & Paul From Lorilee Bultinck	false		
112-6280100-2354615	66337469940002	2020-06-03T17:39:21+00:00	2020-06-03T10:39:21-07:00	2020-06-03T18:06:52+00:00	2020-06-09T06:59:59+00:00	-6	b389hknm1nlj2vq@marketplace.amazon.com	Sneha Patel	+1 763-225-9463 ext. 70302	ABR0066	Purchase Now for Delivery by Saturday | Arabella Bouquets | 12 Stems of Fresh Cut White Roses in a Free Designer Glass Vase	1	0	1	Expedited	Sharonda Jones	8110 GAMBREL WAY			ROSHARON	TX	77583-0200	US		Dear Sharonda,   So sorry for your loss! Condolences to you and family during this tough time.   From: Team Howard, Sneha, Debbie From Sneha Patel	false		
112-6543800-3956208	33075827923586	2020-06-03T17:51:56+00:00	2020-06-03T10:51:56-07:00	2020-06-03T18:17:11+00:00	2020-06-09T06:59:59+00:00	-6	15jqqkyzlm4fmrb@marketplace.amazon.com	Elda Madrid	+1 210-728-4548 ext. 12664	ABR0022	Arabella Farm Direct Bouquet of 12 Fresh Cut Pink Roses with a Free Glass Vase	1	0	1	Expedited	Sandra Guernsey	4416 DENISE DR			ASHTABULA	OH	44004-4618	US		Happy Belated Birthday Mom! Love JR and Elizabeth From Elizabeth Davila	false		
114-5552763-5641049	11738335923842	2020-06-03T17:53:06+00:00	2020-06-03T10:53:06-07:00	2020-06-03T18:20:55+00:00	2020-06-09T06:59:59+00:00	-6	qf8qnzm8x8ll1bw@marketplace.amazon.com	Justus Berger	+1 314-282-9402 ext. 57620	ABR0022	Arabella Farm Direct Bouquet of 12 Fresh Cut Pink Roses with a Free Glass Vase	1	0	1	Expedited	Doris Evans	1041 TURTLE ROCK LN			WINSTON SALEM	NC	27104-3436	US			false		
111-6625363-6513007	20303169092794	2020-06-03T18:07:10+00:00	2020-06-03T11:07:10-07:00	2020-06-03T18:23:50+00:00	2020-06-09T06:59:59+00:00	-6	xcx1xqfgvv59g6d@marketplace.amazon.com	Barbara Mitchell	+1 347-448-3190 ext. 84431	ABR0055	Purchase Now for Delivery by Saturday | Arabella Farm Direct Bouquet of 12 Stems of Fresh Cut Hot Pink Roses in a Free Designer Glass Vase	1	0	1	Expedited	Rosa Turner	Woodlawn Nursing Home	Room 2036		Batesville	Arkansas	72501	US		Hi, Aunt Rosie, Happy Birthday and many more! From Barbara and family	false		
111-0784515-7925801	21188459383946	2020-06-03T18:02:15+00:00	2020-06-03T11:02:15-07:00	2020-06-03T18:30:48+00:00	2020-06-09T06:59:59+00:00	-6	8spkxb3symm9r4j@marketplace.amazon.com	Kellie Yohanan	+1 347-448-3190 ext. 39141	ABR0022	Arabella Farm Direct Bouquet of 12 Fresh Cut Pink Roses with a Free Glass Vase	1	0	1	Expedited	Renee Costanza	1004 S PHILWOOD CT			FUQUAY VARINA	NC	27526-5686	US		The big 3-0! Yay! To a beautiful, smart, funny, loving individual! Happiest of birthday’s to you! Love, Mom, Michael, Josh, and Curtis. Xoxo From Kellie Yohanan	false		
113-0568724-3043444	42218329449138	2020-06-03T18:10:33+00:00	2020-06-03T11:10:33-07:00	2020-06-03T18:43:21+00:00	2020-06-09T06:59:59+00:00	-6	l2rmfyklhxj2hfb@marketplace.amazon.com	christina coyne	+1 314-282-9402 ext. 77714	ABR0022	Arabella Farm Direct Bouquet of 12 Fresh Cut Pink Roses with a Free Glass Vase	1	0	1	Expedited	Christina  Coyne	3821 Teakwood			Santa Ana	CA	92707	US			false		
111-1203551-4075443	69619751608314	2020-06-03T18:39:55+00:00	2020-06-03T11:39:55-07:00	2020-06-03T19:02:56+00:00	2020-06-09T06:59:59+00:00	-6	lk60hpy5rjmw9bl@marketplace.amazon.com	Lynne Hsu	+1 347-448-3190 ext. 02293	ABM010	Purchase Now for Delivery by Saturday | Arabella Bouquets | Fields of The World Bouquet of Fresh Cut Flowers in a Free Designer Glass Vase	1	0	1	Expedited	Nancy Cosban	20503 34TH AVE			BAYSIDE	NY	11361-1241	US		Dear Nancy, So sorry for your loss.  I’m sure you shared many happy times together. From Lynne Hsu	false		
114-9281965-1689065	53001422706866	2020-06-03T18:51:11+00:00	2020-06-03T11:51:11-07:00	2020-06-03T19:21:51+00:00	2020-06-09T06:59:59+00:00	-6	fy5fcbt87t7ss4g@marketplace.amazon.com	Milton Muñoz	+1 210-728-4548 ext. 23700	ABM010	Purchase Now for Delivery by Saturday | Arabella Bouquets | Fields of The World Bouquet of Fresh Cut Flowers in a Free Designer Glass Vase	1	0	1	Expedited	Milton Alfredo Muñoz Santos	811 WILLIAMS ST			BOAZ	AL	35957-1533	US			false		
111-4970156-5222643	65784285785930	2020-06-03T19:06:43+00:00	2020-06-03T12:06:43-07:00	2020-06-03T19:26:56+00:00	2020-06-09T06:59:59+00:00	-6	4b0whywl87z5jgm@marketplace.amazon.com	Laurie A Cenna	+1 210-728-4548 ext. 74006	ABR0066	Purchase Now for Delivery by Saturday | Arabella Bouquets | 12 Stems of Fresh Cut White Roses in a Free Designer Glass Vase	1	0	1	Expedited	Sharon Cenna	5250 COLUMBIA RD APT 303			NORTH OLMSTED	OH	44070-3562	US		Dear mom, Just so you know you are loved! Wanted you to have something pretty to look at. Keep positive and chin up! Happy summer :) From Laurie A Cenna	false		
112-1441388-2500269	00154018686994	2020-06-03T19:10:31+00:00	2020-06-03T12:10:31-07:00	2020-06-03T19:39:25+00:00	2020-06-09T06:59:59+00:00	-6	0yvcgbyztryk2dk@marketplace.amazon.com	Louise Henry	+1 347-448-3190 ext. 61224	ABM010	Purchase Now for Delivery by Saturday | Arabella Bouquets | Fields of The World Bouquet of Fresh Cut Flowers in a Free Designer Glass Vase	1	0	1	Expedited	Louise Henry	11880 SW Lynnridge Ave.			Portland	OR	97225	US		Tricia, We appreciate all the work you do in your community. The guidance, counseling and comfort you offer to your clients will have an immediate and long-lasting effect on their lives. We salute you! From Dad & Louise Henry	false		
112-8343426-1453032	32972012570634	2020-06-03T19:10:58+00:00	2020-06-03T12:10:58-07:00	2020-06-03T19:41:17+00:00	2020-06-09T06:59:59+00:00	-6	n6pthqzpdwc7ng3@marketplace.amazon.com	Alba	+1 314-282-9402 ext. 85641	ABR0055	Purchase Now for Delivery by Saturday | Arabella Farm Direct Bouquet of 12 Stems of Fresh Cut Hot Pink Roses in a Free Designer Glass Vase	1	0	1	Expedited	Gloria	DALE 2532 DALE AVE			SACRAMENTO	CA	95815-2023	US			false		
112-5117097-3952244	59142545512090	2020-06-03T19:53:16+00:00	2020-06-03T12:53:16-07:00	2020-06-03T20:23:34+00:00	2020-06-09T06:59:59+00:00	-6	nz33lxyngypyp9t@marketplace.amazon.com	MATTHEW FELLER	+1 314-282-9402 ext. 50106	ABR0022	Arabella Farm Direct Bouquet of 12 Fresh Cut Pink Roses with a Free Glass Vase	1	0	1	Expedited	MATTHEW FELLER	178 engle st.			tenafly	NJ	07670	US			false		
113-5303656-7945860	39109941932418	2020-06-03T20:32:41+00:00	2020-06-03T13:32:41-07:00	2020-06-03T20:38:45+00:00	2020-06-09T06:59:59+00:00	-6	wwk0qph1n7dtfyg@marketplace.amazon.com	richard hynds	+1 347-448-3190 ext. 39979	ABR0033	Arabella Farm Direct Bouquet of 12 Fresh Cut Orange Roses with a Free Glass Vase	1	0	1	Expedited	Richard J.Hynds	12387 nichols rd			Montrose	MI	48457	US		Congratulation Andrea, "To the Both of You" . From Eugene Payne Jr	false		
