order-id	order-item-id	purchase-date	payments-date	reporting-date	promise-date	days-past-promise	buyer-email	buyer-name	buyer-phone-number	sku	product-name	quantity-purchased	quantity-shipped	quantity-to-ship	ship-service-level	recipient-name	ship-address-1	ship-address-2	ship-address-3	ship-city	ship-state	ship-postal-code	ship-country	gift-wrap-type	gift-message-text	is-business-order	purchase-order-number	price-designation
112-7641613-6470655	69884039735530	2020-06-03T17:39:16+00:00	2020-06-03T10:39:16-07:00	2020-06-03T18:03:56+00:00	2020-06-09T06:59:59+00:00	-6	cp9vbjmq6zjnqg0@marketplace.amazon.com	Lorilee Bultinck	+1 347-448-3190 ext. 65335	ABM010	Purchase Now for Delivery by Friday | Arabella Bouquets | Fields of The World Bouquet of Fresh Cut Flowers in a Free Designer Glass Vase	1	0	1	Expedited	Carol Morrison	2560 PORTAGE RD			NILES	MI	49120-8767	US		Dear Carol,  Happy birthday to you! With love, Lori & Paul From Lorilee Bultinck	false		
112-6280100-2354615	66337469940002	2020-06-03T17:39:21+00:00	2020-06-03T10:39:21-07:00	2020-06-03T18:06:52+00:00	2020-06-09T06:59:59+00:00	-6	b389hknm1nlj2vq@marketplace.amazon.com	Sneha Patel	+1 763-225-9463 ext. 70302	ABR0066	Purchase Now for Delivery by Saturday | Arabella Bouquets | 12 Stems of Fresh Cut White Roses in a Free Designer Glass Vase	1	0	1	Expedited	Sharonda Jones	8110 GAMBREL WAY			ROSHARON	TX	77583-0200	US		Dear Sharonda,   So sorry for your loss! Condolences to you and family during this tough time.   From: Team Howard, Sneha, Debbie From Sneha Patel	false		
112-6543800-3956208	33075827923586	2020-06-03T17:51:56+00:00	2020-06-03T10:51:56-07:00	2020-06-03T18:17:11+00:00	2020-06-09T06:59:59+00:00	-6	15jqqkyzlm4fmrb@marketplace.amazon.com	Elda Madrid	+1 210-728-4548 ext. 12664	ABR0022	Arabella Farm Direct Bouquet of 12 Fresh Cut Pink Roses with a Free Glass Vase	1	0	1	Expedited	Sandra Guernsey	4416 DENISE DR			ASHTABULA	OH	44004-4618	US		Happy Belated Birthday Mom! Love JR and Elizabeth From Elizabeth Davila	false		
114-5552763-5641049	11738335923842	2020-06-03T17:53:06+00:00	2020-06-03T10:53:06-07:00	2020-06-03T18:20:55+00:00	2020-06-09T06:59:59+00:00	-6	qf8qnzm8x8ll1bw@marketplace.amazon.com	Justus Berger	+1 314-282-9402 ext. 57620	ABR0022	Arabella Farm Direct Bouquet of 12 Fresh Cut Pink Roses with a Free Glass Vase	1	0	1	Expedited	Doris Evans	1041 TURTLE ROCK LN			WINSTON SALEM	NC	27104-3436	US			false		
111-6625363-6513007	20303169092794	2020-06-03T18:07:10+00:00	2020-06-03T11:07:10-07:00	2020-06-03T18:23:50+00:00	2020-06-09T06:59:59+00:00	-6	xcx1xqfgvv59g6d@marketplace.amazon.com	Barbara Mitchell	+1 347-448-3190 ext. 84431	ABR0055	Purchase Now for Delivery by Saturday | Arabella Farm Direct Bouquet of 12 Stems of Fresh Cut Hot Pink Roses in a Free Designer Glass Vase	1	0	1	Expedited	Rosa Turner	Woodlawn Nursing Home	Room 2036		Batesville	Arkansas	72501	US		Hi, Aunt Rosie, Happy Birthday and many more! From Barbara and family	false		
111-0784515-7925801	21188459383946	2020-06-03T18:02:15+00:00	2020-06-03T11:02:15-07:00	2020-06-03T18:30:48+00:00	2020-06-09T06:59:59+00:00	-6	8spkxb3symm9r4j@marketplace.amazon.com	Kellie Yohanan	+1 347-448-3190 ext. 39141	ABR0022	Arabella Farm Direct Bouquet of 12 Fresh Cut Pink Roses with a Free Glass Vase	1	0	1	Expedited	Renee Costanza	1004 S PHILWOOD CT			FUQUAY VARINA	NC	27526-5686	US		The big 3-0! Yay! To a beautiful, smart, funny, loving individual! Happiest of birthday’s to you! Love, Mom, Michael, Josh, and Curtis. Xoxo From Kellie Yohanan	false		
113-0568724-3043444	42218329449138	2020-06-03T18:10:33+00:00	2020-06-03T11:10:33-07:00	2020-06-03T18:43:21+00:00	2020-06-09T06:59:59+00:00	-6	l2rmfyklhxj2hfb@marketplace.amazon.com	christina coyne	+1 314-282-9402 ext. 77714	ABR0022	Arabella Farm Direct Bouquet of 12 Fresh Cut Pink Roses with a Free Glass Vase	1	0	1	Expedited	Christina  Coyne	3821 Teakwood			Santa Ana	CA	92707	US			false		
111-1203551-4075443	69619751608314	2020-06-03T18:39:55+00:00	2020-06-03T11:39:55-07:00	2020-06-03T19:02:56+00:00	2020-06-09T06:59:59+00:00	-6	lk60hpy5rjmw9bl@marketplace.amazon.com	Lynne Hsu	+1 347-448-3190 ext. 02293	ABM010	Purchase Now for Delivery by Saturday | Arabella Bouquets | Fields of The World Bouquet of Fresh Cut Flowers in a Free Designer Glass Vase	1	0	1	Expedited	Nancy Cosban	20503 34TH AVE			BAYSIDE	NY	11361-1241	US		Dear Nancy, So sorry for your loss.  I’m sure you shared many happy times together. From Lynne Hsu	false		
114-9281965-1689065	53001422706866	2020-06-03T18:51:11+00:00	2020-06-03T11:51:11-07:00	2020-06-03T19:21:51+00:00	2020-06-09T06:59:59+00:00	-6	fy5fcbt87t7ss4g@marketplace.amazon.com	Milton Muñoz	+1 210-728-4548 ext. 23700	ABM010	Purchase Now for Delivery by Saturday | Arabella Bouquets | Fields of The World Bouquet of Fresh Cut Flowers in a Free Designer Glass Vase	1	0	1	Expedited	Milton Alfredo Muñoz Santos	811 WILLIAMS ST			BOAZ	AL	35957-1533	US			false		
111-4970156-5222643	65784285785930	2020-06-03T19:06:43+00:00	2020-06-03T12:06:43-07:00	2020-06-03T19:26:56+00:00	2020-06-09T06:59:59+00:00	-6	4b0whywl87z5jgm@marketplace.amazon.com	Laurie A Cenna	+1 210-728-4548 ext. 74006	ABR0066	Purchase Now for Delivery by Saturday | Arabella Bouquets | 12 Stems of Fresh Cut White Roses in a Free Designer Glass Vase	1	0	1	Expedited	Sharon Cenna	5250 COLUMBIA RD APT 303			NORTH OLMSTED	OH	44070-3562	US		Dear mom, Just so you know you are loved! Wanted you to have something pretty to look at. Keep positive and chin up! Happy summer :) From Laurie A Cenna	false		
112-1441388-2500269	00154018686994	2020-06-03T19:10:31+00:00	2020-06-03T12:10:31-07:00	2020-06-03T19:39:25+00:00	2020-06-09T06:59:59+00:00	-6	0yvcgbyztryk2dk@marketplace.amazon.com	Louise Henry	+1 347-448-3190 ext. 61224	ABM010	Purchase Now for Delivery by Saturday | Arabella Bouquets | Fields of The World Bouquet of Fresh Cut Flowers in a Free Designer Glass Vase	1	0	1	Expedited	Louise Henry	11880 SW Lynnridge Ave.			Portland	OR	97225	US		Tricia, We appreciate all the work you do in your community. The guidance, counseling and comfort you offer to your clients will have an immediate and long-lasting effect on their lives. We salute you! From Dad & Louise Henry	false		
112-8343426-1453032	32972012570634	2020-06-03T19:10:58+00:00	2020-06-03T12:10:58-07:00	2020-06-03T19:41:17+00:00	2020-06-09T06:59:59+00:00	-6	n6pthqzpdwc7ng3@marketplace.amazon.com	Alba	+1 314-282-9402 ext. 85641	ABR0055	Purchase Now for Delivery by Saturday | Arabella Farm Direct Bouquet of 12 Stems of Fresh Cut Hot Pink Roses in a Free Designer Glass Vase	1	0	1	Expedited	Gloria	DALE 2532 DALE AVE			SACRAMENTO	CA	95815-2023	US			false		
112-5117097-3952244	59142545512090	2020-06-03T19:53:16+00:00	2020-06-03T12:53:16-07:00	2020-06-03T20:23:34+00:00	2020-06-09T06:59:59+00:00	-6	nz33lxyngypyp9t@marketplace.amazon.com	MATTHEW FELLER	+1 314-282-9402 ext. 50106	ABR0022	Arabella Farm Direct Bouquet of 12 Fresh Cut Pink Roses with a Free Glass Vase	1	0	1	Expedited	MATTHEW FELLER	178 engle st.			tenafly	NJ	07670	US			false		
113-5303656-7945860	39109941932418	2020-06-03T20:32:41+00:00	2020-06-03T13:32:41-07:00	2020-06-03T20:38:45+00:00	2020-06-09T06:59:59+00:00	-6	wwk0qph1n7dtfyg@marketplace.amazon.com	richard hynds	+1 347-448-3190 ext. 39979	ABR0033	Arabella Farm Direct Bouquet of 12 Fresh Cut Orange Roses with a Free Glass Vase	1	0	1	Expedited	Richard J.Hynds	12387 nichols rd			Montrose	MI	48457	US		Congratulation Andrea, "To the Both of You" . From Eugene Payne Jr	false		
113-2044337-0909048	21340767454586	2020-06-03T21:25:08+00:00	2020-06-03T14:25:08-07:00	2020-06-03T21:40:35+00:00	2020-06-09T06:59:59+00:00	-6	0dvr4302wc294rp@marketplace.amazon.com	Lurella D. Friis	+1 314-282-9402 ext. 77924	ABR0033	Purchase Now for Delivery by Monday | Arabella Farm Direct Bouquet of 12 Fresh Cut Orange Roses with a Free Glass Vase	1	0	1	Expedited	Cora Lonning	2726 WOODLEY ST			SAN ANTONIO	TX	78232-4220	US			false		
111-6912983-4231467	40101731601282	2020-06-03T21:16:20+00:00	2020-06-03T14:16:20-07:00	2020-06-03T21:45:43+00:00	2020-06-09T06:59:59+00:00	-6	34b1t7zq82cbvc4@marketplace.amazon.com	jason eskew	+1 314-282-9402 ext. 01127	ABM010	Purchase Now for Delivery by Monday | Arabella Bouquets | Fields of The World Bouquet of Fresh Cut Flowers in a Free Designer Glass Vase	1	0	1	Expedited	Jason eskew	121 MELVA CT			WINDSOR	CA	95492-8869	US		Happy birthday Tiffany!   We love you! From jason eskew and Elise	false		
114-8669567-3285018	65953597789474	2020-06-03T21:22:15+00:00	2020-06-03T14:22:15-07:00	2020-06-03T21:49:50+00:00	2020-06-09T06:59:59+00:00	-6	5gqnzch61bdj76j@marketplace.amazon.com	Agustín Morales Rosas	+1 210-728-4548 ext. 54114	ABR0022	Purchase Now for Delivery by Monday | Arabella Farm Direct Bouquet of 12 Fresh Cut Pink Roses with a Free Glass Vase	1	0	1	Expedited	Monserrat Matus	9225 HAWKINS RD APT 1B			INDIANAPOLIS	IN	46216-2284	US		Feliz Cumpleaños, te quiero!! De Agustin Morales	false		
114-6773869-2765065	44020096101402	2020-06-03T21:23:26+00:00	2020-06-03T14:23:26-07:00	2020-06-03T21:52:45+00:00	2020-06-09T06:59:59+00:00	-6	7sbclt4k99swl9r@marketplace.amazon.com	Ann Marie Suhocki	+1 347-448-3190 ext. 10779	ABR0022	Purchase Now for Delivery by Monday | Arabella Farm Direct Bouquet of 12 Fresh Cut Pink Roses with a Free Glass Vase	1	0	1	Expedited	Eileen Brown	317 Lucille Lane			Schenectady	NY	12306	US		Aunt Eileen, Happy Birthday!! We miss you and love you. Love, Ann Marie & Don From Ann Marie Suhocki	false		
113-3133940-4860214	21634180399946	2020-06-03T21:31:10+00:00	2020-06-03T14:31:10-07:00	2020-06-03T21:55:44+00:00	2020-06-09T06:59:59+00:00	-6	g08g12vbj84fwpz@marketplace.amazon.com	Brian Buchanan	+1 314-282-9402 ext. 69713	ABR0055	Purchase Now for Delivery by Monday | Arabella Farm Direct Bouquet of 12 Stems of Fresh Cut Hot Pink Roses in a Free Designer Glass Vase	1	0	1	Expedited	Beth Buchanan	818 GROMO CT			HEALDSBURG	CA	95448-3723	US		Dear Beth, Wishing you a happy birthday.  We hope you have a beautiful day. Love, Mikhail and Yelena L.	false		
113-8964620-8013046	35132823646858	2020-06-03T21:47:32+00:00	2020-06-03T14:47:32-07:00	2020-06-03T22:02:09+00:00	2020-06-09T06:59:59+00:00	-6	wwk0qph1n7dtfyg@marketplace.amazon.com	richard hynds	+1 210-728-4548 ext. 35363	ABR0055	Purchase Now for Delivery by Monday | Arabella Farm Direct Bouquet of 12 Stems of Fresh Cut Hot Pink Roses in a Free Designer Glass Vase	1	0	1	Expedited	Richard J.Hynds	12387 nichols rd			Montrose	MI	48457	US		Great job Darla,  Errick's new adoptive parent,   Eugene Payne Jr. From Eugene Payne Jr	false		
114-3269401-8705053	06717216404610	2020-06-03T21:50:14+00:00	2020-06-03T14:50:14-07:00	2020-06-03T22:20:24+00:00	2020-06-09T06:59:59+00:00	-6	1kqs4xq0xzr8ky6@marketplace.amazon.com	Jeffrey w. Paysse	+1 210-728-4548 ext. 14853	ABR001	Purchase Now for Delivery by Monday | Arabella Bouquets 12 Stems of Fresh Cut Red Roses in a Free Designer Glass Vase	1	0	1	Expedited	Jeffrey w. Paysse	7312 SEAWALL BLVD APT 222			GALVESTON	TX	77551-1995	US			false		
114-0719120-3273828	68288999427962	2020-06-02T17:22:58+00:00	2020-06-02T10:22:58-07:00	2020-06-03T22:20:52+00:00	2020-06-10T06:59:59+00:00	-7	hdh8944h1qh2r8c@marketplace.amazon.com	Timothy white	+1 412-532-4665 ext. 88882	ABR0022	Delivery by Friday | Arabella Farm Direct Bouquet of 12 Fresh Cut Pink Roses with a Free Glass Vase	1	0	1	Expedited	Timothy white	2023 AGUA FINA APT 3			EDINBURG	TX	78541-3312	US			false		
113-4550802-7330624	26349704117970	2020-06-03T22:33:33+00:00	2020-06-03T15:33:33-07:00	2020-06-03T22:34:25+00:00	2020-06-09T06:59:59+00:00	-6	3thdp0lfn2g8zxy@marketplace.amazon.com	John	+1 347-448-3190 ext. 28012	ABR0033	Purchase Now for Delivery by Monday | Arabella Farm Direct Bouquet of 12 Fresh Cut Orange Roses with a Free Glass Vase	1	0	1	Expedited	Carl Fenter	7668 DIANJOU DR			EL PASO	TX	79912-7160	US			false		
111-6807093-3993028	10670326648082	2020-06-03T22:36:50+00:00	2020-06-03T15:36:50-07:00	2020-06-03T23:04:38+00:00	2020-06-09T06:59:59+00:00	-6	klx9ysbrtfscgny@marketplace.amazon.com	Colleen McWilliams	+1 347-448-3190 ext. 81644	ABM010	Purchase Now for Delivery by Monday | Arabella Bouquets | Fields of The World Bouquet of Fresh Cut Flowers in a Free Designer Glass Vase	1	0	1	Expedited	Tracy Velasco	101 W CAMINO DEL EMPERADOR			VAIL	AZ	85641-2032	US		Happy Birthday Mom We love you ! Love Colleen, Stephanie & Caitlyn From Colleen McWilliams	false		
113-5303884-1682605	57878453103954	2020-06-03T22:38:24+00:00	2020-06-03T15:38:24-07:00	2020-06-03T23:07:16+00:00	2020-06-09T06:59:59+00:00	-6	h2pzcx132syxn2k@marketplace.amazon.com	Jath DiCecco	+1 347-448-3190 ext. 70289	ABR004	Arabella Farm Direct Bouquet of 12 Fresh Cut Yellow Roses with a Free Glass Vase	1	0	1	Expedited	Fongettia McDuffy	406 GRAND AVE			INDIANOLA	MS	38751-2119	US		Date night? - Jath	false		
111-4582747-5823424	25046702937834	2020-06-03T22:40:34+00:00	2020-06-03T15:40:34-07:00	2020-06-03T23:09:06+00:00	2020-06-09T06:59:59+00:00	-6	dlkzzxfdqwr37sv@marketplace.amazon.com	Bill	+1 347-448-3190 ext. 98057	ABR0022	Purchase Now for Delivery by Monday | Arabella Farm Direct Bouquet of 12 Fresh Cut Pink Roses with a Free Glass Vase	1	0	1	Expedited	Dolores Hufnagel	85 FARADAY ST			HYDE PARK	MA	02136-3307	US			false		
111-5540793-2168228	63473352419002	2020-06-03T22:48:49+00:00	2020-06-03T15:48:49-07:00	2020-06-03T23:09:11+00:00	2020-06-09T06:59:59+00:00	-6	1yvyyv6y1t37x8j@marketplace.amazon.com	Brian LaRose	+1 210-728-4548 ext. 22490	ABM010	Purchase Now for Delivery by Monday | Arabella Bouquets | Fields of The World Bouquet of Fresh Cut Flowers in a Free Designer Glass Vase	1	0	1	Expedited	Jessica Charles-LaRose	40 MANSION BLVD APT J			DELMAR	NY	12054-2465	US		Hi, Congratulations Jessica, Love , Sharry & Brian	false		
113-5594947-6642615	64849192773882	2020-06-03T22:43:46+00:00	2020-06-03T15:43:46-07:00	2020-06-03T23:11:38+00:00	2020-06-09T06:59:59+00:00	-6	gn7c05806svv014@marketplace.amazon.com	Ana F Ratcliffe	+1 314-282-9402 ext. 74421	ABM010	Purchase Now for Delivery by Monday | Arabella Bouquets | Fields of The World Bouquet of Fresh Cut Flowers in a Free Designer Glass Vase	1	0	1	Expedited	Margaret LeMaster	15 HIGHLANDER LN			HENDERSONVILLE	NC	28792-9511	US		Thinking of you and Praying for you every day. Love you. Alicia Foliaco	false		
114-4409732-4328217	50049100365754	2020-06-03T23:28:15+00:00	2020-06-03T16:28:15-07:00	2020-06-03T23:58:21+00:00	2020-06-09T06:59:59+00:00	-6	d7s6rr2wystrx4q@marketplace.amazon.com	debra reed	+1 314-282-9402 ext. 13827	ABM010	Purchase Now for Delivery by Monday | Arabella Bouquets | Fields of The World Bouquet of Fresh Cut Flowers in a Free Designer Glass Vase	1	0	1	Expedited	Irene Dushane	1045 S 99TH PL			MESA	AZ	85208-3171	US			false		
113-2842761-3183429	60354719123642	2020-06-03T23:52:44+00:00	2020-06-03T16:52:44-07:00	2020-06-04T00:18:53+00:00	2020-06-09T06:59:59+00:00	-6	8xs7yh2src4d4zb@marketplace.amazon.com	clarence wessman	+1 347-448-3190 ext. 24462	ABM010	Purchase Now for Delivery by Monday | Arabella Bouquets | Fields of The World Bouquet of Fresh Cut Flowers in a Free Designer Glass Vase	1	0	1	Expedited	Josie Pavlik	2190 ZION RDG			GARRISON	KY	41141-8695	US		Hi Josie, Enjoy your gift! We are thinking about you. From Donna and Wes	false		
112-6269876-4614660	40864639321314	2020-06-04T00:23:43+00:00	2020-06-03T17:23:43-07:00	2020-06-04T00:54:23+00:00	2020-06-09T06:59:59+00:00	-6	27bw9dqbxhf6vh7@marketplace.amazon.com	Antonino Oneto	+1 314-282-9402 ext. 73198	ABR0055	Purchase Now for Delivery by Monday | Arabella Farm Direct Bouquet of 12 Stems of Fresh Cut Hot Pink Roses in a Free Designer Glass Vase	1	0	1	Expedited	Michele Lennan	46 QUAID AVE			SAYREVILLE	NJ	08872-1259	US			false		
113-2840328-5032203	39880096718074	2020-06-04T00:35:08+00:00	2020-06-03T17:35:08-07:00	2020-06-04T01:04:01+00:00	2020-06-09T06:59:59+00:00	-6	11x6ns72kw9ymrp@marketplace.amazon.com	Nell	+1 412-532-4665 ext. 09510	ABR0055	Purchase Now for Delivery by Monday | Arabella Farm Direct Bouquet of 12 Stems of Fresh Cut Hot Pink Roses in a Free Designer Glass Vase	1	0	1	Expedited	Chika Anywanu	2442 S TURNSTONE AVE			ONTARIO	CA	91761-6535	US		We are so grateful for the gift of your time to help the ministry reach and speak to women during these challenging times. Love, Jenna, Nell, Beth + all of BiS!	false		
112-2426459-3512202	24306487714626	2020-06-04T00:51:59+00:00	2020-06-03T17:51:59-07:00	2020-06-04T01:20:38+00:00	2020-06-09T06:59:59+00:00	-6	tfrdm1t87pwnksx@marketplace.amazon.com	Melissa Rivera	+1 347-448-3190 ext. 44365	ABM010	Purchase Now for Delivery by Monday | Arabella Bouquets | Fields of The World Bouquet of Fresh Cut Flowers in a Free Designer Glass Vase	1	0	1	Expedited	Eligio Rivera	2015 GILLINGHAM CIR			FAYETTEVILLE	NC	28304-5659	US		Love you Julia!!!! Glad to see you’re feeling better. From Melissa Rivera	false		
111-0774988-6135426	02992813834258	2020-06-04T00:53:21+00:00	2020-06-03T17:53:21-07:00	2020-06-04T01:23:47+00:00	2020-06-09T06:59:59+00:00	-6	kjxbyrk1wzggnvs@marketplace.amazon.com	Anthony Jones	+1 210-728-4548 ext. 27184	ABR012	Arabella Farm Direct Bouquet of 18 Fresh Cut Pink Roses with a Free Glass Vase	1	0	1	Expedited	Anthony Jones	18191 VONTAY RD			ROCKVILLE	VA	23146-1533	US			false		
113-5872199-1250610	47969306492754	2020-06-04T00:57:59+00:00	2020-06-03T17:57:59-07:00	2020-06-04T01:28:37+00:00	2020-06-09T06:59:59+00:00	-6	xkslj6wz8n5r4h4@marketplace.amazon.com	NANCY KISKA	+1 210-728-4548 ext. 30809	ABM0044	Purchase Now for Delivery by Monday | Arabella Farm Direct Bouquet of Fresh Cut Blue Hydrangea with a Free Glass Vase	1	0	1	Expedited	Nancy Kiska	102 E LIBERTY ST APT 509			SAVANNAH	GA	31401-4408	US			false		
113-4472683-7967457	47295800557666	2020-06-04T01:51:34+00:00	2020-06-03T18:51:34-07:00	2020-06-04T02:18:07+00:00	2020-06-09T06:59:59+00:00	-6	9vy4014c1nbp9yg@marketplace.amazon.com	Angela Padilla	+1 347-448-3190 ext. 11782	ABM010	Purchase Now for Delivery by Monday | Arabella Bouquets | Fields of The World Bouquet of Fresh Cut Flowers in a Free Designer Glass Vase	1	0	1	Expedited	Grace P. Gatmaitan	4229 OAKLAND DR			KALAMAZOO	MI	49008-2820	US		Happy Birthday, Auntie Grace!!! ❤️ From Angela Padilla	false		
114-1825341-3183413	12486063502042	2020-06-04T02:02:02+00:00	2020-06-03T19:02:02-07:00	2020-06-04T02:30:54+00:00	2020-06-09T06:59:59+00:00	-6	fgv4bslt7lync10@marketplace.amazon.com	Calvin Russell	+1 314-282-9402 ext. 13283	ABR0022	Purchase Now for Delivery by Monday | Arabella Farm Direct Bouquet of 12 Fresh Cut Pink Roses with a Free Glass Vase	1	0	1	Expedited	Debbie Harris Park	8236 LAUREL HEIGHTS LOOP			LORTON	VA	22079-5650	US		I am so sorry for what happened.  Please feel better From Calvin Russell	false		
113-9198784-2696240	29894221062762	2020-06-04T03:18:29+00:00	2020-06-03T20:18:29-07:00	2020-06-04T03:46:47+00:00	2020-06-09T06:59:59+00:00	-6	hx2nf85y2p3fs8m@marketplace.amazon.com	Paul Maguire	+1 412-532-4665 ext. 36207	ABR0055	Purchase Now for Delivery by Monday | Arabella Farm Direct Bouquet of 12 Stems of Fresh Cut Hot Pink Roses in a Free Designer Glass Vase	1	0	1	Expedited	The Amazing Ms. Catherine Belgiorno	9 LEDGEWOOD WAY APT 25			PEABODY	MA	01960-1386	US		HAPPY BIRTHDAY ! From Love Paul	false		
114-7950192-7609843	17661101854010	2020-06-04T03:50:31+00:00	2020-06-03T20:50:31-07:00	2020-06-04T04:20:56+00:00	2020-06-09T06:59:59+00:00	-6	y67ddp1xw8m3qj3@marketplace.amazon.com	Joel Williams	+1 314-282-9402 ext. 75012	ABR0033	Purchase Now for Delivery by Monday | Arabella Farm Direct Bouquet of 12 Fresh Cut Orange Roses with a Free Glass Vase	1	0	1	Expedited	Joel Williams	5108 W AVENUE L8			LANCASTER	CA	93536-3612	US			false		
111-7605250-5924237	66709077472674	2020-06-04T05:09:27+00:00	2020-06-03T22:09:27-07:00	2020-06-04T05:21:51+00:00	2020-06-09T06:59:59+00:00	-6	2z0bj534p5z47bb@marketplace.amazon.com	Veronica Fansler	+1 347-448-3190 ext. 57256	ABM010	Purchase Now for Delivery by Monday | Arabella Bouquets | Fields of The World Bouquet of Fresh Cut Flowers in a Free Designer Glass Vase	1	0	1	Expedited	Chloe Fansler	1925 CHESHAM DR			CARROLLTON	TX	75007-2403	US		Enjoy your gift!  Remember to cut stems (3 or 4 days) so they can slurp up the water.  We all last longer when we stay hydrated.  Keep us going sweet cheeks! From Lovingly from GrandPa n MaV	false		
114-6197807-5097028	58152584122394	2020-06-04T04:55:46+00:00	2020-06-03T21:55:46-07:00	2020-06-04T05:25:23+00:00	2020-06-09T06:59:59+00:00	-6	4m7zpndfmwj94cq@marketplace.amazon.com	Courtney Sanders	+1 347-448-3190 ext. 73918	ABM010	Purchase Now for Delivery by Monday | Arabella Bouquets | Fields of The World Bouquet of Fresh Cut Flowers in a Free Designer Glass Vase	1	0	1	Expedited	Holly Rainer	1021 TIMBERCREST DR			PLEASANTON	TX	78064-1540	US		Happy birthday and thanks for your recent cooperation. Please tell the girls I love them. From Dallas	false		
