order-id	order-item-id	purchase-date	payments-date	reporting-date	promise-date	days-past-promise	buyer-email	buyer-name	buyer-phone-number	sku	product-name	quantity-purchased	quantity-shipped	quantity-to-ship	ship-service-level	recipient-name	ship-address-1	ship-address-2	ship-address-3	ship-city	ship-state	ship-postal-code	ship-country	gift-wrap-type	gift-message-text	is-business-order	purchase-order-number	price-designation
112-7641613-6470655	69884039735530	2020-06-03T17:39:16+00:00	2020-06-03T10:39:16-07:00	2020-06-03T18:03:56+00:00	2020-06-09T06:59:59+00:00	-5	cp9vbjmq6zjnqg0@marketplace.amazon.com	Lorilee Bultinck	+1 347-448-3190 ext. 65335	ABM010	Purchase Now for Delivery by Friday | Arabella Bouquets | Fields of The World Bouquet of Fresh Cut Flowers in a Free Designer Glass Vase	1	0	1	Expedited	Carol Morrison	2560 PORTAGE RD			NILES	MI	49120-8767	US		Dear Carol,  Happy birthday to you! With love, Lori & Paul From Lorilee Bultinck	false		
112-6280100-2354615	66337469940002	2020-06-03T17:39:21+00:00	2020-06-03T10:39:21-07:00	2020-06-03T18:06:52+00:00	2020-06-09T06:59:59+00:00	-5	b389hknm1nlj2vq@marketplace.amazon.com	Sneha Patel	+1 763-225-9463 ext. 70302	ABR0066	Purchase Now for Delivery by Saturday | Arabella Bouquets | 12 Stems of Fresh Cut White Roses in a Free Designer Glass Vase	1	0	1	Expedited	Sharonda Jones	8110 GAMBREL WAY			ROSHARON	TX	77583-0200	US		Dear Sharonda,   So sorry for your loss! Condolences to you and family during this tough time.   From: Team Howard, Sneha, Debbie From Sneha Patel	false		
112-6543800-3956208	33075827923586	2020-06-03T17:51:56+00:00	2020-06-03T10:51:56-07:00	2020-06-03T18:17:11+00:00	2020-06-09T06:59:59+00:00	-5	15jqqkyzlm4fmrb@marketplace.amazon.com	Elda Madrid	+1 210-728-4548 ext. 12664	ABR0022	Arabella Farm Direct Bouquet of 12 Fresh Cut Pink Roses with a Free Glass Vase	1	0	1	Expedited	Sandra Guernsey	4416 DENISE DR			ASHTABULA	OH	44004-4618	US		Happy Belated Birthday Mom! Love JR and Elizabeth From Elizabeth Davila	false		
114-5552763-5641049	11738335923842	2020-06-03T17:53:06+00:00	2020-06-03T10:53:06-07:00	2020-06-03T18:20:55+00:00	2020-06-09T06:59:59+00:00	-5	qf8qnzm8x8ll1bw@marketplace.amazon.com	Justus Berger	+1 314-282-9402 ext. 57620	ABR0022	Arabella Farm Direct Bouquet of 12 Fresh Cut Pink Roses with a Free Glass Vase	1	0	1	Expedited	Doris Evans	1041 TURTLE ROCK LN			WINSTON SALEM	NC	27104-3436	US			false		
111-6625363-6513007	20303169092794	2020-06-03T18:07:10+00:00	2020-06-03T11:07:10-07:00	2020-06-03T18:23:50+00:00	2020-06-09T06:59:59+00:00	-5	xcx1xqfgvv59g6d@marketplace.amazon.com	Barbara Mitchell	+1 347-448-3190 ext. 84431	ABR0055	Purchase Now for Delivery by Saturday | Arabella Farm Direct Bouquet of 12 Stems of Fresh Cut Hot Pink Roses in a Free Designer Glass Vase	1	0	1	Expedited	Rosa Turner	Woodlawn Nursing Home	Room 2036		Batesville	Arkansas	72501	US		Hi, Aunt Rosie, Happy Birthday and many more! From Barbara and family	false		
111-0784515-7925801	21188459383946	2020-06-03T18:02:15+00:00	2020-06-03T11:02:15-07:00	2020-06-03T18:30:48+00:00	2020-06-09T06:59:59+00:00	-5	8spkxb3symm9r4j@marketplace.amazon.com	Kellie Yohanan	+1 347-448-3190 ext. 39141	ABR0022	Arabella Farm Direct Bouquet of 12 Fresh Cut Pink Roses with a Free Glass Vase	1	0	1	Expedited	Renee Costanza	1004 S PHILWOOD CT			FUQUAY VARINA	NC	27526-5686	US		The big 3-0! Yay! To a beautiful, smart, funny, loving individual! Happiest of birthday’s to you! Love, Mom, Michael, Josh, and Curtis. Xoxo From Kellie Yohanan	false		
113-0568724-3043444	42218329449138	2020-06-03T18:10:33+00:00	2020-06-03T11:10:33-07:00	2020-06-03T18:43:21+00:00	2020-06-09T06:59:59+00:00	-5	l2rmfyklhxj2hfb@marketplace.amazon.com	christina coyne	+1 314-282-9402 ext. 77714	ABR0022	Arabella Farm Direct Bouquet of 12 Fresh Cut Pink Roses with a Free Glass Vase	1	0	1	Expedited	Christina  Coyne	3821 Teakwood			Santa Ana	CA	92707	US			false		
111-1203551-4075443	69619751608314	2020-06-03T18:39:55+00:00	2020-06-03T11:39:55-07:00	2020-06-03T19:02:56+00:00	2020-06-09T06:59:59+00:00	-5	lk60hpy5rjmw9bl@marketplace.amazon.com	Lynne Hsu	+1 347-448-3190 ext. 02293	ABM010	Purchase Now for Delivery by Saturday | Arabella Bouquets | Fields of The World Bouquet of Fresh Cut Flowers in a Free Designer Glass Vase	1	0	1	Expedited	Nancy Cosban	20503 34TH AVE			BAYSIDE	NY	11361-1241	US		Dear Nancy, So sorry for your loss.  I’m sure you shared many happy times together. From Lynne Hsu	false		
114-9281965-1689065	53001422706866	2020-06-03T18:51:11+00:00	2020-06-03T11:51:11-07:00	2020-06-03T19:21:51+00:00	2020-06-09T06:59:59+00:00	-5	fy5fcbt87t7ss4g@marketplace.amazon.com	Milton Muñoz	+1 210-728-4548 ext. 23700	ABM010	Purchase Now for Delivery by Saturday | Arabella Bouquets | Fields of The World Bouquet of Fresh Cut Flowers in a Free Designer Glass Vase	1	0	1	Expedited	Milton Alfredo Muñoz Santos	811 WILLIAMS ST			BOAZ	AL	35957-1533	US			false		
111-4970156-5222643	65784285785930	2020-06-03T19:06:43+00:00	2020-06-03T12:06:43-07:00	2020-06-03T19:26:56+00:00	2020-06-09T06:59:59+00:00	-5	4b0whywl87z5jgm@marketplace.amazon.com	Laurie A Cenna	+1 210-728-4548 ext. 74006	ABR0066	Purchase Now for Delivery by Saturday | Arabella Bouquets | 12 Stems of Fresh Cut White Roses in a Free Designer Glass Vase	1	0	1	Expedited	Sharon Cenna	5250 COLUMBIA RD APT 303			NORTH OLMSTED	OH	44070-3562	US		Dear mom, Just so you know you are loved! Wanted you to have something pretty to look at. Keep positive and chin up! Happy summer :) From Laurie A Cenna	false		
112-1441388-2500269	00154018686994	2020-06-03T19:10:31+00:00	2020-06-03T12:10:31-07:00	2020-06-03T19:39:25+00:00	2020-06-09T06:59:59+00:00	-5	0yvcgbyztryk2dk@marketplace.amazon.com	Louise Henry	+1 347-448-3190 ext. 61224	ABM010	Purchase Now for Delivery by Saturday | Arabella Bouquets | Fields of The World Bouquet of Fresh Cut Flowers in a Free Designer Glass Vase	1	0	1	Expedited	Louise Henry	11880 SW Lynnridge Ave.			Portland	OR	97225	US		Tricia, We appreciate all the work you do in your community. The guidance, counseling and comfort you offer to your clients will have an immediate and long-lasting effect on their lives. We salute you! From Dad & Louise Henry	false		
112-8343426-1453032	32972012570634	2020-06-03T19:10:58+00:00	2020-06-03T12:10:58-07:00	2020-06-03T19:41:17+00:00	2020-06-09T06:59:59+00:00	-5	n6pthqzpdwc7ng3@marketplace.amazon.com	Alba	+1 314-282-9402 ext. 85641	ABR0055	Purchase Now for Delivery by Saturday | Arabella Farm Direct Bouquet of 12 Stems of Fresh Cut Hot Pink Roses in a Free Designer Glass Vase	1	0	1	Expedited	Gloria	DALE 2532 DALE AVE			SACRAMENTO	CA	95815-2023	US			false		
112-5117097-3952244	59142545512090	2020-06-03T19:53:16+00:00	2020-06-03T12:53:16-07:00	2020-06-03T20:23:34+00:00	2020-06-09T06:59:59+00:00	-5	nz33lxyngypyp9t@marketplace.amazon.com	MATTHEW FELLER	+1 314-282-9402 ext. 50106	ABR0022	Arabella Farm Direct Bouquet of 12 Fresh Cut Pink Roses with a Free Glass Vase	1	0	1	Expedited	MATTHEW FELLER	178 engle st.			tenafly	NJ	07670	US			false		
113-5303656-7945860	39109941932418	2020-06-03T20:32:41+00:00	2020-06-03T13:32:41-07:00	2020-06-03T20:38:45+00:00	2020-06-09T06:59:59+00:00	-5	wwk0qph1n7dtfyg@marketplace.amazon.com	richard hynds	+1 347-448-3190 ext. 39979	ABR0033	Arabella Farm Direct Bouquet of 12 Fresh Cut Orange Roses with a Free Glass Vase	1	0	1	Expedited	Richard J.Hynds	12387 nichols rd			Montrose	MI	48457	US		Congratulation Andrea, "To the Both of You" . From Eugene Payne Jr	false		
113-2044337-0909048	21340767454586	2020-06-03T21:25:08+00:00	2020-06-03T14:25:08-07:00	2020-06-03T21:40:35+00:00	2020-06-09T06:59:59+00:00	-5	0dvr4302wc294rp@marketplace.amazon.com	Lurella D. Friis	+1 314-282-9402 ext. 77924	ABR0033	Purchase Now for Delivery by Monday | Arabella Farm Direct Bouquet of 12 Fresh Cut Orange Roses with a Free Glass Vase	1	0	1	Expedited	Cora Lonning	2726 WOODLEY ST			SAN ANTONIO	TX	78232-4220	US			false		
111-6912983-4231467	40101731601282	2020-06-03T21:16:20+00:00	2020-06-03T14:16:20-07:00	2020-06-03T21:45:43+00:00	2020-06-09T06:59:59+00:00	-5	34b1t7zq82cbvc4@marketplace.amazon.com	jason eskew	+1 314-282-9402 ext. 01127	ABM010	Purchase Now for Delivery by Monday | Arabella Bouquets | Fields of The World Bouquet of Fresh Cut Flowers in a Free Designer Glass Vase	1	0	1	Expedited	Jason eskew	121 MELVA CT			WINDSOR	CA	95492-8869	US		Happy birthday Tiffany!   We love you! From jason eskew and Elise	false		
114-8669567-3285018	65953597789474	2020-06-03T21:22:15+00:00	2020-06-03T14:22:15-07:00	2020-06-03T21:49:50+00:00	2020-06-09T06:59:59+00:00	-5	5gqnzch61bdj76j@marketplace.amazon.com	Agustín Morales Rosas	+1 210-728-4548 ext. 54114	ABR0022	Purchase Now for Delivery by Monday | Arabella Farm Direct Bouquet of 12 Fresh Cut Pink Roses with a Free Glass Vase	1	0	1	Expedited	Monserrat Matus	9225 HAWKINS RD APT 1B			INDIANAPOLIS	IN	46216-2284	US		Feliz Cumpleaños, te quiero!! De Agustin Morales	false		
114-6773869-2765065	44020096101402	2020-06-03T21:23:26+00:00	2020-06-03T14:23:26-07:00	2020-06-03T21:52:45+00:00	2020-06-09T06:59:59+00:00	-5	7sbclt4k99swl9r@marketplace.amazon.com	Ann Marie Suhocki	+1 347-448-3190 ext. 10779	ABR0022	Purchase Now for Delivery by Monday | Arabella Farm Direct Bouquet of 12 Fresh Cut Pink Roses with a Free Glass Vase	1	0	1	Expedited	Eileen Brown	317 Lucille Lane			Schenectady	NY	12306	US		Aunt Eileen, Happy Birthday!! We miss you and love you. Love, Ann Marie & Don From Ann Marie Suhocki	false		
113-3133940-4860214	21634180399946	2020-06-03T21:31:10+00:00	2020-06-03T14:31:10-07:00	2020-06-03T21:55:44+00:00	2020-06-09T06:59:59+00:00	-5	g08g12vbj84fwpz@marketplace.amazon.com	Brian Buchanan	+1 314-282-9402 ext. 69713	ABR0055	Purchase Now for Delivery by Monday | Arabella Farm Direct Bouquet of 12 Stems of Fresh Cut Hot Pink Roses in a Free Designer Glass Vase	1	0	1	Expedited	Beth Buchanan	818 GROMO CT			HEALDSBURG	CA	95448-3723	US		Dear Beth, Wishing you a happy birthday.  We hope you have a beautiful day. Love, Mikhail and Yelena L.	false		
113-8964620-8013046	35132823646858	2020-06-03T21:47:32+00:00	2020-06-03T14:47:32-07:00	2020-06-03T22:02:09+00:00	2020-06-09T06:59:59+00:00	-5	wwk0qph1n7dtfyg@marketplace.amazon.com	richard hynds	+1 210-728-4548 ext. 35363	ABR0055	Purchase Now for Delivery by Monday | Arabella Farm Direct Bouquet of 12 Stems of Fresh Cut Hot Pink Roses in a Free Designer Glass Vase	1	0	1	Expedited	Richard J.Hynds	12387 nichols rd			Montrose	MI	48457	US		Great job Darla,  Errick's new adoptive parent,   Eugene Payne Jr. From Eugene Payne Jr	false		
114-3269401-8705053	06717216404610	2020-06-03T21:50:14+00:00	2020-06-03T14:50:14-07:00	2020-06-03T22:20:24+00:00	2020-06-09T06:59:59+00:00	-5	1kqs4xq0xzr8ky6@marketplace.amazon.com	Jeffrey w. Paysse	+1 210-728-4548 ext. 14853	ABR001	Purchase Now for Delivery by Monday | Arabella Bouquets 12 Stems of Fresh Cut Red Roses in a Free Designer Glass Vase	1	0	1	Expedited	Jeffrey w. Paysse	7312 SEAWALL BLVD APT 222			GALVESTON	TX	77551-1995	US			false		
114-0719120-3273828	68288999427962	2020-06-02T17:22:58+00:00	2020-06-02T10:22:58-07:00	2020-06-03T22:20:52+00:00	2020-06-10T06:59:59+00:00	-6	hdh8944h1qh2r8c@marketplace.amazon.com	Timothy white	+1 412-532-4665 ext. 88882	ABR0022	Delivery by Friday | Arabella Farm Direct Bouquet of 12 Fresh Cut Pink Roses with a Free Glass Vase	1	0	1	Expedited	Timothy white	2023 AGUA FINA APT 3			EDINBURG	TX	78541-3312	US			false		
113-4550802-7330624	26349704117970	2020-06-03T22:33:33+00:00	2020-06-03T15:33:33-07:00	2020-06-03T22:34:25+00:00	2020-06-09T06:59:59+00:00	-5	3thdp0lfn2g8zxy@marketplace.amazon.com	John	+1 347-448-3190 ext. 28012	ABR0033	Purchase Now for Delivery by Monday | Arabella Farm Direct Bouquet of 12 Fresh Cut Orange Roses with a Free Glass Vase	1	0	1	Expedited	Carl Fenter	7668 DIANJOU DR			EL PASO	TX	79912-7160	US			false		
111-6807093-3993028	10670326648082	2020-06-03T22:36:50+00:00	2020-06-03T15:36:50-07:00	2020-06-03T23:04:38+00:00	2020-06-09T06:59:59+00:00	-5	klx9ysbrtfscgny@marketplace.amazon.com	Colleen McWilliams	+1 347-448-3190 ext. 81644	ABM010	Purchase Now for Delivery by Monday | Arabella Bouquets | Fields of The World Bouquet of Fresh Cut Flowers in a Free Designer Glass Vase	1	0	1	Expedited	Tracy Velasco	101 W CAMINO DEL EMPERADOR			VAIL	AZ	85641-2032	US		Happy Birthday Mom We love you ! Love Colleen, Stephanie & Caitlyn From Colleen McWilliams	false		
113-5303884-1682605	57878453103954	2020-06-03T22:38:24+00:00	2020-06-03T15:38:24-07:00	2020-06-03T23:07:16+00:00	2020-06-09T06:59:59+00:00	-5	h2pzcx132syxn2k@marketplace.amazon.com	Jath DiCecco	+1 347-448-3190 ext. 70289	ABR004	Arabella Farm Direct Bouquet of 12 Fresh Cut Yellow Roses with a Free Glass Vase	1	0	1	Expedited	Fongettia McDuffy	406 GRAND AVE			INDIANOLA	MS	38751-2119	US		Date night? - Jath	false		
111-4582747-5823424	25046702937834	2020-06-03T22:40:34+00:00	2020-06-03T15:40:34-07:00	2020-06-03T23:09:06+00:00	2020-06-09T06:59:59+00:00	-5	dlkzzxfdqwr37sv@marketplace.amazon.com	Bill	+1 347-448-3190 ext. 98057	ABR0022	Purchase Now for Delivery by Monday | Arabella Farm Direct Bouquet of 12 Fresh Cut Pink Roses with a Free Glass Vase	1	0	1	Expedited	Dolores Hufnagel	85 FARADAY ST			HYDE PARK	MA	02136-3307	US			false		
111-5540793-2168228	63473352419002	2020-06-03T22:48:49+00:00	2020-06-03T15:48:49-07:00	2020-06-03T23:09:11+00:00	2020-06-09T06:59:59+00:00	-5	1yvyyv6y1t37x8j@marketplace.amazon.com	Brian LaRose	+1 210-728-4548 ext. 22490	ABM010	Purchase Now for Delivery by Monday | Arabella Bouquets | Fields of The World Bouquet of Fresh Cut Flowers in a Free Designer Glass Vase	1	0	1	Expedited	Jessica Charles-LaRose	40 MANSION BLVD APT J			DELMAR	NY	12054-2465	US		Hi, Congratulations Jessica, Love , Sharry & Brian	false		
113-5594947-6642615	64849192773882	2020-06-03T22:43:46+00:00	2020-06-03T15:43:46-07:00	2020-06-03T23:11:38+00:00	2020-06-09T06:59:59+00:00	-5	gn7c05806svv014@marketplace.amazon.com	Ana F Ratcliffe	+1 314-282-9402 ext. 74421	ABM010	Purchase Now for Delivery by Monday | Arabella Bouquets | Fields of The World Bouquet of Fresh Cut Flowers in a Free Designer Glass Vase	1	0	1	Expedited	Margaret LeMaster	15 HIGHLANDER LN			HENDERSONVILLE	NC	28792-9511	US		Thinking of you and Praying for you every day. Love you. Alicia Foliaco	false		
114-4409732-4328217	50049100365754	2020-06-03T23:28:15+00:00	2020-06-03T16:28:15-07:00	2020-06-03T23:58:21+00:00	2020-06-09T06:59:59+00:00	-5	d7s6rr2wystrx4q@marketplace.amazon.com	debra reed	+1 314-282-9402 ext. 13827	ABM010	Purchase Now for Delivery by Monday | Arabella Bouquets | Fields of The World Bouquet of Fresh Cut Flowers in a Free Designer Glass Vase	1	0	1	Expedited	Irene Dushane	1045 S 99TH PL			MESA	AZ	85208-3171	US			false		
113-2842761-3183429	60354719123642	2020-06-03T23:52:44+00:00	2020-06-03T16:52:44-07:00	2020-06-04T00:18:53+00:00	2020-06-09T06:59:59+00:00	-5	8xs7yh2src4d4zb@marketplace.amazon.com	clarence wessman	+1 347-448-3190 ext. 24462	ABM010	Purchase Now for Delivery by Monday | Arabella Bouquets | Fields of The World Bouquet of Fresh Cut Flowers in a Free Designer Glass Vase	1	0	1	Expedited	Josie Pavlik	2190 ZION RDG			GARRISON	KY	41141-8695	US		Hi Josie, Enjoy your gift! We are thinking about you. From Donna and Wes	false		
112-6269876-4614660	40864639321314	2020-06-04T00:23:43+00:00	2020-06-03T17:23:43-07:00	2020-06-04T00:54:23+00:00	2020-06-09T06:59:59+00:00	-5	27bw9dqbxhf6vh7@marketplace.amazon.com	Antonino Oneto	+1 314-282-9402 ext. 73198	ABR0055	Purchase Now for Delivery by Monday | Arabella Farm Direct Bouquet of 12 Stems of Fresh Cut Hot Pink Roses in a Free Designer Glass Vase	1	0	1	Expedited	Michele Lennan	46 QUAID AVE			SAYREVILLE	NJ	08872-1259	US			false		
113-2840328-5032203	39880096718074	2020-06-04T00:35:08+00:00	2020-06-03T17:35:08-07:00	2020-06-04T01:04:01+00:00	2020-06-09T06:59:59+00:00	-5	11x6ns72kw9ymrp@marketplace.amazon.com	Nell	+1 412-532-4665 ext. 09510	ABR0055	Purchase Now for Delivery by Monday | Arabella Farm Direct Bouquet of 12 Stems of Fresh Cut Hot Pink Roses in a Free Designer Glass Vase	1	0	1	Expedited	Chika Anywanu	2442 S TURNSTONE AVE			ONTARIO	CA	91761-6535	US		We are so grateful for the gift of your time to help the ministry reach and speak to women during these challenging times. Love, Jenna, Nell, Beth + all of BiS!	false		
112-2426459-3512202	24306487714626	2020-06-04T00:51:59+00:00	2020-06-03T17:51:59-07:00	2020-06-04T01:20:38+00:00	2020-06-09T06:59:59+00:00	-5	tfrdm1t87pwnksx@marketplace.amazon.com	Melissa Rivera	+1 347-448-3190 ext. 44365	ABM010	Purchase Now for Delivery by Monday | Arabella Bouquets | Fields of The World Bouquet of Fresh Cut Flowers in a Free Designer Glass Vase	1	0	1	Expedited	Eligio Rivera	2015 GILLINGHAM CIR			FAYETTEVILLE	NC	28304-5659	US		Love you Julia!!!! Glad to see you’re feeling better. From Melissa Rivera	false		
111-0774988-6135426	02992813834258	2020-06-04T00:53:21+00:00	2020-06-03T17:53:21-07:00	2020-06-04T01:23:47+00:00	2020-06-09T06:59:59+00:00	-5	kjxbyrk1wzggnvs@marketplace.amazon.com	Anthony Jones	+1 210-728-4548 ext. 27184	ABR012	Arabella Farm Direct Bouquet of 18 Fresh Cut Pink Roses with a Free Glass Vase	1	0	1	Expedited	Anthony Jones	18191 VONTAY RD			ROCKVILLE	VA	23146-1533	US			false		
113-5872199-1250610	47969306492754	2020-06-04T00:57:59+00:00	2020-06-03T17:57:59-07:00	2020-06-04T01:28:37+00:00	2020-06-09T06:59:59+00:00	-5	xkslj6wz8n5r4h4@marketplace.amazon.com	NANCY KISKA	+1 210-728-4548 ext. 30809	ABM0044	Purchase Now for Delivery by Monday | Arabella Farm Direct Bouquet of Fresh Cut Blue Hydrangea with a Free Glass Vase	1	0	1	Expedited	Nancy Kiska	102 E LIBERTY ST APT 509			SAVANNAH	GA	31401-4408	US			false		
113-4472683-7967457	47295800557666	2020-06-04T01:51:34+00:00	2020-06-03T18:51:34-07:00	2020-06-04T02:18:07+00:00	2020-06-09T06:59:59+00:00	-5	9vy4014c1nbp9yg@marketplace.amazon.com	Angela Padilla	+1 347-448-3190 ext. 11782	ABM010	Purchase Now for Delivery by Monday | Arabella Bouquets | Fields of The World Bouquet of Fresh Cut Flowers in a Free Designer Glass Vase	1	0	1	Expedited	Grace P. Gatmaitan	4229 OAKLAND DR			KALAMAZOO	MI	49008-2820	US		Happy Birthday, Auntie Grace!!! ❤️ From Angela Padilla	false		
114-1825341-3183413	12486063502042	2020-06-04T02:02:02+00:00	2020-06-03T19:02:02-07:00	2020-06-04T02:30:54+00:00	2020-06-09T06:59:59+00:00	-5	fgv4bslt7lync10@marketplace.amazon.com	Calvin Russell	+1 314-282-9402 ext. 13283	ABR0022	Purchase Now for Delivery by Monday | Arabella Farm Direct Bouquet of 12 Fresh Cut Pink Roses with a Free Glass Vase	1	0	1	Expedited	Debbie Harris Park	8236 LAUREL HEIGHTS LOOP			LORTON	VA	22079-5650	US		I am so sorry for what happened.  Please feel better From Calvin Russell	false		
113-9198784-2696240	29894221062762	2020-06-04T03:18:29+00:00	2020-06-03T20:18:29-07:00	2020-06-04T03:46:47+00:00	2020-06-09T06:59:59+00:00	-5	hx2nf85y2p3fs8m@marketplace.amazon.com	Paul Maguire	+1 412-532-4665 ext. 36207	ABR0055	Purchase Now for Delivery by Monday | Arabella Farm Direct Bouquet of 12 Stems of Fresh Cut Hot Pink Roses in a Free Designer Glass Vase	1	0	1	Expedited	The Amazing Ms. Catherine Belgiorno	9 LEDGEWOOD WAY APT 25			PEABODY	MA	01960-1386	US		HAPPY BIRTHDAY ! From Love Paul	false		
114-7950192-7609843	17661101854010	2020-06-04T03:50:31+00:00	2020-06-03T20:50:31-07:00	2020-06-04T04:20:56+00:00	2020-06-09T06:59:59+00:00	-5	y67ddp1xw8m3qj3@marketplace.amazon.com	Joel Williams	+1 314-282-9402 ext. 75012	ABR0033	Purchase Now for Delivery by Monday | Arabella Farm Direct Bouquet of 12 Fresh Cut Orange Roses with a Free Glass Vase	1	0	1	Expedited	Joel Williams	5108 W AVENUE L8			LANCASTER	CA	93536-3612	US			false		
111-7605250-5924237	66709077472674	2020-06-04T05:09:27+00:00	2020-06-03T22:09:27-07:00	2020-06-04T05:21:51+00:00	2020-06-09T06:59:59+00:00	-5	2z0bj534p5z47bb@marketplace.amazon.com	Veronica Fansler	+1 347-448-3190 ext. 57256	ABM010	Purchase Now for Delivery by Monday | Arabella Bouquets | Fields of The World Bouquet of Fresh Cut Flowers in a Free Designer Glass Vase	1	0	1	Expedited	Chloe Fansler	1925 CHESHAM DR			CARROLLTON	TX	75007-2403	US		Enjoy your gift!  Remember to cut stems (3 or 4 days) so they can slurp up the water.  We all last longer when we stay hydrated.  Keep us going sweet cheeks! From Lovingly from GrandPa n MaV	false		
114-6197807-5097028	58152584122394	2020-06-04T04:55:46+00:00	2020-06-03T21:55:46-07:00	2020-06-04T05:25:23+00:00	2020-06-09T06:59:59+00:00	-5	4m7zpndfmwj94cq@marketplace.amazon.com	Courtney Sanders	+1 347-448-3190 ext. 73918	ABM010	Purchase Now for Delivery by Monday | Arabella Bouquets | Fields of The World Bouquet of Fresh Cut Flowers in a Free Designer Glass Vase	1	0	1	Expedited	Holly Rainer	1021 TIMBERCREST DR			PLEASANTON	TX	78064-1540	US		Happy birthday and thanks for your recent cooperation. Please tell the girls I love them. From Dallas	false		
113-8204650-2293808	24985594018986	2020-06-04T05:29:58+00:00	2020-06-03T22:29:58-07:00	2020-06-04T06:00:34+00:00	2020-06-09T06:59:59+00:00	-5	y11bfxz24l4czb7@marketplace.amazon.com	Sonia	+1 210-728-4548 ext. 46475	ABR0055	Purchase Now for Delivery by Monday | Arabella Farm Direct Bouquet of 12 Stems of Fresh Cut Hot Pink Roses in a Free Designer Glass Vase	1	0	1	Expedited	Vanessa lopez	2929 JANSEN AVE			LAS VEGAS	NV	89101-1656	US			false		
112-5314384-5122608	37327002453842	2020-06-03T18:54:57+00:00	2020-06-03T11:54:57-07:00	2020-06-04T06:16:20+00:00	2020-06-09T06:59:59+00:00	-5	q470l0x3mwfh223@marketplace.amazon.com	Linh Nguyen	+1 347-448-3190 ext. 54083	ABR0022	Arabella Farm Direct Bouquet of 12 Fresh Cut Pink Roses with a Free Glass Vase	1	0	1	Expedited	Tuyet mai thi Nguyen	1208 S Fm 51 suite G TX 76234 Top nails			Decatur	Texas	76234	US			false		
114-1453986-1193009	12135716798482	2020-06-04T06:50:05+00:00	2020-06-03T23:50:05-07:00	2020-06-04T07:08:55+00:00	2020-06-09T06:59:59+00:00	-5	67g6y04xdy1bk3b@marketplace.amazon.com	carmen ortiz	+1 210-728-4548 ext. 08312	ABR011	Purchase Now for Delivery by Monday | Arabella Bouquets 18 Stems of Fresh Cut Red Roses in a Free Glass Vase	1	0	1	Expedited	Wilma flowers	722 S KINGSTOWNE CIR APT 1			BRANDON	FL	33511-5889	US		To:wilma flowers,my love Enjoy your gift! let work things out in intimate together relationship? Please forgiveness my love? I love you and i miss you From carmen your babe	false		
111-9567204-0785063	29282989914826	2020-06-04T09:43:01+00:00	2020-06-04T02:43:01-07:00	2020-06-04T10:05:57+00:00	2020-06-10T06:59:59+00:00	-6	q0h25yl66hbyml0@marketplace.amazon.com	Corinna Schenck	+1 347-448-3190 ext. 32021	ABR012	Arabella Farm Direct Bouquet of 18 Fresh Cut Pink Roses with a Free Glass Vase	1	0	1	Expedited	Lee Staats	2415 TWO OAKS DR			CHARLESTON	SOUTH CAROLINA	29414-4825	US		Gute Besserung, liebe Tante, wir haben Dich lieb!! Corinna, Liesel und Wolfgang	false		
112-7208802-5501828	44251558420922	2020-06-04T10:44:14+00:00	2020-06-04T03:44:14-07:00	2020-06-04T11:11:11+00:00	2020-06-10T06:59:59+00:00	-6	y1skksstlh80gg6@marketplace.amazon.com	Kristin Ouerfelli	+1 314-282-9402 ext. 01099	ABR0022	Purchase Now for Delivery by Monday | Arabella Farm Direct Bouquet of 12 Fresh Cut Pink Roses with a Free Glass Vase	1	0	1	Expedited	Katherine Mylander	102 Ringneck Court			Chester	MD	21619	US			false		
111-1473654-2510648	13170533986370	2020-06-04T11:35:48+00:00	2020-06-04T04:35:48-07:00	2020-06-04T12:03:53+00:00	2020-06-10T06:59:59+00:00	-6	2356zw41w1n9hwz@marketplace.amazon.com	Henry H. Davison	+1 347-448-3190 ext. 65001	ABM010	Purchase Now for Delivery by Monday | Arabella Bouquets | Fields of The World Bouquet of Fresh Cut Flowers in a Free Designer Glass Vase	1	0	1	Expedited	Deborah Schmidt	3306 78TH ST E			INVER GROVE HEIGHTS	MN	55076-3034	US		Hi Deb! Congratulations!  Sending best of wishes for a long and beautiful retirement! Love, Henry and Regina	false		
111-4355475-3796201	54019632574330	2020-06-04T11:38:33+00:00	2020-06-04T04:38:33-07:00	2020-06-04T12:05:09+00:00	2020-06-10T06:59:59+00:00	-6	g0b6gx367c0jbt5@marketplace.amazon.com	Sarah	+1 347-448-3190 ext. 83768	ABM010	Purchase Now for Delivery by Monday | Arabella Bouquets | Fields of The World Bouquet of Fresh Cut Flowers in a Free Designer Glass Vase	1	0	1	Expedited	Claire Daniel	12414 SILENT CREEK DR			PEARLAND	TX	77584-1675	US		Happy 40th Birthday! Hope you have the best day (and that these arrive roughly on time!)  Lots of love From Sarah, Tony, Emma, William & Millie xxx	false		
113-4572433-1853050	49833127030986	2020-06-04T11:47:53+00:00	2020-06-04T04:47:53-07:00	2020-06-04T12:16:03+00:00	2020-06-10T06:59:59+00:00	-6	xlkgtwl0cxj35l0@marketplace.amazon.com	Denise Barry	+1 210-728-4548 ext. 50089	ABR0022	Purchase Now for Delivery by Monday | Arabella Farm Direct Bouquet of 12 Fresh Cut Pink Roses with a Free Glass Vase	1	0	1	Expedited	Carol Indovino	47 IMPERIAL DR			MILLER PLACE	NY	11764-3225	US		Dear Carol and Jimmy We are thinking of you and love you very much. From Corinne, Kenny and Denise	false		
111-9174926-0861810	45061516512618	2020-06-04T12:04:59+00:00	2020-06-04T05:04:59-07:00	2020-06-04T12:34:13+00:00	2020-06-10T06:59:59+00:00	-6	xs92vq14vzpxvsv@marketplace.amazon.com	Brett MacNamara	+1 210-728-4548 ext. 60242	ABR001	Purchase Now for Delivery by Monday | Arabella Bouquets 12 Stems of Fresh Cut Red Roses in a Free Designer Glass Vase	1	0	1	Expedited	Charles and Kathy Pickering	13524 ABERCROMBIE DR			ENGLEWOOD	FLORIDA	34223-4087	US		Happy Birthday Mom, We love you!!! love Brett and Jacqui From Brett MacNamara	false		
113-2437188-5364209	40348394556210	2020-06-04T12:06:34+00:00	2020-06-04T05:06:34-07:00	2020-06-04T12:35:47+00:00	2020-06-10T06:59:59+00:00	-6	xpx767k5dv8vrtk@marketplace.amazon.com	Dave	+1 763-225-9463 ext. 86302	ABR014	Purchase Now for Delivery by Monday | Arabella Bouquets 18 Stems of Fresh Cut White Roses in a Free Designer Glass Vase	1	0	1	Expedited	Cary Larson	427 HAYNES ST			LEWISBURG	TN	37091-2741	US		Happy Birthday From Dave	false		
113-4134490-0605058	12778460002850	2020-06-04T13:45:18+00:00	2020-06-04T06:45:18-07:00	2020-06-04T14:12:26+00:00	2020-06-10T06:59:59+00:00	-6	wrp5wgc07tzr2bh@marketplace.amazon.com	Roshnie Khan	+1 314-282-9402 ext. 17826	ABR0022	Purchase Now for Delivery by Monday | Arabella Farm Direct Bouquet of 12 Fresh Cut Pink Roses with a Free Glass Vase	1	0	1	Expedited	Varsha Rekha	20 BEVERLY RD			HUNTINGTON STATION	NY	11746-3467	US		Welcome to the world Leilani!! We love you so much! Alicea your a big sister and I am so proud of you! Varsha heal well I’m proud of & I’m here for you. We love you so much!  As Davina would say WOW!! From Roshnie Khan	false		
111-9324647-5670633	48154331331834	2020-06-04T13:49:57+00:00	2020-06-04T06:49:57-07:00	2020-06-04T14:17:22+00:00	2020-06-10T06:59:59+00:00	-6	sc7txf2j4f225dt@marketplace.amazon.com	Paul R. Fiel	+1 210-728-4548 ext. 17418	ABM010	Purchase Now for Delivery by Monday | Arabella Bouquets | Fields of The World Bouquet of Fresh Cut Flowers in a Free Designer Glass Vase	1	0	1	Expedited	Sandy Emerling	7390 ABBOTT HILL RD			BOSTON	NY	14025-9750	US			false		
111-9625923-8439462	26221137380730	2020-06-04T13:57:12+00:00	2020-06-04T06:57:12-07:00	2020-06-04T14:24:26+00:00	2020-06-10T06:59:59+00:00	-6	jwfz6hw7047j7gx@marketplace.amazon.com	Delenee L Brugman	+1 763-225-9463 ext. 79090	ABR0022	Purchase Now for Delivery by Monday | Arabella Farm Direct Bouquet of 12 Fresh Cut Pink Roses with a Free Glass Vase	1	0	1	Expedited	Dianne Weston	26432 MONTECITO LN			MISSION VIEJO	CA	92691-1529	US		Happy Birthday mom, May your health and intelligence shine brighter today as you embrace your 7th decade! I love you, Delenee From Delenee L Brugman	false		
111-8241158-0482602	38864030170730	2020-06-04T14:10:21+00:00	2020-06-04T07:10:21-07:00	2020-06-04T14:34:14+00:00	2020-06-10T06:59:59+00:00	-6	6y3qblnmp2mn4fk@marketplace.amazon.com	Paula Foggia	+1 347-448-3190 ext. 47723	ABM010	Purchase Now for Delivery by Monday | Arabella Bouquets | Fields of The World Bouquet of Fresh Cut Flowers in a Free Designer Glass Vase	1	0	1	Expedited	Ann Kalistinsky	371 BERGEN BLVD APT 311			FAIRVIEW	NJ	07022-1150	US		Hi my dear sister Ann, Enjoy your flowers.   Happy Birthday to you! With love from your brother Paul	false		
111-5180165-0740204	17599509574122	2020-06-04T14:50:31+00:00	2020-06-04T07:50:31-07:00	2020-06-04T15:19:01+00:00	2020-06-10T06:59:59+00:00	-6	1s08c01ymdt969t@marketplace.amazon.com	austin E. Peterson	+1 347-448-3190 ext. 19024	ABM010	Purchase Now for Delivery by Monday | Arabella Bouquets | Fields of The World Bouquet of Fresh Cut Flowers in a Free Designer Glass Vase	1	0	1	Expedited	Birsinger Family	4460 SASSAFRAS LN			NAPERVILLE	IL	60564-1196	US		Deepest condolences Birsinger Family. From Julie Peterson	false		
114-3306350-4789008	27842531193322	2020-06-04T14:55:05+00:00	2020-06-04T07:55:05-07:00	2020-06-04T15:19:15+00:00	2020-06-10T06:59:59+00:00	-6	6qhrlf4f3g3lmdx@marketplace.amazon.com	aaron d. jacoves	+1 347-448-3190 ext. 29051	ABR0066	Purchase Now for Delivery by Monday | Arabella Bouquets | 12 Stems of Fresh Cut White Roses in a Free Designer Glass Vase	1	0	1	Expedited	Emi Nakazato	136 WALNUT AVE			ARDMORE	PA	19003-2138	US		For all you have been through over the past few months and all  your strength  - sending you love From aaron	false		
111-5666097-8469026	33468781876482	2020-06-04T15:02:56+00:00	2020-06-04T08:02:56-07:00	2020-06-04T15:32:28+00:00	2020-06-10T06:59:59+00:00	-6	hm9tn70s1sjmffd@marketplace.amazon.com	Brad Rohrig	+1 210-728-4548 ext. 11234	ABR0022	Purchase Now for Delivery by Monday | Arabella Farm Direct Bouquet of 12 Fresh Cut Pink Roses with a Free Glass Vase	1	0	1	Expedited	Carol Arnold	17527 S SHERIDAN RD			BIXBY	OK	74008-7021	US			false		
113-3230877-4736207	40622025742042	2020-06-04T15:19:45+00:00	2020-06-04T08:19:45-07:00	2020-06-04T15:40:57+00:00	2020-06-10T06:59:59+00:00	-6	m45sjv7xh7754cj@marketplace.amazon.com	John J. Rubin	+1 347-448-3190 ext. 67296	ABM010	Purchase Now for Delivery by Monday | Arabella Bouquets | Fields of The World Bouquet of Fresh Cut Flowers in a Free Designer Glass Vase	1	0	1	Expedited	Janet K. Gorman	14965 S ROXBURGHE ST			OLATHE	KS	66061-6852	US		Happy, Happy Birthday, Sis! Have a great day. Love, Birdie and John	false		
112-2303908-3095421	40276564389330	2020-06-04T15:38:39+00:00	2020-06-04T08:38:39-07:00	2020-06-04T16:07:39+00:00	2020-06-10T06:59:59+00:00	-6	y73lj4jg5n65z82@marketplace.amazon.com	Jordan Carter	+1 347-448-3190 ext. 64888	ABR0022	Purchase Now for Delivery by Monday | Arabella Farm Direct Bouquet of 12 Fresh Cut Pink Roses with a Free Glass Vase	1	0	1	Expedited	Jazmine Smith	234 W KELSO ST APT 4			INGLEWOOD	CA	90301-6815	US			false		
112-5346220-0701049	52207341634538	2020-06-04T15:39:04+00:00	2020-06-04T08:39:04-07:00	2020-06-04T16:07:47+00:00	2020-06-10T06:59:59+00:00	-6	4zgyh6g9pd5w2r0@marketplace.amazon.com	Dave Reynolds	+1 314-282-9402 ext. 93768	ABR0055	Purchase Now for Delivery by Monday | Arabella Farm Direct Bouquet of 12 Stems of Fresh Cut Hot Pink Roses in a Free Designer Glass Vase	1	0	1	Expedited	Jennifer and Matthew Corbett	214 LITTLETON RD			HARVARD	MA	01451-1427	US		Congratulations Ella!! Class of 2020!! Love - Uncle Dave	false		
114-8920756-5501017	06802695844306	2020-06-04T15:48:16+00:00	2020-06-04T08:48:16-07:00	2020-06-04T16:15:53+00:00	2020-06-10T06:59:59+00:00	-6	m261jlgdhg854cv@marketplace.amazon.com	carl j clifton	+1 412-532-4665 ext. 26127	ABR0022	Purchase Now for Delivery by Monday | Arabella Farm Direct Bouquet of 12 Fresh Cut Pink Roses with a Free Glass Vase	1	0	1	Expedited	Ms. Margaret Rivers	2905 EDENBOROUGH RD			JOHNS ISLAND	SC	29455-7523	US			false		
114-8795560-8678600	58741341483778	2020-06-04T15:58:31+00:00	2020-06-04T08:58:31-07:00	2020-06-04T16:27:39+00:00	2020-06-10T06:59:59+00:00	-6	bq1b4drhhp3dg9k@marketplace.amazon.com	Matt Schoenfeld	+1 210-728-4548 ext. 43476	ABR0022	Purchase Now for Delivery by Monday | Arabella Farm Direct Bouquet of 12 Fresh Cut Pink Roses with a Free Glass Vase	1	0	1	Expedited	Judie Schoenfeld	5405 Earps Corner Pl			Fairfax	VA	22032-2904	US		Just Because.  Love Matt, Marie, and Hazel From Matt Schoenfeld	false		
114-3789705-6781864	17806982482186	2020-06-04T17:03:13+00:00	2020-06-04T10:03:13-07:00	2020-06-04T17:30:35+00:00	2020-06-10T06:59:59+00:00	-6	yq372y6lqxjsyd0@marketplace.amazon.com	RONALD fULTON	+1 347-448-3190 ext. 40530	ABR013	Purchase Now for Delivery by Monday | Arabella Farm Direct Bouquet of 18 Fresh Cut Yellow Roses with a Free Glass Vase	1	0	1	Expedited	RONALD fULTON	4500 Casey Martin Court			Chesapeake	Virginia	23321	US			false		
111-8643755-0777001	11011968992986	2020-06-04T17:05:36+00:00	2020-06-04T10:05:36-07:00	2020-06-04T17:33:42+00:00	2020-06-10T06:59:59+00:00	-6	dfjynwb50vp55lh@marketplace.amazon.com	Steven Pylypchuk	+1 314-282-9402 ext. 65671	ABM010	Purchase Now for Delivery by Monday | Arabella Bouquets | Fields of The World Bouquet of Fresh Cut Flowers in a Free Designer Glass Vase	1	0	1	Expedited	Eugenia Shneider	6 GATES AVE APT 2			SUMMIT	NJ	07901-1589	US		Hope these flowers brighten up your day even just a little bit. Love, Steve, Siegi and Heidi	false		
113-7869239-0733065	09987152304146	2020-06-04T18:05:53+00:00	2020-06-04T11:05:53-07:00	2020-06-04T18:10:57+00:00	2020-06-06T06:59:59+00:00	-2	jh0t4yw3d0g429p@marketplace.amazon.com	Shuai Shao	+1 347-448-3190 ext. 71524	ABR0022	Purchase Now for Delivery by Monday | Arabella Farm Direct Bouquet of 12 Fresh Cut Pink Roses with a Free Glass Vase	1	0	1	NextDay	Shuai Shao	1550 FRONTERA WAY APT 217			MILLBRAE	CA	94030-2883	US			false		
113-6564086-6677816	67534050176914	2020-06-04T18:08:55+00:00	2020-06-04T11:08:55-07:00	2020-06-04T18:12:18+00:00	2020-06-06T06:59:59+00:00	-2	8lkvf4y38yt6fmm@marketplace.amazon.com	Russell Hand	+1 210-728-4548 ext. 63534	ABR0055	Purchase Now for Delivery by Monday | Arabella Farm Direct Bouquet of 12 Stems of Fresh Cut Hot Pink Roses in a Free Designer Glass Vase	1	0	1	NextDay	Deb Thomas	2572 BUCKS ISLAND RD			SOUTHSIDE	AL	35907-0481	US		Get well soon! Love Russ, Zoe,Grammy, and Buddy. We love you.💕 From Russell Hand	false		
113-6866707-8689851	61799382261354	2020-06-04T17:46:37+00:00	2020-06-04T10:46:37-07:00	2020-06-04T18:13:36+00:00	2020-06-10T06:59:59+00:00	-6	hs39wsdztmjywjy@marketplace.amazon.com	Robert J. Ficklin	+1 347-448-3190 ext. 37721	ABM010	Purchase Now for Delivery by Monday | Arabella Bouquets | Fields of The World Bouquet of Fresh Cut Flowers in a Free Designer Glass Vase	1	0	1	Expedited	Chris and Terri Bertorelli	45 CATSPAW CPE			CORONADO	CA	92118-3221	US		Enjoy your gift!   Many Thanks for all your help! From Bob Ficklin, Cetera Advisor Networks	false		
112-9117585-4849865	12159567022282	2020-06-04T17:49:41+00:00	2020-06-04T10:49:41-07:00	2020-06-04T18:15:39+00:00	2020-06-10T06:59:59+00:00	-6	fl9zs1ftqqb7rdm@marketplace.amazon.com	Angela Stull	+1 210-728-4548 ext. 46737	ABR0022	Purchase Now for Delivery by Monday | Arabella Farm Direct Bouquet of 12 Fresh Cut Pink Roses with a Free Glass Vase	1	0	1	Expedited	Norma J Stull	300 E BALDWIN ST			LADOGA	IN	47954-9389	US		Hi Mommie  Happy birthday  Love you Angela and Attique	false		
112-7598094-9613049	36919308637730	2020-06-04T17:51:09+00:00	2020-06-04T10:51:09-07:00	2020-06-04T18:20:26+00:00	2020-06-10T06:59:59+00:00	-6	17j3tp8tdmqjs02@marketplace.amazon.com	Brittney Speck	+1 763-225-9463 ext. 35017	ABSR003	Arabella Bouquets Fresh Cut Yellow Spray Roses in a Free Designer Glass Vase	1	0	1	Expedited	Nancy Jarrell	43641 STANG RD			ELYRIA	OH	44035-1923	US		Jay loves you very much From Brittney Speck	false		
112-8658430-3198633	61786083688162	2020-06-04T18:17:30+00:00	2020-06-04T11:17:30-07:00	2020-06-04T18:21:27+00:00	2020-06-06T06:59:59+00:00	-2	0zk8vn9b4r4xbdf@marketplace.amazon.com	Anna Marie Deubel	+1 210-728-4548 ext. 47332	ABM010	Purchase Now for Delivery by Monday | Arabella Bouquets | Fields of The World Bouquet of Fresh Cut Flowers in a Free Designer Glass Vase	1	0	1	NextDay	Alexis Zivo	235 AVONELLE DR			CHICAGO HEIGHTS	IL	60411-1812	US		To brighten your day. Hope you feel better. Miss you!!!  LOVE YOU! From Love, Mom	false		
111-2783189-9666634	53818235939098	2020-06-04T17:42:54+00:00	2020-06-04T10:42:54-07:00	2020-06-04T18:21:30+00:00	2020-06-10T06:59:59+00:00	-6	3wdl8x9q90pxfzn@marketplace.amazon.com	alex	+1 210-728-4548 ext. 37573	ABM010	Purchase Now for Delivery by Monday | Arabella Bouquets | Fields of The World Bouquet of Fresh Cut Flowers in a Free Designer Glass Vase	1	0	1	Expedited	Alex Berndt	701 1ST AVE			WILMOT	SD	57279-3200	US			false		
112-8831182-2866603	65880176149602	2020-06-04T18:27:40+00:00	2020-06-04T11:27:40-07:00	2020-06-04T18:28:36+00:00	2020-06-06T06:59:59+00:00	-2	62qtdznwpx56hbs@marketplace.amazon.com	marcella bailey	+1 347-448-3190 ext. 38886	ABM010	Purchase Now for Delivery by Monday | Arabella Bouquets | Fields of The World Bouquet of Fresh Cut Flowers in a Free Designer Glass Vase	1	0	1	NextDay	Marilyn Johnson	16 ALDRIDGE LN			WATSONVILLE	CA	95076-0504	US		Dearest Marilyn- Just a little something to brighten your day and let you know how much we LOVE YOU! Kelly & Marcella From Kelly & Marcella From Kelly & Marcella	false		
111-2669221-3055428	45285086930970	2020-06-04T18:28:00+00:00	2020-06-04T11:28:00-07:00	2020-06-04T18:28:59+00:00	2020-06-06T06:59:59+00:00	-2	gp0bx0y8pmrqy7x@marketplace.amazon.com	Ankur	+1 210-728-4548 ext. 12134	ABR012	Arabella Farm Direct Bouquet of 18 Fresh Cut Pink Roses with a Free Glass Vase	1	0	1	NextDay	Eliza Hoang	1919 W DEEREFIELD RD			SANTA ANA	CA	92704-7139	US		Thank you Eliza for everything !! You are beautiful inside out like these flowers !! From Ankur Wadhwa	false		
114-1396514-0425851	35201045970482	2020-06-04T18:40:55+00:00	2020-06-04T11:40:55-07:00	2020-06-04T18:43:25+00:00	2020-06-06T06:59:59+00:00	-2	t4pzhggs9lkr4bg@marketplace.amazon.com	Richard Fabian	+1 314-282-9402 ext. 98632	ABM010	Purchase Now for Delivery by Monday | Arabella Bouquets | Fields of The World Bouquet of Fresh Cut Flowers in a Free Designer Glass Vase	1	0	1	NextDay	Lee Fabian	SOUTH PORT SQUARE	23013 WESTCHESTER BLVD # 137		PORT CHARLOTTE	FL	33980-8448	US		Hi Lee, Enjoy the flowers, glad you are doing better. From Rick and Nancy	false		
111-5133853-5985859	25704497778642	2020-06-04T18:43:11+00:00	2020-06-04T11:43:11-07:00	2020-06-04T18:48:27+00:00	2020-06-06T06:59:59+00:00	-2	m0nqr0br7cdqmvr@marketplace.amazon.com	Douglas Heuer	+1 412-532-4665 ext. 53858	ABR0022	Purchase Now for Delivery by Monday | Arabella Farm Direct Bouquet of 12 Fresh Cut Pink Roses with a Free Glass Vase	1	0	1	NextDay	Douglas Heuer	5707 CEDAR HILL WAY			SAN ANTONIO	TX	78253-5529	US			false		
111-2652992-2247432	40399947455682	2020-06-04T18:44:55+00:00	2020-06-04T11:44:55-07:00	2020-06-04T18:49:56+00:00	2020-06-06T06:59:59+00:00	-2	m0nqr0br7cdqmvr@marketplace.amazon.com	Douglas Heuer	+1 210-728-4548 ext. 37606	ABR0022	Purchase Now for Delivery by Monday | Arabella Farm Direct Bouquet of 12 Fresh Cut Pink Roses with a Free Glass Vase	1	0	1	NextDay	Nancy Heuer	9418 McIntosh Rd			Woodbury	MN	55125-4813	US			false		
111-1427977-5620264	44933514864370	2020-06-04T18:47:31+00:00	2020-06-04T11:47:31-07:00	2020-06-04T18:50:09+00:00	2020-06-06T06:59:59+00:00	-2	600bpcslk6tr90m@marketplace.amazon.com	Scott Temme	+1 314-282-9402 ext. 99043	ABM010	Purchase Now for Delivery by Monday | Arabella Bouquets | Fields of The World Bouquet of Fresh Cut Flowers in a Free Designer Glass Vase	1	0	1	NextDay	Susan Swigor	73 OCEAN VIEW RD			SWAMPSCOTT	MA	01907-2242	US		Thank you so much for hosting all of us in Newport for the weekend. It was a much-needed break from being stuck in the city! From The 98L boys and Alex Zuchero	false		
114-8491436-4403454	62478413499082	2020-06-04T18:48:11+00:00	2020-06-04T11:48:11-07:00	2020-06-04T18:53:32+00:00	2020-06-06T06:59:59+00:00	-2	pd1cslfz4mfzfxx@marketplace.amazon.com	Azamat	+1 763-225-9463 ext. 52507	ABM010	Purchase Now for Delivery by Monday | Arabella Bouquets | Fields of The World Bouquet of Fresh Cut Flowers in a Free Designer Glass Vase	1	0	1	NextDay	Sabina Bogayeva	CIELO 4524 7TH AVE NE APT B4			SEATTLE	WA	98105-4703	US			false		
114-9050927-0472223	63359057655666	2020-06-04T18:49:18+00:00	2020-06-04T11:49:18-07:00	2020-06-04T18:54:27+00:00	2020-06-06T06:59:59+00:00	-2	rk48rxq3rg20vt5@marketplace.amazon.com	Forest Weinzinger	+1 347-448-3190 ext. 88522	ABR0022	Purchase Now for Delivery by Monday | Arabella Farm Direct Bouquet of 12 Fresh Cut Pink Roses with a Free Glass Vase	1	0	1	NextDay	Kaylee George	48 TERRY CT			SUISUN CITY	CA	94585-1731	US			false		
113-3670933-1600267	03249582724666	2020-06-04T18:53:23+00:00	2020-06-04T11:53:23-07:00	2020-06-04T18:56:45+00:00	2020-06-06T06:59:59+00:00	-2	3y9f462867z5dmw@marketplace.amazon.com	MA Skinner	+1 314-282-9402 ext. 00103	ABR012	Arabella Farm Direct Bouquet of 18 Fresh Cut Pink Roses with a Free Glass Vase	1	0	1	NextDay	Layne Gillespie	8338 BOOTH BAY DR			HIXSON	TN	37343-1995	US			false		
113-6542770-4880216	66655621822146	2020-06-04T18:57:37+00:00	2020-06-04T11:57:37-07:00	2020-06-04T19:00:29+00:00	2020-06-06T06:59:59+00:00	-2	p0rw82xy4d1vqq9@marketplace.amazon.com	Paul	+1 412-532-4665 ext. 84161	ABR0022	Purchase Now for Delivery by Monday | Arabella Farm Direct Bouquet of 12 Fresh Cut Pink Roses with a Free Glass Vase	1	0	1	NextDay	PAUL CHAVES	77 WALNUT AVE			ROCKVILLE CENTRE	NY	11570-2914	US		Happy Anniversary!  From Paul	false		
112-3030778-5137826	41723250793146	2020-06-04T19:12:54+00:00	2020-06-04T12:12:54-07:00	2020-06-04T19:13:44+00:00	2020-06-06T06:59:59+00:00	-2	fcqv9x6b9jlyp08@marketplace.amazon.com	Ken Carson	+1 314-282-9402 ext. 58706	ABR0022	Purchase Now for Delivery by Monday | Arabella Farm Direct Bouquet of 12 Fresh Cut Pink Roses with a Free Glass Vase	1	0	1	NextDay	Ellen Stirling	165 N GREEN BAY RD			LAKE FOREST	IL	60045-2137	US		Dear Ellen and Jim, Congratulations on your 50 years together.   Trust  you did not let Covid cramp your celebration.   Love, Sally	false		
111-0309901-2375444	55019554428682	2020-06-04T19:17:55+00:00	2020-06-04T12:17:55-07:00	2020-06-04T19:18:55+00:00	2020-06-06T06:59:59+00:00	-2	qlxs4plhxdyfs6c@marketplace.amazon.com	Pamela	+1 314-282-9402 ext. 42100	ABR0066	Purchase Now for Delivery by Monday | Arabella Bouquets | 12 Stems of Fresh Cut White Roses in a Free Designer Glass Vase	1	0	1	NextDay	Penny Summers	3434Woodbrook Lane			Sugar Land	TX	77478	US		A much belated Mother’s Day ... gave up on the orchid! Lol ... Enjoy I love you and miss you! From The Favored Hot Mess or Luke Warm now Problem Child 😂😍💋143	false		
114-4417666-7077016	26542507483906	2020-06-04T19:23:22+00:00	2020-06-04T12:23:22-07:00	2020-06-04T19:28:41+00:00	2020-06-06T06:59:59+00:00	-2	jkw8n36mf9y2jjy@marketplace.amazon.com	Catherine Kiefer	+1 210-728-4548 ext. 11718	ABSR005	Arabella Bouquets | Fresh Cut Orange Spray Roses in a Free Designer Glass Vase	1	0	1	NextDay	Ava Lowe	4103 NE HILLCREST CT			ANKENY	IA	50021-4924	US			false		
113-6285911-8788251	47131529588338	2020-06-04T19:31:51+00:00	2020-06-04T12:31:51-07:00	2020-06-04T19:32:56+00:00	2020-06-06T06:59:59+00:00	-2	nhkvtj6khjd23n9@marketplace.amazon.com	fran wollner	+1 210-728-4548 ext. 95198	ABM010	Purchase Now for Delivery by Monday | Arabella Bouquets | Fields of The World Bouquet of Fresh Cut Flowers in a Free Designer Glass Vase	1	0	1	NextDay	Savannah, Justin & Sarah	2500 Q ST NW APT 02			WASHINGTON	DC	20007-4367	US		Savannah, Justin & Sarah, Thanks so very much for your help!  Wishing you all the best as you move on.  Fran & George From Fran & George Wollner	false		
113-4902974-3077809	04183058506442	2020-06-04T19:46:23+00:00	2020-06-04T12:46:23-07:00	2020-06-04T19:53:17+00:00	2020-06-06T06:59:59+00:00	-2	zgvt1w36fg7tzby@marketplace.amazon.com	Manuel Garcia	+1 347-448-3190 ext. 22102	ABR0055	Purchase Now for Delivery by Monday | Arabella Farm Direct Bouquet of 12 Stems of Fresh Cut Hot Pink Roses in a Free Designer Glass Vase	1	0	1	NextDay	Manuel Garcia	11760 East 27th Place			Yuma	Arizona	85367	US		Astra Garcia  Just because its Tuesday and you put up with a lot of stuff.  I love you. From Manuel Garcia	false		
113-4902974-3077809	38105694249058	2020-06-04T19:46:23+00:00	2020-06-04T12:46:23-07:00	2020-06-04T19:53:17+00:00	2020-06-06T06:59:59+00:00	-2	zgvt1w36fg7tzby@marketplace.amazon.com	Manuel Garcia	+1 347-448-3190 ext. 22102	ABR0022	Purchase Now for Delivery by Monday | Arabella Farm Direct Bouquet of 12 Fresh Cut Pink Roses with a Free Glass Vase	1	0	1	NextDay	Manuel Garcia	11760 East 27th Place			Yuma	Arizona	85367	US		Victoria Anabelle Garcia  Just for being the most beatiful daughter a man can ask for.  Enjoy your gift! From Manuel Garcia	false		
114-5691649-8223458	35984676242762	2020-06-04T19:56:45+00:00	2020-06-04T12:56:45-07:00	2020-06-04T19:58:22+00:00	2020-06-06T06:59:59+00:00	-2	1zjnzqy04m4c7nf@marketplace.amazon.com	Robbie	+1 314-282-9402 ext. 82782	ABR0066	Purchase Now for Delivery by Monday | Arabella Bouquets | 12 Stems of Fresh Cut White Roses in a Free Designer Glass Vase	1	0	1	NextDay	Dr. Anne York	305 LUMINA AVE S			WRIGHTSVILLE BEACH	NC	28480-6002	US		Hi Dr. York, Happy Birthday! I hope you have a wonderful birthday.  Sincerely, Robbie & Matthew Monroe	false		
114-1220606-1253850	32819279921026	2020-06-04T20:15:50+00:00	2020-06-04T13:15:50-07:00	2020-06-04T20:20:35+00:00	2020-06-06T06:59:59+00:00	-2	g32jh5n1342r81s@marketplace.amazon.com	Eric Guerra	+1 314-282-9402 ext. 85743	ABR0022	Purchase Now for Delivery by Monday | Arabella Farm Direct Bouquet of 12 Fresh Cut Pink Roses with a Free Glass Vase	1	0	1	NextDay	Nicole Guerra	22224 Red Yucca Rd			Spicewood	TX	78669	US		Just because I love you! From Eric	false		
113-2455845-8479436	22075806006602	2020-06-04T20:17:13+00:00	2020-06-04T13:17:13-07:00	2020-06-04T20:21:18+00:00	2020-06-06T06:59:59+00:00	-2	kdzfp52rxsflhtf@marketplace.amazon.com	Elizabeth A. Director	+1 210-728-4548 ext. 66825	ABM010	Purchase Now for Delivery by Monday | Arabella Bouquets | Fields of The World Bouquet of Fresh Cut Flowers in a Free Designer Glass Vase	1	0	1	NextDay	Hannah Director	5644 UNIVERSITY WAY NE APT 305			SEATTLE	WA	98105-2639	US		Congratulations Hannah! We love you and are so proud of you! Mom and Dad From Mom and Dad	false		
114-0943821-6175462	01570425688306	2020-06-04T20:29:38+00:00	2020-06-04T13:29:38-07:00	2020-06-04T20:30:49+00:00	2020-06-06T06:59:59+00:00	-2	6sls158pycyp5n3@marketplace.amazon.com	Lena Bell	+1 347-448-3190 ext. 59893	ABR0022	Purchase Now for Delivery by Monday | Arabella Farm Direct Bouquet of 12 Fresh Cut Pink Roses with a Free Glass Vase	1	0	1	NextDay	Cewyon Ward	1233 GREENRIDGE LN			LITHONIA	GA	30058-2216	US		Happy 50th to my beautiful  best friend!! love you so much !! From Lena Bell	false		
112-8612110-8757052	16282502970666	2020-06-04T20:31:18+00:00	2020-06-04T13:31:18-07:00	2020-06-04T20:32:11+00:00	2020-06-06T06:59:59+00:00	-2	zq6q4ww9tvhhts5@marketplace.amazon.com	Hal Walton	+1 347-448-3190 ext. 71058	ABR014	Purchase Now for Delivery by Monday | Arabella Bouquets 18 Stems of Fresh Cut White Roses in a Free Designer Glass Vase	1	0	1	NextDay	Nancy Hanks	104 TOMLINSON DR			FOLSOM	CA	95630-1586	US		Hi sweetheart.  "They slipped briskly into an intimacy from which they never recovered," F. Scott Fitzgerald -- Love, hal	false		
112-9113578-6933065	35124959462138	2020-06-04T20:37:53+00:00	2020-06-04T13:37:53-07:00	2020-06-04T20:39:13+00:00	2020-06-06T06:59:59+00:00	-2	vqqtxyvcysdyyvg@marketplace.amazon.com	Joel Harris	+1 412-532-4665 ext. 42478	ABR015	Purchase Now for Delivery by Monday | Arabella Farm Direct Bouquet of 18 Fresh Cut Orange Roses with a Free Glass Vase	1	0	1	NextDay	Judy Harris	600 CORAL LN			KEY LARGO	FL	33037-5133	US		From your favorite husband.  With Love,  Can you guess? From Favorite Husband	false		
112-1502229-7126630	43895480421250	2020-06-04T20:36:05+00:00	2020-06-04T13:36:05-07:00	2020-06-04T20:40:02+00:00	2020-06-06T06:59:59+00:00	-2	yfdkhbg4fz2tccp@marketplace.amazon.com	Howard Duncan	+1 763-225-9463 ext. 10877	ABM010	Purchase Now for Delivery by Monday | Arabella Bouquets | Fields of The World Bouquet of Fresh Cut Flowers in a Free Designer Glass Vase	1	0	1	NextDay	Laurelee Duncan	26567 Raphis Blvd			Englewood	FL	34223	US			false		
112-7770431-3933833	63302150649002	2020-06-04T20:39:40+00:00	2020-06-04T13:39:40-07:00	2020-06-04T20:44:02+00:00	2020-06-06T06:59:59+00:00	-2	59qgq9g3f62vd57@marketplace.amazon.com	susan tedesco	+1 347-448-3190 ext. 93168	ABR0033	Purchase Now for Delivery by Monday | Arabella Farm Direct Bouquet of 12 Fresh Cut Orange Roses with a Free Glass Vase	1	0	1	NextDay	Phyllis Tedesco	200 SUNRISE BLVD APT 116			EXTON	PA	19341-2337	US			false		
112-6473692-7518622	45824462016090	2020-06-04T20:46:29+00:00	2020-06-04T13:46:29-07:00	2020-06-04T20:47:21+00:00	2020-06-06T06:59:59+00:00	-2	8f097xtwrcxwj4x@marketplace.amazon.com	Eileen O'Gara	+1 314-282-9402 ext. 74739	ABR004	Arabella Farm Direct Bouquet of 12 Fresh Cut Yellow Roses with a Free Glass Vase	1	0	1	NextDay	Emelia Mecado	200 CRESTVIEW CHURCH RD APT 1105			WARNER ROBINS	GA	31088-3164	US		Hi Emelia, Happy Birthday honey,hope you have a great day and wishing you all good things in your new place,hope to visit soon love Eileen	false		
114-5139430-2339432	39509432846906	2020-06-04T20:51:12+00:00	2020-06-04T13:51:12-07:00	2020-06-04T20:56:36+00:00	2020-06-06T06:59:59+00:00	-2	xxxp508rsl22hzs@marketplace.amazon.com	Denise E Parson	+1 210-728-4548 ext. 20503	ABR012	Arabella Farm Direct Bouquet of 18 Fresh Cut Pink Roses with a Free Glass Vase	1	0	1	NextDay	Denise Parson	6054 Winding Lake Drive			Jupiter	Florida	33458	US			false		
111-5646942-0438650	10931013852362	2020-06-04T21:06:55+00:00	2020-06-04T14:06:55-07:00	2020-06-04T21:07:50+00:00	2020-06-06T06:59:59+00:00	-2	p1dw1lzkcx18lkv@marketplace.amazon.com	Katherine Jewell	+1 412-532-4665 ext. 94122	ABM010	Purchase Now for Delivery by Monday | Arabella Bouquets | Fields of The World Bouquet of Fresh Cut Flowers in a Free Designer Glass Vase	1	0	1	NextDay	Brian Fernandez	2020	5I		New	NEW YORK	10023	US		To: Max’s Family; Sending our love and prayers to you all; Kathy & Scott (Apt 7J) From Katherine Jewell	false		
112-7095420-6493811	69737356324370	2020-06-04T21:21:29+00:00	2020-06-04T14:21:29-07:00	2020-06-04T21:26:52+00:00	2020-06-06T06:59:59+00:00	-2	hh1zr1g7ccgz7dh@marketplace.amazon.com	eunice campos white	+1 347-448-3190 ext. 17059	ABR001	Purchase Now for Delivery by Monday | Arabella Bouquets 12 Stems of Fresh Cut Red Roses in a Free Designer Glass Vase	1	0	1	NextDay	Teresa arana	26710 EASTWOOD DR			SPRING	TX	77386-1161	US			false		
114-6130186-1872238	40111068363786	2020-06-03T03:19:34+00:00	2020-06-02T20:19:34-07:00	2020-06-04T21:32:41+00:00	2020-06-06T06:59:59+00:00	-2	qbh90g4rs2mfsqt@marketplace.amazon.com	jerry	+1 314-282-9402 ext. 36636	ABM010	Purchase Now for Delivery by Friday | Arabella Bouquets | Fields of The World Bouquet of Fresh Cut Flowers in a Free Designer Glass Vase	1	0	1	SecondDay	Marissa Knasko	5939 WOODBRIAR WAY			CITRUS HEIGHTS	CA	95621-1669	US		My deepest Condolences for your loss. let me know if I can do anything. From your QLMS family and Jerry Jodis.	true		
113-4363931-5239421	16811020785354	2020-06-04T21:31:11+00:00	2020-06-04T14:31:11-07:00	2020-06-04T21:33:29+00:00	2020-06-06T06:59:59+00:00	-2	xg5fp2tyllhh9t8@marketplace.amazon.com	Leslie Fry	+1 210-728-4548 ext. 10251	ABR0022	Purchase Now for Delivery by Monday | Arabella Farm Direct Bouquet of 12 Fresh Cut Pink Roses with a Free Glass Vase	1	0	1	NextDay	Elizabeth Licari	1290 MORROW RD APT 5			MEDFORD	OR	97504-4662	US		Elizabeth, I’m so sorry for your loss. I wish I was there to give you a hug.  Love, Leslie From Leslie Fry	false		
113-3404115-1209054	03973341426506	2020-06-04T21:37:01+00:00	2020-06-04T14:37:01-07:00	2020-06-04T21:41:40+00:00	2020-06-06T06:59:59+00:00	-2	w0hgffhgw9vtvjq@marketplace.amazon.com	stephen freiman	+1 347-448-3190 ext. 88089	ABR0022	Purchase Now for Delivery by Monday | Arabella Farm Direct Bouquet of 12 Fresh Cut Pink Roses with a Free Glass Vase	1	0	1	NextDay	Andrea jolly	5801 NICHOLSON LN APT 702			NORTH BETHESDA	MD	20852-5723	US		Welcome home Andrea!  We love you, Susan and Steve	false		
112-4905393-7712256	42457758555586	2020-06-04T21:39:06+00:00	2020-06-04T14:39:06-07:00	2020-06-04T21:44:36+00:00	2020-06-06T06:59:59+00:00	-2	6fqzxfrblxdlp1l@marketplace.amazon.com	Manhua Han	+1 347-448-3190 ext. 44836	ABR001	Purchase Now for Delivery by Monday | Arabella Bouquets 12 Stems of Fresh Cut Red Roses in a Free Designer Glass Vase	1	0	1	NextDay	MANHUA HAN	5802 LAWRENCE ST 2ND FLOOR			FLUSHING	NY	11355-5146	US			false		
112-5255142-3965831	33386771020146	2020-06-04T22:01:29+00:00	2020-06-04T15:01:29-07:00	2020-06-04T22:02:26+00:00	2020-06-06T06:59:59+00:00	-2	kvnbd700xr9my7z@marketplace.amazon.com	Alexandra Doliner	+1 763-225-9463 ext. 79952	ABM010	Purchase Now for Delivery by Monday | Arabella Bouquets | Fields of The World Bouquet of Fresh Cut Flowers in a Free Designer Glass Vase	1	0	1	NextDay	Vera Shamis	2171 OAK CREEK PL			HAYWARD	CA	94541-5535	US		Verochka, please accept our deepest condolences. With love, Doliner and Gelman family. Many, many warm hugs. Shura From Alexandra Doliner	false		
114-4057923-3935459	69238450255346	2020-06-04T22:10:36+00:00	2020-06-04T15:10:36-07:00	2020-06-04T22:16:05+00:00	2020-06-06T06:59:59+00:00	-2	1n98mbtqd9xvxg7@marketplace.amazon.com	awaraadnan	+1 210-728-4548 ext. 27628	ABM010	Purchase Now for Delivery by Monday | Arabella Bouquets | Fields of The World Bouquet of Fresh Cut Flowers in a Free Designer Glass Vase	1	0	1	NextDay	The Haq family	7832 GAMBRILL WOODS WAY			SPRINGFIELD	VA	22153-2260	US			false		
114-5928553-8146631	41505099300890	2020-06-04T22:15:38+00:00	2020-06-04T15:15:38-07:00	2020-06-04T22:20:23+00:00	2020-06-06T06:59:59+00:00	-2	s7nfbgk92ldhn6g@marketplace.amazon.com	Dwayne P. Harrison	+1 347-448-3190 ext. 61917	ABR0055	Purchase Now for Delivery by Monday | Arabella Farm Direct Bouquet of 12 Stems of Fresh Cut Hot Pink Roses in a Free Designer Glass Vase	1	0	1	NextDay	Claudine Lehmann	133 GLENN ST			PIQUA	OH	45356-3216	US		Happy Birthday!  Love, Dwayne and Shelly	false		
111-2508758-3088230	32780745154322	2020-06-04T22:23:29+00:00	2020-06-04T15:23:29-07:00	2020-06-04T22:24:24+00:00	2020-06-06T06:59:59+00:00	-2	nzz3kkncsq6dwj9@marketplace.amazon.com	Cassandra Saint-Phard	+1 347-448-3190 ext. 83120	ABR0022	Purchase Now for Delivery by Monday | Arabella Farm Direct Bouquet of 12 Fresh Cut Pink Roses with a Free Glass Vase	1	0	1	NextDay	Megan Kurey	4004 FOLSOM ST			SAN FRANCISCO	CA	94110-6118	US		Megan,  I love you. You're my best friend. Happy 25th birthday! I wish we could spend it together. You mean everything to me...   Cosi	false		
111-1210421-7851469	05307231825674	2020-06-04T22:19:30+00:00	2020-06-04T15:19:30-07:00	2020-06-04T22:25:00+00:00	2020-06-06T06:59:59+00:00	-2	02z0q8sr0xlgvbz@marketplace.amazon.com	Jean G. Gabriel	+1 210-728-4548 ext. 56331	ABR0055	Purchase Now for Delivery by Monday | Arabella Farm Direct Bouquet of 12 Stems of Fresh Cut Hot Pink Roses in a Free Designer Glass Vase	1	0	1	NextDay	Jean G. Gabriel	8591 SW 86TH CIR			OCALA	FL	34481-9765	US			false		
112-3762502-1476256	30919311062506	2020-06-04T22:28:00+00:00	2020-06-04T15:28:00-07:00	2020-06-04T22:30:12+00:00	2020-06-06T06:59:59+00:00	-2	121pqbr48wvfwn7@marketplace.amazon.com	edna e kenner	+1 210-728-4548 ext. 11284	ABR0033	Purchase Now for Delivery by Monday | Arabella Farm Direct Bouquet of 12 Fresh Cut Orange Roses with a Free Glass Vase	1	0	1	NextDay	Ms Angela Harris	1400 E WEST HWY APT 922			SILVER SPRING	MD	20910-3260	US		Enjoy your gift! Happy Blessed birthday Sweetpea !!! Mom From edna e kenner	false		
111-8390229-3901821	37131174862002	2020-06-04T22:30:49+00:00	2020-06-04T15:30:49-07:00	2020-06-04T22:33:33+00:00	2020-06-06T06:59:59+00:00	-2	z1sphg20j9rhfvx@marketplace.amazon.com	Carolyn Matinzi	+1 314-282-9402 ext. 19556	ABR014	Purchase Now for Delivery by Monday | Arabella Bouquets 18 Stems of Fresh Cut White Roses in a Free Designer Glass Vase	1	0	1	NextDay	Irene Gomes	6 WHITING ST			PLYMOUTH	MA	02360-2919	US		Dear Irene,  So sorry to hear about Tony! He will be sadly missed! Love and miss you, From Carolyn and Paul Matinzi	false		
111-3730583-0683428	12811862692266	2020-06-04T22:29:49+00:00	2020-06-04T15:29:49-07:00	2020-06-04T22:33:41+00:00	2020-06-06T06:59:59+00:00	-2	jzx3xp1chcjyht7@marketplace.amazon.com	Willam M lowery	+1 314-282-9402 ext. 29616	ABM010	Purchase Now for Delivery by Monday | Arabella Bouquets | Fields of The World Bouquet of Fresh Cut Flowers in a Free Designer Glass Vase	1	0	1	NextDay	Tammie Witte	222 MCKINLEY AVE			GENEVA	IL	60134-1224	US		Happpppy Birthday!!!!! From Willam M lowery	false		
112-2674700-6363431	60581418652058	2020-06-04T22:34:45+00:00	2020-06-04T15:34:45-07:00	2020-06-04T22:39:21+00:00	2020-06-06T06:59:59+00:00	-2	qfqfnjxz3306rdy@marketplace.amazon.com	Kathy Lund	+1 412-532-4665 ext. 35494	ABR0033	Purchase Now for Delivery by Monday | Arabella Farm Direct Bouquet of 12 Fresh Cut Orange Roses with a Free Glass Vase	1	0	1	NextDay	Uncle Mark, Aunt Cindy Johnson & Grandma	721 W SHORE DR			SOMERSET	WI	54025-6915	US		Happy Birthday to you!  Sending you lots of love today! From Kathy Lund	false		
111-3519015-2633826	49279144189746	2020-06-04T22:37:00+00:00	2020-06-04T15:37:00-07:00	2020-06-04T22:42:20+00:00	2020-06-06T06:59:59+00:00	-2	pc07wtm03gxcgq7@marketplace.amazon.com	kells	+1 314-282-9402 ext. 38175	ABR0022	Purchase Now for Delivery by Monday | Arabella Farm Direct Bouquet of 12 Fresh Cut Pink Roses with a Free Glass Vase	1	0	1	NextDay	Charlene Iheoma Nwoke	8850 CHIMNEY ROCK RD APT 65			HOUSTON	TX	77096-2552	US			false		
111-9547735-2453833	39963170654594	2020-06-04T22:45:43+00:00	2020-06-04T15:45:43-07:00	2020-06-04T22:46:55+00:00	2020-06-06T06:59:59+00:00	-2	02z0q8sr0xlgvbz@marketplace.amazon.com	Jean G. Gabriel	+1 314-282-9402 ext. 36100	ABR0055	Purchase Now for Delivery by Monday | Arabella Farm Direct Bouquet of 12 Stems of Fresh Cut Hot Pink Roses in a Free Designer Glass Vase	1	0	1	NextDay	Mr. and Mrs. E. Ita	5206 Brinkman Ct			Houston	TX	77091	US		Happy Anniversary! From Jean and Gisele	false		
111-2320740-6268205	66943312290986	2020-06-04T22:48:04+00:00	2020-06-04T15:48:04-07:00	2020-06-04T22:52:11+00:00	2020-06-06T06:59:59+00:00	-2	hjj5hjn25vv0kz3@marketplace.amazon.com	Nancy Alexander	+1 314-282-9402 ext. 03794	ABR0022	Purchase Now for Delivery by Monday | Arabella Farm Direct Bouquet of 12 Fresh Cut Pink Roses with a Free Glass Vase	1	0	1	NextDay	Shirley French	49 BLANCA LN SPC 215			WATSONVILLE	CA	95076-2153	US		So glad you are feeling better and back home  Love your Sister, Mary From Nancy Alexander	false		
112-3156025-5568258	27584234794778	2020-06-04T22:56:37+00:00	2020-06-04T15:56:37-07:00	2020-06-04T22:57:27+00:00	2020-06-06T06:59:59+00:00	-2	yhk5dx353skwywn@marketplace.amazon.com	Marie-France Martelly	+1 314-282-9402 ext. 77024	ABM0044	Purchase Now for Delivery by Monday | Arabella Farm Direct Bouquet of Fresh Cut Blue Hydrangea with a Free Glass Vase	1	0	1	NextDay	Marie Betty Joseph	6780 PERSHING ST			HOLLYWOOD	FL	33024-1834	US		To our dear Betty,  Grandma and I want to wish a wonderful birthday to a wonderful sister and daughter.   God bless you always.  From Marie-France and Grandma	false		
113-1524290-8158604	03719162104442	2020-06-04T22:59:16+00:00	2020-06-04T15:59:16-07:00	2020-06-04T23:00:12+00:00	2020-06-06T06:59:59+00:00	-2	jk32tjjnqc37gx1@marketplace.amazon.com	marilyn moorehead	+1 314-282-9402 ext. 08946	ABR0022	Purchase Now for Delivery by Monday | Arabella Farm Direct Bouquet of 12 Fresh Cut Pink Roses with a Free Glass Vase	1	0	1	NextDay	lisa rodriguez	25 SAGE RD			PAWLING	NY	12564-2008	US			false		
113-0081836-3654612	48545788081618	2020-06-04T23:12:10+00:00	2020-06-04T16:12:10-07:00	2020-06-04T23:13:50+00:00	2020-06-06T06:59:59+00:00	-2	4fdvv98t3szhr55@marketplace.amazon.com	Elona J. Boyd	+1 347-448-3190 ext. 80411	ABM010	Purchase Now for Delivery by Monday | Arabella Bouquets | Fields of The World Bouquet of Fresh Cut Flowers in a Free Designer Glass Vase	1	0	1	NextDay	Emma Faye	3710 EL CAMINO REAL APT 2319			SANTA CLARA	CA	95051-2959	US		Happy Birthday, Emma! We hope these flowers brighten up your new apartment and your day! We love you, Dwayne and Mom	false		
111-9823449-3213828	52125370834666	2020-06-04T23:21:39+00:00	2020-06-04T16:21:39-07:00	2020-06-04T23:24:00+00:00	2020-06-06T06:59:59+00:00	-2	rns53kn7ptvq76y@marketplace.amazon.com	Todd mitchell	+1 314-282-9402 ext. 10562	ABR0022	Purchase Now for Delivery by Monday | Arabella Farm Direct Bouquet of 12 Fresh Cut Pink Roses with a Free Glass Vase	1	0	1	NextDay	Latasha mitchell	329 MAPLE AVE			NEWPORT NEWS	VA	23607-4915	US			false		
113-7503266-5577836	06367648250474	2020-06-04T23:19:35+00:00	2020-06-04T16:19:35-07:00	2020-06-04T23:25:43+00:00	2020-06-06T06:59:59+00:00	-2	1gbp0r42m8bxdvx@marketplace.amazon.com	Michael J Kavic	+1 210-728-4548 ext. 38899	ABR0055	Purchase Now for Delivery by Monday | Arabella Farm Direct Bouquet of 12 Stems of Fresh Cut Hot Pink Roses in a Free Designer Glass Vase	1	0	1	NextDay	MICHAEL J KAVIC	10 Beechwood Ave.			MANHASSET	NY	11030	US			false		
112-7146621-9956210	58584886432218	2020-06-04T23:24:13+00:00	2020-06-04T16:24:13-07:00	2020-06-04T23:29:34+00:00	2020-06-06T06:59:59+00:00	-2	14vvpvh2rym76y6@marketplace.amazon.com	Brendan G Porter	+1 347-448-3190 ext. 60597	ABM0033	Purchase Now for Delivery by Monday | Arabella Farm Direct Bouquet of Fresh Cut White Hydrangea with a Free Glass Vase	1	0	1	NextDay	Brendan Porter	716 KINGSBROOK GLN			GLEN ELLYN	IL	60137-6217	US			false		
113-4461785-0841019	59453811924218	2020-06-04T23:39:54+00:00	2020-06-04T16:39:54-07:00	2020-06-04T23:43:28+00:00	2020-06-06T06:59:59+00:00	-2	l9jmxtb7nb6krp7@marketplace.amazon.com	Hannah Taylor	+1 210-728-4548 ext. 38367	ABR0022	Purchase Now for Delivery by Monday | Arabella Farm Direct Bouquet of 12 Fresh Cut Pink Roses with a Free Glass Vase	1	0	1	NextDay	Meghann Ray	1612 HUNTER HILL DR			VAN BUREN	AR	72956-2076	US		Happy Wedding Week beautiful friend! I am so happy for you and cannot wait to celebrate together! Love you! From Hannah Taylor	false		
111-3219023-9609037	29895723856050	2020-06-04T23:57:25+00:00	2020-06-04T16:57:25-07:00	2020-06-04T23:59:23+00:00	2020-06-06T06:59:59+00:00	-2	q8z4vqhsx5yl1q9@marketplace.amazon.com	Lynette Simms	+1 314-282-9402 ext. 24802	ABM010	Purchase Now for Delivery by Monday | Arabella Bouquets | Fields of The World Bouquet of Fresh Cut Flowers in a Free Designer Glass Vase	1	0	1	NextDay	Lynette Simms	4365 BRONTE LN GA			DOUGLASVILLE	GA	30135-4986	US		I am so proud you are my grandmother!  Your many achievements and accomplishments are praiseworthy!! I LOVE YOU!!! NO GIFT IS GOOD ENOUGH! From Lynette Simms	false		
