order-id	order-item-id	purchase-date	payments-date	reporting-date	promise-date	days-past-promise	buyer-email	buyer-name	buyer-phone-number	sku	product-name	quantity-purchased	quantity-shipped	quantity-to-ship	ship-service-level	recipient-name	ship-address-1	ship-address-2	ship-address-3	ship-city	ship-state	ship-postal-code	ship-country	gift-wrap-type	gift-message-text	is-business-order	purchase-order-number	price-designation
112-0007246-3473825	56573067739898	2020-06-05T13:39:33+00:00	2020-06-05T06:39:33-07:00	2020-06-05T14:07:08+00:00	2020-06-11T06:59:59+00:00	-5	36lxr203hsxfrmp@marketplace.amazon.com	Dennis Allen North	+1 347-448-3190 ext. 72366	ABR0022	Purchase Now for Delivery by Tuesday | Arabella Farm Direct Bouquet of 12 Fresh Cut Pink Roses with a Free Glass Vase	1	0	1	Expedited	Dennis A North	830 EDGEWOOD BAY DR			LAKEVIEW	AR	72642-7129	US		Happy Birthday You are the Love of My Life              Dennia=s	false		
113-8483779-3064258	24392806216466	2020-06-05T15:17:40+00:00	2020-06-05T08:17:40-07:00	2020-06-05T15:18:30+00:00	2020-06-11T06:59:59+00:00	-5	v5w2cprhf5wkp2h@marketplace.amazon.com	Melissa Stathakis	+1 210-728-4548 ext. 56658	ABR0022	Purchase Now for Delivery by Tuesday | Arabella Farm Direct Bouquet of 12 Fresh Cut Pink Roses with a Free Glass Vase	1	0	1	Expedited	Elizabeth Prah	2517 HARTZELL ST			EVANSTON	IL	60201-1309	US		Happiest of Birthdays Liza Prah!! We are so blessed to have you in our lives. Hope you have the best quarantine birthday! Love you girlie! <3 Love,  Melissa, Lizzie, Caroline and Hanna	false		
113-5948674-6095413	67486505357514	2020-06-05T15:18:44+00:00	2020-06-05T08:18:44-07:00	2020-06-05T15:46:31+00:00	2020-06-11T06:59:59+00:00	-5	2k4mr8nxpmgqkh8@marketplace.amazon.com	Aphrodite Navab	+1 314-282-9402 ext. 04292	ABR0022	Purchase Now for Delivery by Tuesday | Arabella Farm Direct Bouquet of 12 Fresh Cut Pink Roses with a Free Glass Vase	1	0	1	Expedited	Pannie Trifillis-Kiledjian	6 HEADQUARTERS RD			WHITEHOUSE STATION	NJ	08889-4018	US		My AGAPW sister, Pannie. I am so sorry for your double family loss. We are sisters by choice, through friendship and love. We share each other’s sorrows and joys. May their memory be eternal. From Aphrodite Navab	false		
114-1754045-7964200	62969345133466	2020-06-05T15:41:37+00:00	2020-06-05T08:41:37-07:00	2020-06-05T16:11:57+00:00	2020-06-11T06:59:59+00:00	-5	41clnnzxk7t50m1@marketplace.amazon.com	Emilia mazzaferro	+1 210-728-4548 ext. 12728	ABR0022	Purchase Now for Delivery by Tuesday | Arabella Farm Direct Bouquet of 12 Fresh Cut Pink Roses with a Free Glass Vase	1	0	1	Expedited	Evan O'Malley	MMM 2 CRESTVIEW DR			EASTHAMPTON	MA	01027-2745	US			false		
113-9098009-1422653	47479384499762	2020-06-05T16:45:51+00:00	2020-06-05T09:45:51-07:00	2020-06-05T17:14:09+00:00	2020-06-11T06:59:59+00:00	-5	x6qjkj7hnk6nvjp@marketplace.amazon.com	Jason Roteman	+1 210-728-4548 ext. 17390	ABR0022	Purchase Now for Delivery by Tuesday | Arabella Farm Direct Bouquet of 12 Fresh Cut Pink Roses with a Free Glass Vase	1	0	1	Expedited	Chrissy	3540 NORTON RD			HOWELL	MI	48843-8983	US		You picked 'em, you got 'em.  Hope these make you smile like you do me. From Jason	false		
112-2084056-7503421	10363873858154	2020-06-05T16:49:28+00:00	2020-06-05T09:49:28-07:00	2020-06-05T17:27:07+00:00	2020-06-11T06:59:59+00:00	-5	nzkmx8pbt3s5kf2@marketplace.amazon.com	justin lymon	+1 314-282-9402 ext. 92329	ABR0022	Purchase Now for Delivery by Tuesday | Arabella Farm Direct Bouquet of 12 Fresh Cut Pink Roses with a Free Glass Vase	1	0	1	Expedited	Azaliah Knox-Bell	426 VALLEY HI CIR APT 303			COLORADO SPRINGS	CO	80910-2649	US			false		
111-6809153-6090620	06115277313978	2020-06-05T17:35:08+00:00	2020-06-05T10:35:08-07:00	2020-06-05T18:05:25+00:00	2020-06-11T06:59:59+00:00	-5	mqn256qpvzj924w@marketplace.amazon.com	Ryan	+1 347-448-3190 ext. 64563	ABR0022	Purchase Now for Delivery by Tuesday | Arabella Farm Direct Bouquet of 12 Fresh Cut Pink Roses with a Free Glass Vase	1	0	1	Expedited	Ryan	79 ELM ST APT 2			NASHUA	NH	03060-6474	US			false		
113-2355858-3716206	16771602370154	2020-06-05T18:16:22+00:00	2020-06-05T11:16:22-07:00	2020-06-05T18:45:47+00:00	2020-06-11T06:59:59+00:00	-5	k4hj25qsxjbznb4@marketplace.amazon.com	John	+1 210-728-4548 ext. 49473	ABR0022	Purchase Now for Delivery by Tuesday | Arabella Farm Direct Bouquet of 12 Fresh Cut Pink Roses with a Free Glass Vase	1	0	1	Expedited	John Sherrill	130 RED OAK CT			CARMEL	IN	46033-1967	US		Two years together!  Thank you for sharing your life with me...I love you more every day!  -J	false		
114-2255689-8334605	67648103158314	2020-06-05T18:41:59+00:00	2020-06-05T11:41:59-07:00	2020-06-05T19:10:54+00:00	2020-06-11T06:59:59+00:00	-5	rcd948lfc3s0kr2@marketplace.amazon.com	Jennifer Anderson	+1 210-728-4548 ext. 23040	ABM0044	Purchase Now for Delivery by Tuesday | Arabella Farm Direct Bouquet of Fresh Cut Blue Hydrangea with a Free Glass Vase	1	0	1	Expedited	Mary McGee	10640 WATONGA RD			CHESTERTOWN	MD	21620-3617	US		Hope you feel better! Or suffer in Catholic trained silence, love us!! From Dad	false		
111-7823762-3255455	32268127456122	2020-06-05T18:52:37+00:00	2020-06-05T11:52:37-07:00	2020-06-05T19:21:03+00:00	2020-06-11T06:59:59+00:00	-5	gk80l81spggz9rd@marketplace.amazon.com	Eeva Lungin	+1 314-282-9402 ext. 71558	ABR0033	Purchase Now for Delivery by Tuesday | Arabella Farm Direct Bouquet of 12 Fresh Cut Orange Roses with a Free Glass Vase	1	0	1	Expedited	Valerie Moens	4733 W PATTERSON AVE			CHICAGO	IL	60641-3613	US		Dear Valerie!  Thank you for brightening our Saturdays with Zumba. We appreciate you very much. Hugs! From Eeva Lungin	false		
114-9834934-0877064	31537179062714	2020-06-05T19:24:59+00:00	2020-06-05T12:24:59-07:00	2020-06-05T19:54:31+00:00	2020-06-11T06:59:59+00:00	-5	kxpllhvc7rvh6xk@marketplace.amazon.com	Daniel	+1 347-448-3190 ext. 07961	ABR0022	Purchase Now for Delivery by Tuesday | Arabella Farm Direct Bouquet of 12 Fresh Cut Pink Roses with a Free Glass Vase	1	0	1	Expedited	Daniel R Petersen	C/O BETTY PETERSEN	300 S CLINTON ST APT 5D		DENVER	CO	80247-1273	US			false		
113-9666971-2762665	63020125016050	2020-06-05T19:43:37+00:00	2020-06-05T12:43:37-07:00	2020-06-05T20:10:52+00:00	2020-06-11T06:59:59+00:00	-5	xrgpmdfq6yw23x8@marketplace.amazon.com	Micheal	+1 347-448-3190 ext. 23959	ABR001	Purchase Now for Delivery by Tuesday | Arabella Bouquets 12 Stems of Fresh Cut Red Roses in a Free Designer Glass Vase	1	0	1	Expedited	Mackenzie glass	21 GAMAY CT APT B1			RED BLUFF	CA	96080-2927	US		Just because From Micheal	false		
111-2134522-4102636	37461988396066	2020-06-05T20:04:39+00:00	2020-06-05T13:04:39-07:00	2020-06-05T20:29:55+00:00	2020-06-11T06:59:59+00:00	-5	bs2h7x0jt3q2dnv@marketplace.amazon.com	Janet Boetsch	+1 347-448-3190 ext. 96113	ABR0033	Purchase Now for Delivery by Tuesday | Arabella Farm Direct Bouquet of 12 Fresh Cut Orange Roses with a Free Glass Vase	1	0	1	Expedited	Lakehouse Hotel ATTN: Morgan, Jordan, Taylor	1025 LA BONITA DR			SAN MARCOS	CA	92078-5220	US		Morgan, Jordan & Taylor, Thank you for your excellent service & willingness to work with us! We appreciate it! John & Janet Boetsch From John & Janet Boetsch	false		
114-8980436-9221066	49371721794458	2020-06-05T20:19:43+00:00	2020-06-05T13:19:43-07:00	2020-06-05T20:49:21+00:00	2020-06-11T06:59:59+00:00	-5	x25mxpz6yvft10h@marketplace.amazon.com	ROBERT PETERS	+1 347-448-3190 ext. 49695	ABR0022	Purchase Now for Delivery by Tuesday | Arabella Farm Direct Bouquet of 12 Fresh Cut Pink Roses with a Free Glass Vase	1	0	1	Expedited	robert d peters	2022 allenwood road			wall	NJ	07719	US			false		
113-8961958-3529835	36813854195834	2020-06-05T20:41:31+00:00	2020-06-05T13:41:31-07:00	2020-06-05T21:07:00+00:00	2020-06-11T06:59:59+00:00	-5	p7frpjmc77k0kzp@marketplace.amazon.com	Maureen Bausch	+1 210-728-4548 ext. 84977	ABR0022	Purchase Now for Delivery by Tuesday | Arabella Farm Direct Bouquet of 12 Fresh Cut Pink Roses with a Free Glass Vase	1	0	1	Expedited	cate westphalen	3007 HAYWARD CT			BELLINGHAM	WA	98226-9474	US		Cate, you are the kindest, most generous, and wonderful person.  My heart is with you now.  You are in my thoughts and prayers every day.  Love always, Maureen From Maureen Bausch	false		
111-9047292-1411438	66859844222362	2020-06-05T20:58:22+00:00	2020-06-05T13:58:22-07:00	2020-06-05T21:33:39+00:00	2020-06-11T06:59:59+00:00	-5	ldw76r56d9y6kk9@marketplace.amazon.com	Renato Marroquin	+1 347-448-3190 ext. 35426	ABR0022	Purchase Now for Delivery by Tuesday | Arabella Farm Direct Bouquet of 12 Fresh Cut Pink Roses with a Free Glass Vase	1	0	1	Expedited	Nelly Hernandez	13 ROUND HILL ST APT A			JAMAICA PLAIN	MA	02130-1205	US		Solamente para dejarle saver que la Queremos mucho y la extranamos	false		
114-1081657-1681007	32469743834370	2020-06-05T21:15:15+00:00	2020-06-05T14:15:15-07:00	2020-06-05T21:35:37+00:00	2020-06-11T06:59:59+00:00	-5	wdqg8v75r7rcgqn@marketplace.amazon.com	patricia price	704-214+3554	ABM010	Purchase Now for Delivery by Tuesday | Arabella Bouquets | Fields of The World Bouquet of Fresh Cut Flowers in a Free Designer Glass Vase	1	0	1	Expedited	Haley Neelsen	801 S MAIN ST APT 73			MT HOLLY	NC	28120-2052	US			false		
113-4679834-4632246	41058155621762	2020-06-05T21:26:30+00:00	2020-06-05T14:26:30-07:00	2020-06-05T21:43:05+00:00	2020-06-11T06:59:59+00:00	-5	j1pq0r810jvnxj9@marketplace.amazon.com	Carla Petroro	+1 347-448-3190 ext. 99878	ABR001	Purchase Now for Delivery by Tuesday | Arabella Bouquets 12 Stems of Fresh Cut Red Roses in a Free Designer Glass Vase	1	0	1	Expedited	Chi Chi Lovett	3850 TUNLAW RD NW APT 209			WASHINGTON	DC	20007-4853	US		Hey Chi Chi Happy Happy Birthday. With all my love. Frannie P.S.  I know your bday is June 15th.  I just wanted to make sure it got to you on time, lol.	false		
114-7192223-9999466	42669531415810	2020-06-05T21:37:44+00:00	2020-06-05T14:37:44-07:00	2020-06-05T22:07:19+00:00	2020-06-11T06:59:59+00:00	-5	7zlp4wg2tvcmnl4@marketplace.amazon.com	Patricia Moran	+1 210-728-4548 ext. 06454	ABR012	Arabella Farm Direct Bouquet of 18 Fresh Cut Pink Roses with a Free Glass Vase	1	0	1	Expedited	Tom Moran	487 HERITAGE DR			GETTYSBURG	PA	17325-8942	US			false		
113-5715897-1699419	29031840648354	2020-06-05T21:40:08+00:00	2020-06-05T14:40:08-07:00	2020-06-05T22:07:52+00:00	2020-06-11T06:59:59+00:00	-5	gldqb7h0w3x70lp@marketplace.amazon.com	Sandra Wheeler	+1 210-728-4548 ext. 11959	ABR0066	Purchase Now for Delivery by Tuesday | Arabella Bouquets | 12 Stems of Fresh Cut White Roses in a Free Designer Glass Vase	1	0	1	Expedited	The Family of Gina Louise Marenche	24924 S CENTER ST			CHANNAHON	IL	60410-5003	US		I am so sorry for your loss. Gina was a wonderful, sweet person, and a caring nurse. It was my honor to have her as part of my team in my classroom this past school year. She will be missed. From Sandra Wheeler	false		
111-4903775-9540237	16246333123170	2020-06-05T21:42:06+00:00	2020-06-05T14:42:06-07:00	2020-06-05T22:08:28+00:00	2020-06-11T06:59:59+00:00	-5	b8m9ngmhl4pxs8w@marketplace.amazon.com	Patricia	+1 314-282-9402 ext. 22252	ABM010	Purchase Now for Delivery by Tuesday | Arabella Bouquets | Fields of The World Bouquet of Fresh Cut Flowers in a Free Designer Glass Vase	1	0	1	Expedited	Joan Ingemi	618 S CORPINO DE PECHO			GREEN VALLEY	AZ	85614-1923	US		Enjoy your gift!  Love from Pat & Mike❤️ From Patricia	false		
112-6586264-6054659	68742830868370	2020-06-05T22:17:57+00:00	2020-06-05T15:17:57-07:00	2020-06-05T22:41:14+00:00	2020-06-11T06:59:59+00:00	-5	xt462y1qn82ccny@marketplace.amazon.com	william e brady	+1 210-728-4548 ext. 25279	ABR0055	Purchase Now for Delivery by Tuesday | Arabella Farm Direct Bouquet of 12 Stems of Fresh Cut Hot Pink Roses in a Free Designer Glass Vase	1	0	1	Expedited	Alice Funston	85 PIPELINE RD			NEWVILLE	PA	17241-9759	US			false		
112-3463180-6137854	13265530948890	2020-06-05T22:19:32+00:00	2020-06-05T15:19:32-07:00	2020-06-05T22:49:06+00:00	2020-06-11T06:59:59+00:00	-5	nm7xb6hy010dn44@marketplace.amazon.com	Julianne A Henley	+1 347-448-3190 ext. 38045	ABR012	Arabella Farm Direct Bouquet of 18 Fresh Cut Pink Roses with a Free Glass Vase	1	0	1	Expedited	Kathy Buckley	4056 HILLCREST AVE SW			SEATTLE	WA	98116-3551	US		Thank you for your help with my maternity leave!  Lindsey and I will try not to bug you, but I appreciate you being willing to help out in a pinch! :) From Julianne A Henley	false		
112-1753690-7245003	11708135485578	2020-06-05T22:50:40+00:00	2020-06-05T15:50:40-07:00	2020-06-05T23:12:12+00:00	2020-06-11T06:59:59+00:00	-5	y6sgw93tw181yfs@marketplace.amazon.com	Leslie R. Kovac	+1 347-448-3190 ext. 30979	ABR0033	Purchase Now for Delivery by Tuesday | Arabella Farm Direct Bouquet of 12 Fresh Cut Orange Roses with a Free Glass Vase	1	0	1	Expedited	Maureen Kovac	1902 10TH AVE W			SEATTLE	WA	98119-2822	US		Hi Maureen, Enjoy your gift! Happy Birthday! Love, Leslie  and Arky	false		
112-0355034-0078629	23570220682906	2020-06-05T23:25:50+00:00	2020-06-05T16:25:50-07:00	2020-06-05T23:54:31+00:00	2020-06-11T06:59:59+00:00	-5	fyzmhfrmr33rb2t@marketplace.amazon.com	Harrison	+1 210-728-4548 ext. 91759	ABR001	Purchase Now for Delivery by Tuesday | Arabella Bouquets 12 Stems of Fresh Cut Red Roses in a Free Designer Glass Vase	1	0	1	Expedited	Tabitha LeeAnn Halstead	4111 W VERNAL PIKE TRLR 93			BLOOMINGTON	IN	47404-2570	US		Honey, just as the Rose fill the air with its fragrance, you have filled my life with Love and Joy. I sent you these Roses as a symbol of my endless Love for you. From Sebastian	false		
113-9180922-4633809	14443054576810	2020-06-05T23:26:10+00:00	2020-06-05T16:26:10-07:00	2020-06-05T23:55:26+00:00	2020-06-11T06:59:59+00:00	-5	qfwmhrp3ljzhzws@marketplace.amazon.com	Ruslan	+1 347-448-3190 ext. 63667	ABR012	Arabella Farm Direct Bouquet of 18 Fresh Cut Pink Roses with a Free Glass Vase	1	0	1	Expedited	Vita Kupets	869 E 14TH ST			NEW YORK	NY	11230	US			false		
111-2769531-8635427	17939040621922	2020-06-06T00:11:49+00:00	2020-06-05T17:11:49-07:00	2020-06-06T00:37:51+00:00	2020-06-11T06:59:59+00:00	-5	8jkh4tcdv7kxh0b@marketplace.amazon.com	lydia fasulo	+1 210-728-4548 ext. 12543	ABR004	Arabella Farm Direct Bouquet of 12 Fresh Cut Yellow Roses with a Free Glass Vase	1	0	1	Expedited	Bobby and Erlinda Jimenéz	36244 PURSH DR			LAKE ELSINORE	CA	92532-2566	US		Enjoy your gift! With so much happening, you manage to handle it all with grace. My brother Bobby and Erlinda this is just a small cheer for all you do. Love always your sister, Lydia Fasulo Jimenéz From lydia fasulo	false		
112-8660388-7030668	45798827378578	2020-06-06T00:10:37+00:00	2020-06-05T17:10:37-07:00	2020-06-06T00:38:36+00:00	2020-06-11T06:59:59+00:00	-5	kpb3t431lvp38b2@marketplace.amazon.com	pr dyer	+1 210-728-4548 ext. 91064	ABM010	Purchase Now for Delivery by Tuesday | Arabella Bouquets | Fields of The World Bouquet of Fresh Cut Flowers in a Free Designer Glass Vase	1	0	1	Expedited	G.S. Dyer	1310 CONCORD RD			MOHAWK	TN	37810-5230	US			false		
111-1769974-8396209	57709900347930	2020-06-06T00:20:41+00:00	2020-06-05T17:20:41-07:00	2020-06-06T00:42:09+00:00	2020-06-11T06:59:59+00:00	-5	hcc2s5wfn1l432t@marketplace.amazon.com	Sandra Tredwell	+1 347-448-3190 ext. 20033	ABR014	Purchase Now for Delivery by Tuesday | Arabella Bouquets 18 Stems of Fresh Cut White Roses in a Free Designer Glass Vase	1	0	1	Standard	Gail Gallaudet	79225 TORONJA			LA QUINTA	CA	92253-6563	US		Hi Gail, Happy happy birthday....these should last 2 weeks!! From Sandra Tredwell	false		
111-2405722-0252213	38818228710722	2020-06-06T00:18:06+00:00	2020-06-05T17:18:06-07:00	2020-06-06T00:47:21+00:00	2020-06-11T06:59:59+00:00	-5	qtv714xmcmqrjy7@marketplace.amazon.com	John W Gingrich	+1 347-448-3190 ext. 93169	ABR0022	Purchase Now for Delivery by Tuesday | Arabella Farm Direct Bouquet of 12 Fresh Cut Pink Roses with a Free Glass Vase	1	0	1	Expedited	John Gingrich	27 SOUTH ST			ASHLAND	MA	01721-2264	US			false		
114-2462097-9423427	15674029494066	2020-06-06T00:21:17+00:00	2020-06-05T17:21:17-07:00	2020-06-06T00:48:25+00:00	2020-06-11T06:59:59+00:00	-5	16rt1k6lmnfvsx4@marketplace.amazon.com	Jacqueline Danzy	+1 347-448-3190 ext. 14490	ABR004	Arabella Farm Direct Bouquet of 12 Fresh Cut Yellow Roses with a Free Glass Vase	1	0	1	Standard	Sheila kuzmik	982 HARBORAGE HEIGHTS TRL			BOYNE CITY	MI	49712-9807	US		I wish you a speedy recovery. From Jacqueline Danzy	false		
111-6881888-9518608	69697341919706	2020-06-06T00:37:55+00:00	2020-06-05T17:37:55-07:00	2020-06-06T01:06:10+00:00	2020-06-11T06:59:59+00:00	-5	46jx9s8yygg3b6v@marketplace.amazon.com	snigdha chandra	+1 412-532-4665 ext. 48393	ABM010	Purchase Now for Delivery by Tuesday | Arabella Bouquets | Fields of The World Bouquet of Fresh Cut Flowers in a Free Designer Glass Vase	1	0	1	Expedited	Sankrith	3855 ISLAND WAY			ST PETERSBURG	FL	33705-6450	US		Love eklavya From Eklavaya	false		
113-0285743-1281838	33480488734522	2020-06-06T00:54:54+00:00	2020-06-05T17:54:54-07:00	2020-06-06T01:21:51+00:00	2020-06-11T06:59:59+00:00	-5	l4f7t0knq47fzzh@marketplace.amazon.com	Steve Ramsey	+1 347-448-3190 ext. 36421	ABM010	Purchase Now for Delivery by Tuesday | Arabella Bouquets | Fields of The World Bouquet of Fresh Cut Flowers in a Free Designer Glass Vase	1	0	1	Expedited	Janelle Gigante	9511 PEARL CIR UNIT 204			PARKER	CO	80134-4201	US		Not all heroes wear capes!  Be safe.  Much love! Jackson, Chris, and Kat From Steve Ramsey	false		
111-5424367-3966660	47878059672770	2020-06-06T01:57:39+00:00	2020-06-05T18:57:39-07:00	2020-06-06T02:16:13+00:00	2020-06-11T06:59:59+00:00	-5	32bxlcxqf3wrk1y@marketplace.amazon.com	Mendy Fontaine	+1 314-282-9402 ext. 51880	ABR0055	Purchase Now for Delivery by Tuesday | Arabella Farm Direct Bouquet of 12 Stems of Fresh Cut Hot Pink Roses in a Free Designer Glass Vase	1	0	1	Expedited	Sonya Knapp	326 E DIVISION ST APT 2			BOYNE CITY	MI	49712-1571	US		Love you very very much!!! From Mendy Fontaine	false		
111-9321442-9744248	16354361868674	2020-06-06T02:02:25+00:00	2020-06-05T19:02:25-07:00	2020-06-06T02:18:51+00:00	2020-06-11T06:59:59+00:00	-5	gf61bd9pdq87y6q@marketplace.amazon.com	Ilene Farr	+1 210-728-4548 ext. 76725	ABR0055	Purchase Now for Delivery by Tuesday | Arabella Farm Direct Bouquet of 12 Stems of Fresh Cut Hot Pink Roses in a Free Designer Glass Vase	1	0	1	Expedited	Miss Sierra Castro	1426 MARYLAND HEIGHTS AVE			LAS VEGAS	NV	89183-7931	US			false		
111-0104738-0691431	42555305738090	2020-06-06T02:33:04+00:00	2020-06-05T19:33:04-07:00	2020-06-06T03:03:27+00:00	2020-06-11T06:59:59+00:00	-5	9m20kfj7srpp6b0@marketplace.amazon.com	darleen	+1 347-448-3190 ext. 16864	ABR0022	Purchase Now for Delivery by Tuesday | Arabella Farm Direct Bouquet of 12 Fresh Cut Pink Roses with a Free Glass Vase	1	0	1	Expedited	darleen	4216 S BOZEMAN ST UPPER UNIT			SEATTLE	WA	98118-4108	US			false		
112-2786284-6221838	01551316314346	2020-06-06T02:37:46+00:00	2020-06-05T19:37:46-07:00	2020-06-06T03:04:25+00:00	2020-06-11T06:59:59+00:00	-5	fst7nkwqh6hjj86@marketplace.amazon.com	Guisela Inga	+1 210-728-4548 ext. 18800	ABR0022	Purchase Now for Delivery by Tuesday | Arabella Farm Direct Bouquet of 12 Fresh Cut Pink Roses with a Free Glass Vase	1	0	1	Expedited	Ines Inga	50 LEADER RD SE			MARIETTA	GA	30008-3312	US		Mimi, rosas para alegrarte el día en medio de tantas noticias tristes. Sonríe porque tienes una familia que te quiere mucho y se preocupa por ti. Te queremos mucho! Michael, Guisela, Ivan & Snoopy ❤️ From Los Inga-Gustafson	false		
114-5212962-8550618	21716934678994	2020-06-06T02:46:54+00:00	2020-06-05T19:46:54-07:00	2020-06-06T03:13:55+00:00	2020-06-11T06:59:59+00:00	-5	xrv4l4p32mjypk1@marketplace.amazon.com	V Snowdon	+1 412-532-4665 ext. 63371	ABR0022	Purchase Now for Delivery by Tuesday | Arabella Farm Direct Bouquet of 12 Fresh Cut Pink Roses with a Free Glass Vase	1	0	1	Expedited	MRS. ANN BEADLING	OAKBRIDGE TERRACE BUILDING	3950 VILLAGE VIEW DR APT 229		GAINESVILLE	GA	30506-4364	US		DEAR NANNY,  WE LOVE YOU!!!! YOU ARE ALWAYS IN OUR HEARTS!!!   SENDING BIG HUGS & KISSES! LOVE, WILL, JACK, & BEA xoxo From WILL, JACK, AND BEA!!! xoxo	false		
112-0870851-2793059	25100958017922	2020-06-06T02:57:21+00:00	2020-06-05T19:57:21-07:00	2020-06-06T03:24:43+00:00	2020-06-11T06:59:59+00:00	-5	3bb5t2h7ds5f9hb@marketplace.amazon.com	Annette M. Cortese	+1 210-728-4548 ext. 18811	ABR0022	Purchase Now for Delivery by Tuesday | Arabella Farm Direct Bouquet of 12 Fresh Cut Pink Roses with a Free Glass Vase	1	0	1	Expedited	Marge Cortese	6523 N TROY ST			CHICAGO	IL	60645-4118	US		Just a little something to brighten your day. Love you! From Annette and Donna	false		
114-3671495-0802660	20451838869666	2020-06-06T04:12:16+00:00	2020-06-05T21:12:16-07:00	2020-06-06T04:40:09+00:00	2020-06-11T06:59:59+00:00	-5	m0syr2ssl1r6210@marketplace.amazon.com	christine weiss	+1 210-728-4548 ext. 51943	ABR0066	Purchase Now for Delivery by Tuesday | Arabella Bouquets | 12 Stems of Fresh Cut White Roses in a Free Designer Glass Vase	1	0	1	Expedited	Jessica Ganucheau	1500 S LAMAR BLVD APT 1046			AUSTIN	TX	78704-2942	US		Happy 1st Anniversary.  Plan to celebrate many more together Love, Mom and Dad From christine weiss	false		
114-7862560-6521011	55086136249386	2020-06-06T04:23:00+00:00	2020-06-05T21:23:00-07:00	2020-06-06T04:52:23+00:00	2020-06-11T06:59:59+00:00	-5	76r56phj60xqrqd@marketplace.amazon.com	Sarah Russell	+1 210-728-4548 ext. 63033	ABR012	Arabella Farm Direct Bouquet of 18 Fresh Cut Pink Roses with a Free Glass Vase	1	0	1	Expedited	cassie pearl	911 LAMPPOST LN			BLOOMFIELD HILLS	MI	48304-1942	US		Congratulations! We are so excited for you all! Sorry we cannot be there in person but let us know if there is anything you need! From Sarah and Alan	false		
111-7406495-0823415	41001498586506	2020-06-06T04:33:16+00:00	2020-06-05T21:33:16-07:00	2020-06-06T05:01:30+00:00	2020-06-11T06:59:59+00:00	-5	mps6b7mchtm61t8@marketplace.amazon.com	Nathan M Welch	+1 347-448-3190 ext. 72772	ABB005	Arabella Bouquets 24 Stems of Fresh Cut Red Roses in a Designer Glass Vase	1	0	1	Expedited	Nathan M Welch	10 E LEE ST APT 1807			BALTIMORE	MD	21202-6021	US		One rose for every month we've been married ... and one rose for every month of the coming year together too! It keeps getting better and better. Keep it coming! From Love, Nathan	false		
112-4579130-2303433	45824736813866	2020-06-06T04:59:19+00:00	2020-06-05T21:59:19-07:00	2020-06-06T05:29:48+00:00	2020-06-11T06:59:59+00:00	-5	h6n8mjlvdxd9j6f@marketplace.amazon.com	Todd Eric Efthimiou	+1 347-448-3190 ext. 96706	ABM010	Purchase Now for Delivery by Tuesday | Arabella Bouquets | Fields of The World Bouquet of Fresh Cut Flowers in a Free Designer Glass Vase	1	0	1	Expedited	Brooke Brown	2850 N SHERIDAN RD APT 319			CHICAGO	IL	60657-6126	US			false		
112-1531598-8669066	25696677166130	2020-06-06T06:11:03+00:00	2020-06-05T23:11:03-07:00	2020-06-06T06:38:58+00:00	2020-06-09T06:59:59+00:00	-3	qjsnnm5vm46qs7b@marketplace.amazon.com	jason melcher	+1 210-728-4548 ext. 56026	ABR0022	Purchase Now for Delivery by Tuesday | Arabella Farm Direct Bouquet of 12 Fresh Cut Pink Roses with a Free Glass Vase	1	0	1	SecondDay	Snow	1538 SALLAL RD			WOODBURN	OR	97071-2520	US		I will always care about you Anne  I am truly sorry for the hell I put you through  Hopefully someday you’ll trust me again From Jay	false		
112-5800940-1570649	65416176359034	2020-06-06T09:38:34+00:00	2020-06-06T02:38:34-07:00	2020-06-06T10:03:30+00:00	2020-06-09T06:59:59+00:00	-3	9182tvskpd3gk5c@marketplace.amazon.com	Crystal Caprietta	+1 314-282-9402 ext. 76960	ABM002	Purchase Now for Delivery by Tuesday | Arabella Bouquets Fresh Cut White Calla Lilies in a Free Designer Glass Vase	1	0	1	SecondDay	Crystal Caprietta	16811 144TH TER			JAMAICA	NY	11434-5104	US			false		
113-2268034-0894627	42547389744810	2020-06-06T10:21:48+00:00	2020-06-06T03:21:48-07:00	2020-06-06T10:43:41+00:00	2020-06-09T06:59:59+00:00	-3	zt3rv13qcvz09q4@marketplace.amazon.com	Rajeev Srivastava	+1 314-282-9402 ext. 73502	ABM010	Purchase Now for Delivery by Tuesday | Arabella Bouquets | Fields of The World Bouquet of Fresh Cut Flowers in a Free Designer Glass Vase	1	0	1	SecondDay	Kirpa c/o Achint Kaur	12335 PREAKNESS CIRCLE LN			CLARKSVILLE	MD	21029-1227	US		Happy 21st Birthday, dearest Kirpa , From Love , The Srivastavas	false		
111-2766795-6468269	09842751009418	2020-06-06T10:26:52+00:00	2020-06-06T03:26:52-07:00	2020-06-06T10:56:41+00:00	2020-06-09T06:59:59+00:00	-3	qmfg2q8ktzy5wcw@marketplace.amazon.com	youngwoo kim	+1 314-282-9402 ext. 95106	ABM0044	Purchase Now for Delivery by Tuesday | Arabella Farm Direct Bouquet of Fresh Cut Blue Hydrangea with a Free Glass Vase	1	0	1	SecondDay	YERIM KIM	FIRST FLOOR 3000 W OLYMPIC BLVD			LOS ANGELES	CA	90006-2567	US			false		
114-6246235-3322610	03502572866130	2020-06-06T10:42:22+00:00	2020-06-06T03:42:22-07:00	2020-06-06T11:11:59+00:00	2020-06-09T06:59:59+00:00	-3	s0tr5xjyf85mbx7@marketplace.amazon.com	Cynthia L. Kolberg	001 (709) 609-3488	ABM010	Purchase Now for Delivery by Tuesday | Arabella Bouquets | Fields of The World Bouquet of Fresh Cut Flowers in a Free Designer Glass Vase	1	0	1	SecondDay	Babette and Chuck Smith	339 BELLE OAKS DR			SIMPSONVILLE	SC	29680-7683	US			false		
