order-id	order-item-id	purchase-date	payments-date	reporting-date	promise-date	days-past-promise	buyer-email	buyer-name	buyer-phone-number	sku	product-name	quantity-purchased	quantity-shipped	quantity-to-ship	ship-service-level	recipient-name	ship-address-1	ship-address-2	ship-address-3	ship-city	ship-state	ship-postal-code	ship-country	gift-wrap-type	gift-message-text	is-business-order	purchase-order-number	price-designation
111-2762640-2107410	05380402437978	2020-06-06T11:35:19+00:00	2020-06-06T04:35:19-07:00	2020-06-06T12:00:32+00:00	2020-06-09T06:59:59+00:00	-3	yr9dz8gxhrb768c@marketplace.amazon.com	Thomas	+1 314-282-9402 ext. 88278	ABR0033	Purchase Now for Delivery by Tuesday | Arabella Farm Direct Bouquet of 12 Fresh Cut Orange Roses with a Free Glass Vase	1	0	1	SecondDay	Sixta Welch	1185 AVENIDA GANDARA			RIO RICO	AZ	85648-3315	US		If I know what love is, it is because of you. From Thomas	false		
114-0276587-7721074	36822433632370	2020-06-06T12:09:31+00:00	2020-06-06T05:09:31-07:00	2020-06-06T12:35:26+00:00	2020-06-09T06:59:59+00:00	-3	m0ml9ml882g4grf@marketplace.amazon.com	Koriann Arpaia Roberts	+1 347-448-3190 ext. 03154	ABR015	Purchase Now for Delivery by Tuesday | Arabella Farm Direct Bouquet of 18 Fresh Cut Orange Roses with a Free Glass Vase	1	0	1	SecondDay	Jennifer Derby	140 SW 128TH ST APT 303			NEWBERRY	FL	32669-3396	US		Last week was dumb butyou are one of the strongest people I know so brush it off and look to your future. You got this! And when you don't just look at these gorgeous flowers and know you have alot of people on your side. Kor From Koriann Roberts	false		
112-3030499-1877059	08833719692122	2020-06-06T12:17:10+00:00	2020-06-06T05:17:10-07:00	2020-06-06T12:43:44+00:00	2020-06-09T06:59:59+00:00	-3	13m5h7v6mjv1t9z@marketplace.amazon.com	christine	+1 347-448-3190 ext. 67935	ABR0022	Purchase Now for Delivery by Tuesday | Arabella Farm Direct Bouquet of 12 Fresh Cut Pink Roses with a Free Glass Vase	1	0	1	SecondDay	Nicole Sharpe	10746 DEERBERRY DR			LAND O LAKES	FL	34638-6892	US		We are so sorry for the loss of your brother.  Please know you are in our thoughts & prayers.  Love, Jim, Chris & Matthew From christine	false		
112-1592716-5107465	10296888523474	2020-06-06T12:32:10+00:00	2020-06-06T05:32:10-07:00	2020-06-06T13:02:08+00:00	2020-06-09T06:59:59+00:00	-3	zv7v85fljczpzlf@marketplace.amazon.com	Jasmine Cendra	+1 347-448-3190 ext. 32760	ABM002	Purchase Now for Delivery by Tuesday | Arabella Bouquets Fresh Cut White Calla Lilies in a Free Designer Glass Vase	1	0	1	SecondDay	Sharone Hodara	50 West street	Apt 51C		New York	New York	10006	US			false		
114-9158173-3985032	25748436745818	2020-06-06T12:48:46+00:00	2020-06-06T05:48:46-07:00	2020-06-06T13:14:54+00:00	2020-06-09T06:59:59+00:00	-3	j8y9mbpkjq405nf@marketplace.amazon.com	Marcus Roberts	+1 314-282-9402 ext. 91822	ABR0022	Purchase Now for Delivery by Tuesday | Arabella Farm Direct Bouquet of 12 Fresh Cut Pink Roses with a Free Glass Vase	1	0	1	SecondDay	Jasmine Roman	9105 NW 25TH ST			DORAL	FL	33172-1500	US		Know you haven’t been feeling well. Hope this brightens your day and many days to come. You are the sunshine through anything that comes through way. Stay beautiful and Bless From MJR	false		
111-0993833-4213839	15337864535546	2020-06-06T13:13:48+00:00	2020-06-06T06:13:48-07:00	2020-06-06T13:23:47+00:00	2020-06-09T06:59:59+00:00	-3	1kyd3p9qj7n20sg@marketplace.amazon.com	T. O.  FAWEHINMI	+1 347-448-3190 ext. 87888	ABR0022	Purchase Now for Delivery by Tuesday | Arabella Farm Direct Bouquet of 12 Fresh Cut Pink Roses with a Free Glass Vase	1	0	1	SecondDay	Mrs Titilayo Adelayo	1312 MOTLEY DR			MELISSA	TX	75454-0354	US		Happy Birthday to the World's Best Grandmother!  This is a special celebration of our super grandma. Pretty pink flowers for our precious perfect grandma! With loads and loads of love from your children and grandchildren in England	false		
113-5501981-6803455	13291261164058	2020-06-06T13:01:08+00:00	2020-06-06T06:01:08-07:00	2020-06-06T13:31:21+00:00	2020-06-09T06:59:59+00:00	-3	n6lg4255klyr71q@marketplace.amazon.com	Elizabeth	+1 347-448-3190 ext. 54335	ABR0022	Purchase Now for Delivery by Tuesday | Arabella Farm Direct Bouquet of 12 Fresh Cut Pink Roses with a Free Glass Vase	1	0	1	SecondDay	Marina Rozovsky	2617 E 17TH ST APT 5C			BROOKLYN	NY	11235-3833	US			false		
111-6796888-7501056	51637648727650	2020-06-06T13:11:40+00:00	2020-06-06T06:11:40-07:00	2020-06-06T13:41:20+00:00	2020-06-09T06:59:59+00:00	-3	jyg7r1bc0flg5ks@marketplace.amazon.com	K. Merryman	+1 347-448-3190 ext. 42712	ABR0066	Purchase Now for Delivery by Wednesday | Arabella Bouquets | 12 Stems of Fresh Cut White Roses in a Free Designer Glass Vase	1	0	1	SecondDay	Joan Merryman	2111 OUR LN			STEVENSON	MD	21153-0672	US			false		
111-6382436-4501050	03955748652002	2020-06-06T14:00:07+00:00	2020-06-06T07:00:07-07:00	2020-06-06T14:29:59+00:00	2020-06-09T06:59:59+00:00	-3	pwhkwlqsp007lwl@marketplace.amazon.com	Tom Di Bernardo	+1 347-448-3190 ext. 86741	ABR0055	Purchase Now for Delivery by Wednesday | Arabella Farm Direct Bouquet of 12 Stems of Fresh Cut Hot Pink Roses in a Free Designer Glass Vase	1	0	1	SecondDay	Elizabeth Smurawski	7441 DOROTHY LN			TINLEY PARK	IL	60477-2483	US			false		
111-4477038-3666631	04733599208146	2020-06-06T14:30:23+00:00	2020-06-06T07:30:23-07:00	2020-06-06T14:56:35+00:00	2020-06-09T06:59:59+00:00	-3	k3ngclbd374ws8g@marketplace.amazon.com	Leon Blakely	+1 210-728-4548 ext. 00677	ABR0066	Purchase Now for Delivery by Wednesday | Arabella Bouquets | 12 Stems of Fresh Cut White Roses in a Free Designer Glass Vase	1	0	1	SecondDay	Shalanda Jones	7894 GOODMAN BRANCH RD NE			LELAND	NC	28451-8727	US		Happy Birthday Lady Bug Enjoy your birthday Shalanda  Love you From Mom and Leon	false		
114-6588298-2690658	05037959888578	2020-06-06T14:29:44+00:00	2020-06-06T07:29:44-07:00	2020-06-06T14:57:57+00:00	2020-06-09T06:59:59+00:00	-3	2mj0d93rm2c7d25@marketplace.amazon.com	Julie Wilson	+1 347-448-3190 ext. 72279	ABR0022	Purchase Now for Delivery by Wednesday | Arabella Farm Direct Bouquet of 12 Fresh Cut Pink Roses with a Free Glass Vase	1	0	1	SecondDay	Marci Hess	3431 E 1200 N			ASHTON	ID	83420-5611	US		Happy Birthday Mommy! I love you so much. I hope your day is as wonderful as you are!   Love Julie Lynn From Julie Wilson	false		
112-0466887-8696231	25727958102666	2020-06-06T14:36:31+00:00	2020-06-06T07:36:31-07:00	2020-06-06T14:59:52+00:00	2020-06-09T06:59:59+00:00	-3	h7mp15wy9xxn4sq@marketplace.amazon.com	Jeanne Foy	+1 347-448-3190 ext. 64924	ABR012	Arabella Farm Direct Bouquet of 18 Fresh Cut Pink Roses with a Free Glass Vase	1	0	1	SecondDay	Wendy Parente	9 VIOLET RD			BAYVILLE	NY	11709-1818	US		Wendy,  We hope you feel better soon! Thinking of you- From Jeanne, Sean, and Aidan	false		
113-6543969-2657865	42943739718234	2020-06-06T14:32:44+00:00	2020-06-06T07:32:44-07:00	2020-06-06T15:00:35+00:00	2020-06-09T06:59:59+00:00	-3	7bfhwrk1f0my69y@marketplace.amazon.com	Juan	+1 210-728-4548 ext. 19640	ABM002	Purchase Now for Delivery by Wednesday | Arabella Bouquets Fresh Cut White Calla Lilies in a Free Designer Glass Vase	1	0	1	SecondDay	Rosario	HOME 220 FOWLER RD			SHELBYVILLE	TN	37160-7288	US			false		
113-4671708-5865068	07832934199186	2020-06-06T15:00:34+00:00	2020-06-06T08:00:34-07:00	2020-06-06T15:31:04+00:00	2020-06-09T06:59:59+00:00	-3	4474fdt03jlzqyk@marketplace.amazon.com	Neil Pineda	+1 210-728-4548 ext. 20600	ABR0022	Purchase Now for Delivery by Wednesday | Arabella Farm Direct Bouquet of 12 Fresh Cut Pink Roses with a Free Glass Vase	1	0	1	SecondDay	Neil Pineda	1653 Charles Drive			Wheeling	IL	60090	US			false		
113-8937955-9873814	18382074532058	2020-06-06T15:09:32+00:00	2020-06-06T08:09:32-07:00	2020-06-06T15:38:58+00:00	2020-06-09T06:59:59+00:00	-3	dz1kyf98jv1lmfj@marketplace.amazon.com	Noriko Takamoto	+1 314-282-9402 ext. 65578	ABM010	Purchase Now for Delivery by Wednesday | Arabella Bouquets | Fields of The World Bouquet of Fresh Cut Flowers in a Free Designer Glass Vase	1	0	1	SecondDay	Erika Lilian Kreuser	1583 SAINT AUGUSTINE CIR			HUBERTUS	WI	53033-9480	US			false		
113-8124109-1933801	12065583944386	2020-06-06T15:45:25+00:00	2020-06-06T08:45:25-07:00	2020-06-06T16:10:12+00:00	2020-06-09T06:59:59+00:00	-3	bn5sy2d0kc8l25w@marketplace.amazon.com	maureen sheridan	+1 347-448-3190 ext. 45428	ABR0022	Purchase Now for Delivery by Wednesday | Arabella Farm Direct Bouquet of 12 Fresh Cut Pink Roses with a Free Glass Vase	1	0	1	SecondDay	Marykate Dimaria	201 POND TER			TOWNSHIP OF WASHINGTON	NJ	07676-5121	US		Hi Marykate, Happy 50 th birthday! I hope you have a wonderful  year! Love, Maureen ❤️	false		
114-6840563-0668214	47461354786026	2020-06-06T15:43:19+00:00	2020-06-06T08:43:19-07:00	2020-06-06T16:11:13+00:00	2020-06-09T06:59:59+00:00	-3	7zkftkvc3b46052@marketplace.amazon.com	Jeff Potts	+1 347-448-3190 ext. 87242	ABR0022	Purchase Now for Delivery by Wednesday | Arabella Farm Direct Bouquet of 12 Fresh Cut Pink Roses with a Free Glass Vase	1	0	1	SecondDay	Miracle Muin	2503 GREENSPIRE CT			CHARLOTTE	NC	28262-1656	US		For my beautiful woman ❤️ From Jeff	false		
114-7890029-8925047	24427680086130	2020-06-06T15:58:09+00:00	2020-06-06T08:58:09-07:00	2020-06-06T16:20:24+00:00	2020-06-09T06:59:59+00:00	-3	5d5c0qbmm0wyln5@marketplace.amazon.com	Ying	+1 314-282-9402 ext. 12896	ABM010	Purchase Now for Delivery by Wednesday | Arabella Bouquets | Fields of The World Bouquet of Fresh Cut Flowers in a Free Designer Glass Vase	1	0	1	SecondDay	Dixie Cook	5427 E LEWIS AVE			PHOENIX	AZ	85008-2615	US		Hi Dixie, Sending you some love from the other side of the world! May you are surrounded with peace, love, faith and comfort  Have a blossoming summer! From Wynona	false		
112-4601290-3954617	49702665827562	2020-06-06T16:14:58+00:00	2020-06-06T09:14:58-07:00	2020-06-06T16:45:38+00:00	2020-06-09T06:59:59+00:00	-3	bcqhmlkkkx4zjzx@marketplace.amazon.com	Catherine Celestin	+1 210-728-4548 ext. 07306	ABR0022	Purchase Now for Delivery by Wednesday | Arabella Farm Direct Bouquet of 12 Fresh Cut Pink Roses with a Free Glass Vase	1	0	1	SecondDay	Lilliam Poltorack	8971 SW 8TH ST			PLANTATION	FL	33324-3723	US			false		
112-6429185-2599468	48217155910338	2020-06-06T16:29:28+00:00	2020-06-06T09:29:28-07:00	2020-06-06T16:55:50+00:00	2020-06-09T06:59:59+00:00	-3	k2s29ynxv3rhzqk@marketplace.amazon.com	Anandhi Bumstead	+1 210-728-4548 ext. 57744	ABM010	Purchase Now for Delivery by Wednesday | Arabella Bouquets | Fields of The World Bouquet of Fresh Cut Flowers in a Free Designer Glass Vase	1	0	1	SecondDay	Melissa Schoenen	7285 HUNTON ST			WARRENTON	VA	20187-2221	US		Hi Melissa, Happy Birthday! Celebrate and have a fabulous day Anandhi	false		
112-4482273-5122644	50097421209858	2020-06-06T16:26:05+00:00	2020-06-06T09:26:05-07:00	2020-06-06T16:56:04+00:00	2020-06-09T06:59:59+00:00	-3	vqlpzwtgtwtfgj6@marketplace.amazon.com	Yenny Toone	+1 347-448-3190 ext. 77890	ABR0022	Purchase Now for Delivery by Wednesday | Arabella Farm Direct Bouquet of 12 Fresh Cut Pink Roses with a Free Glass Vase	1	0	1	SecondDay	Miriam Lopez	140 ELGAR PL APT 29E			BRONX	NY	10475-5205	US			false		
111-9032842-7532204	08049111784994	2020-06-06T16:28:27+00:00	2020-06-06T09:28:27-07:00	2020-06-06T16:58:11+00:00	2020-06-09T06:59:59+00:00	-3	3j6cfcrljpq4rw2@marketplace.amazon.com	Stephon Robinson	+1 210-728-4548 ext. 80445	ABR001	Purchase Now for Delivery by Wednesday | Arabella Bouquets 12 Stems of Fresh Cut Red Roses in a Free Designer Glass Vase	1	0	1	SecondDay	Stephon Robinson	1901 W 84TH ST			LOS ANGELES	CA	90047-2908	US			false		
112-2672252-0452255	37293011443642	2020-06-06T16:55:10+00:00	2020-06-06T09:55:10-07:00	2020-06-06T17:14:50+00:00	2020-06-09T06:59:59+00:00	-3	yy0328dzh6yb62c@marketplace.amazon.com	Hugo	+1 763-225-9463 ext. 63535	ABR0022	Purchase Now for Delivery by Wednesday | Arabella Farm Direct Bouquet of 12 Fresh Cut Pink Roses with a Free Glass Vase	1	0	1	SecondDay	Latasha	5094 MEADOWSWEET DR			PALMDALE	CA	93551-5761	US		Hello honey, a gift from my heart to you and I hope you love it ..... From Noble O. Council	false		
111-6772391-3210649	52737431455834	2020-06-06T16:47:42+00:00	2020-06-06T09:47:42-07:00	2020-06-06T17:18:23+00:00	2020-06-09T06:59:59+00:00	-3	r6g6tbc65vnc6pf@marketplace.amazon.com	David O. Martin	+1 210-728-4548 ext. 81611	ABM010	Purchase Now for Delivery by Wednesday | Arabella Bouquets | Fields of The World Bouquet of Fresh Cut Flowers in a Free Designer Glass Vase	1	0	1	SecondDay	David O. Martin	8717 COUNTY ROUTE 87			HAMMONDSPORT	NY	14840-9789	US			false		
112-7970351-0715410	10455336890498	2020-06-06T16:58:48+00:00	2020-06-06T09:58:48-07:00	2020-06-06T17:25:13+00:00	2020-06-09T06:59:59+00:00	-3	6lsjw1v1pzcy9xv@marketplace.amazon.com	Michael DeCrescenzo	+1 210-728-4548 ext. 22169	ABR0022	Purchase Now for Delivery by Wednesday | Arabella Farm Direct Bouquet of 12 Fresh Cut Pink Roses with a Free Glass Vase	1	0	1	SecondDay	Ann Trozzi	1670 CONKLING AVE			UTICA	NY	13501-5120	US		Thinking of you and hope you feel better soon.  I love you very much. From Love your nephew, Michael	false		
113-1631026-6492269	69872494567762	2020-06-06T17:03:33+00:00	2020-06-06T10:03:33-07:00	2020-06-06T17:30:18+00:00	2020-06-09T06:59:59+00:00	-3	djxyfsjqzw21x77@marketplace.amazon.com	Gail Grossman	+1 314-282-9402 ext. 59435	ABM019	Arabella Bouquets | The Desert Sun Bouquet in a Free Designer Glass Vase	1	0	1	SecondDay	Julia Heitin	7 INCA TRL			SHARON	MA	02067-2889	US		Congratulations to my wonderful niece-  Best of luck on your new college adventure! Love, Aunt Gail From Gail Grossman	false		
111-7374799-1353860	18868581349986	2020-06-06T17:19:43+00:00	2020-06-06T10:19:43-07:00	2020-06-06T17:39:48+00:00	2020-06-09T06:59:59+00:00	-3	s1gnyptc596mpyv@marketplace.amazon.com	henry a. feldman	+1 314-282-9402 ext. 85248	ABR0022	Purchase Now for Delivery by Wednesday | Arabella Farm Direct Bouquet of 12 Fresh Cut Pink Roses with a Free Glass Vase	1	0	1	SecondDay	Aranka Siegal	1000 ISLAND BLVD APT 605			AVENTURA	FL	33160-4938	US		Hi Aranka, HAPPY 90TH BIRTHDAY--YOU ARE AN AMAZING WOMAN  with much love  Henry and Diane	false		
113-3481981-2717843	33437358870546	2020-06-06T17:47:00+00:00	2020-06-06T10:47:00-07:00	2020-06-06T18:14:57+00:00	2020-06-09T06:59:59+00:00	-3	kz0fkjj47km6t54@marketplace.amazon.com	Joni Kocet	+1 347-448-3190 ext. 18899	ABR0033	Purchase Now for Delivery by Wednesday | Arabella Farm Direct Bouquet of 12 Fresh Cut Orange Roses with a Free Glass Vase	1	0	1	SecondDay	Chuck and Karen Buchanan	27 LINDENWOOD DR			LITTLETON	CO	80120-4148	US		Dear Chuck and Karen ~  We can do anything ... ONE DAY AT A TIME!  Much Love,  Joni K	false		
114-4674816-1585841	19378317114906	2020-06-06T17:57:13+00:00	2020-06-06T10:57:13-07:00	2020-06-06T18:27:31+00:00	2020-06-09T06:59:59+00:00	-3	0l8tchdxzvzncbt@marketplace.amazon.com	tom drohan	+1 347-448-3190 ext. 59492	ABR0055	Purchase Now for Delivery by Wednesday | Arabella Farm Direct Bouquet of 12 Stems of Fresh Cut Hot Pink Roses in a Free Designer Glass Vase	1	0	1	SecondDay	Tom and Madeline Drohan	625 RANGELY DR			COLORADO SPRINGS	CO	80921-2623	US			false		
113-9303676-9249865	18118742287586	2020-06-06T18:03:15+00:00	2020-06-06T11:03:15-07:00	2020-06-06T18:33:49+00:00	2020-06-09T06:59:59+00:00	-3	mwjc14bky7jbv20@marketplace.amazon.com	Shiloh	+1 314-282-9402 ext. 70729	ABR0055	Purchase Now for Delivery by Wednesday | Arabella Farm Direct Bouquet of 12 Stems of Fresh Cut Hot Pink Roses in a Free Designer Glass Vase	1	0	1	SecondDay	Shiloh Marintzer	417 N 11th St			Sabetha	KS	66534-1713	US			false		
113-9619155-5956201	26203857822458	2020-06-06T18:08:58+00:00	2020-06-06T11:08:58-07:00	2020-06-06T18:36:45+00:00	2020-06-09T06:59:59+00:00	-3	7n857w793d6dp6k@marketplace.amazon.com	Blake5871	+1 210-728-4548 ext. 68592	ABR0022	Purchase Now for Delivery by Wednesday | Arabella Farm Direct Bouquet of 12 Fresh Cut Pink Roses with a Free Glass Vase	1	0	1	SecondDay	Blake Collins	3000 S 1ST ST APT 420			LUFKIN	TX	75901-7158	US			false		
111-8106964-3775421	06547330810898	2020-06-06T18:32:29+00:00	2020-06-06T11:32:29-07:00	2020-06-06T19:02:03+00:00	2020-06-09T06:59:59+00:00	-3	qhmwgzhkj95j1hk@marketplace.amazon.com	veer shah	+1 210-728-4548 ext. 08993	ABR0022	Purchase Now for Delivery by Wednesday | Arabella Farm Direct Bouquet of 12 Fresh Cut Pink Roses with a Free Glass Vase	1	0	1	SecondDay	Chandni Raval	6240 C corson Avenue			Seattle	Washington	98108	US		Happy Birthday Chandni. Have a lovely lovely day💕💕💕💕💕💕💕💕💕💕💕💕💕💕 From Veeri and Boo	false		
111-2866342-7435445	43134676093746	2020-06-06T18:44:11+00:00	2020-06-06T11:44:11-07:00	2020-06-06T19:13:58+00:00	2020-06-09T06:59:59+00:00	-3	x07122vw3z1bv0m@marketplace.amazon.com	David	908943277	ABR001	Purchase Now for Delivery by Wednesday | Arabella Bouquets 12 Stems of Fresh Cut Red Roses in a Free Designer Glass Vase	1	0	1	SecondDay	David	846 ELIZABETH AVE APT 1			ELIZABETH	NJ	07201-4729	US			false		
112-2681748-9316265	18899112867242	2020-06-06T18:53:02+00:00	2020-06-06T11:53:02-07:00	2020-06-06T19:23:00+00:00	2020-06-09T06:59:59+00:00	-3	7z6dw86f9dql7tw@marketplace.amazon.com	Steve Gilbert	+1 210-728-4548 ext. 35183	ABR0055	Purchase Now for Delivery by Wednesday | Arabella Farm Direct Bouquet of 12 Stems of Fresh Cut Hot Pink Roses in a Free Designer Glass Vase	1	0	1	SecondDay	Steven Grant Gilbert	1441 9th ave	Unit 505		SAN DIEGO	CA	92101	US			false		
113-1233633-9921048	64397513791066	2020-06-06T19:03:11+00:00	2020-06-06T12:03:11-07:00	2020-06-06T19:33:21+00:00	2020-06-09T06:59:59+00:00	-3	b33mcxdmzd0sj7y@marketplace.amazon.com	George burns	+1 210-728-4548 ext. 18183	ABR0022	Purchase Now for Delivery by Wednesday | Arabella Farm Direct Bouquet of 12 Fresh Cut Pink Roses with a Free Glass Vase	1	0	1	SecondDay	Sharon Weiner	16819 69TH AVE			FLUSHING	NY	11365-3248	US			false		
112-9137864-9537856	60504847526570	2020-06-06T19:09:15+00:00	2020-06-06T12:09:15-07:00	2020-06-06T19:34:12+00:00	2020-06-09T06:59:59+00:00	-3	h36tjxh1k1wllmc@marketplace.amazon.com	Bridget Kitchen	+1 210-728-4548 ext. 94695	ABM010	Purchase Now for Delivery by Wednesday | Arabella Bouquets | Fields of The World Bouquet of Fresh Cut Flowers in a Free Designer Glass Vase	1	0	1	SecondDay	Bonnie Bowling	1769 HOPKINS AVE			COLUMBUS	OH	43223-2817	US		Thinking of you always From Bridget & family	false		
113-8124398-4039469	13094249462786	2020-06-06T19:40:23+00:00	2020-06-06T12:40:23-07:00	2020-06-06T19:50:23+00:00	2020-06-09T06:59:59+00:00	-3	3y0zdywjnb6tlb7@marketplace.amazon.com	Arthur Swanson	+1 210-728-4548 ext. 88850	ABR0055	Purchase Now for Delivery by Wednesday | Arabella Farm Direct Bouquet of 12 Stems of Fresh Cut Hot Pink Roses in a Free Designer Glass Vase	1	0	1	SecondDay	Cathie Goldberg	808 FENWAY LN SW			TUMWATER	WA	98512-4604	US		, Happy birthday,cathie,love you, Dad	false		
114-5761139-5286637	37774650202666	2020-06-06T19:39:30+00:00	2020-06-06T12:39:30-07:00	2020-06-06T19:58:11+00:00	2020-06-09T06:59:59+00:00	-3	fxg9f9qyy8v6p1v@marketplace.amazon.com	Arlene Benigni	+1 412-532-4665 ext. 46964	ABR0055	Purchase Now for Delivery by Wednesday | Arabella Farm Direct Bouquet of 12 Stems of Fresh Cut Hot Pink Roses in a Free Designer Glass Vase	1	0	1	SecondDay	Kaiser Hospital/Teresa Ansani Rm#3064	1425 S MAIN ST			WALNUT CREEK	CA	94596-5318	US		Dear Teresa Hoping you get well real soon, we’re sending these flowers with love from all the Benigni’s since we are unable to visit you in person.  Love Arlene From Arlene Benigni	false		
111-1360411-4455436	05680755399162	2020-06-06T19:31:33+00:00	2020-06-06T12:31:33-07:00	2020-06-06T20:00:49+00:00	2020-06-09T06:59:59+00:00	-3	xwdw9s81ncq0rlf@marketplace.amazon.com	Amy Vicens	+1 210-728-4548 ext. 55621	ABR0022	Purchase Now for Delivery by Wednesday | Arabella Farm Direct Bouquet of 12 Fresh Cut Pink Roses with a Free Glass Vase	1	0	1	SecondDay	Rafaela Lemonier	425 SW 4TH AVE APT 708			FT LAUDERDALE	FL	33315-1064	US			false		
113-0215318-6260205	27811278263658	2020-06-06T19:45:32+00:00	2020-06-06T12:45:32-07:00	2020-06-06T20:11:55+00:00	2020-06-09T06:59:59+00:00	-3	jz0tn88wgf9hn1n@marketplace.amazon.com	Shamar	+1 347-448-3190 ext. 56600	ABR0033	Purchase Now for Delivery by Wednesday | Arabella Farm Direct Bouquet of 12 Fresh Cut Orange Roses with a Free Glass Vase	1	0	1	SecondDay	Seychelles Voit	187 ANDANADA ST			LOS ALAMOS	NM	87544-2401	US		Enjoy your gift! From BBC	false		
