order-id	order-item-id	purchase-date	payments-date	reporting-date	promise-date	days-past-promise	buyer-email	buyer-name	buyer-phone-number	sku	product-name	quantity-purchased	quantity-shipped	quantity-to-ship	ship-service-level	recipient-name	ship-address-1	ship-address-2	ship-address-3	ship-city	ship-state	ship-postal-code	ship-country	gift-wrap-type	gift-message-text	is-business-order	purchase-order-number	price-designation
111-2762640-2107410	05380402437978	2020-06-06T11:35:19+00:00	2020-06-06T04:35:19-07:00	2020-06-06T12:00:32+00:00	2020-06-09T06:59:59+00:00	-2	yr9dz8gxhrb768c@marketplace.amazon.com	Thomas	+1 314-282-9402 ext. 88278	ABR0033	Purchase Now for Delivery by Tuesday | Arabella Farm Direct Bouquet of 12 Fresh Cut Orange Roses with a Free Glass Vase	1	0	1	SecondDay	Sixta Welch	1185 AVENIDA GANDARA			RIO RICO	AZ	85648-3315	US		If I know what love is, it is because of you. From Thomas	false		
114-0276587-7721074	36822433632370	2020-06-06T12:09:31+00:00	2020-06-06T05:09:31-07:00	2020-06-06T12:35:26+00:00	2020-06-09T06:59:59+00:00	-2	m0ml9ml882g4grf@marketplace.amazon.com	Koriann Arpaia Roberts	+1 347-448-3190 ext. 03154	ABR015	Purchase Now for Delivery by Tuesday | Arabella Farm Direct Bouquet of 18 Fresh Cut Orange Roses with a Free Glass Vase	1	0	1	SecondDay	Jennifer Derby	140 SW 128TH ST APT 303			NEWBERRY	FL	32669-3396	US		Last week was dumb butyou are one of the strongest people I know so brush it off and look to your future. You got this! And when you don't just look at these gorgeous flowers and know you have alot of people on your side. Kor From Koriann Roberts	false		
112-3030499-1877059	08833719692122	2020-06-06T12:17:10+00:00	2020-06-06T05:17:10-07:00	2020-06-06T12:43:44+00:00	2020-06-09T06:59:59+00:00	-2	13m5h7v6mjv1t9z@marketplace.amazon.com	christine	+1 347-448-3190 ext. 67935	ABR0022	Purchase Now for Delivery by Tuesday | Arabella Farm Direct Bouquet of 12 Fresh Cut Pink Roses with a Free Glass Vase	1	0	1	SecondDay	Nicole Sharpe	10746 DEERBERRY DR			LAND O LAKES	FL	34638-6892	US		We are so sorry for the loss of your brother.  Please know you are in our thoughts & prayers.  Love, Jim, Chris & Matthew From christine	false		
112-1592716-5107465	10296888523474	2020-06-06T12:32:10+00:00	2020-06-06T05:32:10-07:00	2020-06-06T13:02:08+00:00	2020-06-09T06:59:59+00:00	-2	zv7v85fljczpzlf@marketplace.amazon.com	Jasmine Cendra	+1 347-448-3190 ext. 32760	ABM002	Purchase Now for Delivery by Tuesday | Arabella Bouquets Fresh Cut White Calla Lilies in a Free Designer Glass Vase	1	0	1	SecondDay	Sharone Hodara	50 West street	Apt 51C		New York	New York	10006	US			false		
114-9158173-3985032	25748436745818	2020-06-06T12:48:46+00:00	2020-06-06T05:48:46-07:00	2020-06-06T13:14:54+00:00	2020-06-09T06:59:59+00:00	-2	j8y9mbpkjq405nf@marketplace.amazon.com	Marcus Roberts	+1 314-282-9402 ext. 91822	ABR0022	Purchase Now for Delivery by Tuesday | Arabella Farm Direct Bouquet of 12 Fresh Cut Pink Roses with a Free Glass Vase	1	0	1	SecondDay	Jasmine Roman	9105 NW 25TH ST			DORAL	FL	33172-1500	US		Know you haven’t been feeling well. Hope this brightens your day and many days to come. You are the sunshine through anything that comes through way. Stay beautiful and Bless From MJR	false		
111-0993833-4213839	15337864535546	2020-06-06T13:13:48+00:00	2020-06-06T06:13:48-07:00	2020-06-06T13:23:47+00:00	2020-06-09T06:59:59+00:00	-2	1kyd3p9qj7n20sg@marketplace.amazon.com	T. O.  FAWEHINMI	+1 347-448-3190 ext. 87888	ABR0022	Purchase Now for Delivery by Tuesday | Arabella Farm Direct Bouquet of 12 Fresh Cut Pink Roses with a Free Glass Vase	1	0	1	SecondDay	Mrs Titilayo Adelayo	1312 MOTLEY DR			MELISSA	TX	75454-0354	US		Happy Birthday to the World's Best Grandmother!  This is a special celebration of our super grandma. Pretty pink flowers for our precious perfect grandma! With loads and loads of love from your children and grandchildren in England	false		
113-5501981-6803455	13291261164058	2020-06-06T13:01:08+00:00	2020-06-06T06:01:08-07:00	2020-06-06T13:31:21+00:00	2020-06-09T06:59:59+00:00	-2	n6lg4255klyr71q@marketplace.amazon.com	Elizabeth	+1 347-448-3190 ext. 54335	ABR0022	Purchase Now for Delivery by Tuesday | Arabella Farm Direct Bouquet of 12 Fresh Cut Pink Roses with a Free Glass Vase	1	0	1	SecondDay	Marina Rozovsky	2617 E 17TH ST APT 5C			BROOKLYN	NY	11235-3833	US			false		
111-6796888-7501056	51637648727650	2020-06-06T13:11:40+00:00	2020-06-06T06:11:40-07:00	2020-06-06T13:41:20+00:00	2020-06-09T06:59:59+00:00	-2	jyg7r1bc0flg5ks@marketplace.amazon.com	K. Merryman	+1 347-448-3190 ext. 42712	ABR0066	Purchase Now for Delivery by Wednesday | Arabella Bouquets | 12 Stems of Fresh Cut White Roses in a Free Designer Glass Vase	1	0	1	SecondDay	Joan Merryman	2111 OUR LN			STEVENSON	MD	21153-0672	US			false		
111-6382436-4501050	03955748652002	2020-06-06T14:00:07+00:00	2020-06-06T07:00:07-07:00	2020-06-06T14:29:59+00:00	2020-06-09T06:59:59+00:00	-2	pwhkwlqsp007lwl@marketplace.amazon.com	Tom Di Bernardo	+1 347-448-3190 ext. 86741	ABR0055	Purchase Now for Delivery by Wednesday | Arabella Farm Direct Bouquet of 12 Stems of Fresh Cut Hot Pink Roses in a Free Designer Glass Vase	1	0	1	SecondDay	Elizabeth Smurawski	7441 DOROTHY LN			TINLEY PARK	IL	60477-2483	US			false		
111-4477038-3666631	04733599208146	2020-06-06T14:30:23+00:00	2020-06-06T07:30:23-07:00	2020-06-06T14:56:35+00:00	2020-06-09T06:59:59+00:00	-2	k3ngclbd374ws8g@marketplace.amazon.com	Leon Blakely	+1 210-728-4548 ext. 00677	ABR0066	Purchase Now for Delivery by Wednesday | Arabella Bouquets | 12 Stems of Fresh Cut White Roses in a Free Designer Glass Vase	1	0	1	SecondDay	Shalanda Jones	7894 GOODMAN BRANCH RD NE			LELAND	NC	28451-8727	US		Happy Birthday Lady Bug Enjoy your birthday Shalanda  Love you From Mom and Leon	false		
114-6588298-2690658	05037959888578	2020-06-06T14:29:44+00:00	2020-06-06T07:29:44-07:00	2020-06-06T14:57:57+00:00	2020-06-09T06:59:59+00:00	-2	2mj0d93rm2c7d25@marketplace.amazon.com	Julie Wilson	+1 347-448-3190 ext. 72279	ABR0022	Purchase Now for Delivery by Wednesday | Arabella Farm Direct Bouquet of 12 Fresh Cut Pink Roses with a Free Glass Vase	1	0	1	SecondDay	Marci Hess	3431 E 1200 N			ASHTON	ID	83420-5611	US		Happy Birthday Mommy! I love you so much. I hope your day is as wonderful as you are!   Love Julie Lynn From Julie Wilson	false		
112-0466887-8696231	25727958102666	2020-06-06T14:36:31+00:00	2020-06-06T07:36:31-07:00	2020-06-06T14:59:52+00:00	2020-06-09T06:59:59+00:00	-2	h7mp15wy9xxn4sq@marketplace.amazon.com	Jeanne Foy	+1 347-448-3190 ext. 64924	ABR012	Arabella Farm Direct Bouquet of 18 Fresh Cut Pink Roses with a Free Glass Vase	1	0	1	SecondDay	Wendy Parente	9 VIOLET RD			BAYVILLE	NY	11709-1818	US		Wendy,  We hope you feel better soon! Thinking of you- From Jeanne, Sean, and Aidan	false		
113-6543969-2657865	42943739718234	2020-06-06T14:32:44+00:00	2020-06-06T07:32:44-07:00	2020-06-06T15:00:35+00:00	2020-06-09T06:59:59+00:00	-2	7bfhwrk1f0my69y@marketplace.amazon.com	Juan	+1 210-728-4548 ext. 19640	ABM002	Purchase Now for Delivery by Wednesday | Arabella Bouquets Fresh Cut White Calla Lilies in a Free Designer Glass Vase	1	0	1	SecondDay	Rosario	HOME 220 FOWLER RD			SHELBYVILLE	TN	37160-7288	US			false		
113-4671708-5865068	07832934199186	2020-06-06T15:00:34+00:00	2020-06-06T08:00:34-07:00	2020-06-06T15:31:04+00:00	2020-06-09T06:59:59+00:00	-2	4474fdt03jlzqyk@marketplace.amazon.com	Neil Pineda	+1 210-728-4548 ext. 20600	ABR0022	Purchase Now for Delivery by Wednesday | Arabella Farm Direct Bouquet of 12 Fresh Cut Pink Roses with a Free Glass Vase	1	0	1	SecondDay	Neil Pineda	1653 Charles Drive			Wheeling	IL	60090	US			false		
113-8937955-9873814	18382074532058	2020-06-06T15:09:32+00:00	2020-06-06T08:09:32-07:00	2020-06-06T15:38:58+00:00	2020-06-09T06:59:59+00:00	-2	dz1kyf98jv1lmfj@marketplace.amazon.com	Noriko Takamoto	+1 314-282-9402 ext. 65578	ABM010	Purchase Now for Delivery by Wednesday | Arabella Bouquets | Fields of The World Bouquet of Fresh Cut Flowers in a Free Designer Glass Vase	1	0	1	SecondDay	Erika Lilian Kreuser	1583 SAINT AUGUSTINE CIR			HUBERTUS	WI	53033-9480	US			false		
113-8124109-1933801	12065583944386	2020-06-06T15:45:25+00:00	2020-06-06T08:45:25-07:00	2020-06-06T16:10:12+00:00	2020-06-09T06:59:59+00:00	-2	bn5sy2d0kc8l25w@marketplace.amazon.com	maureen sheridan	+1 347-448-3190 ext. 45428	ABR0022	Purchase Now for Delivery by Wednesday | Arabella Farm Direct Bouquet of 12 Fresh Cut Pink Roses with a Free Glass Vase	1	0	1	SecondDay	Marykate Dimaria	201 POND TER			TOWNSHIP OF WASHINGTON	NJ	07676-5121	US		Hi Marykate, Happy 50 th birthday! I hope you have a wonderful  year! Love, Maureen ❤️	false		
114-6840563-0668214	47461354786026	2020-06-06T15:43:19+00:00	2020-06-06T08:43:19-07:00	2020-06-06T16:11:13+00:00	2020-06-09T06:59:59+00:00	-2	7zkftkvc3b46052@marketplace.amazon.com	Jeff Potts	+1 347-448-3190 ext. 87242	ABR0022	Purchase Now for Delivery by Wednesday | Arabella Farm Direct Bouquet of 12 Fresh Cut Pink Roses with a Free Glass Vase	1	0	1	SecondDay	Miracle Muin	2503 GREENSPIRE CT			CHARLOTTE	NC	28262-1656	US		For my beautiful woman ❤️ From Jeff	false		
114-7890029-8925047	24427680086130	2020-06-06T15:58:09+00:00	2020-06-06T08:58:09-07:00	2020-06-06T16:20:24+00:00	2020-06-09T06:59:59+00:00	-2	5d5c0qbmm0wyln5@marketplace.amazon.com	Ying	+1 314-282-9402 ext. 12896	ABM010	Purchase Now for Delivery by Wednesday | Arabella Bouquets | Fields of The World Bouquet of Fresh Cut Flowers in a Free Designer Glass Vase	1	0	1	SecondDay	Dixie Cook	5427 E LEWIS AVE			PHOENIX	AZ	85008-2615	US		Hi Dixie, Sending you some love from the other side of the world! May you are surrounded with peace, love, faith and comfort  Have a blossoming summer! From Wynona	false		
112-4601290-3954617	49702665827562	2020-06-06T16:14:58+00:00	2020-06-06T09:14:58-07:00	2020-06-06T16:45:38+00:00	2020-06-09T06:59:59+00:00	-2	bcqhmlkkkx4zjzx@marketplace.amazon.com	Catherine Celestin	+1 210-728-4548 ext. 07306	ABR0022	Purchase Now for Delivery by Wednesday | Arabella Farm Direct Bouquet of 12 Fresh Cut Pink Roses with a Free Glass Vase	1	0	1	SecondDay	Lilliam Poltorack	8971 SW 8TH ST			PLANTATION	FL	33324-3723	US			false		
112-6429185-2599468	48217155910338	2020-06-06T16:29:28+00:00	2020-06-06T09:29:28-07:00	2020-06-06T16:55:50+00:00	2020-06-09T06:59:59+00:00	-2	k2s29ynxv3rhzqk@marketplace.amazon.com	Anandhi Bumstead	+1 210-728-4548 ext. 57744	ABM010	Purchase Now for Delivery by Wednesday | Arabella Bouquets | Fields of The World Bouquet of Fresh Cut Flowers in a Free Designer Glass Vase	1	0	1	SecondDay	Melissa Schoenen	7285 HUNTON ST			WARRENTON	VA	20187-2221	US		Hi Melissa, Happy Birthday! Celebrate and have a fabulous day Anandhi	false		
112-4482273-5122644	50097421209858	2020-06-06T16:26:05+00:00	2020-06-06T09:26:05-07:00	2020-06-06T16:56:04+00:00	2020-06-09T06:59:59+00:00	-2	vqlpzwtgtwtfgj6@marketplace.amazon.com	Yenny Toone	+1 347-448-3190 ext. 77890	ABR0022	Purchase Now for Delivery by Wednesday | Arabella Farm Direct Bouquet of 12 Fresh Cut Pink Roses with a Free Glass Vase	1	0	1	SecondDay	Miriam Lopez	140 ELGAR PL APT 29E			BRONX	NY	10475-5205	US			false		
111-9032842-7532204	08049111784994	2020-06-06T16:28:27+00:00	2020-06-06T09:28:27-07:00	2020-06-06T16:58:11+00:00	2020-06-09T06:59:59+00:00	-2	3j6cfcrljpq4rw2@marketplace.amazon.com	Stephon Robinson	+1 210-728-4548 ext. 80445	ABR001	Purchase Now for Delivery by Wednesday | Arabella Bouquets 12 Stems of Fresh Cut Red Roses in a Free Designer Glass Vase	1	0	1	SecondDay	Stephon Robinson	1901 W 84TH ST			LOS ANGELES	CA	90047-2908	US			false		
112-2672252-0452255	37293011443642	2020-06-06T16:55:10+00:00	2020-06-06T09:55:10-07:00	2020-06-06T17:14:50+00:00	2020-06-09T06:59:59+00:00	-2	yy0328dzh6yb62c@marketplace.amazon.com	Hugo	+1 763-225-9463 ext. 63535	ABR0022	Purchase Now for Delivery by Wednesday | Arabella Farm Direct Bouquet of 12 Fresh Cut Pink Roses with a Free Glass Vase	1	0	1	SecondDay	Latasha	5094 MEADOWSWEET DR			PALMDALE	CA	93551-5761	US		Hello honey, a gift from my heart to you and I hope you love it ..... From Noble O. Council	false		
111-6772391-3210649	52737431455834	2020-06-06T16:47:42+00:00	2020-06-06T09:47:42-07:00	2020-06-06T17:18:23+00:00	2020-06-09T06:59:59+00:00	-2	r6g6tbc65vnc6pf@marketplace.amazon.com	David O. Martin	+1 210-728-4548 ext. 81611	ABM010	Purchase Now for Delivery by Wednesday | Arabella Bouquets | Fields of The World Bouquet of Fresh Cut Flowers in a Free Designer Glass Vase	1	0	1	SecondDay	David O. Martin	8717 COUNTY ROUTE 87			HAMMONDSPORT	NY	14840-9789	US			false		
112-7970351-0715410	10455336890498	2020-06-06T16:58:48+00:00	2020-06-06T09:58:48-07:00	2020-06-06T17:25:13+00:00	2020-06-09T06:59:59+00:00	-2	6lsjw1v1pzcy9xv@marketplace.amazon.com	Michael DeCrescenzo	+1 210-728-4548 ext. 22169	ABR0022	Purchase Now for Delivery by Wednesday | Arabella Farm Direct Bouquet of 12 Fresh Cut Pink Roses with a Free Glass Vase	1	0	1	SecondDay	Ann Trozzi	1670 CONKLING AVE			UTICA	NY	13501-5120	US		Thinking of you and hope you feel better soon.  I love you very much. From Love your nephew, Michael	false		
113-1631026-6492269	69872494567762	2020-06-06T17:03:33+00:00	2020-06-06T10:03:33-07:00	2020-06-06T17:30:18+00:00	2020-06-09T06:59:59+00:00	-2	djxyfsjqzw21x77@marketplace.amazon.com	Gail Grossman	+1 314-282-9402 ext. 59435	ABM019	Arabella Bouquets | The Desert Sun Bouquet in a Free Designer Glass Vase	1	0	1	SecondDay	Julia Heitin	7 INCA TRL			SHARON	MA	02067-2889	US		Congratulations to my wonderful niece-  Best of luck on your new college adventure! Love, Aunt Gail From Gail Grossman	false		
111-7374799-1353860	18868581349986	2020-06-06T17:19:43+00:00	2020-06-06T10:19:43-07:00	2020-06-06T17:39:48+00:00	2020-06-09T06:59:59+00:00	-2	s1gnyptc596mpyv@marketplace.amazon.com	henry a. feldman	+1 314-282-9402 ext. 85248	ABR0022	Purchase Now for Delivery by Wednesday | Arabella Farm Direct Bouquet of 12 Fresh Cut Pink Roses with a Free Glass Vase	1	0	1	SecondDay	Aranka Siegal	1000 ISLAND BLVD APT 605			AVENTURA	FL	33160-4938	US		Hi Aranka, HAPPY 90TH BIRTHDAY--YOU ARE AN AMAZING WOMAN  with much love  Henry and Diane	false		
113-3481981-2717843	33437358870546	2020-06-06T17:47:00+00:00	2020-06-06T10:47:00-07:00	2020-06-06T18:14:57+00:00	2020-06-09T06:59:59+00:00	-2	kz0fkjj47km6t54@marketplace.amazon.com	Joni Kocet	+1 347-448-3190 ext. 18899	ABR0033	Purchase Now for Delivery by Wednesday | Arabella Farm Direct Bouquet of 12 Fresh Cut Orange Roses with a Free Glass Vase	1	0	1	SecondDay	Chuck and Karen Buchanan	27 LINDENWOOD DR			LITTLETON	CO	80120-4148	US		Dear Chuck and Karen ~  We can do anything ... ONE DAY AT A TIME!  Much Love,  Joni K	false		
114-4674816-1585841	19378317114906	2020-06-06T17:57:13+00:00	2020-06-06T10:57:13-07:00	2020-06-06T18:27:31+00:00	2020-06-09T06:59:59+00:00	-2	0l8tchdxzvzncbt@marketplace.amazon.com	tom drohan	+1 347-448-3190 ext. 59492	ABR0055	Purchase Now for Delivery by Wednesday | Arabella Farm Direct Bouquet of 12 Stems of Fresh Cut Hot Pink Roses in a Free Designer Glass Vase	1	0	1	SecondDay	Tom and Madeline Drohan	625 RANGELY DR			COLORADO SPRINGS	CO	80921-2623	US			false		
113-9303676-9249865	18118742287586	2020-06-06T18:03:15+00:00	2020-06-06T11:03:15-07:00	2020-06-06T18:33:49+00:00	2020-06-09T06:59:59+00:00	-2	mwjc14bky7jbv20@marketplace.amazon.com	Shiloh	+1 314-282-9402 ext. 70729	ABR0055	Purchase Now for Delivery by Wednesday | Arabella Farm Direct Bouquet of 12 Stems of Fresh Cut Hot Pink Roses in a Free Designer Glass Vase	1	0	1	SecondDay	Shiloh Marintzer	417 N 11th St			Sabetha	KS	66534-1713	US			false		
113-9619155-5956201	26203857822458	2020-06-06T18:08:58+00:00	2020-06-06T11:08:58-07:00	2020-06-06T18:36:45+00:00	2020-06-09T06:59:59+00:00	-2	7n857w793d6dp6k@marketplace.amazon.com	Blake5871	+1 210-728-4548 ext. 68592	ABR0022	Purchase Now for Delivery by Wednesday | Arabella Farm Direct Bouquet of 12 Fresh Cut Pink Roses with a Free Glass Vase	1	0	1	SecondDay	Blake Collins	3000 S 1ST ST APT 420			LUFKIN	TX	75901-7158	US			false		
111-8106964-3775421	06547330810898	2020-06-06T18:32:29+00:00	2020-06-06T11:32:29-07:00	2020-06-06T19:02:03+00:00	2020-06-09T06:59:59+00:00	-2	qhmwgzhkj95j1hk@marketplace.amazon.com	veer shah	+1 210-728-4548 ext. 08993	ABR0022	Purchase Now for Delivery by Wednesday | Arabella Farm Direct Bouquet of 12 Fresh Cut Pink Roses with a Free Glass Vase	1	0	1	SecondDay	Chandni Raval	6240 C corson Avenue			Seattle	Washington	98108	US		Happy Birthday Chandni. Have a lovely lovely day💕💕💕💕💕💕💕💕💕💕💕💕💕💕 From Veeri and Boo	false		
111-2866342-7435445	43134676093746	2020-06-06T18:44:11+00:00	2020-06-06T11:44:11-07:00	2020-06-06T19:13:58+00:00	2020-06-09T06:59:59+00:00	-2	x07122vw3z1bv0m@marketplace.amazon.com	David	908943277	ABR001	Purchase Now for Delivery by Wednesday | Arabella Bouquets 12 Stems of Fresh Cut Red Roses in a Free Designer Glass Vase	1	0	1	SecondDay	David	846 ELIZABETH AVE APT 1			ELIZABETH	NJ	07201-4729	US			false		
112-2681748-9316265	18899112867242	2020-06-06T18:53:02+00:00	2020-06-06T11:53:02-07:00	2020-06-06T19:23:00+00:00	2020-06-09T06:59:59+00:00	-2	7z6dw86f9dql7tw@marketplace.amazon.com	Steve Gilbert	+1 210-728-4548 ext. 35183	ABR0055	Purchase Now for Delivery by Wednesday | Arabella Farm Direct Bouquet of 12 Stems of Fresh Cut Hot Pink Roses in a Free Designer Glass Vase	1	0	1	SecondDay	Steven Grant Gilbert	1441 9th ave	Unit 505		SAN DIEGO	CA	92101	US			false		
113-1233633-9921048	64397513791066	2020-06-06T19:03:11+00:00	2020-06-06T12:03:11-07:00	2020-06-06T19:33:21+00:00	2020-06-09T06:59:59+00:00	-2	b33mcxdmzd0sj7y@marketplace.amazon.com	George burns	+1 210-728-4548 ext. 18183	ABR0022	Purchase Now for Delivery by Wednesday | Arabella Farm Direct Bouquet of 12 Fresh Cut Pink Roses with a Free Glass Vase	1	0	1	SecondDay	Sharon Weiner	16819 69TH AVE			FLUSHING	NY	11365-3248	US			false		
112-9137864-9537856	60504847526570	2020-06-06T19:09:15+00:00	2020-06-06T12:09:15-07:00	2020-06-06T19:34:12+00:00	2020-06-09T06:59:59+00:00	-2	h36tjxh1k1wllmc@marketplace.amazon.com	Bridget Kitchen	+1 210-728-4548 ext. 94695	ABM010	Purchase Now for Delivery by Wednesday | Arabella Bouquets | Fields of The World Bouquet of Fresh Cut Flowers in a Free Designer Glass Vase	1	0	1	SecondDay	Bonnie Bowling	1769 HOPKINS AVE			COLUMBUS	OH	43223-2817	US		Thinking of you always From Bridget & family	false		
113-8124398-4039469	13094249462786	2020-06-06T19:40:23+00:00	2020-06-06T12:40:23-07:00	2020-06-06T19:50:23+00:00	2020-06-09T06:59:59+00:00	-2	3y0zdywjnb6tlb7@marketplace.amazon.com	Arthur Swanson	+1 210-728-4548 ext. 88850	ABR0055	Purchase Now for Delivery by Wednesday | Arabella Farm Direct Bouquet of 12 Stems of Fresh Cut Hot Pink Roses in a Free Designer Glass Vase	1	0	1	SecondDay	Cathie Goldberg	808 FENWAY LN SW			TUMWATER	WA	98512-4604	US		, Happy birthday,cathie,love you, Dad	false		
114-5761139-5286637	37774650202666	2020-06-06T19:39:30+00:00	2020-06-06T12:39:30-07:00	2020-06-06T19:58:11+00:00	2020-06-09T06:59:59+00:00	-2	fxg9f9qyy8v6p1v@marketplace.amazon.com	Arlene Benigni	+1 412-532-4665 ext. 46964	ABR0055	Purchase Now for Delivery by Wednesday | Arabella Farm Direct Bouquet of 12 Stems of Fresh Cut Hot Pink Roses in a Free Designer Glass Vase	1	0	1	SecondDay	Kaiser Hospital/Teresa Ansani Rm#3064	1425 S MAIN ST			WALNUT CREEK	CA	94596-5318	US		Dear Teresa Hoping you get well real soon, we’re sending these flowers with love from all the Benigni’s since we are unable to visit you in person.  Love Arlene From Arlene Benigni	false		
111-1360411-4455436	05680755399162	2020-06-06T19:31:33+00:00	2020-06-06T12:31:33-07:00	2020-06-06T20:00:49+00:00	2020-06-09T06:59:59+00:00	-2	xwdw9s81ncq0rlf@marketplace.amazon.com	Amy Vicens	+1 210-728-4548 ext. 55621	ABR0022	Purchase Now for Delivery by Wednesday | Arabella Farm Direct Bouquet of 12 Fresh Cut Pink Roses with a Free Glass Vase	1	0	1	SecondDay	Rafaela Lemonier	425 SW 4TH AVE APT 708			FT LAUDERDALE	FL	33315-1064	US			false		
113-0215318-6260205	27811278263658	2020-06-06T19:45:32+00:00	2020-06-06T12:45:32-07:00	2020-06-06T20:11:55+00:00	2020-06-09T06:59:59+00:00	-2	jz0tn88wgf9hn1n@marketplace.amazon.com	Shamar	+1 347-448-3190 ext. 56600	ABR0033	Purchase Now for Delivery by Wednesday | Arabella Farm Direct Bouquet of 12 Fresh Cut Orange Roses with a Free Glass Vase	1	0	1	SecondDay	Seychelles Voit	187 ANDANADA ST			LOS ALAMOS	NM	87544-2401	US		Enjoy your gift! From BBC	false		
114-8965458-7060268	36456185927090	2020-06-06T19:50:54+00:00	2020-06-06T12:50:54-07:00	2020-06-06T20:16:54+00:00	2020-06-09T06:59:59+00:00	-2	mgbn3cwbbkm6ysf@marketplace.amazon.com	abel	+1 210-728-4548 ext. 32392	ABR0022	Purchase Now for Delivery by Wednesday | Arabella Farm Direct Bouquet of 12 Fresh Cut Pink Roses with a Free Glass Vase	1	0	1	SecondDay	Braulio Paredes	304 MAGNOLIA AVE APT 3			JERSEY CITY	NJ	07306-3907	US		for you my one and only true love, mi reina Xeni :) From abel	false		
114-4033354-0847433	17925309685746	2020-06-06T20:19:29+00:00	2020-06-06T13:19:29-07:00	2020-06-06T20:35:13+00:00	2020-06-09T06:59:59+00:00	-2	7p3mszmvv7fpdyn@marketplace.amazon.com	Bijoy Mohapatra	+1 314-282-9402 ext. 11963	ABR0022	Purchase Now for Delivery by Wednesday | Arabella Farm Direct Bouquet of 12 Fresh Cut Pink Roses with a Free Glass Vase	1	0	1	SecondDay	Bibhu Mohapatra	469 SHARPTOWN RD			STUYVESANT	NY	12173-2509	US			false		
114-5644125-9393850	70169551640602	2020-06-06T20:24:05+00:00	2020-06-06T13:24:05-07:00	2020-06-06T20:45:24+00:00	2020-06-09T06:59:59+00:00	-2	mwvjr0pm0gg8rqq@marketplace.amazon.com	Gilbert Hernandez	+1 314-282-9402 ext. 78177	ABR0022	Purchase Now for Delivery by Wednesday | Arabella Farm Direct Bouquet of 12 Fresh Cut Pink Roses with a Free Glass Vase	1	0	1	SecondDay	Courtney Stocking	930 W 29TH ST  2			CHICAGO	IL	60608-5834	US		A very happy blessed birthday court! You are a true gift to everyone in your life! Love and miss you always!! From Kassie	false		
112-0092958-4296263	43506129664970	2020-06-06T20:39:45+00:00	2020-06-06T13:39:45-07:00	2020-06-06T21:07:18+00:00	2020-06-09T06:59:59+00:00	-2	2z0bj534p5z47bb@marketplace.amazon.com	Veronica Fansler	+1 210-728-4548 ext. 81225	ABR0055	Purchase Now for Delivery by Wednesday | Arabella Farm Direct Bouquet of 12 Stems of Fresh Cut Hot Pink Roses in a Free Designer Glass Vase	1	0	1	SecondDay	Chloe Fansler	1925 CHESHAM DR			CARROLLTON	TX	75007-2403	US		Happy Birthday Chloe        Love you Noodle                  Dada From Charlie Fansler	false		
111-2158911-8177056	20973115796130	2020-06-06T20:50:54+00:00	2020-06-06T13:50:54-07:00	2020-06-06T21:20:05+00:00	2020-06-09T06:59:59+00:00	-2	4j8my8fzvjlxp38@marketplace.amazon.com	Dr. Ali Navab	+1 347-448-3190 ext. 86458	ABR0066	Purchase Now for Delivery by Wednesday | Arabella Bouquets | 12 Stems of Fresh Cut White Roses in a Free Designer Glass Vase	1	0	1	SecondDay	Maria Garcia	1129 WASHINGTON AVE APT 2ND FLOOR			BROOKLYN	NY	11225-3713	US		Dear Maria and Alex, We are so thrilled to hear about your engagement. Congratulations! We wish you both joy, harmony, loyalty, patience, love and understanding. All our love, The Navab family. From The Navab family	false		
111-3239594-8184220	38890461228778	2020-06-06T20:59:56+00:00	2020-06-06T13:59:56-07:00	2020-06-06T21:29:01+00:00	2020-06-09T06:59:59+00:00	-2	t3vlh1t4k9xmvw5@marketplace.amazon.com	Vanessa Lyons	+1 347-448-3190 ext. 54400	ABR0055	Purchase Now for Delivery by Wednesday | Arabella Farm Direct Bouquet of 12 Stems of Fresh Cut Hot Pink Roses in a Free Designer Glass Vase	1	0	1	SecondDay	Portia Lyons	716 North Reeve Rd			St Helena Island	SC	29920	US		Happy Birthday Mommy Portia!!!  Love you!! From Vanessa and Christian	false		
112-3576751-0949811	47382512688930	2020-06-06T21:17:57+00:00	2020-06-06T14:17:57-07:00	2020-06-06T21:47:52+00:00	2020-06-09T06:59:59+00:00	-2	6cysyzs23zdtyjz@marketplace.amazon.com	valarie	+1 347-448-3190 ext. 32633	ABR0022	Purchase Now for Delivery by Wednesday | Arabella Farm Direct Bouquet of 12 Fresh Cut Pink Roses with a Free Glass Vase	1	0	1	SecondDay	Dave and Peg Lake	1832 S 10TH ST W			MISSOULA	MT	59801-3418	US		HAPPY HAPPY BIRTHDAY! Love you, Valarie From valarie	false		
113-1729887-0597834	48067750029826	2020-06-06T21:35:46+00:00	2020-06-06T14:35:46-07:00	2020-06-06T22:06:30+00:00	2020-06-09T06:59:59+00:00	-2	753frcjqh2zlz29@marketplace.amazon.com	Robert Easter	+1 347-448-3190 ext. 49200	ABM0044	Purchase Now for Delivery by Wednesday | Arabella Farm Direct Bouquet of Fresh Cut Blue Hydrangea with a Free Glass Vase	1	0	1	SecondDay	Linda Easter	6110 TWIN POINT COVE RD			CAMBRIDGE	MD	21613-3217	US			false		
113-1729887-0597834	12175480827834	2020-06-06T21:35:46+00:00	2020-06-06T14:35:46-07:00	2020-06-06T22:06:30+00:00	2020-06-09T06:59:59+00:00	-2	753frcjqh2zlz29@marketplace.amazon.com	Robert Easter	+1 347-448-3190 ext. 49200	ABR0066	Purchase Now for Delivery by Wednesday | Arabella Bouquets | 12 Stems of Fresh Cut White Roses in a Free Designer Glass Vase	1	0	1	SecondDay	Linda Easter	6110 TWIN POINT COVE RD			CAMBRIDGE	MD	21613-3217	US			false		
113-1729887-0597834	47042942463314	2020-06-06T21:35:46+00:00	2020-06-06T14:35:46-07:00	2020-06-06T22:06:30+00:00	2020-06-09T06:59:59+00:00	-2	753frcjqh2zlz29@marketplace.amazon.com	Robert Easter	+1 347-448-3190 ext. 49200	ABM0033	Purchase Now for Delivery by Wednesday | Arabella Farm Direct Bouquet of Fresh Cut White Hydrangea with a Free Glass Vase	1	0	1	SecondDay	Linda Easter	6110 TWIN POINT COVE RD			CAMBRIDGE	MD	21613-3217	US			false		
111-5849658-9380213	66295993322330	2020-06-06T21:38:48+00:00	2020-06-06T14:38:48-07:00	2020-06-06T22:07:53+00:00	2020-06-09T06:59:59+00:00	-2	vb38gbxvs1gz6xv@marketplace.amazon.com	Brandon	+1 210-728-4548 ext. 97233	ABM010	Purchase Now for Delivery by Wednesday | Arabella Bouquets | Fields of The World Bouquet of Fresh Cut Flowers in a Free Designer Glass Vase	1	0	1	SecondDay	Kim Whitlock	10141 FREEPORT CT			SAN DIEGO	CA	92129-3201	US		Congrats!	false		
112-4286017-5486633	67156277650994	2020-06-06T22:13:04+00:00	2020-06-06T15:13:04-07:00	2020-06-06T22:42:28+00:00	2020-06-09T06:59:59+00:00	-2	r1fh5xjxc7m8hzq@marketplace.amazon.com	andrew bullock	+1 412-532-4665 ext. 16124	ABM010	Purchase Now for Delivery by Wednesday | Arabella Bouquets | Fields of The World Bouquet of Fresh Cut Flowers in a Free Designer Glass Vase	1	0	1	SecondDay	Jess Fischer	7412 ALVAH AVE STE B			BALTIMORE	MD	21222-2066	US		Happy birthday! You are amazing and appreciated tremendously! From Drew Bullock	false		
111-4053872-8349050	37154987920586	2020-06-06T22:16:38+00:00	2020-06-06T15:16:38-07:00	2020-06-06T22:42:42+00:00	2020-06-09T06:59:59+00:00	-2	9vbwq18r7w4w0rp@marketplace.amazon.com	mvgopinath	+1 314-282-9402 ext. 96511	ABR001	Purchase Now for Delivery by Wednesday | Arabella Bouquets 12 Stems of Fresh Cut Red Roses in a Free Designer Glass Vase	1	0	1	SecondDay	LILI BAI	1835 WALNUT CREEK CT			COLORADO SPRINGS	CO	80921-3870	US		Hi LILI, Happy birthday wishes  From mvgopinath	false		
112-3812522-1490655	16946226690034	2020-06-06T22:22:43+00:00	2020-06-06T15:22:43-07:00	2020-06-06T22:51:23+00:00	2020-06-09T06:59:59+00:00	-2	qw7wywrc835btwh@marketplace.amazon.com	ryan mshaw	+1 763-225-9463 ext. 41685	ABR0033	Purchase Now for Delivery by Wednesday | Arabella Farm Direct Bouquet of 12 Fresh Cut Orange Roses with a Free Glass Vase	1	0	1	SecondDay	Rosemary Shaw	1111 COUNTRY CLUB CIR			BIRMINGHAM	AL	35244-1473	US		Happy Birthday Mom!!! Wish we could be with you on your big day. Miss and love you so much! Love Ryan & Jason	false		
112-3071390-9922616	59500177812914	2020-06-06T22:27:32+00:00	2020-06-06T15:27:32-07:00	2020-06-06T22:56:28+00:00	2020-06-09T06:59:59+00:00	-2	d0ybms50bccydf1@marketplace.amazon.com	Melanie Tobias	+1 314-282-9402 ext. 33982	ABR0033	Purchase Now for Delivery by Wednesday | Arabella Farm Direct Bouquet of 12 Fresh Cut Orange Roses with a Free Glass Vase	1	0	1	SecondDay	Marisa Kamer	3732 FALKNER DR			NAPERVILLE	IL	60564-6102	US		Happy Birthday Mama Ris! Love you! From Melanie Tobias	false		
112-5399082-8623408	06002149504010	2020-06-06T22:33:17+00:00	2020-06-06T15:33:17-07:00	2020-06-06T23:01:07+00:00	2020-06-09T06:59:59+00:00	-2	5ltp4bsq22n27dh@marketplace.amazon.com	Matthew Silver	+1 210-728-4548 ext. 02995	ABR0022	Purchase Now for Delivery by Wednesday | Arabella Farm Direct Bouquet of 12 Fresh Cut Pink Roses with a Free Glass Vase	1	0	1	SecondDay	Maeryn Schatz	315 W WISCONSIN ST			CHICAGO	IL	60614-5415	US		Congratulations on Latin School finally recognizing you and your talent! I’m SO proud of you! Love you!!! From Matt & Grant	false		
111-1393457-3292260	50711275403290	2020-06-06T22:39:47+00:00	2020-06-06T15:39:47-07:00	2020-06-06T23:09:40+00:00	2020-06-09T06:59:59+00:00	-2	c38kxrd9khzb07p@marketplace.amazon.com	BDX4LIF3	+1 210-728-4548 ext. 46078	ABR001	Purchase Now for Delivery by Wednesday | Arabella Bouquets 12 Stems of Fresh Cut Red Roses in a Free Designer Glass Vase	1	0	1	SecondDay	Xander Wilson	2914 55TH ST			VALLEY	AL	36854-5057	US			false		
114-8325031-3294645	26924551917778	2020-06-06T23:05:21+00:00	2020-06-06T16:05:21-07:00	2020-06-06T23:35:31+00:00	2020-06-09T06:59:59+00:00	-2	1vyfb7fgwndbqgb@marketplace.amazon.com	Amanda Robl	+1 314-282-9402 ext. 48558	ABR0055	Purchase Now for Delivery by Wednesday | Arabella Farm Direct Bouquet of 12 Stems of Fresh Cut Hot Pink Roses in a Free Designer Glass Vase	1	0	1	SecondDay	Amanda Robl	48351 277TH ST			CANTON	SD	57013-5507	US			false		
111-1884492-9987458	34961946066666	2020-06-06T23:19:57+00:00	2020-06-06T16:19:57-07:00	2020-06-06T23:45:51+00:00	2020-06-09T06:59:59+00:00	-2	ycztzz1d79kjht9@marketplace.amazon.com	linda s. schmid	+1 347-448-3190 ext. 29692	ABR0022	Purchase Now for Delivery by Wednesday | Arabella Farm Direct Bouquet of 12 Fresh Cut Pink Roses with a Free Glass Vase	1	0	1	SecondDay	Lindsay Alexander	220 BURR ST			FAIRFIELD	CT	06824-7155	US			false		
114-2861527-7273064	62675051336138	2020-06-06T23:26:03+00:00	2020-06-06T16:26:03-07:00	2020-06-06T23:55:59+00:00	2020-06-09T06:59:59+00:00	-2	k1mygwwgbtpnmt7@marketplace.amazon.com	Avangelina mahan	+1 347-448-3190 ext. 72732	ABR0033	Purchase Now for Delivery by Wednesday | Arabella Farm Direct Bouquet of 12 Fresh Cut Orange Roses with a Free Glass Vase	1	0	1	SecondDay	MR SCOTT Q MAHAN	8111 E WOODWIND			ORANGE	CA	92869	US		Praying Connie .. love you From Avangelina mahan	false		
113-0356922-9843404	34944163789474	2020-06-06T23:47:44+00:00	2020-06-06T16:47:44-07:00	2020-06-07T00:18:06+00:00	2020-06-09T06:59:59+00:00	-2	t0v176xb0z5nzhz@marketplace.amazon.com	Heriberto Mejia	+1 347-448-3190 ext. 07736	ABR0022	Purchase Now for Delivery by Wednesday | Arabella Farm Direct Bouquet of 12 Fresh Cut Pink Roses with a Free Glass Vase	1	0	1	SecondDay	Heriberto Mejia	2038 S OLD WIRE RD			ROGERS	AR	72758-7566	US			false		
113-4064356-6872227	19359921861706	2020-06-07T00:02:26+00:00	2020-06-06T17:02:26-07:00	2020-06-07T00:27:58+00:00	2020-06-09T06:59:59+00:00	-2	jttlr2v44mln8mv@marketplace.amazon.com	April Stevens	+1 347-448-3190 ext. 93989	ABM010	Purchase Now for Delivery by Wednesday | Arabella Bouquets | Fields of The World Bouquet of Fresh Cut Flowers in a Free Designer Glass Vase	1	0	1	SecondDay	Emma Medina	7027 W CANTERBURY DR			PEORIA	AZ	85345-8714	US		HAPPY BIRTHDAY!! WE LOVE YOU!!! From Ally, April, & Ann	false		
114-3659170-1449069	32275922985690	2020-06-07T01:16:03+00:00	2020-06-06T18:16:03-07:00	2020-06-07T01:46:44+00:00	2020-06-09T06:59:59+00:00	-2	wkb63djbcxq2wfv@marketplace.amazon.com	Geraldine DiPalma	+1 347-448-3190 ext. 82632	ABR004	Arabella Farm Direct Bouquet of 12 Fresh Cut Yellow Roses with a Free Glass Vase	1	0	1	SecondDay	Geraldine I DiPalma	1460 COVENTRY LN			VERO BEACH	FL	32967-7323	US			false		
113-0608856-3595454	11259655319842	2020-06-07T01:25:06+00:00	2020-06-06T18:25:06-07:00	2020-06-07T01:51:26+00:00	2020-06-09T06:59:59+00:00	-2	v4vn1b2x2ktf1b6@marketplace.amazon.com	john lightfoot	+1 347-448-3190 ext. 70913	ABR0055	Purchase Now for Delivery by Wednesday | Arabella Farm Direct Bouquet of 12 Stems of Fresh Cut Hot Pink Roses in a Free Designer Glass Vase	1	0	1	SecondDay	Deak Turner	7543 MANISTIQUE DR			COLORADO SPRINGS	CO	80923-7451	US		We are here by your side we will continue to pray for you and your family.  Love ❤️  Lightfoot Gang From John & Chamere lightfoot	false		
113-0646968-7317049	03743716712698	2020-06-07T02:03:04+00:00	2020-06-06T19:03:04-07:00	2020-06-07T02:28:09+00:00	2020-06-09T06:59:59+00:00	-2	d31yftwl8jfjmy7@marketplace.amazon.com	Carolyn Klamp	+1 314-282-9402 ext. 32824	ABR015	Purchase Now for Delivery by Wednesday | Arabella Farm Direct Bouquet of 18 Fresh Cut Orange Roses with a Free Glass Vase	1	0	1	SecondDay	Margaret klamp	14895 CRESCENT COVE DR			FORT MYERS	FL	33908-4999	US		Happy Birthday to the mother of us all! We adore you and wish we could all be with you - sending hugs and tons of love! From The Klamps	false		
111-6369081-2722650	20101975101330	2020-06-07T02:20:37+00:00	2020-06-06T19:20:37-07:00	2020-06-07T02:45:18+00:00	2020-06-09T06:59:59+00:00	-2	8cphst5bcxp0krc@marketplace.amazon.com	Luisa Ward	+1 347-448-3190 ext. 80907	ABR0022	Purchase Now for Delivery by Wednesday | Arabella Farm Direct Bouquet of 12 Fresh Cut Pink Roses with a Free Glass Vase	1	0	1	SecondDay	Mrs. Eve Rendon	1905 PINE MEADOW DR			SANTA ROSA	CA	95403-1580	US			false		
111-6140536-5025015	18664518465226	2020-06-07T02:27:42+00:00	2020-06-06T19:27:42-07:00	2020-06-07T02:54:50+00:00	2020-06-09T06:59:59+00:00	-2	4bwtg6fdnvsxmx7@marketplace.amazon.com	Earl Holmes Brooks	+1 314-282-9402 ext. 24223	ABR0022	Purchase Now for Delivery by Wednesday | Arabella Farm Direct Bouquet of 12 Fresh Cut Pink Roses with a Free Glass Vase	1	0	1	SecondDay	Earl Holmes Brooks	5301 WYNDHOLME CIR UNIT 402			BALTIMORE	MD	21229-3289	US		Congrats to a very special graduate! Jessica, we love you so much, and we can't wait to see what you accomplish next. Love, Earl and Kamarah	false		
113-9147178-9773010	23055076997202	2020-06-07T02:32:12+00:00	2020-06-06T19:32:12-07:00	2020-06-07T02:57:52+00:00	2020-06-09T06:59:59+00:00	-2	0w8yycjsp690t97@marketplace.amazon.com	Esther Zorzi	+1 314-282-9402 ext. 33105	ABM010	Purchase Now for Delivery by Wednesday | Arabella Bouquets | Fields of The World Bouquet of Fresh Cut Flowers in a Free Designer Glass Vase	1	0	1	SecondDay	Julie McGuire	38 SIGNAL HILL TRL			SPARTA	NJ	07871-2545	US		You are the best. Thank you for all your help and talks. You helped me get my puppy. Thank Julie love you flora sad now wow From Esther Zorzi	false		
111-1190650-5461036	05879023587738	2020-06-07T02:53:28+00:00	2020-06-06T19:53:28-07:00	2020-06-07T02:59:58+00:00	2020-06-09T06:59:59+00:00	-2	vrzkph6ytj6tbdd@marketplace.amazon.com	danielle paradiso	+1 210-728-4548 ext. 22130	ABR0022	Purchase Now for Delivery by Wednesday | Arabella Farm Direct Bouquet of 12 Fresh Cut Pink Roses with a Free Glass Vase	1	0	1	SecondDay	Mary Carr	144 CREST AVE			ALAMO	CA	94507-2645	US		Thinking about you Mary. We are keeping you and your family in our prayers. From Danielle Cipolla	false		
113-6114247-4181861	51036645019314	2020-06-07T02:48:22+00:00	2020-06-06T19:48:22-07:00	2020-06-07T03:15:08+00:00	2020-06-09T06:59:59+00:00	-2	4gy7xj10c7spb36@marketplace.amazon.com	joanie blankfeld	+1 347-448-3190 ext. 60358	ABR0066	Purchase Now for Delivery by Wednesday | Arabella Bouquets | 12 Stems of Fresh Cut White Roses in a Free Designer Glass Vase	1	0	1	SecondDay	Valentina OHagan	52 YELLOW BRICK RD			WAYNE	NJ	07470-5496	US		Val, I really appreciate all you do. Thank you for hosting the repass on Saturday.. It really meant a lot to my sons and me. Love u! Joanie From joanie blankfeld	false		
114-2711200-2625028	07894891308890	2020-06-07T05:02:29+00:00	2020-06-06T22:02:29-07:00	2020-06-07T05:23:34+00:00	2020-06-09T06:59:59+00:00	-2	83mjgfpqlddg5fv@marketplace.amazon.com	Lillian Sanchez	+1 347-448-3190 ext. 50352	ABR0033	Purchase Now for Delivery by Wednesday | Arabella Farm Direct Bouquet of 12 Fresh Cut Orange Roses with a Free Glass Vase	1	0	1	SecondDay	Lillian Sanchez	1382 POPPY RIDGE CT			MERCED	CA	95348-0003	US		Congratulations Daena!!! From Lillian Sanchez-Ramos	false		
113-0999389-8295464	30574319094722	2020-06-07T05:49:50+00:00	2020-06-06T22:49:50-07:00	2020-06-07T06:11:09+00:00	2020-06-09T06:59:59+00:00	-2	f2jkfjmts2ctyd8@marketplace.amazon.com	jose a camaro	+1 210-728-4548 ext. 17537	ABR0022	Purchase Now for Delivery by Wednesday | Arabella Farm Direct Bouquet of 12 Fresh Cut Pink Roses with a Free Glass Vase	1	0	1	SecondDay	Mayie Acheritogaray	2644 CLEMENT ST			SAN FRANCISCO	CA	94121-1820	US		Sending you love and holding you and Jeaneau in our prayers. We are so sorry that Jeaneau is gone. May he Rest In Peace. We are here for you. Please let us know if you need anything. Love and hugs. From Sylvie Dutaret, Katherine and Jose Camaro	false		
114-9593833-2139453	56559008332506	2020-06-07T06:21:00+00:00	2020-06-06T23:21:00-07:00	2020-06-07T06:42:31+00:00	2020-06-09T06:59:59+00:00	-2	wp99tkrkg0745wd@marketplace.amazon.com	Daniel cappello	+1 210-728-4548 ext. 42164	ABR0022	Purchase Now for Delivery by Wednesday | Arabella Farm Direct Bouquet of 12 Fresh Cut Pink Roses with a Free Glass Vase	1	0	1	SecondDay	Daniel J Cappello	17 EVANSTON LN			PALM COAST	FL	32164-6210	US		Thank you for always being there, even when it was arduous and some. I am you. I am so grateful and blessed to be your son. :))))) From Daniel cappello	false		
111-7558235-9911406	22203679057810	2020-06-06T22:43:35+00:00	2020-06-06T15:43:35-07:00	2020-06-07T08:42:35+00:00	2020-06-11T06:59:59+00:00	-4	06y1vwhc6ckxwjf@marketplace.amazon.com	katherine Howell	+1917774601	ABM010	Purchase Now for Delivery by Wednesday | Arabella Bouquets | Fields of The World Bouquet of Fresh Cut Flowers in a Free Designer Glass Vase	1	0	1	Standard	Cynthia Ferrier	17321 JAMAICA AVE			JAMAICA	NY	11432-5523	US		Hi Love. Enjoy your gift! I Love You Forever More.	false		
113-4143208-2776221	65623273628010	2020-06-07T10:17:48+00:00	2020-06-07T03:17:48-07:00	2020-06-07T10:46:30+00:00	2020-06-09T06:59:59+00:00	-2	lpnth9hnffcv3dl@marketplace.amazon.com	michele paynr	+1 210-728-4548 ext. 21872	ABR0022	Purchase Now for Delivery by Wednesday | Arabella Farm Direct Bouquet of 12 Fresh Cut Pink Roses with a Free Glass Vase	1	0	1	SecondDay	Kathleen Fulmer	1676 PALMWOOD DR			CLEARWATER	FL	33756-3679	US		Sending love and prayers!!! Xoxo Michele and Caci. From michele payne	false		
111-8737333-8557855	20258772815626	2020-06-07T11:37:25+00:00	2020-06-07T04:37:25-07:00	2020-06-07T12:08:00+00:00	2020-06-09T06:59:59+00:00	-2	42gl880zkfbr406@marketplace.amazon.com	Angel Rodriguez	+1 314-282-9402 ext. 79313	ABR001	Purchase Now for Delivery by Wednesday | Arabella Bouquets 12 Stems of Fresh Cut Red Roses in a Free Designer Glass Vase	1	0	1	SecondDay	Angel Rodriguez	5407 PHARR LN			ZAPATA	TX	78076-9602	US			false		
114-1761916-8033800	35903135557058	2020-06-07T11:54:34+00:00	2020-06-07T04:54:34-07:00	2020-06-07T12:22:34+00:00	2020-06-09T06:59:59+00:00	-2	9pc6kf35k7499yw@marketplace.amazon.com	James Baker	+1 314-282-9402 ext. 02826	ABM010	Purchase Now for Delivery by Wednesday | Arabella Bouquets | Fields of The World Bouquet of Fresh Cut Flowers in a Free Designer Glass Vase	1	0	1	SecondDay	Sandi Lee Craig	3904 CHAMPIONS CT			FLOWER MOUND	TX	75028-8511	US		Happy Birthday  Love Jim	false		
114-1582359-7035449	48275872319818	2020-06-06T15:04:34+00:00	2020-06-06T08:04:34-07:00	2020-06-07T13:11:32+00:00	2020-06-09T06:59:59+00:00	-2	xsv498d82gg5cgx@marketplace.amazon.com	Shakira	+1 314-282-9402 ext. 12960	ABR0022	Purchase Now for Delivery by Wednesday | Arabella Farm Direct Bouquet of 12 Fresh Cut Pink Roses with a Free Glass Vase	1	0	1	SecondDay	Shakira	625 W 57TH ST APT 1205			NEW YORK	NY	10019-2658	US			false		
114-1059887-0071414	51743195700490	2020-06-07T12:58:30+00:00	2020-06-07T05:58:30-07:00	2020-06-07T13:29:07+00:00	2020-06-09T06:59:59+00:00	-2	2r9r5v2dzzrxst1@marketplace.amazon.com	Eliot  Brown	+1 763-225-9463 ext. 97962	ABR001	Purchase Now for Delivery by Wednesday | Arabella Bouquets 12 Stems of Fresh Cut Red Roses in a Free Designer Glass Vase	1	0	1	SecondDay	ELIOT H BROWN	713 SHADOW LANE	2437		TELLURIDE	CO	81435-2437	US			false		
112-5228033-7485836	52984532091474	2020-06-07T13:13:11+00:00	2020-06-07T06:13:11-07:00	2020-06-07T13:40:21+00:00	2020-06-09T06:59:59+00:00	-2	fvp9b453hvj25hm@marketplace.amazon.com	West	+1 210-728-4548 ext. 46421	ABR0022	Purchase Now for Delivery by Wednesday | Arabella Farm Direct Bouquet of 12 Fresh Cut Pink Roses with a Free Glass Vase	1	0	1	SecondDay	Bonnie lorie Sinclair	1785 STATE ROUTE 28 LOT 166			GOSHEN	OH	45122-9308	US		Because I can't stop thinking about you. ... Every time I think about you, my heart dances. It was hard to get out of bed this morning, because I just want to hold you forever.❤💋💋💋 From Mark Barry bull	false		
114-6213070-9553830	45583524441826	2020-06-07T13:48:21+00:00	2020-06-07T06:48:21-07:00	2020-06-07T14:16:51+00:00	2020-06-09T06:59:59+00:00	-2	kznb10kts1szbc6@marketplace.amazon.com	Sarita	+1 314-282-9402 ext. 45701	ABR0022	Purchase Now for Delivery by Wednesday | Arabella Farm Direct Bouquet of 12 Fresh Cut Pink Roses with a Free Glass Vase	1	0	1	SecondDay	Raida	16035 85TH ST			HOWARD BEACH	NY	11414-3051	US		Congratulations my baby girl. we are so proud of you.love you.❤❤ From Apu & viia	false		
111-5436907-3821009	20060585643874	2020-06-07T13:54:55+00:00	2020-06-07T06:54:55-07:00	2020-06-07T14:29:45+00:00	2020-06-09T06:59:59+00:00	-2	fbxns0bqt6zywsw@marketplace.amazon.com	Brendhan Goss	+1 347-448-3190 ext. 42687	ABR012	Arabella Farm Direct Bouquet of 18 Fresh Cut Pink Roses with a Free Glass Vase	1	0	1	SecondDay	Kristin Helm	550 DAVID AVE UNIT A			MONTEREY	CA	93940-1118	US		Happy birthday (belated) Kristin! You’re a wonderful person and I’m very glad you’re in my life. Ride, ride like the wind. From Brendhan Goss	false		
111-4585033-1861864	62037973271674	2020-06-07T14:10:02+00:00	2020-06-07T07:10:02-07:00	2020-06-07T14:36:41+00:00	2020-06-09T06:59:59+00:00	-2	kfdfhpkb667bgrm@marketplace.amazon.com	Maurice Lise	+1 763-225-9463 ext. 17627	ABM010	Purchase Now for Delivery by Wednesday | Arabella Bouquets | Fields of The World Bouquet of Fresh Cut Flowers in a Free Designer Glass Vase	1	0	1	SecondDay	Velma Beck	495 SASSAFRASS WAY			STROUDSBURG	PA	18360-8336	US		Grandma Beck,  For you, everyday is Mother’s Day. Love,  Maurice, Anika, Christine and Niobe from Tampa aka Paradise. From Maurice Lise	false		
113-5128454-0274625	30625488951482	2020-06-07T14:11:00+00:00	2020-06-07T07:11:00-07:00	2020-06-07T14:38:22+00:00	2020-06-09T06:59:59+00:00	-2	p45d8wwsbqw7rh7@marketplace.amazon.com	John Piecuch	+1 412-532-4665 ext. 47193	ABR014	Purchase Now for Delivery by Wednesday | Arabella Bouquets 18 Stems of Fresh Cut White Roses in a Free Designer Glass Vase	1	0	1	SecondDay	Sandi Patterson	905 KAYLA CT			NEWBURGH	NY	12550-8641	US			false		
113-2301477-9288236	15742372635194	2020-06-07T14:28:33+00:00	2020-06-07T07:28:33-07:00	2020-06-07T14:58:13+00:00	2020-06-09T06:59:59+00:00	-2	j8sb1h4x6j3ggk7@marketplace.amazon.com	Scott Griffin	+1 763-225-9463 ext. 83317	ABR0022	Purchase Now for Delivery by Wednesday | Arabella Farm Direct Bouquet of 12 Fresh Cut Pink Roses with a Free Glass Vase	1	0	1	SecondDay	Nancy Griffin	19643 SPYGLASS HILL DR			BATON ROUGE	LA	70809-6712	US			false		
111-6527259-4455438	04109602021594	2020-06-07T14:43:48+00:00	2020-06-07T07:43:48-07:00	2020-06-07T15:07:05+00:00	2020-06-09T06:59:59+00:00	-2	pfbx9d3sxntwx9h@marketplace.amazon.com	Lisa Squire	+1 210-728-4548 ext. 49419	ABR012	Arabella Farm Direct Bouquet of 18 Fresh Cut Pink Roses with a Free Glass Vase	1	0	1	SecondDay	Regina Squire	13 AERIE WYNDE DR			DENVILLE	NJ	07834-9303	US		Happy Birthday Gina...because no June Birthday should be celebrated without some June roses!  Love you 😍 From All of the PA Squires	false		
113-5292566-3481044	44667095657858	2020-06-07T14:51:49+00:00	2020-06-07T07:51:49-07:00	2020-06-07T15:12:19+00:00	2020-06-09T06:59:59+00:00	-2	ls2m9nl57db85xh@marketplace.amazon.com	gary sullivan	+1 347-448-3190 ext. 72509	ABR0066	Purchase Now for Delivery by Wednesday | Arabella Bouquets | 12 Stems of Fresh Cut White Roses in a Free Designer Glass Vase	1	0	1	SecondDay	Ramona Pacela	220 RAMETTO RD			SANTA BARBARA	CA	93108-2320	US		“May your home always be too small to hold all of your friend“... Congratulations on your irresistible dream home!  We are so happy for you. From Gary, William and Sally	false		
112-5990269-8755437	46378795976882	2020-06-07T14:56:36+00:00	2020-06-07T07:56:36-07:00	2020-06-07T15:26:17+00:00	2020-06-09T06:59:59+00:00	-2	8mnx474qcd2jcnx@marketplace.amazon.com	zac cieslak	+1 210-728-4548 ext. 32038	ABR001	Purchase Now for Delivery by Wednesday | Arabella Bouquets 12 Stems of Fresh Cut Red Roses in a Free Designer Glass Vase	1	0	1	SecondDay	Izabela Ziarko	7872 W CRESSETT DR			ELMWOOD PARK	IL	60707-1340	US		Happy one year darling. From Your little bear	false		
113-2873045-5020220	32033024583626	2020-06-07T15:05:47+00:00	2020-06-07T08:05:47-07:00	2020-06-07T15:29:23+00:00	2020-06-09T06:59:59+00:00	-2	8vgwxh0yn2s7mtm@marketplace.amazon.com	evan a. brathwaite	+1 314-282-9402 ext. 65844	ABR001	Purchase Now for Delivery by Wednesday | Arabella Bouquets 12 Stems of Fresh Cut Red Roses in a Free Designer Glass Vase	1	0	1	SecondDay	Jacqueline Leach	11722 221ST ST			CAMBRIA HEIGHTS	NY	11411-1613	US		Happy birthday ! Many more healthy , happy prosperous!  Together  I hope for a lasting bond between us  guided by truth, respect , selflessness and real love! Evan From Evan A. Brathwaite	false		
113-4923991-3365830	07597616436802	2020-06-07T15:17:20+00:00	2020-06-07T08:17:20-07:00	2020-06-07T15:42:50+00:00	2020-06-09T06:59:59+00:00	-2	vy5rpqjf3hb20p8@marketplace.amazon.com	bonnie	+1 314-282-9402 ext. 30686	ABR015	Purchase Now for Delivery by Wednesday | Arabella Farm Direct Bouquet of 18 Fresh Cut Orange Roses with a Free Glass Vase	1	0	1	SecondDay	Stephanie Klock	42 PINECLIFF DR			MARBLEHEAD	MA	01945-1247	US		Happy Birthday to a wonderful niece ! From Ant Bonnie and Anthony	false		
114-2391701-0568250	07368194310274	2020-06-07T15:24:15+00:00	2020-06-07T08:24:15-07:00	2020-06-07T15:51:10+00:00	2020-06-09T06:59:59+00:00	-2	d4m3645dy635pv0@marketplace.amazon.com	monica prasad	+1 314-282-9402 ext. 71265	ABR0022	Purchase Now for Delivery by Wednesday | Arabella Farm Direct Bouquet of 12 Fresh Cut Pink Roses with a Free Glass Vase	1	0	1	SecondDay	Monica Prasad	7624 FORDHAM CREEK LN			ORLANDO	FL	32818-8269	US		HAPPY BIRTHDAY MOM !!!! LOVE YOU From Monica with lots of love	false		
112-4417202-1405807	16169871537090	2020-06-07T15:38:17+00:00	2020-06-07T08:38:17-07:00	2020-06-07T16:03:59+00:00	2020-06-09T06:59:59+00:00	-2	766jsgz37dsp899@marketplace.amazon.com	Ben Cooper	+1 210-728-4548 ext. 51472	ABR0022	Purchase Now for Delivery by Wednesday | Arabella Farm Direct Bouquet of 12 Fresh Cut Pink Roses with a Free Glass Vase	1	0	1	SecondDay	Benjamin Cooper	9606 S TRACE RD			MILTON	FL	32583-9273	US		Happy Anniversary, I love you! From Ben Cooper	false		
