order-id	order-item-id	purchase-date	payments-date	reporting-date	promise-date	days-past-promise	buyer-email	buyer-name	buyer-phone-number	sku	product-name	quantity-purchased	quantity-shipped	quantity-to-ship	ship-service-level	recipient-name	ship-address-1	ship-address-2	ship-address-3	ship-city	ship-state	ship-postal-code	ship-country	gift-wrap-type	gift-message-text	is-business-order	purchase-order-number	price-designation
111-2762640-2107410	05380402437978	2020-06-06T11:35:19+00:00	2020-06-06T04:35:19-07:00	2020-06-06T12:00:32+00:00	2020-06-09T06:59:59+00:00	-1	yr9dz8gxhrb768c@marketplace.amazon.com	Thomas	+1 314-282-9402 ext. 88278	ABR0033	Purchase Now for Delivery by Tuesday | Arabella Farm Direct Bouquet of 12 Fresh Cut Orange Roses with a Free Glass Vase	1	0	1	SecondDay	Sixta Welch	1185 AVENIDA GANDARA			RIO RICO	AZ	85648-3315	US		If I know what love is, it is because of you. From Thomas	false		
114-0276587-7721074	36822433632370	2020-06-06T12:09:31+00:00	2020-06-06T05:09:31-07:00	2020-06-06T12:35:26+00:00	2020-06-09T06:59:59+00:00	-1	m0ml9ml882g4grf@marketplace.amazon.com	Koriann Arpaia Roberts	+1 347-448-3190 ext. 03154	ABR015	Purchase Now for Delivery by Tuesday | Arabella Farm Direct Bouquet of 18 Fresh Cut Orange Roses with a Free Glass Vase	1	0	1	SecondDay	Jennifer Derby	140 SW 128TH ST APT 303			NEWBERRY	FL	32669-3396	US		Last week was dumb butyou are one of the strongest people I know so brush it off and look to your future. You got this! And when you don't just look at these gorgeous flowers and know you have alot of people on your side. Kor From Koriann Roberts	false		
112-3030499-1877059	08833719692122	2020-06-06T12:17:10+00:00	2020-06-06T05:17:10-07:00	2020-06-06T12:43:44+00:00	2020-06-09T06:59:59+00:00	-1	13m5h7v6mjv1t9z@marketplace.amazon.com	christine	+1 347-448-3190 ext. 67935	ABR0022	Purchase Now for Delivery by Tuesday | Arabella Farm Direct Bouquet of 12 Fresh Cut Pink Roses with a Free Glass Vase	1	0	1	SecondDay	Nicole Sharpe	10746 DEERBERRY DR			LAND O LAKES	FL	34638-6892	US		We are so sorry for the loss of your brother.  Please know you are in our thoughts & prayers.  Love, Jim, Chris & Matthew From christine	false		
112-1592716-5107465	10296888523474	2020-06-06T12:32:10+00:00	2020-06-06T05:32:10-07:00	2020-06-06T13:02:08+00:00	2020-06-09T06:59:59+00:00	-1	zv7v85fljczpzlf@marketplace.amazon.com	Jasmine Cendra	+1 347-448-3190 ext. 32760	ABM002	Purchase Now for Delivery by Tuesday | Arabella Bouquets Fresh Cut White Calla Lilies in a Free Designer Glass Vase	1	0	1	SecondDay	Sharone Hodara	50 West street	Apt 51C		New York	New York	10006	US			false		
114-9158173-3985032	25748436745818	2020-06-06T12:48:46+00:00	2020-06-06T05:48:46-07:00	2020-06-06T13:14:54+00:00	2020-06-09T06:59:59+00:00	-1	j8y9mbpkjq405nf@marketplace.amazon.com	Marcus Roberts	+1 314-282-9402 ext. 91822	ABR0022	Purchase Now for Delivery by Tuesday | Arabella Farm Direct Bouquet of 12 Fresh Cut Pink Roses with a Free Glass Vase	1	0	1	SecondDay	Jasmine Roman	9105 NW 25TH ST			DORAL	FL	33172-1500	US		Know you haven’t been feeling well. Hope this brightens your day and many days to come. You are the sunshine through anything that comes through way. Stay beautiful and Bless From MJR	false		
111-0993833-4213839	15337864535546	2020-06-06T13:13:48+00:00	2020-06-06T06:13:48-07:00	2020-06-06T13:23:47+00:00	2020-06-09T06:59:59+00:00	-1	1kyd3p9qj7n20sg@marketplace.amazon.com	T. O.  FAWEHINMI	+1 347-448-3190 ext. 87888	ABR0022	Purchase Now for Delivery by Tuesday | Arabella Farm Direct Bouquet of 12 Fresh Cut Pink Roses with a Free Glass Vase	1	0	1	SecondDay	Mrs Titilayo Adelayo	1312 MOTLEY DR			MELISSA	TX	75454-0354	US		Happy Birthday to the World's Best Grandmother!  This is a special celebration of our super grandma. Pretty pink flowers for our precious perfect grandma! With loads and loads of love from your children and grandchildren in England	false		
113-5501981-6803455	13291261164058	2020-06-06T13:01:08+00:00	2020-06-06T06:01:08-07:00	2020-06-06T13:31:21+00:00	2020-06-09T06:59:59+00:00	-1	n6lg4255klyr71q@marketplace.amazon.com	Elizabeth	+1 347-448-3190 ext. 54335	ABR0022	Purchase Now for Delivery by Tuesday | Arabella Farm Direct Bouquet of 12 Fresh Cut Pink Roses with a Free Glass Vase	1	0	1	SecondDay	Marina Rozovsky	2617 E 17TH ST APT 5C			BROOKLYN	NY	11235-3833	US			false		
111-6796888-7501056	51637648727650	2020-06-06T13:11:40+00:00	2020-06-06T06:11:40-07:00	2020-06-06T13:41:20+00:00	2020-06-09T06:59:59+00:00	-1	jyg7r1bc0flg5ks@marketplace.amazon.com	K. Merryman	+1 347-448-3190 ext. 42712	ABR0066	Purchase Now for Delivery by Wednesday | Arabella Bouquets | 12 Stems of Fresh Cut White Roses in a Free Designer Glass Vase	1	0	1	SecondDay	Joan Merryman	2111 OUR LN			STEVENSON	MD	21153-0672	US			false		
111-6382436-4501050	03955748652002	2020-06-06T14:00:07+00:00	2020-06-06T07:00:07-07:00	2020-06-06T14:29:59+00:00	2020-06-09T06:59:59+00:00	-1	pwhkwlqsp007lwl@marketplace.amazon.com	Tom Di Bernardo	+1 347-448-3190 ext. 86741	ABR0055	Purchase Now for Delivery by Wednesday | Arabella Farm Direct Bouquet of 12 Stems of Fresh Cut Hot Pink Roses in a Free Designer Glass Vase	1	0	1	SecondDay	Elizabeth Smurawski	7441 DOROTHY LN			TINLEY PARK	IL	60477-2483	US			false		
111-4477038-3666631	04733599208146	2020-06-06T14:30:23+00:00	2020-06-06T07:30:23-07:00	2020-06-06T14:56:35+00:00	2020-06-09T06:59:59+00:00	-1	k3ngclbd374ws8g@marketplace.amazon.com	Leon Blakely	+1 210-728-4548 ext. 00677	ABR0066	Purchase Now for Delivery by Wednesday | Arabella Bouquets | 12 Stems of Fresh Cut White Roses in a Free Designer Glass Vase	1	0	1	SecondDay	Shalanda Jones	7894 GOODMAN BRANCH RD NE			LELAND	NC	28451-8727	US		Happy Birthday Lady Bug Enjoy your birthday Shalanda  Love you From Mom and Leon	false		
114-6588298-2690658	05037959888578	2020-06-06T14:29:44+00:00	2020-06-06T07:29:44-07:00	2020-06-06T14:57:57+00:00	2020-06-09T06:59:59+00:00	-1	2mj0d93rm2c7d25@marketplace.amazon.com	Julie Wilson	+1 347-448-3190 ext. 72279	ABR0022	Purchase Now for Delivery by Wednesday | Arabella Farm Direct Bouquet of 12 Fresh Cut Pink Roses with a Free Glass Vase	1	0	1	SecondDay	Marci Hess	3431 E 1200 N			ASHTON	ID	83420-5611	US		Happy Birthday Mommy! I love you so much. I hope your day is as wonderful as you are!   Love Julie Lynn From Julie Wilson	false		
112-0466887-8696231	25727958102666	2020-06-06T14:36:31+00:00	2020-06-06T07:36:31-07:00	2020-06-06T14:59:52+00:00	2020-06-09T06:59:59+00:00	-1	h7mp15wy9xxn4sq@marketplace.amazon.com	Jeanne Foy	+1 347-448-3190 ext. 64924	ABR012	Arabella Farm Direct Bouquet of 18 Fresh Cut Pink Roses with a Free Glass Vase	1	0	1	SecondDay	Wendy Parente	9 VIOLET RD			BAYVILLE	NY	11709-1818	US		Wendy,  We hope you feel better soon! Thinking of you- From Jeanne, Sean, and Aidan	false		
113-6543969-2657865	42943739718234	2020-06-06T14:32:44+00:00	2020-06-06T07:32:44-07:00	2020-06-06T15:00:35+00:00	2020-06-09T06:59:59+00:00	-1	7bfhwrk1f0my69y@marketplace.amazon.com	Juan	+1 210-728-4548 ext. 19640	ABM002	Purchase Now for Delivery by Wednesday | Arabella Bouquets Fresh Cut White Calla Lilies in a Free Designer Glass Vase	1	0	1	SecondDay	Rosario	HOME 220 FOWLER RD			SHELBYVILLE	TN	37160-7288	US			false		
113-4671708-5865068	07832934199186	2020-06-06T15:00:34+00:00	2020-06-06T08:00:34-07:00	2020-06-06T15:31:04+00:00	2020-06-09T06:59:59+00:00	-1	4474fdt03jlzqyk@marketplace.amazon.com	Neil Pineda	+1 210-728-4548 ext. 20600	ABR0022	Purchase Now for Delivery by Wednesday | Arabella Farm Direct Bouquet of 12 Fresh Cut Pink Roses with a Free Glass Vase	1	0	1	SecondDay	Neil Pineda	1653 Charles Drive			Wheeling	IL	60090	US			false		
113-8937955-9873814	18382074532058	2020-06-06T15:09:32+00:00	2020-06-06T08:09:32-07:00	2020-06-06T15:38:58+00:00	2020-06-09T06:59:59+00:00	-1	dz1kyf98jv1lmfj@marketplace.amazon.com	Noriko Takamoto	+1 314-282-9402 ext. 65578	ABM010	Purchase Now for Delivery by Wednesday | Arabella Bouquets | Fields of The World Bouquet of Fresh Cut Flowers in a Free Designer Glass Vase	1	0	1	SecondDay	Erika Lilian Kreuser	1583 SAINT AUGUSTINE CIR			HUBERTUS	WI	53033-9480	US			false		
113-8124109-1933801	12065583944386	2020-06-06T15:45:25+00:00	2020-06-06T08:45:25-07:00	2020-06-06T16:10:12+00:00	2020-06-09T06:59:59+00:00	-1	bn5sy2d0kc8l25w@marketplace.amazon.com	maureen sheridan	+1 347-448-3190 ext. 45428	ABR0022	Purchase Now for Delivery by Wednesday | Arabella Farm Direct Bouquet of 12 Fresh Cut Pink Roses with a Free Glass Vase	1	0	1	SecondDay	Marykate Dimaria	201 POND TER			TOWNSHIP OF WASHINGTON	NJ	07676-5121	US		Hi Marykate, Happy 50 th birthday! I hope you have a wonderful  year! Love, Maureen ❤️	false		
114-6840563-0668214	47461354786026	2020-06-06T15:43:19+00:00	2020-06-06T08:43:19-07:00	2020-06-06T16:11:13+00:00	2020-06-09T06:59:59+00:00	-1	7zkftkvc3b46052@marketplace.amazon.com	Jeff Potts	+1 347-448-3190 ext. 87242	ABR0022	Purchase Now for Delivery by Wednesday | Arabella Farm Direct Bouquet of 12 Fresh Cut Pink Roses with a Free Glass Vase	1	0	1	SecondDay	Miracle Muin	2503 GREENSPIRE CT			CHARLOTTE	NC	28262-1656	US		For my beautiful woman ❤️ From Jeff	false		
114-7890029-8925047	24427680086130	2020-06-06T15:58:09+00:00	2020-06-06T08:58:09-07:00	2020-06-06T16:20:24+00:00	2020-06-09T06:59:59+00:00	-1	5d5c0qbmm0wyln5@marketplace.amazon.com	Ying	+1 314-282-9402 ext. 12896	ABM010	Purchase Now for Delivery by Wednesday | Arabella Bouquets | Fields of The World Bouquet of Fresh Cut Flowers in a Free Designer Glass Vase	1	0	1	SecondDay	Dixie Cook	5427 E LEWIS AVE			PHOENIX	AZ	85008-2615	US		Hi Dixie, Sending you some love from the other side of the world! May you are surrounded with peace, love, faith and comfort  Have a blossoming summer! From Wynona	false		
112-4601290-3954617	49702665827562	2020-06-06T16:14:58+00:00	2020-06-06T09:14:58-07:00	2020-06-06T16:45:38+00:00	2020-06-09T06:59:59+00:00	-1	bcqhmlkkkx4zjzx@marketplace.amazon.com	Catherine Celestin	+1 210-728-4548 ext. 07306	ABR0022	Purchase Now for Delivery by Wednesday | Arabella Farm Direct Bouquet of 12 Fresh Cut Pink Roses with a Free Glass Vase	1	0	1	SecondDay	Lilliam Poltorack	8971 SW 8TH ST			PLANTATION	FL	33324-3723	US			false		
112-6429185-2599468	48217155910338	2020-06-06T16:29:28+00:00	2020-06-06T09:29:28-07:00	2020-06-06T16:55:50+00:00	2020-06-09T06:59:59+00:00	-1	k2s29ynxv3rhzqk@marketplace.amazon.com	Anandhi Bumstead	+1 210-728-4548 ext. 57744	ABM010	Purchase Now for Delivery by Wednesday | Arabella Bouquets | Fields of The World Bouquet of Fresh Cut Flowers in a Free Designer Glass Vase	1	0	1	SecondDay	Melissa Schoenen	7285 HUNTON ST			WARRENTON	VA	20187-2221	US		Hi Melissa, Happy Birthday! Celebrate and have a fabulous day Anandhi	false		
112-4482273-5122644	50097421209858	2020-06-06T16:26:05+00:00	2020-06-06T09:26:05-07:00	2020-06-06T16:56:04+00:00	2020-06-09T06:59:59+00:00	-1	vqlpzwtgtwtfgj6@marketplace.amazon.com	Yenny Toone	+1 347-448-3190 ext. 77890	ABR0022	Purchase Now for Delivery by Wednesday | Arabella Farm Direct Bouquet of 12 Fresh Cut Pink Roses with a Free Glass Vase	1	0	1	SecondDay	Miriam Lopez	140 ELGAR PL APT 29E			BRONX	NY	10475-5205	US			false		
111-9032842-7532204	08049111784994	2020-06-06T16:28:27+00:00	2020-06-06T09:28:27-07:00	2020-06-06T16:58:11+00:00	2020-06-09T06:59:59+00:00	-1	3j6cfcrljpq4rw2@marketplace.amazon.com	Stephon Robinson	+1 210-728-4548 ext. 80445	ABR001	Purchase Now for Delivery by Wednesday | Arabella Bouquets 12 Stems of Fresh Cut Red Roses in a Free Designer Glass Vase	1	0	1	SecondDay	Stephon Robinson	1901 W 84TH ST			LOS ANGELES	CA	90047-2908	US			false		
112-2672252-0452255	37293011443642	2020-06-06T16:55:10+00:00	2020-06-06T09:55:10-07:00	2020-06-06T17:14:50+00:00	2020-06-09T06:59:59+00:00	-1	yy0328dzh6yb62c@marketplace.amazon.com	Hugo	+1 763-225-9463 ext. 63535	ABR0022	Purchase Now for Delivery by Wednesday | Arabella Farm Direct Bouquet of 12 Fresh Cut Pink Roses with a Free Glass Vase	1	0	1	SecondDay	Latasha	5094 MEADOWSWEET DR			PALMDALE	CA	93551-5761	US		Hello honey, a gift from my heart to you and I hope you love it ..... From Noble O. Council	false		
111-6772391-3210649	52737431455834	2020-06-06T16:47:42+00:00	2020-06-06T09:47:42-07:00	2020-06-06T17:18:23+00:00	2020-06-09T06:59:59+00:00	-1	r6g6tbc65vnc6pf@marketplace.amazon.com	David O. Martin	+1 210-728-4548 ext. 81611	ABM010	Purchase Now for Delivery by Wednesday | Arabella Bouquets | Fields of The World Bouquet of Fresh Cut Flowers in a Free Designer Glass Vase	1	0	1	SecondDay	David O. Martin	8717 COUNTY ROUTE 87			HAMMONDSPORT	NY	14840-9789	US			false		
112-7970351-0715410	10455336890498	2020-06-06T16:58:48+00:00	2020-06-06T09:58:48-07:00	2020-06-06T17:25:13+00:00	2020-06-09T06:59:59+00:00	-1	6lsjw1v1pzcy9xv@marketplace.amazon.com	Michael DeCrescenzo	+1 210-728-4548 ext. 22169	ABR0022	Purchase Now for Delivery by Wednesday | Arabella Farm Direct Bouquet of 12 Fresh Cut Pink Roses with a Free Glass Vase	1	0	1	SecondDay	Ann Trozzi	1670 CONKLING AVE			UTICA	NY	13501-5120	US		Thinking of you and hope you feel better soon.  I love you very much. From Love your nephew, Michael	false		
113-1631026-6492269	69872494567762	2020-06-06T17:03:33+00:00	2020-06-06T10:03:33-07:00	2020-06-06T17:30:18+00:00	2020-06-09T06:59:59+00:00	-1	djxyfsjqzw21x77@marketplace.amazon.com	Gail Grossman	+1 314-282-9402 ext. 59435	ABM019	Arabella Bouquets | The Desert Sun Bouquet in a Free Designer Glass Vase	1	0	1	SecondDay	Julia Heitin	7 INCA TRL			SHARON	MA	02067-2889	US		Congratulations to my wonderful niece-  Best of luck on your new college adventure! Love, Aunt Gail From Gail Grossman	false		
111-7374799-1353860	18868581349986	2020-06-06T17:19:43+00:00	2020-06-06T10:19:43-07:00	2020-06-06T17:39:48+00:00	2020-06-09T06:59:59+00:00	-1	s1gnyptc596mpyv@marketplace.amazon.com	henry a. feldman	+1 314-282-9402 ext. 85248	ABR0022	Purchase Now for Delivery by Wednesday | Arabella Farm Direct Bouquet of 12 Fresh Cut Pink Roses with a Free Glass Vase	1	0	1	SecondDay	Aranka Siegal	1000 ISLAND BLVD APT 605			AVENTURA	FL	33160-4938	US		Hi Aranka, HAPPY 90TH BIRTHDAY--YOU ARE AN AMAZING WOMAN  with much love  Henry and Diane	false		
113-3481981-2717843	33437358870546	2020-06-06T17:47:00+00:00	2020-06-06T10:47:00-07:00	2020-06-06T18:14:57+00:00	2020-06-09T06:59:59+00:00	-1	kz0fkjj47km6t54@marketplace.amazon.com	Joni Kocet	+1 347-448-3190 ext. 18899	ABR0033	Purchase Now for Delivery by Wednesday | Arabella Farm Direct Bouquet of 12 Fresh Cut Orange Roses with a Free Glass Vase	1	0	1	SecondDay	Chuck and Karen Buchanan	27 LINDENWOOD DR			LITTLETON	CO	80120-4148	US		Dear Chuck and Karen ~  We can do anything ... ONE DAY AT A TIME!  Much Love,  Joni K	false		
114-4674816-1585841	19378317114906	2020-06-06T17:57:13+00:00	2020-06-06T10:57:13-07:00	2020-06-06T18:27:31+00:00	2020-06-09T06:59:59+00:00	-1	0l8tchdxzvzncbt@marketplace.amazon.com	tom drohan	+1 347-448-3190 ext. 59492	ABR0055	Purchase Now for Delivery by Wednesday | Arabella Farm Direct Bouquet of 12 Stems of Fresh Cut Hot Pink Roses in a Free Designer Glass Vase	1	0	1	SecondDay	Tom and Madeline Drohan	625 RANGELY DR			COLORADO SPRINGS	CO	80921-2623	US			false		
113-9303676-9249865	18118742287586	2020-06-06T18:03:15+00:00	2020-06-06T11:03:15-07:00	2020-06-06T18:33:49+00:00	2020-06-09T06:59:59+00:00	-1	mwjc14bky7jbv20@marketplace.amazon.com	Shiloh	+1 314-282-9402 ext. 70729	ABR0055	Purchase Now for Delivery by Wednesday | Arabella Farm Direct Bouquet of 12 Stems of Fresh Cut Hot Pink Roses in a Free Designer Glass Vase	1	0	1	SecondDay	Shiloh Marintzer	417 N 11th St			Sabetha	KS	66534-1713	US			false		
113-9619155-5956201	26203857822458	2020-06-06T18:08:58+00:00	2020-06-06T11:08:58-07:00	2020-06-06T18:36:45+00:00	2020-06-09T06:59:59+00:00	-1	7n857w793d6dp6k@marketplace.amazon.com	Blake5871	+1 210-728-4548 ext. 68592	ABR0022	Purchase Now for Delivery by Wednesday | Arabella Farm Direct Bouquet of 12 Fresh Cut Pink Roses with a Free Glass Vase	1	0	1	SecondDay	Blake Collins	3000 S 1ST ST APT 420			LUFKIN	TX	75901-7158	US			false		
111-8106964-3775421	06547330810898	2020-06-06T18:32:29+00:00	2020-06-06T11:32:29-07:00	2020-06-06T19:02:03+00:00	2020-06-09T06:59:59+00:00	-1	qhmwgzhkj95j1hk@marketplace.amazon.com	veer shah	+1 210-728-4548 ext. 08993	ABR0022	Purchase Now for Delivery by Wednesday | Arabella Farm Direct Bouquet of 12 Fresh Cut Pink Roses with a Free Glass Vase	1	0	1	SecondDay	Chandni Raval	6240 C corson Avenue			Seattle	Washington	98108	US		Happy Birthday Chandni. Have a lovely lovely day💕💕💕💕💕💕💕💕💕💕💕💕💕💕 From Veeri and Boo	false		
111-2866342-7435445	43134676093746	2020-06-06T18:44:11+00:00	2020-06-06T11:44:11-07:00	2020-06-06T19:13:58+00:00	2020-06-09T06:59:59+00:00	-1	x07122vw3z1bv0m@marketplace.amazon.com	David	908943277	ABR001	Purchase Now for Delivery by Wednesday | Arabella Bouquets 12 Stems of Fresh Cut Red Roses in a Free Designer Glass Vase	1	0	1	SecondDay	David	846 ELIZABETH AVE APT 1			ELIZABETH	NJ	07201-4729	US			false		
112-2681748-9316265	18899112867242	2020-06-06T18:53:02+00:00	2020-06-06T11:53:02-07:00	2020-06-06T19:23:00+00:00	2020-06-09T06:59:59+00:00	-1	7z6dw86f9dql7tw@marketplace.amazon.com	Steve Gilbert	+1 210-728-4548 ext. 35183	ABR0055	Purchase Now for Delivery by Wednesday | Arabella Farm Direct Bouquet of 12 Stems of Fresh Cut Hot Pink Roses in a Free Designer Glass Vase	1	0	1	SecondDay	Steven Grant Gilbert	1441 9th ave	Unit 505		SAN DIEGO	CA	92101	US			false		
113-1233633-9921048	64397513791066	2020-06-06T19:03:11+00:00	2020-06-06T12:03:11-07:00	2020-06-06T19:33:21+00:00	2020-06-09T06:59:59+00:00	-1	b33mcxdmzd0sj7y@marketplace.amazon.com	George burns	+1 210-728-4548 ext. 18183	ABR0022	Purchase Now for Delivery by Wednesday | Arabella Farm Direct Bouquet of 12 Fresh Cut Pink Roses with a Free Glass Vase	1	0	1	SecondDay	Sharon Weiner	16819 69TH AVE			FLUSHING	NY	11365-3248	US			false		
112-9137864-9537856	60504847526570	2020-06-06T19:09:15+00:00	2020-06-06T12:09:15-07:00	2020-06-06T19:34:12+00:00	2020-06-09T06:59:59+00:00	-1	h36tjxh1k1wllmc@marketplace.amazon.com	Bridget Kitchen	+1 210-728-4548 ext. 94695	ABM010	Purchase Now for Delivery by Wednesday | Arabella Bouquets | Fields of The World Bouquet of Fresh Cut Flowers in a Free Designer Glass Vase	1	0	1	SecondDay	Bonnie Bowling	1769 HOPKINS AVE			COLUMBUS	OH	43223-2817	US		Thinking of you always From Bridget & family	false		
113-8124398-4039469	13094249462786	2020-06-06T19:40:23+00:00	2020-06-06T12:40:23-07:00	2020-06-06T19:50:23+00:00	2020-06-09T06:59:59+00:00	-1	3y0zdywjnb6tlb7@marketplace.amazon.com	Arthur Swanson	+1 210-728-4548 ext. 88850	ABR0055	Purchase Now for Delivery by Wednesday | Arabella Farm Direct Bouquet of 12 Stems of Fresh Cut Hot Pink Roses in a Free Designer Glass Vase	1	0	1	SecondDay	Cathie Goldberg	808 FENWAY LN SW			TUMWATER	WA	98512-4604	US		, Happy birthday,cathie,love you, Dad	false		
114-5761139-5286637	37774650202666	2020-06-06T19:39:30+00:00	2020-06-06T12:39:30-07:00	2020-06-06T19:58:11+00:00	2020-06-09T06:59:59+00:00	-1	fxg9f9qyy8v6p1v@marketplace.amazon.com	Arlene Benigni	+1 412-532-4665 ext. 46964	ABR0055	Purchase Now for Delivery by Wednesday | Arabella Farm Direct Bouquet of 12 Stems of Fresh Cut Hot Pink Roses in a Free Designer Glass Vase	1	0	1	SecondDay	Kaiser Hospital/Teresa Ansani Rm#3064	1425 S MAIN ST			WALNUT CREEK	CA	94596-5318	US		Dear Teresa Hoping you get well real soon, we’re sending these flowers with love from all the Benigni’s since we are unable to visit you in person.  Love Arlene From Arlene Benigni	false		
111-1360411-4455436	05680755399162	2020-06-06T19:31:33+00:00	2020-06-06T12:31:33-07:00	2020-06-06T20:00:49+00:00	2020-06-09T06:59:59+00:00	-1	xwdw9s81ncq0rlf@marketplace.amazon.com	Amy Vicens	+1 210-728-4548 ext. 55621	ABR0022	Purchase Now for Delivery by Wednesday | Arabella Farm Direct Bouquet of 12 Fresh Cut Pink Roses with a Free Glass Vase	1	0	1	SecondDay	Rafaela Lemonier	425 SW 4TH AVE APT 708			FT LAUDERDALE	FL	33315-1064	US			false		
113-0215318-6260205	27811278263658	2020-06-06T19:45:32+00:00	2020-06-06T12:45:32-07:00	2020-06-06T20:11:55+00:00	2020-06-09T06:59:59+00:00	-1	jz0tn88wgf9hn1n@marketplace.amazon.com	Shamar	+1 347-448-3190 ext. 56600	ABR0033	Purchase Now for Delivery by Wednesday | Arabella Farm Direct Bouquet of 12 Fresh Cut Orange Roses with a Free Glass Vase	1	0	1	SecondDay	Seychelles Voit	187 ANDANADA ST			LOS ALAMOS	NM	87544-2401	US		Enjoy your gift! From BBC	false		
114-8965458-7060268	36456185927090	2020-06-06T19:50:54+00:00	2020-06-06T12:50:54-07:00	2020-06-06T20:16:54+00:00	2020-06-09T06:59:59+00:00	-1	mgbn3cwbbkm6ysf@marketplace.amazon.com	abel	+1 210-728-4548 ext. 32392	ABR0022	Purchase Now for Delivery by Wednesday | Arabella Farm Direct Bouquet of 12 Fresh Cut Pink Roses with a Free Glass Vase	1	0	1	SecondDay	Braulio Paredes	304 MAGNOLIA AVE APT 3			JERSEY CITY	NJ	07306-3907	US		for you my one and only true love, mi reina Xeni :) From abel	false		
114-4033354-0847433	17925309685746	2020-06-06T20:19:29+00:00	2020-06-06T13:19:29-07:00	2020-06-06T20:35:13+00:00	2020-06-09T06:59:59+00:00	-1	7p3mszmvv7fpdyn@marketplace.amazon.com	Bijoy Mohapatra	+1 314-282-9402 ext. 11963	ABR0022	Purchase Now for Delivery by Wednesday | Arabella Farm Direct Bouquet of 12 Fresh Cut Pink Roses with a Free Glass Vase	1	0	1	SecondDay	Bibhu Mohapatra	469 SHARPTOWN RD			STUYVESANT	NY	12173-2509	US			false		
114-5644125-9393850	70169551640602	2020-06-06T20:24:05+00:00	2020-06-06T13:24:05-07:00	2020-06-06T20:45:24+00:00	2020-06-09T06:59:59+00:00	-1	mwvjr0pm0gg8rqq@marketplace.amazon.com	Gilbert Hernandez	+1 314-282-9402 ext. 78177	ABR0022	Purchase Now for Delivery by Wednesday | Arabella Farm Direct Bouquet of 12 Fresh Cut Pink Roses with a Free Glass Vase	1	0	1	SecondDay	Courtney Stocking	930 W 29TH ST  2			CHICAGO	IL	60608-5834	US		A very happy blessed birthday court! You are a true gift to everyone in your life! Love and miss you always!! From Kassie	false		
112-0092958-4296263	43506129664970	2020-06-06T20:39:45+00:00	2020-06-06T13:39:45-07:00	2020-06-06T21:07:18+00:00	2020-06-09T06:59:59+00:00	-1	2z0bj534p5z47bb@marketplace.amazon.com	Veronica Fansler	+1 210-728-4548 ext. 81225	ABR0055	Purchase Now for Delivery by Wednesday | Arabella Farm Direct Bouquet of 12 Stems of Fresh Cut Hot Pink Roses in a Free Designer Glass Vase	1	0	1	SecondDay	Chloe Fansler	1925 CHESHAM DR			CARROLLTON	TX	75007-2403	US		Happy Birthday Chloe        Love you Noodle                  Dada From Charlie Fansler	false		
111-2158911-8177056	20973115796130	2020-06-06T20:50:54+00:00	2020-06-06T13:50:54-07:00	2020-06-06T21:20:05+00:00	2020-06-09T06:59:59+00:00	-1	4j8my8fzvjlxp38@marketplace.amazon.com	Dr. Ali Navab	+1 347-448-3190 ext. 86458	ABR0066	Purchase Now for Delivery by Wednesday | Arabella Bouquets | 12 Stems of Fresh Cut White Roses in a Free Designer Glass Vase	1	0	1	SecondDay	Maria Garcia	1129 WASHINGTON AVE APT 2ND FLOOR			BROOKLYN	NY	11225-3713	US		Dear Maria and Alex, We are so thrilled to hear about your engagement. Congratulations! We wish you both joy, harmony, loyalty, patience, love and understanding. All our love, The Navab family. From The Navab family	false		
111-3239594-8184220	38890461228778	2020-06-06T20:59:56+00:00	2020-06-06T13:59:56-07:00	2020-06-06T21:29:01+00:00	2020-06-09T06:59:59+00:00	-1	t3vlh1t4k9xmvw5@marketplace.amazon.com	Vanessa Lyons	+1 347-448-3190 ext. 54400	ABR0055	Purchase Now for Delivery by Wednesday | Arabella Farm Direct Bouquet of 12 Stems of Fresh Cut Hot Pink Roses in a Free Designer Glass Vase	1	0	1	SecondDay	Portia Lyons	716 North Reeve Rd			St Helena Island	SC	29920	US		Happy Birthday Mommy Portia!!!  Love you!! From Vanessa and Christian	false		
112-3576751-0949811	47382512688930	2020-06-06T21:17:57+00:00	2020-06-06T14:17:57-07:00	2020-06-06T21:47:52+00:00	2020-06-09T06:59:59+00:00	-1	6cysyzs23zdtyjz@marketplace.amazon.com	valarie	+1 347-448-3190 ext. 32633	ABR0022	Purchase Now for Delivery by Wednesday | Arabella Farm Direct Bouquet of 12 Fresh Cut Pink Roses with a Free Glass Vase	1	0	1	SecondDay	Dave and Peg Lake	1832 S 10TH ST W			MISSOULA	MT	59801-3418	US		HAPPY HAPPY BIRTHDAY! Love you, Valarie From valarie	false		
113-1729887-0597834	48067750029826	2020-06-06T21:35:46+00:00	2020-06-06T14:35:46-07:00	2020-06-06T22:06:30+00:00	2020-06-09T06:59:59+00:00	-1	753frcjqh2zlz29@marketplace.amazon.com	Robert Easter	+1 347-448-3190 ext. 49200	ABM0044	Purchase Now for Delivery by Wednesday | Arabella Farm Direct Bouquet of Fresh Cut Blue Hydrangea with a Free Glass Vase	1	0	1	SecondDay	Linda Easter	6110 TWIN POINT COVE RD			CAMBRIDGE	MD	21613-3217	US			false		
113-1729887-0597834	12175480827834	2020-06-06T21:35:46+00:00	2020-06-06T14:35:46-07:00	2020-06-06T22:06:30+00:00	2020-06-09T06:59:59+00:00	-1	753frcjqh2zlz29@marketplace.amazon.com	Robert Easter	+1 347-448-3190 ext. 49200	ABR0066	Purchase Now for Delivery by Wednesday | Arabella Bouquets | 12 Stems of Fresh Cut White Roses in a Free Designer Glass Vase	1	0	1	SecondDay	Linda Easter	6110 TWIN POINT COVE RD			CAMBRIDGE	MD	21613-3217	US			false		
113-1729887-0597834	47042942463314	2020-06-06T21:35:46+00:00	2020-06-06T14:35:46-07:00	2020-06-06T22:06:30+00:00	2020-06-09T06:59:59+00:00	-1	753frcjqh2zlz29@marketplace.amazon.com	Robert Easter	+1 347-448-3190 ext. 49200	ABM0033	Purchase Now for Delivery by Wednesday | Arabella Farm Direct Bouquet of Fresh Cut White Hydrangea with a Free Glass Vase	1	0	1	SecondDay	Linda Easter	6110 TWIN POINT COVE RD			CAMBRIDGE	MD	21613-3217	US			false		
111-5849658-9380213	66295993322330	2020-06-06T21:38:48+00:00	2020-06-06T14:38:48-07:00	2020-06-06T22:07:53+00:00	2020-06-09T06:59:59+00:00	-1	vb38gbxvs1gz6xv@marketplace.amazon.com	Brandon	+1 210-728-4548 ext. 97233	ABM010	Purchase Now for Delivery by Wednesday | Arabella Bouquets | Fields of The World Bouquet of Fresh Cut Flowers in a Free Designer Glass Vase	1	0	1	SecondDay	Kim Whitlock	10141 FREEPORT CT			SAN DIEGO	CA	92129-3201	US		Congrats!	false		
112-4286017-5486633	67156277650994	2020-06-06T22:13:04+00:00	2020-06-06T15:13:04-07:00	2020-06-06T22:42:28+00:00	2020-06-09T06:59:59+00:00	-1	r1fh5xjxc7m8hzq@marketplace.amazon.com	andrew bullock	+1 412-532-4665 ext. 16124	ABM010	Purchase Now for Delivery by Wednesday | Arabella Bouquets | Fields of The World Bouquet of Fresh Cut Flowers in a Free Designer Glass Vase	1	0	1	SecondDay	Jess Fischer	7412 ALVAH AVE STE B			BALTIMORE	MD	21222-2066	US		Happy birthday! You are amazing and appreciated tremendously! From Drew Bullock	false		
111-4053872-8349050	37154987920586	2020-06-06T22:16:38+00:00	2020-06-06T15:16:38-07:00	2020-06-06T22:42:42+00:00	2020-06-09T06:59:59+00:00	-1	9vbwq18r7w4w0rp@marketplace.amazon.com	mvgopinath	+1 314-282-9402 ext. 96511	ABR001	Purchase Now for Delivery by Wednesday | Arabella Bouquets 12 Stems of Fresh Cut Red Roses in a Free Designer Glass Vase	1	0	1	SecondDay	LILI BAI	1835 WALNUT CREEK CT			COLORADO SPRINGS	CO	80921-3870	US		Hi LILI, Happy birthday wishes  From mvgopinath	false		
112-3812522-1490655	16946226690034	2020-06-06T22:22:43+00:00	2020-06-06T15:22:43-07:00	2020-06-06T22:51:23+00:00	2020-06-09T06:59:59+00:00	-1	qw7wywrc835btwh@marketplace.amazon.com	ryan mshaw	+1 763-225-9463 ext. 41685	ABR0033	Purchase Now for Delivery by Wednesday | Arabella Farm Direct Bouquet of 12 Fresh Cut Orange Roses with a Free Glass Vase	1	0	1	SecondDay	Rosemary Shaw	1111 COUNTRY CLUB CIR			BIRMINGHAM	AL	35244-1473	US		Happy Birthday Mom!!! Wish we could be with you on your big day. Miss and love you so much! Love Ryan & Jason	false		
112-3071390-9922616	59500177812914	2020-06-06T22:27:32+00:00	2020-06-06T15:27:32-07:00	2020-06-06T22:56:28+00:00	2020-06-09T06:59:59+00:00	-1	d0ybms50bccydf1@marketplace.amazon.com	Melanie Tobias	+1 314-282-9402 ext. 33982	ABR0033	Purchase Now for Delivery by Wednesday | Arabella Farm Direct Bouquet of 12 Fresh Cut Orange Roses with a Free Glass Vase	1	0	1	SecondDay	Marisa Kamer	3732 FALKNER DR			NAPERVILLE	IL	60564-6102	US		Happy Birthday Mama Ris! Love you! From Melanie Tobias	false		
112-5399082-8623408	06002149504010	2020-06-06T22:33:17+00:00	2020-06-06T15:33:17-07:00	2020-06-06T23:01:07+00:00	2020-06-09T06:59:59+00:00	-1	5ltp4bsq22n27dh@marketplace.amazon.com	Matthew Silver	+1 210-728-4548 ext. 02995	ABR0022	Purchase Now for Delivery by Wednesday | Arabella Farm Direct Bouquet of 12 Fresh Cut Pink Roses with a Free Glass Vase	1	0	1	SecondDay	Maeryn Schatz	315 W WISCONSIN ST			CHICAGO	IL	60614-5415	US		Congratulations on Latin School finally recognizing you and your talent! I’m SO proud of you! Love you!!! From Matt & Grant	false		
111-1393457-3292260	50711275403290	2020-06-06T22:39:47+00:00	2020-06-06T15:39:47-07:00	2020-06-06T23:09:40+00:00	2020-06-09T06:59:59+00:00	-1	c38kxrd9khzb07p@marketplace.amazon.com	BDX4LIF3	+1 210-728-4548 ext. 46078	ABR001	Purchase Now for Delivery by Wednesday | Arabella Bouquets 12 Stems of Fresh Cut Red Roses in a Free Designer Glass Vase	1	0	1	SecondDay	Xander Wilson	2914 55TH ST			VALLEY	AL	36854-5057	US			false		
114-8325031-3294645	26924551917778	2020-06-06T23:05:21+00:00	2020-06-06T16:05:21-07:00	2020-06-06T23:35:31+00:00	2020-06-09T06:59:59+00:00	-1	1vyfb7fgwndbqgb@marketplace.amazon.com	Amanda Robl	+1 314-282-9402 ext. 48558	ABR0055	Purchase Now for Delivery by Wednesday | Arabella Farm Direct Bouquet of 12 Stems of Fresh Cut Hot Pink Roses in a Free Designer Glass Vase	1	0	1	SecondDay	Amanda Robl	48351 277TH ST			CANTON	SD	57013-5507	US			false		
111-1884492-9987458	34961946066666	2020-06-06T23:19:57+00:00	2020-06-06T16:19:57-07:00	2020-06-06T23:45:51+00:00	2020-06-09T06:59:59+00:00	-1	ycztzz1d79kjht9@marketplace.amazon.com	linda s. schmid	+1 347-448-3190 ext. 29692	ABR0022	Purchase Now for Delivery by Wednesday | Arabella Farm Direct Bouquet of 12 Fresh Cut Pink Roses with a Free Glass Vase	1	0	1	SecondDay	Lindsay Alexander	220 BURR ST			FAIRFIELD	CT	06824-7155	US			false		
114-2861527-7273064	62675051336138	2020-06-06T23:26:03+00:00	2020-06-06T16:26:03-07:00	2020-06-06T23:55:59+00:00	2020-06-09T06:59:59+00:00	-1	k1mygwwgbtpnmt7@marketplace.amazon.com	Avangelina mahan	+1 347-448-3190 ext. 72732	ABR0033	Purchase Now for Delivery by Wednesday | Arabella Farm Direct Bouquet of 12 Fresh Cut Orange Roses with a Free Glass Vase	1	0	1	SecondDay	MR SCOTT Q MAHAN	8111 E WOODWIND			ORANGE	CA	92869	US		Praying Connie .. love you From Avangelina mahan	false		
113-0356922-9843404	34944163789474	2020-06-06T23:47:44+00:00	2020-06-06T16:47:44-07:00	2020-06-07T00:18:06+00:00	2020-06-09T06:59:59+00:00	-1	t0v176xb0z5nzhz@marketplace.amazon.com	Heriberto Mejia	+1 347-448-3190 ext. 07736	ABR0022	Purchase Now for Delivery by Wednesday | Arabella Farm Direct Bouquet of 12 Fresh Cut Pink Roses with a Free Glass Vase	1	0	1	SecondDay	Heriberto Mejia	2038 S OLD WIRE RD			ROGERS	AR	72758-7566	US			false		
113-4064356-6872227	19359921861706	2020-06-07T00:02:26+00:00	2020-06-06T17:02:26-07:00	2020-06-07T00:27:58+00:00	2020-06-09T06:59:59+00:00	-1	jttlr2v44mln8mv@marketplace.amazon.com	April Stevens	+1 347-448-3190 ext. 93989	ABM010	Purchase Now for Delivery by Wednesday | Arabella Bouquets | Fields of The World Bouquet of Fresh Cut Flowers in a Free Designer Glass Vase	1	0	1	SecondDay	Emma Medina	7027 W CANTERBURY DR			PEORIA	AZ	85345-8714	US		HAPPY BIRTHDAY!! WE LOVE YOU!!! From Ally, April, & Ann	false		
114-3659170-1449069	32275922985690	2020-06-07T01:16:03+00:00	2020-06-06T18:16:03-07:00	2020-06-07T01:46:44+00:00	2020-06-09T06:59:59+00:00	-1	wkb63djbcxq2wfv@marketplace.amazon.com	Geraldine DiPalma	+1 347-448-3190 ext. 82632	ABR004	Arabella Farm Direct Bouquet of 12 Fresh Cut Yellow Roses with a Free Glass Vase	1	0	1	SecondDay	Geraldine I DiPalma	1460 COVENTRY LN			VERO BEACH	FL	32967-7323	US			false		
113-0608856-3595454	11259655319842	2020-06-07T01:25:06+00:00	2020-06-06T18:25:06-07:00	2020-06-07T01:51:26+00:00	2020-06-09T06:59:59+00:00	-1	v4vn1b2x2ktf1b6@marketplace.amazon.com	john lightfoot	+1 347-448-3190 ext. 70913	ABR0055	Purchase Now for Delivery by Wednesday | Arabella Farm Direct Bouquet of 12 Stems of Fresh Cut Hot Pink Roses in a Free Designer Glass Vase	1	0	1	SecondDay	Deak Turner	7543 MANISTIQUE DR			COLORADO SPRINGS	CO	80923-7451	US		We are here by your side we will continue to pray for you and your family.  Love ❤️  Lightfoot Gang From John & Chamere lightfoot	false		
113-0646968-7317049	03743716712698	2020-06-07T02:03:04+00:00	2020-06-06T19:03:04-07:00	2020-06-07T02:28:09+00:00	2020-06-09T06:59:59+00:00	-1	d31yftwl8jfjmy7@marketplace.amazon.com	Carolyn Klamp	+1 314-282-9402 ext. 32824	ABR015	Purchase Now for Delivery by Wednesday | Arabella Farm Direct Bouquet of 18 Fresh Cut Orange Roses with a Free Glass Vase	1	0	1	SecondDay	Margaret klamp	14895 CRESCENT COVE DR			FORT MYERS	FL	33908-4999	US		Happy Birthday to the mother of us all! We adore you and wish we could all be with you - sending hugs and tons of love! From The Klamps	false		
111-6369081-2722650	20101975101330	2020-06-07T02:20:37+00:00	2020-06-06T19:20:37-07:00	2020-06-07T02:45:18+00:00	2020-06-09T06:59:59+00:00	-1	8cphst5bcxp0krc@marketplace.amazon.com	Luisa Ward	+1 347-448-3190 ext. 80907	ABR0022	Purchase Now for Delivery by Wednesday | Arabella Farm Direct Bouquet of 12 Fresh Cut Pink Roses with a Free Glass Vase	1	0	1	SecondDay	Mrs. Eve Rendon	1905 PINE MEADOW DR			SANTA ROSA	CA	95403-1580	US			false		
111-6140536-5025015	18664518465226	2020-06-07T02:27:42+00:00	2020-06-06T19:27:42-07:00	2020-06-07T02:54:50+00:00	2020-06-09T06:59:59+00:00	-1	4bwtg6fdnvsxmx7@marketplace.amazon.com	Earl Holmes Brooks	+1 314-282-9402 ext. 24223	ABR0022	Purchase Now for Delivery by Wednesday | Arabella Farm Direct Bouquet of 12 Fresh Cut Pink Roses with a Free Glass Vase	1	0	1	SecondDay	Earl Holmes Brooks	5301 WYNDHOLME CIR UNIT 402			BALTIMORE	MD	21229-3289	US		Congrats to a very special graduate! Jessica, we love you so much, and we can't wait to see what you accomplish next. Love, Earl and Kamarah	false		
113-9147178-9773010	23055076997202	2020-06-07T02:32:12+00:00	2020-06-06T19:32:12-07:00	2020-06-07T02:57:52+00:00	2020-06-09T06:59:59+00:00	-1	0w8yycjsp690t97@marketplace.amazon.com	Esther Zorzi	+1 314-282-9402 ext. 33105	ABM010	Purchase Now for Delivery by Wednesday | Arabella Bouquets | Fields of The World Bouquet of Fresh Cut Flowers in a Free Designer Glass Vase	1	0	1	SecondDay	Julie McGuire	38 SIGNAL HILL TRL			SPARTA	NJ	07871-2545	US		You are the best. Thank you for all your help and talks. You helped me get my puppy. Thank Julie love you flora sad now wow From Esther Zorzi	false		
111-1190650-5461036	05879023587738	2020-06-07T02:53:28+00:00	2020-06-06T19:53:28-07:00	2020-06-07T02:59:58+00:00	2020-06-09T06:59:59+00:00	-1	vrzkph6ytj6tbdd@marketplace.amazon.com	danielle paradiso	+1 210-728-4548 ext. 22130	ABR0022	Purchase Now for Delivery by Wednesday | Arabella Farm Direct Bouquet of 12 Fresh Cut Pink Roses with a Free Glass Vase	1	0	1	SecondDay	Mary Carr	144 CREST AVE			ALAMO	CA	94507-2645	US		Thinking about you Mary. We are keeping you and your family in our prayers. From Danielle Cipolla	false		
113-6114247-4181861	51036645019314	2020-06-07T02:48:22+00:00	2020-06-06T19:48:22-07:00	2020-06-07T03:15:08+00:00	2020-06-09T06:59:59+00:00	-1	4gy7xj10c7spb36@marketplace.amazon.com	joanie blankfeld	+1 347-448-3190 ext. 60358	ABR0066	Purchase Now for Delivery by Wednesday | Arabella Bouquets | 12 Stems of Fresh Cut White Roses in a Free Designer Glass Vase	1	0	1	SecondDay	Valentina OHagan	52 YELLOW BRICK RD			WAYNE	NJ	07470-5496	US		Val, I really appreciate all you do. Thank you for hosting the repass on Saturday.. It really meant a lot to my sons and me. Love u! Joanie From joanie blankfeld	false		
114-2711200-2625028	07894891308890	2020-06-07T05:02:29+00:00	2020-06-06T22:02:29-07:00	2020-06-07T05:23:34+00:00	2020-06-09T06:59:59+00:00	-1	83mjgfpqlddg5fv@marketplace.amazon.com	Lillian Sanchez	+1 347-448-3190 ext. 50352	ABR0033	Purchase Now for Delivery by Wednesday | Arabella Farm Direct Bouquet of 12 Fresh Cut Orange Roses with a Free Glass Vase	1	0	1	SecondDay	Lillian Sanchez	1382 POPPY RIDGE CT			MERCED	CA	95348-0003	US		Congratulations Daena!!! From Lillian Sanchez-Ramos	false		
113-0999389-8295464	30574319094722	2020-06-07T05:49:50+00:00	2020-06-06T22:49:50-07:00	2020-06-07T06:11:09+00:00	2020-06-09T06:59:59+00:00	-1	f2jkfjmts2ctyd8@marketplace.amazon.com	jose a camaro	+1 210-728-4548 ext. 17537	ABR0022	Purchase Now for Delivery by Wednesday | Arabella Farm Direct Bouquet of 12 Fresh Cut Pink Roses with a Free Glass Vase	1	0	1	SecondDay	Mayie Acheritogaray	2644 CLEMENT ST			SAN FRANCISCO	CA	94121-1820	US		Sending you love and holding you and Jeaneau in our prayers. We are so sorry that Jeaneau is gone. May he Rest In Peace. We are here for you. Please let us know if you need anything. Love and hugs. From Sylvie Dutaret, Katherine and Jose Camaro	false		
114-9593833-2139453	56559008332506	2020-06-07T06:21:00+00:00	2020-06-06T23:21:00-07:00	2020-06-07T06:42:31+00:00	2020-06-09T06:59:59+00:00	-1	wp99tkrkg0745wd@marketplace.amazon.com	Daniel cappello	+1 210-728-4548 ext. 42164	ABR0022	Purchase Now for Delivery by Wednesday | Arabella Farm Direct Bouquet of 12 Fresh Cut Pink Roses with a Free Glass Vase	1	0	1	SecondDay	Daniel J Cappello	17 EVANSTON LN			PALM COAST	FL	32164-6210	US		Thank you for always being there, even when it was arduous and some. I am you. I am so grateful and blessed to be your son. :))))) From Daniel cappello	false		
111-7558235-9911406	22203679057810	2020-06-06T22:43:35+00:00	2020-06-06T15:43:35-07:00	2020-06-07T08:42:35+00:00	2020-06-11T06:59:59+00:00	-3	06y1vwhc6ckxwjf@marketplace.amazon.com	katherine Howell	+1917774601	ABM010	Purchase Now for Delivery by Wednesday | Arabella Bouquets | Fields of The World Bouquet of Fresh Cut Flowers in a Free Designer Glass Vase	1	0	1	Standard	Cynthia Ferrier	17321 JAMAICA AVE			JAMAICA	NY	11432-5523	US		Hi Love. Enjoy your gift! I Love You Forever More.	false		
113-4143208-2776221	65623273628010	2020-06-07T10:17:48+00:00	2020-06-07T03:17:48-07:00	2020-06-07T10:46:30+00:00	2020-06-09T06:59:59+00:00	-1	lpnth9hnffcv3dl@marketplace.amazon.com	michele paynr	+1 210-728-4548 ext. 21872	ABR0022	Purchase Now for Delivery by Wednesday | Arabella Farm Direct Bouquet of 12 Fresh Cut Pink Roses with a Free Glass Vase	1	0	1	SecondDay	Kathleen Fulmer	1676 PALMWOOD DR			CLEARWATER	FL	33756-3679	US		Sending love and prayers!!! Xoxo Michele and Caci. From michele payne	false		
111-8737333-8557855	20258772815626	2020-06-07T11:37:25+00:00	2020-06-07T04:37:25-07:00	2020-06-07T12:08:00+00:00	2020-06-09T06:59:59+00:00	-1	42gl880zkfbr406@marketplace.amazon.com	Angel Rodriguez	+1 314-282-9402 ext. 79313	ABR001	Purchase Now for Delivery by Wednesday | Arabella Bouquets 12 Stems of Fresh Cut Red Roses in a Free Designer Glass Vase	1	0	1	SecondDay	Angel Rodriguez	5407 PHARR LN			ZAPATA	TX	78076-9602	US			false		
114-1761916-8033800	35903135557058	2020-06-07T11:54:34+00:00	2020-06-07T04:54:34-07:00	2020-06-07T12:22:34+00:00	2020-06-09T06:59:59+00:00	-1	9pc6kf35k7499yw@marketplace.amazon.com	James Baker	+1 314-282-9402 ext. 02826	ABM010	Purchase Now for Delivery by Wednesday | Arabella Bouquets | Fields of The World Bouquet of Fresh Cut Flowers in a Free Designer Glass Vase	1	0	1	SecondDay	Sandi Lee Craig	3904 CHAMPIONS CT			FLOWER MOUND	TX	75028-8511	US		Happy Birthday  Love Jim	false		
114-1582359-7035449	48275872319818	2020-06-06T15:04:34+00:00	2020-06-06T08:04:34-07:00	2020-06-07T13:11:32+00:00	2020-06-09T06:59:59+00:00	-1	xsv498d82gg5cgx@marketplace.amazon.com	Shakira	+1 314-282-9402 ext. 12960	ABR0022	Purchase Now for Delivery by Wednesday | Arabella Farm Direct Bouquet of 12 Fresh Cut Pink Roses with a Free Glass Vase	1	0	1	SecondDay	Shakira	625 W 57TH ST APT 1205			NEW YORK	NY	10019-2658	US			false		
114-1059887-0071414	51743195700490	2020-06-07T12:58:30+00:00	2020-06-07T05:58:30-07:00	2020-06-07T13:29:07+00:00	2020-06-09T06:59:59+00:00	-1	2r9r5v2dzzrxst1@marketplace.amazon.com	Eliot  Brown	+1 763-225-9463 ext. 97962	ABR001	Purchase Now for Delivery by Wednesday | Arabella Bouquets 12 Stems of Fresh Cut Red Roses in a Free Designer Glass Vase	1	0	1	SecondDay	ELIOT H BROWN	713 SHADOW LANE	2437		TELLURIDE	CO	81435-2437	US			false		
112-5228033-7485836	52984532091474	2020-06-07T13:13:11+00:00	2020-06-07T06:13:11-07:00	2020-06-07T13:40:21+00:00	2020-06-09T06:59:59+00:00	-1	fvp9b453hvj25hm@marketplace.amazon.com	West	+1 210-728-4548 ext. 46421	ABR0022	Purchase Now for Delivery by Wednesday | Arabella Farm Direct Bouquet of 12 Fresh Cut Pink Roses with a Free Glass Vase	1	0	1	SecondDay	Bonnie lorie Sinclair	1785 STATE ROUTE 28 LOT 166			GOSHEN	OH	45122-9308	US		Because I can't stop thinking about you. ... Every time I think about you, my heart dances. It was hard to get out of bed this morning, because I just want to hold you forever.❤💋💋💋 From Mark Barry bull	false		
111-5436907-3821009	20060585643874	2020-06-07T13:54:55+00:00	2020-06-07T06:54:55-07:00	2020-06-07T14:29:45+00:00	2020-06-09T06:59:59+00:00	-1	fbxns0bqt6zywsw@marketplace.amazon.com	Brendhan Goss	+1 347-448-3190 ext. 42687	ABR012	Arabella Farm Direct Bouquet of 18 Fresh Cut Pink Roses with a Free Glass Vase	1	0	1	SecondDay	Kristin Helm	550 DAVID AVE UNIT A			MONTEREY	CA	93940-1118	US		Happy birthday (belated) Kristin! You’re a wonderful person and I’m very glad you’re in my life. Ride, ride like the wind. From Brendhan Goss	false		
111-4585033-1861864	62037973271674	2020-06-07T14:10:02+00:00	2020-06-07T07:10:02-07:00	2020-06-07T14:36:41+00:00	2020-06-09T06:59:59+00:00	-1	kfdfhpkb667bgrm@marketplace.amazon.com	Maurice Lise	+1 763-225-9463 ext. 17627	ABM010	Purchase Now for Delivery by Wednesday | Arabella Bouquets | Fields of The World Bouquet of Fresh Cut Flowers in a Free Designer Glass Vase	1	0	1	SecondDay	Velma Beck	495 SASSAFRASS WAY			STROUDSBURG	PA	18360-8336	US		Grandma Beck,  For you, everyday is Mother’s Day. Love,  Maurice, Anika, Christine and Niobe from Tampa aka Paradise. From Maurice Lise	false		
113-5128454-0274625	30625488951482	2020-06-07T14:11:00+00:00	2020-06-07T07:11:00-07:00	2020-06-07T14:38:22+00:00	2020-06-09T06:59:59+00:00	-1	p45d8wwsbqw7rh7@marketplace.amazon.com	John Piecuch	+1 412-532-4665 ext. 47193	ABR014	Purchase Now for Delivery by Wednesday | Arabella Bouquets 18 Stems of Fresh Cut White Roses in a Free Designer Glass Vase	1	0	1	SecondDay	Sandi Patterson	905 KAYLA CT			NEWBURGH	NY	12550-8641	US			false		
113-2301477-9288236	15742372635194	2020-06-07T14:28:33+00:00	2020-06-07T07:28:33-07:00	2020-06-07T14:58:13+00:00	2020-06-09T06:59:59+00:00	-1	j8sb1h4x6j3ggk7@marketplace.amazon.com	Scott Griffin	+1 763-225-9463 ext. 83317	ABR0022	Purchase Now for Delivery by Wednesday | Arabella Farm Direct Bouquet of 12 Fresh Cut Pink Roses with a Free Glass Vase	1	0	1	SecondDay	Nancy Griffin	19643 SPYGLASS HILL DR			BATON ROUGE	LA	70809-6712	US			false		
111-6527259-4455438	04109602021594	2020-06-07T14:43:48+00:00	2020-06-07T07:43:48-07:00	2020-06-07T15:07:05+00:00	2020-06-09T06:59:59+00:00	-1	pfbx9d3sxntwx9h@marketplace.amazon.com	Lisa Squire	+1 210-728-4548 ext. 49419	ABR012	Arabella Farm Direct Bouquet of 18 Fresh Cut Pink Roses with a Free Glass Vase	1	0	1	SecondDay	Regina Squire	13 AERIE WYNDE DR			DENVILLE	NJ	07834-9303	US		Happy Birthday Gina...because no June Birthday should be celebrated without some June roses!  Love you 😍 From All of the PA Squires	false		
113-5292566-3481044	44667095657858	2020-06-07T14:51:49+00:00	2020-06-07T07:51:49-07:00	2020-06-07T15:12:19+00:00	2020-06-09T06:59:59+00:00	-1	ls2m9nl57db85xh@marketplace.amazon.com	gary sullivan	+1 347-448-3190 ext. 72509	ABR0066	Purchase Now for Delivery by Wednesday | Arabella Bouquets | 12 Stems of Fresh Cut White Roses in a Free Designer Glass Vase	1	0	1	SecondDay	Ramona Pacela	220 RAMETTO RD			SANTA BARBARA	CA	93108-2320	US		“May your home always be too small to hold all of your friend“... Congratulations on your irresistible dream home!  We are so happy for you. From Gary, William and Sally	false		
112-5990269-8755437	46378795976882	2020-06-07T14:56:36+00:00	2020-06-07T07:56:36-07:00	2020-06-07T15:26:17+00:00	2020-06-09T06:59:59+00:00	-1	8mnx474qcd2jcnx@marketplace.amazon.com	zac cieslak	+1 210-728-4548 ext. 32038	ABR001	Purchase Now for Delivery by Wednesday | Arabella Bouquets 12 Stems of Fresh Cut Red Roses in a Free Designer Glass Vase	1	0	1	SecondDay	Izabela Ziarko	7872 W CRESSETT DR			ELMWOOD PARK	IL	60707-1340	US		Happy one year darling. From Your little bear	false		
113-2873045-5020220	32033024583626	2020-06-07T15:05:47+00:00	2020-06-07T08:05:47-07:00	2020-06-07T15:29:23+00:00	2020-06-09T06:59:59+00:00	-1	8vgwxh0yn2s7mtm@marketplace.amazon.com	evan a. brathwaite	+1 314-282-9402 ext. 65844	ABR001	Purchase Now for Delivery by Wednesday | Arabella Bouquets 12 Stems of Fresh Cut Red Roses in a Free Designer Glass Vase	1	0	1	SecondDay	Jacqueline Leach	11722 221ST ST			CAMBRIA HEIGHTS	NY	11411-1613	US		Happy birthday ! Many more healthy , happy prosperous!  Together  I hope for a lasting bond between us  guided by truth, respect , selflessness and real love! Evan From Evan A. Brathwaite	false		
113-4923991-3365830	07597616436802	2020-06-07T15:17:20+00:00	2020-06-07T08:17:20-07:00	2020-06-07T15:42:50+00:00	2020-06-09T06:59:59+00:00	-1	vy5rpqjf3hb20p8@marketplace.amazon.com	bonnie	+1 314-282-9402 ext. 30686	ABR015	Purchase Now for Delivery by Wednesday | Arabella Farm Direct Bouquet of 18 Fresh Cut Orange Roses with a Free Glass Vase	1	0	1	SecondDay	Stephanie Klock	42 PINECLIFF DR			MARBLEHEAD	MA	01945-1247	US		Happy Birthday to a wonderful niece ! From Ant Bonnie and Anthony	false		
114-2391701-0568250	07368194310274	2020-06-07T15:24:15+00:00	2020-06-07T08:24:15-07:00	2020-06-07T15:51:10+00:00	2020-06-09T06:59:59+00:00	-1	d4m3645dy635pv0@marketplace.amazon.com	monica prasad	+1 314-282-9402 ext. 71265	ABR0022	Purchase Now for Delivery by Wednesday | Arabella Farm Direct Bouquet of 12 Fresh Cut Pink Roses with a Free Glass Vase	1	0	1	SecondDay	Monica Prasad	7624 FORDHAM CREEK LN			ORLANDO	FL	32818-8269	US		HAPPY BIRTHDAY MOM !!!! LOVE YOU From Monica with lots of love	false		
112-4417202-1405807	16169871537090	2020-06-07T15:38:17+00:00	2020-06-07T08:38:17-07:00	2020-06-07T16:03:59+00:00	2020-06-09T06:59:59+00:00	-1	766jsgz37dsp899@marketplace.amazon.com	Ben Cooper	+1 210-728-4548 ext. 51472	ABR0022	Purchase Now for Delivery by Wednesday | Arabella Farm Direct Bouquet of 12 Fresh Cut Pink Roses with a Free Glass Vase	1	0	1	SecondDay	Benjamin Cooper	9606 S TRACE RD			MILTON	FL	32583-9273	US		Happy Anniversary, I love you! From Ben Cooper	false		
111-6189874-7236226	27907596091474	2020-06-07T16:09:45+00:00	2020-06-07T09:09:45-07:00	2020-06-07T16:33:27+00:00	2020-06-09T06:59:59+00:00	-1	z04vgcv53cvh7zk@marketplace.amazon.com	Juliana M. Coffey	+1 347-448-3190 ext. 05857	ABM010	Purchase Now for Delivery by Wednesday | Arabella Bouquets | Fields of The World Bouquet of Fresh Cut Flowers in a Free Designer Glass Vase	1	0	1	SecondDay	Taylor Phillips	2968 East Eastmoor			Springfiled	MO	65804	US		With love to the Phillips Family in honor of sweet, funny, kind Mindy.  XOX, Julie & Tracy Coffey	false		
113-1021078-7059449	15924185467458	2020-06-07T16:08:52+00:00	2020-06-07T09:08:52-07:00	2020-06-07T16:38:06+00:00	2020-06-09T06:59:59+00:00	-1	qqdpxyt76x3nl5v@marketplace.amazon.com	Joe Donohue	+1 314-282-9402 ext. 65243	ABM010	Purchase Now for Delivery by Wednesday | Arabella Bouquets | Fields of The World Bouquet of Fresh Cut Flowers in a Free Designer Glass Vase	1	0	1	SecondDay	Katie N Haley	7099 N HUALAPAI WAY APT 1137			LAS VEGAS	NV	89166-1108	US		Wishing you love and hugs as you recover from your surgery.  Xxox. From Mama	false		
113-3937466-2839427	68332600818130	2020-06-07T16:25:26+00:00	2020-06-07T09:25:26-07:00	2020-06-07T16:40:01+00:00	2020-06-09T06:59:59+00:00	-1	jfwhxnth9x8tdml@marketplace.amazon.com	lotanna	+1 347-448-3190 ext. 56276	ABR001	Purchase Now for Delivery by Wednesday | Arabella Bouquets 12 Stems of Fresh Cut Red Roses in a Free Designer Glass Vase	1	0	1	SecondDay	Elina Dryden	6087 BETHANY RD RUSTBURG			RUSTBURG	VA	24588-3045	US			false		
113-8310452-9413865	64072914091946	2020-06-07T16:23:40+00:00	2020-06-07T09:23:40-07:00	2020-06-07T16:47:55+00:00	2020-06-09T06:59:59+00:00	-1	wz0r8gcvkflfcxv@marketplace.amazon.com	Peter Fazio	+1 210-728-4548 ext. 33916	ABR0022	Purchase Now for Delivery by Wednesday | Arabella Farm Direct Bouquet of 12 Fresh Cut Pink Roses with a Free Glass Vase	1	0	1	SecondDay	Mr. & Mrs. Jack Carney	638 S KENNICOTT AVE			ARLINGTON HEIGHTS	IL	60005-2250	US		Happy Anniversary!  Patti & Peter	false		
114-5892218-1449835	44578975402290	2020-06-07T16:30:08+00:00	2020-06-07T09:30:08-07:00	2020-06-07T16:50:34+00:00	2020-06-09T06:59:59+00:00	-1	jz0hbvwc9z8hzt2@marketplace.amazon.com	karen stanton	+1 347-448-3190 ext. 39366	ABR0055	Purchase Now for Delivery by Wednesday | Arabella Farm Direct Bouquet of 12 Stems of Fresh Cut Hot Pink Roses in a Free Designer Glass Vase	1	0	1	SecondDay	Sarah Stanton	2482 W 2650 N			CLEARFIELD	UT	84015-8317	US		Welcome Home!!!  We are so proud of you!  Can't wait to get our arms around you!  Big hugs and kisses!  We love you, Mom & Dad From karen stanton	false		
113-8935990-7081000	30492430458402	2020-06-07T16:54:55+00:00	2020-06-07T09:54:55-07:00	2020-06-07T17:16:11+00:00	2020-06-09T06:59:59+00:00	-1	0z617c8ppwsmx4z@marketplace.amazon.com	douglas sly	+1 347-448-3190 ext. 33824	ABR0055	Purchase Now for Delivery by Wednesday | Arabella Farm Direct Bouquet of 12 Stems of Fresh Cut Hot Pink Roses in a Free Designer Glass Vase	1	0	1	SecondDay	estella calis	14050 fenton ln			sylmar	ca	91342	US			false		
113-3181535-7881822	57979568916938	2020-06-07T16:58:58+00:00	2020-06-07T09:58:58-07:00	2020-06-07T17:17:24+00:00	2020-06-09T06:59:59+00:00	-1	pwqykw89861r7d8@marketplace.amazon.com	brock a satoris	+1 763-225-9463 ext. 61255	ABR0066	Purchase Now for Delivery by Wednesday | Arabella Bouquets | 12 Stems of Fresh Cut White Roses in a Free Designer Glass Vase	1	0	1	SecondDay	Heather Daniel	HEATHER SATORIS DANIEL	583 BATTERY ST APT 1206		SEATTLE	WA	98121-1974	US			false		
112-5312210-5021823	62282325968258	2020-06-07T16:50:37+00:00	2020-06-07T09:50:37-07:00	2020-06-07T17:19:02+00:00	2020-06-09T06:59:59+00:00	-1	ff1xtrb2y42q16c@marketplace.amazon.com	junko kojima	+1 210-728-4548 ext. 29479	ABR0055	Purchase Now for Delivery by Wednesday | Arabella Farm Direct Bouquet of 12 Stems of Fresh Cut Hot Pink Roses in a Free Designer Glass Vase	1	0	1	SecondDay	Joan Fromell	824 LISBURN RD APT 515			CAMP HILL	PA	17011-7100	US		Happy day, Joan! From junko kojima	false		
111-1875740-6205030	50919757528226	2020-06-07T17:02:44+00:00	2020-06-07T10:02:44-07:00	2020-06-07T17:25:14+00:00	2020-06-09T06:59:59+00:00	-1	lfsnqjh3f6zlzlx@marketplace.amazon.com	Doronna J Hensley	+1 314-282-9402 ext. 85305	ABR0033	Purchase Now for Delivery by Wednesday | Arabella Farm Direct Bouquet of 12 Fresh Cut Orange Roses with a Free Glass Vase	1	0	1	SecondDay	Jeannine Korth	7262 ASHBURTON DR			KNOXVILLE	TN	37909-3713	US		Jeannine, we are so sorry for your loss. From Doronna J Hensley	false		
111-1486816-8268223	20259171236514	2020-06-07T17:19:40+00:00	2020-06-07T10:19:40-07:00	2020-06-07T17:41:10+00:00	2020-06-09T06:59:59+00:00	-1	3cgv7svbg1n6gdb@marketplace.amazon.com	Elena Zaharakos	+1 210-728-4548 ext. 37505	ABR0033	Purchase Now for Delivery by Wednesday | Arabella Farm Direct Bouquet of 12 Fresh Cut Orange Roses with a Free Glass Vase	1	0	1	SecondDay	jim & mona griffin	75 PARK TER E			NEW YORK	NY	10034-1443	US			false		
114-4496515-3987449	23928477314242	2020-06-07T17:17:42+00:00	2020-06-07T10:17:42-07:00	2020-06-07T17:41:13+00:00	2020-06-09T06:59:59+00:00	-1	js63m0q88zb34tg@marketplace.amazon.com	Deborah Barker	+1 314-282-9402 ext. 04325	ABR0022	Purchase Now for Delivery by Wednesday | Arabella Farm Direct Bouquet of 12 Fresh Cut Pink Roses with a Free Glass Vase	1	0	1	SecondDay	Paige Clayton	229 W. Oak View Ave.			Oak View	California	92022	US		Happy 5th Birthday to our sweetie.  We love you!  Love, Aunt Debby and Uncle Don	false		
112-8957003-6130669	45347857191018	2020-06-07T17:37:38+00:00	2020-06-07T10:37:38-07:00	2020-06-07T18:07:40+00:00	2020-06-09T06:59:59+00:00	-1	gpfhswfx0l7p3t7@marketplace.amazon.com	Sara monterrosa	+1 314-282-9402 ext. 73559	ABR0022	Purchase Now for Delivery by Wednesday | Arabella Farm Direct Bouquet of 12 Fresh Cut Pink Roses with a Free Glass Vase	1	0	1	SecondDay	Milagro alvarez	769 N 12TH ST SAN JOSE CA 95112			SAN JOSE	CA	95112-3122	US			false		
114-0512520-0733809	54634500257242	2020-06-07T17:46:00+00:00	2020-06-07T10:46:00-07:00	2020-06-07T18:12:12+00:00	2020-06-09T06:59:59+00:00	-1	ym74dv453cjysrj@marketplace.amazon.com	Sybil Percy	+1 763-225-9463 ext. 45183	ABM0044	Purchase Now for Delivery by Wednesday | Arabella Farm Direct Bouquet of Fresh Cut Blue Hydrangea with a Free Glass Vase	1	0	1	SecondDay	Christie Palmer	5718 BARBMOR CT			ALEXANDRIA	VA	22310-1150	US		Keeping dear Aunt Mary Lou, you, and your beautiful family close in our hearts, thoughts and prayers💕🙏🏻 From Sybil and Greg with love	false		
114-8357293-3103451	42948960457234	2020-06-07T18:01:28+00:00	2020-06-07T11:01:28-07:00	2020-06-07T18:21:14+00:00	2020-06-09T06:59:59+00:00	-1	ym74dv453cjysrj@marketplace.amazon.com	Sybil Percy	+1 314-282-9402 ext. 44225	ABM0044	Purchase Now for Delivery by Wednesday | Arabella Farm Direct Bouquet of Fresh Cut Blue Hydrangea with a Free Glass Vase	1	0	1	SecondDay	Mary Pat Litwin	4438 GOODFELLOW DR			DALLAS	TX	75229-2905	US		Keeping Aunt Mary Lou, you and your beautiful family close in our thoughts, prayers, and hearts💕🙏🏻 From Sybil And Greg with love	false		
111-2473690-4326654	21363441105466	2020-06-07T18:17:36+00:00	2020-06-07T11:17:36-07:00	2020-06-07T18:48:13+00:00	2020-06-09T06:59:59+00:00	-1	1zcc095h2lqd54w@marketplace.amazon.com	Samuel Letterman	+1 347-448-3190 ext. 92604	ABR0022	Purchase Now for Delivery by Wednesday | Arabella Farm Direct Bouquet of 12 Fresh Cut Pink Roses with a Free Glass Vase	1	0	1	SecondDay	Sharon K Beene	526 MOWBRAY ARCH			NORFOLK	VA	23507-2112	US			false		
112-4594588-6024268	32352746993562	2020-06-07T18:41:07+00:00	2020-06-07T11:41:07-07:00	2020-06-07T19:02:57+00:00	2020-06-09T06:59:59+00:00	-1	xjzmy4b2p4vr41d@marketplace.amazon.com	Eugene Stern	+1 347-448-3190 ext. 27229	ABR0022	Purchase Now for Delivery by Wednesday | Arabella Farm Direct Bouquet of 12 Fresh Cut Pink Roses with a Free Glass Vase	1	0	1	SecondDay	Lauren and Marty Austin	3519 BROOKLEIGH LN NE			ATLANTA	GA	30319-2219	US		Happy Anniversary to a special couple  Mama Arl and Papa Gene	false		
113-1017084-9421050	38939452715834	2020-06-07T18:39:57+00:00	2020-06-07T11:39:57-07:00	2020-06-07T19:04:33+00:00	2020-06-09T06:59:59+00:00	-1	q61w67w1bqr0mn3@marketplace.amazon.com	Dora Rorie	+1 347-448-3190 ext. 16539	ABR001	Purchase Now for Delivery by Wednesday | Arabella Bouquets 12 Stems of Fresh Cut Red Roses in a Free Designer Glass Vase	1	0	1	SecondDay	Dora Thomas	5219 PINE ST			PHILADELPHIA	PA	19143-1520	US		Happy Birthday! Love your son From Willie Rorie	false		
114-6483546-9850666	65663706974026	2020-06-07T18:41:37+00:00	2020-06-07T11:41:37-07:00	2020-06-07T19:09:00+00:00	2020-06-09T06:59:59+00:00	-1	ggymfbl8kyvy3gq@marketplace.amazon.com	Shelby Sanford	+1 347-448-3190 ext. 28140	ABR004	Arabella Farm Direct Bouquet of 12 Fresh Cut Yellow Roses with a Free Glass Vase	1	0	1	SecondDay	Phyllis Rains	1011 3RD ST			ALBANY	KY	42602-1639	US			false		
114-6744922-3761037	18364742080666	2020-06-07T18:45:47+00:00	2020-06-07T11:45:47-07:00	2020-06-07T19:12:56+00:00	2020-06-09T06:59:59+00:00	-1	ggymfbl8kyvy3gq@marketplace.amazon.com	Shelby Sanford	+1 314-282-9402 ext. 62839	ABR0033	Purchase Now for Delivery by Wednesday | Arabella Farm Direct Bouquet of 12 Fresh Cut Orange Roses with a Free Glass Vase	1	0	1	SecondDay	Sue Atkinson	118 MALLARD CIR			SOMERSET	KY	42503-6302	US		Thank you for all you do! From Steve, Lisa and Jim	false		
112-0470774-3095434	20362553877914	2020-06-07T18:49:45+00:00	2020-06-07T11:49:45-07:00	2020-06-07T19:15:08+00:00	2020-06-09T06:59:59+00:00	-1	m4n9263506fr9sm@marketplace.amazon.com	Judith  Becher	+1 347-448-3190 ext. 48806	ABR0022	Purchase Now for Delivery by Wednesday | Arabella Farm Direct Bouquet of 12 Fresh Cut Pink Roses with a Free Glass Vase	1	0	1	SecondDay	Judy Pepera	40 W 403 Taylor Caldwell St			St Charles	IL	60175	US		Thinking of you and hope you are doing well. From Aunt Judie with love❤️	false		
112-1040474-9924269	49680741225674	2020-06-07T19:12:49+00:00	2020-06-07T12:12:49-07:00	2020-06-07T19:41:05+00:00	2020-06-09T06:59:59+00:00	-1	w05ztw202lmyxw7@marketplace.amazon.com	Rosemary Rosencrans	+1 346-307-9643 ext. 46126	ABR004	Arabella Farm Direct Bouquet of 12 Fresh Cut Yellow Roses with a Free Glass Vase	1	0	1	SecondDay	Minnie Richmond	12716 STANWYCK CIR			TAMPA	FL	33626-4463	US		Happy Birthday Miss Minnie! Thank you for all the love &joy you've brought to our lives. Love you my long distance BFF! From Rosemary  & Ash	false		
111-1989196-8185052	40267993512562	2020-06-07T19:14:37+00:00	2020-06-07T12:14:37-07:00	2020-06-07T19:44:17+00:00	2020-06-09T06:59:59+00:00	-1	1314k3cvf3nfdd6@marketplace.amazon.com	Laura Baxley	+1 314-282-9402 ext. 15558	ABR0066	Purchase Now for Delivery by Wednesday | Arabella Bouquets | 12 Stems of Fresh Cut White Roses in a Free Designer Glass Vase	1	0	1	SecondDay	Becky and Jim Young	1919 SHERWOOD DR			GREENVILLE	NC	27858-5318	US		Sending lots and lots of love. Hope you feel better soon, Mom, and that we see you both soon. Laura, Jim, Jay and Ben From Laura Baxley	false		
113-0688683-0285840	01964086090122	2020-06-07T19:14:45+00:00	2020-06-07T12:14:45-07:00	2020-06-07T19:45:10+00:00	2020-06-09T06:59:59+00:00	-1	0z617c8ppwsmx4z@marketplace.amazon.com	douglas sly	+1 314-282-9402 ext. 55063	ABR0055	Purchase Now for Delivery by Wednesday | Arabella Farm Direct Bouquet of 12 Stems of Fresh Cut Hot Pink Roses in a Free Designer Glass Vase	1	0	1	SecondDay	darlene eastman	3361 so. broadway			magna	utah	84044	US			false		
111-8075510-1025016	50621763628794	2020-06-07T19:23:19+00:00	2020-06-07T12:23:19-07:00	2020-06-07T19:50:14+00:00	2020-06-09T06:59:59+00:00	-1	h40wjzrjdpprbrr@marketplace.amazon.com	Michael D McLoughlin	+1 314-282-9402 ext. 58079	ABR004	Arabella Farm Direct Bouquet of 12 Fresh Cut Yellow Roses with a Free Glass Vase	1	0	1	SecondDay	Michelle Walter	6407 W 5TH ST			LOS ANGELES	CA	90048-4709	US		Dear Avery, The world is a much better place with you in it. Congratulations on your graduation and may continued success and great luck lead your way. I love you so much! Grandpa From Michael D McLoughlin	false		
113-8082829-5430664	67375732837570	2020-06-07T19:26:10+00:00	2020-06-07T12:26:10-07:00	2020-06-07T19:54:05+00:00	2020-06-09T06:59:59+00:00	-1	yjgybnqf41ywsmb@marketplace.amazon.com	Kristen F Rider	+1 346-307-9643 ext. 78648	ABM010	Purchase Now for Delivery by Wednesday | Arabella Bouquets | Fields of The World Bouquet of Fresh Cut Flowers in a Free Designer Glass Vase	1	0	1	SecondDay	Kim Coffey	8 PAUL RD			MAPLE SHADE	NJ	08052-3316	US		Happy Birthday, Kim! We love you and wish we could be there with you!!! From Jon and Kris Rider	false		
113-0591965-6529816	65009668091130	2020-06-07T20:01:12+00:00	2020-06-07T13:01:12-07:00	2020-06-07T20:31:48+00:00	2020-06-09T06:59:59+00:00	-1	vzlj4jbz7sd9t0l@marketplace.amazon.com	James M.  Jordan	+1 314-282-9402 ext. 45398	ABR0055	Purchase Now for Delivery by Wednesday | Arabella Farm Direct Bouquet of 12 Stems of Fresh Cut Hot Pink Roses in a Free Designer Glass Vase	1	0	1	SecondDay	Raisa Girshin	26 LAKE ST			RICHFIELD SPRINGS	NY	13439-7729	US			false		
111-6247665-1615435	33405796493210	2020-06-07T20:03:25+00:00	2020-06-07T13:03:25-07:00	2020-06-07T20:32:18+00:00	2020-06-09T06:59:59+00:00	-1	wfgn5m6dpxnfryc@marketplace.amazon.com	Joy N Sacco	+1 346-307-9643 ext. 28102	ABR0022	Purchase Now for Delivery by Wednesday | Arabella Farm Direct Bouquet of 12 Fresh Cut Pink Roses with a Free Glass Vase	1	0	1	SecondDay	Susan Urra	4 LINDEN ST			WESTERLY	RI	02891-1960	US		Happy belated birthday! Love and hugs, Barbara, Jo-An, Joy From Joy N Sacco	false		
112-0635549-5084201	22335377069834	2020-06-07T20:05:38+00:00	2020-06-07T13:05:38-07:00	2020-06-07T20:35:06+00:00	2020-06-09T06:59:59+00:00	-1	c436gbzy7szbh54@marketplace.amazon.com	Deborah Dimoff	+1 314-282-9402 ext. 82482	ABR0022	Purchase Now for Delivery by Wednesday | Arabella Farm Direct Bouquet of 12 Fresh Cut Pink Roses with a Free Glass Vase	1	0	1	SecondDay	Carol Ann Werner	321 KIRBY CREEK DR			GRAND PRAIRIE	TX	75052-6428	US			false		
111-9069230-9499428	02829633947834	2020-06-07T20:09:03+00:00	2020-06-07T13:09:03-07:00	2020-06-07T20:36:37+00:00	2020-06-09T06:59:59+00:00	-1	mtrn5kxq4zh9hm2@marketplace.amazon.com	Jamie Cooper	+1 314-282-9402 ext. 42706	ABR0022	Purchase Now for Delivery by Wednesday | Arabella Farm Direct Bouquet of 12 Fresh Cut Pink Roses with a Free Glass Vase	1	0	1	SecondDay	Janet Coy	10221 NE 102ND LN			KANSAS CITY	MO	64157-7997	US		So happy for you and hope you have a speedy recovery. Get well soon! From Jamie, Donny, Astrid and Brexten	false		
111-1937830-5266667	70354833506170	2020-06-07T20:27:08+00:00	2020-06-07T13:27:08-07:00	2020-06-07T20:56:26+00:00	2020-06-09T06:59:59+00:00	-1	mrqf1vmjmt398d5@marketplace.amazon.com	Jerry Dickerson	+1 314-282-9402 ext. 28340	ABR001	Purchase Now for Delivery by Wednesday | Arabella Bouquets 12 Stems of Fresh Cut Red Roses in a Free Designer Glass Vase	1	0	1	SecondDay	Jessie Hughes	3024 GAINESBORO GRADE			COOKEVILLE	TN	38501-7752	US		Happy Anniversary! I love you! From Jerry Dickerson	false		
114-2351886-5245005	20575132927714	2020-06-07T20:34:51+00:00	2020-06-07T13:34:51-07:00	2020-06-07T21:04:59+00:00	2020-06-09T06:59:59+00:00	-1	k9fjktv0m5x75b5@marketplace.amazon.com	William Bell	+1 346-307-9643 ext. 75263	ABR0022	Purchase Now for Delivery by Wednesday | Arabella Farm Direct Bouquet of 12 Fresh Cut Pink Roses with a Free Glass Vase	1	0	1	SecondDay	Elizabeth Bell	2225 COLLEGE DR APT 89			BATON ROUGE	LA	70808-1817	US			false		
114-3241179-5667409	16888912510746	2020-06-07T20:42:49+00:00	2020-06-07T13:42:49-07:00	2020-06-07T21:11:21+00:00	2020-06-09T06:59:59+00:00	-1	0kxkmyckkzdpf5s@marketplace.amazon.com	Denise Moses	+1 346-307-9643 ext. 54998	ABR014	Purchase Now for Delivery by Wednesday | Arabella Bouquets 18 Stems of Fresh Cut White Roses in a Free Designer Glass Vase	1	0	1	SecondDay	Carole Oliverius	2121 E AVENUE I SPC 5			LANCASTER	CA	93535-2361	US		Hi Mom, We hope you have an amazing birthday! From Denise & Mark	false		
114-8916047-1613833	09699631897282	2020-06-07T20:46:23+00:00	2020-06-07T13:46:23-07:00	2020-06-07T21:14:00+00:00	2020-06-09T06:59:59+00:00	-1	yfm8tm9ssxqf6wb@marketplace.amazon.com	Abigail Smith	+1 314-282-9402 ext. 71856	ABM010	Purchase Now for Delivery by Wednesday | Arabella Bouquets | Fields of The World Bouquet of Fresh Cut Flowers in a Free Designer Glass Vase	1	0	1	SecondDay	Mrs. Mary Rees Brooks	1336 COVEDALE AVE			CINCINNATI	OH	45238-3860	US		Happy Birthday Grandmother! Sending all my love from London! Hope these brighten your day :) xoxox - Abby From Abby Smith	false		
113-1402304-2002659	35514962738522	2020-06-07T20:35:35+00:00	2020-06-07T13:35:35-07:00	2020-06-07T21:16:34+00:00	2020-06-09T06:59:59+00:00	-1	7d8fw8sx8pkq8l3@marketplace.amazon.com	Doran Zemlak	+1 346-307-9643 ext. 66102	ABR012	Arabella Farm Direct Bouquet of 18 Fresh Cut Pink Roses with a Free Glass Vase	1	0	1	SecondDay	Crystal barker	1916 TERESA FIELDS LN			LAKE ST LOUIS	MO	63367-6421	US		Enjoy your gift! From The Zemlak’s and mom	false		
112-6380263-3753045	62596942278906	2020-06-07T21:04:24+00:00	2020-06-07T14:04:24-07:00	2020-06-07T21:27:36+00:00	2020-06-09T06:59:59+00:00	-1	n1cz0zbq4l4s21d@marketplace.amazon.com	Cynthia E Griffith	+1 346-307-9643 ext. 27098	ABR0022	Purchase Now for Delivery by Wednesday | Arabella Farm Direct Bouquet of 12 Fresh Cut Pink Roses with a Free Glass Vase	1	0	1	SecondDay	Cheryl Stewart	2621 GLENBROOK WAY			BISHOP	CA	93514-3117	US		Hi Cheri, Thinking of you, girlfriend. Prying for you, too. Your Friend, Cindi	false		
111-8222879-2105814	16868758418354	2020-06-07T20:59:10+00:00	2020-06-07T13:59:10-07:00	2020-06-07T21:29:32+00:00	2020-06-09T06:59:59+00:00	-1	1lzbh1vjpkg3hb5@marketplace.amazon.com	Alicia A Lopez	+1 314-282-9402 ext. 44952	ABR0022	Purchase Now for Delivery by Wednesday | Arabella Farm Direct Bouquet of 12 Fresh Cut Pink Roses with a Free Glass Vase	1	0	1	SecondDay	Chloe Lopez	2 FETROW DR			MECHANICSBURG	PA	17050-3504	US			false		
114-4873915-5410647	62630883271674	2020-06-07T21:05:51+00:00	2020-06-07T14:05:51-07:00	2020-06-07T21:32:18+00:00	2020-06-09T06:59:59+00:00	-1	td3qnp8gtl4q9yc@marketplace.amazon.com	Jasmine	+1 346-307-9643 ext. 55196	ABR0066	Purchase Now for Delivery by Wednesday | Arabella Bouquets | 12 Stems of Fresh Cut White Roses in a Free Designer Glass Vase	1	0	1	SecondDay	Tiffany Williams	3897 CEDAR CIR			TUCKER	GA	30084-7331	US		Happy Birthday, Tiffany! Relax, enjoy and can't wait to celebrate many more.   Your best friend in the whole wide world,  Jasmine From Jasmine	false		
111-8178441-1859449	59306553725738	2020-06-07T23:00:03+00:00	2020-06-07T16:00:03-07:00	2020-06-07T23:30:30+00:00	2020-06-09T06:59:59+00:00	-1	7b9mhfvpcqx2n20@marketplace.amazon.com	Anna Sinegal	+1 346-307-9643 ext. 52424	ABR012	Arabella Farm Direct Bouquet of 18 Fresh Cut Pink Roses with a Free Glass Vase	1	0	1	SecondDay	Anna Sinegal	2 W DELAWARE PL UNIT 1007			CHICAGO	IL	60610-3408	US			false		
112-8554836-5527421	51294739766834	2020-06-07T23:10:50+00:00	2020-06-07T16:10:50-07:00	2020-06-07T23:33:49+00:00	2020-06-09T06:59:59+00:00	-1	ztqk3591ndz8txz@marketplace.amazon.com	Deborah Gore	+1 346-307-9643 ext. 17955	ABR0022	Purchase Now for Delivery by Wednesday | Arabella Farm Direct Bouquet of 12 Fresh Cut Pink Roses with a Free Glass Vase	1	0	1	SecondDay	JUDITH POWERS	71 CHURCHILL WAY			NEWINGTON	CT	06111-4014	US			false		
112-5174300-9033002	27090574357450	2020-06-07T23:22:10+00:00	2020-06-07T16:22:10-07:00	2020-06-07T23:48:25+00:00	2020-06-09T06:59:59+00:00	-1	7blb2sywlh7nq21@marketplace.amazon.com	Jennifer	+1 346-307-9643 ext. 06592	ABM010	Purchase Now for Delivery by Wednesday | Arabella Bouquets | Fields of The World Bouquet of Fresh Cut Flowers in a Free Designer Glass Vase	1	0	1	SecondDay	Mom	170 SLATER ST			BLUFFTON	SC	29909-7835	US		HAPPY BIRTHDAY!  Love,, Jennifer and Sam From Jennifer	false		
111-9307036-9937016	02612671068234	2020-06-07T23:34:31+00:00	2020-06-07T16:34:31-07:00	2020-06-07T23:49:31+00:00	2020-06-09T06:59:59+00:00	-1	pz02kpzmf9q5cw6@marketplace.amazon.com	franzetta mikulin	+1 314-282-9402 ext. 85471	ABR0022	Purchase Now for Delivery by Wednesday | Arabella Farm Direct Bouquet of 12 Fresh Cut Pink Roses with a Free Glass Vase	1	0	1	SecondDay	Mrs. Yolanda Craven	1420 JAMBOREE DR			FAIRFIELD	CA	94533-7115	US		Dearest Yolanda,  Praise the Lord, may all the glory be his for bring you through. Have a speedy recovery & get well soon. With much Love: Franzetta & John	false		
111-7606672-2613033	18570972150138	2020-06-07T23:46:24+00:00	2020-06-07T16:46:24-07:00	2020-06-08T00:04:22+00:00	2020-06-09T06:59:59+00:00	-1	r3jgxq0pbkm89jl@marketplace.amazon.com	Pramod K Jain	+1 346-307-9643 ext. 93579	ABR0066	Purchase Now for Delivery by Wednesday | Arabella Bouquets | 12 Stems of Fresh Cut White Roses in a Free Designer Glass Vase	1	0	1	SecondDay	Elisabeth Chowdhry	4845 N ADAMS RD			BLOOMFIELD HILLS	MI	48304-2500	US		Dear Elisabeth, May the peace the comes from the memories of love shared comfort you now and in the days ahead. Love and Regards Pramod,Madhu,Preeti, Amit, Priya, Saanjh & Ayaan	false		
114-2406416-9469851	41019004788850	2020-06-07T23:36:11+00:00	2020-06-07T16:36:11-07:00	2020-06-08T00:05:11+00:00	2020-06-09T06:59:59+00:00	-1	3v0tz5zl9lddr6m@marketplace.amazon.com	Jaimeson Freeman	+1 346-307-9643 ext. 02301	ABR0022	Purchase Now for Delivery by Wednesday | Arabella Farm Direct Bouquet of 12 Fresh Cut Pink Roses with a Free Glass Vase	1	0	1	SecondDay	Ashley Jackson	1071 NE SCENIC PL			LEES SUMMIT	MO	64064-2428	US		If this is a goodbye I want you to atleast know that I love you and will always love you. You are the love of my life and no one will make me feel like you did. From Knight	false		
112-3597371-9745839	44393532759722	2020-06-08T00:09:11+00:00	2020-06-07T17:09:11-07:00	2020-06-08T00:32:35+00:00	2020-06-09T06:59:59+00:00	-1	dm63m3h7t3b6tsm@marketplace.amazon.com	bill kelley	+1 346-307-9643 ext. 02715	ABR004	Arabella Farm Direct Bouquet of 12 Fresh Cut Yellow Roses with a Free Glass Vase	1	0	1	SecondDay	Bill Kelley	1641 OAKMONTE BLVD			WEBSTER	NY	14580-7222	US		Dearest Jewel, I love you.	false		
113-1269766-8113840	29641280902234	2020-06-08T00:36:01+00:00	2020-06-07T17:36:01-07:00	2020-06-08T01:02:20+00:00	2020-06-09T06:59:59+00:00	-1	jmkr850lcfnggcb@marketplace.amazon.com	Danielle	+1 346-307-9643 ext. 60971	ABR0022	Purchase Now for Delivery by Wednesday | Arabella Farm Direct Bouquet of 12 Fresh Cut Pink Roses with a Free Glass Vase	1	0	1	SecondDay	Ari Taylor	172 MORRIS CT			GLEN BURNIE	MD	21060-6372	US		You deserve this.. love you From Danielle	false		
111-0208261-3290660	64987379698970	2020-06-08T00:33:56+00:00	2020-06-07T17:33:56-07:00	2020-06-08T01:04:20+00:00	2020-06-09T06:59:59+00:00	-1	pbfqdp50lj8zsx5@marketplace.amazon.com	Zachary	+1 314-282-9402 ext. 24448	ABR0022	Purchase Now for Delivery by Wednesday | Arabella Farm Direct Bouquet of 12 Fresh Cut Pink Roses with a Free Glass Vase	1	0	1	SecondDay	Zachary LeFevre	2302 S 41ST ST			ABILENE	TX	79605-7219	US			false		
113-9482590-2383409	57660813576674	2020-06-08T00:42:47+00:00	2020-06-07T17:42:47-07:00	2020-06-08T01:10:32+00:00	2020-06-09T06:59:59+00:00	-1	16nyyfnmqtpzd78@marketplace.amazon.com	Nana	+1 346-307-9643 ext. 61742	ABM010	Purchase Now for Delivery by Wednesday | Arabella Bouquets | Fields of The World Bouquet of Fresh Cut Flowers in a Free Designer Glass Vase	1	0	1	SecondDay	Virginia Santosuosso	3 Cedarwood Lane			MELROSE	MA	02176-4232	US		Love you Auntie!  My heart is with you and the family right now. Here are some flowers to cheer for if only for a little bit. I love you and we all mourn with you. Uncle Bobby will always be in our memories:)   Love, Doreen and family	false		
111-6664749-0109862	21335733456778	2020-06-08T00:57:29+00:00	2020-06-07T17:57:29-07:00	2020-06-08T01:23:15+00:00	2020-06-09T06:59:59+00:00	-1	gqlj0fxw7ktpmjv@marketplace.amazon.com	Vincent Panettiere	+1 346-307-9643 ext. 08736	ABR012	Arabella Farm Direct Bouquet of 18 Fresh Cut Pink Roses with a Free Glass Vase	1	0	1	SecondDay	Pat  and Frank Panettiere	1002 S 19TH ST			ROGERS	AR	72758-4904	US		Happy first 60 years of marriage! Love,. Abbie and Vincent	false		
111-0751730-9793829	43625558417978	2020-06-08T01:17:41+00:00	2020-06-07T18:17:41-07:00	2020-06-08T01:47:16+00:00	2020-06-09T06:59:59+00:00	-1	4yq6y9gp7090q07@marketplace.amazon.com	caryn doyle	+1 346-307-9643 ext. 68900	ABM010	Purchase Now for Delivery by Wednesday | Arabella Bouquets | Fields of The World Bouquet of Fresh Cut Flowers in a Free Designer Glass Vase	1	0	1	SecondDay	Sari Polson	12215 PALATINE AVE N			SEATTLE	WA	98133-8113	US		Happy 40th Birthday Sari. Love you! From Caryn and Jerry	false		
114-0192949-2093825	62363566464954	2020-06-08T01:22:52+00:00	2020-06-07T18:22:52-07:00	2020-06-08T01:47:44+00:00	2020-06-09T06:59:59+00:00	-1	7q38ktjyqzgz4kg@marketplace.amazon.com	Melodie Wyttenbach	+1 346-307-9643 ext. 63346	ABR0022	Purchase Now for Delivery by Wednesday | Arabella Farm Direct Bouquet of 12 Fresh Cut Pink Roses with a Free Glass Vase	1	0	1	SecondDay	Kaylin Ranagan	951 HOLLYWOOD ST APT L			CHARLOTTE	NC	28211-1545	US		It's wedding week!!!! Kaylin, congratulations to you and PJ. I have no doubt many, many years of love are ahead. So very happy for you. Congratulations and sending all my love. Melodie Wyttenbach	false		
114-7705655-7825060	36437986609730	2020-06-08T01:25:43+00:00	2020-06-07T18:25:43-07:00	2020-06-08T01:55:26+00:00	2020-06-09T06:59:59+00:00	-1	4w3mrnk85318kkx@marketplace.amazon.com	Rick	+1 346-307-9643 ext. 83930	ABR004	Arabella Farm Direct Bouquet of 12 Fresh Cut Yellow Roses with a Free Glass Vase	1	0	1	SecondDay	Richard syx	6180 CYPRESS AVE			WINTON	CA	95388-9547	US			false		
111-2485572-5358648	65771427053722	2020-06-08T01:38:54+00:00	2020-06-07T18:38:54-07:00	2020-06-08T02:05:56+00:00	2020-06-09T06:59:59+00:00	-1	ynsxk78jxqfpccf@marketplace.amazon.com	Lara Mitchell	+1 346-307-9643 ext. 17111	ABR0022	Purchase Now for Delivery by Wednesday | Arabella Farm Direct Bouquet of 12 Fresh Cut Pink Roses with a Free Glass Vase	1	0	1	SecondDay	Toby Berger (c/o Pam)	810 GILLIAMS MOUNTAIN CT			CHARLOTTESVILLE	VA	22903-9708	US			false		
113-2681856-9143447	29180369085610	2020-06-08T01:40:42+00:00	2020-06-07T18:40:42-07:00	2020-06-08T02:10:40+00:00	2020-06-09T06:59:59+00:00	-1	c27jqmp92ly22f7@marketplace.amazon.com	Sydne Hoiness	+1 346-307-9643 ext. 76611	ABR0022	Purchase Now for Delivery by Wednesday | Arabella Farm Direct Bouquet of 12 Fresh Cut Pink Roses with a Free Glass Vase	1	0	1	SecondDay	Sally Eatmon	6241 WARNER AVE SPC 171			HUNTINGTON BEACH	CA	92647-5154	US			false		
112-2917641-8657810	20049571213234	2020-06-08T02:06:47+00:00	2020-06-07T19:06:47-07:00	2020-06-08T02:35:23+00:00	2020-06-09T06:59:59+00:00	-1	60hjb71py9yk2w2@marketplace.amazon.com	Aisha Davy	+1 314-282-9402 ext. 16035	ABR004	Arabella Farm Direct Bouquet of 12 Fresh Cut Yellow Roses with a Free Glass Vase	1	0	1	SecondDay	Lashelle King	7 EAGLE LOOP			HAMPTON	VA	23665-2579	US		Lashelle, I love and miss u. U are still my angel and I will never forget all u have done for me. HAPPY BIRTHDAY BEAUTIFUL! ENJOY💙 From Aisha Davy	false		
111-5615259-6677040	00746487987746	2020-06-08T02:11:19+00:00	2020-06-07T19:11:19-07:00	2020-06-08T02:41:26+00:00	2020-06-09T06:59:59+00:00	-1	slb5tk559sbsv6n@marketplace.amazon.com	David R. Flowers	+1 346-307-9643 ext. 13285	ABM010	Purchase Now for Delivery by Wednesday | Arabella Bouquets | Fields of The World Bouquet of Fresh Cut Flowers in a Free Designer Glass Vase	1	0	1	SecondDay	Michelle Vinson	212 S HOLMES ST			DURAND	MI	48429-1526	US			false		
114-4001738-6062656	05243494297810	2020-06-08T02:14:06+00:00	2020-06-07T19:14:06-07:00	2020-06-08T02:41:39+00:00	2020-06-09T06:59:59+00:00	-1	hwcbfvpql4p6t5d@marketplace.amazon.com	Knotresha Stewart-Osemobor	+1 346-307-9643 ext. 14645	ABM0044	Purchase Now for Delivery by Wednesday | Arabella Farm Direct Bouquet of Fresh Cut Blue Hydrangea with a Free Glass Vase	1	0	1	SecondDay	River Valley Healthcare Associates	28 TOWN CENTER DR			DUBLIN	VA	24084-6069	US		Enjoy your gift! Dr. Stewart From Thank you	false		
113-9783422-4337803	37389669125458	2020-06-08T02:36:53+00:00	2020-06-07T19:36:53-07:00	2020-06-08T03:01:36+00:00	2020-06-09T06:59:59+00:00	-1	sj8dmnn1pd40mxr@marketplace.amazon.com	Adriana	+1 346-307-9643 ext. 08233	ABR0022	Purchase Now for Delivery by Wednesday | Arabella Farm Direct Bouquet of 12 Fresh Cut Pink Roses with a Free Glass Vase	1	0	1	SecondDay	Adriana Castaneda	623 W PALM ST			COMPTON	CA	90220-3669	US		Dios te Bendiga mama preciosa! Gracias por todo lo que haces por nosotros (Noah, Miguel, y Adriana).  We love you!!! From Adriana y Angel	false		
113-0189849-5746609	58439043489322	2020-06-08T02:26:36+00:00	2020-06-07T19:26:36-07:00	2020-06-08T03:06:14+00:00	2020-06-09T06:59:59+00:00	-1	ycdmqq13mf2fw24@marketplace.amazon.com	Brittany	+1 346-307-9643 ext. 27077	ABM0033	Purchase Now for Delivery by Wednesday | Arabella Farm Direct Bouquet of Fresh Cut White Hydrangea with a Free Glass Vase	1	0	1	SecondDay	The Mullers	9527 HALLHURST RD			BALTIMORE	MD	21236-4820	US		Our deepest condolences for your loss. We are so sorry and will keep you all in our prayers. From The White Family - Brittany, Stuart, Evelyn, George and Arthur	false		
113-8499270-2801856	68824969036610	2020-06-08T02:51:40+00:00	2020-06-07T19:51:40-07:00	2020-06-08T03:15:42+00:00	2020-06-09T06:59:59+00:00	-1	j7fm860l9g0f5wc@marketplace.amazon.com	Cory Cragle	+1 346-307-9643 ext. 96514	ABM0044	Purchase Now for Delivery by Wednesday | Arabella Farm Direct Bouquet of Fresh Cut Blue Hydrangea with a Free Glass Vase	1	0	1	SecondDay	Marie Couch	10853 43RD ST N APT 1102			CLEARWATER	FL	33762-5253	US			false		
113-4705162-2761050	61088524903634	2020-06-08T02:47:44+00:00	2020-06-07T19:47:44-07:00	2020-06-08T03:17:27+00:00	2020-06-09T06:59:59+00:00	-1	x5yrf7bf5gvs6kt@marketplace.amazon.com	Kara Ambrosini	+1 346-307-9643 ext. 92664	ABR0022	Purchase Now for Delivery by Wednesday | Arabella Farm Direct Bouquet of 12 Fresh Cut Pink Roses with a Free Glass Vase	1	0	1	SecondDay	Cheri Marsh	886 HEARST WAY			CORONA	CA	92882-6395	US		Wishing you a speedy recovery! Love Kara, Jay, Zoe and Connor. From Kara Ambrosini	false		
112-1603597-3527463	19552410921402	2020-06-08T03:33:56+00:00	2020-06-07T20:33:56-07:00	2020-06-08T03:57:35+00:00	2020-06-09T06:59:59+00:00	-1	5b8zzkschvdlp8y@marketplace.amazon.com	Olga G.  Bequillard	+1 314-282-9402 ext. 44951	ABR0022	Purchase Now for Delivery by Wednesday | Arabella Farm Direct Bouquet of 12 Fresh Cut Pink Roses with a Free Glass Vase	1	0	1	SecondDay	Joyce Kurtulus	16 SUNSET PARK			MONTCLAIR	NJ	07043-1939	US		Dear Joyce, Happy Birthday and many many returns!  With love, Olga & Alfredo	false		
114-0656661-1585057	09316994020450	2020-06-08T04:48:31+00:00	2020-06-07T21:48:31-07:00	2020-06-08T05:16:39+00:00	2020-06-09T06:59:59+00:00	-1	8vgwxh0yn2s7mtm@marketplace.amazon.com	evan a. brathwaite	+1 346-307-9643 ext. 79615	ABR001	Purchase Now for Delivery by Wednesday | Arabella Bouquets 12 Stems of Fresh Cut Red Roses in a Free Designer Glass Vase	1	0	1	SecondDay	Ms. Maryann Russo	1582 W 4TH ST			BROOKLYN	NY	11204-4935	US			false		
113-7386960-9777857	67135699823818	2020-06-08T06:33:07+00:00	2020-06-07T23:33:07-07:00	2020-06-08T07:02:29+00:00	2020-06-09T06:59:59+00:00	-1	24zhdfj25gzwcp2@marketplace.amazon.com	Katherine Short	+1 346-307-9643 ext. 87328	ABR012	Arabella Farm Direct Bouquet of 18 Fresh Cut Pink Roses with a Free Glass Vase	1	0	1	SecondDay	Andre Walsh	2510 CORINTH AVE			LOS ANGELES	CA	90064-3013	US		Andre  Sending you so much love during this painful time. Astrid was such an amazing, special soul and Joni and I are lucky to have known her.  Love Katherine From Katherine Short	false		
113-1166613-7254602	24893926298890	2020-06-08T06:35:25+00:00	2020-06-07T23:35:25-07:00	2020-06-08T07:05:48+00:00	2020-06-09T06:59:59+00:00	-1	24zhdfj25gzwcp2@marketplace.amazon.com	Katherine Short	+1 346-307-9643 ext. 22204	ABR004	Arabella Farm Direct Bouquet of 12 Fresh Cut Yellow Roses with a Free Glass Vase	1	0	1	SecondDay	Katherine Hartley	2872 WESTSHIRE DR			LOS ANGELES	CA	90068-1932	US			false		
114-9661425-1020201	16185167031714	2020-06-08T06:45:10+00:00	2020-06-07T23:45:10-07:00	2020-06-08T07:08:14+00:00	2020-06-09T06:59:59+00:00	-1	8bmhr2yf4320kps@marketplace.amazon.com	William A. Blackwell	+1 346-307-9643 ext. 00762	ABM010	Purchase Now for Delivery by Wednesday | Arabella Bouquets | Fields of The World Bouquet of Fresh Cut Flowers in a Free Designer Glass Vase	1	0	1	SecondDay	Stella A. Blackwell	245 SUGARBERRY CIR			HOUSTON	TX	77024-7266	US		Dear Stella, Happy Birthday!  We hope you enjoy these flowers. Love, Bill & Martha	false		
114-5786504-8923441	22430470247170	2020-06-08T06:43:01+00:00	2020-06-07T23:43:01-07:00	2020-06-08T07:13:24+00:00	2020-06-09T06:59:59+00:00	-1	h0ff9971v3x1f1d@marketplace.amazon.com	Kevin Solorzano	+1 346-307-9643 ext. 71670	ABM010	Purchase Now for Delivery by Wednesday | Arabella Bouquets | Fields of The World Bouquet of Fresh Cut Flowers in a Free Designer Glass Vase	1	0	1	SecondDay	Kevin Solorzano	16 E Foundry St			Millville	NJ	08332	US			false		
111-0691184-7651424	67811511636882	2020-06-08T06:43:19+00:00	2020-06-07T23:43:19-07:00	2020-06-08T07:13:39+00:00	2020-06-09T06:59:59+00:00	-1	27d8575dvql3tsp@marketplace.amazon.com	Haoxiang Chen	+1 346-307-9643 ext. 35998	ABR001	Purchase Now for Delivery by Wednesday | Arabella Bouquets 12 Stems of Fresh Cut Red Roses in a Free Designer Glass Vase	1	0	1	SecondDay	Katherine Zhou Samomo	4 HOLLIS PL # 2			ALLSTON	MA	02134-2526	US			false		
113-2813560-6617869	33994979214906	2020-06-08T07:03:21+00:00	2020-06-08T00:03:21-07:00	2020-06-08T07:18:49+00:00	2020-06-11T06:59:59+00:00	-3	x4y9243qckn5v2q@marketplace.amazon.com	최준호	+1 346-307-9643 ext. 32076	ABR0022	Purchase Now for Delivery by Wednesday | Arabella Farm Direct Bouquet of 12 Fresh Cut Pink Roses with a Free Glass Vase	1	0	1	Standard	28202 26Th Ave S	26Th Ave S	YeJi		Federal Way	Wa	98003	US		♥예지 700일 축하해♥  항상 고맙고 사랑해 :)  곧 예지 보러 갈게  I love you! From Junho	false		
112-5470801-3274628	51147161710970	2020-06-08T06:55:02+00:00	2020-06-07T23:55:02-07:00	2020-06-08T07:24:04+00:00	2020-06-09T06:59:59+00:00	-1	f0q6mxmlpqs1q75@marketplace.amazon.com	Jena Peterson	+1 346-307-9643 ext. 94351	ABM010	Purchase Now for Delivery by Wednesday | Arabella Bouquets | Fields of The World Bouquet of Fresh Cut Flowers in a Free Designer Glass Vase	1	0	1	SecondDay	Shirley  Bonkowski	1102 GREENWOOD DR			DENTON	TX	76209-2138	US		Happy Birthday Mom!  I love you and hope you have a wonderful one! From Jena Peterson	false		
