order-id	order-item-id	purchase-date	payments-date	reporting-date	promise-date	days-past-promise	buyer-email	buyer-name	buyer-phone-number	sku	product-name	quantity-purchased	quantity-shipped	quantity-to-ship	ship-service-level	recipient-name	ship-address-1	ship-address-2	ship-address-3	ship-city	ship-state	ship-postal-code	ship-country	gift-wrap-type	gift-message-text	is-business-order	purchase-order-number	price-designation
113-4849392-3270617	49181514223634	2020-06-08T13:36:16+00:00	2020-06-08T06:36:16-07:00	2020-06-08T14:04:56+00:00	2020-06-09T06:59:59+00:00	-1	q4zdl82wzv3t55f@marketplace.amazon.com	Susan Conroy	+1 346-307-9643 ext. 67698	ABR012	Arabella Farm Direct Bouquet of 18 Fresh Cut Pink Roses with a Free Glass Vase	1	0	1	SecondDay	Mrs. William Sherk	9221 ALTA OAKS DR			DALLAS	TX	75243-6232	US			false		
113-2228853-6360227	47414939834218	2020-06-08T14:35:43+00:00	2020-06-08T07:35:43-07:00	2020-06-08T14:59:05+00:00	2020-06-12T06:59:59+00:00	-4	wwk0qph1n7dtfyg@marketplace.amazon.com	richard hynds	+1 346-307-9643 ext. 00885	ABR0022	Purchase Now for Delivery by Wednesday | Arabella Farm Direct Bouquet of 12 Fresh Cut Pink Roses with a Free Glass Vase	1	0	1	Expedited	Darla Waller	402 W Second St			Hale Center	TX	79041	US		Eugene Payne, Jr Congratulations on a Wonderful Grandson's Graduation. From Eugene Payne Jr	false		
113-3174213-4009840	29082830501714	2020-06-08T15:21:53+00:00	2020-06-08T08:21:53-07:00	2020-06-08T15:52:06+00:00	2020-06-09T06:59:59+00:00	-1	lx9jfzdcslbz3dj@marketplace.amazon.com	Alan Altheim	+1 314-282-9402 ext. 93488	ABR012	Arabella Farm Direct Bouquet of 18 Fresh Cut Pink Roses with a Free Glass Vase	1	0	1	SecondDay	Alan altheim	405 PACING WAY			WESTBURY	NY	11590-6669	US			false		
113-9639115-9888257	06180172641306	2020-06-08T16:19:51+00:00	2020-06-08T09:19:51-07:00	2020-06-08T16:44:36+00:00	2020-06-12T06:59:59+00:00	-4	835ydp0jzkgs0v0@marketplace.amazon.com	Michael J OLeary	+1 314-282-9402 ext. 42719	ABR0022	Purchase Now for Delivery by Thursday | Arabella Farm Direct Bouquet of 12 Fresh Cut Pink Roses with a Free Glass Vase	1	0	1	Expedited	Mrs Eileen Best Wishes Frain	16 LAKEVIEW DR			CHESTER	NY	10918-2204	US		Dear Eileen,  Wishing you a most Joyous  & Blessed Birthday,  May it be  filled with Renewed  Faith, Hope , Love, Health & all That's  Good from Above ... Love Always, Mike & Patsy O'Leary From Mike & Patsy	false		
111-9918588-3190604	02489005725762	2020-06-08T16:35:21+00:00	2020-06-08T09:35:21-07:00	2020-06-08T16:50:13+00:00	2020-06-12T06:59:59+00:00	-4	mywv5vtrhk649w0@marketplace.amazon.com	David	+1 210-728-4548 ext. 11359	ABR0022	Purchase Now for Delivery by Thursday | Arabella Farm Direct Bouquet of 12 Fresh Cut Pink Roses with a Free Glass Vase	1	0	1	Expedited	Sunaiina Batra	1281 9TH AVE UNIT 1007			SAN DIEGO	CA	92101-4651	US		A little something to make you being back home feel like home again. Enjoy hun From David	false		
114-2151550-0797808	28026169060802	2020-06-08T17:08:59+00:00	2020-06-08T10:08:59-07:00	2020-06-08T17:37:43+00:00	2020-06-10T06:59:59+00:00	-2	6v6sb9x84j0dbh5@marketplace.amazon.com	Wendy Kolopsky	+1 210-728-4548 ext. 22601	ABR012	Arabella Farm Direct Bouquet of 18 Fresh Cut Pink Roses with a Free Glass Vase	1	0	1	SecondDay	Ruth Kolopsky	3500 MYSTIC POINTE DR APT 1708			AVENTURA	FL	33180-2582	US			false		
114-5363142-9790634	30281795894706	2020-06-08T17:54:52+00:00	2020-06-08T10:54:52-07:00	2020-06-08T18:13:13+00:00	2020-06-12T06:59:59+00:00	-4	zyhtwtflf2cb1vv@marketplace.amazon.com	Kate Nasser	+1 346-307-9643 ext. 32457	ABR0022	Purchase Now for Delivery by Thursday | Arabella Farm Direct Bouquet of 12 Fresh Cut Pink Roses with a Free Glass Vase	1	0	1	Expedited	Elizabeth Lutch	11 EVERGREEN LN			HAMPSTEAD	NC	28443-3587	US		Congratulations on little Victoria Rose! We are so happy for you guys! Enjoy every moment! Love you! From The Nasser's	false		
111-7145672-5745050	65153622591170	2020-06-08T17:52:38+00:00	2020-06-08T10:52:38-07:00	2020-06-08T18:22:57+00:00	2020-06-12T06:59:59+00:00	-4	5654j2t0xs7hgyv@marketplace.amazon.com	Daniel Russ	+1 346-307-9643 ext. 44785	ABR001	Purchase Now for Delivery by Thursday | Arabella Bouquets 12 Stems of Fresh Cut Red Roses in a Free Designer Glass Vase	1	0	1	Expedited	Daniel Russ	7056 SUBIC CIR APT C			FORT STEWART	GA	31315-5843	US			false		
114-4126631-4093830	31106030322002	2020-06-08T18:11:56+00:00	2020-06-08T11:11:56-07:00	2020-06-08T18:41:33+00:00	2020-06-12T06:59:59+00:00	-4	4w3mrnk85318kkx@marketplace.amazon.com	Rick	+1 314-282-9402 ext. 46649	ABM010	Purchase Now for Delivery by Thursday | Arabella Bouquets | Fields of The World Bouquet of Fresh Cut Flowers in a Free Designer Glass Vase	1	0	1	Expedited	Richard syx	6180 CYPRESS AVE			WINTON	CA	95388-9547	US			false		
111-6506509-8037833	24355773171234	2020-06-08T18:13:22+00:00	2020-06-08T11:13:22-07:00	2020-06-08T18:42:11+00:00	2020-06-12T06:59:59+00:00	-4	2p9sfzsnlp9tnn3@marketplace.amazon.com	Gloria Kim	+1 314-282-9402 ext. 15373	ABR0022	Purchase Now for Delivery by Thursday | Arabella Farm Direct Bouquet of 12 Fresh Cut Pink Roses with a Free Glass Vase	1	0	1	Expedited	Bohyun Kim	777 TENNESSEE ST APT 505			SAN FRANCISCO	CA	94107-3031	US		Congratulations on your interview! We wish you the best of luck in the rest of your journey! Love Family From Gloria Kim	false		
113-4988241-0053002	21512470273122	2020-06-08T18:19:11+00:00	2020-06-08T11:19:11-07:00	2020-06-08T18:47:02+00:00	2020-06-12T06:59:59+00:00	-4	y6mlqgp429vd5x0@marketplace.amazon.com	Joanne Haas	+1 346-307-9643 ext. 05930	ABR004	Arabella Farm Direct Bouquet of 12 Fresh Cut Yellow Roses with a Free Glass Vase	1	0	1	Standard	Berna Russell	6508 OCEANVIEW DR			CARLSBAD	CA	92011-1018	US		Hi Berna, Happy Birthday. Enjoy your roses. Wish I were with you. Love, Joanne	false		
111-1848134-4225012	04324561471890	2020-06-08T18:02:20+00:00	2020-06-08T11:02:20-07:00	2020-06-08T18:50:08+00:00	2020-06-12T06:59:59+00:00	-4	zk8ln6y3q6wqp23@marketplace.amazon.com	Frank	+1 210-728-4548 ext. 55340	ABR0022	Purchase Now for Delivery by Thursday | Arabella Farm Direct Bouquet of 12 Fresh Cut Pink Roses with a Free Glass Vase	1	0	1	Expedited	Jacky Chow	925 GULL AVE			FOSTER CITY	CA	94404-1429	US		I want you to know that since the day we met I've fallen deeply in love with you. There are no words to express the gratitude I feel in my heart that you came into my life, and how you make every day so lovely for me. Love u. From Chia Wei	false		
113-9495101-0111404	47437960067698	2020-06-08T18:55:26+00:00	2020-06-08T11:55:26-07:00	2020-06-08T19:24:27+00:00	2020-06-12T06:59:59+00:00	-4	1lnyqk6l9nprbv1@marketplace.amazon.com	Aaron Brehmer	+1 210-728-4548 ext. 91565	ABM010	Purchase Now for Delivery by Thursday | Arabella Bouquets | Fields of The World Bouquet of Fresh Cut Flowers in a Free Designer Glass Vase	1	0	1	Expedited	Aaron Brehmer	325 TROLLINGER ST			RANDLEMAN	NC	27317-1443	US			false		
111-0025917-9149071	27017340493114	2020-06-08T18:56:30+00:00	2020-06-08T11:56:30-07:00	2020-06-08T19:25:02+00:00	2020-06-12T06:59:59+00:00	-4	m3hrrq3j2b1z60r@marketplace.amazon.com	Darelle	+1 210-728-4548 ext. 77512	ABR0022	Purchase Now for Delivery by Thursday | Arabella Farm Direct Bouquet of 12 Fresh Cut Pink Roses with a Free Glass Vase	1	0	1	Expedited	Janee Merritt	3301 DEER ST APT 2A			WOODRIDGE	IL	60517-3207	US		I miss you From Darelle	false		
114-9583287-4769816	08202519608834	2020-06-08T19:47:47+00:00	2020-06-08T12:47:47-07:00	2020-06-08T20:15:33+00:00	2020-06-12T06:59:59+00:00	-4	z6c7sdx2cr6fb2w@marketplace.amazon.com	Stephen M Wolf	+1 210-728-4548 ext. 10318	ABM010	Purchase Now for Delivery by Thursday | Arabella Bouquets | Fields of The World Bouquet of Fresh Cut Flowers in a Free Designer Glass Vase	1	0	1	Expedited	Joan Graywood	201 SKYLARK WAY			NAPA	CA	94558-6319	US		Happy Birthday Aunt Joanie! Enjoy yuor special day.  Your Loving Niece , Lynn From Lynn & Steve Wolf	false		
111-1921698-6796232	64236669985746	2020-06-08T19:45:44+00:00	2020-06-08T12:45:44-07:00	2020-06-08T20:16:06+00:00	2020-06-12T06:59:59+00:00	-4	c83nkhdxr6s724k@marketplace.amazon.com	Lauren holcomb	+1 314-282-9402 ext. 05841	ABR0022	Purchase Now for Delivery by Thursday | Arabella Farm Direct Bouquet of 12 Fresh Cut Pink Roses with a Free Glass Vase	1	0	1	Expedited	Celeste Tonella	6575 DAWNHILL RD			BARTLETT	TN	38135-1583	US			false		
111-9963010-2021030	36441222726546	2020-06-08T19:53:26+00:00	2020-06-08T12:53:26-07:00	2020-06-08T20:16:08+00:00	2020-06-12T06:59:59+00:00	-4	yd24nbnqttlqyy5@marketplace.amazon.com	kathy Rheinhart	+1 346-307-9643 ext. 86748	ABR0055	Purchase Now for Delivery by Thursday | Arabella Farm Direct Bouquet of 12 Stems of Fresh Cut Hot Pink Roses in a Free Designer Glass Vase	1	0	1	Expedited	Betty O Brien	204 DEERFIELD DR			GREER	SC	29650-4404	US		We love our Betty! Happy Birthday...and blessings in the coming year ❤️ From Dave and Kathy Rheinhart	false		
111-5572198-9413030	65061171999074	2020-06-08T20:02:14+00:00	2020-06-08T13:02:14-07:00	2020-06-08T20:22:26+00:00	2020-06-12T06:59:59+00:00	-4	hc5ymjf79mg6p18@marketplace.amazon.com	Cleo C. Noriega	+1 314-282-9402 ext. 86606	ABR0022	Purchase Now for Delivery by Thursday | Arabella Farm Direct Bouquet of 12 Fresh Cut Pink Roses with a Free Glass Vase	1	0	1	Expedited	Breanna Dizon	2391 TOYON WAY			SAN BRUNO	CA	94066-1937	US		Dear Bre, You are free from the clutches of STM and I would use all my three wishes to be there and celebrate with you. Heck I would use them to graduate with you! I miss you and love you so much.  Love you, Kat	false		
111-2885466-6814663	02227111230122	2020-06-08T20:23:12+00:00	2020-06-08T13:23:12-07:00	2020-06-08T20:53:21+00:00	2020-06-12T06:59:59+00:00	-4	d2nggy2q774b0yj@marketplace.amazon.com	Matthew Stoutenburg	+1 346-307-9643 ext. 76119	ABR001	Purchase Now for Delivery by Thursday | Arabella Bouquets 12 Stems of Fresh Cut Red Roses in a Free Designer Glass Vase	1	0	1	Expedited	Matthew C Stoutenburg	130 Michigan Hollow Rd			Spencer	New York	14883	US			false		
113-4391854-8469846	29129293884850	2020-06-08T20:31:25+00:00	2020-06-08T13:31:25-07:00	2020-06-08T21:02:01+00:00	2020-06-10T06:59:59+00:00	-2	1vcf03r8p19krgg@marketplace.amazon.com	alonzo	+1 210-728-4548 ext. 92940	ABR0022	Purchase Now for Delivery by Thursday | Arabella Farm Direct Bouquet of 12 Fresh Cut Pink Roses with a Free Glass Vase	1	0	1	SecondDay	Alonzo Anderson	3401 E WEST HWY APT 167			HYATTSVILLE	MD	20782-2359	US			false		
111-7670674-0541828	43813014668514	2020-06-08T20:50:02+00:00	2020-06-08T13:50:02-07:00	2020-06-08T21:05:04+00:00	2020-06-10T06:59:59+00:00	-2	6zgjrdxrj1jnld6@marketplace.amazon.com	BRADY H. LONSDALE	+1 210-728-4548 ext. 63710	ABR0066	Purchase Now for Delivery by Thursday | Arabella Bouquets | 12 Stems of Fresh Cut White Roses in a Free Designer Glass Vase	1	0	1	SecondDay	Taylor Lonsdale	2501 54TH ST			SACRAMENTO	CA	95817-1632	US		Congratulations Yay-Yay!  I love you and miss you. Love, Jaxon From Jaxon	false		
114-0097077-5672243	01485016705730	2020-06-08T21:05:59+00:00	2020-06-08T14:05:59-07:00	2020-06-08T21:32:29+00:00	2020-06-10T06:59:59+00:00	-2	qkt8bdkj705tyg8@marketplace.amazon.com	Yonglin Jiang	+1 346-307-9643 ext. 88803	ABR001	Purchase Now for Delivery by Thursday | Arabella Bouquets 12 Stems of Fresh Cut Red Roses in a Free Designer Glass Vase	1	0	1	SecondDay	Yonglin Jiang	121 CLAMAR AVE			HAVERTOWN	PA	19083-4907	US			false		
111-0659872-0516216	59281659645962	2020-06-08T21:17:58+00:00	2020-06-08T14:17:58-07:00	2020-06-08T21:45:31+00:00	2020-06-10T06:59:59+00:00	-2	tfgj0ychjq0l374@marketplace.amazon.com	TONY LEE JOLLY	+1 210-728-4548 ext. 12114	ABR0022	Purchase Now for Delivery by Thursday | Arabella Farm Direct Bouquet of 12 Fresh Cut Pink Roses with a Free Glass Vase	1	0	1	SecondDay	Mechelle Jolly	539 WILLARD AVE			POCATELLO	ID	83201-4505	US		Hope you feel better soon, see you soon (-:	false		
