order-id	order-item-id	purchase-date	payments-date	reporting-date	promise-date	days-past-promise	buyer-email	buyer-name	buyer-phone-number	sku	product-name	quantity-purchased	quantity-shipped	quantity-to-ship	ship-service-level	recipient-name	ship-address-1	ship-address-2	ship-address-3	ship-city	ship-state	ship-postal-code	ship-country	gift-wrap-type	gift-message-text	is-business-order	purchase-order-number	price-designation
113-4849392-3270617	49181514223634	2020-06-08T13:36:16+00:00	2020-06-08T06:36:16-07:00	2020-06-08T14:04:56+00:00	2020-06-09T06:59:59+00:00	0	q4zdl82wzv3t55f@marketplace.amazon.com	Susan Conroy	+1 346-307-9643 ext. 67698	ABR012	Arabella Farm Direct Bouquet of 18 Fresh Cut Pink Roses with a Free Glass Vase	1	0	1	SecondDay	Mrs. William Sherk	9221 ALTA OAKS DR			DALLAS	TX	75243-6232	US			false		
113-2228853-6360227	47414939834218	2020-06-08T14:35:43+00:00	2020-06-08T07:35:43-07:00	2020-06-08T14:59:05+00:00	2020-06-12T06:59:59+00:00	-3	wwk0qph1n7dtfyg@marketplace.amazon.com	richard hynds	+1 346-307-9643 ext. 00885	ABR0022	Purchase Now for Delivery by Wednesday | Arabella Farm Direct Bouquet of 12 Fresh Cut Pink Roses with a Free Glass Vase	1	0	1	Expedited	Darla Waller	402 W Second St			Hale Center	TX	79041	US		Eugene Payne, Jr Congratulations on a Wonderful Grandson's Graduation. From Eugene Payne Jr	false		
113-3174213-4009840	29082830501714	2020-06-08T15:21:53+00:00	2020-06-08T08:21:53-07:00	2020-06-08T15:52:06+00:00	2020-06-09T06:59:59+00:00	0	lx9jfzdcslbz3dj@marketplace.amazon.com	Alan Altheim	+1 314-282-9402 ext. 93488	ABR012	Arabella Farm Direct Bouquet of 18 Fresh Cut Pink Roses with a Free Glass Vase	1	0	1	SecondDay	Alan altheim	405 PACING WAY			WESTBURY	NY	11590-6669	US			false		
113-9639115-9888257	06180172641306	2020-06-08T16:19:51+00:00	2020-06-08T09:19:51-07:00	2020-06-08T16:44:36+00:00	2020-06-12T06:59:59+00:00	-3	835ydp0jzkgs0v0@marketplace.amazon.com	Michael J OLeary	+1 314-282-9402 ext. 42719	ABR0022	Purchase Now for Delivery by Thursday | Arabella Farm Direct Bouquet of 12 Fresh Cut Pink Roses with a Free Glass Vase	1	0	1	Expedited	Mrs Eileen Best Wishes Frain	16 LAKEVIEW DR			CHESTER	NY	10918-2204	US		Dear Eileen,  Wishing you a most Joyous  & Blessed Birthday,  May it be  filled with Renewed  Faith, Hope , Love, Health & all That's  Good from Above ... Love Always, Mike & Patsy O'Leary From Mike & Patsy	false		
111-9918588-3190604	02489005725762	2020-06-08T16:35:21+00:00	2020-06-08T09:35:21-07:00	2020-06-08T16:50:13+00:00	2020-06-12T06:59:59+00:00	-3	mywv5vtrhk649w0@marketplace.amazon.com	David	+1 210-728-4548 ext. 11359	ABR0022	Purchase Now for Delivery by Thursday | Arabella Farm Direct Bouquet of 12 Fresh Cut Pink Roses with a Free Glass Vase	1	0	1	Expedited	Sunaiina Batra	1281 9TH AVE UNIT 1007			SAN DIEGO	CA	92101-4651	US		A little something to make you being back home feel like home again. Enjoy hun From David	false		
114-2151550-0797808	28026169060802	2020-06-08T17:08:59+00:00	2020-06-08T10:08:59-07:00	2020-06-08T17:37:43+00:00	2020-06-10T06:59:59+00:00	-1	6v6sb9x84j0dbh5@marketplace.amazon.com	Wendy Kolopsky	+1 210-728-4548 ext. 22601	ABR012	Arabella Farm Direct Bouquet of 18 Fresh Cut Pink Roses with a Free Glass Vase	1	0	1	SecondDay	Ruth Kolopsky	3500 MYSTIC POINTE DR APT 1708			AVENTURA	FL	33180-2582	US			false		
114-5363142-9790634	30281795894706	2020-06-08T17:54:52+00:00	2020-06-08T10:54:52-07:00	2020-06-08T18:13:13+00:00	2020-06-12T06:59:59+00:00	-3	zyhtwtflf2cb1vv@marketplace.amazon.com	Kate Nasser	+1 346-307-9643 ext. 32457	ABR0022	Purchase Now for Delivery by Thursday | Arabella Farm Direct Bouquet of 12 Fresh Cut Pink Roses with a Free Glass Vase	1	0	1	Expedited	Elizabeth Lutch	11 EVERGREEN LN			HAMPSTEAD	NC	28443-3587	US		Congratulations on little Victoria Rose! We are so happy for you guys! Enjoy every moment! Love you! From The Nasser's	false		
111-7145672-5745050	65153622591170	2020-06-08T17:52:38+00:00	2020-06-08T10:52:38-07:00	2020-06-08T18:22:57+00:00	2020-06-12T06:59:59+00:00	-3	5654j2t0xs7hgyv@marketplace.amazon.com	Daniel Russ	+1 346-307-9643 ext. 44785	ABR001	Purchase Now for Delivery by Thursday | Arabella Bouquets 12 Stems of Fresh Cut Red Roses in a Free Designer Glass Vase	1	0	1	Expedited	Daniel Russ	7056 SUBIC CIR APT C			FORT STEWART	GA	31315-5843	US			false		
114-4126631-4093830	31106030322002	2020-06-08T18:11:56+00:00	2020-06-08T11:11:56-07:00	2020-06-08T18:41:33+00:00	2020-06-12T06:59:59+00:00	-3	4w3mrnk85318kkx@marketplace.amazon.com	Rick	+1 314-282-9402 ext. 46649	ABM010	Purchase Now for Delivery by Thursday | Arabella Bouquets | Fields of The World Bouquet of Fresh Cut Flowers in a Free Designer Glass Vase	1	0	1	Expedited	Richard syx	6180 CYPRESS AVE			WINTON	CA	95388-9547	US			false		
111-6506509-8037833	24355773171234	2020-06-08T18:13:22+00:00	2020-06-08T11:13:22-07:00	2020-06-08T18:42:11+00:00	2020-06-12T06:59:59+00:00	-3	2p9sfzsnlp9tnn3@marketplace.amazon.com	Gloria Kim	+1 314-282-9402 ext. 15373	ABR0022	Purchase Now for Delivery by Thursday | Arabella Farm Direct Bouquet of 12 Fresh Cut Pink Roses with a Free Glass Vase	1	0	1	Expedited	Bohyun Kim	777 TENNESSEE ST APT 505			SAN FRANCISCO	CA	94107-3031	US		Congratulations on your interview! We wish you the best of luck in the rest of your journey! Love Family From Gloria Kim	false		
113-4988241-0053002	21512470273122	2020-06-08T18:19:11+00:00	2020-06-08T11:19:11-07:00	2020-06-08T18:47:02+00:00	2020-06-12T06:59:59+00:00	-3	y6mlqgp429vd5x0@marketplace.amazon.com	Joanne Haas	+1 346-307-9643 ext. 05930	ABR004	Arabella Farm Direct Bouquet of 12 Fresh Cut Yellow Roses with a Free Glass Vase	1	0	1	Standard	Berna Russell	6508 OCEANVIEW DR			CARLSBAD	CA	92011-1018	US		Hi Berna, Happy Birthday. Enjoy your roses. Wish I were with you. Love, Joanne	false		
111-1848134-4225012	04324561471890	2020-06-08T18:02:20+00:00	2020-06-08T11:02:20-07:00	2020-06-08T18:50:08+00:00	2020-06-12T06:59:59+00:00	-3	zk8ln6y3q6wqp23@marketplace.amazon.com	Frank	+1 210-728-4548 ext. 55340	ABR0022	Purchase Now for Delivery by Thursday | Arabella Farm Direct Bouquet of 12 Fresh Cut Pink Roses with a Free Glass Vase	1	0	1	Expedited	Jacky Chow	925 GULL AVE			FOSTER CITY	CA	94404-1429	US		I want you to know that since the day we met I've fallen deeply in love with you. There are no words to express the gratitude I feel in my heart that you came into my life, and how you make every day so lovely for me. Love u. From Chia Wei	false		
113-9495101-0111404	47437960067698	2020-06-08T18:55:26+00:00	2020-06-08T11:55:26-07:00	2020-06-08T19:24:27+00:00	2020-06-12T06:59:59+00:00	-3	1lnyqk6l9nprbv1@marketplace.amazon.com	Aaron Brehmer	+1 210-728-4548 ext. 91565	ABM010	Purchase Now for Delivery by Thursday | Arabella Bouquets | Fields of The World Bouquet of Fresh Cut Flowers in a Free Designer Glass Vase	1	0	1	Expedited	Aaron Brehmer	325 TROLLINGER ST			RANDLEMAN	NC	27317-1443	US			false		
111-0025917-9149071	27017340493114	2020-06-08T18:56:30+00:00	2020-06-08T11:56:30-07:00	2020-06-08T19:25:02+00:00	2020-06-12T06:59:59+00:00	-3	m3hrrq3j2b1z60r@marketplace.amazon.com	Darelle	+1 210-728-4548 ext. 77512	ABR0022	Purchase Now for Delivery by Thursday | Arabella Farm Direct Bouquet of 12 Fresh Cut Pink Roses with a Free Glass Vase	1	0	1	Expedited	Janee Merritt	3301 DEER ST APT 2A			WOODRIDGE	IL	60517-3207	US		I miss you From Darelle	false		
114-9583287-4769816	08202519608834	2020-06-08T19:47:47+00:00	2020-06-08T12:47:47-07:00	2020-06-08T20:15:33+00:00	2020-06-12T06:59:59+00:00	-3	z6c7sdx2cr6fb2w@marketplace.amazon.com	Stephen M Wolf	+1 210-728-4548 ext. 10318	ABM010	Purchase Now for Delivery by Thursday | Arabella Bouquets | Fields of The World Bouquet of Fresh Cut Flowers in a Free Designer Glass Vase	1	0	1	Expedited	Joan Graywood	201 SKYLARK WAY			NAPA	CA	94558-6319	US		Happy Birthday Aunt Joanie! Enjoy yuor special day.  Your Loving Niece , Lynn From Lynn & Steve Wolf	false		
111-1921698-6796232	64236669985746	2020-06-08T19:45:44+00:00	2020-06-08T12:45:44-07:00	2020-06-08T20:16:06+00:00	2020-06-12T06:59:59+00:00	-3	c83nkhdxr6s724k@marketplace.amazon.com	Lauren holcomb	+1 314-282-9402 ext. 05841	ABR0022	Purchase Now for Delivery by Thursday | Arabella Farm Direct Bouquet of 12 Fresh Cut Pink Roses with a Free Glass Vase	1	0	1	Expedited	Celeste Tonella	6575 DAWNHILL RD			BARTLETT	TN	38135-1583	US			false		
111-9963010-2021030	36441222726546	2020-06-08T19:53:26+00:00	2020-06-08T12:53:26-07:00	2020-06-08T20:16:08+00:00	2020-06-12T06:59:59+00:00	-3	yd24nbnqttlqyy5@marketplace.amazon.com	kathy Rheinhart	+1 346-307-9643 ext. 86748	ABR0055	Purchase Now for Delivery by Thursday | Arabella Farm Direct Bouquet of 12 Stems of Fresh Cut Hot Pink Roses in a Free Designer Glass Vase	1	0	1	Expedited	Betty O Brien	204 DEERFIELD DR			GREER	SC	29650-4404	US		We love our Betty! Happy Birthday...and blessings in the coming year ❤️ From Dave and Kathy Rheinhart	false		
111-5572198-9413030	65061171999074	2020-06-08T20:02:14+00:00	2020-06-08T13:02:14-07:00	2020-06-08T20:22:26+00:00	2020-06-12T06:59:59+00:00	-3	hc5ymjf79mg6p18@marketplace.amazon.com	Cleo C. Noriega	+1 314-282-9402 ext. 86606	ABR0022	Purchase Now for Delivery by Thursday | Arabella Farm Direct Bouquet of 12 Fresh Cut Pink Roses with a Free Glass Vase	1	0	1	Expedited	Breanna Dizon	2391 TOYON WAY			SAN BRUNO	CA	94066-1937	US		Dear Bre, You are free from the clutches of STM and I would use all my three wishes to be there and celebrate with you. Heck I would use them to graduate with you! I miss you and love you so much.  Love you, Kat	false		
111-2885466-6814663	02227111230122	2020-06-08T20:23:12+00:00	2020-06-08T13:23:12-07:00	2020-06-08T20:53:21+00:00	2020-06-12T06:59:59+00:00	-3	d2nggy2q774b0yj@marketplace.amazon.com	Matthew Stoutenburg	+1 346-307-9643 ext. 76119	ABR001	Purchase Now for Delivery by Thursday | Arabella Bouquets 12 Stems of Fresh Cut Red Roses in a Free Designer Glass Vase	1	0	1	Expedited	Matthew C Stoutenburg	130 Michigan Hollow Rd			Spencer	New York	14883	US			false		
113-4391854-8469846	29129293884850	2020-06-08T20:31:25+00:00	2020-06-08T13:31:25-07:00	2020-06-08T21:02:01+00:00	2020-06-10T06:59:59+00:00	-1	1vcf03r8p19krgg@marketplace.amazon.com	alonzo	+1 210-728-4548 ext. 92940	ABR0022	Purchase Now for Delivery by Thursday | Arabella Farm Direct Bouquet of 12 Fresh Cut Pink Roses with a Free Glass Vase	1	0	1	SecondDay	Alonzo Anderson	3401 E WEST HWY APT 167			HYATTSVILLE	MD	20782-2359	US			false		
111-7670674-0541828	43813014668514	2020-06-08T20:50:02+00:00	2020-06-08T13:50:02-07:00	2020-06-08T21:05:04+00:00	2020-06-10T06:59:59+00:00	-1	6zgjrdxrj1jnld6@marketplace.amazon.com	BRADY H. LONSDALE	+1 210-728-4548 ext. 63710	ABR0066	Purchase Now for Delivery by Thursday | Arabella Bouquets | 12 Stems of Fresh Cut White Roses in a Free Designer Glass Vase	1	0	1	SecondDay	Taylor Lonsdale	2501 54TH ST			SACRAMENTO	CA	95817-1632	US		Congratulations Yay-Yay!  I love you and miss you. Love, Jaxon From Jaxon	false		
114-0097077-5672243	01485016705730	2020-06-08T21:05:59+00:00	2020-06-08T14:05:59-07:00	2020-06-08T21:32:29+00:00	2020-06-10T06:59:59+00:00	-1	qkt8bdkj705tyg8@marketplace.amazon.com	Yonglin Jiang	+1 346-307-9643 ext. 88803	ABR001	Purchase Now for Delivery by Thursday | Arabella Bouquets 12 Stems of Fresh Cut Red Roses in a Free Designer Glass Vase	1	0	1	SecondDay	Yonglin Jiang	121 CLAMAR AVE			HAVERTOWN	PA	19083-4907	US			false		
111-0659872-0516216	59281659645962	2020-06-08T21:17:58+00:00	2020-06-08T14:17:58-07:00	2020-06-08T21:45:31+00:00	2020-06-10T06:59:59+00:00	-1	tfgj0ychjq0l374@marketplace.amazon.com	TONY LEE JOLLY	+1 210-728-4548 ext. 12114	ABR0022	Purchase Now for Delivery by Thursday | Arabella Farm Direct Bouquet of 12 Fresh Cut Pink Roses with a Free Glass Vase	1	0	1	SecondDay	Mechelle Jolly	539 WILLARD AVE			POCATELLO	ID	83201-4505	US		Hope you feel better soon, see you soon (-:	false		
114-9989821-1469803	00805648641250	2020-06-08T21:31:41+00:00	2020-06-08T14:31:41-07:00	2020-06-08T22:00:22+00:00	2020-06-10T06:59:59+00:00	-1	mdh112y4rs0pm9w@marketplace.amazon.com	William Campbell	+1 346-307-9643 ext. 51303	ABR001	Purchase Now for Delivery by Thursday | Arabella Bouquets 12 Stems of Fresh Cut Red Roses in a Free Designer Glass Vase	1	0	1	SecondDay	Mandy Campbell	2533 KINNERSLEY LN			COLLEGE STATION	TX	77845-1207	US			false		
111-1417288-6681017	05309710298330	2020-06-08T21:44:42+00:00	2020-06-08T14:44:42-07:00	2020-06-08T22:11:00+00:00	2020-06-10T06:59:59+00:00	-1	c60wm5qjjwr69d9@marketplace.amazon.com	Steve Ek	+1 314-282-9402 ext. 56055	ABB011	Arabella Bouquets 24 Stems of Fresh Cut Hot Pink Roses in a Free Designer Glass Vase	1	0	1	SecondDay	Rose Colella	35309 KINSKY WAY			FALLBROOK	CA	92028-6511	US		Thinking of you and what a great Aunt and Godmother you were to me. When we come to CA we will come visit you.  Happy Birthday, Val From Valerie Votta Ek	false		
111-9569044-8160219	04279372623410	2020-06-08T22:01:41+00:00	2020-06-08T15:01:41-07:00	2020-06-08T22:18:05+00:00	2020-06-12T06:59:59+00:00	-3	rpln2brp6b50xzd@marketplace.amazon.com	Patricia Ison	+1 210-728-4548 ext. 12960	ABSR003	Arabella Bouquets Fresh Cut Yellow Spray Roses in a Free Designer Glass Vase	1	0	1	Standard	Barbara Tyson	11 STERLING PL			MILLVILLE	NJ	08332-4681	US			false		
114-7369699-2089040	70056687250130	2020-06-08T21:56:09+00:00	2020-06-08T14:56:09-07:00	2020-06-08T22:23:56+00:00	2020-06-10T06:59:59+00:00	-1	mx06dtz45f9wgz8@marketplace.amazon.com	Steven Valentic	+1 314-282-9402 ext. 37197	ABM010	Purchase Now for Delivery by Thursday | Arabella Bouquets | Fields of The World Bouquet of Fresh Cut Flowers in a Free Designer Glass Vase	1	0	1	SecondDay	The Einemann family	25 2ND ST			LYNBROOK	NY	11563-4113	US		Thank you for the beautiful cabana. We can’t wait to make summer memories there. From Steve and Christine	false		
114-1581267-1707400	20915012565738	2020-06-08T22:05:54+00:00	2020-06-08T15:05:54-07:00	2020-06-08T22:29:54+00:00	2020-06-10T06:59:59+00:00	-1	f0wmlcx50vz4l9d@marketplace.amazon.com	Tonya Sweet	+1 210-728-4548 ext. 62040	ABM010	Purchase Now for Delivery by Thursday | Arabella Bouquets | Fields of The World Bouquet of Fresh Cut Flowers in a Free Designer Glass Vase	1	0	1	SecondDay	Amy and Josh Newfield	CROUSE HOSPITAL LABOR AND DELIVERY	736 IRVING AVE		SYRACUSE	NY	13210-1687	US		Hi, Congratulations on little Benjamin.  From the Fairfield family	false		
113-1346234-1123403	60117837897714	2020-06-08T22:19:17+00:00	2020-06-08T15:19:17-07:00	2020-06-08T22:41:20+00:00	2020-06-10T06:59:59+00:00	-1	31yv7pcxyvbd5tq@marketplace.amazon.com	lisa martinez	+1 346-307-9643 ext. 89159	ABM010	Purchase Now for Delivery by Thursday | Arabella Bouquets | Fields of The World Bouquet of Fresh Cut Flowers in a Free Designer Glass Vase	1	0	1	SecondDay	Vince Martinez	418 N 14TH ST			PHOENIX	AZ	85006-3503	US		Dad & Aunt Gin,  We love you and are here for you! Courtney, Teresa & Lisa	false		
114-4610011-2151440	60195163053194	2020-06-08T22:20:53+00:00	2020-06-08T15:20:53-07:00	2020-06-08T22:44:03+00:00	2020-06-10T06:59:59+00:00	-1	vwzc1nq61ztf6xt@marketplace.amazon.com	Louis G. Troilo	+1 314-282-9402 ext. 68209	ABM010	Purchase Now for Delivery by Thursday | Arabella Bouquets | Fields of The World Bouquet of Fresh Cut Flowers in a Free Designer Glass Vase	1	0	1	SecondDay	BETTY GRECO	10808 DAYFLOWER CT			RESTON	VA	20191-5110	US		HI BETTY,  BEST WISHES FOR A SPEEDY RECOVERY !!  LOVE,LOU	false		
112-2607178-0717828	66270426886058	2020-06-08T22:20:35+00:00	2020-06-08T15:20:35-07:00	2020-06-08T22:45:58+00:00	2020-06-10T06:59:59+00:00	-1	v1by9qp3yrsbbxf@marketplace.amazon.com	Nathalia Castro	+1 346-307-9643 ext. 90440	ABR012	Arabella Farm Direct Bouquet of 18 Fresh Cut Pink Roses with a Free Glass Vase	1	0	1	SecondDay	Dorka De La Cruz	3421 DEKALB AVE APT A2			BRONX	NY	10467-1952	US		Felicidades ma!! Que Dios te de muchos anos mas de vida y salud!  Te queremos mucho!!  Celenia y la siguita	false		
113-7163721-1240235	39422644446850	2020-06-08T22:29:18+00:00	2020-06-08T15:29:18-07:00	2020-06-08T22:56:52+00:00	2020-06-10T06:59:59+00:00	-1	x644lm1stj5txfl@marketplace.amazon.com	Susan Capellan	+1 346-307-9643 ext. 33572	ABR0022	Purchase Now for Delivery by Thursday | Arabella Farm Direct Bouquet of 12 Fresh Cut Pink Roses with a Free Glass Vase	1	0	1	SecondDay	Capellan-Steffke	13464 MORAINE RD			TRUCKEE	CA	96161-3839	US		Baby Bama  You and Baby Boo hang in there XO From Mama	false		
112-1160879-7177039	58398515165642	2020-06-08T22:34:49+00:00	2020-06-08T15:34:49-07:00	2020-06-08T23:03:59+00:00	2020-06-10T06:59:59+00:00	-1	1bf4g79hcd3g7x5@marketplace.amazon.com	vicki pasco	+1 210-728-4548 ext. 87637	ABM010	Purchase Now for Delivery by Thursday | Arabella Bouquets | Fields of The World Bouquet of Fresh Cut Flowers in a Free Designer Glass Vase	1	0	1	SecondDay	Heidi Smith	13730 COUNTY ROUTE 5			CLAYTON	NY	13624-2292	US		Get well soon! Healing thoughts and prayers. We miss you! From Vicki, Ann, Jenny	false		
114-4352304-4347410	36582248298386	2020-06-08T22:53:09+00:00	2020-06-08T15:53:09-07:00	2020-06-08T23:18:05+00:00	2020-06-10T06:59:59+00:00	-1	mdf0bp8j959p21z@marketplace.amazon.com	Susan Felber	+1 314-282-9402 ext. 08207	ABR0055	Purchase Now for Delivery by Thursday | Arabella Farm Direct Bouquet of 12 Stems of Fresh Cut Hot Pink Roses in a Free Designer Glass Vase	1	0	1	SecondDay	Judy Caldwell	1601 TROON DR			SALISBURY	NC	28144-8903	US			false		
113-5216017-1481062	35121073918698	2020-06-08T23:12:11+00:00	2020-06-08T16:12:11-07:00	2020-06-08T23:37:32+00:00	2020-06-10T06:59:59+00:00	-1	wx5l33zxzrmcrky@marketplace.amazon.com	Guanyu Zhu	+1 346-307-9643 ext. 18871	ABR0022	Purchase Now for Delivery by Thursday | Arabella Farm Direct Bouquet of 12 Fresh Cut Pink Roses with a Free Glass Vase	1	0	1	SecondDay	Lingqi Zhang	1220 TASMAN DR # 298			SUNNYVALE	CA	94089-2413	US		My love towards you never fades.   You are my ocean, my sky and my universe!  Please forgive me and let's re-unite!    Zhuzhu	false		
114-0402492-3024233	50702485134498	2020-06-08T23:10:15+00:00	2020-06-08T16:10:15-07:00	2020-06-08T23:38:12+00:00	2020-06-10T06:59:59+00:00	-1	5fcyg4fm7kmm8wx@marketplace.amazon.com	cindy swalby	+1 346-307-9643 ext. 45188	ABM010	Purchase Now for Delivery by Thursday | Arabella Bouquets | Fields of The World Bouquet of Fresh Cut Flowers in a Free Designer Glass Vase	1	0	1	SecondDay	Charissa Messer	347 HIGH RIDGE RD			CHADDS FORD	PA	19317-9157	US		Happy Birthday! We love you! From Terry and Cindy	false		
111-9184827-4184236	50288829941914	2020-06-08T23:11:25+00:00	2020-06-08T16:11:25-07:00	2020-06-08T23:38:26+00:00	2020-06-10T06:59:59+00:00	-1	cfpqwt1zymg2wvf@marketplace.amazon.com	Kathalee Lowry	+1 346-307-9643 ext. 02948	ABM010	Purchase Now for Delivery by Thursday | Arabella Bouquets | Fields of The World Bouquet of Fresh Cut Flowers in a Free Designer Glass Vase	1	0	1	SecondDay	Michelle Lenz	9829 SPRING LAKE DR			CLERMONT	FL	34711-7988	US		Happy Birthday to our wonderful daughter From Dad & Mom	false		
114-1933898-1105847	07170650597474	2020-06-08T23:19:50+00:00	2020-06-08T16:19:50-07:00	2020-06-08T23:50:20+00:00	2020-06-10T06:59:59+00:00	-1	4f0xy1ljf8hcw4x@marketplace.amazon.com	Dan Menow	+1 210-728-4548 ext. 69812	ABR0022	Purchase Now for Delivery by Thursday | Arabella Farm Direct Bouquet of 12 Fresh Cut Pink Roses with a Free Glass Vase	1	0	1	SecondDay	Daniel Menow	4803 Howell Street			Philadelphia	Pennsylvania	19135	US			false		
112-6212803-7364221	60833733647722	2020-06-08T23:43:29+00:00	2020-06-08T16:43:29-07:00	2020-06-08T23:51:46+00:00	2020-06-10T06:59:59+00:00	-1	twfn88jvvgh4nr0@marketplace.amazon.com	emily hoang	+1 314-282-9402 ext. 53383	ABR0033	Purchase Now for Delivery by Thursday | Arabella Farm Direct Bouquet of 12 Fresh Cut Orange Roses with a Free Glass Vase	1	0	1	SecondDay	James and Constance Camner	6207 SUMMERTIME LN			CULVER CITY	CA	90230-4578	US		Hello to the both of you! It is has been a long time (I met you both at Leonora and Mark's home). I hope your day is brighter from these flowers as I know staying in isolated must be a bit dim feeling From Emily Hoang and Ryan Jacob	false		
113-3158222-5457055	48170446328322	2020-06-08T23:40:41+00:00	2020-06-08T16:40:41-07:00	2020-06-09T00:09:23+00:00	2020-06-10T06:59:59+00:00	-1	9gj262h4kvjqpct@marketplace.amazon.com	Robyn R. Hall	631-871-35101	ABR0022	Purchase Now for Delivery by Thursday | Arabella Farm Direct Bouquet of 12 Fresh Cut Pink Roses with a Free Glass Vase	1	0	1	SecondDay	Tracey Budd	10 KATIE CT			LAKE GROVE	NY	11755-2313	US		Grandma,  Thank you for taking the drive to get me.  Love Always, Meike From Robyn R. Hall	false		
113-9715755-1682643	40185382663306	2020-06-08T23:51:05+00:00	2020-06-08T16:51:05-07:00	2020-06-09T00:20:29+00:00	2020-06-10T06:59:59+00:00	-1	22bh5cypzqn0gpp@marketplace.amazon.com	Erika Wanamaker	+1 346-307-9643 ext. 54373	ABR0022	Purchase Now for Delivery by Thursday | Arabella Farm Direct Bouquet of 12 Fresh Cut Pink Roses with a Free Glass Vase	1	0	1	SecondDay	Kathy Bowler	11317 W MORELA DR			BOISE	ID	83709-7008	US		Happy Birthday Grandma!  I love you and hope you get to celebrate! Love, Erika From Erika Wanamaker	false		
114-9840370-6424207	45030578781274	2020-06-09T00:05:51+00:00	2020-06-08T17:05:51-07:00	2020-06-09T00:30:27+00:00	2020-06-10T06:59:59+00:00	-1	ltszl2h4bv4h5b2@marketplace.amazon.com	steven grant	+7086060878	ABR0022	Arabella Farm Direct Bouquet of 12 Fresh Cut Pink Roses with a Free Glass Vase	1	0	1	SecondDay	Victoria Grant	13577 PLUMBAGO DR			CENTREVILLE	VA	20120-2704	US			false		
112-0228983-9576208	42746164726954	2020-06-09T00:04:45+00:00	2020-06-08T17:04:45-07:00	2020-06-09T00:30:47+00:00	2020-06-10T06:59:59+00:00	-1	b1tc1t7b10nmhvq@marketplace.amazon.com	Juan Ramos	+1 314-282-9402 ext. 45410	ABR0066	Purchase Now for Delivery by Thursday | Arabella Bouquets | 12 Stems of Fresh Cut White Roses in a Free Designer Glass Vase	1	0	1	SecondDay	Angelina Alarcón	2004 EXMOOR CT			NAPERVILLE	IL	60565-2615	US		Feliz Cumpleanos Mami la mas hermosa madre del mundo. De Mari y Rafi	false		
111-5696833-1377856	64826560228226	2020-06-09T00:21:43+00:00	2020-06-08T17:21:43-07:00	2020-06-09T00:50:40+00:00	2020-06-10T06:59:59+00:00	-1	wvb4cl2rb7s61r9@marketplace.amazon.com	Rick	+1 210-728-4548 ext. 82871	ABR0055	Arabella Farm Direct Bouquet of 12 Stems of Fresh Cut Hot Pink Roses in a Free Designer Glass Vase	1	0	1	SecondDay	Patricia Manning	818 HILLCREST DR			LAGUNA BEACH	CA	92651-1437	US		Feliz dia dos namorados meu amor.  Amo voce muuuuuuuito! From Ricardo	false		
113-1709291-0965849	66512014060226	2020-06-09T00:25:35+00:00	2020-06-08T17:25:35-07:00	2020-06-09T00:54:34+00:00	2020-06-12T06:59:59+00:00	-3	yr6j3c7dpc44k7l@marketplace.amazon.com	N. W. Maltz	+1 346-307-9643 ext. 61243	ABR012	Arabella Farm Direct Bouquet of 18 Fresh Cut Pink Roses with a Free Glass Vase	1	0	1	Standard	Mrs. J. Eckert	865 CENTRAL AVE APT N 504			NEEDHAM	MA	02492-1393	US		Hello Aunt Nanette Thinking of you. Love  Nanette, Andrew, Lisa and Jonathan	false		
112-6708981-4837810	19050471949058	2020-06-09T00:46:06+00:00	2020-06-08T17:46:06-07:00	2020-06-09T01:01:32+00:00	2020-06-10T06:59:59+00:00	-1	791f3442lxcqzpl@marketplace.amazon.com	Michael Parks	+1 346-307-9643 ext. 74174	ABM010	Arabella Bouquets | Fields of The World Bouquet of Fresh Cut Flowers in a Free Designer Glass Vase	1	0	1	SecondDay	Eileen Ettinger	4532 E ROSEMONTE DR			PHOENIX	AZ	85050-3336	US		Happy Birthday, Eileen!  We hope you enjoy the flowers and have a lovely & special 60th birthday celebration this year!  We love you. Wishing you all our best.  Sincerely, Mimi & Michael	false		
113-8913024-7953015	02472370544378	2020-06-09T00:42:39+00:00	2020-06-08T17:42:39-07:00	2020-06-09T01:06:30+00:00	2020-06-10T06:59:59+00:00	-1	xrv4l4p32mjypk1@marketplace.amazon.com	V Snowdon	+1 346-307-9643 ext. 13976	ABR0022	Arabella Farm Direct Bouquet of 12 Fresh Cut Pink Roses with a Free Glass Vase	1	0	1	SecondDay	MRS. ANN BEADLING	OAKBRIDGE TERRACE BUILDING	3950 VILLAGE VIEW DR APT 229		GAINESVILLE	GA	30506-4364	US		DEAR MOM,  SO MANY GOOD TIMES SHARED. SO MUCH LOVE TOO. SO BLESSED TO HAVE A GREAT MOM. YOU KNOW I HAVE ALWAYS LOVED YOU AND ALWAYS WILL! BIG HUGS!  XOXO, BEA	false		
111-3517366-4965011	27178571835026	2020-06-09T00:43:07+00:00	2020-06-08T17:43:07-07:00	2020-06-09T01:13:43+00:00	2020-06-10T06:59:59+00:00	-1	wgc5vmlx6nqvcd4@marketplace.amazon.com	Warren Schultz	+1 210-728-4548 ext. 34769	ABR001	Arabella Bouquets 12 Stems of Fresh Cut Red Roses in a Free Designer Glass Vase	1	0	1	SecondDay	Susie  sexy wall	15122 RANIER AVE GULFPORT MS			GULFPORT	MS	39503-4454	US			false		
111-0973429-0132203	46099450754450	2020-06-09T01:20:05+00:00	2020-06-08T18:20:05-07:00	2020-06-09T01:47:21+00:00	2020-06-10T06:59:59+00:00	-1	m9ysbx5wdrwhd3m@marketplace.amazon.com	Danielle Muni	+1 314-282-9402 ext. 92410	ABM010	Arabella Bouquets | Fields of The World Bouquet of Fresh Cut Flowers in a Free Designer Glass Vase	1	0	1	SecondDay	The Scotto Family	1738 PASCAL PL			WALL TOWNSHIP	NJ	07719-3751	US		TO: The Scotto Family  We're sorry to hear about your loss. Your family is in our thoughts and prayers.  Hamilton Township C & I Departmenti	false		
113-9655758-4835443	12071072881706	2020-06-09T01:47:34+00:00	2020-06-08T18:47:34-07:00	2020-06-09T02:17:04+00:00	2020-06-10T06:59:59+00:00	-1	mn59rms10xyxf5h@marketplace.amazon.com	Timothy lind	+1 346-307-9643 ext. 81504	ABR0022	Arabella Farm Direct Bouquet of 12 Fresh Cut Pink Roses with a Free Glass Vase	1	0	1	SecondDay	Timothy Lind	1623 Bull Valley Drive			Woodstock	Illinois	60098	US		We love you mom! Happy birthday!!  From Karlyn, Theo, Mike, Tim, Jeff, and Stacy	false		
113-0039112-7320213	33652246168418	2020-06-09T02:04:11+00:00	2020-06-08T19:04:11-07:00	2020-06-09T02:33:09+00:00	2020-06-10T06:59:59+00:00	-1	9l2pybhq8z54qwx@marketplace.amazon.com	Sergio	+1 346-307-9643 ext. 14399	ABM010	Arabella Bouquets | Fields of The World Bouquet of Fresh Cut Flowers in a Free Designer Glass Vase	1	0	1	SecondDay	Laura Malchuck	2630 EXALL ST			FLOWER MOUND	TX	75022-4525	US		Feliz Cumple Nro 40!!!!   Ya casi estas llegando a los 50 :)  Te queremos muntunaso. Sabry, Ser y Nico	false		
111-0664591-4759460	25995821144866	2020-06-09T02:17:02+00:00	2020-06-08T19:17:02-07:00	2020-06-09T02:39:04+00:00	2020-06-10T06:59:59+00:00	-1	xx1gqyby4wjjbnw@marketplace.amazon.com	Douglas j peterson	+1 210-728-4548 ext. 22831	ABR0055	Arabella Farm Direct Bouquet of 12 Stems of Fresh Cut Hot Pink Roses in a Free Designer Glass Vase	1	0	1	SecondDay	Diana Estrella	2618 W GARY WAY			PHOENIX	AZ	85041-7643	US		Happy birthday Diana! Enjoy your gift! We Love you!! From Teresa and Doug Peterson	false		
111-5017334-1306628	08356151025490	2020-06-09T02:25:13+00:00	2020-06-08T19:25:13-07:00	2020-06-09T02:42:24+00:00	2020-06-10T06:59:59+00:00	-1	vn95v6mtvsb1l7w@marketplace.amazon.com	Jason	+1 346-307-9643 ext. 96921	ABM010	Arabella Bouquets | Fields of The World Bouquet of Fresh Cut Flowers in a Free Designer Glass Vase	1	0	1	SecondDay	Kathy Meade c/o Marisa Meade	2449 CHUKAR DR			WASHOE VALLEY	NV	89704-9039	US		Ms. Kathy,We are hoping and praying for a speedy recovery. We haven’t had a chance to meet you but we know you through Marisa.   Much love and kind regards. From Darlene Ann  April	false		
114-8759581-4052208	44156308406402	2020-06-09T02:45:37+00:00	2020-06-08T19:45:37-07:00	2020-06-09T02:53:43+00:00	2020-06-10T06:59:59+00:00	-1	1r0tzt5xlhfpkfx@marketplace.amazon.com	Dorothy M. Kay	+1 346-307-9643 ext. 32029	ABR0033	Arabella Farm Direct Bouquet of 12 Fresh Cut Orange Roses with a Free Glass Vase	1	0	1	SecondDay	Mr. & Mrs. Nick Romesser	4316 WATERVILLE AVE			WESLEY CHAPEL	FL	33543-7037	US		I can't thank you enough for the kindness and help you gave to Richard.  You made his recovery and comfort much speadier.  I look forward to meeting you soon.  Thank you again,  Dorothy From Dorothy M. Kay	false		
111-1392879-7425853	11566433759234	2020-06-09T02:32:21+00:00	2020-06-08T19:32:21-07:00	2020-06-09T03:01:34+00:00	2020-06-10T06:59:59+00:00	-1	g08g12vbj84fwpz@marketplace.amazon.com	Brian Buchanan	+1 346-307-9643 ext. 60071	ABR0022	Arabella Farm Direct Bouquet of 12 Fresh Cut Pink Roses with a Free Glass Vase	1	0	1	SecondDay	Beth Buchanan	818 GROMO CT			HEALDSBURG	CA	95448-3723	US		Happy birthday Mama Beth! We love you very much. Sofie, Brian, Anna and Niki dog From Brian Buchanan	false		
113-2108678-1137032	61171486188450	2020-06-09T02:42:05+00:00	2020-06-08T19:42:05-07:00	2020-06-09T03:03:52+00:00	2020-06-10T06:59:59+00:00	-1	mqhxx8by8gdw2mh@marketplace.amazon.com	Kenneth E. Riley II	+1 346-307-9643 ext. 26872	ABR001	Arabella Bouquets 12 Stems of Fresh Cut Red Roses in a Free Designer Glass Vase	1	0	1	SecondDay	Becki Riley	444 ALEX CT APT 816			CASTLE PINES	CO	80108-9339	US			false		
114-1473527-1414607	60116327853938	2020-06-09T02:47:16+00:00	2020-06-08T19:47:16-07:00	2020-06-09T03:13:26+00:00	2020-06-10T06:59:59+00:00	-1	j2zsw7wwd47lmqm@marketplace.amazon.com	Julian	+1 346-307-9643 ext. 59845	ABR0022	Arabella Farm Direct Bouquet of 12 Fresh Cut Pink Roses with a Free Glass Vase	1	0	1	SecondDay	Julian Jasinski	2098 SHADY POND DR			LAKE WYLIE	SC	29710-7080	US		Happy Birthday! I miss you.  Love Julian!!	false		
112-6961643-1452231	13953584741050	2020-06-09T02:49:44+00:00	2020-06-08T19:49:44-07:00	2020-06-09T03:14:17+00:00	2020-06-10T06:59:59+00:00	-1	cxprt9ymm33cl8l@marketplace.amazon.com	Zan Huang	+1 346-307-9643 ext. 58995	ABM010	Arabella Bouquets | Fields of The World Bouquet of Fresh Cut Flowers in a Free Designer Glass Vase	1	0	1	SecondDay	Shannon Murphy	48 SCHOLL DR			SOUTH FARMINGDALE	NY	11735-3113	US		Dear Ms Murphy,  Thanks for a wonderful year! Aaron and we will miss you! From Aaron Huang and Family	false		
114-3944961-8210658	06090662769530	2020-06-09T03:21:24+00:00	2020-06-08T20:21:24-07:00	2020-06-09T03:41:29+00:00	2020-06-10T06:59:59+00:00	-1	j2zsw7wwd47lmqm@marketplace.amazon.com	Julian	+1 210-728-4548 ext. 18711	ABR001	Arabella Bouquets 12 Stems of Fresh Cut Red Roses in a Free Designer Glass Vase	1	0	1	SecondDay	Julian Jasinski	2098 SHADY POND DR			LAKE WYLIE	SC	29710-7080	US		Wszyskiego najlepszego duzo zdrowia z okazji urodzin zyczy kockajacy Zdzich do szybkiego zobaczenia!	false		
114-2902243-1806648	12650497146090	2020-06-09T03:26:34+00:00	2020-06-08T20:26:34-07:00	2020-06-09T03:45:07+00:00	2020-06-10T06:59:59+00:00	-1	vrk424jx41w2dqh@marketplace.amazon.com	a gehringer	+1 346-307-9643 ext. 40887	ABR0022	Arabella Farm Direct Bouquet of 12 Fresh Cut Pink Roses with a Free Glass Vase	1	0	1	SecondDay	Diane Rapposelli	3512 FARRAGUT AVE			KENSINGTON	MD	20895-2132	US		Happy Belated Birthday Diane! I hope you had a great day. Can't wait for things to go back to normal so we can go out to dinner and celebrate!  xo annie	false		
114-0620222-8861856	14971387424282	2020-06-09T04:20:05+00:00	2020-06-08T21:20:05-07:00	2020-06-09T04:33:17+00:00	2020-06-10T06:59:59+00:00	-1	rq4v944l512h1mr@marketplace.amazon.com	Johnroylong	+1 210-728-4548 ext. 46430	ABM010	Arabella Bouquets | Fields of The World Bouquet of Fresh Cut Flowers in a Free Designer Glass Vase	1	0	1	SecondDay	Jessica long	76 AZALEA DR			SMYRNA	DE	19977-5277	US		Enjoy your gift! To a great daughter. A great mother.I love you.I could not be any prouder. Hope you feel better.Love Dad. From Johnroylong	false		
112-9584595-4446658	33189539454026	2020-06-09T04:12:51+00:00	2020-06-08T21:12:51-07:00	2020-06-09T04:40:43+00:00	2020-06-10T06:59:59+00:00	-1	jwh26ylhwq0v4fx@marketplace.amazon.com	Lyle kirkpatrick	+1 346-307-9643 ext. 81925	ABR0022	Arabella Farm Direct Bouquet of 12 Fresh Cut Pink Roses with a Free Glass Vase	1	0	1	SecondDay	E.F. Barrow	162 SPENCER DR			SILVERTON	OR	97381-1975	US			false		
114-6677748-4682648	31109694538026	2020-06-09T04:57:21+00:00	2020-06-08T21:57:21-07:00	2020-06-09T05:24:20+00:00	2020-06-10T06:59:59+00:00	-1	tygq129wtwmnx5j@marketplace.amazon.com	Amy Martinez-Wright	+1 314-282-9402 ext. 37031	ABR0022	Arabella Farm Direct Bouquet of 12 Fresh Cut Pink Roses with a Free Glass Vase	1	0	1	SecondDay	Barbara A. Brown	1024 FORD BLVD			LINCOLN PARK	MICHIGAN	48146-4225	US			false		
113-9621413-4493068	55009566974746	2020-06-09T05:03:36+00:00	2020-06-08T22:03:36-07:00	2020-06-09T05:31:47+00:00	2020-06-10T06:59:59+00:00	-1	f9zpkxm9fbsh3gy@marketplace.amazon.com	Florence	+1 346-307-9643 ext. 92378	ABM002	Arabella Bouquets Fresh Cut White Calla Lilies in a Free Designer Glass Vase	1	0	1	SecondDay	Cara Townsend	101 PERCUSSION RD			WILLIAMSBURG	VA	23185-5341	US		Because you are so good to so many! God bless you for all you do! Enjoy your gift! From Mom & Dad	false		
113-9441766-8393048	27726208447226	2020-06-09T05:08:20+00:00	2020-06-08T22:08:20-07:00	2020-06-09T05:37:40+00:00	2020-06-10T06:59:59+00:00	-1	bdvxls0yc25t0z2@marketplace.amazon.com	Tyler Nofzinger	+1 346-307-9643 ext. 53855	ABR0022	Arabella Farm Direct Bouquet of 12 Fresh Cut Pink Roses with a Free Glass Vase	1	0	1	SecondDay	Shonda Nofzinger	17645 WOODHAVEN DR			COLORADO SPRINGS	CO	80908-1383	US		Happy Birthday! From Tyler	false		
112-6164707-8304242	40677984502898	2020-06-09T05:42:39+00:00	2020-06-08T22:42:39-07:00	2020-06-09T06:10:55+00:00	2020-06-10T06:59:59+00:00	-1	4tlgx2vqbz7mb2t@marketplace.amazon.com	Caroline Raftopol	+1 346-307-9643 ext. 37643	ABR0022	Arabella Farm Direct Bouquet of 12 Fresh Cut Pink Roses with a Free Glass Vase	1	0	1	SecondDay	Caroline Raftopol	85 SOUTHFIELD RD			MOUNT VERNON	NY	10552-1352	US			false		
113-0473490-1660208	66607258162226	2020-06-09T07:24:23+00:00	2020-06-09T00:24:23-07:00	2020-06-09T07:52:01+00:00	2020-06-10T06:59:59+00:00	-1	zl5w5wqwlmvj0n9@marketplace.amazon.com	Chante Graham	+1 346-307-9643 ext. 94911	ABM010	Arabella Bouquets | Fields of The World Bouquet of Fresh Cut Flowers in a Free Designer Glass Vase	1	0	1	SecondDay	Jacquline Barwick	1056 SW COUNTY ROAD O			CHILHOWEE	MO	64733-9209	US		Hi Jacquline, Thank you for the generous graduation gift! I am so very excited and also humbled that you chose to "adopt" me. I hope these flowers make your day as your gift made mine.  - Best regards, Chante Graham	false		
112-8341190-1349810	05907978315458	2020-06-09T08:24:43+00:00	2020-06-09T01:24:43-07:00	2020-06-09T08:50:39+00:00	2020-06-10T06:59:59+00:00	-1	kysbjp05xthkf22@marketplace.amazon.com	Jasmin	+1 346-307-9643 ext. 17415	ABR0033	Arabella Farm Direct Bouquet of 12 Fresh Cut Orange Roses with a Free Glass Vase	1	0	1	SecondDay	Daphne Bolotas	455 S MAPLE AVE APT 219			FALLS CHURCH	VA	22046-4268	US		Dear Daphne, Hope your arm gets better! Love, Jasmin Salous From Jasmin Salous	false		
112-7351327-9169845	11738380997506	2020-06-09T08:29:30+00:00	2020-06-09T01:29:30-07:00	2020-06-09T08:55:21+00:00	2020-06-13T06:59:59+00:00	-4	8yhhcx62grl6fnd@marketplace.amazon.com	Chris Lee	+1 346-307-9643 ext. 90269	ABR013	Arabella Farm Direct Bouquet of 18 Fresh Cut Yellow Roses with a Free Glass Vase	1	0	1	Standard	George & DeDe Snyder	2204 155TH ST NW			GIG HARBOR	WA	98332-9268	US		All our love dear friends for a very happy 50th wedding anniversary, Elaine & Chris xxxx	false		
114-9729665-2941029	29838274956682	2020-06-09T09:34:46+00:00	2020-06-09T02:34:46-07:00	2020-06-09T09:47:44+00:00	2020-06-10T06:59:59+00:00	-1	7mgknypq75f68v6@marketplace.amazon.com	Virgin watters	+1 346-307-9643 ext. 31206	ABR0033	Arabella Farm Direct Bouquet of 12 Fresh Cut Orange Roses with a Free Glass Vase	1	0	1	SecondDay	Dr. Anjanette Wells	1580 BLUE ROCK ST UNIT 402A			CINCINNATI	OH	45223-2745	US		CONGRATULATIONS!!!!  DR. ANJANETTE WELLS ON YOUR PROMOTION TO ASSOCIATE PROFESSOR I am so proud of you and we will have to celebrate soon.   Love always, Peaches Watters	false		
112-1925484-4865820	66965914415330	2020-06-09T09:20:22+00:00	2020-06-09T02:20:22-07:00	2020-06-09T09:50:17+00:00	2020-06-10T06:59:59+00:00	-1	nsn1ptj2qdrkt65@marketplace.amazon.com	Staci Mathura	+1 346-307-9643 ext. 44279	ABR0022	Arabella Farm Direct Bouquet of 12 Fresh Cut Pink Roses with a Free Glass Vase	1	0	1	SecondDay	Sahar Shahamatdar	595 ANGELL ST # 2			PROVIDENCE	RI	02906-5553	US		Happy Birthday, wishing you a wonderful day! From Sumana, Dan & Brucey From Staci Mathura	false		
113-5316997-2816269	46106316105762	2020-06-09T09:59:40+00:00	2020-06-09T02:59:40-07:00	2020-06-09T10:22:39+00:00	2020-06-10T06:59:59+00:00	-1	7zc4lgb0f222d4w@marketplace.amazon.com	Beverly Bergwyn	+1 346-307-9643 ext. 06826	ABR0022	Arabella Farm Direct Bouquet of 12 Fresh Cut Pink Roses with a Free Glass Vase	1	0	1	SecondDay	Marilyn La Roche	5000 LYDIANNA LN APT 307			SUITLAND	MD	20746-1285	US			false		
111-7286821-8973020	17223959543418	2020-06-09T10:41:12+00:00	2020-06-09T03:41:12-07:00	2020-06-09T11:01:52+00:00	2020-06-10T06:59:59+00:00	-1	8y9ztz0tzpg88h4@marketplace.amazon.com	Xavier Pichardo	+1 314-282-9402 ext. 11057	ABR0022	Arabella Farm Direct Bouquet of 12 Fresh Cut Pink Roses with a Free Glass Vase	1	0	1	SecondDay	Xavier Pichardo	2308 COLONIAL CT S			LEAGUE CITY	TX	77573-5015	US		Happy Birthday! I’m know this wasn’t exactly a surprise, but I hope you like the flowers anyway! From Xavier Pichardo	false		
112-9894245-1094613	53966866428130	2020-06-09T12:09:10+00:00	2020-06-09T05:09:10-07:00	2020-06-09T12:31:35+00:00	2020-06-10T06:59:59+00:00	-1	lr5kygr24gp8hl4@marketplace.amazon.com	David K Mossman	+1 346-307-9643 ext. 18589	ABR0022	Arabella Farm Direct Bouquet of 12 Fresh Cut Pink Roses with a Free Glass Vase	1	0	1	SecondDay	Diane Proud	135 YOCOM RD			DOUGLASSVILLE	PA	19518-9361	US		Happy Birthday!!  Welcome to senior citizen breakfasts!! Love, Nancy From Nancy Mossman	false		
112-7138804-2080208	23806812193130	2020-06-09T12:00:47+00:00	2020-06-09T05:00:47-07:00	2020-06-09T12:33:15+00:00	2020-06-10T06:59:59+00:00	-1	32g32420sfln88k@marketplace.amazon.com	Elizabeth Anderson	+1 314-282-9402 ext. 51399	ABR0022	Arabella Farm Direct Bouquet of 12 Fresh Cut Pink Roses with a Free Glass Vase	1	0	1	SecondDay	Elizabeth Anderson	8641 S FM 157			VENUS	TX	76084-3800	US			false		
113-3986684-9389800	14257584854106	2020-06-09T12:17:42+00:00	2020-06-09T05:17:42-07:00	2020-06-09T12:47:04+00:00	2020-06-10T06:59:59+00:00	-1	9jmgjbl0d5kbgtw@marketplace.amazon.com	Rachel Seghetto	+1 346-307-9643 ext. 72201	ABM010	Arabella Bouquets | Fields of The World Bouquet of Fresh Cut Flowers in a Free Designer Glass Vase	1	0	1	SecondDay	Janine Tardiff	43 W ELM AVE			QUINCY	MA	02170-2423	US		Janine, I am so sorry for the loss of your sister. Nothing will ever replace what you had but know that she was so lucky to have you. I love you!! From Rachel Seghetto	false		
112-0626104-3182640	31086003681002	2020-06-09T12:24:12+00:00	2020-06-09T05:24:12-07:00	2020-06-09T12:54:38+00:00	2020-06-10T06:59:59+00:00	-1	pt49sh1k0465423@marketplace.amazon.com	OKUNOLA	+1 346-307-9643 ext. 33340	ABR0022	Arabella Farm Direct Bouquet of 12 Fresh Cut Pink Roses with a Free Glass Vase	1	0	1	SecondDay	Kathy Baker	120 WELGE DR			CHESTER	IL	62233-2100	US			false		
111-2504100-5863446	09666071984018	2020-06-09T12:55:50+00:00	2020-06-09T05:55:50-07:00	2020-06-09T13:24:00+00:00	2020-06-10T06:59:59+00:00	-1	vds3pn77slbz3ps@marketplace.amazon.com	Fabienne Piccinni	+1 314-282-9402 ext. 12653	ABM010	Arabella Bouquets | Fields of The World Bouquet of Fresh Cut Flowers in a Free Designer Glass Vase	1	0	1	SecondDay	Rev. Robert Jackson	10627 S DUNMOOR DR			SILVER SPRING	MD	20901-1518	US		We wish you the most beautiful and happy birthday yet.  With much love,  Fabienne, Daniel, Sarah, and Alexa	false		
112-1442047-3644206	13088742823514	2020-06-09T13:17:14+00:00	2020-06-09T06:17:14-07:00	2020-06-09T13:45:52+00:00	2020-06-10T06:59:59+00:00	-1	6tq2qchcl0g8sw1@marketplace.amazon.com	Brett E Logan	+1 346-307-9643 ext. 47185	ABR0022	Arabella Farm Direct Bouquet of 12 Fresh Cut Pink Roses with a Free Glass Vase	1	0	1	SecondDay	Rose Hudgens	8700 RILEY DR APT 200			LITTLE ROCK	AR	72205-6533	US		Hi Grandma Rose, Enjoy your fresh roses! Thought this might brighten your quarantine days!!! We love you so much. Love, Brett and girls	false		
113-7175782-0769826	57390393384706	2020-06-09T13:23:55+00:00	2020-06-09T06:23:55-07:00	2020-06-09T13:48:10+00:00	2020-06-10T06:59:59+00:00	-1	vp7pnxwy6scbw3c@marketplace.amazon.com	Linda K Berkhof	+1 346-307-9643 ext. 16392	ABR0055	Arabella Farm Direct Bouquet of 12 Stems of Fresh Cut Hot Pink Roses in a Free Designer Glass Vase	1	0	1	SecondDay	Ron and Donna Berkhof	2301 SUNDANCE DR			GREAT FALLS	MT	59404-3446	US		Happy 50th Anniversary!  Best wishes for many more.  Congratulations.    Bob and Linda From Linda  and Bob Berkhof	false		
113-2375948-4386610	05671237336042	2020-06-09T13:20:47+00:00	2020-06-09T06:20:47-07:00	2020-06-09T13:50:03+00:00	2020-06-10T06:59:59+00:00	-1	3qqmd83v43qtq9g@marketplace.amazon.com	Xiaozhuan Hu	+1 314-282-9402 ext. 64831	ABR0022	Arabella Farm Direct Bouquet of 12 Fresh Cut Pink Roses with a Free Glass Vase	1	0	1	SecondDay	Ms Tian	950 REDWOOD SHORES PKWY UNIT L201			REDWOOD CITY	CA	94065-7409	US			false		
113-8943617-2288254	40876044168570	2020-06-09T13:36:59+00:00	2020-06-09T06:36:59-07:00	2020-06-09T13:59:26+00:00	2020-06-10T06:59:59+00:00	-1	h3hskg0dx0b5ygr@marketplace.amazon.com	Judy Huff	+1 210-728-4548 ext. 24006	ABM010	Arabella Bouquets | Fields of The World Bouquet of Fresh Cut Flowers in a Free Designer Glass Vase	1	0	1	SecondDay	Jays Murray	1273 NORTH AVE APT 3B2			NEW ROCHELLE	NY	10804-2760	US		Happy belated birthday From Judy Huff	false		
111-6786010-4585820	07700421114426	2020-06-09T13:49:14+00:00	2020-06-09T06:49:14-07:00	2020-06-09T14:14:53+00:00	2020-06-10T06:59:59+00:00	-1	07ykmhs0s4k8cgg@marketplace.amazon.com	Samantha McNamara	+1 346-307-9643 ext. 88228	ABM010	Arabella Bouquets | Fields of The World Bouquet of Fresh Cut Flowers in a Free Designer Glass Vase	1	0	1	SecondDay	Kristin Kraiza	259 BLOOMFIELD AVE			WINDSOR	CT	06095-2707	US		Happy 50th birthday Kristin! Much love, Sam From Samantha McNamara	false		
113-3297192-6723445	58556363233186	2020-06-09T14:02:32+00:00	2020-06-09T07:02:32-07:00	2020-06-09T14:32:18+00:00	2020-06-10T06:59:59+00:00	-1	gjfxsqy8rdf44qs@marketplace.amazon.com	Linda Miller	+1 346-307-9643 ext. 31805	ABM010	Arabella Bouquets | Fields of The World Bouquet of Fresh Cut Flowers in a Free Designer Glass Vase	1	0	1	SecondDay	Elaine Labach	426 WINDSONG LN			BAYFIELD	CO	81122-9683	US		Hi Elaine, Feel better soon. Love, Lin	false		
114-8579393-1485019	34739001477602	2020-06-09T14:08:34+00:00	2020-06-09T07:08:34-07:00	2020-06-09T14:39:09+00:00	2020-06-10T06:59:59+00:00	-1	hbfbsfkw7s1x2np@marketplace.amazon.com	Brandi Ogea	+1 346-307-9643 ext. 87645	ABM010	Arabella Bouquets | Fields of The World Bouquet of Fresh Cut Flowers in a Free Designer Glass Vase	1	0	1	SecondDay	Brandi Ogea	303 MORNINGSIDE DR			DUSON	LA	70529-3929	US			false		
114-1325415-1557009	61382912877474	2020-06-09T14:10:40+00:00	2020-06-09T07:10:40-07:00	2020-06-09T14:40:58+00:00	2020-06-10T06:59:59+00:00	-1	dxjztsvj815dh62@marketplace.amazon.com	Fiona Lovell-Horning	+1 346-307-9643 ext. 96381	ABR0022	Arabella Farm Direct Bouquet of 12 Fresh Cut Pink Roses with a Free Glass Vase	1	0	1	SecondDay	Diane Popovich	96 ASHUMET RD			EAST FALMOUTH	MA	02536-4219	US			false		
114-8294683-5750662	56758739869730	2020-06-09T14:15:00+00:00	2020-06-09T07:15:00-07:00	2020-06-09T14:43:12+00:00	2020-06-10T06:59:59+00:00	-1	14xv3gtyt1ftm3x@marketplace.amazon.com	charles carlson	+1 314-282-9402 ext. 66833	ABR0022	Arabella Farm Direct Bouquet of 12 Fresh Cut Pink Roses with a Free Glass Vase	1	0	1	SecondDay	Melissa young	201 VALLEY OAK DR			DRIPPING SPRINGS	TX	78620-3395	US			false		
113-2517105-4269002	20727009815178	2020-06-09T14:34:31+00:00	2020-06-09T07:34:31-07:00	2020-06-09T15:04:42+00:00	2020-06-10T06:59:59+00:00	-1	d01bd9f9t3795t3@marketplace.amazon.com	Anita Li	+1 314-282-9402 ext. 68727	ABR0022	Arabella Farm Direct Bouquet of 12 Fresh Cut Pink Roses with a Free Glass Vase	1	0	1	SecondDay	Jing Wei Li	3205 KENT DR			FLOWER MOUND	TX	75022-4979	US			false		
114-0157429-6676244	44489337449378	2020-06-09T15:13:14+00:00	2020-06-09T08:13:14-07:00	2020-06-09T15:27:11+00:00	2020-06-10T06:59:59+00:00	-1	zh66zhc0gnknjzd@marketplace.amazon.com	David Mazagatti	+1 346-307-9643 ext. 09582	ABR0022	Arabella Farm Direct Bouquet of 12 Fresh Cut Pink Roses with a Free Glass Vase	1	0	1	SecondDay	John Sullivan	5 PINE ST APT 3 DUDLEY MA			DUDLEY	MA	01571-3293	US		Hi John, I thank God everyday that I found you John. I hope you love my little presents. Enjoy your gift! From Your BabyGirl, Donna.	false		
112-5756239-0303443	69312761377434	2020-06-09T15:12:07+00:00	2020-06-09T08:12:07-07:00	2020-06-09T15:38:45+00:00	2020-06-10T06:59:59+00:00	-1	zpwjktf3pj2qk0p@marketplace.amazon.com	Andrew Jansen	+1 346-307-9643 ext. 73385	ABM010	Arabella Bouquets | Fields of The World Bouquet of Fresh Cut Flowers in a Free Designer Glass Vase	1	0	1	SecondDay	Susan Velk	9 CUTCHOGUE CT			RIDGE	NY	11961-1606	US		Happy Birthday Aunt Sue! We hope you have a great day! From Love, Andrew, Nicole & Matthew	false		
114-8003739-6493045	35553017354770	2020-06-09T15:29:32+00:00	2020-06-09T08:29:32-07:00	2020-06-09T15:56:58+00:00	2020-06-10T06:59:59+00:00	-1	d9cm0ccn4wbshyw@marketplace.amazon.com	ASHA	+1 314-282-9402 ext. 90190	ABR014	Arabella Bouquets 18 Stems of Fresh Cut White Roses in a Free Designer Glass Vase	1	0	1	SecondDay	Gauri Rajmane	23 TUTTLE AVE			CLARENDON HILLS	IL	60514-1153	US		With our love and prayers  Avtar/ Asha &Family	false		
113-1355389-3579467	43122731956450	2020-06-09T15:31:21+00:00	2020-06-09T08:31:21-07:00	2020-06-09T16:00:40+00:00	2020-06-10T06:59:59+00:00	-1	jlgp0c8mwt4lkg3@marketplace.amazon.com	Kyle Fulcher	+1 314-282-9402 ext. 29458	ABR0066	Arabella Bouquets | 12 Stems of Fresh Cut White Roses in a Free Designer Glass Vase	1	0	1	SecondDay	Laurane Baugh	24510 GRAND CENTRAL PKWY APT 7D			BELLEROSE	NY	11426-2705	US			false		
112-4674815-6145840	42490698511490	2020-06-09T15:34:59+00:00	2020-06-09T08:34:59-07:00	2020-06-09T16:03:39+00:00	2020-06-10T06:59:59+00:00	-1	8jhfns427ztym0k@marketplace.amazon.com	Dianne Sherer	+1 210-728-4548 ext. 78083	ABR011	Arabella Bouquets 18 Stems of Fresh Cut Red Roses in a Free Glass Vase	1	0	1	SecondDay	lona Smith	100ARPDC st.Apt.130			Hertford	NC	27944	US		Happy Birthday Mom we love you so much sorry delivered late Robin and Dianne a From Dianne Sherer	false		
114-2494345-4836231	14885424069282	2020-06-09T15:42:03+00:00	2020-06-09T08:42:03-07:00	2020-06-09T16:09:15+00:00	2020-06-10T06:59:59+00:00	-1	2j0njj2jx68bmkf@marketplace.amazon.com	David	+1 314-282-9402 ext. 09099	ABM010	Arabella Bouquets | Fields of The World Bouquet of Fresh Cut Flowers in a Free Designer Glass Vase	1	0	1	SecondDay	David R Scarberry	207 WATERWOOD DR			HUFFMAN	TX	77336-4247	US		To My Beautiful Wife Frances Happy Anniversary   I Love You David	false		
111-1446053-8249007	32671715263378	2020-06-09T15:55:11+00:00	2020-06-09T08:55:11-07:00	2020-06-09T16:24:20+00:00	2020-06-10T06:59:59+00:00	-1	1vr5g90byqywb4y@marketplace.amazon.com	stuart altus	+1 314-282-9402 ext. 06371	ABR0022	Arabella Farm Direct Bouquet of 12 Fresh Cut Pink Roses with a Free Glass Vase	1	0	1	SecondDay	Randy Hawkwey	1831 MADISON AVE APT 3H			NEW YORK	NY	10035-2751	US		Roses are must have item. From stuart altus	false		
114-2674674-9370661	61469520080858	2020-06-09T16:04:25+00:00	2020-06-09T09:04:25-07:00	2020-06-09T16:25:28+00:00	2020-06-10T06:59:59+00:00	-1	qwjlvww5371h4gc@marketplace.amazon.com	Kathleen McCafferty	+1 346-307-9643 ext. 77800	ABR0022	Arabella Farm Direct Bouquet of 12 Fresh Cut Pink Roses with a Free Glass Vase	1	0	1	SecondDay	Natalie Woltanski	801 BUTTERNUT TER			BOCA RATON	FL	33486-5518	US		Hi Natalie, HAPPY 90th BIRTHDAY!!! Hope you have a blast!!! From Kathy, Susan, Chris & Sue	false		
111-6729994-9018655	18328340980306	2020-06-09T16:09:15+00:00	2020-06-09T09:09:15-07:00	2020-06-09T16:37:01+00:00	2020-06-10T06:59:59+00:00	-1	4x0kclhfbcjvgsr@marketplace.amazon.com	William M France Jr	+1 314-282-9402 ext. 37930	ABR0055	Arabella Farm Direct Bouquet of 12 Stems of Fresh Cut Hot Pink Roses in a Free Designer Glass Vase	1	0	1	SecondDay	Kim France	MOSS CREEK 3 LOBLOLLY LN			HILTON HEAD ISLAND	SC	29926-1021	US		Happy Anniversary Kim! Love, Bill From William M France Jr	false		
114-5427110-2552214	26287072255410	2020-06-09T16:30:39+00:00	2020-06-09T09:30:39-07:00	2020-06-09T16:57:33+00:00	2020-06-10T06:59:59+00:00	-1	f0zpwmqnjb5d61s@marketplace.amazon.com	ben frankel	+1 314-282-9402 ext. 76159	ABR0022	Arabella Farm Direct Bouquet of 12 Fresh Cut Pink Roses with a Free Glass Vase	1	0	1	SecondDay	Ben Frankel	631 W WALNUT ST NEAR SHEARER			NORTH WALES	PA	19454-2648	US		Dear Birdie, Have a lovely birthday. Maybe we'll all be on Zoom. Smell the roses. Love, Ben	false		
113-8417079-7826633	35311740563426	2020-06-09T16:45:58+00:00	2020-06-09T09:45:58-07:00	2020-06-09T17:14:59+00:00	2020-06-10T06:59:59+00:00	-1	kqyq84lb8w0cfwg@marketplace.amazon.com	Melissa J. Kotkowski	+1 346-307-9643 ext. 24989	ABM010	Arabella Bouquets | Fields of The World Bouquet of Fresh Cut Flowers in a Free Designer Glass Vase	1	0	1	SecondDay	Carolyn Vanderbloemen	807 COLONY PL UNIT D			SUNSET BEACH	NC	28468-4644	US		Happy Birthday!  Love,  Missy, Rita, & Douglas From Melissa J. Kotkowski	false		
111-7110491-6641025	46603901090714	2020-06-09T16:48:49+00:00	2020-06-09T09:48:49-07:00	2020-06-09T17:18:01+00:00	2020-06-10T06:59:59+00:00	-1	8v0jpt042cwqlqb@marketplace.amazon.com	Jeff	+1 314-282-9402 ext. 92965	ABR012	Arabella Farm Direct Bouquet of 18 Fresh Cut Pink Roses with a Free Glass Vase	1	0	1	SecondDay	Stephanie Balchan	5814 PIERCE ST			HOLLYWOOD	FL	33021-6247	US		Happy 80th Birthday Mom.  We miss you and pray that God gives you many more years of health and strength.   Love from ALL of your children.	false		
113-8289063-3836247	50569733305018	2020-06-09T16:57:34+00:00	2020-06-09T09:57:34-07:00	2020-06-09T17:25:14+00:00	2020-06-10T06:59:59+00:00	-1	j63kg9sx18p1vx0@marketplace.amazon.com	dan kainen	+1 210-728-4548 ext. 75932	ABR0022	Arabella Farm Direct Bouquet of 12 Fresh Cut Pink Roses with a Free Glass Vase	1	0	1	SecondDay	Errol and Leslie Stabiner	39 E 12TH ST APT 807			NEW YORK	NY	10003-4621	US			false		
111-0134443-9700264	57511150395074	2020-06-09T12:31:19+00:00	2020-06-09T05:31:19-07:00	2020-06-09T17:25:50+00:00	2020-06-11T06:59:59+00:00	-2	f8xrcm7qbzr33hz@marketplace.amazon.com	don leavelle	+1 314-282-9402 ext. 63753	ABM010	Arabella Bouquets | Fields of The World Bouquet of Fresh Cut Flowers in a Free Designer Glass Vase	1	0	1	SecondDay	C j Mansfield	7875 S LINDEN LN			PARMA	OH	44130-7708	US			false		
113-3684996-5132235	32256451813930	2020-06-09T17:15:26+00:00	2020-06-09T10:15:26-07:00	2020-06-09T17:31:49+00:00	2020-06-11T06:59:59+00:00	-2	h3fl13ybjfvny6l@marketplace.amazon.com	Paul Lee	+1 210-728-4548 ext. 64657	ABR0022	Arabella Farm Direct Bouquet of 12 Fresh Cut Pink Roses with a Free Glass Vase	1	0	1	SecondDay	Mrs. Ko	2829 MARICOPA ST			TORRANCE	CA	90503-5146	US		Dear Bryan & Janet Umma:  We wanted to send some flowers to celebrate finishing chemo. We thank God the cancer was detected early and treatment was possible. We will pray for your full recovery.  Love, Lena	false		
111-0372442-3709041	30892240083874	2020-06-09T17:12:34+00:00	2020-06-09T10:12:34-07:00	2020-06-09T17:36:53+00:00	2020-06-11T06:59:59+00:00	-2	brdlx4l4smllh09@marketplace.amazon.com	James Blankenship	+1 346-307-9643 ext. 70447	ABR001	Arabella Bouquets 12 Stems of Fresh Cut Red Roses in a Free Designer Glass Vase	1	0	1	SecondDay	James Blankenship	7656 BEEBALM CT			DEXTER	MI	48130-9336	US			false		
111-0395482-3513863	05228720491562	2020-06-09T17:22:39+00:00	2020-06-09T10:22:39-07:00	2020-06-09T17:49:48+00:00	2020-06-11T06:59:59+00:00	-2	jjk0gbnnc1vsplx@marketplace.amazon.com	Heather Juster	+1 346-307-9643 ext. 24364	ABM010	Arabella Bouquets | Fields of The World Bouquet of Fresh Cut Flowers in a Free Designer Glass Vase	1	0	1	SecondDay	Cathryn Boera	107 S MAIN ST			PEARL RIVER	NY	10965-2431	US		Happy Birthday my beautiful friend!  I hope this year brings you more happiness and joy than the last!  You are amazing and we are so lucky you are in our lives.  We love you! From The Ghantous Family	false		
113-6449151-9462663	52526995874282	2020-06-09T17:34:06+00:00	2020-06-09T10:34:06-07:00	2020-06-09T18:12:54+00:00	2020-06-13T06:59:59+00:00	-4	fh0kz8bv9whrhl3@marketplace.amazon.com	Tyler	+1 314-282-9402 ext. 61325	ABR001	Arabella Bouquets 12 Stems of Fresh Cut Red Roses in a Free Designer Glass Vase	1	0	1	Expedited	Christiana Lynn Underwood	1349 N 40 E Orem, UT 84057	1349 N 40 E Orem, UT 84057		Orem	Utah	84057	US			false		
113-4974995-0159466	19926417698162	2020-06-09T17:52:11+00:00	2020-06-09T10:52:11-07:00	2020-06-09T18:17:08+00:00	2020-06-13T06:59:59+00:00	-4	9w3tbpfd3z87pc8@marketplace.amazon.com	Wayne	+1 314-282-9402 ext. 29117	ABM010	Arabella Bouquets | Fields of The World Bouquet of Fresh Cut Flowers in a Free Designer Glass Vase	1	0	1	Expedited	Joyce Anderson	180 JESSICA LYNN LN			ROSEBURG	OR	97471-9864	US		Happy June with hugs, enjoy. From Wayne	false		
114-0626005-4469827	10892451522514	2020-06-09T17:51:20+00:00	2020-06-09T10:51:20-07:00	2020-06-09T18:21:19+00:00	2020-06-13T06:59:59+00:00	-4	nq6k449t61ssmxv@marketplace.amazon.com	Michelle M Curry	+1 210-728-4548 ext. 45985	ABR0055	Arabella Farm Direct Bouquet of 12 Stems of Fresh Cut Hot Pink Roses in a Free Designer Glass Vase	1	0	1	Expedited	Michelle M. Curry	837 Avonia Road			Fairview	PA	16415	US			false		
114-0175548-5572253	25997839469106	2020-06-09T18:38:13+00:00	2020-06-09T11:38:13-07:00	2020-06-09T19:02:15+00:00	2020-06-11T06:59:59+00:00	-2	27bwz1qwjnfgj69@marketplace.amazon.com	HU	+1 346-307-9643 ext. 13091	ABM010	Arabella Bouquets | Fields of The World Bouquet of Fresh Cut Flowers in a Free Designer Glass Vase	1	0	1	SecondDay	ZHENING YUAN	2150 VALENCIA DR APT101			NORTHBROOK	IL	60062-7068	US		"I can do all things through him who strengthens me". [PHILIPPIANS 4:13] God Bless You, my friend! From HU PINGHPING	false		
112-6300201-6052210	70247039307666	2020-06-09T18:34:45+00:00	2020-06-09T11:34:45-07:00	2020-06-09T19:03:47+00:00	2020-06-11T06:59:59+00:00	-2	81yhtx0xdksnyj4@marketplace.amazon.com	Julie	+1 210-728-4548 ext. 50370	ABR0022	Arabella Farm Direct Bouquet of 12 Fresh Cut Pink Roses with a Free Glass Vase	1	0	1	SecondDay	Julie K. Brown	5061 Marion Avenue			Cypress	CA	90630	US		Hi Grandma, Happy birthday. We love you❤️ From Julie and Tim	false		
112-8179952-9511407	00739119090210	2020-06-09T18:48:20+00:00	2020-06-09T11:48:20-07:00	2020-06-09T19:17:40+00:00	2020-06-11T06:59:59+00:00	-2	vfx70sb4jkc83x1@marketplace.amazon.com	Bea Puccinelli	+1 210-728-4548 ext. 85939	ABR0033	Arabella Farm Direct Bouquet of 12 Fresh Cut Orange Roses with a Free Glass Vase	1	0	1	SecondDay	Mary Spiegel	1625 GENEVA DR			WHEELING	IL	60090-6745	US			false		
111-3418406-2939466	28117984902098	2020-06-09T18:51:31+00:00	2020-06-09T11:51:31-07:00	2020-06-09T19:22:04+00:00	2020-06-11T06:59:59+00:00	-2	9bpt56njjnfrprm@marketplace.amazon.com	Jose	+1 346-307-9643 ext. 88117	ABR0022	Arabella Farm Direct Bouquet of 12 Fresh Cut Pink Roses with a Free Glass Vase	1	0	1	SecondDay	Jose H. Santiago	14720 MACNEIL ST			MISSION HILLS	CA	91345-1721	US			false		
111-4485956-5057837	66131080043002	2020-06-09T18:54:18+00:00	2020-06-09T11:54:18-07:00	2020-06-09T19:23:14+00:00	2020-06-11T06:59:59+00:00	-2	s6lfnhclptsk948@marketplace.amazon.com	jalen	+1 346-307-9643 ext. 99694	ABR0022	Arabella Farm Direct Bouquet of 12 Fresh Cut Pink Roses with a Free Glass Vase	1	0	1	SecondDay	jalen mordica	3090 REX RIDGE XING			REX	GA	30273-5247	US			false		
112-9026374-5305829	57075563231370	2020-06-09T18:55:36+00:00	2020-06-09T11:55:36-07:00	2020-06-09T19:23:49+00:00	2020-06-11T06:59:59+00:00	-2	9gwykqqmzlhnc8q@marketplace.amazon.com	denise kern	+1 346-307-9643 ext. 25318	ABM010	Arabella Bouquets | Fields of The World Bouquet of Fresh Cut Flowers in a Free Designer Glass Vase	1	0	1	SecondDay	Wendy  Miessler	8 ELNOR RD			BUMPASS	VA	23024-4744	US		Hi Wendy, Just Breathe .... Love, Denise	true		
113-2528953-3267436	13188435303810	2020-06-09T18:47:36+00:00	2020-06-09T11:47:36-07:00	2020-06-09T19:25:57+00:00	2020-06-11T06:59:59+00:00	-2	z3zswk5sn8l63hp@marketplace.amazon.com	Craig Prewit	+1 314-282-9402 ext. 90338	ABM010	Arabella Bouquets | Fields of The World Bouquet of Fresh Cut Flowers in a Free Designer Glass Vase	1	0	1	SecondDay	Jesica D	1132 E COUNTRY CROSSING WAY			SAN TAN VALLEY	AZ	85143-6183	US		Enjoy your gift! From Craig Prewit	false		
111-1260240-2009028	32836842583314	2020-06-09T19:08:19+00:00	2020-06-09T12:08:19-07:00	2020-06-09T19:36:15+00:00	2020-06-11T06:59:59+00:00	-2	lbg36y7dlflhvv3@marketplace.amazon.com	Chris James	+1 210-728-4548 ext. 06548	ABR0066	Arabella Bouquets | 12 Stems of Fresh Cut White Roses in a Free Designer Glass Vase	1	0	1	SecondDay	Kristi Murtha	336 ABELINE DR			CLARKSVILLE	TN	37043-6385	US		Daddy will be home before you know it! Do something today that makes you smile.  We love you all.  Xoxo Chris, Cara, Mia, Gypsy & Gunner From Chris James	false		
112-8344082-6368233	56495823587746	2020-06-09T19:17:48+00:00	2020-06-09T12:17:48-07:00	2020-06-09T19:42:20+00:00	2020-06-11T06:59:59+00:00	-2	0yvcgbyztryk2dk@marketplace.amazon.com	Louise Henry	+1 210-728-4548 ext. 92477	ABM010	Arabella Bouquets | Fields of The World Bouquet of Fresh Cut Flowers in a Free Designer Glass Vase	1	0	1	SecondDay	Tricia Nealon	40746 N BOONE LN ANTHEM AZ 85086			ANTHEM	AZ	85086-2513	US		Tricia, We appreciate all of the work you do in your community. The guidance, counseling and comfort you offer to your clients will have both an immediate and long lasting effect on their lives. We salute you! Love you. From Dad & Louise Henry	false		
111-1818242-7749855	37034701253274	2020-06-09T19:13:55+00:00	2020-06-09T12:13:55-07:00	2020-06-09T19:42:26+00:00	2020-06-11T06:59:59+00:00	-2	hhy7c2hw9rv9p5c@marketplace.amazon.com	Michael LaBelle	+1 314-282-9402 ext. 66603	ABM0033	Arabella Farm Direct Bouquet of Fresh Cut White Hydrangea with a Free Glass Vase	1	0	1	SecondDay	Michael LaBelle	741 BIRCHWOOD AVE			TRAVERSE CITY	MI	49686-2063	US		Happy Birthday Mom - and Grandma! We wish we could be there to celebrate.  Thank you for being such a super mom (and grandma)! Love, Mike, Lilla and Max	false		
114-5759208-7047436	61009524804738	2020-06-09T19:20:49+00:00	2020-06-09T12:20:49-07:00	2020-06-09T19:42:34+00:00	2020-06-11T06:59:59+00:00	-2	p4mmfw1y7bbsxfn@marketplace.amazon.com	Carlos J Santiago	+1 314-282-9402 ext. 44789	ABM002	Arabella Bouquets Fresh Cut White Calla Lilies in a Free Designer Glass Vase	1	0	1	SecondDay	Ilia Rivera	216 ERMINE DR			NEW CASTLE	DE	19720-7692	US		Happy Birthday Ilia! Espero tengas un dia muy lindo junto a Kuki &  familia. De: Dali, Carlos, Immanuel & Snichel	false		
112-1143970-2065800	44694867714858	2020-06-09T19:27:11+00:00	2020-06-09T12:27:11-07:00	2020-06-09T19:57:32+00:00	2020-06-11T06:59:59+00:00	-2	sz04lhql73ksds6@marketplace.amazon.com	Marian Perron	+1 314-282-9402 ext. 99879	ABM010	Arabella Bouquets | Fields of The World Bouquet of Fresh Cut Flowers in a Free Designer Glass Vase	1	0	1	SecondDay	Graylin Lucas	2121 229TH AVE NE			SAMMAMISH	WA	98074-6539	US			false		
111-8090072-7657869	66701407655122	2020-06-09T19:40:35+00:00	2020-06-09T12:40:35-07:00	2020-06-09T20:08:03+00:00	2020-06-11T06:59:59+00:00	-2	8n2dj4lgnv17n5f@marketplace.amazon.com	Darlene E Martin	+1 314-282-9402 ext. 19018	ABR0055	Arabella Farm Direct Bouquet of 12 Stems of Fresh Cut Hot Pink Roses in a Free Designer Glass Vase	1	0	1	SecondDay	Dorothy Martin	1224 LAS BRISAS DR			PORT ORANGE	FL	32129-9141	US		Happy 95th Birthday Mom! Love, Brian and Darlene	false		
114-9820437-5268246	13454010522930	2020-06-09T19:47:02+00:00	2020-06-09T12:47:02-07:00	2020-06-09T20:13:09+00:00	2020-06-11T06:59:59+00:00	-2	tvdrcndq6zd1ny0@marketplace.amazon.com	Debra Rasouliyan	+1 210-728-4548 ext. 86913	ABR001	Arabella Bouquets 12 Stems of Fresh Cut Red Roses in a Free Designer Glass Vase	1	0	1	SecondDay	Antoinette Scarlett	3422 BELLS LANDING DR			REX	GA	30273-2260	US		We send our love and condolences to you and your family.  Love,  Deb and Jean-Marie	false		
113-7176015-3362612	43303133732842	2020-06-09T19:45:55+00:00	2020-06-09T12:45:55-07:00	2020-06-09T20:13:50+00:00	2020-06-11T06:59:59+00:00	-2	57v5qfvy3y0b91x@marketplace.amazon.com	Billy	+1 346-307-9643 ext. 24294	ABM010	Arabella Bouquets | Fields of The World Bouquet of Fresh Cut Flowers in a Free Designer Glass Vase	1	0	1	SecondDay	Elaine	352 ELI FORD RD			CROSSVILLE	TN	38571-1058	US		Have a great Birthday!! We love you!! From Billy and Terry	false		
114-1772907-2851406	46069782972426	2020-06-09T19:47:35+00:00	2020-06-09T12:47:35-07:00	2020-06-09T20:17:30+00:00	2020-06-11T06:59:59+00:00	-2	hkf3lj4476b28tw@marketplace.amazon.com	michael barbato	+1 314-282-9402 ext. 47864	ABM010	Arabella Bouquets | Fields of The World Bouquet of Fresh Cut Flowers in a Free Designer Glass Vase	1	0	1	SecondDay	Elizabeth Francis	255 PROMENADE ST APT 429A			PROVIDENCE	RI	02908-5746	US			false		
114-8357043-1597854	48507940777914	2020-06-09T19:52:34+00:00	2020-06-09T12:52:34-07:00	2020-06-09T20:23:16+00:00	2020-06-11T06:59:59+00:00	-2	2x4nkpfpxdp1sr6@marketplace.amazon.com	Nancy-Lynn Kidwell	+1 346-307-9643 ext. 92273	ABM0033	Arabella Farm Direct Bouquet of Fresh Cut White Hydrangea with a Free Glass Vase	1	0	1	SecondDay	Nancy Lynn Kidwell	32801 US HIGHWAY 441 N LOT 233			OKEECHOBEE	FLORIDA	34972-0295	US			false		
113-8214406-3188245	47718575615626	2020-06-09T19:59:52+00:00	2020-06-09T12:59:52-07:00	2020-06-09T20:27:37+00:00	2020-06-11T06:59:59+00:00	-2	mg99yl1l08k3ml3@marketplace.amazon.com	Cindy Lee	+1 314-282-9402 ext. 89054	ABM0033	Arabella Farm Direct Bouquet of Fresh Cut White Hydrangea with a Free Glass Vase	1	0	1	SecondDay	Maureen Eckert	421 SETTLERS LN			KURE BEACH	NC	28449-4836	US		Hi Maur, Sending some freshness to brighten your day.  Love ya From Cindy Lee	false		
112-6527871-2995444	57185841316770	2020-06-09T20:05:23+00:00	2020-06-09T13:05:23-07:00	2020-06-09T20:31:55+00:00	2020-06-11T06:59:59+00:00	-2	2980r771tgxvsy8@marketplace.amazon.com	rusty dargis	+1 346-307-9643 ext. 24902	ABR001	Arabella Bouquets 12 Stems of Fresh Cut Red Roses in a Free Designer Glass Vase	1	0	1	SecondDay	Bea Malisko	10 RUSSELL FARM DR			METHUEN	MA	01844-5868	US		Hope these brighten your day! Love, Rusty and Jan From rusty dargis	false		
111-5387598-6987412	44918174679650	2020-06-09T20:06:10+00:00	2020-06-09T13:06:10-07:00	2020-06-09T20:35:21+00:00	2020-06-11T06:59:59+00:00	-2	6vtbyfy0dzmbw11@marketplace.amazon.com	Michael	+1 314-282-9402 ext. 84255	ABM010	Arabella Bouquets | Fields of The World Bouquet of Fresh Cut Flowers in a Free Designer Glass Vase	1	0	1	SecondDay	Michele Gerstenfeld	4 KENDALL TER E			DANBURY	CT	06811-3949	US		Michele, have a wonderful birthday and we love you so much!  All our love,  Michael, Annie, & Gabriel	false		
113-0473519-8986616	69064521876690	2020-06-09T20:13:40+00:00	2020-06-09T13:13:40-07:00	2020-06-09T20:44:28+00:00	2020-06-11T06:59:59+00:00	-2	3jlt5z1ct5p1ypn@marketplace.amazon.com	Marcquis Threet	+1 314-282-9402 ext. 09409	ABR001	Arabella Bouquets 12 Stems of Fresh Cut Red Roses in a Free Designer Glass Vase	1	0	1	SecondDay	Marcquis J Threet	1351 SAPPHIRE DR APT 118			VIRGINIA BEACH	VA	23455-5565	US			false		
112-0213897-6381040	03145272553738	2020-06-09T20:25:16+00:00	2020-06-09T13:25:16-07:00	2020-06-09T20:50:04+00:00	2020-06-11T06:59:59+00:00	-2	7zhp6vm3rgvd67k@marketplace.amazon.com	craig kay	+1 314-282-9402 ext. 59810	ABR0022	Arabella Farm Direct Bouquet of 12 Fresh Cut Pink Roses with a Free Glass Vase	1	0	1	SecondDay	Jennifer Hoffman	509 IBERT ST			FRANKLIN	LA	70538-4821	US		We love you Jennifer!!!! From Alexandra and Sophia Kay	false		
111-1544691-6288229	50543742900690	2020-06-09T20:29:43+00:00	2020-06-09T13:29:43-07:00	2020-06-09T20:52:49+00:00	2020-06-11T06:59:59+00:00	-2	fqjjyz7c09gd1zc@marketplace.amazon.com	Neeta Narula	+1 346-307-9643 ext. 76036	ABR0055	Arabella Farm Direct Bouquet of 12 Stems of Fresh Cut Hot Pink Roses in a Free Designer Glass Vase	1	0	1	SecondDay	Nisha Pagan	2862 MAINWAY DR			LOS ALAMITOS	CA	90720-4641	US		DEAR Nisha, Enjoy your gift! From Neeta Narula	false		
