order-id	order-item-id	purchase-date	payments-date	reporting-date	promise-date	days-past-promise	buyer-email	buyer-name	buyer-phone-number	sku	product-name	quantity-purchased	quantity-shipped	quantity-to-ship	ship-service-level	recipient-name	ship-address-1	ship-address-2	ship-address-3	ship-city	ship-state	ship-postal-code	ship-country	gift-wrap-type	gift-message-text	is-business-order	purchase-order-number	price-designation
113-4849392-3270617	49181514223634	2020-06-08T13:36:16+00:00	2020-06-08T06:36:16-07:00	2020-06-08T14:04:56+00:00	2020-06-09T06:59:59+00:00	0	q4zdl82wzv3t55f@marketplace.amazon.com	Susan Conroy	+1 346-307-9643 ext. 67698	ABR012	Arabella Farm Direct Bouquet of 18 Fresh Cut Pink Roses with a Free Glass Vase	1	0	1	SecondDay	Mrs. William Sherk	9221 ALTA OAKS DR			DALLAS	TX	75243-6232	US			false		
113-2228853-6360227	47414939834218	2020-06-08T14:35:43+00:00	2020-06-08T07:35:43-07:00	2020-06-08T14:59:05+00:00	2020-06-12T06:59:59+00:00	-3	wwk0qph1n7dtfyg@marketplace.amazon.com	richard hynds	+1 346-307-9643 ext. 00885	ABR0022	Purchase Now for Delivery by Wednesday | Arabella Farm Direct Bouquet of 12 Fresh Cut Pink Roses with a Free Glass Vase	1	0	1	Expedited	Darla Waller	402 W Second St			Hale Center	TX	79041	US		Eugene Payne, Jr Congratulations on a Wonderful Grandson's Graduation. From Eugene Payne Jr	false		
113-3174213-4009840	29082830501714	2020-06-08T15:21:53+00:00	2020-06-08T08:21:53-07:00	2020-06-08T15:52:06+00:00	2020-06-09T06:59:59+00:00	0	lx9jfzdcslbz3dj@marketplace.amazon.com	Alan Altheim	+1 314-282-9402 ext. 93488	ABR012	Arabella Farm Direct Bouquet of 18 Fresh Cut Pink Roses with a Free Glass Vase	1	0	1	SecondDay	Alan altheim	405 PACING WAY			WESTBURY	NY	11590-6669	US			false		
113-9639115-9888257	06180172641306	2020-06-08T16:19:51+00:00	2020-06-08T09:19:51-07:00	2020-06-08T16:44:36+00:00	2020-06-12T06:59:59+00:00	-3	835ydp0jzkgs0v0@marketplace.amazon.com	Michael J OLeary	+1 314-282-9402 ext. 42719	ABR0022	Purchase Now for Delivery by Thursday | Arabella Farm Direct Bouquet of 12 Fresh Cut Pink Roses with a Free Glass Vase	1	0	1	Expedited	Mrs Eileen Best Wishes Frain	16 LAKEVIEW DR			CHESTER	NY	10918-2204	US		Dear Eileen,  Wishing you a most Joyous  & Blessed Birthday,  May it be  filled with Renewed  Faith, Hope , Love, Health & all That's  Good from Above ... Love Always, Mike & Patsy O'Leary From Mike & Patsy	false		
111-9918588-3190604	02489005725762	2020-06-08T16:35:21+00:00	2020-06-08T09:35:21-07:00	2020-06-08T16:50:13+00:00	2020-06-12T06:59:59+00:00	-3	mywv5vtrhk649w0@marketplace.amazon.com	David	+1 210-728-4548 ext. 11359	ABR0022	Purchase Now for Delivery by Thursday | Arabella Farm Direct Bouquet of 12 Fresh Cut Pink Roses with a Free Glass Vase	1	0	1	Expedited	Sunaiina Batra	1281 9TH AVE UNIT 1007			SAN DIEGO	CA	92101-4651	US		A little something to make you being back home feel like home again. Enjoy hun From David	false		
114-2151550-0797808	28026169060802	2020-06-08T17:08:59+00:00	2020-06-08T10:08:59-07:00	2020-06-08T17:37:43+00:00	2020-06-10T06:59:59+00:00	-1	6v6sb9x84j0dbh5@marketplace.amazon.com	Wendy Kolopsky	+1 210-728-4548 ext. 22601	ABR012	Arabella Farm Direct Bouquet of 18 Fresh Cut Pink Roses with a Free Glass Vase	1	0	1	SecondDay	Ruth Kolopsky	3500 MYSTIC POINTE DR APT 1708			AVENTURA	FL	33180-2582	US			false		
114-5363142-9790634	30281795894706	2020-06-08T17:54:52+00:00	2020-06-08T10:54:52-07:00	2020-06-08T18:13:13+00:00	2020-06-12T06:59:59+00:00	-3	zyhtwtflf2cb1vv@marketplace.amazon.com	Kate Nasser	+1 346-307-9643 ext. 32457	ABR0022	Purchase Now for Delivery by Thursday | Arabella Farm Direct Bouquet of 12 Fresh Cut Pink Roses with a Free Glass Vase	1	0	1	Expedited	Elizabeth Lutch	11 EVERGREEN LN			HAMPSTEAD	NC	28443-3587	US		Congratulations on little Victoria Rose! We are so happy for you guys! Enjoy every moment! Love you! From The Nasser's	false		
111-7145672-5745050	65153622591170	2020-06-08T17:52:38+00:00	2020-06-08T10:52:38-07:00	2020-06-08T18:22:57+00:00	2020-06-12T06:59:59+00:00	-3	5654j2t0xs7hgyv@marketplace.amazon.com	Daniel Russ	+1 346-307-9643 ext. 44785	ABR001	Purchase Now for Delivery by Thursday | Arabella Bouquets 12 Stems of Fresh Cut Red Roses in a Free Designer Glass Vase	1	0	1	Expedited	Daniel Russ	7056 SUBIC CIR APT C			FORT STEWART	GA	31315-5843	US			false		
114-4126631-4093830	31106030322002	2020-06-08T18:11:56+00:00	2020-06-08T11:11:56-07:00	2020-06-08T18:41:33+00:00	2020-06-12T06:59:59+00:00	-3	4w3mrnk85318kkx@marketplace.amazon.com	Rick	+1 314-282-9402 ext. 46649	ABM010	Purchase Now for Delivery by Thursday | Arabella Bouquets | Fields of The World Bouquet of Fresh Cut Flowers in a Free Designer Glass Vase	1	0	1	Expedited	Richard syx	6180 CYPRESS AVE			WINTON	CA	95388-9547	US			false		
111-6506509-8037833	24355773171234	2020-06-08T18:13:22+00:00	2020-06-08T11:13:22-07:00	2020-06-08T18:42:11+00:00	2020-06-12T06:59:59+00:00	-3	2p9sfzsnlp9tnn3@marketplace.amazon.com	Gloria Kim	+1 314-282-9402 ext. 15373	ABR0022	Purchase Now for Delivery by Thursday | Arabella Farm Direct Bouquet of 12 Fresh Cut Pink Roses with a Free Glass Vase	1	0	1	Expedited	Bohyun Kim	777 TENNESSEE ST APT 505			SAN FRANCISCO	CA	94107-3031	US		Congratulations on your interview! We wish you the best of luck in the rest of your journey! Love Family From Gloria Kim	false		
113-4988241-0053002	21512470273122	2020-06-08T18:19:11+00:00	2020-06-08T11:19:11-07:00	2020-06-08T18:47:02+00:00	2020-06-12T06:59:59+00:00	-3	y6mlqgp429vd5x0@marketplace.amazon.com	Joanne Haas	+1 346-307-9643 ext. 05930	ABR004	Arabella Farm Direct Bouquet of 12 Fresh Cut Yellow Roses with a Free Glass Vase	1	0	1	Standard	Berna Russell	6508 OCEANVIEW DR			CARLSBAD	CA	92011-1018	US		Hi Berna, Happy Birthday. Enjoy your roses. Wish I were with you. Love, Joanne	false		
111-1848134-4225012	04324561471890	2020-06-08T18:02:20+00:00	2020-06-08T11:02:20-07:00	2020-06-08T18:50:08+00:00	2020-06-12T06:59:59+00:00	-3	zk8ln6y3q6wqp23@marketplace.amazon.com	Frank	+1 210-728-4548 ext. 55340	ABR0022	Purchase Now for Delivery by Thursday | Arabella Farm Direct Bouquet of 12 Fresh Cut Pink Roses with a Free Glass Vase	1	0	1	Expedited	Jacky Chow	925 GULL AVE			FOSTER CITY	CA	94404-1429	US		I want you to know that since the day we met I've fallen deeply in love with you. There are no words to express the gratitude I feel in my heart that you came into my life, and how you make every day so lovely for me. Love u. From Chia Wei	false		
113-9495101-0111404	47437960067698	2020-06-08T18:55:26+00:00	2020-06-08T11:55:26-07:00	2020-06-08T19:24:27+00:00	2020-06-12T06:59:59+00:00	-3	1lnyqk6l9nprbv1@marketplace.amazon.com	Aaron Brehmer	+1 210-728-4548 ext. 91565	ABM010	Purchase Now for Delivery by Thursday | Arabella Bouquets | Fields of The World Bouquet of Fresh Cut Flowers in a Free Designer Glass Vase	1	0	1	Expedited	Aaron Brehmer	325 TROLLINGER ST			RANDLEMAN	NC	27317-1443	US			false		
111-0025917-9149071	27017340493114	2020-06-08T18:56:30+00:00	2020-06-08T11:56:30-07:00	2020-06-08T19:25:02+00:00	2020-06-12T06:59:59+00:00	-3	m3hrrq3j2b1z60r@marketplace.amazon.com	Darelle	+1 210-728-4548 ext. 77512	ABR0022	Purchase Now for Delivery by Thursday | Arabella Farm Direct Bouquet of 12 Fresh Cut Pink Roses with a Free Glass Vase	1	0	1	Expedited	Janee Merritt	3301 DEER ST APT 2A			WOODRIDGE	IL	60517-3207	US		I miss you From Darelle	false		
114-9583287-4769816	08202519608834	2020-06-08T19:47:47+00:00	2020-06-08T12:47:47-07:00	2020-06-08T20:15:33+00:00	2020-06-12T06:59:59+00:00	-3	z6c7sdx2cr6fb2w@marketplace.amazon.com	Stephen M Wolf	+1 210-728-4548 ext. 10318	ABM010	Purchase Now for Delivery by Thursday | Arabella Bouquets | Fields of The World Bouquet of Fresh Cut Flowers in a Free Designer Glass Vase	1	0	1	Expedited	Joan Graywood	201 SKYLARK WAY			NAPA	CA	94558-6319	US		Happy Birthday Aunt Joanie! Enjoy yuor special day.  Your Loving Niece , Lynn From Lynn & Steve Wolf	false		
111-1921698-6796232	64236669985746	2020-06-08T19:45:44+00:00	2020-06-08T12:45:44-07:00	2020-06-08T20:16:06+00:00	2020-06-12T06:59:59+00:00	-3	c83nkhdxr6s724k@marketplace.amazon.com	Lauren holcomb	+1 314-282-9402 ext. 05841	ABR0022	Purchase Now for Delivery by Thursday | Arabella Farm Direct Bouquet of 12 Fresh Cut Pink Roses with a Free Glass Vase	1	0	1	Expedited	Celeste Tonella	6575 DAWNHILL RD			BARTLETT	TN	38135-1583	US			false		
111-9963010-2021030	36441222726546	2020-06-08T19:53:26+00:00	2020-06-08T12:53:26-07:00	2020-06-08T20:16:08+00:00	2020-06-12T06:59:59+00:00	-3	yd24nbnqttlqyy5@marketplace.amazon.com	kathy Rheinhart	+1 346-307-9643 ext. 86748	ABR0055	Purchase Now for Delivery by Thursday | Arabella Farm Direct Bouquet of 12 Stems of Fresh Cut Hot Pink Roses in a Free Designer Glass Vase	1	0	1	Expedited	Betty O Brien	204 DEERFIELD DR			GREER	SC	29650-4404	US		We love our Betty! Happy Birthday...and blessings in the coming year ❤️ From Dave and Kathy Rheinhart	false		
111-5572198-9413030	65061171999074	2020-06-08T20:02:14+00:00	2020-06-08T13:02:14-07:00	2020-06-08T20:22:26+00:00	2020-06-12T06:59:59+00:00	-3	hc5ymjf79mg6p18@marketplace.amazon.com	Cleo C. Noriega	+1 314-282-9402 ext. 86606	ABR0022	Purchase Now for Delivery by Thursday | Arabella Farm Direct Bouquet of 12 Fresh Cut Pink Roses with a Free Glass Vase	1	0	1	Expedited	Breanna Dizon	2391 TOYON WAY			SAN BRUNO	CA	94066-1937	US		Dear Bre, You are free from the clutches of STM and I would use all my three wishes to be there and celebrate with you. Heck I would use them to graduate with you! I miss you and love you so much.  Love you, Kat	false		
111-2885466-6814663	02227111230122	2020-06-08T20:23:12+00:00	2020-06-08T13:23:12-07:00	2020-06-08T20:53:21+00:00	2020-06-12T06:59:59+00:00	-3	d2nggy2q774b0yj@marketplace.amazon.com	Matthew Stoutenburg	+1 346-307-9643 ext. 76119	ABR001	Purchase Now for Delivery by Thursday | Arabella Bouquets 12 Stems of Fresh Cut Red Roses in a Free Designer Glass Vase	1	0	1	Expedited	Matthew C Stoutenburg	130 Michigan Hollow Rd			Spencer	New York	14883	US			false		
113-4391854-8469846	29129293884850	2020-06-08T20:31:25+00:00	2020-06-08T13:31:25-07:00	2020-06-08T21:02:01+00:00	2020-06-10T06:59:59+00:00	-1	1vcf03r8p19krgg@marketplace.amazon.com	alonzo	+1 210-728-4548 ext. 92940	ABR0022	Purchase Now for Delivery by Thursday | Arabella Farm Direct Bouquet of 12 Fresh Cut Pink Roses with a Free Glass Vase	1	0	1	SecondDay	Alonzo Anderson	3401 E WEST HWY APT 167			HYATTSVILLE	MD	20782-2359	US			false		
111-7670674-0541828	43813014668514	2020-06-08T20:50:02+00:00	2020-06-08T13:50:02-07:00	2020-06-08T21:05:04+00:00	2020-06-10T06:59:59+00:00	-1	6zgjrdxrj1jnld6@marketplace.amazon.com	BRADY H. LONSDALE	+1 210-728-4548 ext. 63710	ABR0066	Purchase Now for Delivery by Thursday | Arabella Bouquets | 12 Stems of Fresh Cut White Roses in a Free Designer Glass Vase	1	0	1	SecondDay	Taylor Lonsdale	2501 54TH ST			SACRAMENTO	CA	95817-1632	US		Congratulations Yay-Yay!  I love you and miss you. Love, Jaxon From Jaxon	false		
114-0097077-5672243	01485016705730	2020-06-08T21:05:59+00:00	2020-06-08T14:05:59-07:00	2020-06-08T21:32:29+00:00	2020-06-10T06:59:59+00:00	-1	qkt8bdkj705tyg8@marketplace.amazon.com	Yonglin Jiang	+1 346-307-9643 ext. 88803	ABR001	Purchase Now for Delivery by Thursday | Arabella Bouquets 12 Stems of Fresh Cut Red Roses in a Free Designer Glass Vase	1	0	1	SecondDay	Yonglin Jiang	121 CLAMAR AVE			HAVERTOWN	PA	19083-4907	US			false		
111-0659872-0516216	59281659645962	2020-06-08T21:17:58+00:00	2020-06-08T14:17:58-07:00	2020-06-08T21:45:31+00:00	2020-06-10T06:59:59+00:00	-1	tfgj0ychjq0l374@marketplace.amazon.com	TONY LEE JOLLY	+1 210-728-4548 ext. 12114	ABR0022	Purchase Now for Delivery by Thursday | Arabella Farm Direct Bouquet of 12 Fresh Cut Pink Roses with a Free Glass Vase	1	0	1	SecondDay	Mechelle Jolly	539 WILLARD AVE			POCATELLO	ID	83201-4505	US		Hope you feel better soon, see you soon (-:	false		
114-9989821-1469803	00805648641250	2020-06-08T21:31:41+00:00	2020-06-08T14:31:41-07:00	2020-06-08T22:00:22+00:00	2020-06-10T06:59:59+00:00	-1	mdh112y4rs0pm9w@marketplace.amazon.com	William Campbell	+1 346-307-9643 ext. 51303	ABR001	Purchase Now for Delivery by Thursday | Arabella Bouquets 12 Stems of Fresh Cut Red Roses in a Free Designer Glass Vase	1	0	1	SecondDay	Mandy Campbell	2533 KINNERSLEY LN			COLLEGE STATION	TX	77845-1207	US			false		
111-1417288-6681017	05309710298330	2020-06-08T21:44:42+00:00	2020-06-08T14:44:42-07:00	2020-06-08T22:11:00+00:00	2020-06-10T06:59:59+00:00	-1	c60wm5qjjwr69d9@marketplace.amazon.com	Steve Ek	+1 314-282-9402 ext. 56055	ABB011	Arabella Bouquets 24 Stems of Fresh Cut Hot Pink Roses in a Free Designer Glass Vase	1	0	1	SecondDay	Rose Colella	35309 KINSKY WAY			FALLBROOK	CA	92028-6511	US		Thinking of you and what a great Aunt and Godmother you were to me. When we come to CA we will come visit you.  Happy Birthday, Val From Valerie Votta Ek	false		
111-9569044-8160219	04279372623410	2020-06-08T22:01:41+00:00	2020-06-08T15:01:41-07:00	2020-06-08T22:18:05+00:00	2020-06-12T06:59:59+00:00	-3	rpln2brp6b50xzd@marketplace.amazon.com	Patricia Ison	+1 210-728-4548 ext. 12960	ABSR003	Arabella Bouquets Fresh Cut Yellow Spray Roses in a Free Designer Glass Vase	1	0	1	Standard	Barbara Tyson	11 STERLING PL			MILLVILLE	NJ	08332-4681	US			false		
114-7369699-2089040	70056687250130	2020-06-08T21:56:09+00:00	2020-06-08T14:56:09-07:00	2020-06-08T22:23:56+00:00	2020-06-10T06:59:59+00:00	-1	mx06dtz45f9wgz8@marketplace.amazon.com	Steven Valentic	+1 314-282-9402 ext. 37197	ABM010	Purchase Now for Delivery by Thursday | Arabella Bouquets | Fields of The World Bouquet of Fresh Cut Flowers in a Free Designer Glass Vase	1	0	1	SecondDay	The Einemann family	25 2ND ST			LYNBROOK	NY	11563-4113	US		Thank you for the beautiful cabana. We can’t wait to make summer memories there. From Steve and Christine	false		
114-1581267-1707400	20915012565738	2020-06-08T22:05:54+00:00	2020-06-08T15:05:54-07:00	2020-06-08T22:29:54+00:00	2020-06-10T06:59:59+00:00	-1	f0wmlcx50vz4l9d@marketplace.amazon.com	Tonya Sweet	+1 210-728-4548 ext. 62040	ABM010	Purchase Now for Delivery by Thursday | Arabella Bouquets | Fields of The World Bouquet of Fresh Cut Flowers in a Free Designer Glass Vase	1	0	1	SecondDay	Amy and Josh Newfield	CROUSE HOSPITAL LABOR AND DELIVERY	736 IRVING AVE		SYRACUSE	NY	13210-1687	US		Hi, Congratulations on little Benjamin.  From the Fairfield family	false		
113-1346234-1123403	60117837897714	2020-06-08T22:19:17+00:00	2020-06-08T15:19:17-07:00	2020-06-08T22:41:20+00:00	2020-06-10T06:59:59+00:00	-1	31yv7pcxyvbd5tq@marketplace.amazon.com	lisa martinez	+1 346-307-9643 ext. 89159	ABM010	Purchase Now for Delivery by Thursday | Arabella Bouquets | Fields of The World Bouquet of Fresh Cut Flowers in a Free Designer Glass Vase	1	0	1	SecondDay	Vince Martinez	418 N 14TH ST			PHOENIX	AZ	85006-3503	US		Dad & Aunt Gin,  We love you and are here for you! Courtney, Teresa & Lisa	false		
114-4610011-2151440	60195163053194	2020-06-08T22:20:53+00:00	2020-06-08T15:20:53-07:00	2020-06-08T22:44:03+00:00	2020-06-10T06:59:59+00:00	-1	vwzc1nq61ztf6xt@marketplace.amazon.com	Louis G. Troilo	+1 314-282-9402 ext. 68209	ABM010	Purchase Now for Delivery by Thursday | Arabella Bouquets | Fields of The World Bouquet of Fresh Cut Flowers in a Free Designer Glass Vase	1	0	1	SecondDay	BETTY GRECO	10808 DAYFLOWER CT			RESTON	VA	20191-5110	US		HI BETTY,  BEST WISHES FOR A SPEEDY RECOVERY !!  LOVE,LOU	false		
112-2607178-0717828	66270426886058	2020-06-08T22:20:35+00:00	2020-06-08T15:20:35-07:00	2020-06-08T22:45:58+00:00	2020-06-10T06:59:59+00:00	-1	v1by9qp3yrsbbxf@marketplace.amazon.com	Nathalia Castro	+1 346-307-9643 ext. 90440	ABR012	Arabella Farm Direct Bouquet of 18 Fresh Cut Pink Roses with a Free Glass Vase	1	0	1	SecondDay	Dorka De La Cruz	3421 DEKALB AVE APT A2			BRONX	NY	10467-1952	US		Felicidades ma!! Que Dios te de muchos anos mas de vida y salud!  Te queremos mucho!!  Celenia y la siguita	false		
113-7163721-1240235	39422644446850	2020-06-08T22:29:18+00:00	2020-06-08T15:29:18-07:00	2020-06-08T22:56:52+00:00	2020-06-10T06:59:59+00:00	-1	x644lm1stj5txfl@marketplace.amazon.com	Susan Capellan	+1 346-307-9643 ext. 33572	ABR0022	Purchase Now for Delivery by Thursday | Arabella Farm Direct Bouquet of 12 Fresh Cut Pink Roses with a Free Glass Vase	1	0	1	SecondDay	Capellan-Steffke	13464 MORAINE RD			TRUCKEE	CA	96161-3839	US		Baby Bama  You and Baby Boo hang in there XO From Mama	false		
112-1160879-7177039	58398515165642	2020-06-08T22:34:49+00:00	2020-06-08T15:34:49-07:00	2020-06-08T23:03:59+00:00	2020-06-10T06:59:59+00:00	-1	1bf4g79hcd3g7x5@marketplace.amazon.com	vicki pasco	+1 210-728-4548 ext. 87637	ABM010	Purchase Now for Delivery by Thursday | Arabella Bouquets | Fields of The World Bouquet of Fresh Cut Flowers in a Free Designer Glass Vase	1	0	1	SecondDay	Heidi Smith	13730 COUNTY ROUTE 5			CLAYTON	NY	13624-2292	US		Get well soon! Healing thoughts and prayers. We miss you! From Vicki, Ann, Jenny	false		
114-4352304-4347410	36582248298386	2020-06-08T22:53:09+00:00	2020-06-08T15:53:09-07:00	2020-06-08T23:18:05+00:00	2020-06-10T06:59:59+00:00	-1	mdf0bp8j959p21z@marketplace.amazon.com	Susan Felber	+1 314-282-9402 ext. 08207	ABR0055	Purchase Now for Delivery by Thursday | Arabella Farm Direct Bouquet of 12 Stems of Fresh Cut Hot Pink Roses in a Free Designer Glass Vase	1	0	1	SecondDay	Judy Caldwell	1601 TROON DR			SALISBURY	NC	28144-8903	US			false		
113-5216017-1481062	35121073918698	2020-06-08T23:12:11+00:00	2020-06-08T16:12:11-07:00	2020-06-08T23:37:32+00:00	2020-06-10T06:59:59+00:00	-1	wx5l33zxzrmcrky@marketplace.amazon.com	Guanyu Zhu	+1 346-307-9643 ext. 18871	ABR0022	Purchase Now for Delivery by Thursday | Arabella Farm Direct Bouquet of 12 Fresh Cut Pink Roses with a Free Glass Vase	1	0	1	SecondDay	Lingqi Zhang	1220 TASMAN DR # 298			SUNNYVALE	CA	94089-2413	US		My love towards you never fades.   You are my ocean, my sky and my universe!  Please forgive me and let's re-unite!    Zhuzhu	false		
114-0402492-3024233	50702485134498	2020-06-08T23:10:15+00:00	2020-06-08T16:10:15-07:00	2020-06-08T23:38:12+00:00	2020-06-10T06:59:59+00:00	-1	5fcyg4fm7kmm8wx@marketplace.amazon.com	cindy swalby	+1 346-307-9643 ext. 45188	ABM010	Purchase Now for Delivery by Thursday | Arabella Bouquets | Fields of The World Bouquet of Fresh Cut Flowers in a Free Designer Glass Vase	1	0	1	SecondDay	Charissa Messer	347 HIGH RIDGE RD			CHADDS FORD	PA	19317-9157	US		Happy Birthday! We love you! From Terry and Cindy	false		
111-9184827-4184236	50288829941914	2020-06-08T23:11:25+00:00	2020-06-08T16:11:25-07:00	2020-06-08T23:38:26+00:00	2020-06-10T06:59:59+00:00	-1	cfpqwt1zymg2wvf@marketplace.amazon.com	Kathalee Lowry	+1 346-307-9643 ext. 02948	ABM010	Purchase Now for Delivery by Thursday | Arabella Bouquets | Fields of The World Bouquet of Fresh Cut Flowers in a Free Designer Glass Vase	1	0	1	SecondDay	Michelle Lenz	9829 SPRING LAKE DR			CLERMONT	FL	34711-7988	US		Happy Birthday to our wonderful daughter From Dad & Mom	false		
114-1933898-1105847	07170650597474	2020-06-08T23:19:50+00:00	2020-06-08T16:19:50-07:00	2020-06-08T23:50:20+00:00	2020-06-10T06:59:59+00:00	-1	4f0xy1ljf8hcw4x@marketplace.amazon.com	Dan Menow	+1 210-728-4548 ext. 69812	ABR0022	Purchase Now for Delivery by Thursday | Arabella Farm Direct Bouquet of 12 Fresh Cut Pink Roses with a Free Glass Vase	1	0	1	SecondDay	Daniel Menow	4803 Howell Street			Philadelphia	Pennsylvania	19135	US			false		
112-6212803-7364221	60833733647722	2020-06-08T23:43:29+00:00	2020-06-08T16:43:29-07:00	2020-06-08T23:51:46+00:00	2020-06-10T06:59:59+00:00	-1	twfn88jvvgh4nr0@marketplace.amazon.com	emily hoang	+1 314-282-9402 ext. 53383	ABR0033	Purchase Now for Delivery by Thursday | Arabella Farm Direct Bouquet of 12 Fresh Cut Orange Roses with a Free Glass Vase	1	0	1	SecondDay	James and Constance Camner	6207 SUMMERTIME LN			CULVER CITY	CA	90230-4578	US		Hello to the both of you! It is has been a long time (I met you both at Leonora and Mark's home). I hope your day is brighter from these flowers as I know staying in isolated must be a bit dim feeling From Emily Hoang and Ryan Jacob	false		
113-3158222-5457055	48170446328322	2020-06-08T23:40:41+00:00	2020-06-08T16:40:41-07:00	2020-06-09T00:09:23+00:00	2020-06-10T06:59:59+00:00	-1	9gj262h4kvjqpct@marketplace.amazon.com	Robyn R. Hall	631-871-35101	ABR0022	Purchase Now for Delivery by Thursday | Arabella Farm Direct Bouquet of 12 Fresh Cut Pink Roses with a Free Glass Vase	1	0	1	SecondDay	Tracey Budd	10 KATIE CT			LAKE GROVE	NY	11755-2313	US		Grandma,  Thank you for taking the drive to get me.  Love Always, Meike From Robyn R. Hall	false		
113-9715755-1682643	40185382663306	2020-06-08T23:51:05+00:00	2020-06-08T16:51:05-07:00	2020-06-09T00:20:29+00:00	2020-06-10T06:59:59+00:00	-1	22bh5cypzqn0gpp@marketplace.amazon.com	Erika Wanamaker	+1 346-307-9643 ext. 54373	ABR0022	Purchase Now for Delivery by Thursday | Arabella Farm Direct Bouquet of 12 Fresh Cut Pink Roses with a Free Glass Vase	1	0	1	SecondDay	Kathy Bowler	11317 W MORELA DR			BOISE	ID	83709-7008	US		Happy Birthday Grandma!  I love you and hope you get to celebrate! Love, Erika From Erika Wanamaker	false		
114-9840370-6424207	45030578781274	2020-06-09T00:05:51+00:00	2020-06-08T17:05:51-07:00	2020-06-09T00:30:27+00:00	2020-06-10T06:59:59+00:00	-1	ltszl2h4bv4h5b2@marketplace.amazon.com	steven grant	+7086060878	ABR0022	Arabella Farm Direct Bouquet of 12 Fresh Cut Pink Roses with a Free Glass Vase	1	0	1	SecondDay	Victoria Grant	13577 PLUMBAGO DR			CENTREVILLE	VA	20120-2704	US			false		
112-0228983-9576208	42746164726954	2020-06-09T00:04:45+00:00	2020-06-08T17:04:45-07:00	2020-06-09T00:30:47+00:00	2020-06-10T06:59:59+00:00	-1	b1tc1t7b10nmhvq@marketplace.amazon.com	Juan Ramos	+1 314-282-9402 ext. 45410	ABR0066	Purchase Now for Delivery by Thursday | Arabella Bouquets | 12 Stems of Fresh Cut White Roses in a Free Designer Glass Vase	1	0	1	SecondDay	Angelina Alarcón	2004 EXMOOR CT			NAPERVILLE	IL	60565-2615	US		Feliz Cumpleanos Mami la mas hermosa madre del mundo. De Mari y Rafi	false		
111-5696833-1377856	64826560228226	2020-06-09T00:21:43+00:00	2020-06-08T17:21:43-07:00	2020-06-09T00:50:40+00:00	2020-06-10T06:59:59+00:00	-1	wvb4cl2rb7s61r9@marketplace.amazon.com	Rick	+1 210-728-4548 ext. 82871	ABR0055	Arabella Farm Direct Bouquet of 12 Stems of Fresh Cut Hot Pink Roses in a Free Designer Glass Vase	1	0	1	SecondDay	Patricia Manning	818 HILLCREST DR			LAGUNA BEACH	CA	92651-1437	US		Feliz dia dos namorados meu amor.  Amo voce muuuuuuuito! From Ricardo	false		
113-1709291-0965849	66512014060226	2020-06-09T00:25:35+00:00	2020-06-08T17:25:35-07:00	2020-06-09T00:54:34+00:00	2020-06-12T06:59:59+00:00	-3	yr6j3c7dpc44k7l@marketplace.amazon.com	N. W. Maltz	+1 346-307-9643 ext. 61243	ABR012	Arabella Farm Direct Bouquet of 18 Fresh Cut Pink Roses with a Free Glass Vase	1	0	1	Standard	Mrs. J. Eckert	865 CENTRAL AVE APT N 504			NEEDHAM	MA	02492-1393	US		Hello Aunt Nanette Thinking of you. Love  Nanette, Andrew, Lisa and Jonathan	false		
112-6708981-4837810	19050471949058	2020-06-09T00:46:06+00:00	2020-06-08T17:46:06-07:00	2020-06-09T01:01:32+00:00	2020-06-10T06:59:59+00:00	-1	791f3442lxcqzpl@marketplace.amazon.com	Michael Parks	+1 346-307-9643 ext. 74174	ABM010	Arabella Bouquets | Fields of The World Bouquet of Fresh Cut Flowers in a Free Designer Glass Vase	1	0	1	SecondDay	Eileen Ettinger	4532 E ROSEMONTE DR			PHOENIX	AZ	85050-3336	US		Happy Birthday, Eileen!  We hope you enjoy the flowers and have a lovely & special 60th birthday celebration this year!  We love you. Wishing you all our best.  Sincerely, Mimi & Michael	false		
113-8913024-7953015	02472370544378	2020-06-09T00:42:39+00:00	2020-06-08T17:42:39-07:00	2020-06-09T01:06:30+00:00	2020-06-10T06:59:59+00:00	-1	xrv4l4p32mjypk1@marketplace.amazon.com	V Snowdon	+1 346-307-9643 ext. 13976	ABR0022	Arabella Farm Direct Bouquet of 12 Fresh Cut Pink Roses with a Free Glass Vase	1	0	1	SecondDay	MRS. ANN BEADLING	OAKBRIDGE TERRACE BUILDING	3950 VILLAGE VIEW DR APT 229		GAINESVILLE	GA	30506-4364	US		DEAR MOM,  SO MANY GOOD TIMES SHARED. SO MUCH LOVE TOO. SO BLESSED TO HAVE A GREAT MOM. YOU KNOW I HAVE ALWAYS LOVED YOU AND ALWAYS WILL! BIG HUGS!  XOXO, BEA	false		
111-3517366-4965011	27178571835026	2020-06-09T00:43:07+00:00	2020-06-08T17:43:07-07:00	2020-06-09T01:13:43+00:00	2020-06-10T06:59:59+00:00	-1	wgc5vmlx6nqvcd4@marketplace.amazon.com	Warren Schultz	+1 210-728-4548 ext. 34769	ABR001	Arabella Bouquets 12 Stems of Fresh Cut Red Roses in a Free Designer Glass Vase	1	0	1	SecondDay	Susie  sexy wall	15122 RANIER AVE GULFPORT MS			GULFPORT	MS	39503-4454	US			false		
111-0973429-0132203	46099450754450	2020-06-09T01:20:05+00:00	2020-06-08T18:20:05-07:00	2020-06-09T01:47:21+00:00	2020-06-10T06:59:59+00:00	-1	m9ysbx5wdrwhd3m@marketplace.amazon.com	Danielle Muni	+1 314-282-9402 ext. 92410	ABM010	Arabella Bouquets | Fields of The World Bouquet of Fresh Cut Flowers in a Free Designer Glass Vase	1	0	1	SecondDay	The Scotto Family	1738 PASCAL PL			WALL TOWNSHIP	NJ	07719-3751	US		TO: The Scotto Family  We're sorry to hear about your loss. Your family is in our thoughts and prayers.  Hamilton Township C & I Departmenti	false		
112-3359808-3229017	63401118723226	2020-06-09T01:30:26+00:00	2020-06-08T18:30:26-07:00	2020-06-09T01:59:04+00:00	2020-06-10T06:59:59+00:00	-1	29vvqkxqm5k88r0@marketplace.amazon.com	Mark W. Harris	+1 314-282-9402 ext. 44857	ABM0033	Arabella Farm Direct Bouquet of Fresh Cut White Hydrangea with a Free Glass Vase	1	0	1	SecondDay	Mark Harris	203 BIRCH TREE LN			MICHIGAN CITY	IN	46360-1804	US		I Love You ! Mark	false		
113-9655758-4835443	12071072881706	2020-06-09T01:47:34+00:00	2020-06-08T18:47:34-07:00	2020-06-09T02:17:04+00:00	2020-06-10T06:59:59+00:00	-1	mn59rms10xyxf5h@marketplace.amazon.com	Timothy lind	+1 346-307-9643 ext. 81504	ABR0022	Arabella Farm Direct Bouquet of 12 Fresh Cut Pink Roses with a Free Glass Vase	1	0	1	SecondDay	Timothy Lind	1623 Bull Valley Drive			Woodstock	Illinois	60098	US		We love you mom! Happy birthday!!  From Karlyn, Theo, Mike, Tim, Jeff, and Stacy	false		
113-0039112-7320213	33652246168418	2020-06-09T02:04:11+00:00	2020-06-08T19:04:11-07:00	2020-06-09T02:33:09+00:00	2020-06-10T06:59:59+00:00	-1	9l2pybhq8z54qwx@marketplace.amazon.com	Sergio	+1 346-307-9643 ext. 14399	ABM010	Arabella Bouquets | Fields of The World Bouquet of Fresh Cut Flowers in a Free Designer Glass Vase	1	0	1	SecondDay	Laura Malchuck	2630 EXALL ST			FLOWER MOUND	TX	75022-4525	US		Feliz Cumple Nro 40!!!!   Ya casi estas llegando a los 50 :)  Te queremos muntunaso. Sabry, Ser y Nico	false		
111-0664591-4759460	25995821144866	2020-06-09T02:17:02+00:00	2020-06-08T19:17:02-07:00	2020-06-09T02:39:04+00:00	2020-06-10T06:59:59+00:00	-1	xx1gqyby4wjjbnw@marketplace.amazon.com	Douglas j peterson	+1 210-728-4548 ext. 22831	ABR0055	Arabella Farm Direct Bouquet of 12 Stems of Fresh Cut Hot Pink Roses in a Free Designer Glass Vase	1	0	1	SecondDay	Diana Estrella	2618 W GARY WAY			PHOENIX	AZ	85041-7643	US		Happy birthday Diana! Enjoy your gift! We Love you!! From Teresa and Doug Peterson	false		
111-5017334-1306628	08356151025490	2020-06-09T02:25:13+00:00	2020-06-08T19:25:13-07:00	2020-06-09T02:42:24+00:00	2020-06-10T06:59:59+00:00	-1	vn95v6mtvsb1l7w@marketplace.amazon.com	Jason	+1 346-307-9643 ext. 96921	ABM010	Arabella Bouquets | Fields of The World Bouquet of Fresh Cut Flowers in a Free Designer Glass Vase	1	0	1	SecondDay	Kathy Meade c/o Marisa Meade	2449 CHUKAR DR			WASHOE VALLEY	NV	89704-9039	US		Ms. Kathy,We are hoping and praying for a speedy recovery. We haven’t had a chance to meet you but we know you through Marisa.   Much love and kind regards. From Darlene Ann  April	false		
114-8759581-4052208	44156308406402	2020-06-09T02:45:37+00:00	2020-06-08T19:45:37-07:00	2020-06-09T02:53:43+00:00	2020-06-10T06:59:59+00:00	-1	1r0tzt5xlhfpkfx@marketplace.amazon.com	Dorothy M. Kay	+1 346-307-9643 ext. 32029	ABR0033	Arabella Farm Direct Bouquet of 12 Fresh Cut Orange Roses with a Free Glass Vase	1	0	1	SecondDay	Mr. & Mrs. Nick Romesser	4316 WATERVILLE AVE			WESLEY CHAPEL	FL	33543-7037	US		I can't thank you enough for the kindness and help you gave to Richard.  You made his recovery and comfort much speadier.  I look forward to meeting you soon.  Thank you again,  Dorothy From Dorothy M. Kay	false		
111-1392879-7425853	11566433759234	2020-06-09T02:32:21+00:00	2020-06-08T19:32:21-07:00	2020-06-09T03:01:34+00:00	2020-06-10T06:59:59+00:00	-1	g08g12vbj84fwpz@marketplace.amazon.com	Brian Buchanan	+1 346-307-9643 ext. 60071	ABR0022	Arabella Farm Direct Bouquet of 12 Fresh Cut Pink Roses with a Free Glass Vase	1	0	1	SecondDay	Beth Buchanan	818 GROMO CT			HEALDSBURG	CA	95448-3723	US		Happy birthday Mama Beth! We love you very much. Sofie, Brian, Anna and Niki dog From Brian Buchanan	false		
113-2108678-1137032	61171486188450	2020-06-09T02:42:05+00:00	2020-06-08T19:42:05-07:00	2020-06-09T03:03:52+00:00	2020-06-10T06:59:59+00:00	-1	mqhxx8by8gdw2mh@marketplace.amazon.com	Kenneth E. Riley II	+1 346-307-9643 ext. 26872	ABR001	Arabella Bouquets 12 Stems of Fresh Cut Red Roses in a Free Designer Glass Vase	1	0	1	SecondDay	Becki Riley	444 ALEX CT APT 816			CASTLE PINES	CO	80108-9339	US			false		
114-1473527-1414607	60116327853938	2020-06-09T02:47:16+00:00	2020-06-08T19:47:16-07:00	2020-06-09T03:13:26+00:00	2020-06-10T06:59:59+00:00	-1	j2zsw7wwd47lmqm@marketplace.amazon.com	Julian	+1 346-307-9643 ext. 59845	ABR0022	Arabella Farm Direct Bouquet of 12 Fresh Cut Pink Roses with a Free Glass Vase	1	0	1	SecondDay	Julian Jasinski	2098 SHADY POND DR			LAKE WYLIE	SC	29710-7080	US		Happy Birthday! I miss you.  Love Julian!!	false		
112-6961643-1452231	13953584741050	2020-06-09T02:49:44+00:00	2020-06-08T19:49:44-07:00	2020-06-09T03:14:17+00:00	2020-06-10T06:59:59+00:00	-1	cxprt9ymm33cl8l@marketplace.amazon.com	Zan Huang	+1 346-307-9643 ext. 58995	ABM010	Arabella Bouquets | Fields of The World Bouquet of Fresh Cut Flowers in a Free Designer Glass Vase	1	0	1	SecondDay	Shannon Murphy	48 SCHOLL DR			SOUTH FARMINGDALE	NY	11735-3113	US		Dear Ms Murphy,  Thanks for a wonderful year! Aaron and we will miss you! From Aaron Huang and Family	false		
114-3944961-8210658	06090662769530	2020-06-09T03:21:24+00:00	2020-06-08T20:21:24-07:00	2020-06-09T03:41:29+00:00	2020-06-10T06:59:59+00:00	-1	j2zsw7wwd47lmqm@marketplace.amazon.com	Julian	+1 210-728-4548 ext. 18711	ABR001	Arabella Bouquets 12 Stems of Fresh Cut Red Roses in a Free Designer Glass Vase	1	0	1	SecondDay	Julian Jasinski	2098 SHADY POND DR			LAKE WYLIE	SC	29710-7080	US		Wszyskiego najlepszego duzo zdrowia z okazji urodzin zyczy kockajacy Zdzich do szybkiego zobaczenia!	false		
114-2902243-1806648	12650497146090	2020-06-09T03:26:34+00:00	2020-06-08T20:26:34-07:00	2020-06-09T03:45:07+00:00	2020-06-10T06:59:59+00:00	-1	vrk424jx41w2dqh@marketplace.amazon.com	a gehringer	+1 346-307-9643 ext. 40887	ABR0022	Arabella Farm Direct Bouquet of 12 Fresh Cut Pink Roses with a Free Glass Vase	1	0	1	SecondDay	Diane Rapposelli	3512 FARRAGUT AVE			KENSINGTON	MD	20895-2132	US		Happy Belated Birthday Diane! I hope you had a great day. Can't wait for things to go back to normal so we can go out to dinner and celebrate!  xo annie	false		
114-0620222-8861856	14971387424282	2020-06-09T04:20:05+00:00	2020-06-08T21:20:05-07:00	2020-06-09T04:33:17+00:00	2020-06-10T06:59:59+00:00	-1	rq4v944l512h1mr@marketplace.amazon.com	Johnroylong	+1 210-728-4548 ext. 46430	ABM010	Arabella Bouquets | Fields of The World Bouquet of Fresh Cut Flowers in a Free Designer Glass Vase	1	0	1	SecondDay	Jessica long	76 AZALEA DR			SMYRNA	DE	19977-5277	US		Enjoy your gift! To a great daughter. A great mother.I love you.I could not be any prouder. Hope you feel better.Love Dad. From Johnroylong	false		
112-9584595-4446658	33189539454026	2020-06-09T04:12:51+00:00	2020-06-08T21:12:51-07:00	2020-06-09T04:40:43+00:00	2020-06-10T06:59:59+00:00	-1	jwh26ylhwq0v4fx@marketplace.amazon.com	Lyle kirkpatrick	+1 346-307-9643 ext. 81925	ABR0022	Arabella Farm Direct Bouquet of 12 Fresh Cut Pink Roses with a Free Glass Vase	1	0	1	SecondDay	E.F. Barrow	162 SPENCER DR			SILVERTON	OR	97381-1975	US			false		
114-6677748-4682648	31109694538026	2020-06-09T04:57:21+00:00	2020-06-08T21:57:21-07:00	2020-06-09T05:24:20+00:00	2020-06-10T06:59:59+00:00	-1	tygq129wtwmnx5j@marketplace.amazon.com	Amy Martinez-Wright	+1 314-282-9402 ext. 37031	ABR0022	Arabella Farm Direct Bouquet of 12 Fresh Cut Pink Roses with a Free Glass Vase	1	0	1	SecondDay	Barbara A. Brown	1024 FORD BLVD			LINCOLN PARK	MICHIGAN	48146-4225	US			false		
113-9621413-4493068	55009566974746	2020-06-09T05:03:36+00:00	2020-06-08T22:03:36-07:00	2020-06-09T05:31:47+00:00	2020-06-10T06:59:59+00:00	-1	f9zpkxm9fbsh3gy@marketplace.amazon.com	Florence	+1 346-307-9643 ext. 92378	ABM002	Arabella Bouquets Fresh Cut White Calla Lilies in a Free Designer Glass Vase	1	0	1	SecondDay	Cara Townsend	101 PERCUSSION RD			WILLIAMSBURG	VA	23185-5341	US		Because you are so good to so many! God bless you for all you do! Enjoy your gift! From Mom & Dad	false		
113-9441766-8393048	27726208447226	2020-06-09T05:08:20+00:00	2020-06-08T22:08:20-07:00	2020-06-09T05:37:40+00:00	2020-06-10T06:59:59+00:00	-1	bdvxls0yc25t0z2@marketplace.amazon.com	Tyler Nofzinger	+1 346-307-9643 ext. 53855	ABR0022	Arabella Farm Direct Bouquet of 12 Fresh Cut Pink Roses with a Free Glass Vase	1	0	1	SecondDay	Shonda Nofzinger	17645 WOODHAVEN DR			COLORADO SPRINGS	CO	80908-1383	US		Happy Birthday! From Tyler	false		
112-6164707-8304242	40677984502898	2020-06-09T05:42:39+00:00	2020-06-08T22:42:39-07:00	2020-06-09T06:10:55+00:00	2020-06-10T06:59:59+00:00	-1	4tlgx2vqbz7mb2t@marketplace.amazon.com	Caroline Raftopol	+1 346-307-9643 ext. 37643	ABR0022	Arabella Farm Direct Bouquet of 12 Fresh Cut Pink Roses with a Free Glass Vase	1	0	1	SecondDay	Caroline Raftopol	85 SOUTHFIELD RD			MOUNT VERNON	NY	10552-1352	US			false		
113-0473490-1660208	66607258162226	2020-06-09T07:24:23+00:00	2020-06-09T00:24:23-07:00	2020-06-09T07:52:01+00:00	2020-06-10T06:59:59+00:00	-1	zl5w5wqwlmvj0n9@marketplace.amazon.com	Chante Graham	+1 346-307-9643 ext. 94911	ABM010	Arabella Bouquets | Fields of The World Bouquet of Fresh Cut Flowers in a Free Designer Glass Vase	1	0	1	SecondDay	Jacquline Barwick	1056 SW COUNTY ROAD O			CHILHOWEE	MO	64733-9209	US		Hi Jacquline, Thank you for the generous graduation gift! I am so very excited and also humbled that you chose to "adopt" me. I hope these flowers make your day as your gift made mine.  - Best regards, Chante Graham	false		
112-8341190-1349810	05907978315458	2020-06-09T08:24:43+00:00	2020-06-09T01:24:43-07:00	2020-06-09T08:50:39+00:00	2020-06-10T06:59:59+00:00	-1	kysbjp05xthkf22@marketplace.amazon.com	Jasmin	+1 346-307-9643 ext. 17415	ABR0033	Arabella Farm Direct Bouquet of 12 Fresh Cut Orange Roses with a Free Glass Vase	1	0	1	SecondDay	Daphne Bolotas	455 S MAPLE AVE APT 219			FALLS CHURCH	VA	22046-4268	US		Dear Daphne, Hope your arm gets better! Love, Jasmin Salous From Jasmin Salous	false		
112-7351327-9169845	11738380997506	2020-06-09T08:29:30+00:00	2020-06-09T01:29:30-07:00	2020-06-09T08:55:21+00:00	2020-06-13T06:59:59+00:00	-4	8yhhcx62grl6fnd@marketplace.amazon.com	Chris Lee	+1 346-307-9643 ext. 90269	ABR013	Arabella Farm Direct Bouquet of 18 Fresh Cut Yellow Roses with a Free Glass Vase	1	0	1	Standard	George & DeDe Snyder	2204 155TH ST NW			GIG HARBOR	WA	98332-9268	US		All our love dear friends for a very happy 50th wedding anniversary, Elaine & Chris xxxx	false		
114-9729665-2941029	29838274956682	2020-06-09T09:34:46+00:00	2020-06-09T02:34:46-07:00	2020-06-09T09:47:44+00:00	2020-06-10T06:59:59+00:00	-1	7mgknypq75f68v6@marketplace.amazon.com	Virgin watters	+1 346-307-9643 ext. 31206	ABR0033	Arabella Farm Direct Bouquet of 12 Fresh Cut Orange Roses with a Free Glass Vase	1	0	1	SecondDay	Dr. Anjanette Wells	1580 BLUE ROCK ST UNIT 402A			CINCINNATI	OH	45223-2745	US		CONGRATULATIONS!!!!  DR. ANJANETTE WELLS ON YOUR PROMOTION TO ASSOCIATE PROFESSOR I am so proud of you and we will have to celebrate soon.   Love always, Peaches Watters	false		
112-1925484-4865820	66965914415330	2020-06-09T09:20:22+00:00	2020-06-09T02:20:22-07:00	2020-06-09T09:50:17+00:00	2020-06-10T06:59:59+00:00	-1	nsn1ptj2qdrkt65@marketplace.amazon.com	Staci Mathura	+1 346-307-9643 ext. 44279	ABR0022	Arabella Farm Direct Bouquet of 12 Fresh Cut Pink Roses with a Free Glass Vase	1	0	1	SecondDay	Sahar Shahamatdar	595 ANGELL ST # 2			PROVIDENCE	RI	02906-5553	US		Happy Birthday, wishing you a wonderful day! From Sumana, Dan & Brucey From Staci Mathura	false		
113-5316997-2816269	46106316105762	2020-06-09T09:59:40+00:00	2020-06-09T02:59:40-07:00	2020-06-09T10:22:39+00:00	2020-06-10T06:59:59+00:00	-1	7zc4lgb0f222d4w@marketplace.amazon.com	Beverly Bergwyn	+1 346-307-9643 ext. 06826	ABR0022	Arabella Farm Direct Bouquet of 12 Fresh Cut Pink Roses with a Free Glass Vase	1	0	1	SecondDay	Marilyn La Roche	5000 LYDIANNA LN APT 307			SUITLAND	MD	20746-1285	US			false		
111-7286821-8973020	17223959543418	2020-06-09T10:41:12+00:00	2020-06-09T03:41:12-07:00	2020-06-09T11:01:52+00:00	2020-06-10T06:59:59+00:00	-1	8y9ztz0tzpg88h4@marketplace.amazon.com	Xavier Pichardo	+1 314-282-9402 ext. 11057	ABR0022	Arabella Farm Direct Bouquet of 12 Fresh Cut Pink Roses with a Free Glass Vase	1	0	1	SecondDay	Xavier Pichardo	2308 COLONIAL CT S			LEAGUE CITY	TX	77573-5015	US		Happy Birthday! I’m know this wasn’t exactly a surprise, but I hope you like the flowers anyway! From Xavier Pichardo	false		
112-9894245-1094613	53966866428130	2020-06-09T12:09:10+00:00	2020-06-09T05:09:10-07:00	2020-06-09T12:31:35+00:00	2020-06-10T06:59:59+00:00	-1	lr5kygr24gp8hl4@marketplace.amazon.com	David K Mossman	+1 346-307-9643 ext. 18589	ABR0022	Arabella Farm Direct Bouquet of 12 Fresh Cut Pink Roses with a Free Glass Vase	1	0	1	SecondDay	Diane Proud	135 YOCOM RD			DOUGLASSVILLE	PA	19518-9361	US		Happy Birthday!!  Welcome to senior citizen breakfasts!! Love, Nancy From Nancy Mossman	false		
112-7138804-2080208	23806812193130	2020-06-09T12:00:47+00:00	2020-06-09T05:00:47-07:00	2020-06-09T12:33:15+00:00	2020-06-10T06:59:59+00:00	-1	32g32420sfln88k@marketplace.amazon.com	Elizabeth Anderson	+1 314-282-9402 ext. 51399	ABR0022	Arabella Farm Direct Bouquet of 12 Fresh Cut Pink Roses with a Free Glass Vase	1	0	1	SecondDay	Elizabeth Anderson	8641 S FM 157			VENUS	TX	76084-3800	US			false		
