order-id	order-item-id	purchase-date	payments-date	reporting-date	promise-date	days-past-promise	buyer-email	buyer-name	buyer-phone-number	sku	product-name	quantity-purchased	quantity-shipped	quantity-to-ship	ship-service-level	recipient-name	ship-address-1	ship-address-2	ship-address-3	ship-city	ship-state	ship-postal-code	ship-country	gift-wrap-type	gift-message-text	is-business-order	purchase-order-number	price-designation
113-6449151-9462663	52526995874282	2020-06-09T17:34:06+00:00	2020-06-09T10:34:06-07:00	2020-06-09T18:12:54+00:00	2020-06-13T06:59:59+00:00	-3	fh0kz8bv9whrhl3@marketplace.amazon.com	Tyler	+1 314-282-9402 ext. 61325	ABR001	Arabella Bouquets 12 Stems of Fresh Cut Red Roses in a Free Designer Glass Vase	1	0	1	Expedited	Christiana Lynn Underwood	1349 N 40 E Orem, UT 84057	1349 N 40 E Orem, UT 84057		Orem	Utah	84057	US			false		
113-4974995-0159466	19926417698162	2020-06-09T17:52:11+00:00	2020-06-09T10:52:11-07:00	2020-06-09T18:17:08+00:00	2020-06-13T06:59:59+00:00	-3	9w3tbpfd3z87pc8@marketplace.amazon.com	Wayne	+1 314-282-9402 ext. 29117	ABM010	Arabella Bouquets | Fields of The World Bouquet of Fresh Cut Flowers in a Free Designer Glass Vase	1	0	1	Expedited	Joyce Anderson	180 JESSICA LYNN LN			ROSEBURG	OR	97471-9864	US		Happy June with hugs, enjoy. From Wayne	false		
114-0626005-4469827	10892451522514	2020-06-09T17:51:20+00:00	2020-06-09T10:51:20-07:00	2020-06-09T18:21:19+00:00	2020-06-13T06:59:59+00:00	-3	nq6k449t61ssmxv@marketplace.amazon.com	Michelle M Curry	+1 210-728-4548 ext. 45985	ABR0055	Arabella Farm Direct Bouquet of 12 Stems of Fresh Cut Hot Pink Roses in a Free Designer Glass Vase	1	0	1	Expedited	Michelle M. Curry	837 Avonia Road			Fairview	PA	16415	US			false		
114-0175548-5572253	25997839469106	2020-06-09T18:38:13+00:00	2020-06-09T11:38:13-07:00	2020-06-09T19:02:15+00:00	2020-06-11T06:59:59+00:00	-1	27bwz1qwjnfgj69@marketplace.amazon.com	HU	+1 346-307-9643 ext. 13091	ABM010	Arabella Bouquets | Fields of The World Bouquet of Fresh Cut Flowers in a Free Designer Glass Vase	1	0	1	SecondDay	ZHENING YUAN	2150 VALENCIA DR APT101			NORTHBROOK	IL	60062-7068	US		"I can do all things through him who strengthens me". [PHILIPPIANS 4:13] God Bless You, my friend! From HU PINGHPING	false		
112-6300201-6052210	70247039307666	2020-06-09T18:34:45+00:00	2020-06-09T11:34:45-07:00	2020-06-09T19:03:47+00:00	2020-06-11T06:59:59+00:00	-1	81yhtx0xdksnyj4@marketplace.amazon.com	Julie	+1 210-728-4548 ext. 50370	ABR0022	Arabella Farm Direct Bouquet of 12 Fresh Cut Pink Roses with a Free Glass Vase	1	0	1	SecondDay	Julie K. Brown	5061 Marion Avenue			Cypress	CA	90630	US		Hi Grandma, Happy birthday. We love you❤️ From Julie and Tim	false		
112-8179952-9511407	00739119090210	2020-06-09T18:48:20+00:00	2020-06-09T11:48:20-07:00	2020-06-09T19:17:40+00:00	2020-06-11T06:59:59+00:00	-1	vfx70sb4jkc83x1@marketplace.amazon.com	Bea Puccinelli	+1 210-728-4548 ext. 85939	ABR0033	Arabella Farm Direct Bouquet of 12 Fresh Cut Orange Roses with a Free Glass Vase	1	0	1	SecondDay	Mary Spiegel	1625 GENEVA DR			WHEELING	IL	60090-6745	US			false		
111-3418406-2939466	28117984902098	2020-06-09T18:51:31+00:00	2020-06-09T11:51:31-07:00	2020-06-09T19:22:04+00:00	2020-06-11T06:59:59+00:00	-1	9bpt56njjnfrprm@marketplace.amazon.com	Jose	+1 346-307-9643 ext. 88117	ABR0022	Arabella Farm Direct Bouquet of 12 Fresh Cut Pink Roses with a Free Glass Vase	1	0	1	SecondDay	Jose H. Santiago	14720 MACNEIL ST			MISSION HILLS	CA	91345-1721	US			false		
112-9026374-5305829	57075563231370	2020-06-09T18:55:36+00:00	2020-06-09T11:55:36-07:00	2020-06-09T19:23:49+00:00	2020-06-11T06:59:59+00:00	-1	9gwykqqmzlhnc8q@marketplace.amazon.com	denise kern	+1 346-307-9643 ext. 25318	ABM010	Arabella Bouquets | Fields of The World Bouquet of Fresh Cut Flowers in a Free Designer Glass Vase	1	0	1	SecondDay	Wendy  Miessler	8 ELNOR RD			BUMPASS	VA	23024-4744	US		Hi Wendy, Just Breathe .... Love, Denise	true		
113-2528953-3267436	13188435303810	2020-06-09T18:47:36+00:00	2020-06-09T11:47:36-07:00	2020-06-09T19:25:57+00:00	2020-06-11T06:59:59+00:00	-1	z3zswk5sn8l63hp@marketplace.amazon.com	Craig Prewit	+1 314-282-9402 ext. 90338	ABM010	Arabella Bouquets | Fields of The World Bouquet of Fresh Cut Flowers in a Free Designer Glass Vase	1	0	1	SecondDay	Jesica D	1132 E COUNTRY CROSSING WAY			SAN TAN VALLEY	AZ	85143-6183	US		Enjoy your gift! From Craig Prewit	false		
111-1260240-2009028	32836842583314	2020-06-09T19:08:19+00:00	2020-06-09T12:08:19-07:00	2020-06-09T19:36:15+00:00	2020-06-11T06:59:59+00:00	-1	lbg36y7dlflhvv3@marketplace.amazon.com	Chris James	+1 210-728-4548 ext. 06548	ABR0066	Arabella Bouquets | 12 Stems of Fresh Cut White Roses in a Free Designer Glass Vase	1	0	1	SecondDay	Kristi Murtha	336 ABELINE DR			CLARKSVILLE	TN	37043-6385	US		Daddy will be home before you know it! Do something today that makes you smile.  We love you all.  Xoxo Chris, Cara, Mia, Gypsy & Gunner From Chris James	false		
112-8344082-6368233	56495823587746	2020-06-09T19:17:48+00:00	2020-06-09T12:17:48-07:00	2020-06-09T19:42:20+00:00	2020-06-11T06:59:59+00:00	-1	0yvcgbyztryk2dk@marketplace.amazon.com	Louise Henry	+1 210-728-4548 ext. 92477	ABM010	Arabella Bouquets | Fields of The World Bouquet of Fresh Cut Flowers in a Free Designer Glass Vase	1	0	1	SecondDay	Tricia Nealon	40746 N BOONE LN ANTHEM AZ 85086			ANTHEM	AZ	85086-2513	US		Tricia, We appreciate all of the work you do in your community. The guidance, counseling and comfort you offer to your clients will have both an immediate and long lasting effect on their lives. We salute you! Love you. From Dad & Louise Henry	false		
111-1818242-7749855	37034701253274	2020-06-09T19:13:55+00:00	2020-06-09T12:13:55-07:00	2020-06-09T19:42:26+00:00	2020-06-11T06:59:59+00:00	-1	hhy7c2hw9rv9p5c@marketplace.amazon.com	Michael LaBelle	+1 314-282-9402 ext. 66603	ABM0033	Arabella Farm Direct Bouquet of Fresh Cut White Hydrangea with a Free Glass Vase	1	0	1	SecondDay	Michael LaBelle	741 BIRCHWOOD AVE			TRAVERSE CITY	MI	49686-2063	US		Happy Birthday Mom - and Grandma! We wish we could be there to celebrate.  Thank you for being such a super mom (and grandma)! Love, Mike, Lilla and Max	false		
114-5759208-7047436	61009524804738	2020-06-09T19:20:49+00:00	2020-06-09T12:20:49-07:00	2020-06-09T19:42:34+00:00	2020-06-11T06:59:59+00:00	-1	p4mmfw1y7bbsxfn@marketplace.amazon.com	Carlos J Santiago	+1 314-282-9402 ext. 44789	ABM002	Arabella Bouquets Fresh Cut White Calla Lilies in a Free Designer Glass Vase	1	0	1	SecondDay	Ilia Rivera	216 ERMINE DR			NEW CASTLE	DE	19720-7692	US		Happy Birthday Ilia! Espero tengas un dia muy lindo junto a Kuki &  familia. De: Dali, Carlos, Immanuel & Snichel	false		
112-1143970-2065800	44694867714858	2020-06-09T19:27:11+00:00	2020-06-09T12:27:11-07:00	2020-06-09T19:57:32+00:00	2020-06-11T06:59:59+00:00	-1	sz04lhql73ksds6@marketplace.amazon.com	Marian Perron	+1 314-282-9402 ext. 99879	ABM010	Arabella Bouquets | Fields of The World Bouquet of Fresh Cut Flowers in a Free Designer Glass Vase	1	0	1	SecondDay	Graylin Lucas	2121 229TH AVE NE			SAMMAMISH	WA	98074-6539	US			false		
111-8090072-7657869	66701407655122	2020-06-09T19:40:35+00:00	2020-06-09T12:40:35-07:00	2020-06-09T20:08:03+00:00	2020-06-11T06:59:59+00:00	-1	8n2dj4lgnv17n5f@marketplace.amazon.com	Darlene E Martin	+1 314-282-9402 ext. 19018	ABR0055	Arabella Farm Direct Bouquet of 12 Stems of Fresh Cut Hot Pink Roses in a Free Designer Glass Vase	1	0	1	SecondDay	Dorothy Martin	1224 LAS BRISAS DR			PORT ORANGE	FL	32129-9141	US		Happy 95th Birthday Mom! Love, Brian and Darlene	false		
114-9820437-5268246	13454010522930	2020-06-09T19:47:02+00:00	2020-06-09T12:47:02-07:00	2020-06-09T20:13:09+00:00	2020-06-11T06:59:59+00:00	-1	tvdrcndq6zd1ny0@marketplace.amazon.com	Debra Rasouliyan	+1 210-728-4548 ext. 86913	ABR001	Arabella Bouquets 12 Stems of Fresh Cut Red Roses in a Free Designer Glass Vase	1	0	1	SecondDay	Antoinette Scarlett	3422 BELLS LANDING DR			REX	GA	30273-2260	US		We send our love and condolences to you and your family.  Love,  Deb and Jean-Marie	false		
113-7176015-3362612	43303133732842	2020-06-09T19:45:55+00:00	2020-06-09T12:45:55-07:00	2020-06-09T20:13:50+00:00	2020-06-11T06:59:59+00:00	-1	57v5qfvy3y0b91x@marketplace.amazon.com	Billy	+1 346-307-9643 ext. 24294	ABM010	Arabella Bouquets | Fields of The World Bouquet of Fresh Cut Flowers in a Free Designer Glass Vase	1	0	1	SecondDay	Elaine	352 ELI FORD RD			CROSSVILLE	TN	38571-1058	US		Have a great Birthday!! We love you!! From Billy and Terry	false		
114-1772907-2851406	46069782972426	2020-06-09T19:47:35+00:00	2020-06-09T12:47:35-07:00	2020-06-09T20:17:30+00:00	2020-06-11T06:59:59+00:00	-1	hkf3lj4476b28tw@marketplace.amazon.com	michael barbato	+1 314-282-9402 ext. 47864	ABM010	Arabella Bouquets | Fields of The World Bouquet of Fresh Cut Flowers in a Free Designer Glass Vase	1	0	1	SecondDay	Elizabeth Francis	255 PROMENADE ST APT 429A			PROVIDENCE	RI	02908-5746	US			false		
114-8357043-1597854	48507940777914	2020-06-09T19:52:34+00:00	2020-06-09T12:52:34-07:00	2020-06-09T20:23:16+00:00	2020-06-11T06:59:59+00:00	-1	2x4nkpfpxdp1sr6@marketplace.amazon.com	Nancy-Lynn Kidwell	+1 346-307-9643 ext. 92273	ABM0033	Arabella Farm Direct Bouquet of Fresh Cut White Hydrangea with a Free Glass Vase	1	0	1	SecondDay	Nancy Lynn Kidwell	32801 US HIGHWAY 441 N LOT 233			OKEECHOBEE	FLORIDA	34972-0295	US			false		
113-8214406-3188245	47718575615626	2020-06-09T19:59:52+00:00	2020-06-09T12:59:52-07:00	2020-06-09T20:27:37+00:00	2020-06-11T06:59:59+00:00	-1	mg99yl1l08k3ml3@marketplace.amazon.com	Cindy Lee	+1 314-282-9402 ext. 89054	ABM0033	Arabella Farm Direct Bouquet of Fresh Cut White Hydrangea with a Free Glass Vase	1	0	1	SecondDay	Maureen Eckert	421 SETTLERS LN			KURE BEACH	NC	28449-4836	US		Hi Maur, Sending some freshness to brighten your day.  Love ya From Cindy Lee	false		
112-6527871-2995444	57185841316770	2020-06-09T20:05:23+00:00	2020-06-09T13:05:23-07:00	2020-06-09T20:31:55+00:00	2020-06-11T06:59:59+00:00	-1	2980r771tgxvsy8@marketplace.amazon.com	rusty dargis	+1 346-307-9643 ext. 24902	ABR001	Arabella Bouquets 12 Stems of Fresh Cut Red Roses in a Free Designer Glass Vase	1	0	1	SecondDay	Bea Malisko	10 RUSSELL FARM DR			METHUEN	MA	01844-5868	US		Hope these brighten your day! Love, Rusty and Jan From rusty dargis	false		
111-5387598-6987412	44918174679650	2020-06-09T20:06:10+00:00	2020-06-09T13:06:10-07:00	2020-06-09T20:35:21+00:00	2020-06-11T06:59:59+00:00	-1	6vtbyfy0dzmbw11@marketplace.amazon.com	Michael	+1 314-282-9402 ext. 84255	ABM010	Arabella Bouquets | Fields of The World Bouquet of Fresh Cut Flowers in a Free Designer Glass Vase	1	0	1	SecondDay	Michele Gerstenfeld	4 KENDALL TER E			DANBURY	CT	06811-3949	US		Michele, have a wonderful birthday and we love you so much!  All our love,  Michael, Annie, & Gabriel	false		
113-0473519-8986616	69064521876690	2020-06-09T20:13:40+00:00	2020-06-09T13:13:40-07:00	2020-06-09T20:44:28+00:00	2020-06-11T06:59:59+00:00	-1	3jlt5z1ct5p1ypn@marketplace.amazon.com	Marcquis Threet	+1 314-282-9402 ext. 09409	ABR001	Arabella Bouquets 12 Stems of Fresh Cut Red Roses in a Free Designer Glass Vase	1	0	1	SecondDay	Marcquis J Threet	1351 SAPPHIRE DR APT 118			VIRGINIA BEACH	VA	23455-5565	US			false		
112-0213897-6381040	03145272553738	2020-06-09T20:25:16+00:00	2020-06-09T13:25:16-07:00	2020-06-09T20:50:04+00:00	2020-06-11T06:59:59+00:00	-1	7zhp6vm3rgvd67k@marketplace.amazon.com	craig kay	+1 314-282-9402 ext. 59810	ABR0022	Arabella Farm Direct Bouquet of 12 Fresh Cut Pink Roses with a Free Glass Vase	1	0	1	SecondDay	Jennifer Hoffman	509 IBERT ST			FRANKLIN	LA	70538-4821	US		We love you Jennifer!!!! From Alexandra and Sophia Kay	false		
111-1544691-6288229	50543742900690	2020-06-09T20:29:43+00:00	2020-06-09T13:29:43-07:00	2020-06-09T20:52:49+00:00	2020-06-11T06:59:59+00:00	-1	fqjjyz7c09gd1zc@marketplace.amazon.com	Neeta Narula	+1 346-307-9643 ext. 76036	ABR0055	Arabella Farm Direct Bouquet of 12 Stems of Fresh Cut Hot Pink Roses in a Free Designer Glass Vase	1	0	1	SecondDay	Nisha Pagan	2862 MAINWAY DR			LOS ALAMITOS	CA	90720-4641	US		DEAR Nisha, Enjoy your gift! From Neeta Narula	false		
114-5805618-7301058	40931602790818	2020-06-09T21:07:14+00:00	2020-06-09T14:07:14-07:00	2020-06-09T21:08:05+00:00	2020-06-11T06:59:59+00:00	-1	3g7jz54c5qvnyhg@marketplace.amazon.com	Loren Smith	+1 346-307-9643 ext. 60096	ABR004	Arabella Farm Direct Bouquet of 12 Fresh Cut Yellow Roses with a Free Glass Vase	1	0	1	SecondDay	Mabe Family	2325 ODDIE RD			SALISBURY	NC	28146-1290	US		It has been such an honor and blessing to get to know Cody over the last few months! And I am beyond appreciative and grateful for you all! With love,  Loren Smith	true		
113-9422792-2154641	04670017691186	2020-06-09T20:47:31+00:00	2020-06-09T13:47:31-07:00	2020-06-09T21:11:46+00:00	2020-06-11T06:59:59+00:00	-1	pzp536lz3s3vj6z@marketplace.amazon.com	Jackie Hilton	+1 314-282-9402 ext. 04900	ABR014	Arabella Bouquets 18 Stems of Fresh Cut White Roses in a Free Designer Glass Vase	1	0	1	SecondDay	The Hussmans	20401 NEW HAMPSHIRE AVE			BRINKLOW	MD	20862-9750	US		Liebe Family Hussman, We are saddened by the news of your dear Annie‘s passing. In doggy heaven, there are herbs to freely roll on and chickens to chase. May you find peace knowing she is at peace. May she Rest In Peace. From Family Hilton	false		
112-2649559-7179456	67942422759290	2020-06-09T21:01:51+00:00	2020-06-09T14:01:51-07:00	2020-06-09T21:29:17+00:00	2020-06-11T06:59:59+00:00	-1	p43vhhrmhzd6z2k@marketplace.amazon.com	Theresa Skagen	+1 346-307-9643 ext. 34020	ABM010	Arabella Bouquets | Fields of The World Bouquet of Fresh Cut Flowers in a Free Designer Glass Vase	1	0	1	SecondDay	Floramie Phillips	14425 59TH AVE S			TUKWILA	WA	98168-4536	US		Our condolences on your loss ~  Regrets,  East Valley RV & Boat Storage	true		
111-3551029-9524259	13265615793122	2020-06-09T21:40:21+00:00	2020-06-09T14:40:21-07:00	2020-06-09T22:08:57+00:00	2020-06-11T06:59:59+00:00	-1	5vphk2bqsvx2fj4@marketplace.amazon.com	Dawn Lovell	+1 314-282-9402 ext. 34035	ABM010	Arabella Bouquets | Fields of The World Bouquet of Fresh Cut Flowers in a Free Designer Glass Vase	1	0	1	SecondDay	Mrs. Carolyn Lee	3348 Ouachita 67			Louann	AR	71751	US		Just a little happy to brighten your day. Love you both!! From Dawn & fam From Dawn Lovell	false		
111-5756637-2305030	17020456591674	2020-06-09T21:41:58+00:00	2020-06-09T14:41:58-07:00	2020-06-09T22:09:46+00:00	2020-06-11T06:59:59+00:00	-1	bs3y629b0z5jdby@marketplace.amazon.com	Aaron J. Aryanpur	+1 210-728-4548 ext. 53226	ABM010	Arabella Bouquets | Fields of The World Bouquet of Fresh Cut Flowers in a Free Designer Glass Vase	1	0	1	SecondDay	Paula Burns	7713 CEDAR PARK AVE			NORTH RICHLAND HILLS	TX	76182-7902	US		Enjoy your gift! From Aaron & Family	false		
113-0397492-3298649	27669148249954	2020-06-09T21:48:53+00:00	2020-06-09T14:48:53-07:00	2020-06-09T22:17:25+00:00	2020-06-11T06:59:59+00:00	-1	dlr480lklrsp644@marketplace.amazon.com	Dale Clemente	+1 314-282-9402 ext. 79669	ABM010	Arabella Bouquets | Fields of The World Bouquet of Fresh Cut Flowers in a Free Designer Glass Vase	1	0	1	SecondDay	Dale Clemente	18 HIGHLAND TER			PLEASANTVILLE	NEW YORK	10570-3306	US		we know your anniversary was days ago... but hey! celebrate the whole month!!! Happy 30th... love you so much... The Clementes xoxoxoxoxo From Dale Clemente	false		
111-1569590-1501066	52754102710650	2020-06-09T22:11:30+00:00	2020-06-09T15:11:30-07:00	2020-06-09T22:22:28+00:00	2020-06-11T06:59:59+00:00	-1	g59kbl44c1j8ynh@marketplace.amazon.com	Mandi Hinsley	+1 346-307-9643 ext. 32609	ABM010	Arabella Bouquets | Fields of The World Bouquet of Fresh Cut Flowers in a Free Designer Glass Vase	1	0	1	SecondDay	Yolanda and Arturo Fagundo	2423 11TH AVE E			SEATTLE	WA	98102-4015	US		Fagundo Family,  Thank you for all your hard work this year! We so appreciate you.  NWSDHH	true		
114-9317398-6745821	39290212133386	2020-06-09T21:59:14+00:00	2020-06-09T14:59:14-07:00	2020-06-09T22:27:23+00:00	2020-06-11T06:59:59+00:00	-1	2lnv022sp9mz89p@marketplace.amazon.com	Tremayne	+1 314-282-9402 ext. 59819	ABR0022	Arabella Farm Direct Bouquet of 12 Fresh Cut Pink Roses with a Free Glass Vase	1	0	1	SecondDay	Mrs. Doris Pinckney	622 N. Holly Mall			Philadelphia	Pa	19104	US		Enjoy your gift! From Tremayne	false		
113-1687052-5922631	09498849131538	2020-06-09T22:30:44+00:00	2020-06-09T15:30:44-07:00	2020-06-09T22:34:17+00:00	2020-06-11T06:59:59+00:00	-1	xs9dkclbxk36jlg@marketplace.amazon.com	Jason M. Ferreira	+1 346-307-9643 ext. 31514	ABR001	Arabella Bouquets 12 Stems of Fresh Cut Red Roses in a Free Designer Glass Vase	1	0	1	SecondDay	Deyrin Gonzalez	12 WELFARE AVE			CRANSTON	RI	02910-1236	US			false		
114-0870609-8696238	60505960087042	2020-06-09T22:06:39+00:00	2020-06-09T15:06:39-07:00	2020-06-09T22:35:29+00:00	2020-06-11T06:59:59+00:00	-1	nl3xnr7cszxtvnl@marketplace.amazon.com	Denise Dyer	+1 346-307-9643 ext. 08836	ABR0055	Arabella Farm Direct Bouquet of 12 Stems of Fresh Cut Hot Pink Roses in a Free Designer Glass Vase	1	0	1	SecondDay	Denise Dyer-Polisano	935 N Sweetwater Bay Dr			Gilbert	Az	85234	US		Thinking of you & hoping each day finds you feeling a little better! From Denise & Dennis	false		
112-7573726-2987400	33932510261866	2020-06-09T22:10:27+00:00	2020-06-09T15:10:27-07:00	2020-06-09T22:40:47+00:00	2020-06-11T06:59:59+00:00	-1	9l883xbv3dppfrl@marketplace.amazon.com	Dustin	+1 346-307-9643 ext. 18503	ABR0022	Arabella Farm Direct Bouquet of 12 Fresh Cut Pink Roses with a Free Glass Vase	1	0	1	SecondDay	Jeime Warnking Henshaw	1716 JACKSON DR			NORMAN	OK	73071-3268	US			false		
111-1005476-8866668	23171534605962	2020-06-09T22:23:21+00:00	2020-06-09T15:23:21-07:00	2020-06-09T22:53:14+00:00	2020-06-11T06:59:59+00:00	-1	qtv714xmcmqrjy7@marketplace.amazon.com	John W Gingrich	+1 346-307-9643 ext. 58040	ABR0022	Arabella Farm Direct Bouquet of 12 Fresh Cut Pink Roses with a Free Glass Vase	1	0	1	SecondDay	Rebecca Atterberg	9349 RED SUNSET DR			WEST DES MOINES	IA	50266-5001	US		Happy belated!! We love you! From John, Mer & Elle	false		
112-7551117-1300254	08721055745306	2020-06-09T22:39:13+00:00	2020-06-09T15:39:13-07:00	2020-06-09T23:01:28+00:00	2020-06-11T06:59:59+00:00	-1	5dhmt2r6bpx5r57@marketplace.amazon.com	Jasel Larreynaga	+1 210-728-4548 ext. 67118	ABR0022	Arabella Farm Direct Bouquet of 12 Fresh Cut Pink Roses with a Free Glass Vase	1	0	1	SecondDay	Thelma X Gil	13129 GINA AVE			MORENO VALLEY	CA	92553-8065	US		Feliz Cumpleaños Mami, la adoramos con el alma y celebramos su vida. De Sus 3 ratones Hassel, Johan y Katy	false		
113-3611305-0897066	00397663578618	2020-06-09T23:03:30+00:00	2020-06-09T16:03:30-07:00	2020-06-09T23:18:47+00:00	2020-06-11T06:59:59+00:00	-1	dg8qkpkffzqh0wl@marketplace.amazon.com	Besi	+1 346-307-9643 ext. 12233	ABR0022	Arabella Farm Direct Bouquet of 12 Fresh Cut Pink Roses with a Free Glass Vase	1	0	1	SecondDay	Lela (Qura)	550 Columbus ave,Columbus,OH 43223-1608			Columbus	Ohio	43223	US		“Congratulations on the arrival of your princess”. “You two deserve every bit of happiness this baby is going to bring you”. “I wanna be there for hug you and give a little kiss but full of love to Era“. From Besi	false		
112-2153337-2216237	41385085115882	2020-06-09T22:50:21+00:00	2020-06-09T15:50:21-07:00	2020-06-09T23:19:38+00:00	2020-06-11T06:59:59+00:00	-1	zq3k3gwx3tp5byq@marketplace.amazon.com	Michael A. Zoglio	+1 314-282-9402 ext. 98075	ABM010	Arabella Bouquets | Fields of The World Bouquet of Fresh Cut Flowers in a Free Designer Glass Vase	1	0	1	SecondDay	Samira Ali	2213 TEVIS RD			SACRAMENTO	CA	95825-0255	US		Happy Birthday Love Bug❤️❤️ From Michael A. Zoglio	false		
111-6132636-2845047	01330352819906	2020-06-09T23:14:20+00:00	2020-06-09T16:14:20-07:00	2020-06-09T23:33:50+00:00	2020-06-11T06:59:59+00:00	-1	lp27670jt6tlpvx@marketplace.amazon.com	stephen k. brandt	+1 314-282-9402 ext. 72641	ABM010	Arabella Bouquets | Fields of The World Bouquet of Fresh Cut Flowers in a Free Designer Glass Vase	1	0	1	SecondDay	Meaghan and MIchael Kelvey	HOME-SWEET-HOME 170 UNION AVE			SOMERVILLE	NJ	08876-2620	US		Meg and MIke, Just a lil reminder of the day where flowers added so much to the beauty you both shared on a fabulous day Love you mutchly ..... Dad	false		
113-1978157-6829025	58291852670202	2020-06-09T23:05:23+00:00	2020-06-09T16:05:23-07:00	2020-06-09T23:33:56+00:00	2020-06-11T06:59:59+00:00	-1	776x9fzzmj3pzf1@marketplace.amazon.com	Curtis J. Schmidt	+1 210-728-4548 ext. 85324	ABM010	Arabella Bouquets | Fields of The World Bouquet of Fresh Cut Flowers in a Free Designer Glass Vase	1	0	1	SecondDay	Donna Sue Wiliker	10424 N DEARING AVE			FRESNO	CA	93730-4773	US		Happy 75th Birthday!  Love, Debbie and Curt	false		
113-2973822-9559431	49950105122794	2020-06-09T23:18:49+00:00	2020-06-09T16:18:49-07:00	2020-06-09T23:38:19+00:00	2020-06-11T06:59:59+00:00	-1	cb4x3x40xqjv4qj@marketplace.amazon.com	Cynthia Valencia	+1 314-282-9402 ext. 09734	ABR0022	Arabella Farm Direct Bouquet of 12 Fresh Cut Pink Roses with a Free Glass Vase	1	0	1	SecondDay	Trina Rowe	6461 BELLEVUE DR SW			CONYERS	GA	30094-4779	US		Belated Happy Birthday and Mother’s Day!  Enjoy your gift! From Cynthia, Arch and the kids!	false		
111-5987644-8320229	39223453599666	2020-06-09T23:11:18+00:00	2020-06-09T16:11:18-07:00	2020-06-09T23:38:46+00:00	2020-06-11T06:59:59+00:00	-1	88ptk38fjybch0y@marketplace.amazon.com	Kimmie Muschett	+1 346-307-9643 ext. 55184	ABR0033	Arabella Farm Direct Bouquet of 12 Fresh Cut Orange Roses with a Free Glass Vase	1	0	1	SecondDay	Michele Gronnebeck	15511 N CINCINNATI ST			SPOKANE	WA	99208-9582	US		SENDING YOU , ALL OUR LOVE!. kurt,,kimmie,,kannon&maui From Kimmie Muschett	false		
114-2395639-0673804	46415001992666	2020-06-09T23:11:05+00:00	2020-06-09T16:11:05-07:00	2020-06-09T23:41:43+00:00	2020-06-11T06:59:59+00:00	-1	84sw3rvr4gv8t9p@marketplace.amazon.com	Kathy F. Bernick	+1 346-307-9643 ext. 04986	ABR0033	Arabella Farm Direct Bouquet of 12 Fresh Cut Orange Roses with a Free Glass Vase	1	0	1	SecondDay	Kathy Bernick	5610 LAUREL AVE APT 113			GOLDEN VALLEY	MN	55416-1049	US			false		
113-5285560-7481858	33117541488418	2020-06-09T23:39:15+00:00	2020-06-09T16:39:15-07:00	2020-06-10T00:08:43+00:00	2020-06-11T06:59:59+00:00	-1	bnk7yhky7l0ql91@marketplace.amazon.com	Melissa culley	+1 210-728-4548 ext. 84624	ABR0055	Arabella Farm Direct Bouquet of 12 Stems of Fresh Cut Hot Pink Roses in a Free Designer Glass Vase	1	0	1	SecondDay	Miss Adisyn Bush	268 CARTER CIR			HANFORD	CA	93230-1309	US		Dear Adisyn, CONGRATULATIONS  on this special GRADUATION DAY You will love High School!! We are so proud of you!! Miss you! Love, Papa & Nana	false		
114-5429628-0524269	42804886565610	2020-06-09T23:43:25+00:00	2020-06-09T16:43:25-07:00	2020-06-10T00:10:28+00:00	2020-06-11T06:59:59+00:00	-1	20kn49p1yc97v9d@marketplace.amazon.com	DiAnne Thornton	+1 346-307-9643 ext. 71269	ABR0022	Arabella Farm Direct Bouquet of 12 Fresh Cut Pink Roses with a Free Glass Vase	1	0	1	SecondDay	Janet Fahrner	1268 FALCON CT			WINDSOR	CO	80550-3331	US		Enjoy your gift. Happy Birthday , my beautiful  friend💕 From DiAnne Thornton	false		
112-0517974-2386609	69446984888834	2020-06-10T00:17:04+00:00	2020-06-09T17:17:04-07:00	2020-06-10T00:47:29+00:00	2020-06-11T06:59:59+00:00	-1	k8x7qw93r8pdk4m@marketplace.amazon.com	Sarah Daniels	+1 346-307-9643 ext. 63290	ABR0055	Arabella Farm Direct Bouquet of 12 Stems of Fresh Cut Hot Pink Roses in a Free Designer Glass Vase	1	0	1	SecondDay	Janey K. Daniels	515 RANDOLPH AVE			FORT WASHINGTON	PA	19034-1327	US			false		
111-3772448-6241057	19620418215026	2020-06-10T00:36:56+00:00	2020-06-09T17:36:56-07:00	2020-06-10T00:58:49+00:00	2020-06-11T06:59:59+00:00	-1	s1z9jtzsfl0b2zc@marketplace.amazon.com	Bailey Funkhouser	+1 346-307-9643 ext. 57673	ABR0055	Arabella Farm Direct Bouquet of 12 Stems of Fresh Cut Hot Pink Roses in a Free Designer Glass Vase	1	0	1	SecondDay	Bailey Funkhouser	35416 COUNTY HIGHWAY 1			BATTLE LAKE	MN	56515-9344	US		Happy Birthday babe, I can’t wait to call you Mrs Yackley. I Truly am blessed to have you in my life, and I cannot wait for the day to call you mine. From Love, Danny	false		
114-5413930-4656262	63959656012770	2020-06-10T00:00:03+00:00	2020-06-09T17:00:03-07:00	2020-06-10T01:02:03+00:00	2020-06-12T06:59:59+00:00	-2	g6xvmn816wzhr08@marketplace.amazon.com	Hannah Loeffler		ABR0066	Arabella Bouquets 18 Stems of Fresh Cut White Roses in a Free Designer Glass Vase	1	0	1	Expedited	Hannah Lynn Gonzalez, lululemon athleticaPO200-0000018363	5435 Tamiami Trail North Unit C105,Collier			Naples	FL	34108	US			true	200-0000018363	
113-4536132-4985005	68471558417426	2020-06-10T00:38:22+00:00	2020-06-09T17:38:22-07:00	2020-06-10T01:05:01+00:00	2020-06-11T06:59:59+00:00	-1	y2lw4r2pd1qj99s@marketplace.amazon.com	linda s mclean	+1 346-307-9643 ext. 02696	ABR004	Arabella Farm Direct Bouquet of 12 Fresh Cut Yellow Roses with a Free Glass Vase	1	0	1	SecondDay	Mrs. Almerinda Greco	VINCENTIAN SCHENLEY GARDENS	3890 BIGELOW BLVD		PITTSBURGH	PA	15213-1152	US		Thinking of you and praying that you will be well 😊 From linda s mclean	false		
114-0974867-9767407	41994275353282	2020-06-10T00:38:36+00:00	2020-06-09T17:38:36-07:00	2020-06-10T01:06:32+00:00	2020-06-11T06:59:59+00:00	-1	p5r1c41jcydw6gy@marketplace.amazon.com	Rachel DiSalvo	+1 210-728-4548 ext. 15152	ABR0055	Arabella Farm Direct Bouquet of 12 Stems of Fresh Cut Hot Pink Roses in a Free Designer Glass Vase	1	0	1	SecondDay	Kenneth Mayer	83 RHINE DR			NORTH FORT MYERS	FL	33903-2121	US		Happy Birthday Mom! Have a wonderful, special day. Can't wait to give you a big hug! Love, Rachel & Gabe From Rachel DiSalvo	false		
112-2450471-6053860	04340342762450	2020-06-10T00:44:59+00:00	2020-06-09T17:44:59-07:00	2020-06-10T01:08:46+00:00	2020-06-11T06:59:59+00:00	-1	nz3ndbn87x8d7p4@marketplace.amazon.com	Yvette C Dudac	+1 210-728-4548 ext. 77815	ABR0022	Arabella Farm Direct Bouquet of 12 Fresh Cut Pink Roses with a Free Glass Vase	1	0	1	SecondDay	Julie Ponce	3 PATRIOT WAY			AYER	MA	01432-1674	US		Happy Birthday!! warmest wishes  Love & Hugs Yvette & Marianne :) From Yvette C Dudac	false		
114-0858305-5105047	55208119560754	2020-06-10T00:45:31+00:00	2020-06-09T17:45:31-07:00	2020-06-10T01:16:03+00:00	2020-06-11T06:59:59+00:00	-1	4mzbprtpvlh5cv8@marketplace.amazon.com	Kristi Murphy	+1 210-728-4548 ext. 70365	ABM010	Arabella Bouquets | Fields of The World Bouquet of Fresh Cut Flowers in a Free Designer Glass Vase	1	0	1	SecondDay	Kristi Murphy	1508 CANOPY LN			EASTPOINT	FL	32328-2241	US			false		
114-8404211-0793840	25668167726762	2020-06-10T01:14:33+00:00	2020-06-09T18:14:33-07:00	2020-06-10T01:38:05+00:00	2020-06-12T06:59:59+00:00	-2	jv01shy6vqv6r04@marketplace.amazon.com	Melissa Dean	+1 346-307-9643 ext. 91053	ABR0066	Arabella Bouquets 18 Stems of Fresh Cut White Roses in a Free Designer Glass Vase	1	0	1	Expedited	Chechana Bobbitt	17 BRUSHY CREEK CIR			FREDERICKSBURG	VA	22406-8442	US			false		
113-0726783-7249863	27065126336202	2020-06-10T01:16:26+00:00	2020-06-09T18:16:26-07:00	2020-06-10T01:41:27+00:00	2020-06-13T06:59:59+00:00	-3	ng32v325y2mbrnh@marketplace.amazon.com	debra liguori	+1 314-282-9402 ext. 30042	ABM010	Arabella Bouquets | Fields of The World Bouquet of Fresh Cut Flowers in a Free Designer Glass Vase	1	0	1	Standard	Denise Cataldo	170 CHICHESTER RD			HUNTINGTON	NY	11743-6525	US		To  Denise, Happy Birthday, hope you have a great day Love Debbie Liguori	false		
112-5509363-3629816	21173965613658	2020-06-10T01:16:29+00:00	2020-06-09T18:16:29-07:00	2020-06-10T01:47:10+00:00	2020-06-11T06:59:59+00:00	-1	rlmr21nrcqdbyyg@marketplace.amazon.com	Joseph Brennan	+1 346-307-9643 ext. 85356	ABR012	Arabella Farm Direct Bouquet of 18 Fresh Cut Pink Roses with a Free Glass Vase	1	0	1	SecondDay	Erin Brennan	30 CROUSE RD			ALEXANDRIA	NH	03222-6547	US			false		
112-9603137-2704205	59867033580090	2020-06-10T01:20:14+00:00	2020-06-09T18:20:14-07:00	2020-06-10T01:49:29+00:00	2020-06-11T06:59:59+00:00	-1	q9qwp6921x83lh8@marketplace.amazon.com	Angela Loudermilk	+1 346-307-9643 ext. 18368	ABR012	Arabella Farm Direct Bouquet of 18 Fresh Cut Pink Roses with a Free Glass Vase	1	0	1	SecondDay	Jacque Loudermilk	3408 CHRISTIE BLVD			TOLEDO	OH	43606-2863	US			false		
111-3994871-6577827	03239334261682	2020-06-10T01:20:29+00:00	2020-06-09T18:20:29-07:00	2020-06-10T01:50:51+00:00	2020-06-11T06:59:59+00:00	-1	lx3vgyn37ncxtr5@marketplace.amazon.com	ShelleyHarrison	+1 346-307-9643 ext. 34535	ABR0022	Arabella Farm Direct Bouquet of 12 Fresh Cut Pink Roses with a Free Glass Vase	1	0	1	SecondDay	Gail DePhino	2 LLOLEETA PATH			PALM COAST	FL	32164-5889	US			false		
113-0300506-5345826	30319598813962	2020-06-10T01:27:29+00:00	2020-06-09T18:27:29-07:00	2020-06-10T01:51:04+00:00	2020-06-11T06:59:59+00:00	-1	5vffl535n3lv3xg@marketplace.amazon.com	Kyle	+1 346-307-9643 ext. 74095	ABR004	Arabella Farm Direct Bouquet of 12 Fresh Cut Yellow Roses with a Free Glass Vase	1	0	1	SecondDay	Jerry Bitterling	14 SCHIELE RD			LOGANSPORT	IN	46947-1065	US			false		
113-4391891-3654621	31758299681338	2020-06-10T01:45:15+00:00	2020-06-09T18:45:15-07:00	2020-06-10T02:12:48+00:00	2020-06-11T06:59:59+00:00	-1	ct1qq3xy4x0cb2f@marketplace.amazon.com	Kara Unger	+1 346-307-9643 ext. 81291	ABM019	Arabella Bouquets | The Desert Sun Bouquet in a Free Designer Glass Vase	1	0	1	SecondDay	Cathy Thibodeau	7079 SILVERWOOD ST			SAN DIEGO	CA	92114-7142	US		We wish you a speedy recovery. We miss you and we love you very much! From The Unger Bunch	false		
111-0803282-6061845	59344855081210	2020-06-10T02:00:29+00:00	2020-06-09T19:00:29-07:00	2020-06-10T02:30:11+00:00	2020-06-11T06:59:59+00:00	-1	yjztwz25qsvbs19@marketplace.amazon.com	Matthew Washington	+1 210-728-4548 ext. 75428	ABR0022	Arabella Farm Direct Bouquet of 12 Fresh Cut Pink Roses with a Free Glass Vase	1	0	1	SecondDay	Sharon Peters	622 N JACKSON AVE			PICAYUNE	MS	39466-3450	US		Thinking of you Ms Sharon.  Love you very much!! From Matthew Washington	false		
114-5422253-7522650	26589341399130	2020-06-10T02:32:48+00:00	2020-06-09T19:32:48-07:00	2020-06-10T02:35:02+00:00	2020-06-11T06:59:59+00:00	-1	0f41f73tqbsnb78@marketplace.amazon.com	Gabe	+1 210-728-4548 ext. 83776	ABR0055	Arabella Farm Direct Bouquet of 12 Stems of Fresh Cut Hot Pink Roses in a Free Designer Glass Vase	1	0	1	SecondDay	antonia	827 N IOWA AVE			LAKELAND	FL	33801-1741	US		feliz cumpleaños hna <3 TQM con cariño tu hna nelly From Nelly mata	false		
112-1189433-9943446	65598738547338	2020-06-10T02:14:21+00:00	2020-06-09T19:14:21-07:00	2020-06-10T02:37:07+00:00	2020-06-11T06:59:59+00:00	-1	f397dlf834lgb56@marketplace.amazon.com	Zara Mary	+1 314-282-9402 ext. 62779	ABR001	Arabella Bouquets 12 Stems of Fresh Cut Red Roses in a Free Designer Glass Vase	1	0	1	SecondDay	Luis p	2642 calle tres lomas, San Diego, CA 92139, USA			San Diego	California	92139	US			false		
112-8457175-9985821	35210442620634	2020-06-10T02:10:56+00:00	2020-06-09T19:10:56-07:00	2020-06-10T02:41:14+00:00	2020-06-11T06:59:59+00:00	-1	7kmc2h146w2rzbr@marketplace.amazon.com	Nathalie Tan	+1 346-307-9643 ext. 66928	ABR0022	Arabella Farm Direct Bouquet of 12 Fresh Cut Pink Roses with a Free Glass Vase	1	0	1	SecondDay	Amabel Reddy	3888 MEADOW PARK LN			TORRANCE	CA	90505-3744	US			false		
112-1121586-2657845	04337225966218	2020-06-10T02:12:59+00:00	2020-06-09T19:12:59-07:00	2020-06-10T02:43:27+00:00	2020-06-11T06:59:59+00:00	-1	7kmc2h146w2rzbr@marketplace.amazon.com	Nathalie Tan	+1 210-728-4548 ext. 69398	ABR0055	Arabella Farm Direct Bouquet of 12 Stems of Fresh Cut Hot Pink Roses in a Free Designer Glass Vase	1	0	1	SecondDay	Arlene Chua Laxamana	190 SAN TOMAS DR			PITTSBURG	CA	94565-7608	US			false		
112-0267007-1151418	13655016185250	2020-06-10T02:20:38+00:00	2020-06-09T19:20:38-07:00	2020-06-10T02:48:18+00:00	2020-06-11T06:59:59+00:00	-1	d4plhhh9s870wl9@marketplace.amazon.com	Lester Harris Jr	+1 314-282-9402 ext. 19106	ABR0055	Arabella Farm Direct Bouquet of 12 Stems of Fresh Cut Hot Pink Roses in a Free Designer Glass Vase	1	0	1	SecondDay	Sabrina N. Nunn	2113 Norris Rd NW			Huntsville	AL	35810	US		Enjoy your gift! I wanted you to have fresh flowers too. I hope this day will be the best it can be.  Happy Birthday From Lester Harris Jr	false		
112-5772363-7239403	19730406421738	2020-06-10T02:34:03+00:00	2020-06-09T19:34:03-07:00	2020-06-10T03:04:17+00:00	2020-06-11T06:59:59+00:00	-1	yyb1s27cmv9s7k2@marketplace.amazon.com	Adam J Gemmel	+1 346-307-9643 ext. 38818	ABR0022	Arabella Farm Direct Bouquet of 12 Fresh Cut Pink Roses with a Free Glass Vase	1	0	1	SecondDay	Courtney Wiegand	2249 MEADOWWOOD DR			TOLEDO	OH	43606-3156	US			false		
112-1692598-5546636	35470639591698	2020-06-10T02:44:54+00:00	2020-06-09T19:44:54-07:00	2020-06-10T03:13:50+00:00	2020-06-12T06:59:59+00:00	-2	mn5h4nvkd5bpyh4@marketplace.amazon.com	Janusz Romaszewicz	+1 346-307-9643 ext. 61403	ABR0066	Arabella Bouquets 18 Stems of Fresh Cut White Roses in a Free Designer Glass Vase	1	0	1	Expedited	marcin romaszewicz	521 FRANCES WAY			MOUNTAIN VIEW	CA	94041-2221	US			false		
111-2297807-6489031	25204244263906	2020-06-10T02:48:32+00:00	2020-06-09T19:48:32-07:00	2020-06-10T03:18:52+00:00	2020-06-11T06:59:59+00:00	-1	xdx1qhr9pvxl9kn@marketplace.amazon.com	Deborah Sanchez	+1 314-282-9402 ext. 71970	ABR0055	Arabella Farm Direct Bouquet of 12 Stems of Fresh Cut Hot Pink Roses in a Free Designer Glass Vase	1	0	1	SecondDay	Pat Riccardelli	10030 OWENSMOUTH AVE UNIT 25			CHATSWORTH	CA	91311-3816	US			false		
113-8530742-5101030	30316169354018	2020-06-10T03:09:36+00:00	2020-06-09T20:09:36-07:00	2020-06-10T03:29:44+00:00	2020-06-11T06:59:59+00:00	-1	lwm872f8p70zgb7@marketplace.amazon.com	Eboni	+1 346-307-9643 ext. 79548	ABR012	Arabella Farm Direct Bouquet of 18 Fresh Cut Pink Roses with a Free Glass Vase	1	0	1	SecondDay	Eboni Rackley	38245 MURRIETA HOT SPRINGS RD	APT D-303		MURRIETA	CA	92563-8518	US		Thank you for being my hot sexy wife who always has my back. I’m ready to make even more memories with babe ; From LC	false		
112-3957515-8414654	17747278099242	2020-06-10T03:07:08+00:00	2020-06-09T20:07:08-07:00	2020-06-10T03:37:26+00:00	2020-06-11T06:59:59+00:00	-1	hyp46vp0q7y6n21@marketplace.amazon.com	Dennis W Reed	+1 346-307-9643 ext. 75792	ABR001	Arabella Bouquets 12 Stems of Fresh Cut Red Roses in a Free Designer Glass Vase	1	0	1	SecondDay	Dennis Reed	5600 HARBOUR POINTE BLVD	UNIT 1-207		MUKILTEO	WA	98275-5186	US			false		
113-7078213-8189000	69684205709282	2020-06-10T03:13:13+00:00	2020-06-09T20:13:13-07:00	2020-06-10T03:42:43+00:00	2020-06-11T06:59:59+00:00	-1	fspy4fq6m46z914@marketplace.amazon.com	Vanessa Mojica	+1 210-728-4548 ext. 74232	ABM010	Arabella Bouquets | Fields of The World Bouquet of Fresh Cut Flowers in a Free Designer Glass Vase	1	0	1	SecondDay	Jiggity Jaymee Lopez	2217 W 76TH ST			LOS ANGELES	CA	90043-5333	US		We hope your surgery went well. Get some rest and let's do happy hour in person soon; we can't wait to see you. Love you and miss you. From Vanna & Cristina	false		
112-2788737-7598612	33013315429898	2020-06-10T03:20:28+00:00	2020-06-09T20:20:28-07:00	2020-06-10T03:49:02+00:00	2020-06-11T06:59:59+00:00	-1	kjz80m07kcjjcvs@marketplace.amazon.com	Jennifer Jbara	+1 346-307-9643 ext. 30445	ABR0022	Arabella Farm Direct Bouquet of 12 Fresh Cut Pink Roses with a Free Glass Vase	1	0	1	SecondDay	Beth Groves	880 BAYBERRY DR			CORONA	CA	92882-3619	US		Happy Birthday Beth! Love you Chris,Jennifer, Matthew and Andrew From Jennifer Jbara	false		
113-2916068-1148250	10888733321530	2020-06-10T03:46:37+00:00	2020-06-09T20:46:37-07:00	2020-06-10T04:15:26+00:00	2020-06-11T06:59:59+00:00	-1	5rd65xk5vvctf2y@marketplace.amazon.com	Henry M. Gabriel	+1 210-728-4548 ext. 39039	ABR004	Arabella Farm Direct Bouquet of 12 Fresh Cut Yellow Roses with a Free Glass Vase	1	0	1	SecondDay	Evangelina Santibanez	1500 WARREN ST SPC 120			SANTA ANA	CA	92705-4245	US		Love you mommacita!  Miss you From Laura	false		
113-2894350-2483431	45554183430498	2020-06-10T03:47:40+00:00	2020-06-09T20:47:40-07:00	2020-06-10T04:17:50+00:00	2020-06-11T06:59:59+00:00	-1	5rd65xk5vvctf2y@marketplace.amazon.com	Henry M. Gabriel	+1 210-728-4548 ext. 41608	ABR004	Arabella Farm Direct Bouquet of 12 Fresh Cut Yellow Roses with a Free Glass Vase	1	0	1	SecondDay	Laura Gabriel	4115 170th Street SE			Bothell	washington	98012	US			false		
114-0872473-2265841	55384520807866	2020-06-10T04:21:58+00:00	2020-06-09T21:21:58-07:00	2020-06-10T04:23:01+00:00	2020-06-11T06:59:59+00:00	-1	rq01mx95bkppjnl@marketplace.amazon.com	John Hinkle	+1 314-282-9402 ext. 34879	ABB015	Arabella Farm Direct Bouquet of 24 Fresh Cut Orange Roses with a Free Glass Vase	1	0	1	SecondDay	John Hinkle	7131 NEWPORT RD			CATAWBA	VA	24070-2827	US			false		
112-2923671-2207448	39215077835498	2020-06-10T04:15:09+00:00	2020-06-09T21:15:09-07:00	2020-06-10T04:43:12+00:00	2020-06-11T06:59:59+00:00	-1	p9t8d6pfqrgkb5s@marketplace.amazon.com	shelby	+1 346-307-9643 ext. 87772	ABR004	Arabella Farm Direct Bouquet of 12 Fresh Cut Yellow Roses with a Free Glass Vase	1	0	1	SecondDay	Amanda Visinho	1662 SUMMERTIME DR			EL CAJON	CA	92021-1067	US		Congratulations on completing your voyage in the Navy! We love you and miss you so much. Hope to see you all soon. Love, XOXO Shelby and Chris From Shelby and Chris	false		
111-1649361-1388243	16224066213938	2020-06-10T04:53:19+00:00	2020-06-09T21:53:19-07:00	2020-06-10T05:20:53+00:00	2020-06-12T06:59:59+00:00	-2	gdgtp4f3mmgy9nh@marketplace.amazon.com	Julia Rosengren	+1 314-282-9402 ext. 97572	ABR014	Arabella Bouquets 18 Stems of Fresh Cut White Roses in a Free Designer Glass Vase	1	0	1	Expedited	Kacy and Daniel Schweit	18786 BIG CEDAR DR			SANTA CLARITA	CA	91387-1451	US			false		
113-1784656-3425033	57985092442482	2020-06-10T05:04:52+00:00	2020-06-09T22:04:52-07:00	2020-06-10T05:29:52+00:00	2020-06-11T06:59:59+00:00	-1	lcsjbywspd5v7xs@marketplace.amazon.com	leena selvaraj	+1 346-307-9643 ext. 56320	ABR0055	Arabella Farm Direct Bouquet of 12 Stems of Fresh Cut Hot Pink Roses in a Free Designer Glass Vase	1	0	1	SecondDay	Hepsi Singh	4 THORNHURST			SAN ANTONIO	TX	78218-6033	US		We wish you a blessed birthday. Love, Raj, Leena, David and John Selvaraj From leena selvaraj	false		
112-6730701-1583442	01162572424338	2020-06-10T05:13:15+00:00	2020-06-09T22:13:15-07:00	2020-06-10T05:31:08+00:00	2020-06-11T06:59:59+00:00	-1	5csm1m13d160nsr@marketplace.amazon.com	Norma Collins	+1 346-307-9643 ext. 63142	ABR0022	Arabella Farm Direct Bouquet of 12 Fresh Cut Pink Roses with a Free Glass Vase	1	0	1	SecondDay	Judy Ford	4115 FM 3096			KERENS	TX	75144-7081	US		For Suzanne From Norma Collins	false		
113-3561704-9085855	52632566380242	2020-06-10T05:02:56+00:00	2020-06-09T22:02:56-07:00	2020-06-10T05:33:31+00:00	2020-06-11T06:59:59+00:00	-1	66fxg339xnbrpg6@marketplace.amazon.com	Kevin Tubens	+1 346-307-9643 ext. 91817	ABR0022	Arabella Farm Direct Bouquet of 12 Fresh Cut Pink Roses with a Free Glass Vase	1	0	1	SecondDay	Kevin Tubens	30 ORCHARD ST			SOUTH GRAFTON	MA	01560-1312	US			false		
112-0346611-3206616	13540526636682	2020-06-10T05:20:25+00:00	2020-06-09T22:20:25-07:00	2020-06-10T05:47:35+00:00	2020-06-11T06:59:59+00:00	-1	fprnvvmmc62j977@marketplace.amazon.com	Monica Chacon	+1 314-282-9402 ext. 42749	ABR012	Arabella Farm Direct Bouquet of 18 Fresh Cut Pink Roses with a Free Glass Vase	1	0	1	SecondDay	Jessica Stevenson	245 BAYLOR AVE			TURLOCK	CA	95382-1812	US		Hope you Get Well Soon and have a speedy recovery From Flo Vasquez & Family	false		
112-2241051-0290632	25114560011170	2020-06-10T06:00:39+00:00	2020-06-09T23:00:39-07:00	2020-06-10T06:20:58+00:00	2020-06-11T06:59:59+00:00	-1	rnj4068h9ct9sm1@marketplace.amazon.com	Raymond L. Dumas	+1 210-728-4548 ext. 92603	ABR0055	Arabella Farm Direct Bouquet of 12 Stems of Fresh Cut Hot Pink Roses in a Free Designer Glass Vase	1	0	1	SecondDay	Keystone Contracting, Attn: Michelle Snyder	417 NW 209TH ST			RIDGEFIELD	WA	98642-5703	US			false		
112-5221860-2954609	70293547219090	2020-06-10T06:23:57+00:00	2020-06-09T23:23:57-07:00	2020-06-10T06:33:33+00:00	2020-06-11T06:59:59+00:00	-1	bqdh2h07q5zgk8t@marketplace.amazon.com	AMY EASTERWOOD	+1 314-282-9402 ext. 75285	ABR0022	Arabella Farm Direct Bouquet of 12 Fresh Cut Pink Roses with a Free Glass Vase	1	0	1	SecondDay	Crystal EASTERWOOD	444 CHAPARRAL DR			FREDERICKSBURG	TX	78624-7427	US		J.D. and Crystal ~    Congratulations on your sweet girl 💖 and congratulations to the boys , Bella has 3 big brothers ... watch out world !!! From Love , Mom & family	false		
114-4941385-9500221	55640366012194	2020-06-10T06:31:29+00:00	2020-06-09T23:31:29-07:00	2020-06-10T06:59:57+00:00	2020-06-11T06:59:59+00:00	-1	l0hp64h0tqqsp0m@marketplace.amazon.com	Nader Uthman	+1 314-282-9402 ext. 82065	ABR001	Arabella Bouquets 12 Stems of Fresh Cut Red Roses in a Free Designer Glass Vase	1	0	1	SecondDay	Dr Rakhel Villamil-Acera	918 ADAMS ST APT 2			ALBANY	CA	94706-2062	US		Happy birthday - Zoroniak zuri! Much love on this, your 26th birthday. You’re marvelous and we hope you have a wonderful day From Nader and Brian	false		
113-6311104-1113826	25876323679522	2020-06-10T07:01:09+00:00	2020-06-10T00:01:09-07:00	2020-06-10T07:27:30+00:00	2020-06-11T06:59:59+00:00	-1	5g05hky445g0r0p@marketplace.amazon.com	Mark Dowd	+1 346-307-9643 ext. 13482	ABR0022	Arabella Farm Direct Bouquet of 12 Fresh Cut Pink Roses with a Free Glass Vase	1	0	1	SecondDay	Maureen Gilmore	555 ALBANY AVE			AMITYVILLE	NY	11701-1115	US		Maureen, I hope you are doing well. I love you, and I hope to see you again this year! From Mark Dowd	false		
111-3166881-4984264	40077799048098	2020-06-10T06:59:05+00:00	2020-06-09T23:59:05-07:00	2020-06-10T07:29:36+00:00	2020-06-11T06:59:59+00:00	-1	30qmwdk2g55r3w4@marketplace.amazon.com	genaro	+1 210-728-4548 ext. 60117	ABR0022	Arabella Farm Direct Bouquet of 12 Fresh Cut Pink Roses with a Free Glass Vase	1	0	1	SecondDay	Jessenia Solorio	2273 PARK BLVD	PALO ALTO CA 94306 UNITED STATES		PALO ALTO	CA	94306-1500	US			false		
113-4038126-0091436	16456818216658	2020-06-10T07:45:36+00:00	2020-06-10T00:45:36-07:00	2020-06-10T08:14:04+00:00	2020-06-11T06:59:59+00:00	-1	9ffy2dx2yd3jkjz@marketplace.amazon.com	Ray Strong	+1 210-728-4548 ext. 43336	ABR0022	Arabella Farm Direct Bouquet of 12 Fresh Cut Pink Roses with a Free Glass Vase	1	0	1	SecondDay	Ashley Davis	1663 CANOPY OAKS DR			ORANGE PARK	FL	32065-4253	US			false		
