order-id	order-item-id	purchase-date	payments-date	reporting-date	promise-date	days-past-promise	buyer-email	buyer-name	buyer-phone-number	sku	product-name	quantity-purchased	quantity-shipped	quantity-to-ship	ship-service-level	recipient-name	ship-address-1	ship-address-2	ship-address-3	ship-city	ship-state	ship-postal-code	ship-country	gift-wrap-type	gift-message-text	is-business-order	purchase-order-number	price-designation
111-8392576-8562615	39491254217810	2020-06-10T17:44:19+00:00	2020-06-10T10:44:19-07:00	2020-06-10T18:12:59+00:00	2020-06-16T06:59:59+00:00	-6	l0fssmx300b6whf@marketplace.amazon.com	REBECCA J CLARKBASH	+1 346-307-9643 ext. 91375	ABM010	Arabella Bouquets | Fields of The World Bouquet of Fresh Cut Flowers in a Free Designer Glass Vase	1	0	1	Expedited	CLARISSA GALE	150 FALLEN ASH DR			GRANVILLE	OH	43023-8041	US		Big Hugs from Ya Ya's.  We love and appreciate everything you do!  Cindy Jenkinson Rebecca Clark-Bash From REBECCA J CLARKBASH & Cinsy Jenkinson	false		
111-4894310-1597000	33490231588042	2020-06-10T18:43:57+00:00	2020-06-10T11:43:57-07:00	2020-06-10T19:03:07+00:00	2020-06-16T06:59:59+00:00	-6	yzvdz6scnbqrdck@marketplace.amazon.com	Ann creasey	+1 346-307-9643 ext. 53214	ABM010	Arabella Bouquets | Fields of The World Bouquet of Fresh Cut Flowers in a Free Designer Glass Vase	1	0	1	Expedited	Ever hexamer4	4683 BERWYN LN			MACUNGIE	PA	18062-8255	US			false		
113-3302059-8464203	57481109990058	2020-06-10T18:52:39+00:00	2020-06-10T11:52:39-07:00	2020-06-10T19:20:26+00:00	2020-06-16T06:59:59+00:00	-6	9b624t2s0fv1vty@marketplace.amazon.com	Roni stern	+1 346-307-9643 ext. 82090	ABR0022	Arabella Farm Direct Bouquet of 12 Fresh Cut Pink Roses with a Free Glass Vase	1	0	1	Expedited	Phyllis Grinspan	25 WOODHAVEN DR			SIMSBURY	CT	06070-2642	US			false		
114-4900707-4468233	48127163000050	2020-06-10T19:31:23+00:00	2020-06-10T12:31:23-07:00	2020-06-10T19:53:26+00:00	2020-06-13T06:59:59+00:00	-3	q3433mgqdc92rb8@marketplace.amazon.com	Virginia MacDonald	+1 346-307-9643 ext. 63231	ABR0066	Arabella Bouquets 18 Stems of Fresh Cut White Roses in a Free Designer Glass Vase	1	0	1	Expedited	Mrs. Jeffrey Orr	4583 TUSCANI DR			CYPRESS	CA	90630-6813	US			false		
111-8321992-9567428	00502031594034	2020-06-10T19:27:28+00:00	2020-06-10T12:27:28-07:00	2020-06-10T19:55:55+00:00	2020-06-16T06:59:59+00:00	-6	365qrwzctjprb5k@marketplace.amazon.com	Maria Krisch	+1 210-728-4548 ext. 63181	ABR0055	Arabella Farm Direct Bouquet of 12 Stems of Fresh Cut Hot Pink Roses in a Free Designer Glass Vase	1	0	1	Expedited	Rosemarie Krisch	255 E MAIN ST RM 612			MOORESTOWN	NJ	08057-2982	US			false		
114-9899928-5256217	05946266917050	2020-06-10T19:44:39+00:00	2020-06-10T12:44:39-07:00	2020-06-10T20:09:06+00:00	2020-06-16T06:59:59+00:00	-6	s7rmrgn7wpppjt4@marketplace.amazon.com	Emily-Corinne Kacergis	+1 210-728-4548 ext. 59496	ABR0055	Arabella Farm Direct Bouquet of 12 Stems of Fresh Cut Hot Pink Roses in a Free Designer Glass Vase	1	0	1	Expedited	Nicole Mueller	623 ANDERSON CIR APT 205			DEERFIELD BEACH	FL	33441-7752	US		Nicole, Sending you some sunshine and love. We continue to think about you and your family as you grieve the loss of your Dad.  Cherish your sweet little man and take care of each other. We love you and hope to see you soon. Love, Cory and Joe	false		
111-8637714-7176206	42036222790258	2020-06-10T19:48:40+00:00	2020-06-10T12:48:40-07:00	2020-06-10T20:18:58+00:00	2020-06-16T06:59:59+00:00	-6	1j94zddxjpx1yw5@marketplace.amazon.com	Lauren Shein	+1 346-307-9643 ext. 42971	ABR0022	Arabella Farm Direct Bouquet of 12 Fresh Cut Pink Roses with a Free Glass Vase	1	0	1	Expedited	Mrs Lauren  Shein	500 COLGATE WAY			SAN MATEO	CA	94402-3206	US			false		
114-3716893-8429046	63565205714434	2020-06-10T20:24:51+00:00	2020-06-10T13:24:51-07:00	2020-06-10T20:49:02+00:00	2020-06-16T06:59:59+00:00	-6	lfzl760bk5t4pjq@marketplace.amazon.com	Kimber	+1 346-307-9643 ext. 76255	ABR0033	Arabella Farm Direct Bouquet of 12 Fresh Cut Orange Roses with a Free Glass Vase	1	0	1	Expedited	Cheryl Tolson c/o Willis Knighton Rehab	1111 LINE AVE			SHREVEPORT	LA	71101-3841	US		Enjoy your gift! I love you Mother From Kimber	false		
114-2105573-4835440	18382386146762	2020-06-10T20:20:25+00:00	2020-06-10T13:20:25-07:00	2020-06-10T20:49:13+00:00	2020-06-16T06:59:59+00:00	-6	f8r4t4gcby3j1wl@marketplace.amazon.com	Elizabeth Blanton	+1 314-282-9402 ext. 81649	ABR0022	Arabella Farm Direct Bouquet of 12 Fresh Cut Pink Roses with a Free Glass Vase	1	0	1	Expedited	Jenna Conners	5729 SUNNY VISTA DR			AUSTIN	TX	78749-4022	US		Sorry we missed your birthday.  Love you! From Elizabeth and Bobby	false		
114-5347965-6677845	50935635216810	2020-06-10T20:24:11+00:00	2020-06-10T13:24:11-07:00	2020-06-10T20:53:12+00:00	2020-06-16T06:59:59+00:00	-6	f8r4t4gcby3j1wl@marketplace.amazon.com	Elizabeth Blanton	+1 346-307-9643 ext. 17701	ABR0022	Arabella Farm Direct Bouquet of 12 Fresh Cut Pink Roses with a Free Glass Vase	1	0	1	Expedited	KT Sluarski	6100 BROWNING DR APT 12207			NORTH RICHLAND HILLS	TX	76180-9077	US		Sorry we missed your birthday!  And  Congrats on your promotion!!  You’ll be awesome! From Elizabeth and Bobby	false		
113-0107015-7393801	43908239983986	2020-06-10T21:50:29+00:00	2020-06-10T14:50:29-07:00	2020-06-10T22:18:58+00:00	2020-06-16T06:59:59+00:00	-6	pvb2vqsv0b9j696@marketplace.amazon.com	Danielle Ortiz	+1 346-307-9643 ext. 03449	ABR0022	Arabella Farm Direct Bouquet of 12 Fresh Cut Pink Roses with a Free Glass Vase	1	0	1	Expedited	Grisel Viveros-Casas	336 E NORMANDY DR			ADDISON	IL	60101-3969	US		I love you guys! Let me know when I can swing by to smother my Nene and squeeze you guys!!! From Ortiz Familia	false		
111-7188190-5661843	60897286108874	2020-06-10T22:26:50+00:00	2020-06-10T15:26:50-07:00	2020-06-10T22:54:52+00:00	2020-06-16T06:59:59+00:00	-6	k48tbwx13b8mg18@marketplace.amazon.com	Marie Sinchak	+1 346-307-9643 ext. 88137	ABR0022	Arabella Farm Direct Bouquet of 12 Fresh Cut Pink Roses with a Free Glass Vase	1	0	1	Expedited	Jared Griffith	2163 CROMWELL RD			CATLETT	VA	20119-2529	US			false		
114-7164689-6615453	02276481935218	2020-06-10T22:37:38+00:00	2020-06-10T15:37:38-07:00	2020-06-10T23:05:35+00:00	2020-06-16T06:59:59+00:00	-6	qrz29fwkh8g9x6j@marketplace.amazon.com	Julie	+1 346-307-9643 ext. 41153	ABR004	Arabella Farm Direct Bouquet of 12 Fresh Cut Yellow Roses with a Free Glass Vase	1	0	1	Expedited	Paige Bartos	909 WOOD AVE			TRAVERSE CITY	MI	49686-3421	US		Paige and Kevin  Sorry you had to postpone your wedding.  Hope these will cheer you up! Lots of love Grams and Gramps From Julie	false		
111-4339646-1525047	33315296897794	2020-06-10T23:08:32+00:00	2020-06-10T16:08:32-07:00	2020-06-10T23:45:40+00:00	2020-06-16T06:59:59+00:00	-6	1q16ldh2164pkjp@marketplace.amazon.com	Ngoc Tran	+1 210-728-4548 ext. 05157	ABR001	Arabella Bouquets 12 Stems of Fresh Cut Red Roses in a Free Designer Glass Vase	1	0	1	Expedited	Matilda Barriga	2732 E STANDISH AVE			ANAHEIM	CA	92806-4349	US		Feel better soon, Matty! Hugs, Ngoc	false		
111-1015259-2409068	65936083500450	2020-06-10T23:40:40+00:00	2020-06-10T16:40:40-07:00	2020-06-10T23:57:35+00:00	2020-06-16T06:59:59+00:00	-6	xm8b0ydpnfbf9rx@marketplace.amazon.com	Scott Svehlak	+1 346-307-9643 ext. 01144	ABM0033	Arabella Farm Direct Bouquet of Fresh Cut White Hydrangea with a Free Glass Vase	1	0	1	Expedited	Jayne Portnoy	1509 WOLLACOTT ST			REDONDO BEACH	CA	90278-2831	US		Something special to brighten your day! Hope your resting and healing🤍... Love Di XO From Diane Svehlak	false		
113-8421810-8329056	70227132932674	2020-06-10T23:48:11+00:00	2020-06-10T16:48:11-07:00	2020-06-11T00:18:12+00:00	2020-06-16T06:59:59+00:00	-6	g1rjbzcnv3015c8@marketplace.amazon.com	Wade	+1 346-307-9643 ext. 19803	ABM010	Arabella Bouquets | Fields of The World Bouquet of Fresh Cut Flowers in a Free Designer Glass Vase	1	0	1	Expedited	Katelyn Brown	829 MARLBORO RD			BRATTLEBORO	VT	05301-9732	US			false		
114-6377598-9081060	42202802444642	2020-06-11T00:41:49+00:00	2020-06-10T17:41:49-07:00	2020-06-11T01:08:40+00:00	2020-06-16T06:59:59+00:00	-6	vj5y8lq4qz0bk4h@marketplace.amazon.com	Jeffrey M. Sendlewski	+1 210-728-4548 ext. 70207	ABR0033	Arabella Farm Direct Bouquet of 12 Fresh Cut Orange Roses with a Free Glass Vase	1	0	1	Expedited	Ron Arpaia	32 MEADOW CIRCLE RD			BRANFORD	CT	06405-3109	US		Ron, our deepest sympathy to you and your family! We love you very much and are with you through this difficult time. Love, Cat and Jeff From Jeffrey M. Sendlewski	false		
111-4429831-4418623	64147746339154	2020-06-11T00:42:10+00:00	2020-06-10T17:42:10-07:00	2020-06-11T01:10:32+00:00	2020-06-16T06:59:59+00:00	-6	qwv14gm91sfs96d@marketplace.amazon.com	Jessica Heitfield	+1 346-307-9643 ext. 16874	ABM010	Arabella Bouquets | Fields of The World Bouquet of Fresh Cut Flowers in a Free Designer Glass Vase	1	0	1	Expedited	Karin Nixon	497 ROSEMARY LN			PURCELLVILLE	VA	20132-3273	US		Karin, You are absolutely incredible!! You have such commitment to our group and you created something truly special to each of us! Thank you so very much =) From Jessica Heitfield	false		
111-5459062-4265858	57892035032434	2020-06-11T00:46:10+00:00	2020-06-10T17:46:10-07:00	2020-06-11T01:11:05+00:00	2020-06-16T06:59:59+00:00	-6	1sq7rvt56slwgm6@marketplace.amazon.com	Desiree Wilbon	+1 346-307-9643 ext. 98603	ABR004	Arabella Farm Direct Bouquet of 12 Fresh Cut Yellow Roses with a Free Glass Vase	1	0	1	Expedited	Beverly Black	1620 N DENAIR AVE			TURLOCK	CA	95382-2509	US		HAPPY HAPPY BIRTHDAY AUNTIE! Niecey proud LOL! Love you From Des	false		
112-5998138-4965835	37771640209578	2020-06-11T00:57:38+00:00	2020-06-10T17:57:38-07:00	2020-06-11T01:23:33+00:00	2020-06-16T06:59:59+00:00	-6	xfmpt0qmr4mznpz@marketplace.amazon.com	Ryshard Marchbanks	+1 314-282-9402 ext. 36544	ABR0022	Arabella Farm Direct Bouquet of 12 Fresh Cut Pink Roses with a Free Glass Vase	1	0	1	Expedited	Ola Marchbanks	7701 WELLINGTON AVE			SAINT LOUIS	MO	63130-1525	US		Happy Birthday Granny! I love you and wish you a beautiful day filled with peace. From Ryshard	false		
113-4867312-4365811	01181721800578	2020-06-11T01:02:30+00:00	2020-06-10T18:02:30-07:00	2020-06-11T01:29:18+00:00	2020-06-16T06:59:59+00:00	-6	8xs7yh2src4d4zb@marketplace.amazon.com	clarence wessman	+1 210-728-4548 ext. 74246	ABM010	Arabella Bouquets | Fields of The World Bouquet of Fresh Cut Flowers in a Free Designer Glass Vase	1	0	1	Expedited	Josie Pavlik	991 LAUREL LN			NEW ALBANY	PA	18833-2702	US		Hi Josie, Enjoy your gift! We are thinking about you! From Donna and Wes	false		
114-5364803-7074639	12137264158162	2020-06-11T01:21:34+00:00	2020-06-10T18:21:34-07:00	2020-06-11T01:48:36+00:00	2020-06-16T06:59:59+00:00	-6	pzkgfbwy8y7tx83@marketplace.amazon.com	Sandra Thompson	+1 210-728-4548 ext. 09534	ABR0022	Arabella Farm Direct Bouquet of 12 Fresh Cut Pink Roses with a Free Glass Vase	1	0	1	Expedited	Shirley Liston	12483 EAGLE DR			BURLINGTON	WA	98233-2795	US		HAPPY BIRTHDAY SHIRLEY!    Hope all is going great for you. We think of you often. Love Sandy & David From Sandra Thompson	false		
112-8851518-1663414	62769568018986	2020-06-11T02:07:07+00:00	2020-06-10T19:07:07-07:00	2020-06-11T02:37:43+00:00	2020-06-16T06:59:59+00:00	-6	gw6rmywq7fh0nkv@marketplace.amazon.com	Saba Shahid	+1 346-307-9643 ext. 70992	ABR0055	Arabella Farm Direct Bouquet of 12 Stems of Fresh Cut Hot Pink Roses in a Free Designer Glass Vase	1	0	1	Expedited	Saba Shahid	3625 S Truckee Way			Aurora	CO	80013	US			false		
112-3683494-9347462	19482558635994	2020-06-11T02:10:57+00:00	2020-06-10T19:10:57-07:00	2020-06-11T02:40:01+00:00	2020-06-16T06:59:59+00:00	-6	szg768pty98vhsj@marketplace.amazon.com	Kenny	+1 346-307-9643 ext. 10889	ABR0055	Arabella Farm Direct Bouquet of 12 Stems of Fresh Cut Hot Pink Roses in a Free Designer Glass Vase	1	0	1	Expedited	Olga Hilss	200 W 67TH ST APT 19B			NEW YORK	NY	10023-0103	US		Hi Olga, Happy Birthday! Love, Kenny	false		
114-6007087-3164250	31680983727890	2020-06-11T02:58:16+00:00	2020-06-10T19:58:16-07:00	2020-06-11T03:23:56+00:00	2020-06-16T06:59:59+00:00	-6	kfvyq5kyh1gph78@marketplace.amazon.com	J Broches	+1 346-307-9643 ext. 03969	ABM010	Arabella Bouquets | Fields of The World Bouquet of Fresh Cut Flowers in a Free Designer Glass Vase	1	0	1	Expedited	J Broches	328 W Colorado St			Arcadia	California	91007	US		Congratulations Stacy and George love your Koumbaro From J Broches	false		
