order-id	order-item-id	purchase-date	payments-date	reporting-date	promise-date	days-past-promise	buyer-email	buyer-name	buyer-phone-number	sku	product-name	quantity-purchased	quantity-shipped	quantity-to-ship	ship-service-level	recipient-name	ship-address-1	ship-address-2	ship-address-3	ship-city	ship-state	ship-postal-code	ship-country	gift-wrap-type	gift-message-text	is-business-order	purchase-order-number	price-designation
111-8392576-8562615	39491254217810	2020-06-10T17:44:19+00:00	2020-06-10T10:44:19-07:00	2020-06-10T18:12:59+00:00	2020-06-16T06:59:59+00:00	-5	l0fssmx300b6whf@marketplace.amazon.com	REBECCA J CLARKBASH	+1 346-307-9643 ext. 91375	ABM010	Arabella Bouquets | Fields of The World Bouquet of Fresh Cut Flowers in a Free Designer Glass Vase	1	0	1	Expedited	CLARISSA GALE	150 FALLEN ASH DR			GRANVILLE	OH	43023-8041	US		Big Hugs from Ya Ya's.  We love and appreciate everything you do!  Cindy Jenkinson Rebecca Clark-Bash From REBECCA J CLARKBASH & Cinsy Jenkinson	false		
111-4894310-1597000	33490231588042	2020-06-10T18:43:57+00:00	2020-06-10T11:43:57-07:00	2020-06-10T19:03:07+00:00	2020-06-16T06:59:59+00:00	-5	yzvdz6scnbqrdck@marketplace.amazon.com	Ann creasey	+1 346-307-9643 ext. 53214	ABM010	Arabella Bouquets | Fields of The World Bouquet of Fresh Cut Flowers in a Free Designer Glass Vase	1	0	1	Expedited	Ever hexamer4	4683 BERWYN LN			MACUNGIE	PA	18062-8255	US			false		
113-3302059-8464203	57481109990058	2020-06-10T18:52:39+00:00	2020-06-10T11:52:39-07:00	2020-06-10T19:20:26+00:00	2020-06-16T06:59:59+00:00	-5	9b624t2s0fv1vty@marketplace.amazon.com	Roni stern	+1 346-307-9643 ext. 82090	ABR0022	Arabella Farm Direct Bouquet of 12 Fresh Cut Pink Roses with a Free Glass Vase	1	0	1	Expedited	Phyllis Grinspan	25 WOODHAVEN DR			SIMSBURY	CT	06070-2642	US			false		
114-4900707-4468233	48127163000050	2020-06-10T19:31:23+00:00	2020-06-10T12:31:23-07:00	2020-06-10T19:53:26+00:00	2020-06-13T06:59:59+00:00	-2	q3433mgqdc92rb8@marketplace.amazon.com	Virginia MacDonald	+1 346-307-9643 ext. 63231	ABR0066	Arabella Bouquets 18 Stems of Fresh Cut White Roses in a Free Designer Glass Vase	1	0	1	Expedited	Mrs. Jeffrey Orr	4583 TUSCANI DR			CYPRESS	CA	90630-6813	US			false		
111-8321992-9567428	00502031594034	2020-06-10T19:27:28+00:00	2020-06-10T12:27:28-07:00	2020-06-10T19:55:55+00:00	2020-06-16T06:59:59+00:00	-5	365qrwzctjprb5k@marketplace.amazon.com	Maria Krisch	+1 210-728-4548 ext. 63181	ABR0055	Arabella Farm Direct Bouquet of 12 Stems of Fresh Cut Hot Pink Roses in a Free Designer Glass Vase	1	0	1	Expedited	Rosemarie Krisch	255 E MAIN ST RM 612			MOORESTOWN	NJ	08057-2982	US			false		
114-9899928-5256217	05946266917050	2020-06-10T19:44:39+00:00	2020-06-10T12:44:39-07:00	2020-06-10T20:09:06+00:00	2020-06-16T06:59:59+00:00	-5	s7rmrgn7wpppjt4@marketplace.amazon.com	Emily-Corinne Kacergis	+1 210-728-4548 ext. 59496	ABR0055	Arabella Farm Direct Bouquet of 12 Stems of Fresh Cut Hot Pink Roses in a Free Designer Glass Vase	1	0	1	Expedited	Nicole Mueller	623 ANDERSON CIR APT 205			DEERFIELD BEACH	FL	33441-7752	US		Nicole, Sending you some sunshine and love. We continue to think about you and your family as you grieve the loss of your Dad.  Cherish your sweet little man and take care of each other. We love you and hope to see you soon. Love, Cory and Joe	false		
111-8637714-7176206	42036222790258	2020-06-10T19:48:40+00:00	2020-06-10T12:48:40-07:00	2020-06-10T20:18:58+00:00	2020-06-16T06:59:59+00:00	-5	1j94zddxjpx1yw5@marketplace.amazon.com	Lauren Shein	+1 346-307-9643 ext. 42971	ABR0022	Arabella Farm Direct Bouquet of 12 Fresh Cut Pink Roses with a Free Glass Vase	1	0	1	Expedited	Mrs Lauren  Shein	500 COLGATE WAY			SAN MATEO	CA	94402-3206	US			false		
114-3716893-8429046	63565205714434	2020-06-10T20:24:51+00:00	2020-06-10T13:24:51-07:00	2020-06-10T20:49:02+00:00	2020-06-16T06:59:59+00:00	-5	lfzl760bk5t4pjq@marketplace.amazon.com	Kimber	+1 346-307-9643 ext. 76255	ABR0033	Arabella Farm Direct Bouquet of 12 Fresh Cut Orange Roses with a Free Glass Vase	1	0	1	Expedited	Cheryl Tolson c/o Willis Knighton Rehab	1111 LINE AVE			SHREVEPORT	LA	71101-3841	US		Enjoy your gift! I love you Mother From Kimber	false		
114-2105573-4835440	18382386146762	2020-06-10T20:20:25+00:00	2020-06-10T13:20:25-07:00	2020-06-10T20:49:13+00:00	2020-06-16T06:59:59+00:00	-5	f8r4t4gcby3j1wl@marketplace.amazon.com	Elizabeth Blanton	+1 314-282-9402 ext. 81649	ABR0022	Arabella Farm Direct Bouquet of 12 Fresh Cut Pink Roses with a Free Glass Vase	1	0	1	Expedited	Jenna Conners	5729 SUNNY VISTA DR			AUSTIN	TX	78749-4022	US		Sorry we missed your birthday.  Love you! From Elizabeth and Bobby	false		
114-5347965-6677845	50935635216810	2020-06-10T20:24:11+00:00	2020-06-10T13:24:11-07:00	2020-06-10T20:53:12+00:00	2020-06-16T06:59:59+00:00	-5	f8r4t4gcby3j1wl@marketplace.amazon.com	Elizabeth Blanton	+1 346-307-9643 ext. 17701	ABR0022	Arabella Farm Direct Bouquet of 12 Fresh Cut Pink Roses with a Free Glass Vase	1	0	1	Expedited	KT Sluarski	6100 BROWNING DR APT 12207			NORTH RICHLAND HILLS	TX	76180-9077	US		Sorry we missed your birthday!  And  Congrats on your promotion!!  You’ll be awesome! From Elizabeth and Bobby	false		
113-0107015-7393801	43908239983986	2020-06-10T21:50:29+00:00	2020-06-10T14:50:29-07:00	2020-06-10T22:18:58+00:00	2020-06-16T06:59:59+00:00	-5	pvb2vqsv0b9j696@marketplace.amazon.com	Danielle Ortiz	+1 346-307-9643 ext. 03449	ABR0022	Arabella Farm Direct Bouquet of 12 Fresh Cut Pink Roses with a Free Glass Vase	1	0	1	Expedited	Grisel Viveros-Casas	336 E NORMANDY DR			ADDISON	IL	60101-3969	US		I love you guys! Let me know when I can swing by to smother my Nene and squeeze you guys!!! From Ortiz Familia	false		
111-7188190-5661843	60897286108874	2020-06-10T22:26:50+00:00	2020-06-10T15:26:50-07:00	2020-06-10T22:54:52+00:00	2020-06-16T06:59:59+00:00	-5	k48tbwx13b8mg18@marketplace.amazon.com	Marie Sinchak	+1 346-307-9643 ext. 88137	ABR0022	Arabella Farm Direct Bouquet of 12 Fresh Cut Pink Roses with a Free Glass Vase	1	0	1	Expedited	Jared Griffith	2163 CROMWELL RD			CATLETT	VA	20119-2529	US			false		
114-7164689-6615453	02276481935218	2020-06-10T22:37:38+00:00	2020-06-10T15:37:38-07:00	2020-06-10T23:05:35+00:00	2020-06-16T06:59:59+00:00	-5	qrz29fwkh8g9x6j@marketplace.amazon.com	Julie	+1 346-307-9643 ext. 41153	ABR004	Arabella Farm Direct Bouquet of 12 Fresh Cut Yellow Roses with a Free Glass Vase	1	0	1	Expedited	Paige Bartos	909 WOOD AVE			TRAVERSE CITY	MI	49686-3421	US		Paige and Kevin  Sorry you had to postpone your wedding.  Hope these will cheer you up! Lots of love Grams and Gramps From Julie	false		
111-4339646-1525047	33315296897794	2020-06-10T23:08:32+00:00	2020-06-10T16:08:32-07:00	2020-06-10T23:45:40+00:00	2020-06-16T06:59:59+00:00	-5	1q16ldh2164pkjp@marketplace.amazon.com	Ngoc Tran	+1 210-728-4548 ext. 05157	ABR001	Arabella Bouquets 12 Stems of Fresh Cut Red Roses in a Free Designer Glass Vase	1	0	1	Expedited	Matilda Barriga	2732 E STANDISH AVE			ANAHEIM	CA	92806-4349	US		Feel better soon, Matty! Hugs, Ngoc	false		
111-1015259-2409068	65936083500450	2020-06-10T23:40:40+00:00	2020-06-10T16:40:40-07:00	2020-06-10T23:57:35+00:00	2020-06-16T06:59:59+00:00	-5	xm8b0ydpnfbf9rx@marketplace.amazon.com	Scott Svehlak	+1 346-307-9643 ext. 01144	ABM0033	Arabella Farm Direct Bouquet of Fresh Cut White Hydrangea with a Free Glass Vase	1	0	1	Expedited	Jayne Portnoy	1509 WOLLACOTT ST			REDONDO BEACH	CA	90278-2831	US		Something special to brighten your day! Hope your resting and healing🤍... Love Di XO From Diane Svehlak	false		
113-8421810-8329056	70227132932674	2020-06-10T23:48:11+00:00	2020-06-10T16:48:11-07:00	2020-06-11T00:18:12+00:00	2020-06-16T06:59:59+00:00	-5	g1rjbzcnv3015c8@marketplace.amazon.com	Wade	+1 346-307-9643 ext. 19803	ABM010	Arabella Bouquets | Fields of The World Bouquet of Fresh Cut Flowers in a Free Designer Glass Vase	1	0	1	Expedited	Katelyn Brown	829 MARLBORO RD			BRATTLEBORO	VT	05301-9732	US			false		
114-6377598-9081060	42202802444642	2020-06-11T00:41:49+00:00	2020-06-10T17:41:49-07:00	2020-06-11T01:08:40+00:00	2020-06-16T06:59:59+00:00	-5	vj5y8lq4qz0bk4h@marketplace.amazon.com	Jeffrey M. Sendlewski	+1 210-728-4548 ext. 70207	ABR0033	Arabella Farm Direct Bouquet of 12 Fresh Cut Orange Roses with a Free Glass Vase	1	0	1	Expedited	Ron Arpaia	32 MEADOW CIRCLE RD			BRANFORD	CT	06405-3109	US		Ron, our deepest sympathy to you and your family! We love you very much and are with you through this difficult time. Love, Cat and Jeff From Jeffrey M. Sendlewski	false		
111-4429831-4418623	64147746339154	2020-06-11T00:42:10+00:00	2020-06-10T17:42:10-07:00	2020-06-11T01:10:32+00:00	2020-06-16T06:59:59+00:00	-5	qwv14gm91sfs96d@marketplace.amazon.com	Jessica Heitfield	+1 346-307-9643 ext. 16874	ABM010	Arabella Bouquets | Fields of The World Bouquet of Fresh Cut Flowers in a Free Designer Glass Vase	1	0	1	Expedited	Karin Nixon	497 ROSEMARY LN			PURCELLVILLE	VA	20132-3273	US		Karin, You are absolutely incredible!! You have such commitment to our group and you created something truly special to each of us! Thank you so very much =) From Jessica Heitfield	false		
111-5459062-4265858	57892035032434	2020-06-11T00:46:10+00:00	2020-06-10T17:46:10-07:00	2020-06-11T01:11:05+00:00	2020-06-16T06:59:59+00:00	-5	1sq7rvt56slwgm6@marketplace.amazon.com	Desiree Wilbon	+1 346-307-9643 ext. 98603	ABR004	Arabella Farm Direct Bouquet of 12 Fresh Cut Yellow Roses with a Free Glass Vase	1	0	1	Expedited	Beverly Black	1620 N DENAIR AVE			TURLOCK	CA	95382-2509	US		HAPPY HAPPY BIRTHDAY AUNTIE! Niecey proud LOL! Love you From Des	false		
112-5998138-4965835	37771640209578	2020-06-11T00:57:38+00:00	2020-06-10T17:57:38-07:00	2020-06-11T01:23:33+00:00	2020-06-16T06:59:59+00:00	-5	xfmpt0qmr4mznpz@marketplace.amazon.com	Ryshard Marchbanks	+1 314-282-9402 ext. 36544	ABR0022	Arabella Farm Direct Bouquet of 12 Fresh Cut Pink Roses with a Free Glass Vase	1	0	1	Expedited	Ola Marchbanks	7701 WELLINGTON AVE			SAINT LOUIS	MO	63130-1525	US		Happy Birthday Granny! I love you and wish you a beautiful day filled with peace. From Ryshard	false		
113-4867312-4365811	01181721800578	2020-06-11T01:02:30+00:00	2020-06-10T18:02:30-07:00	2020-06-11T01:29:18+00:00	2020-06-16T06:59:59+00:00	-5	8xs7yh2src4d4zb@marketplace.amazon.com	clarence wessman	+1 210-728-4548 ext. 74246	ABM010	Arabella Bouquets | Fields of The World Bouquet of Fresh Cut Flowers in a Free Designer Glass Vase	1	0	1	Expedited	Josie Pavlik	991 LAUREL LN			NEW ALBANY	PA	18833-2702	US		Hi Josie, Enjoy your gift! We are thinking about you! From Donna and Wes	false		
114-5364803-7074639	12137264158162	2020-06-11T01:21:34+00:00	2020-06-10T18:21:34-07:00	2020-06-11T01:48:36+00:00	2020-06-16T06:59:59+00:00	-5	pzkgfbwy8y7tx83@marketplace.amazon.com	Sandra Thompson	+1 210-728-4548 ext. 09534	ABR0022	Arabella Farm Direct Bouquet of 12 Fresh Cut Pink Roses with a Free Glass Vase	1	0	1	Expedited	Shirley Liston	12483 EAGLE DR			BURLINGTON	WA	98233-2795	US		HAPPY BIRTHDAY SHIRLEY!    Hope all is going great for you. We think of you often. Love Sandy & David From Sandra Thompson	false		
112-8851518-1663414	62769568018986	2020-06-11T02:07:07+00:00	2020-06-10T19:07:07-07:00	2020-06-11T02:37:43+00:00	2020-06-16T06:59:59+00:00	-5	gw6rmywq7fh0nkv@marketplace.amazon.com	Saba Shahid	+1 346-307-9643 ext. 70992	ABR0055	Arabella Farm Direct Bouquet of 12 Stems of Fresh Cut Hot Pink Roses in a Free Designer Glass Vase	1	0	1	Expedited	Saba Shahid	3625 S Truckee Way			Aurora	CO	80013	US			false		
112-3683494-9347462	19482558635994	2020-06-11T02:10:57+00:00	2020-06-10T19:10:57-07:00	2020-06-11T02:40:01+00:00	2020-06-16T06:59:59+00:00	-5	szg768pty98vhsj@marketplace.amazon.com	Kenny	+1 346-307-9643 ext. 10889	ABR0055	Arabella Farm Direct Bouquet of 12 Stems of Fresh Cut Hot Pink Roses in a Free Designer Glass Vase	1	0	1	Expedited	Olga Hilss	200 W 67TH ST APT 19B			NEW YORK	NY	10023-0103	US		Hi Olga, Happy Birthday! Love, Kenny	false		
114-6007087-3164250	31680983727890	2020-06-11T02:58:16+00:00	2020-06-10T19:58:16-07:00	2020-06-11T03:23:56+00:00	2020-06-16T06:59:59+00:00	-5	kfvyq5kyh1gph78@marketplace.amazon.com	J Broches	+1 346-307-9643 ext. 03969	ABM010	Arabella Bouquets | Fields of The World Bouquet of Fresh Cut Flowers in a Free Designer Glass Vase	1	0	1	Expedited	J Broches	328 W Colorado St			Arcadia	California	91007	US		Congratulations Stacy and George love your Koumbaro From J Broches	false		
113-6257524-4841005	06798381685522	2020-06-11T04:25:39+00:00	2020-06-10T21:25:39-07:00	2020-06-11T04:51:14+00:00	2020-06-16T06:59:59+00:00	-5	yx4thbndjmnzj3t@marketplace.amazon.com	Maryann Hanrahan	+1 346-307-9643 ext. 23235	ABR013	Arabella Farm Direct Bouquet of 18 Fresh Cut Yellow Roses with a Free Glass Vase	1	0	1	Expedited	Carole Rossi	9370 WINDSOR LAKE BLVD APT 214			COLUMBIA	SC	29223-1106	US		To Carole. Love Never Ends!   From Peter (in heaven) From Peter Rossi	false		
113-0861934-1493040	55309552410842	2020-06-11T04:28:47+00:00	2020-06-10T21:28:47-07:00	2020-06-11T04:56:49+00:00	2020-06-16T06:59:59+00:00	-5	rt16fnzyjq0j94k@marketplace.amazon.com	Luanne Admire	+1 210-728-4548 ext. 57806	ABR012	Arabella Farm Direct Bouquet of 18 Fresh Cut Pink Roses with a Free Glass Vase	1	0	1	Expedited	Helen Sneary	1248 DONALD WAY			ESCONDIDO	CA	92027-1502	US		Happy Birthday, Mom and Grandma!  We love you so so much and we hope you like the flowers! From Rob, Lu, Kate, Shannon and Jon	false		
112-7897549-6746659	22667888982074	2020-06-11T04:43:37+00:00	2020-06-10T21:43:37-07:00	2020-06-11T05:14:25+00:00	2020-06-16T06:59:59+00:00	-5	j44c1xxr11jmg7p@marketplace.amazon.com	Jessica Schulze	+1 210-728-4548 ext. 76268	ABR015	Arabella Farm Direct Bouquet of 18 Fresh Cut Orange Roses with a Free Glass Vase	1	0	1	Expedited	Jess Schulze	6138 STRAWBERRY CIR			COMMERCE TOWNSHIP	MI	48382-5511	US			false		
112-8112582-6957039	00534321047242	2020-06-11T04:45:09+00:00	2020-06-10T21:45:09-07:00	2020-06-11T05:15:46+00:00	2020-06-16T06:59:59+00:00	-5	qjsnnm5vm46qs7b@marketplace.amazon.com	jason melcher	+1 314-282-9402 ext. 22962	ABR0022	Arabella Farm Direct Bouquet of 12 Fresh Cut Pink Roses with a Free Glass Vase	1	0	1	Expedited	Snow	1538 SALLAL RD			WOODBURN	OR	97071-2520	US			false		
112-8619983-6385011	45192413988170	2020-06-11T04:46:04+00:00	2020-06-10T21:46:04-07:00	2020-06-11T05:16:31+00:00	2020-06-16T06:59:59+00:00	-5	qjsnnm5vm46qs7b@marketplace.amazon.com	jason melcher	+1 210-728-4548 ext. 80367	ABR0022	Arabella Farm Direct Bouquet of 12 Fresh Cut Pink Roses with a Free Glass Vase	1	0	1	Expedited	Snow	1538 SALLAL RD			WOODBURN	OR	97071-2520	US			false		
111-8422596-6921042	39521873168290	2020-06-11T05:20:13+00:00	2020-06-10T22:20:13-07:00	2020-06-11T05:50:55+00:00	2020-06-16T06:59:59+00:00	-5	2gd0mqg12ngk616@marketplace.amazon.com	Sean Damon	+1 210-728-4548 ext. 07682	ABR0022	Arabella Farm Direct Bouquet of 12 Fresh Cut Pink Roses with a Free Glass Vase	1	0	1	Expedited	Sean Damon	19524 BING RD			LYNNWOOD	WA	98036-7116	US			false		
111-9923732-1214620	57480149982338	2020-06-11T05:33:36+00:00	2020-06-10T22:33:36-07:00	2020-06-11T06:03:10+00:00	2020-06-13T06:59:59+00:00	-2	30bjsz0vcsndhs9@marketplace.amazon.com	Erin Olivari	+1 210-728-4548 ext. 84017	ABR014	Arabella Bouquets 18 Stems of Fresh Cut White Roses in a Free Designer Glass Vase	1	0	1	Expedited	Debbie Davis	71706 TUTUILLA CREEK RD			PENDLETON	OR	97801-9010	US			false		
112-4691500-0369026	54376733101386	2020-06-11T06:28:57+00:00	2020-06-10T23:28:57-07:00	2020-06-11T06:46:37+00:00	2020-06-16T06:59:59+00:00	-5	qlyw1fhzwkxfb40@marketplace.amazon.com	Anne E. Chamberlain	+1 346-307-9643 ext. 38765	ABM010	Arabella Bouquets | Fields of The World Bouquet of Fresh Cut Flowers in a Free Designer Glass Vase	1	0	1	Expedited	Jalle Gabesa	12718 LAKE CITY WAY NE APT C111			SEATTLE	WA	98125-4466	US		You make this world a better place. Thank you for being my friend. From Annie Chamberlain	false		
112-5726772-1161848	03816243240226	2020-06-11T06:52:58+00:00	2020-06-10T23:52:58-07:00	2020-06-11T07:18:59+00:00	2020-06-16T06:59:59+00:00	-5	81z6zfx1xn667vx@marketplace.amazon.com	James Safranek	+1 346-307-9643 ext. 79032	ABM0044	Arabella Farm Direct Bouquet of Fresh Cut Blue Hydrangea with a Free Glass Vase	1	0	1	Expedited	Justin, Cathy and Cameron Mummert Russell	2324 W STUBBS ST			EDINBURG	TX	78539-4102	US			false		
111-8604341-8986612	00049824034914	2020-06-11T10:03:06+00:00	2020-06-11T03:03:06-07:00	2020-06-11T10:33:08+00:00	2020-06-17T06:59:59+00:00	-6	5v7lmsbvwqqgysy@marketplace.amazon.com	Reggie	+1 346-307-9643 ext. 85279	ABR0022	Arabella Farm Direct Bouquet of 12 Fresh Cut Pink Roses with a Free Glass Vase	1	0	1	Expedited	Loretta McFarlane	18523 GALWAY AVE			SAINT ALBANS	NY	11412-1919	US			false		
111-3055150-7745004	15719932834842	2020-06-11T13:04:40+00:00	2020-06-11T06:04:40-07:00	2020-06-11T13:33:07+00:00	2020-06-16T06:59:59+00:00	-5	1sbrjn0hxnf7z0g@marketplace.amazon.com	RAN SHEN	+1 346-307-9643 ext. 80605	ABR0066	Arabella Bouquets 18 Stems of Fresh Cut White Roses in a Free Designer Glass Vase	1	0	1	Expedited	Bernadine Kirkland	5 BOWDOIN AVE			DORCHESTER	MA	02121-3901	US			false		
114-0663649-8681839	19771236944458	2020-06-11T13:23:42+00:00	2020-06-11T06:23:42-07:00	2020-06-11T13:51:56+00:00	2020-06-17T06:59:59+00:00	-6	l6jf1psw58blt95@marketplace.amazon.com	Corey Allen	+1 210-728-4548 ext. 76180	ABR0022	Arabella Farm Direct Bouquet of 12 Fresh Cut Pink Roses with a Free Glass Vase	1	0	1	Expedited	Corey Allen	622 COLUMBIA RD APT 3			BOSTON	MA	02125-3438	US			false		
111-7804292-1129038	44428059664794	2020-06-11T13:45:18+00:00	2020-06-11T06:45:18-07:00	2020-06-11T14:13:37+00:00	2020-06-17T06:59:59+00:00	-6	hrzr8vl4c40tfmm@marketplace.amazon.com	travis borgialli	+1 346-307-9643 ext. 61732	ABR0022	Arabella Farm Direct Bouquet of 12 Fresh Cut Pink Roses with a Free Glass Vase	1	0	1	Expedited	Diana borgialli	275 E KEAYS ST			BUFFALO	WY	82834-1911	US		Dear Grandma Sue,  We love you and we are thinking of you. Wish we could be there in person.  - One day at a time. From Travis and Family	false		
113-9307731-2644225	33289190786050	2020-06-11T13:48:35+00:00	2020-06-11T06:48:35-07:00	2020-06-11T14:15:18+00:00	2020-06-17T06:59:59+00:00	-6	9g5mxv894b0983y@marketplace.amazon.com	Mrs Clare Eckersley	+1 346-307-9643 ext. 37582	ABR0022	Arabella Farm Direct Bouquet of 12 Fresh Cut Pink Roses with a Free Glass Vase	1	0	1	Expedited	Barbara Degreve	35481 MERIDIA AVE			PALM DESERT	CA	92211-3702	US		Happy birthday  have a lovely day  Love Rachael Zoe Clare and family xxx From Mrs Clare Eckersley	false		
111-0688648-8657830	29522744788554	2020-06-11T13:59:35+00:00	2020-06-11T06:59:35-07:00	2020-06-11T14:26:45+00:00	2020-06-17T06:59:59+00:00	-6	dc2bcl92kg50tq9@marketplace.amazon.com	Nick Della Valle	+1 210-728-4548 ext. 03685	ABM010	Arabella Bouquets | Fields of The World Bouquet of Fresh Cut Flowers in a Free Designer Glass Vase	1	0	1	Expedited	Valerie Della Valle	3022 W REDWOOD LN			PHOENIX	AZ	85045-2253	US		We figured Chris got the drugs..... you should get the flowers! We appreciate you taking care of this guy!  Love & Blessing.....Nick & Lucy	false		
111-6020835-1833013	23215905552474	2020-06-11T14:23:36+00:00	2020-06-11T07:23:36-07:00	2020-06-11T14:43:09+00:00	2020-06-17T06:59:59+00:00	-6	6r2php9vn7rmcp7@marketplace.amazon.com	Sabrina Zimmerman	+1 314-282-9402 ext. 74600	ABM010	Arabella Bouquets | Fields of The World Bouquet of Fresh Cut Flowers in a Free Designer Glass Vase	1	0	1	Expedited	Colleen Pierce	111 WINTER ST			NORWOOD	MA	02062-2048	US		We have had an incredibly dynamic year as a team and we have done some great work. I want to thank you for the role you have played in making us stronger and your leadership in moving us forward with excellence. From Sabrina	false		
111-2286196-4729005	66994187465082	2020-06-11T14:26:02+00:00	2020-06-11T07:26:02-07:00	2020-06-11T14:55:28+00:00	2020-06-17T06:59:59+00:00	-6	6r2php9vn7rmcp7@marketplace.amazon.com	Sabrina Zimmerman	+1 210-728-4548 ext. 35481	ABM010	Arabella Bouquets | Fields of The World Bouquet of Fresh Cut Flowers in a Free Designer Glass Vase	1	0	1	Expedited	Elisabeth Vivaldi	81 BEAUFORT AVE			NEEDHAM	MA	02492-3803	US		We have had an incredibly dynamic year as a team and we have done some great work. I want to thank you for the role you have played in making us stronger and your leadership in moving us forward with excellence. From Sabrina	false		
112-1855060-2213869	54702838664370	2020-06-11T14:34:04+00:00	2020-06-11T07:34:04-07:00	2020-06-11T15:03:42+00:00	2020-06-17T06:59:59+00:00	-6	mnygnzdphwxvpwt@marketplace.amazon.com	Sheila Tuck	+1 314-282-9402 ext. 20727	ABR0033	Arabella Farm Direct Bouquet of 12 Fresh Cut Orange Roses with a Free Glass Vase	1	0	1	Expedited	Mary Neal	1000 LINWOOD AVE			COLUMBUS	OH	43206-1672	US		Enjoy your gift! Happy Birthday Mom From Love you  Kim	false		
114-5601765-6053827	32883110463514	2020-06-11T14:53:07+00:00	2020-06-11T07:53:07-07:00	2020-06-11T15:20:50+00:00	2020-06-17T06:59:59+00:00	-6	8s099d8w8mcvrj3@marketplace.amazon.com	Michael Felter	+1 210-728-4548 ext. 72279	ABR0022	Arabella Farm Direct Bouquet of 12 Fresh Cut Pink Roses with a Free Glass Vase	1	0	1	Expedited	Michael Felter	229 WALNUT ST			MOOSIC	PA	18507-1167	US		Happy Birthday! Love, Michael From Michael Felter	false		
114-5418423-9883464	38041129489586	2020-06-11T15:11:00+00:00	2020-06-11T08:11:00-07:00	2020-06-11T15:30:10+00:00	2020-06-17T06:59:59+00:00	-6	46h5vxt6ssqvbw8@marketplace.amazon.com	Elizabeth Harmon	+1 346-307-9643 ext. 44182	ABR0055	Arabella Farm Direct Bouquet of 12 Stems of Fresh Cut Hot Pink Roses in a Free Designer Glass Vase	1	0	1	Expedited	Penelope Davis	112 CIMARRON DR			SPRING LAKE	NC	28390-9127	US			false		
112-2335534-6859402	66637553277082	2020-06-11T15:13:34+00:00	2020-06-11T08:13:34-07:00	2020-06-11T15:42:53+00:00	2020-06-17T06:59:59+00:00	-6	xfwv8nvr7psncxg@marketplace.amazon.com	JOSEPH MCMILLAN	+1 346-307-9643 ext. 24363	ABR0055	Arabella Farm Direct Bouquet of 12 Stems of Fresh Cut Hot Pink Roses in a Free Designer Glass Vase	1	0	1	Expedited	Rosalene Valentine	15045 STAGEHAND DR			SAN ANTONIO	TX	78245-4760	US			false		
111-5855247-4689022	36618680119826	2020-06-11T15:40:09+00:00	2020-06-11T08:40:09-07:00	2020-06-11T15:52:52+00:00	2020-06-17T06:59:59+00:00	-6	2nkq402qkx01hrq@marketplace.amazon.com	Suzanne Armatas	+1 346-307-9643 ext. 07771	ABM010	Arabella Bouquets | Fields of The World Bouquet of Fresh Cut Flowers in a Free Designer Glass Vase	1	0	1	Expedited	Kim Levin	19742 QUIET BAY LN			HUNTINGTON BEACH	CA	92648-2634	US		Hang in there my friend! I am thinking of you and keeping you in my thoughts and prayers. xoxo, Suzanne From Suzanne Armatas Dickson	false		
111-1831189-4985811	55576945118466	2020-06-11T15:30:29+00:00	2020-06-11T08:30:29-07:00	2020-06-11T15:59:16+00:00	2020-06-17T06:59:59+00:00	-6	txmrt3mczhfctyd@marketplace.amazon.com	Margaret H. Bass	+1 346-307-9643 ext. 47026	ABR0022	Arabella Farm Direct Bouquet of 12 Fresh Cut Pink Roses with a Free Glass Vase	1	0	1	Expedited	Leslie Huntley	1807 COUNTRY CLUB DR			HIGH POINT	NC	27262-4584	US		Happy birthday to the best aunt ever! From Huntley, Kris, McEwen and Pinckney	false		
111-8667156-1637050	29486928394506	2020-06-11T16:04:24+00:00	2020-06-11T09:04:24-07:00	2020-06-11T16:05:15+00:00	2020-06-17T06:59:59+00:00	-6	6r2php9vn7rmcp7@marketplace.amazon.com	Sabrina Zimmerman	+1 314-282-9402 ext. 53110	ABM010	Arabella Bouquets | Fields of The World Bouquet of Fresh Cut Flowers in a Free Designer Glass Vase	1	0	1	Expedited	Julia Koehler	1231 ARBORETUM WAY			BURLINGTON	MA	01803-3838	US		We have had an incredibly dynamic year as a team and we have done some great work. I want to thank you for the role you have played in making us stronger and your leadership in moving us forward with excellence. From Sabrina	false		
111-6510079-8853058	14099209592242	2020-06-11T15:49:01+00:00	2020-06-11T08:49:01-07:00	2020-06-11T16:16:57+00:00	2020-06-17T06:59:59+00:00	-6	x0qxqjcww8qgztb@marketplace.amazon.com	Jillian	+1 346-307-9643 ext. 75018	ABR0055	Arabella Farm Direct Bouquet of 12 Stems of Fresh Cut Hot Pink Roses in a Free Designer Glass Vase	1	0	1	Expedited	Lynn singer	9160 E DESERT COVE AVE UNIT 216			SCOTTSDALE	AZ	85260-6202	US		Happy Birthday Gram! Sending lots of love From Nathan, Jillian, Bryn & Brie	false		
114-3021685-1169006	47935408083082	2020-06-11T16:12:07+00:00	2020-06-11T09:12:07-07:00	2020-06-11T16:40:33+00:00	2020-06-17T06:59:59+00:00	-6	n9rrkznd9vpfb9r@marketplace.amazon.com	Hasan Tariq	+1 210-728-4548 ext. 79738	ABR0022	Arabella Farm Direct Bouquet of 12 Fresh Cut Pink Roses with a Free Glass Vase	1	0	1	Expedited	Lauretta	1019 RIPLEY AVE			WESTFIELD	NJ	07090-1643	US		This gift is has two parts this only part 1, part 2 of this gift is located at 605 Morris Avenue Elizabeth, please drive safe to it, and above all be safe, thank you for being the best Professor ever From Students who love you	false		
111-4110715-4546620	48994249619954	2020-06-11T16:15:58+00:00	2020-06-11T09:15:58-07:00	2020-06-11T16:43:34+00:00	2020-06-16T06:59:59+00:00	-5	z1sphg20j9rhfvx@marketplace.amazon.com	Carolyn Matinzi	+1 346-307-9643 ext. 49697	ABR0066	Arabella Bouquets 18 Stems of Fresh Cut White Roses in a Free Designer Glass Vase	1	0	1	Expedited	Mary Towns	83 BRADSTREETE XING			PLYMOUTH	MA	02360-8814	US			false		
114-5254160-0797801	36086388115250	2020-06-11T16:28:04+00:00	2020-06-11T09:28:04-07:00	2020-06-11T16:55:19+00:00	2020-06-17T06:59:59+00:00	-6	dkm5hbf2f5w7j9d@marketplace.amazon.com	Dorothy Baker	+1 346-307-9643 ext. 97160	ABR004	Arabella Farm Direct Bouquet of 12 Fresh Cut Yellow Roses with a Free Glass Vase	1	0	1	Expedited	Azizi  Baker	65 Addison Place Unit C			Clifton	New Jersey	07012	US		Congratulations Ms Baker,MPA. What an outstanding job ,so proud of you ❤️ From Dorothy Baker	false		
114-1121010-3457065	09561454253914	2020-06-11T16:56:26+00:00	2020-06-11T09:56:26-07:00	2020-06-11T17:26:03+00:00	2020-06-17T06:59:59+00:00	-6	8x56dmr68y804g9@marketplace.amazon.com	michelle lee	+1 346-307-9643 ext. 72520	ABR0022	Arabella Farm Direct Bouquet of 12 Fresh Cut Pink Roses with a Free Glass Vase	1	0	1	Expedited	Lekita Holmes	4203 WINSLOW LN			AUGUSTA	GA	30906-9265	US		Hi Lekita, We all hope you are feeling better! Love, Michelle, Karen, Lisa, Erin, Penny, Kellie, Natalie, and Janice.	false		
114-6192772-9343458	27297967251914	2020-06-11T17:08:18+00:00	2020-06-11T10:08:18-07:00	2020-06-11T17:38:56+00:00	2020-06-17T06:59:59+00:00	-6	f3p1yrr1b6vhlbn@marketplace.amazon.com	Richard Ferrill	+1 210-728-4548 ext. 52473	ABR001	Arabella Bouquets 12 Stems of Fresh Cut Red Roses in a Free Designer Glass Vase	1	0	1	Expedited	Richard Ferrill	77 Deer Track Drive			Taunton	MA	02780	US			false		
112-3509240-1091438	66766020717026	2020-06-11T17:31:13+00:00	2020-06-11T10:31:13-07:00	2020-06-11T17:51:05+00:00	2020-06-17T06:59:59+00:00	-6	f268tdn1d32ljsv@marketplace.amazon.com	Linda Parker	+1 314-282-9402 ext. 53746	ABSR005	Arabella Bouquets | Fresh Cut Orange Spray Roses in a Free Designer Glass Vase	1	0	1	Expedited	Denise Parker	5611 SHADOW LN			BLOOMFIELD HILLS	MI	48302-4049	US			false		
114-4691247-3266622	00649811007370	2020-06-11T18:10:50+00:00	2020-06-11T11:10:50-07:00	2020-06-11T18:13:41+00:00	2020-06-13T06:59:59+00:00	-2	r20n3r236kxv8hj@marketplace.amazon.com	Vivian L. Patten	+1 314-282-9402 ext. 60082	ABR0022	Arabella Farm Direct Bouquet of 12 Fresh Cut Pink Roses with a Free Glass Vase	1	0	1	NextDay	Tessa Schlatter	1855 S PITKIN AVE			SUPERIOR	CO	80027-8286	US		Happy birthday, Tessa!!!! Have a beautiful day:) We love you, From Aunt Viv & Uncle Gary From Aunt Viv & Uncle Gary	false		
113-9057849-0278605	61210456538562	2020-06-11T18:24:11+00:00	2020-06-11T11:24:11-07:00	2020-06-11T18:29:17+00:00	2020-06-13T06:59:59+00:00	-2	50wvtctk937jf4k@marketplace.amazon.com	Rory	+1 210-728-4548 ext. 04132	ABR0055	Arabella Farm Direct Bouquet of 12 Stems of Fresh Cut Hot Pink Roses in a Free Designer Glass Vase	1	0	1	NextDay	Rory Adams	BLACK BRIER SECURITY CONSULTANCY	3104 MEAD HILL RD		NEWMARKET	NH	03857-2329	US			false		
