order-id	order-item-id	purchase-date	payments-date	reporting-date	promise-date	days-past-promise	buyer-email	buyer-name	buyer-phone-number	sku	product-name	quantity-purchased	quantity-shipped	quantity-to-ship	ship-service-level	recipient-name	ship-address-1	ship-address-2	ship-address-3	ship-city	ship-state	ship-postal-code	ship-country	gift-wrap-type	gift-message-text	is-business-order	purchase-order-number	price-designation
111-8392576-8562615	39491254217810	2020-06-10T17:44:19+00:00	2020-06-10T10:44:19-07:00	2020-06-10T18:12:59+00:00	2020-06-16T06:59:59+00:00	-4	l0fssmx300b6whf@marketplace.amazon.com	REBECCA J CLARKBASH	+1 346-307-9643 ext. 91375	ABM010	Arabella Bouquets | Fields of The World Bouquet of Fresh Cut Flowers in a Free Designer Glass Vase	1	0	1	Expedited	CLARISSA GALE	150 FALLEN ASH DR			GRANVILLE	OH	43023-8041	US		Big Hugs from Ya Ya's.  We love and appreciate everything you do!  Cindy Jenkinson Rebecca Clark-Bash From REBECCA J CLARKBASH & Cinsy Jenkinson	false		
111-4894310-1597000	33490231588042	2020-06-10T18:43:57+00:00	2020-06-10T11:43:57-07:00	2020-06-10T19:03:07+00:00	2020-06-16T06:59:59+00:00	-4	yzvdz6scnbqrdck@marketplace.amazon.com	Ann creasey	+1 346-307-9643 ext. 53214	ABM010	Arabella Bouquets | Fields of The World Bouquet of Fresh Cut Flowers in a Free Designer Glass Vase	1	0	1	Expedited	Ever hexamer4	4683 BERWYN LN			MACUNGIE	PA	18062-8255	US			false		
113-3302059-8464203	57481109990058	2020-06-10T18:52:39+00:00	2020-06-10T11:52:39-07:00	2020-06-10T19:20:26+00:00	2020-06-16T06:59:59+00:00	-4	9b624t2s0fv1vty@marketplace.amazon.com	Roni stern	+1 346-307-9643 ext. 82090	ABR0022	Arabella Farm Direct Bouquet of 12 Fresh Cut Pink Roses with a Free Glass Vase	1	0	1	Expedited	Phyllis Grinspan	25 WOODHAVEN DR			SIMSBURY	CT	06070-2642	US			false		
114-4900707-4468233	48127163000050	2020-06-10T19:31:23+00:00	2020-06-10T12:31:23-07:00	2020-06-10T19:53:26+00:00	2020-06-13T06:59:59+00:00	-1	q3433mgqdc92rb8@marketplace.amazon.com	Virginia MacDonald	+1 346-307-9643 ext. 63231	ABR0066	Arabella Bouquets 18 Stems of Fresh Cut White Roses in a Free Designer Glass Vase	1	0	1	Expedited	Mrs. Jeffrey Orr	4583 TUSCANI DR			CYPRESS	CA	90630-6813	US			false		
111-8321992-9567428	00502031594034	2020-06-10T19:27:28+00:00	2020-06-10T12:27:28-07:00	2020-06-10T19:55:55+00:00	2020-06-16T06:59:59+00:00	-4	365qrwzctjprb5k@marketplace.amazon.com	Maria Krisch	+1 210-728-4548 ext. 63181	ABR0055	Arabella Farm Direct Bouquet of 12 Stems of Fresh Cut Hot Pink Roses in a Free Designer Glass Vase	1	0	1	Expedited	Rosemarie Krisch	255 E MAIN ST RM 612			MOORESTOWN	NJ	08057-2982	US			false		
114-9899928-5256217	05946266917050	2020-06-10T19:44:39+00:00	2020-06-10T12:44:39-07:00	2020-06-10T20:09:06+00:00	2020-06-16T06:59:59+00:00	-4	s7rmrgn7wpppjt4@marketplace.amazon.com	Emily-Corinne Kacergis	+1 210-728-4548 ext. 59496	ABR0055	Arabella Farm Direct Bouquet of 12 Stems of Fresh Cut Hot Pink Roses in a Free Designer Glass Vase	1	0	1	Expedited	Nicole Mueller	623 ANDERSON CIR APT 205			DEERFIELD BEACH	FL	33441-7752	US		Nicole, Sending you some sunshine and love. We continue to think about you and your family as you grieve the loss of your Dad.  Cherish your sweet little man and take care of each other. We love you and hope to see you soon. Love, Cory and Joe	false		
111-8637714-7176206	42036222790258	2020-06-10T19:48:40+00:00	2020-06-10T12:48:40-07:00	2020-06-10T20:18:58+00:00	2020-06-16T06:59:59+00:00	-4	1j94zddxjpx1yw5@marketplace.amazon.com	Lauren Shein	+1 346-307-9643 ext. 42971	ABR0022	Arabella Farm Direct Bouquet of 12 Fresh Cut Pink Roses with a Free Glass Vase	1	0	1	Expedited	Mrs Lauren  Shein	500 COLGATE WAY			SAN MATEO	CA	94402-3206	US			false		
114-3716893-8429046	63565205714434	2020-06-10T20:24:51+00:00	2020-06-10T13:24:51-07:00	2020-06-10T20:49:02+00:00	2020-06-16T06:59:59+00:00	-4	lfzl760bk5t4pjq@marketplace.amazon.com	Kimber	+1 346-307-9643 ext. 76255	ABR0033	Arabella Farm Direct Bouquet of 12 Fresh Cut Orange Roses with a Free Glass Vase	1	0	1	Expedited	Cheryl Tolson c/o Willis Knighton Rehab	1111 LINE AVE			SHREVEPORT	LA	71101-3841	US		Enjoy your gift! I love you Mother From Kimber	false		
114-2105573-4835440	18382386146762	2020-06-10T20:20:25+00:00	2020-06-10T13:20:25-07:00	2020-06-10T20:49:13+00:00	2020-06-16T06:59:59+00:00	-4	f8r4t4gcby3j1wl@marketplace.amazon.com	Elizabeth Blanton	+1 314-282-9402 ext. 81649	ABR0022	Arabella Farm Direct Bouquet of 12 Fresh Cut Pink Roses with a Free Glass Vase	1	0	1	Expedited	Jenna Conners	5729 SUNNY VISTA DR			AUSTIN	TX	78749-4022	US		Sorry we missed your birthday.  Love you! From Elizabeth and Bobby	false		
114-5347965-6677845	50935635216810	2020-06-10T20:24:11+00:00	2020-06-10T13:24:11-07:00	2020-06-10T20:53:12+00:00	2020-06-16T06:59:59+00:00	-4	f8r4t4gcby3j1wl@marketplace.amazon.com	Elizabeth Blanton	+1 346-307-9643 ext. 17701	ABR0022	Arabella Farm Direct Bouquet of 12 Fresh Cut Pink Roses with a Free Glass Vase	1	0	1	Expedited	KT Sluarski	6100 BROWNING DR APT 12207			NORTH RICHLAND HILLS	TX	76180-9077	US		Sorry we missed your birthday!  And  Congrats on your promotion!!  You’ll be awesome! From Elizabeth and Bobby	false		
113-0107015-7393801	43908239983986	2020-06-10T21:50:29+00:00	2020-06-10T14:50:29-07:00	2020-06-10T22:18:58+00:00	2020-06-16T06:59:59+00:00	-4	pvb2vqsv0b9j696@marketplace.amazon.com	Danielle Ortiz	+1 346-307-9643 ext. 03449	ABR0022	Arabella Farm Direct Bouquet of 12 Fresh Cut Pink Roses with a Free Glass Vase	1	0	1	Expedited	Grisel Viveros-Casas	336 E NORMANDY DR			ADDISON	IL	60101-3969	US		I love you guys! Let me know when I can swing by to smother my Nene and squeeze you guys!!! From Ortiz Familia	false		
111-7188190-5661843	60897286108874	2020-06-10T22:26:50+00:00	2020-06-10T15:26:50-07:00	2020-06-10T22:54:52+00:00	2020-06-16T06:59:59+00:00	-4	k48tbwx13b8mg18@marketplace.amazon.com	Marie Sinchak	+1 346-307-9643 ext. 88137	ABR0022	Arabella Farm Direct Bouquet of 12 Fresh Cut Pink Roses with a Free Glass Vase	1	0	1	Expedited	Jared Griffith	2163 CROMWELL RD			CATLETT	VA	20119-2529	US			false		
114-7164689-6615453	02276481935218	2020-06-10T22:37:38+00:00	2020-06-10T15:37:38-07:00	2020-06-10T23:05:35+00:00	2020-06-16T06:59:59+00:00	-4	qrz29fwkh8g9x6j@marketplace.amazon.com	Julie	+1 346-307-9643 ext. 41153	ABR004	Arabella Farm Direct Bouquet of 12 Fresh Cut Yellow Roses with a Free Glass Vase	1	0	1	Expedited	Paige Bartos	909 WOOD AVE			TRAVERSE CITY	MI	49686-3421	US		Paige and Kevin  Sorry you had to postpone your wedding.  Hope these will cheer you up! Lots of love Grams and Gramps From Julie	false		
111-4339646-1525047	33315296897794	2020-06-10T23:08:32+00:00	2020-06-10T16:08:32-07:00	2020-06-10T23:45:40+00:00	2020-06-16T06:59:59+00:00	-4	1q16ldh2164pkjp@marketplace.amazon.com	Ngoc Tran	+1 210-728-4548 ext. 05157	ABR001	Arabella Bouquets 12 Stems of Fresh Cut Red Roses in a Free Designer Glass Vase	1	0	1	Expedited	Matilda Barriga	2732 E STANDISH AVE			ANAHEIM	CA	92806-4349	US		Feel better soon, Matty! Hugs, Ngoc	false		
111-1015259-2409068	65936083500450	2020-06-10T23:40:40+00:00	2020-06-10T16:40:40-07:00	2020-06-10T23:57:35+00:00	2020-06-16T06:59:59+00:00	-4	xm8b0ydpnfbf9rx@marketplace.amazon.com	Scott Svehlak	+1 346-307-9643 ext. 01144	ABM0033	Arabella Farm Direct Bouquet of Fresh Cut White Hydrangea with a Free Glass Vase	1	0	1	Expedited	Jayne Portnoy	1509 WOLLACOTT ST			REDONDO BEACH	CA	90278-2831	US		Something special to brighten your day! Hope your resting and healing🤍... Love Di XO From Diane Svehlak	false		
113-8421810-8329056	70227132932674	2020-06-10T23:48:11+00:00	2020-06-10T16:48:11-07:00	2020-06-11T00:18:12+00:00	2020-06-16T06:59:59+00:00	-4	g1rjbzcnv3015c8@marketplace.amazon.com	Wade	+1 346-307-9643 ext. 19803	ABM010	Arabella Bouquets | Fields of The World Bouquet of Fresh Cut Flowers in a Free Designer Glass Vase	1	0	1	Expedited	Katelyn Brown	829 MARLBORO RD			BRATTLEBORO	VT	05301-9732	US			false		
114-6377598-9081060	42202802444642	2020-06-11T00:41:49+00:00	2020-06-10T17:41:49-07:00	2020-06-11T01:08:40+00:00	2020-06-16T06:59:59+00:00	-4	vj5y8lq4qz0bk4h@marketplace.amazon.com	Jeffrey M. Sendlewski	+1 210-728-4548 ext. 70207	ABR0033	Arabella Farm Direct Bouquet of 12 Fresh Cut Orange Roses with a Free Glass Vase	1	0	1	Expedited	Ron Arpaia	32 MEADOW CIRCLE RD			BRANFORD	CT	06405-3109	US		Ron, our deepest sympathy to you and your family! We love you very much and are with you through this difficult time. Love, Cat and Jeff From Jeffrey M. Sendlewski	false		
111-4429831-4418623	64147746339154	2020-06-11T00:42:10+00:00	2020-06-10T17:42:10-07:00	2020-06-11T01:10:32+00:00	2020-06-16T06:59:59+00:00	-4	qwv14gm91sfs96d@marketplace.amazon.com	Jessica Heitfield	+1 346-307-9643 ext. 16874	ABM010	Arabella Bouquets | Fields of The World Bouquet of Fresh Cut Flowers in a Free Designer Glass Vase	1	0	1	Expedited	Karin Nixon	497 ROSEMARY LN			PURCELLVILLE	VA	20132-3273	US		Karin, You are absolutely incredible!! You have such commitment to our group and you created something truly special to each of us! Thank you so very much =) From Jessica Heitfield	false		
111-5459062-4265858	57892035032434	2020-06-11T00:46:10+00:00	2020-06-10T17:46:10-07:00	2020-06-11T01:11:05+00:00	2020-06-16T06:59:59+00:00	-4	1sq7rvt56slwgm6@marketplace.amazon.com	Desiree Wilbon	+1 346-307-9643 ext. 98603	ABR004	Arabella Farm Direct Bouquet of 12 Fresh Cut Yellow Roses with a Free Glass Vase	1	0	1	Expedited	Beverly Black	1620 N DENAIR AVE			TURLOCK	CA	95382-2509	US		HAPPY HAPPY BIRTHDAY AUNTIE! Niecey proud LOL! Love you From Des	false		
112-5998138-4965835	37771640209578	2020-06-11T00:57:38+00:00	2020-06-10T17:57:38-07:00	2020-06-11T01:23:33+00:00	2020-06-16T06:59:59+00:00	-4	xfmpt0qmr4mznpz@marketplace.amazon.com	Ryshard Marchbanks	+1 314-282-9402 ext. 36544	ABR0022	Arabella Farm Direct Bouquet of 12 Fresh Cut Pink Roses with a Free Glass Vase	1	0	1	Expedited	Ola Marchbanks	7701 WELLINGTON AVE			SAINT LOUIS	MO	63130-1525	US		Happy Birthday Granny! I love you and wish you a beautiful day filled with peace. From Ryshard	false		
113-4867312-4365811	01181721800578	2020-06-11T01:02:30+00:00	2020-06-10T18:02:30-07:00	2020-06-11T01:29:18+00:00	2020-06-16T06:59:59+00:00	-4	8xs7yh2src4d4zb@marketplace.amazon.com	clarence wessman	+1 210-728-4548 ext. 74246	ABM010	Arabella Bouquets | Fields of The World Bouquet of Fresh Cut Flowers in a Free Designer Glass Vase	1	0	1	Expedited	Josie Pavlik	991 LAUREL LN			NEW ALBANY	PA	18833-2702	US		Hi Josie, Enjoy your gift! We are thinking about you! From Donna and Wes	false		
114-5364803-7074639	12137264158162	2020-06-11T01:21:34+00:00	2020-06-10T18:21:34-07:00	2020-06-11T01:48:36+00:00	2020-06-16T06:59:59+00:00	-4	pzkgfbwy8y7tx83@marketplace.amazon.com	Sandra Thompson	+1 210-728-4548 ext. 09534	ABR0022	Arabella Farm Direct Bouquet of 12 Fresh Cut Pink Roses with a Free Glass Vase	1	0	1	Expedited	Shirley Liston	12483 EAGLE DR			BURLINGTON	WA	98233-2795	US		HAPPY BIRTHDAY SHIRLEY!    Hope all is going great for you. We think of you often. Love Sandy & David From Sandra Thompson	false		
112-8851518-1663414	62769568018986	2020-06-11T02:07:07+00:00	2020-06-10T19:07:07-07:00	2020-06-11T02:37:43+00:00	2020-06-16T06:59:59+00:00	-4	gw6rmywq7fh0nkv@marketplace.amazon.com	Saba Shahid	+1 346-307-9643 ext. 70992	ABR0055	Arabella Farm Direct Bouquet of 12 Stems of Fresh Cut Hot Pink Roses in a Free Designer Glass Vase	1	0	1	Expedited	Saba Shahid	3625 S Truckee Way			Aurora	CO	80013	US			false		
112-3683494-9347462	19482558635994	2020-06-11T02:10:57+00:00	2020-06-10T19:10:57-07:00	2020-06-11T02:40:01+00:00	2020-06-16T06:59:59+00:00	-4	szg768pty98vhsj@marketplace.amazon.com	Kenny	+1 346-307-9643 ext. 10889	ABR0055	Arabella Farm Direct Bouquet of 12 Stems of Fresh Cut Hot Pink Roses in a Free Designer Glass Vase	1	0	1	Expedited	Olga Hilss	200 W 67TH ST APT 19B			NEW YORK	NY	10023-0103	US		Hi Olga, Happy Birthday! Love, Kenny	false		
114-6007087-3164250	31680983727890	2020-06-11T02:58:16+00:00	2020-06-10T19:58:16-07:00	2020-06-11T03:23:56+00:00	2020-06-16T06:59:59+00:00	-4	kfvyq5kyh1gph78@marketplace.amazon.com	J Broches	+1 346-307-9643 ext. 03969	ABM010	Arabella Bouquets | Fields of The World Bouquet of Fresh Cut Flowers in a Free Designer Glass Vase	1	0	1	Expedited	J Broches	328 W Colorado St			Arcadia	California	91007	US		Congratulations Stacy and George love your Koumbaro From J Broches	false		
113-6257524-4841005	06798381685522	2020-06-11T04:25:39+00:00	2020-06-10T21:25:39-07:00	2020-06-11T04:51:14+00:00	2020-06-16T06:59:59+00:00	-4	yx4thbndjmnzj3t@marketplace.amazon.com	Maryann Hanrahan	+1 346-307-9643 ext. 23235	ABR013	Arabella Farm Direct Bouquet of 18 Fresh Cut Yellow Roses with a Free Glass Vase	1	0	1	Expedited	Carole Rossi	9370 WINDSOR LAKE BLVD APT 214			COLUMBIA	SC	29223-1106	US		To Carole. Love Never Ends!   From Peter (in heaven) From Peter Rossi	false		
113-0861934-1493040	55309552410842	2020-06-11T04:28:47+00:00	2020-06-10T21:28:47-07:00	2020-06-11T04:56:49+00:00	2020-06-16T06:59:59+00:00	-4	rt16fnzyjq0j94k@marketplace.amazon.com	Luanne Admire	+1 210-728-4548 ext. 57806	ABR012	Arabella Farm Direct Bouquet of 18 Fresh Cut Pink Roses with a Free Glass Vase	1	0	1	Expedited	Helen Sneary	1248 DONALD WAY			ESCONDIDO	CA	92027-1502	US		Happy Birthday, Mom and Grandma!  We love you so so much and we hope you like the flowers! From Rob, Lu, Kate, Shannon and Jon	false		
112-7897549-6746659	22667888982074	2020-06-11T04:43:37+00:00	2020-06-10T21:43:37-07:00	2020-06-11T05:14:25+00:00	2020-06-16T06:59:59+00:00	-4	j44c1xxr11jmg7p@marketplace.amazon.com	Jessica Schulze	+1 210-728-4548 ext. 76268	ABR015	Arabella Farm Direct Bouquet of 18 Fresh Cut Orange Roses with a Free Glass Vase	1	0	1	Expedited	Jess Schulze	6138 STRAWBERRY CIR			COMMERCE TOWNSHIP	MI	48382-5511	US			false		
112-8112582-6957039	00534321047242	2020-06-11T04:45:09+00:00	2020-06-10T21:45:09-07:00	2020-06-11T05:15:46+00:00	2020-06-16T06:59:59+00:00	-4	qjsnnm5vm46qs7b@marketplace.amazon.com	jason melcher	+1 314-282-9402 ext. 22962	ABR0022	Arabella Farm Direct Bouquet of 12 Fresh Cut Pink Roses with a Free Glass Vase	1	0	1	Expedited	Snow	1538 SALLAL RD			WOODBURN	OR	97071-2520	US			false		
112-8619983-6385011	45192413988170	2020-06-11T04:46:04+00:00	2020-06-10T21:46:04-07:00	2020-06-11T05:16:31+00:00	2020-06-16T06:59:59+00:00	-4	qjsnnm5vm46qs7b@marketplace.amazon.com	jason melcher	+1 210-728-4548 ext. 80367	ABR0022	Arabella Farm Direct Bouquet of 12 Fresh Cut Pink Roses with a Free Glass Vase	1	0	1	Expedited	Snow	1538 SALLAL RD			WOODBURN	OR	97071-2520	US			false		
111-8422596-6921042	39521873168290	2020-06-11T05:20:13+00:00	2020-06-10T22:20:13-07:00	2020-06-11T05:50:55+00:00	2020-06-16T06:59:59+00:00	-4	2gd0mqg12ngk616@marketplace.amazon.com	Sean Damon	+1 210-728-4548 ext. 07682	ABR0022	Arabella Farm Direct Bouquet of 12 Fresh Cut Pink Roses with a Free Glass Vase	1	0	1	Expedited	Sean Damon	19524 BING RD			LYNNWOOD	WA	98036-7116	US			false		
111-9923732-1214620	57480149982338	2020-06-11T05:33:36+00:00	2020-06-10T22:33:36-07:00	2020-06-11T06:03:10+00:00	2020-06-13T06:59:59+00:00	-1	30bjsz0vcsndhs9@marketplace.amazon.com	Erin Olivari	+1 210-728-4548 ext. 84017	ABR014	Arabella Bouquets 18 Stems of Fresh Cut White Roses in a Free Designer Glass Vase	1	0	1	Expedited	Debbie Davis	71706 TUTUILLA CREEK RD			PENDLETON	OR	97801-9010	US			false		
112-4691500-0369026	54376733101386	2020-06-11T06:28:57+00:00	2020-06-10T23:28:57-07:00	2020-06-11T06:46:37+00:00	2020-06-16T06:59:59+00:00	-4	qlyw1fhzwkxfb40@marketplace.amazon.com	Anne E. Chamberlain	+1 346-307-9643 ext. 38765	ABM010	Arabella Bouquets | Fields of The World Bouquet of Fresh Cut Flowers in a Free Designer Glass Vase	1	0	1	Expedited	Jalle Gabesa	12718 LAKE CITY WAY NE APT C111			SEATTLE	WA	98125-4466	US		You make this world a better place. Thank you for being my friend. From Annie Chamberlain	false		
112-5726772-1161848	03816243240226	2020-06-11T06:52:58+00:00	2020-06-10T23:52:58-07:00	2020-06-11T07:18:59+00:00	2020-06-16T06:59:59+00:00	-4	81z6zfx1xn667vx@marketplace.amazon.com	James Safranek	+1 346-307-9643 ext. 79032	ABM0044	Arabella Farm Direct Bouquet of Fresh Cut Blue Hydrangea with a Free Glass Vase	1	0	1	Expedited	Justin, Cathy and Cameron Mummert Russell	2324 W STUBBS ST			EDINBURG	TX	78539-4102	US			false		
111-3055150-7745004	15719932834842	2020-06-11T13:04:40+00:00	2020-06-11T06:04:40-07:00	2020-06-11T13:33:07+00:00	2020-06-16T06:59:59+00:00	-4	1sbrjn0hxnf7z0g@marketplace.amazon.com	RAN SHEN	+1 346-307-9643 ext. 80605	ABR0066	Arabella Bouquets 18 Stems of Fresh Cut White Roses in a Free Designer Glass Vase	1	0	1	Expedited	Bernadine Kirkland	5 BOWDOIN AVE			DORCHESTER	MA	02121-3901	US			false		
114-0663649-8681839	19771236944458	2020-06-11T13:23:42+00:00	2020-06-11T06:23:42-07:00	2020-06-11T13:51:56+00:00	2020-06-17T06:59:59+00:00	-5	l6jf1psw58blt95@marketplace.amazon.com	Corey Allen	+1 210-728-4548 ext. 76180	ABR0022	Arabella Farm Direct Bouquet of 12 Fresh Cut Pink Roses with a Free Glass Vase	1	0	1	Expedited	Corey Allen	622 COLUMBIA RD APT 3			BOSTON	MA	02125-3438	US			false		
111-7804292-1129038	44428059664794	2020-06-11T13:45:18+00:00	2020-06-11T06:45:18-07:00	2020-06-11T14:13:37+00:00	2020-06-17T06:59:59+00:00	-5	hrzr8vl4c40tfmm@marketplace.amazon.com	travis borgialli	+1 346-307-9643 ext. 61732	ABR0022	Arabella Farm Direct Bouquet of 12 Fresh Cut Pink Roses with a Free Glass Vase	1	0	1	Expedited	Diana borgialli	275 E KEAYS ST			BUFFALO	WY	82834-1911	US		Dear Grandma Sue,  We love you and we are thinking of you. Wish we could be there in person.  - One day at a time. From Travis and Family	false		
113-9307731-2644225	33289190786050	2020-06-11T13:48:35+00:00	2020-06-11T06:48:35-07:00	2020-06-11T14:15:18+00:00	2020-06-17T06:59:59+00:00	-5	9g5mxv894b0983y@marketplace.amazon.com	Mrs Clare Eckersley	+1 346-307-9643 ext. 37582	ABR0022	Arabella Farm Direct Bouquet of 12 Fresh Cut Pink Roses with a Free Glass Vase	1	0	1	Expedited	Barbara Degreve	35481 MERIDIA AVE			PALM DESERT	CA	92211-3702	US		Happy birthday  have a lovely day  Love Rachael Zoe Clare and family xxx From Mrs Clare Eckersley	false		
111-0688648-8657830	29522744788554	2020-06-11T13:59:35+00:00	2020-06-11T06:59:35-07:00	2020-06-11T14:26:45+00:00	2020-06-17T06:59:59+00:00	-5	dc2bcl92kg50tq9@marketplace.amazon.com	Nick Della Valle	+1 210-728-4548 ext. 03685	ABM010	Arabella Bouquets | Fields of The World Bouquet of Fresh Cut Flowers in a Free Designer Glass Vase	1	0	1	Expedited	Valerie Della Valle	3022 W REDWOOD LN			PHOENIX	AZ	85045-2253	US		We figured Chris got the drugs..... you should get the flowers! We appreciate you taking care of this guy!  Love & Blessing.....Nick & Lucy	false		
111-6020835-1833013	23215905552474	2020-06-11T14:23:36+00:00	2020-06-11T07:23:36-07:00	2020-06-11T14:43:09+00:00	2020-06-17T06:59:59+00:00	-5	6r2php9vn7rmcp7@marketplace.amazon.com	Sabrina Zimmerman	+1 314-282-9402 ext. 74600	ABM010	Arabella Bouquets | Fields of The World Bouquet of Fresh Cut Flowers in a Free Designer Glass Vase	1	0	1	Expedited	Colleen Pierce	111 WINTER ST			NORWOOD	MA	02062-2048	US		We have had an incredibly dynamic year as a team and we have done some great work. I want to thank you for the role you have played in making us stronger and your leadership in moving us forward with excellence. From Sabrina	false		
111-2286196-4729005	66994187465082	2020-06-11T14:26:02+00:00	2020-06-11T07:26:02-07:00	2020-06-11T14:55:28+00:00	2020-06-17T06:59:59+00:00	-5	6r2php9vn7rmcp7@marketplace.amazon.com	Sabrina Zimmerman	+1 210-728-4548 ext. 35481	ABM010	Arabella Bouquets | Fields of The World Bouquet of Fresh Cut Flowers in a Free Designer Glass Vase	1	0	1	Expedited	Elisabeth Vivaldi	81 BEAUFORT AVE			NEEDHAM	MA	02492-3803	US		We have had an incredibly dynamic year as a team and we have done some great work. I want to thank you for the role you have played in making us stronger and your leadership in moving us forward with excellence. From Sabrina	false		
112-1855060-2213869	54702838664370	2020-06-11T14:34:04+00:00	2020-06-11T07:34:04-07:00	2020-06-11T15:03:42+00:00	2020-06-17T06:59:59+00:00	-5	mnygnzdphwxvpwt@marketplace.amazon.com	Sheila Tuck	+1 314-282-9402 ext. 20727	ABR0033	Arabella Farm Direct Bouquet of 12 Fresh Cut Orange Roses with a Free Glass Vase	1	0	1	Expedited	Mary Neal	1000 LINWOOD AVE			COLUMBUS	OH	43206-1672	US		Enjoy your gift! Happy Birthday Mom From Love you  Kim	false		
114-5601765-6053827	32883110463514	2020-06-11T14:53:07+00:00	2020-06-11T07:53:07-07:00	2020-06-11T15:20:50+00:00	2020-06-17T06:59:59+00:00	-5	8s099d8w8mcvrj3@marketplace.amazon.com	Michael Felter	+1 210-728-4548 ext. 72279	ABR0022	Arabella Farm Direct Bouquet of 12 Fresh Cut Pink Roses with a Free Glass Vase	1	0	1	Expedited	Michael Felter	229 WALNUT ST			MOOSIC	PA	18507-1167	US		Happy Birthday! Love, Michael From Michael Felter	false		
114-5418423-9883464	38041129489586	2020-06-11T15:11:00+00:00	2020-06-11T08:11:00-07:00	2020-06-11T15:30:10+00:00	2020-06-17T06:59:59+00:00	-5	46h5vxt6ssqvbw8@marketplace.amazon.com	Elizabeth Harmon	+1 346-307-9643 ext. 44182	ABR0055	Arabella Farm Direct Bouquet of 12 Stems of Fresh Cut Hot Pink Roses in a Free Designer Glass Vase	1	0	1	Expedited	Penelope Davis	112 CIMARRON DR			SPRING LAKE	NC	28390-9127	US			false		
112-2335534-6859402	66637553277082	2020-06-11T15:13:34+00:00	2020-06-11T08:13:34-07:00	2020-06-11T15:42:53+00:00	2020-06-17T06:59:59+00:00	-5	xfwv8nvr7psncxg@marketplace.amazon.com	JOSEPH MCMILLAN	+1 346-307-9643 ext. 24363	ABR0055	Arabella Farm Direct Bouquet of 12 Stems of Fresh Cut Hot Pink Roses in a Free Designer Glass Vase	1	0	1	Expedited	Rosalene Valentine	15045 STAGEHAND DR			SAN ANTONIO	TX	78245-4760	US			false		
111-5855247-4689022	36618680119826	2020-06-11T15:40:09+00:00	2020-06-11T08:40:09-07:00	2020-06-11T15:52:52+00:00	2020-06-17T06:59:59+00:00	-5	2nkq402qkx01hrq@marketplace.amazon.com	Suzanne Armatas	+1 346-307-9643 ext. 07771	ABM010	Arabella Bouquets | Fields of The World Bouquet of Fresh Cut Flowers in a Free Designer Glass Vase	1	0	1	Expedited	Kim Levin	19742 QUIET BAY LN			HUNTINGTON BEACH	CA	92648-2634	US		Hang in there my friend! I am thinking of you and keeping you in my thoughts and prayers. xoxo, Suzanne From Suzanne Armatas Dickson	false		
111-1831189-4985811	55576945118466	2020-06-11T15:30:29+00:00	2020-06-11T08:30:29-07:00	2020-06-11T15:59:16+00:00	2020-06-17T06:59:59+00:00	-5	txmrt3mczhfctyd@marketplace.amazon.com	Margaret H. Bass	+1 346-307-9643 ext. 47026	ABR0022	Arabella Farm Direct Bouquet of 12 Fresh Cut Pink Roses with a Free Glass Vase	1	0	1	Expedited	Leslie Huntley	1807 COUNTRY CLUB DR			HIGH POINT	NC	27262-4584	US		Happy birthday to the best aunt ever! From Huntley, Kris, McEwen and Pinckney	false		
111-8667156-1637050	29486928394506	2020-06-11T16:04:24+00:00	2020-06-11T09:04:24-07:00	2020-06-11T16:05:15+00:00	2020-06-17T06:59:59+00:00	-5	6r2php9vn7rmcp7@marketplace.amazon.com	Sabrina Zimmerman	+1 314-282-9402 ext. 53110	ABM010	Arabella Bouquets | Fields of The World Bouquet of Fresh Cut Flowers in a Free Designer Glass Vase	1	0	1	Expedited	Julia Koehler	1231 ARBORETUM WAY			BURLINGTON	MA	01803-3838	US		We have had an incredibly dynamic year as a team and we have done some great work. I want to thank you for the role you have played in making us stronger and your leadership in moving us forward with excellence. From Sabrina	false		
111-6510079-8853058	14099209592242	2020-06-11T15:49:01+00:00	2020-06-11T08:49:01-07:00	2020-06-11T16:16:57+00:00	2020-06-17T06:59:59+00:00	-5	x0qxqjcww8qgztb@marketplace.amazon.com	Jillian	+1 346-307-9643 ext. 75018	ABR0055	Arabella Farm Direct Bouquet of 12 Stems of Fresh Cut Hot Pink Roses in a Free Designer Glass Vase	1	0	1	Expedited	Lynn singer	9160 E DESERT COVE AVE UNIT 216			SCOTTSDALE	AZ	85260-6202	US		Happy Birthday Gram! Sending lots of love From Nathan, Jillian, Bryn & Brie	false		
114-3021685-1169006	47935408083082	2020-06-11T16:12:07+00:00	2020-06-11T09:12:07-07:00	2020-06-11T16:40:33+00:00	2020-06-17T06:59:59+00:00	-5	n9rrkznd9vpfb9r@marketplace.amazon.com	Hasan Tariq	+1 210-728-4548 ext. 79738	ABR0022	Arabella Farm Direct Bouquet of 12 Fresh Cut Pink Roses with a Free Glass Vase	1	0	1	Expedited	Lauretta	1019 RIPLEY AVE			WESTFIELD	NJ	07090-1643	US		This gift is has two parts this only part 1, part 2 of this gift is located at 605 Morris Avenue Elizabeth, please drive safe to it, and above all be safe, thank you for being the best Professor ever From Students who love you	false		
111-4110715-4546620	48994249619954	2020-06-11T16:15:58+00:00	2020-06-11T09:15:58-07:00	2020-06-11T16:43:34+00:00	2020-06-16T06:59:59+00:00	-4	z1sphg20j9rhfvx@marketplace.amazon.com	Carolyn Matinzi	+1 346-307-9643 ext. 49697	ABR0066	Arabella Bouquets 18 Stems of Fresh Cut White Roses in a Free Designer Glass Vase	1	0	1	Expedited	Mary Towns	83 BRADSTREETE XING			PLYMOUTH	MA	02360-8814	US			false		
114-5254160-0797801	36086388115250	2020-06-11T16:28:04+00:00	2020-06-11T09:28:04-07:00	2020-06-11T16:55:19+00:00	2020-06-17T06:59:59+00:00	-5	dkm5hbf2f5w7j9d@marketplace.amazon.com	Dorothy Baker	+1 346-307-9643 ext. 97160	ABR004	Arabella Farm Direct Bouquet of 12 Fresh Cut Yellow Roses with a Free Glass Vase	1	0	1	Expedited	Azizi  Baker	65 Addison Place Unit C			Clifton	New Jersey	07012	US		Congratulations Ms Baker,MPA. What an outstanding job ,so proud of you ❤️ From Dorothy Baker	false		
114-1121010-3457065	09561454253914	2020-06-11T16:56:26+00:00	2020-06-11T09:56:26-07:00	2020-06-11T17:26:03+00:00	2020-06-17T06:59:59+00:00	-5	8x56dmr68y804g9@marketplace.amazon.com	michelle lee	+1 346-307-9643 ext. 72520	ABR0022	Arabella Farm Direct Bouquet of 12 Fresh Cut Pink Roses with a Free Glass Vase	1	0	1	Expedited	Lekita Holmes	4203 WINSLOW LN			AUGUSTA	GA	30906-9265	US		Hi Lekita, We all hope you are feeling better! Love, Michelle, Karen, Lisa, Erin, Penny, Kellie, Natalie, and Janice.	false		
114-6192772-9343458	27297967251914	2020-06-11T17:08:18+00:00	2020-06-11T10:08:18-07:00	2020-06-11T17:38:56+00:00	2020-06-17T06:59:59+00:00	-5	f3p1yrr1b6vhlbn@marketplace.amazon.com	Richard Ferrill	+1 210-728-4548 ext. 52473	ABR001	Arabella Bouquets 12 Stems of Fresh Cut Red Roses in a Free Designer Glass Vase	1	0	1	Expedited	Richard Ferrill	77 Deer Track Drive			Taunton	MA	02780	US			false		
112-3509240-1091438	66766020717026	2020-06-11T17:31:13+00:00	2020-06-11T10:31:13-07:00	2020-06-11T17:51:05+00:00	2020-06-17T06:59:59+00:00	-5	f268tdn1d32ljsv@marketplace.amazon.com	Linda Parker	+1 314-282-9402 ext. 53746	ABSR005	Arabella Bouquets | Fresh Cut Orange Spray Roses in a Free Designer Glass Vase	1	0	1	Expedited	Denise Parker	5611 SHADOW LN			BLOOMFIELD HILLS	MI	48302-4049	US			false		
114-4691247-3266622	00649811007370	2020-06-11T18:10:50+00:00	2020-06-11T11:10:50-07:00	2020-06-11T18:13:41+00:00	2020-06-13T06:59:59+00:00	-1	r20n3r236kxv8hj@marketplace.amazon.com	Vivian L. Patten	+1 314-282-9402 ext. 60082	ABR0022	Arabella Farm Direct Bouquet of 12 Fresh Cut Pink Roses with a Free Glass Vase	1	0	1	NextDay	Tessa Schlatter	1855 S PITKIN AVE			SUPERIOR	CO	80027-8286	US		Happy birthday, Tessa!!!! Have a beautiful day:) We love you, From Aunt Viv & Uncle Gary From Aunt Viv & Uncle Gary	false		
113-9057849-0278605	61210456538562	2020-06-11T18:24:11+00:00	2020-06-11T11:24:11-07:00	2020-06-11T18:29:17+00:00	2020-06-13T06:59:59+00:00	-1	50wvtctk937jf4k@marketplace.amazon.com	Rory	+1 210-728-4548 ext. 04132	ABR0055	Arabella Farm Direct Bouquet of 12 Stems of Fresh Cut Hot Pink Roses in a Free Designer Glass Vase	1	0	1	NextDay	Rory Adams	BLACK BRIER SECURITY CONSULTANCY	3104 MEAD HILL RD		NEWMARKET	NH	03857-2329	US			false		
113-5179681-5148267	21092612683562	2020-06-11T18:57:35+00:00	2020-06-11T11:57:35-07:00	2020-06-11T18:58:31+00:00	2020-06-13T06:59:59+00:00	-1	jm25fryn7xzdw5c@marketplace.amazon.com	Peter S Tsantes	+1 346-307-9643 ext. 33200	ABR0022	Arabella Farm Direct Bouquet of 12 Fresh Cut Pink Roses with a Free Glass Vase	1	0	1	NextDay	Stephanie Mikouis	17713 LISA DR			DERWOOD	MD	20855-1321	US		Dearest Stephanie, Happy  Anniversary! The plan was to be here together, but it wont be long now! Its been a great year for us! Full of all the things that all new couples/families encounter & we are stronger,more devoted & united Love,Peter	false		
111-9139457-7974612	19257725373770	2020-06-11T19:19:14+00:00	2020-06-11T12:19:14-07:00	2020-06-11T19:22:30+00:00	2020-06-13T06:59:59+00:00	-1	4f70zkghmhtndbm@marketplace.amazon.com	Gretchen R. Bull	+1 210-728-4548 ext. 06752	ABM010	Arabella Bouquets | Fields of The World Bouquet of Fresh Cut Flowers in a Free Designer Glass Vase	1	0	1	NextDay	Jean Gibson	1440 N VIEWPOINT DR			FAYETTEVILLE	AR	72701-2554	US			false		
113-8590794-4817049	45869722359122	2020-06-11T19:26:58+00:00	2020-06-11T12:26:58-07:00	2020-06-11T19:27:49+00:00	2020-06-13T06:59:59+00:00	-1	tgtsw7s78sdf3cg@marketplace.amazon.com	Patrick Horne	+1 346-307-9643 ext. 43965	ABR004	Arabella Farm Direct Bouquet of 12 Fresh Cut Yellow Roses with a Free Glass Vase	1	0	1	NextDay	Sophia Backstein	1512 37TH ST NW			GIG HARBOR	WA	98335-1555	US		Happy birthday, Sophie!!!!! Love you!! From Nathan Horne	false		
114-1450354-4319431	26463287938114	2020-06-11T19:35:51+00:00	2020-06-11T12:35:51-07:00	2020-06-11T19:37:51+00:00	2020-06-13T06:59:59+00:00	-1	vkdklrbblspyl0l@marketplace.amazon.com	william	+1 346-307-9643 ext. 09323	ABR001	Arabella Bouquets 12 Stems of Fresh Cut Red Roses in a Free Designer Glass Vase	1	0	1	NextDay	valerie mott	5008 MAIN ST FALLSBURG BUILDING			SOUTH FALLSBURG	NY	12779-5122	US		Hi valerie,,You are the sunshine that fades all the darkness in my life. You are my road to redemption.I have never loved someone so deeply than you. I love you more than I can say. Nothing can ever change my love for you!!!.grant sylvester	false		
111-3294926-5147419	33705224740514	2020-06-11T19:38:27+00:00	2020-06-11T12:38:27-07:00	2020-06-11T19:39:59+00:00	2020-06-13T06:59:59+00:00	-1	mxwtq4rh4910phj@marketplace.amazon.com	Kimbra Nyman	+1 314-282-9402 ext. 10149	ABM010	Arabella Bouquets | Fields of The World Bouquet of Fresh Cut Flowers in a Free Designer Glass Vase	1	0	1	NextDay	Amanda Kissinger	1306 WESTWOOD BLVD			ARKOMA	OK	74901-3735	US		I hope this brightens your week. My prayers are with both you and your momma. From Kimbra Nyman	false		
114-1048625-6898626	50924229538690	2020-06-11T19:47:48+00:00	2020-06-11T12:47:48-07:00	2020-06-11T19:48:50+00:00	2020-06-13T06:59:59+00:00	-1	tm1k95sp282bs6b@marketplace.amazon.com	Linda Weller	+1 210-728-4548 ext. 03030	ABR0022	Arabella Farm Direct Bouquet of 12 Fresh Cut Pink Roses with a Free Glass Vase	1	0	1	NextDay	Madison Futterer	1776 BROADWAY APT 909			DENVER	CO	80202-3894	US		Dear Madison,   Thank you for serving on the front lines during this pandemic - we love you and are so very proud of you! From The Weller’s	false		
112-0224589-7717875	27025578151946	2020-06-10T08:22:45+00:00	2020-06-10T01:22:45-07:00	2020-06-11T19:49:43+00:00	2020-06-13T06:59:59+00:00	-1	xyc9fpnscnm8whw@marketplace.amazon.com	Daniel Mallen	+1 346-307-9643 ext. 72943	ABR0055	Arabella Farm Direct Bouquet of 12 Stems of Fresh Cut Hot Pink Roses in a Free Designer Glass Vase	1	0	1	SecondDay	Nikki Castle	5003 4TH AVE N			GRAND FORKS	ND	58203-2676	US			false		
111-0646931-7890664	57630772004506	2020-06-11T19:50:33+00:00	2020-06-11T12:50:33-07:00	2020-06-11T19:51:35+00:00	2020-06-13T06:59:59+00:00	-1	f1xm09l229mh6kf@marketplace.amazon.com	Rigo Ramos	+1 314-282-9402 ext. 37888	ABR0022	Arabella Farm Direct Bouquet of 12 Fresh Cut Pink Roses with a Free Glass Vase	1	0	1	NextDay	EMPRESS lulu	20014 STERLING FALLS DR			KATY	TX	77449-7624	US			false		
114-2705906-1717828	26193001416138	2020-06-11T19:52:15+00:00	2020-06-11T12:52:15-07:00	2020-06-11T19:53:55+00:00	2020-06-13T06:59:59+00:00	-1	1b54q21t98c98hw@marketplace.amazon.com	dan	+1 346-307-9643 ext. 10904	ABR0022	Arabella Farm Direct Bouquet of 12 Fresh Cut Pink Roses with a Free Glass Vase	1	0	1	NextDay	Pauline Irving	1955 E 19TH ST			BROOKLYN	NY	11229-3511	US		Happy Birthday to a wonderful mom  From Dale	false		
111-6630793-3455457	32051083940786	2020-06-11T19:55:20+00:00	2020-06-11T12:55:20-07:00	2020-06-11T19:59:21+00:00	2020-06-13T06:59:59+00:00	-1	rxq3ncg160nrqqf@marketplace.amazon.com	marquise brown	+1 346-307-9643 ext. 95119	ABM010	Arabella Bouquets | Fields of The World Bouquet of Fresh Cut Flowers in a Free Designer Glass Vase	1	0	1	NextDay	Marquise Brown	7441 S. Calumet			chicago	Illinois	60619	US			false		
114-5407717-3397054	31876921822578	2020-06-11T19:59:43+00:00	2020-06-11T12:59:43-07:00	2020-06-11T20:01:04+00:00	2020-06-13T06:59:59+00:00	-1	7w13yq0n0q46k7w@marketplace.amazon.com	Peggy Duemling	+1 346-307-9643 ext. 75318	ABM010	Arabella Bouquets | Fields of The World Bouquet of Fresh Cut Flowers in a Free Designer Glass Vase	1	0	1	NextDay	Jamie Bradley	1100 E RUSTIC RD			APPLETON	WI	54911-8548	US		Jamie,  You are like these flowers!   Beautiful  to Jesus!	false		
111-1492419-8005861	25056365548066	2020-06-11T20:16:57+00:00	2020-06-11T13:16:57-07:00	2020-06-11T20:18:41+00:00	2020-06-13T06:59:59+00:00	-1	z3wpypp9swm7k87@marketplace.amazon.com	Vincent	+1 346-307-9643 ext. 31954	ABM010	Arabella Bouquets | Fields of The World Bouquet of Fresh Cut Flowers in a Free Designer Glass Vase	1	0	1	NextDay	Vivian Maruri	6308 W Lake Ave			Bingham canyon	Utah	84006	US		I love you! Hope this helps you get through training this week <3 From Da babes (;	false		
111-5628263-9220206	04278503322770	2020-06-11T20:15:43+00:00	2020-06-11T13:15:43-07:00	2020-06-11T20:19:08+00:00	2020-06-13T06:59:59+00:00	-1	4qnfr3zfgl5qw87@marketplace.amazon.com	Antonia	+1 210-728-4548 ext. 87429	ABR0055	Arabella Farm Direct Bouquet of 12 Stems of Fresh Cut Hot Pink Roses in a Free Designer Glass Vase	1	0	1	NextDay	STUNNING JAMIELYNN MEROLLE	138 FULGORA ST			HENDERSON	NV	89074-1655	US		U R PUUUUURRRRRRRRFECT!!!!!!!!! VERY PROUD OF U!!!!!!!!!! GIRL POWER!!!!!!!!! LOVE U AUNT TONI XOXOXO From AUNT TONI	false		
111-3102647-6850618	37205381075914	2020-06-11T20:40:03+00:00	2020-06-11T13:40:03-07:00	2020-06-11T20:41:11+00:00	2020-06-13T06:59:59+00:00	-1	f28pzdp6dvstbgm@marketplace.amazon.com	Collette	+1 346-307-9643 ext. 89084	ABR0022	Arabella Farm Direct Bouquet of 12 Fresh Cut Pink Roses with a Free Glass Vase	1	0	1	NextDay	Jennifer Thiede	431 LA CUESTA DR			SCOTTS VALLEY	CA	95066-4741	US		Congratulations on your retirement Jenn! Love, Collette, Pat, and Pen	false		
111-5776383-0389819	04704182239426	2020-06-11T20:43:49+00:00	2020-06-11T13:43:49-07:00	2020-06-11T20:44:51+00:00	2020-06-13T06:59:59+00:00	-1	zt4xplfnbk135wp@marketplace.amazon.com	Steve Antrasian	+1 314-282-9402 ext. 17377	ABR0022	Arabella Farm Direct Bouquet of 12 Fresh Cut Pink Roses with a Free Glass Vase	1	0	1	NextDay	The Front Desk @ Care One	57 OLD ROAD TO 9 ACRE COR			CONCORD	MA	01742-3317	US		Thank you for all of your care and concern. From Steve Antrasian and Peter Boyle	false		
112-9844888-7560239	02909665372738	2020-06-11T20:44:24+00:00	2020-06-11T13:44:24-07:00	2020-06-11T20:47:46+00:00	2020-06-13T06:59:59+00:00	-1	rn71pgcnvpmp01b@marketplace.amazon.com	Jennifer Oakley	+1 314-282-9402 ext. 49207	ABR0055	Arabella Farm Direct Bouquet of 12 Stems of Fresh Cut Hot Pink Roses in a Free Designer Glass Vase	1	0	1	NextDay	Verna Calvert	210 S AUSTIN BLVD			WILLCOX	AZ	85643-2006	US		Happy Birthday!!  We love you!!! From The Oakley Family	false		
114-3666680-9601066	10686909589954	2020-06-11T20:30:55+00:00	2020-06-11T13:30:55-07:00	2020-06-11T21:00:20+00:00	2020-06-17T06:59:59+00:00	-5	rwr8xn2gd5wlzqt@marketplace.amazon.com	Kevin	+1 346-307-9643 ext. 32671	ABR0055	Arabella Farm Direct Bouquet of 12 Stems of Fresh Cut Hot Pink Roses in a Free Designer Glass Vase	1	0	1	Standard	Bonnie Conrad	9816 RIVERVIEW DR			RIVERVIEW	FL	33578-5015	US			false		
113-2228235-0009855	36253136027458	2020-06-11T21:16:07+00:00	2020-06-11T14:16:07-07:00	2020-06-11T21:17:01+00:00	2020-06-13T06:59:59+00:00	-1	m1zdc01skrm44vq@marketplace.amazon.com	jseven	+1 346-307-9643 ext. 71154	ABR0022	Arabella Farm Direct Bouquet of 12 Fresh Cut Pink Roses with a Free Glass Vase	1	0	1	NextDay	Carrie Mitchum	405 SAN ROQUE RD			SANTA BARBARA	CA	93105-2763	US		Happy Birthday, Carrie!! I hope you got the Vegan treats I sent from Colorado!!  I love you and can't wait to visit you soon! Love Patricia Ortega From Patricia	false		
113-9142332-6503467	14807366646762	2020-06-11T21:16:29+00:00	2020-06-11T14:16:29-07:00	2020-06-11T21:17:22+00:00	2020-06-13T06:59:59+00:00	-1	37b6n28h0djf9g6@marketplace.amazon.com	Chris lagac	+1 346-307-9643 ext. 59281	ABR001	Arabella Bouquets 12 Stems of Fresh Cut Red Roses in a Free Designer Glass Vase	1	0	1	NextDay	Christopher lagac	7042 TWIN HILLS TER			LAKEWOOD RANCH	FL	34202-2400	US		For you beautiful. From Me	false		
111-3397062-6609805	18581822590554	2020-06-11T22:01:17+00:00	2020-06-11T15:01:17-07:00	2020-06-11T22:05:12+00:00	2020-06-13T06:59:59+00:00	-1	4rqnc92864zzpsq@marketplace.amazon.com	tim lyons	+1 314-282-9402 ext. 80473	ABR0022	Arabella Farm Direct Bouquet of 12 Fresh Cut Pink Roses with a Free Glass Vase	1	0	1	NextDay	Maya morgan	159 HILLWOOD CT			ERLANGER	KY	41018-2886	US		I love you! Throw the old flowers out and use these instead. They were looking sad lol From Matthew	false		
113-9969531-0799427	05150705963042	2020-06-11T22:28:01+00:00	2020-06-11T15:28:01-07:00	2020-06-11T22:29:04+00:00	2020-06-13T06:59:59+00:00	-1	zqctnvz78rltcl9@marketplace.amazon.com	Murray Lumpkin	+1 346-307-9643 ext. 03773	ABM010	Arabella Bouquets | Fields of The World Bouquet of Fresh Cut Flowers in a Free Designer Glass Vase	1	0	1	NextDay	Barbara Ward	2599 LOWER LANDO LN			PARK CITY	UT	84098-5805	US		Your Majesty -- Wishing you a most happy birthday, albeit unfortunately, and most apologetically,  belated.  I hope you enjoy them all the same.   I do hope you had a wonderful time celebrating. From Your humble servant...	false		
113-8043962-4340222	16533048420626	2020-06-11T22:32:14+00:00	2020-06-11T15:32:14-07:00	2020-06-11T22:37:09+00:00	2020-06-13T06:59:59+00:00	-1	wjfq6vbsnv2rjqr@marketplace.amazon.com	Micah Neustein	+1 314-282-9402 ext. 01859	ABB013	Arabella Bouquets | 24 Stems of Fresh Cut White Roses in a Free Designer Glass Vase	1	0	1	NextDay	Jane Brown	8 ADORACION WAY			HOT SPRINGS VILLAGE	AR	71909-7710	US		We are so sorry for your loss. Our hearts and prayers go out to you and your family. From Forefront Telecare Inc.	false		
113-1105218-6105830	52221812521362	2020-06-11T22:43:09+00:00	2020-06-11T15:43:09-07:00	2020-06-11T22:45:48+00:00	2020-06-13T06:59:59+00:00	-1	rgwtpmw9vgxqx97@marketplace.amazon.com	David Alexander	+1 346-307-9643 ext. 91659	ABM010	Arabella Bouquets | Fields of The World Bouquet of Fresh Cut Flowers in a Free Designer Glass Vase	1	0	1	NextDay	Nancy Weaver	1817 JONESVILLE HWY	ELLEN SAGER NURSING CENTER RM 39		UNION	SC	29379-9793	US		Happy Birthday, Mom From Melissa and David	false		
112-2400874-1206632	42843592398794	2020-06-11T22:41:59+00:00	2020-06-11T15:41:59-07:00	2020-06-11T22:47:27+00:00	2020-06-13T06:59:59+00:00	-1	p0n3xwh0jtfg1pg@marketplace.amazon.com	Rebecca Wellcome	4104105351465	ABR012	Arabella Farm Direct Bouquet of 18 Fresh Cut Pink Roses with a Free Glass Vase	1	0	1	NextDay	Rebecca A, Wellcome	5435 HUNTINGTOWN RD			HUNTINGTOWN	MD	20639-8904	US			false		
113-2245538-8011416	65938068792954	2020-06-11T22:56:33+00:00	2020-06-11T15:56:33-07:00	2020-06-11T23:01:49+00:00	2020-06-13T06:59:59+00:00	-1	yvxldjyry9fjzh6@marketplace.amazon.com	stewart lebrun	+1 346-307-9643 ext. 89887	ABR0055	Arabella Farm Direct Bouquet of 12 Stems of Fresh Cut Hot Pink Roses in a Free Designer Glass Vase	1	0	1	NextDay	Grace Ding	56 FULMAR LN			ALISO VIEJO	CA	92656-1764	US			false		
112-8636424-5565861	33517437786282	2020-06-11T23:01:51+00:00	2020-06-11T16:01:51-07:00	2020-06-11T23:05:30+00:00	2020-06-13T06:59:59+00:00	-1	srrbrtflrj3kv0b@marketplace.amazon.com	Pamela Wyatt Haspell	+1 346-307-9643 ext. 09558	ABR0055	Arabella Farm Direct Bouquet of 12 Stems of Fresh Cut Hot Pink Roses in a Free Designer Glass Vase	1	0	1	NextDay	C/o Donna Sawyer	3 CRESTWOOD RD			WINDHAM	NH	03087-1428	US		Hope these flowers brighten your day and help to take some worries away- Love Pam From Pamela Wyatt Haspell	false		
111-1682721-9731438	25023422363690	2020-06-11T23:06:28+00:00	2020-06-11T16:06:28-07:00	2020-06-11T23:07:25+00:00	2020-06-13T06:59:59+00:00	-1	jclbnc2lt3m5sk9@marketplace.amazon.com	Christopher A. Reid	+1 210-728-4548 ext. 19637	ABR0022	Arabella Farm Direct Bouquet of 12 Fresh Cut Pink Roses with a Free Glass Vase	1	0	1	NextDay	Ted Reid Chloe	31 GALLOPING HILL RD			CHERRY HILL	NJ	08003-5148	US			false		
111-9468088-9925035	00976755034762	2020-06-11T23:09:43+00:00	2020-06-11T16:09:43-07:00	2020-06-11T23:13:27+00:00	2020-06-13T06:59:59+00:00	-1	jclbnc2lt3m5sk9@marketplace.amazon.com	Christopher A. Reid	+1 314-282-9402 ext. 78309	ABR0022	Arabella Farm Direct Bouquet of 12 Fresh Cut Pink Roses with a Free Glass Vase	1	0	1	NextDay	Mrs Helen Henry	107 INDEPENDENCE DR			LUMBERTON	NJ	08048-2245	US			false		
113-9548993-0357012	02081183950402	2020-06-11T23:09:26+00:00	2020-06-11T16:09:26-07:00	2020-06-11T23:13:31+00:00	2020-06-13T06:59:59+00:00	-1	vnl5q67knj66946@marketplace.amazon.com	Rena	+1 210-728-4548 ext. 97577	ABR0022	Arabella Farm Direct Bouquet of 12 Fresh Cut Pink Roses with a Free Glass Vase	1	0	1	NextDay	Jenny	5331 BREEZE HILL PL			TROY	MI	48098-2707	US		恭喜新手妈妈新手爸爸，欢迎朵朵妹妹！ 来自：YiBao	false		
113-1288385-0226665	54016314198450	2020-06-11T23:14:01+00:00	2020-06-11T16:14:01-07:00	2020-06-11T23:19:17+00:00	2020-06-13T06:59:59+00:00	-1	mpqvvdzdjlczl62@marketplace.amazon.com	Aymen aleethawi	+1 314-282-9402 ext. 74917	ABR0022	Arabella Farm Direct Bouquet of 12 Fresh Cut Pink Roses with a Free Glass Vase	1	0	1	NextDay	Aymen Aleethawi	229 E PARK ST APT E			BUFORD	GA	30518-3095	US			false		
114-6120714-5488262	42184642756314	2020-06-11T23:19:31+00:00	2020-06-11T16:19:31-07:00	2020-06-11T23:20:29+00:00	2020-06-13T06:59:59+00:00	-1	rzx4gppm8j0v8qs@marketplace.amazon.com	martha cusick	+1 346-307-9643 ext. 06738	ABM010	Arabella Bouquets | Fields of The World Bouquet of Fresh Cut Flowers in a Free Designer Glass Vase	1	0	1	NextDay	Maggie Ferrara	5 BRICK HILL RD			ORLEANS	MA	02653-3601	US		Maggie     Hope you feel 100% very soon! From Martha and Kenny	false		
114-3365044-1744225	04845071383010	2020-06-11T23:48:35+00:00	2020-06-11T16:48:35-07:00	2020-06-11T23:49:26+00:00	2020-06-13T06:59:59+00:00	-1	966ldpc795ytt3m@marketplace.amazon.com	ANDRES GONZALEZ	+1 210-728-4548 ext. 49828	ABR012	Arabella Farm Direct Bouquet of 18 Fresh Cut Pink Roses with a Free Glass Vase	1	0	1	NextDay	Gladys Zubiria	2410 SHAKESPEARE ST	RICE VILLAGE APARTMENTS - APT 2222		HOUSTON	TX	77030-1015	US		Enamorarse no es el amor real porque es algo sin esfuerzo... Yo te amo, mi amor es real, conlleva una decisión consciente y un esfuerzo por darte lo mejor.  ¿Me dejas reconquistarte? De Andru	false		
113-3931924-8519443	33893777022506	2020-06-11T23:52:59+00:00	2020-06-11T16:52:59-07:00	2020-06-11T23:57:33+00:00	2020-06-13T06:59:59+00:00	-1	1lnyqk6l9nprbv1@marketplace.amazon.com	Aaron Brehmer	+1 346-307-9643 ext. 14181	ABM010	Arabella Bouquets | Fields of The World Bouquet of Fresh Cut Flowers in a Free Designer Glass Vase	1	0	1	NextDay	Vonda Wilkes	2901 Birdnest Ln			Georgetown	Ca	95634	US		Happy Birthday Vonda, We Love you!  Stay strong!! From Aaron Brehmer and Jalynn Brehmer	false		
112-6421693-7646621	55940071681346	2020-06-11T23:57:34+00:00	2020-06-11T16:57:34-07:00	2020-06-12T00:01:11+00:00	2020-06-13T06:59:59+00:00	-1	dm6ff38rzgxzmjn@marketplace.amazon.com	Penny	+1 346-307-9643 ext. 82426	ABR0022	Arabella Farm Direct Bouquet of 12 Fresh Cut Pink Roses with a Free Glass Vase	1	0	1	NextDay	IRENE PETERSON	208 LANCELOT DR			ELMIRA HEIGHTS	NY	14903-1000	US		Irene, Happy Birthday!! Enjoy your day!! Love, Penny and Chloe From Penny and Chloe	false		
112-0752373-2525049	43873593023698	2020-06-11T23:59:57+00:00	2020-06-11T16:59:57-07:00	2020-06-12T00:05:39+00:00	2020-06-13T06:59:59+00:00	-1	98xz5088bm0c5kg@marketplace.amazon.com	Gino Palmieri	+1 314-282-9402 ext. 02595	ABR0033	Arabella Farm Direct Bouquet of 12 Fresh Cut Orange Roses with a Free Glass Vase	1	0	1	NextDay	Lynda Gomez	2219 CLAIRMONT CIR			SNELLVILLE	GA	30078-4107	US			false		
113-3365616-4425021	36075831922218	2020-06-12T00:05:00+00:00	2020-06-11T17:05:00-07:00	2020-06-12T00:06:02+00:00	2020-06-13T06:59:59+00:00	-1	mvz005qzfp0k955@marketplace.amazon.com	Lauren Finger	+1 346-307-9643 ext. 13201	ABR012	Arabella Farm Direct Bouquet of 18 Fresh Cut Pink Roses with a Free Glass Vase	1	0	1	NextDay	Andrea Geraci	713 RICHMOND RD			EAST MEADOW	NY	11554-4541	US		Dear Andrea and Ann, Wishing you the happiest of Birthdays 🎂🎉🎊We hope these flowers bring joy to your day, just like you bring to ours. 🤗 Love always, xoxo ❤️ Lauren, Brian and Hershey From Lauren Finger	false		
111-1487936-8997819	31377594668322	2020-06-12T00:03:27+00:00	2020-06-11T17:03:27-07:00	2020-06-12T00:07:39+00:00	2020-06-13T06:59:59+00:00	-1	kq1k0700xm0zz25@marketplace.amazon.com	Barbara Tortorello	+1 346-307-9643 ext. 84502	ABR0022	Arabella Farm Direct Bouquet of 12 Fresh Cut Pink Roses with a Free Glass Vase	1	0	1	NextDay	Lorraine Aurely	244 BIRCH DR			LAFAYETTE HILL	PA	19444-2104	US			false		
111-9431625-3484245	63650823508554	2020-06-12T00:19:22+00:00	2020-06-11T17:19:22-07:00	2020-06-12T00:22:19+00:00	2020-06-13T06:59:59+00:00	-1	gl22cthcsh38s4f@marketplace.amazon.com	Andrea Margaret Looney	+1 314-282-9402 ext. 34616	ABM010	Arabella Bouquets | Fields of The World Bouquet of Fresh Cut Flowers in a Free Designer Glass Vase	1	0	1	NextDay	Mary Vandewalle	2800 POLO PKWY APT 202			MIDLOTHIAN	VA	23113-1483	US		Aunt Mary I hope this brightens your day! Love you!! Andrea From Andrea Margaret Looney	false		
111-8491179-5446645	10783961178802	2020-06-12T00:25:26+00:00	2020-06-11T17:25:26-07:00	2020-06-12T00:26:23+00:00	2020-06-13T06:59:59+00:00	-1	l9cj3qjc5mwnhx5@marketplace.amazon.com	Linda Hollingsworth	+1 314-282-9402 ext. 31678	ABR012	Arabella Farm Direct Bouquet of 18 Fresh Cut Pink Roses with a Free Glass Vase	1	0	1	NextDay	Mrs. Meghan Hollingsworth	9908 NOKAY DR			ORLANDO	FL	32836-6570	US		Enjoy your gift!  Roses, the flower for the month of June! Pink because I know you like pink! Happiest of birthdays!! ❤️🎂🌹 From Linda Hollingsworth	false		
111-6815367-3259434	21649140237986	2020-06-12T00:29:35+00:00	2020-06-11T17:29:35-07:00	2020-06-12T00:30:39+00:00	2020-06-13T06:59:59+00:00	-1	qtcxs2mp5q9vdg9@marketplace.amazon.com	Jan	+1 346-307-9643 ext. 28627	ABM010	Arabella Bouquets | Fields of The World Bouquet of Fresh Cut Flowers in a Free Designer Glass Vase	1	0	1	NextDay	Stephanie Bisselberg	6618 MIAMI AVE			MADEIRA	OH	45243-3143	US		Stephanie A little something to say a personal thank you from me to you, for your professional guidance and support through these past couple of months. I hope you enjoy! From Jan	false		
114-9355582-2921040	24282473683986	2020-06-12T00:34:21+00:00	2020-06-11T17:34:21-07:00	2020-06-12T00:35:12+00:00	2020-06-13T06:59:59+00:00	-1	t7bjwfq03y0y20j@marketplace.amazon.com	l familia	+1 346-307-9643 ext. 25725	ABR0022	Arabella Farm Direct Bouquet of 12 Fresh Cut Pink Roses with a Free Glass Vase	1	0	1	NextDay	JENNIFER LARA	21231 91ST AVE FL 2ND			QUEENS VILLAGE	NY	11428-1104	US		Hi JENNIFER, Enjoy your gift! From l familia LAMENTO OIR LO DE LA MUERTE DE TU ABUELO SOLO LA ESPERANZA DE VERLO DE NUEVO TE DARA CONSUELO. QUE JEHOVA TE DE PAZ. ESTAS EN MIS ORACIONES. CON AMOR AGAPE LISA FAMLIA	false		
112-6743083-9181036	01851067763674	2020-06-12T00:33:55+00:00	2020-06-11T17:33:55-07:00	2020-06-12T00:37:38+00:00	2020-06-13T06:59:59+00:00	-1	wdrs6kzm8dh0nz4@marketplace.amazon.com	Debbie Gerlach	+1 210-728-4548 ext. 71761	ABR0055	Arabella Farm Direct Bouquet of 12 Stems of Fresh Cut Hot Pink Roses in a Free Designer Glass Vase	1	0	1	NextDay	Debbie Gerlach	11730 W DONALD CT			SUN CITY	AZ	85373-5463	US			false		
112-5905556-7273832	66239731054202	2020-06-12T00:33:19+00:00	2020-06-11T17:33:19-07:00	2020-06-12T00:37:49+00:00	2020-06-13T06:59:59+00:00	-1	jhgkhw866sy6ht7@marketplace.amazon.com	Dawn Sabatello	+1 314-282-9402 ext. 97780	ABM0033	Arabella Farm Direct Bouquet of Fresh Cut White Hydrangea with a Free Glass Vase	1	0	1	NextDay	Dawn Sabatello	5002 WHISPERING HOLW			PALM BEACH GARDENS	FL	33418-3536	US			false		
114-3956301-1359463	51640104494810	2020-06-12T00:57:32+00:00	2020-06-11T17:57:32-07:00	2020-06-12T01:03:14+00:00	2020-06-13T06:59:59+00:00	-1	6jv6shv6p5hck6d@marketplace.amazon.com	John C. Klick M.D.	+1 346-307-9643 ext. 55232	ABR0055	Arabella Farm Direct Bouquet of 12 Stems of Fresh Cut Hot Pink Roses in a Free Designer Glass Vase	1	0	1	NextDay	Barbara Klick	40 TYLER PL			JERICHO	VT	05465-3015	US			false		
111-6077336-8745853	66659759052466	2020-06-12T01:00:48+00:00	2020-06-11T18:00:48-07:00	2020-06-12T01:03:55+00:00	2020-06-13T06:59:59+00:00	-1	lhn7v6h5m6wcjd6@marketplace.amazon.com	Mark Urso	+1 346-307-9643 ext. 79386	ABR0055	Arabella Farm Direct Bouquet of 12 Stems of Fresh Cut Hot Pink Roses in a Free Designer Glass Vase	1	0	1	NextDay	Maria Woodsy	60 SOUTH ST			SOUTH YARMOUTH	MA	02664-6038	US		Happy Birthday Mama!!! Getting to know you has been amazing and looking forward to more adventures! From Aimee Urso	false		
114-6599900-2378646	47511613934058	2020-06-12T01:15:18+00:00	2020-06-11T18:15:18-07:00	2020-06-12T01:16:14+00:00	2020-06-13T06:59:59+00:00	-1	m4m2w6yz24t5rrr@marketplace.amazon.com	DRAKO AUSTO	+1 346-307-9643 ext. 60682	ABR001	Arabella Bouquets 12 Stems of Fresh Cut Red Roses in a Free Designer Glass Vase	1	0	1	NextDay	Jaleeya Vinnett P.	645 EVANGELINE RD			MONTZ	LA	70068-8927	US		My Love I love you more than words will can describe. The passion you have is something I have always admired in our lifetime. Sometimes I wonder if when you took my heart, your gravity pulled into another realm. I love you. From Austin C. Padilla	false		
112-1502015-0933859	29739985541410	2020-06-12T01:28:11+00:00	2020-06-11T18:28:11-07:00	2020-06-12T01:29:12+00:00	2020-06-13T06:59:59+00:00	-1	ctc2l9st1vc057k@marketplace.amazon.com	Mark Goodman	+1 346-307-9643 ext. 61533	ABR0033	Arabella Farm Direct Bouquet of 12 Fresh Cut Orange Roses with a Free Glass Vase	1	0	1	NextDay	Jeanne Lereah	12 COOK RD			EAST BRUNSWICK	NJ	08816-2828	US		Wishing you a very happy birthday and a great year ahead. Love, Diane And Mark From Mark Goodman	false		
114-0720244-9416267	60361695489010	2020-06-12T01:35:19+00:00	2020-06-11T18:35:19-07:00	2020-06-12T01:41:00+00:00	2020-06-13T06:59:59+00:00	-1	xld1qk60n7qpygk@marketplace.amazon.com	Jessica Kushman	+1 314-282-9402 ext. 36423	ABR001	Arabella Bouquets 12 Stems of Fresh Cut Red Roses in a Free Designer Glass Vase	1	0	1	NextDay	Anna Silva	509 E REED ST			ROSWELL	NM	88203-6853	US			false		
114-6711824-0956209	66505683596714	2020-06-12T01:51:27+00:00	2020-06-11T18:51:27-07:00	2020-06-12T01:56:50+00:00	2020-06-13T06:59:59+00:00	-1	85d3vwy0p35dtj4@marketplace.amazon.com	Michael EL Haddad	+1 210-728-4548 ext. 87983	ABR0022	Arabella Farm Direct Bouquet of 12 Fresh Cut Pink Roses with a Free Glass Vase	1	0	1	NextDay	Michael EL Haddad	575 FALLSBURG CT			BRENTWOOD	CA	94513-2387	US			false		
113-7798981-8403400	27484044334594	2020-06-12T02:04:43+00:00	2020-06-11T19:04:43-07:00	2020-06-12T02:06:25+00:00	2020-06-13T06:59:59+00:00	-1	65q5vqbrx9yfngv@marketplace.amazon.com	Lois Levontin	+1 346-307-9643 ext. 46969	ABR0022	Arabella Farm Direct Bouquet of 12 Fresh Cut Pink Roses with a Free Glass Vase	1	0	1	NextDay	Jenny Wozny	12942 QUAIL PARK DR			CYPRESS	TX	77429-3597	US		Hi Jenny, HAPPY BIRTHDAY !! Love - Lois  & Barry	false		
114-1618971-8039408	17907785772402	2020-06-12T02:16:03+00:00	2020-06-11T19:16:03-07:00	2020-06-12T02:20:24+00:00	2020-06-13T06:59:59+00:00	-1	s72frygygw0q44c@marketplace.amazon.com	ari Duran	+1 314-282-9402 ext. 28667	ABM010	Arabella Bouquets | Fields of The World Bouquet of Fresh Cut Flowers in a Free Designer Glass Vase	1	0	1	NextDay	Sandra Duran	4250 N MARINE DR APT 1521			CHICAGO	IL	60613-1714	US		Happy Birthday Mom! I love you!  Aristotle From aristotle Duran	false		
113-8818846-0241867	11771026150042	2020-06-12T02:16:51+00:00	2020-06-11T19:16:51-07:00	2020-06-12T02:20:55+00:00	2020-06-13T06:59:59+00:00	-1	rp7kpjbtwkzv7y2@marketplace.amazon.com	tim ryan	+1 346-307-9643 ext. 04737	ABR0022	Arabella Farm Direct Bouquet of 12 Fresh Cut Pink Roses with a Free Glass Vase	1	0	1	NextDay	Kara Richards	1119 E 28TH ST APT 1W			KANSAS CITY	MO	64109-1254	US		If I had a star to give, I'd give it to you Long as you live, would you have the time To watch it shine, watch it shine Or ask for the moon and heaven too? I'd give it to you. From tim ryan	false		
111-0317493-8596237	23888721378906	2020-06-12T02:05:42+00:00	2020-06-11T19:05:42-07:00	2020-06-12T02:35:16+00:00	2020-06-17T06:59:59+00:00	-5	4qnfr3zfgl5qw87@marketplace.amazon.com	Antonia	+1 314-282-9402 ext. 32896	ABR0055	Arabella Farm Direct Bouquet of 12 Stems of Fresh Cut Hot Pink Roses in a Free Designer Glass Vase	1	0	1	Expedited	ANTONIA DIONA	5908 VIZZI CT			LAS VEGAS	NV	89131-2857	US		Love and miss you happy colonoscopies From Toni	false		
114-1577768-7136225	40513574681458	2020-06-12T02:36:21+00:00	2020-06-11T19:36:21-07:00	2020-06-12T02:37:16+00:00	2020-06-13T06:59:59+00:00	-1	p6kblzgy14s8rtr@marketplace.amazon.com	Twiztid Zombie	+1 210-728-4548 ext. 38607	ABR0022	Arabella Farm Direct Bouquet of 12 Fresh Cut Pink Roses with a Free Glass Vase	1	0	1	NextDay	Alice Boob	17823 N 17TH PL			PHOENIX	AZ	85022-1672	US		Thank you very much for the important part you played in getting mom the help she needed. LOVE YA from all of us. From Vernon Del Holly Jeff Robin & family From Vernon Del Holly Jeff Robin & family	false		
114-0790684-1351418	36395199941514	2020-06-12T03:07:36+00:00	2020-06-11T20:07:36-07:00	2020-06-12T03:08:29+00:00	2020-06-13T06:59:59+00:00	-1	ktmsl9vty9glnqd@marketplace.amazon.com	parameswar krishnakumar	+1 314-282-9402 ext. 33239	ABR0022	Arabella Farm Direct Bouquet of 12 Fresh Cut Pink Roses with a Free Glass Vase	1	0	1	NextDay	DURGA VARIER	13110 BRACKEN FERN DR NW			GIG HARBOR	WA	98332-8805	US		Best Wishes for a Very Special Birth Day, Lathika and Kuttan	false		
114-3698972-0788229	66048528014202	2020-06-12T03:05:29+00:00	2020-06-11T20:05:29-07:00	2020-06-12T03:10:51+00:00	2020-06-13T06:59:59+00:00	-1	b6c8jpfglbmdj7w@marketplace.amazon.com	arthur thomas	+1 314-282-9402 ext. 70165	ABR0022	Arabella Farm Direct Bouquet of 12 Fresh Cut Pink Roses with a Free Glass Vase	1	0	1	NextDay	Veronica Harrington	365 CONNOR CIR			EVANS	GA	30809-6137	US			false		
111-6871053-5682645	64414445666770	2020-06-12T03:32:04+00:00	2020-06-11T20:32:04-07:00	2020-06-12T03:33:58+00:00	2020-06-13T06:59:59+00:00	-1	sj6dwlxmnqk7wyv@marketplace.amazon.com	Christina M. Daniels	+1 210-728-4548 ext. 47780	ABR0022	Arabella Farm Direct Bouquet of 12 Fresh Cut Pink Roses with a Free Glass Vase	1	0	1	NextDay	Christina Daniels	6397 SAVANNAH AVE			PORTAGE	IN	46368-4589	US		Hi, Grandma! Thinking of you always! I was so great to see you when we were in Kansas. Really wish that I could have given you a big hug. Love you so much! I hope you enjoy the roses.  Sending your mints, as well. From Love, Tina	false		
111-8457728-6238663	26724852832266	2020-06-12T03:07:09+00:00	2020-06-11T20:07:09-07:00	2020-06-12T03:34:13+00:00	2020-06-17T06:59:59+00:00	-5	1s7jx0q3c3svkn7@marketplace.amazon.com	Jason Gorham	+1 346-307-9643 ext. 42652	ABR0022	Arabella Farm Direct Bouquet of 12 Fresh Cut Pink Roses with a Free Glass Vase	1	0	1	Standard	Jessica Peterson	9701 FOXHALL WAY UNIT 3			ESTERO	FL	33928-3068	US			false		
112-1723037-6696217	69678485273762	2020-06-12T04:03:01+00:00	2020-06-11T21:03:01-07:00	2020-06-12T04:10:17+00:00	2020-06-13T06:59:59+00:00	-1	mktn88v7ng5ytlk@marketplace.amazon.com	Bejamin	+1 314-282-9402 ext. 05947	ABR001	Arabella Bouquets 12 Stems of Fresh Cut Red Roses in a Free Designer Glass Vase	1	0	1	NextDay	M Beth	2804 THISTLEWOOD DR	LOUISVILLE KY 40203		LOUISVILLE	KY	40206-1336	US		Hey Pretty Beth, so I thought I should send you this to at least put a smile on your face even from afar. And I ask that you keep this and wait patiently until we’re able to meet in person. I hope you like the flowers tho😘😘 From Morris Benjamin	false		
113-0154055-9452240	59982727497058	2020-06-12T04:44:17+00:00	2020-06-11T21:44:17-07:00	2020-06-12T04:45:12+00:00	2020-06-13T06:59:59+00:00	-1	5lnhzgb2gc5pbb4@marketplace.amazon.com	Girlie Carvelho	+1 210-728-4548 ext. 14062	ABR0022	Arabella Farm Direct Bouquet of 12 Fresh Cut Pink Roses with a Free Glass Vase	1	0	1	NextDay	Tess Montas	4148 EDENHURST AVE			LOS ANGELES	CA	90039-1306	US		Happy Birthday Tita Tess! Love: Michael, Girlie and Migi From Girlie Carvelho	false		
113-1323925-8859427	39777218591458	2020-06-12T04:40:41+00:00	2020-06-11T21:40:41-07:00	2020-06-12T04:46:12+00:00	2020-06-13T06:59:59+00:00	-1	jc9bd9syz01qsm4@marketplace.amazon.com	Kelly Hunter	+1 314-282-9402 ext. 90119	ABR0033	Arabella Farm Direct Bouquet of 12 Fresh Cut Orange Roses with a Free Glass Vase	1	0	1	NextDay	Shari White	1672 JACKSON DR			TROY	MI	48083-2042	US			false		
111-2798530-2356208	20889057909010	2020-06-12T04:46:49+00:00	2020-06-11T21:46:49-07:00	2020-06-12T04:47:46+00:00	2020-06-13T06:59:59+00:00	-1	6bqwv544l2291z4@marketplace.amazon.com	Anna Williams	+1 314-282-9402 ext. 51966	ABR0022	Arabella Farm Direct Bouquet of 12 Fresh Cut Pink Roses with a Free Glass Vase	1	0	1	NextDay	Julia O'Toole	4777 148TH AVE NE APT C207			BELLEVUE	WA	98007-3062	US		Congratulations, I am so proud of you officer O'Toole. From Anna Williams	false		
113-7775204-0844200	25526037567754	2020-06-12T04:47:48+00:00	2020-06-11T21:47:48-07:00	2020-06-12T04:51:14+00:00	2020-06-13T06:59:59+00:00	-1	5lnhzgb2gc5pbb4@marketplace.amazon.com	Girlie Carvelho	+1 346-307-9643 ext. 33042	ABR0022	Arabella Farm Direct Bouquet of 12 Fresh Cut Pink Roses with a Free Glass Vase	1	0	1	NextDay	Susan Canatsey	6278 PISCES ST			AGOURA HILLS	CA	91301-1730	US		Happy Birthday Tita Susan! Love: Michael, Girlie and Migi From Girlie Carvelho	false		
112-5758505-1965863	58401818897946	2020-06-12T07:34:41+00:00	2020-06-12T00:34:41-07:00	2020-06-12T07:37:17+00:00	2020-06-13T06:59:59+00:00	-1	vkjwt9gh0x36ytv@marketplace.amazon.com	Paul Trotter	+1 346-307-9643 ext. 26168	ABR0022	Arabella Farm Direct Bouquet of 12 Fresh Cut Pink Roses with a Free Glass Vase	1	0	1	NextDay	Mia Trotter	3212 WINESAP RD			HOPE MILLS	NC	28348-8322	US		To my baby, I miss it so much, I hope you like the flowers, love you baby.	false		
113-3144488-1025060	69251336035186	2020-06-12T07:30:42+00:00	2020-06-12T00:30:42-07:00	2020-06-12T09:26:42+00:00	2020-06-13T06:59:59+00:00	-1	p6m9t6zf8b7hk7f@marketplace.amazon.com	Andres Suarez	+1 314-282-9402 ext. 81069	ABR011	Arabella Bouquets 18 Stems of Fresh Cut Red Roses in a Free Glass Vase	1	0	1	NextDay	Kimberly Ann Fabri	1910 PACES LANDING AVE APT 1611			ROCK HILL	SC	29732-1678	US			false		
114-3226612-8592242	27562076624650	2020-06-12T10:35:41+00:00	2020-06-12T03:35:41-07:00	2020-06-12T10:36:42+00:00	2020-06-13T06:59:59+00:00	-1	qtpy04jxs84vgyh@marketplace.amazon.com	Christina Dryer	+1 346-307-9643 ext. 39997	ABM010	Arabella Bouquets | Fields of The World Bouquet of Fresh Cut Flowers in a Free Designer Glass Vase	1	0	1	NextDay	Tessa Halloran	22 BLOOM LN			PONTE VEDRA	FL	32081-6129	US		Happy Birthday Tessa! From Christina Dryer	false		
114-7118548-6157868	20047274803178	2020-06-12T11:57:40+00:00	2020-06-12T04:57:40-07:00	2020-06-12T11:58:50+00:00	2020-06-13T06:59:59+00:00	-1	7s3jg59mcnrmmwk@marketplace.amazon.com	frank	+1 314-282-9402 ext. 27705	ABR0022	Arabella Farm Direct Bouquet of 12 Fresh Cut Pink Roses with a Free Glass Vase	1	0	1	NextDay	Karen Semmel	2218 REMINGTON PARK DR	MARYVILLE TENNESSEE 37803		MARYVILLE	TN	37803-2881	US		Loving you my beautiful angel,is the best thing that has ever happened to me my wife.You make me so complete, you are so beautiful and so romantic,that you have captured my heart.I will be your man forever.LOVE YOU SO MUCH MICHAEL SMITH	false		
114-5628030-1611456	15508148078842	2020-06-12T11:58:31+00:00	2020-06-12T04:58:31-07:00	2020-06-12T12:01:24+00:00	2020-06-13T06:59:59+00:00	-1	px7k847skgctz9d@marketplace.amazon.com	Amber Manfredi	+1 346-307-9643 ext. 17147	ABM010	Arabella Bouquets | Fields of The World Bouquet of Fresh Cut Flowers in a Free Designer Glass Vase	1	0	1	NextDay	Patricia Abeling	365 RED MOUNTAIN AVE			TORRINGTON	CT	06790-3217	US		Happy birthday mom! We love you so much. Enjoy your day, wish we were there to celebrate with you. From Mike, Amber, and Jaden	false		
111-7296122-4657069	30132382470266	2020-06-12T12:06:57+00:00	2020-06-12T05:06:57-07:00	2020-06-12T12:08:00+00:00	2020-06-13T06:59:59+00:00	-1	6zd9g4dbcyym3jn@marketplace.amazon.com	Patricia Kendall	+1 346-307-9643 ext. 59325	ABR0022	Arabella Farm Direct Bouquet of 12 Fresh Cut Pink Roses with a Free Glass Vase	1	0	1	NextDay	Paula Donovan	2142 BROOKWOOD LN			MURFREESBORO	TN	37129-2811	US		Happy 80th Birthday! Will be thinking of you on your special day! Love, Patti	false		
113-9460476-8945046	02612891910690	2020-06-12T12:03:35+00:00	2020-06-12T05:03:35-07:00	2020-06-12T12:08:59+00:00	2020-06-13T06:59:59+00:00	-1	0ytqj7swbxrld7r@marketplace.amazon.com	Ashanti	+1 346-307-9643 ext. 59849	ABM010	Arabella Bouquets | Fields of The World Bouquet of Fresh Cut Flowers in a Free Designer Glass Vase	1	0	1	NextDay	Ashanti Johnson	4811 TIMBER PATH DR			HUMBLE	TX	77346-4464	US			false		
111-0902499-8281019	45572944401874	2020-06-12T12:24:00+00:00	2020-06-12T05:24:00-07:00	2020-06-12T12:28:24+00:00	2020-06-13T06:59:59+00:00	-1	p4rxxqqjzqhl0hs@marketplace.amazon.com	DW	+1 314-282-9402 ext. 37579	ABSR003	Arabella Bouquets Fresh Cut Yellow Spray Roses in a Free Designer Glass Vase	1	0	1	NextDay	Jessica Thomas	328 MUNAHAN CIR UNIT B			INDIAN HEAD	MD	20640-4409	US			false		
112-5533113-5964213	26075950834050	2020-06-12T04:01:58+00:00	2020-06-11T21:01:58-07:00	2020-06-12T12:30:33+00:00	2020-06-18T06:59:59+00:00	-6	8zf907slzqq7cnc@marketplace.amazon.com	Wit Yee Kyaw	+1 314-282-9402 ext. 96927	ABR0055	Arabella Farm Direct Bouquet of 12 Stems of Fresh Cut Hot Pink Roses in a Free Designer Glass Vase	1	0	1	Expedited	Mrs. Leger	139 HICKORY CORNER RD			EAST WINDSOR	NJ	08520-2415	US			false		
111-4593245-9047458	00350223105322	2020-06-12T12:32:02+00:00	2020-06-12T05:32:02-07:00	2020-06-12T12:36:53+00:00	2020-06-13T06:59:59+00:00	-1	zk54h3609zrfpct@marketplace.amazon.com	Alexander Winship	+1 346-307-9643 ext. 00829	ABR0022	Arabella Farm Direct Bouquet of 12 Fresh Cut Pink Roses with a Free Glass Vase	1	0	1	NextDay	Alexander Winship	44844 LINCOLN ST APT 3			FORT RILEY	KS	66442-1457	US		Happy Anniversary Baby! From Alexander Winship	false		
114-6798403-0982641	52773090068306	2020-06-12T12:52:52+00:00	2020-06-12T05:52:52-07:00	2020-06-12T12:54:23+00:00	2020-06-13T06:59:59+00:00	-1	98vtdy2t2x6n22r@marketplace.amazon.com	Kevin R Hensarling	+1 346-307-9643 ext. 69137	ABR0033	Arabella Farm Direct Bouquet of 12 Fresh Cut Orange Roses with a Free Glass Vase	1	0	1	NextDay	Margaret Schneller	2708 WHITNEY PL APT 804			METAIRIE	LA	70002-6245	US		Happy 100th birthday Mawmaw!!   You are a rare and precious treasure!! Many blessings and hugs and much love ! From Rich, Michelle and Soriya	false		
113-8872006-9002659	45103154631338	2020-06-12T12:57:42+00:00	2020-06-12T05:57:42-07:00	2020-06-12T13:01:56+00:00	2020-06-13T06:59:59+00:00	-1	djryxt5p1t06l1z@marketplace.amazon.com	Sherri L. Thomas	+1 210-728-4548 ext. 68210	ABR0022	Arabella Farm Direct Bouquet of 12 Fresh Cut Pink Roses with a Free Glass Vase	1	0	1	NextDay	Angela Abrishami	9173 BEALLS FARM RD			FREDERICK	MD	21704-7926	US		Happy Birthday beautiful girl!   We love and miss you so much.  We will celebrate when you return from OBX.         XOXO Sherri Bob & RJ	false		
111-3617390-6534613	39758733203042	2020-06-12T12:59:52+00:00	2020-06-12T05:59:52-07:00	2020-06-12T13:12:28+00:00	2020-06-13T06:59:59+00:00	-1	3xvmpsdphqnk271@marketplace.amazon.com	Chris Warren	+1 346-307-9643 ext. 93137	ABR0055	Arabella Farm Direct Bouquet of 12 Stems of Fresh Cut Hot Pink Roses in a Free Designer Glass Vase	1	0	1	SecondDay	Kathy Warren	4013 CAROLINA DR			ANDERSON	IN	46013-2475	US		Charm is deceitful, and beauty is vain, but a woman who fears the Lord is to be praised. – Proverbs 31:30 From Chris Warren	false		
114-8725459-5545833	09847511703706	2020-06-12T13:33:24+00:00	2020-06-12T06:33:24-07:00	2020-06-12T13:36:59+00:00	2020-06-13T06:59:59+00:00	-1	1zyybv8dvql5t9b@marketplace.amazon.com	James C. Townsend	+1 210-728-4548 ext. 34217	ABR0022	Purchase Now for Delivery by Monday | Arabella Farm Direct Bouquet of 12 Fresh Cut Pink Roses with a Free Glass Vase	1	0	1	NextDay	John P. Townsend	1556 WEAVERSVILLE RD			NORTHAMPTON	PA	18067-9039	US			false		
114-3046943-3080269	42109187958066	2020-06-12T14:24:23+00:00	2020-06-12T07:24:23-07:00	2020-06-12T14:25:32+00:00	2020-06-13T06:59:59+00:00	-1	b65j5ljm8l35fvw@marketplace.amazon.com	Lynn Mills	+1 314-282-9402 ext. 57059	ABR0022	Purchase Now for Delivery by Monday | Arabella Farm Direct Bouquet of 12 Fresh Cut Pink Roses with a Free Glass Vase	1	0	1	NextDay	Candace Mills	5021 N OZARK AVE			NORRIDGE	IL	60706-3338	US			false		
