order-id	order-item-id	purchase-date	payments-date	reporting-date	promise-date	days-past-promise	buyer-email	buyer-name	buyer-phone-number	sku	product-name	quantity-purchased	quantity-shipped	quantity-to-ship	ship-service-level	recipient-name	ship-address-1	ship-address-2	ship-address-3	ship-city	ship-state	ship-postal-code	ship-country	gift-wrap-type	gift-message-text	is-business-order	purchase-order-number	price-designation
114-8222624-8935442	61700923167802	2020-06-12T18:21:13+00:00	2020-06-12T11:21:13-07:00	2020-06-12T18:24:00+00:00	2020-06-16T06:59:59+00:00	-4	44rgp6sd0qflcrm@marketplace.amazon.com	john wright	+1 346-307-9643 ext. 36214	ABR0022	Purchase Now for Delivery by Tuesday | Arabella Farm Direct Bouquet of 12 Fresh Cut Pink Roses with a Free Glass Vase	1	0	1	NextDay	Ann Meyer	1911 SW CAMPUS DR # 484			FEDERAL WAY	WA	98023-6473	US		Ann,  Sorry for the loss of your mother! You are in our thoughts and prayers.  Deepest Condolences,  David andEveline Wright From john wright	false		
111-7613730-7580212	07420498432522	2020-06-12T18:58:06+00:00	2020-06-12T11:58:06-07:00	2020-06-12T19:17:10+00:00	2020-06-16T06:59:59+00:00	-4	47m5hgtcpzj2t0l@marketplace.amazon.com	jocelyn morales	+1 314-282-9402 ext. 82613	ABR004	Arabella Farm Direct Bouquet of 12 Fresh Cut Yellow Roses with a Free Glass Vase	1	0	1	SecondDay	Fany Morales	525 S LA FAYETTE PARK PL UNIT 102			LOS ANGELES	CA	90057-1608	US		Muchas felicidades por tu logro y gracias por ayudar le a María! From Graciela	false		
111-7613730-7580212	41897241843618	2020-06-12T18:58:06+00:00	2020-06-12T11:58:06-07:00	2020-06-12T19:17:10+00:00	2020-06-16T06:59:59+00:00	-4	47m5hgtcpzj2t0l@marketplace.amazon.com	jocelyn morales	+1 314-282-9402 ext. 82613	ABR001	Purchase Now for Delivery by Tuesday | Arabella Bouquets 12 Stems of Fresh Cut Red Roses in a Free Designer Glass Vase	1	0	1	SecondDay	Fany Morales	525 S LA FAYETTE PARK PL UNIT 102			LOS ANGELES	CA	90057-1608	US		FELICIDADES POR TÚ LOGRO DE LLEGAR HASTA DONDE ESTÁS!! From Mommy &#60;3	false		
114-0461614-6855448	07092800089930	2020-06-12T19:10:20+00:00	2020-06-12T12:10:20-07:00	2020-06-12T19:34:31+00:00	2020-06-16T06:59:59+00:00	-4	svtgchmy1m4jmjf@marketplace.amazon.com	Ereka Whiting	+1 346-307-9643 ext. 71631	ABR0033	Purchase Now for Delivery by Tuesday | Arabella Farm Direct Bouquet of 12 Fresh Cut Orange Roses with a Free Glass Vase	1	0	1	SecondDay	Sarah Scott	467 E 8490 S			SANDY	UT	84070-0523	US		Sarah, I’m so sorry that you’ve had so much loss and pain in your life while I haven’t lost a sibling I lost my parents and I know your heart hurts But stay strong you’re a wonderful loving person!! From Ereka Whiting	false		
111-1754678-9647446	18145479259634	2020-06-12T19:20:29+00:00	2020-06-12T12:20:29-07:00	2020-06-12T19:37:37+00:00	2020-06-16T06:59:59+00:00	-4	hwlxkj77mjp0flf@marketplace.amazon.com	Darlene Hall	+1 346-307-9643 ext. 97585	ABM010	Purchase Now for Delivery by Tuesday | Arabella Bouquets | Fields of The World Bouquet of Fresh Cut Flowers in a Free Designer Glass Vase	1	0	1	SecondDay	Darlene Hall	921 WILLIAMS BLVD			SPRINGFIELD	IL	62704-2807	US			false		
111-3595827-9805826	04739478722458	2020-06-12T19:13:52+00:00	2020-06-12T12:13:52-07:00	2020-06-12T19:42:44+00:00	2020-06-16T06:59:59+00:00	-4	5r4zdjnwcwnd0x3@marketplace.amazon.com	Belinda	+1 346-307-9643 ext. 72226	ABR0055	Arabella Farm Direct Bouquet of 12 Stems of Fresh Cut Hot Pink Roses in a Free Designer Glass Vase	1	0	1	SecondDay	Lucy Benavides	2120 VALLEY LN			FORT SMITH	AR	72901-5843	US		Missing you so much, my friend! Get well soon!’ From Belinda	false		
112-6975996-3478603	00664162712274	2020-06-12T19:34:13+00:00	2020-06-12T12:34:13-07:00	2020-06-12T19:58:28+00:00	2020-06-16T06:59:59+00:00	-4	twvykk1f13xychd@marketplace.amazon.com	Megan Struckel	+1 346-307-9643 ext. 02299	ABM010	Purchase Now for Delivery by Tuesday | Arabella Bouquets | Fields of The World Bouquet of Fresh Cut Flowers in a Free Designer Glass Vase	1	0	1	SecondDay	Hillary Birthday Girl Danielovich	27 AMES HAVEN RD			SHUTESBURY	MA	01072-9735	US		Happiest Birthday to our favorite Hilly!  We wish we could celebrate in person with you on your special day xoxo We request a raincheck to use these fun goodies with you when you're back in Boston!  With Love,Megan and Dale	false		
113-5105228-0972222	31163246427146	2020-06-12T20:10:46+00:00	2020-06-12T13:10:46-07:00	2020-06-12T20:39:37+00:00	2020-06-16T06:59:59+00:00	-4	9z29p35j3zg7k6m@marketplace.amazon.com	Jennifer Allen	+1 210-728-4548 ext. 58991	ABR0022	Purchase Now for Delivery by Tuesday | Arabella Farm Direct Bouquet of 12 Fresh Cut Pink Roses with a Free Glass Vase	1	0	1	SecondDay	Donna Bahr	127 PARK AVE SW APT 12			SILVER LAKE	MN	55381-9612	US		Happy 73rd Birthday Mom! You are lovely in your 73 years! Love you! From Jennifer Allen	false		
114-7500836-0657861	45304050861234	2020-06-12T20:20:04+00:00	2020-06-12T13:20:04-07:00	2020-06-12T20:40:52+00:00	2020-06-16T06:59:59+00:00	-4	z7vk1ybwx99fqbz@marketplace.amazon.com	Peter C Forsgren	+1 314-282-9402 ext. 26979	ABM010	Purchase Now for Delivery by Tuesday | Arabella Bouquets | Fields of The World Bouquet of Fresh Cut Flowers in a Free Designer Glass Vase	1	0	1	SecondDay	Inga Grove	2849 HALE RD			WILMINGTON	OH	45177-8513	US		Dear Inga,  Happy Birthday and we wish you and your family a very special celebration.  Love Luisa and Peter	false		
113-7750716-5597039	30374125646642	2020-06-12T20:29:30+00:00	2020-06-12T13:29:30-07:00	2020-06-12T20:48:13+00:00	2020-06-16T06:59:59+00:00	-4	38c8cbw216tm811@marketplace.amazon.com	Glen King	+1 346-307-9643 ext. 81818	ABM010	Purchase Now for Delivery by Tuesday | Arabella Bouquets | Fields of The World Bouquet of Fresh Cut Flowers in a Free Designer Glass Vase	1	0	1	SecondDay	Eric and Natalie King	8533 SW 37TH AVE			PORTLAND	OR	97219-3628	US			false		
111-0797266-3623414	34142108325682	2020-06-12T20:45:44+00:00	2020-06-12T13:45:44-07:00	2020-06-12T21:13:37+00:00	2020-06-18T06:59:59+00:00	-6	v5fvs4y1ppfn799@marketplace.amazon.com	Tania Haile	+1 346-307-9643 ext. 96389	ABR012	Arabella Farm Direct Bouquet of 18 Fresh Cut Pink Roses with a Free Glass Vase	1	0	1	Standard	Tania Haile	849 Sarah Miles Court			Manitowoc	Wisconsin	54220	US		Happy Birthday! From Jan, Todd, Kendall, Kyle and Riley	false		
111-0693123-7929019	57800772006858	2020-06-12T20:51:56+00:00	2020-06-12T13:51:56-07:00	2020-06-12T21:20:12+00:00	2020-06-18T06:59:59+00:00	-6	v5fvs4y1ppfn799@marketplace.amazon.com	Tania Haile	+1 210-728-4548 ext. 37916	ABM010	Purchase Now for Delivery by Tuesday | Arabella Bouquets | Fields of The World Bouquet of Fresh Cut Flowers in a Free Designer Glass Vase	1	0	1	Standard	Tania Haile	849 Sarah Miles Court			Manitowoc	Wisconsin	54220	US		Cheers to 50 beautiful years!!!! From The Geenan Family	false		
112-6971228-9961030	39082122372346	2020-06-12T21:11:28+00:00	2020-06-12T14:11:28-07:00	2020-06-12T21:36:59+00:00	2020-06-16T06:59:59+00:00	-4	nqmw1qksyp8xl4d@marketplace.amazon.com	Your husband	+1 210-728-4548 ext. 88495	ABR001	Purchase Now for Delivery by Tuesday | Arabella Bouquets 12 Stems of Fresh Cut Red Roses in a Free Designer Glass Vase	1	0	1	SecondDay	Amalia Taranco	330 NW 119TH AVE			MIAMI	FL	33182-1332	US			false		
113-3156076-7901810	18202984936730	2020-06-12T21:19:42+00:00	2020-06-12T14:19:42-07:00	2020-06-12T21:40:07+00:00	2020-06-16T06:59:59+00:00	-4	q23z86vk8bgy1v9@marketplace.amazon.com	Destiny Ford	+1 210-728-4548 ext. 24856	ABR0022	Purchase Now for Delivery by Tuesday | Arabella Farm Direct Bouquet of 12 Fresh Cut Pink Roses with a Free Glass Vase	1	0	1	SecondDay	Destiny Williams	624 CABOT CT APT 201			MEMPHIS	TN	38103-4790	US		I love you, bae. Everyday I am thankful to be your husband. As the years go on, I pray that our love continues to grow more abundant. You deserve the best and everything that God has in store for you. I am thankful for you. From Devin Ford	false		
112-7273476-9933811	70341888320954	2020-06-12T21:22:51+00:00	2020-06-12T14:22:51-07:00	2020-06-12T21:51:00+00:00	2020-06-16T06:59:59+00:00	-4	jtkv2wgh0tsmkm3@marketplace.amazon.com	Mary Catherine Bernardi Dawson	+1 346-307-9643 ext. 03650	ABR0055	Arabella Farm Direct Bouquet of 12 Stems of Fresh Cut Hot Pink Roses in a Free Designer Glass Vase	1	0	1	SecondDay	Lucy Berg	5946 W HIGGINS AVE			CHICAGO	IL	60630-1949	US		Happy Birthday Lucy!  Love,  Cathy, Mark & Daniela	false		
112-8535023-2990640	06300003165378	2020-06-12T22:03:39+00:00	2020-06-12T15:03:39-07:00	2020-06-12T22:31:48+00:00	2020-06-16T06:59:59+00:00	-4	d3n89j1sy6626kd@marketplace.amazon.com	Marilena Hatoupis	+1 346-307-9643 ext. 37559	ABM010	Purchase Now for Delivery by Tuesday | Arabella Bouquets | Fields of The World Bouquet of Fresh Cut Flowers in a Free Designer Glass Vase	1	0	1	SecondDay	Karen Nicolaidis	42 HASTINGS RD			BERKELEY HEIGHTS	NJ	07922-1230	US		Dear Karen, we hope everything went well with the surgery and you feel better and better every day. Looking forward to seeing you soon. Much love and many hugs from the Hatoupis Family From Marilena Hatoupis	false		
113-7637401-5895415	49359343709114	2020-06-12T22:18:06+00:00	2020-06-12T15:18:06-07:00	2020-06-12T22:39:08+00:00	2020-06-16T06:59:59+00:00	-4	3q8sz80rttrqwr3@marketplace.amazon.com	Carolyn Lamb	+1 210-728-4548 ext. 05047	ABR012	Arabella Farm Direct Bouquet of 18 Fresh Cut Pink Roses with a Free Glass Vase	1	0	1	SecondDay	Grainne Valorz	1508 S IDALIA ST			AURORA	CO	80017-5006	US		Grainne, Since we can’t go out to celebrate, you get flowers instead.  Happy Birthday! Love, Carolyn From Carolyn Lamb	false		
111-8356757-1062600	05851205980234	2020-06-12T22:20:27+00:00	2020-06-12T15:20:27-07:00	2020-06-12T22:47:16+00:00	2020-06-16T06:59:59+00:00	-4	w5zd1rncw2fnl0v@marketplace.amazon.com	Dallas Owens	+1 346-307-9643 ext. 85425	ABR0022	Purchase Now for Delivery by Tuesday | Arabella Farm Direct Bouquet of 12 Fresh Cut Pink Roses with a Free Glass Vase	1	0	1	SecondDay	Vivienne Galeano	8939 WICKER LN			NEW PORT RICHEY	FL	34654-5015	US		The boys in Oklahoma hope you get better soon! By the way, is this the first time you have been sent flowers from a guy(s) and liked it? :) From Joey, Dallas, Michael, Giovanni, & George From Joey, Dallas, Michael, Giovanni, & George	false		
