order-id	order-item-id	purchase-date	payments-date	reporting-date	promise-date	days-past-promise	buyer-email	buyer-name	buyer-phone-number	sku	product-name	quantity-purchased	quantity-shipped	quantity-to-ship	ship-service-level	recipient-name	ship-address-1	ship-address-2	ship-address-3	ship-city	ship-state	ship-postal-code	ship-country	gift-wrap-type	gift-message-text	is-business-order	purchase-order-number	price-designation
114-8222624-8935442	61700923167802	2020-06-12T18:21:13+00:00	2020-06-12T11:21:13-07:00	2020-06-12T18:24:00+00:00	2020-06-16T06:59:59+00:00	-3	44rgp6sd0qflcrm@marketplace.amazon.com	john wright	+1 346-307-9643 ext. 36214	ABR0022	Purchase Now for Delivery by Tuesday | Arabella Farm Direct Bouquet of 12 Fresh Cut Pink Roses with a Free Glass Vase	1	0	1	NextDay	Ann Meyer	1911 SW CAMPUS DR # 484			FEDERAL WAY	WA	98023-6473	US		Ann,  Sorry for the loss of your mother! You are in our thoughts and prayers.  Deepest Condolences,  David andEveline Wright From john wright	false		
111-7613730-7580212	07420498432522	2020-06-12T18:58:06+00:00	2020-06-12T11:58:06-07:00	2020-06-12T19:17:10+00:00	2020-06-16T06:59:59+00:00	-3	47m5hgtcpzj2t0l@marketplace.amazon.com	jocelyn morales	+1 314-282-9402 ext. 82613	ABR004	Arabella Farm Direct Bouquet of 12 Fresh Cut Yellow Roses with a Free Glass Vase	1	0	1	SecondDay	Fany Morales	525 S LA FAYETTE PARK PL UNIT 102			LOS ANGELES	CA	90057-1608	US		Muchas felicidades por tu logro y gracias por ayudar le a María! From Graciela	false		
111-7613730-7580212	41897241843618	2020-06-12T18:58:06+00:00	2020-06-12T11:58:06-07:00	2020-06-12T19:17:10+00:00	2020-06-16T06:59:59+00:00	-3	47m5hgtcpzj2t0l@marketplace.amazon.com	jocelyn morales	+1 314-282-9402 ext. 82613	ABR001	Purchase Now for Delivery by Tuesday | Arabella Bouquets 12 Stems of Fresh Cut Red Roses in a Free Designer Glass Vase	1	0	1	SecondDay	Fany Morales	525 S LA FAYETTE PARK PL UNIT 102			LOS ANGELES	CA	90057-1608	US		FELICIDADES POR TÚ LOGRO DE LLEGAR HASTA DONDE ESTÁS!! From Mommy &#60;3	false		
114-0461614-6855448	07092800089930	2020-06-12T19:10:20+00:00	2020-06-12T12:10:20-07:00	2020-06-12T19:34:31+00:00	2020-06-16T06:59:59+00:00	-3	svtgchmy1m4jmjf@marketplace.amazon.com	Ereka Whiting	+1 346-307-9643 ext. 71631	ABR0033	Purchase Now for Delivery by Tuesday | Arabella Farm Direct Bouquet of 12 Fresh Cut Orange Roses with a Free Glass Vase	1	0	1	SecondDay	Sarah Scott	467 E 8490 S			SANDY	UT	84070-0523	US		Sarah, I’m so sorry that you’ve had so much loss and pain in your life while I haven’t lost a sibling I lost my parents and I know your heart hurts But stay strong you’re a wonderful loving person!! From Ereka Whiting	false		
111-1754678-9647446	18145479259634	2020-06-12T19:20:29+00:00	2020-06-12T12:20:29-07:00	2020-06-12T19:37:37+00:00	2020-06-16T06:59:59+00:00	-3	hwlxkj77mjp0flf@marketplace.amazon.com	Darlene Hall	+1 346-307-9643 ext. 97585	ABM010	Purchase Now for Delivery by Tuesday | Arabella Bouquets | Fields of The World Bouquet of Fresh Cut Flowers in a Free Designer Glass Vase	1	0	1	SecondDay	Darlene Hall	921 WILLIAMS BLVD			SPRINGFIELD	IL	62704-2807	US			false		
111-3595827-9805826	04739478722458	2020-06-12T19:13:52+00:00	2020-06-12T12:13:52-07:00	2020-06-12T19:42:44+00:00	2020-06-16T06:59:59+00:00	-3	5r4zdjnwcwnd0x3@marketplace.amazon.com	Belinda	+1 346-307-9643 ext. 72226	ABR0055	Arabella Farm Direct Bouquet of 12 Stems of Fresh Cut Hot Pink Roses in a Free Designer Glass Vase	1	0	1	SecondDay	Lucy Benavides	2120 VALLEY LN			FORT SMITH	AR	72901-5843	US		Missing you so much, my friend! Get well soon!’ From Belinda	false		
112-6975996-3478603	00664162712274	2020-06-12T19:34:13+00:00	2020-06-12T12:34:13-07:00	2020-06-12T19:58:28+00:00	2020-06-16T06:59:59+00:00	-3	twvykk1f13xychd@marketplace.amazon.com	Megan Struckel	+1 346-307-9643 ext. 02299	ABM010	Purchase Now for Delivery by Tuesday | Arabella Bouquets | Fields of The World Bouquet of Fresh Cut Flowers in a Free Designer Glass Vase	1	0	1	SecondDay	Hillary Birthday Girl Danielovich	27 AMES HAVEN RD			SHUTESBURY	MA	01072-9735	US		Happiest Birthday to our favorite Hilly!  We wish we could celebrate in person with you on your special day xoxo We request a raincheck to use these fun goodies with you when you're back in Boston!  With Love,Megan and Dale	false		
113-5105228-0972222	31163246427146	2020-06-12T20:10:46+00:00	2020-06-12T13:10:46-07:00	2020-06-12T20:39:37+00:00	2020-06-16T06:59:59+00:00	-3	9z29p35j3zg7k6m@marketplace.amazon.com	Jennifer Allen	+1 210-728-4548 ext. 58991	ABR0022	Purchase Now for Delivery by Tuesday | Arabella Farm Direct Bouquet of 12 Fresh Cut Pink Roses with a Free Glass Vase	1	0	1	SecondDay	Donna Bahr	127 PARK AVE SW APT 12			SILVER LAKE	MN	55381-9612	US		Happy 73rd Birthday Mom! You are lovely in your 73 years! Love you! From Jennifer Allen	false		
114-7500836-0657861	45304050861234	2020-06-12T20:20:04+00:00	2020-06-12T13:20:04-07:00	2020-06-12T20:40:52+00:00	2020-06-16T06:59:59+00:00	-3	z7vk1ybwx99fqbz@marketplace.amazon.com	Peter C Forsgren	+1 314-282-9402 ext. 26979	ABM010	Purchase Now for Delivery by Tuesday | Arabella Bouquets | Fields of The World Bouquet of Fresh Cut Flowers in a Free Designer Glass Vase	1	0	1	SecondDay	Inga Grove	2849 HALE RD			WILMINGTON	OH	45177-8513	US		Dear Inga,  Happy Birthday and we wish you and your family a very special celebration.  Love Luisa and Peter	false		
113-7750716-5597039	30374125646642	2020-06-12T20:29:30+00:00	2020-06-12T13:29:30-07:00	2020-06-12T20:48:13+00:00	2020-06-16T06:59:59+00:00	-3	38c8cbw216tm811@marketplace.amazon.com	Glen King	+1 346-307-9643 ext. 81818	ABM010	Purchase Now for Delivery by Tuesday | Arabella Bouquets | Fields of The World Bouquet of Fresh Cut Flowers in a Free Designer Glass Vase	1	0	1	SecondDay	Eric and Natalie King	8533 SW 37TH AVE			PORTLAND	OR	97219-3628	US			false		
111-0797266-3623414	34142108325682	2020-06-12T20:45:44+00:00	2020-06-12T13:45:44-07:00	2020-06-12T21:13:37+00:00	2020-06-18T06:59:59+00:00	-5	v5fvs4y1ppfn799@marketplace.amazon.com	Tania Haile	+1 346-307-9643 ext. 96389	ABR012	Arabella Farm Direct Bouquet of 18 Fresh Cut Pink Roses with a Free Glass Vase	1	0	1	Standard	Tania Haile	849 Sarah Miles Court			Manitowoc	Wisconsin	54220	US		Happy Birthday! From Jan, Todd, Kendall, Kyle and Riley	false		
111-0693123-7929019	57800772006858	2020-06-12T20:51:56+00:00	2020-06-12T13:51:56-07:00	2020-06-12T21:20:12+00:00	2020-06-18T06:59:59+00:00	-5	v5fvs4y1ppfn799@marketplace.amazon.com	Tania Haile	+1 210-728-4548 ext. 37916	ABM010	Purchase Now for Delivery by Tuesday | Arabella Bouquets | Fields of The World Bouquet of Fresh Cut Flowers in a Free Designer Glass Vase	1	0	1	Standard	Tania Haile	849 Sarah Miles Court			Manitowoc	Wisconsin	54220	US		Cheers to 50 beautiful years!!!! From The Geenan Family	false		
112-6971228-9961030	39082122372346	2020-06-12T21:11:28+00:00	2020-06-12T14:11:28-07:00	2020-06-12T21:36:59+00:00	2020-06-16T06:59:59+00:00	-3	nqmw1qksyp8xl4d@marketplace.amazon.com	Your husband	+1 210-728-4548 ext. 88495	ABR001	Purchase Now for Delivery by Tuesday | Arabella Bouquets 12 Stems of Fresh Cut Red Roses in a Free Designer Glass Vase	1	0	1	SecondDay	Amalia Taranco	330 NW 119TH AVE			MIAMI	FL	33182-1332	US			false		
113-3156076-7901810	18202984936730	2020-06-12T21:19:42+00:00	2020-06-12T14:19:42-07:00	2020-06-12T21:40:07+00:00	2020-06-16T06:59:59+00:00	-3	q23z86vk8bgy1v9@marketplace.amazon.com	Destiny Ford	+1 210-728-4548 ext. 24856	ABR0022	Purchase Now for Delivery by Tuesday | Arabella Farm Direct Bouquet of 12 Fresh Cut Pink Roses with a Free Glass Vase	1	0	1	SecondDay	Destiny Williams	624 CABOT CT APT 201			MEMPHIS	TN	38103-4790	US		I love you, bae. Everyday I am thankful to be your husband. As the years go on, I pray that our love continues to grow more abundant. You deserve the best and everything that God has in store for you. I am thankful for you. From Devin Ford	false		
112-7273476-9933811	70341888320954	2020-06-12T21:22:51+00:00	2020-06-12T14:22:51-07:00	2020-06-12T21:51:00+00:00	2020-06-16T06:59:59+00:00	-3	jtkv2wgh0tsmkm3@marketplace.amazon.com	Mary Catherine Bernardi Dawson	+1 346-307-9643 ext. 03650	ABR0055	Arabella Farm Direct Bouquet of 12 Stems of Fresh Cut Hot Pink Roses in a Free Designer Glass Vase	1	0	1	SecondDay	Lucy Berg	5946 W HIGGINS AVE			CHICAGO	IL	60630-1949	US		Happy Birthday Lucy!  Love,  Cathy, Mark & Daniela	false		
112-8535023-2990640	06300003165378	2020-06-12T22:03:39+00:00	2020-06-12T15:03:39-07:00	2020-06-12T22:31:48+00:00	2020-06-16T06:59:59+00:00	-3	d3n89j1sy6626kd@marketplace.amazon.com	Marilena Hatoupis	+1 346-307-9643 ext. 37559	ABM010	Purchase Now for Delivery by Tuesday | Arabella Bouquets | Fields of The World Bouquet of Fresh Cut Flowers in a Free Designer Glass Vase	1	0	1	SecondDay	Karen Nicolaidis	42 HASTINGS RD			BERKELEY HEIGHTS	NJ	07922-1230	US		Dear Karen, we hope everything went well with the surgery and you feel better and better every day. Looking forward to seeing you soon. Much love and many hugs from the Hatoupis Family From Marilena Hatoupis	false		
113-7637401-5895415	49359343709114	2020-06-12T22:18:06+00:00	2020-06-12T15:18:06-07:00	2020-06-12T22:39:08+00:00	2020-06-16T06:59:59+00:00	-3	3q8sz80rttrqwr3@marketplace.amazon.com	Carolyn Lamb	+1 210-728-4548 ext. 05047	ABR012	Arabella Farm Direct Bouquet of 18 Fresh Cut Pink Roses with a Free Glass Vase	1	0	1	SecondDay	Grainne Valorz	1508 S IDALIA ST			AURORA	CO	80017-5006	US		Grainne, Since we can’t go out to celebrate, you get flowers instead.  Happy Birthday! Love, Carolyn From Carolyn Lamb	false		
111-8356757-1062600	05851205980234	2020-06-12T22:20:27+00:00	2020-06-12T15:20:27-07:00	2020-06-12T22:47:16+00:00	2020-06-16T06:59:59+00:00	-3	w5zd1rncw2fnl0v@marketplace.amazon.com	Dallas Owens	+1 346-307-9643 ext. 85425	ABR0022	Purchase Now for Delivery by Tuesday | Arabella Farm Direct Bouquet of 12 Fresh Cut Pink Roses with a Free Glass Vase	1	0	1	SecondDay	Vivienne Galeano	8939 WICKER LN			NEW PORT RICHEY	FL	34654-5015	US		The boys in Oklahoma hope you get better soon! By the way, is this the first time you have been sent flowers from a guy(s) and liked it? :) From Joey, Dallas, Michael, Giovanni, & George From Joey, Dallas, Michael, Giovanni, & George	false		
114-2326460-4870655	45518414547490	2020-06-12T23:04:30+00:00	2020-06-12T16:04:30-07:00	2020-06-12T23:33:41+00:00	2020-06-16T06:59:59+00:00	-3	82hbkvq5h1d4ywm@marketplace.amazon.com	Tobi A Farias	+1 210-728-4548 ext. 89767	ABR0022	Purchase Now for Delivery by Tuesday | Arabella Farm Direct Bouquet of 12 Fresh Cut Pink Roses with a Free Glass Vase	1	0	1	SecondDay	Rachel Farias	182 CROWN POINTE BLVD APT 121			WILLOW PARK	TX	76087-1121	US		Freedom!!!! Congratulations Rachel Joy! We are so proud of you!! Love mommy&daddy From Tobi A Farias	false		
114-1979390-1289040	62935903065570	2020-06-12T23:11:26+00:00	2020-06-12T16:11:26-07:00	2020-06-12T23:43:32+00:00	2020-06-16T06:59:59+00:00	-3	pkyg2pbw5dk6dqy@marketplace.amazon.com	Paige Bartley	+1 346-307-9643 ext. 59602	ABR012	Arabella Farm Direct Bouquet of 18 Fresh Cut Pink Roses with a Free Glass Vase	1	0	1	SecondDay	Yvonne Arrington	311 BELLEFONTE DR			ASHLAND	KY	41101-2113	US		Hi Yvonne, Enjoy your gift! From Paige Bartley	false		
112-8491135-0154656	65572116318178	2020-06-12T23:27:49+00:00	2020-06-12T16:27:49-07:00	2020-06-12T23:58:07+00:00	2020-06-16T06:59:59+00:00	-3	bjxzpsbxysypm0v@marketplace.amazon.com	Robert Keddrell	+1 346-307-9643 ext. 77102	ABR0022	Purchase Now for Delivery by Tuesday | Arabella Farm Direct Bouquet of 12 Fresh Cut Pink Roses with a Free Glass Vase	1	0	1	SecondDay	Robert Keddrell	61 OLD ROOSA GAP RD			BLOOMINGBURG	NY	12721-4691	US			false		
112-8610674-3589849	60525822028274	2020-06-12T23:43:12+00:00	2020-06-12T16:43:12-07:00	2020-06-13T00:12:50+00:00	2020-06-16T06:59:59+00:00	-3	7hkdnknm57fbgp1@marketplace.amazon.com	Balair	+1 210-728-4548 ext. 96356	ABR0022	Purchase Now for Delivery by Tuesday | Arabella Farm Direct Bouquet of 12 Fresh Cut Pink Roses with a Free Glass Vase	1	0	1	SecondDay	Kayla Kien	6522 87TH AVE W			UNIVERSITY PLACE	WA	98467-4050	US			false		
111-4432569-5596256	54812764833706	2020-06-13T00:06:10+00:00	2020-06-12T17:06:10-07:00	2020-06-13T00:33:41+00:00	2020-06-16T06:59:59+00:00	-3	dxmrsz8sfrn3lp5@marketplace.amazon.com	Jeanne Cella	+1 346-307-9643 ext. 82627	ABR0055	Arabella Farm Direct Bouquet of 12 Stems of Fresh Cut Hot Pink Roses in a Free Designer Glass Vase	1	0	1	SecondDay	JEANNE FOTI	4624 CRESTMERE LN			EDMOND	OK	73025-1267	US		Happy birthday, Jeanne!  We live and miss you. From Jeanne and Michael Cella	false		
113-8337884-5731466	38432583154458	2020-06-13T00:21:34+00:00	2020-06-12T17:21:34-07:00	2020-06-13T00:48:24+00:00	2020-06-16T06:59:59+00:00	-3	g7f431l6t7cb4px@marketplace.amazon.com	renee clark	+1 346-307-9643 ext. 20708	ABR001	Purchase Now for Delivery by Tuesday | Arabella Bouquets 12 Stems of Fresh Cut Red Roses in a Free Designer Glass Vase	1	0	1	SecondDay	jackie dandy perkins	10260 STROME AVE APT 108			RALEIGH	NC	27617-4372	US		Happy birthday Jackie, may the lord continue to cover you with the blood of Jesus. Thank you for being there for ray and me. God bless you. From renee clark and ray  ray	false		
113-7184105-4784260	19514839875754	2020-06-13T00:50:25+00:00	2020-06-12T17:50:25-07:00	2020-06-13T01:18:41+00:00	2020-06-16T06:59:59+00:00	-3	kkx2fbhvjl7j5qw@marketplace.amazon.com	Adrian Vargas	+1 210-728-4548 ext. 66106	ABR0055	Arabella Farm Direct Bouquet of 12 Stems of Fresh Cut Hot Pink Roses in a Free Designer Glass Vase	1	0	1	SecondDay	Alicia Vargas	8625 IRWIN AVE			EL PASO	TX	79907-6113	US			false		
113-0865768-0961022	33506689085082	2020-06-13T00:51:36+00:00	2020-06-12T17:51:36-07:00	2020-06-13T01:21:11+00:00	2020-06-16T06:59:59+00:00	-3	dlr480lklrsp644@marketplace.amazon.com	Dale Clemente	+1 346-307-9643 ext. 54727	ABM010	Purchase Now for Delivery by Tuesday | Arabella Bouquets | Fields of The World Bouquet of Fresh Cut Flowers in a Free Designer Glass Vase	1	0	1	SecondDay	Martha Repetti	144B MAPLE AVE			WESTVILLE	NJ	08093-1135	US			false		
111-6375739-7913031	63991022166450	2020-06-13T01:18:49+00:00	2020-06-12T18:18:49-07:00	2020-06-13T01:49:17+00:00	2020-06-16T06:59:59+00:00	-3	yqsms4nn88kwn7f@marketplace.amazon.com	Lawrence Hancock	71332083073	ABR0033	Purchase Now for Delivery by Tuesday | Arabella Farm Direct Bouquet of 12 Fresh Cut Orange Roses with a Free Glass Vase	1	0	1	SecondDay	Lawrence Hancock	4383 COUNTY ROAD 4516			HONDO	TX	78861-6128	US			false		
111-9189672-0499435	10420896525690	2020-06-13T01:21:05+00:00	2020-06-12T18:21:05-07:00	2020-06-13T01:51:43+00:00	2020-06-17T06:59:59+00:00	-4	yqsms4nn88kwn7f@marketplace.amazon.com	Lawrence Hancock	+1 346-307-9643 ext. 48059	ABR0066	Purchase Now for Delivery by Tuesday | Arabella Bouquets 18 Stems of Fresh Cut White Roses in a Free Designer Glass Vase	1	0	1	Expedited	Angie Weber	13328 TRAIL HOLLOW DR			HOUSTON	TX	77079-3750	US			false		
113-3215140-0028254	28101726732178	2020-06-13T01:45:15+00:00	2020-06-12T18:45:15-07:00	2020-06-13T02:14:58+00:00	2020-06-16T06:59:59+00:00	-3	5w4ybm348hn0qt7@marketplace.amazon.com	Damon Watts	+1 314-282-9402 ext. 42490	ABR001	Purchase Now for Delivery by Tuesday | Arabella Bouquets 12 Stems of Fresh Cut Red Roses in a Free Designer Glass Vase	1	0	1	SecondDay	Watts, Damon E.	1162 WEBER CREEK RD	CHULA VISTA CA 91913		CHULA VISTA	CA	91913-1649	US			false		
114-3194773-4749058	04209825485946	2020-06-13T03:00:31+00:00	2020-06-12T20:00:31-07:00	2020-06-13T03:01:42+00:00	2020-06-16T06:59:59+00:00	-3	m22sb2sy4z88v1s@marketplace.amazon.com	Maria Chappell	+1 314-282-9402 ext. 45903	ABM002	Purchase Now for Delivery by Tuesday | Arabella Bouquets Fresh Cut White Calla Lilies in a Free Designer Glass Vase	1	0	1	SecondDay	Jean Hicks	1678 N SPRING VALLEY RD			PARKS	AZ	86018-0654	US		Aunt Jean, These calla lilies will weep with you over the sudden loss of Uncle Pete, a man that could always light up the room. They also represent faithfulness. The faith that we have that he is in a better place. Love you From Dan & Maria	false		
113-9961282-1706652	43406621487570	2020-06-13T02:33:20+00:00	2020-06-12T19:33:20-07:00	2020-06-13T03:02:52+00:00	2020-06-16T06:59:59+00:00	-3	c977h006xgjbwqs@marketplace.amazon.com	jennifer mejia	+1 346-307-9643 ext. 06389	ABR004	Arabella Farm Direct Bouquet of 12 Fresh Cut Yellow Roses with a Free Glass Vase	1	0	1	SecondDay	Jennifer mejia	6755 BAILEY ST			TAYLOR	MI	48180-1657	US			false		
113-3572580-3084267	13092741613274	2020-06-13T02:48:46+00:00	2020-06-12T19:48:46-07:00	2020-06-13T03:19:30+00:00	2020-06-16T06:59:59+00:00	-3	k34sbz93lthm8bt@marketplace.amazon.com	Alex Patrick		ABR0022	Purchase Now for Delivery by Tuesday | Arabella Farm Direct Bouquet of 12 Fresh Cut Pink Roses with a Free Glass Vase	1	0	1	SecondDay	Alexander Patrick	134 N ROBBINS RD			NORWICH	KS	67118-9323	US			false		
112-1715400-9913852	11953315961234	2020-06-13T03:30:02+00:00	2020-06-12T20:30:02-07:00	2020-06-13T03:30:54+00:00	2020-06-16T06:59:59+00:00	-3	s490jcg4dwvv5nd@marketplace.amazon.com	Bao Xiong	+1 210-728-4548 ext. 13260	ABR0033	Purchase Now for Delivery by Tuesday | Arabella Farm Direct Bouquet of 12 Fresh Cut Orange Roses with a Free Glass Vase	1	0	1	SecondDay	Dr. Jill Denson	2266 MANLEY DR			SUN PRAIRIE	WI	53590-9688	US		Flowers always bring us a little sunshine. I hope this brightens up your day a little. Miss you big sis. From Bao Xiong	false		
113-0253403-0480231	14075590773650	2020-06-13T03:14:42+00:00	2020-06-12T20:14:42-07:00	2020-06-13T03:45:09+00:00	2020-06-16T06:59:59+00:00	-3	315twhptdrv59s9@marketplace.amazon.com	noel kelleher	+1 314-282-9402 ext. 05293	ABR0022	Purchase Now for Delivery by Tuesday | Arabella Farm Direct Bouquet of 12 Fresh Cut Pink Roses with a Free Glass Vase	1	0	1	SecondDay	Noel Kelleher	109 Arcadia Dr.			Pacifica	CA	94044	US			false		
114-5616432-8542632	46390813624234	2020-06-13T04:15:07+00:00	2020-06-12T21:15:07-07:00	2020-06-13T04:34:15+00:00	2020-06-16T06:59:59+00:00	-3	2w2f1qkt69rnvqh@marketplace.amazon.com	Gaven Roberts	+1 210-728-4548 ext. 08505	ABR004	Arabella Farm Direct Bouquet of 12 Fresh Cut Yellow Roses with a Free Glass Vase	1	0	1	SecondDay	Gaven Roberts	340 PINE ST			HOMERVILLE	GA	31634-2158	US			false		
112-0091863-5606644	23175124909058	2020-06-13T06:20:43+00:00	2020-06-12T23:20:43-07:00	2020-06-13T06:47:58+00:00	2020-06-16T06:59:59+00:00	-3	yld5kwg3tr6tw8y@marketplace.amazon.com	Imraan Ahmed	+1 346-307-9643 ext. 93787	ABR0022	Purchase Now for Delivery by Tuesday | Arabella Farm Direct Bouquet of 12 Fresh Cut Pink Roses with a Free Glass Vase	1	0	1	SecondDay	Shehla Hasan	2443 MARQUETTE TRL			KATY	TX	77494-1361	US		Sweet Shehla,  Happy Birthday :) Sending love from California for a Precious Friend! Many Happy Healthy Returns! From Love, Anita :)	false		
111-4422612-7581854	02769749142514	2020-06-13T06:31:37+00:00	2020-06-12T23:31:37-07:00	2020-06-13T07:01:47+00:00	2020-06-16T06:59:59+00:00	-3	jrhwjgdvhhjf6vp@marketplace.amazon.com	Ying huang	+1 314-282-9402 ext. 28248	ABR0022	Purchase Now for Delivery by Tuesday | Arabella Farm Direct Bouquet of 12 Fresh Cut Pink Roses with a Free Glass Vase	1	0	1	SecondDay	Jenny hu	180 WATER ST APT 1611			NEW YORK	NY	10038-5305	US			false		
111-4439615-2431431	15303670989850	2020-06-13T07:24:35+00:00	2020-06-13T00:24:35-07:00	2020-06-13T07:54:58+00:00	2020-06-16T06:59:59+00:00	-3	gr269plp34dqxw8@marketplace.amazon.com	dakota passwater	+1 314-282-9402 ext. 03315	ABR001	Purchase Now for Delivery by Tuesday | Arabella Bouquets 12 Stems of Fresh Cut Red Roses in a Free Designer Glass Vase	1	0	1	SecondDay	Amber Pegram	5025 EDINBOROUGH LN APT 618			INDIANAPOLIS	IN	46241-5151	US			false		
113-9800989-7022654	14396141501002	2020-06-13T07:55:19+00:00	2020-06-13T00:55:19-07:00	2020-06-13T08:20:51+00:00	2020-06-16T06:59:59+00:00	-3	mh2ttqlk2bl9tbf@marketplace.amazon.com	tomjones	+1 314-282-9402 ext. 85782	ABR0022	Purchase Now for Delivery by Tuesday | Arabella Farm Direct Bouquet of 12 Fresh Cut Pink Roses with a Free Glass Vase	1	0	1	SecondDay	Stephanie Jones	436 JIM ARRANT RD			WEST MONROE	LA	71292-0945	US		Thank you for being a wonderful wife. You are the blessing wife !!!!	false		
114-1567203-4470637	01842072378714	2020-06-13T05:56:02+00:00	2020-06-12T22:56:02-07:00	2020-06-13T09:28:47+00:00	2020-06-16T06:59:59+00:00	-3	tw9j7vf91h9m0bs@marketplace.amazon.com	Dalton Theriault	+1 210-728-4548 ext. 59335	ABR0022	Purchase Now for Delivery by Tuesday | Arabella Farm Direct Bouquet of 12 Fresh Cut Pink Roses with a Free Glass Vase	1	0	1	SecondDay	Dalton Theriault	38 SPRUCE ST			BUCKSPORT	ME	04416-4634	US		You brighten my day, every day From Dalton Theriault	false		
113-1205043-6715425	32330847220330	2020-06-13T10:33:52+00:00	2020-06-13T03:33:52-07:00	2020-06-13T10:52:39+00:00	2020-06-16T06:59:59+00:00	-3	cswfp9hh78lcsnb@marketplace.amazon.com	Asami Toyama	+1 210-728-4548 ext. 38998	ABR001	Purchase Now for Delivery by Tuesday | Arabella Bouquets 12 Stems of Fresh Cut Red Roses in a Free Designer Glass Vase	1	0	1	SecondDay	Kei Meguro	70 KOSCIUSZKO ST APT 1E			BROOKLYN	NY	11205-4977	US		HAPPY BIRTHDAY KEI! Love you and miss you so much.  Love, Asami xxx	false		
114-5578884-1132212	15755360857930	2020-06-13T10:37:49+00:00	2020-06-13T03:37:49-07:00	2020-06-13T11:08:20+00:00	2020-06-16T06:59:59+00:00	-3	50stqxphrypv6mc@marketplace.amazon.com	Charles Choi	+1 346-307-9643 ext. 97938	ABR001	Purchase Now for Delivery by Tuesday | Arabella Bouquets 12 Stems of Fresh Cut Red Roses in a Free Designer Glass Vase	1	0	1	SecondDay	CK Choi	1140 E PLACITA DE GRACIELA			TUCSON	AZ	85718-2834	US			false		
114-2846710-9996236	55956612509610	2020-06-13T11:34:12+00:00	2020-06-13T04:34:12-07:00	2020-06-13T12:00:34+00:00	2020-06-16T06:59:59+00:00	-3	hn1d8plk0vmxb9w@marketplace.amazon.com	bonnielang	+1 210-728-4548 ext. 25368	ABR0022	Purchase Now for Delivery by Tuesday | Arabella Farm Direct Bouquet of 12 Fresh Cut Pink Roses with a Free Glass Vase	1	0	1	SecondDay	ashley woodward	17 CASA LN			DURHAM	CT	06422-2617	US		Congratulations graduate! Love, Ema From Ema	false		
111-9055918-8581058	44253621503762	2020-06-13T02:50:01+00:00	2020-06-12T19:50:01-07:00	2020-06-13T12:38:51+00:00	2020-06-16T06:59:59+00:00	-3	3dv3vkvjsdxz1tm@marketplace.amazon.com	Karen A. Silvestro	+1 314-282-9402 ext. 51549	ABR0033	Purchase Now for Delivery by Tuesday | Arabella Farm Direct Bouquet of 12 Fresh Cut Orange Roses with a Free Glass Vase	1	0	1	SecondDay	Mary Silvestro	4725 BELLWETHER LN RM 3			OXFORD	FL	34484-2980	US			false		
113-7281144-9457034	20747383468242	2020-06-13T12:42:55+00:00	2020-06-13T05:42:55-07:00	2020-06-13T13:10:55+00:00	2020-06-16T06:59:59+00:00	-3	196qwmj360ryvrp@marketplace.amazon.com	Leslie	+1 346-307-9643 ext. 22026	ABR004	Arabella Farm Direct Bouquet of 12 Fresh Cut Yellow Roses with a Free Glass Vase	1	0	1	SecondDay	Marie Julie Fecher	8001 CUMMINGS RD			MAPLE MOUNT	KY	42356-9998	US			false		
112-7070723-0758647	00808757456826	2020-06-13T12:55:20+00:00	2020-06-13T05:55:20-07:00	2020-06-13T13:13:15+00:00	2020-06-16T06:59:59+00:00	-3	zfzdx6f09lbmt8w@marketplace.amazon.com	Normand Lessard	+1 346-307-9643 ext. 42758	ABM010	Purchase Now for Delivery by Tuesday | Arabella Bouquets | Fields of The World Bouquet of Fresh Cut Flowers in a Free Designer Glass Vase	1	0	1	SecondDay	Jen Wickett	9 BLUEFIN CT			NEWPORT BEACH	CA	92663-2777	US		Thank you, Jen, for all of your wonderful Home Cooked Meals. It is such a blessing not to worry about what we are going to have for dinner during Geof's Recovery. Everything tasted just so YUMMY!! From Geof and Norm	false		
114-7079262-7042603	12339399041066	2020-06-13T13:21:00+00:00	2020-06-13T06:21:00-07:00	2020-06-13T13:47:33+00:00	2020-06-17T06:59:59+00:00	-4	vkdklrbblspyl0l@marketplace.amazon.com	william	+1 314-282-9402 ext. 23820	ABR001	Arabella Bouquets 12 Stems of Fresh Cut Red Roses in a Free Designer Glass Vase	1	0	1	Expedited	Romana franco	2829 E AVENUE J4 APT			LANCASTER	CA	93535-6168	US		Hi Romana,I promise to love and cherish you as my beloved wife.I vow to hold your hand in my hands and to hold your heart in mine. I love you and you are my mine forever.I pledge to be faithful and honest forever my love.Bradley woodman	false		
113-7502221-6751431	06382683122834	2020-06-13T13:19:28+00:00	2020-06-13T06:19:28-07:00	2020-06-13T13:49:32+00:00	2020-06-18T06:59:59+00:00	-5	x41svgb66v0g1q5@marketplace.amazon.com	Joseph Schutte	+1 346-307-9643 ext. 95322	ABM010	Arabella Bouquets | Fields of The World Bouquet of Fresh Cut Flowers in a Free Designer Glass Vase	1	0	1	Expedited	Joseph Schutte	2239 historic oaks blvd			Indianapolis	IN	46214	US			false		
