order-id	order-item-id	purchase-date	payments-date	reporting-date	promise-date	days-past-promise	buyer-email	buyer-name	buyer-phone-number	sku	product-name	quantity-purchased	quantity-shipped	quantity-to-ship	ship-service-level	recipient-name	ship-address-1	ship-address-2	ship-address-3	ship-city	ship-state	ship-postal-code	ship-country	gift-wrap-type	gift-message-text	is-business-order	purchase-order-number	price-designation
113-7281144-9457034	20747383468242	2020-06-13T12:42:55+00:00	2020-06-13T05:42:55-07:00	2020-06-13T13:10:55+00:00	2020-06-16T06:59:59+00:00	-3	196qwmj360ryvrp@marketplace.amazon.com	Leslie	+1 346-307-9643 ext. 22026	ABR004	Arabella Farm Direct Bouquet of 12 Fresh Cut Yellow Roses with a Free Glass Vase	1	0	1	SecondDay	Marie Julie Fecher	8001 CUMMINGS RD			MAPLE MOUNT	KY	42356-9998	US			false		
112-7070723-0758647	00808757456826	2020-06-13T12:55:20+00:00	2020-06-13T05:55:20-07:00	2020-06-13T13:13:15+00:00	2020-06-16T06:59:59+00:00	-3	zfzdx6f09lbmt8w@marketplace.amazon.com	Normand Lessard	+1 346-307-9643 ext. 42758	ABM010	Purchase Now for Delivery by Tuesday | Arabella Bouquets | Fields of The World Bouquet of Fresh Cut Flowers in a Free Designer Glass Vase	1	0	1	SecondDay	Jen Wickett	9 BLUEFIN CT			NEWPORT BEACH	CA	92663-2777	US		Thank you, Jen, for all of your wonderful Home Cooked Meals. It is such a blessing not to worry about what we are going to have for dinner during Geof's Recovery. Everything tasted just so YUMMY!! From Geof and Norm	false		
114-7079262-7042603	12339399041066	2020-06-13T13:21:00+00:00	2020-06-13T06:21:00-07:00	2020-06-13T13:47:33+00:00	2020-06-17T06:59:59+00:00	-4	vkdklrbblspyl0l@marketplace.amazon.com	william	+1 314-282-9402 ext. 23820	ABR001	Arabella Bouquets 12 Stems of Fresh Cut Red Roses in a Free Designer Glass Vase	1	0	1	Expedited	Romana franco	2829 E AVENUE J4 APT			LANCASTER	CA	93535-6168	US		Hi Romana,I promise to love and cherish you as my beloved wife.I vow to hold your hand in my hands and to hold your heart in mine. I love you and you are my mine forever.I pledge to be faithful and honest forever my love.Bradley woodman	false		
113-7502221-6751431	06382683122834	2020-06-13T13:19:28+00:00	2020-06-13T06:19:28-07:00	2020-06-13T13:49:32+00:00	2020-06-18T06:59:59+00:00	-5	x41svgb66v0g1q5@marketplace.amazon.com	Joseph Schutte	+1 346-307-9643 ext. 95322	ABM010	Arabella Bouquets | Fields of The World Bouquet of Fresh Cut Flowers in a Free Designer Glass Vase	1	0	1	Expedited	Joseph Schutte	2239 historic oaks blvd			Indianapolis	IN	46214	US			false		
112-1349464-6218668	36880346796914	2020-06-13T14:32:14+00:00	2020-06-13T07:32:14-07:00	2020-06-13T15:00:29+00:00	2020-06-18T06:59:59+00:00	-5	5sqy6l9gf8nl496@marketplace.amazon.com	Patricia A Kuypers	+1 314-282-9402 ext. 41176	ABR0022	Arabella Farm Direct Bouquet of 12 Fresh Cut Pink Roses with a Free Glass Vase	1	0	1	Expedited	Shahla Kuypers	6275 Reber Place			St Louis	MO	63139	US		Just because... Love, mom From Patricia A Kuypers	false		
112-5378782-2402663	31618476103682	2020-06-13T14:33:58+00:00	2020-06-13T07:33:58-07:00	2020-06-13T15:03:47+00:00	2020-06-18T06:59:59+00:00	-5	yxdqy6brymsk073@marketplace.amazon.com	Ann M.  Mooney	+1 210-728-4548 ext. 79555	ABM010	Arabella Bouquets | Fields of The World Bouquet of Fresh Cut Flowers in a Free Designer Glass Vase	1	0	1	Expedited	George Kuzmin	11070 W FOREST HOME AVE APT 3			HALES CORNERS	WI	53130-2554	US			false		
112-1278779-4585034	28094332770570	2020-06-13T14:45:37+00:00	2020-06-13T07:45:37-07:00	2020-06-13T15:14:57+00:00	2020-06-18T06:59:59+00:00	-5	hy6fpg2n2gq3bs1@marketplace.amazon.com	Deborah Johnson	+1 346-307-9643 ext. 49879	ABR004	Arabella Farm Direct Bouquet of 12 Fresh Cut Yellow Roses with a Free Glass Vase	1	0	1	Expedited	Kristina Chao	14 ALTHEA ST APT 2			DORCHESTER	MA	02122-1295	US		Well, I can’t send post cards, since I have nowhere to go... ha. Sending some random flowers to brighten your day! Hope all is well, Kristina! (Hi Chris lol) From Deb	false		
112-5394837-9448207	54167262252786	2020-06-13T14:48:53+00:00	2020-06-13T07:48:53-07:00	2020-06-13T15:18:07+00:00	2020-06-18T06:59:59+00:00	-5	hy6fpg2n2gq3bs1@marketplace.amazon.com	Deborah Johnson	+1 314-282-9402 ext. 05290	ABR0055	Arabella Farm Direct Bouquet of 12 Stems of Fresh Cut Hot Pink Roses in a Free Designer Glass Vase	1	0	1	Expedited	Danielle Menegazzo	2 LETY LN			MONTEBELLO	NY	10901-3961	US		Dear Danielle, hoping all is well with you and the fam. Just sending some random flowers out to brighten your day. 😊 From Deb	false		
112-0583830-1902638	11416659246218	2020-06-13T15:38:54+00:00	2020-06-13T08:38:54-07:00	2020-06-13T16:08:10+00:00	2020-06-18T06:59:59+00:00	-5	jv2vng23r1y8p4m@marketplace.amazon.com	Perrine Mann	+1 314-282-9402 ext. 55105	ABR0022	Arabella Farm Direct Bouquet of 12 Fresh Cut Pink Roses with a Free Glass Vase	1	0	1	Expedited	Dympna Bakhshay	2388 TUSCANY AVE			MERCED	CA	95340-9685	US		Happy birthday beautiful grandma!!! We love you!! Audrey, Ed and Perrine From Perrine Mann	false		
112-1292039-4804248	04711375030578	2020-06-13T15:58:55+00:00	2020-06-13T08:58:55-07:00	2020-06-13T16:18:26+00:00	2020-06-18T06:59:59+00:00	-5	hyfwybq5gmhzh47@marketplace.amazon.com	B M Hareland	+1 346-307-9643 ext. 36287	ABR0055	Arabella Farm Direct Bouquet of 12 Stems of Fresh Cut Hot Pink Roses in a Free Designer Glass Vase	1	0	1	Expedited	Jennifer Gonzales	25881 1/2 San Elijo Ave.			Cardiff	CA	92007	US		Howdy My Jen, Happy Birthday to You! Have a wonderful Day! Love you bunches, Hugs, Geir, Bunn Bunn, Geir Jr., Katrine & Sofi	false		
114-2925023-3755411	67432101334530	2020-06-13T16:49:10+00:00	2020-06-13T09:49:10-07:00	2020-06-13T17:08:04+00:00	2020-06-18T06:59:59+00:00	-5	1wgmwghj6rwtx88@marketplace.amazon.com	Kathy Gloer	+1 346-307-9643 ext. 61681	ABR0055	Arabella Farm Direct Bouquet of 12 Stems of Fresh Cut Hot Pink Roses in a Free Designer Glass Vase	1	0	1	Expedited	Abby & Padent Bates	4604 VIRGINIA AVE			CHATTANOOGA	TN	37409-1605	US		Dear Abby & Padent....We just wanted to say we love y'all and praying for you!!  Love, the Gloer's & Coley's From Kathy Gloer & Kali Coley	false		
111-1071609-1111417	29757782382930	2020-06-13T16:47:10+00:00	2020-06-13T09:47:10-07:00	2020-06-13T17:13:58+00:00	2020-06-18T06:59:59+00:00	-5	t30wc28t425c0qy@marketplace.amazon.com	Richard Wortmann	+1 210-728-4548 ext. 71047	ABR004	Arabella Farm Direct Bouquet of 12 Fresh Cut Yellow Roses with a Free Glass Vase	1	0	1	Expedited	Kelly Jabbusch	827 REGENTS SQ			OXON HILL	MD	20745-1188	US		Happy Birthday Auntie Kelly! Miss you! From Love Richie, Missy, Hailey and Chloe	false		
112-4681900-0471446	21764518156762	2020-06-13T17:05:35+00:00	2020-06-13T10:05:35-07:00	2020-06-13T17:29:40+00:00	2020-06-18T06:59:59+00:00	-5	dm6ff38rzgxzmjn@marketplace.amazon.com	Penny	+1 314-282-9402 ext. 89293	ABR0022	Arabella Farm Direct Bouquet of 12 Fresh Cut Pink Roses with a Free Glass Vase	1	0	1	Expedited	Carol Ho- Rezvani	202 NORMAN RD			NEW ROCHELLE	NY	10804-3112	US		Carol, Happy Birthday!  Looking forward to seeing you in person!  With love, The Lunch Bunch- Brenda, Dorothy, Mike and Penny From The Lunch Bunch	false		
114-6699518-7361030	45340872096122	2020-06-13T17:13:36+00:00	2020-06-13T10:13:36-07:00	2020-06-13T17:41:24+00:00	2020-06-18T06:59:59+00:00	-5	5ncyktfr6y1ntll@marketplace.amazon.com	zomana majid	+1 346-307-9643 ext. 52738	ABB001	Arabella Farm Direct Fresh Cut White Hydrangea	1	0	1	Expedited	Tinku Apa	22 JAY CT			CRANSTON	RI	02921-3575	US		Dear Tinku Apa,   With extreme sadness and deepest condolences, we pray for Uncle. Inna Lillahi wa inna ilayhi raji'un.  Love, Zomana & Wasim From Zomana & Wasim	false		
111-2815648-2901000	63056856373330	2020-06-13T17:22:28+00:00	2020-06-13T10:22:28-07:00	2020-06-13T17:52:07+00:00	2020-06-17T06:59:59+00:00	-4	4twt90qyx181vxf@marketplace.amazon.com	Tyler Durden	+1 314-282-9402 ext. 49644	ABR001	Arabella Bouquets 12 Stems of Fresh Cut Red Roses in a Free Designer Glass Vase	1	0	1	Expedited	Holly Reeves	11263 OLD 63 S APT 45			LUCEDALE	MS	39452-6665	US		Your my Calm, My Center, My Tempest, the Love of My Life. From Tyler Durden	false		
112-1535671-3225861	35645658526306	2020-06-13T17:31:21+00:00	2020-06-13T10:31:21-07:00	2020-06-13T17:59:37+00:00	2020-06-18T06:59:59+00:00	-5	zpz5zl7b0r7x7wm@marketplace.amazon.com	Mary S Scanlon	+1 346-307-9643 ext. 75846	ABR0055	Arabella Farm Direct Bouquet of 12 Stems of Fresh Cut Hot Pink Roses in a Free Designer Glass Vase	2	0	2	Expedited	Martha ChicoskiMary S Scanlon	5709 NUGGET ST NE			ALBUQUERQUE	NM	87111-5929	US			false		
113-9360335-3682625	65045907709842	2020-06-13T17:42:20+00:00	2020-06-13T10:42:20-07:00	2020-06-13T18:10:45+00:00	2020-06-18T06:59:59+00:00	-5	d78jyprdvgz81xf@marketplace.amazon.com	jacques	+1 346-307-9643 ext. 95089	ABR004	Arabella Farm Direct Bouquet of 12 Fresh Cut Yellow Roses with a Free Glass Vase	1	0	1	Expedited	Edythe Figueroa	448 E 2ND ST			BENSON	AZ	85602-6165	US			false		
114-3714967-4227428	54563922718202	2020-06-13T17:51:11+00:00	2020-06-13T10:51:11-07:00	2020-06-13T18:21:10+00:00	2020-06-18T06:59:59+00:00	-5	vczqg3h8p1t3hwr@marketplace.amazon.com	Matika Rawls	+1 346-307-9643 ext. 25979	ABM010	Arabella Bouquets | Fields of The World Bouquet of Fresh Cut Flowers in a Free Designer Glass Vase	1	0	1	Expedited	Joseph Morris	2945 Chiplay St			Sacramento	CA	95826	US			true		
111-1440868-2398648	50248706252162	2020-06-13T18:18:43+00:00	2020-06-13T11:18:43-07:00	2020-06-13T18:48:35+00:00	2020-06-18T06:59:59+00:00	-5	27mgtb64c0ph5jj@marketplace.amazon.com	Shane Mitchell	+1 346-307-9643 ext. 31003	ABR0055	Arabella Farm Direct Bouquet of 12 Stems of Fresh Cut Hot Pink Roses in a Free Designer Glass Vase	1	0	1	Expedited	Shane A Mitchell	207 HAWAII AVE			WARNER ROBINS	GA	31093-3509	US			false		
112-8938029-4573838	13053682648330	2020-06-13T18:29:37+00:00	2020-06-13T11:29:37-07:00	2020-06-13T19:00:16+00:00	2020-06-18T06:59:59+00:00	-5	76wgsy83m5c52yw@marketplace.amazon.com	Tracie Polite	+1 210-728-4548 ext. 31573	ABM010	Arabella Bouquets | Fields of The World Bouquet of Fresh Cut Flowers in a Free Designer Glass Vase	1	0	1	Expedited	Mr and Mrs Lamma	1510 TUNLAW RD			BALTIMORE	MD	21218-2216	US			false		
113-6460537-4075413	68242567833514	2020-06-13T19:01:34+00:00	2020-06-13T12:01:34-07:00	2020-06-13T19:31:13+00:00	2020-06-18T06:59:59+00:00	-5	qps2wtrw2c4f01m@marketplace.amazon.com	John Peacock	+1 314-282-9402 ext. 13240	ABR0022	Arabella Farm Direct Bouquet of 12 Fresh Cut Pink Roses with a Free Glass Vase	1	0	1	Expedited	Linda Peacock	10083 CABACHON CT			ELLICOTT CITY	MD	21042-6202	US		Love you meme!!! From Logan, Braden, Jennifer, John and Kitter	false		
114-6969670-8072223	64607215042314	2020-06-13T19:10:56+00:00	2020-06-13T12:10:56-07:00	2020-06-13T19:36:05+00:00	2020-06-18T06:59:59+00:00	-5	jbkh76dvrxvtk11@marketplace.amazon.com	8054288614	+1 210-728-4548 ext. 15382	ABR0022	Arabella Farm Direct Bouquet of 12 Fresh Cut Pink Roses with a Free Glass Vase	1	0	1	Expedited	8054288614	3560 SAWTELLE BLVD			LOS ANGELES	CA	90066-2917	US			false		
111-7986902-2322631	32313415171642	2020-06-13T19:19:39+00:00	2020-06-13T12:19:39-07:00	2020-06-13T19:39:30+00:00	2020-06-18T06:59:59+00:00	-5	mcs9t72yhz1tnly@marketplace.amazon.com	Alison Arevalo-Hoefer	+1 346-307-9643 ext. 58779	ABM0033	Purchase Now for Delivery by Wednesday | Arabella Farm Direct Bouquet of Fresh Cut White Hydrangea with a Free Glass Vase	1	0	1	Expedited	Lee Lesser	728 HERITAGE VLG STE A			SOUTHBURY	CT	06488-1307	US		Toni let us know about Matt and your Mom.  We are so sorry for your loss.  Please accept our deepest sympathies.  Our thoughts are with you.  Alison and Jason Hoefer	false		
112-8365430-6209847	05279086584634	2020-06-13T19:19:11+00:00	2020-06-13T12:19:11-07:00	2020-06-13T19:44:59+00:00	2020-06-18T06:59:59+00:00	-5	6v2y1cnfb4hcpd2@marketplace.amazon.com	Alan Chow	+1 210-728-4548 ext. 21272	ABM010	Arabella Bouquets | Fields of The World Bouquet of Fresh Cut Flowers in a Free Designer Glass Vase	1	0	1	Expedited	Amy and Scott Gnau	16 HALLEN AVE			MILTON	MA	02186-4402	US		Get well soon Amy! From Cara and Alan Chow	false		
114-9892248-8873026	59099201933274	2020-06-13T19:19:49+00:00	2020-06-13T12:19:49-07:00	2020-06-13T19:48:20+00:00	2020-06-18T06:59:59+00:00	-5	j11rn4w5m9pb2sz@marketplace.amazon.com	Michael Greenwood	+1 346-307-9643 ext. 01862	ABM010	Arabella Bouquets | Fields of The World Bouquet of Fresh Cut Flowers in a Free Designer Glass Vase	1	0	1	Expedited	The Beckers	5655 HARBORMIST DR			POWDER SPRINGS	GA	30127-6965	US		Happy Birthday Love Mike	false		
112-1032642-6076229	13905119902842	2020-06-13T20:09:31+00:00	2020-06-13T13:09:31-07:00	2020-06-13T20:32:45+00:00	2020-06-18T06:59:59+00:00	-5	0x54q4q879g6tc6@marketplace.amazon.com	Anne Rich	+1 210-728-4548 ext. 78247	ABM010	Arabella Bouquets | Fields of The World Bouquet of Fresh Cut Flowers in a Free Designer Glass Vase	1	0	1	Expedited	Ruth Fellin	546 HAYSTACK DR			ZION GROVE	PA	17985-9206	US		Happy Birthday  Love  Anne Marie	false		
113-4588679-8572251	29077976793826	2020-06-13T20:12:36+00:00	2020-06-13T13:12:36-07:00	2020-06-13T20:41:09+00:00	2020-06-18T06:59:59+00:00	-5	mz38mcn56ftvwct@marketplace.amazon.com	Lauren Lazin	+1 314-282-9402 ext. 21466	ABR0022	Arabella Farm Direct Bouquet of 12 Fresh Cut Pink Roses with a Free Glass Vase	1	0	1	Expedited	Lauren Lazin	79 WASHINGTON PL 3R			NEW YORK	NY	10011-9105	US		We are thinking of you!  Love, Lauren and Julian and Charlie and Annie (but mostly Annie). From Annie and friends	false		
111-4702768-1423462	31783185689010	2020-06-13T20:33:38+00:00	2020-06-13T13:33:38-07:00	2020-06-13T21:00:53+00:00	2020-06-18T06:59:59+00:00	-5	1yw734001023p9l@marketplace.amazon.com	Crissy Karaszewski	+1 346-307-9643 ext. 55687	ABR0022	Arabella Farm Direct Bouquet of 12 Fresh Cut Pink Roses with a Free Glass Vase	1	0	1	Expedited	Lynn Karaszewski	335 STANYAN PL			ALPHARETTA	GA	30022-8202	US		Hi Lynn were thinking of you !!!  Love you,  Leo & Kim From Leo & Kim Bieniek	false		
114-2344051-3418621	29576958333394	2020-06-13T21:17:59+00:00	2020-06-13T14:17:59-07:00	2020-06-13T21:38:18+00:00	2020-06-17T06:59:59+00:00	-4	hscv9y62hl72d09@marketplace.amazon.com	Robin E. Raborn	+1 210-728-4548 ext. 36708	ABR0066	Purchase Now for Delivery by Tuesday | Arabella Bouquets 18 Stems of Fresh Cut White Roses in a Free Designer Glass Vase	1	0	1	Expedited	Jenifer Binford	611 DALLAS ST			NEW BRAUNFELS	TX	78130-5307	US			false		
113-5285933-4268259	56134361257538	2020-06-13T21:17:40+00:00	2020-06-13T14:17:40-07:00	2020-06-13T21:42:55+00:00	2020-06-18T06:59:59+00:00	-5	x04jnp7frwyg7vt@marketplace.amazon.com	Jeanette Lucht	+1 210-728-4548 ext. 01362	ABM010	Arabella Bouquets | Fields of The World Bouquet of Fresh Cut Flowers in a Free Designer Glass Vase	1	0	1	Expedited	Mrs Poulson	N795 TAMARACK RD			PALMYRA	WI	53156-9788	US		To brighten your day!  I hope you are doing well and will check on you in person as soon as I can get to WI. Love, Nettie From Jeanette Lucht	false		
114-0677274-7682607	44853111694346	2020-06-13T21:31:09+00:00	2020-06-13T14:31:09-07:00	2020-06-13T21:59:43+00:00	2020-06-18T06:59:59+00:00	-5	0lf3s3j02c7w30s@marketplace.amazon.com	Mary Z. Luckenbaugh	+1 346-307-9643 ext. 53700	ABR0055	Arabella Farm Direct Bouquet of 12 Stems of Fresh Cut Hot Pink Roses in a Free Designer Glass Vase	1	0	1	Expedited	Louise Luckenbaugh	119 LITTLETON DR			HANOVER	PA	17331-4516	US			false		
113-9068686-8975462	53894274859650	2020-06-13T21:42:56+00:00	2020-06-13T14:42:56-07:00	2020-06-13T22:18:11+00:00	2020-06-18T06:59:59+00:00	-5	zwhxfmrkqd9svn6@marketplace.amazon.com	Sunshine	+1 346-307-9643 ext. 51149	ABR0055	Arabella Farm Direct Bouquet of 12 Stems of Fresh Cut Hot Pink Roses in a Free Designer Glass Vase	1	0	1	Expedited	Sunshine Brown	College Arms Apartments, Apt. #P-203	74 East Fifth Avenue		Collegeville	Pennsylvania	19426	US			false		
113-7739552-1969063	07090170941410	2020-06-13T21:55:50+00:00	2020-06-13T14:55:50-07:00	2020-06-13T22:23:57+00:00	2020-06-18T06:59:59+00:00	-5	xxvbmwtgjpkdx1y@marketplace.amazon.com	thomas ogrodnik	+1 210-728-4548 ext. 59417	ABM010	Arabella Bouquets | Fields of The World Bouquet of Fresh Cut Flowers in a Free Designer Glass Vase	1	0	1	Expedited	Selinda Ogrodnik	1706 TILDEN AVE			NEW HARTFORD	NY	13413-3105	US		HAPPY BIRTHDAY MOM! 🎈🎉🎁😘  LOVE TOM😘	false		
114-8493561-1247404	26564308336578	2020-06-13T22:03:16+00:00	2020-06-13T15:03:16-07:00	2020-06-13T22:32:25+00:00	2020-06-17T06:59:59+00:00	-4	dqzqndl6316wl2j@marketplace.amazon.com	Lilian Macalinao	+1 314-282-9402 ext. 39900	ABR001	Arabella Bouquets 12 Stems of Fresh Cut Red Roses in a Free Designer Glass Vase	1	0	1	Expedited	Gretchen Mangali	31 W SOMERSET ST			RARITAN	NJ	08869-2057	US		I love you every beat of my heart ❤️❣️🌹 From Lilian Macalinao	false		
112-7832547-9573000	31534588680842	2020-06-13T22:23:14+00:00	2020-06-13T15:23:14-07:00	2020-06-13T22:47:22+00:00	2020-06-18T06:59:59+00:00	-5	42v72jgmb873d6r@marketplace.amazon.com	kelly walsh	+1 314-282-9402 ext. 82550	ABM010	Arabella Bouquets | Fields of The World Bouquet of Fresh Cut Flowers in a Free Designer Glass Vase	1	0	1	Expedited	Nate Robinson/Shannon May	114 FRONT ST			WEYMOUTH	MA	02188-1620	US		Hi Shannon, I'm very sorry for your loss. Kelly Walsh	false		
