order-id	order-item-id	purchase-date	payments-date	reporting-date	promise-date	days-past-promise	buyer-email	buyer-name	buyer-phone-number	sku	product-name	quantity-purchased	quantity-shipped	quantity-to-ship	ship-service-level	recipient-name	ship-address-1	ship-address-2	ship-address-3	ship-city	ship-state	ship-postal-code	ship-country	gift-wrap-type	gift-message-text	is-business-order	purchase-order-number	price-designation
113-7281144-9457034	20747383468242	2020-06-13T12:42:55+00:00	2020-06-13T05:42:55-07:00	2020-06-13T13:10:55+00:00	2020-06-16T06:59:59+00:00	-2	196qwmj360ryvrp@marketplace.amazon.com	Leslie	+1 346-307-9643 ext. 22026	ABR004	Arabella Farm Direct Bouquet of 12 Fresh Cut Yellow Roses with a Free Glass Vase	1	0	1	SecondDay	Marie Julie Fecher	8001 CUMMINGS RD			MAPLE MOUNT	KY	42356-9998	US			false		
112-7070723-0758647	00808757456826	2020-06-13T12:55:20+00:00	2020-06-13T05:55:20-07:00	2020-06-13T13:13:15+00:00	2020-06-16T06:59:59+00:00	-2	zfzdx6f09lbmt8w@marketplace.amazon.com	Normand Lessard	+1 346-307-9643 ext. 42758	ABM010	Purchase Now for Delivery by Tuesday | Arabella Bouquets | Fields of The World Bouquet of Fresh Cut Flowers in a Free Designer Glass Vase	1	0	1	SecondDay	Jen Wickett	9 BLUEFIN CT			NEWPORT BEACH	CA	92663-2777	US		Thank you, Jen, for all of your wonderful Home Cooked Meals. It is such a blessing not to worry about what we are going to have for dinner during Geof's Recovery. Everything tasted just so YUMMY!! From Geof and Norm	false		
114-7079262-7042603	12339399041066	2020-06-13T13:21:00+00:00	2020-06-13T06:21:00-07:00	2020-06-13T13:47:33+00:00	2020-06-17T06:59:59+00:00	-3	vkdklrbblspyl0l@marketplace.amazon.com	william	+1 314-282-9402 ext. 23820	ABR001	Arabella Bouquets 12 Stems of Fresh Cut Red Roses in a Free Designer Glass Vase	1	0	1	Expedited	Romana franco	2829 E AVENUE J4 APT			LANCASTER	CA	93535-6168	US		Hi Romana,I promise to love and cherish you as my beloved wife.I vow to hold your hand in my hands and to hold your heart in mine. I love you and you are my mine forever.I pledge to be faithful and honest forever my love.Bradley woodman	false		
113-7502221-6751431	06382683122834	2020-06-13T13:19:28+00:00	2020-06-13T06:19:28-07:00	2020-06-13T13:49:32+00:00	2020-06-18T06:59:59+00:00	-4	x41svgb66v0g1q5@marketplace.amazon.com	Joseph Schutte	+1 346-307-9643 ext. 95322	ABM010	Arabella Bouquets | Fields of The World Bouquet of Fresh Cut Flowers in a Free Designer Glass Vase	1	0	1	Expedited	Joseph Schutte	2239 historic oaks blvd			Indianapolis	IN	46214	US			false		
112-1349464-6218668	36880346796914	2020-06-13T14:32:14+00:00	2020-06-13T07:32:14-07:00	2020-06-13T15:00:29+00:00	2020-06-18T06:59:59+00:00	-4	5sqy6l9gf8nl496@marketplace.amazon.com	Patricia A Kuypers	+1 314-282-9402 ext. 41176	ABR0022	Arabella Farm Direct Bouquet of 12 Fresh Cut Pink Roses with a Free Glass Vase	1	0	1	Expedited	Shahla Kuypers	6275 Reber Place			St Louis	MO	63139	US		Just because... Love, mom From Patricia A Kuypers	false		
112-5378782-2402663	31618476103682	2020-06-13T14:33:58+00:00	2020-06-13T07:33:58-07:00	2020-06-13T15:03:47+00:00	2020-06-18T06:59:59+00:00	-4	yxdqy6brymsk073@marketplace.amazon.com	Ann M.  Mooney	+1 210-728-4548 ext. 79555	ABM010	Arabella Bouquets | Fields of The World Bouquet of Fresh Cut Flowers in a Free Designer Glass Vase	1	0	1	Expedited	George Kuzmin	11070 W FOREST HOME AVE APT 3			HALES CORNERS	WI	53130-2554	US			false		
112-1278779-4585034	28094332770570	2020-06-13T14:45:37+00:00	2020-06-13T07:45:37-07:00	2020-06-13T15:14:57+00:00	2020-06-18T06:59:59+00:00	-4	hy6fpg2n2gq3bs1@marketplace.amazon.com	Deborah Johnson	+1 346-307-9643 ext. 49879	ABR004	Arabella Farm Direct Bouquet of 12 Fresh Cut Yellow Roses with a Free Glass Vase	1	0	1	Expedited	Kristina Chao	14 ALTHEA ST APT 2			DORCHESTER	MA	02122-1295	US		Well, I can’t send post cards, since I have nowhere to go... ha. Sending some random flowers to brighten your day! Hope all is well, Kristina! (Hi Chris lol) From Deb	false		
112-5394837-9448207	54167262252786	2020-06-13T14:48:53+00:00	2020-06-13T07:48:53-07:00	2020-06-13T15:18:07+00:00	2020-06-18T06:59:59+00:00	-4	hy6fpg2n2gq3bs1@marketplace.amazon.com	Deborah Johnson	+1 314-282-9402 ext. 05290	ABR0055	Arabella Farm Direct Bouquet of 12 Stems of Fresh Cut Hot Pink Roses in a Free Designer Glass Vase	1	0	1	Expedited	Danielle Menegazzo	2 LETY LN			MONTEBELLO	NY	10901-3961	US		Dear Danielle, hoping all is well with you and the fam. Just sending some random flowers out to brighten your day. 😊 From Deb	false		
112-0583830-1902638	11416659246218	2020-06-13T15:38:54+00:00	2020-06-13T08:38:54-07:00	2020-06-13T16:08:10+00:00	2020-06-18T06:59:59+00:00	-4	jv2vng23r1y8p4m@marketplace.amazon.com	Perrine Mann	+1 314-282-9402 ext. 55105	ABR0022	Arabella Farm Direct Bouquet of 12 Fresh Cut Pink Roses with a Free Glass Vase	1	0	1	Expedited	Dympna Bakhshay	2388 TUSCANY AVE			MERCED	CA	95340-9685	US		Happy birthday beautiful grandma!!! We love you!! Audrey, Ed and Perrine From Perrine Mann	false		
112-1292039-4804248	04711375030578	2020-06-13T15:58:55+00:00	2020-06-13T08:58:55-07:00	2020-06-13T16:18:26+00:00	2020-06-18T06:59:59+00:00	-4	hyfwybq5gmhzh47@marketplace.amazon.com	B M Hareland	+1 346-307-9643 ext. 36287	ABR0055	Arabella Farm Direct Bouquet of 12 Stems of Fresh Cut Hot Pink Roses in a Free Designer Glass Vase	1	0	1	Expedited	Jennifer Gonzales	25881 1/2 San Elijo Ave.			Cardiff	CA	92007	US		Howdy My Jen, Happy Birthday to You! Have a wonderful Day! Love you bunches, Hugs, Geir, Bunn Bunn, Geir Jr., Katrine & Sofi	false		
114-2925023-3755411	67432101334530	2020-06-13T16:49:10+00:00	2020-06-13T09:49:10-07:00	2020-06-13T17:08:04+00:00	2020-06-18T06:59:59+00:00	-4	1wgmwghj6rwtx88@marketplace.amazon.com	Kathy Gloer	+1 346-307-9643 ext. 61681	ABR0055	Arabella Farm Direct Bouquet of 12 Stems of Fresh Cut Hot Pink Roses in a Free Designer Glass Vase	1	0	1	Expedited	Abby & Padent Bates	4604 VIRGINIA AVE			CHATTANOOGA	TN	37409-1605	US		Dear Abby & Padent....We just wanted to say we love y'all and praying for you!!  Love, the Gloer's & Coley's From Kathy Gloer & Kali Coley	false		
111-1071609-1111417	29757782382930	2020-06-13T16:47:10+00:00	2020-06-13T09:47:10-07:00	2020-06-13T17:13:58+00:00	2020-06-18T06:59:59+00:00	-4	t30wc28t425c0qy@marketplace.amazon.com	Richard Wortmann	+1 210-728-4548 ext. 71047	ABR004	Arabella Farm Direct Bouquet of 12 Fresh Cut Yellow Roses with a Free Glass Vase	1	0	1	Expedited	Kelly Jabbusch	827 REGENTS SQ			OXON HILL	MD	20745-1188	US		Happy Birthday Auntie Kelly! Miss you! From Love Richie, Missy, Hailey and Chloe	false		
112-4681900-0471446	21764518156762	2020-06-13T17:05:35+00:00	2020-06-13T10:05:35-07:00	2020-06-13T17:29:40+00:00	2020-06-18T06:59:59+00:00	-4	dm6ff38rzgxzmjn@marketplace.amazon.com	Penny	+1 314-282-9402 ext. 89293	ABR0022	Arabella Farm Direct Bouquet of 12 Fresh Cut Pink Roses with a Free Glass Vase	1	0	1	Expedited	Carol Ho- Rezvani	202 NORMAN RD			NEW ROCHELLE	NY	10804-3112	US		Carol, Happy Birthday!  Looking forward to seeing you in person!  With love, The Lunch Bunch- Brenda, Dorothy, Mike and Penny From The Lunch Bunch	false		
114-6699518-7361030	45340872096122	2020-06-13T17:13:36+00:00	2020-06-13T10:13:36-07:00	2020-06-13T17:41:24+00:00	2020-06-18T06:59:59+00:00	-4	5ncyktfr6y1ntll@marketplace.amazon.com	zomana majid	+1 346-307-9643 ext. 52738	ABB001	Arabella Farm Direct Fresh Cut White Hydrangea	1	0	1	Expedited	Tinku Apa	22 JAY CT			CRANSTON	RI	02921-3575	US		Dear Tinku Apa,   With extreme sadness and deepest condolences, we pray for Uncle. Inna Lillahi wa inna ilayhi raji'un.  Love, Zomana & Wasim From Zomana & Wasim	false		
111-2815648-2901000	63056856373330	2020-06-13T17:22:28+00:00	2020-06-13T10:22:28-07:00	2020-06-13T17:52:07+00:00	2020-06-17T06:59:59+00:00	-3	4twt90qyx181vxf@marketplace.amazon.com	Tyler Durden	+1 314-282-9402 ext. 49644	ABR001	Arabella Bouquets 12 Stems of Fresh Cut Red Roses in a Free Designer Glass Vase	1	0	1	Expedited	Holly Reeves	11263 OLD 63 S APT 45			LUCEDALE	MS	39452-6665	US		Your my Calm, My Center, My Tempest, the Love of My Life. From Tyler Durden	false		
112-1535671-3225861	35645658526306	2020-06-13T17:31:21+00:00	2020-06-13T10:31:21-07:00	2020-06-13T17:59:37+00:00	2020-06-18T06:59:59+00:00	-4	zpz5zl7b0r7x7wm@marketplace.amazon.com	Mary S Scanlon	+1 346-307-9643 ext. 75846	ABR0055	Arabella Farm Direct Bouquet of 12 Stems of Fresh Cut Hot Pink Roses in a Free Designer Glass Vase	2	0	2	Expedited	Martha ChicoskiMary S Scanlon	5709 NUGGET ST NE			ALBUQUERQUE	NM	87111-5929	US			false		
113-9360335-3682625	65045907709842	2020-06-13T17:42:20+00:00	2020-06-13T10:42:20-07:00	2020-06-13T18:10:45+00:00	2020-06-18T06:59:59+00:00	-4	d78jyprdvgz81xf@marketplace.amazon.com	jacques	+1 346-307-9643 ext. 95089	ABR004	Arabella Farm Direct Bouquet of 12 Fresh Cut Yellow Roses with a Free Glass Vase	1	0	1	Expedited	Edythe Figueroa	448 E 2ND ST			BENSON	AZ	85602-6165	US			false		
114-3714967-4227428	54563922718202	2020-06-13T17:51:11+00:00	2020-06-13T10:51:11-07:00	2020-06-13T18:21:10+00:00	2020-06-18T06:59:59+00:00	-4	vczqg3h8p1t3hwr@marketplace.amazon.com	Matika Rawls	+1 346-307-9643 ext. 25979	ABM010	Arabella Bouquets | Fields of The World Bouquet of Fresh Cut Flowers in a Free Designer Glass Vase	1	0	1	Expedited	Joseph Morris	2945 Chiplay St			Sacramento	CA	95826	US			true		
111-1440868-2398648	50248706252162	2020-06-13T18:18:43+00:00	2020-06-13T11:18:43-07:00	2020-06-13T18:48:35+00:00	2020-06-18T06:59:59+00:00	-4	27mgtb64c0ph5jj@marketplace.amazon.com	Shane Mitchell	+1 346-307-9643 ext. 31003	ABR0055	Arabella Farm Direct Bouquet of 12 Stems of Fresh Cut Hot Pink Roses in a Free Designer Glass Vase	1	0	1	Expedited	Shane A Mitchell	207 HAWAII AVE			WARNER ROBINS	GA	31093-3509	US			false		
112-8938029-4573838	13053682648330	2020-06-13T18:29:37+00:00	2020-06-13T11:29:37-07:00	2020-06-13T19:00:16+00:00	2020-06-18T06:59:59+00:00	-4	76wgsy83m5c52yw@marketplace.amazon.com	Tracie Polite	+1 210-728-4548 ext. 31573	ABM010	Arabella Bouquets | Fields of The World Bouquet of Fresh Cut Flowers in a Free Designer Glass Vase	1	0	1	Expedited	Mr and Mrs Lamma	1510 TUNLAW RD			BALTIMORE	MD	21218-2216	US			false		
113-6460537-4075413	68242567833514	2020-06-13T19:01:34+00:00	2020-06-13T12:01:34-07:00	2020-06-13T19:31:13+00:00	2020-06-18T06:59:59+00:00	-4	qps2wtrw2c4f01m@marketplace.amazon.com	John Peacock	+1 314-282-9402 ext. 13240	ABR0022	Arabella Farm Direct Bouquet of 12 Fresh Cut Pink Roses with a Free Glass Vase	1	0	1	Expedited	Linda Peacock	10083 CABACHON CT			ELLICOTT CITY	MD	21042-6202	US		Love you meme!!! From Logan, Braden, Jennifer, John and Kitter	false		
114-6969670-8072223	64607215042314	2020-06-13T19:10:56+00:00	2020-06-13T12:10:56-07:00	2020-06-13T19:36:05+00:00	2020-06-18T06:59:59+00:00	-4	jbkh76dvrxvtk11@marketplace.amazon.com	8054288614	+1 210-728-4548 ext. 15382	ABR0022	Arabella Farm Direct Bouquet of 12 Fresh Cut Pink Roses with a Free Glass Vase	1	0	1	Expedited	8054288614	3560 SAWTELLE BLVD			LOS ANGELES	CA	90066-2917	US			false		
111-7986902-2322631	32313415171642	2020-06-13T19:19:39+00:00	2020-06-13T12:19:39-07:00	2020-06-13T19:39:30+00:00	2020-06-18T06:59:59+00:00	-4	mcs9t72yhz1tnly@marketplace.amazon.com	Alison Arevalo-Hoefer	+1 346-307-9643 ext. 58779	ABM0033	Purchase Now for Delivery by Wednesday | Arabella Farm Direct Bouquet of Fresh Cut White Hydrangea with a Free Glass Vase	1	0	1	Expedited	Lee Lesser	728 HERITAGE VLG STE A			SOUTHBURY	CT	06488-1307	US		Toni let us know about Matt and your Mom.  We are so sorry for your loss.  Please accept our deepest sympathies.  Our thoughts are with you.  Alison and Jason Hoefer	false		
112-8365430-6209847	05279086584634	2020-06-13T19:19:11+00:00	2020-06-13T12:19:11-07:00	2020-06-13T19:44:59+00:00	2020-06-18T06:59:59+00:00	-4	6v2y1cnfb4hcpd2@marketplace.amazon.com	Alan Chow	+1 210-728-4548 ext. 21272	ABM010	Arabella Bouquets | Fields of The World Bouquet of Fresh Cut Flowers in a Free Designer Glass Vase	1	0	1	Expedited	Amy and Scott Gnau	16 HALLEN AVE			MILTON	MA	02186-4402	US		Get well soon Amy! From Cara and Alan Chow	false		
114-9892248-8873026	59099201933274	2020-06-13T19:19:49+00:00	2020-06-13T12:19:49-07:00	2020-06-13T19:48:20+00:00	2020-06-18T06:59:59+00:00	-4	j11rn4w5m9pb2sz@marketplace.amazon.com	Michael Greenwood	+1 346-307-9643 ext. 01862	ABM010	Arabella Bouquets | Fields of The World Bouquet of Fresh Cut Flowers in a Free Designer Glass Vase	1	0	1	Expedited	The Beckers	5655 HARBORMIST DR			POWDER SPRINGS	GA	30127-6965	US		Happy Birthday Love Mike	false		
112-1032642-6076229	13905119902842	2020-06-13T20:09:31+00:00	2020-06-13T13:09:31-07:00	2020-06-13T20:32:45+00:00	2020-06-18T06:59:59+00:00	-4	0x54q4q879g6tc6@marketplace.amazon.com	Anne Rich	+1 210-728-4548 ext. 78247	ABM010	Arabella Bouquets | Fields of The World Bouquet of Fresh Cut Flowers in a Free Designer Glass Vase	1	0	1	Expedited	Ruth Fellin	546 HAYSTACK DR			ZION GROVE	PA	17985-9206	US		Happy Birthday  Love  Anne Marie	false		
113-4588679-8572251	29077976793826	2020-06-13T20:12:36+00:00	2020-06-13T13:12:36-07:00	2020-06-13T20:41:09+00:00	2020-06-18T06:59:59+00:00	-4	mz38mcn56ftvwct@marketplace.amazon.com	Lauren Lazin	+1 314-282-9402 ext. 21466	ABR0022	Arabella Farm Direct Bouquet of 12 Fresh Cut Pink Roses with a Free Glass Vase	1	0	1	Expedited	Lauren Lazin	79 WASHINGTON PL 3R			NEW YORK	NY	10011-9105	US		We are thinking of you!  Love, Lauren and Julian and Charlie and Annie (but mostly Annie). From Annie and friends	false		
111-4702768-1423462	31783185689010	2020-06-13T20:33:38+00:00	2020-06-13T13:33:38-07:00	2020-06-13T21:00:53+00:00	2020-06-18T06:59:59+00:00	-4	1yw734001023p9l@marketplace.amazon.com	Crissy Karaszewski	+1 346-307-9643 ext. 55687	ABR0022	Arabella Farm Direct Bouquet of 12 Fresh Cut Pink Roses with a Free Glass Vase	1	0	1	Expedited	Lynn Karaszewski	335 STANYAN PL			ALPHARETTA	GA	30022-8202	US		Hi Lynn were thinking of you !!!  Love you,  Leo & Kim From Leo & Kim Bieniek	false		
114-2344051-3418621	29576958333394	2020-06-13T21:17:59+00:00	2020-06-13T14:17:59-07:00	2020-06-13T21:38:18+00:00	2020-06-17T06:59:59+00:00	-3	hscv9y62hl72d09@marketplace.amazon.com	Robin E. Raborn	+1 210-728-4548 ext. 36708	ABR0066	Purchase Now for Delivery by Tuesday | Arabella Bouquets 18 Stems of Fresh Cut White Roses in a Free Designer Glass Vase	1	0	1	Expedited	Jenifer Binford	611 DALLAS ST			NEW BRAUNFELS	TX	78130-5307	US			false		
113-5285933-4268259	56134361257538	2020-06-13T21:17:40+00:00	2020-06-13T14:17:40-07:00	2020-06-13T21:42:55+00:00	2020-06-18T06:59:59+00:00	-4	x04jnp7frwyg7vt@marketplace.amazon.com	Jeanette Lucht	+1 210-728-4548 ext. 01362	ABM010	Arabella Bouquets | Fields of The World Bouquet of Fresh Cut Flowers in a Free Designer Glass Vase	1	0	1	Expedited	Mrs Poulson	N795 TAMARACK RD			PALMYRA	WI	53156-9788	US		To brighten your day!  I hope you are doing well and will check on you in person as soon as I can get to WI. Love, Nettie From Jeanette Lucht	false		
114-0677274-7682607	44853111694346	2020-06-13T21:31:09+00:00	2020-06-13T14:31:09-07:00	2020-06-13T21:59:43+00:00	2020-06-18T06:59:59+00:00	-4	0lf3s3j02c7w30s@marketplace.amazon.com	Mary Z. Luckenbaugh	+1 346-307-9643 ext. 53700	ABR0055	Arabella Farm Direct Bouquet of 12 Stems of Fresh Cut Hot Pink Roses in a Free Designer Glass Vase	1	0	1	Expedited	Louise Luckenbaugh	119 LITTLETON DR			HANOVER	PA	17331-4516	US			false		
113-9068686-8975462	53894274859650	2020-06-13T21:42:56+00:00	2020-06-13T14:42:56-07:00	2020-06-13T22:18:11+00:00	2020-06-18T06:59:59+00:00	-4	zwhxfmrkqd9svn6@marketplace.amazon.com	Sunshine	+1 346-307-9643 ext. 51149	ABR0055	Arabella Farm Direct Bouquet of 12 Stems of Fresh Cut Hot Pink Roses in a Free Designer Glass Vase	1	0	1	Expedited	Sunshine Brown	College Arms Apartments, Apt. #P-203	74 East Fifth Avenue		Collegeville	Pennsylvania	19426	US			false		
113-7739552-1969063	07090170941410	2020-06-13T21:55:50+00:00	2020-06-13T14:55:50-07:00	2020-06-13T22:23:57+00:00	2020-06-18T06:59:59+00:00	-4	xxvbmwtgjpkdx1y@marketplace.amazon.com	thomas ogrodnik	+1 210-728-4548 ext. 59417	ABM010	Arabella Bouquets | Fields of The World Bouquet of Fresh Cut Flowers in a Free Designer Glass Vase	1	0	1	Expedited	Selinda Ogrodnik	1706 TILDEN AVE			NEW HARTFORD	NY	13413-3105	US		HAPPY BIRTHDAY MOM! 🎈🎉🎁😘  LOVE TOM😘	false		
114-8493561-1247404	26564308336578	2020-06-13T22:03:16+00:00	2020-06-13T15:03:16-07:00	2020-06-13T22:32:25+00:00	2020-06-17T06:59:59+00:00	-3	dqzqndl6316wl2j@marketplace.amazon.com	Lilian Macalinao	+1 314-282-9402 ext. 39900	ABR001	Arabella Bouquets 12 Stems of Fresh Cut Red Roses in a Free Designer Glass Vase	1	0	1	Expedited	Gretchen Mangali	31 W SOMERSET ST			RARITAN	NJ	08869-2057	US		I love you every beat of my heart ❤️❣️🌹 From Lilian Macalinao	false		
112-7832547-9573000	31534588680842	2020-06-13T22:23:14+00:00	2020-06-13T15:23:14-07:00	2020-06-13T22:47:22+00:00	2020-06-18T06:59:59+00:00	-4	42v72jgmb873d6r@marketplace.amazon.com	kelly walsh	+1 314-282-9402 ext. 82550	ABM010	Arabella Bouquets | Fields of The World Bouquet of Fresh Cut Flowers in a Free Designer Glass Vase	1	0	1	Expedited	Nate Robinson/Shannon May	114 FRONT ST			WEYMOUTH	MA	02188-1620	US		Hi Shannon, I'm very sorry for your loss. Kelly Walsh	false		
113-1270671-9142636	38418035458410	2020-06-13T22:58:41+00:00	2020-06-13T15:58:41-07:00	2020-06-13T23:22:18+00:00	2020-06-18T06:59:59+00:00	-4	glkr1rrmnqjd676@marketplace.amazon.com	bernard gold	+1 346-307-9643 ext. 33765	ABR012	Arabella Farm Direct Bouquet of 18 Fresh Cut Pink Roses with a Free Glass Vase	1	0	1	Expedited	gert katz	2202 LUCAYA BND APT J1			COCONUT CREEK	FL	33066-1127	US		Happy 100  ...Hope your having a joyful birthday.          Love Buddy and Elaine From bernard gold	false		
114-8257162-4296222	29777274682074	2020-06-13T23:17:28+00:00	2020-06-13T16:17:28-07:00	2020-06-13T23:41:22+00:00	2020-06-17T06:59:59+00:00	-3	8m8l01my3msjcc7@marketplace.amazon.com	Pedro Bernardo	+1 210-728-4548 ext. 98548	ABR001	Arabella Bouquets 12 Stems of Fresh Cut Red Roses in a Free Designer Glass Vase	1	0	1	Expedited	Pedro Bernardo	4283 EXPRESS LN STE 2786-041			SARASOTA	FL	34249-2602	US		Enjoy your gift with love! From Pedro Bernardo	false		
112-7154078-8326644	41301467964282	2020-06-13T23:47:30+00:00	2020-06-13T16:47:30-07:00	2020-06-14T00:13:33+00:00	2020-06-18T06:59:59+00:00	-4	cww7016c1qyzqbm@marketplace.amazon.com	Johnny Barrett	+1 314-282-9402 ext. 66279	ABM010	Arabella Bouquets | Fields of The World Bouquet of Fresh Cut Flowers in a Free Designer Glass Vase	1	0	1	Expedited	Ann Eldredge	1042 COUNTY ROAD 474			STEPHENVILLE	TX	76401-6967	US		Hope these don’t smell like plastic!!  Lots of love the Barrett’s From Johnny Barrett	false		
114-6728037-2625008	53640440102330	2020-06-10T00:24:32+00:00	2020-06-09T17:24:32-07:00	2020-06-14T01:00:24+00:00	2020-06-16T06:59:59+00:00	-2	tflvfr3742j4py1@marketplace.amazon.com	Rachel Ruedin	+1 346-307-9643 ext. 61038	ABR004	Arabella Farm Direct Bouquet of 12 Fresh Cut Yellow Roses with a Free Glass Vase	1	0	1	SecondDay	Rebecca Boetje	1815 46TH ST			MOLINE	IL	61265-4528	US		Happy birthday Becker Baby. Sending all our love today 💜 From Rachel & Don	false		
112-7669386-1814652	66152358291554	2020-06-14T00:39:37+00:00	2020-06-13T17:39:37-07:00	2020-06-14T01:05:11+00:00	2020-06-18T06:59:59+00:00	-4	1ww9jl0b40v9ffh@marketplace.amazon.com	Ed Dube	+1 210-728-4548 ext. 20888	ABR0022	Arabella Farm Direct Bouquet of 12 Fresh Cut Pink Roses with a Free Glass Vase	1	0	1	Expedited	Ruth Rettig	13601 N 21ST DR			PHOENIX	AZ	85029-1502	US		Dear Ruth, Your first Birthday as a retiree. Both are great. Have a wonderful Birthday. Love, Ed & Jeannie From Ed Dube	false		
114-3618171-5843447	21718807404026	2020-06-14T00:48:42+00:00	2020-06-13T17:48:42-07:00	2020-06-14T01:18:32+00:00	2020-06-17T06:59:59+00:00	-3	gj789cyfwtfxlqd@marketplace.amazon.com	Edward T. Maguire	+1 314-282-9402 ext. 46321	ABR001	Arabella Bouquets 12 Stems of Fresh Cut Red Roses in a Free Designer Glass Vase	1	0	1	Expedited	Patricia Maguire / Brightview	1 SYMMES RD	APT 2		ARLINGTON	MA	02474	US			false		
111-4188580-7077041	22903484862026	2020-06-14T01:35:17+00:00	2020-06-13T18:35:17-07:00	2020-06-14T02:04:00+00:00	2020-06-17T06:59:59+00:00	-3	9lyyp8nkcmmxjnm@marketplace.amazon.com	Heather Homenick	+1 346-307-9643 ext. 97800	ABR001	Arabella Bouquets 12 Stems of Fresh Cut Red Roses in a Free Designer Glass Vase	1	0	1	Expedited	Edward Homenick	114 HORTONVILLE MAIN ST			CALLICOON	NY	12723-5116	US		Hi Edward, Enjoy your gift! From Heather Homenick	false		
111-8146461-8733864	55496566120122	2020-06-14T01:40:45+00:00	2020-06-13T18:40:45-07:00	2020-06-14T02:09:24+00:00	2020-06-17T06:59:59+00:00	-3	9lyyp8nkcmmxjnm@marketplace.amazon.com	Heather Homenick	+1 314-282-9402 ext. 38704	ABR001	Arabella Bouquets 12 Stems of Fresh Cut Red Roses in a Free Designer Glass Vase	1	0	1	Expedited	Ruth Homenick	114 HORTONVILLE MAIN ST			CALLICOON	NY	12723-5116	US		Hi Ruth, Enjoy your gift!	false		
114-9532654-8246636	13372857602290	2020-06-14T02:07:41+00:00	2020-06-13T19:07:41-07:00	2020-06-14T02:37:54+00:00	2020-06-18T06:59:59+00:00	-4	8z6gycvxz5hxc58@marketplace.amazon.com	Neelam K.	+1 346-307-9643 ext. 12708	ABR0022	Arabella Farm Direct Bouquet of 12 Fresh Cut Pink Roses with a Free Glass Vase	1	0	1	Expedited	Ramesh Kaushik	2641 HEATHROW DR			LAWRENCEVILLE	GA	30043-8168	US			false		
112-2788093-7749041	54966201673498	2020-06-14T04:14:43+00:00	2020-06-13T21:14:43-07:00	2020-06-14T04:42:20+00:00	2020-06-18T06:59:59+00:00	-4	dkhf9s6t9h484yh@marketplace.amazon.com	Samantha	+1 346-307-9643 ext. 49233	ABM010	Arabella Bouquets | Fields of The World Bouquet of Fresh Cut Flowers in a Free Designer Glass Vase	1	0	1	Expedited	Justice Timblin	ABSTRACT & TITLE COMPANY	410 HAWTHORN DR		WEST BEND	WI	53095-4628	US		Thank you for painting our rooms! From Calvin, Charlito, and Bubba	false		
112-9023475-1868208	10094751505682	2020-06-14T04:25:07+00:00	2020-06-13T21:25:07-07:00	2020-06-14T04:54:51+00:00	2020-06-18T06:59:59+00:00	-4	t9wwzb0zkr7v5vl@marketplace.amazon.com	Karla M Salazar	+1 210-728-4548 ext. 08833	ABR0022	Arabella Farm Direct Bouquet of 12 Fresh Cut Pink Roses with a Free Glass Vase	1	0	1	Expedited	Hortencia Salazar	2141 106TH AVE			OAKLAND	CA	94603-4001	US			false		
111-2766398-9914657	66225436239114	2020-06-14T04:41:00+00:00	2020-06-13T21:41:00-07:00	2020-06-14T05:04:24+00:00	2020-06-18T06:59:59+00:00	-4	gfnyhzbqknddtgc@marketplace.amazon.com	larry low	+1 314-282-9402 ext. 97418	ABR0055	Arabella Farm Direct Bouquet of 12 Stems of Fresh Cut Hot Pink Roses in a Free Designer Glass Vase	1	0	1	Expedited	Shirley Low	1960 SAINT GEORGE RD			DANVILLE	CA	94526-6238	US		Happy Birthday Shirley!  Love, Larry & family	false		
113-5431151-6336222	19897242572818	2020-06-14T04:46:01+00:00	2020-06-13T21:46:01-07:00	2020-06-14T05:09:28+00:00	2020-06-18T06:59:59+00:00	-4	w853q4rz488m1xx@marketplace.amazon.com	Dal Mung	+1 314-282-9402 ext. 15643	ABR0033	Arabella Farm Direct Bouquet of 12 Fresh Cut Orange Roses with a Free Glass Vase	1	0	1	Expedited	Pen Bawih	8038 MEADOW LN			INDIANAPOLIS	IN	46227-6216	US			false		
114-8356606-2197855	40868338742322	2020-06-14T05:07:59+00:00	2020-06-13T22:07:59-07:00	2020-06-14T05:36:18+00:00	2020-06-18T06:59:59+00:00	-4	1cps1dfgyx1yrjs@marketplace.amazon.com	Carmela	+1 314-282-9402 ext. 11188	ABM010	Arabella Bouquets | Fields of The World Bouquet of Fresh Cut Flowers in a Free Designer Glass Vase	1	0	1	Expedited	Jim Johnson	1005 MEADOW VIEW CIR			RICHARDSON	TX	75080-2932	US		Happy Fathers Day to one of the best Dads Ever!!!!!! We love you... thought you would like flowers :) From All the Vegas kids	false		
112-2985658-6077044	45479541294770	2020-06-14T05:44:37+00:00	2020-06-13T22:44:37-07:00	2020-06-14T06:14:34+00:00	2020-06-18T06:59:59+00:00	-4	bvwt5z86t8mhrph@marketplace.amazon.com	Jordan Breeding	+1 210-728-4548 ext. 26367	ABR0055	Arabella Farm Direct Bouquet of 12 Stems of Fresh Cut Hot Pink Roses in a Free Designer Glass Vase	1	0	1	Expedited	Rebecca C Thornton	6469 CR 314			Jewett	TX	75846	US			false		
114-2969639-1527413	67178706886634	2020-06-14T07:38:52+00:00	2020-06-14T00:38:52-07:00	2020-06-14T08:04:45+00:00	2020-06-18T06:59:59+00:00	-4	pnqdqgjfjmf96qt@marketplace.amazon.com	Mommy	+1 346-307-9643 ext. 51372	ABR0022	Arabella Farm Direct Bouquet of 12 Fresh Cut Pink Roses with a Free Glass Vase	1	0	1	Expedited	Diane Africk	287 AUDUBON ST			NEW ORLEANS	LA	70118-4841	US		Happy Birthday!! Enjoy your day! <3 From Love, Tiffany, Mehdi, Kaden, and Laith	false		
114-7872310-5101010	45263641553762	2020-06-14T07:41:47+00:00	2020-06-14T00:41:47-07:00	2020-06-14T08:10:46+00:00	2020-06-18T06:59:59+00:00	-4	pnqdqgjfjmf96qt@marketplace.amazon.com	Mommy	+1 314-282-9402 ext. 36908	ABR0022	Arabella Farm Direct Bouquet of 12 Fresh Cut Pink Roses with a Free Glass Vase	1	0	1	Expedited	Mary Sue Katz	1881 LIONS RIDGE LOOP APT 14			VAIL	CO	81657-4942	US		Happy Birthday!! Enjoy your day! Love you! <3 From Tiffany, Mehdi, Kaden, and Laith	false		
112-6273992-0411415	30400590849346	2020-06-14T08:54:06+00:00	2020-06-14T01:54:06-07:00	2020-06-14T09:19:25+00:00	2020-06-18T06:59:59+00:00	-4	72s7q6r633wvv4z@marketplace.amazon.com	Shabbir (Sohel) Merchant	+1 346-307-9643 ext. 31653	ABR0022	Arabella Farm Direct Bouquet of 12 Fresh Cut Pink Roses with a Free Glass Vase	1	0	1	Expedited	Heather Utzig	2626 ISAIAH DR			MURFREESBORO	TN	37130-1470	US			false		
113-3661686-5902667	33106538516978	2020-06-14T09:19:33+00:00	2020-06-14T02:19:33-07:00	2020-06-14T09:49:58+00:00	2020-06-18T06:59:59+00:00	-4	8fq4bj1ktrpwlds@marketplace.amazon.com	Katherine Gazer	+1 346-307-9643 ext. 39716	ABM010	Arabella Bouquets | Fields of The World Bouquet of Fresh Cut Flowers in a Free Designer Glass Vase	1	0	1	Expedited	Katherine gazer	2843 N 77TH CT			ELMWOOD PARK	IL	60707-1309	US			false		
114-4118792-2246636	45012483804042	2020-06-14T10:59:04+00:00	2020-06-14T03:59:04-07:00	2020-06-14T11:27:48+00:00	2020-06-18T06:59:59+00:00	-4	9cgn44vzkfr9x24@marketplace.amazon.com	Karen	+1 346-307-9643 ext. 72210	ABR0055	Arabella Farm Direct Bouquet of 12 Stems of Fresh Cut Hot Pink Roses in a Free Designer Glass Vase	1	0	1	Expedited	Alec Belton	1608 W CITATION LN			CHANDLER	AZ	85224-2230	US		Happy Birthday Taylor With love  From Karen and Mike Xx	false		
111-7907111-0604269	36978354267322	2020-06-14T12:22:53+00:00	2020-06-14T05:22:53-07:00	2020-06-14T12:51:41+00:00	2020-06-18T06:59:59+00:00	-4	gp0bx0y8pmrqy7x@marketplace.amazon.com	Ankur	+1 346-307-9643 ext. 79452	ABR0022	Arabella Farm Direct Bouquet of 12 Fresh Cut Pink Roses with a Free Glass Vase	1	0	1	Expedited	Eliza Hoang	1919 W DEEREFIELD RD			SANTA ANA	CA	92704-7139	US		Thank you Eliza for coming into my life, for all the love, happiness, smiles you gave me. You are a true gift & I hope you know how special you are to me 😊❤❤  Lots of Love !!! From Ankur	false		
113-7540194-9434668	34135861683682	2020-06-14T15:08:31+00:00	2020-06-14T08:08:31-07:00	2020-06-14T15:33:02+00:00	2020-06-18T06:59:59+00:00	-4	1r82r5mt00ggqdr@marketplace.amazon.com	Mary	+1 346-307-9643 ext. 98827	ABR0022	Arabella Farm Direct Bouquet of 12 Fresh Cut Pink Roses with a Free Glass Vase	1	0	1	Standard	Samuel Ladin	5710 LAKESIDE DR APT 727			MARGATE	FL	33063-1406	US			false		
112-2995001-1910641	31838197799378	2020-06-14T15:42:07+00:00	2020-06-14T08:42:07-07:00	2020-06-14T16:10:04+00:00	2020-06-18T06:59:59+00:00	-4	hs4b02p3d97l0y8@marketplace.amazon.com	Denise Brothers	+1 210-728-4548 ext. 16729	ABR0022	Arabella Farm Direct Bouquet of 12 Fresh Cut Pink Roses with a Free Glass Vase	1	0	1	Expedited	Lorraine Kirsten	300 LAKE AVE NE UNIT 331			LARGO	FL	33771-1694	US		Happy Birthday GiGi! Hope this brightens your day!  Love you and miss you! From Dave, Denise, Izzy and Owen	false		
111-3366143-6745853	52184541504938	2020-06-14T15:50:09+00:00	2020-06-14T08:50:09-07:00	2020-06-14T16:11:05+00:00	2020-06-18T06:59:59+00:00	-4	py069nx3pc0f9p7@marketplace.amazon.com	Robert Radostits	+1 346-307-9643 ext. 42771	ABM010	Arabella Bouquets | Fields of The World Bouquet of Fresh Cut Flowers in a Free Designer Glass Vase	1	0	1	Expedited	Kathy Pietras	8064 W ROSEBURY DR			FRANKFORT	IL	60423-2405	US		Dear Kathy, Give your recovery therapy the time it needs, and you'll be up and about soon. Love to you, Bob and Eddie	false		
114-4803806-9583430	55485587287970	2020-06-14T15:53:12+00:00	2020-06-14T08:53:12-07:00	2020-06-14T16:22:50+00:00	2020-06-18T06:59:59+00:00	-4	7rbk71c11zyrygs@marketplace.amazon.com	Janette Schreider	+1 210-728-4548 ext. 83715	ABM010	Arabella Bouquets | Fields of The World Bouquet of Fresh Cut Flowers in a Free Designer Glass Vase	1	0	1	Expedited	Mary Nell Winner	11711 MEMORIAL DR # 125			HOUSTON	TX	77024-7208	US		Happy Birthday! Love Rudy and Janette From Janette Schreider	false		
114-5328909-0200225	52148474577746	2020-06-14T15:57:05+00:00	2020-06-14T08:57:05-07:00	2020-06-14T16:26:33+00:00	2020-06-17T06:59:59+00:00	-3	spyhp20vx32njnn@marketplace.amazon.com	John	+1 314-282-9402 ext. 95376	ABR014	Purchase Now for Delivery by Tuesday | Arabella Bouquets 18 Stems of Fresh Cut White Roses in a Free Designer Glass Vase	1	0	1	Expedited	john sikora	704 COUNTY ROAD 1302			ASHLAND	OH	44805-9783	US			false		
112-2022032-2546607	41234688790298	2020-06-14T16:43:32+00:00	2020-06-14T09:43:32-07:00	2020-06-14T17:10:06+00:00	2020-06-17T06:59:59+00:00	-3	tzbpzj5snx0jhfz@marketplace.amazon.com	Neil Lubin	+1 314-282-9402 ext. 28348	ABR001	Arabella Bouquets 12 Stems of Fresh Cut Red Roses in a Free Designer Glass Vase	1	0	1	Expedited	Lynn Robinson Leary	6 SUNSET DR			DANBURY	CT	06811-3132	US		I love you my darling.   Neil	false		
113-6031743-1502634	30255107957602	2020-06-14T17:19:32+00:00	2020-06-14T10:19:32-07:00	2020-06-14T17:20:29+00:00	2020-06-18T06:59:59+00:00	-4	d5zpxlkkhyb91ff@marketplace.amazon.com	valerie reilly	+1 210-728-4548 ext. 24069	ABR0055	Arabella Farm Direct Bouquet of 12 Stems of Fresh Cut Hot Pink Roses in a Free Designer Glass Vase	1	0	1	Expedited	Joanne Backs	18441 N 87TH AVE APT 262			PEORIA	AZ	85382-8857	US		Hi Joanne, Thinking of you.. Remember I LOVE YOU !!!!!  Love David	false		
111-3001660-2460252	65198491748282	2020-06-14T17:08:26+00:00	2020-06-14T10:08:26-07:00	2020-06-14T17:38:38+00:00	2020-06-18T06:59:59+00:00	-4	5sd8x0kxzlcr2rc@marketplace.amazon.com	Jean M. Schrull	+1 210-728-4548 ext. 96049	ABR0055	Arabella Farm Direct Bouquet of 12 Stems of Fresh Cut Hot Pink Roses in a Free Designer Glass Vase	1	0	1	Expedited	Carol Brandes	5595 NW 27TH PL			OCALA	FL	34482-8748	US			false		
114-8781371-3608248	34612872248866	2020-06-14T17:30:41+00:00	2020-06-14T10:30:41-07:00	2020-06-14T18:01:12+00:00	2020-06-17T06:59:59+00:00	-3	1fvsgd4fsk3l4y8@marketplace.amazon.com	Kathryn	+1 210-728-4548 ext. 26142	ABR001	Arabella Bouquets 12 Stems of Fresh Cut Red Roses in a Free Designer Glass Vase	1	0	1	Expedited	Grandpa Randall slaboch	1746 DOWNING CT			NAPERVILLE	IL	60563-2021	US			false		
114-2399322-8053006	35754680413722	2020-06-14T17:30:40+00:00	2020-06-14T10:30:40-07:00	2020-06-14T18:04:33+00:00	2020-06-17T06:59:59+00:00	-3	9mp25nj8zdbf82g@marketplace.amazon.com	Hanna	+1 210-728-4548 ext. 78264	ABR014	Purchase Now for Delivery by Tuesday | Arabella Bouquets 18 Stems of Fresh Cut White Roses in a Free Designer Glass Vase	1	0	1	Expedited	Mike Raffaniello	50 W 15TH ST APT 3B			NEW YORK	NY	10011-6872	US			false		
113-3256613-4791454	10328461805026	2020-06-14T17:45:14+00:00	2020-06-14T10:45:14-07:00	2020-06-14T18:14:11+00:00	2020-06-18T06:59:59+00:00	-4	yvhr7s7yq04jzv0@marketplace.amazon.com	Jamie	+1 314-282-9402 ext. 01758	ABR0055	Arabella Farm Direct Bouquet of 12 Stems of Fresh Cut Hot Pink Roses in a Free Designer Glass Vase	1	0	1	Expedited	Jamie C Scala	213 Kickham Ln			Augusta	GA	30813	US		Happy Anniversary Hebebety	false		
112-8801424-1555465	10687288487962	2020-06-14T17:52:36+00:00	2020-06-14T10:52:36-07:00	2020-06-14T18:21:25+00:00	2020-06-18T06:59:59+00:00	-4	7lbhm9hzzwvnvvj@marketplace.amazon.com	Gary E Fahr	+1 346-307-9643 ext. 58212	ABR0022	Arabella Farm Direct Bouquet of 12 Fresh Cut Pink Roses with a Free Glass Vase	1	0	1	Expedited	Elizabeth Murray	19369 US Hwy 19N	2-211		Clearwater	FL	33764	US			false		
113-0783328-3089811	10570644133162	2020-06-14T18:01:56+00:00	2020-06-14T11:01:56-07:00	2020-06-14T18:24:12+00:00	2020-06-18T06:59:59+00:00	-4	c4qzwk1qnnlsp5c@marketplace.amazon.com	Sherri Dobson	+1 346-307-9643 ext. 94441	ABM010	Arabella Bouquets | Fields of The World Bouquet of Fresh Cut Flowers in a Free Designer Glass Vase	1	0	1	Expedited	Ms. Pamela Reed	455 SADDLEBROOK RD			AUSTIN	AR	72007-8893	US			false		
114-8594164-7159456	22673959445698	2020-06-14T17:58:34+00:00	2020-06-14T10:58:34-07:00	2020-06-14T18:24:18+00:00	2020-06-18T06:59:59+00:00	-4	7hv7gmx022mnvsz@marketplace.amazon.com	Megan  Norton	+1 210-728-4548 ext. 33226	ABR015	Arabella Farm Direct Bouquet of 18 Fresh Cut Orange Roses with a Free Glass Vase	1	0	1	Expedited	CAIT MCDONNELL	3758 SISSETON LN			MOUNT PLEASANT	SC	29466-8397	US		We love you and wish we could be there!!! Feel good Cait! F Cancer... Love Michael and Meg.... From Megan  Norton	false		
111-8892963-0995440	03898739031882	2020-06-14T18:31:16+00:00	2020-06-14T11:31:16-07:00	2020-06-14T18:56:11+00:00	2020-06-18T06:59:59+00:00	-4	rhm3ls441bm7wdc@marketplace.amazon.com	Lauren Shack	+1 314-282-9402 ext. 79003	ABR004	Arabella Farm Direct Bouquet of 12 Fresh Cut Yellow Roses with a Free Glass Vase	1	0	1	Expedited	Lauren Preifer and Ross Heller	96 LOUVAIN ST			FAIRFIELD	CT	06825-1354	US		Congratulations on your new home!!! We hope you have many Years of happiness and make lasting memories there! Can’t wait to visit! Xox From Lauren, Adam,Ryan,P,Sky,&Erica	false		
111-3043307-0759436	57204224669570	2020-06-14T18:30:13+00:00	2020-06-14T11:30:13-07:00	2020-06-14T19:00:54+00:00	2020-06-18T06:59:59+00:00	-4	rmhx7lmmn08h9cy@marketplace.amazon.com	Kay Rockwell	+1 314-282-9402 ext. 93654	ABR0055	Arabella Farm Direct Bouquet of 12 Stems of Fresh Cut Hot Pink Roses in a Free Designer Glass Vase	1	0	1	Expedited	Kay Rockwell	252 Berthoud Way			Golden	COLORADO	80401	US			false		
111-9196336-8504248	31879585789618	2020-06-14T18:31:26+00:00	2020-06-14T11:31:26-07:00	2020-06-14T19:01:55+00:00	2020-06-17T06:59:59+00:00	-3	rmhx7lmmn08h9cy@marketplace.amazon.com	Kay Rockwell	+1 346-307-9643 ext. 81664	ABR001	Arabella Bouquets 12 Stems of Fresh Cut Red Roses in a Free Designer Glass Vase	1	0	1	Expedited	Pat Newton/ Tyler Newton	5240 GOLF CLUB RD			HOWELL	MI	48843-8024	US			false		
114-1296704-7985846	55723815070994	2020-06-14T19:15:31+00:00	2020-06-14T12:15:31-07:00	2020-06-14T19:42:58+00:00	2020-06-18T06:59:59+00:00	-4	p95l9knkx7pksjv@marketplace.amazon.com	cw tyler	6778 330 8702	ABR0055	Arabella Farm Direct Bouquet of 12 Stems of Fresh Cut Hot Pink Roses in a Free Designer Glass Vase	1	0	1	Expedited	M L Tyler	25 ASHMEAD PL N			PHILADELPHIA	PA	19144-2916	US		To; Our Daughter “We love you more“ Me Me From Mom& DAd	false		
113-3616598-0673063	21850478056434	2020-06-14T19:16:03+00:00	2020-06-14T12:16:03-07:00	2020-06-14T19:46:09+00:00	2020-06-18T06:59:59+00:00	-4	9k32xqp5z328v9r@marketplace.amazon.com	John Littleford	+1 210-728-4548 ext. 52030	ABR0055	Arabella Farm Direct Bouquet of 12 Stems of Fresh Cut Hot Pink Roses in a Free Designer Glass Vase	1	0	1	Expedited	Martha Miller	202 W ROSEMARY LN			FALLS CHURCH	VA	22046-3842	US			false		
114-6471711-0463429	14198564041210	2020-06-14T19:16:37+00:00	2020-06-14T12:16:37-07:00	2020-06-14T19:54:11+00:00	2020-06-18T06:59:59+00:00	-4	1mq1mxwhlzlqztq@marketplace.amazon.com	Stephanie Dewante	+1 210-728-4548 ext. 64813	ABR004	Arabella Farm Direct Bouquet of 12 Fresh Cut Yellow Roses with a Free Glass Vase	1	0	1	Expedited	Aimee Dewante	847 N OAKLEY BLVD APT 1F			CHICAGO	IL	60622-4737	US			false		
113-4579355-7692238	05576664830010	2020-06-14T19:30:50+00:00	2020-06-14T12:30:50-07:00	2020-06-14T19:55:54+00:00	2020-06-18T06:59:59+00:00	-4	x783gx4rtjxf5r7@marketplace.amazon.com	Rebecca S. Logan-Johnson	+1 210-728-4548 ext. 31360	ABR0022	Arabella Farm Direct Bouquet of 12 Fresh Cut Pink Roses with a Free Glass Vase	1	0	1	Expedited	Emily Logan	5606 WAHOO CT			WALDORF	MD	20603-4753	US		Congratulations on your graduation! From Rebecca S. Logan-Johnson	false		
112-9046011-0139431	66084869520378	2020-06-14T20:06:04+00:00	2020-06-14T13:06:04-07:00	2020-06-14T20:29:17+00:00	2020-06-18T06:59:59+00:00	-4	hqyk389947rht7l@marketplace.amazon.com	Norman Wallace	+1 210-728-4548 ext. 34984	ABR0022	Arabella Farm Direct Bouquet of 12 Fresh Cut Pink Roses with a Free Glass Vase	1	0	1	Expedited	Madeline Oase	66 BAILEY CIR			SOUTH WINDSOR	CT	06074-1040	US		Enjoy your gift! From Norman Wallace	false		
113-5968978-9809841	04266327330330	2020-06-14T20:05:07+00:00	2020-06-14T13:05:07-07:00	2020-06-14T20:35:24+00:00	2020-06-18T06:59:59+00:00	-4	nq86pcr4m14dzrb@marketplace.amazon.com	Joann Merrill	+1 314-282-9402 ext. 00639	ABM019	Arabella Bouquets | The Desert Sun Bouquet in a Free Designer Glass Vase	1	0	1	Expedited	Mary Anne Mathern	6315 S I ST			TACOMA	WA	98408-4620	US			false		
114-9873466-9446625	59256844751522	2020-06-14T20:37:13+00:00	2020-06-14T13:37:13-07:00	2020-06-14T20:54:11+00:00	2020-06-18T06:59:59+00:00	-4	8bf798p69qpgkgb@marketplace.amazon.com	Kim	+1 346-307-9643 ext. 81738	ABR0022	Arabella Farm Direct Bouquet of 12 Fresh Cut Pink Roses with a Free Glass Vase	1	0	1	Expedited	Anecia Brown	10 WYTHE ST			HINESVILLE	GA	31313-8358	US		Happy Birthday babe, remember you deserve only the best! From Kimberly	false		
111-9467769-1865835	22556121307482	2020-06-14T20:46:27+00:00	2020-06-14T13:46:27-07:00	2020-06-14T21:13:09+00:00	2020-06-18T06:59:59+00:00	-4	vlgzpq3gpscqwlf@marketplace.amazon.com	Melissa Campuzano	+1 210-728-4548 ext. 30977	ABM010	Arabella Bouquets | Fields of The World Bouquet of Fresh Cut Flowers in a Free Designer Glass Vase	1	0	1	Expedited	Rosa Campuzano	532 AURORA DR			EL CENTRO	CA	92243-4406	US		Mami, Happy Birthday  From Melissa Campuzano	false		
112-7108758-1687450	42682319116562	2020-06-14T20:51:21+00:00	2020-06-14T13:51:21-07:00	2020-06-14T21:18:18+00:00	2020-06-18T06:59:59+00:00	-4	x3jm2c7bg91k2kb@marketplace.amazon.com	Supriya Abraham	+1 346-307-9643 ext. 20462	ABR0022	Arabella Farm Direct Bouquet of 12 Fresh Cut Pink Roses with a Free Glass Vase	1	0	1	Expedited	SARAMMA JACOB	2807 N BLUE MEADOW CIR			SUGAR LAND	TX	77479-1530	US		TO LILLY AUNTY HAPPY BIRTHDAY!  FROM MARYKUTTY, KUNJUJU, SUPRIYA, SHINO, AND FAMILY.	false		
112-3317934-0431416	28677761685098	2020-06-14T21:25:24+00:00	2020-06-14T14:25:24-07:00	2020-06-14T21:55:35+00:00	2020-06-18T06:59:59+00:00	-4	s1stb0ckf5r96zm@marketplace.amazon.com	Danny Edgar	07454767413	ABM010	Arabella Bouquets | Fields of The World Bouquet of Fresh Cut Flowers in a Free Designer Glass Vase	1	0	1	Expedited	Jenyfer Mora	4924 D ST			CHINO	CA	91710-4025	US			false		
111-3920927-2385836	23764453397746	2020-06-14T21:38:59+00:00	2020-06-14T14:38:59-07:00	2020-06-14T22:07:16+00:00	2020-06-17T06:59:59+00:00	-3	bf1gl36x9bqs65t@marketplace.amazon.com	Igrafo kennedy	+1 210-728-4548 ext. 81564	ABR001	Arabella Bouquets 12 Stems of Fresh Cut Red Roses in a Free Designer Glass Vase	1	0	1	Expedited	Deborah Callahan	281 MOUNT VERNON DR			CALHOUN	GA	30701-1719	US		Get well soon my lovely wife,  You are the queen of my heart From Richard	false		
113-9670551-1129030	58642184117570	2020-06-14T21:46:47+00:00	2020-06-14T14:46:47-07:00	2020-06-14T22:17:01+00:00	2020-06-18T06:59:59+00:00	-4	d91xr9hq9w0fg0t@marketplace.amazon.com	Todd Wilson	+1 346-307-9643 ext. 04223	ABM0033	Purchase Now for Delivery by Wednesday | Arabella Farm Direct Bouquet of Fresh Cut White Hydrangea with a Free Glass Vase	1	0	1	Expedited	Gina Bender	2828 LEMMON AVE APT 5132			DALLAS	TX	75204-3810	US			false		
114-9610040-9944245	54316731472978	2020-06-14T22:21:31+00:00	2020-06-14T15:21:31-07:00	2020-06-14T22:43:51+00:00	2020-06-18T06:59:59+00:00	-4	v9qhn5msslyy47z@marketplace.amazon.com	Harry DeYarmatt	+1 210-728-4548 ext. 65306	ABR0022	Arabella Farm Direct Bouquet of 12 Fresh Cut Pink Roses with a Free Glass Vase	1	0	1	Expedited	Kellijo Mehaffey	1702 STATE ST			MEETEETSE	WY	82433-9635	US			false		
111-0786598-8110603	49313439330794	2020-06-14T22:16:36+00:00	2020-06-14T15:16:36-07:00	2020-06-14T22:46:30+00:00	2020-06-18T06:59:59+00:00	-4	qtvncgk2nsrld2y@marketplace.amazon.com	Alexandra Morton	+1 346-307-9643 ext. 96907	ABR0022	Arabella Farm Direct Bouquet of 12 Fresh Cut Pink Roses with a Free Glass Vase	1	0	1	Expedited	Charlie & Jodi Neal	2313 PARKSIDE DR			BOWIE	MD	20721-4229	US		Get well soon Jodi!! From Alexandra Morton	false		
111-1012931-1153824	63920703807122	2020-06-14T22:33:47+00:00	2020-06-14T15:33:47-07:00	2020-06-14T23:01:24+00:00	2020-06-18T06:59:59+00:00	-4	nqsmylhgnfjycjt@marketplace.amazon.com	Patrick McCarthy	+1 346-307-9643 ext. 94990	ABM010	Arabella Bouquets | Fields of The World Bouquet of Fresh Cut Flowers in a Free Designer Glass Vase	1	0	1	Expedited	Kristina Marco	246 NORTH ST			BOSTON	MA	02113-2133	US			false		
114-5828699-1153006	33951629974946	2020-06-14T22:41:20+00:00	2020-06-14T15:41:20-07:00	2020-06-14T23:08:36+00:00	2020-06-18T06:59:59+00:00	-4	tywd466ps47w5fb@marketplace.amazon.com	Judy sizemore	+1 210-728-4548 ext. 63871	ABR0022	Arabella Farm Direct Bouquet of 12 Fresh Cut Pink Roses with a Free Glass Vase	1	0	1	Expedited	Tammy Jones	1206 ASPEN PINES DR			NEWPORT	KY	41071-0404	US		Enjoy your gift! Happy Birthday  Tammy  Love you From Judy sizemore	false		
114-6464201-6122637	68282451702210	2020-06-14T23:10:36+00:00	2020-06-14T16:10:36-07:00	2020-06-14T23:33:05+00:00	2020-06-18T06:59:59+00:00	-4	j46n17c2d61hb8q@marketplace.amazon.com	M J Hastings	+1 346-307-9643 ext. 72714	ABR004	Arabella Farm Direct Bouquet of 12 Fresh Cut Yellow Roses with a Free Glass Vase	1	0	1	Standard	Ashley Chinn	MHC CARRIERS 2700 S 88TH ST			KANSAS CITY	KS	66111-1739	US		Thanks for helping us thank the elders. From Mary Hastings	false		
