order-id	order-item-id	purchase-date	payments-date	reporting-date	promise-date	days-past-promise	buyer-email	buyer-name	buyer-phone-number	sku	product-name	quantity-purchased	quantity-shipped	quantity-to-ship	ship-service-level	recipient-name	ship-address-1	ship-address-2	ship-address-3	ship-city	ship-state	ship-postal-code	ship-country	gift-wrap-type	gift-message-text	is-business-order	purchase-order-number	price-designation
114-7079262-7042603	12339399041066	2020-06-13T13:21:00+00:00	2020-06-13T06:21:00-07:00	2020-06-13T13:47:33+00:00	2020-06-17T06:59:59+00:00	-1	vkdklrbblspyl0l@marketplace.amazon.com	william	+1 314-282-9402 ext. 23820	ABR001	Arabella Bouquets 12 Stems of Fresh Cut Red Roses in a Free Designer Glass Vase	1	0	1	Expedited	Romana franco	2829 E AVENUE J4 APT			LANCASTER	CA	93535-6168	US		Hi Romana,I promise to love and cherish you as my beloved wife.I vow to hold your hand in my hands and to hold your heart in mine. I love you and you are my mine forever.I pledge to be faithful and honest forever my love.Bradley woodman	false		
113-7502221-6751431	06382683122834	2020-06-13T13:19:28+00:00	2020-06-13T06:19:28-07:00	2020-06-13T13:49:32+00:00	2020-06-18T06:59:59+00:00	-2	x41svgb66v0g1q5@marketplace.amazon.com	Joseph Schutte	+1 346-307-9643 ext. 95322	ABM010	Arabella Bouquets | Fields of The World Bouquet of Fresh Cut Flowers in a Free Designer Glass Vase	1	0	1	Expedited	Joseph Schutte	2239 historic oaks blvd			Indianapolis	IN	46214	US			false		
112-1349464-6218668	36880346796914	2020-06-13T14:32:14+00:00	2020-06-13T07:32:14-07:00	2020-06-13T15:00:29+00:00	2020-06-18T06:59:59+00:00	-2	5sqy6l9gf8nl496@marketplace.amazon.com	Patricia A Kuypers	+1 314-282-9402 ext. 41176	ABR0022	Arabella Farm Direct Bouquet of 12 Fresh Cut Pink Roses with a Free Glass Vase	1	0	1	Expedited	Shahla Kuypers	6275 Reber Place			St Louis	MO	63139	US		Just because... Love, mom From Patricia A Kuypers	false		
112-5378782-2402663	31618476103682	2020-06-13T14:33:58+00:00	2020-06-13T07:33:58-07:00	2020-06-13T15:03:47+00:00	2020-06-18T06:59:59+00:00	-2	yxdqy6brymsk073@marketplace.amazon.com	Ann M.  Mooney	+1 210-728-4548 ext. 79555	ABM010	Arabella Bouquets | Fields of The World Bouquet of Fresh Cut Flowers in a Free Designer Glass Vase	1	0	1	Expedited	George Kuzmin	11070 W FOREST HOME AVE APT 3			HALES CORNERS	WI	53130-2554	US			false		
112-1278779-4585034	28094332770570	2020-06-13T14:45:37+00:00	2020-06-13T07:45:37-07:00	2020-06-13T15:14:57+00:00	2020-06-18T06:59:59+00:00	-2	hy6fpg2n2gq3bs1@marketplace.amazon.com	Deborah Johnson	+1 346-307-9643 ext. 49879	ABR004	Arabella Farm Direct Bouquet of 12 Fresh Cut Yellow Roses with a Free Glass Vase	1	0	1	Expedited	Kristina Chao	14 ALTHEA ST APT 2			DORCHESTER	MA	02122-1295	US		Well, I can’t send post cards, since I have nowhere to go... ha. Sending some random flowers to brighten your day! Hope all is well, Kristina! (Hi Chris lol) From Deb	false		
112-5394837-9448207	54167262252786	2020-06-13T14:48:53+00:00	2020-06-13T07:48:53-07:00	2020-06-13T15:18:07+00:00	2020-06-18T06:59:59+00:00	-2	hy6fpg2n2gq3bs1@marketplace.amazon.com	Deborah Johnson	+1 314-282-9402 ext. 05290	ABR0055	Arabella Farm Direct Bouquet of 12 Stems of Fresh Cut Hot Pink Roses in a Free Designer Glass Vase	1	0	1	Expedited	Danielle Menegazzo	2 LETY LN			MONTEBELLO	NY	10901-3961	US		Dear Danielle, hoping all is well with you and the fam. Just sending some random flowers out to brighten your day. 😊 From Deb	false		
112-0583830-1902638	11416659246218	2020-06-13T15:38:54+00:00	2020-06-13T08:38:54-07:00	2020-06-13T16:08:10+00:00	2020-06-18T06:59:59+00:00	-2	jv2vng23r1y8p4m@marketplace.amazon.com	Perrine Mann	+1 314-282-9402 ext. 55105	ABR0022	Arabella Farm Direct Bouquet of 12 Fresh Cut Pink Roses with a Free Glass Vase	1	0	1	Expedited	Dympna Bakhshay	2388 TUSCANY AVE			MERCED	CA	95340-9685	US		Happy birthday beautiful grandma!!! We love you!! Audrey, Ed and Perrine From Perrine Mann	false		
112-1292039-4804248	04711375030578	2020-06-13T15:58:55+00:00	2020-06-13T08:58:55-07:00	2020-06-13T16:18:26+00:00	2020-06-18T06:59:59+00:00	-2	hyfwybq5gmhzh47@marketplace.amazon.com	B M Hareland	+1 346-307-9643 ext. 36287	ABR0055	Arabella Farm Direct Bouquet of 12 Stems of Fresh Cut Hot Pink Roses in a Free Designer Glass Vase	1	0	1	Expedited	Jennifer Gonzales	25881 1/2 San Elijo Ave.			Cardiff	CA	92007	US		Howdy My Jen, Happy Birthday to You! Have a wonderful Day! Love you bunches, Hugs, Geir, Bunn Bunn, Geir Jr., Katrine & Sofi	false		
114-2925023-3755411	67432101334530	2020-06-13T16:49:10+00:00	2020-06-13T09:49:10-07:00	2020-06-13T17:08:04+00:00	2020-06-18T06:59:59+00:00	-2	1wgmwghj6rwtx88@marketplace.amazon.com	Kathy Gloer	+1 346-307-9643 ext. 61681	ABR0055	Arabella Farm Direct Bouquet of 12 Stems of Fresh Cut Hot Pink Roses in a Free Designer Glass Vase	1	0	1	Expedited	Abby & Padent Bates	4604 VIRGINIA AVE			CHATTANOOGA	TN	37409-1605	US		Dear Abby & Padent....We just wanted to say we love y'all and praying for you!!  Love, the Gloer's & Coley's From Kathy Gloer & Kali Coley	false		
111-1071609-1111417	29757782382930	2020-06-13T16:47:10+00:00	2020-06-13T09:47:10-07:00	2020-06-13T17:13:58+00:00	2020-06-18T06:59:59+00:00	-2	t30wc28t425c0qy@marketplace.amazon.com	Richard Wortmann	+1 210-728-4548 ext. 71047	ABR004	Arabella Farm Direct Bouquet of 12 Fresh Cut Yellow Roses with a Free Glass Vase	1	0	1	Expedited	Kelly Jabbusch	827 REGENTS SQ			OXON HILL	MD	20745-1188	US		Happy Birthday Auntie Kelly! Miss you! From Love Richie, Missy, Hailey and Chloe	false		
112-4681900-0471446	21764518156762	2020-06-13T17:05:35+00:00	2020-06-13T10:05:35-07:00	2020-06-13T17:29:40+00:00	2020-06-18T06:59:59+00:00	-2	dm6ff38rzgxzmjn@marketplace.amazon.com	Penny	+1 314-282-9402 ext. 89293	ABR0022	Arabella Farm Direct Bouquet of 12 Fresh Cut Pink Roses with a Free Glass Vase	1	0	1	Expedited	Carol Ho- Rezvani	202 NORMAN RD			NEW ROCHELLE	NY	10804-3112	US		Carol, Happy Birthday!  Looking forward to seeing you in person!  With love, The Lunch Bunch- Brenda, Dorothy, Mike and Penny From The Lunch Bunch	false		
111-2815648-2901000	63056856373330	2020-06-13T17:22:28+00:00	2020-06-13T10:22:28-07:00	2020-06-13T17:52:07+00:00	2020-06-17T06:59:59+00:00	-1	4twt90qyx181vxf@marketplace.amazon.com	Tyler Durden	+1 314-282-9402 ext. 49644	ABR001	Arabella Bouquets 12 Stems of Fresh Cut Red Roses in a Free Designer Glass Vase	1	0	1	Expedited	Holly Reeves	11263 OLD 63 S APT 45			LUCEDALE	MS	39452-6665	US		Your my Calm, My Center, My Tempest, the Love of My Life. From Tyler Durden	false		
112-1535671-3225861	35645658526306	2020-06-13T17:31:21+00:00	2020-06-13T10:31:21-07:00	2020-06-13T17:59:37+00:00	2020-06-18T06:59:59+00:00	-2	zpz5zl7b0r7x7wm@marketplace.amazon.com	Mary S Scanlon	+1 346-307-9643 ext. 75846	ABR0055	Arabella Farm Direct Bouquet of 12 Stems of Fresh Cut Hot Pink Roses in a Free Designer Glass Vase	2	0	2	Expedited	Martha ChicoskiMary S Scanlon	5709 NUGGET ST NE			ALBUQUERQUE	NM	87111-5929	US			false		
113-9360335-3682625	65045907709842	2020-06-13T17:42:20+00:00	2020-06-13T10:42:20-07:00	2020-06-13T18:10:45+00:00	2020-06-18T06:59:59+00:00	-2	d78jyprdvgz81xf@marketplace.amazon.com	jacques	+1 346-307-9643 ext. 95089	ABR004	Arabella Farm Direct Bouquet of 12 Fresh Cut Yellow Roses with a Free Glass Vase	1	0	1	Expedited	Edythe Figueroa	448 E 2ND ST			BENSON	AZ	85602-6165	US			false		
114-3714967-4227428	54563922718202	2020-06-13T17:51:11+00:00	2020-06-13T10:51:11-07:00	2020-06-13T18:21:10+00:00	2020-06-18T06:59:59+00:00	-2	vczqg3h8p1t3hwr@marketplace.amazon.com	Matika Rawls	+1 346-307-9643 ext. 25979	ABM010	Arabella Bouquets | Fields of The World Bouquet of Fresh Cut Flowers in a Free Designer Glass Vase	1	0	1	Expedited	Joseph Morris	2945 Chiplay St			Sacramento	CA	95826	US			true		
111-1440868-2398648	50248706252162	2020-06-13T18:18:43+00:00	2020-06-13T11:18:43-07:00	2020-06-13T18:48:35+00:00	2020-06-18T06:59:59+00:00	-2	27mgtb64c0ph5jj@marketplace.amazon.com	Shane Mitchell	+1 346-307-9643 ext. 31003	ABR0055	Arabella Farm Direct Bouquet of 12 Stems of Fresh Cut Hot Pink Roses in a Free Designer Glass Vase	1	0	1	Expedited	Shane A Mitchell	207 HAWAII AVE			WARNER ROBINS	GA	31093-3509	US			false		
112-8938029-4573838	13053682648330	2020-06-13T18:29:37+00:00	2020-06-13T11:29:37-07:00	2020-06-13T19:00:16+00:00	2020-06-18T06:59:59+00:00	-2	76wgsy83m5c52yw@marketplace.amazon.com	Tracie Polite	+1 210-728-4548 ext. 31573	ABM010	Arabella Bouquets | Fields of The World Bouquet of Fresh Cut Flowers in a Free Designer Glass Vase	1	0	1	Expedited	Mr and Mrs Lamma	1510 TUNLAW RD			BALTIMORE	MD	21218-2216	US			false		
113-6460537-4075413	68242567833514	2020-06-13T19:01:34+00:00	2020-06-13T12:01:34-07:00	2020-06-13T19:31:13+00:00	2020-06-18T06:59:59+00:00	-2	qps2wtrw2c4f01m@marketplace.amazon.com	John Peacock	+1 314-282-9402 ext. 13240	ABR0022	Arabella Farm Direct Bouquet of 12 Fresh Cut Pink Roses with a Free Glass Vase	1	0	1	Expedited	Linda Peacock	10083 CABACHON CT			ELLICOTT CITY	MD	21042-6202	US		Love you meme!!! From Logan, Braden, Jennifer, John and Kitter	false		
114-6969670-8072223	64607215042314	2020-06-13T19:10:56+00:00	2020-06-13T12:10:56-07:00	2020-06-13T19:36:05+00:00	2020-06-18T06:59:59+00:00	-2	jbkh76dvrxvtk11@marketplace.amazon.com	8054288614	+1 210-728-4548 ext. 15382	ABR0022	Arabella Farm Direct Bouquet of 12 Fresh Cut Pink Roses with a Free Glass Vase	1	0	1	Expedited	8054288614	3560 SAWTELLE BLVD			LOS ANGELES	CA	90066-2917	US			false		
112-8365430-6209847	05279086584634	2020-06-13T19:19:11+00:00	2020-06-13T12:19:11-07:00	2020-06-13T19:44:59+00:00	2020-06-18T06:59:59+00:00	-2	6v2y1cnfb4hcpd2@marketplace.amazon.com	Alan Chow	+1 210-728-4548 ext. 21272	ABM010	Arabella Bouquets | Fields of The World Bouquet of Fresh Cut Flowers in a Free Designer Glass Vase	1	0	1	Expedited	Amy and Scott Gnau	16 HALLEN AVE			MILTON	MA	02186-4402	US		Get well soon Amy! From Cara and Alan Chow	false		
114-9892248-8873026	59099201933274	2020-06-13T19:19:49+00:00	2020-06-13T12:19:49-07:00	2020-06-13T19:48:20+00:00	2020-06-18T06:59:59+00:00	-2	j11rn4w5m9pb2sz@marketplace.amazon.com	Michael Greenwood	+1 346-307-9643 ext. 01862	ABM010	Arabella Bouquets | Fields of The World Bouquet of Fresh Cut Flowers in a Free Designer Glass Vase	1	0	1	Expedited	The Beckers	5655 HARBORMIST DR			POWDER SPRINGS	GA	30127-6965	US		Happy Birthday Love Mike	false		
112-1032642-6076229	13905119902842	2020-06-13T20:09:31+00:00	2020-06-13T13:09:31-07:00	2020-06-13T20:32:45+00:00	2020-06-18T06:59:59+00:00	-2	0x54q4q879g6tc6@marketplace.amazon.com	Anne Rich	+1 210-728-4548 ext. 78247	ABM010	Arabella Bouquets | Fields of The World Bouquet of Fresh Cut Flowers in a Free Designer Glass Vase	1	0	1	Expedited	Ruth Fellin	546 HAYSTACK DR			ZION GROVE	PA	17985-9206	US		Happy Birthday  Love  Anne Marie	false		
113-4588679-8572251	29077976793826	2020-06-13T20:12:36+00:00	2020-06-13T13:12:36-07:00	2020-06-13T20:41:09+00:00	2020-06-18T06:59:59+00:00	-2	mz38mcn56ftvwct@marketplace.amazon.com	Lauren Lazin	+1 314-282-9402 ext. 21466	ABR0022	Arabella Farm Direct Bouquet of 12 Fresh Cut Pink Roses with a Free Glass Vase	1	0	1	Expedited	Lauren Lazin	79 WASHINGTON PL 3R			NEW YORK	NY	10011-9105	US		We are thinking of you!  Love, Lauren and Julian and Charlie and Annie (but mostly Annie). From Annie and friends	false		
111-4702768-1423462	31783185689010	2020-06-13T20:33:38+00:00	2020-06-13T13:33:38-07:00	2020-06-13T21:00:53+00:00	2020-06-18T06:59:59+00:00	-2	1yw734001023p9l@marketplace.amazon.com	Crissy Karaszewski	+1 346-307-9643 ext. 55687	ABR0022	Arabella Farm Direct Bouquet of 12 Fresh Cut Pink Roses with a Free Glass Vase	1	0	1	Expedited	Lynn Karaszewski	335 STANYAN PL			ALPHARETTA	GA	30022-8202	US		Hi Lynn were thinking of you !!!  Love you,  Leo & Kim From Leo & Kim Bieniek	false		
114-2344051-3418621	29576958333394	2020-06-13T21:17:59+00:00	2020-06-13T14:17:59-07:00	2020-06-13T21:38:18+00:00	2020-06-17T06:59:59+00:00	-1	hscv9y62hl72d09@marketplace.amazon.com	Robin E. Raborn	+1 210-728-4548 ext. 36708	ABR0066	Purchase Now for Delivery by Tuesday | Arabella Bouquets 18 Stems of Fresh Cut White Roses in a Free Designer Glass Vase	1	0	1	Expedited	Jenifer Binford	611 DALLAS ST			NEW BRAUNFELS	TX	78130-5307	US			false		
113-5285933-4268259	56134361257538	2020-06-13T21:17:40+00:00	2020-06-13T14:17:40-07:00	2020-06-13T21:42:55+00:00	2020-06-18T06:59:59+00:00	-2	x04jnp7frwyg7vt@marketplace.amazon.com	Jeanette Lucht	+1 210-728-4548 ext. 01362	ABM010	Arabella Bouquets | Fields of The World Bouquet of Fresh Cut Flowers in a Free Designer Glass Vase	1	0	1	Expedited	Mrs Poulson	N795 TAMARACK RD			PALMYRA	WI	53156-9788	US		To brighten your day!  I hope you are doing well and will check on you in person as soon as I can get to WI. Love, Nettie From Jeanette Lucht	false		
114-0677274-7682607	44853111694346	2020-06-13T21:31:09+00:00	2020-06-13T14:31:09-07:00	2020-06-13T21:59:43+00:00	2020-06-18T06:59:59+00:00	-2	0lf3s3j02c7w30s@marketplace.amazon.com	Mary Z. Luckenbaugh	+1 346-307-9643 ext. 53700	ABR0055	Arabella Farm Direct Bouquet of 12 Stems of Fresh Cut Hot Pink Roses in a Free Designer Glass Vase	1	0	1	Expedited	Louise Luckenbaugh	119 LITTLETON DR			HANOVER	PA	17331-4516	US			false		
113-9068686-8975462	53894274859650	2020-06-13T21:42:56+00:00	2020-06-13T14:42:56-07:00	2020-06-13T22:18:11+00:00	2020-06-18T06:59:59+00:00	-2	zwhxfmrkqd9svn6@marketplace.amazon.com	Sunshine	+1 346-307-9643 ext. 51149	ABR0055	Arabella Farm Direct Bouquet of 12 Stems of Fresh Cut Hot Pink Roses in a Free Designer Glass Vase	1	0	1	Expedited	Sunshine Brown	College Arms Apartments, Apt. #P-203	74 East Fifth Avenue		Collegeville	Pennsylvania	19426	US			false		
113-7739552-1969063	07090170941410	2020-06-13T21:55:50+00:00	2020-06-13T14:55:50-07:00	2020-06-13T22:23:57+00:00	2020-06-18T06:59:59+00:00	-2	xxvbmwtgjpkdx1y@marketplace.amazon.com	thomas ogrodnik	+1 210-728-4548 ext. 59417	ABM010	Arabella Bouquets | Fields of The World Bouquet of Fresh Cut Flowers in a Free Designer Glass Vase	1	0	1	Expedited	Selinda Ogrodnik	1706 TILDEN AVE			NEW HARTFORD	NY	13413-3105	US		HAPPY BIRTHDAY MOM! 🎈🎉🎁😘  LOVE TOM😘	false		
114-8493561-1247404	26564308336578	2020-06-13T22:03:16+00:00	2020-06-13T15:03:16-07:00	2020-06-13T22:32:25+00:00	2020-06-17T06:59:59+00:00	-1	dqzqndl6316wl2j@marketplace.amazon.com	Lilian Macalinao	+1 314-282-9402 ext. 39900	ABR001	Arabella Bouquets 12 Stems of Fresh Cut Red Roses in a Free Designer Glass Vase	1	0	1	Expedited	Gretchen Mangali	31 W SOMERSET ST			RARITAN	NJ	08869-2057	US		I love you every beat of my heart ❤️❣️🌹 From Lilian Macalinao	false		
112-7832547-9573000	31534588680842	2020-06-13T22:23:14+00:00	2020-06-13T15:23:14-07:00	2020-06-13T22:47:22+00:00	2020-06-18T06:59:59+00:00	-2	42v72jgmb873d6r@marketplace.amazon.com	kelly walsh	+1 314-282-9402 ext. 82550	ABM010	Arabella Bouquets | Fields of The World Bouquet of Fresh Cut Flowers in a Free Designer Glass Vase	1	0	1	Expedited	Nate Robinson/Shannon May	114 FRONT ST			WEYMOUTH	MA	02188-1620	US		Hi Shannon, I'm very sorry for your loss. Kelly Walsh	false		
113-1270671-9142636	38418035458410	2020-06-13T22:58:41+00:00	2020-06-13T15:58:41-07:00	2020-06-13T23:22:18+00:00	2020-06-18T06:59:59+00:00	-2	glkr1rrmnqjd676@marketplace.amazon.com	bernard gold	+1 346-307-9643 ext. 33765	ABR012	Arabella Farm Direct Bouquet of 18 Fresh Cut Pink Roses with a Free Glass Vase	1	0	1	Expedited	gert katz	2202 LUCAYA BND APT J1			COCONUT CREEK	FL	33066-1127	US		Happy 100  ...Hope your having a joyful birthday.          Love Buddy and Elaine From bernard gold	false		
114-8257162-4296222	29777274682074	2020-06-13T23:17:28+00:00	2020-06-13T16:17:28-07:00	2020-06-13T23:41:22+00:00	2020-06-17T06:59:59+00:00	-1	8m8l01my3msjcc7@marketplace.amazon.com	Pedro Bernardo	+1 210-728-4548 ext. 98548	ABR001	Arabella Bouquets 12 Stems of Fresh Cut Red Roses in a Free Designer Glass Vase	1	0	1	Expedited	Pedro Bernardo	4283 EXPRESS LN STE 2786-041			SARASOTA	FL	34249-2602	US		Enjoy your gift with love! From Pedro Bernardo	false		
112-7154078-8326644	41301467964282	2020-06-13T23:47:30+00:00	2020-06-13T16:47:30-07:00	2020-06-14T00:13:33+00:00	2020-06-18T06:59:59+00:00	-2	cww7016c1qyzqbm@marketplace.amazon.com	Johnny Barrett	+1 314-282-9402 ext. 66279	ABM010	Arabella Bouquets | Fields of The World Bouquet of Fresh Cut Flowers in a Free Designer Glass Vase	1	0	1	Expedited	Ann Eldredge	1042 COUNTY ROAD 474			STEPHENVILLE	TX	76401-6967	US		Hope these don’t smell like plastic!!  Lots of love the Barrett’s From Johnny Barrett	false		
112-7669386-1814652	66152358291554	2020-06-14T00:39:37+00:00	2020-06-13T17:39:37-07:00	2020-06-14T01:05:11+00:00	2020-06-18T06:59:59+00:00	-2	1ww9jl0b40v9ffh@marketplace.amazon.com	Ed Dube	+1 210-728-4548 ext. 20888	ABR0022	Arabella Farm Direct Bouquet of 12 Fresh Cut Pink Roses with a Free Glass Vase	1	0	1	Expedited	Ruth Rettig	13601 N 21ST DR			PHOENIX	AZ	85029-1502	US		Dear Ruth, Your first Birthday as a retiree. Both are great. Have a wonderful Birthday. Love, Ed & Jeannie From Ed Dube	false		
114-3618171-5843447	21718807404026	2020-06-14T00:48:42+00:00	2020-06-13T17:48:42-07:00	2020-06-14T01:18:32+00:00	2020-06-17T06:59:59+00:00	-1	gj789cyfwtfxlqd@marketplace.amazon.com	Edward T. Maguire	+1 314-282-9402 ext. 46321	ABR001	Arabella Bouquets 12 Stems of Fresh Cut Red Roses in a Free Designer Glass Vase	1	0	1	Expedited	Patricia Maguire / Brightview	1 SYMMES RD	APT 2		ARLINGTON	MA	02474	US			false		
111-4188580-7077041	22903484862026	2020-06-14T01:35:17+00:00	2020-06-13T18:35:17-07:00	2020-06-14T02:04:00+00:00	2020-06-17T06:59:59+00:00	-1	9lyyp8nkcmmxjnm@marketplace.amazon.com	Heather Homenick	+1 346-307-9643 ext. 97800	ABR001	Arabella Bouquets 12 Stems of Fresh Cut Red Roses in a Free Designer Glass Vase	1	0	1	Expedited	Edward Homenick	114 HORTONVILLE MAIN ST			CALLICOON	NY	12723-5116	US		Hi Edward, Enjoy your gift! From Heather Homenick	false		
111-8146461-8733864	55496566120122	2020-06-14T01:40:45+00:00	2020-06-13T18:40:45-07:00	2020-06-14T02:09:24+00:00	2020-06-17T06:59:59+00:00	-1	9lyyp8nkcmmxjnm@marketplace.amazon.com	Heather Homenick	+1 314-282-9402 ext. 38704	ABR001	Arabella Bouquets 12 Stems of Fresh Cut Red Roses in a Free Designer Glass Vase	1	0	1	Expedited	Ruth Homenick	114 HORTONVILLE MAIN ST			CALLICOON	NY	12723-5116	US		Hi Ruth, Enjoy your gift!	false		
114-9532654-8246636	13372857602290	2020-06-14T02:07:41+00:00	2020-06-13T19:07:41-07:00	2020-06-14T02:37:54+00:00	2020-06-18T06:59:59+00:00	-2	8z6gycvxz5hxc58@marketplace.amazon.com	Neelam K.	+1 346-307-9643 ext. 12708	ABR0022	Arabella Farm Direct Bouquet of 12 Fresh Cut Pink Roses with a Free Glass Vase	1	0	1	Expedited	Ramesh Kaushik	2641 HEATHROW DR			LAWRENCEVILLE	GA	30043-8168	US			false		
112-2788093-7749041	54966201673498	2020-06-14T04:14:43+00:00	2020-06-13T21:14:43-07:00	2020-06-14T04:42:20+00:00	2020-06-18T06:59:59+00:00	-2	dkhf9s6t9h484yh@marketplace.amazon.com	Samantha	+1 346-307-9643 ext. 49233	ABM010	Arabella Bouquets | Fields of The World Bouquet of Fresh Cut Flowers in a Free Designer Glass Vase	1	0	1	Expedited	Justice Timblin	ABSTRACT & TITLE COMPANY	410 HAWTHORN DR		WEST BEND	WI	53095-4628	US		Thank you for painting our rooms! From Calvin, Charlito, and Bubba	false		
112-9023475-1868208	10094751505682	2020-06-14T04:25:07+00:00	2020-06-13T21:25:07-07:00	2020-06-14T04:54:51+00:00	2020-06-18T06:59:59+00:00	-2	t9wwzb0zkr7v5vl@marketplace.amazon.com	Karla M Salazar	+1 210-728-4548 ext. 08833	ABR0022	Arabella Farm Direct Bouquet of 12 Fresh Cut Pink Roses with a Free Glass Vase	1	0	1	Expedited	Hortencia Salazar	2141 106TH AVE			OAKLAND	CA	94603-4001	US			false		
111-2766398-9914657	66225436239114	2020-06-14T04:41:00+00:00	2020-06-13T21:41:00-07:00	2020-06-14T05:04:24+00:00	2020-06-18T06:59:59+00:00	-2	gfnyhzbqknddtgc@marketplace.amazon.com	larry low	+1 314-282-9402 ext. 97418	ABR0055	Arabella Farm Direct Bouquet of 12 Stems of Fresh Cut Hot Pink Roses in a Free Designer Glass Vase	1	0	1	Expedited	Shirley Low	1960 SAINT GEORGE RD			DANVILLE	CA	94526-6238	US		Happy Birthday Shirley!  Love, Larry & family	false		
113-5431151-6336222	19897242572818	2020-06-14T04:46:01+00:00	2020-06-13T21:46:01-07:00	2020-06-14T05:09:28+00:00	2020-06-18T06:59:59+00:00	-2	w853q4rz488m1xx@marketplace.amazon.com	Dal Mung	+1 314-282-9402 ext. 15643	ABR0033	Arabella Farm Direct Bouquet of 12 Fresh Cut Orange Roses with a Free Glass Vase	1	0	1	Expedited	Pen Bawih	8038 MEADOW LN			INDIANAPOLIS	IN	46227-6216	US			false		
114-8356606-2197855	40868338742322	2020-06-14T05:07:59+00:00	2020-06-13T22:07:59-07:00	2020-06-14T05:36:18+00:00	2020-06-18T06:59:59+00:00	-2	1cps1dfgyx1yrjs@marketplace.amazon.com	Carmela	+1 314-282-9402 ext. 11188	ABM010	Arabella Bouquets | Fields of The World Bouquet of Fresh Cut Flowers in a Free Designer Glass Vase	1	0	1	Expedited	Jim Johnson	1005 MEADOW VIEW CIR			RICHARDSON	TX	75080-2932	US		Happy Fathers Day to one of the best Dads Ever!!!!!! We love you... thought you would like flowers :) From All the Vegas kids	false		
112-2985658-6077044	45479541294770	2020-06-14T05:44:37+00:00	2020-06-13T22:44:37-07:00	2020-06-14T06:14:34+00:00	2020-06-18T06:59:59+00:00	-2	bvwt5z86t8mhrph@marketplace.amazon.com	Jordan Breeding	+1 210-728-4548 ext. 26367	ABR0055	Arabella Farm Direct Bouquet of 12 Stems of Fresh Cut Hot Pink Roses in a Free Designer Glass Vase	1	0	1	Expedited	Rebecca C Thornton	6469 CR 314			Jewett	TX	75846	US			false		
114-2969639-1527413	67178706886634	2020-06-14T07:38:52+00:00	2020-06-14T00:38:52-07:00	2020-06-14T08:04:45+00:00	2020-06-18T06:59:59+00:00	-2	pnqdqgjfjmf96qt@marketplace.amazon.com	Mommy	+1 346-307-9643 ext. 51372	ABR0022	Arabella Farm Direct Bouquet of 12 Fresh Cut Pink Roses with a Free Glass Vase	1	0	1	Expedited	Diane Africk	287 AUDUBON ST			NEW ORLEANS	LA	70118-4841	US		Happy Birthday!! Enjoy your day! <3 From Love, Tiffany, Mehdi, Kaden, and Laith	false		
114-7872310-5101010	45263641553762	2020-06-14T07:41:47+00:00	2020-06-14T00:41:47-07:00	2020-06-14T08:10:46+00:00	2020-06-18T06:59:59+00:00	-2	pnqdqgjfjmf96qt@marketplace.amazon.com	Mommy	+1 314-282-9402 ext. 36908	ABR0022	Arabella Farm Direct Bouquet of 12 Fresh Cut Pink Roses with a Free Glass Vase	1	0	1	Expedited	Mary Sue Katz	1881 LIONS RIDGE LOOP APT 14			VAIL	CO	81657-4942	US		Happy Birthday!! Enjoy your day! Love you! <3 From Tiffany, Mehdi, Kaden, and Laith	false		
112-6273992-0411415	30400590849346	2020-06-14T08:54:06+00:00	2020-06-14T01:54:06-07:00	2020-06-14T09:19:25+00:00	2020-06-18T06:59:59+00:00	-2	72s7q6r633wvv4z@marketplace.amazon.com	Shabbir (Sohel) Merchant	+1 346-307-9643 ext. 31653	ABR0022	Arabella Farm Direct Bouquet of 12 Fresh Cut Pink Roses with a Free Glass Vase	1	0	1	Expedited	Heather Utzig	2626 ISAIAH DR			MURFREESBORO	TN	37130-1470	US			false		
113-3661686-5902667	33106538516978	2020-06-14T09:19:33+00:00	2020-06-14T02:19:33-07:00	2020-06-14T09:49:58+00:00	2020-06-18T06:59:59+00:00	-2	8fq4bj1ktrpwlds@marketplace.amazon.com	Katherine Gazer	+1 346-307-9643 ext. 39716	ABM010	Arabella Bouquets | Fields of The World Bouquet of Fresh Cut Flowers in a Free Designer Glass Vase	1	0	1	Expedited	Katherine gazer	2843 N 77TH CT			ELMWOOD PARK	IL	60707-1309	US			false		
114-4118792-2246636	45012483804042	2020-06-14T10:59:04+00:00	2020-06-14T03:59:04-07:00	2020-06-14T11:27:48+00:00	2020-06-18T06:59:59+00:00	-2	9cgn44vzkfr9x24@marketplace.amazon.com	Karen	+1 346-307-9643 ext. 72210	ABR0055	Arabella Farm Direct Bouquet of 12 Stems of Fresh Cut Hot Pink Roses in a Free Designer Glass Vase	1	0	1	Expedited	Alec Belton	1608 W CITATION LN			CHANDLER	AZ	85224-2230	US		Happy Birthday Taylor With love  From Karen and Mike Xx	false		
111-7907111-0604269	36978354267322	2020-06-14T12:22:53+00:00	2020-06-14T05:22:53-07:00	2020-06-14T12:51:41+00:00	2020-06-18T06:59:59+00:00	-2	gp0bx0y8pmrqy7x@marketplace.amazon.com	Ankur	+1 346-307-9643 ext. 79452	ABR0022	Arabella Farm Direct Bouquet of 12 Fresh Cut Pink Roses with a Free Glass Vase	1	0	1	Expedited	Eliza Hoang	1919 W DEEREFIELD RD			SANTA ANA	CA	92704-7139	US		Thank you Eliza for coming into my life, for all the love, happiness, smiles you gave me. You are a true gift & I hope you know how special you are to me 😊❤❤  Lots of Love !!! From Ankur	false		
113-7540194-9434668	34135861683682	2020-06-14T15:08:31+00:00	2020-06-14T08:08:31-07:00	2020-06-14T15:33:02+00:00	2020-06-18T06:59:59+00:00	-2	1r82r5mt00ggqdr@marketplace.amazon.com	Mary	+1 346-307-9643 ext. 98827	ABR0022	Arabella Farm Direct Bouquet of 12 Fresh Cut Pink Roses with a Free Glass Vase	1	0	1	Standard	Samuel Ladin	5710 LAKESIDE DR APT 727			MARGATE	FL	33063-1406	US			false		
112-2995001-1910641	31838197799378	2020-06-14T15:42:07+00:00	2020-06-14T08:42:07-07:00	2020-06-14T16:10:04+00:00	2020-06-18T06:59:59+00:00	-2	hs4b02p3d97l0y8@marketplace.amazon.com	Denise Brothers	+1 210-728-4548 ext. 16729	ABR0022	Arabella Farm Direct Bouquet of 12 Fresh Cut Pink Roses with a Free Glass Vase	1	0	1	Expedited	Lorraine Kirsten	300 LAKE AVE NE UNIT 331			LARGO	FL	33771-1694	US		Happy Birthday GiGi! Hope this brightens your day!  Love you and miss you! From Dave, Denise, Izzy and Owen	false		
111-3366143-6745853	52184541504938	2020-06-14T15:50:09+00:00	2020-06-14T08:50:09-07:00	2020-06-14T16:11:05+00:00	2020-06-18T06:59:59+00:00	-2	py069nx3pc0f9p7@marketplace.amazon.com	Robert Radostits	+1 346-307-9643 ext. 42771	ABM010	Arabella Bouquets | Fields of The World Bouquet of Fresh Cut Flowers in a Free Designer Glass Vase	1	0	1	Expedited	Kathy Pietras	8064 W ROSEBURY DR			FRANKFORT	IL	60423-2405	US		Dear Kathy, Give your recovery therapy the time it needs, and you'll be up and about soon. Love to you, Bob and Eddie	false		
114-4803806-9583430	55485587287970	2020-06-14T15:53:12+00:00	2020-06-14T08:53:12-07:00	2020-06-14T16:22:50+00:00	2020-06-18T06:59:59+00:00	-2	7rbk71c11zyrygs@marketplace.amazon.com	Janette Schreider	+1 210-728-4548 ext. 83715	ABM010	Arabella Bouquets | Fields of The World Bouquet of Fresh Cut Flowers in a Free Designer Glass Vase	1	0	1	Expedited	Mary Nell Winner	11711 MEMORIAL DR # 125			HOUSTON	TX	77024-7208	US		Happy Birthday! Love Rudy and Janette From Janette Schreider	false		
114-5328909-0200225	52148474577746	2020-06-14T15:57:05+00:00	2020-06-14T08:57:05-07:00	2020-06-14T16:26:33+00:00	2020-06-17T06:59:59+00:00	-1	spyhp20vx32njnn@marketplace.amazon.com	John	+1 314-282-9402 ext. 95376	ABR014	Purchase Now for Delivery by Tuesday | Arabella Bouquets 18 Stems of Fresh Cut White Roses in a Free Designer Glass Vase	1	0	1	Expedited	john sikora	704 COUNTY ROAD 1302			ASHLAND	OH	44805-9783	US			false		
112-2022032-2546607	41234688790298	2020-06-14T16:43:32+00:00	2020-06-14T09:43:32-07:00	2020-06-14T17:10:06+00:00	2020-06-17T06:59:59+00:00	-1	tzbpzj5snx0jhfz@marketplace.amazon.com	Neil Lubin	+1 314-282-9402 ext. 28348	ABR001	Arabella Bouquets 12 Stems of Fresh Cut Red Roses in a Free Designer Glass Vase	1	0	1	Expedited	Lynn Robinson Leary	6 SUNSET DR			DANBURY	CT	06811-3132	US		I love you my darling.   Neil	false		
113-6031743-1502634	30255107957602	2020-06-14T17:19:32+00:00	2020-06-14T10:19:32-07:00	2020-06-14T17:20:29+00:00	2020-06-18T06:59:59+00:00	-2	d5zpxlkkhyb91ff@marketplace.amazon.com	valerie reilly	+1 210-728-4548 ext. 24069	ABR0055	Arabella Farm Direct Bouquet of 12 Stems of Fresh Cut Hot Pink Roses in a Free Designer Glass Vase	1	0	1	Expedited	Joanne Backs	18441 N 87TH AVE APT 262			PEORIA	AZ	85382-8857	US		Hi Joanne, Thinking of you.. Remember I LOVE YOU !!!!!  Love David	false		
111-3001660-2460252	65198491748282	2020-06-14T17:08:26+00:00	2020-06-14T10:08:26-07:00	2020-06-14T17:38:38+00:00	2020-06-18T06:59:59+00:00	-2	5sd8x0kxzlcr2rc@marketplace.amazon.com	Jean M. Schrull	+1 210-728-4548 ext. 96049	ABR0055	Arabella Farm Direct Bouquet of 12 Stems of Fresh Cut Hot Pink Roses in a Free Designer Glass Vase	1	0	1	Expedited	Carol Brandes	5595 NW 27TH PL			OCALA	FL	34482-8748	US			false		
114-8781371-3608248	34612872248866	2020-06-14T17:30:41+00:00	2020-06-14T10:30:41-07:00	2020-06-14T18:01:12+00:00	2020-06-17T06:59:59+00:00	-1	1fvsgd4fsk3l4y8@marketplace.amazon.com	Kathryn	+1 210-728-4548 ext. 26142	ABR001	Arabella Bouquets 12 Stems of Fresh Cut Red Roses in a Free Designer Glass Vase	1	0	1	Expedited	Grandpa Randall slaboch	1746 DOWNING CT			NAPERVILLE	IL	60563-2021	US			false		
114-2399322-8053006	35754680413722	2020-06-14T17:30:40+00:00	2020-06-14T10:30:40-07:00	2020-06-14T18:04:33+00:00	2020-06-17T06:59:59+00:00	-1	9mp25nj8zdbf82g@marketplace.amazon.com	Hanna	+1 210-728-4548 ext. 78264	ABR014	Purchase Now for Delivery by Tuesday | Arabella Bouquets 18 Stems of Fresh Cut White Roses in a Free Designer Glass Vase	1	0	1	Expedited	Mike Raffaniello	50 W 15TH ST APT 3B			NEW YORK	NY	10011-6872	US			false		
113-3256613-4791454	10328461805026	2020-06-14T17:45:14+00:00	2020-06-14T10:45:14-07:00	2020-06-14T18:14:11+00:00	2020-06-18T06:59:59+00:00	-2	yvhr7s7yq04jzv0@marketplace.amazon.com	Jamie	+1 314-282-9402 ext. 01758	ABR0055	Arabella Farm Direct Bouquet of 12 Stems of Fresh Cut Hot Pink Roses in a Free Designer Glass Vase	1	0	1	Expedited	Jamie C Scala	213 Kickham Ln			Augusta	GA	30813	US		Happy Anniversary Hebebety	false		
112-8801424-1555465	10687288487962	2020-06-14T17:52:36+00:00	2020-06-14T10:52:36-07:00	2020-06-14T18:21:25+00:00	2020-06-18T06:59:59+00:00	-2	7lbhm9hzzwvnvvj@marketplace.amazon.com	Gary E Fahr	+1 346-307-9643 ext. 58212	ABR0022	Arabella Farm Direct Bouquet of 12 Fresh Cut Pink Roses with a Free Glass Vase	1	0	1	Expedited	Elizabeth Murray	19369 US Hwy 19N	2-211		Clearwater	FL	33764	US			false		
113-0783328-3089811	10570644133162	2020-06-14T18:01:56+00:00	2020-06-14T11:01:56-07:00	2020-06-14T18:24:12+00:00	2020-06-18T06:59:59+00:00	-2	c4qzwk1qnnlsp5c@marketplace.amazon.com	Sherri Dobson	+1 346-307-9643 ext. 94441	ABM010	Arabella Bouquets | Fields of The World Bouquet of Fresh Cut Flowers in a Free Designer Glass Vase	1	0	1	Expedited	Ms. Pamela Reed	455 SADDLEBROOK RD			AUSTIN	AR	72007-8893	US			false		
114-8594164-7159456	22673959445698	2020-06-14T17:58:34+00:00	2020-06-14T10:58:34-07:00	2020-06-14T18:24:18+00:00	2020-06-18T06:59:59+00:00	-2	7hv7gmx022mnvsz@marketplace.amazon.com	Megan  Norton	+1 210-728-4548 ext. 33226	ABR015	Arabella Farm Direct Bouquet of 18 Fresh Cut Orange Roses with a Free Glass Vase	1	0	1	Expedited	CAIT MCDONNELL	3758 SISSETON LN			MOUNT PLEASANT	SC	29466-8397	US		We love you and wish we could be there!!! Feel good Cait! F Cancer... Love Michael and Meg.... From Megan  Norton	false		
111-8892963-0995440	03898739031882	2020-06-14T18:31:16+00:00	2020-06-14T11:31:16-07:00	2020-06-14T18:56:11+00:00	2020-06-18T06:59:59+00:00	-2	rhm3ls441bm7wdc@marketplace.amazon.com	Lauren Shack	+1 314-282-9402 ext. 79003	ABR004	Arabella Farm Direct Bouquet of 12 Fresh Cut Yellow Roses with a Free Glass Vase	1	0	1	Expedited	Lauren Preifer and Ross Heller	96 LOUVAIN ST			FAIRFIELD	CT	06825-1354	US		Congratulations on your new home!!! We hope you have many Years of happiness and make lasting memories there! Can’t wait to visit! Xox From Lauren, Adam,Ryan,P,Sky,&Erica	false		
111-3043307-0759436	57204224669570	2020-06-14T18:30:13+00:00	2020-06-14T11:30:13-07:00	2020-06-14T19:00:54+00:00	2020-06-18T06:59:59+00:00	-2	rmhx7lmmn08h9cy@marketplace.amazon.com	Kay Rockwell	+1 314-282-9402 ext. 93654	ABR0055	Arabella Farm Direct Bouquet of 12 Stems of Fresh Cut Hot Pink Roses in a Free Designer Glass Vase	1	0	1	Expedited	Kay Rockwell	252 Berthoud Way			Golden	COLORADO	80401	US			false		
111-9196336-8504248	31879585789618	2020-06-14T18:31:26+00:00	2020-06-14T11:31:26-07:00	2020-06-14T19:01:55+00:00	2020-06-17T06:59:59+00:00	-1	rmhx7lmmn08h9cy@marketplace.amazon.com	Kay Rockwell	+1 346-307-9643 ext. 81664	ABR001	Arabella Bouquets 12 Stems of Fresh Cut Red Roses in a Free Designer Glass Vase	1	0	1	Expedited	Pat Newton/ Tyler Newton	5240 GOLF CLUB RD			HOWELL	MI	48843-8024	US			false		
114-1296704-7985846	55723815070994	2020-06-14T19:15:31+00:00	2020-06-14T12:15:31-07:00	2020-06-14T19:42:58+00:00	2020-06-18T06:59:59+00:00	-2	p95l9knkx7pksjv@marketplace.amazon.com	cw tyler	6778 330 8702	ABR0055	Arabella Farm Direct Bouquet of 12 Stems of Fresh Cut Hot Pink Roses in a Free Designer Glass Vase	1	0	1	Expedited	M L Tyler	25 ASHMEAD PL N			PHILADELPHIA	PA	19144-2916	US		To; Our Daughter “We love you more“ Me Me From Mom& DAd	false		
113-3616598-0673063	21850478056434	2020-06-14T19:16:03+00:00	2020-06-14T12:16:03-07:00	2020-06-14T19:46:09+00:00	2020-06-18T06:59:59+00:00	-2	9k32xqp5z328v9r@marketplace.amazon.com	John Littleford	+1 210-728-4548 ext. 52030	ABR0055	Arabella Farm Direct Bouquet of 12 Stems of Fresh Cut Hot Pink Roses in a Free Designer Glass Vase	1	0	1	Expedited	Martha Miller	202 W ROSEMARY LN			FALLS CHURCH	VA	22046-3842	US			false		
114-6471711-0463429	14198564041210	2020-06-14T19:16:37+00:00	2020-06-14T12:16:37-07:00	2020-06-14T19:54:11+00:00	2020-06-18T06:59:59+00:00	-2	1mq1mxwhlzlqztq@marketplace.amazon.com	Stephanie Dewante	+1 210-728-4548 ext. 64813	ABR004	Arabella Farm Direct Bouquet of 12 Fresh Cut Yellow Roses with a Free Glass Vase	1	0	1	Expedited	Aimee Dewante	847 N OAKLEY BLVD APT 1F			CHICAGO	IL	60622-4737	US			false		
113-4579355-7692238	05576664830010	2020-06-14T19:30:50+00:00	2020-06-14T12:30:50-07:00	2020-06-14T19:55:54+00:00	2020-06-18T06:59:59+00:00	-2	x783gx4rtjxf5r7@marketplace.amazon.com	Rebecca S. Logan-Johnson	+1 210-728-4548 ext. 31360	ABR0022	Arabella Farm Direct Bouquet of 12 Fresh Cut Pink Roses with a Free Glass Vase	1	0	1	Expedited	Emily Logan	5606 WAHOO CT			WALDORF	MD	20603-4753	US		Congratulations on your graduation! From Rebecca S. Logan-Johnson	false		
112-9046011-0139431	66084869520378	2020-06-14T20:06:04+00:00	2020-06-14T13:06:04-07:00	2020-06-14T20:29:17+00:00	2020-06-18T06:59:59+00:00	-2	hqyk389947rht7l@marketplace.amazon.com	Norman Wallace	+1 210-728-4548 ext. 34984	ABR0022	Arabella Farm Direct Bouquet of 12 Fresh Cut Pink Roses with a Free Glass Vase	1	0	1	Expedited	Madeline Oase	66 BAILEY CIR			SOUTH WINDSOR	CT	06074-1040	US		Enjoy your gift! From Norman Wallace	false		
114-9873466-9446625	59256844751522	2020-06-14T20:37:13+00:00	2020-06-14T13:37:13-07:00	2020-06-14T20:54:11+00:00	2020-06-18T06:59:59+00:00	-2	8bf798p69qpgkgb@marketplace.amazon.com	Kim	+1 346-307-9643 ext. 81738	ABR0022	Arabella Farm Direct Bouquet of 12 Fresh Cut Pink Roses with a Free Glass Vase	1	0	1	Expedited	Anecia Brown	10 WYTHE ST			HINESVILLE	GA	31313-8358	US		Happy Birthday babe, remember you deserve only the best! From Kimberly	false		
111-9467769-1865835	22556121307482	2020-06-14T20:46:27+00:00	2020-06-14T13:46:27-07:00	2020-06-14T21:13:09+00:00	2020-06-18T06:59:59+00:00	-2	vlgzpq3gpscqwlf@marketplace.amazon.com	Melissa Campuzano	+1 210-728-4548 ext. 30977	ABM010	Arabella Bouquets | Fields of The World Bouquet of Fresh Cut Flowers in a Free Designer Glass Vase	1	0	1	Expedited	Rosa Campuzano	532 AURORA DR			EL CENTRO	CA	92243-4406	US		Mami, Happy Birthday  From Melissa Campuzano	false		
112-7108758-1687450	42682319116562	2020-06-14T20:51:21+00:00	2020-06-14T13:51:21-07:00	2020-06-14T21:18:18+00:00	2020-06-18T06:59:59+00:00	-2	x3jm2c7bg91k2kb@marketplace.amazon.com	Supriya Abraham	+1 346-307-9643 ext. 20462	ABR0022	Arabella Farm Direct Bouquet of 12 Fresh Cut Pink Roses with a Free Glass Vase	1	0	1	Expedited	SARAMMA JACOB	2807 N BLUE MEADOW CIR			SUGAR LAND	TX	77479-1530	US		TO LILLY AUNTY HAPPY BIRTHDAY!  FROM MARYKUTTY, KUNJUJU, SUPRIYA, SHINO, AND FAMILY.	false		
112-3317934-0431416	28677761685098	2020-06-14T21:25:24+00:00	2020-06-14T14:25:24-07:00	2020-06-14T21:55:35+00:00	2020-06-18T06:59:59+00:00	-2	s1stb0ckf5r96zm@marketplace.amazon.com	Danny Edgar	07454767413	ABM010	Arabella Bouquets | Fields of The World Bouquet of Fresh Cut Flowers in a Free Designer Glass Vase	1	0	1	Expedited	Jenyfer Mora	4924 D ST			CHINO	CA	91710-4025	US			false		
111-3920927-2385836	23764453397746	2020-06-14T21:38:59+00:00	2020-06-14T14:38:59-07:00	2020-06-14T22:07:16+00:00	2020-06-17T06:59:59+00:00	-1	bf1gl36x9bqs65t@marketplace.amazon.com	Igrafo kennedy	+1 210-728-4548 ext. 81564	ABR001	Arabella Bouquets 12 Stems of Fresh Cut Red Roses in a Free Designer Glass Vase	1	0	1	Expedited	Deborah Callahan	281 MOUNT VERNON DR			CALHOUN	GA	30701-1719	US		Get well soon my lovely wife,  You are the queen of my heart From Richard	false		
111-0786598-8110603	49313439330794	2020-06-14T22:16:36+00:00	2020-06-14T15:16:36-07:00	2020-06-14T22:46:30+00:00	2020-06-18T06:59:59+00:00	-2	qtvncgk2nsrld2y@marketplace.amazon.com	Alexandra Morton	+1 346-307-9643 ext. 96907	ABR0022	Arabella Farm Direct Bouquet of 12 Fresh Cut Pink Roses with a Free Glass Vase	1	0	1	Expedited	Charlie & Jodi Neal	2313 PARKSIDE DR			BOWIE	MD	20721-4229	US		Get well soon Jodi!! From Alexandra Morton	false		
111-1012931-1153824	63920703807122	2020-06-14T22:33:47+00:00	2020-06-14T15:33:47-07:00	2020-06-14T23:01:24+00:00	2020-06-18T06:59:59+00:00	-2	nqsmylhgnfjycjt@marketplace.amazon.com	Patrick McCarthy	+1 346-307-9643 ext. 94990	ABM010	Arabella Bouquets | Fields of The World Bouquet of Fresh Cut Flowers in a Free Designer Glass Vase	1	0	1	Expedited	Kristina Marco	246 NORTH ST			BOSTON	MA	02113-2133	US			false		
114-5828699-1153006	33951629974946	2020-06-14T22:41:20+00:00	2020-06-14T15:41:20-07:00	2020-06-14T23:08:36+00:00	2020-06-18T06:59:59+00:00	-2	tywd466ps47w5fb@marketplace.amazon.com	Judy sizemore	+1 210-728-4548 ext. 63871	ABR0022	Arabella Farm Direct Bouquet of 12 Fresh Cut Pink Roses with a Free Glass Vase	1	0	1	Expedited	Tammy Jones	1206 ASPEN PINES DR			NEWPORT	KY	41071-0404	US		Enjoy your gift! Happy Birthday  Tammy  Love you From Judy sizemore	false		
114-6464201-6122637	68282451702210	2020-06-14T23:10:36+00:00	2020-06-14T16:10:36-07:00	2020-06-14T23:33:05+00:00	2020-06-18T06:59:59+00:00	-2	j46n17c2d61hb8q@marketplace.amazon.com	M J Hastings	+1 346-307-9643 ext. 72714	ABR004	Arabella Farm Direct Bouquet of 12 Fresh Cut Yellow Roses with a Free Glass Vase	1	0	1	Standard	Ashley Chinn	MHC CARRIERS 2700 S 88TH ST			KANSAS CITY	KS	66111-1739	US		Thanks for helping us thank the elders. From Mary Hastings	false		
111-3857438-4477830	66290880105874	2020-06-15T00:21:50+00:00	2020-06-14T17:21:50-07:00	2020-06-15T00:51:54+00:00	2020-06-17T06:59:59+00:00	-1	z29zbzvc1b1npbk@marketplace.amazon.com	Jane Feeney	+1 210-728-4548 ext. 84153	ABR0066	Purchase Now for Delivery by Tuesday | Arabella Bouquets 18 Stems of Fresh Cut White Roses in a Free Designer Glass Vase	1	0	1	Expedited	Jane Feeney	1350 N LAKE SHORE DR APT 1417			CHICAGO	IL	60610-5145	US			false		
112-4743145-3105807	51334119475874	2020-06-15T00:33:24+00:00	2020-06-14T17:33:24-07:00	2020-06-15T01:02:26+00:00	2020-06-18T06:59:59+00:00	-2	y01zpjbb9zwngmw@marketplace.amazon.com	Brittani Garcia	+1 346-307-9643 ext. 66385	ABM010	Arabella Bouquets | Fields of The World Bouquet of Fresh Cut Flowers in a Free Designer Glass Vase	1	0	1	Expedited	Debbie Hill	107 ALMERIA PL			WINTERS	CA	95694-2000	US			false		
112-5434796-4808236	34577373842386	2020-06-15T00:44:45+00:00	2020-06-14T17:44:45-07:00	2020-06-15T01:13:21+00:00	2020-06-18T06:59:59+00:00	-2	qlwvl4r44qjr095@marketplace.amazon.com	Brendan Conture	+1 346-307-9643 ext. 73545	ABR0022	Arabella Farm Direct Bouquet of 12 Fresh Cut Pink Roses with a Free Glass Vase	1	0	1	Expedited	Jill Ketchum	371 HAW CREEK MEWS DR			ASHEVILLE	NC	28805-1976	US			false		
113-2509353-0090667	12401993316762	2020-06-15T01:36:36+00:00	2020-06-14T18:36:36-07:00	2020-06-15T02:06:02+00:00	2020-06-17T06:59:59+00:00	-1	cnz9kgdkhkxwdz2@marketplace.amazon.com	Cheri Gresovic	+1 210-728-4548 ext. 59835	ABR0066	Purchase Now for Delivery by Tuesday | Arabella Bouquets 18 Stems of Fresh Cut White Roses in a Free Designer Glass Vase	1	0	1	Expedited	Meloy family	334 WESTBOURNE ST			LA JOLLA	CA	92037-5345	US			false		
112-6914678-9988253	09282915382474	2020-06-15T02:05:07+00:00	2020-06-14T19:05:07-07:00	2020-06-15T02:34:55+00:00	2020-06-18T06:59:59+00:00	-2	n1r9h500kfm2t0j@marketplace.amazon.com	Debbie Meyers	+1 314-282-9402 ext. 96772	ABR0055	Arabella Farm Direct Bouquet of 12 Stems of Fresh Cut Hot Pink Roses in a Free Designer Glass Vase	1	0	1	Expedited	Barbara Jacobson	EDMONDS LANDING 180 2ND AVE S	RM 292		EDMONDS	WA	98020-3645	US		Happy Birthday, Barbara, have a BEAUTIFUL day!  :-) From Debbie Meyers	false		
114-6458004-7490614	69794898217178	2020-06-15T02:09:24+00:00	2020-06-14T19:09:24-07:00	2020-06-15T02:39:17+00:00	2020-06-18T06:59:59+00:00	-2	9x24slz44skbf2z@marketplace.amazon.com	elisa	+1 346-307-9643 ext. 30586	ABR0022	Arabella Farm Direct Bouquet of 12 Fresh Cut Pink Roses with a Free Glass Vase	1	0	1	Expedited	Margret minjarez	3719 E INVERNESS AVE UNIT 106			MESA	AZ	85206-3809	US		Enjoy your gift! From elisa	false		
111-7574809-2942666	49109195121642	2020-06-15T02:42:54+00:00	2020-06-14T19:42:54-07:00	2020-06-15T03:06:48+00:00	2020-06-18T06:59:59+00:00	-2	g7jx1pw180rpthr@marketplace.amazon.com	Brynn Lang	+1 346-307-9643 ext. 01534	ABR004	Arabella Farm Direct Bouquet of 12 Fresh Cut Yellow Roses with a Free Glass Vase	1	0	1	Expedited	Marina Simone	1112 RANCHETTE RD			WEST PALM BEACH	FL	33415-1457	US		Congrats on E3!!   Love, your baby Momma From Brynn Lang	false		
112-1344464-5329017	20601073694946	2020-06-15T02:37:51+00:00	2020-06-14T19:37:51-07:00	2020-06-15T03:07:37+00:00	2020-06-17T06:59:59+00:00	-1	nhs1r59nbhshlc3@marketplace.amazon.com	Alex Fazio	+1 314-282-9402 ext. 43620	ABR014	Purchase Now for Delivery by Tuesday | Arabella Bouquets 18 Stems of Fresh Cut White Roses in a Free Designer Glass Vase	1	0	1	Expedited	Natalie Navarro	5231 SQUAW CREEK RD			CASPER	WY	82604-4258	US			false		
111-6553369-8029061	40229230861650	2020-06-15T02:57:34+00:00	2020-06-14T19:57:34-07:00	2020-06-15T03:19:02+00:00	2020-06-18T06:59:59+00:00	-2	g7jx1pw180rpthr@marketplace.amazon.com	Brynn Lang	+1 346-307-9643 ext. 90995	ABR0033	Arabella Farm Direct Bouquet of 12 Fresh Cut Orange Roses with a Free Glass Vase	1	0	1	Expedited	Jordan LeVeck	1787 HOLLOWBROOK DR			HOLT	MI	48842-8690	US		Congrats on Elite 2 and Platinum Black 3  Thank you for trusting in me and Huge congrats! So proud of you!!  Love, Brynn From Brynn Lang	false		
111-8697940-5917014	22518354887562	2020-06-15T03:06:18+00:00	2020-06-14T20:06:18-07:00	2020-06-15T03:32:09+00:00	2020-06-18T06:59:59+00:00	-2	g7jx1pw180rpthr@marketplace.amazon.com	Brynn Lang	+1 346-307-9643 ext. 81345	ABR0055	Arabella Farm Direct Bouquet of 12 Stems of Fresh Cut Hot Pink Roses in a Free Designer Glass Vase	1	0	1	Expedited	Karrie Augustine	3341 NESCO RD			HAMMONTON	NJ	08037-3701	US		Congrats on Elite 1!  Thank you for trusting in me and huge congrats! I'm so proud of you!  Love, Brynn From Brynn Lang	false		
112-2081317-9329869	53600810234138	2020-06-15T04:13:57+00:00	2020-06-14T21:13:57-07:00	2020-06-15T04:42:49+00:00	2020-06-18T06:59:59+00:00	-2	4ctldy5str6kddc@marketplace.amazon.com	Tushar Shah	+1 346-307-9643 ext. 03600	ABR0022	Arabella Farm Direct Bouquet of 12 Fresh Cut Pink Roses with a Free Glass Vase	1	0	1	Expedited	Tushar Shah	1652 HOPE DR APT 1336			Santa Clara	California	95054	US			false		
112-5957357-2367418	07718147123090	2020-06-15T04:42:26+00:00	2020-06-14T21:42:26-07:00	2020-06-15T05:12:00+00:00	2020-06-18T06:59:59+00:00	-2	yyb8yf27f51rdfz@marketplace.amazon.com	Cindy Walton	+1 314-282-9402 ext. 15908	ABM010	Arabella Bouquets | Fields of The World Bouquet of Fresh Cut Flowers in a Free Designer Glass Vase	1	0	1	Expedited	Shirley Hart	5601 CANYONSIDE RD			LA CRESCENTA	CA	91214-1502	US		Happy Birthday Aunty Shirley! From Amber Harrison	false		
111-5852649-6165063	48145324043010	2020-06-15T05:40:27+00:00	2020-06-14T22:40:27-07:00	2020-06-15T06:09:10+00:00	2020-06-18T06:59:59+00:00	-2	jfd12rvhfc56bhl@marketplace.amazon.com	Steve Strutton	+1 210-728-4548 ext. 23635	ABR0022	Arabella Farm Direct Bouquet of 12 Fresh Cut Pink Roses with a Free Glass Vase	1	0	1	Expedited	Nancy Medlock	1880 WHITE CLOUD LN LOT 13			PRESCOTT	AZ	86305-6220	US		Hi Mom, Happy birthday! From Steve and Julie	false		
111-6958374-3730668	16754900863770	2020-06-15T06:44:00+00:00	2020-06-14T23:44:00-07:00	2020-06-15T07:08:21+00:00	2020-06-18T06:59:59+00:00	-2	12mxpspywl1xxb7@marketplace.amazon.com	THERESA O'DONNELL	+1 346-307-9643 ext. 84958	ABR0022	Arabella Farm Direct Bouquet of 12 Fresh Cut Pink Roses with a Free Glass Vase	1	0	1	Expedited	Mrs. Jacqueline Palmer	6449 IMPERIAL DR			YUCCA VALLEY	CA	92284-2252	US		Happy 40th Birthday to the most incredible Auntie Wacky 3 little girls could ever ask for and to the bestest, most loyal friend I could ever hope for. We love you so darn much! Hope we can see you sooooon!! Xoxo From The Ray Fam	false		
112-1197509-2347451	09869193814362	2020-06-15T06:53:00+00:00	2020-06-14T23:53:00-07:00	2020-06-15T07:14:59+00:00	2020-06-17T06:59:59+00:00	-1	nrf50y8qnmbtj7z@marketplace.amazon.com	Ryan	+1 314-282-9402 ext. 43197	ABR001	Arabella Bouquets 12 Stems of Fresh Cut Red Roses in a Free Designer Glass Vase	1	0	1	Expedited	Abigail Pacheco	22 HUNT ST			SEEKONK	MA	02771-6115	US		I love you with all my heart baby I will do my best to love you for the beautiful woman you are every special day we spend together. I love you forever you are my wife my munchkin my princess I love you. I hope you have a great day princess	false		
111-6118441-0405817	34963618503666	2020-06-15T07:25:38+00:00	2020-06-15T00:25:38-07:00	2020-06-15T07:56:36+00:00	2020-06-19T06:59:59+00:00	-3	40jp8rnh5h4lmk5@marketplace.amazon.com	Katherine A. Salinas	+1 346-307-9643 ext. 68975	ABR0022	Arabella Farm Direct Bouquet of 12 Fresh Cut Pink Roses with a Free Glass Vase	1	0	1	Expedited	Laura Hourigan	5608 THOMAS SQUARE DR			WINTER GARDEN	FL	34787-5088	US		Hope you have a lovely and stress-free birthday!! Sending lots of love, Katherine From Katherine A. Salinas	false		
113-0544080-7991449	62054745022946	2020-06-15T08:30:06+00:00	2020-06-15T01:30:06-07:00	2020-06-15T09:01:36+00:00	2020-06-19T06:59:59+00:00	-3	17578rn3sm9jbv0@marketplace.amazon.com	Callie	+1 314-282-9402 ext. 13038	ABR0022	Arabella Farm Direct Bouquet of 12 Fresh Cut Pink Roses with a Free Glass Vase	1	0	1	Expedited	Callie Iberger	64 RIDGEWAY AVE			SETAUKET	NY	11733-1440	US			false		
114-4575331-1891459	31037839320290	2020-06-15T13:41:42+00:00	2020-06-15T06:41:42-07:00	2020-06-15T14:08:59+00:00	2020-06-19T06:59:59+00:00	-3	gsl6pkcrpdgjq1p@marketplace.amazon.com	Edith Albert	+1 346-307-9643 ext. 16922	ABM010	Arabella Bouquets | Fields of The World Bouquet of Fresh Cut Flowers in a Free Designer Glass Vase	1	0	1	Expedited	Heather Albert	6100 EMMETT GUARDS CT			FAIRFAX STATION	VA	22039-1302	US		Hi Heather & Tom HAPPY ANNIVERSARY!!! Enjoy your gift! From W&E - M&D	false		
113-4686432-9255405	65079528107298	2020-06-15T00:24:49+00:00	2020-06-14T17:24:49-07:00	2020-06-15T14:19:35+00:00	2020-06-18T06:59:59+00:00	-2	w2jd63nmsrw937j@marketplace.amazon.com	Baltej kaur	+1 210-728-4548 ext. 13336	ABR001	Arabella Bouquets 12 Stems of Fresh Cut Red Roses in a Free Designer Glass Vase	1	0	1	Expedited	Raveena Singh	3692 MOUNTAIN VIEW RD			TURLOCK	CA	95382-9767	US			false		
114-9069313-0279425	14116331524682	2020-06-15T13:57:10+00:00	2020-06-15T06:57:10-07:00	2020-06-15T14:24:29+00:00	2020-06-18T06:59:59+00:00	-2	1g69w3c67n4bm8h@marketplace.amazon.com	Mary McGrath	+1 314-282-9402 ext. 79804	ABR0066	Purchase Now for Delivery by Tuesday | Arabella Bouquets 18 Stems of Fresh Cut White Roses in a Free Designer Glass Vase	1	0	1	Expedited	Sheila and Larry Altaker	812 CONODOGUINET DR			CAMP HILL	PA	17011-1610	US			false		
113-0674018-3568217	12011192086858	2020-06-15T14:44:48+00:00	2020-06-15T07:44:48-07:00	2020-06-15T14:54:00+00:00	2020-06-18T06:59:59+00:00	-2	8zz1hgxjz7ws5xq@marketplace.amazon.com	henry james carter jr	+1 346-307-9643 ext. 77081	ABR001	Arabella Bouquets 12 Stems of Fresh Cut Red Roses in a Free Designer Glass Vase	1	0	1	Expedited	Gerald Rivera Del Prado	7523 ALLMAN DR APT 104			ANNANDALE	VA	22003-5281	US		Hola Guapo ,           Hope all is well , take the time you need to heal. Get well soon. Thinking of you , Miss you. Hope to See you soon! Love James From Henry James Carter Jr	false		
111-3608749-9682630	09854480185178	2020-06-15T14:35:42+00:00	2020-06-15T07:35:42-07:00	2020-06-15T15:03:19+00:00	2020-06-18T06:59:59+00:00	-2	qmzdn8z7jm8gss7@marketplace.amazon.com	Mike Meyers	+1 346-307-9643 ext. 23407	ABR001	Arabella Bouquets 12 Stems of Fresh Cut Red Roses in a Free Designer Glass Vase	1	0	1	Expedited	Mary Froehlich	75 SHOREHAM DR E			DIX HILLS	NY	11746-6534	US		Dear Mary   Roses are red violets are blue  I love you too.  Enjoy your flowers From Love Mike	true		Business Price
114-2017350-0850659	50157690840722	2020-06-15T14:45:55+00:00	2020-06-15T07:45:55-07:00	2020-06-15T15:14:57+00:00	2020-06-19T06:59:59+00:00	-3	h24y8079lq2jsgc@marketplace.amazon.com	ben ovard	+1 210-728-4548 ext. 14472	ABR0022	Arabella Farm Direct Bouquet of 12 Fresh Cut Pink Roses with a Free Glass Vase	1	0	1	Expedited	doug and marilyn ovard	11149 S 2125 E			SANDY	UTAH	84092-5220	US			false		
113-0484963-2253830	39018766324842	2020-06-15T14:54:25+00:00	2020-06-15T07:54:25-07:00	2020-06-15T15:21:20+00:00	2020-06-18T06:59:59+00:00	-2	t6b8j68qgk2w9b1@marketplace.amazon.com	Victor	+1 346-307-9643 ext. 43410	ABR001	Arabella Bouquets 12 Stems of Fresh Cut Red Roses in a Free Designer Glass Vase	1	0	1	Expedited	Hilda	1240 MORRISON AVE APT 5J			BRONX	NY	10472-2727	US			false		
113-0024750-1206607	67824251278466	2020-06-15T15:16:41+00:00	2020-06-15T08:16:41-07:00	2020-06-15T15:31:33+00:00	2020-06-19T06:59:59+00:00	-3	ghzzh0lr20yzf88@marketplace.amazon.com	Michael Meshoyrer	+1 346-307-9643 ext. 72883	ABR013	Arabella Farm Direct Bouquet of 18 Fresh Cut Yellow Roses with a Free Glass Vase	1	0	1	Standard	Alison Ehrlich	85 LIVINGSTON ST APT 10N			BROOKLYN	NY	11201-5019	US		Alison,  Happy Birthday! Enjoy your gift!  Wishing you all the best,  From Samuel's Parents	false		
112-4159199-5049837	33349167020402	2020-06-15T15:07:45+00:00	2020-06-15T08:07:45-07:00	2020-06-15T15:36:24+00:00	2020-06-19T06:59:59+00:00	-3	9c186dy7lbckm8n@marketplace.amazon.com	michelle	+1 314-282-9402 ext. 87286	ABR0022	Arabella Farm Direct Bouquet of 12 Fresh Cut Pink Roses with a Free Glass Vase	1	0	1	Expedited	Vennie Marble	2918 BUICE LN			GAINESVILLE	GA	30504-5808	US		Hey Mom we hope these flowers brighten your day! We looooove you xoxo xoxo!!! From Michelle & RaShod	false		
112-1789338-7337065	41600997191642	2020-06-15T15:26:30+00:00	2020-06-15T08:26:30-07:00	2020-06-15T15:55:48+00:00	2020-06-18T06:59:59+00:00	-2	wf5prkntrh4zysc@marketplace.amazon.com	Nicole Weaver	+1 346-307-9643 ext. 24568	ABR0066	Purchase Now for Delivery by Tuesday | Arabella Bouquets 18 Stems of Fresh Cut White Roses in a Free Designer Glass Vase	1	0	1	Expedited	Nicole Weaver	780 1ST RD S			VAUGHN	MT	59487-9519	US			false		
114-2640948-0233808	21962309382570	2020-06-15T16:38:40+00:00	2020-06-15T09:38:40-07:00	2020-06-15T16:52:58+00:00	2020-06-19T06:59:59+00:00	-3	gkw6vlx2txm1t9r@marketplace.amazon.com	Francis Cahill	+1 314-282-9402 ext. 00107	ABR0022	Arabella Farm Direct Bouquet of 12 Fresh Cut Pink Roses with a Free Glass Vase	1	0	1	Expedited	Susan Plachino	47 W CANADIAN WOODS RD			MANALAPAN	NJ	07726-2748	US			false		
112-8820969-5038631	38848093054890	2020-06-15T16:46:22+00:00	2020-06-15T09:46:22-07:00	2020-06-15T17:12:37+00:00	2020-06-19T06:59:59+00:00	-3	h7mp15wy9xxn4sq@marketplace.amazon.com	Jeanne Foy	+1 210-728-4548 ext. 54620	ABR012	Arabella Farm Direct Bouquet of 18 Fresh Cut Pink Roses with a Free Glass Vase	1	0	1	Expedited	Annamaria Whalen	600 PINE HOLLOW RD APT 4-2B			EAST NORWICH	NY	11732-1022	US		Annamaria, Happy Birthday!  Have a wonderful day!  We love you!  Xoxo From Love, Jeanne, Christina, Lisa & Lisa	false		
114-1164173-1880268	12262368386386	2020-06-15T16:51:50+00:00	2020-06-15T09:51:50-07:00	2020-06-15T17:21:21+00:00	2020-06-18T06:59:59+00:00	-2	9sqcvp3wf6c1d1r@marketplace.amazon.com	julie dock	+1 346-307-9643 ext. 40036	ABR0066	Purchase Now for Delivery by Tuesday | Arabella Bouquets 18 Stems of Fresh Cut White Roses in a Free Designer Glass Vase	1	0	1	Expedited	Mom Gordon	7332 LINDENMERE DR			BLOOMFIELD HILLS	MI	48301-3531	US			false		
113-6738157-6268235	38471608225418	2020-06-15T17:17:29+00:00	2020-06-15T10:17:29-07:00	2020-06-15T17:47:02+00:00	2020-06-18T06:59:59+00:00	-2	5kt1160m21bmwz6@marketplace.amazon.com	Cynthia Hayes	+1 314-282-9402 ext. 59120	ABR0066	Purchase Now for Delivery by Tuesday | Arabella Bouquets 18 Stems of Fresh Cut White Roses in a Free Designer Glass Vase	1	0	1	Expedited	JoAnn Thompson	1185 S WILSON AVE			KANKAKEE	IL	60901-4676	US			false		
114-7743607-5494660	18537577675410	2020-06-15T17:52:35+00:00	2020-06-15T10:52:35-07:00	2020-06-15T18:22:36+00:00	2020-06-18T06:59:59+00:00	-2	gj789cyfwtfxlqd@marketplace.amazon.com	Edward T. Maguire	+1 346-307-9643 ext. 63990	ABR001	Arabella Bouquets 12 Stems of Fresh Cut Red Roses in a Free Designer Glass Vase	1	0	1	Expedited	elizabeth clifford	6 BRIARWOOD CIR			BRIDGEWATER	MA	02324-4001	US			false		
113-0098767-9230650	05774500694250	2020-06-15T17:52:58+00:00	2020-06-15T10:52:58-07:00	2020-06-15T18:22:57+00:00	2020-06-19T06:59:59+00:00	-3	b5rygxhlt3vn347@marketplace.amazon.com	joannapalazzo	+1 346-307-9643 ext. 64500	ABR0022	Arabella Farm Direct Bouquet of 12 Fresh Cut Pink Roses with a Free Glass Vase	1	0	1	Expedited	Jasmine Palazzo	3244 PARK BRANCH AVE			CLERMONT	FL	34711-6244	US			false		
111-9514196-7811468	04763756489738	2020-06-15T18:00:28+00:00	2020-06-15T11:00:28-07:00	2020-06-15T18:29:23+00:00	2020-06-19T06:59:59+00:00	-3	rt9sfhl5xcn96np@marketplace.amazon.com	Jameson Grabert	+1 210-728-4548 ext. 06297	ABR0055	Arabella Farm Direct Bouquet of 12 Stems of Fresh Cut Hot Pink Roses in a Free Designer Glass Vase	1	0	1	Expedited	Jameson Grabert	5304 LEVANA ST			PALMETTO	FL	34221-2581	US			false		
111-9652805-1882621	05591269748394	2020-06-15T18:13:12+00:00	2020-06-15T11:13:12-07:00	2020-06-15T18:38:44+00:00	2020-06-17T06:59:59+00:00	-1	yfbr7yxtwh43vhd@marketplace.amazon.com	Rae Lowry	+1 314-282-9402 ext. 22207	ABR0022	Arabella Farm Direct Bouquet of 12 Fresh Cut Pink Roses with a Free Glass Vase	1	0	1	SecondDay	Patricia A. Porter	2946 BEAVER BROOK CT			PASADENA	MD	21122-6332	US			false		
114-1294146-7250655	65493996679370	2020-06-15T18:26:18+00:00	2020-06-15T11:26:18-07:00	2020-06-15T18:49:53+00:00	2020-06-17T06:59:59+00:00	-1	ldkmkcf19sppvt1@marketplace.amazon.com	Carolyn H Kirby	+1 346-307-9643 ext. 07230	ABM0044	Purchase Now for Delivery by Wednesday | Arabella Farm Direct Bouquet of Fresh Cut Blue Hydrangea with a Free Glass Vase	1	0	1	SecondDay	Sherrie Sigmon	3549 1ST AVE NW CIRCLR NW			HICKORY	NC	28601-5503	US		We love you & your family!!!!! From Elaine & Steve	false		
111-5320251-1501819	26843617819698	2020-06-15T18:35:43+00:00	2020-06-15T11:35:43-07:00	2020-06-15T18:53:11+00:00	2020-06-17T06:59:59+00:00	-1	7f1pfhlf081jfpj@marketplace.amazon.com	Lynette Stroud	+1 346-307-9643 ext. 76414	ABM010	Arabella Bouquets | Fields of The World Bouquet of Fresh Cut Flowers in a Free Designer Glass Vase	1	0	1	SecondDay	Jennifer Paccapaniccia	101 HEDGE ROSE CT			TRAVELERS REST	SC	29690-7001	US		I thought you might need this. From Lale and Andy Stroud	false		
111-2811101-3714606	06660001842442	2020-06-15T18:32:58+00:00	2020-06-15T11:32:58-07:00	2020-06-15T18:58:05+00:00	2020-06-17T06:59:59+00:00	-1	b1q4mx6h0p30hpr@marketplace.amazon.com	Li Wen	+1 314-282-9402 ext. 59221	ABR0055	Arabella Farm Direct Bouquet of 12 Stems of Fresh Cut Hot Pink Roses in a Free Designer Glass Vase	1	0	1	SecondDay	Ms. Jun Hong Deng	3815 RUBY FALLS DR.			DULUTH	GA	30098	US		We hope you get well soon! From Robert & Li Wen From Robert & Li Wen	false		
111-6475954-5848203	19167795706938	2020-06-15T18:28:52+00:00	2020-06-15T11:28:52-07:00	2020-06-15T18:59:09+00:00	2020-06-17T06:59:59+00:00	-1	vqrzr8hnynvhmmd@marketplace.amazon.com	John Fabilli	+1 346-307-9643 ext. 63528	ABR0022	Arabella Farm Direct Bouquet of 12 Fresh Cut Pink Roses with a Free Glass Vase	1	0	1	SecondDay	John V. Fabilli	5830 262ND ST			LITTLE NECK	NY	11362-2515	US			false		
114-0974092-5857008	08134512183466	2020-06-15T18:33:37+00:00	2020-06-15T11:33:37-07:00	2020-06-15T19:02:45+00:00	2020-06-17T06:59:59+00:00	-1	lyypg8twljfk926@marketplace.amazon.com	Katherine McBride	+1 314-282-9402 ext. 82626	ABR0022	Arabella Farm Direct Bouquet of 12 Fresh Cut Pink Roses with a Free Glass Vase	1	0	1	SecondDay	Dr. Biggie	14839 COMO CIR			LAKEWOOD RANCH	FL	34202-2716	US			false		
111-8266654-1323425	44397571834258	2020-06-15T18:55:47+00:00	2020-06-15T11:55:47-07:00	2020-06-15T19:19:11+00:00	2020-06-19T06:59:59+00:00	-3	893xcdyvknfzjhh@marketplace.amazon.com	bruce m brandel	+1 210-728-4548 ext. 55979	ABM010	Arabella Bouquets | Fields of The World Bouquet of Fresh Cut Flowers in a Free Designer Glass Vase	1	0	1	Standard	sandra karenas	18119 W BIG OAKS RD			GRAYSLAKE	IL	60030-2019	US		My love is constant It is you  From bruce m brandel	false		
114-9160068-8569838	32281939245594	2020-06-15T19:14:32+00:00	2020-06-15T12:14:32-07:00	2020-06-15T19:35:37+00:00	2020-06-17T06:59:59+00:00	-1	4prswdl91ccz82x@marketplace.amazon.com	Joseph Rieth	+1 346-307-9643 ext. 20218	ABR012	Arabella Farm Direct Bouquet of 18 Fresh Cut Pink Roses with a Free Glass Vase	1	0	1	SecondDay	Karron Hohe and Family	4905 DIXIE DR			SAN DIEGO	CA	92109-2012	US		Dear Karron and Family, With deepest sympathy and love in this difficult time. We knew and admired Rose for more than 30 years and always enjoyed the many times we were able to share her company Always, Pete and Christa	false		
114-2271494-9516206	08823992117386	2020-06-15T19:27:53+00:00	2020-06-15T12:27:53-07:00	2020-06-15T19:49:22+00:00	2020-06-17T06:59:59+00:00	-1	1jwqqh4vx6pl1gm@marketplace.amazon.com	Regina Beirne	+1 210-728-4548 ext. 41532	ABM002	Arabella Bouquets Fresh Cut White Calla Lilies in a Free Designer Glass Vase	1	0	1	SecondDay	The VirI Family	16 FRANKLIN ST UNIT 2			CHARLESTOWN	MA	02129-3005	US		Hi new little family! We are beyond thrilled that you are all home safe and sound and beginning this new adventure! Love,  Aunt Gina And Uncle Ray	false		
112-9444982-9669000	41605181276546	2020-06-15T19:22:29+00:00	2020-06-15T12:22:29-07:00	2020-06-15T19:49:58+00:00	2020-06-17T06:59:59+00:00	-1	4yl0d55bm06m9q1@marketplace.amazon.com	kim dickinson	+1 346-307-9643 ext. 64433	ABR0033	Arabella Farm Direct Bouquet of 12 Fresh Cut Orange Roses with a Free Glass Vase	1	0	1	SecondDay	SUE ANDREWS	3829 N RANDOLPH CT			ARLINGTON	VA	22207-4577	US		HAPPY BELATED BIRTHDAY! From kim dickinson	false		
113-7114862-6106643	40714641690626	2020-06-15T19:38:43+00:00	2020-06-15T12:38:43-07:00	2020-06-15T20:06:34+00:00	2020-06-17T06:59:59+00:00	-1	fz68qv9m6tncfz9@marketplace.amazon.com	tom sisco	+1 346-307-9643 ext. 77485	ABR0022	Arabella Farm Direct Bouquet of 12 Fresh Cut Pink Roses with a Free Glass Vase	1	0	1	SecondDay	Shanti James	8805 HORTON HWY			COLLEGE GROVE	TN	37046-9280	US			false		
111-7431178-4769849	02825542055922	2020-06-15T19:58:45+00:00	2020-06-15T12:58:45-07:00	2020-06-15T20:28:16+00:00	2020-06-17T06:59:59+00:00	-1	yp00xfyg65yzvwr@marketplace.amazon.com	Mara Yamshon	+1 314-282-9402 ext. 76867	ABR004	Arabella Farm Direct Bouquet of 12 Fresh Cut Yellow Roses with a Free Glass Vase	1	0	1	SecondDay	Byer	791 peaceful way			Moffat	Co	81143	US		I appreciate your hospitality and your authenticity.  So glad to have met you. And excited for our new friendship.  Mara From Mara Yamshon	false		
112-0208805-0352259	30512441646954	2020-06-15T20:04:44+00:00	2020-06-15T13:04:44-07:00	2020-06-15T20:34:50+00:00	2020-06-17T06:59:59+00:00	-1	2s1mf3jm33r3013@marketplace.amazon.com	Stella B	+1 314-282-9402 ext. 44857	ABR0033	Arabella Farm Direct Bouquet of 12 Fresh Cut Orange Roses with a Free Glass Vase	1	0	1	SecondDay	Offik Samuel	151 E VERDUGO AVE APT 812			BURBANK	CA	91502-1939	US			false		
114-2594692-2345812	52211342293650	2020-06-15T20:07:41+00:00	2020-06-15T13:07:41-07:00	2020-06-15T20:38:09+00:00	2020-06-17T06:59:59+00:00	-1	bhxzk7fssdxjb3y@marketplace.amazon.com	g curtis busk jr	+1 210-728-4548 ext. 06135	ABM010	Arabella Bouquets | Fields of The World Bouquet of Fresh Cut Flowers in a Free Designer Glass Vase	1	0	1	SecondDay	Judy Oldroyd	190 S 100 W			GLENWOOD	UT	84730-7794	US			false		
113-5691545-7229062	53187457030266	2020-06-15T20:14:07+00:00	2020-06-15T13:14:07-07:00	2020-06-15T20:49:12+00:00	2020-06-17T06:59:59+00:00	-1	kz0fkjj47km6t54@marketplace.amazon.com	Joni Kocet	+1 346-307-9643 ext. 05202	ABR0022	Arabella Farm Direct Bouquet of 12 Fresh Cut Pink Roses with a Free Glass Vase	1	0	1	SecondDay	Kathy Kocet	437 SHOPE ST			BELLEFONTE	PA	16823-2249	US		Dear Aunt Kathy ~ Sending you extra love and healing thoughts.  Love, Joni	false		
112-7230038-3672233	13576006527618	2020-06-15T20:24:46+00:00	2020-06-15T13:24:46-07:00	2020-06-15T20:52:57+00:00	2020-06-17T06:59:59+00:00	-1	xzby3zyxy8jdplm@marketplace.amazon.com	susan mcnabb	+1 346-307-9643 ext. 44941	ABR0033	Arabella Farm Direct Bouquet of 12 Fresh Cut Orange Roses with a Free Glass Vase	1	0	1	SecondDay	Elaine Young	3211 GARDEN AVE			LOS ANGELES	CA	90039-2314	US		Hi Elaine,  Happy half birthday From the mcnabbs	false		
112-4367123-0184207	39832973864882	2020-06-15T20:33:25+00:00	2020-06-15T13:33:25-07:00	2020-06-15T21:01:53+00:00	2020-06-17T06:59:59+00:00	-1	817rg4jrsg97yzl@marketplace.amazon.com	Siena Vanucci	19090	ABR0022	Arabella Farm Direct Bouquet of 12 Fresh Cut Pink Roses with a Free Glass Vase	1	0	1	SecondDay	Kathy Walters	20 YORK RD FL 3RD			WILLOW GROVE	PA	19090-3417	US		Just because we love you and want you to know how special you are. From Chris, Alyssa and Baby Walters	false		
112-7792335-5817806	12731626574642	2020-06-15T20:57:40+00:00	2020-06-15T13:57:40-07:00	2020-06-15T21:27:16+00:00	2020-06-17T06:59:59+00:00	-1	vg98c562xl0k5ky@marketplace.amazon.com	Joseph Dalton	+1 346-307-9643 ext. 45112	ABM010	Arabella Bouquets | Fields of The World Bouquet of Fresh Cut Flowers in a Free Designer Glass Vase	1	0	1	SecondDay	Michelle Freshley	204 W SAINT MARY BLVD			LAFAYETTE	LA	70506-4636	US			false		
111-3341535-2961820	57960347409690	2020-06-15T21:06:26+00:00	2020-06-15T14:06:26-07:00	2020-06-15T21:34:04+00:00	2020-06-17T06:59:59+00:00	-1	5djzj9l2pmmq9ln@marketplace.amazon.com	Andrea Dressell	+1 210-728-4548 ext. 24105	ABR012	Arabella Farm Direct Bouquet of 18 Fresh Cut Pink Roses with a Free Glass Vase	1	0	1	SecondDay	William and Nancy Currie	530 KIRKWOOD DR			EVANSVILLE	INDIANA	47715-3724	US		Happy Birthday Mom We Love you so much!! From Andrea & Ron Dressell	false		
114-9704558-7269803	45707756123346	2020-06-15T21:20:08+00:00	2020-06-15T14:20:08-07:00	2020-06-15T21:37:34+00:00	2020-06-17T06:59:59+00:00	-1	kh35868ddkn7n0z@marketplace.amazon.com	samuel w hixon	+1 346-307-9643 ext. 12512	ABM0044	Purchase Now for Delivery by Wednesday | Arabella Farm Direct Bouquet of Fresh Cut Blue Hydrangea with a Free Glass Vase	1	0	1	SecondDay	Joan McMenamy	975 BENNETT RD APT 204			ORLANDO	FL	32814-6200	US		Happy Birthday Joan !  Love, Sam and Mary	false		
114-8965682-7417853	43158338322146	2020-06-15T21:24:15+00:00	2020-06-15T14:24:15-07:00	2020-06-15T21:40:40+00:00	2020-06-17T06:59:59+00:00	-1	z5xtdmf6pjjbl0l@marketplace.amazon.com	Cora Haywood	+1 346-307-9643 ext. 73496	ABR0055	Arabella Farm Direct Bouquet of 12 Stems of Fresh Cut Hot Pink Roses in a Free Designer Glass Vase	1	0	1	SecondDay	Nancy Calibjo	1116 DE SOLO DR			PACIFICA	CA	94044-3327	US			false		
114-1956549-3911416	58714533295514	2020-06-15T21:46:33+00:00	2020-06-15T14:46:33-07:00	2020-06-15T22:15:37+00:00	2020-06-17T06:59:59+00:00	-1	m9n8zpkhtmntz8m@marketplace.amazon.com	Ronald W Comitz	+1 210-728-4548 ext. 47130	ABR001	Arabella Bouquets 12 Stems of Fresh Cut Red Roses in a Free Designer Glass Vase	1	0	1	SecondDay	Ronald comitz	2126 RIVERMEADE DR			HIGH POINT	NC	27265-1447	US			false		
111-7532792-0034614	52761778556394	2020-06-15T21:50:39+00:00	2020-06-15T14:50:39-07:00	2020-06-15T22:18:53+00:00	2020-06-17T06:59:59+00:00	-1	qq59k6gxbcq2vc3@marketplace.amazon.com	Ryan B LeGrand	+1 346-307-9643 ext. 49775	ABR0022	Arabella Farm Direct Bouquet of 12 Fresh Cut Pink Roses with a Free Glass Vase	1	0	1	SecondDay	Buck LeGrand	3615 S SCISSORTAIL DR			STILLWATER	OK	74074-7669	US		Happy Birthday  with love Maya and  Santiago	false		
111-4172957-2753805	31549979560466	2020-06-15T22:00:14+00:00	2020-06-15T15:00:14-07:00	2020-06-15T22:25:19+00:00	2020-06-17T06:59:59+00:00	-1	rjy6k1l1xt3xr18@marketplace.amazon.com	maureen  henning	+1 210-728-4548 ext. 85126	ABR012	Arabella Farm Direct Bouquet of 18 Fresh Cut Pink Roses with a Free Glass Vase	1	0	1	SecondDay	Tara M. Henning	1000 S HARBOUR ISLAND BLVD	APT 2106		TAMPA	FL	33602-5717	US		Dear Tara,  Lots of love and "virtual" hugs  HAPPY BIRTHDAY from all of us xoxoxo!!!!	false		
114-3195301-9481000	19770434828194	2020-06-15T22:05:25+00:00	2020-06-15T15:05:25-07:00	2020-06-15T22:31:30+00:00	2020-06-17T06:59:59+00:00	-1	8sjp8dskpwhkwk9@marketplace.amazon.com	Cecelia Espanol	+1 314-282-9402 ext. 38046	ABR0022	Arabella Farm Direct Bouquet of 12 Fresh Cut Pink Roses with a Free Glass Vase	1	0	1	SecondDay	Sherrill Johnsonl	2323 E CACTUS RD			PHOENIX	AZ	85022-5803	US		Hi Sherrill, Happy Birthday!!! Sorry they are late. Love you. Celi, Mike, Mary and Dallas	false		
112-4069243-6731412	02578395005002	2020-06-15T22:14:13+00:00	2020-06-15T15:14:13-07:00	2020-06-15T22:38:08+00:00	2020-06-17T06:59:59+00:00	-1	bc9ttcbycnv1c7z@marketplace.amazon.com	Kay Mirkin	+1 346-307-9643 ext. 34033	ABR0055	Arabella Farm Direct Bouquet of 12 Stems of Fresh Cut Hot Pink Roses in a Free Designer Glass Vase	1	0	1	SecondDay	Sam Mirkin	15635 SPRINGMILL DR			MISHAWAKA	IN	46545-1562	US		Dear Dad, Happy Father's Day to the best dad ever! I love you very much. Hope your day is wonderful! Love, Kathy	false		
113-2017014-3811447	08951992446298	2020-06-15T22:31:24+00:00	2020-06-15T15:31:24-07:00	2020-06-15T23:00:46+00:00	2020-06-17T06:59:59+00:00	-1	97xc399k3tm85h9@marketplace.amazon.com	tappittechnology	+1 346-307-9643 ext. 13306	ABR0022	Arabella Farm Direct Bouquet of 12 Fresh Cut Pink Roses with a Free Glass Vase	1	0	1	SecondDay	Adrienne Capodieci	9693 LAGO DR			BOYNTON BEACH	FL	33472-2777	US			true		Business Price
112-8140626-8663461	44303631879210	2020-06-15T23:02:38+00:00	2020-06-15T16:02:38-07:00	2020-06-15T23:26:03+00:00	2020-06-17T06:59:59+00:00	-1	67mvgrrs5gvcvbp@marketplace.amazon.com	Hoshang Bakhshi	+1 346-307-9643 ext. 09720	ABR0022	Arabella Farm Direct Bouquet of 12 Fresh Cut Pink Roses with a Free Glass Vase	1	0	1	SecondDay	Latif Bakhshi.	13210 RAMPART ST			AUSTIN	TX	78727-3272	US		Congratulations, I wish you both a life of love and happiness From Hoshang Bakhshi	false		
113-0552914-2090654	28271430154290	2020-06-15T23:07:04+00:00	2020-06-15T16:07:04-07:00	2020-06-15T23:30:30+00:00	2020-06-17T06:59:59+00:00	-1	1swdxyfd9b5lz6d@marketplace.amazon.com	Carol Walker	+1 314-282-9402 ext. 50714	ABM0044	Purchase Now for Delivery by Wednesday | Arabella Farm Direct Bouquet of Fresh Cut Blue Hydrangea with a Free Glass Vase	1	0	1	SecondDay	Lee Hamilton	4745 ESTERO BLVD UNIT 10003			FT MYERS BCH	FL	33931-3981	US		Enjoy 😊 From Love  Carol Walker	false		
114-1768207-7140245	44119741945954	2020-06-15T23:07:35+00:00	2020-06-15T16:07:35-07:00	2020-06-15T23:32:37+00:00	2020-06-17T06:59:59+00:00	-1	hl8x9gv2knh70qd@marketplace.amazon.com	Bonnie Czukoski	+1 210-728-4548 ext. 75249	ABR0022	Arabella Farm Direct Bouquet of 12 Fresh Cut Pink Roses with a Free Glass Vase	1	0	1	SecondDay	Lori Lieberman	5 TERI LN			HOPATCONG	NJ	07843-1432	US		Happy Birthday! Lots of good wishes, health and happiness! From Bonnie Czukoski	false		
114-5136493-6221025	33794804167610	2020-06-15T23:37:21+00:00	2020-06-15T16:37:21-07:00	2020-06-16T00:06:22+00:00	2020-06-17T06:59:59+00:00	-1	bc88bvq7zt9ppb9@marketplace.amazon.com	Pierre	+1 314-282-9402 ext. 82581	ABR0055	Arabella Farm Direct Bouquet of 12 Stems of Fresh Cut Hot Pink Roses in a Free Designer Glass Vase	1	0	1	SecondDay	Tawana Stevenson	5635 ROCK QUARRY TER			DISTRICT HEIGHTS	MD	20747-3837	US		These are here to brighten up your day. I may be thousands of miles away, but I know God will bring me home if you just hold on a little while longer. Enjoy your gift! From Pierre	false		
113-9747036-7165858	38177970265794	2020-06-16T00:02:15+00:00	2020-06-15T17:02:15-07:00	2020-06-16T00:23:36+00:00	2020-06-17T06:59:59+00:00	-1	d3gdtb6r4tjn95y@marketplace.amazon.com	Genelle Magler	+1 314-282-9402 ext. 74076	ABR012	Arabella Farm Direct Bouquet of 18 Fresh Cut Pink Roses with a Free Glass Vase	1	0	1	SecondDay	Erica Magler	111 MARQUETTE AVE APT 3101			MINNEAPOLIS	MN	55401-2036	US		Happy Birthday Erica, Enjoy your birthday beautiful. Love you very much XOXOXOX Mom & Carlos	false		
111-5679447-0361862	32459194945098	2020-06-16T00:14:57+00:00	2020-06-15T17:14:57-07:00	2020-06-16T00:37:15+00:00	2020-06-17T06:59:59+00:00	-1	6nmh5d9dh8c0nsj@marketplace.amazon.com	Carl F. Reidway	+1 314-282-9402 ext. 25260	ABM010	Arabella Bouquets | Fields of The World Bouquet of Fresh Cut Flowers in a Free Designer Glass Vase	1	0	1	SecondDay	KAREN HEIDTMAN	PVT 437 KELSEY PARK DR			PALM BEACH GARDENS	FL	33410-4513	US		Hi KAREN, Wishing you a very Happy Birthday.. Wish we could celebrate together....maybe soon!!! Love you Patti and Carl	false		
112-9825141-3138626	68079337255314	2020-06-16T00:10:37+00:00	2020-06-15T17:10:37-07:00	2020-06-16T00:41:19+00:00	2020-06-17T06:59:59+00:00	-1	qwgx9c93jx2fw3t@marketplace.amazon.com	Henry Cole	+1 314-282-9402 ext. 20158	ABR001	Arabella Bouquets 12 Stems of Fresh Cut Red Roses in a Free Designer Glass Vase	1	0	1	SecondDay	Henry Cole	36587 DAUBEN CT			LAKE ELSINORE	CA	92532-3039	US			false		
113-0835728-5403427	37953928687322	2020-06-16T00:20:52+00:00	2020-06-15T17:20:52-07:00	2020-06-16T00:50:14+00:00	2020-06-17T06:59:59+00:00	-1	lssnvsdfvjd9hql@marketplace.amazon.com	mark okeefe	+1 314-282-9402 ext. 93024	ABM0044	Purchase Now for Delivery by Wednesday | Arabella Farm Direct Bouquet of Fresh Cut Blue Hydrangea with a Free Glass Vase	1	0	1	SecondDay	Lynn OKeefe	12274 Oakview Way			San Diego	CA	92128	US		Happy 26th Anniversary  Love  Mark From mark okeefe	false		
114-9167478-2385839	04511689056346	2020-06-16T00:40:41+00:00	2020-06-15T17:40:41-07:00	2020-06-16T01:11:08+00:00	2020-06-17T06:59:59+00:00	-1	qzq6nv9qrtknb9q@marketplace.amazon.com	Suzy McQuaid	+1 314-282-9402 ext. 31502	ABR0022	Arabella Farm Direct Bouquet of 12 Fresh Cut Pink Roses with a Free Glass Vase	1	0	1	SecondDay	Suzy McQuaid	10485 NE 6TH ST APT 2825			BELLEVUE	WA	98004-6891	US			false		
113-2530775-3410641	23513071548698	2020-06-16T01:05:57+00:00	2020-06-15T18:05:57-07:00	2020-06-16T01:27:40+00:00	2020-06-18T06:59:59+00:00	-2	8j11pmxbycy7rvl@marketplace.amazon.com	mauricio	+1 346-307-9643 ext. 16043	ABR001	Arabella Bouquets 12 Stems of Fresh Cut Red Roses in a Free Designer Glass Vase	1	0	1	Standard	Tatiana Castro	4507 NW 74TH AVE			CORAL SPRINGS	FL	33065-2054	US		Feliz vuelta al sol From Sinergia	false		
111-6934118-1760234	01124828804994	2020-06-16T01:17:07+00:00	2020-06-15T18:17:07-07:00	2020-06-16T01:43:43+00:00	2020-06-17T06:59:59+00:00	-1	c8qfz4sq3f19h38@marketplace.amazon.com	indira hewlett	+1 346-307-9643 ext. 28032	ABM010	Arabella Bouquets | Fields of The World Bouquet of Fresh Cut Flowers in a Free Designer Glass Vase	1	0	1	SecondDay	Rosalind Young, Lillian and Daniel Hewlett	1490 BITTERN DR			SUNNYVALE	CA	94087-3211	US		Dear Rosie, Lilly and Daniel, Enjoy much love, happiness and joy as a family on Father’s Day !  We love you Mom and Dad From Indira and Lee	false		
112-1652097-8041041	14689627810450	2020-06-16T01:26:09+00:00	2020-06-15T18:26:09-07:00	2020-06-16T01:46:34+00:00	2020-06-17T06:59:59+00:00	-1	kfh25l92dznhwlm@marketplace.amazon.com	Lisa Chastain	+1 210-728-4548 ext. 41008	ABR0022	Arabella Farm Direct Bouquet of 12 Fresh Cut Pink Roses with a Free Glass Vase	1	0	1	SecondDay	Sheryl Stitts	8404 WARREN PKWY APT 234			FRISCO	TX	75034-7078	US		Happy Birthday special bestie!!!! ❤️ From Lisa Chastain	false		
111-3948634-2377067	62006531429066	2020-06-16T00:55:54+00:00	2020-06-15T17:55:54-07:00	2020-06-16T01:48:16+00:00	2020-06-17T06:59:59+00:00	-1	wvz79xnn9vz12n9@marketplace.amazon.com	katherine michelle runge	+1 314-282-9402 ext. 02681	ABM010	Arabella Bouquets | Fields of The World Bouquet of Fresh Cut Flowers in a Free Designer Glass Vase	1	0	1	SecondDay	tom runge	7209 GILES PL			SPRINGFIELD	VA	22150-3708	US		Happy Father's Day Dad!  I love you SO MUCH.  Don't worry, I didn't spend any money on this (I got a gift card from a parent).  I hope these flowers look beautiful!	false		
112-1417919-0406629	34223517299626	2020-06-16T01:48:09+00:00	2020-06-15T18:48:09-07:00	2020-06-16T02:17:49+00:00	2020-06-17T06:59:59+00:00	-1	5lrdr7653ybbjgh@marketplace.amazon.com	Tammy Sue Rice	+1 346-307-9643 ext. 96295	ABR0022	Arabella Farm Direct Bouquet of 12 Fresh Cut Pink Roses with a Free Glass Vase	1	0	1	SecondDay	Bobbie Winters	300 BRANDYWINE PL			LANSING	MI	48906-1605	US		Hope you feel better soon! From Tammy Sue Rice	false		
114-0428578-2397012	40260115876522	2020-06-16T02:28:08+00:00	2020-06-15T19:28:08-07:00	2020-06-16T02:30:05+00:00	2020-06-17T06:59:59+00:00	-1	9zwsxl4bfw0p5fv@marketplace.amazon.com	Lisa	+1 314-282-9402 ext. 82286	ABR0033	Arabella Farm Direct Bouquet of 12 Fresh Cut Orange Roses with a Free Glass Vase	1	0	1	SecondDay	Maria Palitto Lima	3957 30TH ST UNIT 322			SAN DIEGO	CA	92104-3080	US		Maria,  I'm very sorry for your loss. I am here for you, whatever you may need! Hugs and love sweet friend!  Thinking of You,  Lisa Husted From Lisa	false		
113-9608629-0821807	01441765146434	2020-06-16T02:48:41+00:00	2020-06-15T19:48:41-07:00	2020-06-16T03:16:17+00:00	2020-06-17T06:59:59+00:00	-1	r2h2b8w50gfp90c@marketplace.amazon.com	Lucy Holley	+1 314-282-9402 ext. 06554	ABR0055	Arabella Farm Direct Bouquet of 12 Stems of Fresh Cut Hot Pink Roses in a Free Designer Glass Vase	1	0	1	SecondDay	Murray Levitan	8100 CONNECTICUT AVE APT 406			CHEVY CHASE	MD	20815-2813	US		To Dad, HAPPY FATHER'S DAY! Love, Lucy and Chris	false		
114-4103236-7188266	51182657750026	2020-06-16T03:18:43+00:00	2020-06-15T20:18:43-07:00	2020-06-16T03:48:40+00:00	2020-06-17T06:59:59+00:00	-1	vvb1t6t4ym8b665@marketplace.amazon.com	margaret r martin	+1 346-307-9643 ext. 02339	ABR0022	Arabella Farm Direct Bouquet of 12 Fresh Cut Pink Roses with a Free Glass Vase	1	0	1	SecondDay	Michelle Cardinal	3105 S 1ST ST APT 304			AUSTIN	TX	78704-6360	US			false		
114-7539291-7380244	17970099515146	2020-06-16T03:37:24+00:00	2020-06-15T20:37:24-07:00	2020-06-16T03:58:33+00:00	2020-06-17T06:59:59+00:00	-1	3r8sxc7vxmnqqk6@marketplace.amazon.com	yngrae@naver.com	+1 314-282-9402 ext. 23141	ABR0022	Arabella Farm Direct Bouquet of 12 Fresh Cut Pink Roses with a Free Glass Vase	1	0	1	SecondDay	William Kim	2750 GALLOWS RD APT 324			VIENNA	VA	22180-7164	US			false		
111-4188799-6958626	02056395036914	2020-06-16T03:47:53+00:00	2020-06-15T20:47:53-07:00	2020-06-16T04:16:20+00:00	2020-06-17T06:59:59+00:00	-1	rgz6vsv591lrtjy@marketplace.amazon.com	Kathy Sheehan	+1 346-307-9643 ext. 10391	ABM010	Arabella Bouquets | Fields of The World Bouquet of Fresh Cut Flowers in a Free Designer Glass Vase	1	0	1	SecondDay	Olivia Juneau	17 HARWICK RD			WAKEFIELD	MA	01880-2007	US		Happy birthday Liv! We love you so much and can’t wait to be roomies<3  Love, Erin and Lizzy From Erin and Lizzy	false		
112-4351831-0144203	21524815941970	2020-06-16T04:11:42+00:00	2020-06-15T21:11:42-07:00	2020-06-16T04:40:41+00:00	2020-06-17T06:59:59+00:00	-1	pvzypsqkpcdb9zr@marketplace.amazon.com	Rebecca Fawcett	+1 314-282-9402 ext. 32073	ABR004	Arabella Farm Direct Bouquet of 12 Fresh Cut Yellow Roses with a Free Glass Vase	1	0	1	SecondDay	Judy Thyer	850 COOSA COUNTY ROAD 116			GOODWATER	AL	35072-3452	US		Happy 80th birthday, Mom! I wish we were celebrating together. Love, Rebecca & Rich From Rebecca Fawcett	false		
111-3723856-3041820	37716745041594	2020-06-16T05:10:39+00:00	2020-06-15T22:10:39-07:00	2020-06-16T05:15:01+00:00	2020-06-17T06:59:59+00:00	-1	1rdspsx7vllh9g8@marketplace.amazon.com	Nate Gedeus	+1 346-307-9643 ext. 78131	ABR0022	Arabella Farm Direct Bouquet of 12 Fresh Cut Pink Roses with a Free Glass Vase	1	0	1	SecondDay	Shydae Garrett	701 S COMMERCE ST AULANDER			AULANDER	NC	27805-9568	US		I really miss you and you really have been on my mind . I’m not feeling to well right now I’m sick . But I been taking some medicine hopefully it’s nothing too serious . But I love you so much and I hope you good 02/08/19 From Nate Gedeus	false		
112-3427749-4544213	07669826508178	2020-06-16T04:58:12+00:00	2020-06-15T21:58:12-07:00	2020-06-16T05:22:49+00:00	2020-06-17T06:59:59+00:00	-1	2tyj4f2vb630v86@marketplace.amazon.com	Nicole Williams	+1 210-728-4548 ext. 95644	ABM002	Arabella Bouquets Fresh Cut White Calla Lilies in a Free Designer Glass Vase	1	0	1	SecondDay	Michelle De Hoyos	10226 AURORA FLD			SAN ANTONIO	TX	78245-2622	US		Nena:  No tengas miedo. Estoy contigo. Isaiah 41:10 From Mom	false		
114-7757119-2752259	15924039773378	2020-06-16T05:37:31+00:00	2020-06-15T22:37:31-07:00	2020-06-16T06:07:23+00:00	2020-06-17T06:59:59+00:00	-1	1jxpqzbd61txdqm@marketplace.amazon.com	John Piecko	+1 314-282-9402 ext. 83302	ABR015	Arabella Farm Direct Bouquet of 18 Fresh Cut Orange Roses with a Free Glass Vase	1	0	1	SecondDay	John J. Piecko	59 SARA DR			ROBBINSVILLE	NJ	08691-2542	US			false		
113-1279149-3041009	07281527135898	2020-06-16T06:00:08+00:00	2020-06-15T23:00:08-07:00	2020-06-16T06:26:27+00:00	2020-06-17T06:59:59+00:00	-1	wmcls2h5gb9hqs4@marketplace.amazon.com	Sevan	+1 346-307-9643 ext. 25930	ABR0022	Arabella Farm Direct Bouquet of 12 Fresh Cut Pink Roses with a Free Glass Vase	1	0	1	SecondDay	Theresa Robbins	33550 E STATE HIGHWAY 96 LOT 298			PUEBLO	CO	81001-6029	US		My sweet love, Just wanted to say how much I love you and appreciate you in my life and wish you a fast and speedy recovery.  I would be so lost without you in my life. I love you so much hokis. From Sevan	false		
112-6224706-1457000	49523701759018	2020-06-16T06:41:55+00:00	2020-06-15T23:41:55-07:00	2020-06-16T07:12:09+00:00	2020-06-17T06:59:59+00:00	-1	yc2plvg2wdpp4ym@marketplace.amazon.com	Marquice Hamilton	+1 346-307-9643 ext. 57552	ABR0022	Arabella Farm Direct Bouquet of 12 Fresh Cut Pink Roses with a Free Glass Vase	1	0	1	SecondDay	Stephanie Hamilton	187 PR 4060			Lampasas	TX	76550	US			false		
112-9301683-2501054	46304659589498	2020-06-16T07:55:29+00:00	2020-06-16T00:55:29-07:00	2020-06-16T08:25:51+00:00	2020-06-17T06:59:59+00:00	-1	4j5wfy9v2dpczkw@marketplace.amazon.com	Justin Broderick	+1 314-282-9402 ext. 71857	ABR0033	Arabella Farm Direct Bouquet of 12 Fresh Cut Orange Roses with a Free Glass Vase	1	0	1	SecondDay	Megan and Bella Broderick	4602 PREWITT RANCH RD			KILLEEN	TX	76549-1612	US			false		
114-8255658-2496220	05397591299034	2020-06-16T08:28:20+00:00	2020-06-16T01:28:20-07:00	2020-06-16T08:51:51+00:00	2020-06-20T06:59:59+00:00	-4	b66nvn45wl7rqr3@marketplace.amazon.com	Pamela Pecora	+1 314-282-9402 ext. 68044	ABM010	Arabella Bouquets | Fields of The World Bouquet of Fresh Cut Flowers in a Free Designer Glass Vase	1	0	1	Standard	Rosalie Pecora Higgins	9589 CHERRY BLOSSOM TER			BOYNTON BEACH	FL	33437-5441	US		Hi Rosalie, Happy Birthday, May your day be great From Mom, Matty, Pam	false		
