order-id	order-item-id	purchase-date	payments-date	reporting-date	promise-date	days-past-promise	buyer-email	buyer-name	buyer-phone-number	sku	product-name	quantity-purchased	quantity-shipped	quantity-to-ship	ship-service-level	recipient-name	ship-address-1	ship-address-2	ship-address-3	ship-city	ship-state	ship-postal-code	ship-country	gift-wrap-type	gift-message-text	is-business-order	purchase-order-number	price-designation
111-8590987-8229006	03586958350898	2020-06-16T17:50:59+00:00	2020-06-16T10:50:59-07:00	2020-06-16T18:19:33+00:00	2020-06-19T06:59:59+00:00	-3	fkknybcrm5m5w5r@marketplace.amazon.com	marsha Bishop	+1 346-307-9643 ext. 78405	ABM010	Arabella Bouquets | Fields of The World Bouquet of Fresh Cut Flowers in a Free Designer Glass Vase	1	0	1	Expedited	Marsha bishop	6905 IVES LN N			MAPLE GROVE	MN	55369-5414	US		Enjoy your gift! We hope it brightens your day as you do in our lives. ❤💜 From Master Ross and your WTA family	false		
112-8123564-0022662	55855854079074	2020-06-16T17:56:01+00:00	2020-06-16T10:56:01-07:00	2020-06-16T18:26:12+00:00	2020-06-19T06:59:59+00:00	-3	nzkmx8pbt3s5kf2@marketplace.amazon.com	justin lymon	+1 346-307-9643 ext. 36550	ABR0055	Arabella Farm Direct Bouquet of 12 Stems of Fresh Cut Hot Pink Roses in a Free Designer Glass Vase	1	0	1	Expedited	Azaliah Knox-Bell	426 VALLEY HI CIR APT 303			COLORADO SPRINGS	CO	80910-2649	US			false		
111-0048153-9584269	06210174041162	2020-06-16T18:15:31+00:00	2020-06-16T11:15:31-07:00	2020-06-16T18:42:49+00:00	2020-06-19T06:59:59+00:00	-3	dbs67nch9mrcdvt@marketplace.amazon.com	Mindy Giallombardo	+1 346-307-9643 ext. 20232	ABR0022	Arabella Farm Direct Bouquet of 12 Fresh Cut Pink Roses with a Free Glass Vase	1	0	1	Expedited	Marilynn Scott	511E 1950N Rd			Deland	IL	61839	US		Love you!  Enjoy your birthday! From Mindy Giallombardo	false		
113-9824327-8649855	05870677537594	2020-06-16T18:46:07+00:00	2020-06-16T11:46:07-07:00	2020-06-16T19:09:38+00:00	2020-06-19T06:59:59+00:00	-3	gh2mpqvzbdhn848@marketplace.amazon.com	Rosanna fini	+1 346-307-9643 ext. 29636	ABM010	Arabella Bouquets | Fields of The World Bouquet of Fresh Cut Flowers in a Free Designer Glass Vase	1	0	1	Standard	Samantha Fini	26 COLFAX AVE			WANAQUE	NJ	07465-1312	US		Congratulations! From Rosanna & grandpa From Aunt Rosanna & Grandpa.	false		
113-9430513-4597036	14475410317810	2020-06-16T18:57:12+00:00	2020-06-16T11:57:12-07:00	2020-06-16T19:27:37+00:00	2020-06-19T06:59:59+00:00	-3	mb2mjjz15h996jx@marketplace.amazon.com	david sabih	+1 346-307-9643 ext. 49144	ABR014	Purchase Now for Delivery by Tuesday | Arabella Bouquets 18 Stems of Fresh Cut White Roses in a Free Designer Glass Vase	1	0	1	Expedited	elaine sabih	3420 castlewoods place			sherman oaks	ca	91403	US			false		
112-9455386-7369056	33828872730866	2020-06-16T19:22:40+00:00	2020-06-16T12:22:40-07:00	2020-06-16T19:39:55+00:00	2020-06-19T06:59:59+00:00	-3	pmsgtw3yftt82k1@marketplace.amazon.com	Victor O Power	+1 346-307-9643 ext. 26408	ABM010	Arabella Bouquets | Fields of The World Bouquet of Fresh Cut Flowers in a Free Designer Glass Vase	1	0	1	Expedited	Marjie McClellan	1316 3RD AVE N			GREAT FALLS	MT	59401-1440	US			false		
111-8417608-4265054	44240676461130	2020-06-16T19:12:11+00:00	2020-06-16T12:12:11-07:00	2020-06-16T19:40:51+00:00	2020-06-19T06:59:59+00:00	-3	60ccb4tqzx9mt7w@marketplace.amazon.com	Keasteen	+1 346-307-9643 ext. 05274	ABR0022	Arabella Farm Direct Bouquet of 12 Fresh Cut Pink Roses with a Free Glass Vase	1	0	1	Expedited	Najee mcmeans	11572 ALICIAS CT			HAMPTON	GA	30228-4041	US		I love you, I miss you, I can’t enjoy life without you. From Keasteen	false		
111-2078619-4557011	02642157269882	2020-06-16T19:21:31+00:00	2020-06-16T12:21:31-07:00	2020-06-16T19:51:25+00:00	2020-06-19T06:59:59+00:00	-3	dz9c9zjxwstrw54@marketplace.amazon.com	Alison Boutilier	+1 210-728-4548 ext. 93351	ABR0022	Arabella Farm Direct Bouquet of 12 Fresh Cut Pink Roses with a Free Glass Vase	1	0	1	Expedited	Karen Bell	1246 YOLANDA DR			YUBA CITY	CA	95993-8128	US		Happy Birthday KB! I fart you!! From Alison Boutilier	false		
111-0339230-9250620	03938383149610	2020-06-16T19:32:40+00:00	2020-06-16T12:32:40-07:00	2020-06-16T20:02:11+00:00	2020-06-19T06:59:59+00:00	-3	019t6hgd6xyjzgm@marketplace.amazon.com	Jordan James	+1 314-282-9402 ext. 32978	ABR0022	Arabella Farm Direct Bouquet of 12 Fresh Cut Pink Roses with a Free Glass Vase	1	0	1	Expedited	Jordan james	319 MOUNTAIN VIEW AVE			SODA SPRINGS	ID	83276-1247	US			false		
111-1042718-4719423	55438994515874	2020-06-16T19:41:21+00:00	2020-06-16T12:41:21-07:00	2020-06-16T20:07:02+00:00	2020-06-19T06:59:59+00:00	-3	60047zxd4yq8v6d@marketplace.amazon.com	nate	+1 346-307-9643 ext. 38541	ABR0022	Arabella Farm Direct Bouquet of 12 Fresh Cut Pink Roses with a Free Glass Vase	1	0	1	Standard	Hyla Weiskind	8070 BAINBROOK DR			CHAGRIN FALLS	OH	44023-4813	US			true		Business Price
112-2387830-7391429	09959111072282	2020-06-16T20:27:33+00:00	2020-06-16T13:27:33-07:00	2020-06-16T20:57:34+00:00	2020-06-19T06:59:59+00:00	-3	9mx9gt0rwljzy0b@marketplace.amazon.com	Jessica Rey	+1 210-728-4548 ext. 73893	ABR001	Arabella Bouquets 12 Stems of Fresh Cut Red Roses in a Free Designer Glass Vase	1	0	1	Expedited	Jessica Rey	6191 E YANDELL DR			EL PASO	TX	79905-3130	US			false		
112-9995109-0760260	58258632012946	2020-06-16T20:42:58+00:00	2020-06-16T13:42:58-07:00	2020-06-16T21:11:15+00:00	2020-06-19T06:59:59+00:00	-3	2mdyg1028s4s9sv@marketplace.amazon.com	Joaquin Borggio	+1 346-307-9643 ext. 92122	ABR0022	Arabella Farm Direct Bouquet of 12 Fresh Cut Pink Roses with a Free Glass Vase	1	0	1	Expedited	Sophia Dew	1424 OVERLAND DR			SAN MATEO	CA	94403-3717	US		I love you. From Who tf u think	false		
114-3587434-1582633	45187630104330	2020-06-16T20:46:49+00:00	2020-06-16T13:46:49-07:00	2020-06-16T21:11:19+00:00	2020-06-19T06:59:59+00:00	-3	q3ndfmtjxlmfh8f@marketplace.amazon.com	Devereux Starbarrack	+1 346-307-9643 ext. 39151	ABM010	Arabella Bouquets | Fields of The World Bouquet of Fresh Cut Flowers in a Free Designer Glass Vase	1	0	1	Standard	Susan Samora	167 BEACON HILL DR APT A			DOBBS FERRY	NY	10522-2426	US		For 6/30/20  Happy Birthday Mom! I love you! From Teddy	false		
