order-id	order-item-id	purchase-date	payments-date	reporting-date	promise-date	days-past-promise	buyer-email	buyer-name	buyer-phone-number	sku	product-name	quantity-purchased	quantity-shipped	quantity-to-ship	ship-service-level	recipient-name	ship-address-1	ship-address-2	ship-address-3	ship-city	ship-state	ship-postal-code	ship-country	gift-wrap-type	gift-message-text	is-business-order	purchase-order-number	price-designation
111-8590987-8229006	03586958350898	2020-06-16T17:50:59+00:00	2020-06-16T10:50:59-07:00	2020-06-16T18:19:33+00:00	2020-06-19T06:59:59+00:00	-3	fkknybcrm5m5w5r@marketplace.amazon.com	marsha Bishop	+1 346-307-9643 ext. 78405	ABM010	Arabella Bouquets | Fields of The World Bouquet of Fresh Cut Flowers in a Free Designer Glass Vase	1	0	1	Expedited	Marsha bishop	6905 IVES LN N			MAPLE GROVE	MN	55369-5414	US		Enjoy your gift! We hope it brightens your day as you do in our lives. ❤💜 From Master Ross and your WTA family	false		
112-8123564-0022662	55855854079074	2020-06-16T17:56:01+00:00	2020-06-16T10:56:01-07:00	2020-06-16T18:26:12+00:00	2020-06-19T06:59:59+00:00	-3	nzkmx8pbt3s5kf2@marketplace.amazon.com	justin lymon	+1 346-307-9643 ext. 36550	ABR0055	Arabella Farm Direct Bouquet of 12 Stems of Fresh Cut Hot Pink Roses in a Free Designer Glass Vase	1	0	1	Expedited	Azaliah Knox-Bell	426 VALLEY HI CIR APT 303			COLORADO SPRINGS	CO	80910-2649	US			false		
111-0048153-9584269	06210174041162	2020-06-16T18:15:31+00:00	2020-06-16T11:15:31-07:00	2020-06-16T18:42:49+00:00	2020-06-19T06:59:59+00:00	-3	dbs67nch9mrcdvt@marketplace.amazon.com	Mindy Giallombardo	+1 346-307-9643 ext. 20232	ABR0022	Arabella Farm Direct Bouquet of 12 Fresh Cut Pink Roses with a Free Glass Vase	1	0	1	Expedited	Marilynn Scott	511E 1950N Rd			Deland	IL	61839	US		Love you!  Enjoy your birthday! From Mindy Giallombardo	false		
113-9824327-8649855	05870677537594	2020-06-16T18:46:07+00:00	2020-06-16T11:46:07-07:00	2020-06-16T19:09:38+00:00	2020-06-19T06:59:59+00:00	-3	gh2mpqvzbdhn848@marketplace.amazon.com	Rosanna fini	+1 346-307-9643 ext. 29636	ABM010	Arabella Bouquets | Fields of The World Bouquet of Fresh Cut Flowers in a Free Designer Glass Vase	1	0	1	Standard	Samantha Fini	26 COLFAX AVE			WANAQUE	NJ	07465-1312	US		Congratulations! From Rosanna & grandpa From Aunt Rosanna & Grandpa.	false		
113-9430513-4597036	14475410317810	2020-06-16T18:57:12+00:00	2020-06-16T11:57:12-07:00	2020-06-16T19:27:37+00:00	2020-06-19T06:59:59+00:00	-3	mb2mjjz15h996jx@marketplace.amazon.com	david sabih	+1 346-307-9643 ext. 49144	ABR014	Purchase Now for Delivery by Tuesday | Arabella Bouquets 18 Stems of Fresh Cut White Roses in a Free Designer Glass Vase	1	0	1	Expedited	elaine sabih	3420 castlewoods place			sherman oaks	ca	91403	US			false		
112-9455386-7369056	33828872730866	2020-06-16T19:22:40+00:00	2020-06-16T12:22:40-07:00	2020-06-16T19:39:55+00:00	2020-06-19T06:59:59+00:00	-3	pmsgtw3yftt82k1@marketplace.amazon.com	Victor O Power	+1 346-307-9643 ext. 26408	ABM010	Arabella Bouquets | Fields of The World Bouquet of Fresh Cut Flowers in a Free Designer Glass Vase	1	0	1	Expedited	Marjie McClellan	1316 3RD AVE N			GREAT FALLS	MT	59401-1440	US			false		
111-8417608-4265054	44240676461130	2020-06-16T19:12:11+00:00	2020-06-16T12:12:11-07:00	2020-06-16T19:40:51+00:00	2020-06-19T06:59:59+00:00	-3	60ccb4tqzx9mt7w@marketplace.amazon.com	Keasteen	+1 346-307-9643 ext. 05274	ABR0022	Arabella Farm Direct Bouquet of 12 Fresh Cut Pink Roses with a Free Glass Vase	1	0	1	Expedited	Najee mcmeans	11572 ALICIAS CT			HAMPTON	GA	30228-4041	US		I love you, I miss you, I can’t enjoy life without you. From Keasteen	false		
111-2078619-4557011	02642157269882	2020-06-16T19:21:31+00:00	2020-06-16T12:21:31-07:00	2020-06-16T19:51:25+00:00	2020-06-19T06:59:59+00:00	-3	dz9c9zjxwstrw54@marketplace.amazon.com	Alison Boutilier	+1 210-728-4548 ext. 93351	ABR0022	Arabella Farm Direct Bouquet of 12 Fresh Cut Pink Roses with a Free Glass Vase	1	0	1	Expedited	Karen Bell	1246 YOLANDA DR			YUBA CITY	CA	95993-8128	US		Happy Birthday KB! I fart you!! From Alison Boutilier	false		
111-0339230-9250620	03938383149610	2020-06-16T19:32:40+00:00	2020-06-16T12:32:40-07:00	2020-06-16T20:02:11+00:00	2020-06-19T06:59:59+00:00	-3	019t6hgd6xyjzgm@marketplace.amazon.com	Jordan James	+1 314-282-9402 ext. 32978	ABR0022	Arabella Farm Direct Bouquet of 12 Fresh Cut Pink Roses with a Free Glass Vase	1	0	1	Expedited	Jordan james	319 MOUNTAIN VIEW AVE			SODA SPRINGS	ID	83276-1247	US			false		
111-1042718-4719423	55438994515874	2020-06-16T19:41:21+00:00	2020-06-16T12:41:21-07:00	2020-06-16T20:07:02+00:00	2020-06-19T06:59:59+00:00	-3	60047zxd4yq8v6d@marketplace.amazon.com	nate	+1 346-307-9643 ext. 38541	ABR0022	Arabella Farm Direct Bouquet of 12 Fresh Cut Pink Roses with a Free Glass Vase	1	0	1	Standard	Hyla Weiskind	8070 BAINBROOK DR			CHAGRIN FALLS	OH	44023-4813	US			true		Business Price
112-2387830-7391429	09959111072282	2020-06-16T20:27:33+00:00	2020-06-16T13:27:33-07:00	2020-06-16T20:57:34+00:00	2020-06-19T06:59:59+00:00	-3	9mx9gt0rwljzy0b@marketplace.amazon.com	Jessica Rey	+1 210-728-4548 ext. 73893	ABR001	Arabella Bouquets 12 Stems of Fresh Cut Red Roses in a Free Designer Glass Vase	1	0	1	Expedited	Jessica Rey	6191 E YANDELL DR			EL PASO	TX	79905-3130	US			false		
112-9995109-0760260	58258632012946	2020-06-16T20:42:58+00:00	2020-06-16T13:42:58-07:00	2020-06-16T21:11:15+00:00	2020-06-19T06:59:59+00:00	-3	2mdyg1028s4s9sv@marketplace.amazon.com	Joaquin Borggio	+1 346-307-9643 ext. 92122	ABR0022	Arabella Farm Direct Bouquet of 12 Fresh Cut Pink Roses with a Free Glass Vase	1	0	1	Expedited	Sophia Dew	1424 OVERLAND DR			SAN MATEO	CA	94403-3717	US		I love you. From Who tf u think	false		
114-3587434-1582633	45187630104330	2020-06-16T20:46:49+00:00	2020-06-16T13:46:49-07:00	2020-06-16T21:11:19+00:00	2020-06-19T06:59:59+00:00	-3	q3ndfmtjxlmfh8f@marketplace.amazon.com	Devereux Starbarrack	+1 346-307-9643 ext. 39151	ABM010	Arabella Bouquets | Fields of The World Bouquet of Fresh Cut Flowers in a Free Designer Glass Vase	1	0	1	Standard	Susan Samora	167 BEACON HILL DR APT A			DOBBS FERRY	NY	10522-2426	US		For 6/30/20  Happy Birthday Mom! I love you! From Teddy	false		
112-2244249-0062621	51202837706178	2020-06-16T20:49:21+00:00	2020-06-16T13:49:21-07:00	2020-06-16T21:18:46+00:00	2020-06-19T06:59:59+00:00	-3	fplmm6csrl3rb2l@marketplace.amazon.com	Tyler Taets	+1 346-307-9643 ext. 26885	ABR0022	Arabella Farm Direct Bouquet of 12 Fresh Cut Pink Roses with a Free Glass Vase	1	0	1	Expedited	Tyler Taets	1711 S SHORE DR			MOLINE	IL	61265-9727	US		I love you baby girl. I miss you so much darlin. From Tyler Taets	false		
112-2081266-8305856	36114742454890	2020-06-16T20:50:06+00:00	2020-06-16T13:50:06-07:00	2020-06-16T21:18:51+00:00	2020-06-19T06:59:59+00:00	-3	jm8z9zxlfmp29gt@marketplace.amazon.com	mrs.m.jarvis	+1 314-282-9402 ext. 46977	ABR0055	Arabella Farm Direct Bouquet of 12 Stems of Fresh Cut Hot Pink Roses in a Free Designer Glass Vase	1	0	1	Expedited	KEVIN JARVIS	MIAMI BEACH 4555 N JEFFERSON AVE			MIAMI BEACH	FL	33140-2937	US		To Nicole and Kevin LOTS OF HAPPINESS IN YOUR NEW HOME LOVE ALWAYS MOM & DAD M & LES XXX From mrs.m.jarvis	false		
111-9431557-7072237	36332580576394	2020-06-16T21:22:07+00:00	2020-06-16T14:22:07-07:00	2020-06-16T21:50:01+00:00	2020-06-19T06:59:59+00:00	-3	2gcd48ymcdcc62z@marketplace.amazon.com	Mary Lou Snyder	+1 210-728-4548 ext. 25943	ABR0055	Arabella Farm Direct Bouquet of 12 Stems of Fresh Cut Hot Pink Roses in a Free Designer Glass Vase	1	0	1	Expedited	Camryn Snyder	512 215TH CT SE			SAMMAMISH	WA	98074-7078	US		Hi Camryn, Congratulations on your graduation.  Love, Grandpa and Grandma Snyder	false		
112-8396870-9917806	45253922517514	2020-06-16T21:55:05+00:00	2020-06-16T14:55:05-07:00	2020-06-16T22:23:31+00:00	2020-06-19T06:59:59+00:00	-3	t4ysg7y3lvm7jky@marketplace.amazon.com	Chris Massood	+1 346-307-9643 ext. 82718	ABM010	Arabella Bouquets | Fields of The World Bouquet of Fresh Cut Flowers in a Free Designer Glass Vase	1	0	1	Expedited	Lynn Ryerson	1000 WASHINGTON AVE			PORTLAND	ME	04103-2751	US		congratulations Lynn!  Loss for NELC but a win for the VNA From triage team	false		
114-0664694-9413846	14842073493530	2020-06-16T22:11:01+00:00	2020-06-16T15:11:01-07:00	2020-06-16T22:37:39+00:00	2020-06-19T06:59:59+00:00	-3	0tmf381lp3mhdf9@marketplace.amazon.com	Lillian McNeil	+1 346-307-9643 ext. 73737	ABR0066	Purchase Now for Delivery by Tuesday | Arabella Bouquets 18 Stems of Fresh Cut White Roses in a Free Designer Glass Vase	1	0	1	Expedited	Kaara Martinez  McNeil	1331 MARYLAND AVE SW APT 629			WASHINGTON	DC	20024-2849	US			false		
113-6189294-8149847	24242630075642	2020-06-16T22:43:42+00:00	2020-06-16T15:43:42-07:00	2020-06-16T23:08:01+00:00	2020-06-19T06:59:59+00:00	-3	1kcr3zj7cy7tmkx@marketplace.amazon.com	Prishchepenko Galina	+1 346-307-9643 ext. 87437	ABR013	Arabella Farm Direct Bouquet of 18 Fresh Cut Yellow Roses with a Free Glass Vase	1	0	1	Standard	Veselova- Proekt Evgenia	140 MEDFORD ST STE 1			ARLINGTON	MA	02474-3111	US		Dear Zenechka, Happy Birthday!!!  We wish you all the best. Be happy, healthy,and many, many  more. Kiss you. From Prishchepenko Galina & Michael	false		
113-6003129-5892211	39856401553194	2020-06-16T22:47:15+00:00	2020-06-16T15:47:15-07:00	2020-06-16T23:11:58+00:00	2020-06-19T06:59:59+00:00	-3	k4kf1z8phdyqjy9@marketplace.amazon.com	S. Priyadarsini	+1 346-307-9643 ext. 12829	ABR013	Arabella Farm Direct Bouquet of 18 Fresh Cut Yellow Roses with a Free Glass Vase	1	0	1	Expedited	Peggy Westby	C/O JESSIE HED 1006 CLOVER CT			ABERDEEN	SD	57401-6636	US		All the best wishes for a speedy recovery Love Priya and Clay From S. Priyadarsini	false		
114-1165687-5749849	52185046779674	2020-06-16T23:06:00+00:00	2020-06-16T16:06:00-07:00	2020-06-16T23:26:58+00:00	2020-06-19T06:59:59+00:00	-3	b0gkgdrn9n5ggsp@marketplace.amazon.com	Andrew G. Knapp	+1 314-282-9402 ext. 16470	ABR013	Arabella Farm Direct Bouquet of 18 Fresh Cut Yellow Roses with a Free Glass Vase	1	0	1	Expedited	Mrs. Carol Knapp	7450 ROSSMORE CT			DAYTON	OH	45459-4213	US		Yellow roses (and these sure better be YELLOW ROSES!!!) were our mother's favorite flower. With warmest thoughts and love. From George & Andrew G. Knapp	false		
113-1136051-8718601	52445246362698	2020-06-16T23:04:00+00:00	2020-06-16T16:04:00-07:00	2020-06-16T23:27:24+00:00	2020-06-19T06:59:59+00:00	-3	pympfcbh1rz9zxq@marketplace.amazon.com	sean greene	+1 346-307-9643 ext. 78694	ABR004	Arabella Farm Direct Bouquet of 12 Fresh Cut Yellow Roses with a Free Glass Vase	1	0	1	Expedited	Jesse Jenkins	16354 ELLA BLVD APT 4311			HOUSTON	TX	77090-4627	US		Happy Birthday Momma Joe!! I Love You Sean From Sean Greene	false		
