order-id	order-item-id	purchase-date	payments-date	reporting-date	promise-date	days-past-promise	buyer-email	buyer-name	buyer-phone-number	sku	product-name	quantity-purchased	quantity-shipped	quantity-to-ship	ship-service-level	recipient-name	ship-address-1	ship-address-2	ship-address-3	ship-city	ship-state	ship-postal-code	ship-country	gift-wrap-type	gift-message-text	is-business-order	purchase-order-number	price-designation
111-8590987-8229006	03586958350898	2020-06-16T17:50:59+00:00	2020-06-16T10:50:59-07:00	2020-06-16T18:19:33+00:00	2020-06-19T06:59:59+00:00	-2	fkknybcrm5m5w5r@marketplace.amazon.com	marsha Bishop	+1 346-307-9643 ext. 78405	ABM010	Arabella Bouquets | Fields of The World Bouquet of Fresh Cut Flowers in a Free Designer Glass Vase	1	0	1	Expedited	Marsha bishop	6905 IVES LN N			MAPLE GROVE	MN	55369-5414	US		Enjoy your gift! We hope it brightens your day as you do in our lives. ❤💜 From Master Ross and your WTA family	false		
111-0048153-9584269	06210174041162	2020-06-16T18:15:31+00:00	2020-06-16T11:15:31-07:00	2020-06-16T18:42:49+00:00	2020-06-19T06:59:59+00:00	-2	dbs67nch9mrcdvt@marketplace.amazon.com	Mindy Giallombardo	+1 346-307-9643 ext. 20232	ABR0022	Arabella Farm Direct Bouquet of 12 Fresh Cut Pink Roses with a Free Glass Vase	1	0	1	Expedited	Marilynn Scott	511E 1950N Rd			Deland	IL	61839	US		Love you!  Enjoy your birthday! From Mindy Giallombardo	false		
113-9824327-8649855	05870677537594	2020-06-16T18:46:07+00:00	2020-06-16T11:46:07-07:00	2020-06-16T19:09:38+00:00	2020-06-19T06:59:59+00:00	-2	gh2mpqvzbdhn848@marketplace.amazon.com	Rosanna fini	+1 346-307-9643 ext. 29636	ABM010	Arabella Bouquets | Fields of The World Bouquet of Fresh Cut Flowers in a Free Designer Glass Vase	1	0	1	Standard	Samantha Fini	26 COLFAX AVE			WANAQUE	NJ	07465-1312	US		Congratulations! From Rosanna & grandpa From Aunt Rosanna & Grandpa.	false		
113-9430513-4597036	14475410317810	2020-06-16T18:57:12+00:00	2020-06-16T11:57:12-07:00	2020-06-16T19:27:37+00:00	2020-06-19T06:59:59+00:00	-2	mb2mjjz15h996jx@marketplace.amazon.com	david sabih	+1 346-307-9643 ext. 49144	ABR014	Purchase Now for Delivery by Tuesday | Arabella Bouquets 18 Stems of Fresh Cut White Roses in a Free Designer Glass Vase	1	0	1	Expedited	elaine sabih	3420 castlewoods place			sherman oaks	ca	91403	US			false		
112-9455386-7369056	33828872730866	2020-06-16T19:22:40+00:00	2020-06-16T12:22:40-07:00	2020-06-16T19:39:55+00:00	2020-06-19T06:59:59+00:00	-2	pmsgtw3yftt82k1@marketplace.amazon.com	Victor O Power	+1 346-307-9643 ext. 26408	ABM010	Arabella Bouquets | Fields of The World Bouquet of Fresh Cut Flowers in a Free Designer Glass Vase	1	0	1	Expedited	Marjie McClellan	1316 3RD AVE N			GREAT FALLS	MT	59401-1440	US			false		
111-8417608-4265054	44240676461130	2020-06-16T19:12:11+00:00	2020-06-16T12:12:11-07:00	2020-06-16T19:40:51+00:00	2020-06-19T06:59:59+00:00	-2	60ccb4tqzx9mt7w@marketplace.amazon.com	Keasteen	+1 346-307-9643 ext. 05274	ABR0022	Arabella Farm Direct Bouquet of 12 Fresh Cut Pink Roses with a Free Glass Vase	1	0	1	Expedited	Najee mcmeans	11572 ALICIAS CT			HAMPTON	GA	30228-4041	US		I love you, I miss you, I can’t enjoy life without you. From Keasteen	false		
111-2078619-4557011	02642157269882	2020-06-16T19:21:31+00:00	2020-06-16T12:21:31-07:00	2020-06-16T19:51:25+00:00	2020-06-19T06:59:59+00:00	-2	dz9c9zjxwstrw54@marketplace.amazon.com	Alison Boutilier	+1 210-728-4548 ext. 93351	ABR0022	Arabella Farm Direct Bouquet of 12 Fresh Cut Pink Roses with a Free Glass Vase	1	0	1	Expedited	Karen Bell	1246 YOLANDA DR			YUBA CITY	CA	95993-8128	US		Happy Birthday KB! I fart you!! From Alison Boutilier	false		
111-0339230-9250620	03938383149610	2020-06-16T19:32:40+00:00	2020-06-16T12:32:40-07:00	2020-06-16T20:02:11+00:00	2020-06-19T06:59:59+00:00	-2	019t6hgd6xyjzgm@marketplace.amazon.com	Jordan James	+1 314-282-9402 ext. 32978	ABR0022	Arabella Farm Direct Bouquet of 12 Fresh Cut Pink Roses with a Free Glass Vase	1	0	1	Expedited	Jordan james	319 MOUNTAIN VIEW AVE			SODA SPRINGS	ID	83276-1247	US			false		
111-1042718-4719423	55438994515874	2020-06-16T19:41:21+00:00	2020-06-16T12:41:21-07:00	2020-06-16T20:07:02+00:00	2020-06-19T06:59:59+00:00	-2	60047zxd4yq8v6d@marketplace.amazon.com	nate	+1 346-307-9643 ext. 38541	ABR0022	Arabella Farm Direct Bouquet of 12 Fresh Cut Pink Roses with a Free Glass Vase	1	0	1	Standard	Hyla Weiskind	8070 BAINBROOK DR			CHAGRIN FALLS	OH	44023-4813	US			true		Business Price
112-9995109-0760260	58258632012946	2020-06-16T20:42:58+00:00	2020-06-16T13:42:58-07:00	2020-06-16T21:11:15+00:00	2020-06-19T06:59:59+00:00	-2	2mdyg1028s4s9sv@marketplace.amazon.com	Joaquin Borggio	+1 346-307-9643 ext. 92122	ABR0022	Arabella Farm Direct Bouquet of 12 Fresh Cut Pink Roses with a Free Glass Vase	1	0	1	Expedited	Sophia Dew	1424 OVERLAND DR			SAN MATEO	CA	94403-3717	US		I love you. From Who tf u think	false		
114-3587434-1582633	45187630104330	2020-06-16T20:46:49+00:00	2020-06-16T13:46:49-07:00	2020-06-16T21:11:19+00:00	2020-06-19T06:59:59+00:00	-2	q3ndfmtjxlmfh8f@marketplace.amazon.com	Devereux Starbarrack	+1 346-307-9643 ext. 39151	ABM010	Arabella Bouquets | Fields of The World Bouquet of Fresh Cut Flowers in a Free Designer Glass Vase	1	0	1	Standard	Susan Samora	167 BEACON HILL DR APT A			DOBBS FERRY	NY	10522-2426	US		For 6/30/20  Happy Birthday Mom! I love you! From Teddy	false		
112-2244249-0062621	51202837706178	2020-06-16T20:49:21+00:00	2020-06-16T13:49:21-07:00	2020-06-16T21:18:46+00:00	2020-06-19T06:59:59+00:00	-2	fplmm6csrl3rb2l@marketplace.amazon.com	Tyler Taets	+1 346-307-9643 ext. 26885	ABR0022	Arabella Farm Direct Bouquet of 12 Fresh Cut Pink Roses with a Free Glass Vase	1	0	1	Expedited	Tyler Taets	1711 S SHORE DR			MOLINE	IL	61265-9727	US		I love you baby girl. I miss you so much darlin. From Tyler Taets	false		
111-9431557-7072237	36332580576394	2020-06-16T21:22:07+00:00	2020-06-16T14:22:07-07:00	2020-06-16T21:50:01+00:00	2020-06-19T06:59:59+00:00	-2	2gcd48ymcdcc62z@marketplace.amazon.com	Mary Lou Snyder	+1 210-728-4548 ext. 25943	ABR0055	Arabella Farm Direct Bouquet of 12 Stems of Fresh Cut Hot Pink Roses in a Free Designer Glass Vase	1	0	1	Expedited	Camryn Snyder	512 215TH CT SE			SAMMAMISH	WA	98074-7078	US		Hi Camryn, Congratulations on your graduation.  Love, Grandpa and Grandma Snyder	false		
112-8396870-9917806	45253922517514	2020-06-16T21:55:05+00:00	2020-06-16T14:55:05-07:00	2020-06-16T22:23:31+00:00	2020-06-19T06:59:59+00:00	-2	t4ysg7y3lvm7jky@marketplace.amazon.com	Chris Massood	+1 346-307-9643 ext. 82718	ABM010	Arabella Bouquets | Fields of The World Bouquet of Fresh Cut Flowers in a Free Designer Glass Vase	1	0	1	Expedited	Lynn Ryerson	1000 WASHINGTON AVE			PORTLAND	ME	04103-2751	US		congratulations Lynn!  Loss for NELC but a win for the VNA From triage team	false		
113-6003129-5892211	39856401553194	2020-06-16T22:47:15+00:00	2020-06-16T15:47:15-07:00	2020-06-16T23:11:58+00:00	2020-06-19T06:59:59+00:00	-2	k4kf1z8phdyqjy9@marketplace.amazon.com	S. Priyadarsini	+1 346-307-9643 ext. 12829	ABR013	Arabella Farm Direct Bouquet of 18 Fresh Cut Yellow Roses with a Free Glass Vase	1	0	1	Expedited	Peggy Westby	C/O JESSIE HED 1006 CLOVER CT			ABERDEEN	SD	57401-6636	US		All the best wishes for a speedy recovery Love Priya and Clay From S. Priyadarsini	false		
114-1165687-5749849	52185046779674	2020-06-16T23:06:00+00:00	2020-06-16T16:06:00-07:00	2020-06-16T23:26:58+00:00	2020-06-19T06:59:59+00:00	-2	b0gkgdrn9n5ggsp@marketplace.amazon.com	Andrew G. Knapp	+1 314-282-9402 ext. 16470	ABR013	Arabella Farm Direct Bouquet of 18 Fresh Cut Yellow Roses with a Free Glass Vase	1	0	1	Expedited	Mrs. Carol Knapp	7450 ROSSMORE CT			DAYTON	OH	45459-4213	US		Yellow roses (and these sure better be YELLOW ROSES!!!) were our mother's favorite flower. With warmest thoughts and love. From George & Andrew G. Knapp	false		
111-6742104-5718612	01140050353434	2020-06-17T01:14:41+00:00	2020-06-16T18:14:41-07:00	2020-06-17T01:44:54+00:00	2020-06-19T06:59:59+00:00	-2	qpn8lzmfq2spnvg@marketplace.amazon.com	Phillip Bell	+1 346-307-9643 ext. 87723	ABM010	Arabella Bouquets | Fields of The World Bouquet of Fresh Cut Flowers in a Free Designer Glass Vase	1	0	1	Expedited	Anita Velez	380 W PALMETTO PARK RD UNIT 107			BOCA RATON	FL	33432-6712	US			false		
112-4473448-9276244	28177846960234	2020-06-17T03:22:49+00:00	2020-06-16T20:22:49-07:00	2020-06-17T03:47:52+00:00	2020-06-19T06:59:59+00:00	-2	5s1nbms5xjyxcfp@marketplace.amazon.com	patricia mellencamp	+1 346-307-9643 ext. 35722	ABM0033	Purchase Now for Delivery by Thursday | Arabella Farm Direct Bouquet of Fresh Cut White Hydrangea with a Free Glass Vase	1	0	1	Expedited	Rob mellencamp	57 COUNTRY CLUB DR			HAYWARD	CA	94542-7939	US		These were the first flowers our decorator gave us for Monterey...but we send them with lots more love and admiration.  Pat and JG From patricia mellencamp	false		
114-4593425-7139412	32087291148722	2020-06-17T04:12:28+00:00	2020-06-16T21:12:28-07:00	2020-06-17T04:30:54+00:00	2020-06-19T06:59:59+00:00	-2	ycpfjcxzwr7vs87@marketplace.amazon.com	Allene Kim	+1 346-307-9643 ext. 45864	ABR015	Arabella Farm Direct Bouquet of 18 Fresh Cut Orange Roses with a Free Glass Vase	1	0	1	Expedited	Serena Sabuda	4127 BLUE HERON DR			AUBURN HILLS	MI	48326-1876	US		Dearest Serena, Sending you much love & hopes for a healthy recovery!  From the Kim family & Aunt Cathy	false		
114-5466937-8523456	11104073247618	2020-06-17T04:42:54+00:00	2020-06-16T21:42:54-07:00	2020-06-17T05:00:33+00:00	2020-06-19T06:59:59+00:00	-2	0829321s917sgcb@marketplace.amazon.com	Melissa Crumpler	+1 346-307-9643 ext. 50069	ABR012	Arabella Farm Direct Bouquet of 18 Fresh Cut Pink Roses with a Free Glass Vase	1	0	1	Expedited	JoAnne Vandenberg	2912 50TH AVE			KENOSHA	WI	53144-4270	US		Dear JoAnne ( J ), We hope you enjoy these beautiful roses and be reminded how much you are loved!  Love Brian & Melissa Crumpler Chelsea,Ashley & Joey, Brittany & Michael	false		
113-6221401-8050613	16750523874874	2020-06-17T06:14:16+00:00	2020-06-16T23:14:16-07:00	2020-06-17T06:43:27+00:00	2020-06-19T06:59:59+00:00	-2	3qqmd83v43qtq9g@marketplace.amazon.com	Xiaozhuan Hu	+1 346-307-9643 ext. 72889	ABM010	Purchase Now for Delivery by Friday | Arabella Bouquets | Fields of The World Bouquet of Fresh Cut Flowers in a Free Designer Glass Vase	1	0	1	Expedited	Mr. Tung	13386 ARGONNE DR	SARATOGA CA 95070		SARATOGA	CA	95070-4956	US			false		
111-8664429-2068233	29527781949258	2020-06-17T09:06:53+00:00	2020-06-17T02:06:53-07:00	2020-06-17T09:35:13+00:00	2020-06-20T06:59:59+00:00	-3	tbphfxzdy8lt0fk@marketplace.amazon.com	Laura Torre	+1 210-728-4548 ext. 79160	ABR0022	Purchase Now for Delivery by Friday | Arabella Farm Direct Bouquet of 12 Fresh Cut Pink Roses with a Free Glass Vase	1	0	1	Expedited	Rose Torre	59 Charter Oak Ave			East Haven	CT	06512-2729	US			false		
112-7963821-7543412	22672492555538	2020-06-17T11:31:22+00:00	2020-06-17T04:31:22-07:00	2020-06-17T11:57:04+00:00	2020-06-20T06:59:59+00:00	-3	tyn4mm33frh9vy9@marketplace.amazon.com	Daniel Bogue	+1 346-307-9643 ext. 96650	ABR0022	Purchase Now for Delivery by Friday | Arabella Farm Direct Bouquet of 12 Fresh Cut Pink Roses with a Free Glass Vase	1	0	1	Expedited	Jenna Zingerman	11305 N 151ST EAST AVE			OWASSO	OK	74055-5289	US		Wishing you the best and hoping this brings a smile to your face From Someone in Texas who loves you	false		
111-7874386-9584265	22508030251082	2020-06-16T23:21:28+00:00	2020-06-16T16:21:28-07:00	2020-06-17T12:00:12+00:00	2020-06-20T06:59:59+00:00	-3	yvytsd4k8d5h0rz@marketplace.amazon.com	Carl N Drummond	+1 346-307-9643 ext. 84343	ABM002	Arabella Bouquets Fresh Cut White Calla Lilies in a Free Designer Glass Vase	1	0	1	Expedited	Jim and Sondra Mergenthal	9411 TRELLIS CV			FORT WAYNE	IN	46835-9315	US		Happy 55th Anniversary and many more! We love you!  The Drummond’s From Carl N Drummond	false		
114-7063735-0177062	56048011459810	2020-06-17T13:29:33+00:00	2020-06-17T06:29:33-07:00	2020-06-17T13:56:44+00:00	2020-06-20T06:59:59+00:00	-3	j5r7mg4q0r4v35l@marketplace.amazon.com	Todd Coningsby	+1 346-307-9643 ext. 58276	ABM010	Purchase Now for Delivery by Friday | Arabella Bouquets | Fields of The World Bouquet of Fresh Cut Flowers in a Free Designer Glass Vase	1	0	1	Expedited	Courtney Coningsby	506 S ALBANY AVE - D			TAMPA	FL	33606-2002	US			false		
114-8864739-2941054	29902913568138	2020-06-17T14:20:34+00:00	2020-06-17T07:20:34-07:00	2020-06-17T14:47:54+00:00	2020-06-20T06:59:59+00:00	-3	s9tr35vhvjxvzzq@marketplace.amazon.com	Judith Essex	0017732055707	ABR012	Purchase Now for Delivery by Friday | Arabella Farm Direct Bouquet of 18 Fresh Cut Pink Roses with a Free Glass Vase	1	0	1	Expedited	Mrs Colleen Essex	4022 N KOSTNER AVE			CHICAGO	ILLINOIS	60641-1925	US		To Colleen, Happy Birthday! With lots of love for a special day. xxx From Judith Essex	false		
111-4785609-5240219	17347483235146	2020-06-17T14:34:42+00:00	2020-06-17T07:34:42-07:00	2020-06-17T14:58:02+00:00	2020-06-20T06:59:59+00:00	-3	h3pft2xjq8qs3x8@marketplace.amazon.com	shoup	+1 346-307-9643 ext. 38005	ABR015	Purchase Now for Delivery by Friday | Arabella Farm Direct Bouquet of 18 Fresh Cut Orange Roses with a Free Glass Vase	1	0	1	Expedited	Mrs. Yolanda Campione	2460 PEBBLE CREEK PL			PORT CHARLOTTE	FL	33948-1645	US		Yolanda:  Thank you for the stone and for being a great neighbor. You're the best! From shoups	false		
112-5965458-0181869	23676413645442	2020-06-17T14:38:33+00:00	2020-06-17T07:38:33-07:00	2020-06-17T15:07:17+00:00	2020-06-20T06:59:59+00:00	-3	xl26rfm2gq208tf@marketplace.amazon.com	helene roberson	+1 346-307-9643 ext. 81868	ABR011	Purchase Now for Delivery by Friday | Arabella Bouquets 18 Stems of Fresh Cut Red Roses in a Free Glass Vase	1	0	1	Expedited	Kathleen Schwartz	582 HENRIETTA ST			BIRMINGHAM	MI	48009-1453	US		Kathy, Happiest of Birthdays filled with love. Always, Helene & Jack From helene roberson	false		
112-0310352-1782650	05926221357266	2020-06-17T14:40:55+00:00	2020-06-17T07:40:55-07:00	2020-06-17T15:08:39+00:00	2020-06-20T06:59:59+00:00	-3	1f495d8781lx1pb@marketplace.amazon.com	Kanako Oppenheim	+1 346-307-9643 ext. 08374	ABB013	Arabella Bouquets | 24 Stems of Fresh Cut White Roses in a Free Designer Glass Vase	1	0	1	Expedited	Chip and Heather Oppenheim	7217 SPIGNO PL			AGUA DULCE	CA	91390-3499	US		Dear Chip and Heather,  We wish you peace, tranquility, and please don't feel that you are alone. Love, Matt, Kanako, and Tobey From Matt and Kanako Oppenheim	false		
114-5686840-9237001	67122929973018	2020-06-17T15:08:44+00:00	2020-06-17T08:08:44-07:00	2020-06-17T15:37:44+00:00	2020-06-20T06:59:59+00:00	-3	rbkqfgx5jcqvc52@marketplace.amazon.com	Angela Bluske	+1 346-307-9643 ext. 58111	ABR012	Purchase Now for Delivery by Friday | Arabella Farm Direct Bouquet of 18 Fresh Cut Pink Roses with a Free Glass Vase	1	0	1	Expedited	Susan Dobratz	926 W COMMERCIAL ST			APPLETON	WI	54914-3655	US		Hope this brightens your day!  I love you Sis!!  Angie From Angela Bluske	false		
113-2449935-0718644	54968290449074	2020-06-17T15:50:14+00:00	2020-06-17T08:50:14-07:00	2020-06-17T16:17:21+00:00	2020-06-20T06:59:59+00:00	-3	ptz0nyk4f71nt00@marketplace.amazon.com	candice Villalobos	+1 346-307-9643 ext. 27334	ABR0055	Purchase Now for Delivery by Friday | Arabella Farm Direct Bouquet of 12 Stems of Fresh Cut Hot Pink Roses in a Free Designer Glass Vase	1	0	1	Expedited	Heather Heckert	4301 WENSLEY CT			WOODBRIDGE	VA	22192-5546	US		Have a Happy Birthday my Sweet, beautiful, amazing daughter! I love you with all my heart! Mom From candice Villalobos	false		
114-3124900-1635404	22664047555138	2020-06-17T15:48:30+00:00	2020-06-17T08:48:30-07:00	2020-06-17T16:22:22+00:00	2020-06-20T06:59:59+00:00	-3	zx2pfc3lxk30ltf@marketplace.amazon.com	Lisa	+1 346-307-9643 ext. 70310	ABR012	Purchase Now for Delivery by Friday | Arabella Farm Direct Bouquet of 18 Fresh Cut Pink Roses with a Free Glass Vase	1	0	1	Expedited	Randi Damesek	170 W END AVE APT 12J			NEW YORK	NY	10023-5403	US		Randi, We are here if you need anything.  We wish your mom a quick recovery.  You and your family are in our thoughts and prayers.  We love you! From Lisa and Silvana	false		
114-9511486-7953815	61292321382970	2020-06-17T16:13:41+00:00	2020-06-17T09:13:41-07:00	2020-06-17T16:27:18+00:00	2020-06-20T06:59:59+00:00	-3	35p85ccfky8w0x1@marketplace.amazon.com	Parents	+1 346-307-9643 ext. 55654	ABR0055	Purchase Now for Delivery by Friday | Arabella Farm Direct Bouquet of 12 Stems of Fresh Cut Hot Pink Roses in a Free Designer Glass Vase	1	0	1	Expedited	Kathy McLoughlin	14386 FLOURCASTLE CT			CENTREVILLE	VA	20120-3349	US		Get well soon! We love you and hope you feel better so soon From Kristina and her family	false		
113-7356864-6907432	16939874169778	2020-06-17T16:09:33+00:00	2020-06-17T09:09:33-07:00	2020-06-17T16:39:02+00:00	2020-06-20T06:59:59+00:00	-3	qkw1kmpwnzbby9m@marketplace.amazon.com	barbara frame	+1 346-307-9643 ext. 20611	ABR004	Arabella Farm Direct Bouquet of 12 Fresh Cut Yellow Roses with a Free Glass Vase	1	0	1	Expedited	Mary Pierce	20 N 11TH ST			DEL HAVEN	NJ	08251-3701	US		Happy Birthday!!! From barbara frame	false		
112-6854375-7629866	00640892414258	2020-06-17T16:28:34+00:00	2020-06-17T09:28:34-07:00	2020-06-17T16:57:52+00:00	2020-06-20T06:59:59+00:00	-3	sjg1dqf8vpypzl3@marketplace.amazon.com	Matthew Kuc	+1 346-307-9643 ext. 06248	ABR0022	Purchase Now for Delivery by Friday | Arabella Farm Direct Bouquet of 12 Fresh Cut Pink Roses with a Free Glass Vase	1	0	1	Expedited	Sarah Clark	19 SANDERSON RD UNIT 2			SMITHFIELD	RI	02917-2610	US		To miss Twirly Girl Snnarah From ;-)	false		
112-2998507-7825000	39683581941106	2020-06-17T16:57:35+00:00	2020-06-17T09:57:35-07:00	2020-06-17T17:27:00+00:00	2020-06-20T06:59:59+00:00	-3	332mg4fy2p8tldr@marketplace.amazon.com	michelle stephens	+1 346-307-9643 ext. 38190	ABR0055	Purchase Now for Delivery by Friday | Arabella Farm Direct Bouquet of 12 Stems of Fresh Cut Hot Pink Roses in a Free Designer Glass Vase	1	0	1	Expedited	SHawnna mead	1910 lewis road			bonifay	fl	32425	US		I will love you too infinity and beyond!!!!!	false		
111-7710449-3153821	45401411885986	2020-06-17T17:10:33+00:00	2020-06-17T10:10:33-07:00	2020-06-17T17:37:58+00:00	2020-06-20T06:59:59+00:00	-3	cv7sxkkw5hw5tbs@marketplace.amazon.com	Donald Christiana	+1 346-307-9643 ext. 22845	ABR0055	Purchase Now for Delivery by Friday | Arabella Farm Direct Bouquet of 12 Stems of Fresh Cut Hot Pink Roses in a Free Designer Glass Vase	1	0	1	Expedited	Aubre Berzas	254 NOTTINGWOOD CT			OPELOUSAS	LA	70570-0331	US		Aubre, Get well soon. Love Always, Grandpa	false		
112-7618215-9656269	55856139471490	2020-06-17T18:15:34+00:00	2020-06-17T11:15:34-07:00	2020-06-17T18:45:26+00:00	2020-06-20T06:59:59+00:00	-3	d1pk3zq4h84nbgd@marketplace.amazon.com	Sally A. Collar	+1 346-307-9643 ext. 97458	ABR0022	Purchase Now for Delivery by Monday | Arabella Farm Direct Bouquet of 12 Fresh Cut Pink Roses with a Free Glass Vase	1	0	1	Expedited	Jeanne McGahren	95 CONANT VALLEY RD			POUND RIDGE	NY	10576-1815	US		Aunt Jeanne,  I love you.  Sally	false		
113-1017222-3254609	03782168341178	2020-06-17T18:22:06+00:00	2020-06-17T11:22:06-07:00	2020-06-17T18:49:08+00:00	2020-06-20T06:59:59+00:00	-3	4sx9g8ylcqdm5hd@marketplace.amazon.com	Víctor Nanclares	+1 346-307-9643 ext. 51746	ABM010	Purchase Now for Delivery by Monday | Arabella Bouquets | Fields of The World Bouquet of Fresh Cut Flowers in a Free Designer Glass Vase	1	0	1	Expedited	Kimiko Ishihara	7646 KAVOORAS DR			SACRAMENTO	CA	95831-4206	US		From your Spanish kids.  Love you to The moon and back De Víctor Nanclares	false		
114-6315739-2365015	23394032826250	2020-06-17T18:30:19+00:00	2020-06-17T11:30:19-07:00	2020-06-17T18:57:52+00:00	2020-06-20T06:59:59+00:00	-3	7nsls6vcqxm77qb@marketplace.amazon.com	Brian Keith Williams	+1 346-307-9643 ext. 62815	ABR0022	Purchase Now for Delivery by Monday | Arabella Farm Direct Bouquet of 12 Fresh Cut Pink Roses with a Free Glass Vase	1	0	1	Standard	Ebony Boyd	4095 WILL LEE RD			COLLEGE PARK	GA	30349-1903	US		Wishing you a happy birthday, Enjoy your gift! From Brian Keith Williams	false		
111-9942152-7547420	30121374924698	2020-06-17T18:35:12+00:00	2020-06-17T11:35:12-07:00	2020-06-17T19:01:12+00:00	2020-06-20T06:59:59+00:00	-3	p3n3g9hccn03ldb@marketplace.amazon.com	MLMFait	+1 346-307-9643 ext. 06216	ABR0055	Purchase Now for Delivery by Monday | Arabella Farm Direct Bouquet of 12 Stems of Fresh Cut Hot Pink Roses in a Free Designer Glass Vase	1	0	1	Expedited	Adeline Fait	603 15TH ST			MOSINEE	WI	54455-1020	US		Hi Adeline, Hope you are feeling better. Linda	false		
112-5029024-5957844	67410511387834	2020-06-17T18:31:46+00:00	2020-06-17T11:31:46-07:00	2020-06-17T19:02:09+00:00	2020-06-20T06:59:59+00:00	-3	hh1zr1g7ccgz7dh@marketplace.amazon.com	eunice campos white	+1 346-307-9643 ext. 40736	ABR0066	Purchase Now for Delivery by Monday | Arabella Bouquets 18 Stems of Fresh Cut White Roses in a Free Designer Glass Vase	1	0	1	Expedited	Teresa arana	26710 EASTWOOD DR			SPRING	TX	77386-1161	US			false		
