order-id	order-item-id	purchase-date	payments-date	reporting-date	promise-date	days-past-promise	buyer-email	buyer-name	buyer-phone-number	sku	product-name	quantity-purchased	quantity-shipped	quantity-to-ship	ship-service-level	recipient-name	ship-address-1	ship-address-2	ship-address-3	ship-city	ship-state	ship-postal-code	ship-country	gift-wrap-type	gift-message-text	is-business-order	purchase-order-number	price-designation
112-7618215-9656269	55856139471490	2020-06-17T18:15:34+00:00	2020-06-17T11:15:34-07:00	2020-06-17T18:45:26+00:00	2020-06-20T06:59:59+00:00	-2	d1pk3zq4h84nbgd@marketplace.amazon.com	Sally A. Collar	+1 346-307-9643 ext. 97458	ABR0022	Purchase Now for Delivery by Monday | Arabella Farm Direct Bouquet of 12 Fresh Cut Pink Roses with a Free Glass Vase	1	0	1	Expedited	Jeanne McGahren	95 CONANT VALLEY RD			POUND RIDGE	NY	10576-1815	US		Aunt Jeanne,  I love you.  Sally	false		
113-1017222-3254609	03782168341178	2020-06-17T18:22:06+00:00	2020-06-17T11:22:06-07:00	2020-06-17T18:49:08+00:00	2020-06-20T06:59:59+00:00	-2	4sx9g8ylcqdm5hd@marketplace.amazon.com	Víctor Nanclares	+1 346-307-9643 ext. 51746	ABM010	Purchase Now for Delivery by Monday | Arabella Bouquets | Fields of The World Bouquet of Fresh Cut Flowers in a Free Designer Glass Vase	1	0	1	Expedited	Kimiko Ishihara	7646 KAVOORAS DR			SACRAMENTO	CA	95831-4206	US		From your Spanish kids.  Love you to The moon and back De Víctor Nanclares	false		
114-6315739-2365015	23394032826250	2020-06-17T18:30:19+00:00	2020-06-17T11:30:19-07:00	2020-06-17T18:57:52+00:00	2020-06-20T06:59:59+00:00	-2	7nsls6vcqxm77qb@marketplace.amazon.com	Brian Keith Williams	+1 346-307-9643 ext. 62815	ABR0022	Purchase Now for Delivery by Monday | Arabella Farm Direct Bouquet of 12 Fresh Cut Pink Roses with a Free Glass Vase	1	0	1	Standard	Ebony Boyd	4095 WILL LEE RD			COLLEGE PARK	GA	30349-1903	US		Wishing you a happy birthday, Enjoy your gift! From Brian Keith Williams	false		
111-9942152-7547420	30121374924698	2020-06-17T18:35:12+00:00	2020-06-17T11:35:12-07:00	2020-06-17T19:01:12+00:00	2020-06-20T06:59:59+00:00	-2	p3n3g9hccn03ldb@marketplace.amazon.com	MLMFait	+1 346-307-9643 ext. 06216	ABR0055	Purchase Now for Delivery by Monday | Arabella Farm Direct Bouquet of 12 Stems of Fresh Cut Hot Pink Roses in a Free Designer Glass Vase	1	0	1	Expedited	Adeline Fait	603 15TH ST			MOSINEE	WI	54455-1020	US		Hi Adeline, Hope you are feeling better. Linda	false		
112-5029024-5957844	67410511387834	2020-06-17T18:31:46+00:00	2020-06-17T11:31:46-07:00	2020-06-17T19:02:09+00:00	2020-06-20T06:59:59+00:00	-2	hh1zr1g7ccgz7dh@marketplace.amazon.com	eunice campos white	+1 346-307-9643 ext. 40736	ABR0066	Purchase Now for Delivery by Monday | Arabella Bouquets 18 Stems of Fresh Cut White Roses in a Free Designer Glass Vase	1	0	1	Expedited	Teresa arana	26710 EASTWOOD DR			SPRING	TX	77386-1161	US			false		
112-8469968-2615469	05362681736794	2020-06-17T19:44:41+00:00	2020-06-17T12:44:41-07:00	2020-06-17T19:52:19+00:00	2020-06-20T06:59:59+00:00	-2	dg964p292bfyvg8@marketplace.amazon.com	Nikki	+1 346-307-9643 ext. 07532	ABR012	Purchase Now for Delivery by Friday | Arabella Farm Direct Bouquet of 18 Fresh Cut Pink Roses with a Free Glass Vase	1	0	1	Standard	Nikki Frousakis	8632 CRIDER AVE			DOWNEY	CA	90240-2121	US		Welcome, baby girl! Your future bestie, Eleni Jane, can't wait to meet you and your big brother. We love you and look forward to watching you grow into the incredible woman you will be. From Dan, Nikki, & EJ	false		
111-9919288-7157005	40768437027186	2020-06-17T19:31:04+00:00	2020-06-17T12:31:04-07:00	2020-06-17T19:59:13+00:00	2020-06-20T06:59:59+00:00	-2	4mt0lzq5kph73tm@marketplace.amazon.com	PC Canedo	+1 314-282-9402 ext. 25613	ABR014	Purchase Now for Delivery by Monday | Arabella Bouquets 18 Stems of Fresh Cut White Roses in a Free Designer Glass Vase	1	0	1	Expedited	Callie Hedvall	4210 PANORAMA DR			HUTCHINSON	KS	67502-3138	US			false		
113-9973521-2511443	57578265718506	2020-06-17T20:06:40+00:00	2020-06-17T13:06:40-07:00	2020-06-17T20:35:24+00:00	2020-06-20T06:59:59+00:00	-2	1kcr3zj7cy7tmkx@marketplace.amazon.com	Prishchepenko Galina	+1 346-307-9643 ext. 27656	ABR013	Purchase Now for Delivery by Monday | Arabella Farm Direct Bouquet of 18 Fresh Cut Yellow Roses with a Free Glass Vase	1	0	1	Expedited	Veselova- Proekt Evgenia	140 MEDFORD ST STE 1			ARLINGTON	MA	02474-3111	US		Happy Birthday, Zenechka!!! Best wishes. Kiss you. Galya & Misha. From Prishchepenko Galina	false		
112-4415826-6390611	23639964920282	2020-06-17T20:10:53+00:00	2020-06-17T13:10:53-07:00	2020-06-17T20:37:48+00:00	2020-06-20T06:59:59+00:00	-2	ywxq0gxldsmynll@marketplace.amazon.com	alex kurczaba	+1 346-307-9643 ext. 18218	ABR0055	Purchase Now for Delivery by Monday | Arabella Farm Direct Bouquet of 12 Stems of Fresh Cut Hot Pink Roses in a Free Designer Glass Vase	1	0	1	Expedited	SHARON MERRILL	25 SILENT MEADOW LN			ORCHARD PARK	NY	14127-2043	US			false		
112-7671835-4357846	62857824740594	2020-06-17T20:50:02+00:00	2020-06-17T13:50:02-07:00	2020-06-17T21:16:53+00:00	2020-06-20T06:59:59+00:00	-2	81z6zfx1xn667vx@marketplace.amazon.com	James Safranek	+1 346-307-9643 ext. 94019	ABM0044	Purchase Now for Delivery by Monday | Arabella Farm Direct Bouquet of Fresh Cut Blue Hydrangea with a Free Glass Vase	1	0	1	Expedited	Cameron Mummert Russell	2403 ELBRUS AVE			EDINBURG	TX	78539-0122	US			false		
111-4135995-2769832	60821983515626	2020-06-17T21:52:30+00:00	2020-06-17T14:52:30-07:00	2020-06-17T22:00:03+00:00	2020-06-20T06:59:59+00:00	-2	hm0dnb7db7tvtmv@marketplace.amazon.com	pierre piggott	+1 314-282-9402 ext. 75745	ABR0022	Purchase Now for Delivery by Monday | Arabella Farm Direct Bouquet of 12 Fresh Cut Pink Roses with a Free Glass Vase	1	0	1	Expedited	Louisa	50 NIBLICK SQ			FRONT ROYAL	VA	22630-1601	US		You work so hard everyday hopefully these make u smile have a good day today beautiful lady From pierre piggott	false		
111-3865449-9987402	14250033938226	2020-06-17T21:38:30+00:00	2020-06-17T14:38:30-07:00	2020-06-17T22:06:29+00:00	2020-06-20T06:59:59+00:00	-2	vpnwtz2yqsf9z7x@marketplace.amazon.com	Denisse Lagos	+1 346-307-9643 ext. 27060	ABR0022	Purchase Now for Delivery by Monday | Arabella Farm Direct Bouquet of 12 Fresh Cut Pink Roses with a Free Glass Vase	1	0	1	Expedited	Belinda Montufar	43 HARBOR ST 2ND FLOOR			STAMFORD	CT	06902-7305	US		Happy birthday my mommy I love you De Denisse Lagos	false		
112-4598093-2450601	39902275194090	2020-06-17T21:45:56+00:00	2020-06-17T14:45:56-07:00	2020-06-17T22:10:05+00:00	2020-06-20T06:59:59+00:00	-2	r46qh5bjlj1phpn@marketplace.amazon.com	Marlene Ozel	+1 210-728-4548 ext. 33052	ABM0044	Purchase Now for Delivery by Monday | Arabella Farm Direct Bouquet of Fresh Cut Blue Hydrangea with a Free Glass Vase	1	0	1	Expedited	Suat Ozel	193 CAMBRIA HILL DR			TARENTUM	PA	15084-9311	US		İlk günün heyecanıyla nice mutlu yıldönümleri için 10. yılınızı kutluyor sizleri çok seviyoruz. From Bijen & Suat ÖZEL	false		
114-9219120-8694615	12662677513698	2020-06-17T22:24:47+00:00	2020-06-17T15:24:47-07:00	2020-06-17T22:53:33+00:00	2020-06-20T06:59:59+00:00	-2	4d40nj4z620k5fr@marketplace.amazon.com	Jeanne Finberg	+1 346-307-9643 ext. 02500	ABR012	Purchase Now for Delivery by Friday | Arabella Farm Direct Bouquet of 18 Fresh Cut Pink Roses with a Free Glass Vase	1	0	1	Expedited	Barbara Burstein	1610 N TREAT AVE			TUCSON	AZ	85716-3533	US		Happy Birthday, Barbara!!  Love, Jeannie and Bob From Jeanne Finberg	false		
112-7716447-8777030	60668558983690	2020-06-17T22:52:32+00:00	2020-06-17T15:52:32-07:00	2020-06-17T23:01:40+00:00	2020-06-20T06:59:59+00:00	-2	mkhqtkjgwbttf6m@marketplace.amazon.com	KATHRYN LAUDATO	+1 314-282-9402 ext. 37900	ABM0033	Purchase Now for Delivery by Monday | Arabella Farm Direct Bouquet of Fresh Cut White Hydrangea with a Free Glass Vase	1	0	1	Expedited	Kimberly Dryden	6235 HANCOCK AVE			SAN JOSE	CA	95123-4624	US		Kim, In behalf of the school staff, we would like to express our heartfelt condolences to you for Don’s passing. He was such a kind and generous man. He was a great loss. From KATHRYN LAUDATO	false		
113-8031321-3261066	62438769745634	2020-06-17T23:19:50+00:00	2020-06-17T16:19:50-07:00	2020-06-17T23:48:49+00:00	2020-06-20T06:59:59+00:00	-2	z6dgqbhnrmh06v3@marketplace.amazon.com	Karen	970-948=8693	ABM010	Purchase Now for Delivery by Monday | Arabella Bouquets | Fields of The World Bouquet of Fresh Cut Flowers in a Free Designer Glass Vase	1	0	1	Expedited	Pattie Ward	201 OVERLOOK RDG			CARBONDALE	CO	81623-8661	US		Happy Birthay!! Love you, Karen Haley Craig & Hunter! From Karen	false		
112-5741878-2025801	46466682099498	2020-06-17T23:17:09+00:00	2020-06-17T16:17:09-07:00	2020-06-17T23:50:59+00:00	2020-06-20T06:59:59+00:00	-2	rywsxw799rpxj8h@marketplace.amazon.com	Malachi	+1 346-307-9643 ext. 01124	ABR014	Purchase Now for Delivery by Monday | Arabella Bouquets 18 Stems of Fresh Cut White Roses in a Free Designer Glass Vase	1	0	1	Expedited	Yolanda Kurts	17 BUCK HVN READING PA 19607			READING	PA	19607-9696	US			false		
113-1214713-3656251	26909635897858	2020-06-17T23:28:36+00:00	2020-06-17T16:28:36-07:00	2020-06-17T23:54:57+00:00	2020-06-20T06:59:59+00:00	-2	d6291yyms1brx0v@marketplace.amazon.com	Megan Canales	+1 346-307-9643 ext. 57073	ABM010	Purchase Now for Delivery by Monday | Arabella Bouquets | Fields of The World Bouquet of Fresh Cut Flowers in a Free Designer Glass Vase	1	0	1	Expedited	Fred deLeeuw	7411 PINECREST DR			BLACKLICK	OH	43004-8374	US		Happy Father’s Day!!! Hope these are as magical for you as they were for mom!!   Love you more than you’ll ever know!!! From Megan Canales and Edward	false		
112-9483975-6841835	34846962911674	2020-06-17T23:34:58+00:00	2020-06-17T16:34:58-07:00	2020-06-18T00:02:47+00:00	2020-06-20T06:59:59+00:00	-2	qg8vsrlpjk92jwp@marketplace.amazon.com	The Florist	+1 346-307-9643 ext. 90692	ABR001	Purchase Now for Delivery by Monday | Arabella Bouquets 12 Stems of Fresh Cut Red Roses in a Free Designer Glass Vase	1	0	1	Expedited	Sylvia Hartzell	5610 MORGAN RANCH LOOP			GEORGETOWN	CA	95634-9373	US		To the most amazing woman in the whole world, ll love you now and always honey. You complete my life honey and I ll always be grateful for your love. From Miller Speight	false		
112-9973123-1793828	53416231678394	2020-06-18T02:10:21+00:00	2020-06-17T19:10:21-07:00	2020-06-18T02:31:12+00:00	2020-06-20T06:59:59+00:00	-2	103qw7l7f8fkjz2@marketplace.amazon.com	Magdalena	+1 210-728-4548 ext. 00520	ABR0022	Purchase Now for Delivery by Monday | Arabella Farm Direct Bouquet of 12 Fresh Cut Pink Roses with a Free Glass Vase	1	0	1	Expedited	Magdalena Starzec	609 NEWMAN PL APT 43			ROSELLE	NJ	07203-2860	US			false		
111-3564510-6887409	28859602670226	2020-06-18T05:51:02+00:00	2020-06-17T22:51:02-07:00	2020-06-18T06:20:23+00:00	2020-06-20T06:59:59+00:00	-2	n20w7vkmrvdbn8d@marketplace.amazon.com	ally	+1 346-307-9643 ext. 43564	ABR0022	Purchase Now for Delivery by Monday | Arabella Farm Direct Bouquet of 12 Fresh Cut Pink Roses with a Free Glass Vase	1	0	1	Expedited	Valentina  Russ	813 WATER ST			WEST SACRAMENTO	CA	95605-1738	US		Happy Birthday Mom! From Ally and Vitaliy	false		
114-1258896-4541849	64823394754434	2020-06-18T05:55:10+00:00	2020-06-17T22:55:10-07:00	2020-06-18T06:23:31+00:00	2020-06-20T06:59:59+00:00	-2	67v26zf5cbymlpm@marketplace.amazon.com	Rami Amin	+1 346-307-9643 ext. 43653	ABR014	Purchase Now for Delivery by Monday | Arabella Bouquets 18 Stems of Fresh Cut White Roses in a Free Designer Glass Vase	1	0	1	Expedited	Shimaa Zohdy	7605 11TH AVE			BROOKLYN	NY	11228-2313	US			false		
111-5213918-2129067	36408616114874	2020-06-18T06:31:11+00:00	2020-06-17T23:31:11-07:00	2020-06-18T07:01:28+00:00	2020-06-20T06:59:59+00:00	-2	ykbj7w0wttfzjs2@marketplace.amazon.com	Alyson	+1 346-307-9643 ext. 88228	ABR0022	Purchase Now for Delivery by Monday | Arabella Farm Direct Bouquet of 12 Fresh Cut Pink Roses with a Free Glass Vase	1	0	1	Expedited	Alyson Quick	9650 N 35TH DR			PHOENIX	AZ	85051-1218	US			false		
