order-id	order-item-id	purchase-date	payments-date	reporting-date	promise-date	days-past-promise	buyer-email	buyer-name	buyer-phone-number	sku	product-name	quantity-purchased	quantity-shipped	quantity-to-ship	ship-service-level	recipient-name	ship-address-1	ship-address-2	ship-address-3	ship-city	ship-state	ship-postal-code	ship-country	gift-wrap-type	gift-message-text	is-business-order	purchase-order-number	price-designation
111-3770547-9169813	40395727993666	2020-06-19T17:39:11+00:00	2020-06-19T10:39:11-07:00	2020-06-19T18:05:33+00:00	2020-06-24T06:59:59+00:00	-5	8hlkppvvt6xxtvw@marketplace.amazon.com	Doris Bogdani	+1 346-307-9643 ext. 60036	ABR0022	Purchase Now for Delivery by Monday | Arabella Farm Direct Bouquet of 12 Fresh Cut Pink Roses with a Free Glass Vase	1	0	1	Expedited	Frenk Gjoca	92 FREDERICK ST APT 5			BELLEVILLE	NJ	07109-1156	US		Dear Ermira and Frenk,  These flowers are for the new mom! Congrats e dashur, me fat dhe mbaresi per te tre juve!!  Ju perqafoj, Doris From Doris Bogdani	false		
111-6295855-6820251	15608731006474	2020-06-19T17:43:33+00:00	2020-06-19T10:43:33-07:00	2020-06-19T18:09:08+00:00	2020-06-24T06:59:59+00:00	-5	t4vswmbb47y53v1@marketplace.amazon.com	Hany sayed	+1 346-307-9643 ext. 42368	ABR012	Arabella Farm Direct Bouquet of 18 Fresh Cut Pink Roses with a Free Glass Vase	1	0	1	Expedited	Jannette P Guevarra	226 WESTLAKE AVE	DALY CITY SANFRANCISCO CALIFORNIA 94014		DALY CITY	CA	94014-1973	US		Happy birthday baby From Hany sayed	false		
113-9723468-6258663	16565234673810	2020-06-19T17:45:43+00:00	2020-06-19T10:45:43-07:00	2020-06-19T18:12:08+00:00	2020-06-24T06:59:59+00:00	-5	t4gvwvvq9k37s48@marketplace.amazon.com	Tyjane	958414083	ABM010	Arabella Bouquets | Fields of The World Bouquet of Fresh Cut Flowers in a Free Designer Glass Vase	1	0	1	Expedited	Ashkan and Anita Kashavarz	4670 EL PENON WAY			SAN DIEGO	CA	92117-2404	US		Congratulations on the new addition to the family. We love you all so very much. From Grandma Donna, Tyjane, Jayden	false		
114-3026948-4661056	38372597198354	2020-06-19T17:48:56+00:00	2020-06-19T10:48:56-07:00	2020-06-19T18:18:21+00:00	2020-06-24T06:59:59+00:00	-5	rtzqx4ht5nzd03x@marketplace.amazon.com	Israelalfonso	+1 346-307-9643 ext. 48220	ABR0066	Purchase Now for Delivery by Monday | Arabella Bouquets 18 Stems of Fresh Cut White Roses in a Free Designer Glass Vase	1	0	1	Expedited	Lisa Briskie	1161 YORK AVE			NEW YORK	NY	10065-7940	US			false		
113-0607384-4730665	22483273053738	2020-06-19T17:51:30+00:00	2020-06-19T10:51:30-07:00	2020-06-19T18:24:14+00:00	2020-06-24T06:59:59+00:00	-5	04v5rgxn0ntg4ph@marketplace.amazon.com	Bonnie	+1 314-282-9402 ext. 91392	ABM010	Arabella Bouquets | Fields of The World Bouquet of Fresh Cut Flowers in a Free Designer Glass Vase	1	0	1	Expedited	Cindy Harper	3453 POTOSI RD			ABILENE	TX	79602-8605	US		Happy Birthday Mom!! From Bonnie	false		
111-4625100-3451409	44789099429586	2020-06-19T18:14:04+00:00	2020-06-19T11:14:04-07:00	2020-06-19T18:32:14+00:00	2020-06-24T06:59:59+00:00	-5	k8z9fxghw537kgh@marketplace.amazon.com	Amy Craven	+1 314-282-9402 ext. 40934	ABM010	Arabella Bouquets | Fields of The World Bouquet of Fresh Cut Flowers in a Free Designer Glass Vase	1	0	1	Expedited	Linda Harrison Alegre Home Care	1660 S AMPHLETT BLVD STE 128			SAN MATEO	CA	94402-2524	US		You were wonderful to work with! Enjoy your retirement! From Amy Craven & Katherine Vanderhorst C & V Senior Care	false		
113-6972436-2969862	39529486374490	2020-06-19T18:24:27+00:00	2020-06-19T11:24:27-07:00	2020-06-19T18:50:34+00:00	2020-06-24T06:59:59+00:00	-5	v2kv36c9jkr4ndq@marketplace.amazon.com	Paul Clothier	+1 346-307-9643 ext. 76768	ABR001	Arabella Bouquets 12 Stems of Fresh Cut Red Roses in a Free Designer Glass Vase	1	0	1	Expedited	Alice Gaber	12990 SKYLINE BLVD			WOODSIDE	CA	94062-4559	US		Dearest Alice, Wishing you a wonderful birthday!  With all my love, Paul	false		
113-1344487-3456238	61881585846746	2020-06-19T18:39:32+00:00	2020-06-19T11:39:32-07:00	2020-06-19T19:07:56+00:00	2020-06-24T06:59:59+00:00	-5	dtdqmxy9ymtn4ml@marketplace.amazon.com	Marcus Brown	+1 314-282-9402 ext. 99266	ABR0055	Arabella Farm Direct Bouquet of 12 Stems of Fresh Cut Hot Pink Roses in a Free Designer Glass Vase	1	0	1	Expedited	Ajilé Owens	40 CARRIE ST			ALLENHURST	GA	31301-3605	US		Just Because :) From Marcus	false		
113-7888348-8959417	68256543902554	2020-06-19T18:40:00+00:00	2020-06-19T11:40:00-07:00	2020-06-19T19:10:22+00:00	2020-06-24T06:59:59+00:00	-5	ny93c27zsgfycm4@marketplace.amazon.com	Laurinda Lowenstein	+1 346-307-9643 ext. 79915	ABR014	Arabella Bouquets 18 Stems of Fresh Cut White Roses in a Free Designer Glass Vase	2	0	2	Expedited	laurinda Douglas	39 Main Street			Seal Harbor	ME	04675	US			false		
113-3703605-7321855	38979540223746	2020-06-15T20:00:12+00:00	2020-06-15T13:00:12-07:00	2020-06-19T19:54:14+00:00	2020-06-23T06:59:59+00:00	-4	prpwrl38tmjx0gd@marketplace.amazon.com	AVONNE RUIZ	+1 346-307-9643 ext. 50414	ABR012	Arabella Farm Direct Bouquet of 18 Fresh Cut Pink Roses with a Free Glass Vase	1	0	1	SecondDay	Beverly V. Brown	7025 MULE TEAM WAY			ROSEVILLE	CA	95747-8070	US		My Dear 91 year faithful friend:  Happy Birthday.  I  am sending flowers so I can love on you from afar.... one of my most precious friends and I think of you often.  We have had some good times haven't we.  Love Avonne	false		
113-0674954-3128245	48801804503546	2020-06-19T19:32:40+00:00	2020-06-19T12:32:40-07:00	2020-06-19T20:00:51+00:00	2020-06-24T06:59:59+00:00	-5	hdnzqvxp5bwx60s@marketplace.amazon.com	Daniel V. Nieroda	+1 314-282-9402 ext. 02631	ABR0066	Arabella Bouquets 18 Stems of Fresh Cut White Roses in a Free Designer Glass Vase	1	0	1	Expedited	Sirina Kamieniecki	584 ROCKAWAY VALLEY RD			BOONTON TOWNSHIP	NJ	07005-9170	US			false		
114-1596292-9709042	25750669379426	2020-06-19T19:48:29+00:00	2020-06-19T12:48:29-07:00	2020-06-19T20:18:22+00:00	2020-06-24T06:59:59+00:00	-5	9lsqlg8v5fll0nd@marketplace.amazon.com	Bob Grossi		ABR0022	Purchase Now for Delivery by Tuesday | Arabella Farm Direct Bouquet of 12 Fresh Cut Pink Roses with a Free Glass Vase	1	0	1	Expedited	BOB GROSSI	41 RIDGE ROAD			ROCKWOOD	ME	04478	US			false		
111-2080238-8261050	34687101242890	2020-06-19T20:12:52+00:00	2020-06-19T13:12:52-07:00	2020-06-19T20:42:34+00:00	2020-06-24T06:59:59+00:00	-5	n1j579ynfsvdt3q@marketplace.amazon.com	Jennipher Bhatti	+1 314-282-9402 ext. 57331	ABM010	Arabella Bouquets | Fields of The World Bouquet of Fresh Cut Flowers in a Free Designer Glass Vase	1	0	1	Expedited	Irene Molloy	2980 Park Avenue Apt# 6F			Bronx	NY	10451	US		To dearest Irene He heals the brokenhearted and binds up their wounds. Psalm 147:3 From Jennipher Bhatti From Jennipher Bhatti	false		
114-6477397-1017868	40621353020570	2020-06-19T20:17:34+00:00	2020-06-19T13:17:34-07:00	2020-06-19T20:45:27+00:00	2020-06-24T06:59:59+00:00	-5	m5qf1qgv5znhgt7@marketplace.amazon.com	Larisa Goldin	+1 314-282-9402 ext. 48013	ABR0055	Purchase Now for Delivery by Tuesday | Arabella Farm Direct Bouquet of 12 Stems of Fresh Cut Hot Pink Roses in a Free Designer Glass Vase	1	0	1	Expedited	Nataly and Vitaly Goldin	79 FLORENCE ST 402S			NEWTON	MA	02467-1920	US		Hi mom, Happy Birthday.  Now you will remember your 80th as the year you survived the pandemic, and in style!! Love, Larisa	false		
114-4957036-1959442	49586466191026	2020-06-19T20:21:17+00:00	2020-06-19T13:21:17-07:00	2020-06-19T20:46:47+00:00	2020-06-24T06:59:59+00:00	-5	hwmqn4ktrvkfxbg@marketplace.amazon.com	Mervin Dickinson	+1 346-307-9643 ext. 70478	ABM010	Arabella Bouquets | Fields of The World Bouquet of Fresh Cut Flowers in a Free Designer Glass Vase	1	0	1	Standard	Ellen Varnum	14264 PHILLIPS CIR			ALPHARETTA	GA	30004-3470	US		Happy Birthday to my wonderful sister! From Sue	false		
113-4598087-3023411	18143384088130	2020-06-19T20:44:15+00:00	2020-06-19T13:44:15-07:00	2020-06-19T21:14:43+00:00	2020-06-24T06:59:59+00:00	-5	r02lwr1vtv7rcqr@marketplace.amazon.com	douglas thrasher	+1 346-307-9643 ext. 57476	ABM010	Purchase Now for Delivery by Tuesday | Arabella Bouquets | Fields of The World Bouquet of Fresh Cut Flowers in a Free Designer Glass Vase	1	0	1	Expedited	Angela Hollingshead	4746 E CABALLERO ST APT 2 # 2			MESA	AZ	85205-2747	US			false		
111-5960429-2070650	43863369190250	2020-06-19T21:32:11+00:00	2020-06-19T14:32:11-07:00	2020-06-19T21:59:37+00:00	2020-06-24T06:59:59+00:00	-5	4qpkprkw8ymsnz6@marketplace.amazon.com	John W. Stortz	+1 346-307-9643 ext. 37802	ABR0055	Purchase Now for Delivery by Tuesday | Arabella Farm Direct Bouquet of 12 Stems of Fresh Cut Hot Pink Roses in a Free Designer Glass Vase	1	0	1	Expedited	Tracie Pavick	1802 SE 14 th Terrace			Cape coral	Fl	33990	US			false		
114-1890250-4193052	06393980983770	2020-06-19T21:54:02+00:00	2020-06-19T14:54:02-07:00	2020-06-19T22:23:19+00:00	2020-06-24T06:59:59+00:00	-5	08xbvpwcy6sj8sk@marketplace.amazon.com	Areanah	+1 346-307-9643 ext. 45452	ABR0066	Arabella Bouquets 18 Stems of Fresh Cut White Roses in a Free Designer Glass Vase	1	0	1	Expedited	Xiomara Salas	9162 WINE CELLAR AVE			LAS VEGAS	NV	89148-4911	US			false		
112-8437730-0054646	42645254650682	2020-06-19T22:13:00+00:00	2020-06-19T15:13:00-07:00	2020-06-19T22:42:16+00:00	2020-06-24T06:59:59+00:00	-5	b95pw7vjndwvx0h@marketplace.amazon.com	Alice Jordan	+1 346-307-9643 ext. 82905	ABR0022	Purchase Now for Delivery by Tuesday | Arabella Farm Direct Bouquet of 12 Fresh Cut Pink Roses with a Free Glass Vase	1	0	1	Expedited	Carol Jordan	74 ADMIRALS WAY			ELKTON	MD	21921-7054	US		Happy 55th Anniversary!!! From Love - Bob and Alice	false		
113-5341092-3047431	21351868357546	2020-06-19T22:32:39+00:00	2020-06-19T15:32:39-07:00	2020-06-19T22:54:25+00:00	2020-06-24T06:59:59+00:00	-5	5yw91tysl9f79fb@marketplace.amazon.com	Pamela Gossett	+1 346-307-9643 ext. 79003	ABM010	Purchase Now for Delivery by Tuesday | Arabella Bouquets | Fields of The World Bouquet of Fresh Cut Flowers in a Free Designer Glass Vase	1	0	1	Expedited	Brooke Cranek	7203 SPRAGUE AVE			PASADENA	TX	77505-2621	US		Brooke, I am so sorry for your loss. I hope this brightens your day a little and please know my thoughts and prayers are with you. Love, Pam	false		
113-3906184-6565827	50430012357274	2020-06-19T23:01:30+00:00	2020-06-19T16:01:30-07:00	2020-06-19T23:27:08+00:00	2020-06-24T06:59:59+00:00	-5	km0dbx3p4tk4kvy@marketplace.amazon.com	Stephen T Brown	+1 314-282-9402 ext. 19962	ABR0055	Purchase Now for Delivery by Tuesday | Arabella Farm Direct Bouquet of 12 Stems of Fresh Cut Hot Pink Roses in a Free Designer Glass Vase	1	0	1	Expedited	Mrs. Mickey Bowen and Mrs. Robin Hart	2606 W SLIGH AVE			TAMPA	FL	33614-4342	US		Thinking about you Love Stephen and Katherine	false		
112-1821816-3015424	31680671185226	2020-06-19T23:09:31+00:00	2020-06-19T16:09:31-07:00	2020-06-19T23:29:25+00:00	2020-06-24T06:59:59+00:00	-5	gmgdzt9mfgy2hbd@marketplace.amazon.com	Linda Maxwell	+1 346-307-9643 ext. 33583	ABR0022	Purchase Now for Delivery by Tuesday | Arabella Farm Direct Bouquet of 12 Fresh Cut Pink Roses with a Free Glass Vase	1	0	1	Expedited	Robert & Teresa Pavitt	4615 N TROOST AVE			KANSAS CITY	MO	64116-1925	US		Remembering Phyllis and hoping for Teresa’s speedy recovery. Love - Jim & Linda From Linda Maxwell & Jim Fairley	false		
111-0468576-0505837	32782831649322	2020-06-19T23:14:25+00:00	2020-06-19T16:14:25-07:00	2020-06-19T23:34:20+00:00	2020-06-24T06:59:59+00:00	-5	lk85str1tkzwh7w@marketplace.amazon.com	Hemal Parikh	+1 346-307-9643 ext. 72006	ABR0022	Purchase Now for Delivery by Tuesday | Arabella Farm Direct Bouquet of 12 Fresh Cut Pink Roses with a Free Glass Vase	1	0	1	Expedited	Ketu Shah	438 VERNON ST APT 305	APT 305 OAKLAND CA 94610		OAKLAND	CA	94610-2916	US		Dear Ketu, Happy Birthday! Enjoy your day!  Hope these brighten your day! From Nehal & Hemal	false		
113-2904881-5769836	10618294492178	2020-06-19T23:10:56+00:00	2020-06-19T16:10:56-07:00	2020-06-19T23:38:38+00:00	2020-06-24T06:59:59+00:00	-5	btmdgm1nm6h6gl4@marketplace.amazon.com	gabriel gaxiola	+1 314-282-9402 ext. 41951	ABR0022	Purchase Now for Delivery by Tuesday | Arabella Farm Direct Bouquet of 12 Fresh Cut Pink Roses with a Free Glass Vase	1	0	1	Expedited	Yvonne	16682 LEIANA CT			RIVERSIDE	CA	92503-0566	US			false		
113-3790982-9312256	64531488627338	2020-06-19T23:15:12+00:00	2020-06-19T16:15:12-07:00	2020-06-19T23:45:11+00:00	2020-06-24T06:59:59+00:00	-5	btmdgm1nm6h6gl4@marketplace.amazon.com	gabriel gaxiola	+1 346-307-9643 ext. 92182	ABR0022	Purchase Now for Delivery by Tuesday | Arabella Farm Direct Bouquet of 12 Fresh Cut Pink Roses with a Free Glass Vase	1	0	1	Expedited	Trinidad Enriquez	736 ELSBERRY AVE			LA PUENTE	CA	91744-3201	US			false		
