order-id	order-item-id	purchase-date	payments-date	reporting-date	promise-date	days-past-promise	buyer-email	buyer-name	buyer-phone-number	sku	product-name	quantity-purchased	quantity-shipped	quantity-to-ship	ship-service-level	recipient-name	ship-address-1	ship-address-2	ship-address-3	ship-city	ship-state	ship-postal-code	ship-country	gift-wrap-type	gift-message-text	is-business-order	purchase-order-number	price-designation
111-3770547-9169813	40395727993666	2020-06-19T17:39:11+00:00	2020-06-19T10:39:11-07:00	2020-06-19T18:05:33+00:00	2020-06-24T06:59:59+00:00	-4	8hlkppvvt6xxtvw@marketplace.amazon.com	Doris Bogdani	+1 346-307-9643 ext. 60036	ABR0022	Purchase Now for Delivery by Monday | Arabella Farm Direct Bouquet of 12 Fresh Cut Pink Roses with a Free Glass Vase	1	0	1	Expedited	Frenk Gjoca	92 FREDERICK ST APT 5			BELLEVILLE	NJ	07109-1156	US		Dear Ermira and Frenk,  These flowers are for the new mom! Congrats e dashur, me fat dhe mbaresi per te tre juve!!  Ju perqafoj, Doris From Doris Bogdani	false		
111-6295855-6820251	15608731006474	2020-06-19T17:43:33+00:00	2020-06-19T10:43:33-07:00	2020-06-19T18:09:08+00:00	2020-06-24T06:59:59+00:00	-4	t4vswmbb47y53v1@marketplace.amazon.com	Hany sayed	+1 346-307-9643 ext. 42368	ABR012	Arabella Farm Direct Bouquet of 18 Fresh Cut Pink Roses with a Free Glass Vase	1	0	1	Expedited	Jannette P Guevarra	226 WESTLAKE AVE	DALY CITY SANFRANCISCO CALIFORNIA 94014		DALY CITY	CA	94014-1973	US		Happy birthday baby From Hany sayed	false		
113-9723468-6258663	16565234673810	2020-06-19T17:45:43+00:00	2020-06-19T10:45:43-07:00	2020-06-19T18:12:08+00:00	2020-06-24T06:59:59+00:00	-4	t4gvwvvq9k37s48@marketplace.amazon.com	Tyjane	958414083	ABM010	Arabella Bouquets | Fields of The World Bouquet of Fresh Cut Flowers in a Free Designer Glass Vase	1	0	1	Expedited	Ashkan and Anita Kashavarz	4670 EL PENON WAY			SAN DIEGO	CA	92117-2404	US		Congratulations on the new addition to the family. We love you all so very much. From Grandma Donna, Tyjane, Jayden	false		
114-3026948-4661056	38372597198354	2020-06-19T17:48:56+00:00	2020-06-19T10:48:56-07:00	2020-06-19T18:18:21+00:00	2020-06-24T06:59:59+00:00	-4	rtzqx4ht5nzd03x@marketplace.amazon.com	Israelalfonso	+1 346-307-9643 ext. 48220	ABR0066	Purchase Now for Delivery by Monday | Arabella Bouquets 18 Stems of Fresh Cut White Roses in a Free Designer Glass Vase	1	0	1	Expedited	Lisa Briskie	1161 YORK AVE			NEW YORK	NY	10065-7940	US			false		
113-0607384-4730665	22483273053738	2020-06-19T17:51:30+00:00	2020-06-19T10:51:30-07:00	2020-06-19T18:24:14+00:00	2020-06-24T06:59:59+00:00	-4	04v5rgxn0ntg4ph@marketplace.amazon.com	Bonnie	+1 314-282-9402 ext. 91392	ABM010	Arabella Bouquets | Fields of The World Bouquet of Fresh Cut Flowers in a Free Designer Glass Vase	1	0	1	Expedited	Cindy Harper	3453 POTOSI RD			ABILENE	TX	79602-8605	US		Happy Birthday Mom!! From Bonnie	false		
111-4625100-3451409	44789099429586	2020-06-19T18:14:04+00:00	2020-06-19T11:14:04-07:00	2020-06-19T18:32:14+00:00	2020-06-24T06:59:59+00:00	-4	k8z9fxghw537kgh@marketplace.amazon.com	Amy Craven	+1 314-282-9402 ext. 40934	ABM010	Arabella Bouquets | Fields of The World Bouquet of Fresh Cut Flowers in a Free Designer Glass Vase	1	0	1	Expedited	Linda Harrison Alegre Home Care	1660 S AMPHLETT BLVD STE 128			SAN MATEO	CA	94402-2524	US		You were wonderful to work with! Enjoy your retirement! From Amy Craven & Katherine Vanderhorst C & V Senior Care	false		
113-6972436-2969862	39529486374490	2020-06-19T18:24:27+00:00	2020-06-19T11:24:27-07:00	2020-06-19T18:50:34+00:00	2020-06-24T06:59:59+00:00	-4	v2kv36c9jkr4ndq@marketplace.amazon.com	Paul Clothier	+1 346-307-9643 ext. 76768	ABR001	Arabella Bouquets 12 Stems of Fresh Cut Red Roses in a Free Designer Glass Vase	1	0	1	Expedited	Alice Gaber	12990 SKYLINE BLVD			WOODSIDE	CA	94062-4559	US		Dearest Alice, Wishing you a wonderful birthday!  With all my love, Paul	false		
113-1344487-3456238	61881585846746	2020-06-19T18:39:32+00:00	2020-06-19T11:39:32-07:00	2020-06-19T19:07:56+00:00	2020-06-24T06:59:59+00:00	-4	dtdqmxy9ymtn4ml@marketplace.amazon.com	Marcus Brown	+1 314-282-9402 ext. 99266	ABR0055	Arabella Farm Direct Bouquet of 12 Stems of Fresh Cut Hot Pink Roses in a Free Designer Glass Vase	1	0	1	Expedited	Ajilé Owens	40 CARRIE ST			ALLENHURST	GA	31301-3605	US		Just Because :) From Marcus	false		
113-7888348-8959417	68256543902554	2020-06-19T18:40:00+00:00	2020-06-19T11:40:00-07:00	2020-06-19T19:10:22+00:00	2020-06-24T06:59:59+00:00	-4	ny93c27zsgfycm4@marketplace.amazon.com	Laurinda Lowenstein	+1 346-307-9643 ext. 79915	ABR014	Arabella Bouquets 18 Stems of Fresh Cut White Roses in a Free Designer Glass Vase	2	0	2	Expedited	laurinda Douglas	39 Main Street			Seal Harbor	ME	04675	US			false		
113-3703605-7321855	38979540223746	2020-06-15T20:00:12+00:00	2020-06-15T13:00:12-07:00	2020-06-19T19:54:14+00:00	2020-06-23T06:59:59+00:00	-3	prpwrl38tmjx0gd@marketplace.amazon.com	AVONNE RUIZ	+1 346-307-9643 ext. 50414	ABR012	Arabella Farm Direct Bouquet of 18 Fresh Cut Pink Roses with a Free Glass Vase	1	0	1	SecondDay	Beverly V. Brown	7025 MULE TEAM WAY			ROSEVILLE	CA	95747-8070	US		My Dear 91 year faithful friend:  Happy Birthday.  I  am sending flowers so I can love on you from afar.... one of my most precious friends and I think of you often.  We have had some good times haven't we.  Love Avonne	false		
113-0674954-3128245	48801804503546	2020-06-19T19:32:40+00:00	2020-06-19T12:32:40-07:00	2020-06-19T20:00:51+00:00	2020-06-24T06:59:59+00:00	-4	hdnzqvxp5bwx60s@marketplace.amazon.com	Daniel V. Nieroda	+1 314-282-9402 ext. 02631	ABR0066	Arabella Bouquets 18 Stems of Fresh Cut White Roses in a Free Designer Glass Vase	1	0	1	Expedited	Sirina Kamieniecki	584 ROCKAWAY VALLEY RD			BOONTON TOWNSHIP	NJ	07005-9170	US			false		
114-1596292-9709042	25750669379426	2020-06-19T19:48:29+00:00	2020-06-19T12:48:29-07:00	2020-06-19T20:18:22+00:00	2020-06-24T06:59:59+00:00	-4	9lsqlg8v5fll0nd@marketplace.amazon.com	Bob Grossi		ABR0022	Purchase Now for Delivery by Tuesday | Arabella Farm Direct Bouquet of 12 Fresh Cut Pink Roses with a Free Glass Vase	1	0	1	Expedited	BOB GROSSI	41 RIDGE ROAD			ROCKWOOD	ME	04478	US			false		
111-2080238-8261050	34687101242890	2020-06-19T20:12:52+00:00	2020-06-19T13:12:52-07:00	2020-06-19T20:42:34+00:00	2020-06-24T06:59:59+00:00	-4	n1j579ynfsvdt3q@marketplace.amazon.com	Jennipher Bhatti	+1 314-282-9402 ext. 57331	ABM010	Arabella Bouquets | Fields of The World Bouquet of Fresh Cut Flowers in a Free Designer Glass Vase	1	0	1	Expedited	Irene Molloy	2980 Park Avenue Apt# 6F			Bronx	NY	10451	US		To dearest Irene He heals the brokenhearted and binds up their wounds. Psalm 147:3 From Jennipher Bhatti From Jennipher Bhatti	false		
114-6477397-1017868	40621353020570	2020-06-19T20:17:34+00:00	2020-06-19T13:17:34-07:00	2020-06-19T20:45:27+00:00	2020-06-24T06:59:59+00:00	-4	m5qf1qgv5znhgt7@marketplace.amazon.com	Larisa Goldin	+1 314-282-9402 ext. 48013	ABR0055	Purchase Now for Delivery by Tuesday | Arabella Farm Direct Bouquet of 12 Stems of Fresh Cut Hot Pink Roses in a Free Designer Glass Vase	1	0	1	Expedited	Nataly and Vitaly Goldin	79 FLORENCE ST 402S			NEWTON	MA	02467-1920	US		Hi mom, Happy Birthday.  Now you will remember your 80th as the year you survived the pandemic, and in style!! Love, Larisa	false		
114-4957036-1959442	49586466191026	2020-06-19T20:21:17+00:00	2020-06-19T13:21:17-07:00	2020-06-19T20:46:47+00:00	2020-06-24T06:59:59+00:00	-4	hwmqn4ktrvkfxbg@marketplace.amazon.com	Mervin Dickinson	+1 346-307-9643 ext. 70478	ABM010	Arabella Bouquets | Fields of The World Bouquet of Fresh Cut Flowers in a Free Designer Glass Vase	1	0	1	Standard	Ellen Varnum	14264 PHILLIPS CIR			ALPHARETTA	GA	30004-3470	US		Happy Birthday to my wonderful sister! From Sue	false		
113-4598087-3023411	18143384088130	2020-06-19T20:44:15+00:00	2020-06-19T13:44:15-07:00	2020-06-19T21:14:43+00:00	2020-06-24T06:59:59+00:00	-4	r02lwr1vtv7rcqr@marketplace.amazon.com	douglas thrasher	+1 346-307-9643 ext. 57476	ABM010	Purchase Now for Delivery by Tuesday | Arabella Bouquets | Fields of The World Bouquet of Fresh Cut Flowers in a Free Designer Glass Vase	1	0	1	Expedited	Angela Hollingshead	4746 E CABALLERO ST APT 2 # 2			MESA	AZ	85205-2747	US			false		
111-5960429-2070650	43863369190250	2020-06-19T21:32:11+00:00	2020-06-19T14:32:11-07:00	2020-06-19T21:59:37+00:00	2020-06-24T06:59:59+00:00	-4	4qpkprkw8ymsnz6@marketplace.amazon.com	John W. Stortz	+1 346-307-9643 ext. 37802	ABR0055	Purchase Now for Delivery by Tuesday | Arabella Farm Direct Bouquet of 12 Stems of Fresh Cut Hot Pink Roses in a Free Designer Glass Vase	1	0	1	Expedited	Tracie Pavick	1802 SE 14 th Terrace			Cape coral	Fl	33990	US			false		
114-1890250-4193052	06393980983770	2020-06-19T21:54:02+00:00	2020-06-19T14:54:02-07:00	2020-06-19T22:23:19+00:00	2020-06-24T06:59:59+00:00	-4	08xbvpwcy6sj8sk@marketplace.amazon.com	Areanah	+1 346-307-9643 ext. 45452	ABR0066	Arabella Bouquets 18 Stems of Fresh Cut White Roses in a Free Designer Glass Vase	1	0	1	Expedited	Xiomara Salas	9162 WINE CELLAR AVE			LAS VEGAS	NV	89148-4911	US			false		
112-8437730-0054646	42645254650682	2020-06-19T22:13:00+00:00	2020-06-19T15:13:00-07:00	2020-06-19T22:42:16+00:00	2020-06-24T06:59:59+00:00	-4	b95pw7vjndwvx0h@marketplace.amazon.com	Alice Jordan	+1 346-307-9643 ext. 82905	ABR0022	Purchase Now for Delivery by Tuesday | Arabella Farm Direct Bouquet of 12 Fresh Cut Pink Roses with a Free Glass Vase	1	0	1	Expedited	Carol Jordan	74 ADMIRALS WAY			ELKTON	MD	21921-7054	US		Happy 55th Anniversary!!! From Love - Bob and Alice	false		
113-5341092-3047431	21351868357546	2020-06-19T22:32:39+00:00	2020-06-19T15:32:39-07:00	2020-06-19T22:54:25+00:00	2020-06-24T06:59:59+00:00	-4	5yw91tysl9f79fb@marketplace.amazon.com	Pamela Gossett	+1 346-307-9643 ext. 79003	ABM010	Purchase Now for Delivery by Tuesday | Arabella Bouquets | Fields of The World Bouquet of Fresh Cut Flowers in a Free Designer Glass Vase	1	0	1	Expedited	Brooke Cranek	7203 SPRAGUE AVE			PASADENA	TX	77505-2621	US		Brooke, I am so sorry for your loss. I hope this brightens your day a little and please know my thoughts and prayers are with you. Love, Pam	false		
113-3906184-6565827	50430012357274	2020-06-19T23:01:30+00:00	2020-06-19T16:01:30-07:00	2020-06-19T23:27:08+00:00	2020-06-24T06:59:59+00:00	-4	km0dbx3p4tk4kvy@marketplace.amazon.com	Stephen T Brown	+1 314-282-9402 ext. 19962	ABR0055	Purchase Now for Delivery by Tuesday | Arabella Farm Direct Bouquet of 12 Stems of Fresh Cut Hot Pink Roses in a Free Designer Glass Vase	1	0	1	Expedited	Mrs. Mickey Bowen and Mrs. Robin Hart	2606 W SLIGH AVE			TAMPA	FL	33614-4342	US		Thinking about you Love Stephen and Katherine	false		
112-1821816-3015424	31680671185226	2020-06-19T23:09:31+00:00	2020-06-19T16:09:31-07:00	2020-06-19T23:29:25+00:00	2020-06-24T06:59:59+00:00	-4	gmgdzt9mfgy2hbd@marketplace.amazon.com	Linda Maxwell	+1 346-307-9643 ext. 33583	ABR0022	Purchase Now for Delivery by Tuesday | Arabella Farm Direct Bouquet of 12 Fresh Cut Pink Roses with a Free Glass Vase	1	0	1	Expedited	Robert & Teresa Pavitt	4615 N TROOST AVE			KANSAS CITY	MO	64116-1925	US		Remembering Phyllis and hoping for Teresa’s speedy recovery. Love - Jim & Linda From Linda Maxwell & Jim Fairley	false		
111-0468576-0505837	32782831649322	2020-06-19T23:14:25+00:00	2020-06-19T16:14:25-07:00	2020-06-19T23:34:20+00:00	2020-06-24T06:59:59+00:00	-4	lk85str1tkzwh7w@marketplace.amazon.com	Hemal Parikh	+1 346-307-9643 ext. 72006	ABR0022	Purchase Now for Delivery by Tuesday | Arabella Farm Direct Bouquet of 12 Fresh Cut Pink Roses with a Free Glass Vase	1	0	1	Expedited	Ketu Shah	438 VERNON ST APT 305	APT 305 OAKLAND CA 94610		OAKLAND	CA	94610-2916	US		Dear Ketu, Happy Birthday! Enjoy your day!  Hope these brighten your day! From Nehal & Hemal	false		
113-2904881-5769836	10618294492178	2020-06-19T23:10:56+00:00	2020-06-19T16:10:56-07:00	2020-06-19T23:38:38+00:00	2020-06-24T06:59:59+00:00	-4	btmdgm1nm6h6gl4@marketplace.amazon.com	gabriel gaxiola	+1 314-282-9402 ext. 41951	ABR0022	Purchase Now for Delivery by Tuesday | Arabella Farm Direct Bouquet of 12 Fresh Cut Pink Roses with a Free Glass Vase	1	0	1	Expedited	Yvonne	16682 LEIANA CT			RIVERSIDE	CA	92503-0566	US			false		
113-3790982-9312256	64531488627338	2020-06-19T23:15:12+00:00	2020-06-19T16:15:12-07:00	2020-06-19T23:45:11+00:00	2020-06-24T06:59:59+00:00	-4	btmdgm1nm6h6gl4@marketplace.amazon.com	gabriel gaxiola	+1 346-307-9643 ext. 92182	ABR0022	Purchase Now for Delivery by Tuesday | Arabella Farm Direct Bouquet of 12 Fresh Cut Pink Roses with a Free Glass Vase	1	0	1	Expedited	Trinidad Enriquez	736 ELSBERRY AVE			LA PUENTE	CA	91744-3201	US			false		
111-6607114-5969016	41920051380842	2020-06-19T23:38:54+00:00	2020-06-19T16:38:54-07:00	2020-06-19T23:57:01+00:00	2020-06-24T06:59:59+00:00	-4	lzbbq9kb0shqb8h@marketplace.amazon.com	Jake Fallucca	+1 346-307-9643 ext. 13224	ABR0022	Purchase Now for Delivery by Tuesday | Arabella Farm Direct Bouquet of 12 Fresh Cut Pink Roses with a Free Glass Vase	1	0	1	Expedited	Marissa Jernigan	544 PINTAIL CIR			AUBURNDALE	FL	33823-8367	US		To my beautiful girlfriend,  The first time I met you, you caught my eye and stole my heart. You're a blessing in my life, and you're a gift to this world.  Thank you for trying.  Love you always, Jake.	false		
113-4834059-5055402	34529629882066	2020-06-20T00:22:01+00:00	2020-06-19T17:22:01-07:00	2020-06-20T00:46:34+00:00	2020-06-24T06:59:59+00:00	-4	r0tglgk1sk61pmh@marketplace.amazon.com	R Pignatore	+1 346-307-9643 ext. 44699	ABR011	Purchase Now for Delivery by Tuesday | Arabella Bouquets 18 Stems of Fresh Cut Red Roses in a Free Glass Vase	1	0	1	Expedited	R Pignatore	29 LIBERTY LN			FRANKLIN	NJ	07416-2158	US			false		
113-3862772-9925807	50893791898346	2020-06-20T01:31:53+00:00	2020-06-19T18:31:53-07:00	2020-06-20T01:32:53+00:00	2020-06-24T06:59:59+00:00	-4	tvf3ppgz3vs8sz7@marketplace.amazon.com	Jose Reyes	+1 346-307-9643 ext. 57462	ABR0055	Purchase Now for Delivery by Tuesday | Arabella Farm Direct Bouquet of 12 Stems of Fresh Cut Hot Pink Roses in a Free Designer Glass Vase	1	0	1	Expedited	Dalia Hernandez	432 FISHEL AVENUE EXT			RIVERHEAD	NY	11901-4711	US			false		
111-3573862-0090622	12406356090450	2020-06-20T01:16:58+00:00	2020-06-19T18:16:58-07:00	2020-06-20T01:41:09+00:00	2020-06-24T06:59:59+00:00	-4	5293tnv0gn6nlnm@marketplace.amazon.com	Anil Ibrahim	+1 314-282-9402 ext. 78668	ABR0022	Purchase Now for Delivery by Tuesday | Arabella Farm Direct Bouquet of 12 Fresh Cut Pink Roses with a Free Glass Vase	1	0	1	Expedited	yasmin alhussain	4521 VISTA LARGO			TORRANCE	CA	90505-6357	US		If you only knew how much those little moments with you mattered to me From Beechara	false		
112-5530690-7252216	68044953627522	2020-06-20T01:25:15+00:00	2020-06-19T18:25:15-07:00	2020-06-20T01:55:46+00:00	2020-06-24T06:59:59+00:00	-4	jwh26ylhwq0v4fx@marketplace.amazon.com	Lyle kirkpatrick	+1 346-307-9643 ext. 49216	ABR0055	Purchase Now for Delivery by Tuesday | Arabella Farm Direct Bouquet of 12 Stems of Fresh Cut Hot Pink Roses in a Free Designer Glass Vase	1	0	1	Expedited	Pam and Jim Austin	347 CASTNER FALLS RD			CASCADE	MT	59421-8105	US			false		
113-9230462-7061802	13041244803050	2020-06-20T01:45:56+00:00	2020-06-19T18:45:56-07:00	2020-06-20T02:13:35+00:00	2020-06-24T06:59:59+00:00	-4	ckj42836v8hymj0@marketplace.amazon.com	Roxanne Budd	+1 346-307-9643 ext. 54940	ABR004	Arabella Farm Direct Bouquet of 12 Fresh Cut Yellow Roses with a Free Glass Vase	1	0	1	Expedited	Eric Tondreau	107 SALT GRASS CIR			RICHMOND HILL	GA	31324-5675	US		Enjoy your gift! Hope these make you smile. Sorry I missed your surgery date. Hope you feel better soon. Love and best wishes. From Roxanne Budd and family	false		
112-0590551-2407444	18080684002162	2020-06-20T01:56:32+00:00	2020-06-19T18:56:32-07:00	2020-06-20T02:22:37+00:00	2020-06-24T06:59:59+00:00	-4	pyjtxq5xpj317k2@marketplace.amazon.com	Muhammad Munir	+1 346-307-9643 ext. 62680	ABR001	Purchase Now for Delivery by Tuesday | Arabella Bouquets 12 Stems of Fresh Cut Red Roses in a Free Designer Glass Vase	1	0	1	Expedited	Sami Ullah Rehman	1200 LAKE FALLS TER			CARROLLTON	TX	75010-4314	US			true		Business Price
112-1110165-4117846	24640644773554	2020-06-20T01:56:37+00:00	2020-06-19T18:56:37-07:00	2020-06-20T02:26:24+00:00	2020-06-24T06:59:59+00:00	-4	3pk0tdb859jp0sy@marketplace.amazon.com	Tristen	+1 346-307-9643 ext. 67159	ABR011	Purchase Now for Delivery by Tuesday | Arabella Bouquets 18 Stems of Fresh Cut Red Roses in a Free Glass Vase	1	0	1	Expedited	Megan Vinson	350 N WESLEY DR APT 1337			LEAGUE CITY	TX	77573-7364	US		Hope you feel better. Also, I am sorry. Please give me another chance. From TD	false		
112-9113654-5257841	35206991816962	2020-06-20T02:47:34+00:00	2020-06-19T19:47:34-07:00	2020-06-20T03:17:44+00:00	2020-06-24T06:59:59+00:00	-4	89dk8q7dpztr9fs@marketplace.amazon.com	Michael Higgins	+1 346-307-9643 ext. 62187	ABR0055	Purchase Now for Delivery by Tuesday | Arabella Farm Direct Bouquet of 12 Stems of Fresh Cut Hot Pink Roses in a Free Designer Glass Vase	1	0	1	Expedited	Mary McCabe	13898 SW RIDGE PL			TERREBONNE	OR	97760-7747	US			false		
112-0378164-7207468	26147289879002	2020-06-20T03:07:40+00:00	2020-06-19T20:07:40-07:00	2020-06-20T03:18:56+00:00	2020-06-24T06:59:59+00:00	-4	0vvg5bcw2096stg@marketplace.amazon.com	Kristel Kubart	+1 314-282-9402 ext. 62653	ABR0022	Purchase Now for Delivery by Tuesday | Arabella Farm Direct Bouquet of 12 Fresh Cut Pink Roses with a Free Glass Vase	1	0	1	Expedited	Lynn DiAndrea	79 ALPINE WAY			HUNTINGTON STATION	NY	11746-4610	US		Thinking of you and your family Lynn.  We're so sorry for the loss of your grandmother.  Sending you love!  Love,   Kristel and Jason From Kristel Kubart	false		
111-8075488-9475455	12984469241290	2020-06-20T03:54:56+00:00	2020-06-19T20:54:56-07:00	2020-06-20T03:55:47+00:00	2020-06-24T06:59:59+00:00	-4	3nk11cqrkdrjl19@marketplace.amazon.com	Cynthia Zurolo	+1 346-307-9643 ext. 48378	ABM002	Purchase Now for Delivery by Tuesday | Arabella Bouquets Fresh Cut White Calla Lilies in a Free Designer Glass Vase	1	0	1	Standard	Cheryl Foland	6476 RED WINERY RD			GEYSERVILLE	CA	95441-9577	US		Dear Cheryl, Happiest of Birthdays to You! Love, Cynthia	false		
113-3465746-1457806	33326852223522	2020-06-20T03:37:34+00:00	2020-06-19T20:37:34-07:00	2020-06-20T04:15:32+00:00	2020-06-24T06:59:59+00:00	-4	0xj9d1gr97dd7fn@marketplace.amazon.com	Jake	+1 346-307-9643 ext. 38900	ABR001	Purchase Now for Delivery by Tuesday | Arabella Bouquets 12 Stems of Fresh Cut Red Roses in a Free Designer Glass Vase	1	0	1	Expedited	Eternity McDonald	1891 COUNTY ROAD 502			RIPLEY	MS	38663-8336	US		For all the times I didn't buy you flowers. I hope you'll accept these just because I'm in love with you. From Jake	false		
113-7402589-7600230	66143995705346	2020-06-20T04:11:20+00:00	2020-06-19T21:11:20-07:00	2020-06-20T04:18:57+00:00	2020-06-24T06:59:59+00:00	-4	xdmcgvd3vj3bh55@marketplace.amazon.com	Rose Vanessa Porcenat	+1 346-307-9643 ext. 34904	ABR001	Purchase Now for Delivery by Tuesday | Arabella Bouquets 12 Stems of Fresh Cut Red Roses in a Free Designer Glass Vase	1	0	1	Expedited	Rose Vanessa Porcenat	CHEYENNE 52405 CHEYENNE CT # 1			FORT HOOD	TX	76544-1006	US		Just because I hate u !  Just because I love ur dirk !  Just because ur my headache !  I hate u monkey 🐵 lol ... see u soon.. From 💋	false		
113-7673144-4857065	31073976603218	2020-06-20T04:47:31+00:00	2020-06-19T21:47:31-07:00	2020-06-20T05:15:39+00:00	2020-06-24T06:59:59+00:00	-4	5mtmbg9r5wc0j54@marketplace.amazon.com	Brinda Green	+1 346-307-9643 ext. 36857	ABR012	Purchase Now for Delivery by Tuesday | Arabella Farm Direct Bouquet of 18 Fresh Cut Pink Roses with a Free Glass Vase	1	0	1	Expedited	Hollie Packer	501 E HUNTZINGER RD			SELAH	WA	98942-9712	US		We love you!!! Feel better soon!! Love: Teisha and Brinda From Teisha Bunn and Brinda Green	false		
112-0974163-4716232	10266455937106	2020-06-20T04:57:17+00:00	2020-06-19T21:57:17-07:00	2020-06-20T05:27:05+00:00	2020-06-24T06:59:59+00:00	-4	2jt4yhmcc3qbf1r@marketplace.amazon.com	Kyndall	+1 346-307-9643 ext. 65138	ABR0055	Purchase Now for Delivery by Tuesday | Arabella Farm Direct Bouquet of 12 Stems of Fresh Cut Hot Pink Roses in a Free Designer Glass Vase	1	0	1	Expedited	Kyndall Brown	5107 INAGLEN WAY			LOS ANGELES	CALIFORNIA	90043-1532	US			false		
113-0349827-9360223	36269258610274	2020-06-19T15:59:45+00:00	2020-06-19T08:59:45-07:00	2020-06-20T05:34:14+00:00	2020-06-24T06:59:59+00:00	-4	970lch0x79xfz5b@marketplace.amazon.com	Robert Field	+1 346-307-9643 ext. 92917	ABR0055	Purchase Now for Delivery by Monday | Arabella Farm Direct Bouquet of 12 Stems of Fresh Cut Hot Pink Roses in a Free Designer Glass Vase	1	0	1	Expedited	Robert Field	5209 COYOTE CREEK RD			WOLF CREEK	OR	97497-9537	US			false		
114-6894528-6288265	31439372242234	2020-06-20T08:20:24+00:00	2020-06-20T01:20:24-07:00	2020-06-20T08:46:24+00:00	2020-06-24T06:59:59+00:00	-4	vkdklrbblspyl0l@marketplace.amazon.com	william	+1 346-307-9643 ext. 05834	ABR001	Purchase Now for Delivery by Tuesday | Arabella Bouquets 12 Stems of Fresh Cut Red Roses in a Free Designer Glass Vase	1	0	1	Expedited	Jane Hoffman	251 S TRUMAN RD BLDG			JASPER	IN	47546-9768	US		Hi Jane,  I love you to the moon and back ,now and forever honey pot. I want you to know that i would always be by your side through every step of this journey holding your hands confidently because you are mine forever.David	false		
111-1883640-9199464	60905927287482	2020-06-20T09:23:40+00:00	2020-06-20T02:23:40-07:00	2020-06-20T09:52:59+00:00	2020-06-24T06:59:59+00:00	-4	y8z0b5j73rrbb6v@marketplace.amazon.com	george thompson	+1 346-307-9643 ext. 65749	ABR001	Purchase Now for Delivery by Tuesday | Arabella Bouquets 12 Stems of Fresh Cut Red Roses in a Free Designer Glass Vase	1	0	1	Expedited	irene thompson	3602 RUSTLING OAKS			SAN ANTONIO	TX	78259-3627	US			false		
112-1727062-7931445	47968858943482	2020-06-20T10:01:57+00:00	2020-06-20T03:01:57-07:00	2020-06-20T10:41:46+00:00	2020-06-24T06:59:59+00:00	-4	gzpfk6pbmmqhrpz@marketplace.amazon.com	Bernardo	+1 346-307-9643 ext. 19512	ABM002	Purchase Now for Delivery by Tuesday | Arabella Bouquets Fresh Cut White Calla Lilies in a Free Designer Glass Vase	1	0	1	Expedited	Maria Isabel Rodriguez	234 AZALEA WAY			NEW BRAUNFELS	TX	78132-4881	US		Te quiero mucho Mamá ! Espero te gusten! From Bernie :)	false		
114-5400508-0653011	13031557782162	2020-06-20T11:23:00+00:00	2020-06-20T04:23:00-07:00	2020-06-20T11:52:57+00:00	2020-06-24T06:59:59+00:00	-4	z8bpg5qsxrg8h8p@marketplace.amazon.com	Jerry White	+1 346-307-9643 ext. 63655	ABR004	Arabella Farm Direct Bouquet of 12 Fresh Cut Yellow Roses with a Free Glass Vase	1	0	1	Expedited	Gail Roberts	6531 SE FEDERAL HWY APT D107			STUART	FL	34997-8331	US			false		
113-2727122-7169808	28231257332162	2020-06-20T11:27:11+00:00	2020-06-20T04:27:11-07:00	2020-06-20T11:57:41+00:00	2020-06-24T06:59:59+00:00	-4	ms4tcdph0dc29b3@marketplace.amazon.com	George Sarbeng	+1 314-282-9402 ext. 88607	ABR0055	Purchase Now for Delivery by Tuesday | Arabella Farm Direct Bouquet of 12 Stems of Fresh Cut Hot Pink Roses in a Free Designer Glass Vase	1	0	1	Expedited	Jennifer Bayes	657 OLEANDER CIR			VIRGINIA BEACH	VA	23464-4224	US			false		
