order-id	order-item-id	purchase-date	payments-date	reporting-date	promise-date	days-past-promise	buyer-email	buyer-name	buyer-phone-number	sku	product-name	quantity-purchased	quantity-shipped	quantity-to-ship	ship-service-level	recipient-name	ship-address-1	ship-address-2	ship-address-3	ship-city	ship-state	ship-postal-code	ship-country	gift-wrap-type	gift-message-text	is-business-order	purchase-order-number	price-designation
113-7888348-8959417	68256543902554	2020-06-19T18:40:00+00:00	2020-06-19T11:40:00-07:00	2020-06-19T19:10:22+00:00	2020-06-24T06:59:59+00:00	-3	ny93c27zsgfycm4@marketplace.amazon.com	Laurinda Lowenstein	+1 346-307-9643 ext. 79915	ABR014	Arabella Bouquets 18 Stems of Fresh Cut White Roses in a Free Designer Glass Vase	2	1	1	Expedited	laurinda Douglas	39 Main Street			Seal Harbor	ME	04675	US			false		
114-6500036-8138633	61264788096442	2020-06-20T14:03:30+00:00	2020-06-20T07:03:30-07:00	2020-06-20T14:06:23+00:00	2020-06-24T06:59:59+00:00	-3	lqvdnkj56t145nq@marketplace.amazon.com	Ann P Ferrari	+1 314-282-9402 ext. 04515	ABR0022	Purchase Now for Delivery by Wednesday | Arabella Farm Direct Bouquet of 12 Fresh Cut Pink Roses with a Free Glass Vase	1	0	1	Expedited	Patricia McParlane	15425 FAIRLANE DR			LIVONIA	MI	48154-2639	US		Thinking of you and the girls.  You have experienced sorrow and loss in the last year with the death of your Mother and Terry.  I am sorry, that is enormous grief to process. Love, Ann From Ann P Ferrari	false		
114-5365863-8209049	02261993624834	2020-06-20T13:43:20+00:00	2020-06-20T06:43:20-07:00	2020-06-20T14:09:27+00:00	2020-06-24T06:59:59+00:00	-3	b9ygyt1yd317r94@marketplace.amazon.com	Thomas W Nicolas	+1 346-307-9643 ext. 19364	ABM0033	Purchase Now for Delivery by Tuesday | Arabella Farm Direct Bouquet of Fresh Cut White Hydrangea with a Free Glass Vase	1	0	1	Expedited	The Cummins Family	2552 TREVILIAN WAY			LOUISVILLE	KY	40205-2357	US			false		
112-6544803-9591434	63317443494482	2020-06-20T13:41:23+00:00	2020-06-20T06:41:23-07:00	2020-06-20T14:09:41+00:00	2020-06-24T06:59:59+00:00	-3	r9pn53v2pqf2hw9@marketplace.amazon.com	Paola macias	+1 314-282-9402 ext. 17939	ABR0022	Purchase Now for Delivery by Wednesday | Arabella Farm Direct Bouquet of 12 Fresh Cut Pink Roses with a Free Glass Vase	1	0	1	Expedited	Angelica Garcia	21520 SUNSET AVE			WARREN	MI	48091-4683	US		Espero que te recuperes pronto !  Te queremos mucho  Paola Diego Ricardo From Paola macias	false		
113-0320854-7445065	04935039974090	2020-06-20T14:22:35+00:00	2020-06-20T07:22:35-07:00	2020-06-20T14:49:04+00:00	2020-06-24T06:59:59+00:00	-3	shnzslqsy17ykqs@marketplace.amazon.com	Susan R. Willauer	+1 314-282-9402 ext. 46410	ABM0033	Purchase Now for Delivery by Tuesday | Arabella Farm Direct Bouquet of Fresh Cut White Hydrangea with a Free Glass Vase	1	0	1	Expedited	Whitney Sale	809 CARNOUSTIE DR			VENICE	FL	34293-4344	US		Enjoy your gift! Just wanted to send some happy thoughts your way today. Please know we hold you in our hearts and prayers. Love you.   Susan and Walt From Susan R. Willauer	false		
114-3447949-9391422	28214231765490	2020-06-20T14:31:05+00:00	2020-06-20T07:31:05-07:00	2020-06-20T15:01:21+00:00	2020-06-24T06:59:59+00:00	-3	gsgt4ngxgrg5mrk@marketplace.amazon.com	Edward S. Miller	+1 346-307-9643 ext. 25264	ABM010	Arabella Bouquets | Fields of The World Bouquet of Fresh Cut Flowers in a Free Designer Glass Vase	1	0	1	Expedited	Edward S. Miller (for Ed)	2510 VIRGINIA AVE NW # 604-N 604N			WASHINGTON	DC	20037-1902	US			false		
113-8292256-1030626	68136323430034	2020-06-20T14:39:31+00:00	2020-06-20T07:39:31-07:00	2020-06-20T15:08:18+00:00	2020-06-24T06:59:59+00:00	-3	g9pqw2nsy1hgfbs@marketplace.amazon.com	Thomas breining	+1 346-307-9643 ext. 32432	ABR013	Purchase Now for Delivery by Wednesday | Arabella Farm Direct Bouquet of 18 Fresh Cut Yellow Roses with a Free Glass Vase	1	0	1	Expedited	Thomas breining	5741 BELMAR DR			DAYTON	OH	45424-4209	US		Peaks and valleys I love you Alexis. From Thomas breining	false		
113-9739182-5595402	10875395977386	2020-06-20T14:46:10+00:00	2020-06-20T07:46:10-07:00	2020-06-20T15:16:52+00:00	2020-06-24T06:59:59+00:00	-3	5vdr590bjztny9p@marketplace.amazon.com	Terel Brown	+1 346-307-9643 ext. 84530	ABR0055	Arabella Farm Direct Bouquet of 12 Stems of Fresh Cut Hot Pink Roses in a Free Designer Glass Vase	1	0	1	Expedited	Carmen Caraballo	1201 COLOMBO AVE APT 7107			SIERRA VISTA	AZ	85635-5314	US			false		
111-9370938-2309032	58274246433498	2020-06-20T14:58:43+00:00	2020-06-20T07:58:43-07:00	2020-06-20T15:23:27+00:00	2020-06-24T06:59:59+00:00	-3	1m52hl3clsndks6@marketplace.amazon.com	Nelli	+1 314-282-9402 ext. 79624	ABR0022	Purchase Now for Delivery by Wednesday | Arabella Farm Direct Bouquet of 12 Fresh Cut Pink Roses with a Free Glass Vase	1	0	1	Expedited	Lina Rozum	5211 BERKELEY VIEW CIR			CHARLOTTE	NC	28277-8700	US		Happy Birthday Lina! From Pavlovich’s	false		
114-8151709-7053814	29654049019218	2020-06-20T14:58:49+00:00	2020-06-20T07:58:49-07:00	2020-06-20T15:24:37+00:00	2020-06-24T06:59:59+00:00	-3	k4kf1z8phdyqjy9@marketplace.amazon.com	S. Priyadarsini	+1 346-307-9643 ext. 18715	ABR0055	Arabella Farm Direct Bouquet of 12 Stems of Fresh Cut Hot Pink Roses in a Free Designer Glass Vase	1	0	1	Expedited	Carol Joffer	29419 LANDMARK RD	BOX 33		BROOTEN	MN	56316-9708	US			false		
114-2548088-2483469	07718527776890	2020-06-20T15:30:10+00:00	2020-06-20T08:30:10-07:00	2020-06-20T15:59:04+00:00	2020-06-24T06:59:59+00:00	-3	qhvtk7w4w9whch0@marketplace.amazon.com	zuleika paniagua	+1 346-307-9643 ext. 94610	ABR0022	Purchase Now for Delivery by Wednesday | Arabella Farm Direct Bouquet of 12 Fresh Cut Pink Roses with a Free Glass Vase	1	0	1	Expedited	Zuleika Paniagua-Quenga	8444 E FOOTHILL ST			ANAHEIM	CA	92808-1206	US			false		
111-4750821-6125843	62268838419754	2020-06-20T16:25:18+00:00	2020-06-20T09:25:18-07:00	2020-06-20T16:50:31+00:00	2020-06-24T06:59:59+00:00	-3	hj256yxgnvq611t@marketplace.amazon.com	Keiko Furuta	+1 346-307-9643 ext. 61931	ABM010	Arabella Bouquets | Fields of The World Bouquet of Fresh Cut Flowers in a Free Designer Glass Vase	1	0	1	Expedited	Kiyoshi and Sumie Furuta	741 HILDEBRAND CIR			FOLSOM	CA	95630-6304	US		Happy belated Fathers and Mothers Day!! From Taku and Keiko	false		
112-9389526-3893805	13898587684810	2020-06-20T16:41:00+00:00	2020-06-20T09:41:00-07:00	2020-06-20T17:11:19+00:00	2020-06-24T06:59:59+00:00	-3	4jh7fyvk6qc1925@marketplace.amazon.com	Victoria McLaren	+1 346-307-9643 ext. 88255	ABM010	Arabella Bouquets | Fields of The World Bouquet of Fresh Cut Flowers in a Free Designer Glass Vase	1	0	1	Expedited	Victoria McLaren	700 GARRISON CT APT 303-C			NEW CASTLE	DE	19720-4473	US		Happy Father’s Day! From Victoria McLaren	false		
111-1482262-9241809	00579409608978	2020-06-20T17:40:12+00:00	2020-06-20T10:40:12-07:00	2020-06-20T18:05:28+00:00	2020-06-24T06:59:59+00:00	-3	y920d19yygdngwg@marketplace.amazon.com	virgil jungwirth	+1 346-307-9643 ext. 49511	ABR0022	Purchase Now for Delivery by Wednesday | Arabella Farm Direct Bouquet of 12 Fresh Cut Pink Roses with a Free Glass Vase	1	0	1	Expedited	Virgil JUNGWIRTH	3401 OKLAHOMA RD			BINGEN	WA	98605-9080	US			false		
111-3025755-9776216	32051342882058	2020-06-20T17:53:04+00:00	2020-06-20T10:53:04-07:00	2020-06-20T18:18:14+00:00	2020-06-24T06:59:59+00:00	-3	kl1vl0z5r609kch@marketplace.amazon.com	Janis Bauer	+1 210-728-4548 ext. 18469	ABR0022	Purchase Now for Delivery by Wednesday | Arabella Farm Direct Bouquet of 12 Fresh Cut Pink Roses with a Free Glass Vase	1	0	1	Expedited	Joetta Bauer	968 MARTINGALE DR			BARTLETT	IL	60103-5620	US		Congratulations on your soon to be new baby girl!!! I love you so much 💖😘🤗 From Janis Bauer	false		
113-7177982-7152211	38500830125146	2020-06-20T18:34:26+00:00	2020-06-20T11:34:26-07:00	2020-06-20T18:58:00+00:00	2020-06-24T06:59:59+00:00	-3	5ywkncp7824p2l7@marketplace.amazon.com	Mary Ardyne Rodriguez	+1 346-307-9643 ext. 42100	ABR0022	Purchase Now for Delivery by Wednesday | Arabella Farm Direct Bouquet of 12 Fresh Cut Pink Roses with a Free Glass Vase	1	0	1	Expedited	Garnette Jones	119 MARLIN RD			NEW BRITAIN	CT	06053-2119	US		Hope this brings some joy to your heart. From Mary Ardyne Rodriguez	false		
113-9646177-1248262	45522736410226	2020-06-20T18:44:02+00:00	2020-06-20T11:44:02-07:00	2020-06-20T19:08:00+00:00	2020-06-24T06:59:59+00:00	-3	knwrj1g9sk21kg5@marketplace.amazon.com	Heather Plegge	+1 346-307-9643 ext. 66407	ABM010	Arabella Bouquets | Fields of The World Bouquet of Fresh Cut Flowers in a Free Designer Glass Vase	1	0	1	Expedited	Heather Mulrean	238 VIRGINIA ST			BRIGHTON	IL	62012-1020	US		Get well Heather!  We love you! ❤ Jonathon, Heather &Quinton From Heather Plegge	false		
113-3929656-5033832	28122427974146	2020-06-20T19:44:13+00:00	2020-06-20T12:44:13-07:00	2020-06-20T20:14:25+00:00	2020-06-24T06:59:59+00:00	-3	x8jdv1srpppfh76@marketplace.amazon.com	Marc	+1 346-307-9643 ext. 30171	ABR0022	Purchase Now for Delivery by Wednesday | Arabella Farm Direct Bouquet of 12 Fresh Cut Pink Roses with a Free Glass Vase	1	0	1	Expedited	Danielle Hitson	130 NW REED LN			DALLAS	OR	97338-1156	US			false		
111-0005615-5709862	15602872502730	2020-06-20T19:48:54+00:00	2020-06-20T12:48:54-07:00	2020-06-20T20:16:34+00:00	2020-06-24T06:59:59+00:00	-3	1rlhb1w77vcw1sy@marketplace.amazon.com	Simon	+1 346-307-9643 ext. 42616	ABR0022	Purchase Now for Delivery by Wednesday | Arabella Farm Direct Bouquet of 12 Fresh Cut Pink Roses with a Free Glass Vase	1	0	1	Expedited	Mary S Guthrie	HOUSE 4317 MOOMAW AVE NW			ROANOKE	VA	24017-4315	US		Dear Mary S. Guthrie  I'm writing this later to you to show I'm so close to be with you my wife. Each time I look at your gorgeous face, I feel my heart melt in your love. I just cannot stop thinking about you. From Scott	false		
114-6661376-7173068	63631391737682	2020-06-20T19:52:00+00:00	2020-06-20T12:52:00-07:00	2020-06-20T20:22:39+00:00	2020-06-24T06:59:59+00:00	-3	tvqvlnj5cq1dqm8@marketplace.amazon.com	BRUCE P ANDRESS,	+1 346-307-9643 ext. 44211	ABR001	Purchase Now for Delivery by Wednesday | Arabella Bouquets 12 Stems of Fresh Cut Red Roses in a Free Designer Glass Vase	1	0	1	Expedited	Bruce Andress	12705 BLAIR RD			LUSBY	MD	20657-2940	US			false		
114-2447502-3221053	67126249419386	2020-06-20T19:52:52+00:00	2020-06-20T12:52:52-07:00	2020-06-20T20:22:53+00:00	2020-06-24T06:59:59+00:00	-3	tvqvlnj5cq1dqm8@marketplace.amazon.com	BRUCE P ANDRESS,	+1 346-307-9643 ext. 52939	ABR001	Purchase Now for Delivery by Wednesday | Arabella Bouquets 12 Stems of Fresh Cut Red Roses in a Free Designer Glass Vase	1	0	1	Expedited	Bruce Andress	12705 BLAIR RD			LUSBY	MD	20657-2940	US			false		
114-7524018-3606661	15795998644842	2020-06-20T19:59:20+00:00	2020-06-20T12:59:20-07:00	2020-06-20T20:25:55+00:00	2020-06-24T06:59:59+00:00	-3	s6hcnbsc2lxk011@marketplace.amazon.com	Worley Thorne	+1 346-307-9643 ext. 09933	ABR0022	Purchase Now for Delivery by Wednesday | Arabella Farm Direct Bouquet of 12 Fresh Cut Pink Roses with a Free Glass Vase	1	0	1	Expedited	Angel McBride	3580 HUNTERS PATH DR			GRANITE FALLS	NC	28630-8776	US		Happy Birthday, Angel! I love you so much, honey, and hope you have  a magical birthday! Love, Mom	false		
111-2234036-8944254	01193919855962	2020-06-20T20:02:33+00:00	2020-06-20T13:02:33-07:00	2020-06-20T20:30:29+00:00	2020-06-24T06:59:59+00:00	-3	j3h8v0dtkmqstkr@marketplace.amazon.com	Jacques Eusebe Jr	+1 314-282-9402 ext. 38253	ABM002	Purchase Now for Delivery by Wednesday | Arabella Bouquets Fresh Cut White Calla Lilies in a Free Designer Glass Vase	1	0	1	Expedited	Joan Collins	261 WINDING WATERS CT			STONE MOUNTAIN	GA	30087-6327	US		Happy birthday Joan! With happy memories of yesterday, with warm wishes for today, and with caring thoughts always. God bless! From Sistrin	false		
113-8769960-2100227	54992615536562	2020-06-20T21:14:22+00:00	2020-06-20T14:14:22-07:00	2020-06-20T21:44:28+00:00	2020-06-24T06:59:59+00:00	-3	1zgzmtdn86gctqb@marketplace.amazon.com	Kendra Reshel	+1 346-307-9643 ext. 38546	ABR004	Arabella Farm Direct Bouquet of 12 Fresh Cut Yellow Roses with a Free Glass Vase	1	0	1	Expedited	Kendra Reshel	1036 ROSARY TREE CT			FLORISSANT	MO	63031-7521	US		Happy birthday month! From Kendra Reshel	false		
112-5037160-7196213	34939009281946	2020-06-20T21:46:26+00:00	2020-06-20T14:46:26-07:00	2020-06-20T22:13:29+00:00	2020-06-24T06:59:59+00:00	-3	mj3s5kmqq82bxw7@marketplace.amazon.com	jeffrey scott maveal	+1 346-307-9643 ext. 89075	ABR0033	Purchase Now for Delivery by Wednesday | Arabella Farm Direct Bouquet of 12 Fresh Cut Orange Roses with a Free Glass Vase	1	0	1	Expedited	Sandra Bundy	1517 PIERCE AVE			MARINETTE	WI	54143-3335	US		Missing you! From Jeffrey	false		
112-0269668-8818671	18926292218066	2020-06-20T21:50:30+00:00	2020-06-20T14:50:30-07:00	2020-06-20T22:27:49+00:00	2020-06-24T06:59:59+00:00	-3	23b5ffd4jgf4wcz@marketplace.amazon.com	cristiane D. Nascimento	+1 346-307-9643 ext. 04853	ABR004	Arabella Farm Direct Bouquet of 12 Fresh Cut Yellow Roses with a Free Glass Vase	1	0	1	Expedited	Ayana Tamara Kulikova Aparicio	9204 DALEVIEW CT			SILVER SPRING	MD	20901-3601	US		Congratulations to this beautiful and so loving family! Can’t wait to meet Vadin and see all of you. Love! Cris and Nina From cristiane D. Nascimento	false		
114-1193296-0161833	57450961522954	2020-06-20T22:09:44+00:00	2020-06-20T15:09:44-07:00	2020-06-20T22:39:01+00:00	2020-06-24T06:59:59+00:00	-3	sn3sth5z8z7hgwn@marketplace.amazon.com	Kim Gorman	+1 346-307-9643 ext. 60815	ABR001	Purchase Now for Delivery by Wednesday | Arabella Bouquets 12 Stems of Fresh Cut Red Roses in a Free Designer Glass Vase	1	0	1	Expedited	Jennifer	1487 S RICHARDS ST			SALT LAKE CITY	UT	84115-5345	US		I knew my feelings for you are real, no matter what I say or do there is no single day I don't think of you  my North Star 🌟 From ❤️❤️❤️	false		
114-5036035-7631451	40503880776346	2020-06-20T22:40:48+00:00	2020-06-20T15:40:48-07:00	2020-06-20T23:10:55+00:00	2020-06-24T06:59:59+00:00	-3	nx5hcd59dg55gqd@marketplace.amazon.com	william e hoobery	+1 314-282-9402 ext. 10967	ABR0055	Arabella Farm Direct Bouquet of 12 Stems of Fresh Cut Hot Pink Roses in a Free Designer Glass Vase	1	0	1	Expedited	William e hoobery	619 7TH AVE S			NAMPA	ID	83651-4171	US			false		
114-6163237-3957008	14609894612338	2020-06-20T23:13:55+00:00	2020-06-20T16:13:55-07:00	2020-06-20T23:36:24+00:00	2020-06-24T06:59:59+00:00	-3	n23hqt5yblhh956@marketplace.amazon.com	Jose	+1 314-282-9402 ext. 32224	ABR0055	Arabella Farm Direct Bouquet of 12 Stems of Fresh Cut Hot Pink Roses in a Free Designer Glass Vase	1	0	1	Expedited	Julia	1132 FROSTY PINE TRL APT 110			CHATTANOOGA	TN	37405-1422	US		Happy Birthday Jules! From your farthest, but closest friend and who puts Cali in Caliente. Hope you like! From Jose	false		
114-4368687-7848214	59156141072890	2020-06-20T23:31:57+00:00	2020-06-20T16:31:57-07:00	2020-06-20T23:58:32+00:00	2020-06-24T06:59:59+00:00	-3	4lxhl18vr121h70@marketplace.amazon.com	Shari Ruff	+1 346-307-9643 ext. 74607	ABR0033	Purchase Now for Delivery by Wednesday | Arabella Farm Direct Bouquet of 12 Fresh Cut Orange Roses with a Free Glass Vase	1	0	1	Expedited	Linda c/o Carolyn Luckett	1121 E HERBERT AVE			SALT LAKE CITY	UT	84105-1510	US			false		
111-3235176-1365000	36729518792954	2020-06-21T00:19:37+00:00	2020-06-20T17:19:37-07:00	2020-06-21T00:40:09+00:00	2020-06-24T06:59:59+00:00	-3	4kb1l2jtnbvnntg@marketplace.amazon.com	Agnieszka Crownover	+1 346-307-9643 ext. 75220	ABR0022	Purchase Now for Delivery by Wednesday | Arabella Farm Direct Bouquet of 12 Fresh Cut Pink Roses with a Free Glass Vase	1	0	1	Expedited	Joi Austin	234 WESTERN AVE			BENTON HARBOR	MI	49022-6069	US		We miss you and hope you are feeling better.  XOXO From Porter O.H. team	false		
111-1780738-1880264	55675419204890	2020-06-21T02:10:08+00:00	2020-06-20T19:10:08-07:00	2020-06-21T02:36:58+00:00	2020-06-24T06:59:59+00:00	-3	q6btj76244gjrqs@marketplace.amazon.com	Angela Garza	+1 314-282-9402 ext. 97848	ABR012	Purchase Now for Delivery by Wednesday | Arabella Farm Direct Bouquet of 18 Fresh Cut Pink Roses with a Free Glass Vase	1	0	1	Expedited	Stephanie Chavez	5472 FRANCISCO ROQUE DR			EL PASO	TX	79934-3369	US		Always and forever From Your wolf	false		
113-9256915-1961010	33539654156386	2020-06-21T02:16:42+00:00	2020-06-20T19:16:42-07:00	2020-06-21T02:41:35+00:00	2020-06-24T06:59:59+00:00	-3	8f0y0658p0vrh0h@marketplace.amazon.com	Ruth DeFoor	+1 346-307-9643 ext. 58591	ABR004	Arabella Farm Direct Bouquet of 12 Fresh Cut Yellow Roses with a Free Glass Vase	1	0	1	Expedited	Arnold and Gertrude Sewell	13000 OLD FREDERICK RD			SYKESVILLE	MD	21784-5611	US		Enjoy your flowers for your Anniversary!  59 is a long time! From Ruth DeFoor	false		
114-5343871-8459459	61440264023106	2020-06-21T02:11:10+00:00	2020-06-20T19:11:10-07:00	2020-06-21T02:41:50+00:00	2020-06-24T06:59:59+00:00	-3	pbmwvgfmylgx00m@marketplace.amazon.com	Ronald F. Cota	+1 210-728-4548 ext. 54280	ABR001	Purchase Now for Delivery by Wednesday | Arabella Bouquets 12 Stems of Fresh Cut Red Roses in a Free Designer Glass Vase	1	0	1	Expedited	Ronald F. Cota	8400 VAMO RD APT 461			SARASOTA	FL	34231-7872	US			false		
114-5350276-2210648	66395146265442	2020-06-21T01:06:16+00:00	2020-06-20T18:06:16-07:00	2020-06-21T02:52:17+00:00	2020-06-24T06:59:59+00:00	-3	ncn2n2smt90ckt4@marketplace.amazon.com	Loba	+1 346-307-9643 ext. 55913	ABR0055	Arabella Farm Direct Bouquet of 12 Stems of Fresh Cut Hot Pink Roses in a Free Designer Glass Vase	1	0	1	Expedited	Shirley Tilson	14896 COUNTRY WEST DR			CONROE	TX	77302-6952	US			false		
114-8797346-0415458	35594158925570	2020-06-21T05:15:05+00:00	2020-06-20T22:15:05-07:00	2020-06-21T05:45:26+00:00	2020-06-24T06:59:59+00:00	-3	x12sq2rfb02tnbn@marketplace.amazon.com	Gina Reinhart	+1 346-307-9643 ext. 73369	ABM010	Arabella Bouquets | Fields of The World Bouquet of Fresh Cut Flowers in a Free Designer Glass Vase	1	0	1	Expedited	Susan Mendel Hausman	8132 LAUREL PARK LN			EAST AMHERST	NY	14051-2531	US			false		
114-5617819-4587408	57140485680674	2020-06-21T06:47:21+00:00	2020-06-20T23:47:21-07:00	2020-06-21T07:13:36+00:00	2020-06-24T06:59:59+00:00	-3	qf48z91f4nvgpw7@marketplace.amazon.com	Dagmar Neumeier-Shaw	+1 346-307-9643 ext. 96632	ABR001	Purchase Now for Delivery by Wednesday | Arabella Bouquets 12 Stems of Fresh Cut Red Roses in a Free Designer Glass Vase	1	0	1	Expedited	Lia Farrell	PONTE PALERMO	3083 PONTE MORINO DR		CAMERON PARK	CA	95682-8288	US		Enjoy your gift! liebe Mutti, denke an dich always, love you! Daggi xxxxx🌹❣ From Dagmar Neumeier-Shaw	false		
111-5463196-2901015	28992697898610	2020-06-21T07:39:43+00:00	2020-06-21T00:39:43-07:00	2020-06-21T08:05:13+00:00	2020-06-24T06:59:59+00:00	-3	zwfmy5f1kzx3gy8@marketplace.amazon.com	Julie Heflin	+1 210-728-4548 ext. 04851	ABR0022	Purchase Now for Delivery by Wednesday | Arabella Farm Direct Bouquet of 12 Fresh Cut Pink Roses with a Free Glass Vase	1	0	1	Expedited	Mary Ann Walker	873 NESBIT RD			ODUM	GA	31555-8755	US		Beautiful roses for a beautiful lady whom we miss dearly!! From Love, Julie and Mandi	false		
114-9297419-1279439	35874301203282	2020-06-21T08:09:19+00:00	2020-06-21T01:09:19-07:00	2020-06-21T08:33:42+00:00	2020-06-24T06:59:59+00:00	-3	cj8ns5ryx7sv6cs@marketplace.amazon.com	Mirela Tumbar	+1 346-307-9643 ext. 25205	ABR012	Purchase Now for Delivery by Wednesday | Arabella Farm Direct Bouquet of 18 Fresh Cut Pink Roses with a Free Glass Vase	1	0	1	Expedited	Olga Igoumnova	2900 W 8TH ST APT 4E			BROOKLYN	NY	11224-3342	US		My Dear Olga, I am praying for Edward to find rest near God. Hope these beautiful flowers will bring you a little bit of sunshine. Lots of Love, Mirela From Mirela Tumbar	false		
111-5188101-6651445	58670516650234	2020-06-21T10:14:23+00:00	2020-06-21T03:14:23-07:00	2020-06-21T10:44:09+00:00	2020-06-24T06:59:59+00:00	-3	jjlldjkzqr5gytr@marketplace.amazon.com	Elizabeth	+1 346-307-9643 ext. 34148	ABB012	Arabella Farm Direct 48 Fresh Cut Hot Pink Roses	1	0	1	Expedited	Kathleen Duncan	11431 ASMUSSEN AVE			NORWALK	CA	90650-7901	US			false		
112-5708634-9198646	53820028169378	2020-06-21T10:34:57+00:00	2020-06-21T03:34:57-07:00	2020-06-21T11:03:43+00:00	2020-06-24T06:59:59+00:00	-3	b24r8zmm0dlvjhc@marketplace.amazon.com	Michael	+1 346-307-9643 ext. 10552	ABR0022	Purchase Now for Delivery by Wednesday | Arabella Farm Direct Bouquet of 12 Fresh Cut Pink Roses with a Free Glass Vase	1	0	1	Expedited	Fran Bacak	9200 WINDROW PL			MOSS POINT	MS	39562-8167	US		They say this kind of love is once in a lifetime, I have given you all my today and always. Thanks for showing me how its feels to be loved. I can’t stop loving you. See you soon from your sweet man From Steve Robinson	false		
112-1117895-8209045	66889699556882	2020-06-21T12:35:05+00:00	2020-06-21T05:35:05-07:00	2020-06-21T13:04:19+00:00	2020-06-24T06:59:59+00:00	-3	2gmbt3bbp2vw2f4@marketplace.amazon.com	Paul and Susan OBrien	+1 346-307-9643 ext. 66622	ABR0055	Arabella Farm Direct Bouquet of 12 Stems of Fresh Cut Hot Pink Roses in a Free Designer Glass Vase	1	0	1	Expedited	Dianne Weaver	2875 CASA DEL RIO TER			JACKSONVILLE	FL	32257-5816	US		Happy Birthday, Dianne!    With Love, Susan and Paul O'Brien From Paul and Susan OBrien	false		
111-4093243-5272247	37464180959538	2020-06-21T12:49:42+00:00	2020-06-21T05:49:42-07:00	2020-06-21T13:10:44+00:00	2020-06-24T06:59:59+00:00	-3	w73394n91lqkybs@marketplace.amazon.com	Daniel L. Garner	+1 346-307-9643 ext. 03613	ABR0022	Purchase Now for Delivery by Wednesday | Arabella Farm Direct Bouquet of 12 Fresh Cut Pink Roses with a Free Glass Vase	1	0	1	Expedited	Kerri Brashers	2143 COUNTY ROAD 327			CAPE GIRARDEAU	MO	63701-9397	US		Hi Kerri,  Just something to say you are the best.     Stay Strong!  Aunt Anne and Uncle Dan	false		
113-2366793-3753058	64230841522474	2020-06-21T13:15:05+00:00	2020-06-21T06:15:05-07:00	2020-06-21T13:44:55+00:00	2020-06-24T06:59:59+00:00	-3	dv2wzp3h998rhwj@marketplace.amazon.com	Tristan smith	+1 346-307-9643 ext. 21260	ABR0022	Purchase Now for Delivery by Wednesday | Arabella Farm Direct Bouquet of 12 Fresh Cut Pink Roses with a Free Glass Vase	1	0	1	Expedited	Kaye Estrada	5541 FOUNTAIN GROVE CIR APT 52			FAYETTEVILLE	NC	28304-2660	US			false		
114-3509366-8222648	50816392427106	2020-06-21T14:02:23+00:00	2020-06-21T07:02:23-07:00	2020-06-21T14:27:46+00:00	2020-06-24T06:59:59+00:00	-3	b602sbxxwhd3gmr@marketplace.amazon.com	Betty Albus	+1 346-307-9643 ext. 80821	ABR0022	Purchase Now for Delivery by Wednesday | Arabella Farm Direct Bouquet of 12 Fresh Cut Pink Roses with a Free Glass Vase	1	0	1	Expedited	Elinor Vogt	1 TERRACE RD			BROWNS MILLS	NJ	08015-6817	US		Happy Birthday, Mudder.  We love you! From Dawter & Dan	false		
114-3111600-8917057	56637206506474	2020-06-21T14:30:02+00:00	2020-06-21T07:30:02-07:00	2020-06-21T14:58:29+00:00	2020-06-24T06:59:59+00:00	-3	3s4g2nwzbmrx9hg@marketplace.amazon.com	Jeffrey Adames	+1 346-307-9643 ext. 27194	ABR0022	Purchase Now for Delivery by Wednesday | Arabella Farm Direct Bouquet of 12 Fresh Cut Pink Roses with a Free Glass Vase	1	0	1	Expedited	Zakiya Rose	859 MONTGOMERY ST			BROOKLYN	NY	11213-5624	US			false		
112-9595524-7081813	35648913243338	2020-06-21T15:02:06+00:00	2020-06-21T08:02:06-07:00	2020-06-21T15:30:38+00:00	2020-06-24T06:59:59+00:00	-3	67qmwbs2px24vfs@marketplace.amazon.com	Anina S Ritter	+1 346-307-9643 ext. 48247	ABM010	Arabella Bouquets | Fields of The World Bouquet of Fresh Cut Flowers in a Free Designer Glass Vase	1	0	1	Expedited	Mrs. Betty Lang	8 FRENCH WAY			AVERILL PARK	NY	12018-4420	US		Thinking of you and keeping you in our prayers! From Fred and Anina	false		
112-4404426-1497019	41061442892322	2020-06-21T15:59:01+00:00	2020-06-21T08:59:01-07:00	2020-06-21T16:26:02+00:00	2020-06-24T06:59:59+00:00	-3	t5z78mcpsjyznbp@marketplace.amazon.com	Ricardo Zamora	+1 346-307-9643 ext. 98117	ABR0055	Arabella Farm Direct Bouquet of 12 Stems of Fresh Cut Hot Pink Roses in a Free Designer Glass Vase	1	0	1	Expedited	Ricardo Zamora	14025 SPYGLASS CIR			CHOWCHILLA	CA	93610-7903	US		Feliz cumpleaños mamá. Te amo y espero que tengas un día maravilloso hoy.❤️ From Ricardo Zamora	false		
111-8116928-5825828	41593171301130	2020-06-21T17:34:02+00:00	2020-06-21T10:34:02-07:00	2020-06-21T17:59:39+00:00	2020-06-24T06:59:59+00:00	-3	jg5yn8vrmz37zwv@marketplace.amazon.com	elaine maiden	+1 346-307-9643 ext. 19749	ABM010	Arabella Bouquets | Fields of The World Bouquet of Fresh Cut Flowers in a Free Designer Glass Vase	1	0	1	Expedited	Linda Kandel	6922 MILANI ST			LAKE WORTH	FL	33467-5902	US		Hi Linda Happy Birthday Sweetie. Miss you. ‘Tickets for broadway is what w usually do😄rain check or pandemic check😜 Love ya From elaine maiden	false		
114-6550504-5644214	09213694687050	2020-06-21T17:54:23+00:00	2020-06-21T10:54:23-07:00	2020-06-21T18:23:13+00:00	2020-06-24T06:59:59+00:00	-3	vl96lt1387w9s82@marketplace.amazon.com	Frank McKenna	+1 346-307-9643 ext. 78502	ABR001	Purchase Now for Delivery by Wednesday | Arabella Bouquets 12 Stems of Fresh Cut Red Roses in a Free Designer Glass Vase	1	0	1	Expedited	Frank McKenna and Shelly Semm	253 REMINGTON LOOP			DANVILLE	CA	94526-3731	US		Shelly, your the Peanut Butter to my jelly Love you  From Frank McKenna	false		
114-9915605-6829019	05922942196874	2020-06-21T18:02:58+00:00	2020-06-21T11:02:58-07:00	2020-06-21T18:32:21+00:00	2020-06-24T06:59:59+00:00	-3	7yv3tynltxp9ntq@marketplace.amazon.com	Ann Shar	+1 314-282-9402 ext. 92527	ABM010	Arabella Bouquets | Fields of The World Bouquet of Fresh Cut Flowers in a Free Designer Glass Vase	1	0	1	Expedited	Teresa Bajkiewicz	2399 PALM HARBOR DR			FORT WALTON BEACH	FL	32547-3945	US		Happy birthday to you Mama! Enjoy your gift! From Ania	false		
113-7004742-6326666	51116523749522	2020-06-21T18:21:14+00:00	2020-06-21T11:21:14-07:00	2020-06-21T18:43:54+00:00	2020-06-24T06:59:59+00:00	-3	zb7ht8p34rjzfkb@marketplace.amazon.com	CAROLINE J WILSON	+1 210-728-4548 ext. 61292	ABR012	Purchase Now for Delivery by Wednesday | Arabella Farm Direct Bouquet of 18 Fresh Cut Pink Roses with a Free Glass Vase	1	0	1	Expedited	Dr. Dunya Jancic, PhD	2404 HUNT DR			BALTIMORE	MD	21209-1532	US		Dearest OSO, thank you so much for being a wonderful friend and for your unending generosity and wisdom.  Happy (early) birthday! Love, OSO	false		
111-5806553-6933041	16755419569090	2020-06-21T18:32:26+00:00	2020-06-21T11:32:26-07:00	2020-06-21T19:07:29+00:00	2020-06-24T06:59:59+00:00	-3	s9ktffp4wm1j8tc@marketplace.amazon.com	Peter smith	+1 210-728-4548 ext. 88904	ABR001	Purchase Now for Delivery by Wednesday | Arabella Bouquets 12 Stems of Fresh Cut Red Roses in a Free Designer Glass Vase	1	0	1	Expedited	Monica smith	4213 S BAHAMA ST			AURORA	CO	80013-3835	US		I love you to the moon and back and you are the best thing that happened to me .i will always cherish you forever ...I love you From Husband	false		
111-5572028-4889844	25461842871482	2020-06-21T19:17:58+00:00	2020-06-21T12:17:58-07:00	2020-06-21T19:47:08+00:00	2020-06-24T06:59:59+00:00	-3	44psngdv78c1ltc@marketplace.amazon.com	Patricia A Lilly	+1 314-282-9402 ext. 65322	ABR0022	Purchase Now for Delivery by Wednesday | Arabella Farm Direct Bouquet of 12 Fresh Cut Pink Roses with a Free Glass Vase	1	0	1	Expedited	Doris cottrell	21515 E FIREMIST CT			CYPRESS	TX	77433-3505	US		Happy Birthday! Love you From Patricia A Lilly	false		
114-3782040-6109011	68138110154194	2020-06-21T20:43:13+00:00	2020-06-21T13:43:13-07:00	2020-06-21T21:09:00+00:00	2020-06-24T06:59:59+00:00	-3	ypzjtzqlfndby4v@marketplace.amazon.com	maryelen v johnson	+1 346-307-9643 ext. 79681	ABR014	Arabella Bouquets 18 Stems of Fresh Cut White Roses in a Free Designer Glass Vase	1	0	1	Expedited	Ronna galbreath	1122 so Divison			Ritzville	Wa	99169	US			false		
113-4921949-6661018	52102955866426	2020-06-21T21:46:06+00:00	2020-06-21T14:46:06-07:00	2020-06-21T22:10:00+00:00	2020-06-24T06:59:59+00:00	-3	9s8j43k353sqx3d@marketplace.amazon.com	Amy E Byrum	+1 346-307-9643 ext. 15818	ABM0044	Purchase Now for Delivery by Wednesday | Arabella Farm Direct Bouquet of Fresh Cut Blue Hydrangea with a Free Glass Vase	1	0	1	Expedited	Marguerite Heath	MEADOW LAKES 300 MEADOW LKS A-4			HIGHTSTOWN	NJ	08520-4804	US			false		
111-1403209-9748220	34286296749994	2020-06-21T22:27:06+00:00	2020-06-21T15:27:06-07:00	2020-06-21T22:55:31+00:00	2020-06-24T06:59:59+00:00	-3	6hxsgv7twn33swp@marketplace.amazon.com	Xavier Williams	+1 314-282-9402 ext. 32661	ABR0022	Purchase Now for Delivery by Wednesday | Arabella Farm Direct Bouquet of 12 Fresh Cut Pink Roses with a Free Glass Vase	1	0	1	Expedited	Summer Emilee Stepp	13317 Maccorkle Ave			Chesapeake	Wv	25315	US		Thank you for making everyday 100000x  better   From Xavier	false		
114-8702873-5420209	45910587709522	2020-06-21T22:36:34+00:00	2020-06-21T15:36:34-07:00	2020-06-21T22:55:53+00:00	2020-06-24T06:59:59+00:00	-3	j3tnbjmtys8drnb@marketplace.amazon.com	Berni Harvey	+1 210-728-4548 ext. 73225	ABM010	Arabella Bouquets | Fields of The World Bouquet of Fresh Cut Flowers in a Free Designer Glass Vase	1	0	1	Standard	Sister Florence Guglielmi	9896 BUSTLETON AVE	PAUL S RUN FAMI COMMUNITY RM 109		PHILADELPHIA	PA	19115-5202	US		Dear Sister,  Congratulations on your jubilee! You are always in my prayers and I thank you for your love. Love, Berni Harvey	false		
114-0184854-4361812	21614571346962	2020-06-21T22:57:50+00:00	2020-06-21T15:57:50-07:00	2020-06-21T23:27:56+00:00	2020-06-24T06:59:59+00:00	-3	jycqwsmw2lr040m@marketplace.amazon.com	William H Burger	+1 346-307-9643 ext. 89490	ABR0055	Arabella Farm Direct Bouquet of 12 Stems of Fresh Cut Hot Pink Roses in a Free Designer Glass Vase	1	0	1	Expedited	Barbara Hirschler	2158 GREENBRIER CIR			FAIRFIELD	IA	52556-8557	US			false		
112-4260108-3169036	45441921697730	2020-06-21T23:12:53+00:00	2020-06-21T16:12:53-07:00	2020-06-21T23:41:27+00:00	2020-06-24T06:59:59+00:00	-3	5zc10qrw1wv712c@marketplace.amazon.com	Patrick L Scarborough	+1 210-728-4548 ext. 29797	ABR0022	Purchase Now for Delivery by Wednesday | Arabella Farm Direct Bouquet of 12 Fresh Cut Pink Roses with a Free Glass Vase	1	0	1	Expedited	Delores Nelson	605 E 900 S			SPRINGVILLE	UT	84663-2531	US		Grandma, Hope you have a wonderful birthday! We love you and think of you often!  Love, Julie Patrick, Andy, Lizzie, Thomas, Charlotte From Julie	false		
112-4403026-6573051	01051603349994	2020-06-21T23:17:45+00:00	2020-06-21T16:17:45-07:00	2020-06-21T23:42:10+00:00	2020-06-24T06:59:59+00:00	-3	0yjc6x39vp09jgy@marketplace.amazon.com	Sudha Rangarajan	+1 346-307-9643 ext. 15046	ABR0055	Arabella Farm Direct Bouquet of 12 Stems of Fresh Cut Hot Pink Roses in a Free Designer Glass Vase	1	0	1	Expedited	A. Vasudevan	15 LENOX ST			EDISON	NJ	08817-3007	US		Hi Appa  and Amma, Happy Anniversary and best wishes.. Love, Ranga and Sudha	false		
113-1691608-7599468	34353364186578	2020-06-21T23:16:54+00:00	2020-06-21T16:16:54-07:00	2020-06-21T23:46:35+00:00	2020-06-24T06:59:59+00:00	-3	8tlgj1ml509v131@marketplace.amazon.com	Lane	+1 210-728-4548 ext. 83654	ABR012	Purchase Now for Delivery by Wednesday | Arabella Farm Direct Bouquet of 18 Fresh Cut Pink Roses with a Free Glass Vase	1	0	1	Expedited	Doug Patterson	5314 MOUNTAIN VIEW RD			WINSTON SALEM	NC	27104-2422	US		Just because you are the best mom in the world.  Lots love.   Your son From Lane	false		
113-6823922-7180252	10411089209178	2020-06-21T23:50:44+00:00	2020-06-21T16:50:44-07:00	2020-06-22T00:18:56+00:00	2020-06-24T06:59:59+00:00	-3	4vyqbcgqnb721p7@marketplace.amazon.com	Jovan	+1 346-307-9643 ext. 83957	ABR0022	Purchase Now for Delivery by Wednesday | Arabella Farm Direct Bouquet of 12 Fresh Cut Pink Roses with a Free Glass Vase	1	0	1	Expedited	Nayelys Fernandez	65 E GUN HILL RD APT 57 APT 57			BRONX	NY	10467-2262	US			false		
111-3432869-7923452	26020338424866	2020-06-21T23:50:57+00:00	2020-06-21T16:50:57-07:00	2020-06-22T00:23:54+00:00	2020-06-24T06:59:59+00:00	-3	75vm92s8vnbctwv@marketplace.amazon.com	Diane Smith	+1 346-307-9643 ext. 87335	ABR0033	Purchase Now for Delivery by Wednesday | Arabella Farm Direct Bouquet of 12 Fresh Cut Orange Roses with a Free Glass Vase	1	0	1	Expedited	Diane Smith	4312 PALLAS AVE			SPRING HILL	FL	34608-3540	US			false		
