order-id	order-item-id	purchase-date	payments-date	reporting-date	promise-date	days-past-promise	buyer-email	buyer-name	buyer-phone-number	sku	product-name	quantity-purchased	quantity-shipped	quantity-to-ship	ship-service-level	recipient-name	ship-address-1	ship-address-2	ship-address-3	ship-city	ship-state	ship-postal-code	ship-country	gift-wrap-type	gift-message-text	is-business-order	purchase-order-number	price-designation
113-8237767-1885065	60216226598666	2020-06-22T12:20:03+00:00	2020-06-22T05:20:03-07:00	2020-06-22T12:35:18+00:00	2020-06-25T06:59:59+00:00	-3	lpvtrsql32628sx@marketplace.amazon.com	Tim Blum	+1 346-307-9643 ext. 60579	ABR012	Purchase Now for Delivery by Wednesday | Arabella Farm Direct Bouquet of 18 Fresh Cut Pink Roses with a Free Glass Vase	1	0	1	Expedited	Laura Feltyberger	621 WASHINGTON LN			JENKINTOWN	PA	19046-3212	US		Laura, Happy Birthday. May this year hold many happy surprises. Love, Peter, Joan and Ann From Peter,, Joan and Ann	false		
111-5895205-2158629	02638758594634	2020-06-22T12:59:53+00:00	2020-06-22T05:59:53-07:00	2020-06-22T13:26:23+00:00	2020-06-25T06:59:59+00:00	-3	1jgx6wplby0hbqq@marketplace.amazon.com	richard and kathy  warner,	+1 314-282-9402 ext. 60036	ABR0022	Purchase Now for Delivery by Thursday | Arabella Farm Direct Bouquet of 12 Fresh Cut Pink Roses with a Free Glass Vase	1	0	1	Expedited	Rick Warner	10750 MADISON AVE NE			BAINBRIDGE ISLAND	WA	98110-1372	US			false		
114-5830907-1460204	49859955362946	2020-06-22T12:56:22+00:00	2020-06-22T05:56:22-07:00	2020-06-22T13:27:04+00:00	2020-06-25T06:59:59+00:00	-3	v8635m0bh4tsnwr@marketplace.amazon.com	Mark E Schweers Jr	+1 346-307-9643 ext. 93441	ABR0055	Purchase Now for Delivery by Thursday | Arabella Farm Direct Bouquet of 12 Stems of Fresh Cut Hot Pink Roses in a Free Designer Glass Vase	1	0	1	Expedited	Cortney Voorhees	31 PINCKNEY DR			COATESVILLE	PA	19320-5927	US			false		
112-4467101-3613861	11648931294178	2020-06-22T10:40:46+00:00	2020-06-22T03:40:46-07:00	2020-06-22T14:17:27+00:00	2020-06-25T06:59:59+00:00	-3	wjz61xmr2mgdyfv@marketplace.amazon.com	Lorena Rae	+1 346-307-9643 ext. 44497	ABR001	Purchase Now for Delivery by Wednesday | Arabella Bouquets 12 Stems of Fresh Cut Red Roses in a Free Designer Glass Vase	1	0	1	Expedited	Randy trulove	15 COUNTY ROAD 5110			BOONEVILLE	MS	38829-9324	US		Dear Randy, You are always in my dreams. When I wake up you are my first thought. Even when we are not together, trust me, I will love you. My heart is always yours. And I want you to stay with forever. Love you! From Lorena Rae	false		
114-0917629-6877009	02563144022178	2020-06-22T14:32:47+00:00	2020-06-22T07:32:47-07:00	2020-06-22T15:00:43+00:00	2020-06-25T06:59:59+00:00	-3	h00q1bd072l37mn@marketplace.amazon.com	eliasar gonzalez	+1 210-728-4548 ext. 50742	ABR012	Purchase Now for Delivery by Thursday | Arabella Farm Direct Bouquet of 18 Fresh Cut Pink Roses with a Free Glass Vase	1	0	1	Expedited	Tabita Gonzalez	8442 RAMPART RD			JACKSONVILLE	FL	32244-5908	US		We love you and thinking about you. Happy Birthday From Mom and Brothers	false		
112-9640573-1377866	32014219437954	2020-06-22T15:44:26+00:00	2020-06-22T08:44:26-07:00	2020-06-22T16:00:24+00:00	2020-06-25T06:59:59+00:00	-3	vqp29p84r4ff38c@marketplace.amazon.com	CAMELA BARLOW	+8323143017	ABR012	Purchase Now for Delivery by Thursday | Arabella Farm Direct Bouquet of 18 Fresh Cut Pink Roses with a Free Glass Vase	1	0	1	Expedited	Janie Washington	12927 CRYSTAL COVE DR			HOUSTON	TX	77044-1801	US			false		
113-3718993-1267445	63228993312298	2020-06-22T15:50:04+00:00	2020-06-22T08:50:04-07:00	2020-06-22T16:17:15+00:00	2020-06-25T06:59:59+00:00	-3	254fxvgvypkl60c@marketplace.amazon.com	kathkath99@aol.com	+1 346-307-9643 ext. 88965	ABR0055	Purchase Now for Delivery by Thursday | Arabella Farm Direct Bouquet of 12 Stems of Fresh Cut Hot Pink Roses in a Free Designer Glass Vase	1	0	1	Expedited	Cindy Cipolla	18215 JAMESTOWN CIR			NORTHVILLE	MI	48168-1826	US		Hi Cindy,    It was so good to see you!  I hope to see you again!  Let us know if you can take a trip to our house over for dinner... or if we can stop by and see you!  Hugs, love and prayers... Doug and Kathy Kath	false		
114-2674065-2176204	00299132000194	2020-06-22T16:28:34+00:00	2020-06-22T09:28:34-07:00	2020-06-22T16:57:05+00:00	2020-06-25T06:59:59+00:00	-3	8cjj7vgq0rzbt29@marketplace.amazon.com	Tim Symons	+1 346-307-9643 ext. 97990	ABR0033	Purchase Now for Delivery by Thursday | Arabella Farm Direct Bouquet of 12 Fresh Cut Orange Roses with a Free Glass Vase	1	0	1	Expedited	Brigid Olsen	400 WESLEY DR APT 457	OXFORD COMMONS		ASHEVILLE	NC	28803-7305	US		Hi Brigid, Wishing you a very Happy Birthday. Sorry we can’t spend it with you. We love you very much. Enjoy. XXXX  Mairéad, Tim, Emer and David.	false		
113-6808779-8280237	44584864393642	2020-06-22T16:53:02+00:00	2020-06-22T09:53:02-07:00	2020-06-22T17:19:23+00:00	2020-06-25T06:59:59+00:00	-3	bv2j5nzs0nc0mj0@marketplace.amazon.com	Debby Morgan	+1 346-307-9643 ext. 67805	ABR0022	Purchase Now for Delivery by Thursday | Arabella Farm Direct Bouquet of 12 Fresh Cut Pink Roses with a Free Glass Vase	1	0	1	Expedited	Emily Kirk	202 RIDGEVIEW DR			MORGANTOWN	PA	19543-8859	US		Thinking of you! From Debby Morgan	false		
113-9730905-9107445	43291443837554	2020-06-22T16:58:00+00:00	2020-06-22T09:58:00-07:00	2020-06-22T17:24:45+00:00	2020-06-25T06:59:59+00:00	-3	706nmcqz8rx7s7s@marketplace.amazon.com	Scott Fritz	+1 346-307-9643 ext. 07233	ABR0022	Purchase Now for Delivery by Thursday | Arabella Farm Direct Bouquet of 12 Fresh Cut Pink Roses with a Free Glass Vase	1	0	1	Expedited	Sharon Pollard	2609 MEADOW CREEK CIR S			FARGO	ND	58104-7112	US		Hi Sharon, Love you and appreciate all you are and what you do everyone. So amazing! From Scott	false		
114-0635360-2295405	66716281946194	2020-06-22T17:21:52+00:00	2020-06-22T10:21:52-07:00	2020-06-22T17:46:57+00:00	2020-06-25T06:59:59+00:00	-3	c05jfpjss742zd4@marketplace.amazon.com	kay curry	+1 314-282-9402 ext. 42187	ABR0022	Purchase Now for Delivery by Thursday | Arabella Farm Direct Bouquet of 12 Fresh Cut Pink Roses with a Free Glass Vase	1	0	1	Expedited	Kasey Curry	13525 PASEO DEL MAR			EL CAJON	CA	92021-2155	US		Happy Birthday From Kay, Krystal, Kaitlyn and Andrew	false		
112-4775046-1286604	52807923610338	2020-06-22T17:41:54+00:00	2020-06-22T10:41:54-07:00	2020-06-22T18:06:36+00:00	2020-06-25T06:59:59+00:00	-3	n22g7yg8rqx39nl@marketplace.amazon.com	Janet Schuldt	+1 346-307-9643 ext. 90640	ABR0022	Purchase Now for Delivery by Thursday | Arabella Farm Direct Bouquet of 12 Fresh Cut Pink Roses with a Free Glass Vase	1	0	1	Expedited	Holly Scoffield	74 PETER HANS RD			CARLISLE	MA	01741-1614	US		Happy Anniversary and Happy Birthday   Love Mom, Gary Lee and Joshua From Janet Schuldt	false		
112-5254493-6053806	38601538062770	2020-06-22T17:49:00+00:00	2020-06-22T10:49:00-07:00	2020-06-22T18:12:48+00:00	2020-06-25T06:59:59+00:00	-3	n9pr30n2094wlw5@marketplace.amazon.com	norihiro ikemoto	+1 314-282-9402 ext. 64216	ABR0022	Purchase Now for Delivery by Thursday | Arabella Farm Direct Bouquet of 12 Fresh Cut Pink Roses with a Free Glass Vase	1	0	1	Expedited	Ramona Windt	563B ARAGON ST			PENSACOLA	FL	32502-6190	US		Happy Birthday!  A ver si llega para el 24! Que sigamos celebrandolo con alegria ! :) Un besazo de tu amiga. From Isabel Ikemoto	false		
113-8106935-9678643	31779313910330	2020-06-22T17:53:17+00:00	2020-06-22T10:53:17-07:00	2020-06-22T18:23:08+00:00	2020-06-25T06:59:59+00:00	-3	wd6spr6mrfwn25k@marketplace.amazon.com	Ed Helms	+1 346-307-9643 ext. 79081	ABR0022	Purchase Now for Delivery by Thursday | Arabella Farm Direct Bouquet of 12 Fresh Cut Pink Roses with a Free Glass Vase	1	0	1	Expedited	Mariah Alway	105 FERN CT			WINCHESTER	VA	22602-6714	US			false		
114-1726366-4645825	41528293645522	2020-06-22T18:26:46+00:00	2020-06-22T11:26:46-07:00	2020-06-22T18:54:32+00:00	2020-06-25T06:59:59+00:00	-3	mh0jzxrtk754y7p@marketplace.amazon.com	A Larissa Tierney	+1 346-307-9643 ext. 08142	ABM010	Arabella Bouquets | Fields of The World Bouquet of Fresh Cut Flowers in a Free Designer Glass Vase	1	0	1	Expedited	Tynise Phillips	1623 N 62ND ST			PHILADELPHIA	PA	19151-3925	US		Dear Tynise,  I’m so sorry for the recent loss of your dad. May you feel the Lord’s love and presence especially now. My heart hurts for you. Love to you always.  Samantha From Samantha	false		
112-7882497-0755448	10796941257250	2020-06-22T18:52:18+00:00	2020-06-22T11:52:18-07:00	2020-06-22T19:17:46+00:00	2020-06-25T06:59:59+00:00	-3	4vnh5lfkdtt1pwb@marketplace.amazon.com	Helena DiSalvo	+1 346-307-9643 ext. 60145	ABR0033	Purchase Now for Delivery by Thursday | Arabella Farm Direct Bouquet of 12 Fresh Cut Orange Roses with a Free Glass Vase	1	0	1	Expedited	Richard and Patti Mattucci	7 ALBERMARLE RD			MANHASSET	NY	11030-3701	US		Enjoy your gift! Thanks for the nice time.  Love, Nina & Tony From Helena DiSalvo	false		
113-7211616-5823411	01507162694386	2020-06-22T19:25:14+00:00	2020-06-22T12:25:14-07:00	2020-06-22T19:50:34+00:00	2020-06-25T06:59:59+00:00	-3	kx8rxftkf5n2kf8@marketplace.amazon.com	charlie reaves	+1 314-282-9402 ext. 04889	ABR0022	Purchase Now for Delivery by Thursday | Arabella Farm Direct Bouquet of 12 Fresh Cut Pink Roses with a Free Glass Vase	1	0	1	Expedited	Adriana Vasquez	425 MALDEN AVE E APT 204			SEATTLE	WA	98112-4596	US		Welcome! both of you to your new home! Just a little something to honor your house warming! From charles reaves	false		
111-5889859-7045063	45780163206306	2020-06-22T19:47:36+00:00	2020-06-22T12:47:36-07:00	2020-06-22T20:11:09+00:00	2020-06-25T06:59:59+00:00	-3	33zzftvxbfhkcgq@marketplace.amazon.com	Fred Hammond	+1 346-307-9643 ext. 07538	ABR0055	Purchase Now for Delivery by Thursday | Arabella Farm Direct Bouquet of 12 Stems of Fresh Cut Hot Pink Roses in a Free Designer Glass Vase	1	0	1	Expedited	Margaret	1707 Hessian Dr			Williamstown	NJ	08094	US		I love you, I’ve always loved you and I will forever love you. I won’t rest till I finally have you in my arms From Fred Hammond	false		
113-9492130-7123411	67910115527650	2020-06-22T19:45:39+00:00	2020-06-22T12:45:39-07:00	2020-06-22T20:12:37+00:00	2020-06-25T06:59:59+00:00	-3	kd7rlfyxrpt1h23@marketplace.amazon.com	patti flud	+1 346-307-9643 ext. 12705	ABR0022	Purchase Now for Delivery by Thursday | Arabella Farm Direct Bouquet of 12 Fresh Cut Pink Roses with a Free Glass Vase	1	0	1	Expedited	Clarissa and Chris Flud	2880 W 6900 N			HONEYVILLE	UT	84314-9703	US		Congratulations on your Baby Girl! Love you all lots  Bama and Bampa xoxo Cant wait to meet her!	false		
114-4913192-2529068	66741578660946	2020-06-22T19:58:27+00:00	2020-06-22T12:58:27-07:00	2020-06-22T20:12:38+00:00	2020-06-25T06:59:59+00:00	-3	5jlyglp3sj71v26@marketplace.amazon.com	Gail Frazier	+1 346-307-9643 ext. 23920	ABR0022	Purchase Now for Delivery by Thursday | Arabella Farm Direct Bouquet of 12 Fresh Cut Pink Roses with a Free Glass Vase	1	0	1	Expedited	Jonnie Cervantes	5868 N LONDON AVE			KANSAS CITY	MO	64151-2655	US		Hi Jonnie, We at LeaderOne Financial are so sorry to hear of your loss. We are all praying for comfort for you and your family.   Love, KC6 LeaderOne Financial	false		
113-7532352-4134629	35704888942666	2020-06-22T19:42:33+00:00	2020-06-22T12:42:33-07:00	2020-06-22T20:12:58+00:00	2020-06-25T06:59:59+00:00	-3	6xxwy4nklpkhbx9@marketplace.amazon.com	Jeremy	+1 346-307-9643 ext. 06724	ABM010	Arabella Bouquets | Fields of The World Bouquet of Fresh Cut Flowers in a Free Designer Glass Vase	1	0	1	Expedited	Steven Albelda	800 ADMIRALS WAY UNIT 1844			PHILADELPHIA	PA	19146-5241	US			false		
113-0762795-1828200	11844326655514	2020-06-22T19:52:42+00:00	2020-06-22T12:52:42-07:00	2020-06-22T20:21:25+00:00	2020-06-25T06:59:59+00:00	-3	qhmwgzhkj95j1hk@marketplace.amazon.com	veer shah	+1 346-307-9643 ext. 64987	ABR0022	Purchase Now for Delivery by Thursday | Arabella Farm Direct Bouquet of 12 Fresh Cut Pink Roses with a Free Glass Vase	1	0	1	Expedited	Jen Frankel	235 FIALA WOODS CT			NAPERVILLE	IL	60565-6369	US		Dear Jen,  Thank you for all your help and kindness. I really appreciate it. From Bhairvi Jani	false		
113-2059245-9444238	63721257873026	2020-06-22T19:58:23+00:00	2020-06-22T12:58:23-07:00	2020-06-22T20:22:17+00:00	2020-06-25T06:59:59+00:00	-3	5cqlby1t6szxz7m@marketplace.amazon.com	Billy McAllister	+1 314-282-9402 ext. 56110	ABR0055	Purchase Now for Delivery by Thursday | Arabella Farm Direct Bouquet of 12 Stems of Fresh Cut Hot Pink Roses in a Free Designer Glass Vase	1	0	1	Expedited	Sumontha williams	5610 EAST DR			ALEXANDRIA	VA	22303-1202	US		Enjoy your gift! Happy Birthday Sao I Love you Boo boo.... From Billy McAllister	false		
113-2208676-1740267	62229139735842	2020-06-22T19:57:04+00:00	2020-06-22T12:57:04-07:00	2020-06-22T20:27:30+00:00	2020-06-25T06:59:59+00:00	-3	1xfx1w1sdzg9mzf@marketplace.amazon.com	olivier curet	+1 314-282-9402 ext. 88936	ABR0022	Purchase Now for Delivery by Thursday | Arabella Farm Direct Bouquet of 12 Fresh Cut Pink Roses with a Free Glass Vase	1	0	1	Expedited	josefina mora	1911 S HARLEM AVE APT 2R			BERWYN	IL	60402-1529	US			false		
111-5660491-7501017	62817437163162	2020-06-22T20:37:10+00:00	2020-06-22T13:37:10-07:00	2020-06-22T21:03:32+00:00	2020-06-25T06:59:59+00:00	-3	7dh1fclfgdz12lj@marketplace.amazon.com	Rik Wolterbeek	+1 314-282-9402 ext. 58508	ABR013	Purchase Now for Delivery by Thursday | Arabella Farm Direct Bouquet of 18 Fresh Cut Yellow Roses with a Free Glass Vase	1	0	1	Expedited	Johann Hubert	1116 IVORY HORN DR			CARROLLTON	TX	75010-2374	US		Thank you for your warm hospitality.   Rik & Jodi From Rik Wolterbeek	false		
111-4424797-3801818	40527066939178	2020-06-22T20:40:30+00:00	2020-06-22T13:40:30-07:00	2020-06-22T21:08:08+00:00	2020-06-25T06:59:59+00:00	-3	7dh1fclfgdz12lj@marketplace.amazon.com	Rik Wolterbeek	+1 346-307-9643 ext. 22976	ABR013	Purchase Now for Delivery by Thursday | Arabella Farm Direct Bouquet of 18 Fresh Cut Yellow Roses with a Free Glass Vase	1	0	1	Expedited	Rik Wolterbeek	13470 SPRINGHILL RD			PROPHETSTOWN	IL	61277-9793	US			false		
113-1623534-1858604	36340209990642	2020-06-22T21:30:09+00:00	2020-06-22T14:30:09-07:00	2020-06-22T21:50:37+00:00	2020-06-25T06:59:59+00:00	-3	qtldg05tq4q4hfy@marketplace.amazon.com	David	+1 346-307-9643 ext. 86767	ABR012	Purchase Now for Delivery by Thursday | Arabella Farm Direct Bouquet of 18 Fresh Cut Pink Roses with a Free Glass Vase	1	0	1	Expedited	MEGAN  GERSHMAN	2241 CAMEL AVE			BENSALEM	PA	19020-2245	US		Happy Birthday Megan!!! Make it a great day all year, one awesome day after another. Love you, LSD From Dave	false		
113-7727133-8049809	68253831698626	2020-06-22T21:35:04+00:00	2020-06-22T14:35:04-07:00	2020-06-22T22:02:44+00:00	2020-06-25T06:59:59+00:00	-3	523lj1nllrsff06@marketplace.amazon.com	David T. Hunter	+1 346-307-9643 ext. 45541	ABR0022	Purchase Now for Delivery by Thursday | Arabella Farm Direct Bouquet of 12 Fresh Cut Pink Roses with a Free Glass Vase	1	0	1	Expedited	Nicole Hunter	10401 GROSVENOR PL APT 1524			ROCKVILLE	MD	20852-4642	US		Happy Birthday, Nicole, WOW and DAD	false		
114-5148955-8245031	60402128306498	2020-06-22T21:59:58+00:00	2020-06-22T14:59:58-07:00	2020-06-22T22:17:33+00:00	2020-06-25T06:59:59+00:00	-3	8fwxbv10hz3mr0y@marketplace.amazon.com	Beth Hummell	+1 346-307-9643 ext. 23380	ABR0033	Purchase Now for Delivery by Thursday | Arabella Farm Direct Bouquet of 12 Fresh Cut Orange Roses with a Free Glass Vase	1	0	1	Expedited	Debbie Trowbridge	9605 N COUNTY ROAD 700 W			ELIZABETHTOWN	IN	47232-9606	US		Just because I love my Sister! From Love, Beth	false		
111-3039762-1475406	20594813780490	2020-06-22T21:57:28+00:00	2020-06-22T14:57:28-07:00	2020-06-22T22:25:54+00:00	2020-06-25T06:59:59+00:00	-3	rvyj2zbbrdgsb82@marketplace.amazon.com	Anthony Brooks	+1 346-307-9643 ext. 63067	ABM010	Arabella Bouquets | Fields of The World Bouquet of Fresh Cut Flowers in a Free Designer Glass Vase	1	0	1	Expedited	Reshad Asgarali	2128 28TH ST # 2			ASTORIA	NY	11105-2934	US		Hi Reshad, Sending you my love❤️ From Mommy	false		
112-2191566-9577854	36838301056842	2020-06-22T22:15:48+00:00	2020-06-22T15:15:48-07:00	2020-06-22T22:45:12+00:00	2020-06-25T06:59:59+00:00	-3	qhbzkt8kx5wcrk8@marketplace.amazon.com	Lily	+1 346-307-9643 ext. 72738	ABR0055	Purchase Now for Delivery by Thursday | Arabella Farm Direct Bouquet of 12 Stems of Fresh Cut Hot Pink Roses in a Free Designer Glass Vase	1	0	1	Expedited	Liz Swarthout	5010 W FIKE RD			COLEMAN	MI	48618-8525	US		Happy 1 year my beautiful girl:) I love you so much. Enjoy the flowers From Lily ❤️	false		
111-0745223-4300248	25612009089602	2020-06-22T22:59:11+00:00	2020-06-22T15:59:11-07:00	2020-06-22T23:19:55+00:00	2020-06-25T06:59:59+00:00	-3	4jwmf4xx735v4nr@marketplace.amazon.com	consy malasoma	+1 210-728-4548 ext. 14888	ABR0022	Purchase Now for Delivery by Thursday | Arabella Farm Direct Bouquet of 12 Fresh Cut Pink Roses with a Free Glass Vase	1	0	1	Standard	Sylvia Cohen	391 KEVIN ST			THOUSAND OAKS	CA	91360-3225	US		Hi Sylvia, I hope you have a smooth recovery! Hug from:  Consy  and Jim	false		
114-4002214-9498615	37617273285466	2020-06-22T23:18:47+00:00	2020-06-22T16:18:47-07:00	2020-06-22T23:44:56+00:00	2020-06-25T06:59:59+00:00	-3	vbg2n8n9dt1mh3r@marketplace.amazon.com	Nancy Walker	+1 346-307-9643 ext. 80396	ABR0022	Purchase Now for Delivery by Thursday | Arabella Farm Direct Bouquet of 12 Fresh Cut Pink Roses with a Free Glass Vase	1	0	1	Expedited	Mary Fulbright	1011 N GEYER RD			SAINT LOUIS	MO	63122-2628	US		Sending you lots of love and prayers for a speedy and complete recovery  Love and hugs From Nancy and Bill Walker	false		
112-7579557-8040218	09655676747354	2020-06-22T23:59:54+00:00	2020-06-22T16:59:54-07:00	2020-06-23T00:29:38+00:00	2020-06-25T06:59:59+00:00	-3	dfjynwb50vp55lh@marketplace.amazon.com	Steven Pylypchuk	+1 346-307-9643 ext. 41256	ABR0022	Purchase Now for Delivery by Thursday | Arabella Farm Direct Bouquet of 12 Fresh Cut Pink Roses with a Free Glass Vase	1	0	1	Expedited	Eugenia Shneider	6 GATES AVE APT 2			SUMMIT	NJ	07901-1589	US		Words cannot express how sorry we are. We love you guys. -Steve, Siegi and Heidi	false		
