order-id	order-item-id	purchase-date	payments-date	reporting-date	promise-date	days-past-promise	buyer-email	buyer-name	buyer-phone-number	sku	product-name	quantity-purchased	quantity-shipped	quantity-to-ship	ship-service-level	recipient-name	ship-address-1	ship-address-2	ship-address-3	ship-city	ship-state	ship-postal-code	ship-country	gift-wrap-type	gift-message-text	is-business-order	purchase-order-number	price-designation
114-0152114-5181006	70222840906490	2020-06-24T17:50:08+00:00	2020-06-24T10:50:08-07:00	2020-06-24T18:20:27+00:00	2020-06-27T06:59:59+00:00	-3	2v0fn8dj0dpgv90@marketplace.amazon.com	Melissa McHugh	+1 346-307-9643 ext. 19348	ABR0022	Purchase Now for Delivery by Monday | Arabella Farm Direct Bouquet of 12 Fresh Cut Pink Roses with a Free Glass Vase	1	0	1	Expedited	Erica Goldstien	8375 WOODHAVEN BLVD APT 2B			WOODHAVEN	NY	11421-1513	US			false		
112-5411646-9401852	33762490511202	2020-06-24T18:16:31+00:00	2020-06-24T11:16:31-07:00	2020-06-24T18:46:39+00:00	2020-06-27T06:59:59+00:00	-3	6y9hh7fyn3rcnly@marketplace.amazon.com	Amy Aronson	+1 346-307-9643 ext. 41432	ABR0022	Purchase Now for Delivery by Monday | Arabella Farm Direct Bouquet of 12 Fresh Cut Pink Roses with a Free Glass Vase	1	0	1	Expedited	Bev Johnson	17592 FRONDELL CT			EDEN PRAIRIE	MN	55347-3417	US		I love you.  Miss you From Amy Aronson	false		
111-8272880-6777822	24396228939202	2020-06-24T18:24:44+00:00	2020-06-24T11:24:44-07:00	2020-06-24T18:52:11+00:00	2020-06-27T06:59:59+00:00	-3	0ztx4lm0vk6p2qt@marketplace.amazon.com	Donna Develine	+1 346-307-9643 ext. 13023	ABM010	Arabella Bouquets | Fields of The World Bouquet of Fresh Cut Flowers in a Free Designer Glass Vase	1	0	1	Expedited	Leslie Manoment	232 BLACKPOOL CT			RIDGE	NY	11961-1349	US		Enjoy your gift! Happy Al-Anon 32 Thank You for being a Blessing in my life. From Donna Develine	false		
112-4040635-8648269	31561076205386	2020-06-24T18:50:31+00:00	2020-06-24T11:50:31-07:00	2020-06-24T19:07:27+00:00	2020-06-27T06:59:59+00:00	-3	fzf56txjl1z25mr@marketplace.amazon.com	Nanci Isaacs	+1 346-307-9643 ext. 53484	ABM002	Purchase Now for Delivery by Monday | Arabella Bouquets Fresh Cut White Calla Lilies in a Free Designer Glass Vase	1	0	1	Expedited	Barbara Isaacs	8302 CURRY PL			ADELPHI	MD	20783-1728	US		WISHING YOU A SPEEDY RECOVERY - WE LOVE YOU BARB!!! LOVE, NANCI, KELVIN, ISABELLE AND OLIVIA From Nanci Isaacs	false		
112-1488224-0919415	43074644841130	2020-06-24T18:48:09+00:00	2020-06-24T11:48:09-07:00	2020-06-24T19:15:57+00:00	2020-06-27T06:59:59+00:00	-3	ffmggxs1t8bcj5b@marketplace.amazon.com	theresa	+1 314-282-9402 ext. 27607	ABM010	Arabella Bouquets | Fields of The World Bouquet of Fresh Cut Flowers in a Free Designer Glass Vase	1	0	1	Expedited	Christine Allard	76 VICKIS LN			NICHOLSON	PA	18446-7690	US		You are always close to our hearts and in our thoughts <3 we love you soooo very much and hope this brings a smile to your beautiful face :) From Sevan and Theresa	false		
112-6770922-0897846	38301970073050	2020-06-24T19:32:32+00:00	2020-06-24T12:32:32-07:00	2020-06-24T20:02:13+00:00	2020-06-27T06:59:59+00:00	-3	68h3bzqzrcgyv7t@marketplace.amazon.com	Heer	+1 314-282-9402 ext. 56017	ABR0055	Purchase Now for Delivery by Monday | Arabella Farm Direct Bouquet of 12 Stems of Fresh Cut Hot Pink Roses in a Free Designer Glass Vase	1	0	1	Expedited	Amanda Simpson	24 MAPLESEED DR			DALLAS	PA	18612-9770	US		Just wanted to say hello :) From Heer	false		
112-9178573-1684212	33836854291442	2020-06-24T21:23:50+00:00	2020-06-24T14:23:50-07:00	2020-06-24T21:47:18+00:00	2020-06-27T06:59:59+00:00	-3	fxctxchgxwdg33d@marketplace.amazon.com	Joan Shuss	+1 346-307-9643 ext. 24052	ABR0022	Purchase Now for Delivery by Monday | Arabella Farm Direct Bouquet of 12 Fresh Cut Pink Roses with a Free Glass Vase	1	0	1	Expedited	Laurie Shuss	28499 BURANO DR			BONITA SPRINGS	FL	34135-8078	US		Hi Laurie,   Hope you are feeling better each day Love, Mom    From Joan Shuss	false		
113-6514476-7557006	40262478782218	2020-06-24T21:29:38+00:00	2020-06-24T14:29:38-07:00	2020-06-24T22:00:14+00:00	2020-06-27T06:59:59+00:00	-3	bhm9gxx0jhzfv1j@marketplace.amazon.com	George Hanes	+1 346-307-9643 ext. 25615	ABR0022	Purchase Now for Delivery by Monday | Arabella Farm Direct Bouquet of 12 Fresh Cut Pink Roses with a Free Glass Vase	1	0	1	Expedited	George Hanes	112 BAY CT			WASHINGTON	PA	15301-6747	US			false		
114-4402479-7417821	63266312507594	2020-06-24T22:13:12+00:00	2020-06-24T15:13:12-07:00	2020-06-24T22:29:52+00:00	2020-06-27T06:59:59+00:00	-3	ndwswl3qf5kbqr1@marketplace.amazon.com	Ronaline Santos	+1 346-307-9643 ext. 08100	ABR0055	Purchase Now for Delivery by Monday | Arabella Farm Direct Bouquet of 12 Stems of Fresh Cut Hot Pink Roses in a Free Designer Glass Vase	1	0	1	Expedited	Lashanda Justin	7840 NW 50TH ST APT 204			LAUDERHILL	FL	33351-5759	US		LLJ, Thank you for all that you are. Thank you for inspiring me. You give light and love. You are light and love. You are incredible, amazing and capable. Huge hearts are the strongest. Stay true, stay true, stay gold.🖤	false		
