order-id	order-item-id	purchase-date	payments-date	reporting-date	promise-date	days-past-promise	buyer-email	buyer-name	buyer-phone-number	sku	product-name	quantity-purchased	quantity-shipped	quantity-to-ship	ship-service-level	recipient-name	ship-address-1	ship-address-2	ship-address-3	ship-city	ship-state	ship-postal-code	ship-country	gift-wrap-type	gift-message-text	is-business-order	purchase-order-number	price-designation
114-0152114-5181006	70222840906490	2020-06-24T17:50:08+00:00	2020-06-24T10:50:08-07:00	2020-06-24T18:20:27+00:00	2020-06-27T06:59:59+00:00	-2	2v0fn8dj0dpgv90@marketplace.amazon.com	Melissa McHugh	+1 346-307-9643 ext. 19348	ABR0022	Purchase Now for Delivery by Monday | Arabella Farm Direct Bouquet of 12 Fresh Cut Pink Roses with a Free Glass Vase	1	0	1	Expedited	Erica Goldstien	8375 WOODHAVEN BLVD APT 2B			WOODHAVEN	NY	11421-1513	US			false		
112-5411646-9401852	33762490511202	2020-06-24T18:16:31+00:00	2020-06-24T11:16:31-07:00	2020-06-24T18:46:39+00:00	2020-06-27T06:59:59+00:00	-2	6y9hh7fyn3rcnly@marketplace.amazon.com	Amy Aronson	+1 346-307-9643 ext. 41432	ABR0022	Purchase Now for Delivery by Monday | Arabella Farm Direct Bouquet of 12 Fresh Cut Pink Roses with a Free Glass Vase	1	0	1	Expedited	Bev Johnson	17592 FRONDELL CT			EDEN PRAIRIE	MN	55347-3417	US		I love you.  Miss you From Amy Aronson	false		
111-8272880-6777822	24396228939202	2020-06-24T18:24:44+00:00	2020-06-24T11:24:44-07:00	2020-06-24T18:52:11+00:00	2020-06-27T06:59:59+00:00	-2	0ztx4lm0vk6p2qt@marketplace.amazon.com	Donna Develine	+1 346-307-9643 ext. 13023	ABM010	Arabella Bouquets | Fields of The World Bouquet of Fresh Cut Flowers in a Free Designer Glass Vase	1	0	1	Expedited	Leslie Manoment	232 BLACKPOOL CT			RIDGE	NY	11961-1349	US		Enjoy your gift! Happy Al-Anon 32 Thank You for being a Blessing in my life. From Donna Develine	false		
112-4040635-8648269	31561076205386	2020-06-24T18:50:31+00:00	2020-06-24T11:50:31-07:00	2020-06-24T19:07:27+00:00	2020-06-27T06:59:59+00:00	-2	fzf56txjl1z25mr@marketplace.amazon.com	Nanci Isaacs	+1 346-307-9643 ext. 53484	ABM002	Purchase Now for Delivery by Monday | Arabella Bouquets Fresh Cut White Calla Lilies in a Free Designer Glass Vase	1	0	1	Expedited	Barbara Isaacs	8302 CURRY PL			ADELPHI	MD	20783-1728	US		WISHING YOU A SPEEDY RECOVERY - WE LOVE YOU BARB!!! LOVE, NANCI, KELVIN, ISABELLE AND OLIVIA From Nanci Isaacs	false		
112-1488224-0919415	43074644841130	2020-06-24T18:48:09+00:00	2020-06-24T11:48:09-07:00	2020-06-24T19:15:57+00:00	2020-06-27T06:59:59+00:00	-2	ffmggxs1t8bcj5b@marketplace.amazon.com	theresa	+1 314-282-9402 ext. 27607	ABM010	Arabella Bouquets | Fields of The World Bouquet of Fresh Cut Flowers in a Free Designer Glass Vase	1	0	1	Expedited	Christine Allard	76 VICKIS LN			NICHOLSON	PA	18446-7690	US		You are always close to our hearts and in our thoughts <3 we love you soooo very much and hope this brings a smile to your beautiful face :) From Sevan and Theresa	false		
112-6770922-0897846	38301970073050	2020-06-24T19:32:32+00:00	2020-06-24T12:32:32-07:00	2020-06-24T20:02:13+00:00	2020-06-27T06:59:59+00:00	-2	68h3bzqzrcgyv7t@marketplace.amazon.com	Heer	+1 314-282-9402 ext. 56017	ABR0055	Purchase Now for Delivery by Monday | Arabella Farm Direct Bouquet of 12 Stems of Fresh Cut Hot Pink Roses in a Free Designer Glass Vase	1	0	1	Expedited	Amanda Simpson	24 MAPLESEED DR			DALLAS	PA	18612-9770	US		Just wanted to say hello :) From Heer	false		
112-9178573-1684212	33836854291442	2020-06-24T21:23:50+00:00	2020-06-24T14:23:50-07:00	2020-06-24T21:47:18+00:00	2020-06-27T06:59:59+00:00	-2	fxctxchgxwdg33d@marketplace.amazon.com	Joan Shuss	+1 346-307-9643 ext. 24052	ABR0022	Purchase Now for Delivery by Monday | Arabella Farm Direct Bouquet of 12 Fresh Cut Pink Roses with a Free Glass Vase	1	0	1	Expedited	Laurie Shuss	28499 BURANO DR			BONITA SPRINGS	FL	34135-8078	US		Hi Laurie,   Hope you are feeling better each day Love, Mom    From Joan Shuss	false		
113-6514476-7557006	40262478782218	2020-06-24T21:29:38+00:00	2020-06-24T14:29:38-07:00	2020-06-24T22:00:14+00:00	2020-06-27T06:59:59+00:00	-2	bhm9gxx0jhzfv1j@marketplace.amazon.com	George Hanes	+1 346-307-9643 ext. 25615	ABR0022	Purchase Now for Delivery by Monday | Arabella Farm Direct Bouquet of 12 Fresh Cut Pink Roses with a Free Glass Vase	1	0	1	Expedited	George Hanes	112 BAY CT			WASHINGTON	PA	15301-6747	US			false		
114-4402479-7417821	63266312507594	2020-06-24T22:13:12+00:00	2020-06-24T15:13:12-07:00	2020-06-24T22:29:52+00:00	2020-06-27T06:59:59+00:00	-2	ndwswl3qf5kbqr1@marketplace.amazon.com	Ronaline Santos	+1 346-307-9643 ext. 08100	ABR0055	Purchase Now for Delivery by Monday | Arabella Farm Direct Bouquet of 12 Stems of Fresh Cut Hot Pink Roses in a Free Designer Glass Vase	1	0	1	Expedited	Lashanda Justin	7840 NW 50TH ST APT 204			LAUDERHILL	FL	33351-5759	US		LLJ, Thank you for all that you are. Thank you for inspiring me. You give light and love. You are light and love. You are incredible, amazing and capable. Huge hearts are the strongest. Stay true, stay true, stay gold.🖤	false		
111-2373185-7465815	39765686376914	2020-06-24T22:32:20+00:00	2020-06-24T15:32:20-07:00	2020-06-24T23:00:24+00:00	2020-06-27T06:59:59+00:00	-2	yknhbmgk9y4np6v@marketplace.amazon.com	Lisa Harter	+1 346-307-9643 ext. 36266	ABR0022	Purchase Now for Delivery by Monday | Arabella Farm Direct Bouquet of 12 Fresh Cut Pink Roses with a Free Glass Vase	1	0	1	Expedited	Mary Elliott	38 EASTERLY DR			EAST SANDWICH	MA	02537-1768	US			false		
113-3246660-8281833	41184826839122	2020-06-24T22:51:23+00:00	2020-06-24T15:51:23-07:00	2020-06-24T23:18:13+00:00	2020-06-27T06:59:59+00:00	-2	p24nyx7zmlcwk78@marketplace.amazon.com	Amazon	+1 346-307-9643 ext. 32988	ABM010	Arabella Bouquets | Fields of The World Bouquet of Fresh Cut Flowers in a Free Designer Glass Vase	1	0	1	Expedited	Simi Halberg	205 8TH ST APT 4B			LAKEWOOD	NJ	08701-2830	US		From the parents of 2019-20 YST students. Thank you and have a great summer. From Amazon	false		
112-8119528-5081059	40195639061714	2020-06-24T22:55:03+00:00	2020-06-24T15:55:03-07:00	2020-06-24T23:25:29+00:00	2020-06-27T06:59:59+00:00	-2	sts2bphsp6n0wdp@marketplace.amazon.com	Greydon Clark	+1 346-307-9643 ext. 87916	ABR0055	Purchase Now for Delivery by Monday | Arabella Farm Direct Bouquet of 12 Stems of Fresh Cut Hot Pink Roses in a Free Designer Glass Vase	1	0	1	Expedited	Cheryl York	420 CAREFREE CT			NILES	MI	49120-3401	US			false		
112-8919564-3883414	27081352555970	2020-06-24T23:09:13+00:00	2020-06-24T16:09:13-07:00	2020-06-24T23:41:22+00:00	2020-06-27T06:59:59+00:00	-2	khfrn8m21mpwshp@marketplace.amazon.com	Mike	+1 346-307-9643 ext. 68602	ABM010	Arabella Bouquets | Fields of The World Bouquet of Fresh Cut Flowers in a Free Designer Glass Vase	1	0	1	Expedited	Tsianna Barnwell	7938 LOWER PERSE CIR			ORLANDO	FL	32827-7551	US		Happy Birthday! Miss you 😘 From Mikey	false		
113-5826045-9654613	45361018240466	2020-06-24T23:36:58+00:00	2020-06-24T16:36:58-07:00	2020-06-25T00:06:19+00:00	2020-06-27T06:59:59+00:00	-2	dp4h85btfl9sj4l@marketplace.amazon.com	David Maldonado	+1 346-307-9643 ext. 61471	ABM010	Arabella Bouquets | Fields of The World Bouquet of Fresh Cut Flowers in a Free Designer Glass Vase	1	0	1	Expedited	Rebecca McCall	2509 N 24TH ST			PHOENIX	AZ	85008-1805	US			false		
112-9856885-5961056	39203064118874	2020-06-24T23:46:47+00:00	2020-06-24T16:46:47-07:00	2020-06-25T00:13:57+00:00	2020-06-27T06:59:59+00:00	-2	n915743blmxnkmf@marketplace.amazon.com	Amanda Phillips	+1 346-307-9643 ext. 14246	ABR0022	Purchase Now for Delivery by Monday | Arabella Farm Direct Bouquet of 12 Fresh Cut Pink Roses with a Free Glass Vase	1	0	1	Expedited	Brenda Goss	8905 Hiddenspring Way			Elk Grove	CA	95758	US		Thinking of you all<3 sending love and prayers your way. From Amanda Phillips	false		
114-6306146-3420205	45324248630418	2020-06-25T00:00:22+00:00	2020-06-24T17:00:22-07:00	2020-06-25T00:18:36+00:00	2020-06-27T06:59:59+00:00	-2	x17mqgs7hfx69bt@marketplace.amazon.com	Antonio	+1 346-307-9643 ext. 45421	ABR0055	Purchase Now for Delivery by Monday | Arabella Farm Direct Bouquet of 12 Stems of Fresh Cut Hot Pink Roses in a Free Designer Glass Vase	1	0	1	Expedited	Isa Velazquez	10225 DAY AVE			KENSINGTON	MD	20895-2728	US		Isa, Que tengas un lindo dia!!!! From Pedro	false		
114-5872443-6417851	35834919911002	2020-06-25T00:31:30+00:00	2020-06-24T17:31:30-07:00	2020-06-25T00:59:53+00:00	2020-06-27T06:59:59+00:00	-2	cs0xhn31jwgtmxc@marketplace.amazon.com	Randee	+1 346-307-9643 ext. 57803	ABR0022	Purchase Now for Delivery by Monday | Arabella Farm Direct Bouquet of 12 Fresh Cut Pink Roses with a Free Glass Vase	1	0	1	Expedited	Rosa and Jack Turano	400 LOCUST ST APT B- 264			LAKEWOOD	NJ	08701-7417	US		Happy Belated Bday. From Randee, Rob and Trev	false		
114-1040574-4716209	15247008210082	2020-06-25T00:38:54+00:00	2020-06-24T17:38:54-07:00	2020-06-25T01:00:40+00:00	2020-06-27T06:59:59+00:00	-2	sn3sth5z8z7hgwn@marketplace.amazon.com	Kim Gorman	+1 346-307-9643 ext. 47099	ABR001	Purchase Now for Delivery by Monday | Arabella Bouquets 12 Stems of Fresh Cut Red Roses in a Free Designer Glass Vase	1	0	1	Expedited	Marilyn	6299 W 10220 N			HIGHLAND	UT	84003-3436	US		I knew my feelings for you are real, no matter what I say or do there is no single day I don't think of you  my North Star 🌟 From With love, Paul	false		
114-9542269-7773022	55157338971402	2020-06-25T01:06:05+00:00	2020-06-24T18:06:05-07:00	2020-06-25T01:29:44+00:00	2020-06-27T06:59:59+00:00	-2	5ncyktfr6y1ntll@marketplace.amazon.com	zomana majid	+1 346-307-9643 ext. 01534	ABB001	Arabella Farm Direct Fresh Cut White Hydrangea	1	0	1	Expedited	Mohua Apa	47 TURNING MILL RD			LEXINGTON	MA	02420-1009	US		Dear Mohua Apa,  With extreme sadness and deepest condolences we grief with you for Uncle. Inna Lillahi wa inna ilayhi raji'un  Love, Zomana & Wasim From Zomana & Wasim	false		
114-8269767-4055460	28689382945722	2020-06-25T01:14:07+00:00	2020-06-24T18:14:07-07:00	2020-06-25T01:38:12+00:00	2020-06-27T06:59:59+00:00	-2	5ncyktfr6y1ntll@marketplace.amazon.com	zomana majid	+1 346-307-9643 ext. 53258	ABB001	Arabella Farm Direct Fresh Cut White Hydrangea	1	0	1	Expedited	Sayem Bhai	26 WATERVILLE LN			SHREWSBURY	MA	01545-4843	US		Dear Sayem Bhai & Dolly,  With extreme sadness and deepest condolences we grief with you for Uncle and your Brother-In-Law. Inna Lillahi wa inna ilayhi raji'un Love, Zomana & Wasim From Zomana & Wasim	false		
112-1100567-6963432	10032155354482	2020-06-25T01:28:04+00:00	2020-06-24T18:28:04-07:00	2020-06-25T01:45:20+00:00	2020-06-27T06:59:59+00:00	-2	631xc0ldgc7kmdd@marketplace.amazon.com	Kim Houghton	+1 346-307-9643 ext. 10208	ABM010	Arabella Bouquets | Fields of The World Bouquet of Fresh Cut Flowers in a Free Designer Glass Vase	1	0	1	Expedited	Diane long	5899 1ST ST S			ARLINGTON	VA	22204-1027	US			true		
111-0571072-2324245	44227549306570	2020-06-25T01:27:12+00:00	2020-06-24T18:27:12-07:00	2020-06-25T01:57:49+00:00	2020-06-27T06:59:59+00:00	-2	v28z2rg3fllhzc8@marketplace.amazon.com	Irene Thomas	+1 346-307-9643 ext. 91479	ABR012	Purchase Now for Delivery by Monday | Arabella Farm Direct Bouquet of 18 Fresh Cut Pink Roses with a Free Glass Vase	1	0	1	Expedited	Wanita Thomas	3850 N STATE ROUTE 89 UNIT 351			PRESCOTT	AZ	86301-8454	US			false		
111-8826478-3602604	65424404708962	2020-06-25T02:03:03+00:00	2020-06-24T19:03:03-07:00	2020-06-25T02:31:08+00:00	2020-06-27T06:59:59+00:00	-2	rhqb1hzxtxgbygs@marketplace.amazon.com	Johnny	+1 346-307-9643 ext. 41653	ABR001	Purchase Now for Delivery by Monday | Arabella Bouquets 12 Stems of Fresh Cut Red Roses in a Free Designer Glass Vase	1	0	1	Expedited	Mayra	1226 JEFFERSON ST NE			MINNEAPOLIS	MN	55413-4104	US		Espero que te guste 😘😘😘😘 De Johnny	false		
111-0984090-2256265	48070102193434	2020-06-25T02:21:48+00:00	2020-06-24T19:21:48-07:00	2020-06-25T02:52:07+00:00	2020-06-27T06:59:59+00:00	-2	2q8yg6dgsxtv6s6@marketplace.amazon.com	lisa evans	+1 346-307-9643 ext. 85628	ABR0055	Purchase Now for Delivery by Monday | Arabella Farm Direct Bouquet of 12 Stems of Fresh Cut Hot Pink Roses in a Free Designer Glass Vase	1	0	1	Expedited	Ms. Wilkinson and Family	1904 SUGAR MAPLE LN			PERRIS	CA	92571-3888	US			false		
112-1640131-2602631	54532430891794	2020-06-25T03:02:00+00:00	2020-06-24T20:02:00-07:00	2020-06-25T03:32:12+00:00	2020-06-27T06:59:59+00:00	-2	7pr0ybrhkx9k7xt@marketplace.amazon.com	Isaac cairns	+1 314-282-9402 ext. 18919	ABR0022	Purchase Now for Delivery by Monday | Arabella Farm Direct Bouquet of 12 Fresh Cut Pink Roses with a Free Glass Vase	1	0	1	Expedited	Glenn cairns	115 CARPENTER HILL RD			CHARLTON	MA	01507-5227	US			false		
112-0884174-4261056	60942451661250	2020-06-25T03:08:16+00:00	2020-06-24T20:08:16-07:00	2020-06-25T03:33:26+00:00	2020-06-27T06:59:59+00:00	-2	224f3fcrxvzxbwf@marketplace.amazon.com	michael kelly	+1 210-728-4548 ext. 38726	ABR001	Purchase Now for Delivery by Monday | Arabella Bouquets 12 Stems of Fresh Cut Red Roses in a Free Designer Glass Vase	1	0	1	Expedited	Maybelyn Stringer	6728 N BOSWORTH AVE APT 2N			CHICAGO	IL	60626-4221	US		Enjoy your gift! Happy anniversary  I love you From michael kelly	false		
114-0893127-7725833	31231998828018	2020-06-25T03:41:03+00:00	2020-06-24T20:41:03-07:00	2020-06-25T04:04:09+00:00	2020-06-27T06:59:59+00:00	-2	jlpy6p1p6k01tsk@marketplace.amazon.com	jacob meyer	+1 346-307-9643 ext. 66673	ABR001	Purchase Now for Delivery by Monday | Arabella Bouquets 12 Stems of Fresh Cut Red Roses in a Free Designer Glass Vase	1	0	1	Expedited	Gabrielle	5117 E WOODGLEN CT MEAD WA 99021			MEAD	WA	99021-9433	US		I may be far away. I may be busy. But I will still do my best to be there one way or another for tha bad days. Heres a little "eat incasr of bad day" care package:) im super proud of you for all the hard work you do:) From jacob meyer	false		
114-9904336-6286656	61774954536458	2020-06-25T03:36:50+00:00	2020-06-24T20:36:50-07:00	2020-06-25T04:05:51+00:00	2020-06-27T06:59:59+00:00	-2	kfvyq5kyh1gph78@marketplace.amazon.com	J Broches	+1 346-307-9643 ext. 56438	ABR004	Arabella Farm Direct Bouquet of 12 Fresh Cut Yellow Roses with a Free Glass Vase	1	0	1	Expedited	J Broches	328 W Colorado St			Arcadia	California	91007	US		Congratulations Stacy and George ♥️We love you and can’t wait to celebrate with you !!!!! From J Broches	false		
113-6043396-8312233	08012005214962	2020-06-25T04:53:19+00:00	2020-06-24T21:53:19-07:00	2020-06-25T05:22:29+00:00	2020-06-27T06:59:59+00:00	-2	n1r9h500kfm2t0j@marketplace.amazon.com	Debbie Meyers	+1 346-307-9643 ext. 32375	ABR0055	Purchase Now for Delivery by Monday | Arabella Farm Direct Bouquet of 12 Stems of Fresh Cut Hot Pink Roses in a Free Designer Glass Vase	1	0	1	Expedited	Tammy Meyers	3024 ANDERSON LAKE RD			Benton	AR	72015-8519	US		Happy Birthday, Tammy!  Have a beautiful day.  Love you, Debbie From Debbie Meyers	false		
111-6144328-5259464	63319978000242	2020-06-25T12:00:59+00:00	2020-06-25T05:00:59-07:00	2020-06-25T12:30:53+00:00	2020-06-30T06:59:59+00:00	-5	zmk5ntbcxsj8ljy@marketplace.amazon.com	randolph jackson	+1 346-307-9643 ext. 72886	ABM010	Arabella Bouquets | Fields of The World Bouquet of Fresh Cut Flowers in a Free Designer Glass Vase	1	0	1	Expedited	James skip mullen	1670 CLAIRMONT RD			DECATUR	GA	30033-4004	US			false		
114-7939941-8383438	27162517029026	2020-06-24T14:01:24+00:00	2020-06-24T07:01:24-07:00	2020-06-25T13:11:18+00:00	2020-06-30T06:59:59+00:00	-5	jj1qy1qp46kf6jf@marketplace.amazon.com	Cheryl	+1 346-307-9643 ext. 96012	ABR0033	Purchase Now for Delivery by Friday | Arabella Farm Direct Bouquet of 12 Fresh Cut Orange Roses with a Free Glass Vase	1	0	1	Expedited	Jill Blanchard	3225 FINLEY AVE			JOPLIN	MO	64804-4140	US		Hi Jill! Thinking about you.   Since I missed your birthday, I just wanted to send you a little something to let you know you mean a great deal to me!    Love Ya! From Cheryl	false		
111-3034159-6097840	54254671602186	2020-06-25T12:56:00+00:00	2020-06-25T05:56:00-07:00	2020-06-25T13:25:38+00:00	2020-06-30T06:59:59+00:00	-5	zj2mnd0lnzhq6w2@marketplace.amazon.com	Jose Ridriguez	+1 346-307-9643 ext. 47346	ABR0055	Purchase Now for Delivery by Monday | Arabella Farm Direct Bouquet of 12 Stems of Fresh Cut Hot Pink Roses in a Free Designer Glass Vase	1	0	1	Expedited	Mary Sonia Gonzalez	5920 N KRAMER CT			RIMROCK	AZ	86335-6229	US			false		
111-3461281-1432251	31366526276266	2020-06-25T13:01:44+00:00	2020-06-25T06:01:44-07:00	2020-06-25T13:29:16+00:00	2020-06-30T06:59:59+00:00	-5	vghh3s6qw4z691l@marketplace.amazon.com	Catherine	+1 346-307-9643 ext. 89791	ABM010	Arabella Bouquets | Fields of The World Bouquet of Fresh Cut Flowers in a Free Designer Glass Vase	1	0	1	Expedited	The Humphries Family	2101 WILLOWTREE LN			TEMPLE HILLS	MD	20748-5724	US		You’re always in my prayers! From Arlene	false		
114-2542490-7245803	36728906727810	2020-06-25T13:04:50+00:00	2020-06-25T06:04:50-07:00	2020-06-25T13:35:20+00:00	2020-06-30T06:59:59+00:00	-5	1x9f0t8d8cfm12j@marketplace.amazon.com	Jeromie	+1 346-307-9643 ext. 14481	ABR0066	Purchase Now for Delivery by Monday | Arabella Bouquets 18 Stems of Fresh Cut White Roses in a Free Designer Glass Vase	1	0	1	Expedited	Jeromie	5450 SOMERSET DR APT 303			THE COLONY	TX	75056-4891	US			false		
112-6522158-7513006	34924222520266	2020-06-25T13:32:47+00:00	2020-06-25T06:32:47-07:00	2020-06-25T14:01:54+00:00	2020-06-30T06:59:59+00:00	-5	wpfz8cs4bx61b85@marketplace.amazon.com	SALTO (FINANCE DEPARTMENT)	+1 346-307-9643 ext. 15309	ABM010	Arabella Bouquets | Fields of The World Bouquet of Fresh Cut Flowers in a Free Designer Glass Vase	1	0	1	Expedited	Nicole SeguraPO026	12615 OTTER CREST CT			HUMBLE	TX	77346-1794	US			true	026	
112-5145317-3693001	26120823313114	2020-06-25T13:35:44+00:00	2020-06-25T06:35:44-07:00	2020-06-25T14:05:30+00:00	2020-06-30T06:59:59+00:00	-5	105glwct13z5skf@marketplace.amazon.com	Ed Johnson	+1 314-282-9402 ext. 18892	ABR0022	Purchase Now for Delivery by Monday | Arabella Farm Direct Bouquet of 12 Fresh Cut Pink Roses with a Free Glass Vase	2	0	2	Expedited	Jeff Johnson	25 SACHEM HILL RD			WINDSOR	CT	06095-2310	US			false		
