order-id	order-item-id	purchase-date	payments-date	reporting-date	promise-date	days-past-promise	buyer-email	buyer-name	buyer-phone-number	sku	product-name	quantity-purchased	quantity-shipped	quantity-to-ship	ship-service-level	recipient-name	ship-address-1	ship-address-2	ship-address-3	ship-city	ship-state	ship-postal-code	ship-country	gift-wrap-type	gift-message-text	is-business-order	purchase-order-number	price-designation
111-7448015-5188202	49181339044746	2020-06-23T18:16:17+00:00	2020-06-23T11:16:17-07:00	2020-06-23T18:30:53+00:00	2020-06-26T06:59:59+00:00	-2	hckckv6hddm2kf7@marketplace.amazon.com	Bobbie Jo Dentis	+1 346-307-9643 ext. 50986	ABM010	Arabella Bouquets | Fields of The World Bouquet of Fresh Cut Flowers in a Free Designer Glass Vase	1	0	1	Expedited	Debbie Alexander	236 FAIRLAWN DR			HIDEAWAY	TX	75771-5024	US		Debbie, We hope these flowers brighten your day & remind you of the beautiful spirit your momma is. Praying that our Lord, will speak blessings and comfort to your heart in the coming days. Grace & Peace, Bobbie Jo & Crystal From Bobbie Jo Dentis	true		
111-4367169-4813002	60997070250074	2020-06-23T18:11:28+00:00	2020-06-23T11:11:28-07:00	2020-06-23T18:42:11+00:00	2020-06-26T06:59:59+00:00	-2	vlzmhf50tnkxy9h@marketplace.amazon.com	Edna Montalvo	+1 346-307-9643 ext. 79144	ABM010	Arabella Bouquets | Fields of The World Bouquet of Fresh Cut Flowers in a Free Designer Glass Vase	1	0	1	Expedited	Edna Montalvo	28 CEDAR ST			EATONTOWN	NJ	07724-9622	US			false		
112-8433138-8062605	42011352257458	2020-06-23T18:49:14+00:00	2020-06-23T11:49:14-07:00	2020-06-23T19:11:52+00:00	2020-06-26T06:59:59+00:00	-2	w9cgf4t7kqmr449@marketplace.amazon.com	Barbara	+1 346-307-9643 ext. 56821	ABR0022	Purchase Now for Delivery by Friday | Arabella Farm Direct Bouquet of 12 Fresh Cut Pink Roses with a Free Glass Vase	1	0	1	Expedited	Harmeet Singh	1025 PARK PL APT 213			SAN MATEO	CA	94403-7103	US		May the joy of parenting bring you a lifetime of laughter and happiness!!!! Congrats !!!! Welcome Bisam From Parmjit Bhua	false		
112-9910772-9893844	29603706848034	2020-06-23T19:21:54+00:00	2020-06-23T12:21:54-07:00	2020-06-23T19:45:49+00:00	2020-06-26T06:59:59+00:00	-2	k1cwjbcnssqwxfj@marketplace.amazon.com	Desaree	+1 346-307-9643 ext. 73329	ABR001	Purchase Now for Delivery by Friday | Arabella Bouquets 12 Stems of Fresh Cut Red Roses in a Free Designer Glass Vase	1	0	1	Expedited	Laurnetta Reed	23 EASTERN DR			CHICOPEE	MA	01013-1904	US		Happy Belated Birthday Mama! Khalil, Shealeta, Desaree and Jamir	false		
112-5975709-5040268	39745951828770	2020-06-23T19:16:14+00:00	2020-06-23T12:16:14-07:00	2020-06-23T19:46:26+00:00	2020-06-26T06:59:59+00:00	-2	439z66ykvqvbvgg@marketplace.amazon.com	Stephen P. Kapolka	+1 346-307-9643 ext. 73831	ABR0055	Purchase Now for Delivery by Friday | Arabella Farm Direct Bouquet of 12 Stems of Fresh Cut Hot Pink Roses in a Free Designer Glass Vase	1	0	1	Expedited	Stephen P Kapolka	108 N Apple South Dr			Carriere	MS	39426-8927	US			false		
111-6492853-0095403	42585846092898	2020-06-23T20:09:55+00:00	2020-06-23T13:09:55-07:00	2020-06-23T20:37:03+00:00	2020-06-26T06:59:59+00:00	-2	pfls887dwpydh1p@marketplace.amazon.com	catherine catalano	+1 346-307-9643 ext. 82888	ABR0055	Purchase Now for Delivery by Friday | Arabella Farm Direct Bouquet of 12 Stems of Fresh Cut Hot Pink Roses in a Free Designer Glass Vase	1	0	1	Expedited	Trisha DeJesus	186 BRECKENRIDGE ST			BUFFALO	NY	14213-1562	US		Hi Trisha, We hope you're feeling much better! We love you, Jim & Cathy Catalano	false		
112-1097485-8543454	67037041743346	2020-06-23T21:26:36+00:00	2020-06-23T14:26:36-07:00	2020-06-23T21:27:35+00:00	2020-06-26T06:59:59+00:00	-2	lwcd95ghcsx9q4x@marketplace.amazon.com	Lori Schwarz	+1 346-307-9643 ext. 90765	ABR0022	Purchase Now for Delivery by Friday | Arabella Farm Direct Bouquet of 12 Fresh Cut Pink Roses with a Free Glass Vase	1	0	1	Expedited	Phyllis Pivovarnic	304 W 50TH ST			ASHTABULA	OH	44004-7041	US		Our heart breaks for your loss. Deepest condolences. From Lori Schwarz	false		
111-1502639-9345833	16055773554346	2020-06-23T21:13:54+00:00	2020-06-23T14:13:54-07:00	2020-06-23T21:41:48+00:00	2020-06-26T06:59:59+00:00	-2	k1mygwwgbtpnmt7@marketplace.amazon.com	Avangelina mahan	+1 346-307-9643 ext. 90790	ABR0033	Purchase Now for Delivery by Friday | Arabella Farm Direct Bouquet of 12 Fresh Cut Orange Roses with a Free Glass Vase	1	0	1	Expedited	Leisa Ensworth	8336 E Ironwood			Orange	CA	92869	US		Dear miss Leisa’s, So I missed Easter, Mother’s Day and YOUR BIRTHDAY, and baseball season??? From Nicholas mahan	false		
113-6132442-4966654	11038957644922	2020-06-23T21:27:49+00:00	2020-06-23T14:27:49-07:00	2020-06-23T21:47:37+00:00	2020-06-26T06:59:59+00:00	-2	95dsy6gjpht8fjm@marketplace.amazon.com	Alicia	+1 346-307-9643 ext. 89892	ABR0022	Purchase Now for Delivery by Friday | Arabella Farm Direct Bouquet of 12 Fresh Cut Pink Roses with a Free Glass Vase	1	0	1	Expedited	Desiree Koester	1003 ACORN DR			ARROYO GRANDE	CA	93420-1505	US		We are hoping these flowers can help brighten your day a bit.    All our love, From Nich, Alise & Family	false		
112-6557958-2628237	38470985888546	2020-06-23T22:41:56+00:00	2020-06-23T15:41:56-07:00	2020-06-23T23:04:46+00:00	2020-06-26T06:59:59+00:00	-2	p9vmg5b18wwrmsy@marketplace.amazon.com	virginia karl	+1 314-282-9402 ext. 42618	ABR0055	Purchase Now for Delivery by Friday | Arabella Farm Direct Bouquet of 12 Stems of Fresh Cut Hot Pink Roses in a Free Designer Glass Vase	1	0	1	Expedited	Mrs. Keri Gallo	189 N PARK DR			NEW MILFORD	NJ	07646-2817	US			false		
112-2713400-1733011	14633264615850	2020-06-24T00:14:27+00:00	2020-06-23T17:14:27-07:00	2020-06-24T00:31:11+00:00	2020-06-26T06:59:59+00:00	-2	wswkz0l9606301x@marketplace.amazon.com	Anna Delgadillo	+1 346-307-9643 ext. 79119	ABM002	Arabella Bouquets Fresh Cut White Calla Lilies in a Free Designer Glass Vase	1	0	1	Expedited	Samarah Delgadillo	601 FULCHER LN			CHESTER	VA	23836-2716	US			false		
114-5849503-9789864	22190792596234	2020-06-24T00:48:34+00:00	2020-06-23T17:48:34-07:00	2020-06-24T01:17:26+00:00	2020-06-26T06:59:59+00:00	-2	m8vxw1znsc6zkl8@marketplace.amazon.com	Carla I Falkson	+1 346-307-9643 ext. 97627	ABM0033	Purchase Now for Delivery by Thursday | Arabella Farm Direct Bouquet of Fresh Cut White Hydrangea with a Free Glass Vase	1	0	1	Expedited	Sarah Bothma	2900 ELMWOOD AVE			ROCHESTER	NY	14618-2023	US		You are special. I love you so much. Enjoy your gift! From Carla I Falkson	false		
111-9176150-7239447	61598807886082	2020-06-24T00:45:45+00:00	2020-06-23T17:45:45-07:00	2020-06-24T01:42:31+00:00	2020-06-26T06:59:59+00:00	-2	rwk709vwgyrbjx9@marketplace.amazon.com	thomas wrenn	+1 346-307-9643 ext. 18067	ABR0022	Purchase Now for Delivery by Friday | Arabella Farm Direct Bouquet of 12 Fresh Cut Pink Roses with a Free Glass Vase	1	0	1	Expedited	Ms. Wendy Basinger	710 Julian Road			Salisbury	NC	28147	US			false		
112-4777729-4060217	61364598401114	2020-06-24T01:32:29+00:00	2020-06-23T18:32:29-07:00	2020-06-24T02:02:33+00:00	2020-06-26T06:59:59+00:00	-2	n3shfk9t9tgt4vt@marketplace.amazon.com	james j tulino, jr	+1 346-307-9643 ext. 13273	ABR0022	Purchase Now for Delivery by Friday | Arabella Farm Direct Bouquet of 12 Fresh Cut Pink Roses with a Free Glass Vase	1	0	1	Expedited	Nora Pulatani	60 HAMILTON AVE APT 7M			STATEN ISLAND	NY	10301-1850	US			false		
111-8440059-9973804	30033147926354	2020-06-24T01:36:15+00:00	2020-06-23T18:36:15-07:00	2020-06-24T02:05:58+00:00	2020-06-26T06:59:59+00:00	-2	cvm99gtgwsts60h@marketplace.amazon.com	jason9801	+1 346-307-9643 ext. 98802	ABM010	Arabella Bouquets | Fields of The World Bouquet of Fresh Cut Flowers in a Free Designer Glass Vase	1	0	1	Standard	Zhi Qiu	5678 LITTLE OAK TRL			STONE MOUNTAIN	GA	30087-2975	US			false		
112-4539952-3634627	30711053579602	2020-06-24T01:44:55+00:00	2020-06-23T18:44:55-07:00	2020-06-24T02:10:15+00:00	2020-06-26T06:59:59+00:00	-2	gxbzws65pwc5jfl@marketplace.amazon.com	Trevor Harvey	+1 314-282-9402 ext. 19119	ABR0022	Purchase Now for Delivery by Friday | Arabella Farm Direct Bouquet of 12 Fresh Cut Pink Roses with a Free Glass Vase	1	0	1	Expedited	Marion Mongey	77 SUN VALLEY WAY			MORRIS PLAINS	NJ	07950-1913	US		Hope this finds you safe and well - love you all☘️💕 From Madeline Trevor & Family	false		
113-5247256-3441860	18485383567698	2020-06-24T01:43:55+00:00	2020-06-23T18:43:55-07:00	2020-06-24T02:11:29+00:00	2020-06-26T06:59:59+00:00	-2	n51vdmg4k0twfcq@marketplace.amazon.com	Zarina Baber	+1 346-307-9643 ext. 17073	ABR0055	Purchase Now for Delivery by Friday | Arabella Farm Direct Bouquet of 12 Stems of Fresh Cut Hot Pink Roses in a Free Designer Glass Vase	1	0	1	Expedited	Ursela Baber	30 Dalton Street	Apt. # 1509		Bostan	MA	02115	US		A special gift to a beautiful daughter! May Allah shower you and Zafeer with a life time of blessings and happiness!   Lots of love! From Mom and Dad	false		
112-4269442-3172248	40580432379434	2020-06-24T02:07:17+00:00	2020-06-23T19:07:17-07:00	2020-06-24T02:21:36+00:00	2020-06-26T06:59:59+00:00	-2	qx1p1b6n784zs7p@marketplace.amazon.com	matthew	+1 346-307-9643 ext. 10371	ABR0055	Purchase Now for Delivery by Friday | Arabella Farm Direct Bouquet of 12 Stems of Fresh Cut Hot Pink Roses in a Free Designer Glass Vase	1	0	1	Expedited	Matthew A Major	4048 ORSHAL RD			WHITEHALL	MI	49461-9770	US			false		
113-0200193-8065820	58393638122906	2020-06-24T03:18:14+00:00	2020-06-23T20:18:14-07:00	2020-06-24T03:48:42+00:00	2020-06-26T06:59:59+00:00	-2	8yfstmlp8th29kt@marketplace.amazon.com	A Keele	+1 346-307-9643 ext. 79751	ABR004	Arabella Farm Direct Bouquet of 12 Fresh Cut Yellow Roses with a Free Glass Vase	1	0	1	Expedited	Sandra Jensen	911 JEFFERSON ST			SAUK CITY	WI	53583-1511	US			false		
111-4817980-0073058	05322701642114	2020-06-24T03:29:26+00:00	2020-06-23T20:29:26-07:00	2020-06-24T03:59:49+00:00	2020-06-26T06:59:59+00:00	-2	8fqhvw7z3lv3bg3@marketplace.amazon.com	Eric Clayborne	+1 346-307-9643 ext. 81522	ABR001	Purchase Now for Delivery by Friday | Arabella Bouquets 12 Stems of Fresh Cut Red Roses in a Free Designer Glass Vase	1	0	1	Expedited	Eric Clayborne	8289 SPOONBILL RD			VIVIAN	LA	71082-9640	US			false		
113-5422447-4589034	31682173200298	2020-06-24T03:36:32+00:00	2020-06-23T20:36:32-07:00	2020-06-24T04:08:26+00:00	2020-06-26T06:59:59+00:00	-2	tqzvjylzcnjyzs4@marketplace.amazon.com	Corina Kuo	+1 314-282-9402 ext. 65997	ABR0022	Purchase Now for Delivery by Friday | Arabella Farm Direct Bouquet of 12 Fresh Cut Pink Roses with a Free Glass Vase	1	0	1	Expedited	Mrs. Vivian Match	1685 GAMAY LN			BRENTWOOD	CA	94513-4330	US			false		
114-0310725-7082635	03398449842730	2020-06-24T03:46:49+00:00	2020-06-23T20:46:49-07:00	2020-06-24T04:15:03+00:00	2020-06-26T06:59:59+00:00	-2	b4v1lb8fr3gtj3j@marketplace.amazon.com	Kira Koman	+1 346-307-9643 ext. 56983	ABR0022	Purchase Now for Delivery by Friday | Arabella Farm Direct Bouquet of 12 Fresh Cut Pink Roses with a Free Glass Vase	1	0	1	Expedited	Sonya Entova	141 WESTMINSTER AVE			ARLINGTON	MA	02474-2736	US		Congratulations on your wedding day! We wish you long and happy life together! Asya, Kira, Volodya. From Kira Koman	false		
112-0908213-1121000	58871864307794	2020-06-24T03:51:18+00:00	2020-06-23T20:51:18-07:00	2020-06-24T04:19:21+00:00	2020-06-26T06:59:59+00:00	-2	0tvknwpnbr0rd64@marketplace.amazon.com	Nichola Rohr	+1 346-307-9643 ext. 12894	ABR0022	Purchase Now for Delivery by Friday | Arabella Farm Direct Bouquet of 12 Fresh Cut Pink Roses with a Free Glass Vase	1	0	1	Expedited	Marie Fitzpatrick	19373 APPLE VALLEY RD			SONOMA	CA	95476-4824	US		A little something to chase the stress of life away. Xxx From Aileen	false		
114-5975592-9036245	56276979121466	2020-06-24T04:07:35+00:00	2020-06-23T21:07:35-07:00	2020-06-24T04:35:34+00:00	2020-06-26T06:59:59+00:00	-2	f6zhblf59hy4j3p@marketplace.amazon.com	Sheridan Lively	+1 346-307-9643 ext. 99373	ABR0022	Purchase Now for Delivery by Friday | Arabella Farm Direct Bouquet of 12 Fresh Cut Pink Roses with a Free Glass Vase	1	0	1	Expedited	Sheridan Lively	25302 LACEBARK DR			MURRIETA	CA	92563-5244	US		Happy birthday old ass mf!!! I love you          DMF<3 From Devon M Flynn	false		
111-5619106-3383453	06255716037618	2020-06-24T04:18:07+00:00	2020-06-23T21:18:07-07:00	2020-06-24T04:48:32+00:00	2020-06-26T06:59:59+00:00	-2	tzs47fhw3zb5r92@marketplace.amazon.com	Kathleen Auerhahn	+1 346-307-9643 ext. 47241	ABR0055	Purchase Now for Delivery by Friday | Arabella Farm Direct Bouquet of 12 Stems of Fresh Cut Hot Pink Roses in a Free Designer Glass Vase	1	0	1	Expedited	Kathleen Auerhahn	1213 Ellsworth St			Philadelphia	PA	19147	US			false		
112-8748278-8260242	39650506216610	2020-06-24T07:35:51+00:00	2020-06-24T00:35:51-07:00	2020-06-24T07:51:40+00:00	2020-06-25T06:59:59+00:00	-1	dj2r4g5hxjtp0pc@marketplace.amazon.com	Sione Fanua	+1 314-282-9402 ext. 90839	ABR012	Purchase Now for Delivery by Friday | Arabella Farm Direct Bouquet of 18 Fresh Cut Pink Roses with a Free Glass Vase	1	0	1	SecondDay	Sione Fanua	1025 OAK LEAF DR			COLTON	CA	92324-4545	US		Hey babe, I know it's hard to see each other with our busy schedules and I know it's not a lot, but I wanted to let you know that you're on my mind every second of the day. Happy 1 month my love! I love you. From your goof	false		
111-9459051-9723437	60976918079410	2020-06-24T07:29:49+00:00	2020-06-24T00:29:49-07:00	2020-06-24T07:59:52+00:00	2020-06-27T06:59:59+00:00	-3	dgqjm1pxlrkh76m@marketplace.amazon.com	Michael J Sandd	+1 346-307-9643 ext. 21265	ABR004	Arabella Farm Direct Bouquet of 12 Fresh Cut Yellow Roses with a Free Glass Vase	1	0	1	Expedited	Mize	16900 19TH AVE N			PLYMOUTH	MN	55447-2714	US			false		
111-6337950-1059436	44139961021114	2020-06-24T08:18:30+00:00	2020-06-24T01:18:30-07:00	2020-06-24T08:47:40+00:00	2020-06-25T06:59:59+00:00	-1	48l2gzwp41tj8kv@marketplace.amazon.com	raimir	+1 346-307-9643 ext. 13096	ABR0022	Purchase Now for Delivery by Friday | Arabella Farm Direct Bouquet of 12 Fresh Cut Pink Roses with a Free Glass Vase	1	0	1	SecondDay	raimir chester	359 W 28TH ST			INDIANAPOLIS	IN	46208-5174	US			false		
114-1507230-9008212	69317522306538	2020-06-24T10:35:28+00:00	2020-06-24T03:35:28-07:00	2020-06-24T11:03:00+00:00	2020-06-25T06:59:59+00:00	-1	spzr6bz27p2r6gz@marketplace.amazon.com	shelia johnson	+1 346-307-9643 ext. 04296	ABR0055	Purchase Now for Delivery by Friday | Arabella Farm Direct Bouquet of 12 Stems of Fresh Cut Hot Pink Roses in a Free Designer Glass Vase	1	0	1	SecondDay	Loy Greer	1071 BROWNS CHAPEL RD			BOONE	NC	28607-8111	US		Happy Birthday! I hope you have a wonderful day! From Love Christy	false		
113-2749965-6876209	38843078035018	2020-06-24T11:23:56+00:00	2020-06-24T04:23:56-07:00	2020-06-24T11:48:49+00:00	2020-06-25T06:59:59+00:00	-1	hmmfvgywqjdznkr@marketplace.amazon.com	Jeremy D. Denton	+1 346-307-9643 ext. 02003	ABM010	Arabella Bouquets | Fields of The World Bouquet of Fresh Cut Flowers in a Free Designer Glass Vase	1	0	1	SecondDay	Barb Oldham	12855 W Runway Rd	1414		Playa Vista	Ca	90094	US		Wishing you the best recovery! We appreciate you so much! Lots of Love from Texas!! From Jeremy And Casey Denton	true		
111-8964108-8968239	34488966343050	2020-06-24T11:26:18+00:00	2020-06-24T04:26:18-07:00	2020-06-24T11:56:20+00:00	2020-06-25T06:59:59+00:00	-1	cb30pl3q1d4wcc1@marketplace.amazon.com	chris carter	+1 346-307-9643 ext. 39146	ABR0022	Purchase Now for Delivery by Friday | Arabella Farm Direct Bouquet of 12 Fresh Cut Pink Roses with a Free Glass Vase	1	0	1	SecondDay	Heather Thompson	2855 MILLER DR STE 209			PLYMOUTH	IN	46563-8096	US			false		
114-2984553-9503450	13187956018122	2020-06-24T12:24:50+00:00	2020-06-24T05:24:50-07:00	2020-06-24T12:47:48+00:00	2020-06-25T06:59:59+00:00	-1	9znjc8v9jg4hspl@marketplace.amazon.com	Alice M. Morgan	+1 210-728-4548 ext. 01636	ABR0055	Purchase Now for Delivery by Friday | Arabella Farm Direct Bouquet of 12 Stems of Fresh Cut Hot Pink Roses in a Free Designer Glass Vase	1	0	1	SecondDay	Morgan Hockenbrock	729 ROWE LN			HARRISBURG	PA	17112-2760	US		Happy Birthday dear Morgan From Ma Ma and Pop Pop	false		
114-6860865-0930639	27726422259826	2020-06-24T13:07:58+00:00	2020-06-24T06:07:58-07:00	2020-06-24T13:37:45+00:00	2020-06-25T06:59:59+00:00	-1	bf9ym3r7cwvtnnp@marketplace.amazon.com	Lisa	+1 314-282-9402 ext. 86488	ABR0055	Purchase Now for Delivery by Friday | Arabella Farm Direct Bouquet of 12 Stems of Fresh Cut Hot Pink Roses in a Free Designer Glass Vase	1	0	1	SecondDay	Wendy Carsten	940 HOOKER ST			DENVER	CO	80204-3239	US		Wishing you a very happy birthday! Xoxoxo From Lisa	false		
114-1625530-0146650	45811208570962	2020-06-24T13:06:19+00:00	2020-06-24T06:06:19-07:00	2020-06-24T13:40:29+00:00	2020-06-25T06:59:59+00:00	-1	bf9ym3r7cwvtnnp@marketplace.amazon.com	Lisa	+1 210-728-4548 ext. 57371	ABR0022	Purchase Now for Delivery by Friday | Arabella Farm Direct Bouquet of 12 Fresh Cut Pink Roses with a Free Glass Vase	1	0	1	SecondDay	Jessica Carsten	212 LOWDEN ST			PAWTUCKET	RI	02860-6022	US		Wishing you a very happy birthday! Xoxo From Lisa	false		
111-6142335-7900257	14137278591978	2020-06-24T13:36:49+00:00	2020-06-24T06:36:49-07:00	2020-06-24T14:08:48+00:00	2020-06-25T06:59:59+00:00	-1	6fl6jr05r5yyr1l@marketplace.amazon.com	gurjeet	+1 346-307-9643 ext. 99770	ABM010	Arabella Bouquets | Fields of The World Bouquet of Fresh Cut Flowers in a Free Designer Glass Vase	1	0	1	SecondDay	Yesenia Villasenor	683 WINDMILL CT			FREMONT	CA	94539-7239	US		Happy Birthday Yesenia! From Vinny Narang	false		
111-9021024-3165036	24070867525922	2020-06-24T13:46:34+00:00	2020-06-24T06:46:34-07:00	2020-06-24T14:15:20+00:00	2020-06-25T06:59:59+00:00	-1	xjgyf5z724cy060@marketplace.amazon.com	Tim	+1 346-307-9643 ext. 54973	ABM010	Arabella Bouquets | Fields of The World Bouquet of Fresh Cut Flowers in a Free Designer Glass Vase	1	0	1	SecondDay	Melba Bangert	708 MISTWOOD BLUFF RD			CAMDENTON	MO	65020-4810	US		Happy 80th, Gramma B!  We love you! xoxo From T & M & G & G	false		
114-7566510-0822631	38011566290874	2020-06-24T14:00:54+00:00	2020-06-24T07:00:54-07:00	2020-06-24T14:25:26+00:00	2020-06-25T06:59:59+00:00	-1	78tk1hh1lcsjctk@marketplace.amazon.com	Sandra E. Shapiro	+1 346-307-9643 ext. 58541	ABM010	Arabella Bouquets | Fields of The World Bouquet of Fresh Cut Flowers in a Free Designer Glass Vase	1	0	1	SecondDay	Maureen Shapiro	4951 BRENMAN PARK DR APT 402			ALEXANDRIA	VA	22304-7799	US			false		
113-7370824-9765069	42334143899498	2020-06-24T13:54:04+00:00	2020-06-24T06:54:04-07:00	2020-06-24T14:28:12+00:00	2020-06-27T06:59:59+00:00	-3	k97lw145vjy1d43@marketplace.amazon.com	philip g. schwartz	+1 346-307-9643 ext. 70076	ABM010	Arabella Bouquets | Fields of The World Bouquet of Fresh Cut Flowers in a Free Designer Glass Vase	1	0	1	Expedited	cres schwartz	44419 BIRCHWOOD CT			NORTHVILLE	MI	48168-4409	US			false		
114-1015603-1328211	12687939891602	2020-06-24T14:01:51+00:00	2020-06-24T07:01:51-07:00	2020-06-24T14:32:11+00:00	2020-06-25T06:59:59+00:00	-1	vpfdfmt5pt5zycq@marketplace.amazon.com	Julie L.  Geroux	+1 314-282-9402 ext. 66768	ABR012	Purchase Now for Delivery by Friday | Arabella Farm Direct Bouquet of 18 Fresh Cut Pink Roses with a Free Glass Vase	1	0	1	SecondDay	Julie Geroux	24 SUMMER ST APT 2			BATH	ME	04530-2668	US			false		
113-0503573-2834636	51058733276666	2020-06-24T14:08:09+00:00	2020-06-24T07:08:09-07:00	2020-06-24T14:32:41+00:00	2020-06-25T06:59:59+00:00	-1	3pxcth0p817zzpp@marketplace.amazon.com	Adriane	+1 346-307-9643 ext. 16676	ABR0022	Purchase Now for Delivery by Friday | Arabella Farm Direct Bouquet of 12 Fresh Cut Pink Roses with a Free Glass Vase	1	0	1	SecondDay	Lucia Luz Enriquez	172 S WASHINGTON AVE APT D4			BERGENFIELD	NJ	07621-2929	US		Happy 27th Birthday Bb! Enjoy your day. I love you both with Lauren 😘💓💓😘 From Adriane	false		
112-2409293-3438627	67557908362778	2020-06-24T14:20:54+00:00	2020-06-24T07:20:54-07:00	2020-06-24T14:48:50+00:00	2020-06-25T06:59:59+00:00	-1	4fz2njdrkrwhlc9@marketplace.amazon.com	Patricia L. Wallner	+1 346-307-9643 ext. 00168	ABR0055	Purchase Now for Delivery by Friday | Arabella Farm Direct Bouquet of 12 Stems of Fresh Cut Hot Pink Roses in a Free Designer Glass Vase	1	0	1	SecondDay	Tracy Wallner	10020 SW 47TH AVE			OCALA	FL	34476-4060	US		Happy 50th - again! [Didn't trust tulips, but same color...LOL!] May your 5th decade be your best yet! Much love, Patty & Dave From Patricia L. Wallner	false		
111-1240131-9543441	35555696683338	2020-06-24T14:30:08+00:00	2020-06-24T07:30:08-07:00	2020-06-24T14:56:21+00:00	2020-06-25T06:59:59+00:00	-1	bb8gkkqcm4f86hd@marketplace.amazon.com	Ana Rodriguez	+1 346-307-9643 ext. 85747	ABR0022	Purchase Now for Delivery by Friday | Arabella Farm Direct Bouquet of 12 Fresh Cut Pink Roses with a Free Glass Vase	1	0	1	SecondDay	Mary Rodriguez	3080 NE 47th Court	Apartment 504		Fort Lauderdale	FL	33308	US		Happy Birthday! We love you, Clara, Danny, Chrissy and Ana From Ana Rodriguez	false		
111-9544380-0753813	51126490208738	2020-06-24T15:02:33+00:00	2020-06-24T08:02:33-07:00	2020-06-24T15:23:48+00:00	2020-06-25T06:59:59+00:00	-1	5v5ztzkfr3n8fcs@marketplace.amazon.com	Hans-Juergen Martens	001-202-9973514	ABR001	Purchase Now for Delivery by Friday | Arabella Bouquets 12 Stems of Fresh Cut Red Roses in a Free Designer Glass Vase	1	0	1	SecondDay	Mrs.Aarthi Shenoy	2801 CHESAPEAKE ST NW			WASHINGTON	DC	20008-1045	US		Dear Aarthi, dear Niels, All the best for you on your anniversary ! With love Juergen	false		
113-8467557-2879445	06881390240906	2020-06-24T15:05:10+00:00	2020-06-24T08:05:10-07:00	2020-06-24T15:34:12+00:00	2020-06-25T06:59:59+00:00	-1	9jmgjbl0d5kbgtw@marketplace.amazon.com	Rachel Seghetto	+1 346-307-9643 ext. 58354	ABM010	Arabella Bouquets | Fields of The World Bouquet of Fresh Cut Flowers in a Free Designer Glass Vase	1	0	1	SecondDay	Karen Morrissey	87 SEDGEWICK DR			SCITUATE	MA	02066-1412	US		Karen, I am so sorry about the loss of your mom. I know how much you loved and cared for her. I hope you are able to find comfort knowing she is at peace with your dad again. Sending all my love! From Rachel Seghetto	false		
111-6860046-1167444	69917975578058	2020-06-24T15:31:46+00:00	2020-06-24T08:31:46-07:00	2020-06-24T15:54:53+00:00	2020-06-27T06:59:59+00:00	-3	5r7d04xgxr4rd02@marketplace.amazon.com	Elma Robles	+1 346-307-9643 ext. 73204	ABR0022	Purchase Now for Delivery by Friday | Arabella Farm Direct Bouquet of 12 Fresh Cut Pink Roses with a Free Glass Vase	1	0	1	Expedited	Malou Morada	TOMS RIVER 108 DOVER RD			TOMS RIVER	NJ	08757-5121	US		Happy Birthday Malou! May God Bless you always. We wish you good health and success.  Love from All of Us From Elma, Jeric and Joan	false		
113-1716012-6808265	34179451697794	2020-06-24T15:33:59+00:00	2020-06-24T08:33:59-07:00	2020-06-24T16:01:05+00:00	2020-06-25T06:59:59+00:00	-1	rq22zwsdtwkvslv@marketplace.amazon.com	Alma	+1 346-307-9643 ext. 74890	ABR0022	Purchase Now for Delivery by Friday | Arabella Farm Direct Bouquet of 12 Fresh Cut Pink Roses with a Free Glass Vase	1	0	1	SecondDay	Ginna Dizon	23 SCHOOL ST			METUCHEN	NJ	08840-1819	US		Happy Happy Birthday!  May you have a wonderful one! From Alma & Ariana	false		
113-3995073-8922653	53237099127458	2020-06-24T15:32:16+00:00	2020-06-24T08:32:16-07:00	2020-06-24T16:05:40+00:00	2020-06-25T06:59:59+00:00	-1	8d6k6s9jrmqz2xp@marketplace.amazon.com	Cristina	+1 346-307-9643 ext. 26564	ABR0055	Purchase Now for Delivery by Friday | Arabella Farm Direct Bouquet of 12 Stems of Fresh Cut Hot Pink Roses in a Free Designer Glass Vase	1	0	1	SecondDay	FELICITAS PABELLO	148 KENSINGTON DR			GALLOWAY	NJ	08205-4676	US		Dear Mama, Happy Birthday!  Hope you enjoy these flowers!  We love you very much! From Love, Tina & Christian	false		
111-0409363-8039442	35081965464178	2020-06-24T16:02:21+00:00	2020-06-24T09:02:21-07:00	2020-06-24T16:18:44+00:00	2020-06-25T06:59:59+00:00	-1	ngpfspc5vjgd4fc@marketplace.amazon.com	Darryl Parran	+1 346-307-9643 ext. 60688	ABR0033	Purchase Now for Delivery by Friday | Arabella Farm Direct Bouquet of 12 Fresh Cut Orange Roses with a Free Glass Vase	1	0	1	SecondDay	Diane Dunnaville	5506 PENN AVE APT 305			PITTSBURGH	PA	15206-3582	US		Enjoy your gift! You are very strong. God has blessed you and is keeping you here. Because you have had a lady watching over you, momma Parran. I love you and hope you enjoy your farm fresh flowers. From Darryl Parran	false		
114-4617509-3640260	29931631087474	2020-06-24T16:10:37+00:00	2020-06-24T09:10:37-07:00	2020-06-24T16:39:35+00:00	2020-06-25T06:59:59+00:00	-1	rvyndjfxsg6mjj8@marketplace.amazon.com	Kenneth C. Wilson	+1 210-728-4548 ext. 61890	ABR0033	Purchase Now for Delivery by Friday | Arabella Farm Direct Bouquet of 12 Fresh Cut Orange Roses with a Free Glass Vase	1	0	1	SecondDay	Patricia Pierson	1529 HAYNES AVE			KOKOMO	IN	46901-5240	US		Happy Birthday Mom Love, Ken and Karyn	false		
114-1970419-6305807	64828271561682	2020-06-24T16:16:24+00:00	2020-06-24T09:16:24-07:00	2020-06-24T16:40:10+00:00	2020-06-27T06:59:59+00:00	-3	92bkj5gnjv4zdkb@marketplace.amazon.com	Carla Belli	+1 346-307-9643 ext. 11177	ABR0022	Purchase Now for Delivery by Friday | Arabella Farm Direct Bouquet of 12 Fresh Cut Pink Roses with a Free Glass Vase	1	0	1	Expedited	Diane Neubauer	789 WESTHOLME AVE			LOS ANGELES	CA	90024-3315	US		Dear Diane,  Thinking of you.  Hope you feel better.  I know it's so sad.  But I hope in a little while when you think  of him it's with the happiness and love you shared. From Carla Belli	false		
114-2098614-4783438	41962029586314	2020-06-24T16:15:28+00:00	2020-06-24T09:15:28-07:00	2020-06-24T16:44:40+00:00	2020-06-25T06:59:59+00:00	-1	y26s30fkx6j9y1f@marketplace.amazon.com	Deborah	+1 314-282-9402 ext. 09955	ABR0022	Purchase Now for Delivery by Friday | Arabella Farm Direct Bouquet of 12 Fresh Cut Pink Roses with a Free Glass Vase	1	0	1	SecondDay	Joy Pierson	109 FARRAH SHEA WAY			ANGIER	NC	27501-5486	US		Happy Birthday!! We love you so much!! From Debbie and Trevor	false		
112-9906323-9697819	64754852587978	2020-06-24T16:20:45+00:00	2020-06-24T09:20:45-07:00	2020-06-24T16:46:28+00:00	2020-06-25T06:59:59+00:00	-1	pjjklc4293w1ldk@marketplace.amazon.com	Judy Emerson	+1 346-307-9643 ext. 22389	ABR0022	Purchase Now for Delivery by Friday | Arabella Farm Direct Bouquet of 12 Fresh Cut Pink Roses with a Free Glass Vase	1	0	1	SecondDay	Whitney Dorn	251 SE SUNRISE DR			SHELTON	WA	98584-9286	US		Well done! Congratulations! We can't wait to meet little Wiley Sullivan. We hope you enjoy the flowers. Some other goodies are on the way in a few days.  We love you. Dad and Judy From Papa and Judy	false		
111-3372849-7733011	17084092825258	2020-06-24T16:29:24+00:00	2020-06-24T09:29:24-07:00	2020-06-24T16:55:56+00:00	2020-06-25T06:59:59+00:00	-1	83jbttbrwdbvgjs@marketplace.amazon.com	Andrea Witting	+1 314-282-9402 ext. 20785	ABM010	Arabella Bouquets | Fields of The World Bouquet of Fresh Cut Flowers in a Free Designer Glass Vase	1	0	1	SecondDay	Allison Koehler	814 SOMERTON DR			FORT MILL	SC	29715-1761	US		Happy birthday Howie!!! I hope these bring u happy thoughts and memories each day of our nautical adventures together!!!!! Love you lots!!! From Chris Laaaaannnneeee-aaaahhh	false		
113-5057630-9418622	11240515159386	2020-06-24T16:34:39+00:00	2020-06-24T09:34:39-07:00	2020-06-24T17:01:11+00:00	2020-06-25T06:59:59+00:00	-1	k3ms7w7lk5k4rh1@marketplace.amazon.com	Kathy Burke	+1 346-307-9643 ext. 39301	ABM010	Arabella Bouquets | Fields of The World Bouquet of Fresh Cut Flowers in a Free Designer Glass Vase	1	0	1	SecondDay	Diana Bozzo	515 EAST DR			LINDENHURST	NY	11757-3104	US		Hi Diana, Know that i am thinking of you and wishing you are feeling better From Kathy	false		
111-9408185-0943407	18509138778354	2020-06-24T16:35:02+00:00	2020-06-24T09:35:02-07:00	2020-06-24T17:05:25+00:00	2020-06-27T06:59:59+00:00	-3	5hb4pmybw6wqtjv@marketplace.amazon.com	Dave Sult	+1 346-307-9643 ext. 53694	ABR004	Arabella Farm Direct Bouquet of 12 Fresh Cut Yellow Roses with a Free Glass Vase	1	0	1	Expedited	Angela Clevinger	520 TABOR ST			PUNTA GORDA	FL	33950-4043	US			false		
113-1111460-9442650	40499395602274	2020-06-24T16:44:57+00:00	2020-06-24T09:44:57-07:00	2020-06-24T17:09:45+00:00	2020-06-25T06:59:59+00:00	-1	d5zpxlkkhyb91ff@marketplace.amazon.com	valerie reilly	+1 346-307-9643 ext. 63858	ABR012	Purchase Now for Delivery by Friday | Arabella Farm Direct Bouquet of 18 Fresh Cut Pink Roses with a Free Glass Vase	1	0	1	SecondDay	Joanne Backs	4475 E KNOX RD APT 247			PHOENIX	AZ	85044-4413	US		HAPPY BIRTHDAY JOANNE !!!!!!! REMEMBER I LOVE YOU YOUR BROTHER DAVID From David Reilly	false		
111-4316746-4153017	50642828173266	2020-06-24T16:44:03+00:00	2020-06-24T09:44:03-07:00	2020-06-24T17:12:52+00:00	2020-06-25T06:59:59+00:00	-1	6c6jl7p1n9pgnxy@marketplace.amazon.com	Dana Berry	+1 346-307-9643 ext. 11969	ABR0022	Purchase Now for Delivery by Friday | Arabella Farm Direct Bouquet of 12 Fresh Cut Pink Roses with a Free Glass Vase	1	0	1	SecondDay	Heather Rose Taylor	7098 S LEWIS CT			LITTLETON	CO	80127-2947	US		Dear Heather, Happy Birthday! Hope you have a great weekend celebrating. Love and Miss!  xo Dana From Dana Berry	false		
114-0677342-1329037	37385841228146	2020-06-24T17:35:15+00:00	2020-06-24T10:35:15-07:00	2020-06-24T17:56:47+00:00	2020-06-27T06:59:59+00:00	-3	rjp4gvlsn2yvxk6@marketplace.amazon.com	susan hatch	+1 346-307-9643 ext. 77292	ABR0033	Purchase Now for Delivery by Friday | Arabella Farm Direct Bouquet of 12 Fresh Cut Orange Roses with a Free Glass Vase	1	0	1	Expedited	Tara Hatch	335 5TH AVE SE			BEACH	ND	58621-0121	US		I know you like peach roses. Hope these are  peach, not orange :) Happy birthday! From susan hatch	false		
111-9301128-8661004	57703186943546	2020-06-24T17:29:16+00:00	2020-06-24T10:29:16-07:00	2020-06-24T17:58:49+00:00	2020-06-27T06:59:59+00:00	-3	kn2m6zt9fhgshbb@marketplace.amazon.com	Mike Pfaff	+1 314-282-9402 ext. 24816	ABM010	Arabella Bouquets | Fields of The World Bouquet of Fresh Cut Flowers in a Free Designer Glass Vase	1	0	1	Expedited	Alexandra Manea	5328 HERMITAGE AVE APT 112			VALLEY VILLAGE	CA	91607-2557	US			false		
111-9301128-8661004	26209226265554	2020-06-24T17:29:16+00:00	2020-06-24T10:29:16-07:00	2020-06-24T17:58:49+00:00	2020-06-27T06:59:59+00:00	-3	kn2m6zt9fhgshbb@marketplace.amazon.com	Mike Pfaff	+1 314-282-9402 ext. 24816	ABR0022	Purchase Now for Delivery by Friday | Arabella Farm Direct Bouquet of 12 Fresh Cut Pink Roses with a Free Glass Vase	1	0	1	Expedited	Alexandra Manea	5328 HERMITAGE AVE APT 112			VALLEY VILLAGE	CA	91607-2557	US			false		
114-0152114-5181006	70222840906490	2020-06-24T17:50:08+00:00	2020-06-24T10:50:08-07:00	2020-06-24T18:20:27+00:00	2020-06-27T06:59:59+00:00	-3	2v0fn8dj0dpgv90@marketplace.amazon.com	Melissa McHugh	+1 346-307-9643 ext. 19348	ABR0022	Purchase Now for Delivery by Monday | Arabella Farm Direct Bouquet of 12 Fresh Cut Pink Roses with a Free Glass Vase	1	0	1	Expedited	Erica Goldstien	8375 WOODHAVEN BLVD APT 2B			WOODHAVEN	NY	11421-1513	US			false		
112-5411646-9401852	33762490511202	2020-06-24T18:16:31+00:00	2020-06-24T11:16:31-07:00	2020-06-24T18:46:39+00:00	2020-06-27T06:59:59+00:00	-3	6y9hh7fyn3rcnly@marketplace.amazon.com	Amy Aronson	+1 346-307-9643 ext. 41432	ABR0022	Purchase Now for Delivery by Monday | Arabella Farm Direct Bouquet of 12 Fresh Cut Pink Roses with a Free Glass Vase	1	0	1	Expedited	Bev Johnson	17592 FRONDELL CT			EDEN PRAIRIE	MN	55347-3417	US		I love you.  Miss you From Amy Aronson	false		
111-8272880-6777822	24396228939202	2020-06-24T18:24:44+00:00	2020-06-24T11:24:44-07:00	2020-06-24T18:52:11+00:00	2020-06-27T06:59:59+00:00	-3	0ztx4lm0vk6p2qt@marketplace.amazon.com	Donna Develine	+1 346-307-9643 ext. 13023	ABM010	Arabella Bouquets | Fields of The World Bouquet of Fresh Cut Flowers in a Free Designer Glass Vase	1	0	1	Expedited	Leslie Manoment	232 BLACKPOOL CT			RIDGE	NY	11961-1349	US		Enjoy your gift! Happy Al-Anon 32 Thank You for being a Blessing in my life. From Donna Develine	false		
