order-id	order-item-id	purchase-date	payments-date	reporting-date	promise-date	days-past-promise	buyer-email	buyer-name	buyer-phone-number	sku	product-name	quantity-purchased	quantity-shipped	quantity-to-ship	ship-service-level	recipient-name	ship-address-1	ship-address-2	ship-address-3	ship-city	ship-state	ship-postal-code	ship-country	gift-wrap-type	gift-message-text	is-business-order	purchase-order-number	price-designation
114-0152114-5181006	70222840906490	2020-06-24T17:50:08+00:00	2020-06-24T10:50:08-07:00	2020-06-24T18:20:27+00:00	2020-06-27T06:59:59+00:00	-1	2v0fn8dj0dpgv90@marketplace.amazon.com	Melissa McHugh	+1 346-307-9643 ext. 19348	ABR0022	Purchase Now for Delivery by Monday | Arabella Farm Direct Bouquet of 12 Fresh Cut Pink Roses with a Free Glass Vase	1	0	1	Expedited	Erica Goldstien	8375 WOODHAVEN BLVD APT 2B			WOODHAVEN	NY	11421-1513	US			false		
112-5411646-9401852	33762490511202	2020-06-24T18:16:31+00:00	2020-06-24T11:16:31-07:00	2020-06-24T18:46:39+00:00	2020-06-27T06:59:59+00:00	-1	6y9hh7fyn3rcnly@marketplace.amazon.com	Amy Aronson	+1 346-307-9643 ext. 41432	ABR0022	Purchase Now for Delivery by Monday | Arabella Farm Direct Bouquet of 12 Fresh Cut Pink Roses with a Free Glass Vase	1	0	1	Expedited	Bev Johnson	17592 FRONDELL CT			EDEN PRAIRIE	MN	55347-3417	US		I love you.  Miss you From Amy Aronson	false		
111-8272880-6777822	24396228939202	2020-06-24T18:24:44+00:00	2020-06-24T11:24:44-07:00	2020-06-24T18:52:11+00:00	2020-06-27T06:59:59+00:00	-1	0ztx4lm0vk6p2qt@marketplace.amazon.com	Donna Develine	+1 346-307-9643 ext. 13023	ABM010	Arabella Bouquets | Fields of The World Bouquet of Fresh Cut Flowers in a Free Designer Glass Vase	1	0	1	Expedited	Leslie Manoment	232 BLACKPOOL CT			RIDGE	NY	11961-1349	US		Enjoy your gift! Happy Al-Anon 32 Thank You for being a Blessing in my life. From Donna Develine	false		
112-4040635-8648269	31561076205386	2020-06-24T18:50:31+00:00	2020-06-24T11:50:31-07:00	2020-06-24T19:07:27+00:00	2020-06-27T06:59:59+00:00	-1	fzf56txjl1z25mr@marketplace.amazon.com	Nanci Isaacs	+1 346-307-9643 ext. 53484	ABM002	Purchase Now for Delivery by Monday | Arabella Bouquets Fresh Cut White Calla Lilies in a Free Designer Glass Vase	1	0	1	Expedited	Barbara Isaacs	8302 CURRY PL			ADELPHI	MD	20783-1728	US		WISHING YOU A SPEEDY RECOVERY - WE LOVE YOU BARB!!! LOVE, NANCI, KELVIN, ISABELLE AND OLIVIA From Nanci Isaacs	false		
112-1488224-0919415	43074644841130	2020-06-24T18:48:09+00:00	2020-06-24T11:48:09-07:00	2020-06-24T19:15:57+00:00	2020-06-27T06:59:59+00:00	-1	ffmggxs1t8bcj5b@marketplace.amazon.com	theresa	+1 314-282-9402 ext. 27607	ABM010	Arabella Bouquets | Fields of The World Bouquet of Fresh Cut Flowers in a Free Designer Glass Vase	1	0	1	Expedited	Christine Allard	76 VICKIS LN			NICHOLSON	PA	18446-7690	US		You are always close to our hearts and in our thoughts <3 we love you soooo very much and hope this brings a smile to your beautiful face :) From Sevan and Theresa	false		
112-6770922-0897846	38301970073050	2020-06-24T19:32:32+00:00	2020-06-24T12:32:32-07:00	2020-06-24T20:02:13+00:00	2020-06-27T06:59:59+00:00	-1	68h3bzqzrcgyv7t@marketplace.amazon.com	Heer	+1 314-282-9402 ext. 56017	ABR0055	Purchase Now for Delivery by Monday | Arabella Farm Direct Bouquet of 12 Stems of Fresh Cut Hot Pink Roses in a Free Designer Glass Vase	1	0	1	Expedited	Amanda Simpson	24 MAPLESEED DR			DALLAS	PA	18612-9770	US		Just wanted to say hello :) From Heer	false		
112-9178573-1684212	33836854291442	2020-06-24T21:23:50+00:00	2020-06-24T14:23:50-07:00	2020-06-24T21:47:18+00:00	2020-06-27T06:59:59+00:00	-1	fxctxchgxwdg33d@marketplace.amazon.com	Joan Shuss	+1 346-307-9643 ext. 24052	ABR0022	Purchase Now for Delivery by Monday | Arabella Farm Direct Bouquet of 12 Fresh Cut Pink Roses with a Free Glass Vase	1	0	1	Expedited	Laurie Shuss	28499 BURANO DR			BONITA SPRINGS	FL	34135-8078	US		Hi Laurie,   Hope you are feeling better each day Love, Mom    From Joan Shuss	false		
113-6514476-7557006	40262478782218	2020-06-24T21:29:38+00:00	2020-06-24T14:29:38-07:00	2020-06-24T22:00:14+00:00	2020-06-27T06:59:59+00:00	-1	bhm9gxx0jhzfv1j@marketplace.amazon.com	George Hanes	+1 346-307-9643 ext. 25615	ABR0022	Purchase Now for Delivery by Monday | Arabella Farm Direct Bouquet of 12 Fresh Cut Pink Roses with a Free Glass Vase	1	0	1	Expedited	George Hanes	112 BAY CT			WASHINGTON	PA	15301-6747	US			false		
114-4402479-7417821	63266312507594	2020-06-24T22:13:12+00:00	2020-06-24T15:13:12-07:00	2020-06-24T22:29:52+00:00	2020-06-27T06:59:59+00:00	-1	ndwswl3qf5kbqr1@marketplace.amazon.com	Ronaline Santos	+1 346-307-9643 ext. 08100	ABR0055	Purchase Now for Delivery by Monday | Arabella Farm Direct Bouquet of 12 Stems of Fresh Cut Hot Pink Roses in a Free Designer Glass Vase	1	0	1	Expedited	Lashanda Justin	7840 NW 50TH ST APT 204			LAUDERHILL	FL	33351-5759	US		LLJ, Thank you for all that you are. Thank you for inspiring me. You give light and love. You are light and love. You are incredible, amazing and capable. Huge hearts are the strongest. Stay true, stay true, stay gold.🖤	false		
111-2373185-7465815	39765686376914	2020-06-24T22:32:20+00:00	2020-06-24T15:32:20-07:00	2020-06-24T23:00:24+00:00	2020-06-27T06:59:59+00:00	-1	yknhbmgk9y4np6v@marketplace.amazon.com	Lisa Harter	+1 346-307-9643 ext. 36266	ABR0022	Purchase Now for Delivery by Monday | Arabella Farm Direct Bouquet of 12 Fresh Cut Pink Roses with a Free Glass Vase	1	0	1	Expedited	Mary Elliott	38 EASTERLY DR			EAST SANDWICH	MA	02537-1768	US			false		
113-3246660-8281833	41184826839122	2020-06-24T22:51:23+00:00	2020-06-24T15:51:23-07:00	2020-06-24T23:18:13+00:00	2020-06-27T06:59:59+00:00	-1	p24nyx7zmlcwk78@marketplace.amazon.com	Amazon	+1 346-307-9643 ext. 32988	ABM010	Arabella Bouquets | Fields of The World Bouquet of Fresh Cut Flowers in a Free Designer Glass Vase	1	0	1	Expedited	Simi Halberg	205 8TH ST APT 4B			LAKEWOOD	NJ	08701-2830	US		From the parents of 2019-20 YST students. Thank you and have a great summer. From Amazon	false		
112-8119528-5081059	40195639061714	2020-06-24T22:55:03+00:00	2020-06-24T15:55:03-07:00	2020-06-24T23:25:29+00:00	2020-06-27T06:59:59+00:00	-1	sts2bphsp6n0wdp@marketplace.amazon.com	Greydon Clark	+1 346-307-9643 ext. 87916	ABR0055	Purchase Now for Delivery by Monday | Arabella Farm Direct Bouquet of 12 Stems of Fresh Cut Hot Pink Roses in a Free Designer Glass Vase	1	0	1	Expedited	Cheryl York	420 CAREFREE CT			NILES	MI	49120-3401	US			false		
112-8919564-3883414	27081352555970	2020-06-24T23:09:13+00:00	2020-06-24T16:09:13-07:00	2020-06-24T23:41:22+00:00	2020-06-27T06:59:59+00:00	-1	khfrn8m21mpwshp@marketplace.amazon.com	Mike	+1 346-307-9643 ext. 68602	ABM010	Arabella Bouquets | Fields of The World Bouquet of Fresh Cut Flowers in a Free Designer Glass Vase	1	0	1	Expedited	Tsianna Barnwell	7938 LOWER PERSE CIR			ORLANDO	FL	32827-7551	US		Happy Birthday! Miss you 😘 From Mikey	false		
113-5826045-9654613	45361018240466	2020-06-24T23:36:58+00:00	2020-06-24T16:36:58-07:00	2020-06-25T00:06:19+00:00	2020-06-27T06:59:59+00:00	-1	dp4h85btfl9sj4l@marketplace.amazon.com	David Maldonado	+1 346-307-9643 ext. 61471	ABM010	Arabella Bouquets | Fields of The World Bouquet of Fresh Cut Flowers in a Free Designer Glass Vase	1	0	1	Expedited	Rebecca McCall	2509 N 24TH ST			PHOENIX	AZ	85008-1805	US			false		
112-9856885-5961056	39203064118874	2020-06-24T23:46:47+00:00	2020-06-24T16:46:47-07:00	2020-06-25T00:13:57+00:00	2020-06-27T06:59:59+00:00	-1	n915743blmxnkmf@marketplace.amazon.com	Amanda Phillips	+1 346-307-9643 ext. 14246	ABR0022	Purchase Now for Delivery by Monday | Arabella Farm Direct Bouquet of 12 Fresh Cut Pink Roses with a Free Glass Vase	1	0	1	Expedited	Brenda Goss	8905 Hiddenspring Way			Elk Grove	CA	95758	US		Thinking of you all<3 sending love and prayers your way. From Amanda Phillips	false		
114-6306146-3420205	45324248630418	2020-06-25T00:00:22+00:00	2020-06-24T17:00:22-07:00	2020-06-25T00:18:36+00:00	2020-06-27T06:59:59+00:00	-1	x17mqgs7hfx69bt@marketplace.amazon.com	Antonio	+1 346-307-9643 ext. 45421	ABR0055	Purchase Now for Delivery by Monday | Arabella Farm Direct Bouquet of 12 Stems of Fresh Cut Hot Pink Roses in a Free Designer Glass Vase	1	0	1	Expedited	Isa Velazquez	10225 DAY AVE			KENSINGTON	MD	20895-2728	US		Isa, Que tengas un lindo dia!!!! From Pedro	false		
114-5872443-6417851	35834919911002	2020-06-25T00:31:30+00:00	2020-06-24T17:31:30-07:00	2020-06-25T00:59:53+00:00	2020-06-27T06:59:59+00:00	-1	cs0xhn31jwgtmxc@marketplace.amazon.com	Randee	+1 346-307-9643 ext. 57803	ABR0022	Purchase Now for Delivery by Monday | Arabella Farm Direct Bouquet of 12 Fresh Cut Pink Roses with a Free Glass Vase	1	0	1	Expedited	Rosa and Jack Turano	400 LOCUST ST APT B- 264			LAKEWOOD	NJ	08701-7417	US		Happy Belated Bday. From Randee, Rob and Trev	false		
114-1040574-4716209	15247008210082	2020-06-25T00:38:54+00:00	2020-06-24T17:38:54-07:00	2020-06-25T01:00:40+00:00	2020-06-27T06:59:59+00:00	-1	sn3sth5z8z7hgwn@marketplace.amazon.com	Kim Gorman	+1 346-307-9643 ext. 47099	ABR001	Purchase Now for Delivery by Monday | Arabella Bouquets 12 Stems of Fresh Cut Red Roses in a Free Designer Glass Vase	1	0	1	Expedited	Marilyn	6299 W 10220 N			HIGHLAND	UT	84003-3436	US		I knew my feelings for you are real, no matter what I say or do there is no single day I don't think of you  my North Star 🌟 From With love, Paul	false		
114-9542269-7773022	55157338971402	2020-06-25T01:06:05+00:00	2020-06-24T18:06:05-07:00	2020-06-25T01:29:44+00:00	2020-06-27T06:59:59+00:00	-1	5ncyktfr6y1ntll@marketplace.amazon.com	zomana majid	+1 346-307-9643 ext. 01534	ABB001	Arabella Farm Direct Fresh Cut White Hydrangea	1	0	1	Expedited	Mohua Apa	47 TURNING MILL RD			LEXINGTON	MA	02420-1009	US		Dear Mohua Apa,  With extreme sadness and deepest condolences we grief with you for Uncle. Inna Lillahi wa inna ilayhi raji'un  Love, Zomana & Wasim From Zomana & Wasim	false		
114-8269767-4055460	28689382945722	2020-06-25T01:14:07+00:00	2020-06-24T18:14:07-07:00	2020-06-25T01:38:12+00:00	2020-06-27T06:59:59+00:00	-1	5ncyktfr6y1ntll@marketplace.amazon.com	zomana majid	+1 346-307-9643 ext. 53258	ABB001	Arabella Farm Direct Fresh Cut White Hydrangea	1	0	1	Expedited	Sayem Bhai	26 WATERVILLE LN			SHREWSBURY	MA	01545-4843	US		Dear Sayem Bhai & Dolly,  With extreme sadness and deepest condolences we grief with you for Uncle and your Brother-In-Law. Inna Lillahi wa inna ilayhi raji'un Love, Zomana & Wasim From Zomana & Wasim	false		
112-1100567-6963432	10032155354482	2020-06-25T01:28:04+00:00	2020-06-24T18:28:04-07:00	2020-06-25T01:45:20+00:00	2020-06-27T06:59:59+00:00	-1	631xc0ldgc7kmdd@marketplace.amazon.com	Kim Houghton	+1 346-307-9643 ext. 10208	ABM010	Arabella Bouquets | Fields of The World Bouquet of Fresh Cut Flowers in a Free Designer Glass Vase	1	0	1	Expedited	Diane long	5899 1ST ST S			ARLINGTON	VA	22204-1027	US			true		
111-0571072-2324245	44227549306570	2020-06-25T01:27:12+00:00	2020-06-24T18:27:12-07:00	2020-06-25T01:57:49+00:00	2020-06-27T06:59:59+00:00	-1	v28z2rg3fllhzc8@marketplace.amazon.com	Irene Thomas	+1 346-307-9643 ext. 91479	ABR012	Purchase Now for Delivery by Monday | Arabella Farm Direct Bouquet of 18 Fresh Cut Pink Roses with a Free Glass Vase	1	0	1	Expedited	Wanita Thomas	3850 N STATE ROUTE 89 UNIT 351			PRESCOTT	AZ	86301-8454	US			false		
111-8826478-3602604	65424404708962	2020-06-25T02:03:03+00:00	2020-06-24T19:03:03-07:00	2020-06-25T02:31:08+00:00	2020-06-27T06:59:59+00:00	-1	rhqb1hzxtxgbygs@marketplace.amazon.com	Johnny	+1 346-307-9643 ext. 41653	ABR001	Purchase Now for Delivery by Monday | Arabella Bouquets 12 Stems of Fresh Cut Red Roses in a Free Designer Glass Vase	1	0	1	Expedited	Mayra	1226 JEFFERSON ST NE			MINNEAPOLIS	MN	55413-4104	US		Espero que te guste 😘😘😘😘 De Johnny	false		
111-0984090-2256265	48070102193434	2020-06-25T02:21:48+00:00	2020-06-24T19:21:48-07:00	2020-06-25T02:52:07+00:00	2020-06-27T06:59:59+00:00	-1	2q8yg6dgsxtv6s6@marketplace.amazon.com	lisa evans	+1 346-307-9643 ext. 85628	ABR0055	Purchase Now for Delivery by Monday | Arabella Farm Direct Bouquet of 12 Stems of Fresh Cut Hot Pink Roses in a Free Designer Glass Vase	1	0	1	Expedited	Ms. Wilkinson and Family	1904 SUGAR MAPLE LN			PERRIS	CA	92571-3888	US			false		
112-1640131-2602631	54532430891794	2020-06-25T03:02:00+00:00	2020-06-24T20:02:00-07:00	2020-06-25T03:32:12+00:00	2020-06-27T06:59:59+00:00	-1	7pr0ybrhkx9k7xt@marketplace.amazon.com	Isaac cairns	+1 314-282-9402 ext. 18919	ABR0022	Purchase Now for Delivery by Monday | Arabella Farm Direct Bouquet of 12 Fresh Cut Pink Roses with a Free Glass Vase	1	0	1	Expedited	Glenn cairns	115 CARPENTER HILL RD			CHARLTON	MA	01507-5227	US			false		
112-0884174-4261056	60942451661250	2020-06-25T03:08:16+00:00	2020-06-24T20:08:16-07:00	2020-06-25T03:33:26+00:00	2020-06-27T06:59:59+00:00	-1	224f3fcrxvzxbwf@marketplace.amazon.com	michael kelly	+1 210-728-4548 ext. 38726	ABR001	Purchase Now for Delivery by Monday | Arabella Bouquets 12 Stems of Fresh Cut Red Roses in a Free Designer Glass Vase	1	0	1	Expedited	Maybelyn Stringer	6728 N BOSWORTH AVE APT 2N			CHICAGO	IL	60626-4221	US		Enjoy your gift! Happy anniversary  I love you From michael kelly	false		
114-0893127-7725833	31231998828018	2020-06-25T03:41:03+00:00	2020-06-24T20:41:03-07:00	2020-06-25T04:04:09+00:00	2020-06-27T06:59:59+00:00	-1	jlpy6p1p6k01tsk@marketplace.amazon.com	jacob meyer	+1 346-307-9643 ext. 66673	ABR001	Purchase Now for Delivery by Monday | Arabella Bouquets 12 Stems of Fresh Cut Red Roses in a Free Designer Glass Vase	1	0	1	Expedited	Gabrielle	5117 E WOODGLEN CT MEAD WA 99021			MEAD	WA	99021-9433	US		I may be far away. I may be busy. But I will still do my best to be there one way or another for tha bad days. Heres a little "eat incasr of bad day" care package:) im super proud of you for all the hard work you do:) From jacob meyer	false		
114-9904336-6286656	61774954536458	2020-06-25T03:36:50+00:00	2020-06-24T20:36:50-07:00	2020-06-25T04:05:51+00:00	2020-06-27T06:59:59+00:00	-1	kfvyq5kyh1gph78@marketplace.amazon.com	J Broches	+1 346-307-9643 ext. 56438	ABR004	Arabella Farm Direct Bouquet of 12 Fresh Cut Yellow Roses with a Free Glass Vase	1	0	1	Expedited	J Broches	328 W Colorado St			Arcadia	California	91007	US		Congratulations Stacy and George ♥️We love you and can’t wait to celebrate with you !!!!! From J Broches	false		
113-6043396-8312233	08012005214962	2020-06-25T04:53:19+00:00	2020-06-24T21:53:19-07:00	2020-06-25T05:22:29+00:00	2020-06-27T06:59:59+00:00	-1	n1r9h500kfm2t0j@marketplace.amazon.com	Debbie Meyers	+1 346-307-9643 ext. 32375	ABR0055	Purchase Now for Delivery by Monday | Arabella Farm Direct Bouquet of 12 Stems of Fresh Cut Hot Pink Roses in a Free Designer Glass Vase	1	0	1	Expedited	Tammy Meyers	3024 ANDERSON LAKE RD			Benton	AR	72015-8519	US		Happy Birthday, Tammy!  Have a beautiful day.  Love you, Debbie From Debbie Meyers	false		
111-6144328-5259464	63319978000242	2020-06-25T12:00:59+00:00	2020-06-25T05:00:59-07:00	2020-06-25T12:30:53+00:00	2020-06-30T06:59:59+00:00	-4	zmk5ntbcxsj8ljy@marketplace.amazon.com	randolph jackson	+1 346-307-9643 ext. 72886	ABM010	Arabella Bouquets | Fields of The World Bouquet of Fresh Cut Flowers in a Free Designer Glass Vase	1	0	1	Expedited	James skip mullen	1670 CLAIRMONT RD			DECATUR	GA	30033-4004	US			false		
114-7939941-8383438	27162517029026	2020-06-24T14:01:24+00:00	2020-06-24T07:01:24-07:00	2020-06-25T13:11:18+00:00	2020-06-30T06:59:59+00:00	-4	jj1qy1qp46kf6jf@marketplace.amazon.com	Cheryl	+1 346-307-9643 ext. 96012	ABR0033	Purchase Now for Delivery by Friday | Arabella Farm Direct Bouquet of 12 Fresh Cut Orange Roses with a Free Glass Vase	1	0	1	Expedited	Jill Blanchard	3225 FINLEY AVE			JOPLIN	MO	64804-4140	US		Hi Jill! Thinking about you.   Since I missed your birthday, I just wanted to send you a little something to let you know you mean a great deal to me!    Love Ya! From Cheryl	false		
111-3034159-6097840	54254671602186	2020-06-25T12:56:00+00:00	2020-06-25T05:56:00-07:00	2020-06-25T13:25:38+00:00	2020-06-30T06:59:59+00:00	-4	zj2mnd0lnzhq6w2@marketplace.amazon.com	Jose Ridriguez	+1 346-307-9643 ext. 47346	ABR0055	Purchase Now for Delivery by Monday | Arabella Farm Direct Bouquet of 12 Stems of Fresh Cut Hot Pink Roses in a Free Designer Glass Vase	1	0	1	Expedited	Mary Sonia Gonzalez	5920 N KRAMER CT			RIMROCK	AZ	86335-6229	US			false		
111-3461281-1432251	31366526276266	2020-06-25T13:01:44+00:00	2020-06-25T06:01:44-07:00	2020-06-25T13:29:16+00:00	2020-06-30T06:59:59+00:00	-4	vghh3s6qw4z691l@marketplace.amazon.com	Catherine	+1 346-307-9643 ext. 89791	ABM010	Arabella Bouquets | Fields of The World Bouquet of Fresh Cut Flowers in a Free Designer Glass Vase	1	0	1	Expedited	The Humphries Family	2101 WILLOWTREE LN			TEMPLE HILLS	MD	20748-5724	US		You’re always in my prayers! From Arlene	false		
114-2542490-7245803	36728906727810	2020-06-25T13:04:50+00:00	2020-06-25T06:04:50-07:00	2020-06-25T13:35:20+00:00	2020-06-30T06:59:59+00:00	-4	1x9f0t8d8cfm12j@marketplace.amazon.com	Jeromie	+1 346-307-9643 ext. 14481	ABR0066	Purchase Now for Delivery by Monday | Arabella Bouquets 18 Stems of Fresh Cut White Roses in a Free Designer Glass Vase	1	0	1	Expedited	Jeromie	5450 SOMERSET DR APT 303			THE COLONY	TX	75056-4891	US			false		
112-6522158-7513006	34924222520266	2020-06-25T13:32:47+00:00	2020-06-25T06:32:47-07:00	2020-06-25T14:01:54+00:00	2020-06-30T06:59:59+00:00	-4	wpfz8cs4bx61b85@marketplace.amazon.com	SALTO (FINANCE DEPARTMENT)	+1 346-307-9643 ext. 15309	ABM010	Arabella Bouquets | Fields of The World Bouquet of Fresh Cut Flowers in a Free Designer Glass Vase	1	0	1	Expedited	Nicole SeguraPO026	12615 OTTER CREST CT			HUMBLE	TX	77346-1794	US			true	026	
112-5145317-3693001	26120823313114	2020-06-25T13:35:44+00:00	2020-06-25T06:35:44-07:00	2020-06-25T14:05:30+00:00	2020-06-30T06:59:59+00:00	-4	105glwct13z5skf@marketplace.amazon.com	Ed Johnson	+1 314-282-9402 ext. 18892	ABR0022	Purchase Now for Delivery by Monday | Arabella Farm Direct Bouquet of 12 Fresh Cut Pink Roses with a Free Glass Vase	2	0	2	Expedited	Jeff Johnson	25 SACHEM HILL RD			WINDSOR	CT	06095-2310	US			false		
111-0528078-3594603	23249929859626	2020-06-25T15:23:52+00:00	2020-06-25T08:23:52-07:00	2020-06-25T15:50:02+00:00	2020-06-30T06:59:59+00:00	-4	zk1dcssxkpbg124@marketplace.amazon.com	Amanda Kijinski	+1 346-307-9643 ext. 43313	ABR0022	Purchase Now for Delivery by Monday | Arabella Farm Direct Bouquet of 12 Fresh Cut Pink Roses with a Free Glass Vase	1	0	1	Expedited	Fenton Family	1358 W ELMDALE AVE APT 1			CHICAGO	IL	60660-2544	US		To the Fenton Family - in loving memory of Kosar. <3 Sending love to you all during this challenging time. Kosar will be missed and loved forever by us all. Love, Mandie and Andy From Mandie Kijinski	false		
113-0724955-5133011	00075257783010	2020-06-25T15:55:46+00:00	2020-06-25T08:55:46-07:00	2020-06-25T16:25:15+00:00	2020-06-30T06:59:59+00:00	-4	kpgh06t3fm8gmq1@marketplace.amazon.com	Martin Mannion	+1 346-307-9643 ext. 66243	ABR0022	Purchase Now for Delivery by Monday | Arabella Farm Direct Bouquet of 12 Fresh Cut Pink Roses with a Free Glass Vase	1	0	1	Expedited	Rhea Saparito	2425 20TH ST APT 104			VERO BEACH	FL	32960-6617	US		Happy Birthday Aunt Rhea! From Love from Martin and the NJ Mannions!	false		
112-3135282-3738617	69424844215826	2020-06-25T16:02:47+00:00	2020-06-25T09:02:47-07:00	2020-06-25T16:31:51+00:00	2020-06-30T06:59:59+00:00	-4	gynklkr6hzh3071@marketplace.amazon.com	Bryony Langdon	+1 346-307-9643 ext. 95400	ABM010	Arabella Bouquets | Fields of The World Bouquet of Fresh Cut Flowers in a Free Designer Glass Vase	1	0	1	Expedited	Bryony Langdon	18 SLEEPY HOLLOW RD			SANDY HOOK	CT	06482-1095	US		Happy birthday! Hope you have a lovely day! From Bryony & Seb xxx	false		
111-7431835-8655448	34786543366202	2020-06-25T16:04:39+00:00	2020-06-25T09:04:39-07:00	2020-06-25T16:32:23+00:00	2020-06-30T06:59:59+00:00	-4	7t76yslhp9q41k2@marketplace.amazon.com	Joel Sanchez	+1 347-448-3190 ext. 73499	ABR012	Purchase Now for Delivery by Monday | Arabella Farm Direct Bouquet of 18 Fresh Cut Pink Roses with a Free Glass Vase	1	0	1	Expedited	Kathy Hansler	713 N MYRTLE DR			SURFSIDE BEACH	SC	29575-4059	US		Dear Kathy & Family, Sending our love your way... From Jo Ann, Cari, & Family	false		
111-1646766-0253857	11483043196050	2020-06-25T17:13:44+00:00	2020-06-25T10:13:44-07:00	2020-06-25T17:43:16+00:00	2020-06-30T06:59:59+00:00	-4	0rmf6498l8hz7vy@marketplace.amazon.com	Priya Palmerson	+1 346-307-9643 ext. 39654	ABM010	Arabella Bouquets | Fields of The World Bouquet of Fresh Cut Flowers in a Free Designer Glass Vase	1	0	1	Expedited	Joan Palmerson	8035 263RD ST			FLORAL PARK	NY	11004-1516	US		Happy belated birthday ! Wishing you all the best ! Hope you had a great day, From Love Rowan, John and Priya	false		
111-4769079-2252223	20163723924282	2020-06-25T17:20:59+00:00	2020-06-25T10:20:59-07:00	2020-06-25T17:45:16+00:00	2020-06-30T06:59:59+00:00	-4	h3xhnqsl9ck206w@marketplace.amazon.com	BAJI	+1 346-307-9643 ext. 13112	ABR0022	Purchase Now for Delivery by Monday | Arabella Farm Direct Bouquet of 12 Fresh Cut Pink Roses with a Free Glass Vase	1	0	1	Expedited	Catherine Labiran	460 MADISON ST APT 3L			BROOKLYN	NY	11221-1167	US		Hi Catherine,  Happy 1 year anniversary with BAJI! We appreciate your contributions and guidance. Enjoy your flowers!  Positive vibes and love from BAJI!	true		
114-6440182-8188262	32426142914282	2020-06-25T17:23:36+00:00	2020-06-25T10:23:36-07:00	2020-06-25T17:51:42+00:00	2020-06-30T06:59:59+00:00	-4	21fhhmj6ngh2pzh@marketplace.amazon.com	Marilyn G. Lattanzi	+1 346-307-9643 ext. 29034	ABR004	Arabella Farm Direct Bouquet of 12 Fresh Cut Yellow Roses with a Free Glass Vase	1	0	1	Expedited	Mary Cronin	18 W PATTAGANSETT RD			NIANTIC	CT	06357-2216	US		Happy BIG birthday to my dear friend....love you... From Marilyn G. Lattanzi	false		
111-8900403-1650646	38830518863042	2020-06-25T17:49:01+00:00	2020-06-25T10:49:01-07:00	2020-06-25T18:19:06+00:00	2020-06-30T06:59:59+00:00	-4	rky5zghtv246ln5@marketplace.amazon.com	Todd Berman	+1 346-307-9643 ext. 72981	ABR012	Purchase Now for Delivery by Monday | Arabella Farm Direct Bouquet of 18 Fresh Cut Pink Roses with a Free Glass Vase	1	0	1	Expedited	Mrs. Judith Berman	NEWBRIDGE ON THE CHARLES	6000 GREAT MEADOW RD UNIT 7151		DEDHAM	MA	02026-4086	US			false		
114-2505005-2989032	46090267529346	2020-06-25T18:30:52+00:00	2020-06-25T11:30:52-07:00	2020-06-25T18:31:45+00:00	2020-06-27T06:59:59+00:00	-1	qjccpbr9td7d428@marketplace.amazon.com	amy poss	+1 346-307-9643 ext. 95186	ABR014	Purchase Now for Delivery by Monday | Arabella Bouquets 18 Stems of Fresh Cut White Roses in a Free Designer Glass Vase	1	0	1	NextDay	Joyce Kelleher	18297 ACEITUNO ST			SAN DIEGO	CA	92128-1559	US			false		
112-5237578-5829820	37724142684234	2020-06-25T18:03:59+00:00	2020-06-25T11:03:59-07:00	2020-06-25T18:34:36+00:00	2020-06-30T06:59:59+00:00	-4	frmmhm5wqh3h7yz@marketplace.amazon.com	Scott	+1 347-448-3190 ext. 98479	ABR0022	Purchase Now for Delivery by Monday | Arabella Farm Direct Bouquet of 12 Fresh Cut Pink Roses with a Free Glass Vase	1	0	1	Expedited	Scott Brady	303 Eden st	Kingsley		Kingsley	MI	49648	US			false		
114-9030833-6618630	29829437184114	2020-06-25T18:31:46+00:00	2020-06-25T11:31:46-07:00	2020-06-25T18:37:02+00:00	2020-06-27T06:59:59+00:00	-1	m199gjpbpzkhgxd@marketplace.amazon.com	Olami	+1 346-307-9643 ext. 42797	ABR0055	Purchase Now for Delivery by Monday | Arabella Farm Direct Bouquet of 12 Stems of Fresh Cut Hot Pink Roses in a Free Designer Glass Vase	1	0	1	NextDay	Dave	2036 EASTON TRL			PISGAH	IA	51564-4026	US			false		
111-1337338-5893849	13902872823658	2020-06-25T18:51:51+00:00	2020-06-25T11:51:51-07:00	2020-06-25T18:54:27+00:00	2020-06-27T06:59:59+00:00	-1	3mr8jcq0bwxh8z3@marketplace.amazon.com	Mike Childs	+1 346-307-9643 ext. 53116	ABM010	Arabella Bouquets | Fields of The World Bouquet of Fresh Cut Flowers in a Free Designer Glass Vase	1	0	1	NextDay	Sandy Brady	11275 GREEN VALLEY RD			SEBASTOPOL	CA	95472-9771	US		Sandy.....Enjoy your gift! Happy Fourth of July Maui Mike From Mike Childs	false		
112-7354614-0102610	24003302197586	2020-06-25T18:57:09+00:00	2020-06-25T11:57:09-07:00	2020-06-25T19:03:58+00:00	2020-06-27T06:59:59+00:00	-1	pcf7q6rw5ngq2dd@marketplace.amazon.com	Alton Sanders	+1 346-307-9643 ext. 57452	ABM010	Arabella Bouquets | Fields of The World Bouquet of Fresh Cut Flowers in a Free Designer Glass Vase	1	0	1	NextDay	Alton Sanders	165 N CONCORD ST			GILBERT	AZ	85234-5922	US			false		
114-8582761-5785048	09349390795666	2020-06-25T19:28:19+00:00	2020-06-25T12:28:19-07:00	2020-06-25T19:31:49+00:00	2020-06-27T06:59:59+00:00	-1	k0gmj6rpfxrxm7d@marketplace.amazon.com	corinne ng	+1 346-307-9643 ext. 46628	ABM0044	Purchase Now for Delivery by Monday | Arabella Farm Direct Bouquet of Fresh Cut Blue Hydrangea with a Free Glass Vase	1	0	1	NextDay	Gail Ng	29115 FIRTHRIDGE RD			RANCHO PALOS VERDES	CA	90275-4711	US		Dear Lola, Happy Birthday! We love you so much! From Jason, Corinne, and Gavin	false		
113-8861767-8337821	01887867457194	2020-06-25T19:56:12+00:00	2020-06-25T12:56:12-07:00	2020-06-25T19:57:10+00:00	2020-06-27T06:59:59+00:00	-1	2hcps5g9wd8tpsd@marketplace.amazon.com	paul condit	+1 314-282-9402 ext. 32670	ABM010	Arabella Bouquets | Fields of The World Bouquet of Fresh Cut Flowers in a Free Designer Glass Vase	1	0	1	NextDay	Urias Lopez	325 WHITTIER AVE			DUNELLEN	NJ	08812-1506	US		With love and sympathy, your friends at OfficeNJ. Arthur, Lee, Michelle, Diana, Mario & Lupe From OfficeNJ	false		
111-9270817-0288228	57183935486010	2020-06-25T20:19:09+00:00	2020-06-25T13:19:09-07:00	2020-06-25T20:20:00+00:00	2020-06-27T06:59:59+00:00	-1	mqr3zdt68qn2kxm@marketplace.amazon.com	Vera Suratos	+1 346-307-9643 ext. 10955	ABR0066	Purchase Now for Delivery by Monday | Arabella Bouquets 18 Stems of Fresh Cut White Roses in a Free Designer Glass Vase	1	0	1	NextDay	Zoe Dela Cruz	3941 20TH AVE NE			LACEY	WA	98506-3542	US			false		
113-3531316-2381812	54275105033418	2020-06-25T20:30:20+00:00	2020-06-25T13:30:20-07:00	2020-06-25T20:33:15+00:00	2020-06-27T06:59:59+00:00	-1	c26b90h4mwx2hcf@marketplace.amazon.com	Melvin Daniel	+1 210-728-4548 ext. 07159	ABR001	Purchase Now for Delivery by Monday | Arabella Bouquets 12 Stems of Fresh Cut Red Roses in a Free Designer Glass Vase	1	0	1	NextDay	Manisha Saju	647 SHAMROCK LN			FEASTERVILLE TREVOSE	PA	19053-3527	US		Happy Anniversary! Thanks for putting up with me for a year. I love you too muchhh baby! From Melvin	false		
114-5366285-9800203	37419335502266	2020-06-25T20:37:03+00:00	2020-06-25T13:37:03-07:00	2020-06-25T20:37:53+00:00	2020-06-27T06:59:59+00:00	-1	w17dcbx37zshd72@marketplace.amazon.com	Degroote	+1 346-307-9643 ext. 96102	ABM010	Arabella Bouquets | Fields of The World Bouquet of Fresh Cut Flowers in a Free Designer Glass Vase	1	0	1	NextDay	Cami Doom	219 HEATHWOOD DR			SPARTANBURG	SC	29307-3728	US		Hi Cami,  Congratulations with your new job!!!  From Jeannot, Gerda, Thijs & Emmely From Belgium	false		
114-8538628-4160214	37437759875906	2020-06-25T20:51:20+00:00	2020-06-25T13:51:20-07:00	2020-06-25T20:54:42+00:00	2020-06-27T06:59:59+00:00	-1	ngphr6w114y6z53@marketplace.amazon.com	Jocelyn C San Mateo	+1 346-307-9643 ext. 95227	ABR0022	Purchase Now for Delivery by Monday | Arabella Farm Direct Bouquet of 12 Fresh Cut Pink Roses with a Free Glass Vase	1	0	1	NextDay	Lily San Mateo	244 IRIS RD			HERCULES	CA	94547-1210	US		Happy Birthday Mom/Lola!! We miss you and hope we can see you soon.   Love, Fred, Jocelyn, Mason, Grant and Stella From Jocelyn C San Mateo	false		
112-7960525-7280207	28160050853842	2020-06-25T20:53:50+00:00	2020-06-25T13:53:50-07:00	2020-06-25T20:57:56+00:00	2020-06-27T06:59:59+00:00	-1	nm2hm6lmvk0t4g4@marketplace.amazon.com	Bruce Millar	+1 346-307-9643 ext. 76598	ABR0022	Purchase Now for Delivery by Monday | Arabella Farm Direct Bouquet of 12 Fresh Cut Pink Roses with a Free Glass Vase	1	0	1	NextDay	Bruce Millar	19171 Doral Place			Porter Ranch	Ca	91326	US		Happy Anniversary.  Love you. From Bruce Millar	false		
114-7187446-0963420	07103769798634	2020-06-25T21:21:05+00:00	2020-06-25T14:21:05-07:00	2020-06-25T21:26:23+00:00	2020-06-27T06:59:59+00:00	-1	wylmk2hbc8ggbc0@marketplace.amazon.com	Mark Mandich	+1 346-307-9643 ext. 17893	ABR014	Purchase Now for Delivery by Monday | Arabella Bouquets 18 Stems of Fresh Cut White Roses in a Free Designer Glass Vase	1	0	1	NextDay	Mark Mandich	378 SW 27TH AVE			DELRAY BEACH	FL	33445-4402	US			true		
114-7187446-0963420	45974264620418	2020-06-25T21:21:05+00:00	2020-06-25T14:21:05-07:00	2020-06-25T21:26:23+00:00	2020-06-27T06:59:59+00:00	-1	wylmk2hbc8ggbc0@marketplace.amazon.com	Mark Mandich	+1 346-307-9643 ext. 17893	ABR0055	Purchase Now for Delivery by Monday | Arabella Farm Direct Bouquet of 12 Stems of Fresh Cut Hot Pink Roses in a Free Designer Glass Vase	1	0	1	NextDay	Mark Mandich	378 SW 27TH AVE			DELRAY BEACH	FL	33445-4402	US			true		
114-7187446-0963420	09411922783034	2020-06-25T21:21:05+00:00	2020-06-25T14:21:05-07:00	2020-06-25T21:26:23+00:00	2020-06-27T06:59:59+00:00	-1	wylmk2hbc8ggbc0@marketplace.amazon.com	Mark Mandich	+1 346-307-9643 ext. 17893	ABM010	Arabella Bouquets | Fields of The World Bouquet of Fresh Cut Flowers in a Free Designer Glass Vase	1	0	1	NextDay	Mark Mandich	378 SW 27TH AVE			DELRAY BEACH	FL	33445-4402	US			true		
114-7187446-0963420	44442584852690	2020-06-25T21:21:05+00:00	2020-06-25T14:21:05-07:00	2020-06-25T21:26:23+00:00	2020-06-27T06:59:59+00:00	-1	wylmk2hbc8ggbc0@marketplace.amazon.com	Mark Mandich	+1 346-307-9643 ext. 17893	ABR0022	Purchase Now for Delivery by Monday | Arabella Farm Direct Bouquet of 12 Fresh Cut Pink Roses with a Free Glass Vase	1	0	1	NextDay	Mark Mandich	378 SW 27TH AVE			DELRAY BEACH	FL	33445-4402	US			true		
112-9885862-3299430	20280162628562	2020-06-25T21:40:52+00:00	2020-06-25T14:40:52-07:00	2020-06-25T21:42:54+00:00	2020-06-27T06:59:59+00:00	-1	tgb9xdf3z0n6hgx@marketplace.amazon.com	EEG Carl Buratti	+1 314-282-9402 ext. 87276	ABR014	Purchase Now for Delivery by Monday | Arabella Bouquets 18 Stems of Fresh Cut White Roses in a Free Designer Glass Vase	1	0	1	NextDay	Glen Vaughn	19951 OXNARD ST			WOODLAND HILLS	CA	91367-5623	US			false		
114-1963006-2025007	29079848830666	2020-06-25T21:41:52+00:00	2020-06-25T14:41:52-07:00	2020-06-25T21:43:44+00:00	2020-06-27T06:59:59+00:00	-1	wzygh2hzw9z4dsh@marketplace.amazon.com	Safia Rabah	+1 346-307-9643 ext. 25826	ABB007	Arabella Farm Direct Bouquet of 24 Fresh Cut Pink Roses with a Free Glass Vase	1	0	1	NextDay	Juanita Donnelly	534 NW ARCHER AVE			PORT SAINT LUCIE	FL	34983-1076	US		Happy Birthday to You. Happy Birthday to You. Happy Birthday Dear Juanita. Happy Birthday to You. From Joseph & Safia	false		
114-5861912-0166662	31051698360322	2020-06-25T22:07:44+00:00	2020-06-25T15:07:44-07:00	2020-06-25T22:11:21+00:00	2020-06-27T06:59:59+00:00	-1	mm0x3mjj4yhz71w@marketplace.amazon.com	Odike Ikenna J.	+1 210-728-4548 ext. 74727	ABR004	Arabella Farm Direct Bouquet of 12 Fresh Cut Yellow Roses with a Free Glass Vase	1	0	1	NextDay	Mr & Mrs J.C. Odike	62 SAGEWOOD DR			MALVERN	PA	19355-2234	US		Happy 50th Anniversary Mum & Dad!                            Lots of Love! Omon, Ikenna, Jason, Chinelo Chiamaka and Tobechukwu. From Odike Ikenna J.	false		
114-0566495-8934617	50558179983474	2020-06-25T22:14:10+00:00	2020-06-25T15:14:10-07:00	2020-06-25T22:16:04+00:00	2020-06-27T06:59:59+00:00	-1	6xl9ydzn5qgk668@marketplace.amazon.com	Donald Seisz	+1 346-307-9643 ext. 97431	ABR0022	Purchase Now for Delivery by Monday | Arabella Farm Direct Bouquet of 12 Fresh Cut Pink Roses with a Free Glass Vase	1	0	1	NextDay	Leigh Anne Brodsky	255 W 84TH ST APT 6A			NEW YORK	NY	10024-4323	US			false		
112-0484218-6088254	57886078583226	2020-06-25T22:53:59+00:00	2020-06-25T15:53:59-07:00	2020-06-25T22:54:55+00:00	2020-06-27T06:59:59+00:00	-1	wdfl4qqcz4rcsbc@marketplace.amazon.com	Clarissa K. Posey	+1 346-307-9643 ext. 60167	ABR0022	Purchase Now for Delivery by Monday | Arabella Farm Direct Bouquet of 12 Fresh Cut Pink Roses with a Free Glass Vase	1	0	1	NextDay	Stevanie Rhim	1437 BRENTWOOD TER			PLAINFIELD	NJ	07060-3301	US		Congratulations, Stevanie, on your high school graduation. Just wanted to let you know I'm so impressed and proud of all you've accomplished.  You are an amazing young woman!  Love you much.... From Aunt Clarissa	false		
113-7490223-5646621	36009756316730	2020-06-25T22:55:15+00:00	2020-06-25T15:55:15-07:00	2020-06-25T23:03:32+00:00	2020-06-27T06:59:59+00:00	-1	9sh7x08krdx2hpc@marketplace.amazon.com	Tighe johnson	+1 210-728-4548 ext. 39553	ABR0022	Purchase Now for Delivery by Monday | Arabella Farm Direct Bouquet of 12 Fresh Cut Pink Roses with a Free Glass Vase	1	0	1	NextDay	Tighe johnson	245 MONTEBURG RD			FORT BRAGG	NC	28307-3414	US			false		
111-8508746-1721060	16454438698338	2020-06-25T23:05:51+00:00	2020-06-25T16:05:51-07:00	2020-06-25T23:07:12+00:00	2020-06-27T06:59:59+00:00	-1	x3jm2c7bg91k2kb@marketplace.amazon.com	Supriya Abraham	+1 346-307-9643 ext. 12136	ABR0022	Purchase Now for Delivery by Monday | Arabella Farm Direct Bouquet of 12 Fresh Cut Pink Roses with a Free Glass Vase	1	0	1	NextDay	HANA ZISKA	204 MARGARET ST			FATE	TX	75189-7715	US		TO HANKA, WISHING YOU A SPEEDY RECOVERY MARTIN, SUPRIYA,MOM, JONAH, JAYDEN,JAYLA	false		
112-7837340-7071456	51902457884274	2020-06-25T23:29:04+00:00	2020-06-25T16:29:04-07:00	2020-06-25T23:29:56+00:00	2020-06-27T06:59:59+00:00	-1	cq3glbbmb1vwf1l@marketplace.amazon.com	Denise Winchell	+1 346-307-9643 ext. 35300	ABM010	Arabella Bouquets | Fields of The World Bouquet of Fresh Cut Flowers in a Free Designer Glass Vase	1	0	1	NextDay	Mr. & Mrs, Steve Castaldo	1340 STROUD CT			TRINITY	FL	34655-4276	US		Landra & Steve, So sorry for your loss! Thinking of you both.  Love ya, Steve, Denise, Brittany & Michele From Denise Winchell	false		
114-4337491-5111433	44266729797106	2020-06-25T23:34:20+00:00	2020-06-25T16:34:20-07:00	2020-06-25T23:38:12+00:00	2020-06-27T06:59:59+00:00	-1	k9956kdkz9wt95q@marketplace.amazon.com	Bradford H Hellrung	+1 346-307-9643 ext. 19234	ABR0022	Purchase Now for Delivery by Monday | Arabella Farm Direct Bouquet of 12 Fresh Cut Pink Roses with a Free Glass Vase	1	0	1	NextDay	Bradford H Hellrung	408 LIME DR			NOKOMIS	FL	34275-3742	US		Love U Andrea! From Brad	false		
114-9224462-0039432	61765339858938	2020-06-25T23:35:08+00:00	2020-06-25T16:35:08-07:00	2020-06-25T23:39:50+00:00	2020-06-27T06:59:59+00:00	-1	6k49zdbbbflfwbp@marketplace.amazon.com	carmen	+1 346-307-9643 ext. 94029	ABR0022	Purchase Now for Delivery by Monday | Arabella Farm Direct Bouquet of 12 Fresh Cut Pink Roses with a Free Glass Vase	1	0	1	NextDay	Petra Rocio	13987 MORNING GLORY DR  33414			WELLINGTON	FL	33414-8612	US			false		
111-1772386-3941865	34254730718314	2020-06-25T23:47:57+00:00	2020-06-25T16:47:57-07:00	2020-06-25T23:48:52+00:00	2020-06-27T06:59:59+00:00	-1	v41pnz690twx594@marketplace.amazon.com	berit monnier	+1 346-307-9643 ext. 93096	ABR012	Purchase Now for Delivery by Monday | Arabella Farm Direct Bouquet of 18 Fresh Cut Pink Roses with a Free Glass Vase	1	0	1	NextDay	Jennifer Hunt	1047 RIPPLE AVE			PACIFIC GROVE	CA	93950-2147	US		Happy Birthday Jennifer!! Hope your "special" birthday is filled with love and laughter! From: Tante and Uncle Gary	false		
113-1469133-1707418	50507089326866	2020-06-25T23:45:37+00:00	2020-06-25T16:45:37-07:00	2020-06-25T23:49:37+00:00	2020-06-27T06:59:59+00:00	-1	488vrtvmrbvmp91@marketplace.amazon.com	Kevin Mello	+1 210-728-4548 ext. 30377	ABM010	Arabella Bouquets | Fields of The World Bouquet of Fresh Cut Flowers in a Free Designer Glass Vase	1	0	1	NextDay	Jen Mello	155 BRONZE WAY			VISTA	CA	92083-4436	US		Happy Birthday! Love Kevin From Kevin Mello	false		
111-5078845-3916226	10694090611698	2020-06-26T00:00:11+00:00	2020-06-25T17:00:11-07:00	2020-06-26T00:01:06+00:00	2020-06-27T06:59:59+00:00	-1	zlbj11z2kj29g14@marketplace.amazon.com	Stephanie L. Moore	+1 346-307-9643 ext. 39921	ABM002	Purchase Now for Delivery by Monday | Arabella Bouquets Fresh Cut White Calla Lilies in a Free Designer Glass Vase	1	0	1	NextDay	Auntie Tita Femminis	3007 FLORA VIS			ALAMEDA	CA	94502-6817	US		Happy Birthday, Auntie Tita! May God bless you on your special day and always.  Love you a bunch, Steph & Family From Stephanie Moore	false		
111-6335975-1627411	50742433105666	2020-06-25T23:58:37+00:00	2020-06-25T16:58:37-07:00	2020-06-26T00:02:54+00:00	2020-06-27T06:59:59+00:00	-1	r3006vww4xs3hnl@marketplace.amazon.com	MIKE YOUNG	+1 346-307-9643 ext. 80840	ABR0022	Purchase Now for Delivery by Monday | Arabella Farm Direct Bouquet of 12 Fresh Cut Pink Roses with a Free Glass Vase	1	0	1	NextDay	Loraine Ahearn	25 CANAL WOODS			ROCHESTER	NY	14626-4290	US		Happy Birthday Mom!!! From Kim Viola Mike & Dalyn	false		
112-0035844-1849046	18639679538034	2020-06-26T00:03:27+00:00	2020-06-25T17:03:27-07:00	2020-06-26T00:33:51+00:00	2020-06-30T06:59:59+00:00	-4	1cwxrht5lyt7vr9@marketplace.amazon.com	Collin Morris	+1 346-307-9643 ext. 00936	ABR0022	Purchase Now for Delivery by Monday | Arabella Farm Direct Bouquet of 12 Fresh Cut Pink Roses with a Free Glass Vase	1	0	1	Expedited	Collin Morris	110 BROWNING AVE SE APT 4B			SALEM	OR	97302-5688	US			false		
112-8290317-0344247	20805577028450	2020-06-26T00:44:55+00:00	2020-06-25T17:44:55-07:00	2020-06-26T00:48:25+00:00	2020-06-27T06:59:59+00:00	-1	gz40jphbd8js5xb@marketplace.amazon.com	yong jia	+1 346-307-9643 ext. 77129	ABM010	Arabella Bouquets | Fields of The World Bouquet of Fresh Cut Flowers in a Free Designer Glass Vase	1	0	1	NextDay	Peter Dean	5127 FLEMING AVE			OAKLAND	CA	94619-3237	US		Dear Ruth Happy belated birthday! From Yong and Yu	false		
112-8568269-8898662	43350522740546	2020-06-26T00:36:18+00:00	2020-06-25T17:36:18-07:00	2020-06-26T00:59:17+00:00	2020-06-30T06:59:59+00:00	-4	lh6bq7mgy34ml16@marketplace.amazon.com	Megan Mulcahy	+1 346-307-9643 ext. 97795	ABM0033	Purchase Now for Delivery by Monday | Arabella Farm Direct Bouquet of Fresh Cut White Hydrangea with a Free Glass Vase	1	0	1	Expedited	The Gage Ladies	135 AMHERST PL NW			ATLANTA	GA	30327-4063	US		We are thinking about you today as you reflect upon the loss of a wonderful man. We are praying over you and hope these flowers bring a touch of peace and joy as we know you will be together, forever, one day. We love you! From Megan & Isaac Perry	false		
113-9571151-1923409	66972018870754	2020-06-26T00:43:19+00:00	2020-06-25T17:43:19-07:00	2020-06-26T01:21:08+00:00	2020-06-30T06:59:59+00:00	-4	ylpq4yps0p2cbqg@marketplace.amazon.com	lee libby	+1 210-728-4548 ext. 06571	ABR001	Purchase Now for Delivery by Monday | Arabella Bouquets 12 Stems of Fresh Cut Red Roses in a Free Designer Glass Vase	1	0	1	Expedited	Nell Hastey	318 N ROSCOE BLVD			PONTE VEDRA BEACH	FL	32082-2527	US			false		
114-2504642-0715449	47851331700002	2020-06-26T01:45:39+00:00	2020-06-25T18:45:39-07:00	2020-06-26T01:50:56+00:00	2020-06-27T06:59:59+00:00	-1	hw1f4qn5bcn28vk@marketplace.amazon.com	Kiran bhatt	+1 314-282-9402 ext. 98291	ABR0033	Purchase Now for Delivery by Monday | Arabella Farm Direct Bouquet of 12 Fresh Cut Orange Roses with a Free Glass Vase	1	0	1	NextDay	Emily & Valkal Bhatt	1530 LOCUST ST APT 15D			PHILADELPHIA	PA	19102-4430	US		To Emily and Valkal Wishing you a very happy First Wedding Anniversary  From  Jacksons's GrandMa,GrandPa  and Shadow Dina Kiran Bhatt	false		
112-6082801-7030631	09540283387146	2020-06-26T01:51:29+00:00	2020-06-25T18:51:29-07:00	2020-06-26T01:52:11+00:00	2020-06-27T06:59:59+00:00	-1	sy6l2nb54qk9yql@marketplace.amazon.com	Nuonuo Bossard	+1 314-282-9402 ext. 95097	ABM010	Arabella Bouquets | Fields of The World Bouquet of Fresh Cut Flowers in a Free Designer Glass Vase	1	0	1	NextDay	Sally Bossard	2129 PORTOLA LN			WESTLAKE VILLAGE	CA	91361-1738	US		Happy birthday sorry that it came late  I love you!!! From Patrick Bossard	false		
114-5871196-2993814	46285644700642	2020-06-26T02:02:13+00:00	2020-06-25T19:02:13-07:00	2020-06-26T02:07:29+00:00	2020-06-27T06:59:59+00:00	-1	njpsq2wzb64cgsv@marketplace.amazon.com	woodrow Jones	+1 210-728-4548 ext. 37135	ABR0022	Purchase Now for Delivery by Monday | Arabella Farm Direct Bouquet of 12 Fresh Cut Pink Roses with a Free Glass Vase	1	0	1	NextDay	Woodrow Jones	13901 LAKE MAHOGANY BLVD APT 3012			FORT MYERS	FL	33907-6617	US			false		
114-9943347-4884233	48306376870682	2020-06-26T02:10:17+00:00	2020-06-25T19:10:17-07:00	2020-06-26T02:11:15+00:00	2020-06-27T06:59:59+00:00	-1	lxc8jhg7tmkgys6@marketplace.amazon.com	austin	+1 346-307-9643 ext. 95088	ABR0022	Purchase Now for Delivery by Monday | Arabella Farm Direct Bouquet of 12 Fresh Cut Pink Roses with a Free Glass Vase	1	0	1	NextDay	Sara Perkins	2521 HAWKS PRESERVE DR			FORT MYERS	FL	33905-2435	US		Just something beautiful for my beautiful girl! From Love Austin	false		
112-2578107-7073011	67539008485730	2020-06-26T02:09:34+00:00	2020-06-25T19:09:34-07:00	2020-06-26T02:44:00+00:00	2020-06-30T06:59:59+00:00	-4	6lnpjbktm5ml4gh@marketplace.amazon.com	Anna	+1 314-282-9402 ext. 39912	ABR0022	Purchase Now for Delivery by Monday | Arabella Farm Direct Bouquet of 12 Fresh Cut Pink Roses with a Free Glass Vase	1	0	1	Expedited	Anna Hunanyan	5100 WILSHIRE BLVD APT 322			LOS ANGELES	CA	90036-2799	US			false		
112-9097462-0060207	28941088298706	2020-06-26T02:32:57+00:00	2020-06-25T19:32:57-07:00	2020-06-26T02:58:33+00:00	2020-06-30T06:59:59+00:00	-4	f794tdxpk6s29l4@marketplace.amazon.com	Dr. Jennifer Wang	+1 346-307-9643 ext. 31310	ABR0022	Purchase Now for Delivery by Monday | Arabella Farm Direct Bouquet of 12 Fresh Cut Pink Roses with a Free Glass Vase	1	0	1	Standard	Edna Impalli	231 HENRY ST			HASBROUCK HEIGHTS	NJ	07604-1709	US		Hi Edna, Thinking of you..... From Jennifer & Brenda	true		
112-6259396-9265010	19101951497170	2020-06-26T03:01:03+00:00	2020-06-25T20:01:03-07:00	2020-06-26T03:03:44+00:00	2020-06-27T06:59:59+00:00	-1	q8nrv5bzkw8v206@marketplace.amazon.com	Jhordam Martinez	+1 314-282-9402 ext. 77729	ABR001	Purchase Now for Delivery by Monday | Arabella Bouquets 12 Stems of Fresh Cut Red Roses in a Free Designer Glass Vase	1	0	1	NextDay	Nicolaza Mejía	2608 CRESTON AVE APT 6G			BRONX	NY	10468-4439	US		¡Muchas felicidades! Le deseamos muchos años más de vida! Que se lo goce mucho hoy. Con mucho cariño de Yolanda, Jhordam, Eric y Mayeline. From Familia Martinez Ramirez	false		
113-6708211-9474628	50034776392666	2020-06-26T03:07:06+00:00	2020-06-25T20:07:06-07:00	2020-06-26T03:07:58+00:00	2020-06-27T06:59:59+00:00	-1	zrj968xntjbrc8k@marketplace.amazon.com	Rick Byers	+1 346-307-9643 ext. 88967	ABR001	Purchase Now for Delivery by Monday | Arabella Bouquets 12 Stems of Fresh Cut Red Roses in a Free Designer Glass Vase	1	0	1	NextDay	Amanda Greer	102 N 3RD ST			BARDSTOWN	KY	40004-1526	US		I hope this puts a smile on your face everytime you look at these roses!   Keep being the sweet person you are! From Rick Byers	false		
112-1979026-8336226	39451772543090	2020-06-26T03:17:12+00:00	2020-06-25T20:17:12-07:00	2020-06-26T03:21:57+00:00	2020-06-27T06:59:59+00:00	-1	ty2yq7fr6yckzms@marketplace.amazon.com	Victor	+1 346-307-9643 ext. 64055	ABR012	Purchase Now for Delivery by Monday | Arabella Farm Direct Bouquet of 18 Fresh Cut Pink Roses with a Free Glass Vase	1	0	1	NextDay	Karla Avila Mejia	500 UNIVERSITY PKWY APT 308			YAKIMA	WA	98901-8233	US		Because you are beautiful and I love you baby... From Layaner	false		
113-3798642-0795412	19761535480346	2020-06-26T03:23:29+00:00	2020-06-25T20:23:29-07:00	2020-06-26T03:24:20+00:00	2020-06-27T06:59:59+00:00	-1	tfx8021lj4qdycx@marketplace.amazon.com	Meredith Benz	+1 314-282-9402 ext. 29287	ABR001	Purchase Now for Delivery by Monday | Arabella Bouquets 12 Stems of Fresh Cut Red Roses in a Free Designer Glass Vase	1	0	1	NextDay	Stephanie Wilson	955 CIVIC CENTER DR			VISTA	CA	92083-5243	US		Happy Birthday! From Nick Wessel	false		
114-4558783-2349854	62055685860762	2020-06-26T03:41:48+00:00	2020-06-25T20:41:48-07:00	2020-06-26T03:42:36+00:00	2020-06-27T06:59:59+00:00	-1	mbbpmp43g6mdp9f@marketplace.amazon.com	Randy Hummell	+1 346-307-9643 ext. 68115	ABB005	Arabella Bouquets 24 Stems of Fresh Cut Red Roses in a Designer Glass Vase	1	0	1	NextDay	Robyn Smith	185 THOMAS ST			MINERAL POINT	PA	15942-5925	US		Robyn, a Beautiful Strawberry Blonde, with Seductive Baby Blue Eyes, and Sexy Feet and Toes, who I Love with All My Heart and Forever Will.  With All My Love, From Randy	false		
113-2046918-5858665	30525779071594	2020-06-26T03:43:58+00:00	2020-06-25T20:43:58-07:00	2020-06-26T03:48:03+00:00	2020-06-27T06:59:59+00:00	-1	gzq45dzpd5kpsjc@marketplace.amazon.com	Shawn Rao	+1 347-448-3190 ext. 17801	ABR0055	Purchase Now for Delivery by Monday | Arabella Farm Direct Bouquet of 12 Stems of Fresh Cut Hot Pink Roses in a Free Designer Glass Vase	1	0	1	NextDay	Aban Rao	6706 N FOX POINT CT			PEORIA	IL	61614-3003	US		Happy Birthday!  Love, Shawn	false		
112-5595409-0951425	30992516149266	2020-06-26T03:49:02+00:00	2020-06-25T20:49:02-07:00	2020-06-26T03:49:54+00:00	2020-06-27T06:59:59+00:00	-1	2ypfxr68qkyzvkw@marketplace.amazon.com	gloria forman	+1 346-307-9643 ext. 77908	ABR0022	Purchase Now for Delivery by Monday | Arabella Farm Direct Bouquet of 12 Fresh Cut Pink Roses with a Free Glass Vase	1	0	1	NextDay	Roz kleiman ( Sussman)	4250 GLENCOE AVE UNIT 1120			MARINA DL REY	CA	90292-5660	US		Enjoy your gift! Hope you have a great day! Love you all From gloria forman	false		
112-2032090-8849866	65951908841098	2020-06-26T04:02:42+00:00	2020-06-25T21:02:42-07:00	2020-06-26T04:07:19+00:00	2020-06-27T06:59:59+00:00	-1	r4kbxm59c529chp@marketplace.amazon.com	Dayana Rivera	+1 314-282-9402 ext. 24888	ABR001	Purchase Now for Delivery by Monday | Arabella Bouquets 12 Stems of Fresh Cut Red Roses in a Free Designer Glass Vase	1	0	1	NextDay	Jayro Nunez	736 W STATE ST APT B207			FARMINGTON	UT	84025-4437	US			false		
113-1845160-7431417	00805315269794	2020-06-26T04:10:43+00:00	2020-06-25T21:10:43-07:00	2020-06-26T04:11:42+00:00	2020-06-27T06:59:59+00:00	-1	7g1vf5y052jvkr6@marketplace.amazon.com	Neera Singh	+1 346-307-9643 ext. 87688	ABR0055	Purchase Now for Delivery by Monday | Arabella Farm Direct Bouquet of 12 Stems of Fresh Cut Hot Pink Roses in a Free Designer Glass Vase	1	0	1	NextDay	Ravin Singh	1311 POE LN			SAN JOSE	CA	95130-1343	US			false		
114-5118616-5364212	24590296471978	2020-06-26T03:50:32+00:00	2020-06-25T20:50:32-07:00	2020-06-26T04:13:50+00:00	2020-06-30T06:59:59+00:00	-4	j2lt4174w57mpsq@marketplace.amazon.com	Steve Hartenstein	+1 346-307-9643 ext. 85434	ABR004	Arabella Farm Direct Bouquet of 12 Fresh Cut Yellow Roses with a Free Glass Vase	1	0	1	Expedited	Dean Misty Johanson	1255 N STATE PKWY APT 2H			CHICAGO	IL	60610-8213	US		You an amazing leader! We are all so blessed by your leadership. You are truly angelic. Prayers to you from Your Hospitality advisory board. Make it a great one.  Cheers. From Depaul Hospitality board	true		
113-9284958-8567446	25181779024218	2020-06-26T04:21:57+00:00	2020-06-25T21:21:57-07:00	2020-06-26T04:52:29+00:00	2020-06-30T06:59:59+00:00	-4	yz3dxftt54n8f5s@marketplace.amazon.com	Taylor	+1 346-307-9643 ext. 56532	ABR0022	Purchase Now for Delivery by Monday | Arabella Farm Direct Bouquet of 12 Fresh Cut Pink Roses with a Free Glass Vase	1	0	1	Expedited	Kelly Wilson	3921 WHISPERING WAY SE APT 24	DRIVE		GRAND RAPIDS	MI	49546-5871	US			false		
112-0962039-6903432	32736065556114	2020-06-26T05:25:46+00:00	2020-06-25T22:25:46-07:00	2020-06-26T05:38:05+00:00	2020-06-27T06:59:59+00:00	-1	2z91j7x7wq1b5kd@marketplace.amazon.com	MIGUEL ANGEL CHALI LEON	+1 314-282-9402 ext. 86681	ABM010	Arabella Bouquets | Fields of The World Bouquet of Fresh Cut Flowers in a Free Designer Glass Vase	1	0	1	NextDay	Esperanza Chali	70 HUMES AVE			WORCESTER	MA	01605-1610	US		No hay distancias grandes cuando el corazón está cerca.     Feliz cumpleaños tía Esperanza. De MIGUEL ANGEL CHALI LEON	false		
113-6061719-2229842	03965215583578	2020-06-26T08:29:02+00:00	2020-06-26T01:29:02-07:00	2020-06-26T08:29:56+00:00	2020-06-27T06:59:59+00:00	-1	qd80sjtwsfgw7kt@marketplace.amazon.com	Jawaher Hamad	+1 346-307-9643 ext. 43893	ABR0022	Purchase Now for Delivery by Monday | Arabella Farm Direct Bouquet of 12 Fresh Cut Pink Roses with a Free Glass Vase	1	0	1	NextDay	Cesar	5110 S MANHATTAN AVE UNIT 1102	TAMPA FL 33611		TAMPA	FL	33611-3449	US		I'm glad you got a nice place of your own,so now I can come and bother you .   Jawaher From Jawaher Alquraini	false		
114-8848010-3493864	11477868171898	2020-06-26T08:30:43+00:00	2020-06-26T01:30:43-07:00	2020-06-26T08:34:57+00:00	2020-06-27T06:59:59+00:00	-1	xz6hwk7ysh7qdsq@marketplace.amazon.com	Storm Dyer	+1 346-307-9643 ext. 41812	ABR0022	Purchase Now for Delivery by Monday | Arabella Farm Direct Bouquet of 12 Fresh Cut Pink Roses with a Free Glass Vase	1	0	1	NextDay	Jessica Dyer	4509 E WASHINGTON ST APT 8			INDIANAPOLIS	IN	46201-4676	US		I love you! I'll be home soon! From Jessica Dyer	false		
112-1001819-1510617	29207516175602	2020-06-26T08:44:43+00:00	2020-06-26T01:44:43-07:00	2020-06-26T08:47:45+00:00	2020-06-27T06:59:59+00:00	-1	83551zndbvnsff6@marketplace.amazon.com	Amy Field	+1 346-307-9643 ext. 97586	ABR0022	Purchase Now for Delivery by Monday | Arabella Farm Direct Bouquet of 12 Fresh Cut Pink Roses with a Free Glass Vase	1	0	1	NextDay	Ms. Fiona Chen	11840 COVEY LN			HUNTLEY	IL	60142-6222	US		Dear Fiona,  Hope you have a wonderful birthday!  Love,  Amy, Ian, Daniel and Hannah From Amy Field	false		
113-2011644-6253829	50629517716010	2020-06-26T08:50:59+00:00	2020-06-26T01:50:59-07:00	2020-06-26T09:18:30+00:00	2020-07-01T06:59:59+00:00	-5	xfj8007w5xz4wyj@marketplace.amazon.com	miriam lofgren bangs	+1 346-307-9643 ext. 93560	ABR004	Arabella Farm Direct Bouquet of 12 Fresh Cut Yellow Roses with a Free Glass Vase	1	0	1	Expedited	Mr and Mrs Steiner	111 PARK AVE			LEAVENWORTH	WA	98826-1018	US		Dear Ana, Happy housewarming!!!! Wishing you all the very best in this new adventure! Love from Mia,Colin,David and Emily From Mia  Lofgren-Bangs	false		
112-6667603-2139456	45743655125850	2020-06-26T10:11:11+00:00	2020-06-26T03:11:11-07:00	2020-06-26T10:12:01+00:00	2020-06-27T06:59:59+00:00	-1	7p4w46t6vvt2s1l@marketplace.amazon.com	Jason Engebos	61684364077	ABR001	Purchase Now for Delivery by Monday | Arabella Bouquets 12 Stems of Fresh Cut Red Roses in a Free Designer Glass Vase	1	0	1	NextDay	Jamie Lisanby	208 JEFFERSON AVE APT 216			IRON RIVER	MI	49935-2278	US		Jamie you are amazing! I am so gifted to have you in my life. I can't believe this is real! I love you! I am forever yours! From Jason Engebos	false		
112-2371904-1701825	68447748400066	2020-06-26T10:11:47+00:00	2020-06-26T03:11:47-07:00	2020-06-26T10:14:14+00:00	2020-06-27T06:59:59+00:00	-1	579jmq69r3pd0tc@marketplace.amazon.com	Jonathan Kemnitz	+1 314-282-9402 ext. 27403	ABR0022	Purchase Now for Delivery by Monday | Arabella Farm Direct Bouquet of 12 Fresh Cut Pink Roses with a Free Glass Vase	1	0	1	NextDay	Emily Lemen	5 FINTRAY PL			ROCHESTER	NY	14607-2911	US		I think I’m just going to keep buying you flowers, mon petit fleur. Je t’aime, Love. From Jonathan Kemnitz	false		
113-0217032-1181827	61012217175338	2020-06-26T10:34:38+00:00	2020-06-26T03:34:38-07:00	2020-06-26T10:35:36+00:00	2020-06-27T06:59:59+00:00	-1	zvxdmxw5pzncz3t@marketplace.amazon.com	Helen Tate	+1 346-307-9643 ext. 51560	ABR0022	Purchase Now for Delivery by Monday | Arabella Farm Direct Bouquet of 12 Fresh Cut Pink Roses with a Free Glass Vase	1	0	1	NextDay	Louise and Makram Megalli	2 OAK GROVE BLVD			NORTH PROVIDENCE	RI	02911-2614	US		Happy anniversary Louise & Mak! Thank you for unlocking my condo on your special day so I could have my couch delivered!  Love, Helen From Helen Tate	false		
114-1257647-9897029	69070741134786	2020-06-26T10:35:37+00:00	2020-06-26T03:35:37-07:00	2020-06-26T10:36:56+00:00	2020-06-27T06:59:59+00:00	-1	16x2rppk6wxfsbq@marketplace.amazon.com	taeed ahmed	+1 346-307-9643 ext. 88287	ABR012	Purchase Now for Delivery by Monday | Arabella Farm Direct Bouquet of 18 Fresh Cut Pink Roses with a Free Glass Vase	1	0	1	NextDay	RITA SCIORILLI	88 S 5TH ST			BETHPAGE	NY	11714-2508	US		To my Sweet Heart Love you !!! From taeed ahmed	false		
114-0065624-6533033	60212060794138	2020-06-26T10:49:30+00:00	2020-06-26T03:49:30-07:00	2020-06-26T10:54:11+00:00	2020-06-27T06:59:59+00:00	-1	12kk62v75cj9gw8@marketplace.amazon.com	Christopher Atwater	+1 346-307-9643 ext. 68927	ABR0022	Purchase Now for Delivery by Monday | Arabella Farm Direct Bouquet of 12 Fresh Cut Pink Roses with a Free Glass Vase	1	0	1	NextDay	Margaret Berube	624 HILLS ST			EAST HARTFORD	CT	06118-3033	US		Happy Birthday Mom! From Chris, Chiaki, Ayana and Mina	false		
112-9392417-1173043	37750426014754	2020-06-26T10:57:38+00:00	2020-06-26T03:57:38-07:00	2020-06-26T11:28:05+00:00	2020-07-01T06:59:59+00:00	-5	jm8z9zxlfmp29gt@marketplace.amazon.com	mrs.m.jarvis	+1 314-282-9402 ext. 23554	ABR0022	Purchase Now for Delivery by Monday | Arabella Farm Direct Bouquet of 12 Fresh Cut Pink Roses with a Free Glass Vase	1	0	1	Expedited	Mr.MrsArshravan	1026 WESTMINSTER AVE			DIX HILLS	NY	11746-8140	US			false		
113-1437682-7565868	11504733491458	2020-06-26T11:39:21+00:00	2020-06-26T04:39:21-07:00	2020-06-26T11:42:25+00:00	2020-06-27T06:59:59+00:00	-1	yy65w5k0rmxjqwm@marketplace.amazon.com	Jerry Regis	+1 314-282-9402 ext. 77746	ABR0022	Purchase Now for Delivery by Monday | Arabella Farm Direct Bouquet of 12 Fresh Cut Pink Roses with a Free Glass Vase	1	0	1	NextDay	Mrs. Sarah Iusi	17752 W ACAPULCO LN			SURPRISE	AZ	85388-8730	US		Mrs. Iusi  Congratulations on the birth of your daughter.  We wish you both the best.  Get some rest soon.  COL James F. Porter and CSM Freddy Trejo	false		
112-8148065-7505846	14132806092018	2020-06-26T11:47:06+00:00	2020-06-26T04:47:06-07:00	2020-06-26T11:51:47+00:00	2020-06-27T06:59:59+00:00	-1	3cjhr5hw9vr120z@marketplace.amazon.com	Anthony W. Czarnik	+1 346-307-9643 ext. 00370	ABR004	Arabella Farm Direct Bouquet of 12 Fresh Cut Yellow Roses with a Free Glass Vase	1	0	1	NextDay	Adina Lindbloom	2435 HAVENWOOD CT			CARSON CITY	NV	89706-2347	US			false		
111-9380620-1865004	01712011662410	2020-06-26T12:09:08+00:00	2020-06-26T05:09:08-07:00	2020-06-26T12:13:13+00:00	2020-06-27T06:59:59+00:00	-1	tvsv1gw724j4vs5@marketplace.amazon.com	Nicole Weiland	+1 346-307-9643 ext. 03665	ABR0055	Purchase Now for Delivery by Monday | Arabella Farm Direct Bouquet of 12 Stems of Fresh Cut Hot Pink Roses in a Free Designer Glass Vase	1	0	1	NextDay	Ms. Nancy Soutar	1235 MILL CREEK DR			WATERFORD	MI	48327-3089	US		Happy Birthday! May it be filled with beauty and cheer.  Congratulations, again, on the arrival of the grandtwins!!! Love ~ Nicki, Annelisa, & Luke From Nicole Weiland	false		
113-0335475-9455422	31199416536610	2020-06-26T12:13:13+00:00	2020-06-26T05:13:13-07:00	2020-06-26T12:43:51+00:00	2020-07-01T06:59:59+00:00	-5	jqgqn9qh6502ssd@marketplace.amazon.com	edward machado	+1 347-448-3190 ext. 05069	ABM010	Arabella Bouquets | Fields of The World Bouquet of Fresh Cut Flowers in a Free Designer Glass Vase	1	0	1	Expedited	Johann Machado	434 COMMODORE AVE NW			PALM BAY	FL	32907-1719	US			false		
114-0892068-4062641	22089449423714	2020-06-26T12:45:52+00:00	2020-06-26T05:45:52-07:00	2020-06-26T12:50:14+00:00	2020-06-27T06:59:59+00:00	-1	frv47gwmggj2gr9@marketplace.amazon.com	beth blik	0019174416927	ABR0022	Purchase Now for Delivery by Monday | Arabella Farm Direct Bouquet of 12 Fresh Cut Pink Roses with a Free Glass Vase	1	0	1	NextDay	Cornelia Blik	320 W 87TH ST PH APT			NEW YORK	NY	10024-2626	US		I know you love these roses so enjoy and feel my love mum xxxx From beth blik	false		
114-1058486-2612262	67604207997762	2020-06-26T12:51:48+00:00	2020-06-26T05:51:48-07:00	2020-06-26T12:55:24+00:00	2020-06-27T06:59:59+00:00	-1	xsc1181hzyqxtlg@marketplace.amazon.com	Patricia C. McGee	+1 314-282-9402 ext. 32811	ABR0022	Purchase Now for Delivery by Monday | Arabella Farm Direct Bouquet of 12 Fresh Cut Pink Roses with a Free Glass Vase	1	0	1	NextDay	Anita Lindsley	6707 RABBIT CT			WALDORF	MD	20603-4437	US		Happy Birthday!!!  I love our friendship.  I hope you have a wonderful day. From Patricia C. McGee	false		
114-9195108-6754635	11659487291098	2020-06-26T13:24:24+00:00	2020-06-26T06:24:24-07:00	2020-06-26T13:29:35+00:00	2020-06-27T06:59:59+00:00	-1	p85vxbjk189gr1j@marketplace.amazon.com	Karen L Terrano	+1 346-307-9643 ext. 08815	ABR0022	Purchase Now for Delivery by Monday | Arabella Farm Direct Bouquet of 12 Fresh Cut Pink Roses with a Free Glass Vase	1	0	1	NextDay	Marie Archetto	101 SCENIC DR			WEST WARWICK	RI	02893-7402	US			false		
112-5230652-0568267	01046242683802	2020-06-26T13:46:43+00:00	2020-06-26T06:46:43-07:00	2020-06-26T13:48:25+00:00	2020-06-27T06:59:59+00:00	-1	7dr33rbmp66yt70@marketplace.amazon.com	William Gavin Scott	+1 210-728-4548 ext. 59788	ABM010	Arabella Bouquets | Fields of The World Bouquet of Fresh Cut Flowers in a Free Designer Glass Vase	1	0	1	NextDay	Calla Shapiro	8857 MOONLIT MEADOWS LOOP			RIVERVIEW	FL	33578-8836	US		Calla--Congratulations and thank you for all of your hard work over the last four years. It is great to have you as a friend!     Bill Scott From Bill Scott	false		
111-7479123-5233023	33380056395594	2020-06-26T13:29:22+00:00	2020-06-26T06:29:22-07:00	2020-06-26T13:55:27+00:00	2020-07-01T06:59:59+00:00	-5	td9b5v8bxm0nv6n@marketplace.amazon.com	Dr. John P&#62; Davis	+1 346-307-9643 ext. 45036	ABR0022	Purchase Now for Delivery by Monday | Arabella Farm Direct Bouquet of 12 Fresh Cut Pink Roses with a Free Glass Vase	1	0	1	Expedited	Mary Gaffney	MYCJL 1142 SANDERSON AVE			SCRANTON	PA	18509-2623	US		Thank you for all your help with William and Katherine Schroeder. From John and Dawn Davis	false		
113-8315840-5026648	10890143549210	2020-06-26T14:04:31+00:00	2020-06-26T07:04:31-07:00	2020-06-26T14:05:27+00:00	2020-06-27T06:59:59+00:00	-1	xgg6s423cl9909k@marketplace.amazon.com	Yvonne Taylor	+1 346-307-9643 ext. 58378	ABR0022	Purchase Now for Delivery by Monday | Arabella Farm Direct Bouquet of 12 Fresh Cut Pink Roses with a Free Glass Vase	1	0	1	NextDay	Julia Wiggins	9840 CATALINA DR			INDIANAPOLIS	IN	46235-1631	US		Happy 80th Birthday Mom I love you!!! ....BONNIE From Yvonne Taylor	false		
111-3402109-5448230	51601690258578	2020-06-26T13:39:29+00:00	2020-06-26T06:39:29-07:00	2020-06-26T14:09:49+00:00	2020-07-01T06:59:59+00:00	-5	87n1ffzgqfxvhp9@marketplace.amazon.com	peter souza	+1 346-307-9643 ext. 75954	ABR0055	Purchase Now for Delivery by Monday | Arabella Farm Direct Bouquet of 12 Stems of Fresh Cut Hot Pink Roses in a Free Designer Glass Vase	1	0	1	Expedited	Waltraut Souza	38 GEORGE ST			LITTLETON	MA	01460-1711	US			false		
113-2480461-7173813	17799010199362	2020-06-26T14:02:12+00:00	2020-06-26T07:02:12-07:00	2020-06-26T14:32:49+00:00	2020-07-01T06:59:59+00:00	-5	yg6yywfqh0v10st@marketplace.amazon.com	kurt fazekas	+1 346-307-9643 ext. 44033	ABR0055	Purchase Now for Delivery by Monday | Arabella Farm Direct Bouquet of 12 Stems of Fresh Cut Hot Pink Roses in a Free Designer Glass Vase	1	0	1	Expedited	Scott Fazekas	9212 KINLOCK DR			INDIANAPOLIS	IN	46256-2242	US			false		
114-2864535-8463408	03360935145338	2020-06-26T14:49:04+00:00	2020-06-26T07:49:04-07:00	2020-06-26T14:50:11+00:00	2020-06-27T06:59:59+00:00	-1	vxsyp4knphhzx4w@marketplace.amazon.com	Bethany LaMarr	+1 346-307-9643 ext. 52184	ABR0022	Purchase Now for Delivery by Monday | Arabella Farm Direct Bouquet of 12 Fresh Cut Pink Roses with a Free Glass Vase	1	0	1	NextDay	Natrice Johnson	1 BROWN ST			PHILADELPHIA	PA	19123-3348	US		Thank you for not only encouraging me to grow academically but also investing in my growth! I hope these flowers bring you joy. Love you Ms. Natrice! From Bethany LaMarr	false		
114-2178372-4424200	07832554005402	2020-06-26T14:48:56+00:00	2020-06-26T07:48:56-07:00	2020-06-26T14:53:06+00:00	2020-06-27T06:59:59+00:00	-1	9p0x4gpq0jwcdpn@marketplace.amazon.com	Jill Jones	+1 314-282-9402 ext. 41499	ABR0055	Purchase Now for Delivery by Monday | Arabella Farm Direct Bouquet of 12 Stems of Fresh Cut Hot Pink Roses in a Free Designer Glass Vase	1	0	1	NextDay	Debra Torrento	3523 ARMSTRONG RD			SPRINGFIELD	TN	37172-6344	US			false		
112-6391774-4405852	53016913748370	2020-06-26T14:49:33+00:00	2020-06-26T07:49:33-07:00	2020-06-26T14:54:24+00:00	2020-06-27T06:59:59+00:00	-1	72bszcynxkxmfly@marketplace.amazon.com	Joanne Lavin	+1 210-728-4548 ext. 01705	ABR0066	Purchase Now for Delivery by Monday | Arabella Bouquets 18 Stems of Fresh Cut White Roses in a Free Designer Glass Vase	1	0	1	NextDay	Joanne Lavin	31657 N OCEAN WAY SEABREAK			BETHANY BEACH	DE	19930-3404	US			false		
113-1288327-8941043	51462609517586	2020-06-26T14:58:47+00:00	2020-06-26T07:58:47-07:00	2020-06-26T15:03:21+00:00	2020-06-27T06:59:59+00:00	-1	2ckpj6hy1cdty03@marketplace.amazon.com	Stephen Chouinard	+1 346-307-9643 ext. 42724	ABM010	Arabella Bouquets | Fields of The World Bouquet of Fresh Cut Flowers in a Free Designer Glass Vase	1	0	1	NextDay	Star Edington	1325 ACUFF LN			CONWAY	AR	72034-8900	US		From sissy with all my love because I'm so proud of you and all your hard work. From Sissy	false		
