order-id	order-item-id	purchase-date	payments-date	reporting-date	promise-date	days-past-promise	buyer-email	buyer-name	buyer-phone-number	sku	product-name	quantity-purchased	quantity-shipped	quantity-to-ship	ship-service-level	recipient-name	ship-address-1	ship-address-2	ship-address-3	ship-city	ship-state	ship-postal-code	ship-country	gift-wrap-type	gift-message-text	is-business-order	purchase-order-number	price-designation
111-8272880-6777822	24396228939202	2020-06-24T18:24:44+00:00	2020-06-24T11:24:44-07:00	2020-06-24T18:52:11+00:00	2020-06-27T06:59:59+00:00	-1	0ztx4lm0vk6p2qt@marketplace.amazon.com	Donna Develine	+1 346-307-9643 ext. 13023	ABM010	Arabella Bouquets | Fields of The World Bouquet of Fresh Cut Flowers in a Free Designer Glass Vase	1	0	1	Expedited	Leslie Manoment	232 BLACKPOOL CT			RIDGE	NY	11961-1349	US		Enjoy your gift! Happy Al-Anon 32 Thank You for being a Blessing in my life. From Donna Develine	false		
112-4040635-8648269	31561076205386	2020-06-24T18:50:31+00:00	2020-06-24T11:50:31-07:00	2020-06-24T19:07:27+00:00	2020-06-27T06:59:59+00:00	-1	fzf56txjl1z25mr@marketplace.amazon.com	Nanci Isaacs	+1 346-307-9643 ext. 53484	ABM002	Purchase Now for Delivery by Monday | Arabella Bouquets Fresh Cut White Calla Lilies in a Free Designer Glass Vase	1	0	1	Expedited	Barbara Isaacs	8302 CURRY PL			ADELPHI	MD	20783-1728	US		WISHING YOU A SPEEDY RECOVERY - WE LOVE YOU BARB!!! LOVE, NANCI, KELVIN, ISABELLE AND OLIVIA From Nanci Isaacs	false		
112-1488224-0919415	43074644841130	2020-06-24T18:48:09+00:00	2020-06-24T11:48:09-07:00	2020-06-24T19:15:57+00:00	2020-06-27T06:59:59+00:00	-1	ffmggxs1t8bcj5b@marketplace.amazon.com	theresa	+1 314-282-9402 ext. 27607	ABM010	Arabella Bouquets | Fields of The World Bouquet of Fresh Cut Flowers in a Free Designer Glass Vase	1	0	1	Expedited	Christine Allard	76 VICKIS LN			NICHOLSON	PA	18446-7690	US		You are always close to our hearts and in our thoughts <3 we love you soooo very much and hope this brings a smile to your beautiful face :) From Sevan and Theresa	false		
113-3246660-8281833	41184826839122	2020-06-24T22:51:23+00:00	2020-06-24T15:51:23-07:00	2020-06-24T23:18:13+00:00	2020-06-27T06:59:59+00:00	-1	p24nyx7zmlcwk78@marketplace.amazon.com	Amazon	+1 346-307-9643 ext. 32988	ABM010	Arabella Bouquets | Fields of The World Bouquet of Fresh Cut Flowers in a Free Designer Glass Vase	1	0	1	Expedited	Simi Halberg	205 8TH ST APT 4B			LAKEWOOD	NJ	08701-2830	US		From the parents of 2019-20 YST students. Thank you and have a great summer. From Amazon	false		
112-8919564-3883414	27081352555970	2020-06-24T23:09:13+00:00	2020-06-24T16:09:13-07:00	2020-06-24T23:41:22+00:00	2020-06-27T06:59:59+00:00	-1	khfrn8m21mpwshp@marketplace.amazon.com	Mike	+1 346-307-9643 ext. 68602	ABM010	Arabella Bouquets | Fields of The World Bouquet of Fresh Cut Flowers in a Free Designer Glass Vase	1	0	1	Expedited	Tsianna Barnwell	7938 LOWER PERSE CIR			ORLANDO	FL	32827-7551	US		Happy Birthday! Miss you 😘 From Mikey	false		
113-5826045-9654613	45361018240466	2020-06-24T23:36:58+00:00	2020-06-24T16:36:58-07:00	2020-06-25T00:06:19+00:00	2020-06-27T06:59:59+00:00	-1	dp4h85btfl9sj4l@marketplace.amazon.com	David Maldonado	+1 346-307-9643 ext. 61471	ABM010	Arabella Bouquets | Fields of The World Bouquet of Fresh Cut Flowers in a Free Designer Glass Vase	1	0	1	Expedited	Rebecca McCall	2509 N 24TH ST			PHOENIX	AZ	85008-1805	US			false		
114-9542269-7773022	55157338971402	2020-06-25T01:06:05+00:00	2020-06-24T18:06:05-07:00	2020-06-25T01:29:44+00:00	2020-06-27T06:59:59+00:00	-1	5ncyktfr6y1ntll@marketplace.amazon.com	zomana majid	+1 346-307-9643 ext. 01534	ABB001	Arabella Farm Direct Fresh Cut White Hydrangea	1	0	1	Expedited	Mohua Apa	47 TURNING MILL RD			LEXINGTON	MA	02420-1009	US		Dear Mohua Apa,  With extreme sadness and deepest condolences we grief with you for Uncle. Inna Lillahi wa inna ilayhi raji'un  Love, Zomana & Wasim From Zomana & Wasim	false		
114-8269767-4055460	28689382945722	2020-06-25T01:14:07+00:00	2020-06-24T18:14:07-07:00	2020-06-25T01:38:12+00:00	2020-06-27T06:59:59+00:00	-1	5ncyktfr6y1ntll@marketplace.amazon.com	zomana majid	+1 346-307-9643 ext. 53258	ABB001	Arabella Farm Direct Fresh Cut White Hydrangea	1	0	1	Expedited	Sayem Bhai	26 WATERVILLE LN			SHREWSBURY	MA	01545-4843	US		Dear Sayem Bhai & Dolly,  With extreme sadness and deepest condolences we grief with you for Uncle and your Brother-In-Law. Inna Lillahi wa inna ilayhi raji'un Love, Zomana & Wasim From Zomana & Wasim	false		
112-1100567-6963432	10032155354482	2020-06-25T01:28:04+00:00	2020-06-24T18:28:04-07:00	2020-06-25T01:45:20+00:00	2020-06-27T06:59:59+00:00	-1	631xc0ldgc7kmdd@marketplace.amazon.com	Kim Houghton	+1 346-307-9643 ext. 10208	ABM010	Arabella Bouquets | Fields of The World Bouquet of Fresh Cut Flowers in a Free Designer Glass Vase	1	0	1	Expedited	Diane long	5899 1ST ST S			ARLINGTON	VA	22204-1027	US			true		
111-6144328-5259464	63319978000242	2020-06-25T12:00:59+00:00	2020-06-25T05:00:59-07:00	2020-06-25T12:30:53+00:00	2020-06-30T06:59:59+00:00	-4	zmk5ntbcxsj8ljy@marketplace.amazon.com	randolph jackson	+1 346-307-9643 ext. 72886	ABM010	Arabella Bouquets | Fields of The World Bouquet of Fresh Cut Flowers in a Free Designer Glass Vase	1	0	1	Expedited	James skip mullen	1670 CLAIRMONT RD			DECATUR	GA	30033-4004	US			false		
111-3461281-1432251	31366526276266	2020-06-25T13:01:44+00:00	2020-06-25T06:01:44-07:00	2020-06-25T13:29:16+00:00	2020-06-30T06:59:59+00:00	-4	vghh3s6qw4z691l@marketplace.amazon.com	Catherine	+1 346-307-9643 ext. 89791	ABM010	Arabella Bouquets | Fields of The World Bouquet of Fresh Cut Flowers in a Free Designer Glass Vase	1	0	1	Expedited	The Humphries Family	2101 WILLOWTREE LN			TEMPLE HILLS	MD	20748-5724	US		You’re always in my prayers! From Arlene	false		
112-6522158-7513006	34924222520266	2020-06-25T13:32:47+00:00	2020-06-25T06:32:47-07:00	2020-06-25T14:01:54+00:00	2020-06-30T06:59:59+00:00	-4	wpfz8cs4bx61b85@marketplace.amazon.com	SALTO (FINANCE DEPARTMENT)	+1 346-307-9643 ext. 15309	ABM010	Arabella Bouquets | Fields of The World Bouquet of Fresh Cut Flowers in a Free Designer Glass Vase	1	0	1	Expedited	Nicole SeguraPO026	12615 OTTER CREST CT			HUMBLE	TX	77346-1794	US			true	026	
112-5145317-3693001	26120823313114	2020-06-25T13:35:44+00:00	2020-06-25T06:35:44-07:00	2020-06-25T14:05:30+00:00	2020-06-30T06:59:59+00:00	-4	105glwct13z5skf@marketplace.amazon.com	Ed Johnson	+1 314-282-9402 ext. 18892	ABR0022	Purchase Now for Delivery by Monday | Arabella Farm Direct Bouquet of 12 Fresh Cut Pink Roses with a Free Glass Vase	2	1	1	Expedited	Jeff Johnson	25 SACHEM HILL RD			WINDSOR	CT	06095-2310	US			false		
112-3135282-3738617	69424844215826	2020-06-25T16:02:47+00:00	2020-06-25T09:02:47-07:00	2020-06-25T16:31:51+00:00	2020-06-30T06:59:59+00:00	-4	gynklkr6hzh3071@marketplace.amazon.com	Bryony Langdon	+1 346-307-9643 ext. 95400	ABM010	Arabella Bouquets | Fields of The World Bouquet of Fresh Cut Flowers in a Free Designer Glass Vase	1	0	1	Expedited	Bryony Langdon	18 SLEEPY HOLLOW RD			SANDY HOOK	CT	06482-1095	US		Happy birthday! Hope you have a lovely day! From Bryony & Seb xxx	false		
111-1646766-0253857	11483043196050	2020-06-25T17:13:44+00:00	2020-06-25T10:13:44-07:00	2020-06-25T17:43:16+00:00	2020-06-30T06:59:59+00:00	-4	0rmf6498l8hz7vy@marketplace.amazon.com	Priya Palmerson	+1 346-307-9643 ext. 39654	ABM010	Arabella Bouquets | Fields of The World Bouquet of Fresh Cut Flowers in a Free Designer Glass Vase	1	0	1	Expedited	Joan Palmerson	8035 263RD ST			FLORAL PARK	NY	11004-1516	US		Happy belated birthday ! Wishing you all the best ! Hope you had a great day, From Love Rowan, John and Priya	false		
111-1337338-5893849	13902872823658	2020-06-25T18:51:51+00:00	2020-06-25T11:51:51-07:00	2020-06-25T18:54:27+00:00	2020-06-27T06:59:59+00:00	-1	3mr8jcq0bwxh8z3@marketplace.amazon.com	Mike Childs	+1 346-307-9643 ext. 53116	ABM010	Arabella Bouquets | Fields of The World Bouquet of Fresh Cut Flowers in a Free Designer Glass Vase	1	0	1	NextDay	Sandy Brady	11275 GREEN VALLEY RD			SEBASTOPOL	CA	95472-9771	US		Sandy.....Enjoy your gift! Happy Fourth of July Maui Mike From Mike Childs	false		
112-7354614-0102610	24003302197586	2020-06-25T18:57:09+00:00	2020-06-25T11:57:09-07:00	2020-06-25T19:03:58+00:00	2020-06-27T06:59:59+00:00	-1	pcf7q6rw5ngq2dd@marketplace.amazon.com	Alton Sanders	+1 346-307-9643 ext. 57452	ABM010	Arabella Bouquets | Fields of The World Bouquet of Fresh Cut Flowers in a Free Designer Glass Vase	1	0	1	NextDay	Alton Sanders	165 N CONCORD ST			GILBERT	AZ	85234-5922	US			false		
114-8582761-5785048	09349390795666	2020-06-25T19:28:19+00:00	2020-06-25T12:28:19-07:00	2020-06-25T19:31:49+00:00	2020-06-27T06:59:59+00:00	-1	k0gmj6rpfxrxm7d@marketplace.amazon.com	corinne ng	+1 346-307-9643 ext. 46628	ABM0044	Purchase Now for Delivery by Monday | Arabella Farm Direct Bouquet of Fresh Cut Blue Hydrangea with a Free Glass Vase	1	0	1	NextDay	Gail Ng	29115 FIRTHRIDGE RD			RANCHO PALOS VERDES	CA	90275-4711	US		Dear Lola, Happy Birthday! We love you so much! From Jason, Corinne, and Gavin	false		
113-8861767-8337821	01887867457194	2020-06-25T19:56:12+00:00	2020-06-25T12:56:12-07:00	2020-06-25T19:57:10+00:00	2020-06-27T06:59:59+00:00	-1	2hcps5g9wd8tpsd@marketplace.amazon.com	paul condit	+1 314-282-9402 ext. 32670	ABM010	Arabella Bouquets | Fields of The World Bouquet of Fresh Cut Flowers in a Free Designer Glass Vase	1	0	1	NextDay	Urias Lopez	325 WHITTIER AVE			DUNELLEN	NJ	08812-1506	US		With love and sympathy, your friends at OfficeNJ. Arthur, Lee, Michelle, Diana, Mario & Lupe From OfficeNJ	false		
114-5366285-9800203	37419335502266	2020-06-25T20:37:03+00:00	2020-06-25T13:37:03-07:00	2020-06-25T20:37:53+00:00	2020-06-27T06:59:59+00:00	-1	w17dcbx37zshd72@marketplace.amazon.com	Degroote	+1 346-307-9643 ext. 96102	ABM010	Arabella Bouquets | Fields of The World Bouquet of Fresh Cut Flowers in a Free Designer Glass Vase	1	0	1	NextDay	Cami Doom	219 HEATHWOOD DR			SPARTANBURG	SC	29307-3728	US		Hi Cami,  Congratulations with your new job!!!  From Jeannot, Gerda, Thijs & Emmely From Belgium	false		
112-7837340-7071456	51902457884274	2020-06-25T23:29:04+00:00	2020-06-25T16:29:04-07:00	2020-06-25T23:29:56+00:00	2020-06-27T06:59:59+00:00	-1	cq3glbbmb1vwf1l@marketplace.amazon.com	Denise Winchell	+1 346-307-9643 ext. 35300	ABM010	Arabella Bouquets | Fields of The World Bouquet of Fresh Cut Flowers in a Free Designer Glass Vase	1	0	1	NextDay	Mr. & Mrs, Steve Castaldo	1340 STROUD CT			TRINITY	FL	34655-4276	US		Landra & Steve, So sorry for your loss! Thinking of you both.  Love ya, Steve, Denise, Brittany & Michele From Denise Winchell	false		
113-1469133-1707418	50507089326866	2020-06-25T23:45:37+00:00	2020-06-25T16:45:37-07:00	2020-06-25T23:49:37+00:00	2020-06-27T06:59:59+00:00	-1	488vrtvmrbvmp91@marketplace.amazon.com	Kevin Mello	+1 210-728-4548 ext. 30377	ABM010	Arabella Bouquets | Fields of The World Bouquet of Fresh Cut Flowers in a Free Designer Glass Vase	1	0	1	NextDay	Jen Mello	155 BRONZE WAY			VISTA	CA	92083-4436	US		Happy Birthday! Love Kevin From Kevin Mello	false		
111-5078845-3916226	10694090611698	2020-06-26T00:00:11+00:00	2020-06-25T17:00:11-07:00	2020-06-26T00:01:06+00:00	2020-06-27T06:59:59+00:00	-1	zlbj11z2kj29g14@marketplace.amazon.com	Stephanie L. Moore	+1 346-307-9643 ext. 39921	ABM002	Purchase Now for Delivery by Monday | Arabella Bouquets Fresh Cut White Calla Lilies in a Free Designer Glass Vase	1	0	1	NextDay	Auntie Tita Femminis	3007 FLORA VIS			ALAMEDA	CA	94502-6817	US		Happy Birthday, Auntie Tita! May God bless you on your special day and always.  Love you a bunch, Steph & Family From Stephanie Moore	false		
112-8290317-0344247	20805577028450	2020-06-26T00:44:55+00:00	2020-06-25T17:44:55-07:00	2020-06-26T00:48:25+00:00	2020-06-27T06:59:59+00:00	-1	gz40jphbd8js5xb@marketplace.amazon.com	yong jia	+1 346-307-9643 ext. 77129	ABM010	Arabella Bouquets | Fields of The World Bouquet of Fresh Cut Flowers in a Free Designer Glass Vase	1	0	1	NextDay	Peter Dean	5127 FLEMING AVE			OAKLAND	CA	94619-3237	US		Dear Ruth Happy belated birthday! From Yong and Yu	false		
112-8568269-8898662	43350522740546	2020-06-26T00:36:18+00:00	2020-06-25T17:36:18-07:00	2020-06-26T00:59:17+00:00	2020-06-30T06:59:59+00:00	-4	lh6bq7mgy34ml16@marketplace.amazon.com	Megan Mulcahy	+1 346-307-9643 ext. 97795	ABM0033	Purchase Now for Delivery by Monday | Arabella Farm Direct Bouquet of Fresh Cut White Hydrangea with a Free Glass Vase	1	0	1	Expedited	The Gage Ladies	135 AMHERST PL NW			ATLANTA	GA	30327-4063	US		We are thinking about you today as you reflect upon the loss of a wonderful man. We are praying over you and hope these flowers bring a touch of peace and joy as we know you will be together, forever, one day. We love you! From Megan & Isaac Perry	false		
112-6082801-7030631	09540283387146	2020-06-26T01:51:29+00:00	2020-06-25T18:51:29-07:00	2020-06-26T01:52:11+00:00	2020-06-27T06:59:59+00:00	-1	sy6l2nb54qk9yql@marketplace.amazon.com	Nuonuo Bossard	+1 314-282-9402 ext. 95097	ABM010	Arabella Bouquets | Fields of The World Bouquet of Fresh Cut Flowers in a Free Designer Glass Vase	1	0	1	NextDay	Sally Bossard	2129 PORTOLA LN			WESTLAKE VILLAGE	CA	91361-1738	US		Happy birthday sorry that it came late  I love you!!! From Patrick Bossard	false		
112-0962039-6903432	32736065556114	2020-06-26T05:25:46+00:00	2020-06-25T22:25:46-07:00	2020-06-26T05:38:05+00:00	2020-06-27T06:59:59+00:00	-1	2z91j7x7wq1b5kd@marketplace.amazon.com	MIGUEL ANGEL CHALI LEON	+1 314-282-9402 ext. 86681	ABM010	Arabella Bouquets | Fields of The World Bouquet of Fresh Cut Flowers in a Free Designer Glass Vase	1	0	1	NextDay	Esperanza Chali	70 HUMES AVE			WORCESTER	MA	01605-1610	US		No hay distancias grandes cuando el corazón está cerca.     Feliz cumpleaños tía Esperanza. De MIGUEL ANGEL CHALI LEON	false		
113-0335475-9455422	31199416536610	2020-06-26T12:13:13+00:00	2020-06-26T05:13:13-07:00	2020-06-26T12:43:51+00:00	2020-07-01T06:59:59+00:00	-5	jqgqn9qh6502ssd@marketplace.amazon.com	edward machado	+1 347-448-3190 ext. 05069	ABM010	Arabella Bouquets | Fields of The World Bouquet of Fresh Cut Flowers in a Free Designer Glass Vase	1	0	1	Expedited	Johann Machado	434 COMMODORE AVE NW			PALM BAY	FL	32907-1719	US			false		
112-5230652-0568267	01046242683802	2020-06-26T13:46:43+00:00	2020-06-26T06:46:43-07:00	2020-06-26T13:48:25+00:00	2020-06-27T06:59:59+00:00	-1	7dr33rbmp66yt70@marketplace.amazon.com	William Gavin Scott	+1 210-728-4548 ext. 59788	ABM010	Arabella Bouquets | Fields of The World Bouquet of Fresh Cut Flowers in a Free Designer Glass Vase	1	0	1	NextDay	Calla Shapiro	8857 MOONLIT MEADOWS LOOP			RIVERVIEW	FL	33578-8836	US		Calla--Congratulations and thank you for all of your hard work over the last four years. It is great to have you as a friend!     Bill Scott From Bill Scott	false		
113-1288327-8941043	51462609517586	2020-06-26T14:58:47+00:00	2020-06-26T07:58:47-07:00	2020-06-26T15:03:21+00:00	2020-06-27T06:59:59+00:00	-1	2ckpj6hy1cdty03@marketplace.amazon.com	Stephen Chouinard	+1 346-307-9643 ext. 42724	ABM010	Arabella Bouquets | Fields of The World Bouquet of Fresh Cut Flowers in a Free Designer Glass Vase	1	0	1	NextDay	Star Edington	1325 ACUFF LN			CONWAY	AR	72034-8900	US		From sissy with all my love because I'm so proud of you and all your hard work. From Sissy	false		
112-6911565-0217001	18787905315634	2020-06-26T16:01:37+00:00	2020-06-26T09:01:37-07:00	2020-06-26T16:10:30+00:00	2020-06-27T06:59:59+00:00	-1	nr0y1q5zkkcs4ln@marketplace.amazon.com	Gilda Rastegar	+1 346-307-9643 ext. 59796	ABM0033	Purchase Now for Delivery by Monday | Arabella Farm Direct Bouquet of Fresh Cut White Hydrangea with a Free Glass Vase	1	0	1	NextDay	Charlotte Todd	1805 BRANTLEY ST			WINSTON SALEM	NC	27103-3709	US		Yay, it's official! Congratulations, newlyweds. Wishing you a lifetime of love and happiness. From Gilda Rastegar	false		
111-8702737-8995460	50158576798570	2020-06-26T17:10:12+00:00	2020-06-26T10:10:12-07:00	2020-06-26T17:36:56+00:00	2020-07-01T06:59:59+00:00	-5	jmkhpmzkcj3hj2m@marketplace.amazon.com	Stu	+1 346-307-9643 ext. 11517	ABM010	Arabella Bouquets | Fields of The World Bouquet of Fresh Cut Flowers in a Free Designer Glass Vase	1	0	1	Expedited	Ashley & The Rest of the EDVC Team	8541 FERGUSON RD DALLAS			DALLAS	TX	75228-5343	US		Ashley & Team - Thanks so much for all of the help, compassion and care you gave our family when we had to put Cody down last week. Thank you! From Stu, Whitney, Walter & Karma Hill	false		
111-7865210-7671423	07495553777610	2020-06-26T17:45:02+00:00	2020-06-26T10:45:02-07:00	2020-06-26T17:57:49+00:00	2020-07-01T06:59:59+00:00	-5	f1fwsyhl3zfd90d@marketplace.amazon.com	adlai p. evans	+1 210-728-4548 ext. 85421	ABM010	Arabella Bouquets | Fields of The World Bouquet of Fresh Cut Flowers in a Free Designer Glass Vase	1	0	1	Expedited	Lisa Tyler And Staff	2124 OLD HIGHWAY 61 S			PORT GIBSON	MS	39150-2589	US		Hello Lisa and Staff- Thank you all for the care and love you have gave to Lola Evans. Monique Evans and Adlai Evans	false		
111-1970693-7810608	08484581082170	2020-06-26T17:56:26+00:00	2020-06-26T10:56:26-07:00	2020-06-26T18:29:34+00:00	2020-07-01T06:59:59+00:00	-5	6lwg1d3wmls74v1@marketplace.amazon.com	Kristina P. Cheng	+1 346-307-9643 ext. 88859	ABR0022	Purchase Now for Delivery by Tuesday | Arabella Farm Direct Bouquet of 12 Fresh Cut Pink Roses with a Free Glass Vase	1	0	1	Expedited	Venerable Elly Van Der Pas	403 W FINNIE FLAT RD # 3508			CAMP VERDE	AZ	86322-5446	US			false		
112-6099089-2873820	23313482676850	2020-06-26T19:04:17+00:00	2020-06-26T12:04:17-07:00	2020-06-26T19:06:17+00:00	2020-06-30T06:59:59+00:00	-4	zdr17527lwljfc5@marketplace.amazon.com	MICHIKO RIGDON	+1 314-282-9402 ext. 74064	ABR012	Purchase Now for Delivery by Tuesday | Arabella Farm Direct Bouquet of 18 Fresh Cut Pink Roses with a Free Glass Vase	1	0	1	NextDay	Leanna Rigdon	4020 MOUNT OLIVE ST			SAINT LOUIS	MO	63125-1308	US		Happy Birthday!!  We wish you have a wonderful day! Stay safe and healthy.  From Tony, Michiko & Tim	false		
114-5278406-7837050	21976172411978	2020-06-26T19:09:48+00:00	2020-06-26T12:09:48-07:00	2020-06-26T19:15:06+00:00	2020-06-30T06:59:59+00:00	-4	0xln6022s25zw7m@marketplace.amazon.com	Tiffany	+1 346-307-9643 ext. 68429	ABR0022	Purchase Now for Delivery by Tuesday | Arabella Farm Direct Bouquet of 12 Fresh Cut Pink Roses with a Free Glass Vase	1	0	1	NextDay	Angela Miles-Marshall	36 BIRCH ST			LEOMINSTER	MA	01453-2510	US			false		
114-0809295-2693020	42538835681202	2020-06-26T19:24:08+00:00	2020-06-26T12:24:08-07:00	2020-06-26T19:27:47+00:00	2020-06-30T06:59:59+00:00	-4	zkfqb72l4m72ct9@marketplace.amazon.com	Susan Fox	+1 314-282-9402 ext. 51122	ABR0022	Purchase Now for Delivery by Tuesday | Arabella Farm Direct Bouquet of 12 Fresh Cut Pink Roses with a Free Glass Vase	1	0	1	NextDay	Elissa Freud	22 DONNELL ST			CAMBRIDGE	MA	02138-1352	US		Feel Better! We love you! From Sue & T	false		
112-9314216-6145859	54459699141106	2020-06-26T19:29:21+00:00	2020-06-26T12:29:21-07:00	2020-06-26T19:34:43+00:00	2020-06-30T06:59:59+00:00	-4	d6f0stwxjtlq7bn@marketplace.amazon.com	Susan J. Coulter	+1 346-307-9643 ext. 09347	ABR0033	Purchase Now for Delivery by Tuesday | Arabella Farm Direct Bouquet of 12 Fresh Cut Orange Roses with a Free Glass Vase	1	0	1	NextDay	Grace Coulter	620 VALLEY VIEW DR			ONEIDA	NY	13421-1823	US			false		
114-4104992-3183410	53387014253570	2020-06-26T19:41:26+00:00	2020-06-26T12:41:26-07:00	2020-06-26T19:42:16+00:00	2020-06-30T06:59:59+00:00	-4	5jrg5j52h9bhbfh@marketplace.amazon.com	Eduardo Callender	+1 346-307-9643 ext. 77305	ABM010	Arabella Bouquets | Fields of The World Bouquet of Fresh Cut Flowers in a Free Designer Glass Vase	1	0	1	NextDay	Sally Parker	7835 CORTE CASTILLO			RIVERSIDE	CA	92509-5235	US			false		
112-8195413-1528238	04758770020834	2020-06-26T19:40:34+00:00	2020-06-26T12:40:34-07:00	2020-06-26T20:00:23+00:00	2020-06-30T06:59:59+00:00	-4	25tt59f6yflhqz5@marketplace.amazon.com	Tamera M Connolly	+1 346-307-9643 ext. 43395	ABR0033	Purchase Now for Delivery by Tuesday | Arabella Farm Direct Bouquet of 12 Fresh Cut Orange Roses with a Free Glass Vase	1	0	1	NextDay	Eva Sharma	8205 GALLERY CT			MONTGOMERY VILLAGE	MD	20886-5618	US			false		
113-8211974-0138629	66823763385698	2020-06-26T20:02:45+00:00	2020-06-26T13:02:45-07:00	2020-06-26T20:03:47+00:00	2020-06-30T06:59:59+00:00	-4	z1mgcf8v7ppznq7@marketplace.amazon.com	gary edelman	+1 346-307-9643 ext. 51536	ABR0022	Purchase Now for Delivery by Tuesday | Arabella Farm Direct Bouquet of 12 Fresh Cut Pink Roses with a Free Glass Vase	1	0	1	NextDay	CHERI GERSON	684 SUTTON CREST TRL UNIT 106			OAK PARK	CA	91377-5660	US		GARY LOVES YOU!   XOXO From G-MAN	false		
113-8473723-8721040	01062659828314	2020-06-26T20:28:32+00:00	2020-06-26T13:28:32-07:00	2020-06-26T20:29:26+00:00	2020-06-30T06:59:59+00:00	-4	zx3sdt8b19vm22c@marketplace.amazon.com	Kimberly Caliendo	+1 346-307-9643 ext. 38927	ABM010	Arabella Bouquets | Fields of The World Bouquet of Fresh Cut Flowers in a Free Designer Glass Vase	1	0	1	NextDay	Doreen Steingraber	512 E MARIA LN			TEMPE	AZ	85284-5002	US		Happy 60th Birthday Doreen! When it is safe, we'll get together. Love, John & Kim From Kimberly Caliendo	false		
112-6424135-3544255	06793949026282	2020-06-26T20:39:40+00:00	2020-06-26T13:39:40-07:00	2020-06-26T20:40:38+00:00	2020-06-30T06:59:59+00:00	-4	mm4gsbxgfrm5n6d@marketplace.amazon.com	Charlotte Newman	+1 346-307-9643 ext. 02891	ABR0022	Purchase Now for Delivery by Tuesday | Arabella Farm Direct Bouquet of 12 Fresh Cut Pink Roses with a Free Glass Vase	1	0	1	NextDay	Eileen Newman	6258 COTTAGE ST			PHILADELPHIA	PA	19135-3214	US		Happy Birthday Eileen.   Love you Char From Charlotte Newman	false		
114-1775197-6801819	11029258853986	2020-06-26T20:39:56+00:00	2020-06-26T13:39:56-07:00	2020-06-26T20:42:40+00:00	2020-06-30T06:59:59+00:00	-4	n46645v3kcsxpxf@marketplace.amazon.com	stefan monecke	+1 314-282-9402 ext. 20160	ABR013	Arabella Farm Direct Bouquet of 18 Fresh Cut Yellow Roses with a Free Glass Vase	1	0	1	NextDay	Thomas Monecke & Susann Stolze	18711 W 4TH AVE			GOLDEN	CO	80401-4850	US		Hi Susi und Thomi, Gratulation zum (deutschen) Hochzeitstag und Alles Gute !  Mama, Papa & Stefan	false		
