order-id	order-item-id	purchase-date	payments-date	reporting-date	promise-date	days-past-promise	buyer-email	buyer-name	buyer-phone-number	sku	product-name	quantity-purchased	quantity-shipped	quantity-to-ship	ship-service-level	recipient-name	ship-address-1	ship-address-2	ship-address-3	ship-city	ship-state	ship-postal-code	ship-country	gift-wrap-type	gift-message-text	is-business-order	purchase-order-number	price-designation
111-1970693-7810608	08484581082170	2020-06-26T17:56:26+00:00	2020-06-26T10:56:26-07:00	2020-06-26T18:29:34+00:00	2020-07-01T06:59:59+00:00	-5	6lwg1d3wmls74v1@marketplace.amazon.com	Kristina P. Cheng	+1 346-307-9643 ext. 88859	ABR0022	Purchase Now for Delivery by Tuesday | Arabella Farm Direct Bouquet of 12 Fresh Cut Pink Roses with a Free Glass Vase	1	0	1	Expedited	Venerable Elly Van Der Pas	403 W FINNIE FLAT RD # 3508			CAMP VERDE	AZ	86322-5446	US			false		
112-6099089-2873820	23313482676850	2020-06-26T19:04:17+00:00	2020-06-26T12:04:17-07:00	2020-06-26T19:06:17+00:00	2020-06-30T06:59:59+00:00	-4	zdr17527lwljfc5@marketplace.amazon.com	MICHIKO RIGDON	+1 314-282-9402 ext. 74064	ABR012	Purchase Now for Delivery by Tuesday | Arabella Farm Direct Bouquet of 18 Fresh Cut Pink Roses with a Free Glass Vase	1	0	1	NextDay	Leanna Rigdon	4020 MOUNT OLIVE ST			SAINT LOUIS	MO	63125-1308	US		Happy Birthday!!  We wish you have a wonderful day! Stay safe and healthy.  From Tony, Michiko & Tim	false		
114-5278406-7837050	21976172411978	2020-06-26T19:09:48+00:00	2020-06-26T12:09:48-07:00	2020-06-26T19:15:06+00:00	2020-06-30T06:59:59+00:00	-4	0xln6022s25zw7m@marketplace.amazon.com	Tiffany	+1 346-307-9643 ext. 68429	ABR0022	Purchase Now for Delivery by Tuesday | Arabella Farm Direct Bouquet of 12 Fresh Cut Pink Roses with a Free Glass Vase	1	0	1	NextDay	Angela Miles-Marshall	36 BIRCH ST			LEOMINSTER	MA	01453-2510	US			false		
114-0809295-2693020	42538835681202	2020-06-26T19:24:08+00:00	2020-06-26T12:24:08-07:00	2020-06-26T19:27:47+00:00	2020-06-30T06:59:59+00:00	-4	zkfqb72l4m72ct9@marketplace.amazon.com	Susan Fox	+1 314-282-9402 ext. 51122	ABR0022	Purchase Now for Delivery by Tuesday | Arabella Farm Direct Bouquet of 12 Fresh Cut Pink Roses with a Free Glass Vase	1	0	1	NextDay	Elissa Freud	22 DONNELL ST			CAMBRIDGE	MA	02138-1352	US		Feel Better! We love you! From Sue & T	false		
112-9314216-6145859	54459699141106	2020-06-26T19:29:21+00:00	2020-06-26T12:29:21-07:00	2020-06-26T19:34:43+00:00	2020-06-30T06:59:59+00:00	-4	d6f0stwxjtlq7bn@marketplace.amazon.com	Susan J. Coulter	+1 346-307-9643 ext. 09347	ABR0033	Purchase Now for Delivery by Tuesday | Arabella Farm Direct Bouquet of 12 Fresh Cut Orange Roses with a Free Glass Vase	1	0	1	NextDay	Grace Coulter	620 VALLEY VIEW DR			ONEIDA	NY	13421-1823	US			false		
114-4104992-3183410	53387014253570	2020-06-26T19:41:26+00:00	2020-06-26T12:41:26-07:00	2020-06-26T19:42:16+00:00	2020-06-30T06:59:59+00:00	-4	5jrg5j52h9bhbfh@marketplace.amazon.com	Eduardo Callender	+1 346-307-9643 ext. 77305	ABM010	Arabella Bouquets | Fields of The World Bouquet of Fresh Cut Flowers in a Free Designer Glass Vase	1	0	1	NextDay	Sally Parker	7835 CORTE CASTILLO			RIVERSIDE	CA	92509-5235	US			false		
112-8195413-1528238	04758770020834	2020-06-26T19:40:34+00:00	2020-06-26T12:40:34-07:00	2020-06-26T20:00:23+00:00	2020-06-30T06:59:59+00:00	-4	25tt59f6yflhqz5@marketplace.amazon.com	Tamera M Connolly	+1 346-307-9643 ext. 43395	ABR0033	Purchase Now for Delivery by Tuesday | Arabella Farm Direct Bouquet of 12 Fresh Cut Orange Roses with a Free Glass Vase	1	0	1	NextDay	Eva Sharma	8205 GALLERY CT			MONTGOMERY VILLAGE	MD	20886-5618	US			false		
113-8211974-0138629	66823763385698	2020-06-26T20:02:45+00:00	2020-06-26T13:02:45-07:00	2020-06-26T20:03:47+00:00	2020-06-30T06:59:59+00:00	-4	z1mgcf8v7ppznq7@marketplace.amazon.com	gary edelman	+1 346-307-9643 ext. 51536	ABR0022	Purchase Now for Delivery by Tuesday | Arabella Farm Direct Bouquet of 12 Fresh Cut Pink Roses with a Free Glass Vase	1	0	1	NextDay	CHERI GERSON	684 SUTTON CREST TRL UNIT 106			OAK PARK	CA	91377-5660	US		GARY LOVES YOU!   XOXO From G-MAN	false		
113-8473723-8721040	01062659828314	2020-06-26T20:28:32+00:00	2020-06-26T13:28:32-07:00	2020-06-26T20:29:26+00:00	2020-06-30T06:59:59+00:00	-4	zx3sdt8b19vm22c@marketplace.amazon.com	Kimberly Caliendo	+1 346-307-9643 ext. 38927	ABM010	Arabella Bouquets | Fields of The World Bouquet of Fresh Cut Flowers in a Free Designer Glass Vase	1	0	1	NextDay	Doreen Steingraber	512 E MARIA LN			TEMPE	AZ	85284-5002	US		Happy 60th Birthday Doreen! When it is safe, we'll get together. Love, John & Kim From Kimberly Caliendo	false		
112-6424135-3544255	06793949026282	2020-06-26T20:39:40+00:00	2020-06-26T13:39:40-07:00	2020-06-26T20:40:38+00:00	2020-06-30T06:59:59+00:00	-4	mm4gsbxgfrm5n6d@marketplace.amazon.com	Charlotte Newman	+1 346-307-9643 ext. 02891	ABR0022	Purchase Now for Delivery by Tuesday | Arabella Farm Direct Bouquet of 12 Fresh Cut Pink Roses with a Free Glass Vase	1	0	1	NextDay	Eileen Newman	6258 COTTAGE ST			PHILADELPHIA	PA	19135-3214	US		Happy Birthday Eileen.   Love you Char From Charlotte Newman	false		
114-1775197-6801819	11029258853986	2020-06-26T20:39:56+00:00	2020-06-26T13:39:56-07:00	2020-06-26T20:42:40+00:00	2020-06-30T06:59:59+00:00	-4	n46645v3kcsxpxf@marketplace.amazon.com	stefan monecke	+1 314-282-9402 ext. 20160	ABR013	Arabella Farm Direct Bouquet of 18 Fresh Cut Yellow Roses with a Free Glass Vase	1	0	1	NextDay	Thomas Monecke & Susann Stolze	18711 W 4TH AVE			GOLDEN	CO	80401-4850	US		Hi Susi und Thomi, Gratulation zum (deutschen) Hochzeitstag und Alles Gute !  Mama, Papa & Stefan	false		
113-3095169-9600231	40525982180498	2020-06-26T21:09:04+00:00	2020-06-26T14:09:04-07:00	2020-06-26T21:12:03+00:00	2020-06-30T06:59:59+00:00	-4	rnz765vldk4hnpt@marketplace.amazon.com	Deborah Rousseve	+1 347-448-3190 ext. 86184	ABR0022	Purchase Now for Delivery by Tuesday | Arabella Farm Direct Bouquet of 12 Fresh Cut Pink Roses with a Free Glass Vase	1	0	1	NextDay	ERIN KISSINGER	30766 DESERT EAGLE WAY			MENIFEE	CA	92584-8340	US		HAPPY BIRTHDAY my sweet Erin I love you very much 💗💗💗💗 From Mom	false		
114-7461300-3699406	63368402210346	2020-06-26T21:24:52+00:00	2020-06-26T14:24:52-07:00	2020-06-26T21:29:48+00:00	2020-06-30T06:59:59+00:00	-4	y2nm73cm1zl5syb@marketplace.amazon.com	kizzy hughes	+1 347-448-3190 ext. 93844	ABR0022	Purchase Now for Delivery by Tuesday | Arabella Farm Direct Bouquet of 12 Fresh Cut Pink Roses with a Free Glass Vase	1	0	1	NextDay	Elke Foster	7718 Burdell Dr			Columbia	South Carolina	29209	US			false		
113-7160554-3173009	25502959964218	2020-06-26T22:00:35+00:00	2020-06-26T15:00:35-07:00	2020-06-26T22:03:29+00:00	2020-06-30T06:59:59+00:00	-4	kcw5hl8mvkc3qks@marketplace.amazon.com	Nora Agatstein	+1 346-307-9643 ext. 19255	ABR012	Purchase Now for Delivery by Tuesday | Arabella Farm Direct Bouquet of 18 Fresh Cut Pink Roses with a Free Glass Vase	1	0	1	NextDay	Marcy Brennan	83 STONEGATE DR			STATEN ISLAND	NY	10304-4454	US		Dearest Marcy,  We all love you so very much!!  Love the Skunk Sisters and Junior Skunks 💕❤️ From Nora Agatstein	false		
