order-id	order-item-id	purchase-date	payments-date	reporting-date	promise-date	days-past-promise	buyer-email	buyer-name	buyer-phone-number	sku	product-name	quantity-purchased	quantity-shipped	quantity-to-ship	ship-service-level	recipient-name	ship-address-1	ship-address-2	ship-address-3	ship-city	ship-state	ship-postal-code	ship-country	gift-wrap-type	gift-message-text	is-business-order	purchase-order-number	price-designation
111-1970693-7810608	08484581082170	2020-06-26T17:56:26+00:00	2020-06-26T10:56:26-07:00	2020-06-26T18:29:34+00:00	2020-07-01T06:59:59+00:00	-4	6lwg1d3wmls74v1@marketplace.amazon.com	Kristina P. Cheng	+1 346-307-9643 ext. 88859	ABR0022	Purchase Now for Delivery by Tuesday | Arabella Farm Direct Bouquet of 12 Fresh Cut Pink Roses with a Free Glass Vase	1	0	1	Expedited	Venerable Elly Van Der Pas	403 W FINNIE FLAT RD # 3508			CAMP VERDE	AZ	86322-5446	US			false		
112-6099089-2873820	23313482676850	2020-06-26T19:04:17+00:00	2020-06-26T12:04:17-07:00	2020-06-26T19:06:17+00:00	2020-06-30T06:59:59+00:00	-3	zdr17527lwljfc5@marketplace.amazon.com	MICHIKO RIGDON	+1 314-282-9402 ext. 74064	ABR012	Purchase Now for Delivery by Tuesday | Arabella Farm Direct Bouquet of 18 Fresh Cut Pink Roses with a Free Glass Vase	1	0	1	NextDay	Leanna Rigdon	4020 MOUNT OLIVE ST			SAINT LOUIS	MO	63125-1308	US		Happy Birthday!!  We wish you have a wonderful day! Stay safe and healthy.  From Tony, Michiko & Tim	false		
114-5278406-7837050	21976172411978	2020-06-26T19:09:48+00:00	2020-06-26T12:09:48-07:00	2020-06-26T19:15:06+00:00	2020-06-30T06:59:59+00:00	-3	0xln6022s25zw7m@marketplace.amazon.com	Tiffany	+1 346-307-9643 ext. 68429	ABR0022	Purchase Now for Delivery by Tuesday | Arabella Farm Direct Bouquet of 12 Fresh Cut Pink Roses with a Free Glass Vase	1	0	1	NextDay	Angela Miles-Marshall	36 BIRCH ST			LEOMINSTER	MA	01453-2510	US			false		
114-0809295-2693020	42538835681202	2020-06-26T19:24:08+00:00	2020-06-26T12:24:08-07:00	2020-06-26T19:27:47+00:00	2020-06-30T06:59:59+00:00	-3	zkfqb72l4m72ct9@marketplace.amazon.com	Susan Fox	+1 314-282-9402 ext. 51122	ABR0022	Purchase Now for Delivery by Tuesday | Arabella Farm Direct Bouquet of 12 Fresh Cut Pink Roses with a Free Glass Vase	1	0	1	NextDay	Elissa Freud	22 DONNELL ST			CAMBRIDGE	MA	02138-1352	US		Feel Better! We love you! From Sue & T	false		
112-9314216-6145859	54459699141106	2020-06-26T19:29:21+00:00	2020-06-26T12:29:21-07:00	2020-06-26T19:34:43+00:00	2020-06-30T06:59:59+00:00	-3	d6f0stwxjtlq7bn@marketplace.amazon.com	Susan J. Coulter	+1 346-307-9643 ext. 09347	ABR0033	Purchase Now for Delivery by Tuesday | Arabella Farm Direct Bouquet of 12 Fresh Cut Orange Roses with a Free Glass Vase	1	0	1	NextDay	Grace Coulter	620 VALLEY VIEW DR			ONEIDA	NY	13421-1823	US			false		
114-4104992-3183410	53387014253570	2020-06-26T19:41:26+00:00	2020-06-26T12:41:26-07:00	2020-06-26T19:42:16+00:00	2020-06-30T06:59:59+00:00	-3	5jrg5j52h9bhbfh@marketplace.amazon.com	Eduardo Callender	+1 346-307-9643 ext. 77305	ABM010	Arabella Bouquets | Fields of The World Bouquet of Fresh Cut Flowers in a Free Designer Glass Vase	1	0	1	NextDay	Sally Parker	7835 CORTE CASTILLO			RIVERSIDE	CA	92509-5235	US			false		
112-8195413-1528238	04758770020834	2020-06-26T19:40:34+00:00	2020-06-26T12:40:34-07:00	2020-06-26T20:00:23+00:00	2020-06-30T06:59:59+00:00	-3	25tt59f6yflhqz5@marketplace.amazon.com	Tamera M Connolly	+1 346-307-9643 ext. 43395	ABR0033	Purchase Now for Delivery by Tuesday | Arabella Farm Direct Bouquet of 12 Fresh Cut Orange Roses with a Free Glass Vase	1	0	1	NextDay	Eva Sharma	8205 GALLERY CT			MONTGOMERY VILLAGE	MD	20886-5618	US			false		
113-8211974-0138629	66823763385698	2020-06-26T20:02:45+00:00	2020-06-26T13:02:45-07:00	2020-06-26T20:03:47+00:00	2020-06-30T06:59:59+00:00	-3	z1mgcf8v7ppznq7@marketplace.amazon.com	gary edelman	+1 346-307-9643 ext. 51536	ABR0022	Purchase Now for Delivery by Tuesday | Arabella Farm Direct Bouquet of 12 Fresh Cut Pink Roses with a Free Glass Vase	1	0	1	NextDay	CHERI GERSON	684 SUTTON CREST TRL UNIT 106			OAK PARK	CA	91377-5660	US		GARY LOVES YOU!   XOXO From G-MAN	false		
113-8473723-8721040	01062659828314	2020-06-26T20:28:32+00:00	2020-06-26T13:28:32-07:00	2020-06-26T20:29:26+00:00	2020-06-30T06:59:59+00:00	-3	zx3sdt8b19vm22c@marketplace.amazon.com	Kimberly Caliendo	+1 346-307-9643 ext. 38927	ABM010	Arabella Bouquets | Fields of The World Bouquet of Fresh Cut Flowers in a Free Designer Glass Vase	1	0	1	NextDay	Doreen Steingraber	512 E MARIA LN			TEMPE	AZ	85284-5002	US		Happy 60th Birthday Doreen! When it is safe, we'll get together. Love, John & Kim From Kimberly Caliendo	false		
112-6424135-3544255	06793949026282	2020-06-26T20:39:40+00:00	2020-06-26T13:39:40-07:00	2020-06-26T20:40:38+00:00	2020-06-30T06:59:59+00:00	-3	mm4gsbxgfrm5n6d@marketplace.amazon.com	Charlotte Newman	+1 346-307-9643 ext. 02891	ABR0022	Purchase Now for Delivery by Tuesday | Arabella Farm Direct Bouquet of 12 Fresh Cut Pink Roses with a Free Glass Vase	1	0	1	NextDay	Eileen Newman	6258 COTTAGE ST			PHILADELPHIA	PA	19135-3214	US		Happy Birthday Eileen.   Love you Char From Charlotte Newman	false		
114-1775197-6801819	11029258853986	2020-06-26T20:39:56+00:00	2020-06-26T13:39:56-07:00	2020-06-26T20:42:40+00:00	2020-06-30T06:59:59+00:00	-3	n46645v3kcsxpxf@marketplace.amazon.com	stefan monecke	+1 314-282-9402 ext. 20160	ABR013	Arabella Farm Direct Bouquet of 18 Fresh Cut Yellow Roses with a Free Glass Vase	1	0	1	NextDay	Thomas Monecke & Susann Stolze	18711 W 4TH AVE			GOLDEN	CO	80401-4850	US		Hi Susi und Thomi, Gratulation zum (deutschen) Hochzeitstag und Alles Gute !  Mama, Papa & Stefan	false		
113-3095169-9600231	40525982180498	2020-06-26T21:09:04+00:00	2020-06-26T14:09:04-07:00	2020-06-26T21:12:03+00:00	2020-06-30T06:59:59+00:00	-3	rnz765vldk4hnpt@marketplace.amazon.com	Deborah Rousseve	+1 347-448-3190 ext. 86184	ABR0022	Purchase Now for Delivery by Tuesday | Arabella Farm Direct Bouquet of 12 Fresh Cut Pink Roses with a Free Glass Vase	1	0	1	NextDay	ERIN KISSINGER	30766 DESERT EAGLE WAY			MENIFEE	CA	92584-8340	US		HAPPY BIRTHDAY my sweet Erin I love you very much 💗💗💗💗 From Mom	false		
114-7461300-3699406	63368402210346	2020-06-26T21:24:52+00:00	2020-06-26T14:24:52-07:00	2020-06-26T21:29:48+00:00	2020-06-30T06:59:59+00:00	-3	y2nm73cm1zl5syb@marketplace.amazon.com	kizzy hughes	+1 347-448-3190 ext. 93844	ABR0022	Purchase Now for Delivery by Tuesday | Arabella Farm Direct Bouquet of 12 Fresh Cut Pink Roses with a Free Glass Vase	1	0	1	NextDay	Elke Foster	7718 Burdell Dr			Columbia	South Carolina	29209	US			false		
113-7160554-3173009	25502959964218	2020-06-26T22:00:35+00:00	2020-06-26T15:00:35-07:00	2020-06-26T22:03:29+00:00	2020-06-30T06:59:59+00:00	-3	kcw5hl8mvkc3qks@marketplace.amazon.com	Nora Agatstein	+1 346-307-9643 ext. 19255	ABR012	Purchase Now for Delivery by Tuesday | Arabella Farm Direct Bouquet of 18 Fresh Cut Pink Roses with a Free Glass Vase	1	0	1	NextDay	Marcy Brennan	83 STONEGATE DR			STATEN ISLAND	NY	10304-4454	US		Dearest Marcy,  We all love you so very much!!  Love the Skunk Sisters and Junior Skunks 💕❤️ From Nora Agatstein	false		
111-6818420-4241032	16353211015946	2020-06-26T22:53:27+00:00	2020-06-26T15:53:27-07:00	2020-06-26T22:54:20+00:00	2020-06-30T06:59:59+00:00	-3	mh01jtld0zk49mw@marketplace.amazon.com	Sandra	+1 210-728-4548 ext. 61644	ABR0022	Purchase Now for Delivery by Tuesday | Arabella Farm Direct Bouquet of 12 Fresh Cut Pink Roses with a Free Glass Vase	1	0	1	NextDay	Barbara Smith	623 LAWSON DR			TROY	AL	36081-3852	US		Dear Barb, So glad to hear your surgery went well and you are home and on your way to full recovery. Enjoy your gift! Love, Sandy and Don From Sandy Noon	false		
111-1552690-0338657	61145417588946	2020-06-26T22:54:02+00:00	2020-06-26T15:54:02-07:00	2020-06-26T22:57:06+00:00	2020-06-30T06:59:59+00:00	-3	z6h55ysl2smbnnw@marketplace.amazon.com	dotettelson	+1 346-307-9643 ext. 49613	ABM010	Arabella Bouquets | Fields of The World Bouquet of Fresh Cut Flowers in a Free Designer Glass Vase	1	0	1	NextDay	Dorothy Webb	1 EMERSON DR	CAMBRIDGE WEST KIMBERLY HALL NORTH RM 83		WINDSOR	CT	06095-3204	US		Enjoy the flowers. Happy Birthday Mom From Love, Dot & Jimmy	false		
113-7988573-5615403	11744593927498	2020-06-26T23:07:38+00:00	2020-06-26T16:07:38-07:00	2020-06-26T23:12:14+00:00	2020-06-30T06:59:59+00:00	-3	lfm2h3vhgnbmkxj@marketplace.amazon.com	Nancy	+1 346-307-9643 ext. 22687	ABR0022	Purchase Now for Delivery by Tuesday | Arabella Farm Direct Bouquet of 12 Fresh Cut Pink Roses with a Free Glass Vase	1	0	1	NextDay	Kaitlyn Shaw	12110 LONGVIEW LAKE CIR			LAKEWOOD RANCH	FL	34211-4964	US			false		
114-1161211-9405847	54537507514002	2020-06-26T22:55:54+00:00	2020-06-26T15:55:54-07:00	2020-06-26T23:18:59+00:00	2020-07-01T06:59:59+00:00	-4	vkdklrbblspyl0l@marketplace.amazon.com	william	+1 346-307-9643 ext. 80790	ABR001	Purchase Now for Delivery by Tuesday | Arabella Bouquets 12 Stems of Fresh Cut Red Roses in a Free Designer Glass Vase	1	0	1	Expedited	Zella Nelson	3466 E BRETON LN	COTTONWOOD HEIGHTS UT APT		SANDY	UT	84093-1253	US		Hi Zella,  The wind whispers your name, stars illuminate my way to you ,we will meet soon, I love you   William Ceasar	false		
111-5146930-8549844	47462233185346	2020-06-26T23:36:32+00:00	2020-06-26T16:36:32-07:00	2020-06-26T23:37:28+00:00	2020-06-30T06:59:59+00:00	-3	7sbfm9s0pt24660@marketplace.amazon.com	Hubert exume	+1 346-307-9643 ext. 33561	ABR0022	Purchase Now for Delivery by Tuesday | Arabella Farm Direct Bouquet of 12 Fresh Cut Pink Roses with a Free Glass Vase	1	0	1	NextDay	Pamala Monroe	5116 HERNANDES DR			ORLANDO	FL	32808-5547	US		HAPPY BIRTHDAY!  Enjoy your party. I wish I could have been there. ❤❤❤ From Ernest	false		
112-1922389-6792203	68076966549554	2020-06-26T23:42:00+00:00	2020-06-26T16:42:00-07:00	2020-06-26T23:43:33+00:00	2020-06-30T06:59:59+00:00	-3	50ml0x6ppxxr815@marketplace.amazon.com	Shanna	+1 346-307-9643 ext. 79874	ABM010	Arabella Bouquets | Fields of The World Bouquet of Fresh Cut Flowers in a Free Designer Glass Vase	1	0	1	NextDay	Mr. & Mrs. Smith	10 SACHEM ST			PAWTUCKET	RI	02861-1238	US		Thank you for taking care of Tom when he was sick and being the best neighbors! From Shanna, Tom, & Evan	false		
112-3719183-5189805	53032806552146	2020-06-26T23:58:10+00:00	2020-06-26T16:58:10-07:00	2020-06-26T23:59:33+00:00	2020-06-30T06:59:59+00:00	-3	62m7p2yd5yj93bs@marketplace.amazon.com	Susan M. Marzetta	+1 314-282-9402 ext. 79409	ABR0055	Purchase Now for Delivery by Tuesday | Arabella Farm Direct Bouquet of 12 Stems of Fresh Cut Hot Pink Roses in a Free Designer Glass Vase	1	0	1	NextDay	Barbara Marzetta	5439 42ND ST NW			WASHINGTON	DC	20015-2960	US		Happy Birthday, Barbie! With much love, From Susan M. Marzetta	false		
111-6370843-5118606	32280283755034	2020-06-27T00:03:28+00:00	2020-06-26T17:03:28-07:00	2020-06-27T00:07:49+00:00	2020-06-30T06:59:59+00:00	-3	y9whzq4kv57mqz5@marketplace.amazon.com	Michele Williams	+1 347-448-3190 ext. 49353	ABR0055	Purchase Now for Delivery by Tuesday | Arabella Farm Direct Bouquet of 12 Stems of Fresh Cut Hot Pink Roses in a Free Designer Glass Vase	1	0	1	NextDay	Mary Roberge	20 STEELE RD			BRADFORD	NH	03221-3314	US		We love you mom. You kids. From Michele And the boys.	false		
111-4446412-0201809	47505140216098	2020-06-27T00:57:14+00:00	2020-06-26T17:57:14-07:00	2020-06-27T01:02:05+00:00	2020-06-30T06:59:59+00:00	-3	jbhxn82xgsskcsk@marketplace.amazon.com	David Wetmore	+1 314-282-9402 ext. 23129	ABR0022	Purchase Now for Delivery by Tuesday | Arabella Farm Direct Bouquet of 12 Fresh Cut Pink Roses with a Free Glass Vase	1	0	1	NextDay	David Wetmore	1973 WOODBRIDGE DR			PENSACOLA	FL	32514-5421	US		Happy Birthday!!! From Homeless Henry	false		
112-0083451-9957079	13646885537586	2020-06-27T02:18:06+00:00	2020-06-26T19:18:06-07:00	2020-06-27T02:22:18+00:00	2020-06-30T06:59:59+00:00	-3	n6pw0zz07z2lx8y@marketplace.amazon.com	Molly	+1 210-728-4548 ext. 60212	ABR0022	Purchase Now for Delivery by Tuesday | Arabella Farm Direct Bouquet of 12 Fresh Cut Pink Roses with a Free Glass Vase	1	0	1	NextDay	Jan Chlebek	12858 153RD CT N			JUPITER	FL	33478-6612	US		Fell better soon Oma! Love you From Layla and Lucas	false		
112-3721393-6944210	04582690412026	2020-06-27T02:35:49+00:00	2020-06-26T19:35:49-07:00	2020-06-27T02:41:12+00:00	2020-06-30T06:59:59+00:00	-3	m89l4t5w2ly9cyj@marketplace.amazon.com	CCWalz	+1 346-307-9643 ext. 61158	ABR004	Arabella Farm Direct Bouquet of 12 Fresh Cut Yellow Roses with a Free Glass Vase	1	0	1	NextDay	Candace Eastern Walz	12404 N PORTLAND AVE			MEQUON	WI	53092-2631	US			false		
114-1503166-9597009	01246723748906	2020-06-27T02:47:00+00:00	2020-06-26T19:47:00-07:00	2020-06-27T02:50:42+00:00	2020-06-30T06:59:59+00:00	-3	mcgq0rqrn0wh3gp@marketplace.amazon.com	leah mize	+1 346-307-9643 ext. 82622	ABM010	Arabella Bouquets | Fields of The World Bouquet of Fresh Cut Flowers in a Free Designer Glass Vase	1	0	1	NextDay	samaneh khazraeian	888 S DOUGLAS RD PH06			CORAL GABLES	FL	33134-7510	US		Happy birthday Sama! Enjoy! Love Leah, Macy n Slate From leah mize	false		
112-9055060-0496252	44803945830426	2020-06-27T03:17:05+00:00	2020-06-26T20:17:05-07:00	2020-06-27T03:47:45+00:00	2020-07-01T06:59:59+00:00	-4	2mnf1w7fqqpb063@marketplace.amazon.com	oswaldo acosta	+1 314-282-9402 ext. 43431	ABM010	Arabella Bouquets | Fields of The World Bouquet of Fresh Cut Flowers in a Free Designer Glass Vase	1	0	1	Expedited	Oswaldo Acosta	15438 WANDERING WAY			NOBLESVILLE	IN	46060-8010	US			false		
111-5388273-5319449	62970048959258	2020-06-27T04:17:22+00:00	2020-06-26T21:17:22-07:00	2020-06-27T04:20:19+00:00	2020-06-30T06:59:59+00:00	-3	wyy0fn4tm9sgmj0@marketplace.amazon.com	Joel Rothenberg	+1 346-307-9643 ext. 69784	ABR0055	Purchase Now for Delivery by Tuesday | Arabella Farm Direct Bouquet of 12 Stems of Fresh Cut Hot Pink Roses in a Free Designer Glass Vase	1	0	1	NextDay	Zoe Day	6016 S JACKSON GAP WAY			AURORA	CO	80016-2467	US		Happy Birthday ❤️ From Grandma and Joel	false		
114-2938878-9818641	52021293346826	2020-06-27T04:41:23+00:00	2020-06-26T21:41:23-07:00	2020-06-27T04:42:12+00:00	2020-06-30T06:59:59+00:00	-3	thpygykh8l435n6@marketplace.amazon.com	Vida Maren Orcullo	+1 346-307-9643 ext. 71849	ABR0022	Purchase Now for Delivery by Tuesday | Arabella Farm Direct Bouquet of 12 Fresh Cut Pink Roses with a Free Glass Vase	1	0	1	NextDay	Irene Nicholas	537 HERMITAGE CT			SAN JOSE	CA	95134-1316	US		Have a Happy Blessed Birthday Ninang Irene! We Miss You!😘🥳🥰  Love: Paul&Vida&Enzo&Vien From Paul&Vida&Enzo&Vien	false		
111-5467140-8861829	29773535191786	2020-06-27T10:20:46+00:00	2020-06-27T03:20:46-07:00	2020-06-27T10:23:11+00:00	2020-06-30T06:59:59+00:00	-3	xb1nw6hcv3gfn69@marketplace.amazon.com	Susan Jones	+1 346-307-9643 ext. 61458	ABR0022	Purchase Now for Delivery by Tuesday | Arabella Farm Direct Bouquet of 12 Fresh Cut Pink Roses with a Free Glass Vase	1	0	1	NextDay	David and Karen Hieronymus	175 IDLEWILD RD			PINEHURST	NC	28374-9062	US		Congratulations on becoming grandparents!  It is the best job yet!  Love, Felton and Susan From Felton and Susan Jones	false		
111-0813596-3700260	18115761385018	2020-06-27T11:08:18+00:00	2020-06-27T04:08:18-07:00	2020-06-27T11:13:14+00:00	2020-06-30T06:59:59+00:00	-3	97fhpzs24jljwg1@marketplace.amazon.com	enid manley	+1 346-307-9643 ext. 69720	ABM010	Arabella Bouquets | Fields of The World Bouquet of Fresh Cut Flowers in a Free Designer Glass Vase	1	0	1	NextDay	Nerida Delgado	11596 W Sierra Dawn Blvd	unit 25		surprise	Arizona	86378	US			false		
112-2884100-1862659	36284826237794	2020-06-27T11:19:16+00:00	2020-06-27T04:19:16-07:00	2020-06-27T11:46:58+00:00	2020-07-01T06:59:59+00:00	-4	fl9zs1ftqqb7rdm@marketplace.amazon.com	Angela Stull	+1 346-307-9643 ext. 48320	ABR0022	Purchase Now for Delivery by Tuesday | Arabella Farm Direct Bouquet of 12 Fresh Cut Pink Roses with a Free Glass Vase	1	0	1	Expedited	Carla hensel	9 LAURELCREST LN			TRAVELERS REST	SC	29690-8188	US		Wishing you all the best?  Our love is with you my sister and dearest friend. This comes from our dear Jody, too, who would be right there with you but is in spirit.  We love you so much From Angela Stull and Attique	false		
112-7030656-1329013	42352255433018	2020-06-27T11:51:35+00:00	2020-06-27T04:51:35-07:00	2020-06-27T11:52:28+00:00	2020-06-30T06:59:59+00:00	-3	9gnf9192k7pph7f@marketplace.amazon.com	Wendi Chalmers	+1 210-728-4548 ext. 86437	ABR0022	Purchase Now for Delivery by Tuesday | Arabella Farm Direct Bouquet of 12 Fresh Cut Pink Roses with a Free Glass Vase	1	0	1	NextDay	Kathy  Rufener	474 SHELBY 518			CLARENCE	MO	63437-3508	US		Happy Birthday, Mom! These roses now remind me of you - just like Memaw.   We love you! From Wendi and Phil	false		
114-0501908-5369854	18879143092042	2020-06-27T11:52:17+00:00	2020-06-27T04:52:17-07:00	2020-06-27T11:55:56+00:00	2020-06-30T06:59:59+00:00	-3	1glq7sjc66r4zmp@marketplace.amazon.com	Deborah Davidson	+1 346-307-9643 ext. 01585	ABM010	Arabella Bouquets | Fields of The World Bouquet of Fresh Cut Flowers in a Free Designer Glass Vase	1	0	1	NextDay	Barbara Allred	0421 COUNTY ROAD 303			PARACHUTE	CO	81635-9205	US		Hi Mom! I love you so very much. Debi	false		
112-0525512-6636260	40805256620450	2020-06-27T13:14:38+00:00	2020-06-27T06:14:38-07:00	2020-06-27T13:46:58+00:00	2020-06-30T06:59:59+00:00	-3	tx01wgcdlfc09qb@marketplace.amazon.com	Maria Della Croce	+1 346-307-9643 ext. 33701	ABM010	Arabella Bouquets | Fields of The World Bouquet of Fresh Cut Flowers in a Free Designer Glass Vase	1	0	1	SecondDay	Lisa Harter	51 MAPLE ST UNIT 425			ROCKLAND	MA	02370-2379	US		Lisa,  Thank you for having us! From Paul and Maria	false		
111-8874034-0094604	55837062061970	2020-06-27T13:24:32+00:00	2020-06-27T06:24:32-07:00	2020-06-27T13:51:04+00:00	2020-06-30T06:59:59+00:00	-3	09329hb2f7j6rxc@marketplace.amazon.com	Shawnshine	+1 346-307-9643 ext. 15983	ABR0022	Purchase Now for Delivery by Wednesday | Arabella Farm Direct Bouquet of 12 Fresh Cut Pink Roses with a Free Glass Vase	1	0	1	SecondDay	Brittney Lynn	3909 W CLEVELAND ST			TAMPA	FL	33609-2767	US		Happy birthday！ From Mr. Chen	false		
111-0232755-2845017	06266716235666	2020-06-27T13:25:56+00:00	2020-06-27T06:25:56-07:00	2020-06-27T13:56:33+00:00	2020-07-01T06:59:59+00:00	-4	wh1v5lty1z1rv5q@marketplace.amazon.com	Jacob Krueger	+1 346-307-9643 ext. 68621	ABM010	Arabella Bouquets | Fields of The World Bouquet of Fresh Cut Flowers in a Free Designer Glass Vase	1	0	1	Expedited	Jacob Krueger	9285 N 72nd Ave			WAUSAU	WISCONSIN	54401	US			false		
114-7259555-1457034	64022726349602	2020-06-27T14:26:48+00:00	2020-06-27T07:26:48-07:00	2020-06-27T14:57:06+00:00	2020-06-30T06:59:59+00:00	-3	shn9ylrxd546t4j@marketplace.amazon.com	Michael charette	+1 347-448-3190 ext. 28134	ABR0022	Purchase Now for Delivery by Wednesday | Arabella Farm Direct Bouquet of 12 Fresh Cut Pink Roses with a Free Glass Vase	1	0	1	SecondDay	Michael Charette	50 WOODLAND ST APT 1			NEW BRITAIN	CT	06051-3263	US			false		
114-2115797-2765022	50982353423162	2020-06-27T14:42:52+00:00	2020-06-27T07:42:52-07:00	2020-06-27T15:12:38+00:00	2020-07-01T06:59:59+00:00	-4	gj789cyfwtfxlqd@marketplace.amazon.com	Edward T. Maguire	+1 347-448-3190 ext. 73280	ABR001	Purchase Now for Delivery by Wednesday | Arabella Bouquets 12 Stems of Fresh Cut Red Roses in a Free Designer Glass Vase	1	0	1	Expedited	Patricia Maguire / Brightview	1 SYMMES RD	APT 2		ARLINGTON	MA	02474	US			false		
111-1917042-2757006	34813325320138	2020-06-27T15:33:56+00:00	2020-06-27T08:33:56-07:00	2020-06-27T16:02:45+00:00	2020-06-30T06:59:59+00:00	-3	j6vqk4r2qmzykdh@marketplace.amazon.com	Janice Bosnic	+1 346-307-9643 ext. 47352	ABR014	Arabella Bouquets 18 Stems of Fresh Cut White Roses in a Free Designer Glass Vase	1	0	1	SecondDay	Tamsyn Bosnic	9110 MOSS FARM LN			DALLAS	TX	75243-7429	US			false		
112-6540403-1145065	10721489313266	2020-06-27T15:43:26+00:00	2020-06-27T08:43:26-07:00	2020-06-27T16:11:43+00:00	2020-06-30T06:59:59+00:00	-3	m89l4t5w2ly9cyj@marketplace.amazon.com	CCWalz	+1 314-282-9402 ext. 30527	ABR004	Arabella Farm Direct Bouquet of 12 Fresh Cut Yellow Roses with a Free Glass Vase	1	0	1	SecondDay	Caitlin Walz	7455 GRANT VILLAGE DR APT 204			SAINT LOUIS	MO	63123-1467	US		Love you with all my heart.  Hope you are having a "sunny" day.  If not, hopefully this will brighten it up for you. From Mom	false		
113-7396468-3809016	68823803253314	2020-06-27T15:45:12+00:00	2020-06-27T08:45:12-07:00	2020-06-27T16:13:40+00:00	2020-06-30T06:59:59+00:00	-3	xh96zjs9yx438sj@marketplace.amazon.com	kelsi baumbach	+1 346-307-9643 ext. 02941	ABM010	Arabella Bouquets | Fields of The World Bouquet of Fresh Cut Flowers in a Free Designer Glass Vase	1	0	1	SecondDay	Orva Appese	25 WHISPERING PINES LN			MONMOUTH	ME	04259-6536	US			false		
111-8795563-8205865	06482062193458	2020-06-27T16:13:32+00:00	2020-06-27T09:13:32-07:00	2020-06-27T16:36:54+00:00	2020-06-30T06:59:59+00:00	-3	2hpltwwt2pqcpfz@marketplace.amazon.com	Steven Marsh	+1 346-307-9643 ext. 65421	ABM010	Arabella Bouquets | Fields of The World Bouquet of Fresh Cut Flowers in a Free Designer Glass Vase	1	0	1	SecondDay	Steven Marsh	7001 FOX CLIFF LN APT 535			RALEIGH	NC	27616-7606	US		I love you so much baby girl! You hold the key to my heart :) I miss you and can’t wait to get back to you! From Steven Marsh	false		
113-1799040-0618663	04066956361322	2020-06-27T16:15:49+00:00	2020-06-27T09:15:49-07:00	2020-06-27T16:44:47+00:00	2020-06-30T06:59:59+00:00	-3	6ycslsqvx4hv9kl@marketplace.amazon.com	Madison L Whitlow	+1 346-307-9643 ext. 60614	ABR0022	Purchase Now for Delivery by Wednesday | Arabella Farm Direct Bouquet of 12 Fresh Cut Pink Roses with a Free Glass Vase	1	0	1	SecondDay	Madison L Whitlow	204 W SAINT JOHNS AVE			AUSTIN	TX	78752-2416	US		Take better care of yourself! You are loved and your life still has meaning. I love you!❤️ From Ayden Whitlow	false		
111-4199009-0647464	37945601174730	2020-06-27T16:51:58+00:00	2020-06-27T09:51:58-07:00	2020-06-27T17:18:27+00:00	2020-06-30T06:59:59+00:00	-3	jjywmwlb05v2kjd@marketplace.amazon.com	susanne snedeker	+1 314-282-9402 ext. 88025	ABR012	Purchase Now for Delivery by Wednesday | Arabella Farm Direct Bouquet of 18 Fresh Cut Pink Roses with a Free Glass Vase	1	0	1	SecondDay	Sarah Snedeker	2284 ASHLEY RIVER RD APT 218D			CHARLESTON	SC	29414-4700	US		Happy 25th Birthday, Sarah!  We love you!  Mom, Steve, and Bodie From Mom	false		
