order-id	order-item-id	purchase-date	payments-date	reporting-date	promise-date	days-past-promise	buyer-email	buyer-name	buyer-phone-number	sku	product-name	quantity-purchased	quantity-shipped	quantity-to-ship	ship-service-level	recipient-name	ship-address-1	ship-address-2	ship-address-3	ship-city	ship-state	ship-postal-code	ship-country	gift-wrap-type	gift-message-text	is-business-order	purchase-order-number	price-designation
113-3657238-5058616	20799597635506	2020-06-29T14:11:52+00:00	2020-06-29T07:11:52-07:00	2020-06-29T14:34:54+00:00	2020-07-02T06:59:59+00:00	-3	q5wycw4f28p2rc4@marketplace.amazon.com	Daniela Dudra	+1 347-448-3190 ext. 80013	ABR0022	Purchase Now for Delivery by Wednesday | Arabella Farm Direct Bouquet of 12 Fresh Cut Pink Roses with a Free Glass Vase	1	0	1	Expedited	Melania Mosny	24330 SANDPIPER ISLE WAY UNIT 402	D		BONITA SPRINGS	FL	34134-0996	US		Draha Teta Miluska, prajeme Vam vsetko najsamlepsie k Vasim narodeninam! Vela zdravicka, stastia a rodinnej pohody Vam zelaju Bodi, Daniela, Leo & Regina ❤️❤️❤️ From Dudra family	false		
112-9592747-7126600	52734376495674	2020-06-29T14:21:30+00:00	2020-06-29T07:21:30-07:00	2020-06-29T14:51:58+00:00	2020-07-02T06:59:59+00:00	-3	9mp25nj8zdbf82g@marketplace.amazon.com	Hanna	+1 346-307-9643 ext. 06662	ABR0055	Purchase Now for Delivery by Wednesday | Arabella Farm Direct Bouquet of 12 Stems of Fresh Cut Hot Pink Roses in a Free Designer Glass Vase	1	0	1	Expedited	Mike Raffaniello	50 W 15TH ST APT 3B			NEW YORK	NY	10011-6872	US			false		
114-5640333-1780249	53749796482666	2020-06-29T15:40:02+00:00	2020-06-29T08:40:02-07:00	2020-06-29T16:05:17+00:00	2020-07-02T06:59:59+00:00	-3	r4xm253ghh1flrn@marketplace.amazon.com	Lori Goins	+1 346-307-9643 ext. 87093	ABR0055	Purchase Now for Delivery by Thursday | Arabella Farm Direct Bouquet of 12 Stems of Fresh Cut Hot Pink Roses in a Free Designer Glass Vase	1	0	1	Expedited	Bridgette Reyes	14507 BRISTOL AVE			GRANDVIEW	MO	64030-4153	US		Happy birthday Carol From Denese	false		
112-9041029-8363451	06518525688402	2020-06-29T15:39:20+00:00	2020-06-29T08:39:20-07:00	2020-06-29T16:05:25+00:00	2020-07-02T06:59:59+00:00	-3	pfhxt7xlhy36hy4@marketplace.amazon.com	Andrew	+1 346-307-9643 ext. 29761	ABM010	Arabella Bouquets | Fields of The World Bouquet of Fresh Cut Flowers in a Free Designer Glass Vase	1	0	1	Expedited	Aunt Mimi	7513 NYACK CT			MANASSAS	VA	20112-7815	US		Thank you for everything you do  We love you Aunt Mimi From Andrew	false		
112-2834566-4180228	54786111369202	2020-06-29T15:49:09+00:00	2020-06-29T08:49:09-07:00	2020-06-29T16:19:07+00:00	2020-07-02T06:59:59+00:00	-3	pfhxt7xlhy36hy4@marketplace.amazon.com	Andrew	+1 347-448-3190 ext. 58928	ABR0022	Purchase Now for Delivery by Thursday | Arabella Farm Direct Bouquet of 12 Fresh Cut Pink Roses with a Free Glass Vase	1	0	1	Expedited	Gwommy	7513 NYACK CT			MANASSAS	VA	20112-7815	US		We love you Gwommy From Andrew	false		
112-9770189-6131420	48122311663530	2020-06-29T15:55:30+00:00	2020-06-29T08:55:30-07:00	2020-06-29T16:22:42+00:00	2020-07-02T06:59:59+00:00	-3	pfhxt7xlhy36hy4@marketplace.amazon.com	Andrew	+1 346-307-9643 ext. 31904	ABR0055	Purchase Now for Delivery by Thursday | Arabella Farm Direct Bouquet of 12 Stems of Fresh Cut Hot Pink Roses in a Free Designer Glass Vase	1	0	1	Expedited	Hannah	7513 NYACK CT			MANASSAS	VA	20112-7815	US		Thanks for always playing Minecraft with us , we love you From Jax	false		
113-2701246-5953860	66637039078602	2020-06-29T16:46:02+00:00	2020-06-29T09:46:02-07:00	2020-06-29T17:15:10+00:00	2020-07-02T06:59:59+00:00	-3	h1hkq8vjycjtlsd@marketplace.amazon.com	DANA HARRIS	+1 346-307-9643 ext. 47552	ABR0022	Purchase Now for Delivery by Thursday | Arabella Farm Direct Bouquet of 12 Fresh Cut Pink Roses with a Free Glass Vase	1	0	1	Expedited	Daniela Nicolaescu	1129 RAVENSCROFT LN			PONTE VEDRA	FL	32081-7065	US		Dear Daniela, Happy birthday! Love, Dana and family From DANA HARRIS	false		
112-2270901-3994628	48737406679754	2020-06-29T16:57:22+00:00	2020-06-29T09:57:22-07:00	2020-06-29T17:18:40+00:00	2020-07-02T06:59:59+00:00	-3	dtf2wqf83fx5k8c@marketplace.amazon.com	Wanda C. Laire	+1 346-307-9643 ext. 55347	ABR0022	Purchase Now for Delivery by Thursday | Arabella Farm Direct Bouquet of 12 Fresh Cut Pink Roses with a Free Glass Vase	1	0	1	Expedited	Diane Centoni	720 LE MANS WAY			HALF MOON BAY	CA	94019-1437	US			false		
114-2368413-1413825	16782440794826	2020-06-29T17:56:16+00:00	2020-06-29T10:56:16-07:00	2020-06-29T17:57:12+00:00	2020-07-02T06:59:59+00:00	-3	8gbzc7v0qb51m2s@marketplace.amazon.com	claudia	+1 314-282-9402 ext. 76226	ABR0055	Purchase Now for Delivery by Thursday | Arabella Farm Direct Bouquet of 12 Stems of Fresh Cut Hot Pink Roses in a Free Designer Glass Vase	1	0	1	Expedited	Flor	1570 ALLEGHENY DR			BLAKESLEE	PA	18610-2201	US		Flores para una flor y su retoño.	false		
113-8208448-1821810	38021171046938	2020-06-29T17:31:31+00:00	2020-06-29T10:31:31-07:00	2020-06-29T18:01:41+00:00	2020-07-02T06:59:59+00:00	-3	zdnnwrz82ffn4jd@marketplace.amazon.com	adony	+1 346-307-9643 ext. 91284	ABR0055	Purchase Now for Delivery by Thursday | Arabella Farm Direct Bouquet of 12 Stems of Fresh Cut Hot Pink Roses in a Free Designer Glass Vase	1	0	1	Expedited	Ivis Baltodano	201 KEYES CT APT 1			STERLING	VA	20164-3013	US			false		
114-1354825-6604219	59685290066706	2020-06-29T17:39:42+00:00	2020-06-29T10:39:42-07:00	2020-06-29T18:07:40+00:00	2020-07-02T06:59:59+00:00	-3	pmmvgsxj54jdn33@marketplace.amazon.com	Bo	+1 346-307-9643 ext. 70187	ABR0055	Purchase Now for Delivery by Thursday | Arabella Farm Direct Bouquet of 12 Stems of Fresh Cut Hot Pink Roses in a Free Designer Glass Vase	1	0	1	Expedited	Maree Lerchen	13068 US HIGHWAY 12			PACKWOOD	WA	98361-9720	US		Hi Maree, Looking forward to seeing you on your feet! Get better soon. XO From Bo	false		
112-0230021-6835446	65455760969746	2020-06-29T17:53:21+00:00	2020-06-29T10:53:21-07:00	2020-06-29T18:26:10+00:00	2020-07-02T06:59:59+00:00	-3	pgff3c34thy6364@marketplace.amazon.com	Matthew molinaro	+1 347-448-3190 ext. 38557	ABR0022	Purchase Now for Delivery by Thursday | Arabella Farm Direct Bouquet of 12 Fresh Cut Pink Roses with a Free Glass Vase	1	0	1	Standard	Have fun	111 HELME AVE			MILLER PLACE	NY	11764-3213	US			false		
