order-id	order-item-id	purchase-date	payments-date	reporting-date	promise-date	days-past-promise	buyer-email	buyer-name	buyer-phone-number	sku	product-name	quantity-purchased	quantity-shipped	quantity-to-ship	ship-service-level	recipient-name	ship-address-1	ship-address-2	ship-address-3	ship-city	ship-state	ship-postal-code	ship-country	gift-wrap-type	gift-message-text	is-business-order	purchase-order-number	price-designation
113-3657238-5058616	20799597635506	2020-06-29T14:11:52+00:00	2020-06-29T07:11:52-07:00	2020-06-29T14:34:54+00:00	2020-07-02T06:59:59+00:00	-2	q5wycw4f28p2rc4@marketplace.amazon.com	Daniela Dudra	+1 347-448-3190 ext. 80013	ABR0022	Purchase Now for Delivery by Wednesday | Arabella Farm Direct Bouquet of 12 Fresh Cut Pink Roses with a Free Glass Vase	1	0	1	Expedited	Melania Mosny	24330 SANDPIPER ISLE WAY UNIT 402	D		BONITA SPRINGS	FL	34134-0996	US		Draha Teta Miluska, prajeme Vam vsetko najsamlepsie k Vasim narodeninam! Vela zdravicka, stastia a rodinnej pohody Vam zelaju Bodi, Daniela, Leo & Regina ❤️❤️❤️ From Dudra family	false		
112-9592747-7126600	52734376495674	2020-06-29T14:21:30+00:00	2020-06-29T07:21:30-07:00	2020-06-29T14:51:58+00:00	2020-07-02T06:59:59+00:00	-2	9mp25nj8zdbf82g@marketplace.amazon.com	Hanna	+1 346-307-9643 ext. 06662	ABR0055	Purchase Now for Delivery by Wednesday | Arabella Farm Direct Bouquet of 12 Stems of Fresh Cut Hot Pink Roses in a Free Designer Glass Vase	1	0	1	Expedited	Mike Raffaniello	50 W 15TH ST APT 3B			NEW YORK	NY	10011-6872	US			false		
114-5640333-1780249	53749796482666	2020-06-29T15:40:02+00:00	2020-06-29T08:40:02-07:00	2020-06-29T16:05:17+00:00	2020-07-02T06:59:59+00:00	-2	r4xm253ghh1flrn@marketplace.amazon.com	Lori Goins	+1 346-307-9643 ext. 87093	ABR0055	Purchase Now for Delivery by Thursday | Arabella Farm Direct Bouquet of 12 Stems of Fresh Cut Hot Pink Roses in a Free Designer Glass Vase	1	0	1	Expedited	Bridgette Reyes	14507 BRISTOL AVE			GRANDVIEW	MO	64030-4153	US		Happy birthday Carol From Denese	false		
112-9041029-8363451	06518525688402	2020-06-29T15:39:20+00:00	2020-06-29T08:39:20-07:00	2020-06-29T16:05:25+00:00	2020-07-02T06:59:59+00:00	-2	pfhxt7xlhy36hy4@marketplace.amazon.com	Andrew	+1 346-307-9643 ext. 29761	ABM010	Arabella Bouquets | Fields of The World Bouquet of Fresh Cut Flowers in a Free Designer Glass Vase	1	0	1	Expedited	Aunt Mimi	7513 NYACK CT			MANASSAS	VA	20112-7815	US		Thank you for everything you do  We love you Aunt Mimi From Andrew	false		
112-2834566-4180228	54786111369202	2020-06-29T15:49:09+00:00	2020-06-29T08:49:09-07:00	2020-06-29T16:19:07+00:00	2020-07-02T06:59:59+00:00	-2	pfhxt7xlhy36hy4@marketplace.amazon.com	Andrew	+1 347-448-3190 ext. 58928	ABR0022	Purchase Now for Delivery by Thursday | Arabella Farm Direct Bouquet of 12 Fresh Cut Pink Roses with a Free Glass Vase	1	0	1	Expedited	Gwommy	7513 NYACK CT			MANASSAS	VA	20112-7815	US		We love you Gwommy From Andrew	false		
112-9770189-6131420	48122311663530	2020-06-29T15:55:30+00:00	2020-06-29T08:55:30-07:00	2020-06-29T16:22:42+00:00	2020-07-02T06:59:59+00:00	-2	pfhxt7xlhy36hy4@marketplace.amazon.com	Andrew	+1 346-307-9643 ext. 31904	ABR0055	Purchase Now for Delivery by Thursday | Arabella Farm Direct Bouquet of 12 Stems of Fresh Cut Hot Pink Roses in a Free Designer Glass Vase	1	0	1	Expedited	Hannah	7513 NYACK CT			MANASSAS	VA	20112-7815	US		Thanks for always playing Minecraft with us , we love you From Jax	false		
113-2701246-5953860	66637039078602	2020-06-29T16:46:02+00:00	2020-06-29T09:46:02-07:00	2020-06-29T17:15:10+00:00	2020-07-02T06:59:59+00:00	-2	h1hkq8vjycjtlsd@marketplace.amazon.com	DANA HARRIS	+1 346-307-9643 ext. 47552	ABR0022	Purchase Now for Delivery by Thursday | Arabella Farm Direct Bouquet of 12 Fresh Cut Pink Roses with a Free Glass Vase	1	0	1	Expedited	Daniela Nicolaescu	1129 RAVENSCROFT LN			PONTE VEDRA	FL	32081-7065	US		Dear Daniela, Happy birthday! Love, Dana and family From DANA HARRIS	false		
112-2270901-3994628	48737406679754	2020-06-29T16:57:22+00:00	2020-06-29T09:57:22-07:00	2020-06-29T17:18:40+00:00	2020-07-02T06:59:59+00:00	-2	dtf2wqf83fx5k8c@marketplace.amazon.com	Wanda C. Laire	+1 346-307-9643 ext. 55347	ABR0022	Purchase Now for Delivery by Thursday | Arabella Farm Direct Bouquet of 12 Fresh Cut Pink Roses with a Free Glass Vase	1	0	1	Expedited	Diane Centoni	720 LE MANS WAY			HALF MOON BAY	CA	94019-1437	US			false		
114-2368413-1413825	16782440794826	2020-06-29T17:56:16+00:00	2020-06-29T10:56:16-07:00	2020-06-29T17:57:12+00:00	2020-07-02T06:59:59+00:00	-2	8gbzc7v0qb51m2s@marketplace.amazon.com	claudia	+1 314-282-9402 ext. 76226	ABR0055	Purchase Now for Delivery by Thursday | Arabella Farm Direct Bouquet of 12 Stems of Fresh Cut Hot Pink Roses in a Free Designer Glass Vase	1	0	1	Expedited	Flor	1570 ALLEGHENY DR			BLAKESLEE	PA	18610-2201	US		Flores para una flor y su retoño.	false		
113-8208448-1821810	38021171046938	2020-06-29T17:31:31+00:00	2020-06-29T10:31:31-07:00	2020-06-29T18:01:41+00:00	2020-07-02T06:59:59+00:00	-2	zdnnwrz82ffn4jd@marketplace.amazon.com	adony	+1 346-307-9643 ext. 91284	ABR0055	Purchase Now for Delivery by Thursday | Arabella Farm Direct Bouquet of 12 Stems of Fresh Cut Hot Pink Roses in a Free Designer Glass Vase	1	0	1	Expedited	Ivis Baltodano	201 KEYES CT APT 1			STERLING	VA	20164-3013	US			false		
114-1354825-6604219	59685290066706	2020-06-29T17:39:42+00:00	2020-06-29T10:39:42-07:00	2020-06-29T18:07:40+00:00	2020-07-02T06:59:59+00:00	-2	pmmvgsxj54jdn33@marketplace.amazon.com	Bo	+1 346-307-9643 ext. 70187	ABR0055	Purchase Now for Delivery by Thursday | Arabella Farm Direct Bouquet of 12 Stems of Fresh Cut Hot Pink Roses in a Free Designer Glass Vase	1	0	1	Expedited	Maree Lerchen	13068 US HIGHWAY 12			PACKWOOD	WA	98361-9720	US		Hi Maree, Looking forward to seeing you on your feet! Get better soon. XO From Bo	false		
112-0230021-6835446	65455760969746	2020-06-29T17:53:21+00:00	2020-06-29T10:53:21-07:00	2020-06-29T18:26:10+00:00	2020-07-02T06:59:59+00:00	-2	pgff3c34thy6364@marketplace.amazon.com	Matthew molinaro	+1 347-448-3190 ext. 38557	ABR0022	Purchase Now for Delivery by Thursday | Arabella Farm Direct Bouquet of 12 Fresh Cut Pink Roses with a Free Glass Vase	1	0	1	Standard	Have fun	111 HELME AVE			MILLER PLACE	NY	11764-3213	US			false		
114-5144365-3402634	21074685727330	2020-06-29T18:39:21+00:00	2020-06-29T11:39:21-07:00	2020-06-29T19:03:02+00:00	2020-07-01T06:59:59+00:00	-1	qjky9gndhwsp2kd@marketplace.amazon.com	Carol Nelson	+1 346-307-9643 ext. 18051	ABR0022	Purchase Now for Delivery by Thursday | Arabella Farm Direct Bouquet of 12 Fresh Cut Pink Roses with a Free Glass Vase	1	0	1	SecondDay	Teri Piroue	4570 E WEAVER PL			CENTENNIAL	CO	80121-3237	US		Happy Birthday with love from Mom From Carol Nelson	false		
114-6802131-5890610	18006914785858	2020-06-29T18:34:17+00:00	2020-06-29T11:34:17-07:00	2020-06-29T19:05:21+00:00	2020-07-01T06:59:59+00:00	-1	4qwvgbdk12fdsfz@marketplace.amazon.com	Nataliya	+1 314-282-9402 ext. 33920	ABM0044	Arabella Farm Direct Bouquet of Fresh Cut Blue Hydrangea with a Free Glass Vase	1	0	1	SecondDay	Walter Grabowski	211 YORK AVE			WEST PITTSTON	PA	18643-2434	US		Please accept  my condolences. From Natasha	false		
113-7771732-9577845	00907947832858	2020-06-29T18:45:34+00:00	2020-06-29T11:45:34-07:00	2020-06-29T19:16:04+00:00	2020-07-02T06:59:59+00:00	-2	m9qxlfdfs9snl0z@marketplace.amazon.com	shannon l hughey	+1 314-282-9402 ext. 50825	ABR0022	Purchase Now for Delivery by Thursday | Arabella Farm Direct Bouquet of 12 Fresh Cut Pink Roses with a Free Glass Vase	1	0	1	Expedited	Genevieve Orona	14040 TAHITI WAY APT 516			MARINA DEL REY	CA	90292-6511	US			false		
111-8066018-3696222	39347802451618	2020-06-29T18:54:07+00:00	2020-06-29T11:54:07-07:00	2020-06-29T19:17:55+00:00	2020-07-01T06:59:59+00:00	-1	dkd47jqt834h8v1@marketplace.amazon.com	audrey	+1 346-307-9643 ext. 29678	ABR0066	Arabella Bouquets 18 Stems of Fresh Cut White Roses in a Free Designer Glass Vase	1	0	1	SecondDay	Audrey Quattlebaum	15157 HIGHWAY 51			ARITON	AL	36311-8662	US			false		
111-4007227-7735404	10118620365730	2020-06-29T19:05:12+00:00	2020-06-29T12:05:12-07:00	2020-06-29T19:20:53+00:00	2020-07-01T06:59:59+00:00	-1	wj1g47t6n4bbvv6@marketplace.amazon.com	Wendy Androvic	+1 210-728-4548 ext. 13513	ABR012	Arabella Farm Direct Bouquet of 18 Fresh Cut Pink Roses with a Free Glass Vase	1	0	1	SecondDay	Danielle MasonGraduateQueen	104 MORGAN PL			KEARNY	NJ	07032-3213	US		Congratulations Danielley ! ! ! My best friend, I am so proud of you!!!! YOU U DID IT QUEEN ~ DANIELLE B.S. MBA GRADUATE ~ Warmest congratulations on your well-deserved success. I love you so very much! MUAHHHH ~ Love, Wendy From Wendy Andro	false		
113-9790489-6761858	53564816992218	2020-06-29T19:16:30+00:00	2020-06-29T12:16:30-07:00	2020-06-29T19:37:53+00:00	2020-07-01T06:59:59+00:00	-1	734m3fw56h43g81@marketplace.amazon.com	Catherine Smith	+1 346-307-9643 ext. 51102	ABM010	Arabella Bouquets | Fields of The World Bouquet of Fresh Cut Flowers in a Free Designer Glass Vase	1	0	1	SecondDay	Sue Helm	317 CUPOLA RD			HONEY BROOK	PA	19344-9755	US			false		
113-7650944-4980250	08443273140666	2020-06-29T19:37:05+00:00	2020-06-29T12:37:05-07:00	2020-06-29T20:04:35+00:00	2020-07-01T06:59:59+00:00	-1	ydp0kww5fynk3gw@marketplace.amazon.com	Peter Binney	+1 210-728-4548 ext. 85106	ABR0022	Purchase Now for Delivery by Thursday | Arabella Farm Direct Bouquet of 12 Fresh Cut Pink Roses with a Free Glass Vase	1	0	1	SecondDay	Maren Grace Binney	2909 N WOLCOTT AVE UNIT A			CHICAGO	IL	60657-4056	US		Happy Birthday Maren!! Sorry we are so late with your gifts. We love and miss you so very much!  Love Papa and Dede!! From Peter Binney	false		
112-0178488-4513066	50698612056682	2020-06-29T19:47:52+00:00	2020-06-29T12:47:52-07:00	2020-06-29T20:14:01+00:00	2020-07-01T06:59:59+00:00	-1	dn08gh500g6l6gv@marketplace.amazon.com	Gregory Carter	+1 346-307-9643 ext. 70127	ABR001	Purchase Now for Delivery by Thursday | Arabella Bouquets 12 Stems of Fresh Cut Red Roses in a Free Designer Glass Vase	1	0	1	SecondDay	Mrs. Alice Scott	2261 SOARING LN			LAWRENCEVILLE	GA	30044-5886	US		HAPPY BIRTHDAY TO MY SWEET ALICE!  I LOVE YOU! From DADDY (This is Daddy)	false		
113-4288367-4733065	52025547970786	2020-06-29T19:49:56+00:00	2020-06-29T12:49:56-07:00	2020-06-29T20:17:38+00:00	2020-07-02T06:59:59+00:00	-2	8xcxt7cscn77r5m@marketplace.amazon.com	Mayrose Almendralo	+1 314-282-9402 ext. 99756	ABR0022	Purchase Now for Delivery by Thursday | Arabella Farm Direct Bouquet of 12 Fresh Cut Pink Roses with a Free Glass Vase	1	0	1	Expedited	Charlene Marteja	4243 N 1ST ST APT 377			LINCOLN	NE	68521-4856	US		Feel Better Char! Take Care Always From Mayrose	false		
113-6961723-7936229	39810954850426	2020-06-29T20:01:05+00:00	2020-06-29T13:01:05-07:00	2020-06-29T20:29:56+00:00	2020-07-01T06:59:59+00:00	-1	l6fv2ftg80qzczk@marketplace.amazon.com	joyce c deboben	+1 314-282-9402 ext. 85997	ABR0022	Purchase Now for Delivery by Thursday | Arabella Farm Direct Bouquet of 12 Fresh Cut Pink Roses with a Free Glass Vase	1	0	1	SecondDay	joyce c. deboben	2 Triangle Ter			Danbury	CT	06810-6926	US		Happy anniversary  - July 5  Love  Grammy From joyce c deboben	false		
113-1566009-0502665	00289818327666	2020-06-29T20:02:13+00:00	2020-06-29T13:02:13-07:00	2020-06-29T20:30:40+00:00	2020-07-01T06:59:59+00:00	-1	2nqtxplpj45mlfv@marketplace.amazon.com	Paul Doherty	+1 210-728-4548 ext. 37617	ABM010	Arabella Bouquets | Fields of The World Bouquet of Fresh Cut Flowers in a Free Designer Glass Vase	1	0	1	SecondDay	Janet Doherty	110 MECHANIC ST APT 1			CAMDEN	ME	04843-1826	US		Happy Birthday From Love Paul	false		
112-7006115-2834667	12856378434826	2020-06-29T20:07:38+00:00	2020-06-29T13:07:38-07:00	2020-06-29T20:35:08+00:00	2020-07-01T06:59:59+00:00	-1	39tfq0tn1lsyg1n@marketplace.amazon.com	Vanessa Roman-Espinoza	+1 346-307-9643 ext. 70618	ABR001	Purchase Now for Delivery by Thursday | Arabella Bouquets 12 Stems of Fresh Cut Red Roses in a Free Designer Glass Vase	1	0	1	SecondDay	Vanessa Espinoza	185 E MAIN ST # 2021			GRASS VALLEY	CA	95945-9481	US			false		
114-2096747-4233044	16320609633442	2020-06-29T20:06:27+00:00	2020-06-29T13:06:27-07:00	2020-06-29T20:35:27+00:00	2020-07-01T06:59:59+00:00	-1	3vyp3t2nyynv5gx@marketplace.amazon.com	Kristie Velarde	+1 346-307-9643 ext. 49943	ABR0022	Purchase Now for Delivery by Thursday | Arabella Farm Direct Bouquet of 12 Fresh Cut Pink Roses with a Free Glass Vase	1	0	1	SecondDay	Elisha Fahmy	168 ROBIN HOLLOW RD			WEST GREENWICH	RI	02817-2140	US		Sending you so much love now and always! So sorry about your grandfather. Wish we could give you a big hug! From Love, Kristie and Jenny	false		
113-8913657-8679468	06099190623762	2020-06-29T20:15:54+00:00	2020-06-29T13:15:54-07:00	2020-06-29T20:42:54+00:00	2020-07-01T06:59:59+00:00	-1	6vmq0c5zy27xj9p@marketplace.amazon.com	Rhonda Kelly	+1 346-307-9643 ext. 18903	ABR0022	Purchase Now for Delivery by Thursday | Arabella Farm Direct Bouquet of 12 Fresh Cut Pink Roses with a Free Glass Vase	1	0	1	SecondDay	Sophie and Sister x	1507 KINCROSS CT			KATY	TX	77450-8716	US		Thank you both so much 🙏 From Andy & Rhonda Kelly	false		
111-2531306-8955431	07529187691770	2020-06-29T20:16:36+00:00	2020-06-29T13:16:36-07:00	2020-06-29T20:43:04+00:00	2020-07-01T06:59:59+00:00	-1	m5t4850qcc51w9y@marketplace.amazon.com	Scott Folkins	+1 346-307-9643 ext. 27476	ABM010	Arabella Bouquets | Fields of The World Bouquet of Fresh Cut Flowers in a Free Designer Glass Vase	1	0	1	SecondDay	Lyena Griffith	400 OAK LN			SAN GABRIEL	CA	91775-2216	US		Happy Birthday Love Scott From Scott Folkins	false		
114-9610702-2756214	55214017432738	2020-06-29T20:18:09+00:00	2020-06-29T13:18:09-07:00	2020-06-29T20:43:52+00:00	2020-07-01T06:59:59+00:00	-1	8d3mzbg77w1yxyn@marketplace.amazon.com	Elena	+1 346-307-9643 ext. 17646	ABR0022	Purchase Now for Delivery by Thursday | Arabella Farm Direct Bouquet of 12 Fresh Cut Pink Roses with a Free Glass Vase	1	0	1	SecondDay	Alla Tandetnik	126 HARWICH RD			CHESTNUT HILL	MA	02467-3025	US		Dear Alla!  Happy Birthday!!!  Lena, Genna and Danny	false		
111-3554076-1417856	18036220991170	2020-06-29T20:26:35+00:00	2020-06-29T13:26:35-07:00	2020-06-29T20:45:24+00:00	2020-07-01T06:59:59+00:00	-1	v9jkvb8vb8k2xsr@marketplace.amazon.com	Patrick K. Dunne	+1 346-307-9643 ext. 19846	ABR0022	Purchase Now for Delivery by Thursday | Arabella Farm Direct Bouquet of 12 Fresh Cut Pink Roses with a Free Glass Vase	1	0	1	SecondDay	LINDA AND BILL COLENSO	3416 FIRST AVE NORTH			GREAT FALLS	MT	59401	US		DEAR LINDAEnjoy your gift !DE HAPPY BIRTHDAY From Patrick K. Dunne	false		
112-2612596-0840266	33057623033362	2020-06-29T20:32:41+00:00	2020-06-29T13:32:41-07:00	2020-06-29T20:45:36+00:00	2020-07-01T06:59:59+00:00	-1	bkw1rwft5rwgpb1@marketplace.amazon.com	Debbie Lee	+1 346-307-9643 ext. 99267	ABB008	Arabella Farm Direct 48 Fresh Cut Pink Roses	1	0	1	SecondDay	Joyce Boyles	3159 QUINCY LN			CLARKSVILLE	TN	37043-6261	US		Happy birthday beautiful sister! On your 21st birthday, never stop being proud of who you are, for you are amazing. We love you and wish you an amazing first year if adulthood! From The Lee's	false		
111-1086021-8109053	64956617310322	2020-06-29T20:39:46+00:00	2020-06-29T13:39:46-07:00	2020-06-29T20:58:38+00:00	2020-07-01T06:59:59+00:00	-1	ycxw6432l61yy4p@marketplace.amazon.com	Ruzanna	+1 314-282-9402 ext. 59147	ABM0033	Purchase Now for Delivery by Thursday | Arabella Farm Direct Bouquet of Fresh Cut White Hydrangea with a Free Glass Vase	1	0	1	SecondDay	Marianna Kalabin	61 E 130TH ST APT 2			NEW YORK	NY	10037-3719	US		Love you, sister! From Ruzanna	false		
113-8241098-7373025	06451866718290	2020-06-29T20:36:30+00:00	2020-06-29T13:36:30-07:00	2020-06-29T21:05:57+00:00	2020-07-01T06:59:59+00:00	-1	055w4vqym9r61s1@marketplace.amazon.com	Nadia Salazar	+1 346-307-9643 ext. 36056	ABR0022	Purchase Now for Delivery by Thursday | Arabella Farm Direct Bouquet of 12 Fresh Cut Pink Roses with a Free Glass Vase	1	0	1	SecondDay	Chandi Wilmoth	501 N MARTIN LUTHER KING JR AVE			CLEARWATER	FL	33755-4410	US		Congratulations Chandi graduate 2020 You really graduated during a pandemic!  Love you so much and I’m so proud of you! From Nadia Salazar	false		
112-7669865-1648259	68313903149738	2020-06-29T20:43:31+00:00	2020-06-29T13:43:31-07:00	2020-06-29T21:08:45+00:00	2020-07-01T06:59:59+00:00	-1	vtk83499fr14rll@marketplace.amazon.com	Danielle Gavers	+1 210-728-4548 ext. 09938	ABR0022	Purchase Now for Delivery by Thursday | Arabella Farm Direct Bouquet of 12 Fresh Cut Pink Roses with a Free Glass Vase	1	0	1	SecondDay	Alyssa Bila	6 STEPHEN DR			FARMINGDALE	NY	11735-6139	US		Alyssa, Happpppppppy 16th Birthday to the prettiest niece in the whole wide world! Love you ALWAYS From Your whole Delaware Crew	false		
113-4876222-9014615	68221668210802	2020-06-29T20:57:34+00:00	2020-06-29T13:57:34-07:00	2020-06-29T21:23:33+00:00	2020-07-01T06:59:59+00:00	-1	m02tbsnw41l9r2x@marketplace.amazon.com	Jack Sukiel	+1 346-307-9643 ext. 06758	ABR0055	Purchase Now for Delivery by Thursday | Arabella Farm Direct Bouquet of 12 Stems of Fresh Cut Hot Pink Roses in a Free Designer Glass Vase	1	0	1	SecondDay	Jack Sukiel	10 RIVERDALE AVE			MASSAPEQUA	NY	11758-7729	US		Hi, Enjoy your gift! From Jack Sukiel	false		
113-3281491-2832224	45517066812570	2020-06-29T21:05:03+00:00	2020-06-29T14:05:03-07:00	2020-06-29T21:35:28+00:00	2020-07-01T06:59:59+00:00	-1	yppfpxgwmkh2z1z@marketplace.amazon.com	Hailey	+1 314-282-9402 ext. 43980	ABR004	Arabella Farm Direct Bouquet of 12 Fresh Cut Yellow Roses with a Free Glass Vase	1	0	1	SecondDay	Hailey Frank	1951 OLIVER DR			BULLHEAD CITY	AZ	86442-4872	US			false		
114-2340967-7253853	09214343985490	2020-06-29T21:09:50+00:00	2020-06-29T14:09:50-07:00	2020-06-29T21:38:03+00:00	2020-07-01T06:59:59+00:00	-1	f2tpw6xx48sz88n@marketplace.amazon.com	Kimberly Rorabaugh	+1 346-307-9643 ext. 01899	ABR0022	Purchase Now for Delivery by Thursday | Arabella Farm Direct Bouquet of 12 Fresh Cut Pink Roses with a Free Glass Vase	1	0	1	SecondDay	Suzette Hupin	6215 LOVELAND ST			METAIRIE	LA	70003-3236	US		Suzette, I am sorry I cannot be there with you because we have gone through so much together over the last many many years. I am praying for the best.  All my love! From Kim Rorabaugh	false		
111-0283889-4008264	28931192273674	2020-06-29T21:12:02+00:00	2020-06-29T14:12:02-07:00	2020-06-29T21:41:13+00:00	2020-07-01T06:59:59+00:00	-1	9drj27zvb8ytn8s@marketplace.amazon.com	Boris Karaman	+1 210-728-4548 ext. 64238	ABR0022	Purchase Now for Delivery by Thursday | Arabella Farm Direct Bouquet of 12 Fresh Cut Pink Roses with a Free Glass Vase	1	0	1	SecondDay	MODA Health Aimee Fowell	601 SW 2ND AVE			PORTLAND	OR	97204-3229	US		Dear Aimee,  Have a wonderful Happy Birthday and many more to come! From Yuliya Karaman	false		
114-3239310-7445807	45658770031226	2020-06-29T21:23:17+00:00	2020-06-29T14:23:17-07:00	2020-06-29T21:46:24+00:00	2020-07-01T06:59:59+00:00	-1	xyqyq3r0tlb9yhh@marketplace.amazon.com	Julie Uranga	+1 346-307-9643 ext. 16113	ABR004	Arabella Farm Direct Bouquet of 12 Fresh Cut Yellow Roses with a Free Glass Vase	1	0	1	SecondDay	Scott Berryman	2539 PINE ST			BOULDER	CO	80302-3802	US		Scott,   Happy, Happy Birthday!  Wishing you a day as wonderful as you are!  Many more years of wealth, health, success &love. Love Mom, Julie, Paul, girls! From Julie Uranga	false		
111-3546387-2809032	12646210282482	2020-06-29T21:10:35+00:00	2020-06-29T14:10:35-07:00	2020-06-29T21:48:03+00:00	2020-07-01T06:59:59+00:00	-1	6tc2wbbkpnt50hx@marketplace.amazon.com	john petrosky	+1 346-307-9643 ext. 88060	ABR0022	Purchase Now for Delivery by Thursday | Arabella Farm Direct Bouquet of 12 Fresh Cut Pink Roses with a Free Glass Vase	1	0	1	SecondDay	David Smith	249 NW LIVE OAK PL			LAKE CITY	FL	32055-8906	US			false		
111-0480211-4048223	55567664442578	2020-06-29T21:22:18+00:00	2020-06-29T14:22:18-07:00	2020-06-29T21:51:06+00:00	2020-07-01T06:59:59+00:00	-1	07cr9x15pvgy000@marketplace.amazon.com	dave	+1 346-307-9643 ext. 32641	ABR001	Purchase Now for Delivery by Thursday | Arabella Bouquets 12 Stems of Fresh Cut Red Roses in a Free Designer Glass Vase	1	0	1	SecondDay	dave	709 LAKESIDE DR			HARTFORD CITY	IN	47348-8607	US			false		
111-0193320-2158613	01992241786018	2020-06-29T21:24:38+00:00	2020-06-29T14:24:38-07:00	2020-06-29T21:54:46+00:00	2020-07-01T06:59:59+00:00	-1	07cr9x15pvgy000@marketplace.amazon.com	dave	+1 346-307-9643 ext. 28240	ABR0022	Purchase Now for Delivery by Thursday | Arabella Farm Direct Bouquet of 12 Fresh Cut Pink Roses with a Free Glass Vase	1	0	1	SecondDay	dave	709 LAKESIDE DR			HARTFORD CITY	IN	47348-8607	US			false		
112-9932801-3877012	50677395843570	2020-06-29T21:44:49+00:00	2020-06-29T14:44:49-07:00	2020-06-29T22:10:41+00:00	2020-07-01T06:59:59+00:00	-1	xmkh1n2cwmd0y87@marketplace.amazon.com	Donna Briery	+1 347-448-3190 ext. 74522	ABR0055	Purchase Now for Delivery by Thursday | Arabella Farm Direct Bouquet of 12 Stems of Fresh Cut Hot Pink Roses in a Free Designer Glass Vase	1	0	1	SecondDay	PAM MCZEAL	120 NORTHWOOD DR			LAFAYETTE	LA	70501-2324	US		CONGRATULATIONS!  Enjoy your Retirement!  Thank you for ALWAYS being there for me! Love ya, Donna From Donna Briery	false		
114-3779573-8510646	62232882454642	2020-06-29T21:43:58+00:00	2020-06-29T14:43:58-07:00	2020-06-29T22:16:42+00:00	2020-07-01T06:59:59+00:00	-1	jzvt3wcpccc08qq@marketplace.amazon.com	lance	+1 210-728-4548 ext. 67551	ABR0022	Purchase Now for Delivery by Thursday | Arabella Farm Direct Bouquet of 12 Fresh Cut Pink Roses with a Free Glass Vase	1	0	1	SecondDay	Leigh Ingle	303 BOW LN			GILBERTSVILLE	PA	19525-9139	US		HAPPY BIRTHDAY!! From Lance, Sherri and kids	false		
111-8315314-7745840	44065289168738	2020-06-29T21:57:32+00:00	2020-06-29T14:57:32-07:00	2020-06-29T22:26:51+00:00	2020-07-01T06:59:59+00:00	-1	wsybr3sgtgch3td@marketplace.amazon.com	jennifer	+1 314-282-9402 ext. 45157	ABM0044	Arabella Farm Direct Bouquet of Fresh Cut Blue Hydrangea with a Free Glass Vase	1	0	1	SecondDay	Mary Grant	24010 Emery Rd			Cleveland	OH	44128	US		Enjoy your gift! From Chris chris and jen	false		
113-3173421-4219434	34024646109610	2020-06-29T22:02:06+00:00	2020-06-29T15:02:06-07:00	2020-06-29T22:27:39+00:00	2020-07-01T06:59:59+00:00	-1	4mg5gcnyhls2d8c@marketplace.amazon.com	jenniferdoyle	+1 346-307-9643 ext. 45990	ABM010	Arabella Bouquets | Fields of The World Bouquet of Fresh Cut Flowers in a Free Designer Glass Vase	1	0	1	SecondDay	Heather Sinclair	51 SUMMER ST APT F			DOVER	NH	03820-3959	US		Hope you have a speedy recovery! Thank you for being such a lovely person, we appreciate all you do for Jax. You’re truly one of the sweetest people on this earth. Love you!!! From Jax, jennifer, Jay. From jenniferdoyle	false		
111-5962252-5245065	34016944477410	2020-06-29T21:57:30+00:00	2020-06-29T14:57:30-07:00	2020-06-29T22:28:01+00:00	2020-07-01T06:59:59+00:00	-1	7kf96sgnjjy95bk@marketplace.amazon.com	brittany	+1 346-307-9643 ext. 66730	ABR014	Arabella Bouquets 18 Stems of Fresh Cut White Roses in a Free Designer Glass Vase	1	0	1	SecondDay	Brittany Ann Karsten	1606 FUJI DR			MELBOURNE	FL	32940-7131	US			false		
111-7978593-2692266	19955187415114	2020-06-29T22:49:47+00:00	2020-06-29T15:49:47-07:00	2020-06-29T23:10:51+00:00	2020-07-01T06:59:59+00:00	-1	pjcxmrdjvx2c1h6@marketplace.amazon.com	Susan Maloney	+1 346-307-9643 ext. 88193	ABM010	Arabella Bouquets | Fields of The World Bouquet of Fresh Cut Flowers in a Free Designer Glass Vase	1	0	1	SecondDay	JoAnn Vandermyde	105 JEFFERSON AVE SE			ORANGE CITY	IA	51041-2113	US		Thank you so much for hosting the shower with us! It was a great success, and we couldn't have done it without you & Nicole! We are looking forward to seeing you all in August! Also Happy Anniversary!!! Love you! From The Maloney Girls	false		
112-4961969-2844224	43516568513778	2020-06-29T22:45:08+00:00	2020-06-29T15:45:08-07:00	2020-06-29T23:12:27+00:00	2020-07-01T06:59:59+00:00	-1	5pxgvsfbp7jw6v4@marketplace.amazon.com	Arlene	+1 346-307-9643 ext. 00112	ABR0055	Purchase Now for Delivery by Thursday | Arabella Farm Direct Bouquet of 12 Stems of Fresh Cut Hot Pink Roses in a Free Designer Glass Vase	1	0	1	SecondDay	Annemarie Barbagallo	20 SETON HALL DR			OAKLAND	NJ	07436-3642	US		Happy Birthday Am. Thinking about you on you're birthday. We miss you and love you. Have a wonderful day and hope to see you soon.I 💕💕 From Nicky & Arlene	false		
113-0187531-1818631	21475952906962	2020-06-29T22:50:02+00:00	2020-06-29T15:50:02-07:00	2020-06-29T23:20:22+00:00	2020-07-01T06:59:59+00:00	-1	kjw2sl7n7d38l09@marketplace.amazon.com	Melija Semsedin	+1 346-307-9643 ext. 22406	ABR0022	Purchase Now for Delivery by Thursday | Arabella Farm Direct Bouquet of 12 Fresh Cut Pink Roses with a Free Glass Vase	1	0	1	SecondDay	Vjollca.  Semsedin	1245 BLACKRUSH DR			TARPON SPRINGS	FL	34689-6241	US			false		
111-9561823-9647409	62971059479730	2020-06-29T23:12:53+00:00	2020-06-29T16:12:53-07:00	2020-06-29T23:38:53+00:00	2020-07-01T06:59:59+00:00	-1	9408yj7v65zkzpc@marketplace.amazon.com	Bojana	+1 346-307-9643 ext. 25303	ABM002	Purchase Now for Delivery by Thursday | Arabella Bouquets Fresh Cut White Calla Lilies in a Free Designer Glass Vase	1	0	1	SecondDay	Cortney Poe	435 TARTAGLIA AVE			SPRINGDALE	AR	72762-3073	US		My favorite flowers for my favorite human... Just because you love fresh flowers. Miss and love you tons. From Bojana	false		
111-4888951-2941808	53041864693122	2020-06-29T23:18:58+00:00	2020-06-29T16:18:58-07:00	2020-06-29T23:48:47+00:00	2020-07-01T06:59:59+00:00	-1	ztqgyrhdhthnrks@marketplace.amazon.com	Brielle farkas	+1 346-307-9643 ext. 17512	ABM010	Arabella Bouquets | Fields of The World Bouquet of Fresh Cut Flowers in a Free Designer Glass Vase	1	0	1	SecondDay	Ann witek	42 BERKSHIRE CT			RED BANK	NJ	07701-5413	US		A bright bouquet to brighten your week! Love you MORE Annie Babes thanks for being the best!!!! Xo From Baby Girl	false		
111-1945879-9218654	28335177478002	2020-06-29T23:38:14+00:00	2020-06-29T16:38:14-07:00	2020-06-30T00:08:12+00:00	2020-07-01T06:59:59+00:00	-1	2qnyxlkwd5gt9th@marketplace.amazon.com	John Hannon	+1 346-307-9643 ext. 11397	ABM010	Arabella Bouquets | Fields of The World Bouquet of Fresh Cut Flowers in a Free Designer Glass Vase	1	0	1	SecondDay	Mary Ann	229 WILSON AVE			KINGSFORD	MI	49802-3833	US			false		
114-9739239-7407433	42591381670762	2020-06-30T00:09:32+00:00	2020-06-29T17:09:32-07:00	2020-06-30T00:38:48+00:00	2020-07-01T06:59:59+00:00	-1	vnfsk79b4jwmczv@marketplace.amazon.com	Gloria sorto	+1 346-307-9643 ext. 59669	ABR0055	Purchase Now for Delivery by Thursday | Arabella Farm Direct Bouquet of 12 Stems of Fresh Cut Hot Pink Roses in a Free Designer Glass Vase	1	0	1	SecondDay	Adela sorto	4585 FRASER WAY			DENVER	CO	80239-5120	US		¡Disfrute de su regalo! Feliz cumpleaños Mamita hermosa 😘 De Gloria sorto	false		
114-2296708-7956263	21809647819098	2020-06-30T00:20:20+00:00	2020-06-29T17:20:20-07:00	2020-06-30T00:48:22+00:00	2020-07-01T06:59:59+00:00	-1	bgmjxj6hzvmw26r@marketplace.amazon.com	Carrie Shoultes	+1 346-307-9643 ext. 27491	ABM010	Arabella Bouquets | Fields of The World Bouquet of Fresh Cut Flowers in a Free Designer Glass Vase	1	0	1	SecondDay	Suzan Jones	64 ROXBORO DR			PALM COAST	FL	32164-6920	US		Hope you have an amazing birthday!!  Xoxoxo From Carrie Shoultes	false		
112-1116883-3693065	47162467364234	2020-06-30T00:32:21+00:00	2020-06-29T17:32:21-07:00	2020-06-30T00:56:33+00:00	2020-07-02T06:59:59+00:00	-2	y3kj26kryrjl08z@marketplace.amazon.com	Lornette	+1 347-448-3190 ext. 35760	ABR0022	Purchase Now for Delivery by Thursday | Arabella Farm Direct Bouquet of 12 Fresh Cut Pink Roses with a Free Glass Vase	1	0	1	Expedited	Christine Newsome	37 HENDRICKS AVE			STATEN ISLAND	NY	10301	US		Hi Christine,I Happy 80th birthday  Enjoy your gift! From Lornette	false		
113-1522063-8077868	51132427619290	2020-06-30T00:30:31+00:00	2020-06-29T17:30:31-07:00	2020-06-30T01:00:15+00:00	2020-07-01T06:59:59+00:00	-1	lkg9kfn73hszqym@marketplace.amazon.com	Bridget Gruby	+1 346-307-9643 ext. 54162	ABM010	Arabella Bouquets | Fields of The World Bouquet of Fresh Cut Flowers in a Free Designer Glass Vase	1	0	1	SecondDay	Kenny and Marilyn Weber	1014 GREYSTONE CIR			MORGANTOWN	WV	26508-4409	US		Thinking of you!!! Get well!!! From Bridget & Trevor Gruby & family	false		
111-0858841-3101856	14544475115002	2020-06-30T00:47:29+00:00	2020-06-29T17:47:29-07:00	2020-06-30T01:14:29+00:00	2020-07-01T06:59:59+00:00	-1	jj95bsjdb4bgh84@marketplace.amazon.com	Lisa Nicholson	+1 346-307-9643 ext. 50893	ABR0055	Purchase Now for Delivery by Thursday | Arabella Farm Direct Bouquet of 12 Stems of Fresh Cut Hot Pink Roses in a Free Designer Glass Vase	1	0	1	SecondDay	Ellie Ferrell	1400 MONTEGO APT 135			WALNUT CREEK	CA	94598-2935	US		Happy Birthday! Hope you get to at least take a walk:-)  Love Lisa and Jim From Jim and Lisa Nicholson	false		
114-6349789-2707421	33067569524386	2020-06-30T01:08:48+00:00	2020-06-29T18:08:48-07:00	2020-06-30T01:33:50+00:00	2020-07-01T06:59:59+00:00	-1	c4hn7nvj3mqscn2@marketplace.amazon.com	Bradley A Morris	+1 346-307-9643 ext. 88714	ABM010	Arabella Bouquets | Fields of The World Bouquet of Fresh Cut Flowers in a Free Designer Glass Vase	1	0	1	SecondDay	Peggy Zapata	9450 DURANGO WAY			ELK GROVE	CA	95624-1904	US		Dear Zapata Family, We are so sorry for your loss.  You are in our prayers and thoughts.  Love,  The Morris’ From Lavinia Morris	false		
113-6209065-6234640	04106812920866	2020-06-30T01:15:38+00:00	2020-06-29T18:15:38-07:00	2020-06-30T01:41:30+00:00	2020-07-01T06:59:59+00:00	-1	07jh906c4qrb5vn@marketplace.amazon.com	Dennis H. Snipe, Jr.	+1 346-307-9643 ext. 49362	ABR0022	Purchase Now for Delivery by Thursday | Arabella Farm Direct Bouquet of 12 Fresh Cut Pink Roses with a Free Glass Vase	1	0	1	SecondDay	Everlena Davis	444 CRANDON AVE			CALUMET CITY	IL	60409-2202	US		The Lord placed you on my heart to bless, as you have been such a blessing to me and so many others! From Alfreda Peacock	false		
111-7038469-2031424	34341388454314	2020-06-30T01:15:50+00:00	2020-06-29T18:15:50-07:00	2020-06-30T01:43:16+00:00	2020-07-01T06:59:59+00:00	-1	0xqz2y654t6rrxg@marketplace.amazon.com	Mayank Gupta	+1 346-307-9643 ext. 54511	ABR012	Arabella Farm Direct Bouquet of 18 Fresh Cut Pink Roses with a Free Glass Vase	1	0	1	SecondDay	Palak Mehra	47 BARNSDALE RD			SHORT HILLS	NJ	07078-2018	US		Dear Palak Wishing you a Very Happy Birthday! Wish we can celebrate together soon!! From Mayank and Anjali	false		
113-3389198-7689857	27117759003682	2020-06-30T01:15:41+00:00	2020-06-29T18:15:41-07:00	2020-06-30T01:46:08+00:00	2020-07-02T06:59:59+00:00	-2	nk80mlx08jb9t9y@marketplace.amazon.com	Joy	+1 346-307-9643 ext. 44123	ABR001	Purchase Now for Delivery by Thursday | Arabella Bouquets 12 Stems of Fresh Cut Red Roses in a Free Designer Glass Vase	1	0	1	Expedited	Rossana Bernardez	3534 CYPRESSWOOD DR			SPRING	TX	77388-5873	US			false		
112-1618467-0545862	08423078151850	2020-06-30T01:23:58+00:00	2020-06-29T18:23:58-07:00	2020-06-30T01:54:28+00:00	2020-07-01T06:59:59+00:00	-1	rkbjjc51st7gy30@marketplace.amazon.com	Ming Geng	+1 210-728-4548 ext. 08864	ABR0022	Purchase Now for Delivery by Thursday | Arabella Farm Direct Bouquet of 12 Fresh Cut Pink Roses with a Free Glass Vase	1	0	1	SecondDay	Ming Geng	69 LAKE PL			BROOKLYN	NY	11223-3645	US			false		
113-9580042-1349801	32066057801338	2020-06-30T01:50:55+00:00	2020-06-29T18:50:55-07:00	2020-06-30T02:17:00+00:00	2020-07-01T06:59:59+00:00	-1	kwg1vgy2431w5rg@marketplace.amazon.com	Chris	+1 210-728-4548 ext. 38213	ABR001	Purchase Now for Delivery by Thursday | Arabella Bouquets 12 Stems of Fresh Cut Red Roses in a Free Designer Glass Vase	1	0	1	SecondDay	Marissa	38 LEVERETT ST			FREDONIA	NY	14063-1725	US			false		
114-3117641-3746623	22822073436178	2020-06-30T01:52:07+00:00	2020-06-29T18:52:07-07:00	2020-06-30T02:27:51+00:00	2020-07-01T06:59:59+00:00	-1	mxxwcb9zlcdbhnw@marketplace.amazon.com	Alexandra V. Roth	+1 346-307-9643 ext. 83556	ABR0055	Purchase Now for Delivery by Thursday | Arabella Farm Direct Bouquet of 12 Stems of Fresh Cut Hot Pink Roses in a Free Designer Glass Vase	1	0	1	SecondDay	Alexandra V. Roth	250 Winthrop Shore Drive	Apt. #3		Winthrop	MA	02152	US			false		
113-2481278-4869051	24903925791650	2020-06-30T02:29:01+00:00	2020-06-29T19:29:01-07:00	2020-06-30T02:53:16+00:00	2020-07-01T06:59:59+00:00	-1	j7f8j1glpjf8j8l@marketplace.amazon.com	Ronnie Thomas	+1 314-282-9402 ext. 97557	ABM010	Arabella Bouquets | Fields of The World Bouquet of Fresh Cut Flowers in a Free Designer Glass Vase	1	0	1	SecondDay	Kara Moore	1005 S 62ND ST			TACOMA	WA	98408-3308	US		Happy happy birthday. Love you!!  Miss you❤️ A little brightness for your day ❤️ From Kandace	false		
111-6306823-2719425	04740955798170	2020-06-30T02:24:48+00:00	2020-06-29T19:24:48-07:00	2020-06-30T02:57:41+00:00	2020-07-01T06:59:59+00:00	-1	46j28fv7mfrh98n@marketplace.amazon.com	Jenn Culbert	+1 346-307-9643 ext. 08717	ABM010	Arabella Bouquets | Fields of The World Bouquet of Fresh Cut Flowers in a Free Designer Glass Vase	1	0	1	SecondDay	Chery Criner	6642 2ND ST			RIO LINDA	CA	95673-3205	US		Yay on your new hip! We love you! From Jenn And Scott	false		
111-2787081-1589060	51362937621786	2020-06-30T02:39:39+00:00	2020-06-29T19:39:39-07:00	2020-06-30T03:08:51+00:00	2020-07-01T06:59:59+00:00	-1	fkfcrld1309t2nb@marketplace.amazon.com	William  Shaffer	+1 346-307-9643 ext. 08661	ABR001	Purchase Now for Delivery by Thursday | Arabella Bouquets 12 Stems of Fresh Cut Red Roses in a Free Designer Glass Vase	1	0	1	SecondDay	Robert Shaffer	13808 BRANT RD SW			CRESAPTOWN	MD	21502-5627	US			false		
111-3305091-4566634	32127815672250	2020-06-30T03:23:47+00:00	2020-06-29T20:23:47-07:00	2020-06-30T03:53:57+00:00	2020-07-02T06:59:59+00:00	-2	h64jmc63t7bf2ww@marketplace.amazon.com	Raul Cardenas	+1 346-307-9643 ext. 68795	ABR001	Purchase Now for Delivery by Thursday | Arabella Bouquets 12 Stems of Fresh Cut Red Roses in a Free Designer Glass Vase	1	0	1	Expedited	Adelina Valdez	595 LEWIS ST			POMONA	CA	91768-3448	US			false		
111-7295830-4744250	44060137163394	2020-06-30T03:38:50+00:00	2020-06-29T20:38:50-07:00	2020-06-30T03:56:29+00:00	2020-07-01T06:59:59+00:00	-1	x5jm2d1fzss5r3j@marketplace.amazon.com	Suzanne Seidl	+1 346-307-9643 ext. 97284	ABM010	Arabella Bouquets | Fields of The World Bouquet of Fresh Cut Flowers in a Free Designer Glass Vase	1	0	1	SecondDay	Darlene Klann	1633 W CENTRAL AVE			COOLIDGE	AZ	85128-9451	US		Thinking of you mom.  Remember, it's one day at a time and soon enough you'll be all healed and running around again.  Just be careful or we'll have to put you in bubble wrap, hehehe. Love, Suzanne and Dave From Suzanne Seidl	false		
111-2985616-9502648	33307422176386	2020-06-30T03:51:43+00:00	2020-06-29T20:51:43-07:00	2020-06-30T04:21:41+00:00	2020-07-01T06:59:59+00:00	-1	pf0bvbb06kllvd2@marketplace.amazon.com	taylor	+1 346-307-9643 ext. 87407	ABR0022	Purchase Now for Delivery by Thursday | Arabella Farm Direct Bouquet of 12 Fresh Cut Pink Roses with a Free Glass Vase	1	0	1	SecondDay	Taylor Weiss	1138 LAKE ST APT 2			VENICE	CA	90291-5726	US			false		
112-9284146-8545061	36777881017162	2020-06-30T04:12:18+00:00	2020-06-29T21:12:18-07:00	2020-06-30T04:42:12+00:00	2020-07-01T06:59:59+00:00	-1	ww416czx9fvrn1h@marketplace.amazon.com	Bianca Laguerre	+1 346-307-9643 ext. 09704	ABR0022	Purchase Now for Delivery by Thursday | Arabella Farm Direct Bouquet of 12 Fresh Cut Pink Roses with a Free Glass Vase	1	0	1	SecondDay	Anita Persaud	247 VAN NOSTRAND AVE			JERSEY CITY	NJ	07305-2118	US		Beyond proud of you . Keep striving . From Bianca Laguerre	false		
113-5170652-5115467	23386020255810	2020-06-30T04:54:25+00:00	2020-06-29T21:54:25-07:00	2020-06-30T04:57:21+00:00	2020-07-01T06:59:59+00:00	-1	kbkx57z09x2zr2l@marketplace.amazon.com	Reginald Alford	+1 346-307-9643 ext. 95715	ABM010	Arabella Bouquets | Fields of The World Bouquet of Fresh Cut Flowers in a Free Designer Glass Vase	1	0	1	SecondDay	Brenda Garza	2600 SCOFIELD RIDGE PKWY APT 612			AUSTIN	TX	78727-7213	US		Brenda,  I just want you to know that I care about you very much. ( We'll see We'll see ) where things go after you are well. Your health is my #1 Priority From Reggie	false		
111-6202812-7981804	65804286201258	2020-06-30T04:31:18+00:00	2020-06-29T21:31:18-07:00	2020-06-30T05:01:57+00:00	2020-07-02T06:59:59+00:00	-2	34bvv7bh34k5x7y@marketplace.amazon.com	julio arredondo	+1 346-307-9643 ext. 25631	ABM010	Arabella Bouquets | Fields of The World Bouquet of Fresh Cut Flowers in a Free Designer Glass Vase	1	0	1	Expedited	Yuraima Almendariz	7810 W PEORIA AVE LOT 33			PEORIA	AZ	85345-1024	US			false		
114-4387826-6108243	65421625420522	2020-06-30T04:51:02+00:00	2020-06-29T21:51:02-07:00	2020-06-30T05:18:40+00:00	2020-07-01T06:59:59+00:00	-1	kl6wjbzhjyks8k3@marketplace.amazon.com	Heather Schaffner	+1 346-307-9643 ext. 54444	ABM0033	Purchase Now for Delivery by Thursday | Arabella Farm Direct Bouquet of Fresh Cut White Hydrangea with a Free Glass Vase	1	0	1	SecondDay	Beth Aguayo	710 RIVERWAY LN			LEANDER	TX	78641-7963	US		Beth-  You are loved and admired! Remember that today is not your forever, and I can't wait to see what God has in store for your forever. You deserve nothing but the absolute best! Thinking of you today <3 From Heather	false		
113-3858288-5327408	10714919373522	2020-06-30T05:27:07+00:00	2020-06-29T22:27:07-07:00	2020-06-30T05:52:00+00:00	2020-07-01T06:59:59+00:00	-1	1lvl6ddqvy3tsqr@marketplace.amazon.com	Tim Brown	+1 346-307-9643 ext. 77351	ABR0022	Purchase Now for Delivery by Thursday | Arabella Farm Direct Bouquet of 12 Fresh Cut Pink Roses with a Free Glass Vase	1	0	1	SecondDay	Tom and Theresa James	1174 TANANA CT			PLUMAS LAKE	CA	95961-8906	US		Theresa and Tom, Our hearts are with you as we celebrate the time we were blessed to have Maddy with us!  We love you! From Tim and Cathy Brown	false		
112-7479721-1737807	03411315292778	2020-06-30T05:42:59+00:00	2020-06-29T22:42:59-07:00	2020-06-30T06:02:22+00:00	2020-07-02T06:59:59+00:00	-2	p9vmg5b18wwrmsy@marketplace.amazon.com	virginia karl	+1 346-307-9643 ext. 74493	ABR012	Arabella Farm Direct Bouquet of 18 Fresh Cut Pink Roses with a Free Glass Vase	1	0	1	Expedited	Mrs.  Barbara Hoffmeister	104 CHARLMONT DR			PLEASANTVILLE	NY	10570-1006	US		Dear Barbara....With special thoughts of you....and your mom.....Love, Ginger From virginia karl	false		
111-0551795-1376205	13907324310482	2020-06-30T05:45:48+00:00	2020-06-29T22:45:48-07:00	2020-06-30T06:14:04+00:00	2020-07-02T06:59:59+00:00	-2	9qhxs8pk0gw0n0b@marketplace.amazon.com	Aaron Ekiert	+1 347-448-3190 ext. 39423	ABR001	Purchase Now for Delivery by Thursday | Arabella Bouquets 12 Stems of Fresh Cut Red Roses in a Free Designer Glass Vase	1	0	1	Expedited	Katie Dino	2001 WILDWOOD DR			GRAND PRAIRIE	TX	75050-2245	US		Happy Anniversary My Little Piece Of Wonderful.  Wish I was there to celebrate with you! I love you! Aaron From Aaron Ekiert	false		
