order-id	order-item-id	purchase-date	payments-date	reporting-date	promise-date	days-past-promise	buyer-email	buyer-name	buyer-phone-number	sku	product-name	quantity-purchased	quantity-shipped	quantity-to-ship	ship-service-level	recipient-name	ship-address-1	ship-address-2	ship-address-3	ship-city	ship-state	ship-postal-code	ship-country	gift-wrap-type	gift-message-text	is-business-order	purchase-order-number	price-designation
113-3657238-5058616	20799597635506	2020-06-29T14:11:52+00:00	2020-06-29T07:11:52-07:00	2020-06-29T14:34:54+00:00	2020-07-02T06:59:59+00:00	-3	q5wycw4f28p2rc4@marketplace.amazon.com	Daniela Dudra	+1 347-448-3190 ext. 80013	ABR0022	Purchase Now for Delivery by Wednesday | Arabella Farm Direct Bouquet of 12 Fresh Cut Pink Roses with a Free Glass Vase	1	0	1	Expedited	Melania Mosny	24330 SANDPIPER ISLE WAY UNIT 402	D		BONITA SPRINGS	FL	34134-0996	US		Draha Teta Miluska, prajeme Vam vsetko najsamlepsie k Vasim narodeninam! Vela zdravicka, stastia a rodinnej pohody Vam zelaju Bodi, Daniela, Leo & Regina ❤️❤️❤️ From Dudra family	false		
112-9592747-7126600	52734376495674	2020-06-29T14:21:30+00:00	2020-06-29T07:21:30-07:00	2020-06-29T14:51:58+00:00	2020-07-02T06:59:59+00:00	-3	9mp25nj8zdbf82g@marketplace.amazon.com	Hanna	+1 346-307-9643 ext. 06662	ABR0055	Purchase Now for Delivery by Wednesday | Arabella Farm Direct Bouquet of 12 Stems of Fresh Cut Hot Pink Roses in a Free Designer Glass Vase	1	0	1	Expedited	Mike Raffaniello	50 W 15TH ST APT 3B			NEW YORK	NY	10011-6872	US			false		
114-5640333-1780249	53749796482666	2020-06-29T15:40:02+00:00	2020-06-29T08:40:02-07:00	2020-06-29T16:05:17+00:00	2020-07-02T06:59:59+00:00	-3	r4xm253ghh1flrn@marketplace.amazon.com	Lori Goins	+1 346-307-9643 ext. 87093	ABR0055	Purchase Now for Delivery by Thursday | Arabella Farm Direct Bouquet of 12 Stems of Fresh Cut Hot Pink Roses in a Free Designer Glass Vase	1	0	1	Expedited	Bridgette Reyes	14507 BRISTOL AVE			GRANDVIEW	MO	64030-4153	US		Happy birthday Carol From Denese	false		
112-9041029-8363451	06518525688402	2020-06-29T15:39:20+00:00	2020-06-29T08:39:20-07:00	2020-06-29T16:05:25+00:00	2020-07-02T06:59:59+00:00	-3	pfhxt7xlhy36hy4@marketplace.amazon.com	Andrew	+1 346-307-9643 ext. 29761	ABM010	Arabella Bouquets | Fields of The World Bouquet of Fresh Cut Flowers in a Free Designer Glass Vase	1	0	1	Expedited	Aunt Mimi	7513 NYACK CT			MANASSAS	VA	20112-7815	US		Thank you for everything you do  We love you Aunt Mimi From Andrew	false		
112-2834566-4180228	54786111369202	2020-06-29T15:49:09+00:00	2020-06-29T08:49:09-07:00	2020-06-29T16:19:07+00:00	2020-07-02T06:59:59+00:00	-3	pfhxt7xlhy36hy4@marketplace.amazon.com	Andrew	+1 347-448-3190 ext. 58928	ABR0022	Purchase Now for Delivery by Thursday | Arabella Farm Direct Bouquet of 12 Fresh Cut Pink Roses with a Free Glass Vase	1	0	1	Expedited	Gwommy	7513 NYACK CT			MANASSAS	VA	20112-7815	US		We love you Gwommy From Andrew	false		
112-9770189-6131420	48122311663530	2020-06-29T15:55:30+00:00	2020-06-29T08:55:30-07:00	2020-06-29T16:22:42+00:00	2020-07-02T06:59:59+00:00	-3	pfhxt7xlhy36hy4@marketplace.amazon.com	Andrew	+1 346-307-9643 ext. 31904	ABR0055	Purchase Now for Delivery by Thursday | Arabella Farm Direct Bouquet of 12 Stems of Fresh Cut Hot Pink Roses in a Free Designer Glass Vase	1	0	1	Expedited	Hannah	7513 NYACK CT			MANASSAS	VA	20112-7815	US		Thanks for always playing Minecraft with us , we love you From Jax	false		
113-2701246-5953860	66637039078602	2020-06-29T16:46:02+00:00	2020-06-29T09:46:02-07:00	2020-06-29T17:15:10+00:00	2020-07-02T06:59:59+00:00	-3	h1hkq8vjycjtlsd@marketplace.amazon.com	DANA HARRIS	+1 346-307-9643 ext. 47552	ABR0022	Purchase Now for Delivery by Thursday | Arabella Farm Direct Bouquet of 12 Fresh Cut Pink Roses with a Free Glass Vase	1	0	1	Expedited	Daniela Nicolaescu	1129 RAVENSCROFT LN			PONTE VEDRA	FL	32081-7065	US		Dear Daniela, Happy birthday! Love, Dana and family From DANA HARRIS	false		
112-2270901-3994628	48737406679754	2020-06-29T16:57:22+00:00	2020-06-29T09:57:22-07:00	2020-06-29T17:18:40+00:00	2020-07-02T06:59:59+00:00	-3	dtf2wqf83fx5k8c@marketplace.amazon.com	Wanda C. Laire	+1 346-307-9643 ext. 55347	ABR0022	Purchase Now for Delivery by Thursday | Arabella Farm Direct Bouquet of 12 Fresh Cut Pink Roses with a Free Glass Vase	1	0	1	Expedited	Diane Centoni	720 LE MANS WAY			HALF MOON BAY	CA	94019-1437	US			false		
114-2368413-1413825	16782440794826	2020-06-29T17:56:16+00:00	2020-06-29T10:56:16-07:00	2020-06-29T17:57:12+00:00	2020-07-02T06:59:59+00:00	-3	8gbzc7v0qb51m2s@marketplace.amazon.com	claudia	+1 314-282-9402 ext. 76226	ABR0055	Purchase Now for Delivery by Thursday | Arabella Farm Direct Bouquet of 12 Stems of Fresh Cut Hot Pink Roses in a Free Designer Glass Vase	1	0	1	Expedited	Flor	1570 ALLEGHENY DR			BLAKESLEE	PA	18610-2201	US		Flores para una flor y su retoño.	false		
113-8208448-1821810	38021171046938	2020-06-29T17:31:31+00:00	2020-06-29T10:31:31-07:00	2020-06-29T18:01:41+00:00	2020-07-02T06:59:59+00:00	-3	zdnnwrz82ffn4jd@marketplace.amazon.com	adony	+1 346-307-9643 ext. 91284	ABR0055	Purchase Now for Delivery by Thursday | Arabella Farm Direct Bouquet of 12 Stems of Fresh Cut Hot Pink Roses in a Free Designer Glass Vase	1	0	1	Expedited	Ivis Baltodano	201 KEYES CT APT 1			STERLING	VA	20164-3013	US			false		
114-1354825-6604219	59685290066706	2020-06-29T17:39:42+00:00	2020-06-29T10:39:42-07:00	2020-06-29T18:07:40+00:00	2020-07-02T06:59:59+00:00	-3	pmmvgsxj54jdn33@marketplace.amazon.com	Bo	+1 346-307-9643 ext. 70187	ABR0055	Purchase Now for Delivery by Thursday | Arabella Farm Direct Bouquet of 12 Stems of Fresh Cut Hot Pink Roses in a Free Designer Glass Vase	1	0	1	Expedited	Maree Lerchen	13068 US HIGHWAY 12			PACKWOOD	WA	98361-9720	US		Hi Maree, Looking forward to seeing you on your feet! Get better soon. XO From Bo	false		
112-0230021-6835446	65455760969746	2020-06-29T17:53:21+00:00	2020-06-29T10:53:21-07:00	2020-06-29T18:26:10+00:00	2020-07-02T06:59:59+00:00	-3	pgff3c34thy6364@marketplace.amazon.com	Matthew molinaro	+1 347-448-3190 ext. 38557	ABR0022	Purchase Now for Delivery by Thursday | Arabella Farm Direct Bouquet of 12 Fresh Cut Pink Roses with a Free Glass Vase	1	0	1	Standard	Have fun	111 HELME AVE			MILLER PLACE	NY	11764-3213	US			false		
114-5144365-3402634	21074685727330	2020-06-29T18:39:21+00:00	2020-06-29T11:39:21-07:00	2020-06-29T19:03:02+00:00	2020-07-01T06:59:59+00:00	-2	qjky9gndhwsp2kd@marketplace.amazon.com	Carol Nelson	+1 346-307-9643 ext. 18051	ABR0022	Purchase Now for Delivery by Thursday | Arabella Farm Direct Bouquet of 12 Fresh Cut Pink Roses with a Free Glass Vase	1	0	1	SecondDay	Teri Piroue	4570 E WEAVER PL			CENTENNIAL	CO	80121-3237	US		Happy Birthday with love from Mom From Carol Nelson	false		
114-6802131-5890610	18006914785858	2020-06-29T18:34:17+00:00	2020-06-29T11:34:17-07:00	2020-06-29T19:05:21+00:00	2020-07-01T06:59:59+00:00	-2	4qwvgbdk12fdsfz@marketplace.amazon.com	Nataliya	+1 314-282-9402 ext. 33920	ABM0044	Arabella Farm Direct Bouquet of Fresh Cut Blue Hydrangea with a Free Glass Vase	1	0	1	SecondDay	Walter Grabowski	211 YORK AVE			WEST PITTSTON	PA	18643-2434	US		Please accept  my condolences. From Natasha	false		
113-7771732-9577845	00907947832858	2020-06-29T18:45:34+00:00	2020-06-29T11:45:34-07:00	2020-06-29T19:16:04+00:00	2020-07-02T06:59:59+00:00	-3	m9qxlfdfs9snl0z@marketplace.amazon.com	shannon l hughey	+1 314-282-9402 ext. 50825	ABR0022	Purchase Now for Delivery by Thursday | Arabella Farm Direct Bouquet of 12 Fresh Cut Pink Roses with a Free Glass Vase	1	0	1	Expedited	Genevieve Orona	14040 TAHITI WAY APT 516			MARINA DEL REY	CA	90292-6511	US			false		
111-8066018-3696222	39347802451618	2020-06-29T18:54:07+00:00	2020-06-29T11:54:07-07:00	2020-06-29T19:17:55+00:00	2020-07-01T06:59:59+00:00	-2	dkd47jqt834h8v1@marketplace.amazon.com	audrey	+1 346-307-9643 ext. 29678	ABR0066	Arabella Bouquets 18 Stems of Fresh Cut White Roses in a Free Designer Glass Vase	1	0	1	SecondDay	Audrey Quattlebaum	15157 HIGHWAY 51			ARITON	AL	36311-8662	US			false		
111-4007227-7735404	10118620365730	2020-06-29T19:05:12+00:00	2020-06-29T12:05:12-07:00	2020-06-29T19:20:53+00:00	2020-07-01T06:59:59+00:00	-2	wj1g47t6n4bbvv6@marketplace.amazon.com	Wendy Androvic	+1 210-728-4548 ext. 13513	ABR012	Arabella Farm Direct Bouquet of 18 Fresh Cut Pink Roses with a Free Glass Vase	1	0	1	SecondDay	Danielle MasonGraduateQueen	104 MORGAN PL			KEARNY	NJ	07032-3213	US		Congratulations Danielley ! ! ! My best friend, I am so proud of you!!!! YOU U DID IT QUEEN ~ DANIELLE B.S. MBA GRADUATE ~ Warmest congratulations on your well-deserved success. I love you so very much! MUAHHHH ~ Love, Wendy From Wendy Andro	false		
113-9790489-6761858	53564816992218	2020-06-29T19:16:30+00:00	2020-06-29T12:16:30-07:00	2020-06-29T19:37:53+00:00	2020-07-01T06:59:59+00:00	-2	734m3fw56h43g81@marketplace.amazon.com	Catherine Smith	+1 346-307-9643 ext. 51102	ABM010	Arabella Bouquets | Fields of The World Bouquet of Fresh Cut Flowers in a Free Designer Glass Vase	1	0	1	SecondDay	Sue Helm	317 CUPOLA RD			HONEY BROOK	PA	19344-9755	US			false		
113-7650944-4980250	08443273140666	2020-06-29T19:37:05+00:00	2020-06-29T12:37:05-07:00	2020-06-29T20:04:35+00:00	2020-07-01T06:59:59+00:00	-2	ydp0kww5fynk3gw@marketplace.amazon.com	Peter Binney	+1 210-728-4548 ext. 85106	ABR0022	Purchase Now for Delivery by Thursday | Arabella Farm Direct Bouquet of 12 Fresh Cut Pink Roses with a Free Glass Vase	1	0	1	SecondDay	Maren Grace Binney	2909 N WOLCOTT AVE UNIT A			CHICAGO	IL	60657-4056	US		Happy Birthday Maren!! Sorry we are so late with your gifts. We love and miss you so very much!  Love Papa and Dede!! From Peter Binney	false		
112-0178488-4513066	50698612056682	2020-06-29T19:47:52+00:00	2020-06-29T12:47:52-07:00	2020-06-29T20:14:01+00:00	2020-07-01T06:59:59+00:00	-2	dn08gh500g6l6gv@marketplace.amazon.com	Gregory Carter	+1 346-307-9643 ext. 70127	ABR001	Purchase Now for Delivery by Thursday | Arabella Bouquets 12 Stems of Fresh Cut Red Roses in a Free Designer Glass Vase	1	0	1	SecondDay	Mrs. Alice Scott	2261 SOARING LN			LAWRENCEVILLE	GA	30044-5886	US		HAPPY BIRTHDAY TO MY SWEET ALICE!  I LOVE YOU! From DADDY (This is Daddy)	false		
113-4288367-4733065	52025547970786	2020-06-29T19:49:56+00:00	2020-06-29T12:49:56-07:00	2020-06-29T20:17:38+00:00	2020-07-02T06:59:59+00:00	-3	8xcxt7cscn77r5m@marketplace.amazon.com	Mayrose Almendralo	+1 314-282-9402 ext. 99756	ABR0022	Purchase Now for Delivery by Thursday | Arabella Farm Direct Bouquet of 12 Fresh Cut Pink Roses with a Free Glass Vase	1	0	1	Expedited	Charlene Marteja	4243 N 1ST ST APT 377			LINCOLN	NE	68521-4856	US		Feel Better Char! Take Care Always From Mayrose	false		
113-6961723-7936229	39810954850426	2020-06-29T20:01:05+00:00	2020-06-29T13:01:05-07:00	2020-06-29T20:29:56+00:00	2020-07-01T06:59:59+00:00	-2	l6fv2ftg80qzczk@marketplace.amazon.com	joyce c deboben	+1 314-282-9402 ext. 85997	ABR0022	Purchase Now for Delivery by Thursday | Arabella Farm Direct Bouquet of 12 Fresh Cut Pink Roses with a Free Glass Vase	1	0	1	SecondDay	joyce c. deboben	2 Triangle Ter			Danbury	CT	06810-6926	US		Happy anniversary  - July 5  Love  Grammy From joyce c deboben	false		
113-1566009-0502665	00289818327666	2020-06-29T20:02:13+00:00	2020-06-29T13:02:13-07:00	2020-06-29T20:30:40+00:00	2020-07-01T06:59:59+00:00	-2	2nqtxplpj45mlfv@marketplace.amazon.com	Paul Doherty	+1 210-728-4548 ext. 37617	ABM010	Arabella Bouquets | Fields of The World Bouquet of Fresh Cut Flowers in a Free Designer Glass Vase	1	0	1	SecondDay	Janet Doherty	110 MECHANIC ST APT 1			CAMDEN	ME	04843-1826	US		Happy Birthday From Love Paul	false		
112-7006115-2834667	12856378434826	2020-06-29T20:07:38+00:00	2020-06-29T13:07:38-07:00	2020-06-29T20:35:08+00:00	2020-07-01T06:59:59+00:00	-2	39tfq0tn1lsyg1n@marketplace.amazon.com	Vanessa Roman-Espinoza	+1 346-307-9643 ext. 70618	ABR001	Purchase Now for Delivery by Thursday | Arabella Bouquets 12 Stems of Fresh Cut Red Roses in a Free Designer Glass Vase	1	0	1	SecondDay	Vanessa Espinoza	185 E MAIN ST # 2021			GRASS VALLEY	CA	95945-9481	US			false		
114-2096747-4233044	16320609633442	2020-06-29T20:06:27+00:00	2020-06-29T13:06:27-07:00	2020-06-29T20:35:27+00:00	2020-07-01T06:59:59+00:00	-2	3vyp3t2nyynv5gx@marketplace.amazon.com	Kristie Velarde	+1 346-307-9643 ext. 49943	ABR0022	Purchase Now for Delivery by Thursday | Arabella Farm Direct Bouquet of 12 Fresh Cut Pink Roses with a Free Glass Vase	1	0	1	SecondDay	Elisha Fahmy	168 ROBIN HOLLOW RD			WEST GREENWICH	RI	02817-2140	US		Sending you so much love now and always! So sorry about your grandfather. Wish we could give you a big hug! From Love, Kristie and Jenny	false		
113-8913657-8679468	06099190623762	2020-06-29T20:15:54+00:00	2020-06-29T13:15:54-07:00	2020-06-29T20:42:54+00:00	2020-07-01T06:59:59+00:00	-2	6vmq0c5zy27xj9p@marketplace.amazon.com	Rhonda Kelly	+1 346-307-9643 ext. 18903	ABR0022	Purchase Now for Delivery by Thursday | Arabella Farm Direct Bouquet of 12 Fresh Cut Pink Roses with a Free Glass Vase	1	0	1	SecondDay	Sophie and Sister x	1507 KINCROSS CT			KATY	TX	77450-8716	US		Thank you both so much 🙏 From Andy & Rhonda Kelly	false		
111-2531306-8955431	07529187691770	2020-06-29T20:16:36+00:00	2020-06-29T13:16:36-07:00	2020-06-29T20:43:04+00:00	2020-07-01T06:59:59+00:00	-2	m5t4850qcc51w9y@marketplace.amazon.com	Scott Folkins	+1 346-307-9643 ext. 27476	ABM010	Arabella Bouquets | Fields of The World Bouquet of Fresh Cut Flowers in a Free Designer Glass Vase	1	0	1	SecondDay	Lyena Griffith	400 OAK LN			SAN GABRIEL	CA	91775-2216	US		Happy Birthday Love Scott From Scott Folkins	false		
114-9610702-2756214	55214017432738	2020-06-29T20:18:09+00:00	2020-06-29T13:18:09-07:00	2020-06-29T20:43:52+00:00	2020-07-01T06:59:59+00:00	-2	8d3mzbg77w1yxyn@marketplace.amazon.com	Elena	+1 346-307-9643 ext. 17646	ABR0022	Purchase Now for Delivery by Thursday | Arabella Farm Direct Bouquet of 12 Fresh Cut Pink Roses with a Free Glass Vase	1	0	1	SecondDay	Alla Tandetnik	126 HARWICH RD			CHESTNUT HILL	MA	02467-3025	US		Dear Alla!  Happy Birthday!!!  Lena, Genna and Danny	false		
111-3554076-1417856	18036220991170	2020-06-29T20:26:35+00:00	2020-06-29T13:26:35-07:00	2020-06-29T20:45:24+00:00	2020-07-01T06:59:59+00:00	-2	v9jkvb8vb8k2xsr@marketplace.amazon.com	Patrick K. Dunne	+1 346-307-9643 ext. 19846	ABR0022	Purchase Now for Delivery by Thursday | Arabella Farm Direct Bouquet of 12 Fresh Cut Pink Roses with a Free Glass Vase	1	0	1	SecondDay	LINDA AND BILL COLENSO	3416 FIRST AVE NORTH			GREAT FALLS	MT	59401	US		DEAR LINDAEnjoy your gift !DE HAPPY BIRTHDAY From Patrick K. Dunne	false		
112-2612596-0840266	33057623033362	2020-06-29T20:32:41+00:00	2020-06-29T13:32:41-07:00	2020-06-29T20:45:36+00:00	2020-07-01T06:59:59+00:00	-2	bkw1rwft5rwgpb1@marketplace.amazon.com	Debbie Lee	+1 346-307-9643 ext. 99267	ABB008	Arabella Farm Direct 48 Fresh Cut Pink Roses	1	0	1	SecondDay	Joyce Boyles	3159 QUINCY LN			CLARKSVILLE	TN	37043-6261	US		Happy birthday beautiful sister! On your 21st birthday, never stop being proud of who you are, for you are amazing. We love you and wish you an amazing first year if adulthood! From The Lee's	false		
111-1086021-8109053	64956617310322	2020-06-29T20:39:46+00:00	2020-06-29T13:39:46-07:00	2020-06-29T20:58:38+00:00	2020-07-01T06:59:59+00:00	-2	ycxw6432l61yy4p@marketplace.amazon.com	Ruzanna	+1 314-282-9402 ext. 59147	ABM0033	Purchase Now for Delivery by Thursday | Arabella Farm Direct Bouquet of Fresh Cut White Hydrangea with a Free Glass Vase	1	0	1	SecondDay	Marianna Kalabin	61 E 130TH ST APT 2			NEW YORK	NY	10037-3719	US		Love you, sister! From Ruzanna	false		
113-8241098-7373025	06451866718290	2020-06-29T20:36:30+00:00	2020-06-29T13:36:30-07:00	2020-06-29T21:05:57+00:00	2020-07-01T06:59:59+00:00	-2	055w4vqym9r61s1@marketplace.amazon.com	Nadia Salazar	+1 346-307-9643 ext. 36056	ABR0022	Purchase Now for Delivery by Thursday | Arabella Farm Direct Bouquet of 12 Fresh Cut Pink Roses with a Free Glass Vase	1	0	1	SecondDay	Chandi Wilmoth	501 N MARTIN LUTHER KING JR AVE			CLEARWATER	FL	33755-4410	US		Congratulations Chandi graduate 2020 You really graduated during a pandemic!  Love you so much and I’m so proud of you! From Nadia Salazar	false		
112-7669865-1648259	68313903149738	2020-06-29T20:43:31+00:00	2020-06-29T13:43:31-07:00	2020-06-29T21:08:45+00:00	2020-07-01T06:59:59+00:00	-2	vtk83499fr14rll@marketplace.amazon.com	Danielle Gavers	+1 210-728-4548 ext. 09938	ABR0022	Purchase Now for Delivery by Thursday | Arabella Farm Direct Bouquet of 12 Fresh Cut Pink Roses with a Free Glass Vase	1	0	1	SecondDay	Alyssa Bila	6 STEPHEN DR			FARMINGDALE	NY	11735-6139	US		Alyssa, Happpppppppy 16th Birthday to the prettiest niece in the whole wide world! Love you ALWAYS From Your whole Delaware Crew	false		
113-4876222-9014615	68221668210802	2020-06-29T20:57:34+00:00	2020-06-29T13:57:34-07:00	2020-06-29T21:23:33+00:00	2020-07-01T06:59:59+00:00	-2	m02tbsnw41l9r2x@marketplace.amazon.com	Jack Sukiel	+1 346-307-9643 ext. 06758	ABR0055	Purchase Now for Delivery by Thursday | Arabella Farm Direct Bouquet of 12 Stems of Fresh Cut Hot Pink Roses in a Free Designer Glass Vase	1	0	1	SecondDay	Jack Sukiel	10 RIVERDALE AVE			MASSAPEQUA	NY	11758-7729	US		Hi, Enjoy your gift! From Jack Sukiel	false		
113-3281491-2832224	45517066812570	2020-06-29T21:05:03+00:00	2020-06-29T14:05:03-07:00	2020-06-29T21:35:28+00:00	2020-07-01T06:59:59+00:00	-2	yppfpxgwmkh2z1z@marketplace.amazon.com	Hailey	+1 314-282-9402 ext. 43980	ABR004	Arabella Farm Direct Bouquet of 12 Fresh Cut Yellow Roses with a Free Glass Vase	1	0	1	SecondDay	Hailey Frank	1951 OLIVER DR			BULLHEAD CITY	AZ	86442-4872	US			false		
114-2340967-7253853	09214343985490	2020-06-29T21:09:50+00:00	2020-06-29T14:09:50-07:00	2020-06-29T21:38:03+00:00	2020-07-01T06:59:59+00:00	-2	f2tpw6xx48sz88n@marketplace.amazon.com	Kimberly Rorabaugh	+1 346-307-9643 ext. 01899	ABR0022	Purchase Now for Delivery by Thursday | Arabella Farm Direct Bouquet of 12 Fresh Cut Pink Roses with a Free Glass Vase	1	0	1	SecondDay	Suzette Hupin	6215 LOVELAND ST			METAIRIE	LA	70003-3236	US		Suzette, I am sorry I cannot be there with you because we have gone through so much together over the last many many years. I am praying for the best.  All my love! From Kim Rorabaugh	false		
111-0283889-4008264	28931192273674	2020-06-29T21:12:02+00:00	2020-06-29T14:12:02-07:00	2020-06-29T21:41:13+00:00	2020-07-01T06:59:59+00:00	-2	9drj27zvb8ytn8s@marketplace.amazon.com	Boris Karaman	+1 210-728-4548 ext. 64238	ABR0022	Purchase Now for Delivery by Thursday | Arabella Farm Direct Bouquet of 12 Fresh Cut Pink Roses with a Free Glass Vase	1	0	1	SecondDay	MODA Health Aimee Fowell	601 SW 2ND AVE			PORTLAND	OR	97204-3229	US		Dear Aimee,  Have a wonderful Happy Birthday and many more to come! From Yuliya Karaman	false		
114-3239310-7445807	45658770031226	2020-06-29T21:23:17+00:00	2020-06-29T14:23:17-07:00	2020-06-29T21:46:24+00:00	2020-07-01T06:59:59+00:00	-2	xyqyq3r0tlb9yhh@marketplace.amazon.com	Julie Uranga	+1 346-307-9643 ext. 16113	ABR004	Arabella Farm Direct Bouquet of 12 Fresh Cut Yellow Roses with a Free Glass Vase	1	0	1	SecondDay	Scott Berryman	2539 PINE ST			BOULDER	CO	80302-3802	US		Scott,   Happy, Happy Birthday!  Wishing you a day as wonderful as you are!  Many more years of wealth, health, success &love. Love Mom, Julie, Paul, girls! From Julie Uranga	false		
111-3546387-2809032	12646210282482	2020-06-29T21:10:35+00:00	2020-06-29T14:10:35-07:00	2020-06-29T21:48:03+00:00	2020-07-01T06:59:59+00:00	-2	6tc2wbbkpnt50hx@marketplace.amazon.com	john petrosky	+1 346-307-9643 ext. 88060	ABR0022	Purchase Now for Delivery by Thursday | Arabella Farm Direct Bouquet of 12 Fresh Cut Pink Roses with a Free Glass Vase	1	0	1	SecondDay	David Smith	249 NW LIVE OAK PL			LAKE CITY	FL	32055-8906	US			false		
111-0480211-4048223	55567664442578	2020-06-29T21:22:18+00:00	2020-06-29T14:22:18-07:00	2020-06-29T21:51:06+00:00	2020-07-01T06:59:59+00:00	-2	07cr9x15pvgy000@marketplace.amazon.com	dave	+1 346-307-9643 ext. 32641	ABR001	Purchase Now for Delivery by Thursday | Arabella Bouquets 12 Stems of Fresh Cut Red Roses in a Free Designer Glass Vase	1	0	1	SecondDay	dave	709 LAKESIDE DR			HARTFORD CITY	IN	47348-8607	US			false		
111-0193320-2158613	01992241786018	2020-06-29T21:24:38+00:00	2020-06-29T14:24:38-07:00	2020-06-29T21:54:46+00:00	2020-07-01T06:59:59+00:00	-2	07cr9x15pvgy000@marketplace.amazon.com	dave	+1 346-307-9643 ext. 28240	ABR0022	Purchase Now for Delivery by Thursday | Arabella Farm Direct Bouquet of 12 Fresh Cut Pink Roses with a Free Glass Vase	1	0	1	SecondDay	dave	709 LAKESIDE DR			HARTFORD CITY	IN	47348-8607	US			false		
112-9932801-3877012	50677395843570	2020-06-29T21:44:49+00:00	2020-06-29T14:44:49-07:00	2020-06-29T22:10:41+00:00	2020-07-01T06:59:59+00:00	-2	xmkh1n2cwmd0y87@marketplace.amazon.com	Donna Briery	+1 347-448-3190 ext. 74522	ABR0055	Purchase Now for Delivery by Thursday | Arabella Farm Direct Bouquet of 12 Stems of Fresh Cut Hot Pink Roses in a Free Designer Glass Vase	1	0	1	SecondDay	PAM MCZEAL	120 NORTHWOOD DR			LAFAYETTE	LA	70501-2324	US		CONGRATULATIONS!  Enjoy your Retirement!  Thank you for ALWAYS being there for me! Love ya, Donna From Donna Briery	false		
114-3779573-8510646	62232882454642	2020-06-29T21:43:58+00:00	2020-06-29T14:43:58-07:00	2020-06-29T22:16:42+00:00	2020-07-01T06:59:59+00:00	-2	jzvt3wcpccc08qq@marketplace.amazon.com	lance	+1 210-728-4548 ext. 67551	ABR0022	Purchase Now for Delivery by Thursday | Arabella Farm Direct Bouquet of 12 Fresh Cut Pink Roses with a Free Glass Vase	1	0	1	SecondDay	Leigh Ingle	303 BOW LN			GILBERTSVILLE	PA	19525-9139	US		HAPPY BIRTHDAY!! From Lance, Sherri and kids	false		
