order-id	order-item-id	purchase-date	payments-date	reporting-date	promise-date	days-past-promise	buyer-email	buyer-name	buyer-phone-number	sku	product-name	quantity-purchased	quantity-shipped	quantity-to-ship	ship-service-level	recipient-name	ship-address-1	ship-address-2	ship-address-3	ship-city	ship-state	ship-postal-code	ship-country	gift-wrap-type	gift-message-text	is-business-order	purchase-order-number	price-designation
112-0525512-6636260	40805256620450	2020-06-27T13:14:38+00:00	2020-06-27T06:14:38-07:00	2020-06-27T13:46:58+00:00	2020-06-30T06:59:59+00:00	-1	tx01wgcdlfc09qb@marketplace.amazon.com	Maria Della Croce	+1 346-307-9643 ext. 33701	ABM010	Arabella Bouquets | Fields of The World Bouquet of Fresh Cut Flowers in a Free Designer Glass Vase	1	0	1	SecondDay	Lisa Harter	51 MAPLE ST UNIT 425			ROCKLAND	MA	02370-2379	US		Lisa,  Thank you for having us! From Paul and Maria	false		
111-8874034-0094604	55837062061970	2020-06-27T13:24:32+00:00	2020-06-27T06:24:32-07:00	2020-06-27T13:51:04+00:00	2020-06-30T06:59:59+00:00	-1	09329hb2f7j6rxc@marketplace.amazon.com	Shawnshine	+1 346-307-9643 ext. 15983	ABR0022	Purchase Now for Delivery by Wednesday | Arabella Farm Direct Bouquet of 12 Fresh Cut Pink Roses with a Free Glass Vase	1	0	1	SecondDay	Brittney Lynn	3909 W CLEVELAND ST			TAMPA	FL	33609-2767	US		Happy birthday！ From Mr. Chen	false		
111-0232755-2845017	06266716235666	2020-06-27T13:25:56+00:00	2020-06-27T06:25:56-07:00	2020-06-27T13:56:33+00:00	2020-07-01T06:59:59+00:00	-2	wh1v5lty1z1rv5q@marketplace.amazon.com	Jacob Krueger	+1 346-307-9643 ext. 68621	ABM010	Arabella Bouquets | Fields of The World Bouquet of Fresh Cut Flowers in a Free Designer Glass Vase	1	0	1	Expedited	Jacob Krueger	9285 N 72nd Ave			WAUSAU	WISCONSIN	54401	US			false		
114-2115797-2765022	50982353423162	2020-06-27T14:42:52+00:00	2020-06-27T07:42:52-07:00	2020-06-27T15:12:38+00:00	2020-07-01T06:59:59+00:00	-2	gj789cyfwtfxlqd@marketplace.amazon.com	Edward T. Maguire	+1 347-448-3190 ext. 73280	ABR001	Purchase Now for Delivery by Wednesday | Arabella Bouquets 12 Stems of Fresh Cut Red Roses in a Free Designer Glass Vase	1	0	1	Expedited	Patricia Maguire / Brightview	1 SYMMES RD	APT 2		ARLINGTON	MA	02474	US			false		
111-1917042-2757006	34813325320138	2020-06-27T15:33:56+00:00	2020-06-27T08:33:56-07:00	2020-06-27T16:02:45+00:00	2020-06-30T06:59:59+00:00	-1	j6vqk4r2qmzykdh@marketplace.amazon.com	Janice Bosnic	+1 346-307-9643 ext. 47352	ABR014	Arabella Bouquets 18 Stems of Fresh Cut White Roses in a Free Designer Glass Vase	1	0	1	SecondDay	Tamsyn Bosnic	9110 MOSS FARM LN			DALLAS	TX	75243-7429	US			false		
112-6540403-1145065	10721489313266	2020-06-27T15:43:26+00:00	2020-06-27T08:43:26-07:00	2020-06-27T16:11:43+00:00	2020-06-30T06:59:59+00:00	-1	m89l4t5w2ly9cyj@marketplace.amazon.com	CCWalz	+1 314-282-9402 ext. 30527	ABR004	Arabella Farm Direct Bouquet of 12 Fresh Cut Yellow Roses with a Free Glass Vase	1	0	1	SecondDay	Caitlin Walz	7455 GRANT VILLAGE DR APT 204			SAINT LOUIS	MO	63123-1467	US		Love you with all my heart.  Hope you are having a "sunny" day.  If not, hopefully this will brighten it up for you. From Mom	false		
113-7396468-3809016	68823803253314	2020-06-27T15:45:12+00:00	2020-06-27T08:45:12-07:00	2020-06-27T16:13:40+00:00	2020-06-30T06:59:59+00:00	-1	xh96zjs9yx438sj@marketplace.amazon.com	kelsi baumbach	+1 346-307-9643 ext. 02941	ABM010	Arabella Bouquets | Fields of The World Bouquet of Fresh Cut Flowers in a Free Designer Glass Vase	1	0	1	SecondDay	Orva Appese	25 WHISPERING PINES LN			MONMOUTH	ME	04259-6536	US			false		
111-8795563-8205865	06482062193458	2020-06-27T16:13:32+00:00	2020-06-27T09:13:32-07:00	2020-06-27T16:36:54+00:00	2020-06-30T06:59:59+00:00	-1	2hpltwwt2pqcpfz@marketplace.amazon.com	Steven Marsh	+1 346-307-9643 ext. 65421	ABM010	Arabella Bouquets | Fields of The World Bouquet of Fresh Cut Flowers in a Free Designer Glass Vase	1	0	1	SecondDay	Steven Marsh	7001 FOX CLIFF LN APT 535			RALEIGH	NC	27616-7606	US		I love you so much baby girl! You hold the key to my heart :) I miss you and can’t wait to get back to you! From Steven Marsh	false		
113-1799040-0618663	04066956361322	2020-06-27T16:15:49+00:00	2020-06-27T09:15:49-07:00	2020-06-27T16:44:47+00:00	2020-06-30T06:59:59+00:00	-1	6ycslsqvx4hv9kl@marketplace.amazon.com	Madison L Whitlow	+1 346-307-9643 ext. 60614	ABR0022	Purchase Now for Delivery by Wednesday | Arabella Farm Direct Bouquet of 12 Fresh Cut Pink Roses with a Free Glass Vase	1	0	1	SecondDay	Madison L Whitlow	204 W SAINT JOHNS AVE			AUSTIN	TX	78752-2416	US		Take better care of yourself! You are loved and your life still has meaning. I love you!❤️ From Ayden Whitlow	false		
111-4199009-0647464	37945601174730	2020-06-27T16:51:58+00:00	2020-06-27T09:51:58-07:00	2020-06-27T17:18:27+00:00	2020-06-30T06:59:59+00:00	-1	jjywmwlb05v2kjd@marketplace.amazon.com	susanne snedeker	+1 314-282-9402 ext. 88025	ABR012	Purchase Now for Delivery by Wednesday | Arabella Farm Direct Bouquet of 18 Fresh Cut Pink Roses with a Free Glass Vase	1	0	1	SecondDay	Sarah Snedeker	2284 ASHLEY RIVER RD APT 218D			CHARLESTON	SC	29414-4700	US		Happy 25th Birthday, Sarah!  We love you!  Mom, Steve, and Bodie From Mom	false		
114-8794947-8292202	33555538538170	2020-06-27T17:08:17+00:00	2020-06-27T10:08:17-07:00	2020-06-27T17:37:01+00:00	2020-06-30T06:59:59+00:00	-1	rrtzt6vb3y6bwkx@marketplace.amazon.com	Timothy Bussey	+1 346-307-9643 ext. 41995	ABR001	Purchase Now for Delivery by Wednesday | Arabella Bouquets 12 Stems of Fresh Cut Red Roses in a Free Designer Glass Vase	1	0	1	SecondDay	Maryanne Bussey	46756 SUNSET AVE			WESTFIR	OR	97492-9718	US		I was thinking about you.   Love you so much. Timothy From Timothy Bussey	false		
111-5896160-3289821	42023365881858	2020-06-27T17:14:35+00:00	2020-06-27T10:14:35-07:00	2020-06-27T17:42:06+00:00	2020-06-30T06:59:59+00:00	-1	xtf87ygwqc5vnx1@marketplace.amazon.com	marionhrouda	+1 346-307-9643 ext. 36605	ABR0022	Purchase Now for Delivery by Wednesday | Arabella Farm Direct Bouquet of 12 Fresh Cut Pink Roses with a Free Glass Vase	1	0	1	SecondDay	Holly Traweek	ROME GA 13 FARM VIEW CT NW			ROME	GA	30165-2679	US			false		
112-6347463-0461865	44682796173258	2020-06-27T17:38:33+00:00	2020-06-27T10:38:33-07:00	2020-06-27T18:07:35+00:00	2020-07-01T06:59:59+00:00	-2	v4qcmlmcsph4lf1@marketplace.amazon.com	cheryl dulac	+1 346-307-9643 ext. 41472	ABR0022	Purchase Now for Delivery by Wednesday | Arabella Farm Direct Bouquet of 12 Fresh Cut Pink Roses with a Free Glass Vase	1	0	1	Expedited	leanne wetherbee	929 east 4th street			south boston	ma	02127	US		Enjoy your gift! happy 30th birthday For sure 1 to remember  I love you Mom From cheryl dulac	false		
113-3403657-3660241	07121016183186	2020-06-27T18:11:48+00:00	2020-06-27T11:11:48-07:00	2020-06-27T18:39:49+00:00	2020-06-30T06:59:59+00:00	-1	zmd6tyzp5l0gwqc@marketplace.amazon.com	lisa dubbert	+1 346-307-9643 ext. 06033	ABM0044	Purchase Now for Delivery by Wednesday | Arabella Farm Direct Bouquet of Fresh Cut Blue Hydrangea with a Free Glass Vase	1	0	1	SecondDay	Alexandra Madar	553 OAKVALE LN			MT JULIET	TN	37122-0615	US		Alex Sending you lots of love.  XOXO Lisa From Lisa Bray	false		
114-0562545-7346666	46648599463410	2020-06-27T18:26:09+00:00	2020-06-27T11:26:09-07:00	2020-06-27T18:50:43+00:00	2020-06-30T06:59:59+00:00	-1	zxl32ydp8j9x0ww@marketplace.amazon.com	Colleen Thoma	+1 314-282-9402 ext. 55071	ABR0033	Purchase Now for Delivery by Wednesday | Arabella Farm Direct Bouquet of 12 Fresh Cut Orange Roses with a Free Glass Vase	1	0	1	SecondDay	Kay Bursik	10274 COPPER LAKE DR			BOYNTON BEACH	FL	33437-5505	US		Happy Birthday! Enjoy your day.   Love, Colleen & Mike From Colleen Thoma	false		
111-0562958-8041803	46621658016538	2020-06-27T18:43:56+00:00	2020-06-27T11:43:56-07:00	2020-06-27T19:14:31+00:00	2020-07-01T06:59:59+00:00	-2	nr13kq54bfc5hbk@marketplace.amazon.com	Steven J. Fox	+1 314-282-9402 ext. 17147	ABM010	Arabella Bouquets | Fields of The World Bouquet of Fresh Cut Flowers in a Free Designer Glass Vase	1	0	1	Expedited	Steven J. Fox	963 SYCAMORE AVE			BOHEMIA	NY	11716-3518	US			false		
112-6514469-1861849	50355848805850	2020-06-27T19:00:45+00:00	2020-06-27T12:00:45-07:00	2020-06-27T19:28:12+00:00	2020-06-30T06:59:59+00:00	-1	11hh8t6l6mmf4yx@marketplace.amazon.com	shahla Assadi	+2406456563	ABR0066	Arabella Bouquets 18 Stems of Fresh Cut White Roses in a Free Designer Glass Vase	1	0	1	SecondDay	shahla Farhoodi	14404 LAKE WINDS WAY			NORTH POTOMAC	MD	20878-4309	US			false		
114-6689730-4437017	32899757985970	2020-06-27T19:12:07+00:00	2020-06-27T12:12:07-07:00	2020-06-27T19:39:58+00:00	2020-06-30T06:59:59+00:00	-1	gzgwgk1m4btnmlz@marketplace.amazon.com	Brooke	+1 346-307-9643 ext. 36044	ABM010	Arabella Bouquets | Fields of The World Bouquet of Fresh Cut Flowers in a Free Designer Glass Vase	1	0	1	SecondDay	Janie hazlet	925 VERNAL RD			MART	TX	76664-5402	US		I love you Grammy and may all the blessings God has for you come in tenfold today is the day that the lord has made and we will rejoice and be glad in it psalms 118:24 I love you so much From Brooke	false		
113-2018507-6014669	35959051568722	2020-06-27T19:41:22+00:00	2020-06-27T12:41:22-07:00	2020-06-27T20:06:32+00:00	2020-06-30T06:59:59+00:00	-1	z20wdphchd8z619@marketplace.amazon.com	bahman kaboli	+1 346-307-9643 ext. 10997	ABR0055	Purchase Now for Delivery by Wednesday | Arabella Farm Direct Bouquet of 12 Stems of Fresh Cut Hot Pink Roses in a Free Designer Glass Vase	1	0	1	SecondDay	Armita kaboli	706 N 188TH ST			SHORELINE	WA	98133-3905	US		Hi Armita, Enjoy your gift! From bahman kaboli	false		
112-9886115-1248236	52733138916882	2020-06-27T20:32:15+00:00	2020-06-27T13:32:15-07:00	2020-06-27T20:58:22+00:00	2020-06-30T06:59:59+00:00	-1	vb32dkn78wf3b08@marketplace.amazon.com	Natalie Kosydar	+1 346-307-9643 ext. 13755	ABR0022	Purchase Now for Delivery by Wednesday | Arabella Farm Direct Bouquet of 12 Fresh Cut Pink Roses with a Free Glass Vase	1	0	1	SecondDay	Dr. Mary Brand	217 FALCONHURST DR N			PITTSBURGH	PA	15238-2627	US		Love, From John, Patti, Martha, Karen, and Matt	false		
113-3945376-0735420	66409701429178	2020-06-27T20:36:57+00:00	2020-06-27T13:36:57-07:00	2020-06-27T20:59:52+00:00	2020-06-30T06:59:59+00:00	-1	dw4hx2r9yhz8c38@marketplace.amazon.com	Carol Crowley Condon	+1 346-307-9643 ext. 74212	ABR0066	Arabella Bouquets 18 Stems of Fresh Cut White Roses in a Free Designer Glass Vase	1	0	1	SecondDay	Mr and  Mrs H Johnston	320 CLEMENTS MILL TRCE			WILLIAMSBURG	VA	23185-5445	US			false		
112-6991682-2558658	69533389261570	2020-06-27T20:56:27+00:00	2020-06-27T13:56:27-07:00	2020-06-27T21:24:07+00:00	2020-07-01T06:59:59+00:00	-2	12v9dy3v1h0nlkh@marketplace.amazon.com	Marvin Horne	+1 346-307-9643 ext. 97188	ABM010	Arabella Bouquets | Fields of The World Bouquet of Fresh Cut Flowers in a Free Designer Glass Vase	1	0	1	Expedited	Alexa Ritz	3331 COSMOS AVE			SACRAMENTO	CA	95864-5603	US		I love you so much. Have faith in the love we always show each other. I promise all will be well! We got this ❤️ From Marvin Horne	false		
111-6696048-3093006	46158246964394	2020-06-27T21:12:55+00:00	2020-06-27T14:12:55-07:00	2020-06-27T21:39:25+00:00	2020-06-30T06:59:59+00:00	-1	vybcdk5lmwrmbbd@marketplace.amazon.com	Gabriel	+1 314-282-9402 ext. 63832	ABR004	Arabella Farm Direct Bouquet of 12 Fresh Cut Yellow Roses with a Free Glass Vase	1	0	1	SecondDay	Gabriel Mata	13724 Langstone Dr			Woodbridge	VA	22193-4302	US		Nichelle,  Happy Birthday! Love  Dad and Mom From Gabriel	false		
111-4191265-3973046	24571256174650	2020-06-27T21:12:53+00:00	2020-06-27T14:12:53-07:00	2020-06-27T21:40:13+00:00	2020-06-30T06:59:59+00:00	-1	l94sc2gnwn32h60@marketplace.amazon.com	Chris Mathison	+1 314-282-9402 ext. 82971	ABM010	Arabella Bouquets | Fields of The World Bouquet of Fresh Cut Flowers in a Free Designer Glass Vase	1	0	1	SecondDay	Emilie Larrivee	22 RACE LN			SANDWICH	MA	02563-2519	US			false		
112-3602820-6148255	53685943393450	2020-06-27T21:20:03+00:00	2020-06-27T14:20:03-07:00	2020-06-27T21:45:44+00:00	2020-06-30T06:59:59+00:00	-1	t0kxkfxwh6f3pnc@marketplace.amazon.com	Leslie Barnes	+1 346-307-9643 ext. 02409	ABR0055	Purchase Now for Delivery by Wednesday | Arabella Farm Direct Bouquet of 12 Stems of Fresh Cut Hot Pink Roses in a Free Designer Glass Vase	1	0	1	SecondDay	Lisa Vandenberge	5981 BLUEBELL LN			EVERGREEN	CO	80439-7641	US		Happy 50th Birthday my sweet friend. May your next 50 years bring you as much joy and love as you have provided too all of us in your first 50! Love you! From Leslie Barnes	false		
111-4478074-3474618	38218381809250	2020-06-27T21:25:29+00:00	2020-06-27T14:25:29-07:00	2020-06-27T21:55:19+00:00	2020-06-30T06:59:59+00:00	-1	5v5mjbh0gdzw5v4@marketplace.amazon.com	L Gephart Selland	+1 210-728-4548 ext. 34854	ABM010	Arabella Bouquets | Fields of The World Bouquet of Fresh Cut Flowers in a Free Designer Glass Vase	1	0	1	SecondDay	Pearl Knowles	3993 Cypress Reach Ct Apt 203			Pompano Beach	FL	33069-4923	US			false		
111-3702907-9193822	11349790546018	2020-06-27T21:44:48+00:00	2020-06-27T14:44:48-07:00	2020-06-27T22:14:48+00:00	2020-06-30T06:59:59+00:00	-1	slxl64kqhwn9x8w@marketplace.amazon.com	David Steinberg	+1 346-307-9643 ext. 60860	ABM010	Arabella Bouquets | Fields of The World Bouquet of Fresh Cut Flowers in a Free Designer Glass Vase	1	0	1	SecondDay	Bonnie Steinberg	20 CLOUGH RD			DEDHAM	MA	02026-2708	US			false		
112-9669199-8308254	54096188633682	2020-06-27T22:02:36+00:00	2020-06-27T15:02:36-07:00	2020-06-27T22:23:05+00:00	2020-06-30T06:59:59+00:00	-1	qsc82flm9c0nw08@marketplace.amazon.com	Richard Fairley	+1 346-307-9643 ext. 65109	ABR0033	Purchase Now for Delivery by Wednesday | Arabella Farm Direct Bouquet of 12 Fresh Cut Orange Roses with a Free Glass Vase	1	0	1	SecondDay	Trisha Fairley	1022 SAPPHIRE ST			SAN DIEGO	CA	92109-1862	US			false		
114-8109740-7392257	11586281286418	2020-06-27T22:11:47+00:00	2020-06-27T15:11:47-07:00	2020-06-27T22:46:18+00:00	2020-07-01T06:59:59+00:00	-2	dd2t6smxnjfc76v@marketplace.amazon.com	Shelly Carlson	+1 346-307-9643 ext. 58388	ABR0033	Purchase Now for Delivery by Wednesday | Arabella Farm Direct Bouquet of 12 Fresh Cut Orange Roses with a Free Glass Vase	1	0	1	Expedited	Drea Cole	62178 CHAROLAIS DR			MONTROSE	CO	81403-9626	US			false		
112-2564562-9781860	49387433840002	2020-06-27T22:19:24+00:00	2020-06-27T15:19:24-07:00	2020-06-27T22:49:19+00:00	2020-06-30T06:59:59+00:00	-1	vzc6ykkgy57rn1g@marketplace.amazon.com	Erica Jordan-Thomas	+1 346-307-9643 ext. 90171	ABM010	Arabella Bouquets | Fields of The World Bouquet of Fresh Cut Flowers in a Free Designer Glass Vase	1	0	1	SecondDay	Minnie Jordan	2551 QUEENIE M JOHNSON RD			LEXINGTON	MS	39095-8128	US		Happy birthday grandma! 🖤🖤🖤 From Erica Jordan-Thomas	false		
111-5529248-8289030	64347807681818	2020-06-27T22:25:25+00:00	2020-06-27T15:25:25-07:00	2020-06-27T23:04:40+00:00	2020-06-30T06:59:59+00:00	-1	3q44hb21tpm92y8@marketplace.amazon.com	Andrew lynd	+1 347-448-3190 ext. 68285	ABM010	Arabella Bouquets | Fields of The World Bouquet of Fresh Cut Flowers in a Free Designer Glass Vase	1	0	1	SecondDay	Andrew lynd	6363 ALGARD ST			PHILADELPHIA	PA	19135-3105	US			false		
114-8137715-0962641	34554025926866	2020-06-27T23:16:54+00:00	2020-06-27T16:16:54-07:00	2020-06-27T23:45:31+00:00	2020-06-30T06:59:59+00:00	-1	15jhw8yg7c4f7hh@marketplace.amazon.com	Ann Alton	+1 346-307-9643 ext. 31383	ABR001	Purchase Now for Delivery by Wednesday | Arabella Bouquets 12 Stems of Fresh Cut Red Roses in a Free Designer Glass Vase	1	0	1	SecondDay	Jane Clark	611 PENTECOST HWY			ONSTED	MI	49265-9605	US		Happy 80th! Love From Ann and Bill Alton	false		
113-4217268-5506638	44169052810786	2020-06-27T23:25:12+00:00	2020-06-27T16:25:12-07:00	2020-06-27T23:53:32+00:00	2020-06-30T06:59:59+00:00	-1	qm243hc6ct0r6pt@marketplace.amazon.com	Moise Pierre	+1 346-307-9643 ext. 43445	ABM010	Arabella Bouquets | Fields of The World Bouquet of Fresh Cut Flowers in a Free Designer Glass Vase	1	0	1	SecondDay	Bonnie Cherise Crosby	123 ELM ST  3C			QUINCY	MA	02169-5439	US			false		
114-9058049-9134626	30906735676602	2020-06-27T23:07:20+00:00	2020-06-27T16:07:20-07:00	2020-06-28T00:13:25+00:00	2020-07-01T06:59:59+00:00	-2	gh2mpqvzbdhn848@marketplace.amazon.com	Rosanna fini	+1 346-307-9643 ext. 31588	ABM010	Arabella Bouquets | Fields of The World Bouquet of Fresh Cut Flowers in a Free Designer Glass Vase	1	0	1	Expedited	Samantha Fini & Mauricio Torres	23 COLFAX AVE			WANAQUE	NJ	07465-1309	US		Samantha & Mauricio  Congratulations! Love Grandpa & Aunt Ro	false		
111-2756080-3703448	07687771973986	2020-06-28T00:23:00+00:00	2020-06-27T17:23:00-07:00	2020-06-28T00:52:06+00:00	2020-06-30T06:59:59+00:00	-1	33s874hf68vhgy6@marketplace.amazon.com	Johann Reichl	+1 346-307-9643 ext. 65725	ABR0022	Purchase Now for Delivery by Wednesday | Arabella Farm Direct Bouquet of 12 Fresh Cut Pink Roses with a Free Glass Vase	1	0	1	SecondDay	Rebeca King	7403 VICTORIA CIR			ORLANDO	FLORIDA	32835-6012	US			false		
114-9120615-4324202	34550444532370	2020-06-28T00:24:02+00:00	2020-06-27T17:24:02-07:00	2020-06-28T00:53:44+00:00	2020-06-30T06:59:59+00:00	-1	sm2bhc68rwh9110@marketplace.amazon.com	Kathy Davis	+1 346-307-9643 ext. 85997	ABR0022	Purchase Now for Delivery by Wednesday | Arabella Farm Direct Bouquet of 12 Fresh Cut Pink Roses with a Free Glass Vase	1	0	1	SecondDay	Kathy Davis	88 Granada Drive			White Rock	NM	87547	US			false		
112-9841339-2045029	32868692866106	2020-06-28T00:53:11+00:00	2020-06-27T17:53:11-07:00	2020-06-28T00:55:13+00:00	2020-06-30T06:59:59+00:00	-1	lmzs8n4x533cvxq@marketplace.amazon.com	Cassandra Forde	+1 346-307-9643 ext. 07953	ABR0066	Arabella Bouquets 18 Stems of Fresh Cut White Roses in a Free Designer Glass Vase	1	0	1	SecondDay	Lenroy Gibson	399 PLANTATION WAY APT 1202			MACON	GA	31210-9290	US			false		
114-2413534-1014635	04176529011682	2020-06-28T00:51:41+00:00	2020-06-27T17:51:41-07:00	2020-06-28T01:25:12+00:00	2020-06-30T06:59:59+00:00	-1	xm097clwxp43m3r@marketplace.amazon.com	helen	+1 346-307-9643 ext. 15305	ABR0022	Purchase Now for Delivery by Wednesday | Arabella Farm Direct Bouquet of 12 Fresh Cut Pink Roses with a Free Glass Vase	1	0	1	SecondDay	han yu jia	22 CROTON ST			WELLESLEY	MA	02481-3124	US			false		
111-9815571-0683409	53955057826754	2020-06-28T01:06:46+00:00	2020-06-27T18:06:46-07:00	2020-06-28T01:29:38+00:00	2020-06-30T06:59:59+00:00	-1	3xm3rmxydwf4pvm@marketplace.amazon.com	Adrienne DeLuca	+1 346-307-9643 ext. 11766	ABR012	Purchase Now for Delivery by Wednesday | Arabella Farm Direct Bouquet of 18 Fresh Cut Pink Roses with a Free Glass Vase	1	0	1	SecondDay	Leslie Rogers	264 NEWTOWN TPKE			WESTON	CT	06883-1328	US		Dear Leslie,  Happy Birthday! Enjoy, relax and smell the roses!  Love, Adrienne and Greg From Adrienne DeLuca	false		
112-4816356-3982640	17740179388426	2020-06-28T01:08:55+00:00	2020-06-27T18:08:55-07:00	2020-06-28T01:38:28+00:00	2020-06-30T06:59:59+00:00	-1	8xkmgxjv5c38hhj@marketplace.amazon.com	Reginald Knight Jr.	+1 346-307-9643 ext. 24713	ABM010	Arabella Bouquets | Fields of The World Bouquet of Fresh Cut Flowers in a Free Designer Glass Vase	1	0	1	SecondDay	Martina Ajaegbo	8025 GREENBELT STATION PKWY			GREENBELT	MD	20770-4076	US			false		
114-0258515-6884231	17658733992866	2020-06-28T01:09:45+00:00	2020-06-27T18:09:45-07:00	2020-06-28T01:40:18+00:00	2020-06-30T06:59:59+00:00	-1	699txrdx0gtz405@marketplace.amazon.com	Sara Liburd	+1 314-282-9402 ext. 54273	ABM010	Arabella Bouquets | Fields of The World Bouquet of Fresh Cut Flowers in a Free Designer Glass Vase	1	0	1	SecondDay	Joan Nicol and Michael Melkovic	4 INDIGO RUN DR APT 1421			HILTON HEAD	SC	29926-4114	US			false		
111-3571610-4492255	05230670601898	2020-06-28T02:56:37+00:00	2020-06-27T19:56:37-07:00	2020-06-28T03:27:04+00:00	2020-06-30T06:59:59+00:00	-1	w468lp2lmkystrv@marketplace.amazon.com	scott doyle	+1 314-282-9402 ext. 91119	ABR001	Purchase Now for Delivery by Wednesday | Arabella Bouquets 12 Stems of Fresh Cut Red Roses in a Free Designer Glass Vase	1	0	1	SecondDay	Christina allen	12318 ALAMEDA AVE SW			LAKEWOOD	WA	98498-2405	US			false		
112-8562445-3071421	18281930697226	2020-06-28T03:37:15+00:00	2020-06-27T20:37:15-07:00	2020-06-28T04:04:32+00:00	2020-07-01T06:59:59+00:00	-2	n0f98xyvmpkftk2@marketplace.amazon.com	James  Farrington	+1 347-448-3190 ext. 91965	ABM010	Arabella Bouquets | Fields of The World Bouquet of Fresh Cut Flowers in a Free Designer Glass Vase	1	0	1	Expedited	Cindy Campbell	9373 CADENCIA CT			ATASCADERO	CA	93422-6642	US		Hi Cindy, To make you smile!  JF	false		
111-9450953-1329023	54903301920498	2020-06-28T03:39:11+00:00	2020-06-27T20:39:11-07:00	2020-06-28T04:07:24+00:00	2020-06-30T06:59:59+00:00	-1	gftqkz6wf57ky2c@marketplace.amazon.com	Natasha Maynard	+1 346-307-9643 ext. 31989	ABR004	Arabella Farm Direct Bouquet of 12 Fresh Cut Yellow Roses with a Free Glass Vase	1	0	1	SecondDay	Donna Maynard	621 W MIDDLE ST			CHELSEA	MI	48118-1344	US		Happy birthday. Miss you and love you grandma. From CJ Maynard	false		
114-9576394-0801852	07123870409618	2020-06-28T04:14:09+00:00	2020-06-27T21:14:09-07:00	2020-06-28T04:42:12+00:00	2020-06-30T06:59:59+00:00	-1	lql6rwppwxmj9l1@marketplace.amazon.com	David Nyitrai	+1 346-307-9643 ext. 27660	ABM010	Arabella Bouquets | Fields of The World Bouquet of Fresh Cut Flowers in a Free Designer Glass Vase	1	0	1	SecondDay	Georgina Bihari	8031 PAINESVILLE RAVENNA RD			PAINESVILLE	OH	44077-9789	US		Happy Birthday, Gyorgyi!!! I hope you have an awesome day! From David	false		
112-0932269-8462662	03908356417210	2020-06-28T06:22:00+00:00	2020-06-27T23:22:00-07:00	2020-06-28T06:51:51+00:00	2020-06-30T06:59:59+00:00	-1	d006khdsvl912np@marketplace.amazon.com	EJ FOLSE	+1 314-282-9402 ext. 48033	ABR0022	Purchase Now for Delivery by Wednesday | Arabella Farm Direct Bouquet of 12 Fresh Cut Pink Roses with a Free Glass Vase	1	0	1	SecondDay	MISS LAUREN FOLSE	5637 CLAY RIDGE RD			N LAS VEGAS	NV	89031-1408	US			false		
111-2940410-1636204	64396082343362	2020-06-28T09:22:13+00:00	2020-06-28T02:22:13-07:00	2020-06-28T09:51:16+00:00	2020-06-30T06:59:59+00:00	-1	cdsz82d7278x5kr@marketplace.amazon.com	Charlet R. Kelly	+1 347-448-3190 ext. 29940	ABR0022	Purchase Now for Delivery by Wednesday | Arabella Farm Direct Bouquet of 12 Fresh Cut Pink Roses with a Free Glass Vase	1	0	1	SecondDay	Tracie Ho	20308 MADISON ST APT 38			TORRANCE	CA	90503-2547	US		Happy Birthday Tracie! We Love you! From Cassi and Char	false		
112-3362645-8406651	40836834215858	2020-06-28T10:40:57+00:00	2020-06-28T03:40:57-07:00	2020-06-28T11:09:41+00:00	2020-06-30T06:59:59+00:00	-1	037g4jfm3nqcylv@marketplace.amazon.com	tara anzalone	+1 314-282-9402 ext. 16736	ABR0022	Purchase Now for Delivery by Wednesday | Arabella Farm Direct Bouquet of 12 Fresh Cut Pink Roses with a Free Glass Vase	1	0	1	SecondDay	Allison Acura	139 ROLLSTONE AVE			WEST SAYVILLE	NY	11796-1308	US		Hi Allison,    Miss you  Prayers and love your way Tara and Francesca Anzalone	false		
113-9404383-6259422	63997056179882	2020-06-28T11:18:43+00:00	2020-06-28T04:18:43-07:00	2020-06-28T11:44:35+00:00	2020-06-30T06:59:59+00:00	-1	bwycd3dm95l1lcw@marketplace.amazon.com	Michiel Tange	+1 346-307-9643 ext. 04834	ABR012	Purchase Now for Delivery by Wednesday | Arabella Farm Direct Bouquet of 18 Fresh Cut Pink Roses with a Free Glass Vase	1	0	1	SecondDay	Samantha R White	11 FAIRWOOD RD			MADISON	NJ	07940-1402	US		Happy birthday little bunny! <3  And congratulations on landing a job! I'm so proud of you <3  I love you!!! From Michiel Tange	false		
112-1751286-3245848	62294516570386	2020-06-28T12:15:41+00:00	2020-06-28T05:15:41-07:00	2020-06-28T12:44:27+00:00	2020-06-30T06:59:59+00:00	-1	1vwp3wq1hfxy3x6@marketplace.amazon.com	John Wall	+1 314-282-9402 ext. 94136	ABR001	Purchase Now for Delivery by Wednesday | Arabella Bouquets 12 Stems of Fresh Cut Red Roses in a Free Designer Glass Vase	1	0	1	SecondDay	John Wall	190 BOSTON ST			MIDDLETON	MA	01949-2107	US		Enjoy your gift! From John Wall	false		
113-2899503-0312233	69255645441658	2020-06-28T12:59:53+00:00	2020-06-28T05:59:53-07:00	2020-06-28T13:26:07+00:00	2020-06-30T06:59:59+00:00	-1	fc2s9k0pcj6svgk@marketplace.amazon.com	Awesome Family Entertainment	+1 346-307-9643 ext. 03247	ABR0022	Purchase Now for Delivery by Wednesday | Arabella Farm Direct Bouquet of 12 Fresh Cut Pink Roses with a Free Glass Vase	1	0	1	SecondDay	Awesome Family Entertainment	VIRGINIA MARSHALL	1250 MEMORY LN N		COLUMBUS	OH	43209-2749	US			true		
111-9269408-3302655	56371071277418	2020-06-28T14:25:48+00:00	2020-06-28T07:25:48-07:00	2020-06-28T14:55:22+00:00	2020-06-30T06:59:59+00:00	-1	9281lrx7dcvjmhn@marketplace.amazon.com	zachary	+1 346-307-9643 ext. 05971	ABR0022	Purchase Now for Delivery by Wednesday | Arabella Farm Direct Bouquet of 12 Fresh Cut Pink Roses with a Free Glass Vase	1	0	1	SecondDay	Amy Ackershoek	82 BALD CYPRESS CT			PAWLEYS ISLAND	SC	29585-8456	US		Thinking about you. I can’t wait to see you, I miss you so much. Love you to the moon and back! From Zachary	false		
113-8023465-9294652	46393419237426	2020-06-28T14:31:33+00:00	2020-06-28T07:31:33-07:00	2020-06-28T15:01:43+00:00	2020-07-01T06:59:59+00:00	-2	x8x6y2fqhb1x7wb@marketplace.amazon.com	Phyllis A Burge	+1 346-307-9643 ext. 72414	ABM010	Arabella Bouquets | Fields of The World Bouquet of Fresh Cut Flowers in a Free Designer Glass Vase	1	0	1	Expedited	Margo Watts /Bethany Home	321 N CHESTNUT ST			LINDSBORG	KS	67456-1904	US			false		
113-2792744-1177031	38583881211114	2020-06-28T14:45:29+00:00	2020-06-28T07:45:29-07:00	2020-06-28T15:14:13+00:00	2020-06-30T06:59:59+00:00	-1	7bn6969yvf443l4@marketplace.amazon.com	Luanne Coury	+1 314-282-9402 ext. 93003	ABR0022	Purchase Now for Delivery by Wednesday | Arabella Farm Direct Bouquet of 12 Fresh Cut Pink Roses with a Free Glass Vase	1	0	1	SecondDay	Paige Kayfus	4949 North West	108 Terrace		Coral Springs	Fl	33086	US		Happy Birthday! From Luanne Coury	false		
114-8492611-0070645	16094883806426	2020-06-28T14:58:57+00:00	2020-06-28T07:58:57-07:00	2020-06-28T15:29:29+00:00	2020-06-30T06:59:59+00:00	-1	r9n2jsjy4jl39mr@marketplace.amazon.com	Neville R Beilby	+1 346-307-9643 ext. 62986	ABR0022	Purchase Now for Delivery by Wednesday | Arabella Farm Direct Bouquet of 12 Fresh Cut Pink Roses with a Free Glass Vase	1	0	1	SecondDay	Gareth & Cynthia Beilby	2723 CHERRY HILLS DR			DISCOVERY BAY	CA	94505-1424	US			false		
114-6340930-2925009	19109708472170	2020-06-28T15:18:58+00:00	2020-06-28T08:18:58-07:00	2020-06-28T15:46:52+00:00	2020-06-30T06:59:59+00:00	-1	xj5mlycrtrzw2pq@marketplace.amazon.com	marla music	+1 346-307-9643 ext. 62606	ABR0022	Purchase Now for Delivery by Wednesday | Arabella Farm Direct Bouquet of 12 Fresh Cut Pink Roses with a Free Glass Vase	1	0	1	SecondDay	Robin Trimble	269 LONG POINT DR			FREDERICKSBURG	VA	22406-5450	US		Flowers make all things sweeter....love, Marla and Alan From marla music	false		
114-5584612-9746618	10163940315002	2020-06-28T16:01:01+00:00	2020-06-28T09:01:01-07:00	2020-06-28T16:25:18+00:00	2020-06-30T06:59:59+00:00	-1	p9cdy1c6052py4t@marketplace.amazon.com	Matt Cudnik	+1 346-307-9643 ext. 98935	ABM010	Arabella Bouquets | Fields of The World Bouquet of Fresh Cut Flowers in a Free Designer Glass Vase	1	0	1	SecondDay	Lucia Beltrani	303 WEDGEWOOD TER			SYRACUSE	NY	13214-1543	US		It  was so nice to see you!   Thank you so much for your hospitality! From Sherri, Matt, Sarah & Jake	false		
113-8427427-0913053	64137065757106	2020-06-28T16:20:22+00:00	2020-06-28T09:20:22-07:00	2020-06-28T16:50:25+00:00	2020-06-30T06:59:59+00:00	-1	4gb9r472hhqr08n@marketplace.amazon.com	Raymond Johnson	+1 346-307-9643 ext. 47000	ABR0022	Purchase Now for Delivery by Wednesday | Arabella Farm Direct Bouquet of 12 Fresh Cut Pink Roses with a Free Glass Vase	1	0	1	SecondDay	Raymond Johnson	14021 braile			Detroit	Michigan	48223	US			false		
112-1529240-4285800	67632511476162	2020-06-28T16:25:52+00:00	2020-06-28T09:25:52-07:00	2020-06-28T16:55:04+00:00	2020-06-30T06:59:59+00:00	-1	qhq4xbmd42yczvt@marketplace.amazon.com	Nancy Nichols	+1 346-307-9643 ext. 95372	ABR004	Arabella Farm Direct Bouquet of 12 Fresh Cut Yellow Roses with a Free Glass Vase	1	0	1	SecondDay	Chantelle Ritchie	14 GOOSETOWN DR			CLINTON	NJ	08809-2603	US		The future is bright and sunny! From Love, Nanci	false		
113-8042257-9198609	12091034933090	2020-06-28T16:29:24+00:00	2020-06-28T09:29:24-07:00	2020-06-28T17:00:02+00:00	2020-07-01T06:59:59+00:00	-2	wtg964gnp0trww3@marketplace.amazon.com	Summer	+1 346-307-9643 ext. 37220	ABR004	Arabella Farm Direct Bouquet of 12 Fresh Cut Yellow Roses with a Free Glass Vase	1	0	1	Expedited	Summer	1024 METCALF ST			ESCONDIDO	CA	92026-2302	US			false		
114-5690186-4197035	46035412534506	2020-06-28T16:34:26+00:00	2020-06-28T09:34:26-07:00	2020-06-28T17:01:23+00:00	2020-06-30T06:59:59+00:00	-1	vbg2n8n9dt1mh3r@marketplace.amazon.com	Nancy Walker	+1 210-728-4548 ext. 34512	ABR0022	Purchase Now for Delivery by Wednesday | Arabella Farm Direct Bouquet of 12 Fresh Cut Pink Roses with a Free Glass Vase	1	0	1	SecondDay	Laura Lazechko	7333 SPRUCE HILL CT			O FALLON	MO	63368-8674	US		Happiest of birthdays to our dear friend May the decade to come be the best ever From Love Nancy and Bill	false		
111-0766800-6006666	59409494761482	2020-06-28T16:45:59+00:00	2020-06-28T09:45:59-07:00	2020-06-28T17:13:05+00:00	2020-06-30T06:59:59+00:00	-1	sf1x5q687vrrrf6@marketplace.amazon.com	Priya Ravi	+1 346-307-9643 ext. 40706	ABR001	Purchase Now for Delivery by Wednesday | Arabella Bouquets 12 Stems of Fresh Cut Red Roses in a Free Designer Glass Vase	1	0	1	SecondDay	SUJATHA SURESH	52 FOUNTAYNE LN			LAWRENCE TOWNSHIP	NJ	08648-2672	US			false		
112-0161923-6823461	57827079276554	2020-06-28T16:40:44+00:00	2020-06-28T09:40:44-07:00	2020-06-28T17:15:17+00:00	2020-06-30T06:59:59+00:00	-1	n6pthqzpdwc7ng3@marketplace.amazon.com	Alba	+1 346-307-9643 ext. 38104	ABR0055	Purchase Now for Delivery by Wednesday | Arabella Farm Direct Bouquet of 12 Stems of Fresh Cut Hot Pink Roses in a Free Designer Glass Vase	1	0	1	SecondDay	Vanessa Ugarte	5413 SHEFFIELD CT APT 153			ALEXANDRIA	VA	22311-5413	US			false		
114-9825720-4513034	14178722867138	2020-06-28T16:57:09+00:00	2020-06-28T09:57:09-07:00	2020-06-28T17:17:24+00:00	2020-06-30T06:59:59+00:00	-1	0br0630xbpw9773@marketplace.amazon.com	Sheila Warner	+1 346-307-9643 ext. 65841	ABR0055	Purchase Now for Delivery by Wednesday | Arabella Farm Direct Bouquet of 12 Stems of Fresh Cut Hot Pink Roses in a Free Designer Glass Vase	1	0	1	SecondDay	Muriel Bridell	6505 N 17TH ST			PHILADELPHIA	PA	19126-3515	US		I pray that God’s will and spirit of love— and peace —fall fresh upon both you and your mother. Prayerfully, Sheila From Sheila Warner	false		
111-3759599-9953020	41836166731786	2020-06-28T17:11:02+00:00	2020-06-28T10:11:02-07:00	2020-06-28T17:40:11+00:00	2020-06-30T06:59:59+00:00	-1	xstxs4c0pc8myjb@marketplace.amazon.com	Larry Cleveland	+1 346-307-9643 ext. 98565	ABR0055	Purchase Now for Delivery by Wednesday | Arabella Farm Direct Bouquet of 12 Stems of Fresh Cut Hot Pink Roses in a Free Designer Glass Vase	1	0	1	SecondDay	Larry Cleveland	229 HOLLINGSWORTH BLVD			MIDWAY	GA	31320-4398	US			false		
111-0781075-8665815	34079958126706	2020-06-28T17:35:51+00:00	2020-06-28T10:35:51-07:00	2020-06-28T17:56:36+00:00	2020-06-30T06:59:59+00:00	-1	gvy3s1v7tm74c6y@marketplace.amazon.com	Tim	+1 346-307-9643 ext. 88478	ABR0055	Purchase Now for Delivery by Wednesday | Arabella Farm Direct Bouquet of 12 Stems of Fresh Cut Hot Pink Roses in a Free Designer Glass Vase	1	0	1	SecondDay	Gina	216 UNION ST			UNION MILLS	IN	46382-7001	US		The smallest word is I, the sweetest word is Love and the dearest person in the world is you. that’s why I Love You From Tim	false		
111-2695564-6369826	26510579166970	2020-06-28T17:48:05+00:00	2020-06-28T10:48:05-07:00	2020-06-28T18:16:10+00:00	2020-06-30T06:59:59+00:00	-1	nqcmvknh6mzcdy0@marketplace.amazon.com	Amrit	+1 346-307-9643 ext. 68096	ABR0022	Purchase Now for Delivery by Wednesday | Arabella Farm Direct Bouquet of 12 Fresh Cut Pink Roses with a Free Glass Vase	1	0	1	SecondDay	Harpreet Kaur Randhawa	14307 SW COMPASS DR			BEAVERTON	OR	97005-2320	US			false		
111-3615603-2890654	06831006618826	2020-06-28T17:52:31+00:00	2020-06-28T10:52:31-07:00	2020-06-28T18:18:38+00:00	2020-06-30T06:59:59+00:00	-1	579jylr8sn8y3dk@marketplace.amazon.com	Cara Rabatin	+1 210-728-4548 ext. 98452	ABR0022	Purchase Now for Delivery by Wednesday | Arabella Farm Direct Bouquet of 12 Fresh Cut Pink Roses with a Free Glass Vase	1	0	1	SecondDay	Breanna Keyes	100 WOODVIEW WAY APT 1430			FRANKLIN	MA	02038-4531	US		Welcome back to good ole New England, and congrats on the start of your career! Kill it for me, babe! Love, Cara & Ellison From Cara Rabatin	false		
114-7674271-8935409	14437904968386	2020-06-28T17:46:15+00:00	2020-06-28T10:46:15-07:00	2020-06-28T18:20:12+00:00	2020-06-30T06:59:59+00:00	-1	bw5v3ltp5l1p06n@marketplace.amazon.com	Scott	+1 210-728-4548 ext. 28892	ABR004	Arabella Farm Direct Bouquet of 12 Fresh Cut Yellow Roses with a Free Glass Vase	1	0	1	SecondDay	Scott Bordeaux	4344 SW WASHOUGA AVE			PORTLAND	OR	97239-1392	US			false		
113-2805753-8037027	21384024349170	2020-06-28T18:12:11+00:00	2020-06-28T11:12:11-07:00	2020-06-28T18:41:33+00:00	2020-06-30T06:59:59+00:00	-1	ht9lqpm01hnfwhs@marketplace.amazon.com	Paul Williams	+1 346-307-9643 ext. 34090	ABR001	Purchase Now for Delivery by Wednesday | Arabella Bouquets 12 Stems of Fresh Cut Red Roses in a Free Designer Glass Vase	1	0	1	SecondDay	Cynthia Cain	100 5TH ST STE 520			BRISTOL	TN	37620-5919	US		Can't wait to see you again. I feel like a kid in love all over again. Thank you!! From Paul Williams	false		
114-9829868-0478633	46264071144978	2020-06-28T19:01:38+00:00	2020-06-28T12:01:38-07:00	2020-06-28T19:25:15+00:00	2020-06-30T06:59:59+00:00	-1	5v5ss2s3nxcqswd@marketplace.amazon.com	Shoreh Saedi	+1 346-307-9643 ext. 15560	ABR014	Arabella Bouquets 18 Stems of Fresh Cut White Roses in a Free Designer Glass Vase	1	0	1	SecondDay	Sara Saedi	2235 MORENO DR			LOS ANGELES	CA	90039-3062	US			false		
111-5248595-8812236	46295513254282	2020-06-28T19:02:32+00:00	2020-06-28T12:02:32-07:00	2020-06-28T19:31:59+00:00	2020-06-30T06:59:59+00:00	-1	rg3x70v8xcxn8c0@marketplace.amazon.com	Maureen Hudas	+1 314-282-9402 ext. 10193	ABR0055	Purchase Now for Delivery by Wednesday | Arabella Farm Direct Bouquet of 12 Stems of Fresh Cut Hot Pink Roses in a Free Designer Glass Vase	1	0	1	SecondDay	Terry Hayden	8122 W FLAMINGO RD UNIT 40			LAS VEGAS	NV	89147-4211	US			false		
111-0029917-5289030	67632409531994	2020-06-28T19:24:37+00:00	2020-06-28T12:24:37-07:00	2020-06-28T19:47:28+00:00	2020-06-30T06:59:59+00:00	-1	mmpsqqjqrxk2n4b@marketplace.amazon.com	James	+1 346-307-9643 ext. 59274	ABM010	Arabella Bouquets | Fields of The World Bouquet of Fresh Cut Flowers in a Free Designer Glass Vase	1	0	1	SecondDay	Stacey Trimmer	648 DOLPHIN RD			FRIPP ISLAND	SC	29920-7302	US		Thinking of you :)  James	false		
111-1818609-4252209	04143480205282	2020-06-28T19:24:06+00:00	2020-06-28T12:24:06-07:00	2020-06-28T19:52:23+00:00	2020-06-30T06:59:59+00:00	-1	b2rblck9ptlcsh1@marketplace.amazon.com	Nancy dulemba	+1 346-307-9643 ext. 23142	ABR0055	Purchase Now for Delivery by Wednesday | Arabella Farm Direct Bouquet of 12 Stems of Fresh Cut Hot Pink Roses in a Free Designer Glass Vase	1	0	1	SecondDay	Krista cunningham	12023 S RICHARD AVE			PALOS HEIGHTS	IL	60463-1136	US			false		
111-1003717-5081811	43923972403066	2020-06-28T19:41:26+00:00	2020-06-28T12:41:26-07:00	2020-06-28T20:09:12+00:00	2020-06-30T06:59:59+00:00	-1	ft74qdv88dg9hfb@marketplace.amazon.com	Marcos	+1 210-728-4548 ext. 00394	ABR0022	Purchase Now for Delivery by Wednesday | Arabella Farm Direct Bouquet of 12 Fresh Cut Pink Roses with a Free Glass Vase	1	0	1	SecondDay	Marcos	3863 HIGHLAND AVE UNIT 7			SAN DIEGO	CA	92105-2757	US		Enjoy your gift! Te amo mucho mamá eres la persona más importante en mi vida Dios te bendiga siempre mamá Angelica❤️ From Marcos	false		
111-7493333-7979453	59367256756530	2020-06-28T19:50:16+00:00	2020-06-28T12:50:16-07:00	2020-06-28T20:12:03+00:00	2020-06-30T06:59:59+00:00	-1	lm5hgz6hk4yw1qs@marketplace.amazon.com	trish crowder	+1 346-307-9643 ext. 11717	ABR0055	Purchase Now for Delivery by Wednesday | Arabella Farm Direct Bouquet of 12 Stems of Fresh Cut Hot Pink Roses in a Free Designer Glass Vase	1	0	1	SecondDay	Marie Dekkers Discovery Village	8417 SIERRA MEADOWS BLVD APT 105			NAPLES	FL	34113-7369	US		Because you're special and always in my heart. Love Trish From trish crowder	false		
113-7766804-8777820	57772109572578	2020-06-28T20:10:04+00:00	2020-06-28T13:10:04-07:00	2020-06-28T20:39:07+00:00	2020-06-30T06:59:59+00:00	-1	tt2k52763n37tsp@marketplace.amazon.com	Giggles	+1 346-307-9643 ext. 74424	ABM0033	Purchase Now for Delivery by Wednesday | Arabella Farm Direct Bouquet of Fresh Cut White Hydrangea with a Free Glass Vase	1	0	1	SecondDay	Rick & Judith	1130 DARIA DR			HOUSTON	TX	77079-5026	US		Dear Judith, We are sending you a smile. :) Love, From Chris & Marty	false		
113-6214231-0513011	24885350716746	2020-06-28T20:13:26+00:00	2020-06-28T13:13:26-07:00	2020-06-28T20:43:24+00:00	2020-06-30T06:59:59+00:00	-1	bbfnzfdgmg3pk3s@marketplace.amazon.com	Martin Guzman	+1 347-448-3190 ext. 27956	ABM0033	Purchase Now for Delivery by Wednesday | Arabella Farm Direct Bouquet of Fresh Cut White Hydrangea with a Free Glass Vase	1	0	1	SecondDay	Martin Guzman	10746 CACTUS WAY			HELOTES	TX	78023-3542	US			false		
113-4882819-3241837	20169143272010	2020-06-28T20:44:34+00:00	2020-06-28T13:44:34-07:00	2020-06-28T21:05:16+00:00	2020-06-30T06:59:59+00:00	-1	1jh33qxfbb7cbyw@marketplace.amazon.com	Juana Baez Martinez	+1 346-307-9643 ext. 59254	ABM002	Purchase Now for Delivery by Wednesday | Arabella Bouquets Fresh Cut White Calla Lilies in a Free Designer Glass Vase	1	0	1	SecondDay	Elvis Campos	308 E STERNER ST			PHILADELPHIA	PA	19134-3318	US		Condolences and prayers for you and your family on the passing of your brother. From Your neighbor across the street and his girlfriend in 308.	false		
114-8282548-1437819	53037547929442	2020-06-28T20:46:35+00:00	2020-06-28T13:46:35-07:00	2020-06-28T21:15:25+00:00	2020-06-30T06:59:59+00:00	-1	bg5dqs4vjww2qxj@marketplace.amazon.com	Barbara Bell-Coles	+1 346-307-9643 ext. 43910	ABR004	Arabella Farm Direct Bouquet of 12 Fresh Cut Yellow Roses with a Free Glass Vase	1	0	1	SecondDay	Vivian Smith	2519 S 75TH ST			PHILADELPHIA	PA	19153-1401	US		Happy Birthday!!!  You don't look a day over FABULOUS!!  Love you, --Barbara From Barbara Bell-Coles	false		
112-8965945-5417038	03060971280130	2020-06-28T20:52:28+00:00	2020-06-28T13:52:28-07:00	2020-06-28T21:21:43+00:00	2020-06-30T06:59:59+00:00	-1	4j67ws3czmhnybk@marketplace.amazon.com	Scott Grout	+1 346-307-9643 ext. 95465	ABR0055	Purchase Now for Delivery by Wednesday | Arabella Farm Direct Bouquet of 12 Stems of Fresh Cut Hot Pink Roses in a Free Designer Glass Vase	1	0	1	SecondDay	Roberta and Ed Grout	2743 BROWN BEAR TRL			COOL	CA	95614-2409	US		Happy 60th Anniversary, Mom & Dad! Love, Scott, Mary, Megan, Chris, Nick & Haley From Scott Grout	false		
111-9734072-3701037	21067510849842	2020-06-28T20:55:22+00:00	2020-06-28T13:55:22-07:00	2020-06-28T21:22:11+00:00	2020-06-30T06:59:59+00:00	-1	5l90fnjhlydjsvj@marketplace.amazon.com	Marcus Johnson	+1 346-307-9643 ext. 76536	ABR0022	Purchase Now for Delivery by Wednesday | Arabella Farm Direct Bouquet of 12 Fresh Cut Pink Roses with a Free Glass Vase	1	0	1	SecondDay	Alice Sim	4717 E CALLE REDONDA			PHOENIX	AZ	85018-2908	US			false		
113-5773995-3833839	34878413291658	2020-06-28T21:19:02+00:00	2020-06-28T14:19:02-07:00	2020-06-28T21:46:50+00:00	2020-06-30T06:59:59+00:00	-1	5dvb97v2jwjhxp2@marketplace.amazon.com	Kevin Feng	+1 314-282-9402 ext. 27862	ABR0022	Purchase Now for Delivery by Wednesday | Arabella Farm Direct Bouquet of 12 Fresh Cut Pink Roses with a Free Glass Vase	1	0	1	SecondDay	Sheena and David	6 HORIZON RD			GREAT NECK	NY	11020-1142	US		Happy 20th Anniversary ❤️ From Henry and Elaine	false		
113-3147108-4505816	44953727894138	2020-06-28T21:29:31+00:00	2020-06-28T14:29:31-07:00	2020-06-28T21:57:37+00:00	2020-06-30T06:59:59+00:00	-1	kvsgkmx8xk7db91@marketplace.amazon.com	Jerry Alban	+1 346-307-9643 ext. 25598	ABR001	Purchase Now for Delivery by Wednesday | Arabella Bouquets 12 Stems of Fresh Cut Red Roses in a Free Designer Glass Vase	1	0	1	SecondDay	Kathy Krell	1362 JAMESTOWN RD			SEQUIM	WA	98382-8935	US			false		
111-3315236-0289054	34601770499978	2020-06-28T21:55:28+00:00	2020-06-28T14:55:28-07:00	2020-06-28T22:21:05+00:00	2020-06-30T06:59:59+00:00	-1	3cyy4nz1q2x83mv@marketplace.amazon.com	Helen  allison	+1 346-307-9643 ext. 39032	ABR0022	Purchase Now for Delivery by Wednesday | Arabella Farm Direct Bouquet of 12 Fresh Cut Pink Roses with a Free Glass Vase	1	0	1	SecondDay	Allison allison	5524 GRAND SUMMIT DR			BROOKSVILLE	FL	34601-6657	US		Happy Birthday Helen.    And many more  Love. Basil & Christo From Basil	false		
113-7600759-4516202	12567127688834	2020-06-28T22:06:26+00:00	2020-06-28T15:06:26-07:00	2020-06-28T22:33:14+00:00	2020-07-01T06:59:59+00:00	-2	2q8bszbz1gpd90k@marketplace.amazon.com	april g. pugh	+1 346-307-9643 ext. 75089	ABR0055	Purchase Now for Delivery by Wednesday | Arabella Farm Direct Bouquet of 12 Stems of Fresh Cut Hot Pink Roses in a Free Designer Glass Vase	1	0	1	Expedited	Geraldine Pugh	2446 LODGE FARM RD			SPARROWS POINT	MD	21219-1936	US		We are sending you roses for our Anniversary!  To cheer you up!  We LOVE you.  Enjoy!  April and Harry. From april g. pugh	false		
111-4967535-1320221	38834086811322	2020-06-28T22:24:32+00:00	2020-06-28T15:24:32-07:00	2020-06-28T22:51:04+00:00	2020-06-30T06:59:59+00:00	-1	ptx33t1h666fj7j@marketplace.amazon.com	Amanda W Rabalais	+1 346-307-9643 ext. 14864	ABR0022	Purchase Now for Delivery by Wednesday | Arabella Farm Direct Bouquet of 12 Fresh Cut Pink Roses with a Free Glass Vase	1	0	1	SecondDay	Brittany Wheat	14011 WESTCREEK DR			GONZALES	LA	70737-7156	US		Happy happy Birthday Brittany! From Amanda W Rabalais	false		
113-2221191-3537828	06053883677722	2020-06-28T22:33:27+00:00	2020-06-28T15:33:27-07:00	2020-06-28T23:03:31+00:00	2020-06-30T06:59:59+00:00	-1	ftcc1nl6bgkf45t@marketplace.amazon.com	Robert	+1 314-282-9402 ext. 15557	ABR0022	Purchase Now for Delivery by Wednesday | Arabella Farm Direct Bouquet of 12 Fresh Cut Pink Roses with a Free Glass Vase	1	0	1	SecondDay	Robert Winchester	3912 JANET RD			PASCO	WA	99301-9363	US			false		
113-3602183-5246610	30717194260042	2020-06-28T22:36:01+00:00	2020-06-28T15:36:01-07:00	2020-06-28T23:04:14+00:00	2020-06-30T06:59:59+00:00	-1	2q8bszbz1gpd90k@marketplace.amazon.com	april g. pugh	+1 346-307-9643 ext. 09759	ABR0055	Purchase Now for Delivery by Wednesday | Arabella Farm Direct Bouquet of 12 Stems of Fresh Cut Hot Pink Roses in a Free Designer Glass Vase	1	0	1	SecondDay	Marion Harris	7210 ORTH RD			SPARROWS POINT	MD	21219-1320	US		Happy Birthday!  We Love you!  April & Harry From april g. pugh	false		
111-3026293-2349854	26962509977898	2020-06-28T22:58:16+00:00	2020-06-28T15:58:16-07:00	2020-06-28T23:24:39+00:00	2020-07-01T06:59:59+00:00	-2	qcx9nbq5ktlntzz@marketplace.amazon.com	Lauren	+1 346-307-9643 ext. 29794	ABR015	Arabella Farm Direct Bouquet of 18 Fresh Cut Orange Roses with a Free Glass Vase	1	0	1	Expedited	Janice Schwarz-Lantner	6 REDMILE CT			REISTERSTOWN	MD	21136-3538	US		Happy Anniversary! Love you. From A	false		
111-2749119-3166631	46863213390186	2020-06-28T23:01:12+00:00	2020-06-28T16:01:12-07:00	2020-06-28T23:26:48+00:00	2020-06-30T06:59:59+00:00	-1	hh85dfjzzhx45qn@marketplace.amazon.com	Barbara	+1 346-307-9643 ext. 49934	ABR0022	Purchase Now for Delivery by Wednesday | Arabella Farm Direct Bouquet of 12 Fresh Cut Pink Roses with a Free Glass Vase	1	0	1	SecondDay	Joyce LeJeune	5936 PERRY LN			LAKE CHARLES	LA	70605-7139	US		Happy Birthday! Enjoy your gift! From Barbara Hanrahan	false		
113-7102482-7156223	13815705058538	2020-06-28T23:16:37+00:00	2020-06-28T16:16:37-07:00	2020-06-28T23:44:01+00:00	2020-06-30T06:59:59+00:00	-1	yf687rd9f1stkyz@marketplace.amazon.com	Jesu Joseph	+1 314-282-9402 ext. 41816	ABR0022	Purchase Now for Delivery by Wednesday | Arabella Farm Direct Bouquet of 12 Fresh Cut Pink Roses with a Free Glass Vase	1	0	1	SecondDay	Sunitha Samuel	154 WESTWOOD CIR			ROSLYN HEIGHTS	NY	11577-1838	US		Happy 3 month anniversary!!! Feels like I just met you last week :D From Your favorite boytoy	false		
112-4198965-8238647	52204614724082	2020-06-28T23:26:36+00:00	2020-06-28T16:26:36-07:00	2020-06-28T23:51:20+00:00	2020-06-30T06:59:59+00:00	-1	8675x2k0cf9trwh@marketplace.amazon.com	Elizabeth Goins	+1 346-307-9643 ext. 59709	ABR0055	Purchase Now for Delivery by Wednesday | Arabella Farm Direct Bouquet of 12 Stems of Fresh Cut Hot Pink Roses in a Free Designer Glass Vase	1	0	1	SecondDay	Brooke Hall	6107 PINEWOOD RD			NUNNELLY	TN	37137-2523	US		I love you. I miss you. I'm sorry for whatever I did to make you not call me anymore. I hope these make you smile. I wish you the best baby. I love you so much From Elizabeth Goins	false		
111-4567784-5939435	03428344934426	2020-06-29T00:07:50+00:00	2020-06-28T17:07:50-07:00	2020-06-29T00:31:59+00:00	2020-06-30T06:59:59+00:00	-1	wlk5kv4mzywlw2x@marketplace.amazon.com	Daniela Andrea Schoffer	+1 210-728-4548 ext. 82317	ABM002	Purchase Now for Delivery by Wednesday | Arabella Bouquets Fresh Cut White Calla Lilies in a Free Designer Glass Vase	1	0	1	SecondDay	Erin Olivia Wood	4201 NAVAJO ST			DENVER	CO	80211-2533	US		I hope these last two weeks and then three weeks and then one!   Happy Birthday Pookie! From Daniela Andrea Schoffer	false		
111-0046658-7970677	63587031644074	2020-06-29T00:17:10+00:00	2020-06-28T17:17:10-07:00	2020-06-29T00:38:51+00:00	2020-06-30T06:59:59+00:00	-1	k8ljqxr7fm0pp6l@marketplace.amazon.com	james	+1 346-307-9643 ext. 93821	ABR001	Purchase Now for Delivery by Wednesday | Arabella Bouquets 12 Stems of Fresh Cut Red Roses in a Free Designer Glass Vase	1	0	1	SecondDay	Rose Frey	112 E PARKFIELD CT			RACINE	WI	53402-3139	US		Happy Birthday !!!!!   Wish we could have been there!!!! Have a good day wearing a damn mask!!!! #coronasucks Love ya!!!!! Wohoo 79 Do over next year 80?? Haha From Jimmy	false		
112-5589020-6299468	20647697636010	2020-06-29T00:57:42+00:00	2020-06-28T17:57:42-07:00	2020-06-29T01:20:25+00:00	2020-06-30T06:59:59+00:00	-1	5kgrk8yltk9wzb9@marketplace.amazon.com	Robert Shuman	+1 347-448-3190 ext. 10966	ABR0055	Purchase Now for Delivery by Wednesday | Arabella Farm Direct Bouquet of 12 Stems of Fresh Cut Hot Pink Roses in a Free Designer Glass Vase	1	0	1	SecondDay	Wendy Cassady	14401 116TH PL NE			KIRKLAND	WA	98034-1111	US		Thanks a MILLION!  Your the Best! Brian From R. Brian Shuman	false		
114-5585126-6614601	46951216858250	2020-06-29T00:59:53+00:00	2020-06-28T17:59:53-07:00	2020-06-29T01:25:44+00:00	2020-06-30T06:59:59+00:00	-1	4rm4rlycxxrbk8y@marketplace.amazon.com	lryder50	+1 346-307-9643 ext. 56039	ABR001	Purchase Now for Delivery by Wednesday | Arabella Bouquets 12 Stems of Fresh Cut Red Roses in a Free Designer Glass Vase	1	0	1	SecondDay	Tammy Knight	14205 SPARROW HILL DR			LITTLE ELM	TX	75068-4954	US		Congratulations and happy birthday, too!!!  We hope you enjoy the success you have worked so hard for and we hope you have the most fabulous birthday!   We love you, Mon and Don From lryder50	false		
114-3873698-3017017	39671896795546	2020-06-28T01:10:37+00:00	2020-06-27T18:10:37-07:00	2020-06-29T01:50:39+00:00	2020-06-30T06:59:59+00:00	-1	1mq1mxwhlzlqztq@marketplace.amazon.com	Stephanie Dewante	+1 314-282-9402 ext. 32542	ABR004	Arabella Farm Direct Bouquet of 12 Fresh Cut Yellow Roses with a Free Glass Vase	1	0	1	SecondDay	Sarah Alamillo	1235 EVERGREEN DR			CARDIFF	CA	92007-1014	US		Happy Birthday, Sarah!!  Love, Stephanie	false		
114-2001765-8363449	69364225965498	2020-06-29T01:30:46+00:00	2020-06-28T18:30:46-07:00	2020-06-29T02:01:22+00:00	2020-07-01T06:59:59+00:00	-2	t3nw1h26v9xryt5@marketplace.amazon.com	Nadezhda	+1 346-307-9643 ext. 11160	ABR0022	Purchase Now for Delivery by Wednesday | Arabella Farm Direct Bouquet of 12 Fresh Cut Pink Roses with a Free Glass Vase	1	0	1	Expedited	Nadezhda	292 ALLENWOOD DR			LAUDERDALE BY THE SEA	FL	33308-5431	US			false		
113-4768897-8905828	04323463209714	2020-06-29T01:52:27+00:00	2020-06-28T18:52:27-07:00	2020-06-29T02:25:42+00:00	2020-06-30T06:59:59+00:00	-1	rphz1ccynls96qx@marketplace.amazon.com	Austin	+1 346-307-9643 ext. 62492	ABR0022	Purchase Now for Delivery by Wednesday | Arabella Farm Direct Bouquet of 12 Fresh Cut Pink Roses with a Free Glass Vase	1	0	1	SecondDay	Austin K Welch	228 MARLTON RD			PILESGROVE	NJ	08098-2718	US			false		
113-9020839-5368253	41620354117114	2020-06-29T02:14:30+00:00	2020-06-28T19:14:30-07:00	2020-06-29T02:43:17+00:00	2020-06-30T06:59:59+00:00	-1	l2sp660zmr1985c@marketplace.amazon.com	simone	+1 346-307-9643 ext. 02395	ABR0055	Purchase Now for Delivery by Wednesday | Arabella Farm Direct Bouquet of 12 Stems of Fresh Cut Hot Pink Roses in a Free Designer Glass Vase	1	0	1	SecondDay	Marjan Naimi	5904 CLEARWATER DR			THE COLONY	TX	75056-3867	US		Happy Birthday my love. From simone	false		
114-9974464-6561869	57941808096210	2020-06-29T03:02:38+00:00	2020-06-28T20:02:38-07:00	2020-06-29T03:27:51+00:00	2020-06-30T06:59:59+00:00	-1	kq2vwmnctz7b15l@marketplace.amazon.com	Charles	+1 346-307-9643 ext. 81639	ABR011	Purchase Now for Delivery by Wednesday | Arabella Bouquets 18 Stems of Fresh Cut Red Roses in a Free Glass Vase	1	0	1	SecondDay	Debbie Walton	5361 CROSSRIDGE DR			CORPUS CHRISTI	TX	78413-4542	US		Hey Sis. Wishing you a speedy recovery. Love you From Charlie	false		
112-1294624-2653000	50921089081978	2020-06-29T03:09:31+00:00	2020-06-28T20:09:31-07:00	2020-06-29T03:40:14+00:00	2020-06-30T06:59:59+00:00	-1	3snd1t0smzyfysq@marketplace.amazon.com	Danielle Jordan Arpon	+1 346-307-9643 ext. 00838	ABR0022	Purchase Now for Delivery by Wednesday | Arabella Farm Direct Bouquet of 12 Fresh Cut Pink Roses with a Free Glass Vase	1	0	1	SecondDay	Danielle Arpon Nelson	9017 FORBES AVE			NORTH HILLS	CA	91343-4007	US			false		
113-3017021-6057058	34179388280706	2020-06-29T03:12:50+00:00	2020-06-28T20:12:50-07:00	2020-06-29T03:41:31+00:00	2020-06-30T06:59:59+00:00	-1	wx4wvbxq9v7k6kv@marketplace.amazon.com	Kody DeHaan	+1 210-728-4548 ext. 80319	ABR0022	Purchase Now for Delivery by Wednesday | Arabella Farm Direct Bouquet of 12 Fresh Cut Pink Roses with a Free Glass Vase	1	0	1	SecondDay	Isabel Mata	3200 COLONIAL PKWY APT 205			BELTON	TX	76513-5433	US		Happy one month baby From Kody DeHaan	false		
111-4274612-5229030	68687963633946	2020-06-29T03:21:02+00:00	2020-06-28T20:21:02-07:00	2020-06-29T03:50:23+00:00	2020-06-30T06:59:59+00:00	-1	z8w7nfc91l2ns2w@marketplace.amazon.com	Anne B. Chatham	+1 346-307-9643 ext. 27120	ABR0022	Purchase Now for Delivery by Wednesday | Arabella Farm Direct Bouquet of 12 Fresh Cut Pink Roses with a Free Glass Vase	1	0	1	SecondDay	Kathy Sutton	420 SOUTHWICK DR			FAYETTEVILLE	NC	28303-2683	US		Happy Birthday Mom! Love, Anne and Andrew	false		
111-0188157-4832239	19270118876898	2020-06-29T03:22:59+00:00	2020-06-28T20:22:59-07:00	2020-06-29T03:52:17+00:00	2020-06-30T06:59:59+00:00	-1	52mdjpx8ygrnwbs@marketplace.amazon.com	Natalie Zorzi-Hogberg	+1 210-728-4548 ext. 92847	ABR0055	Purchase Now for Delivery by Wednesday | Arabella Farm Direct Bouquet of 12 Stems of Fresh Cut Hot Pink Roses in a Free Designer Glass Vase	1	0	1	SecondDay	Don Zorzi	8317 TIDE POOL DR			LAS VEGAS	NV	89128-7054	US		Happy Birthday Nana! From Nicole	false		
114-6796734-4243448	63165270107466	2020-06-29T03:37:04+00:00	2020-06-28T20:37:04-07:00	2020-06-29T04:01:35+00:00	2020-06-30T06:59:59+00:00	-1	hb9489sw1qz1n2w@marketplace.amazon.com	Marian Groff	+1 346-307-9643 ext. 20230	ABR0066	Arabella Bouquets 18 Stems of Fresh Cut White Roses in a Free Designer Glass Vase	1	0	1	SecondDay	Meleigh Groff	111 THISTLE CT			GREENWOOD	SC	29646-8544	US			false		
111-9800912-8730644	18294464651754	2020-06-29T03:57:04+00:00	2020-06-28T20:57:04-07:00	2020-06-29T04:25:26+00:00	2020-06-30T06:59:59+00:00	-1	xx042qqdmr6ghwj@marketplace.amazon.com	Andrew Robbins	+1 346-307-9643 ext. 77278	ABM0044	Purchase Now for Delivery by Wednesday | Arabella Farm Direct Bouquet of Fresh Cut Blue Hydrangea with a Free Glass Vase	1	0	1	SecondDay	Mary Robbins	BARREN COUNTY NURSING AND REHABILITATION CENTER	300 WESTWOOD ST		GLASGOW	KY	42141-1030	US		Happy Birthday Mom! From Andrew	false		
113-5976059-3062606	43717423677898	2020-06-29T04:24:58+00:00	2020-06-28T21:24:58-07:00	2020-06-29T04:55:36+00:00	2020-07-01T06:59:59+00:00	-2	9sbvvsj43jlc5q6@marketplace.amazon.com	Michael B Foster	+1 346-307-9643 ext. 84840	ABR0033	Purchase Now for Delivery by Wednesday | Arabella Farm Direct Bouquet of 12 Fresh Cut Orange Roses with a Free Glass Vase	1	0	1	Expedited	Michael B Foster	4505 E ROCK WREN RD			PHOENIX	AZ	85044-6868	US			false		
112-1551333-0483420	54544151668778	2020-06-29T04:45:07+00:00	2020-06-28T21:45:07-07:00	2020-06-29T05:11:35+00:00	2020-06-30T06:59:59+00:00	-1	qrwvsbhycdyh2r2@marketplace.amazon.com	Kaye Glover	+1 314-282-9402 ext. 21433	ABR0022	Purchase Now for Delivery by Wednesday | Arabella Farm Direct Bouquet of 12 Fresh Cut Pink Roses with a Free Glass Vase	1	0	1	SecondDay	Rose Ridley	2709 NW 54TH ST			TAMARAC	FL	33309-2549	US		Happy Birthday Mom From Trevor and Kennetha	false		
113-7566252-7299408	52441496675034	2020-06-29T04:55:05+00:00	2020-06-28T21:55:05-07:00	2020-06-29T05:30:50+00:00	2020-06-30T06:59:59+00:00	-1	7s9thtmf16613y5@marketplace.amazon.com	Darin Lopez	+1 314-282-9402 ext. 92987	ABR0022	Purchase Now for Delivery by Wednesday | Arabella Farm Direct Bouquet of 12 Fresh Cut Pink Roses with a Free Glass Vase	1	0	1	SecondDay	Darin Lopez	6947 BATIK HARBOR CT			LAS VEGAS	NV	89148-2844	US		LOVE YOU!!!! From Darin Lopez	false		
112-8260718-1657039	47517406020538	2020-06-29T05:25:51+00:00	2020-06-28T22:25:51-07:00	2020-06-29T05:54:37+00:00	2020-06-30T06:59:59+00:00	-1	q49bl7lghzzq6x6@marketplace.amazon.com	angelina ward	+1 346-307-9643 ext. 55421	ABR0022	Purchase Now for Delivery by Wednesday | Arabella Farm Direct Bouquet of 12 Fresh Cut Pink Roses with a Free Glass Vase	1	0	1	SecondDay	Morgan Dulfer	47 NORTHWOOD CT			DANVILLE	CA	94506-1223	US		I hope these flowers brighten your day, just like your brighten mine. Thinking of you and hoping you feel better soon. Love you! ♥️ From angelina ward	false		
113-9800014-6768226	54253219289874	2020-06-29T06:09:41+00:00	2020-06-28T23:09:41-07:00	2020-06-29T06:35:56+00:00	2020-06-30T06:59:59+00:00	-1	hwf0kn9gbv31h82@marketplace.amazon.com	Joseph Boski	+1 346-307-9643 ext. 63608	ABB006	Arabella Bouquets | Farm Direct 48 Fresh Cut Red Roses	1	0	1	SecondDay	Mia Karla Peeler	1086 7TH ST			OGDEN	UT	84404-5111	US		Te adoro.  Te amo.   YQCC !!! From Joseph Boski	false		
113-9800014-6768226	17807033456778	2020-06-29T06:09:41+00:00	2020-06-28T23:09:41-07:00	2020-06-29T06:35:56+00:00	2020-06-30T06:59:59+00:00	-1	hwf0kn9gbv31h82@marketplace.amazon.com	Joseph Boski	+1 346-307-9643 ext. 63608	ABB014	Arabella Bouquets | Farm Direct 48 Fresh Cut White Roses	1	0	1	SecondDay	Mia Karla Peeler	1086 7TH ST			OGDEN	UT	84404-5111	US		I Love You!  More everyday.  I wish I could be with You in Our house.  As soon as I can, I will be.  Always with You.           I W T M Y EPEPEPEP If You don't have enough vases, perhaps a bathtub? LOVE!!!!! From Joseph Boski	false		
112-9147173-6401810	53043397511114	2020-06-29T09:59:51+00:00	2020-06-29T02:59:51-07:00	2020-06-29T10:29:55+00:00	2020-07-02T06:59:59+00:00	-3	xyc9fpnscnm8whw@marketplace.amazon.com	Daniel Mallen	+1 346-307-9643 ext. 40518	ABR0055	Purchase Now for Delivery by Wednesday | Arabella Farm Direct Bouquet of 12 Stems of Fresh Cut Hot Pink Roses in a Free Designer Glass Vase	1	0	1	Expedited	Daniel Mallen	2150 47TH AVE S APT 186			GRAND FORKS	ND	58201-3617	US		Enjoy your gift! Call me 254-290-2179 From Daniel Mallen	false		
111-1156135-7886632	23857544885434	2020-06-29T13:51:56+00:00	2020-06-29T06:51:56-07:00	2020-06-29T14:21:43+00:00	2020-06-30T06:59:59+00:00	-1	t76jf9w6qd746jg@marketplace.amazon.com	Grannell Knox	+1 346-307-9643 ext. 92427	ABM010	Arabella Bouquets | Fields of The World Bouquet of Fresh Cut Flowers in a Free Designer Glass Vase	1	0	1	SecondDay	G. KNOX	1518 N JAMES ST			MAMARONECK	NEW YORK	10543-1313	US		Happy Birthday Irene    With all my love           Grannell From Grannell Knox	false		
113-3657238-5058616	20799597635506	2020-06-29T14:11:52+00:00	2020-06-29T07:11:52-07:00	2020-06-29T14:34:54+00:00	2020-07-02T06:59:59+00:00	-3	q5wycw4f28p2rc4@marketplace.amazon.com	Daniela Dudra	+1 347-448-3190 ext. 80013	ABR0022	Purchase Now for Delivery by Wednesday | Arabella Farm Direct Bouquet of 12 Fresh Cut Pink Roses with a Free Glass Vase	1	0	1	Expedited	Melania Mosny	24330 SANDPIPER ISLE WAY UNIT 402	D		BONITA SPRINGS	FL	34134-0996	US		Draha Teta Miluska, prajeme Vam vsetko najsamlepsie k Vasim narodeninam! Vela zdravicka, stastia a rodinnej pohody Vam zelaju Bodi, Daniela, Leo & Regina ❤️❤️❤️ From Dudra family	false		
112-9592747-7126600	52734376495674	2020-06-29T14:21:30+00:00	2020-06-29T07:21:30-07:00	2020-06-29T14:51:58+00:00	2020-07-02T06:59:59+00:00	-3	9mp25nj8zdbf82g@marketplace.amazon.com	Hanna	+1 346-307-9643 ext. 06662	ABR0055	Purchase Now for Delivery by Wednesday | Arabella Farm Direct Bouquet of 12 Stems of Fresh Cut Hot Pink Roses in a Free Designer Glass Vase	1	0	1	Expedited	Mike Raffaniello	50 W 15TH ST APT 3B			NEW YORK	NY	10011-6872	US			false		
