order-id	order-item-id	purchase-date	payments-date	reporting-date	promise-date	days-past-promise	buyer-email	buyer-name	buyer-phone-number	sku	product-name	quantity-purchased	quantity-shipped	quantity-to-ship	ship-service-level	recipient-name	ship-address-1	ship-address-2	ship-address-3	ship-city	ship-state	ship-postal-code	ship-country	gift-wrap-type	gift-message-text	is-business-order	purchase-order-number	price-designation
113-5070823-4739405	32651610235642	2020-06-30T18:12:33+00:00	2020-06-30T11:12:33-07:00	2020-06-30T18:41:23+00:00	2020-07-03T06:59:59+00:00	-3	07d9w5wb3wkc9pn@marketplace.amazon.com	Ella P	+1 346-307-9643 ext. 16291	ABR015	Arabella Farm Direct Bouquet of 18 Fresh Cut Orange Roses with a Free Glass Vase	1	0	1	Expedited	Al Vela	12 TARRAGON DR			EAST HAMPTON	CT	06424-1755	US		Happy Birthday Isabel..! Love Ella From Ella P	false		
114-2096798-3012228	17371075314962	2020-06-30T18:21:02+00:00	2020-06-30T11:21:02-07:00	2020-06-30T18:49:34+00:00	2020-07-03T06:59:59+00:00	-3	6wp35hvbh773fgz@marketplace.amazon.com	Turquoise Johnson	+1 210-728-4548 ext. 05629	ABM010	Arabella Bouquets | Fields of The World Bouquet of Fresh Cut Flowers in a Free Designer Glass Vase	1	0	1	Expedited	Rick Johnson	2039 HEATHER RD			FOLCROFT	PA	19032-1610	US		In remembrance of Demetrias, our Meechee! Love you papa bear. From Turquoise Johnson	false		
112-5077262-2696204	28880958237754	2020-06-30T18:53:37+00:00	2020-06-30T11:53:37-07:00	2020-06-30T19:16:55+00:00	2020-07-02T06:59:59+00:00	-2	pwnnfwd4dmwrgkm@marketplace.amazon.com	Fabufit	+1 314-282-9402 ext. 11528	ABM010	Arabella Bouquets | Fields of The World Bouquet of Fresh Cut Flowers in a Free Designer Glass Vase	1	0	1	SecondDay	Kreig Teaque	751 COLUMNS CIR SE			MARIETTA	GA	30067-4619	US		God bless you with a supernatural speedy recovery. Praise the Lord! His mercies endure foreve; and they are new every morning.  Love, prayers, and blessings! From John and Dani Rotramel	false		
112-8231379-1977005	28853702872610	2020-06-30T19:16:14+00:00	2020-06-30T12:16:14-07:00	2020-06-30T19:46:46+00:00	2020-07-03T06:59:59+00:00	-3	cj80827zzfzy8pz@marketplace.amazon.com	Daria	+1 346-307-9643 ext. 35237	ABR001	Purchase Now for Delivery by Friday | Arabella Bouquets 12 Stems of Fresh Cut Red Roses in a Free Designer Glass Vase	1	0	1	Expedited	Daria	1707 FOX RUN DR  1707			PLAINSBORO	NJ	08536-2674	US			false		
114-9164751-4859407	32999449705138	2020-06-30T19:59:57+00:00	2020-06-30T12:59:57-07:00	2020-06-30T20:16:15+00:00	2020-07-02T06:59:59+00:00	-2	3l5cdc1bhsp9n9g@marketplace.amazon.com	RENEE	+1 346-307-9643 ext. 07551	ABR0033	Purchase Now for Delivery by Friday | Arabella Farm Direct Bouquet of 12 Fresh Cut Orange Roses with a Free Glass Vase	1	0	1	SecondDay	Julie Tapia	12256 DESERT RANCH RD			PHELAN	CA	92371-4603	US		We love you Grandma Julie ❤ From Bob , Renee Zaiden & Zoe	false		
113-2356282-3678641	18242360310674	2020-06-30T19:53:49+00:00	2020-06-30T12:53:49-07:00	2020-06-30T20:20:13+00:00	2020-07-03T06:59:59+00:00	-3	3v687g19yjxbq4r@marketplace.amazon.com	Anne E Scully	+1 346-307-9643 ext. 38087	ABR0022	Purchase Now for Delivery by Friday | Arabella Farm Direct Bouquet of 12 Fresh Cut Pink Roses with a Free Glass Vase	1	0	1	Expedited	Kay Costello	270 CHESTNUT ST			SAN CARLOS	CA	94070-2115	US		Dear Kay, We're thinking of you. Hope your happy memories of your brother will help ease your great pain. Love you, Anne and Bill From Anne E Scully	false		
113-5728781-0738653	28735733529522	2020-06-30T20:11:26+00:00	2020-06-30T13:11:26-07:00	2020-06-30T20:28:16+00:00	2020-07-02T06:59:59+00:00	-2	3q8sz80rttrqwr3@marketplace.amazon.com	Carolyn Lamb	+1 346-307-9643 ext. 57157	ABR001	Purchase Now for Delivery by Friday | Arabella Bouquets 12 Stems of Fresh Cut Red Roses in a Free Designer Glass Vase	1	0	1	SecondDay	Kathleen Mehl	BELLE FOUNTAIN NURSING AND REHAB	18591 QUARRY ST		RIVERVIEW	MI	48193-4522	US		Sis, Hope you are up and running soon!!  Love you so much,  Carolyn #1, Rachele and Doug From Carolyn Lamb	false		
113-8907664-3234662	21294319624538	2020-06-30T20:27:12+00:00	2020-06-30T13:27:12-07:00	2020-06-30T20:55:57+00:00	2020-07-02T06:59:59+00:00	-2	qkqf6xvf40trjsz@marketplace.amazon.com	John Woo Choi	+1 346-307-9643 ext. 72300	ABR0022	Purchase Now for Delivery by Friday | Arabella Farm Direct Bouquet of 12 Fresh Cut Pink Roses with a Free Glass Vase	1	0	1	SecondDay	Jee Choi	11313 Liberty St.			Fulton	MD	20759	US		Happy belated birthday, Michelle!   Hope to have a COVID free lunch with you soon!  BTW, did you know that rose is your birth flower? From Jee Choi	false		
112-8428496-2693027	12002784933338	2020-06-30T20:30:53+00:00	2020-06-30T13:30:53-07:00	2020-06-30T21:00:48+00:00	2020-07-02T06:59:59+00:00	-2	9b20yy067bpql0d@marketplace.amazon.com	Dylan Isenberg	+1 346-307-9643 ext. 68826	ABR0022	Purchase Now for Delivery by Friday | Arabella Farm Direct Bouquet of 12 Fresh Cut Pink Roses with a Free Glass Vase	1	0	1	SecondDay	Dylan Isenberg	1445 HAIRETOWN RD			JONESBOROUGH	TN	37659-4151	US		For my sunshine. From Turkey leg	false		
113-4280253-2549048	53621152557474	2020-06-30T19:54:48+00:00	2020-06-30T12:54:48-07:00	2020-06-30T21:01:28+00:00	2020-07-03T06:59:59+00:00	-3	zwj6581kjp5z6rc@marketplace.amazon.com	Rachel Vedder	+1 314-282-9402 ext. 74139	ABR0066	Arabella Bouquets 18 Stems of Fresh Cut White Roses in a Free Designer Glass Vase	1	0	1	Expedited	Nancy Kahn	76 BALLAD CT			EASTPORT	NY	11941-1602	US			false		
114-6361291-1217817	45094187023042	2020-06-30T20:36:28+00:00	2020-06-30T13:36:28-07:00	2020-06-30T21:03:48+00:00	2020-07-02T06:59:59+00:00	-2	fq52269llsbhvfv@marketplace.amazon.com	FRANCINE JACKSON	+1 314-282-9402 ext. 67017	ABR0022	Purchase Now for Delivery by Friday | Arabella Farm Direct Bouquet of 12 Fresh Cut Pink Roses with a Free Glass Vase	1	0	1	SecondDay	JULIE HISH	34832 S WURTZ RD			WILMINGTON	IL	60481-9726	US		Happy 75th!  Smiles to you, Francine From FRANCINE JACKSON	false		
113-7370327-9679424	63588857350594	2020-06-30T21:04:18+00:00	2020-06-30T14:04:18-07:00	2020-06-30T21:32:30+00:00	2020-07-02T06:59:59+00:00	-2	8hwjvsnfwhtqd88@marketplace.amazon.com	joanna klim	+1 346-307-9643 ext. 66550	ABM010	Arabella Bouquets | Fields of The World Bouquet of Fresh Cut Flowers in a Free Designer Glass Vase	1	0	1	SecondDay	Agnes Lampart	1681 65TH ST APT A2			BROOKLYN	NY	11204-3641	US		Wszystkiego Naj Lepszego W Dniu Twych Urodzin  Życzymy Tobie żeby  wszystkich twoje  marzeń się spełniły              XOXO Asia Piotr z Rodziną From joanna klim	false		
112-1009096-1929049	02661844941866	2020-06-30T21:04:43+00:00	2020-06-30T14:04:43-07:00	2020-06-30T21:44:50+00:00	2020-07-03T06:59:59+00:00	-3	3sf67fzt7d0x0l4@marketplace.amazon.com	sandra valdez	+1 346-307-9643 ext. 03139	ABM002	Purchase Now for Delivery by Friday | Arabella Bouquets Fresh Cut White Calla Lilies in a Free Designer Glass Vase	1	0	1	Expedited	Mrs. Donna Reed	1205 VIA ESCALANTE			CHULA VISTA	CA	91910-8149	US		To Donna, our Sister in Christ, wonderful friend and neighbor.  You will forever be a blessing in our lives.  With heartfelt thoughts of you and with love, Tony, Sandy & Lady too!	false		
111-6672509-1177830	67062054250194	2020-06-30T21:35:33+00:00	2020-06-30T14:35:33-07:00	2020-06-30T22:03:53+00:00	2020-07-02T06:59:59+00:00	-2	yt1rdlkz0bl1k2h@marketplace.amazon.com	Matt jones	+1 346-307-9643 ext. 36878	ABR001	Purchase Now for Delivery by Friday | Arabella Bouquets 12 Stems of Fresh Cut Red Roses in a Free Designer Glass Vase	1	0	1	SecondDay	Kelly Dille	16713 WENWOOD DR			BATON ROUGE	LA	70817-6957	US		Wish we could be together! I miss you so much but know that I will see you soon and love you! Thanks for being the most amazing woman a man could ask for! Love, Matt From Matt	false		
114-7017789-9547424	42259686811186	2020-06-30T22:25:35+00:00	2020-06-30T15:25:35-07:00	2020-06-30T22:56:05+00:00	2020-07-03T06:59:59+00:00	-3	n9fmndt06rww6zt@marketplace.amazon.com	Rusne Valaikiene	+1 346-307-9643 ext. 14330	ABR004	Arabella Farm Direct Bouquet of 12 Fresh Cut Yellow Roses with a Free Glass Vase	1	0	1	Expedited	Rimas Kregzde	2111 ORANGE AVE # B			COSTA MESA	CA	92627-1848	US			false		
112-6507710-5943435	21934668857770	2020-06-30T22:28:50+00:00	2020-06-30T15:28:50-07:00	2020-06-30T22:59:19+00:00	2020-07-02T06:59:59+00:00	-2	vzwghhzp70nm1vw@marketplace.amazon.com	Michelle Hagl	+1 346-307-9643 ext. 76239	ABR0022	Purchase Now for Delivery by Friday | Arabella Farm Direct Bouquet of 12 Fresh Cut Pink Roses with a Free Glass Vase	1	0	1	SecondDay	Michelle Hagl	11 HAWTHORNE DR			WEST BOYLSTON	MA	01583-2322	US			false		
113-0377474-1176249	44447336597394	2020-06-30T22:31:40+00:00	2020-06-30T15:31:40-07:00	2020-06-30T22:59:57+00:00	2020-07-02T06:59:59+00:00	-2	hxpj5bwhzd03p8k@marketplace.amazon.com	Anthony Martin	+1 314-282-9402 ext. 23054	ABM010	Arabella Bouquets | Fields of The World Bouquet of Fresh Cut Flowers in a Free Designer Glass Vase	1	0	1	SecondDay	Anthony Martin	3506 BROOKE LN			PANAMA CITY	FL	32404-5723	US			false		
113-9863938-6709827	42172119451930	2020-06-30T23:04:22+00:00	2020-06-30T16:04:22-07:00	2020-06-30T23:33:14+00:00	2020-07-02T06:59:59+00:00	-2	3wsxbmbbc7mdh7n@marketplace.amazon.com	Nico	+1 346-307-9643 ext. 16205	ABR001	Purchase Now for Delivery by Friday | Arabella Bouquets 12 Stems of Fresh Cut Red Roses in a Free Designer Glass Vase	1	0	1	SecondDay	Sarah Wiemeler	2112 Providence Way			Joliet	IL	60531	US		Happy Birthday! I miss and love you! :) From Nico	false		
111-6076897-9951434	31703652418506	2020-06-30T23:49:06+00:00	2020-06-30T16:49:06-07:00	2020-07-01T00:14:47+00:00	2020-07-02T06:59:59+00:00	-2	gpk694cx2h8jk1c@marketplace.amazon.com	Marcia Sollie	+1 314-282-9402 ext. 45622	ABM010	Arabella Bouquets | Fields of The World Bouquet of Fresh Cut Flowers in a Free Designer Glass Vase	1	0	1	SecondDay	Carol Swenby	3313 361ST ST			FERTILE	MN	56540-9492	US			false		
112-0161772-9151453	01137238089754	2020-07-01T00:07:23+00:00	2020-06-30T17:07:23-07:00	2020-07-01T00:36:03+00:00	2020-07-03T06:59:59+00:00	-3	wqw91ytjhjlqf7z@marketplace.amazon.com	James williams	+1 347-448-3190 ext. 06214	ABR0022	Purchase Now for Delivery by Friday | Arabella Farm Direct Bouquet of 12 Fresh Cut Pink Roses with a Free Glass Vase	1	0	1	Expedited	Linda hayes	15041 KEESEY CT			STEWARTSTOWN	PA	17363-9480	US			false		
111-6734025-4794609	46936496935698	2020-07-01T00:11:39+00:00	2020-06-30T17:11:39-07:00	2020-07-01T00:39:09+00:00	2020-07-02T06:59:59+00:00	-2	pwks0l435sghqyp@marketplace.amazon.com	Grace Wilkinson	+1 346-307-9643 ext. 17179	ABR001	Purchase Now for Delivery by Friday | Arabella Bouquets 12 Stems of Fresh Cut Red Roses in a Free Designer Glass Vase	1	0	1	SecondDay	Geraldine Abeel	677 N SODERQUIST RD # 1224			TURLOCK	CA	95380-3714	US		Thinking about you and thought you would like some flowers :-) From Ben and Grace Wilkinson	false		
112-2690758-3254655	30323680995778	2020-07-01T00:24:13+00:00	2020-06-30T17:24:13-07:00	2020-07-01T00:51:59+00:00	2020-07-02T06:59:59+00:00	-2	wqnl71h69d9jt0j@marketplace.amazon.com	Joy Austin	+1 346-307-9643 ext. 49524	ABB015	Arabella Farm Direct Bouquet of 24 Fresh Cut Orange Roses with a Free Glass Vase	1	0	1	SecondDay	Dr. Robert Connor	1550 STUYVESANT AVE			EWING	NJ	08618-3310	US		To: Rob and Su! Love and admire you both very much! Happy Anniversary! From Joy and Bobby	false		
111-9897208-8749850	56038121416066	2020-07-01T01:06:54+00:00	2020-06-30T18:06:54-07:00	2020-07-01T01:17:54+00:00	2020-07-02T06:59:59+00:00	-2	1kx1dw8pk7sj1xt@marketplace.amazon.com	Karoline Tyne	+1 314-282-9402 ext. 90158	ABM010	Arabella Bouquets | Fields of The World Bouquet of Fresh Cut Flowers in a Free Designer Glass Vase	1	0	1	SecondDay	Sandra Hobert	5 Miller Farms Court	#5 COURT #5 COURT  #5 COURT		Miller Place	New York	11764	US		Hi Mom, I am so glad you are home! Fresh flowers always help the healing process!  Hope these make your day! Thank you for the awesome Chromebook! I love you!!  Love, ~ Ka ~.  xo xo xo  From Karoline Tyne	false		
