order-id	order-item-id	purchase-date	payments-date	reporting-date	promise-date	days-past-promise	buyer-email	buyer-name	buyer-phone-number	sku	product-name	quantity-purchased	quantity-shipped	quantity-to-ship	ship-service-level	recipient-name	ship-address-1	ship-address-2	ship-address-3	ship-city	ship-state	ship-postal-code	ship-country	gift-wrap-type	gift-message-text	is-business-order	purchase-order-number	price-designation
111-7005766-5517869	49484748750234	2020-07-01T18:15:42+00:00	2020-07-01T11:15:42-07:00	2020-07-01T18:42:52+00:00	2020-07-07T06:59:59+00:00	-6	64p4bfpb8zv95lg@marketplace.amazon.com	Amu	+1 347-448-3190 ext. 74390	ABR0022	Purchase Now for Delivery by Monday | Arabella Farm Direct Bouquet of 12 Fresh Cut Pink Roses with a Free Glass Vase	1	0	1	Expedited	Amu Veera	125 E 13th street Unit 1102			Chicago	IL	60605	US		Wish you a happy birthday Sumathi mom. Have a great day of joy and happiness. With lots of love your son Pranesh Das From Pranesh Das	false		
111-6523191-5690653	17463712642098	2020-07-01T18:48:54+00:00	2020-07-01T11:48:54-07:00	2020-07-01T19:14:47+00:00	2020-07-07T06:59:59+00:00	-6	rx09ttdd3xky0l7@marketplace.amazon.com	Diane Laffey	+1 346-307-9643 ext. 52799	ABR0022	Purchase Now for Delivery by Monday | Arabella Farm Direct Bouquet of 12 Fresh Cut Pink Roses with a Free Glass Vase	1	0	1	Expedited	Kathy Martin	610 FRIDAY RD			PITTSBURGH	PA	15209-2118	US		We are here for you! Love you, Diane & Danny From Diane Laffey	false		
113-6177430-2833066	21505862333746	2020-07-01T18:46:33+00:00	2020-07-01T11:46:33-07:00	2020-07-01T19:17:08+00:00	2020-07-07T06:59:59+00:00	-6	wc8p86875lrpzk5@marketplace.amazon.com	Christopher	+1 347-448-3190 ext. 34415	ABR0022	Purchase Now for Delivery by Monday | Arabella Farm Direct Bouquet of 12 Fresh Cut Pink Roses with a Free Glass Vase	1	0	1	Expedited	Beautiful Lydia	2864 S 60TH ST UPPR			WEST ALLIS	WI	53219-3158	US			false		
111-4163807-1826605	42675115721442	2020-07-01T18:50:06+00:00	2020-07-01T11:50:06-07:00	2020-07-01T19:18:22+00:00	2020-07-07T06:59:59+00:00	-6	qqrz05g43s9dppj@marketplace.amazon.com	Dorothy E. Leidner	+1 314-282-9402 ext. 37719	ABM010	Arabella Bouquets | Fields of The World Bouquet of Fresh Cut Flowers in a Free Designer Glass Vase	1	0	1	Expedited	Dottie Berry	2007 HIGHLAND OAKS ST			FORT WORTH	TX	76107-3645	US		Happy Birthday Dottie! Thinking of you and wishing you a wonderful birthday. Much love, Dorothy From Dorothy E. Leidner	false		
111-0059269-6989000	27119340646178	2020-07-01T19:00:02+00:00	2020-07-01T12:00:02-07:00	2020-07-01T19:21:58+00:00	2020-07-07T06:59:59+00:00	-6	q44p9ym7jd6fzjc@marketplace.amazon.com	Kathleen McPhillips	+1 346-307-9643 ext. 18342	ABR0022	Purchase Now for Delivery by Monday | Arabella Farm Direct Bouquet of 12 Fresh Cut Pink Roses with a Free Glass Vase	1	0	1	Expedited	Maureen Peyton	2329 HIDDEN LAKE DR APT 3			NAPLES	FL	34112-8713	US		Happy 80th Birthday! Love John & Kathy From Kathleen McPhillips	false		
114-2305656-4722641	16654905262042	2020-07-01T20:16:33+00:00	2020-07-01T13:16:33-07:00	2020-07-01T20:45:18+00:00	2020-07-07T06:59:59+00:00	-6	t938fs2p56pkncm@marketplace.amazon.com	Kevin P. Cleary	+1 346-307-9643 ext. 74395	ABR0022	Purchase Now for Delivery by Monday | Arabella Farm Direct Bouquet of 12 Fresh Cut Pink Roses with a Free Glass Vase	1	0	1	Expedited	Angela and Jerry Ratz	36 E HARRIET AVE			PALISADES PARK	NJ	07650-1409	US		Hi Auntie, Wishing you a quick recovery and get well soon!! From Kevin, Robin, and Ryne	false		
