order-id	order-item-id	purchase-date	payments-date	reporting-date	promise-date	days-past-promise	buyer-email	buyer-name	buyer-phone-number	sku	product-name	quantity-purchased	quantity-shipped	quantity-to-ship	ship-service-level	recipient-name	ship-address-1	ship-address-2	ship-address-3	ship-city	ship-state	ship-postal-code	ship-country	gift-wrap-type	gift-message-text	is-business-order	purchase-order-number	price-designation
111-7005766-5517869	49484748750234	2020-07-01T18:15:42+00:00	2020-07-01T11:15:42-07:00	2020-07-01T18:42:52+00:00	2020-07-07T06:59:59+00:00	-5	64p4bfpb8zv95lg@marketplace.amazon.com	Amu	+1 347-448-3190 ext. 74390	ABR0022	Purchase Now for Delivery by Monday | Arabella Farm Direct Bouquet of 12 Fresh Cut Pink Roses with a Free Glass Vase	1	0	1	Expedited	Amu Veera	125 E 13th street Unit 1102			Chicago	IL	60605	US		Wish you a happy birthday Sumathi mom. Have a great day of joy and happiness. With lots of love your son Pranesh Das From Pranesh Das	false		
111-6523191-5690653	17463712642098	2020-07-01T18:48:54+00:00	2020-07-01T11:48:54-07:00	2020-07-01T19:14:47+00:00	2020-07-07T06:59:59+00:00	-5	rx09ttdd3xky0l7@marketplace.amazon.com	Diane Laffey	+1 346-307-9643 ext. 52799	ABR0022	Purchase Now for Delivery by Monday | Arabella Farm Direct Bouquet of 12 Fresh Cut Pink Roses with a Free Glass Vase	1	0	1	Expedited	Kathy Martin	610 FRIDAY RD			PITTSBURGH	PA	15209-2118	US		We are here for you! Love you, Diane & Danny From Diane Laffey	false		
113-6177430-2833066	21505862333746	2020-07-01T18:46:33+00:00	2020-07-01T11:46:33-07:00	2020-07-01T19:17:08+00:00	2020-07-07T06:59:59+00:00	-5	wc8p86875lrpzk5@marketplace.amazon.com	Christopher	+1 347-448-3190 ext. 34415	ABR0022	Purchase Now for Delivery by Monday | Arabella Farm Direct Bouquet of 12 Fresh Cut Pink Roses with a Free Glass Vase	1	0	1	Expedited	Beautiful Lydia	2864 S 60TH ST UPPR			WEST ALLIS	WI	53219-3158	US			false		
111-4163807-1826605	42675115721442	2020-07-01T18:50:06+00:00	2020-07-01T11:50:06-07:00	2020-07-01T19:18:22+00:00	2020-07-07T06:59:59+00:00	-5	qqrz05g43s9dppj@marketplace.amazon.com	Dorothy E. Leidner	+1 314-282-9402 ext. 37719	ABM010	Arabella Bouquets | Fields of The World Bouquet of Fresh Cut Flowers in a Free Designer Glass Vase	1	0	1	Expedited	Dottie Berry	2007 HIGHLAND OAKS ST			FORT WORTH	TX	76107-3645	US		Happy Birthday Dottie! Thinking of you and wishing you a wonderful birthday. Much love, Dorothy From Dorothy E. Leidner	false		
111-0059269-6989000	27119340646178	2020-07-01T19:00:02+00:00	2020-07-01T12:00:02-07:00	2020-07-01T19:21:58+00:00	2020-07-07T06:59:59+00:00	-5	q44p9ym7jd6fzjc@marketplace.amazon.com	Kathleen McPhillips	+1 346-307-9643 ext. 18342	ABR0022	Purchase Now for Delivery by Monday | Arabella Farm Direct Bouquet of 12 Fresh Cut Pink Roses with a Free Glass Vase	1	0	1	Expedited	Maureen Peyton	2329 HIDDEN LAKE DR APT 3			NAPLES	FL	34112-8713	US		Happy 80th Birthday! Love John & Kathy From Kathleen McPhillips	false		
114-2305656-4722641	16654905262042	2020-07-01T20:16:33+00:00	2020-07-01T13:16:33-07:00	2020-07-01T20:45:18+00:00	2020-07-07T06:59:59+00:00	-5	t938fs2p56pkncm@marketplace.amazon.com	Kevin P. Cleary	+1 346-307-9643 ext. 74395	ABR0022	Purchase Now for Delivery by Monday | Arabella Farm Direct Bouquet of 12 Fresh Cut Pink Roses with a Free Glass Vase	1	0	1	Expedited	Angela and Jerry Ratz	36 E HARRIET AVE			PALISADES PARK	NJ	07650-1409	US		Hi Auntie, Wishing you a quick recovery and get well soon!! From Kevin, Robin, and Ryne	false		
111-2156311-2673865	00369178201074	2020-07-01T20:39:02+00:00	2020-07-01T13:39:02-07:00	2020-07-01T21:06:00+00:00	2020-07-07T06:59:59+00:00	-5	0p24t0xjdz4tjxd@marketplace.amazon.com	Heidi Kravchuk	+1 346-307-9643 ext. 12120	ABM010	Arabella Bouquets | Fields of The World Bouquet of Fresh Cut Flowers in a Free Designer Glass Vase	1	0	1	Expedited	Richie Ziemba	70 HANKS HILL RD			STORRS MANSFIELD	CT	06268-2213	US		Richie, Kim, Zach and Abby,  We are so sorry for your incredible loss.  Our thoughts and prayers are with you.   Much love, The Kravchuks From The Kravchuks	false		
111-8700971-2354614	66754411879810	2020-07-01T20:44:44+00:00	2020-07-01T13:44:44-07:00	2020-07-01T21:08:26+00:00	2020-07-07T06:59:59+00:00	-5	h97ggsdmgnbqbl5@marketplace.amazon.com	Linda Ferdig-Riley	+1 346-307-9643 ext. 36794	ABR0055	Arabella Farm Direct Bouquet of 12 Stems of Fresh Cut Hot Pink Roses in a Free Designer Glass Vase	1	0	1	Expedited	Courtney Buchmann	8017 GRANADA RD			PRAIRIE VILLAGE	KS	66208-5062	US		Hey Courtney....woo-hoo....way to go, last chemo!!!  Definitely cause to celebrate.  Do it in style!  Love, L, T and Martin From Linda Ferdig-Riley	false		
114-1960762-1650603	45167434789098	2020-07-01T21:01:47+00:00	2020-07-01T14:01:47-07:00	2020-07-01T21:23:04+00:00	2020-07-07T06:59:59+00:00	-5	r8w5vc8wgvyzt19@marketplace.amazon.com	roseanna baxley	+1 346-307-9643 ext. 31702	ABR015	Arabella Farm Direct Bouquet of 18 Fresh Cut Orange Roses with a Free Glass Vase	1	0	1	Expedited	Mr. & Mrs. Foster	16611 Sandpiper Rd			Galveston	TX	77554	US		We are so sorry about Snickers. He was a true member of the family and will always be remembered. Love, Mark & Roseanna From Mark & Roseanna	false		
114-3525234-8723469	20286823218066	2020-07-01T21:29:24+00:00	2020-07-01T14:29:24-07:00	2020-07-01T21:56:30+00:00	2020-07-07T06:59:59+00:00	-5	ytkms8sbbr5lrfz@marketplace.amazon.com	Max Scott	+1 346-307-9643 ext. 37787	ABR0022	Purchase Now for Delivery by Monday | Arabella Farm Direct Bouquet of 12 Fresh Cut Pink Roses with a Free Glass Vase	1	0	1	Expedited	Uche Anaeto	106 BRYAN CT APT 304			LAUREL	MD	20707-4548	US			false		
114-7775048-7573810	41135907147026	2020-07-01T22:20:34+00:00	2020-07-01T15:20:34-07:00	2020-07-01T22:50:46+00:00	2020-07-07T06:59:59+00:00	-5	tldc33d6y53q7mr@marketplace.amazon.com	Willis lawncare	+1 346-307-9643 ext. 96834	ABM010	Arabella Bouquets | Fields of The World Bouquet of Fresh Cut Flowers in a Free Designer Glass Vase	1	0	1	Expedited	Holli Willis	114 WINDSOR LN			EDENTON	NC	27932-8926	US			true		
114-5840676-7150668	62522945519594	2020-07-01T22:25:14+00:00	2020-07-01T15:25:14-07:00	2020-07-01T22:54:23+00:00	2020-07-07T06:59:59+00:00	-5	81jct8r69nggc5y@marketplace.amazon.com	Lisa Kitchen	+1 346-307-9643 ext. 89393	ABR0022	Purchase Now for Delivery by Monday | Arabella Farm Direct Bouquet of 12 Fresh Cut Pink Roses with a Free Glass Vase	1	0	1	Expedited	Lakeside HealthCenter	2501 N AUSTRALIAN AVE RM 215	LINDA DIXON		WEST PALM BEACH	FL	33407-5638	US			false		
111-2486014-1056268	42528293910754	2020-07-01T22:45:14+00:00	2020-07-01T15:45:14-07:00	2020-07-01T23:08:12+00:00	2020-07-07T06:59:59+00:00	-5	r5bmrpwtv8slqqy@marketplace.amazon.com	Daniel E. Smith	+1 314-282-9402 ext. 70783	ABR0022	Purchase Now for Delivery by Monday | Arabella Farm Direct Bouquet of 12 Fresh Cut Pink Roses with a Free Glass Vase	1	0	1	Expedited	Janet Fedora	301 BELPAIRE CT			NEWTOWN SQUARE	PA	19073-2129	US		Dearest Janet ~ We hope you had a lovely birthday.  All Our Love, Dan & Chris	false		
112-5352381-7100226	24284378419170	2020-07-01T23:05:38+00:00	2020-07-01T16:05:38-07:00	2020-07-01T23:36:10+00:00	2020-07-07T06:59:59+00:00	-5	rztjv9043p9mh7k@marketplace.amazon.com	Shanler le Roux	+1 346-307-9643 ext. 01123	ABR0055	Arabella Farm Direct Bouquet of 12 Stems of Fresh Cut Hot Pink Roses in a Free Designer Glass Vase	1	0	1	Expedited	Meri Christie De Wet	7700 GRANADA DR			BETHESDA	MD	20817-6608	US			false		
112-2871949-6324254	61988660116850	2020-07-01T23:20:34+00:00	2020-07-01T16:20:34-07:00	2020-07-01T23:46:28+00:00	2020-07-07T06:59:59+00:00	-5	yfwvthwnbjtjv7k@marketplace.amazon.com	Stephen Emineth	+1 346-307-9643 ext. 37168	ABR0033	Purchase Now for Delivery by Monday | Arabella Farm Direct Bouquet of 12 Fresh Cut Orange Roses with a Free Glass Vase	1	0	1	Expedited	Eyla Emineth	849 KINGSWAY RD			TALLAHASSEE	FL	32301-3313	US		Happy birthday mom!  With love; Steve and Nancy From Stephen Emineth	false		
113-5829579-2098601	10798689000146	2020-07-02T00:04:58+00:00	2020-07-01T17:04:58-07:00	2020-07-02T00:35:15+00:00	2020-07-07T06:59:59+00:00	-5	qltqcjksfp7n3v2@marketplace.amazon.com	Latoya	+1 314-282-9402 ext. 99011	ABR0022	Purchase Now for Delivery by Monday | Arabella Farm Direct Bouquet of 12 Fresh Cut Pink Roses with a Free Glass Vase	1	0	1	Expedited	Brandy	6307 Valley Brook Trace			Utica	Ky	42376	US			false		
113-3308973-3849832	50405611479954	2020-07-02T00:37:01+00:00	2020-07-01T17:37:01-07:00	2020-07-02T01:06:50+00:00	2020-07-07T06:59:59+00:00	-5	qltqcjksfp7n3v2@marketplace.amazon.com	Latoya	+1 347-448-3190 ext. 42654	ABR0022	Purchase Now for Delivery by Monday | Arabella Farm Direct Bouquet of 12 Fresh Cut Pink Roses with a Free Glass Vase	1	0	1	Expedited	Chrislyn Jones	6606 PEPPER TREE PL			AMARILLO	TX	79124-4970	US			false		
114-1218919-9583440	09811505150874	2020-07-02T01:46:57+00:00	2020-07-01T18:46:57-07:00	2020-07-02T02:15:35+00:00	2020-07-07T06:59:59+00:00	-5	g2y4q92hst96q74@marketplace.amazon.com	DeBorah Bellamy	+1 346-307-9643 ext. 49160	ABR0022	Purchase Now for Delivery by Monday | Arabella Farm Direct Bouquet of 12 Fresh Cut Pink Roses with a Free Glass Vase	1	0	1	Expedited	Ruthel Radar	525 W EL NORTE PKWY SPC 104			ESCONDIDO	CA	92026-3910	US			false		
114-0351954-6428271	28836739776114	2020-07-02T03:53:31+00:00	2020-07-01T20:53:31-07:00	2020-07-02T03:57:27+00:00	2020-07-07T06:59:59+00:00	-5	2wz3x84p3s1x9z3@marketplace.amazon.com	imelda	+1 346-307-9643 ext. 03842	ABR0022	Purchase Now for Delivery by Monday | Arabella Farm Direct Bouquet of 12 Fresh Cut Pink Roses with a Free Glass Vase	1	0	1	Expedited	Yanett Quezada	22048 W MORNING GLORY ST			BUCKEYE	AZ	85326-5907	US		Congratulations on your new home. I am truly happy for you and your family. Cant wait to see you girls!                           XOXO From I	false		
112-5449020-3403435	46230129659970	2020-07-02T04:04:50+00:00	2020-07-01T21:04:50-07:00	2020-07-02T04:33:49+00:00	2020-07-07T06:59:59+00:00	-5	dc0bpkqhd90tzzp@marketplace.amazon.com	Lauren Potts	+1 314-282-9402 ext. 15582	ABR0022	Purchase Now for Delivery by Monday | Arabella Farm Direct Bouquet of 12 Fresh Cut Pink Roses with a Free Glass Vase	1	0	1	Expedited	Cat Olson	29620 SPEASL RD			LEBANON	OR	97355-9779	US		Happy birthday!! From Luke, Lauren, Wicket & Artemis	false		
114-1144452-5625812	39126507220938	2020-07-02T04:46:42+00:00	2020-07-01T21:46:42-07:00	2020-07-02T05:15:15+00:00	2020-07-07T06:59:59+00:00	-5	8cx6br3fx10hm08@marketplace.amazon.com	Ezra Randolph	+1 346-307-9643 ext. 15712	ABM010	Arabella Bouquets | Fields of The World Bouquet of Fresh Cut Flowers in a Free Designer Glass Vase	1	0	1	Expedited	Ezra E Randolph	25 LODUS CT			NEW LONDON	CT	06320-4328	US		Enjoy your gift Bebe! From Ez.....	false		
111-7741629-0138600	42632589979682	2020-07-02T05:28:01+00:00	2020-07-01T22:28:01-07:00	2020-07-02T05:53:54+00:00	2020-07-07T06:59:59+00:00	-5	1rlhb1w77vcw1sy@marketplace.amazon.com	Simon	+1 346-307-9643 ext. 54049	ABR001	Arabella Bouquets 12 Stems of Fresh Cut Red Roses in a Free Designer Glass Vase	1	0	1	Expedited	Glynda Estrada	HOUSE 2114 SHOEMAKER DR			KILLEEN	TX	76543-3162	US		It's me Micheal your Handsome love, I just wanted you to know I will be coming to you soon Sweet, please stay safe for me I LOVE YOU From Micheal	false		
113-4872625-9342633	33307923220514	2020-07-02T06:25:20+00:00	2020-07-01T23:25:20-07:00	2020-07-02T06:55:44+00:00	2020-07-07T06:59:59+00:00	-5	43j7kh25wjm9z3x@marketplace.amazon.com	ZENG HAO	+1 346-307-9643 ext. 49707	ABM0044	Arabella Farm Direct Bouquet of Fresh Cut Blue Hydrangea with a Free Glass Vase	1	0	1	Expedited	ZIJUN GAO	307 E DANIEL ST APT 402			CHAMPAIGN	IL	61820-6466	US			false		
114-1485357-5117858	48823673375658	2020-07-02T09:28:39+00:00	2020-07-02T02:28:39-07:00	2020-07-02T09:56:54+00:00	2020-07-08T06:59:59+00:00	-6	fr1k9td19rzp55f@marketplace.amazon.com	Adam Dunainawi	+1 346-307-9643 ext. 85824	ABR0022	Purchase Now for Delivery by Monday | Arabella Farm Direct Bouquet of 12 Fresh Cut Pink Roses with a Free Glass Vase	1	0	1	Expedited	Adam Dunainawi	25331 SANDY TRACE LN			KATY	TX	77494-2487	US		To my love, my wife and my life (SURA). From Adam Dunainawi	false		
112-8977998-7479455	66822821326562	2020-07-02T11:08:01+00:00	2020-07-02T04:08:01-07:00	2020-07-02T11:33:54+00:00	2020-07-08T06:59:59+00:00	-6	6lsjw1v1pzcy9xv@marketplace.amazon.com	Michael DeCrescenzo	+1 347-448-3190 ext. 03400	ABR001	Arabella Bouquets 12 Stems of Fresh Cut Red Roses in a Free Designer Glass Vase	1	0	1	Expedited	Grace DeCrescenzo	8508 CLARK MILLS RD			WHITESBORO	NY	13492-2700	US		Mom - Thinking of you and Nani on her 56 anniversary.  Wishing you much peace. From Love, Mary, Rick, Mike and Gi	false		
114-5441281-5508268	34362795496154	2020-07-02T11:19:21+00:00	2020-07-02T04:19:21-07:00	2020-07-02T11:38:34+00:00	2020-07-08T06:59:59+00:00	-6	vfh47jws128l00l@marketplace.amazon.com	JASON A FRENTZEL	+1 314-282-9402 ext. 38782	ABR0033	Purchase Now for Delivery by Monday | Arabella Farm Direct Bouquet of 12 Fresh Cut Orange Roses with a Free Glass Vase	1	0	1	Expedited	Sue Eleuterio	3646 RIDGE RD			HIGHLAND	IN	46322-2052	US		Happy Birthday Aunt Sue! Love, Nat, Jason and Edison From Natalie FRENTZEL	false		
111-8204381-7559431	38718245357474	2020-07-02T11:32:14+00:00	2020-07-02T04:32:14-07:00	2020-07-02T11:55:38+00:00	2020-07-08T06:59:59+00:00	-6	cjj8fvx6zv0j5zm@marketplace.amazon.com	Adamjameshuston	+1 346-307-9643 ext. 62407	ABR0055	Arabella Farm Direct Bouquet of 12 Stems of Fresh Cut Hot Pink Roses in a Free Designer Glass Vase	1	0	1	Expedited	Selene Amber Quinn	1584 STATE HIGHWAY 22			WHITNEY	TX	76692-3026	US		Hey baby I wish I was there to take care of you hope you love the flowers and the hello kitty plush I love you with all my heart and all my soul don't you ever forget that. Love Adam <3 From Ur fiance to be Adam	false		
112-8971757-9616234	54445983636634	2020-07-02T11:31:22+00:00	2020-07-02T04:31:22-07:00	2020-07-02T11:57:03+00:00	2020-07-08T06:59:59+00:00	-6	tgtm3j7zgs7bbw9@marketplace.amazon.com	Laura Loconte	+1 346-307-9643 ext. 09124	ABR0033	Purchase Now for Delivery by Monday | Arabella Farm Direct Bouquet of 12 Fresh Cut Orange Roses with a Free Glass Vase	1	0	1	Expedited	Iris Buckner	477 WEST DR			COPIAGUE	NY	11726-5125	US		Happy Birthday Iris!!! Sending hugs & kisses for your special birthday. Love Laura & Rich From Laura & Rich Loconte	false		
114-4134806-1767440	23423987510418	2020-07-02T11:49:23+00:00	2020-07-02T04:49:23-07:00	2020-07-02T12:17:51+00:00	2020-07-08T06:59:59+00:00	-6	mqxvn12875m9xrz@marketplace.amazon.com	Linda Hammer	+1 314-282-9402 ext. 76506	ABR0022	Purchase Now for Delivery by Monday | Arabella Farm Direct Bouquet of 12 Fresh Cut Pink Roses with a Free Glass Vase	1	0	1	Expedited	Maureen Sullivan	12350 BASS LAKE RD			CHARDON	OH	44024-8336	US		Thinking of you, love you mom! From Linda Hammer	false		
112-1560536-4437033	52498771547674	2020-07-02T12:10:00+00:00	2020-07-02T05:10:00-07:00	2020-07-02T12:40:23+00:00	2020-07-08T06:59:59+00:00	-6	nh6cpx75y831pjf@marketplace.amazon.com	Damion Matadin	+1 346-307-9643 ext. 13169	ABR001	Arabella Bouquets 12 Stems of Fresh Cut Red Roses in a Free Designer Glass Vase	1	0	1	Expedited	LizAna Patrick	100 MARK LN UNIT E2			WATERBURY	CT	06704-2441	US			false		
114-4262859-8184223	69828630325466	2020-07-02T14:44:22+00:00	2020-07-02T07:44:22-07:00	2020-07-02T15:14:04+00:00	2020-07-08T06:59:59+00:00	-6	0brp517xp8824sc@marketplace.amazon.com	Theresamarino	+1 346-307-9643 ext. 48114	ABR0055	Arabella Farm Direct Bouquet of 12 Stems of Fresh Cut Hot Pink Roses in a Free Designer Glass Vase	1	0	1	Expedited	Fairy cadicamo	15960 79TH ST			HOWARD BEACH	NY	11414-2909	US		Thank you for all you do for us.. we love you xxx From Theresamarino	false		
112-2284226-0029020	32180392953282	2020-07-02T15:02:31+00:00	2020-07-02T08:02:31-07:00	2020-07-02T15:31:50+00:00	2020-07-08T06:59:59+00:00	-6	9rv5wq7jn0p3skw@marketplace.amazon.com	Andrew	+1 346-307-9643 ext. 35621	ABR001	Arabella Bouquets 12 Stems of Fresh Cut Red Roses in a Free Designer Glass Vase	1	0	1	Expedited	Andrew	2320 FOREST RIDGE TER			CHESAPEAKE BEACH	MD	20732-4677	US			false		
114-7091735-0962628	35897055081098	2020-07-02T15:18:05+00:00	2020-07-02T08:18:05-07:00	2020-07-02T15:45:05+00:00	2020-07-08T06:59:59+00:00	-6	3056xc6wzlrs1wx@marketplace.amazon.com	BobMatheson	+1 346-307-9643 ext. 08728	ABR0022	Purchase Now for Delivery by Monday | Arabella Farm Direct Bouquet of 12 Fresh Cut Pink Roses with a Free Glass Vase	1	0	1	Expedited	Jill Hitschler	9 CHATTANOOGA RD			IPSWICH	MA	01938-1509	US		Thinking of you. From BobMatheson	false		
112-6223495-6375451	53983877041402	2020-07-02T15:37:11+00:00	2020-07-02T08:37:11-07:00	2020-07-02T16:07:51+00:00	2020-07-08T06:59:59+00:00	-6	lq2pxpbxym7mk9j@marketplace.amazon.com	Julie Gloersen	+1 346-307-9643 ext. 63055	ABR0022	Purchase Now for Delivery by Monday | Arabella Farm Direct Bouquet of 12 Fresh Cut Pink Roses with a Free Glass Vase	1	0	1	Expedited	Julie Gloersen	11430 HARBOUR WOODS RD S			JACKSONVILLE	FL	32225-1507	US			false		
113-5364193-0559459	68466903226682	2020-07-02T15:43:06+00:00	2020-07-02T08:43:06-07:00	2020-07-02T16:11:39+00:00	2020-07-08T06:59:59+00:00	-6	2q8bszbz1gpd90k@marketplace.amazon.com	april g. pugh	+1 210-728-4548 ext. 35451	ABR0055	Arabella Farm Direct Bouquet of 12 Stems of Fresh Cut Hot Pink Roses in a Free Designer Glass Vase	1	0	1	Expedited	Emma Wells	2419 LODGE FARM RD			BALTIMORE	MD	21219-1935	US		Beautiful Roses for a Beautiful Mother!  Mom, Harry and I love you very much! From april & harry	false		
114-9734287-7237055	13334954574490	2020-07-02T16:36:30+00:00	2020-07-02T09:36:30-07:00	2020-07-02T16:58:58+00:00	2020-07-08T06:59:59+00:00	-6	9yqyxvy0syj6gj4@marketplace.amazon.com	chris Visvis	+1 346-307-9643 ext. 16743	ABR0022	Purchase Now for Delivery by Monday | Arabella Farm Direct Bouquet of 12 Fresh Cut Pink Roses with a Free Glass Vase	1	0	1	Expedited	Nancy Hutchins	51 SUNSET PKWY			ASHEVILLE	NC	28801-1528	US		Dear Sweet, Faithful and Courageous Nancy! I am so proud of you, "roomie", and how steadfast and brave you have been over the past months with all the challenges you have faced in dealing with cancer.  Love you so much. Bets From Betsy Visvis	false		
111-3661805-9413048	02453272936090	2020-07-02T16:48:16+00:00	2020-07-02T09:48:16-07:00	2020-07-02T17:18:22+00:00	2020-07-08T06:59:59+00:00	-6	syjq7bzgmd79zlq@marketplace.amazon.com	Taj	+1 346-307-9643 ext. 63106	ABR0022	Purchase Now for Delivery by Monday | Arabella Farm Direct Bouquet of 12 Fresh Cut Pink Roses with a Free Glass Vase	1	0	1	Expedited	Grandma Elkin	1773 HANNAH LN	PENGREE GROVE IL 60140 UNITED STATES		PINGREE GROVE	IL	60140-5417	US			false		
114-6464706-0996209	19981787981810	2020-07-02T17:53:49+00:00	2020-07-02T10:53:49-07:00	2020-07-02T18:23:41+00:00	2020-07-08T06:59:59+00:00	-6	j49bprz4z1rjg1f@marketplace.amazon.com	DONNA T Drake	+1 346-307-9643 ext. 76305	ABR015	Arabella Farm Direct Bouquet of 18 Fresh Cut Orange Roses with a Free Glass Vase	1	0	1	Expedited	Mrs Patricia Truehart	312 EVERGREEN DR			MANDEVILLE	LA	70471-2537	US		I love you mom! From Donna xxoo	false		
114-5291383-1460259	31903385570866	2020-07-02T18:39:24+00:00	2020-07-02T11:39:24-07:00	2020-07-02T18:42:47+00:00	2020-07-07T06:59:59+00:00	-5	n8zn9w0p0npnsxz@marketplace.amazon.com	Drue	+1 210-728-4548 ext. 50757	ABR001	Arabella Bouquets 12 Stems of Fresh Cut Red Roses in a Free Designer Glass Vase	1	0	1	NextDay	Drue	235 CARMEN ST			COPPERAS COVE	TX	76522-9752	US		Happy Birthday From Drue	false		
113-9550467-8824212	48904659541162	2020-07-02T18:14:03+00:00	2020-07-02T11:14:03-07:00	2020-07-02T18:44:13+00:00	2020-07-08T06:59:59+00:00	-6	y4nsfmq2rx9djmv@marketplace.amazon.com	F. Arbab	+1 210-728-4548 ext. 17603	ABR0022	Purchase Now for Delivery by Monday | Arabella Farm Direct Bouquet of 12 Fresh Cut Pink Roses with a Free Glass Vase	1	0	1	Expedited	Manda Arbab	13 HEREFORD ST			BOSTON	MA	02115-1603	US			false		
112-9726355-1166621	25689034192554	2020-07-02T18:53:25+00:00	2020-07-02T11:53:25-07:00	2020-07-02T18:54:33+00:00	2020-07-07T06:59:59+00:00	-5	n4mwftllnfvspzs@marketplace.amazon.com	Laura Anderson	+1 346-307-9643 ext. 60288	ABR0055	Arabella Farm Direct Bouquet of 12 Stems of Fresh Cut Hot Pink Roses in a Free Designer Glass Vase	1	0	1	NextDay	Christine Carroll	268 WYCOFF WAY W			EAST BRUNSWICK	NJ	08816-5650	US		Thank you so much for hosting us! We had a wonderful time visiting NJ and spending time with family! See you soon! xo From Laura Anderson	false		
112-5033084-9131441	24456119397586	2020-07-02T18:50:54+00:00	2020-07-02T11:50:54-07:00	2020-07-02T18:55:46+00:00	2020-07-07T06:59:59+00:00	-5	l6fv2ftg80qzczk@marketplace.amazon.com	joyce c deboben	+1 210-728-4548 ext. 30326	ABR0022	Purchase Now for Delivery by Monday | Arabella Farm Direct Bouquet of 12 Fresh Cut Pink Roses with a Free Glass Vase	1	0	1	NextDay	Gregg and Julie Deboben	13005 BELL CREEK CHASE			RIVERVIEW	FL	33569-5727	US			false		
113-3418861-3286605	14452595859082	2020-07-02T19:24:41+00:00	2020-07-02T12:24:41-07:00	2020-07-02T19:25:34+00:00	2020-07-07T06:59:59+00:00	-5	20k5npbs0hmjqgb@marketplace.amazon.com	DONNA SIEGEL	+1 346-307-9643 ext. 19561	ABR0055	Arabella Farm Direct Bouquet of 12 Stems of Fresh Cut Hot Pink Roses in a Free Designer Glass Vase	1	0	1	NextDay	HAYLEY JACOBS	48 JOHNSON AVE APT A			SAYVILLE	NY	11782-1129	US		Happy 25th Birthday! Love Always Mom From DONNA SIEGEL	false		
113-0509425-5719427	55496963491362	2020-07-02T19:14:16+00:00	2020-07-02T12:14:16-07:00	2020-07-02T19:44:56+00:00	2020-07-08T06:59:59+00:00	-6	krvl8kggf73lyh2@marketplace.amazon.com	mary propes	+1 210-728-4548 ext. 49841	ABM010	Arabella Bouquets | Fields of The World Bouquet of Fresh Cut Flowers in a Free Designer Glass Vase	1	0	1	Expedited	Donna Hansen	27 DALTON ST			DANIEL ISLAND	SC	29492-7960	US			false		
114-1202298-1989023	01244766495506	2020-07-02T19:36:28+00:00	2020-07-02T12:36:28-07:00	2020-07-02T20:04:04+00:00	2020-07-08T06:59:59+00:00	-6	44jczfl466kv3x2@marketplace.amazon.com	Sarah Hart	+1 347-448-3190 ext. 42296	ABM010	Arabella Bouquets | Fields of The World Bouquet of Fresh Cut Flowers in a Free Designer Glass Vase	1	0	1	Expedited	Donna Bednar	2328 WOODSTOCK AVE			PITTSBURGH	PA	15218-2668	US		Hi Donna, All good wishes to you in your next chapter! :) From Sarah Hart	false		
111-8845896-7393003	55943899178050	2020-07-02T20:06:15+00:00	2020-07-02T13:06:15-07:00	2020-07-02T20:07:09+00:00	2020-07-07T06:59:59+00:00	-5	cp62tmd4hrf4x4j@marketplace.amazon.com	John stange	+1 314-282-9402 ext. 03517	ABM010	Arabella Bouquets | Fields of The World Bouquet of Fresh Cut Flowers in a Free Designer Glass Vase	1	0	1	NextDay	Karen Baker	35605 AVENUE E			YUCAIPA	CA	92399-4851	US		GET WELL!! From Janet Stange	false		
111-7807728-4973047	48587608672298	2020-07-02T19:47:05+00:00	2020-07-02T12:47:05-07:00	2020-07-02T20:09:42+00:00	2020-07-08T06:59:59+00:00	-6	kpwwb7qbwr4c0rt@marketplace.amazon.com	Kimberly Strauss Hess	+1 314-282-9402 ext. 66498	ABR0022	Purchase Now for Delivery by Monday | Arabella Farm Direct Bouquet of 12 Fresh Cut Pink Roses with a Free Glass Vase	1	0	1	Expedited	Elsie Weissenbacher C/O Morningside Senior Living	2435 LIMESTONE PKWY			GAINESVILLE	GA	30501-2093	US		Aunt Elsie   Just some spring influence for your new apartment.  Much Love Kimmy & Steve From Kimberly Strauss Hess	false		
111-7256014-6963402	50784287038970	2020-07-02T20:25:38+00:00	2020-07-02T13:25:38-07:00	2020-07-02T20:29:07+00:00	2020-07-07T06:59:59+00:00	-5	vwbrx0n8shwlcb4@marketplace.amazon.com	Sara Hardy	+1 346-307-9643 ext. 14026	ABM010	Arabella Bouquets | Fields of The World Bouquet of Fresh Cut Flowers in a Free Designer Glass Vase	1	0	1	NextDay	Nancy Kooiman	10802 HOBBIT LN			WESTMINSTER	CO	80031-2248	US		Happy Birthday Mom!  Love, Sara From Sara Hardy	false		
113-1782887-0697040	12262465262466	2020-07-02T20:43:55+00:00	2020-07-02T13:43:55-07:00	2020-07-02T20:47:27+00:00	2020-07-07T06:59:59+00:00	-5	6xttsm6s392xpff@marketplace.amazon.com	Jill Lemone	+1 210-728-4548 ext. 07729	ABM010	Arabella Bouquets | Fields of The World Bouquet of Fresh Cut Flowers in a Free Designer Glass Vase	1	0	1	NextDay	Ann looney	44 MINUTEMAN CIR			ALLENTOWN	NJ	08501-1861	US		Get Well Soon!!  Love, Tim, Jill, Ryan, Hailey and Hannah From The Looney's	false		
113-6755702-9922660	58665289099450	2020-07-02T20:51:48+00:00	2020-07-02T13:51:48-07:00	2020-07-02T20:52:46+00:00	2020-07-07T06:59:59+00:00	-5	1h62lrv5p5n2d3k@marketplace.amazon.com	Burnell King	+1 347-448-3190 ext. 24067	ABR0022	Purchase Now for Delivery by Monday | Arabella Farm Direct Bouquet of 12 Fresh Cut Pink Roses with a Free Glass Vase	1	0	1	NextDay	Shneek Walker	143 W WYNEVA ST			PHILADELPHIA	PA	19144-3631	US		May these flowers ease your stress and remind you that you are always thought of fondly.        Yours Always,   Sonny King From Burnell King	false		
113-2861790-9029039	34563917074650	2020-07-02T21:00:12+00:00	2020-07-02T14:00:12-07:00	2020-07-02T21:02:21+00:00	2020-07-07T06:59:59+00:00	-5	d0db8s574dgg2ts@marketplace.amazon.com	catherine king	+1 346-307-9643 ext. 79707	ABR0022	Purchase Now for Delivery by Monday | Arabella Farm Direct Bouquet of 12 Fresh Cut Pink Roses with a Free Glass Vase	1	0	1	NextDay	Carla Russell	2129 LORETO DR			FORT WORTH	TX	76177-7403	US		Hi Carla,  Get Well Soon, I Love you  From  mom	false		
112-6677907-2956212	13385744461994	2020-07-02T21:15:31+00:00	2020-07-02T14:15:31-07:00	2020-07-02T21:18:43+00:00	2020-07-07T06:59:59+00:00	-5	qjf76tm7vjx0kwy@marketplace.amazon.com	Michelle Burke	+1 346-307-9643 ext. 44162	ABM010	Arabella Bouquets | Fields of The World Bouquet of Fresh Cut Flowers in a Free Designer Glass Vase	1	0	1	NextDay	Betty Hoag	N3509 S GOULD CITY RD			GOULD CITY	MI	49838-8912	US		Love you mom! From Michelle	false		
111-7859103-4506621	68771684069658	2020-07-02T21:18:00+00:00	2020-07-02T14:18:00-07:00	2020-07-02T21:21:35+00:00	2020-07-07T06:59:59+00:00	-5	5hhr07wt36xk3k9@marketplace.amazon.com	beatriz	+1 314-282-9402 ext. 45259	ABR004	Arabella Farm Direct Bouquet of 12 Fresh Cut Yellow Roses with a Free Glass Vase	1	0	1	NextDay	Julia Ubbenga (+Eva & Fam)	4136 W 95TH ST APT 111W			PRAIRIE VILLAGE	KS	66207-2731	US			false		
113-8149825-3123444	25835134913266	2020-07-02T21:04:25+00:00	2020-07-02T14:04:25-07:00	2020-07-02T21:31:05+00:00	2020-07-08T06:59:59+00:00	-6	hjs8yld6b0g6skn@marketplace.amazon.com	Ross Hewison	+1 314-282-9402 ext. 75761	ABM010	Arabella Bouquets | Fields of The World Bouquet of Fresh Cut Flowers in a Free Designer Glass Vase	1	0	1	Expedited	Anita Sitarski	15 NADINE WAY			JOHNSON CITY	NY	13790-5100	US			false		
112-1431547-7390623	65773555080170	2020-07-02T22:26:13+00:00	2020-07-02T15:26:13-07:00	2020-07-02T22:29:41+00:00	2020-07-07T06:59:59+00:00	-5	67z69dmtx38y895@marketplace.amazon.com	Anotnio Camacho	+1 346-307-9643 ext. 65341	ABR0022	Purchase Now for Delivery by Monday | Arabella Farm Direct Bouquet of 12 Fresh Cut Pink Roses with a Free Glass Vase	1	0	1	NextDay	Paiten Pedro	7939 68TH LOOP SE			OLYMPIA	WA	98513-5223	US		Hope you like them! From Noni	false		
112-9333109-2251441	39651190333538	2020-07-02T22:05:18+00:00	2020-07-02T15:05:18-07:00	2020-07-02T22:35:40+00:00	2020-07-08T06:59:59+00:00	-6	f3spm3m4ljcq2z5@marketplace.amazon.com	Kevin Sweeney	+1 346-307-9643 ext. 03028	ABR0055	Arabella Farm Direct Bouquet of 12 Stems of Fresh Cut Hot Pink Roses in a Free Designer Glass Vase	1	0	1	Expedited	Jenn Tenison	1126 AVOCADO AVE			EL CAJON	CA	92020-7703	US			false		
113-9890923-5561863	28192069143290	2020-07-02T23:22:33+00:00	2020-07-02T16:22:33-07:00	2020-07-02T23:25:13+00:00	2020-07-07T06:59:59+00:00	-5	bzlsfr5gzls8ct9@marketplace.amazon.com	nina casallas	+1 346-307-9643 ext. 93452	ABR0022	Purchase Now for Delivery by Monday | Arabella Farm Direct Bouquet of 12 Fresh Cut Pink Roses with a Free Glass Vase	1	0	1	NextDay	Winnie Chung	6 TURNER LN			TOWACO	NJ	07082-1446	US		Winnie!! Congratulations on your retirement! We are so proud of you & hope the next chapter in your life is exciting & adventure filled (but also relaxing). Please stay in touch & text us often. Enjoy your flowers! From Anita & Diana	false		
113-5578016-9099454	65533518738802	2020-07-02T23:00:31+00:00	2020-07-02T16:00:31-07:00	2020-07-02T23:31:13+00:00	2020-07-08T06:59:59+00:00	-6	d41yk25v8vb2t8p@marketplace.amazon.com	Ryder white	+1 346-307-9643 ext. 95468	ABR0022	Purchase Now for Delivery by Monday | Arabella Farm Direct Bouquet of 12 Fresh Cut Pink Roses with a Free Glass Vase	1	0	1	Expedited	Ryder white	1703 8TH AVE			CANYON	TX	79015-4511	US			false		
113-9301589-3648259	35996877110730	2020-07-03T00:04:25+00:00	2020-07-02T17:04:25-07:00	2020-07-03T00:06:43+00:00	2020-07-07T06:59:59+00:00	-5	scshrv01v8zfcf0@marketplace.amazon.com	Julie	+1 346-307-9643 ext. 44747	ABR0055	Arabella Farm Direct Bouquet of 12 Stems of Fresh Cut Hot Pink Roses in a Free Designer Glass Vase	1	0	1	NextDay	Mrs. James Boudreau	8047A EICHENLAUB CT			MOUNTAIN HOME AFB	ID	83648-1094	US		Thank you for making us Grandparents, both Emilia & Phoebe are the best gifts.  Love you all, Mom & Ken XoXo From Julie	false		
114-7555233-4333862	51096604914770	2020-07-03T00:05:51+00:00	2020-07-02T17:05:51-07:00	2020-07-03T00:11:12+00:00	2020-07-07T06:59:59+00:00	-5	ptmpdtyjq2byzsn@marketplace.amazon.com	Kristen Brunson	+1 346-307-9643 ext. 09788	ABR0022	Purchase Now for Delivery by Monday | Arabella Farm Direct Bouquet of 12 Fresh Cut Pink Roses with a Free Glass Vase	1	0	1	NextDay	Helen Brunson	180 REDWOOD RD			KLAMATH	CA	95548-9310	US			false		
112-6205318-1296260	35035284810490	2020-07-03T00:24:29+00:00	2020-07-02T17:24:29-07:00	2020-07-03T00:30:54+00:00	2020-07-07T06:59:59+00:00	-5	p9b2qmvkrntqctv@marketplace.amazon.com	LaiNa Ching	+1 346-307-9643 ext. 03661	ABM010	Arabella Bouquets | Fields of The World Bouquet of Fresh Cut Flowers in a Free Designer Glass Vase	1	0	1	NextDay	Lai Yee Ching	171 S MAIN ST APARTMENT # 1			RITTMAN	OH	44270-1461	US		I love you sis! Thank you for loving me and always helping me with my English! And thank you for the care package. You made my day when I needed  a smile on my face. I love you From LaiNa Benjamin	false		
