order-id	order-item-id	purchase-date	payments-date	reporting-date	promise-date	days-past-promise	buyer-email	buyer-name	buyer-phone-number	sku	product-name	quantity-purchased	quantity-shipped	quantity-to-ship	ship-service-level	recipient-name	ship-address-1	ship-address-2	ship-address-3	ship-city	ship-state	ship-postal-code	ship-country	gift-wrap-type	gift-message-text	is-business-order	purchase-order-number	price-designation
113-5070823-4739405	32651610235642	2020-06-30T18:12:33+00:00	2020-06-30T11:12:33-07:00	2020-06-30T18:41:23+00:00	2020-07-03T06:59:59+00:00	-2	07d9w5wb3wkc9pn@marketplace.amazon.com	Ella P	+1 346-307-9643 ext. 16291	ABR015	Arabella Farm Direct Bouquet of 18 Fresh Cut Orange Roses with a Free Glass Vase	1	0	1	Expedited	Al Vela	12 TARRAGON DR			EAST HAMPTON	CT	06424-1755	US		Happy Birthday Isabel..! Love Ella From Ella P	false		
114-2096798-3012228	17371075314962	2020-06-30T18:21:02+00:00	2020-06-30T11:21:02-07:00	2020-06-30T18:49:34+00:00	2020-07-03T06:59:59+00:00	-2	6wp35hvbh773fgz@marketplace.amazon.com	Turquoise Johnson	+1 210-728-4548 ext. 05629	ABM010	Arabella Bouquets | Fields of The World Bouquet of Fresh Cut Flowers in a Free Designer Glass Vase	1	0	1	Expedited	Rick Johnson	2039 HEATHER RD			FOLCROFT	PA	19032-1610	US		In remembrance of Demetrias, our Meechee! Love you papa bear. From Turquoise Johnson	false		
112-5077262-2696204	28880958237754	2020-06-30T18:53:37+00:00	2020-06-30T11:53:37-07:00	2020-06-30T19:16:55+00:00	2020-07-02T06:59:59+00:00	-1	pwnnfwd4dmwrgkm@marketplace.amazon.com	Fabufit	+1 314-282-9402 ext. 11528	ABM010	Arabella Bouquets | Fields of The World Bouquet of Fresh Cut Flowers in a Free Designer Glass Vase	1	0	1	SecondDay	Kreig Teaque	751 COLUMNS CIR SE			MARIETTA	GA	30067-4619	US		God bless you with a supernatural speedy recovery. Praise the Lord! His mercies endure foreve; and they are new every morning.  Love, prayers, and blessings! From John and Dani Rotramel	false		
112-8231379-1977005	28853702872610	2020-06-30T19:16:14+00:00	2020-06-30T12:16:14-07:00	2020-06-30T19:46:46+00:00	2020-07-03T06:59:59+00:00	-2	cj80827zzfzy8pz@marketplace.amazon.com	Daria	+1 346-307-9643 ext. 35237	ABR001	Purchase Now for Delivery by Friday | Arabella Bouquets 12 Stems of Fresh Cut Red Roses in a Free Designer Glass Vase	1	0	1	Expedited	Daria	1707 FOX RUN DR  1707			PLAINSBORO	NJ	08536-2674	US			false		
114-9164751-4859407	32999449705138	2020-06-30T19:59:57+00:00	2020-06-30T12:59:57-07:00	2020-06-30T20:16:15+00:00	2020-07-02T06:59:59+00:00	-1	3l5cdc1bhsp9n9g@marketplace.amazon.com	RENEE	+1 346-307-9643 ext. 07551	ABR0033	Purchase Now for Delivery by Friday | Arabella Farm Direct Bouquet of 12 Fresh Cut Orange Roses with a Free Glass Vase	1	0	1	SecondDay	Julie Tapia	12256 DESERT RANCH RD			PHELAN	CA	92371-4603	US		We love you Grandma Julie ❤ From Bob , Renee Zaiden & Zoe	false		
113-2356282-3678641	18242360310674	2020-06-30T19:53:49+00:00	2020-06-30T12:53:49-07:00	2020-06-30T20:20:13+00:00	2020-07-03T06:59:59+00:00	-2	3v687g19yjxbq4r@marketplace.amazon.com	Anne E Scully	+1 346-307-9643 ext. 38087	ABR0022	Purchase Now for Delivery by Friday | Arabella Farm Direct Bouquet of 12 Fresh Cut Pink Roses with a Free Glass Vase	1	0	1	Expedited	Kay Costello	270 CHESTNUT ST			SAN CARLOS	CA	94070-2115	US		Dear Kay, We're thinking of you. Hope your happy memories of your brother will help ease your great pain. Love you, Anne and Bill From Anne E Scully	false		
113-5728781-0738653	28735733529522	2020-06-30T20:11:26+00:00	2020-06-30T13:11:26-07:00	2020-06-30T20:28:16+00:00	2020-07-02T06:59:59+00:00	-1	3q8sz80rttrqwr3@marketplace.amazon.com	Carolyn Lamb	+1 346-307-9643 ext. 57157	ABR001	Purchase Now for Delivery by Friday | Arabella Bouquets 12 Stems of Fresh Cut Red Roses in a Free Designer Glass Vase	1	0	1	SecondDay	Kathleen Mehl	BELLE FOUNTAIN NURSING AND REHAB	18591 QUARRY ST		RIVERVIEW	MI	48193-4522	US		Sis, Hope you are up and running soon!!  Love you so much,  Carolyn #1, Rachele and Doug From Carolyn Lamb	false		
112-8428496-2693027	12002784933338	2020-06-30T20:30:53+00:00	2020-06-30T13:30:53-07:00	2020-06-30T21:00:48+00:00	2020-07-02T06:59:59+00:00	-1	9b20yy067bpql0d@marketplace.amazon.com	Dylan Isenberg	+1 346-307-9643 ext. 68826	ABR0022	Purchase Now for Delivery by Friday | Arabella Farm Direct Bouquet of 12 Fresh Cut Pink Roses with a Free Glass Vase	1	0	1	SecondDay	Dylan Isenberg	1445 HAIRETOWN RD			JONESBOROUGH	TN	37659-4151	US		For my sunshine. From Turkey leg	false		
113-4280253-2549048	53621152557474	2020-06-30T19:54:48+00:00	2020-06-30T12:54:48-07:00	2020-06-30T21:01:28+00:00	2020-07-03T06:59:59+00:00	-2	zwj6581kjp5z6rc@marketplace.amazon.com	Rachel Vedder	+1 314-282-9402 ext. 74139	ABR0066	Arabella Bouquets 18 Stems of Fresh Cut White Roses in a Free Designer Glass Vase	1	0	1	Expedited	Nancy Kahn	76 BALLAD CT			EASTPORT	NY	11941-1602	US			false		
114-6361291-1217817	45094187023042	2020-06-30T20:36:28+00:00	2020-06-30T13:36:28-07:00	2020-06-30T21:03:48+00:00	2020-07-02T06:59:59+00:00	-1	fq52269llsbhvfv@marketplace.amazon.com	FRANCINE JACKSON	+1 314-282-9402 ext. 67017	ABR0022	Purchase Now for Delivery by Friday | Arabella Farm Direct Bouquet of 12 Fresh Cut Pink Roses with a Free Glass Vase	1	0	1	SecondDay	JULIE HISH	34832 S WURTZ RD			WILMINGTON	IL	60481-9726	US		Happy 75th!  Smiles to you, Francine From FRANCINE JACKSON	false		
113-7370327-9679424	63588857350594	2020-06-30T21:04:18+00:00	2020-06-30T14:04:18-07:00	2020-06-30T21:32:30+00:00	2020-07-02T06:59:59+00:00	-1	8hwjvsnfwhtqd88@marketplace.amazon.com	joanna klim	+1 346-307-9643 ext. 66550	ABM010	Arabella Bouquets | Fields of The World Bouquet of Fresh Cut Flowers in a Free Designer Glass Vase	1	0	1	SecondDay	Agnes Lampart	1681 65TH ST APT A2			BROOKLYN	NY	11204-3641	US		Wszystkiego Naj Lepszego W Dniu Twych Urodzin  Życzymy Tobie żeby  wszystkich twoje  marzeń się spełniły              XOXO Asia Piotr z Rodziną From joanna klim	false		
112-1009096-1929049	02661844941866	2020-06-30T21:04:43+00:00	2020-06-30T14:04:43-07:00	2020-06-30T21:44:50+00:00	2020-07-03T06:59:59+00:00	-2	3sf67fzt7d0x0l4@marketplace.amazon.com	sandra valdez	+1 346-307-9643 ext. 03139	ABM002	Purchase Now for Delivery by Friday | Arabella Bouquets Fresh Cut White Calla Lilies in a Free Designer Glass Vase	1	0	1	Expedited	Mrs. Donna Reed	1205 VIA ESCALANTE			CHULA VISTA	CA	91910-8149	US		To Donna, our Sister in Christ, wonderful friend and neighbor.  You will forever be a blessing in our lives.  With heartfelt thoughts of you and with love, Tony, Sandy & Lady too!	false		
111-6672509-1177830	67062054250194	2020-06-30T21:35:33+00:00	2020-06-30T14:35:33-07:00	2020-06-30T22:03:53+00:00	2020-07-02T06:59:59+00:00	-1	yt1rdlkz0bl1k2h@marketplace.amazon.com	Matt jones	+1 346-307-9643 ext. 36878	ABR001	Purchase Now for Delivery by Friday | Arabella Bouquets 12 Stems of Fresh Cut Red Roses in a Free Designer Glass Vase	1	0	1	SecondDay	Kelly Dille	16713 WENWOOD DR			BATON ROUGE	LA	70817-6957	US		Wish we could be together! I miss you so much but know that I will see you soon and love you! Thanks for being the most amazing woman a man could ask for! Love, Matt From Matt	false		
114-7017789-9547424	42259686811186	2020-06-30T22:25:35+00:00	2020-06-30T15:25:35-07:00	2020-06-30T22:56:05+00:00	2020-07-03T06:59:59+00:00	-2	n9fmndt06rww6zt@marketplace.amazon.com	Rusne Valaikiene	+1 346-307-9643 ext. 14330	ABR004	Arabella Farm Direct Bouquet of 12 Fresh Cut Yellow Roses with a Free Glass Vase	1	0	1	Expedited	Rimas Kregzde	2111 ORANGE AVE # B			COSTA MESA	CA	92627-1848	US			false		
112-6507710-5943435	21934668857770	2020-06-30T22:28:50+00:00	2020-06-30T15:28:50-07:00	2020-06-30T22:59:19+00:00	2020-07-02T06:59:59+00:00	-1	vzwghhzp70nm1vw@marketplace.amazon.com	Michelle Hagl	+1 346-307-9643 ext. 76239	ABR0022	Purchase Now for Delivery by Friday | Arabella Farm Direct Bouquet of 12 Fresh Cut Pink Roses with a Free Glass Vase	1	0	1	SecondDay	Michelle Hagl	11 HAWTHORNE DR			WEST BOYLSTON	MA	01583-2322	US			false		
113-0377474-1176249	44447336597394	2020-06-30T22:31:40+00:00	2020-06-30T15:31:40-07:00	2020-06-30T22:59:57+00:00	2020-07-02T06:59:59+00:00	-1	hxpj5bwhzd03p8k@marketplace.amazon.com	Anthony Martin	+1 314-282-9402 ext. 23054	ABM010	Arabella Bouquets | Fields of The World Bouquet of Fresh Cut Flowers in a Free Designer Glass Vase	1	0	1	SecondDay	Anthony Martin	3506 BROOKE LN			PANAMA CITY	FL	32404-5723	US			false		
113-9863938-6709827	42172119451930	2020-06-30T23:04:22+00:00	2020-06-30T16:04:22-07:00	2020-06-30T23:33:14+00:00	2020-07-02T06:59:59+00:00	-1	3wsxbmbbc7mdh7n@marketplace.amazon.com	Nico	+1 346-307-9643 ext. 16205	ABR001	Purchase Now for Delivery by Friday | Arabella Bouquets 12 Stems of Fresh Cut Red Roses in a Free Designer Glass Vase	1	0	1	SecondDay	Sarah Wiemeler	2112 Providence Way			Joliet	IL	60531	US		Happy Birthday! I miss and love you! :) From Nico	false		
111-6076897-9951434	31703652418506	2020-06-30T23:49:06+00:00	2020-06-30T16:49:06-07:00	2020-07-01T00:14:47+00:00	2020-07-02T06:59:59+00:00	-1	gpk694cx2h8jk1c@marketplace.amazon.com	Marcia Sollie	+1 314-282-9402 ext. 45622	ABM010	Arabella Bouquets | Fields of The World Bouquet of Fresh Cut Flowers in a Free Designer Glass Vase	1	0	1	SecondDay	Carol Swenby	3313 361ST ST			FERTILE	MN	56540-9492	US			false		
112-0161772-9151453	01137238089754	2020-07-01T00:07:23+00:00	2020-06-30T17:07:23-07:00	2020-07-01T00:36:03+00:00	2020-07-03T06:59:59+00:00	-2	wqw91ytjhjlqf7z@marketplace.amazon.com	James williams	+1 347-448-3190 ext. 06214	ABR0022	Purchase Now for Delivery by Friday | Arabella Farm Direct Bouquet of 12 Fresh Cut Pink Roses with a Free Glass Vase	1	0	1	Expedited	Linda hayes	15041 KEESEY CT			STEWARTSTOWN	PA	17363-9480	US			false		
111-6734025-4794609	46936496935698	2020-07-01T00:11:39+00:00	2020-06-30T17:11:39-07:00	2020-07-01T00:39:09+00:00	2020-07-02T06:59:59+00:00	-1	pwks0l435sghqyp@marketplace.amazon.com	Grace Wilkinson	+1 346-307-9643 ext. 17179	ABR001	Purchase Now for Delivery by Friday | Arabella Bouquets 12 Stems of Fresh Cut Red Roses in a Free Designer Glass Vase	1	0	1	SecondDay	Geraldine Abeel	677 N SODERQUIST RD # 1224			TURLOCK	CA	95380-3714	US		Thinking about you and thought you would like some flowers :-) From Ben and Grace Wilkinson	false		
112-2690758-3254655	30323680995778	2020-07-01T00:24:13+00:00	2020-06-30T17:24:13-07:00	2020-07-01T00:51:59+00:00	2020-07-02T06:59:59+00:00	-1	wqnl71h69d9jt0j@marketplace.amazon.com	Joy Austin	+1 346-307-9643 ext. 49524	ABB015	Arabella Farm Direct Bouquet of 24 Fresh Cut Orange Roses with a Free Glass Vase	1	0	1	SecondDay	Dr. Robert Connor	1550 STUYVESANT AVE			EWING	NJ	08618-3310	US		To: Rob and Su! Love and admire you both very much! Happy Anniversary! From Joy and Bobby	false		
111-9897208-8749850	56038121416066	2020-07-01T01:06:54+00:00	2020-06-30T18:06:54-07:00	2020-07-01T01:17:54+00:00	2020-07-02T06:59:59+00:00	-1	1kx1dw8pk7sj1xt@marketplace.amazon.com	Karoline Tyne	+1 314-282-9402 ext. 90158	ABM010	Arabella Bouquets | Fields of The World Bouquet of Fresh Cut Flowers in a Free Designer Glass Vase	1	0	1	SecondDay	Sandra Hobert	5 Miller Farms Court	#5 COURT #5 COURT  #5 COURT		Miller Place	New York	11764	US		Hi Mom, I am so glad you are home! Fresh flowers always help the healing process!  Hope these make your day! Thank you for the awesome Chromebook! I love you!!  Love, ~ Ka ~.  xo xo xo  From Karoline Tyne	false		
111-8771928-4157825	15508274167634	2020-07-01T01:48:03+00:00	2020-06-30T18:48:03-07:00	2020-07-01T02:15:45+00:00	2020-07-02T06:59:59+00:00	-1	b36sxwnswhm8b37@marketplace.amazon.com	Natalie Fox	+1 346-307-9643 ext. 55591	ABR0022	Purchase Now for Delivery by Friday | Arabella Farm Direct Bouquet of 12 Fresh Cut Pink Roses with a Free Glass Vase	1	0	1	SecondDay	Rocio Riquelme	637 E PENNSYLVANIA DR APT 3			PALATINE	IL	60074-1971	US		Feliz cumpleanos Rocio From your FIND family	false		
112-9748018-7905849	45109219901250	2020-07-01T02:09:31+00:00	2020-06-30T19:09:31-07:00	2020-07-01T02:39:48+00:00	2020-07-03T06:59:59+00:00	-2	w6xvdrnkn07m03x@marketplace.amazon.com	Allen Gil	+1 346-307-9643 ext. 27390	ABR0022	Purchase Now for Delivery by Friday | Arabella Farm Direct Bouquet of 12 Fresh Cut Pink Roses with a Free Glass Vase	1	0	1	Expedited	Barbara Radany	22410 POPLAR CT			MURRIETA	CA	92562-3093	US			false		
112-9464846-2343446	51977444042546	2020-07-01T02:21:37+00:00	2020-06-30T19:21:37-07:00	2020-07-01T02:48:07+00:00	2020-07-02T06:59:59+00:00	-1	5lrdr7653ybbjgh@marketplace.amazon.com	Tammy Sue Rice	+1 346-307-9643 ext. 60942	ABR012	Arabella Farm Direct Bouquet of 18 Fresh Cut Pink Roses with a Free Glass Vase	1	0	1	SecondDay	Mindy Pierman	2220 CRANBROOK DR NE			GRAND RAPIDS	MI	49505-5723	US		Mindy, I am so sorry of your beloved Duke. This is a huge hug from me to you. Take Care my dear friend! From Tammy Sue Rice	false		
113-2115213-9681859	57749427901866	2020-07-01T02:38:16+00:00	2020-06-30T19:38:16-07:00	2020-07-01T03:05:27+00:00	2020-07-03T06:59:59+00:00	-2	g221bdtm0l2b158@marketplace.amazon.com	ragina	+1 314-282-9402 ext. 68264	ABR012	Arabella Farm Direct Bouquet of 18 Fresh Cut Pink Roses with a Free Glass Vase	1	0	1	Expedited	Carolann boucher	7710 PENN AVE S APT 326			RICHFIELD	MN	55423-3744	US			false		
111-8003133-4217818	38226818888802	2020-07-01T02:54:57+00:00	2020-06-30T19:54:57-07:00	2020-07-01T03:21:52+00:00	2020-07-02T06:59:59+00:00	-1	wxp8qp05ltxwq5g@marketplace.amazon.com	Elizabeth Sydnor	+1 346-307-9643 ext. 14833	ABR012	Arabella Farm Direct Bouquet of 18 Fresh Cut Pink Roses with a Free Glass Vase	1	0	1	SecondDay	Elsa Hechanova	8820 STINGRAY CT			LAS VEGAS	NV	89147-6546	US		Auntie Elsa, we can’t thank you enough for all the amazing masks you’ve made for us and our families. You are beyond generous! We hope you are doing okay, and know we are thinking of you. Love you so much! From Liz and Nate	false		
113-3753364-6018607	45092261421754	2020-07-01T02:53:35+00:00	2020-06-30T19:53:35-07:00	2020-07-01T03:22:58+00:00	2020-07-02T06:59:59+00:00	-1	2lc39vdxyjj3ql2@marketplace.amazon.com	Jack L. Ezzell, Jr.	+1 346-307-9643 ext. 46331	ABM002	Purchase Now for Delivery by Friday | Arabella Bouquets Fresh Cut White Calla Lilies in a Free Designer Glass Vase	1	0	1	SecondDay	Bedar Phelps	48 BELLEVUE AVE			UPPER MONTCLAIR	NJ	07043-2430	US		Get well soon! Mom and Dad From Jack L. Ezzell, Jr.	false		
111-6482092-7130636	13121131670178	2020-07-01T03:20:39+00:00	2020-06-30T20:20:39-07:00	2020-07-01T03:50:44+00:00	2020-07-02T06:59:59+00:00	-1	sv5t9qz4lx47d7t@marketplace.amazon.com	cassie	+1 346-307-9643 ext. 65277	ABR0022	Purchase Now for Delivery by Friday | Arabella Farm Direct Bouquet of 12 Fresh Cut Pink Roses with a Free Glass Vase	1	0	1	SecondDay	Lois O'Neil	11529 YORBA AVE			CHINO	CA	91710-1766	US			false		
113-2783191-9234630	64277396704562	2020-07-01T03:47:23+00:00	2020-06-30T20:47:23-07:00	2020-07-01T04:13:32+00:00	2020-07-02T06:59:59+00:00	-1	c6p49sv821d9d6p@marketplace.amazon.com	ginger armstrong	+1 314-282-9402 ext. 20409	ABR004	Arabella Farm Direct Bouquet of 12 Fresh Cut Yellow Roses with a Free Glass Vase	1	0	1	SecondDay	Tracey Reynolds	1516 NORTHCREST DR			WACO	TX	76710-1042	US		Get well and strong you got of Loving to do!  Love and prayers sister From ginger armstrong	false		
114-0398281-9389861	66602883930538	2020-07-01T05:29:13+00:00	2020-06-30T22:29:13-07:00	2020-07-01T05:59:52+00:00	2020-07-03T06:59:59+00:00	-2	z8jgq4y8wyl14sd@marketplace.amazon.com	Corey Aiken	+1 346-307-9643 ext. 33130	ABM010	Arabella Bouquets | Fields of The World Bouquet of Fresh Cut Flowers in a Free Designer Glass Vase	1	0	1	Expedited	Corey Aiken	9636 BAY GROVE LN			TAMPA	FL	33615-4318	US			false		
111-0238855-2520255	66814052857418	2020-07-01T05:46:52+00:00	2020-06-30T22:46:52-07:00	2020-07-01T06:15:52+00:00	2020-07-03T06:59:59+00:00	-2	w4bbggcydy1x3fx@marketplace.amazon.com	Sharon M. Prichard	+1 346-307-9643 ext. 68285	ABM010	Arabella Bouquets | Fields of The World Bouquet of Fresh Cut Flowers in a Free Designer Glass Vase	1	0	1	Expedited	Mrs Elsie Taylor Edwards	4603 STEPHANIE ST			BELTSVILLE	MD	20705-2931	US		Happy 90th Birthday Elsie! From Love , Sam & Greg Prichard	false		
111-8301228-2000207	03428449362362	2020-07-01T07:18:11+00:00	2020-07-01T00:18:11-07:00	2020-07-01T07:44:08+00:00	2020-07-02T06:59:59+00:00	-1	5p0mm89gttzz0tl@marketplace.amazon.com	miss k m evans-determan	+1 314-282-9402 ext. 08763	ABR0022	Purchase Now for Delivery by Friday | Arabella Farm Direct Bouquet of 12 Fresh Cut Pink Roses with a Free Glass Vase	1	0	1	SecondDay	Mrs Liz Adamcik	1929 HARTFORD PATH			THE VILLAGES	FL	32162-6414	US		Happy birthday Nana! We hope you enjoy your special day. From Keira, Ryan, Jenson & Max	false		
111-2193108-6513827	07829979638682	2020-07-01T10:44:40+00:00	2020-07-01T03:44:40-07:00	2020-07-01T11:14:31+00:00	2020-07-02T06:59:59+00:00	-1	zlbtgn4lpszy8tx@marketplace.amazon.com	Richard	+1 346-307-9643 ext. 17790	ABR0022	Purchase Now for Delivery by Friday | Arabella Farm Direct Bouquet of 12 Fresh Cut Pink Roses with a Free Glass Vase	1	0	1	SecondDay	Isabella	5716 N 34TH DR			PHOENIX	AZ	85017-1911	US		You are the last thought in my mind before I drift off to sleep and the first thought when I wake up each morning. I'll always be there for you through thick and thin. I love you Bella, forever and always. From Richard	false		
112-6886180-0533045	54246906989882	2020-07-01T11:36:17+00:00	2020-07-01T04:36:17-07:00	2020-07-01T12:05:25+00:00	2020-07-02T06:59:59+00:00	-1	ytdnf74bscymf9b@marketplace.amazon.com	Linda Moore	+7274794986	ABR0022	Purchase Now for Delivery by Friday | Arabella Farm Direct Bouquet of 12 Fresh Cut Pink Roses with a Free Glass Vase	1	0	1	SecondDay	Highland Oaks Health Center	FOR SUE MOORE LAVERA SUE MOORE	4114 N STATE ROUTE 376 NW		MCCONNELSVILLE	OH	43756-9145	US			false		
111-1792914-9058617	55361367256514	2020-07-01T13:08:17+00:00	2020-07-01T06:08:17-07:00	2020-07-01T13:37:01+00:00	2020-07-07T06:59:59+00:00	-6	fj6wm82f9ftzzjl@marketplace.amazon.com	ann kartholl	+1 314-282-9402 ext. 90835	ABR0022	Purchase Now for Delivery by Friday | Arabella Farm Direct Bouquet of 12 Fresh Cut Pink Roses with a Free Glass Vase	1	0	1	Expedited	Bridget Kartholl	1527 15TH AVE APT 305			SEATTLE	WA	98122-4227	US		Happy Fourth! Hoping to brighten your day. From Mom and dad	false		
113-7141601-7529014	45177800288674	2020-07-01T13:51:42+00:00	2020-07-01T06:51:42-07:00	2020-07-01T14:18:31+00:00	2020-07-07T06:59:59+00:00	-6	tjkygxwnp7qn8sh@marketplace.amazon.com	Sheila McCaffer	01890750721	ABM010	Arabella Bouquets | Fields of The World Bouquet of Fresh Cut Flowers in a Free Designer Glass Vase	1	0	1	Expedited	Veronica McAteer	15301 SW 50th Street			Miramar	Florida	33027	US		To Veronica Happy Birthday Enjoy your special day Love From Moira & Sheila	false		
113-7903939-4048248	53147430569674	2020-07-01T13:58:11+00:00	2020-07-01T06:58:11-07:00	2020-07-01T14:25:56+00:00	2020-07-02T06:59:59+00:00	-1	ky6t1nvjx0dl45x@marketplace.amazon.com	Gina Crain	+1 346-307-9643 ext. 89245	ABR001	Purchase Now for Delivery by Friday | Arabella Bouquets 12 Stems of Fresh Cut Red Roses in a Free Designer Glass Vase	1	0	1	SecondDay	Sue Weldon	182 SANDY PT			GOREVILLE	IL	62939-3121	US		Happy anniversary to two of the most important people in my life.  I would run a thousand miles to get to you.  Love always Gina and Family From Gina Crain	false		
112-2209250-0873837	26640737406514	2020-07-01T14:22:56+00:00	2020-07-01T07:22:56-07:00	2020-07-01T14:28:33+00:00	2020-07-02T06:59:59+00:00	-1	t05kyclqlmph35p@marketplace.amazon.com	Adekunle Monday	+1 210-728-4548 ext. 16663	ABR0022	Purchase Now for Delivery by Friday | Arabella Farm Direct Bouquet of 12 Fresh Cut Pink Roses with a Free Glass Vase	1	0	1	SecondDay	Nina Mapp	4655 S LAKE PARK AVE APT 204			CHICAGO	IL	60653-4533	US		You are an amazing woman Nina, i wish i could send you a kiss through this text. I could do it everyday. I love you 😘 From Adekunle Monday	false		
111-3861762-6669860	12457246275434	2020-07-01T14:12:17+00:00	2020-07-01T07:12:17-07:00	2020-07-01T14:42:57+00:00	2020-07-07T06:59:59+00:00	-6	05gjl30qf29pvjg@marketplace.amazon.com	Autumn Keyes	+1 210-728-4548 ext. 25661	ABM010	Arabella Bouquets | Fields of The World Bouquet of Fresh Cut Flowers in a Free Designer Glass Vase	1	0	1	Expedited	Autumn Keyes	287 GROTON RD			WESTFORD	MA	01886-1344	US			false		
111-5530899-2392211	44124663021738	2020-07-01T14:27:32+00:00	2020-07-01T07:27:32-07:00	2020-07-01T14:52:45+00:00	2020-07-02T06:59:59+00:00	-1	ljh9mj2klwxhz5s@marketplace.amazon.com	Patricia Coiro	+1 346-307-9643 ext. 49483	ABM010	Arabella Bouquets | Fields of The World Bouquet of Fresh Cut Flowers in a Free Designer Glass Vase	1	0	1	SecondDay	Margaret Fottrell	107 SWALE BROOK LN			MILFORD	PA	18337-7014	US		Hi Margaret, Happy Birthday Love,  Tom & Pat	false		
113-6145052-9004259	18744256503466	2020-07-01T14:24:30+00:00	2020-07-01T07:24:30-07:00	2020-07-01T14:53:04+00:00	2020-07-02T06:59:59+00:00	-1	jq7ln03cw3c5gsk@marketplace.amazon.com	Karla Cheselka	+1 346-307-9643 ext. 62346	ABM010	Arabella Bouquets | Fields of The World Bouquet of Fresh Cut Flowers in a Free Designer Glass Vase	1	0	1	SecondDay	Judith Krug	8940 TUMBLING PEBBLE WAY			LAS VEGAS	NV	89123-2934	US		Happy Birthday Mom! Love, Karla and Mark From Karla Cheselka	false		
111-5851380-9729058	53201027543210	2020-07-01T15:06:32+00:00	2020-07-01T08:06:32-07:00	2020-07-01T15:34:52+00:00	2020-07-02T06:59:59+00:00	-1	409vchbpkg35mn4@marketplace.amazon.com	Marko Millerino	+1 346-307-9643 ext. 48927	ABM002	Purchase Now for Delivery by Friday | Arabella Bouquets Fresh Cut White Calla Lilies in a Free Designer Glass Vase	1	0	1	SecondDay	Becca Rumsey	1325 PACIFIC HWY UNIT 1902			SAN DIEGO	CA	92101-2591	US		Sending Sunshine and Hugs Your Way From XXX,  Christina	false		
113-2213412-6013832	06511729873186	2020-07-01T15:38:50+00:00	2020-07-01T08:38:50-07:00	2020-07-01T16:08:07+00:00	2020-07-02T06:59:59+00:00	-1	ycg8hrzyj5mc1zh@marketplace.amazon.com	Sharmane	+1 346-307-9643 ext. 68924	ABR001	Purchase Now for Delivery by Friday | Arabella Bouquets 12 Stems of Fresh Cut Red Roses in a Free Designer Glass Vase	1	0	1	SecondDay	Alicia Mommy Wilson	192 MOSBY WOODS DR			NEWNAN	GA	30265-2212	US		A Rose for a Rose ... From Sharmane	false		
113-4851998-5144254	09422829076266	2020-07-01T15:45:08+00:00	2020-07-01T08:45:08-07:00	2020-07-01T16:14:18+00:00	2020-07-02T06:59:59+00:00	-1	k59pg5m641f4r69@marketplace.amazon.com	Tim Hickle	+1 346-307-9643 ext. 42429	ABR012	Arabella Farm Direct Bouquet of 18 Fresh Cut Pink Roses with a Free Glass Vase	1	0	1	SecondDay	Lauren Hickle	646 ALABAMA ST			IMPERIAL BEACH	CA	91932-1104	US		I love you From Tim Hickle	false		
111-9615314-7805038	56873799396538	2020-07-01T16:10:43+00:00	2020-07-01T09:10:43-07:00	2020-07-01T16:38:46+00:00	2020-07-02T06:59:59+00:00	-1	k8fyls59pg17nnv@marketplace.amazon.com	MELINDA CROCKER	+1 347-448-3190 ext. 52432	ABR0055	Purchase Now for Delivery by Friday | Arabella Farm Direct Bouquet of 12 Stems of Fresh Cut Hot Pink Roses in a Free Designer Glass Vase	1	0	1	SecondDay	Chris and Jeff Eanes	2922 HUNTINGTON GROVE SQ			ALEXANDRIA	VA	22306-1074	US		Thank you for Mother-Daughter Awesome time! Love you so much!! From MELINDA CROCKER	false		
114-9661609-3378643	09848350131706	2020-07-01T16:09:47+00:00	2020-07-01T09:09:47-07:00	2020-07-01T16:39:14+00:00	2020-07-02T06:59:59+00:00	-1	jv2vng23r1y8p4m@marketplace.amazon.com	Perrine Mann	+1 210-728-4548 ext. 77550	ABR0022	Purchase Now for Delivery by Friday | Arabella Farm Direct Bouquet of 12 Fresh Cut Pink Roses with a Free Glass Vase	1	0	1	SecondDay	Carol Sloane	14804 SILVERSTONE DR			SILVER SPRING	MD	20905-7427	US		Happy birthday Nana! We love you so much! Audrey, Ed and Perrine From Eddie, Audrey and Perrine	false		
111-1871133-7603421	18891445691274	2020-07-01T16:22:28+00:00	2020-07-01T09:22:28-07:00	2020-07-01T16:49:04+00:00	2020-07-02T06:59:59+00:00	-1	bxmgs10v1yhmk30@marketplace.amazon.com	Megan	+1 346-307-9643 ext. 71890	ABM002	Purchase Now for Delivery by Friday | Arabella Bouquets Fresh Cut White Calla Lilies in a Free Designer Glass Vase	1	0	1	SecondDay	Karah Wynne and Family	28022 151ST PL SE			KENT	WA	98042-4392	US		We’re so sorry for your lost. Our thoughts and prayers are with you and your family. Let us know if you need anything. We love you. From Love, Holly’s, Coyne’s and Orbino’s	false		
113-5010800-4015402	33093559121522	2020-07-01T16:21:32+00:00	2020-07-01T09:21:32-07:00	2020-07-01T16:49:53+00:00	2020-07-02T06:59:59+00:00	-1	t76vf43p5d86ss5@marketplace.amazon.com	Robin	+1 346-307-9643 ext. 65841	ABR0033	Purchase Now for Delivery by Friday | Arabella Farm Direct Bouquet of 12 Fresh Cut Orange Roses with a Free Glass Vase	1	0	1	SecondDay	Stephanie Kuborssy	1701 E 57TH ST			TACOMA	WA	98404-4402	US		I hope you’re feeling better, Muffin! I’m sorry I didn’t get these out to you sooner. I love you! From Mom	false		
111-5979689-0369848	09697201844290	2020-07-01T16:29:11+00:00	2020-07-01T09:29:11-07:00	2020-07-01T16:58:27+00:00	2020-07-02T06:59:59+00:00	-1	z4gxyz7sd9tl0hb@marketplace.amazon.com	Bernadette Mayer	+1 346-307-9643 ext. 45447	ABR0022	Purchase Now for Delivery by Friday | Arabella Farm Direct Bouquet of 12 Fresh Cut Pink Roses with a Free Glass Vase	1	0	1	SecondDay	Bernadette Mayer	1415 N DEE RD			PARK RIDGE	ILLINOIS	60068-1511	US			false		
111-5979689-0369848	47880369649146	2020-07-01T16:29:11+00:00	2020-07-01T09:29:11-07:00	2020-07-01T16:58:27+00:00	2020-07-02T06:59:59+00:00	-1	z4gxyz7sd9tl0hb@marketplace.amazon.com	Bernadette Mayer	+1 346-307-9643 ext. 45447	ABR0055	Purchase Now for Delivery by Friday | Arabella Farm Direct Bouquet of 12 Stems of Fresh Cut Hot Pink Roses in a Free Designer Glass Vase	1	0	1	SecondDay	Bernadette Mayer	1415 N DEE RD			PARK RIDGE	ILLINOIS	60068-1511	US			false		
112-9472046-5782667	27838566465002	2020-07-01T16:58:10+00:00	2020-07-01T09:58:10-07:00	2020-07-01T17:25:04+00:00	2020-07-02T06:59:59+00:00	-1	9hbj1p2kcry4b7d@marketplace.amazon.com	Cynthia Webber	+1 210-728-4548 ext. 75327	ABR004	Arabella Farm Direct Bouquet of 12 Fresh Cut Yellow Roses with a Free Glass Vase	1	0	1	SecondDay	Bill Pressey and Family	415 HILLSIDE CIR			DIXON	CA	95620-3723	US		So sorry for your loss. We hope these flowers brighten up your day.  We love you,   Neil and Cindy From Cynthia Webber	false		
114-1439358-3824251	25375112003730	2020-07-01T17:21:42+00:00	2020-07-01T10:21:42-07:00	2020-07-01T17:51:59+00:00	2020-07-07T06:59:59+00:00	-6	t3nxrvdrjqxyl7p@marketplace.amazon.com	George De'Ath	+1 346-307-9643 ext. 51329	ABR0022	Purchase Now for Delivery by Monday | Arabella Farm Direct Bouquet of 12 Fresh Cut Pink Roses with a Free Glass Vase	1	0	1	Expedited	Sheena Shiravi	24921 HOLLOW CIR			LAGUNA NIGUEL	CA	92677-6026	US			false		
112-1515809-6440206	15469488135226	2020-07-01T17:45:10+00:00	2020-07-01T10:45:10-07:00	2020-07-01T18:00:56+00:00	2020-07-07T06:59:59+00:00	-6	hhb99g9c7cmfw84@marketplace.amazon.com	Pinar Demirayak	+1 346-307-9643 ext. 96306	ABR0022	Purchase Now for Delivery by Monday | Arabella Farm Direct Bouquet of 12 Fresh Cut Pink Roses with a Free Glass Vase	1	0	1	Standard	Mandy Biles	15323 AVILES PKWY			ODESSA	FL	33556-4063	US		Dear Dr. Biles, We will miss you to see in the lab. You touched our lives and we are very happy to know/work with you. Congratulations on your graduation and best wishes for your next adventure!! Visscher Lab	false		
