order-id	order-item-id	purchase-date	payments-date	reporting-date	promise-date	days-past-promise	buyer-email	buyer-name	buyer-phone-number	sku	product-name	quantity-purchased	quantity-shipped	quantity-to-ship	ship-service-level	recipient-name	ship-address-1	ship-address-2	ship-address-3	ship-city	ship-state	ship-postal-code	ship-country	gift-wrap-type	gift-message-text	is-business-order	purchase-order-number	price-designation
111-7005766-5517869	49484748750234	2020-07-01T18:15:42+00:00	2020-07-01T11:15:42-07:00	2020-07-01T18:42:52+00:00	2020-07-07T06:59:59+00:00	-5	64p4bfpb8zv95lg@marketplace.amazon.com	Amu	+1 347-448-3190 ext. 74390	ABR0022	Purchase Now for Delivery by Monday | Arabella Farm Direct Bouquet of 12 Fresh Cut Pink Roses with a Free Glass Vase	1	0	1	Expedited	Amu Veera	125 E 13th street Unit 1102			Chicago	IL	60605	US		Wish you a happy birthday Sumathi mom. Have a great day of joy and happiness. With lots of love your son Pranesh Das From Pranesh Das	false		
111-6523191-5690653	17463712642098	2020-07-01T18:48:54+00:00	2020-07-01T11:48:54-07:00	2020-07-01T19:14:47+00:00	2020-07-07T06:59:59+00:00	-5	rx09ttdd3xky0l7@marketplace.amazon.com	Diane Laffey	+1 346-307-9643 ext. 52799	ABR0022	Purchase Now for Delivery by Monday | Arabella Farm Direct Bouquet of 12 Fresh Cut Pink Roses with a Free Glass Vase	1	0	1	Expedited	Kathy Martin	610 FRIDAY RD			PITTSBURGH	PA	15209-2118	US		We are here for you! Love you, Diane & Danny From Diane Laffey	false		
113-6177430-2833066	21505862333746	2020-07-01T18:46:33+00:00	2020-07-01T11:46:33-07:00	2020-07-01T19:17:08+00:00	2020-07-07T06:59:59+00:00	-5	wc8p86875lrpzk5@marketplace.amazon.com	Christopher	+1 347-448-3190 ext. 34415	ABR0022	Purchase Now for Delivery by Monday | Arabella Farm Direct Bouquet of 12 Fresh Cut Pink Roses with a Free Glass Vase	1	0	1	Expedited	Beautiful Lydia	2864 S 60TH ST UPPR			WEST ALLIS	WI	53219-3158	US			false		
111-4163807-1826605	42675115721442	2020-07-01T18:50:06+00:00	2020-07-01T11:50:06-07:00	2020-07-01T19:18:22+00:00	2020-07-07T06:59:59+00:00	-5	qqrz05g43s9dppj@marketplace.amazon.com	Dorothy E. Leidner	+1 314-282-9402 ext. 37719	ABM010	Arabella Bouquets | Fields of The World Bouquet of Fresh Cut Flowers in a Free Designer Glass Vase	1	0	1	Expedited	Dottie Berry	2007 HIGHLAND OAKS ST			FORT WORTH	TX	76107-3645	US		Happy Birthday Dottie! Thinking of you and wishing you a wonderful birthday. Much love, Dorothy From Dorothy E. Leidner	false		
111-0059269-6989000	27119340646178	2020-07-01T19:00:02+00:00	2020-07-01T12:00:02-07:00	2020-07-01T19:21:58+00:00	2020-07-07T06:59:59+00:00	-5	q44p9ym7jd6fzjc@marketplace.amazon.com	Kathleen McPhillips	+1 346-307-9643 ext. 18342	ABR0022	Purchase Now for Delivery by Monday | Arabella Farm Direct Bouquet of 12 Fresh Cut Pink Roses with a Free Glass Vase	1	0	1	Expedited	Maureen Peyton	2329 HIDDEN LAKE DR APT 3			NAPLES	FL	34112-8713	US		Happy 80th Birthday! Love John & Kathy From Kathleen McPhillips	false		
114-2305656-4722641	16654905262042	2020-07-01T20:16:33+00:00	2020-07-01T13:16:33-07:00	2020-07-01T20:45:18+00:00	2020-07-07T06:59:59+00:00	-5	t938fs2p56pkncm@marketplace.amazon.com	Kevin P. Cleary	+1 346-307-9643 ext. 74395	ABR0022	Purchase Now for Delivery by Monday | Arabella Farm Direct Bouquet of 12 Fresh Cut Pink Roses with a Free Glass Vase	1	0	1	Expedited	Angela and Jerry Ratz	36 E HARRIET AVE			PALISADES PARK	NJ	07650-1409	US		Hi Auntie, Wishing you a quick recovery and get well soon!! From Kevin, Robin, and Ryne	false		
111-2156311-2673865	00369178201074	2020-07-01T20:39:02+00:00	2020-07-01T13:39:02-07:00	2020-07-01T21:06:00+00:00	2020-07-07T06:59:59+00:00	-5	0p24t0xjdz4tjxd@marketplace.amazon.com	Heidi Kravchuk	+1 346-307-9643 ext. 12120	ABM010	Arabella Bouquets | Fields of The World Bouquet of Fresh Cut Flowers in a Free Designer Glass Vase	1	0	1	Expedited	Richie Ziemba	70 HANKS HILL RD			STORRS MANSFIELD	CT	06268-2213	US		Richie, Kim, Zach and Abby,  We are so sorry for your incredible loss.  Our thoughts and prayers are with you.   Much love, The Kravchuks From The Kravchuks	false		
111-8700971-2354614	66754411879810	2020-07-01T20:44:44+00:00	2020-07-01T13:44:44-07:00	2020-07-01T21:08:26+00:00	2020-07-07T06:59:59+00:00	-5	h97ggsdmgnbqbl5@marketplace.amazon.com	Linda Ferdig-Riley	+1 346-307-9643 ext. 36794	ABR0055	Arabella Farm Direct Bouquet of 12 Stems of Fresh Cut Hot Pink Roses in a Free Designer Glass Vase	1	0	1	Expedited	Courtney Buchmann	8017 GRANADA RD			PRAIRIE VILLAGE	KS	66208-5062	US		Hey Courtney....woo-hoo....way to go, last chemo!!!  Definitely cause to celebrate.  Do it in style!  Love, L, T and Martin From Linda Ferdig-Riley	false		
114-1960762-1650603	45167434789098	2020-07-01T21:01:47+00:00	2020-07-01T14:01:47-07:00	2020-07-01T21:23:04+00:00	2020-07-07T06:59:59+00:00	-5	r8w5vc8wgvyzt19@marketplace.amazon.com	roseanna baxley	+1 346-307-9643 ext. 31702	ABR015	Arabella Farm Direct Bouquet of 18 Fresh Cut Orange Roses with a Free Glass Vase	1	0	1	Expedited	Mr. & Mrs. Foster	16611 Sandpiper Rd			Galveston	TX	77554	US		We are so sorry about Snickers. He was a true member of the family and will always be remembered. Love, Mark & Roseanna From Mark & Roseanna	false		
114-3525234-8723469	20286823218066	2020-07-01T21:29:24+00:00	2020-07-01T14:29:24-07:00	2020-07-01T21:56:30+00:00	2020-07-07T06:59:59+00:00	-5	ytkms8sbbr5lrfz@marketplace.amazon.com	Max Scott	+1 346-307-9643 ext. 37787	ABR0022	Purchase Now for Delivery by Monday | Arabella Farm Direct Bouquet of 12 Fresh Cut Pink Roses with a Free Glass Vase	1	0	1	Expedited	Uche Anaeto	106 BRYAN CT APT 304			LAUREL	MD	20707-4548	US			false		
114-7775048-7573810	41135907147026	2020-07-01T22:20:34+00:00	2020-07-01T15:20:34-07:00	2020-07-01T22:50:46+00:00	2020-07-07T06:59:59+00:00	-5	tldc33d6y53q7mr@marketplace.amazon.com	Willis lawncare	+1 346-307-9643 ext. 96834	ABM010	Arabella Bouquets | Fields of The World Bouquet of Fresh Cut Flowers in a Free Designer Glass Vase	1	0	1	Expedited	Holli Willis	114 WINDSOR LN			EDENTON	NC	27932-8926	US			true		
114-5840676-7150668	62522945519594	2020-07-01T22:25:14+00:00	2020-07-01T15:25:14-07:00	2020-07-01T22:54:23+00:00	2020-07-07T06:59:59+00:00	-5	81jct8r69nggc5y@marketplace.amazon.com	Lisa Kitchen	+1 346-307-9643 ext. 89393	ABR0022	Purchase Now for Delivery by Monday | Arabella Farm Direct Bouquet of 12 Fresh Cut Pink Roses with a Free Glass Vase	1	0	1	Expedited	Lakeside HealthCenter	2501 N AUSTRALIAN AVE RM 215	LINDA DIXON		WEST PALM BEACH	FL	33407-5638	US			false		
111-2486014-1056268	42528293910754	2020-07-01T22:45:14+00:00	2020-07-01T15:45:14-07:00	2020-07-01T23:08:12+00:00	2020-07-07T06:59:59+00:00	-5	r5bmrpwtv8slqqy@marketplace.amazon.com	Daniel E. Smith	+1 314-282-9402 ext. 70783	ABR0022	Purchase Now for Delivery by Monday | Arabella Farm Direct Bouquet of 12 Fresh Cut Pink Roses with a Free Glass Vase	1	0	1	Expedited	Janet Fedora	301 BELPAIRE CT			NEWTOWN SQUARE	PA	19073-2129	US		Dearest Janet ~ We hope you had a lovely birthday.  All Our Love, Dan & Chris	false		
112-5352381-7100226	24284378419170	2020-07-01T23:05:38+00:00	2020-07-01T16:05:38-07:00	2020-07-01T23:36:10+00:00	2020-07-07T06:59:59+00:00	-5	rztjv9043p9mh7k@marketplace.amazon.com	Shanler le Roux	+1 346-307-9643 ext. 01123	ABR0055	Arabella Farm Direct Bouquet of 12 Stems of Fresh Cut Hot Pink Roses in a Free Designer Glass Vase	1	0	1	Expedited	Meri Christie De Wet	7700 GRANADA DR			BETHESDA	MD	20817-6608	US			false		
112-2871949-6324254	61988660116850	2020-07-01T23:20:34+00:00	2020-07-01T16:20:34-07:00	2020-07-01T23:46:28+00:00	2020-07-07T06:59:59+00:00	-5	yfwvthwnbjtjv7k@marketplace.amazon.com	Stephen Emineth	+1 346-307-9643 ext. 37168	ABR0033	Purchase Now for Delivery by Monday | Arabella Farm Direct Bouquet of 12 Fresh Cut Orange Roses with a Free Glass Vase	1	0	1	Expedited	Eyla Emineth	849 KINGSWAY RD			TALLAHASSEE	FL	32301-3313	US		Happy birthday mom!  With love; Steve and Nancy From Stephen Emineth	false		
113-5829579-2098601	10798689000146	2020-07-02T00:04:58+00:00	2020-07-01T17:04:58-07:00	2020-07-02T00:35:15+00:00	2020-07-07T06:59:59+00:00	-5	qltqcjksfp7n3v2@marketplace.amazon.com	Latoya	+1 314-282-9402 ext. 99011	ABR0022	Purchase Now for Delivery by Monday | Arabella Farm Direct Bouquet of 12 Fresh Cut Pink Roses with a Free Glass Vase	1	0	1	Expedited	Brandy	6307 Valley Brook Trace			Utica	Ky	42376	US			false		
113-3308973-3849832	50405611479954	2020-07-02T00:37:01+00:00	2020-07-01T17:37:01-07:00	2020-07-02T01:06:50+00:00	2020-07-07T06:59:59+00:00	-5	qltqcjksfp7n3v2@marketplace.amazon.com	Latoya	+1 347-448-3190 ext. 42654	ABR0022	Purchase Now for Delivery by Monday | Arabella Farm Direct Bouquet of 12 Fresh Cut Pink Roses with a Free Glass Vase	1	0	1	Expedited	Chrislyn Jones	6606 PEPPER TREE PL			AMARILLO	TX	79124-4970	US			false		
114-1218919-9583440	09811505150874	2020-07-02T01:46:57+00:00	2020-07-01T18:46:57-07:00	2020-07-02T02:15:35+00:00	2020-07-07T06:59:59+00:00	-5	g2y4q92hst96q74@marketplace.amazon.com	DeBorah Bellamy	+1 346-307-9643 ext. 49160	ABR0022	Purchase Now for Delivery by Monday | Arabella Farm Direct Bouquet of 12 Fresh Cut Pink Roses with a Free Glass Vase	1	0	1	Expedited	Ruthel Radar	525 W EL NORTE PKWY SPC 104			ESCONDIDO	CA	92026-3910	US			false		
114-0351954-6428271	28836739776114	2020-07-02T03:53:31+00:00	2020-07-01T20:53:31-07:00	2020-07-02T03:57:27+00:00	2020-07-07T06:59:59+00:00	-5	2wz3x84p3s1x9z3@marketplace.amazon.com	imelda	+1 346-307-9643 ext. 03842	ABR0022	Purchase Now for Delivery by Monday | Arabella Farm Direct Bouquet of 12 Fresh Cut Pink Roses with a Free Glass Vase	1	0	1	Expedited	Yanett Quezada	22048 W MORNING GLORY ST			BUCKEYE	AZ	85326-5907	US		Congratulations on your new home. I am truly happy for you and your family. Cant wait to see you girls!                           XOXO From I	false		
112-5449020-3403435	46230129659970	2020-07-02T04:04:50+00:00	2020-07-01T21:04:50-07:00	2020-07-02T04:33:49+00:00	2020-07-07T06:59:59+00:00	-5	dc0bpkqhd90tzzp@marketplace.amazon.com	Lauren Potts	+1 314-282-9402 ext. 15582	ABR0022	Purchase Now for Delivery by Monday | Arabella Farm Direct Bouquet of 12 Fresh Cut Pink Roses with a Free Glass Vase	1	0	1	Expedited	Cat Olson	29620 SPEASL RD			LEBANON	OR	97355-9779	US		Happy birthday!! From Luke, Lauren, Wicket & Artemis	false		
114-1144452-5625812	39126507220938	2020-07-02T04:46:42+00:00	2020-07-01T21:46:42-07:00	2020-07-02T05:15:15+00:00	2020-07-07T06:59:59+00:00	-5	8cx6br3fx10hm08@marketplace.amazon.com	Ezra Randolph	+1 346-307-9643 ext. 15712	ABM010	Arabella Bouquets | Fields of The World Bouquet of Fresh Cut Flowers in a Free Designer Glass Vase	1	0	1	Expedited	Ezra E Randolph	25 LODUS CT			NEW LONDON	CT	06320-4328	US		Enjoy your gift Bebe! From Ez.....	false		
111-7741629-0138600	42632589979682	2020-07-02T05:28:01+00:00	2020-07-01T22:28:01-07:00	2020-07-02T05:53:54+00:00	2020-07-07T06:59:59+00:00	-5	1rlhb1w77vcw1sy@marketplace.amazon.com	Simon	+1 346-307-9643 ext. 54049	ABR001	Arabella Bouquets 12 Stems of Fresh Cut Red Roses in a Free Designer Glass Vase	1	0	1	Expedited	Glynda Estrada	HOUSE 2114 SHOEMAKER DR			KILLEEN	TX	76543-3162	US		It's me Micheal your Handsome love, I just wanted you to know I will be coming to you soon Sweet, please stay safe for me I LOVE YOU From Micheal	false		
113-4872625-9342633	33307923220514	2020-07-02T06:25:20+00:00	2020-07-01T23:25:20-07:00	2020-07-02T06:55:44+00:00	2020-07-07T06:59:59+00:00	-5	43j7kh25wjm9z3x@marketplace.amazon.com	ZENG HAO	+1 346-307-9643 ext. 49707	ABM0044	Arabella Farm Direct Bouquet of Fresh Cut Blue Hydrangea with a Free Glass Vase	1	0	1	Expedited	ZIJUN GAO	307 E DANIEL ST APT 402			CHAMPAIGN	IL	61820-6466	US			false		
114-1485357-5117858	48823673375658	2020-07-02T09:28:39+00:00	2020-07-02T02:28:39-07:00	2020-07-02T09:56:54+00:00	2020-07-08T06:59:59+00:00	-6	fr1k9td19rzp55f@marketplace.amazon.com	Adam Dunainawi	+1 346-307-9643 ext. 85824	ABR0022	Purchase Now for Delivery by Monday | Arabella Farm Direct Bouquet of 12 Fresh Cut Pink Roses with a Free Glass Vase	1	0	1	Expedited	Adam Dunainawi	25331 SANDY TRACE LN			KATY	TX	77494-2487	US		To my love, my wife and my life (SURA). From Adam Dunainawi	false		
