order-id	order-item-id	purchase-date	payments-date	reporting-date	promise-date	days-past-promise	buyer-email	buyer-name	buyer-phone-number	sku	product-name	quantity-purchased	quantity-shipped	quantity-to-ship	ship-service-level	recipient-name	ship-address-1	ship-address-2	ship-address-3	ship-city	ship-state	ship-postal-code	ship-country	gift-wrap-type	gift-message-text	is-business-order	purchase-order-number	price-designation
113-4872625-9342633	33307923220514	2020-07-02T06:25:20+00:00	2020-07-01T23:25:20-07:00	2020-07-02T06:55:44+00:00	2020-07-07T06:59:59+00:00	-3	43j7kh25wjm9z3x@marketplace.amazon.com	ZENG HAO	+1 346-307-9643 ext. 49707	ABM0044	Arabella Farm Direct Bouquet of Fresh Cut Blue Hydrangea with a Free Glass Vase	1	0	1	Expedited	ZIJUN GAO	307 E DANIEL ST APT 402			CHAMPAIGN	IL	61820-6466	US			false		
114-6981387-2071434	68146156274010	2020-07-03T18:38:24+00:00	2020-07-03T11:38:24-07:00	2020-07-03T19:09:06+00:00	2020-07-08T06:59:59+00:00	-4	pbmwvgfmylgx00m@marketplace.amazon.com	Ronald F. Cota	+1 346-307-9643 ext. 89736	ABR001	Arabella Bouquets 12 Stems of Fresh Cut Red Roses in a Free Designer Glass Vase	1	0	1	Expedited	Ronald F. Cota	8400 VAMO RD APT 461			SARASOTA	FL	34231-7872	US			false		
112-9819976-1193832	54282909675818	2020-07-03T19:14:52+00:00	2020-07-03T12:14:52-07:00	2020-07-03T19:26:52+00:00	2020-07-08T06:59:59+00:00	-4	wg9ryzk1d6q88lj@marketplace.amazon.com	jill s. hendrickson	+1 347-448-3190 ext. 82501	ABR0022	Purchase Now for Delivery by Tuesday | Arabella Farm Direct Bouquet of 12 Fresh Cut Pink Roses with a Free Glass Vase	1	0	1	Expedited	Adeline Mah	16585 ENSIGN CIR			HUNTINGTON BEACH	CA	92649-2122	US		Adeline, Thank you so much for your help with Kyle.  Hope to see you on the courts soon and thank you in person. Stay safe and healthy! Jill Hendrickson, Pam, Eric and Kyle Lawrence	false		
114-5762236-7648233	42603374930458	2020-07-03T19:27:54+00:00	2020-07-03T12:27:54-07:00	2020-07-03T19:56:12+00:00	2020-07-08T06:59:59+00:00	-4	3mlf2qw6smsxyl6@marketplace.amazon.com	Daniel Gomez	+1 346-307-9643 ext. 90691	ABR0022	Purchase Now for Delivery by Tuesday | Arabella Farm Direct Bouquet of 12 Fresh Cut Pink Roses with a Free Glass Vase	1	0	1	Expedited	Daniel Gomez	2509 E MARTHA LN			PASADENA	TX	77502-3269	US		To my wonderful, special lady. I hope you stay well and have stay safe. I'll see you soon! I love you! From Daniel Gomez	false		
113-2389084-9759403	62308443114546	2020-07-03T19:40:49+00:00	2020-07-03T12:40:49-07:00	2020-07-03T20:11:22+00:00	2020-07-08T06:59:59+00:00	-4	vw5vdv8x33jj6mg@marketplace.amazon.com	darya abar	+1 346-307-9643 ext. 62107	ABR0066	Purchase Now for Delivery by Tuesday | Arabella Bouquets 12 Stems of Fresh Cut White Roses in a Free Designer Glass Vase	1	0	1	Expedited	Mahin Mansourkia	1078 MILL FIELD CT			GREAT FALLS	VA	22066-1868	US			false		
111-8267361-6859457	24151814302418	2020-07-03T20:23:54+00:00	2020-07-03T13:23:54-07:00	2020-07-03T20:54:13+00:00	2020-07-08T06:59:59+00:00	-4	mxxwcb9zlcdbhnw@marketplace.amazon.com	Alexandra V. Roth	+1 346-307-9643 ext. 51713	ABR0033	Purchase Now for Delivery by Tuesday | Arabella Farm Direct Bouquet of 12 Fresh Cut Orange Roses with a Free Glass Vase	1	0	1	Expedited	Alexandra V. Roth	250 Winthrop Shore Drive	Apt. #3		Winthrop	MA	02152	US			false		
112-1022031-3630642	45191011299570	2020-07-03T22:05:02+00:00	2020-07-03T15:05:02-07:00	2020-07-03T22:33:41+00:00	2020-07-08T06:59:59+00:00	-4	n0tq9zf9fchxgf6@marketplace.amazon.com	Rebecca Israel	+1 347-448-3190 ext. 16460	ABR0022	Purchase Now for Delivery by Tuesday | Arabella Farm Direct Bouquet of 12 Fresh Cut Pink Roses with a Free Glass Vase	1	0	1	Expedited	Rebecca A Israel	25191 PASEO EQUESTRE			LAKE FOREST	CA	92630-2156	US		Happy Birthday From Alan	false		
113-2199676-6718654	06941293263594	2020-07-03T22:13:43+00:00	2020-07-03T15:13:43-07:00	2020-07-03T22:40:09+00:00	2020-07-08T06:59:59+00:00	-4	p5h6c4lvbjqgby2@marketplace.amazon.com	Are King	+1 346-307-9643 ext. 49158	ABR0033	Purchase Now for Delivery by Tuesday | Arabella Farm Direct Bouquet of 12 Fresh Cut Orange Roses with a Free Glass Vase	1	0	1	Expedited	Jane Braun	322 So. Martin St	Apt 106		Titusville	PA	16354	US		Enjoy your gift!   Happy Birthday Jane From The Scherer Family	false		
114-2755016-4143449	30801247741674	2020-07-03T23:08:27+00:00	2020-07-03T16:08:27-07:00	2020-07-03T23:32:28+00:00	2020-07-08T06:59:59+00:00	-4	ztctvc51psc48zm@marketplace.amazon.com	chris sweet	+1 346-307-9643 ext. 48248	ABR0055	Purchase Now for Delivery by Tuesday | Arabella Farm Direct Bouquet of 12 Stems of Fresh Cut Hot Pink Roses in a Free Designer Glass Vase	1	0	1	Expedited	Melanie Sweet	1680 PANORAMA DR			HOLLISTER	CA	95023-8148	US		Thinking of You!  I hope you are all well.  Maybe we can text sometime? Love Always,  Dad From chris sweet	false		
114-1473023-7269048	67372924444858	2020-07-04T00:33:46+00:00	2020-07-03T17:33:46-07:00	2020-07-04T00:59:52+00:00	2020-07-08T06:59:59+00:00	-4	hrq5nglw98nwxk7@marketplace.amazon.com	Youtube	+1 346-307-9643 ext. 83807	ABR004	Arabella Farm Direct Bouquet of 12 Fresh Cut Yellow Roses with a Free Glass Vase	1	0	1	Expedited	Rita ashy attn Mike	307 ARNOULD BLVD			LAFAYETTE	LA	70506-6217	US		Just thinking of you. I wish I was there to hug you. I love you! Ps be careful with rose thorns! From Laura	false		
113-9803429-2005804	28087751195322	2020-07-04T00:45:27+00:00	2020-07-03T17:45:27-07:00	2020-07-04T01:04:47+00:00	2020-07-08T06:59:59+00:00	-4	q6mxpbr949prvf9@marketplace.amazon.com	Patricia L. Waldron	+1 210-728-4548 ext. 44753	ABR0022	Purchase Now for Delivery by Tuesday | Arabella Farm Direct Bouquet of 12 Fresh Cut Pink Roses with a Free Glass Vase	1	0	1	Expedited	MRS. CAROL FARMER	566 APOLLO AVE			DELTONA	FL	32725-8315	US		MR. & MRS. RICHARD FARMER, DEAR CAROL, SENDING PRAYERS & WELL WISHES. KNOW U R BEING THOUGHT OF W/LOVE, FEEL BETTER REAL  SOON. LOVE, PATT & DOUG From Patricia L. Waldron	false		
111-9436537-7221838	17771981293106	2020-07-04T01:13:51+00:00	2020-07-03T18:13:51-07:00	2020-07-04T01:38:33+00:00	2020-07-08T06:59:59+00:00	-4	d1df4wzj9vsxdvm@marketplace.amazon.com	Fawzia Karim	+1 210-728-4548 ext. 68791	ABR0055	Purchase Now for Delivery by Tuesday | Arabella Farm Direct Bouquet of 12 Stems of Fresh Cut Hot Pink Roses in a Free Designer Glass Vase	1	0	1	Expedited	Reshad and Rosanna Karim	17002 KETTLE CREEK DR			SPRING	TX	77379-4479	US		Happy Anniversary! May the fourth be with you! ❤️ From Mom and Dad	false		
114-4500008-2251451	39165327491778	2020-07-04T02:08:37+00:00	2020-07-03T19:08:37-07:00	2020-07-04T02:39:17+00:00	2020-07-08T06:59:59+00:00	-4	6gmknsy0gk35q24@marketplace.amazon.com	Debra  K. Wallace	+1 347-448-3190 ext. 58004	ABR0055	Purchase Now for Delivery by Tuesday | Arabella Farm Direct Bouquet of 12 Stems of Fresh Cut Hot Pink Roses in a Free Designer Glass Vase	1	0	1	Expedited	Debra K. Wallace	5701 CAMDEN			MIDLAND	TEXAS	79707-5019	US			false		
114-4921048-9277804	28420050328090	2020-07-04T02:38:21+00:00	2020-07-03T19:38:21-07:00	2020-07-04T02:59:53+00:00	2020-07-08T06:59:59+00:00	-4	0sxbbq9fxhg268c@marketplace.amazon.com	Yahir Romero	+1 347-448-3190 ext. 34857	ABR0055	Purchase Now for Delivery by Tuesday | Arabella Farm Direct Bouquet of 12 Stems of Fresh Cut Hot Pink Roses in a Free Designer Glass Vase	1	0	1	Expedited	Claudia Z	4389 PORTER ST			FREMONT	CA	94538-2801	US		Hope you feel better. Hugs💕 From Yahir Romero	false		
112-9004584-8537838	65177246463738	2020-07-04T03:11:01+00:00	2020-07-03T20:11:01-07:00	2020-07-04T03:37:56+00:00	2020-07-08T06:59:59+00:00	-4	rywmwwg9qnwfykq@marketplace.amazon.com	Brenton Haliw	+1 346-307-9643 ext. 91103	ABR0055	Purchase Now for Delivery by Tuesday | Arabella Farm Direct Bouquet of 12 Stems of Fresh Cut Hot Pink Roses in a Free Designer Glass Vase	1	0	1	Expedited	Kami Larsen	7771 KIDWELL DR			HANOVER	MD	21076-1635	US		I love you so much!! Get better soon so you can come back over :* From Brenton Haliw	false		
111-1640745-3142606	31745011140658	2020-07-04T04:03:12+00:00	2020-07-03T21:03:12-07:00	2020-07-04T04:26:56+00:00	2020-07-08T06:59:59+00:00	-4	qv72v0f4z0zdpp7@marketplace.amazon.com	Ivan Orndorff, Jr	+1 346-307-9643 ext. 79840	ABR004	Arabella Farm Direct Bouquet of 12 Fresh Cut Yellow Roses with a Free Glass Vase	1	0	1	Expedited	Barbara Monteilh	103 COUNTY ROAD 2133			VALLEY VIEW	TX	76272-6997	US			false		
114-8064084-4149011	12466018230002	2020-07-04T04:48:46+00:00	2020-07-03T21:48:46-07:00	2020-07-04T05:17:23+00:00	2020-07-08T06:59:59+00:00	-4	m5l9yff9j2c74gk@marketplace.amazon.com	George	+1 346-307-9643 ext. 65534	ABR0022	Purchase Now for Delivery by Tuesday | Arabella Farm Direct Bouquet of 12 Fresh Cut Pink Roses with a Free Glass Vase	1	0	1	Expedited	George A. Proctor	8302 MAPLE ST			LAUREL	MD	20707-5093	US		Happy 13th Anniversary my love! Always your man & proud of it.  With Love From George	false		
113-0788417-7674602	36076124715442	2020-07-04T05:12:50+00:00	2020-07-03T22:12:50-07:00	2020-07-04T05:33:00+00:00	2020-07-08T06:59:59+00:00	-4	hqhjtz55rc9qvxm@marketplace.amazon.com	Matt Raether	+1 346-307-9643 ext. 75896	ABR0022	Purchase Now for Delivery by Tuesday | Arabella Farm Direct Bouquet of 12 Fresh Cut Pink Roses with a Free Glass Vase	1	0	1	Expedited	Scottie too Hottie	3029 MERRYDALE DR			CHATTANOOGA	TN	37404-6334	US		Aaaaaaaaaaaaaaaawwwwwwwwwwwwwwwweeeeeeeeeeeeeeeeeeeeee From Matt Raether	false		
