order-id	order-item-id	purchase-date	payments-date	reporting-date	promise-date	days-past-promise	buyer-email	buyer-name	buyer-phone-number	sku	product-name	quantity-purchased	quantity-shipped	quantity-to-ship	ship-service-level	recipient-name	ship-address-1	ship-address-2	ship-address-3	ship-city	ship-state	ship-postal-code	ship-country	gift-wrap-type	gift-message-text	is-business-order	purchase-order-number	price-designation
111-1633611-6389022	00521586068058	2020-07-04T13:06:48+00:00	2020-07-04T06:06:48-07:00	2020-07-04T13:42:05+00:00	2020-07-08T06:59:59+00:00	-4	nrk64vyr2njgh98@marketplace.amazon.com	Ana & Geoff Christensen	+1 346-307-9643 ext. 49454	ABM010	The Spring Fling Bouquet by Arabella Bouquets with a Free Designer Glass Vase	1	0	1	Expedited	Hannelore Christensen	797 HONEYSUCKLE DR			WARMINSTER	PA	18974-5517	US		Enjoy your gift! Happy birthday mutti uri From Ana & Geoff Christensen	false		
114-0109024-9365858	65561749261986	2020-07-04T14:34:04+00:00	2020-07-04T07:34:04-07:00	2020-07-04T15:01:58+00:00	2020-07-08T06:59:59+00:00	-4	8bl4wb6s5phvdy6@marketplace.amazon.com	Regina Palma	+1 346-307-9643 ext. 22021	ABM010	The Spring Fling Bouquet by Arabella Bouquets with a Free Designer Glass Vase	1	0	1	Expedited	Joann Loyden	9404 KREWSTOWN RD			PHILADELPHIA	PA	19115-3713	US		Joann,  Hope you are feeling better and on the way to a speedy recovery. Thinking of you. Love, Regina and Palm. From Regina Palma	false		
114-4470777-8957039	34173716817370	2020-07-04T14:50:40+00:00	2020-07-04T07:50:40-07:00	2020-07-04T15:20:25+00:00	2020-07-08T06:59:59+00:00	-4	3dv3vkvjsdxz1tm@marketplace.amazon.com	Karen A. Silvestro	+1 210-728-4548 ext. 86975	ABR0055	Purchase Now for Delivery by Tuesday | Arabella Farm Direct Bouquet of 12 Stems of Fresh Cut Hot Pink Roses in a Free Designer Glass Vase	1	0	1	Expedited	Mary Silvestro	4725 BELLWETHER LN RM 3			OXFORD	FL	34484-2980	US			false		
112-4604608-1304243	64738951506730	2020-07-04T15:29:22+00:00	2020-07-04T08:29:22-07:00	2020-07-04T16:00:03+00:00	2020-07-08T06:59:59+00:00	-4	z1tt4b4f52z5703@marketplace.amazon.com	Dylan Goodwin	+1 346-307-9643 ext. 16984	ABR001	Purchase Now for Delivery by Wednesday | Arabella Bouquets 12 Stems of Fresh Cut Red Roses in a Free Designer Glass Vase	1	0	1	Expedited	Hannah Prince	893 CLARK ST			MUSKEGON	MI	49442-3809	US			false		
112-0666249-3717828	35144720927298	2020-07-04T15:39:23+00:00	2020-07-04T08:39:23-07:00	2020-07-04T16:08:53+00:00	2020-07-08T06:59:59+00:00	-4	r687ygry3283z6c@marketplace.amazon.com	William Stein	+1 346-307-9643 ext. 60988	ABR0022	Purchase Now for Delivery by Wednesday | Arabella Farm Direct Bouquet of 12 Fresh Cut Pink Roses with a Free Glass Vase	1	0	1	Expedited	Susi Jenks	6557 GULF GATE PL APT 261			SARASOTA	FL	34231-5841	US		We love you From William Stein	false		
112-0666249-3717828	02450450116554	2020-07-04T15:39:23+00:00	2020-07-04T08:39:23-07:00	2020-07-04T16:08:53+00:00	2020-07-08T06:59:59+00:00	-4	r687ygry3283z6c@marketplace.amazon.com	William Stein	+1 346-307-9643 ext. 60988	ABR0022	Purchase Now for Delivery by Wednesday | Arabella Farm Direct Bouquet of 12 Fresh Cut Pink Roses with a Free Glass Vase	1	0	1	Expedited	Susi Jenks	6557 GULF GATE PL APT 261			SARASOTA	FL	34231-5841	US		Enjoy your gift! From William Stein	false		
111-4367614-0306613	06403838307978	2020-07-04T15:42:01+00:00	2020-07-04T08:42:01-07:00	2020-07-04T16:10:55+00:00	2020-07-08T06:59:59+00:00	-4	6n953g8q99443ds@marketplace.amazon.com	C A Inverso	+1 346-307-9643 ext. 86976	ABR0055	Purchase Now for Delivery by Tuesday | Arabella Farm Direct Bouquet of 12 Stems of Fresh Cut Hot Pink Roses in a Free Designer Glass Vase	1	0	1	Expedited	Assunta Dragone	THE GROVE AT VALHALLA	61 GRASSLANDS RD RM 140A		VALHALLA	NY	10595-1543	US		We love you Zia Assunta! Get Better Soon!  Love from Maria, Linda, Christina, Josie and Joe From C A Inverso	false		
111-3203502-6917032	11539907598450	2020-07-04T15:48:32+00:00	2020-07-04T08:48:32-07:00	2020-07-04T16:18:27+00:00	2020-07-08T06:59:59+00:00	-4	20k6lyp8nh33zw7@marketplace.amazon.com	Kara Putrino	+1 346-307-9643 ext. 93062	ABR0066	Arabella Bouquets 12 Stems of Fresh Cut White Roses in a Free Designer Glass Vase	1	0	1	Expedited	Aunt Janet Dennis	1827 W JUNIATA ST			PHILADELPHIA	PA	19140-2930	US			false		
111-8294195-9981069	26806124551194	2020-07-04T16:02:50+00:00	2020-07-04T09:02:50-07:00	2020-07-04T16:28:00+00:00	2020-07-08T06:59:59+00:00	-4	b3jd0tlxzl87x4y@marketplace.amazon.com	Kellie Freitas	+1 346-307-9643 ext. 99422	ABR0022	Purchase Now for Delivery by Wednesday | Arabella Farm Direct Bouquet of 12 Fresh Cut Pink Roses with a Free Glass Vase	1	0	1	Expedited	Kellie Freitas	107 CLEARWATER DR			PAWLEYS ISLAND	SC	29585-5939	US		Every flower is a hug!! From Kellie Freitas	false		
113-5120320-8603426	69376682935778	2020-07-04T16:38:51+00:00	2020-07-04T09:38:51-07:00	2020-07-04T17:01:24+00:00	2020-07-08T06:59:59+00:00	-4	gl8b83xyjd3vxck@marketplace.amazon.com	Mary Catherine Dolehide	+1 346-307-9643 ext. 23031	ABM0044	Arabella Farm Direct Bouquet of Fresh Cut Blue Hydrangea with a Free Glass Vase	1	0	1	Expedited	The Navarro Family	801 STAR OF THE WEST ST			SULLIVANS ISLAND	SC	29482-7705	US		Hi Ben and Kelly,  Thank you so much for being so kind to Caroline.  The tennis event was amazing and your hospitality as always was extraordinary.  Love, The Dolehide Family From Mary Catherine Dolehide	false		
114-4099425-2704227	70201113070938	2020-07-04T17:20:02+00:00	2020-07-04T10:20:02-07:00	2020-07-04T17:48:40+00:00	2020-07-08T06:59:59+00:00	-4	4t153jd0xll28c3@marketplace.amazon.com	Nikki Stevens	+1 314-282-9402 ext. 40304	ABR0066	Arabella Bouquets 12 Stems of Fresh Cut White Roses in a Free Designer Glass Vase	1	0	1	Expedited	Gary Stevens	162 KRAPF RD			ASHFORD	CT	06278-1315	US			false		
114-0915197-6253033	23746521622290	2020-07-04T17:27:05+00:00	2020-07-04T10:27:05-07:00	2020-07-04T17:57:17+00:00	2020-07-08T06:59:59+00:00	-4	pzkgfbwy8y7tx83@marketplace.amazon.com	Sandra Thompson	+1 346-307-9643 ext. 60908	ABR0022	Purchase Now for Delivery by Wednesday | Arabella Farm Direct Bouquet of 12 Fresh Cut Pink Roses with a Free Glass Vase	1	0	1	Expedited	Cheech Thompson & Debbie Smith	2608 TUMBLE BROOK DR			LAS VEGAS	NV	89134-7869	US			false		
114-9347552-6091439	20654980907450	2020-07-04T19:16:02+00:00	2020-07-04T12:16:02-07:00	2020-07-04T19:44:12+00:00	2020-07-08T06:59:59+00:00	-4	fssjbpbp9wz1dyd@marketplace.amazon.com	Catherine S. Berkey	+1 210-728-4548 ext. 63218	ABR0022	Purchase Now for Delivery by Wednesday | Arabella Farm Direct Bouquet of 12 Fresh Cut Pink Roses with a Free Glass Vase	1	0	1	Expedited	Loveda Grooms	115 FOLIAGE LN			SPRINGBORO	OH	45066-9335	US		Mom,  Have a wonderful birthday! Love, Cathy & Den From Catherine S. Berkey	false		
113-7037208-3506620	04839076923650	2020-07-04T20:29:22+00:00	2020-07-04T13:29:22-07:00	2020-07-04T20:56:59+00:00	2020-07-08T06:59:59+00:00	-4	68pm38xc65m75yh@marketplace.amazon.com	Tyler	+1 346-307-9643 ext. 75648	ABR0022	Purchase Now for Delivery by Wednesday | Arabella Farm Direct Bouquet of 12 Fresh Cut Pink Roses with a Free Glass Vase	1	0	1	Expedited	Jourdain Billings	3014 CARROL DR			COPPERAS COVE	TX	76522-3869	US		Enjoy your gift! From Tyler	false		
