order-id	order-item-id	purchase-date	payments-date	reporting-date	promise-date	days-past-promise	buyer-email	buyer-name	buyer-phone-number	sku	product-name	quantity-purchased	quantity-shipped	quantity-to-ship	ship-service-level	recipient-name	ship-address-1	ship-address-2	ship-address-3	ship-city	ship-state	ship-postal-code	ship-country	gift-wrap-type	gift-message-text	is-business-order	purchase-order-number	price-designation
111-1633611-6389022	00521586068058	2020-07-04T13:06:48+00:00	2020-07-04T06:06:48-07:00	2020-07-04T13:42:05+00:00	2020-07-08T06:59:59+00:00	-3	nrk64vyr2njgh98@marketplace.amazon.com	Ana & Geoff Christensen	+1 346-307-9643 ext. 49454	ABM010	The Spring Fling Bouquet by Arabella Bouquets with a Free Designer Glass Vase	1	0	1	Expedited	Hannelore Christensen	797 HONEYSUCKLE DR			WARMINSTER	PA	18974-5517	US		Enjoy your gift! Happy birthday mutti uri From Ana & Geoff Christensen	false		
114-0109024-9365858	65561749261986	2020-07-04T14:34:04+00:00	2020-07-04T07:34:04-07:00	2020-07-04T15:01:58+00:00	2020-07-08T06:59:59+00:00	-3	8bl4wb6s5phvdy6@marketplace.amazon.com	Regina Palma	+1 346-307-9643 ext. 22021	ABM010	The Spring Fling Bouquet by Arabella Bouquets with a Free Designer Glass Vase	1	0	1	Expedited	Joann Loyden	9404 KREWSTOWN RD			PHILADELPHIA	PA	19115-3713	US		Joann,  Hope you are feeling better and on the way to a speedy recovery. Thinking of you. Love, Regina and Palm. From Regina Palma	false		
114-4470777-8957039	34173716817370	2020-07-04T14:50:40+00:00	2020-07-04T07:50:40-07:00	2020-07-04T15:20:25+00:00	2020-07-08T06:59:59+00:00	-3	3dv3vkvjsdxz1tm@marketplace.amazon.com	Karen A. Silvestro	+1 210-728-4548 ext. 86975	ABR0055	Purchase Now for Delivery by Tuesday | Arabella Farm Direct Bouquet of 12 Stems of Fresh Cut Hot Pink Roses in a Free Designer Glass Vase	1	0	1	Expedited	Mary Silvestro	4725 BELLWETHER LN RM 3			OXFORD	FL	34484-2980	US			false		
112-4604608-1304243	64738951506730	2020-07-04T15:29:22+00:00	2020-07-04T08:29:22-07:00	2020-07-04T16:00:03+00:00	2020-07-08T06:59:59+00:00	-3	z1tt4b4f52z5703@marketplace.amazon.com	Dylan Goodwin	+1 346-307-9643 ext. 16984	ABR001	Purchase Now for Delivery by Wednesday | Arabella Bouquets 12 Stems of Fresh Cut Red Roses in a Free Designer Glass Vase	1	0	1	Expedited	Hannah Prince	893 CLARK ST			MUSKEGON	MI	49442-3809	US			false		
112-0666249-3717828	35144720927298	2020-07-04T15:39:23+00:00	2020-07-04T08:39:23-07:00	2020-07-04T16:08:53+00:00	2020-07-08T06:59:59+00:00	-3	r687ygry3283z6c@marketplace.amazon.com	William Stein	+1 346-307-9643 ext. 60988	ABR0022	Purchase Now for Delivery by Wednesday | Arabella Farm Direct Bouquet of 12 Fresh Cut Pink Roses with a Free Glass Vase	1	0	1	Expedited	Susi Jenks	6557 GULF GATE PL APT 261			SARASOTA	FL	34231-5841	US		We love you From William Stein	false		
112-0666249-3717828	02450450116554	2020-07-04T15:39:23+00:00	2020-07-04T08:39:23-07:00	2020-07-04T16:08:53+00:00	2020-07-08T06:59:59+00:00	-3	r687ygry3283z6c@marketplace.amazon.com	William Stein	+1 346-307-9643 ext. 60988	ABR0022	Purchase Now for Delivery by Wednesday | Arabella Farm Direct Bouquet of 12 Fresh Cut Pink Roses with a Free Glass Vase	1	0	1	Expedited	Susi Jenks	6557 GULF GATE PL APT 261			SARASOTA	FL	34231-5841	US		Enjoy your gift! From William Stein	false		
111-4367614-0306613	06403838307978	2020-07-04T15:42:01+00:00	2020-07-04T08:42:01-07:00	2020-07-04T16:10:55+00:00	2020-07-08T06:59:59+00:00	-3	6n953g8q99443ds@marketplace.amazon.com	C A Inverso	+1 346-307-9643 ext. 86976	ABR0055	Purchase Now for Delivery by Tuesday | Arabella Farm Direct Bouquet of 12 Stems of Fresh Cut Hot Pink Roses in a Free Designer Glass Vase	1	0	1	Expedited	Assunta Dragone	THE GROVE AT VALHALLA	61 GRASSLANDS RD RM 140A		VALHALLA	NY	10595-1543	US		We love you Zia Assunta! Get Better Soon!  Love from Maria, Linda, Christina, Josie and Joe From C A Inverso	false		
111-3203502-6917032	11539907598450	2020-07-04T15:48:32+00:00	2020-07-04T08:48:32-07:00	2020-07-04T16:18:27+00:00	2020-07-08T06:59:59+00:00	-3	20k6lyp8nh33zw7@marketplace.amazon.com	Kara Putrino	+1 346-307-9643 ext. 93062	ABR0066	Arabella Bouquets 12 Stems of Fresh Cut White Roses in a Free Designer Glass Vase	1	0	1	Expedited	Aunt Janet Dennis	1827 W JUNIATA ST			PHILADELPHIA	PA	19140-2930	US			false		
111-8294195-9981069	26806124551194	2020-07-04T16:02:50+00:00	2020-07-04T09:02:50-07:00	2020-07-04T16:28:00+00:00	2020-07-08T06:59:59+00:00	-3	b3jd0tlxzl87x4y@marketplace.amazon.com	Kellie Freitas	+1 346-307-9643 ext. 99422	ABR0022	Purchase Now for Delivery by Wednesday | Arabella Farm Direct Bouquet of 12 Fresh Cut Pink Roses with a Free Glass Vase	1	0	1	Expedited	Kellie Freitas	107 CLEARWATER DR			PAWLEYS ISLAND	SC	29585-5939	US		Every flower is a hug!! From Kellie Freitas	false		
113-5120320-8603426	69376682935778	2020-07-04T16:38:51+00:00	2020-07-04T09:38:51-07:00	2020-07-04T17:01:24+00:00	2020-07-08T06:59:59+00:00	-3	gl8b83xyjd3vxck@marketplace.amazon.com	Mary Catherine Dolehide	+1 346-307-9643 ext. 23031	ABM0044	Arabella Farm Direct Bouquet of Fresh Cut Blue Hydrangea with a Free Glass Vase	1	0	1	Expedited	The Navarro Family	801 STAR OF THE WEST ST			SULLIVANS ISLAND	SC	29482-7705	US		Hi Ben and Kelly,  Thank you so much for being so kind to Caroline.  The tennis event was amazing and your hospitality as always was extraordinary.  Love, The Dolehide Family From Mary Catherine Dolehide	false		
114-4099425-2704227	70201113070938	2020-07-04T17:20:02+00:00	2020-07-04T10:20:02-07:00	2020-07-04T17:48:40+00:00	2020-07-08T06:59:59+00:00	-3	4t153jd0xll28c3@marketplace.amazon.com	Nikki Stevens	+1 314-282-9402 ext. 40304	ABR0066	Arabella Bouquets 12 Stems of Fresh Cut White Roses in a Free Designer Glass Vase	1	0	1	Expedited	Gary Stevens	162 KRAPF RD			ASHFORD	CT	06278-1315	US			false		
114-0915197-6253033	23746521622290	2020-07-04T17:27:05+00:00	2020-07-04T10:27:05-07:00	2020-07-04T17:57:17+00:00	2020-07-08T06:59:59+00:00	-3	pzkgfbwy8y7tx83@marketplace.amazon.com	Sandra Thompson	+1 346-307-9643 ext. 60908	ABR0022	Purchase Now for Delivery by Wednesday | Arabella Farm Direct Bouquet of 12 Fresh Cut Pink Roses with a Free Glass Vase	1	0	1	Expedited	Cheech Thompson & Debbie Smith	2608 TUMBLE BROOK DR			LAS VEGAS	NV	89134-7869	US			false		
114-9347552-6091439	20654980907450	2020-07-04T19:16:02+00:00	2020-07-04T12:16:02-07:00	2020-07-04T19:44:12+00:00	2020-07-08T06:59:59+00:00	-3	fssjbpbp9wz1dyd@marketplace.amazon.com	Catherine S. Berkey	+1 210-728-4548 ext. 63218	ABR0022	Purchase Now for Delivery by Wednesday | Arabella Farm Direct Bouquet of 12 Fresh Cut Pink Roses with a Free Glass Vase	1	0	1	Expedited	Loveda Grooms	115 FOLIAGE LN			SPRINGBORO	OH	45066-9335	US		Mom,  Have a wonderful birthday! Love, Cathy & Den From Catherine S. Berkey	false		
113-7037208-3506620	04839076923650	2020-07-04T20:29:22+00:00	2020-07-04T13:29:22-07:00	2020-07-04T20:56:59+00:00	2020-07-08T06:59:59+00:00	-3	68pm38xc65m75yh@marketplace.amazon.com	Tyler	+1 346-307-9643 ext. 75648	ABR0022	Purchase Now for Delivery by Wednesday | Arabella Farm Direct Bouquet of 12 Fresh Cut Pink Roses with a Free Glass Vase	1	0	1	Expedited	Jourdain Billings	3014 CARROL DR			COPPERAS COVE	TX	76522-3869	US		Enjoy your gift! From Tyler	false		
111-8971291-9829811	30022231708050	2020-07-04T21:29:56+00:00	2020-07-04T14:29:56-07:00	2020-07-04T21:58:26+00:00	2020-07-08T06:59:59+00:00	-3	2s5yj8f5xn9glk2@marketplace.amazon.com	Hunter	+1 346-307-9643 ext. 59525	ABR001	Purchase Now for Delivery by Wednesday | Arabella Bouquets 12 Stems of Fresh Cut Red Roses in a Free Designer Glass Vase	1	0	1	Expedited	Hunter	2605 BLUEBONNET VALLEY DR			GEORGETOWN	TX	78626-7575	US			false		
111-8789666-8333037	50199021776154	2020-07-04T23:11:49+00:00	2020-07-04T16:11:49-07:00	2020-07-04T23:40:34+00:00	2020-07-08T06:59:59+00:00	-3	5dg9k7zpwxkyx6k@marketplace.amazon.com	Dorotka Linda Dodds	+1 346-307-9643 ext. 41376	ABR0055	Purchase Now for Delivery by Tuesday | Arabella Farm Direct Bouquet of 12 Stems of Fresh Cut Hot Pink Roses in a Free Designer Glass Vase	1	0	1	Expedited	Elizabeth Dodds	3629 S HAMPTON CT APT 126			BRYAN	TX	77801-3427	US			false		
112-1558200-9511426	62378741543258	2020-07-04T23:17:38+00:00	2020-07-04T16:17:38-07:00	2020-07-04T23:48:15+00:00	2020-07-08T06:59:59+00:00	-3	g5m0k8j74ltrrfk@marketplace.amazon.com	Euan Taylor	+1 346-307-9643 ext. 00841	ABR0022	Purchase Now for Delivery by Wednesday | Arabella Farm Direct Bouquet of 12 Fresh Cut Pink Roses with a Free Glass Vase	1	0	1	Expedited	Christina Troyak	1643 SPRING ROSE RD			VERONA	WI	53593-9459	US			false		
113-1712385-7762637	27666679540058	2020-07-04T23:32:48+00:00	2020-07-04T16:32:48-07:00	2020-07-05T00:00:51+00:00	2020-07-08T06:59:59+00:00	-3	b0x533j2x5d2b2k@marketplace.amazon.com	Marc Hall	+1 314-282-9402 ext. 00794	ABR0022	Purchase Now for Delivery by Wednesday | Arabella Farm Direct Bouquet of 12 Fresh Cut Pink Roses with a Free Glass Vase	1	0	1	Expedited	Nicole thomas	26804 ISABELLA PKWY APT 103			CANYON COUNTRY	CA	91351-4867	US			false		
111-7939558-8245832	31011998253106	2020-07-05T00:14:24+00:00	2020-07-04T17:14:24-07:00	2020-07-05T00:42:05+00:00	2020-07-08T06:59:59+00:00	-3	yx39gddz0vqm5zb@marketplace.amazon.com	Christian C. Anton	+1 346-307-9643 ext. 77449	ABR0055	Purchase Now for Delivery by Tuesday | Arabella Farm Direct Bouquet of 12 Stems of Fresh Cut Hot Pink Roses in a Free Designer Glass Vase	1	0	1	Expedited	Anxhela Dodi	1778 W 12TH ST 2ND FLOOR			BROOKLYN	NY	11223-1101	US		Dear Anxhela,  I miss you so much. I hope when you look at these roses, they remind you of how much I love you. From Christian C. Anton	false		
112-8627974-1533068	01079141507002	2020-07-05T01:19:53+00:00	2020-07-04T18:19:53-07:00	2020-07-05T01:42:39+00:00	2020-07-08T06:59:59+00:00	-3	3m51nknb2hzr676@marketplace.amazon.com	Linda Reeves	+1 314-282-9402 ext. 47924	ABR0055	Purchase Now for Delivery by Tuesday | Arabella Farm Direct Bouquet of 12 Stems of Fresh Cut Hot Pink Roses in a Free Designer Glass Vase	1	0	1	Expedited	Liz Schupbach	1507 E 131ST PL			THORNTON	CO	80241-1939	US		Liz......enjoy these until we can get together and have lunch or dinner! 💖 From Linda Reeves	false		
114-4128099-0270660	42906463621202	2020-07-05T01:22:33+00:00	2020-07-04T18:22:33-07:00	2020-07-05T01:49:00+00:00	2020-07-08T06:59:59+00:00	-3	9fy6cx31xmxpdb4@marketplace.amazon.com	Johnathan Garcia	+1 346-307-9643 ext. 88171	ABR0022	Purchase Now for Delivery by Wednesday | Arabella Farm Direct Bouquet of 12 Fresh Cut Pink Roses with a Free Glass Vase	1	0	1	Expedited	Desiree White	21 MAINS CROSSING RD			NORTH STONINGTON	CT	06359-1204	US		Happy birthday to you, Happy Birthday to you, Happy Birthday dear Dee, Happy Birthday to youuuuu! From Jac	false		
111-4459131-6438621	18897884820050	2020-07-05T01:28:07+00:00	2020-07-04T18:28:07-07:00	2020-07-05T01:58:25+00:00	2020-07-08T06:59:59+00:00	-3	l33md60qf2sxtxj@marketplace.amazon.com	Brooke Wise	+1 347-448-3190 ext. 20890	ABR0066	Arabella Bouquets 12 Stems of Fresh Cut White Roses in a Free Designer Glass Vase	1	0	1	Expedited	Aldworth (B. Wise)	2169 Fountain Circle			Erie	COLORADO	80516	US			false		
112-3179094-4730619	43148480057890	2020-07-05T01:59:57+00:00	2020-07-04T18:59:57-07:00	2020-07-05T02:28:10+00:00	2020-07-08T06:59:59+00:00	-3	4mm9bb92jpqlk5q@marketplace.amazon.com	John D. Carr	+1 346-307-9643 ext. 87963	ABR0055	Purchase Now for Delivery by Tuesday | Arabella Farm Direct Bouquet of 12 Stems of Fresh Cut Hot Pink Roses in a Free Designer Glass Vase	1	0	1	Expedited	Ms. Sarah Lonquist	3331 Walnut St NE			St Petersburg	FL	33704-2352	US		Love you! John From John D. Carr	false		
114-1102169-8371452	47833749330442	2020-07-05T03:27:07+00:00	2020-07-04T20:27:07-07:00	2020-07-05T03:58:27+00:00	2020-07-08T06:59:59+00:00	-3	gp1w0hxzdhtmc87@marketplace.amazon.com	Tammi Howard	+1 346-307-9643 ext. 42617	ABR0055	Purchase Now for Delivery by Tuesday | Arabella Farm Direct Bouquet of 12 Stems of Fresh Cut Hot Pink Roses in a Free Designer Glass Vase	1	0	1	Expedited	Alexander Howard	3206 CATHY LN			BELTON	TX	76513-7217	US			false		
112-4096447-3533833	61722178768026	2020-07-05T03:38:52+00:00	2020-07-04T20:38:52-07:00	2020-07-05T04:05:34+00:00	2020-07-08T06:59:59+00:00	-3	60wfg6n60llbtf9@marketplace.amazon.com	Spring Belasich	+1 346-307-9643 ext. 15716	ABR0055	Purchase Now for Delivery by Tuesday | Arabella Farm Direct Bouquet of 12 Stems of Fresh Cut Hot Pink Roses in a Free Designer Glass Vase	1	0	1	Expedited	MRs Diana Walksler	19091 N DALE MABRY HWY			LUTZ	FL	33548-4982	US		Happy Birthday Diana, I love you till the 12th of never. Spring and Johnny 💖💖💖💖💖💖💖💖💖💖💖💖😘💋 From Spring Belasich	false		
114-4813021-1987418	40730989895178	2020-07-05T05:11:19+00:00	2020-07-04T22:11:19-07:00	2020-07-05T05:38:18+00:00	2020-07-08T06:59:59+00:00	-3	2p1gdpsyl5tqxv5@marketplace.amazon.com	Bonnie Knight	+1 346-307-9643 ext. 13889	ABR0022	Purchase Now for Delivery by Wednesday | Arabella Farm Direct Bouquet of 12 Fresh Cut Pink Roses with a Free Glass Vase	1	0	1	Expedited	Jane Franklin	310 AIRPORT RD			BEDMINSTER	NEW JERSEY	07921-2817	US		Hapoy Birthday Aunt Jane, Enjoy your flowers! Your niece & hubby, Love, Bonnie & Doug xxxooo	false		
112-5975374-5242639	51671604564130	2020-07-05T06:47:27+00:00	2020-07-04T23:47:27-07:00	2020-07-05T07:02:55+00:00	2020-07-08T06:59:59+00:00	-3	bh8w3rzssh86fm1@marketplace.amazon.com	inhaeng heo	+1 346-307-9643 ext. 00605	ABR0022	Purchase Now for Delivery by Wednesday | Arabella Farm Direct Bouquet of 12 Fresh Cut Pink Roses with a Free Glass Vase	1	0	1	Expedited	Olivia Chandler	109 BERYL ST			WHITE ROCK	NM	87547-3451	US		I remember that you love fresh flowers so much, but I couldn't get you a flower for a while. So, I wanted to brighten up your day. I can't wait till I kiss you and hug you again. I love you, my greatest cheerleader! From Inhaeng Heo	false		
112-7856357-6419450	51623207394746	2020-07-05T11:32:33+00:00	2020-07-05T04:32:33-07:00	2020-07-05T11:59:55+00:00	2020-07-08T06:59:59+00:00	-3	2mxh857fqznhbdl@marketplace.amazon.com	Dawn Dekle	+1 346-307-9643 ext. 39889	ABR0055	Purchase Now for Delivery by Wednesday | Arabella Farm Direct Bouquet of 12 Stems of Fresh Cut Hot Pink Roses in a Free Designer Glass Vase	1	0	1	Expedited	Nichole Aston	17019 PAGOSA SPRINGS CT			AUSTIN	TX	78717-2993	US		Happy Birthday Nichole! with love from Africa, Dawn From Dawn Dekle	false		
111-9944493-6410641	33178788058138	2020-07-05T14:19:52+00:00	2020-07-05T07:19:52-07:00	2020-07-05T14:45:51+00:00	2020-07-08T06:59:59+00:00	-3	fssz1q58g8hh83k@marketplace.amazon.com	Jackie LeSeur	+1 210-728-4548 ext. 73833	ABR0022	Purchase Now for Delivery by Wednesday | Arabella Farm Direct Bouquet of 12 Fresh Cut Pink Roses with a Free Glass Vase	1	0	1	Expedited	Lynn Reilly	4 SHADOW LN			EAST WILLISTON	NY	11596-2511	US		Happy Birthday to my Dearest friend ! Enjoy your special day! Wish you much happiness always! Love you! Debbie, Mike,JAckie and Nicole too!!miss you From Debbie LeSeur	false		
111-7141660-2038627	42793797489058	2020-07-05T14:26:33+00:00	2020-07-05T07:26:33-07:00	2020-07-05T14:57:10+00:00	2020-07-08T06:59:59+00:00	-3	db68zvkf2p455xx@marketplace.amazon.com	Carl L. Gatti	+1 346-307-9643 ext. 19081	ABR012	Purchase Now for Delivery by Wednesday | Arabella Farm Direct Bouquet of 18 Fresh Cut Pink Roses with a Free Glass Vase	1	0	1	Expedited	Lisa Arthur	2100 E OVERHOLSER DR			OKLAHOMA CITY	OK	73127-9610	US			false		
114-4104068-2504264	10577042407962	2020-07-05T14:38:52+00:00	2020-07-05T07:38:52-07:00	2020-07-05T15:09:15+00:00	2020-07-08T06:59:59+00:00	-3	59g34mt4r2f6c7w@marketplace.amazon.com	Nicholas Huff	+1 346-307-9643 ext. 77813	ABR0022	Purchase Now for Delivery by Wednesday | Arabella Farm Direct Bouquet of 12 Fresh Cut Pink Roses with a Free Glass Vase	1	0	1	Expedited	Nicholas Huff	523 BRUSSELLES ST			SAINT MARYS	PA	15857-1509	US			false		
112-9377714-6073823	21246355335858	2020-07-05T14:55:58+00:00	2020-07-05T07:55:58-07:00	2020-07-05T15:21:52+00:00	2020-07-08T06:59:59+00:00	-3	c42p9xn6yk3ds0d@marketplace.amazon.com	Emmanuel	+1 210-728-4548 ext. 14222	ABR0022	Purchase Now for Delivery by Wednesday | Arabella Farm Direct Bouquet of 12 Fresh Cut Pink Roses with a Free Glass Vase	1	0	1	Expedited	Natali Garza	403 E 5TH ST			GRAFTON	ND	58237-1507	US		No ocupa ser un dia especial para alguien especial ❤️ I Love U❤️ De Emmanuel	false		
112-1347743-4613060	45679114560226	2020-07-05T14:55:07+00:00	2020-07-05T07:55:07-07:00	2020-07-05T15:25:45+00:00	2020-07-08T06:59:59+00:00	-3	f1pkzvg7k545j41@marketplace.amazon.com	Alaina	+1 314-282-9402 ext. 52512	ABR012	Purchase Now for Delivery by Wednesday | Arabella Farm Direct Bouquet of 18 Fresh Cut Pink Roses with a Free Glass Vase	2	0	2	Expedited	Alaina Witherell	1021 SHADY LAKES CIR			PALM BEACH GARDENS	FL	33418-3554	US			false		
114-7513729-0552227	20185668538602	2020-07-05T15:37:30+00:00	2020-07-05T08:37:30-07:00	2020-07-05T16:06:23+00:00	2020-07-08T06:59:59+00:00	-3	5gwdc34gqb8syrv@marketplace.amazon.com	doris	+1 346-307-9643 ext. 51093	ABR0055	Purchase Now for Delivery by Wednesday | Arabella Farm Direct Bouquet of 12 Stems of Fresh Cut Hot Pink Roses in a Free Designer Glass Vase	1	0	1	Expedited	Pat Smith	820 SPRING GARDEN ST			EASTON	PA	18042-3346	US		GET WELL REAL SOON! WE HOPE YOU FEEL BETTER. ENJOY THE ROSES! WE LOVE YOU. MONSIGNOR AND DORIS XOXOXO From doris	false		
111-8188163-3220224	47842706698858	2020-07-05T16:01:10+00:00	2020-07-05T09:01:10-07:00	2020-07-05T16:29:23+00:00	2020-07-08T06:59:59+00:00	-3	psrsz9snd34nyhy@marketplace.amazon.com	Evanson, Gabriel	+1 314-282-9402 ext. 35931	ABR001	Purchase Now for Delivery by Wednesday | Arabella Bouquets 12 Stems of Fresh Cut Red Roses in a Free Designer Glass Vase	1	0	1	Expedited	Evanson, Gabriel	19617 TESORO WAY			ESTERO	FL	33967-5682	US		Happy Birthday Rocio From Evanson, Gabriel	false		
112-4559149-1169862	20830704794498	2020-07-05T16:27:45+00:00	2020-07-05T09:27:45-07:00	2020-07-05T16:58:14+00:00	2020-07-08T06:59:59+00:00	-3	xw98kj2t7w6ybs6@marketplace.amazon.com	Joshua Schwartz	+1 347-448-3190 ext. 89195	ABR0022	Purchase Now for Delivery by Wednesday | Arabella Farm Direct Bouquet of 12 Fresh Cut Pink Roses with a Free Glass Vase	1	0	1	Expedited	Zayda Garcia de Schwartz	119 CONNECTICUT AVE			CHERRY HILL	NJ	08002-3125	US			false		
113-2877891-2157865	03116160052146	2020-07-05T17:03:05+00:00	2020-07-05T10:03:05-07:00	2020-07-05T17:31:52+00:00	2020-07-08T06:59:59+00:00	-3	x03x2lt13bkdp4h@marketplace.amazon.com	JoAnne Walker	+1 314-282-9402 ext. 94661	ABM010	Purchase Now for Delivery by Wednesday | The Spring Fling Bouquet by Arabella Bouquets with a Free Designer Glass Vase	1	0	1	Expedited	Jo Weber	5901 MOUNT EAGLE DR APT 1114			ALEXANDRIA	VA	22303-2510	US		Enjoy your gift! Happy 50th Anniversary to two of our favorite people in the whole wide world! We love you LOTS Tommy and JoAnne From JoAnne And Tom Walker	false		
114-1996777-6431464	59610620562954	2020-07-05T17:03:57+00:00	2020-07-05T10:03:57-07:00	2020-07-05T17:34:27+00:00	2020-07-08T06:59:59+00:00	-3	ycvht8c5h3s2vf1@marketplace.amazon.com	Ross Breedlove	+1 346-307-9643 ext. 88924	ABR0022	Purchase Now for Delivery by Wednesday | Arabella Farm Direct Bouquet of 12 Fresh Cut Pink Roses with a Free Glass Vase	1	0	1	Expedited	Debbie Lanthier	9192 MEADOWRUN PL			SAN DIEGO	CA	92129-3320	US			false		
111-3922418-4548258	48234638683906	2020-07-05T17:09:19+00:00	2020-07-05T10:09:19-07:00	2020-07-05T17:38:11+00:00	2020-07-08T06:59:59+00:00	-3	qg26f77w4fktr9n@marketplace.amazon.com	Julie R. Dixon	+1 346-307-9643 ext. 84515	ABR0055	Purchase Now for Delivery by Wednesday | Arabella Farm Direct Bouquet of 12 Stems of Fresh Cut Hot Pink Roses in a Free Designer Glass Vase	1	0	1	Expedited	Michelle Pantages	3321 WRIGHT ST			SACRAMENTO	CA	95821-1730	US		Hi sweets!  I thought you might like to be spoiled too! Loving you!!!! From Julie	false		
111-1521809-8849064	29672266525634	2020-07-05T17:26:00+00:00	2020-07-05T10:26:00-07:00	2020-07-05T17:54:26+00:00	2020-07-08T06:59:59+00:00	-3	4jdksnglpv8ryy9@marketplace.amazon.com	Tino	+1 210-728-4548 ext. 84014	ABR0066	Arabella Bouquets 12 Stems of Fresh Cut White Roses in a Free Designer Glass Vase	1	0	1	Expedited	Jacqueline	14932 COLBY PL			FONTANA	CA	92337-3418	US			false		
114-7182358-0806620	61072521562594	2020-07-05T18:01:23+00:00	2020-07-05T11:01:23-07:00	2020-07-05T18:07:42+00:00	2020-07-08T06:59:59+00:00	-3	4lpl098v3dpdz88@marketplace.amazon.com	Francis Che Wan Tse	+1 346-307-9643 ext. 16221	ABR012	Purchase Now for Delivery by Wednesday | Arabella Farm Direct Bouquet of 18 Fresh Cut Pink Roses with a Free Glass Vase	1	0	1	Expedited	Tom & Marie Prendergast	2028 52ND ST			BROOKLYN	NY	11204-1733	US		Dear Tom & Marie, thinking of you dearly and sending well wishes to you and your family.  Stay safe. Big hugs and lots of xoxoxo  Nadia and Nina From Nadia Tse (917-319-6309	false		
112-8529596-0434635	53306209354962	2020-07-04T21:15:00+00:00	2020-07-04T14:15:00-07:00	2020-07-05T18:14:58+00:00	2020-07-08T06:59:59+00:00	-3	p9b2qmvkrntqctv@marketplace.amazon.com	LaiNa Ching	+1 346-307-9643 ext. 40685	ABM010	The Spring Fling Bouquet by Arabella Bouquets with a Free Designer Glass Vase	1	0	1	Standard	Siu Kam Ching	2416 LINCOLN HIGH DR			LOS ANGELES	CA	90031-2839	US		I love you Mommy! #1 From LaiNa Benjamin	false		
