order-id	order-item-id	purchase-date	payments-date	reporting-date	promise-date	days-past-promise	buyer-email	buyer-name	buyer-phone-number	sku	product-name	quantity-purchased	quantity-shipped	quantity-to-ship	ship-service-level	recipient-name	ship-address-1	ship-address-2	ship-address-3	ship-city	ship-state	ship-postal-code	ship-country	gift-wrap-type	gift-message-text	is-business-order	purchase-order-number	price-designation
111-1633611-6389022	00521586068058	2020-07-04T13:06:48+00:00	2020-07-04T06:06:48-07:00	2020-07-04T13:42:05+00:00	2020-07-08T06:59:59+00:00	-2	nrk64vyr2njgh98@marketplace.amazon.com	Ana & Geoff Christensen	+1 346-307-9643 ext. 49454	ABM010	The Spring Fling Bouquet by Arabella Bouquets with a Free Designer Glass Vase	1	0	1	Expedited	Hannelore Christensen	797 HONEYSUCKLE DR			WARMINSTER	PA	18974-5517	US		Enjoy your gift! Happy birthday mutti uri From Ana & Geoff Christensen	false		
114-0109024-9365858	65561749261986	2020-07-04T14:34:04+00:00	2020-07-04T07:34:04-07:00	2020-07-04T15:01:58+00:00	2020-07-08T06:59:59+00:00	-2	8bl4wb6s5phvdy6@marketplace.amazon.com	Regina Palma	+1 346-307-9643 ext. 22021	ABM010	The Spring Fling Bouquet by Arabella Bouquets with a Free Designer Glass Vase	1	0	1	Expedited	Joann Loyden	9404 KREWSTOWN RD			PHILADELPHIA	PA	19115-3713	US		Joann,  Hope you are feeling better and on the way to a speedy recovery. Thinking of you. Love, Regina and Palm. From Regina Palma	false		
114-4470777-8957039	34173716817370	2020-07-04T14:50:40+00:00	2020-07-04T07:50:40-07:00	2020-07-04T15:20:25+00:00	2020-07-08T06:59:59+00:00	-2	3dv3vkvjsdxz1tm@marketplace.amazon.com	Karen A. Silvestro	+1 210-728-4548 ext. 86975	ABR0055	Purchase Now for Delivery by Tuesday | Arabella Farm Direct Bouquet of 12 Stems of Fresh Cut Hot Pink Roses in a Free Designer Glass Vase	1	0	1	Expedited	Mary Silvestro	4725 BELLWETHER LN RM 3			OXFORD	FL	34484-2980	US			false		
112-4604608-1304243	64738951506730	2020-07-04T15:29:22+00:00	2020-07-04T08:29:22-07:00	2020-07-04T16:00:03+00:00	2020-07-08T06:59:59+00:00	-2	z1tt4b4f52z5703@marketplace.amazon.com	Dylan Goodwin	+1 346-307-9643 ext. 16984	ABR001	Purchase Now for Delivery by Wednesday | Arabella Bouquets 12 Stems of Fresh Cut Red Roses in a Free Designer Glass Vase	1	0	1	Expedited	Hannah Prince	893 CLARK ST			MUSKEGON	MI	49442-3809	US			false		
112-0666249-3717828	35144720927298	2020-07-04T15:39:23+00:00	2020-07-04T08:39:23-07:00	2020-07-04T16:08:53+00:00	2020-07-08T06:59:59+00:00	-2	r687ygry3283z6c@marketplace.amazon.com	William Stein	+1 346-307-9643 ext. 60988	ABR0022	Purchase Now for Delivery by Wednesday | Arabella Farm Direct Bouquet of 12 Fresh Cut Pink Roses with a Free Glass Vase	1	0	1	Expedited	Susi Jenks	6557 GULF GATE PL APT 261			SARASOTA	FL	34231-5841	US		We love you From William Stein	false		
112-0666249-3717828	02450450116554	2020-07-04T15:39:23+00:00	2020-07-04T08:39:23-07:00	2020-07-04T16:08:53+00:00	2020-07-08T06:59:59+00:00	-2	r687ygry3283z6c@marketplace.amazon.com	William Stein	+1 346-307-9643 ext. 60988	ABR0022	Purchase Now for Delivery by Wednesday | Arabella Farm Direct Bouquet of 12 Fresh Cut Pink Roses with a Free Glass Vase	1	0	1	Expedited	Susi Jenks	6557 GULF GATE PL APT 261			SARASOTA	FL	34231-5841	US		Enjoy your gift! From William Stein	false		
111-4367614-0306613	06403838307978	2020-07-04T15:42:01+00:00	2020-07-04T08:42:01-07:00	2020-07-04T16:10:55+00:00	2020-07-08T06:59:59+00:00	-2	6n953g8q99443ds@marketplace.amazon.com	C A Inverso	+1 346-307-9643 ext. 86976	ABR0055	Purchase Now for Delivery by Tuesday | Arabella Farm Direct Bouquet of 12 Stems of Fresh Cut Hot Pink Roses in a Free Designer Glass Vase	1	0	1	Expedited	Assunta Dragone	THE GROVE AT VALHALLA	61 GRASSLANDS RD RM 140A		VALHALLA	NY	10595-1543	US		We love you Zia Assunta! Get Better Soon!  Love from Maria, Linda, Christina, Josie and Joe From C A Inverso	false		
111-3203502-6917032	11539907598450	2020-07-04T15:48:32+00:00	2020-07-04T08:48:32-07:00	2020-07-04T16:18:27+00:00	2020-07-08T06:59:59+00:00	-2	20k6lyp8nh33zw7@marketplace.amazon.com	Kara Putrino	+1 346-307-9643 ext. 93062	ABR0066	Arabella Bouquets 12 Stems of Fresh Cut White Roses in a Free Designer Glass Vase	1	0	1	Expedited	Aunt Janet Dennis	1827 W JUNIATA ST			PHILADELPHIA	PA	19140-2930	US			false		
111-8294195-9981069	26806124551194	2020-07-04T16:02:50+00:00	2020-07-04T09:02:50-07:00	2020-07-04T16:28:00+00:00	2020-07-08T06:59:59+00:00	-2	b3jd0tlxzl87x4y@marketplace.amazon.com	Kellie Freitas	+1 346-307-9643 ext. 99422	ABR0022	Purchase Now for Delivery by Wednesday | Arabella Farm Direct Bouquet of 12 Fresh Cut Pink Roses with a Free Glass Vase	1	0	1	Expedited	Kellie Freitas	107 CLEARWATER DR			PAWLEYS ISLAND	SC	29585-5939	US		Every flower is a hug!! From Kellie Freitas	false		
113-5120320-8603426	69376682935778	2020-07-04T16:38:51+00:00	2020-07-04T09:38:51-07:00	2020-07-04T17:01:24+00:00	2020-07-08T06:59:59+00:00	-2	gl8b83xyjd3vxck@marketplace.amazon.com	Mary Catherine Dolehide	+1 346-307-9643 ext. 23031	ABM0044	Arabella Farm Direct Bouquet of Fresh Cut Blue Hydrangea with a Free Glass Vase	1	0	1	Expedited	The Navarro Family	801 STAR OF THE WEST ST			SULLIVANS ISLAND	SC	29482-7705	US		Hi Ben and Kelly,  Thank you so much for being so kind to Caroline.  The tennis event was amazing and your hospitality as always was extraordinary.  Love, The Dolehide Family From Mary Catherine Dolehide	false		
114-4099425-2704227	70201113070938	2020-07-04T17:20:02+00:00	2020-07-04T10:20:02-07:00	2020-07-04T17:48:40+00:00	2020-07-08T06:59:59+00:00	-2	4t153jd0xll28c3@marketplace.amazon.com	Nikki Stevens	+1 314-282-9402 ext. 40304	ABR0066	Arabella Bouquets 12 Stems of Fresh Cut White Roses in a Free Designer Glass Vase	1	0	1	Expedited	Gary Stevens	162 KRAPF RD			ASHFORD	CT	06278-1315	US			false		
114-0915197-6253033	23746521622290	2020-07-04T17:27:05+00:00	2020-07-04T10:27:05-07:00	2020-07-04T17:57:17+00:00	2020-07-08T06:59:59+00:00	-2	pzkgfbwy8y7tx83@marketplace.amazon.com	Sandra Thompson	+1 346-307-9643 ext. 60908	ABR0022	Purchase Now for Delivery by Wednesday | Arabella Farm Direct Bouquet of 12 Fresh Cut Pink Roses with a Free Glass Vase	1	0	1	Expedited	Cheech Thompson & Debbie Smith	2608 TUMBLE BROOK DR			LAS VEGAS	NV	89134-7869	US			false		
114-9347552-6091439	20654980907450	2020-07-04T19:16:02+00:00	2020-07-04T12:16:02-07:00	2020-07-04T19:44:12+00:00	2020-07-08T06:59:59+00:00	-2	fssjbpbp9wz1dyd@marketplace.amazon.com	Catherine S. Berkey	+1 210-728-4548 ext. 63218	ABR0022	Purchase Now for Delivery by Wednesday | Arabella Farm Direct Bouquet of 12 Fresh Cut Pink Roses with a Free Glass Vase	1	0	1	Expedited	Loveda Grooms	115 FOLIAGE LN			SPRINGBORO	OH	45066-9335	US		Mom,  Have a wonderful birthday! Love, Cathy & Den From Catherine S. Berkey	false		
113-7037208-3506620	04839076923650	2020-07-04T20:29:22+00:00	2020-07-04T13:29:22-07:00	2020-07-04T20:56:59+00:00	2020-07-08T06:59:59+00:00	-2	68pm38xc65m75yh@marketplace.amazon.com	Tyler	+1 346-307-9643 ext. 75648	ABR0022	Purchase Now for Delivery by Wednesday | Arabella Farm Direct Bouquet of 12 Fresh Cut Pink Roses with a Free Glass Vase	1	0	1	Expedited	Jourdain Billings	3014 CARROL DR			COPPERAS COVE	TX	76522-3869	US		Enjoy your gift! From Tyler	false		
111-8971291-9829811	30022231708050	2020-07-04T21:29:56+00:00	2020-07-04T14:29:56-07:00	2020-07-04T21:58:26+00:00	2020-07-08T06:59:59+00:00	-2	2s5yj8f5xn9glk2@marketplace.amazon.com	Hunter	+1 346-307-9643 ext. 59525	ABR001	Purchase Now for Delivery by Wednesday | Arabella Bouquets 12 Stems of Fresh Cut Red Roses in a Free Designer Glass Vase	1	0	1	Expedited	Hunter	2605 BLUEBONNET VALLEY DR			GEORGETOWN	TX	78626-7575	US			false		
111-8789666-8333037	50199021776154	2020-07-04T23:11:49+00:00	2020-07-04T16:11:49-07:00	2020-07-04T23:40:34+00:00	2020-07-08T06:59:59+00:00	-2	5dg9k7zpwxkyx6k@marketplace.amazon.com	Dorotka Linda Dodds	+1 346-307-9643 ext. 41376	ABR0055	Purchase Now for Delivery by Tuesday | Arabella Farm Direct Bouquet of 12 Stems of Fresh Cut Hot Pink Roses in a Free Designer Glass Vase	1	0	1	Expedited	Elizabeth Dodds	3629 S HAMPTON CT APT 126			BRYAN	TX	77801-3427	US			false		
112-1558200-9511426	62378741543258	2020-07-04T23:17:38+00:00	2020-07-04T16:17:38-07:00	2020-07-04T23:48:15+00:00	2020-07-08T06:59:59+00:00	-2	g5m0k8j74ltrrfk@marketplace.amazon.com	Euan Taylor	+1 346-307-9643 ext. 00841	ABR0022	Purchase Now for Delivery by Wednesday | Arabella Farm Direct Bouquet of 12 Fresh Cut Pink Roses with a Free Glass Vase	1	0	1	Expedited	Christina Troyak	1643 SPRING ROSE RD			VERONA	WI	53593-9459	US			false		
113-1712385-7762637	27666679540058	2020-07-04T23:32:48+00:00	2020-07-04T16:32:48-07:00	2020-07-05T00:00:51+00:00	2020-07-08T06:59:59+00:00	-2	b0x533j2x5d2b2k@marketplace.amazon.com	Marc Hall	+1 314-282-9402 ext. 00794	ABR0022	Purchase Now for Delivery by Wednesday | Arabella Farm Direct Bouquet of 12 Fresh Cut Pink Roses with a Free Glass Vase	1	0	1	Expedited	Nicole thomas	26804 ISABELLA PKWY APT 103			CANYON COUNTRY	CA	91351-4867	US			false		
111-7939558-8245832	31011998253106	2020-07-05T00:14:24+00:00	2020-07-04T17:14:24-07:00	2020-07-05T00:42:05+00:00	2020-07-08T06:59:59+00:00	-2	yx39gddz0vqm5zb@marketplace.amazon.com	Christian C. Anton	+1 346-307-9643 ext. 77449	ABR0055	Purchase Now for Delivery by Tuesday | Arabella Farm Direct Bouquet of 12 Stems of Fresh Cut Hot Pink Roses in a Free Designer Glass Vase	1	0	1	Expedited	Anxhela Dodi	1778 W 12TH ST 2ND FLOOR			BROOKLYN	NY	11223-1101	US		Dear Anxhela,  I miss you so much. I hope when you look at these roses, they remind you of how much I love you. From Christian C. Anton	false		
114-4128099-0270660	42906463621202	2020-07-05T01:22:33+00:00	2020-07-04T18:22:33-07:00	2020-07-05T01:49:00+00:00	2020-07-08T06:59:59+00:00	-2	9fy6cx31xmxpdb4@marketplace.amazon.com	Johnathan Garcia	+1 346-307-9643 ext. 88171	ABR0022	Purchase Now for Delivery by Wednesday | Arabella Farm Direct Bouquet of 12 Fresh Cut Pink Roses with a Free Glass Vase	1	0	1	Expedited	Desiree White	21 MAINS CROSSING RD			NORTH STONINGTON	CT	06359-1204	US		Happy birthday to you, Happy Birthday to you, Happy Birthday dear Dee, Happy Birthday to youuuuu! From Jac	false		
111-4459131-6438621	18897884820050	2020-07-05T01:28:07+00:00	2020-07-04T18:28:07-07:00	2020-07-05T01:58:25+00:00	2020-07-08T06:59:59+00:00	-2	l33md60qf2sxtxj@marketplace.amazon.com	Brooke Wise	+1 347-448-3190 ext. 20890	ABR0066	Arabella Bouquets 12 Stems of Fresh Cut White Roses in a Free Designer Glass Vase	1	0	1	Expedited	Aldworth (B. Wise)	2169 Fountain Circle			Erie	COLORADO	80516	US			false		
112-3179094-4730619	43148480057890	2020-07-05T01:59:57+00:00	2020-07-04T18:59:57-07:00	2020-07-05T02:28:10+00:00	2020-07-08T06:59:59+00:00	-2	4mm9bb92jpqlk5q@marketplace.amazon.com	John D. Carr	+1 346-307-9643 ext. 87963	ABR0055	Purchase Now for Delivery by Tuesday | Arabella Farm Direct Bouquet of 12 Stems of Fresh Cut Hot Pink Roses in a Free Designer Glass Vase	1	0	1	Expedited	Ms. Sarah Lonquist	3331 Walnut St NE			St Petersburg	FL	33704-2352	US		Love you! John From John D. Carr	false		
114-1102169-8371452	47833749330442	2020-07-05T03:27:07+00:00	2020-07-04T20:27:07-07:00	2020-07-05T03:58:27+00:00	2020-07-08T06:59:59+00:00	-2	gp1w0hxzdhtmc87@marketplace.amazon.com	Tammi Howard	+1 346-307-9643 ext. 42617	ABR0055	Purchase Now for Delivery by Tuesday | Arabella Farm Direct Bouquet of 12 Stems of Fresh Cut Hot Pink Roses in a Free Designer Glass Vase	1	0	1	Expedited	Alexander Howard	3206 CATHY LN			BELTON	TX	76513-7217	US			false		
112-4096447-3533833	61722178768026	2020-07-05T03:38:52+00:00	2020-07-04T20:38:52-07:00	2020-07-05T04:05:34+00:00	2020-07-08T06:59:59+00:00	-2	60wfg6n60llbtf9@marketplace.amazon.com	Spring Belasich	+1 346-307-9643 ext. 15716	ABR0055	Purchase Now for Delivery by Tuesday | Arabella Farm Direct Bouquet of 12 Stems of Fresh Cut Hot Pink Roses in a Free Designer Glass Vase	1	0	1	Expedited	MRs Diana Walksler	19091 N DALE MABRY HWY			LUTZ	FL	33548-4982	US		Happy Birthday Diana, I love you till the 12th of never. Spring and Johnny 💖💖💖💖💖💖💖💖💖💖💖💖😘💋 From Spring Belasich	false		
114-4813021-1987418	40730989895178	2020-07-05T05:11:19+00:00	2020-07-04T22:11:19-07:00	2020-07-05T05:38:18+00:00	2020-07-08T06:59:59+00:00	-2	2p1gdpsyl5tqxv5@marketplace.amazon.com	Bonnie Knight	+1 346-307-9643 ext. 13889	ABR0022	Purchase Now for Delivery by Wednesday | Arabella Farm Direct Bouquet of 12 Fresh Cut Pink Roses with a Free Glass Vase	1	0	1	Expedited	Jane Franklin	310 AIRPORT RD			BEDMINSTER	NEW JERSEY	07921-2817	US		Hapoy Birthday Aunt Jane, Enjoy your flowers! Your niece & hubby, Love, Bonnie & Doug xxxooo	false		
112-5975374-5242639	51671604564130	2020-07-05T06:47:27+00:00	2020-07-04T23:47:27-07:00	2020-07-05T07:02:55+00:00	2020-07-08T06:59:59+00:00	-2	bh8w3rzssh86fm1@marketplace.amazon.com	inhaeng heo	+1 346-307-9643 ext. 00605	ABR0022	Purchase Now for Delivery by Wednesday | Arabella Farm Direct Bouquet of 12 Fresh Cut Pink Roses with a Free Glass Vase	1	0	1	Expedited	Olivia Chandler	109 BERYL ST			WHITE ROCK	NM	87547-3451	US		I remember that you love fresh flowers so much, but I couldn't get you a flower for a while. So, I wanted to brighten up your day. I can't wait till I kiss you and hug you again. I love you, my greatest cheerleader! From Inhaeng Heo	false		
112-7856357-6419450	51623207394746	2020-07-05T11:32:33+00:00	2020-07-05T04:32:33-07:00	2020-07-05T11:59:55+00:00	2020-07-08T06:59:59+00:00	-2	2mxh857fqznhbdl@marketplace.amazon.com	Dawn Dekle	+1 346-307-9643 ext. 39889	ABR0055	Purchase Now for Delivery by Wednesday | Arabella Farm Direct Bouquet of 12 Stems of Fresh Cut Hot Pink Roses in a Free Designer Glass Vase	1	0	1	Expedited	Nichole Aston	17019 PAGOSA SPRINGS CT			AUSTIN	TX	78717-2993	US		Happy Birthday Nichole! with love from Africa, Dawn From Dawn Dekle	false		
111-9944493-6410641	33178788058138	2020-07-05T14:19:52+00:00	2020-07-05T07:19:52-07:00	2020-07-05T14:45:51+00:00	2020-07-08T06:59:59+00:00	-2	fssz1q58g8hh83k@marketplace.amazon.com	Jackie LeSeur	+1 210-728-4548 ext. 73833	ABR0022	Purchase Now for Delivery by Wednesday | Arabella Farm Direct Bouquet of 12 Fresh Cut Pink Roses with a Free Glass Vase	1	0	1	Expedited	Lynn Reilly	4 SHADOW LN			EAST WILLISTON	NY	11596-2511	US		Happy Birthday to my Dearest friend ! Enjoy your special day! Wish you much happiness always! Love you! Debbie, Mike,JAckie and Nicole too!!miss you From Debbie LeSeur	false		
111-7141660-2038627	42793797489058	2020-07-05T14:26:33+00:00	2020-07-05T07:26:33-07:00	2020-07-05T14:57:10+00:00	2020-07-08T06:59:59+00:00	-2	db68zvkf2p455xx@marketplace.amazon.com	Carl L. Gatti	+1 346-307-9643 ext. 19081	ABR012	Purchase Now for Delivery by Wednesday | Arabella Farm Direct Bouquet of 18 Fresh Cut Pink Roses with a Free Glass Vase	1	0	1	Expedited	Lisa Arthur	2100 E OVERHOLSER DR			OKLAHOMA CITY	OK	73127-9610	US			false		
114-4104068-2504264	10577042407962	2020-07-05T14:38:52+00:00	2020-07-05T07:38:52-07:00	2020-07-05T15:09:15+00:00	2020-07-08T06:59:59+00:00	-2	59g34mt4r2f6c7w@marketplace.amazon.com	Nicholas Huff	+1 346-307-9643 ext. 77813	ABR0022	Purchase Now for Delivery by Wednesday | Arabella Farm Direct Bouquet of 12 Fresh Cut Pink Roses with a Free Glass Vase	1	0	1	Expedited	Nicholas Huff	523 BRUSSELLES ST			SAINT MARYS	PA	15857-1509	US			false		
112-9377714-6073823	21246355335858	2020-07-05T14:55:58+00:00	2020-07-05T07:55:58-07:00	2020-07-05T15:21:52+00:00	2020-07-08T06:59:59+00:00	-2	c42p9xn6yk3ds0d@marketplace.amazon.com	Emmanuel	+1 210-728-4548 ext. 14222	ABR0022	Purchase Now for Delivery by Wednesday | Arabella Farm Direct Bouquet of 12 Fresh Cut Pink Roses with a Free Glass Vase	1	0	1	Expedited	Natali Garza	403 E 5TH ST			GRAFTON	ND	58237-1507	US		No ocupa ser un dia especial para alguien especial ❤️ I Love U❤️ De Emmanuel	false		
112-1347743-4613060	45679114560226	2020-07-05T14:55:07+00:00	2020-07-05T07:55:07-07:00	2020-07-05T15:25:45+00:00	2020-07-08T06:59:59+00:00	-2	f1pkzvg7k545j41@marketplace.amazon.com	Alaina	+1 314-282-9402 ext. 52512	ABR012	Purchase Now for Delivery by Wednesday | Arabella Farm Direct Bouquet of 18 Fresh Cut Pink Roses with a Free Glass Vase	2	0	2	Expedited	Alaina Witherell	1021 SHADY LAKES CIR			PALM BEACH GARDENS	FL	33418-3554	US			false		
114-7513729-0552227	20185668538602	2020-07-05T15:37:30+00:00	2020-07-05T08:37:30-07:00	2020-07-05T16:06:23+00:00	2020-07-08T06:59:59+00:00	-2	5gwdc34gqb8syrv@marketplace.amazon.com	doris	+1 346-307-9643 ext. 51093	ABR0055	Purchase Now for Delivery by Wednesday | Arabella Farm Direct Bouquet of 12 Stems of Fresh Cut Hot Pink Roses in a Free Designer Glass Vase	1	0	1	Expedited	Pat Smith	820 SPRING GARDEN ST			EASTON	PA	18042-3346	US		GET WELL REAL SOON! WE HOPE YOU FEEL BETTER. ENJOY THE ROSES! WE LOVE YOU. MONSIGNOR AND DORIS XOXOXO From doris	false		
111-8188163-3220224	47842706698858	2020-07-05T16:01:10+00:00	2020-07-05T09:01:10-07:00	2020-07-05T16:29:23+00:00	2020-07-08T06:59:59+00:00	-2	psrsz9snd34nyhy@marketplace.amazon.com	Evanson, Gabriel	+1 314-282-9402 ext. 35931	ABR001	Purchase Now for Delivery by Wednesday | Arabella Bouquets 12 Stems of Fresh Cut Red Roses in a Free Designer Glass Vase	1	0	1	Expedited	Evanson, Gabriel	19617 TESORO WAY			ESTERO	FL	33967-5682	US		Happy Birthday Rocio From Evanson, Gabriel	false		
112-4559149-1169862	20830704794498	2020-07-05T16:27:45+00:00	2020-07-05T09:27:45-07:00	2020-07-05T16:58:14+00:00	2020-07-08T06:59:59+00:00	-2	xw98kj2t7w6ybs6@marketplace.amazon.com	Joshua Schwartz	+1 347-448-3190 ext. 89195	ABR0022	Purchase Now for Delivery by Wednesday | Arabella Farm Direct Bouquet of 12 Fresh Cut Pink Roses with a Free Glass Vase	1	0	1	Expedited	Zayda Garcia de Schwartz	119 CONNECTICUT AVE			CHERRY HILL	NJ	08002-3125	US			false		
113-2877891-2157865	03116160052146	2020-07-05T17:03:05+00:00	2020-07-05T10:03:05-07:00	2020-07-05T17:31:52+00:00	2020-07-08T06:59:59+00:00	-2	x03x2lt13bkdp4h@marketplace.amazon.com	JoAnne Walker	+1 314-282-9402 ext. 94661	ABM010	Purchase Now for Delivery by Wednesday | The Spring Fling Bouquet by Arabella Bouquets with a Free Designer Glass Vase	1	0	1	Expedited	Jo Weber	5901 MOUNT EAGLE DR APT 1114			ALEXANDRIA	VA	22303-2510	US		Enjoy your gift! Happy 50th Anniversary to two of our favorite people in the whole wide world! We love you LOTS Tommy and JoAnne From JoAnne And Tom Walker	false		
114-1996777-6431464	59610620562954	2020-07-05T17:03:57+00:00	2020-07-05T10:03:57-07:00	2020-07-05T17:34:27+00:00	2020-07-08T06:59:59+00:00	-2	ycvht8c5h3s2vf1@marketplace.amazon.com	Ross Breedlove	+1 346-307-9643 ext. 88924	ABR0022	Purchase Now for Delivery by Wednesday | Arabella Farm Direct Bouquet of 12 Fresh Cut Pink Roses with a Free Glass Vase	1	0	1	Expedited	Debbie Lanthier	9192 MEADOWRUN PL			SAN DIEGO	CA	92129-3320	US			false		
111-3922418-4548258	48234638683906	2020-07-05T17:09:19+00:00	2020-07-05T10:09:19-07:00	2020-07-05T17:38:11+00:00	2020-07-08T06:59:59+00:00	-2	qg26f77w4fktr9n@marketplace.amazon.com	Julie R. Dixon	+1 346-307-9643 ext. 84515	ABR0055	Purchase Now for Delivery by Wednesday | Arabella Farm Direct Bouquet of 12 Stems of Fresh Cut Hot Pink Roses in a Free Designer Glass Vase	1	0	1	Expedited	Michelle Pantages	3321 WRIGHT ST			SACRAMENTO	CA	95821-1730	US		Hi sweets!  I thought you might like to be spoiled too! Loving you!!!! From Julie	false		
111-1521809-8849064	29672266525634	2020-07-05T17:26:00+00:00	2020-07-05T10:26:00-07:00	2020-07-05T17:54:26+00:00	2020-07-08T06:59:59+00:00	-2	4jdksnglpv8ryy9@marketplace.amazon.com	Tino	+1 210-728-4548 ext. 84014	ABR0066	Arabella Bouquets 12 Stems of Fresh Cut White Roses in a Free Designer Glass Vase	1	0	1	Expedited	Jacqueline	14932 COLBY PL			FONTANA	CA	92337-3418	US			false		
114-7182358-0806620	61072521562594	2020-07-05T18:01:23+00:00	2020-07-05T11:01:23-07:00	2020-07-05T18:07:42+00:00	2020-07-08T06:59:59+00:00	-2	4lpl098v3dpdz88@marketplace.amazon.com	Francis Che Wan Tse	+1 346-307-9643 ext. 16221	ABR012	Purchase Now for Delivery by Wednesday | Arabella Farm Direct Bouquet of 18 Fresh Cut Pink Roses with a Free Glass Vase	1	0	1	Expedited	Tom & Marie Prendergast	2028 52ND ST			BROOKLYN	NY	11204-1733	US		Dear Tom & Marie, thinking of you dearly and sending well wishes to you and your family.  Stay safe. Big hugs and lots of xoxoxo  Nadia and Nina From Nadia Tse (917-319-6309	false		
112-8529596-0434635	53306209354962	2020-07-04T21:15:00+00:00	2020-07-04T14:15:00-07:00	2020-07-05T18:14:58+00:00	2020-07-08T06:59:59+00:00	-2	p9b2qmvkrntqctv@marketplace.amazon.com	LaiNa Ching	+1 346-307-9643 ext. 40685	ABM010	The Spring Fling Bouquet by Arabella Bouquets with a Free Designer Glass Vase	1	0	1	Standard	Siu Kam Ching	2416 LINCOLN HIGH DR			LOS ANGELES	CA	90031-2839	US		I love you Mommy! #1 From LaiNa Benjamin	false		
111-2980813-2286604	22498424571650	2020-07-05T18:38:32+00:00	2020-07-05T11:38:32-07:00	2020-07-05T19:06:17+00:00	2020-07-08T06:59:59+00:00	-2	5c0gcg3ncg53r4d@marketplace.amazon.com	Marysue Grassinger	+1 314-282-9402 ext. 99615	ABR0022	Purchase Now for Delivery by Wednesday | Arabella Farm Direct Bouquet of 12 Fresh Cut Pink Roses with a Free Glass Vase	1	0	1	Expedited	John and Susan Grassinger	165 HARRISON DR			INDIANA	PA	15701-8503	US		Happy Birthday! Love, Marysue, Diego and Gabriel From Marysue	false		
114-4970217-9984218	13098477316178	2020-07-05T18:57:02+00:00	2020-07-05T11:57:02-07:00	2020-07-05T19:21:33+00:00	2020-07-08T06:59:59+00:00	-2	61n0sp86bdyct8p@marketplace.amazon.com	Salvatore Anthony Purpura	+1 347-448-3190 ext. 83940	ABR004	Arabella Farm Direct Bouquet of 12 Fresh Cut Yellow Roses with a Free Glass Vase	1	0	1	Expedited	HEATHER MARTIN	19909 NAPLES LAKES TER			ASHBURN	VA	20147-5256	US		Happy Birthday Heather your brother told me all of the great things you are working on, Im so proud of you.  I really hope to see you again. Love Dad From Anthony Purpura	false		
113-7127481-5160255	44367716971922	2020-07-05T19:07:30+00:00	2020-07-05T12:07:30-07:00	2020-07-05T19:30:47+00:00	2020-07-08T06:59:59+00:00	-2	n4fbcp850nfm2r9@marketplace.amazon.com	Juanita Ballen Fajardo	+1 346-307-9643 ext. 25887	ABR0066	Arabella Bouquets 12 Stems of Fresh Cut White Roses in a Free Designer Glass Vase	1	0	1	Standard	Diana Forero Medina	678 MAPLE RIDGE CIR	SALISBURY NC 28147		SALISBURY	NC	28147-6754	US			false		
111-6071777-3394660	65254055524978	2020-07-05T19:46:24+00:00	2020-07-05T12:46:24-07:00	2020-07-05T19:49:11+00:00	2020-07-08T06:59:59+00:00	-2	5y7pjchcnstxbln@marketplace.amazon.com	Sandy Worrell	+1 314-282-9402 ext. 90829	ABR0022	Purchase Now for Delivery by Wednesday | Arabella Farm Direct Bouquet of 12 Fresh Cut Pink Roses with a Free Glass Vase	1	0	1	Expedited	angela mcdougald	14290 west highway 130			maxton	North Carolina	28464	US		Soror Angela:  Thinking of you at this time. Psalm 46:1-11.  With sisterly love From Soror Sandy Worrell	false		
113-0550813-3613059	55298791025994	2020-07-05T19:19:48+00:00	2020-07-05T12:19:48-07:00	2020-07-05T19:50:09+00:00	2020-07-08T06:59:59+00:00	-2	0vp0xjkmzwb68hn@marketplace.amazon.com	jessica	+1 346-307-9643 ext. 29408	ABR001	Purchase Now for Delivery by Wednesday | Arabella Bouquets 12 Stems of Fresh Cut Red Roses in a Free Designer Glass Vase	1	0	1	Expedited	Jessica Tedesco	28 SAINT NICHOLAS PL APT 1B			NEW YORK	NY	10031-1226	US			false		
111-5749010-8489045	34036331692698	2020-07-05T20:00:40+00:00	2020-07-05T13:00:40-07:00	2020-07-05T20:23:27+00:00	2020-07-08T06:59:59+00:00	-2	5y7pjchcnstxbln@marketplace.amazon.com	Sandy Worrell	+1 346-307-9643 ext. 24050	ABR0022	Purchase Now for Delivery by Wednesday | Arabella Farm Direct Bouquet of 12 Fresh Cut Pink Roses with a Free Glass Vase	1	0	1	Expedited	demetria buie	3744 WINBORNE LN			GREENSBORO	NC	27410-2031	US		Thinking of you, Soror Dee. May you soon find peace  and remain safe  & well.  With sisterly love, From Soror Sandy Worrell	false		
114-4188797-8170633	10836650986578	2020-07-05T20:16:53+00:00	2020-07-05T13:16:53-07:00	2020-07-05T20:44:53+00:00	2020-07-08T06:59:59+00:00	-2	qrx9h9fg3y0ctk9@marketplace.amazon.com	jeanne panitch	+1 210-728-4548 ext. 55952	ABR0055	Purchase Now for Delivery by Wednesday | Arabella Farm Direct Bouquet of 12 Stems of Fresh Cut Hot Pink Roses in a Free Designer Glass Vase	1	0	1	Expedited	Jill Marchina	107 MCKINLEY AVE			COCOA BEACH	FL	32931-4033	US		Dear Jill, Hope you like your roses Love, Mama Jeanne From jeanne panitch	false		
113-8662310-9241854	05153020115026	2020-07-05T20:19:33+00:00	2020-07-05T13:19:33-07:00	2020-07-05T20:50:16+00:00	2020-07-08T06:59:59+00:00	-2	c3swxnzv71rxrbg@marketplace.amazon.com	Damon Houterman	+1 415-851-9136 ext. 77030	ABR0022	Purchase Now for Delivery by Wednesday | Arabella Farm Direct Bouquet of 12 Fresh Cut Pink Roses with a Free Glass Vase	2	0	2	Expedited	Damon Houterman	1312 PINE AVE			MANHATTAN BEACH	CA	90266-5040	US			false		
114-6037439-3845031	21139004877506	2020-07-05T20:28:48+00:00	2020-07-05T13:28:48-07:00	2020-07-05T20:50:58+00:00	2020-07-08T06:59:59+00:00	-2	z61kxlt08fdtvkw@marketplace.amazon.com	BobEmma Green	+1 346-307-9643 ext. 23349	ABR004	Arabella Farm Direct Bouquet of 12 Fresh Cut Yellow Roses with a Free Glass Vase	1	0	1	Expedited	Rick Brunke	218 STONEGATE DR			VACAVILLE	CA	95687-4324	US			false		
113-3494647-4547404	11960961293738	2020-07-05T20:23:10+00:00	2020-07-05T13:23:10-07:00	2020-07-05T20:51:20+00:00	2020-07-08T06:59:59+00:00	-2	5h0f46kclssb7tb@marketplace.amazon.com	benjamin	+1 347-448-3190 ext. 08594	ABR0022	Purchase Now for Delivery by Wednesday | Arabella Farm Direct Bouquet of 12 Fresh Cut Pink Roses with a Free Glass Vase	1	0	1	Expedited	benjamin	2107 W PARADISE DR			PHOENIX	AZ	85029-3511	US		Enjoy your gift! From benjamin	false		
114-2226399-9833000	32958242252322	2020-07-05T20:28:48+00:00	2020-07-05T13:28:48-07:00	2020-07-05T20:53:06+00:00	2020-07-08T06:59:59+00:00	-2	z61kxlt08fdtvkw@marketplace.amazon.com	BobEmma Green	+1 346-307-9643 ext. 36389	ABR004	Arabella Farm Direct Bouquet of 12 Fresh Cut Yellow Roses with a Free Glass Vase	1	0	1	Expedited	Mark and Sheri Morrison	331 STONERIDGE CIR			VACAVILLE	CA	95687-4328	US			false		
114-3062721-0778667	17075227395746	2020-07-05T20:28:48+00:00	2020-07-05T13:28:48-07:00	2020-07-05T20:54:45+00:00	2020-07-08T06:59:59+00:00	-2	z61kxlt08fdtvkw@marketplace.amazon.com	BobEmma Green	+1 210-728-4548 ext. 37208	ABR004	Arabella Farm Direct Bouquet of 12 Fresh Cut Yellow Roses with a Free Glass Vase	1	0	1	Expedited	Kenny and Sandy Crooks	312 STONERIDGE CIR			VACAVILLE	CA	95687-4327	US			false		
111-1350280-5301051	59653060057770	2020-07-05T20:57:19+00:00	2020-07-05T13:57:19-07:00	2020-07-05T21:25:59+00:00	2020-07-08T06:59:59+00:00	-2	2p2r7sq4fc01ssw@marketplace.amazon.com	R B Stewart	+1 314-282-9402 ext. 14620	ABR0022	Purchase Now for Delivery by Wednesday | Arabella Farm Direct Bouquet of 12 Fresh Cut Pink Roses with a Free Glass Vase	1	0	1	Expedited	JoAnn Cimon	2nd Street			Herdson	New Hampshire	03051	US		Thinking of you my friend - and Bruce joins me in sending love and prayers!  Love, LeeAnn and Bruce	false		
111-6653847-2640257	16586366320266	2020-07-05T21:11:49+00:00	2020-07-05T14:11:49-07:00	2020-07-05T21:40:47+00:00	2020-07-08T06:59:59+00:00	-2	qqcvf067z1znlyr@marketplace.amazon.com	Troy Barker	+1 415-851-9136 ext. 98170	ABR004	Arabella Farm Direct Bouquet of 12 Fresh Cut Yellow Roses with a Free Glass Vase	1	0	1	Expedited	Troy Barker c/o Micah Ford	5820 S WINDERMERE ST APT 152			LITTLETON	CO	80120-2140	US		Sending some love to you both Jude & Micah From Troy Barker	false		
112-7500559-3321854	14032175033402	2020-07-05T21:41:06+00:00	2020-07-05T14:41:06-07:00	2020-07-05T22:05:36+00:00	2020-07-08T06:59:59+00:00	-2	n2y9y0g8y3wdqls@marketplace.amazon.com	Theresa Woodling	+1 346-307-9643 ext. 04570	ABR001	Purchase Now for Delivery by Wednesday | Arabella Bouquets 12 Stems of Fresh Cut Red Roses in a Free Designer Glass Vase	1	0	1	Expedited	Louann Perez	2312 TRAVELERS PALM DR			EDGEWATER	FL	32141-4404	US		Just a little something to brighten your day!!  Feel better soon.  I love you bunches!!! From Theresa Woodling	false		
113-2203444-6271450	59977529199210	2020-07-05T21:36:38+00:00	2020-07-05T14:36:38-07:00	2020-07-05T22:06:34+00:00	2020-07-08T06:59:59+00:00	-2	zqfs9lntwk8jlsn@marketplace.amazon.com	sangeetha mohanchandran	+1 415-851-9136 ext. 61493	ABR0022	Purchase Now for Delivery by Wednesday | Arabella Farm Direct Bouquet of 12 Fresh Cut Pink Roses with a Free Glass Vase	1	0	1	Expedited	SANGEETHA MOHANCHANDRAN	227 MOORES RD			ALIQUIPPA	PA	15001-9479	US		Happy Birthday Debbie lots of love..... From sangeetha mohanchandran	false		
113-2986650-1818626	25613415472250	2020-07-05T21:42:22+00:00	2020-07-05T14:42:22-07:00	2020-07-05T22:10:32+00:00	2020-07-08T06:59:59+00:00	-2	3391fnjr33ljjjm@marketplace.amazon.com	Maggie Kim	+1 346-307-9643 ext. 77466	ABR0055	Purchase Now for Delivery by Wednesday | Arabella Farm Direct Bouquet of 12 Stems of Fresh Cut Hot Pink Roses in a Free Designer Glass Vase	1	0	1	Expedited	Karen Roeb	24611 VISTA CERRITOS			CALABASAS	CA	91302-3001	US		Karen ~  Thanks for listening and being supportive.  You've been so helpful!  I can't thank you enough. From Maggie (& Roy & Reagan)	false		
113-6768614-0703456	05136616878762	2020-07-05T21:45:30+00:00	2020-07-05T14:45:30-07:00	2020-07-05T22:13:27+00:00	2020-07-08T06:59:59+00:00	-2	3391fnjr33ljjjm@marketplace.amazon.com	Maggie Kim	+1 415-851-9136 ext. 60615	ABR0055	Purchase Now for Delivery by Wednesday | Arabella Farm Direct Bouquet of 12 Stems of Fresh Cut Hot Pink Roses in a Free Designer Glass Vase	1	0	1	Expedited	Toni Cordero	GARY MARGOLIS ACCOUNTANCY CORP	3452 E FOOTHILL BLVD STE 125		PASADENA	CA	91107-6002	US		Toni~  Thanks for your help!  I know this year was a bit more work.  Hope you're well! From Margaret	false		
112-2290066-6157028	62124987069154	2020-07-05T22:41:59+00:00	2020-07-05T15:41:59-07:00	2020-07-05T23:06:55+00:00	2020-07-08T06:59:59+00:00	-2	vyhbp6896gg7h7x@marketplace.amazon.com	Huseyn	+1 347-448-3190 ext. 14428	ABR001	Purchase Now for Delivery by Wednesday | Arabella Bouquets 12 Stems of Fresh Cut Red Roses in a Free Designer Glass Vase	1	0	1	Expedited	Farida Ilham	1939 KENNEDY DRIVE	McLean		WASHINGTON	VIRGINIA	22102	US		I Love You babe        ❤❤❤   From Huseyn	false		
112-2159843-6098644	52882765907218	2020-07-05T22:53:43+00:00	2020-07-05T15:53:43-07:00	2020-07-05T23:24:50+00:00	2020-07-08T06:59:59+00:00	-2	wy9g3nh0bsfbny4@marketplace.amazon.com	John Armitage	+1 346-307-9643 ext. 26740	ABR0022	Purchase Now for Delivery by Wednesday | Arabella Farm Direct Bouquet of 12 Fresh Cut Pink Roses with a Free Glass Vase	1	0	1	Expedited	Jerica Green	12840 E VIA DE PALMAS			CHANDLER	AZ	85249-3454	US			false		
112-1286008-8964205	02062026734970	2020-07-05T22:57:46+00:00	2020-07-05T15:57:46-07:00	2020-07-05T23:26:27+00:00	2020-07-08T06:59:59+00:00	-2	k5522n6t0x7fmcy@marketplace.amazon.com	Marianne K. Mertz	+1 347-448-3190 ext. 73102	ABM0044	Purchase Now for Delivery by Wednesday | Arabella Farm Direct Bouquet of Fresh Cut Blue Hydrangea with a Free Glass Vase	1	0	1	Expedited	Amanda Walker	2710 KELVIN AVE APT 2334			IRVINE	CA	92614-5857	US			false		
113-5474019-2444234	02079293011802	2020-07-05T23:10:30+00:00	2020-07-05T16:10:30-07:00	2020-07-05T23:34:40+00:00	2020-07-08T06:59:59+00:00	-2	kjm8wvt7v2r1mz6@marketplace.amazon.com	José Centofanti	+1 314-282-9402 ext. 09458	ABR001	Purchase Now for Delivery by Wednesday | Arabella Bouquets 12 Stems of Fresh Cut Red Roses in a Free Designer Glass Vase	1	0	1	Expedited	EVELYN FERRER	570 S PARK RD APT 6-21			HOLLYWOOD	FL	33021-8525	US		Para la doctorcita más bella del Mundo y que más quiero. Te felicito por lograr el objetivo 21 días. Espero verte pronto. De José Centofanti	false		
112-8313764-4145004	12472952528146	2020-07-05T23:53:28+00:00	2020-07-05T16:53:28-07:00	2020-07-06T00:21:59+00:00	2020-07-08T06:59:59+00:00	-2	jhgkhw866sy6ht7@marketplace.amazon.com	Dawn Sabatello	+1 346-307-9643 ext. 49989	ABR012	Purchase Now for Delivery by Wednesday | Arabella Farm Direct Bouquet of 18 Fresh Cut Pink Roses with a Free Glass Vase	1	0	1	Expedited	Dawn Sabatello	5002 WHISPERING HOLW			PALM BEACH GARDENS	FL	33418-3536	US			false		
112-9843227-9169812	26725635600610	2020-07-05T23:53:14+00:00	2020-07-05T16:53:14-07:00	2020-07-06T00:23:55+00:00	2020-07-08T06:59:59+00:00	-2	jhgkhw866sy6ht7@marketplace.amazon.com	Dawn Sabatello	+1 346-307-9643 ext. 09071	ABR012	Purchase Now for Delivery by Wednesday | Arabella Farm Direct Bouquet of 18 Fresh Cut Pink Roses with a Free Glass Vase	1	0	1	Expedited	Dawn Sabatello	5002 WHISPERING HOLW			PALM BEACH GARDENS	FL	33418-3536	US			false		
111-0132063-0732275	09821862035714	2020-07-06T00:05:45+00:00	2020-07-05T17:05:45-07:00	2020-07-06T00:35:27+00:00	2020-07-08T06:59:59+00:00	-2	8w6fz0ql4s9y7st@marketplace.amazon.com	Isaac Rosenberg	+1 346-307-9643 ext. 43043	ABR0022	Purchase Now for Delivery by Wednesday | Arabella Farm Direct Bouquet of 12 Fresh Cut Pink Roses with a Free Glass Vase	1	0	1	Expedited	Daira Mendez	9725 NW 52ND ST APT 515			MIAMI	FL	33178-2081	US			false		
114-4090202-2084226	29898704063754	2020-07-06T00:26:34+00:00	2020-07-05T17:26:34-07:00	2020-07-06T00:42:08+00:00	2020-07-08T06:59:59+00:00	-2	lm48mjqyq2fj2g3@marketplace.amazon.com	Frank Cerminara	+1 314-282-9402 ext. 39184	ABR0055	Purchase Now for Delivery by Wednesday | Arabella Farm Direct Bouquet of 12 Stems of Fresh Cut Hot Pink Roses in a Free Designer Glass Vase	1	0	1	Expedited	Lori and Ed Kibler	65 DEAN RD			SPENCERPORT	NY	14559-9537	US		Happy 40th Anniversary, Lori and Ed! To the best couple ever! Love you both. Frankie and Frank	false		
111-2180306-7020265	26890871422498	2020-07-06T00:12:40+00:00	2020-07-05T17:12:40-07:00	2020-07-06T00:43:09+00:00	2020-07-08T06:59:59+00:00	-2	jhgkhw866sy6ht7@marketplace.amazon.com	Dawn Sabatello	+1 346-307-9643 ext. 18865	ABM0033	Purchase Now for Delivery by Wednesday | Arabella Farm Direct Bouquet of Fresh Cut White Hydrangea with a Free Glass Vase	1	0	1	Expedited	Dawn Sabatello	5002 WHISPERING HOLW			PALM BEACH GARDENS	FL	33418-3536	US			false		
111-4561842-4287437	13152127222466	2020-07-06T00:54:10+00:00	2020-07-05T17:54:10-07:00	2020-07-06T01:17:12+00:00	2020-07-08T06:59:59+00:00	-2	ql5ntm3kzj4ys2t@marketplace.amazon.com	John Panarelli	571446700	ABR011	Purchase Now for Delivery by Wednesday | Arabella Bouquets 18 Stems of Fresh Cut Red Roses in a Free Glass Vase	1	0	1	Expedited	Alexandra Quinones	2732 GASTON AVE APT 7210			DALLAS	TX	75226-2731	US			false		
113-3719464-9934605	33027391866018	2020-07-06T01:41:17+00:00	2020-07-05T18:41:17-07:00	2020-07-06T02:04:28+00:00	2020-07-08T06:59:59+00:00	-2	0dspp1hwcwyddb4@marketplace.amazon.com	James I. Mathers	+1 346-307-9643 ext. 23063	ABR012	Purchase Now for Delivery by Wednesday | Arabella Farm Direct Bouquet of 18 Fresh Cut Pink Roses with a Free Glass Vase	1	0	1	Expedited	Marci Nail	4420 NAIL FARM RD			MELBOURNE	FL	32934-8509	US		Happy Birthday! Love, Jim and Linda From James I. Mathers	false		
112-3087610-5443462	64753191773050	2020-07-06T01:57:40+00:00	2020-07-05T18:57:40-07:00	2020-07-06T02:25:28+00:00	2020-07-08T06:59:59+00:00	-2	2r48ggphb5c88r6@marketplace.amazon.com	celeste y. neuhoff	+1 347-448-3190 ext. 50396	ABR0022	Purchase Now for Delivery by Wednesday | Arabella Farm Direct Bouquet of 12 Fresh Cut Pink Roses with a Free Glass Vase	1	0	1	Expedited	Mary Jones	417 SAINT ANDREWS RD			NEWPORT BEACH	CA	92663-5321	US		Sweetest Mary, We are so happy to hear that you are feeling better! We just wanted to let you know how loved you are and what a blessing you are in our lives. Love you so much! From The Neuhoff Family	false		
112-8941393-6988224	52378596484618	2020-07-06T02:28:06+00:00	2020-07-05T19:28:06-07:00	2020-07-06T02:51:45+00:00	2020-07-08T06:59:59+00:00	-2	gh34f1vs8c5shsj@marketplace.amazon.com	Patricia-Clare Murphy	+1 346-307-9643 ext. 58840	ABR0022	Purchase Now for Delivery by Wednesday | Arabella Farm Direct Bouquet of 12 Fresh Cut Pink Roses with a Free Glass Vase	1	0	1	Expedited	Providence Mount Saint Vincent	5SOUTH MGR’S DESK ALL SHIFTS & FLOATERS RO ETC LOVE YOU	4831 35TH AVE SW		SEATTLE	WA	98126-2709	US		Enjoy your gift! From Patricia-Clare Murphy	false		
113-9475675-7795448	61049760016986	2020-07-06T02:44:29+00:00	2020-07-05T19:44:29-07:00	2020-07-06T03:14:52+00:00	2020-07-08T06:59:59+00:00	-2	7l661c1f048scqf@marketplace.amazon.com	Annette reyes	+1 346-307-9643 ext. 38127	ABR0022	Purchase Now for Delivery by Wednesday | Arabella Farm Direct Bouquet of 12 Fresh Cut Pink Roses with a Free Glass Vase	1	0	1	Expedited	Brenda/ Stephan Majewski	312 ARRICOLA AVE			ST AUGUSTINE	FL	32080-4519	US			false		
114-3783812-8386634	64181936820602	2020-07-06T03:55:13+00:00	2020-07-05T20:55:13-07:00	2020-07-06T04:24:10+00:00	2020-07-08T06:59:59+00:00	-2	8fpf6vfvw4q0hcb@marketplace.amazon.com	Lana Xiao	+1 210-728-4548 ext. 01244	ABR0022	Purchase Now for Delivery by Wednesday | Arabella Farm Direct Bouquet of 12 Fresh Cut Pink Roses with a Free Glass Vase	1	0	1	Expedited	Anita Shan Shan Wu	2157 BRAEMAR RD			OAKLAND	CA	94602-2003	US		Dear Anita! Happy birthday. I miss you and can’t wait to celebrate with you soon in person. - Lana From Lana Xiao	false		
114-3287277-5749835	48825056343442	2020-07-06T04:05:57+00:00	2020-07-05T21:05:57-07:00	2020-07-06T04:26:28+00:00	2020-07-08T06:59:59+00:00	-2	8ksfxqqck83zz3n@marketplace.amazon.com	Rohini Ahluwalia	+1 346-307-9643 ext. 71991	ABR0022	Purchase Now for Delivery by Wednesday | Arabella Farm Direct Bouquet of 12 Fresh Cut Pink Roses with a Free Glass Vase	1	0	1	Expedited	Aneesha Ahluwalia	123 YORK ST APT 17D			NEW HAVEN	CT	06511-5628	US		Darling Aneesha, You are so brave. You are so beautiful — both inside and outside. You are our shining star. You make our world much better just by being in it. We are very grateful to have you in our lives. Love From Mama and Papa	false		
111-5173530-9104228	62123850310178	2020-07-06T04:15:28+00:00	2020-07-05T21:15:28-07:00	2020-07-06T04:44:05+00:00	2020-07-08T06:59:59+00:00	-2	krcxlrf6d65sccw@marketplace.amazon.com	Scott A Sabaj	+1 346-307-9643 ext. 49539	ABR0055	Purchase Now for Delivery by Wednesday | Arabella Farm Direct Bouquet of 12 Stems of Fresh Cut Hot Pink Roses in a Free Designer Glass Vase	1	0	1	Expedited	Lisa Frankeberger	21840 N 43RD ST			PHOENIX	AZ	85050-8805	US		Hi Lisa, Thanks for such a great time in Denver,good luck over the next few days  Love,scott	false		
112-8548832-5547408	38328943127074	2020-07-06T04:53:31+00:00	2020-07-05T21:53:31-07:00	2020-07-06T05:20:50+00:00	2020-07-08T06:59:59+00:00	-2	x5x7ky17b7xz7y7@marketplace.amazon.com	Julien	+1 210-728-4548 ext. 05976	ABR0022	Purchase Now for Delivery by Wednesday | Arabella Farm Direct Bouquet of 12 Fresh Cut Pink Roses with a Free Glass Vase	1	0	1	Expedited	Ariana Mooradian	11390 SQUARE ST UNIT 7308			JACKSONVILLE	FL	32256-4070	US		Dear Aribear,  Hope you have a good day and Mabrouk on the move to your new house.  Jujube & Fifi  PS: We love and miss you	false		
113-7118028-6645817	25969356638322	2020-07-06T05:15:19+00:00	2020-07-05T22:15:19-07:00	2020-07-06T05:44:40+00:00	2020-07-08T06:59:59+00:00	-2	yt0992tzjhwgjy8@marketplace.amazon.com	Alex	+1 346-307-9643 ext. 48000	ABR0022	Purchase Now for Delivery by Wednesday | Arabella Farm Direct Bouquet of 12 Fresh Cut Pink Roses with a Free Glass Vase	1	0	1	Expedited	Alex Love	8659 INNSDALE LN			SAN DIEGO	CA	92114-7431	US			false		
112-6889974-1691429	56209489197034	2020-07-06T05:16:46+00:00	2020-07-05T22:16:46-07:00	2020-07-06T05:45:53+00:00	2020-07-08T06:59:59+00:00	-2	gvbcm3g1cpd81rv@marketplace.amazon.com	RAVIRAJ KINI	+1 346-307-9643 ext. 16213	ABR0055	Purchase Now for Delivery by Wednesday | Arabella Farm Direct Bouquet of 12 Stems of Fresh Cut Hot Pink Roses in a Free Designer Glass Vase	1	0	1	Expedited	Pradnya  Nayak	2403 FLICKINGER AVE			SAN JOSE	CA	95131-3411	US			false		
112-8789709-7364237	52952640094186	2020-07-06T05:45:02+00:00	2020-07-05T22:45:02-07:00	2020-07-06T06:04:33+00:00	2020-07-08T06:59:59+00:00	-2	gvbcm3g1cpd81rv@marketplace.amazon.com	RAVIRAJ KINI	+1 346-307-9643 ext. 62487	ABR0022	Purchase Now for Delivery by Wednesday | Arabella Farm Direct Bouquet of 12 Fresh Cut Pink Roses with a Free Glass Vase	1	0	1	Expedited	Setareh Mahmoodi	18222 104TH AVE NE STE 103			BOTHELL	WA	98011-3491	US		Hi Setareh Please accept my yearly thank you flower for assisting me in my bankruptcy situation beyond my control. Thank you & Regards Ravi	false		
111-1135845-7118648	29899649409978	2020-07-06T06:10:22+00:00	2020-07-05T23:10:22-07:00	2020-07-06T06:38:36+00:00	2020-07-08T06:59:59+00:00	-2	51nzy71cl6bk20l@marketplace.amazon.com	Patricia Conway	+1 314-282-9402 ext. 88027	ABM002	Purchase Now for Delivery by Wednesday | Arabella Bouquets Fresh Cut White Calla Lilies in a Free Designer Glass Vase	1	0	1	Expedited	Mrs. Nancy Jarvis	1149 N FORK TRL			MINDEN	NV	89423-7867	US		To new beginnings! Dad & yours! Love, Tricia From Patricia Conway	false		
113-8501019-6917018	01466038014330	2020-07-06T06:17:57+00:00	2020-07-05T23:17:57-07:00	2020-07-06T06:41:28+00:00	2020-07-08T06:59:59+00:00	-2	szw2nbbv3dpxgph@marketplace.amazon.com	Karen Hollingsworth	+1 346-307-9643 ext. 61667	ABR0022	Purchase Now for Delivery by Wednesday | Arabella Farm Direct Bouquet of 12 Fresh Cut Pink Roses with a Free Glass Vase	1	0	1	Expedited	Lori Lux	22 VIDEO CT			IOWA CITY	IA	52240-3050	US		Happy Birthday Sweet Cousin!  I love you so very much, Lori! And get well soon! I’m praying for you always. God has you beneath His wing and loves you most! Love, Karen From Karen Hollingsworth	false		
114-0527695-6637851	53728684795242	2020-07-06T07:51:55+00:00	2020-07-06T00:51:55-07:00	2020-07-06T08:22:17+00:00	2020-07-09T06:59:59+00:00	-3	gj789cyfwtfxlqd@marketplace.amazon.com	Edward T. Maguire	+1 346-307-9643 ext. 53694	ABR001	Purchase Now for Delivery by Wednesday | Arabella Bouquets 12 Stems of Fresh Cut Red Roses in a Free Designer Glass Vase	1	0	1	Expedited	Patricia Maguire / Brightview	1 SYMMES RD	APT 2		ARLINGTON	MA	02474	US			false		
