order-id	order-item-id	purchase-date	payments-date	reporting-date	promise-date	days-past-promise	buyer-email	buyer-name	buyer-phone-number	sku	product-name	quantity-purchased	quantity-shipped	quantity-to-ship	ship-service-level	recipient-name	ship-address-1	ship-address-2	ship-address-3	ship-city	ship-state	ship-postal-code	ship-country	gift-wrap-type	gift-message-text	is-business-order	purchase-order-number	price-designation
111-1350280-5301051	59653060057770	2020-07-05T20:57:19+00:00	2020-07-05T13:57:19-07:00	2020-07-05T21:25:59+00:00	2020-07-08T06:59:59+00:00	-2	2p2r7sq4fc01ssw@marketplace.amazon.com	R B Stewart	+1 314-282-9402 ext. 14620	ABR0022	Purchase Now for Delivery by Wednesday | Arabella Farm Direct Bouquet of 12 Fresh Cut Pink Roses with a Free Glass Vase	1	0	1	Expedited	JoAnn Cimon	2nd Street			Herdson	New Hampshire	03051	US		Thinking of you my friend - and Bruce joins me in sending love and prayers!  Love, LeeAnn and Bruce	false		
114-8223927-8960204	26448169174314	2020-07-06T17:36:14+00:00	2020-07-06T10:36:14-07:00	2020-07-06T18:04:32+00:00	2020-07-09T06:59:59+00:00	-3	lgr4t12c3l9042h@marketplace.amazon.com	Timothy Payne	+1 346-307-9643 ext. 54680	ABR0022	Purchase Now for Delivery by Wednesday | Arabella Farm Direct Bouquet of 12 Fresh Cut Pink Roses with a Free Glass Vase	1	0	1	Expedited	Carley Rittberg	610 STANLEY AVE			ESCONDIDO	CA	92026-1530	US		Sending you hugs ♡♡ Love you! From Julee	false		
114-5791935-7274667	04060931603306	2020-07-06T17:44:36+00:00	2020-07-06T10:44:36-07:00	2020-07-06T18:14:38+00:00	2020-07-09T06:59:59+00:00	-3	ffdbjrylhm61v2b@marketplace.amazon.com	Niko	+1 346-307-9643 ext. 39074	ABR0022	Arabella Farm Direct Bouquet of 12 Fresh Cut Pink Roses with a Free Glass Vase	1	0	1	Expedited	Niko	1617 N ABINGDON ST	ARLINGTON VA 22207 BASEMENT APT		ARLINGTON	VA	22207-2118	US			false		
113-1976195-3592236	13729662063090	2020-07-06T17:49:09+00:00	2020-07-06T10:49:09-07:00	2020-07-06T18:17:44+00:00	2020-07-09T06:59:59+00:00	-3	pnmncjny36szbnj@marketplace.amazon.com	Lorelei S. Gustafson	+1 210-728-4548 ext. 11013	ABR012	Arabella Farm Direct Bouquet of 18 Fresh Cut Pink Roses with a Free Glass Vase	1	0	1	Expedited	Christine Gustafson	34 WATERLOO CT			HOCKESSIN	DE	19707-9763	US		We love you, Chrissy. Happy birthday! From Lorelei & Erik	false		
111-1295853-3465068	18130899056506	2020-07-06T17:58:09+00:00	2020-07-06T10:58:09-07:00	2020-07-06T18:23:52+00:00	2020-07-09T06:59:59+00:00	-3	y6g7dxlrt7fzgjp@marketplace.amazon.com	Donna Shecrallah	+1 314-282-9402 ext. 42735	ABR0055	Purchase Now for Delivery by Thursday | Arabella Farm Direct Bouquet of 12 Stems of Fresh Cut Hot Pink Roses in a Free Designer Glass Vase	1	0	1	Expedited	Ruth Shecrallah	832 CONVERSE ST APT C101			LONGMEADOW	MA	01106-1742	US		Happy Birthday Mom and Grandma,   These pink roses are for you.  We love you with all of our hearts!  XXOXXOOXX Diana, Katie, George and Donna From Donna Shecrallah	false		
113-7444527-4775427	67296854809082	2020-07-06T17:59:47+00:00	2020-07-06T10:59:47-07:00	2020-07-06T18:29:04+00:00	2020-07-09T06:59:59+00:00	-3	lgfdb3r08cfy391@marketplace.amazon.com	Angela Teague	+1 346-307-9643 ext. 90545	ABR0022	Arabella Farm Direct Bouquet of 12 Fresh Cut Pink Roses with a Free Glass Vase	1	0	1	Expedited	Brookstone Estates c/o Patti Lawson	1920 BROOKSTONE LN APT 15			MATTOON	IL	61938-6114	US		Just because, something to brighten your day! From Angela Teague	false		
114-1394965-8665004	10105464803450	2020-07-06T18:24:38+00:00	2020-07-06T11:24:38-07:00	2020-07-06T18:37:46+00:00	2020-07-09T06:59:59+00:00	-3	7s3jg59mcnrmmwk@marketplace.amazon.com	frank	+1 346-307-9643 ext. 84713	ABR0022	Arabella Farm Direct Bouquet of 12 Fresh Cut Pink Roses with a Free Glass Vase	1	0	1	Expedited	Eileen Johnson	116 BAILEY LN	TEXARKANA ARKANSAS 71854		TEXARKANA	AR	71854-0701	US		Loving you baby is the best thing that has ever happened to me my beautiful angel.I will always be your man as long as i live.You make me so complete my angel.LOVE YOU FOREVER From Roberts Wesley	false		
112-7051149-9696225	33537682807954	2020-07-06T19:17:13+00:00	2020-07-06T12:17:13-07:00	2020-07-06T19:47:50+00:00	2020-07-09T06:59:59+00:00	-3	b163qqn2z2mpmjg@marketplace.amazon.com	Laura Cummings	+1 346-307-9643 ext. 87092	ABM0044	Arabella Farm Direct Bouquet of Fresh Cut Blue Hydrangea with a Free Glass Vase	1	0	1	Expedited	Laura Cummings	1529 Carentan RD A			Fort Campbell	KY	42223	US			false		
114-5036130-5191417	31636782409498	2020-07-06T19:23:07+00:00	2020-07-06T12:23:07-07:00	2020-07-06T19:51:04+00:00	2020-07-09T06:59:59+00:00	-3	4mzmkzt4x6s6n9w@marketplace.amazon.com	J. Bourne	+1 210-728-4548 ext. 51025	ABR0055	Purchase Now for Delivery by Thursday | Arabella Farm Direct Bouquet of 12 Stems of Fresh Cut Hot Pink Roses in a Free Designer Glass Vase	1	0	1	Expedited	paula moss	107 MADONNA PL			EAST ORANGE	NJ	07018-2413	US		Dearest P, Hope these bring a smile to your face.  Lots of love, From J xo	false		
112-8709208-9092206	10212329869938	2020-07-06T20:26:53+00:00	2020-07-06T13:26:53-07:00	2020-07-06T20:42:06+00:00	2020-07-09T06:59:59+00:00	-3	xry3wpzp53v2s2p@marketplace.amazon.com	Benjamin Wood	+1 346-307-9643 ext. 27623	ABM010	Purchase Now for Delivery by Thursday | The Spring Fling Bouquet by Arabella Bouquets with a Free Designer Glass Vase	1	0	1	Expedited	RODNEY HARRELSON	701 N MAIN ST			MARS HILL	NC	28754-7620	US		Hey Babe, the only real thing in this world is our love. It made me feel alive. I love you today, will love you tomorrow and forever babe. We are never really apart because my heart beats for you. I LOVE YOU RODNEY... From SGT. MICHAEL LOVE	false		
114-5828505-1861803	16350257639122	2020-07-06T21:06:21+00:00	2020-07-06T14:06:21-07:00	2020-07-06T21:21:27+00:00	2020-07-09T06:59:59+00:00	-3	n4d90nhhghvlj1g@marketplace.amazon.com	Valentina Luckova	+1 415-851-9136 ext. 60178	ABR0022	Purchase Now for Delivery by Thursday | Arabella Farm Direct Bouquet of 12 Fresh Cut Pink Roses with a Free Glass Vase	1	0	1	Expedited	Anna Landolac	8140 WOLF RD			LA GRANGE	IL	60525-5231	US		Dear Anna, Happy Birthday! Like these roses are pink, I wish this year to be easy, pink and with love! Hugs, Valentina From Valentina Luckova	false		
113-3707743-9130659	43235132530082	2020-07-06T20:56:16+00:00	2020-07-06T13:56:16-07:00	2020-07-06T21:24:13+00:00	2020-07-09T06:59:59+00:00	-3	v22h96b00dsmcjz@marketplace.amazon.com	Deb Truax	+1 346-307-9643 ext. 02528	ABM010	Purchase Now for Delivery by Thursday | The Spring Fling Bouquet by Arabella Bouquets with a Free Designer Glass Vase	1	0	1	Expedited	Donna Laks	3309 LAKE WALES CT			LEXINGTON	KY	40515-5927	US		I miss you so much! I miss your hugs and your laughs, and having treats and going to sales with you. I miss the way you always smell like soap. I love you !!! From Deb Truax	false		
112-1818097-2884218	17748029156714	2020-07-06T21:01:37+00:00	2020-07-06T14:01:37-07:00	2020-07-06T21:29:38+00:00	2020-07-09T06:59:59+00:00	-3	bm81yprlsxd2p35@marketplace.amazon.com	Cheryl Barnard	91670533584	ABR0055	Purchase Now for Delivery by Thursday | Arabella Farm Direct Bouquet of 12 Stems of Fresh Cut Hot Pink Roses in a Free Designer Glass Vase	1	0	1	Expedited	Kathy Sue Williams	6400 WOODRIDGE CT			CITRUS HEIGHTS	CA	95621-6126	US		Happy birthday, Kathy! I wish I could take you out to lunch. Love you a ton, From Cheryl Barnard	false		
113-5291374-0778613	06465090419634	2020-07-06T21:33:30+00:00	2020-07-06T14:33:30-07:00	2020-07-06T21:56:46+00:00	2020-07-09T06:59:59+00:00	-3	zkj543c2fxxbwn2@marketplace.amazon.com	Beverly Kaniecki	+1 314-282-9402 ext. 35141	ABR0055	Purchase Now for Delivery by Thursday | Arabella Farm Direct Bouquet of 12 Stems of Fresh Cut Hot Pink Roses in a Free Designer Glass Vase	1	0	1	Expedited	Jayme Gemperlein	2533 ELCOR DR			LOWER BURRELL	PA	15068-4902	US		Jayme, Many prayers for a full recovery! Bev & Tom From Beverly Kaniecki	false		
111-7388885-1267442	02636723598866	2020-07-06T21:52:27+00:00	2020-07-06T14:52:27-07:00	2020-07-06T22:21:58+00:00	2020-07-09T06:59:59+00:00	-3	mvrvjgg11nl46vq@marketplace.amazon.com	Ronny Whyte	+1 346-307-9643 ext. 46841	ABR0022	Purchase Now for Delivery by Thursday | Arabella Farm Direct Bouquet of 12 Fresh Cut Pink Roses with a Free Glass Vase	1	0	1	Expedited	Susan  Parise	3665 Rim View Drive			Santa Clara	Utah	84765	US			false		
112-5809119-3854609	14573606048530	2020-07-06T22:10:16+00:00	2020-07-06T15:10:16-07:00	2020-07-06T22:36:27+00:00	2020-07-09T06:59:59+00:00	-3	35643lbcmlzh2g0@marketplace.amazon.com	David I. Gonzalez	+1 415-851-9136 ext. 90257	ABR0022	Purchase Now for Delivery by Thursday | Arabella Farm Direct Bouquet of 12 Fresh Cut Pink Roses with a Free Glass Vase	1	0	1	Expedited	DeAnna Dovorany	5329 SUNSHINE LN			RACINE	WI	53402-2002	US		You got this girl!  Keep up the fight! Can’t wait to see you back in the office soon! From Erin Gonzalez	false		
111-2390250-7822656	46405422397290	2020-07-06T22:21:25+00:00	2020-07-06T15:21:25-07:00	2020-07-06T22:51:58+00:00	2020-07-09T06:59:59+00:00	-3	nqsmylhgnfjycjt@marketplace.amazon.com	Patrick McCarthy	+1 314-282-9402 ext. 67319	ABM010	Purchase Now for Delivery by Thursday | The Spring Fling Bouquet by Arabella Bouquets with a Free Designer Glass Vase	1	0	1	Expedited	Patrick McCarthy	569 Pleasant St.			Milton	MA	02186	US			false		
114-3318424-1826630	21168425778946	2020-07-06T23:28:19+00:00	2020-07-06T16:28:19-07:00	2020-07-06T23:56:42+00:00	2020-07-09T06:59:59+00:00	-3	t20bnrrkjl2rv8q@marketplace.amazon.com	Cameron	+1 415-851-9136 ext. 16817	ABR0022	Purchase Now for Delivery by Thursday | Arabella Farm Direct Bouquet of 12 Fresh Cut Pink Roses with a Free Glass Vase	1	0	1	Expedited	Emily	W29289 COUNTY ROAD JJ			ARCADIA	WI	54612-1779	US		Happy 4 months From Cameron	false		
113-2085958-5124208	38126297419954	2020-07-06T23:35:17+00:00	2020-07-06T16:35:17-07:00	2020-07-07T00:04:57+00:00	2020-07-09T06:59:59+00:00	-3	8l5gjt1v63q0l17@marketplace.amazon.com	Shannon Rizzi	+1 346-307-9643 ext. 57800	ABM010	Purchase Now for Delivery by Thursday | The Spring Fling Bouquet by Arabella Bouquets with a Free Designer Glass Vase	1	0	1	Expedited	Dr Michael Miller	16350 E ARAPAHOE RD UNIT 114			FOXFIELD	CO	80016-1557	US		Dr. Miller,  We are so sorry about the loss of your Mom.  May the memories you hold dear bring you peace.  Prayers for your whole family. From Shannon  and Richard Rizzi	false		
111-8442303-1765851	17328119941954	2020-07-06T23:45:43+00:00	2020-07-06T16:45:43-07:00	2020-07-07T00:07:11+00:00	2020-07-09T06:59:59+00:00	-3	qnf5xy0d2pfbs0p@marketplace.amazon.com	Beatrice	+1 346-307-9643 ext. 95610	ABR0022	Purchase Now for Delivery by Thursday | Arabella Farm Direct Bouquet of 12 Fresh Cut Pink Roses with a Free Glass Vase	1	0	1	Expedited	Mary Conckling	2902 PLEASANT DR			MCHENRY	IL	60051-2631	US		Dear Mary! Happy Retirement! It was so great to work with you and I am glad we are able to stay in touch. Hope these flowers put a smile to your face! Enjoy, Beatice From Beatrice	false		
114-5761095-0205807	35634882133162	2020-07-06T23:53:09+00:00	2020-07-06T16:53:09-07:00	2020-07-07T00:17:44+00:00	2020-07-09T06:59:59+00:00	-3	xdl0n66mzflh5cb@marketplace.amazon.com	Heather Denny	+1 346-307-9643 ext. 64595	ABM010	Purchase Now for Delivery by Thursday | The Spring Fling Bouquet by Arabella Bouquets with a Free Designer Glass Vase	1	0	1	Expedited	Tiffany Sarkissian	1440 BEACON ST APT 809			BROOKLINE	MA	02446-2046	US		Tiff, Thank you so much for all your help with the Town Hall!! We couldn’t have done it without you. Your Communications friends, Heather & Ashley From Heather Denny	false		
114-6049606-4599419	41687346228754	2020-07-07T00:13:37+00:00	2020-07-06T17:13:37-07:00	2020-07-07T00:44:25+00:00	2020-07-09T06:59:59+00:00	-3	bgk0qjldf09xhtb@marketplace.amazon.com	Brenda S Harrison	+1 347-448-3190 ext. 77625	ABM010	Purchase Now for Delivery by Thursday | The Spring Fling Bouquet by Arabella Bouquets with a Free Designer Glass Vase	1	0	1	Expedited	Brenda Harrison	1815 PARGOUD BLVD			MONROE	LA	71201-2532	US			false		
