order-id	order-item-id	purchase-date	payments-date	reporting-date	promise-date	days-past-promise	buyer-email	buyer-name	buyer-phone-number	sku	product-name	quantity-purchased	quantity-shipped	quantity-to-ship	ship-service-level	recipient-name	ship-address-1	ship-address-2	ship-address-3	ship-city	ship-state	ship-postal-code	ship-country	gift-wrap-type	gift-message-text	is-business-order	purchase-order-number	price-designation
111-1350280-5301051	59653060057770	2020-07-05T20:57:19+00:00	2020-07-05T13:57:19-07:00	2020-07-05T21:25:59+00:00	2020-07-08T06:59:59+00:00	-1	2p2r7sq4fc01ssw@marketplace.amazon.com	R B Stewart	+1 314-282-9402 ext. 14620	ABR0022	Purchase Now for Delivery by Wednesday | Arabella Farm Direct Bouquet of 12 Fresh Cut Pink Roses with a Free Glass Vase	1	0	1	Expedited	JoAnn Cimon	2nd Street			Herdson	New Hampshire	03051	US		Thinking of you my friend - and Bruce joins me in sending love and prayers!  Love, LeeAnn and Bruce	false		
114-8223927-8960204	26448169174314	2020-07-06T17:36:14+00:00	2020-07-06T10:36:14-07:00	2020-07-06T18:04:32+00:00	2020-07-09T06:59:59+00:00	-2	lgr4t12c3l9042h@marketplace.amazon.com	Timothy Payne	+1 346-307-9643 ext. 54680	ABR0022	Purchase Now for Delivery by Wednesday | Arabella Farm Direct Bouquet of 12 Fresh Cut Pink Roses with a Free Glass Vase	1	0	1	Expedited	Carley Rittberg	610 STANLEY AVE			ESCONDIDO	CA	92026-1530	US		Sending you hugs ♡♡ Love you! From Julee	false		
114-5791935-7274667	04060931603306	2020-07-06T17:44:36+00:00	2020-07-06T10:44:36-07:00	2020-07-06T18:14:38+00:00	2020-07-09T06:59:59+00:00	-2	ffdbjrylhm61v2b@marketplace.amazon.com	Niko	+1 346-307-9643 ext. 39074	ABR0022	Arabella Farm Direct Bouquet of 12 Fresh Cut Pink Roses with a Free Glass Vase	1	0	1	Expedited	Niko	1617 N ABINGDON ST	ARLINGTON VA 22207 BASEMENT APT		ARLINGTON	VA	22207-2118	US			false		
113-1976195-3592236	13729662063090	2020-07-06T17:49:09+00:00	2020-07-06T10:49:09-07:00	2020-07-06T18:17:44+00:00	2020-07-09T06:59:59+00:00	-2	pnmncjny36szbnj@marketplace.amazon.com	Lorelei S. Gustafson	+1 210-728-4548 ext. 11013	ABR012	Arabella Farm Direct Bouquet of 18 Fresh Cut Pink Roses with a Free Glass Vase	1	0	1	Expedited	Christine Gustafson	34 WATERLOO CT			HOCKESSIN	DE	19707-9763	US		We love you, Chrissy. Happy birthday! From Lorelei & Erik	false		
111-1295853-3465068	18130899056506	2020-07-06T17:58:09+00:00	2020-07-06T10:58:09-07:00	2020-07-06T18:23:52+00:00	2020-07-09T06:59:59+00:00	-2	y6g7dxlrt7fzgjp@marketplace.amazon.com	Donna Shecrallah	+1 314-282-9402 ext. 42735	ABR0055	Purchase Now for Delivery by Thursday | Arabella Farm Direct Bouquet of 12 Stems of Fresh Cut Hot Pink Roses in a Free Designer Glass Vase	1	0	1	Expedited	Ruth Shecrallah	832 CONVERSE ST APT C101			LONGMEADOW	MA	01106-1742	US		Happy Birthday Mom and Grandma,   These pink roses are for you.  We love you with all of our hearts!  XXOXXOOXX Diana, Katie, George and Donna From Donna Shecrallah	false		
113-7444527-4775427	67296854809082	2020-07-06T17:59:47+00:00	2020-07-06T10:59:47-07:00	2020-07-06T18:29:04+00:00	2020-07-09T06:59:59+00:00	-2	lgfdb3r08cfy391@marketplace.amazon.com	Angela Teague	+1 346-307-9643 ext. 90545	ABR0022	Arabella Farm Direct Bouquet of 12 Fresh Cut Pink Roses with a Free Glass Vase	1	0	1	Expedited	Brookstone Estates c/o Patti Lawson	1920 BROOKSTONE LN APT 15			MATTOON	IL	61938-6114	US		Just because, something to brighten your day! From Angela Teague	false		
114-1394965-8665004	10105464803450	2020-07-06T18:24:38+00:00	2020-07-06T11:24:38-07:00	2020-07-06T18:37:46+00:00	2020-07-09T06:59:59+00:00	-2	7s3jg59mcnrmmwk@marketplace.amazon.com	frank	+1 346-307-9643 ext. 84713	ABR0022	Arabella Farm Direct Bouquet of 12 Fresh Cut Pink Roses with a Free Glass Vase	1	0	1	Expedited	Eileen Johnson	116 BAILEY LN	TEXARKANA ARKANSAS 71854		TEXARKANA	AR	71854-0701	US		Loving you baby is the best thing that has ever happened to me my beautiful angel.I will always be your man as long as i live.You make me so complete my angel.LOVE YOU FOREVER From Roberts Wesley	false		
112-7051149-9696225	33537682807954	2020-07-06T19:17:13+00:00	2020-07-06T12:17:13-07:00	2020-07-06T19:47:50+00:00	2020-07-09T06:59:59+00:00	-2	b163qqn2z2mpmjg@marketplace.amazon.com	Laura Cummings	+1 346-307-9643 ext. 87092	ABM0044	Arabella Farm Direct Bouquet of Fresh Cut Blue Hydrangea with a Free Glass Vase	1	0	1	Expedited	Laura Cummings	1529 Carentan RD A			Fort Campbell	KY	42223	US			false		
114-5036130-5191417	31636782409498	2020-07-06T19:23:07+00:00	2020-07-06T12:23:07-07:00	2020-07-06T19:51:04+00:00	2020-07-09T06:59:59+00:00	-2	4mzmkzt4x6s6n9w@marketplace.amazon.com	J. Bourne	+1 210-728-4548 ext. 51025	ABR0055	Purchase Now for Delivery by Thursday | Arabella Farm Direct Bouquet of 12 Stems of Fresh Cut Hot Pink Roses in a Free Designer Glass Vase	1	0	1	Expedited	paula moss	107 MADONNA PL			EAST ORANGE	NJ	07018-2413	US		Dearest P, Hope these bring a smile to your face.  Lots of love, From J xo	false		
112-8709208-9092206	10212329869938	2020-07-06T20:26:53+00:00	2020-07-06T13:26:53-07:00	2020-07-06T20:42:06+00:00	2020-07-09T06:59:59+00:00	-2	xry3wpzp53v2s2p@marketplace.amazon.com	Benjamin Wood	+1 346-307-9643 ext. 27623	ABM010	Purchase Now for Delivery by Thursday | The Spring Fling Bouquet by Arabella Bouquets with a Free Designer Glass Vase	1	0	1	Expedited	RODNEY HARRELSON	701 N MAIN ST			MARS HILL	NC	28754-7620	US		Hey Babe, the only real thing in this world is our love. It made me feel alive. I love you today, will love you tomorrow and forever babe. We are never really apart because my heart beats for you. I LOVE YOU RODNEY... From SGT. MICHAEL LOVE	false		
114-5828505-1861803	16350257639122	2020-07-06T21:06:21+00:00	2020-07-06T14:06:21-07:00	2020-07-06T21:21:27+00:00	2020-07-09T06:59:59+00:00	-2	n4d90nhhghvlj1g@marketplace.amazon.com	Valentina Luckova	+1 415-851-9136 ext. 60178	ABR0022	Purchase Now for Delivery by Thursday | Arabella Farm Direct Bouquet of 12 Fresh Cut Pink Roses with a Free Glass Vase	1	0	1	Expedited	Anna Landolac	8140 WOLF RD			LA GRANGE	IL	60525-5231	US		Dear Anna, Happy Birthday! Like these roses are pink, I wish this year to be easy, pink and with love! Hugs, Valentina From Valentina Luckova	false		
113-3707743-9130659	43235132530082	2020-07-06T20:56:16+00:00	2020-07-06T13:56:16-07:00	2020-07-06T21:24:13+00:00	2020-07-09T06:59:59+00:00	-2	v22h96b00dsmcjz@marketplace.amazon.com	Deb Truax	+1 346-307-9643 ext. 02528	ABM010	Purchase Now for Delivery by Thursday | The Spring Fling Bouquet by Arabella Bouquets with a Free Designer Glass Vase	1	0	1	Expedited	Donna Laks	3309 LAKE WALES CT			LEXINGTON	KY	40515-5927	US		I miss you so much! I miss your hugs and your laughs, and having treats and going to sales with you. I miss the way you always smell like soap. I love you !!! From Deb Truax	false		
112-1818097-2884218	17748029156714	2020-07-06T21:01:37+00:00	2020-07-06T14:01:37-07:00	2020-07-06T21:29:38+00:00	2020-07-09T06:59:59+00:00	-2	bm81yprlsxd2p35@marketplace.amazon.com	Cheryl Barnard	91670533584	ABR0055	Purchase Now for Delivery by Thursday | Arabella Farm Direct Bouquet of 12 Stems of Fresh Cut Hot Pink Roses in a Free Designer Glass Vase	1	0	1	Expedited	Kathy Sue Williams	6400 WOODRIDGE CT			CITRUS HEIGHTS	CA	95621-6126	US		Happy birthday, Kathy! I wish I could take you out to lunch. Love you a ton, From Cheryl Barnard	false		
113-5291374-0778613	06465090419634	2020-07-06T21:33:30+00:00	2020-07-06T14:33:30-07:00	2020-07-06T21:56:46+00:00	2020-07-09T06:59:59+00:00	-2	zkj543c2fxxbwn2@marketplace.amazon.com	Beverly Kaniecki	+1 314-282-9402 ext. 35141	ABR0055	Purchase Now for Delivery by Thursday | Arabella Farm Direct Bouquet of 12 Stems of Fresh Cut Hot Pink Roses in a Free Designer Glass Vase	1	0	1	Expedited	Jayme Gemperlein	2533 ELCOR DR			LOWER BURRELL	PA	15068-4902	US		Jayme, Many prayers for a full recovery! Bev & Tom From Beverly Kaniecki	false		
111-7388885-1267442	02636723598866	2020-07-06T21:52:27+00:00	2020-07-06T14:52:27-07:00	2020-07-06T22:21:58+00:00	2020-07-09T06:59:59+00:00	-2	mvrvjgg11nl46vq@marketplace.amazon.com	Ronny Whyte	+1 346-307-9643 ext. 46841	ABR0022	Purchase Now for Delivery by Thursday | Arabella Farm Direct Bouquet of 12 Fresh Cut Pink Roses with a Free Glass Vase	1	0	1	Expedited	Susan  Parise	3665 Rim View Drive			Santa Clara	Utah	84765	US			false		
112-5809119-3854609	14573606048530	2020-07-06T22:10:16+00:00	2020-07-06T15:10:16-07:00	2020-07-06T22:36:27+00:00	2020-07-09T06:59:59+00:00	-2	35643lbcmlzh2g0@marketplace.amazon.com	David I. Gonzalez	+1 415-851-9136 ext. 90257	ABR0022	Purchase Now for Delivery by Thursday | Arabella Farm Direct Bouquet of 12 Fresh Cut Pink Roses with a Free Glass Vase	1	0	1	Expedited	DeAnna Dovorany	5329 SUNSHINE LN			RACINE	WI	53402-2002	US		You got this girl!  Keep up the fight! Can’t wait to see you back in the office soon! From Erin Gonzalez	false		
111-2390250-7822656	46405422397290	2020-07-06T22:21:25+00:00	2020-07-06T15:21:25-07:00	2020-07-06T22:51:58+00:00	2020-07-09T06:59:59+00:00	-2	nqsmylhgnfjycjt@marketplace.amazon.com	Patrick McCarthy	+1 314-282-9402 ext. 67319	ABM010	Purchase Now for Delivery by Thursday | The Spring Fling Bouquet by Arabella Bouquets with a Free Designer Glass Vase	1	0	1	Expedited	Patrick McCarthy	569 Pleasant St.			Milton	MA	02186	US			false		
114-3318424-1826630	21168425778946	2020-07-06T23:28:19+00:00	2020-07-06T16:28:19-07:00	2020-07-06T23:56:42+00:00	2020-07-09T06:59:59+00:00	-2	t20bnrrkjl2rv8q@marketplace.amazon.com	Cameron	+1 415-851-9136 ext. 16817	ABR0022	Purchase Now for Delivery by Thursday | Arabella Farm Direct Bouquet of 12 Fresh Cut Pink Roses with a Free Glass Vase	1	0	1	Expedited	Emily	W29289 COUNTY ROAD JJ			ARCADIA	WI	54612-1779	US		Happy 4 months From Cameron	false		
113-2085958-5124208	38126297419954	2020-07-06T23:35:17+00:00	2020-07-06T16:35:17-07:00	2020-07-07T00:04:57+00:00	2020-07-09T06:59:59+00:00	-2	8l5gjt1v63q0l17@marketplace.amazon.com	Shannon Rizzi	+1 346-307-9643 ext. 57800	ABM010	Purchase Now for Delivery by Thursday | The Spring Fling Bouquet by Arabella Bouquets with a Free Designer Glass Vase	1	0	1	Expedited	Dr Michael Miller	16350 E ARAPAHOE RD UNIT 114			FOXFIELD	CO	80016-1557	US		Dr. Miller,  We are so sorry about the loss of your Mom.  May the memories you hold dear bring you peace.  Prayers for your whole family. From Shannon  and Richard Rizzi	false		
111-8442303-1765851	17328119941954	2020-07-06T23:45:43+00:00	2020-07-06T16:45:43-07:00	2020-07-07T00:07:11+00:00	2020-07-09T06:59:59+00:00	-2	qnf5xy0d2pfbs0p@marketplace.amazon.com	Beatrice	+1 346-307-9643 ext. 95610	ABR0022	Purchase Now for Delivery by Thursday | Arabella Farm Direct Bouquet of 12 Fresh Cut Pink Roses with a Free Glass Vase	1	0	1	Expedited	Mary Conckling	2902 PLEASANT DR			MCHENRY	IL	60051-2631	US		Dear Mary! Happy Retirement! It was so great to work with you and I am glad we are able to stay in touch. Hope these flowers put a smile to your face! Enjoy, Beatice From Beatrice	false		
114-5761095-0205807	35634882133162	2020-07-06T23:53:09+00:00	2020-07-06T16:53:09-07:00	2020-07-07T00:17:44+00:00	2020-07-09T06:59:59+00:00	-2	xdl0n66mzflh5cb@marketplace.amazon.com	Heather Denny	+1 346-307-9643 ext. 64595	ABM010	Purchase Now for Delivery by Thursday | The Spring Fling Bouquet by Arabella Bouquets with a Free Designer Glass Vase	1	0	1	Expedited	Tiffany Sarkissian	1440 BEACON ST APT 809			BROOKLINE	MA	02446-2046	US		Tiff, Thank you so much for all your help with the Town Hall!! We couldn’t have done it without you. Your Communications friends, Heather & Ashley From Heather Denny	false		
114-6049606-4599419	41687346228754	2020-07-07T00:13:37+00:00	2020-07-06T17:13:37-07:00	2020-07-07T00:44:25+00:00	2020-07-09T06:59:59+00:00	-2	bgk0qjldf09xhtb@marketplace.amazon.com	Brenda S Harrison	+1 347-448-3190 ext. 77625	ABM010	Purchase Now for Delivery by Thursday | The Spring Fling Bouquet by Arabella Bouquets with a Free Designer Glass Vase	1	0	1	Expedited	Brenda Harrison	1815 PARGOUD BLVD			MONROE	LA	71201-2532	US			false		
113-8104195-9840247	48667408009762	2020-07-07T00:49:07+00:00	2020-07-06T17:49:07-07:00	2020-07-07T01:18:54+00:00	2020-07-09T06:59:59+00:00	-2	lc7ttchg54ph8hl@marketplace.amazon.com	Gilbert Rodriquez	+1 346-307-9643 ext. 18554	ABM010	Purchase Now for Delivery by Thursday | The Spring Fling Bouquet by Arabella Bouquets with a Free Designer Glass Vase	1	0	1	Expedited	Gilbert Rodriquez	32604 N 197 PR NE			BENTON CITY	WA	99320-8593	US			false		
113-8021249-3216268	30325252618266	2020-07-07T01:36:41+00:00	2020-07-06T18:36:41-07:00	2020-07-07T01:43:57+00:00	2020-07-09T06:59:59+00:00	-2	b70rxs6dmbplv3s@marketplace.amazon.com	Nir Bekker	+1 347-448-3190 ext. 36957	ABR0033	Arabella Farm Direct Bouquet of 12 Fresh Cut Orange Roses with a Free Glass Vase	1	0	1	Expedited	Nir Bekker	23252 CASTLE ROCK			MISSION VIEJO	CA	92692-1689	US		Because I just like you so so much<3. MUAAAAAAH. From Smoochi	false		
112-5245831-6520240	01473908471866	2020-07-07T01:37:09+00:00	2020-07-06T18:37:09-07:00	2020-07-07T02:02:12+00:00	2020-07-09T06:59:59+00:00	-2	syfpthwclcmqtbl@marketplace.amazon.com	Kali Matson	+1 346-307-9643 ext. 52724	ABR001	Purchase Now for Delivery by Thursday | Arabella Bouquets 12 Stems of Fresh Cut Red Roses in a Free Designer Glass Vase	1	0	1	Standard	Ann Holbrook	5840 ROCHE HARBOR RD			FRIDAY HARBOR	WA	98250-6942	US		Happy Birthday Ann! I hope you have a wonderful day! We love you. Thank you so much for being a wonderful aunt. I hope this next year brings you Joy,Hope and Love Love Kali and David. From Kali Matson	false		
113-4953138-4965851	34850349307314	2020-07-07T02:15:33+00:00	2020-07-06T19:15:33-07:00	2020-07-07T02:45:54+00:00	2020-07-09T06:59:59+00:00	-2	8b76ths92b7346c@marketplace.amazon.com	Ray	+1 346-307-9643 ext. 38439	ABR001	Purchase Now for Delivery by Thursday | Arabella Bouquets 12 Stems of Fresh Cut Red Roses in a Free Designer Glass Vase	1	0	1	Expedited	Rayvelinacaro	11145 HEATHCLIFF ST	ORLANDO FL 32837		ORLANDO	FL	32837-9122	US			false		
114-2933625-8977807	32930044737618	2020-07-07T02:48:22+00:00	2020-07-06T19:48:22-07:00	2020-07-07T03:18:58+00:00	2020-07-09T06:59:59+00:00	-2	8fy2np9sp8tkmf6@marketplace.amazon.com	Ebrluck123@gmail.com	+1 347-448-3190 ext. 95959	ABR0055	Purchase Now for Delivery by Thursday | Arabella Farm Direct Bouquet of 12 Stems of Fresh Cut Hot Pink Roses in a Free Designer Glass Vase	1	0	1	Expedited	Antonio Yu	34 FOREST DR			JERICHO	NY	11753-2308	US			false		
112-3195575-5174603	69098957330602	2020-07-07T03:09:06+00:00	2020-07-06T20:09:06-07:00	2020-07-07T03:39:29+00:00	2020-07-09T06:59:59+00:00	-2	w2yzf2cg28b68tq@marketplace.amazon.com	RODNEY HARRIS	+1 346-307-9643 ext. 83479	ABR001	Purchase Now for Delivery by Thursday | Arabella Bouquets 12 Stems of Fresh Cut Red Roses in a Free Designer Glass Vase	1	0	1	Expedited	JOELLA HARRIS	1804 W HIGH ST			PEORIA	IL	61606-1634	US			false		
114-3269283-1351451	00583141750634	2020-07-07T04:08:25+00:00	2020-07-06T21:08:25-07:00	2020-07-07T04:36:56+00:00	2020-07-09T06:59:59+00:00	-2	8bl8xvgqn1rlwc3@marketplace.amazon.com	anthony lombardo	+1 346-307-9643 ext. 15938	ABM010	Purchase Now for Delivery by Thursday | The Spring Fling Bouquet by Arabella Bouquets with a Free Designer Glass Vase	1	0	1	Expedited	anthony lombardo	1535 STAFFORD AVE			MERRITT ISLAND	FL	32952-5481	US			true		
114-7880785-0933808	36023817560594	2020-07-07T05:30:26+00:00	2020-07-06T22:30:26-07:00	2020-07-07T05:59:12+00:00	2020-07-09T06:59:59+00:00	-2	mxyjl2qmhkrsb5l@marketplace.amazon.com	Latechia White	+1 346-307-9643 ext. 58876	ABR0055	Purchase Now for Delivery by Thursday | Arabella Farm Direct Bouquet of 12 Stems of Fresh Cut Hot Pink Roses in a Free Designer Glass Vase	1	0	1	Expedited	Tambria West	8552 TOWNE MANOR CT			ALEXANDRIA	VA	22309-4511	US		Thinking of you From Latechia	false		
114-6676061-2704221	47618866366874	2020-07-07T05:33:40+00:00	2020-07-06T22:33:40-07:00	2020-07-07T06:02:33+00:00	2020-07-09T06:59:59+00:00	-2	mxyjl2qmhkrsb5l@marketplace.amazon.com	Latechia White	+1 346-307-9643 ext. 78555	ABR0033	Arabella Farm Direct Bouquet of 12 Fresh Cut Orange Roses with a Free Glass Vase	1	0	1	Expedited	Elley White	3013 HANEY RD			DAYTON	OH	45405-2012	US		I a accept your challenge. Love you much!! From LT	false		
112-6051767-3553805	59472787169602	2020-07-07T06:14:17+00:00	2020-07-06T23:14:17-07:00	2020-07-07T06:34:35+00:00	2020-07-09T06:59:59+00:00	-2	p9vmg5b18wwrmsy@marketplace.amazon.com	virginia karl	+1 415-851-9136 ext. 10924	ABR012	Purchase Now for Delivery by Thursday | Arabella Farm Direct Bouquet of 18 Fresh Cut Pink Roses with a Free Glass Vase	1	0	1	Expedited	Mrs. Karen Stadler	16 BEECHWOOD LN			GARNERVILLE	NY	10923-1104	US		Dear Karen...May your Birthday be a lovely one....and may your new year of life grant you many blessings.....With love from your cousin and friend.....Ginger xo From virginia karl	false		
113-7987099-6770631	14217184834794	2020-07-07T06:19:58+00:00	2020-07-06T23:19:58-07:00	2020-07-07T06:49:33+00:00	2020-07-09T06:59:59+00:00	-2	fc09pc5k9rcw3c5@marketplace.amazon.com	Brian Vieira	+1 346-307-9643 ext. 68348	ABM010	Purchase Now for Delivery by Thursday | The Spring Fling Bouquet by Arabella Bouquets with a Free Designer Glass Vase	1	0	1	Expedited	Brian Vieira	139 HOWELL AVE			FORDS	NJ	08863-1445	US			false		
112-6174788-5168205	69180542849010	2020-07-04T02:08:06+00:00	2020-07-03T19:08:06-07:00	2020-07-07T09:56:24+00:00	2020-07-10T06:59:59+00:00	-3	p4rzmkvc2j97chs@marketplace.amazon.com	Randy	+1 346-307-9643 ext. 43141	ABR001	Purchase Now for Delivery by Tuesday | Arabella Bouquets 12 Stems of Fresh Cut Red Roses in a Free Designer Glass Vase	1	0	1	Expedited	Marbelys	46 CYPRESS ST APT 3			LAWRENCE	MA	01841-4531	US			false		
112-6115305-9374631	11350414665250	2020-07-07T09:54:39+00:00	2020-07-07T02:54:39-07:00	2020-07-07T10:23:12+00:00	2020-07-10T06:59:59+00:00	-3	rk54y5ncq9ttkwk@marketplace.amazon.com	Andy	+1 346-307-9643 ext. 39426	ABR0022	Purchase Now for Delivery by Thursday | Arabella Farm Direct Bouquet of 12 Fresh Cut Pink Roses with a Free Glass Vase	1	0	1	Expedited	Rhonda Fulginiti, Esq C/O OneLiberty Place	1650 MARKET ST STE 2800			PHILADELPHIA	PA	19103-7325	US		Welcome back to the office! Hope you have an amazing day. Love you Rhonda. From Andy	false		
