order-id	order-item-id	purchase-date	payments-date	reporting-date	promise-date	days-past-promise	buyer-email	buyer-name	buyer-phone-number	sku	product-name	quantity-purchased	quantity-shipped	quantity-to-ship	ship-service-level	recipient-name	ship-address-1	ship-address-2	ship-address-3	ship-city	ship-state	ship-postal-code	ship-country	gift-wrap-type	gift-message-text	is-business-order	purchase-order-number	price-designation
113-8104195-9840247	48667408009762	2020-07-07T00:49:07+00:00	2020-07-06T17:49:07-07:00	2020-07-07T01:18:54+00:00	2020-07-09T06:59:59+00:00	-2	lc7ttchg54ph8hl@marketplace.amazon.com	Gilbert Rodriquez	+1 346-307-9643 ext. 18554	ABM010	Purchase Now for Delivery by Thursday | The Spring Fling Bouquet by Arabella Bouquets with a Free Designer Glass Vase	1	0	1	Expedited	Gilbert Rodriquez	32604 N 197 PR NE			BENTON CITY	WA	99320-8593	US			false		
114-7573896-6315425	49472644829682	2020-07-07T14:26:35+00:00	2020-07-07T07:26:35-07:00	2020-07-07T14:56:18+00:00	2020-07-10T06:59:59+00:00	-3	6jmc83khqc4grt2@marketplace.amazon.com	Deborah Grossi	+1 346-307-9643 ext. 50401	ABM010	Purchase Now for Delivery by Thursday | The Spring Fling Bouquet by Arabella Bouquets with a Free Designer Glass Vase	1	0	1	Expedited	Deb Grossi	41 RIDGE RD			ROCKWOOD	ME	04478-3414	US			false		
113-6683168-0501058	14935955019722	2020-07-07T17:54:34+00:00	2020-07-07T10:54:34-07:00	2020-07-07T18:19:06+00:00	2020-07-10T06:59:59+00:00	-3	y40jlvflnpbbh8m@marketplace.amazon.com	JULIE PALMER	+1 346-307-9643 ext. 99140	ABR0055	Purchase Now for Delivery by Friday | Arabella Farm Direct Bouquet of 12 Stems of Fresh Cut Hot Pink Roses in a Free Designer Glass Vase	1	0	1	Expedited	Mrs Emma Walters	8236 GRAY CT			ARVADA	CO	80003-1838	US		A Very Happy Birthday Emma  Love you and miss you so much, have a lovely day sweetheart From With All My Love Mum xxxxxxx	false		
111-7722233-9351452	08275286518698	2020-07-07T17:56:23+00:00	2020-07-07T10:56:23-07:00	2020-07-07T18:21:55+00:00	2020-07-10T06:59:59+00:00	-3	r1llcsqm09rhj43@marketplace.amazon.com	Rosemary Dyson	+1 314-282-9402 ext. 22077	ABR0066	Purchase Now for Delivery by Friday | Arabella Bouquets 12 Stems of Fresh Cut White Roses in a Free Designer Glass Vase	1	0	1	Expedited	Mrs R Kogstad	191A N DURKEE HL	LANE HERITAGE VILLAGE		SOUTHBURY	CT	06488-1400	US			false		
113-0487459-6309854	09295862014930	2020-07-07T17:58:33+00:00	2020-07-07T10:58:33-07:00	2020-07-07T18:25:46+00:00	2020-07-10T06:59:59+00:00	-3	vfcr7h625nh0f80@marketplace.amazon.com	Linda Leone	+1 346-307-9643 ext. 92571	ABR0022	Purchase Now for Delivery by Friday | Arabella Farm Direct Bouquet of 12 Fresh Cut Pink Roses with a Free Glass Vase	1	0	1	Expedited	Josephine Cristy	68 assembly point drive			Cleverdale	Ny	12820	US		Wishing u a very happy birthday.   Love always , the Leone family and baby Lucio From Linda Leone	false		
112-1157614-3197813	14768894737250	2020-07-07T18:18:34+00:00	2020-07-07T11:18:34-07:00	2020-07-07T18:46:00+00:00	2020-07-10T06:59:59+00:00	-3	36tdnpw6y5k1b33@marketplace.amazon.com	Angie	+1 346-307-9643 ext. 27711	ABR0022	Purchase Now for Delivery by Friday | Arabella Farm Direct Bouquet of 12 Fresh Cut Pink Roses with a Free Glass Vase	1	0	1	Expedited	Allen	1720 DEER RUN DR			HARRISON	AR	72601-3936	US		Dear Allen,  Bonnie,  Happy Anniversary!  Love you , From Angie	false		
114-0320889-9052276	20571537570258	2020-07-07T20:39:18+00:00	2020-07-07T13:39:18-07:00	2020-07-07T20:58:10+00:00	2020-07-10T06:59:59+00:00	-3	8992l3whhmbvvns@marketplace.amazon.com	A. Northcote	+1 346-307-9643 ext. 02843	ABR0022	Purchase Now for Delivery by Friday | Arabella Farm Direct Bouquet of 12 Fresh Cut Pink Roses with a Free Glass Vase	1	0	1	Expedited	Breanna Sheppard	2000 TRAFFIC WAY			ATASCADERO	CA	93422-1523	US		Hey Girly! Just wanted you to know I’m thinking of you.  Thank you for being a part of the “BEST DAY EVER”  I love you. Read Jeremiah  29:11  and claim it Sister.  God is true to his word! I promise !!! From Amy Sheppard	false		
113-6978483-7478600	60575503675586	2020-07-07T20:39:22+00:00	2020-07-07T13:39:22-07:00	2020-07-07T21:07:54+00:00	2020-07-10T06:59:59+00:00	-3	78pdjp8q84nc5ym@marketplace.amazon.com	Melissa	+1 346-307-9643 ext. 46406	ABM010	The Spring Fling Bouquet by Arabella Bouquets with a Free Designer Glass Vase	1	0	1	Standard	Jenny Hutchinson	3853 FONG RANCH RD			SACRAMENTO	CA	95834-1685	US		Welcome home, Jenny and Baby Evelyn, From Melissa, Mark and Charlotte	false		
114-6309448-9599412	22876846571658	2020-07-07T20:40:32+00:00	2020-07-07T13:40:32-07:00	2020-07-07T21:09:35+00:00	2020-07-10T06:59:59+00:00	-3	vzs6yxdgbxrmrb1@marketplace.amazon.com	Chinar hpt	+1 346-307-9643 ext. 95282	ABR0022	Purchase Now for Delivery by Friday | Arabella Farm Direct Bouquet of 12 Fresh Cut Pink Roses with a Free Glass Vase	1	0	1	Expedited	Nilay Neeranjun	3110 PEACHTREE CIR			DAVIE	FL	33328-6705	US		Congratulations Mr.Neeranjun on SQRE <3 From 'Laaav&#34;	false		
113-0333869-7097858	43408533808378	2020-07-07T20:45:41+00:00	2020-07-07T13:45:41-07:00	2020-07-07T21:15:20+00:00	2020-07-10T06:59:59+00:00	-3	s8w50tfdd0wzkn6@marketplace.amazon.com	Tiffany Grossen	+1 346-307-9643 ext. 34534	ABB001	Arabella Farm Direct Fresh Cut White Hydrangea	1	0	1	Expedited	Tiffany Grossen	801 E SAN ANGELO AVE			GILBERT	AZ	85234-3513	US			false		
114-2822494-1198667	07068534597970	2020-07-07T20:56:57+00:00	2020-07-07T13:56:57-07:00	2020-07-07T21:26:22+00:00	2020-07-10T06:59:59+00:00	-3	n1kd85n9h43q5tj@marketplace.amazon.com	Joanna Begg	+1 415-851-9136 ext. 73680	ABR0022	Purchase Now for Delivery by Friday | Arabella Farm Direct Bouquet of 12 Fresh Cut Pink Roses with a Free Glass Vase	1	0	1	Expedited	Judy Spitz	2376 NOTT ST E			SCHENECTADY	NY	12309-4350	US		Thank you for all of your love and support. By sharing Joanne with me, your friendship has changed my life...again From Joanna Begg	false		
112-7801171-1875464	33535632784578	2020-07-07T21:56:06+00:00	2020-07-07T14:56:06-07:00	2020-07-07T21:56:58+00:00	2020-07-10T06:59:59+00:00	-3	1zl8zympc8h3khv@marketplace.amazon.com	Caroline Hurst	+1 347-448-3190 ext. 64142	ABR0022	Purchase Now for Delivery by Friday | Arabella Farm Direct Bouquet of 12 Fresh Cut Pink Roses with a Free Glass Vase	1	0	1	Expedited	Mrs Pat Clark	333 HILLVIEW DR			HURST	TX	76054-3526	US		To Pat and Mike, Just a little a token of our love - which is always with you, no matter how far apart we are. Keeping you in our thoughts and prayers. Lots and lots of love from Caroline and Paul. xxx From Caroline Hurst	false		
112-6211955-6433041	59917319189586	2020-07-07T21:46:48+00:00	2020-07-07T14:46:48-07:00	2020-07-07T22:15:36+00:00	2020-07-10T06:59:59+00:00	-3	n6753yr5h5ng7b1@marketplace.amazon.com	Jake	+1 210-728-4548 ext. 12998	ABM010	Purchase Now for Delivery by Friday | The Spring Fling Bouquet by Arabella Bouquets with a Free Designer Glass Vase	1	0	1	Expedited	Kellie Smith	945 S CEDAR ST APT 4			MASON	MI	48854-2073	US			false		
111-8900534-4084245	36500983593426	2020-07-07T22:05:57+00:00	2020-07-07T15:05:57-07:00	2020-07-07T22:30:28+00:00	2020-07-10T06:59:59+00:00	-3	01rhvytq6tys8w9@marketplace.amazon.com	Carolyne Bartolome	+1 314-282-9402 ext. 91036	ABR0022	Purchase Now for Delivery by Friday | Arabella Farm Direct Bouquet of 12 Fresh Cut Pink Roses with a Free Glass Vase	1	0	1	Expedited	Doris Chau	1246 24TH AVE			SAN FRANCISCO	CA	94122-1615	US			false		
112-3132667-9415432	51667127590282	2020-07-07T22:15:19+00:00	2020-07-07T15:15:19-07:00	2020-07-07T22:43:59+00:00	2020-07-10T06:59:59+00:00	-3	ywkqhxv58vcqvhb@marketplace.amazon.com	Nicolas Carrizo	+1 346-307-9643 ext. 61486	ABR0055	Purchase Now for Delivery by Friday | Arabella Farm Direct Bouquet of 12 Stems of Fresh Cut Hot Pink Roses in a Free Designer Glass Vase	1	0	1	Expedited	Blanca vega	9881 HARRELLS HWY			GARLAND	NC	28441-8527	US		Tan hermosas como tu😘.con mucho cariño para ti bombón From Nicolas Carrizo	false		
114-3690507-9929017	37479482705906	2020-07-07T22:43:24+00:00	2020-07-07T15:43:24-07:00	2020-07-07T22:44:26+00:00	2020-07-10T06:59:59+00:00	-3	kzxm19zsjy0jt9g@marketplace.amazon.com	Cori Chaplin	+1 346-307-9643 ext. 01877	ABR0022	Purchase Now for Delivery by Friday | Arabella Farm Direct Bouquet of 12 Fresh Cut Pink Roses with a Free Glass Vase	1	0	1	Expedited	Gilda Bocco	6 SUDELY GREEN CT			CHERRY HILL	NJ	08003-4411	US		Gilda, Mom, and Erica,  We are so sorry for your loss of your beloved Ozzie. We are thinking of you during this difficult time. We love you! From Love, Cori and Hagar	false		
111-0470603-7594665	11172834216442	2020-07-07T22:19:25+00:00	2020-07-07T15:19:25-07:00	2020-07-07T22:45:42+00:00	2020-07-10T06:59:59+00:00	-3	y600ywy7b930b52@marketplace.amazon.com	Reginald Baker	+1 347-448-3190 ext. 99893	ABR0022	Purchase Now for Delivery by Friday | Arabella Farm Direct Bouquet of 12 Fresh Cut Pink Roses with a Free Glass Vase	1	0	1	Expedited	Doris Baker	7933 BASS ST			NEW ORLEANS	LA	70128-1701	US			false		
111-8213854-2476227	56124368864698	2020-07-07T22:27:28+00:00	2020-07-07T15:27:28-07:00	2020-07-07T22:56:27+00:00	2020-07-10T06:59:59+00:00	-3	bw9wj71h9xszfsg@marketplace.amazon.com	Valerie Tipton	+1 346-307-9643 ext. 56482	ABR0022	Purchase Now for Delivery by Friday | Arabella Farm Direct Bouquet of 12 Fresh Cut Pink Roses with a Free Glass Vase	1	0	1	Expedited	Kris Betts	421 WESTMARK AVE			COLORADO SPRINGS	CO	80906-4726	US		Quarantine or not, you're the best sister around. From Valerie	false		
112-2617266-6013049	16447018529338	2020-07-07T22:46:01+00:00	2020-07-07T15:46:01-07:00	2020-07-07T23:11:30+00:00	2020-07-10T06:59:59+00:00	-3	k6sm8qkxccw4py9@marketplace.amazon.com	James Lopez	+1 346-307-9643 ext. 79491	ABR0022	Purchase Now for Delivery by Friday | Arabella Farm Direct Bouquet of 12 Fresh Cut Pink Roses with a Free Glass Vase	1	0	1	Expedited	David and Rachel Saxon	2006 BURROUGHS ST			SAN DIEGO	CA	92111-6619	US		Congratulations David and Rachel on the birth of your baby girl! We are so happy for you both and can't wait to meet her!  With love and blessings, From The CAPS Staff	false		
113-3259943-6361864	48717087740002	2020-07-07T22:51:45+00:00	2020-07-07T15:51:45-07:00	2020-07-07T23:19:12+00:00	2020-07-10T06:59:59+00:00	-3	xg3rk8w3zcf1041@marketplace.amazon.com	Silva Thomas	+1 210-728-4548 ext. 09369	ABR0022	Purchase Now for Delivery by Friday | Arabella Farm Direct Bouquet of 12 Fresh Cut Pink Roses with a Free Glass Vase	1	0	1	Expedited	Monique and Adam Hieber	36 THE BLVD			ONSTED	MI	49265-9705	US		Happy birthday sweetheart. Hope these will brighten your day! 🌹 Love ya ❤️ From Silva Thomas	false		
111-7721173-6785045	41210469898834	2020-07-07T22:58:30+00:00	2020-07-07T15:58:30-07:00	2020-07-07T23:27:28+00:00	2020-07-10T06:59:59+00:00	-3	4bb4tdyc1lm0m7f@marketplace.amazon.com	Jada Smith	+1 346-307-9643 ext. 48214	ABR0022	Purchase Now for Delivery by Friday | Arabella Farm Direct Bouquet of 12 Fresh Cut Pink Roses with a Free Glass Vase	1	0	1	Expedited	Tresury Blake-Marlow	548 NEWTOWN RD AOT 415			VIRGINIA BEACH	VA	23462-5500	US		Congratulations Deputy Blake-Marlow! I am so proud of you. I love you so much it hurts 😭❤️ From Jada Smith	false		
113-8670576-3473806	57465904891354	2020-07-07T23:19:11+00:00	2020-07-07T16:19:11-07:00	2020-07-07T23:43:11+00:00	2020-07-10T06:59:59+00:00	-3	8bx6z8xzx4ln3gs@marketplace.amazon.com	Alexis oakley	+1 346-307-9643 ext. 74780	ABR0022	Purchase Now for Delivery by Friday | Arabella Farm Direct Bouquet of 12 Fresh Cut Pink Roses with a Free Glass Vase	1	0	1	Expedited	Buffy Smith	3114 W LANGUID LN			PHOENIX	AZ	85086-2231	US			false		
114-6707995-7594603	32350785984418	2020-07-07T23:31:17+00:00	2020-07-07T16:31:17-07:00	2020-07-07T23:58:33+00:00	2020-07-10T06:59:59+00:00	-3	gxnjl1pppqlnjkm@marketplace.amazon.com	Thang Duong	+1 346-307-9643 ext. 06840	ABR0022	Purchase Now for Delivery by Friday | Arabella Farm Direct Bouquet of 12 Fresh Cut Pink Roses with a Free Glass Vase	1	0	1	Expedited	Joan Henkle	11696 TARRYNOT LN			CARMEL	IN	46033-9688	US		Happy birthday Joan! From Thang Duong	false		
114-7147874-4241066	54888087536954	2020-07-07T23:53:29+00:00	2020-07-07T16:53:29-07:00	2020-07-08T00:06:21+00:00	2020-07-10T06:59:59+00:00	-3	20jqzbzqphtmqh7@marketplace.amazon.com	janet ibironke	+1 314-282-9402 ext. 02613	ABR0022	Purchase Now for Delivery by Friday | Arabella Farm Direct Bouquet of 12 Fresh Cut Pink Roses with a Free Glass Vase	1	0	1	Standard	Chito Uyanwune	35579 DOMANI DR			PALM DESERT	CA	92211-4570	US		Happy Birthday Aunty Chito. Hope you have a very beautiful day. Love  Kathryn	false		
114-6617382-4696260	14376964436842	2020-07-07T23:41:13+00:00	2020-07-07T16:41:13-07:00	2020-07-08T00:09:25+00:00	2020-07-10T06:59:59+00:00	-3	t48q8nlwt1m76hq@marketplace.amazon.com	Jack McNelly	+1 346-307-9643 ext. 49171	ABR0055	Purchase Now for Delivery by Friday | Arabella Farm Direct Bouquet of 12 Stems of Fresh Cut Hot Pink Roses in a Free Designer Glass Vase	1	0	1	Expedited	Taylor Kitten	10006A WALDEN ST			SODDY DAISY	TN	37379-4920	US		Thank you for being you. Never lose confidence, never compromise. Demand to be pampered, a beautiful girl deserves it everyday. Love always... From Jack	false		
111-2171392-1251440	25130066743410	2020-07-07T23:55:50+00:00	2020-07-07T16:55:50-07:00	2020-07-08T00:23:18+00:00	2020-07-10T06:59:59+00:00	-3	vc2hjy6p39jlzzn@marketplace.amazon.com	MASHAL	+1 346-307-9643 ext. 93352	ABR0022	Purchase Now for Delivery by Friday | Arabella Farm Direct Bouquet of 12 Fresh Cut Pink Roses with a Free Glass Vase	1	0	1	Expedited	Uzma Masood	2502 STEPHENS GRANT DR			SUGAR LAND	TX	77479-2246	US		A little something to brighten up my badass chachi’s WFH office! Love you :) From MASHAL	false		
113-7411614-7917822	53242202269642	2020-07-07T23:54:16+00:00	2020-07-07T16:54:16-07:00	2020-07-08T00:24:04+00:00	2020-07-10T06:59:59+00:00	-3	w0v1ztnngthkr14@marketplace.amazon.com	Dura Temple Curry	+1 314-282-9402 ext. 04864	ABR0022	Purchase Now for Delivery by Friday | Arabella Farm Direct Bouquet of 12 Fresh Cut Pink Roses with a Free Glass Vase	1	0	1	Expedited	Mark Curry and Susan Danscher	81 SCARLETT DR			COMMACK	NY	11725-4636	US		Our thoughts are with you.   Love, Matthew and Dura From Matthew Curry	false		
111-4288618-7019466	63472594632954	2020-07-08T00:32:24+00:00	2020-07-07T17:32:24-07:00	2020-07-08T00:44:16+00:00	2020-07-10T06:59:59+00:00	-3	mz59gvmwk1kqjj6@marketplace.amazon.com	Lori A. Meyer	+1 314-282-9402 ext. 32358	ABR0022	Purchase Now for Delivery by Friday | Arabella Farm Direct Bouquet of 12 Fresh Cut Pink Roses with a Free Glass Vase	1	0	1	Expedited	Sally Logsdon	841 E COURTNEY LN			TEMPE	AZ	85284-4008	US		DP&K is so lucky to have you!  Thanks just isn't enough!  You're amazing & appreciated!  Sending hugs and a great big "Thank You"! From Lori	false		
