order-id	order-item-id	purchase-date	payments-date	reporting-date	promise-date	days-past-promise	buyer-email	buyer-name	buyer-phone-number	sku	product-name	quantity-purchased	quantity-shipped	quantity-to-ship	ship-service-level	recipient-name	ship-address-1	ship-address-2	ship-address-3	ship-city	ship-state	ship-postal-code	ship-country	gift-wrap-type	gift-message-text	is-business-order	purchase-order-number	price-designation
113-6683168-0501058	14935955019722	2020-07-07T17:54:34+00:00	2020-07-07T10:54:34-07:00	2020-07-07T18:19:06+00:00	2020-07-10T06:59:59+00:00	-2	y40jlvflnpbbh8m@marketplace.amazon.com	JULIE PALMER	+1 346-307-9643 ext. 99140	ABR0055	Purchase Now for Delivery by Friday | Arabella Farm Direct Bouquet of 12 Stems of Fresh Cut Hot Pink Roses in a Free Designer Glass Vase	1	0	1	Expedited	Mrs Emma Walters	8236 GRAY CT			ARVADA	CO	80003-1838	US		A Very Happy Birthday Emma  Love you and miss you so much, have a lovely day sweetheart From With All My Love Mum xxxxxxx	false		
111-7722233-9351452	08275286518698	2020-07-07T17:56:23+00:00	2020-07-07T10:56:23-07:00	2020-07-07T18:21:55+00:00	2020-07-10T06:59:59+00:00	-2	r1llcsqm09rhj43@marketplace.amazon.com	Rosemary Dyson	+1 314-282-9402 ext. 22077	ABR0066	Purchase Now for Delivery by Friday | Arabella Bouquets 12 Stems of Fresh Cut White Roses in a Free Designer Glass Vase	1	0	1	Expedited	Mrs R Kogstad	191A N DURKEE HL	LANE HERITAGE VILLAGE		SOUTHBURY	CT	06488-1400	US			false		
113-0487459-6309854	09295862014930	2020-07-07T17:58:33+00:00	2020-07-07T10:58:33-07:00	2020-07-07T18:25:46+00:00	2020-07-10T06:59:59+00:00	-2	vfcr7h625nh0f80@marketplace.amazon.com	Linda Leone	+1 346-307-9643 ext. 92571	ABR0022	Purchase Now for Delivery by Friday | Arabella Farm Direct Bouquet of 12 Fresh Cut Pink Roses with a Free Glass Vase	1	0	1	Expedited	Josephine Cristy	68 assembly point drive			Cleverdale	Ny	12820	US		Wishing u a very happy birthday.   Love always , the Leone family and baby Lucio From Linda Leone	false		
112-1157614-3197813	14768894737250	2020-07-07T18:18:34+00:00	2020-07-07T11:18:34-07:00	2020-07-07T18:46:00+00:00	2020-07-10T06:59:59+00:00	-2	36tdnpw6y5k1b33@marketplace.amazon.com	Angie	+1 346-307-9643 ext. 27711	ABR0022	Purchase Now for Delivery by Friday | Arabella Farm Direct Bouquet of 12 Fresh Cut Pink Roses with a Free Glass Vase	1	0	1	Expedited	Allen	1720 DEER RUN DR			HARRISON	AR	72601-3936	US		Dear Allen,  Bonnie,  Happy Anniversary!  Love you , From Angie	false		
114-0320889-9052276	20571537570258	2020-07-07T20:39:18+00:00	2020-07-07T13:39:18-07:00	2020-07-07T20:58:10+00:00	2020-07-10T06:59:59+00:00	-2	8992l3whhmbvvns@marketplace.amazon.com	A. Northcote	+1 346-307-9643 ext. 02843	ABR0022	Purchase Now for Delivery by Friday | Arabella Farm Direct Bouquet of 12 Fresh Cut Pink Roses with a Free Glass Vase	1	0	1	Expedited	Breanna Sheppard	2000 TRAFFIC WAY			ATASCADERO	CA	93422-1523	US		Hey Girly! Just wanted you to know I’m thinking of you.  Thank you for being a part of the “BEST DAY EVER”  I love you. Read Jeremiah  29:11  and claim it Sister.  God is true to his word! I promise !!! From Amy Sheppard	false		
113-6978483-7478600	60575503675586	2020-07-07T20:39:22+00:00	2020-07-07T13:39:22-07:00	2020-07-07T21:07:54+00:00	2020-07-10T06:59:59+00:00	-2	78pdjp8q84nc5ym@marketplace.amazon.com	Melissa	+1 346-307-9643 ext. 46406	ABM010	The Spring Fling Bouquet by Arabella Bouquets with a Free Designer Glass Vase	1	0	1	Standard	Jenny Hutchinson	3853 FONG RANCH RD			SACRAMENTO	CA	95834-1685	US		Welcome home, Jenny and Baby Evelyn, From Melissa, Mark and Charlotte	false		
114-6309448-9599412	22876846571658	2020-07-07T20:40:32+00:00	2020-07-07T13:40:32-07:00	2020-07-07T21:09:35+00:00	2020-07-10T06:59:59+00:00	-2	vzs6yxdgbxrmrb1@marketplace.amazon.com	Chinar hpt	+1 346-307-9643 ext. 95282	ABR0022	Purchase Now for Delivery by Friday | Arabella Farm Direct Bouquet of 12 Fresh Cut Pink Roses with a Free Glass Vase	1	0	1	Expedited	Nilay Neeranjun	3110 PEACHTREE CIR			DAVIE	FL	33328-6705	US		Congratulations Mr.Neeranjun on SQRE <3 From 'Laaav&#34;	false		
113-0333869-7097858	43408533808378	2020-07-07T20:45:41+00:00	2020-07-07T13:45:41-07:00	2020-07-07T21:15:20+00:00	2020-07-10T06:59:59+00:00	-2	s8w50tfdd0wzkn6@marketplace.amazon.com	Tiffany Grossen	+1 346-307-9643 ext. 34534	ABB001	Arabella Farm Direct Fresh Cut White Hydrangea	1	0	1	Expedited	Tiffany Grossen	801 E SAN ANGELO AVE			GILBERT	AZ	85234-3513	US			false		
114-2822494-1198667	07068534597970	2020-07-07T20:56:57+00:00	2020-07-07T13:56:57-07:00	2020-07-07T21:26:22+00:00	2020-07-10T06:59:59+00:00	-2	n1kd85n9h43q5tj@marketplace.amazon.com	Joanna Begg	+1 415-851-9136 ext. 73680	ABR0022	Purchase Now for Delivery by Friday | Arabella Farm Direct Bouquet of 12 Fresh Cut Pink Roses with a Free Glass Vase	1	0	1	Expedited	Judy Spitz	2376 NOTT ST E			SCHENECTADY	NY	12309-4350	US		Thank you for all of your love and support. By sharing Joanne with me, your friendship has changed my life...again From Joanna Begg	false		
112-7801171-1875464	33535632784578	2020-07-07T21:56:06+00:00	2020-07-07T14:56:06-07:00	2020-07-07T21:56:58+00:00	2020-07-10T06:59:59+00:00	-2	1zl8zympc8h3khv@marketplace.amazon.com	Caroline Hurst	+1 347-448-3190 ext. 64142	ABR0022	Purchase Now for Delivery by Friday | Arabella Farm Direct Bouquet of 12 Fresh Cut Pink Roses with a Free Glass Vase	1	0	1	Expedited	Mrs Pat Clark	333 HILLVIEW DR			HURST	TX	76054-3526	US		To Pat and Mike, Just a little a token of our love - which is always with you, no matter how far apart we are. Keeping you in our thoughts and prayers. Lots and lots of love from Caroline and Paul. xxx From Caroline Hurst	false		
112-6211955-6433041	59917319189586	2020-07-07T21:46:48+00:00	2020-07-07T14:46:48-07:00	2020-07-07T22:15:36+00:00	2020-07-10T06:59:59+00:00	-2	n6753yr5h5ng7b1@marketplace.amazon.com	Jake	+1 210-728-4548 ext. 12998	ABM010	Purchase Now for Delivery by Friday | The Spring Fling Bouquet by Arabella Bouquets with a Free Designer Glass Vase	1	0	1	Expedited	Kellie Smith	945 S CEDAR ST APT 4			MASON	MI	48854-2073	US			false		
111-8900534-4084245	36500983593426	2020-07-07T22:05:57+00:00	2020-07-07T15:05:57-07:00	2020-07-07T22:30:28+00:00	2020-07-10T06:59:59+00:00	-2	01rhvytq6tys8w9@marketplace.amazon.com	Carolyne Bartolome	+1 314-282-9402 ext. 91036	ABR0022	Purchase Now for Delivery by Friday | Arabella Farm Direct Bouquet of 12 Fresh Cut Pink Roses with a Free Glass Vase	1	0	1	Expedited	Doris Chau	1246 24TH AVE			SAN FRANCISCO	CA	94122-1615	US			false		
112-3132667-9415432	51667127590282	2020-07-07T22:15:19+00:00	2020-07-07T15:15:19-07:00	2020-07-07T22:43:59+00:00	2020-07-10T06:59:59+00:00	-2	ywkqhxv58vcqvhb@marketplace.amazon.com	Nicolas Carrizo	+1 346-307-9643 ext. 61486	ABR0055	Purchase Now for Delivery by Friday | Arabella Farm Direct Bouquet of 12 Stems of Fresh Cut Hot Pink Roses in a Free Designer Glass Vase	1	0	1	Expedited	Blanca vega	9881 HARRELLS HWY			GARLAND	NC	28441-8527	US		Tan hermosas como tu😘.con mucho cariño para ti bombón From Nicolas Carrizo	false		
114-3690507-9929017	37479482705906	2020-07-07T22:43:24+00:00	2020-07-07T15:43:24-07:00	2020-07-07T22:44:26+00:00	2020-07-10T06:59:59+00:00	-2	kzxm19zsjy0jt9g@marketplace.amazon.com	Cori Chaplin	+1 346-307-9643 ext. 01877	ABR0022	Purchase Now for Delivery by Friday | Arabella Farm Direct Bouquet of 12 Fresh Cut Pink Roses with a Free Glass Vase	1	0	1	Expedited	Gilda Bocco	6 SUDELY GREEN CT			CHERRY HILL	NJ	08003-4411	US		Gilda, Mom, and Erica,  We are so sorry for your loss of your beloved Ozzie. We are thinking of you during this difficult time. We love you! From Love, Cori and Hagar	false		
111-0470603-7594665	11172834216442	2020-07-07T22:19:25+00:00	2020-07-07T15:19:25-07:00	2020-07-07T22:45:42+00:00	2020-07-10T06:59:59+00:00	-2	y600ywy7b930b52@marketplace.amazon.com	Reginald Baker	+1 347-448-3190 ext. 99893	ABR0022	Purchase Now for Delivery by Friday | Arabella Farm Direct Bouquet of 12 Fresh Cut Pink Roses with a Free Glass Vase	1	0	1	Expedited	Doris Baker	7933 BASS ST			NEW ORLEANS	LA	70128-1701	US			false		
111-8213854-2476227	56124368864698	2020-07-07T22:27:28+00:00	2020-07-07T15:27:28-07:00	2020-07-07T22:56:27+00:00	2020-07-10T06:59:59+00:00	-2	bw9wj71h9xszfsg@marketplace.amazon.com	Valerie Tipton	+1 346-307-9643 ext. 56482	ABR0022	Purchase Now for Delivery by Friday | Arabella Farm Direct Bouquet of 12 Fresh Cut Pink Roses with a Free Glass Vase	1	0	1	Expedited	Kris Betts	421 WESTMARK AVE			COLORADO SPRINGS	CO	80906-4726	US		Quarantine or not, you're the best sister around. From Valerie	false		
112-2617266-6013049	16447018529338	2020-07-07T22:46:01+00:00	2020-07-07T15:46:01-07:00	2020-07-07T23:11:30+00:00	2020-07-10T06:59:59+00:00	-2	k6sm8qkxccw4py9@marketplace.amazon.com	James Lopez	+1 346-307-9643 ext. 79491	ABR0022	Purchase Now for Delivery by Friday | Arabella Farm Direct Bouquet of 12 Fresh Cut Pink Roses with a Free Glass Vase	1	0	1	Expedited	David and Rachel Saxon	2006 BURROUGHS ST			SAN DIEGO	CA	92111-6619	US		Congratulations David and Rachel on the birth of your baby girl! We are so happy for you both and can't wait to meet her!  With love and blessings, From The CAPS Staff	false		
113-3259943-6361864	48717087740002	2020-07-07T22:51:45+00:00	2020-07-07T15:51:45-07:00	2020-07-07T23:19:12+00:00	2020-07-10T06:59:59+00:00	-2	xg3rk8w3zcf1041@marketplace.amazon.com	Silva Thomas	+1 210-728-4548 ext. 09369	ABR0022	Purchase Now for Delivery by Friday | Arabella Farm Direct Bouquet of 12 Fresh Cut Pink Roses with a Free Glass Vase	1	0	1	Expedited	Monique and Adam Hieber	36 THE BLVD			ONSTED	MI	49265-9705	US		Happy birthday sweetheart. Hope these will brighten your day! 🌹 Love ya ❤️ From Silva Thomas	false		
111-7721173-6785045	41210469898834	2020-07-07T22:58:30+00:00	2020-07-07T15:58:30-07:00	2020-07-07T23:27:28+00:00	2020-07-10T06:59:59+00:00	-2	4bb4tdyc1lm0m7f@marketplace.amazon.com	Jada Smith	+1 346-307-9643 ext. 48214	ABR0022	Purchase Now for Delivery by Friday | Arabella Farm Direct Bouquet of 12 Fresh Cut Pink Roses with a Free Glass Vase	1	0	1	Expedited	Tresury Blake-Marlow	548 NEWTOWN RD AOT 415			VIRGINIA BEACH	VA	23462-5500	US		Congratulations Deputy Blake-Marlow! I am so proud of you. I love you so much it hurts 😭❤️ From Jada Smith	false		
113-8670576-3473806	57465904891354	2020-07-07T23:19:11+00:00	2020-07-07T16:19:11-07:00	2020-07-07T23:43:11+00:00	2020-07-10T06:59:59+00:00	-2	8bx6z8xzx4ln3gs@marketplace.amazon.com	Alexis oakley	+1 346-307-9643 ext. 74780	ABR0022	Purchase Now for Delivery by Friday | Arabella Farm Direct Bouquet of 12 Fresh Cut Pink Roses with a Free Glass Vase	1	0	1	Expedited	Buffy Smith	3114 W LANGUID LN			PHOENIX	AZ	85086-2231	US			false		
114-6707995-7594603	32350785984418	2020-07-07T23:31:17+00:00	2020-07-07T16:31:17-07:00	2020-07-07T23:58:33+00:00	2020-07-10T06:59:59+00:00	-2	gxnjl1pppqlnjkm@marketplace.amazon.com	Thang Duong	+1 346-307-9643 ext. 06840	ABR0022	Purchase Now for Delivery by Friday | Arabella Farm Direct Bouquet of 12 Fresh Cut Pink Roses with a Free Glass Vase	1	0	1	Expedited	Joan Henkle	11696 TARRYNOT LN			CARMEL	IN	46033-9688	US		Happy birthday Joan! From Thang Duong	false		
114-7147874-4241066	54888087536954	2020-07-07T23:53:29+00:00	2020-07-07T16:53:29-07:00	2020-07-08T00:06:21+00:00	2020-07-10T06:59:59+00:00	-2	20jqzbzqphtmqh7@marketplace.amazon.com	janet ibironke	+1 314-282-9402 ext. 02613	ABR0022	Purchase Now for Delivery by Friday | Arabella Farm Direct Bouquet of 12 Fresh Cut Pink Roses with a Free Glass Vase	1	0	1	Standard	Chito Uyanwune	35579 DOMANI DR			PALM DESERT	CA	92211-4570	US		Happy Birthday Aunty Chito. Hope you have a very beautiful day. Love  Kathryn	false		
114-6617382-4696260	14376964436842	2020-07-07T23:41:13+00:00	2020-07-07T16:41:13-07:00	2020-07-08T00:09:25+00:00	2020-07-10T06:59:59+00:00	-2	t48q8nlwt1m76hq@marketplace.amazon.com	Jack McNelly	+1 346-307-9643 ext. 49171	ABR0055	Purchase Now for Delivery by Friday | Arabella Farm Direct Bouquet of 12 Stems of Fresh Cut Hot Pink Roses in a Free Designer Glass Vase	1	0	1	Expedited	Taylor Kitten	10006A WALDEN ST			SODDY DAISY	TN	37379-4920	US		Thank you for being you. Never lose confidence, never compromise. Demand to be pampered, a beautiful girl deserves it everyday. Love always... From Jack	false		
111-2171392-1251440	25130066743410	2020-07-07T23:55:50+00:00	2020-07-07T16:55:50-07:00	2020-07-08T00:23:18+00:00	2020-07-10T06:59:59+00:00	-2	vc2hjy6p39jlzzn@marketplace.amazon.com	MASHAL	+1 346-307-9643 ext. 93352	ABR0022	Purchase Now for Delivery by Friday | Arabella Farm Direct Bouquet of 12 Fresh Cut Pink Roses with a Free Glass Vase	1	0	1	Expedited	Uzma Masood	2502 STEPHENS GRANT DR			SUGAR LAND	TX	77479-2246	US		A little something to brighten up my badass chachi’s WFH office! Love you :) From MASHAL	false		
113-7411614-7917822	53242202269642	2020-07-07T23:54:16+00:00	2020-07-07T16:54:16-07:00	2020-07-08T00:24:04+00:00	2020-07-10T06:59:59+00:00	-2	w0v1ztnngthkr14@marketplace.amazon.com	Dura Temple Curry	+1 314-282-9402 ext. 04864	ABR0022	Purchase Now for Delivery by Friday | Arabella Farm Direct Bouquet of 12 Fresh Cut Pink Roses with a Free Glass Vase	1	0	1	Expedited	Mark Curry and Susan Danscher	81 SCARLETT DR			COMMACK	NY	11725-4636	US		Our thoughts are with you.   Love, Matthew and Dura From Matthew Curry	false		
111-4288618-7019466	63472594632954	2020-07-08T00:32:24+00:00	2020-07-07T17:32:24-07:00	2020-07-08T00:44:16+00:00	2020-07-10T06:59:59+00:00	-2	mz59gvmwk1kqjj6@marketplace.amazon.com	Lori A. Meyer	+1 314-282-9402 ext. 32358	ABR0022	Purchase Now for Delivery by Friday | Arabella Farm Direct Bouquet of 12 Fresh Cut Pink Roses with a Free Glass Vase	1	0	1	Expedited	Sally Logsdon	841 E COURTNEY LN			TEMPE	AZ	85284-4008	US		DP&K is so lucky to have you!  Thanks just isn't enough!  You're amazing & appreciated!  Sending hugs and a great big "Thank You"! From Lori	false		
111-0757583-0743441	06458079038842	2020-07-08T00:35:32+00:00	2020-07-07T17:35:32-07:00	2020-07-08T01:04:16+00:00	2020-07-10T06:59:59+00:00	-2	mz59gvmwk1kqjj6@marketplace.amazon.com	Lori A. Meyer	+1 415-851-9136 ext. 63335	ABR0022	Purchase Now for Delivery by Friday | Arabella Farm Direct Bouquet of 12 Fresh Cut Pink Roses with a Free Glass Vase	1	0	1	Expedited	Kim Shown	1704 W SUMMIT PL			CHANDLER	AZ	85224-1251	US		DP&K is so lucky to have you!  Thanks just isn't enough!  You're amazing & appreciated!  Sending hugs and a great big "Thank You"! From Lori	false		
112-2791321-9477803	70021596524930	2020-07-08T01:14:44+00:00	2020-07-07T18:14:44-07:00	2020-07-08T01:42:04+00:00	2020-07-10T06:59:59+00:00	-2	yk9bgjj5sdtnfq1@marketplace.amazon.com	Wanda Jackson-Scott	+1 346-307-9643 ext. 06175	ABR0022	Purchase Now for Delivery by Friday | Arabella Farm Direct Bouquet of 12 Fresh Cut Pink Roses with a Free Glass Vase	1	0	1	Expedited	Ms. Beverly S Sapp	14520 GANDESA RD			LAMIRADA	CA	90638-4457	US		Happy Belated Birthday Bev! Thanks for being YOU! A real Jewel. Love Wanda From Wanda Jackson-Scott	false		
112-5527706-7987420	24885551570050	2020-07-08T01:35:01+00:00	2020-07-07T18:35:01-07:00	2020-07-08T02:04:03+00:00	2020-07-10T06:59:59+00:00	-2	l5b311y6rkkx96r@marketplace.amazon.com	Mark	+1 347-448-3190 ext. 16386	ABR0022	Purchase Now for Delivery by Friday | Arabella Farm Direct Bouquet of 12 Fresh Cut Pink Roses with a Free Glass Vase	1	0	1	Expedited	Olesya	6171 METROWEST BLVD UNIT 301			ORLANDO	FL	32835-2976	US			false		
113-8851414-6330613	63203243088066	2020-07-08T02:01:10+00:00	2020-07-07T19:01:10-07:00	2020-07-08T02:29:52+00:00	2020-07-10T06:59:59+00:00	-2	rk1t8sgcy4chk8w@marketplace.amazon.com	branka epps	+1 346-307-9643 ext. 96343	ABR0022	Purchase Now for Delivery by Friday | Arabella Farm Direct Bouquet of 12 Fresh Cut Pink Roses with a Free Glass Vase	1	0	1	Expedited	Biljana Glogovac	813 TIMBER TRAIL DR			NAPERVILLE	IL	60565-2703	US		Draga nasa Biljo, srecan ti rodjendan! Na mnogaja ljeta u zdravlju i sreci!  Vole te tvoji Epsici... From branka epps	false		
112-8584844-5996266	51263661193218	2020-07-08T02:20:27+00:00	2020-07-07T19:20:27-07:00	2020-07-08T02:39:54+00:00	2020-07-10T06:59:59+00:00	-2	rj7vpchrk67zxww@marketplace.amazon.com	Ma. Guadalupe	+1 415-851-9136 ext. 39267	ABR0022	Purchase Now for Delivery by Friday | Arabella Farm Direct Bouquet of 12 Fresh Cut Pink Roses with a Free Glass Vase	1	0	1	Expedited	Mauricio Ortiz	5233 W HUTCHINSON ST			CHICAGO	IL	60641-1450	US		Feliz cumpleaños tía! Quiero que sepa que ha sido una gran bendición para mi y un gran ejemplo de fortaleza y de amor. Que Dios Padre siga derramando bendiciones en su vida. La quiero mucho tía, reciba este detalle con todo mi cariño, Lupita Ortiz	false		
112-9129037-5263463	47425103453394	2020-07-08T02:26:39+00:00	2020-07-07T19:26:39-07:00	2020-07-08T02:55:03+00:00	2020-07-10T06:59:59+00:00	-2	8xlty6x1b0qzmg7@marketplace.amazon.com	sherrieattila	+1 346-307-9643 ext. 85047	ABR0022	Purchase Now for Delivery by Friday | Arabella Farm Direct Bouquet of 12 Fresh Cut Pink Roses with a Free Glass Vase	1	0	1	Expedited	Mary Sliter --Health Central Park	411 N DILLARD ST RM 502A			WINTER GARDEN	FL	34787-2816	US		Happy Birthday friend, Wish we could share your day in person. Thanks for inviting Art to your B Day party 36 years ago. We are still so blessed by your friendship. We love you. Sending hugs & prayers! Art & Sher From Art & Sherrie	false		
112-8381656-8722646	14066998378410	2020-07-08T02:27:42+00:00	2020-07-07T19:27:42-07:00	2020-07-08T02:57:23+00:00	2020-07-10T06:59:59+00:00	-2	4tlgx2vqbz7mb2t@marketplace.amazon.com	Caroline Raftopol	+1 347-448-3190 ext. 24143	ABR014	Arabella Bouquets 18 Stems of Fresh Cut White Roses in a Free Designer Glass Vase	1	0	1	Expedited	Caroline Raftopol	85 SOUTHFIELD RD			MOUNT VERNON	NY	10552-1352	US			false		
114-0756422-1943430	23860736519586	2020-07-08T02:34:02+00:00	2020-07-07T19:34:02-07:00	2020-07-08T02:58:26+00:00	2020-07-10T06:59:59+00:00	-2	06x90k69lw54w1g@marketplace.amazon.com	Kristie Hurst	+1 210-728-4548 ext. 47951	ABR0022	Purchase Now for Delivery by Friday | Arabella Farm Direct Bouquet of 12 Fresh Cut Pink Roses with a Free Glass Vase	1	0	1	Expedited	Kristie Hurst	LAR 1425 NEW BRIDGE RD			MINERAL	VA	23117-4955	US		You're unforgettable darlin From Matt	false		
112-8841716-4817043	42196829179466	2020-07-08T02:40:25+00:00	2020-07-07T19:40:25-07:00	2020-07-08T03:06:50+00:00	2020-07-10T06:59:59+00:00	-2	mb7z7f1xvr79lcn@marketplace.amazon.com	Russell Bowen	+1 314-282-9402 ext. 03267	ABM010	Purchase Now for Delivery by Friday | The Spring Fling Bouquet by Arabella Bouquets with a Free Designer Glass Vase	1	0	1	Expedited	Rebekah Tello	14410 TIFFER LN			AUSTIN	TX	78728-6724	US		Thinking of you!!! Prayers and hugs for a good recovery. We love you bunches Paula & Russell , Brookelyn From Paula & Russell  Bowen	false		
113-2528288-5438647	66530882940714	2020-07-08T03:09:12+00:00	2020-07-07T20:09:12-07:00	2020-07-08T03:30:10+00:00	2020-07-10T06:59:59+00:00	-2	hzs7zssb72c558y@marketplace.amazon.com	Robert Green, Jr.	+1 346-307-9643 ext. 72858	ABM002	Arabella Bouquets Fresh Cut White Calla Lilies in a Free Designer Glass Vase	1	0	1	Expedited	Stephany Green	920 METCALF AVE APT 14G			BRONX	NEW YORK	10473-4021	US		Hey Stephany,     Happy New Year  "  41 Times & Then Some !!!! " From  Love,  Ariel Grace & Her Grandpa	false		
114-7239350-2482641	27170346183754	2020-07-08T04:12:12+00:00	2020-07-07T21:12:12-07:00	2020-07-08T04:42:06+00:00	2020-07-10T06:59:59+00:00	-2	y1fhw4wyvmyjm50@marketplace.amazon.com	Michael Lively	+1 347-448-3190 ext. 63492	ABR0033	Purchase Now for Delivery by Friday | Arabella Farm Direct Bouquet of 12 Fresh Cut Orange Roses with a Free Glass Vase	1	0	1	Expedited	Georgianna Kuhlman	3905 NE 134TH AVE			PORTLAND	OR	97230-2710	US			false		
113-2969629-5126633	51658760371114	2020-07-08T04:29:59+00:00	2020-07-07T21:29:59-07:00	2020-07-08T04:59:28+00:00	2020-07-10T06:59:59+00:00	-2	g2tg1cjxxjf1vwv@marketplace.amazon.com	terence purifoye	+1 346-307-9643 ext. 59892	ABR014	Arabella Bouquets 18 Stems of Fresh Cut White Roses in a Free Designer Glass Vase	1	0	1	Expedited	Tanya DAntignac	4805 EGRET ST			MESQUITE	TX	75181-4904	US			false		
112-2472856-7685805	37744456978354	2020-07-08T04:40:49+00:00	2020-07-07T21:40:49-07:00	2020-07-08T05:06:55+00:00	2020-07-10T06:59:59+00:00	-2	y9gc27n5dvpgbsl@marketplace.amazon.com	Jill orina	+1 346-307-9643 ext. 17390	ABR012	Arabella Farm Direct Bouquet of 18 Fresh Cut Pink Roses with a Free Glass Vase	1	0	1	Expedited	Sarah Yocum	253 W WALNUT ST			LEBANON	KY	40033-1456	US			false		
112-5127905-1590608	40980826417938	2020-07-08T04:55:45+00:00	2020-07-07T21:55:45-07:00	2020-07-08T05:12:47+00:00	2020-07-10T06:59:59+00:00	-2	4ps7fzvsvkltnz9@marketplace.amazon.com	scott	+1 347-448-3190 ext. 34877	ABR0033	Purchase Now for Delivery by Friday | Arabella Farm Direct Bouquet of 12 Fresh Cut Orange Roses with a Free Glass Vase	1	0	1	Expedited	Dianna Fikaris	805 E 18TH AVE APT 15			DENVER	CO	80218-1061	US			false		
112-5809494-5965013	31840104465026	2020-07-08T04:55:45+00:00	2020-07-07T21:55:45-07:00	2020-07-08T05:16:09+00:00	2020-07-10T06:59:59+00:00	-2	4ps7fzvsvkltnz9@marketplace.amazon.com	scott	+1 346-307-9643 ext. 34703	ABR001	Purchase Now for Delivery by Friday | Arabella Bouquets 12 Stems of Fresh Cut Red Roses in a Free Designer Glass Vase	1	0	1	Expedited	Anne Fikaris	8 ZIFF LN			PRINCETON JUNCTION	NJ	08550-1622	US			false		
112-5809494-5965013	66321008492602	2020-07-08T04:55:45+00:00	2020-07-07T21:55:45-07:00	2020-07-08T05:16:09+00:00	2020-07-10T06:59:59+00:00	-2	4ps7fzvsvkltnz9@marketplace.amazon.com	scott	+1 346-307-9643 ext. 34703	ABR0066	Purchase Now for Delivery by Friday | Arabella Bouquets 12 Stems of Fresh Cut White Roses in a Free Designer Glass Vase	1	0	1	Expedited	Anne Fikaris	8 ZIFF LN			PRINCETON JUNCTION	NJ	08550-1622	US			false		
113-1083789-8765867	68691811626050	2020-07-08T05:35:37+00:00	2020-07-07T22:35:37-07:00	2020-07-08T06:01:12+00:00	2020-07-10T06:59:59+00:00	-2	vqsn0pjl51ctm1b@marketplace.amazon.com	Ferdie A	+1 415-851-9136 ext. 12177	ABR0022	Purchase Now for Delivery by Friday | Arabella Farm Direct Bouquet of 12 Fresh Cut Pink Roses with a Free Glass Vase	1	0	1	Expedited	Esther Kamp	31328 TOBIAH PL			CASTAIC	CA	91384-2527	US		Dearest Esther  Wishing you a speedy recovery. From Penelope Aglubat and family	false		
114-9940548-9625017	42721663296970	2020-07-08T05:38:03+00:00	2020-07-07T22:38:03-07:00	2020-07-08T06:06:50+00:00	2020-07-10T06:59:59+00:00	-2	ry6j5lmc89q0t22@marketplace.amazon.com	Alan M Bacharach	+1 346-307-9643 ext. 75644	ABR0022	Purchase Now for Delivery by Friday | Arabella Farm Direct Bouquet of 12 Fresh Cut Pink Roses with a Free Glass Vase	1	0	1	Expedited	Tirtza Truzman Rosenthal	58 Tamarack Lane			Sterling Forest	NY	10979	US			false		
113-5910418-3005858	59738155787082	2020-07-08T06:16:13+00:00	2020-07-07T23:16:13-07:00	2020-07-08T06:46:20+00:00	2020-07-10T06:59:59+00:00	-2	6lwg1d3wmls74v1@marketplace.amazon.com	Kristina P. Cheng	+1 346-307-9643 ext. 77446	ABR0022	Purchase Now for Delivery by Friday | Arabella Farm Direct Bouquet of 12 Fresh Cut Pink Roses with a Free Glass Vase	1	0	1	Expedited	Kristina Serge ChenG Boroditsky	1990 O SHEA LN			MARIETTA	GA	30062-5470	US			false		
111-8453264-9916213	06310059256418	2020-07-08T06:33:34+00:00	2020-07-07T23:33:34-07:00	2020-07-08T07:03:44+00:00	2020-07-10T06:59:59+00:00	-2	6pnv5kw1rczzspv@marketplace.amazon.com	Niall McGrath	00447751559336	ABR001	Purchase Now for Delivery by Friday | Arabella Bouquets 12 Stems of Fresh Cut Red Roses in a Free Designer Glass Vase	1	0	1	Expedited	Ms Jessica Woodard	3856 W Alameda Road	Glendale		Phoenix	Arizona	85310-3302	US			false		
114-7341215-1363404	53628081323322	2020-07-08T10:02:06+00:00	2020-07-08T03:02:06-07:00	2020-07-08T10:30:14+00:00	2020-07-11T06:59:59+00:00	-3	5qfmkfn04p29yym@marketplace.amazon.com	Melinda Zavala	+1 346-307-9643 ext. 29240	ABM010	Purchase Now for Delivery by Friday | The Spring Fling Bouquet by Arabella Bouquets with a Free Designer Glass Vase	1	0	1	Expedited	Micaelea Kindel	6320 E STASSNEY LN			AUSTIN	TX	78744-3133	US		Baby Sis! Very proud of you and all your accomplishments. From Nenna	false		
114-5567283-9934665	34122767936162	2020-07-08T13:29:08+00:00	2020-07-08T06:29:08-07:00	2020-07-08T13:47:35+00:00	2020-07-11T06:59:59+00:00	-3	g6cw025mxl7d041@marketplace.amazon.com	Manzoor Hussain	+1 346-307-9643 ext. 24752	ABR0055	Purchase Now for Delivery by Friday | Arabella Farm Direct Bouquet of 12 Stems of Fresh Cut Hot Pink Roses in a Free Designer Glass Vase	1	0	1	Expedited	silma Rodragu	3300 SAN ARMANDO			MISSION	TX	78572-0514	US		Enjoy your gift!   Happy to move in your new home.  Manzoor Hussain From Manzoor Hussain	false		
114-2881162-6491445	42983883939530	2020-07-08T13:34:53+00:00	2020-07-08T06:34:53-07:00	2020-07-08T13:58:50+00:00	2020-07-11T06:59:59+00:00	-3	c5y12dmnlsv5m1z@marketplace.amazon.com	Bekim Koci	+1 346-307-9643 ext. 04667	ABM010	Purchase Now for Delivery by Friday | The Spring Fling Bouquet by Arabella Bouquets with a Free Designer Glass Vase	1	0	1	Standard	Sadan Atay	6801 NE 28TH AVE	VANCOUVER WA 98665		VANCOUVER	WA	98665-0727	US		Just thinking of how beautiful you are and for that reason, I thought of these beautiful flowers as a gift to you! From Bekim Koci	false		
112-7998209-2758630	53823095599514	2020-07-08T13:40:04+00:00	2020-07-08T06:40:04-07:00	2020-07-08T14:07:45+00:00	2020-07-11T06:59:59+00:00	-3	kfkwyqdyfljjfsf@marketplace.amazon.com	KARRIE R ANDERSON	+1 314-282-9402 ext. 44029	ABR0022	Purchase Now for Delivery by Friday | Arabella Farm Direct Bouquet of 12 Fresh Cut Pink Roses with a Free Glass Vase	1	0	1	Expedited	Soldavini & Caldwell CPA, PA	ANNETTE 5455 JAEGER RD			NAPLES	FL	34109-5805	US		THANK YOU SO MUCH FOR HELP WITH EVERYTHING YOU DO FOR ME! KIP From KIP	false		
113-5086692-2357023	45809534336930	2020-07-08T13:42:26+00:00	2020-07-08T06:42:26-07:00	2020-07-08T14:12:19+00:00	2020-07-11T06:59:59+00:00	-3	xl26rfm2gq208tf@marketplace.amazon.com	helene roberson	+1 314-282-9402 ext. 86529	ABR011	Purchase Now for Delivery by Friday | Arabella Bouquets 18 Stems of Fresh Cut Red Roses in a Free Glass Vase	1	0	1	Expedited	Lorraine Gerardo	2 PLEASANT VIEW CIR			DAYTONA BEACH	FL	32118-5511	US		Love you always, Helene and Jack From helene roberson	false		
111-4431716-0776218	68033340154602	2020-07-08T13:56:03+00:00	2020-07-08T06:56:03-07:00	2020-07-08T14:24:35+00:00	2020-07-11T06:59:59+00:00	-3	t6z642m8skx4sjb@marketplace.amazon.com	Jessica O'Brien	+1 346-307-9643 ext. 76750	ABR0022	Purchase Now for Delivery by Friday | Arabella Farm Direct Bouquet of 12 Fresh Cut Pink Roses with a Free Glass Vase	1	0	1	Expedited	DENISE VOLPE	39 SALAMANDER CT			STATEN ISLAND	NY	10309-1930	US		Our Deepest Sympathy. Your NYCID family	true		
112-1453436-3578636	05127935075730	2020-07-08T14:16:20+00:00	2020-07-08T07:16:20-07:00	2020-07-08T14:46:14+00:00	2020-07-11T06:59:59+00:00	-3	cdg01v15g09031v@marketplace.amazon.com	Maureen Dunn	+1 346-307-9643 ext. 32577	ABR0022	Purchase Now for Delivery by Friday | Arabella Farm Direct Bouquet of 12 Fresh Cut Pink Roses with a Free Glass Vase	1	0	1	Expedited	Gail Veillette	32 MCDONALD DR			CHICOPEE	MA	01020-4942	US		Hi Gail, Enjoy your gift! From Maureen Dunn	false		
111-9636692-7824210	02864890605266	2020-07-08T14:18:46+00:00	2020-07-08T07:18:46-07:00	2020-07-08T14:48:01+00:00	2020-07-11T06:59:59+00:00	-3	4ymmk43vh2q8qx5@marketplace.amazon.com	Tomas	+1 210-728-4548 ext. 56381	ABR0022	Purchase Now for Delivery by Friday | Arabella Farm Direct Bouquet of 12 Fresh Cut Pink Roses with a Free Glass Vase	1	0	1	Expedited	Claudia Baluarte Salvador	2428 PUEBLO BONITO CT NW			ALBUQUERQUE	NM	87104-1945	US		Te extraño mucho Chito!! Ya quiero volver a verte. Te amo mucho De Tomas	false		
114-1987727-2478632	00215954187186	2020-07-08T14:46:20+00:00	2020-07-08T07:46:20-07:00	2020-07-08T15:15:36+00:00	2020-07-11T06:59:59+00:00	-3	vkdklrbblspyl0l@marketplace.amazon.com	william	+1 210-728-4548 ext. 60535	ABR001	Purchase Now for Delivery by Friday | Arabella Bouquets 12 Stems of Fresh Cut Red Roses in a Free Designer Glass Vase	1	0	1	Expedited	LYNN BALBACK	APARTMENT 1621 PARK SIDE CT	SHERIDAN		SHERIDAN	WY	82801-6735	US		Hi LYNN,  I love you to the moon and back , now and forever. Happy birthday sunshine.i just can't wait to be by your side.   Your love Donald Ferguson	false		
113-2667700-5313000	15380035871026	2020-07-08T14:57:21+00:00	2020-07-08T07:57:21-07:00	2020-07-08T15:25:53+00:00	2020-07-11T06:59:59+00:00	-3	bk8lp6mhgk4x4zv@marketplace.amazon.com	dan richardson	+1 346-307-9643 ext. 92223	ABM010	Purchase Now for Delivery by Friday | The Spring Fling Bouquet by Arabella Bouquets with a Free Designer Glass Vase	1	0	1	Expedited	Aza Martinovic	4217 VILLAGE HILLS ST			LAS VEGAS	NV	89147-7890	US		Happy Retirement! From: The Richardson Family From dan richardson	false		
113-8213278-7359400	68577702580362	2020-07-08T15:03:50+00:00	2020-07-08T08:03:50-07:00	2020-07-08T15:30:30+00:00	2020-07-11T06:59:59+00:00	-3	n42hpxjcjkpp7cy@marketplace.amazon.com	monica nebhnani	+1 346-307-9643 ext. 65247	ABR0022	Purchase Now for Delivery by Friday | Arabella Farm Direct Bouquet of 12 Fresh Cut Pink Roses with a Free Glass Vase	1	0	1	Expedited	Patrice Brusko	362 OAK RIDGE LN			HARLEYSVILLE	PA	19438-4308	US		Dear P,  I’m so sorry for your loss. I will miss Maya. Seeing pictures of Maya would always make me happy. She will be missed. From Aanchal, Banty, Ace & Axl	false		
113-6641555-8387443	51186807897210	2020-07-08T15:22:43+00:00	2020-07-08T08:22:43-07:00	2020-07-08T15:41:14+00:00	2020-07-11T06:59:59+00:00	-3	82vzmkcrpsjprsv@marketplace.amazon.com	LaTonya Jemison	+1 347-448-3190 ext. 87364	ABR0022	Purchase Now for Delivery by Friday | Arabella Farm Direct Bouquet of 12 Fresh Cut Pink Roses with a Free Glass Vase	1	0	1	Expedited	Mickesia Parker	3004 VILLAGE RIDGE DR			CALERA	AL	35040-1140	US		Happy Birthday! Enjoy your day, sweet friend! From Tonya, Stephen, & Ace	false		
112-0707706-7864206	21872926439258	2020-07-08T15:54:33+00:00	2020-07-08T08:54:33-07:00	2020-07-08T16:16:35+00:00	2020-07-11T06:59:59+00:00	-3	dknl4vk3nk4z0jl@marketplace.amazon.com	Bob Warford	+1 346-307-9643 ext. 61927	ABM010	Purchase Now for Delivery by Friday | The Spring Fling Bouquet by Arabella Bouquets with a Free Designer Glass Vase	1	0	1	Expedited	Stephanie Warford	43106 76TH AVE			DECATUR	MI	49045-9167	US			false		
112-6879242-0370615	05214190230386	2020-07-08T15:59:07+00:00	2020-07-08T08:59:07-07:00	2020-07-08T16:23:25+00:00	2020-07-11T06:59:59+00:00	-3	5dwkqnlrwd67108@marketplace.amazon.com	Patty McQuade	+1 347-448-3190 ext. 15540	ABR001	Purchase Now for Delivery by Friday | Arabella Bouquets 12 Stems of Fresh Cut Red Roses in a Free Designer Glass Vase	1	0	1	Expedited	Kerry Welch	313 TODD RD			KATONAH	NY	10536-2516	US		Happy Birthday sweet Kerry! We love you and miss you so much!! Enjoy your beautiful roses ! From Love, Terry and Patty McQuade	false		
111-7537959-2117002	56220236834786	2020-07-08T16:13:47+00:00	2020-07-08T09:13:47-07:00	2020-07-08T16:43:16+00:00	2020-07-11T06:59:59+00:00	-3	c4bmjlqr7hnnbw0@marketplace.amazon.com	Curt Smith	+1 314-282-9402 ext. 55036	ABR0055	Purchase Now for Delivery by Friday | Arabella Farm Direct Bouquet of 12 Stems of Fresh Cut Hot Pink Roses in a Free Designer Glass Vase	1	0	1	Expedited	Junyi Li	688 110TH AVE NE APT 409			BELLEVUE	WA	98004-8442	US		Happy Day! From  - curt	false		
