order-id	order-item-id	purchase-date	payments-date	reporting-date	promise-date	days-past-promise	buyer-email	buyer-name	buyer-phone-number	sku	product-name	quantity-purchased	quantity-shipped	quantity-to-ship	ship-service-level	recipient-name	ship-address-1	ship-address-2	ship-address-3	ship-city	ship-state	ship-postal-code	ship-country	gift-wrap-type	gift-message-text	is-business-order	purchase-order-number	price-designation
114-4521252-9075451	59432373954826	2020-07-08T17:40:42+00:00	2020-07-08T10:40:42-07:00	2020-07-08T18:10:02+00:00	2020-07-11T06:59:59+00:00	-3	x8zntp3565sz03k@marketplace.amazon.com	J E P	+1 210-728-4548 ext. 87423	ABR0022	Purchase Now for Delivery by Monday | Arabella Farm Direct Bouquet of 12 Fresh Cut Pink Roses with a Free Glass Vase	1	0	1	Expedited	Gloria Leus	6201 GATOR PL			CLINTON	MD	20735-3973	US		Hello Tita Gloria! I hope you are recovering quickly from surgery.  God bless! Love, Jennifer From Jennifer Escano Pohren	false		
114-6931298-8787400	40423897725954	2020-07-08T18:07:32+00:00	2020-07-08T11:07:32-07:00	2020-07-08T18:35:25+00:00	2020-07-11T06:59:59+00:00	-3	yxbd5v7qdhx8k1l@marketplace.amazon.com	Steward Solano	+1 314-282-9402 ext. 80146	ABR0055	Purchase Now for Delivery by Monday | Arabella Farm Direct Bouquet of 12 Stems of Fresh Cut Hot Pink Roses in a Free Designer Glass Vase	1	0	1	Expedited	Steward Solano	1136 PROSPECT ST EWING NJ 08638			EWING	NJ	08638-4806	US		Amor muchas felicidades en este día de tu cumpleaños, deseando que Dios te brinde vida,salud y que disfrutes tu día, Te Amo De Steward Solano	false		
112-7556493-1442609	01891991776618	2020-07-08T18:13:02+00:00	2020-07-08T11:13:02-07:00	2020-07-08T18:42:10+00:00	2020-07-11T06:59:59+00:00	-3	n3vw8b3xqph5ld2@marketplace.amazon.com	Rhonda Pritchett	+1 346-307-9643 ext. 94994	ABM010	Purchase Now for Delivery by Monday | The Spring Fling Bouquet by Arabella Bouquets with a Free Designer Glass Vase	1	0	1	Expedited	Erin Wright	155 BOWEN ST APT 6			CARROLLTON	GA	30117-4284	US		I love you and everything will be ok Mom From Rhonda Pritchett	false		
114-1832771-5604222	05858973352218	2020-07-08T18:47:20+00:00	2020-07-08T11:47:20-07:00	2020-07-08T18:53:45+00:00	2020-07-11T06:59:59+00:00	-3	50gkv8mvsrzgy9b@marketplace.amazon.com	mary e white	+1 415-851-9136 ext. 34094	ABR0066	Purchase Now for Delivery by Monday | Arabella Bouquets 12 Stems of Fresh Cut White Roses in a Free Designer Glass Vase	1	0	1	Expedited	Maureen butler	340 S US HIGHWAY 1			JUPITER	FL	33477-5928	US			false		
113-1895014-7046653	34772688386826	2020-07-08T18:49:51+00:00	2020-07-08T11:49:51-07:00	2020-07-08T19:18:40+00:00	2020-07-11T06:59:59+00:00	-3	rpwg2sw751ngb4v@marketplace.amazon.com	craig shimizu	+1 347-448-3190 ext. 83162	ABR0022	Purchase Now for Delivery by Monday | Arabella Farm Direct Bouquet of 12 Fresh Cut Pink Roses with a Free Glass Vase	1	0	1	Expedited	Amanda Crosby	2523 GROVE CIR			LITTLE ROCK	AR	72205-5919	US		Happy belated birthday dear sweet sister! From Allison	false		
111-3686517-3253859	57930165001218	2020-07-08T19:16:55+00:00	2020-07-08T12:16:55-07:00	2020-07-08T19:46:52+00:00	2020-07-11T06:59:59+00:00	-3	xcs2bsp8pzxsndh@marketplace.amazon.com	Tamara Renuart	+1 415-851-9136 ext. 90632	ABR0022	Purchase Now for Delivery by Monday | Arabella Farm Direct Bouquet of 12 Fresh Cut Pink Roses with a Free Glass Vase	1	0	1	Expedited	Shannon Young	25444 COLE ST			LOMA LINDA	CA	92354-3106	US			false		
114-1736263-7285849	23407163213050	2020-07-08T19:19:04+00:00	2020-07-08T12:19:04-07:00	2020-07-08T19:47:51+00:00	2020-07-11T06:59:59+00:00	-3	gb5j4g99qz5h0dh@marketplace.amazon.com	Daniel J Hupp	+1 346-307-9643 ext. 56041	ABR001	Purchase Now for Delivery by Monday | Arabella Bouquets 12 Stems of Fresh Cut Red Roses in a Free Designer Glass Vase	1	0	1	Expedited	Rice Family	12609 CRABTREE FALLS DR			BRISTOW	VA	20136-2162	US		We had so much fun at the beach and so thankful for the entire Rice family. From Hupp family	false		
112-6901520-9679411	16636440148922	2020-07-08T19:47:31+00:00	2020-07-08T12:47:31-07:00	2020-07-08T20:16:31+00:00	2020-07-11T06:59:59+00:00	-3	qj9fjy4p7s3nqfx@marketplace.amazon.com	Edward Babbage	+1 210-728-4548 ext. 93340	ABM010	Purchase Now for Delivery by Monday | The Spring Fling Bouquet by Arabella Bouquets with a Free Designer Glass Vase	1	0	1	Expedited	Cindy Cavoto	270 ASHBURY ST			ST AUGUSTINE	FL	32092-0035	US		Cindy, I just want you to know how grateful I am for you! I think you're such a wonderful person, and I feel truly blessed to know you :-)  Sincerely, Eddie From Eddie	false		
112-8834356-7272204	27103324822914	2020-07-08T20:26:13+00:00	2020-07-08T13:26:13-07:00	2020-07-08T20:46:00+00:00	2020-07-11T06:59:59+00:00	-3	s9jnjy2y9sb6jff@marketplace.amazon.com	Frederick Zlaket	+1 347-448-3190 ext. 20447	ABR012	Arabella Farm Direct Bouquet of 18 Fresh Cut Pink Roses with a Free Glass Vase	1	0	1	Expedited	Dr. and Mrs. George Ayoub	3910 E EQUESTRIAN TRL			PHOENIX	AZ	85044-3011	US		Dear George and Christine, Congratulations on your precious baby girl Amelia Leila! May God keep showering His blessings upon you. We can't wait to meet your new bundle of joy.  Much love, The Zlaket's From The Zlaket Family	false		
112-3467966-1902604	16966467998674	2020-07-08T20:25:48+00:00	2020-07-08T13:25:48-07:00	2020-07-08T20:54:41+00:00	2020-07-11T06:59:59+00:00	-3	nn19crl9cc8yrlh@marketplace.amazon.com	MARC	+1 346-307-9643 ext. 40192	ABR0022	Purchase Now for Delivery by Monday | Arabella Farm Direct Bouquet of 12 Fresh Cut Pink Roses with a Free Glass Vase	1	0	1	Expedited	Symone Watts	1740 W TAYLOR ST RM # E718A			CHICAGO	IL	60612-7232	US		Get well soon Capricorn. Take care BIGHEAD From From the Great AQUARIUS	false		
111-3149415-9477037	33233674141986	2020-07-08T20:30:32+00:00	2020-07-08T13:30:32-07:00	2020-07-08T20:59:14+00:00	2020-07-11T06:59:59+00:00	-3	8g75mf9nhfryzl9@marketplace.amazon.com	Ralph Wayne Troutman, Jr.	+1 346-307-9643 ext. 29702	ABM010	Purchase Now for Delivery by Monday | The Spring Fling Bouquet by Arabella Bouquets with a Free Designer Glass Vase	1	0	1	Expedited	Miss Bonnie Carpenter	8729 HARGRAVE ST			PHILADELPHIA	PA	19152-2145	US		We think of you often and keep you in our prayers! Hope you have a good day! From Love, Rol, Amber, Dahne & Hudson	false		
112-0600535-4437053	17072144880594	2020-07-08T21:01:14+00:00	2020-07-08T14:01:14-07:00	2020-07-08T21:30:46+00:00	2020-07-11T06:59:59+00:00	-3	n8l5slmk23sn6tp@marketplace.amazon.com	Debra Lewis	+1 210-728-4548 ext. 48757	ABR0022	Purchase Now for Delivery by Monday | Arabella Farm Direct Bouquet of 12 Fresh Cut Pink Roses with a Free Glass Vase	1	0	1	Expedited	Debra Lewis	9421 FAIRGROUND RD			LOUISVILLE	KY	40291-1456	US			false		
114-3006755-7977061	42165350002698	2020-07-08T21:18:04+00:00	2020-07-08T14:18:04-07:00	2020-07-08T21:48:16+00:00	2020-07-11T06:59:59+00:00	-3	3yp2t77m40h6y97@marketplace.amazon.com	Val Edwards	+1 346-307-9643 ext. 05879	ABR0022	Purchase Now for Delivery by Monday | Arabella Farm Direct Bouquet of 12 Fresh Cut Pink Roses with a Free Glass Vase	1	0	1	Expedited	Melissa Wheeler	1460 VINEGAR HILL RD			BIGGERS	AR	72413-9767	US			false		
114-3314690-3367413	19425848941202	2020-07-08T21:54:50+00:00	2020-07-08T14:54:50-07:00	2020-07-08T22:22:06+00:00	2020-07-11T06:59:59+00:00	-3	7s1y0cnnm3nx4jy@marketplace.amazon.com	David Cheslek	+1 314-282-9402 ext. 14320	ABM010	Purchase Now for Delivery by Monday | The Spring Fling Bouquet by Arabella Bouquets with a Free Designer Glass Vase	1	0	1	Expedited	Dan Cheslek	65 IDA RED AVE APT 310			SPARTA	MI	49345-1291	US		We love and miss you very much From David Cheslek	false		
114-4159613-5666620	34485118294906	2020-07-08T21:53:17+00:00	2020-07-08T14:53:17-07:00	2020-07-08T22:22:57+00:00	2020-07-11T06:59:59+00:00	-3	fyrybdz2dj33sl2@marketplace.amazon.com	Joseluis Carrizalez	+1 210-728-4548 ext. 82364	ABR0022	Purchase Now for Delivery by Monday | Arabella Farm Direct Bouquet of 12 Fresh Cut Pink Roses with a Free Glass Vase	1	0	1	Expedited	Itzayana Hernandez	13005 HEINEMANN DR APT 701			AUSTIN	TX	78727-6120	US		I love you baby! I wish I could be home more often, soon I will be. From Joseluis Carrizalez	false		
111-4455375-6619451	16636817850450	2020-07-08T22:35:55+00:00	2020-07-08T15:35:55-07:00	2020-07-08T23:04:51+00:00	2020-07-11T06:59:59+00:00	-3	vq445jxhpvsrpdf@marketplace.amazon.com	Casey Christian	+1 314-282-9402 ext. 07642	ABM010	Purchase Now for Delivery by Monday | The Spring Fling Bouquet by Arabella Bouquets with a Free Designer Glass Vase	1	0	1	Expedited	Annie Maguire	366 SHORELINE HWY			MILL VALLEY	CA	94941-3854	US		Hope these brighten your day like you do mine!! Hang in there Annie! You're the Best!! XOXO From Casey Christian	false		
111-8573612-7885851	03033237655578	2020-07-08T23:40:00+00:00	2020-07-08T16:40:00-07:00	2020-07-08T23:57:34+00:00	2020-07-11T06:59:59+00:00	-3	pbx554dvnbvq5kc@marketplace.amazon.com	Ying Wang	+1 210-728-4548 ext. 99805	ABM010	Purchase Now for Delivery by Monday | The Spring Fling Bouquet by Arabella Bouquets with a Free Designer Glass Vase	1	0	1	Expedited	Cheryl Lea	21122 SUNNY RDG			LAKE FOREST	CA	92630-6726	US		Hope you have speedy recovery and feel better soon! From Wendy Wang	false		
114-4479181-9848260	43565677760578	2020-07-08T23:54:55+00:00	2020-07-08T16:54:55-07:00	2020-07-09T00:25:14+00:00	2020-07-11T06:59:59+00:00	-3	dl95zkprcsbnnft@marketplace.amazon.com	Jessica Williams	+1 346-307-9643 ext. 85497	ABM010	Purchase Now for Delivery by Monday | The Spring Fling Bouquet by Arabella Bouquets with a Free Designer Glass Vase	1	0	1	Expedited	Darlene Williams	166 WALTON ST			PORTLAND	ME	04103-3413	US			false		
112-0697308-4681002	27121950986578	2020-07-09T00:27:19+00:00	2020-07-08T17:27:19-07:00	2020-07-09T00:55:21+00:00	2020-07-11T06:59:59+00:00	-3	ktms37562nzq6bn@marketplace.amazon.com	Ronald W. Ochner	+1 346-307-9643 ext. 85393	ABR0055	Purchase Now for Delivery by Monday | Arabella Farm Direct Bouquet of 12 Stems of Fresh Cut Hot Pink Roses in a Free Designer Glass Vase	1	0	1	Expedited	Cheryl Ditaranto	226 GUILFORD AVE			HADDON TOWNSHIP	NJ	08108-1706	US			false		
111-8556798-9113051	47207517150394	2020-07-09T01:07:13+00:00	2020-07-08T18:07:13-07:00	2020-07-09T01:33:54+00:00	2020-07-11T06:59:59+00:00	-3	tm9m7hzg23vmqd9@marketplace.amazon.com	David Nick Urbanek	+1 346-307-9643 ext. 13938	ABR0022	Purchase Now for Delivery by Monday | Arabella Farm Direct Bouquet of 12 Fresh Cut Pink Roses with a Free Glass Vase	1	0	1	Expedited	Jessica Costa	2521 MILLER AVE APT 19			MODESTO	CA	95354-3176	US		I thought you deserved these for all your hard work helping covid patients and just being you! (: From Nick Urbanek	false		
