order-id	order-item-id	purchase-date	payments-date	reporting-date	promise-date	days-past-promise	buyer-email	buyer-name	buyer-phone-number	sku	product-name	quantity-purchased	quantity-shipped	quantity-to-ship	ship-service-level	recipient-name	ship-address-1	ship-address-2	ship-address-3	ship-city	ship-state	ship-postal-code	ship-country	gift-wrap-type	gift-message-text	is-business-order	purchase-order-number	price-designation
114-4521252-9075451	59432373954826	2020-07-08T17:40:42+00:00	2020-07-08T10:40:42-07:00	2020-07-08T18:10:02+00:00	2020-07-11T06:59:59+00:00	-2	x8zntp3565sz03k@marketplace.amazon.com	J E P	+1 210-728-4548 ext. 87423	ABR0022	Purchase Now for Delivery by Monday | Arabella Farm Direct Bouquet of 12 Fresh Cut Pink Roses with a Free Glass Vase	1	0	1	Expedited	Gloria Leus	6201 GATOR PL			CLINTON	MD	20735-3973	US		Hello Tita Gloria! I hope you are recovering quickly from surgery.  God bless! Love, Jennifer From Jennifer Escano Pohren	false		
114-6931298-8787400	40423897725954	2020-07-08T18:07:32+00:00	2020-07-08T11:07:32-07:00	2020-07-08T18:35:25+00:00	2020-07-11T06:59:59+00:00	-2	yxbd5v7qdhx8k1l@marketplace.amazon.com	Steward Solano	+1 314-282-9402 ext. 80146	ABR0055	Purchase Now for Delivery by Monday | Arabella Farm Direct Bouquet of 12 Stems of Fresh Cut Hot Pink Roses in a Free Designer Glass Vase	1	0	1	Expedited	Steward Solano	1136 PROSPECT ST EWING NJ 08638			EWING	NJ	08638-4806	US		Amor muchas felicidades en este día de tu cumpleaños, deseando que Dios te brinde vida,salud y que disfrutes tu día, Te Amo De Steward Solano	false		
112-7556493-1442609	01891991776618	2020-07-08T18:13:02+00:00	2020-07-08T11:13:02-07:00	2020-07-08T18:42:10+00:00	2020-07-11T06:59:59+00:00	-2	n3vw8b3xqph5ld2@marketplace.amazon.com	Rhonda Pritchett	+1 346-307-9643 ext. 94994	ABM010	Purchase Now for Delivery by Monday | The Spring Fling Bouquet by Arabella Bouquets with a Free Designer Glass Vase	1	0	1	Expedited	Erin Wright	155 BOWEN ST APT 6			CARROLLTON	GA	30117-4284	US		I love you and everything will be ok Mom From Rhonda Pritchett	false		
114-1832771-5604222	05858973352218	2020-07-08T18:47:20+00:00	2020-07-08T11:47:20-07:00	2020-07-08T18:53:45+00:00	2020-07-11T06:59:59+00:00	-2	50gkv8mvsrzgy9b@marketplace.amazon.com	mary e white	+1 415-851-9136 ext. 34094	ABR0066	Purchase Now for Delivery by Monday | Arabella Bouquets 12 Stems of Fresh Cut White Roses in a Free Designer Glass Vase	1	0	1	Expedited	Maureen butler	340 S US HIGHWAY 1			JUPITER	FL	33477-5928	US			false		
113-1895014-7046653	34772688386826	2020-07-08T18:49:51+00:00	2020-07-08T11:49:51-07:00	2020-07-08T19:18:40+00:00	2020-07-11T06:59:59+00:00	-2	rpwg2sw751ngb4v@marketplace.amazon.com	craig shimizu	+1 347-448-3190 ext. 83162	ABR0022	Purchase Now for Delivery by Monday | Arabella Farm Direct Bouquet of 12 Fresh Cut Pink Roses with a Free Glass Vase	1	0	1	Expedited	Amanda Crosby	2523 GROVE CIR			LITTLE ROCK	AR	72205-5919	US		Happy belated birthday dear sweet sister! From Allison	false		
111-3686517-3253859	57930165001218	2020-07-08T19:16:55+00:00	2020-07-08T12:16:55-07:00	2020-07-08T19:46:52+00:00	2020-07-11T06:59:59+00:00	-2	xcs2bsp8pzxsndh@marketplace.amazon.com	Tamara Renuart	+1 415-851-9136 ext. 90632	ABR0022	Purchase Now for Delivery by Monday | Arabella Farm Direct Bouquet of 12 Fresh Cut Pink Roses with a Free Glass Vase	1	0	1	Expedited	Shannon Young	25444 COLE ST			LOMA LINDA	CA	92354-3106	US			false		
114-1736263-7285849	23407163213050	2020-07-08T19:19:04+00:00	2020-07-08T12:19:04-07:00	2020-07-08T19:47:51+00:00	2020-07-11T06:59:59+00:00	-2	gb5j4g99qz5h0dh@marketplace.amazon.com	Daniel J Hupp	+1 346-307-9643 ext. 56041	ABR001	Purchase Now for Delivery by Monday | Arabella Bouquets 12 Stems of Fresh Cut Red Roses in a Free Designer Glass Vase	1	0	1	Expedited	Rice Family	12609 CRABTREE FALLS DR			BRISTOW	VA	20136-2162	US		We had so much fun at the beach and so thankful for the entire Rice family. From Hupp family	false		
112-6901520-9679411	16636440148922	2020-07-08T19:47:31+00:00	2020-07-08T12:47:31-07:00	2020-07-08T20:16:31+00:00	2020-07-11T06:59:59+00:00	-2	qj9fjy4p7s3nqfx@marketplace.amazon.com	Edward Babbage	+1 210-728-4548 ext. 93340	ABM010	Purchase Now for Delivery by Monday | The Spring Fling Bouquet by Arabella Bouquets with a Free Designer Glass Vase	1	0	1	Expedited	Cindy Cavoto	270 ASHBURY ST			ST AUGUSTINE	FL	32092-0035	US		Cindy, I just want you to know how grateful I am for you! I think you're such a wonderful person, and I feel truly blessed to know you :-)  Sincerely, Eddie From Eddie	false		
112-8834356-7272204	27103324822914	2020-07-08T20:26:13+00:00	2020-07-08T13:26:13-07:00	2020-07-08T20:46:00+00:00	2020-07-11T06:59:59+00:00	-2	s9jnjy2y9sb6jff@marketplace.amazon.com	Frederick Zlaket	+1 347-448-3190 ext. 20447	ABR012	Arabella Farm Direct Bouquet of 18 Fresh Cut Pink Roses with a Free Glass Vase	1	0	1	Expedited	Dr. and Mrs. George Ayoub	3910 E EQUESTRIAN TRL			PHOENIX	AZ	85044-3011	US		Dear George and Christine, Congratulations on your precious baby girl Amelia Leila! May God keep showering His blessings upon you. We can't wait to meet your new bundle of joy.  Much love, The Zlaket's From The Zlaket Family	false		
112-3467966-1902604	16966467998674	2020-07-08T20:25:48+00:00	2020-07-08T13:25:48-07:00	2020-07-08T20:54:41+00:00	2020-07-11T06:59:59+00:00	-2	nn19crl9cc8yrlh@marketplace.amazon.com	MARC	+1 346-307-9643 ext. 40192	ABR0022	Purchase Now for Delivery by Monday | Arabella Farm Direct Bouquet of 12 Fresh Cut Pink Roses with a Free Glass Vase	1	0	1	Expedited	Symone Watts	1740 W TAYLOR ST RM # E718A			CHICAGO	IL	60612-7232	US		Get well soon Capricorn. Take care BIGHEAD From From the Great AQUARIUS	false		
111-3149415-9477037	33233674141986	2020-07-08T20:30:32+00:00	2020-07-08T13:30:32-07:00	2020-07-08T20:59:14+00:00	2020-07-11T06:59:59+00:00	-2	8g75mf9nhfryzl9@marketplace.amazon.com	Ralph Wayne Troutman, Jr.	+1 346-307-9643 ext. 29702	ABM010	Purchase Now for Delivery by Monday | The Spring Fling Bouquet by Arabella Bouquets with a Free Designer Glass Vase	1	0	1	Expedited	Miss Bonnie Carpenter	8729 HARGRAVE ST			PHILADELPHIA	PA	19152-2145	US		We think of you often and keep you in our prayers! Hope you have a good day! From Love, Rol, Amber, Dahne & Hudson	false		
112-0600535-4437053	17072144880594	2020-07-08T21:01:14+00:00	2020-07-08T14:01:14-07:00	2020-07-08T21:30:46+00:00	2020-07-11T06:59:59+00:00	-2	n8l5slmk23sn6tp@marketplace.amazon.com	Debra Lewis	+1 210-728-4548 ext. 48757	ABR0022	Purchase Now for Delivery by Monday | Arabella Farm Direct Bouquet of 12 Fresh Cut Pink Roses with a Free Glass Vase	1	0	1	Expedited	Debra Lewis	9421 FAIRGROUND RD			LOUISVILLE	KY	40291-1456	US			false		
114-3006755-7977061	42165350002698	2020-07-08T21:18:04+00:00	2020-07-08T14:18:04-07:00	2020-07-08T21:48:16+00:00	2020-07-11T06:59:59+00:00	-2	3yp2t77m40h6y97@marketplace.amazon.com	Val Edwards	+1 346-307-9643 ext. 05879	ABR0022	Purchase Now for Delivery by Monday | Arabella Farm Direct Bouquet of 12 Fresh Cut Pink Roses with a Free Glass Vase	1	0	1	Expedited	Melissa Wheeler	1460 VINEGAR HILL RD			BIGGERS	AR	72413-9767	US			false		
114-3314690-3367413	19425848941202	2020-07-08T21:54:50+00:00	2020-07-08T14:54:50-07:00	2020-07-08T22:22:06+00:00	2020-07-11T06:59:59+00:00	-2	7s1y0cnnm3nx4jy@marketplace.amazon.com	David Cheslek	+1 314-282-9402 ext. 14320	ABM010	Purchase Now for Delivery by Monday | The Spring Fling Bouquet by Arabella Bouquets with a Free Designer Glass Vase	1	0	1	Expedited	Dan Cheslek	65 IDA RED AVE APT 310			SPARTA	MI	49345-1291	US		We love and miss you very much From David Cheslek	false		
114-4159613-5666620	34485118294906	2020-07-08T21:53:17+00:00	2020-07-08T14:53:17-07:00	2020-07-08T22:22:57+00:00	2020-07-11T06:59:59+00:00	-2	fyrybdz2dj33sl2@marketplace.amazon.com	Joseluis Carrizalez	+1 210-728-4548 ext. 82364	ABR0022	Purchase Now for Delivery by Monday | Arabella Farm Direct Bouquet of 12 Fresh Cut Pink Roses with a Free Glass Vase	1	0	1	Expedited	Itzayana Hernandez	13005 HEINEMANN DR APT 701			AUSTIN	TX	78727-6120	US		I love you baby! I wish I could be home more often, soon I will be. From Joseluis Carrizalez	false		
111-4455375-6619451	16636817850450	2020-07-08T22:35:55+00:00	2020-07-08T15:35:55-07:00	2020-07-08T23:04:51+00:00	2020-07-11T06:59:59+00:00	-2	vq445jxhpvsrpdf@marketplace.amazon.com	Casey Christian	+1 314-282-9402 ext. 07642	ABM010	Purchase Now for Delivery by Monday | The Spring Fling Bouquet by Arabella Bouquets with a Free Designer Glass Vase	1	0	1	Expedited	Annie Maguire	366 SHORELINE HWY			MILL VALLEY	CA	94941-3854	US		Hope these brighten your day like you do mine!! Hang in there Annie! You're the Best!! XOXO From Casey Christian	false		
111-8573612-7885851	03033237655578	2020-07-08T23:40:00+00:00	2020-07-08T16:40:00-07:00	2020-07-08T23:57:34+00:00	2020-07-11T06:59:59+00:00	-2	pbx554dvnbvq5kc@marketplace.amazon.com	Ying Wang	+1 210-728-4548 ext. 99805	ABM010	Purchase Now for Delivery by Monday | The Spring Fling Bouquet by Arabella Bouquets with a Free Designer Glass Vase	1	0	1	Expedited	Cheryl Lea	21122 SUNNY RDG			LAKE FOREST	CA	92630-6726	US		Hope you have speedy recovery and feel better soon! From Wendy Wang	false		
114-4479181-9848260	43565677760578	2020-07-08T23:54:55+00:00	2020-07-08T16:54:55-07:00	2020-07-09T00:25:14+00:00	2020-07-11T06:59:59+00:00	-2	dl95zkprcsbnnft@marketplace.amazon.com	Jessica Williams	+1 346-307-9643 ext. 85497	ABM010	Purchase Now for Delivery by Monday | The Spring Fling Bouquet by Arabella Bouquets with a Free Designer Glass Vase	1	0	1	Expedited	Darlene Williams	166 WALTON ST			PORTLAND	ME	04103-3413	US			false		
112-0697308-4681002	27121950986578	2020-07-09T00:27:19+00:00	2020-07-08T17:27:19-07:00	2020-07-09T00:55:21+00:00	2020-07-11T06:59:59+00:00	-2	ktms37562nzq6bn@marketplace.amazon.com	Ronald W. Ochner	+1 346-307-9643 ext. 85393	ABR0055	Purchase Now for Delivery by Monday | Arabella Farm Direct Bouquet of 12 Stems of Fresh Cut Hot Pink Roses in a Free Designer Glass Vase	1	0	1	Expedited	Cheryl Ditaranto	226 GUILFORD AVE			HADDON TOWNSHIP	NJ	08108-1706	US			false		
111-8556798-9113051	47207517150394	2020-07-09T01:07:13+00:00	2020-07-08T18:07:13-07:00	2020-07-09T01:33:54+00:00	2020-07-11T06:59:59+00:00	-2	tm9m7hzg23vmqd9@marketplace.amazon.com	David Nick Urbanek	+1 346-307-9643 ext. 13938	ABR0022	Purchase Now for Delivery by Monday | Arabella Farm Direct Bouquet of 12 Fresh Cut Pink Roses with a Free Glass Vase	1	0	1	Expedited	Jessica Costa	2521 MILLER AVE APT 19			MODESTO	CA	95354-3176	US		I thought you deserved these for all your hard work helping covid patients and just being you! (: From Nick Urbanek	false		
113-0687586-0875467	65860041502402	2020-07-09T01:48:51+00:00	2020-07-08T18:48:51-07:00	2020-07-09T02:15:16+00:00	2020-07-11T06:59:59+00:00	-2	zpxw8k5n2v8z495@marketplace.amazon.com	LA	+1 346-307-9643 ext. 69662	ABM0033	Arabella Farm Direct Bouquet of Fresh Cut White Hydrangea with a Free Glass Vase	1	0	1	Expedited	Matt and Farrah Willis-Goode	4 VALLEY ST			MERRIMAC	MA	01860-2232	US		Dear Farrah and Matt, Congratulations to you both, we hope the white hydrangea will be a symbol of new life, we used the Hydrangea, the flower of your wedding, Love,M&D From LA	false		
114-7335066-1382624	14821548087218	2020-07-08T23:21:32+00:00	2020-07-08T16:21:32-07:00	2020-07-09T02:20:57+00:00	2020-07-11T06:59:59+00:00	-2	828pj0htqg6ftyf@marketplace.amazon.com	Christina medrano	+1 314-282-9402 ext. 48268	ABR0055	Purchase Now for Delivery by Monday | Arabella Farm Direct Bouquet of 12 Stems of Fresh Cut Hot Pink Roses in a Free Designer Glass Vase	1	0	1	Expedited	Christina medrano	9220 VERNER ST APT 318			PICO RIVERA	CA	90660-5802	US			false		
111-7675807-7727453	50199541587050	2020-07-08T03:56:53+00:00	2020-07-07T20:56:53-07:00	2020-07-09T04:54:16+00:00	2020-07-11T06:59:59+00:00	-2	0p2d3j0lpz10p0c@marketplace.amazon.com	Luke	+1 314-282-9402 ext. 57754	ABR0022	Purchase Now for Delivery by Friday | Arabella Farm Direct Bouquet of 12 Fresh Cut Pink Roses with a Free Glass Vase	1	0	1	Expedited	Itzyagurlgab	67 JOSIES LN			ROCHESTER	NY	14616-1935	US		You’re beautiful From Wrx luke	false		
114-0704867-5113868	32857697128554	2020-07-09T05:14:21+00:00	2020-07-08T22:14:21-07:00	2020-07-09T05:37:24+00:00	2020-07-11T06:59:59+00:00	-2	8bqsf7h908vkhj6@marketplace.amazon.com	Jay Cohen	+1 346-307-9643 ext. 21157	ABR0022	Purchase Now for Delivery by Monday | Arabella Farm Direct Bouquet of 12 Fresh Cut Pink Roses with a Free Glass Vase	1	0	1	Expedited	Millie Cohen	5370 LAS VERDES CIR APT 301			DELRAY BEACH	FL	33484-9158	US		Just because 💕 From Jay Cohen	false		
111-9383580-4365064	01276319319026	2020-07-09T06:04:41+00:00	2020-07-08T23:04:41-07:00	2020-07-09T06:25:18+00:00	2020-07-11T06:59:59+00:00	-2	529n7mtyvfgb63g@marketplace.amazon.com	sharon harrington	+1 210-728-4548 ext. 77891	ABM010	Purchase Now for Delivery by Monday | The Spring Fling Bouquet by Arabella Bouquets with a Free Designer Glass Vase	1	0	1	Expedited	Aidje Judd	6113 THORNWOOD DR			LOOMIS	CA	95650-9545	US		Dear Aidje & family, So sorry for your loss. You have my warmest thoughts & prayers. May your memories make you smile. God bless & be with you. Your friend, Sharon Harrington From Sharon Harrington	false		
111-7368768-5594644	60254089642850	2020-07-09T06:06:57+00:00	2020-07-08T23:06:57-07:00	2020-07-09T06:36:50+00:00	2020-07-11T06:59:59+00:00	-2	h4c5bzlgb17x3xc@marketplace.amazon.com	Kathryn	+1 346-307-9643 ext. 65414	ABM0044	Purchase Now for Delivery by Friday | Arabella Farm Direct Bouquet of Fresh Cut Blue Hydrangea with a Free Glass Vase	1	0	1	Expedited	Kathryn Wallace	6865 176TH PL			TINLEY PARK	IL	60477-3838	US			false		
114-9857115-7569035	62261969971450	2020-07-09T06:44:48+00:00	2020-07-08T23:44:48-07:00	2020-07-09T07:06:44+00:00	2020-07-11T06:59:59+00:00	-2	vkdklrbblspyl0l@marketplace.amazon.com	william	+1 347-448-3190 ext. 34563	ABR001	Purchase Now for Delivery by Monday | Arabella Bouquets 12 Stems of Fresh Cut Red Roses in a Free Designer Glass Vase	1	0	1	Expedited	katherine mescia	26 BAY POINT CT BABYLON APARTMENT			WEST BABYLON	NY	11704-8243	US		Hi Katherine,  I love you to the moon and back and back to the moon again. I love you now and forever.   Austin C. Sen	false		
113-4926670-9349064	03292318423306	2020-07-09T07:11:52+00:00	2020-07-09T00:11:52-07:00	2020-07-09T07:34:36+00:00	2020-07-14T06:59:59+00:00	-5	p3p2fjscfzzfpjk@marketplace.amazon.com	Ronald	+1 346-307-9643 ext. 89718	ABR0022	Purchase Now for Delivery by Monday | Arabella Farm Direct Bouquet of 12 Fresh Cut Pink Roses with a Free Glass Vase	1	0	1	Expedited	Katy Estes	902 BRAND FARM DR			SOUTH BURLINGTON	VT	05403-7548	US		To the best fake wife there ever was!!! Happy Birthday! Love, Ron From Ron	false		
114-9312346-4755449	67241769873666	2020-07-09T08:33:53+00:00	2020-07-09T01:33:53-07:00	2020-07-09T08:49:08+00:00	2020-07-14T06:59:59+00:00	-5	cwntzd2b59cj6dm@marketplace.amazon.com	Emmanuel	+1 314-282-9402 ext. 33195	ABR0055	Purchase Now for Delivery by Monday | Arabella Farm Direct Bouquet of 12 Stems of Fresh Cut Hot Pink Roses in a Free Designer Glass Vase	1	0	1	Expedited	Fralyn Ogoy	40312 CAPE CHARLES DR			TEMECULA	CA	92591-2536	US		I am  so sorry for whatever I did and said and I mean it. I am sorry from the bottom of my Amygdala. Thank you for your gracious hospitality I really appreciate it. Hope you have a wonderful day, full of joy and happiness. From Emmanuel	false		
112-5697976-6316210	35845032071186	2020-07-09T08:39:18+00:00	2020-07-09T01:39:18-07:00	2020-07-09T09:09:13+00:00	2020-07-14T06:59:59+00:00	-5	579jmq69r3pd0tc@marketplace.amazon.com	Jonathan Kemnitz	+1 346-307-9643 ext. 66329	ABR0055	Purchase Now for Delivery by Monday | Arabella Farm Direct Bouquet of 12 Stems of Fresh Cut Hot Pink Roses in a Free Designer Glass Vase	1	0	1	Expedited	Emily Lemen	5 FINTRAY PL			ROCHESTER	NY	14607-2911	US			false		
112-4693429-8855441	13068545741714	2020-07-09T08:49:44+00:00	2020-07-09T01:49:44-07:00	2020-07-09T09:19:20+00:00	2020-07-14T06:59:59+00:00	-5	wm9dqp3z8fg4q42@marketplace.amazon.com	xu jixue	+1 347-448-3190 ext. 66382	ABM010	Purchase Now for Delivery by Monday | The Spring Fling Bouquet by Arabella Bouquets with a Free Designer Glass Vase	1	0	1	Expedited	Xiaomeng Xu	235 S WATER ST APT E1			EAST WINDSOR	CT	06088-9660	US			false		
111-7657094-2694647	28614821057482	2020-07-09T11:13:06+00:00	2020-07-09T04:13:06-07:00	2020-07-09T11:38:29+00:00	2020-07-14T06:59:59+00:00	-5	2brb1zvrtyzdpgk@marketplace.amazon.com	MatchDog Rescue	+1 347-448-3190 ext. 64425	ABM010	Purchase Now for Delivery by Monday | The Spring Fling Bouquet by Arabella Bouquets with a Free Designer Glass Vase	1	0	1	Expedited	Linda Leanza	9 POPLAR TER			CHERRY HILL	NJ	08002-1733	US		Linda,  We are so grateful for all you do, whenever we have a pup in need, you are right there.  You love all these pups as your own and we love you for that! Thank you! Your MatchDog Family From MDR	false		
112-6817531-2460258	50360304202042	2020-07-09T11:17:55+00:00	2020-07-09T04:17:55-07:00	2020-07-09T11:42:20+00:00	2020-07-14T06:59:59+00:00	-5	4c010ptqq50bwrj@marketplace.amazon.com	Jjp	+1 346-307-9643 ext. 94609	ABR001	Purchase Now for Delivery by Monday | Arabella Bouquets 12 Stems of Fresh Cut Red Roses in a Free Designer Glass Vase	1	0	1	Expedited	Ms.Valencia	6244 ROSECLIFF DR			TAMPA	FL	33625-5912	US		Hey grandma I hope you are doing well, and if not I hope that you start to feel better. I'll continue to keep u in prayer.   -Love Polite From Jaquez Polite	false		
112-4217106-5585010	53686384008698	2020-07-09T11:30:11+00:00	2020-07-09T04:30:11-07:00	2020-07-09T12:00:16+00:00	2020-07-14T06:59:59+00:00	-5	q26ttk4zvbmdft2@marketplace.amazon.com	Mike Sellers	+1 346-307-9643 ext. 21938	ABR0022	Purchase Now for Delivery by Monday | Arabella Farm Direct Bouquet of 12 Fresh Cut Pink Roses with a Free Glass Vase	1	0	1	Expedited	Mike Sellers	722 MINNIE HALL RD			AUTRYVILLE	NC	28318-8636	US			false		
113-7059356-4172209	27820019971138	2020-07-09T13:13:35+00:00	2020-07-09T06:13:35-07:00	2020-07-09T13:42:50+00:00	2020-07-14T06:59:59+00:00	-5	01fj8jykg8vhnkr@marketplace.amazon.com	Morgan	+1 346-307-9643 ext. 90700	ABM010	Purchase Now for Delivery by Monday | The Spring Fling Bouquet by Arabella Bouquets with a Free Designer Glass Vase	1	0	1	Expedited	Marilyn Whitney	452 N CHESTER RD			LINCOLN	ME	04457-5740	US		HAPPY BIRTHDAY!! From Marie and Wayne	false		
111-2675118-1904227	66719788175770	2020-07-09T13:35:59+00:00	2020-07-09T06:35:59-07:00	2020-07-09T14:00:15+00:00	2020-07-14T06:59:59+00:00	-5	rx09ttdd3xky0l7@marketplace.amazon.com	Diane Laffey	+1 346-307-9643 ext. 31511	ABR0022	Purchase Now for Delivery by Monday | Arabella Farm Direct Bouquet of 12 Fresh Cut Pink Roses with a Free Glass Vase	1	0	1	Standard	Linda Belschner	503 MALDEN ST			REVERE	MA	02151-1859	US		Happy 60th Birthday! From Diane & Danny Laffey	false		
112-2725894-9617029	49942535253530	2020-07-09T14:13:47+00:00	2020-07-09T07:13:47-07:00	2020-07-09T14:43:43+00:00	2020-07-14T06:59:59+00:00	-5	kd2j6xyszx8v7gz@marketplace.amazon.com	Jay Shinn	+1 346-307-9643 ext. 10730	ABM010	Purchase Now for Delivery by Monday | The Spring Fling Bouquet by Arabella Bouquets with a Free Designer Glass Vase	1	0	1	Expedited	Doris Vaughan	327 CALAVERAS WAY			SONORA	CA	95370-5511	US			false		
111-2659984-2628212	40299178118786	2020-07-09T14:40:04+00:00	2020-07-09T07:40:04-07:00	2020-07-09T15:05:47+00:00	2020-07-14T06:59:59+00:00	-5	8nkcd6t0t5bl8vq@marketplace.amazon.com	PATRICIA A. BRYANT	+1 415-851-9136 ext. 68589	ABR0022	Purchase Now for Delivery by Monday | Arabella Farm Direct Bouquet of 12 Fresh Cut Pink Roses with a Free Glass Vase	1	0	1	Expedited	Veneita WASHINGTON Wesley	523 COUNTRY CLUB DR ROOM # 303	BED A		FAYETTEVILLE	NC	28301-7613	US		May God BLESS you on this your SEVENTIETH Birthday!  I LOVE You sooooooo   :-) From PATRICIA A. BRYANT	false		
