order-id	order-item-id	purchase-date	payments-date	reporting-date	promise-date	days-past-promise	buyer-email	buyer-name	buyer-phone-number	sku	product-name	quantity-purchased	quantity-shipped	quantity-to-ship	ship-service-level	recipient-name	ship-address-1	ship-address-2	ship-address-3	ship-city	ship-state	ship-postal-code	ship-country	gift-wrap-type	gift-message-text	is-business-order	purchase-order-number	price-designation
114-4521252-9075451	59432373954826	2020-07-08T17:40:42+00:00	2020-07-08T10:40:42-07:00	2020-07-08T18:10:02+00:00	2020-07-11T06:59:59+00:00	-2	x8zntp3565sz03k@marketplace.amazon.com	J E P	+1 210-728-4548 ext. 87423	ABR0022	Purchase Now for Delivery by Monday | Arabella Farm Direct Bouquet of 12 Fresh Cut Pink Roses with a Free Glass Vase	1	0	1	Expedited	Gloria Leus	6201 GATOR PL			CLINTON	MD	20735-3973	US		Hello Tita Gloria! I hope you are recovering quickly from surgery.  God bless! Love, Jennifer From Jennifer Escano Pohren	false		
114-6931298-8787400	40423897725954	2020-07-08T18:07:32+00:00	2020-07-08T11:07:32-07:00	2020-07-08T18:35:25+00:00	2020-07-11T06:59:59+00:00	-2	yxbd5v7qdhx8k1l@marketplace.amazon.com	Steward Solano	+1 314-282-9402 ext. 80146	ABR0055	Purchase Now for Delivery by Monday | Arabella Farm Direct Bouquet of 12 Stems of Fresh Cut Hot Pink Roses in a Free Designer Glass Vase	1	0	1	Expedited	Steward Solano	1136 PROSPECT ST EWING NJ 08638			EWING	NJ	08638-4806	US		Amor muchas felicidades en este día de tu cumpleaños, deseando que Dios te brinde vida,salud y que disfrutes tu día, Te Amo De Steward Solano	false		
112-7556493-1442609	01891991776618	2020-07-08T18:13:02+00:00	2020-07-08T11:13:02-07:00	2020-07-08T18:42:10+00:00	2020-07-11T06:59:59+00:00	-2	n3vw8b3xqph5ld2@marketplace.amazon.com	Rhonda Pritchett	+1 346-307-9643 ext. 94994	ABM010	Purchase Now for Delivery by Monday | The Spring Fling Bouquet by Arabella Bouquets with a Free Designer Glass Vase	1	0	1	Expedited	Erin Wright	155 BOWEN ST APT 6			CARROLLTON	GA	30117-4284	US		I love you and everything will be ok Mom From Rhonda Pritchett	false		
114-1832771-5604222	05858973352218	2020-07-08T18:47:20+00:00	2020-07-08T11:47:20-07:00	2020-07-08T18:53:45+00:00	2020-07-11T06:59:59+00:00	-2	50gkv8mvsrzgy9b@marketplace.amazon.com	mary e white	+1 415-851-9136 ext. 34094	ABR0066	Purchase Now for Delivery by Monday | Arabella Bouquets 12 Stems of Fresh Cut White Roses in a Free Designer Glass Vase	1	0	1	Expedited	Maureen butler	340 S US HIGHWAY 1			JUPITER	FL	33477-5928	US			false		
113-1895014-7046653	34772688386826	2020-07-08T18:49:51+00:00	2020-07-08T11:49:51-07:00	2020-07-08T19:18:40+00:00	2020-07-11T06:59:59+00:00	-2	rpwg2sw751ngb4v@marketplace.amazon.com	craig shimizu	+1 347-448-3190 ext. 83162	ABR0022	Purchase Now for Delivery by Monday | Arabella Farm Direct Bouquet of 12 Fresh Cut Pink Roses with a Free Glass Vase	1	0	1	Expedited	Amanda Crosby	2523 GROVE CIR			LITTLE ROCK	AR	72205-5919	US		Happy belated birthday dear sweet sister! From Allison	false		
111-3686517-3253859	57930165001218	2020-07-08T19:16:55+00:00	2020-07-08T12:16:55-07:00	2020-07-08T19:46:52+00:00	2020-07-11T06:59:59+00:00	-2	xcs2bsp8pzxsndh@marketplace.amazon.com	Tamara Renuart	+1 415-851-9136 ext. 90632	ABR0022	Purchase Now for Delivery by Monday | Arabella Farm Direct Bouquet of 12 Fresh Cut Pink Roses with a Free Glass Vase	1	0	1	Expedited	Shannon Young	25444 COLE ST			LOMA LINDA	CA	92354-3106	US			false		
114-1736263-7285849	23407163213050	2020-07-08T19:19:04+00:00	2020-07-08T12:19:04-07:00	2020-07-08T19:47:51+00:00	2020-07-11T06:59:59+00:00	-2	gb5j4g99qz5h0dh@marketplace.amazon.com	Daniel J Hupp	+1 346-307-9643 ext. 56041	ABR001	Purchase Now for Delivery by Monday | Arabella Bouquets 12 Stems of Fresh Cut Red Roses in a Free Designer Glass Vase	1	0	1	Expedited	Rice Family	12609 CRABTREE FALLS DR			BRISTOW	VA	20136-2162	US		We had so much fun at the beach and so thankful for the entire Rice family. From Hupp family	false		
112-6901520-9679411	16636440148922	2020-07-08T19:47:31+00:00	2020-07-08T12:47:31-07:00	2020-07-08T20:16:31+00:00	2020-07-11T06:59:59+00:00	-2	qj9fjy4p7s3nqfx@marketplace.amazon.com	Edward Babbage	+1 210-728-4548 ext. 93340	ABM010	Purchase Now for Delivery by Monday | The Spring Fling Bouquet by Arabella Bouquets with a Free Designer Glass Vase	1	0	1	Expedited	Cindy Cavoto	270 ASHBURY ST			ST AUGUSTINE	FL	32092-0035	US		Cindy, I just want you to know how grateful I am for you! I think you're such a wonderful person, and I feel truly blessed to know you :-)  Sincerely, Eddie From Eddie	false		
112-8834356-7272204	27103324822914	2020-07-08T20:26:13+00:00	2020-07-08T13:26:13-07:00	2020-07-08T20:46:00+00:00	2020-07-11T06:59:59+00:00	-2	s9jnjy2y9sb6jff@marketplace.amazon.com	Frederick Zlaket	+1 347-448-3190 ext. 20447	ABR012	Arabella Farm Direct Bouquet of 18 Fresh Cut Pink Roses with a Free Glass Vase	1	0	1	Expedited	Dr. and Mrs. George Ayoub	3910 E EQUESTRIAN TRL			PHOENIX	AZ	85044-3011	US		Dear George and Christine, Congratulations on your precious baby girl Amelia Leila! May God keep showering His blessings upon you. We can't wait to meet your new bundle of joy.  Much love, The Zlaket's From The Zlaket Family	false		
112-3467966-1902604	16966467998674	2020-07-08T20:25:48+00:00	2020-07-08T13:25:48-07:00	2020-07-08T20:54:41+00:00	2020-07-11T06:59:59+00:00	-2	nn19crl9cc8yrlh@marketplace.amazon.com	MARC	+1 346-307-9643 ext. 40192	ABR0022	Purchase Now for Delivery by Monday | Arabella Farm Direct Bouquet of 12 Fresh Cut Pink Roses with a Free Glass Vase	1	0	1	Expedited	Symone Watts	1740 W TAYLOR ST RM # E718A			CHICAGO	IL	60612-7232	US		Get well soon Capricorn. Take care BIGHEAD From From the Great AQUARIUS	false		
111-3149415-9477037	33233674141986	2020-07-08T20:30:32+00:00	2020-07-08T13:30:32-07:00	2020-07-08T20:59:14+00:00	2020-07-11T06:59:59+00:00	-2	8g75mf9nhfryzl9@marketplace.amazon.com	Ralph Wayne Troutman, Jr.	+1 346-307-9643 ext. 29702	ABM010	Purchase Now for Delivery by Monday | The Spring Fling Bouquet by Arabella Bouquets with a Free Designer Glass Vase	1	0	1	Expedited	Miss Bonnie Carpenter	8729 HARGRAVE ST			PHILADELPHIA	PA	19152-2145	US		We think of you often and keep you in our prayers! Hope you have a good day! From Love, Rol, Amber, Dahne & Hudson	false		
112-0600535-4437053	17072144880594	2020-07-08T21:01:14+00:00	2020-07-08T14:01:14-07:00	2020-07-08T21:30:46+00:00	2020-07-11T06:59:59+00:00	-2	n8l5slmk23sn6tp@marketplace.amazon.com	Debra Lewis	+1 210-728-4548 ext. 48757	ABR0022	Purchase Now for Delivery by Monday | Arabella Farm Direct Bouquet of 12 Fresh Cut Pink Roses with a Free Glass Vase	1	0	1	Expedited	Debra Lewis	9421 FAIRGROUND RD			LOUISVILLE	KY	40291-1456	US			false		
114-3006755-7977061	42165350002698	2020-07-08T21:18:04+00:00	2020-07-08T14:18:04-07:00	2020-07-08T21:48:16+00:00	2020-07-11T06:59:59+00:00	-2	3yp2t77m40h6y97@marketplace.amazon.com	Val Edwards	+1 346-307-9643 ext. 05879	ABR0022	Purchase Now for Delivery by Monday | Arabella Farm Direct Bouquet of 12 Fresh Cut Pink Roses with a Free Glass Vase	1	0	1	Expedited	Melissa Wheeler	1460 VINEGAR HILL RD			BIGGERS	AR	72413-9767	US			false		
114-3314690-3367413	19425848941202	2020-07-08T21:54:50+00:00	2020-07-08T14:54:50-07:00	2020-07-08T22:22:06+00:00	2020-07-11T06:59:59+00:00	-2	7s1y0cnnm3nx4jy@marketplace.amazon.com	David Cheslek	+1 314-282-9402 ext. 14320	ABM010	Purchase Now for Delivery by Monday | The Spring Fling Bouquet by Arabella Bouquets with a Free Designer Glass Vase	1	0	1	Expedited	Dan Cheslek	65 IDA RED AVE APT 310			SPARTA	MI	49345-1291	US		We love and miss you very much From David Cheslek	false		
114-4159613-5666620	34485118294906	2020-07-08T21:53:17+00:00	2020-07-08T14:53:17-07:00	2020-07-08T22:22:57+00:00	2020-07-11T06:59:59+00:00	-2	fyrybdz2dj33sl2@marketplace.amazon.com	Joseluis Carrizalez	+1 210-728-4548 ext. 82364	ABR0022	Purchase Now for Delivery by Monday | Arabella Farm Direct Bouquet of 12 Fresh Cut Pink Roses with a Free Glass Vase	1	0	1	Expedited	Itzayana Hernandez	13005 HEINEMANN DR APT 701			AUSTIN	TX	78727-6120	US		I love you baby! I wish I could be home more often, soon I will be. From Joseluis Carrizalez	false		
111-4455375-6619451	16636817850450	2020-07-08T22:35:55+00:00	2020-07-08T15:35:55-07:00	2020-07-08T23:04:51+00:00	2020-07-11T06:59:59+00:00	-2	vq445jxhpvsrpdf@marketplace.amazon.com	Casey Christian	+1 314-282-9402 ext. 07642	ABM010	Purchase Now for Delivery by Monday | The Spring Fling Bouquet by Arabella Bouquets with a Free Designer Glass Vase	1	0	1	Expedited	Annie Maguire	366 SHORELINE HWY			MILL VALLEY	CA	94941-3854	US		Hope these brighten your day like you do mine!! Hang in there Annie! You're the Best!! XOXO From Casey Christian	false		
111-8573612-7885851	03033237655578	2020-07-08T23:40:00+00:00	2020-07-08T16:40:00-07:00	2020-07-08T23:57:34+00:00	2020-07-11T06:59:59+00:00	-2	pbx554dvnbvq5kc@marketplace.amazon.com	Ying Wang	+1 210-728-4548 ext. 99805	ABM010	Purchase Now for Delivery by Monday | The Spring Fling Bouquet by Arabella Bouquets with a Free Designer Glass Vase	1	0	1	Expedited	Cheryl Lea	21122 SUNNY RDG			LAKE FOREST	CA	92630-6726	US		Hope you have speedy recovery and feel better soon! From Wendy Wang	false		
114-4479181-9848260	43565677760578	2020-07-08T23:54:55+00:00	2020-07-08T16:54:55-07:00	2020-07-09T00:25:14+00:00	2020-07-11T06:59:59+00:00	-2	dl95zkprcsbnnft@marketplace.amazon.com	Jessica Williams	+1 346-307-9643 ext. 85497	ABM010	Purchase Now for Delivery by Monday | The Spring Fling Bouquet by Arabella Bouquets with a Free Designer Glass Vase	1	0	1	Expedited	Darlene Williams	166 WALTON ST			PORTLAND	ME	04103-3413	US			false		
112-0697308-4681002	27121950986578	2020-07-09T00:27:19+00:00	2020-07-08T17:27:19-07:00	2020-07-09T00:55:21+00:00	2020-07-11T06:59:59+00:00	-2	ktms37562nzq6bn@marketplace.amazon.com	Ronald W. Ochner	+1 346-307-9643 ext. 85393	ABR0055	Purchase Now for Delivery by Monday | Arabella Farm Direct Bouquet of 12 Stems of Fresh Cut Hot Pink Roses in a Free Designer Glass Vase	1	0	1	Expedited	Cheryl Ditaranto	226 GUILFORD AVE			HADDON TOWNSHIP	NJ	08108-1706	US			false		
111-8556798-9113051	47207517150394	2020-07-09T01:07:13+00:00	2020-07-08T18:07:13-07:00	2020-07-09T01:33:54+00:00	2020-07-11T06:59:59+00:00	-2	tm9m7hzg23vmqd9@marketplace.amazon.com	David Nick Urbanek	+1 346-307-9643 ext. 13938	ABR0022	Purchase Now for Delivery by Monday | Arabella Farm Direct Bouquet of 12 Fresh Cut Pink Roses with a Free Glass Vase	1	0	1	Expedited	Jessica Costa	2521 MILLER AVE APT 19			MODESTO	CA	95354-3176	US		I thought you deserved these for all your hard work helping covid patients and just being you! (: From Nick Urbanek	false		
113-0687586-0875467	65860041502402	2020-07-09T01:48:51+00:00	2020-07-08T18:48:51-07:00	2020-07-09T02:15:16+00:00	2020-07-11T06:59:59+00:00	-2	zpxw8k5n2v8z495@marketplace.amazon.com	LA	+1 346-307-9643 ext. 69662	ABM0033	Arabella Farm Direct Bouquet of Fresh Cut White Hydrangea with a Free Glass Vase	1	0	1	Expedited	Matt and Farrah Willis-Goode	4 VALLEY ST			MERRIMAC	MA	01860-2232	US		Dear Farrah and Matt, Congratulations to you both, we hope the white hydrangea will be a symbol of new life, we used the Hydrangea, the flower of your wedding, Love,M&D From LA	false		
114-7335066-1382624	14821548087218	2020-07-08T23:21:32+00:00	2020-07-08T16:21:32-07:00	2020-07-09T02:20:57+00:00	2020-07-11T06:59:59+00:00	-2	828pj0htqg6ftyf@marketplace.amazon.com	Christina medrano	+1 314-282-9402 ext. 48268	ABR0055	Purchase Now for Delivery by Monday | Arabella Farm Direct Bouquet of 12 Stems of Fresh Cut Hot Pink Roses in a Free Designer Glass Vase	1	0	1	Expedited	Christina medrano	9220 VERNER ST APT 318			PICO RIVERA	CA	90660-5802	US			false		
111-7675807-7727453	50199541587050	2020-07-08T03:56:53+00:00	2020-07-07T20:56:53-07:00	2020-07-09T04:54:16+00:00	2020-07-11T06:59:59+00:00	-2	0p2d3j0lpz10p0c@marketplace.amazon.com	Luke	+1 314-282-9402 ext. 57754	ABR0022	Purchase Now for Delivery by Friday | Arabella Farm Direct Bouquet of 12 Fresh Cut Pink Roses with a Free Glass Vase	1	0	1	Expedited	Itzyagurlgab	67 JOSIES LN			ROCHESTER	NY	14616-1935	US		You’re beautiful From Wrx luke	false		
114-0704867-5113868	32857697128554	2020-07-09T05:14:21+00:00	2020-07-08T22:14:21-07:00	2020-07-09T05:37:24+00:00	2020-07-11T06:59:59+00:00	-2	8bqsf7h908vkhj6@marketplace.amazon.com	Jay Cohen	+1 346-307-9643 ext. 21157	ABR0022	Purchase Now for Delivery by Monday | Arabella Farm Direct Bouquet of 12 Fresh Cut Pink Roses with a Free Glass Vase	1	0	1	Expedited	Millie Cohen	5370 LAS VERDES CIR APT 301			DELRAY BEACH	FL	33484-9158	US		Just because 💕 From Jay Cohen	false		
111-9383580-4365064	01276319319026	2020-07-09T06:04:41+00:00	2020-07-08T23:04:41-07:00	2020-07-09T06:25:18+00:00	2020-07-11T06:59:59+00:00	-2	529n7mtyvfgb63g@marketplace.amazon.com	sharon harrington	+1 210-728-4548 ext. 77891	ABM010	Purchase Now for Delivery by Monday | The Spring Fling Bouquet by Arabella Bouquets with a Free Designer Glass Vase	1	0	1	Expedited	Aidje Judd	6113 THORNWOOD DR			LOOMIS	CA	95650-9545	US		Dear Aidje & family, So sorry for your loss. You have my warmest thoughts & prayers. May your memories make you smile. God bless & be with you. Your friend, Sharon Harrington From Sharon Harrington	false		
111-7368768-5594644	60254089642850	2020-07-09T06:06:57+00:00	2020-07-08T23:06:57-07:00	2020-07-09T06:36:50+00:00	2020-07-11T06:59:59+00:00	-2	h4c5bzlgb17x3xc@marketplace.amazon.com	Kathryn	+1 346-307-9643 ext. 65414	ABM0044	Purchase Now for Delivery by Friday | Arabella Farm Direct Bouquet of Fresh Cut Blue Hydrangea with a Free Glass Vase	1	0	1	Expedited	Kathryn Wallace	6865 176TH PL			TINLEY PARK	IL	60477-3838	US			false		
114-9857115-7569035	62261969971450	2020-07-09T06:44:48+00:00	2020-07-08T23:44:48-07:00	2020-07-09T07:06:44+00:00	2020-07-11T06:59:59+00:00	-2	vkdklrbblspyl0l@marketplace.amazon.com	william	+1 347-448-3190 ext. 34563	ABR001	Purchase Now for Delivery by Monday | Arabella Bouquets 12 Stems of Fresh Cut Red Roses in a Free Designer Glass Vase	1	0	1	Expedited	katherine mescia	26 BAY POINT CT BABYLON APARTMENT			WEST BABYLON	NY	11704-8243	US		Hi Katherine,  I love you to the moon and back and back to the moon again. I love you now and forever.   Austin C. Sen	false		
113-4926670-9349064	03292318423306	2020-07-09T07:11:52+00:00	2020-07-09T00:11:52-07:00	2020-07-09T07:34:36+00:00	2020-07-14T06:59:59+00:00	-5	p3p2fjscfzzfpjk@marketplace.amazon.com	Ronald	+1 346-307-9643 ext. 89718	ABR0022	Purchase Now for Delivery by Monday | Arabella Farm Direct Bouquet of 12 Fresh Cut Pink Roses with a Free Glass Vase	1	0	1	Expedited	Katy Estes	902 BRAND FARM DR			SOUTH BURLINGTON	VT	05403-7548	US		To the best fake wife there ever was!!! Happy Birthday! Love, Ron From Ron	false		
114-9312346-4755449	67241769873666	2020-07-09T08:33:53+00:00	2020-07-09T01:33:53-07:00	2020-07-09T08:49:08+00:00	2020-07-14T06:59:59+00:00	-5	cwntzd2b59cj6dm@marketplace.amazon.com	Emmanuel	+1 314-282-9402 ext. 33195	ABR0055	Purchase Now for Delivery by Monday | Arabella Farm Direct Bouquet of 12 Stems of Fresh Cut Hot Pink Roses in a Free Designer Glass Vase	1	0	1	Expedited	Fralyn Ogoy	40312 CAPE CHARLES DR			TEMECULA	CA	92591-2536	US		I am  so sorry for whatever I did and said and I mean it. I am sorry from the bottom of my Amygdala. Thank you for your gracious hospitality I really appreciate it. Hope you have a wonderful day, full of joy and happiness. From Emmanuel	false		
112-5697976-6316210	35845032071186	2020-07-09T08:39:18+00:00	2020-07-09T01:39:18-07:00	2020-07-09T09:09:13+00:00	2020-07-14T06:59:59+00:00	-5	579jmq69r3pd0tc@marketplace.amazon.com	Jonathan Kemnitz	+1 346-307-9643 ext. 66329	ABR0055	Purchase Now for Delivery by Monday | Arabella Farm Direct Bouquet of 12 Stems of Fresh Cut Hot Pink Roses in a Free Designer Glass Vase	1	0	1	Expedited	Emily Lemen	5 FINTRAY PL			ROCHESTER	NY	14607-2911	US			false		
112-4693429-8855441	13068545741714	2020-07-09T08:49:44+00:00	2020-07-09T01:49:44-07:00	2020-07-09T09:19:20+00:00	2020-07-14T06:59:59+00:00	-5	wm9dqp3z8fg4q42@marketplace.amazon.com	xu jixue	+1 347-448-3190 ext. 66382	ABM010	Purchase Now for Delivery by Monday | The Spring Fling Bouquet by Arabella Bouquets with a Free Designer Glass Vase	1	0	1	Expedited	Xiaomeng Xu	235 S WATER ST APT E1			EAST WINDSOR	CT	06088-9660	US			false		
111-7657094-2694647	28614821057482	2020-07-09T11:13:06+00:00	2020-07-09T04:13:06-07:00	2020-07-09T11:38:29+00:00	2020-07-14T06:59:59+00:00	-5	2brb1zvrtyzdpgk@marketplace.amazon.com	MatchDog Rescue	+1 347-448-3190 ext. 64425	ABM010	Purchase Now for Delivery by Monday | The Spring Fling Bouquet by Arabella Bouquets with a Free Designer Glass Vase	1	0	1	Expedited	Linda Leanza	9 POPLAR TER			CHERRY HILL	NJ	08002-1733	US		Linda,  We are so grateful for all you do, whenever we have a pup in need, you are right there.  You love all these pups as your own and we love you for that! Thank you! Your MatchDog Family From MDR	false		
112-6817531-2460258	50360304202042	2020-07-09T11:17:55+00:00	2020-07-09T04:17:55-07:00	2020-07-09T11:42:20+00:00	2020-07-14T06:59:59+00:00	-5	4c010ptqq50bwrj@marketplace.amazon.com	Jjp	+1 346-307-9643 ext. 94609	ABR001	Purchase Now for Delivery by Monday | Arabella Bouquets 12 Stems of Fresh Cut Red Roses in a Free Designer Glass Vase	1	0	1	Expedited	Ms.Valencia	6244 ROSECLIFF DR			TAMPA	FL	33625-5912	US		Hey grandma I hope you are doing well, and if not I hope that you start to feel better. I'll continue to keep u in prayer.   -Love Polite From Jaquez Polite	false		
112-4217106-5585010	53686384008698	2020-07-09T11:30:11+00:00	2020-07-09T04:30:11-07:00	2020-07-09T12:00:16+00:00	2020-07-14T06:59:59+00:00	-5	q26ttk4zvbmdft2@marketplace.amazon.com	Mike Sellers	+1 346-307-9643 ext. 21938	ABR0022	Purchase Now for Delivery by Monday | Arabella Farm Direct Bouquet of 12 Fresh Cut Pink Roses with a Free Glass Vase	1	0	1	Expedited	Mike Sellers	722 MINNIE HALL RD			AUTRYVILLE	NC	28318-8636	US			false		
113-7059356-4172209	27820019971138	2020-07-09T13:13:35+00:00	2020-07-09T06:13:35-07:00	2020-07-09T13:42:50+00:00	2020-07-14T06:59:59+00:00	-5	01fj8jykg8vhnkr@marketplace.amazon.com	Morgan	+1 346-307-9643 ext. 90700	ABM010	Purchase Now for Delivery by Monday | The Spring Fling Bouquet by Arabella Bouquets with a Free Designer Glass Vase	1	0	1	Expedited	Marilyn Whitney	452 N CHESTER RD			LINCOLN	ME	04457-5740	US		HAPPY BIRTHDAY!! From Marie and Wayne	false		
111-2675118-1904227	66719788175770	2020-07-09T13:35:59+00:00	2020-07-09T06:35:59-07:00	2020-07-09T14:00:15+00:00	2020-07-14T06:59:59+00:00	-5	rx09ttdd3xky0l7@marketplace.amazon.com	Diane Laffey	+1 346-307-9643 ext. 31511	ABR0022	Purchase Now for Delivery by Monday | Arabella Farm Direct Bouquet of 12 Fresh Cut Pink Roses with a Free Glass Vase	1	0	1	Standard	Linda Belschner	503 MALDEN ST			REVERE	MA	02151-1859	US		Happy 60th Birthday! From Diane & Danny Laffey	false		
112-2725894-9617029	49942535253530	2020-07-09T14:13:47+00:00	2020-07-09T07:13:47-07:00	2020-07-09T14:43:43+00:00	2020-07-14T06:59:59+00:00	-5	kd2j6xyszx8v7gz@marketplace.amazon.com	Jay Shinn	+1 346-307-9643 ext. 10730	ABM010	Purchase Now for Delivery by Monday | The Spring Fling Bouquet by Arabella Bouquets with a Free Designer Glass Vase	1	0	1	Expedited	Doris Vaughan	327 CALAVERAS WAY			SONORA	CA	95370-5511	US			false		
111-2659984-2628212	40299178118786	2020-07-09T14:40:04+00:00	2020-07-09T07:40:04-07:00	2020-07-09T15:05:47+00:00	2020-07-14T06:59:59+00:00	-5	8nkcd6t0t5bl8vq@marketplace.amazon.com	PATRICIA A. BRYANT	+1 415-851-9136 ext. 68589	ABR0022	Purchase Now for Delivery by Monday | Arabella Farm Direct Bouquet of 12 Fresh Cut Pink Roses with a Free Glass Vase	1	0	1	Expedited	Veneita WASHINGTON Wesley	523 COUNTRY CLUB DR ROOM # 303	BED A		FAYETTEVILLE	NC	28301-7613	US		May God BLESS you on this your SEVENTIETH Birthday!  I LOVE You sooooooo   :-) From PATRICIA A. BRYANT	false		
112-8195947-6529824	49662854724506	2020-07-09T16:27:00+00:00	2020-07-09T09:27:00-07:00	2020-07-09T16:51:52+00:00	2020-07-14T06:59:59+00:00	-5	1j7pxvp9ssqw8gm@marketplace.amazon.com	HB3	+1 346-307-9643 ext. 25996	ABR0055	Purchase Now for Delivery by Monday | Arabella Farm Direct Bouquet of 12 Stems of Fresh Cut Hot Pink Roses in a Free Designer Glass Vase	1	0	1	Expedited	Kay Johnson	4107 SAND HARBOUR LN			ELK GROVE	CA	95758-4614	US		Kay, I love you babe! From Henry	false		
113-4116891-1610616	15082849874162	2020-07-09T16:45:51+00:00	2020-07-09T09:45:51-07:00	2020-07-09T17:10:06+00:00	2020-07-14T06:59:59+00:00	-5	zp476ddlxkhntb5@marketplace.amazon.com	david glass	+1 415-851-9136 ext. 61874	ABR0022	Purchase Now for Delivery by Monday | Arabella Farm Direct Bouquet of 12 Fresh Cut Pink Roses with a Free Glass Vase	1	0	1	Expedited	Ann Mulee C17	WATERVIEW HILLS NURSING HOME	537 ROUTE 22		PURDYS	NY	10578-2900	US		Dear Mom, Happy Birthday to the BEST MOTHER IN THE WORLD! We love you so much! Love, Mickie, David, Sam, James, and Haylie From Mickie and David	false		
112-2858987-8918653	59633751526010	2020-07-09T16:47:44+00:00	2020-07-09T09:47:44-07:00	2020-07-09T17:17:20+00:00	2020-07-14T06:59:59+00:00	-5	z736b1z0xdq9t5p@marketplace.amazon.com	Moses Richmond	+1 346-307-9643 ext. 72969	ABR001	Purchase Now for Delivery by Monday | Arabella Bouquets 12 Stems of Fresh Cut Red Roses in a Free Designer Glass Vase	1	0	1	Standard	Patrice Joseph	7844 W TIDWELL RD STE 130			HOUSTON	TX	77040-5862	US			false		
114-7489891-3957011	27999442394186	2020-07-09T16:55:56+00:00	2020-07-09T09:55:56-07:00	2020-07-09T17:25:02+00:00	2020-07-14T06:59:59+00:00	-5	4xm6mj13mdqdvgp@marketplace.amazon.com	Sonia	+1 346-307-9643 ext. 62382	ABM010	Purchase Now for Delivery by Monday | The Spring Fling Bouquet by Arabella Bouquets with a Free Designer Glass Vase	1	0	1	Expedited	Sonia Gonzales	2800 BRADEN AVE			MODESTO	CA	95356-0648	US		Happy Birthday. Love you Stinkers. From Tia Cici	false		
112-4696065-4335413	66654277606090	2020-07-09T17:50:46+00:00	2020-07-09T10:50:46-07:00	2020-07-09T18:18:14+00:00	2020-07-14T06:59:59+00:00	-5	f7p7yl6wfvt9fkr@marketplace.amazon.com	Claudio Almonte	+1 314-282-9402 ext. 11048	ABR0022	Purchase Now for Delivery by Monday | Arabella Farm Direct Bouquet of 12 Fresh Cut Pink Roses with a Free Glass Vase	1	0	1	Expedited	Vera Selig Lluberes	1279 ALEXANDER DR			GUILFORD	CT	06437-5032	US		Muchísimas felicidades querida Vera en tu graduación. EXITOS De Claudio Y Angela	false		
112-0477192-5760262	69689861066274	2020-07-09T17:58:09+00:00	2020-07-09T10:58:09-07:00	2020-07-09T18:22:15+00:00	2020-07-14T06:59:59+00:00	-5	zrzb068ql5br4sd@marketplace.amazon.com	Jodie Calandrino	+1 346-307-9643 ext. 37564	ABR013	Arabella Farm Direct Bouquet of 18 Fresh Cut Yellow Roses with a Free Glass Vase	1	0	1	Expedited	Mr. and Mrs. Robert Flanigan	15760 WOODRING DR			LIVONIA	MI	48154-2931	US		God bless you both as you celebrate your Golden wedding anniversary! With much love, Jodie and Gus From Jodie and Gus Calandrino	false		
113-7465911-4939444	39932537818690	2020-07-09T18:00:59+00:00	2020-07-09T11:00:59-07:00	2020-07-09T18:31:19+00:00	2020-07-14T06:59:59+00:00	-5	f73dp489lf7k7f3@marketplace.amazon.com	Ken Eastman	+1 346-307-9643 ext. 16807	ABR004	Arabella Farm Direct Bouquet of 12 Fresh Cut Yellow Roses with a Free Glass Vase	1	0	1	Expedited	Carrie Bernal	283 ANACAPA ISLAND DR			CAMARILLO	CA	93012-9107	US			false		
114-3899325-7719428	11486606555938	2020-07-09T18:20:46+00:00	2020-07-09T11:20:46-07:00	2020-07-09T18:46:17+00:00	2020-07-14T06:59:59+00:00	-5	mg0bdy569qvd3h1@marketplace.amazon.com	shari lillestolen	+1 346-307-9643 ext. 81044	ABR0022	Purchase Now for Delivery by Monday | Arabella Farm Direct Bouquet of 12 Fresh Cut Pink Roses with a Free Glass Vase	1	0	1	Expedited	Bethany Rallis	86 BLUEBERRY LN			JAMESTOWN	RI	02835-2903	US		Welcome dear baby Ella. Sending our love and best wishes for you and Mom. From Shari and Tom	false		
114-1998545-7756216	39761385586194	2020-07-09T18:21:17+00:00	2020-07-09T11:21:17-07:00	2020-07-09T18:47:11+00:00	2020-07-14T06:59:59+00:00	-5	f6xb096zgj1gsb5@marketplace.amazon.com	kathyholden	+1 346-307-9643 ext. 73368	ABR0022	Purchase Now for Delivery by Monday | Arabella Farm Direct Bouquet of 12 Fresh Cut Pink Roses with a Free Glass Vase	1	0	1	Expedited	Barbara Fitzpatrick	1125 CAMPAGNOLI AVE			COPIAGUE	NEW YORK	11726-2311	US		Happy Birthday, from your baby brother From John	false		
114-8895896-9875426	53573808477546	2020-07-09T18:47:37+00:00	2020-07-09T11:47:37-07:00	2020-07-09T19:05:39+00:00	2020-07-14T06:59:59+00:00	-5	ywxkhcjt0mdpnvr@marketplace.amazon.com	Anne Degn Sørensen	+1 347-448-3190 ext. 23766	ABR014	Arabella Bouquets 18 Stems of Fresh Cut White Roses in a Free Designer Glass Vase	1	0	1	Expedited	Birgitte Sandgaard A	12263 CORAL BURST LN			PARKER	CO	80134-5020	US			false		
114-6766374-3645859	22115695859450	2020-07-09T18:52:55+00:00	2020-07-09T11:52:55-07:00	2020-07-09T19:21:50+00:00	2020-07-14T06:59:59+00:00	-5	y2j1tlfhl1wjrt9@marketplace.amazon.com	Thomas Le	+1 346-307-9643 ext. 81363	ABR0022	Purchase Now for Delivery by Monday | Arabella Farm Direct Bouquet of 12 Fresh Cut Pink Roses with a Free Glass Vase	1	0	1	Expedited	thuy	14123 CHAGALL LN			FONTANA	CA	92335-0565	US		Happy Birthday 🎁🎁 Mom We love you  From all of us Trinh, minh, thuy, thao From Love	false		
114-7485755-1931445	14807816906210	2020-07-09T18:55:20+00:00	2020-07-09T11:55:20-07:00	2020-07-09T19:24:36+00:00	2020-07-14T06:59:59+00:00	-5	8q5d8xwjts7zf0b@marketplace.amazon.com	jean d harris	+1 415-851-9136 ext. 08902	ABM010	Purchase Now for Delivery by Monday | The Spring Fling Bouquet by Arabella Bouquets with a Free Designer Glass Vase	1	0	1	Expedited	maria	anguilar	2108 Oris Street		Compton	california	90222	US		Maria- Feel better Love your friend Jean From jean d harris	false		
111-7515596-7399406	23583795620330	2020-07-09T18:58:43+00:00	2020-07-09T11:58:43-07:00	2020-07-09T19:26:19+00:00	2020-07-14T06:59:59+00:00	-5	3cgmxjqhs6n4m6n@marketplace.amazon.com	Joseph Cristello	+1 415-851-9136 ext. 86103	ABR0055	Purchase Now for Delivery by Monday | Arabella Farm Direct Bouquet of 12 Stems of Fresh Cut Hot Pink Roses in a Free Designer Glass Vase	1	0	1	Expedited	Ana McMahon	76 BULLET HOLE RD			CARMEL	NY	10512-6814	US		Happy Ana Day! From Joseph Cristello	false		
111-3997536-6637006	32663357569154	2020-07-09T19:18:56+00:00	2020-07-09T12:18:56-07:00	2020-07-09T19:40:34+00:00	2020-07-14T06:59:59+00:00	-5	hfhh2rkgj73d8hh@marketplace.amazon.com	Renee Ingram	+1 347-448-3190 ext. 96664	ABR0055	Purchase Now for Delivery by Monday | Arabella Farm Direct Bouquet of 12 Stems of Fresh Cut Hot Pink Roses in a Free Designer Glass Vase	1	0	1	Expedited	Latifah Larry	3660 SAINT ROSE PKWY UNIT 5205			HENDERSON	NV	89052-4863	US		Enjoy your gift! We wish you a spectacular birthday! From Dad, Renee and brothers 2020	false		
114-1942002-8695432	63619140576210	2020-07-09T19:30:01+00:00	2020-07-09T12:30:01-07:00	2020-07-09T20:00:17+00:00	2020-07-14T06:59:59+00:00	-5	bwmlxb952khyrzj@marketplace.amazon.com	CJ Gauthier	+1 346-307-9643 ext. 16416	ABM020	Summer Sunset Bouquet by Arabella Bouquets	1	0	1	Expedited	Craig Gauthier	1301 S LINCOLN AVE APT 416			VINELAND	NJ	08361-6688	US			false		
112-1342110-8252263	45413178012786	2020-07-09T19:43:23+00:00	2020-07-09T12:43:23-07:00	2020-07-09T20:06:05+00:00	2020-07-14T06:59:59+00:00	-5	zg533z8bq33gjbn@marketplace.amazon.com	sarah patterson	+1 346-307-9643 ext. 43559	ABM010	Purchase Now for Delivery by Monday | The Spring Fling Bouquet by Arabella Bouquets with a Free Designer Glass Vase	1	0	1	Expedited	Angie MasonSmith	5531 CRANEY CT SE			LACEY	WA	98503-8012	US		I-Grants suck ass! Thank you so much for doing all of that incredibly thankless  work. You are deeply appreciated and you make a huge difference to a lot of people, don’t lose sight of that. From sarah	false		
112-4445715-3736257	04132772146882	2020-07-09T19:47:48+00:00	2020-07-09T12:47:48-07:00	2020-07-09T20:18:11+00:00	2020-07-14T06:59:59+00:00	-5	kr6g5sf35h6s5qf@marketplace.amazon.com	Katelyn Kane	+1 346-307-9643 ext. 32943	ABM022	Purple Extravagance Bouquet by Arabella Bouquets	1	0	1	Expedited	Katelyn Kane	30 DERBY RD			LOGAN TOWNSHIP	NJ	08085-1432	US			false		
113-9081815-0433069	33082203678314	2020-07-09T20:03:26+00:00	2020-07-09T13:03:26-07:00	2020-07-09T20:32:24+00:00	2020-07-14T06:59:59+00:00	-5	5v4ccz4qpl81qhv@marketplace.amazon.com	Marilyn E. Sitaker	+1 346-307-9643 ext. 68581	ABR0022	Purchase Now for Delivery by Monday | Arabella Farm Direct Bouquet of 12 Fresh Cut Pink Roses with a Free Glass Vase	1	0	1	Expedited	Sandra Witt	1658 ANITA AVE			GROSSE POINTE WOODS	MI	48236-1421	US			false		
113-5656505-3685842	61233068835586	2020-07-09T21:13:02+00:00	2020-07-09T14:13:02-07:00	2020-07-09T21:23:34+00:00	2020-07-14T06:59:59+00:00	-5	nbwpsvm214189qp@marketplace.amazon.com	Michael Landes	+1 347-448-3190 ext. 77398	ABR0022	Purchase Now for Delivery by Monday | Arabella Farm Direct Bouquet of 12 Fresh Cut Pink Roses with a Free Glass Vase	1	0	1	Expedited	Kerry Coyle	3010 Church Hill Drive			Boynton Beach	Fl	33435	US		Kerry, thinking of you.   Love, Ginny & Michael From Michael Landes	false		
114-4487923-2376268	58876874017594	2020-07-09T22:07:20+00:00	2020-07-09T15:07:20-07:00	2020-07-09T22:34:53+00:00	2020-07-14T06:59:59+00:00	-5	q407rd8dlw41vrd@marketplace.amazon.com	Bruce Hoblitzell	+1 347-448-3190 ext. 21695	ABR0055	Purchase Now for Delivery by Monday | Arabella Farm Direct Bouquet of 12 Stems of Fresh Cut Hot Pink Roses in a Free Designer Glass Vase	1	0	1	Expedited	Maya Vandament	3928 E LIBERTY AVE			SPOKANE	WA	99217-6966	US		Happy Birthday Maya! Love you Grandpa & Granmy From Bruce Hoblitzell	false		
111-4047060-8077002	35920601842066	2020-07-09T22:11:40+00:00	2020-07-09T15:11:40-07:00	2020-07-09T22:40:51+00:00	2020-07-14T06:59:59+00:00	-5	14gk0tw67cr8zfv@marketplace.amazon.com	Donna Marguglio	+1 210-728-4548 ext. 72224	ABR0066	Purchase Now for Delivery by Monday | Arabella Bouquets 12 Stems of Fresh Cut White Roses in a Free Designer Glass Vase	1	0	1	Expedited	Gloriann Marguglio	180 KIELDER DR			LEWISVILLE	TX	75067-6713	US			false		
112-1129571-4341821	45209922885370	2020-07-09T22:29:07+00:00	2020-07-09T15:29:07-07:00	2020-07-09T22:56:52+00:00	2020-07-14T06:59:59+00:00	-5	f0131p3tmk8bzm1@marketplace.amazon.com	Phillip Bruno	+1 346-307-9643 ext. 69619	ABM010	Purchase Now for Delivery by Monday | The Spring Fling Bouquet by Arabella Bouquets with a Free Designer Glass Vase	1	0	1	Expedited	Chris and Sara Ernst	2954 N CYPRUS FOX LOOP	POST FALLS ID 83854		POST FALLS	ID	83854-8077	US		Even though your wedding has changed, your love will always be the same.   Miss you guys and looking forward to your reception soon From Phillip And Megan	false		
113-4801172-9052262	25327530443650	2020-07-09T23:06:57+00:00	2020-07-09T16:06:57-07:00	2020-07-09T23:30:04+00:00	2020-07-14T06:59:59+00:00	-5	fp9vzcvddft1d40@marketplace.amazon.com	Christine Gatti-Olsen	+1 346-307-9643 ext. 50189	ABM010	Purchase Now for Delivery by Monday | The Spring Fling Bouquet by Arabella Bouquets with a Free Designer Glass Vase	1	0	1	Expedited	Marcell Gutche	CENTRAL WASH HOSPITAL/ NEUROLOGY DEPT	1201 S MILLER ST		WENATCHEE	WA	98801-3201	US		Happy Birthday Marcell! Hope you have a fabulous Day!!!!  Lets get together soon Lady. From Kryssy	false		
112-1546595-4025051	43086239823554	2020-07-09T23:49:04+00:00	2020-07-09T16:49:04-07:00	2020-07-10T00:13:43+00:00	2020-07-14T06:59:59+00:00	-5	0ljjghqmv1mnjpk@marketplace.amazon.com	evelyn clayton	+1 347-448-3190 ext. 38916	ABR0055	Purchase Now for Delivery by Monday | Arabella Farm Direct Bouquet of 12 Stems of Fresh Cut Hot Pink Roses in a Free Designer Glass Vase	1	0	1	Expedited	Susan Rivera	130 CLYDE AVE			LONGWOOD	FL	32750-3525	US			false		
111-3338067-0441060	18855213735634	2020-07-10T00:04:38+00:00	2020-07-09T17:04:38-07:00	2020-07-10T00:34:40+00:00	2020-07-14T06:59:59+00:00	-5	6tjfw1lpp02g017@marketplace.amazon.com	jose	+1 347-448-3190 ext. 44941	ABR0022	Purchase Now for Delivery by Monday | Arabella Farm Direct Bouquet of 12 Fresh Cut Pink Roses with a Free Glass Vase	1	0	1	Expedited	Kimberly Medina	116 SUMAC ST			INTERLACHEN	FL	32148-5811	US			false		
111-4201114-5676251	05060427421090	2020-07-10T00:35:40+00:00	2020-07-09T17:35:40-07:00	2020-07-10T01:03:03+00:00	2020-07-14T06:59:59+00:00	-5	81fsslp237rn7jz@marketplace.amazon.com	Diane McNamara	+1 347-448-3190 ext. 40353	ABR004	Arabella Farm Direct Bouquet of 12 Fresh Cut Yellow Roses with a Free Glass Vase	1	0	1	Expedited	BARBARA MCNAMARA	2665 JAVA CT			DENVER	CO	80211-4018	US		Because I love and miss you Mama. Xoxo Didees From Diane McNamara	false		
112-8914228-9229845	16980389049530	2020-07-10T01:12:59+00:00	2020-07-09T18:12:59-07:00	2020-07-10T01:13:55+00:00	2020-07-14T06:59:59+00:00	-5	tg6h6fqjbjvlhj8@marketplace.amazon.com	george h. ransford	+1 346-307-9643 ext. 07068	ABR0022	Purchase Now for Delivery by Monday | Arabella Farm Direct Bouquet of 12 Fresh Cut Pink Roses with a Free Glass Vase	1	0	1	Expedited	Suzanne Kaldon	2426 MARSH HILL RD			MC HENRY	MD	21541-1496	US		Happy 70th Suzanne! With love and best wishes for many, many more, Christiana & George	false		
111-9719954-5623445	29683839998626	2020-07-10T00:47:50+00:00	2020-07-09T17:47:50-07:00	2020-07-10T01:14:02+00:00	2020-07-14T06:59:59+00:00	-5	tbpbk41m2hyff9n@marketplace.amazon.com	Jimmy Dykes	+1 347-448-3190 ext. 21515	ABR0022	Purchase Now for Delivery by Monday | Arabella Farm Direct Bouquet of 12 Fresh Cut Pink Roses with a Free Glass Vase	1	0	1	Expedited	Jimmy Dykes	36360 IRIS DR			BARSTOW	CA	92311-2118	US		Enjoy your gift! From Jimmy, Ashley and Lola	false		
112-1685585-7920256	25328856446306	2020-07-10T01:12:11+00:00	2020-07-09T18:12:11-07:00	2020-07-10T01:42:30+00:00	2020-07-14T06:59:59+00:00	-5	pml8hjwjw73mps3@marketplace.amazon.com	Steven	+1 346-307-9643 ext. 01873	ABR0022	Purchase Now for Delivery by Monday | Arabella Farm Direct Bouquet of 12 Fresh Cut Pink Roses with a Free Glass Vase	1	0	1	Expedited	Kelly McCrillis	409 M ST			SPARKS	NV	89431-3751	US			false		
112-3924783-8211431	44152247187986	2020-07-10T01:15:06+00:00	2020-07-09T18:15:06-07:00	2020-07-10T01:43:57+00:00	2020-07-14T06:59:59+00:00	-5	pml8hjwjw73mps3@marketplace.amazon.com	Steven	+1 314-282-9402 ext. 92123	ABR0022	Purchase Now for Delivery by Monday | Arabella Farm Direct Bouquet of 12 Fresh Cut Pink Roses with a Free Glass Vase	1	0	1	Expedited	Tina Pennewell	431 HICKORY AVE			DEPTFORD	NJ	08096-4424	US		Happy Birthday Mom (and Mother's Day) From Steven	false		
112-4864296-0645014	50638336538730	2020-07-10T01:19:21+00:00	2020-07-09T18:19:21-07:00	2020-07-10T01:48:45+00:00	2020-07-14T06:59:59+00:00	-5	pml8hjwjw73mps3@marketplace.amazon.com	Steven	+1 314-282-9402 ext. 35055	ABR004	Arabella Farm Direct Bouquet of 12 Fresh Cut Yellow Roses with a Free Glass Vase	1	0	1	Expedited	Kelly McCrillis	409 M ST			SPARKS	NV	89431-3751	US		Happy Birthday Schmoop! And thank you for your patience while I'm away. From Steven	false		
112-4864296-0645014	19676959211010	2020-07-10T01:19:21+00:00	2020-07-09T18:19:21-07:00	2020-07-10T01:48:45+00:00	2020-07-14T06:59:59+00:00	-5	pml8hjwjw73mps3@marketplace.amazon.com	Steven	+1 314-282-9402 ext. 35055	ABR0055	Purchase Now for Delivery by Monday | Arabella Farm Direct Bouquet of 12 Stems of Fresh Cut Hot Pink Roses in a Free Designer Glass Vase	1	0	1	Expedited	Kelly McCrillis	409 M ST			SPARKS	NV	89431-3751	US			false		
114-9741112-6395415	44294753047050	2020-07-09T02:33:59+00:00	2020-07-08T19:33:59-07:00	2020-07-10T02:28:44+00:00	2020-07-14T06:59:59+00:00	-5	z09qm0qs72tyhz6@marketplace.amazon.com	aimee Hodierne	+1 346-307-9643 ext. 30267	ABR004	Arabella Farm Direct Bouquet of 12 Fresh Cut Yellow Roses with a Free Glass Vase	1	0	1	Expedited	Sarah Brown	227 TANGLEWOOD CT			DAHINDA	IL	61428-9557	US			false		
113-5220394-3112207	32192437849738	2020-07-10T05:56:29+00:00	2020-07-09T22:56:29-07:00	2020-07-10T06:21:33+00:00	2020-07-14T06:59:59+00:00	-5	zb63j05x9fdt2vy@marketplace.amazon.com	Irene Ruiz	+1 346-307-9643 ext. 01690	ABR0055	Purchase Now for Delivery by Monday | Arabella Farm Direct Bouquet of 12 Stems of Fresh Cut Hot Pink Roses in a Free Designer Glass Vase	1	0	1	Expedited	Mary Patiño	2900 MUIR AVE SPC 35			ATWATER	CA	95301-2344	US		Because Every butterfly deserves beautiful flowers.  Love you sis! From Irene Ruiz	false		
