order-id	order-item-id	purchase-date	payments-date	reporting-date	promise-date	days-past-promise	buyer-email	buyer-name	buyer-phone-number	sku	product-name	quantity-purchased	quantity-shipped	quantity-to-ship	ship-service-level	recipient-name	ship-address-1	ship-address-2	ship-address-3	ship-city	ship-state	ship-postal-code	ship-country	gift-wrap-type	gift-message-text	is-business-order	purchase-order-number	price-designation
113-2819040-1035432	15814616691946	2020-07-10T18:22:07+00:00	2020-07-10T11:22:07-07:00	2020-07-10T18:52:40+00:00	2020-07-15T06:59:59+00:00	-5	kj4csypfncvkj9w@marketplace.amazon.com	Mark Caltagirone	+1 346-307-9643 ext. 77326	ABR0022	Purchase Now for Delivery by Tuesday | Arabella Farm Direct Bouquet of 12 Fresh Cut Pink Roses with a Free Glass Vase	1	0	1	Expedited	MARK CALTAGIRONE	2315 SUTTON RD			YORK	PA	17403-5133	US			false		
112-4829254-6653046	00919895589346	2020-07-10T18:29:36+00:00	2020-07-10T11:29:36-07:00	2020-07-10T18:57:53+00:00	2020-07-15T06:59:59+00:00	-5	v313v837ztqkyfh@marketplace.amazon.com	Katharine T Egan	+1 346-307-9643 ext. 08025	ABR0022	Purchase Now for Delivery by Tuesday | Arabella Farm Direct Bouquet of 12 Fresh Cut Pink Roses with a Free Glass Vase	1	0	1	Expedited	Margaret M. Thomas	3 PURSUIT # 326			ALISO VIEJO	CA	92656-4213	US		Dear Mom. Thinking of you, With love, Kathie From Katharine T Egan	false		
113-0239497-6449803	08128829219650	2020-07-10T18:34:55+00:00	2020-07-10T11:34:55-07:00	2020-07-10T19:03:28+00:00	2020-07-15T06:59:59+00:00	-5	f7nw5cf12vpt7rk@marketplace.amazon.com	Brenda Abdilla	+1 346-307-9643 ext. 69871	ABR0055	Purchase Now for Delivery by Tuesday | Arabella Farm Direct Bouquet of 12 Stems of Fresh Cut Hot Pink Roses in a Free Designer Glass Vase	1	0	1	Expedited	Marie Abdilla	34260 NEW JERSEY ST			CLINTON TWP	MI	48035-5421	US		Marie, we hope you are healing up nicely. We love you very much. Take best care and get well soon. Love, Aunt Margaret and Aunt Brenda From Brenda Abdilla	false		
112-3500557-0740259	49771396291098	2020-07-10T18:51:00+00:00	2020-07-10T11:51:00-07:00	2020-07-10T19:20:01+00:00	2020-07-15T06:59:59+00:00	-5	9ppg9v3d3p0ldcx@marketplace.amazon.com	Son Pham	+1 347-448-3190 ext. 39008	ABR012	Arabella Farm Direct Bouquet of 18 Fresh Cut Pink Roses with a Free Glass Vase	1	0	1	Expedited	Gloria Hughey	359 BERRY RD			PELZER	SC	29669-9672	US			false		
111-8619026-6732239	42885597867138	2020-07-10T19:11:58+00:00	2020-07-10T12:11:58-07:00	2020-07-10T19:40:41+00:00	2020-07-15T06:59:59+00:00	-5	7585mm64m0ldkb7@marketplace.amazon.com	lawrence molleur	+1 346-307-9643 ext. 48334	ABR004	Arabella Farm Direct Bouquet of 12 Fresh Cut Yellow Roses with a Free Glass Vase	1	0	1	Expedited	jean molleur	232 PARK AVE APT A			DALTON	MA	01226-1455	US			false		
111-2397426-5206653	19974119035650	2020-07-10T19:40:10+00:00	2020-07-10T12:40:10-07:00	2020-07-10T20:09:18+00:00	2020-07-15T06:59:59+00:00	-5	c9z5913v30pp64l@marketplace.amazon.com	Jeremy Brown	+1 314-282-9402 ext. 58786	ABR0022	Purchase Now for Delivery by Tuesday | Arabella Farm Direct Bouquet of 12 Fresh Cut Pink Roses with a Free Glass Vase	1	0	1	Expedited	Victoria	1418 E BUCKLEY ST			BROWNFIELD	TX	79316-6002	US		Enjoy your gift! From Jeremy Brown	false		
113-4397823-0382637	03474792360122	2020-07-10T19:49:26+00:00	2020-07-10T12:49:26-07:00	2020-07-10T20:17:11+00:00	2020-07-15T06:59:59+00:00	-5	m4539bnnt373hjs@marketplace.amazon.com	nar	+1 210-728-4548 ext. 93937	ABR0022	Purchase Now for Delivery by Tuesday | Arabella Farm Direct Bouquet of 12 Fresh Cut Pink Roses with a Free Glass Vase	1	0	1	Expedited	The Markarian Family	1693 E ELIZABETH ST			PASADENA	CA	91104-2724	US		Hi Amelia,   I can't wait to meet you and have play dates with you and your sister. I hope you get lots of rest so we can see eachother soon! Love you! From Sophene Eyvazian	false		
113-6242352-0524220	52476475479738	2020-07-10T20:04:58+00:00	2020-07-10T13:04:58-07:00	2020-07-10T20:35:01+00:00	2020-07-15T06:59:59+00:00	-5	drslrtzs5j2dbrh@marketplace.amazon.com	Caryn Visbal	+1 346-307-9643 ext. 37250	ABR0022	Purchase Now for Delivery by Tuesday | Arabella Farm Direct Bouquet of 12 Fresh Cut Pink Roses with a Free Glass Vase	1	0	1	Expedited	Caryn Visbal	16341 HYDE MANOR DR			TAMPA	FL	33647-5139	US			false		
111-4215591-9023449	15285551148410	2020-07-10T21:33:13+00:00	2020-07-10T14:33:13-07:00	2020-07-10T21:40:02+00:00	2020-07-15T06:59:59+00:00	-5	9mx1t40ggnf0839@marketplace.amazon.com	Lucille  P.  Smith	+1 346-307-9643 ext. 66574	ABM002	Arabella Bouquets Fresh Cut White Calla Lilies in a Free Designer Glass Vase	1	0	1	Expedited	Theresa Lane	1122 So East 19th Lane			Cape Coral	Florida	33990	US			false		
114-2357515-4804214	40452479224418	2020-07-10T21:12:30+00:00	2020-07-10T14:12:30-07:00	2020-07-10T21:42:39+00:00	2020-07-15T06:59:59+00:00	-5	55x2jzjm3g92dlt@marketplace.amazon.com	Julienne D. Scheibe	+1 346-307-9643 ext. 18004	ABR0022	Purchase Now for Delivery by Tuesday | Arabella Farm Direct Bouquet of 12 Fresh Cut Pink Roses with a Free Glass Vase	1	0	1	Expedited	Kristina Tadewald	856 SIOUX DR			ROUND LAKE HEIGHTS	IL	60073-4315	US			false		
113-4270318-5937801	08170668235202	2020-07-10T21:21:29+00:00	2020-07-10T14:21:29-07:00	2020-07-10T21:45:11+00:00	2020-07-15T06:59:59+00:00	-5	qckfk09t4czqx5k@marketplace.amazon.com	Catherine R Allen	+937-748-2777	ABR0022	Purchase Now for Delivery by Tuesday | Arabella Farm Direct Bouquet of 12 Fresh Cut Pink Roses with a Free Glass Vase	1	0	1	Standard	Victoria Chapman	110 PADDOCK TRL			SPRINGBORO	OH	45066-9544	US		Victoria, Happy 16th Birthday! Love, Bill and Cathy Allen xxoo From Catherine R Allen	false		
114-0512034-3693849	36857979217738	2020-07-10T21:28:02+00:00	2020-07-10T14:28:02-07:00	2020-07-10T21:53:00+00:00	2020-07-15T06:59:59+00:00	-5	dbg321t0d1p8zd0@marketplace.amazon.com	Marcjana Turns	+1 346-307-9643 ext. 16649	ABR012	Arabella Farm Direct Bouquet of 18 Fresh Cut Pink Roses with a Free Glass Vase	1	0	1	Expedited	Lori Trauber	153 JEFFERSON SQ			NASHVILLE	TN	37215-3701	US		Happy new granddaughter Lo Lo. We love you and can't wait to see a picture. Mj and Tom From Marcjana Turns	false		
112-1123499-4746636	34400515218746	2020-07-10T22:33:38+00:00	2020-07-10T15:33:38-07:00	2020-07-10T22:56:49+00:00	2020-07-15T06:59:59+00:00	-5	5qjxjz6t7mqtlm3@marketplace.amazon.com	christine cittadino	+1 347-448-3190 ext. 98696	ABM010	The Spring Fling Bouquet by Arabella Bouquets with a Free Designer Glass Vase	1	0	1	Expedited	Dianne Broglie	30551 ONION CRK			BULVERDE	TX	78163-2720	US		You are an amazing sister and I so appreciate you taking care of me and putting up with me for so long! I love you so much ❤️Love  Chris xoxo From christine cittadino	false		
112-9862327-9533858	33213824181010	2020-07-10T22:38:00+00:00	2020-07-10T15:38:00-07:00	2020-07-10T23:02:16+00:00	2020-07-15T06:59:59+00:00	-5	hwjmjbpmly295nw@marketplace.amazon.com	Travis	+1 347-448-3190 ext. 18172	ABM010	The Spring Fling Bouquet by Arabella Bouquets with a Free Designer Glass Vase	1	0	1	Expedited	Megan Brazelton	15173 NORTH RD			FENTON	MI	48430-1381	US		Hi Megan: Thanks for all you do from your team members at M300.  We all appreciate it and you!!! From Mortgage300 Team	false		
113-1190650-5750619	32066162247170	2020-07-10T23:00:47+00:00	2020-07-10T16:00:47-07:00	2020-07-10T23:30:41+00:00	2020-07-15T06:59:59+00:00	-5	kcgjsrfycrhdwjl@marketplace.amazon.com	kajin mayi	+1 346-307-9643 ext. 64571	ABR0022	Purchase Now for Delivery by Tuesday | Arabella Farm Direct Bouquet of 12 Fresh Cut Pink Roses with a Free Glass Vase	1	0	1	Expedited	Hajin Mayi	2110 42ND ST S			MOORHEAD	MN	56560-8205	US		Enjoy your gift! Happy birthday Sis! Love you! From kajin mayi	false		
112-2024638-9700222	60477803769018	2020-07-10T23:15:43+00:00	2020-07-10T16:15:43-07:00	2020-07-10T23:44:43+00:00	2020-07-15T06:59:59+00:00	-5	02jxwv0mzhcll3t@marketplace.amazon.com	April Helgeson	+1 314-282-9402 ext. 99977	ABM010	The Spring Fling Bouquet by Arabella Bouquets with a Free Designer Glass Vase	1	0	1	Expedited	Jackie Sipe	6910 LOCKE DR			SHERRILLS FORD	NC	28673-9738	US		I hope you know how much I love and appreciate you! From April Helgeson	false		
113-2493364-7000219	47653072206794	2020-07-10T23:39:24+00:00	2020-07-10T16:39:24-07:00	2020-07-11T00:08:44+00:00	2020-07-15T06:59:59+00:00	-5	z3zswk5sn8l63hp@marketplace.amazon.com	Craig Prewit	+1 346-307-9643 ext. 33920	ABR0022	Purchase Now for Delivery by Tuesday | Arabella Farm Direct Bouquet of 12 Fresh Cut Pink Roses with a Free Glass Vase	3	0	3	Expedited	Jesica D	1132 E COUNTRY CROSSING WAY			SAN TAN VALLEY	AZ	85143-6183	US		Enjoy your gift! From Craig Prewit	false		
112-8403152-6961066	13377199682650	2020-07-11T00:11:57+00:00	2020-07-10T17:11:57-07:00	2020-07-11T00:33:30+00:00	2020-07-15T06:59:59+00:00	-5	7gz696hsf7w38hp@marketplace.amazon.com	Nick Palky	+1 210-728-4548 ext. 00413	ABR0055	Purchase Now for Delivery by Tuesday | Arabella Farm Direct Bouquet of 12 Stems of Fresh Cut Hot Pink Roses in a Free Designer Glass Vase	1	0	1	Expedited	Joanne Goldstein	117 BOW ST UNIT 203			PORTSMOUTH	NH	03801-8801	US		Dear JoJo - with love. From Nick Palky	false		
112-7306336-6322612	03827729415562	2020-07-11T00:22:14+00:00	2020-07-10T17:22:14-07:00	2020-07-11T00:51:21+00:00	2020-07-15T06:59:59+00:00	-5	335vbxwtr64tbr4@marketplace.amazon.com	Deana Dalton	+1 346-307-9643 ext. 77116	ABR0022	Purchase Now for Delivery by Tuesday | Arabella Farm Direct Bouquet of 12 Fresh Cut Pink Roses with a Free Glass Vase	1	0	1	Expedited	Aimey, Ryan and Nora Shaw	8144 S SNOW BIRD AVE			BOISE	ID	83716-5079	US		Welcome to the family sweet Nora. We love you to the moon and back From Love Uncle Jack and Aunt Deana	false		
111-1619142-7052229	58810485660346	2020-07-11T00:39:16+00:00	2020-07-10T17:39:16-07:00	2020-07-11T01:09:46+00:00	2020-07-15T06:59:59+00:00	-5	5rlqhhy95l5mpkl@marketplace.amazon.com	Jamie Henderson	+1 346-307-9643 ext. 18511	ABR0022	Purchase Now for Delivery by Tuesday | Arabella Farm Direct Bouquet of 12 Fresh Cut Pink Roses with a Free Glass Vase	1	0	1	Expedited	Ms. Cara G. Lewis	2831 HAMPSHIRE RD			CLEVELAND HEIGHTS	OH	44118-1759	US			false		
112-3664414-1964212	27337992624498	2020-07-11T01:13:42+00:00	2020-07-10T18:13:42-07:00	2020-07-11T01:41:51+00:00	2020-07-15T06:59:59+00:00	-5	swfchxf9ps4sx2m@marketplace.amazon.com	norma  linza	+1 314-282-9402 ext. 16261	ABR0022	Purchase Now for Delivery by Tuesday | Arabella Farm Direct Bouquet of 12 Fresh Cut Pink Roses with a Free Glass Vase	1	0	1	Expedited	Ruth Linza	16 MARTHA AVE			OLEAN	NY	14760-3913	US			false		
111-3777486-8977027	67941605080938	2020-07-11T01:52:40+00:00	2020-07-10T18:52:40-07:00	2020-07-11T02:20:46+00:00	2020-07-15T06:59:59+00:00	-5	44wdr3w2zhph96q@marketplace.amazon.com	Saul Navarrete	+1 346-307-9643 ext. 63880	ABR001	Purchase Now for Delivery by Tuesday | Arabella Bouquets 12 Stems of Fresh Cut Red Roses in a Free Designer Glass Vase	1	0	1	Expedited	Mariana	413 SUNDANCE LN			MADERA	CA	93637-4227	US		Hey babe :) hope you enjoy this gift beautiful I love you so much <3 From annoying army dude	false		
112-8306934-8404211	45001988924386	2020-07-11T01:58:45+00:00	2020-07-10T18:58:45-07:00	2020-07-11T02:24:56+00:00	2020-07-15T06:59:59+00:00	-5	045bhhtgz83kn67@marketplace.amazon.com	Amanda Friend	+1 346-307-9643 ext. 62069	ABM010	The Spring Fling Bouquet by Arabella Bouquets with a Free Designer Glass Vase	1	0	1	Expedited	Julie O'Donnell	29658 HICKORY RD			LEWES	DE	19958-3953	US		Julie, Thank you so much for helping me. I appreciate it more than you know. Love, Amanda From Amanda Friend	false		
111-0076356-1765019	65172591847826	2020-07-11T02:01:11+00:00	2020-07-10T19:01:11-07:00	2020-07-11T02:29:52+00:00	2020-07-15T06:59:59+00:00	-5	3634hgdxrwphtpp@marketplace.amazon.com	Megan Nash	+1 346-307-9643 ext. 59575	ABR0022	Purchase Now for Delivery by Tuesday | Arabella Farm Direct Bouquet of 12 Fresh Cut Pink Roses with a Free Glass Vase	1	0	1	Expedited	Stacia Reid	1224 TEXAS ST			BELLINGHAM	WA	98229-4634	US			false		
114-1257193-6220247	18393467636306	2020-07-11T02:59:33+00:00	2020-07-10T19:59:33-07:00	2020-07-11T03:28:40+00:00	2020-07-15T06:59:59+00:00	-5	nh4jmpxwbj647cl@marketplace.amazon.com	Ana Damian Garza	+1 346-307-9643 ext. 08963	ABR001	Purchase Now for Delivery by Tuesday | Arabella Bouquets 12 Stems of Fresh Cut Red Roses in a Free Designer Glass Vase	1	0	1	Expedited	Ana Damian Garza	1400 N WELLS ST APT 1112			EDNA	TX	77957-4204	US		Te amo mi Vida Hermosa❤️ From Damian tu Amor❤️❤️❤️	false		
113-5250553-4724257	66356326147722	2020-07-11T03:12:39+00:00	2020-07-10T20:12:39-07:00	2020-07-11T03:41:28+00:00	2020-07-15T06:59:59+00:00	-5	bty8rv18zgx3y6c@marketplace.amazon.com	Barbara Milrod,M.D.	+1 346-307-9643 ext. 26176	ABR0022	Purchase Now for Delivery by Tuesday | Arabella Farm Direct Bouquet of 12 Fresh Cut Pink Roses with a Free Glass Vase	1	0	1	Expedited	Frances Milrod	HEBREW HOME FOR THE AGED	5901 PALISADE AVE		BRONX	NY	10471-1251	US		Happy birthday, Minsy! Love, Barbara <3 From Barbara Milrod,M.D.	false		
114-6515545-5486658	08190598329522	2020-07-11T03:39:09+00:00	2020-07-10T20:39:09-07:00	2020-07-11T04:06:27+00:00	2020-07-15T06:59:59+00:00	-5	s51zzvgznb0hv80@marketplace.amazon.com	AK Gentle	+1 314-282-9402 ext. 37091	ABR0022	Purchase Now for Delivery by Tuesday | Arabella Farm Direct Bouquet of 12 Fresh Cut Pink Roses with a Free Glass Vase	1	0	1	Expedited	Alicia Minear	9059 VALLEY ST			OMAHA	NE	68124-2912	US			false		
114-9079535-3815425	44396095481682	2020-07-11T04:38:01+00:00	2020-07-10T21:38:01-07:00	2020-07-11T05:10:09+00:00	2020-07-15T06:59:59+00:00	-5	dd5mtv2q3by5mkz@marketplace.amazon.com	Jesus Zamora	+1 346-307-9643 ext. 27088	ABR0022	Purchase Now for Delivery by Tuesday | Arabella Farm Direct Bouquet of 12 Fresh Cut Pink Roses with a Free Glass Vase	1	0	1	Expedited	Maria Zamora	HOUSE 828 E SAMOA ST			LINDSAY	CA	93247-2310	US			false		
