order-id	order-item-id	purchase-date	payments-date	reporting-date	promise-date	days-past-promise	buyer-email	buyer-name	buyer-phone-number	sku	product-name	quantity-purchased	quantity-shipped	quantity-to-ship	ship-service-level	recipient-name	ship-address-1	ship-address-2	ship-address-3	ship-city	ship-state	ship-postal-code	ship-country	gift-wrap-type	gift-message-text	is-business-order	purchase-order-number	price-designation
111-7028540-7337037	30815536637962	2020-07-11T11:19:47+00:00	2020-07-11T04:19:47-07:00	2020-07-11T11:47:42+00:00	2020-07-15T06:59:59+00:00	-3	92786ls0mpc4mwq@marketplace.amazon.com	margaret hoskins	+1 347-448-3190 ext. 56335	ABR0022	Purchase Now for Delivery by Wednesday | Arabella Farm Direct Bouquet of 12 Fresh Cut Pink Roses with a Free Glass Vase	1	0	1	Expedited	Mary Reynolds	5542 GARDEN PARK LN			WINSTON SALEM	NC	27106-8003	US		Happy Belated Birthday love u!! From Catherine and kids	false		
111-8969666-0381035	18982965742306	2020-07-11T12:42:38+00:00	2020-07-11T05:42:38-07:00	2020-07-11T13:10:19+00:00	2020-07-15T06:59:59+00:00	-3	67djlwgb3mb351j@marketplace.amazon.com	judy barber	+1 415-851-9136 ext. 54594	ABR004	Arabella Farm Direct Bouquet of 12 Fresh Cut Yellow Roses with a Free Glass Vase	1	0	1	Expedited	Freda Wells	222 TARK HILL RD ROAD			BLAINE	KY	41124-8658	US		HAPPY BIRTHDAY MOM.  LOVE YOU From judy barber	false		
112-5023973-5526617	04882285158282	2020-07-11T12:46:06+00:00	2020-07-11T05:46:06-07:00	2020-07-11T13:16:13+00:00	2020-07-15T06:59:59+00:00	-3	0fdx8l1q3xdp4ws@marketplace.amazon.com	irwin Blake	+1 346-307-9643 ext. 71456	ABR0022	Purchase Now for Delivery by Wednesday | Arabella Farm Direct Bouquet of 12 Fresh Cut Pink Roses with a Free Glass Vase	1	0	1	Expedited	Irwin Blake	106 Stone Manor Dr			Somerset	NJ	08873	US			false		
114-8310543-3309842	61040097777754	2020-07-11T12:57:55+00:00	2020-07-11T05:57:55-07:00	2020-07-11T13:18:28+00:00	2020-07-15T06:59:59+00:00	-3	0bxhx698myz9cgj@marketplace.amazon.com	Jerry T. Phillips	+1 347-448-3190 ext. 16423	ABM010	Purchase Now for Delivery by Wednesday | The Spring Fling Bouquet by Arabella Bouquets with a Free Designer Glass Vase	1	0	1	Expedited	Anna Tsafatinos	667 SNUG IS			CLEARWATER BEACH	FL	33767-1830	US		Thanks for all you do! Phyllis and Jerry From Jerry T. Phillips	false		
111-1114341-8481806	53243892458442	2020-07-11T16:31:41+00:00	2020-07-11T09:31:41-07:00	2020-07-11T16:58:38+00:00	2020-07-15T06:59:59+00:00	-3	xmhh3zszqxz1vf3@marketplace.amazon.com	Thomas Ecobelli	+1 346-307-9643 ext. 30767	ABR0022	Purchase Now for Delivery by Wednesday | Arabella Farm Direct Bouquet of 12 Fresh Cut Pink Roses with a Free Glass Vase	1	0	1	Standard	Vickie Cole	1211 COUNTY ROAD 308			CLEVELAND	TX	77327-1689	US		Happy birthday to our dearest friend Vickie!! Much love, Tom and Roman From Tom and Roman	false		
112-8885416-2126640	63327568041466	2020-07-11T16:34:30+00:00	2020-07-11T09:34:30-07:00	2020-07-11T17:02:01+00:00	2020-07-15T06:59:59+00:00	-3	cz88t0l6qq3xdf9@marketplace.amazon.com	Kathy Cooper	+1 346-307-9643 ext. 44156	ABR0022	Purchase Now for Delivery by Wednesday | Arabella Farm Direct Bouquet of 12 Fresh Cut Pink Roses with a Free Glass Vase	1	0	1	Expedited	Kathleen Cooper	28967 FLOWERPARK DR			SANTA CLARITA	CA	91387-1802	US		Congratulations on your beautiful Legynn! Such a beautiful family you two have created for us all to love From Kathy Cooper	false		
111-0592847-6650603	19789180494018	2020-07-11T16:35:01+00:00	2020-07-11T09:35:01-07:00	2020-07-11T17:02:52+00:00	2020-07-15T06:59:59+00:00	-3	1xf06nvbq5h0cw5@marketplace.amazon.com	Jennifer Mays	+1 346-307-9643 ext. 74583	ABR001	Purchase Now for Delivery by Wednesday | Arabella Bouquets 12 Stems of Fresh Cut Red Roses in a Free Designer Glass Vase	1	0	1	Expedited	Karen Richard	4024 RANDALL LN			CARROLLTON	TX	75007-1092	US		Just thinking of you.  40 is a big one. From All of Us	false		
112-8042426-3964265	41405895332666	2020-07-11T17:39:50+00:00	2020-07-11T10:39:50-07:00	2020-07-11T18:02:54+00:00	2020-07-15T06:59:59+00:00	-3	p9b2qmvkrntqctv@marketplace.amazon.com	LaiNa Ching	+1 347-448-3190 ext. 84421	ABM010	The Spring Fling Bouquet by Arabella Bouquets with a Free Designer Glass Vase	1	0	1	Expedited	Joey Trompa	1620 W ORCHID LN			CHANDLER	AZ	85224-4081	US		Thank you for always being the best! Lai Na loves you! Kiss mama and Mary J for me!!! From LaiNa	false		
112-7645518-7215412	22668432416770	2020-07-11T18:15:29+00:00	2020-07-11T11:15:29-07:00	2020-07-11T18:42:14+00:00	2020-07-15T06:59:59+00:00	-3	tjfx4s49s1jdgms@marketplace.amazon.com	Rev. Edward D. Lofton	+1 346-307-9643 ext. 52683	ABR0055	Purchase Now for Delivery by Wednesday | Arabella Farm Direct Bouquet of 12 Stems of Fresh Cut Hot Pink Roses in a Free Designer Glass Vase	1	0	1	Expedited	Darlene Druyun	19156 OLD LOGGING RD			WILDWOOD	MO	63038-1100	US			false		
113-4138432-1865029	16904071806778	2020-07-11T18:23:59+00:00	2020-07-11T11:23:59-07:00	2020-07-11T18:47:41+00:00	2020-07-15T06:59:59+00:00	-3	dhmscrlf65vvxty@marketplace.amazon.com	Justin Plebaniak	+1 346-307-9643 ext. 91051	ABR0022	Purchase Now for Delivery by Wednesday | Arabella Farm Direct Bouquet of 12 Fresh Cut Pink Roses with a Free Glass Vase	1	0	1	Expedited	Samantha Reddick	2811 SW 13TH CT			BOYNTON BEACH	FL	33426-7811	US		Pretty flowers for a pretty Lady. From Justin Plebaniak	false		
112-5464977-3649847	11998982933538	2020-07-11T18:35:04+00:00	2020-07-11T11:35:04-07:00	2020-07-11T18:54:32+00:00	2020-07-15T06:59:59+00:00	-3	flq83tg2ynw8zjw@marketplace.amazon.com	Stephen Tsui	+1 346-307-9643 ext. 42205	ABR0022	Purchase Now for Delivery by Wednesday | Arabella Farm Direct Bouquet of 12 Fresh Cut Pink Roses with a Free Glass Vase	1	0	1	Expedited	Dorothy Lo	23643 VIA RANCHO DR			DIAMOND BAR	CA	91765-2155	US		Happy 70th Birthday & Best Wishes  !!!!! From Stephen & Susanna Tsui	false		
111-8042547-5490629	50209231925106	2020-07-11T18:32:21+00:00	2020-07-11T11:32:21-07:00	2020-07-11T18:59:14+00:00	2020-07-15T06:59:59+00:00	-3	rg3x70v8xcxn8c0@marketplace.amazon.com	Maureen Hudas	+1 314-282-9402 ext. 97946	ABM010	The Spring Fling Bouquet by Arabella Bouquets with a Free Designer Glass Vase	1	0	1	Expedited	Winifred Clement	302 BRIGHTON DR			CLARKS GREEN	PA	18411-1104	US		Happy Birthday, Mom, I miss and love you!! Love ya, love ya love ya!  Maureen Xoxoxoxo From Maureen Hudas	false		
114-0971920-1697817	04820759028402	2020-07-11T18:40:03+00:00	2020-07-11T11:40:03-07:00	2020-07-11T19:07:50+00:00	2020-07-15T06:59:59+00:00	-3	wbjm15vwdfrh9zn@marketplace.amazon.com	Cara Condit	+1 346-307-9643 ext. 45266	ABR0055	Purchase Now for Delivery by Wednesday | Arabella Farm Direct Bouquet of 12 Stems of Fresh Cut Hot Pink Roses in a Free Designer Glass Vase	1	0	1	Expedited	Lesley Deppman	433 FOOTE FARM RD			MIDDLEBURY	VT	05753-8544	US		Welcome Josie!  From Cara, Chris and Thomas	false		
114-2476546-4114636	35905308952706	2020-07-11T18:44:22+00:00	2020-07-11T11:44:22-07:00	2020-07-11T19:12:44+00:00	2020-07-15T06:59:59+00:00	-3	wxn7lwr8bdv6x2n@marketplace.amazon.com	Alison Skloot	+1 314-282-9402 ext. 42615	ABM010	The Spring Fling Bouquet by Arabella Bouquets with a Free Designer Glass Vase	1	0	1	Expedited	The Ficos	30 EMERSON DR			WASHINGTONVILLE	NY	10992-1125	US		Dear Jimmy, Diane & Family, Congratulations!! I am so thrilled for you and can not wait to celebrate with you soon! Best wishes always, Alison Gesuele From Alison Skloot	false		
113-3330279-7943455	52155320760586	2020-07-11T19:34:25+00:00	2020-07-11T12:34:25-07:00	2020-07-11T20:01:03+00:00	2020-07-15T06:59:59+00:00	-3	8g1rtprq2v29rz6@marketplace.amazon.com	Ari Kassardjian	+1 346-307-9643 ext. 02752	ABR0022	Purchase Now for Delivery by Wednesday | Arabella Farm Direct Bouquet of 12 Fresh Cut Pink Roses with a Free Glass Vase	1	0	1	Expedited	Tanya Mosesian	86 SMOKE TREE AVE			OAK PARK	CA	91377-1135	US		Dear Tanya, Thank you for being the best girlfriend and for supporting me during my first week of derm. I hope these flowers last longer than the last ones! I love you! Ari From Ari Kassardjian	false		
114-8757157-1716266	39956912116762	2020-07-11T20:05:34+00:00	2020-07-11T13:05:34-07:00	2020-07-11T20:34:37+00:00	2020-07-15T06:59:59+00:00	-3	76lby65bj24xxll@marketplace.amazon.com	Robert V Shannon Jr	+1 346-307-9643 ext. 23842	ABR0022	Purchase Now for Delivery by Wednesday | Arabella Farm Direct Bouquet of 12 Fresh Cut Pink Roses with a Free Glass Vase	1	0	1	Expedited	Melinda Abbinante	11238 RUNNING PINE DR			RIVERVIEW	FL	33569-2216	US			false		
113-4431643-6476238	27333960057970	2020-07-11T20:22:45+00:00	2020-07-11T13:22:45-07:00	2020-07-11T20:47:45+00:00	2020-07-15T06:59:59+00:00	-3	gt1tw9mfjdd1rhn@marketplace.amazon.com	randall a smith	+1 346-307-9643 ext. 96014	ABR0055	Purchase Now for Delivery by Wednesday | Arabella Farm Direct Bouquet of 12 Stems of Fresh Cut Hot Pink Roses in a Free Designer Glass Vase	1	0	1	Expedited	Marianne Stevenson	22861 SWENSON RAVINE			GRASS VALLEY	CA	95949-8150	US		A token of my love and affection for my lover. From Randall	false		
114-9033990-6726628	22418756793498	2020-07-11T21:07:40+00:00	2020-07-11T14:07:40-07:00	2020-07-11T21:37:44+00:00	2020-07-15T06:59:59+00:00	-3	m381zkl5y79tpvj@marketplace.amazon.com	Kandace Droke	+1 346-307-9643 ext. 09879	ABM0033	Purchase Now for Delivery by Wednesday | Arabella Farm Direct Bouquet of Fresh Cut White Hydrangea with a Free Glass Vase	1	0	1	Expedited	Kamber Smith	5339 49TH AVE SE			LACEY	WA	98503-7301	US			false		
114-0125888-4177860	10134815223002	2020-07-11T21:43:41+00:00	2020-07-11T14:43:41-07:00	2020-07-11T22:11:19+00:00	2020-07-15T06:59:59+00:00	-3	jqqjx4xyphnwgvh@marketplace.amazon.com	Joshua Smith	+1 346-307-9643 ext. 50240	ABR0022	Purchase Now for Delivery by Wednesday | Arabella Farm Direct Bouquet of 12 Fresh Cut Pink Roses with a Free Glass Vase	1	0	1	Expedited	Connie Mahoney	6270 State Route 30			Indian Lake	NY	12842	US		Happy Birthday Grandma! Love Kira, Josh, Feli, Steve. From Joshua Smith	false		
114-9422207-4999417	50711659337306	2020-07-11T23:23:47+00:00	2020-07-11T16:23:47-07:00	2020-07-11T23:49:41+00:00	2020-07-15T06:59:59+00:00	-3	24hbw7s9qf3zpvk@marketplace.amazon.com	Diane Burgess	+1 314-282-9402 ext. 80889	ABM022	Purple Extravagance Bouquet by Arabella Bouquets	1	0	1	Expedited	wendy howell	6315 PROUT FARM LN			TRACYS LANDING	MD	20779-2109	US			false		
114-5561073-5928269	35972235520770	2020-07-11T23:45:47+00:00	2020-07-11T16:45:47-07:00	2020-07-12T00:15:08+00:00	2020-07-15T06:59:59+00:00	-3	vbg2n8n9dt1mh3r@marketplace.amazon.com	Nancy Walker	+1 346-307-9643 ext. 22969	ABR0022	Purchase Now for Delivery by Wednesday | Arabella Farm Direct Bouquet of 12 Fresh Cut Pink Roses with a Free Glass Vase	1	0	1	Expedited	Cheryl Jafery	1907 GARLAND CIRCLE DR			VALPARAISO	IN	46383-1162	US		Happy Birthday!!!  Enjoy your day!! Love Nancy and Bill From Nancy Walker	false		
111-5873313-0839437	14663324221690	2020-07-12T00:36:40+00:00	2020-07-11T17:36:40-07:00	2020-07-12T01:02:08+00:00	2020-07-15T06:59:59+00:00	-3	c235txfqk0l3wch@marketplace.amazon.com	Clark Taylor	+1 347-448-3190 ext. 30604	ABM010	The Spring Fling Bouquet by Arabella Bouquets with a Free Designer Glass Vase	1	0	1	Expedited	Heather Shepard	4094 WILLOW WAY			MORRISTOWN	TN	37814-1610	US		Take good care of YOURSELF, Super Mom! Sending our love & best wishes for a speedy recovery. From Clark & Susan Taylor	false		
114-5376670-4746611	21930836027138	2020-07-12T01:54:00+00:00	2020-07-11T18:54:00-07:00	2020-07-12T02:36:14+00:00	2020-07-15T06:59:59+00:00	-3	v9xvmmjt1kq7jqh@marketplace.amazon.com	Roberto	+1 346-307-9643 ext. 71319	ABR0055	Purchase Now for Delivery by Wednesday | Arabella Farm Direct Bouquet of 12 Stems of Fresh Cut Hot Pink Roses in a Free Designer Glass Vase	1	0	1	Expedited	Vida García	1424 Leann Rimes St	APT A		EDINBURG	TX	78542	US			false		
112-7888215-6094623	15387551957026	2020-07-12T03:13:27+00:00	2020-07-11T20:13:27-07:00	2020-07-12T03:35:07+00:00	2020-07-15T06:59:59+00:00	-3	n9dcbm3439w94hr@marketplace.amazon.com	Ronald R. Freeland	+1 346-307-9643 ext. 28328	ABR0022	Purchase Now for Delivery by Wednesday | Arabella Farm Direct Bouquet of 12 Fresh Cut Pink Roses with a Free Glass Vase	1	0	1	Expedited	Ronald R. Freeland	2 P69 + FX			OLJATO	Utah	84536-0318	US			false		
114-5363548-6147456	38805610373274	2020-07-12T03:35:29+00:00	2020-07-11T20:35:29-07:00	2020-07-12T04:05:43+00:00	2020-07-15T06:59:59+00:00	-3	tswnngkqtrn4lbj@marketplace.amazon.com	Pierrecharles Lucate	+1 314-282-9402 ext. 66225	ABR0022	Purchase Now for Delivery by Wednesday | Arabella Farm Direct Bouquet of 12 Fresh Cut Pink Roses with a Free Glass Vase	1	0	1	Expedited	Joe monane	12904 NATIONAL DR APT B			TAMPA	FL	33617-9574	US			false		
113-1126684-8125843	22462655888858	2020-07-12T03:56:54+00:00	2020-07-11T20:56:54-07:00	2020-07-12T04:18:57+00:00	2020-07-15T06:59:59+00:00	-3	wdb1y4yb67w0thk@marketplace.amazon.com	JonesFamily	+1 346-307-9643 ext. 88380	ABM0044	Arabella Farm Direct Bouquet of Fresh Cut Blue Hydrangea with a Free Glass Vase	1	0	1	Standard	Elda and Josiah Velazquez	7168 N INGRAM AVE			FRESNO	CA	93650-1027	US		My dear amiga, know that we love you guys very much and you are in our thoughts and prayers, May our god Jehovah provides you with the power beyond what is normal.. Jones familia From JonesFamily	false		
111-2096862-8619429	20531971253658	2020-07-12T03:57:01+00:00	2020-07-11T20:57:01-07:00	2020-07-12T04:27:25+00:00	2020-07-15T06:59:59+00:00	-3	kr787lply2wf90d@marketplace.amazon.com	Yurika imai	+1 346-307-9643 ext. 80024	ABR0022	Purchase Now for Delivery by Wednesday | Arabella Farm Direct Bouquet of 12 Fresh Cut Pink Roses with a Free Glass Vase	3	0	3	Expedited	Yurika Imai	238 UNDERCLIFF AVE			EDGEWATER	NJ	07020-1590	US			false		
113-0390802-1685064	32093102655474	2020-07-12T06:29:40+00:00	2020-07-11T23:29:40-07:00	2020-07-12T06:58:22+00:00	2020-07-15T06:59:59+00:00	-3	lnm9tpc5r616wdc@marketplace.amazon.com	mal	+1 210-728-4548 ext. 79305	ABR0022	Purchase Now for Delivery by Wednesday | Arabella Farm Direct Bouquet of 12 Fresh Cut Pink Roses with a Free Glass Vase	1	0	1	Expedited	Malarie younger	2302 LORY CT			ALEXANDRIA	VA	22306-3223	US		Enjoy your gift! From mal	false		
111-5403831-8561845	31202278658146	2020-07-12T07:21:34+00:00	2020-07-12T00:21:34-07:00	2020-07-12T07:47:33+00:00	2020-07-15T06:59:59+00:00	-3	vtyy6pt8j2xjyz9@marketplace.amazon.com	Linda	+1 210-728-4548 ext. 82224	ABM010	The Spring Fling Bouquet by Arabella Bouquets with a Free Designer Glass Vase	1	0	1	Expedited	Pat Summers	3620 GENEVA DR			AMMON	ID	83406-7852	US		We love you Mom. Thinking of you. From Linda & Glen	false		
112-3787304-0497854	52733778732058	2020-07-12T12:32:42+00:00	2020-07-12T05:32:42-07:00	2020-07-12T13:02:17+00:00	2020-07-15T06:59:59+00:00	-3	ljsnlf6c3n8bb5h@marketplace.amazon.com	Houchun Harry Hu	+1 210-728-4548 ext. 03415	ABR0022	Purchase Now for Delivery by Wednesday | Arabella Farm Direct Bouquet of 12 Fresh Cut Pink Roses with a Free Glass Vase	1	0	1	Expedited	LJ LUBELEY	5607 SUMMER SHINE DR APT 107			MADISON	WI	53718-9181	US		Happy Bday! From Hern	false		
113-3533773-9270641	42642558077394	2020-07-12T14:16:12+00:00	2020-07-12T07:16:12-07:00	2020-07-12T14:45:15+00:00	2020-07-15T06:59:59+00:00	-3	3jmqjfzqz72m3nw@marketplace.amazon.com	Jen Bodkin	+1 346-307-9643 ext. 44705	ABR0022	Purchase Now for Delivery by Wednesday | Arabella Farm Direct Bouquet of 12 Fresh Cut Pink Roses with a Free Glass Vase	1	0	1	Expedited	Pam Robie	2219 LAUREL LN			ALLISON PARK	PA	15101-2103	US		Sending you so much love this week! Love Jenny, Dan, Morgan and Watson From Jen Bodkin	false		
114-1261273-7162613	54981289656802	2020-07-12T14:20:45+00:00	2020-07-12T07:20:45-07:00	2020-07-12T14:47:03+00:00	2020-07-15T06:59:59+00:00	-3	zw1h725pr2j8cbz@marketplace.amazon.com	susan candler	+1 314-282-9402 ext. 86865	ABR0022	Purchase Now for Delivery by Wednesday | Arabella Farm Direct Bouquet of 12 Fresh Cut Pink Roses with a Free Glass Vase	1	0	1	Expedited	Kat Candler	2041 N COMMONWEALTH AVE APT 213			LOS ANGELES	CA	90027-2850	US			false		
114-2329030-5183422	50287772955066	2020-07-12T14:39:41+00:00	2020-07-12T07:39:41-07:00	2020-07-12T15:03:59+00:00	2020-07-15T06:59:59+00:00	-3	j8q9bc27knvd94h@marketplace.amazon.com	Alma Batista	+1 314-282-9402 ext. 80107	ABR001	Purchase Now for Delivery by Wednesday | Arabella Bouquets 12 Stems of Fresh Cut Red Roses in a Free Designer Glass Vase	1	0	1	Expedited	Tia Rosa	ROSA S PLAYHOUSE INC	16 ATLANTIC AVE		FREEPORT	NY	11520-5104	US		Muchas gracias por estar siempre.  ¡Te queremos mucho! From Alma Batista & Tara	false		
111-4297168-3989048	46201723934866	2020-07-12T15:07:42+00:00	2020-07-12T08:07:42-07:00	2020-07-12T15:32:52+00:00	2020-07-15T06:59:59+00:00	-3	mjfccfl19tdtc0v@marketplace.amazon.com	Lenn Phegley	+1 210-728-4548 ext. 08295	ABM0033	Purchase Now for Delivery by Wednesday | Arabella Farm Direct Bouquet of Fresh Cut White Hydrangea with a Free Glass Vase	1	0	1	Expedited	Jenni Cooke	516 UMBRELLA SKY			LIBERTY HILL	TX	78642-4672	US		A little gesture of gratitude and for all the trouble. Thank you for keeping an eye on our home in our absence. Looking forward to seeing y'all soon! Cheers. From Jeanette Phegley	false		
112-1196725-4873058	36970625500906	2020-07-12T15:14:53+00:00	2020-07-12T08:14:53-07:00	2020-07-12T15:43:03+00:00	2020-07-15T06:59:59+00:00	-3	d1bsvpr1vk9cfwz@marketplace.amazon.com	Joseph McGaw	+1 346-307-9643 ext. 43096	ABR0022	Purchase Now for Delivery by Wednesday | Arabella Farm Direct Bouquet of 12 Fresh Cut Pink Roses with a Free Glass Vase	1	0	1	Expedited	Eileen McGaw-Dietrich	934 LONG LEAF LN			THE VILLAGES	FL	32163-2340	US		Happy Birthday! Love, Joe, Jean, Callum & Vivian. From Joseph McGaw	false		
112-9737557-9155453	48107291052226	2020-07-12T15:17:48+00:00	2020-07-12T08:17:48-07:00	2020-07-12T15:43:48+00:00	2020-07-15T06:59:59+00:00	-3	nqwxgw06zppyt94@marketplace.amazon.com	Leslie L Monzillo	+1 346-307-9643 ext. 15401	ABR0055	Purchase Now for Delivery by Wednesday | Arabella Farm Direct Bouquet of 12 Stems of Fresh Cut Hot Pink Roses in a Free Designer Glass Vase	1	0	1	Expedited	Christine Simpson	203 STOKES CT			PETALUMA	CA	94954-5633	US		Happy birthday, my sweet Jillybean. From Leslie	false		
113-5759542-1525845	01353095666698	2020-07-12T15:56:49+00:00	2020-07-12T08:56:49-07:00	2020-07-12T16:25:53+00:00	2020-07-15T06:59:59+00:00	-3	82whxdp93vbb2vc@marketplace.amazon.com	Elida Witthoeft	+1 314-282-9402 ext. 66535	ABR0022	Purchase Now for Delivery by Wednesday | Arabella Farm Direct Bouquet of 12 Fresh Cut Pink Roses with a Free Glass Vase	1	0	1	Expedited	Shari Lampert	210 E 36TH ST APT 8A			NEW YORK	NY	10016-3642	US		Shari ... thought you needed something lovely to brighten your days. Thinking of you. Enjoy! From Elida Witthoeft	false		
111-8597630-9704236	17315422401306	2020-07-12T16:30:39+00:00	2020-07-12T09:30:39-07:00	2020-07-12T16:57:55+00:00	2020-07-15T06:59:59+00:00	-3	v878v5687ybwpzv@marketplace.amazon.com	barbara snyder	+1 346-307-9643 ext. 33065	ABR0055	Purchase Now for Delivery by Wednesday | Arabella Farm Direct Bouquet of 12 Stems of Fresh Cut Hot Pink Roses in a Free Designer Glass Vase	1	0	1	Expedited	Sue Scoggin	1788 SEVEN OAKES RD			ESCONDIDO	CA	92026-3308	US		HAPPY BIRTHDAY  DEAR FRIEND, LOVE BARBARA From barbara snyder	false		
111-3071947-4110667	23021187452266	2020-07-12T16:34:32+00:00	2020-07-12T09:34:32-07:00	2020-07-12T17:03:22+00:00	2020-07-15T06:59:59+00:00	-3	w76d7ldrwgxj0wt@marketplace.amazon.com	Tyler Benton	+1 346-307-9643 ext. 39711	ABR0022	Purchase Now for Delivery by Wednesday | Arabella Farm Direct Bouquet of 12 Fresh Cut Pink Roses with a Free Glass Vase	1	0	1	Expedited	Tyler Benton	7030 N GLASGOW RD			WARRENSBURG	IL	62573-2152	US			false		
111-8820763-4048249	54479262119930	2020-07-12T16:59:28+00:00	2020-07-12T09:59:28-07:00	2020-07-12T17:28:25+00:00	2020-07-15T06:59:59+00:00	-3	b2djq9zkbv1p5cc@marketplace.amazon.com	David Bartoletti	+1 415-851-9136 ext. 17876	ABR012	Purchase Now for Delivery by Wednesday | Arabella Farm Direct Bouquet of 18 Fresh Cut Pink Roses with a Free Glass Vase	1	0	1	Expedited	Melissa Bartoletti	178 ANTHONY RD			CLIFTON PARK	NY	12065-2601	US		Happy Belated Birthday! Love you forever - Dave, Joel, and Blue. From Dave Bartoletti & Joel Wheeler	false		
112-5397959-6214661	42765396167914	2020-07-12T17:38:24+00:00	2020-07-12T10:38:24-07:00	2020-07-12T17:48:55+00:00	2020-07-15T06:59:59+00:00	-3	wvw1vc4lxp8bfwq@marketplace.amazon.com	Brian O'Connor	+1 347-448-3190 ext. 09380	ABR0022	Purchase Now for Delivery by Wednesday | Arabella Farm Direct Bouquet of 12 Fresh Cut Pink Roses with a Free Glass Vase	1	0	1	Standard	Mrs. Theresa Bishop	1220 RICHMOND RD APT 1C			STATEN ISLAND	NY	10304-2440	US		Happy 90th Birthday, Grandma Theresa! We are thinking of you today & hope you have a day as special as you are to us.  Enjoy! From Lots of love,  Allison & Brian XOXO From Lots of love,  Allison & Brian XOXO	false		
112-3208991-7685824	28985066132258	2020-07-12T17:28:28+00:00	2020-07-12T10:28:28-07:00	2020-07-12T17:56:15+00:00	2020-07-15T06:59:59+00:00	-3	xpdhq9p8l5fjjkn@marketplace.amazon.com	Hildegart	+1 346-307-9643 ext. 27498	ABR0022	Purchase Now for Delivery by Wednesday | Arabella Farm Direct Bouquet of 12 Fresh Cut Pink Roses with a Free Glass Vase	1	0	1	Expedited	Cindy Gonzalez	3893 NW 76TH TER			SUNRISE	FL	33351-6341	US		Dear Cindy,   Thank you so much for the amazing care you've given my father.  We are so grateful to have you in our lives. From Love, Hilde	false		
114-9128433-5806620	64973367766794	2020-07-12T18:03:29+00:00	2020-07-12T11:03:29-07:00	2020-07-12T18:25:45+00:00	2020-07-15T06:59:59+00:00	-3	583hq3p99mst2xm@marketplace.amazon.com	Eileen Widmann	+1 346-307-9643 ext. 38805	ABM010	The Spring Fling Bouquet by Arabella Bouquets with a Free Designer Glass Vase	1	0	1	Expedited	Eileen Widmann	11402 FORTINO PT			SAN DIEGO	CA	92131-4230	US			false		
112-0575223-6511465	15819185800042	2020-07-12T13:21:55+00:00	2020-07-12T06:21:55-07:00	2020-07-12T18:30:09+00:00	2020-07-15T06:59:59+00:00	-3	b7448p57vmfh890@marketplace.amazon.com	TIMOTHY WRIGHTSON	+1 346-307-9643 ext. 88408	ABR0022	Purchase Now for Delivery by Wednesday | Arabella Farm Direct Bouquet of 12 Fresh Cut Pink Roses with a Free Glass Vase	1	0	1	Expedited	TIMOTHY WRIGHTSON	12100 DONALD RD			BAY MINETTE	AL	36507-6880	US			false		
114-9489170-3701038	61245715534978	2020-07-12T18:38:49+00:00	2020-07-12T11:38:49-07:00	2020-07-12T19:06:39+00:00	2020-07-15T06:59:59+00:00	-3	583hq3p99mst2xm@marketplace.amazon.com	Eileen Widmann	+1 347-448-3190 ext. 70973	ABM010	The Spring Fling Bouquet by Arabella Bouquets with a Free Designer Glass Vase	1	0	1	Expedited	Lewis Memorial Christian Village -Nellie C Requar	ROOM 415-1 NELLIE C REQUARTH	3400 W WASHINGTON ST		SPRINGFIELD	IL	62711-7917	US			false		
113-2058466-6897847	02500369461490	2020-07-12T18:43:57+00:00	2020-07-12T11:43:57-07:00	2020-07-12T19:06:50+00:00	2020-07-15T06:59:59+00:00	-3	dzgww49t7m1snf4@marketplace.amazon.com	Nicholas  O, Diggs. Jr	+1 314-282-9402 ext. 71160	ABR001	Purchase Now for Delivery by Wednesday | Arabella Bouquets 12 Stems of Fresh Cut Red Roses in a Free Designer Glass Vase	1	0	1	Expedited	Ngosa K Kitanika	85 LAURA ST APT 2			PROVIDENCE	RI	02907-1610	US			false		
113-7380778-2486649	38412988272306	2020-07-12T18:46:17+00:00	2020-07-12T11:46:17-07:00	2020-07-12T19:11:47+00:00	2020-07-15T06:59:59+00:00	-3	xgwbd1vhfc50cml@marketplace.amazon.com	Suzanne King	+1 415-851-9136 ext. 68801	ABR0022	Purchase Now for Delivery by Wednesday | Arabella Farm Direct Bouquet of 12 Fresh Cut Pink Roses with a Free Glass Vase	1	0	1	Expedited	Darcy King	1940 PAVILION DR APT 110			VIRGINIA BEACH	VA	23451-5583	US		Enjoy your gift! Hope these are fresh, like you! From Suzanne King	false		
113-5863104-3687430	58664293831146	2020-07-12T18:44:08+00:00	2020-07-12T11:44:08-07:00	2020-07-12T19:12:53+00:00	2020-07-15T06:59:59+00:00	-3	7lgjtkgdn405grs@marketplace.amazon.com	Jackie Flores	+1 314-282-9402 ext. 96289	ABM010	The Spring Fling Bouquet by Arabella Bouquets with a Free Designer Glass Vase	1	0	1	Expedited	Linda Flores	1036 W MONTANA ST			CHICAGO	IL	60614-2211	US			false		
111-0576893-8642639	61936425117690	2020-07-12T18:58:42+00:00	2020-07-12T11:58:42-07:00	2020-07-12T19:26:05+00:00	2020-07-15T06:59:59+00:00	-3	cnlwvyzzklc89j6@marketplace.amazon.com	sadr mohsenin	+1 346-307-9643 ext. 31871	ABR001	Purchase Now for Delivery by Wednesday | Arabella Bouquets 12 Stems of Fresh Cut Red Roses in a Free Designer Glass Vase	1	0	1	Expedited	Olga Garcia	1312 KELLAM AVE			LOS ANGELES	CA	90026-5136	US		Enjoy your gift! Thinking of you. I hope you feel better.  Much love, Thelma From sadr and Thelma mohsenin	false		
111-4409925-6254605	45881572146586	2020-07-12T19:08:29+00:00	2020-07-12T12:08:29-07:00	2020-07-12T19:31:12+00:00	2020-07-15T06:59:59+00:00	-3	cnlwvyzzklc89j6@marketplace.amazon.com	sadr mohsenin	+1 210-728-4548 ext. 91665	ABR0033	Arabella Farm Direct Bouquet of 12 Fresh Cut Orange Roses with a Free Glass Vase	1	0	1	Expedited	Grace Aviles	6500 BUTTERFIELD RANCH RD			CHINO HILLS	CA	91709-6379	US		Grace,  Thinking of you. I hope you feel better....  Love and miss you, Xochitl From Xochitl mohsenin	false		
114-8509116-0957063	30133773558362	2020-07-12T19:04:40+00:00	2020-07-12T12:04:40-07:00	2020-07-12T19:35:02+00:00	2020-07-15T06:59:59+00:00	-3	gj789cyfwtfxlqd@marketplace.amazon.com	Edward T. Maguire	+1 346-307-9643 ext. 98339	ABR001	Purchase Now for Delivery by Wednesday | Arabella Bouquets 12 Stems of Fresh Cut Red Roses in a Free Designer Glass Vase	1	0	1	Expedited	Patricia Maguire / Brightview	1 SYMMES RD	APT 2		ARLINGTON	MA	02474	US			false		
114-7690852-0181800	09773953771418	2020-07-12T19:22:07+00:00	2020-07-12T12:22:07-07:00	2020-07-12T19:46:37+00:00	2020-07-15T06:59:59+00:00	-3	kqrjlrxrbr0ytvq@marketplace.amazon.com	fatima asghar	+1 346-307-9643 ext. 25151	ABB015	Arabella Farm Direct Bouquet of 24 Fresh Cut Orange Roses with a Free Glass Vase	1	0	1	Expedited	Narjis Syed	2 SPRING LN			HOPKINTON	MA	01748-1517	US		Narjis, CONGRATULATIONS dear one. Cant be more happy for you. Sending prayers and love for a long, happy , prosperous marriage. Love you so much From Fatima Aunty	false		
112-4162317-5517002	61640532068498	2020-07-12T19:23:34+00:00	2020-07-12T12:23:34-07:00	2020-07-12T19:51:39+00:00	2020-07-15T06:59:59+00:00	-3	nqmw1qksyp8xl4d@marketplace.amazon.com	Your husband	+1 346-307-9643 ext. 38367	ABR001	Purchase Now for Delivery by Wednesday | Arabella Bouquets 12 Stems of Fresh Cut Red Roses in a Free Designer Glass Vase	1	0	1	Expedited	Kathy Smith	115 KNAPP DR APT 501			HAMILTON	OH	45013-1258	US			false		
113-5985579-5588209	46770156639202	2020-07-12T19:39:15+00:00	2020-07-12T12:39:15-07:00	2020-07-12T20:04:16+00:00	2020-07-15T06:59:59+00:00	-3	xs9dkclbxk36jlg@marketplace.amazon.com	Jason M. Ferreira	+1 210-728-4548 ext. 04260	ABR001	Purchase Now for Delivery by Wednesday | Arabella Bouquets 12 Stems of Fresh Cut Red Roses in a Free Designer Glass Vase	1	0	1	Expedited	Deyrin Gonzalez	12 WELFARE AVE			CRANSTON	RI	02910-1236	US			false		
112-2124031-4970618	41620173958802	2020-07-12T20:58:49+00:00	2020-07-12T13:58:49-07:00	2020-07-12T21:28:42+00:00	2020-07-15T06:59:59+00:00	-3	kmgpx80mfnv457v@marketplace.amazon.com	Kevin Yang	+1 347-448-3190 ext. 15634	ABR0022	Purchase Now for Delivery by Wednesday | Arabella Farm Direct Bouquet of 12 Fresh Cut Pink Roses with a Free Glass Vase	1	0	1	Expedited	Kevin Yang	404 WALNUT GROVE RD			PEACHTREE CITY	GA	30269-1179	US		Happy Birthday mshh! From Kevin Yang	false		
113-5381161-2480228	31691000073722	2020-07-12T21:26:36+00:00	2020-07-12T14:26:36-07:00	2020-07-12T21:54:07+00:00	2020-07-15T06:59:59+00:00	-3	88xjzqrqxqk1kld@marketplace.amazon.com	Cassandra J Martin	+1 347-448-3190 ext. 38516	ABR0033	Arabella Farm Direct Bouquet of 12 Fresh Cut Orange Roses with a Free Glass Vase	1	0	1	Expedited	Chrissy Richardson	128 SEALE AVE			PALO ALTO	CA	94301-3729	US		To your blooming family... I’m betting motherhood looks amazing on you!!!  Cass, Isaac and Noa From Cassandra J Martin	false		
112-2672560-7305826	63908242058034	2020-07-12T21:33:31+00:00	2020-07-12T14:33:31-07:00	2020-07-12T21:57:47+00:00	2020-07-15T06:59:59+00:00	-3	prx67d0ytq07pqp@marketplace.amazon.com	Ryan M. Rodriguez	+1 346-307-9643 ext. 57481	ABR0022	Purchase Now for Delivery by Wednesday | Arabella Farm Direct Bouquet of 12 Fresh Cut Pink Roses with a Free Glass Vase	1	0	1	Expedited	Ryan M. Rodriguez	2223 SUNSET ST			WASCO	CA	93280-1523	US			false		
113-4639690-1968237	61887812080770	2020-07-12T21:41:57+00:00	2020-07-12T14:41:57-07:00	2020-07-12T22:09:25+00:00	2020-07-15T06:59:59+00:00	-3	88xjzqrqxqk1kld@marketplace.amazon.com	Cassandra J Martin	+1 347-448-3190 ext. 41568	ABR004	Arabella Farm Direct Bouquet of 12 Fresh Cut Yellow Roses with a Free Glass Vase	1	0	1	Expedited	Laura Frutiger	916 FREMONT PL APT 2			MENLO PARK	CA	94025-5079	US		May your little one be blooming with every new day Cass, Isaac, and Noa From Cassandra J Martin	false		
111-6199654-3877022	15278145717778	2020-07-12T21:43:09+00:00	2020-07-12T14:43:09-07:00	2020-07-12T22:11:39+00:00	2020-07-15T06:59:59+00:00	-3	ygtxy4jxhfl7pst@marketplace.amazon.com	Ryan Mc Elroy	+1 346-307-9643 ext. 81931	ABR0022	Purchase Now for Delivery by Wednesday | Arabella Farm Direct Bouquet of 12 Fresh Cut Pink Roses with a Free Glass Vase	1	0	1	Expedited	Sara Garrett	2170 CROSSFORD WAY			INDIANAPOLIS	IN	46234-8852	US		Miss you!  -Ryzo X	false		
114-4969957-3634626	42161190535018	2020-07-12T21:49:41+00:00	2020-07-12T14:49:41-07:00	2020-07-12T22:18:59+00:00	2020-07-15T06:59:59+00:00	-3	lwqj6767czlmvt2@marketplace.amazon.com	MaryAnn B. Smith	+1 314-282-9402 ext. 07882	ABM020	Summer Sunset Bouquet by Arabella Mixed Bouquets	1	0	1	Expedited	Virginia Pershern	10497 KERWICK CT			REMINDERVILLE	OH	44202-8160	US			false		
114-2265430-3341052	57978360546610	2020-07-12T22:03:33+00:00	2020-07-12T15:03:33-07:00	2020-07-12T22:31:44+00:00	2020-07-15T06:59:59+00:00	-3	f4qgr9z06855h06@marketplace.amazon.com	Gody	+1 346-307-9643 ext. 62800	ABR0022	Purchase Now for Delivery by Wednesday | Arabella Farm Direct Bouquet of 12 Fresh Cut Pink Roses with a Free Glass Vase	1	0	1	Expedited	James McCready	1224 Fairways Greens Drive			Sun City Center	Fl	33573	US		Get well soon  Love Steve &Gody From Gody	false		
114-4069595-6540259	07072281124050	2020-07-12T22:37:03+00:00	2020-07-12T15:37:03-07:00	2020-07-12T23:01:03+00:00	2020-07-15T06:59:59+00:00	-3	vkdklrbblspyl0l@marketplace.amazon.com	william	+1 346-307-9643 ext. 28887	ABR001	Purchase Now for Delivery by Wednesday | Arabella Bouquets 12 Stems of Fresh Cut Red Roses in a Free Designer Glass Vase	1	0	1	Expedited	Ruth lee markel	82 PITTMAN DR PALM COAST APT			PALM COAST	FL	32164-4807	US		Hi Ruth,  My love for you grows stronger as each day arise. You brighten my world more than the morning sun and you fill my heart with so much joy and happiness..i love you to the moon and back,now and forever..Freddy Stone	false		
111-6298597-2129864	05287350064386	2020-07-12T23:00:36+00:00	2020-07-12T16:00:36-07:00	2020-07-12T23:25:19+00:00	2020-07-15T06:59:59+00:00	-3	t3drckj5scj53nw@marketplace.amazon.com	Irma Estrella-Sedano	+1 346-307-9643 ext. 40841	ABM010	The Spring Fling Bouquet by Arabella Bouquets with a Free Designer Glass Vase	1	0	1	Expedited	Irma Estrella-Sedano	243 E LIME AVE APT B	# B MONROVIA CA 91016		MONROVIA	CA	91016-5155	US		Lucy, recibe estas flores con mucho cariño. Dios te siga bendiciendo con buena salud. Sigue adelante! Te queremos much, Rigo& Irma From Rigoberto Estrella	false		
113-6929699-2604249	16158001644826	2020-07-12T23:40:55+00:00	2020-07-12T16:40:55-07:00	2020-07-12T23:59:19+00:00	2020-07-15T06:59:59+00:00	-3	b6g4w1nlq28sjjv@marketplace.amazon.com	Arlene	+1 346-307-9643 ext. 99637	ABR0022	Purchase Now for Delivery by Wednesday | Arabella Farm Direct Bouquet of 12 Fresh Cut Pink Roses with a Free Glass Vase	1	0	1	Expedited	Lillian Brennan C/O Comfort Givers	12802 N 57TH ST			SCOTTSDALE	AZ	85254-4304	US		Happy Birthday Lillian Love and Miss you, from the gang From From your family	false		
114-6468560-0667453	03992048647498	2020-07-12T23:59:47+00:00	2020-07-12T16:59:47-07:00	2020-07-13T00:28:27+00:00	2020-07-15T06:59:59+00:00	-3	4wdfmxrft65w8nb@marketplace.amazon.com	Jennie Pham	+1 346-307-9643 ext. 13215	ABR0022	Purchase Now for Delivery by Wednesday | Arabella Farm Direct Bouquet of 12 Fresh Cut Pink Roses with a Free Glass Vase	1	0	1	Expedited	Annie Du	43317 JEROME AVE			FREMONT	CA	94539-5714	US		Happy Shelter in place birthday best friend! Hope these bring you smiles a awesome day! From Jennie aka Leslie	false		
112-7965442-9585829	35750306021346	2020-07-13T00:00:23+00:00	2020-07-12T17:00:23-07:00	2020-07-13T00:29:22+00:00	2020-07-15T06:59:59+00:00	-3	nctftr5v23dc86y@marketplace.amazon.com	Cedric Iwashina	+1 347-448-3190 ext. 45936	ABR0055	Purchase Now for Delivery by Wednesday | Arabella Farm Direct Bouquet of 12 Stems of Fresh Cut Hot Pink Roses in a Free Designer Glass Vase	1	0	1	Expedited	Amy Iwashina	11356 QUAIL CREEK RD			PORTER RANCH	CA	91326-1714	US		Happy Birthday, Amy! Enjoy your gift of pink! From Cedric Iwashina	false		
112-7965442-9585829	00545231584666	2020-07-13T00:00:23+00:00	2020-07-12T17:00:23-07:00	2020-07-13T00:29:22+00:00	2020-07-15T06:59:59+00:00	-3	nctftr5v23dc86y@marketplace.amazon.com	Cedric Iwashina	+1 347-448-3190 ext. 45936	ABR0022	Purchase Now for Delivery by Wednesday | Arabella Farm Direct Bouquet of 12 Fresh Cut Pink Roses with a Free Glass Vase	1	0	1	Expedited	Amy Iwashina	11356 QUAIL CREEK RD			PORTER RANCH	CA	91326-1714	US		Happy Birthday, Amy! Enjoy your gift of pink! From Cedric Iwashina	false		
111-8032986-6884208	19371174930266	2020-07-13T00:08:42+00:00	2020-07-12T17:08:42-07:00	2020-07-13T00:43:51+00:00	2020-07-15T06:59:59+00:00	-3	lz770n0v44ztv34@marketplace.amazon.com	David Dean Archibald II	+1 346-307-9643 ext. 52209	ABR0022	Purchase Now for Delivery by Wednesday | Arabella Farm Direct Bouquet of 12 Fresh Cut Pink Roses with a Free Glass Vase	1	0	1	Expedited	Ms. V. Lovely Patterson	5646 ROUNDROCK DR			LAS VEGAS	NV	89142-2053	US			false		
112-6278655-1560222	28126260189770	2020-07-13T00:20:52+00:00	2020-07-12T17:20:52-07:00	2020-07-13T00:49:43+00:00	2020-07-15T06:59:59+00:00	-3	tb2c3lzx980gs0f@marketplace.amazon.com	Jorge X Lopez	+1 314-282-9402 ext. 38695	ABR012	Purchase Now for Delivery by Wednesday | Arabella Farm Direct Bouquet of 18 Fresh Cut Pink Roses with a Free Glass Vase	1	0	1	Expedited	Andrea J Arenas	8115 COLONIAL VILLAGE DR APT 204			TAMPA	FL	33625-6801	US			false		
113-0731173-9162611	14082867763970	2020-07-13T00:23:19+00:00	2020-07-12T17:23:19-07:00	2020-07-13T00:52:27+00:00	2020-07-15T06:59:59+00:00	-3	qk0ql2vkhs1lz6s@marketplace.amazon.com	Sierra Dean	+1 415-851-9136 ext. 14317	ABR0022	Purchase Now for Delivery by Wednesday | Arabella Farm Direct Bouquet of 12 Fresh Cut Pink Roses with a Free Glass Vase	1	0	1	Expedited	Sierra Dean	4716 SAINT JOHNS AVE			DAYTON	OH	45406-2335	US			false		
113-6497383-7955456	41965420532058	2020-07-13T00:45:39+00:00	2020-07-12T17:45:39-07:00	2020-07-13T01:15:53+00:00	2020-07-15T06:59:59+00:00	-3	k4clpbwy4y1nkw3@marketplace.amazon.com	Heidi Erdos	+1 346-307-9643 ext. 17855	ABM020	Summer Sunset Bouquet by Arabella Mixed Bouquets	1	0	1	Expedited	Sue Erdos	41081 NICKI LYNN DR			BELMONT	OH	43718-9681	US			false		
114-3000615-8644256	36447889574026	2020-07-13T01:18:25+00:00	2020-07-12T18:18:25-07:00	2020-07-13T01:46:27+00:00	2020-07-15T06:59:59+00:00	-3	9t677xw5ds92g5m@marketplace.amazon.com	Patrick	+1 346-307-9643 ext. 70616	ABR0022	Purchase Now for Delivery by Wednesday | Arabella Farm Direct Bouquet of 12 Fresh Cut Pink Roses with a Free Glass Vase	1	0	1	Expedited	Patrick kotnik	21705 NEWVALE DR			LAKE FOREST	CA	92630-6026	US		I love u sooo much baby I hope u enjoy these I wish I could be to hug and kiss u I live u my little fluster From Patrick	false		
112-0942429-8483467	49738819226586	2020-07-13T01:30:36+00:00	2020-07-12T18:30:36-07:00	2020-07-13T01:55:57+00:00	2020-07-15T06:59:59+00:00	-3	v5239twqjn6qks6@marketplace.amazon.com	Barry Kay	+1 346-307-9643 ext. 85315	ABM010	The Spring Fling Bouquet by Arabella Bouquets with a Free Designer Glass Vase	1	0	1	Expedited	Melinda Salzer	46 WINDFALL LN			MARLBORO	NJ	07746-1681	US		Dear Melinda, I hope this brings a smile as you continue your recovery. Love you! Debbie and Barry	true		
114-9450944-9357819	33013531803034	2020-07-13T02:40:23+00:00	2020-07-12T19:40:23-07:00	2020-07-13T03:03:25+00:00	2020-07-15T06:59:59+00:00	-3	mbx8tv159j1pdkc@marketplace.amazon.com	Nadine McNeil	+1 346-307-9643 ext. 75236	ABR0022	Purchase Now for Delivery by Wednesday | Arabella Farm Direct Bouquet of 12 Fresh Cut Pink Roses with a Free Glass Vase	1	0	1	Expedited	Brittany Thomas	515 S BENDER AVE APT 2116			HUMBLE	TX	77338-4330	US		We love you and hope you get well soon. Uncle John, Aunt Nadine, Kaamil, and Mariyah	false		
