order-id	order-item-id	purchase-date	payments-date	reporting-date	promise-date	days-past-promise	buyer-email	buyer-name	buyer-phone-number	sku	product-name	quantity-purchased	quantity-shipped	quantity-to-ship	ship-service-level	recipient-name	ship-address-1	ship-address-2	ship-address-3	ship-city	ship-state	ship-postal-code	ship-country	gift-wrap-type	gift-message-text	is-business-order	purchase-order-number	price-designation
111-7028540-7337037	30815536637962	2020-07-11T11:19:47+00:00	2020-07-11T04:19:47-07:00	2020-07-11T11:47:42+00:00	2020-07-15T06:59:59+00:00	-4	92786ls0mpc4mwq@marketplace.amazon.com	margaret hoskins	+1 347-448-3190 ext. 56335	ABR0022	Purchase Now for Delivery by Wednesday | Arabella Farm Direct Bouquet of 12 Fresh Cut Pink Roses with a Free Glass Vase	1	0	1	Expedited	Mary Reynolds	5542 GARDEN PARK LN			WINSTON SALEM	NC	27106-8003	US		Happy Belated Birthday love u!! From Catherine and kids	false		
111-8969666-0381035	18982965742306	2020-07-11T12:42:38+00:00	2020-07-11T05:42:38-07:00	2020-07-11T13:10:19+00:00	2020-07-15T06:59:59+00:00	-4	67djlwgb3mb351j@marketplace.amazon.com	judy barber	+1 415-851-9136 ext. 54594	ABR004	Arabella Farm Direct Bouquet of 12 Fresh Cut Yellow Roses with a Free Glass Vase	1	0	1	Expedited	Freda Wells	222 TARK HILL RD ROAD			BLAINE	KY	41124-8658	US		HAPPY BIRTHDAY MOM.  LOVE YOU From judy barber	false		
112-5023973-5526617	04882285158282	2020-07-11T12:46:06+00:00	2020-07-11T05:46:06-07:00	2020-07-11T13:16:13+00:00	2020-07-15T06:59:59+00:00	-4	0fdx8l1q3xdp4ws@marketplace.amazon.com	irwin Blake	+1 346-307-9643 ext. 71456	ABR0022	Purchase Now for Delivery by Wednesday | Arabella Farm Direct Bouquet of 12 Fresh Cut Pink Roses with a Free Glass Vase	1	0	1	Expedited	Irwin Blake	106 Stone Manor Dr			Somerset	NJ	08873	US			false		
114-8310543-3309842	61040097777754	2020-07-11T12:57:55+00:00	2020-07-11T05:57:55-07:00	2020-07-11T13:18:28+00:00	2020-07-15T06:59:59+00:00	-4	0bxhx698myz9cgj@marketplace.amazon.com	Jerry T. Phillips	+1 347-448-3190 ext. 16423	ABM010	Purchase Now for Delivery by Wednesday | The Spring Fling Bouquet by Arabella Bouquets with a Free Designer Glass Vase	1	0	1	Expedited	Anna Tsafatinos	667 SNUG IS			CLEARWATER BEACH	FL	33767-1830	US		Thanks for all you do! Phyllis and Jerry From Jerry T. Phillips	false		
111-1114341-8481806	53243892458442	2020-07-11T16:31:41+00:00	2020-07-11T09:31:41-07:00	2020-07-11T16:58:38+00:00	2020-07-15T06:59:59+00:00	-4	xmhh3zszqxz1vf3@marketplace.amazon.com	Thomas Ecobelli	+1 346-307-9643 ext. 30767	ABR0022	Purchase Now for Delivery by Wednesday | Arabella Farm Direct Bouquet of 12 Fresh Cut Pink Roses with a Free Glass Vase	1	0	1	Standard	Vickie Cole	1211 COUNTY ROAD 308			CLEVELAND	TX	77327-1689	US		Happy birthday to our dearest friend Vickie!! Much love, Tom and Roman From Tom and Roman	false		
112-8885416-2126640	63327568041466	2020-07-11T16:34:30+00:00	2020-07-11T09:34:30-07:00	2020-07-11T17:02:01+00:00	2020-07-15T06:59:59+00:00	-4	cz88t0l6qq3xdf9@marketplace.amazon.com	Kathy Cooper	+1 346-307-9643 ext. 44156	ABR0022	Purchase Now for Delivery by Wednesday | Arabella Farm Direct Bouquet of 12 Fresh Cut Pink Roses with a Free Glass Vase	1	0	1	Expedited	Kathleen Cooper	28967 FLOWERPARK DR			SANTA CLARITA	CA	91387-1802	US		Congratulations on your beautiful Legynn! Such a beautiful family you two have created for us all to love From Kathy Cooper	false		
111-0592847-6650603	19789180494018	2020-07-11T16:35:01+00:00	2020-07-11T09:35:01-07:00	2020-07-11T17:02:52+00:00	2020-07-15T06:59:59+00:00	-4	1xf06nvbq5h0cw5@marketplace.amazon.com	Jennifer Mays	+1 346-307-9643 ext. 74583	ABR001	Purchase Now for Delivery by Wednesday | Arabella Bouquets 12 Stems of Fresh Cut Red Roses in a Free Designer Glass Vase	1	0	1	Expedited	Karen Richard	4024 RANDALL LN			CARROLLTON	TX	75007-1092	US		Just thinking of you.  40 is a big one. From All of Us	false		
112-8042426-3964265	41405895332666	2020-07-11T17:39:50+00:00	2020-07-11T10:39:50-07:00	2020-07-11T18:02:54+00:00	2020-07-15T06:59:59+00:00	-4	p9b2qmvkrntqctv@marketplace.amazon.com	LaiNa Ching	+1 347-448-3190 ext. 84421	ABM010	The Spring Fling Bouquet by Arabella Bouquets with a Free Designer Glass Vase	1	0	1	Expedited	Joey Trompa	1620 W ORCHID LN			CHANDLER	AZ	85224-4081	US		Thank you for always being the best! Lai Na loves you! Kiss mama and Mary J for me!!! From LaiNa	false		
112-7645518-7215412	22668432416770	2020-07-11T18:15:29+00:00	2020-07-11T11:15:29-07:00	2020-07-11T18:42:14+00:00	2020-07-15T06:59:59+00:00	-4	tjfx4s49s1jdgms@marketplace.amazon.com	Rev. Edward D. Lofton	+1 346-307-9643 ext. 52683	ABR0055	Purchase Now for Delivery by Wednesday | Arabella Farm Direct Bouquet of 12 Stems of Fresh Cut Hot Pink Roses in a Free Designer Glass Vase	1	0	1	Expedited	Darlene Druyun	19156 OLD LOGGING RD			WILDWOOD	MO	63038-1100	US			false		
113-4138432-1865029	16904071806778	2020-07-11T18:23:59+00:00	2020-07-11T11:23:59-07:00	2020-07-11T18:47:41+00:00	2020-07-15T06:59:59+00:00	-4	dhmscrlf65vvxty@marketplace.amazon.com	Justin Plebaniak	+1 346-307-9643 ext. 91051	ABR0022	Purchase Now for Delivery by Wednesday | Arabella Farm Direct Bouquet of 12 Fresh Cut Pink Roses with a Free Glass Vase	1	0	1	Expedited	Samantha Reddick	2811 SW 13TH CT			BOYNTON BEACH	FL	33426-7811	US		Pretty flowers for a pretty Lady. From Justin Plebaniak	false		
112-5464977-3649847	11998982933538	2020-07-11T18:35:04+00:00	2020-07-11T11:35:04-07:00	2020-07-11T18:54:32+00:00	2020-07-15T06:59:59+00:00	-4	flq83tg2ynw8zjw@marketplace.amazon.com	Stephen Tsui	+1 346-307-9643 ext. 42205	ABR0022	Purchase Now for Delivery by Wednesday | Arabella Farm Direct Bouquet of 12 Fresh Cut Pink Roses with a Free Glass Vase	1	0	1	Expedited	Dorothy Lo	23643 VIA RANCHO DR			DIAMOND BAR	CA	91765-2155	US		Happy 70th Birthday & Best Wishes  !!!!! From Stephen & Susanna Tsui	false		
111-8042547-5490629	50209231925106	2020-07-11T18:32:21+00:00	2020-07-11T11:32:21-07:00	2020-07-11T18:59:14+00:00	2020-07-15T06:59:59+00:00	-4	rg3x70v8xcxn8c0@marketplace.amazon.com	Maureen Hudas	+1 314-282-9402 ext. 97946	ABM010	The Spring Fling Bouquet by Arabella Bouquets with a Free Designer Glass Vase	1	0	1	Expedited	Winifred Clement	302 BRIGHTON DR			CLARKS GREEN	PA	18411-1104	US		Happy Birthday, Mom, I miss and love you!! Love ya, love ya love ya!  Maureen Xoxoxoxo From Maureen Hudas	false		
114-0971920-1697817	04820759028402	2020-07-11T18:40:03+00:00	2020-07-11T11:40:03-07:00	2020-07-11T19:07:50+00:00	2020-07-15T06:59:59+00:00	-4	wbjm15vwdfrh9zn@marketplace.amazon.com	Cara Condit	+1 346-307-9643 ext. 45266	ABR0055	Purchase Now for Delivery by Wednesday | Arabella Farm Direct Bouquet of 12 Stems of Fresh Cut Hot Pink Roses in a Free Designer Glass Vase	1	0	1	Expedited	Lesley Deppman	433 FOOTE FARM RD			MIDDLEBURY	VT	05753-8544	US		Welcome Josie!  From Cara, Chris and Thomas	false		
114-2476546-4114636	35905308952706	2020-07-11T18:44:22+00:00	2020-07-11T11:44:22-07:00	2020-07-11T19:12:44+00:00	2020-07-15T06:59:59+00:00	-4	wxn7lwr8bdv6x2n@marketplace.amazon.com	Alison Skloot	+1 314-282-9402 ext. 42615	ABM010	The Spring Fling Bouquet by Arabella Bouquets with a Free Designer Glass Vase	1	0	1	Expedited	The Ficos	30 EMERSON DR			WASHINGTONVILLE	NY	10992-1125	US		Dear Jimmy, Diane & Family, Congratulations!! I am so thrilled for you and can not wait to celebrate with you soon! Best wishes always, Alison Gesuele From Alison Skloot	false		
113-3330279-7943455	52155320760586	2020-07-11T19:34:25+00:00	2020-07-11T12:34:25-07:00	2020-07-11T20:01:03+00:00	2020-07-15T06:59:59+00:00	-4	8g1rtprq2v29rz6@marketplace.amazon.com	Ari Kassardjian	+1 346-307-9643 ext. 02752	ABR0022	Purchase Now for Delivery by Wednesday | Arabella Farm Direct Bouquet of 12 Fresh Cut Pink Roses with a Free Glass Vase	1	0	1	Expedited	Tanya Mosesian	86 SMOKE TREE AVE			OAK PARK	CA	91377-1135	US		Dear Tanya, Thank you for being the best girlfriend and for supporting me during my first week of derm. I hope these flowers last longer than the last ones! I love you! Ari From Ari Kassardjian	false		
114-8757157-1716266	39956912116762	2020-07-11T20:05:34+00:00	2020-07-11T13:05:34-07:00	2020-07-11T20:34:37+00:00	2020-07-15T06:59:59+00:00	-4	76lby65bj24xxll@marketplace.amazon.com	Robert V Shannon Jr	+1 346-307-9643 ext. 23842	ABR0022	Purchase Now for Delivery by Wednesday | Arabella Farm Direct Bouquet of 12 Fresh Cut Pink Roses with a Free Glass Vase	1	0	1	Expedited	Melinda Abbinante	11238 RUNNING PINE DR			RIVERVIEW	FL	33569-2216	US			false		
113-4431643-6476238	27333960057970	2020-07-11T20:22:45+00:00	2020-07-11T13:22:45-07:00	2020-07-11T20:47:45+00:00	2020-07-15T06:59:59+00:00	-4	gt1tw9mfjdd1rhn@marketplace.amazon.com	randall a smith	+1 346-307-9643 ext. 96014	ABR0055	Purchase Now for Delivery by Wednesday | Arabella Farm Direct Bouquet of 12 Stems of Fresh Cut Hot Pink Roses in a Free Designer Glass Vase	1	0	1	Expedited	Marianne Stevenson	22861 SWENSON RAVINE			GRASS VALLEY	CA	95949-8150	US		A token of my love and affection for my lover. From Randall	false		
114-9033990-6726628	22418756793498	2020-07-11T21:07:40+00:00	2020-07-11T14:07:40-07:00	2020-07-11T21:37:44+00:00	2020-07-15T06:59:59+00:00	-4	m381zkl5y79tpvj@marketplace.amazon.com	Kandace Droke	+1 346-307-9643 ext. 09879	ABM0033	Purchase Now for Delivery by Wednesday | Arabella Farm Direct Bouquet of Fresh Cut White Hydrangea with a Free Glass Vase	1	0	1	Expedited	Kamber Smith	5339 49TH AVE SE			LACEY	WA	98503-7301	US			false		
114-0125888-4177860	10134815223002	2020-07-11T21:43:41+00:00	2020-07-11T14:43:41-07:00	2020-07-11T22:11:19+00:00	2020-07-15T06:59:59+00:00	-4	jqqjx4xyphnwgvh@marketplace.amazon.com	Joshua Smith	+1 346-307-9643 ext. 50240	ABR0022	Purchase Now for Delivery by Wednesday | Arabella Farm Direct Bouquet of 12 Fresh Cut Pink Roses with a Free Glass Vase	1	0	1	Expedited	Connie Mahoney	6270 State Route 30			Indian Lake	NY	12842	US		Happy Birthday Grandma! Love Kira, Josh, Feli, Steve. From Joshua Smith	false		
