order-id	order-item-id	purchase-date	payments-date	reporting-date	promise-date	days-past-promise	buyer-email	buyer-name	buyer-phone-number	sku	product-name	quantity-purchased	quantity-shipped	quantity-to-ship	ship-service-level	recipient-name	ship-address-1	ship-address-2	ship-address-3	ship-city	ship-state	ship-postal-code	ship-country	gift-wrap-type	gift-message-text	is-business-order	purchase-order-number	price-designation
114-9422207-4999417	50711659337306	2020-07-11T23:23:47+00:00	2020-07-11T16:23:47-07:00	2020-07-11T23:49:41+00:00	2020-07-15T06:59:59+00:00	-2	24hbw7s9qf3zpvk@marketplace.amazon.com	Diane Burgess	+1 314-282-9402 ext. 80889	ABM022	Purple Extravagance Bouquet by Arabella Bouquets	1	0	1	Expedited	wendy howell	6315 PROUT FARM LN			TRACYS LANDING	MD	20779-2109	US			false		
112-7888215-6094623	15387551957026	2020-07-12T03:13:27+00:00	2020-07-11T20:13:27-07:00	2020-07-12T03:35:07+00:00	2020-07-15T06:59:59+00:00	-2	n9dcbm3439w94hr@marketplace.amazon.com	Ronald R. Freeland	+1 346-307-9643 ext. 28328	ABR0022	Purchase Now for Delivery by Wednesday | Arabella Farm Direct Bouquet of 12 Fresh Cut Pink Roses with a Free Glass Vase	1	0	1	Expedited	Ronald R. Freeland	2 P69 + FX			OLJATO	Utah	84536-0318	US			false		
113-1126684-8125843	22462655888858	2020-07-12T03:56:54+00:00	2020-07-11T20:56:54-07:00	2020-07-12T04:18:57+00:00	2020-07-15T06:59:59+00:00	-2	wdb1y4yb67w0thk@marketplace.amazon.com	JonesFamily	+1 346-307-9643 ext. 88380	ABM0044	Arabella Farm Direct Bouquet of Fresh Cut Blue Hydrangea with a Free Glass Vase	1	0	1	Standard	Elda and Josiah Velazquez	7168 N INGRAM AVE			FRESNO	CA	93650-1027	US		My dear amiga, know that we love you guys very much and you are in our thoughts and prayers, May our god Jehovah provides you with the power beyond what is normal.. Jones familia From JonesFamily	false		
114-9128433-5806620	64973367766794	2020-07-12T18:03:29+00:00	2020-07-12T11:03:29-07:00	2020-07-12T18:25:45+00:00	2020-07-15T06:59:59+00:00	-2	583hq3p99mst2xm@marketplace.amazon.com	Eileen Widmann	+1 346-307-9643 ext. 38805	ABM010	The Spring Fling Bouquet by Arabella Bouquets with a Free Designer Glass Vase	1	0	1	Expedited	Eileen Widmann	11402 FORTINO PT			SAN DIEGO	CA	92131-4230	US			false		
114-4969957-3634626	42161190535018	2020-07-12T21:49:41+00:00	2020-07-12T14:49:41-07:00	2020-07-12T22:18:59+00:00	2020-07-15T06:59:59+00:00	-2	lwqj6767czlmvt2@marketplace.amazon.com	MaryAnn B. Smith	+1 314-282-9402 ext. 07882	ABM020	Summer Sunset Bouquet by Arabella Mixed Bouquets	1	0	1	Expedited	Virginia Pershern	10497 KERWICK CT			REMINDERVILLE	OH	44202-8160	US			false		
113-6497383-7955456	41965420532058	2020-07-13T00:45:39+00:00	2020-07-12T17:45:39-07:00	2020-07-13T01:15:53+00:00	2020-07-15T06:59:59+00:00	-2	k4clpbwy4y1nkw3@marketplace.amazon.com	Heidi Erdos	+1 346-307-9643 ext. 17855	ABM020	Summer Sunset Bouquet by Arabella Mixed Bouquets	1	0	1	Expedited	Sue Erdos	41081 NICKI LYNN DR			BELMONT	OH	43718-9681	US			false		
113-5764881-4154640	20656084285602	2020-07-13T18:51:17+00:00	2020-07-13T11:51:17-07:00	2020-07-13T19:14:23+00:00	2020-07-16T06:59:59+00:00	-3	cd9qgnhbx47c7wr@marketplace.amazon.com	Norman Flowe	+1 346-307-9643 ext. 17473	ABR0055	Purchase Now for Delivery by Thursday | Arabella Farm Direct Bouquet of 12 Stems of Fresh Cut Hot Pink Roses in a Free Designer Glass Vase	1	0	1	Standard	Siccola Warren	2036 CAMBRIDGE DR			CROFTON	MD	21114-1910	US		Always thinking about you.  Love you, Normie From Norman Flowe	false		
114-1411880-5127448	31454842939218	2020-07-13T19:04:37+00:00	2020-07-13T12:04:37-07:00	2020-07-13T19:34:56+00:00	2020-07-16T06:59:59+00:00	-3	rfsqxrqlbrq8z19@marketplace.amazon.com	Mia Song	+1 346-307-9643 ext. 32561	ABR0022	Purchase Now for Delivery by Thursday | Arabella Farm Direct Bouquet of 12 Fresh Cut Pink Roses with a Free Glass Vase	1	0	1	Expedited	Jean Song	900 PALISADE AVE APT 11D			FORT LEE	NJ	07024-4138	US			false		
112-8615266-1232268	26480670599138	2020-07-13T19:19:34+00:00	2020-07-13T12:19:34-07:00	2020-07-13T19:39:08+00:00	2020-07-16T06:59:59+00:00	-3	xdl0n66mzflh5cb@marketplace.amazon.com	Heather Denny	+1 210-728-4548 ext. 42458	ABM010	Purchase Now for Delivery by Thursday | The Spring Fling Bouquet by Arabella Bouquets with a Free Designer Glass Vase	1	0	1	Expedited	Ashley Simmons	482 SUMMER ST			ABINGTON	MA	02351-2556	US		Happy 2nd Workiversary, Ashley!!! Thank you for everything you do all year long to make our communications shine!  :) Best wishes, Heather From Heather Denny	false		
113-9500796-3384224	70134979494378	2020-07-13T19:29:41+00:00	2020-07-13T12:29:41-07:00	2020-07-13T19:57:20+00:00	2020-07-16T06:59:59+00:00	-3	t0lw5jrj1d998tm@marketplace.amazon.com	gregory f. liu	+1 314-282-9402 ext. 78806	ABR0055	Purchase Now for Delivery by Thursday | Arabella Farm Direct Bouquet of 12 Stems of Fresh Cut Hot Pink Roses in a Free Designer Glass Vase	1	0	1	Expedited	Julia Liu	6 GREENTREE RD			TIVOLI	NY	12583-5406	US		Congratulations, Mrs. Bear!  Lots of love and luck to you! From Greg	false		
114-5072158-3435452	21245957284034	2020-07-13T19:34:36+00:00	2020-07-13T12:34:36-07:00	2020-07-13T20:04:09+00:00	2020-07-16T06:59:59+00:00	-3	k28x60tq04gfsqr@marketplace.amazon.com	Takemi R. Tsuruta	+1 210-728-4548 ext. 65561	ABM010	Purchase Now for Delivery by Thursday | The Spring Fling Bouquet by Arabella Bouquets with a Free Designer Glass Vase	1	0	1	Expedited	Elaine Wanket	319 LIVEOAK CT			MARTINEZ	CA	94553-3573	US		Elaine, We are so very sorry to hear about your tremendous loss.  Sending love and peace to you and your entire family! Always, Leslie and Takemi From Takemi R. Tsuruta	false		
112-9119366-2575440	63719887850426	2020-07-13T20:29:12+00:00	2020-07-13T13:29:12-07:00	2020-07-13T20:57:15+00:00	2020-07-16T06:59:59+00:00	-3	gddsg5lp5w6bz89@marketplace.amazon.com	andrew s buchanan	+1 346-307-9643 ext. 17870	ABM002	Purchase Now for Delivery by Thursday | Arabella Bouquets Fresh Cut White Calla Lilies in a Free Designer Glass Vase	1	0	1	Expedited	Jenny Buchanan  C/O Wally Dear	158 Water Street			Vanceboro	ME	04491	US		Jenny - Happy Anniversary!  You are the love of my life and I'm so thankful for you.  Thanks for joining me on this crazy journey.  I love you!  The Lord is SO good! XO Andy From andrew s buchanan	false		
112-7176045-9999404	25832662325594	2020-07-13T21:34:25+00:00	2020-07-13T14:34:25-07:00	2020-07-13T22:02:31+00:00	2020-07-16T06:59:59+00:00	-3	6psmxw357vc0xtn@marketplace.amazon.com	Trey Braden	+1 347-448-3190 ext. 20076	ABR0055	Purchase Now for Delivery by Thursday | Arabella Farm Direct Bouquet of 12 Stems of Fresh Cut Hot Pink Roses in a Free Designer Glass Vase	1	0	1	Expedited	Paulette Korody	512 N 3RD ST			BARDSTOWN	KY	40004-1632	US		Happy Birthday! From Trey Braden	false		
111-4195490-6180212	57320698548546	2020-07-13T22:52:28+00:00	2020-07-13T15:52:28-07:00	2020-07-13T23:22:11+00:00	2020-07-16T06:59:59+00:00	-3	yyr01xh0vd4lxqw@marketplace.amazon.com	Tramutola	+1 346-307-9643 ext. 63120	ABR0066	Arabella Bouquets 12 Stems of Fresh Cut White Roses in a Free Designer Glass Vase	1	0	1	Expedited	The Peters	2650 N LAKEVIEW AVE APT 2101			CHICAGO	IL	60614-1820	US			false		
113-5565674-7089051	31362978693882	2020-07-13T23:02:45+00:00	2020-07-13T16:02:45-07:00	2020-07-13T23:29:39+00:00	2020-07-16T06:59:59+00:00	-3	mxwv4wp6dbj3gd7@marketplace.amazon.com	ricky j luse	+1 415-851-9136 ext. 35789	ABR0022	Purchase Now for Delivery by Thursday | Arabella Farm Direct Bouquet of 12 Fresh Cut Pink Roses with a Free Glass Vase	1	0	1	Expedited	ricky j luse	425 1ST AVE NE			BRAINERD	MN	56401-2720	US		I love you so much From ricky j luse	false		
112-0838272-4249023	63543114682306	2020-07-13T23:26:55+00:00	2020-07-13T16:26:55-07:00	2020-07-13T23:49:34+00:00	2020-07-16T06:59:59+00:00	-3	gz5gscv7tvjhb2c@marketplace.amazon.com	James Amato	+1 346-307-9643 ext. 87497	ABR0022	Purchase Now for Delivery by Thursday | Arabella Farm Direct Bouquet of 12 Fresh Cut Pink Roses with a Free Glass Vase	1	0	1	Expedited	Laura trax	2887 SANFORD LN			CARLSBAD	CA	92010-6553	US		Dear Laura, Think of something that gives you pleasure and recover completely and permanently!  Love, Dad From James Amato	false		
111-6653706-5069832	58826033197274	2020-07-13T23:34:14+00:00	2020-07-13T16:34:14-07:00	2020-07-13T23:58:14+00:00	2020-07-16T06:59:59+00:00	-3	grs4fgh3bkv90gz@marketplace.amazon.com	Amy D. Moore	+1 346-307-9643 ext. 86884	ABR0055	Purchase Now for Delivery by Thursday | Arabella Farm Direct Bouquet of 12 Stems of Fresh Cut Hot Pink Roses in a Free Designer Glass Vase	1	0	1	Expedited	Marion & Nick Bitzs	2119 VIRGINIA AVE			SANTA MONICA	CA	90404-4805	US		Enjoy your gift! From Amy D. Moore	false		
111-1413774-0365823	58435704281122	2020-07-14T00:41:41+00:00	2020-07-13T17:41:41-07:00	2020-07-14T01:06:13+00:00	2020-07-16T06:59:59+00:00	-3	00hq22w26vx2gnz@marketplace.amazon.com	MBH	+1 415-851-9136 ext. 24412	ABR0022	Purchase Now for Delivery by Thursday | Arabella Farm Direct Bouquet of 12 Fresh Cut Pink Roses with a Free Glass Vase	1	0	1	Expedited	Cindi Swafford	8794 HIGGINSON LN			EAGLE	ID	83616-1418	US		Love you! From Mike and Sandy	false		
114-3638820-3730662	50081857887394	2020-07-14T00:38:54+00:00	2020-07-13T17:38:54-07:00	2020-07-14T01:06:29+00:00	2020-07-16T06:59:59+00:00	-3	2zt32z0w3gdhpf8@marketplace.amazon.com	rami	+1 346-307-9643 ext. 27558	ABR0022	Purchase Now for Delivery by Thursday | Arabella Farm Direct Bouquet of 12 Fresh Cut Pink Roses with a Free Glass Vase	1	0	1	Expedited	Kate	11802 14TH AVE W EVERETT WA 98204			EVERETT	WA	98204-4884	US		To the kindest heart in the world. From Rami	false		
112-9408654-5849837	66989395549986	2020-07-14T01:02:40+00:00	2020-07-13T18:02:40-07:00	2020-07-14T01:24:17+00:00	2020-07-16T06:59:59+00:00	-3	87c21gd0x64qtn4@marketplace.amazon.com	jacob chimino	+1 346-307-9643 ext. 79875	ABR0022	Purchase Now for Delivery by Thursday | Arabella Farm Direct Bouquet of 12 Fresh Cut Pink Roses with a Free Glass Vase	1	0	1	Expedited	Sarah Chimino	5430 CHARTRES ST			HOUSTON	TX	77004-7406	US		Enjoy your gift! From From mali and shy Chimino congratulation and best wishes much love	false		
114-2958656-2454616	68285820843282	2020-07-14T01:32:10+00:00	2020-07-13T18:32:10-07:00	2020-07-14T02:01:46+00:00	2020-07-16T06:59:59+00:00	-3	dkqpnr2t7rrrblj@marketplace.amazon.com	Renee Roberts	+1 210-728-4548 ext. 81071	ABR0022	Purchase Now for Delivery by Thursday | Arabella Farm Direct Bouquet of 12 Fresh Cut Pink Roses with a Free Glass Vase	1	0	1	Expedited	Barbara Perry	40 hidden mountain cove			Chandler	Nc	28715	US		You are More special that words can express love you Renee’ From Renee Roberts	false		
111-1864043-7318627	63673653678874	2020-07-14T01:41:27+00:00	2020-07-13T18:41:27-07:00	2020-07-14T02:06:08+00:00	2020-07-16T06:59:59+00:00	-3	8nkcd6t0t5bl8vq@marketplace.amazon.com	PATRICIA A. BRYANT	+1 346-307-9643 ext. 75433	ABR0055	Purchase Now for Delivery by Thursday | Arabella Farm Direct Bouquet of 12 Stems of Fresh Cut Hot Pink Roses in a Free Designer Glass Vase	1	0	1	Expedited	Mrs. RUTH Muh WASHINGTON	HAPPY BIRTHDAY DAY ! WITH LOVE PAT AND YOUNGUNS	1700 PAMALEE DR ROOM # 112		FAYETTEVILLE	NC	28301-2824	US		HAPPY 93rd BIRTHDAY  With MUCH LOVE Pat and the younguns  ! From PATRICIA A. BRYANT	false		
114-1975144-3333803	70158366872050	2020-07-14T02:47:07+00:00	2020-07-13T19:47:07-07:00	2020-07-14T03:11:03+00:00	2020-07-16T06:59:59+00:00	-3	3xdg19wmk06397x@marketplace.amazon.com	Randy Hudson	+1 346-307-9643 ext. 38875	ABM010	Purchase Now for Delivery by Thursday | The Spring Fling Bouquet by Arabella Bouquets with a Free Designer Glass Vase	1	0	1	Expedited	Barbara Hudson	10025 DEL RIO RD			SPRING VALLEY	CA	91977-3132	US			false		
113-0669616-8361011	29724744294418	2020-07-14T03:15:51+00:00	2020-07-13T20:15:51-07:00	2020-07-14T03:20:00+00:00	2020-07-16T06:59:59+00:00	-3	hgzvf770c0fc9ps@marketplace.amazon.com	betty powles	+1 346-307-9643 ext. 40771	ABR0055	Purchase Now for Delivery by Thursday | Arabella Farm Direct Bouquet of 12 Stems of Fresh Cut Hot Pink Roses in a Free Designer Glass Vase	1	0	1	Expedited	Fred Pointelin	2330 N 75TH TER			KANSAS CITY	KS	66109-2319	US			false		
113-1057131-8297062	42949325845442	2020-07-14T03:00:19+00:00	2020-07-13T20:00:19-07:00	2020-07-14T03:30:55+00:00	2020-07-16T06:59:59+00:00	-3	31bqscjj682lz2m@marketplace.amazon.com	mark	+1 346-307-9643 ext. 07197	ABR0055	Purchase Now for Delivery by Thursday | Arabella Farm Direct Bouquet of 12 Stems of Fresh Cut Hot Pink Roses in a Free Designer Glass Vase	1	0	1	Expedited	Mark. Baldassare	11b Brookside Heights			Wanaque	New Jersey	07465	US			false		
111-4408023-4351468	25550705722346	2020-07-14T03:10:10+00:00	2020-07-13T20:10:10-07:00	2020-07-14T03:40:44+00:00	2020-07-16T06:59:59+00:00	-3	cqbl49cq34c6gsl@marketplace.amazon.com	Oscar Javier Rueda	+1 346-307-9643 ext. 09811	ABR0022	Purchase Now for Delivery by Thursday | Arabella Farm Direct Bouquet of 12 Fresh Cut Pink Roses with a Free Glass Vase	1	0	1	Expedited	Sandy Sue Gonzales	707 W 6TH ST			QUANAH	TX	79252-4507	US			false		
111-2726457-4656260	55522385676010	2020-07-14T03:39:58+00:00	2020-07-13T20:39:58-07:00	2020-07-14T04:10:29+00:00	2020-07-16T06:59:59+00:00	-3	ykqwb77prmhjmhn@marketplace.amazon.com	ariesfir	+1 347-448-3190 ext. 86049	ABR0066	Arabella Bouquets 12 Stems of Fresh Cut White Roses in a Free Designer Glass Vase	1	0	1	Expedited	Chia Li	7282 REGENCY SQUARE CT			HOUSTON	TX	77036-3115	US			false		
