order-id	order-item-id	purchase-date	payments-date	reporting-date	promise-date	days-past-promise	buyer-email	buyer-name	buyer-phone-number	sku	product-name	quantity-purchased	quantity-shipped	quantity-to-ship	ship-service-level	recipient-name	ship-address-1	ship-address-2	ship-address-3	ship-city	ship-state	ship-postal-code	ship-country	gift-wrap-type	gift-message-text	is-business-order	purchase-order-number	price-designation
114-8598606-7788203	58148282533722	2020-07-14T17:43:12+00:00	2020-07-14T10:43:12-07:00	2020-07-14T18:05:44+00:00	2020-07-17T06:59:59+00:00	-3	qn0swqbnnj8npgg@marketplace.amazon.com	Irina Babenko	+1 415-851-9136 ext. 21307	ABR015	Purchase Now for Delivery by Friday | Arabella Farm Direct Bouquet of 18 Fresh Cut Orange Roses with a Free Glass Vase	1	0	1	Expedited	Irina Andriasova-Sushko	54 GUYMARD TPKE			GODEFFROY	NY	12729-2002	US		Happy Birthday From Irina Babenko	false		
113-4146225-2861045	64030201342962	2020-07-14T17:49:03+00:00	2020-07-14T10:49:03-07:00	2020-07-14T18:13:10+00:00	2020-07-17T06:59:59+00:00	-3	94tjqrp1c0w5wyn@marketplace.amazon.com	Myra Shak	+1 314-282-9402 ext. 55390	ABM010	Purchase Now for Delivery by Friday | The Spring Fling Bouquet by Arabella Bouquets with a Free Designer Glass Vase	1	0	1	Expedited	Karyn Del Toro	2935 KINLOCH RD			WANTAGH	NY	11793-1713	US		Happy 50 th Birthday. Hope you enjoy the fantastic day you deserve. Miss you.  Hope To get the chance to see you soon Love, Myra & Arnie From Myra Shak	false		
114-9770877-6940221	53166001177290	2020-07-14T18:00:18+00:00	2020-07-14T11:00:18-07:00	2020-07-14T18:27:03+00:00	2020-07-17T06:59:59+00:00	-3	54yk85qrjqn05wl@marketplace.amazon.com	john lyons	+1 346-307-9643 ext. 20475	ABR0055	Purchase Now for Delivery by Friday | Arabella Farm Direct Bouquet of 12 Stems of Fresh Cut Hot Pink Roses in a Free Designer Glass Vase	1	0	1	Expedited	maura lyons	304 PIMLICO DR			HICKORY CREEK	TX	75065-7693	US			false		
113-6393901-7695425	69748895806890	2020-07-14T18:36:52+00:00	2020-07-14T11:36:52-07:00	2020-07-14T19:04:32+00:00	2020-07-17T06:59:59+00:00	-3	8yx3gjxrcv5q853@marketplace.amazon.com	Aleksandra	+1 346-307-9643 ext. 99532	ABR0022	Purchase Now for Delivery by Friday | Arabella Farm Direct Bouquet of 12 Fresh Cut Pink Roses with a Free Glass Vase	1	0	1	Expedited	Svetlana Zaika	9 JOHNSON RD			SOMERSET	NJ	08873-2929	US		From Zoya Efremovna, Vardan and Sasha	false		
114-0576291-9065829	01210124351978	2020-07-14T19:11:02+00:00	2020-07-14T12:11:02-07:00	2020-07-14T19:36:51+00:00	2020-07-17T06:59:59+00:00	-3	q6j19frt5tflcy9@marketplace.amazon.com	James Kirkwood	+1 347-448-3190 ext. 73765	ABR0022	Purchase Now for Delivery by Friday | Arabella Farm Direct Bouquet of 12 Fresh Cut Pink Roses with a Free Glass Vase	1	0	1	Expedited	Frederika Rhodes	1345 BLACK RIVER RD			BETHLEHEM	PA	18015-9033	US		Happy Birthday, Love, Jim	false		
113-5289836-9941817	63031401630402	2020-07-14T19:25:02+00:00	2020-07-14T12:25:02-07:00	2020-07-14T19:53:22+00:00	2020-07-17T06:59:59+00:00	-3	tw0b6v8qv9jqsbq@marketplace.amazon.com	Mike d	+1 347-448-3190 ext. 31116	ABR0022	Purchase Now for Delivery by Friday | Arabella Farm Direct Bouquet of 12 Fresh Cut Pink Roses with a Free Glass Vase	1	0	1	Standard	Carolyn De Marco	1218 OLYMPIA PL			FRANKLIN	TN	37067-5695	US		Speedy Recovery!  We are all thinking of you and Love you very much, and cannot wait to see you again soon.  Love, Mike, Francesca, and Ella From Mike , Francesca, and Ella	false		
111-1093569-8957817	19833264184538	2020-07-14T20:26:42+00:00	2020-07-14T13:26:42-07:00	2020-07-14T20:44:36+00:00	2020-07-17T06:59:59+00:00	-3	gr3tc4472cztj5v@marketplace.amazon.com	Victoria Parodi	+1 346-307-9643 ext. 08812	ABM010	Purchase Now for Delivery by Friday | The Spring Fling Bouquet by Arabella Bouquets with a Free Designer Glass Vase	1	0	1	Expedited	Beth Jones	277 N STYGLER RD			GAHANNA	OH	43230-2459	US		We will try this again! Hope you are feeling better each day! We are thinking and praying for you. Love, The Parodi’s From Carrie Parodi	false		
111-3095353-2549819	53945533004826	2020-07-14T20:19:14+00:00	2020-07-14T13:19:14-07:00	2020-07-14T20:46:47+00:00	2020-07-17T06:59:59+00:00	-3	q544x8l2fzxsrnr@marketplace.amazon.com	Derrick Monks	+1 347-448-3190 ext. 96166	ABR0022	Purchase Now for Delivery by Friday | Arabella Farm Direct Bouquet of 12 Fresh Cut Pink Roses with a Free Glass Vase	1	0	1	Expedited	Derrick Thomas Monks	847 LAVETA TER			LOS ANGELES	CA	90026-4319	US		Dear Mom & Dad,  Thank you for welcoming us into your home to quarantine together! We don't deserve you, but we do appreciate you.    Love you! From Derrick & Erin	false		
112-6505988-1806650	64512668109850	2020-07-14T20:37:16+00:00	2020-07-14T13:37:16-07:00	2020-07-14T21:05:59+00:00	2020-07-17T06:59:59+00:00	-3	bd0rmd4zkvw90lv@marketplace.amazon.com	Eric Schmidt-  Alaska Wilderness Guides	+1 346-307-9643 ext. 60372	ABM010	Purchase Now for Delivery by Friday | The Spring Fling Bouquet by Arabella Bouquets with a Free Designer Glass Vase	1	0	1	Expedited	Gailen Schmidt	58903 BUZZARD CREEK RD			COLLBRAN	CO	81624-9643	US		Dad- I hope you enjoy these as much as mom! From Eric Schmidt-  Alaska Wilderness Guides	false		
112-5540707-9434624	07152364701274	2020-07-14T20:56:56+00:00	2020-07-14T13:56:56-07:00	2020-07-14T21:24:49+00:00	2020-07-17T06:59:59+00:00	-3	3qd4yfc5rr30wtx@marketplace.amazon.com	Mario	+1 347-448-3190 ext. 63456	ABR0022	Purchase Now for Delivery by Friday | Arabella Farm Direct Bouquet of 12 Fresh Cut Pink Roses with a Free Glass Vase	1	0	1	Expedited	Mario Jara	36 KING ARTHUR CT APT 10			NORTHLAKE	IL	60164-1356	US		No matter where life takes you. I will always love you. I wish things could be different. I wish I’d be able to call you mine again. Please be safe with everything you do. Take care my everything. From Mario	false		
111-9813960-4197853	33522804218962	2020-07-14T21:08:50+00:00	2020-07-14T14:08:50-07:00	2020-07-14T21:35:14+00:00	2020-07-17T06:59:59+00:00	-3	hvcjj28400l4mnk@marketplace.amazon.com	Stephen Pardy	+1 210-728-4548 ext. 89573	ABR0055	Purchase Now for Delivery by Friday | Arabella Farm Direct Bouquet of 12 Stems of Fresh Cut Hot Pink Roses in a Free Designer Glass Vase	1	0	1	Expedited	Ms Celestine Pardy	18 Deepwood Dr			Lexington	KY	40505-2106	US			false		
111-0507510-9501831	00510975789538	2020-07-14T21:21:07+00:00	2020-07-14T14:21:07-07:00	2020-07-14T21:53:33+00:00	2020-07-17T06:59:59+00:00	-3	hgn55vxk770c099@marketplace.amazon.com	JAY GENSCHAW	+1 347-448-3190 ext. 36131	ABM010	Purchase Now for Delivery by Friday | The Spring Fling Bouquet by Arabella Bouquets with a Free Designer Glass Vase	1	0	1	Expedited	NANCY GENSCHAW	1115 SHADY LANE SW			MOORE HAVEN	FL	33471	US		HAPPY BIRTHDAY FROM ALL YOUR  CHILLINS From JAY GENSCHAW	false		
113-8066687-8641020	21002979335930	2020-07-14T21:29:18+00:00	2020-07-14T14:29:18-07:00	2020-07-14T21:57:27+00:00	2020-07-17T06:59:59+00:00	-3	5m8j9w78ng9rx0w@marketplace.amazon.com	Monair McDonald	+1 210-728-4548 ext. 48975	ABR0022	Purchase Now for Delivery by Friday | Arabella Farm Direct Bouquet of 12 Fresh Cut Pink Roses with a Free Glass Vase	1	0	1	Expedited	Zaliah McDonald	204 Autumn Lake Way			McDonough	Georgia	30253	US			false		
111-1274909-9739444	36218620198066	2020-07-14T21:43:34+00:00	2020-07-14T14:43:34-07:00	2020-07-14T22:10:26+00:00	2020-07-17T06:59:59+00:00	-3	pk6dpsprpzx22dk@marketplace.amazon.com	crystal	+1 347-448-3190 ext. 73218	ABR0022	Purchase Now for Delivery by Friday | Arabella Farm Direct Bouquet of 12 Fresh Cut Pink Roses with a Free Glass Vase	1	0	1	Expedited	Jessica ayala	1232 DOMINGO PL			OXNARD	CA	93030-2595	US		I’m sorry I took forever to get this to you, I hope your feeling better It’s not easy to go through what you’ve been through. Stay strong, positive And your always in my prayers we love you very much From Jessica, Robert and baby Robert	false		
111-6126234-6724221	20191167799090	2020-07-14T21:40:37+00:00	2020-07-14T14:40:37-07:00	2020-07-14T22:10:44+00:00	2020-07-17T06:59:59+00:00	-3	d16qrwgmzrl1l6p@marketplace.amazon.com	Walter Okwany Agumbi	+1 210-728-4548 ext. 60024	ABR0022	Purchase Now for Delivery by Friday | Arabella Farm Direct Bouquet of 12 Fresh Cut Pink Roses with a Free Glass Vase	1	0	1	Expedited	Francine Shalishali	709 RIDGEMONT AVE			ROCKVILLE	MD	20850-6060	US			false		
112-6571348-8848250	23708910903794	2020-07-14T21:50:47+00:00	2020-07-14T14:50:47-07:00	2020-07-14T22:18:35+00:00	2020-07-17T06:59:59+00:00	-3	fkkdnynk1z3zh8k@marketplace.amazon.com	Matt	+1 347-448-3190 ext. 81911	ABR012	Arabella Farm Direct Bouquet of 18 Fresh Cut Pink Roses with a Free Glass Vase	1	0	1	Expedited	Coby Stuart!	223 GEORGE AVE			AMERY	WI	54001-1511	US		Coby, Sorry I said it was your fault, I  appreciate your efforts also.  I care about you a lot.  I love you Coby.  Yours Truly Matt " Puppy' Olson From Matt	false		
111-0086897-3777843	51203384496450	2020-07-14T22:10:53+00:00	2020-07-14T15:10:53-07:00	2020-07-14T22:40:13+00:00	2020-07-17T06:59:59+00:00	-3	sjknytl5fzqq1pn@marketplace.amazon.com	Steven Clem	+1 314-282-9402 ext. 46915	ABR0022	Purchase Now for Delivery by Friday | Arabella Farm Direct Bouquet of 12 Fresh Cut Pink Roses with a Free Glass Vase	1	0	1	Expedited	Andrea Plunkett	10 WOODSONG CT			AMELIA	OH	45102-8704	US		just a small token to show how much I miss you From Steven Clem	false		
114-6359608-7561015	07791832904442	2020-07-14T22:15:31+00:00	2020-07-14T15:15:31-07:00	2020-07-14T22:44:27+00:00	2020-07-17T06:59:59+00:00	-3	cf8jxyzkwdq152f@marketplace.amazon.com	joan chiarotti	+1 415-851-9136 ext. 83598	ABR012	Arabella Farm Direct Bouquet of 18 Fresh Cut Pink Roses with a Free Glass Vase	1	0	1	Expedited	Joan Chiarotti	8011 MITCHELL LOOP SW			WASHINGTON	DC	20032-7719	US		Happy 22nd birthday Claire!  We love you! Mom and Dad, Beau and Dublin From Mom and Dad	false		
112-9157957-7993850	02571162718842	2020-07-14T22:48:51+00:00	2020-07-14T15:48:51-07:00	2020-07-14T23:17:42+00:00	2020-07-17T06:59:59+00:00	-3	3g405stq5yq88t5@marketplace.amazon.com	jennifer	+1 347-448-3190 ext. 60533	ABR0033	Purchase Now for Delivery by Friday | Arabella Farm Direct Bouquet of 12 Fresh Cut Orange Roses with a Free Glass Vase	1	0	1	Expedited	Latoya Curnell	272 BROADWAY			PORT EWEN	NY	12466-7768	US		Sorry for your loss.  Grievance leadership and team From Jennifer Williams	false		
