order-id	order-item-id	purchase-date	payments-date	reporting-date	promise-date	days-past-promise	buyer-email	buyer-name	buyer-phone-number	sku	product-name	quantity-purchased	quantity-shipped	quantity-to-ship	ship-service-level	recipient-name	ship-address-1	ship-address-2	ship-address-3	ship-city	ship-state	ship-postal-code	ship-country	gift-wrap-type	gift-message-text	is-business-order	purchase-order-number	price-designation
111-6671627-2922652	39422621659930	2020-07-15T17:53:44+00:00	2020-07-15T10:53:44-07:00	2020-07-15T18:18:33+00:00	2020-07-18T06:59:59+00:00	-2	npslynbqtmtg0qn@marketplace.amazon.com	Cindy Bingham	+1 346-307-9643 ext. 43608	ABM002	Purchase Now for Delivery by Monday | Arabella Bouquets Fresh Cut White Calla Lilies in a Free Designer Glass Vase	1	0	1	Expedited	Ann Giannangeli	DINOS CAFE 141 SALEM ST			BOSTON	MA	02113-1728	US		Dearest Ann- You are in our thoughts and in our HEARTS!  Sending our Prayers and our Love to you  our Dear Ann.  BIG HUGS XOXO From Lisa and Boys, Cindy, Kevin and Family	false		
111-1515255-3869819	34635617631842	2020-07-15T17:49:57+00:00	2020-07-15T10:49:57-07:00	2020-07-15T18:20:02+00:00	2020-07-18T06:59:59+00:00	-2	dlcbhksbr03sbg4@marketplace.amazon.com	leisa little	+1 314-282-9402 ext. 63157	ABR012	Purchase Now for Delivery by Monday | Arabella Farm Direct Bouquet of 18 Fresh Cut Pink Roses with a Free Glass Vase	1	0	1	Expedited	Maurine Little	10000 RHINELAND UNIT 114			SAN ANTONIO	TX	78239-3138	US			false		
113-6066368-5178660	61188634092402	2020-07-15T18:06:25+00:00	2020-07-15T11:06:25-07:00	2020-07-15T18:35:21+00:00	2020-07-18T06:59:59+00:00	-2	kkmy61kpb0nnn10@marketplace.amazon.com	Eric myers	+1 346-307-9643 ext. 49406	ABR012	Purchase Now for Delivery by Monday | Arabella Farm Direct Bouquet of 18 Fresh Cut Pink Roses with a Free Glass Vase	1	0	1	Expedited	Nia Duncan	2724 15TH ST			PORT ARTHUR	TX	77640-4669	US			false		
114-0450278-9443432	48276248544754	2020-07-15T18:21:12+00:00	2020-07-15T11:21:12-07:00	2020-07-15T18:43:35+00:00	2020-07-18T06:59:59+00:00	-2	rhpjnx47dwtnn0l@marketplace.amazon.com	Nicholas Mamounis	+1 346-307-9643 ext. 99642	ABR0022	Purchase Now for Delivery by Monday | Arabella Farm Direct Bouquet of 12 Fresh Cut Pink Roses with a Free Glass Vase	1	0	1	Expedited	Khalilah Bridges	606 Irene Street South			Hempstead	New York	11550	US		Dear Khalilah,   Thank you so much for everything you did to give me such a beautiful send off.   I know that you were behind it all.  It was much appreciated despite my protests.   Love, Nick From Nicholas Mamounis	false		
113-8392895-8663438	25100638706258	2020-07-15T19:16:48+00:00	2020-07-15T12:16:48-07:00	2020-07-15T19:42:14+00:00	2020-07-18T06:59:59+00:00	-2	m356jmgvn6j9lh9@marketplace.amazon.com	Scott	+1 314-282-9402 ext. 84015	ABR0022	Purchase Now for Delivery by Monday | Arabella Farm Direct Bouquet of 12 Fresh Cut Pink Roses with a Free Glass Vase	2	0	2	Expedited	Scott	20 REGINA DR			HOWELL	NJ	07731-1951	US			false		
114-9757114-6319461	08603272112226	2020-07-15T19:13:29+00:00	2020-07-15T12:13:29-07:00	2020-07-15T19:42:17+00:00	2020-07-18T06:59:59+00:00	-2	4lbzbpt4nz77psc@marketplace.amazon.com	Kristi Murtha	+1 346-307-9643 ext. 61976	ABR0033	Purchase Now for Delivery by Monday | Arabella Farm Direct Bouquet of 12 Fresh Cut Orange Roses with a Free Glass Vase	1	0	1	Expedited	Cara James	4901 ABSTON ST			EL PASO	TX	79906-3827	US		We are so sorry for your loss. Gypsy will always have a special place in our heart. We love you guys! The Murthas	false		
114-6080151-7120267	55309972308770	2020-07-15T19:48:11+00:00	2020-07-15T12:48:11-07:00	2020-07-15T20:08:58+00:00	2020-07-18T06:59:59+00:00	-2	rsyq7scx774y9y9@marketplace.amazon.com	vito ferlitto	+1 346-307-9643 ext. 85484	ABR0022	Purchase Now for Delivery by Monday | Arabella Farm Direct Bouquet of 12 Fresh Cut Pink Roses with a Free Glass Vase	1	0	1	Expedited	julia colleran	17627 W WIND SONG AVE			GOODYEAR	AZ	85338-5807	US			false		
112-6984344-6972240	08443727041162	2020-07-15T19:39:32+00:00	2020-07-15T12:39:32-07:00	2020-07-15T20:09:13+00:00	2020-07-18T06:59:59+00:00	-2	dmzzzhhgjlkn6dt@marketplace.amazon.com	MS	+1 346-307-9643 ext. 71577	ABSR002	Arabella Farm Direct Bouquet of Fresh Cut Pink Multicolor Spray Roses with a Free Glass Vase	1	0	1	Expedited	MS	9040 201ST ST			HOLLIS	NY	11423-2711	US			false		
114-6414087-4821058	41547546170042	2020-07-15T20:04:07+00:00	2020-07-15T13:04:07-07:00	2020-07-15T20:25:04+00:00	2020-07-18T06:59:59+00:00	-2	90m5l6jn7n67m8f@marketplace.amazon.com	Mary Bolin	+1 346-307-9643 ext. 76860	ABR004	Arabella Farm Direct Bouquet of 12 Fresh Cut Yellow Roses with a Free Glass Vase	1	0	1	Expedited	Mrs. Mary David	RANCHO MIRAGE TERRACE	34560 BOB HOPE DR		RANCHO MIRAGE	CA	92270-1727	US		Enjoy your gift, Darling Maga!  If only we could be together for your special birthday. But are you feeling the love we are sending your way? From Mary, Duane, Jori and Coley	false		
114-6612124-2362608	07249750729498	2020-07-15T20:05:20+00:00	2020-07-15T13:05:20-07:00	2020-07-15T20:33:14+00:00	2020-07-18T06:59:59+00:00	-2	55bn42bmfhn0wdr@marketplace.amazon.com	Kirsten Griffiths	00447725972688	ABM010	Purchase Now for Delivery by Monday | The Spring Fling Bouquet by Arabella Bouquets with a Free Designer Glass Vase	1	0	1	Expedited	Jennifer Burrows	3616 KISSMAN DR			AUSTIN	TX	78728-3534	US		Dear Jennifer,  Thinking of you and wishing you a full and speedy recovery.  Some sweet edible treats to accompany soon are also on their way!  Lots of love Kirsten From Kirsten Griffiths	false		
111-2404756-1905851	01244129924570	2020-07-15T20:29:26+00:00	2020-07-15T13:29:26-07:00	2020-07-15T20:53:07+00:00	2020-07-18T06:59:59+00:00	-2	8snc7q1bj1b89rv@marketplace.amazon.com	jean a gee	0014259225470	ABM010	Purchase Now for Delivery by Monday | The Spring Fling Bouquet by Arabella Bouquets with a Free Designer Glass Vase	1	0	1	Expedited	Michael Gee	109 2ND ST S APT 532			KIRKLAND	WA	98033-9004	US		Hi Rachel  Hope you enjoy these flowers From jean and Gordon  xL	false		
113-1078390-2405827	48592846536058	2020-07-15T21:24:25+00:00	2020-07-15T14:24:25-07:00	2020-07-15T21:34:35+00:00	2020-07-18T06:59:59+00:00	-2	hdlhzn5776w3p4c@marketplace.amazon.com	anne m sias	+1 346-307-9643 ext. 05481	ABR0055	Purchase Now for Delivery by Monday | Arabella Farm Direct Bouquet of 12 Stems of Fresh Cut Hot Pink Roses in a Free Designer Glass Vase	1	0	1	Standard	SAMANTHA JEAN STRESEMAN	100 N AVENUE S			PORTALES	NM	88130-9358	US		HAPPY  16th BIRTHDAY  SWEET GRAND DAUGHTER                                    SAM I LUV YOU VERY MUCH......AIR HUGS and BLESSINGS                            granny XOXOX From anne m sias (granny)	false		
114-0347734-8643405	04502433792570	2020-07-15T21:08:15+00:00	2020-07-15T14:08:15-07:00	2020-07-15T21:37:29+00:00	2020-07-18T06:59:59+00:00	-2	7bbv1kcjlgvcvl9@marketplace.amazon.com	davidibarejones	+1 314-282-9402 ext. 45150	ABR001	Purchase Now for Delivery by Monday | Arabella Bouquets 12 Stems of Fresh Cut Red Roses in a Free Designer Glass Vase	1	0	1	Standard	Sharde Shelley	7706 LANGDON ST			PHILADELPHIA	PA	19111-3510	US			false		
112-3364571-1537003	01295689042730	2020-07-15T21:22:33+00:00	2020-07-15T14:22:33-07:00	2020-07-15T21:51:52+00:00	2020-07-18T06:59:59+00:00	-2	n3shfk9t9tgt4vt@marketplace.amazon.com	james j tulino, jr	+1 346-307-9643 ext. 81725	ABR012	Purchase Now for Delivery by Monday | Arabella Farm Direct Bouquet of 18 Fresh Cut Pink Roses with a Free Glass Vase	1	0	1	Expedited	Nora Pulatani	60 HAMILTON AVE APT 7M			STATEN ISLAND	NY	10301-1850	US			false		
111-6846738-4887449	64664585986890	2020-07-15T21:32:48+00:00	2020-07-15T14:32:48-07:00	2020-07-15T22:02:02+00:00	2020-07-18T06:59:59+00:00	-2	3bzkjltvx6b4jb3@marketplace.amazon.com	Lora Freeland	+1 346-307-9643 ext. 02561	ABR0022	Purchase Now for Delivery by Monday | Arabella Farm Direct Bouquet of 12 Fresh Cut Pink Roses with a Free Glass Vase	1	0	1	Expedited	Rhonda Johnson	87883 OLD HWY			ISLAMORADA	FL	33036-3071	US		Hi Rhonda, Happy belated birthday! Love Aunt Nancy	false		
112-9168767-2292221	44153449781586	2020-07-15T22:51:01+00:00	2020-07-15T15:51:01-07:00	2020-07-15T23:21:38+00:00	2020-07-18T06:59:59+00:00	-2	q304ph5tkvmv7hg@marketplace.amazon.com	Brian Greer	+1 346-307-9643 ext. 41169	ABR004	Arabella Farm Direct Bouquet of 12 Fresh Cut Yellow Roses with a Free Glass Vase	1	0	1	Expedited	Jessica Wallingford	37 W 31ST AVE			SPOKANE	WA	99203-1723	US			false		
111-6931004-3833838	50266951622474	2020-07-15T23:27:07+00:00	2020-07-15T16:27:07-07:00	2020-07-15T23:56:09+00:00	2020-07-18T06:59:59+00:00	-2	ml29m3h9086vbtx@marketplace.amazon.com	Justin	+1 346-307-9643 ext. 91824	ABR004	Arabella Farm Direct Bouquet of 12 Fresh Cut Yellow Roses with a Free Glass Vase	1	0	1	Expedited	Myrna A Chua	4218 SHADOW ELM WOODS			SAN ANTONIO	TX	78249-2042	US		Happy birthday mom,  any happy returns and God bless, love Justin From Justin	false		
114-0104005-1030663	38786237880306	2020-07-16T01:06:21+00:00	2020-07-15T18:06:21-07:00	2020-07-16T01:31:29+00:00	2020-07-18T06:59:59+00:00	-2	58mqh0gh66q06zd@marketplace.amazon.com	Stephanie Nuzzo	+1 346-307-9643 ext. 15470	ABR004	Arabella Farm Direct Bouquet of 12 Fresh Cut Yellow Roses with a Free Glass Vase	1	0	1	Expedited	Bess Nuzzo	300 H ST			SAN RAFAEL	CA	94901-1729	US		Happy birthday my dear mother. Love you and miss you! Penny says she misses you too. Enjoy your day xoxo From Steph and Penny	false		
114-9378172-8101048	25588784602586	2020-07-16T01:19:14+00:00	2020-07-15T18:19:14-07:00	2020-07-16T01:49:16+00:00	2020-07-18T06:59:59+00:00	-2	pzg88lpbfb366kl@marketplace.amazon.com	Lauren	+1 347-448-3190 ext. 02505	ABM0033	Purchase Now for Delivery by Monday | Arabella Farm Direct Bouquet of Fresh Cut White Hydrangea with a Free Glass Vase	1	0	1	Expedited	Miss Noa Boileu	4539 LASALLE ST			NEW ORLEANS	LA	70115-5944	US			false		
112-9119072-0521061	30447722607090	2020-07-16T01:30:44+00:00	2020-07-15T18:30:44-07:00	2020-07-16T01:57:35+00:00	2020-07-18T06:59:59+00:00	-2	b3cnhnch5btrzl6@marketplace.amazon.com	Eduardo Munoz	+1 210-728-4548 ext. 58086	ABM010	Purchase Now for Delivery by Monday | The Spring Fling Bouquet by Arabella Bouquets with a Free Designer Glass Vase	1	0	1	Expedited	Patricia Riffo	2140 GREEN ST			PHILADELPHIA	PA	19130-3111	US		Feliz cumpleanos hija. Te amo, mamá. De Mónica Toledo	false		
111-8936881-3258641	29030478447402	2020-07-16T01:46:42+00:00	2020-07-15T18:46:42-07:00	2020-07-16T02:06:21+00:00	2020-07-18T06:59:59+00:00	-2	cggcv0r9x80pzd4@marketplace.amazon.com	Shirley Hawes Hieter	+1 346-307-9643 ext. 52943	ABR0022	Purchase Now for Delivery by Monday | Arabella Farm Direct Bouquet of 12 Fresh Cut Pink Roses with a Free Glass Vase	1	0	1	Expedited	Sara Hawes	1730 SE Elizabeth Street	Apt A		Olympia	Washington	98501	US		Happy birthday Sara.  Hope you have a wonderful day/  Love you.  Grandma Shirley From Shirley Hawes Hieter	false		
113-7943958-8486666	43419431614450	2020-07-16T01:38:30+00:00	2020-07-15T18:38:30-07:00	2020-07-16T02:24:11+00:00	2020-07-18T06:59:59+00:00	-2	b0k1fm36mw3mvfy@marketplace.amazon.com	Kathleen A Sours	+1 346-307-9643 ext. 86019	ABR0055	Purchase Now for Delivery by Monday | Arabella Farm Direct Bouquet of 12 Stems of Fresh Cut Hot Pink Roses in a Free Designer Glass Vase	1	0	1	Expedited	Kathleen Sours	2320 TERRA CEIA BAY BLVD UNIT 411			PALMETTO	FL	34221-5903	US			false		
112-6515170-5988231	04673157727314	2020-07-16T02:54:22+00:00	2020-07-15T19:54:22-07:00	2020-07-16T03:14:39+00:00	2020-07-18T06:59:59+00:00	-2	7v42zt839kspd8p@marketplace.amazon.com	Erica	+1 347-448-3190 ext. 25935	ABR0055	Purchase Now for Delivery by Monday | Arabella Farm Direct Bouquet of 12 Stems of Fresh Cut Hot Pink Roses in a Free Designer Glass Vase	1	0	1	Expedited	Kameron Suarez	14317 SW 158TH PATH			MIAMI	FL	33196-6786	US		Happy Birthday Kameron! Wishing you many blessings and many more years filled with happiness, joy and love. You deserve that and more. We love you <3 From Nana, Tata, Nino Bui and Tia Erica	false		
114-0355692-3758659	00235839321226	2020-07-16T02:57:36+00:00	2020-07-15T19:57:36-07:00	2020-07-16T03:25:14+00:00	2020-07-18T06:59:59+00:00	-2	725bv5n27gzmqzl@marketplace.amazon.com	Cone Family	+1 346-307-9643 ext. 48447	ABR012	Purchase Now for Delivery by Monday | Arabella Farm Direct Bouquet of 18 Fresh Cut Pink Roses with a Free Glass Vase	1	0	1	Expedited	Eve Miller	8975 NEW SULPHUR SPRINGS RD			SAN ANTONIO	TX	78263-2386	US		Dear Evengeline, May the Rose of Sharon, our Christ, bless, lead, provide and protect you through life into eternity. Love Cindy and Rush Cone From Cindy and Rush Cone	false		
111-3609581-8890644	27359779885250	2020-07-16T03:51:39+00:00	2020-07-15T20:51:39-07:00	2020-07-16T04:19:54+00:00	2020-07-18T06:59:59+00:00	-2	f1kq9c3rbnvmr9x@marketplace.amazon.com	Yvonne James	+1 346-307-9643 ext. 09300	ABR0022	Purchase Now for Delivery by Monday | Arabella Farm Direct Bouquet of 12 Fresh Cut Pink Roses with a Free Glass Vase	1	0	1	Expedited	Kim Schmidt	5403 E CATALINA AVE			MESA	AZ	85206-2256	US		"HAPPY ANNIVERSARY" LOVE YVONNE & PATSY TO" From Yvonne James	false		
112-0625760-3655435	16888122787434	2020-07-16T04:04:07+00:00	2020-07-15T21:04:07-07:00	2020-07-16T04:32:31+00:00	2020-07-18T06:59:59+00:00	-2	8vq3n82xjsslzpz@marketplace.amazon.com	Heather	619549145	ABM010	Purchase Now for Delivery by Monday | The Spring Fling Bouquet by Arabella Bouquets with a Free Designer Glass Vase	1	0	1	Expedited	Vanessa Meyer	71 S CRISP MORNING CIR			THE WOODLANDS	TX	77382-5786	US		Hope these flowers brighten your day! We love you. From Heather, Mom & Julie	false		
114-2691126-2373807	06061326501514	2020-07-16T04:22:23+00:00	2020-07-15T21:22:23-07:00	2020-07-16T04:52:16+00:00	2020-07-18T06:59:59+00:00	-2	k9t2rgfvptml89h@marketplace.amazon.com	Malantrio	+1 346-307-9643 ext. 20783	ABR001	Purchase Now for Delivery by Monday | Arabella Bouquets 12 Stems of Fresh Cut Red Roses in a Free Designer Glass Vase	1	0	1	Expedited	Alise ramos	10920 MCKINLEY DR			TAMPA	FL	33612-6471	US			false		
112-8528702-1329863	32782433859434	2020-07-16T06:07:46+00:00	2020-07-15T23:07:46-07:00	2020-07-16T06:26:28+00:00	2020-07-18T06:59:59+00:00	-2	9902kcby8crkt7s@marketplace.amazon.com	Mika Tsuruta	+1 314-282-9402 ext. 30487	ABM010	Purchase Now for Delivery by Monday | The Spring Fling Bouquet by Arabella Bouquets with a Free Designer Glass Vase	1	0	1	Expedited	Lisa Higgins	1910 BUTTONWOOD ST			CHESAPEAKE	VA	23324-2805	US		Congrats, Lisa!!  You are my best in Nitto! From Mika Tsuruta	false		
112-8999273-4459441	24601177614794	2020-07-16T06:01:28+00:00	2020-07-15T23:01:28-07:00	2020-07-16T06:27:51+00:00	2020-07-18T06:59:59+00:00	-2	b8drhqdm75wp7zj@marketplace.amazon.com	Travis carlson	+1 346-307-9643 ext. 29537	ABR0022	Purchase Now for Delivery by Monday | Arabella Farm Direct Bouquet of 12 Fresh Cut Pink Roses with a Free Glass Vase	1	0	1	Expedited	Kaylene carlson	4601 LIGHTFOOT RD			HARBOR SPRINGS	MI	49740-9706	US		Happy Birthday!!!!  Love you very much! From Mom and Dad	false		
114-4432934-1608213	32961368890162	2020-07-16T06:04:26+00:00	2020-07-15T23:04:26-07:00	2020-07-16T06:30:33+00:00	2020-07-18T06:59:59+00:00	-2	xl34kcm33gwnn9m@marketplace.amazon.com	Ryan Sebring	+1 346-307-9643 ext. 99157	ABM010	Purchase Now for Delivery by Monday | The Spring Fling Bouquet by Arabella Bouquets with a Free Designer Glass Vase	1	0	1	Expedited	Rachel Kanouse Rorick	713 ROBIN CT			LEDGEWOOD	NJ	07852-2620	US			false		
113-0744710-7889039	60407043138050	2020-07-15T17:49:31+00:00	2020-07-15T10:49:31-07:00	2020-07-16T06:39:40+00:00	2020-07-18T06:59:59+00:00	-2	b0k1fm36mw3mvfy@marketplace.amazon.com	Kathleen A Sours	+1 210-728-4548 ext. 58762	ABR0055	Purchase Now for Delivery by Monday | Arabella Farm Direct Bouquet of 12 Stems of Fresh Cut Hot Pink Roses in a Free Designer Glass Vase	1	0	1	Expedited	Kathleen Sours	2320 TERRA CEIA BAY BLVD UNIT 411			PALMETTO	FL	34221-5903	US			false		
111-2879977-1837057	68123776063370	2020-07-16T08:07:08+00:00	2020-07-16T01:07:08-07:00	2020-07-16T08:36:52+00:00	2020-07-21T06:59:59+00:00	-5	m9kq88zsccnnhz7@marketplace.amazon.com	Ernie Reyes	+1 314-282-9402 ext. 79908	ABR0055	Purchase Now for Delivery by Monday | Arabella Farm Direct Bouquet of 12 Stems of Fresh Cut Hot Pink Roses in a Free Designer Glass Vase	1	0	1	Expedited	Joanna Sanchez	10959 PIGEON DR			COLORADO SPRINGS	CO	80925-9629	US			false		
113-0181413-7171425	60832361251354	2020-07-16T09:02:58+00:00	2020-07-16T02:02:58-07:00	2020-07-16T09:31:04+00:00	2020-07-21T06:59:59+00:00	-5	zkyp2w17xzf7q0m@marketplace.amazon.com	Steve	+1 314-282-9402 ext. 90007	ABR001	Purchase Now for Delivery by Monday | Arabella Bouquets 12 Stems of Fresh Cut Red Roses in a Free Designer Glass Vase	1	0	1	Expedited	Maria Dominguez	4050 MARLBOROUGH AVE APT 5			SAN DIEGO	CA	92105-6107	US		que tengas un Feliz Cumpleanos  de Vicente :)	false		
114-1903865-0983453	62325580650386	2020-07-16T11:05:06+00:00	2020-07-16T04:05:06-07:00	2020-07-16T11:34:38+00:00	2020-07-21T06:59:59+00:00	-5	zd6mqksb31pvj4c@marketplace.amazon.com	Michael F Bray	+1 346-307-9643 ext. 56684	ABR0022	Purchase Now for Delivery by Monday | Arabella Farm Direct Bouquet of 12 Fresh Cut Pink Roses with a Free Glass Vase	1	0	1	Standard	Carolyn Donohue	1919 CHESTNUT ST APT 1109			PHILADELPHIA	PA	19103-3417	US		Carolyn,  Happy Early Birthday!  Love, From Fran	false		
112-9468698-7505800	70111627910834	2020-07-16T11:55:49+00:00	2020-07-16T04:55:49-07:00	2020-07-16T12:23:10+00:00	2020-07-21T06:59:59+00:00	-5	pm199kypm3z74pz@marketplace.amazon.com	James  F  Byrd	+1 347-448-3190 ext. 30277	ABR0022	Purchase Now for Delivery by Monday | Arabella Farm Direct Bouquet of 12 Fresh Cut Pink Roses with a Free Glass Vase	1	0	1	Expedited	Pam Temple	943 PINE TOP RD			LEXINGTON	NC	27295-8299	US		Dear,Pam,I am Praying For You!Hope you are Feeling Better! I Love You! From Your Heart Sister!	false		
114-4230815-7849849	33430201697778	2020-07-16T12:47:29+00:00	2020-07-16T05:47:29-07:00	2020-07-16T13:14:09+00:00	2020-07-21T06:59:59+00:00	-5	172n68gpn0q5yrn@marketplace.amazon.com	Angelina Rodriguez	+1 346-307-9643 ext. 66740	ABM010	Purchase Now for Delivery by Monday | The Spring Fling Bouquet by Arabella Bouquets with a Free Designer Glass Vase	1	0	1	Expedited	Mrs. Alvarado	2511 GUNSMOKE			SAN ANTONIO	TX	78227-3337	US		You and your husband will be fine mom, because you are covered in the BLOOD OF JESUS! From Robert Rodriguez	false		
