order-id	order-item-id	purchase-date	payments-date	reporting-date	promise-date	days-past-promise	buyer-email	buyer-name	buyer-phone-number	sku	product-name	quantity-purchased	quantity-shipped	quantity-to-ship	ship-service-level	recipient-name	ship-address-1	ship-address-2	ship-address-3	ship-city	ship-state	ship-postal-code	ship-country	gift-wrap-type	gift-message-text	is-business-order	purchase-order-number	price-designation
111-6671627-2922652	39422621659930	2020-07-15T17:53:44+00:00	2020-07-15T10:53:44-07:00	2020-07-15T18:18:33+00:00	2020-07-18T06:59:59+00:00	-1	npslynbqtmtg0qn@marketplace.amazon.com	Cindy Bingham	+1 346-307-9643 ext. 43608	ABM002	Purchase Now for Delivery by Monday | Arabella Bouquets Fresh Cut White Calla Lilies in a Free Designer Glass Vase	1	0	1	Expedited	Ann Giannangeli	DINOS CAFE 141 SALEM ST			BOSTON	MA	02113-1728	US		Dearest Ann- You are in our thoughts and in our HEARTS!  Sending our Prayers and our Love to you  our Dear Ann.  BIG HUGS XOXO From Lisa and Boys, Cindy, Kevin and Family	false		
111-1515255-3869819	34635617631842	2020-07-15T17:49:57+00:00	2020-07-15T10:49:57-07:00	2020-07-15T18:20:02+00:00	2020-07-18T06:59:59+00:00	-1	dlcbhksbr03sbg4@marketplace.amazon.com	leisa little	+1 314-282-9402 ext. 63157	ABR012	Purchase Now for Delivery by Monday | Arabella Farm Direct Bouquet of 18 Fresh Cut Pink Roses with a Free Glass Vase	1	0	1	Expedited	Maurine Little	10000 RHINELAND UNIT 114			SAN ANTONIO	TX	78239-3138	US			false		
113-6066368-5178660	61188634092402	2020-07-15T18:06:25+00:00	2020-07-15T11:06:25-07:00	2020-07-15T18:35:21+00:00	2020-07-18T06:59:59+00:00	-1	kkmy61kpb0nnn10@marketplace.amazon.com	Eric myers	+1 346-307-9643 ext. 49406	ABR012	Purchase Now for Delivery by Monday | Arabella Farm Direct Bouquet of 18 Fresh Cut Pink Roses with a Free Glass Vase	1	0	1	Expedited	Nia Duncan	2724 15TH ST			PORT ARTHUR	TX	77640-4669	US			false		
114-0450278-9443432	48276248544754	2020-07-15T18:21:12+00:00	2020-07-15T11:21:12-07:00	2020-07-15T18:43:35+00:00	2020-07-18T06:59:59+00:00	-1	rhpjnx47dwtnn0l@marketplace.amazon.com	Nicholas Mamounis	+1 346-307-9643 ext. 99642	ABR0022	Purchase Now for Delivery by Monday | Arabella Farm Direct Bouquet of 12 Fresh Cut Pink Roses with a Free Glass Vase	1	0	1	Expedited	Khalilah Bridges	606 Irene Street South			Hempstead	New York	11550	US		Dear Khalilah,   Thank you so much for everything you did to give me such a beautiful send off.   I know that you were behind it all.  It was much appreciated despite my protests.   Love, Nick From Nicholas Mamounis	false		
113-8392895-8663438	25100638706258	2020-07-15T19:16:48+00:00	2020-07-15T12:16:48-07:00	2020-07-15T19:42:14+00:00	2020-07-18T06:59:59+00:00	-1	m356jmgvn6j9lh9@marketplace.amazon.com	Scott	+1 314-282-9402 ext. 84015	ABR0022	Purchase Now for Delivery by Monday | Arabella Farm Direct Bouquet of 12 Fresh Cut Pink Roses with a Free Glass Vase	2	0	2	Expedited	Scott	20 REGINA DR			HOWELL	NJ	07731-1951	US			false		
114-9757114-6319461	08603272112226	2020-07-15T19:13:29+00:00	2020-07-15T12:13:29-07:00	2020-07-15T19:42:17+00:00	2020-07-18T06:59:59+00:00	-1	4lbzbpt4nz77psc@marketplace.amazon.com	Kristi Murtha	+1 346-307-9643 ext. 61976	ABR0033	Purchase Now for Delivery by Monday | Arabella Farm Direct Bouquet of 12 Fresh Cut Orange Roses with a Free Glass Vase	1	0	1	Expedited	Cara James	4901 ABSTON ST			EL PASO	TX	79906-3827	US		We are so sorry for your loss. Gypsy will always have a special place in our heart. We love you guys! The Murthas	false		
114-6080151-7120267	55309972308770	2020-07-15T19:48:11+00:00	2020-07-15T12:48:11-07:00	2020-07-15T20:08:58+00:00	2020-07-18T06:59:59+00:00	-1	rsyq7scx774y9y9@marketplace.amazon.com	vito ferlitto	+1 346-307-9643 ext. 85484	ABR0022	Purchase Now for Delivery by Monday | Arabella Farm Direct Bouquet of 12 Fresh Cut Pink Roses with a Free Glass Vase	1	0	1	Expedited	julia colleran	17627 W WIND SONG AVE			GOODYEAR	AZ	85338-5807	US			false		
112-6984344-6972240	08443727041162	2020-07-15T19:39:32+00:00	2020-07-15T12:39:32-07:00	2020-07-15T20:09:13+00:00	2020-07-18T06:59:59+00:00	-1	dmzzzhhgjlkn6dt@marketplace.amazon.com	MS	+1 346-307-9643 ext. 71577	ABSR002	Arabella Farm Direct Bouquet of Fresh Cut Pink Multicolor Spray Roses with a Free Glass Vase	1	0	1	Expedited	MS	9040 201ST ST			HOLLIS	NY	11423-2711	US			false		
114-6414087-4821058	41547546170042	2020-07-15T20:04:07+00:00	2020-07-15T13:04:07-07:00	2020-07-15T20:25:04+00:00	2020-07-18T06:59:59+00:00	-1	90m5l6jn7n67m8f@marketplace.amazon.com	Mary Bolin	+1 346-307-9643 ext. 76860	ABR004	Arabella Farm Direct Bouquet of 12 Fresh Cut Yellow Roses with a Free Glass Vase	1	0	1	Expedited	Mrs. Mary David	RANCHO MIRAGE TERRACE	34560 BOB HOPE DR		RANCHO MIRAGE	CA	92270-1727	US		Enjoy your gift, Darling Maga!  If only we could be together for your special birthday. But are you feeling the love we are sending your way? From Mary, Duane, Jori and Coley	false		
114-6612124-2362608	07249750729498	2020-07-15T20:05:20+00:00	2020-07-15T13:05:20-07:00	2020-07-15T20:33:14+00:00	2020-07-18T06:59:59+00:00	-1	55bn42bmfhn0wdr@marketplace.amazon.com	Kirsten Griffiths	00447725972688	ABM010	Purchase Now for Delivery by Monday | The Spring Fling Bouquet by Arabella Bouquets with a Free Designer Glass Vase	1	0	1	Expedited	Jennifer Burrows	3616 KISSMAN DR			AUSTIN	TX	78728-3534	US		Dear Jennifer,  Thinking of you and wishing you a full and speedy recovery.  Some sweet edible treats to accompany soon are also on their way!  Lots of love Kirsten From Kirsten Griffiths	false		
111-2404756-1905851	01244129924570	2020-07-15T20:29:26+00:00	2020-07-15T13:29:26-07:00	2020-07-15T20:53:07+00:00	2020-07-18T06:59:59+00:00	-1	8snc7q1bj1b89rv@marketplace.amazon.com	jean a gee	0014259225470	ABM010	Purchase Now for Delivery by Monday | The Spring Fling Bouquet by Arabella Bouquets with a Free Designer Glass Vase	1	0	1	Expedited	Michael Gee	109 2ND ST S APT 532			KIRKLAND	WA	98033-9004	US		Hi Rachel  Hope you enjoy these flowers From jean and Gordon  xL	false		
113-1078390-2405827	48592846536058	2020-07-15T21:24:25+00:00	2020-07-15T14:24:25-07:00	2020-07-15T21:34:35+00:00	2020-07-18T06:59:59+00:00	-1	hdlhzn5776w3p4c@marketplace.amazon.com	anne m sias	+1 346-307-9643 ext. 05481	ABR0055	Purchase Now for Delivery by Monday | Arabella Farm Direct Bouquet of 12 Stems of Fresh Cut Hot Pink Roses in a Free Designer Glass Vase	1	0	1	Standard	SAMANTHA JEAN STRESEMAN	100 N AVENUE S			PORTALES	NM	88130-9358	US		HAPPY  16th BIRTHDAY  SWEET GRAND DAUGHTER                                    SAM I LUV YOU VERY MUCH......AIR HUGS and BLESSINGS                            granny XOXOX From anne m sias (granny)	false		
114-0347734-8643405	04502433792570	2020-07-15T21:08:15+00:00	2020-07-15T14:08:15-07:00	2020-07-15T21:37:29+00:00	2020-07-18T06:59:59+00:00	-1	7bbv1kcjlgvcvl9@marketplace.amazon.com	davidibarejones	+1 314-282-9402 ext. 45150	ABR001	Purchase Now for Delivery by Monday | Arabella Bouquets 12 Stems of Fresh Cut Red Roses in a Free Designer Glass Vase	1	0	1	Standard	Sharde Shelley	7706 LANGDON ST			PHILADELPHIA	PA	19111-3510	US			false		
112-3364571-1537003	01295689042730	2020-07-15T21:22:33+00:00	2020-07-15T14:22:33-07:00	2020-07-15T21:51:52+00:00	2020-07-18T06:59:59+00:00	-1	n3shfk9t9tgt4vt@marketplace.amazon.com	james j tulino, jr	+1 346-307-9643 ext. 81725	ABR012	Purchase Now for Delivery by Monday | Arabella Farm Direct Bouquet of 18 Fresh Cut Pink Roses with a Free Glass Vase	1	0	1	Expedited	Nora Pulatani	60 HAMILTON AVE APT 7M			STATEN ISLAND	NY	10301-1850	US			false		
111-6846738-4887449	64664585986890	2020-07-15T21:32:48+00:00	2020-07-15T14:32:48-07:00	2020-07-15T22:02:02+00:00	2020-07-18T06:59:59+00:00	-1	3bzkjltvx6b4jb3@marketplace.amazon.com	Lora Freeland	+1 346-307-9643 ext. 02561	ABR0022	Purchase Now for Delivery by Monday | Arabella Farm Direct Bouquet of 12 Fresh Cut Pink Roses with a Free Glass Vase	1	0	1	Expedited	Rhonda Johnson	87883 OLD HWY			ISLAMORADA	FL	33036-3071	US		Hi Rhonda, Happy belated birthday! Love Aunt Nancy	false		
112-9168767-2292221	44153449781586	2020-07-15T22:51:01+00:00	2020-07-15T15:51:01-07:00	2020-07-15T23:21:38+00:00	2020-07-18T06:59:59+00:00	-1	q304ph5tkvmv7hg@marketplace.amazon.com	Brian Greer	+1 346-307-9643 ext. 41169	ABR004	Arabella Farm Direct Bouquet of 12 Fresh Cut Yellow Roses with a Free Glass Vase	1	0	1	Expedited	Jessica Wallingford	37 W 31ST AVE			SPOKANE	WA	99203-1723	US			false		
111-6931004-3833838	50266951622474	2020-07-15T23:27:07+00:00	2020-07-15T16:27:07-07:00	2020-07-15T23:56:09+00:00	2020-07-18T06:59:59+00:00	-1	ml29m3h9086vbtx@marketplace.amazon.com	Justin	+1 346-307-9643 ext. 91824	ABR004	Arabella Farm Direct Bouquet of 12 Fresh Cut Yellow Roses with a Free Glass Vase	1	0	1	Expedited	Myrna A Chua	4218 SHADOW ELM WOODS			SAN ANTONIO	TX	78249-2042	US		Happy birthday mom,  any happy returns and God bless, love Justin From Justin	false		
114-0104005-1030663	38786237880306	2020-07-16T01:06:21+00:00	2020-07-15T18:06:21-07:00	2020-07-16T01:31:29+00:00	2020-07-18T06:59:59+00:00	-1	58mqh0gh66q06zd@marketplace.amazon.com	Stephanie Nuzzo	+1 346-307-9643 ext. 15470	ABR004	Arabella Farm Direct Bouquet of 12 Fresh Cut Yellow Roses with a Free Glass Vase	1	0	1	Expedited	Bess Nuzzo	300 H ST			SAN RAFAEL	CA	94901-1729	US		Happy birthday my dear mother. Love you and miss you! Penny says she misses you too. Enjoy your day xoxo From Steph and Penny	false		
114-9378172-8101048	25588784602586	2020-07-16T01:19:14+00:00	2020-07-15T18:19:14-07:00	2020-07-16T01:49:16+00:00	2020-07-18T06:59:59+00:00	-1	pzg88lpbfb366kl@marketplace.amazon.com	Lauren	+1 347-448-3190 ext. 02505	ABM0033	Purchase Now for Delivery by Monday | Arabella Farm Direct Bouquet of Fresh Cut White Hydrangea with a Free Glass Vase	1	0	1	Expedited	Miss Noa Boileu	4539 LASALLE ST			NEW ORLEANS	LA	70115-5944	US			false		
112-9119072-0521061	30447722607090	2020-07-16T01:30:44+00:00	2020-07-15T18:30:44-07:00	2020-07-16T01:57:35+00:00	2020-07-18T06:59:59+00:00	-1	b3cnhnch5btrzl6@marketplace.amazon.com	Eduardo Munoz	+1 210-728-4548 ext. 58086	ABM010	Purchase Now for Delivery by Monday | The Spring Fling Bouquet by Arabella Bouquets with a Free Designer Glass Vase	1	0	1	Expedited	Patricia Riffo	2140 GREEN ST			PHILADELPHIA	PA	19130-3111	US		Feliz cumpleanos hija. Te amo, mamá. De Mónica Toledo	false		
111-8936881-3258641	29030478447402	2020-07-16T01:46:42+00:00	2020-07-15T18:46:42-07:00	2020-07-16T02:06:21+00:00	2020-07-18T06:59:59+00:00	-1	cggcv0r9x80pzd4@marketplace.amazon.com	Shirley Hawes Hieter	+1 346-307-9643 ext. 52943	ABR0022	Purchase Now for Delivery by Monday | Arabella Farm Direct Bouquet of 12 Fresh Cut Pink Roses with a Free Glass Vase	1	0	1	Expedited	Sara Hawes	1730 SE Elizabeth Street	Apt A		Olympia	Washington	98501	US		Happy birthday Sara.  Hope you have a wonderful day/  Love you.  Grandma Shirley From Shirley Hawes Hieter	false		
113-7943958-8486666	43419431614450	2020-07-16T01:38:30+00:00	2020-07-15T18:38:30-07:00	2020-07-16T02:24:11+00:00	2020-07-18T06:59:59+00:00	-1	b0k1fm36mw3mvfy@marketplace.amazon.com	Kathleen A Sours	+1 346-307-9643 ext. 86019	ABR0055	Purchase Now for Delivery by Monday | Arabella Farm Direct Bouquet of 12 Stems of Fresh Cut Hot Pink Roses in a Free Designer Glass Vase	1	0	1	Expedited	Kathleen Sours	2320 TERRA CEIA BAY BLVD UNIT 411			PALMETTO	FL	34221-5903	US			false		
112-6515170-5988231	04673157727314	2020-07-16T02:54:22+00:00	2020-07-15T19:54:22-07:00	2020-07-16T03:14:39+00:00	2020-07-18T06:59:59+00:00	-1	7v42zt839kspd8p@marketplace.amazon.com	Erica	+1 347-448-3190 ext. 25935	ABR0055	Purchase Now for Delivery by Monday | Arabella Farm Direct Bouquet of 12 Stems of Fresh Cut Hot Pink Roses in a Free Designer Glass Vase	1	0	1	Expedited	Kameron Suarez	14317 SW 158TH PATH			MIAMI	FL	33196-6786	US		Happy Birthday Kameron! Wishing you many blessings and many more years filled with happiness, joy and love. You deserve that and more. We love you <3 From Nana, Tata, Nino Bui and Tia Erica	false		
114-0355692-3758659	00235839321226	2020-07-16T02:57:36+00:00	2020-07-15T19:57:36-07:00	2020-07-16T03:25:14+00:00	2020-07-18T06:59:59+00:00	-1	725bv5n27gzmqzl@marketplace.amazon.com	Cone Family	+1 346-307-9643 ext. 48447	ABR012	Purchase Now for Delivery by Monday | Arabella Farm Direct Bouquet of 18 Fresh Cut Pink Roses with a Free Glass Vase	1	0	1	Expedited	Eve Miller	8975 NEW SULPHUR SPRINGS RD			SAN ANTONIO	TX	78263-2386	US		Dear Evengeline, May the Rose of Sharon, our Christ, bless, lead, provide and protect you through life into eternity. Love Cindy and Rush Cone From Cindy and Rush Cone	false		
111-3609581-8890644	27359779885250	2020-07-16T03:51:39+00:00	2020-07-15T20:51:39-07:00	2020-07-16T04:19:54+00:00	2020-07-18T06:59:59+00:00	-1	f1kq9c3rbnvmr9x@marketplace.amazon.com	Yvonne James	+1 346-307-9643 ext. 09300	ABR0022	Purchase Now for Delivery by Monday | Arabella Farm Direct Bouquet of 12 Fresh Cut Pink Roses with a Free Glass Vase	1	0	1	Expedited	Kim Schmidt	5403 E CATALINA AVE			MESA	AZ	85206-2256	US		"HAPPY ANNIVERSARY" LOVE YVONNE & PATSY TO" From Yvonne James	false		
112-0625760-3655435	16888122787434	2020-07-16T04:04:07+00:00	2020-07-15T21:04:07-07:00	2020-07-16T04:32:31+00:00	2020-07-18T06:59:59+00:00	-1	8vq3n82xjsslzpz@marketplace.amazon.com	Heather	619549145	ABM010	Purchase Now for Delivery by Monday | The Spring Fling Bouquet by Arabella Bouquets with a Free Designer Glass Vase	1	0	1	Expedited	Vanessa Meyer	71 S CRISP MORNING CIR			THE WOODLANDS	TX	77382-5786	US		Hope these flowers brighten your day! We love you. From Heather, Mom & Julie	false		
114-2691126-2373807	06061326501514	2020-07-16T04:22:23+00:00	2020-07-15T21:22:23-07:00	2020-07-16T04:52:16+00:00	2020-07-18T06:59:59+00:00	-1	k9t2rgfvptml89h@marketplace.amazon.com	Malantrio	+1 346-307-9643 ext. 20783	ABR001	Purchase Now for Delivery by Monday | Arabella Bouquets 12 Stems of Fresh Cut Red Roses in a Free Designer Glass Vase	1	0	1	Expedited	Alise ramos	10920 MCKINLEY DR			TAMPA	FL	33612-6471	US			false		
112-8528702-1329863	32782433859434	2020-07-16T06:07:46+00:00	2020-07-15T23:07:46-07:00	2020-07-16T06:26:28+00:00	2020-07-18T06:59:59+00:00	-1	9902kcby8crkt7s@marketplace.amazon.com	Mika Tsuruta	+1 314-282-9402 ext. 30487	ABM010	Purchase Now for Delivery by Monday | The Spring Fling Bouquet by Arabella Bouquets with a Free Designer Glass Vase	1	0	1	Expedited	Lisa Higgins	1910 BUTTONWOOD ST			CHESAPEAKE	VA	23324-2805	US		Congrats, Lisa!!  You are my best in Nitto! From Mika Tsuruta	false		
112-8999273-4459441	24601177614794	2020-07-16T06:01:28+00:00	2020-07-15T23:01:28-07:00	2020-07-16T06:27:51+00:00	2020-07-18T06:59:59+00:00	-1	b8drhqdm75wp7zj@marketplace.amazon.com	Travis carlson	+1 346-307-9643 ext. 29537	ABR0022	Purchase Now for Delivery by Monday | Arabella Farm Direct Bouquet of 12 Fresh Cut Pink Roses with a Free Glass Vase	1	0	1	Expedited	Kaylene carlson	4601 LIGHTFOOT RD			HARBOR SPRINGS	MI	49740-9706	US		Happy Birthday!!!!  Love you very much! From Mom and Dad	false		
114-4432934-1608213	32961368890162	2020-07-16T06:04:26+00:00	2020-07-15T23:04:26-07:00	2020-07-16T06:30:33+00:00	2020-07-18T06:59:59+00:00	-1	xl34kcm33gwnn9m@marketplace.amazon.com	Ryan Sebring	+1 346-307-9643 ext. 99157	ABM010	Purchase Now for Delivery by Monday | The Spring Fling Bouquet by Arabella Bouquets with a Free Designer Glass Vase	1	0	1	Expedited	Rachel Kanouse Rorick	713 ROBIN CT			LEDGEWOOD	NJ	07852-2620	US			false		
113-0744710-7889039	60407043138050	2020-07-15T17:49:31+00:00	2020-07-15T10:49:31-07:00	2020-07-16T06:39:40+00:00	2020-07-18T06:59:59+00:00	-1	b0k1fm36mw3mvfy@marketplace.amazon.com	Kathleen A Sours	+1 210-728-4548 ext. 58762	ABR0055	Purchase Now for Delivery by Monday | Arabella Farm Direct Bouquet of 12 Stems of Fresh Cut Hot Pink Roses in a Free Designer Glass Vase	1	0	1	Expedited	Kathleen Sours	2320 TERRA CEIA BAY BLVD UNIT 411			PALMETTO	FL	34221-5903	US			false		
111-2879977-1837057	68123776063370	2020-07-16T08:07:08+00:00	2020-07-16T01:07:08-07:00	2020-07-16T08:36:52+00:00	2020-07-21T06:59:59+00:00	-4	m9kq88zsccnnhz7@marketplace.amazon.com	Ernie Reyes	+1 314-282-9402 ext. 79908	ABR0055	Purchase Now for Delivery by Monday | Arabella Farm Direct Bouquet of 12 Stems of Fresh Cut Hot Pink Roses in a Free Designer Glass Vase	1	0	1	Expedited	Joanna Sanchez	10959 PIGEON DR			COLORADO SPRINGS	CO	80925-9629	US			false		
113-0181413-7171425	60832361251354	2020-07-16T09:02:58+00:00	2020-07-16T02:02:58-07:00	2020-07-16T09:31:04+00:00	2020-07-21T06:59:59+00:00	-4	zkyp2w17xzf7q0m@marketplace.amazon.com	Steve	+1 314-282-9402 ext. 90007	ABR001	Purchase Now for Delivery by Monday | Arabella Bouquets 12 Stems of Fresh Cut Red Roses in a Free Designer Glass Vase	1	0	1	Expedited	Maria Dominguez	4050 MARLBOROUGH AVE APT 5			SAN DIEGO	CA	92105-6107	US		que tengas un Feliz Cumpleanos  de Vicente :)	false		
114-1903865-0983453	62325580650386	2020-07-16T11:05:06+00:00	2020-07-16T04:05:06-07:00	2020-07-16T11:34:38+00:00	2020-07-21T06:59:59+00:00	-4	zd6mqksb31pvj4c@marketplace.amazon.com	Michael F Bray	+1 346-307-9643 ext. 56684	ABR0022	Purchase Now for Delivery by Monday | Arabella Farm Direct Bouquet of 12 Fresh Cut Pink Roses with a Free Glass Vase	1	0	1	Standard	Carolyn Donohue	1919 CHESTNUT ST APT 1109			PHILADELPHIA	PA	19103-3417	US		Carolyn,  Happy Early Birthday!  Love, From Fran	false		
112-9468698-7505800	70111627910834	2020-07-16T11:55:49+00:00	2020-07-16T04:55:49-07:00	2020-07-16T12:23:10+00:00	2020-07-21T06:59:59+00:00	-4	pm199kypm3z74pz@marketplace.amazon.com	James  F  Byrd	+1 347-448-3190 ext. 30277	ABR0022	Purchase Now for Delivery by Monday | Arabella Farm Direct Bouquet of 12 Fresh Cut Pink Roses with a Free Glass Vase	1	0	1	Expedited	Pam Temple	943 PINE TOP RD			LEXINGTON	NC	27295-8299	US		Dear,Pam,I am Praying For You!Hope you are Feeling Better! I Love You! From Your Heart Sister!	false		
114-4230815-7849849	33430201697778	2020-07-16T12:47:29+00:00	2020-07-16T05:47:29-07:00	2020-07-16T13:14:09+00:00	2020-07-21T06:59:59+00:00	-4	172n68gpn0q5yrn@marketplace.amazon.com	Angelina Rodriguez	+1 346-307-9643 ext. 66740	ABM010	Purchase Now for Delivery by Monday | The Spring Fling Bouquet by Arabella Bouquets with a Free Designer Glass Vase	1	0	1	Expedited	Mrs. Alvarado	2511 GUNSMOKE			SAN ANTONIO	TX	78227-3337	US		You and your husband will be fine mom, because you are covered in the BLOOD OF JESUS! From Robert Rodriguez	false		
112-4788075-7045810	24375251698866	2020-07-16T13:06:44+00:00	2020-07-16T06:06:44-07:00	2020-07-16T13:35:05+00:00	2020-07-21T06:59:59+00:00	-4	qrsz06r5ss9zptb@marketplace.amazon.com	Marie Louis	+1 314-282-9402 ext. 54089	ABR0022	Purchase Now for Delivery by Monday | Arabella Farm Direct Bouquet of 12 Fresh Cut Pink Roses with a Free Glass Vase	1	0	1	Expedited	Jonie Rozzelle	1022 AUTUMN LN			HICKORY	NC	28602-9758	US		Dearest Jonie,   Please know you are in my thoughts and prayers. Wish I could be there to give you a hug.  Love Marie From Marie Louis	false		
114-1711662-7353058	07999919720450	2020-07-16T13:28:38+00:00	2020-07-16T06:28:38-07:00	2020-07-16T13:52:57+00:00	2020-07-21T06:59:59+00:00	-4	f2dqx18blmx4x4q@marketplace.amazon.com	donna l.cooper	+1 346-307-9643 ext. 53352	ABR0055	Purchase Now for Delivery by Monday | Arabella Farm Direct Bouquet of 12 Stems of Fresh Cut Hot Pink Roses in a Free Designer Glass Vase	1	0	1	Expedited	Kerryn Winiesky	160 BELLEVUE AVE			PENNDEL	PA	19047-5256	US		Enjoy your gift !Congradulations From donna l.cooper	false		
112-2551943-2161007	47417831889386	2020-07-16T14:25:57+00:00	2020-07-16T07:25:57-07:00	2020-07-16T14:41:29+00:00	2020-07-21T06:59:59+00:00	-4	qchnk6jwm0l1svt@marketplace.amazon.com	Jennifer Priest	+1 346-307-9643 ext. 35152	ABR0022	Purchase Now for Delivery by Monday | Arabella Farm Direct Bouquet of 12 Fresh Cut Pink Roses with a Free Glass Vase	1	0	1	Expedited	Lisa Honea	3904 52ND DR W			BRADENTON	FL	34210-3276	US		Sending you healing thoughts and comforting hugs. I hope this helps to brighten your day. Love, Chuck and Jennifer	false		
111-2188418-9668262	41012201513066	2020-07-16T14:25:09+00:00	2020-07-16T07:25:09-07:00	2020-07-16T14:50:45+00:00	2020-07-21T06:59:59+00:00	-4	5f6rrg7lz0487ms@marketplace.amazon.com	Lumi Hilchey	+1 210-728-4548 ext. 17804	ABR0022	Purchase Now for Delivery by Monday | Arabella Farm Direct Bouquet of 12 Fresh Cut Pink Roses with a Free Glass Vase	1	0	1	Expedited	The Brunswick School Team	189 BRUNSWICK ST # 7TH			JERSEY CITY	NJ	07302-2334	US		Congratulations for the reopening.  Thank you for all the incredible work, sweat and tears.  We look forward to new times in the safety of the TBS bubble. With love. The Hilcheys From Lumi Hilchey	false		
113-6249410-5871407	54228197888938	2020-07-16T15:13:01+00:00	2020-07-16T08:13:01-07:00	2020-07-16T15:38:48+00:00	2020-07-21T06:59:59+00:00	-4	9mb106yythmr4zm@marketplace.amazon.com	Fran Kryszczak	+1 347-448-3190 ext. 75453	ABR004	Arabella Farm Direct Bouquet of 12 Fresh Cut Yellow Roses with a Free Glass Vase	1	0	1	Expedited	Susan David-Kryszczak DP	1011 COOPER ST			WOODBURY	NJ	08096-3076	US			false		
113-2642763-3261045	47987582267602	2020-07-16T16:20:45+00:00	2020-07-16T09:20:45-07:00	2020-07-16T16:47:47+00:00	2020-07-21T06:59:59+00:00	-4	96fb3kh6cmjs380@marketplace.amazon.com	CLAUDIA	+1 347-448-3190 ext. 63918	ABR015	Purchase Now for Delivery by Monday | Arabella Farm Direct Bouquet of 18 Fresh Cut Orange Roses with a Free Glass Vase	1	0	1	Expedited	María Alejandra Colin	2727 REVERE ST APT 4017			HOUSTON	TX	77098-1385	US		Nuestro querido Pollito ¡Bienvenido al corral! llevábamos 9 meses esperando ver esos ojazos. Mery y Carlos gracias x regalarnos al primer sobrino Chicken ¡Os queremos y echamos de menos! De Blanca, Paulita, Caro, Ichi, Clau Fdez & Sof	false		
111-8000365-0691400	26117272198610	2020-07-16T16:41:28+00:00	2020-07-16T09:41:28-07:00	2020-07-16T17:11:21+00:00	2020-07-21T06:59:59+00:00	-4	w0d2lwrxvpb5zby@marketplace.amazon.com	Iyce	+1 346-307-9643 ext. 52233	ABR001	Purchase Now for Delivery by Monday | Arabella Bouquets 12 Stems of Fresh Cut Red Roses in a Free Designer Glass Vase	1	0	1	Expedited	Juliana	24324 NORTHWEST FWY STE 200	CYPRESS 77429		CYPRESS	TX	77429-5983	US		Hey beautiful, I hope this makes you smile....kisses From Christopher	false		
111-7296326-7335407	55676380453410	2020-07-16T17:22:33+00:00	2020-07-16T10:22:33-07:00	2020-07-16T17:49:19+00:00	2020-07-21T06:59:59+00:00	-4	2nxnhw7gr1mkz1q@marketplace.amazon.com	Mario	+1 346-307-9643 ext. 12705	ABR0022	Purchase Now for Delivery by Monday | Arabella Farm Direct Bouquet of 12 Fresh Cut Pink Roses with a Free Glass Vase	1	0	1	Expedited	Michelle Marie	721 BOURBON ST APT 2			PAHRUMP	NV	89048-5646	US		Just to remind you of your Beautiful Smile. That one right there. Show it off everyday, you deserve to be Happy & much more!! Luv ya. Take care God Bless!! From Mario	false		
112-1247232-2597031	13162950836034	2020-07-16T17:51:34+00:00	2020-07-16T10:51:34-07:00	2020-07-16T18:22:17+00:00	2020-07-21T06:59:59+00:00	-4	rlmr21nrcqdbyyg@marketplace.amazon.com	Joseph Brennan	+1 347-448-3190 ext. 18736	ABR0055	Purchase Now for Delivery by Monday | Arabella Farm Direct Bouquet of 12 Stems of Fresh Cut Hot Pink Roses in a Free Designer Glass Vase	1	0	1	Expedited	Kristin Brennan	213 BRIDGEPORT LN			ELKTON	FL	32033-4056	US			false		
111-3225879-7630661	27122554393946	2020-07-16T17:59:08+00:00	2020-07-16T10:59:08-07:00	2020-07-16T18:27:04+00:00	2020-07-21T06:59:59+00:00	-4	dnbdzt1s62bljdt@marketplace.amazon.com	Randy R	+1 346-307-9643 ext. 22663	ABR0055	Purchase Now for Delivery by Monday | Arabella Farm Direct Bouquet of 12 Stems of Fresh Cut Hot Pink Roses in a Free Designer Glass Vase	1	0	1	Expedited	Elle Allen	313 BRIMS WAY			GARNER	NC	27529-4776	US		With sympathy and love,  Stephanie and Randy From Randy R	false		
114-7136458-6097802	66919699684962	2020-07-16T18:06:26+00:00	2020-07-16T11:06:26-07:00	2020-07-16T18:28:04+00:00	2020-07-21T06:59:59+00:00	-4	3vr6fhl570kn47h@marketplace.amazon.com	Shaykat Chaudhuri	+1 346-307-9643 ext. 06456	ABR0022	Purchase Now for Delivery by Monday | Arabella Farm Direct Bouquet of 12 Fresh Cut Pink Roses with a Free Glass Vase	1	0	1	Expedited	Shomir Chaudhuri	5242 39TH AVE NE			SEATTLE	WA	98105-3040	US		To the best mom & wife! <3	false		
113-6083022-0033858	02707505156618	2020-07-16T18:21:07+00:00	2020-07-16T11:21:07-07:00	2020-07-16T18:48:21+00:00	2020-07-21T06:59:59+00:00	-4	9rzdp5rk1h1b9ff@marketplace.amazon.com	Jeanette Dantice	+1 314-282-9402 ext. 46098	ABR0033	Purchase Now for Delivery by Monday | Arabella Farm Direct Bouquet of 12 Fresh Cut Orange Roses with a Free Glass Vase	1	0	1	Expedited	Jess A Dantice	143 STEEPLECHASE			BELTON	SC	29627-7700	US		Sweet Auburn, prayers for a speedy recovery! Love, From Bubba & Nonnie Bell	false		
114-3942955-7408201	04592586423826	2020-07-16T18:54:09+00:00	2020-07-16T11:54:09-07:00	2020-07-16T19:19:53+00:00	2020-07-21T06:59:59+00:00	-4	5jrg5j52h9bhbfh@marketplace.amazon.com	Eduardo Callender	+1 347-448-3190 ext. 41835	ABM010	Purchase Now for Delivery by Monday | The Spring Fling Bouquet by Arabella Bouquets with a Free Designer Glass Vase	1	0	1	Expedited	Sally Parker	7835 CORTE CASTILLO			RIVERSIDE	CA	92509-5235	US		Thinking of you. Recover quick.  Pismo awaits❤️💋❤️ From Eduardo 😘	false		
113-9052204-1011413	40185422672138	2020-07-16T16:30:32+00:00	2020-07-16T09:30:32-07:00	2020-07-16T19:31:24+00:00	2020-07-21T06:59:59+00:00	-4	g6xvmn816wzhr08@marketplace.amazon.com	Hannah Loeffler		ABM002	Purchase Now for Delivery by Monday | Arabella Bouquets Fresh Cut White Calla Lilies in a Free Designer Glass Vase	1	0	1	Expedited	Marlo Gorran, lululemon athleticaPO200-0000021541	5435 Tamiami Trail North Unit C105,Collier			Naples	FL	34108	US			true	200-0000021541	
113-9052204-1011413	29292477391090	2020-07-16T16:30:32+00:00	2020-07-16T09:30:32-07:00	2020-07-16T19:31:24+00:00	2020-07-21T06:59:59+00:00	-4	g6xvmn816wzhr08@marketplace.amazon.com	Hannah Loeffler		ABR0066	Purchase Now for Delivery by Monday | Arabella Bouquets 12 Stems of Fresh Cut White Roses in a Free Designer Glass Vase	1	0	1	Expedited	Marlo Gorran, lululemon athleticaPO200-0000021541	5435 Tamiami Trail North Unit C105,Collier			Naples	FL	34108	US			true	200-0000021541	Business Price
113-6250570-2564220	58027673449306	2020-07-16T20:07:58+00:00	2020-07-16T13:07:58-07:00	2020-07-16T20:25:19+00:00	2020-07-21T06:59:59+00:00	-4	2bj5629hbywbvjn@marketplace.amazon.com	Susan M. Wheeler	+1 415-851-9136 ext. 88815	ABR0055	Purchase Now for Delivery by Monday | Arabella Farm Direct Bouquet of 12 Stems of Fresh Cut Hot Pink Roses in a Free Designer Glass Vase	1	0	1	Expedited	Doris Robertson	8647 W ESCUDA DR			PEORIA	AZ	85382-8754	US			false		
114-5123116-7948226	33094948301994	2020-07-16T20:04:40+00:00	2020-07-16T13:04:40-07:00	2020-07-16T20:32:57+00:00	2020-07-21T06:59:59+00:00	-4	npkpwt1xtss195j@marketplace.amazon.com	Darin J Jaburek	+1 346-307-9643 ext. 16734	ABR0022	Purchase Now for Delivery by Monday | Arabella Farm Direct Bouquet of 12 Fresh Cut Pink Roses with a Free Glass Vase	1	0	1	Expedited	Jennifer Krajeski	2703 SOUTHAMPTON DR APT 102			ROLLING MEADOWS	IL	60008-3340	US			false		
111-4021199-4193024	62561084945338	2020-07-16T20:12:46+00:00	2020-07-16T13:12:46-07:00	2020-07-16T20:35:23+00:00	2020-07-21T06:59:59+00:00	-4	82k22lj7qk81499@marketplace.amazon.com	cassie banks	+1 347-448-3190 ext. 40594	ABR0033	Purchase Now for Delivery by Monday | Arabella Farm Direct Bouquet of 12 Fresh Cut Orange Roses with a Free Glass Vase	1	0	1	Expedited	Stephannie Allen	#3 Gaye Drive			Roswell	NM	88201	US		Stephannie we just want you to know how much you mean to us, thank you for you kindness, patience, and love. Love you, Ardist, Tom, Cassie, Annie, Baylee, Cody, Caleb and Zachary From All of us	false		
111-7706839-9650656	30831524004962	2020-07-16T20:19:54+00:00	2020-07-16T13:19:54-07:00	2020-07-16T20:49:24+00:00	2020-07-21T06:59:59+00:00	-4	dk8b4brhl5t4v14@marketplace.amazon.com	daniel	+1 346-307-9643 ext. 23885	ABR001	Purchase Now for Delivery by Monday | Arabella Bouquets 12 Stems of Fresh Cut Red Roses in a Free Designer Glass Vase	1	0	1	Expedited	daniel kapinski	6100 broad street			south park	pa	15129	US			false		
112-5264515-2405831	56439907164810	2020-07-16T20:37:22+00:00	2020-07-16T13:37:22-07:00	2020-07-16T21:04:27+00:00	2020-07-21T06:59:59+00:00	-4	pw4f5zwsx8431f6@marketplace.amazon.com	Alfie Dwight Miranda Sy	+1 347-448-3190 ext. 14535	ABR0022	Purchase Now for Delivery by Monday | Arabella Farm Direct Bouquet of 12 Fresh Cut Pink Roses with a Free Glass Vase	1	0	1	Expedited	Ashter Eileen Yburan	41 1ST ST 1630 APT C1			BROOKLYN	NY	11231-5033	US		Hi love! Surprise! Happy 54th monthsary! I love you!❤️ From Alfie Dwight Miranda Sy	false		
111-2174512-3298615	40021601523746	2020-07-16T20:32:58+00:00	2020-07-16T13:32:58-07:00	2020-07-16T21:04:35+00:00	2020-07-21T06:59:59+00:00	-4	m9gvg6zqg8dzpy4@marketplace.amazon.com	Frank Porricelli	+1 346-307-9643 ext. 36128	ABM010	Purchase Now for Delivery by Monday | The Spring Fling Bouquet by Arabella Bouquets with a Free Designer Glass Vase	1	0	1	Expedited	Esther Fowler	5537 VIBURNUM CT			POLK CITY	FL	33868-3030	US		Dearest Esther, I hope these flowers bring some sunshine to your day, as thinking of you brings joy to mine.  Love, Frank From Frank Porricelli	false		
113-0834021-0275426	03233928829370	2020-07-16T20:50:22+00:00	2020-07-16T13:50:22-07:00	2020-07-16T21:12:41+00:00	2020-07-21T06:59:59+00:00	-4	8pwl3gts4vjl1zy@marketplace.amazon.com	Jeannine Youngers	+1 314-282-9402 ext. 84613	ABM0033	Purchase Now for Delivery by Monday | Arabella Farm Direct Bouquet of Fresh Cut White Hydrangea with a Free Glass Vase	1	0	1	Expedited	Amanda Wilkes	404 WILLIAMSON CT			LANSDALE	PA	19446-2656	US		Happy 40th birthday! xoxo, Jeannine From Jeannine Dunn	false		
112-3627926-2953807	50239745934562	2020-07-16T21:24:43+00:00	2020-07-16T14:24:43-07:00	2020-07-16T21:54:20+00:00	2020-07-21T06:59:59+00:00	-4	849w5y88vvpqt00@marketplace.amazon.com	Cynthia	+1 347-448-3190 ext. 46055	ABR0055	Purchase Now for Delivery by Monday | Arabella Farm Direct Bouquet of 12 Stems of Fresh Cut Hot Pink Roses in a Free Designer Glass Vase	1	0	1	Expedited	Mary Rose Worthen	107 LARCHWOOD RD			YORKTOWN	VA	23692-4742	US			false		
111-7139102-8751434	54190475097002	2020-07-16T21:46:55+00:00	2020-07-16T14:46:55-07:00	2020-07-16T22:15:07+00:00	2020-07-21T06:59:59+00:00	-4	7vvydwb6d33jwfs@marketplace.amazon.com	Terry Ikey	+1 346-307-9643 ext. 79650	ABR0022	Purchase Now for Delivery by Monday | Arabella Farm Direct Bouquet of 12 Fresh Cut Pink Roses with a Free Glass Vase	1	0	1	Expedited	Liz D	301 BARBERTOWN POINT BREEZE RD			FRENCHTOWN	NJ	08825-3906	US		Happy Birthday Elizabet!  WE LOVE YOU SO SO MUCH! From Baba,Dedo,Mick, Ves, Sonja, John, Terry, and all the Children!	false		
114-1911354-6523435	03531156746162	2020-07-16T22:22:31+00:00	2020-07-16T15:22:31-07:00	2020-07-16T22:47:05+00:00	2020-07-21T06:59:59+00:00	-4	vn523tlm1sh9cr1@marketplace.amazon.com	robert jj de neve	+1 346-307-9643 ext. 05812	ABR0022	Purchase Now for Delivery by Monday | Arabella Farm Direct Bouquet of 12 Fresh Cut Pink Roses with a Free Glass Vase	1	0	1	Expedited	Christine de Neve	160 NE CONIFER BLVD			CORVALLIS	OR	97330-4162	US			false		
114-5255867-2374653	41242728572666	2020-07-16T22:59:50+00:00	2020-07-16T15:59:50-07:00	2020-07-16T23:20:17+00:00	2020-07-21T06:59:59+00:00	-4	dld091d8cjp0wst@marketplace.amazon.com	Jason Graves	+1 347-448-3190 ext. 37769	ABM010	Purchase Now for Delivery by Monday | The Spring Fling Bouquet by Arabella Bouquets with a Free Designer Glass Vase	1	0	1	Expedited	Amanda Holmes	6412 SCOTT RD			PEARLAND	TX	77581-2024	US		I love you so much sweetie From Nikki	false		
111-5338789-3678644	56394235218530	2020-07-16T22:58:04+00:00	2020-07-16T15:58:04-07:00	2020-07-16T23:22:10+00:00	2020-07-21T06:59:59+00:00	-4	d3tklcnsjp4vsw3@marketplace.amazon.com	MARY E. MACK	+1 415-851-9136 ext. 62040	ABM010	Purchase Now for Delivery by Monday | The Spring Fling Bouquet by Arabella Bouquets with a Free Designer Glass Vase	1	0	1	Expedited	Patricia J. Lynch	15 AVENUE DE LA MER APT 2605			PALM COAST	FL	32137-2290	US		Happiest of birthdays  dear best friend. From MARY E. MACK	false		
112-8027213-6342610	29602849412490	2020-07-16T23:45:39+00:00	2020-07-16T16:45:39-07:00	2020-07-17T00:03:06+00:00	2020-07-21T06:59:59+00:00	-4	8d12rztxn27v17m@marketplace.amazon.com	T. Sturdivant	+1 347-448-3190 ext. 75637	ABR0022	Purchase Now for Delivery by Monday | Arabella Farm Direct Bouquet of 12 Fresh Cut Pink Roses with a Free Glass Vase	1	0	1	Expedited	Lance Harrell	76315 Ashland Road			Rosedale	LA	70772	US		Hello Mr. Harrell, May your mother's love and your fond memories of her comfort you during this time and in days to come. Fondly, Ms. S. & Jesse  GW Family From T. Sturdivant	false		
112-9225797-3727452	08045179857754	2020-07-16T23:54:46+00:00	2020-07-16T16:54:46-07:00	2020-07-17T00:16:02+00:00	2020-07-21T06:59:59+00:00	-4	kv6wzyzft251jmr@marketplace.amazon.com	John R. Lusk	+1 314-282-9402 ext. 57780	ABM022	Purple Extravagance Bouquet by Arabella Mixed Bouquets	1	0	1	Expedited	E. Margaret Marquis	420 E WATERSIDE DR UNIT 1801			CHICAGO	IL	60601-8007	US			false		
111-2407058-6581806	27211830891986	2020-07-16T23:53:43+00:00	2020-07-16T16:53:43-07:00	2020-07-17T00:23:38+00:00	2020-07-21T06:59:59+00:00	-4	94qv2rnjn9t6xy2@marketplace.amazon.com	Samuel	+1 346-307-9643 ext. 40239	ABR0055	Purchase Now for Delivery by Monday | Arabella Farm Direct Bouquet of 12 Stems of Fresh Cut Hot Pink Roses in a Free Designer Glass Vase	1	0	1	Expedited	Samuel	3905 W 186TH ST			TORRANCE	CA	90504-5636	US			false		
113-0300214-6527416	32578195029066	2020-07-17T00:08:24+00:00	2020-07-16T17:08:24-07:00	2020-07-17T00:28:11+00:00	2020-07-21T06:59:59+00:00	-4	g3tg4t2bjl2ytwt@marketplace.amazon.com	Maria Wilson	+1 346-307-9643 ext. 43595	ABR013	Purchase Now for Delivery by Monday | Arabella Farm Direct Bouquet of 18 Fresh Cut Yellow Roses with a Free Glass Vase	1	0	1	Expedited	Yalina Couling	26255 VIA ROBLE			MISSION VIEJO	CA	92691-2575	US		“When the dog bites, when the bee stings, when I’m feeling sad, I simply remember my favorite things!”.... So here are some of my favorite things! :) I hope they help. Love you so much! From Maria Wilson	false		
112-5544348-2182660	02856367675914	2020-07-17T00:26:00+00:00	2020-07-16T17:26:00-07:00	2020-07-17T00:39:13+00:00	2020-07-21T06:59:59+00:00	-4	mms01z9g77wb1dh@marketplace.amazon.com	Santi	+1 346-307-9643 ext. 70164	ABR0055	Purchase Now for Delivery by Monday | Arabella Farm Direct Bouquet of 12 Stems of Fresh Cut Hot Pink Roses in a Free Designer Glass Vase	1	0	1	Expedited	Adel Bernal	2916 S GENESEE AVE			LOS ANGELES	CA	90016-3103	US		Sé que te gustará y son hermosos como tú ... ¡Disfruta tu regalo! I love you very much! From Your Mom, isn't it cute?	false		
112-1186671-7598622	03925527550602	2020-07-17T00:34:47+00:00	2020-07-16T17:34:47-07:00	2020-07-17T00:55:45+00:00	2020-07-21T06:59:59+00:00	-4	hgz80qvq2ppc4m1@marketplace.amazon.com	Rita Yakubik	+1 415-851-9136 ext. 39194	ABR0055	Purchase Now for Delivery by Monday | Arabella Farm Direct Bouquet of 12 Stems of Fresh Cut Hot Pink Roses in a Free Designer Glass Vase	1	0	1	Expedited	Bernadette Walter	631 POINTE PACIFIC APT 10			DALY CITY	CA	94014-3488	US		Bernadette, thanks for everything!  Love,  Rita From Rita Yakubik	false		
111-0453856-3207467	31023564492666	2020-07-17T00:41:23+00:00	2020-07-16T17:41:23-07:00	2020-07-17T01:07:04+00:00	2020-07-21T06:59:59+00:00	-4	7t8m9ttk3h9qc2g@marketplace.amazon.com	Andre	+1 346-307-9643 ext. 34559	ABR001	Purchase Now for Delivery by Monday | Arabella Bouquets 12 Stems of Fresh Cut Red Roses in a Free Designer Glass Vase	1	0	1	Expedited	Maria Helena da Rocha	78 HANNAH COLE DR			SAINT AUGUSTINE	FL	32080-5165	US			false		
112-5130808-9693012	31350241578578	2020-07-17T00:38:55+00:00	2020-07-16T17:38:55-07:00	2020-07-17T01:07:54+00:00	2020-07-21T06:59:59+00:00	-4	60hjb71py9yk2w2@marketplace.amazon.com	Aisha Davy	+1 347-448-3190 ext. 66394	ABR0022	Purchase Now for Delivery by Monday | Arabella Farm Direct Bouquet of 12 Fresh Cut Pink Roses with a Free Glass Vase	1	0	1	Expedited	Aisha Davy/Angela Mitchell	201 E 13TH ST			ALTON	IL	62002-7211	US		I wanted to sincerely thank U and Crunch for all u have done and do for me. I appreciate and love u guys like family....and I couldn't be more BLESSED!  Enjoy your gift! From Aisha Davy	false		
112-3876708-5555461	58375552590554	2020-07-17T00:55:30+00:00	2020-07-16T17:55:30-07:00	2020-07-17T01:25:28+00:00	2020-07-21T06:59:59+00:00	-4	hgz80qvq2ppc4m1@marketplace.amazon.com	Rita Yakubik	+1 347-448-3190 ext. 20180	ABR0066	Purchase Now for Delivery by Monday | Arabella Bouquets 12 Stems of Fresh Cut White Roses in a Free Designer Glass Vase	1	0	1	Expedited	Buuchau Dukhovny	671 Pointe Pacific Drive	Apt #3		Daly City	CA	94914	US			false		
114-7596409-9222639	24817144999650	2020-07-17T01:34:49+00:00	2020-07-16T18:34:49-07:00	2020-07-17T02:02:09+00:00	2020-07-21T06:59:59+00:00	-4	lg0yf3ps2tj4tt0@marketplace.amazon.com	Amy Vereb	+1 346-307-9643 ext. 55794	ABR0022	Purchase Now for Delivery by Monday | Arabella Farm Direct Bouquet of 12 Fresh Cut Pink Roses with a Free Glass Vase	1	0	1	Expedited	The Lauders	769 GLEN OAKS DR			FRANKLIN	TN	37067-1394	US		Glad you are home and feeling better! From Love, Amy and Glen	false		
113-7961263-6685028	37335717894762	2020-07-17T01:44:04+00:00	2020-07-16T18:44:04-07:00	2020-07-17T02:13:23+00:00	2020-07-21T06:59:59+00:00	-4	3x9lxmsys5nzm13@marketplace.amazon.com	Tyler Anderson	+1 346-307-9643 ext. 91132	ABR0022	Purchase Now for Delivery by Monday | Arabella Farm Direct Bouquet of 12 Fresh Cut Pink Roses with a Free Glass Vase	1	0	1	Expedited	Tyler Anderson	2801 WESTERN AVE APT 1117			SEATTLE	WA	98121-3500	US			false		
114-7373925-3113827	63116732406538	2020-07-17T01:54:09+00:00	2020-07-16T18:54:09-07:00	2020-07-17T02:18:38+00:00	2020-07-21T06:59:59+00:00	-4	t0h2crx3lyg95fh@marketplace.amazon.com	Destiny Hall	+1 346-307-9643 ext. 36916	ABR001	Purchase Now for Delivery by Monday | Arabella Bouquets 12 Stems of Fresh Cut Red Roses in a Free Designer Glass Vase	1	0	1	Expedited	Lynesha russel	2707 DAWSON AVE			KENNER	LA	70062-5121	US		❤️👑🍫💍💕 From Filippo🇮🇹‼️	false		
113-9737552-0114632	50181919923354	2020-07-17T02:08:06+00:00	2020-07-16T19:08:06-07:00	2020-07-17T02:34:38+00:00	2020-07-21T06:59:59+00:00	-4	x3ng05ytmyk31js@marketplace.amazon.com	mary miller	+1 346-307-9643 ext. 94450	ABR0022	Purchase Now for Delivery by Monday | Arabella Farm Direct Bouquet of 12 Fresh Cut Pink Roses with a Free Glass Vase	1	0	1	Expedited	Christine Crawford	1640 PIERSIDE LN			CAMARILLO	CA	93010-6014	US		May you find peace knowing that your brother and Uncle is in heaven ❤ With deepest  Sympathy, love Mary From Mary Irby	false		
114-8621078-5932221	37969491116938	2020-07-17T02:38:55+00:00	2020-07-16T19:38:55-07:00	2020-07-17T03:05:37+00:00	2020-07-21T06:59:59+00:00	-4	3xj2b1xxgp3x8hp@marketplace.amazon.com	wilfredo m larios	+1 346-307-9643 ext. 75119	ABR001	Purchase Now for Delivery by Monday | Arabella Bouquets 12 Stems of Fresh Cut Red Roses in a Free Designer Glass Vase	1	0	1	Expedited	wilfredo m larios	81 AVENEL BLVD APT 134A			LONG BRANCH	NJ	07740-7766	US			false		
112-9221121-7514615	16613282225026	2020-07-17T02:53:45+00:00	2020-07-16T19:53:45-07:00	2020-07-17T03:18:59+00:00	2020-07-21T06:59:59+00:00	-4	4chkwssb1q76vxx@marketplace.amazon.com	jason dangler	+1 346-307-9643 ext. 43252	ABR0022	Purchase Now for Delivery by Monday | Arabella Farm Direct Bouquet of 12 Fresh Cut Pink Roses with a Free Glass Vase	1	0	1	Expedited	Ashley Stallworth	4326 LAUREL HILL LN			CHARLOTTE	NC	28217-3577	US		Just something to brighten up your day! From Jason Dangler	false		
113-8229613-9289807	49669298426154	2020-07-17T03:07:24+00:00	2020-07-16T20:07:24-07:00	2020-07-17T03:32:36+00:00	2020-07-21T06:59:59+00:00	-4	n7k4c0dx08b2k44@marketplace.amazon.com	Michael Ferry	+1 347-448-3190 ext. 03651	ABM006	Purchase Now for Delivery by Monday | Arabella Bouquets Fresh Cut Yellow Lillies in a Free Designer Glass Vase	1	0	1	Expedited	Michael Ferry	1237 HANS PARK TRL			SOLVANG	CA	93463-2998	US		Love to You From Michael	false		
112-7620827-2179413	31472341339762	2020-07-17T03:27:06+00:00	2020-07-16T20:27:06-07:00	2020-07-17T03:54:29+00:00	2020-07-21T06:59:59+00:00	-4	512zrhbtpd6gnc8@marketplace.amazon.com	Curt Lulias	+1 347-448-3190 ext. 79694	ABR0022	Purchase Now for Delivery by Monday | Arabella Farm Direct Bouquet of 12 Fresh Cut Pink Roses with a Free Glass Vase	1	0	1	Expedited	Helen Lulias	2251 Greenwood Rd.			GLENVIEW	IL	60026-1150	US		Dear Mrs. Lulias, I was sorry to hear that your brother passed.  I know how important he was to you and your family. With sympathy, Mark From Mark Hradek	false		
111-9582986-3592225	41077728682018	2020-07-17T03:58:21+00:00	2020-07-16T20:58:21-07:00	2020-07-17T04:31:27+00:00	2020-07-21T06:59:59+00:00	-4	cwv77l9hvyydt82@marketplace.amazon.com	Marcus L. Puccini	+1 346-307-9643 ext. 45336	ABR013	Purchase Now for Delivery by Monday | Arabella Farm Direct Bouquet of 18 Fresh Cut Yellow Roses with a Free Glass Vase	1	0	1	Expedited	Toni L. Puccini	5904 COUNTY ROAD 2516			ROYSE CITY	TX	75189-3230	US			false		
114-6561262-7501002	47176565228266	2020-07-17T04:44:28+00:00	2020-07-16T21:44:28-07:00	2020-07-17T05:14:59+00:00	2020-07-21T06:59:59+00:00	-4	1x9f0t8d8cfm12j@marketplace.amazon.com	Jeromie	+1 346-307-9643 ext. 69425	ABR0022	Purchase Now for Delivery by Monday | Arabella Farm Direct Bouquet of 12 Fresh Cut Pink Roses with a Free Glass Vase	1	0	1	Expedited	Jeromie	5450 SOMERSET DR APT 303			THE COLONY	TX	75056-4891	US			false		
114-6156862-2551431	40089200533930	2020-07-17T04:56:14+00:00	2020-07-16T21:56:14-07:00	2020-07-17T05:23:33+00:00	2020-07-21T06:59:59+00:00	-4	hz53bsm0cbww7xh@marketplace.amazon.com	Candy Ammirato	+1 346-307-9643 ext. 95732	ABM010	Purchase Now for Delivery by Monday | The Spring Fling Bouquet by Arabella Bouquets with a Free Designer Glass Vase	1	0	1	Expedited	MARY THOMPSON	117 SIMSBURY RD UNIT 219			AVON	CT	06001-4269	US		Flowers always make me smile, hope you have the same feelings   Love Candy From Candy Ammirato	false		
113-4275957-5340238	40490551494442	2020-07-17T05:31:35+00:00	2020-07-16T22:31:35-07:00	2020-07-17T06:01:28+00:00	2020-07-21T06:59:59+00:00	-4	cptqz5zz6wlmfdj@marketplace.amazon.com	Tamia Potter	+1 415-851-9136 ext. 13520	ABR0022	Purchase Now for Delivery by Monday | Arabella Farm Direct Bouquet of 12 Fresh Cut Pink Roses with a Free Glass Vase	1	0	1	Expedited	Monique Potter	39 STARLING TRCE			CRAWFORDVILLE	FL	32327-6212	US			false		
114-0820040-1487432	01465072508378	2020-07-17T06:40:08+00:00	2020-07-16T23:40:08-07:00	2020-07-17T07:08:07+00:00	2020-07-21T06:59:59+00:00	-4	6yj3dbwlc5940s7@marketplace.amazon.com	Michelle Othus	+1 346-307-9643 ext. 31759	ABM010	Purchase Now for Delivery by Monday | The Spring Fling Bouquet by Arabella Bouquets with a Free Designer Glass Vase	1	0	1	Expedited	Valerie Othus	23410 59TH PL S			KENT	WA	98032-6404	US		May this brighten your day! From Kayleigh	false		
111-8609420-5090639	69116750436810	2020-07-17T08:05:59+00:00	2020-07-17T01:05:59-07:00	2020-07-17T08:35:54+00:00	2020-07-22T06:59:59+00:00	-5	djzfs1xhtkrvtk6@marketplace.amazon.com	Ken Collins	+1 210-728-4548 ext. 00823	ABR0022	Purchase Now for Delivery by Monday | Arabella Farm Direct Bouquet of 12 Fresh Cut Pink Roses with a Free Glass Vase	1	0	1	Expedited	Karen Luke	4501 PINE ST			BELLAIRE	TX	77401-5503	US			false		
112-8343905-5939414	40267637067698	2020-07-17T09:12:01+00:00	2020-07-17T02:12:01-07:00	2020-07-17T09:37:29+00:00	2020-07-22T06:59:59+00:00	-5	5g25g4jx0khcttr@marketplace.amazon.com	KeeKee	+1 347-448-3190 ext. 37607	ABR0055	Purchase Now for Delivery by Monday | Arabella Farm Direct Bouquet of 12 Stems of Fresh Cut Hot Pink Roses in a Free Designer Glass Vase	1	0	1	Expedited	Lisa Allen	1325 5TH AVE APT 4H			NEW YORK	NY	10029-2644	US		May these flowers fill your home with a sweet fragrance of love. Your dedication to God produces the same sweet smell. Blessings ❤🙏 From Lekesha	false		
113-1302190-3705012	17455713686834	2020-07-17T09:33:21+00:00	2020-07-17T02:33:21-07:00	2020-07-17T10:03:02+00:00	2020-07-22T06:59:59+00:00	-5	f62pmzhrlvd4jmd@marketplace.amazon.com	Trevor Johnson	+1 415-851-9136 ext. 79810	ABR0022	Purchase Now for Delivery by Monday | Arabella Farm Direct Bouquet of 12 Fresh Cut Pink Roses with a Free Glass Vase	1	0	1	Expedited	Julie	9135 HYLAND CREEK RD			BLOOMINGTON	MN	55437-1949	US		Happy birthday Julie! I hope you have a wonderful birthday! (I have a larger message, but I couldn't put it all on this card) From Trevor	false		
114-3884873-3217847	16184556945938	2020-07-17T11:50:40+00:00	2020-07-17T04:50:40-07:00	2020-07-17T12:21:00+00:00	2020-07-22T06:59:59+00:00	-5	8mm0ngms13xmv9h@marketplace.amazon.com	Lynn	+1 314-282-9402 ext. 08011	ABR0022	Purchase Now for Delivery by Monday | Arabella Farm Direct Bouquet of 12 Fresh Cut Pink Roses with a Free Glass Vase	1	0	1	Expedited	Kristen Annunziato	57 BERKELEY ST # 2			SOMERVILLE	MA	02143-1615	US			false		
114-1025307-8759412	21885655284682	2020-07-17T12:09:09+00:00	2020-07-17T05:09:09-07:00	2020-07-17T12:38:13+00:00	2020-07-22T06:59:59+00:00	-5	g00qfmdxwhvkr1p@marketplace.amazon.com	Bobbie McMillan	+1 346-307-9643 ext. 94737	ABM010	Purchase Now for Delivery by Monday | The Spring Fling Bouquet by Arabella Bouquets with a Free Designer Glass Vase	1	0	1	Expedited	Debbie Simpson	11935 S HIDDEN VALLEY CLUB DR			SANDY	UT	84092-5827	US		Love you my friend! From Bobbie McMillan	false		
111-4474370-3364246	17506111964498	2020-07-17T12:27:57+00:00	2020-07-17T05:27:57-07:00	2020-07-17T12:56:12+00:00	2020-07-22T06:59:59+00:00	-5	q0vkfcbzlkl3t7v@marketplace.amazon.com	Suzanne R. Bitter	+1 314-282-9402 ext. 24783	ABR004	Arabella Farm Direct Bouquet of 12 Fresh Cut Yellow Roses with a Free Glass Vase	1	0	1	Expedited	Pat Atkinson	110 WAGNER LN			EDWARDSVILLE	IL	62025-4234	US		To the best mom in the whole world.  Something to brighten your day.  Love you more than you can imagine.  Happy birthday to you.  Love Miss Mouse From Suzanne R. Bitter	false		
113-1264965-8827401	18721432024250	2020-07-17T12:41:31+00:00	2020-07-17T05:41:31-07:00	2020-07-17T13:03:04+00:00	2020-07-22T06:59:59+00:00	-5	x41xnvzb9yv7ljq@marketplace.amazon.com	Jinnie Sarmiento	+1 347-448-3190 ext. 28504	ABR0022	Purchase Now for Delivery by Monday | Arabella Farm Direct Bouquet of 12 Fresh Cut Pink Roses with a Free Glass Vase	1	0	1	Expedited	Bianca Elisse Santos	33575 BAY HILL DR			ROMULUS	MI	48174-6423	US		Happy Birthday, Khuu!  Enjoy your very special day! Sa susunod na birthday mo mag kasama na tayo. Ingat and smile ka palagi. God Bless!  I LOVE YOU and I MISS YOU SO MUCH!! From Zeyloh Sarmiento	false		
111-9404808-1996243	26031684417810	2020-07-17T12:40:09+00:00	2020-07-17T05:40:09-07:00	2020-07-17T13:08:58+00:00	2020-07-22T06:59:59+00:00	-5	pm4sgk0pdmsnzpl@marketplace.amazon.com	Jennifer	+1 314-282-9402 ext. 60118	ABR0022	Purchase Now for Delivery by Monday | Arabella Farm Direct Bouquet of 12 Fresh Cut Pink Roses with a Free Glass Vase	1	0	1	Expedited	Heather Hailer	230 KATHRON AVE			CUYAHOGA FALLS	OH	44221-1828	US		Congrats on sweet baby Hayley!! We love her so much already and cant wait to meet her!! From Jen, Greg, Maddie & Austin	false		
114-6796689-6995446	41820799476690	2020-07-17T12:53:21+00:00	2020-07-17T05:53:21-07:00	2020-07-17T13:22:16+00:00	2020-07-22T06:59:59+00:00	-5	1ft69gymm24n3nj@marketplace.amazon.com	David L Garner	+1 346-307-9643 ext. 66827	ABR001	Purchase Now for Delivery by Monday | Arabella Bouquets 12 Stems of Fresh Cut Red Roses in a Free Designer Glass Vase	1	0	1	Standard	David L Garner	10731 CROOKED RIVER RD APT 101			ESTERO	FL	34135-1723	US			false		
112-4036804-0413806	37961582723034	2020-07-17T13:35:19+00:00	2020-07-17T06:35:19-07:00	2020-07-17T14:03:42+00:00	2020-07-22T06:59:59+00:00	-5	8c4zv444k7kyjm3@marketplace.amazon.com	tillie fernandez	+1 347-448-3190 ext. 00501	ABR001	Purchase Now for Delivery by Monday | Arabella Bouquets 12 Stems of Fresh Cut Red Roses in a Free Designer Glass Vase	1	0	1	Expedited	Matilde Fernandez	800 LUXOR LN 2-400			NORRISTOWN	PA	19401-5184	US			false		
114-8740014-2630604	65399357100434	2020-07-17T14:01:00+00:00	2020-07-17T07:01:00-07:00	2020-07-17T14:31:26+00:00	2020-07-22T06:59:59+00:00	-5	pbmwvgfmylgx00m@marketplace.amazon.com	Ronald F. Cota	+1 314-282-9402 ext. 75231	ABR001	Purchase Now for Delivery by Monday | Arabella Bouquets 12 Stems of Fresh Cut Red Roses in a Free Designer Glass Vase	1	0	1	Expedited	Ronald F. Cota	8400 VAMO RD APT 461			SARASOTA	FL	34231-7872	US			false		
114-2713171-5379427	60831758525802	2020-07-17T14:47:32+00:00	2020-07-17T07:47:32-07:00	2020-07-17T14:48:31+00:00	2020-07-22T06:59:59+00:00	-5	2lwkzqyjqy0rfft@marketplace.amazon.com	Caryn DiMari	+1 210-728-4548 ext. 82940	ABR0055	Purchase Now for Delivery by Monday | Arabella Farm Direct Bouquet of 12 Stems of Fresh Cut Hot Pink Roses in a Free Designer Glass Vase	1	0	1	Expedited	Marietta Falconierri	2058 COLEMAN ST			BROOKLYN	NY	11234-5012	US		A little something to brighten your day!   You always brighten my day! Love ya From Caryn DiMari	false		
114-7409292-6433834	42734436961386	2020-07-17T14:34:07+00:00	2020-07-17T07:34:07-07:00	2020-07-17T15:03:35+00:00	2020-07-22T06:59:59+00:00	-5	frv47gwmggj2gr9@marketplace.amazon.com	beth blik	+1 346-307-9643 ext. 30230	ABR0022	Purchase Now for Delivery by Monday | Arabella Farm Direct Bouquet of 12 Fresh Cut Pink Roses with a Free Glass Vase	1	0	1	Expedited	Jonathan Widdicombe	604 DEL ORO ST			WOODLAND	CA	95695-5041	US		Dearest Jonathan thinking of you  Enjoy the roses Love Beth x From beth blik	false		
111-8363448-2377063	34520792443706	2020-07-17T15:14:09+00:00	2020-07-17T08:14:09-07:00	2020-07-17T15:43:04+00:00	2020-07-22T06:59:59+00:00	-5	hqqqkgpf07xndj2@marketplace.amazon.com	elen	+1 346-307-9643 ext. 52568	ABR0022	Purchase Now for Delivery by Monday | Arabella Farm Direct Bouquet of 12 Fresh Cut Pink Roses with a Free Glass Vase	1	0	1	Expedited	Olga Arynina	1110 N KENILWORTH ST APT 9			ARLINGTON	VA	22205-3546	US		From elen	false		
