order-id	order-item-id	purchase-date	payments-date	reporting-date	promise-date	days-past-promise	buyer-email	buyer-name	buyer-phone-number	sku	product-name	quantity-purchased	quantity-shipped	quantity-to-ship	ship-service-level	recipient-name	ship-address-1	ship-address-2	ship-address-3	ship-city	ship-state	ship-postal-code	ship-country	gift-wrap-type	gift-message-text	is-business-order	purchase-order-number	price-designation
113-0394725-3496234	55664079710634	2020-07-17T17:10:38+00:00	2020-07-17T10:10:38-07:00	2020-07-17T17:41:18+00:00	2020-07-22T06:59:59+00:00	-4	m1cwby6tdn8hn5r@marketplace.amazon.com	Eli Joseph	+1 415-851-9136 ext. 82095	ABB001	Arabella Farm Direct Fresh Cut White Hydrangea	1	0	1	Expedited	Eli Joseph	4547 LOWELL ST NW			WASHINGTON	DC	20016-2750	US			false		
111-1116938-2910602	51610235153626	2020-07-17T18:05:33+00:00	2020-07-17T11:05:33-07:00	2020-07-17T18:31:50+00:00	2020-07-22T06:59:59+00:00	-4	s4vv5yn5gbdy8l5@marketplace.amazon.com	Anthony Ashe	+1 346-307-9643 ext. 06946	ABR0022	Purchase Now for Delivery by Tuesday | Arabella Farm Direct Bouquet of 12 Fresh Cut Pink Roses with a Free Glass Vase	1	0	1	Expedited	Monet Farr Cole	478 ASHBURTON AVE SE			ATLANTA	GA	30317-3441	US		Happy Birthday! I love you! From Anthony Ashe	false		
114-2271788-6305057	39779905239842	2020-07-17T18:14:56+00:00	2020-07-17T11:14:56-07:00	2020-07-17T18:38:49+00:00	2020-07-22T06:59:59+00:00	-4	kx721jm82v9nkn6@marketplace.amazon.com	Victoria Wells	+1 346-307-9643 ext. 07073	ABM010	The Spring Fling Bouquet by Arabella Bouquets with a Free Designer Glass Vase	1	0	1	Expedited	Patricia Ann Peddicord	1201 MUNSON AVE			COLLEGE STATION	TX	77840-2522	US		Stay pampered for as long as you can get away with it!! Treat yourself like a queen! We're all thinking of you and hoping for a smooth recuperation.   Love and hugs from Tory and all the gang in North Carolina	false		
113-2532853-5417801	27103964617834	2020-07-17T18:51:16+00:00	2020-07-17T11:51:16-07:00	2020-07-17T19:15:19+00:00	2020-07-22T06:59:59+00:00	-4	cf7f2kxzg8tzntd@marketplace.amazon.com	Valerie Piechocki	+1 346-307-9643 ext. 38624	ABR0022	Purchase Now for Delivery by Tuesday | Arabella Farm Direct Bouquet of 12 Fresh Cut Pink Roses with a Free Glass Vase	1	0	1	Expedited	Debra Colley	19 EMS B5A LN			LEESBURG	IN	46538-8977	US		Hi Debra, Get Well Soon! From  The Piechocki Family	false		
113-4072769-3566623	53107785093250	2020-07-17T19:01:30+00:00	2020-07-17T12:01:30-07:00	2020-07-17T19:19:06+00:00	2020-07-22T06:59:59+00:00	-4	d1mv54l3g1chjr1@marketplace.amazon.com	linda malloy	+1 346-307-9643 ext. 25278	ABM0044	Purchase Now for Delivery by Tuesday | Arabella Farm Direct Bouquet of Fresh Cut Blue Hydrangea with a Free Glass Vase	1	0	1	Expedited	Ann Casey	415 JENNIFER DR APT			DRESHER	PA	19025-1058	US		Hope this brighten’s your day😍luv Linda &John From linda malloy	false		
111-6086901-7825039	17563250853458	2020-07-17T19:22:56+00:00	2020-07-17T12:22:56-07:00	2020-07-17T19:43:29+00:00	2020-07-22T06:59:59+00:00	-4	zxg6bmtr23g7x4h@marketplace.amazon.com	Yteshia Flippin	+1 415-851-9136 ext. 75216	ABM002	Arabella Bouquets Fresh Cut White Calla Lilies in a Free Designer Glass Vase	1	0	1	Expedited	Rakiya France	86 W 5TH ST			DEER PARK	NY	11729-4105	US		Happy Belated Birthday Sissy! I love you! From Yteshia Grant	false		
112-7511417-3613849	48196336425114	2020-07-17T19:21:05+00:00	2020-07-17T12:21:05-07:00	2020-07-17T19:49:45+00:00	2020-07-22T06:59:59+00:00	-4	d617gvfdqjw7tf7@marketplace.amazon.com	Doug Marshall	+1 346-307-9643 ext. 29541	ABR0022	Purchase Now for Delivery by Tuesday | Arabella Farm Direct Bouquet of 12 Fresh Cut Pink Roses with a Free Glass Vase	1	0	1	Expedited	Sarah Blake	2317 ONONDAGA AVE			PLACENTIA	CA	92870-1627	US		From my heart to you ❤️ From Doug Marshall	false		
111-1095707-9361812	66187673074378	2020-07-17T19:26:57+00:00	2020-07-17T12:26:57-07:00	2020-07-17T19:57:37+00:00	2020-07-22T06:59:59+00:00	-4	rl631v2qn3t9s0q@marketplace.amazon.com	Seth Kalinsky	+1 346-307-9643 ext. 31326	ABR0055	Purchase Now for Delivery by Tuesday | Arabella Farm Direct Bouquet of 12 Stems of Fresh Cut Hot Pink Roses in a Free Designer Glass Vase	1	0	1	Expedited	Seth Kalinsky	27674 PADDOCK TRAIL PL			CHANTILLY	VA	20152-6394	US			false		
111-2481375-2426652	64630698481930	2020-07-17T19:48:20+00:00	2020-07-17T12:48:20-07:00	2020-07-17T20:17:21+00:00	2020-07-22T06:59:59+00:00	-4	lypgk9mvjpvn2kb@marketplace.amazon.com	RJ Williams	+1 346-307-9643 ext. 91352	ABR0055	Purchase Now for Delivery by Tuesday | Arabella Farm Direct Bouquet of 12 Stems of Fresh Cut Hot Pink Roses in a Free Designer Glass Vase	1	0	1	Expedited	Amara Walker-Williams	1250 SADLER DR  412			SAN MARCOS	TX	78666-7597	US		Love you, Amara! Wish I could be here instead of these roses but I hope it at least brightens your day! From Auntie	false		
112-8718645-6413048	14869238957850	2020-07-17T20:27:02+00:00	2020-07-17T13:27:02-07:00	2020-07-17T20:48:41+00:00	2020-07-22T06:59:59+00:00	-4	q9y446zlg7c2xzw@marketplace.amazon.com	patricia chase	+1 347-448-3190 ext. 98401	ABR0022	Purchase Now for Delivery by Tuesday | Arabella Farm Direct Bouquet of 12 Fresh Cut Pink Roses with a Free Glass Vase	1	0	1	Expedited	Nicole Martinez	4619 CREEK POINT LN			MISSOURI CITY	TX	77459-6714	US			false		
111-0673005-1447429	07498709059354	2020-07-17T20:21:04+00:00	2020-07-17T13:21:04-07:00	2020-07-17T20:50:10+00:00	2020-07-22T06:59:59+00:00	-4	mngsd3nfvgzk8w8@marketplace.amazon.com	Glenn Best	+1 415-851-9136 ext. 15803	ABR001	Purchase Now for Delivery by Tuesday | Arabella Bouquets 12 Stems of Fresh Cut Red Roses in a Free Designer Glass Vase	1	0	1	Expedited	Veronica Barley	106 BERNARD ST			CARTERET	NJ	07008-1305	US		Happy Anniversary Babe! From Glenn	false		
112-4496726-0485856	38841557136514	2020-07-17T20:38:16+00:00	2020-07-17T13:38:16-07:00	2020-07-17T21:05:17+00:00	2020-07-22T06:59:59+00:00	-4	dczkp3s119t4h1m@marketplace.amazon.com	Bruce Kenselaar	+1 346-307-9643 ext. 13047	ABR0022	Purchase Now for Delivery by Tuesday | Arabella Farm Direct Bouquet of 12 Fresh Cut Pink Roses with a Free Glass Vase	1	0	1	Expedited	Pat Bednash	17702 LAKESPRING AVE			PALMDALE	CA	93591-3301	US			false		
113-0125263-4062662	31176406434282	2020-07-17T20:56:20+00:00	2020-07-17T13:56:20-07:00	2020-07-17T21:21:36+00:00	2020-07-22T06:59:59+00:00	-4	t76vf43p5d86ss5@marketplace.amazon.com	Robin	+1 314-282-9402 ext. 89296	ABR0022	Purchase Now for Delivery by Tuesday | Arabella Farm Direct Bouquet of 12 Fresh Cut Pink Roses with a Free Glass Vase	1	0	1	Expedited	Sue McDonald	1355 MCCANDLESS DR APT 211			MILPITAS	CA	95035-8154	US		Best wishes for brighter days ahead. Thinking of you...... From Robin	false		
112-7086736-1526629	28883166517482	2020-07-17T20:59:17+00:00	2020-07-17T13:59:17-07:00	2020-07-17T21:24:52+00:00	2020-07-22T06:59:59+00:00	-4	drlq2h7phhs6rrh@marketplace.amazon.com	Barbara	+1 346-307-9643 ext. 86963	ABR0022	Purchase Now for Delivery by Tuesday | Arabella Farm Direct Bouquet of 12 Fresh Cut Pink Roses with a Free Glass Vase	1	0	1	Expedited	Sylvia Blackman	3404 MANORDALE CT			FOREST HILL	TX	76140-1216	US		Aunt Sylvia, Happy Birthday.  Love Barbara From Barbara	false		
114-6812714-6727416	13732568584866	2020-07-17T21:35:10+00:00	2020-07-17T14:35:10-07:00	2020-07-17T22:05:27+00:00	2020-07-22T06:59:59+00:00	-4	ybyngczzl1667gf@marketplace.amazon.com	Malayna Gardner	+1 346-307-9643 ext. 38716	ABM010	Purchase Now for Delivery by Tuesday | The Spring Fling Bouquet by Arabella Bouquets with a Free Designer Glass Vase	1	0	1	Expedited	JoAnn Miller	3407 POLARIS DR			AMES	IA	50010-5474	US			false		
113-8192206-2317809	53689778879514	2020-07-17T22:00:52+00:00	2020-07-17T15:00:52-07:00	2020-07-17T22:29:59+00:00	2020-07-22T06:59:59+00:00	-4	nfj6grg0jyt91wl@marketplace.amazon.com	Bernard Frazier	+1 346-307-9643 ext. 53758	ABR0022	Purchase Now for Delivery by Tuesday | Arabella Farm Direct Bouquet of 12 Fresh Cut Pink Roses with a Free Glass Vase	1	0	1	Expedited	Quintoria Taylor	412 S LAUREL ST			AMITE	LA	70422-3130	US			false		
114-3802917-4132240	63659683132906	2020-07-17T22:22:25+00:00	2020-07-17T15:22:25-07:00	2020-07-17T22:52:29+00:00	2020-07-22T06:59:59+00:00	-4	tkj30ccg2r0ks89@marketplace.amazon.com	Katherine Bruner	+1 346-307-9643 ext. 44939	ABR0022	Purchase Now for Delivery by Tuesday | Arabella Farm Direct Bouquet of 12 Fresh Cut Pink Roses with a Free Glass Vase	1	0	1	Expedited	Kimberly Silvernale	654 S WashingtonSt.			Denver	CO	80209	US			false		
111-0969781-9043466	09206200433458	2020-07-18T00:01:35+00:00	2020-07-17T17:01:35-07:00	2020-07-18T00:30:42+00:00	2020-07-22T06:59:59+00:00	-4	q3816yzdw8ndj67@marketplace.amazon.com	Tra	+1 346-307-9643 ext. 47502	ABR001	Purchase Now for Delivery by Tuesday | Arabella Bouquets 12 Stems of Fresh Cut Red Roses in a Free Designer Glass Vase	1	0	1	Expedited	Tra	6303 PAR FOUR WAY 6303			LITHONIA	GA	30038-1848	US		Enjoy your gift! From Tra	false		
112-0515939-4778600	60640492133170	2020-07-18T00:14:29+00:00	2020-07-17T17:14:29-07:00	2020-07-18T00:40:57+00:00	2020-07-22T06:59:59+00:00	-4	wk8cq101ddrh7z6@marketplace.amazon.com	Dr George	+1 347-448-3190 ext. 23440	ABR0022	Purchase Now for Delivery by Tuesday | Arabella Farm Direct Bouquet of 12 Fresh Cut Pink Roses with a Free Glass Vase	1	0	1	Expedited	Dr George	1547 MOUNT CARMEL CHURCH RD			LEXINGTON	NC	27295-7549	US			false		
112-1252787-2944241	01297412636234	2020-07-18T01:00:40+00:00	2020-07-17T18:00:40-07:00	2020-07-18T01:30:31+00:00	2020-07-22T06:59:59+00:00	-4	hcl3g0j9twkwln2@marketplace.amazon.com	helen	+1 314-282-9402 ext. 37642	ABM010	Purchase Now for Delivery by Tuesday | The Spring Fling Bouquet by Arabella Bouquets with a Free Designer Glass Vase	1	0	1	Expedited	Puri Bonachia	5672 Independence Cl			Alexandria	Virginia	22302	US		Te quiero 💕 From Elena	false		
111-2246612-8601062	16560074663474	2020-07-18T01:13:25+00:00	2020-07-17T18:13:25-07:00	2020-07-18T01:42:43+00:00	2020-07-22T06:59:59+00:00	-4	7v868r75zr05lnk@marketplace.amazon.com	Nicole	+1 346-307-9643 ext. 04391	ABM010	Purchase Now for Delivery by Tuesday | The Spring Fling Bouquet by Arabella Bouquets with a Free Designer Glass Vase	1	0	1	Expedited	Michael Pipp	S84W30277 HICKORY LN			MUKWONAGO	WI	53149-8813	US		Hope you are feeling better!!  We love you! From Nicole and Jerry	false		
111-9825202-5198619	46237053099130	2020-07-18T01:15:29+00:00	2020-07-17T18:15:29-07:00	2020-07-18T01:46:01+00:00	2020-07-22T06:59:59+00:00	-4	7v868r75zr05lnk@marketplace.amazon.com	Nicole	+1 346-307-9643 ext. 96557	ABM010	Purchase Now for Delivery by Tuesday | The Spring Fling Bouquet by Arabella Bouquets with a Free Designer Glass Vase	1	0	1	Expedited	Nicole Hensley	2 VALE ST			SPARTANBURG	SC	29301-5542	US			false		
113-3099732-4081808	60008687900042	2020-07-18T01:42:19+00:00	2020-07-17T18:42:19-07:00	2020-07-18T02:10:23+00:00	2020-07-22T06:59:59+00:00	-4	68cq7g3bnf6bcr6@marketplace.amazon.com	Suzanne M. Medeiros	+1 314-282-9402 ext. 21593	ABR0022	Purchase Now for Delivery by Tuesday | Arabella Farm Direct Bouquet of 12 Fresh Cut Pink Roses with a Free Glass Vase	1	0	1	Expedited	Denise Weisman	215 FLORITA ST			ENCINITAS	CA	92024-3229	US		Denise- Thinking about you and your sweet mama. Hope you had a peaceful day and gain strength from knowing how she was so proud to call you her daughter💜We love you! From Suz	false		
112-0260706-2469031	66633143051538	2020-07-18T02:05:56+00:00	2020-07-17T19:05:56-07:00	2020-07-18T02:35:02+00:00	2020-07-22T06:59:59+00:00	-4	3vpvpv2hxgg2f3q@marketplace.amazon.com	Rebecca McEntee	+1 346-307-9643 ext. 30331	ABR0055	Purchase Now for Delivery by Tuesday | Arabella Farm Direct Bouquet of 12 Stems of Fresh Cut Hot Pink Roses in a Free Designer Glass Vase	1	0	1	Expedited	Libby Blackstead	613 MOHAWK DR			TIOGA	TX	76271-2575	US		Happy Birthday Libby!  Love, Becky From Becky	false		
114-4769195-8059430	41983938699090	2020-07-18T02:49:44+00:00	2020-07-17T19:49:44-07:00	2020-07-18T02:57:40+00:00	2020-07-22T06:59:59+00:00	-4	lv6mr51hypmx5wf@marketplace.amazon.com	Pu Chen	+1 210-728-4548 ext. 23282	ABM002	Arabella Bouquets Fresh Cut White Calla Lilies in a Free Designer Glass Vase	1	0	1	Expedited	Karen Davis	2750 E OVERLOOK RD			CLEVELAND HEIGHTS	OH	44106-2844	US		We are going to miss Larry. We hope you feel surrounded by much love.  From Yishan, Pu and Max	false		
113-3216626-2087425	22212267917946	2020-07-18T03:05:38+00:00	2020-07-17T20:05:38-07:00	2020-07-18T03:32:13+00:00	2020-07-22T06:59:59+00:00	-4	mw2ws15r5ckvpc4@marketplace.amazon.com	trey	+1 346-307-9643 ext. 28535	ABR001	Purchase Now for Delivery by Tuesday | Arabella Bouquets 12 Stems of Fresh Cut Red Roses in a Free Designer Glass Vase	1	0	1	Expedited	Trey Hancock	2397 GLENLAND RD			HURT	VA	24563-3368	US			false		
112-5131306-3941006	55838432017114	2020-07-18T03:14:54+00:00	2020-07-17T20:14:54-07:00	2020-07-18T03:45:35+00:00	2020-07-22T06:59:59+00:00	-4	m54s5vt72qj2cs9@marketplace.amazon.com	Hope Carpenter	+1 346-307-9643 ext. 60561	ABR0022	Purchase Now for Delivery by Tuesday | Arabella Farm Direct Bouquet of 12 Fresh Cut Pink Roses with a Free Glass Vase	1	0	1	Expedited	Marie Hughes	6 PINE BROOK LN			WHITING	NJ	08759-3134	US			false		
114-4892912-3641039	56396680812570	2020-07-18T03:19:53+00:00	2020-07-17T20:19:53-07:00	2020-07-18T03:47:01+00:00	2020-07-22T06:59:59+00:00	-4	0552k0w3gwgjhmc@marketplace.amazon.com	jesica blanton	+1 346-307-9643 ext. 87527	ABR0022	Purchase Now for Delivery by Tuesday | Arabella Farm Direct Bouquet of 12 Fresh Cut Pink Roses with a Free Glass Vase	1	0	1	Expedited	Gibby	4237 CENTURY LN			CINCINNATI	OH	45205-2016	US		Dear Gibby,  I hope these brighten your days and you know how much I love and miss you! From Jesi	false		
114-2987585-2228247	66786327217642	2020-07-18T03:42:15+00:00	2020-07-17T20:42:15-07:00	2020-07-18T04:10:42+00:00	2020-07-22T06:59:59+00:00	-4	xgcny05n4y1b2p3@marketplace.amazon.com	Lucas Massey	+1 346-307-9643 ext. 73106	ABR0055	Purchase Now for Delivery by Tuesday | Arabella Farm Direct Bouquet of 12 Stems of Fresh Cut Hot Pink Roses in a Free Designer Glass Vase	1	0	1	Expedited	Sherrie Hughes	16 ALPINE VILLAGE DR			ALPINE	CA	91901-2130	US		Happy Birthday Beautiful Lady! Miss you and our PF Chang dinners!! From Amy Massey	false		
113-5272306-9470625	63286840875114	2020-07-18T03:44:45+00:00	2020-07-17T20:44:45-07:00	2020-07-18T04:12:46+00:00	2020-07-22T06:59:59+00:00	-4	cppwwk3dnypl831@marketplace.amazon.com	David	+1 346-307-9643 ext. 08658	ABR0022	Purchase Now for Delivery by Tuesday | Arabella Farm Direct Bouquet of 12 Fresh Cut Pink Roses with a Free Glass Vase	1	0	1	Expedited	David Pope	6515 PLATO PL			HUGHESVILLE	MD	20637-2155	US		Dearest Ms. Lo & George, Just know he is safe in the arms of the LORD. Love From David & Raedelle Pope	false		
113-8481504-9661038	54009024962418	2020-07-18T04:54:36+00:00	2020-07-17T21:54:36-07:00	2020-07-18T05:23:14+00:00	2020-07-22T06:59:59+00:00	-4	vt13wlmgvv2kd53@marketplace.amazon.com	J G	+1 415-851-9136 ext. 73804	ABR0022	Purchase Now for Delivery by Tuesday | Arabella Farm Direct Bouquet of 12 Fresh Cut Pink Roses with a Free Glass Vase	1	0	1	Expedited	Nina Adams	140 STONEWALL AVE W			FAYETTEVILLE	GA	30214-1520	US		Nina,  THANK YOU AGAIN for all of your assistance!!  I hope these flowers brighten your day! From JGJ	false		
112-0888721-5061036	18814686939474	2020-07-18T05:44:34+00:00	2020-07-17T22:44:34-07:00	2020-07-18T06:06:30+00:00	2020-07-22T06:59:59+00:00	-4	bwz8n1brz39j9zj@marketplace.amazon.com	sam bertrand	+1 210-728-4548 ext. 82014	ABR0022	Purchase Now for Delivery by Tuesday | Arabella Farm Direct Bouquet of 12 Fresh Cut Pink Roses with a Free Glass Vase	1	0	1	Expedited	Timothy Wear	681 BLACKBURN AVE			FAIRFIELD	OH	45014-1601	US		So happy you're home! Love Becca, Sam and Maggie xoxo	false		
112-7724561-3583407	04183945557234	2020-07-18T05:43:55+00:00	2020-07-17T22:43:55-07:00	2020-07-18T06:08:06+00:00	2020-07-22T06:59:59+00:00	-4	sqyqds0hcgn0k7z@marketplace.amazon.com	Tyrelle	+1 346-307-9643 ext. 96081	ABR0022	Purchase Now for Delivery by Tuesday | Arabella Farm Direct Bouquet of 12 Fresh Cut Pink Roses with a Free Glass Vase	1	0	1	Standard	Reina Compton	220 W 52ND ST	LOS ANGELES CA 90037 UNITED STATES		LOS ANGELES	CA	90037-3821	US			false		
112-5918300-1299426	62804225753106	2020-07-18T06:00:09+00:00	2020-07-17T23:00:09-07:00	2020-07-18T06:29:21+00:00	2020-07-22T06:59:59+00:00	-4	60hjb71py9yk2w2@marketplace.amazon.com	Aisha Davy	+1 346-307-9643 ext. 46798	ABR004	Arabella Farm Direct Bouquet of 12 Fresh Cut Yellow Roses with a Free Glass Vase	1	0	1	Expedited	Kay Turner	1485 E 2600 N			LAYTON	UT	84040-8512	US		I so appreciate you. U are one of the funniest ppl I know. Thank you for taking such care of my sister. Love you! Enjoy your gift! From Aisha Davy	false		
111-4151678-9011409	22361503998602	2020-07-18T08:24:29+00:00	2020-07-18T01:24:29-07:00	2020-07-18T08:48:02+00:00	2020-07-22T06:59:59+00:00	-4	8yhhcx62grl6fnd@marketplace.amazon.com	Chris Lee	+1 346-307-9643 ext. 62163	ABR0066	Purchase Now for Delivery by Tuesday | Arabella Bouquets 12 Stems of Fresh Cut White Roses in a Free Designer Glass Vase	1	0	1	Standard	Diane Watkins	2011 30TH AVE W			SEATTLE	WA	98199-4016	US			false		
113-1476772-2221864	65543411116946	2020-07-18T11:33:28+00:00	2020-07-18T04:33:28-07:00	2020-07-18T12:07:24+00:00	2020-07-22T06:59:59+00:00	-4	80cbtx7s9d3gk62@marketplace.amazon.com	Mike Meadows	+1 415-851-9136 ext. 24896	ABR012	Purchase Now for Delivery by Thursday | Arabella Farm Direct Bouquet of 18 Fresh Cut Pink Roses with a Free Glass Vase	1	0	1	Expedited	Eileen Benoit	1008 E MAIN ST TRLR 3			KNOXVILLE	IL	61448-1546	US		For all the times you never felt loved For all the times you kept getting up For all the times you doubted yourself For all the times, For every time. From Your Forever Love	false		
