order-id	order-item-id	purchase-date	payments-date	reporting-date	promise-date	days-past-promise	buyer-email	buyer-name	buyer-phone-number	sku	product-name	quantity-purchased	quantity-shipped	quantity-to-ship	ship-service-level	recipient-name	ship-address-1	ship-address-2	ship-address-3	ship-city	ship-state	ship-postal-code	ship-country	gift-wrap-type	gift-message-text	is-business-order	purchase-order-number	price-designation
113-0394725-3496234	55664079710634	2020-07-17T17:10:38+00:00	2020-07-17T10:10:38-07:00	2020-07-17T17:41:18+00:00	2020-07-22T06:59:59+00:00	-5	m1cwby6tdn8hn5r@marketplace.amazon.com	Eli Joseph	+1 415-851-9136 ext. 82095	ABB001	Arabella Farm Direct Fresh Cut White Hydrangea	1	0	1	Expedited	Eli Joseph	4547 LOWELL ST NW			WASHINGTON	DC	20016-2750	US			false		
111-1116938-2910602	51610235153626	2020-07-17T18:05:33+00:00	2020-07-17T11:05:33-07:00	2020-07-17T18:31:50+00:00	2020-07-22T06:59:59+00:00	-5	s4vv5yn5gbdy8l5@marketplace.amazon.com	Anthony Ashe	+1 346-307-9643 ext. 06946	ABR0022	Purchase Now for Delivery by Tuesday | Arabella Farm Direct Bouquet of 12 Fresh Cut Pink Roses with a Free Glass Vase	1	0	1	Expedited	Monet Farr Cole	478 ASHBURTON AVE SE			ATLANTA	GA	30317-3441	US		Happy Birthday! I love you! From Anthony Ashe	false		
114-2271788-6305057	39779905239842	2020-07-17T18:14:56+00:00	2020-07-17T11:14:56-07:00	2020-07-17T18:38:49+00:00	2020-07-22T06:59:59+00:00	-5	kx721jm82v9nkn6@marketplace.amazon.com	Victoria Wells	+1 346-307-9643 ext. 07073	ABM010	The Spring Fling Bouquet by Arabella Bouquets with a Free Designer Glass Vase	1	0	1	Expedited	Patricia Ann Peddicord	1201 MUNSON AVE			COLLEGE STATION	TX	77840-2522	US		Stay pampered for as long as you can get away with it!! Treat yourself like a queen! We're all thinking of you and hoping for a smooth recuperation.   Love and hugs from Tory and all the gang in North Carolina	false		
113-2532853-5417801	27103964617834	2020-07-17T18:51:16+00:00	2020-07-17T11:51:16-07:00	2020-07-17T19:15:19+00:00	2020-07-22T06:59:59+00:00	-5	cf7f2kxzg8tzntd@marketplace.amazon.com	Valerie Piechocki	+1 346-307-9643 ext. 38624	ABR0022	Purchase Now for Delivery by Tuesday | Arabella Farm Direct Bouquet of 12 Fresh Cut Pink Roses with a Free Glass Vase	1	0	1	Expedited	Debra Colley	19 EMS B5A LN			LEESBURG	IN	46538-8977	US		Hi Debra, Get Well Soon! From  The Piechocki Family	false		
113-4072769-3566623	53107785093250	2020-07-17T19:01:30+00:00	2020-07-17T12:01:30-07:00	2020-07-17T19:19:06+00:00	2020-07-22T06:59:59+00:00	-5	d1mv54l3g1chjr1@marketplace.amazon.com	linda malloy	+1 346-307-9643 ext. 25278	ABM0044	Purchase Now for Delivery by Tuesday | Arabella Farm Direct Bouquet of Fresh Cut Blue Hydrangea with a Free Glass Vase	1	0	1	Expedited	Ann Casey	415 JENNIFER DR APT			DRESHER	PA	19025-1058	US		Hope this brighten’s your day😍luv Linda &John From linda malloy	false		
111-6086901-7825039	17563250853458	2020-07-17T19:22:56+00:00	2020-07-17T12:22:56-07:00	2020-07-17T19:43:29+00:00	2020-07-22T06:59:59+00:00	-5	zxg6bmtr23g7x4h@marketplace.amazon.com	Yteshia Flippin	+1 415-851-9136 ext. 75216	ABM002	Arabella Bouquets Fresh Cut White Calla Lilies in a Free Designer Glass Vase	1	0	1	Expedited	Rakiya France	86 W 5TH ST			DEER PARK	NY	11729-4105	US		Happy Belated Birthday Sissy! I love you! From Yteshia Grant	false		
112-7511417-3613849	48196336425114	2020-07-17T19:21:05+00:00	2020-07-17T12:21:05-07:00	2020-07-17T19:49:45+00:00	2020-07-22T06:59:59+00:00	-5	d617gvfdqjw7tf7@marketplace.amazon.com	Doug Marshall	+1 346-307-9643 ext. 29541	ABR0022	Purchase Now for Delivery by Tuesday | Arabella Farm Direct Bouquet of 12 Fresh Cut Pink Roses with a Free Glass Vase	1	0	1	Expedited	Sarah Blake	2317 ONONDAGA AVE			PLACENTIA	CA	92870-1627	US		From my heart to you ❤️ From Doug Marshall	false		
111-1095707-9361812	66187673074378	2020-07-17T19:26:57+00:00	2020-07-17T12:26:57-07:00	2020-07-17T19:57:37+00:00	2020-07-22T06:59:59+00:00	-5	rl631v2qn3t9s0q@marketplace.amazon.com	Seth Kalinsky	+1 346-307-9643 ext. 31326	ABR0055	Purchase Now for Delivery by Tuesday | Arabella Farm Direct Bouquet of 12 Stems of Fresh Cut Hot Pink Roses in a Free Designer Glass Vase	1	0	1	Expedited	Seth Kalinsky	27674 PADDOCK TRAIL PL			CHANTILLY	VA	20152-6394	US			false		
111-2481375-2426652	64630698481930	2020-07-17T19:48:20+00:00	2020-07-17T12:48:20-07:00	2020-07-17T20:17:21+00:00	2020-07-22T06:59:59+00:00	-5	lypgk9mvjpvn2kb@marketplace.amazon.com	RJ Williams	+1 346-307-9643 ext. 91352	ABR0055	Purchase Now for Delivery by Tuesday | Arabella Farm Direct Bouquet of 12 Stems of Fresh Cut Hot Pink Roses in a Free Designer Glass Vase	1	0	1	Expedited	Amara Walker-Williams	1250 SADLER DR  412			SAN MARCOS	TX	78666-7597	US		Love you, Amara! Wish I could be here instead of these roses but I hope it at least brightens your day! From Auntie	false		
112-8718645-6413048	14869238957850	2020-07-17T20:27:02+00:00	2020-07-17T13:27:02-07:00	2020-07-17T20:48:41+00:00	2020-07-22T06:59:59+00:00	-5	q9y446zlg7c2xzw@marketplace.amazon.com	patricia chase	+1 347-448-3190 ext. 98401	ABR0022	Purchase Now for Delivery by Tuesday | Arabella Farm Direct Bouquet of 12 Fresh Cut Pink Roses with a Free Glass Vase	1	0	1	Expedited	Nicole Martinez	4619 CREEK POINT LN			MISSOURI CITY	TX	77459-6714	US			false		
111-0673005-1447429	07498709059354	2020-07-17T20:21:04+00:00	2020-07-17T13:21:04-07:00	2020-07-17T20:50:10+00:00	2020-07-22T06:59:59+00:00	-5	mngsd3nfvgzk8w8@marketplace.amazon.com	Glenn Best	+1 415-851-9136 ext. 15803	ABR001	Purchase Now for Delivery by Tuesday | Arabella Bouquets 12 Stems of Fresh Cut Red Roses in a Free Designer Glass Vase	1	0	1	Expedited	Veronica Barley	106 BERNARD ST			CARTERET	NJ	07008-1305	US		Happy Anniversary Babe! From Glenn	false		
112-4496726-0485856	38841557136514	2020-07-17T20:38:16+00:00	2020-07-17T13:38:16-07:00	2020-07-17T21:05:17+00:00	2020-07-22T06:59:59+00:00	-5	dczkp3s119t4h1m@marketplace.amazon.com	Bruce Kenselaar	+1 346-307-9643 ext. 13047	ABR0022	Purchase Now for Delivery by Tuesday | Arabella Farm Direct Bouquet of 12 Fresh Cut Pink Roses with a Free Glass Vase	1	0	1	Expedited	Pat Bednash	17702 LAKESPRING AVE			PALMDALE	CA	93591-3301	US			false		
