order-id	order-item-id	purchase-date	payments-date	reporting-date	promise-date	days-past-promise	buyer-email	buyer-name	buyer-phone-number	sku	product-name	quantity-purchased	quantity-shipped	quantity-to-ship	ship-service-level	recipient-name	ship-address-1	ship-address-2	ship-address-3	ship-city	ship-state	ship-postal-code	ship-country	gift-wrap-type	gift-message-text	is-business-order	purchase-order-number	price-designation
113-4072769-3566623	53107785093250	2020-07-17T19:01:30+00:00	2020-07-17T12:01:30-07:00	2020-07-17T19:19:06+00:00	2020-07-22T06:59:59+00:00	-4	d1mv54l3g1chjr1@marketplace.amazon.com	linda malloy	+1 346-307-9643 ext. 25278	ABM0044	Purchase Now for Delivery by Tuesday | Arabella Farm Direct Bouquet of Fresh Cut Blue Hydrangea with a Free Glass Vase	1	0	1	Expedited	Ann Casey	415 JENNIFER DR APT			DRESHER	PA	19025-1058	US		Hope this brighten’s your day😍luv Linda &John From linda malloy	false		
114-2162468-0952225	28463844059482	2020-07-18T13:49:00+00:00	2020-07-18T06:49:00-07:00	2020-07-18T14:19:43+00:00	2020-07-22T06:59:59+00:00	-4	p1f9v7z0zygskxk@marketplace.amazon.com	sean morrison	+1 415-851-9136 ext. 52440	ABM010	Purchase Now for Delivery by Tuesday | The Spring Fling Bouquet by Arabella Bouquets with a Free Designer Glass Vase	1	0	1	Expedited	sean morrison	1982 madison avenue	apt 1		new york	NY	10035	US			false		
112-2502490-0335402	61408292958994	2020-07-18T13:57:03+00:00	2020-07-18T06:57:03-07:00	2020-07-18T14:21:18+00:00	2020-07-22T06:59:59+00:00	-4	14gyljnz5xy7c50@marketplace.amazon.com	Nathaniel	+1 347-448-3190 ext. 70076	ABM010	Purchase Now for Delivery by Tuesday | The Spring Fling Bouquet by Arabella Bouquets with a Free Designer Glass Vase	1	0	1	Expedited	Nathaniel Colglazier	989 COUNTY STREET 2930			TUTTLE	OK	73089-3029	US			false		
112-1877930-5507456	28203509970402	2020-07-18T14:56:37+00:00	2020-07-18T07:56:37-07:00	2020-07-18T15:22:19+00:00	2020-07-22T06:59:59+00:00	-4	lw17wks3t3yvmxj@marketplace.amazon.com	Vicki Marshall	+1 415-851-9136 ext. 87525	ABM010	The Spring Fling Bouquet by Arabella Bouquets with a Free Designer Glass Vase	1	0	1	Standard	SERENA SCHMITZ	29 RADTKE RD			RANDOLPH	NJ	07869-3812	US		🎶Happy Birthday to You🎶!! Hope your Day is as Special as You ! All My Love Forever!! From Mom	false		
111-0700845-0944211	34299404408882	2020-07-18T15:15:34+00:00	2020-07-18T08:15:34-07:00	2020-07-18T15:43:08+00:00	2020-07-22T06:59:59+00:00	-4	8xny2s14zgr0m7r@marketplace.amazon.com	George Affe	+1 347-448-3190 ext. 64480	ABR0055	Purchase Now for Delivery by Wednesday | Arabella Farm Direct Bouquet of 12 Stems of Fresh Cut Hot Pink Roses in a Free Designer Glass Vase	1	0	1	Expedited	Irina Belyaeva	13063 WALLICH WAY			GERMANTOWN	MD	20874-1887	US			false		
111-3206353-2149852	54068507282682	2020-07-18T16:29:30+00:00	2020-07-18T09:29:30-07:00	2020-07-18T16:46:47+00:00	2020-07-22T06:59:59+00:00	-4	mtymbpbjrwl6q04@marketplace.amazon.com	Jill McGinn	+1 210-728-4548 ext. 93146	ABM010	Purchase Now for Delivery by Wednesday | The Spring Fling Bouquet by Arabella Bouquets with a Free Designer Glass Vase	1	0	1	Expedited	Becky Johncox	408 E ALTO DR			HOBBS	NM	88240-4002	US		Dearest Becky, My heart goes out to you for the loss of your mother and all you have been through. You deserve some beauty in your life! Enjoy! Much love, Jill From Jill McGinn	false		
111-3461163-8172240	04048258993322	2020-07-18T16:42:30+00:00	2020-07-18T09:42:30-07:00	2020-07-18T17:07:17+00:00	2020-07-22T06:59:59+00:00	-4	bl6z384bn2n3xh9@marketplace.amazon.com	Carol A Yerger	+1 314-282-9402 ext. 37585	ABR0022	Purchase Now for Delivery by Wednesday | Arabella Farm Direct Bouquet of 12 Fresh Cut Pink Roses with a Free Glass Vase	1	0	1	Expedited	Elizabeth Yerger	367 KEESE MILLS RD			PAUL SMITHS	NY	12970-2007	US		Welcome home Eloise Caroline Hayes Trahey! Our world is better because you are in it. Sending much love to you all, Grandma, Phil, Aunt Allison and Uncle Travis From Mom/Grandma	false		
114-5116650-9722662	39171485364842	2020-07-18T17:33:48+00:00	2020-07-18T10:33:48-07:00	2020-07-18T18:00:02+00:00	2020-07-22T06:59:59+00:00	-4	k0rw3n03662f79x@marketplace.amazon.com	Leslie Reid	+1 314-282-9402 ext. 97375	ABR001	Purchase Now for Delivery by Wednesday | Arabella Bouquets 12 Stems of Fresh Cut Red Roses in a Free Designer Glass Vase	1	0	1	Expedited	Alane Hall	950 RED SANDSTONE RD UNIT 23			VAIL	CO	81657-4043	US		Happy Birthday!  Next Year in Paris! From Leslie Reid	false		
