order-id	order-item-id	purchase-date	payments-date	reporting-date	promise-date	days-past-promise	buyer-email	buyer-name	buyer-phone-number	sku	product-name	quantity-purchased	quantity-shipped	quantity-to-ship	ship-service-level	recipient-name	ship-address-1	ship-address-2	ship-address-3	ship-city	ship-state	ship-postal-code	ship-country	gift-wrap-type	gift-message-text	is-business-order	purchase-order-number	price-designation
114-2162468-0952225	28463844059482	2020-07-18T13:49:00+00:00	2020-07-18T06:49:00-07:00	2020-07-18T14:19:43+00:00	2020-07-22T06:59:59+00:00	-4	p1f9v7z0zygskxk@marketplace.amazon.com	sean morrison	+1 415-851-9136 ext. 52440	ABM010	Purchase Now for Delivery by Tuesday | The Spring Fling Bouquet by Arabella Bouquets with a Free Designer Glass Vase	1	0	1	Expedited	sean morrison	1982 madison avenue	apt 1		new york	NY	10035	US			false		
112-2502490-0335402	61408292958994	2020-07-18T13:57:03+00:00	2020-07-18T06:57:03-07:00	2020-07-18T14:21:18+00:00	2020-07-22T06:59:59+00:00	-4	14gyljnz5xy7c50@marketplace.amazon.com	Nathaniel	+1 347-448-3190 ext. 70076	ABM010	Purchase Now for Delivery by Tuesday | The Spring Fling Bouquet by Arabella Bouquets with a Free Designer Glass Vase	1	0	1	Expedited	Nathaniel Colglazier	989 COUNTY STREET 2930			TUTTLE	OK	73089-3029	US			false		
112-1877930-5507456	28203509970402	2020-07-18T14:56:37+00:00	2020-07-18T07:56:37-07:00	2020-07-18T15:22:19+00:00	2020-07-22T06:59:59+00:00	-4	lw17wks3t3yvmxj@marketplace.amazon.com	Vicki Marshall	+1 415-851-9136 ext. 87525	ABM010	The Spring Fling Bouquet by Arabella Bouquets with a Free Designer Glass Vase	1	0	1	Standard	SERENA SCHMITZ	29 RADTKE RD			RANDOLPH	NJ	07869-3812	US		🎶Happy Birthday to You🎶!! Hope your Day is as Special as You ! All My Love Forever!! From Mom	false		
111-0700845-0944211	34299404408882	2020-07-18T15:15:34+00:00	2020-07-18T08:15:34-07:00	2020-07-18T15:43:08+00:00	2020-07-22T06:59:59+00:00	-4	8xny2s14zgr0m7r@marketplace.amazon.com	George Affe	+1 347-448-3190 ext. 64480	ABR0055	Purchase Now for Delivery by Wednesday | Arabella Farm Direct Bouquet of 12 Stems of Fresh Cut Hot Pink Roses in a Free Designer Glass Vase	1	0	1	Expedited	Irina Belyaeva	13063 WALLICH WAY			GERMANTOWN	MD	20874-1887	US			false		
111-3206353-2149852	54068507282682	2020-07-18T16:29:30+00:00	2020-07-18T09:29:30-07:00	2020-07-18T16:46:47+00:00	2020-07-22T06:59:59+00:00	-4	mtymbpbjrwl6q04@marketplace.amazon.com	Jill McGinn	+1 210-728-4548 ext. 93146	ABM010	Purchase Now for Delivery by Wednesday | The Spring Fling Bouquet by Arabella Bouquets with a Free Designer Glass Vase	1	0	1	Expedited	Becky Johncox	408 E ALTO DR			HOBBS	NM	88240-4002	US		Dearest Becky, My heart goes out to you for the loss of your mother and all you have been through. You deserve some beauty in your life! Enjoy! Much love, Jill From Jill McGinn	false		
111-3461163-8172240	04048258993322	2020-07-18T16:42:30+00:00	2020-07-18T09:42:30-07:00	2020-07-18T17:07:17+00:00	2020-07-22T06:59:59+00:00	-4	bl6z384bn2n3xh9@marketplace.amazon.com	Carol A Yerger	+1 314-282-9402 ext. 37585	ABR0022	Purchase Now for Delivery by Wednesday | Arabella Farm Direct Bouquet of 12 Fresh Cut Pink Roses with a Free Glass Vase	1	0	1	Expedited	Elizabeth Yerger	367 KEESE MILLS RD			PAUL SMITHS	NY	12970-2007	US		Welcome home Eloise Caroline Hayes Trahey! Our world is better because you are in it. Sending much love to you all, Grandma, Phil, Aunt Allison and Uncle Travis From Mom/Grandma	false		
114-5116650-9722662	39171485364842	2020-07-18T17:33:48+00:00	2020-07-18T10:33:48-07:00	2020-07-18T18:00:02+00:00	2020-07-22T06:59:59+00:00	-4	k0rw3n03662f79x@marketplace.amazon.com	Leslie Reid	+1 314-282-9402 ext. 97375	ABR001	Purchase Now for Delivery by Wednesday | Arabella Bouquets 12 Stems of Fresh Cut Red Roses in a Free Designer Glass Vase	1	0	1	Expedited	Alane Hall	950 RED SANDSTONE RD UNIT 23			VAIL	CO	81657-4043	US		Happy Birthday!  Next Year in Paris! From Leslie Reid	false		
112-9282215-1485004	26667150947434	2020-07-18T19:33:13+00:00	2020-07-18T12:33:13-07:00	2020-07-18T20:02:08+00:00	2020-07-22T06:59:59+00:00	-4	k4zsy2yfx9p2qg7@marketplace.amazon.com	Kristen Ruth Jakobsen	503	ABM010	Purchase Now for Delivery by Wednesday | The Spring Fling Bouquet by Arabella Bouquets with a Free Designer Glass Vase	1	0	1	Expedited	Jack Jakobsen	MADRONA GROVE - ROSE VILLA SENIOR LIVING COMMUNITY	13505 SE RIVER RD		PORTLAND	OR	97222-8038	US		HAPPY BIRTHDAY DAD!!! I wish I could be with you today, but I know I will see you soon.   I LOVE YOU!! Kris From Kristen Jakobsen	false		
113-8887310-2385853	47896953563482	2020-07-18T19:32:38+00:00	2020-07-18T12:32:38-07:00	2020-07-18T20:02:18+00:00	2020-07-22T06:59:59+00:00	-4	8f8dltl61rzwhmz@marketplace.amazon.com	luanaDhillin	+1 415-851-9136 ext. 48533	ABR0022	Purchase Now for Delivery by Wednesday | Arabella Farm Direct Bouquet of 12 Fresh Cut Pink Roses with a Free Glass Vase	1	0	1	Expedited	Peter and Sonja Patti	43352 MODENA DR			TEMECULA	CA	92592-9397	US			false		
114-8594011-8825812	21842890939218	2020-07-18T20:27:26+00:00	2020-07-18T13:27:26-07:00	2020-07-18T20:52:37+00:00	2020-07-22T06:59:59+00:00	-4	gk9qdh0yk4kz1sj@marketplace.amazon.com	Connie Yates	+1 314-282-9402 ext. 13590	ABR0033	Purchase Now for Delivery by Wednesday | Arabella Farm Direct Bouquet of 12 Fresh Cut Orange Roses with a Free Glass Vase	1	0	1	Expedited	Minder Salazar	41161 W CURTIS LN			MARICOPA	AZ	85138-5460	US		Hi Mindee, Love you sister, so for your loss, sending love and small gifts to remind you we support you! From the Yates Family	false		
113-5399087-2965018	13485279860634	2020-07-18T20:52:21+00:00	2020-07-18T13:52:21-07:00	2020-07-18T21:14:50+00:00	2020-07-22T06:59:59+00:00	-4	mqdz69h2qjtdpry@marketplace.amazon.com	Blake Pernicka	+1 346-307-9643 ext. 87523	ABR0022	Purchase Now for Delivery by Wednesday | Arabella Farm Direct Bouquet of 12 Fresh Cut Pink Roses with a Free Glass Vase	1	0	1	Expedited	Katy Herbert	1104 COUNTRY CLUB DR			TULLAHOMA	TN	37388-2553	US		Thank you for being such a great friend. I hope you're feeling well and are on the road to a quick recovery:) From Andrea	false		
114-7731909-2298655	18544631759202	2020-07-18T21:37:07+00:00	2020-07-18T14:37:07-07:00	2020-07-18T22:07:05+00:00	2020-07-22T06:59:59+00:00	-4	78l33wy3k47jnwm@marketplace.amazon.com	Matt	+1 346-307-9643 ext. 33735	ABR0022	Purchase Now for Delivery by Wednesday | Arabella Farm Direct Bouquet of 12 Fresh Cut Pink Roses with a Free Glass Vase	1	0	1	Expedited	Keiko Yamanoi (Chloe )	628 E 26TH ST			BROOKLYN	NY	11210-2148	US			false		
111-0650996-1626636	24829340001346	2020-07-18T21:54:43+00:00	2020-07-18T14:54:43-07:00	2020-07-18T22:18:11+00:00	2020-07-22T06:59:59+00:00	-4	x1hzk7jlxfqqxhl@marketplace.amazon.com	MICK LLOYD	+1 346-307-9643 ext. 20175	ABR0022	Purchase Now for Delivery by Wednesday | Arabella Farm Direct Bouquet of 12 Fresh Cut Pink Roses with a Free Glass Vase	1	0	1	Expedited	MICK LLOYD	2925 PAPER MILL BRIDGE RD			THOMPSONS STATION	TN	37179-5449	US		You are my love, strength, and a wonderful Wife! From MICK LLOYD	false		
112-0315673-4572266	61324609400346	2020-07-18T22:41:00+00:00	2020-07-18T15:41:00-07:00	2020-07-18T23:09:39+00:00	2020-07-22T06:59:59+00:00	-4	jm121c379lvh8rb@marketplace.amazon.com	Joshua Ritchie	+1 346-307-9643 ext. 72200	ABR0033	Purchase Now for Delivery by Wednesday | Arabella Farm Direct Bouquet of 12 Fresh Cut Orange Roses with a Free Glass Vase	1	0	1	Expedited	Benita oatis	3854 S MINER ST APT 1			MILWAUKEE	WI	53221-1251	US		Hello Beautiful Enjoy With love  Steven	false		
111-4924547-1194625	37031817859010	2020-07-18T22:41:33+00:00	2020-07-18T15:41:33-07:00	2020-07-18T23:10:16+00:00	2020-07-22T06:59:59+00:00	-4	j4sqx67yy44fvkq@marketplace.amazon.com	Eric Olson	+1 346-307-9643 ext. 60294	ABR012	Purchase Now for Delivery by Wednesday | Arabella Farm Direct Bouquet of 18 Fresh Cut Pink Roses with a Free Glass Vase	1	0	1	Expedited	Forrest Olson	4350 PALM AVE A307			LA MESA	CA	91941-6568	US		Happy 1st Anniversary Forrest and Kiana We love you to the moon and back. Dad and Mom From Eric Olson	false		
113-1635601-9140262	29522977950634	2020-07-18T22:54:55+00:00	2020-07-18T15:54:55-07:00	2020-07-18T23:24:26+00:00	2020-07-22T06:59:59+00:00	-4	2swgwt4qgg3hj34@marketplace.amazon.com	Karen Wise	+1 346-307-9643 ext. 82110	ABM010	Purchase Now for Delivery by Wednesday | The Spring Fling Bouquet by Arabella Bouquets with a Free Designer Glass Vase	1	0	1	Expedited	Kelly Purves	254 JEANNE DR			PLEASANT HILL	CA	94523-2231	US		Thank you Kelly! It was so special to stay with you.  Love, Karen From Karen Wise	false		
