order-id	order-item-id	purchase-date	payments-date	reporting-date	promise-date	days-past-promise	buyer-email	buyer-name	buyer-phone-number	sku	product-name	quantity-purchased	quantity-shipped	quantity-to-ship	ship-service-level	recipient-name	ship-address-1	ship-address-2	ship-address-3	ship-city	ship-state	ship-postal-code	ship-country	gift-wrap-type	gift-message-text	is-business-order	purchase-order-number	price-designation
114-6018003-4591456	69186764121922	2020-07-20T13:04:52+00:00	2020-07-20T06:04:52-07:00	2020-07-20T13:35:39+00:00	2020-07-23T06:59:59+00:00	-3	wsh5rlnypb2lzrv@marketplace.amazon.com	Rita Chaudhuri	+1 347-448-3190 ext. 89290	ABR001	Purchase Now for Delivery by Thursday | Arabella Bouquets 12 Stems of Fresh Cut Red Roses in a Free Designer Glass Vase	1	0	1	Expedited	Nisha Gidwani	700 RED BUD CT			FRIENDSWOOD	TX	77546-3588	US			false		
114-5006157-9869858	09693802514746	2020-07-20T13:05:51+00:00	2020-07-20T06:05:51-07:00	2020-07-20T13:36:10+00:00	2020-07-23T06:59:59+00:00	-3	wsh5rlnypb2lzrv@marketplace.amazon.com	Rita Chaudhuri	+1 346-307-9643 ext. 99334	ABR001	Purchase Now for Delivery by Thursday | Arabella Bouquets 12 Stems of Fresh Cut Red Roses in a Free Designer Glass Vase	1	0	1	Expedited	Rims Gidwani	1033 FISHER ST			HOUSTON	TX	77018-5213	US			false		
114-8771054-0441062	24199143832602	2020-07-20T13:09:21+00:00	2020-07-20T06:09:21-07:00	2020-07-20T13:38:27+00:00	2020-07-23T06:59:59+00:00	-3	lv2cyr1xdm7c6gf@marketplace.amazon.com	Ericca L. Leonti	+1 346-307-9643 ext. 83912	ABR0022	Purchase Now for Delivery by Thursday | Arabella Farm Direct Bouquet of 12 Fresh Cut Pink Roses with a Free Glass Vase	1	0	1	Standard	Gabby Leonti	8235 PATUXENT RANGE RD			JESSUP	MD	20794-9329	US		You are beautiful From ❤️	false		
112-5083968-2357060	55979030047074	2020-07-20T13:26:14+00:00	2020-07-20T06:26:14-07:00	2020-07-20T13:55:52+00:00	2020-07-23T06:59:59+00:00	-3	1m8458nz4j312h4@marketplace.amazon.com	Margot Bacon	+1 346-307-9643 ext. 71433	ABR0022	Purchase Now for Delivery by Thursday | Arabella Farm Direct Bouquet of 12 Fresh Cut Pink Roses with a Free Glass Vase	1	0	1	Expedited	The Bacons	763 HARVEST POINTE DR			FORT MILL	SC	29708-7706	US			false		
112-6120907-9394650	52945482122050	2020-07-20T14:08:44+00:00	2020-07-20T07:08:44-07:00	2020-07-20T14:33:21+00:00	2020-07-23T06:59:59+00:00	-3	tv71pswhcxpkrvg@marketplace.amazon.com	Gita Seevaratnam	+1 346-307-9643 ext. 52744	ABR0022	Purchase Now for Delivery by Thursday | Arabella Farm Direct Bouquet of 12 Fresh Cut Pink Roses with a Free Glass Vase	1	0	1	Expedited	Donna Lindo	10 FAIRWAY BLVD			GANSEVOORT	NY	12831-1749	US		Happy Birthday Donna! Wishing you good health and every happiness this year and in the years ahead. Thank you for being such a special person. With love and best wishes, Gita. From Gita Seevaratnam	false		
111-5788477-1797067	19695127904978	2020-07-20T14:22:49+00:00	2020-07-20T07:22:49-07:00	2020-07-20T14:50:02+00:00	2020-07-23T06:59:59+00:00	-3	zkm1hhh9j956ly4@marketplace.amazon.com	LaVerne Daisy Miller	+1 415-851-9136 ext. 27226	ABR0055	Purchase Now for Delivery by Thursday | Arabella Farm Direct Bouquet of 12 Stems of Fresh Cut Hot Pink Roses in a Free Designer Glass Vase	1	0	1	Expedited	Sherry Frohman	27 BURHANS PL			DELMAR	NY	12054-1201	US			false		
113-5463188-1773824	60979923923346	2020-07-20T14:32:49+00:00	2020-07-20T07:32:49-07:00	2020-07-20T14:57:11+00:00	2020-07-23T06:59:59+00:00	-3	ps9mbch4xzdrvt3@marketplace.amazon.com	Eric Allen	+1 210-728-4548 ext. 90215	ABM010	Purchase Now for Delivery by Thursday | The Spring Fling Bouquet by Arabella Bouquets with a Free Designer Glass Vase	1	0	1	Expedited	Joan P. Allen	APPT 307 IN CARE OF CONCORD ROYAL	4230 CLAYTON RD		CONCORD	CA	94521-2713	US			false		
112-3579607-7086651	60912575322986	2020-07-20T15:00:22+00:00	2020-07-20T08:00:22-07:00	2020-07-20T15:28:03+00:00	2020-07-23T06:59:59+00:00	-3	f1l4gcrj39ssv91@marketplace.amazon.com	Paula Breitkopf	+1 346-307-9643 ext. 78798	ABM010	Purchase Now for Delivery by Thursday | The Spring Fling Bouquet by Arabella Bouquets with a Free Designer Glass Vase	1	0	1	Expedited	Patricia Breitkopf	161 N EVERGREEN DR			SELDEN	NY	11784-2015	US		Happy Birthday! Hope you have an amazing day! From Paula, Connor and Owen	false		
112-8741925-7378618	06003787627138	2020-07-20T15:03:51+00:00	2020-07-20T08:03:51-07:00	2020-07-20T15:32:59+00:00	2020-07-23T06:59:59+00:00	-3	f1l4gcrj39ssv91@marketplace.amazon.com	Paula Breitkopf	+1 346-307-9643 ext. 84733	ABM010	Purchase Now for Delivery by Thursday | The Spring Fling Bouquet by Arabella Bouquets with a Free Designer Glass Vase	1	0	1	Expedited	Dolores Cunningham	31 FULTON AVE			SMITHTOWN	NY	11787-4606	US		Happy Birthday! Hope you have an amazing day! From Paula,Connor and Owen	false		
113-0353049-9087411	16369685475258	2020-07-20T15:40:38+00:00	2020-07-20T08:40:38-07:00	2020-07-20T16:10:33+00:00	2020-07-23T06:59:59+00:00	-3	xl26rfm2gq208tf@marketplace.amazon.com	helene roberson	+1 314-282-9402 ext. 45238	ABR011	Purchase Now for Delivery by Thursday | Arabella Bouquets 18 Stems of Fresh Cut Red Roses in a Free Glass Vase	1	0	1	Expedited	Lotsie Busch Webster	280 VIA MARILA			PALM BEACH	FL	33480-3243	US		With Love Always, Helene and Jack xo From helene roberson	false		
112-3431145-2914630	22232345874730	2020-07-20T16:03:37+00:00	2020-07-20T09:03:37-07:00	2020-07-20T16:11:24+00:00	2020-07-23T06:59:59+00:00	-3	6vtmpv9zcppc1pj@marketplace.amazon.com	Linda burton	+1 347-448-3190 ext. 39470	ABR0022	Purchase Now for Delivery by Thursday | Arabella Farm Direct Bouquet of 12 Fresh Cut Pink Roses with a Free Glass Vase	1	0	1	Expedited	Lillian Wetherington	5465 SW 84TH PL			OCALA	FL	34476-3757	US		Dear Aunt Lillian, I hope you enjoy your roses. I am thinking about you and praying for you daily. Love, Linda From Linda burton	false		
111-6673414-1393842	00526079298970	2020-07-20T15:49:28+00:00	2020-07-20T08:49:28-07:00	2020-07-20T16:18:00+00:00	2020-07-23T06:59:59+00:00	-3	9tj4yvst0bwlhtg@marketplace.amazon.com	Jennifer Shao	+1 347-448-3190 ext. 81398	ABR0055	Purchase Now for Delivery by Thursday | Arabella Farm Direct Bouquet of 12 Stems of Fresh Cut Hot Pink Roses in a Free Designer Glass Vase	1	0	1	Expedited	Pearl Young	762 LA CONTENTA WAY			SACRAMENTO	CA	95831-3415	US		Dearest grandpa Howard,   Happy birthday from Jennifer, Allison, Tiffany and we love you.  Hugs and kisses XoXo From Jennifer Shao	false		
111-8952129-1576254	52055920023826	2020-07-20T16:06:36+00:00	2020-07-20T09:06:36-07:00	2020-07-20T16:35:34+00:00	2020-07-23T06:59:59+00:00	-3	tlh3xy9v214p338@marketplace.amazon.com	neil clark	+1 347-448-3190 ext. 36439	ABR0022	Purchase Now for Delivery by Thursday | Arabella Farm Direct Bouquet of 12 Fresh Cut Pink Roses with a Free Glass Vase	1	0	1	Expedited	Tammy Thompson	516 TUSCARORA DR			ANTIOCH	TN	37013-3617	US		Just thinking of you Tammy!   Miss you, love you! & love you some more! xoxo From Neil & Brian	false		
111-2076591-0153835	40359155661650	2020-07-20T16:09:43+00:00	2020-07-20T09:09:43-07:00	2020-07-20T16:37:08+00:00	2020-07-23T06:59:59+00:00	-3	s9fy62d2cvg2vrj@marketplace.amazon.com	Kelly Miller	+1 346-307-9643 ext. 33756	ABR0022	Purchase Now for Delivery by Thursday | Arabella Farm Direct Bouquet of 12 Fresh Cut Pink Roses with a Free Glass Vase	1	0	1	Expedited	Mr. & Mrs. Robert Miller	2070 396TH TRL			ELLSWORTH	NE	69340-7135	US		Happy Birthday Kay! Wish we could be there celebrating with you! Knowing that you are truly loved and always missed. From Aaron & Kelly	false		
111-9539311-6100268	26690467400162	2020-07-20T16:27:45+00:00	2020-07-20T09:27:45-07:00	2020-07-20T16:57:51+00:00	2020-07-23T06:59:59+00:00	-3	8k8dlb988njbw5x@marketplace.amazon.com	Elliot	+1 347-448-3190 ext. 67253	ABR0022	Purchase Now for Delivery by Thursday | Arabella Farm Direct Bouquet of 12 Fresh Cut Pink Roses with a Free Glass Vase	1	0	1	Expedited	Shannon Beatty	417 COLONIAL CIR			VACAVILLE	CA	95687-6712	US			false		
113-2281765-5751409	46583649325274	2020-07-20T16:29:50+00:00	2020-07-20T09:29:50-07:00	2020-07-20T17:00:28+00:00	2020-07-23T06:59:59+00:00	-3	py565214xxb4kms@marketplace.amazon.com	kawsar0990	+1 347-448-3190 ext. 89166	ABR0022	Purchase Now for Delivery by Thursday | Arabella Farm Direct Bouquet of 12 Fresh Cut Pink Roses with a Free Glass Vase	1	0	1	Expedited	Joanne luo	7410 19TH AVE BROOKLYN NY 11204			BROOKLYN	NY	11204-5701	US			false		
112-7335475-4983452	05055398359274	2020-07-20T16:55:39+00:00	2020-07-20T09:55:39-07:00	2020-07-20T17:14:29+00:00	2020-07-23T06:59:59+00:00	-3	nzvgffvrh6j26c6@marketplace.amazon.com	laura burk	+1 346-307-9643 ext. 39333	ABR0055	Purchase Now for Delivery by Thursday | Arabella Farm Direct Bouquet of 12 Stems of Fresh Cut Hot Pink Roses in a Free Designer Glass Vase	1	0	1	Expedited	Auntie Jamie	131 JERSEY CIR			WAUKESHA	WI	53188-2667	US		Jamie, we are so thankful to have you in our lives.  You are the most beautiful, sweet and kind person we know.  You deserve the world!  We love you!  Thank you for letting us crash.  *Hugs*  L&M	false		
112-0589634-1610646	68763224123962	2020-07-20T16:55:39+00:00	2020-07-20T09:55:39-07:00	2020-07-20T17:14:29+00:00	2020-07-23T06:59:59+00:00	-3	nzvgffvrh6j26c6@marketplace.amazon.com	laura burk	+1 347-448-3190 ext. 48691	ABM010	Purchase Now for Delivery by Thursday | The Spring Fling Bouquet by Arabella Bouquets with a Free Designer Glass Vase	1	0	1	Expedited	Grandma and Grandpa Burk	2721 COVENTRY LN			WAUKESHA	WI	53188-1346	US		Grandma and Grandpa, thank you so much for putting on such a memorable birthday party for Mila.  She can't stop talking about it.  She is lucky to be so loved and supported by so many.  We are so thankful for you.  We love you!!  *Hugs*  L&M	false		
111-2298587-7489801	32624382662258	2020-07-20T16:57:03+00:00	2020-07-20T09:57:03-07:00	2020-07-20T17:25:48+00:00	2020-07-23T06:59:59+00:00	-3	87llbbcggggzppc@marketplace.amazon.com	paul macrae	+1 314-282-9402 ext. 33263	ABR0055	Purchase Now for Delivery by Thursday | Arabella Farm Direct Bouquet of 12 Stems of Fresh Cut Hot Pink Roses in a Free Designer Glass Vase	1	0	1	Expedited	Ms. Amy Ripple	3249 SOUTHALL RD			FRANKLIN	TN	37064-6240	US		Hi Amy,  Thank you for all the help in Brownland. From Paul and Eva MacRae	false		
113-2418158-6800216	49178494513114	2020-07-20T17:17:27+00:00	2020-07-20T10:17:27-07:00	2020-07-20T17:39:58+00:00	2020-07-23T06:59:59+00:00	-3	dlc8p9k400m77lb@marketplace.amazon.com	John Howard Merle	+1 314-282-9402 ext. 70231	ABR0055	Purchase Now for Delivery by Thursday | Arabella Farm Direct Bouquet of 12 Stems of Fresh Cut Hot Pink Roses in a Free Designer Glass Vase	1	0	1	Expedited	Chris in Dr. Golub's Office	1035 BELLEVUE AVE STE 400			SAINT LOUIS	MO	63117-1844	US			false		
113-6029953-8633068	14286896330082	2020-07-20T17:50:32+00:00	2020-07-20T10:50:32-07:00	2020-07-20T18:21:16+00:00	2020-07-23T06:59:59+00:00	-3	95wfs4f0m8s08jd@marketplace.amazon.com	Ron Warrick	+1 346-307-9643 ext. 70025	ABR0022	Purchase Now for Delivery by Thursday | Arabella Farm Direct Bouquet of 12 Fresh Cut Pink Roses with a Free Glass Vase	1	0	1	Expedited	Sue Warrick	631 STONY HILL RD			MORRISVILLE	PA	19067-4418	US			false		
111-7441031-4319432	47671043891818	2020-07-20T18:32:10+00:00	2020-07-20T11:32:10-07:00	2020-07-20T19:00:16+00:00	2020-07-23T06:59:59+00:00	-3	622w43x9p9c820g@marketplace.amazon.com	Brian Morrison	+1 415-851-9136 ext. 44955	ABR0022	Purchase Now for Delivery by Thursday | Arabella Farm Direct Bouquet of 12 Fresh Cut Pink Roses with a Free Glass Vase	1	0	1	Expedited	Darya Morrison	9907 RED IRON CRK			CONVERSE	TX	78109-1053	US		My dear, I love you. Better then a shark balloon? Get better and love you very much. Brian From Brian Morrison	false		
113-0468445-8145007	68718126781722	2020-07-20T18:33:05+00:00	2020-07-20T11:33:05-07:00	2020-07-20T19:00:43+00:00	2020-07-23T06:59:59+00:00	-3	gwctc5rztxjtb3v@marketplace.amazon.com	Kim	+1 346-307-9643 ext. 86292	ABM010	Purchase Now for Delivery by Thursday | The Spring Fling Bouquet by Arabella Bouquets with a Free Designer Glass Vase	1	0	1	Expedited	Anne Edgar	10618 LINDABURY HOLLOW DR			KATY	TX	77494-5752	US		Happy Happy Birthday! We love you! From Doug Kim Ray Ashten	false		
111-1583182-4592267	31428181292554	2020-07-20T18:36:00+00:00	2020-07-20T11:36:00-07:00	2020-07-20T19:02:32+00:00	2020-07-23T06:59:59+00:00	-3	jk0h0yg06kytx2s@marketplace.amazon.com	Dave Zirkle	+1 347-448-3190 ext. 77947	ABR0022	Purchase Now for Delivery by Thursday | Arabella Farm Direct Bouquet of 12 Fresh Cut Pink Roses with a Free Glass Vase	1	0	1	Expedited	Barbara Grubb	8905 62ND DR NE			MARYSVILLE	WA	98270-2841	US			false		
114-4555853-2592258	02636239686770	2020-07-20T19:11:39+00:00	2020-07-20T12:11:39-07:00	2020-07-20T19:41:48+00:00	2020-07-23T06:59:59+00:00	-3	vd8jzrf5h1dfdgk@marketplace.amazon.com	leslie weston	+1 415-851-9136 ext. 61355	ABR0022	Purchase Now for Delivery by Thursday | Arabella Farm Direct Bouquet of 12 Fresh Cut Pink Roses with a Free Glass Vase	1	0	1	Expedited	Leslie weston	5385 PEACHTREE DUNWOODY RD	APT 1118		ATLANTA	GA	30342-2170	US			false		
114-4693577-4670622	09116033036842	2020-07-20T19:16:42+00:00	2020-07-20T12:16:42-07:00	2020-07-20T19:44:20+00:00	2020-07-23T06:59:59+00:00	-3	dx59trkhvxbwb42@marketplace.amazon.com	Dorian Alfaro	+1 347-448-3190 ext. 16223	ABR0022	Purchase Now for Delivery by Thursday | Arabella Farm Direct Bouquet of 12 Fresh Cut Pink Roses with a Free Glass Vase	1	0	1	Expedited	Kelly Lea	201 BEECHWOOD DR			WESTFIELD	IN	46074-9547	US		Sending loads of love your way. I am praying for you Kelly. Here is a huge hug. -Sarah Alfaro From Sarah Alfaro	false		
112-7371581-8778625	68412577282466	2020-07-20T19:21:13+00:00	2020-07-20T12:21:13-07:00	2020-07-20T19:50:31+00:00	2020-07-23T06:59:59+00:00	-3	fl3hp2bqqj3ch86@marketplace.amazon.com	Khaliq Alizai	+1 347-448-3190 ext. 18876	ABR0055	Purchase Now for Delivery by Thursday | Arabella Farm Direct Bouquet of 12 Stems of Fresh Cut Hot Pink Roses in a Free Designer Glass Vase	1	0	1	Expedited	Mashal Andish	1991 SUPERIOR CT			TRACY	CA	95304-5991	US			false		
114-1245344-0565807	54530348256498	2020-07-20T19:27:02+00:00	2020-07-20T12:27:02-07:00	2020-07-20T19:53:26+00:00	2020-07-23T06:59:59+00:00	-3	w3pt62h8s25nrg0@marketplace.amazon.com	james foley	+1 347-448-3190 ext. 39953	ABR0022	Purchase Now for Delivery by Thursday | Arabella Farm Direct Bouquet of 12 Fresh Cut Pink Roses with a Free Glass Vase	1	0	1	Expedited	james foley	26472 ARBORETUM WAY UNIT 2203			MURRIETA	CA	92563-7267	US			false		
112-1307715-0662624	08532847676562	2020-07-20T19:39:39+00:00	2020-07-20T12:39:39-07:00	2020-07-20T19:55:05+00:00	2020-07-23T06:59:59+00:00	-3	h0w0dp0h1y4vlpv@marketplace.amazon.com	Guadalupe Camarena	+1 346-307-9643 ext. 57380	ABR0022	Purchase Now for Delivery by Thursday | Arabella Farm Direct Bouquet of 12 Fresh Cut Pink Roses with a Free Glass Vase	1	0	1	Expedited	Jackie Munoz	8460 MAPLE LN			RIVERSIDE	CA	92508-6303	US		Hope that receiving this roses brings you as much joy as it gave me sending them to you. Happy birthday !!! All our love mom and dad From Guadalupe Camarena	false		
114-9559544-5370620	09727594153922	2020-07-20T19:28:09+00:00	2020-07-20T12:28:09-07:00	2020-07-20T19:58:31+00:00	2020-07-23T06:59:59+00:00	-3	s0ywzdppgrnxfgm@marketplace.amazon.com	Fcorral	+1 314-282-9402 ext. 20672	ABR0022	Purchase Now for Delivery by Thursday | Arabella Farm Direct Bouquet of 12 Fresh Cut Pink Roses with a Free Glass Vase	1	0	1	Expedited	Fernando Corral	146 ANTLER RIDGE CT			AZLE	TX	76020-1473	US			false		
114-4665321-5746667	11813324803018	2020-07-20T19:46:12+00:00	2020-07-20T12:46:12-07:00	2020-07-20T20:06:17+00:00	2020-07-23T06:59:59+00:00	-3	18ykcb41p6zfgz4@marketplace.amazon.com	Bill Hollingsworth	+1 346-307-9643 ext. 42015	ABR012	Arabella Farm Direct Bouquet of 18 Fresh Cut Pink Roses with a Free Glass Vase	1	0	1	Expedited	William Hollingsworth	2010 PARKSIDE DR			JANESVILLE	WI	53548-6613	US			false		
113-2121031-9857806	18235808089466	2020-07-20T19:49:02+00:00	2020-07-20T12:49:02-07:00	2020-07-20T20:15:18+00:00	2020-07-23T06:59:59+00:00	-3	ygdnkb0pm2khvpm@marketplace.amazon.com	Christopher BDA	+1 346-307-9643 ext. 48283	ABM010	Purchase Now for Delivery by Thursday | The Spring Fling Bouquet by Arabella Bouquets with a Free Designer Glass Vase	1	0	1	Expedited	Jean Layman	126 SPANISH OAKS TRL			GLEN ROSE	TX	76043-4104	US		Jean,   We have been thinking about you. Hope you are feeling better! From Beavers Wealth Management Group	false		
113-9608408-0807446	20722336782010	2020-07-20T19:47:29+00:00	2020-07-20T12:47:29-07:00	2020-07-20T20:16:26+00:00	2020-07-23T06:59:59+00:00	-3	42gqq4d2d5ntm0f@marketplace.amazon.com	John Haddad	+1 346-307-9643 ext. 21893	ABR0022	Purchase Now for Delivery by Thursday | Arabella Farm Direct Bouquet of 12 Fresh Cut Pink Roses with a Free Glass Vase	1	0	1	Expedited	Zoey Robinson	866 BLUE RIDGE CIR			WEST PALM BEACH	FL	33409-7619	US		I Love You Most Can't wait to kiss you	false		
111-7223110-1933022	29061189548906	2020-07-20T20:53:06+00:00	2020-07-20T13:53:06-07:00	2020-07-20T21:19:02+00:00	2020-07-23T06:59:59+00:00	-3	dkhbkxy45wbrp95@marketplace.amazon.com	Michael Rosch	+1 314-282-9402 ext. 45677	ABM010	Purchase Now for Delivery by Thursday | The Spring Fling Bouquet by Arabella Bouquets with a Free Designer Glass Vase	1	0	1	Expedited	Harriet Fuld	HAPPY BIRTHDAY FROM BEV & MEL	15 MANSION DR		SWEDESBORO	NJ	08085-5061	US			false		
111-5610833-3378602	66008791680546	2020-07-20T20:56:05+00:00	2020-07-20T13:56:05-07:00	2020-07-20T21:23:07+00:00	2020-07-23T06:59:59+00:00	-3	2c768pynvd7d2r5@marketplace.amazon.com	Timothy colleton	+1 415-851-9136 ext. 10911	ABR0022	Purchase Now for Delivery by Thursday | Arabella Farm Direct Bouquet of 12 Fresh Cut Pink Roses with a Free Glass Vase	1	0	1	Expedited	DEE Clayton	5036 JAMMES RD			JACKSONVILLE	FL	32210-7717	US			false		
113-4348714-3953069	61612793475186	2020-07-20T21:44:04+00:00	2020-07-20T14:44:04-07:00	2020-07-20T22:10:48+00:00	2020-07-23T06:59:59+00:00	-3	t1g2fqnmfzw7y6r@marketplace.amazon.com	Susan C. Coles	+1 346-307-9643 ext. 85307	ABR0033	Purchase Now for Delivery by Thursday | Arabella Farm Direct Bouquet of 12 Fresh Cut Orange Roses with a Free Glass Vase	1	0	1	Standard	Mrs. Barbara Igle	2053 PITMAN AVE			BRONX	NY	10466-1923	US		Happy "AUNTS DAY", Aunt Barbara! Thank you for always being so kind, caring and supportive. We love you and appreciate you very much. Susan, Steven, Bella and MARCELLOOO From Susan + Steven + the Gang	false		
112-4085243-0224267	55329611536850	2020-07-20T21:52:23+00:00	2020-07-20T14:52:23-07:00	2020-07-20T22:16:50+00:00	2020-07-23T06:59:59+00:00	-3	xgzt9svbxzjyyzm@marketplace.amazon.com	Alberto Gonzalez	+1 346-307-9643 ext. 08599	ABR0055	Purchase Now for Delivery by Thursday | Arabella Farm Direct Bouquet of 12 Stems of Fresh Cut Hot Pink Roses in a Free Designer Glass Vase	1	0	1	Expedited	Princess Ashley Elizondo	25682 W DESERT DR			BUCKEYE	AZ	85326-5150	US		You are my sunshine From Beto	false		
111-6941112-1993866	28182043275090	2020-07-20T21:56:23+00:00	2020-07-20T14:56:23-07:00	2020-07-20T22:23:46+00:00	2020-07-23T06:59:59+00:00	-3	xmj9594xgtbszfg@marketplace.amazon.com	Seth Winemiller	+1 346-307-9643 ext. 49091	ABR0055	Purchase Now for Delivery by Thursday | Arabella Farm Direct Bouquet of 12 Stems of Fresh Cut Hot Pink Roses in a Free Designer Glass Vase	1	0	1	Expedited	Kristy Brinkerhoff	425 E state st			Orderville	Utah	84758	US			false		
113-7148592-3981833	65336808498778	2020-07-20T22:00:32+00:00	2020-07-20T15:00:32-07:00	2020-07-20T22:28:59+00:00	2020-07-23T06:59:59+00:00	-3	d2fcw51h3hbc99q@marketplace.amazon.com	Jan W Bryant	+1 314-282-9402 ext. 04790	ABR0022	Purchase Now for Delivery by Thursday | Arabella Farm Direct Bouquet of 12 Fresh Cut Pink Roses with a Free Glass Vase	1	0	1	Expedited	Gwen Ford c/o The Gables	701 No. Montgomery St.	#29		OJAI	CA	93023-2430	US		Enjoy your gift! Love from your 4Daughters From Jan ,Lynne,Anne&Mary	false		
114-1171744-7719446	55606520399274	2020-07-20T22:11:16+00:00	2020-07-20T15:11:16-07:00	2020-07-20T22:36:33+00:00	2020-07-23T06:59:59+00:00	-3	sf09j6rwlh9x860@marketplace.amazon.com	Deborah Tyson	+1 346-307-9643 ext. 28301	ABR0055	Purchase Now for Delivery by Thursday | Arabella Farm Direct Bouquet of 12 Stems of Fresh Cut Hot Pink Roses in a Free Designer Glass Vase	1	0	1	Expedited	Geneva Lansdale c/o Countryside Health Center	233 CARROLLTON ST			BUCHANAN	GA	30113-4917	US		Thinking of you.  Because of the covid-19 so unable to visit.  Missing you.  Love,.Lono, Debby, Nathan, Dena, Genevieve, Ishi, Chelsea, Skelton , Juniper From Deborah Tyson	false		
111-4633638-7184240	64274300400578	2020-07-20T22:36:08+00:00	2020-07-20T15:36:08-07:00	2020-07-20T23:02:32+00:00	2020-07-23T06:59:59+00:00	-3	2cj696zhvfkh1gz@marketplace.amazon.com	Jennifer Cimperman	+1 347-448-3190 ext. 25324	ABR0022	Purchase Now for Delivery by Thursday | Arabella Farm Direct Bouquet of 12 Fresh Cut Pink Roses with a Free Glass Vase	1	0	1	Expedited	Tamera Hagerty	2788 TINKERS LN			TWINSBURG	OH	44087-1882	US		Happy birthday, my friend! Wishing you the very best for the year ahead. From Love, Jen	false		
112-2582078-0795462	54149077900010	2020-07-20T22:54:01+00:00	2020-07-20T15:54:01-07:00	2020-07-20T23:20:03+00:00	2020-07-23T06:59:59+00:00	-3	g0v4882fwhdnl1f@marketplace.amazon.com	Donna R. Blocker	+1 346-307-9643 ext. 54114	ABR0022	Purchase Now for Delivery by Thursday | Arabella Farm Direct Bouquet of 12 Fresh Cut Pink Roses with a Free Glass Vase	1	0	1	Expedited	Resa DeSilva	15736 E BLUFF CV			SAN DIEGO	CA	92131-4311	US			false		
111-6689261-9486641	09296793146314	2020-07-20T22:59:53+00:00	2020-07-20T15:59:53-07:00	2020-07-20T23:29:51+00:00	2020-07-23T06:59:59+00:00	-3	g52t83m63mp35qj@marketplace.amazon.com	Ronnie Stoute	+1 415-851-9136 ext. 71279	ABR0055	Purchase Now for Delivery by Thursday | Arabella Farm Direct Bouquet of 12 Stems of Fresh Cut Hot Pink Roses in a Free Designer Glass Vase	1	0	1	Expedited	Ronnie Stoute	470 WOODRAIL DR WEBSTER			WEBSTER	TX	77598-2557	US			false		
113-7876984-1044210	16241620112778	2020-07-20T23:47:45+00:00	2020-07-20T16:47:45-07:00	2020-07-21T00:17:09+00:00	2020-07-23T06:59:59+00:00	-3	ww2zpvkmfp0bw0n@marketplace.amazon.com	paola ruiz	+1 415-851-9136 ext. 95711	ABR012	Arabella Farm Direct Bouquet of 18 Fresh Cut Pink Roses with a Free Glass Vase	1	0	1	Expedited	Maria L Mancini	2222 WESTERLAND DR APT 243			HOUSTON	TX	77063-2216	US		Feliz cumpleaños! We love you! From Pao & Family	false		
113-0627841-8793815	55274054597554	2020-07-20T23:59:36+00:00	2020-07-20T16:59:36-07:00	2020-07-21T00:30:15+00:00	2020-07-23T06:59:59+00:00	-3	8tlgj1ml509v131@marketplace.amazon.com	Lane	+1 347-448-3190 ext. 35478	ABR012	Arabella Farm Direct Bouquet of 18 Fresh Cut Pink Roses with a Free Glass Vase	1	0	1	Expedited	Lane Patterson	73 Marcella Drive			LITTLE ROCK	AR	72223	US			false		
113-6886076-9488212	12711950678978	2020-07-21T00:14:36+00:00	2020-07-20T17:14:36-07:00	2020-07-21T00:41:20+00:00	2020-07-23T06:59:59+00:00	-3	s3gd99n2h35xzkj@marketplace.amazon.com	Ben Brekken	+1 346-307-9643 ext. 47576	ABR0022	Purchase Now for Delivery by Thursday | Arabella Farm Direct Bouquet of 12 Fresh Cut Pink Roses with a Free Glass Vase	1	0	1	Expedited	Andria Murphy	1703 BAXTER AVE			SUPERIOR	WI	54880-2849	US			false		
114-5528983-6145037	63441957568794	2020-07-21T00:30:06+00:00	2020-07-20T17:30:06-07:00	2020-07-21T00:54:46+00:00	2020-07-23T06:59:59+00:00	-3	8tgn2l8gwnr4y1t@marketplace.amazon.com	Laurie Bamford	+1 415-851-9136 ext. 17909	ABR0055	Purchase Now for Delivery by Thursday | Arabella Farm Direct Bouquet of 12 Stems of Fresh Cut Hot Pink Roses in a Free Designer Glass Vase	1	0	1	Expedited	Mary Likely	2175 S OCEAN BLVD APT 405			DELRAY BEACH	FL	33483-6493	US		Dearest Mary,  Happy belated birthday!  We love and miss you soo... very much.   Love, Laurie, John, and Lyle From Laurie Bamford	false		
112-4736623-7899451	62729093726930	2020-07-21T00:33:22+00:00	2020-07-20T17:33:22-07:00	2020-07-21T01:00:32+00:00	2020-07-23T06:59:59+00:00	-3	62cjkbjgsl9pgk3@marketplace.amazon.com	Nancy Powers	+1 347-448-3190 ext. 72065	ABR0022	Purchase Now for Delivery by Thursday | Arabella Farm Direct Bouquet of 12 Fresh Cut Pink Roses with a Free Glass Vase	1	0	1	Expedited	Mimi Hristova	277 ASH AVE			WOOD DALE	IL	60191-1662	US		Congratulations Grandma!  It is a tradition in our family to send a dozen roses when a baby is born! We consider you our family! We are so happy for your family! From Merrill and Nancy Powers	false		
112-8203036-8419412	25569009388602	2020-07-21T00:58:25+00:00	2020-07-20T17:58:25-07:00	2020-07-21T01:25:26+00:00	2020-07-23T06:59:59+00:00	-3	9vv6b6qjxn7z2qx@marketplace.amazon.com	Stefanie Powers	+1 346-307-9643 ext. 09355	ABM010	Purchase Now for Delivery by Thursday | The Spring Fling Bouquet by Arabella Bouquets with a Free Designer Glass Vase	1	0	1	Expedited	Stefanie Powers	OFFICE 66 DAUGHTREY AVE			WACO	TX	76706-1696	US		Happy Birthday! We love you so much. ❤️ Love, your family. From Family	false		
111-4853040-4753041	30289383850882	2020-07-21T01:19:29+00:00	2020-07-20T18:19:29-07:00	2020-07-21T01:42:53+00:00	2020-07-23T06:59:59+00:00	-3	gdnsscjxjrmgzfw@marketplace.amazon.com	LaKesha Leonard	+1 314-282-9402 ext. 99906	ABR0055	Purchase Now for Delivery by Thursday | Arabella Farm Direct Bouquet of 12 Stems of Fresh Cut Hot Pink Roses in a Free Designer Glass Vase	1	0	1	Expedited	Tenille Chism	507 GLOVER AVE APT 35			ENTERPRISE	AL	36330-2095	US		SOCIAL DISTANCING LOVE! Beautiful Flowers For My BEAUTIFUL Bestie! Happy Blessed Birthday To My BESTIE, My SISTER! May God BLESS You With MANY MUCH MORE Birthdays! Enjoy your gift! I Love You! From LaKesha Leonard	false		
114-5495537-4265810	04931299844426	2020-07-21T01:23:37+00:00	2020-07-20T18:23:37-07:00	2020-07-21T01:53:41+00:00	2020-07-23T06:59:59+00:00	-3	5t4vgq878d5j5c2@marketplace.amazon.com	Bryan epperson	402024176	ABR0022	Purchase Now for Delivery by Thursday | Arabella Farm Direct Bouquet of 12 Fresh Cut Pink Roses with a Free Glass Vase	1	0	1	Expedited	Bryan epperson	1021 east 58th street south			Muskogee	Oklahoma	74403	US			false		
113-2298028-4701052	59845256432298	2020-07-21T01:24:54+00:00	2020-07-20T18:24:54-07:00	2020-07-21T01:55:20+00:00	2020-07-23T06:59:59+00:00	-3	86p1sl4j98y03gz@marketplace.amazon.com	Andino	+1 346-307-9643 ext. 20329	ABR001	Purchase Now for Delivery by Thursday | Arabella Bouquets 12 Stems of Fresh Cut Red Roses in a Free Designer Glass Vase	1	0	1	Expedited	Marco’s Andino	10146 quay dr Indianapolis in 46234	House		Indianapolis	Indiana	46234	US			false		
113-3136763-1320218	58630763480834	2020-07-21T01:28:48+00:00	2020-07-20T18:28:48-07:00	2020-07-21T01:56:14+00:00	2020-07-23T06:59:59+00:00	-3	g81q9sqxkct65ln@marketplace.amazon.com	Bill Brown	+1 347-448-3190 ext. 29561	ABR004	Arabella Farm Direct Bouquet of 12 Fresh Cut Yellow Roses with a Free Glass Vase	1	0	1	Expedited	Barbara Nargi	8 TILL ROCK LN			MILFORD	MA	01757-1222	US		Happy Birthday Mom! So grateful for the gift of you! We Love You! xxxooo From Debbie, Bill, Nick, Lisa, & Leo too!	false		
112-4236510-4454618	11406571588682	2020-07-21T01:56:46+00:00	2020-07-20T18:56:46-07:00	2020-07-21T02:23:21+00:00	2020-07-23T06:59:59+00:00	-3	7f1mkcb7152380m@marketplace.amazon.com	Linda Couture	+1 346-307-9643 ext. 84608	ABM010	Purchase Now for Delivery by Thursday | The Spring Fling Bouquet by Arabella Bouquets with a Free Designer Glass Vase	1	0	1	Expedited	Mrs. William Jackman	11481 OSPREY LANDING WAY			FORT MYERS	FL	33908-4970	US		Get well soon, Melanie,    Love, Vicki, Linda, Fritzi, Joanne and Jean From Linda Couture	false		
111-5648925-8921040	15799210635682	2020-07-21T02:09:35+00:00	2020-07-20T19:09:35-07:00	2020-07-21T02:32:26+00:00	2020-07-23T06:59:59+00:00	-3	x5972m7pmmj5pn9@marketplace.amazon.com	Retta A Glander	+1 347-448-3190 ext. 01800	ABR0022	Purchase Now for Delivery by Thursday | Arabella Farm Direct Bouquet of 12 Fresh Cut Pink Roses with a Free Glass Vase	1	0	1	Expedited	Richard High	HOUSE 4236 NW 9TH AVE			CAMAS	WA	98607-8179	US		Sending our love to you and the family. Such a sad time. Sending love to all   Love Aunt Norma From Retta A Glander	false		
113-5632597-3674624	67937413767602	2020-07-21T02:06:33+00:00	2020-07-20T19:06:33-07:00	2020-07-21T02:35:11+00:00	2020-07-23T06:59:59+00:00	-3	jhn8fwbm9mbb4kb@marketplace.amazon.com	Tim	+1 314-282-9402 ext. 09820	ABR0022	Purchase Now for Delivery by Thursday | Arabella Farm Direct Bouquet of 12 Fresh Cut Pink Roses with a Free Glass Vase	1	0	1	Expedited	Janet mentink	719 HACIENDA AVE			DAVIS	CA	95616-0126	US		Happy Birthday aunt Janet love you! From Tim	false		
113-7090403-1066604	03006168935034	2020-07-21T02:31:54+00:00	2020-07-20T19:31:54-07:00	2020-07-21T03:00:53+00:00	2020-07-23T06:59:59+00:00	-3	rtk2vlkp28qfl01@marketplace.amazon.com	Donna Giordano	+1 346-307-9643 ext. 00713	ABR0022	Purchase Now for Delivery by Thursday | Arabella Farm Direct Bouquet of 12 Fresh Cut Pink Roses with a Free Glass Vase	1	0	1	Expedited	Kathy Bordengo	271 EASTLAKE AVE			MASSAPEQUA PARK	NY	11762-1834	US		Hope you are feeling better soon. From Donna Giordano	false		
111-4606441-2690621	66264172359610	2020-07-21T02:34:37+00:00	2020-07-20T19:34:37-07:00	2020-07-21T03:01:53+00:00	2020-07-23T06:59:59+00:00	-3	jglvxc710hrd42k@marketplace.amazon.com	magaly	+1 346-307-9643 ext. 24430	ABR0022	Purchase Now for Delivery by Thursday | Arabella Farm Direct Bouquet of 12 Fresh Cut Pink Roses with a Free Glass Vase	1	0	1	Expedited	Blanca Roman/Ocon	16652 ISLAND CIR APT 2			HUNTINGTON BEACH	CA	92649-3554	US		Beautiful roses for my beautiful mamá!  Siempre en mi mente y corazón 💖 From magaly	false		
111-0374489-9653866	39280628548402	2020-07-21T02:13:09+00:00	2020-07-20T19:13:09-07:00	2020-07-21T03:02:54+00:00	2020-07-23T06:59:59+00:00	-3	05rks001hxfyz6m@marketplace.amazon.com	Jai Joseph	+1 415-851-9136 ext. 93795	ABR0055	Purchase Now for Delivery by Thursday | Arabella Farm Direct Bouquet of 12 Stems of Fresh Cut Hot Pink Roses in a Free Designer Glass Vase	1	0	1	Expedited	Benjamin Joseph	835 BRIARPOINT PL			SAN DIEGO	CA	92154-6457	US			false		
111-5940617-9302621	03502182642250	2020-07-21T03:16:14+00:00	2020-07-20T20:16:14-07:00	2020-07-21T03:45:48+00:00	2020-07-23T06:59:59+00:00	-3	jgjnp7gt82m8qf6@marketplace.amazon.com	Maria	+1 347-448-3190 ext. 46586	ABR0022	Purchase Now for Delivery by Thursday | Arabella Farm Direct Bouquet of 12 Fresh Cut Pink Roses with a Free Glass Vase	1	0	1	Expedited	Caitlyn MacKay	1515 N SANTA CLARA RD			MARION	TX	78124-1738	US		Happy Birthday! I love and miss you. I hope you're staying healthy and safe. Very proud of you! Maria, Travis and Nutmeg From Maria	false		
111-0647879-2989868	22018526875666	2020-07-21T03:17:15+00:00	2020-07-20T20:17:15-07:00	2020-07-21T03:46:19+00:00	2020-07-23T06:59:59+00:00	-3	jhgkhw866sy6ht7@marketplace.amazon.com	Dawn Sabatello	+1 314-282-9402 ext. 30357	ABM0033	Purchase Now for Delivery by Thursday | Arabella Farm Direct Bouquet of Fresh Cut White Hydrangea with a Free Glass Vase	2	0	2	Expedited	Dawn Sabatello	5002 WHISPERING HOLW			PALM BEACH GARDENS	FL	33418-3536	US			false		
111-5593559-6289022	37399293743226	2020-07-21T04:47:25+00:00	2020-07-20T21:47:25-07:00	2020-07-21T05:16:34+00:00	2020-07-23T06:59:59+00:00	-3	174qjvs75633650@marketplace.amazon.com	Jeffrey Dick	+1 346-307-9643 ext. 07808	ABR004	Arabella Farm Direct Bouquet of 12 Fresh Cut Yellow Roses with a Free Glass Vase	1	0	1	Expedited	Izzy Kroll	1550 HEATHERNOEL WAY			TURLOCK	CA	95382-1337	US			false		
111-8418086-2910613	68271096203722	2020-07-21T04:56:28+00:00	2020-07-20T21:56:28-07:00	2020-07-21T05:21:52+00:00	2020-07-23T06:59:59+00:00	-3	nmxfsn6vflld669@marketplace.amazon.com	Judith Singer	+1 314-282-9402 ext. 51433	ABR0022	Purchase Now for Delivery by Thursday | Arabella Farm Direct Bouquet of 12 Fresh Cut Pink Roses with a Free Glass Vase	1	0	1	Expedited	L. Annette Binder	80 POUT POND LN			LYME	NH	03768-3708	US		Congratulations!  Hope its a best seller. Love, J From Judith Singer	false		
