order-id	order-item-id	purchase-date	payments-date	reporting-date	promise-date	days-past-promise	buyer-email	buyer-name	buyer-phone-number	sku	product-name	quantity-purchased	quantity-shipped	quantity-to-ship	ship-service-level	recipient-name	ship-address-1	ship-address-2	ship-address-3	ship-city	ship-state	ship-postal-code	ship-country	gift-wrap-type	gift-message-text	is-business-order	purchase-order-number	price-designation
114-2162468-0952225	28463844059482	2020-07-18T13:49:00+00:00	2020-07-18T06:49:00-07:00	2020-07-18T14:19:43+00:00	2020-07-22T06:59:59+00:00	-2	p1f9v7z0zygskxk@marketplace.amazon.com	sean morrison	+1 415-851-9136 ext. 52440	ABM010	Purchase Now for Delivery by Tuesday | The Spring Fling Bouquet by Arabella Bouquets with a Free Designer Glass Vase	1	0	1	Expedited	sean morrison	1982 madison avenue	apt 1		new york	NY	10035	US			false		
112-2502490-0335402	61408292958994	2020-07-18T13:57:03+00:00	2020-07-18T06:57:03-07:00	2020-07-18T14:21:18+00:00	2020-07-22T06:59:59+00:00	-2	14gyljnz5xy7c50@marketplace.amazon.com	Nathaniel	+1 347-448-3190 ext. 70076	ABM010	Purchase Now for Delivery by Tuesday | The Spring Fling Bouquet by Arabella Bouquets with a Free Designer Glass Vase	1	0	1	Expedited	Nathaniel Colglazier	989 COUNTY STREET 2930			TUTTLE	OK	73089-3029	US			false		
112-1877930-5507456	28203509970402	2020-07-18T14:56:37+00:00	2020-07-18T07:56:37-07:00	2020-07-18T15:22:19+00:00	2020-07-22T06:59:59+00:00	-2	lw17wks3t3yvmxj@marketplace.amazon.com	Vicki Marshall	+1 415-851-9136 ext. 87525	ABM010	The Spring Fling Bouquet by Arabella Bouquets with a Free Designer Glass Vase	1	0	1	Standard	SERENA SCHMITZ	29 RADTKE RD			RANDOLPH	NJ	07869-3812	US		🎶Happy Birthday to You🎶!! Hope your Day is as Special as You ! All My Love Forever!! From Mom	false		
111-0700845-0944211	34299404408882	2020-07-18T15:15:34+00:00	2020-07-18T08:15:34-07:00	2020-07-18T15:43:08+00:00	2020-07-22T06:59:59+00:00	-2	8xny2s14zgr0m7r@marketplace.amazon.com	George Affe	+1 347-448-3190 ext. 64480	ABR0055	Purchase Now for Delivery by Wednesday | Arabella Farm Direct Bouquet of 12 Stems of Fresh Cut Hot Pink Roses in a Free Designer Glass Vase	1	0	1	Expedited	Irina Belyaeva	13063 WALLICH WAY			GERMANTOWN	MD	20874-1887	US			false		
111-3206353-2149852	54068507282682	2020-07-18T16:29:30+00:00	2020-07-18T09:29:30-07:00	2020-07-18T16:46:47+00:00	2020-07-22T06:59:59+00:00	-2	mtymbpbjrwl6q04@marketplace.amazon.com	Jill McGinn	+1 210-728-4548 ext. 93146	ABM010	Purchase Now for Delivery by Wednesday | The Spring Fling Bouquet by Arabella Bouquets with a Free Designer Glass Vase	1	0	1	Expedited	Becky Johncox	408 E ALTO DR			HOBBS	NM	88240-4002	US		Dearest Becky, My heart goes out to you for the loss of your mother and all you have been through. You deserve some beauty in your life! Enjoy! Much love, Jill From Jill McGinn	false		
111-3461163-8172240	04048258993322	2020-07-18T16:42:30+00:00	2020-07-18T09:42:30-07:00	2020-07-18T17:07:17+00:00	2020-07-22T06:59:59+00:00	-2	bl6z384bn2n3xh9@marketplace.amazon.com	Carol A Yerger	+1 314-282-9402 ext. 37585	ABR0022	Purchase Now for Delivery by Wednesday | Arabella Farm Direct Bouquet of 12 Fresh Cut Pink Roses with a Free Glass Vase	1	0	1	Expedited	Elizabeth Yerger	367 KEESE MILLS RD			PAUL SMITHS	NY	12970-2007	US		Welcome home Eloise Caroline Hayes Trahey! Our world is better because you are in it. Sending much love to you all, Grandma, Phil, Aunt Allison and Uncle Travis From Mom/Grandma	false		
114-5116650-9722662	39171485364842	2020-07-18T17:33:48+00:00	2020-07-18T10:33:48-07:00	2020-07-18T18:00:02+00:00	2020-07-22T06:59:59+00:00	-2	k0rw3n03662f79x@marketplace.amazon.com	Leslie Reid	+1 314-282-9402 ext. 97375	ABR001	Purchase Now for Delivery by Wednesday | Arabella Bouquets 12 Stems of Fresh Cut Red Roses in a Free Designer Glass Vase	1	0	1	Expedited	Alane Hall	950 RED SANDSTONE RD UNIT 23			VAIL	CO	81657-4043	US		Happy Birthday!  Next Year in Paris! From Leslie Reid	false		
112-9282215-1485004	26667150947434	2020-07-18T19:33:13+00:00	2020-07-18T12:33:13-07:00	2020-07-18T20:02:08+00:00	2020-07-22T06:59:59+00:00	-2	k4zsy2yfx9p2qg7@marketplace.amazon.com	Kristen Ruth Jakobsen	503	ABM010	Purchase Now for Delivery by Wednesday | The Spring Fling Bouquet by Arabella Bouquets with a Free Designer Glass Vase	1	0	1	Expedited	Jack Jakobsen	MADRONA GROVE - ROSE VILLA SENIOR LIVING COMMUNITY	13505 SE RIVER RD		PORTLAND	OR	97222-8038	US		HAPPY BIRTHDAY DAD!!! I wish I could be with you today, but I know I will see you soon.   I LOVE YOU!! Kris From Kristen Jakobsen	false		
113-8887310-2385853	47896953563482	2020-07-18T19:32:38+00:00	2020-07-18T12:32:38-07:00	2020-07-18T20:02:18+00:00	2020-07-22T06:59:59+00:00	-2	8f8dltl61rzwhmz@marketplace.amazon.com	luanaDhillin	+1 415-851-9136 ext. 48533	ABR0022	Purchase Now for Delivery by Wednesday | Arabella Farm Direct Bouquet of 12 Fresh Cut Pink Roses with a Free Glass Vase	1	0	1	Expedited	Peter and Sonja Patti	43352 MODENA DR			TEMECULA	CA	92592-9397	US			false		
114-8594011-8825812	21842890939218	2020-07-18T20:27:26+00:00	2020-07-18T13:27:26-07:00	2020-07-18T20:52:37+00:00	2020-07-22T06:59:59+00:00	-2	gk9qdh0yk4kz1sj@marketplace.amazon.com	Connie Yates	+1 314-282-9402 ext. 13590	ABR0033	Purchase Now for Delivery by Wednesday | Arabella Farm Direct Bouquet of 12 Fresh Cut Orange Roses with a Free Glass Vase	1	0	1	Expedited	Minder Salazar	41161 W CURTIS LN			MARICOPA	AZ	85138-5460	US		Hi Mindee, Love you sister, so for your loss, sending love and small gifts to remind you we support you! From the Yates Family	false		
113-5399087-2965018	13485279860634	2020-07-18T20:52:21+00:00	2020-07-18T13:52:21-07:00	2020-07-18T21:14:50+00:00	2020-07-22T06:59:59+00:00	-2	mqdz69h2qjtdpry@marketplace.amazon.com	Blake Pernicka	+1 346-307-9643 ext. 87523	ABR0022	Purchase Now for Delivery by Wednesday | Arabella Farm Direct Bouquet of 12 Fresh Cut Pink Roses with a Free Glass Vase	1	0	1	Expedited	Katy Herbert	1104 COUNTRY CLUB DR			TULLAHOMA	TN	37388-2553	US		Thank you for being such a great friend. I hope you're feeling well and are on the road to a quick recovery:) From Andrea	false		
114-7731909-2298655	18544631759202	2020-07-18T21:37:07+00:00	2020-07-18T14:37:07-07:00	2020-07-18T22:07:05+00:00	2020-07-22T06:59:59+00:00	-2	78l33wy3k47jnwm@marketplace.amazon.com	Matt	+1 346-307-9643 ext. 33735	ABR0022	Purchase Now for Delivery by Wednesday | Arabella Farm Direct Bouquet of 12 Fresh Cut Pink Roses with a Free Glass Vase	1	0	1	Expedited	Keiko Yamanoi (Chloe )	628 E 26TH ST			BROOKLYN	NY	11210-2148	US			false		
111-0650996-1626636	24829340001346	2020-07-18T21:54:43+00:00	2020-07-18T14:54:43-07:00	2020-07-18T22:18:11+00:00	2020-07-22T06:59:59+00:00	-2	x1hzk7jlxfqqxhl@marketplace.amazon.com	MICK LLOYD	+1 346-307-9643 ext. 20175	ABR0022	Purchase Now for Delivery by Wednesday | Arabella Farm Direct Bouquet of 12 Fresh Cut Pink Roses with a Free Glass Vase	1	0	1	Expedited	MICK LLOYD	2925 PAPER MILL BRIDGE RD			THOMPSONS STATION	TN	37179-5449	US		You are my love, strength, and a wonderful Wife! From MICK LLOYD	false		
112-0315673-4572266	61324609400346	2020-07-18T22:41:00+00:00	2020-07-18T15:41:00-07:00	2020-07-18T23:09:39+00:00	2020-07-22T06:59:59+00:00	-2	jm121c379lvh8rb@marketplace.amazon.com	Joshua Ritchie	+1 346-307-9643 ext. 72200	ABR0033	Purchase Now for Delivery by Wednesday | Arabella Farm Direct Bouquet of 12 Fresh Cut Orange Roses with a Free Glass Vase	1	0	1	Expedited	Benita oatis	3854 S MINER ST APT 1			MILWAUKEE	WI	53221-1251	US		Hello Beautiful Enjoy With love  Steven	false		
111-4924547-1194625	37031817859010	2020-07-18T22:41:33+00:00	2020-07-18T15:41:33-07:00	2020-07-18T23:10:16+00:00	2020-07-22T06:59:59+00:00	-2	j4sqx67yy44fvkq@marketplace.amazon.com	Eric Olson	+1 346-307-9643 ext. 60294	ABR012	Purchase Now for Delivery by Wednesday | Arabella Farm Direct Bouquet of 18 Fresh Cut Pink Roses with a Free Glass Vase	1	0	1	Expedited	Forrest Olson	4350 PALM AVE A307			LA MESA	CA	91941-6568	US		Happy 1st Anniversary Forrest and Kiana We love you to the moon and back. Dad and Mom From Eric Olson	false		
113-1635601-9140262	29522977950634	2020-07-18T22:54:55+00:00	2020-07-18T15:54:55-07:00	2020-07-18T23:24:26+00:00	2020-07-22T06:59:59+00:00	-2	2swgwt4qgg3hj34@marketplace.amazon.com	Karen Wise	+1 346-307-9643 ext. 82110	ABM010	Purchase Now for Delivery by Wednesday | The Spring Fling Bouquet by Arabella Bouquets with a Free Designer Glass Vase	1	0	1	Expedited	Kelly Purves	254 JEANNE DR			PLEASANT HILL	CA	94523-2231	US		Thank you Kelly! It was so special to stay with you.  Love, Karen From Karen Wise	false		
113-9781287-5706637	13265459264274	2020-07-19T01:01:35+00:00	2020-07-18T18:01:35-07:00	2020-07-19T01:29:34+00:00	2020-07-22T06:59:59+00:00	-2	4lmrzc5b0z4g0jm@marketplace.amazon.com	zhongheng	+1 347-448-3190 ext. 96527	ABR001	Purchase Now for Delivery by Wednesday | Arabella Bouquets 12 Stems of Fresh Cut Red Roses in a Free Designer Glass Vase	1	0	1	Standard	Qiao Wang	306 HITT ST MANOR HOUSE 5J			COLUMBIA	MO	65201-5082	US		My baby, I hope you can enjoy the gift!                                                                         Mr. Piggy	false		
112-1044227-6865823	14380403749162	2020-07-19T01:31:12+00:00	2020-07-18T18:31:12-07:00	2020-07-19T01:32:09+00:00	2020-07-22T06:59:59+00:00	-2	cksdyf3jqyclq54@marketplace.amazon.com	george griffith	+1 346-307-9643 ext. 86711	ABR0022	Purchase Now for Delivery by Wednesday | Arabella Farm Direct Bouquet of 12 Fresh Cut Pink Roses with a Free Glass Vase	1	0	1	Expedited	Annemarie Baker	2705 STONEBRIDGE BLVD			NEW CASTLE	DE	19720-6737	US		Wishing you a very happy and blessed year, Isaiah 40:11  Love Sandi From Sandra Griffith	false		
111-8298158-4603437	35489745046130	2020-07-19T01:41:29+00:00	2020-07-18T18:41:29-07:00	2020-07-19T02:11:35+00:00	2020-07-22T06:59:59+00:00	-2	nnc1f75l7tb4nmz@marketplace.amazon.com	Marlene fisher	+1 347-448-3190 ext. 35087	ABR0022	Purchase Now for Delivery by Wednesday | Arabella Farm Direct Bouquet of 12 Fresh Cut Pink Roses with a Free Glass Vase	1	0	1	Expedited	Angelina Fisher	19129 SW 29TH CT			MIRAMAR	FL	33029-2510	US			false		
111-4780206-7453039	27525425329490	2020-07-19T01:44:53+00:00	2020-07-18T18:44:53-07:00	2020-07-19T02:12:47+00:00	2020-07-22T06:59:59+00:00	-2	w4bbggcydy1x3fx@marketplace.amazon.com	Sharon M. Prichard	+1 415-851-9136 ext. 72254	ABM010	Purchase Now for Delivery by Wednesday | The Spring Fling Bouquet by Arabella Bouquets with a Free Designer Glass Vase	1	0	1	Expedited	Shirley Langston	76 CROATAN RD			NEWPORT NEWS	VA	23606-2617	US		Shirley, We hope this brightens your day!  We have heard so many nice things about you from Brenda and Nicole, we feel we know you! From Linda & Sam.	false		
114-4042452-6371422	56500683043666	2020-07-19T02:57:47+00:00	2020-07-18T19:57:47-07:00	2020-07-19T03:26:12+00:00	2020-07-22T06:59:59+00:00	-2	2v87936mvy7k7kr@marketplace.amazon.com	kurt whitcomb	+1 346-307-9643 ext. 67442	ABR0022	Purchase Now for Delivery by Wednesday | Arabella Farm Direct Bouquet of 12 Fresh Cut Pink Roses with a Free Glass Vase	1	0	1	Expedited	Candee Waite	423 BROADHEAD AVE			JAMESTOWN	NY	14701-8161	US		Thinking of you!  Constantly!    You, my love, are beautiful and sexy! From Him	false		
113-5344111-4345831	19670625616218	2020-07-19T03:10:34+00:00	2020-07-18T20:10:34-07:00	2020-07-19T03:38:01+00:00	2020-07-22T06:59:59+00:00	-2	fj8pwr76qg43bk4@marketplace.amazon.com	Caleb Fuesling	+1 346-307-9643 ext. 32429	ABR0022	Purchase Now for Delivery by Wednesday | Arabella Farm Direct Bouquet of 12 Fresh Cut Pink Roses with a Free Glass Vase	1	0	1	Expedited	Caleb Fuesling	4116 HIGHWAY 7 S			ARKADELPHIA	AR	71923-8514	US		I love you Autumn Bailey From Caleb Fuesling	false		
112-5650460-1144232	68239152704730	2020-07-19T03:08:41+00:00	2020-07-18T20:08:41-07:00	2020-07-19T03:39:03+00:00	2020-07-22T06:59:59+00:00	-2	61pfh1pjrwhsr17@marketplace.amazon.com	Tina dentler	+1 346-307-9643 ext. 61051	ABR0022	Purchase Now for Delivery by Wednesday | Arabella Farm Direct Bouquet of 12 Fresh Cut Pink Roses with a Free Glass Vase	1	0	1	Expedited	Kelly gines	13841 N 21ST WAY			PHOENIX	AZ	85022-4649	US			false		
111-6143882-0976259	17935016575002	2020-07-19T03:13:07+00:00	2020-07-18T20:13:07-07:00	2020-07-19T03:40:41+00:00	2020-07-22T06:59:59+00:00	-2	6wpk79xz4434sc1@marketplace.amazon.com	Antonio Del Castillo	+1 346-307-9643 ext. 45873	ABR0022	Purchase Now for Delivery by Wednesday | Arabella Farm Direct Bouquet of 12 Fresh Cut Pink Roses with a Free Glass Vase	1	0	1	Expedited	Maggie Almeida	9001 SW 64TH CT			MIAMI	FL	33156-1824	US		Congrats on your new Job! From Antonio Del Castillo	false		
113-6296998-1995423	36908040501954	2020-07-19T05:25:49+00:00	2020-07-18T22:25:49-07:00	2020-07-19T05:50:46+00:00	2020-07-22T06:59:59+00:00	-2	8wcfjzfh4r52cwl@marketplace.amazon.com	Satoru Koga	+1 346-307-9643 ext. 47746	ABR0022	Purchase Now for Delivery by Wednesday | Arabella Farm Direct Bouquet of 12 Fresh Cut Pink Roses with a Free Glass Vase	1	0	1	Expedited	Roselee Root	19 HILLVALE RD			SYOSSET	NY	11791-6916	US		Dear Roselee, Happy Birthday! From Yoko Koga	false		
114-7345295-9337017	50991028113514	2020-07-19T06:00:01+00:00	2020-07-18T23:00:01-07:00	2020-07-19T06:25:09+00:00	2020-07-22T06:59:59+00:00	-2	4063m8g2y345dd2@marketplace.amazon.com	Stacy Faison	+1 347-448-3190 ext. 17689	ABM0033	Purchase Now for Delivery by Wednesday | Arabella Farm Direct Bouquet of Fresh Cut White Hydrangea with a Free Glass Vase	1	0	1	Expedited	Connie O'Brien	C/O KENNEDY HEALTH AND REHABILITATION	504 N JOHN REDDITT DR		LUFKIN	TX	75904-2644	US		We miss you and we know y'all are so isolated in there. We hope your big personality is keeping everyone entertained! We hope your roommate will enjoy these flowers too. From Stacy, Elaine, Jacqueline, Candy Wadsworth and Kay Gibbs (AC)	false		
114-8726358-2521868	38073721604226	2020-07-19T08:28:07+00:00	2020-07-19T01:28:07-07:00	2020-07-19T08:58:16+00:00	2020-07-22T06:59:59+00:00	-2	gj789cyfwtfxlqd@marketplace.amazon.com	Edward T. Maguire	+1 314-282-9402 ext. 58641	ABR001	Purchase Now for Delivery by Wednesday | Arabella Bouquets 12 Stems of Fresh Cut Red Roses in a Free Designer Glass Vase	1	0	1	Expedited	Patricia Maguire / Brightview	1 SYMMES RD	APT 2		ARLINGTON	MA	02474	US			false		
113-1773404-2343430	02675621832578	2020-07-19T11:23:45+00:00	2020-07-19T04:23:45-07:00	2020-07-19T11:54:24+00:00	2020-07-22T06:59:59+00:00	-2	rpznvrsgd8wf5bd@marketplace.amazon.com	Jeffrey Ingram	+1 346-307-9643 ext. 41310	ABB001	Arabella Farm Direct Fresh Cut White Hydrangea	1	0	1	Expedited	Jeffrey D Ingram	2266 3600 AVE			JUNCTION CITY	KS	66441-8725	US			false		
112-7827443-4089815	52507084625266	2020-07-19T14:25:49+00:00	2020-07-19T07:25:49-07:00	2020-07-19T14:45:45+00:00	2020-07-22T06:59:59+00:00	-2	tjf6w6bk3krv5vn@marketplace.amazon.com	Bobbi Montgomery	+1 347-448-3190 ext. 08334	ABR0055	Purchase Now for Delivery by Wednesday | Arabella Farm Direct Bouquet of 12 Stems of Fresh Cut Hot Pink Roses in a Free Designer Glass Vase	1	0	1	Expedited	Alice Honeywell	106 Pine Ridge Trail			MADISON	WI	53717-1513	US		I hope you enjoy another plant for your deck,  Love you, Bobbi From Bobbi Montgomery	false		
114-9825095-7085029	69453815296802	2020-07-19T14:42:50+00:00	2020-07-19T07:42:50-07:00	2020-07-19T15:09:38+00:00	2020-07-22T06:59:59+00:00	-2	9sqcvp3wf6c1d1r@marketplace.amazon.com	julie dock	+1 346-307-9643 ext. 19202	ABR0022	Purchase Now for Delivery by Wednesday | Arabella Farm Direct Bouquet of 12 Fresh Cut Pink Roses with a Free Glass Vase	1	0	1	Expedited	Zahava and Yaakov Fox	240 E SHORE RD			GREAT NECK	NY	11023-2438	US		Thank you so much for giving Elie Meir the zchus to learn in your special yeshiva by hosting him so many times! We are very grateful to you for being so gracious. From julie dock	false		
112-2280369-7753816	16588481824034	2020-07-19T15:26:09+00:00	2020-07-19T08:26:09-07:00	2020-07-19T15:55:14+00:00	2020-07-22T06:59:59+00:00	-2	y5xp1dmyn4rx9vd@marketplace.amazon.com	Wanda Kusy-Capenter	+1 314-282-9402 ext. 50870	ABR0022	Purchase Now for Delivery by Wednesday | Arabella Farm Direct Bouquet of 12 Fresh Cut Pink Roses with a Free Glass Vase	1	0	1	Expedited	Evelyn Kusy	14331 FM 957			SCHULENBURG	TX	78956-5866	US		May your day be filled with joy and love!! Happy Birthday!! From love Wanda and David	false		
113-7367914-3860213	54681609355426	2020-07-19T15:33:42+00:00	2020-07-19T08:33:42-07:00	2020-07-19T15:55:24+00:00	2020-07-22T06:59:59+00:00	-2	z8r65qnrm2tmrdy@marketplace.amazon.com	M Maureen Krier	+1 346-307-9643 ext. 59300	ABR0022	Purchase Now for Delivery by Wednesday | Arabella Farm Direct Bouquet of 12 Fresh Cut Pink Roses with a Free Glass Vase	1	0	1	Expedited	M Maureen Krier	36 Winter Lane			FRAMINGHAM	MA	01702	US		A very belated birthday gift, but with sincere best wishes. The last few weeks have been very stressful - Donald was quite ill, hospitalized for twelve days, hopefully now is on the mend. Will call soon, Love, Maureen From Maureen Krier	false		
111-0145887-4523479	25106826725218	2020-07-19T16:30:33+00:00	2020-07-19T09:30:33-07:00	2020-07-19T16:59:09+00:00	2020-07-22T06:59:59+00:00	-2	b8x2bs76wjyt585@marketplace.amazon.com	Maria Skrabec	+1 346-307-9643 ext. 63196	ABR0033	Purchase Now for Delivery by Wednesday | Arabella Farm Direct Bouquet of 12 Fresh Cut Orange Roses with a Free Glass Vase	1	0	1	Expedited	Nancy Vegel	1714 REDWING DR			SOUTHLAKE	TX	76092-5810	US		Happy 60 th birthday!!! Love the Skrabecs and Mama Vegel From Maria Skrabec	false		
112-2254518-2189036	37464224865082	2020-07-19T19:50:20+00:00	2020-07-19T12:50:20-07:00	2020-07-19T20:16:51+00:00	2020-07-22T06:59:59+00:00	-2	sq9xdfrwgs6jy84@marketplace.amazon.com	paul nelson	+1 346-307-9643 ext. 96612	ABM010	Purchase Now for Delivery by Wednesday | The Spring Fling Bouquet by Arabella Bouquets with a Free Designer Glass Vase	1	0	1	Expedited	Sandy Hollenshead	4149 N LA JOLLA DR			PRESCOTT VALLEY	AZ	86314-7615	US		Sandy, Thinking of you.  Love, Paul & Margaret From paul nelson	false		
114-4062859-7924248	70085743655946	2020-07-19T20:38:46+00:00	2020-07-19T13:38:46-07:00	2020-07-19T21:05:33+00:00	2020-07-22T06:59:59+00:00	-2	d5rr8tqs9bkbs7q@marketplace.amazon.com	yash sachdeva	+1 314-282-9402 ext. 03560	ABR0022	Purchase Now for Delivery by Wednesday | Arabella Farm Direct Bouquet of 12 Fresh Cut Pink Roses with a Free Glass Vase	1	0	1	Expedited	rachita kabra	251 BRANDON ST APT 406			SAN JOSE	CA	95134-3658	US		While you're so far away, You still make my heart sway, I didn't know it until today, But I have loved you more everyday. I miss you babe. From yash	false		
113-2060745-9711400	54829044227154	2020-07-19T21:34:36+00:00	2020-07-19T14:34:36-07:00	2020-07-19T22:02:36+00:00	2020-07-22T06:59:59+00:00	-2	q3dx4wvhs7mr78m@marketplace.amazon.com	Megan H Hackel	+1 346-307-9643 ext. 45089	ABR0055	Purchase Now for Delivery by Wednesday | Arabella Farm Direct Bouquet of 12 Stems of Fresh Cut Hot Pink Roses in a Free Designer Glass Vase	1	0	1	Expedited	Nancy Schmitz	1403 TIMBER RIDGE TRL			WATERTOWN	WI	53098-3409	US			false		
112-0392403-2284241	07057627878890	2020-07-19T22:27:51+00:00	2020-07-19T15:27:51-07:00	2020-07-19T22:52:40+00:00	2020-07-22T06:59:59+00:00	-2	chn68zdndvbfm4p@marketplace.amazon.com	Kanang Yuen	+1 347-448-3190 ext. 01965	ABR0022	Purchase Now for Delivery by Wednesday | Arabella Farm Direct Bouquet of 12 Fresh Cut Pink Roses with a Free Glass Vase	1	0	1	Expedited	WaiMan Chan	1146 WETLAND RIDGE CIR			MIDDLEBURG	FL	32068-8744	US		Enjoy your gift! We are keeping in our prayers.   Yuen Family From Yuen Family	false		
112-6756369-6807439	26005321646098	2020-07-19T22:46:04+00:00	2020-07-19T15:46:04-07:00	2020-07-19T23:15:47+00:00	2020-07-22T06:59:59+00:00	-2	0tqk90lh3pspk6f@marketplace.amazon.com	Jordie	+1 347-448-3190 ext. 02312	ABR001	Purchase Now for Delivery by Wednesday | Arabella Bouquets 12 Stems of Fresh Cut Red Roses in a Free Designer Glass Vase	1	0	1	Expedited	Roslyn Boyer	19186 WHITE DOVE LN			RIVERSIDE	CA	92508-6034	US		To: Roslyn ❤️ From Jordie	false		
113-3570936-9353803	40937613234994	2020-07-19T23:16:25+00:00	2020-07-19T16:16:25-07:00	2020-07-19T23:27:28+00:00	2020-07-22T06:59:59+00:00	-2	j8xj8667p8d6lpc@marketplace.amazon.com	Benjamin Marchant	+1 346-307-9643 ext. 49693	ABR0022	Purchase Now for Delivery by Wednesday | Arabella Farm Direct Bouquet of 12 Fresh Cut Pink Roses with a Free Glass Vase	1	0	1	Standard	Sofia Marey Seguel	89 LAUREL ST			MALDEN	MA	02148-4405	US		Happy Birthday! We hope that you had an awesome day with your family and friends, congrats on your 15 years, be happy. We love you and we hope to see each other again soon. From Osvaldo, Marcela y Benja	false		
111-7067705-4768224	40826340199458	2020-07-19T23:11:50+00:00	2020-07-19T16:11:50-07:00	2020-07-19T23:42:16+00:00	2020-07-22T06:59:59+00:00	-2	806bv88bx76qh9y@marketplace.amazon.com	Tarek Emara	+1 346-307-9643 ext. 32346	ABR0022	Purchase Now for Delivery by Wednesday | Arabella Farm Direct Bouquet of 12 Fresh Cut Pink Roses with a Free Glass Vase	1	0	1	Expedited	Liana Aslanyan	50 HAVEN AVE MAIL BOX G36			NEW YORK	NY	10032-2652	US			false		
112-5661907-9683427	69802148098882	2020-07-19T23:26:25+00:00	2020-07-19T16:26:25-07:00	2020-07-19T23:54:36+00:00	2020-07-22T06:59:59+00:00	-2	3pz4kth1p83xpyy@marketplace.amazon.com	deanna douglas	+1 347-448-3190 ext. 54734	ABR004	Arabella Farm Direct Bouquet of 12 Fresh Cut Yellow Roses with a Free Glass Vase	1	0	1	Expedited	Paula Vincent	1316 AUTUMN OAKS DR			FRANKLIN	KY	42134-1969	US			false		
112-0238323-2173859	32343852517642	2020-07-19T23:39:21+00:00	2020-07-19T16:39:21-07:00	2020-07-20T00:03:54+00:00	2020-07-22T06:59:59+00:00	-2	cpqw90bmwzq05r8@marketplace.amazon.com	Andleeb Rahman	+1 314-282-9402 ext. 15286	ABR0022	Purchase Now for Delivery by Wednesday | Arabella Farm Direct Bouquet of 12 Fresh Cut Pink Roses with a Free Glass Vase	1	0	1	Expedited	Seema Ahmed	2136 SW BRITISH DR			LEES SUMMIT	MO	64081-4069	US		Dearest Seema,  May Allah Almighty bless you with the best of health Ameen! Get well soon :) From The Rahman Family	false		
112-1423189-8678611	25323679030090	2020-07-19T23:45:46+00:00	2020-07-19T16:45:46-07:00	2020-07-20T00:08:21+00:00	2020-07-22T06:59:59+00:00	-2	r2ydh0f32xh5v0h@marketplace.amazon.com	Sandra L. Schuman	+1 346-307-9643 ext. 77269	ABR0022	Purchase Now for Delivery by Wednesday | Arabella Farm Direct Bouquet of 12 Fresh Cut Pink Roses with a Free Glass Vase	1	0	1	Expedited	Jim Witkowski and Family	1532 SE MARIANA RD			PORT ST LUCIE	FL	34952-7139	US		We are all saddened by Julie's sudden death.  Hopefully, you all have many sweet memories of a wonderful wife and mother. From Aunt Sandy, Steve and Kristen	false		
112-2059146-0358643	52124576197418	2020-07-19T23:41:27+00:00	2020-07-19T16:41:27-07:00	2020-07-20T00:12:01+00:00	2020-07-22T06:59:59+00:00	-2	zwnhp7ryzrj9w8m@marketplace.amazon.com	MELINDA PALMER	+1 415-851-9136 ext. 93039	ABM010	Purchase Now for Delivery by Wednesday | The Spring Fling Bouquet by Arabella Bouquets with a Free Designer Glass Vase	1	0	1	Expedited	Melinda L Palmer	8147 E LOOP RD			SALAMANCA	NY	14779-9735	US			false		
114-3807605-3375445	32683501718914	2020-07-19T23:48:36+00:00	2020-07-19T16:48:36-07:00	2020-07-20T00:16:52+00:00	2020-07-22T06:59:59+00:00	-2	m2sccxqc827z9w6@marketplace.amazon.com	Seth Hill	+1 314-282-9402 ext. 28804	ABR0022	Purchase Now for Delivery by Wednesday | Arabella Farm Direct Bouquet of 12 Fresh Cut Pink Roses with a Free Glass Vase	1	0	1	Expedited	Seth Hill	257 Lindsay Creed Lane			Mount Airy	North Carolina	27030	US			false		
114-5160152-1790600	14786031508554	2020-07-20T00:31:35+00:00	2020-07-19T17:31:35-07:00	2020-07-20T00:55:28+00:00	2020-07-22T06:59:59+00:00	-2	wmsdnk3057wf2sc@marketplace.amazon.com	robert j. pawlicki	+1 346-307-9643 ext. 55032	ABM010	Purchase Now for Delivery by Wednesday | The Spring Fling Bouquet by Arabella Bouquets with a Free Designer Glass Vase	1	0	1	Expedited	Suzy Ksiazek	8632 HEATHER DR			BURR RIDGE	IL	60527-6334	US		Suzy, Stay strong, we love you. Praying for good outcomes Love Bob and Rosiei	false		
113-4768234-4802657	11265150127514	2020-07-20T01:17:04+00:00	2020-07-19T18:17:04-07:00	2020-07-20T01:46:27+00:00	2020-07-22T06:59:59+00:00	-2	lcqqt3vswym0nz6@marketplace.amazon.com	Kevin Merino	+1 346-307-9643 ext. 28647	ABR0022	Purchase Now for Delivery by Wednesday | Arabella Farm Direct Bouquet of 12 Fresh Cut Pink Roses with a Free Glass Vase	1	0	1	Expedited	Brytney Lainez	38 OXFORD ST			NORWALK	CT	06854-4353	US		TE AMO PRECIOSA From Kevin Merino	false		
112-0374536-6785845	06653616486770	2020-07-20T01:35:39+00:00	2020-07-19T18:35:39-07:00	2020-07-20T02:00:20+00:00	2020-07-22T06:59:59+00:00	-2	616mnk2zwx2x5zd@marketplace.amazon.com	Heather Simon	+1 346-307-9643 ext. 37162	ABR0022	Purchase Now for Delivery by Wednesday | Arabella Farm Direct Bouquet of 12 Fresh Cut Pink Roses with a Free Glass Vase	1	0	1	Expedited	Cassie Simon	25625 BRIGGS RD			SUN CITY	CA	92585-9422	US			false		
114-4454236-9901046	45251848634602	2020-07-20T01:35:09+00:00	2020-07-19T18:35:09-07:00	2020-07-20T02:01:50+00:00	2020-07-22T06:59:59+00:00	-2	yv4fwz7n43cmb4x@marketplace.amazon.com	Alan Dawson	+1 346-307-9643 ext. 95355	ABM010	Purchase Now for Delivery by Wednesday | The Spring Fling Bouquet by Arabella Bouquets with a Free Designer Glass Vase	1	0	1	Expedited	Kim Koerner	4835 E ANAHEIM ST APT 110			LONG BEACH	CA	90804-3280	US		A touch of nature to cheer you up!!! Love you!!! From Mary Ann Dawson	false		
113-8589798-7765860	53274369102418	2020-07-20T01:57:29+00:00	2020-07-19T18:57:29-07:00	2020-07-20T02:16:02+00:00	2020-07-22T06:59:59+00:00	-2	5jw2f6lgv9ffyc8@marketplace.amazon.com	Albert Heirich	+1 346-307-9643 ext. 46484	ABM022	Purple Extravagance Bouquet by Arabella Mixed Bouquets	1	0	1	Expedited	Maryanne Turner SanfordPOMaryanne	1026 HUNTERS RUN AVE			ZACHARY	LA	70791-6100	US			true	Maryanne	
113-0345639-3813858	28134734578250	2020-07-20T01:58:25+00:00	2020-07-19T18:58:25-07:00	2020-07-20T02:26:12+00:00	2020-07-22T06:59:59+00:00	-2	h50j6k9174y5tv7@marketplace.amazon.com	Cheryl A Davis	+1 346-307-9643 ext. 94838	ABM010	Purchase Now for Delivery by Wednesday | The Spring Fling Bouquet by Arabella Bouquets with a Free Designer Glass Vase	1	0	1	Expedited	Gloria Rieck	2102 MANICO DR			CREST HILL	IL	60403-0814	US		Get well soon!  Thinking of you as you recover!  Love always! From Cheryl Bob Emma Haylee Rayna	false		
113-0147683-8381837	57937622265122	2020-07-20T02:01:25+00:00	2020-07-19T19:01:25-07:00	2020-07-20T02:29:42+00:00	2020-07-22T06:59:59+00:00	-2	hjd1c6qpj9h1jbq@marketplace.amazon.com	Jim Adams	+1 346-307-9643 ext. 91007	ABM010	Purchase Now for Delivery by Wednesday | The Spring Fling Bouquet by Arabella Bouquets with a Free Designer Glass Vase	1	0	1	Expedited	Tammy Davis	2512 county road	southwest 3170		Winnsboro	Texas	75494	US		Hope this brightens your day. From Jim Adams	false		
111-0302025-1245861	09839184888858	2020-07-20T02:34:47+00:00	2020-07-19T19:34:47-07:00	2020-07-20T03:03:34+00:00	2020-07-22T06:59:59+00:00	-2	dgnjc38rncc2t29@marketplace.amazon.com	charlie butler	+1 210-728-4548 ext. 27642	ABR0022	Purchase Now for Delivery by Wednesday | Arabella Farm Direct Bouquet of 12 Fresh Cut Pink Roses with a Free Glass Vase	1	0	1	Expedited	Lauren Butler	9701 FIELDS RD APT 1705			GAITHERSBURG	MD	20878-2732	US		Happy birthday!! I love you so much  Love your #1 grandson  Charlie From charlie butler	false		
114-8465440-3056201	06678349351242	2020-07-20T03:29:33+00:00	2020-07-19T20:29:33-07:00	2020-07-20T03:56:29+00:00	2020-07-22T06:59:59+00:00	-2	xqhr9sxkw5qzzcz@marketplace.amazon.com	Justin luke	+1 415-851-9136 ext. 33843	ABR0022	Purchase Now for Delivery by Wednesday | Arabella Farm Direct Bouquet of 12 Fresh Cut Pink Roses with a Free Glass Vase	1	0	1	Expedited	Geo	3113 MCCABE CT			CHESTER	VA	23831-7026	US		To Geo 🖤 From Justin	false		
113-6983419-5245046	03980265407098	2020-07-20T03:47:08+00:00	2020-07-19T20:47:08-07:00	2020-07-20T04:09:02+00:00	2020-07-22T06:59:59+00:00	-2	rchf0phxzxtzyv1@marketplace.amazon.com	Justin	+1 346-307-9643 ext. 97920	ABM010	Purchase Now for Delivery by Wednesday | The Spring Fling Bouquet by Arabella Bouquets with a Free Designer Glass Vase	1	0	1	Expedited	Stef Boniel	8455 W ALICE AVE			THORNTON	CA	95686-7700	US			false		
111-0231663-3421870	55459252405090	2020-07-20T03:48:19+00:00	2020-07-19T20:48:19-07:00	2020-07-20T04:22:18+00:00	2020-07-22T06:59:59+00:00	-2	bdfb1q9pk8cky6z@marketplace.amazon.com	Cara Markunas	+1 346-307-9643 ext. 41758	ABR0022	Purchase Now for Delivery by Wednesday | Arabella Farm Direct Bouquet of 12 Fresh Cut Pink Roses with a Free Glass Vase	1	0	1	Expedited	Nancy Gonzalez	7699 PALMILLA DR APT 3203			SAN DIEGO	CA	92122-5096	US			false		
114-5623035-0232254	43794213315794	2020-07-20T03:55:24+00:00	2020-07-19T20:55:24-07:00	2020-07-20T04:25:32+00:00	2020-07-22T06:59:59+00:00	-2	bzvtwbz26t5t5rr@marketplace.amazon.com	Malik	+1 346-307-9643 ext. 17862	ABR0022	Purchase Now for Delivery by Wednesday | Arabella Farm Direct Bouquet of 12 Fresh Cut Pink Roses with a Free Glass Vase	1	0	1	Expedited	Dion Hunter	4060 PREFERRED PL APT 616			DALLAS	TX	75237-4212	US			false		
113-5306418-4935419	00856147638242	2020-07-20T04:43:28+00:00	2020-07-19T21:43:28-07:00	2020-07-20T05:13:56+00:00	2020-07-22T06:59:59+00:00	-2	yf40rl5p1mygvv7@marketplace.amazon.com	Mario	+1 346-307-9643 ext. 16721	ABR001	Purchase Now for Delivery by Wednesday | Arabella Bouquets 12 Stems of Fresh Cut Red Roses in a Free Designer Glass Vase	1	0	1	Expedited	Marga E Ortega	6050 N CENTRAL EXPY			DALLAS	TX	75206-5202	US			false		
111-7059899-0637065	21404598508866	2020-07-20T05:30:58+00:00	2020-07-19T22:30:58-07:00	2020-07-20T05:58:06+00:00	2020-07-22T06:59:59+00:00	-2	kw84qq6ywlzyp5d@marketplace.amazon.com	Barbara G Young	+1 346-307-9643 ext. 51817	ABR0055	Purchase Now for Delivery by Wednesday | Arabella Farm Direct Bouquet of 12 Stems of Fresh Cut Hot Pink Roses in a Free Designer Glass Vase	1	0	1	Expedited	Matt young	1731 HEMPFLING PL			HEBRON	KY	41048-7951	US		Dear Karrie, We just want you to know how much we love you. Thank you so much for the wonderful person you are. You are doing hard things and we love you and Matt so much. Love, Barbara and Randy From Barbara And Randy	false		
113-7183631-1440257	16751382620778	2020-07-20T10:11:47+00:00	2020-07-20T03:11:47-07:00	2020-07-20T10:37:10+00:00	2020-07-23T06:59:59+00:00	-3	y7zk85n3r6kwxwb@marketplace.amazon.com	Barbara Florentine	+1 346-307-9643 ext. 03040	ABR0055	Purchase Now for Delivery by Wednesday | Arabella Farm Direct Bouquet of 12 Stems of Fresh Cut Hot Pink Roses in a Free Designer Glass Vase	1	0	1	Standard	Mrs. VIVIAN ALLEN	791 W MAIN ST			VAN	TX	75790-2895	US		Vivian you are pretty Amazing!  Perhaps, Hot PINK tennis shoes are in order, yes?  BIG HUGS, Barbara and Mike	false		
112-5304058-3409828	62216854989026	2020-07-20T11:01:51+00:00	2020-07-20T04:01:51-07:00	2020-07-20T11:26:44+00:00	2020-07-23T06:59:59+00:00	-3	3v486gg3p9nhhnq@marketplace.amazon.com	Shirley	+1 346-307-9643 ext. 49586	ABR0055	Purchase Now for Delivery by Wednesday | Arabella Farm Direct Bouquet of 12 Stems of Fresh Cut Hot Pink Roses in a Free Designer Glass Vase	1	0	1	Standard	Margot Kuss	905 SAFFRON DR			SUNBURY	OH	43074-1144	US		Happy 4th Birthday Margaret!  Love 💕 You From Grammy Shirley & Papap	false		
114-8009288-7350625	63304063880242	2020-07-20T11:06:04+00:00	2020-07-20T04:06:04-07:00	2020-07-20T11:33:34+00:00	2020-07-23T06:59:59+00:00	-3	tttg0hr9x1q3111@marketplace.amazon.com	Strong Comia	+1 347-448-3190 ext. 84122	ABR0022	Purchase Now for Delivery by Wednesday | Arabella Farm Direct Bouquet of 12 Fresh Cut Pink Roses with a Free Glass Vase	1	0	1	Expedited	FLORDELUNA OBLINADA CANCILLER	607 N Pershing St,	Apartment 4		TRUTH OR CONSEQUENCES	NM	87901-2574	US			false		
114-7744028-4690618	68780152873170	2020-07-20T11:35:29+00:00	2020-07-20T04:35:29-07:00	2020-07-20T12:03:23+00:00	2020-07-23T06:59:59+00:00	-3	wjbmxkgsg2cxzgd@marketplace.amazon.com	Mark Clanton	+1 346-307-9643 ext. 34762	ABR001	Purchase Now for Delivery by Wednesday | Arabella Bouquets 12 Stems of Fresh Cut Red Roses in a Free Designer Glass Vase	1	0	1	Expedited	Sharon T Clanton	277 Ridge Court			Newborn	GA	30056	US		Happy 41st Anniversary! Thank you for being my life partner! Love, Mark From Mark Clanton	false		
114-6018003-4591456	69186764121922	2020-07-20T13:04:52+00:00	2020-07-20T06:04:52-07:00	2020-07-20T13:35:39+00:00	2020-07-23T06:59:59+00:00	-3	wsh5rlnypb2lzrv@marketplace.amazon.com	Rita Chaudhuri	+1 347-448-3190 ext. 89290	ABR001	Purchase Now for Delivery by Thursday | Arabella Bouquets 12 Stems of Fresh Cut Red Roses in a Free Designer Glass Vase	1	0	1	Expedited	Nisha Gidwani	700 RED BUD CT			FRIENDSWOOD	TX	77546-3588	US			false		
114-5006157-9869858	09693802514746	2020-07-20T13:05:51+00:00	2020-07-20T06:05:51-07:00	2020-07-20T13:36:10+00:00	2020-07-23T06:59:59+00:00	-3	wsh5rlnypb2lzrv@marketplace.amazon.com	Rita Chaudhuri	+1 346-307-9643 ext. 99334	ABR001	Purchase Now for Delivery by Thursday | Arabella Bouquets 12 Stems of Fresh Cut Red Roses in a Free Designer Glass Vase	1	0	1	Expedited	Rims Gidwani	1033 FISHER ST			HOUSTON	TX	77018-5213	US			false		
114-8771054-0441062	24199143832602	2020-07-20T13:09:21+00:00	2020-07-20T06:09:21-07:00	2020-07-20T13:38:27+00:00	2020-07-23T06:59:59+00:00	-3	lv2cyr1xdm7c6gf@marketplace.amazon.com	Ericca L. Leonti	+1 346-307-9643 ext. 83912	ABR0022	Purchase Now for Delivery by Thursday | Arabella Farm Direct Bouquet of 12 Fresh Cut Pink Roses with a Free Glass Vase	1	0	1	Standard	Gabby Leonti	8235 PATUXENT RANGE RD			JESSUP	MD	20794-9329	US		You are beautiful From ❤️	false		
