order-id	order-item-id	purchase-date	payments-date	reporting-date	promise-date	days-past-promise	buyer-email	buyer-name	buyer-phone-number	sku	product-name	quantity-purchased	quantity-shipped	quantity-to-ship	ship-service-level	recipient-name	ship-address-1	ship-address-2	ship-address-3	ship-city	ship-state	ship-postal-code	ship-country	gift-wrap-type	gift-message-text	is-business-order	purchase-order-number	price-designation
111-1048556-4067467	65814257366362	2020-07-21T17:47:45+00:00	2020-07-21T10:47:45-07:00	2020-07-21T18:18:28+00:00	2020-07-24T06:59:59+00:00	-2	0xb5782b6lrthjg@marketplace.amazon.com	Shameeza	+1 415-851-9136 ext. 83054	ABM0033	Purchase Now for Delivery by Friday | Arabella Farm Direct Bouquet of Fresh Cut White Hydrangea with a Free Glass Vase	1	0	1	Expedited	Shameeza ali	13517 NORTHERN BLVD  3B			FLUSHING	NY	11354-4006	US			false		
113-7602962-8289848	22791700227930	2020-07-21T18:08:48+00:00	2020-07-21T11:08:48-07:00	2020-07-21T18:37:13+00:00	2020-07-24T06:59:59+00:00	-2	ssvfb1yq36dm91b@marketplace.amazon.com	Lorraine M. Clement	+1 346-307-9643 ext. 77317	ABR0055	Purchase Now for Delivery by Friday | Arabella Farm Direct Bouquet of 12 Stems of Fresh Cut Hot Pink Roses in a Free Designer Glass Vase	1	0	1	Expedited	Connie J. Lambert - West Wing Room 309A	GOOD SAMARITAN SOCIETY - LAS CRUCES VILLAGE HEALTH CTR	3025 TERRACE DR		LAS CRUCES	NM	88011-5053	US		Love you Sis! Wish I could be there to give you a big hug in person.  Thank you for being my Big Sister.  ~Love, Gentleman Dave & Lorraine From David & Lorraine Clement	false		
111-9741854-5429852	60508160063906	2020-07-21T18:25:37+00:00	2020-07-21T11:25:37-07:00	2020-07-21T18:54:47+00:00	2020-07-24T06:59:59+00:00	-2	l66831lldw260nx@marketplace.amazon.com	Nadia Zazai	+1 347-448-3190 ext. 54854	ABM010	The Spring Fling Bouquet by Arabella Bouquets with a Free Designer Glass Vase	1	0	1	Expedited	Kim Conte	14900 BRAEMAR CRESCENT WAY			DARNESTOWN	MD	20878-3608	US		Kim, by know you’re probably going crazy just laying around the house but guess what....you need to! Thinking of you and wishing you a speedy recovery! From Rhonda Bettis	false		
112-2572070-9937853	29437818607146	2020-07-21T19:21:45+00:00	2020-07-21T12:21:45-07:00	2020-07-21T19:55:23+00:00	2020-07-24T06:59:59+00:00	-2	pqy3yxw4wjvm70z@marketplace.amazon.com	rob	+1 346-307-9643 ext. 58769	ABR0055	Purchase Now for Delivery by Friday | Arabella Farm Direct Bouquet of 12 Stems of Fresh Cut Hot Pink Roses in a Free Designer Glass Vase	1	0	1	Expedited	Deborah Lassiter	BRIARWOOD REHAB 3888 LAVISTA RD			TUCKER	GA	30084-5142	US			false		
112-2882919-3909023	00705980384922	2020-07-21T20:24:15+00:00	2020-07-21T13:24:15-07:00	2020-07-21T20:25:10+00:00	2020-07-24T06:59:59+00:00	-2	s72181ylxmkqmqw@marketplace.amazon.com	Collette Pitzen	+1 347-448-3190 ext. 64875	ABR0022	Purchase Now for Delivery by Friday | Arabella Farm Direct Bouquet of 12 Fresh Cut Pink Roses with a Free Glass Vase	1	0	1	Expedited	Laurie Gillen	20154 KENSINGTON WAY			LAKEVILLE	MN	55044-5946	US		Happy Birthday Laurie !!! Hope we can celebrate together soon! Love, Collette From Collette Cole	false		
111-7333404-9550613	42942985638282	2020-07-21T20:12:02+00:00	2020-07-21T13:12:02-07:00	2020-07-21T20:39:55+00:00	2020-07-24T06:59:59+00:00	-2	06lr78kpqnnj61p@marketplace.amazon.com	Trudy A Williams	+1 314-282-9402 ext. 90783	ABR0022	Purchase Now for Delivery by Friday | Arabella Farm Direct Bouquet of 12 Fresh Cut Pink Roses with a Free Glass Vase	1	0	1	Expedited	Tammy and Dave George	2921 GOLDEN MEADOW AVE			MESQUITE	TX	75181-2150	US			false		
112-9393759-7241012	18027551322754	2020-07-21T20:30:15+00:00	2020-07-21T13:30:15-07:00	2020-07-21T20:55:32+00:00	2020-07-24T06:59:59+00:00	-2	s72181ylxmkqmqw@marketplace.amazon.com	Collette Pitzen	+1 346-307-9643 ext. 10008	ABR0022	Purchase Now for Delivery by Friday | Arabella Farm Direct Bouquet of 12 Fresh Cut Pink Roses with a Free Glass Vase	1	0	1	Expedited	Judy Gamboni	2980 LINDEN DR			NEW BRIGHTON	MN	55112-8406	US		A very belated happy birthday Judy. A MJLC gift for all b-days to tell you I love you and to say thanks for the many blessings you have given me. Love, Collette From Collette Cole	false		
112-5841838-4393001	11860653933842	2020-07-21T21:05:36+00:00	2020-07-21T14:05:36-07:00	2020-07-21T21:13:40+00:00	2020-07-24T06:59:59+00:00	-2	6m9pchpxmpbs0rk@marketplace.amazon.com	elise bozzi	+1 346-307-9643 ext. 35413	ABR0022	Purchase Now for Delivery by Friday | Arabella Farm Direct Bouquet of 12 Fresh Cut Pink Roses with a Free Glass Vase	1	0	1	Standard	Donna Thielemier	3533 DUNN RD STE 232			FLORISSANT	MO	63033-6761	US		DONNA, 0 days, 0 hours, 0 minutes !!! CONGRATULATIONS AND BEST WISHES ON YOUR RETIREMENT!!! Love , Patti From PATTI BOZZI	false		
113-3340996-4167469	66773255349106	2020-07-21T21:03:23+00:00	2020-07-21T14:03:23-07:00	2020-07-21T21:29:52+00:00	2020-07-24T06:59:59+00:00	-2	8770401cbkyjw9y@marketplace.amazon.com	John	+1 347-448-3190 ext. 59650	ABR0055	Purchase Now for Delivery by Friday | Arabella Farm Direct Bouquet of 12 Stems of Fresh Cut Hot Pink Roses in a Free Designer Glass Vase	1	0	1	Expedited	Linda Bartleson	839 JEFFREY LN			LANGHORNE	PA	19047-3722	US		Linda,  You are a true HERO!   Thank you for everything you do for all of us! Love, Colleen From Colleen Thomas	false		
111-7662203-9875422	08507533480186	2020-07-21T21:48:53+00:00	2020-07-21T14:48:53-07:00	2020-07-21T22:18:40+00:00	2020-07-24T06:59:59+00:00	-2	4p7bly56rprj915@marketplace.amazon.com	D+Y	+1 415-851-9136 ext. 77017	ABM010	The Spring Fling Bouquet by Arabella Bouquets with a Free Designer Glass Vase	1	0	1	Expedited	GERALD & RENATE BAUMER	17205 WHITES RD			POOLESVILLE	MD	20837-2029	US		Happy Birthday Mom! From D+Y	false		
111-9853022-9912205	00511288353210	2020-07-21T22:14:06+00:00	2020-07-21T15:14:06-07:00	2020-07-21T22:40:53+00:00	2020-07-24T06:59:59+00:00	-2	87fk0tprznlnpq0@marketplace.amazon.com	Trevor Bullard	+1 347-448-3190 ext. 13842	ABR0022	Purchase Now for Delivery by Friday | Arabella Farm Direct Bouquet of 12 Fresh Cut Pink Roses with a Free Glass Vase	1	0	1	Expedited	Allison Noll	4314 MISTYGATE CT			SPRING	TX	77373-7181	US		I am so proud of you for being an amazing Mom and working your Mary Kay business, when you can, with passion!  Love you girl!!  Hugs,  Kathy From Kathy Bullard	false		
111-9939894-2896249	07554503310162	2020-07-21T22:18:43+00:00	2020-07-21T15:18:43-07:00	2020-07-21T22:46:26+00:00	2020-07-24T06:59:59+00:00	-2	87fk0tprznlnpq0@marketplace.amazon.com	Trevor Bullard	+1 347-448-3190 ext. 90225	ABR0022	Purchase Now for Delivery by Friday | Arabella Farm Direct Bouquet of 12 Fresh Cut Pink Roses with a Free Glass Vase	1	0	1	Expedited	Valerie Peterson-Kelly	4802 PRAIRIE RIDGE RD			HOUSTON	TX	77053-4620	US		Congrats on an amazing over the Top Mary Kay Seminar year!!!  I am so proud of you!!!  Can't wait to go to Spain with you and Elliott!!  Love ya girl!!!  Hugs,  Kathy From Kathy Bullard	false		
111-2589471-0512224	05333194601802	2020-07-21T22:35:57+00:00	2020-07-21T15:35:57-07:00	2020-07-21T22:59:58+00:00	2020-07-24T06:59:59+00:00	-2	fq4q6j9gmmwln09@marketplace.amazon.com	Jerelyn Kirby	+1 346-307-9643 ext. 98630	ABR0022	Purchase Now for Delivery by Friday | Arabella Farm Direct Bouquet of 12 Fresh Cut Pink Roses with a Free Glass Vase	1	0	1	Expedited	Mrs. Joan McKee	17 WYMS HEIGHTS DR			MARLBORO	NY	12542-5119	US		Happy Birthday!!! Enjoy your special day!!   Love you much Jer & Bill xoxoxoxo From Jerelyn Kirby	false		
113-4149396-7128208	11526956484554	2020-07-21T23:11:57+00:00	2020-07-21T16:11:57-07:00	2020-07-21T23:40:37+00:00	2020-07-24T06:59:59+00:00	-2	wrj3vd8mdjzfnq1@marketplace.amazon.com	Catherine M Kahl	+1 346-307-9643 ext. 51728	ABR012	Purchase Now for Delivery by Friday | Arabella Farm Direct Bouquet of 18 Fresh Cut Pink Roses with a Free Glass Vase	1	0	1	Expedited	Alyson Federico	2309 MESA OAK TRL			PLANO	TX	75025-4720	US		Happy Birthday Alyson We love you so much. Cathy and John From Catherine M Kahl	false		
113-4415711-1815449	48615510502090	2020-07-21T23:37:48+00:00	2020-07-21T16:37:48-07:00	2020-07-22T00:07:42+00:00	2020-07-23T06:59:59+00:00	-1	78qx9fn7f383c33@marketplace.amazon.com	Javier	+1 314-282-9402 ext. 91133	ABR0022	Purchase Now for Delivery by Friday | Arabella Farm Direct Bouquet of 12 Fresh Cut Pink Roses with a Free Glass Vase	1	0	1	SecondDay	Betina hernandez	19406 MONTCLAIR MEADOW LN			KATY	TX	77449-4125	US			false		
111-1524659-6013028	46648151624514	2020-07-22T00:07:09+00:00	2020-07-21T17:07:09-07:00	2020-07-22T00:37:53+00:00	2020-07-24T06:59:59+00:00	-2	cc20jnp6ncr6kgv@marketplace.amazon.com	Kathy sun	+1 314-282-9402 ext. 63531	ABR0022	Purchase Now for Delivery by Friday | Arabella Farm Direct Bouquet of 12 Fresh Cut Pink Roses with a Free Glass Vase	1	0	1	Expedited	Kathy sun	9 CASTLE HILL RD			STOCKBRIDGE	MA	01262-7732	US			false		
112-9250131-3676215	27798147980274	2020-07-22T00:15:49+00:00	2020-07-21T17:15:49-07:00	2020-07-22T00:42:58+00:00	2020-07-23T06:59:59+00:00	-1	2nzrp889drjjnd6@marketplace.amazon.com	Dustin Schmidt	+1 346-307-9643 ext. 89269	ABR0022	Purchase Now for Delivery by Friday | Arabella Farm Direct Bouquet of 12 Fresh Cut Pink Roses with a Free Glass Vase	1	0	1	SecondDay	Dustin Schmidt	1050 SCHUKART LN			LAKE OSWEGO	OR	97034-4634	US		I love you more than anything in the world Jenna. I’m so in love with you and will always love you for as long as I live. You’re an amazing wife, mother and friend who I will always adore and cherish. See you Sunday! From Dustin Schmidt	false		
112-8695636-7572225	46142179731426	2020-07-22T00:21:04+00:00	2020-07-21T17:21:04-07:00	2020-07-22T00:49:16+00:00	2020-07-23T06:59:59+00:00	-1	fb8t6ctrhs7sbjw@marketplace.amazon.com	Sandy Walker	+1 347-448-3190 ext. 36888	ABR0022	Purchase Now for Delivery by Friday | Arabella Farm Direct Bouquet of 12 Fresh Cut Pink Roses with a Free Glass Vase	1	0	1	SecondDay	Chelsea Oswald	2602 DANIEL ISLAND DR			DANIEL ISLAND	SC	29492-8910	US		Happy Birthday Chelsea From Tom & Sandy Walker	false		
112-3962829-3837052	44536666770186	2020-07-22T00:48:43+00:00	2020-07-21T17:48:43-07:00	2020-07-22T01:09:47+00:00	2020-07-24T06:59:59+00:00	-2	p9vmg5b18wwrmsy@marketplace.amazon.com	virginia karl	+1 314-282-9402 ext. 10932	ABR012	Purchase Now for Delivery by Friday | Arabella Farm Direct Bouquet of 18 Fresh Cut Pink Roses with a Free Glass Vase	1	0	1	Expedited	Mrs Emily Sciarretta	98 GREENBELT LN			LEVITTOWN	NY	11756-1613	US		Dear Emily.....Again, thank you for your beautiful and touching performance.....Love, Ginger From virginia karl	false		
113-3975642-6850668	22759758378202	2020-07-22T01:09:01+00:00	2020-07-21T18:09:01-07:00	2020-07-22T01:35:42+00:00	2020-07-23T06:59:59+00:00	-1	67ykdjh9pf4zvp3@marketplace.amazon.com	Janet M. Layton	+1 415-851-9136 ext. 82939	ABR0055	Purchase Now for Delivery by Friday | Arabella Farm Direct Bouquet of 12 Stems of Fresh Cut Hot Pink Roses in a Free Designer Glass Vase	1	0	1	SecondDay	Melody Lizak	11332 PINE ST			LOS ALAMITOS	CA	90720-3922	US		Hope you are feeling much better. Thoughts and prayers for you. ❤️Gerry & Jan The de Leon’s & The Boulwares From Janet M. Layton	false		
114-8404478-6133052	47480368572138	2020-07-22T01:07:18+00:00	2020-07-21T18:07:18-07:00	2020-07-22T01:37:32+00:00	2020-07-23T06:59:59+00:00	-1	8cvbtvsbjrvlzzx@marketplace.amazon.com	Emily Yarrington	+1 415-851-9136 ext. 58680	ABR0022	Purchase Now for Delivery by Friday | Arabella Farm Direct Bouquet of 12 Fresh Cut Pink Roses with a Free Glass Vase	1	0	1	SecondDay	Maureen Yarrington	142 WHITE HALL RD			WINCHESTER	VA	22603-2748	US			false		
111-0234535-9938662	44308383045890	2020-07-22T01:14:21+00:00	2020-07-21T18:14:21-07:00	2020-07-22T01:38:42+00:00	2020-07-23T06:59:59+00:00	-1	fhm94cd8cfp768m@marketplace.amazon.com	kristina domino	+1 210-728-4548 ext. 08427	ABR0055	Purchase Now for Delivery by Friday | Arabella Farm Direct Bouquet of 12 Stems of Fresh Cut Hot Pink Roses in a Free Designer Glass Vase	1	0	1	SecondDay	Norma ford	539 HONKER LN			SUISUN CITY	CA	94585-2111	US		thinking of you and the family during this time. Eveyone is in my prayers for strength.  Love,  Kristina From kristina domino	false		
113-6132767-4675435	29513046550346	2020-07-22T01:18:38+00:00	2020-07-21T18:18:38-07:00	2020-07-22T01:48:12+00:00	2020-07-24T06:59:59+00:00	-2	62lxmsh9zx710lv@marketplace.amazon.com	Stanford-Eric Alemany	+1 314-282-9402 ext. 56017	ABM010	The Spring Fling Bouquet by Arabella Bouquets with a Free Designer Glass Vase	1	0	1	Expedited	Haizea Alemany	645 S 14TH ST			SAN JOSE	CA	95112-2321	US			false		
112-0276485-3367410	57988171320578	2020-07-22T01:31:42+00:00	2020-07-21T18:31:42-07:00	2020-07-22T01:59:15+00:00	2020-07-23T06:59:59+00:00	-1	62rxwmcbdjym718@marketplace.amazon.com	Bonnie Hinkhouse	+1 346-307-9643 ext. 23798	ABR0055	Purchase Now for Delivery by Friday | Arabella Farm Direct Bouquet of 12 Stems of Fresh Cut Hot Pink Roses in a Free Designer Glass Vase	1	0	1	SecondDay	Norm and Leona Kuykendall	13562 DELANEY RD			HUNTLEY	IL	60142-6335	US			false		
113-4260066-2629803	06401558061418	2020-07-22T01:43:41+00:00	2020-07-21T18:43:41-07:00	2020-07-22T02:13:28+00:00	2020-07-23T06:59:59+00:00	-1	tz4m0h8fw8bvkzm@marketplace.amazon.com	Pairris	+1 314-282-9402 ext. 60016	ABR0022	Purchase Now for Delivery by Friday | Arabella Farm Direct Bouquet of 12 Fresh Cut Pink Roses with a Free Glass Vase	1	0	1	SecondDay	Pairris Jones	608 EAGLE POND DR			WINTER HAVEN	FL	33884-1334	US			false		
111-8698580-6332225	53036914290578	2020-07-22T02:03:15+00:00	2020-07-21T19:03:15-07:00	2020-07-22T02:31:26+00:00	2020-07-23T06:59:59+00:00	-1	dvrlzqy4h2czbj8@marketplace.amazon.com	Jane Blake	+1 346-307-9643 ext. 48382	ABR0055	Purchase Now for Delivery by Friday | Arabella Farm Direct Bouquet of 12 Stems of Fresh Cut Hot Pink Roses in a Free Designer Glass Vase	1	0	1	SecondDay	Olivia Blake	1000 E 22ND ST APT 903	APARTMENT 903		TUCSON	AZ	85713-1803	US		Hope you enjoyed your day my baby. All our love Mum, Dad & Zoë xxx From Jane Blake	false		
114-5487891-6745044	44198262788610	2020-07-22T02:52:03+00:00	2020-07-21T19:52:03-07:00	2020-07-22T03:05:39+00:00	2020-07-23T06:59:59+00:00	-1	hp7t65lsqpbzx8k@marketplace.amazon.com	Raquel Gascon	+1 314-282-9402 ext. 85218	ABR0022	Purchase Now for Delivery by Friday | Arabella Farm Direct Bouquet of 12 Fresh Cut Pink Roses with a Free Glass Vase	1	0	1	SecondDay	Fran Weaver	1982 S 1675 W			SYRACUSE	UT	84075-8579	US		Happy Birthday!!! We love you! Have a blessed day!  Love Steve & Raquel From Raquel Guevara	false		
114-8905892-5088266	26161046499370	2020-07-22T02:54:37+00:00	2020-07-21T19:54:37-07:00	2020-07-22T03:19:01+00:00	2020-07-23T06:59:59+00:00	-1	7ztvnbw3xg97nzm@marketplace.amazon.com	Candra Robinson	+1 314-282-9402 ext. 01008	ABR0022	Purchase Now for Delivery by Friday | Arabella Farm Direct Bouquet of 12 Fresh Cut Pink Roses with a Free Glass Vase	1	0	1	SecondDay	Vicki Simmons	867 LAKE JACKSON CIR			APOPKA	FL	32703-5842	US			false		
114-0076714-1026609	13715995759250	2020-07-22T03:06:02+00:00	2020-07-21T20:06:02-07:00	2020-07-22T03:28:03+00:00	2020-07-23T06:59:59+00:00	-1	7ztvnbw3xg97nzm@marketplace.amazon.com	Candra Robinson	+1 346-307-9643 ext. 68196	ABR0022	Purchase Now for Delivery by Friday | Arabella Farm Direct Bouquet of 12 Fresh Cut Pink Roses with a Free Glass Vase	1	0	1	SecondDay	Lola Bates	78837 TERRITORIAL RD			LORANE	OR	97451-9706	US			false		
113-9516658-9895444	06974091735610	2020-07-22T03:41:40+00:00	2020-07-21T20:41:40-07:00	2020-07-22T04:08:36+00:00	2020-07-23T06:59:59+00:00	-1	w6zwrv3lbx0h1g2@marketplace.amazon.com	Jennifer Savage	+1 346-307-9643 ext. 74076	ABR001	Purchase Now for Delivery by Friday | Arabella Bouquets 12 Stems of Fresh Cut Red Roses in a Free Designer Glass Vase	1	0	1	SecondDay	Nancy Savage	924 CALLE CORTITA			SANTA BARBARA	CA	93109-1205	US		Happy birthday! From Thomas, Jennifer,  Mila, Brynn and Cooper! From OC Savages	false		
111-4274910-0982637	68347711295418	2020-07-22T03:50:48+00:00	2020-07-21T20:50:48-07:00	2020-07-22T04:16:07+00:00	2020-07-23T06:59:59+00:00	-1	bsj7x7w5nx61yfl@marketplace.amazon.com	Darlene Sanchez	+1 314-282-9402 ext. 10654	ABR001	Purchase Now for Delivery by Friday | Arabella Bouquets 12 Stems of Fresh Cut Red Roses in a Free Designer Glass Vase	1	0	1	SecondDay	Shelly Maurer	7540 MEADOW RUN LN			SACHSE	TX	75048-2234	US		Thinking of you, our girl,  and want to send you some love.   Just keep the faith and don't give up believing in God's love for you.  We love you and pray  for you everyday.   Love, Mom and Dad From Darlene and Ted Sanchez	false		
112-3809360-1004262	36297659764426	2020-07-22T04:39:00+00:00	2020-07-21T21:39:00-07:00	2020-07-22T05:06:12+00:00	2020-07-23T06:59:59+00:00	-1	wlrls1v1k2d58n4@marketplace.amazon.com	Dina	+1 347-448-3190 ext. 60685	ABR0022	Purchase Now for Delivery by Friday | Arabella Farm Direct Bouquet of 12 Fresh Cut Pink Roses with a Free Glass Vase	1	0	1	SecondDay	Andrea Kossoudji	1229 REED AVE			SAN DIEGO	CA	92109-5181	US		Happy Birthday beautiful Niece Andrea! From Dina and Tino	false		
113-1025955-2221001	59801501985802	2020-07-22T04:58:27+00:00	2020-07-21T21:58:27-07:00	2020-07-22T05:27:53+00:00	2020-07-23T06:59:59+00:00	-1	wtcyb17lb4h5xfy@marketplace.amazon.com	Natasha Escoto	+1 347-448-3190 ext. 27644	ABM010	The Spring Fling Bouquet by Arabella Bouquets with a Free Designer Glass Vase	1	0	1	SecondDay	Nerrah	25867 TURFWOOD ST			MENIFEE	CA	92585-8895	US		Happy birthday nerrah! Enjoy your day, you deserve it. Miss you and wish I could be there to celebrate. I appreciate you so much, you are such a huge blessing in my life and now Mohses too! love you From Natasha Escoto	false		
111-5086114-5742659	65088617338346	2020-07-22T05:37:42+00:00	2020-07-21T22:37:42-07:00	2020-07-22T05:57:43+00:00	2020-07-23T06:59:59+00:00	-1	6437n52k26p18df@marketplace.amazon.com	Emile M Z Fonderson	+1 346-307-9643 ext. 47345	ABR0022	Purchase Now for Delivery by Friday | Arabella Farm Direct Bouquet of 12 Fresh Cut Pink Roses with a Free Glass Vase	1	0	1	SecondDay	Prof. Tonya Bibbs	4519 S CALUMET AVE APT 2A			CHICAGO	IL	60653-4019	US		Happy happy birthday baby.  With lots of Love From Emilio	false		
113-5596212-9214658	01438813786722	2020-07-22T06:10:06+00:00	2020-07-21T23:10:06-07:00	2020-07-22T06:36:29+00:00	2020-07-23T06:59:59+00:00	-1	brlf3sgm576pvt9@marketplace.amazon.com	Elizabeth Maslow	+1 346-307-9643 ext. 99426	ABM010	The Spring Fling Bouquet by Arabella Bouquets with a Free Designer Glass Vase	1	0	1	SecondDay	Mrs. Anna Maslow - ROOM # 805	DEER MEADOWS RETIREMENT COMMUNITY 8301 ROOSEVELT BLVD			PHILADELPHIA	PA	19152-2098	US		THINKING OF YOU WITH LOVE AND PRAYERS ON YOUR BIRTHDAY TODAY AND ALWAYS, From Arthur and Beth	false		
112-1398574-8860228	67433753392826	2020-07-22T08:32:35+00:00	2020-07-22T01:32:35-07:00	2020-07-22T08:59:49+00:00	2020-07-23T06:59:59+00:00	-1	d7dc4l7z04cp06d@marketplace.amazon.com	DrLisa	July 25, 2000	ABR0022	Purchase Now for Delivery by Friday | Arabella Farm Direct Bouquet of 12 Fresh Cut Pink Roses with a Free Glass Vase	1	0	1	SecondDay	Connee Chandler	46723 HOBBLEBUSH TER			STERLING	VA	20164-7042	US		Happy Belated Birthday!!!!  I hope these brighten your day as you have brighten virtually every Tuesday of mine over the decades. Love you❤️ From DrLisa	false		
113-4333207-5439451	44985491124722	2020-07-22T08:56:46+00:00	2020-07-22T01:56:46-07:00	2020-07-22T09:23:42+00:00	2020-07-23T06:59:59+00:00	-1	7j2c6fl61cnftc8@marketplace.amazon.com	Nancy McGrath	+1 415-851-9136 ext. 76071	ABR0022	Purchase Now for Delivery by Friday | Arabella Farm Direct Bouquet of 12 Fresh Cut Pink Roses with a Free Glass Vase	1	0	1	SecondDay	Colin McGrath	4619 CANTER LN			WARRENTON	VA	20187-8916	US			false		
114-2718236-7029064	35894812396002	2020-07-22T09:22:38+00:00	2020-07-22T02:22:38-07:00	2020-07-22T09:49:33+00:00	2020-07-23T06:59:59+00:00	-1	nvy5z36m1xh8m22@marketplace.amazon.com	Melissa Ries	+1 314-282-9402 ext. 38414	ABM010	The Spring Fling Bouquet by Arabella Bouquets with a Free Designer Glass Vase	1	0	1	SecondDay	Pat Ries	10087 ZENOBIA CT			WESTMINSTER	CO	80031-2535	US		Happy Birthday!  With our love From Jimmy and Melissa	false		
113-8481874-2044220	67680314373482	2020-07-22T10:45:31+00:00	2020-07-22T03:45:31-07:00	2020-07-22T11:13:30+00:00	2020-07-23T06:59:59+00:00	-1	szttdvz7zyvpntt@marketplace.amazon.com	Gabrielle Cheskowich	+1 314-282-9402 ext. 09916	ABR0022	Purchase Now for Delivery by Friday | Arabella Farm Direct Bouquet of 12 Fresh Cut Pink Roses with a Free Glass Vase	1	0	1	SecondDay	Joanne Maloney	65 LOCUST AVE			NORTH ARLINGTON	NJ	07031-5512	US		Enjoy your gift! From Gabrielle Cheskowich	false		
114-2944347-2237003	22390923434234	2020-07-22T10:46:02+00:00	2020-07-22T03:46:02-07:00	2020-07-22T11:14:59+00:00	2020-07-23T06:59:59+00:00	-1	1sbzvnzy9ffj2cz@marketplace.amazon.com	Rebecca Kaufman	+1 346-307-9643 ext. 02378	ABR0055	Purchase Now for Delivery by Friday | Arabella Farm Direct Bouquet of 12 Stems of Fresh Cut Hot Pink Roses in a Free Designer Glass Vase	1	0	1	SecondDay	Rebecca Kaufman	43 JAMES FARM RD			LEE	NH	03861-6529	US		Thinking of you & hoping you are resting comfortably. Sending you so much love and a ton of healing thoughts. Please let me know if you need anything. Love you lots! From Bec	false		
114-9749535-9216240	20142022450970	2020-07-22T10:55:25+00:00	2020-07-22T03:55:25-07:00	2020-07-22T11:21:12+00:00	2020-07-23T06:59:59+00:00	-1	dtbwzczyc5fh0k9@marketplace.amazon.com	D W Whitbourne	+1 347-448-3190 ext. 21537	ABR0022	Purchase Now for Delivery by Friday | Arabella Farm Direct Bouquet of 12 Fresh Cut Pink Roses with a Free Glass Vase	1	0	1	SecondDay	Matthew & Sarah Whitbourne	10 GROVE CT			COLD SPRING	NY	10516-2623	US		Dear Matthew, Sarah & Emilia, We hope you will all be very happy in your new home. With lots of love, Mum & Dad xxx	false		
113-3009912-5737033	47559149789722	2020-07-22T11:15:23+00:00	2020-07-22T04:15:23-07:00	2020-07-22T11:43:29+00:00	2020-07-23T06:59:59+00:00	-1	7jzcfh4h0m5cyg4@marketplace.amazon.com	Deanna Machula	+1 415-851-9136 ext. 68357	ABM010	The Spring Fling Bouquet by Arabella Bouquets with a Free Designer Glass Vase	1	0	1	SecondDay	Fred & Linda Machula	10718 SE 232ND PL			KENT	WA	98031-3350	US		Happy Birthday Grandma Machula!  Love, Mike, Deanna, Jacob, Derek, and Lauren From Deanna Machula	false		
113-8486550-0613064	32755841312938	2020-07-22T11:48:12+00:00	2020-07-22T04:48:12-07:00	2020-07-22T12:14:14+00:00	2020-07-23T06:59:59+00:00	-1	l4dyqpgg27kydxr@marketplace.amazon.com	Sharon Kaplan	+1 346-307-9643 ext. 39816	ABR0022	Purchase Now for Delivery by Friday | Arabella Farm Direct Bouquet of 12 Fresh Cut Pink Roses with a Free Glass Vase	1	0	1	SecondDay	Emily Kaplan	2 MONTBARD DR			CHADDS FORD	PA	19317-9277	US		Have a sweet graduation darling. So very proud of you. Love you so much From Gran	false		
111-0484166-6829002	41486545588882	2020-07-22T11:57:19+00:00	2020-07-22T04:57:19-07:00	2020-07-22T12:27:12+00:00	2020-07-23T06:59:59+00:00	-1	w0hllf8hgrpv8rj@marketplace.amazon.com	peggy jacobi	+1 210-728-4548 ext. 19633	ABR0022	Purchase Now for Delivery by Friday | Arabella Farm Direct Bouquet of 12 Fresh Cut Pink Roses with a Free Glass Vase	1	0	1	SecondDay	peggy jacobi	7122 South Tamarac Street			Centennial	Colorado	80120	US			false		
114-1142584-9129845	46415277991914	2020-07-22T12:14:26+00:00	2020-07-22T05:14:26-07:00	2020-07-22T12:43:27+00:00	2020-07-23T06:59:59+00:00	-1	rpkgcxbj0dw0wvc@marketplace.amazon.com	Andrew Frazier	+1 347-448-3190 ext. 09364	ABR0055	Purchase Now for Delivery by Friday | Arabella Farm Direct Bouquet of 12 Stems of Fresh Cut Hot Pink Roses in a Free Designer Glass Vase	1	0	1	SecondDay	Gloria Baca	8425 GORDON SNIDOW CT NE			ALBUQUERQUE	NM	87122-2821	US		We love you so much and are thinking of you .  Love, Andrew, Kelly, Haisley and Kinsley From Andrew Frazier	false		
111-9218579-7335469	11384282951794	2020-07-22T12:27:04+00:00	2020-07-22T05:27:04-07:00	2020-07-22T12:54:11+00:00	2020-07-23T06:59:59+00:00	-1	nprz4xxw3zgsjyd@marketplace.amazon.com	Richard Arthur Daniel's	+1 347-448-3190 ext. 63279	ABR0022	Purchase Now for Delivery by Friday | Arabella Farm Direct Bouquet of 12 Fresh Cut Pink Roses with a Free Glass Vase	1	0	1	SecondDay	Richard Arthur Daniel's	8835 ALBEMARLE DR			NORFOLK	VA	23503-4609	US			false		
