order-id	order-item-id	purchase-date	payments-date	reporting-date	promise-date	days-past-promise	buyer-email	buyer-name	buyer-phone-number	sku	product-name	quantity-purchased	quantity-shipped	quantity-to-ship	ship-service-level	recipient-name	ship-address-1	ship-address-2	ship-address-3	ship-city	ship-state	ship-postal-code	ship-country	gift-wrap-type	gift-message-text	is-business-order	purchase-order-number	price-designation
112-0822701-1166658	32942780968922	2020-07-22T17:43:39+00:00	2020-07-22T10:43:39-07:00	2020-07-22T18:05:01+00:00	2020-07-25T06:59:59+00:00	-2	7tpmbc21463kbsj@marketplace.amazon.com	Nadine Butler	+1 210-728-4548 ext. 91831	ABR0022	Purchase Now for Delivery by Monday | Arabella Farm Direct Bouquet of 12 Fresh Cut Pink Roses with a Free Glass Vase	1	0	1	Expedited	Lauren Collins	421 HOLLISTER AVE			SANTA MONICA	CA	90405-3418	US		Flours... are essential. Not King Arthur but pink Happy Birthday From N and N	false		
114-3999627-8286666	36502779816186	2020-07-22T19:05:01+00:00	2020-07-22T12:05:01-07:00	2020-07-22T19:31:29+00:00	2020-07-25T06:59:59+00:00	-2	1znxm3gtr5h3x2d@marketplace.amazon.com	Gabriella Cseh	+1 415-851-9136 ext. 24049	ABR0055	Purchase Now for Delivery by Monday | Arabella Farm Direct Bouquet of 12 Stems of Fresh Cut Hot Pink Roses in a Free Designer Glass Vase	1	0	1	Expedited	Sherrie Lawson	331 DANA DR			FARMVILLE	VA	23901-4003	US		Enjoy your gift! From Gabriella Cseh	false		
111-9005857-3469808	58884547464210	2020-07-22T19:37:53+00:00	2020-07-22T12:37:53-07:00	2020-07-22T19:51:30+00:00	2020-07-25T06:59:59+00:00	-2	cpytk4khk2yh4hr@marketplace.amazon.com	monique de nys	+1 346-307-9643 ext. 03126	ABM010	The Spring Fling Bouquet by Arabella Bouquets with a Free Designer Glass Vase	1	0	1	Expedited	Celesse + Cainen+ Roguen	10172 meadow way			Truckee	CA	96161	US			false		
111-6884875-0600216	01192528632850	2020-07-22T20:00:25+00:00	2020-07-22T13:00:25-07:00	2020-07-22T20:30:19+00:00	2020-07-25T06:59:59+00:00	-2	7jgdhh9s04gw79v@marketplace.amazon.com	Nicolette Laird-Paddington	+1 346-307-9643 ext. 85695	ABR0022	Purchase Now for Delivery by Monday | Arabella Farm Direct Bouquet of 12 Fresh Cut Pink Roses with a Free Glass Vase	1	0	1	Expedited	Luke Paddington	1247 CURTISS AVE			SAN JOSE	CALIFORNIA	95125-2320	US			false		
111-2984170-4849854	12708925531106	2020-07-22T20:03:40+00:00	2020-07-22T13:03:40-07:00	2020-07-22T20:31:58+00:00	2020-07-25T06:59:59+00:00	-2	8vknkdn9byfgwxj@marketplace.amazon.com	Eloisa  Sanchez	+1 314-282-9402 ext. 16582	ABR0055	Purchase Now for Delivery by Monday | Arabella Farm Direct Bouquet of 12 Stems of Fresh Cut Hot Pink Roses in a Free Designer Glass Vase	1	0	1	Expedited	Eloisa Sanchez	11043 BETH CT			MORENO VALLEY	CA	92557-4973	US		Eva, of my nieces you are the one that makes me laugh and so happy to be around. Forgive me, you were there in my darkest moment and you were my rock. My heart hurts over my behavior... I love you amor. From Juanita Ramirez	false		
112-6118729-5009823	27965831419578	2020-07-22T21:16:12+00:00	2020-07-22T14:16:12-07:00	2020-07-22T21:41:13+00:00	2020-07-25T06:59:59+00:00	-2	027vjkd63cpkjn7@marketplace.amazon.com	Barb Gardner	+1 347-448-3190 ext. 65231	ABM010	The Spring Fling Bouquet by Arabella Bouquets with a Free Designer Glass Vase	1	0	1	Expedited	Melissa Holyfield	7516 CAMP ALGER AVE			FALLS CHURCH	VA	22042-3408	US		Thank you so much for such a wonderful weekend.  It was so nice to spend time with you and your family and to meet some of your mom's family.  WE had such a fabulous time.  Love and hugs From Barb & Dennis Gardner	false		
111-0681797-9933048	35646169451986	2020-07-22T21:32:05+00:00	2020-07-22T14:32:05-07:00	2020-07-22T22:00:21+00:00	2020-07-25T06:59:59+00:00	-2	hpjhk5hzmycp3bf@marketplace.amazon.com	amy lindberg	+1 347-448-3190 ext. 53195	ABR0022	Purchase Now for Delivery by Monday | Arabella Farm Direct Bouquet of 12 Fresh Cut Pink Roses with a Free Glass Vase	1	0	1	Expedited	Renee Koenig	3125 6TH AVE W			PALMETTO	FL	34221-6245	US		Happy Birthday! Love you the whole sky XO XO From Ron and Amy	false		
111-8367026-0753865	12763272429346	2020-07-22T22:23:09+00:00	2020-07-22T15:23:09-07:00	2020-07-22T22:24:09+00:00	2020-07-25T06:59:59+00:00	-2	8sc2l07l7zr3t4p@marketplace.amazon.com	Ava Wrightsman	+1 347-448-3190 ext. 65983	ABR0022	Purchase Now for Delivery by Monday | Arabella Farm Direct Bouquet of 12 Fresh Cut Pink Roses with a Free Glass Vase	1	0	1	Expedited	Linda Johnson	2730 OLD NEW WINDSOR PIKE			NEW WINDSOR	MD	21776-9606	US		Hi Linda, Congratulations on your retirement! You've got a wonderful set up there to really enjoy it to the maximum. :) Lots of love, Chris & Ava From Chris & Ava Wrightsman	false		
113-1373963-4857034	67352631153922	2020-07-22T21:56:38+00:00	2020-07-22T14:56:38-07:00	2020-07-22T22:24:57+00:00	2020-07-25T06:59:59+00:00	-2	nq5k745430hrv83@marketplace.amazon.com	JB	+1 347-448-3190 ext. 60042	ABM010	The Spring Fling Bouquet by Arabella Bouquets with a Free Designer Glass Vase	1	0	1	Expedited	Erin Brueckner	1421 MUIRWOOD DR			BRUNSWICK	OH	44212-7133	US			false		
114-7225843-7776221	11858460728426	2020-07-22T22:38:22+00:00	2020-07-22T15:38:22-07:00	2020-07-22T23:08:59+00:00	2020-07-25T06:59:59+00:00	-2	4tmxnnc0d84szbc@marketplace.amazon.com	Richard Dorris	+1 346-307-9643 ext. 23606	ABR0022	Purchase Now for Delivery by Monday | Arabella Farm Direct Bouquet of 12 Fresh Cut Pink Roses with a Free Glass Vase	1	0	1	Expedited	Richard Lee Dorris jr.	432 S REAL RD APT D			BAKERSFIELD	CA	93309-3397	US			false		
111-9445645-5615423	65205715462810	2020-07-22T22:58:25+00:00	2020-07-22T15:58:25-07:00	2020-07-22T23:24:13+00:00	2020-07-25T06:59:59+00:00	-2	v5jq1twvpp960c8@marketplace.amazon.com	carlos flores-santiago	+1 314-282-9402 ext. 92853	ABR011	Purchase Now for Delivery by Monday | Arabella Bouquets 18 Stems of Fresh Cut Red Roses in a Free Glass Vase	1	0	1	Expedited	Ruby Trinidad	205 GAITNER PL			ABINGDON	MD	21009-2824	US		Hi Ruby, Happy Birthday my dear friend !  Hope you enjoy your day to the max. THANK you for being such a wonderful  co-worker and friend.  Cuidate .. abrazos   Carlos	false		
113-3439626-2042627	61788418862002	2020-07-22T23:17:41+00:00	2020-07-22T16:17:41-07:00	2020-07-22T23:47:41+00:00	2020-07-25T06:59:59+00:00	-2	brnbshkwkxcpmhx@marketplace.amazon.com	Ronald wirth	+1 346-307-9643 ext. 84036	ABR0022	Purchase Now for Delivery by Monday | Arabella Farm Direct Bouquet of 12 Fresh Cut Pink Roses with a Free Glass Vase	1	0	1	Expedited	Shunmamekia Balkom	5656 HANDLEY BLVD			MORROW	GA	30260-3920	US			false		
111-5144770-4425803	35963848441330	2020-07-23T00:03:32+00:00	2020-07-22T17:03:32-07:00	2020-07-23T00:32:04+00:00	2020-07-25T06:59:59+00:00	-2	h2t1t4qcz8f6zg8@marketplace.amazon.com	Shari Anderson	+1 346-307-9643 ext. 41981	ABM010	The Spring Fling Bouquet by Arabella Bouquets with a Free Designer Glass Vase	1	0	1	Expedited	Sandy Rask	8249 TEN GALLON CT			LAS VEGAS	NV	89129-6829	US		Happy Birthday Sandy!! Love, Shari	false		
113-9780623-5245844	09138536422442	2020-07-23T00:26:14+00:00	2020-07-22T17:26:14-07:00	2020-07-23T00:56:15+00:00	2020-07-25T06:59:59+00:00	-2	vsjmpsx2zf0x4w8@marketplace.amazon.com	janice taffera	+1 346-307-9643 ext. 10652	ABM022	Purple Extravagance Bouquet by Arabella Bouquets	1	0	1	Expedited	Sally Rezykowski	805 BARTON CREEK DR			DRIPPING SPRINGS	TX	78620-3755	US			false		
114-1990867-7158622	22880309235858	2020-07-23T00:58:06+00:00	2020-07-22T17:58:06-07:00	2020-07-23T01:25:36+00:00	2020-07-25T06:59:59+00:00	-2	b8rhfnc0qwl5ppb@marketplace.amazon.com	Meade Love Penn	+1 346-307-9643 ext. 49313	ABR0022	Purchase Now for Delivery by Monday | Arabella Farm Direct Bouquet of 12 Fresh Cut Pink Roses with a Free Glass Vase	1	0	1	Expedited	Alice Story	THE KEMPTON AT BRIGHTMORE	2298 S 41st Street		WILMINGTON	NC	28403-5405	US		Hi Mom, Flowers for The Moi.... From Meade Love & Jack & Lindsey & Greg	false		
113-1591072-8857853	17081479369410	2020-07-23T00:56:20+00:00	2020-07-22T17:56:20-07:00	2020-07-23T01:25:54+00:00	2020-07-25T06:59:59+00:00	-2	62m7p2yd5yj93bs@marketplace.amazon.com	Susan M. Marzetta	+1 346-307-9643 ext. 40615	ABR004	Arabella Farm Direct Bouquet of 12 Fresh Cut Yellow Roses with a Free Glass Vase	1	0	1	Expedited	Ms. Lelia Harris West	405 BEN OAKS DR W			SEVERNA PARK	MD	21146-2208	US		Happy Birthday, Lelia! From Love, Susan	false		
114-6493692-0017001	60492745180962	2020-07-23T01:07:57+00:00	2020-07-22T18:07:57-07:00	2020-07-23T01:35:55+00:00	2020-07-25T06:59:59+00:00	-2	7xnv4cs8h7b58h3@marketplace.amazon.com	Antonio Simmons	+1 347-448-3190 ext. 88106	ABR0022	Purchase Now for Delivery by Monday | Arabella Farm Direct Bouquet of 12 Fresh Cut Pink Roses with a Free Glass Vase	1	0	1	Expedited	Antonio Simmons jr	8444 E INDIAN SCHOOL RD APT A3007			SCOTTSDALE	AZ	85251-3064	US			false		
111-7621195-6660235	17856262113370	2020-07-23T01:08:22+00:00	2020-07-22T18:08:22-07:00	2020-07-23T01:37:15+00:00	2020-07-25T06:59:59+00:00	-2	3lnvkvn0pr1z74b@marketplace.amazon.com	Kathy Linder	+1 314-282-9402 ext. 01405	ABR0022	Purchase Now for Delivery by Monday | Arabella Farm Direct Bouquet of 12 Fresh Cut Pink Roses with a Free Glass Vase	1	0	1	Expedited	Betty Linder	1410 MALLARD COVE DR APT 3302			SHARONVILLE	OH	45246-3919	US		Just because! Love you mom, Scott & Kathy From Kathy Linder	false		
114-5452602-6966615	35066471103442	2020-07-23T01:42:12+00:00	2020-07-22T18:42:12-07:00	2020-07-23T02:06:42+00:00	2020-07-25T06:59:59+00:00	-2	v4dk2wh1nhs5h66@marketplace.amazon.com	Judy William	+1 347-448-3190 ext. 17493	ABM010	The Spring Fling Bouquet by Arabella Bouquets with a Free Designer Glass Vase	1	0	1	Expedited	Penny Mouiss	1300 WOODLAND DR			AURORA	IL	60505-9719	US		Thinking about you.  A.J. and Judy From A.J. Williams	false		
113-6372143-9166633	16318690046642	2020-07-23T01:43:49+00:00	2020-07-22T18:43:49-07:00	2020-07-23T02:12:34+00:00	2020-07-25T06:59:59+00:00	-2	0xz09356h6sqstc@marketplace.amazon.com	karen good	+1 314-282-9402 ext. 41307	ABR0022	Purchase Now for Delivery by Monday | Arabella Farm Direct Bouquet of 12 Fresh Cut Pink Roses with a Free Glass Vase	1	0	1	Expedited	Grandma Carol Good	7 ASPEN WAY			ROLLING HILLS ESTATES	CA	90274-3407	US		Carol!  We love and MISS you! From karen and ethan	false		
114-8806124-2714632	60545847135338	2020-07-23T02:26:13+00:00	2020-07-22T19:26:13-07:00	2020-07-23T02:46:31+00:00	2020-07-25T06:59:59+00:00	-2	vc27lxry18fgcv0@marketplace.amazon.com	William Peterson	+1 346-307-9643 ext. 70203	ABR0022	Purchase Now for Delivery by Monday | Arabella Farm Direct Bouquet of 12 Fresh Cut Pink Roses with a Free Glass Vase	1	0	1	Expedited	Cathy Ricci	CENTURY VILLAGE 2048 VENTNOR O	APT 10		DEERFIELD BEACH	FL	33442-2474	US		We are all very sorry for your loss.  Love Bill, Meaw, and Jessica From William Peterson	false		
112-8167868-6337012	32717884645426	2020-07-23T04:41:33+00:00	2020-07-22T21:41:33-07:00	2020-07-23T05:12:10+00:00	2020-07-25T06:59:59+00:00	-2	p9vmg5b18wwrmsy@marketplace.amazon.com	virginia karl	+1 347-448-3190 ext. 51738	ABR012	Purchase Now for Delivery by Monday | Arabella Farm Direct Bouquet of 18 Fresh Cut Pink Roses with a Free Glass Vase	1	0	1	Expedited	Mrs. Gina Calle	2217 Hering Ave.			Bronx	NY	10469	US			false		
114-9899531-3089055	32470204371386	2020-07-23T05:34:59+00:00	2020-07-22T22:34:59-07:00	2020-07-23T06:04:49+00:00	2020-07-24T06:59:59+00:00	-1	2wzfwfmj0rn81rb@marketplace.amazon.com	William Walter	+1 346-307-9643 ext. 73612	ABR014	Arabella Bouquets 18 Stems of Fresh Cut White Roses in a Free Designer Glass Vase	1	0	1	SecondDay	Kimberly Williams	3907 GRASSLAND LOOP			LAKE MARY	FL	32746-4121	US			false		
114-7870339-9412226	17034763631794	2020-07-23T05:37:36+00:00	2020-07-22T22:37:36-07:00	2020-07-23T06:07:36+00:00	2020-07-25T06:59:59+00:00	-2	yln563mc76rgqjh@marketplace.amazon.com	nick matson	+1 210-728-4548 ext. 48564	ABR0033	Purchase Now for Delivery by Monday | Arabella Farm Direct Bouquet of 12 Fresh Cut Orange Roses with a Free Glass Vase	1	0	1	Expedited	Kaitlyn Guernsey	2842 LARCH ST			LONGVIEW	WA	98632-3523	US			false		
114-1207909-6403464	62291991564002	2020-07-23T06:25:19+00:00	2020-07-22T23:25:19-07:00	2020-07-23T06:53:53+00:00	2020-07-25T06:59:59+00:00	-2	fqjwv0827d1qw7h@marketplace.amazon.com	Bryan O'Donnell	+1 346-307-9643 ext. 46554	ABR0022	Purchase Now for Delivery by Monday | Arabella Farm Direct Bouquet of 12 Fresh Cut Pink Roses with a Free Glass Vase	1	0	1	Standard	Rebekah Schuppel	118 Forrest Ave	Unit B		Norfolk	VA	23505	US		Love and miss you.  Proud of you!  Love, Bryan From Bryan O'Donnell	false		
111-3086976-2201847	04123843183250	2020-07-23T09:47:11+00:00	2020-07-23T02:47:11-07:00	2020-07-23T10:13:49+00:00	2020-07-28T06:59:59+00:00	-5	4whr2wzzxfkg9s2@marketplace.amazon.com	Ben Wiegers	+1 314-282-9402 ext. 08054	ABM022	Purple Extravagance Bouquet by Arabella Bouquets	1	0	1	Expedited	Karen Keys	772 SAINT NICHOLAS AVE APT 45			NEW YORK	NY	10031-4027	US			false		
113-5850407-4445008	18116043572410	2020-07-23T09:49:25+00:00	2020-07-23T02:49:25-07:00	2020-07-23T10:18:35+00:00	2020-07-28T06:59:59+00:00	-5	6mmd8j9tyjy5hhp@marketplace.amazon.com	vmullaney@kc.rr.com	+1 347-448-3190 ext. 92236	ABR0022	Purchase Now for Delivery by Monday | Arabella Farm Direct Bouquet of 12 Fresh Cut Pink Roses with a Free Glass Vase	1	0	1	Expedited	Margaret Mullaney	10951 JOHNSON BLVD UNIT U204			SEMINOLE	FL	33772-4706	US		Mom - something to brighten up your room for week 2.  We love you and miss you!!  See you soon, we hope!!   Love From Joe & Vesta	false		
113-7519431-5258619	06442393965402	2020-07-23T10:10:40+00:00	2020-07-23T03:10:40-07:00	2020-07-23T10:32:55+00:00	2020-07-28T06:59:59+00:00	-5	lxxvwgp8x0khg9z@marketplace.amazon.com	Jacob	+1 346-307-9643 ext. 47086	ABR0022	Purchase Now for Delivery by Monday | Arabella Farm Direct Bouquet of 12 Fresh Cut Pink Roses with a Free Glass Vase	1	0	1	Expedited	Jacob Hong	1113 STATE ST APT 1			LA CROSSE	WI	54601-3580	US		Will you be my girlfriend? From Jacob	false		
114-4341812-2285060	33019825778170	2020-07-23T10:49:35+00:00	2020-07-23T03:49:35-07:00	2020-07-23T11:16:15+00:00	2020-07-28T06:59:59+00:00	-5	vkdklrbblspyl0l@marketplace.amazon.com	william	+1 415-851-9136 ext. 08194	ABR001	Purchase Now for Delivery by Monday | Arabella Bouquets 12 Stems of Fresh Cut Red Roses in a Free Designer Glass Vase	1	0	1	Expedited	jenna rule	9288 2125 RD	ORCHARD CITY CO 81410 APT		ORCHARD CITY	CO	81410-8370	US		Enjoy your gift!   Ever since you came into my life all have known is happiness, Your love brightens my life just like the morning sun brightens the world.. i love you From James K Robert	false		
111-8114785-5416264	65270561695522	2020-07-23T11:15:06+00:00	2020-07-23T04:15:06-07:00	2020-07-23T11:43:10+00:00	2020-07-28T06:59:59+00:00	-5	kv4fp8p7xntkwgj@marketplace.amazon.com	Stacey Ford	+1 346-307-9643 ext. 40124	ABR0022	Purchase Now for Delivery by Monday | Arabella Farm Direct Bouquet of 12 Fresh Cut Pink Roses with a Free Glass Vase	1	0	1	Expedited	Stacey T Ford	9047 SPRING VALLEY DR			FREDERICK	MD	21701-5815	US		Happy 21st Em!, From Stacey	false		
114-2892912-2859418	26349469413546	2020-07-23T12:16:33+00:00	2020-07-23T05:16:33-07:00	2020-07-23T12:38:46+00:00	2020-07-28T06:59:59+00:00	-5	4b16k4gl6vs4mtm@marketplace.amazon.com	Dorothy S. Johnson	+1 415-851-9136 ext. 44047	ABR0022	Purchase Now for Delivery by Monday | Arabella Farm Direct Bouquet of 12 Fresh Cut Pink Roses with a Free Glass Vase	1	0	1	Expedited	Mr. and Mrs Don Bembenek	782 LAKE WELLINGTON DR			WELLINGTON	FL	33414-7968	US		Wishing your day to be filled with sunshine and smiles! Love, Dottie From Dorothy S. Johnson	false		
114-6054065-1850620	20029303105530	2020-07-23T13:43:39+00:00	2020-07-23T06:43:39-07:00	2020-07-23T14:09:40+00:00	2020-07-28T06:59:59+00:00	-5	m2nnj6jzg373s0h@marketplace.amazon.com	Nisha Ramesh	+1 415-851-9136 ext. 25990	ABR0022	Purchase Now for Delivery by Monday | Arabella Farm Direct Bouquet of 12 Fresh Cut Pink Roses with a Free Glass Vase	1	0	1	Expedited	Shamim Bari	2 OSBORNE RD			GARDEN CITY	NY	11530-3018	US		Thank you for thinking about us and making those wonderful masks. You made us feel special! From Sowmini Rangaswamy	false		
