order-id	order-item-id	purchase-date	payments-date	reporting-date	promise-date	days-past-promise	buyer-email	buyer-name	buyer-phone-number	sku	product-name	quantity-purchased	quantity-shipped	quantity-to-ship	ship-service-level	recipient-name	ship-address-1	ship-address-2	ship-address-3	ship-city	ship-state	ship-postal-code	ship-country	gift-wrap-type	gift-message-text	is-business-order	purchase-order-number	price-designation
112-0822701-1166658	32942780968922	2020-07-22T17:43:39+00:00	2020-07-22T10:43:39-07:00	2020-07-22T18:05:01+00:00	2020-07-25T06:59:59+00:00	-1	7tpmbc21463kbsj@marketplace.amazon.com	Nadine Butler	+1 210-728-4548 ext. 91831	ABR0022	Purchase Now for Delivery by Monday | Arabella Farm Direct Bouquet of 12 Fresh Cut Pink Roses with a Free Glass Vase	1	0	1	Expedited	Lauren Collins	421 HOLLISTER AVE			SANTA MONICA	CA	90405-3418	US		Flours... are essential. Not King Arthur but pink Happy Birthday From N and N	false		
114-3999627-8286666	36502779816186	2020-07-22T19:05:01+00:00	2020-07-22T12:05:01-07:00	2020-07-22T19:31:29+00:00	2020-07-25T06:59:59+00:00	-1	1znxm3gtr5h3x2d@marketplace.amazon.com	Gabriella Cseh	+1 415-851-9136 ext. 24049	ABR0055	Purchase Now for Delivery by Monday | Arabella Farm Direct Bouquet of 12 Stems of Fresh Cut Hot Pink Roses in a Free Designer Glass Vase	1	0	1	Expedited	Sherrie Lawson	331 DANA DR			FARMVILLE	VA	23901-4003	US		Enjoy your gift! From Gabriella Cseh	false		
111-9005857-3469808	58884547464210	2020-07-22T19:37:53+00:00	2020-07-22T12:37:53-07:00	2020-07-22T19:51:30+00:00	2020-07-25T06:59:59+00:00	-1	cpytk4khk2yh4hr@marketplace.amazon.com	monique de nys	+1 346-307-9643 ext. 03126	ABM010	The Spring Fling Bouquet by Arabella Bouquets with a Free Designer Glass Vase	1	0	1	Expedited	Celesse + Cainen+ Roguen	10172 meadow way			Truckee	CA	96161	US			false		
111-6884875-0600216	01192528632850	2020-07-22T20:00:25+00:00	2020-07-22T13:00:25-07:00	2020-07-22T20:30:19+00:00	2020-07-25T06:59:59+00:00	-1	7jgdhh9s04gw79v@marketplace.amazon.com	Nicolette Laird-Paddington	+1 346-307-9643 ext. 85695	ABR0022	Purchase Now for Delivery by Monday | Arabella Farm Direct Bouquet of 12 Fresh Cut Pink Roses with a Free Glass Vase	1	0	1	Expedited	Luke Paddington	1247 CURTISS AVE			SAN JOSE	CALIFORNIA	95125-2320	US			false		
111-2984170-4849854	12708925531106	2020-07-22T20:03:40+00:00	2020-07-22T13:03:40-07:00	2020-07-22T20:31:58+00:00	2020-07-25T06:59:59+00:00	-1	8vknkdn9byfgwxj@marketplace.amazon.com	Eloisa  Sanchez	+1 314-282-9402 ext. 16582	ABR0055	Purchase Now for Delivery by Monday | Arabella Farm Direct Bouquet of 12 Stems of Fresh Cut Hot Pink Roses in a Free Designer Glass Vase	1	0	1	Expedited	Eloisa Sanchez	11043 BETH CT			MORENO VALLEY	CA	92557-4973	US		Eva, of my nieces you are the one that makes me laugh and so happy to be around. Forgive me, you were there in my darkest moment and you were my rock. My heart hurts over my behavior... I love you amor. From Juanita Ramirez	false		
112-6118729-5009823	27965831419578	2020-07-22T21:16:12+00:00	2020-07-22T14:16:12-07:00	2020-07-22T21:41:13+00:00	2020-07-25T06:59:59+00:00	-1	027vjkd63cpkjn7@marketplace.amazon.com	Barb Gardner	+1 347-448-3190 ext. 65231	ABM010	The Spring Fling Bouquet by Arabella Bouquets with a Free Designer Glass Vase	1	0	1	Expedited	Melissa Holyfield	7516 CAMP ALGER AVE			FALLS CHURCH	VA	22042-3408	US		Thank you so much for such a wonderful weekend.  It was so nice to spend time with you and your family and to meet some of your mom's family.  WE had such a fabulous time.  Love and hugs From Barb & Dennis Gardner	false		
111-0681797-9933048	35646169451986	2020-07-22T21:32:05+00:00	2020-07-22T14:32:05-07:00	2020-07-22T22:00:21+00:00	2020-07-25T06:59:59+00:00	-1	hpjhk5hzmycp3bf@marketplace.amazon.com	amy lindberg	+1 347-448-3190 ext. 53195	ABR0022	Purchase Now for Delivery by Monday | Arabella Farm Direct Bouquet of 12 Fresh Cut Pink Roses with a Free Glass Vase	1	0	1	Expedited	Renee Koenig	3125 6TH AVE W			PALMETTO	FL	34221-6245	US		Happy Birthday! Love you the whole sky XO XO From Ron and Amy	false		
111-8367026-0753865	12763272429346	2020-07-22T22:23:09+00:00	2020-07-22T15:23:09-07:00	2020-07-22T22:24:09+00:00	2020-07-25T06:59:59+00:00	-1	8sc2l07l7zr3t4p@marketplace.amazon.com	Ava Wrightsman	+1 347-448-3190 ext. 65983	ABR0022	Purchase Now for Delivery by Monday | Arabella Farm Direct Bouquet of 12 Fresh Cut Pink Roses with a Free Glass Vase	1	0	1	Expedited	Linda Johnson	2730 OLD NEW WINDSOR PIKE			NEW WINDSOR	MD	21776-9606	US		Hi Linda, Congratulations on your retirement! You've got a wonderful set up there to really enjoy it to the maximum. :) Lots of love, Chris & Ava From Chris & Ava Wrightsman	false		
113-1373963-4857034	67352631153922	2020-07-22T21:56:38+00:00	2020-07-22T14:56:38-07:00	2020-07-22T22:24:57+00:00	2020-07-25T06:59:59+00:00	-1	nq5k745430hrv83@marketplace.amazon.com	JB	+1 347-448-3190 ext. 60042	ABM010	The Spring Fling Bouquet by Arabella Bouquets with a Free Designer Glass Vase	1	0	1	Expedited	Erin Brueckner	1421 MUIRWOOD DR			BRUNSWICK	OH	44212-7133	US			false		
114-7225843-7776221	11858460728426	2020-07-22T22:38:22+00:00	2020-07-22T15:38:22-07:00	2020-07-22T23:08:59+00:00	2020-07-25T06:59:59+00:00	-1	4tmxnnc0d84szbc@marketplace.amazon.com	Richard Dorris	+1 346-307-9643 ext. 23606	ABR0022	Purchase Now for Delivery by Monday | Arabella Farm Direct Bouquet of 12 Fresh Cut Pink Roses with a Free Glass Vase	1	0	1	Expedited	Richard Lee Dorris jr.	432 S REAL RD APT D			BAKERSFIELD	CA	93309-3397	US			false		
111-9445645-5615423	65205715462810	2020-07-22T22:58:25+00:00	2020-07-22T15:58:25-07:00	2020-07-22T23:24:13+00:00	2020-07-25T06:59:59+00:00	-1	v5jq1twvpp960c8@marketplace.amazon.com	carlos flores-santiago	+1 314-282-9402 ext. 92853	ABR011	Purchase Now for Delivery by Monday | Arabella Bouquets 18 Stems of Fresh Cut Red Roses in a Free Glass Vase	1	0	1	Expedited	Ruby Trinidad	205 GAITNER PL			ABINGDON	MD	21009-2824	US		Hi Ruby, Happy Birthday my dear friend !  Hope you enjoy your day to the max. THANK you for being such a wonderful  co-worker and friend.  Cuidate .. abrazos   Carlos	false		
113-3439626-2042627	61788418862002	2020-07-22T23:17:41+00:00	2020-07-22T16:17:41-07:00	2020-07-22T23:47:41+00:00	2020-07-25T06:59:59+00:00	-1	brnbshkwkxcpmhx@marketplace.amazon.com	Ronald wirth	+1 346-307-9643 ext. 84036	ABR0022	Purchase Now for Delivery by Monday | Arabella Farm Direct Bouquet of 12 Fresh Cut Pink Roses with a Free Glass Vase	1	0	1	Expedited	Shunmamekia Balkom	5656 HANDLEY BLVD			MORROW	GA	30260-3920	US			false		
111-5144770-4425803	35963848441330	2020-07-23T00:03:32+00:00	2020-07-22T17:03:32-07:00	2020-07-23T00:32:04+00:00	2020-07-25T06:59:59+00:00	-1	h2t1t4qcz8f6zg8@marketplace.amazon.com	Shari Anderson	+1 346-307-9643 ext. 41981	ABM010	The Spring Fling Bouquet by Arabella Bouquets with a Free Designer Glass Vase	1	0	1	Expedited	Sandy Rask	8249 TEN GALLON CT			LAS VEGAS	NV	89129-6829	US		Happy Birthday Sandy!! Love, Shari	false		
113-9780623-5245844	09138536422442	2020-07-23T00:26:14+00:00	2020-07-22T17:26:14-07:00	2020-07-23T00:56:15+00:00	2020-07-25T06:59:59+00:00	-1	vsjmpsx2zf0x4w8@marketplace.amazon.com	janice taffera	+1 346-307-9643 ext. 10652	ABM022	Purple Extravagance Bouquet by Arabella Bouquets	1	0	1	Expedited	Sally Rezykowski	805 BARTON CREEK DR			DRIPPING SPRINGS	TX	78620-3755	US			false		
114-1990867-7158622	22880309235858	2020-07-23T00:58:06+00:00	2020-07-22T17:58:06-07:00	2020-07-23T01:25:36+00:00	2020-07-25T06:59:59+00:00	-1	b8rhfnc0qwl5ppb@marketplace.amazon.com	Meade Love Penn	+1 346-307-9643 ext. 49313	ABR0022	Purchase Now for Delivery by Monday | Arabella Farm Direct Bouquet of 12 Fresh Cut Pink Roses with a Free Glass Vase	1	0	1	Expedited	Alice Story	THE KEMPTON AT BRIGHTMORE	2298 S 41st Street		WILMINGTON	NC	28403-5405	US		Hi Mom, Flowers for The Moi.... From Meade Love & Jack & Lindsey & Greg	false		
113-1591072-8857853	17081479369410	2020-07-23T00:56:20+00:00	2020-07-22T17:56:20-07:00	2020-07-23T01:25:54+00:00	2020-07-25T06:59:59+00:00	-1	62m7p2yd5yj93bs@marketplace.amazon.com	Susan M. Marzetta	+1 346-307-9643 ext. 40615	ABR004	Arabella Farm Direct Bouquet of 12 Fresh Cut Yellow Roses with a Free Glass Vase	1	0	1	Expedited	Ms. Lelia Harris West	405 BEN OAKS DR W			SEVERNA PARK	MD	21146-2208	US		Happy Birthday, Lelia! From Love, Susan	false		
114-6493692-0017001	60492745180962	2020-07-23T01:07:57+00:00	2020-07-22T18:07:57-07:00	2020-07-23T01:35:55+00:00	2020-07-25T06:59:59+00:00	-1	7xnv4cs8h7b58h3@marketplace.amazon.com	Antonio Simmons	+1 347-448-3190 ext. 88106	ABR0022	Purchase Now for Delivery by Monday | Arabella Farm Direct Bouquet of 12 Fresh Cut Pink Roses with a Free Glass Vase	1	0	1	Expedited	Antonio Simmons jr	8444 E INDIAN SCHOOL RD APT A3007			SCOTTSDALE	AZ	85251-3064	US			false		
111-7621195-6660235	17856262113370	2020-07-23T01:08:22+00:00	2020-07-22T18:08:22-07:00	2020-07-23T01:37:15+00:00	2020-07-25T06:59:59+00:00	-1	3lnvkvn0pr1z74b@marketplace.amazon.com	Kathy Linder	+1 314-282-9402 ext. 01405	ABR0022	Purchase Now for Delivery by Monday | Arabella Farm Direct Bouquet of 12 Fresh Cut Pink Roses with a Free Glass Vase	1	0	1	Expedited	Betty Linder	1410 MALLARD COVE DR APT 3302			SHARONVILLE	OH	45246-3919	US		Just because! Love you mom, Scott & Kathy From Kathy Linder	false		
114-5452602-6966615	35066471103442	2020-07-23T01:42:12+00:00	2020-07-22T18:42:12-07:00	2020-07-23T02:06:42+00:00	2020-07-25T06:59:59+00:00	-1	v4dk2wh1nhs5h66@marketplace.amazon.com	Judy William	+1 347-448-3190 ext. 17493	ABM010	The Spring Fling Bouquet by Arabella Bouquets with a Free Designer Glass Vase	1	0	1	Expedited	Penny Mouiss	1300 WOODLAND DR			AURORA	IL	60505-9719	US		Thinking about you.  A.J. and Judy From A.J. Williams	false		
113-6372143-9166633	16318690046642	2020-07-23T01:43:49+00:00	2020-07-22T18:43:49-07:00	2020-07-23T02:12:34+00:00	2020-07-25T06:59:59+00:00	-1	0xz09356h6sqstc@marketplace.amazon.com	karen good	+1 314-282-9402 ext. 41307	ABR0022	Purchase Now for Delivery by Monday | Arabella Farm Direct Bouquet of 12 Fresh Cut Pink Roses with a Free Glass Vase	1	0	1	Expedited	Grandma Carol Good	7 ASPEN WAY			ROLLING HILLS ESTATES	CA	90274-3407	US		Carol!  We love and MISS you! From karen and ethan	false		
114-8806124-2714632	60545847135338	2020-07-23T02:26:13+00:00	2020-07-22T19:26:13-07:00	2020-07-23T02:46:31+00:00	2020-07-25T06:59:59+00:00	-1	vc27lxry18fgcv0@marketplace.amazon.com	William Peterson	+1 346-307-9643 ext. 70203	ABR0022	Purchase Now for Delivery by Monday | Arabella Farm Direct Bouquet of 12 Fresh Cut Pink Roses with a Free Glass Vase	1	0	1	Expedited	Cathy Ricci	CENTURY VILLAGE 2048 VENTNOR O	APT 10		DEERFIELD BEACH	FL	33442-2474	US		We are all very sorry for your loss.  Love Bill, Meaw, and Jessica From William Peterson	false		
112-8167868-6337012	32717884645426	2020-07-23T04:41:33+00:00	2020-07-22T21:41:33-07:00	2020-07-23T05:12:10+00:00	2020-07-25T06:59:59+00:00	-1	p9vmg5b18wwrmsy@marketplace.amazon.com	virginia karl	+1 347-448-3190 ext. 51738	ABR012	Purchase Now for Delivery by Monday | Arabella Farm Direct Bouquet of 18 Fresh Cut Pink Roses with a Free Glass Vase	1	0	1	Expedited	Mrs. Gina Calle	2217 Hering Ave.			Bronx	NY	10469	US			false		
114-7870339-9412226	17034763631794	2020-07-23T05:37:36+00:00	2020-07-22T22:37:36-07:00	2020-07-23T06:07:36+00:00	2020-07-25T06:59:59+00:00	-1	yln563mc76rgqjh@marketplace.amazon.com	nick matson	+1 210-728-4548 ext. 48564	ABR0033	Purchase Now for Delivery by Monday | Arabella Farm Direct Bouquet of 12 Fresh Cut Orange Roses with a Free Glass Vase	1	0	1	Expedited	Kaitlyn Guernsey	2842 LARCH ST			LONGVIEW	WA	98632-3523	US			false		
114-1207909-6403464	62291991564002	2020-07-23T06:25:19+00:00	2020-07-22T23:25:19-07:00	2020-07-23T06:53:53+00:00	2020-07-25T06:59:59+00:00	-1	fqjwv0827d1qw7h@marketplace.amazon.com	Bryan O'Donnell	+1 346-307-9643 ext. 46554	ABR0022	Purchase Now for Delivery by Monday | Arabella Farm Direct Bouquet of 12 Fresh Cut Pink Roses with a Free Glass Vase	1	0	1	Standard	Rebekah Schuppel	118 Forrest Ave	Unit B		Norfolk	VA	23505	US		Love and miss you.  Proud of you!  Love, Bryan From Bryan O'Donnell	false		
111-3086976-2201847	04123843183250	2020-07-23T09:47:11+00:00	2020-07-23T02:47:11-07:00	2020-07-23T10:13:49+00:00	2020-07-28T06:59:59+00:00	-4	4whr2wzzxfkg9s2@marketplace.amazon.com	Ben Wiegers	+1 314-282-9402 ext. 08054	ABM022	Purple Extravagance Bouquet by Arabella Bouquets	1	0	1	Expedited	Karen Keys	772 SAINT NICHOLAS AVE APT 45			NEW YORK	NY	10031-4027	US			false		
113-5850407-4445008	18116043572410	2020-07-23T09:49:25+00:00	2020-07-23T02:49:25-07:00	2020-07-23T10:18:35+00:00	2020-07-28T06:59:59+00:00	-4	6mmd8j9tyjy5hhp@marketplace.amazon.com	vmullaney@kc.rr.com	+1 347-448-3190 ext. 92236	ABR0022	Purchase Now for Delivery by Monday | Arabella Farm Direct Bouquet of 12 Fresh Cut Pink Roses with a Free Glass Vase	1	0	1	Expedited	Margaret Mullaney	10951 JOHNSON BLVD UNIT U204			SEMINOLE	FL	33772-4706	US		Mom - something to brighten up your room for week 2.  We love you and miss you!!  See you soon, we hope!!   Love From Joe & Vesta	false		
113-7519431-5258619	06442393965402	2020-07-23T10:10:40+00:00	2020-07-23T03:10:40-07:00	2020-07-23T10:32:55+00:00	2020-07-28T06:59:59+00:00	-4	lxxvwgp8x0khg9z@marketplace.amazon.com	Jacob	+1 346-307-9643 ext. 47086	ABR0022	Purchase Now for Delivery by Monday | Arabella Farm Direct Bouquet of 12 Fresh Cut Pink Roses with a Free Glass Vase	1	0	1	Expedited	Jacob Hong	1113 STATE ST APT 1			LA CROSSE	WI	54601-3580	US		Will you be my girlfriend? From Jacob	false		
114-4341812-2285060	33019825778170	2020-07-23T10:49:35+00:00	2020-07-23T03:49:35-07:00	2020-07-23T11:16:15+00:00	2020-07-28T06:59:59+00:00	-4	vkdklrbblspyl0l@marketplace.amazon.com	william	+1 415-851-9136 ext. 08194	ABR001	Purchase Now for Delivery by Monday | Arabella Bouquets 12 Stems of Fresh Cut Red Roses in a Free Designer Glass Vase	1	0	1	Expedited	jenna rule	9288 2125 RD	ORCHARD CITY CO 81410 APT		ORCHARD CITY	CO	81410-8370	US		Enjoy your gift!   Ever since you came into my life all have known is happiness, Your love brightens my life just like the morning sun brightens the world.. i love you From James K Robert	false		
111-8114785-5416264	65270561695522	2020-07-23T11:15:06+00:00	2020-07-23T04:15:06-07:00	2020-07-23T11:43:10+00:00	2020-07-28T06:59:59+00:00	-4	kv4fp8p7xntkwgj@marketplace.amazon.com	Stacey Ford	+1 346-307-9643 ext. 40124	ABR0022	Purchase Now for Delivery by Monday | Arabella Farm Direct Bouquet of 12 Fresh Cut Pink Roses with a Free Glass Vase	1	0	1	Expedited	Stacey T Ford	9047 SPRING VALLEY DR			FREDERICK	MD	21701-5815	US		Happy 21st Em!, From Stacey	false		
114-2892912-2859418	26349469413546	2020-07-23T12:16:33+00:00	2020-07-23T05:16:33-07:00	2020-07-23T12:38:46+00:00	2020-07-28T06:59:59+00:00	-4	4b16k4gl6vs4mtm@marketplace.amazon.com	Dorothy S. Johnson	+1 415-851-9136 ext. 44047	ABR0022	Purchase Now for Delivery by Monday | Arabella Farm Direct Bouquet of 12 Fresh Cut Pink Roses with a Free Glass Vase	1	0	1	Expedited	Mr. and Mrs Don Bembenek	782 LAKE WELLINGTON DR			WELLINGTON	FL	33414-7968	US		Wishing your day to be filled with sunshine and smiles! Love, Dottie From Dorothy S. Johnson	false		
114-6054065-1850620	20029303105530	2020-07-23T13:43:39+00:00	2020-07-23T06:43:39-07:00	2020-07-23T14:09:40+00:00	2020-07-28T06:59:59+00:00	-4	m2nnj6jzg373s0h@marketplace.amazon.com	Nisha Ramesh	+1 415-851-9136 ext. 25990	ABR0022	Purchase Now for Delivery by Monday | Arabella Farm Direct Bouquet of 12 Fresh Cut Pink Roses with a Free Glass Vase	1	0	1	Expedited	Shamim Bari	2 OSBORNE RD			GARDEN CITY	NY	11530-3018	US		Thank you for thinking about us and making those wonderful masks. You made us feel special! From Sowmini Rangaswamy	false		
114-4702666-7109854	45140294660866	2020-07-23T14:41:31+00:00	2020-07-23T07:41:31-07:00	2020-07-23T15:06:42+00:00	2020-07-28T06:59:59+00:00	-4	pxy9xqy1q5xdgzz@marketplace.amazon.com	James Haakenson	+1 346-307-9643 ext. 70199	ABR0022	Purchase Now for Delivery by Monday | Arabella Farm Direct Bouquet of 12 Fresh Cut Pink Roses with a Free Glass Vase	1	0	1	Expedited	Michelle Johnson	23505 112TH ST			TREVOR	WI	53179-9572	US		Michelle, We hope for a speedy recovery. You are in our thoughts and prayers! Haakensons' Jim & Barb From James Haakenson	false		
111-8247955-1893846	53929373886618	2020-07-23T14:40:46+00:00	2020-07-23T07:40:46-07:00	2020-07-23T15:11:21+00:00	2020-07-28T06:59:59+00:00	-4	9vx0vvk8lrvxzfg@marketplace.amazon.com	Mark Engle	+1 415-851-9136 ext. 02032	ABM010	The Spring Fling Bouquet by Arabella Bouquets with a Free Designer Glass Vase	1	0	1	Expedited	Charlotte  Engle	2317 KIMBERLY DR			PIPE CREEK	TX	78063-5647	US			false		
113-3403825-4795469	33057785108106	2020-07-23T14:56:35+00:00	2020-07-23T07:56:35-07:00	2020-07-23T15:27:11+00:00	2020-07-28T06:59:59+00:00	-4	6lq3z51kjs7b6g5@marketplace.amazon.com	Jose grimaldo	+1 347-448-3190 ext. 31599	ABM010	The Spring Fling Bouquet by Arabella Bouquets with a Free Designer Glass Vase	1	0	1	Expedited	Claudia Benitez	800 N WALNUT ST TRLR 52			ROANOKE	TX	76262-5002	US			false		
112-7629544-4487464	46053081990986	2020-07-23T15:14:07+00:00	2020-07-23T08:14:07-07:00	2020-07-23T15:34:52+00:00	2020-07-28T06:59:59+00:00	-4	bdcmksf8qhrg2d3@marketplace.amazon.com	JORGE CORZO	+1 415-851-9136 ext. 65269	ABR0022	Purchase Now for Delivery by Monday | Arabella Farm Direct Bouquet of 12 Fresh Cut Pink Roses with a Free Glass Vase	1	0	1	Expedited	Karla G. Romero	1110 PORTOFINO CT UNIT 102	UNIT 102		CORONA	CA	92881-7218	US			false		
113-5562063-4355468	22297810132218	2020-07-23T15:28:10+00:00	2020-07-23T08:28:10-07:00	2020-07-23T15:54:20+00:00	2020-07-28T06:59:59+00:00	-4	6ycyrpjhb2w7k3k@marketplace.amazon.com	Leonard Costa Sr.	+1 346-307-9643 ext. 77228	ABR0022	Purchase Now for Delivery by Monday | Arabella Farm Direct Bouquet of 12 Fresh Cut Pink Roses with a Free Glass Vase	1	0	1	Expedited	Leonard Costa 3rd	303 DELLBROOK DR			LONGVIEW	TX	75604-1724	US		I hope all of you are have wonderful time together. Love you all. From Leonard Costa Sr.	false		
112-7571194-9618646	63688836465986	2020-07-23T15:37:59+00:00	2020-07-23T08:37:59-07:00	2020-07-23T16:04:19+00:00	2020-07-28T06:59:59+00:00	-4	hcl3g0j9twkwln2@marketplace.amazon.com	helen	+1 346-307-9643 ext. 37509	ABR0055	Purchase Now for Delivery by Monday | Arabella Farm Direct Bouquet of 12 Stems of Fresh Cut Hot Pink Roses in a Free Designer Glass Vase	1	0	1	Expedited	Fernanda	4713 NORMAN TRL	AUSTIN TEXAS 78749		AUSTIN	TX	78749-1167	US		Feliz cumple  Fernandita! 🎉🎉🎉 We love you 😘 From Elena , Erika and Andrea	false		
112-1883888-2138620	11581830981178	2020-07-23T15:34:16+00:00	2020-07-23T08:34:16-07:00	2020-07-23T16:04:37+00:00	2020-07-28T06:59:59+00:00	-4	fbwl68smcth52kr@marketplace.amazon.com	Mark Fitzpatrick	+1 210-728-4548 ext. 57615	ABR001	Purchase Now for Delivery by Monday | Arabella Bouquets 12 Stems of Fresh Cut Red Roses in a Free Designer Glass Vase	1	0	1	Expedited	Heather Rich	6744 S LOCUST CT			ENGLEWOOD	CO	80112-1007	US			false		
113-0758706-5009810	55311200054602	2020-07-23T15:54:10+00:00	2020-07-23T08:54:10-07:00	2020-07-23T16:20:49+00:00	2020-07-28T06:59:59+00:00	-4	tlnd7b8v25pxkck@marketplace.amazon.com	Rose Niedermayer	+1 415-851-9136 ext. 84089	ABR0022	Purchase Now for Delivery by Monday | Arabella Farm Direct Bouquet of 12 Fresh Cut Pink Roses with a Free Glass Vase	1	0	1	Expedited	Sandra Adelstein	4400 LONGLEAF DR			HENRICO	VA	23294-5902	US		Mom, hope you're feeling better soon.  We love you, From Rose, Eddie & Andy Niedermayer (and Alex & Glenn too)	false		
111-0708121-0971433	03981808993890	2020-07-23T15:56:45+00:00	2020-07-23T08:56:45-07:00	2020-07-23T16:22:38+00:00	2020-07-28T06:59:59+00:00	-4	6v66lj4bpm9y31m@marketplace.amazon.com	Myladeen Mirandilla	+1 346-307-9643 ext. 69071	ABR0022	Purchase Now for Delivery by Monday | Arabella Farm Direct Bouquet of 12 Fresh Cut Pink Roses with a Free Glass Vase	1	0	1	Expedited	Leniza Cruz-Tapia	7700 SANCOLA AVE			SUN VALLEY	CA	91352-4358	US		Happy 😃 Birthday 🎂 Bestie! From Love, your Bestie in Philippines	false		
112-5076741-7684268	67762103739386	2020-07-23T16:08:31+00:00	2020-07-23T09:08:31-07:00	2020-07-23T16:32:03+00:00	2020-07-28T06:59:59+00:00	-4	kbpk8hjjyjmd7gh@marketplace.amazon.com	Kelly Ammerman	+1 210-728-4548 ext. 45803	ABM002	Arabella Bouquets Fresh Cut White Calla Lilies in a Free Designer Glass Vase	1	0	1	Expedited	Kim Valencia	6296 CAMINITO ESTRELLADO			SAN DIEGO	CA	92120-3849	US		Dear Kim, Calla Lilies Always Make Me Think Of You And Mexico! Love You, Kelly From Kelly Ammerman	false		
111-8840101-5403444	07438138856898	2020-07-23T16:14:26+00:00	2020-07-23T09:14:26-07:00	2020-07-23T16:43:08+00:00	2020-07-28T06:59:59+00:00	-4	qnz1f3njf3fhypx@marketplace.amazon.com	gudrun zandlo	+1 346-307-9643 ext. 31914	ABR0022	Purchase Now for Delivery by Monday | Arabella Farm Direct Bouquet of 12 Fresh Cut Pink Roses with a Free Glass Vase	1	0	1	Expedited	Sandy Bartolo	3412 DONOSO CT			NAPLES	FL	34109-1377	US		Have a great day! From gudrun zandlo	false		
112-6109556-3733009	61843913658914	2020-07-23T16:30:11+00:00	2020-07-23T09:30:11-07:00	2020-07-23T16:59:46+00:00	2020-07-28T06:59:59+00:00	-4	g5m0k8j74ltrrfk@marketplace.amazon.com	Euan Taylor	+1 347-448-3190 ext. 62300	ABR0022	Purchase Now for Delivery by Monday | Arabella Farm Direct Bouquet of 12 Fresh Cut Pink Roses with a Free Glass Vase	1	0	1	Expedited	Deanna Rose Galindo	10 MANDERLEY LN			ORMOND BEACH	FLORIDA	32174-9420	US		Happy Birthday From Jen Taylor	false		
113-6131335-0969037	58385579262362	2020-07-23T16:37:28+00:00	2020-07-23T09:37:28-07:00	2020-07-23T17:02:00+00:00	2020-07-28T06:59:59+00:00	-4	qpg3f80bhg9gskp@marketplace.amazon.com	Chris Nigro	+1 346-307-9643 ext. 04052	ABR001	Purchase Now for Delivery by Monday | Arabella Bouquets 12 Stems of Fresh Cut Red Roses in a Free Designer Glass Vase	1	0	1	Expedited	Ashley Suarez	3 E MINOR RD			TERRYVILLE	CT	06786-5011	US		Hope your knee recovers quickly! I hope you enjoy these baber!  I LOVE YOU SO MUCH From Chris	false		
114-2700302-0884247	09389432553170	2020-07-16T22:00:43+00:00	2020-07-16T15:00:43-07:00	2020-07-23T17:40:06+00:00	2020-07-28T06:59:59+00:00	-4	wtcfslgzmcqzwxl@marketplace.amazon.com	kiley	+1 346-307-9643 ext. 14824	ABR0066	Purchase Now for Delivery by Monday | Arabella Bouquets 12 Stems of Fresh Cut White Roses in a Free Designer Glass Vase	1	0	1	Expedited	Deizzy	6153 STATE FARM DR ROHNERT PARK			ROHNERT PARK	CA	94928-2147	US			false		
112-5497961-0369825	52247041035306	2020-07-23T17:18:44+00:00	2020-07-23T10:18:44-07:00	2020-07-23T17:47:40+00:00	2020-07-28T06:59:59+00:00	-4	0qfd29zryzfypv6@marketplace.amazon.com	Della L. Bartz	+1 347-448-3190 ext. 18468	ABR0022	Purchase Now for Delivery by Monday | Arabella Farm Direct Bouquet of 12 Fresh Cut Pink Roses with a Free Glass Vase	1	0	1	Expedited	Tracey Phelps	313 RIDGECREST ST			WILKESBORO	NC	28697-9188	US			false		
112-1083845-0301832	02328812261522	2020-07-23T17:43:23+00:00	2020-07-23T10:43:23-07:00	2020-07-23T18:11:09+00:00	2020-07-28T06:59:59+00:00	-4	60hjb71py9yk2w2@marketplace.amazon.com	Aisha Davy	+1 347-448-3190 ext. 01689	ABR004	Arabella Farm Direct Bouquet of 12 Fresh Cut Yellow Roses with a Free Glass Vase	1	0	1	Expedited	Komaletta Jackson	1506 SAINT IVES DR			SAINT LOUIS	MO	63136-2320	US		I am blessed to have u as my older Sister. U have a good heart and I appreciate all u do for momma! I pray u all the joy your heart can handle! Love u with my whole 💙! Enjoy your gift! From Aisha Davy	false		
113-1514493-4924263	37478441341682	2020-07-23T17:46:15+00:00	2020-07-23T10:46:15-07:00	2020-07-23T18:16:36+00:00	2020-07-28T06:59:59+00:00	-4	8tlgj1ml509v131@marketplace.amazon.com	Lane	+1 415-851-9136 ext. 41806	ABR012	Purchase Now for Delivery by Monday | Arabella Farm Direct Bouquet of 18 Fresh Cut Pink Roses with a Free Glass Vase	1	0	1	Expedited	Doug Patterson	5314 MOUNTAIN VIEW RD			WINSTON SALEM	NC	27104-2422	US			false		
112-3074984-5411441	03141230812826	2020-07-23T18:06:14+00:00	2020-07-23T11:06:14-07:00	2020-07-23T18:36:15+00:00	2020-07-28T06:59:59+00:00	-4	482zwsdkvk0dytp@marketplace.amazon.com	Cynthia Veselak	+1 346-307-9643 ext. 47619	ABR0055	Purchase Now for Delivery by Monday | Arabella Farm Direct Bouquet of 12 Stems of Fresh Cut Hot Pink Roses in a Free Designer Glass Vase	1	0	1	Expedited	Michele Colegrove	1865 E BROADWAY RD			TEMPE	AZ	85282-1624	US		Love ya!!!!   Take care and get better. From Cynthia Veselak	false		
112-0481165-0583431	61439678208866	2020-07-23T18:13:18+00:00	2020-07-23T11:13:18-07:00	2020-07-23T18:39:37+00:00	2020-07-28T06:59:59+00:00	-4	d4kx8lmx6kfgpss@marketplace.amazon.com	George Watkins	+1 346-307-9643 ext. 39969	ABR0022	Purchase Now for Delivery by Monday | Arabella Farm Direct Bouquet of 12 Fresh Cut Pink Roses with a Free Glass Vase	1	0	1	Expedited	George Watkins	2001 N GREENBRIER ST			ARLINGTON	VA	22205-3024	US		For my girls,      Just because...  Love ya From George Watkins	false		
112-4572228-6467401	24882777510298	2020-07-23T19:09:22+00:00	2020-07-23T12:09:22-07:00	2020-07-23T19:10:28+00:00	2020-07-25T06:59:59+00:00	-1	5x5btd1lby7tj7d@marketplace.amazon.com	James S Green	+1 415-851-9136 ext. 92454	ABR001	Purchase Now for Delivery by Monday | Arabella Bouquets 12 Stems of Fresh Cut Red Roses in a Free Designer Glass Vase	1	0	1	NextDay	Cindy Gibson	110 1ST ST			BONITA SPRINGS	FL	34134-7359	US		Happy birthday, Beautiful! xoxoxo From Jim	false		
114-8762835-5684209	61804567158682	2020-07-23T19:11:59+00:00	2020-07-23T12:11:59-07:00	2020-07-23T19:12:59+00:00	2020-07-25T06:59:59+00:00	-1	2dzy8q7r3tyd5d1@marketplace.amazon.com	Jennifer Craft	+1 347-448-3190 ext. 24393	ABM010	The Spring Fling Bouquet by Arabella Bouquets with a Free Designer Glass Vase	1	0	1	NextDay	Cathy Schockweiler	7989 PLEASANT PINE CIR			WINTER PARK	FL	32792-9504	US		Happy Birthday Cathy! We hope you enjoy your time at home with your little girls, and we can't wait to have you back! From Jennifer and Amber	false		
111-2445905-4757844	20843203039314	2020-07-23T19:30:01+00:00	2020-07-23T12:30:01-07:00	2020-07-23T19:33:25+00:00	2020-07-25T06:59:59+00:00	-1	cty74ryv6ypqg8h@marketplace.amazon.com	Rodolfo Fernandez	+1 346-307-9643 ext. 28506	ABR0066	Arabella Bouquets 12 Stems of Fresh Cut White Roses in a Free Designer Glass Vase	1	0	1	NextDay	Rebekka Haggard	7455 SW 122ND ST			MIAMI	FL	33156-5211	US			false		
113-2588927-2240213	17983866151274	2020-07-23T19:40:19+00:00	2020-07-23T12:40:19-07:00	2020-07-23T19:41:25+00:00	2020-07-25T06:59:59+00:00	-1	1xnjjxsj7tshnq5@marketplace.amazon.com	codjoe easmond	+1 346-307-9643 ext. 06200	ABR001	Purchase Now for Delivery by Monday | Arabella Bouquets 12 Stems of Fresh Cut Red Roses in a Free Designer Glass Vase	1	0	1	NextDay	Shonnila Holden	2900 STEDMAN DR NW APT 2E			WILSON	NC	27896-7333	US		I love you Shonnila ... From Codjoe	false		
114-5325178-1801853	00205692683794	2020-07-23T19:13:25+00:00	2020-07-23T12:13:25-07:00	2020-07-23T19:43:32+00:00	2020-07-28T06:59:59+00:00	-4	nccnvbksyk0wcn4@marketplace.amazon.com	Dante	+1 415-851-9136 ext. 67384	ABR0022	Purchase Now for Delivery by Monday | Arabella Farm Direct Bouquet of 12 Fresh Cut Pink Roses with a Free Glass Vase	1	0	1	Expedited	Aaliyah	3829 CORAPEAKE DR			FAYETTEVILLE	NC	28312-7014	US			false		
113-2041441-1189037	16825818784410	2020-07-23T19:50:20+00:00	2020-07-23T12:50:20-07:00	2020-07-23T19:51:14+00:00	2020-07-25T06:59:59+00:00	-1	cm0k3j0x6qmt52g@marketplace.amazon.com	Alex Savage	+1 415-851-9136 ext. 75104	ABR0066	Arabella Bouquets 12 Stems of Fresh Cut White Roses in a Free Designer Glass Vase	1	0	1	NextDay	Donna Will	3315 GENOA WAY UNIT 95			OCEANSIDE	CA	92056-1738	US			false		
111-5344472-5243449	10990880326890	2020-07-23T19:56:09+00:00	2020-07-23T12:56:09-07:00	2020-07-23T19:58:40+00:00	2020-07-25T06:59:59+00:00	-1	89823lfq046bb2v@marketplace.amazon.com	Julie castaneda	+1 347-448-3190 ext. 00775	ABR015	Purchase Now for Delivery by Monday | Arabella Farm Direct Bouquet of 18 Fresh Cut Orange Roses with a Free Glass Vase	1	0	1	NextDay	Analuisa Casarez	1431 MAPLE ST			FLORENCE	OR	97439-9420	US		Happy Birthday!   Love you mucho, Julie From Julie castaneda	false		
112-2984765-6067450	04624158645466	2020-07-23T20:00:17+00:00	2020-07-23T13:00:17-07:00	2020-07-23T20:03:21+00:00	2020-07-25T06:59:59+00:00	-1	kksrgsn59hlvdjd@marketplace.amazon.com	Sherilyn McNally	+1 346-307-9643 ext. 52333	ABR0022	Purchase Now for Delivery by Monday | Arabella Farm Direct Bouquet of 12 Fresh Cut Pink Roses with a Free Glass Vase	1	0	1	NextDay	Marilee Lowe	5246 E POSTON DR			PHOENIX	AZ	85054-7191	US		We love you. Rest and heal. 💗💗💗 From Sherilyn and Greg	false		
113-3476784-2350639	04767255975890	2020-07-23T20:11:11+00:00	2020-07-23T13:11:11-07:00	2020-07-23T20:14:36+00:00	2020-07-25T06:59:59+00:00	-1	n4gt311khlnlqs8@marketplace.amazon.com	Teresa D. Fuhrer	+1 415-851-9136 ext. 34416	ABR0055	Purchase Now for Delivery by Monday | Arabella Farm Direct Bouquet of 12 Stems of Fresh Cut Hot Pink Roses in a Free Designer Glass Vase	1	0	1	NextDay	Ritch Fuhrer	16408 S 176TH DR			GOODYEAR	AZ	85338-8105	US		We hope your recovery is speedy.  Love to you  from Ritch and Teresa From Teresa D. Fuhrer	false		
111-3338356-6529839	68482010321634	2020-07-23T20:17:33+00:00	2020-07-23T13:17:33-07:00	2020-07-23T20:18:25+00:00	2020-07-25T06:59:59+00:00	-1	6f6tngl63r66mvw@marketplace.amazon.com	tim taylor	+1 314-282-9402 ext. 46398	ABR001	Purchase Now for Delivery by Monday | Arabella Bouquets 12 Stems of Fresh Cut Red Roses in a Free Designer Glass Vase	1	0	1	NextDay	Linda Forte	5508 SAINT REGIS DR APT 1			BENTON	AR	72019-8756	US		Thinking of you and wishing you a speedy recovery.  I Love You From M	false		
111-9527436-7863433	18627680926458	2020-07-23T20:31:29+00:00	2020-07-23T13:31:29-07:00	2020-07-23T20:35:01+00:00	2020-07-25T06:59:59+00:00	-1	t0n8fr34n7dvn6w@marketplace.amazon.com	dr. ken green	+1 763-225-9463 ext. 26365	ABR001	Purchase Now for Delivery by Monday | Arabella Bouquets 12 Stems of Fresh Cut Red Roses in a Free Designer Glass Vase	1	0	1	NextDay	Marnie Huffman green	1532 OAK AVE			BOULDER	CO	80304-1254	US		Happy Happy Bday to my super, beautiful, dynamo daughter From The Dad	false		
114-3365711-8232266	40401068133098	2020-07-23T20:46:31+00:00	2020-07-23T13:46:31-07:00	2020-07-23T20:47:23+00:00	2020-07-25T06:59:59+00:00	-1	0vg6fknjk9fqfx3@marketplace.amazon.com	hakam w alomari	+1 415-419-8616 ext. 37175	ABR0022	Purchase Now for Delivery by Monday | Arabella Farm Direct Bouquet of 12 Fresh Cut Pink Roses with a Free Glass Vase	1	0	1	NextDay	Imen Latrech	300 JOSEPH PATH			MANKATO	MN	56001-5299	US		You are my joy, my treasure, my greatest gift of life! ... From Yours! hakam w alomari	false		
112-3139635-8982627	52294209035018	2020-07-23T20:33:10+00:00	2020-07-23T13:33:10-07:00	2020-07-23T21:01:28+00:00	2020-07-28T06:59:59+00:00	-4	xsy8jtz7yrfx4ys@marketplace.amazon.com	Denise Plante	+1 415-851-9136 ext. 59496	ABR013	Purchase Now for Delivery by Monday | Arabella Farm Direct Bouquet of 18 Fresh Cut Yellow Roses with a Free Glass Vase	1	0	1	Expedited	Marie & Bob Gibson	174 PARKER AVE			MERIDEN	CT	06450-5924	US		Dear Marie and Bob, Happy Golden Anniversary.  We're sending lots of love and best wishes for a wonderful day. From Denise & Bob Plante	false		
113-2902028-0759429	59468285115618	2020-07-23T21:13:06+00:00	2020-07-23T14:13:06-07:00	2020-07-23T21:15:27+00:00	2020-07-25T06:59:59+00:00	-1	hhz15bpx9nc12nm@marketplace.amazon.com	Carlos	+1 415-851-9136 ext. 80756	ABB003	Arabella Farm Direct Fresh Cut Blue Hydrangea	1	0	1	NextDay	Margaux Games	327 LOUELLA AVE			WAYNE	PA	19087-4841	US		I didn't forget lol Te amo mucho, hermosa. From Carlos	false		
113-6072554-3058600	18137322398074	2020-07-23T21:21:44+00:00	2020-07-23T14:21:44-07:00	2020-07-23T21:25:39+00:00	2020-07-25T06:59:59+00:00	-1	hhz15bpx9nc12nm@marketplace.amazon.com	Carlos	+1 415-851-9136 ext. 47975	ABR0022	Purchase Now for Delivery by Monday | Arabella Farm Direct Bouquet of 12 Fresh Cut Pink Roses with a Free Glass Vase	1	0	1	NextDay	Evilia Perez	3229 ROYAL JEWEL ST			EL PASO	TX	79936-0939	US		Mejor tarde que nunca, Feliz Cumple Mama Te amamos, Carlos y Benji From Carlos y Benji	false		
114-0464776-1263431	18788072336762	2020-07-23T21:36:11+00:00	2020-07-23T14:36:11-07:00	2020-07-23T21:41:48+00:00	2020-07-25T06:59:59+00:00	-1	74nb8q3vngrfpvv@marketplace.amazon.com	curtis kousoulides	+1 763-225-9463 ext. 14679	ABR004	Arabella Farm Direct Bouquet of 12 Fresh Cut Yellow Roses with a Free Glass Vase	1	0	1	NextDay	curtis vance-kousoulides	80-82 Saint Marks Avenue	2B		brooklyn	ny	11217	US			false		
112-0840037-3008237	46554049782314	2020-07-23T21:22:46+00:00	2020-07-23T14:22:46-07:00	2020-07-23T21:52:30+00:00	2020-07-28T06:59:59+00:00	-4	wpfz8cs4bx61b85@marketplace.amazon.com	SALTO (FINANCE DEPARTMENT)	+1 415-851-9136 ext. 98578	ABM010	The Spring Fling Bouquet by Arabella Bouquets with a Free Designer Glass Vase	1	0	1	Expedited	CRYSTALYN JOHNSONPO026	6877 FIRESIDE LN			ATLANTA	GA	30349-1377	US			true	026	
113-7767788-0457847	51506015843466	2020-07-23T21:53:19+00:00	2020-07-23T14:53:19-07:00	2020-07-23T21:56:07+00:00	2020-07-25T06:59:59+00:00	-1	g0mv3q03sldsypm@marketplace.amazon.com	edward nasti	+1 763-225-9463 ext. 68631	ABR0022	Purchase Now for Delivery by Monday | Arabella Farm Direct Bouquet of 12 Fresh Cut Pink Roses with a Free Glass Vase	1	0	1	NextDay	Amanda Settembrino	21 CARROLL DR			WAPPINGERS FALLS	NY	12590-4718	US		Sorry I forgot your Birthday From edward nasti	false		
114-3169890-8067411	32887132122306	2020-07-23T21:29:40+00:00	2020-07-23T14:29:40-07:00	2020-07-23T21:58:51+00:00	2020-07-28T06:59:59+00:00	-4	gtc853v2s7ybdlg@marketplace.amazon.com	Anne L. Anderson	+1 314-282-9402 ext. 60200	ABR004	Arabella Farm Direct Bouquet of 12 Fresh Cut Yellow Roses with a Free Glass Vase	1	0	1	Expedited	Beverley Standing	1499 N MICHIGAN AVE			PASADENA	CA	91104-2514	US		With great appreciation for everything you have done and continue to do. You are wonderful, giving soul, Beautiful Sister. Love, Anne (and family) From Anne L. Anderson	false		
114-4712856-3053061	59388463476354	2020-07-23T21:35:16+00:00	2020-07-23T14:35:16-07:00	2020-07-23T21:59:21+00:00	2020-07-28T06:59:59+00:00	-4	s8zgk42qzfm1syh@marketplace.amazon.com	dkostman	+1 415-851-9136 ext. 58764	ABR0055	Purchase Now for Delivery by Monday | Arabella Farm Direct Bouquet of 12 Stems of Fresh Cut Hot Pink Roses in a Free Designer Glass Vase	1	0	1	Expedited	Lori Chissie	1009 E ELM AVE			COEUR D ALENE	ID	83814-4442	US		Enjoy your gift!What a pleseant supprise, Thank You for treating us to dinner. Dale & Nancy From dkostman	false		
111-4127533-3376226	25354527762522	2020-07-23T21:59:29+00:00	2020-07-23T14:59:29-07:00	2020-07-23T22:03:54+00:00	2020-07-25T06:59:59+00:00	-1	qt6dv347xt2t36d@marketplace.amazon.com	Leila Nokes	+1 415-419-8616 ext. 17655	ABR001	Purchase Now for Delivery by Monday | Arabella Bouquets 12 Stems of Fresh Cut Red Roses in a Free Designer Glass Vase	1	0	1	NextDay	LEILA NOKES	10941 THORNWOOD DR			LA PORTE	TX	77571	US			false		
112-8935523-7617008	35390033188314	2020-07-23T22:14:49+00:00	2020-07-23T15:14:49-07:00	2020-07-23T22:15:49+00:00	2020-07-25T06:59:59+00:00	-1	g27b4pjx76wsx5v@marketplace.amazon.com	Lexi Griggs	+1 415-851-9136 ext. 32369	ABR0055	Purchase Now for Delivery by Monday | Arabella Farm Direct Bouquet of 12 Stems of Fresh Cut Hot Pink Roses in a Free Designer Glass Vase	1	0	1	NextDay	Paris Mumpower	103 GRATTAN ST APT 3R			BROOKLYN	NY	11237-1634	US		Happy Birthday Seeeesterrrr!!!! I LOVE YOU AND MISS YOU AND CANNOT BELIEVE I'M NOT AROUND FOR P-DAY!!!!!!!!! ❤️💕😭😍😘🤪🥳🤗😽👯‍♀️👩‍👧🦋🦄🐍🐢🦖🦒🦢🦩🌸 From Sista Sista	false		
114-8814497-3898624	40175909482474	2020-07-23T22:12:55+00:00	2020-07-23T15:12:55-07:00	2020-07-23T22:16:22+00:00	2020-07-25T06:59:59+00:00	-1	ptx33t1h666fj7j@marketplace.amazon.com	Amanda W Rabalais	+1 415-851-9136 ext. 85314	ABR0055	Purchase Now for Delivery by Monday | Arabella Farm Direct Bouquet of 12 Stems of Fresh Cut Hot Pink Roses in a Free Designer Glass Vase	1	0	1	NextDay	Stephanie Jenkins	7016 FLEUR DE LIS			ZACHARY	LA	70791-3264	US		Happy Anniversary  - Wish we were celebration on the beach!  Enjoy your day! From Amanda W Rabalais	false		
111-3877241-4906668	46294810918386	2020-07-23T22:12:55+00:00	2020-07-23T15:12:55-07:00	2020-07-23T22:17:44+00:00	2020-07-25T06:59:59+00:00	-1	kwjz5f16lnly9ph@marketplace.amazon.com	Sheila Smith	+1 763-225-9463 ext. 51927	ABR0022	Purchase Now for Delivery by Monday | Arabella Farm Direct Bouquet of 12 Fresh Cut Pink Roses with a Free Glass Vase	1	0	1	NextDay	Elizabeth Moore	5563 PROSPERITY VIEW DR			CHARLOTTE	NC	28269-2332	US		HAPPY BIRTHDAY!   With Love From Ryan	false		
111-4393843-8176200	10540331228706	2020-07-23T23:02:38+00:00	2020-07-23T16:02:38-07:00	2020-07-23T23:07:15+00:00	2020-07-25T06:59:59+00:00	-1	0gvv9n3jnsmll5k@marketplace.amazon.com	Karen S Lonardo	+1 346-307-9643 ext. 16302	ABR0055	Purchase Now for Delivery by Monday | Arabella Farm Direct Bouquet of 12 Stems of Fresh Cut Hot Pink Roses in a Free Designer Glass Vase	1	0	1	NextDay	Helen Nahkala	17 COCHESET PATH			WEST YARMOUTH	MA	02673-2559	US		To our lovely Helen,  We are soooo sorry you fell and hurt yourself.  You are way too precious for that!  Please get better quickly and know that we love you to pieces! From Karen, Guido and Gina	false		
114-3177322-2101824	14793112193698	2020-07-23T22:52:50+00:00	2020-07-23T15:52:50-07:00	2020-07-23T23:22:03+00:00	2020-07-28T06:59:59+00:00	-4	5nzs9y13fbrhyry@marketplace.amazon.com	Cydney Macklin	+1 415-419-8616 ext. 50407	ABR0022	Purchase Now for Delivery by Monday | Arabella Farm Direct Bouquet of 12 Fresh Cut Pink Roses with a Free Glass Vase	1	0	1	Expedited	Drea Ortiz	5250 LIBERTY AVE			PITTSBURGH	PA	15224-2372	US		Thank you so much for always being there for me, no matter what.  You are truly an amazing person and friend.  I dont know what I’d do without you. From Cydney	false		
114-8167988-9193003	18672649091226	2020-07-23T23:26:40+00:00	2020-07-23T16:26:40-07:00	2020-07-23T23:31:24+00:00	2020-07-25T06:59:59+00:00	-1	wtn8r5n0dt5ty88@marketplace.amazon.com	Mike Lazara	+1 929-436-4790 ext. 49198	ABR0022	Purchase Now for Delivery by Monday | Arabella Farm Direct Bouquet of 12 Fresh Cut Pink Roses with a Free Glass Vase	1	0	1	NextDay	Amira Murtazaeva	9707 TRANQUILITY LAKE CIR APT 207			RIVERVIEW	FL	33578-3917	US		I love you my angelochic! From Mike Lazara	false		
114-0075689-3305065	35911821275338	2020-07-23T23:33:53+00:00	2020-07-23T16:33:53-07:00	2020-07-23T23:38:27+00:00	2020-07-25T06:59:59+00:00	-1	g85ywrlhvgt3p19@marketplace.amazon.com	Donna	+1 929-436-4790 ext. 70454	ABR0055	Purchase Now for Delivery by Monday | Arabella Farm Direct Bouquet of 12 Stems of Fresh Cut Hot Pink Roses in a Free Designer Glass Vase	1	0	1	NextDay	Kimberly Austin-Oser	4 MARIANO RD			SANTA FE	NM	87508-8786	US			false		
111-3374828-3467447	20556132216626	2020-07-23T23:14:46+00:00	2020-07-23T16:14:46-07:00	2020-07-23T23:42:44+00:00	2020-07-28T06:59:59+00:00	-4	67t4nv4tf5hd2t9@marketplace.amazon.com	Mary	+1 415-851-9136 ext. 69750	ABM010	The Spring Fling Bouquet by Arabella Bouquets with a Free Designer Glass Vase	1	0	1	Expedited	Bobbie Nurre	408 HAGOOD AVE			BARNWELL	SC	29812-1835	US			false		
111-0535878-0221015	22890080308210	2020-07-24T00:16:00+00:00	2020-07-23T17:16:00-07:00	2020-07-24T00:17:46+00:00	2020-07-25T06:59:59+00:00	-1	2khbdj9p0bsvpc9@marketplace.amazon.com	Anita Voruda	+1 929-436-4790 ext. 85947	ABM010	The Spring Fling Bouquet by Arabella Bouquets with a Free Designer Glass Vase	1	0	1	NextDay	Lisa Gundry	3662 E CUDAHY AVE			CUDAHY	WI	53110-1127	US		Big Hug! Love You, Anita From Anita Voruda	false		
111-2745513-1549847	17077122432394	2020-07-24T00:35:54+00:00	2020-07-23T17:35:54-07:00	2020-07-24T00:36:45+00:00	2020-07-25T06:59:59+00:00	-1	87pp3wk77l4f53n@marketplace.amazon.com	Dimitar	+1 929-436-4790 ext. 50338	ABR0055	Purchase Now for Delivery by Monday | Arabella Farm Direct Bouquet of 12 Stems of Fresh Cut Hot Pink Roses in a Free Designer Glass Vase	1	0	1	NextDay	Lyubomira Stoyanov	920 BEAU DR UNIT 205			DES PLAINES	IL	60016-5824	US		Enjoy your gift! From Ани, Митко и Анна	true		
111-1167971-2948234	49834725598954	2020-07-24T00:42:07+00:00	2020-07-23T17:42:07-07:00	2020-07-24T00:43:03+00:00	2020-07-25T06:59:59+00:00	-1	qwqqcqfhg8g4nmr@marketplace.amazon.com	Susan Marschall	516-822-6800 ext 225	ABR0055	Purchase Now for Delivery by Monday | Arabella Farm Direct Bouquet of 12 Stems of Fresh Cut Hot Pink Roses in a Free Designer Glass Vase	1	0	1	NextDay	Grand Prix Subaru	ATTN JENNA MINEO 500 S BROADWAY			HICKSVILLE	NY	11801-5025	US		To a "BLOSSOMING" Friendship! Jenna you have become so special to me. Let's try to celebrate the good and great things in our lives and keep praying to get the terrible.  Many hugs to you. XOXO  SUSAN From Susan Marschall	false		
114-0943415-1449808	07615134968698	2020-07-24T00:43:21+00:00	2020-07-23T17:43:21-07:00	2020-07-24T00:44:18+00:00	2020-07-25T06:59:59+00:00	-1	z4tf8xlwsp9c5ft@marketplace.amazon.com	Marilynn Horne	+1 929-436-4790 ext. 17958	ABR0055	Purchase Now for Delivery by Monday | Arabella Farm Direct Bouquet of 12 Stems of Fresh Cut Hot Pink Roses in a Free Designer Glass Vase	1	0	1	NextDay	Emma Patterson	930 E 95TH ST			LOS ANGELES	CA	90002-1919	US		May God Bless You with a speedy recovery,  Love & Blessings From Your Missionary sisters,  Pamela, Joann & Marilynn	false		
112-5573242-5641829	65041634075282	2020-07-24T00:19:55+00:00	2020-07-23T17:19:55-07:00	2020-07-24T00:44:26+00:00	2020-07-28T06:59:59+00:00	-4	8g9vz5vptqy9dfp@marketplace.amazon.com	VIBHA	+1 929-436-4790 ext. 12680	ABR0022	Purchase Now for Delivery by Monday | Arabella Farm Direct Bouquet of 12 Fresh Cut Pink Roses with a Free Glass Vase	1	0	1	Expedited	Rehana Patel	532 MANDARIN LN			BLOOMINGDALE	IL	60108-5407	US		Thank you Rehana for inviting me to your home and heart.  I appreciate it.  Thank you for the delicious food.  My family enjoyed it. From Vibha V. Patel	false		
114-3542350-9026624	16213522501346	2020-07-24T01:25:08+00:00	2020-07-23T18:25:08-07:00	2020-07-24T01:55:24+00:00	2020-07-28T06:59:59+00:00	-4	55qlssh0v2136bw@marketplace.amazon.com	Marcus Massey	+1 929-436-4790 ext. 74871	ABR0022	Purchase Now for Delivery by Monday | Arabella Farm Direct Bouquet of 12 Fresh Cut Pink Roses with a Free Glass Vase	1	0	1	Expedited	Rhonda Payne	11665 S DOROTHY DR			YUMA	AZ	85367-6834	US			false		
113-7298562-6157856	34949126437618	2020-07-24T02:07:25+00:00	2020-07-23T19:07:25-07:00	2020-07-24T02:12:26+00:00	2020-07-25T06:59:59+00:00	-1	c4qjbnsfz3zd6wm@marketplace.amazon.com	Lynn Cunnigham	+1 415-851-9136 ext. 07351	ABR0022	Purchase Now for Delivery by Monday | Arabella Farm Direct Bouquet of 12 Fresh Cut Pink Roses with a Free Glass Vase	1	0	1	NextDay	Lynn Cunnigham	195 S 1ST ST E # 2			SAINT JOHNS	AZ	85936-4516	US			false		
114-6874980-3983459	69761468076362	2020-07-24T02:11:55+00:00	2020-07-23T19:11:55-07:00	2020-07-24T02:12:56+00:00	2020-07-25T06:59:59+00:00	-1	b4221ssl826wd04@marketplace.amazon.com	Laura	+1 929-436-4790 ext. 63951	ABR0022	Purchase Now for Delivery by Monday | Arabella Farm Direct Bouquet of 12 Fresh Cut Pink Roses with a Free Glass Vase	1	0	1	NextDay	Dawna Alsabrook	813 WATER VIEW DR			MANSFIELD	TX	76063-2844	US		Dawna, You are a beautiful gift and we just want YOU to know how much we appreciate you helping us with this journey 💕 From Laura and Ferris “Bob”	false		
114-1312840-4769047	66330077540586	2020-07-24T01:48:00+00:00	2020-07-23T18:48:00-07:00	2020-07-24T02:18:17+00:00	2020-07-28T06:59:59+00:00	-4	0prgf1sklv3g2fr@marketplace.amazon.com	Paula Roberts	+1 929-436-4790 ext. 20480	ABR0022	Purchase Now for Delivery by Monday | Arabella Farm Direct Bouquet of 12 Fresh Cut Pink Roses with a Free Glass Vase	1	0	1	Expedited	Claude F. Roberts	401 SWEETWATER CREEK DR			CANTON	GA	30114-7861	US			false		
112-9080095-5197821	17676304291858	2020-07-24T02:19:11+00:00	2020-07-23T19:19:11-07:00	2020-07-24T02:22:08+00:00	2020-07-25T06:59:59+00:00	-1	2v9ysl6ycjyq2bx@marketplace.amazon.com	julie zack	+1 929-436-4790 ext. 78634	ABR0022	Purchase Now for Delivery by Monday | Arabella Farm Direct Bouquet of 12 Fresh Cut Pink Roses with a Free Glass Vase	1	0	1	NextDay	Janelle Decarlo	4036 CLARKLAND AVE			ALLISON PARK	PA	15101-3107	US		Congratulations on being a mommy to the most beautiful baby girl. I can’t wait to meet her! Love you! From julie zack	false		
111-4428152-5717846	70203049080946	2020-07-24T02:25:56+00:00	2020-07-23T19:25:56-07:00	2020-07-24T02:26:53+00:00	2020-07-25T06:59:59+00:00	-1	4w7svzg5n71ggw8@marketplace.amazon.com	Arthur	+1 929-436-4790 ext. 54410	ABR0022	Purchase Now for Delivery by Monday | Arabella Farm Direct Bouquet of 12 Fresh Cut Pink Roses with a Free Glass Vase	1	0	1	NextDay	Lakisha Hone	807 SHELTON BEACH RD APT 14			SARALAND	AL	36571-3040	US			false		
112-9156030-4551417	11954925103978	2020-07-24T02:03:39+00:00	2020-07-23T19:03:39-07:00	2020-07-24T02:32:53+00:00	2020-07-28T06:59:59+00:00	-4	kc19r3pxbfrxsz6@marketplace.amazon.com	Melissa Davis Hartley	+1 929-436-4790 ext. 46581	ABR0022	Purchase Now for Delivery by Monday | Arabella Farm Direct Bouquet of 12 Fresh Cut Pink Roses with a Free Glass Vase	1	0	1	Expedited	Brittany Ashton	12605 W LANKTREE GULCH RD			STAR	ID	83669-5170	US		Thank you for such a lovely evening celebrating beautiful Sadie. We loved it!!! From The Hartleys	false		
113-9818648-2589818	53703984848370	2020-07-24T02:21:39+00:00	2020-07-23T19:21:39-07:00	2020-07-24T02:51:41+00:00	2020-07-28T06:59:59+00:00	-4	75tnds8bbgflldd@marketplace.amazon.com	george l hunter		ABR0022	Purchase Now for Delivery by Monday | Arabella Farm Direct Bouquet of 12 Fresh Cut Pink Roses with a Free Glass Vase	1	0	1	Expedited	HFC, LLC	33040 Sotelo Dr			Temecula	CA	92592	US			true		
113-9660215-9038629	64913773124914	2020-07-24T02:59:24+00:00	2020-07-23T19:59:24-07:00	2020-07-24T03:00:14+00:00	2020-07-25T06:59:59+00:00	-1	x9lxwrglfw4wscj@marketplace.amazon.com	Patrice McMorris	+1 929-436-4790 ext. 70377	ABR0022	Purchase Now for Delivery by Monday | Arabella Farm Direct Bouquet of 12 Fresh Cut Pink Roses with a Free Glass Vase	1	0	1	NextDay	Tory Racine	226 S GINA AVE			EL CAJON	CA	92019-1933	US		Happy Birthday Mommy Enjoy your Gift Love Trice From Patrice McMorris	false		
114-4048507-2005804	17922615267834	2020-07-24T03:11:03+00:00	2020-07-23T20:11:03-07:00	2020-07-24T03:12:01+00:00	2020-07-25T06:59:59+00:00	-1	6ssrvy2ml04fklm@marketplace.amazon.com	Claire mitchell	+1 929-436-4790 ext. 62307	ABR0033	Purchase Now for Delivery by Monday | Arabella Farm Direct Bouquet of 12 Fresh Cut Orange Roses with a Free Glass Vase	1	0	1	NextDay	Mrs.Nita Bindra	24635 CORDILLERA DR			CALABASAS	CA	91302-2512	US		Get well soon! From The Mitchells	false		
113-7555857-5101060	16026227136938	2020-07-24T03:29:33+00:00	2020-07-23T20:29:33-07:00	2020-07-24T03:35:11+00:00	2020-07-25T06:59:59+00:00	-1	kwd9554s39vv7gt@marketplace.amazon.com	cole	+1 929-436-4790 ext. 28988	ABM010	The Spring Fling Bouquet by Arabella Bouquets with a Free Designer Glass Vase	1	0	1	NextDay	Yenny Pramono	2810 WARNER AVE IRVINE IRVINE	APT 369		IRVINE	CA	92606-4448	US		My Darling Wife I love you so much with all my heart.  You mean the world to me and I cant wait to get married to you and start up our lives. You are my everything. Me and you forever and ever. From cole	false		
111-0232861-7469835	04442004268642	2020-07-24T04:05:52+00:00	2020-07-23T21:05:52-07:00	2020-07-24T04:11:03+00:00	2020-07-25T06:59:59+00:00	-1	7jcsz1yvxyg7jyc@marketplace.amazon.com	alex	+1 929-436-4790 ext. 40080	ABR001	Purchase Now for Delivery by Monday | Arabella Bouquets 12 Stems of Fresh Cut Red Roses in a Free Designer Glass Vase	1	0	1	NextDay	Norma Jean Cruz	330 W RICHARD AVE HOUSE # 2			KINGSVILLE	TX	78363-4474	US			false		
113-0007711-1804223	24628281888050	2020-07-24T04:07:02+00:00	2020-07-23T21:07:02-07:00	2020-07-24T04:36:57+00:00	2020-07-28T06:59:59+00:00	-4	hn7m8hvsqc54bqk@marketplace.amazon.com	Brian Thornburgh	+1 929-436-4790 ext. 00751	ABR0022	Purchase Now for Delivery by Monday | Arabella Farm Direct Bouquet of 12 Fresh Cut Pink Roses with a Free Glass Vase	1	0	1	Expedited	Brian thornburgh	C/O PATRICK THORNBURGH	67302 COMANCHE RD		HELENA	OK	73741-4123	US			false		
114-2990276-2276231	53537138911922	2020-07-24T04:40:48+00:00	2020-07-23T21:40:48-07:00	2020-07-24T04:44:48+00:00	2020-07-25T06:59:59+00:00	-1	tjhpmtq3zyh6kmp@marketplace.amazon.com	Ali Peterson	+1 415-851-9136 ext. 33653	ABR0022	Purchase Now for Delivery by Monday | Arabella Farm Direct Bouquet of 12 Fresh Cut Pink Roses with a Free Glass Vase	1	0	1	NextDay	Carol Nelson	1414 N JACKSON ST			LEXINGTON	NE	68850-1415	US		We hope you have a speedy recovery Grandma Carol! We love you very much! Love, ~Ali, Chris and Wade~ From Ali Peterson	false		
113-5269598-0937845	11161314164938	2020-07-24T07:49:31+00:00	2020-07-24T00:49:31-07:00	2020-07-24T07:51:55+00:00	2020-07-25T06:59:59+00:00	-1	kc3nhnhw9zjv4df@marketplace.amazon.com	Adrine Collins	+1 929-436-4790 ext. 31120	ABR0022	Purchase Now for Delivery by Monday | Arabella Farm Direct Bouquet of 12 Fresh Cut Pink Roses with a Free Glass Vase	1	0	1	NextDay	Adrine	5126 stenson cementary rd	12		Meridian	MS	39301	US			false		
111-4136002-0237854	68643546656034	2020-07-24T07:58:17+00:00	2020-07-24T00:58:17-07:00	2020-07-24T08:02:10+00:00	2020-07-25T06:59:59+00:00	-1	fysckfwkvp2l9n4@marketplace.amazon.com	rawad	+1 929-436-4790 ext. 66031	ABR0022	Purchase Now for Delivery by Monday | Arabella Farm Direct Bouquet of 12 Fresh Cut Pink Roses with a Free Glass Vase	1	0	1	NextDay	Maureen Graszer	6331 N NAVAJO AVE			CHICAGO	IL	60646-4124	US			false		
111-4151032-4135443	48403666027282	2020-07-24T08:26:22+00:00	2020-07-24T01:26:22-07:00	2020-07-24T08:55:12+00:00	2020-07-29T06:59:59+00:00	-5	kfvqp5dy9195hbh@marketplace.amazon.com	DC  Decker	+1 929-436-4790 ext. 10986	ABR0033	Purchase Now for Delivery by Monday | Arabella Farm Direct Bouquet of 12 Fresh Cut Orange Roses with a Free Glass Vase	1	0	1	Expedited	Ronnie Decker	1915 CHUMAS DR			EAU CLAIRE	WI	54701-7739	US		Joanne, Hope you are feeling great & back on your feet real soon! Thinking of you, Love Christy	false		
113-0317402-2568267	18487190391442	2020-07-24T09:12:17+00:00	2020-07-24T02:12:17-07:00	2020-07-24T09:42:24+00:00	2020-07-29T06:59:59+00:00	-5	3385zf335gpxr1t@marketplace.amazon.com	Mike a hargreaves-keating	04074362004	ABR0022	Purchase Now for Delivery by Monday | Arabella Farm Direct Bouquet of 12 Fresh Cut Pink Roses with a Free Glass Vase	1	0	1	Expedited	MRS JENNIFER GREGORY	9405 HARTWICK CIR SE  E			HUNTSVILLE	AL	35803-1309	US			false		
112-6667687-1172215	07051947442810	2020-07-24T09:40:36+00:00	2020-07-24T02:40:36-07:00	2020-07-24T09:45:47+00:00	2020-07-25T06:59:59+00:00	-1	pq70rqlv5bgf5t8@marketplace.amazon.com	Kati Noakes	+1 929-436-4790 ext. 40451	ABR0022	Purchase Now for Delivery by Monday | Arabella Farm Direct Bouquet of 12 Fresh Cut Pink Roses with a Free Glass Vase	1	0	1	NextDay	Kati Noakes	14013 Beckley Trace			Louisville	Ky	40245	US			false		
111-8838837-4888229	68973136656834	2020-07-24T10:48:44+00:00	2020-07-24T03:48:44-07:00	2020-07-24T10:52:50+00:00	2020-07-25T06:59:59+00:00	-1	ht64nyr33hgbyn7@marketplace.amazon.com	Scott Dalrymple		ABR0022	Purchase Now for Delivery by Monday | Arabella Farm Direct Bouquet of 12 Fresh Cut Pink Roses with a Free Glass Vase	1	0	1	NextDay	Maggie Anderson	271 SUN DANCE RD			STAMFORD	CT	06905-1825	US		Happy birthday Maggie! Love, Scott, Kristen, Mike, &Jack From Scott Dalrymple	false		
111-3351202-7394623	19885103364290	2020-07-24T10:39:29+00:00	2020-07-24T03:39:29-07:00	2020-07-24T11:08:46+00:00	2020-07-29T06:59:59+00:00	-5	9gxg26wvrhw7ktr@marketplace.amazon.com	f	+1 929-436-4790 ext. 67392	ABR0022	Purchase Now for Delivery by Monday | Arabella Farm Direct Bouquet of 12 Fresh Cut Pink Roses with a Free Glass Vase	1	0	1	Expedited	J	8002 HOLLY AVE			WALDORF	MD	20601-3314	US			false		
112-6216719-4883421	08967008205042	2020-07-24T11:44:45+00:00	2020-07-24T04:44:45-07:00	2020-07-24T11:45:55+00:00	2020-07-25T06:59:59+00:00	-1	592t9wsx9ngz3hd@marketplace.amazon.com	Matthew	+1 929-436-4790 ext. 26619	ABR0022	Purchase Now for Delivery by Monday | Arabella Farm Direct Bouquet of 12 Fresh Cut Pink Roses with a Free Glass Vase	1	0	1	NextDay	Matthew Cox	4087 CHARLESTOWN CIRCLE APT A	Apt A		HILL AFB	UT	84056-1151	US			false		
113-1805751-3093037	20740185653506	2020-07-24T11:18:11+00:00	2020-07-24T04:18:11-07:00	2020-07-24T11:47:02+00:00	2020-07-29T06:59:59+00:00	-5	cn7zypdb6vc4cfv@marketplace.amazon.com	Kabita	+1 929-436-4790 ext. 32162	ABR0022	Purchase Now for Delivery by Monday | Arabella Farm Direct Bouquet of 12 Fresh Cut Pink Roses with a Free Glass Vase	1	0	1	Expedited	Krishnakshi Das	565 ARASTRADERO RD APT 303			PALO ALTO	CA	94306-4322	US		Happy Birthday!  Saru Mahi and family From Jonali Khasnabish	false		
111-1997865-4065058	02495187213298	2020-07-24T12:01:45+00:00	2020-07-24T05:01:45-07:00	2020-07-24T12:05:52+00:00	2020-07-25T06:59:59+00:00	-1	5y6hrccl4wrs3fn@marketplace.amazon.com	candis hustus	+1 929-436-4790 ext. 93798	ABR0033	Purchase Now for Delivery by Monday | Arabella Farm Direct Bouquet of 12 Fresh Cut Orange Roses with a Free Glass Vase	1	0	1	NextDay	Lori Santangelo	465 PRESTON RIDGE LN			ROCKWELL	NC	28138-6796	US		Happy birthday mama... hope you enjoy the flowers and gifts on your special day. Love you - your fav child From candis hustus	false		
111-5640163-6800230	55255434177786	2020-07-24T12:17:29+00:00	2020-07-24T05:17:29-07:00	2020-07-24T12:48:05+00:00	2020-07-29T06:59:59+00:00	-5	2x52cr7jxf4t7n1@marketplace.amazon.com	Nick	+1 415-851-9136 ext. 51054	ABR001	Purchase Now for Delivery by Monday | Arabella Bouquets 12 Stems of Fresh Cut Red Roses in a Free Designer Glass Vase	1	0	1	Expedited	Nicholas Failla	2 SETALCOTT PL			SETAUKET	NY	11733-1316	US			false		
113-5226569-0197805	49178409691362	2020-07-24T12:47:14+00:00	2020-07-24T05:47:14-07:00	2020-07-24T12:48:14+00:00	2020-07-25T06:59:59+00:00	-1	y7nk2f24kn9j3kr@marketplace.amazon.com	Linda Ludwig	+1 415-851-9136 ext. 61659	ABR0055	Purchase Now for Delivery by Monday | Arabella Farm Direct Bouquet of 12 Stems of Fresh Cut Hot Pink Roses in a Free Designer Glass Vase	1	0	1	NextDay	The Ludwigs	942 CARRINGTON DR			CHARLOTTE	NC	28214-1406	US		Hope you are better soon! Love, Mom & Dad From Linda Ludwig	false		
112-4917631-5897838	34639821606866	2020-07-24T12:49:40+00:00	2020-07-24T05:49:40-07:00	2020-07-24T12:50:34+00:00	2020-07-25T06:59:59+00:00	-1	0yfh117wsrt83bn@marketplace.amazon.com	Taylor	+1 415-851-9136 ext. 00271	ABR0022	Purchase Now for Delivery by Monday | Arabella Farm Direct Bouquet of 12 Fresh Cut Pink Roses with a Free Glass Vase	1	0	1	NextDay	Taylor	37 WILBURN ST			RAY CITY	GA	31645-3802	US		I love you so much Jalane. Everyday I'm away from you makes the thoughts of you grow more and more. I cant wait to hold you again and kiss you like I've never kissed you before. you have my heart and soul. I love you From Taylor	false		
111-9751620-9418648	07500663096666	2020-07-24T12:56:24+00:00	2020-07-24T05:56:24-07:00	2020-07-24T12:59:00+00:00	2020-07-25T06:59:59+00:00	-1	8fcl8sl88hcrrlx@marketplace.amazon.com	Kelly Flynn	+1 415-851-9136 ext. 64387	ABR0022	Purchase Now for Delivery by Monday | Arabella Farm Direct Bouquet of 12 Fresh Cut Pink Roses with a Free Glass Vase	1	0	1	NextDay	Kathleen Warden	3100 S KINNEY RD UNIT 278			TUCSON	AZ	85713-5505	US			false		
111-7678692-4433050	36058528822650	2020-07-24T12:34:49+00:00	2020-07-24T05:34:49-07:00	2020-07-24T13:04:57+00:00	2020-07-29T06:59:59+00:00	-5	fy3t12k7pcr4t4y@marketplace.amazon.com	Melissa Taylor	+1 929-436-4790 ext. 80674	ABR0022	Purchase Now for Delivery by Monday | Arabella Farm Direct Bouquet of 12 Fresh Cut Pink Roses with a Free Glass Vase	1	0	1	Expedited	Denise cooper	7210 TARA DR			RICHMOND	TX	77469-6027	US			false		
111-5389616-8717846	54813171140626	2020-07-24T13:57:40+00:00	2020-07-24T06:57:40-07:00	2020-07-24T14:01:35+00:00	2020-07-25T06:59:59+00:00	-1	r1nsc2lv2tvr80k@marketplace.amazon.com	Aaron Kaufman	+1 929-436-4790 ext. 38238	ABR0055	Purchase Now for Delivery by Monday | Arabella Farm Direct Bouquet of 12 Stems of Fresh Cut Hot Pink Roses in a Free Designer Glass Vase	1	0	1	NextDay	Sonja Langdon	12534 KELLY SANDS WAY			FORT MYERS	FL	33908-5913	US		Happy Birthday Mom!!  Hope these flowers brighten your day! Love Joanne From Aaron Kaufman	false		
113-1626352-7709061	05702639840010	2020-07-24T14:19:45+00:00	2020-07-24T07:19:45-07:00	2020-07-24T14:23:32+00:00	2020-07-25T06:59:59+00:00	-1	tqxhcjh489y1css@marketplace.amazon.com	Caitlin Dale	+1 929-436-4790 ext. 77731	ABM010	The Spring Fling Bouquet by Arabella Bouquets with a Free Designer Glass Vase	1	0	1	NextDay	Caitlin K Dale	6000 N DAKOTA AVE NW			WASHINGTON	DC	20011-1437	US		Kate, Just a little something for you.  I so enjoy our calls as they make me feel less alone (and crazy).  You're a wonderful mother, wife and friend! From Caitlin Dale	false		
112-8967952-0015442	69045203597730	2020-07-24T14:22:59+00:00	2020-07-24T07:22:59-07:00	2020-07-24T14:23:55+00:00	2020-07-25T06:59:59+00:00	-1	jrvswn371br73wb@marketplace.amazon.com	DONNA  BARKER	+1 929-436-4790 ext. 39939	ABR0022	Purchase Now for Delivery by Monday | Arabella Farm Direct Bouquet of 12 Fresh Cut Pink Roses with a Free Glass Vase	1	0	1	NextDay	Carolyn Shelton	458 ROBERTSVILLE RD			OAK RIDGE	TN	37830-4845	US		Just because I love you! I am so glad God gave me a wonderful mom!  Donna From DONNA  BARKER	false		
112-3712388-4160215	69064803386658	2020-07-24T14:03:50+00:00	2020-07-24T07:03:50-07:00	2020-07-24T14:34:27+00:00	2020-07-29T06:59:59+00:00	-5	9235x8x3r2t53rz@marketplace.amazon.com	maureen Cottrell	+1 415-851-9136 ext. 27604	ABM010	The Spring Fling Bouquet by Arabella Bouquets with a Free Designer Glass Vase	1	0	1	Expedited	MAUREEN COTTRELL	250 NARROW LN			CHARLESTOWN	RI	02813-3158	US			false		
111-6619706-9413059	21485631411738	2020-07-24T14:51:05+00:00	2020-07-24T07:51:05-07:00	2020-07-24T14:52:31+00:00	2020-07-25T06:59:59+00:00	-1	m9svws1bw60330z@marketplace.amazon.com	Jim Capuzzo	+1 929-436-4790 ext. 79478	ABM010	The Spring Fling Bouquet by Arabella Bouquets with a Free Designer Glass Vase	1	0	1	NextDay	Mildred Ward	SUNNYSIDE VILLGAE	5201 BAHIA VISTA ST		SARASOTA	FL	34232-2615	US		Happy Birthday Millie. What a special day, wish we were there to toast to your 100 years of life. With love, Jim Capuzzo From Jim Capuzzo	false		
114-8141184-8660211	03059679123298	2020-07-24T15:00:30+00:00	2020-07-24T08:00:30-07:00	2020-07-24T15:05:07+00:00	2020-07-25T06:59:59+00:00	-1	yk3zq7gdbrfx1hj@marketplace.amazon.com	Jane Pancurak	+1 929-436-4790 ext. 11151	ABR0022	Purchase Now for Delivery by Monday | Arabella Farm Direct Bouquet of 12 Fresh Cut Pink Roses with a Free Glass Vase	1	0	1	NextDay	Suzie Taylor	300 HILARY WAY APT 176			VALLEJO	CA	94591-8355	US		Happy Birthday Suzie! We love you! From Jane & Cary	false		
111-2229384-0834660	33068793753250	2020-07-24T15:06:17+00:00	2020-07-24T08:06:17-07:00	2020-07-24T15:11:35+00:00	2020-07-25T06:59:59+00:00	-1	crdx9rh74d9sj9l@marketplace.amazon.com	John Liguori	+1 929-436-4790 ext. 98224	ABR0066	Arabella Bouquets 12 Stems of Fresh Cut White Roses in a Free Designer Glass Vase	1	0	1	NextDay	Jane Liguori	80-38 209th Street			Hollis Hills	NY	11427	US			false		
113-9190711-3944210	52804612727778	2020-07-24T15:14:09+00:00	2020-07-24T08:14:09-07:00	2020-07-24T15:15:05+00:00	2020-07-25T06:59:59+00:00	-1	d1k86dcz15g8mhb@marketplace.amazon.com	linda mccraw	+1 415-851-9136 ext. 44671	ABR0022	Purchase Now for Delivery by Monday | Arabella Farm Direct Bouquet of 12 Fresh Cut Pink Roses with a Free Glass Vase	1	0	1	NextDay	Jan Slater	1320 BAYLOR DR	LONGVIEW TX 75601 UNITED STATES		LONGVIEW	TX	75601-4303	US		So happy you are better! Now stop and smell the roses....... From Love, Linda McCraw/Leonard	false		
111-0840011-3412223	26543313117402	2020-07-24T15:18:24+00:00	2020-07-24T08:18:24-07:00	2020-07-24T15:19:18+00:00	2020-07-25T06:59:59+00:00	-1	b63zkmsgzw2glth@marketplace.amazon.com	Robin Nori	+1 415-851-9136 ext. 97439	ABR0055	Purchase Now for Delivery by Monday | Arabella Farm Direct Bouquet of 12 Stems of Fresh Cut Hot Pink Roses in a Free Designer Glass Vase	1	0	1	NextDay	KATE MOORE	3319 FORT SMITH DR			LAS VEGAS	NV	89122-3971	US		HAPPY BIRTHDAY  WE HOPE YOU HAVE A GREAT DAY! LOVE PHIL & ROBIN From Robin Nori	false		
111-5828077-0925856	05537241269090	2020-07-24T15:16:25+00:00	2020-07-24T08:16:25-07:00	2020-07-24T15:21:01+00:00	2020-07-25T06:59:59+00:00	-1	0y02l22lr3r3w7j@marketplace.amazon.com	Dylan	+1 929-436-4790 ext. 23141	ABR0022	Purchase Now for Delivery by Monday | Arabella Farm Direct Bouquet of 12 Fresh Cut Pink Roses with a Free Glass Vase	1	0	1	NextDay	Clarke Bagsby	CROSTHWAITE HALL MAILBOX	1000 17TH AVE N		NASHVILLE	TN	37208-3045	US			false		
114-9157239-0450636	17836566240786	2020-07-24T15:36:05+00:00	2020-07-24T08:36:05-07:00	2020-07-24T15:37:13+00:00	2020-07-25T06:59:59+00:00	-1	wfzqvjxbfs29227@marketplace.amazon.com	Bridgette	+1 929-436-4790 ext. 87668	ABR0055	Purchase Now for Delivery by Monday | Arabella Farm Direct Bouquet of 12 Stems of Fresh Cut Hot Pink Roses in a Free Designer Glass Vase	1	0	1	NextDay	Julia Miller	315 COUNTRY HILL DR			WEST HAVEN	CT	06516-5518	US		Julia, I am sorry. I really miss you.  Hope you like flowers! From Robert	false		
112-3018391-8808204	23056092808146	2020-07-24T15:34:35+00:00	2020-07-24T08:34:35-07:00	2020-07-24T15:37:20+00:00	2020-07-25T06:59:59+00:00	-1	chfckl9wkg3jfrm@marketplace.amazon.com	Mark Hohenwarter	+1 929-436-4790 ext. 57253	ABR0055	Purchase Now for Delivery by Monday | Arabella Farm Direct Bouquet of 12 Stems of Fresh Cut Hot Pink Roses in a Free Designer Glass Vase	1	0	1	NextDay	Marie T Hohenwarter	538 PENDLETON DR			VENICE	FL	34292-3953	US		Dear Mother,  Happy 89th  Love, Mark From Mark Hohenwarter	false		
114-3676318-1516243	09383650180746	2020-07-24T16:02:44+00:00	2020-07-24T09:02:44-07:00	2020-07-24T16:07:38+00:00	2020-07-25T06:59:59+00:00	-1	nr3vwgbqmkgkbpp@marketplace.amazon.com	Deborah Blakeney	+1 929-436-4790 ext. 62695	ABR0022	Purchase Now for Delivery by Monday | Arabella Farm Direct Bouquet of 12 Fresh Cut Pink Roses with a Free Glass Vase	1	0	1	NextDay	Mary Wells	180 TORAIN ST			HILLSBOROUGH	NC	27278-9674	US			false		
114-6606146-6920230	35104016923434	2020-07-24T15:48:34+00:00	2020-07-24T08:48:34-07:00	2020-07-24T16:19:10+00:00	2020-07-29T06:59:59+00:00	-5	vhpg7bf2zzdxrdj@marketplace.amazon.com	William J. Morgans	+1 929-436-4790 ext. 83391	ABR0066	Arabella Bouquets 12 Stems of Fresh Cut White Roses in a Free Designer Glass Vase	1	0	1	Expedited	William Morgans	120 HALL BROTHERS LOOP UNIT 203			BAINBRIDGE ISLAND	WASHINGTON	98110-2525	US			false		
113-6784683-5957009	41429935934674	2020-07-24T16:17:50+00:00	2020-07-24T09:17:50-07:00	2020-07-24T16:21:40+00:00	2020-07-25T06:59:59+00:00	-1	6vp996q4xmdmk65@marketplace.amazon.com	Gary Heatherly	+1 929-436-4790 ext. 77235	ABR0022	Purchase Now for Delivery by Monday | Arabella Farm Direct Bouquet of 12 Fresh Cut Pink Roses with a Free Glass Vase	1	0	1	NextDay	Jeanne Johnston	2934 JOHNSON ST			METAIRIE	LA	70001-5455	US			false		
111-0827121-6353011	12387456846226	2020-07-24T16:38:28+00:00	2020-07-24T09:38:28-07:00	2020-07-24T16:39:23+00:00	2020-07-25T06:59:59+00:00	-1	nmnq7xktsw3gb3j@marketplace.amazon.com	Josh	+1 929-436-4790 ext. 82849	ABR0022	Purchase Now for Delivery by Monday | Arabella Farm Direct Bouquet of 12 Fresh Cut Pink Roses with a Free Glass Vase	1	0	1	NextDay	Melissa Chisholm	146 Los Tobias Street			Carrizo Springs	TX	78834	US		Melissa,  To a woman who has no idea how much I love her. I love you Melissa Chisholm  P.S. your kids miss and love you and can't wait to see you also. From Love Josh	false		
112-6166253-3403440	03338371113026	2020-07-24T16:34:55+00:00	2020-07-24T09:34:55-07:00	2020-07-24T16:39:29+00:00	2020-07-25T06:59:59+00:00	-1	7zhp6vm3rgvd67k@marketplace.amazon.com	craig kay	+1 929-436-4790 ext. 13129	ABR0066	Arabella Bouquets 12 Stems of Fresh Cut White Roses in a Free Designer Glass Vase	1	0	1	NextDay	Veronica and Erich Vargas	9618 KINDLETREE DR			HOUSTON	TX	77040-3910	US			false		
113-9499881-9809818	13873323184402	2020-07-24T16:48:06+00:00	2020-07-24T09:48:06-07:00	2020-07-24T16:49:12+00:00	2020-07-25T06:59:59+00:00	-1	8959rjg2k6j8vt4@marketplace.amazon.com	Jennifer	+1 929-436-4790 ext. 34797	ABM010	The Spring Fling Bouquet by Arabella Bouquets with a Free Designer Glass Vase	1	0	1	NextDay	Angela Fox	490 W DEERWOOD LN			TRACY	CA	95376-9006	US		Foxy Face, I just wanted to send you some cheer and let you know how much I appreciate you and your friendship. I love you and miss you. Keep being you! You are an amazing, special person. From Love, Jen	false		
112-3268152-9049057	10155470424218	2020-07-24T16:22:58+00:00	2020-07-24T09:22:58-07:00	2020-07-24T16:51:42+00:00	2020-07-29T06:59:59+00:00	-5	dsx7cs4749sx0sd@marketplace.amazon.com	Nicole Scotti	+1 929-436-4790 ext. 91771	ABR0022	Purchase Now for Delivery by Monday | Arabella Farm Direct Bouquet of 12 Fresh Cut Pink Roses with a Free Glass Vase	1	0	1	Standard	Rosemarie Scotti	8475 SE RETREAT DR			HOBE SOUND	FL	33455-8944	US		Happy Birthday AMOS Love Mikayla Danielle Ann From Scotti-Devins	false		
114-5690767-4855409	23554040876162	2020-07-24T17:02:29+00:00	2020-07-24T10:02:29-07:00	2020-07-24T17:28:25+00:00	2020-07-29T06:59:59+00:00	-5	p007sxk1w6xd5xf@marketplace.amazon.com	Jennifer Fernandez	+1 929-436-4790 ext. 56272	ABR013	Purchase Now for Delivery by Monday | Arabella Farm Direct Bouquet of 18 Fresh Cut Yellow Roses with a Free Glass Vase	1	0	1	Standard	Mrs Faye Stuart c/o Merrill Gardens	9942 HIGHLAND AVE			RANCHO CUCAMONGA	CA	91737-4200	US		Happy Birthday Mom! Yellow roses to remind you of Texas. Enjoy! Love you! Jen and Bill From Jen and Bill	false		
111-2310630-0743402	39663359359138	2020-07-24T17:16:15+00:00	2020-07-24T10:16:15-07:00	2020-07-24T17:42:09+00:00	2020-07-29T06:59:59+00:00	-5	yyn10r4fps0p4cj@marketplace.amazon.com	Kathleen Kabir	+1 929-436-4790 ext. 96653	ABR0022	Purchase Now for Delivery by Tuesday | Arabella Farm Direct Bouquet of 12 Fresh Cut Pink Roses with a Free Glass Vase	1	0	1	Expedited	Alice Uhly	1020 W VINE ST			PRINCETON	IN	47670-1164	US		Just thought you might enjoy these to brighten up your day! Love you Aunt Alice From Kathleen Kabir	false		
