order-id	order-item-id	purchase-date	payments-date	reporting-date	promise-date	days-past-promise	buyer-email	buyer-name	buyer-phone-number	sku	product-name	quantity-purchased	quantity-shipped	quantity-to-ship	ship-service-level	recipient-name	ship-address-1	ship-address-2	ship-address-3	ship-city	ship-state	ship-postal-code	ship-country	gift-wrap-type	gift-message-text	is-business-order	purchase-order-number	price-designation
112-9233391-1281006	06982428695202	2020-07-24T17:58:54+00:00	2020-07-24T10:58:54-07:00	2020-07-24T18:25:21+00:00	2020-07-29T06:59:59+00:00	-4	z4q2ynbqwwnz1dx@marketplace.amazon.com	Deborah Kelly	+1 929-436-4790 ext. 25689	ABM010	The Spring Fling Bouquet by Arabella Bouquets with a Free Designer Glass Vase	1	0	1	Expedited	Libba Kelmor	16118 POINTER RIDGE DR			BOWIE	MD	20716-1805	US		A box full of smiles, hugs and love  just for you! Love, always, Mom and Dad From Mom and Dad	false		
114-5096232-7245854	28744687102258	2020-07-24T18:08:27+00:00	2020-07-24T11:08:27-07:00	2020-07-24T18:33:39+00:00	2020-07-29T06:59:59+00:00	-4	gckc0fxf1w4r256@marketplace.amazon.com	Quinn Jarecki	+1 929-436-4790 ext. 21323	ABM010	The Spring Fling Bouquet by Arabella Bouquets with a Free Designer Glass Vase	1	0	1	Expedited	Rita Price	5648 W RED RACER DR			TUCSON	AZ	85742-8360	US		Happy Birthday Rita! Hope this brightens your day as much as you brighten ours. Much Love, Amy, Mark, Heidi & Kelsey From Amy, Mark, Heidi & Kelsey	false		
111-2061026-1875444	01849041438306	2020-07-24T18:12:05+00:00	2020-07-24T11:12:05-07:00	2020-07-24T18:39:48+00:00	2020-07-29T06:59:59+00:00	-4	kknvfv1rqnb759w@marketplace.amazon.com	Frank Connors	+1 415-851-9136 ext. 46191	ABM010	The Spring Fling Bouquet by Arabella Bouquets with a Free Designer Glass Vase	1	0	1	Expedited	Peggy Butner	302 W ELK ST			SAVANNAH	MO	64485-2210	US		Get Well Soon Peggy! We are so thankful you are on the way to recovery!!! From Frank and Judy with love	false		
112-6652310-5023429	58577987985602	2020-07-24T18:35:36+00:00	2020-07-24T11:35:36-07:00	2020-07-24T18:40:46+00:00	2020-07-28T06:59:59+00:00	-3	7lsgdmbkq1nq7p3@marketplace.amazon.com	Frank Percival	+1 929-436-4790 ext. 06577	ABM002	Arabella Bouquets Fresh Cut White Calla Lilies in a Free Designer Glass Vase	1	0	1	NextDay	Frank Percival	17103 17TH AVE W			LYNNWOOD	WA	98037-8525	US			true		
112-2012385-4616214	58782856270418	2020-07-24T18:24:59+00:00	2020-07-24T11:24:59-07:00	2020-07-24T18:53:31+00:00	2020-07-29T06:59:59+00:00	-4	8rmfbsksvrf47cy@marketplace.amazon.com	George V. Dragotta	+1 929-436-4790 ext. 25848	ABR0022	Purchase Now for Delivery by Tuesday | Arabella Farm Direct Bouquet of 12 Fresh Cut Pink Roses with a Free Glass Vase	1	0	1	Expedited	Ms. L. Galloway	1446 FLAGSHIP CT			SAN MARCOS	CA	92078-1039	US		Happy Birthday Laraine, Like fine cheese, you ripen with age! Love, George From George V. Dragotta	false		
112-6292445-7629853	57115256411786	2020-07-24T19:01:47+00:00	2020-07-24T12:01:47-07:00	2020-07-24T19:30:31+00:00	2020-07-29T06:59:59+00:00	-4	10chgrrzp00l571@marketplace.amazon.com	Stefanie Keene	+1 929-436-4790 ext. 60117	ABR004	Arabella Farm Direct Bouquet of 12 Fresh Cut Yellow Roses with a Free Glass Vase	1	0	1	Expedited	Lillie Clinton	RR 4 BOX 2659			STILWELL	OK	74960-9499	US		Grandma, We hope you feel better! Stay out of the heat and the apple trees! Love, Matt, Stef, Ethan, and Noah Keene	false		
112-8650714-6524246	65967056794010	2020-07-24T20:07:01+00:00	2020-07-24T13:07:01-07:00	2020-07-24T20:12:23+00:00	2020-07-28T06:59:59+00:00	-3	bcdgc34z9g0my3g@marketplace.amazon.com	Helen A Hopkins	+1 929-436-4790 ext. 18254	ABM022	Purple Extravagance Bouquet by Arabella Bouquets	1	0	1	NextDay	Helen Hopkins	176 N IL ROUTE 59			BARRINGTON	IL	60010-1921	US			false		
111-6535141-1951405	44146690842954	2020-07-24T20:14:00+00:00	2020-07-24T13:14:00-07:00	2020-07-24T20:39:10+00:00	2020-07-29T06:59:59+00:00	-4	tnxv2010rdfdgxp@marketplace.amazon.com	Barbara Alexander	+1 929-436-4790 ext. 17788	ABR0022	Purchase Now for Delivery by Tuesday | Arabella Farm Direct Bouquet of 12 Fresh Cut Pink Roses with a Free Glass Vase	1	0	1	Expedited	Mary Baccus	26851 PATTERSON ST			PERRIS	CA	92570-9092	US		Happy Birthday my wonderful Aunt.  I hope you have an amazing day.  Love you! From Barbara Alexander	false		
111-7620122-4245852	10587926004642	2020-07-24T21:04:10+00:00	2020-07-24T14:04:10-07:00	2020-07-24T21:07:07+00:00	2020-07-28T06:59:59+00:00	-3	t4tjprqlkw5qf7j@marketplace.amazon.com	RHODORA VILLALON	+1 929-436-4790 ext. 86318	ABR0022	Purchase Now for Delivery by Tuesday | Arabella Farm Direct Bouquet of 12 Fresh Cut Pink Roses with a Free Glass Vase	1	0	1	NextDay	Athena Trinidad	10167 MEADOW POINTE DR			JACKSONVILLE	FL	32221-8001	US		Dearest Teena, Praying for your speedy recovery  Always, Ohda From RHODORA VILLALON	false		
114-6386712-8731468	39474325682986	2020-07-24T20:48:20+00:00	2020-07-24T13:48:20-07:00	2020-07-24T21:18:24+00:00	2020-07-29T06:59:59+00:00	-4	56lmhcgymmmc5w8@marketplace.amazon.com	frank fiumara	+1 929-436-4790 ext. 76600	ABR0022	Purchase Now for Delivery by Tuesday | Arabella Farm Direct Bouquet of 12 Fresh Cut Pink Roses with a Free Glass Vase	1	0	1	Expedited	frank fiumara	212 Furyk Way			Hemet	CA	92545-8853	US			false		
113-8090596-0221053	63899232647274	2020-07-24T20:56:40+00:00	2020-07-24T13:56:40-07:00	2020-07-24T21:27:11+00:00	2020-07-29T06:59:59+00:00	-4	6w66szsq7d9qqwg@marketplace.amazon.com	Catherine Hinzy	+1 929-436-4790 ext. 53355	ABR0055	Purchase Now for Delivery by Tuesday | Arabella Farm Direct Bouquet of 12 Stems of Fresh Cut Hot Pink Roses in a Free Designer Glass Vase	1	0	1	Expedited	Shawna Hostetler	501 MAIN ST			ADDISON	PA	15411-2050	US			false		
113-5198499-3990634	60653456094162	2020-07-24T21:29:57+00:00	2020-07-24T14:29:57-07:00	2020-07-24T21:30:47+00:00	2020-07-28T06:59:59+00:00	-3	skp76bffd5dfy5j@marketplace.amazon.com	sandra antoni	+1 929-436-4790 ext. 87876	ABM010	The Spring Fling Bouquet by Arabella Bouquets with a Free Designer Glass Vase	1	0	1	NextDay	Pearl Nawrocki	406 VALLEY VIEW DR			ST CHARLES	IL	60175-6575	US		Enjoy your gift! From Sandi & Sharon	false		
111-2507386-6184248	57691702071394	2020-07-24T21:59:53+00:00	2020-07-24T14:59:53-07:00	2020-07-24T22:00:55+00:00	2020-07-28T06:59:59+00:00	-3	9syrgblpp0vhzr5@marketplace.amazon.com	marie	+1 929-436-4790 ext. 27179	ABR0055	Purchase Now for Delivery by Tuesday | Arabella Farm Direct Bouquet of 12 Stems of Fresh Cut Hot Pink Roses in a Free Designer Glass Vase	1	0	1	NextDay	Sherri Solis	771 S THOMPSON ST			HEMET	CA	92543-7122	US			false		
112-2367649-1451410	04802609006666	2020-07-24T21:57:29+00:00	2020-07-24T14:57:29-07:00	2020-07-24T22:02:59+00:00	2020-07-28T06:59:59+00:00	-3	0bpvk0sf7d46k95@marketplace.amazon.com	michael monahan	+1 929-436-4790 ext. 88390	ABM010	The Spring Fling Bouquet by Arabella Bouquets with a Free Designer Glass Vase	1	0	1	NextDay	emma ryan	2113 TRAMWAY RD			SANFORD	NC	27332-7138	US			false		
112-2441361-6902657	62174126006050	2020-07-24T21:42:07+00:00	2020-07-24T14:42:07-07:00	2020-07-24T22:08:18+00:00	2020-07-29T06:59:59+00:00	-4	l69315s9cwt9l7y@marketplace.amazon.com	Robyn Matthews	+1 929-436-4790 ext. 65886	ABR0022	Purchase Now for Delivery by Tuesday | Arabella Farm Direct Bouquet of 12 Fresh Cut Pink Roses with a Free Glass Vase	1	0	1	Expedited	Essie Matthews	1830 LEBOEUF CT			NEW ORLEANS	LA	70114-6176	US		Grandma! I love you so very much. Despite of what’s going on, I want you to enjoy your birthday as much as possible. I am hugging you so tight from a distance.   Love You Much! From Your Granddaughter, Robyn Matthews	false		
114-9263414-4666601	01230131629658	2020-07-24T22:18:10+00:00	2020-07-24T15:18:10-07:00	2020-07-24T22:22:06+00:00	2020-07-28T06:59:59+00:00	-3	7tfgfpg75w6vbb0@marketplace.amazon.com	debbie shapiro	+1 929-436-4790 ext. 59930	ABR0022	Purchase Now for Delivery by Tuesday | Arabella Farm Direct Bouquet of 12 Fresh Cut Pink Roses with a Free Glass Vase	1	0	1	NextDay	HAROLD/SHERRY/ALEX SHAPIRO	205 ANDOVER CT			WEST MIFFLIN	PA	15122-2616	US		I am an ass but I love you so much Enjoy your gift! From Harold	false		
114-4218190-7609868	27550230942594	2020-07-24T21:59:27+00:00	2020-07-24T14:59:27-07:00	2020-07-24T22:28:42+00:00	2020-07-29T06:59:59+00:00	-4	wg30k0cts3rx6f9@marketplace.amazon.com	MWSM	+1 929-436-4790 ext. 22811	ABR0022	Purchase Now for Delivery by Tuesday | Arabella Farm Direct Bouquet of 12 Fresh Cut Pink Roses with a Free Glass Vase	1	0	1	Expedited	Alfiya Yakupova	55 DINSMORE AVE APT 509			FRAMINGHAM	MA	01702-6027	US		Congratulations on your new role as proud grandparents of a happy and healthy baby boy!!! We hope this is a wonderful time filled with lots of joy and happiness for your family. From Anna, Alla and Team	true		
113-0438313-6635408	15506605642530	2020-07-24T22:34:05+00:00	2020-07-24T15:34:05-07:00	2020-07-24T22:35:07+00:00	2020-07-28T06:59:59+00:00	-3	19lx77l7n6gqg1l@marketplace.amazon.com	Tracy Oswald	+1 929-436-4790 ext. 99348	ABR0055	Purchase Now for Delivery by Tuesday | Arabella Farm Direct Bouquet of 12 Stems of Fresh Cut Hot Pink Roses in a Free Designer Glass Vase	1	0	1	NextDay	Laura Christiansen	8170 38TH AVE N			ST PETERSBURG	FL	33710-1032	US		I’m so happy you’re doing better and healing from the horrible infection you had, it’s too scary.  So glad you called me. See you in October! XXOO From Luv ya Tracy	false		
114-8181482-2185024	15919245148738	2020-07-24T22:33:33+00:00	2020-07-24T15:33:33-07:00	2020-07-24T22:37:09+00:00	2020-07-28T06:59:59+00:00	-3	d1gfn1jvpll4bbc@marketplace.amazon.com	heather Petek	+1 929-436-4790 ext. 91226	ABR0022	Purchase Now for Delivery by Tuesday | Arabella Farm Direct Bouquet of 12 Fresh Cut Pink Roses with a Free Glass Vase	1	0	1	NextDay	Joanne Bartinelli	3483 JESSIE ANN CIR			MEDINA	OH	44256-6965	US		We are praying for you daily! From Tom and Heather Petek	false		
113-2996148-3727408	47510070505426	2020-07-24T22:41:07+00:00	2020-07-24T15:41:07-07:00	2020-07-24T23:03:37+00:00	2020-07-29T06:59:59+00:00	-4	cz4w0fxfkjbzz3d@marketplace.amazon.com	Maria Aragona	+1 929-436-4790 ext. 60529	ABR0055	Purchase Now for Delivery by Tuesday | Arabella Farm Direct Bouquet of 12 Stems of Fresh Cut Hot Pink Roses in a Free Designer Glass Vase	1	0	1	Expedited	Louise Anella Bartelli	26 E READING AVE			STATEN ISLAND	NY	10308-1321	US		Dear Louise-Zizi Louise, We hope your feeling better and you have a quick and easy recovery. Love, Angela From Angela, Maria, Joseph and Dee	false		
114-9320481-4276201	64921291338258	2020-07-24T23:07:06+00:00	2020-07-24T16:07:06-07:00	2020-07-24T23:08:00+00:00	2020-07-28T06:59:59+00:00	-3	x0zx43bz3j497w1@marketplace.amazon.com	Jason Boberg	+1 929-436-4790 ext. 81036	ABR0022	Purchase Now for Delivery by Tuesday | Arabella Farm Direct Bouquet of 12 Fresh Cut Pink Roses with a Free Glass Vase	1	0	1	NextDay	Cher Cutone	1472 HONEYSUCKLE RD			LIVERMORE	CA	94551-6714	US		Hi Cher, Just wanted to send you a little something to brighten your day.  Hope you are feeling better❤️ From The Bobergs	false		
113-0491368-0229025	45961467427250	2020-07-24T23:53:59+00:00	2020-07-24T16:53:59-07:00	2020-07-24T23:58:55+00:00	2020-07-28T06:59:59+00:00	-3	bdg434lprnrsczy@marketplace.amazon.com	Victor Castillo	+1 929-436-4790 ext. 82614	ABR0055	Purchase Now for Delivery by Tuesday | Arabella Farm Direct Bouquet of 12 Stems of Fresh Cut Hot Pink Roses in a Free Designer Glass Vase	1	0	1	NextDay	Jacky Hernandez	OLD NAVY 990 CAMINO DEL RIO N			SAN DIEGO	CA	92108-3286	US			false		
114-3041702-0624215	09515289083306	2020-07-24T23:52:57+00:00	2020-07-24T16:52:57-07:00	2020-07-25T00:20:41+00:00	2020-07-29T06:59:59+00:00	-4	9t5cprcmmcwlzsy@marketplace.amazon.com	Ann torri	+1 415-851-9136 ext. 96602	ABR014	Arabella Bouquets 18 Stems of Fresh Cut White Roses in a Free Designer Glass Vase	1	0	1	Expedited	Maria Delgado	1682 S BUCKLEY WAY			AURORA	CO	80017-5649	US			false		
114-4241474-6022636	36374905606250	2020-07-25T00:15:17+00:00	2020-07-24T17:15:17-07:00	2020-07-25T00:33:21+00:00	2020-07-29T06:59:59+00:00	-4	lftvnm593y0fk0d@marketplace.amazon.com	Carlos Medina	+1 929-436-4790 ext. 91628	ABR0022	Purchase Now for Delivery by Tuesday | Arabella Farm Direct Bouquet of 12 Fresh Cut Pink Roses with a Free Glass Vase	1	0	1	Expedited	Alicia Reinhart	11385 COUNTY LINE RD			CHESTERLAND	OH	44026-1248	US		Enjoy your gift CON TODO NUESTRO AMOR, CECILIA, STEVE, MAURICE, STEPHANY, Y CARLOS From CECILIA CHAZARO	false		
113-8572228-0969049	58404936589146	2020-07-23T00:32:52+00:00	2020-07-22T17:32:52-07:00	2020-07-25T01:05:56+00:00	2020-07-29T06:59:59+00:00	-4	ty6twxvvzgj11c1@marketplace.amazon.com	Lynn Langton	+1 347-448-3190 ext. 86423	ABR0022	Purchase Now for Delivery by Monday | Arabella Farm Direct Bouquet of 12 Fresh Cut Pink Roses with a Free Glass Vase	1	0	1	Expedited	John and Claire Langton	MCCAULEY	275 STEELE RD APT A211		WEST HARTFORD	CT	06117-2799	US			false		
111-0696805-9979429	50189219683434	2020-07-25T01:17:24+00:00	2020-07-24T18:17:24-07:00	2020-07-25T01:20:40+00:00	2020-07-28T06:59:59+00:00	-3	dc5r12bjkwr572f@marketplace.amazon.com	Brittany Butler	+1 929-436-4790 ext. 22857	ABR0022	Purchase Now for Delivery by Tuesday | Arabella Farm Direct Bouquet of 12 Fresh Cut Pink Roses with a Free Glass Vase	1	0	1	NextDay	Lynn Love	5 WESTFIELD CIR	LITTLE ROCK AR 72210 5 WESTFIELD CIR		LITTLE ROCK	AR	72210-6944	US			false		
111-6231275-4629852	39832112618218	2020-07-24T00:49:58+00:00	2020-07-23T17:49:58-07:00	2020-07-25T01:21:13+00:00	2020-07-29T06:59:59+00:00	-4	0t26h0d3nk6gwhd@marketplace.amazon.com	Steve Baldwin	+1 929-436-4790 ext. 49139	ABR0055	Purchase Now for Delivery by Monday | Arabella Farm Direct Bouquet of 12 Stems of Fresh Cut Hot Pink Roses in a Free Designer Glass Vase	1	0	1	Expedited	Forrest Yegge	356 Esther Avenue			Campbell	CA	95008	US			false		
114-6238142-5764242	23695355806714	2020-07-25T01:56:38+00:00	2020-07-24T18:56:38-07:00	2020-07-25T02:27:16+00:00	2020-07-29T06:59:59+00:00	-4	3dv3vkvjsdxz1tm@marketplace.amazon.com	Karen A. Silvestro	+1 929-436-4790 ext. 34255	ABR0055	Purchase Now for Delivery by Tuesday | Arabella Farm Direct Bouquet of 12 Stems of Fresh Cut Hot Pink Roses in a Free Designer Glass Vase	1	0	1	Expedited	Mary Silvestro	4725 BELLWETHER LN RM 3			OXFORD	FL	34484-2980	US			false		
114-0649148-7670631	49798183122474	2020-07-25T02:40:59+00:00	2020-07-24T19:40:59-07:00	2020-07-25T02:43:45+00:00	2020-07-28T06:59:59+00:00	-3	sqj3rvfc1yf11b6@marketplace.amazon.com	Kathleen Maitino	+1 929-436-4790 ext. 78205	ABR0022	Purchase Now for Delivery by Tuesday | Arabella Farm Direct Bouquet of 12 Fresh Cut Pink Roses with a Free Glass Vase	1	0	1	NextDay	Debbie Durbin	6200 W 43RD ST APT 103			SIOUX FALLS	SD	57106-1275	US		Hey Gurlie !!!  Happy 50th Birfday !!!  Have a great day & enjoy, Miss ya !!  Luv -Kathi xo	false		
113-8452722-6272255	05022757857250	2020-07-25T02:25:12+00:00	2020-07-24T19:25:12-07:00	2020-07-25T02:51:12+00:00	2020-07-29T06:59:59+00:00	-4	j433szbk4rv234w@marketplace.amazon.com	rachel duggal	+1 929-436-4790 ext. 66364	ABR012	Purchase Now for Delivery by Tuesday | Arabella Farm Direct Bouquet of 18 Fresh Cut Pink Roses with a Free Glass Vase	1	0	1	Expedited	Mark and Priya Vesely	5508 ROLAND AVE			BALTIMORE	MD	21210-1427	US		Happy Anniversary love mom and dad From rachel duggal	false		
112-8877701-5049836	20994597502250	2020-07-25T02:30:53+00:00	2020-07-24T19:30:53-07:00	2020-07-25T02:56:04+00:00	2020-07-29T06:59:59+00:00	-4	1rj4mz6tqz5hpv2@marketplace.amazon.com	Vickie Hatten	+1 929-436-4790 ext. 81239	ABR012	Purchase Now for Delivery by Tuesday | Arabella Farm Direct Bouquet of 18 Fresh Cut Pink Roses with a Free Glass Vase	1	0	1	Expedited	Ashley Quinn	15011 SAGEWOOD ST	GULFPORT MS 39503 UNITED STATES		GULFPORT	MS	39503-2439	US		Congrats to the Quinn Family !! We can not wait to get some cuddling time with Sidney and Sutton!!  Love All of You to the Moon and Back !! From Aunt Vick, Quinn, Sarah, JT and Luca	false		
112-2492719-8428200	07098584502570	2020-07-25T03:39:58+00:00	2020-07-24T20:39:58-07:00	2020-07-25T03:40:53+00:00	2020-07-28T06:59:59+00:00	-3	dy727xmb6vlsbdv@marketplace.amazon.com	Amanda	+1 929-436-4790 ext. 80169	ABM0033	Purchase Now for Delivery by Tuesday | Arabella Farm Direct Bouquet of Fresh Cut White Hydrangea with a Free Glass Vase	1	0	1	NextDay	Kristin Grunder	1621 CHERNUS LN			CHINO HILLS	CA	91709-2314	US		Just because. We hope you know how amazing you are. From Your cookie pals Amanda and Ashley	false		
111-1284141-0993050	08739685509066	2020-07-25T03:53:57+00:00	2020-07-24T20:53:57-07:00	2020-07-25T03:54:48+00:00	2020-07-28T06:59:59+00:00	-3	8st53bw7vp1fb56@marketplace.amazon.com	Glen Einrem	+1 415-851-9136 ext. 22814	ABM002	Arabella Bouquets Fresh Cut White Calla Lilies in a Free Designer Glass Vase	1	0	1	NextDay	Brittany Huffman	1757 HARRISON ST			LARAMIE	WY	82070-7119	US		Happy Birthday, Ali.  I love you!  Wish I could be there to celebrate with you. From Mark Huffman	false		
111-7041694-0821043	01072164333810	2020-07-25T04:26:53+00:00	2020-07-24T21:26:53-07:00	2020-07-25T04:29:56+00:00	2020-07-28T06:59:59+00:00	-3	kml7f5lsz8mk2c8@marketplace.amazon.com	M	+1 929-436-4790 ext. 96762	ABR0022	Purchase Now for Delivery by Tuesday | Arabella Farm Direct Bouquet of 12 Fresh Cut Pink Roses with a Free Glass Vase	1	0	1	NextDay	Kristian Bennett	2175 N STATE HIGHWAY 360 APT 129			GRAND PRAIRIE	TX	75050-1041	US		Happy birthday beautiful! I hope the day is just as special as you hoped it would be. From Myles	false		
112-6478409-2436216	14150106298314	2020-07-25T04:38:56+00:00	2020-07-24T21:38:56-07:00	2020-07-25T05:03:15+00:00	2020-07-29T06:59:59+00:00	-4	t0mndhjlc9fg9xq@marketplace.amazon.com	Sylvia Hillard	+1 929-436-4790 ext. 03816	ABR0022	Purchase Now for Delivery by Tuesday | Arabella Farm Direct Bouquet of 12 Fresh Cut Pink Roses with a Free Glass Vase	1	0	1	Expedited	Mildred (Millie) LeBlanc	ASHTON MANOR ASSISTED LIVING	270 ASHTON PLANTATION BLVD RM 101		LULING	LA	70070-6249	US		Just to let you know that me and Buddy are thinking about you.   Love you! From Sylvia and Buddy	false		
113-9801670-5603428	43685264651522	2020-07-25T04:32:43+00:00	2020-07-24T21:32:43-07:00	2020-07-25T05:03:16+00:00	2020-07-29T06:59:59+00:00	-4	t38w5w9nh22f1ct@marketplace.amazon.com	Catherine		ABM0033	Purchase Now for Delivery by Tuesday | Arabella Farm Direct Bouquet of Fresh Cut White Hydrangea with a Free Glass Vase	1	0	1	Expedited	CATHERINE D WILLIFORD	325 SHETLAND LN			LEXINGTON	SC	29073	US			false		
114-7729817-5481010	45485469288146	2020-07-25T06:00:39+00:00	2020-07-24T23:00:39-07:00	2020-07-25T06:05:11+00:00	2020-07-28T06:59:59+00:00	-3	74yb8lqs7mwtgqk@marketplace.amazon.com	Megan Eileen Dorton	+1 929-436-4790 ext. 95792	ABR0022	Purchase Now for Delivery by Tuesday | Arabella Farm Direct Bouquet of 12 Fresh Cut Pink Roses with a Free Glass Vase	1	0	1	NextDay	Lucille Dow	1305 GROVER DR			MODESTO	CALIFORNIA	95351-4841	US		Get well soon! We love you! From Joel, Meg, Ryan and Róisín	false		
111-8411229-9088254	36238584660194	2020-07-25T06:06:19+00:00	2020-07-24T23:06:19-07:00	2020-07-25T06:07:14+00:00	2020-07-28T06:59:59+00:00	-3	v7ph533stwhfpv9@marketplace.amazon.com	CHUL RYU	+1 929-436-4790 ext. 28193	ABR0055	Purchase Now for Delivery by Tuesday | Arabella Farm Direct Bouquet of 12 Stems of Fresh Cut Hot Pink Roses in a Free Designer Glass Vase	1	0	1	NextDay	Hwa Norton	1009 112TH ST SE UNIT D101			EVERETT	WA	98208-5086	US		Happy Birthday to YOU! Have a nice and happy day!! We love you!!! From CHUL & SOJUNG	false		
111-4951571-6299412	58458776918058	2020-07-25T06:14:19+00:00	2020-07-24T23:14:19-07:00	2020-07-25T06:44:30+00:00	2020-07-29T06:59:59+00:00	-4	9gzwh9f9p31hxnx@marketplace.amazon.com	meghan	+1 929-436-4790 ext. 14790	ABR0022	Purchase Now for Delivery by Tuesday | Arabella Farm Direct Bouquet of 12 Fresh Cut Pink Roses with a Free Glass Vase	1	0	1	Expedited	meghan	1302 MERGANSER BLVD			SWANSEA	IL	62226-8551	US			false		
111-7389052-8411426	58774439549266	2020-07-25T08:43:15+00:00	2020-07-25T01:43:15-07:00	2020-07-25T08:48:56+00:00	2020-07-28T06:59:59+00:00	-3	h4yx1959hv5y15l@marketplace.amazon.com	Arati anchan	+1 929-436-4790 ext. 86621	ABR001	Purchase Now for Delivery by Tuesday | Arabella Bouquets 12 Stems of Fresh Cut Red Roses in a Free Designer Glass Vase	1	0	1	NextDay	Neha Anchan	MONROE TWP 12 PRESERVATION DR			MONROE TOWNSHIP	NJ	08831-2355	US			false		
114-8703799-1513801	67690390829490	2020-07-25T09:25:29+00:00	2020-07-25T02:25:29-07:00	2020-07-25T09:51:12+00:00	2020-07-29T06:59:59+00:00	-4	q62f7wwvtt6yt53@marketplace.amazon.com	Joellen Saddock	+1 929-436-4790 ext. 94081	ABR0033	Purchase Now for Delivery by Tuesday | Arabella Farm Direct Bouquet of 12 Fresh Cut Orange Roses with a Free Glass Vase	1	0	1	Expedited	Jack Berberian	104 BRIGHTON RD			REHOBOTH BEACH	DE	19971-3524	US		Jack and family,  You have our deepest condolences. We cannot imagine the depth of your loss. May each day be a little brighter, From Mike & Joellen Laroche	false		
111-2369878-3420213	55942238338882	2020-07-25T11:11:16+00:00	2020-07-25T04:11:16-07:00	2020-07-25T11:39:33+00:00	2020-07-29T06:59:59+00:00	-4	thc42xmmb4gl8r2@marketplace.amazon.com	John C Sivalon	+1 929-436-4790 ext. 94599	ABR0055	Purchase Now for Delivery by Wednesday | Arabella Farm Direct Bouquet of 12 Stems of Fresh Cut Hot Pink Roses in a Free Designer Glass Vase	1	0	1	Expedited	Nina Planamenta	126 LAKE RD			VALLEY COTTAGE	NY	10989-2459	US		Nina Wishing you a happy birthday. Sending these with prayers and love. From John C Sivalon	false		
114-1070062-1656220	07325633734306	2020-07-25T12:37:57+00:00	2020-07-25T05:37:57-07:00	2020-07-25T13:07:12+00:00	2020-07-29T06:59:59+00:00	-4	kj7gxly7215s6ls@marketplace.amazon.com	Christine Brown	+1 415-851-9136 ext. 30539	ABR001	Purchase Now for Delivery by Wednesday | Arabella Bouquets 12 Stems of Fresh Cut Red Roses in a Free Designer Glass Vase	1	0	1	Expedited	Carolyn Brown	136 BROOME CENTER RD			GILBOA	NEW YORK	12076-2533	US		Happy Anniversary! Love you! From Chris, Richard, Curtis and Tim	false		
