order-id	order-item-id	purchase-date	payments-date	reporting-date	promise-date	days-past-promise	buyer-email	buyer-name	buyer-phone-number	sku	product-name	quantity-purchased	quantity-shipped	quantity-to-ship	ship-service-level	recipient-name	ship-address-1	ship-address-2	ship-address-3	ship-city	ship-state	ship-postal-code	ship-country	gift-wrap-type	gift-message-text	is-business-order	purchase-order-number	price-designation
114-8703799-1513801	67690390829490	2020-07-25T09:25:29+00:00	2020-07-25T02:25:29-07:00	2020-07-25T09:51:12+00:00	2020-07-29T06:59:59+00:00	-4	q62f7wwvtt6yt53@marketplace.amazon.com	Joellen Saddock	+1 929-436-4790 ext. 94081	ABR0033	Purchase Now for Delivery by Tuesday | Arabella Farm Direct Bouquet of 12 Fresh Cut Orange Roses with a Free Glass Vase	1	0	1	Expedited	Jack Berberian	104 BRIGHTON RD			REHOBOTH BEACH	DE	19971-3524	US		Jack and family,  You have our deepest condolences. We cannot imagine the depth of your loss. May each day be a little brighter, From Mike & Joellen Laroche	false		
111-2369878-3420213	55942238338882	2020-07-25T11:11:16+00:00	2020-07-25T04:11:16-07:00	2020-07-25T11:39:33+00:00	2020-07-29T06:59:59+00:00	-4	thc42xmmb4gl8r2@marketplace.amazon.com	John C Sivalon	+1 929-436-4790 ext. 94599	ABR0055	Purchase Now for Delivery by Wednesday | Arabella Farm Direct Bouquet of 12 Stems of Fresh Cut Hot Pink Roses in a Free Designer Glass Vase	1	0	1	Expedited	Nina Planamenta	126 LAKE RD			VALLEY COTTAGE	NY	10989-2459	US		Nina Wishing you a happy birthday. Sending these with prayers and love. From John C Sivalon	false		
114-1070062-1656220	07325633734306	2020-07-25T12:37:57+00:00	2020-07-25T05:37:57-07:00	2020-07-25T13:07:12+00:00	2020-07-29T06:59:59+00:00	-4	kj7gxly7215s6ls@marketplace.amazon.com	Christine Brown	+1 415-851-9136 ext. 30539	ABR001	Purchase Now for Delivery by Wednesday | Arabella Bouquets 12 Stems of Fresh Cut Red Roses in a Free Designer Glass Vase	1	0	1	Expedited	Carolyn Brown	136 BROOME CENTER RD			GILBOA	NEW YORK	12076-2533	US		Happy Anniversary! Love you! From Chris, Richard, Curtis and Tim	false		
113-8556669-8442642	58784729541714	2020-07-25T13:39:53+00:00	2020-07-25T06:39:53-07:00	2020-07-25T14:08:50+00:00	2020-07-29T06:59:59+00:00	-4	hnxgh77fbp0dhdd@marketplace.amazon.com	Matthew Mandeville	+1 929-436-4790 ext. 74908	ABM010	The Spring Fling Bouquet by Arabella Bouquets with a Free Designer Glass Vase	1	0	1	Expedited	Patty Konecny	24 N FORK RD			HARPSWELL	ME	04079-2921	US		Happy Birthday Patty! Thank you for all you do. From Matthew Mandeville	false		
113-9467869-9541836	62443703788394	2020-07-25T14:12:52+00:00	2020-07-25T07:12:52-07:00	2020-07-25T14:41:09+00:00	2020-07-28T06:59:59+00:00	-3	8v04hj8nvl53hbj@marketplace.amazon.com	Ronald S. Duby	+1 415-851-9136 ext. 59765	ABR0055	Purchase Now for Delivery by Wednesday | Arabella Farm Direct Bouquet of 12 Stems of Fresh Cut Hot Pink Roses in a Free Designer Glass Vase	1	0	1	SecondDay	Catherine Williams	140 TER HEUN DR RM 322			FALMOUTH	MA	02540-2530	US		Cath,  Happy 95th!!  Love from Ron and Ken From Ron Duby	false		
113-7238733-5085065	08376374002578	2020-07-25T14:41:00+00:00	2020-07-25T07:41:00-07:00	2020-07-25T15:09:34+00:00	2020-07-29T06:59:59+00:00	-4	y3rg546bpzyrmg2@marketplace.amazon.com	brett hill	+1 929-436-4790 ext. 32662	ABR0055	Purchase Now for Delivery by Wednesday | Arabella Farm Direct Bouquet of 12 Stems of Fresh Cut Hot Pink Roses in a Free Designer Glass Vase	1	0	1	Expedited	Brett Hill	4228 Inisbrook Way			KNOXVILLE	TN	37938	US		Sorry it’s a day late and I’m not there.  I love you From SHTamale	false		
113-6814889-5273865	58386210145066	2020-07-25T14:52:01+00:00	2020-07-25T07:52:01-07:00	2020-07-25T15:16:44+00:00	2020-07-29T06:59:59+00:00	-4	brnbshkwkxcpmhx@marketplace.amazon.com	Ronald wirth	+1901441209	ABR0022	Purchase Now for Delivery by Wednesday | Arabella Farm Direct Bouquet of 12 Fresh Cut Pink Roses with a Free Glass Vase	1	0	1	Expedited	Katina Crawford	2622 LORING RD NW			KENNESAW	GA	30152-2331	US		Enjoy your gift! Happy Birthday to you From Wirth	false		
111-5747630-8617809	68146995244354	2020-07-25T11:12:54+00:00	2020-07-25T04:12:54-07:00	2020-07-25T15:18:25+00:00	2020-07-29T06:59:59+00:00	-4	ytgw1fcrc2jf07z@marketplace.amazon.com	Ben	+1 929-436-4790 ext. 06414	ABM010	The Spring Fling Bouquet by Arabella Bouquets with a Free Designer Glass Vase	1	0	1	Expedited	Ben	6442 SE 61ST ST			TECUMSEH	KS	66542-9805	US		Dear Nanna,  We hope you feel better soon and wish you a speedy recovery. From Ben and Katherine x	false		
114-2606121-8238651	64973403247474	2020-07-25T16:57:00+00:00	2020-07-25T09:57:00-07:00	2020-07-25T17:20:55+00:00	2020-07-29T06:59:59+00:00	-4	zc9hgcg6mnhd6tp@marketplace.amazon.com	Lya O'Neill	+1 415-851-9136 ext. 54324	ABR004	Arabella Farm Direct Bouquet of 12 Fresh Cut Yellow Roses with a Free Glass Vase	1	0	1	Expedited	Lya Oneill	66 PINE HILL BLVD			MASHPEE	MA	02649-2850	US			false		
111-2478189-0625068	48090683307506	2020-07-25T16:58:08+00:00	2020-07-25T09:58:08-07:00	2020-07-25T17:20:58+00:00	2020-07-28T06:59:59+00:00	-3	2nx4nkntmnsrytp@marketplace.amazon.com	Brett Chase	+1 415-851-9136 ext. 99457	ABR0022	Purchase Now for Delivery by Wednesday | Arabella Farm Direct Bouquet of 12 Fresh Cut Pink Roses with a Free Glass Vase	1	0	1	SecondDay	Jean Rothman	97 W PHILLIP RD APT 3006			VERNON HILLS	IL	60061-1742	US		Happy Birthday, Love Brett & Marilyn From Brett Chase	false		
113-0494086-7079425	31940812988098	2020-07-25T16:51:42+00:00	2020-07-25T09:51:42-07:00	2020-07-25T17:22:22+00:00	2020-07-29T06:59:59+00:00	-4	3wfkjt0ws7zkshz@marketplace.amazon.com	DUSTIN	+1 929-436-4790 ext. 09107	ABR0022	Purchase Now for Delivery by Wednesday | Arabella Farm Direct Bouquet of 12 Fresh Cut Pink Roses with a Free Glass Vase	1	0	1	Expedited	D.R.U.	8539 ALICIA ST UNIT B			PHILADELPHIA	PA	19111-1301	US			false		
113-8665619-7171418	04581935834930	2020-07-25T16:52:28+00:00	2020-07-25T09:52:28-07:00	2020-07-25T17:23:07+00:00	2020-07-29T06:59:59+00:00	-4	3wfkjt0ws7zkshz@marketplace.amazon.com	DUSTIN	+1 929-436-4790 ext. 73966	ABR0022	Purchase Now for Delivery by Wednesday | Arabella Farm Direct Bouquet of 12 Fresh Cut Pink Roses with a Free Glass Vase	1	0	1	Expedited	D.Upchurch	153 W 65TH AVE			PHILADELPHIA	PA	19120-1026	US			false		
114-0959134-3152222	33541877462418	2020-07-25T17:08:39+00:00	2020-07-25T10:08:39-07:00	2020-07-25T17:36:50+00:00	2020-07-28T06:59:59+00:00	-3	b3pkw9cv677lh6m@marketplace.amazon.com	Ernie Joe Dela Cruz	+1 929-436-4790 ext. 28433	ABM010	The Spring Fling Bouquet by Arabella Bouquets with a Free Designer Glass Vase	1	0	1	SecondDay	Conisha Rose Crisostomo Dela Cruz	1907 DARTMOUTH ST APT 1508	HUNTINGTON APARTMENTS		COLLEGE STATION	TX	77840-7026	US			false		
114-9410414-8432258	51528671519186	2020-07-25T17:15:01+00:00	2020-07-25T10:15:01-07:00	2020-07-25T17:43:11+00:00	2020-07-29T06:59:59+00:00	-4	kd0hj0sqpjqrh0x@marketplace.amazon.com	brien campbell	+1 929-436-4790 ext. 62137	ABR0022	Purchase Now for Delivery by Wednesday | Arabella Farm Direct Bouquet of 12 Fresh Cut Pink Roses with a Free Glass Vase	1	0	1	Expedited	Mrs. Evelyn M Gibson	17050 ARNOLD DR SNF ROOM 25B			RIVERSIDE	CA	92518-2806	US		I love you Mom   Debbie and Family From brien campbell	false		
111-5480006-3063457	37270493545602	2020-07-25T17:30:07+00:00	2020-07-25T10:30:07-07:00	2020-07-25T18:04:51+00:00	2020-07-29T06:59:59+00:00	-4	k42ghqrwxp12fcw@marketplace.amazon.com	John Timperio	+1 929-436-4790 ext. 32570	ABR0022	Purchase Now for Delivery by Wednesday | Arabella Farm Direct Bouquet of 12 Fresh Cut Pink Roses with a Free Glass Vase	1	0	1	Expedited	John Timperio	1811 QUEENS RD W			CHARLOTTE	NC	28207-2437	US			false		
111-7140423-6405842	31045807991650	2020-07-25T17:51:06+00:00	2020-07-25T10:51:06-07:00	2020-07-25T18:16:31+00:00	2020-07-29T06:59:59+00:00	-4	xfz6z89w4rwdrmj@marketplace.amazon.com	Robin A. Tajiouti	+1 929-436-4790 ext. 41059	ABR012	Purchase Now for Delivery by Wednesday | Arabella Farm Direct Bouquet of 18 Fresh Cut Pink Roses with a Free Glass Vase	1	0	1	Expedited	Faye Stein	9 SPRING ST			SOUTH NYACK	NEW YORK	10960-4310	US		Dear Faye, I am so sorry for your loss.  Your Dad will be missed by many and you are in my thoughts during this very difficult time.  With much love, Robin From Robin A. Tajiouti	false		
111-7140423-6405842	51172049288834	2020-07-25T17:51:06+00:00	2020-07-25T10:51:06-07:00	2020-07-25T18:16:31+00:00	2020-07-29T06:59:59+00:00	-4	xfz6z89w4rwdrmj@marketplace.amazon.com	Robin A. Tajiouti	+1 929-436-4790 ext. 41059	ABR012	Purchase Now for Delivery by Wednesday | Arabella Farm Direct Bouquet of 18 Fresh Cut Pink Roses with a Free Glass Vase	1	0	1	Expedited	Faye Stein	9 SPRING ST			SOUTH NYACK	NEW YORK	10960-4310	US		Enjoy your gift! From Robin A. Tajiouti	false		
111-0463273-8469064	29827499541554	2020-07-25T18:02:35+00:00	2020-07-25T11:02:35-07:00	2020-07-25T18:28:52+00:00	2020-07-29T06:59:59+00:00	-4	jbnwm6zjz0bsg0d@marketplace.amazon.com	carolduffy620@gmail.com	+1 929-436-4790 ext. 97908	ABM010	The Spring Fling Bouquet by Arabella Bouquets with a Free Designer Glass Vase	1	0	1	Expedited	Mr and Mrs Fred Bloom	168 MILLER ST	APPLERIDGE SR LIVING A413		HORSEHEADS	NY	14845-1854	US		Hi Joanie and Fred! Welcome to your new home! Wishing you all the best in your new place! From Love, Aileen and Carol	false		
111-6472014-8432208	55705953209578	2020-07-25T15:56:31+00:00	2020-07-25T08:56:31-07:00	2020-07-25T18:48:21+00:00	2020-07-29T06:59:59+00:00	-4	nhvqwpnr2cv9k2t@marketplace.amazon.com	Beverly Cannady	+1 415-851-9136 ext. 57752	ABM0033	Purchase Now for Delivery by Wednesday | Arabella Farm Direct Bouquet of Fresh Cut White Hydrangea with a Free Glass Vase	1	0	1	Expedited	Mrs. R.O. Robertson	14 DEELEY WAY			LAKE WALES	FL	33853-4601	US		Hi BJ Enjoy your gift! From Beverly and Larry  Cannady	false		
114-0225321-3525842	56617345230362	2020-07-25T18:18:31+00:00	2020-07-25T11:18:31-07:00	2020-07-25T18:49:07+00:00	2020-07-29T06:59:59+00:00	-4	npq2ffc0rw3k7bz@marketplace.amazon.com	Peggy Gibson DeHart	+1 929-436-4790 ext. 10452	ABR004	Arabella Farm Direct Bouquet of 12 Fresh Cut Yellow Roses with a Free Glass Vase	2	0	2	Expedited	Patricia Gibson	188 ROY COX RD			MANCHESTER	KENTUCKY	40962-8110	US			false		
112-9193222-1702653	17187013143354	2020-07-25T18:56:57+00:00	2020-07-25T11:56:57-07:00	2020-07-25T19:24:59+00:00	2020-07-29T06:59:59+00:00	-4	grdldfdbwr066f7@marketplace.amazon.com	Katherine Brosnan	+1 929-436-4790 ext. 06592	ABM022	Purple Extravagance Bouquet by Arabella Bouquets	1	0	1	Expedited	Sue Johnson	527 Hannon Avenue			Monterey	CA	93940-4050	US			false		
114-7665751-6687442	23926520772738	2020-07-25T19:09:21+00:00	2020-07-25T12:09:21-07:00	2020-07-25T19:37:03+00:00	2020-07-29T06:59:59+00:00	-4	62r1lmw18n4sbmr@marketplace.amazon.com	Deborah a conrad	+1 929-436-4790 ext. 74889	ABR0022	Purchase Now for Delivery by Wednesday | Arabella Farm Direct Bouquet of 12 Fresh Cut Pink Roses with a Free Glass Vase	1	0	1	Expedited	Jennifer bowler	1445 EUNICE WAY			WASHOE VALLEY	NV	89704-9178	US		Jordann!!!!! Princess, we are glad you are home and getting better. Please get all better soon so we can hear that incredibly delightful laugh of yours again!!!  Love D and S From Deborah a conrad	false		
111-0407996-8840257	16980163749834	2020-07-25T19:26:44+00:00	2020-07-25T12:26:44-07:00	2020-07-25T19:57:17+00:00	2020-07-29T06:59:59+00:00	-4	jbhxn82xgsskcsk@marketplace.amazon.com	David Wetmore	+1 929-436-4790 ext. 43431	ABR015	Purchase Now for Delivery by Wednesday | Arabella Farm Direct Bouquet of 18 Fresh Cut Orange Roses with a Free Glass Vase	1	0	1	Expedited	David Wetmore	1973 WOODBRIDGE DR			PENSACOLA	FL	32514-5421	US			false		
114-1872412-0907414	12074507998298	2020-07-25T19:40:40+00:00	2020-07-25T12:40:40-07:00	2020-07-25T20:07:16+00:00	2020-07-29T06:59:59+00:00	-4	39hzx905pftbj4t@marketplace.amazon.com	SARAH DE DIEGO	+1 929-436-4790 ext. 01146	ABR0022	Purchase Now for Delivery by Wednesday | Arabella Farm Direct Bouquet of 12 Fresh Cut Pink Roses with a Free Glass Vase	1	0	1	Expedited	Patty Seeley	1670 INTERLACHEN RD APT 43E			SEAL BEACH	CA	90740-4243	US		Happy Birthday Mom!   Wish we could be there to celebrate you.  All our love.   Best, Sarah, Dave and Dexter From SARAH DE DIEGO	false		
114-3421783-3853023	14031651080218	2020-07-25T19:44:36+00:00	2020-07-25T12:44:36-07:00	2020-07-25T20:07:43+00:00	2020-07-28T06:59:59+00:00	-3	c6py0xd1mx3c69m@marketplace.amazon.com	Cush	+1 929-436-4790 ext. 88948	ABR0022	Purchase Now for Delivery by Wednesday | Arabella Farm Direct Bouquet of 12 Fresh Cut Pink Roses with a Free Glass Vase	1	0	1	SecondDay	Cush	2319 ANCHOR DR			BLOOMINGTON	IL	61704-2309	US		You are my favorite person and you mean so much to me. I want to show my gratitude and return all of your kindness and love you have shown to me. I love you so much, To my Sheba From Khanok	false		
111-0190650-0126635	66633346342402	2020-07-25T19:53:27+00:00	2020-07-25T12:53:27-07:00	2020-07-25T20:12:09+00:00	2020-07-28T06:59:59+00:00	-3	xdl0n66mzflh5cb@marketplace.amazon.com	Heather Denny	+1 415-851-9136 ext. 73758	ABM010	The Spring Fling Bouquet by Arabella Bouquets with a Free Designer Glass Vase	1	0	1	SecondDay	Christine Flynn	154 BERNARD CIR			VINEYARD HAVEN	MA	02568-5325	US		Hi Chris, Thanks so much for your island hospitality when we visited last week!! It was great to see you. You make a delicious mud slide and margarita! We were truly spoiled by the generosity of you and Denise. Thanks again, Heather	false		
113-8118128-5284263	05670779433338	2020-07-25T19:51:36+00:00	2020-07-25T12:51:36-07:00	2020-07-25T20:18:02+00:00	2020-07-29T06:59:59+00:00	-4	qw8sppm94db8nz5@marketplace.amazon.com	jason lewis	+1 929-436-4790 ext. 52718	ABR0022	Purchase Now for Delivery by Wednesday | Arabella Farm Direct Bouquet of 12 Fresh Cut Pink Roses with a Free Glass Vase	1	0	1	Expedited	Lannette Ryhn	2748 SCOTCHBROOM PT			COLORADO SPRINGS	CO	80910-4452	US		You’re beautiful and amazing, just know that!  Jason From jason lewis	false		
111-6833363-6530619	53454071835234	2020-07-25T19:59:18+00:00	2020-07-25T12:59:18-07:00	2020-07-25T20:27:10+00:00	2020-07-29T06:59:59+00:00	-4	b0d9b2172lqwg5w@marketplace.amazon.com	Maria Mota Peralta	+1 929-436-4790 ext. 43321	ABR001	Purchase Now for Delivery by Wednesday | Arabella Bouquets 12 Stems of Fresh Cut Red Roses in a Free Designer Glass Vase	1	0	1	Expedited	Sandra Villegas	1225 Higland av			berwyn	illinois	60402	US			false		
114-7261998-8755445	39883174780034	2020-07-25T20:34:45+00:00	2020-07-25T13:34:45-07:00	2020-07-25T21:02:53+00:00	2020-07-28T06:59:59+00:00	-3	z3vcb2c6w3xjt69@marketplace.amazon.com	Shawn Hallenbeck	+1 929-436-4790 ext. 36546	ABR0022	Purchase Now for Delivery by Wednesday | Arabella Farm Direct Bouquet of 12 Fresh Cut Pink Roses with a Free Glass Vase	1	0	1	SecondDay	Shawn Hallenbeck	1174 PHOENIX AVE			SCHENECTADY	NY	12308-2602	US		Happy birthday Mom! Love & miss you! Shawn & Bill From Shawn Hallenbeck	false		
113-4864807-2906661	47533341562362	2020-07-25T20:51:48+00:00	2020-07-25T13:51:48-07:00	2020-07-25T21:14:07+00:00	2020-07-29T06:59:59+00:00	-4	x0c1kn7czz4qqf5@marketplace.amazon.com	Tabytha Berney	+1 415-851-9136 ext. 63646	ABR0022	Purchase Now for Delivery by Wednesday | Arabella Farm Direct Bouquet of 12 Fresh Cut Pink Roses with a Free Glass Vase	1	0	1	Expedited	Karolyn Scott	625 SULLIVAN LN APT 7			SPARKS	NV	89431-4771	US		XOXO From Jevyn	false		
113-7861662-3277035	16422069673850	2020-07-25T21:02:22+00:00	2020-07-25T14:02:22-07:00	2020-07-25T21:29:45+00:00	2020-07-28T06:59:59+00:00	-3	v3vn4qjwl27pqf3@marketplace.amazon.com	Andrea Colombu	+1 929-436-4790 ext. 85002	ABR0022	Purchase Now for Delivery by Wednesday | Arabella Farm Direct Bouquet of 12 Fresh Cut Pink Roses with a Free Glass Vase	1	0	1	SecondDay	Adonica Cisco	191 RESERVOIR DR			WAYNESVILLE	NC	28786-4086	US		Happy birthday Adonica! Sending so much love and hugs! Wish we could hug you in person! Love From Natasha Andrea Liam	false		
112-2426472-5267468	53804702990218	2020-07-25T21:13:06+00:00	2020-07-25T14:13:06-07:00	2020-07-25T21:41:50+00:00	2020-07-29T06:59:59+00:00	-4	jw8bywybkc6zztt@marketplace.amazon.com	Patti Krueger	+1 929-436-4790 ext. 99632	ABM010	The Spring Fling Bouquet by Arabella Bouquets with a Free Designer Glass Vase	1	0	1	Standard	Patricia A Krueger	1941 Rooks Circle			COTTONDALE	FL	32431	US		Thinking of you! From Your friends at Tractor Supply	false		
114-4452103-6653051	09253690566266	2020-07-25T21:41:35+00:00	2020-07-25T14:41:35-07:00	2020-07-25T22:07:31+00:00	2020-07-29T06:59:59+00:00	-4	rdy68h491sys467@marketplace.amazon.com	Erika Grotto	+1 929-436-4790 ext. 35671	ABM010	The Spring Fling Bouquet by Arabella Bouquets with a Free Designer Glass Vase	1	0	1	Expedited	The Banerjee Family	5207 PAPAW DR			NAPERVILLE	IL	60564-5347	US		Enjoy your new home. May you make many wonderful memories here. From The Grotto Family	false		
112-3505302-6475467	35977521466370	2020-07-25T22:29:55+00:00	2020-07-25T15:29:55-07:00	2020-07-25T22:59:22+00:00	2020-07-29T06:59:59+00:00	-4	1fsmw0sgkcx89gn@marketplace.amazon.com	Linda carrigan	+1 929-436-4790 ext. 64909	ABR0022	Purchase Now for Delivery by Wednesday | Arabella Farm Direct Bouquet of 12 Fresh Cut Pink Roses with a Free Glass Vase	1	0	1	Expedited	Linda carrigan	1511 DEVEREAUX AVE			PHILA	PA	19149-2802	US			false		
112-8741840-7863453	47242865393690	2020-07-25T22:55:12+00:00	2020-07-25T15:55:12-07:00	2020-07-25T23:22:35+00:00	2020-07-28T06:59:59+00:00	-3	1r9gst5rsfysk8l@marketplace.amazon.com	Kate Grant	+1 929-436-4790 ext. 44181	ABR0055	Purchase Now for Delivery by Wednesday | Arabella Farm Direct Bouquet of 12 Stems of Fresh Cut Hot Pink Roses in a Free Designer Glass Vase	1	0	1	SecondDay	Melody Pott	1661 QUAIL RUN DR			KALAMAZOO	MI	49009-1899	US		Our thoughts are with you, Melody. From Rene and Kate	false		
112-1906830-3482628	02847510401466	2020-07-25T22:55:07+00:00	2020-07-25T15:55:07-07:00	2020-07-25T23:23:34+00:00	2020-07-29T06:59:59+00:00	-4	whfnt1ktfgwvgq7@marketplace.amazon.com	Glenda P Farrell	+1 929-436-4790 ext. 66270	ABR0055	Purchase Now for Delivery by Wednesday | Arabella Farm Direct Bouquet of 12 Stems of Fresh Cut Hot Pink Roses in a Free Designer Glass Vase	1	0	1	Expedited	Sheila Salzman Wojtowicz	2901 RUBICON WAY			WEST SACRAMENTO	CA	95691-5147	US		Thinking of you and wishing you a quick recovery. Wendy and Glenda From Glenda P Farrell	false		
113-6178912-8890635	65848315892466	2020-07-25T23:09:57+00:00	2020-07-25T16:09:57-07:00	2020-07-25T23:35:43+00:00	2020-07-29T06:59:59+00:00	-4	k0sb97km3mkkgzh@marketplace.amazon.com	victoria wyles	+1 929-436-4790 ext. 45221	ABR012	Purchase Now for Delivery by Wednesday | Arabella Farm Direct Bouquet of 18 Fresh Cut Pink Roses with a Free Glass Vase	1	0	1	Expedited	Kayley Bell	700 W E ST UNIT 1203			SAN DIEGO	CA	92101-5990	US		Congratulations on your promotion. A job well done. I am so proud of you. Love Victoria From victoria wyles	false		
112-7158597-7909850	66585776146266	2020-07-25T23:13:08+00:00	2020-07-25T16:13:08-07:00	2020-07-25T23:42:33+00:00	2020-07-29T06:59:59+00:00	-4	4pjvyygxxhnshm7@marketplace.amazon.com	Angela L Ciminnisi	+1 415-851-9136 ext. 71250	ABR0055	Purchase Now for Delivery by Wednesday | Arabella Farm Direct Bouquet of 12 Stems of Fresh Cut Hot Pink Roses in a Free Designer Glass Vase	1	0	1	Expedited	Deana Ramseyer	7889 E QUINN DR			ANAHEIM	CA	92808-1507	US		Thank you for the most wonderful birthday! You are so thoughtful! We love you!! Love, Angela & Carissa From Angela L Ciminnisi	false		
112-9976460-2374637	42620092101290	2020-07-25T23:32:44+00:00	2020-07-25T16:32:44-07:00	2020-07-25T23:58:38+00:00	2020-07-28T06:59:59+00:00	-3	2fylfwz26y0t693@marketplace.amazon.com	James L Reinis	+1 929-436-4790 ext. 53816	ABR0022	Purchase Now for Delivery by Wednesday | Arabella Farm Direct Bouquet of 12 Fresh Cut Pink Roses with a Free Glass Vase	1	0	1	SecondDay	Aida Sanchez	220 S ELK ST SPC 46			HEMET	CA	92543-3997	US		Thinking of you! With Love from Susie and Jim Reinis From Susan Reinis	false		
111-9771890-2894655	35113210642834	2020-07-25T23:42:06+00:00	2020-07-25T16:42:06-07:00	2020-07-26T00:03:41+00:00	2020-07-29T06:59:59+00:00	-4	n3hvzs614fpg90j@marketplace.amazon.com	Carolyn Gerrish	+1 929-436-4790 ext. 12171	ABR0055	Purchase Now for Delivery by Wednesday | Arabella Farm Direct Bouquet of 12 Stems of Fresh Cut Hot Pink Roses in a Free Designer Glass Vase	1	0	1	Expedited	Sue Arick	3005 BRAMBLEBUSH LN			LAKELAND	TN	38002-4171	US		Happy Happy Birthday to YOU,  my Dearest friend/sister in my heart.❤️🎂❤️ I thank God for YOU. You bless me and my life ALWAYS!!❤️  May God bless you on your birthday and ALWAYS!🎚 I love you VERY much!💝 From Carolyn	false		
114-7230969-3054653	09432384628602	2020-07-25T23:44:54+00:00	2020-07-25T16:44:54-07:00	2020-07-26T00:07:08+00:00	2020-07-28T06:59:59+00:00	-3	ytbjrn4dglbs497@marketplace.amazon.com	Jesus Cruz Meléndez	+1 929-436-4790 ext. 10453	ABR0022	Purchase Now for Delivery by Wednesday | Arabella Farm Direct Bouquet of 12 Fresh Cut Pink Roses with a Free Glass Vase	1	0	1	SecondDay	Ruvi	APARTAMETO 2000 N KAUFMAN ST			ENNIS	TX	75119-1901	US			false		
114-4110301-2437048	67030301016010	2020-07-26T00:44:42+00:00	2020-07-25T17:44:42-07:00	2020-07-26T01:12:36+00:00	2020-07-28T06:59:59+00:00	-3	kh5d2s7pzkczc8m@marketplace.amazon.com	Amy Allen	+1 929-436-4790 ext. 80983	ABR0022	Purchase Now for Delivery by Wednesday | Arabella Farm Direct Bouquet of 12 Fresh Cut Pink Roses with a Free Glass Vase	1	0	1	SecondDay	Heather Greene	1555 MEACHAM LN			PADUCAH	KY	42003-0418	US		HAPPY BIRTHDAY  LOVE AND MISS YOU From Amy and Jorge	false		
112-8004000-7845821	14441546916658	2020-07-26T00:47:07+00:00	2020-07-25T17:47:07-07:00	2020-07-26T01:16:07+00:00	2020-07-29T06:59:59+00:00	-4	b7fw3s31pndgwm6@marketplace.amazon.com	F. Stokes	+1 929-436-4790 ext. 30741	ABM010	The Spring Fling Bouquet by Arabella Bouquets with a Free Designer Glass Vase	1	0	1	Expedited	L. Sozio	28 WIMAN PL			STATEN ISLAND	NY	10305-4927	US		Just because! Love,  Kathy From K.  Stokes	false		
112-3239572-4392229	66599501746802	2020-07-26T00:54:36+00:00	2020-07-25T17:54:36-07:00	2020-07-26T01:22:26+00:00	2020-07-29T06:59:59+00:00	-4	8xwdbc60p1vgg17@marketplace.amazon.com	Robin Fowler	+1 415-851-9136 ext. 90958	ABM0044	Purchase Now for Delivery by Wednesday | Arabella Farm Direct Bouquet of Fresh Cut Blue Hydrangea with a Free Glass Vase	1	0	1	Expedited	LaVerne Schuler	3405 EL SALIDO PKWY APT 103			CEDAR PARK	TX	78613-5641	US		Mom, Cheers to 90 Years!  Happy Birthday!  We hope you have a fabulous week celebrating you!   Love, John, Robin, Allie and Jake From John, Robin, Allie and Jake	false		
112-2115640-9746602	32932016768378	2020-07-26T01:12:19+00:00	2020-07-25T18:12:19-07:00	2020-07-26T01:34:19+00:00	2020-07-28T06:59:59+00:00	-3	xdl0n66mzflh5cb@marketplace.amazon.com	Heather Denny	+1 929-436-4790 ext. 21508	ABM010	The Spring Fling Bouquet by Arabella Bouquets with a Free Designer Glass Vase	1	0	1	SecondDay	Denise Flynn	14 RESERVATION RD			EASTHAMPTON	MA	01027-1227	US		Dear Denise,  Thank you SO much for hosting us in your beautiful house in Martha's Vineyard! A girl's getaway was just what we all needed. It was a wonderful time, and you were so generous to us. Many thanks! XO Heathe From Heather Denny	false		
112-0021291-3188210	67226818522170	2020-07-26T04:37:37+00:00	2020-07-25T21:37:37-07:00	2020-07-26T05:04:48+00:00	2020-07-29T06:59:59+00:00	-4	lyqzp0sq5rf6f6p@marketplace.amazon.com	Beni	+1 929-436-4790 ext. 91588	ABR0022	Purchase Now for Delivery by Wednesday | Arabella Farm Direct Bouquet of 12 Fresh Cut Pink Roses with a Free Glass Vase	1	0	1	Expedited	Latasha Winbush	921 18TH AVE			MIDDLETOWN	OH	45044-5646	US			false		
113-5166157-0188267	68357054649218	2020-07-26T04:41:51+00:00	2020-07-25T21:41:51-07:00	2020-07-26T05:05:39+00:00	2020-07-29T06:59:59+00:00	-4	shhhm6f9ytl972y@marketplace.amazon.com	Yolanda Brown	+1 929-436-4790 ext. 88089	ABR004	Arabella Farm Direct Bouquet of 12 Fresh Cut Yellow Roses with a Free Glass Vase	1	0	1	Expedited	Xanthe McClemore	7546 PARKWAY DR APT 1K			LA MESA	CA	91942-1755	US			false		
