order-id	order-item-id	purchase-date	payments-date	reporting-date	promise-date	days-past-promise	buyer-email	buyer-name	buyer-phone-number	sku	product-name	quantity-purchased	quantity-shipped	quantity-to-ship	ship-service-level	recipient-name	ship-address-1	ship-address-2	ship-address-3	ship-city	ship-state	ship-postal-code	ship-country	gift-wrap-type	gift-message-text	is-business-order	purchase-order-number	price-designation
114-8703799-1513801	67690390829490	2020-07-25T09:25:29+00:00	2020-07-25T02:25:29-07:00	2020-07-25T09:51:12+00:00	2020-07-29T06:59:59+00:00	-2	q62f7wwvtt6yt53@marketplace.amazon.com	Joellen Saddock	+1 929-436-4790 ext. 94081	ABR0033	Purchase Now for Delivery by Tuesday | Arabella Farm Direct Bouquet of 12 Fresh Cut Orange Roses with a Free Glass Vase	1	0	1	Expedited	Jack Berberian	104 BRIGHTON RD			REHOBOTH BEACH	DE	19971-3524	US		Jack and family,  You have our deepest condolences. We cannot imagine the depth of your loss. May each day be a little brighter, From Mike & Joellen Laroche	false		
111-2369878-3420213	55942238338882	2020-07-25T11:11:16+00:00	2020-07-25T04:11:16-07:00	2020-07-25T11:39:33+00:00	2020-07-29T06:59:59+00:00	-2	thc42xmmb4gl8r2@marketplace.amazon.com	John C Sivalon	+1 929-436-4790 ext. 94599	ABR0055	Purchase Now for Delivery by Wednesday | Arabella Farm Direct Bouquet of 12 Stems of Fresh Cut Hot Pink Roses in a Free Designer Glass Vase	1	0	1	Expedited	Nina Planamenta	126 LAKE RD			VALLEY COTTAGE	NY	10989-2459	US		Nina Wishing you a happy birthday. Sending these with prayers and love. From John C Sivalon	false		
114-1070062-1656220	07325633734306	2020-07-25T12:37:57+00:00	2020-07-25T05:37:57-07:00	2020-07-25T13:07:12+00:00	2020-07-29T06:59:59+00:00	-2	kj7gxly7215s6ls@marketplace.amazon.com	Christine Brown	+1 415-851-9136 ext. 30539	ABR001	Purchase Now for Delivery by Wednesday | Arabella Bouquets 12 Stems of Fresh Cut Red Roses in a Free Designer Glass Vase	1	0	1	Expedited	Carolyn Brown	136 BROOME CENTER RD			GILBOA	NEW YORK	12076-2533	US		Happy Anniversary! Love you! From Chris, Richard, Curtis and Tim	false		
113-8556669-8442642	58784729541714	2020-07-25T13:39:53+00:00	2020-07-25T06:39:53-07:00	2020-07-25T14:08:50+00:00	2020-07-29T06:59:59+00:00	-2	hnxgh77fbp0dhdd@marketplace.amazon.com	Matthew Mandeville	+1 929-436-4790 ext. 74908	ABM010	The Spring Fling Bouquet by Arabella Bouquets with a Free Designer Glass Vase	1	0	1	Expedited	Patty Konecny	24 N FORK RD			HARPSWELL	ME	04079-2921	US		Happy Birthday Patty! Thank you for all you do. From Matthew Mandeville	false		
113-9467869-9541836	62443703788394	2020-07-25T14:12:52+00:00	2020-07-25T07:12:52-07:00	2020-07-25T14:41:09+00:00	2020-07-28T06:59:59+00:00	-1	8v04hj8nvl53hbj@marketplace.amazon.com	Ronald S. Duby	+1 415-851-9136 ext. 59765	ABR0055	Purchase Now for Delivery by Wednesday | Arabella Farm Direct Bouquet of 12 Stems of Fresh Cut Hot Pink Roses in a Free Designer Glass Vase	1	0	1	SecondDay	Catherine Williams	140 TER HEUN DR RM 322			FALMOUTH	MA	02540-2530	US		Cath,  Happy 95th!!  Love from Ron and Ken From Ron Duby	false		
113-7238733-5085065	08376374002578	2020-07-25T14:41:00+00:00	2020-07-25T07:41:00-07:00	2020-07-25T15:09:34+00:00	2020-07-29T06:59:59+00:00	-2	y3rg546bpzyrmg2@marketplace.amazon.com	brett hill	+1 929-436-4790 ext. 32662	ABR0055	Purchase Now for Delivery by Wednesday | Arabella Farm Direct Bouquet of 12 Stems of Fresh Cut Hot Pink Roses in a Free Designer Glass Vase	1	0	1	Expedited	Brett Hill	4228 Inisbrook Way			KNOXVILLE	TN	37938	US		Sorry it’s a day late and I’m not there.  I love you From SHTamale	false		
113-6814889-5273865	58386210145066	2020-07-25T14:52:01+00:00	2020-07-25T07:52:01-07:00	2020-07-25T15:16:44+00:00	2020-07-29T06:59:59+00:00	-2	brnbshkwkxcpmhx@marketplace.amazon.com	Ronald wirth	+1901441209	ABR0022	Purchase Now for Delivery by Wednesday | Arabella Farm Direct Bouquet of 12 Fresh Cut Pink Roses with a Free Glass Vase	1	0	1	Expedited	Katina Crawford	2622 LORING RD NW			KENNESAW	GA	30152-2331	US		Enjoy your gift! Happy Birthday to you From Wirth	false		
111-5747630-8617809	68146995244354	2020-07-25T11:12:54+00:00	2020-07-25T04:12:54-07:00	2020-07-25T15:18:25+00:00	2020-07-29T06:59:59+00:00	-2	ytgw1fcrc2jf07z@marketplace.amazon.com	Ben	+1 929-436-4790 ext. 06414	ABM010	The Spring Fling Bouquet by Arabella Bouquets with a Free Designer Glass Vase	1	0	1	Expedited	Ben	6442 SE 61ST ST			TECUMSEH	KS	66542-9805	US		Dear Nanna,  We hope you feel better soon and wish you a speedy recovery. From Ben and Katherine x	false		
114-2606121-8238651	64973403247474	2020-07-25T16:57:00+00:00	2020-07-25T09:57:00-07:00	2020-07-25T17:20:55+00:00	2020-07-29T06:59:59+00:00	-2	zc9hgcg6mnhd6tp@marketplace.amazon.com	Lya O'Neill	+1 415-851-9136 ext. 54324	ABR004	Arabella Farm Direct Bouquet of 12 Fresh Cut Yellow Roses with a Free Glass Vase	1	0	1	Expedited	Lya Oneill	66 PINE HILL BLVD			MASHPEE	MA	02649-2850	US			false		
111-2478189-0625068	48090683307506	2020-07-25T16:58:08+00:00	2020-07-25T09:58:08-07:00	2020-07-25T17:20:58+00:00	2020-07-28T06:59:59+00:00	-1	2nx4nkntmnsrytp@marketplace.amazon.com	Brett Chase	+1 415-851-9136 ext. 99457	ABR0022	Purchase Now for Delivery by Wednesday | Arabella Farm Direct Bouquet of 12 Fresh Cut Pink Roses with a Free Glass Vase	1	0	1	SecondDay	Jean Rothman	97 W PHILLIP RD APT 3006			VERNON HILLS	IL	60061-1742	US		Happy Birthday, Love Brett & Marilyn From Brett Chase	false		
113-0494086-7079425	31940812988098	2020-07-25T16:51:42+00:00	2020-07-25T09:51:42-07:00	2020-07-25T17:22:22+00:00	2020-07-29T06:59:59+00:00	-2	3wfkjt0ws7zkshz@marketplace.amazon.com	DUSTIN	+1 929-436-4790 ext. 09107	ABR0022	Purchase Now for Delivery by Wednesday | Arabella Farm Direct Bouquet of 12 Fresh Cut Pink Roses with a Free Glass Vase	1	0	1	Expedited	D.R.U.	8539 ALICIA ST UNIT B			PHILADELPHIA	PA	19111-1301	US			false		
113-8665619-7171418	04581935834930	2020-07-25T16:52:28+00:00	2020-07-25T09:52:28-07:00	2020-07-25T17:23:07+00:00	2020-07-29T06:59:59+00:00	-2	3wfkjt0ws7zkshz@marketplace.amazon.com	DUSTIN	+1 929-436-4790 ext. 73966	ABR0022	Purchase Now for Delivery by Wednesday | Arabella Farm Direct Bouquet of 12 Fresh Cut Pink Roses with a Free Glass Vase	1	0	1	Expedited	D.Upchurch	153 W 65TH AVE			PHILADELPHIA	PA	19120-1026	US			false		
114-0959134-3152222	33541877462418	2020-07-25T17:08:39+00:00	2020-07-25T10:08:39-07:00	2020-07-25T17:36:50+00:00	2020-07-28T06:59:59+00:00	-1	b3pkw9cv677lh6m@marketplace.amazon.com	Ernie Joe Dela Cruz	+1 929-436-4790 ext. 28433	ABM010	The Spring Fling Bouquet by Arabella Bouquets with a Free Designer Glass Vase	1	0	1	SecondDay	Conisha Rose Crisostomo Dela Cruz	1907 DARTMOUTH ST APT 1508	HUNTINGTON APARTMENTS		COLLEGE STATION	TX	77840-7026	US			false		
114-9410414-8432258	51528671519186	2020-07-25T17:15:01+00:00	2020-07-25T10:15:01-07:00	2020-07-25T17:43:11+00:00	2020-07-29T06:59:59+00:00	-2	kd0hj0sqpjqrh0x@marketplace.amazon.com	brien campbell	+1 929-436-4790 ext. 62137	ABR0022	Purchase Now for Delivery by Wednesday | Arabella Farm Direct Bouquet of 12 Fresh Cut Pink Roses with a Free Glass Vase	1	0	1	Expedited	Mrs. Evelyn M Gibson	17050 ARNOLD DR SNF ROOM 25B			RIVERSIDE	CA	92518-2806	US		I love you Mom   Debbie and Family From brien campbell	false		
111-5480006-3063457	37270493545602	2020-07-25T17:30:07+00:00	2020-07-25T10:30:07-07:00	2020-07-25T18:04:51+00:00	2020-07-29T06:59:59+00:00	-2	k42ghqrwxp12fcw@marketplace.amazon.com	John Timperio	+1 929-436-4790 ext. 32570	ABR0022	Purchase Now for Delivery by Wednesday | Arabella Farm Direct Bouquet of 12 Fresh Cut Pink Roses with a Free Glass Vase	1	0	1	Expedited	John Timperio	1811 QUEENS RD W			CHARLOTTE	NC	28207-2437	US			false		
111-7140423-6405842	31045807991650	2020-07-25T17:51:06+00:00	2020-07-25T10:51:06-07:00	2020-07-25T18:16:31+00:00	2020-07-29T06:59:59+00:00	-2	xfz6z89w4rwdrmj@marketplace.amazon.com	Robin A. Tajiouti	+1 929-436-4790 ext. 41059	ABR012	Purchase Now for Delivery by Wednesday | Arabella Farm Direct Bouquet of 18 Fresh Cut Pink Roses with a Free Glass Vase	1	0	1	Expedited	Faye Stein	9 SPRING ST			SOUTH NYACK	NEW YORK	10960-4310	US		Dear Faye, I am so sorry for your loss.  Your Dad will be missed by many and you are in my thoughts during this very difficult time.  With much love, Robin From Robin A. Tajiouti	false		
111-7140423-6405842	51172049288834	2020-07-25T17:51:06+00:00	2020-07-25T10:51:06-07:00	2020-07-25T18:16:31+00:00	2020-07-29T06:59:59+00:00	-2	xfz6z89w4rwdrmj@marketplace.amazon.com	Robin A. Tajiouti	+1 929-436-4790 ext. 41059	ABR012	Purchase Now for Delivery by Wednesday | Arabella Farm Direct Bouquet of 18 Fresh Cut Pink Roses with a Free Glass Vase	1	0	1	Expedited	Faye Stein	9 SPRING ST			SOUTH NYACK	NEW YORK	10960-4310	US		Enjoy your gift! From Robin A. Tajiouti	false		
111-0463273-8469064	29827499541554	2020-07-25T18:02:35+00:00	2020-07-25T11:02:35-07:00	2020-07-25T18:28:52+00:00	2020-07-29T06:59:59+00:00	-2	jbnwm6zjz0bsg0d@marketplace.amazon.com	carolduffy620@gmail.com	+1 929-436-4790 ext. 97908	ABM010	The Spring Fling Bouquet by Arabella Bouquets with a Free Designer Glass Vase	1	0	1	Expedited	Mr and Mrs Fred Bloom	168 MILLER ST	APPLERIDGE SR LIVING A413		HORSEHEADS	NY	14845-1854	US		Hi Joanie and Fred! Welcome to your new home! Wishing you all the best in your new place! From Love, Aileen and Carol	false		
111-6472014-8432208	55705953209578	2020-07-25T15:56:31+00:00	2020-07-25T08:56:31-07:00	2020-07-25T18:48:21+00:00	2020-07-29T06:59:59+00:00	-2	nhvqwpnr2cv9k2t@marketplace.amazon.com	Beverly Cannady	+1 415-851-9136 ext. 57752	ABM0033	Purchase Now for Delivery by Wednesday | Arabella Farm Direct Bouquet of Fresh Cut White Hydrangea with a Free Glass Vase	1	0	1	Expedited	Mrs. R.O. Robertson	14 DEELEY WAY			LAKE WALES	FL	33853-4601	US		Hi BJ Enjoy your gift! From Beverly and Larry  Cannady	false		
114-0225321-3525842	56617345230362	2020-07-25T18:18:31+00:00	2020-07-25T11:18:31-07:00	2020-07-25T18:49:07+00:00	2020-07-29T06:59:59+00:00	-2	npq2ffc0rw3k7bz@marketplace.amazon.com	Peggy Gibson DeHart	+1 929-436-4790 ext. 10452	ABR004	Arabella Farm Direct Bouquet of 12 Fresh Cut Yellow Roses with a Free Glass Vase	2	0	2	Expedited	Patricia Gibson	188 ROY COX RD			MANCHESTER	KENTUCKY	40962-8110	US			false		
112-9193222-1702653	17187013143354	2020-07-25T18:56:57+00:00	2020-07-25T11:56:57-07:00	2020-07-25T19:24:59+00:00	2020-07-29T06:59:59+00:00	-2	grdldfdbwr066f7@marketplace.amazon.com	Katherine Brosnan	+1 929-436-4790 ext. 06592	ABM022	Purple Extravagance Bouquet by Arabella Bouquets	1	0	1	Expedited	Sue Johnson	527 Hannon Avenue			Monterey	CA	93940-4050	US			false		
114-7665751-6687442	23926520772738	2020-07-25T19:09:21+00:00	2020-07-25T12:09:21-07:00	2020-07-25T19:37:03+00:00	2020-07-29T06:59:59+00:00	-2	62r1lmw18n4sbmr@marketplace.amazon.com	Deborah a conrad	+1 929-436-4790 ext. 74889	ABR0022	Purchase Now for Delivery by Wednesday | Arabella Farm Direct Bouquet of 12 Fresh Cut Pink Roses with a Free Glass Vase	1	0	1	Expedited	Jennifer bowler	1445 EUNICE WAY			WASHOE VALLEY	NV	89704-9178	US		Jordann!!!!! Princess, we are glad you are home and getting better. Please get all better soon so we can hear that incredibly delightful laugh of yours again!!!  Love D and S From Deborah a conrad	false		
111-0407996-8840257	16980163749834	2020-07-25T19:26:44+00:00	2020-07-25T12:26:44-07:00	2020-07-25T19:57:17+00:00	2020-07-29T06:59:59+00:00	-2	jbhxn82xgsskcsk@marketplace.amazon.com	David Wetmore	+1 929-436-4790 ext. 43431	ABR015	Purchase Now for Delivery by Wednesday | Arabella Farm Direct Bouquet of 18 Fresh Cut Orange Roses with a Free Glass Vase	1	0	1	Expedited	David Wetmore	1973 WOODBRIDGE DR			PENSACOLA	FL	32514-5421	US			false		
114-1872412-0907414	12074507998298	2020-07-25T19:40:40+00:00	2020-07-25T12:40:40-07:00	2020-07-25T20:07:16+00:00	2020-07-29T06:59:59+00:00	-2	39hzx905pftbj4t@marketplace.amazon.com	SARAH DE DIEGO	+1 929-436-4790 ext. 01146	ABR0022	Purchase Now for Delivery by Wednesday | Arabella Farm Direct Bouquet of 12 Fresh Cut Pink Roses with a Free Glass Vase	1	0	1	Expedited	Patty Seeley	1670 INTERLACHEN RD APT 43E			SEAL BEACH	CA	90740-4243	US		Happy Birthday Mom!   Wish we could be there to celebrate you.  All our love.   Best, Sarah, Dave and Dexter From SARAH DE DIEGO	false		
114-3421783-3853023	14031651080218	2020-07-25T19:44:36+00:00	2020-07-25T12:44:36-07:00	2020-07-25T20:07:43+00:00	2020-07-28T06:59:59+00:00	-1	c6py0xd1mx3c69m@marketplace.amazon.com	Cush	+1 929-436-4790 ext. 88948	ABR0022	Purchase Now for Delivery by Wednesday | Arabella Farm Direct Bouquet of 12 Fresh Cut Pink Roses with a Free Glass Vase	1	0	1	SecondDay	Cush	2319 ANCHOR DR			BLOOMINGTON	IL	61704-2309	US		You are my favorite person and you mean so much to me. I want to show my gratitude and return all of your kindness and love you have shown to me. I love you so much, To my Sheba From Khanok	false		
111-0190650-0126635	66633346342402	2020-07-25T19:53:27+00:00	2020-07-25T12:53:27-07:00	2020-07-25T20:12:09+00:00	2020-07-28T06:59:59+00:00	-1	xdl0n66mzflh5cb@marketplace.amazon.com	Heather Denny	+1 415-851-9136 ext. 73758	ABM010	The Spring Fling Bouquet by Arabella Bouquets with a Free Designer Glass Vase	1	0	1	SecondDay	Christine Flynn	154 BERNARD CIR			VINEYARD HAVEN	MA	02568-5325	US		Hi Chris, Thanks so much for your island hospitality when we visited last week!! It was great to see you. You make a delicious mud slide and margarita! We were truly spoiled by the generosity of you and Denise. Thanks again, Heather	false		
113-8118128-5284263	05670779433338	2020-07-25T19:51:36+00:00	2020-07-25T12:51:36-07:00	2020-07-25T20:18:02+00:00	2020-07-29T06:59:59+00:00	-2	qw8sppm94db8nz5@marketplace.amazon.com	jason lewis	+1 929-436-4790 ext. 52718	ABR0022	Purchase Now for Delivery by Wednesday | Arabella Farm Direct Bouquet of 12 Fresh Cut Pink Roses with a Free Glass Vase	1	0	1	Expedited	Lannette Ryhn	2748 SCOTCHBROOM PT			COLORADO SPRINGS	CO	80910-4452	US		You’re beautiful and amazing, just know that!  Jason From jason lewis	false		
111-6833363-6530619	53454071835234	2020-07-25T19:59:18+00:00	2020-07-25T12:59:18-07:00	2020-07-25T20:27:10+00:00	2020-07-29T06:59:59+00:00	-2	b0d9b2172lqwg5w@marketplace.amazon.com	Maria Mota Peralta	+1 929-436-4790 ext. 43321	ABR001	Purchase Now for Delivery by Wednesday | Arabella Bouquets 12 Stems of Fresh Cut Red Roses in a Free Designer Glass Vase	1	0	1	Expedited	Sandra Villegas	1225 Higland av			berwyn	illinois	60402	US			false		
114-7261998-8755445	39883174780034	2020-07-25T20:34:45+00:00	2020-07-25T13:34:45-07:00	2020-07-25T21:02:53+00:00	2020-07-28T06:59:59+00:00	-1	z3vcb2c6w3xjt69@marketplace.amazon.com	Shawn Hallenbeck	+1 929-436-4790 ext. 36546	ABR0022	Purchase Now for Delivery by Wednesday | Arabella Farm Direct Bouquet of 12 Fresh Cut Pink Roses with a Free Glass Vase	1	0	1	SecondDay	Shawn Hallenbeck	1174 PHOENIX AVE			SCHENECTADY	NY	12308-2602	US		Happy birthday Mom! Love & miss you! Shawn & Bill From Shawn Hallenbeck	false		
113-4864807-2906661	47533341562362	2020-07-25T20:51:48+00:00	2020-07-25T13:51:48-07:00	2020-07-25T21:14:07+00:00	2020-07-29T06:59:59+00:00	-2	x0c1kn7czz4qqf5@marketplace.amazon.com	Tabytha Berney	+1 415-851-9136 ext. 63646	ABR0022	Purchase Now for Delivery by Wednesday | Arabella Farm Direct Bouquet of 12 Fresh Cut Pink Roses with a Free Glass Vase	1	0	1	Expedited	Karolyn Scott	625 SULLIVAN LN APT 7			SPARKS	NV	89431-4771	US		XOXO From Jevyn	false		
113-7861662-3277035	16422069673850	2020-07-25T21:02:22+00:00	2020-07-25T14:02:22-07:00	2020-07-25T21:29:45+00:00	2020-07-28T06:59:59+00:00	-1	v3vn4qjwl27pqf3@marketplace.amazon.com	Andrea Colombu	+1 929-436-4790 ext. 85002	ABR0022	Purchase Now for Delivery by Wednesday | Arabella Farm Direct Bouquet of 12 Fresh Cut Pink Roses with a Free Glass Vase	1	0	1	SecondDay	Adonica Cisco	191 RESERVOIR DR			WAYNESVILLE	NC	28786-4086	US		Happy birthday Adonica! Sending so much love and hugs! Wish we could hug you in person! Love From Natasha Andrea Liam	false		
112-2426472-5267468	53804702990218	2020-07-25T21:13:06+00:00	2020-07-25T14:13:06-07:00	2020-07-25T21:41:50+00:00	2020-07-29T06:59:59+00:00	-2	jw8bywybkc6zztt@marketplace.amazon.com	Patti Krueger	+1 929-436-4790 ext. 99632	ABM010	The Spring Fling Bouquet by Arabella Bouquets with a Free Designer Glass Vase	1	0	1	Standard	Patricia A Krueger	1941 Rooks Circle			COTTONDALE	FL	32431	US		Thinking of you! From Your friends at Tractor Supply	false		
114-4452103-6653051	09253690566266	2020-07-25T21:41:35+00:00	2020-07-25T14:41:35-07:00	2020-07-25T22:07:31+00:00	2020-07-29T06:59:59+00:00	-2	rdy68h491sys467@marketplace.amazon.com	Erika Grotto	+1 929-436-4790 ext. 35671	ABM010	The Spring Fling Bouquet by Arabella Bouquets with a Free Designer Glass Vase	1	0	1	Expedited	The Banerjee Family	5207 PAPAW DR			NAPERVILLE	IL	60564-5347	US		Enjoy your new home. May you make many wonderful memories here. From The Grotto Family	false		
112-3505302-6475467	35977521466370	2020-07-25T22:29:55+00:00	2020-07-25T15:29:55-07:00	2020-07-25T22:59:22+00:00	2020-07-29T06:59:59+00:00	-2	1fsmw0sgkcx89gn@marketplace.amazon.com	Linda carrigan	+1 929-436-4790 ext. 64909	ABR0022	Purchase Now for Delivery by Wednesday | Arabella Farm Direct Bouquet of 12 Fresh Cut Pink Roses with a Free Glass Vase	1	0	1	Expedited	Linda carrigan	1511 DEVEREAUX AVE			PHILA	PA	19149-2802	US			false		
112-8741840-7863453	47242865393690	2020-07-25T22:55:12+00:00	2020-07-25T15:55:12-07:00	2020-07-25T23:22:35+00:00	2020-07-28T06:59:59+00:00	-1	1r9gst5rsfysk8l@marketplace.amazon.com	Kate Grant	+1 929-436-4790 ext. 44181	ABR0055	Purchase Now for Delivery by Wednesday | Arabella Farm Direct Bouquet of 12 Stems of Fresh Cut Hot Pink Roses in a Free Designer Glass Vase	1	0	1	SecondDay	Melody Pott	1661 QUAIL RUN DR			KALAMAZOO	MI	49009-1899	US		Our thoughts are with you, Melody. From Rene and Kate	false		
112-1906830-3482628	02847510401466	2020-07-25T22:55:07+00:00	2020-07-25T15:55:07-07:00	2020-07-25T23:23:34+00:00	2020-07-29T06:59:59+00:00	-2	whfnt1ktfgwvgq7@marketplace.amazon.com	Glenda P Farrell	+1 929-436-4790 ext. 66270	ABR0055	Purchase Now for Delivery by Wednesday | Arabella Farm Direct Bouquet of 12 Stems of Fresh Cut Hot Pink Roses in a Free Designer Glass Vase	1	0	1	Expedited	Sheila Salzman Wojtowicz	2901 RUBICON WAY			WEST SACRAMENTO	CA	95691-5147	US		Thinking of you and wishing you a quick recovery. Wendy and Glenda From Glenda P Farrell	false		
113-6178912-8890635	65848315892466	2020-07-25T23:09:57+00:00	2020-07-25T16:09:57-07:00	2020-07-25T23:35:43+00:00	2020-07-29T06:59:59+00:00	-2	k0sb97km3mkkgzh@marketplace.amazon.com	victoria wyles	+1 929-436-4790 ext. 45221	ABR012	Purchase Now for Delivery by Wednesday | Arabella Farm Direct Bouquet of 18 Fresh Cut Pink Roses with a Free Glass Vase	1	0	1	Expedited	Kayley Bell	700 W E ST UNIT 1203			SAN DIEGO	CA	92101-5990	US		Congratulations on your promotion. A job well done. I am so proud of you. Love Victoria From victoria wyles	false		
112-7158597-7909850	66585776146266	2020-07-25T23:13:08+00:00	2020-07-25T16:13:08-07:00	2020-07-25T23:42:33+00:00	2020-07-29T06:59:59+00:00	-2	4pjvyygxxhnshm7@marketplace.amazon.com	Angela L Ciminnisi	+1 415-851-9136 ext. 71250	ABR0055	Purchase Now for Delivery by Wednesday | Arabella Farm Direct Bouquet of 12 Stems of Fresh Cut Hot Pink Roses in a Free Designer Glass Vase	1	0	1	Expedited	Deana Ramseyer	7889 E QUINN DR			ANAHEIM	CA	92808-1507	US		Thank you for the most wonderful birthday! You are so thoughtful! We love you!! Love, Angela & Carissa From Angela L Ciminnisi	false		
112-9976460-2374637	42620092101290	2020-07-25T23:32:44+00:00	2020-07-25T16:32:44-07:00	2020-07-25T23:58:38+00:00	2020-07-28T06:59:59+00:00	-1	2fylfwz26y0t693@marketplace.amazon.com	James L Reinis	+1 929-436-4790 ext. 53816	ABR0022	Purchase Now for Delivery by Wednesday | Arabella Farm Direct Bouquet of 12 Fresh Cut Pink Roses with a Free Glass Vase	1	0	1	SecondDay	Aida Sanchez	220 S ELK ST SPC 46			HEMET	CA	92543-3997	US		Thinking of you! With Love from Susie and Jim Reinis From Susan Reinis	false		
111-9771890-2894655	35113210642834	2020-07-25T23:42:06+00:00	2020-07-25T16:42:06-07:00	2020-07-26T00:03:41+00:00	2020-07-29T06:59:59+00:00	-2	n3hvzs614fpg90j@marketplace.amazon.com	Carolyn Gerrish	+1 929-436-4790 ext. 12171	ABR0055	Purchase Now for Delivery by Wednesday | Arabella Farm Direct Bouquet of 12 Stems of Fresh Cut Hot Pink Roses in a Free Designer Glass Vase	1	0	1	Expedited	Sue Arick	3005 BRAMBLEBUSH LN			LAKELAND	TN	38002-4171	US		Happy Happy Birthday to YOU,  my Dearest friend/sister in my heart.❤️🎂❤️ I thank God for YOU. You bless me and my life ALWAYS!!❤️  May God bless you on your birthday and ALWAYS!🎚 I love you VERY much!💝 From Carolyn	false		
114-7230969-3054653	09432384628602	2020-07-25T23:44:54+00:00	2020-07-25T16:44:54-07:00	2020-07-26T00:07:08+00:00	2020-07-28T06:59:59+00:00	-1	ytbjrn4dglbs497@marketplace.amazon.com	Jesus Cruz Meléndez	+1 929-436-4790 ext. 10453	ABR0022	Purchase Now for Delivery by Wednesday | Arabella Farm Direct Bouquet of 12 Fresh Cut Pink Roses with a Free Glass Vase	1	0	1	SecondDay	Ruvi	APARTAMETO 2000 N KAUFMAN ST			ENNIS	TX	75119-1901	US			false		
114-4110301-2437048	67030301016010	2020-07-26T00:44:42+00:00	2020-07-25T17:44:42-07:00	2020-07-26T01:12:36+00:00	2020-07-28T06:59:59+00:00	-1	kh5d2s7pzkczc8m@marketplace.amazon.com	Amy Allen	+1 929-436-4790 ext. 80983	ABR0022	Purchase Now for Delivery by Wednesday | Arabella Farm Direct Bouquet of 12 Fresh Cut Pink Roses with a Free Glass Vase	1	0	1	SecondDay	Heather Greene	1555 MEACHAM LN			PADUCAH	KY	42003-0418	US		HAPPY BIRTHDAY  LOVE AND MISS YOU From Amy and Jorge	false		
112-8004000-7845821	14441546916658	2020-07-26T00:47:07+00:00	2020-07-25T17:47:07-07:00	2020-07-26T01:16:07+00:00	2020-07-29T06:59:59+00:00	-2	b7fw3s31pndgwm6@marketplace.amazon.com	F. Stokes	+1 929-436-4790 ext. 30741	ABM010	The Spring Fling Bouquet by Arabella Bouquets with a Free Designer Glass Vase	1	0	1	Expedited	L. Sozio	28 WIMAN PL			STATEN ISLAND	NY	10305-4927	US		Just because! Love,  Kathy From K.  Stokes	false		
112-3239572-4392229	66599501746802	2020-07-26T00:54:36+00:00	2020-07-25T17:54:36-07:00	2020-07-26T01:22:26+00:00	2020-07-29T06:59:59+00:00	-2	8xwdbc60p1vgg17@marketplace.amazon.com	Robin Fowler	+1 415-851-9136 ext. 90958	ABM0044	Purchase Now for Delivery by Wednesday | Arabella Farm Direct Bouquet of Fresh Cut Blue Hydrangea with a Free Glass Vase	1	0	1	Expedited	LaVerne Schuler	3405 EL SALIDO PKWY APT 103			CEDAR PARK	TX	78613-5641	US		Mom, Cheers to 90 Years!  Happy Birthday!  We hope you have a fabulous week celebrating you!   Love, John, Robin, Allie and Jake From John, Robin, Allie and Jake	false		
112-2115640-9746602	32932016768378	2020-07-26T01:12:19+00:00	2020-07-25T18:12:19-07:00	2020-07-26T01:34:19+00:00	2020-07-28T06:59:59+00:00	-1	xdl0n66mzflh5cb@marketplace.amazon.com	Heather Denny	+1 929-436-4790 ext. 21508	ABM010	The Spring Fling Bouquet by Arabella Bouquets with a Free Designer Glass Vase	1	0	1	SecondDay	Denise Flynn	14 RESERVATION RD			EASTHAMPTON	MA	01027-1227	US		Dear Denise,  Thank you SO much for hosting us in your beautiful house in Martha's Vineyard! A girl's getaway was just what we all needed. It was a wonderful time, and you were so generous to us. Many thanks! XO Heathe From Heather Denny	false		
112-0021291-3188210	67226818522170	2020-07-26T04:37:37+00:00	2020-07-25T21:37:37-07:00	2020-07-26T05:04:48+00:00	2020-07-29T06:59:59+00:00	-2	lyqzp0sq5rf6f6p@marketplace.amazon.com	Beni	+1 929-436-4790 ext. 91588	ABR0022	Purchase Now for Delivery by Wednesday | Arabella Farm Direct Bouquet of 12 Fresh Cut Pink Roses with a Free Glass Vase	1	0	1	Expedited	Latasha Winbush	921 18TH AVE			MIDDLETOWN	OH	45044-5646	US			false		
113-5166157-0188267	68357054649218	2020-07-26T04:41:51+00:00	2020-07-25T21:41:51-07:00	2020-07-26T05:05:39+00:00	2020-07-29T06:59:59+00:00	-2	shhhm6f9ytl972y@marketplace.amazon.com	Yolanda Brown	+1 929-436-4790 ext. 88089	ABR004	Arabella Farm Direct Bouquet of 12 Fresh Cut Yellow Roses with a Free Glass Vase	1	0	1	Expedited	Xanthe McClemore	7546 PARKWAY DR APT 1K			LA MESA	CA	91942-1755	US			false		
111-4848680-9405031	09139198845434	2020-07-26T05:12:03+00:00	2020-07-25T22:12:03-07:00	2020-07-26T05:24:28+00:00	2020-07-29T06:59:59+00:00	-2	lgsvh0qn3d379h3@marketplace.amazon.com	Joseph Robison	+1 929-436-4790 ext. 07837	ABR0022	Purchase Now for Delivery by Wednesday | Arabella Farm Direct Bouquet of 12 Fresh Cut Pink Roses with a Free Glass Vase	1	0	1	Expedited	Yarasette Ramirez	1745 WILCOX AVE	APT # 325 HOLLYWOOD CA 90028		LOS ANGELES	CA	90028-5162	US		Beso!!! From Joseph	false		
114-7683467-4781814	12140187335714	2020-07-26T05:02:00+00:00	2020-07-25T22:02:00-07:00	2020-07-26T05:28:48+00:00	2020-07-28T06:59:59+00:00	-1	k5xdhbq1vjspjrt@marketplace.amazon.com	Hector  perez	+1 929-436-4790 ext. 87747	ABR0022	Purchase Now for Delivery by Wednesday | Arabella Farm Direct Bouquet of 12 Fresh Cut Pink Roses with a Free Glass Vase	1	0	1	SecondDay	Cristina vicente	1654 S GRANT ST	SAN MATEO CA 94402 EE UU APARTAMENTO 4		SAN MATEO	CA	94402-2685	US		Te amo no lo olvides eres lo mejor que me a pasado De Hector  perez	false		
113-0987891-5161034	05143553917194	2020-07-26T05:10:20+00:00	2020-07-25T22:10:20-07:00	2020-07-26T05:40:40+00:00	2020-07-29T06:59:59+00:00	-2	tjxyxmd16kqdywv@marketplace.amazon.com	Anna	+1 929-436-4790 ext. 56833	ABR0022	Purchase Now for Delivery by Wednesday | Arabella Farm Direct Bouquet of 12 Fresh Cut Pink Roses with a Free Glass Vase	1	0	1	Expedited	Larry Woodson	30145 FORESTGROVE RD			WILLOWICK	OH	44095-4954	US			false		
113-7104488-3494663	17372872305618	2020-07-26T05:22:40+00:00	2020-07-25T22:22:40-07:00	2020-07-26T05:51:02+00:00	2020-07-29T06:59:59+00:00	-2	0bd9q13xjp3n4yf@marketplace.amazon.com	Brittany Shinn	+1 415-851-9136 ext. 41664	ABM0044	Purchase Now for Delivery by Wednesday | Arabella Farm Direct Bouquet of Fresh Cut Blue Hydrangea with a Free Glass Vase	1	0	1	Expedited	Brittany Shinn	4411B LEMAY LN			JB MDL	NJ	08641-4121	US		Happy Anniversary my love.  Enjoy these steel blue flowers for our Steel anniversary. From Brittany Shinn	false		
111-3346247-5584224	68658581497466	2020-07-26T05:35:53+00:00	2020-07-25T22:35:53-07:00	2020-07-26T06:03:24+00:00	2020-07-29T06:59:59+00:00	-2	n3hvzs614fpg90j@marketplace.amazon.com	Carolyn Gerrish	+1 929-436-4790 ext. 19873	ABR0022	Purchase Now for Delivery by Wednesday | Arabella Farm Direct Bouquet of 12 Fresh Cut Pink Roses with a Free Glass Vase	1	0	1	Expedited	Helen Cannon	9053 NORWOOD RD			NORWOOD	VA	24581-4010	US		Happy Belated Birthday to you my Dearest Forever Friend!❤️🎂 Our family loves you and thanks God for you Always! I love you mucho and I thank God for you ALWAYS!♥️ From I love you! Love, Carolyn	false		
111-5033821-4989844	14578066543226	2020-07-26T09:28:41+00:00	2020-07-26T02:28:41-07:00	2020-07-26T09:50:12+00:00	2020-07-28T06:59:59+00:00	-1	hxxv6rhbs0srgrx@marketplace.amazon.com	Deepa Antony	+1 929-436-4790 ext. 32185	ABR0033	Purchase Now for Delivery by Wednesday | Arabella Farm Direct Bouquet of 12 Fresh Cut Orange Roses with a Free Glass Vase	1	0	1	SecondDay	Rishabh R Krishnan	1000, SOUTH CLARK	2614		CHICAGO	IL	60605	US			false		
112-2753694-3145033	23272221062626	2020-07-26T10:14:16+00:00	2020-07-26T03:14:16-07:00	2020-07-26T10:36:26+00:00	2020-07-29T06:59:59+00:00	-2	pw4f5zwsx8431f6@marketplace.amazon.com	Alfie Dwight Miranda Sy	+1 929-436-4790 ext. 01982	ABR0022	Purchase Now for Delivery by Wednesday | Arabella Farm Direct Bouquet of 12 Fresh Cut Pink Roses with a Free Glass Vase	1	0	1	Expedited	Ashter Eileen Yburan	1630 41ST ST APT C1			BROOKLYN	NY	11218-5563	US			false		
112-0783838-8622657	53461410864346	2020-07-26T11:29:02+00:00	2020-07-26T04:29:02-07:00	2020-07-26T11:55:45+00:00	2020-07-28T06:59:59+00:00	-1	pstr4kz3957gs1w@marketplace.amazon.com	Megan Everett	+1 929-436-4790 ext. 56978	ABR004	Arabella Farm Direct Bouquet of 12 Fresh Cut Yellow Roses with a Free Glass Vase	1	0	1	SecondDay	Judy Drury	4070 OLIVER AVE			BETHLEHEM	PA	18020-7851	US		Dear Grammie, We're thinking of you and sending love in hopes you feel better soon. Lots of love and hugs, Megan, Paddy, Stella & Neave From Megan, Paddy, Stella & Neave	false		
111-5059735-1587451	66022121338138	2020-07-26T11:57:22+00:00	2020-07-26T04:57:22-07:00	2020-07-26T12:27:15+00:00	2020-07-29T06:59:59+00:00	-2	227kz5vvrkx8k48@marketplace.amazon.com	Sheila A. DeCrane	916-985+3641	ABR0066	Arabella Bouquets 12 Stems of Fresh Cut White Roses in a Free Designer Glass Vase	1	0	1	Expedited	Joanne Kilbane	FOLSOM CARE CENTER 510 MILL ST			FOLSOM	CA	95630-2607	US			false		
111-6642332-4829009	25602817169466	2020-07-26T13:08:54+00:00	2020-07-26T06:08:54-07:00	2020-07-26T13:38:36+00:00	2020-07-28T06:59:59+00:00	-1	p7zxx4bzzxvr8h9@marketplace.amazon.com	SAMER KHADER	+1 929-436-4790 ext. 61465	ABR0022	Purchase Now for Delivery by Wednesday | Arabella Farm Direct Bouquet of 12 Fresh Cut Pink Roses with a Free Glass Vase	1	0	1	SecondDay	Rawand Khader	130 LOCUST LN			IRVINGTON	NY	10533-2313	US		Happy Birthday RooRoo! From SAMER	false		
111-8193133-6309063	64943160390826	2020-07-26T13:32:28+00:00	2020-07-26T06:32:28-07:00	2020-07-26T13:46:13+00:00	2020-07-29T06:59:59+00:00	-2	gh99wt1k9vdr7hc@marketplace.amazon.com	Mary J Ditzel	+1 929-436-4790 ext. 09324	ABM010	The Spring Fling Bouquet by Arabella Bouquets with a Free Designer Glass Vase	1	0	1	Expedited	Jessica Pazolka	2857 ORENDA ST			COMMERCE TOWNSHIP	MI	48382-3480	US		I hope you start feeling better soon.  What a wonderful gift to your sister.  Love and prayers, Mary From Mary J Ditzel	false		
113-6468480-1997062	01012203744962	2020-07-26T13:31:52+00:00	2020-07-26T06:31:52-07:00	2020-07-26T13:59:45+00:00	2020-07-29T06:59:59+00:00	-2	fplgpk73w37hlb1@marketplace.amazon.com	Alison Geary	+1 929-436-4790 ext. 13838	ABR0055	Purchase Now for Delivery by Wednesday | Arabella Farm Direct Bouquet of 12 Stems of Fresh Cut Hot Pink Roses in a Free Designer Glass Vase	1	0	1	Standard	Kit Mogan	11730 SHIPWATCH DR APT 207			LARGO	FL	33774-3706	US		Happy Birthday! Miss you! From Love, Alison and Bill	false		
111-9165201-0937860	19549282763770	2020-07-26T14:35:29+00:00	2020-07-26T07:35:29-07:00	2020-07-26T15:00:27+00:00	2020-07-28T06:59:59+00:00	-1	7h3s0kcwsmbm3xf@marketplace.amazon.com	danielle breese	+1 929-436-4790 ext. 95230	ABR0022	Purchase Now for Delivery by Wednesday | Arabella Farm Direct Bouquet of 12 Fresh Cut Pink Roses with a Free Glass Vase	1	0	1	SecondDay	The Logan Family	1900 WINFORD RD			BALTIMORE	MD	21239-3734	US		We are saddened by the loss of Ashley.  The world seems a little less brighter when we lose someone so young and full of potential.  But God's grace is sufficient. From Calvin, Loretta (in memory), Danielle Breese	false		
114-0321848-6106616	39958132026386	2020-07-26T14:40:47+00:00	2020-07-26T07:40:47-07:00	2020-07-26T15:06:36+00:00	2020-07-28T06:59:59+00:00	-1	1gw4t6w2v8vqjx4@marketplace.amazon.com	Tiffany M Kerstetter	+1 929-436-4790 ext. 93843	ABR0033	Purchase Now for Delivery by Wednesday | Arabella Farm Direct Bouquet of 12 Fresh Cut Orange Roses with a Free Glass Vase	1	0	1	SecondDay	Becky Jacobs	1001 CHATEAU DR			LEBANON	TN	37087-6507	US		HAPPY BIRTHDAY!!!  Hope you have a wonderful day celebrating.  Love and miss you. From Tiffany M Kerstetter	false		
112-4468352-0048262	66569999838962	2020-07-26T14:41:12+00:00	2020-07-26T07:41:12-07:00	2020-07-26T15:07:04+00:00	2020-07-29T06:59:59+00:00	-2	c3w2rr9kmpybh7n@marketplace.amazon.com	jane nguyen	+1 929-436-4790 ext. 95190	ABR0022	Purchase Now for Delivery by Wednesday | Arabella Farm Direct Bouquet of 12 Fresh Cut Pink Roses with a Free Glass Vase	1	0	1	Expedited	Hai Dao Nguyen	6628 UNION RD			GASTONIA	NC	28056-8137	US		Dear Cayla. We’re so sorry for your loss. You’ve gained a guardian angel to watch over you forever. From Gigi, Brandon and Jane	false		
113-9043365-0499457	24204310107786	2020-07-26T14:52:30+00:00	2020-07-26T07:52:30-07:00	2020-07-26T15:14:08+00:00	2020-07-29T06:59:59+00:00	-2	l8kj25p24m0bw35@marketplace.amazon.com	Fran Bauer	+1 929-436-4790 ext. 95908	ABR0022	Purchase Now for Delivery by Wednesday | Arabella Farm Direct Bouquet of 12 Fresh Cut Pink Roses with a Free Glass Vase	1	0	1	Expedited	The Bjerstedt Family	361 COUNTY ROAD U			RIVER FALLS	WI	54022-8271	US			false		
112-9044549-8767435	55175235617474	2020-07-26T15:01:47+00:00	2020-07-26T08:01:47-07:00	2020-07-26T15:26:55+00:00	2020-07-29T06:59:59+00:00	-2	bdtjrvdf4rd60s0@marketplace.amazon.com	Andrea Hicks	+1 929-436-4790 ext. 46710	ABR0022	Purchase Now for Delivery by Wednesday | Arabella Farm Direct Bouquet of 12 Fresh Cut Pink Roses with a Free Glass Vase	1	0	1	Expedited	Judy Altman	110 REGENT ST			LINCOLN	IL	62656-1350	US		I love you more! From Andrea Hicks	false		
113-9833453-0735462	50778394383458	2020-07-26T15:04:43+00:00	2020-07-26T08:04:43-07:00	2020-07-26T15:31:24+00:00	2020-07-28T06:59:59+00:00	-1	y7hqhnb7zjp3zhm@marketplace.amazon.com	Buron Caldwell	+1 929-436-4790 ext. 60747	ABR0055	Purchase Now for Delivery by Wednesday | Arabella Farm Direct Bouquet of 12 Stems of Fresh Cut Hot Pink Roses in a Free Designer Glass Vase	1	0	1	SecondDay	Maegan Robison	2425 SAGE RD APT 181			HOUSTON	TX	77056-5023	US		Just because it’s the 29th 😘 From The 1 who loves you most	false		
113-1287132-3217840	00708803617186	2020-07-26T15:07:56+00:00	2020-07-26T08:07:56-07:00	2020-07-26T15:34:28+00:00	2020-07-29T06:59:59+00:00	-2	8w8kwp7wd2pxtlr@marketplace.amazon.com	Kimberly Love	+1 929-436-4790 ext. 69170	ABM010	The Spring Fling Bouquet by Arabella Bouquets with a Free Designer Glass Vase	1	0	1	Expedited	Jolene & Adam Samson	405 SPRING MEADOW LN			HARLINGEN	TX	78550-3893	US		Congratulations!  We are SO happy for both of you From Kimberly, Doug & Wyatt	false		
114-4798508-8801040	57574040655306	2020-07-26T15:19:39+00:00	2020-07-26T08:19:39-07:00	2020-07-26T15:47:17+00:00	2020-07-29T06:59:59+00:00	-2	jtpx5x2gqshnrd0@marketplace.amazon.com	jeannie wells	+1 415-851-9136 ext. 88806	ABR015	Purchase Now for Delivery by Wednesday | Arabella Farm Direct Bouquet of 18 Fresh Cut Orange Roses with a Free Glass Vase	1	0	1	Expedited	COLLEEN KREAMER	4433 TEMECULA ST APT 2			SAN DIEGO	CA	92107-1012	US		Enjoy your gift! Love and Best Wishes From Jeannie, David and Dwayne	false		
112-8576906-3599444	63132000508770	2020-07-26T16:16:59+00:00	2020-07-26T09:16:59-07:00	2020-07-26T16:46:30+00:00	2020-07-29T06:59:59+00:00	-2	b24r8zmm0dlvjhc@marketplace.amazon.com	Michael	+1 929-436-4790 ext. 05998	ABR0022	Purchase Now for Delivery by Wednesday | Arabella Farm Direct Bouquet of 12 Fresh Cut Pink Roses with a Free Glass Vase	1	0	1	Expedited	Kimberly	21 1ST AVE APT 7			DUDLEY	MA	01571-3452	US		I love you so much baby From George Konrad	false		
111-3703280-8680255	59416039096658	2020-07-26T16:29:46+00:00	2020-07-26T09:29:46-07:00	2020-07-26T16:59:37+00:00	2020-07-29T06:59:59+00:00	-2	mqnz0vy1w7cx5l3@marketplace.amazon.com	Teresa Thompson	+1 929-436-4790 ext. 24499	ABM0033	Purchase Now for Delivery by Wednesday | Arabella Farm Direct Bouquet of Fresh Cut White Hydrangea with a Free Glass Vase	1	0	1	Expedited	Tony Cusella	2650 N ORCHARD ST APT 1R			CHICAGO	IL	60614-1576	US		Welcome to the family!  Love, Teri From Teresa Thompson	false		
112-9354942-6973049	10908678045498	2020-07-26T16:37:15+00:00	2020-07-26T09:37:15-07:00	2020-07-26T17:04:09+00:00	2020-07-29T06:59:59+00:00	-2	1g22hgjq13dcmv1@marketplace.amazon.com	Jessica Stuart	+1 929-436-4790 ext. 74858	ABR0022	Purchase Now for Delivery by Wednesday | Arabella Farm Direct Bouquet of 12 Fresh Cut Pink Roses with a Free Glass Vase	1	0	1	Expedited	Gardenia Willoughby	1399 MCGREGOR CIR			ERIE	CO	80516-7298	US		Congrats on the beautiful new home! You’re probably still unpacking. So hopefully these can jazz up your sea of boxes :) xo *jess* From Jessica Stuart	false		
113-7404548-0497063	17108362902394	2020-07-26T16:58:12+00:00	2020-07-26T09:58:12-07:00	2020-07-26T17:27:39+00:00	2020-07-29T06:59:59+00:00	-2	g5wtprhc24874qn@marketplace.amazon.com	kyle rean	+1 929-436-4790 ext. 42016	ABR0022	Purchase Now for Delivery by Wednesday | Arabella Farm Direct Bouquet of 12 Fresh Cut Pink Roses with a Free Glass Vase	1	0	1	Expedited	Christina	179 BRENNAN CONCOURSE			BAYVILLE	NJ	08721-3670	US			false		
114-5990440-8413015	56766993648978	2020-07-26T17:01:32+00:00	2020-07-26T10:01:32-07:00	2020-07-26T17:29:42+00:00	2020-07-28T06:59:59+00:00	-1	5fqlf5336qxnh2p@marketplace.amazon.com	David  Gressly	+1 415-851-9136 ext. 61208	ABM010	The Spring Fling Bouquet by Arabella Bouquets with a Free Designer Glass Vase	1	0	1	SecondDay	Jo Gressly	1559 COUNTY ROAD 31			BOLCKOW	MO	64427-9647	US		Happy Birthday! From David, Cameron and all the rest.	false		
112-9551847-0800218	23651491182722	2020-07-26T17:01:59+00:00	2020-07-26T10:01:59-07:00	2020-07-26T17:32:01+00:00	2020-07-29T06:59:59+00:00	-2	p149gzdsl8gmhdj@marketplace.amazon.com	kerry lee	+1 929-436-4790 ext. 09114	ABR0066	Arabella Bouquets 12 Stems of Fresh Cut White Roses in a Free Designer Glass Vase	1	0	1	Expedited	Emma Lee	110 IVY HALL LN			GREENWOOD	SC	29649-8496	US			false		
111-4745626-6172203	67129406046138	2020-07-26T17:25:30+00:00	2020-07-26T10:25:30-07:00	2020-07-26T17:40:08+00:00	2020-07-29T06:59:59+00:00	-2	q1nxn93gln8v999@marketplace.amazon.com	Suzanne Bobbitt	+1 929-436-4790 ext. 09813	ABR0022	Purchase Now for Delivery by Wednesday | Arabella Farm Direct Bouquet of 12 Fresh Cut Pink Roses with a Free Glass Vase	1	0	1	Expedited	Stacy Rhone	803 SYKES CT			PFLUGERVILLE	TX	78660-8008	US		Stacy - May you find comfort in knowing that your extended family holds you up in prayer now.  May God speed your healing! Love Always From Terry & Suzanne Bobbitt	false		
111-1546487-1914654	19361769445874	2020-07-26T17:25:36+00:00	2020-07-26T10:25:36-07:00	2020-07-26T17:54:33+00:00	2020-07-28T06:59:59+00:00	-1	338qmf9rqt7s4fm@marketplace.amazon.com	Susan Delehanty	+1 929-436-4790 ext. 22748	ABR0022	Purchase Now for Delivery by Wednesday | Arabella Farm Direct Bouquet of 12 Fresh Cut Pink Roses with a Free Glass Vase	1	0	1	SecondDay	Rosemary Mierkey	1427 Sun Garden			SA	TX	78245	US		Thank you for everything From Susan Delehanty	false		
112-3128131-0710661	31452931038330	2020-07-26T17:33:36+00:00	2020-07-26T10:33:36-07:00	2020-07-26T17:59:46+00:00	2020-07-29T06:59:59+00:00	-2	w06tygr8jd7jyt7@marketplace.amazon.com	Penny M. Rady	+1 929-436-4790 ext. 19622	ABR0022	Purchase Now for Delivery by Wednesday | Arabella Farm Direct Bouquet of 12 Fresh Cut Pink Roses with a Free Glass Vase	1	0	1	Expedited	Mrs. Mary L. Martin	16412 PERRY ST			OVERLAND PARK	KS	66085-7846	US		Dear Mary, Wishing you some small comfort in this time of sorrow.  May God be with you and keep you in his care. Love and hugs, Prady & Eddie From Penny M. Rady	false		
111-6777173-9397827	51285347059410	2020-07-26T18:05:08+00:00	2020-07-26T11:05:08-07:00	2020-07-26T18:20:36+00:00	2020-07-28T06:59:59+00:00	-1	5j00hvyslj0p5kx@marketplace.amazon.com	Jerry A Salvador	+1 415-851-9136 ext. 13246	ABR001	Purchase Now for Delivery by Wednesday | Arabella Bouquets 12 Stems of Fresh Cut Red Roses in a Free Designer Glass Vase	1	0	1	SecondDay	Dolores I K	3358 HAYNIE RD			BLAINE	WA	98230-9107	US		No particular reason Bobo other than I love you and miss you very very much.	false		
114-8071862-5338601	66491937021218	2020-07-26T17:58:57+00:00	2020-07-26T10:58:57-07:00	2020-07-26T18:25:36+00:00	2020-07-28T06:59:59+00:00	-1	kv31kbs807c3z07@marketplace.amazon.com	RENEE RAMPULLA	+1 929-436-4790 ext. 13514	ABR0022	Purchase Now for Delivery by Wednesday | Arabella Farm Direct Bouquet of 12 Fresh Cut Pink Roses with a Free Glass Vase	1	0	1	SecondDay	Rosemarie Giovinazzo-Barnickel	10 EMERSON CT			STATEN ISLAND	NY	10304-1402	US		Roe I have all the confidence in the world that you will be able to handle your health issue.  I promise to be right by your side. From Love Renee & Snoopy	false		
111-0319230-3638660	06828333390690	2020-07-26T18:06:06+00:00	2020-07-26T11:06:06-07:00	2020-07-26T18:35:29+00:00	2020-07-29T06:59:59+00:00	-2	s6tvxzmdzcwj1bx@marketplace.amazon.com	wendy SCHULER	+1 929-436-4790 ext. 45509	ABM010	The Spring Fling Bouquet by Arabella Bouquets with a Free Designer Glass Vase	1	0	1	Expedited	Nancy James	1216 MORVEN ST			LANCASTER	CA	93535-3319	US			false		
113-1683491-3541061	02351153613746	2020-07-26T18:11:32+00:00	2020-07-26T11:11:32-07:00	2020-07-26T18:36:19+00:00	2020-07-29T06:59:59+00:00	-2	s817h5l86j4btx0@marketplace.amazon.com	Kathryn A. Dahlgren	+1 929-436-4790 ext. 67519	ABR0022	Purchase Now for Delivery by Wednesday | Arabella Farm Direct Bouquet of 12 Fresh Cut Pink Roses with a Free Glass Vase	1	0	1	Expedited	Erin E. Dahlgren	13005 CLAYTON RD			SAN JOSE	CA	95127-5100	US			false		
114-3215599-1981040	22318261271370	2020-07-26T18:16:54+00:00	2020-07-26T11:16:54-07:00	2020-07-26T18:47:35+00:00	2020-07-29T06:59:59+00:00	-2	3hmkkhp0trrr3fk@marketplace.amazon.com	Sean	+1 929-436-4790 ext. 68164	ABM010	The Spring Fling Bouquet by Arabella Bouquets with a Free Designer Glass Vase	1	0	1	Expedited	Sean Hanley	43057 FORTNER DR			STERLING HEIGHTS	MI	48313-1732	US			false		
113-3475714-6109054	44173384635434	2020-07-26T18:56:51+00:00	2020-07-26T11:56:51-07:00	2020-07-26T19:26:47+00:00	2020-07-29T06:59:59+00:00	-2	tg8d4b9mj20r9lp@marketplace.amazon.com	roslyn lampert	+1 415-851-9136 ext. 00767	ABR0022	Purchase Now for Delivery by Wednesday | Arabella Farm Direct Bouquet of 12 Fresh Cut Pink Roses with a Free Glass Vase	1	0	1	Expedited	Roz Lampert	300 WINSTON DR APT 917			CLIFFSIDE PARK	NJ	07010-3215	US			false		
113-3775689-1575436	46992985687554	2020-07-26T19:00:35+00:00	2020-07-26T12:00:35-07:00	2020-07-26T19:28:31+00:00	2020-07-29T06:59:59+00:00	-2	tg8d4b9mj20r9lp@marketplace.amazon.com	roslyn lampert	+1 929-436-4790 ext. 40751	ABR0022	Purchase Now for Delivery by Wednesday | Arabella Farm Direct Bouquet of 12 Fresh Cut Pink Roses with a Free Glass Vase	1	0	1	Expedited	Shari Lampert	210 E 36TH ST APT 8A	SHARI LAMPERT		NEW YORK	NY	10016-3642	US			false		
112-3512104-6029023	23487502824266	2020-07-26T19:23:47+00:00	2020-07-26T12:23:47-07:00	2020-07-26T19:52:13+00:00	2020-07-29T06:59:59+00:00	-2	kt2h8nk9vpgc22s@marketplace.amazon.com	Michael Baranowski	+1 415-851-9136 ext. 31953	ABR0022	Purchase Now for Delivery by Wednesday | Arabella Farm Direct Bouquet of 12 Fresh Cut Pink Roses with a Free Glass Vase	1	0	1	Expedited	Amy Snyder	1321 Ruby Road			Hartsville	SC	29550	US		Congratulations, graduate!  Love & hugs to you : ) k, m, and the ds From The Baranowskis	false		
111-5746156-6681807	42128081343442	2020-07-26T19:36:13+00:00	2020-07-26T12:36:13-07:00	2020-07-26T19:59:51+00:00	2020-07-28T06:59:59+00:00	-1	nfgnxv5vl9q5ylt@marketplace.amazon.com	frank evans	+1 929-436-4790 ext. 91381	ABR0022	Purchase Now for Delivery by Wednesday | Arabella Farm Direct Bouquet of 12 Fresh Cut Pink Roses with a Free Glass Vase	1	0	1	SecondDay	Becky Evans	8171 DOUGLAS FIR DR			LORTON	VA	22079-5656	US		Hi Becky, Welcome home . Love dad and mom	false		
112-4472170-4112257	31263614154722	2020-07-26T19:36:40+00:00	2020-07-26T12:36:40-07:00	2020-07-26T20:07:10+00:00	2020-07-29T06:59:59+00:00	-2	yhcznhl3006rl21@marketplace.amazon.com	John Marra	+1 929-436-4790 ext. 26359	ABM010	The Spring Fling Bouquet by Arabella Bouquets with a Free Designer Glass Vase	1	0	1	Expedited	kimberly marra	338 S AVENUE 16 APT 3			LOS ANGELES	CA	90031-2502	US			false		
113-8074743-8033826	35436614090034	2020-07-26T19:47:34+00:00	2020-07-26T12:47:34-07:00	2020-07-26T20:21:07+00:00	2020-07-29T06:59:59+00:00	-2	hz3xb716wmbv8mq@marketplace.amazon.com	tracie	+1 929-436-4790 ext. 67139	ABR0022	Purchase Now for Delivery by Wednesday | Arabella Farm Direct Bouquet of 12 Fresh Cut Pink Roses with a Free Glass Vase	1	0	1	Expedited	tracie souve'	5 PARISVILLE			ALISO VIEJO	CA	92656-8047	US			false		
111-5629180-7357841	31023448347370	2020-07-26T20:07:34+00:00	2020-07-26T13:07:34-07:00	2020-07-26T20:34:08+00:00	2020-07-29T06:59:59+00:00	-2	20g2rk9v6xv7gvc@marketplace.amazon.com	Dave Kenney	+1 929-436-4790 ext. 61748	ABR0022	Purchase Now for Delivery by Wednesday | Arabella Farm Direct Bouquet of 12 Fresh Cut Pink Roses with a Free Glass Vase	1	0	1	Expedited	The Freeman's	890 GRAHAM HILL RD			SANTA CRUZ	CA	95060-1438	US		Happy Anniversary Sharon! Miss you. Love you always From Dave Kenney	false		
111-4073142-9432218	22948133632458	2020-07-26T20:05:40+00:00	2020-07-26T13:05:40-07:00	2020-07-26T20:36:14+00:00	2020-07-29T06:59:59+00:00	-2	mz38mcn56ftvwct@marketplace.amazon.com	Lauren Lazin	+1 929-436-4790 ext. 91522	ABR0022	Purchase Now for Delivery by Wednesday | Arabella Farm Direct Bouquet of 12 Fresh Cut Pink Roses with a Free Glass Vase	1	0	1	Expedited	Lauren Lazin	79 WASHINGTON PL 3R			NEW YORK	NY	10011-9105	US			false		
114-2913767-7821803	29123046271370	2020-07-26T20:07:49+00:00	2020-07-26T13:07:49-07:00	2020-07-26T20:43:38+00:00	2020-07-29T06:59:59+00:00	-2	gj789cyfwtfxlqd@marketplace.amazon.com	Edward T. Maguire	+1 415-851-9136 ext. 06533	ABR001	Purchase Now for Delivery by Wednesday | Arabella Bouquets 12 Stems of Fresh Cut Red Roses in a Free Designer Glass Vase	1	0	1	Expedited	elizabeth clifford	6 BRIARWOOD CIR			BRIDGEWATER	MA	02324-4001	US			false		
111-7353781-3557028	60360546199770	2020-07-26T20:32:02+00:00	2020-07-26T13:32:02-07:00	2020-07-26T21:02:37+00:00	2020-07-29T06:59:59+00:00	-2	6scrk7y7g3170jn@marketplace.amazon.com	Elaine Vick	+1 929-436-4790 ext. 83333	ABR0022	Purchase Now for Delivery by Wednesday | Arabella Farm Direct Bouquet of 12 Fresh Cut Pink Roses with a Free Glass Vase	1	0	1	Expedited	Elaine Vick	206 WESTAGE AT THE HBR			ROCHESTER	NY	14617-1001	US			false		
112-4093000-8367461	18578788090154	2020-07-26T20:57:32+00:00	2020-07-26T13:57:32-07:00	2020-07-26T21:26:58+00:00	2020-07-28T06:59:59+00:00	-1	nn9y702n1g6v30y@marketplace.amazon.com	Amanda Lasiewski	+1 929-436-4790 ext. 51183	ABR0055	Purchase Now for Delivery by Wednesday | Arabella Farm Direct Bouquet of 12 Stems of Fresh Cut Hot Pink Roses in a Free Designer Glass Vase	1	0	1	SecondDay	Irene Specht	2287 LOCUST AVE			RONKONKOMA	NY	11779-6511	US		Wishing you a wonderful birthday. From Amanda, Dan and Thomas	false		
114-6453806-3429044	43943474898834	2020-07-26T21:24:46+00:00	2020-07-26T14:24:46-07:00	2020-07-26T21:51:10+00:00	2020-07-29T06:59:59+00:00	-2	rpqmnzd8s0y4r2m@marketplace.amazon.com	Miles Messier	+1 929-436-4790 ext. 67053	ABR0022	Purchase Now for Delivery by Wednesday | Arabella Farm Direct Bouquet of 12 Fresh Cut Pink Roses with a Free Glass Vase	1	0	1	Expedited	Miles Messier	2241 RINGWOOD WAY LN			FRIENDSWOOD	TX	77546-4679	US		Thank you so much for hosting me these past couple months and everything else you did for me! It means a lot that you graciously let me into your home. Although it wasn't all as we planned, I had a lot of fun! From Miles Messier	false		
112-2671860-7493811	43798758314138	2020-07-26T21:58:01+00:00	2020-07-26T14:58:01-07:00	2020-07-26T22:27:47+00:00	2020-07-28T06:59:59+00:00	-1	x4tb6qtn6l5mr27@marketplace.amazon.com	Jeroen Steenbergen	+1 929-436-4790 ext. 23515	ABR0022	Purchase Now for Delivery by Wednesday | Arabella Farm Direct Bouquet of 12 Fresh Cut Pink Roses with a Free Glass Vase	1	0	1	SecondDay	Lauren Blume	16101 WHITE RIVER BLVD APT 17-103			PFLUGERVILLE	TX	78660-5868	US		I hope this will give you a smile From Your man	false		
112-8449740-0759440	63922895129178	2020-07-26T22:48:42+00:00	2020-07-26T15:48:42-07:00	2020-07-26T23:09:13+00:00	2020-07-28T06:59:59+00:00	-1	yrr9bw1gf1g5hgg@marketplace.amazon.com	MATTHEW ALLEN RAMSAY	+1 415-851-9136 ext. 17394	ABR0022	Purchase Now for Delivery by Wednesday | Arabella Farm Direct Bouquet of 12 Fresh Cut Pink Roses with a Free Glass Vase	1	0	1	SecondDay	Andrea Jones	30 EVERGREEN AVE			FRANKLIN	NH	03235-1901	US			false		
113-5017658-3712233	56073878460762	2020-07-26T22:51:54+00:00	2020-07-26T15:51:54-07:00	2020-07-26T23:11:37+00:00	2020-07-29T06:59:59+00:00	-2	tnf0msjrb9kxdvb@marketplace.amazon.com	Miss Felicity Henry	+1 929-436-4790 ext. 58502	ABR0022	Purchase Now for Delivery by Wednesday | Arabella Farm Direct Bouquet of 12 Fresh Cut Pink Roses with a Free Glass Vase	1	0	1	Expedited	Richard and Gabby Nott	ELEMENT HOTEL SUMMERLIN LAS VEGAS	10555 DISCOVERY DR		LAS VEGAS	NV	89135-3039	US		Congratulations on making it to the States! Happy Quarantine!  Lots of love, Matt, Litty, Elena and Matilda xxxx From Miss Felicity Henry	false		
111-6238990-2532241	20725917409506	2020-07-26T22:54:49+00:00	2020-07-26T15:54:49-07:00	2020-07-26T23:23:36+00:00	2020-07-28T06:59:59+00:00	-1	43mx6sd72d707lp@marketplace.amazon.com	Lorna Valdez	+1 929-436-4790 ext. 82713	ABR0055	Purchase Now for Delivery by Wednesday | Arabella Farm Direct Bouquet of 12 Stems of Fresh Cut Hot Pink Roses in a Free Designer Glass Vase	1	0	1	SecondDay	Karlie Valdez	13628 NE 132ND PL			KIRKLAND	WA	98034-5135	US			false		
111-6480016-0965820	14552240435490	2020-07-26T23:39:48+00:00	2020-07-26T16:39:48-07:00	2020-07-26T23:59:51+00:00	2020-07-29T06:59:59+00:00	-2	n0d3rdq6pnz7n7k@marketplace.amazon.com	Sandra Carlson	+1 929-436-4790 ext. 24198	ABR0022	Purchase Now for Delivery by Wednesday | Arabella Farm Direct Bouquet of 12 Fresh Cut Pink Roses with a Free Glass Vase	1	0	1	Expedited	Alison Hall	1012 WINTU CT			RALEIGH	NC	27603-7851	US		Enjoy your gift! From Sandra Carlson	false		
114-0861184-8793048	38590739825026	2020-07-26T23:51:40+00:00	2020-07-26T16:51:40-07:00	2020-07-27T00:14:42+00:00	2020-07-28T06:59:59+00:00	-1	ckc7zy3b07rmqkk@marketplace.amazon.com	Jun Xie	+1 929-436-4790 ext. 80714	ABR0022	Purchase Now for Delivery by Wednesday | Arabella Farm Direct Bouquet of 12 Fresh Cut Pink Roses with a Free Glass Vase	1	0	1	SecondDay	Florence Zhu	2315 EASTRIDGE AVE APT 721			MENLO PARK	CA	94025-6744	US		Happy Birthday! From Pamela Gao	false		
111-1257797-2468208	64727373125522	2020-07-27T00:01:54+00:00	2020-07-26T17:01:54-07:00	2020-07-27T00:29:59+00:00	2020-07-29T06:59:59+00:00	-2	zjf7ls42hpqlp3m@marketplace.amazon.com	Donna Blackwell	+1 929-436-4790 ext. 31448	ABM010	The Spring Fling Bouquet by Arabella Bouquets with a Free Designer Glass Vase	1	0	1	Standard	Sarah Jackson	210 HENRY ST			CAMBRIDGE	MD	21613-2429	US			false		
114-3453811-2441008	16852016908498	2020-07-27T00:07:06+00:00	2020-07-26T17:07:06-07:00	2020-07-27T00:37:43+00:00	2020-07-29T06:59:59+00:00	-2	9b6053zq2x2x2jb@marketplace.amazon.com	Dennis M Gurka	+1 929-436-4790 ext. 78402	ABR0055	Purchase Now for Delivery by Wednesday | Arabella Farm Direct Bouquet of 12 Stems of Fresh Cut Hot Pink Roses in a Free Designer Glass Vase	1	0	1	Expedited	Dennis M Gurka	2722 Starfall Dr			La Crescenta	Ca	91214	US			false		
114-0375128-2045859	24484578700866	2020-07-27T00:21:44+00:00	2020-07-26T17:21:44-07:00	2020-07-27T00:45:14+00:00	2020-07-28T06:59:59+00:00	-1	pffxmvzntd6mymd@marketplace.amazon.com	carolyn boscarino	+1 929-436-4790 ext. 97841	ABR0022	Purchase Now for Delivery by Wednesday | Arabella Farm Direct Bouquet of 12 Fresh Cut Pink Roses with a Free Glass Vase	1	0	1	SecondDay	Grace Waite	4463 BAYSHORE CIR			TALLAHASSEE	FL	32309-2223	US		Grace, Congratulations! I am so proud of you. We will celebrate next time we are together. I love you! From Joe	false		
113-1757270-9043465	38593443421354	2020-07-27T00:46:14+00:00	2020-07-26T17:46:14-07:00	2020-07-27T01:08:41+00:00	2020-07-28T06:59:59+00:00	-1	xgz3tbd94n5wz8t@marketplace.amazon.com	Rose macgillivray	+1 415-851-9136 ext. 92042	ABR0055	Purchase Now for Delivery by Wednesday | Arabella Farm Direct Bouquet of 12 Stems of Fresh Cut Hot Pink Roses in a Free Designer Glass Vase	1	0	1	SecondDay	Liz Ortega	3117 JAMACHA VIEW DR			EL CAJON	CA	92019-5143	US		Happy birthday Liz! We love you very much. From Mom, Rose, Dave and Joey.	false		
111-3832862-7142647	11974222182098	2020-07-27T01:17:12+00:00	2020-07-26T18:17:12-07:00	2020-07-27T01:45:59+00:00	2020-07-29T06:59:59+00:00	-2	40hjkm55l3zx2yl@marketplace.amazon.com	chris ilowite	+1 415-851-9136 ext. 73112	ABR0022	Purchase Now for Delivery by Wednesday | Arabella Farm Direct Bouquet of 12 Fresh Cut Pink Roses with a Free Glass Vase	1	0	1	Expedited	marie Levin	18 KIRKBY TRL			FAIRPORT	NY	14450-4128	US		Happy Birthday Mom, Love Chris & Nelsa From chris ilowite	false		
114-5550264-2477840	49553132671706	2020-07-27T01:26:40+00:00	2020-07-26T18:26:40-07:00	2020-07-27T01:57:16+00:00	2020-07-29T06:59:59+00:00	-2	z22nnhcgts0ddxg@marketplace.amazon.com	karlie kathol	+1 929-436-4790 ext. 00126	ABR0022	Purchase Now for Delivery by Wednesday | Arabella Farm Direct Bouquet of 12 Fresh Cut Pink Roses with a Free Glass Vase	1	0	1	Expedited	Belinda	10631 DAWNS MIST AVE			LAS VEGAS	NV	89129-5057	US			false		
113-2197322-6959407	18696576352562	2020-07-27T01:33:31+00:00	2020-07-26T18:33:31-07:00	2020-07-27T02:01:05+00:00	2020-07-28T06:59:59+00:00	-1	rrdx77q9d902qj8@marketplace.amazon.com	Matthew Johnston	+1 929-436-4790 ext. 31856	ABR0022	Purchase Now for Delivery by Wednesday | Arabella Farm Direct Bouquet of 12 Fresh Cut Pink Roses with a Free Glass Vase	1	0	1	SecondDay	Arjun & The Bern Angral	840 ROMANI CT			SAN JOSE	CA	95125-6307	US		Congratulations! We are so excited for you guys and can’t wait to meet baby Kabir!  Love, Matt & Elissa From Matthew & Elissa Johnston	true		
111-6345370-8348267	03913341345786	2020-07-27T01:38:52+00:00	2020-07-26T18:38:52-07:00	2020-07-27T02:07:59+00:00	2020-07-29T06:59:59+00:00	-2	lzy4zmllft449hg@marketplace.amazon.com	Margery Carr	+1 415-851-9136 ext. 36598	ABR0022	Purchase Now for Delivery by Wednesday | Arabella Farm Direct Bouquet of 12 Fresh Cut Pink Roses with a Free Glass Vase	1	0	1	Expedited	Lisa Adams	4910 HIGHWAY 162 S			COVINGTON	GA	30016-5912	US		I know this weekend was hard. I love you to the moon and back. From Dee Dee Carr	false		
111-0952412-4529064	39022813735682	2020-07-27T01:47:40+00:00	2020-07-26T18:47:40-07:00	2020-07-27T02:15:10+00:00	2020-07-29T06:59:59+00:00	-2	zwc901zc32bt57d@marketplace.amazon.com	Adrianne Wojcik	+1 415-851-9136 ext. 32862	ABR0055	Purchase Now for Delivery by Wednesday | Arabella Farm Direct Bouquet of 12 Stems of Fresh Cut Hot Pink Roses in a Free Designer Glass Vase	1	0	1	Expedited	Vannie Wojcik	655 STEMEL CT			MILPITAS	CA	95035-4731	US		Happy Birthday Vannie! Wishing you health, hope and happiness.  Adrianne, Irena and Marek From Adrianne Wojcik	false		
113-0982019-8400265	38060343895962	2020-07-27T01:53:37+00:00	2020-07-26T18:53:37-07:00	2020-07-27T02:24:11+00:00	2020-07-29T06:59:59+00:00	-2	h1cfgmtb59k3kw7@marketplace.amazon.com	Valentina	+1 415-851-9136 ext. 59737	ABR0022	Purchase Now for Delivery by Wednesday | Arabella Farm Direct Bouquet of 12 Fresh Cut Pink Roses with a Free Glass Vase	1	0	1	Expedited	Valentina Schmidt	608 LEXINGTON WAY			BURLINGAME	CA	94010-2752	US			false		
113-0168227-4784207	52377814711450	2020-07-27T02:05:31+00:00	2020-07-26T19:05:31-07:00	2020-07-27T02:28:12+00:00	2020-07-28T06:59:59+00:00	-1	j2ws81ks8gvyp6x@marketplace.amazon.com	Donna Wilks	+1 929-436-4790 ext. 89054	ABR0055	Purchase Now for Delivery by Wednesday | Arabella Farm Direct Bouquet of 12 Stems of Fresh Cut Hot Pink Roses in a Free Designer Glass Vase	1	0	1	SecondDay	Rhonda Lawson	3048 PANORAMA POINTE WAY			KODAK	TN	37764-1676	US			false		
111-0468677-1785868	34111210756498	2020-07-27T02:06:11+00:00	2020-07-26T19:06:11-07:00	2020-07-27T02:29:03+00:00	2020-07-29T06:59:59+00:00	-2	zwc901zc32bt57d@marketplace.amazon.com	Adrianne Wojcik	+1 929-436-4790 ext. 37044	ABR0055	Purchase Now for Delivery by Wednesday | Arabella Farm Direct Bouquet of 12 Stems of Fresh Cut Hot Pink Roses in a Free Designer Glass Vase	1	0	1	Expedited	Patrice Kelly	2713 FRANKLIN RD			ARLINGTON	VA	22201-3911	US		Dear Patrice  Thank you for all your help, support and kindness. I pray that God comforts you in all your current trials. He gives his hardest battles to his strongest soldiers. Love. From Adrianne Wojcik	false		
113-4897140-2303453	08171062289690	2020-07-27T02:05:11+00:00	2020-07-26T19:05:11-07:00	2020-07-27T02:35:03+00:00	2020-07-29T06:59:59+00:00	-2	x12f0z0cvmbwggp@marketplace.amazon.com	Elizabeth Stewart-Magee	+1 929-436-4790 ext. 12146	ABM010	The Spring Fling Bouquet by Arabella Bouquets with a Free Designer Glass Vase	1	0	1	Expedited	Kitty Horan	2676 FINDLEY AVE			COLUMBUS	OH	43202-2627	US		Happy Birthday Kitty From Elizabeth Stewart-Magee	false		
112-9445405-2257829	25502803859522	2020-07-27T02:23:58+00:00	2020-07-26T19:23:58-07:00	2020-07-27T02:49:38+00:00	2020-07-29T06:59:59+00:00	-2	nvdl6xds3by00nv@marketplace.amazon.com	Ernest L. Brooks	+1 929-436-4790 ext. 04429	ABR0022	Purchase Now for Delivery by Wednesday | Arabella Farm Direct Bouquet of 12 Fresh Cut Pink Roses with a Free Glass Vase	1	0	1	Expedited	Diane Hunter	5207 W HILDEBRAND BLVD APT 320			KENNEWICK	WA	99338-5206	US			false		
112-2102913-3636260	68106420036602	2020-07-27T02:27:53+00:00	2020-07-26T19:27:53-07:00	2020-07-27T02:52:58+00:00	2020-07-29T06:59:59+00:00	-2	jhs2pgsq5kp90p3@marketplace.amazon.com	Marjorie C. Valcourt	24804703484	ABR0055	Purchase Now for Delivery by Wednesday | Arabella Farm Direct Bouquet of 12 Stems of Fresh Cut Hot Pink Roses in a Free Designer Glass Vase	1	0	1	Expedited	KATIA DUBREUZE	5415 HAMMERSMITH DR			WEST BLOOMFIELD	MI	48322-1454	US		To the best friend anyone can hope for. May God Bless u 2da n always. Love you always🎁🎉😍❤🎊 Enjoy your flowers love! From Marjorie C. Valcourt	false		
112-4338262-4524233	61588827777754	2020-07-27T02:33:55+00:00	2020-07-26T19:33:55-07:00	2020-07-27T03:00:13+00:00	2020-07-29T06:59:59+00:00	-2	whklhf4d4r3q1s2@marketplace.amazon.com	Brian E. Power	+1 929-436-4790 ext. 74941	ABM0033	Purchase Now for Delivery by Wednesday | Arabella Farm Direct Bouquet of Fresh Cut White Hydrangea with a Free Glass Vase	1	0	1	Expedited	Jessica Edwards	875 MASSACHUSETTS AVE UNIT 202			INDIANAPOLIS	IN	46204-1652	US		You're amazing. ;) From Brian Power	false		
113-0390709-5104245	59520237405138	2020-07-27T02:55:51+00:00	2020-07-26T19:55:51-07:00	2020-07-27T03:23:53+00:00	2020-07-29T06:59:59+00:00	-2	txdh9mgbcxf8jbn@marketplace.amazon.com	Derek M Buckowsky	+1 415-851-9136 ext. 05529	ABR0022	Purchase Now for Delivery by Wednesday | Arabella Farm Direct Bouquet of 12 Fresh Cut Pink Roses with a Free Glass Vase	1	0	1	Expedited	Donna Hickox	172 BALSAM ST			FAIRHAVEN	MA	02719-2268	US		Happy Birthday, Mom! Love you! Lots of Love! Xo From Derek, Kristy, Brynn, Vince, Mya	false		
112-5881204-0568237	52437918561610	2020-07-27T02:59:15+00:00	2020-07-26T19:59:15-07:00	2020-07-27T03:25:52+00:00	2020-07-28T06:59:59+00:00	-1	wvgf285s6j7g3lb@marketplace.amazon.com	willbdds	+1 929-436-4790 ext. 37378	ABR0022	Purchase Now for Delivery by Wednesday | Arabella Farm Direct Bouquet of 12 Fresh Cut Pink Roses with a Free Glass Vase	1	0	1	SecondDay	Shandee Bates	1690 N 1900 W			FARR WEST	UT	84404-2676	US		Happy anniversary!  I love and miss you!! From Will	false		
114-7865248-7419439	63149786446290	2020-07-27T03:13:33+00:00	2020-07-26T20:13:33-07:00	2020-07-27T03:44:07+00:00	2020-07-29T06:59:59+00:00	-2	k9l6bt2yylb6974@marketplace.amazon.com	Sandra Rhoades	+1 929-436-4790 ext. 18628	ABR004	Arabella Farm Direct Bouquet of 12 Fresh Cut Yellow Roses with a Free Glass Vase	1	0	1	Expedited	Cheryl Bergman	1219 E DEERFIELD CT			ONTARIO	CA	91761-7042	US			false		
113-6693371-2769804	16492106453666	2020-07-27T03:17:46+00:00	2020-07-26T20:17:46-07:00	2020-07-27T03:44:19+00:00	2020-07-29T06:59:59+00:00	-2	p8xd588vd0hqp2m@marketplace.amazon.com	Annette J. Allen	+1 929-436-4790 ext. 35471	ABR0055	Purchase Now for Delivery by Wednesday | Arabella Farm Direct Bouquet of 12 Stems of Fresh Cut Hot Pink Roses in a Free Designer Glass Vase	1	0	1	Standard	Elaine Allen	4508 HAHN AVE			BAKERSFIELD	CA	93309-5815	US		Happy Birthday Mom We love you very much and hope you enjoy your special day . From Kirk and Annette	false		
114-5110446-7987414	67164510629698	2020-07-27T03:32:43+00:00	2020-07-26T20:32:43-07:00	2020-07-27T03:59:54+00:00	2020-07-28T06:59:59+00:00	-1	qz8tkj2mk0cjt5l@marketplace.amazon.com	Steven  Kimmer	+1 929-436-4790 ext. 23493	ABM010	The Spring Fling Bouquet by Arabella Bouquets with a Free Designer Glass Vase	1	0	1	SecondDay	Rita Triano	5207 DEGAS WAY			EL DORADO HILLS	CA	95762-5264	US		Dearest Rita: We all wish you a very happy birthday! Missing you! Hope to see you soon... Love you lots- xoxo Monique, Steve, Lola, Liz and Amelia From Steven & Monique Kimmer	false		
111-6166795-8925028	46642939091466	2020-07-27T03:44:27+00:00	2020-07-26T20:44:27-07:00	2020-07-27T04:12:59+00:00	2020-07-29T06:59:59+00:00	-2	2qhrkwzscd6sxp2@marketplace.amazon.com	elle	+1 929-436-4790 ext. 35369	ABR0022	Purchase Now for Delivery by Wednesday | Arabella Farm Direct Bouquet of 12 Fresh Cut Pink Roses with a Free Glass Vase	1	0	1	Expedited	Kari Edgar	2641 W MAPLE LN			SHOW LOW	AZ	85901-2772	US		Kari, Happy Birthday! Love Elle	false		
113-6373610-0004253	42119822241986	2020-07-27T03:52:06+00:00	2020-07-26T20:52:06-07:00	2020-07-27T04:20:56+00:00	2020-07-29T06:59:59+00:00	-2	qjmbcgcfd8vvqqb@marketplace.amazon.com	Edward schultz	+1 929-436-4790 ext. 38266	ABR0022	Purchase Now for Delivery by Wednesday | Arabella Farm Direct Bouquet of 12 Fresh Cut Pink Roses with a Free Glass Vase	1	0	1	Expedited	Regina Cottle	257 S HOWARD ST SE			ATLANTA	GA	30317-2417	US			false		
112-7736697-5592216	62631073456674	2020-07-27T03:53:47+00:00	2020-07-26T20:53:47-07:00	2020-07-27T04:21:12+00:00	2020-07-28T06:59:59+00:00	-1	3gyh7wlddq81rrc@marketplace.amazon.com	Jaye Whitworth	+1 929-436-4790 ext. 13305	ABM010	The Spring Fling Bouquet by Arabella Bouquets with a Free Designer Glass Vase	1	0	1	SecondDay	Sally Chamberlain	109 S WILSON HEIGHTS RD			COLLINSVILLE	IL	62234-5115	US		Hey Happy Birthday Girlfriend!  And forget this Queen for a day, let’s make it Queen for a year!!! Love, Jaye From Jaye Whitworth	false		
114-7728225-8491424	39257134036394	2020-07-27T04:04:39+00:00	2020-07-26T21:04:39-07:00	2020-07-27T04:32:02+00:00	2020-07-28T06:59:59+00:00	-1	2kx1wmr5qx76mwz@marketplace.amazon.com	deborah huff	+1 415-851-9136 ext. 78600	ABM010	The Spring Fling Bouquet by Arabella Bouquets with a Free Designer Glass Vase	1	0	1	SecondDay	eileen moore	8018 CONARROE RD			INDIANAPOLIS	IN	46278-1208	US		I love you..thank you for all you do my beautiful daughter.. From Love mom	false		
113-3251388-6565034	62377496267042	2020-07-27T04:11:10+00:00	2020-07-26T21:11:10-07:00	2020-07-27T04:38:49+00:00	2020-07-29T06:59:59+00:00	-2	fwxmj3z9q32fr08@marketplace.amazon.com	W Maureen Elwood	+1 415-851-9136 ext. 77289	ABR0022	Purchase Now for Delivery by Wednesday | Arabella Farm Direct Bouquet of 12 Fresh Cut Pink Roses with a Free Glass Vase	1	0	1	Expedited	Natalie Nessen	18684 CARRIAGE HILL DR			SAN JOSE	CA	95120-1023	US		We love you and hope you recover fully soon. Love, Mom and Dad Elwood From W Maureen Elwood	false		
112-5541269-2889005	15681120247378	2020-07-27T04:56:45+00:00	2020-07-26T21:56:45-07:00	2020-07-27T05:25:36+00:00	2020-07-29T06:59:59+00:00	-2	fbrs585n2m3vb10@marketplace.amazon.com	Hawon K Kim	+1 929-436-4790 ext. 58482	ABB007	Arabella Farm Direct Bouquet of 24 Fresh Cut Pink Roses with a Free Glass Vase	1	0	1	Expedited	Eunhee Lim	2551 CRANEFORD WAY			SAN RAMON	CA	94582-4677	US		Thank you so much for your help and support--we miss you! Taesung & Hawon From Hawon Ku	false		
114-9627349-1217852	06965606658314	2020-07-27T08:44:13+00:00	2020-07-27T01:44:13-07:00	2020-07-27T09:14:15+00:00	2020-07-30T06:59:59+00:00	-3	gj789cyfwtfxlqd@marketplace.amazon.com	Edward T. Maguire	+1 929-436-4790 ext. 10422	ABR001	Purchase Now for Delivery by Wednesday | Arabella Bouquets 12 Stems of Fresh Cut Red Roses in a Free Designer Glass Vase	1	0	1	Expedited	Patricia Maguire / Brightview	1 SYMMES RD	APT 2		ARLINGTON	MA	02474	US			false		
111-8423783-9405026	24599965691770	2020-07-27T08:51:44+00:00	2020-07-27T01:51:44-07:00	2020-07-27T09:21:28+00:00	2020-07-28T06:59:59+00:00	-1	f8b708cdrg86qdd@marketplace.amazon.com	shawn lein	+1 415-851-9136 ext. 74352	ABR004	Arabella Farm Direct Bouquet of 12 Fresh Cut Yellow Roses with a Free Glass Vase	1	0	1	SecondDay	Martha Lein	9002 ROOS RD			HOUSTON	TEXAS	77036-5344	US		Happy birthday Mom!  We wish we were there to help you celebrate! Love Carl, Shawn, Conrey and Bear From Carl Lein	false		
