order-id	order-item-id	purchase-date	payments-date	reporting-date	promise-date	days-past-promise	buyer-email	buyer-name	buyer-phone-number	sku	product-name	quantity-purchased	quantity-shipped	quantity-to-ship	ship-service-level	recipient-name	ship-address-1	ship-address-2	ship-address-3	ship-city	ship-state	ship-postal-code	ship-country	gift-wrap-type	gift-message-text	is-business-order	purchase-order-number	price-designation
113-8386985-8965016	15234250488530	2020-07-27T17:52:58+00:00	2020-07-27T10:52:58-07:00	2020-07-27T18:26:22+00:00	2020-07-30T06:59:59+00:00	-2	8qp55zfkcgj5ql6@marketplace.amazon.com	William Jordan	+1 929-436-4790 ext. 33024	ABR0022	Purchase Now for Delivery by Thursday | Arabella Farm Direct Bouquet of 12 Fresh Cut Pink Roses with a Free Glass Vase	1	0	1	Expedited	Mary Robertson	4006 HODGES DAIRY RD YANCEYVILLE			YANCEYVILLE	NC	27379-8739	US			false		
111-2037225-5098641	53641768942938	2020-07-27T18:13:00+00:00	2020-07-27T11:13:00-07:00	2020-07-27T18:40:59+00:00	2020-07-30T06:59:59+00:00	-2	535y2z1nmsswwtq@marketplace.amazon.com	Steve Ruch	+1 415-851-9136 ext. 23593	ABR0022	Purchase Now for Delivery by Thursday | Arabella Farm Direct Bouquet of 12 Fresh Cut Pink Roses with a Free Glass Vase	1	0	1	Expedited	Attn: Lisa Ruch	104 GRAND STATION CIR APT 3G			WESTFIELD	IN	46074-7206	US		Happy Birthday! Hope you have a great year. Love you mostestestestestest!  XOXOXOXOXOXO Mom and Dad From Steve Ruch	false		
111-0521230-1930650	43553521490474	2020-07-27T18:28:27+00:00	2020-07-27T11:28:27-07:00	2020-07-27T18:57:07+00:00	2020-07-30T06:59:59+00:00	-2	53vjzy5r3mrcjgx@marketplace.amazon.com	Daniel Afeld	+1 929-436-4790 ext. 45298	ABR001	Purchase Now for Delivery by Thursday | Arabella Bouquets 12 Stems of Fresh Cut Red Roses in a Free Designer Glass Vase	1	0	1	Expedited	Daniel J Afeld	90 N HEDRICK AVE			LECANTO	FL	34461-8927	US		Love you honey! From Daniel Afeld	false		
111-2536311-9545048	32800740891898	2020-07-27T18:45:29+00:00	2020-07-27T11:45:29-07:00	2020-07-27T19:04:56+00:00	2020-07-30T06:59:59+00:00	-2	gv1wz0xr2c92t8z@marketplace.amazon.com	Daniel Boudrias	+1 929-436-4790 ext. 10213	ABR0022	Purchase Now for Delivery by Thursday | Arabella Farm Direct Bouquet of 12 Fresh Cut Pink Roses with a Free Glass Vase	1	0	1	Expedited	ALDO ROSATI	8335 PINE LAKE DR MI 48350			DAVISBURG	MI	48350-2048	US			false		
111-4739254-7597060	28055230714146	2020-07-27T19:28:38+00:00	2020-07-27T12:28:38-07:00	2020-07-27T19:48:42+00:00	2020-07-29T06:59:59+00:00	-1	pv33k2pl8f42gm9@marketplace.amazon.com	Nekhama Pevzner	+1 929-436-4790 ext. 23119	ABR0022	Purchase Now for Delivery by Thursday | Arabella Farm Direct Bouquet of 12 Fresh Cut Pink Roses with a Free Glass Vase	1	0	1	SecondDay	Kate Mescal-Pevzner	13503 SW 58TH AVE			PINECREST	FL	33156-7243	US		Happy Birthday dear Kate! Enjoy the flowers! From Nina and Boris	false		
112-4095947-1212245	12145730639226	2020-07-27T19:44:18+00:00	2020-07-27T12:44:18-07:00	2020-07-27T19:59:16+00:00	2020-07-30T06:59:59+00:00	-2	b3gzx9fpvv7b3hp@marketplace.amazon.com	troy thompson	+1 415-851-9136 ext. 82818	ABR0022	Purchase Now for Delivery by Thursday | Arabella Farm Direct Bouquet of 12 Fresh Cut Pink Roses with a Free Glass Vase	1	0	1	Expedited	Ashley & Nick Giacomini	12300 ROSSLARE RIDGE RD UNIT 301			LUTHERVILLE TIMONIUM	MD	21093-8208	US		Ashley and Nick, Congratulations on your first 5 years of marriage—you have accomplished a lot, May you enjoy many more years together in a good and happy marriage. Dad/Troy From troy thompson	false		
114-3969848-2615465	36678495325730	2020-07-27T19:38:40+00:00	2020-07-27T12:38:40-07:00	2020-07-27T20:02:24+00:00	2020-07-29T06:59:59+00:00	-1	626mvqhz9t66snc@marketplace.amazon.com	Mike Rogers	+1 415-851-9136 ext. 43365	ABR012	Arabella Farm Direct Bouquet of 18 Fresh Cut Pink Roses with a Free Glass Vase	1	0	1	SecondDay	Victoria Shoe	1125 MONTICELLO DR			AZLE	TX	76020-5138	US		Have a beautiful day! From Love, Mike	false		
113-9526541-6248258	11657741844898	2020-07-27T19:41:16+00:00	2020-07-27T12:41:16-07:00	2020-07-27T20:09:47+00:00	2020-07-29T06:59:59+00:00	-1	pzkjzcbhktwk7s0@marketplace.amazon.com	Sheri Lloyd	+1 929-436-4790 ext. 57080	ABR0022	Purchase Now for Delivery by Thursday | Arabella Farm Direct Bouquet of 12 Fresh Cut Pink Roses with a Free Glass Vase	1	0	1	SecondDay	Pam Watanabe	1195 LONGFELLOW AVE			CAMPBELL	CA	95008-7112	US		Hi PW: Sending lots of love and prayers to you and Kea! Love, Gabby 💗 From Sheri Lloyd	false		
111-0147076-7313857	62367746978514	2020-07-27T19:48:43+00:00	2020-07-27T12:48:43-07:00	2020-07-27T20:18:07+00:00	2020-07-30T06:59:59+00:00	-2	bq1nkkb4tsp4jxr@marketplace.amazon.com	Kay Bardoorian	+1 929-436-4790 ext. 06988	ABM002	Arabella Bouquets Fresh Cut White Calla Lilies in a Free Designer Glass Vase	1	0	1	Expedited	Shannon Kinikles	105 W ALVA ST			TAMPA	FL	33603-3613	US		Hi Shannon, Enjoy your gift! From Kay Bardoorian	false		
112-3321692-3977856	30639782559698	2020-07-27T20:17:21+00:00	2020-07-27T13:17:21-07:00	2020-07-27T20:46:06+00:00	2020-07-29T06:59:59+00:00	-1	1s3jqgf9rm4p7v8@marketplace.amazon.com	John B. Delebo	+1 415-851-9136 ext. 61922	ABR0055	Purchase Now for Delivery by Thursday | Arabella Farm Direct Bouquet of 12 Stems of Fresh Cut Hot Pink Roses in a Free Designer Glass Vase	1	0	1	SecondDay	Arlaine Delebo	WHEATLAND 1118 9TH AVE APT 208			LANGDON	ND	58249-1907	US		Happiest of Birthdays! From John, Terri, Ross, Jack, Delilah and Cuthbert	false		
113-4410139-7515468	32536736214954	2020-07-27T20:22:27+00:00	2020-07-27T13:22:27-07:00	2020-07-27T20:52:19+00:00	2020-07-29T06:59:59+00:00	-1	rprz4hcwsd8vnpf@marketplace.amazon.com	Xavier	+1 415-851-9136 ext. 01399	ABR0022	Purchase Now for Delivery by Thursday | Arabella Farm Direct Bouquet of 12 Fresh Cut Pink Roses with a Free Glass Vase	1	0	1	SecondDay	Leantha Willhight	10480 N LYNN CIR APT # 29 A			MIRA LOMA	CA	91752-1354	US			false		
111-5158017-1411404	55535247444482	2020-07-27T20:33:47+00:00	2020-07-27T13:33:47-07:00	2020-07-27T21:01:29+00:00	2020-07-30T06:59:59+00:00	-2	js5rjmp03rd916y@marketplace.amazon.com	Richard Mann	+1 929-436-4790 ext. 59505	ABR0022	Purchase Now for Delivery by Thursday | Arabella Farm Direct Bouquet of 12 Fresh Cut Pink Roses with a Free Glass Vase	1	0	1	Expedited	hazel mabry	5923 SADDLERIDGE			SPRINGDALE	AR	72762-8108	US			false		
113-4733132-1377035	01637697964658	2020-07-27T20:34:05+00:00	2020-07-27T13:34:05-07:00	2020-07-27T21:01:31+00:00	2020-07-30T06:59:59+00:00	-2	by0l8l3d6c8n4y6@marketplace.amazon.com	christina goodell	+1 415-851-9136 ext. 65808	ABR0055	Purchase Now for Delivery by Thursday | Arabella Farm Direct Bouquet of 12 Stems of Fresh Cut Hot Pink Roses in a Free Designer Glass Vase	1	0	1	Expedited	Madison Goodell	4111 E FEEMSTER AVE			VISALIA	CA	93292-9061	US		Congratulations on your promotion! So very proud of you! From christina	false		
111-6555230-5736202	00093303550386	2020-07-27T20:41:03+00:00	2020-07-27T13:41:03-07:00	2020-07-27T21:07:10+00:00	2020-07-30T06:59:59+00:00	-2	4bk3b6vrfv8n5t4@marketplace.amazon.com	Diane Graybill	+1 929-436-4790 ext. 58853	ABR0022	Purchase Now for Delivery by Thursday | Arabella Farm Direct Bouquet of 12 Fresh Cut Pink Roses with a Free Glass Vase	1	0	1	Expedited	Viola Peachey	4292 PEACHEY RD			PETERSBURG	PA	16669-2642	US			false		
111-4984045-1333001	24095205420586	2020-07-27T21:04:36+00:00	2020-07-27T14:04:36-07:00	2020-07-27T21:31:38+00:00	2020-07-30T06:59:59+00:00	-2	7zgjl1f3vzwxcjr@marketplace.amazon.com	Rhonda Beirne	+1 929-436-4790 ext. 07729	ABM010	The Spring Fling Bouquet by Arabella Bouquets with a Free Designer Glass Vase	1	0	1	Expedited	Margaret O'Neill	23 ABRIC DR			TRUMBULL	CT	06611-3401	US		Dear mama, thank you for giving me a birthday!!! I love you....xxox From Rhonda Beirne	false		
113-5560849-2557827	31860695718642	2020-07-27T21:22:20+00:00	2020-07-27T14:22:20-07:00	2020-07-27T21:50:18+00:00	2020-07-29T06:59:59+00:00	-1	28r8hh4glx6y6tp@marketplace.amazon.com	Lyle Whitlock	+1 929-436-4790 ext. 29878	ABR0022	Purchase Now for Delivery by Thursday | Arabella Farm Direct Bouquet of 12 Fresh Cut Pink Roses with a Free Glass Vase	1	0	1	SecondDay	Lyle Whitlock	20586 E CALEY DR			CENTENNIAL	CO	80016-3801	US			false		
113-1800037-7300206	34809994423986	2020-07-27T21:34:50+00:00	2020-07-27T14:34:50-07:00	2020-07-27T21:57:07+00:00	2020-07-30T06:59:59+00:00	-2	7gkbxnqwkpc7jz2@marketplace.amazon.com	Dean Merrill	+1 415-851-9136 ext. 06747	ABR0022	Purchase Now for Delivery by Thursday | Arabella Farm Direct Bouquet of 12 Fresh Cut Pink Roses with a Free Glass Vase	1	0	1	Expedited	Linda Danielson	3553 N 159TH LN			GOODYEAR	AZ	85395-8058	US		Love and prayers for a quick recovery! Grace and Dean From Grace and Dean Merrill	false		
112-0699234-6165822	02834201612346	2020-07-27T21:45:37+00:00	2020-07-27T14:45:37-07:00	2020-07-27T22:16:15+00:00	2020-07-30T06:59:59+00:00	-2	l5d4xfjng93txxp@marketplace.amazon.com	Jonathan Lopez	+1 415-851-9136 ext. 70669	ABR0022	Purchase Now for Delivery by Thursday | Arabella Farm Direct Bouquet of 12 Fresh Cut Pink Roses with a Free Glass Vase	1	0	1	Expedited	Jonathan Lopez	6550 S GOLDENROD RD UNIT B			ORLANDO	FL	32822-3494	US			false		
112-2976986-7556236	48869041781570	2020-07-27T22:01:01+00:00	2020-07-27T15:01:01-07:00	2020-07-27T22:28:31+00:00	2020-07-29T06:59:59+00:00	-1	8xrd0x705md1rm5@marketplace.amazon.com	Myishia S. Dean	+1 929-436-4790 ext. 93255	ABR0055	Purchase Now for Delivery by Thursday | Arabella Farm Direct Bouquet of 12 Stems of Fresh Cut Hot Pink Roses in a Free Designer Glass Vase	1	0	1	SecondDay	Kaylah Paetow	185 SENECA TRL			CRESTVIEW	FL	32536-6546	US		I know you love carnations but  I could find any to get there quick enough. love you From Myishia S. Dean	false		
113-9707024-9196248	67266768564738	2020-07-27T22:18:27+00:00	2020-07-27T15:18:27-07:00	2020-07-27T22:46:15+00:00	2020-07-30T06:59:59+00:00	-2	x4j6tlyyjrdrqhn@marketplace.amazon.com	Heather Thiel	+1 929-436-4790 ext. 71387	ABM010	The Spring Fling Bouquet by Arabella Bouquets with a Free Designer Glass Vase	1	0	1	Expedited	Jackie King	C/O LAKEVIEW HEALTH CENTER	962 GARLAND ST E		WEST SALEM	WI	54669-1308	US		Happy Birthday Mother Love Heather and Victoria	false		
111-3251563-0988251	39202701923042	2020-07-27T22:48:42+00:00	2020-07-27T15:48:42-07:00	2020-07-27T23:13:34+00:00	2020-07-30T06:59:59+00:00	-2	yjztwz25qsvbs19@marketplace.amazon.com	Matthew Washington	+1 929-436-4790 ext. 92341	ABR0055	Purchase Now for Delivery by Thursday | Arabella Farm Direct Bouquet of 12 Stems of Fresh Cut Hot Pink Roses in a Free Designer Glass Vase	1	0	1	Expedited	Matthew Washington	17573 PINE LN APT 2202			PARKER	CO	80134-6527	US		Love you momma From Matthew Washington	false		
113-2217906-5262662	36569532849114	2020-07-27T22:24:55+00:00	2020-07-27T15:24:55-07:00	2020-07-27T23:18:55+00:00	2020-07-29T06:59:59+00:00	-1	m0cjs4r1nm7qqj0@marketplace.amazon.com	sylvia Quintana	+1 929-436-4790 ext. 67826	ABR0022	Purchase Now for Delivery by Thursday | Arabella Farm Direct Bouquet of 12 Fresh Cut Pink Roses with a Free Glass Vase	1	0	1	SecondDay	jessica mondragon	207 VIA ORO VERDE			FALLBROOK	CA	92028-4133	US		congratulations! for the beautiful girl is the best gift you give me for my Birthday  god bless you old always with love sylvia From sylvia Quintana	false		
111-3119198-0198655	39696996454130	2020-07-27T23:35:13+00:00	2020-07-27T16:35:13-07:00	2020-07-28T00:03:12+00:00	2020-07-30T06:59:59+00:00	-2	z5xp6pn3m0m7dt8@marketplace.amazon.com	Christina Gilroy	+1 929-436-4790 ext. 97176	ABR012	Arabella Farm Direct Bouquet of 18 Fresh Cut Pink Roses with a Free Glass Vase	1	0	1	Expedited	Deb Walden	3855 GLENMONT CT			PORT REPUBLIC	MD	20676-3102	US		Love you MOM and Grammy!!! Have a great day! From Chrissy, Richie and Cora!!	false		
112-2441889-7013837	03228024396106	2020-07-27T23:51:25+00:00	2020-07-27T16:51:25-07:00	2020-07-28T00:13:08+00:00	2020-07-30T06:59:59+00:00	-2	b7fw3s31pndgwm6@marketplace.amazon.com	F. Stokes	+1 929-436-4790 ext. 56651	ABM010	The Spring Fling Bouquet by Arabella Bouquets with a Free Designer Glass Vase	1	0	1	Expedited	Louann Raynor	60 KENSICO ST			STATEN ISLAND	NY	10306-1653	US		Happy Birthday to my  only sister. Miss you.hugs From Your only sister. Hugs	false		
112-7994081-7710662	57888031365546	2020-07-27T23:57:57+00:00	2020-07-27T16:57:57-07:00	2020-07-28T00:25:28+00:00	2020-07-29T06:59:59+00:00	-1	ct5h9stf624vxkg@marketplace.amazon.com	Gabriel Babaoye	+1 415-851-9136 ext. 17181	ABR001	Purchase Now for Delivery by Thursday | Arabella Bouquets 12 Stems of Fresh Cut Red Roses in a Free Designer Glass Vase	1	0	1	SecondDay	Gabriel Babaoye	1971 BURNEY FALLS DR			STOCKTON	CA	95206-4506	US			false		
111-0833080-6606635	66732491451242	2020-07-27T23:56:51+00:00	2020-07-27T16:56:51-07:00	2020-07-28T00:27:29+00:00	2020-07-30T06:59:59+00:00	-2	0xb5782b6lrthjg@marketplace.amazon.com	Shameeza	+1 415-851-9136 ext. 50683	ABM0033	Purchase Now for Delivery by Thursday | Arabella Farm Direct Bouquet of Fresh Cut White Hydrangea with a Free Glass Vase	1	0	1	Expedited	Shameeza ali	13517 NORTHERN BLVD  3B			FLUSHING	NY	11354-4006	US			false		
113-7965304-6554618	22603466910002	2020-07-28T00:09:07+00:00	2020-07-27T17:09:07-07:00	2020-07-28T00:31:18+00:00	2020-07-29T06:59:59+00:00	-1	0kkyyjgm8knnlm9@marketplace.amazon.com	HIROYO ITO	+1 415-851-9136 ext. 91433	ABR0022	Purchase Now for Delivery by Thursday | Arabella Farm Direct Bouquet of 12 Fresh Cut Pink Roses with a Free Glass Vase	1	0	1	SecondDay	Hideyo Isaji	162 HARGROVE			IRVINE	CA	92620-7326	US		Happy Birthday to you! I always appreciate your kindness, support, and friendship! Best wishes for you year! From HIROYO:)	false		
113-1820173-2337860	20164102616250	2020-07-28T00:03:43+00:00	2020-07-27T17:03:43-07:00	2020-07-28T00:31:40+00:00	2020-07-30T06:59:59+00:00	-2	3f9hq11pq67kssy@marketplace.amazon.com	Nancy Rubin	+1 929-436-4790 ext. 99007	ABR0033	Purchase Now for Delivery by Thursday | Arabella Farm Direct Bouquet of 12 Fresh Cut Orange Roses with a Free Glass Vase	1	0	1	Standard	Meghan Mao	16 ODAY ST N			MAPLEWOOD	MN	55119-4727	US		Welcome Home. Get well soon. From Nancy Rubin	false		
114-5173503-3640224	37536613321890	2020-07-28T00:11:11+00:00	2020-07-27T17:11:11-07:00	2020-07-28T00:36:26+00:00	2020-07-30T06:59:59+00:00	-2	zxgwcfz5ydsh5sc@marketplace.amazon.com	CARLA	+1 929-436-4790 ext. 29219	ABR0022	Purchase Now for Delivery by Thursday | Arabella Farm Direct Bouquet of 12 Fresh Cut Pink Roses with a Free Glass Vase	1	0	1	Expedited	Camellia Branch	3377 BEAGLE BLVD			COLUMBUS	OH	43232-7511	US		CONGRATULATIONS Camellia on your retirement! Love John,Carla and Vivica From CARLA	false		
113-3832722-1631419	65987346835850	2020-07-28T00:23:04+00:00	2020-07-27T17:23:04-07:00	2020-07-28T00:52:02+00:00	2020-07-30T06:59:59+00:00	-2	ts009dtr93zxdbp@marketplace.amazon.com	Travis Evans	+1 929-436-4790 ext. 47864	ABR012	Arabella Farm Direct Bouquet of 18 Fresh Cut Pink Roses with a Free Glass Vase	1	0	1	Expedited	Harleigh Whitley	555 INTERNATIONAL PARK			NEWNAN	GA	30265-2391	US		We love you!!!! Happy Birthday!!! From Travis & Amber Evans	false		
113-3964627-9297035	13672796873938	2020-07-28T00:36:29+00:00	2020-07-27T17:36:29-07:00	2020-07-28T01:02:46+00:00	2020-07-29T06:59:59+00:00	-1	7vcxkjs57cxlmrl@marketplace.amazon.com	Marlene A Orrell	+1 415-851-9136 ext. 86369	ABM010	The Spring Fling Bouquet by Arabella Bouquets with a Free Designer Glass Vase	1	0	1	SecondDay	Jane Rockwell	30221 ALDER RD			PUNTA GORDA	FL	33982-1393	US		Enjoy your gift! Wish we could be together!Love  Mo & Kikki-jean From Marlene A Orrell	false		
111-8489482-9433026	31846613723042	2020-07-28T00:40:17+00:00	2020-07-27T17:40:17-07:00	2020-07-28T01:09:36+00:00	2020-07-30T06:59:59+00:00	-2	846kt458v3d84xm@marketplace.amazon.com	H. R. Herring	+1 929-436-4790 ext. 75305	ABR0022	Purchase Now for Delivery by Thursday | Arabella Farm Direct Bouquet of 12 Fresh Cut Pink Roses with a Free Glass Vase	1	0	1	Expedited	glenda nunez	THE RANCHITO GRILL AND MEXICAN RESTAURANT	2310 W WACO DR		WACO	TX	76701-1046	US			false		
113-6839591-3485017	65780679650866	2020-07-28T00:45:21+00:00	2020-07-27T17:45:21-07:00	2020-07-28T01:14:09+00:00	2020-07-29T06:59:59+00:00	-1	m10bpg2v6n0ycf1@marketplace.amazon.com	Salma Shariff	+1 415-851-9136 ext. 49135	ABR0022	Purchase Now for Delivery by Thursday | Arabella Farm Direct Bouquet of 12 Fresh Cut Pink Roses with a Free Glass Vase	1	0	1	SecondDay	Fathima Shariff	1419 Peerless Place, #211			Los Angeles	CA	90035	US		Dear Aunty Najah, Umma, and Appa, Eid Mubarak! Love, Sameed, Rashad & Ameena From Salma & Daryl	false		
114-3781833-5826624	25448022585378	2020-07-28T00:48:33+00:00	2020-07-27T17:48:33-07:00	2020-07-28T01:14:10+00:00	2020-07-30T06:59:59+00:00	-2	qzy72zj8pvd205m@marketplace.amazon.com	Julie K Kissane	+1 929-436-4790 ext. 67287	ABR012	Arabella Farm Direct Bouquet of 18 Fresh Cut Pink Roses with a Free Glass Vase	1	0	1	Expedited	Patty Wells	9029 SW 81ST LOOP			OCALA	FL	34481-0554	US		Thank you for taking such good care of Savannah for me.  Julie From Julie K Kissane	false		
114-0512608-3059448	53966415743434	2020-07-28T01:20:36+00:00	2020-07-27T18:20:36-07:00	2020-07-28T01:48:00+00:00	2020-07-30T06:59:59+00:00	-2	zxlhzfcvmg1vmzs@marketplace.amazon.com	Strauss	+1 929-436-4790 ext. 59856	ABR0022	Purchase Now for Delivery by Thursday | Arabella Farm Direct Bouquet of 12 Fresh Cut Pink Roses with a Free Glass Vase	1	0	1	Expedited	Mrs. Guthrie	327 OAKRIDGE BLVD			LYNCHBURG	VA	24502-4719	US		Nannie, We love you!  Happy Birthday! From BG, Lee, Tay, Eli, Zac, Hanna and Frank	false		
111-9380598-5603453	56848900917106	2020-07-28T01:25:40+00:00	2020-07-27T18:25:40-07:00	2020-07-28T01:54:37+00:00	2020-07-29T06:59:59+00:00	-1	xkm3qjh8vqb21yf@marketplace.amazon.com	Margaret	+1 929-436-4790 ext. 45357	ABR0022	Purchase Now for Delivery by Thursday | Arabella Farm Direct Bouquet of 12 Fresh Cut Pink Roses with a Free Glass Vase	1	0	1	SecondDay	Gisele Miranda	18 WILLARD RD			STURBRIDGE	MA	01566-1213	US		Happiest of Birthdays to you! 💖 From Miguel and Margaret	false		
112-6061060-1115464	17900400361194	2020-07-28T01:53:24+00:00	2020-07-27T18:53:24-07:00	2020-07-28T02:19:37+00:00	2020-07-29T06:59:59+00:00	-1	69srsx05gj6qppx@marketplace.amazon.com	Christine Shepard	+1 929-436-4790 ext. 89676	ABM010	The Spring Fling Bouquet by Arabella Bouquets with a Free Designer Glass Vase	1	0	1	SecondDay	Janet Lewis	807 ROTONDA CIR			ROTONDA WEST	FL	33947-1832	US		Thank you so much for all you do for Dad! We know it's not always easy and want you know we are so very grateful!! From Chris, Kathy, and Patti	false		
112-2450412-9433064	35164066446354	2020-07-28T01:55:51+00:00	2020-07-27T18:55:51-07:00	2020-07-28T02:22:13+00:00	2020-07-30T06:59:59+00:00	-2	b8n5fy1yfhrk6qt@marketplace.amazon.com	Valentin canahui	+1 929-436-4790 ext. 12348	ABR0055	Purchase Now for Delivery by Thursday | Arabella Farm Direct Bouquet of 12 Stems of Fresh Cut Hot Pink Roses in a Free Designer Glass Vase	1	0	1	Expedited	Maria guadalupe perez	91770 66TH AVE	A 104 APARTAMENTO A 104 A 104		MECCA	CA	92254-6230	US			false		
112-7959556-2004211	19175510880466	2020-07-28T02:02:29+00:00	2020-07-27T19:02:29-07:00	2020-07-28T02:31:52+00:00	2020-07-30T06:59:59+00:00	-2	06982pzcnfjc37g@marketplace.amazon.com	Brandon	+1 929-436-4790 ext. 42636	ABR0022	Purchase Now for Delivery by Thursday | Arabella Farm Direct Bouquet of 12 Fresh Cut Pink Roses with a Free Glass Vase	3	0	3	Expedited	Ms Pearce Ms Pearce Ms Pearce	636 E SPRING HILL DR			MURRAY	UT	84107-5014	US			false		
113-3923643-6084250	19390848029986	2020-07-28T02:17:21+00:00	2020-07-27T19:17:21-07:00	2020-07-28T02:46:09+00:00	2020-07-29T06:59:59+00:00	-1	c35q2n0srs9wjdj@marketplace.amazon.com	Janice	+1 929-436-4790 ext. 41854	ABR0055	Purchase Now for Delivery by Thursday | Arabella Farm Direct Bouquet of 12 Stems of Fresh Cut Hot Pink Roses in a Free Designer Glass Vase	1	0	1	SecondDay	Leslie Pineda	6260 99TH ST APT 1103			REGO PARK	NY	11374-6022	US		Hey Leslie! I’m so grateful for our friendship :)! Hope you have a great day & see you soon! Love, Janice From Janice	false		
111-4302637-7582607	67687065763530	2020-07-28T02:38:36+00:00	2020-07-27T19:38:36-07:00	2020-07-28T03:00:11+00:00	2020-07-30T06:59:59+00:00	-2	yqqg5njp5b8ld47@marketplace.amazon.com	Donna Zulch	+1 929-436-4790 ext. 12502	ABM010	The Spring Fling Bouquet by Arabella Bouquets with a Free Designer Glass Vase	1	0	1	Expedited	Helen Sayegh	582 5TH ST			BROOKLYN	NY	11215-3534	US		Hoping that each day brings you renewed strength and brighter moments. I wish you a fast recovery from your surgery!!  Thinking of you!!   Love,  Donna and Ray From Donna Zulch	false		
114-4900824-4191410	52809857867986	2020-07-28T02:39:42+00:00	2020-07-27T19:39:42-07:00	2020-07-28T03:07:26+00:00	2020-07-30T06:59:59+00:00	-2	c70728dpb7y2w4q@marketplace.amazon.com	Faith Fullmer	+1 929-436-4790 ext. 93413	ABR0022	Purchase Now for Delivery by Thursday | Arabella Farm Direct Bouquet of 12 Fresh Cut Pink Roses with a Free Glass Vase	1	0	1	Expedited	Irene Fullmer	8629 SWAN ST			NEWAYGO	MI	49337-8632	US			false		
113-0833330-0731444	68355390149362	2020-07-28T02:54:11+00:00	2020-07-27T19:54:11-07:00	2020-07-28T03:24:49+00:00	2020-07-30T06:59:59+00:00	-2	b0k1fm36mw3mvfy@marketplace.amazon.com	Kathleen A Sours	+1 929-436-4790 ext. 51805	ABR013	Purchase Now for Delivery by Thursday | Arabella Farm Direct Bouquet of 18 Fresh Cut Yellow Roses with a Free Glass Vase	1	0	1	Expedited	Mary Anne Sours	19404 LYMANS LN			STRONGSVILLE	OH	44149-8752	US			false		
112-9664451-2405004	43267789162234	2020-07-28T03:35:40+00:00	2020-07-27T20:35:40-07:00	2020-07-28T04:00:09+00:00	2020-07-29T06:59:59+00:00	-1	7x08lfdyz74pkbn@marketplace.amazon.com	Brenda A. Arnold	+1 929-436-4790 ext. 09674	ABR0055	Purchase Now for Delivery by Thursday | Arabella Farm Direct Bouquet of 12 Stems of Fresh Cut Hot Pink Roses in a Free Designer Glass Vase	1	0	1	SecondDay	Kathryn E Mills	503 COLONIAL DR			BROOKSVILLE	FL	34601-1204	US		HAPPY BIRTHDAY MOM, SO, THANKFUL YOU ARE FEELING BETTER.  HOPEFULLY YOU WILL ENJOY YOUR SPECIAL DAY! THANK YOU FOR CHOOSING TO BE MY MOM!   WE LOVE YOU... 4-EVER AND A DAY..!   STEVE & BRENDA From Brenda A. Arnold	false		
113-3485797-0171443	34988976030266	2020-07-28T03:24:04+00:00	2020-07-27T20:24:04-07:00	2020-07-28T04:02:16+00:00	2020-07-29T06:59:59+00:00	-1	q3447m5hn1gw7vq@marketplace.amazon.com	denis j tighe	+1 929-436-4790 ext. 38882	ABR0022	Purchase Now for Delivery by Thursday | Arabella Farm Direct Bouquet of 12 Fresh Cut Pink Roses with a Free Glass Vase	1	0	1	SecondDay	Karen Tighe	212 BEACH 123RD ST APT # 1R			ROCKAWAY PARK	NY	11694-1829	US		Happy Birthday, Karen! From Love, Aunt Carolyne and Uncle Denis	false		
113-7137846-3326642	50566815173890	2020-07-28T03:41:17+00:00	2020-07-27T20:41:17-07:00	2020-07-28T04:11:56+00:00	2020-07-30T06:59:59+00:00	-2	gpmvfxfk7mmfxxy@marketplace.amazon.com	Richard Gauci	+1 929-436-4790 ext. 44624	ABR0022	Purchase Now for Delivery by Thursday | Arabella Farm Direct Bouquet of 12 Fresh Cut Pink Roses with a Free Glass Vase	1	0	1	Expedited	Richard Gauci	303 HILLBROOK LN			NEWBERRY	SC	29108-9338	US			true		Business Price
113-8950699-3802646	27932360257714	2020-07-28T03:52:36+00:00	2020-07-27T20:52:36-07:00	2020-07-28T04:20:38+00:00	2020-07-30T06:59:59+00:00	-2	zb338mps5xkx032@marketplace.amazon.com	Augusto Vargas	+1 415-851-9136 ext. 50540	ABM010	The Spring Fling Bouquet by Arabella Bouquets with a Free Designer Glass Vase	1	0	1	Expedited	Augusto Vargas	6815 STONEWOOD CT			EDEN PRAIRIE	MN	55346-2947	US			false		
114-2315314-6145842	45891852326674	2020-07-28T04:18:02+00:00	2020-07-27T21:18:02-07:00	2020-07-28T04:48:24+00:00	2020-07-29T06:59:59+00:00	-1	s20clhnw804x21l@marketplace.amazon.com	meme	+1 929-436-4790 ext. 29033	ABR0022	Purchase Now for Delivery by Thursday | Arabella Farm Direct Bouquet of 12 Fresh Cut Pink Roses with a Free Glass Vase	1	0	1	SecondDay	Waleed Saud Alreshidi	1013 5TH ST SE	BEMIDJI MN 56601 USA		BEMIDJI	MN	56601-3538	US		Eid Mubarak my lovely Waleed! From Mom 🌸🌸🌸❤️	false		
112-8496598-4091419	29676746798610	2020-07-28T05:06:49+00:00	2020-07-27T22:06:49-07:00	2020-07-28T05:35:16+00:00	2020-07-29T06:59:59+00:00	-1	w6ps0ky6y5xx4nm@marketplace.amazon.com	Alex	+1 415-851-9136 ext. 13091	ABR0022	Purchase Now for Delivery by Thursday | Arabella Farm Direct Bouquet of 12 Fresh Cut Pink Roses with a Free Glass Vase	1	0	1	SecondDay	Emily Ellen Hamm	6726 W MEQUON RD  53092			MEQUON	WI	53092-1819	US		Happy girlfriends day to the most wonderful girlfriend on Earth. From Alex	false		
112-4313099-3313868	13282375470722	2020-07-28T05:27:53+00:00	2020-07-27T22:27:53-07:00	2020-07-28T05:58:20+00:00	2020-07-30T06:59:59+00:00	-2	grqnb7msxzdgfyk@marketplace.amazon.com	Sergio Thomas	+1 929-436-4790 ext. 84610	ABR001	Purchase Now for Delivery by Thursday | Arabella Bouquets 12 Stems of Fresh Cut Red Roses in a Free Designer Glass Vase	1	0	1	Expedited	Trisha Castillo	3616 3RD AVE			LOS ANGELES	CA	90018-4245	US			false		
114-4448768-7647408	44090297410962	2020-07-28T05:42:11+00:00	2020-07-27T22:42:11-07:00	2020-07-28T06:10:38+00:00	2020-07-30T06:59:59+00:00	-2	74fk540bv8wn459@marketplace.amazon.com	Sandra Hansen	+1 929-436-4790 ext. 63376	ABR0022	Purchase Now for Delivery by Thursday | Arabella Farm Direct Bouquet of 12 Fresh Cut Pink Roses with a Free Glass Vase	1	0	1	Expedited	sandra hansen	8272 MANIFESTO CIR			HUNTINGTON BEACH	CA	92646-1619	US		In memory of Pepper, we are mourning with you! Love, Sandra, Scot, Morgan, Maddie & Lucas From The Hansen‘s	false		
111-1991015-1857856	28845678924842	2020-07-28T06:03:32+00:00	2020-07-27T23:03:32-07:00	2020-07-28T06:29:22+00:00	2020-07-29T06:59:59+00:00	-1	37ryg8198zq83cc@marketplace.amazon.com	Maceo	+1 415-851-9136 ext. 45079	ABR0022	Purchase Now for Delivery by Thursday | Arabella Farm Direct Bouquet of 12 Fresh Cut Pink Roses with a Free Glass Vase	1	0	1	SecondDay	Joy Greenberg	2713 ANTONIO DR UNIT 212			CAMARILLO	CA	93010-1462	US		Hope these blossoms brighten your day! We love you! :)   Laura & Maceo From Maceo & Laura	false		
113-3480083-7821823	28718522422690	2020-07-28T06:32:22+00:00	2020-07-27T23:32:22-07:00	2020-07-28T06:57:17+00:00	2020-07-29T06:59:59+00:00	-1	yb3q28h2nfz52vk@marketplace.amazon.com	Magnus Bâckström	+1 929-436-4790 ext. 45773	ABR0022	Purchase Now for Delivery by Thursday | Arabella Farm Direct Bouquet of 12 Fresh Cut Pink Roses with a Free Glass Vase	1	0	1	SecondDay	Antonia Ansgariusson	455 HUDSON ST APT 36			NEW YORK	NY	10014-3792	US		Grattis på 30-årsdagen! 30 Juli 2020. Happy 30th Birthday! July 30th 2020. From Kramar från bästa familjen!	false		
113-7324061-8161046	64644818923090	2020-07-28T07:00:07+00:00	2020-07-28T00:00:07-07:00	2020-07-28T07:35:39+00:00	2020-07-29T06:59:59+00:00	-1	px04vby7sg089z0@marketplace.amazon.com	Derek Halton	+1 415-851-9136 ext. 46570	ABR0022	Purchase Now for Delivery by Thursday | Arabella Farm Direct Bouquet of 12 Fresh Cut Pink Roses with a Free Glass Vase	1	0	1	SecondDay	Anasa Halton	4727 E WARNER RD APT 2087			PHOENIX	AZ	85044-3349	US		Happy Anniversary beautiful! 6 years with the love of my life and can’t to spend the rest of our lives together! From Forever Love	false		
111-0059714-1206644	48468994719202	2020-07-28T07:45:45+00:00	2020-07-28T00:45:45-07:00	2020-07-28T08:11:49+00:00	2020-07-29T06:59:59+00:00	-1	9j5tbfnv0zxwg8f@marketplace.amazon.com	Tberg	+1 929-436-4790 ext. 32911	ABR0022	Purchase Now for Delivery by Thursday | Arabella Farm Direct Bouquet of 12 Fresh Cut Pink Roses with a Free Glass Vase	1	0	1	SecondDay	Cheryl Bennett	7400 W FLAMINGO RD APT 1078			LAS VEGAS	NV	89147-4367	US		You are my heart desire, Your thoughts in my mind brings me joy and happiness. I Love you😘 From Joseph Galhardo	false		
111-7552758-3917038	40602324902234	2020-07-28T08:09:48+00:00	2020-07-28T01:09:48-07:00	2020-07-28T08:37:02+00:00	2020-07-29T06:59:59+00:00	-1	r5bmrpwtv8slqqy@marketplace.amazon.com	Daniel E. Smith	+1 929-436-4790 ext. 26006	ABR0022	Purchase Now for Delivery by Thursday | Arabella Farm Direct Bouquet of 12 Fresh Cut Pink Roses with a Free Glass Vase	1	0	1	SecondDay	Sarora Salmonowicz-Yorks	3865 LINDSLEY DR			METAMORA	MI	48455-9765	US		Dearest Sarora Happy Birthday! All Our Love, Dan & Chris	false		
112-8334887-3509807	04942068216570	2020-07-28T09:01:55+00:00	2020-07-28T02:01:55-07:00	2020-07-28T09:31:53+00:00	2020-07-29T06:59:59+00:00	-1	9mp25nj8zdbf82g@marketplace.amazon.com	Hanna	+1 929-436-4790 ext. 40889	ABR004	Arabella Farm Direct Bouquet of 12 Fresh Cut Yellow Roses with a Free Glass Vase	1	0	1	SecondDay	Hanna Howard	24 EAGLE POINT CT			PARK CITY	UT	84060-6863	US			false		
113-9174507-2202667	32765277041362	2020-07-28T09:03:07+00:00	2020-07-28T02:03:07-07:00	2020-07-28T09:33:40+00:00	2020-07-31T06:59:59+00:00	-3	nq3f3jj7z722xf5@marketplace.amazon.com	Jude Cassidy	+1 929-436-4790 ext. 82522	ABR0022	Purchase Now for Delivery by Thursday | Arabella Farm Direct Bouquet of 12 Fresh Cut Pink Roses with a Free Glass Vase	1	0	1	Expedited	Mari Robn Cassidy	10 GLENRIDGE LN			PHILLIPS RANCH	CA	91766-4705	US			false		
114-6837865-5068227	42891531926786	2020-07-28T09:10:20+00:00	2020-07-28T02:10:20-07:00	2020-07-28T09:38:26+00:00	2020-07-29T06:59:59+00:00	-1	2bg4cghpbmyvj0x@marketplace.amazon.com	Alison Trinidad	+1 929-436-4790 ext. 22666	ABR0022	Purchase Now for Delivery by Thursday | Arabella Farm Direct Bouquet of 12 Fresh Cut Pink Roses with a Free Glass Vase	1	0	1	SecondDay	Shabboo Likouris	1412 HOMERIC CT			MCLEAN	VA	22101-5610	US		HAPPY BIRTHDAY!!!! xoxo From Alison Trinidad	false		
