order-id	order-item-id	purchase-date	payments-date	reporting-date	promise-date	days-past-promise	buyer-email	buyer-name	buyer-phone-number	sku	product-name	quantity-purchased	quantity-shipped	quantity-to-ship	ship-service-level	recipient-name	ship-address-1	ship-address-2	ship-address-3	ship-city	ship-state	ship-postal-code	ship-country	gift-wrap-type	gift-message-text	is-business-order	purchase-order-number	price-designation
113-8386985-8965016	15234250488530	2020-07-27T17:52:58+00:00	2020-07-27T10:52:58-07:00	2020-07-27T18:26:22+00:00	2020-07-30T06:59:59+00:00	-2	8qp55zfkcgj5ql6@marketplace.amazon.com	William Jordan	+1 929-436-4790 ext. 33024	ABR0022	Purchase Now for Delivery by Thursday | Arabella Farm Direct Bouquet of 12 Fresh Cut Pink Roses with a Free Glass Vase	1	0	1	Expedited	Mary Robertson	4006 HODGES DAIRY RD YANCEYVILLE			YANCEYVILLE	NC	27379-8739	US			false		
111-2037225-5098641	53641768942938	2020-07-27T18:13:00+00:00	2020-07-27T11:13:00-07:00	2020-07-27T18:40:59+00:00	2020-07-30T06:59:59+00:00	-2	535y2z1nmsswwtq@marketplace.amazon.com	Steve Ruch	+1 415-851-9136 ext. 23593	ABR0022	Purchase Now for Delivery by Thursday | Arabella Farm Direct Bouquet of 12 Fresh Cut Pink Roses with a Free Glass Vase	1	0	1	Expedited	Attn: Lisa Ruch	104 GRAND STATION CIR APT 3G			WESTFIELD	IN	46074-7206	US		Happy Birthday! Hope you have a great year. Love you mostestestestestest!  XOXOXOXOXOXO Mom and Dad From Steve Ruch	false		
111-0521230-1930650	43553521490474	2020-07-27T18:28:27+00:00	2020-07-27T11:28:27-07:00	2020-07-27T18:57:07+00:00	2020-07-30T06:59:59+00:00	-2	53vjzy5r3mrcjgx@marketplace.amazon.com	Daniel Afeld	+1 929-436-4790 ext. 45298	ABR001	Purchase Now for Delivery by Thursday | Arabella Bouquets 12 Stems of Fresh Cut Red Roses in a Free Designer Glass Vase	1	0	1	Expedited	Daniel J Afeld	90 N HEDRICK AVE			LECANTO	FL	34461-8927	US		Love you honey! From Daniel Afeld	false		
111-2536311-9545048	32800740891898	2020-07-27T18:45:29+00:00	2020-07-27T11:45:29-07:00	2020-07-27T19:04:56+00:00	2020-07-30T06:59:59+00:00	-2	gv1wz0xr2c92t8z@marketplace.amazon.com	Daniel Boudrias	+1 929-436-4790 ext. 10213	ABR0022	Purchase Now for Delivery by Thursday | Arabella Farm Direct Bouquet of 12 Fresh Cut Pink Roses with a Free Glass Vase	1	0	1	Expedited	ALDO ROSATI	8335 PINE LAKE DR MI 48350			DAVISBURG	MI	48350-2048	US			false		
111-4739254-7597060	28055230714146	2020-07-27T19:28:38+00:00	2020-07-27T12:28:38-07:00	2020-07-27T19:48:42+00:00	2020-07-29T06:59:59+00:00	-1	pv33k2pl8f42gm9@marketplace.amazon.com	Nekhama Pevzner	+1 929-436-4790 ext. 23119	ABR0022	Purchase Now for Delivery by Thursday | Arabella Farm Direct Bouquet of 12 Fresh Cut Pink Roses with a Free Glass Vase	1	0	1	SecondDay	Kate Mescal-Pevzner	13503 SW 58TH AVE			PINECREST	FL	33156-7243	US		Happy Birthday dear Kate! Enjoy the flowers! From Nina and Boris	false		
112-4095947-1212245	12145730639226	2020-07-27T19:44:18+00:00	2020-07-27T12:44:18-07:00	2020-07-27T19:59:16+00:00	2020-07-30T06:59:59+00:00	-2	b3gzx9fpvv7b3hp@marketplace.amazon.com	troy thompson	+1 415-851-9136 ext. 82818	ABR0022	Purchase Now for Delivery by Thursday | Arabella Farm Direct Bouquet of 12 Fresh Cut Pink Roses with a Free Glass Vase	1	0	1	Expedited	Ashley & Nick Giacomini	12300 ROSSLARE RIDGE RD UNIT 301			LUTHERVILLE TIMONIUM	MD	21093-8208	US		Ashley and Nick, Congratulations on your first 5 years of marriage—you have accomplished a lot, May you enjoy many more years together in a good and happy marriage. Dad/Troy From troy thompson	false		
114-3969848-2615465	36678495325730	2020-07-27T19:38:40+00:00	2020-07-27T12:38:40-07:00	2020-07-27T20:02:24+00:00	2020-07-29T06:59:59+00:00	-1	626mvqhz9t66snc@marketplace.amazon.com	Mike Rogers	+1 415-851-9136 ext. 43365	ABR012	Arabella Farm Direct Bouquet of 18 Fresh Cut Pink Roses with a Free Glass Vase	1	0	1	SecondDay	Victoria Shoe	1125 MONTICELLO DR			AZLE	TX	76020-5138	US		Have a beautiful day! From Love, Mike	false		
113-9526541-6248258	11657741844898	2020-07-27T19:41:16+00:00	2020-07-27T12:41:16-07:00	2020-07-27T20:09:47+00:00	2020-07-29T06:59:59+00:00	-1	pzkjzcbhktwk7s0@marketplace.amazon.com	Sheri Lloyd	+1 929-436-4790 ext. 57080	ABR0022	Purchase Now for Delivery by Thursday | Arabella Farm Direct Bouquet of 12 Fresh Cut Pink Roses with a Free Glass Vase	1	0	1	SecondDay	Pam Watanabe	1195 LONGFELLOW AVE			CAMPBELL	CA	95008-7112	US		Hi PW: Sending lots of love and prayers to you and Kea! Love, Gabby 💗 From Sheri Lloyd	false		
111-0147076-7313857	62367746978514	2020-07-27T19:48:43+00:00	2020-07-27T12:48:43-07:00	2020-07-27T20:18:07+00:00	2020-07-30T06:59:59+00:00	-2	bq1nkkb4tsp4jxr@marketplace.amazon.com	Kay Bardoorian	+1 929-436-4790 ext. 06988	ABM002	Arabella Bouquets Fresh Cut White Calla Lilies in a Free Designer Glass Vase	1	0	1	Expedited	Shannon Kinikles	105 W ALVA ST			TAMPA	FL	33603-3613	US		Hi Shannon, Enjoy your gift! From Kay Bardoorian	false		
112-3321692-3977856	30639782559698	2020-07-27T20:17:21+00:00	2020-07-27T13:17:21-07:00	2020-07-27T20:46:06+00:00	2020-07-29T06:59:59+00:00	-1	1s3jqgf9rm4p7v8@marketplace.amazon.com	John B. Delebo	+1 415-851-9136 ext. 61922	ABR0055	Purchase Now for Delivery by Thursday | Arabella Farm Direct Bouquet of 12 Stems of Fresh Cut Hot Pink Roses in a Free Designer Glass Vase	1	0	1	SecondDay	Arlaine Delebo	WHEATLAND 1118 9TH AVE APT 208			LANGDON	ND	58249-1907	US		Happiest of Birthdays! From John, Terri, Ross, Jack, Delilah and Cuthbert	false		
113-4410139-7515468	32536736214954	2020-07-27T20:22:27+00:00	2020-07-27T13:22:27-07:00	2020-07-27T20:52:19+00:00	2020-07-29T06:59:59+00:00	-1	rprz4hcwsd8vnpf@marketplace.amazon.com	Xavier	+1 415-851-9136 ext. 01399	ABR0022	Purchase Now for Delivery by Thursday | Arabella Farm Direct Bouquet of 12 Fresh Cut Pink Roses with a Free Glass Vase	1	0	1	SecondDay	Leantha Willhight	10480 N LYNN CIR APT # 29 A			MIRA LOMA	CA	91752-1354	US			false		
111-5158017-1411404	55535247444482	2020-07-27T20:33:47+00:00	2020-07-27T13:33:47-07:00	2020-07-27T21:01:29+00:00	2020-07-30T06:59:59+00:00	-2	js5rjmp03rd916y@marketplace.amazon.com	Richard Mann	+1 929-436-4790 ext. 59505	ABR0022	Purchase Now for Delivery by Thursday | Arabella Farm Direct Bouquet of 12 Fresh Cut Pink Roses with a Free Glass Vase	1	0	1	Expedited	hazel mabry	5923 SADDLERIDGE			SPRINGDALE	AR	72762-8108	US			false		
113-4733132-1377035	01637697964658	2020-07-27T20:34:05+00:00	2020-07-27T13:34:05-07:00	2020-07-27T21:01:31+00:00	2020-07-30T06:59:59+00:00	-2	by0l8l3d6c8n4y6@marketplace.amazon.com	christina goodell	+1 415-851-9136 ext. 65808	ABR0055	Purchase Now for Delivery by Thursday | Arabella Farm Direct Bouquet of 12 Stems of Fresh Cut Hot Pink Roses in a Free Designer Glass Vase	1	0	1	Expedited	Madison Goodell	4111 E FEEMSTER AVE			VISALIA	CA	93292-9061	US		Congratulations on your promotion! So very proud of you! From christina	false		
111-6555230-5736202	00093303550386	2020-07-27T20:41:03+00:00	2020-07-27T13:41:03-07:00	2020-07-27T21:07:10+00:00	2020-07-30T06:59:59+00:00	-2	4bk3b6vrfv8n5t4@marketplace.amazon.com	Diane Graybill	+1 929-436-4790 ext. 58853	ABR0022	Purchase Now for Delivery by Thursday | Arabella Farm Direct Bouquet of 12 Fresh Cut Pink Roses with a Free Glass Vase	1	0	1	Expedited	Viola Peachey	4292 PEACHEY RD			PETERSBURG	PA	16669-2642	US			false		
111-4984045-1333001	24095205420586	2020-07-27T21:04:36+00:00	2020-07-27T14:04:36-07:00	2020-07-27T21:31:38+00:00	2020-07-30T06:59:59+00:00	-2	7zgjl1f3vzwxcjr@marketplace.amazon.com	Rhonda Beirne	+1 929-436-4790 ext. 07729	ABM010	The Spring Fling Bouquet by Arabella Bouquets with a Free Designer Glass Vase	1	0	1	Expedited	Margaret O'Neill	23 ABRIC DR			TRUMBULL	CT	06611-3401	US		Dear mama, thank you for giving me a birthday!!! I love you....xxox From Rhonda Beirne	false		
113-5560849-2557827	31860695718642	2020-07-27T21:22:20+00:00	2020-07-27T14:22:20-07:00	2020-07-27T21:50:18+00:00	2020-07-29T06:59:59+00:00	-1	28r8hh4glx6y6tp@marketplace.amazon.com	Lyle Whitlock	+1 929-436-4790 ext. 29878	ABR0022	Purchase Now for Delivery by Thursday | Arabella Farm Direct Bouquet of 12 Fresh Cut Pink Roses with a Free Glass Vase	1	0	1	SecondDay	Lyle Whitlock	20586 E CALEY DR			CENTENNIAL	CO	80016-3801	US			false		
113-1800037-7300206	34809994423986	2020-07-27T21:34:50+00:00	2020-07-27T14:34:50-07:00	2020-07-27T21:57:07+00:00	2020-07-30T06:59:59+00:00	-2	7gkbxnqwkpc7jz2@marketplace.amazon.com	Dean Merrill	+1 415-851-9136 ext. 06747	ABR0022	Purchase Now for Delivery by Thursday | Arabella Farm Direct Bouquet of 12 Fresh Cut Pink Roses with a Free Glass Vase	1	0	1	Expedited	Linda Danielson	3553 N 159TH LN			GOODYEAR	AZ	85395-8058	US		Love and prayers for a quick recovery! Grace and Dean From Grace and Dean Merrill	false		
112-0699234-6165822	02834201612346	2020-07-27T21:45:37+00:00	2020-07-27T14:45:37-07:00	2020-07-27T22:16:15+00:00	2020-07-30T06:59:59+00:00	-2	l5d4xfjng93txxp@marketplace.amazon.com	Jonathan Lopez	+1 415-851-9136 ext. 70669	ABR0022	Purchase Now for Delivery by Thursday | Arabella Farm Direct Bouquet of 12 Fresh Cut Pink Roses with a Free Glass Vase	1	0	1	Expedited	Jonathan Lopez	6550 S GOLDENROD RD UNIT B			ORLANDO	FL	32822-3494	US			false		
112-2976986-7556236	48869041781570	2020-07-27T22:01:01+00:00	2020-07-27T15:01:01-07:00	2020-07-27T22:28:31+00:00	2020-07-29T06:59:59+00:00	-1	8xrd0x705md1rm5@marketplace.amazon.com	Myishia S. Dean	+1 929-436-4790 ext. 93255	ABR0055	Purchase Now for Delivery by Thursday | Arabella Farm Direct Bouquet of 12 Stems of Fresh Cut Hot Pink Roses in a Free Designer Glass Vase	1	0	1	SecondDay	Kaylah Paetow	185 SENECA TRL			CRESTVIEW	FL	32536-6546	US		I know you love carnations but  I could find any to get there quick enough. love you From Myishia S. Dean	false		
113-9707024-9196248	67266768564738	2020-07-27T22:18:27+00:00	2020-07-27T15:18:27-07:00	2020-07-27T22:46:15+00:00	2020-07-30T06:59:59+00:00	-2	x4j6tlyyjrdrqhn@marketplace.amazon.com	Heather Thiel	+1 929-436-4790 ext. 71387	ABM010	The Spring Fling Bouquet by Arabella Bouquets with a Free Designer Glass Vase	1	0	1	Expedited	Jackie King	C/O LAKEVIEW HEALTH CENTER	962 GARLAND ST E		WEST SALEM	WI	54669-1308	US		Happy Birthday Mother Love Heather and Victoria	false		
111-3251563-0988251	39202701923042	2020-07-27T22:48:42+00:00	2020-07-27T15:48:42-07:00	2020-07-27T23:13:34+00:00	2020-07-30T06:59:59+00:00	-2	yjztwz25qsvbs19@marketplace.amazon.com	Matthew Washington	+1 929-436-4790 ext. 92341	ABR0055	Purchase Now for Delivery by Thursday | Arabella Farm Direct Bouquet of 12 Stems of Fresh Cut Hot Pink Roses in a Free Designer Glass Vase	1	0	1	Expedited	Matthew Washington	17573 PINE LN APT 2202			PARKER	CO	80134-6527	US		Love you momma From Matthew Washington	false		
113-2217906-5262662	36569532849114	2020-07-27T22:24:55+00:00	2020-07-27T15:24:55-07:00	2020-07-27T23:18:55+00:00	2020-07-29T06:59:59+00:00	-1	m0cjs4r1nm7qqj0@marketplace.amazon.com	sylvia Quintana	+1 929-436-4790 ext. 67826	ABR0022	Purchase Now for Delivery by Thursday | Arabella Farm Direct Bouquet of 12 Fresh Cut Pink Roses with a Free Glass Vase	1	0	1	SecondDay	jessica mondragon	207 VIA ORO VERDE			FALLBROOK	CA	92028-4133	US		congratulations! for the beautiful girl is the best gift you give me for my Birthday  god bless you old always with love sylvia From sylvia Quintana	false		
111-3119198-0198655	39696996454130	2020-07-27T23:35:13+00:00	2020-07-27T16:35:13-07:00	2020-07-28T00:03:12+00:00	2020-07-30T06:59:59+00:00	-2	z5xp6pn3m0m7dt8@marketplace.amazon.com	Christina Gilroy	+1 929-436-4790 ext. 97176	ABR012	Arabella Farm Direct Bouquet of 18 Fresh Cut Pink Roses with a Free Glass Vase	1	0	1	Expedited	Deb Walden	3855 GLENMONT CT			PORT REPUBLIC	MD	20676-3102	US		Love you MOM and Grammy!!! Have a great day! From Chrissy, Richie and Cora!!	false		
112-2441889-7013837	03228024396106	2020-07-27T23:51:25+00:00	2020-07-27T16:51:25-07:00	2020-07-28T00:13:08+00:00	2020-07-30T06:59:59+00:00	-2	b7fw3s31pndgwm6@marketplace.amazon.com	F. Stokes	+1 929-436-4790 ext. 56651	ABM010	The Spring Fling Bouquet by Arabella Bouquets with a Free Designer Glass Vase	1	0	1	Expedited	Louann Raynor	60 KENSICO ST			STATEN ISLAND	NY	10306-1653	US		Happy Birthday to my  only sister. Miss you.hugs From Your only sister. Hugs	false		
112-7994081-7710662	57888031365546	2020-07-27T23:57:57+00:00	2020-07-27T16:57:57-07:00	2020-07-28T00:25:28+00:00	2020-07-29T06:59:59+00:00	-1	ct5h9stf624vxkg@marketplace.amazon.com	Gabriel Babaoye	+1 415-851-9136 ext. 17181	ABR001	Purchase Now for Delivery by Thursday | Arabella Bouquets 12 Stems of Fresh Cut Red Roses in a Free Designer Glass Vase	1	0	1	SecondDay	Gabriel Babaoye	1971 BURNEY FALLS DR			STOCKTON	CA	95206-4506	US			false		
111-0833080-6606635	66732491451242	2020-07-27T23:56:51+00:00	2020-07-27T16:56:51-07:00	2020-07-28T00:27:29+00:00	2020-07-30T06:59:59+00:00	-2	0xb5782b6lrthjg@marketplace.amazon.com	Shameeza	+1 415-851-9136 ext. 50683	ABM0033	Purchase Now for Delivery by Thursday | Arabella Farm Direct Bouquet of Fresh Cut White Hydrangea with a Free Glass Vase	1	0	1	Expedited	Shameeza ali	13517 NORTHERN BLVD  3B			FLUSHING	NY	11354-4006	US			false		
113-7965304-6554618	22603466910002	2020-07-28T00:09:07+00:00	2020-07-27T17:09:07-07:00	2020-07-28T00:31:18+00:00	2020-07-29T06:59:59+00:00	-1	0kkyyjgm8knnlm9@marketplace.amazon.com	HIROYO ITO	+1 415-851-9136 ext. 91433	ABR0022	Purchase Now for Delivery by Thursday | Arabella Farm Direct Bouquet of 12 Fresh Cut Pink Roses with a Free Glass Vase	1	0	1	SecondDay	Hideyo Isaji	162 HARGROVE			IRVINE	CA	92620-7326	US		Happy Birthday to you! I always appreciate your kindness, support, and friendship! Best wishes for you year! From HIROYO:)	false		
113-1820173-2337860	20164102616250	2020-07-28T00:03:43+00:00	2020-07-27T17:03:43-07:00	2020-07-28T00:31:40+00:00	2020-07-30T06:59:59+00:00	-2	3f9hq11pq67kssy@marketplace.amazon.com	Nancy Rubin	+1 929-436-4790 ext. 99007	ABR0033	Purchase Now for Delivery by Thursday | Arabella Farm Direct Bouquet of 12 Fresh Cut Orange Roses with a Free Glass Vase	1	0	1	Standard	Meghan Mao	16 ODAY ST N			MAPLEWOOD	MN	55119-4727	US		Welcome Home. Get well soon. From Nancy Rubin	false		
114-5173503-3640224	37536613321890	2020-07-28T00:11:11+00:00	2020-07-27T17:11:11-07:00	2020-07-28T00:36:26+00:00	2020-07-30T06:59:59+00:00	-2	zxgwcfz5ydsh5sc@marketplace.amazon.com	CARLA	+1 929-436-4790 ext. 29219	ABR0022	Purchase Now for Delivery by Thursday | Arabella Farm Direct Bouquet of 12 Fresh Cut Pink Roses with a Free Glass Vase	1	0	1	Expedited	Camellia Branch	3377 BEAGLE BLVD			COLUMBUS	OH	43232-7511	US		CONGRATULATIONS Camellia on your retirement! Love John,Carla and Vivica From CARLA	false		
113-3832722-1631419	65987346835850	2020-07-28T00:23:04+00:00	2020-07-27T17:23:04-07:00	2020-07-28T00:52:02+00:00	2020-07-30T06:59:59+00:00	-2	ts009dtr93zxdbp@marketplace.amazon.com	Travis Evans	+1 929-436-4790 ext. 47864	ABR012	Arabella Farm Direct Bouquet of 18 Fresh Cut Pink Roses with a Free Glass Vase	1	0	1	Expedited	Harleigh Whitley	555 INTERNATIONAL PARK			NEWNAN	GA	30265-2391	US		We love you!!!! Happy Birthday!!! From Travis & Amber Evans	false		
113-3964627-9297035	13672796873938	2020-07-28T00:36:29+00:00	2020-07-27T17:36:29-07:00	2020-07-28T01:02:46+00:00	2020-07-29T06:59:59+00:00	-1	7vcxkjs57cxlmrl@marketplace.amazon.com	Marlene A Orrell	+1 415-851-9136 ext. 86369	ABM010	The Spring Fling Bouquet by Arabella Bouquets with a Free Designer Glass Vase	1	0	1	SecondDay	Jane Rockwell	30221 ALDER RD			PUNTA GORDA	FL	33982-1393	US		Enjoy your gift! Wish we could be together!Love  Mo & Kikki-jean From Marlene A Orrell	false		
111-8489482-9433026	31846613723042	2020-07-28T00:40:17+00:00	2020-07-27T17:40:17-07:00	2020-07-28T01:09:36+00:00	2020-07-30T06:59:59+00:00	-2	846kt458v3d84xm@marketplace.amazon.com	H. R. Herring	+1 929-436-4790 ext. 75305	ABR0022	Purchase Now for Delivery by Thursday | Arabella Farm Direct Bouquet of 12 Fresh Cut Pink Roses with a Free Glass Vase	1	0	1	Expedited	glenda nunez	THE RANCHITO GRILL AND MEXICAN RESTAURANT	2310 W WACO DR		WACO	TX	76701-1046	US			false		
113-6839591-3485017	65780679650866	2020-07-28T00:45:21+00:00	2020-07-27T17:45:21-07:00	2020-07-28T01:14:09+00:00	2020-07-29T06:59:59+00:00	-1	m10bpg2v6n0ycf1@marketplace.amazon.com	Salma Shariff	+1 415-851-9136 ext. 49135	ABR0022	Purchase Now for Delivery by Thursday | Arabella Farm Direct Bouquet of 12 Fresh Cut Pink Roses with a Free Glass Vase	1	0	1	SecondDay	Fathima Shariff	1419 Peerless Place, #211			Los Angeles	CA	90035	US		Dear Aunty Najah, Umma, and Appa, Eid Mubarak! Love, Sameed, Rashad & Ameena From Salma & Daryl	false		
114-3781833-5826624	25448022585378	2020-07-28T00:48:33+00:00	2020-07-27T17:48:33-07:00	2020-07-28T01:14:10+00:00	2020-07-30T06:59:59+00:00	-2	qzy72zj8pvd205m@marketplace.amazon.com	Julie K Kissane	+1 929-436-4790 ext. 67287	ABR012	Arabella Farm Direct Bouquet of 18 Fresh Cut Pink Roses with a Free Glass Vase	1	0	1	Expedited	Patty Wells	9029 SW 81ST LOOP			OCALA	FL	34481-0554	US		Thank you for taking such good care of Savannah for me.  Julie From Julie K Kissane	false		
114-0512608-3059448	53966415743434	2020-07-28T01:20:36+00:00	2020-07-27T18:20:36-07:00	2020-07-28T01:48:00+00:00	2020-07-30T06:59:59+00:00	-2	zxlhzfcvmg1vmzs@marketplace.amazon.com	Strauss	+1 929-436-4790 ext. 59856	ABR0022	Purchase Now for Delivery by Thursday | Arabella Farm Direct Bouquet of 12 Fresh Cut Pink Roses with a Free Glass Vase	1	0	1	Expedited	Mrs. Guthrie	327 OAKRIDGE BLVD			LYNCHBURG	VA	24502-4719	US		Nannie, We love you!  Happy Birthday! From BG, Lee, Tay, Eli, Zac, Hanna and Frank	false		
111-9380598-5603453	56848900917106	2020-07-28T01:25:40+00:00	2020-07-27T18:25:40-07:00	2020-07-28T01:54:37+00:00	2020-07-29T06:59:59+00:00	-1	xkm3qjh8vqb21yf@marketplace.amazon.com	Margaret	+1 929-436-4790 ext. 45357	ABR0022	Purchase Now for Delivery by Thursday | Arabella Farm Direct Bouquet of 12 Fresh Cut Pink Roses with a Free Glass Vase	1	0	1	SecondDay	Gisele Miranda	18 WILLARD RD			STURBRIDGE	MA	01566-1213	US		Happiest of Birthdays to you! 💖 From Miguel and Margaret	false		
112-6061060-1115464	17900400361194	2020-07-28T01:53:24+00:00	2020-07-27T18:53:24-07:00	2020-07-28T02:19:37+00:00	2020-07-29T06:59:59+00:00	-1	69srsx05gj6qppx@marketplace.amazon.com	Christine Shepard	+1 929-436-4790 ext. 89676	ABM010	The Spring Fling Bouquet by Arabella Bouquets with a Free Designer Glass Vase	1	0	1	SecondDay	Janet Lewis	807 ROTONDA CIR			ROTONDA WEST	FL	33947-1832	US		Thank you so much for all you do for Dad! We know it's not always easy and want you know we are so very grateful!! From Chris, Kathy, and Patti	false		
112-2450412-9433064	35164066446354	2020-07-28T01:55:51+00:00	2020-07-27T18:55:51-07:00	2020-07-28T02:22:13+00:00	2020-07-30T06:59:59+00:00	-2	b8n5fy1yfhrk6qt@marketplace.amazon.com	Valentin canahui	+1 929-436-4790 ext. 12348	ABR0055	Purchase Now for Delivery by Thursday | Arabella Farm Direct Bouquet of 12 Stems of Fresh Cut Hot Pink Roses in a Free Designer Glass Vase	1	0	1	Expedited	Maria guadalupe perez	91770 66TH AVE	A 104 APARTAMENTO A 104 A 104		MECCA	CA	92254-6230	US			false		
112-7959556-2004211	19175510880466	2020-07-28T02:02:29+00:00	2020-07-27T19:02:29-07:00	2020-07-28T02:31:52+00:00	2020-07-30T06:59:59+00:00	-2	06982pzcnfjc37g@marketplace.amazon.com	Brandon	+1 929-436-4790 ext. 42636	ABR0022	Purchase Now for Delivery by Thursday | Arabella Farm Direct Bouquet of 12 Fresh Cut Pink Roses with a Free Glass Vase	3	0	3	Expedited	Ms Pearce Ms Pearce Ms Pearce	636 E SPRING HILL DR			MURRAY	UT	84107-5014	US			false		
113-3923643-6084250	19390848029986	2020-07-28T02:17:21+00:00	2020-07-27T19:17:21-07:00	2020-07-28T02:46:09+00:00	2020-07-29T06:59:59+00:00	-1	c35q2n0srs9wjdj@marketplace.amazon.com	Janice	+1 929-436-4790 ext. 41854	ABR0055	Purchase Now for Delivery by Thursday | Arabella Farm Direct Bouquet of 12 Stems of Fresh Cut Hot Pink Roses in a Free Designer Glass Vase	1	0	1	SecondDay	Leslie Pineda	6260 99TH ST APT 1103			REGO PARK	NY	11374-6022	US		Hey Leslie! I’m so grateful for our friendship :)! Hope you have a great day & see you soon! Love, Janice From Janice	false		
111-4302637-7582607	67687065763530	2020-07-28T02:38:36+00:00	2020-07-27T19:38:36-07:00	2020-07-28T03:00:11+00:00	2020-07-30T06:59:59+00:00	-2	yqqg5njp5b8ld47@marketplace.amazon.com	Donna Zulch	+1 929-436-4790 ext. 12502	ABM010	The Spring Fling Bouquet by Arabella Bouquets with a Free Designer Glass Vase	1	0	1	Expedited	Helen Sayegh	582 5TH ST			BROOKLYN	NY	11215-3534	US		Hoping that each day brings you renewed strength and brighter moments. I wish you a fast recovery from your surgery!!  Thinking of you!!   Love,  Donna and Ray From Donna Zulch	false		
114-4900824-4191410	52809857867986	2020-07-28T02:39:42+00:00	2020-07-27T19:39:42-07:00	2020-07-28T03:07:26+00:00	2020-07-30T06:59:59+00:00	-2	c70728dpb7y2w4q@marketplace.amazon.com	Faith Fullmer	+1 929-436-4790 ext. 93413	ABR0022	Purchase Now for Delivery by Thursday | Arabella Farm Direct Bouquet of 12 Fresh Cut Pink Roses with a Free Glass Vase	1	0	1	Expedited	Irene Fullmer	8629 SWAN ST			NEWAYGO	MI	49337-8632	US			false		
113-0833330-0731444	68355390149362	2020-07-28T02:54:11+00:00	2020-07-27T19:54:11-07:00	2020-07-28T03:24:49+00:00	2020-07-30T06:59:59+00:00	-2	b0k1fm36mw3mvfy@marketplace.amazon.com	Kathleen A Sours	+1 929-436-4790 ext. 51805	ABR013	Purchase Now for Delivery by Thursday | Arabella Farm Direct Bouquet of 18 Fresh Cut Yellow Roses with a Free Glass Vase	1	0	1	Expedited	Mary Anne Sours	19404 LYMANS LN			STRONGSVILLE	OH	44149-8752	US			false		
112-9664451-2405004	43267789162234	2020-07-28T03:35:40+00:00	2020-07-27T20:35:40-07:00	2020-07-28T04:00:09+00:00	2020-07-29T06:59:59+00:00	-1	7x08lfdyz74pkbn@marketplace.amazon.com	Brenda A. Arnold	+1 929-436-4790 ext. 09674	ABR0055	Purchase Now for Delivery by Thursday | Arabella Farm Direct Bouquet of 12 Stems of Fresh Cut Hot Pink Roses in a Free Designer Glass Vase	1	0	1	SecondDay	Kathryn E Mills	503 COLONIAL DR			BROOKSVILLE	FL	34601-1204	US		HAPPY BIRTHDAY MOM, SO, THANKFUL YOU ARE FEELING BETTER.  HOPEFULLY YOU WILL ENJOY YOUR SPECIAL DAY! THANK YOU FOR CHOOSING TO BE MY MOM!   WE LOVE YOU... 4-EVER AND A DAY..!   STEVE & BRENDA From Brenda A. Arnold	false		
113-3485797-0171443	34988976030266	2020-07-28T03:24:04+00:00	2020-07-27T20:24:04-07:00	2020-07-28T04:02:16+00:00	2020-07-29T06:59:59+00:00	-1	q3447m5hn1gw7vq@marketplace.amazon.com	denis j tighe	+1 929-436-4790 ext. 38882	ABR0022	Purchase Now for Delivery by Thursday | Arabella Farm Direct Bouquet of 12 Fresh Cut Pink Roses with a Free Glass Vase	1	0	1	SecondDay	Karen Tighe	212 BEACH 123RD ST APT # 1R			ROCKAWAY PARK	NY	11694-1829	US		Happy Birthday, Karen! From Love, Aunt Carolyne and Uncle Denis	false		
113-7137846-3326642	50566815173890	2020-07-28T03:41:17+00:00	2020-07-27T20:41:17-07:00	2020-07-28T04:11:56+00:00	2020-07-30T06:59:59+00:00	-2	gpmvfxfk7mmfxxy@marketplace.amazon.com	Richard Gauci	+1 929-436-4790 ext. 44624	ABR0022	Purchase Now for Delivery by Thursday | Arabella Farm Direct Bouquet of 12 Fresh Cut Pink Roses with a Free Glass Vase	1	0	1	Expedited	Richard Gauci	303 HILLBROOK LN			NEWBERRY	SC	29108-9338	US			true		Business Price
113-8950699-3802646	27932360257714	2020-07-28T03:52:36+00:00	2020-07-27T20:52:36-07:00	2020-07-28T04:20:38+00:00	2020-07-30T06:59:59+00:00	-2	zb338mps5xkx032@marketplace.amazon.com	Augusto Vargas	+1 415-851-9136 ext. 50540	ABM010	The Spring Fling Bouquet by Arabella Bouquets with a Free Designer Glass Vase	1	0	1	Expedited	Augusto Vargas	6815 STONEWOOD CT			EDEN PRAIRIE	MN	55346-2947	US			false		
114-2315314-6145842	45891852326674	2020-07-28T04:18:02+00:00	2020-07-27T21:18:02-07:00	2020-07-28T04:48:24+00:00	2020-07-29T06:59:59+00:00	-1	s20clhnw804x21l@marketplace.amazon.com	meme	+1 929-436-4790 ext. 29033	ABR0022	Purchase Now for Delivery by Thursday | Arabella Farm Direct Bouquet of 12 Fresh Cut Pink Roses with a Free Glass Vase	1	0	1	SecondDay	Waleed Saud Alreshidi	1013 5TH ST SE	BEMIDJI MN 56601 USA		BEMIDJI	MN	56601-3538	US		Eid Mubarak my lovely Waleed! From Mom 🌸🌸🌸❤️	false		
112-8496598-4091419	29676746798610	2020-07-28T05:06:49+00:00	2020-07-27T22:06:49-07:00	2020-07-28T05:35:16+00:00	2020-07-29T06:59:59+00:00	-1	w6ps0ky6y5xx4nm@marketplace.amazon.com	Alex	+1 415-851-9136 ext. 13091	ABR0022	Purchase Now for Delivery by Thursday | Arabella Farm Direct Bouquet of 12 Fresh Cut Pink Roses with a Free Glass Vase	1	0	1	SecondDay	Emily Ellen Hamm	6726 W MEQUON RD  53092			MEQUON	WI	53092-1819	US		Happy girlfriends day to the most wonderful girlfriend on Earth. From Alex	false		
112-4313099-3313868	13282375470722	2020-07-28T05:27:53+00:00	2020-07-27T22:27:53-07:00	2020-07-28T05:58:20+00:00	2020-07-30T06:59:59+00:00	-2	grqnb7msxzdgfyk@marketplace.amazon.com	Sergio Thomas	+1 929-436-4790 ext. 84610	ABR001	Purchase Now for Delivery by Thursday | Arabella Bouquets 12 Stems of Fresh Cut Red Roses in a Free Designer Glass Vase	1	0	1	Expedited	Trisha Castillo	3616 3RD AVE			LOS ANGELES	CA	90018-4245	US			false		
114-4448768-7647408	44090297410962	2020-07-28T05:42:11+00:00	2020-07-27T22:42:11-07:00	2020-07-28T06:10:38+00:00	2020-07-30T06:59:59+00:00	-2	74fk540bv8wn459@marketplace.amazon.com	Sandra Hansen	+1 929-436-4790 ext. 63376	ABR0022	Purchase Now for Delivery by Thursday | Arabella Farm Direct Bouquet of 12 Fresh Cut Pink Roses with a Free Glass Vase	1	0	1	Expedited	sandra hansen	8272 MANIFESTO CIR			HUNTINGTON BEACH	CA	92646-1619	US		In memory of Pepper, we are mourning with you! Love, Sandra, Scot, Morgan, Maddie & Lucas From The Hansen‘s	false		
111-1991015-1857856	28845678924842	2020-07-28T06:03:32+00:00	2020-07-27T23:03:32-07:00	2020-07-28T06:29:22+00:00	2020-07-29T06:59:59+00:00	-1	37ryg8198zq83cc@marketplace.amazon.com	Maceo	+1 415-851-9136 ext. 45079	ABR0022	Purchase Now for Delivery by Thursday | Arabella Farm Direct Bouquet of 12 Fresh Cut Pink Roses with a Free Glass Vase	1	0	1	SecondDay	Joy Greenberg	2713 ANTONIO DR UNIT 212			CAMARILLO	CA	93010-1462	US		Hope these blossoms brighten your day! We love you! :)   Laura & Maceo From Maceo & Laura	false		
113-3480083-7821823	28718522422690	2020-07-28T06:32:22+00:00	2020-07-27T23:32:22-07:00	2020-07-28T06:57:17+00:00	2020-07-29T06:59:59+00:00	-1	yb3q28h2nfz52vk@marketplace.amazon.com	Magnus Bâckström	+1 929-436-4790 ext. 45773	ABR0022	Purchase Now for Delivery by Thursday | Arabella Farm Direct Bouquet of 12 Fresh Cut Pink Roses with a Free Glass Vase	1	0	1	SecondDay	Antonia Ansgariusson	455 HUDSON ST APT 36			NEW YORK	NY	10014-3792	US		Grattis på 30-årsdagen! 30 Juli 2020. Happy 30th Birthday! July 30th 2020. From Kramar från bästa familjen!	false		
113-7324061-8161046	64644818923090	2020-07-28T07:00:07+00:00	2020-07-28T00:00:07-07:00	2020-07-28T07:35:39+00:00	2020-07-29T06:59:59+00:00	-1	px04vby7sg089z0@marketplace.amazon.com	Derek Halton	+1 415-851-9136 ext. 46570	ABR0022	Purchase Now for Delivery by Thursday | Arabella Farm Direct Bouquet of 12 Fresh Cut Pink Roses with a Free Glass Vase	1	0	1	SecondDay	Anasa Halton	4727 E WARNER RD APT 2087			PHOENIX	AZ	85044-3349	US		Happy Anniversary beautiful! 6 years with the love of my life and can’t to spend the rest of our lives together! From Forever Love	false		
111-0059714-1206644	48468994719202	2020-07-28T07:45:45+00:00	2020-07-28T00:45:45-07:00	2020-07-28T08:11:49+00:00	2020-07-29T06:59:59+00:00	-1	9j5tbfnv0zxwg8f@marketplace.amazon.com	Tberg	+1 929-436-4790 ext. 32911	ABR0022	Purchase Now for Delivery by Thursday | Arabella Farm Direct Bouquet of 12 Fresh Cut Pink Roses with a Free Glass Vase	1	0	1	SecondDay	Cheryl Bennett	7400 W FLAMINGO RD APT 1078			LAS VEGAS	NV	89147-4367	US		You are my heart desire, Your thoughts in my mind brings me joy and happiness. I Love you😘 From Joseph Galhardo	false		
111-7552758-3917038	40602324902234	2020-07-28T08:09:48+00:00	2020-07-28T01:09:48-07:00	2020-07-28T08:37:02+00:00	2020-07-29T06:59:59+00:00	-1	r5bmrpwtv8slqqy@marketplace.amazon.com	Daniel E. Smith	+1 929-436-4790 ext. 26006	ABR0022	Purchase Now for Delivery by Thursday | Arabella Farm Direct Bouquet of 12 Fresh Cut Pink Roses with a Free Glass Vase	1	0	1	SecondDay	Sarora Salmonowicz-Yorks	3865 LINDSLEY DR			METAMORA	MI	48455-9765	US		Dearest Sarora Happy Birthday! All Our Love, Dan & Chris	false		
112-8334887-3509807	04942068216570	2020-07-28T09:01:55+00:00	2020-07-28T02:01:55-07:00	2020-07-28T09:31:53+00:00	2020-07-29T06:59:59+00:00	-1	9mp25nj8zdbf82g@marketplace.amazon.com	Hanna	+1 929-436-4790 ext. 40889	ABR004	Arabella Farm Direct Bouquet of 12 Fresh Cut Yellow Roses with a Free Glass Vase	1	0	1	SecondDay	Hanna Howard	24 EAGLE POINT CT			PARK CITY	UT	84060-6863	US			false		
113-9174507-2202667	32765277041362	2020-07-28T09:03:07+00:00	2020-07-28T02:03:07-07:00	2020-07-28T09:33:40+00:00	2020-07-31T06:59:59+00:00	-3	nq3f3jj7z722xf5@marketplace.amazon.com	Jude Cassidy	+1 929-436-4790 ext. 82522	ABR0022	Purchase Now for Delivery by Thursday | Arabella Farm Direct Bouquet of 12 Fresh Cut Pink Roses with a Free Glass Vase	1	0	1	Expedited	Mari Robn Cassidy	10 GLENRIDGE LN			PHILLIPS RANCH	CA	91766-4705	US			false		
114-6837865-5068227	42891531926786	2020-07-28T09:10:20+00:00	2020-07-28T02:10:20-07:00	2020-07-28T09:38:26+00:00	2020-07-29T06:59:59+00:00	-1	2bg4cghpbmyvj0x@marketplace.amazon.com	Alison Trinidad	+1 929-436-4790 ext. 22666	ABR0022	Purchase Now for Delivery by Thursday | Arabella Farm Direct Bouquet of 12 Fresh Cut Pink Roses with a Free Glass Vase	1	0	1	SecondDay	Shabboo Likouris	1412 HOMERIC CT			MCLEAN	VA	22101-5610	US		HAPPY BIRTHDAY!!!! xoxo From Alison Trinidad	false		
112-3030475-5814659	25000815192826	2020-07-28T11:08:40+00:00	2020-07-28T04:08:40-07:00	2020-07-28T11:31:58+00:00	2020-07-29T06:59:59+00:00	-1	bjhy3vmy9b3q5w1@marketplace.amazon.com	Mareike Tillmann	00491796067554	ABM010	The Spring Fling Bouquet by Arabella Bouquets with a Free Designer Glass Vase	1	0	1	SecondDay	Julianne Tillmann	21507 NE 67TH ST			REDMOND	WA	98053-2378	US		Welcome Theodore & Congratulations to the Mom and Dad! Wishing you all a lifetime of love, health and laughter. May Theodore bring happiness to the world and special joy to all of you! From Annemie, Klaus, Mareike & Lukasz	false		
114-8801903-2259448	38520454400010	2020-07-28T11:41:45+00:00	2020-07-28T04:41:45-07:00	2020-07-28T12:05:29+00:00	2020-07-29T06:59:59+00:00	-1	ksn3cjvk7382kr0@marketplace.amazon.com	Janelle O. Hardy	+1 929-436-4790 ext. 78703	ABR0022	Purchase Now for Delivery by Thursday | Arabella Farm Direct Bouquet of 12 Fresh Cut Pink Roses with a Free Glass Vase	1	0	1	SecondDay	Jo-Ann Campbell	1425 T ST NW APT 103			WASHINGTON	DC	20009-3922	US		Happy Birthday Jo-Ann! From Janelle Hardy	false		
112-0209551-4435451	03273404904834	2020-07-28T12:22:26+00:00	2020-07-28T05:22:26-07:00	2020-07-28T12:52:13+00:00	2020-07-29T06:59:59+00:00	-1	dwz4d3kj0zf0pkw@marketplace.amazon.com	Ali Abbas	+1 929-436-4790 ext. 56249	ABR0022	Purchase Now for Delivery by Thursday | Arabella Farm Direct Bouquet of 12 Fresh Cut Pink Roses with a Free Glass Vase	1	0	1	SecondDay	ali abbas	177 OAK ST			WEST HEMPSTEAD	NY	11552-2133	US			false		
112-9845082-0002643	59585448321002	2020-07-28T12:42:26+00:00	2020-07-28T05:42:26-07:00	2020-07-28T13:15:41+00:00	2020-07-29T06:59:59+00:00	-1	sy44z9wfgxhcy7l@marketplace.amazon.com	Chase	+1 929-436-4790 ext. 21315	ABR0055	Purchase Now for Delivery by Thursday | Arabella Farm Direct Bouquet of 12 Stems of Fresh Cut Hot Pink Roses in a Free Designer Glass Vase	1	0	1	SecondDay	Chase	5400 E 200 S			WHITESTOWN	IN	46075-9433	US			false		
113-6820433-6571420	70103211462122	2020-07-28T13:28:06+00:00	2020-07-28T06:28:06-07:00	2020-07-28T13:57:11+00:00	2020-07-31T06:59:59+00:00	-3	9kfs422zzcrvnbm@marketplace.amazon.com	Dianna Lyons	+1 929-436-4790 ext. 22353	ABR0022	Purchase Now for Delivery by Thursday | Arabella Farm Direct Bouquet of 12 Fresh Cut Pink Roses with a Free Glass Vase	1	0	1	Expedited	Edna Lyons	3141 N MCMULLEN BOOTH RD APT 125			CLEARWATER	FL	33761-2037	US		Mom,  Love you  Dianna and Ray From Dianna Lyons	false		
114-9386975-0920223	58242758910282	2020-07-28T13:44:33+00:00	2020-07-28T06:44:33-07:00	2020-07-28T14:13:17+00:00	2020-07-29T06:59:59+00:00	-1	l1fs36p5xd6g0rz@marketplace.amazon.com	VERONICA JONES	+1 929-436-4790 ext. 33461	ABR0022	Purchase Now for Delivery by Thursday | Arabella Farm Direct Bouquet of 12 Fresh Cut Pink Roses with a Free Glass Vase	1	0	1	SecondDay	Morgan Davidson	2000 TOWER OAKS BLVD	6TH FLOOR NIKA HQ		ROCKVILLE	MD	20852-4282	US		We can never find flowers that compete with your elegance, serenity, or your beauty. So please accept this token of our love and admiration for one of God's gifts to us. "Corny" Mom and Dad From Mom and Dad	false		
111-4164822-1202645	44901169787754	2020-07-28T13:48:16+00:00	2020-07-28T06:48:16-07:00	2020-07-28T14:17:38+00:00	2020-07-29T06:59:59+00:00	-1	ycx9w49glk9hn43@marketplace.amazon.com	Gail Cornhill	+1 929-436-4790 ext. 05277	ABR0033	Purchase Now for Delivery by Thursday | Arabella Farm Direct Bouquet of 12 Fresh Cut Orange Roses with a Free Glass Vase	1	0	1	SecondDay	Jackie Ramos	BELLA VISTA 14 KELAEN DR			BELLA VISTA	AR	72715-5008	US		Dearest Jackie, get well soon sis, much love from Eric and Gail xx From Gail Cornhill	false		
111-9529714-4937840	05527865808818	2020-07-28T13:48:11+00:00	2020-07-28T06:48:11-07:00	2020-07-28T14:18:54+00:00	2020-07-31T06:59:59+00:00	-3	rynnpn5g9f761ts@marketplace.amazon.com	Jose L. Feliciano, Jr.	+1 929-436-4790 ext. 91486	ABR0022	Purchase Now for Delivery by Thursday | Arabella Farm Direct Bouquet of 12 Fresh Cut Pink Roses with a Free Glass Vase	1	0	1	Expedited	Jose Luis Feliciano, Jr.	2361 BURGUNDY TER BLDG 16			ST PETERSBURG	FL	33714-2082	US			false		
113-3672272-6962646	43100591809330	2020-07-28T13:52:33+00:00	2020-07-28T06:52:33-07:00	2020-07-28T14:21:08+00:00	2020-07-29T06:59:59+00:00	-1	rfgytk0hcp5tx9n@marketplace.amazon.com	deaundra	+1 415-851-9136 ext. 25935	ABR0055	Purchase Now for Delivery by Thursday | Arabella Farm Direct Bouquet of 12 Stems of Fresh Cut Hot Pink Roses in a Free Designer Glass Vase	1	0	1	SecondDay	Crystal Clayborn	3019 CHESSINGTON DR			LAND O LAKES	FL	34638-7938	US		Crystal, you are the moon and the stars. You brighten up my whole life. I just wish we could get this right.. Love you From Big Country	false		
113-1182405-4641000	02295242589394	2020-07-28T14:13:14+00:00	2020-07-28T07:13:14-07:00	2020-07-28T14:39:40+00:00	2020-07-31T06:59:59+00:00	-3	xmgcrcmqhgbvt71@marketplace.amazon.com	ALFRED W. DEPIETRO JR.	+1 929-436-4790 ext. 32204	ABR0055	Purchase Now for Delivery by Thursday | Arabella Farm Direct Bouquet of 12 Stems of Fresh Cut Hot Pink Roses in a Free Designer Glass Vase	1	0	1	Expedited	Karen Deppe	353 CAMDEN RD			IOWA CITY	IA	52245-9254	US		Dearest Mom, We know how much you enjoy flowers. Hope these brighten your day. We love you very much. Diane & Al From ALFRED W. DEPIETRO JR.	false		
113-1161830-8035467	56289057458634	2020-07-28T14:21:06+00:00	2020-07-28T07:21:06-07:00	2020-07-28T14:45:59+00:00	2020-07-29T06:59:59+00:00	-1	xf5fw35zlnxs4xq@marketplace.amazon.com	Wren Krahl	+1 415-851-9136 ext. 77668	ABR012	Arabella Farm Direct Bouquet of 18 Fresh Cut Pink Roses with a Free Glass Vase	1	0	1	SecondDay	Elizabeth Ellison	2601 PEACHTREE RD NE			ATLANTA	GA	30305-3603	US		Dear Elizabeth and Family, Wishing for you the peace of God's Grace. We love you! Wren, David, and Family From Wren Krahl	false		
113-7077867-4210653	69213861040490	2020-07-28T14:34:11+00:00	2020-07-28T07:34:11-07:00	2020-07-28T14:53:41+00:00	2020-07-29T06:59:59+00:00	-1	xf5fw35zlnxs4xq@marketplace.amazon.com	Wren Krahl	+1 929-436-4790 ext. 56271	ABR013	Purchase Now for Delivery by Thursday | Arabella Farm Direct Bouquet of 18 Fresh Cut Yellow Roses with a Free Glass Vase	1	0	1	SecondDay	Margarett Ellison	999 LIVE OAK PLANTATION RD			TALLAHASSEE	FL	32312-2414	US		Dearest Margarett and Family, Although no words can take away the sorrow that you bear. May it be comforting to you to know that you are in our thoughts and our hearts. Love, Wren, David and Family From Wren Krahl	false		
113-5737957-6037863	57278503882418	2020-07-28T14:32:41+00:00	2020-07-28T07:32:41-07:00	2020-07-28T14:59:14+00:00	2020-07-29T06:59:59+00:00	-1	1gqbvgygv01g7js@marketplace.amazon.com	huy	+1 929-436-4790 ext. 30184	ABR0022	Purchase Now for Delivery by Thursday | Arabella Farm Direct Bouquet of 12 Fresh Cut Pink Roses with a Free Glass Vase	1	0	1	SecondDay	Mrs. Joan Russoniello	226 MURRY HILL DR			LANCASTER	PA	17601-4112	US			false		
112-9183648-9417067	22332886333658	2020-07-28T15:07:16+00:00	2020-07-28T08:07:16-07:00	2020-07-28T15:32:07+00:00	2020-07-29T06:59:59+00:00	-1	6pq0hx70f1ks13t@marketplace.amazon.com	sally ritter	+1 929-436-4790 ext. 41855	ABM0033	Purchase Now for Delivery by Thursday | Arabella Farm Direct Bouquet of Fresh Cut White Hydrangea with a Free Glass Vase	1	0	1	SecondDay	maggie nolan	146 OLD MILL RD			FAIRHOPE	AL	36532-6320	US		Welcome home!  Congratulations! Live you all so much! Xoxo From Nana and Grumpy	false		
114-6530388-4784254	07844886116762	2020-07-28T15:03:20+00:00	2020-07-28T08:03:20-07:00	2020-07-28T15:32:48+00:00	2020-07-29T06:59:59+00:00	-1	w3thc634n393c02@marketplace.amazon.com	marion haines hart	+1 415-851-9136 ext. 31037	ABR0022	Purchase Now for Delivery by Thursday | Arabella Farm Direct Bouquet of 12 Fresh Cut Pink Roses with a Free Glass Vase	1	0	1	SecondDay	Nancy Hart	3496 LANDER RD			PEPPER PIKE	OH	44124-5728	US		Hi Nance: I miss you tons and love you more! xoxo Marion From marion haines hart	false		
114-4319432-6367403	29758033588514	2020-07-28T15:13:09+00:00	2020-07-28T08:13:09-07:00	2020-07-28T15:40:57+00:00	2020-07-29T06:59:59+00:00	-1	877kdvwxx0z6f4c@marketplace.amazon.com	Linda Fleetwood	+1 929-436-4790 ext. 74467	ABR001	Purchase Now for Delivery by Thursday | Arabella Bouquets 12 Stems of Fresh Cut Red Roses in a Free Designer Glass Vase	1	0	1	SecondDay	Dorothy Wills	5000 FAWN MDWS APT 220			SAN ANTONIO	TX	78240-1538	US		Happy Anniversary from your beloved Raymond! He loved you so much - we love you along with him. From Linda Fleetwood	false		
111-0759408-2638651	07633315717290	2020-07-28T15:11:29+00:00	2020-07-28T08:11:29-07:00	2020-07-28T15:41:09+00:00	2020-07-29T06:59:59+00:00	-1	qkgmx07m0b329m4@marketplace.amazon.com	Amanda J Gray	+1 415-851-9136 ext. 90320	ABR0022	Purchase Now for Delivery by Thursday | Arabella Farm Direct Bouquet of 12 Fresh Cut Pink Roses with a Free Glass Vase	1	0	1	SecondDay	Erin Kephart	4205 ROYALVIEW RD			KNOXVILLE	TN	37921-3233	US		Take care of yourself! From Your Team	false		
111-8217039-7833836	40802969730802	2020-07-28T15:27:12+00:00	2020-07-28T08:27:12-07:00	2020-07-28T15:54:15+00:00	2020-07-29T06:59:59+00:00	-1	l0qlm9f7ct2ckb8@marketplace.amazon.com	Sydney Johantges	+1 929-436-4790 ext. 93047	ABR0022	Purchase Now for Delivery by Thursday | Arabella Farm Direct Bouquet of 12 Fresh Cut Pink Roses with a Free Glass Vase	1	0	1	SecondDay	Namita Jagessar	18 SEASONS GLEN DR			MORRIS PLAINS	NJ	07950-1142	US		Happy Birthday Much love from the Jos XOXO From Sydney Johantges	false		
114-6736333-1125856	50663039662258	2020-07-28T15:37:38+00:00	2020-07-28T08:37:38-07:00	2020-07-28T16:02:46+00:00	2020-07-29T06:59:59+00:00	-1	q3bmgct49yzl07j@marketplace.amazon.com	cynthia gazzolo	+1 929-436-4790 ext. 55563	ABM0033	Purchase Now for Delivery by Thursday | Arabella Farm Direct Bouquet of Fresh Cut White Hydrangea with a Free Glass Vase	1	0	1	SecondDay	Amy Fernandez	214 LUGONIA ST			NEWPORT BEACH	CA	92663-1831	US		Thank you for being a constant inspiration and the best friend anyone could ask for! Sending you and Steven lots of love, support and health! Missing and am thinking of you always. And...CONGRATULATIONS ON THE HOUSE!!! From Love, Amber	false		
113-4814092-9498634	59233019205778	2020-07-28T15:48:21+00:00	2020-07-28T08:48:21-07:00	2020-07-28T16:14:58+00:00	2020-07-29T06:59:59+00:00	-1	fj677w34bd62sw3@marketplace.amazon.com	Baylee	+1 929-436-4790 ext. 54669	ABR004	Arabella Farm Direct Bouquet of 12 Fresh Cut Yellow Roses with a Free Glass Vase	1	0	1	SecondDay	Kristie Garcia	2877 SAN ELIZARIO CT			LAS CRUCES	NM	88007-1971	US		Hope you feel better soon Kristie! Sending all our thoughts. From The Banks Family	false		
111-3520795-6097000	68308923371482	2020-07-28T15:49:34+00:00	2020-07-28T08:49:34-07:00	2020-07-28T16:18:37+00:00	2020-07-29T06:59:59+00:00	-1	0vv8hd52x7tzj86@marketplace.amazon.com	Anthony and Betty	+1 929-436-4790 ext. 18868	ABR0022	Purchase Now for Delivery by Thursday | Arabella Farm Direct Bouquet of 12 Fresh Cut Pink Roses with a Free Glass Vase	1	0	1	SecondDay	Carolyn Oakley	3811 MENGER			SAN ANTONIO	TX	78259-1741	US		Happy birthday dear Carolyn. Hope you and mom are doing OK. God bless you and I think of both of you often From Anthony and Betty	false		
114-8202786-4890612	62796738836938	2020-07-28T16:00:41+00:00	2020-07-28T09:00:41-07:00	2020-07-28T16:24:49+00:00	2020-07-29T06:59:59+00:00	-1	gkhym33hbmqtvlw@marketplace.amazon.com	Jill Watson	+1 929-436-4790 ext. 48324	ABR001	Purchase Now for Delivery by Thursday | Arabella Bouquets 12 Stems of Fresh Cut Red Roses in a Free Designer Glass Vase	1	0	1	SecondDay	Leslie Harmon-Watson	43 KENEFICK AVE			BUFFALO	NY	14220-1519	US		Happy Birthday, Les! I love you. I'm always looking over you. Look for the signs. Have fun, be smart, and be the strong broad I taught you to be.  Love always & eternally,  Guy XOXO From Guy and Jill	false		
113-4352999-8925015	44744641373402	2020-07-28T15:59:09+00:00	2020-07-28T08:59:09-07:00	2020-07-28T16:27:08+00:00	2020-07-29T06:59:59+00:00	-1	jdpj84fsck1n7w3@marketplace.amazon.com	Leo Hernandez	+1 415-851-9136 ext. 06748	ABR001	Purchase Now for Delivery by Thursday | Arabella Bouquets 12 Stems of Fresh Cut Red Roses in a Free Designer Glass Vase	1	0	1	SecondDay	Lulu Alvarado	11137 SEE DR			WHITTIER	CA	90606-1649	US		Happy birthday Mi bomboncito  Que cumplas muchos años más llenos de felicidad  Desde el fondo de mi corazón y mi alma De Leoncito 🦁miauuuuuu	false		
113-6694851-2077040	48578451065450	2020-07-28T16:07:45+00:00	2020-07-28T09:07:45-07:00	2020-07-28T16:36:27+00:00	2020-07-29T06:59:59+00:00	-1	syg44gv6mjw0dq0@marketplace.amazon.com	Sean marler	+1 929-436-4790 ext. 53166	ABR001	Purchase Now for Delivery by Thursday | Arabella Bouquets 12 Stems of Fresh Cut Red Roses in a Free Designer Glass Vase	1	0	1	SecondDay	Krislynn Johnson	9807 N FM 620 RD APT 19304			AUSTIN	TX	78726-2291	US			false		
113-4357196-2153865	18674326414570	2020-07-28T16:54:31+00:00	2020-07-28T09:54:31-07:00	2020-07-28T17:16:39+00:00	2020-07-29T06:59:59+00:00	-1	5j00hvyslj0p5kx@marketplace.amazon.com	Jerry A Salvador	+1 415-851-9136 ext. 60815	ABR001	Purchase Now for Delivery by Thursday | Arabella Bouquets 12 Stems of Fresh Cut Red Roses in a Free Designer Glass Vase	1	0	1	SecondDay	Linda Grandon	22980 SW Erio Plac			Tualatin	OR	97062-7375	US		Okay! You're 70!  In great health for your Birthday.  I'll give you and hour to ponder what's happy these days.  Keep smiling my friend. sal From Jerry A Salvador	false		
113-2617639-0095432	38057732080738	2020-07-28T16:50:46+00:00	2020-07-28T09:50:46-07:00	2020-07-28T17:20:02+00:00	2020-07-29T06:59:59+00:00	-1	pf3ctpg93rgy89f@marketplace.amazon.com	matthew d conkle	+1 929-436-4790 ext. 80522	ABM010	The Spring Fling Bouquet by Arabella Bouquets with a Free Designer Glass Vase	1	0	1	SecondDay	Margarita Sandoval	12334 TELECHRON AVE			WHITTIER	CA	90605-4231	US		We are thinking about you and hope that you are resting and healing nicely.  Missing you!! From Jessica, Deb, Elise, and Jaime	false		
113-8629868-1202633	40410028922578	2020-07-28T16:54:15+00:00	2020-07-28T09:54:15-07:00	2020-07-28T17:22:36+00:00	2020-07-31T06:59:59+00:00	-3	dy3d3lpgq46t42l@marketplace.amazon.com	Susan D. Stephenson	+1 929-436-4790 ext. 02185	ABR0055	Purchase Now for Delivery by Thursday | Arabella Farm Direct Bouquet of 12 Stems of Fresh Cut Hot Pink Roses in a Free Designer Glass Vase	1	0	1	Expedited	Julie Summers	810 BESSEMER DR			WYLIE	TX	75098-6985	US		Because we became friends long ago. I will always be there for you and Zoë!  All my love sister. From Susan D. Stephenson	false		
113-6986809-6477827	41240900884266	2020-07-27T23:45:37+00:00	2020-07-27T16:45:37-07:00	2020-07-28T17:52:57+00:00	2020-07-31T06:59:59+00:00	-3	8rtypndyjy7fnqp@marketplace.amazon.com	Susie	+1 929-436-4790 ext. 78816	ABR0022	Purchase Now for Delivery by Thursday | Arabella Farm Direct Bouquet of 12 Fresh Cut Pink Roses with a Free Glass Vase	1	0	1	Expedited	Florence Conroy at Somerset Ridge Center	455 BRAYTON AVE RM 215A			SOMERSET	MA	02726-2642	US			false		
112-9519959-1914658	43875014683258	2020-07-28T17:58:37+00:00	2020-07-28T10:58:37-07:00	2020-07-28T18:27:38+00:00	2020-07-31T06:59:59+00:00	-3	8w5hmd4m479zgkd@marketplace.amazon.com	Cortney Schaefer	+1 415-851-9136 ext. 39038	ABR0022	Purchase Now for Delivery by Friday | Arabella Farm Direct Bouquet of 12 Fresh Cut Pink Roses with a Free Glass Vase	1	0	1	Expedited	Grandma Maier	11 NOKOMIS DR			CHEROKEE VILLAGE	AR	72529-2605	US		Happy Birthday, Grandma!!! I love you so much and am so thankful to have you in my life! I love all my memories spent with you! I hope to see you soon!! Love and hugs, Cortney From Cortney Schaefer	false		
114-3727690-1837860	50249100457594	2020-07-28T18:24:42+00:00	2020-07-28T11:24:42-07:00	2020-07-28T18:52:15+00:00	2020-07-30T06:59:59+00:00	-2	1j1l578tsghn0yx@marketplace.amazon.com	Kesha Pope	+1 929-436-4790 ext. 58908	ABM010	The Spring Fling Bouquet by Arabella Bouquets with a Free Designer Glass Vase	1	0	1	SecondDay	Andrea Brady	20131 LAM RD SE			COVINGTON	LA	70435-8376	US		Good luck in your new position. You are gonna rock it! We are so happy for you! XOXO Team Fantastic From Kesha, Mike, Bobby, Susan, Sydney, Ryan	false		
112-4809757-0765868	00759468013962	2020-07-28T18:24:41+00:00	2020-07-28T11:24:41-07:00	2020-07-28T18:53:14+00:00	2020-07-30T06:59:59+00:00	-2	b76rmjmyp2qpfj9@marketplace.amazon.com	Anthony Menio	+1 415-851-9136 ext. 03550	ABR0022	Purchase Now for Delivery by Friday | Arabella Farm Direct Bouquet of 12 Fresh Cut Pink Roses with a Free Glass Vase	1	0	1	SecondDay	Meghan Sullivan	36 SHERMAN PL APT 409			JERSEY CITY	NJ	07307-3049	US		Enjoy your gift! From Anthony Menio	false		
113-6029956-8261064	28758235413242	2020-07-28T18:25:37+00:00	2020-07-28T11:25:37-07:00	2020-07-28T18:55:47+00:00	2020-07-30T06:59:59+00:00	-2	78qx9fn7f383c33@marketplace.amazon.com	Javier	+1 929-436-4790 ext. 92003	ABR0066	Arabella Bouquets 12 Stems of Fresh Cut White Roses in a Free Designer Glass Vase	1	0	1	SecondDay	Betina hernandez	19406 MONTCLAIR MEADOW LN			KATY	TX	77449-4125	US			false		
112-9573300-9642608	53437097535682	2020-07-28T18:37:44+00:00	2020-07-28T11:37:44-07:00	2020-07-28T18:57:50+00:00	2020-07-30T06:59:59+00:00	-2	xy6xx7s91n4f92b@marketplace.amazon.com	Dave	+1 929-436-4790 ext. 35856	ABR0022	Purchase Now for Delivery by Friday | Arabella Farm Direct Bouquet of 12 Fresh Cut Pink Roses with a Free Glass Vase	1	0	1	SecondDay	Madelaine Gillis	832 SUNSET LAKE BLVD RM 304			VENICE	FL	34292-7550	US		Mom - Love your boys!!!! From Dave	false		
114-6411377-0181831	41287017850626	2020-07-28T18:36:42+00:00	2020-07-28T11:36:42-07:00	2020-07-28T18:59:34+00:00	2020-07-30T06:59:59+00:00	-2	0pv2l7r31mtxvfg@marketplace.amazon.com	Simran Parmar	+1 415-851-9136 ext. 80299	ABR0022	Purchase Now for Delivery by Friday | Arabella Farm Direct Bouquet of 12 Fresh Cut Pink Roses with a Free Glass Vase	1	0	1	SecondDay	Radha Desai	4 ROLLING HILLS DR			SOMERSET	NJ	08873-5329	US		Happy Birthday!! From Parmar Family	false		
112-3444414-1059435	12635922444250	2020-07-28T18:34:21+00:00	2020-07-28T11:34:21-07:00	2020-07-28T19:00:52+00:00	2020-07-30T06:59:59+00:00	-2	ck2gshkvzfr8d2v@marketplace.amazon.com	ALI KASFY	+1 929-436-4790 ext. 86690	ABM010	The Spring Fling Bouquet by Arabella Bouquets with a Free Designer Glass Vase	1	0	1	SecondDay	ali kasfy	707 VIA LOS SANTOS			SAN DIMAS	CA	91773-3156	US		Happy Anniversary Honey From ALI KASFY	false		
111-3140153-6976213	20157439440858	2020-07-28T18:55:55+00:00	2020-07-28T11:55:55-07:00	2020-07-28T19:15:42+00:00	2020-07-30T06:59:59+00:00	-2	5hk5p36csz9lpt1@marketplace.amazon.com	Rich Fahringer	+1 929-436-4790 ext. 74517	ABR0022	Purchase Now for Delivery by Friday | Arabella Farm Direct Bouquet of 12 Fresh Cut Pink Roses with a Free Glass Vase	1	0	1	SecondDay	Paula McKinney	78 CLOVERLEAF CIR			BRENTWOOD	CA	94513-1437	US		Love you. Nina and Rich From Nina and Rich	false		
