order-id	order-item-id	purchase-date	payments-date	reporting-date	promise-date	days-past-promise	buyer-email	buyer-name	buyer-phone-number	sku	product-name	quantity-purchased	quantity-shipped	quantity-to-ship	ship-service-level	recipient-name	ship-address-1	ship-address-2	ship-address-3	ship-city	ship-state	ship-postal-code	ship-country	gift-wrap-type	gift-message-text	is-business-order	purchase-order-number	price-designation
112-9519959-1914658	43875014683258	2020-07-28T17:58:37+00:00	2020-07-28T10:58:37-07:00	2020-07-28T18:27:38+00:00	2020-07-31T06:59:59+00:00	-3	8w5hmd4m479zgkd@marketplace.amazon.com	Cortney Schaefer	+1 415-851-9136 ext. 39038	ABR0022	Purchase Now for Delivery by Friday | Arabella Farm Direct Bouquet of 12 Fresh Cut Pink Roses with a Free Glass Vase	1	0	1	Expedited	Grandma Maier	11 NOKOMIS DR			CHEROKEE VILLAGE	AR	72529-2605	US		Happy Birthday, Grandma!!! I love you so much and am so thankful to have you in my life! I love all my memories spent with you! I hope to see you soon!! Love and hugs, Cortney From Cortney Schaefer	false		
114-3727690-1837860	50249100457594	2020-07-28T18:24:42+00:00	2020-07-28T11:24:42-07:00	2020-07-28T18:52:15+00:00	2020-07-30T06:59:59+00:00	-2	1j1l578tsghn0yx@marketplace.amazon.com	Kesha Pope	+1 929-436-4790 ext. 58908	ABM010	The Spring Fling Bouquet by Arabella Bouquets with a Free Designer Glass Vase	1	0	1	SecondDay	Andrea Brady	20131 LAM RD SE			COVINGTON	LA	70435-8376	US		Good luck in your new position. You are gonna rock it! We are so happy for you! XOXO Team Fantastic From Kesha, Mike, Bobby, Susan, Sydney, Ryan	false		
112-4809757-0765868	00759468013962	2020-07-28T18:24:41+00:00	2020-07-28T11:24:41-07:00	2020-07-28T18:53:14+00:00	2020-07-30T06:59:59+00:00	-2	b76rmjmyp2qpfj9@marketplace.amazon.com	Anthony Menio	+1 415-851-9136 ext. 03550	ABR0022	Purchase Now for Delivery by Friday | Arabella Farm Direct Bouquet of 12 Fresh Cut Pink Roses with a Free Glass Vase	1	0	1	SecondDay	Meghan Sullivan	36 SHERMAN PL APT 409			JERSEY CITY	NJ	07307-3049	US		Enjoy your gift! From Anthony Menio	false		
113-6029956-8261064	28758235413242	2020-07-28T18:25:37+00:00	2020-07-28T11:25:37-07:00	2020-07-28T18:55:47+00:00	2020-07-30T06:59:59+00:00	-2	78qx9fn7f383c33@marketplace.amazon.com	Javier	+1 929-436-4790 ext. 92003	ABR0066	Arabella Bouquets 12 Stems of Fresh Cut White Roses in a Free Designer Glass Vase	1	0	1	SecondDay	Betina hernandez	19406 MONTCLAIR MEADOW LN			KATY	TX	77449-4125	US			false		
112-9573300-9642608	53437097535682	2020-07-28T18:37:44+00:00	2020-07-28T11:37:44-07:00	2020-07-28T18:57:50+00:00	2020-07-30T06:59:59+00:00	-2	xy6xx7s91n4f92b@marketplace.amazon.com	Dave	+1 929-436-4790 ext. 35856	ABR0022	Purchase Now for Delivery by Friday | Arabella Farm Direct Bouquet of 12 Fresh Cut Pink Roses with a Free Glass Vase	1	0	1	SecondDay	Madelaine Gillis	832 SUNSET LAKE BLVD RM 304			VENICE	FL	34292-7550	US		Mom - Love your boys!!!! From Dave	false		
114-6411377-0181831	41287017850626	2020-07-28T18:36:42+00:00	2020-07-28T11:36:42-07:00	2020-07-28T18:59:34+00:00	2020-07-30T06:59:59+00:00	-2	0pv2l7r31mtxvfg@marketplace.amazon.com	Simran Parmar	+1 415-851-9136 ext. 80299	ABR0022	Purchase Now for Delivery by Friday | Arabella Farm Direct Bouquet of 12 Fresh Cut Pink Roses with a Free Glass Vase	1	0	1	SecondDay	Radha Desai	4 ROLLING HILLS DR			SOMERSET	NJ	08873-5329	US		Happy Birthday!! From Parmar Family	false		
112-3444414-1059435	12635922444250	2020-07-28T18:34:21+00:00	2020-07-28T11:34:21-07:00	2020-07-28T19:00:52+00:00	2020-07-30T06:59:59+00:00	-2	ck2gshkvzfr8d2v@marketplace.amazon.com	ALI KASFY	+1 929-436-4790 ext. 86690	ABM010	The Spring Fling Bouquet by Arabella Bouquets with a Free Designer Glass Vase	1	0	1	SecondDay	ali kasfy	707 VIA LOS SANTOS			SAN DIMAS	CA	91773-3156	US		Happy Anniversary Honey From ALI KASFY	false		
111-3140153-6976213	20157439440858	2020-07-28T18:55:55+00:00	2020-07-28T11:55:55-07:00	2020-07-28T19:15:42+00:00	2020-07-30T06:59:59+00:00	-2	5hk5p36csz9lpt1@marketplace.amazon.com	Rich Fahringer	+1 929-436-4790 ext. 74517	ABR0022	Purchase Now for Delivery by Friday | Arabella Farm Direct Bouquet of 12 Fresh Cut Pink Roses with a Free Glass Vase	1	0	1	SecondDay	Paula McKinney	78 CLOVERLEAF CIR			BRENTWOOD	CA	94513-1437	US		Love you. Nina and Rich From Nina and Rich	false		
114-3378971-8249052	70126207604586	2020-07-28T19:04:16+00:00	2020-07-28T12:04:16-07:00	2020-07-28T19:32:31+00:00	2020-07-30T06:59:59+00:00	-2	f5757p736s1tgb6@marketplace.amazon.com	Vicki Rosenkrantz	+1 415-851-9136 ext. 17525	ABM010	The Spring Fling Bouquet by Arabella Bouquets with a Free Designer Glass Vase	1	0	1	SecondDay	Sherry Frank	450 N SOLDANO AVE 273-K			AZUSA	CA	91702-3657	US		Happy Birthday Sherry!  Have A Beautiful Day..We Love You From Vicki & Wayne	false		
111-6475484-5541045	15544910499130	2020-07-28T19:23:42+00:00	2020-07-28T12:23:42-07:00	2020-07-28T19:52:50+00:00	2020-07-31T06:59:59+00:00	-3	zwq1rjtwz57n6p4@marketplace.amazon.com	Mark Thomas	+1 929-436-4790 ext. 65855	ABR0022	Purchase Now for Delivery by Friday | Arabella Farm Direct Bouquet of 12 Fresh Cut Pink Roses with a Free Glass Vase	1	0	1	Expedited	Madhuri Tamang	27060 CEDAR RD APT 819 BUILDING 3			BEACHWOOD	OH	44122-1131	US			false		
113-0772008-4529017	06797883632986	2020-07-28T19:32:49+00:00	2020-07-28T12:32:49-07:00	2020-07-28T19:56:03+00:00	2020-07-31T06:59:59+00:00	-3	21d8054zy61knpk@marketplace.amazon.com	Dale S. Marmion	+1 929-436-4790 ext. 16964	ABR0022	Purchase Now for Delivery by Friday | Arabella Farm Direct Bouquet of 12 Fresh Cut Pink Roses with a Free Glass Vase	1	0	1	Expedited	Stephen J. Gonzalez	268 E. River Rd. #250			Tucson	Arizona	85704	US		My Mom told me about Aunt Alicia.  Please give my regards to the rest of the family and regret that I was unable to visit because Mi Cha has been very ill the las 6 years and just got out of the hospital for her heart. From Dale S. Marmion	false		
113-1345839-4592222	09264134321706	2020-07-28T19:35:27+00:00	2020-07-28T12:35:27-07:00	2020-07-28T20:05:50+00:00	2020-07-30T06:59:59+00:00	-2	ffml14wpql7qjb5@marketplace.amazon.com	Shaboom970	+1 929-436-4790 ext. 46540	ABR001	Purchase Now for Delivery by Friday | Arabella Bouquets 12 Stems of Fresh Cut Red Roses in a Free Designer Glass Vase	1	0	1	SecondDay	Elias Benson	2786 WILLIAMS WAY			SANTA BARBARA	CA	93105-2149	US			false		
111-3497846-4783463	01352605488626	2020-07-28T19:43:06+00:00	2020-07-28T12:43:06-07:00	2020-07-28T20:13:25+00:00	2020-07-31T06:59:59+00:00	-3	m1kbjmzhv9xxrwg@marketplace.amazon.com	Maria Bravo	+1 929-436-4790 ext. 65778	ABR014	Arabella Bouquets 18 Stems of Fresh Cut White Roses in a Free Designer Glass Vase	1	0	1	Expedited	Maria Bravo	5000 W 120TH ST			HAWTHORNE	CA	90250-2729	US			false		
114-0019258-5151463	32399917628962	2020-07-28T19:54:16+00:00	2020-07-28T12:54:16-07:00	2020-07-28T20:19:29+00:00	2020-07-30T06:59:59+00:00	-2	t3vly4k24g48y5h@marketplace.amazon.com	Martha Brownlee	+1 929-436-4790 ext. 48565	ABR0022	Purchase Now for Delivery by Friday | Arabella Farm Direct Bouquet of 12 Fresh Cut Pink Roses with a Free Glass Vase	1	0	1	SecondDay	Martha Diaz	1925 OTAY LAKES RD SPC 95			CHULA VISTA	CA	91913-3112	US			false		
112-4085838-2933037	07888759902562	2020-07-28T19:56:55+00:00	2020-07-28T12:56:55-07:00	2020-07-28T20:20:03+00:00	2020-07-30T06:59:59+00:00	-2	8bgzlf7zzqlw2w9@marketplace.amazon.com	Tina Allocco	+1 929-436-4790 ext. 37690	ABM010	The Spring Fling Bouquet by Arabella Bouquets with a Free Designer Glass Vase	1	0	1	SecondDay	Maria Hoppas	72B RIVERVALE CT			SCOTCH PLAINS	NJ	07076-3021	US		Thank you for always being there for me and taking me to my appointments this week.  I know it wasn't easy.  I am so grateful to have you as my sister! I love you!! From Tina Allocco	false		
113-0124446-9317057	53777155443650	2020-07-28T20:14:23+00:00	2020-07-28T13:14:23-07:00	2020-07-28T20:38:34+00:00	2020-07-30T06:59:59+00:00	-2	ft8t87fb264m03g@marketplace.amazon.com	Teresa Stephenson	+1 415-851-9136 ext. 23055	ABM010	The Spring Fling Bouquet by Arabella Bouquets with a Free Designer Glass Vase	1	0	1	SecondDay	Mary Custer c/o Harbor Chase	13517 Northeast 86th Court			Lady Lake	Florida	32159	US			false		
111-6713496-8947468	44832549047258	2020-07-28T20:27:09+00:00	2020-07-28T13:27:09-07:00	2020-07-28T20:56:17+00:00	2020-07-30T06:59:59+00:00	-2	h1rbzjkbt9g99jy@marketplace.amazon.com	Melanie Bowen	+1 415-851-9136 ext. 09364	ABR0022	Purchase Now for Delivery by Friday | Arabella Farm Direct Bouquet of 12 Fresh Cut Pink Roses with a Free Glass Vase	1	0	1	SecondDay	Kristy Rapp-Malarney	732 GROVE ST			WORCESTER	MA	01605-3141	US		Happy Birthday Kristy!! Miss you so much and I hope you have an amazing day!! Love you!! From Love, Melanie Bowen	false		
113-6534084-4656267	20733977507290	2020-07-28T20:31:33+00:00	2020-07-28T13:31:33-07:00	2020-07-28T20:59:19+00:00	2020-07-30T06:59:59+00:00	-2	4mm9bb92jpqlk5q@marketplace.amazon.com	John D. Carr	+1 929-436-4790 ext. 10435	ABR0022	Purchase Now for Delivery by Friday | Arabella Farm Direct Bouquet of 12 Fresh Cut Pink Roses with a Free Glass Vase	1	0	1	SecondDay	Ms. Sarah Lonquist	3331 Walnut St NE			St Petersburg	FL	33704-2352	US		Love you  John From John D. Carr	false		
113-0083910-0918672	59120455355146	2020-07-28T20:34:29+00:00	2020-07-28T13:34:29-07:00	2020-07-28T21:02:48+00:00	2020-07-31T06:59:59+00:00	-3	4mm9bb92jpqlk5q@marketplace.amazon.com	John D. Carr	+1 929-436-4790 ext. 76862	ABR0055	Purchase Now for Delivery by Friday | Arabella Farm Direct Bouquet of 12 Stems of Fresh Cut Hot Pink Roses in a Free Designer Glass Vase	1	0	1	Expedited	Lynn M. Tran	409 West Dampier Street			Inverness	Florida	34450-4152	US		Love, Dad From John D. Carr	false		
112-2593244-1163419	56213086075946	2020-07-28T20:45:41+00:00	2020-07-28T13:45:41-07:00	2020-07-28T21:12:53+00:00	2020-07-30T06:59:59+00:00	-2	bqp0ymjt0zdkl5k@marketplace.amazon.com	Blanca Duenas	+1 929-436-4790 ext. 66712	ABR015	Purchase Now for Delivery by Friday | Arabella Farm Direct Bouquet of 18 Fresh Cut Orange Roses with a Free Glass Vase	1	0	1	SecondDay	Caroline Harkins	1335 RECHE RD			FALLBROOK	CA	92028-3639	US		Caroline Thinking about you often and wishing you a Happy belated Birthday! Love John & Blanca Brown From Blanca Brown	false		
112-7684619-7694647	19531354836706	2020-07-28T20:49:25+00:00	2020-07-28T13:49:25-07:00	2020-07-28T21:14:40+00:00	2020-07-30T06:59:59+00:00	-2	gyfqrtnjbmqf8pg@marketplace.amazon.com	Nataliya Sargis	+1 929-436-4790 ext. 44937	ABR0055	Purchase Now for Delivery by Friday | Arabella Farm Direct Bouquet of 12 Stems of Fresh Cut Hot Pink Roses in a Free Designer Glass Vase	1	0	1	SecondDay	Tamara Petrushina	6218 CROOKED CREEK DR			MASON	OH	45040-2444	US		Happy Birthday, Mama! Hugs from All of Us From The Sargis'	false		
111-9228288-9980206	60407277966010	2020-07-28T20:53:30+00:00	2020-07-28T13:53:30-07:00	2020-07-28T21:16:08+00:00	2020-07-30T06:59:59+00:00	-2	y8vz5vl68n4ysp7@marketplace.amazon.com	Joanne Brady	+1 929-436-4790 ext. 65842	ABR0022	Purchase Now for Delivery by Friday | Arabella Farm Direct Bouquet of 12 Fresh Cut Pink Roses with a Free Glass Vase	1	0	1	SecondDay	Mary Willitts	7076 SUNRISE CIR			FRANKLIN	TN	37067-8300	US		Mary my big Sis wanted to wish you a very Happy Birthday!!! LOVE YOU !!! Wish this bouquet included a Big Hug and Kiss!!!!! From Joanne Brady	false		
113-5205459-6687469	16706643936634	2020-07-28T20:48:25+00:00	2020-07-28T13:48:25-07:00	2020-07-28T21:16:25+00:00	2020-07-30T06:59:59+00:00	-2	qrpbc3jsdhpc1k0@marketplace.amazon.com	James smith	+1 929-436-4790 ext. 36839	ABR0022	Purchase Now for Delivery by Friday | Arabella Farm Direct Bouquet of 12 Fresh Cut Pink Roses with a Free Glass Vase	1	0	1	SecondDay	James smith	26 PRIEST HILL RD			VASSALBORO	ME	04989-3134	US		Your the only one for me Karen. I love you with all my heart and that will never change. You are the only one I want to spend my life with. From James smith	false		
111-2039881-5051402	22285740758338	2020-07-28T20:57:32+00:00	2020-07-28T13:57:32-07:00	2020-07-28T21:26:11+00:00	2020-07-30T06:59:59+00:00	-2	8vz4m4m0krrpymj@marketplace.amazon.com	harold l. york	+1 929-436-4790 ext. 97288	ABR0022	Purchase Now for Delivery by Friday | Arabella Farm Direct Bouquet of 12 Fresh Cut Pink Roses with a Free Glass Vase	1	0	1	SecondDay	Emma York	519 SE 48TH AVE			PORTLAND	OR	97215-1718	US		Happy birthday!  Love from Grandpa and Grandma From harold l. york	false		
114-5497942-2855422	09953989551898	2020-07-28T21:29:56+00:00	2020-07-28T14:29:56-07:00	2020-07-28T21:58:49+00:00	2020-07-30T06:59:59+00:00	-2	tqxhcjh489y1css@marketplace.amazon.com	Caitlin Dale	+1 929-436-4790 ext. 32567	ABR0022	Purchase Now for Delivery by Friday | Arabella Farm Direct Bouquet of 12 Fresh Cut Pink Roses with a Free Glass Vase	1	0	1	SecondDay	Kate Lipsitz	7 ALDEN RD			MARBLEHEAD	MA	01945-1101	US		Just a little something for only you! I so enjoy our calls as they make me feel less alone (and crazy).  Can’t wait until we can get the families together! From Caitlin Dale	false		
114-2766549-3705825	46131937089098	2020-07-28T21:39:12+00:00	2020-07-28T14:39:12-07:00	2020-07-28T22:02:48+00:00	2020-07-30T06:59:59+00:00	-2	z3ypd3qnsqbyx7h@marketplace.amazon.com	tamara williams joseph	+1 929-436-4790 ext. 11721	ABR0022	Purchase Now for Delivery by Friday | Arabella Farm Direct Bouquet of 12 Fresh Cut Pink Roses with a Free Glass Vase	1	0	1	SecondDay	Aretha Booker	278 WILLOWBROOK DR APT 278	BUILDING 8		NORTH BRUNSWICK	NJ	08902-1257	US		Enjoy your gift! Without  you then I wouldn't  have such a friend thank you  Happy birthday From tamara williams joseph	false		
111-0683514-1361034	30920968330554	2020-07-28T21:32:09+00:00	2020-07-28T14:32:09-07:00	2020-07-28T22:05:34+00:00	2020-07-30T06:59:59+00:00	-2	qhcf3t2q8t78p43@marketplace.amazon.com	JB	+1 929-436-4790 ext. 96974	ABM010	The Spring Fling Bouquet by Arabella Bouquets with a Free Designer Glass Vase	1	0	1	SecondDay	MARLENE BENEFIELD	888 COUNTY ROAD 361			PISGAH	AL	35765-6135	US		HAPPY BIRTHDAY MARLENE I WISH YOU LOTS OF HAPPINESS AND GOOD HEALTH  MISS YOU AND LOVE YOU  THANK YOU FOR BEING SUCH A GOOD FRIEND  OANA From JB	false		
113-9191238-0684266	13955614020162	2020-07-28T21:36:21+00:00	2020-07-28T14:36:21-07:00	2020-07-28T22:06:28+00:00	2020-07-30T06:59:59+00:00	-2	g1v21qq9ggxlk9h@marketplace.amazon.com	TB Woodson		ABR0055	Purchase Now for Delivery by Friday | Arabella Farm Direct Bouquet of 12 Stems of Fresh Cut Hot Pink Roses in a Free Designer Glass Vase	1	0	1	SecondDay	TONI B WOODSON	5614 LONGACRE AVE			BARTLETT	TN	38134	US			false		
113-9876682-4488227	22386219303842	2020-07-28T21:40:00+00:00	2020-07-28T14:40:00-07:00	2020-07-28T22:08:17+00:00	2020-07-30T06:59:59+00:00	-2	6h9vyjs6tcs3wps@marketplace.amazon.com	Lorraine	+1 929-436-4790 ext. 09011	ABR0022	Purchase Now for Delivery by Friday | Arabella Farm Direct Bouquet of 12 Fresh Cut Pink Roses with a Free Glass Vase	1	0	1	SecondDay	Joyce Piemonte	80 STUART PL			MANHASSET	NY	11030-2620	US		Happy Birthday Joyce!  Have a great day whatever you do.  Love Pat & Lorraine From Pat and Lorraine	false		
113-8143540-0535425	66603699353226	2020-07-28T21:57:04+00:00	2020-07-28T14:57:04-07:00	2020-07-28T22:13:56+00:00	2020-07-30T06:59:59+00:00	-2	lq7ptsywgwrshpx@marketplace.amazon.com	David Bellm	+1 415-851-9136 ext. 92261	ABR0033	Purchase Now for Delivery by Friday | Arabella Farm Direct Bouquet of 12 Fresh Cut Orange Roses with a Free Glass Vase	1	0	1	SecondDay	Susy Sanders	11875 MEADE RD			ERIE	KS	66733-5108	US		Happy Birthday! Best wishes for another fantastic year.  Love, David From David Bellm	false		
114-1791478-7902634	23946039096274	2020-07-28T21:55:31+00:00	2020-07-28T14:55:31-07:00	2020-07-28T22:24:35+00:00	2020-07-30T06:59:59+00:00	-2	9czlcp2b4grb5j1@marketplace.amazon.com	Mindy Roberts	+1 929-436-4790 ext. 39989	ABM010	The Spring Fling Bouquet by Arabella Bouquets with a Free Designer Glass Vase	1	0	1	SecondDay	Gail Mascaro	522 POPLAR ST			NORTH BABYLON	NY	11703-1604	US		We are very sorry for your loss. You are in our thoughts and prayers. Xoxo From Justin & Mindy Roberts	false		
111-7798422-3893826	25635859613794	2020-07-28T21:56:00+00:00	2020-07-28T14:56:00-07:00	2020-07-28T22:24:39+00:00	2020-07-30T06:59:59+00:00	-2	wkt7tbg7j55ybvh@marketplace.amazon.com	Daniela	+1 929-436-4790 ext. 88185	ABR0022	Purchase Now for Delivery by Friday | Arabella Farm Direct Bouquet of 12 Fresh Cut Pink Roses with a Free Glass Vase	1	0	1	SecondDay	Cinthia Savioli	84 NW 104TH ST			MIAMI SHORES	FL	33150-1238	US		Ci! Feliz aniversário atrasado! Recebe estas flores com todo carinho e amor! Que seu novo ano seja repleto de amor, saúde, paz e felicidades. Te adoro muito! From Dani	false		
113-0408366-8780258	16929028335674	2020-07-28T21:55:59+00:00	2020-07-28T14:55:59-07:00	2020-07-28T22:26:01+00:00	2020-07-31T06:59:59+00:00	-3	cjxbl6nmc97ft1y@marketplace.amazon.com	Victoria Luna	+1 929-436-4790 ext. 79616	ABM010	The Spring Fling Bouquet by Arabella Bouquets with a Free Designer Glass Vase	1	0	1	Expedited	Martha Luna	1256 Crystal Point			Fenton	MI	48530	US			false		
114-1973516-3615422	36914742696610	2020-07-28T22:14:18+00:00	2020-07-28T15:14:18-07:00	2020-07-28T22:41:13+00:00	2020-07-31T06:59:59+00:00	-3	cqstfzh8py71smm@marketplace.amazon.com	Katherine A Mander	+1 929-436-4790 ext. 98059	ABR0022	Purchase Now for Delivery by Friday | Arabella Farm Direct Bouquet of 12 Fresh Cut Pink Roses with a Free Glass Vase	1	0	1	Standard	Katherine A Mander	C/O NANCY JENKINSON	108 JUNIPER TRL		OCALA	FL	34480-9600	US			false		
111-1439243-7835451	14727706931234	2020-07-28T22:13:43+00:00	2020-07-28T15:13:43-07:00	2020-07-28T22:43:56+00:00	2020-07-30T06:59:59+00:00	-2	9s7ytt5lx80m3c6@marketplace.amazon.com	A	+1 929-436-4790 ext. 29498	ABR001	Purchase Now for Delivery by Friday | Arabella Bouquets 12 Stems of Fresh Cut Red Roses in a Free Designer Glass Vase	1	0	1	SecondDay	A	100 ROLLINGWOOD DR			DUDLEY	NC	28333-8208	US			false		
114-3271688-1002605	47795048166274	2020-07-28T22:26:56+00:00	2020-07-28T15:26:56-07:00	2020-07-28T22:57:37+00:00	2020-07-31T06:59:59+00:00	-3	qzdqqx4t31fwzxq@marketplace.amazon.com	Coy Watson	+1 929-436-4790 ext. 10212	ABR0022	Purchase Now for Delivery by Friday | Arabella Farm Direct Bouquet of 12 Fresh Cut Pink Roses with a Free Glass Vase	1	0	1	Expedited	Coy Watson	1319 MAIN ST N			CARTHAGE	TN	37030-1059	US			false		
114-0821463-1145805	17490629015754	2020-07-28T22:55:48+00:00	2020-07-28T15:55:48-07:00	2020-07-28T23:10:40+00:00	2020-07-30T06:59:59+00:00	-2	y2x1kqm1b7sz3qg@marketplace.amazon.com	Joseph Hudgick	+1 415-851-9136 ext. 23337	ABR014	Arabella Bouquets 18 Stems of Fresh Cut White Roses in a Free Designer Glass Vase	1	0	1	SecondDay	Mr. & Mrs. Daniel Cozza	2929 WAVERLY DR APT 115			LOS ANGELES	CA	90039-2072	US			false		
113-0728466-2337030	05909591340242	2020-07-28T22:48:49+00:00	2020-07-28T15:48:49-07:00	2020-07-28T23:18:21+00:00	2020-07-30T06:59:59+00:00	-2	yyb8yf27f51rdfz@marketplace.amazon.com	Cindy Walton	+1 929-436-4790 ext. 34933	ABM010	The Spring Fling Bouquet by Arabella Bouquets with a Free Designer Glass Vase	1	0	1	SecondDay	Carla McCormack	506 ALMER RD APT 4			BURLINGAME	CA	94010-3940	US		Carla,  Happy Birthday! From Amber Harrison	false		
111-3698322-9460240	03909363353282	2020-07-28T22:58:43+00:00	2020-07-28T15:58:43-07:00	2020-07-28T23:18:35+00:00	2020-07-30T06:59:59+00:00	-2	w3r2cnjw9wrvdxg@marketplace.amazon.com	Mickey Travis	+1 929-436-4790 ext. 49927	ABR0022	Purchase Now for Delivery by Friday | Arabella Farm Direct Bouquet of 12 Fresh Cut Pink Roses with a Free Glass Vase	1	0	1	SecondDay	Blaire Flood (for Joyce Travis)	15022 W 70TH AVE			ARVADA	CO	80007-7262	US		Happy Birthday, Mom!  Love, Mickey & Shellie From Mickey Travis	false		
111-3287544-2529024	57208671324946	2020-07-28T22:55:58+00:00	2020-07-28T15:55:58-07:00	2020-07-28T23:22:03+00:00	2020-07-31T06:59:59+00:00	-3	sjyqvbp6220p9gb@marketplace.amazon.com	carol james	+1 929-436-4790 ext. 25782	ABR001	Purchase Now for Delivery by Friday | Arabella Bouquets 12 Stems of Fresh Cut Red Roses in a Free Designer Glass Vase	1	0	1	Expedited	Betty James	1176 RIDGEWAY DR			ELGIN	IL	60123-1448	US		Happy 90th birthday! I am so happy for you. Only ten more years to go. We love you mom. Fred and Carol From Carol and Fred James	false		
112-5834639-0413848	15713447720074	2020-07-28T23:04:30+00:00	2020-07-28T16:04:30-07:00	2020-07-28T23:26:21+00:00	2020-07-30T06:59:59+00:00	-2	hfwv45v7sbr9000@marketplace.amazon.com	mary	+1 929-436-4790 ext. 90917	ABM010	The Spring Fling Bouquet by Arabella Bouquets with a Free Designer Glass Vase	1	0	1	SecondDay	Elizabeth Wagner	7829 N DENVER AVE			PORTLAND	OR	97217-6503	US		Enjoy your gift! From Mom	false		
111-7828491-7024241	41657379403330	2020-07-28T23:22:00+00:00	2020-07-28T16:22:00-07:00	2020-07-28T23:51:47+00:00	2020-07-30T06:59:59+00:00	-2	g3g25tg9kpnbsfx@marketplace.amazon.com	Christina Schult	+1 929-436-4790 ext. 05107	ABR0055	Purchase Now for Delivery by Friday | Arabella Farm Direct Bouquet of 12 Stems of Fresh Cut Hot Pink Roses in a Free Designer Glass Vase	1	0	1	SecondDay	Mercedes & James Brashear	2155 E 900 N			LA PORTE	IN	46350-8999	US			false		
112-6946645-9057859	15184288257890	2020-07-28T23:29:55+00:00	2020-07-28T16:29:55-07:00	2020-07-28T23:58:18+00:00	2020-07-31T06:59:59+00:00	-3	4r3f53b0b4cdwn6@marketplace.amazon.com	Richard Hopkins	+1 929-436-4790 ext. 20076	ABR0055	Purchase Now for Delivery by Friday | Arabella Farm Direct Bouquet of 12 Stems of Fresh Cut Hot Pink Roses in a Free Designer Glass Vase	1	0	1	Expedited	Christina Miller-Decker	5225 TOWN AND COUNTRY BLVD	APT 346		FRISCO	TX	75034-8280	US		Christina..Get better soon. Love , Rich and Nancy	false		
112-8285838-6229019	34276474293986	2020-07-28T23:52:16+00:00	2020-07-28T16:52:16-07:00	2020-07-29T00:13:30+00:00	2020-07-30T06:59:59+00:00	-2	j86xc8pyz5xgnvk@marketplace.amazon.com	ashley andrews	+1 929-436-4790 ext. 51146	ABR0022	Purchase Now for Delivery by Friday | Arabella Farm Direct Bouquet of 12 Fresh Cut Pink Roses with a Free Glass Vase	1	0	1	SecondDay	Georgette Knuckles	906 BEAR BRANCH WAY APT 205			WAKE FOREST	NC	27587-3880	US		Georgette, I am so sorry for your loss. From what you shared, I know she was a wonderful, vibrant, and dear friend. I can't imagine such a loss - I'm here if you wanna chat. Thinking and praying for you. Much Love, Ashley A. From Ashley Andrews	false		
112-3867837-3101012	52297631629786	2020-07-28T23:54:00+00:00	2020-07-28T16:54:00-07:00	2020-07-29T00:23:31+00:00	2020-07-31T06:59:59+00:00	-3	mx2j984kd3gw750@marketplace.amazon.com	Stephen Dyal	+1 929-436-4790 ext. 61586	ABR0033	Purchase Now for Delivery by Friday | Arabella Farm Direct Bouquet of 12 Fresh Cut Orange Roses with a Free Glass Vase	1	0	1	Expedited	Stephen Dyal	1230 Bonaire Road			Forest Hill	MD	21050	US			false		
111-5490336-7530604	22832674686082	2020-07-29T00:02:42+00:00	2020-07-28T17:02:42-07:00	2020-07-29T00:30:30+00:00	2020-07-30T06:59:59+00:00	-2	qxtt1v2rlsx5yyx@marketplace.amazon.com	Jing Lin	+1 415-851-9136 ext. 52986	ABR0022	Purchase Now for Delivery by Friday | Arabella Farm Direct Bouquet of 12 Fresh Cut Pink Roses with a Free Glass Vase	1	0	1	SecondDay	Heather Gates	1445 LEWIS AVE			LONG BEACH	CA	90813-2168	US		Happy happy birthday!!! Wish we were there to celebrate in person! From Jing and Amanda	false		
114-4938652-3235439	14378291035186	2020-07-29T00:24:10+00:00	2020-07-28T17:24:10-07:00	2020-07-29T00:50:14+00:00	2020-07-30T06:59:59+00:00	-2	882f1g9pp6fh3yg@marketplace.amazon.com	Mary Meyers Irwin	+1 415-851-9136 ext. 96468	ABM010	The Spring Fling Bouquet by Arabella Bouquets with a Free Designer Glass Vase	1	0	1	SecondDay	Virginia Meyers	34 SANJE CT			CROSSVILLE	TN	38572-6457	US			false		
111-5577863-0557834	48976966998762	2020-07-29T00:26:19+00:00	2020-07-28T17:26:19-07:00	2020-07-29T00:50:49+00:00	2020-07-30T06:59:59+00:00	-2	bf245f4v2jpvzqj@marketplace.amazon.com	Heather L Sussman	+1 929-436-4790 ext. 79703	ABR015	Purchase Now for Delivery by Friday | Arabella Farm Direct Bouquet of 18 Fresh Cut Orange Roses with a Free Glass Vase	1	0	1	SecondDay	Larry & Linda French	2424 AUTUMN OAK PL			STOCKTON	CA	95209-4206	US		HAPPY ANNIVERSARY! Congrats on 50 years!! Wishing you many more, From Steve and Carol	false		
111-3094817-2230639	03978279674162	2020-07-29T00:28:08+00:00	2020-07-28T17:28:08-07:00	2020-07-29T00:58:14+00:00	2020-07-30T06:59:59+00:00	-2	l237zpr3rzndkvv@marketplace.amazon.com	Karol Harrelson	+1 929-436-4790 ext. 62347	ABR0022	Purchase Now for Delivery by Friday | Arabella Farm Direct Bouquet of 12 Fresh Cut Pink Roses with a Free Glass Vase	1	0	1	SecondDay	Sarah Alianello	3900 E INDIANTOWN RD STE 607			JUPITER	FL	33477-5085	US			false		
114-5271869-4600238	49724488882402	2020-07-29T00:30:58+00:00	2020-07-28T17:30:58-07:00	2020-07-29T00:58:49+00:00	2020-07-30T06:59:59+00:00	-2	6zsrfv83xrmk28x@marketplace.amazon.com	Bryan	+1 929-436-4790 ext. 17187	ABM0044	Purchase Now for Delivery by Friday | Arabella Farm Direct Bouquet of Fresh Cut Blue Hydrangea with a Free Glass Vase	1	0	1	SecondDay	Bryan Germann	3334 42ND AVE S			MINNEAPOLIS	MN	55406-2245	US		Cat,   Every day I'm with you I am more amazed by your beauty, compassion and patience.  You make me want to be better for you. Happy Birthday. From Bryan	false		
113-5191850-1552244	43476818840530	2020-07-29T00:39:31+00:00	2020-07-28T17:39:31-07:00	2020-07-29T01:04:08+00:00	2020-07-30T06:59:59+00:00	-2	tkzgqs3b1n6ch28@marketplace.amazon.com	Rachael young	+1 929-436-4790 ext. 86329	ABR0022	Purchase Now for Delivery by Friday | Arabella Farm Direct Bouquet of 12 Fresh Cut Pink Roses with a Free Glass Vase	1	0	1	SecondDay	Tracy Horner	4405 SOUTHERN PINE DR SE			SOUTHPORT	NC	28461-9360	US		Horner Family Thank you so much for having Trisha at your beach home.  She is having a blast. From Rachael young	false		
113-5750123-4344218	35294990442898	2020-07-29T00:35:46+00:00	2020-07-28T17:35:46-07:00	2020-07-29T01:04:15+00:00	2020-07-31T06:59:59+00:00	-3	f7vqxk4ybzfr2f0@marketplace.amazon.com	Emilio	+1 929-436-4790 ext. 85068	ABR001	Purchase Now for Delivery by Friday | Arabella Bouquets 12 Stems of Fresh Cut Red Roses in a Free Designer Glass Vase	1	0	1	Expedited	Emilio	24 CROSBY ST			SPRINGFIELD	MA	01105-1521	US			false		
111-4714474-9554662	45586427795194	2020-07-29T00:39:42+00:00	2020-07-28T17:39:42-07:00	2020-07-29T01:04:38+00:00	2020-07-30T06:59:59+00:00	-2	qlrbjslzzctv3gl@marketplace.amazon.com	john cefalo	+1 929-436-4790 ext. 96757	ABR0022	Purchase Now for Delivery by Friday | Arabella Farm Direct Bouquet of 12 Fresh Cut Pink Roses with a Free Glass Vase	1	0	1	SecondDay	Kevin -Denise Finnerty	40 HICKORY CIR			STATEN ISLAND	NY	10312-1805	US		Happy Anniversary !!!!!! From John,Elizabeth- & Family	false		
111-5975183-5591432	65213133395514	2020-07-29T00:47:22+00:00	2020-07-28T17:47:22-07:00	2020-07-29T01:10:07+00:00	2020-07-30T06:59:59+00:00	-2	5s8s68rh0tgz0dy@marketplace.amazon.com	FARIDA DANBALA	+1 415-851-9136 ext. 69117	ABR0022	Purchase Now for Delivery by Friday | Arabella Farm Direct Bouquet of 12 Fresh Cut Pink Roses with a Free Glass Vase	1	0	1	SecondDay	Crystal Danbala	4159 MELLIS DR			INDIANAPOLIS	IN	46235-1533	US		It wasn't always perfect, but you made life worth it. Happy Birthday! May this new year of life usher in joy, growth and opportunity in abundance.  -- Love you From Your Children	false		
112-7245564-1505803	04783625786370	2020-07-29T01:01:45+00:00	2020-07-28T18:01:45-07:00	2020-07-29T01:30:48+00:00	2020-07-30T06:59:59+00:00	-2	w10j8zkh9rd6x8k@marketplace.amazon.com	Gary E Lorden	+1 929-436-4790 ext. 09898	ABR0055	Purchase Now for Delivery by Friday | Arabella Farm Direct Bouquet of 12 Stems of Fresh Cut Hot Pink Roses in a Free Designer Glass Vase	1	0	1	SecondDay	Carol  Lorden	600 COLE FARM RD UNIT A41			WARWICK	RI	02889-1365	US		Happy Birthday! From Gary E Lorden	false		
113-1739464-3174624	00966490654026	2020-07-29T01:15:19+00:00	2020-07-28T18:15:19-07:00	2020-07-29T01:43:17+00:00	2020-07-30T06:59:59+00:00	-2	jf6pp7jkkhn1589@marketplace.amazon.com	Khris P.	+1 929-436-4790 ext. 27890	ABR001	Purchase Now for Delivery by Friday | Arabella Bouquets 12 Stems of Fresh Cut Red Roses in a Free Designer Glass Vase	1	0	1	SecondDay	Diane Lewis	7611 S MERRILL AVE			CHICAGO	IL	60649-4132	US		Happy Birthday Diane!!!! From Love, Khristian, Kaleb, Alex, and Granny	false		
114-1014611-9833849	21920560306178	2020-07-29T01:17:23+00:00	2020-07-28T18:17:23-07:00	2020-07-29T01:45:15+00:00	2020-07-30T06:59:59+00:00	-2	gjfynrhysqszmn0@marketplace.amazon.com	Mary E. Franklin	+1 415-851-9136 ext. 67490	ABR0022	Purchase Now for Delivery by Friday | Arabella Farm Direct Bouquet of 12 Fresh Cut Pink Roses with a Free Glass Vase	1	0	1	SecondDay	Mary Franklin	2841 NE 33RD CT APT 305			FORT LAUDERDALE	FL	33306-2041	US		Happy Birthday My Dear Friend, Love, Mary From Mary E. Franklin	false		
114-8834046-2789063	58319062426970	2020-07-29T02:02:09+00:00	2020-07-28T19:02:09-07:00	2020-07-29T02:29:33+00:00	2020-07-30T06:59:59+00:00	-2	gl1rnr3mkngx3mp@marketplace.amazon.com	MaryAnn MacInnis	+1 415-851-9136 ext. 66241	ABM010	The Spring Fling Bouquet by Arabella Bouquets with a Free Designer Glass Vase	1	0	1	SecondDay	Trisha Moore	189 OAK HILL RD			CONCORD	NH	03301-8631	US		We Love you Trisha  get well soon. Love MaryAnn and Mac From MaryAnn MacInnis	false		
112-1112937-7009826	41367045760106	2020-07-29T02:06:20+00:00	2020-07-28T19:06:20-07:00	2020-07-29T02:33:27+00:00	2020-07-30T06:59:59+00:00	-2	bqp0ymjt0zdkl5k@marketplace.amazon.com	Blanca Duenas	+1 929-436-4790 ext. 13175	ABR0022	Purchase Now for Delivery by Friday | Arabella Farm Direct Bouquet of 12 Fresh Cut Pink Roses with a Free Glass Vase	1	0	1	SecondDay	Graciela Duenas	14145 SE STRING TOWN RD			DAYTON	OR	97114-8020	US		We’ll are all thinking about you and wishing you a speedy recovery. Love you John and Blanca From Blanca Duenas	false		
111-0935429-9532206	65444754785066	2020-07-29T02:11:04+00:00	2020-07-28T19:11:04-07:00	2020-07-29T02:36:40+00:00	2020-07-30T06:59:59+00:00	-2	flm66yst0vnjsgd@marketplace.amazon.com	Dana Chade	+1 929-436-4790 ext. 60976	ABR012	Arabella Farm Direct Bouquet of 18 Fresh Cut Pink Roses with a Free Glass Vase	1	0	1	SecondDay	Julie Dyas	4445 TORREY PINES DR			CHINO HILLS	CA	91709-7808	US		Dear Julie, Just a small thank you for all your incredible hard work!  The "pink" symbolize the gratitude, grace and joy plus the admiration of your gift of organization!  YOU ROCK!!!! Love you ~ Dana From Dana Chade	false		
111-6274622-1820252	44417201813874	2020-07-29T02:27:50+00:00	2020-07-28T19:27:50-07:00	2020-07-29T02:51:50+00:00	2020-07-30T06:59:59+00:00	-2	h8bbf9bqql29cqf@marketplace.amazon.com	William Pfaff	+1 929-436-4790 ext. 36273	ABR0022	Purchase Now for Delivery by Friday | Arabella Farm Direct Bouquet of 12 Fresh Cut Pink Roses with a Free Glass Vase	1	0	1	SecondDay	Pfaff, Dick and Shirley	1176 BAYSHORE DR UNIT 102			FORT PIERCE	FLORIDA	34949-3007	US		Dear Mom/Shirley - Happy Birthday!  We hope these flowers make your day extra special just like you are.  We are sending you lots of love and hope to be able to visit soon.   Bill XXX and Lucy OXO OXO From William Pfaff	false		
113-7355953-5574647	20210955721282	2020-07-29T02:31:20+00:00	2020-07-28T19:31:20-07:00	2020-07-29T02:54:23+00:00	2020-07-30T06:59:59+00:00	-2	ch9k8l465yypbl2@marketplace.amazon.com	Kathy campagna	+1 929-436-4790 ext. 55458	ABR0055	Purchase Now for Delivery by Friday | Arabella Farm Direct Bouquet of 12 Stems of Fresh Cut Hot Pink Roses in a Free Designer Glass Vase	1	0	1	SecondDay	Mary Zaza	1431 OCEAN FRONT			POINT PLEASANT BEACH	NJ	08742-4192	US		HAPPY BIRTHDAY MARY! We miss you, We Love you so much! You are forever Our BFF ... Best Friend Forever!  Love ❤️  Mike and Kathy!!!! Forever in our hearts!!!! From Kathy campagna	false		
113-9191439-6373862	25059121880258	2020-07-29T02:39:53+00:00	2020-07-28T19:39:53-07:00	2020-07-29T03:06:35+00:00	2020-07-30T06:59:59+00:00	-2	13kp27zvm68yrv8@marketplace.amazon.com	Michael Isbell	+1 415-851-9136 ext. 95064	ABR0022	Purchase Now for Delivery by Friday | Arabella Farm Direct Bouquet of 12 Fresh Cut Pink Roses with a Free Glass Vase	1	0	1	SecondDay	Michael Isbell	7914 GLEASON DR APT 1070			KNOXVILLE	TN	37919-5477	US		Happy Birthday to the best mom on the planet!!!! From Hayden, Holden, Harlow and Isball	false		
114-7177894-2435443	30313453905002	2020-07-29T02:37:44+00:00	2020-07-28T19:37:44-07:00	2020-07-29T03:07:04+00:00	2020-07-30T06:59:59+00:00	-2	5gwq44z6ggwd4sv@marketplace.amazon.com	JR James	2107046642430	ABR0022	Purchase Now for Delivery by Friday | Arabella Farm Direct Bouquet of 12 Fresh Cut Pink Roses with a Free Glass Vase	1	0	1	SecondDay	Helen McDaniel	250 ALMORA LOOP			MOORESVILLE	NC	28115-5805	US		Happy birthday Helen! We love you.  Enjoy your gift! Xoxo From JR and family	false		
112-9120596-9345001	18959346179858	2020-07-29T02:41:05+00:00	2020-07-28T19:41:05-07:00	2020-07-29T03:08:42+00:00	2020-07-30T06:59:59+00:00	-2	byfl3mrf2p6kjlb@marketplace.amazon.com	Rachel Stafford	+1 929-436-4790 ext. 56796	ABR0022	Purchase Now for Delivery by Friday | Arabella Farm Direct Bouquet of 12 Fresh Cut Pink Roses with a Free Glass Vase	1	0	1	SecondDay	Sophia Stafford	145 NEW BERN ST APT 561			CHARLOTTE	NC	28209-4330	US			false		
114-8530737-0150627	34351371080002	2020-07-29T02:43:26+00:00	2020-07-28T19:43:26-07:00	2020-07-29T03:13:53+00:00	2020-07-30T06:59:59+00:00	-2	5zqrynwdsh203rn@marketplace.amazon.com	Jonathan Walker	+1 929-436-4790 ext. 41699	ABR0022	Purchase Now for Delivery by Friday | Arabella Farm Direct Bouquet of 12 Fresh Cut Pink Roses with a Free Glass Vase	1	0	1	SecondDay	Jonathan Walker	3959 HAWTHORNE CIR			LONGMONT	CO	80503-7658	US			false		
114-3434605-0421803	09305713044810	2020-07-29T02:59:19+00:00	2020-07-28T19:59:19-07:00	2020-07-29T03:27:19+00:00	2020-07-30T06:59:59+00:00	-2	9zs2w8rt84b0y3b@marketplace.amazon.com	kristin klima	+1 929-436-4790 ext. 72063	ABR0022	Purchase Now for Delivery by Friday | Arabella Farm Direct Bouquet of 12 Fresh Cut Pink Roses with a Free Glass Vase	1	0	1	SecondDay	Julie Klima	15 OAK ST			YPSILANTI	MI	48198-2846	US		Auntie:  I am soo happy (excited)! From Ella	false		
113-2035235-8240213	65362046646858	2020-07-29T03:07:12+00:00	2020-07-28T20:07:12-07:00	2020-07-29T03:29:52+00:00	2020-07-30T06:59:59+00:00	-2	c1zgbpt541ppxjs@marketplace.amazon.com	Michalis Mamakos	+1 929-436-4790 ext. 50602	ABR001	Purchase Now for Delivery by Friday | Arabella Bouquets 12 Stems of Fresh Cut Red Roses in a Free Designer Glass Vase	1	0	1	SecondDay	Ann Barden	6720 LAVENDER LILLY LN UNIT 2			NORTH LAS VEGAS	NV	89084-3303	US			false		
113-2457984-9196260	57877238453842	2020-07-29T03:15:36+00:00	2020-07-28T20:15:36-07:00	2020-07-29T03:41:26+00:00	2020-07-30T06:59:59+00:00	-2	wrjcrvfztzlbdrk@marketplace.amazon.com	Josh Abando	+1 929-436-4790 ext. 63517	ABR0022	Purchase Now for Delivery by Friday | Arabella Farm Direct Bouquet of 12 Fresh Cut Pink Roses with a Free Glass Vase	1	0	1	SecondDay	Angela Alquiros	601 ROLLING HILL DR			PLYMOUTH MEETING	PA	19462-7406	US		To the woman who shows up everyday to choose to love me. Thank you, mahal. I love you From Josh Abando	false		
113-7150205-7500264	06288361797122	2020-07-29T03:50:15+00:00	2020-07-28T20:50:15-07:00	2020-07-29T03:52:39+00:00	2020-07-30T06:59:59+00:00	-2	8zz1hgxjz7ws5xq@marketplace.amazon.com	henry james carter jr	+1 929-436-4790 ext. 22019	ABR001	Purchase Now for Delivery by Friday | Arabella Bouquets 12 Stems of Fresh Cut Red Roses in a Free Designer Glass Vase	1	0	1	SecondDay	Gerald Rivera Del Prado	7523 ALLMAN DR APT 104			ANNANDALE	VA	22003-5281	US		Happy Birthday Guapo!!! I wish you many more. Maybe I'll be there at the next one. Abrazos Y Besos. It's your special day , I hope you enjoy it. From henry james carter jr	false		
111-1269970-0673837	13436526380962	2020-07-29T03:31:55+00:00	2020-07-28T20:31:55-07:00	2020-07-29T04:00:18+00:00	2020-07-30T06:59:59+00:00	-2	36ctf2hhhsvzwgh@marketplace.amazon.com	Brian Corcoran	+1 929-436-4790 ext. 37216	ABR0033	Purchase Now for Delivery by Friday | Arabella Farm Direct Bouquet of 12 Fresh Cut Orange Roses with a Free Glass Vase	1	0	1	SecondDay	Sarah Collins	40 TURNER ST APT B			BRIGHTON	MA	02135-2507	US		A little something to brighten your day!  Can't wait for dinner tomorrow!  xoxo, Brian From Brian Corcoran	false		
112-8101002-4663425	30759056840946	2020-07-29T04:00:16+00:00	2020-07-28T21:00:16-07:00	2020-07-29T04:16:47+00:00	2020-07-30T06:59:59+00:00	-2	b71t6z6yrw8cwyk@marketplace.amazon.com	Brandon Lindmark	+1 929-436-4790 ext. 65412	ABM010	The Spring Fling Bouquet by Arabella Bouquets with a Free Designer Glass Vase	1	0	1	SecondDay	Jessica Niemeyer	157 W 129TH AVE			CROWN POINT	IN	46307-5373	US		Hope you have a beautiful and very Happy Birthday!! Miss you! From Sending love from Christine, Katie & Lisa	false		
