order-id	order-item-id	purchase-date	payments-date	reporting-date	promise-date	days-past-promise	buyer-email	buyer-name	buyer-phone-number	sku	product-name	quantity-purchased	quantity-shipped	quantity-to-ship	ship-service-level	recipient-name	ship-address-1	ship-address-2	ship-address-3	ship-city	ship-state	ship-postal-code	ship-country	gift-wrap-type	gift-message-text	is-business-order	purchase-order-number	price-designation
114-4930968-1479400	21410587157858	2020-07-29T17:53:59+00:00	2020-07-29T10:53:59-07:00	2020-07-29T18:12:36+00:00	2020-08-01T06:59:59+00:00	-2	d6h0f4r0g612txy@marketplace.amazon.com	Randy Brazelton	+1 415-851-9136 ext. 80913	ABR001	Purchase Now for Delivery by Monday | Arabella Bouquets 12 Stems of Fresh Cut Red Roses in a Free Designer Glass Vase	1	0	1	Expedited	Dianne Berry	320 S OAK DR			LAKE CITY	MI	49651-8051	US		I don't always do the right thing but I love you more than anything in the world. Hope these may give you a little joy during this trying time. From Randy	false		
113-5951293-4634637	16810872900682	2020-07-29T17:51:00+00:00	2020-07-29T10:51:00-07:00	2020-07-29T18:16:38+00:00	2020-08-01T06:59:59+00:00	-2	8zjjj1zrdz4z69m@marketplace.amazon.com	Connie Parr	+1 415-851-9136 ext. 46874	ABR0022	Purchase Now for Delivery by Monday | Arabella Farm Direct Bouquet of 12 Fresh Cut Pink Roses with a Free Glass Vase	1	0	1	Expedited	Aunt Catherine Raynor	2033 JOHN B CARTER RD			FAYETTEVILLE	NC	28312-9117	US		Happy Birthday Aunt Catherine~ May your special Birthday is the best Lovely Day  Ever!  Love you Always! From Connie, Tuffy, Adrian Antwan and Shonda	false		
113-1393781-0559469	32821115166514	2020-07-29T18:59:15+00:00	2020-07-29T11:59:15-07:00	2020-07-29T19:27:07+00:00	2020-08-01T06:59:59+00:00	-2	hddtw6lw57756dx@marketplace.amazon.com	tania doucet	+1 346-307-9643 ext. 08639	ABM010	The Spring Fling Bouquet by Arabella Bouquets with a Free Designer Glass Vase	1	0	1	Expedited	Wanda Bollinger	975 LAKE PARK AVE APT 132			GALT	CA	95632-3774	US		We love and miss you very much mimi...we pray you are healthy and we get to hug you soon...XOXO From Tania and family...	false		
113-0760641-1509850	14555317012074	2020-07-29T19:00:21+00:00	2020-07-29T12:00:21-07:00	2020-07-29T19:30:17+00:00	2020-08-01T06:59:59+00:00	-2	mjt97kyjfqzftc9@marketplace.amazon.com	Erik Neergaard	+1 929-436-4790 ext. 02187	ABR0022	Purchase Now for Delivery by Monday | Arabella Farm Direct Bouquet of 12 Fresh Cut Pink Roses with a Free Glass Vase	1	0	1	Expedited	Stacie Furnier	16024 CALAHAN ST			NORTH HILLS	CA	91343-3027	US			false		
113-6389144-7807419	23130720726778	2020-07-29T19:10:28+00:00	2020-07-29T12:10:28-07:00	2020-07-29T19:39:42+00:00	2020-08-01T06:59:59+00:00	-2	dqkk4rf07f08bzf@marketplace.amazon.com	Cheri Caye Ehret	+1 929-436-4790 ext. 08919	ABR0022	Purchase Now for Delivery by Monday | Arabella Farm Direct Bouquet of 12 Fresh Cut Pink Roses with a Free Glass Vase	1	0	1	Expedited	Mandie Ehret	1776 N 27TH RD			OTTAWA	IL	61350-9385	US		Congratulations!!! We are SO excited to be adding another bundle of love and joy to the family! We can’t wait!!! Love you!! From Stephanie, Jay, Wyatt and Henry	false		
113-4110287-7493802	58628034130898	2020-07-29T19:29:35+00:00	2020-07-29T12:29:35-07:00	2020-07-29T19:56:25+00:00	2020-08-01T06:59:59+00:00	-2	vl5hnkzfyxj87pn@marketplace.amazon.com	Josephine	+1 929-436-4790 ext. 25851	ABR0022	Purchase Now for Delivery by Monday | Arabella Farm Direct Bouquet of 12 Fresh Cut Pink Roses with a Free Glass Vase	1	0	1	Expedited	Sandra Hankins	109 WALNUT HILLS DR			RICHLANDS	NC	28574-8347	US		Enjoy your gift! Get well we love you From Love Dad and I	false		
113-3612426-6677806	55193318218154	2020-07-29T19:36:30+00:00	2020-07-29T12:36:30-07:00	2020-07-29T20:02:46+00:00	2020-08-01T06:59:59+00:00	-2	fpg948ryj38xmts@marketplace.amazon.com	Sola Awosika	+1 929-436-4790 ext. 35696	ABR001	Purchase Now for Delivery by Monday | Arabella Bouquets 12 Stems of Fresh Cut Red Roses in a Free Designer Glass Vase	1	0	1	Expedited	Jennifer Bullard	15737 LAKEPOINT FOREST DR			CHARLOTTE	NC	28278-7617	US		So Sorry for the loss of your Dear Father. May Jehovah be with you and your family! Please accept our sympathy. From Adebayo Family	false		
114-2499200-1889814	17146257221882	2020-07-29T19:55:28+00:00	2020-07-29T12:55:28-07:00	2020-07-29T20:07:39+00:00	2020-08-01T06:59:59+00:00	-2	5pbnj35d0gd2p2q@marketplace.amazon.com	Cindy Cosden	+1 929-436-4790 ext. 01520	ABR0022	Purchase Now for Delivery by Monday | Arabella Farm Direct Bouquet of 12 Fresh Cut Pink Roses with a Free Glass Vase	1	0	1	Expedited	Carol Crane	7463 16TH MNR			VERO BEACH	FL	32966-1238	US		Enjoy your gift! Happy Birthday! From Cindy Cosden & Dad	false		
114-2325146-1243462	55506716476058	2020-07-29T20:51:37+00:00	2020-07-29T13:51:37-07:00	2020-07-29T20:52:33+00:00	2020-08-01T06:59:59+00:00	-2	9t7cpqx6v7myfmr@marketplace.amazon.com	Ted Brass	+1 415-851-9136 ext. 26235	ABR0022	Purchase Now for Delivery by Monday | Arabella Farm Direct Bouquet of 12 Fresh Cut Pink Roses with a Free Glass Vase	1	0	1	Expedited	Lavern Coleman	4018 ADABELLA AVE APT 101			LAS VEGAS	NV	89115-1613	US		Hi Lavern, Sending love and good thoughts your way! Happy to hear you are home. Take care of yourself. We love you! From Jessita and Ted	false		
111-8702870-8441856	56947470893178	2020-07-29T21:11:02+00:00	2020-07-29T14:11:02-07:00	2020-07-29T21:39:46+00:00	2020-08-01T06:59:59+00:00	-2	37ryg8198zq83cc@marketplace.amazon.com	Maceo	+1 929-436-4790 ext. 96212	ABR0022	Purchase Now for Delivery by Monday | Arabella Farm Direct Bouquet of 12 Fresh Cut Pink Roses with a Free Glass Vase	1	0	1	Expedited	Phyllis Picklesimer	33726 BLUEWATER LN			DANA POINT	CA	92629-2172	US		Enjoy the roses! We love you.  Laura & Maceo From Maceo & Laura	false		
111-3764875-9872248	59403722782586	2020-07-29T21:17:34+00:00	2020-07-29T14:17:34-07:00	2020-07-29T21:46:56+00:00	2020-08-01T06:59:59+00:00	-2	bq964tvh6kgvz4z@marketplace.amazon.com	Katie Cruz	+1 929-436-4790 ext. 33636	ABR0022	Purchase Now for Delivery by Monday | Arabella Farm Direct Bouquet of 12 Fresh Cut Pink Roses with a Free Glass Vase	1	0	1	Expedited	Yvette Pope	2175 SILOAM RD			PUEBLO	CO	81005-9778	US		Yvette, Our thoughts & prayers are with you during this time! We love you. Pueblo Christian Center Pastors & Staff From Pueblo Christian Center	true		Business Price
113-4540040-8352226	18825874847282	2020-07-29T21:46:36+00:00	2020-07-29T14:46:36-07:00	2020-07-29T22:15:33+00:00	2020-08-01T06:59:59+00:00	-2	ptx33t1h666fj7j@marketplace.amazon.com	Amanda W Rabalais	+1 415-851-9136 ext. 03026	ABR0033	Purchase Now for Delivery by Monday | Arabella Farm Direct Bouquet of 12 Fresh Cut Orange Roses with a Free Glass Vase	1	0	1	Expedited	Vicki Whittington	13888 DEVALL RD			BATON ROUGE	LA	70818-1503	US		Thank you for all that you do throughout the year to help us stay afloat!  We appreciate you and love you bunches! From Amanda W Rabalais	false		
114-1780595-0862649	22128748642290	2020-07-29T22:56:51+00:00	2020-07-29T15:56:51-07:00	2020-07-29T23:25:13+00:00	2020-08-01T06:59:59+00:00	-2	7yycctmw7qsd96c@marketplace.amazon.com	Vivian Lou	+1 346-307-9643 ext. 21097	ABR0022	Purchase Now for Delivery by Monday | Arabella Farm Direct Bouquet of 12 Fresh Cut Pink Roses with a Free Glass Vase	1	0	1	Expedited	Cecilia Xu	2830 JACKSON AVE APT 30L			LONG ISLAND CITY	NY	11101-3286	US		Happy Birthday to my Princess!  Deep blessings from Mom From Mom	false		
114-1726799-2620262	67313204141394	2020-07-29T23:18:53+00:00	2020-07-29T16:18:53-07:00	2020-07-29T23:39:00+00:00	2020-08-01T06:59:59+00:00	-2	ds1ncpsd9161p6d@marketplace.amazon.com	Jackson  Kudilil	+1 346-307-9643 ext. 70902	ABR0022	Purchase Now for Delivery by Monday | Arabella Farm Direct Bouquet of 12 Fresh Cut Pink Roses with a Free Glass Vase	1	0	1	Expedited	Marlin Kudilil	418 GRENADINE WAY			HERCULES	CA	94547-2050	US		Happy 50th Birthday sister! We all hope you have a wonderful day and we love you! From Your favorite brother, Jackson and family	false		
113-9790152-4149033	29623909063234	2020-07-29T23:46:22+00:00	2020-07-29T16:46:22-07:00	2020-07-30T00:12:55+00:00	2020-08-01T06:59:59+00:00	-2	9gkrldypyby0d2g@marketplace.amazon.com	Nora beatriz mendez	+1 929-436-4790 ext. 42660	ABR0055	Purchase Now for Delivery by Monday | Arabella Farm Direct Bouquet of 12 Stems of Fresh Cut Hot Pink Roses in a Free Designer Glass Vase	1	0	1	Expedited	Graciela Rivas	6537 HOMEWOOD AVE 1			LOS ANGELES	CA	90028-7820	US		CON TODO NUESTRO AMOR!  Para darte ánimos nuestra amada GRACIELITA.  Estamos con uds en estos momentos JEHOVÁ les dará fortaleza y su Amor.   HÉCTOR Y NORA ❤️ From Nora beatriz mendez	false		
114-2769274-3873845	29537229678522	2020-07-30T00:05:53+00:00	2020-07-29T17:05:53-07:00	2020-07-30T00:23:17+00:00	2020-08-01T06:59:59+00:00	-2	0q2z032bptcgvq6@marketplace.amazon.com	Sophie	+1 929-436-4790 ext. 15159	ABM010	The Spring Fling Bouquet by Arabella Bouquets with a Free Designer Glass Vase	1	0	1	Expedited	patty hoohnagle	11315 SANANDREW DR			NEW MARKET	MD	21774-6729	US			false		
112-0717537-8155427	51165447015162	2020-07-29T23:54:11+00:00	2020-07-29T16:54:11-07:00	2020-07-30T00:23:33+00:00	2020-08-01T06:59:59+00:00	-2	bygrkyc0phcsvy3@marketplace.amazon.com	jake geleerd	+1 929-436-4790 ext. 17267	ABM010	The Spring Fling Bouquet by Arabella Bouquets with a Free Designer Glass Vase	1	0	1	Expedited	Jake Geleerd	1872 Crenshaw Cricle			Vernon Hills	Illinois	60061	US		Happy birthday mother hen! Love you From Jake and Jadie	false		
112-9022421-7335451	68064611611706	2020-07-30T00:01:06+00:00	2020-07-29T17:01:06-07:00	2020-07-30T00:29:46+00:00	2020-08-01T06:59:59+00:00	-2	v2jz32tqgp31lhf@marketplace.amazon.com	JSolti	+1 929-436-4790 ext. 42795	ABR0022	Purchase Now for Delivery by Monday | Arabella Farm Direct Bouquet of 12 Fresh Cut Pink Roses with a Free Glass Vase	1	0	1	Expedited	Georgia McCurdy	96 HILLDALE AVE			ORMOND BEACH	FL	32176-5722	US			false		
112-2611078-1958622	22438405208442	2020-07-30T00:01:15+00:00	2020-07-29T17:01:15-07:00	2020-07-30T00:31:31+00:00	2020-08-01T06:59:59+00:00	-2	73xzpys2ss0rvfg@marketplace.amazon.com	Austin	9283q04036	ABR0022	Purchase Now for Delivery by Monday | Arabella Farm Direct Bouquet of 12 Fresh Cut Pink Roses with a Free Glass Vase	1	0	1	Expedited	Alicia echavarria	10755 E 1000 N			ODON	IN	47562-5213	US			false		
114-0070992-5281021	59242170182554	2020-07-30T00:20:02+00:00	2020-07-29T17:20:02-07:00	2020-07-30T00:46:14+00:00	2020-08-01T06:59:59+00:00	-2	4c92wj25d6bmbn8@marketplace.amazon.com	yuriko	+1 929-436-4790 ext. 20367	ABR0022	Purchase Now for Delivery by Monday | Arabella Farm Direct Bouquet of 12 Fresh Cut Pink Roses with a Free Glass Vase	1	0	1	Expedited	Paola Alvarado	2048 MARDEL LN			SAN JOSE	CA	95128-5018	US		Thank you for sharing the wonderful news with me the other day, Paola!  Congratulations, Paola, Arturo, and Patsy! From Yamasaki Family	false		
112-7383052-3767424	10437831778578	2020-07-30T00:25:44+00:00	2020-07-29T17:25:44-07:00	2020-07-30T00:53:54+00:00	2020-08-01T06:59:59+00:00	-2	q3b47drdgpxz803@marketplace.amazon.com	Edna	+1 929-436-4790 ext. 06604	ABM010	The Spring Fling Bouquet by Arabella Bouquets with a Free Designer Glass Vase	1	0	1	Expedited	Brenda Battle	1739 E CARMEN ST			TEMPE	AZ	85283-4147	US			false		
111-0323771-8049026	50296360327626	2020-07-30T01:21:59+00:00	2020-07-29T18:21:59-07:00	2020-07-30T01:51:50+00:00	2020-08-01T06:59:59+00:00	-2	mytq95cysyxk4m5@marketplace.amazon.com	Jhari Matthews	+1 929-436-4790 ext. 79792	ABR0022	Purchase Now for Delivery by Monday | Arabella Farm Direct Bouquet of 12 Fresh Cut Pink Roses with a Free Glass Vase	1	0	1	Expedited	Ashanti Dumas	5910 BACCICH ST			NEW ORLEANS	LA	70122-6412	US			false		
113-1105130-7755450	37393092856634	2020-07-30T01:41:16+00:00	2020-07-29T18:41:16-07:00	2020-07-30T02:09:51+00:00	2020-08-01T06:59:59+00:00	-2	589vv3086t9t6sw@marketplace.amazon.com	Tricia Getty	+1 346-307-9643 ext. 46411	ABR0022	Purchase Now for Delivery by Monday | Arabella Farm Direct Bouquet of 12 Fresh Cut Pink Roses with a Free Glass Vase	1	0	1	Expedited	Carol Nixt	14433 EADBROOK DR			HACIENDA HEIGHTS	CA	91745-2559	US		We are so sorry about Molly. She was such a sweet girl and will be missed by all of us. From The getty family	false		
114-8020446-7425012	60413051308562	2020-07-30T02:41:47+00:00	2020-07-29T19:41:47-07:00	2020-07-30T03:10:58+00:00	2020-08-01T06:59:59+00:00	-2	f2ng3cdgztzmmq3@marketplace.amazon.com	Josh	+1 346-307-9643 ext. 01041	ABR0022	Purchase Now for Delivery by Monday | Arabella Farm Direct Bouquet of 12 Fresh Cut Pink Roses with a Free Glass Vase	1	0	1	Expedited	Kelly Ha	6265 N LAWRENCE ST			PHILADELPHIA	PA	19120-1426	US		Just thinking of you.  =) From Josh	false		
113-3562702-1641049	22963269141266	2020-07-30T03:26:30+00:00	2020-07-29T20:26:30-07:00	2020-07-30T03:56:58+00:00	2020-08-01T06:59:59+00:00	-2	0dpdktrzwzf6xb1@marketplace.amazon.com	Rebecca Boers	+1 929-436-4790 ext. 95833	ABR0022	Purchase Now for Delivery by Monday | Arabella Farm Direct Bouquet of 12 Fresh Cut Pink Roses with a Free Glass Vase	1	0	1	Expedited	Toni Castanon	8442 North 9th Street			Fresno	California	93720	US		Enjoy your gift! From Rebecca Boers	false		
111-0733980-9241826	49735987446250	2020-07-30T04:28:01+00:00	2020-07-29T21:28:01-07:00	2020-07-30T04:57:42+00:00	2020-08-01T06:59:59+00:00	-2	pd03rqm7c48d559@marketplace.amazon.com	Loren	+1 415-851-9136 ext. 78745	ABR0022	Purchase Now for Delivery by Monday | Arabella Farm Direct Bouquet of 12 Fresh Cut Pink Roses with a Free Glass Vase	1	0	1	Expedited	Bridget Mcclusky	715 HICKORY DR			WARSAW	MO	65355-3281	US		This is for our 7 months and for national girlfriend day. I love you so much babe. You are my life and my world From Rockett	false		
112-0782413-5593862	55617918649562	2020-07-30T04:38:53+00:00	2020-07-29T21:38:53-07:00	2020-07-30T05:03:26+00:00	2020-08-01T06:59:59+00:00	-2	xjlds6jrfqyxky5@marketplace.amazon.com	Shreesti S Patel	+1 929-436-4790 ext. 39969	ABR012	Arabella Farm Direct Bouquet of 18 Fresh Cut Pink Roses with a Free Glass Vase	1	0	1	Expedited	Rajni Mathew	5893 MANICHETTI CT			SAN JOSE	CA	95123-4334	US		Happiest Birthday Rajni!! Sending lots of love, kisses, and hugs. Hope to see you all soon. From The Singh & Patel family	false		
114-6540171-4665056	55992044095618	2020-07-30T04:58:06+00:00	2020-07-29T21:58:06-07:00	2020-07-30T05:23:29+00:00	2020-08-01T06:59:59+00:00	-2	wp6b0hkdhlpbbyx@marketplace.amazon.com	Rebecca Booth	+1 346-307-9643 ext. 83958	ABR0022	Purchase Now for Delivery by Monday | Arabella Farm Direct Bouquet of 12 Fresh Cut Pink Roses with a Free Glass Vase	1	0	1	Expedited	Mireya Garces Tejada	12461 MONDRAGON DR			TAMPA	FL	33625-6561	US		Tia, te deseo mucha salud. Cuidate mucho! Espero en Dios poderte conocer cuando vaya a la Florida este invierno. Con cariño, Rebecca From Rebecca Booth	false		
112-7667410-8557869	40082186854242	2020-07-30T05:48:31+00:00	2020-07-29T22:48:31-07:00	2020-07-30T06:16:25+00:00	2020-08-01T06:59:59+00:00	-2	1sbhc0pxhxvzhhd@marketplace.amazon.com	darrell tolbert	+1 929-436-4790 ext. 13562	ABR0022	Purchase Now for Delivery by Monday | Arabella Farm Direct Bouquet of 12 Fresh Cut Pink Roses with a Free Glass Vase	1	0	1	Expedited	MD Fin	24451 FERROCARRIL			MISSION VIEJO	CA	92691-4027	US			false		
112-9786628-7285048	61362918795690	2020-07-30T07:04:19+00:00	2020-07-30T00:04:19-07:00	2020-07-30T07:30:30+00:00	2020-08-04T06:59:59+00:00	-5	h0k0d5q82pykr93@marketplace.amazon.com	Catalina	+1 929-436-4790 ext. 85680	ABR012	Arabella Farm Direct Bouquet of 18 Fresh Cut Pink Roses with a Free Glass Vase	1	0	1	Expedited	Susan Pozo	2730 BROOKHAVEN DR			PORTAGE	MI	49024-5636	US		Susan, lo siento mucho.  Rezamos y pensamos mucho en vosotros.  Te queremos mucho. From Catalina	false		
113-6755255-7337039	67728016697834	2020-07-30T07:28:53+00:00	2020-07-30T00:28:53-07:00	2020-07-30T07:57:54+00:00	2020-08-04T06:59:59+00:00	-5	458qjhvm7vt4lzy@marketplace.amazon.com	kiki	+1 929-436-4790 ext. 84908	ABR0022	Purchase Now for Delivery by Monday | Arabella Farm Direct Bouquet of 12 Fresh Cut Pink Roses with a Free Glass Vase	1	0	1	Expedited	Yian deng	SOCAM 290 GEORGE ST APT 1207			NEW BRUNSWICK	NJ	08901-4721	US			false		
111-8359860-9896258	65814772010682	2020-07-30T12:47:04+00:00	2020-07-30T05:47:04-07:00	2020-07-30T13:14:39+00:00	2020-08-04T06:59:59+00:00	-5	4x5l2jw631dfptf@marketplace.amazon.com	MARIBEL MORGAN	+1 415-851-9136 ext. 01066	ABR0055	Purchase Now for Delivery by Monday | Arabella Farm Direct Bouquet of 12 Stems of Fresh Cut Hot Pink Roses in a Free Designer Glass Vase	1	0	1	Expedited	Josie Villareal	2420 MCCULLOUGH AVE APT 121			SAN ANTONIO	TX	78212-3564	US		Thinking of you!  You are loved we miss you. Take care! From: James, Mari, Rosita & Chago From MARIBEL MORGAN	false		
112-3514996-9448254	50072847982426	2020-07-30T12:48:25+00:00	2020-07-30T05:48:25-07:00	2020-07-30T13:16:42+00:00	2020-08-04T06:59:59+00:00	-5	z72j4hz6nv7137n@marketplace.amazon.com	mylana	+1 929-436-4790 ext. 83514	ABR0055	Purchase Now for Delivery by Monday | Arabella Farm Direct Bouquet of 12 Stems of Fresh Cut Hot Pink Roses in a Free Designer Glass Vase	1	0	1	Expedited	Stephynie Thompson	2804 GOOD SHEPHERD DR			BROWNWOOD	TX	76801-6028	US		Drinking coffee this morning with you on my mind ...praying over you.   Wishing you a fabulous day !   I love you From Mom	true		
112-3628735-1277822	46250550065338	2020-07-30T12:50:48+00:00	2020-07-30T05:50:48-07:00	2020-07-30T13:19:48+00:00	2020-08-04T06:59:59+00:00	-5	z72j4hz6nv7137n@marketplace.amazon.com	mylana	+1 929-436-4790 ext. 36631	ABM010	The Spring Fling Bouquet by Arabella Bouquets with a Free Designer Glass Vase	1	0	1	Expedited	Angie Wallace	961 OAK TERRACE DR			WILLIS	TX	77378-5754	US		Thinking about you this morning   Praying sweet blessings over you. I love you From Mylana	true		
111-9281440-1916240	05906204077114	2020-07-30T15:17:49+00:00	2020-07-30T08:17:49-07:00	2020-07-30T15:42:42+00:00	2020-08-04T06:59:59+00:00	-5	cwfchjfjn81s9bk@marketplace.amazon.com	Tara Morley	+1 929-436-4790 ext. 68509	ABM002	Arabella Bouquets Fresh Cut White Calla Lilies in a Free Designer Glass Vase	1	0	1	Expedited	Wesley Jeon	2557 GREEN OAK DR			CARROLLTON	TX	75010-4224	US		Wes,  I'm so sorry about the loss of your Grandma. Thinking of you and your family during this time.    With sympathy, Tara From Tara Dorazio	false		
111-8579600-7815411	25861071691770	2020-07-30T15:42:26+00:00	2020-07-30T08:42:26-07:00	2020-07-30T16:11:24+00:00	2020-08-04T06:59:59+00:00	-5	gvxfpwc0zkfb4k5@marketplace.amazon.com	Jacquie Reagh	+1 415-851-9136 ext. 64347	ABM010	The Spring Fling Bouquet by Arabella Bouquets with a Free Designer Glass Vase	1	0	1	Expedited	Monetta Plassmeyer	10559 CAMINITO BASSWOOD			SAN DIEGO	CA	92131-1704	US			false		
112-3873918-3187407	23726902560778	2020-07-30T15:56:58+00:00	2020-07-30T08:56:58-07:00	2020-07-30T16:21:16+00:00	2020-08-04T06:59:59+00:00	-5	svzfbgd9061yjwv@marketplace.amazon.com	Andrea Swartz	+1 929-436-4790 ext. 22165	ABM0044	Purchase Now for Delivery by Monday | Arabella Farm Direct Bouquet of Fresh Cut Blue Hydrangea with a Free Glass Vase	1	0	1	Expedited	Colleen Swartz	1245 E MURRAY HOLLADAY RD			SALT LAKE CITY	UT	84117-4992	US			false		
112-9984085-4858665	52453036387506	2020-07-30T15:53:33+00:00	2020-07-30T08:53:33-07:00	2020-07-30T16:23:35+00:00	2020-08-04T06:59:59+00:00	-5	hd2wd4gx7kh2z58@marketplace.amazon.com	sharon deni	+1 929-436-4790 ext. 59978	ABR0055	Purchase Now for Delivery by Monday | Arabella Farm Direct Bouquet of 12 Stems of Fresh Cut Hot Pink Roses in a Free Designer Glass Vase	1	0	1	Expedited	Jo Ann Moffit	00858 4TH ST			CHARLEVOIX	MI	49720-9724	US			false		
111-4312701-7316254	13386291081474	2020-07-30T16:01:59+00:00	2020-07-30T09:01:59-07:00	2020-07-30T16:25:16+00:00	2020-08-04T06:59:59+00:00	-5	khhb94ftn77mfbf@marketplace.amazon.com	Nicole Nelson	+1 929-436-4790 ext. 53735	ABR0022	Purchase Now for Delivery by Monday | Arabella Farm Direct Bouquet of 12 Fresh Cut Pink Roses with a Free Glass Vase	1	0	1	Expedited	Arya Knapp	2612 GEIBERGER DR			PLANO	TX	75025-5167	US			false		
113-7908880-3654644	45348950602266	2020-07-30T17:12:42+00:00	2020-07-30T10:12:42-07:00	2020-07-30T17:41:09+00:00	2020-08-04T06:59:59+00:00	-5	nrkys1jvzzrx2w0@marketplace.amazon.com	Jo-Ann Stack	+1 929-436-4790 ext. 80632	ABR0022	Purchase Now for Delivery by Monday | Arabella Farm Direct Bouquet of 12 Fresh Cut Pink Roses with a Free Glass Vase	1	0	1	Expedited	Cheryl Oatway	58 BONNEY ST			PEMBROKE	MA	02359-2415	US		Happy Birthday!! From Jo-Ann Stack	false		
111-8472241-3607437	06703711615578	2020-07-30T17:14:35+00:00	2020-07-30T10:14:35-07:00	2020-07-30T17:43:16+00:00	2020-08-04T06:59:59+00:00	-5	z4x2xjzr5hv50r7@marketplace.amazon.com	john christman	+1 929-436-4790 ext. 27950	ABB015	Arabella Farm Direct Bouquet of 24 Fresh Cut Orange Roses with a Free Glass Vase	1	0	1	Expedited	Millicent Flitcraft	2535 OLD RIVER LN			RICHMOND	TX	77406-2168	US		Sweetie, I thought you could use a smile, so your girls and I bought you these..  They videoed chatted with me and went with these From Love John	false		
112-8812142-3368215	51157977999658	2020-07-30T17:26:00+00:00	2020-07-30T10:26:00-07:00	2020-07-30T17:53:58+00:00	2020-08-04T06:59:59+00:00	-5	jmk6166mwg9wzhl@marketplace.amazon.com	Janet Sorensen	+1 415-851-9136 ext. 02841	ABM010	The Spring Fling Bouquet by Arabella Bouquets with a Free Designer Glass Vase	1	0	1	Expedited	Sara Criger	4223 CHESTERGATE DR			SPRING	TX	77373-6702	US		GET WELL SOON!!  WITH ALL MY LOVE, JANET From Janet Sorensen	false		
112-8974339-0062662	13045279052890	2020-07-30T17:36:52+00:00	2020-07-30T10:36:52-07:00	2020-07-30T18:00:38+00:00	2020-08-04T06:59:59+00:00	-5	kdgd03d5f8sk2xj@marketplace.amazon.com	Tod Jarrett	+1 929-436-4790 ext. 95348	ABR0022	Purchase Now for Delivery by Monday | Arabella Farm Direct Bouquet of 12 Fresh Cut Pink Roses with a Free Glass Vase	1	0	1	Expedited	Mrs. Pat McCoy	7668 STATE ROAD 38			GREENS FORK	IN	47345-9708	US		May your day be as joyful and awesome as you are Pat !!!! Lotsa love sent your way From Tod Jarrett	false		
