order-id	order-item-id	purchase-date	payments-date	reporting-date	promise-date	days-past-promise	buyer-email	buyer-name	buyer-phone-number	sku	product-name	quantity-purchased	quantity-shipped	quantity-to-ship	ship-service-level	recipient-name	ship-address-1	ship-address-2	ship-address-3	ship-city	ship-state	ship-postal-code	ship-country	gift-wrap-type	gift-message-text	is-business-order	purchase-order-number	price-designation
113-7828494-9536249	30670459774930	2020-07-31T17:37:07+00:00	2020-07-31T10:37:07-07:00	2020-07-31T18:05:13+00:00	2020-08-05T06:59:59+00:00	-5	mv71rbrjdjz3vgb@marketplace.amazon.com	Patricia Gonzalez	+1 929-436-4790 ext. 75002	ABR0066	Arabella Bouquets 12 Stems of Fresh Cut White Roses in a Free Designer Glass Vase	1	0	1	Standard	Patricia Gonzalez	7607 SOUTH PKWY			SACRAMENTO	CA	95823-3440	US			false		
112-7002643-2897011	53310607238970	2020-07-31T17:46:57+00:00	2020-07-31T10:46:57-07:00	2020-07-31T18:07:59+00:00	2020-08-05T06:59:59+00:00	-5	d0ppx3wf9ch8zzk@marketplace.amazon.com	Eistir McShane	+1 929-436-4790 ext. 32694	ABR0022	Purchase Now for Delivery by Tuesday | Arabella Farm Direct Bouquet of 12 Fresh Cut Pink Roses with a Free Glass Vase	1	0	1	Expedited	Paula Lile	935 E LOGAN ST			MOBERLY	MO	65270-2241	US		Paula we wanted to let you know we are thinking of you!!! Ron would like that very much because we know you made him very happy!!! Love Always Lynn & Gerard.  Come see us anytime please xxxxx From Lynn & Gerard	false		
111-7826684-3500203	24290771965634	2020-07-31T18:08:27+00:00	2020-07-31T11:08:27-07:00	2020-07-31T18:36:51+00:00	2020-08-05T06:59:59+00:00	-5	d93yq1mb8v9n26w@marketplace.amazon.com	William Kennoy	+1 929-436-4790 ext. 29981	ABR001	Purchase Now for Delivery by Tuesday | Arabella Bouquets 12 Stems of Fresh Cut Red Roses in a Free Designer Glass Vase	1	0	1	Expedited	Laura Ann Kennoy	101 SHADY PT COURT			GEORGETOWN	TX	78628-2214	US		Happy Birthday Ordered a week early to be sure it is on time. Wish you were here! Dad From William Kennoy	false		
112-7405170-2582640	26524875702978	2020-07-31T18:32:28+00:00	2020-07-31T11:32:28-07:00	2020-07-31T19:01:11+00:00	2020-08-05T06:59:59+00:00	-5	5nj3zz2qsvntknt@marketplace.amazon.com	Tracey G. Warner	+1 929-436-4790 ext. 28417	ABR0055	Purchase Now for Delivery by Tuesday | Arabella Farm Direct Bouquet of 12 Stems of Fresh Cut Hot Pink Roses in a Free Designer Glass Vase	1	0	1	Expedited	Kathy Cordial	4100 IRWIN DR ABERDEEN 28315			ABERDEEN	NC	28315-4594	US		Happy Birthday Mom! I love you! From Tracey Lynn	false		
114-1023656-8614667	39709863764722	2020-07-31T19:14:50+00:00	2020-07-31T12:14:50-07:00	2020-07-31T19:18:37+00:00	2020-08-04T06:59:59+00:00	-4	k9qhzl22bxmzvsr@marketplace.amazon.com	Diane	+1 929-436-4790 ext. 51430	ABM010	The Spring Fling Bouquet by Arabella Bouquets with a Free Designer Glass Vase	1	0	1	NextDay	Sherry Lemons	14 OAK CREST CIR			MAGNOLIA	TX	77354-5737	US		We love you!!!! Diane, Beth, Susan and Laurie From Diane, Beth, Susan, Laurie	false		
114-7516081-4361812	46388978205546	2020-07-31T19:28:09+00:00	2020-07-31T12:28:09-07:00	2020-07-31T19:33:10+00:00	2020-08-04T06:59:59+00:00	-4	bhqf8f2xz908lhg@marketplace.amazon.com	dylan	+1 929-436-4790 ext. 59759	ABR0022	Purchase Now for Delivery by Tuesday | Arabella Farm Direct Bouquet of 12 Fresh Cut Pink Roses with a Free Glass Vase	1	0	1	NextDay	emily biller	2070 CORMORANT DR			PALM HARBOR	FL	34683-5017	US			false		
114-4179368-5216234	41348071652162	2020-07-31T19:57:45+00:00	2020-07-31T12:57:45-07:00	2020-07-31T20:01:36+00:00	2020-08-04T06:59:59+00:00	-4	110z2bhk9r9kx04@marketplace.amazon.com	Kacper Mrozik	+1 929-436-4790 ext. 35706	ABR001	Purchase Now for Delivery by Tuesday | Arabella Bouquets 12 Stems of Fresh Cut Red Roses in a Free Designer Glass Vase	1	0	1	NextDay	Kacper Mrozik	207 W BISON CT			FARGO	ND	58102-2534	US		Can't wait to be back from Maine <3 From Kacper Mrozik	false		
113-3777348-4129840	66387123260738	2020-07-31T20:05:32+00:00	2020-07-31T13:05:32-07:00	2020-07-31T20:08:48+00:00	2020-08-04T06:59:59+00:00	-4	fm86w2tynb2j9q1@marketplace.amazon.com	P Delaney	+1 929-436-4790 ext. 35321	ABM010	The Spring Fling Bouquet by Arabella Bouquets with a Free Designer Glass Vase	1	0	1	NextDay	Marianne Liberto	206 AMBERLEY DR			BLUE BELL	PA	19422-4228	US		Happy Birthday!! Almost 70!!! Enjoy your day. Love From Dad and Jojo	false		
112-6263766-4509051	15160275773890	2020-07-31T20:05:58+00:00	2020-07-31T13:05:58-07:00	2020-07-31T20:09:31+00:00	2020-08-04T06:59:59+00:00	-4	f7cm0t8sty0fthg@marketplace.amazon.com	Eric Scott	+1 929-436-4790 ext. 85572	ABR001	Purchase Now for Delivery by Tuesday | Arabella Bouquets 12 Stems of Fresh Cut Red Roses in a Free Designer Glass Vase	1	0	1	NextDay	Phil Scott	2675 RAINTREE LAKE CIR			MERRITT ISLAND	FL	32953-2943	US		Many hugs and kisses,  Love Dad From Bryan Scott	false		
111-8817537-2209021	53946995564202	2020-07-31T20:34:14+00:00	2020-07-31T13:34:14-07:00	2020-07-31T20:35:18+00:00	2020-08-04T06:59:59+00:00	-4	kz80xf68s4r59pc@marketplace.amazon.com	Luis Sanchez	+1 929-436-4790 ext. 19784	ABM010	The Spring Fling Bouquet by Arabella Bouquets with a Free Designer Glass Vase	1	0	1	NextDay	Sarah Hassouni	2611 N UPLAND ST			ARLINGTON	VA	22207-4123	US			false		
111-6990487-0544224	44817706979202	2020-07-31T20:39:31+00:00	2020-07-31T13:39:31-07:00	2020-07-31T20:40:34+00:00	2020-08-04T06:59:59+00:00	-4	n376091mbz55k0z@marketplace.amazon.com	Eric and Susan Clark	+1 929-436-4790 ext. 28511	ABR0022	Purchase Now for Delivery by Tuesday | Arabella Farm Direct Bouquet of 12 Fresh Cut Pink Roses with a Free Glass Vase	1	0	1	NextDay	Jennifer O'Connor	1165 SPRINGWOOD CONNECTOR	UNIT 643		ATLANTA	GA	30328-2909	US		Happy Belated Bday Jen! We'll see you Thursday:-) Love, Susan Eric, Christopher, Anna & Luna From Eric and Susan Clark	false		
112-1579817-1254631	02518057385818	2020-07-31T20:37:17+00:00	2020-07-31T13:37:17-07:00	2020-07-31T20:41:45+00:00	2020-08-04T06:59:59+00:00	-4	gvlwzrng4kbh3qr@marketplace.amazon.com	Carolyn A Talbot	+1 929-436-4790 ext. 71487	ABR0055	Purchase Now for Delivery by Tuesday | Arabella Farm Direct Bouquet of 12 Stems of Fresh Cut Hot Pink Roses in a Free Designer Glass Vase	1	0	1	NextDay	Joyce Sellitti	43 ALEXINE AVE			EAST ROCKAWAY	NY	11518-1515	US		Happy birthday Nanny! We love you and miss you!  Xoxoxoxo From Carrie, Adam, Luke, Sophia, and Ben	false		
114-0474982-8961066	59515896079474	2020-07-31T20:39:30+00:00	2020-07-31T13:39:30-07:00	2020-07-31T20:42:15+00:00	2020-08-04T06:59:59+00:00	-4	jc3pc63mbhcgn5n@marketplace.amazon.com	Joy Morgan	+1 929-436-4790 ext. 43783	ABR0022	Purchase Now for Delivery by Tuesday | Arabella Farm Direct Bouquet of 12 Fresh Cut Pink Roses with a Free Glass Vase	1	0	1	NextDay	Jovanna Yenchi	20002 ALEXANDRAS GROVE DR			ASHBURN	VA	20147-3120	US		Happy Birthday Jovie! Sorry these flowers arrived 1 day late, but please accept this as a token of our love for you. Love Uncle Bill, Aunt Grace, Joy, Annie and Cuddles. From The Morgans	false		
112-4737514-9506663	52004718909202	2020-07-31T20:44:46+00:00	2020-07-31T13:44:46-07:00	2020-07-31T20:46:25+00:00	2020-08-04T06:59:59+00:00	-4	drmqrl2322lpn0k@marketplace.amazon.com	Jennifer Stephens	+1 929-436-4790 ext. 54378	ABM010	The Spring Fling Bouquet by Arabella Bouquets with a Free Designer Glass Vase	1	0	1	NextDay	Nan Markheim	25812 CHALMERS PL			CALABASAS	CA	91302-3161	US			false		
113-2890373-7607444	58026056439602	2020-07-31T20:47:20+00:00	2020-07-31T13:47:20-07:00	2020-07-31T20:49:03+00:00	2020-08-04T06:59:59+00:00	-4	txhfq2n9sr7yb0t@marketplace.amazon.com	Karla S. Tabor	+1 929-436-4790 ext. 54469	ABR0022	Purchase Now for Delivery by Tuesday | Arabella Farm Direct Bouquet of 12 Fresh Cut Pink Roses with a Free Glass Vase	1	0	1	NextDay	Linda Olson	28071 HARIA			MISSION VIEJO	CA	92692-1428	US		Linda, Get Well Soon! Love, Sue From Sue Nash	false		
111-6864707-9146657	38119647348154	2020-07-31T20:25:47+00:00	2020-07-31T13:25:47-07:00	2020-07-31T20:56:12+00:00	2020-08-05T06:59:59+00:00	-5	pv5jjm98540f6j9@marketplace.amazon.com	Lisa Frazier	+1 929-436-4790 ext. 12603	ABR0022	Purchase Now for Delivery by Tuesday | Arabella Farm Direct Bouquet of 12 Fresh Cut Pink Roses with a Free Glass Vase	1	0	1	Expedited	Kathy & Walter Erickson	574 Frassetto Dr			Southampton	PA	18966-4021	US			false		
112-7159706-3345825	40078346544842	2020-07-31T20:57:37+00:00	2020-07-31T13:57:37-07:00	2020-07-31T20:58:36+00:00	2020-08-04T06:59:59+00:00	-4	hg4gxyvl07b5d5x@marketplace.amazon.com	Rebecca B Shaheen	+1 929-436-4790 ext. 66437	ABM0033	Purchase Now for Delivery by Tuesday | Arabella Farm Direct Bouquet of Fresh Cut White Hydrangea with a Free Glass Vase	1	0	1	NextDay	Jill  Shaheen	1109 CANTERBURY DR			IMPERIAL	PA	15126-9185	US		Congratulations New Parents...Quinn is so lucky to have such a loving mom & dad!  (You have passed the 1 month mark with your awesome son!) From Love, Gram	false		
112-8642681-4294652	22395072256482	2020-07-31T21:19:45+00:00	2020-07-31T14:19:45-07:00	2020-07-31T21:23:23+00:00	2020-08-04T06:59:59+00:00	-4	n4dj2g4g8frhjp5@marketplace.amazon.com	Alan & Donna Brasesco	+1 929-436-4790 ext. 12000	ABM010	The Spring Fling Bouquet by Arabella Bouquets with a Free Designer Glass Vase	1	0	1	NextDay	Patricia Branum	408 CHURCH ST			NEW WINDSOR	MD	21776-8401	US		Hope this brightens your day.  XOXO From Alan & Donna Brasesco	false		
112-9281716-1798635	55448652795858	2020-07-31T21:46:04+00:00	2020-07-31T14:46:04-07:00	2020-07-31T21:50:55+00:00	2020-08-04T06:59:59+00:00	-4	8h8hkkp7mb22x9r@marketplace.amazon.com	jhuff	+1 929-436-4790 ext. 44795	ABR0022	Purchase Now for Delivery by Tuesday | Arabella Farm Direct Bouquet of 12 Fresh Cut Pink Roses with a Free Glass Vase	1	0	1	NextDay	Imani HUFF	2603 ALDEN LN			VENUS	TX	76084-1147	US			false		
113-0506746-7621840	40053392109066	2020-07-31T21:51:51+00:00	2020-07-31T14:51:51-07:00	2020-07-31T21:56:39+00:00	2020-08-04T06:59:59+00:00	-4	5wl0d23fw9w199k@marketplace.amazon.com	kerri a parks	+1 929-436-4790 ext. 70596	ABR0033	Purchase Now for Delivery by Tuesday | Arabella Farm Direct Bouquet of 12 Fresh Cut Orange Roses with a Free Glass Vase	1	0	1	NextDay	Kerri Parks	2029 MOUNTAIN AVE			SCOTCH PLAINS	NJ	07076-1340	US			false		
111-9080501-3306638	15923738219490	2020-07-31T21:32:21+00:00	2020-07-31T14:32:21-07:00	2020-07-31T22:00:30+00:00	2020-08-05T06:59:59+00:00	-5	scftk150b3wpzyf@marketplace.amazon.com	Donna Shirley	+1 929-436-4790 ext. 08218	ABM010	The Spring Fling Bouquet by Arabella Bouquets with a Free Designer Glass Vase	1	0	1	Expedited	Barbara Shirley	7831 PARK LN APT 270D			DALLAS	TX	75225-2076	US		Happy Birthday, Mom!  Thinking of you. Love Jay and Donna From Donna Shirley	false		
113-6050808-4633023	40652169707922	2020-07-31T22:04:19+00:00	2020-07-31T15:04:19-07:00	2020-07-31T22:08:10+00:00	2020-08-04T06:59:59+00:00	-4	5sjk1q9g9zld0yr@marketplace.amazon.com	Wanda Leboeuf	+1 929-436-4790 ext. 99212	ABR0055	Purchase Now for Delivery by Tuesday | Arabella Farm Direct Bouquet of 12 Stems of Fresh Cut Hot Pink Roses in a Free Designer Glass Vase	1	0	1	NextDay	Christine Yadgaroff	6040 KENNEDY BLVD E APT 32B			WEST NEW YORK	NJ	07093-3869	US		Thank you for being so thoughtful!  Bisous From Wanda Leboeuf	false		
112-3802960-8217861	60115099141146	2020-07-31T21:54:52+00:00	2020-07-31T14:54:52-07:00	2020-07-31T22:23:28+00:00	2020-08-05T06:59:59+00:00	-5	fn3xfbm6kc5xvxt@marketplace.amazon.com	katherine	+1 929-436-4790 ext. 31822	ABR001	Purchase Now for Delivery by Tuesday | Arabella Bouquets 12 Stems of Fresh Cut Red Roses in a Free Designer Glass Vase	1	0	1	Standard	Shereen Nasser	85 THOMAS ST			WEST HAVEN	CT	06516-6155	US		Enjoy your gift! From katherine	false		
111-4452892-6313842	34587464579890	2020-07-31T22:18:11+00:00	2020-07-31T15:18:11-07:00	2020-07-31T22:23:35+00:00	2020-08-04T06:59:59+00:00	-4	k941nc43c8f5j7l@marketplace.amazon.com	Anastasiya	+1 929-436-4790 ext. 92141	ABR0022	Purchase Now for Delivery by Tuesday | Arabella Farm Direct Bouquet of 12 Fresh Cut Pink Roses with a Free Glass Vase	1	0	1	NextDay	Tatiyana	139 LAKEWOOD GARDEN DR			LAS VEGAS	NV	89148-2739	US		Tanya! Happy birthday! Be happy!!! From Nastya, Sergey, Kolya, Katya	false		
113-1002805-3685052	57157149750570	2020-07-31T22:46:31+00:00	2020-07-31T15:46:31-07:00	2020-07-31T22:47:29+00:00	2020-08-04T06:59:59+00:00	-4	y3hn6b0s3t45np5@marketplace.amazon.com	Marsha B.	+1 929-436-4790 ext. 49781	ABM024	The Beauty of Color Bouquet by Arabella Bouquets	1	0	1	NextDay	Eleanor Bellamy	1310 PENNSYLVANIA AVE APT 16E			BROOKLYN	NY	11239-1909	US			false		
112-5112581-7904268	11226954524874	2020-07-31T22:20:48+00:00	2020-07-31T15:20:48-07:00	2020-07-31T22:51:26+00:00	2020-08-05T06:59:59+00:00	-5	v2l9kwf7b8jj7m2@marketplace.amazon.com	pegge wittmann	+1 929-436-4790 ext. 45709	ABM010	The Spring Fling Bouquet by Arabella Bouquets with a Free Designer Glass Vase	1	0	1	Expedited	Pegge Wittmann	36763 STONEY FLOWER DR			TUCSON	AZ	85739-1674	US			false		
113-3099136-3809804	21644894716610	2020-07-31T22:47:18+00:00	2020-07-31T15:47:18-07:00	2020-07-31T22:52:22+00:00	2020-08-04T06:59:59+00:00	-4	nj14ddhzzrw9bnn@marketplace.amazon.com	nicholas paugh	+1 929-436-4790 ext. 67824	ABR0022	Purchase Now for Delivery by Tuesday | Arabella Farm Direct Bouquet of 12 Fresh Cut Pink Roses with a Free Glass Vase	1	0	1	NextDay	Jaime Bonebreak	1697 FOUNTAIN LAKE DR W			SHELBYVILLE	IN	46176-9777	US			false		
111-7874367-7704249	08892689425426	2020-07-31T23:03:53+00:00	2020-07-31T16:03:53-07:00	2020-07-31T23:08:58+00:00	2020-08-04T06:59:59+00:00	-4	1f06psbbmd4pg6f@marketplace.amazon.com	Charles	+1 929-436-4790 ext. 92944	ABR001	Purchase Now for Delivery by Tuesday | Arabella Bouquets 12 Stems of Fresh Cut Red Roses in a Free Designer Glass Vase	1	0	1	NextDay	Kristin Karver	14703 NEWPORT DR			WESTFIELD	IN	46074-9770	US		I love you! From Charles	false		
114-7564811-4985029	17967566577618	2020-07-31T23:12:08+00:00	2020-07-31T16:12:08-07:00	2020-07-31T23:14:23+00:00	2020-08-04T06:59:59+00:00	-4	d6q2rfx0mfdz3ry@marketplace.amazon.com	Ituriel Meza	+1 929-436-4790 ext. 51184	ABM010	The Spring Fling Bouquet by Arabella Bouquets with a Free Designer Glass Vase	1	0	1	NextDay	Donna Sheehan	103 # N 63RD ST AT THE TOP			MESA	AZ	85205-8939	US		From your kids in Guad: HP, Software and DC team. De Guad team	false		
112-0591255-6368267	36335853698098	2020-07-31T23:27:44+00:00	2020-07-31T16:27:44-07:00	2020-07-31T23:32:02+00:00	2020-08-04T06:59:59+00:00	-4	jm16y52z0h7hh6p@marketplace.amazon.com	Abel Vasquez	+1 929-436-4790 ext. 22268	ABR0022	Purchase Now for Delivery by Tuesday | Arabella Farm Direct Bouquet of 12 Fresh Cut Pink Roses with a Free Glass Vase	1	0	1	NextDay	Teresa Vasquez	18270 NW COUNTY ROAD 4160			FROST	TX	76641-3490	US			false		
114-9627813-8355432	27507641377114	2020-07-31T23:57:52+00:00	2020-07-31T16:57:52-07:00	2020-07-31T23:58:50+00:00	2020-08-04T06:59:59+00:00	-4	1qx4bwr04md0zcg@marketplace.amazon.com	winora robinson	+1 929-436-4790 ext. 76959	ABR0055	Purchase Now for Delivery by Tuesday | Arabella Farm Direct Bouquet of 12 Stems of Fresh Cut Hot Pink Roses in a Free Designer Glass Vase	1	0	1	NextDay	Winora Robinson	35 MARCY PL APT 6G			BRONX	NY	10452-7311	US		HAPPY BIRTHDAY TO MY BEAUTIFUL MOTHER! I HOPE YOU  ENJOY THIS BIRTHDAY AND MANY MORE. I LOVE YOU SO MUCH! From LOVE, NOON	false		
112-8883536-4289055	18300896983274	2020-08-01T01:03:31+00:00	2020-07-31T18:03:31-07:00	2020-08-01T01:04:21+00:00	2020-08-04T06:59:59+00:00	-4	jg0hmbw5jbwhf4v@marketplace.amazon.com	natalie yaniz	+1 929-436-4790 ext. 91810	ABR0022	Purchase Now for Delivery by Tuesday | Arabella Farm Direct Bouquet of 12 Fresh Cut Pink Roses with a Free Glass Vase	1	0	1	NextDay	Amelia Esquinaldo	1614 BERTHA ST			KEY WEST	FL	33040-5327	US		Happy Birthday Abuela!! We love you!!!  Jameson and Natalie From Jameson and Natalie	false		
113-2680506-6790616	04031536538186	2020-08-01T00:46:33+00:00	2020-07-31T17:46:33-07:00	2020-08-01T01:16:48+00:00	2020-08-05T06:59:59+00:00	-5	xq651lx8zx7l0sw@marketplace.amazon.com	Pat Sellon	+1 929-436-4790 ext. 48686	ABR0055	Purchase Now for Delivery by Tuesday | Arabella Farm Direct Bouquet of 12 Stems of Fresh Cut Hot Pink Roses in a Free Designer Glass Vase	1	0	1	Expedited	Lori Gatzke	W6752 KING RD			POYNETTE	WI	53955-9573	US			false		
113-4818673-4119433	38535965932610	2020-08-01T01:19:41+00:00	2020-07-31T18:19:41-07:00	2020-08-01T01:21:14+00:00	2020-08-04T06:59:59+00:00	-4	phsff7yrxcl7hrg@marketplace.amazon.com	Debra A Kells	+1 929-436-4790 ext. 23597	ABM0044	Arabella Farm Direct Bouquet of Fresh Cut Blue Hydrangea with a Free Glass Vase	1	0	1	NextDay	Debra A Kells	277 TRADEWINDS DR APT 7			SAN JOSE	CA	95123-6036	US		To the last flower in my life. I love you auntie, thank you for always being there. From Debra A Kells	false		
113-8306764-2641818	17431888928106	2020-08-01T01:24:08+00:00	2020-07-31T18:24:08-07:00	2020-08-01T01:28:40+00:00	2020-08-04T06:59:59+00:00	-4	4pm50kw49hyn6jz@marketplace.amazon.com	Susan R Riley	+1 929-436-4790 ext. 38962	ABR0022	Purchase Now for Delivery by Tuesday | Arabella Farm Direct Bouquet of 12 Fresh Cut Pink Roses with a Free Glass Vase	1	0	1	NextDay	Dorothy Danylak	2271 W CREEK RD			NEWFANE	NY	14108-9747	US			false		
112-5245817-8745869	11270316789202	2020-08-01T01:36:38+00:00	2020-07-31T18:36:38-07:00	2020-08-01T01:42:05+00:00	2020-08-04T06:59:59+00:00	-4	cc8cs02pvt47jtl@marketplace.amazon.com	Iris martinez	+1 929-436-4790 ext. 87235	ABM002	Arabella Bouquets Fresh Cut White Calla Lilies in a Free Designer Glass Vase	1	0	1	NextDay	Iris Martinez	PLEASE CALL 347-965-4893	820 HENDERSON AVE APT 4A		STATEN ISLAND	NY	10310-1317	US			false		
111-9347723-9843446	09623910089810	2020-08-01T02:42:49+00:00	2020-07-31T19:42:49-07:00	2020-08-01T02:45:31+00:00	2020-08-04T06:59:59+00:00	-4	h97fgycqyt6k89y@marketplace.amazon.com	Judi	+1 929-436-4790 ext. 61847	ABR0022	Purchase Now for Delivery by Tuesday | Arabella Farm Direct Bouquet of 12 Fresh Cut Pink Roses with a Free Glass Vase	1	0	1	NextDay	Charlene Tu	17201 NE 14TH ST			BELLEVUE	WA	98008-3102	US		Happy birthday Chau!  May your days be filled with so much joy and nice surprises.  Thanks again for all that you do to brighten our days! From Ahtai	false		
112-9063221-9296253	18743500442618	2020-08-01T03:04:49+00:00	2020-07-31T20:04:49-07:00	2020-08-01T03:06:35+00:00	2020-08-04T06:59:59+00:00	-4	nvdl6xds3by00nv@marketplace.amazon.com	Ernest L. Brooks	+1 929-436-4790 ext. 86234	ABR0022	Purchase Now for Delivery by Tuesday | Arabella Farm Direct Bouquet of 12 Fresh Cut Pink Roses with a Free Glass Vase	1	0	1	NextDay	Anita Johnson	351 BROGDON RD			FAYETTEVILLE	GA	30214-8300	US			false		
112-2720422-3768238	22689477113874	2020-08-01T03:31:38+00:00	2020-07-31T20:31:38-07:00	2020-08-01T03:32:35+00:00	2020-08-04T06:59:59+00:00	-4	fw2nn5q8nrsdw4b@marketplace.amazon.com	Victor Tsarevsky	+1 929-436-4790 ext. 65035	ABB013	Arabella Bouquets | 24 Stems of Fresh Cut White Roses in a Free Designer Glass Vase	1	0	1	NextDay	Victor Tsarevsky	759  E 10TH  ST APT 3A			Brooklyn	New York	11230	US		Happy Anniversary!   Wishing You all the best things in the world! Mama, Papa From Victor Tsarevsky	false		
114-8031602-1495454	52916694380618	2020-08-01T03:39:29+00:00	2020-07-31T20:39:29-07:00	2020-08-01T03:42:58+00:00	2020-08-04T06:59:59+00:00	-4	lj8j2gwzjn301d5@marketplace.amazon.com	Jennifer Russell	+1 929-436-4790 ext. 88100	ABM010	The Spring Fling Bouquet by Arabella Bouquets with a Free Designer Glass Vase	1	0	1	NextDay	Fran French	50 KAETON POND RD			DEXTER	ME	04930-2516	US		Happy Birthday love you!!! From Jennifer and Dan	false		
111-5426482-8044200	31769443004778	2020-08-01T03:46:34+00:00	2020-07-31T20:46:34-07:00	2020-08-01T03:50:05+00:00	2020-08-04T06:59:59+00:00	-4	0ls21lhkb00g0l9@marketplace.amazon.com	Sarah K. Baird	+1 929-436-4790 ext. 29402	ABR0022	Purchase Now for Delivery by Tuesday | Arabella Farm Direct Bouquet of 12 Fresh Cut Pink Roses with a Free Glass Vase	1	0	1	NextDay	Bill Baird	221 Preservation Dr			Savannah	GA	31419-7544	US		Love you Mom! Sarah	false		
112-3045943-8177865	05389056094082	2020-08-01T03:24:38+00:00	2020-07-31T20:24:38-07:00	2020-08-01T03:51:29+00:00	2020-08-05T06:59:59+00:00	-5	gpv143kmrrtpmfd@marketplace.amazon.com	Gurminder singh	+1 929-436-4790 ext. 47943	ABR0022	Purchase Now for Delivery by Tuesday | Arabella Farm Direct Bouquet of 12 Fresh Cut Pink Roses with a Free Glass Vase	1	0	1	Expedited	Roohipreet Gill	27 PICKWICK DR S			HICKSVILLE	NY	11801-1856	US			false		
113-0968913-3317058	33664407797594	2020-08-01T04:29:53+00:00	2020-07-31T21:29:53-07:00	2020-08-01T04:30:48+00:00	2020-08-04T06:59:59+00:00	-4	ryb4d1f3b681n8b@marketplace.amazon.com	Mary Agnes Kunzer	+1 929-436-4790 ext. 02442	ABM010	The Spring Fling Bouquet by Arabella Bouquets with a Free Designer Glass Vase	1	0	1	NextDay	Jessica Hess	121 THRUSH LN			NAPERVILLE	IL	60540-8021	US			false		
111-2887001-4929013	15644408872194	2020-08-01T04:03:01+00:00	2020-07-31T21:03:01-07:00	2020-08-01T04:33:34+00:00	2020-08-05T06:59:59+00:00	-5	y5q2932jj4ztngv@marketplace.amazon.com	Pamela J Gerritzen	+1 929-436-4790 ext. 10565	ABR012	Arabella Farm Direct Bouquet of 18 Fresh Cut Pink Roses with a Free Glass Vase	1	0	1	Expedited	Pamela Gerritzen	64 Wilderness Ln			Defiance	MO	63341-2402	US			false		
114-9313020-3295407	11981739219202	2020-08-01T04:38:50+00:00	2020-07-31T21:38:50-07:00	2020-08-01T04:39:45+00:00	2020-08-04T06:59:59+00:00	-4	z5xp6pn3m0m7dt8@marketplace.amazon.com	Christina Gilroy	+1 929-436-4790 ext. 71891	ABR012	Arabella Farm Direct Bouquet of 18 Fresh Cut Pink Roses with a Free Glass Vase	1	0	1	NextDay	Pearl Hasychak	3451 ALLDAY RD			HUNTINGTOWN	MD	20639-9201	US		Love you!!!   From Chrissy, Richie & Cora! From Christina Gilroy	false		
111-2391127-5466625	20289595274610	2020-08-01T05:18:30+00:00	2020-07-31T22:18:30-07:00	2020-08-01T05:23:56+00:00	2020-08-04T06:59:59+00:00	-4	rb33snm27tz5y1q@marketplace.amazon.com	Louis Ciamillo	+1 929-436-4790 ext. 59940	ABR0022	Purchase Now for Delivery by Tuesday | Arabella Farm Direct Bouquet of 12 Fresh Cut Pink Roses with a Free Glass Vase	1	0	1	NextDay	Louis Ciamillo	1587 RIVER ISLAND PKWY			EVANS	GA	30809-4300	US			false		
