order-id	order-item-id	purchase-date	payments-date	reporting-date	promise-date	days-past-promise	buyer-email	buyer-name	buyer-phone-number	sku	product-name	quantity-purchased	quantity-shipped	quantity-to-ship	ship-service-level	recipient-name	ship-address-1	ship-address-2	ship-address-3	ship-city	ship-state	ship-postal-code	ship-country	gift-wrap-type	gift-message-text	is-business-order	purchase-order-number	price-designation
112-5096616-8296237	50524827877698	2020-08-01T12:20:22+00:00	2020-08-01T05:20:22-07:00	2020-08-01T12:49:29+00:00	2020-08-04T06:59:59+00:00	-2	l8knmpyylbs943w@marketplace.amazon.com	Charles D Gerard	+1 929-436-4790 ext. 49808	ABR0055	Purchase Now for Delivery by Wednesday | Arabella Farm Direct Bouquet of 12 Stems of Fresh Cut Hot Pink Roses in a Free Designer Glass Vase	1	0	1	SecondDay	Charles D Gerard	1689 OLD JACKSON HWY			JACKSON	SC	29831-3001	US		Love and miss you so much. From Chuck	false		
114-4950141-9620258	32407960766418	2020-08-01T12:31:49+00:00	2020-08-01T05:31:49-07:00	2020-08-01T12:57:31+00:00	2020-08-04T06:59:59+00:00	-2	c6wp6jk32vzlr04@marketplace.amazon.com	lorraine hardial	+1 929-436-4790 ext. 67227	ABM0044	Arabella Farm Direct Bouquet of Fresh Cut Blue Hydrangea with a Free Glass Vase	1	0	1	SecondDay	Frances Moore	14 GRANT ST			ROOSEVELT	NY	11575-2217	US		Happy 40th Anniversary Les and Frannie...love and miss you guys. From lorraine hardial	false		
114-2453886-2542619	68321053470026	2020-08-01T12:59:04+00:00	2020-08-01T05:59:04-07:00	2020-08-01T13:26:56+00:00	2020-08-04T06:59:59+00:00	-2	7n147vt5lpl2zkr@marketplace.amazon.com	keri jenkins	+1 929-436-4790 ext. 23220	ABR0033	Purchase Now for Delivery by Wednesday | Arabella Farm Direct Bouquet of 12 Fresh Cut Orange Roses with a Free Glass Vase	1	0	1	SecondDay	Grandma BB	1101 WILDWOOD RD			ELMIRA	NY	14905-1529	US		HAPPY BIRTHDAY GRANDMA BB!! We hope you have a wonderFul day! Wish we could spend it with you !! We love you !! Lance and Keri From Lance and Keri	false		
111-7240809-9193054	51179195345178	2020-08-01T13:13:18+00:00	2020-08-01T06:13:18-07:00	2020-08-01T13:41:33+00:00	2020-08-04T06:59:59+00:00	-2	gyrd17thk7hmfr3@marketplace.amazon.com	Erica	+1 929-436-4790 ext. 93037	ABR0022	Purchase Now for Delivery by Wednesday | Arabella Farm Direct Bouquet of 12 Fresh Cut Pink Roses with a Free Glass Vase	1	0	1	SecondDay	Erica Skinner	2604 EAGLE COVE TRL			VIRGINIA BEACH	VA	23456-1633	US		Happy Anniversary.  Thank you for being an amazing wife.  I love you very much!! From Chad	false		
113-9052585-8055424	04821664737874	2020-08-01T13:15:14+00:00	2020-08-01T06:15:14-07:00	2020-08-01T13:44:56+00:00	2020-08-04T06:59:59+00:00	-2	sl5jr05jq9by4n4@marketplace.amazon.com	Betty Gore	+1 929-436-4790 ext. 15391	ABR001	Purchase Now for Delivery by Wednesday | Arabella Bouquets 12 Stems of Fresh Cut Red Roses in a Free Designer Glass Vase	1	0	1	SecondDay	Betty Gore	4305 LOFT CV			OWENSBORO	KY	42303-7365	US			false		
112-6069741-6151463	06970459736178	2020-08-01T13:40:55+00:00	2020-08-01T06:40:55-07:00	2020-08-01T14:04:47+00:00	2020-08-04T06:59:59+00:00	-2	b4g9k77g5g839k0@marketplace.amazon.com	Theresa Guzy	+1 929-436-4790 ext. 01614	ABM010	The Spring Fling Bouquet by Arabella Bouquets with a Free Designer Glass Vase	1	0	1	SecondDay	Flo Sgro	6237 ANITA DR			PARMA HEIGHTS	OH	44130-2819	US		Happy Birthday!!! Love you From Tree	false		
113-9357428-1359450	00945895425450	2020-08-01T13:58:01+00:00	2020-08-01T06:58:01-07:00	2020-08-01T14:27:44+00:00	2020-08-04T06:59:59+00:00	-2	l3wr61nmqf555jr@marketplace.amazon.com	Theresa Miller	+1 929-436-4790 ext. 85951	ABM010	The Spring Fling Bouquet by Arabella Bouquets with a Free Designer Glass Vase	1	0	1	SecondDay	Deb Dennison	2211 KENNEDY ST			PORTAGE	IN	46368-2415	US			false		
114-6469562-0217824	23222851656954	2020-08-01T14:07:16+00:00	2020-08-01T07:07:16-07:00	2020-08-01T14:32:14+00:00	2020-08-04T06:59:59+00:00	-2	cwxc9dwk3y0p5vl@marketplace.amazon.com	John Sedlak	+1 929-436-4790 ext. 15863	ABM0044	Arabella Farm Direct Bouquet of Fresh Cut Blue Hydrangea with a Free Glass Vase	1	0	1	SecondDay	theresa prikazsky	13871 GINGER LOOP			PENN VALLEY	CA	95946-9514	US			false		
114-1301640-6853048	40939596514658	2020-08-01T14:13:37+00:00	2020-08-01T07:13:37-07:00	2020-08-01T14:41:11+00:00	2020-08-04T06:59:59+00:00	-2	5mpl43xrgs6czqp@marketplace.amazon.com	Tim	+1 929-436-4790 ext. 36316	ABR0022	Purchase Now for Delivery by Wednesday | Arabella Farm Direct Bouquet of 12 Fresh Cut Pink Roses with a Free Glass Vase	1	0	1	SecondDay	Margaret Rebholz	107 ROCKAWAY ST			ISLIP TERRACE	NY	11752-1018	US		Thinking of you. Love you Mom From Love Tim	false		
112-5149149-8947401	03432883003450	2020-08-01T14:15:30+00:00	2020-08-01T07:15:30-07:00	2020-08-01T14:44:32+00:00	2020-08-04T06:59:59+00:00	-2	5trk59d1p33v5ls@marketplace.amazon.com	Lauren Pappalardo	+1 929-436-4790 ext. 00389	ABM0044	Arabella Farm Direct Bouquet of Fresh Cut Blue Hydrangea with a Free Glass Vase	1	0	1	SecondDay	Kit Lawler	9700 SHADOW WOOD DR			PENSACOLA	FL	32514-5749	US		Happy 80th Birthday Gramma! We love you and wish we could be there to celebrate with you! From Lauren & CJay	false		
112-5395683-8057800	18529649942090	2020-08-01T14:31:17+00:00	2020-08-01T07:31:17-07:00	2020-08-01T14:54:54+00:00	2020-08-04T06:59:59+00:00	-2	kvtm1wmny2c8fph@marketplace.amazon.com	RAndall	+1 929-436-4790 ext. 73915	ABR0022	Purchase Now for Delivery by Wednesday | Arabella Farm Direct Bouquet of 12 Fresh Cut Pink Roses with a Free Glass Vase	1	0	1	SecondDay	Leslie Baker	1309 E 10TH ST			NEWBERG	OR	97132-3732	US		Happy Birthday!!! Have a great day and hope to see you soon. Love Randy and Terri From RAndall	false		
111-0006008-3242615	54143427369314	2020-08-01T15:00:09+00:00	2020-08-01T08:00:09-07:00	2020-08-01T15:30:25+00:00	2020-08-05T06:59:59+00:00	-3	1j94zddxjpx1yw5@marketplace.amazon.com	Lauren Shein	+1 929-436-4790 ext. 27446	ABR0055	Purchase Now for Delivery by Wednesday | Arabella Farm Direct Bouquet of 12 Stems of Fresh Cut Hot Pink Roses in a Free Designer Glass Vase	1	0	1	Expedited	Mrs Lauren  Shein	500 COLGATE WAY			SAN MATEO	CA	94402-3206	US			false		
114-6551559-1039405	63974175601090	2020-08-01T16:03:40+00:00	2020-08-01T09:03:40-07:00	2020-08-01T16:29:35+00:00	2020-08-04T06:59:59+00:00	-2	f5757p736s1tgb6@marketplace.amazon.com	Vicki Rosenkrantz	+1 929-436-4790 ext. 14349	ABM010	The Spring Fling Bouquet by Arabella Bouquets with a Free Designer Glass Vase	1	0	1	SecondDay	Rosie & Chuck Hines	242 N CHALBURN AVE			WEST COVINA	CA	91790-2003	US		Thinking of you! Hope your doing good.. Love you From Vicki, Wayne (& Joe!)	false		
114-9785550-0896239	10682002681250	2020-08-01T16:10:44+00:00	2020-08-01T09:10:44-07:00	2020-08-01T16:33:03+00:00	2020-08-04T06:59:59+00:00	-2	5r214sdt6d7hqlx@marketplace.amazon.com	bill may	+3052752478	ABM010	The Spring Fling Bouquet by Arabella Bouquets with a Free Designer Glass Vase	1	0	1	SecondDay	Kathy May	9024 BEATTY DR			ALEXANDRIA	VA	22308-2807	US		Happy Birthday Kathy! Wishing you a beautiful day. From Love mom and dad!	false		
112-8438098-6290620	15175229733282	2020-08-01T16:30:17+00:00	2020-08-01T09:30:17-07:00	2020-08-01T16:59:07+00:00	2020-08-04T06:59:59+00:00	-2	xb629qjpz74n5w6@marketplace.amazon.com	Barbara Horowitz	+1 929-436-4790 ext. 69771	ABR001	Purchase Now for Delivery by Wednesday | Arabella Bouquets 12 Stems of Fresh Cut Red Roses in a Free Designer Glass Vase	1	0	1	SecondDay	Lisa Carlsen	PVT 93 CYPRESS LOOP			STATEN ISLAND	NY	10309-1676	US		Dear Lisa, Wishing you a happy happy birthday Love Barb and Monte From Barbara Horowitz	false		
112-9530938-3922639	45994258216002	2020-08-01T16:39:02+00:00	2020-08-01T09:39:02-07:00	2020-08-01T17:05:49+00:00	2020-08-05T06:59:59+00:00	-3	xb629qjpz74n5w6@marketplace.amazon.com	Barbara Horowitz	+1 929-436-4790 ext. 65348	ABR004	Arabella Farm Direct Bouquet of 12 Fresh Cut Yellow Roses with a Free Glass Vase	1	0	1	Expedited	Ilana Horowitz	PVT HOME 6234 JOHNSON WAY			ARVADA	CO	80004-5141	US		Dear Ilana Happy Happy Birthday Love Auntie B , Uncle Monte and Gia From Barbara Horowitz	false		
111-3183572-1280240	49249675407234	2020-08-01T17:40:30+00:00	2020-08-01T10:40:30-07:00	2020-08-01T18:11:03+00:00	2020-08-05T06:59:59+00:00	-3	9vh3sxx7qc47t27@marketplace.amazon.com	Brent Goddard	+1 929-436-4790 ext. 31742	ABM010	The Spring Fling Bouquet by Arabella Bouquets with a Free Designer Glass Vase	1	0	1	Expedited	Alyssa McElroy	32 TAVERN RD			STAFFORD	VA	22554-8814	US			false		
113-3336300-5397039	39032547776250	2020-08-01T17:50:11+00:00	2020-08-01T10:50:11-07:00	2020-08-01T18:19:40+00:00	2020-08-04T06:59:59+00:00	-2	x1z7ffmbbl5qg6p@marketplace.amazon.com	Kay Carter	+1 929-436-4790 ext. 16950	ABM0033	Purchase Now for Delivery by Wednesday | Arabella Farm Direct Bouquet of Fresh Cut White Hydrangea with a Free Glass Vase	1	0	1	SecondDay	Jan Richards	190 WHITLY BAY AVE			LAS VEGAS	NV	89148-2801	US		Happy Birthday!!!! Love Sis From Kay Carter	false		
113-9800683-8221007	11621256079634	2020-08-01T10:05:55+00:00	2020-08-01T03:05:55-07:00	2020-08-01T18:24:53+00:00	2020-08-04T06:59:59+00:00	-2	3hvn2wbdd4v4j6g@marketplace.amazon.com	Robert friedrich	+1 929-436-4790 ext. 86323	ABR0055	Purchase Now for Delivery by Tuesday | Arabella Farm Direct Bouquet of 12 Stems of Fresh Cut Hot Pink Roses in a Free Designer Glass Vase	1	0	1	NextDay	Lorrie M Sweeney	19 PLUMTREE RD			SUNDERLAND	MA	01375-9468	US		My love for you multiplies every single day , Imagine how much i would end up loving you. I love you so much honey From Robert friedrich	false		
113-6970989-5164224	51769166166010	2020-08-01T18:36:19+00:00	2020-08-01T11:36:19-07:00	2020-08-01T18:57:37+00:00	2020-08-04T06:59:59+00:00	-2	05339vhsyrqp27l@marketplace.amazon.com	Karen Gil	+1 929-436-4790 ext. 89308	ABM022	Purple Extravagance Bouquet by Arabella Bouquets	1	0	1	SecondDay	14 Jackson St, Glen Cove, New York, 11542.	14 JACKSON ST			GLEN COVE	NY	11542-1734	US			false		
111-5987434-4448252	17488713631442	2020-08-01T18:36:29+00:00	2020-08-01T11:36:29-07:00	2020-08-01T19:06:06+00:00	2020-08-04T06:59:59+00:00	-2	cs4xjlftqfb9vzm@marketplace.amazon.com	MICHELLE M MOHNKERN	+1 929-436-4790 ext. 28805	ABR0022	Purchase Now for Delivery by Wednesday | Arabella Farm Direct Bouquet of 12 Fresh Cut Pink Roses with a Free Glass Vase	1	0	1	SecondDay	Claire Gemme	104 Johnson Road	Unit 602		Chicopee	MA	01022	US		It's not a special occasion. But you're a special person. Sending a hug and love. From Michelle	false		
112-8471954-9503448	32966383510794	2020-08-01T19:21:58+00:00	2020-08-01T12:21:58-07:00	2020-08-01T19:51:52+00:00	2020-08-04T06:59:59+00:00	-2	t51y31y0mb1sjhx@marketplace.amazon.com	Jaime Pasquier	+1 929-436-4790 ext. 61068	ABR0022	Purchase Now for Delivery by Wednesday | Arabella Farm Direct Bouquet of 12 Fresh Cut Pink Roses with a Free Glass Vase	1	0	1	SecondDay	Jaime Pasquier	3241 N ST NW APT 3			WASHINGTON	DC	20007-2835	US		Enjoy your Souhila.  Kisses! From Jaime Pasquier	false		
111-0892000-0162643	40949831839978	2020-08-01T19:40:37+00:00	2020-08-01T12:40:37-07:00	2020-08-01T20:10:50+00:00	2020-08-04T06:59:59+00:00	-2	g9qnv61j17dy0tr@marketplace.amazon.com	Evelyn	+1 929-436-4790 ext. 82501	ABM010	The Spring Fling Bouquet by Arabella Bouquets with a Free Designer Glass Vase	1	0	1	SecondDay	Dede Byrnes	654 N ARMISTEAD ST			ALEXANDRIA	VA	22312-2930	US			false		
111-0931964-8631421	67202257969130	2020-08-01T19:52:13+00:00	2020-08-01T12:52:13-07:00	2020-08-01T20:22:25+00:00	2020-08-04T06:59:59+00:00	-2	z8yvp1z4gdbwh99@marketplace.amazon.com	Angela Meader	+1 929-436-4790 ext. 76322	ABM0033	Purchase Now for Delivery by Wednesday | Arabella Farm Direct Bouquet of Fresh Cut White Hydrangea with a Free Glass Vase	1	0	1	SecondDay	Angela P Meader	13135 Ladybank Lane			Herndon	Virginia	20171	US			false		
113-8750092-7289041	30382949963994	2020-08-01T20:24:29+00:00	2020-08-01T13:24:29-07:00	2020-08-01T20:53:02+00:00	2020-08-04T06:59:59+00:00	-2	p3kgn9hp4dpsjxr@marketplace.amazon.com	Twila Hoffman	+1 929-436-4790 ext. 45137	ABR0033	Purchase Now for Delivery by Wednesday | Arabella Farm Direct Bouquet of 12 Fresh Cut Orange Roses with a Free Glass Vase	1	0	1	SecondDay	Robin Boyd	352 E 1100 N			LAYTON	UT	84041-2487	US			false		
112-7884176-4978625	11520639195858	2020-08-01T20:57:34+00:00	2020-08-01T13:57:34-07:00	2020-08-01T21:20:44+00:00	2020-08-04T06:59:59+00:00	-2	ryrzgbmyxj5gj7s@marketplace.amazon.com	stanley wiener	+1 929-436-4790 ext. 64546	ABR0055	Purchase Now for Delivery by Wednesday | Arabella Farm Direct Bouquet of 12 Stems of Fresh Cut Hot Pink Roses in a Free Designer Glass Vase	1	0	1	SecondDay	Irene E Wiener	126 Woodcock Knoll			Cross River	NY	10518	US		To my very darling wife! I love you with all my heart and soul! I love you now and forever, Stan From stanley wiener	false		
113-2679582-4535413	39991667251746	2020-08-01T20:52:27+00:00	2020-08-01T13:52:27-07:00	2020-08-01T21:22:56+00:00	2020-08-05T06:59:59+00:00	-3	f71p2kv33zzyp72@marketplace.amazon.com	Jorge	+1 929-436-4790 ext. 26848	ABR0022	Purchase Now for Delivery by Wednesday | Arabella Farm Direct Bouquet of 12 Fresh Cut Pink Roses with a Free Glass Vase	1	0	1	Expedited	Silvia Castillo	8608 PINE CONE CT APT A			TAMPA	FL	33604-2519	US			false		
111-2348184-6763447	67583205430370	2020-08-01T22:28:59+00:00	2020-08-01T15:28:59-07:00	2020-08-01T22:56:20+00:00	2020-08-04T06:59:59+00:00	-2	75vd5f0ypcvj83k@marketplace.amazon.com	Michael Curtis Way	+1 929-436-4790 ext. 02797	ABR0022	Purchase Now for Delivery by Wednesday | Arabella Farm Direct Bouquet of 12 Fresh Cut Pink Roses with a Free Glass Vase	1	0	1	SecondDay	Tatianna Eckstrom	317 JEFFERSON ST			SANDSTONE	MN	55072-4500	US			false		
112-2816504-9835416	54972579762138	2020-08-01T22:50:47+00:00	2020-08-01T15:50:47-07:00	2020-08-01T23:18:25+00:00	2020-08-04T06:59:59+00:00	-2	phs89k034d26m1t@marketplace.amazon.com	Carolene C Hayakawa	+1 929-436-4790 ext. 78211	ABR0022	Purchase Now for Delivery by Wednesday | Arabella Farm Direct Bouquet of 12 Fresh Cut Pink Roses with a Free Glass Vase	1	0	1	SecondDay	Toshiko Hayakawa	863 ROSEWOOD AVE			SANGER	CA	93657-5400	US		Happy Birthday Mom!! From Carolene C Hayakawa	false		
113-7196942-3911451	70166286115594	2020-08-01T23:17:01+00:00	2020-08-01T16:17:01-07:00	2020-08-01T23:43:26+00:00	2020-08-04T06:59:59+00:00	-2	hyl41x56pb5dcx4@marketplace.amazon.com	Carol Stacy	+1 929-436-4790 ext. 32498	ABR012	Arabella Farm Direct Bouquet of 18 Fresh Cut Pink Roses with a Free Glass Vase	1	0	1	SecondDay	Justine Stacy	3900 LOMALAND DR			SAN DIEGO	CA	92106-2810	US		Enjoy your gift! Happy Birthdayl, we love you From Carol Stacy	false		
114-6045172-3259403	36897906568018	2020-08-01T23:51:43+00:00	2020-08-01T16:51:43-07:00	2020-08-02T00:12:33+00:00	2020-08-04T06:59:59+00:00	-2	9czv42nchg2m5n4@marketplace.amazon.com	Christina	+1 929-436-4790 ext. 24343	ABM010	The Spring Fling Bouquet by Arabella Bouquets with a Free Designer Glass Vase	1	0	1	SecondDay	Janice Welcome	34 FERNCLIFF AVE			LEE	MA	01238-1606	US		Happy Birthday! Sorry we are so late getting something to you! Chocolates are also on their way. We love you and hope you had a nice birthday in RI with family. From Keith, Christina and Ashton	false		
112-2305827-2340235	52802483675618	2020-08-02T00:31:05+00:00	2020-08-01T17:31:05-07:00	2020-08-02T00:58:40+00:00	2020-08-04T06:59:59+00:00	-2	zpmp4ft47nqnt04@marketplace.amazon.com	Carol McCann	+1 929-436-4790 ext. 99585	ABM010	The Spring Fling Bouquet by Arabella Bouquets with a Free Designer Glass Vase	1	0	1	SecondDay	Barb Wheeler	2406 CANIN CT			SANTA ROSA	CA	95405-8354	US		Hope you have a great birthday! Love, Carol and Cec From Carol Fell	false		
113-9204888-9192240	67278693025810	2020-08-02T00:33:01+00:00	2020-08-01T17:33:01-07:00	2020-08-02T01:02:42+00:00	2020-08-04T06:59:59+00:00	-2	vrs151t6ysjppyc@marketplace.amazon.com	julie e ruona	+1 929-436-4790 ext. 88394	ABR0022	Purchase Now for Delivery by Wednesday | Arabella Farm Direct Bouquet of 12 Fresh Cut Pink Roses with a Free Glass Vase	1	0	1	SecondDay	Mary Ruona	215 WILLIAMS ST			JENNINGS	LA	70546-3629	US		You are a wonderful and kind woman and mother. I love you so much!! From Julie	false		
111-9532975-6547460	37263873636938	2020-08-02T01:53:37+00:00	2020-08-01T18:53:37-07:00	2020-08-02T02:19:10+00:00	2020-08-04T06:59:59+00:00	-2	nm7qc81sm2bdwmp@marketplace.amazon.com	Ann M Berg	+1 929-436-4790 ext. 66453	ABR0033	Purchase Now for Delivery by Wednesday | Arabella Farm Direct Bouquet of 12 Fresh Cut Orange Roses with a Free Glass Vase	1	0	1	SecondDay	vicki Fay	52 MADISON GDNS			OLD BRIDGE	NJ	08857-2899	US		Happy 60th with Love From Ann & Eric	false		
111-6721278-4657866	08081011980178	2020-08-02T02:56:31+00:00	2020-08-01T19:56:31-07:00	2020-08-02T03:25:00+00:00	2020-08-04T06:59:59+00:00	-2	pl8z5gcdz89yfv9@marketplace.amazon.com	Marissa L. Burtch	+1 929-436-4790 ext. 97977	ABM0033	Purchase Now for Delivery by Wednesday | Arabella Farm Direct Bouquet of Fresh Cut White Hydrangea with a Free Glass Vase	1	0	1	SecondDay	Ginet Wolters	130 W SUMMERHILL PL			OAK CREEK	WI	53154-5034	US		Our thoughts and prayers are with you in this difficult time. From Marissa, Kent and Miriam Burtch	false		
111-5634037-0821806	35373975068010	2020-08-02T03:13:20+00:00	2020-08-01T20:13:20-07:00	2020-08-02T03:44:00+00:00	2020-08-05T06:59:59+00:00	-3	mps6b7mchtm61t8@marketplace.amazon.com	Nathan M Welch	+1 929-436-4790 ext. 03691	ABR001	Purchase Now for Delivery by Wednesday | Arabella Bouquets 12 Stems of Fresh Cut Red Roses in a Free Designer Glass Vase	1	0	1	Expedited	Nathan M Welch	10 E LEE ST APT 1807			BALTIMORE	MD	21202-6021	US			false		
112-4430046-8645813	13599207718370	2020-08-02T03:22:43+00:00	2020-08-01T20:22:43-07:00	2020-08-02T03:51:19+00:00	2020-08-04T06:59:59+00:00	-2	by0l8l3d6c8n4y6@marketplace.amazon.com	christina goodell	+1 929-436-4790 ext. 05664	ABR0022	Purchase Now for Delivery by Wednesday | Arabella Farm Direct Bouquet of 12 Fresh Cut Pink Roses with a Free Glass Vase	1	0	1	SecondDay	Joan McLaughlin	508 COBBLESTONE CT			ROSEVILLE	CA	95747-8700	US		Feel better everyday! Prayers and hugs! Hailey, Brady, Brian, Jerry and Christina From christina goodell	false		
114-5406290-3575433	38847458918418	2020-08-02T03:46:22+00:00	2020-08-01T20:46:22-07:00	2020-08-02T04:15:05+00:00	2020-08-04T06:59:59+00:00	-2	2lkfs96dyk88fzm@marketplace.amazon.com	Samuel Vellequette	+1 929-436-4790 ext. 61549	ABR0022	Purchase Now for Delivery by Wednesday | Arabella Farm Direct Bouquet of 12 Fresh Cut Pink Roses with a Free Glass Vase	1	0	1	SecondDay	Karen Vellequette	11400 KRUSE RD			PETERSBURG	MI	49270-9788	US		Hey Aunt Karen please enjoy these I'll be sending a real card soon From Samuel Vellequette	false		
112-2660419-6523469	43642928960770	2020-08-02T04:31:15+00:00	2020-08-01T21:31:15-07:00	2020-08-02T05:00:45+00:00	2020-08-04T06:59:59+00:00	-2	trljdh0xwh90fdw@marketplace.amazon.com	Parsa Tafreshi	+1 929-436-4790 ext. 23279	ABR0022	Purchase Now for Delivery by Wednesday | Arabella Farm Direct Bouquet of 12 Fresh Cut Pink Roses with a Free Glass Vase	1	0	1	SecondDay	Parsa Tafreshi	1123 Old Northern Boulevard			Roslyn	NY	11576	US		Happy Birthday Mamanam :) From Parsa Tafreshi	false		
113-1288930-8073009	07518494850482	2020-08-02T05:00:30+00:00	2020-08-01T22:00:30-07:00	2020-08-02T05:27:37+00:00	2020-08-04T06:59:59+00:00	-2	0vytsb6j2y7fjgv@marketplace.amazon.com	Nebeker Parents	+1 929-436-4790 ext. 20683	ABR0022	Purchase Now for Delivery by Wednesday | Arabella Farm Direct Bouquet of 12 Fresh Cut Pink Roses with a Free Glass Vase	1	0	1	SecondDay	Dina Wray	2038 N FRONT RD			NORTH PLATTE	NE	69101-1431	US		We miss and love Hope!! From Keith and Julie	false		
111-8227031-6872210	01000435244002	2020-08-02T07:25:57+00:00	2020-08-02T00:25:57-07:00	2020-08-02T07:56:26+00:00	2020-08-05T06:59:59+00:00	-3	ctpnjkb6s07xmql@marketplace.amazon.com	Ivan	+1 929-436-4790 ext. 81285	ABR0022	Purchase Now for Delivery by Wednesday | Arabella Farm Direct Bouquet of 12 Fresh Cut Pink Roses with a Free Glass Vase	1	0	1	Expedited	Joseline Rosales	501 CONTINENTAL AVE			LIBERTY HILL	TX	78642-2030	US			false		
114-5862338-7584238	04077117112426	2020-08-02T09:52:45+00:00	2020-08-02T02:52:45-07:00	2020-08-02T10:20:38+00:00	2020-08-04T06:59:59+00:00	-2	2mw28z1knx3k2w0@marketplace.amazon.com	Kevin Alston	+1 929-436-4790 ext. 06300	ABR0022	Purchase Now for Delivery by Wednesday | Arabella Farm Direct Bouquet of 12 Fresh Cut Pink Roses with a Free Glass Vase	1	0	1	SecondDay	Sharon K. Newman	2407 SHERIDAN AVE N			MINNEAPOLIS	MN	55411-1740	US			false		
113-0298187-7674655	65182583554130	2020-08-02T11:58:30+00:00	2020-08-02T04:58:30-07:00	2020-08-02T12:14:30+00:00	2020-08-04T06:59:59+00:00	-2	6h9vyjs6tcs3wps@marketplace.amazon.com	Lorraine	+1 929-436-4790 ext. 10626	ABR0022	Purchase Now for Delivery by Wednesday | Arabella Farm Direct Bouquet of 12 Fresh Cut Pink Roses with a Free Glass Vase	1	0	1	SecondDay	Maria Arroyo	17 CARRIAGE PL			EDISON	NJ	08820-4023	US		Happy Birthday Maria!!!  Have a wonderful day whatever you do!  Love Lorraine & Pat From Lorraine	false		
114-9318417-4689842	02005085421882	2020-08-02T12:06:15+00:00	2020-08-02T05:06:15-07:00	2020-08-02T12:35:15+00:00	2020-08-04T06:59:59+00:00	-2	pf4ltq8r72w10jr@marketplace.amazon.com	Nitin Verma	+1 929-436-4790 ext. 92129	ABM010	The Spring Fling Bouquet by Arabella Bouquets with a Free Designer Glass Vase	1	0	1	SecondDay	Subha Chopra	6 WHITE OAK DR			LIVINGSTON	NJ	07039-1221	US		Wishing you all the happiness and success in the world as you begin your next chapter in life. You have made the whole family proud. Love, From Nitin Mamu	false		
114-2349150-9085039	26559463218234	2020-08-02T12:21:35+00:00	2020-08-02T05:21:35-07:00	2020-08-02T12:49:02+00:00	2020-08-05T06:59:59+00:00	-3	7lhnsbg0xk7r09f@marketplace.amazon.com	Ken Soder	+1 929-436-4790 ext. 91135	ABR0055	Purchase Now for Delivery by Wednesday | Arabella Farm Direct Bouquet of 12 Stems of Fresh Cut Hot Pink Roses in a Free Designer Glass Vase	1	0	1	Expedited	Beth Murphy	186 STONEBRIDGE RD			COVENTRY	CT	06238-3345	US		Happy Birthday Auntie Beth! We Love you. Hope to celebrate with you soon! Kenny, Kristin, Eric and Jason. From Ken Soder	false		
114-8243152-6605848	65777904404506	2020-08-02T12:38:32+00:00	2020-08-02T05:38:32-07:00	2020-08-02T13:04:15+00:00	2020-08-05T06:59:59+00:00	-3	4qsr9lcjkpwtc5p@marketplace.amazon.com	mary rathe	+1 929-436-4790 ext. 74108	ABR012	Arabella Farm Direct Bouquet of 18 Fresh Cut Pink Roses with a Free Glass Vase	1	0	1	Expedited	Dorothy Westendorf	LINCOLNWOOD ASSISTED LIVING	302 W LINCOLN ST		EDGEWOOD	IA	52042-8722	US		Happy 95th Mom!  Because of you, I have my faith and values.  I could not have had a more caring, loving mother.  You are still always there for me.  Love you so much.  Wish we could share your special day. From Dallas and Mary	false		
112-0181902-8181821	43949273739010	2020-08-02T12:50:07+00:00	2020-08-02T05:50:07-07:00	2020-08-02T13:16:23+00:00	2020-08-04T06:59:59+00:00	-2	qcfqtypdssx0nmy@marketplace.amazon.com	Arun Gupta	+1 929-436-4790 ext. 21277	ABR0022	Purchase Now for Delivery by Wednesday | Arabella Farm Direct Bouquet of 12 Fresh Cut Pink Roses with a Free Glass Vase	1	0	1	SecondDay	Maureen Carney	127 DRIFTWOOD DR			BAYVILLE	NJ	08721-1954	US		Please accept  our heartfelt condolences From Rita and Arun Gupta	false		
114-1983805-7651433	01426586271026	2020-08-02T13:00:23+00:00	2020-08-02T06:00:23-07:00	2020-08-02T13:29:16+00:00	2020-08-04T06:59:59+00:00	-2	0r884g46shg34m9@marketplace.amazon.com	Alberto Pierotti	+1 929-436-4790 ext. 06475	ABR0022	Purchase Now for Delivery by Wednesday | Arabella Farm Direct Bouquet of 12 Fresh Cut Pink Roses with a Free Glass Vase	1	0	1	SecondDay	Kirsten Chapman	112 Dunham Springs ln			Nashville	Tennessee	37205	US		Happy Anniversary Mom and Dad ! ! ! From Love Tia	false		
111-9089790-0525064	52393344968266	2020-08-02T13:42:01+00:00	2020-08-02T06:42:01-07:00	2020-08-02T14:11:40+00:00	2020-08-04T06:59:59+00:00	-2	qyd1l4jv0420jj9@marketplace.amazon.com	Stewart Rubin	+1 929-436-4790 ext. 91197	ABR0022	Purchase Now for Delivery by Wednesday | Arabella Farm Direct Bouquet of 12 Fresh Cut Pink Roses with a Free Glass Vase	1	0	1	SecondDay	Stewart Rubin	31-06 hillside ter			fair lawn	NJ	07410	US			false		
113-2978793-6249833	00813704812202	2020-08-02T13:42:49+00:00	2020-08-02T06:42:49-07:00	2020-08-02T14:11:48+00:00	2020-08-04T06:59:59+00:00	-2	wqcmb5s10lmfq49@marketplace.amazon.com	Sherrie Bell	50104258301	ABR0022	Purchase Now for Delivery by Wednesday | Arabella Farm Direct Bouquet of 12 Fresh Cut Pink Roses with a Free Glass Vase	1	0	1	SecondDay	Lindsay Ward	11408 CLUB HOUSE PKWY			FARMINGTON	AR	72730-8704	US		Happy Birthday Honky Tonk! From Dad and Sherrie	false		
111-9748326-0974654	40141259200754	2020-08-02T14:14:17+00:00	2020-08-02T07:14:17-07:00	2020-08-02T14:44:24+00:00	2020-08-04T06:59:59+00:00	-2	3hycpndmhnlzvdq@marketplace.amazon.com	Jeffrey Barakat	+1 929-436-4790 ext. 32923	ABR012	Arabella Farm Direct Bouquet of 18 Fresh Cut Pink Roses with a Free Glass Vase	1	0	1	SecondDay	Shirley Rosas	16202 DIANA LN APT 323			HOUSTON	TX	77062-5322	US			false		
111-6185162-4849858	42815390010282	2020-08-02T14:29:02+00:00	2020-08-02T07:29:02-07:00	2020-08-02T14:54:48+00:00	2020-08-05T06:59:59+00:00	-3	zzt0pn71mk5xw0t@marketplace.amazon.com	Donna	+1 929-436-4790 ext. 20685	ABR0022	Purchase Now for Delivery by Wednesday | Arabella Farm Direct Bouquet of 12 Fresh Cut Pink Roses with a Free Glass Vase	1	0	1	Expedited	Beverly Masterangelo	1310 CHAGRIN RIVER RD			GATES MILLS	OH	44040-9702	US			false		
114-9466870-3210628	62279092017994	2020-08-02T14:37:34+00:00	2020-08-02T07:37:34-07:00	2020-08-02T15:04:10+00:00	2020-08-05T06:59:59+00:00	-3	75pnf2ytqmw5fy6@marketplace.amazon.com	Cheryl Guidi	+1 929-436-4790 ext. 59142	ABR0022	Purchase Now for Delivery by Wednesday | Arabella Farm Direct Bouquet of 12 Fresh Cut Pink Roses with a Free Glass Vase	1	0	1	Expedited	Cheryl Guidi	2168 CRESTVIEW AVE			RICHLAND	WA	99354-1812	US			false		
113-6164963-5988268	34225661235050	2020-08-02T15:02:09+00:00	2020-08-02T08:02:09-07:00	2020-08-02T15:16:07+00:00	2020-08-04T06:59:59+00:00	-2	tz1rykc6y4ffhc1@marketplace.amazon.com	Adrienne Townsend	+1 929-436-4790 ext. 28834	ABR0022	Purchase Now for Delivery by Wednesday | Arabella Farm Direct Bouquet of 12 Fresh Cut Pink Roses with a Free Glass Vase	1	0	1	SecondDay	Dr, Julian Jones Campbell	11584 225TH ST			CAMBRIA HEIGHTS	NY	11411-1235	US		Congratulations Dr. Julian Jones Campbell!!! SOOO proud of you! May God continue to richly bless you immeasurably!! We love you! From Theron and Adrienne Benton	false		
114-6247514-4778635	69154028772458	2020-08-02T14:46:07+00:00	2020-08-02T07:46:07-07:00	2020-08-02T15:16:34+00:00	2020-08-05T06:59:59+00:00	-3	gj789cyfwtfxlqd@marketplace.amazon.com	Edward T. Maguire	+1 929-436-4790 ext. 66530	ABR001	Purchase Now for Delivery by Wednesday | Arabella Bouquets 12 Stems of Fresh Cut Red Roses in a Free Designer Glass Vase	1	0	1	Expedited	Patricia Maguire / Brightview	1 SYMMES RD	APT 2		ARLINGTON	MA	02474	US			false		
113-5217394-1633039	37337665686002	2020-08-02T14:49:10+00:00	2020-08-02T07:49:10-07:00	2020-08-02T15:19:09+00:00	2020-08-05T06:59:59+00:00	-3	0yxrtqbz41xh63r@marketplace.amazon.com	Beverly G. Cassidy	+1 929-436-4790 ext. 59051	ABR0022	Purchase Now for Delivery by Wednesday | Arabella Farm Direct Bouquet of 12 Fresh Cut Pink Roses with a Free Glass Vase	1	0	1	Expedited	Laura Cassidy	2128 N LAKE DR			MILWAUKEE	WI	53202-1335	US			false		
114-3024872-4795452	54364140428754	2020-08-02T14:54:56+00:00	2020-08-02T07:54:56-07:00	2020-08-02T15:22:49+00:00	2020-08-05T06:59:59+00:00	-3	sr82x7vghkwr0px@marketplace.amazon.com	Neena Dorigo	+1 929-436-4790 ext. 34225	ABR0055	Purchase Now for Delivery by Wednesday | Arabella Farm Direct Bouquet of 12 Stems of Fresh Cut Hot Pink Roses in a Free Designer Glass Vase	1	0	1	Expedited	Gay Redcay	1025 CAPISTRANO AVE			LAGUNA BEACH	CA	92651-3713	US		Happy Birthday to the best sister ever! From Neena Dorigo	false		
111-0601476-0584262	60845871398738	2020-08-02T14:54:33+00:00	2020-08-02T07:54:33-07:00	2020-08-02T15:24:17+00:00	2020-08-04T06:59:59+00:00	-2	xstxs4c0pc8myjb@marketplace.amazon.com	Larry Cleveland	+1 929-436-4790 ext. 01366	ABR004	Arabella Farm Direct Bouquet of 12 Fresh Cut Yellow Roses with a Free Glass Vase	1	0	1	SecondDay	Larry Cleveland	229 HOLLINGSWORTH BLVD			MIDWAY	GA	31320-4398	US			false		
111-1053139-6658664	36979041321506	2020-08-02T15:07:29+00:00	2020-08-02T08:07:29-07:00	2020-08-02T15:25:56+00:00	2020-08-04T06:59:59+00:00	-2	633sdt2jnmsjhl7@marketplace.amazon.com	Robert D King	+1 929-436-4790 ext. 13718	ABR0022	Purchase Now for Delivery by Wednesday | Arabella Farm Direct Bouquet of 12 Fresh Cut Pink Roses with a Free Glass Vase	1	0	1	SecondDay	Robert D King	70 Maryland Street			Marshfield	MA	02050	US		Bonnie,  Happy Anniversary!  Love,    Bob	false		
114-6452078-0873845	65384984803298	2020-08-02T15:21:21+00:00	2020-08-02T08:21:21-07:00	2020-08-02T15:49:12+00:00	2020-08-05T06:59:59+00:00	-3	xwg7srd90qglz8z@marketplace.amazon.com	Shannon Huntsberry	+1 929-436-4790 ext. 92080	ABR004	Arabella Farm Direct Bouquet of 12 Fresh Cut Yellow Roses with a Free Glass Vase	1	0	1	Expedited	Marilyn and Andre Danesh	109 SEWALL AVE # 401			BROOKLINE	MA	02446-5329	US		Marilyn and Andre--Here is a little Thank You from Fiona and I--hope it brings in a little sunshine to the quarantine! Thanks for all you do for us and for so many others!!! From Love, Shannon & Fiona	false		
113-1636321-9117057	67942572330386	2020-08-02T15:37:27+00:00	2020-08-02T08:37:27-07:00	2020-08-02T16:06:09+00:00	2020-08-04T06:59:59+00:00	-2	tz1rykc6y4ffhc1@marketplace.amazon.com	Adrienne Townsend	+1 929-436-4790 ext. 09408	ABR0022	Purchase Now for Delivery by Wednesday | Arabella Farm Direct Bouquet of 12 Fresh Cut Pink Roses with a Free Glass Vase	1	0	1	SecondDay	Rosita Colon	659 CATHERINE ST APT 103			UTICA	NY	13501-1342	US		Dear Sis Colon,  Know that we are sending our deepest condolences, hugs and prayers. We love you! From Sophia and the Townsend/Benton Family	false		
112-4790320-8729001	58067186967994	2020-08-02T15:40:20+00:00	2020-08-02T08:40:20-07:00	2020-08-02T16:07:23+00:00	2020-08-04T06:59:59+00:00	-2	7l4kxvxfmwgdrwx@marketplace.amazon.com	Monica Rogers	+1 929-436-4790 ext. 98040	ABR014	Arabella Bouquets 18 Stems of Fresh Cut White Roses in a Free Designer Glass Vase	1	0	1	SecondDay	Maddy Kass	507 HEATHER LN			CAROL STREAM	IL	60188-1721	US			false		
111-3941229-8829827	16106079432098	2020-08-02T15:55:30+00:00	2020-08-02T08:55:30-07:00	2020-08-02T16:23:02+00:00	2020-08-04T06:59:59+00:00	-2	kq44qhpx72yx1nc@marketplace.amazon.com	gerald rucinski	+1 929-436-4790 ext. 55705	ABR0022	Purchase Now for Delivery by Wednesday | Arabella Farm Direct Bouquet of 12 Fresh Cut Pink Roses with a Free Glass Vase	1	0	1	SecondDay	Rucinski Family	7992 BERWICK DR			YPSILANTI	MI	48197-3073	US		Enjoy your gift! Congratulations! Love Mom and DadR From gerald rucinski	false		
112-2759924-7289059	41883154193290	2020-08-02T16:02:48+00:00	2020-08-02T09:02:48-07:00	2020-08-02T16:30:02+00:00	2020-08-04T06:59:59+00:00	-2	xl31msj01c37h12@marketplace.amazon.com	john hanish	+1 929-436-4790 ext. 77938	ABR0022	Purchase Now for Delivery by Wednesday | Arabella Farm Direct Bouquet of 12 Fresh Cut Pink Roses with a Free Glass Vase	1	0	1	SecondDay	Cathy Lavin	415 E LAUREL AVE			SIERRA MADRE	CA	91024-2022	US		Happy birthday!!! From The Hanish family	false		
114-3695828-2140217	34093272527818	2020-08-02T16:14:29+00:00	2020-08-02T09:14:29-07:00	2020-08-02T16:43:42+00:00	2020-08-04T06:59:59+00:00	-2	9vzbdztr3vd7sc4@marketplace.amazon.com	Jessica Fiorilli	+1 929-436-4790 ext. 31313	ABR0022	Purchase Now for Delivery by Wednesday | Arabella Farm Direct Bouquet of 12 Fresh Cut Pink Roses with a Free Glass Vase	1	0	1	SecondDay	Marcy Kelley	123 E CHERRY ST			CLEARFIELD	PA	16830-2315	US		Happy Birthday Gammie! From Gino and Lucy	false		
112-8461639-8447404	63173528271682	2020-08-02T16:18:46+00:00	2020-08-02T09:18:46-07:00	2020-08-02T16:49:04+00:00	2020-08-05T06:59:59+00:00	-3	dtj6s9fkwbwq7sj@marketplace.amazon.com	arthur salaices	+1 929-436-4790 ext. 24862	ABR0022	Purchase Now for Delivery by Wednesday | Arabella Farm Direct Bouquet of 12 Fresh Cut Pink Roses with a Free Glass Vase	1	0	1	Expedited	Arthur salaices	17975 BLAKE CT			RENO	NV	89508-9806	US			false		
114-7524258-1491434	57343419813034	2020-08-02T16:20:27+00:00	2020-08-02T09:20:27-07:00	2020-08-02T16:49:17+00:00	2020-08-04T06:59:59+00:00	-2	k8mwjjz4nsbjzqx@marketplace.amazon.com	Theresa A. Miller	+1 929-436-4790 ext. 29155	ABR0033	Purchase Now for Delivery by Wednesday | Arabella Farm Direct Bouquet of 12 Fresh Cut Orange Roses with a Free Glass Vase	1	0	1	SecondDay	Betty Baldowski	3825 RAVENWOOD PL			SARASOTA	FL	34243-5227	US		Hi Betts, Hope you are starting to feel better. All our love, Theresa and Patty	false		
111-8240589-7370629	45256231310650	2020-08-02T16:31:02+00:00	2020-08-02T09:31:02-07:00	2020-08-02T16:59:45+00:00	2020-08-05T06:59:59+00:00	-3	83vd74709twgjvb@marketplace.amazon.com	Amy Fernandez	+1 929-436-4790 ext. 43637	ABR0022	Purchase Now for Delivery by Wednesday | Arabella Farm Direct Bouquet of 12 Fresh Cut Pink Roses with a Free Glass Vase	1	0	1	Expedited	Madrienne Peters	37 MARBELLA			SAN CLEMENTE	CA	92673-2754	US		Hi Grandma-  I know that you have been under a lot of stress with Dick and the house so I wanted to send something to let you know I am thinking of you. Can't wait for Quarantine to end so I can help you move. From Amy and Steven	false		
113-7967210-0295460	27136889388266	2020-08-02T17:06:11+00:00	2020-08-02T10:06:11-07:00	2020-08-02T17:36:47+00:00	2020-08-05T06:59:59+00:00	-3	bsgnn6xsm868207@marketplace.amazon.com	Alexia Clifton	+1 929-436-4790 ext. 33780	ABR0022	Purchase Now for Delivery by Wednesday | Arabella Farm Direct Bouquet of 12 Fresh Cut Pink Roses with a Free Glass Vase	1	0	1	Expedited	Alexia Clifton	3909 N EDGEWOOD DR			JANESVILLE	WI	53545-9068	US			false		
114-5173185-6122655	20144720813666	2020-08-02T17:24:56+00:00	2020-08-02T10:24:56-07:00	2020-08-02T17:53:00+00:00	2020-08-05T06:59:59+00:00	-3	781f0z49nl6rjr0@marketplace.amazon.com	Brenda Nordin	+1 929-436-4790 ext. 16621	ABM010	The Spring Fling Bouquet by Arabella Bouquets with a Free Designer Glass Vase	1	0	1	Expedited	Linda Carr	WASHINGTON COUNTY SCHOOLS	802 WASHINGTON ST		PLYMOUTH	NC	27962-2224	US			false		
112-4481576-1461068	47644012975450	2020-08-02T18:00:18+00:00	2020-08-02T11:00:18-07:00	2020-08-02T18:29:39+00:00	2020-08-04T06:59:59+00:00	-2	fjccx64xq3vkrqr@marketplace.amazon.com	warren	+1 929-436-4790 ext. 48484	ABR0055	Purchase Now for Delivery by Wednesday | Arabella Farm Direct Bouquet of 12 Stems of Fresh Cut Hot Pink Roses in a Free Designer Glass Vase	1	0	1	SecondDay	Brandy Bailey	6276 E 43RD PL			YUMA	AZ	85365-2601	US			false		
113-8403263-2538603	05314972067658	2020-08-02T18:05:18+00:00	2020-08-02T11:05:18-07:00	2020-08-02T18:34:50+00:00	2020-08-04T06:59:59+00:00	-2	p4l8tdds8t82gxl@marketplace.amazon.com	Angelica raina	+1 929-436-4790 ext. 65287	ABR0055	Purchase Now for Delivery by Wednesday | Arabella Farm Direct Bouquet of 12 Stems of Fresh Cut Hot Pink Roses in a Free Designer Glass Vase	1	0	1	SecondDay	Angelica raina	5317 PERKINS RD			OXNARD	CA	93033-8360	US		Happy birthday mommy ! From Angelica raina	false		
