order-id	order-item-id	purchase-date	payments-date	reporting-date	promise-date	days-past-promise	buyer-email	buyer-name	buyer-phone-number	sku	product-name	quantity-purchased	quantity-shipped	quantity-to-ship	ship-service-level	recipient-name	ship-address-1	ship-address-2	ship-address-3	ship-city	ship-state	ship-postal-code	ship-country	gift-wrap-type	gift-message-text	is-business-order	purchase-order-number	price-designation
114-3139927-4229039	33152693622386	2020-08-03T18:03:50+00:00	2020-08-03T11:03:50-07:00	2020-08-03T18:28:09+00:00	2020-08-06T06:59:59+00:00	-3	8hybpy7n591773b@marketplace.amazon.com	roger cromwell	+1 929-436-4790 ext. 14262	ABR0022	Purchase Now for Delivery by Thursday | Arabella Farm Direct Bouquet of 12 Fresh Cut Pink Roses with a Free Glass Vase	1	0	1	Expedited	Ruth Ann Downs	23336 EVAN CT			NEW BOSTON	MI	48164-9765	US			false		
111-2381710-4978668	61077724507898	2020-08-03T18:25:21+00:00	2020-08-03T11:25:21-07:00	2020-08-03T18:54:07+00:00	2020-08-05T06:59:59+00:00	-2	wq4p7w2243pqjww@marketplace.amazon.com	Jennifer Wood	+1 929-436-4790 ext. 15756	ABR014	Arabella Bouquets 18 Stems of Fresh Cut White Roses in a Free Designer Glass Vase	1	0	1	SecondDay	Laura Arato	46 WALTER CT			COMMACK	NY	11725-3602	US			false		
113-3242897-8731434	24026958273098	2020-08-03T18:50:25+00:00	2020-08-03T11:50:25-07:00	2020-08-03T19:10:59+00:00	2020-08-06T06:59:59+00:00	-3	h3dpvyhcnnfd9d3@marketplace.amazon.com	Mary E. Young	+1 929-436-4790 ext. 53527	ABR0022	Purchase Now for Delivery by Thursday | Arabella Farm Direct Bouquet of 12 Fresh Cut Pink Roses with a Free Glass Vase	1	0	1	Expedited	Marilyn Holland Woods	300 GOOD SAMARITAN DR APT 209			MOUNTAIN HOME	AR	72653-6054	US		Happiest of birthday wishes are being sent your way with love from Shirley, Beth, John, Dan and the rest of your loving family. We love you! From Shirley, Beth, John & Dan	false		
111-8605870-5161010	20660793403474	2020-08-03T19:12:47+00:00	2020-08-03T12:12:47-07:00	2020-08-03T19:36:48+00:00	2020-08-05T06:59:59+00:00	-2	8rc20dsgql7xkpb@marketplace.amazon.com	Meghan	+1 929-436-4790 ext. 09946	ABR0022	Purchase Now for Delivery by Thursday | Arabella Farm Direct Bouquet of 12 Fresh Cut Pink Roses with a Free Glass Vase	1	0	1	SecondDay	Barbara and Len Miller	16 BAY TREE TRL			BALD HEAD ISLAND	NC	28461-5026	US		Dear Barb and Len,  Thank you so much for your generous hospitality - from a safe distance - on my first trip to BHI! It was the relaxing vacation I needed, and we can't wait to return. From Meghan	false		
111-8247541-5297005	22823265675634	2020-08-03T19:10:37+00:00	2020-08-03T12:10:37-07:00	2020-08-03T19:37:13+00:00	2020-08-05T06:59:59+00:00	-2	6zy0y434qt3c7qf@marketplace.amazon.com	Elizabeth M. Sarabia	+1 929-436-4790 ext. 08393	ABR0022	Purchase Now for Delivery by Thursday | Arabella Farm Direct Bouquet of 12 Fresh Cut Pink Roses with a Free Glass Vase	1	0	1	SecondDay	Gwen Tritt	1690 MURDOCK RD			MARIETTA	GA	30062-4870	US		Happy, happy birthday!   I'm so sorry not to be able to spend it with you; have a wonderful day and a safe and healthy year!  Miss you, Love you ~ Ebeth From Elizabeth M. Sarabia	false		
112-7577969-3777825	31362553722370	2020-08-03T19:32:20+00:00	2020-08-03T12:32:20-07:00	2020-08-03T19:39:00+00:00	2020-08-05T06:59:59+00:00	-2	f7135ryz607f2lf@marketplace.amazon.com	Bill Driscoll	+1 929-436-4790 ext. 91907	ABR001	Purchase Now for Delivery by Thursday | Arabella Bouquets 12 Stems of Fresh Cut Red Roses in a Free Designer Glass Vase	1	0	1	SecondDay	Muriel Conroy	10 ROLLING ACRES DR			CUMBERLAND	RI	02864-2614	US		Happy birthday Muriel Enjoy your gift! Love you! From Bill and Jean Driscoll	false		
113-3303337-1699439	33061465144810	2020-08-03T19:16:43+00:00	2020-08-03T12:16:43-07:00	2020-08-03T19:43:46+00:00	2020-08-06T06:59:59+00:00	-3	kgtp11t3p55bdsc@marketplace.amazon.com	Patrick Crosier	+1 929-436-4790 ext. 88380	ABR0022	Purchase Now for Delivery by Thursday | Arabella Farm Direct Bouquet of 12 Fresh Cut Pink Roses with a Free Glass Vase	1	0	1	Expedited	Carol Papi	3385 HIGHWAY 19			CONWAY	SC	29526-6056	US		Enjoy your gift! Happy Birthday Carol From Patrick Crosier & Barbara Crosier	false		
111-0654834-0273030	19434816257218	2020-08-03T19:29:48+00:00	2020-08-03T12:29:48-07:00	2020-08-03T19:55:58+00:00	2020-08-06T06:59:59+00:00	-3	jjqjmybd4d7gdxq@marketplace.amazon.com	Rochell Lisa lamb	+1 929-436-4790 ext. 53732	ABR0022	Purchase Now for Delivery by Thursday | Arabella Farm Direct Bouquet of 12 Fresh Cut Pink Roses with a Free Glass Vase	1	0	1	Expedited	Kay Raymond	5940 LONG MEADOW DR RM 10			FRANKLIN	OH	45005-9689	US			true		Business Price
111-3009351-7565833	01877999320162	2020-08-03T19:49:00+00:00	2020-08-03T12:49:00-07:00	2020-08-03T20:10:26+00:00	2020-08-05T06:59:59+00:00	-2	140lfgdfk0hmc8n@marketplace.amazon.com	Patricia Wiedower	+1 929-436-4790 ext. 87453	ABR0066	Arabella Bouquets 12 Stems of Fresh Cut White Roses in a Free Designer Glass Vase	1	0	1	SecondDay	Debbie Attwood	4180 BEDFORD DR			SAN DIEGO	CA	92116-2001	US			false		
112-1738245-2073027	44025850355610	2020-08-03T19:42:44+00:00	2020-08-03T12:42:44-07:00	2020-08-03T20:10:27+00:00	2020-08-05T06:59:59+00:00	-2	9kdsq44t6y42wzz@marketplace.amazon.com	Chandler Good	+1 929-436-4790 ext. 85275	ABR0022	Purchase Now for Delivery by Thursday | Arabella Farm Direct Bouquet of 12 Fresh Cut Pink Roses with a Free Glass Vase	1	0	1	SecondDay	Morgan	18869 PLANER DR			NOBLESVILLE	IN	46062-9600	US			false		
114-4672235-8467448	29983603705426	2020-08-03T19:41:27+00:00	2020-08-03T12:41:27-07:00	2020-08-03T20:11:04+00:00	2020-08-05T06:59:59+00:00	-2	gfrflf3ngchnbgf@marketplace.amazon.com	Tarrin	+1 929-436-4790 ext. 33442	ABR0022	Purchase Now for Delivery by Thursday | Arabella Farm Direct Bouquet of 12 Fresh Cut Pink Roses with a Free Glass Vase	1	0	1	SecondDay	Courtney Madnay	27 GLACIER CT			BOZEMAN	MT	59715-5042	US		Happy Birthday Week Courtney! We hope it is AMAZING!  Miss you lots and lots. From Tarrin and Kim	false		
114-6726812-5217025	09847976292522	2020-08-03T20:06:39+00:00	2020-08-03T13:06:39-07:00	2020-08-03T20:35:07+00:00	2020-08-05T06:59:59+00:00	-2	6dbv6p2nc83b4dj@marketplace.amazon.com	Renee Rice	+1 929-436-4790 ext. 89762	ABR0022	Purchase Now for Delivery by Thursday | Arabella Farm Direct Bouquet of 12 Fresh Cut Pink Roses with a Free Glass Vase	1	0	1	SecondDay	Fred & Bonnie Longbine	7840 BOSTON STATE RD UNIT 20	BUILDING C # 20		HAMBURG	NY	14075-7349	US		Happy Birthday Mom!!!! I LOVE YOU & Miss you hope to See you soon!!! From Renee	false		
112-3712162-6373866	04385903326946	2020-08-03T20:23:57+00:00	2020-08-03T13:23:57-07:00	2020-08-03T20:46:21+00:00	2020-08-05T06:59:59+00:00	-2	t2sgw3hj3k7md7b@marketplace.amazon.com	Irina zaslavskaya	+1 929-436-4790 ext. 36951	ABR0022	Purchase Now for Delivery by Thursday | Arabella Farm Direct Bouquet of 12 Fresh Cut Pink Roses with a Free Glass Vase	1	0	1	SecondDay	Galina Zaslavskaya - Room 579 North  Wesserman Bld	6121 MONTROSE RD	WASSERMAN BLDG NORTH RM 579		ROCKVILLE	MD	20852-4803	US			false		
111-0502867-1618611	31841332287578	2020-08-03T20:25:45+00:00	2020-08-03T13:25:45-07:00	2020-08-03T20:46:40+00:00	2020-08-05T06:59:59+00:00	-2	pq0y61l9b1lt41y@marketplace.amazon.com	Betty Smith	+1 929-436-4790 ext. 91628	ABR0055	Purchase Now for Delivery by Thursday | Arabella Farm Direct Bouquet of 12 Stems of Fresh Cut Hot Pink Roses in a Free Designer Glass Vase	1	0	1	SecondDay	Linda Smith	27 EDGARTOWN MEADOWS RD	BOX 1246		EDGARTOWN	MA	02539-6576	US		Hope you have a speedy recovery! From Betty Smith	false		
114-1946652-8497808	57084625929994	2020-08-03T20:46:02+00:00	2020-08-03T13:46:02-07:00	2020-08-03T21:13:56+00:00	2020-08-05T06:59:59+00:00	-2	tddts8zrw89ygps@marketplace.amazon.com	Tammie S Waitley	+1 929-436-4790 ext. 52269	ABR0033	Arabella Farm Direct Bouquet of 12 Fresh Cut Orange Roses with a Free Glass Vase	1	0	1	SecondDay	Jennifer Honeycutt	4430 WOODBINE LN			PROSPER	TX	75078-1188	US		Just wanted to thank you for a fabulous beach vacation!  So enjoyed and cherished our time together!  Love you so much & so thankful for your friendship over the years! From Tammie	false		
111-0636231-6877032	10130669257818	2020-08-03T21:00:06+00:00	2020-08-03T14:00:06-07:00	2020-08-03T21:25:31+00:00	2020-08-05T06:59:59+00:00	-2	z1b8n0g575pln56@marketplace.amazon.com	Rose Billock	+1 929-436-4790 ext. 48806	ABR0022	Purchase Now for Delivery by Thursday | Arabella Farm Direct Bouquet of 12 Fresh Cut Pink Roses with a Free Glass Vase	1	0	1	SecondDay	Rose Billock Denise Dennis	120 RONS WAY			POLK	PA	16342-4430	US		Happy Birthday!!  Love Darrin, Rose, and Ava	false		
111-4833773-8516269	43987295331290	2020-08-03T21:17:46+00:00	2020-08-03T14:17:46-07:00	2020-08-03T21:46:42+00:00	2020-08-05T06:59:59+00:00	-2	k20rkyyxdwzmd64@marketplace.amazon.com	Linda Dyson	+1 929-436-4790 ext. 40250	ABR0022	Purchase Now for Delivery by Thursday | Arabella Farm Direct Bouquet of 12 Fresh Cut Pink Roses with a Free Glass Vase	1	0	1	SecondDay	Shannon Landolt	530 N 60TH ST			WACO	TX	76710-5605	US		Thinking of you.  Praying peace and joy for all of your family.  LOVE, LOVE, LOVE YOU!!  Ne Ne From Linda Dyson	false		
114-8100000-9250620	58323379197258	2020-08-03T21:35:28+00:00	2020-08-03T14:35:28-07:00	2020-08-03T21:52:54+00:00	2020-08-05T06:59:59+00:00	-2	v39jjkp3hpjkhbd@marketplace.amazon.com	Laura S. DeLuca	+1 929-436-4790 ext. 68643	ABR0022	Purchase Now for Delivery by Thursday | Arabella Farm Direct Bouquet of 12 Fresh Cut Pink Roses with a Free Glass Vase	1	0	1	SecondDay	Tamara Bedi	3207 GOLDENEYE LN			WALLED LAKE	MI	48390-5459	US		Dear Tamara, Thank you for being YOU.  We so appreciate all of your thoughtfulness & help in going the extra mile to make our wedding day a special one!  We also hope you're recovering well from your foot surgery ;) From Laura & Pierre :-*	false		
112-1426809-2109819	27516841187338	2020-08-03T21:24:26+00:00	2020-08-03T14:24:26-07:00	2020-08-03T21:53:57+00:00	2020-08-05T06:59:59+00:00	-2	qcrdzj0ywghdj8y@marketplace.amazon.com	Ben Trebing	+1 929-436-4790 ext. 44329	ABR0055	Purchase Now for Delivery by Thursday | Arabella Farm Direct Bouquet of 12 Stems of Fresh Cut Hot Pink Roses in a Free Designer Glass Vase	1	0	1	SecondDay	Louanne Trebing	1806 PATTON DR			GARLAND	TX	75042-8205	US			true		
111-8555210-3509841	33343805777146	2020-08-03T21:25:25+00:00	2020-08-03T14:25:25-07:00	2020-08-03T21:54:38+00:00	2020-08-05T06:59:59+00:00	-2	ht38zn5nmnrs216@marketplace.amazon.com	Druanne M Van Dora	+1 929-436-4790 ext. 58673	ABR0022	Purchase Now for Delivery by Thursday | Arabella Farm Direct Bouquet of 12 Fresh Cut Pink Roses with a Free Glass Vase	1	0	1	SecondDay	ANNA CATHERINE BEERMAN	2085 ROSWELL RD APT 1102			MARIETTA	GA	30062-7589	US		Happy Friday in your new office!  We are so proud of you!  Love, Mama and Daddy From Druanne M Van Dora	false		
113-7635741-6222664	63620258446938	2020-08-03T21:38:09+00:00	2020-08-03T14:38:09-07:00	2020-08-03T21:58:02+00:00	2020-08-05T06:59:59+00:00	-2	ms806hy9yq3yyh6@marketplace.amazon.com	gloria m betner	+1 929-436-4790 ext. 01524	ABR0033	Arabella Farm Direct Bouquet of 12 Fresh Cut Orange Roses with a Free Glass Vase	1	0	1	SecondDay	Doreen Dent	312 IVY HILL CT			JERICHO	NY	11753-1217	US		Dear Dor, Thank you for all your work in bringing Dad's wishes to completion.  I know how emotional and bitter sweet it was and I truly appreciated all you did!  I love you, Glor From gloria m betner	false		
111-2848215-9749039	37332902648442	2020-08-03T21:27:49+00:00	2020-08-03T14:27:49-07:00	2020-08-03T21:58:18+00:00	2020-08-05T06:59:59+00:00	-2	ht38zn5nmnrs216@marketplace.amazon.com	Druanne M Van Dora	+1 929-436-4790 ext. 69655	ABB001	Arabella Farm Direct Fresh Cut White Hydrangea	1	0	1	SecondDay	Druanne Miller Van Dora	152 LAKESHORE DR			HARTWELL	GA	30643-3981	US			false		
111-1201508-1509833	55674192821842	2020-08-03T21:46:07+00:00	2020-08-03T14:46:07-07:00	2020-08-03T22:11:47+00:00	2020-08-05T06:59:59+00:00	-2	n9rt5x1nsm0chf0@marketplace.amazon.com	Michael A Lazzari	+1 929-436-4790 ext. 74652	ABR0022	Purchase Now for Delivery by Thursday | Arabella Farm Direct Bouquet of 12 Fresh Cut Pink Roses with a Free Glass Vase	1	0	1	SecondDay	Michael Lazzari	25231 RISKU RD			WATTON	MI	49970-9041	US			false		
111-5946866-3727409	23210395735074	2020-08-03T22:01:57+00:00	2020-08-03T15:01:57-07:00	2020-08-03T22:21:55+00:00	2020-08-05T06:59:59+00:00	-2	9j5tbfnv0zxwg8f@marketplace.amazon.com	Tberg	+1 929-436-4790 ext. 31412	ABR0022	Purchase Now for Delivery by Thursday | Arabella Farm Direct Bouquet of 12 Fresh Cut Pink Roses with a Free Glass Vase	1	0	1	SecondDay	Jocelyn	2930 W HORIZON RIDGE PKWY STE 100			HENDERSON	NV	89052-5059	US		Your love is all am ever gonna need From Joseph	false		
113-5149930-4731436	58360138861850	2020-08-03T21:56:37+00:00	2020-08-03T14:56:37-07:00	2020-08-03T22:26:20+00:00	2020-08-05T06:59:59+00:00	-2	vlmnygl7vsz3tgp@marketplace.amazon.com	Dara Pazooki	+1 929-436-4790 ext. 23771	ABR0022	Purchase Now for Delivery by Thursday | Arabella Farm Direct Bouquet of 12 Fresh Cut Pink Roses with a Free Glass Vase	1	0	1	SecondDay	Kristen Gildea	26 COBBLESTONE RD			NORTH EASTON	MA	02356-1301	US		Miss you ;) From Gino	false		
114-4956341-9565833	58574659601338	2020-08-03T22:04:52+00:00	2020-08-03T15:04:52-07:00	2020-08-03T22:29:09+00:00	2020-08-05T06:59:59+00:00	-2	yrhxwx2zd3h9s6w@marketplace.amazon.com	Allan Steinberg	+1 929-436-4790 ext. 59248	ABR0055	Purchase Now for Delivery by Thursday | Arabella Farm Direct Bouquet of 12 Stems of Fresh Cut Hot Pink Roses in a Free Designer Glass Vase	1	0	1	SecondDay	Beth StarksPOGift	26 MAPLE DR W			MAYVILLE	NY	14757-9773	US		Hope these brighten your day!!! From ???????	true	Gift	
114-0510233-1437834	61910004420754	2020-08-03T22:02:54+00:00	2020-08-03T15:02:54-07:00	2020-08-03T22:32:53+00:00	2020-08-06T06:59:59+00:00	-3	qd3vyyy0wrfy3vc@marketplace.amazon.com	mark a hill	+1 929-436-4790 ext. 91433	ABR0022	Purchase Now for Delivery by Thursday | Arabella Farm Direct Bouquet of 12 Fresh Cut Pink Roses with a Free Glass Vase	1	0	1	Expedited	stacia draughn	408 FRONT ST			GARRETT	KY	41630-6915	US			false		
112-5050842-1743460	29453479756186	2020-08-03T22:08:25+00:00	2020-08-03T15:08:25-07:00	2020-08-03T22:36:18+00:00	2020-08-05T06:59:59+00:00	-2	6qwqctx86cvxdk9@marketplace.amazon.com	Pat	+1 929-436-4790 ext. 55836	ABR0055	Purchase Now for Delivery by Thursday | Arabella Farm Direct Bouquet of 12 Stems of Fresh Cut Hot Pink Roses in a Free Designer Glass Vase	1	0	1	SecondDay	Eugenia Carey	729 CADILLAC AVE			DAUPHIN ISLAND	AL	36528-4401	US		Thinking of you both and sending lots of love! From Emily, KG, Jen & Pat	false		
112-4523972-7924238	43547885069338	2020-08-03T22:10:01+00:00	2020-08-03T15:10:01-07:00	2020-08-03T22:38:14+00:00	2020-08-05T06:59:59+00:00	-2	wdfl4qqcz4rcsbc@marketplace.amazon.com	Clarissa K. Posey	+1 929-436-4790 ext. 65483	ABR0022	Purchase Now for Delivery by Thursday | Arabella Farm Direct Bouquet of 12 Fresh Cut Pink Roses with a Free Glass Vase	1	0	1	SecondDay	Joyce Anne Judd	164 WEEQUAHIC AVE			NEWARK	NJ	07112-2033	US			false		
111-2492845-6429815	25502135002426	2020-08-03T22:35:53+00:00	2020-08-03T15:35:53-07:00	2020-08-03T23:00:47+00:00	2020-08-05T06:59:59+00:00	-2	36dlwjhktpdggc6@marketplace.amazon.com	Vickie Hinostroza	+1 929-436-4790 ext. 24780	ABR0022	Purchase Now for Delivery by Thursday | Arabella Farm Direct Bouquet of 12 Fresh Cut Pink Roses with a Free Glass Vase	1	0	1	SecondDay	Merriam Clark	19800 HART ST			WINNETKA	CA	91306-3613	US		Hi Merriam, Enjoy your gift! From Vickie Hinostroza	false		
112-0209162-2590659	15467964273186	2020-08-03T23:01:08+00:00	2020-08-03T16:01:08-07:00	2020-08-03T23:29:01+00:00	2020-08-05T06:59:59+00:00	-2	2d0785xpthvp0ym@marketplace.amazon.com	Zenash Yirga	+1 929-436-4790 ext. 58904	ABR0022	Purchase Now for Delivery by Thursday | Arabella Farm Direct Bouquet of 12 Fresh Cut Pink Roses with a Free Glass Vase	1	0	1	SecondDay	Damalie N	1401 SUN VALLEY WAY			FLORHAM PARK	NJ	07932-3039	US			false		
114-7764342-8333034	53373970646522	2020-08-03T23:05:23+00:00	2020-08-03T16:05:23-07:00	2020-08-03T23:33:04+00:00	2020-08-05T06:59:59+00:00	-2	2hnmhn5pngs5cjn@marketplace.amazon.com	Debbie Sexton	+1 929-436-4790 ext. 90636	ABR0022	Purchase Now for Delivery by Thursday | Arabella Farm Direct Bouquet of 12 Fresh Cut Pink Roses with a Free Glass Vase	1	0	1	SecondDay	Emily Sexton	5405 BANDERA RD STE 119 AGV2414-1			SAN ANTONIO	TX	78238-1949	US		Emily, We are thinking of you.  Hope this helps brighten your day. Love, Dad and Mom From Debbie Sexton	false		
111-1874950-6123414	07498394868842	2020-08-03T23:19:33+00:00	2020-08-03T16:19:33-07:00	2020-08-03T23:46:54+00:00	2020-08-05T06:59:59+00:00	-2	808kk949lm7bfjr@marketplace.amazon.com	Ruth Walther	+1 929-436-4790 ext. 22689	ABR0022	Purchase Now for Delivery by Thursday | Arabella Farm Direct Bouquet of 12 Fresh Cut Pink Roses with a Free Glass Vase	1	0	1	SecondDay	Aunt Mary Torres	720 CARMELITA ST			PORTERVILLE	CA	93257-2122	US			false		
112-5024092-9709813	60068725599458	2020-08-03T23:51:47+00:00	2020-08-03T16:51:47-07:00	2020-08-03T23:52:42+00:00	2020-08-05T06:59:59+00:00	-2	55cb5gyqrvx4gsb@marketplace.amazon.com	Claudio	+1 929-436-4790 ext. 69548	ABR012	Arabella Farm Direct Bouquet of 18 Fresh Cut Pink Roses with a Free Glass Vase	1	0	1	SecondDay	Gladys Victoria Forney	112 VIA TIBERIO			RANCHO MIRAGE	CA	92270-5629	US		Felicidades! We love you. Nos vamos a tomar el champagne en tu nombre el 8 From Macs, Alex, Claudio, Adrian	false		
114-1860129-5347439	00415284049146	2020-08-04T00:06:55+00:00	2020-08-03T17:06:55-07:00	2020-08-04T00:07:52+00:00	2020-08-05T06:59:59+00:00	-2	59frm1kjvh4nl42@marketplace.amazon.com	Charles Phillips	+1 929-436-4790 ext. 42685	ABR0022	Purchase Now for Delivery by Thursday | Arabella Farm Direct Bouquet of 12 Fresh Cut Pink Roses with a Free Glass Vase	1	0	1	SecondDay	Liz Phillips	16605 CALICO PL			TAMPA	FL	33618-1004	US		Hoping that you get well soon Love Charlie and Liz xx From Charles Phillips and Elizabeth Phillips	false		
113-8196489-6533064	65358024964962	2020-08-03T23:39:10+00:00	2020-08-03T16:39:10-07:00	2020-08-04T00:09:01+00:00	2020-08-05T06:59:59+00:00	-2	ykx92dksd4x4fb6@marketplace.amazon.com	Rebecca weintraub	+1 929-436-4790 ext. 37179	ABR013	Purchase Now for Delivery by Thursday | Arabella Farm Direct Bouquet of 18 Fresh Cut Yellow Roses with a Free Glass Vase	1	0	1	SecondDay	Dina Adamson	1626 MILAN AVE			SOUTH PASADENA	CA	91030-4823	US		Dear Dina, Thinking of you with love. Reba From Rebecca weintraub	false		
114-0014990-5913071	26225932280170	2020-08-03T23:50:44+00:00	2020-08-03T16:50:44-07:00	2020-08-04T00:16:53+00:00	2020-08-05T06:59:59+00:00	-2	nd8hj0x4bbpfqth@marketplace.amazon.com	Cynthia Joy Larson	+1 929-436-4790 ext. 29206	ABR0055	Purchase Now for Delivery by Thursday | Arabella Farm Direct Bouquet of 12 Stems of Fresh Cut Hot Pink Roses in a Free Designer Glass Vase	1	0	1	SecondDay	Lois Woiwood	755 State St.	#3		Garner	Iowa	50438	US		For you in memory of your beloved daughter. From In Christian Love, Pastor and Cynthia Larson	false		
111-2743008-3780245	19316289016522	2020-08-03T23:51:06+00:00	2020-08-03T16:51:06-07:00	2020-08-04T00:20:47+00:00	2020-08-05T06:59:59+00:00	-2	js5rjmp03rd916y@marketplace.amazon.com	Richard Mann	+1 929-436-4790 ext. 67475	ABR0066	Arabella Bouquets 12 Stems of Fresh Cut White Roses in a Free Designer Glass Vase	1	0	1	SecondDay	cindy carlisle	1317 RED MAPLE DR			CARROLLTON	TX	75007-1031	US			false		
113-7359725-0839447	50495326261162	2020-08-03T23:58:13+00:00	2020-08-03T16:58:13-07:00	2020-08-04T00:28:13+00:00	2020-08-05T06:59:59+00:00	-2	s2hnx49dz51hdnb@marketplace.amazon.com	Anubhav krishna Krishnamurti	+1 929-436-4790 ext. 95117	ABM010	The Spring Fling Bouquet by Arabella Bouquets with a Free Designer Glass Vase	1	0	1	SecondDay	Emily mirko	100 S BEELINE HWY			PAYSON	AZ	85541-4809	US			false		
113-6873912-3461841	49107331749218	2020-08-04T00:10:18+00:00	2020-08-03T17:10:18-07:00	2020-08-04T00:37:38+00:00	2020-08-05T06:59:59+00:00	-2	sgt6vyv7hvzqvsp@marketplace.amazon.com	April	+1 929-436-4790 ext. 99974	ABR013	Purchase Now for Delivery by Thursday | Arabella Farm Direct Bouquet of 18 Fresh Cut Yellow Roses with a Free Glass Vase	1	0	1	SecondDay	Jordin Ashe	1032 OLD CANTERBURY DR			VIRGINIA BEACH	VA	23455-4626	US		Happy 30th birthday sweet peas!!! Incredibly proud of you and you are the best thing that ever happened to me!! Much love and smooches!! From Love Mom	false		
114-4202872-6349010	63403100270658	2020-08-04T00:11:42+00:00	2020-08-03T17:11:42-07:00	2020-08-04T00:38:31+00:00	2020-08-06T06:59:59+00:00	-3	t30n24gsr72vpj2@marketplace.amazon.com	Michael McMahon	+1 929-436-4790 ext. 31811	ABR0055	Purchase Now for Delivery by Thursday | Arabella Farm Direct Bouquet of 12 Stems of Fresh Cut Hot Pink Roses in a Free Designer Glass Vase	1	0	1	Expedited	Jan Johnson	171 8TH ST			CLINTONVILLE	WI	54929-1403	US		Hi Jan, Get better soon.  Mick and Jan, Katie, Megan, Rad and Bob McMahon	false		
111-4352902-4265806	56817250049170	2020-08-04T00:09:47+00:00	2020-08-03T17:09:47-07:00	2020-08-04T00:38:55+00:00	2020-08-05T06:59:59+00:00	-2	v12pqxy066qj7nd@marketplace.amazon.com	Star Marie	+1 929-436-4790 ext. 89242	ABR0022	Purchase Now for Delivery by Thursday | Arabella Farm Direct Bouquet of 12 Fresh Cut Pink Roses with a Free Glass Vase	1	0	1	SecondDay	Augusto& Alicia Limjoco	1 ARBOR FIELD WAY			LAKE GROVE	NY	11755-1832	US		Happy Birthday mom I hope you love these flowers.  Have a wonderful birthday celebration. From love, Stephanie & Michael	false		
111-9116169-8721867	46215838675882	2020-08-04T00:24:37+00:00	2020-08-03T17:24:37-07:00	2020-08-04T00:52:24+00:00	2020-08-05T06:59:59+00:00	-2	846dj2jjkrtcx5t@marketplace.amazon.com	Bill McClelland	+1 929-436-4790 ext. 61424	ABR001	Purchase Now for Delivery by Thursday | Arabella Bouquets 12 Stems of Fresh Cut Red Roses in a Free Designer Glass Vase	1	0	1	SecondDay	Bill McClelland	180 TODD DR			MOUNT GILEAD	NC	27306-9206	US		Happy Birthday to the love of my life. Enjoy your special day.  Love, Bill From Bill McClelland	false		
114-7256012-0675410	34127946425610	2020-08-04T00:35:57+00:00	2020-08-03T17:35:57-07:00	2020-08-04T01:02:05+00:00	2020-08-06T06:59:59+00:00	-3	v0n511jzs7yqph3@marketplace.amazon.com	Gwen Stockton	+1 929-436-4790 ext. 76741	ABM010	The Spring Fling Bouquet by Arabella Bouquets with a Free Designer Glass Vase	1	0	1	Expedited	Auntie Gleitz	314 TRAPPERS RUN DR			CARY	NC	27513-4904	US			false		
112-3065890-2347416	23314009426058	2020-08-04T00:37:16+00:00	2020-08-03T17:37:16-07:00	2020-08-04T01:06:45+00:00	2020-08-05T06:59:59+00:00	-2	q0wjz59kv5k0gt4@marketplace.amazon.com	Ryanjon Milan	+1 929-436-4790 ext. 54626	ABR0022	Purchase Now for Delivery by Thursday | Arabella Farm Direct Bouquet of 12 Fresh Cut Pink Roses with a Free Glass Vase	1	0	1	SecondDay	Ryanjon Milan	621 HALCYON CIR			PENSACOLA	FL	32506-8322	US			false		
112-4734469-2400264	07775172556010	2020-08-04T00:44:25+00:00	2020-08-03T17:44:25-07:00	2020-08-04T01:14:00+00:00	2020-08-05T06:59:59+00:00	-2	60vnpqtg948s82y@marketplace.amazon.com	Lorrie Arianna Dispenza	+1 929-436-4790 ext. 46009	ABR0066	Arabella Bouquets 12 Stems of Fresh Cut White Roses in a Free Designer Glass Vase	1	0	1	SecondDay	Marie Decesare	919 HEIGHTS AT CAPE ANN			GLOUCESTER	MA	01930-5319	US			false		
114-9825478-9339433	59452164316354	2020-08-04T00:51:40+00:00	2020-08-03T17:51:40-07:00	2020-08-04T01:21:59+00:00	2020-08-05T06:59:59+00:00	-2	9m5h4sjyc7ddwr5@marketplace.amazon.com	Sandy Walraven	+1 929-436-4790 ext. 55272	ABR0022	Purchase Now for Delivery by Thursday | Arabella Farm Direct Bouquet of 12 Fresh Cut Pink Roses with a Free Glass Vase	1	0	1	SecondDay	sandra l walraven	6542 earl ave nw			seattle	wa	98117	US			false		
113-0022667-2169059	16101424276930	2020-08-04T00:53:25+00:00	2020-08-03T17:53:25-07:00	2020-08-04T01:23:02+00:00	2020-08-05T06:59:59+00:00	-2	k7420rp2vww30n8@marketplace.amazon.com	Stacy Schmitz	+1 929-436-4790 ext. 31270	ABR0022	Purchase Now for Delivery by Thursday | Arabella Farm Direct Bouquet of 12 Fresh Cut Pink Roses with a Free Glass Vase	1	0	1	SecondDay	Nick and Stephanie Schmitz	438 S ORDWAY RD			WATERLOO	IA	50703-9720	US		Happy 35th Wedding Anniversary! From Brad, Stacy, Louie & Baby Schmitz	false		
114-3544288-4585027	66210957243690	2020-08-04T00:56:59+00:00	2020-08-03T17:56:59-07:00	2020-08-04T01:25:35+00:00	2020-08-05T06:59:59+00:00	-2	0dqq2mbkvrdb7j2@marketplace.amazon.com	Don Gilgan	+1 929-436-4790 ext. 50254	ABR0055	Purchase Now for Delivery by Thursday | Arabella Farm Direct Bouquet of 12 Stems of Fresh Cut Hot Pink Roses in a Free Designer Glass Vase	1	0	1	SecondDay	Marie E Gilgan	2295 VIA PUERTA UNIT N			LAGUNA WOODS	CA	92637-2237	US		Happy Birthday Mom! We love you to the moon and back. From Don, Barb, Patrick, & Lauren.	false		
114-9491389-5330620	04496907797458	2020-08-04T01:00:22+00:00	2020-08-03T18:00:22-07:00	2020-08-04T01:28:23+00:00	2020-08-05T06:59:59+00:00	-2	q12wjkm1r12z496@marketplace.amazon.com	stephanie	+1 929-436-4790 ext. 06415	ABR0055	Purchase Now for Delivery by Thursday | Arabella Farm Direct Bouquet of 12 Stems of Fresh Cut Hot Pink Roses in a Free Designer Glass Vase	1	0	1	SecondDay	Kathryn Skokna	119 CRYSTAL DR			RINCON	GA	31326-5665	US		Happy birthday sis !! From Stephanie and Feliciano	false		
111-8888347-5629009	41578800843938	2020-08-04T01:07:32+00:00	2020-08-03T18:07:32-07:00	2020-08-04T01:34:57+00:00	2020-08-05T06:59:59+00:00	-2	qkdhyc4bj8pm9vf@marketplace.amazon.com	Phil Coleman	+1 929-436-4790 ext. 25056	ABR0022	Purchase Now for Delivery by Thursday | Arabella Farm Direct Bouquet of 12 Fresh Cut Pink Roses with a Free Glass Vase	1	0	1	SecondDay	Fay Harris-Coleman	14475 IBIS DR			EASTVALE	CA	92880-3999	US			false		
113-3914593-1448240	32212094409682	2020-08-04T01:20:54+00:00	2020-08-03T18:20:54-07:00	2020-08-04T01:48:48+00:00	2020-08-05T06:59:59+00:00	-2	rwn8lszg3q161pd@marketplace.amazon.com	Natalie Novello	+1 929-436-4790 ext. 68005	ABR012	Arabella Farm Direct Bouquet of 18 Fresh Cut Pink Roses with a Free Glass Vase	1	0	1	SecondDay	Dolores Novello	2401 GREEN HILL RD			SEBASTOPOL	CA	95472-9307	US		Happy birthday mom! Enjoy your day. From Natalie Novello	false		
114-0347824-5261059	35053313547722	2020-08-04T01:25:33+00:00	2020-08-03T18:25:33-07:00	2020-08-04T01:54:29+00:00	2020-08-05T06:59:59+00:00	-2	360pgtrp5x2418f@marketplace.amazon.com	glenda collatos	+1 929-436-4790 ext. 03669	ABM022	Purple Extravagance Bouquet by Arabella Bouquets	1	0	1	SecondDay	Joanne Collatos	22625 STRATHERN ST			WEST HILLS	CA	91304-3743	US			false		
112-0113863-6394666	64438563016770	2020-08-04T01:37:20+00:00	2020-08-03T18:37:20-07:00	2020-08-04T02:04:46+00:00	2020-08-05T06:59:59+00:00	-2	f6crgnjkkqs4h1x@marketplace.amazon.com	Maria A Adams	+1 929-436-4790 ext. 45798	ABR0022	Purchase Now for Delivery by Thursday | Arabella Farm Direct Bouquet of 12 Fresh Cut Pink Roses with a Free Glass Vase	1	0	1	SecondDay	Karen Bland	922 IMPERIAL BEACH BLVD			IMPERIAL BEACH	CA	91932-2808	US		Congratulations to Karen & David  On Christian's Wedding! Love & Miss you Mom & David	false		
112-8758315-6412253	30571375038722	2020-08-04T01:41:03+00:00	2020-08-03T18:41:03-07:00	2020-08-04T02:05:37+00:00	2020-08-05T06:59:59+00:00	-2	fyzmhfrmr33rb2t@marketplace.amazon.com	Harrison	+1 929-436-4790 ext. 68362	ABR001	Purchase Now for Delivery by Thursday | Arabella Bouquets 12 Stems of Fresh Cut Red Roses in a Free Designer Glass Vase	1	0	1	SecondDay	Mary Frances Littrell	20 YORK ST APT 5			HANOVER	PA	17331-3180	US		Honey, just as the Rose fill the air with its fragrance, you have filled my life with Love and Joy. I sent you these Roses as a symbol of my endless Love for you. From Harrison	false		
111-2158452-8628223	45216113105778	2020-08-04T01:54:35+00:00	2020-08-03T18:54:35-07:00	2020-08-04T02:16:59+00:00	2020-08-06T06:59:59+00:00	-3	xmhctyd31gnw6vx@marketplace.amazon.com	Lily Seredian	+1 929-436-4790 ext. 42472	ABR0022	Purchase Now for Delivery by Thursday | Arabella Farm Direct Bouquet of 12 Fresh Cut Pink Roses with a Free Glass Vase	1	0	1	Expedited	Katherine Stevens	6461 GREENBUSH AVE			VAN NUYS	CA	91401-1840	US		Our deafest Kay, Thank you fr the wonderful socks and scarf,  We love you. From Arthur, Lila and DinaL Seredian	false		
111-8160627-4287423	31220615671698	2020-08-04T01:55:21+00:00	2020-08-03T18:55:21-07:00	2020-08-04T02:20:38+00:00	2020-08-05T06:59:59+00:00	-2	hcmghjqs0vz183q@marketplace.amazon.com	MAHASHWETA R GHOSH	+1 929-436-4790 ext. 40498	ABR0022	Purchase Now for Delivery by Thursday | Arabella Farm Direct Bouquet of 12 Fresh Cut Pink Roses with a Free Glass Vase	1	0	1	SecondDay	Sumitra Choudhuri	7416 ROYAL DOMINION DR			BETHESDA	MD	20817-4651	US		Dear Sumitradi   Wishing you a Very Happy Birthday . Love Rita and Amitava From MAHASHWETA R GHOSH	false		
112-1076398-5382632	54462340667738	2020-08-04T02:01:02+00:00	2020-08-03T19:01:02-07:00	2020-08-04T02:31:34+00:00	2020-08-06T06:59:59+00:00	-3	6ph62c83z8dljzr@marketplace.amazon.com	Yulier Ojeda Gonzalez	+1 929-436-4790 ext. 62349	ABR0022	Purchase Now for Delivery by Thursday | Arabella Farm Direct Bouquet of 12 Fresh Cut Pink Roses with a Free Glass Vase	1	0	1	Expedited	Ariene Garoz	21 E 40Th Ave Apt 21			Hialeah	Florida	33013	US			false		
112-6789366-8357053	68082686011050	2020-08-04T02:03:22+00:00	2020-08-03T19:03:22-07:00	2020-08-04T02:32:26+00:00	2020-08-05T06:59:59+00:00	-2	9zsvxbl71tvf380@marketplace.amazon.com	patricia shackelford	+1 929-436-4790 ext. 05074	ABM010	The Spring Fling Bouquet by Arabella Bouquets with a Free Designer Glass Vase	1	0	1	SecondDay	Beverly Wheatman	1031 BANNING ST			MARSHFIELD	MO	65706-1010	US		Happy birthday From patricia shackelford	false		
113-8361137-7910634	15961085710050	2020-08-04T02:02:28+00:00	2020-08-03T19:02:28-07:00	2020-08-04T02:33:56+00:00	2020-08-06T06:59:59+00:00	-3	1gk6q66vxds5dtj@marketplace.amazon.com	deborah starling	+1 929-436-4790 ext. 31166	ABR0022	Purchase Now for Delivery by Thursday | Arabella Farm Direct Bouquet of 12 Fresh Cut Pink Roses with a Free Glass Vase	1	0	1	Expedited	Linda Starling Signature HealthCare	728 DRY VALLEY RD			COOKEVILLE	TN	38506-4940	US		Happy Birthday Linda I hope you will enjoy this gift I love you now and forever more remember God is with you always From deborah	false		
113-9636593-9349012	69467346812170	2020-08-04T02:20:37+00:00	2020-08-03T19:20:37-07:00	2020-08-04T02:51:12+00:00	2020-08-06T06:59:59+00:00	-3	6ghd988hjc4jvll@marketplace.amazon.com	pedro	+1 929-436-4790 ext. 26346	ABR001	Purchase Now for Delivery by Thursday | Arabella Bouquets 12 Stems of Fresh Cut Red Roses in a Free Designer Glass Vase	1	0	1	Expedited	Pedro Carreon	PEDRO CARREON 1015 NW 3RD ST			HERMISTON	OR	97838-1218	US			false		
112-3643930-4324253	60631987177930	2020-08-04T02:44:15+00:00	2020-08-03T19:44:15-07:00	2020-08-04T03:11:40+00:00	2020-08-06T06:59:59+00:00	-3	5n05b0xgn76p8f6@marketplace.amazon.com	Jessica Rengstorf	+1 929-436-4790 ext. 74383	ABR0055	Purchase Now for Delivery by Thursday | Arabella Farm Direct Bouquet of 12 Stems of Fresh Cut Hot Pink Roses in a Free Designer Glass Vase	1	0	1	Expedited	Virginia Creech c/o Berg Insurance	112 S MAIN ST			MCVILLE	ND	58254-4208	US		Happy Birthday!! We love you! From Jessica, Lance, Brielle, & Emmelina	false		
114-8301452-0473039	57283438209962	2020-08-04T02:55:13+00:00	2020-08-03T19:55:13-07:00	2020-08-04T03:21:15+00:00	2020-08-05T06:59:59+00:00	-2	qq0djv46fx8p2rc@marketplace.amazon.com	Leanne P Morse	+1 929-436-4790 ext. 29472	ABR0022	Purchase Now for Delivery by Thursday | Arabella Farm Direct Bouquet of 12 Fresh Cut Pink Roses with a Free Glass Vase	1	0	1	SecondDay	Laura Cooper	1100 JACKSONS VALLEY RD			HERMITAGE	TN	37076-2855	US		Laura, Charlie, and Shelby- So sorry about Blue Baby. She was sweet and spunky and there for so many important times. Love, Leanne, Dan, Maxon, & Anika From Leanne, Dan, Maxon, & Anika	false		
114-2945445-2945066	67023683908306	2020-08-04T03:38:26+00:00	2020-08-03T20:38:26-07:00	2020-08-04T04:07:09+00:00	2020-08-05T06:59:59+00:00	-2	c368dsxmhgwpnxy@marketplace.amazon.com	Stacey L. Hess Pettersson	+1 929-436-4790 ext. 34638	ABM010	The Spring Fling Bouquet by Arabella Bouquets with a Free Designer Glass Vase	1	0	1	SecondDay	Debbi Pettersson	707 DAWNWOOD LN			HENDERSONVILLE	NC	28791-8506	US		Mom, Happy 70th birthday! From Love, Scott, Stacey and Max	false		
114-5514399-6710641	19428178476706	2020-08-04T03:46:37+00:00	2020-08-03T20:46:37-07:00	2020-08-04T04:14:39+00:00	2020-08-05T06:59:59+00:00	-2	dq6h11wscjjbc91@marketplace.amazon.com	Ashley Yip	+1 929-436-4790 ext. 46715	ABR0022	Purchase Now for Delivery by Thursday | Arabella Farm Direct Bouquet of 12 Fresh Cut Pink Roses with a Free Glass Vase	1	0	1	SecondDay	Beverly Yip	10655 MAIN ST	APT 1-607		BELLEVUE	wa	98004	US		hi bebberly i am ur ig follower #12389 happy 24th birthday hehehehe u don't know who i am but i love you. keep posting cute photos of ur sisters those i like the best! <3 eat 3x meal a day! LESS bbt From bob	false		
112-6034046-3327409	60272779400098	2020-08-04T04:50:27+00:00	2020-08-03T21:50:27-07:00	2020-08-04T05:17:41+00:00	2020-08-05T06:59:59+00:00	-2	2c9znqrq78zk9c0@marketplace.amazon.com	John G	+1 929-436-4790 ext. 67794	ABR0022	Purchase Now for Delivery by Thursday | Arabella Farm Direct Bouquet of 12 Fresh Cut Pink Roses with a Free Glass Vase	1	0	1	SecondDay	Jerri Randall	4621 HILDRETH LN			STOCKTON	CA	95212-1410	US		Happy Birthday Mom! From Love Mary and Lee	false		
112-4786506-6137020	53870069431498	2020-08-04T04:50:36+00:00	2020-08-03T21:50:36-07:00	2020-08-04T05:18:07+00:00	2020-08-05T06:59:59+00:00	-2	16cvzb23wtzw01s@marketplace.amazon.com	Christina Tehrani	+1 929-436-4790 ext. 09218	ABR0055	Purchase Now for Delivery by Thursday | Arabella Farm Direct Bouquet of 12 Stems of Fresh Cut Hot Pink Roses in a Free Designer Glass Vase	1	0	1	SecondDay	Moni Garcia	14582 TUSKEGEE AVE			CHINO	CA	91710-1300	US		Thank you so much for all your help this weekend! The cupcakes were perfect! You are amazing and such a great friend! Love you! From Christina Tehrani	false		
113-7372289-9741828	52456444498458	2020-08-04T04:59:52+00:00	2020-08-03T21:59:52-07:00	2020-08-04T05:20:20+00:00	2020-08-05T06:59:59+00:00	-2	g610t47k8hkj934@marketplace.amazon.com	Cristina R Lawrence	+1 929-436-4790 ext. 95090	ABM010	The Spring Fling Bouquet by Arabella Bouquets with a Free Designer Glass Vase	1	0	1	SecondDay	Judy Malmberg	LEXINGTON PLACE 301 S MYRTLE AVE			NEW SMYRNA BEACH	FL	32168-6900	US		Happy Birthday.  Love,  Dilma, Justino, Cristina and Family From Cristina R Lawrence	false		
