order-id	order-item-id	purchase-date	payments-date	reporting-date	promise-date	days-past-promise	buyer-email	buyer-name	buyer-phone-number	sku	product-name	quantity-purchased	quantity-shipped	quantity-to-ship	ship-service-level	recipient-name	ship-address-1	ship-address-2	ship-address-3	ship-city	ship-state	ship-postal-code	ship-country	gift-wrap-type	gift-message-text	is-business-order	purchase-order-number	price-designation
111-1565693-6668224	25056252989874	2020-08-04T17:43:57+00:00	2020-08-04T10:43:57-07:00	2020-08-04T18:06:00+00:00	2020-08-07T06:59:59+00:00	-3	1jr1qr3jy02rv1y@marketplace.amazon.com	jose Mares	+1 929-436-4790 ext. 64645	ABR0022	Purchase Now for Delivery by Friday | Arabella Farm Direct Bouquet of 12 Fresh Cut Pink Roses with a Free Glass Vase	1	0	1	Expedited	Isela Linda Solis	2143 N COLLECTIVE LN STE A			WICHITA	KS	67206-3505	US			false		
114-3866458-2123427	41326828832290	2020-08-04T18:10:41+00:00	2020-08-04T11:10:41-07:00	2020-08-04T18:41:08+00:00	2020-08-07T06:59:59+00:00	-3	vpg80k9hq7mgmj7@marketplace.amazon.com	Ginny Carr	+1 929-436-4790 ext. 52793	ABR0022	Purchase Now for Delivery by Friday | Arabella Farm Direct Bouquet of 12 Fresh Cut Pink Roses with a Free Glass Vase	1	0	1	Expedited	Jesse & Eric Moen	16717 96TH ST SE			SNOHOMISH	WA	98290-4101	US			false		
111-1742064-9325053	11581361898866	2020-08-04T18:20:48+00:00	2020-08-04T11:20:48-07:00	2020-08-04T18:50:24+00:00	2020-08-06T06:59:59+00:00	-2	m519rtw0txf0bw2@marketplace.amazon.com	S.A. McClendon	+1 929-436-4790 ext. 49944	ABR0033	Purchase Now for Delivery by Friday | Arabella Farm Direct Bouquet of 12 Fresh Cut Orange Roses with a Free Glass Vase	1	0	1	SecondDay	Sam McClendon	89 W 119TH ST GARDEN APT			NEW YORK	NY	10026-1402	US			false		
111-9641188-9988210	17254885861922	2020-08-04T18:39:10+00:00	2020-08-04T11:39:10-07:00	2020-08-04T19:09:17+00:00	2020-08-06T06:59:59+00:00	-2	308rht2rnwcphzb@marketplace.amazon.com	Tricia Robison	+1 929-436-4790 ext. 31937	ABR001	Purchase Now for Delivery by Friday | Arabella Bouquets 12 Stems of Fresh Cut Red Roses in a Free Designer Glass Vase	1	0	1	SecondDay	Tricia Dunn	10 N KINGSBRIDGE PL APT B			CHESAPEAKE	VA	23322-5685	US			false		
111-4992049-5482623	50248544599610	2020-08-04T18:52:50+00:00	2020-08-04T11:52:50-07:00	2020-08-04T19:16:26+00:00	2020-08-06T06:59:59+00:00	-2	h0vt222zftl0rn6@marketplace.amazon.com	Kathy Sanchez	+1 929-436-4790 ext. 63758	ABM010	Purchase Now for Delivery by Friday | The Spring Fling Bouquet by Arabella Bouquets with a Free Designer Glass Vase	1	0	1	SecondDay	DeeDee Rockwell	701 GIBSON DR APT 1135			ROSEVILLE	CA	95678-5728	US		You are all in our thoughts and prayers.  With deepest sympathy Auntie Sadie Lucero and Family From Kathy Sanchez	false		
114-1645776-4271446	21721773609466	2020-08-04T19:03:15+00:00	2020-08-04T12:03:15-07:00	2020-08-04T19:19:23+00:00	2020-08-06T06:59:59+00:00	-2	kvrth805sl9x1lt@marketplace.amazon.com	Lisa D	+1 929-436-4790 ext. 30848	ABR0055	Purchase Now for Delivery by Friday | Arabella Farm Direct Bouquet of 12 Stems of Fresh Cut Hot Pink Roses in a Free Designer Glass Vase	1	0	1	SecondDay	Danny Azterbaum & Dee Saar	7346 CHANTILLY LN			TUJUNGA	CA	91042-1272	US		We are thinking of you so much and love you! From Lisa and Kandis	false		
114-9073388-2905833	66016403738242	2020-08-04T19:03:15+00:00	2020-08-04T12:03:15-07:00	2020-08-04T19:19:32+00:00	2020-08-06T06:59:59+00:00	-2	kvrth805sl9x1lt@marketplace.amazon.com	Lisa D	+1 929-436-4790 ext. 52422	ABR0055	Purchase Now for Delivery by Friday | Arabella Farm Direct Bouquet of 12 Stems of Fresh Cut Hot Pink Roses in a Free Designer Glass Vase	1	0	1	SecondDay	Roy States	7370 E GOLD DUST AVE APT 114			SCOTTSDALE	AZ	85258-1025	US		We are thinking of you so much and love you! From Lisa and Kandis	false		
114-7848133-6323462	06340345403394	2020-08-04T19:03:15+00:00	2020-08-04T12:03:15-07:00	2020-08-04T19:22:49+00:00	2020-08-06T06:59:59+00:00	-2	kvrth805sl9x1lt@marketplace.amazon.com	Lisa D	+1 929-436-4790 ext. 64955	ABR0055	Purchase Now for Delivery by Friday | Arabella Farm Direct Bouquet of 12 Stems of Fresh Cut Hot Pink Roses in a Free Designer Glass Vase	1	0	1	SecondDay	Pat Lang	404 16TH AVE			GRINNELL	IA	50112-1064	US		We are thinking of you so much and love you! From Lisa & Kandis	false		
113-5338592-9382619	06112117631914	2020-08-04T18:56:07+00:00	2020-08-04T11:56:07-07:00	2020-08-04T19:26:29+00:00	2020-08-07T06:59:59+00:00	-3	d144ptc569cycv3@marketplace.amazon.com	Omar Munoz	+1 929-436-4790 ext. 58567	ABM0044	Arabella Farm Direct Bouquet of Fresh Cut Blue Hydrangea with a Free Glass Vase	1	0	1	Expedited	Jorge Omar Muñoz Cerda	1101 W DOVE AVE APT 54			MCALLEN	TX	78504-3555	US			false		
113-1418399-4586639	43453027927314	2020-08-04T19:12:55+00:00	2020-08-04T12:12:55-07:00	2020-08-04T19:36:06+00:00	2020-08-06T06:59:59+00:00	-2	0dgkl8zky5bcbn5@marketplace.amazon.com	edward hines	+1 929-436-4790 ext. 43406	ABR0022	Purchase Now for Delivery by Friday | Arabella Farm Direct Bouquet of 12 Fresh Cut Pink Roses with a Free Glass Vase	1	0	1	SecondDay	Sharon C. HINES	245 TRANQUILITY RD			MONETA	VA	24121-5389	US		Happy Birthday Still. I Love You!  From Willie and Me. From edward hines.	false		
113-0460861-7989035	61881630989002	2020-08-04T19:13:26+00:00	2020-08-04T12:13:26-07:00	2020-08-04T19:43:30+00:00	2020-08-06T06:59:59+00:00	-2	93zvyvh6rlhz91f@marketplace.amazon.com	mariella	+1 929-436-4790 ext. 43455	ABR0055	Purchase Now for Delivery by Friday | Arabella Farm Direct Bouquet of 12 Stems of Fresh Cut Hot Pink Roses in a Free Designer Glass Vase	1	0	1	SecondDay	Peggy Arndt	2020 WOOD HILL DR			HORN LAKE	MS	38637-4176	US		Happy Birthday From mariella, Larry	false		
114-0254912-2209810	17183081984818	2020-08-04T19:16:30+00:00	2020-08-04T12:16:30-07:00	2020-08-04T19:45:30+00:00	2020-08-06T06:59:59+00:00	-2	xg5dj8h6v6x2xm8@marketplace.amazon.com	Brady	+1 929-436-4790 ext. 36025	ABR0022	Purchase Now for Delivery by Friday | Arabella Farm Direct Bouquet of 12 Fresh Cut Pink Roses with a Free Glass Vase	1	0	1	SecondDay	Brady McCarley	179 LILY DR			MAUMELLE	AR	72113-5831	US			false		
113-9745288-6268205	66931335547306	2020-08-04T19:41:55+00:00	2020-08-04T12:41:55-07:00	2020-08-04T20:06:53+00:00	2020-08-06T06:59:59+00:00	-2	k0h23fg5g6b96qv@marketplace.amazon.com	Kristen Mosley	+1 929-436-4790 ext. 70621	ABR0022	Purchase Now for Delivery by Friday | Arabella Farm Direct Bouquet of 12 Fresh Cut Pink Roses with a Free Glass Vase	1	0	1	SecondDay	Kristen Mosley	8998 Celeste Oaks Ct N			Saraland	AL	36571-8821	US		Can't wait to meet Harper and see you!  Congratulations - Love you From Kristen	false		
112-6367327-6032267	24832121434154	2020-08-04T19:43:30+00:00	2020-08-04T12:43:30-07:00	2020-08-04T20:13:44+00:00	2020-08-06T06:59:59+00:00	-2	zrkq5q5pw3w6h6y@marketplace.amazon.com	Jonathan Davis	+1 929-436-4790 ext. 96374	ABR0033	Purchase Now for Delivery by Friday | Arabella Farm Direct Bouquet of 12 Fresh Cut Orange Roses with a Free Glass Vase	1	0	1	SecondDay	Jonathan Davis	70 CORAL GABLES			TRINITY	TX	75862-6960	US			false		
111-0591872-0933062	31275757256362	2020-08-04T19:57:00+00:00	2020-08-04T12:57:00-07:00	2020-08-04T20:23:05+00:00	2020-08-06T06:59:59+00:00	-2	x2gvx9mrkxvyxkf@marketplace.amazon.com	Betty Robinson	+1 929-436-4790 ext. 43441	ABR0022	Purchase Now for Delivery by Friday | Arabella Farm Direct Bouquet of 12 Fresh Cut Pink Roses with a Free Glass Vase	1	0	1	SecondDay	Erin Robinson	1718 FOOTHILL BLVD			LA CANADA	CA	91011-2923	US		Enjoy your birthday! From Love you!  Jerry and Betty	false		
113-2065795-0408230	16307982245410	2020-08-04T20:18:50+00:00	2020-08-04T13:18:50-07:00	2020-08-04T20:45:58+00:00	2020-08-06T06:59:59+00:00	-2	wbr1xjj40fydj3b@marketplace.amazon.com	KD Enterprises of Columbia, LLC	+1 929-436-4790 ext. 33187	ABR0033	Purchase Now for Delivery by Friday | Arabella Farm Direct Bouquet of 12 Fresh Cut Orange Roses with a Free Glass Vase	1	0	1	SecondDay	DORETHA HAMMOND WILLIAMS	2300 PATTERSON ST			NASHVILLE	TN	37203-1538	US			false		
114-8469539-4871441	19104005697114	2020-08-04T20:22:40+00:00	2020-08-04T13:22:40-07:00	2020-08-04T20:52:43+00:00	2020-08-06T06:59:59+00:00	-2	tw8q213pdm78gft@marketplace.amazon.com	Melissa Nolte	+1 929-436-4790 ext. 42967	ABM020	Summer Sunset Bouquet by Arabella Bouquets	1	0	1	SecondDay	Margaret Pennington	1309 TRINITY DR			BENBROOK	TX	76126-4253	US			false		
111-8370981-0925015	49851771333370	2020-08-04T20:24:18+00:00	2020-08-04T13:24:18-07:00	2020-08-04T20:53:42+00:00	2020-08-06T06:59:59+00:00	-2	s9yv1385304dql4@marketplace.amazon.com	Christi Huff	+1 929-436-4790 ext. 77759	ABM022	Purple Extravagance Bouquet by Arabella Bouquets	1	0	1	SecondDay	Cindy Bickis	285 N OAKWOOD DR			ALBION	IN	46701-9550	US			false		
113-0729993-9437020	02111842058354	2020-08-04T20:40:32+00:00	2020-08-04T13:40:32-07:00	2020-08-04T21:05:38+00:00	2020-08-07T06:59:59+00:00	-3	ggvb5h9xjjcpg26@marketplace.amazon.com	zack	+1 929-436-4790 ext. 65491	ABM0033	Arabella Farm Direct Bouquet of Fresh Cut White Hydrangea with a Free Glass Vase	1	0	1	Standard	Rosemary Barrack	20510 42ND AVE APT 3B			BAYSIDE	NY	11361-2639	US			false		
111-1062928-4423460	09991088412546	2020-08-04T20:40:49+00:00	2020-08-04T13:40:49-07:00	2020-08-04T21:07:00+00:00	2020-08-06T06:59:59+00:00	-2	f1mkftdgf33scr8@marketplace.amazon.com	Andy	+1 929-436-4790 ext. 79526	ABR0022	Purchase Now for Delivery by Friday | Arabella Farm Direct Bouquet of 12 Fresh Cut Pink Roses with a Free Glass Vase	1	0	1	SecondDay	Barbara Gross	10110 CEDAR POINT BLVD APT 106			BOYNTON BEACH	FL	33437-1390	US		Happy Birthday Mom! Wish I could hand you these in person.  Love you, Andy From Andy	false		
112-0252376-9825060	62556097378290	2020-08-04T21:09:36+00:00	2020-08-04T14:09:36-07:00	2020-08-04T21:31:05+00:00	2020-08-06T06:59:59+00:00	-2	mvnlpvy5zjrdfbz@marketplace.amazon.com	kirsty	+1 929-436-4790 ext. 01082	ABR0022	Purchase Now for Delivery by Friday | Arabella Farm Direct Bouquet of 12 Fresh Cut Pink Roses with a Free Glass Vase	1	0	1	SecondDay	Melsyne Montgomery	29606 RAWLINGS WAY			LAKE ELSINORE	CA	92530-4713	US		Nana Mel From Love Ryley and Lucie xxx	false		
112-9115745-4864261	25255720673794	2020-08-04T20:55:59+00:00	2020-08-04T13:55:59-07:00	2020-08-04T21:35:20+00:00	2020-08-07T06:59:59+00:00	-3	rvjwdm64v46vx12@marketplace.amazon.com	Paula Lucas	+1 929-436-4790 ext. 92310	ABR0022	Purchase Now for Delivery by Friday | Arabella Farm Direct Bouquet of 12 Fresh Cut Pink Roses with a Free Glass Vase	1	0	1	Expedited	AnnMarie Chin	916 CANNES DR			KISSIMMEE	FL	34759-3815	US		Happy birthday auntie! I love you so much and I hope you have an amazing day Queen! From Paula Lucas	false		
113-3882459-9293824	11523641315074	2020-08-04T21:23:00+00:00	2020-08-04T14:23:00-07:00	2020-08-04T21:46:08+00:00	2020-08-06T06:59:59+00:00	-2	gvl7shrq2v75dvd@marketplace.amazon.com	dpcyclist@comcast.net	+1 929-436-4790 ext. 31181	ABR0022	Purchase Now for Delivery by Friday | Arabella Farm Direct Bouquet of 12 Fresh Cut Pink Roses with a Free Glass Vase	1	0	1	SecondDay	Betty Hood	280 MANSFIELD RD			HOLLISTER	CA	95023-9734	US		We are thinking of you as a special Alpha Xi Delta Sister on your special birthday.  Happy 100th Birthday! From Elizabeth Payette, President, Sacramento Alpha Xi Delta Alumnae Association	false		
112-9539768-4412240	55193418140970	2020-08-04T21:24:12+00:00	2020-08-04T14:24:12-07:00	2020-08-04T21:51:51+00:00	2020-08-06T06:59:59+00:00	-2	8v3fqdwzplz58hg@marketplace.amazon.com	Andrea Kennedy	+1 929-436-4790 ext. 78004	ABR0022	Purchase Now for Delivery by Friday | Arabella Farm Direct Bouquet of 12 Fresh Cut Pink Roses with a Free Glass Vase	1	0	1	SecondDay	Mary Huss	400 N 49TH ST			FORT SMITH	ARKANSAS	72903-1937	US		Happy Birthday! Love , Brian, Andrea and Zoey! From Andrea Kennedy	false		
111-7225685-6686622	29097400546962	2020-08-04T21:31:25+00:00	2020-08-04T14:31:25-07:00	2020-08-04T22:01:26+00:00	2020-08-07T06:59:59+00:00	-3	zvcz1prz112v6jn@marketplace.amazon.com	FLMBulletG	+1 929-436-4790 ext. 70630	ABR001	Purchase Now for Delivery by Friday | Arabella Bouquets 12 Stems of Fresh Cut Red Roses in a Free Designer Glass Vase	1	0	1	Expedited	Mariah Perez	13 LELAND AVE			SAN FRANCISCO	CA	94134-2803	US			false		
111-9886750-6541030	27255247304834	2020-08-04T21:32:02+00:00	2020-08-04T14:32:02-07:00	2020-08-04T22:02:32+00:00	2020-08-07T06:59:59+00:00	-3	jgfk9kkw106r3zh@marketplace.amazon.com	Sara Doran	+1 929-436-4790 ext. 83907	ABR012	Purchase Now for Delivery by Friday | Arabella Farm Direct Bouquet of 18 Fresh Cut Pink Roses with a Free Glass Vase	1	0	1	Expedited	Sara Doran	1825 WHITLEY AVE APT 101			LOS ANGELES	CA	90028-4932	US			false		
111-6056240-7006603	17373450779234	2020-08-04T21:38:04+00:00	2020-08-04T14:38:04-07:00	2020-08-04T22:03:49+00:00	2020-08-07T06:59:59+00:00	-3	1wd77xskqdkvq55@marketplace.amazon.com	Janice Kuczynski	+1 929-436-4790 ext. 79333	ABR0022	Purchase Now for Delivery by Friday | Arabella Farm Direct Bouquet of 12 Fresh Cut Pink Roses with a Free Glass Vase	1	0	1	Expedited	Verna Castoro	501 S LA POSADA CIR APT 137			GREEN VALLEY	AZ	85614-5102	US		Happy Birthday Mom Love, Janice and Bob From Janice Kuczynski	false		
114-4436244-4423449	00466604697130	2020-07-31T15:09:11+00:00	2020-07-31T08:09:11-07:00	2020-08-04T22:07:56+00:00	2020-08-06T06:59:59+00:00	-2	nnqm54mzqb1j7dz@marketplace.amazon.com	Cyndi	+1 929-436-4790 ext. 53039	ABR0022	Purchase Now for Delivery by Monday | Arabella Farm Direct Bouquet of 12 Fresh Cut Pink Roses with a Free Glass Vase	1	0	1	NextDay	Kay Green	6928 SNOWY OWL ST			ARLINGTON	TX	76002-3398	US		I’m sure I’ve missed a birthday or other significant event! I love and miss you friend! From Cyndi	false		
113-2366779-2554641	42224485131642	2020-07-31T20:04:03+00:00	2020-07-31T13:04:03-07:00	2020-08-04T22:08:03+00:00	2020-08-07T06:59:59+00:00	-3	chplvmvztfyqr6h@marketplace.amazon.com	Anthony Sundquist	+1 929-436-4790 ext. 08714	ABR0022	Purchase Now for Delivery by Tuesday | Arabella Farm Direct Bouquet of 12 Fresh Cut Pink Roses with a Free Glass Vase	1	0	1	Expedited	Anthony Sundquist	88 LOWER CREEK RD			ITHACA	NY	14850-9131	US		They aren’t as pretty as you are, but here are your flowers beautiful! From Anthony Sundquist	false		
113-6960820-6893059	50464612738594	2020-07-31T18:30:20+00:00	2020-07-31T11:30:20-07:00	2020-08-04T22:08:07+00:00	2020-08-06T06:59:59+00:00	-2	x6vl2tlj7wzdd3q@marketplace.amazon.com	Dana Jamnik	+1 929-436-4790 ext. 76763	ABR0022	Purchase Now for Delivery by Tuesday | Arabella Farm Direct Bouquet of 12 Fresh Cut Pink Roses with a Free Glass Vase	1	0	1	NextDay	David & Iva Cockrum	7430 CARUTH BLVD			DALLAS	TX	75225-4503	US		Congratulations on your new baby girl”Sienna”! Love you Mom and Dave From Dana Dave Jamnik	false		
114-1372028-7604269	19533078054690	2020-07-31T18:29:03+00:00	2020-07-31T11:29:03-07:00	2020-08-04T22:11:27+00:00	2020-08-06T06:59:59+00:00	-2	bc88bvq7zt9ppb9@marketplace.amazon.com	Pierre	+1 929-436-4790 ext. 07524	ABR001	Purchase Now for Delivery by Tuesday | Arabella Bouquets 12 Stems of Fresh Cut Red Roses in a Free Designer Glass Vase	1	0	1	NextDay	Johnnetta Bolden	4679 DALLAS PL APT 102			TEMPLE HILLS	MD	20748-3310	US		Johnnetta, I love you! Hang on because I will be coming home sooner than you think. 😘❤️ From Pierre	false		
113-7683004-5891461	31908230793850	2020-08-04T21:43:39+00:00	2020-08-04T14:43:39-07:00	2020-08-04T22:11:59+00:00	2020-08-06T06:59:59+00:00	-2	91tbmswy38k87jl@marketplace.amazon.com	Babette P. Spellmeyer	+1 929-436-4790 ext. 46266	ABM010	Purchase Now for Delivery by Friday | The Spring Fling Bouquet by Arabella Bouquets with a Free Designer Glass Vase	1	0	1	SecondDay	Mrs. Deni Spellmeyer	396 LOUDON RD			ALBANY	NY	12211-1727	US		Deni, Happy Birthday! Love, Scott, Babette and Porter From Babette P. Spellmeyer	false		
111-2018712-1367418	60699669077610	2020-08-04T22:27:43+00:00	2020-08-04T15:27:43-07:00	2020-08-04T22:41:25+00:00	2020-08-06T06:59:59+00:00	-2	2j9n4l20kkv9y9g@marketplace.amazon.com	peter	+1 929-436-4790 ext. 06567	ABR001	Purchase Now for Delivery by Friday | Arabella Bouquets 12 Stems of Fresh Cut Red Roses in a Free Designer Glass Vase	1	0	1	SecondDay	kimberly Rogers Byers	2563 GA-145, Eastanolle, GA 30538	2563 GA-145, Eastanolle, GA 30538		Eastanollee	GA	30538	US		i love you to the moon and back baby and i cant wait to make you main for ever. From Michael Steven	false		
112-0258020-1414627	06675659529674	2020-08-04T22:45:28+00:00	2020-08-04T15:45:28-07:00	2020-08-04T23:15:52+00:00	2020-08-07T06:59:59+00:00	-3	jm121c379lvh8rb@marketplace.amazon.com	Joshua Ritchie	+1 929-436-4790 ext. 97463	ABR014	Arabella Bouquets 18 Stems of Fresh Cut White Roses in a Free Designer Glass Vase	1	0	1	Expedited	Benita oatis	3854 S MINER ST APT 1			MILWAUKEE	WI	53221-1251	US			false		
112-0046827-0352246	07768608843682	2020-08-03T22:44:57+00:00	2020-08-03T15:44:57-07:00	2020-08-04T23:16:50+00:00	2020-08-06T06:59:59+00:00	-2	znptlv26ks1dpr0@marketplace.amazon.com	irene hemsworth	+1 929-436-4790 ext. 16558	ABR0022	Purchase Now for Delivery by Thursday | Arabella Farm Direct Bouquet of 12 Fresh Cut Pink Roses with a Free Glass Vase	1	0	1	SecondDay	Jackie Callan	147 Country farm cross rd			Dover	NH	03820	US		Dear Jackie happy 80th birthday so sorry we can’t spend your special day with you hope your day is filled with love and laughter enjoy stay safe. Love Ted and Irene xx	false		
