order-id	order-item-id	purchase-date	payments-date	reporting-date	promise-date	days-past-promise	buyer-email	buyer-name	buyer-phone-number	sku	product-name	quantity-purchased	quantity-shipped	quantity-to-ship	ship-service-level	recipient-name	ship-address-1	ship-address-2	ship-address-3	ship-city	ship-state	ship-postal-code	ship-country	gift-wrap-type	gift-message-text	is-business-order	purchase-order-number	price-designation
111-1565693-6668224	25056252989874	2020-08-04T17:43:57+00:00	2020-08-04T10:43:57-07:00	2020-08-04T18:06:00+00:00	2020-08-07T06:59:59+00:00	-2	1jr1qr3jy02rv1y@marketplace.amazon.com	jose Mares	+1 929-436-4790 ext. 64645	ABR0022	Purchase Now for Delivery by Friday | Arabella Farm Direct Bouquet of 12 Fresh Cut Pink Roses with a Free Glass Vase	1	0	1	Expedited	Isela Linda Solis	2143 N COLLECTIVE LN STE A			WICHITA	KS	67206-3505	US			false		
114-3866458-2123427	41326828832290	2020-08-04T18:10:41+00:00	2020-08-04T11:10:41-07:00	2020-08-04T18:41:08+00:00	2020-08-07T06:59:59+00:00	-2	vpg80k9hq7mgmj7@marketplace.amazon.com	Ginny Carr	+1 929-436-4790 ext. 52793	ABR0022	Purchase Now for Delivery by Friday | Arabella Farm Direct Bouquet of 12 Fresh Cut Pink Roses with a Free Glass Vase	1	0	1	Expedited	Jesse & Eric Moen	16717 96TH ST SE			SNOHOMISH	WA	98290-4101	US			false		
111-1742064-9325053	11581361898866	2020-08-04T18:20:48+00:00	2020-08-04T11:20:48-07:00	2020-08-04T18:50:24+00:00	2020-08-06T06:59:59+00:00	-1	m519rtw0txf0bw2@marketplace.amazon.com	S.A. McClendon	+1 929-436-4790 ext. 49944	ABR0033	Purchase Now for Delivery by Friday | Arabella Farm Direct Bouquet of 12 Fresh Cut Orange Roses with a Free Glass Vase	1	0	1	SecondDay	Sam McClendon	89 W 119TH ST GARDEN APT			NEW YORK	NY	10026-1402	US			false		
111-9641188-9988210	17254885861922	2020-08-04T18:39:10+00:00	2020-08-04T11:39:10-07:00	2020-08-04T19:09:17+00:00	2020-08-06T06:59:59+00:00	-1	308rht2rnwcphzb@marketplace.amazon.com	Tricia Robison	+1 929-436-4790 ext. 31937	ABR001	Purchase Now for Delivery by Friday | Arabella Bouquets 12 Stems of Fresh Cut Red Roses in a Free Designer Glass Vase	1	0	1	SecondDay	Tricia Dunn	10 N KINGSBRIDGE PL APT B			CHESAPEAKE	VA	23322-5685	US			false		
111-4992049-5482623	50248544599610	2020-08-04T18:52:50+00:00	2020-08-04T11:52:50-07:00	2020-08-04T19:16:26+00:00	2020-08-06T06:59:59+00:00	-1	h0vt222zftl0rn6@marketplace.amazon.com	Kathy Sanchez	+1 929-436-4790 ext. 63758	ABM010	Purchase Now for Delivery by Friday | The Spring Fling Bouquet by Arabella Bouquets with a Free Designer Glass Vase	1	0	1	SecondDay	DeeDee Rockwell	701 GIBSON DR APT 1135			ROSEVILLE	CA	95678-5728	US		You are all in our thoughts and prayers.  With deepest sympathy Auntie Sadie Lucero and Family From Kathy Sanchez	false		
114-1645776-4271446	21721773609466	2020-08-04T19:03:15+00:00	2020-08-04T12:03:15-07:00	2020-08-04T19:19:23+00:00	2020-08-06T06:59:59+00:00	-1	kvrth805sl9x1lt@marketplace.amazon.com	Lisa D	+1 929-436-4790 ext. 30848	ABR0055	Purchase Now for Delivery by Friday | Arabella Farm Direct Bouquet of 12 Stems of Fresh Cut Hot Pink Roses in a Free Designer Glass Vase	1	0	1	SecondDay	Danny Azterbaum & Dee Saar	7346 CHANTILLY LN			TUJUNGA	CA	91042-1272	US		We are thinking of you so much and love you! From Lisa and Kandis	false		
114-9073388-2905833	66016403738242	2020-08-04T19:03:15+00:00	2020-08-04T12:03:15-07:00	2020-08-04T19:19:32+00:00	2020-08-06T06:59:59+00:00	-1	kvrth805sl9x1lt@marketplace.amazon.com	Lisa D	+1 929-436-4790 ext. 52422	ABR0055	Purchase Now for Delivery by Friday | Arabella Farm Direct Bouquet of 12 Stems of Fresh Cut Hot Pink Roses in a Free Designer Glass Vase	1	0	1	SecondDay	Roy States	7370 E GOLD DUST AVE APT 114			SCOTTSDALE	AZ	85258-1025	US		We are thinking of you so much and love you! From Lisa and Kandis	false		
114-7848133-6323462	06340345403394	2020-08-04T19:03:15+00:00	2020-08-04T12:03:15-07:00	2020-08-04T19:22:49+00:00	2020-08-06T06:59:59+00:00	-1	kvrth805sl9x1lt@marketplace.amazon.com	Lisa D	+1 929-436-4790 ext. 64955	ABR0055	Purchase Now for Delivery by Friday | Arabella Farm Direct Bouquet of 12 Stems of Fresh Cut Hot Pink Roses in a Free Designer Glass Vase	1	0	1	SecondDay	Pat Lang	404 16TH AVE			GRINNELL	IA	50112-1064	US		We are thinking of you so much and love you! From Lisa & Kandis	false		
113-5338592-9382619	06112117631914	2020-08-04T18:56:07+00:00	2020-08-04T11:56:07-07:00	2020-08-04T19:26:29+00:00	2020-08-07T06:59:59+00:00	-2	d144ptc569cycv3@marketplace.amazon.com	Omar Munoz	+1 929-436-4790 ext. 58567	ABM0044	Arabella Farm Direct Bouquet of Fresh Cut Blue Hydrangea with a Free Glass Vase	1	0	1	Expedited	Jorge Omar Muñoz Cerda	1101 W DOVE AVE APT 54			MCALLEN	TX	78504-3555	US			false		
113-1418399-4586639	43453027927314	2020-08-04T19:12:55+00:00	2020-08-04T12:12:55-07:00	2020-08-04T19:36:06+00:00	2020-08-06T06:59:59+00:00	-1	0dgkl8zky5bcbn5@marketplace.amazon.com	edward hines	+1 929-436-4790 ext. 43406	ABR0022	Purchase Now for Delivery by Friday | Arabella Farm Direct Bouquet of 12 Fresh Cut Pink Roses with a Free Glass Vase	1	0	1	SecondDay	Sharon C. HINES	245 TRANQUILITY RD			MONETA	VA	24121-5389	US		Happy Birthday Still. I Love You!  From Willie and Me. From edward hines.	false		
113-0460861-7989035	61881630989002	2020-08-04T19:13:26+00:00	2020-08-04T12:13:26-07:00	2020-08-04T19:43:30+00:00	2020-08-06T06:59:59+00:00	-1	93zvyvh6rlhz91f@marketplace.amazon.com	mariella	+1 929-436-4790 ext. 43455	ABR0055	Purchase Now for Delivery by Friday | Arabella Farm Direct Bouquet of 12 Stems of Fresh Cut Hot Pink Roses in a Free Designer Glass Vase	1	0	1	SecondDay	Peggy Arndt	2020 WOOD HILL DR			HORN LAKE	MS	38637-4176	US		Happy Birthday From mariella, Larry	false		
114-0254912-2209810	17183081984818	2020-08-04T19:16:30+00:00	2020-08-04T12:16:30-07:00	2020-08-04T19:45:30+00:00	2020-08-06T06:59:59+00:00	-1	xg5dj8h6v6x2xm8@marketplace.amazon.com	Brady	+1 929-436-4790 ext. 36025	ABR0022	Purchase Now for Delivery by Friday | Arabella Farm Direct Bouquet of 12 Fresh Cut Pink Roses with a Free Glass Vase	1	0	1	SecondDay	Brady McCarley	179 LILY DR			MAUMELLE	AR	72113-5831	US			false		
113-9745288-6268205	66931335547306	2020-08-04T19:41:55+00:00	2020-08-04T12:41:55-07:00	2020-08-04T20:06:53+00:00	2020-08-06T06:59:59+00:00	-1	k0h23fg5g6b96qv@marketplace.amazon.com	Kristen Mosley	+1 929-436-4790 ext. 70621	ABR0022	Purchase Now for Delivery by Friday | Arabella Farm Direct Bouquet of 12 Fresh Cut Pink Roses with a Free Glass Vase	1	0	1	SecondDay	Kristen Mosley	8998 Celeste Oaks Ct N			Saraland	AL	36571-8821	US		Can't wait to meet Harper and see you!  Congratulations - Love you From Kristen	false		
111-0591872-0933062	31275757256362	2020-08-04T19:57:00+00:00	2020-08-04T12:57:00-07:00	2020-08-04T20:23:05+00:00	2020-08-06T06:59:59+00:00	-1	x2gvx9mrkxvyxkf@marketplace.amazon.com	Betty Robinson	+1 929-436-4790 ext. 43441	ABR0022	Purchase Now for Delivery by Friday | Arabella Farm Direct Bouquet of 12 Fresh Cut Pink Roses with a Free Glass Vase	1	0	1	SecondDay	Erin Robinson	1718 FOOTHILL BLVD			LA CANADA	CA	91011-2923	US		Enjoy your birthday! From Love you!  Jerry and Betty	false		
113-2065795-0408230	16307982245410	2020-08-04T20:18:50+00:00	2020-08-04T13:18:50-07:00	2020-08-04T20:45:58+00:00	2020-08-06T06:59:59+00:00	-1	wbr1xjj40fydj3b@marketplace.amazon.com	KD Enterprises of Columbia, LLC	+1 929-436-4790 ext. 33187	ABR0033	Purchase Now for Delivery by Friday | Arabella Farm Direct Bouquet of 12 Fresh Cut Orange Roses with a Free Glass Vase	1	0	1	SecondDay	DORETHA HAMMOND WILLIAMS	2300 PATTERSON ST			NASHVILLE	TN	37203-1538	US			false		
114-8469539-4871441	19104005697114	2020-08-04T20:22:40+00:00	2020-08-04T13:22:40-07:00	2020-08-04T20:52:43+00:00	2020-08-06T06:59:59+00:00	-1	tw8q213pdm78gft@marketplace.amazon.com	Melissa Nolte	+1 929-436-4790 ext. 42967	ABM020	Summer Sunset Bouquet by Arabella Bouquets	1	0	1	SecondDay	Margaret Pennington	1309 TRINITY DR			BENBROOK	TX	76126-4253	US			false		
111-8370981-0925015	49851771333370	2020-08-04T20:24:18+00:00	2020-08-04T13:24:18-07:00	2020-08-04T20:53:42+00:00	2020-08-06T06:59:59+00:00	-1	s9yv1385304dql4@marketplace.amazon.com	Christi Huff	+1 929-436-4790 ext. 77759	ABM022	Purple Extravagance Bouquet by Arabella Bouquets	1	0	1	SecondDay	Cindy Bickis	285 N OAKWOOD DR			ALBION	IN	46701-9550	US			false		
113-0729993-9437020	02111842058354	2020-08-04T20:40:32+00:00	2020-08-04T13:40:32-07:00	2020-08-04T21:05:38+00:00	2020-08-07T06:59:59+00:00	-2	ggvb5h9xjjcpg26@marketplace.amazon.com	zack	+1 929-436-4790 ext. 65491	ABM0033	Arabella Farm Direct Bouquet of Fresh Cut White Hydrangea with a Free Glass Vase	1	0	1	Standard	Rosemary Barrack	20510 42ND AVE APT 3B			BAYSIDE	NY	11361-2639	US			false		
111-1062928-4423460	09991088412546	2020-08-04T20:40:49+00:00	2020-08-04T13:40:49-07:00	2020-08-04T21:07:00+00:00	2020-08-06T06:59:59+00:00	-1	f1mkftdgf33scr8@marketplace.amazon.com	Andy	+1 929-436-4790 ext. 79526	ABR0022	Purchase Now for Delivery by Friday | Arabella Farm Direct Bouquet of 12 Fresh Cut Pink Roses with a Free Glass Vase	1	0	1	SecondDay	Barbara Gross	10110 CEDAR POINT BLVD APT 106			BOYNTON BEACH	FL	33437-1390	US		Happy Birthday Mom! Wish I could hand you these in person.  Love you, Andy From Andy	false		
112-0252376-9825060	62556097378290	2020-08-04T21:09:36+00:00	2020-08-04T14:09:36-07:00	2020-08-04T21:31:05+00:00	2020-08-06T06:59:59+00:00	-1	mvnlpvy5zjrdfbz@marketplace.amazon.com	kirsty	+1 929-436-4790 ext. 01082	ABR0022	Purchase Now for Delivery by Friday | Arabella Farm Direct Bouquet of 12 Fresh Cut Pink Roses with a Free Glass Vase	1	0	1	SecondDay	Melsyne Montgomery	29606 RAWLINGS WAY			LAKE ELSINORE	CA	92530-4713	US		Nana Mel From Love Ryley and Lucie xxx	false		
112-9115745-4864261	25255720673794	2020-08-04T20:55:59+00:00	2020-08-04T13:55:59-07:00	2020-08-04T21:35:20+00:00	2020-08-07T06:59:59+00:00	-2	rvjwdm64v46vx12@marketplace.amazon.com	Paula Lucas	+1 929-436-4790 ext. 92310	ABR0022	Purchase Now for Delivery by Friday | Arabella Farm Direct Bouquet of 12 Fresh Cut Pink Roses with a Free Glass Vase	1	0	1	Expedited	AnnMarie Chin	916 CANNES DR			KISSIMMEE	FL	34759-3815	US		Happy birthday auntie! I love you so much and I hope you have an amazing day Queen! From Paula Lucas	false		
113-3882459-9293824	11523641315074	2020-08-04T21:23:00+00:00	2020-08-04T14:23:00-07:00	2020-08-04T21:46:08+00:00	2020-08-06T06:59:59+00:00	-1	gvl7shrq2v75dvd@marketplace.amazon.com	dpcyclist@comcast.net	+1 929-436-4790 ext. 31181	ABR0022	Purchase Now for Delivery by Friday | Arabella Farm Direct Bouquet of 12 Fresh Cut Pink Roses with a Free Glass Vase	1	0	1	SecondDay	Betty Hood	280 MANSFIELD RD			HOLLISTER	CA	95023-9734	US		We are thinking of you as a special Alpha Xi Delta Sister on your special birthday.  Happy 100th Birthday! From Elizabeth Payette, President, Sacramento Alpha Xi Delta Alumnae Association	false		
112-9539768-4412240	55193418140970	2020-08-04T21:24:12+00:00	2020-08-04T14:24:12-07:00	2020-08-04T21:51:51+00:00	2020-08-06T06:59:59+00:00	-1	8v3fqdwzplz58hg@marketplace.amazon.com	Andrea Kennedy	+1 929-436-4790 ext. 78004	ABR0022	Purchase Now for Delivery by Friday | Arabella Farm Direct Bouquet of 12 Fresh Cut Pink Roses with a Free Glass Vase	1	0	1	SecondDay	Mary Huss	400 N 49TH ST			FORT SMITH	ARKANSAS	72903-1937	US		Happy Birthday! Love , Brian, Andrea and Zoey! From Andrea Kennedy	false		
111-7225685-6686622	29097400546962	2020-08-04T21:31:25+00:00	2020-08-04T14:31:25-07:00	2020-08-04T22:01:26+00:00	2020-08-07T06:59:59+00:00	-2	zvcz1prz112v6jn@marketplace.amazon.com	FLMBulletG	+1 929-436-4790 ext. 70630	ABR001	Purchase Now for Delivery by Friday | Arabella Bouquets 12 Stems of Fresh Cut Red Roses in a Free Designer Glass Vase	1	0	1	Expedited	Mariah Perez	13 LELAND AVE			SAN FRANCISCO	CA	94134-2803	US			false		
111-9886750-6541030	27255247304834	2020-08-04T21:32:02+00:00	2020-08-04T14:32:02-07:00	2020-08-04T22:02:32+00:00	2020-08-07T06:59:59+00:00	-2	jgfk9kkw106r3zh@marketplace.amazon.com	Sara Doran	+1 929-436-4790 ext. 83907	ABR012	Purchase Now for Delivery by Friday | Arabella Farm Direct Bouquet of 18 Fresh Cut Pink Roses with a Free Glass Vase	1	0	1	Expedited	Sara Doran	1825 WHITLEY AVE APT 101			LOS ANGELES	CA	90028-4932	US			false		
111-6056240-7006603	17373450779234	2020-08-04T21:38:04+00:00	2020-08-04T14:38:04-07:00	2020-08-04T22:03:49+00:00	2020-08-07T06:59:59+00:00	-2	1wd77xskqdkvq55@marketplace.amazon.com	Janice Kuczynski	+1 929-436-4790 ext. 79333	ABR0022	Purchase Now for Delivery by Friday | Arabella Farm Direct Bouquet of 12 Fresh Cut Pink Roses with a Free Glass Vase	1	0	1	Expedited	Verna Castoro	501 S LA POSADA CIR APT 137			GREEN VALLEY	AZ	85614-5102	US		Happy Birthday Mom Love, Janice and Bob From Janice Kuczynski	false		
114-4436244-4423449	00466604697130	2020-07-31T15:09:11+00:00	2020-07-31T08:09:11-07:00	2020-08-04T22:07:56+00:00	2020-08-06T06:59:59+00:00	-1	nnqm54mzqb1j7dz@marketplace.amazon.com	Cyndi	+1 929-436-4790 ext. 53039	ABR0022	Purchase Now for Delivery by Monday | Arabella Farm Direct Bouquet of 12 Fresh Cut Pink Roses with a Free Glass Vase	1	0	1	NextDay	Kay Green	6928 SNOWY OWL ST			ARLINGTON	TX	76002-3398	US		I’m sure I’ve missed a birthday or other significant event! I love and miss you friend! From Cyndi	false		
113-2366779-2554641	42224485131642	2020-07-31T20:04:03+00:00	2020-07-31T13:04:03-07:00	2020-08-04T22:08:03+00:00	2020-08-07T06:59:59+00:00	-2	chplvmvztfyqr6h@marketplace.amazon.com	Anthony Sundquist	+1 929-436-4790 ext. 08714	ABR0022	Purchase Now for Delivery by Tuesday | Arabella Farm Direct Bouquet of 12 Fresh Cut Pink Roses with a Free Glass Vase	1	0	1	Expedited	Anthony Sundquist	88 LOWER CREEK RD			ITHACA	NY	14850-9131	US		They aren’t as pretty as you are, but here are your flowers beautiful! From Anthony Sundquist	false		
114-1372028-7604269	19533078054690	2020-07-31T18:29:03+00:00	2020-07-31T11:29:03-07:00	2020-08-04T22:11:27+00:00	2020-08-06T06:59:59+00:00	-1	bc88bvq7zt9ppb9@marketplace.amazon.com	Pierre	+1 929-436-4790 ext. 07524	ABR001	Purchase Now for Delivery by Tuesday | Arabella Bouquets 12 Stems of Fresh Cut Red Roses in a Free Designer Glass Vase	1	0	1	NextDay	Johnnetta Bolden	4679 DALLAS PL APT 102			TEMPLE HILLS	MD	20748-3310	US		Johnnetta, I love you! Hang on because I will be coming home sooner than you think. 😘❤️ From Pierre	false		
113-7683004-5891461	31908230793850	2020-08-04T21:43:39+00:00	2020-08-04T14:43:39-07:00	2020-08-04T22:11:59+00:00	2020-08-06T06:59:59+00:00	-1	91tbmswy38k87jl@marketplace.amazon.com	Babette P. Spellmeyer	+1 929-436-4790 ext. 46266	ABM010	Purchase Now for Delivery by Friday | The Spring Fling Bouquet by Arabella Bouquets with a Free Designer Glass Vase	1	0	1	SecondDay	Mrs. Deni Spellmeyer	396 LOUDON RD			ALBANY	NY	12211-1727	US		Deni, Happy Birthday! Love, Scott, Babette and Porter From Babette P. Spellmeyer	false		
111-2018712-1367418	60699669077610	2020-08-04T22:27:43+00:00	2020-08-04T15:27:43-07:00	2020-08-04T22:41:25+00:00	2020-08-06T06:59:59+00:00	-1	2j9n4l20kkv9y9g@marketplace.amazon.com	peter	+1 929-436-4790 ext. 06567	ABR001	Purchase Now for Delivery by Friday | Arabella Bouquets 12 Stems of Fresh Cut Red Roses in a Free Designer Glass Vase	1	0	1	SecondDay	kimberly Rogers Byers	2563 GA-145, Eastanolle, GA 30538	2563 GA-145, Eastanolle, GA 30538		Eastanollee	GA	30538	US		i love you to the moon and back baby and i cant wait to make you main for ever. From Michael Steven	false		
112-0258020-1414627	06675659529674	2020-08-04T22:45:28+00:00	2020-08-04T15:45:28-07:00	2020-08-04T23:15:52+00:00	2020-08-07T06:59:59+00:00	-2	jm121c379lvh8rb@marketplace.amazon.com	Joshua Ritchie	+1 929-436-4790 ext. 97463	ABR014	Arabella Bouquets 18 Stems of Fresh Cut White Roses in a Free Designer Glass Vase	1	0	1	Expedited	Benita oatis	3854 S MINER ST APT 1			MILWAUKEE	WI	53221-1251	US			false		
112-0046827-0352246	07768608843682	2020-08-03T22:44:57+00:00	2020-08-03T15:44:57-07:00	2020-08-04T23:16:50+00:00	2020-08-06T06:59:59+00:00	-1	znptlv26ks1dpr0@marketplace.amazon.com	irene hemsworth	+1 929-436-4790 ext. 16558	ABR0022	Purchase Now for Delivery by Thursday | Arabella Farm Direct Bouquet of 12 Fresh Cut Pink Roses with a Free Glass Vase	1	0	1	SecondDay	Jackie Callan	147 Country farm cross rd			Dover	NH	03820	US		Dear Jackie happy 80th birthday so sorry we can’t spend your special day with you hope your day is filled with love and laughter enjoy stay safe. Love Ted and Irene xx	false		
113-4698584-6245034	36246875903050	2020-08-04T23:16:59+00:00	2020-08-04T16:16:59-07:00	2020-08-04T23:46:41+00:00	2020-08-06T06:59:59+00:00	-1	g57lqsy5vmvbsg5@marketplace.amazon.com	Gayle C. Solberg	+1 929-436-4790 ext. 81495	ABR0033	Purchase Now for Delivery by Friday | Arabella Farm Direct Bouquet of 12 Fresh Cut Orange Roses with a Free Glass Vase	1	0	1	SecondDay	Christina Zucktriegel	11719 PEAR TREE CT			LEAVENWORTH	WA	98826-9381	US			false		
113-8847514-3188255	08845489261234	2020-08-04T23:29:12+00:00	2020-08-04T16:29:12-07:00	2020-08-04T23:53:37+00:00	2020-08-06T06:59:59+00:00	-1	39bh4t8gy0kss0p@marketplace.amazon.com	Debra Stolte	+1 929-436-4790 ext. 01784	ABR0022	Purchase Now for Delivery by Friday | Arabella Farm Direct Bouquet of 12 Fresh Cut Pink Roses with a Free Glass Vase	1	0	1	SecondDay	Linda Stolte	1059 SHADY GROVE ST			MANTECA	CA	95336-8281	US		Happy Birthday Linda! I love you! From Debbie	false		
114-7236126-9313800	05189847846250	2020-08-04T23:32:15+00:00	2020-08-04T16:32:15-07:00	2020-08-05T00:01:37+00:00	2020-08-07T06:59:59+00:00	-2	rr0ypwmf1b8fb5x@marketplace.amazon.com	Patrick	+1 929-436-4790 ext. 04688	ABR001	Purchase Now for Delivery by Friday | Arabella Bouquets 12 Stems of Fresh Cut Red Roses in a Free Designer Glass Vase	1	0	1	Expedited	Jamaal Ward	40 PEACHTREE VALLEY RD NE	APT 1714		ATLANTA	GA	30309-8006	US			false		
114-8824235-0270662	43387345817874	2020-08-04T23:34:49+00:00	2020-08-04T16:34:49-07:00	2020-08-05T00:03:52+00:00	2020-08-06T06:59:59+00:00	-1	d67p6jcd2431pg5@marketplace.amazon.com	BatSheva Vaknin	+1 929-436-4790 ext. 05800	ABR0022	Purchase Now for Delivery by Friday | Arabella Farm Direct Bouquet of 12 Fresh Cut Pink Roses with a Free Glass Vase	1	0	1	SecondDay	Julie (Gigi) Susman	25911 GOOSE NECK RD			ROYAL OAK	MD	21662-1422	US		HAPPY BIRTHDAY MAMA!! Wish I could be there in person to give you a GIANT HUG!!!! Love you SOOOO MUCH. xoxoxo Shana-Sheva xoxox From BatSheva Vaknin	true		Business Price
113-1586428-1146642	28004392482746	2020-08-04T23:39:55+00:00	2020-08-04T16:39:55-07:00	2020-08-05T00:06:38+00:00	2020-08-06T06:59:59+00:00	-1	21mj4c2hd4qx7z4@marketplace.amazon.com	Ann C. Murphy	+1 929-436-4790 ext. 18700	ABR0055	Purchase Now for Delivery by Friday | Arabella Farm Direct Bouquet of 12 Stems of Fresh Cut Hot Pink Roses in a Free Designer Glass Vase	1	0	1	SecondDay	Kelly Greeley	116 HEYWOOD AVE			MELROSE	MA	02176-1441	US		Enjoy your gift! Happy Anniversary! From  Joe & Ann Murphy	false		
111-7851817-4313042	52700729269026	2020-08-04T23:48:39+00:00	2020-08-04T16:48:39-07:00	2020-08-05T00:09:27+00:00	2020-08-06T06:59:59+00:00	-1	506k9wdz4cr2tl7@marketplace.amazon.com	latricia lloyd	+1 929-436-4790 ext. 24996	ABM010	Purchase Now for Delivery by Friday | The Spring Fling Bouquet by Arabella Bouquets with a Free Designer Glass Vase	1	0	1	SecondDay	Mary Lou Roberts	605 GUM SPRINGS RD			PARIS	TN	38242-6359	US		I love you!  I hope these are pretty and they brighten the room. Floyd From latricia lloyd	false		
114-3874097-8865830	13717000004682	2020-08-04T23:54:56+00:00	2020-08-04T16:54:56-07:00	2020-08-05T00:23:02+00:00	2020-08-06T06:59:59+00:00	-1	mg0n7smdxmqcxzm@marketplace.amazon.com	Amy Huusko	+1 929-436-4790 ext. 19812	ABM010	Purchase Now for Delivery by Friday | The Spring Fling Bouquet by Arabella Bouquets with a Free Designer Glass Vase	1	0	1	SecondDay	Kim Turner	2195 PIMLICO LN			PLACERVILLE	CA	95667-8730	US		We are thinking of you Kim and hope you are flooded with precious memories of your mom.  Love you! From Amy Huusko	false		
112-9278641-4282622	02294729629450	2020-08-04T23:55:05+00:00	2020-08-04T16:55:05-07:00	2020-08-05T00:24:33+00:00	2020-08-07T06:59:59+00:00	-2	2gqfg9cc2gn612n@marketplace.amazon.com	Danielle Oliver	+1 929-436-4790 ext. 05380	ABR013	Purchase Now for Delivery by Friday | Arabella Farm Direct Bouquet of 18 Fresh Cut Yellow Roses with a Free Glass Vase	1	0	1	Expedited	Char Oliver	8301 CONOVER DR			CITRUS HEIGHTS	CA	95610-0811	US			false		
111-2421523-1233860	35296393126074	2020-08-04T23:57:38+00:00	2020-08-04T16:57:38-07:00	2020-08-05T00:26:57+00:00	2020-08-06T06:59:59+00:00	-1	506k9wdz4cr2tl7@marketplace.amazon.com	latricia lloyd	+1 929-436-4790 ext. 94002	ABM021	The Joyous Bouquet by Arabella Bouquets	1	0	1	SecondDay	Beth Roberts	765 GUM SPRINGS RD			PARIS	TN	38242-6360	US			false		
112-6440977-9173816	41487403749706	2020-08-05T00:15:41+00:00	2020-08-04T17:15:41-07:00	2020-08-05T00:45:09+00:00	2020-08-06T06:59:59+00:00	-1	mxhnyxr6ks5nxqv@marketplace.amazon.com	vicki	+1 929-436-4790 ext. 41523	ABR0055	Purchase Now for Delivery by Friday | Arabella Farm Direct Bouquet of 12 Stems of Fresh Cut Hot Pink Roses in a Free Designer Glass Vase	1	0	1	SecondDay	Sherrie Hufham	445 SHADES CREST RD			HOOVER	AL	35226-1104	US			false		
111-2567801-6426646	51287590102154	2020-08-05T00:22:53+00:00	2020-08-04T17:22:53-07:00	2020-08-05T00:48:49+00:00	2020-08-06T06:59:59+00:00	-1	1c3j98f95vkz8t9@marketplace.amazon.com	Ellen Eller	+1 929-436-4790 ext. 12963	ABR0022	Purchase Now for Delivery by Friday | Arabella Farm Direct Bouquet of 12 Fresh Cut Pink Roses with a Free Glass Vase	1	0	1	SecondDay	Doris D. Steward	950 WILLOW VALLEY LAKES DR  I-502			WILLOW STREET	PA	17584-9663	US			false		
113-7667183-1624219	53773486068090	2020-08-05T00:22:00+00:00	2020-08-04T17:22:00-07:00	2020-08-05T00:50:39+00:00	2020-08-07T06:59:59+00:00	-2	yt7tl43l25whxt1@marketplace.amazon.com	Hollis Petrocchi	+1 929-436-4790 ext. 07389	ABR004	Arabella Farm Direct Bouquet of 12 Fresh Cut Yellow Roses with a Free Glass Vase	1	0	1	Expedited	Jennifer Ertl	1641 51ST ST			SACRAMENTO	CA	95819-4503	US		Hi Jennifer, Sorry you are Covid, please get well soon From Hollis and Dan Petrocchi	false		
113-5430036-2170616	24739978379866	2020-08-03T23:43:16+00:00	2020-08-03T16:43:16-07:00	2020-08-05T01:00:20+00:00	2020-08-06T06:59:59+00:00	-1	ykx92dksd4x4fb6@marketplace.amazon.com	Rebecca weintraub	+1 929-436-4790 ext. 22749	ABR013	Purchase Now for Delivery by Thursday | Arabella Farm Direct Bouquet of 18 Fresh Cut Yellow Roses with a Free Glass Vase	1	0	1	SecondDay	Anne Framroze	254 N BRADOAKS AVE			MONROVIA	CA	91016-1802	US		Anne, Sending little brightness with hugs— Bek From Rebecca Weintraub	false		
112-3088198-2805801	25344821514154	2020-08-03T15:01:19+00:00	2020-08-03T08:01:19-07:00	2020-08-05T01:00:26+00:00	2020-08-06T06:59:59+00:00	-1	w9rrhy1z5vy7zln@marketplace.amazon.com	Joshua Holder	+1 929-436-4790 ext. 72985	ABR001	Purchase Now for Delivery by Wednesday | Arabella Bouquets 12 Stems of Fresh Cut Red Roses in a Free Designer Glass Vase	1	0	1	SecondDay	Nataschia  Holder	1111 S PEARL ST APT 11			CENTRALIA	WA	98531-2353	US		Cause there’s nothing wrong with getting some flowers. ❤️🙂 From Hubby	false		
111-5562779-5786601	46374653858866	2020-08-03T00:49:32+00:00	2020-08-02T17:49:32-07:00	2020-08-05T01:00:27+00:00	2020-08-07T06:59:59+00:00	-2	1nmvq440m2l7y4y@marketplace.amazon.com	ivonne garcia	+1 929-436-4790 ext. 05079	ABM010	The Spring Fling Bouquet by Arabella Bouquets with a Free Designer Glass Vase	1	0	1	Expedited	Ruth Garcia	22015 DOVER BRIDGE RD			BETHLEHEM	MD	21609-2500	US		Feliz, feliz cumpleaños, espero te guste el regalo. de:Familia Sanchez Garcia From ivonne garcia	false		
112-6310059-8466659	28402981775434	2020-08-03T13:25:22+00:00	2020-08-03T06:25:22-07:00	2020-08-05T01:00:37+00:00	2020-08-06T06:59:59+00:00	-1	cqt43r63hz1g9xq@marketplace.amazon.com	marianne koshy	+1 929-436-4790 ext. 32867	ABB015	Arabella Farm Direct Bouquet of 24 Fresh Cut Orange Roses with a Free Glass Vase	1	0	1	SecondDay	Kelly Jackson Izzo	47 NICOLOSI LOOP			STATEN ISLAND	NY	10312-5825	US		Feel better my friend!!! Don’t scare me again! Hopefully we can leave 2020 in the past and look to a brighter future very soon!!! From Marianne Koshy	false		
114-1102182-0798664	25824096757802	2020-08-03T02:21:29+00:00	2020-08-02T19:21:29-07:00	2020-08-05T01:00:50+00:00	2020-08-07T06:59:59+00:00	-2	s4cf6s2rjh6ys10@marketplace.amazon.com	Antonio	+1 929-436-4790 ext. 80718	ABR0022	Purchase Now for Delivery by Wednesday | Arabella Farm Direct Bouquet of 12 Fresh Cut Pink Roses with a Free Glass Vase	1	0	1	Expedited	Melisa Sexy Hurtado	927 STATE ST			HAMMOND	IN	46320-1625	US		Mi Amiga Melisa,  Sending you these flowers on your birthday for strength and as a reminder that you are loved. “Let the beauty of each new day nourish your soul and bring you peace.” From Your Fuffy	false		
111-7610084-1479415	03716123559282	2020-08-02T08:26:47+00:00	2020-08-02T01:26:47-07:00	2020-08-05T01:00:51+00:00	2020-08-06T06:59:59+00:00	-1	zpqh0d209y509b5@marketplace.amazon.com	Patty Jaso	+1 929-436-4790 ext. 92193	ABR0055	Purchase Now for Delivery by Wednesday | Arabella Farm Direct Bouquet of 12 Stems of Fresh Cut Hot Pink Roses in a Free Designer Glass Vase	1	0	1	SecondDay	Patty Martinez	7808 LONGS PEAK DR			RIVERSIDE	CA	92509-5443	US		Happy Birthday!!!! From The Jaso’s	false		
111-5461818-8835403	60558616519922	2020-08-02T13:44:46+00:00	2020-08-02T06:44:46-07:00	2020-08-05T01:00:53+00:00	2020-08-06T06:59:59+00:00	-1	plp6lfn6nqzdm5n@marketplace.amazon.com	Lisa	+1 929-436-4790 ext. 15727	ABM010	The Spring Fling Bouquet by Arabella Bouquets with a Free Designer Glass Vase	1	0	1	SecondDay	MRS. SADIE ROSE - MOM	2812 SANDYFORD AVE			PHILADELPHIA	PA	19152-4413	US		HAPPY BIRTHDAY MOMMY!! 🎈🎉🎉 WE MISS YOU!! LOVE YOUR DAUGHTER, LISA ❤  GOD BLESS YOU! From Lisa, Frank, Troy, Justin & Chace	false		
114-5715147-3700216	31667778894242	2020-08-01T02:07:59+00:00	2020-07-31T19:07:59-07:00	2020-08-05T01:00:54+00:00	2020-08-07T06:59:59+00:00	-2	g8brv6zq3z8dybl@marketplace.amazon.com	Lionel Balmir	+1 929-436-4790 ext. 91231	ABR001	Purchase Now for Delivery by Tuesday | Arabella Bouquets 12 Stems of Fresh Cut Red Roses in a Free Designer Glass Vase	1	0	1	Expedited	Ms. Maritza Rios	9145 SW 227TH ST UNIT 1			CUTLER BAY	FL	33190-1864	US		Happy birthday to a beautiful angel you may have forgotten about me but your always in me and in my ❤️ From Lionel Balmir	false		
112-0752113-2497839	27751135978754	2020-08-04T03:22:11+00:00	2020-08-03T20:22:11-07:00	2020-08-05T01:00:55+00:00	2020-08-06T06:59:59+00:00	-1	mctgy9wjkz4pzw9@marketplace.amazon.com	Anna Riffel	+1 929-436-4790 ext. 28090	ABM0033	Purchase Now for Delivery by Thursday | Arabella Farm Direct Bouquet of Fresh Cut White Hydrangea with a Free Glass Vase	1	0	1	SecondDay	Mark and Lauren Gilliam	16152 COPPER LANTERN DR			WILDWOOD	MO	63040-1928	US		Happy birthday! I’m very blessed to have you as apart of my life as a friend but you are also family!  Enjoy your day:) From Anna Riffel	false		
113-7267123-0150646	32465310028626	2020-08-01T23:36:07+00:00	2020-08-01T16:36:07-07:00	2020-08-05T01:00:59+00:00	2020-08-06T06:59:59+00:00	-1	sykjw09qg1n98h6@marketplace.amazon.com	Valerie	+1 929-436-4790 ext. 33089	ABR0055	Purchase Now for Delivery by Wednesday | Arabella Farm Direct Bouquet of 12 Stems of Fresh Cut Hot Pink Roses in a Free Designer Glass Vase	1	0	1	SecondDay	Bianca Agusma	16329 130TH AVE APT 3D			JAMAICA	NY	11434-3060	US		Congratulations Bianca! We are so proud of you and the spiritual progress you’ve made. There will be more challenges in your service to Jehovah, but He will be with you through all of them. We love you! From The Joseph Family	false		
112-3269796-5171403	13393901915730	2020-08-02T16:00:18+00:00	2020-08-02T09:00:18-07:00	2020-08-05T01:02:34+00:00	2020-08-07T06:59:59+00:00	-2	3779yn0p2g1nfx0@marketplace.amazon.com	Chase	+1 929-436-4790 ext. 73488	ABR0022	Purchase Now for Delivery by Wednesday | Arabella Farm Direct Bouquet of 12 Fresh Cut Pink Roses with a Free Glass Vase	1	0	1	Expedited	Kennedi Webb	8823 S PAXTON AVE			CHICAGO	IL	60617-3043	US		Happy 7 months💞 From Nick	false		
114-6830732-2640256	19682310794034	2020-08-02T13:34:44+00:00	2020-08-02T06:34:44-07:00	2020-08-05T01:02:35+00:00	2020-08-06T06:59:59+00:00	-1	nbjn9pb9963n0l0@marketplace.amazon.com	MARY GRACE  ACIO	+1 929-436-4790 ext. 96576	ABR0022	Purchase Now for Delivery by Wednesday | Arabella Farm Direct Bouquet of 12 Fresh Cut Pink Roses with a Free Glass Vase	1	0	1	SecondDay	ABIMAEL ARGUETA	12603 MONACO RD			HOUSTON	TX	77070-5063	US		Feliz cumpleaños Mrs Argueta! From MARY GRACE  ACIO	false		
112-5485470-1529054	54952568892690	2020-08-01T14:04:12+00:00	2020-08-01T07:04:12-07:00	2020-08-05T01:02:50+00:00	2020-08-06T06:59:59+00:00	-1	psh3s72p4tyzvcm@marketplace.amazon.com	Mallory	+1 929-436-4790 ext. 98179	ABR0022	Purchase Now for Delivery by Wednesday | Arabella Farm Direct Bouquet of 12 Fresh Cut Pink Roses with a Free Glass Vase	1	0	1	SecondDay	Stefanie Fleming	3551 NC HIGHWAY 53 W			BURGAW	NC	28425-4258	US		Welcome to the no gallbladder club.  It’s not so bad.  I hope you get lots of rest and feel better soon.  Love you From Mal	false		
114-3691652-3377022	68833519599242	2020-08-04T04:55:40+00:00	2020-08-03T21:55:40-07:00	2020-08-05T01:02:55+00:00	2020-08-06T06:59:59+00:00	-1	0cj3xzg97vz5jby@marketplace.amazon.com	tyler	+1 929-436-4790 ext. 41382	ABR0022	Purchase Now for Delivery by Thursday | Arabella Farm Direct Bouquet of 12 Fresh Cut Pink Roses with a Free Glass Vase	1	0	1	SecondDay	Rylee Maxam	145 BABBOTT AVE			WATERVILLE	NY	13480-1137	US		It feels weird not being with you. I miss everything little thing about you. I miss kissing you in the mornings, the way you smell, holding you, looking at you and telling you how beautiful you are. I’m very grateful for you! From Ty	false		
111-7027706-4325063	05557600626530	2020-08-03T20:34:57+00:00	2020-08-03T13:34:57-07:00	2020-08-05T01:02:56+00:00	2020-08-06T06:59:59+00:00	-1	w4wh18r0dbkl6zh@marketplace.amazon.com	Joan Libby Hawk	+1 929-436-4790 ext. 88190	ABR0022	Purchase Now for Delivery by Thursday | Arabella Farm Direct Bouquet of 12 Fresh Cut Pink Roses with a Free Glass Vase	1	0	1	SecondDay	Matthew Libby Hawk	579 W 215TH ST APT 6F			NEW YORK	NY	10034-1239	US		Dear Julie and Matt, Been thinking hard about you.  Hang in there—2020 cliche of choice. Love, Us	false		
112-1412043-9849831	64532049207538	2020-08-04T02:34:59+00:00	2020-08-03T19:34:59-07:00	2020-08-05T01:02:56+00:00	2020-08-06T06:59:59+00:00	-1	b1syq441j931yvq@marketplace.amazon.com	Patrick Bewley	+1 929-436-4790 ext. 16202	ABR0022	Purchase Now for Delivery by Thursday | Arabella Farm Direct Bouquet of 12 Fresh Cut Pink Roses with a Free Glass Vase	1	0	1	SecondDay	Cristi Walker	1001 COUNTRY CLUB RD			SHERWOOD	AR	72120-4842	US		Dear Cristi,  Ahhhh!! Congratulations on Silver and Silver Bound Bonus!! You lead your team so well and I’m so honored to not only work with you, but also call you my friend. From Amy Bewley	false		
112-5670441-7725058	01976591475378	2020-08-04T03:27:34+00:00	2020-08-03T20:27:34-07:00	2020-08-05T01:03:08+00:00	2020-08-06T06:59:59+00:00	-1	ycb1q2yllj5jbbv@marketplace.amazon.com	Joseph Kennedy	+1 929-436-4790 ext. 18974	ABR0022	Purchase Now for Delivery by Thursday | Arabella Farm Direct Bouquet of 12 Fresh Cut Pink Roses with a Free Glass Vase	1	0	1	SecondDay	Mary Deane	5201 NE 24TH TER APT A112			FORT LAUDERDALE	FL	33308-3996	US		Happy Birthday Mary Have a fantastic 90th Birthday 🎂🎂🎂 Love ❤️ ya Joe and Cathy Kennedy	true		Business Price
114-5696292-4813064	45810945950410	2020-08-03T02:09:30+00:00	2020-08-02T19:09:30-07:00	2020-08-05T01:03:16+00:00	2020-08-06T06:59:59+00:00	-1	nnqm54mzqb1j7dz@marketplace.amazon.com	Cyndi	+1 929-436-4790 ext. 92594	ABR0033	Purchase Now for Delivery by Wednesday | Arabella Farm Direct Bouquet of 12 Fresh Cut Orange Roses with a Free Glass Vase	1	0	1	SecondDay	Tammy Brantley	1409 CLAIBORNE LN			ALEDO	TX	76008-5806	US		Happy early birthday! I know you’re tying up business, and we may or may not be able to get together. I love you bunches! From Cyndi	false		
112-3208232-0253855	04112412890546	2020-08-03T00:07:10+00:00	2020-08-02T17:07:10-07:00	2020-08-05T01:03:17+00:00	2020-08-06T06:59:59+00:00	-1	g6s6mx2gy233s9x@marketplace.amazon.com	Xander Crow	+1 929-436-4790 ext. 89202	ABR012	Arabella Farm Direct Bouquet of 18 Fresh Cut Pink Roses with a Free Glass Vase	1	0	1	SecondDay	Alexander Crow	3020 W FARM ROAD 164 APT H17			SPRINGFIELD	MO	65807-8834	US		You CAN do this! You Are YENİLMEZ!! From Prensim, Nima	false		
113-2971045-9489800	36924664177402	2020-08-03T20:57:16+00:00	2020-08-03T13:57:16-07:00	2020-08-05T01:03:20+00:00	2020-08-06T06:59:59+00:00	-1	7m8j9732qqssfjd@marketplace.amazon.com	Leonid Afanasyev	+1 929-436-4790 ext. 14801	ABR0022	Purchase Now for Delivery by Thursday | Arabella Farm Direct Bouquet of 12 Fresh Cut Pink Roses with a Free Glass Vase	1	0	1	SecondDay	Svetlana Zimbovskiy	21296 DAVISON AVE PORT			PORT CHARLOTTE	FL	33954-3818	US		Dear sis😃Get better soon !!!! We love you so much😘😘❤️Enjoy your gift 💝 From Olia &Leo	false		
111-3509324-1984243	01587914179562	2020-08-05T01:16:51+00:00	2020-08-04T18:16:51-07:00	2020-08-05T01:32:42+00:00	2020-08-06T06:59:59+00:00	-1	lgqg9lnf5xrl56j@marketplace.amazon.com	SARA	+1 929-436-4790 ext. 06761	ABR012	Purchase Now for Delivery by Friday | Arabella Farm Direct Bouquet of 18 Fresh Cut Pink Roses with a Free Glass Vase	1	0	1	SecondDay	Claudia,Maya,Erick	3525 NW SUNSET VIEW TER			PORTLAND	OR	97229-8320	US		We are very lucky to have friends like you.Our deepest gratitude for all your help!.Gracias. From Osorio Family.	false		
111-4260948-0783462	20751362583082	2020-08-05T01:11:59+00:00	2020-08-04T18:11:59-07:00	2020-08-05T01:40:50+00:00	2020-08-07T06:59:59+00:00	-2	fq4q6j9gmmwln09@marketplace.amazon.com	Jerelyn Kirby	+1 929-436-4790 ext. 40685	ABR0022	Purchase Now for Delivery by Friday | Arabella Farm Direct Bouquet of 12 Fresh Cut Pink Roses with a Free Glass Vase	1	0	1	Expedited	Mrs. Faith Mackey	2382 CAMDEN TER			THE VILLAGES	FL	32162-2035	US		Happy Belated Birthday Yoga Buddy !  Enjoy ! Love You Yoga Mama xoxo From Jerelyn Kirby	false		
113-3838034-0890661	56475688441770	2020-08-05T01:27:30+00:00	2020-08-04T18:27:30-07:00	2020-08-05T01:56:48+00:00	2020-08-07T06:59:59+00:00	-2	y4j2c8nqrbryh1r@marketplace.amazon.com	Joy Nichols	+1 929-436-4790 ext. 03817	ABM010	Purchase Now for Delivery by Friday | The Spring Fling Bouquet by Arabella Bouquets with a Free Designer Glass Vase	1	0	1	Expedited	Sheila Kinney	5631 FALLSBROOK KNL NW			ACWORTH	GA	30101-7817	US		Hope today is a good day.  We love you!! From LA and Joy	false		
114-9515700-5313050	68285355484362	2020-08-05T01:32:32+00:00	2020-08-04T18:32:32-07:00	2020-08-05T02:08:16+00:00	2020-08-06T06:59:59+00:00	-1	9ft4cdyc6g31p7r@marketplace.amazon.com	Craig Samuels	+1 929-436-4790 ext. 69790	ABR0022	Purchase Now for Delivery by Friday | Arabella Farm Direct Bouquet of 12 Fresh Cut Pink Roses with a Free Glass Vase	1	0	1	SecondDay	Liz Loomis	5 SKYLINE DR			SACO	ME	04072-3119	US		Sorry I'm such a douche. I love you and always will.	false		
113-4382919-1973051	06779155334458	2020-08-05T01:43:05+00:00	2020-08-04T18:43:05-07:00	2020-08-05T02:11:16+00:00	2020-08-07T06:59:59+00:00	-2	t0tqwthh7q0chrx@marketplace.amazon.com	Giovanna Selca	+1 929-436-4790 ext. 95944	ABR0022	Purchase Now for Delivery by Friday | Arabella Farm Direct Bouquet of 12 Fresh Cut Pink Roses with a Free Glass Vase	1	0	1	Expedited	Brook Klopp	128 BENTLEY DR			HAWTHORNE	FL	32640-5738	US			false		
113-3721728-7485027	26286409890362	2020-08-05T02:00:34+00:00	2020-08-04T19:00:34-07:00	2020-08-05T02:17:40+00:00	2020-08-07T06:59:59+00:00	-2	lnnb8vgp64g4d5b@marketplace.amazon.com	Ann Fatzinger	+1 929-436-4790 ext. 75771	ABR001	Purchase Now for Delivery by Friday | Arabella Bouquets 12 Stems of Fresh Cut Red Roses in a Free Designer Glass Vase	1	0	1	Expedited	Nicole Pilewski	133 HEATHER DR			PITTSBURGH	PA	15209-1855	US		Enjoy the Roses baby girl. Have a great week, keep crushing it you badass!  Roses are red, violets are blue, you're so beautiful and I'm always thinking of you. From Ry	false		
112-3827410-8208220	01945119451906	2020-08-05T02:08:36+00:00	2020-08-04T19:08:36-07:00	2020-08-05T02:27:01+00:00	2020-08-06T06:59:59+00:00	-1	6xbvr921345prqv@marketplace.amazon.com	Laura Larocca	+1 929-436-4790 ext. 75843	ABR0055	Purchase Now for Delivery by Friday | Arabella Farm Direct Bouquet of 12 Stems of Fresh Cut Hot Pink Roses in a Free Designer Glass Vase	1	0	1	SecondDay	Maureen Henderson	2500 PEBBLE CREEK DR			LISLE	IL	60532-1199	US		Hi Maureen, Thank you for throwing the best going away party ever! Everything was absolutely perfect. I’m really gonna miss you, but we will stay in touch... PROMISE  Thank you for being such a great friend. Love and hugs, Lori	false		
112-5026965-2889841	49561700627730	2020-08-05T02:15:58+00:00	2020-08-04T19:15:58-07:00	2020-08-05T02:44:11+00:00	2020-08-06T06:59:59+00:00	-1	8tlhj21tlnfr97d@marketplace.amazon.com	Maribeth Story	+1 929-436-4790 ext. 32181	ABR0022	Purchase Now for Delivery by Friday | Arabella Farm Direct Bouquet of 12 Fresh Cut Pink Roses with a Free Glass Vase	1	0	1	SecondDay	Melanie Delph	16611 CEDAR MANOR CT			CYPRESS	TX	77429-4979	US		Melanie,  You are done!!  I’m ringing a bell for you! With love, From Maribeth Story	false		
114-5175040-4061840	63227140168498	2020-08-05T02:15:37+00:00	2020-08-04T19:15:37-07:00	2020-08-05T02:45:04+00:00	2020-08-07T06:59:59+00:00	-2	g7hh2gfft7ytf3m@marketplace.amazon.com	Alan Mcsween	+1 929-436-4790 ext. 07727	ABR001	Purchase Now for Delivery by Friday | Arabella Bouquets 12 Stems of Fresh Cut Red Roses in a Free Designer Glass Vase	1	0	1	Expedited	Brandi Watkins	206 S 1ST ST			JASPER	MO	64755-6502	US			false		
112-5773208-7797055	45186236022434	2020-08-05T02:32:04+00:00	2020-08-04T19:32:04-07:00	2020-08-05T02:55:13+00:00	2020-08-06T06:59:59+00:00	-1	l0343fq3zvdq3bm@marketplace.amazon.com	Brianna Cain	+1 929-436-4790 ext. 33106	ABR001	Purchase Now for Delivery by Friday | Arabella Bouquets 12 Stems of Fresh Cut Red Roses in a Free Designer Glass Vase	1	0	1	SecondDay	Brianna Cain	7818 S MAY ST UNIT 2			CHICAGO	IL	60620-2939	US			false		
113-8038847-2720218	55210019365786	2020-08-05T03:24:05+00:00	2020-08-04T20:24:05-07:00	2020-08-05T03:51:27+00:00	2020-08-06T06:59:59+00:00	-1	4m80vxcgrghv6fs@marketplace.amazon.com	holly k crosser	+1 929-436-4790 ext. 31442	ABR0033	Purchase Now for Delivery by Friday | Arabella Farm Direct Bouquet of 12 Fresh Cut Orange Roses with a Free Glass Vase	1	0	1	SecondDay	Gayle Belle	9013 TUXPAN ST			LAS VEGAS	NV	89131-3929	US		HAPPY BRITDAY MOM / GRANDMA!  WE HOPE YOU HAVE A WONDERFUL DAY! WISH WERE WERE THERE TO CELEBRATE!  LOVE AND MISS YOU! HOLLY & BRENDEN From HOLLY BELLE	false		
114-3885859-1066641	45715055363634	2020-08-05T03:34:24+00:00	2020-08-04T20:34:24-07:00	2020-08-05T04:04:48+00:00	2020-08-07T06:59:59+00:00	-2	y166c3yjvbtbm2j@marketplace.amazon.com	christina freed	+1 929-436-4790 ext. 34671	ABR0055	Purchase Now for Delivery by Friday | Arabella Farm Direct Bouquet of 12 Stems of Fresh Cut Hot Pink Roses in a Free Designer Glass Vase	1	0	1	Expedited	christina freed	309 N BEST AVE			WALNUTPORT	PA	18088-1206	US			false		
113-1080518-1005846	68280266151514	2020-08-05T03:46:26+00:00	2020-08-04T20:46:26-07:00	2020-08-05T04:10:04+00:00	2020-08-06T06:59:59+00:00	-1	xkrh1ylm8vyl95t@marketplace.amazon.com	tony browning	+1 929-436-4790 ext. 40636	ABM024	The Beauty of Color Bouquet by Arabella Bouquets	1	0	1	SecondDay	Lana Hewison	4890 JUNEBERRY CT			SAN DIEGO	CA	92123-6436	US			false		
112-7054115-5767426	27088439203618	2020-08-05T03:56:55+00:00	2020-08-04T20:56:55-07:00	2020-08-05T04:18:12+00:00	2020-08-06T06:59:59+00:00	-1	mh5fdr8400xz12y@marketplace.amazon.com	Samantha	+1 929-436-4790 ext. 59906	ABR014	Arabella Bouquets 18 Stems of Fresh Cut White Roses in a Free Designer Glass Vase	1	0	1	SecondDay	Susan Gallardo	1112 S BROADWAY			SANTA ANA	CA	92707-1206	US			false		
111-4977892-2021059	63218058305906	2020-08-05T04:26:41+00:00	2020-08-04T21:26:41-07:00	2020-08-05T04:53:37+00:00	2020-08-06T06:59:59+00:00	-1	8rfb542mglj7s7k@marketplace.amazon.com	Scott Alan Yost	+1 929-436-4790 ext. 88116	ABR0022	Purchase Now for Delivery by Friday | Arabella Farm Direct Bouquet of 12 Fresh Cut Pink Roses with a Free Glass Vase	1	0	1	SecondDay	Scott Yost	819 ESSLINGER RD SE			HUNTSVILLE	AL	35802-3649	US		Happy Anniversary ! From Your Son Scott	false		
114-3570933-9773060	40028747479634	2020-08-05T04:34:23+00:00	2020-08-04T21:34:23-07:00	2020-08-05T05:03:24+00:00	2020-08-06T06:59:59+00:00	-1	bzx3rktvzxr3thz@marketplace.amazon.com	Nicholas Mickowski	+1 929-436-4790 ext. 21367	ABM010	Purchase Now for Delivery by Friday | The Spring Fling Bouquet by Arabella Bouquets with a Free Designer Glass Vase	1	0	1	SecondDay	Linda Mickowski	404 FAIRLEA RD			ORANGE	CT	06477-3413	US			false		
111-9259878-1004239	27839043663554	2020-08-04T04:37:23+00:00	2020-08-03T21:37:23-07:00	2020-08-05T05:08:51+00:00	2020-08-06T06:59:59+00:00	-1	klx17z9qmgkczml@marketplace.amazon.com	laura	+1 929-436-4790 ext. 80814	ABR0022	Purchase Now for Delivery by Thursday | Arabella Farm Direct Bouquet of 12 Fresh Cut Pink Roses with a Free Glass Vase	1	0	1	SecondDay	Veronica O'Connor	25258 MONROE ROAD 519			STOUTSVILLE	MO	65283-2059	US		Auntie V- I’m sorry I’m late. But figured you had all kinds of flowers last week, now here’s a fresh bunch for this week. I hope you had an amazing birthday!!! I love you. From Love, Laura	false		
111-7892518-8768220	65671248589474	2020-08-04T04:30:59+00:00	2020-08-03T21:30:59-07:00	2020-08-05T05:09:54+00:00	2020-08-06T06:59:59+00:00	-1	klx17z9qmgkczml@marketplace.amazon.com	laura	+1 929-436-4790 ext. 07183	ABM010	The Spring Fling Bouquet by Arabella Bouquets with a Free Designer Glass Vase	1	0	1	SecondDay	Marty Diodati	74420 MOUNTAIN VISTA DR			INDIAN WELLS	CA	92210-7340	US		Hi Mom, We just wanted to tell you we love you. I’m praying for speedy recovery so you can come back up and stay. We miss you guys. Love, Laura & Kirk	false		
114-9933364-0753808	12506454628962	2020-08-05T04:57:03+00:00	2020-08-04T21:57:03-07:00	2020-08-05T05:19:30+00:00	2020-08-06T06:59:59+00:00	-1	xczrq8cbxhgrmwg@marketplace.amazon.com	Mike McClure	+1 929-436-4790 ext. 45553	ABR0033	Purchase Now for Delivery by Friday | Arabella Farm Direct Bouquet of 12 Fresh Cut Orange Roses with a Free Glass Vase	1	0	1	SecondDay	The McClure's	5542 N STATE ROUTE 48			LEBANON	OH	45036-9477	US		We have had to have some hard discussions and we will have some more to come.  This is just to brighten your day. From Mike McClure	false		
114-1956450-9890638	27416547515338	2020-08-05T04:57:23+00:00	2020-08-04T21:57:23-07:00	2020-08-05T05:24:10+00:00	2020-08-06T06:59:59+00:00	-1	3dyxxrl1nrvxh21@marketplace.amazon.com	Aaron Wilson	+1 929-436-4790 ext. 45788	ABR004	Arabella Farm Direct Bouquet of 12 Fresh Cut Yellow Roses with a Free Glass Vase	1	0	1	SecondDay	Miriam Wilson	324 WASHINGTON ST			LAWTON	MI	49065-9775	US		Happy birthday!! Love you! From Aaron	false		
112-9362029-8781009	50036920169386	2020-08-05T05:01:43+00:00	2020-08-04T22:01:43-07:00	2020-08-05T05:30:10+00:00	2020-08-06T06:59:59+00:00	-1	ctkxzk6qsxvr4w5@marketplace.amazon.com	Sergey Sobolev	+1 929-436-4790 ext. 16890	ABR012	Purchase Now for Delivery by Friday | Arabella Farm Direct Bouquet of 18 Fresh Cut Pink Roses with a Free Glass Vase	1	0	1	SecondDay	Evgenia Fukshansky	1697 SHENANDOAH DR			CLAREMONT	CA	91711-2940	US		Dear children, Happy Anniversary! From Parents from the East Coast	false		
114-4847988-4825847	07456165248722	2020-08-05T05:05:18+00:00	2020-08-04T22:05:18-07:00	2020-08-05T05:32:24+00:00	2020-08-06T06:59:59+00:00	-1	xczrq8cbxhgrmwg@marketplace.amazon.com	Mike McClure	+1 929-436-4790 ext. 46870	ABR0022	Purchase Now for Delivery by Friday | Arabella Farm Direct Bouquet of 12 Fresh Cut Pink Roses with a Free Glass Vase	1	0	1	SecondDay	Deputy Eileen Dilbone	808 CHERRY HILL LN			LEBANON	OH	45036-8285	US		Eileen,  I hope these area  calming influence.  They should help with the next issue with the 'rents.  I want to know that I do appreciate all you have done and will do in the future. From Mike McClure	false		
111-4793195-6853810	13562499197346	2020-08-05T05:45:45+00:00	2020-08-04T22:45:45-07:00	2020-08-05T06:13:19+00:00	2020-08-06T06:59:59+00:00	-1	0x04s16v7yg452l@marketplace.amazon.com	Daniel Ponickly	+1 929-436-4790 ext. 36863	ABR004	Arabella Farm Direct Bouquet of 12 Fresh Cut Yellow Roses with a Free Glass Vase	1	0	1	SecondDay	Stella Ponickly	19961 BARLETTA LN UNIT 1626			ESTERO	FL	33928-7307	US		Happy Birthday! Love from Daniel, Zoe, and Magdalinska. From Daniel Ponickly	false		
112-6125131-2413852	32619608571338	2020-08-04T06:35:20+00:00	2020-08-03T23:35:20-07:00	2020-08-05T07:06:40+00:00	2020-08-06T06:59:59+00:00	-1	h47jpmyngl30kmd@marketplace.amazon.com	homer eliazadeh	+1 929-436-4790 ext. 51928	ABR001	Purchase Now for Delivery by Thursday | Arabella Bouquets 12 Stems of Fresh Cut Red Roses in a Free Designer Glass Vase	1	0	1	SecondDay	Mina Anwar	1717 IMSHU CT			HUGHSON	CA	95326-9495	US		Pretty flowers for the Prettiest girl in the World! ❤️❤️❤️😘😘😘 From homer eliazadeh	false		
112-1357932-5246666	57620449823178	2020-08-05T07:56:16+00:00	2020-08-05T00:56:16-07:00	2020-08-05T08:26:25+00:00	2020-08-08T06:59:59+00:00	-3	pm65kfvs4j7qdsw@marketplace.amazon.com	TJ	+1 929-436-4790 ext. 41792	ABR0055	Purchase Now for Delivery by Friday | Arabella Farm Direct Bouquet of 12 Stems of Fresh Cut Hot Pink Roses in a Free Designer Glass Vase	1	0	1	Expedited	Robin	1819 DENSTONE PL			LEMON GROVE	CA	91945-3432	US			false		
112-8923774-2261815	12737053184450	2020-08-05T09:42:24+00:00	2020-08-05T02:42:24-07:00	2020-08-05T10:05:22+00:00	2020-08-06T06:59:59+00:00	-1	p3jpmtmj4tcb77z@marketplace.amazon.com	Noretta Gatewood	+1 929-436-4790 ext. 38747	ABR0055	Purchase Now for Delivery by Friday | Arabella Farm Direct Bouquet of 12 Stems of Fresh Cut Hot Pink Roses in a Free Designer Glass Vase	1	0	1	SecondDay	Ms Rose Simpson	6203 WILL WALTERS RD	GRANBURY TEXAS 76048		GRANBURY	TX	76048-7545	US		Enjoy your gift!, Happy b day From Noretta Gatewood	false		
113-5721587-3178636	39497627850970	2020-08-05T09:56:36+00:00	2020-08-05T02:56:36-07:00	2020-08-05T10:26:30+00:00	2020-08-06T06:59:59+00:00	-1	k7q4mh472jp91v1@marketplace.amazon.com	shubhi	+1 929-436-4790 ext. 05689	ABR0022	Purchase Now for Delivery by Friday | Arabella Farm Direct Bouquet of 12 Fresh Cut Pink Roses with a Free Glass Vase	1	0	1	SecondDay	Shivi Kishwan	1820 PEACHTREE ST NW UNIT 1002			ATLANTA	GA	30309-1899	US		Happy birthday. Hope you have/had a great one.  Cannot trust promised delivery times From shubhi	false		
111-9178075-4038626	48067149943642	2020-08-05T10:11:45+00:00	2020-08-05T03:11:45-07:00	2020-08-05T10:42:21+00:00	2020-08-08T06:59:59+00:00	-3	hb2ntmy74z44g6m@marketplace.amazon.com	Taylor	+1 929-436-4790 ext. 39087	ABR0022	Purchase Now for Delivery by Friday | Arabella Farm Direct Bouquet of 12 Fresh Cut Pink Roses with a Free Glass Vase	1	0	1	Expedited	Susan Yager	607 NW TIMBERBROOKE DR			LEES SUMMIT	MO	64081-2039	US			false		
111-6581868-7510625	24538275230274	2020-08-05T10:47:49+00:00	2020-08-05T03:47:49-07:00	2020-08-05T11:16:47+00:00	2020-08-06T06:59:59+00:00	-1	glwzlck86d0w0hz@marketplace.amazon.com	Steve Cordovani	+1 929-436-4790 ext. 76692	ABR0022	Purchase Now for Delivery by Friday | Arabella Farm Direct Bouquet of 12 Fresh Cut Pink Roses with a Free Glass Vase	1	0	1	SecondDay	Hannah Drexler	724 S SAINT ASAPH ST # WB311			ALEXANDRIA	VA	22314-4349	US		You mean so much to me, i just wanted you to know that! From XOXO SC	false		
113-7619251-8837008	26190490394434	2020-08-05T02:54:43+00:00	2020-08-04T19:54:43-07:00	2020-08-05T12:44:51+00:00	2020-08-08T06:59:59+00:00	-3	dsmv5db4vv0jqt3@marketplace.amazon.com	Robbin	+1 929-436-4790 ext. 62092	ABR0033	Purchase Now for Delivery by Friday | Arabella Farm Direct Bouquet of 12 Fresh Cut Orange Roses with a Free Glass Vase	1	0	1	Expedited	Grace Tiffany	54 WINTERGREEN DR			BREVARD	NC	28712-9107	US		Happy BIrthday! From Karin and Mel with Love!	false		
111-5189929-8854645	36447179580146	2020-08-05T12:18:33+00:00	2020-08-05T05:18:33-07:00	2020-08-05T12:48:19+00:00	2020-08-06T06:59:59+00:00	-1	2kjvdyfpfbc99yn@marketplace.amazon.com	Carol J. Robb	+1 929-436-4790 ext. 79095	ABR011	Purchase Now for Delivery by Friday | Arabella Bouquets 18 Stems of Fresh Cut Red Roses in a Free Glass Vase	1	0	1	SecondDay	Barbara Katz	2462 N LAKE DR			MILWAUKEE	WI	53211-4509	US			false		
112-4874626-3525038	36725738220706	2020-08-05T12:25:50+00:00	2020-08-05T05:25:50-07:00	2020-08-05T12:56:28+00:00	2020-08-08T06:59:59+00:00	-3	9v88q1lf4p87crw@marketplace.amazon.com	NiK	+1 929-436-4790 ext. 71953	ABM010	Purchase Now for Delivery by Friday | The Spring Fling Bouquet by Arabella Bouquets with a Free Designer Glass Vase	1	0	1	Expedited	Nicholas Molina	636 DECLARATION RD			VIRGINIA BEACH	VA	23462-2253	US			false		
113-8126516-7885869	47352806628722	2020-08-05T12:28:32+00:00	2020-08-05T05:28:32-07:00	2020-08-05T12:57:31+00:00	2020-08-06T06:59:59+00:00	-1	kzw0k6g020ysz2b@marketplace.amazon.com	Lauren Boden	+1 929-436-4790 ext. 90380	ABR0022	Purchase Now for Delivery by Friday | Arabella Farm Direct Bouquet of 12 Fresh Cut Pink Roses with a Free Glass Vase	1	0	1	SecondDay	Mrs Chris Caron	2301 JUNIPER CIR			NORTH ANDOVER	MA	01845-6386	US		Happy birthday Mrs. Caron. I hope you have a great birthday From Love Luke	false		
112-8326666-1080262	08543116428658	2020-08-05T12:39:23+00:00	2020-08-05T05:39:23-07:00	2020-08-05T13:08:44+00:00	2020-08-06T06:59:59+00:00	-1	zwc1br8j7l2q4fr@marketplace.amazon.com	Vonna cranston	+1 929-436-4790 ext. 08358	ABR0022	Purchase Now for Delivery by Friday | Arabella Farm Direct Bouquet of 12 Fresh Cut Pink Roses with a Free Glass Vase	1	0	1	SecondDay	Judy Standard	2601 PRESTON RD APT 5103			PLANO	TX	75093-3584	US		Enjoy your gift! From Vonna cranston	false		
111-3589557-7504205	56998748982714	2020-08-05T12:50:25+00:00	2020-08-05T05:50:25-07:00	2020-08-05T13:20:56+00:00	2020-08-08T06:59:59+00:00	-3	v28z2rg3fllhzc8@marketplace.amazon.com	Irene Thomas	+1 929-436-4790 ext. 57925	ABR0055	Purchase Now for Delivery by Friday | Arabella Farm Direct Bouquet of 12 Stems of Fresh Cut Hot Pink Roses in a Free Designer Glass Vase	1	0	1	Expedited	Wanita Thomas	3850 N STATE ROUTE 89 UNIT 351			PRESCOTT	AZ	86301-8454	US			false		
111-2801751-6306610	28391027223298	2020-08-05T12:57:51+00:00	2020-08-05T05:57:51-07:00	2020-08-05T13:27:55+00:00	2020-08-06T06:59:59+00:00	-1	ys6lywrs1msqwbg@marketplace.amazon.com	Darcy Paul	+1 929-436-4790 ext. 35027	ABR0022	Purchase Now for Delivery by Friday | Arabella Farm Direct Bouquet of 12 Fresh Cut Pink Roses with a Free Glass Vase	1	0	1	SecondDay	Diane Yeo	1310 W MADISON ST APT 203			SIOUX FALLS	SD	57104-2119	US			false		
111-8086822-2577859	35959209950682	2020-08-05T13:25:43+00:00	2020-08-05T06:25:43-07:00	2020-08-05T13:53:23+00:00	2020-08-06T06:59:59+00:00	-1	pjrmjc5nv0tb26y@marketplace.amazon.com	N Patrice Brusko	+1 929-436-4790 ext. 53026	ABR0022	Purchase Now for Delivery by Friday | Arabella Farm Direct Bouquet of 12 Fresh Cut Pink Roses with a Free Glass Vase	1	0	1	SecondDay	Shaleese Duaime	48 CHESTNUT ST			WOODBURY	NJ	08096-1625	US		Shaleese, I am so sorry for the loss of your grandmother. My thoughts are with you and your family.  Love, Patrice From N Patrice Brusko	false		
111-2312085-3489006	60175654206354	2020-08-05T13:34:48+00:00	2020-08-05T06:34:48-07:00	2020-08-05T14:04:05+00:00	2020-08-06T06:59:59+00:00	-1	pjrmjc5nv0tb26y@marketplace.amazon.com	N Patrice Brusko	+1 929-436-4790 ext. 93487	ABM010	Purchase Now for Delivery by Friday | The Spring Fling Bouquet by Arabella Bouquets with a Free Designer Glass Vase	1	0	1	SecondDay	Shaleese Duaime	48 CHESTNUT ST			WOODBURY	NJ	08096-1625	US		Shaleese, we are so sorry for the loss of your grandmother. Your friends at TD Bank From N Patrice Brusko	false		
111-9575250-3825022	27123902237794	2020-08-05T13:39:13+00:00	2020-08-05T06:39:13-07:00	2020-08-05T14:07:17+00:00	2020-08-06T06:59:59+00:00	-1	ggfy4rpvvn896yl@marketplace.amazon.com	Wendy Evangeline Ryan	+1 929-436-4790 ext. 31955	ABM010	Purchase Now for Delivery by Friday | The Spring Fling Bouquet by Arabella Bouquets with a Free Designer Glass Vase	1	0	1	SecondDay	Audra Ryan Jones	15038 WALKING STICK WAY			HAYMARKET	VA	20169-3115	US		Sending lots of love to Haymarket. Miss you all dearly! From Wendy Evangeline Ryan	false		
113-2515085-8424223	35801330838218	2020-08-05T13:53:40+00:00	2020-08-05T06:53:40-07:00	2020-08-05T14:23:59+00:00	2020-08-06T06:59:59+00:00	-1	pqpch1yk8zmdh63@marketplace.amazon.com	cindy jesse	+1 929-436-4790 ext. 30971	ABR0066	Arabella Bouquets 12 Stems of Fresh Cut White Roses in a Free Designer Glass Vase	1	0	1	SecondDay	Michael and Elisabethe Rehfeldt	155 WINDERMERE AVE UNIT 1203			ELLINGTON	CT	06029-5809	US			false		
111-8382152-8202630	01474790614762	2020-08-05T14:10:10+00:00	2020-08-05T07:10:10-07:00	2020-08-05T14:32:51+00:00	2020-08-06T06:59:59+00:00	-1	ybj469c1pmckf4v@marketplace.amazon.com	Brenda J. Greco	+1 929-436-4790 ext. 70390	ABR0022	Purchase Now for Delivery by Friday | Arabella Farm Direct Bouquet of 12 Fresh Cut Pink Roses with a Free Glass Vase	1	0	1	SecondDay	Mr and Mrs Al Landes	4707 S LAKEWOOD DR			SAINT JOSEPH	MO	64506-4599	US			false		
112-0188270-6845856	26696396862706	2020-08-05T14:22:53+00:00	2020-08-05T07:22:53-07:00	2020-08-05T14:51:06+00:00	2020-08-06T06:59:59+00:00	-1	lp591mxqzgdjp99@marketplace.amazon.com	Ng Family Account	+1 929-436-4790 ext. 12027	ABR0022	Purchase Now for Delivery by Friday | Arabella Farm Direct Bouquet of 12 Fresh Cut Pink Roses with a Free Glass Vase	1	0	1	SecondDay	Laura Ng	10 PROVOST ST  PH2			JERSEY CITY	NJ	07302-5644	US		We love and appreciate you! From Ng Family Account	false		
113-4006728-9421024	03020168461322	2020-08-05T14:51:40+00:00	2020-08-05T07:51:40-07:00	2020-08-05T15:19:51+00:00	2020-08-06T06:59:59+00:00	-1	hywt5s8rvzhyz9m@marketplace.amazon.com	Chammi	+1 929-436-4790 ext. 46497	ABR004	Arabella Farm Direct Bouquet of 12 Fresh Cut Yellow Roses with a Free Glass Vase	1	0	1	SecondDay	Inna Hefley	6205 PELHAM CT			BRYAN	TX	77802-6059	US		Wish you a fabulous birthday with love and hugs! From Chammi	false		
114-0389951-8630658	24342995109346	2020-08-05T14:52:23+00:00	2020-08-05T07:52:23-07:00	2020-08-05T15:21:12+00:00	2020-08-06T06:59:59+00:00	-1	frv47gwmggj2gr9@marketplace.amazon.com	beth blik	0019174416927	ABR0022	Purchase Now for Delivery by Friday | Arabella Farm Direct Bouquet of 12 Fresh Cut Pink Roses with a Free Glass Vase	1	0	1	SecondDay	Cornelia Blik	320 W 87TH ST PH APT			NEW YORK	NY	10024-2626	US		Happy anniversary to my dearest Daughter  and son in law   I hope you have many many more years of joy love and happiness   Cxxx From beth blik	false		
112-9700715-2369829	17445631445426	2020-08-05T15:05:42+00:00	2020-08-05T08:05:42-07:00	2020-08-05T15:33:58+00:00	2020-08-06T06:59:59+00:00	-1	2yy6m93l29y85py@marketplace.amazon.com	Nate Nylander	+1 929-436-4790 ext. 84741	ABR0022	Purchase Now for Delivery by Friday | Arabella Farm Direct Bouquet of 12 Fresh Cut Pink Roses with a Free Glass Vase	1	0	1	SecondDay	Rachel Mastro	5082 NORTH ST			SOMIS	CA	93066-9527	US			false		
