order-id	order-item-id	purchase-date	payments-date	reporting-date	promise-date	days-past-promise	buyer-email	buyer-name	buyer-phone-number	sku	product-name	quantity-purchased	quantity-shipped	quantity-to-ship	ship-service-level	recipient-name	ship-address-1	ship-address-2	ship-address-3	ship-city	ship-state	ship-postal-code	ship-country	gift-wrap-type	gift-message-text	is-business-order	purchase-order-number	price-designation
112-7838293-4813856	43965966322986	2020-08-05T17:59:06+00:00	2020-08-05T10:59:06-07:00	2020-08-05T18:23:03+00:00	2020-08-08T06:59:59+00:00	-2	gxc65kwqdm6pgjd@marketplace.amazon.com	Angela Young	+1 929-436-4790 ext. 39028	ABR012	Purchase Now for Delivery by Monday | Arabella Farm Direct Bouquet of 18 Fresh Cut Pink Roses with a Free Glass Vase	1	0	1	Expedited	Alice Shaut	5239 PORTLAND ST APT 103			COLUMBUS	OH	43235-7672	US		I have been thinking of you lately. I hope this brings good cheer. You will always be Aunt Alice. Thanks for the great summers of the past. From Angela (Hayden) Young	false		
111-8257705-8160227	66326375028498	2020-08-05T18:08:32+00:00	2020-08-05T11:08:32-07:00	2020-08-05T18:37:20+00:00	2020-08-08T06:59:59+00:00	-2	jj3f3dn7fjmtvgb@marketplace.amazon.com	Elena Malahina	+1 929-436-4790 ext. 90392	ABR0022	Purchase Now for Delivery by Monday | Arabella Farm Direct Bouquet of 12 Fresh Cut Pink Roses with a Free Glass Vase	1	0	1	Expedited	Kate Malahina	806 PALMETTO TER			OVIEDO	FL	32765-9463	US		Happy birthday! From Elena and John	false		
111-2622726-9887463	35911672608482	2020-08-05T19:15:30+00:00	2020-08-05T12:15:30-07:00	2020-08-05T19:42:48+00:00	2020-08-08T06:59:59+00:00	-2	rtjjhzdl28832hd@marketplace.amazon.com	deborah barton	+1 929-436-4790 ext. 94786	ABR0022	Purchase Now for Delivery by Monday | Arabella Farm Direct Bouquet of 12 Fresh Cut Pink Roses with a Free Glass Vase	1	0	1	Expedited	DONNA GLOGOWSKI	102 ARROWHEAD LN			O FALLON	IL	62269-1241	US		Dear Donna, thinking of you during these sad days. You must miss Dick terribly, especially after so many years of marriage. I do hope your many, many sweet memories give you some comfort and peace. Much love, From Debby and Dave	false		
113-4513478-0376264	49319316745410	2020-08-05T20:41:56+00:00	2020-08-05T13:41:56-07:00	2020-08-05T21:10:09+00:00	2020-08-08T06:59:59+00:00	-2	4n84hvyxqmhbvsx@marketplace.amazon.com	Saviour	+1 929-436-4790 ext. 39010	ABR001	Purchase Now for Delivery by Monday | Arabella Bouquets 12 Stems of Fresh Cut Red Roses in a Free Designer Glass Vase	1	0	1	Expedited	Alice Atkins	106 PAYNE ST CARAWAY AR 72419			CARAWAY	AR	72419-8621	US		I am so sorry please give me the chance to explain , please I beg you in God’s name  Read your Email as well I sent you an email From Mark	false		
113-4711289-1124221	22020671655402	2020-08-05T21:09:22+00:00	2020-08-05T14:09:22-07:00	2020-08-05T21:10:14+00:00	2020-08-08T06:59:59+00:00	-2	1jtgt16j875py6w@marketplace.amazon.com	Michael A Classen	+1 929-436-4790 ext. 08834	ABR001	Purchase Now for Delivery by Monday | Arabella Bouquets 12 Stems of Fresh Cut Red Roses in a Free Designer Glass Vase	1	0	1	Expedited	Jane Jarrow	2938 NORTHWEST BLVD			COLUMBUS	OH	43221-2902	US		Jane, We look forward to your time with us on Thursday! From WINAHEAD  Board	false		
114-3609848-1076215	46930953194210	2020-08-05T21:29:37+00:00	2020-08-05T14:29:37-07:00	2020-08-05T21:57:00+00:00	2020-08-08T06:59:59+00:00	-2	kj7gxly7215s6ls@marketplace.amazon.com	Christine Brown	+1 929-436-4790 ext. 21995	ABM010	Purchase Now for Delivery by Monday | The Spring Fling Bouquet by Arabella Bouquets with a Free Designer Glass Vase	1	0	1	Expedited	Sharon Fancher	432 BEARKILL RD			GILBOA	NY	12076-3516	US		Surrounding you with hugs, love and comfort.  All our Love, Sharon and Carolyn From Sharon and Carolyn	false		
112-3131020-7257846	14198803315498	2020-08-05T21:52:28+00:00	2020-08-05T14:52:28-07:00	2020-08-05T22:18:23+00:00	2020-08-08T06:59:59+00:00	-2	y6pgdq2s75yz3sl@marketplace.amazon.com	Robert	+1 929-436-4790 ext. 74249	ABR001	Purchase Now for Delivery by Monday | Arabella Bouquets 12 Stems of Fresh Cut Red Roses in a Free Designer Glass Vase	1	0	1	Expedited	Mary Ann	112 BROOKFIELD CROSSING DR			LAKE SAINT LOUIS	MO	63367-4410	US		I will always love you. From Robert	false		
113-7092884-8126617	25139436583554	2020-08-05T22:00:17+00:00	2020-08-05T15:00:17-07:00	2020-08-05T22:20:20+00:00	2020-08-08T06:59:59+00:00	-2	d1z3m09n81snwqc@marketplace.amazon.com	Handsome Homeless	+1 929-436-4790 ext. 82601	ABM010	Purchase Now for Delivery by Monday | The Spring Fling Bouquet by Arabella Bouquets with a Free Designer Glass Vase	1	0	1	Expedited	Paula Diepolder	201 ARNO ST NE APT 404			ALBUQUERQUE	NM	87102-4479	US			false		
112-6682389-4187417	27444283213194	2020-08-05T21:59:57+00:00	2020-08-05T14:59:57-07:00	2020-08-05T22:23:17+00:00	2020-08-08T06:59:59+00:00	-2	2dh2fb535092v2h@marketplace.amazon.com	Bruk	+1 929-436-4790 ext. 90026	ABR001	Purchase Now for Delivery by Monday | Arabella Bouquets 12 Stems of Fresh Cut Red Roses in a Free Designer Glass Vase	1	0	1	Expedited	Katlego Mashilo	11649 MAYFIELD AVE APT 1A			LOS ANGELES	CA	90049-5778	US		Hey Wifey☺️💎 - Happiest Birthday to you🎉. I just want to wish you an absolutely amazing new year. I pray that God will surpass what He thought He could ever do for you. I love you and miss you so much. ♥️ Habakkuk 1:5♥️ From Nokz	false		
111-0091489-2421803	47600268338570	2020-08-05T22:16:33+00:00	2020-08-05T15:16:33-07:00	2020-08-05T22:39:11+00:00	2020-08-08T06:59:59+00:00	-2	r3jgxq0pbkm89jl@marketplace.amazon.com	Pramod K Jain	+1 929-436-4790 ext. 39184	ABR013	Purchase Now for Delivery by Monday | Arabella Farm Direct Bouquet of 18 Fresh Cut Yellow Roses with a Free Glass Vase	1	0	1	Expedited	Ms. Lynn Campbell	19389 ROSCOMMON ST			HARPER WOODS	MI	48225-2117	US		Dearest Lynn, To The Best Boss Ever!!!! Good Luck with your new job. From Preeti & Madhu From Preeti & Madhu	false		
111-8818988-9859430	34129495890762	2020-08-05T23:54:02+00:00	2020-08-05T16:54:02-07:00	2020-08-06T00:18:02+00:00	2020-08-08T06:59:59+00:00	-2	pz4w2dnzbvmjl28@marketplace.amazon.com	monica	+1 929-436-4790 ext. 46612	ABR0022	Purchase Now for Delivery by Monday | Arabella Farm Direct Bouquet of 12 Fresh Cut Pink Roses with a Free Glass Vase	1	0	1	Expedited	Angie Voreis Lee	7709 W LAKE ST			ST LOUIS PARK	MN	55426-4327	US		Dear Greta! Welcome to the world.  We love you, Monica and Carissa From monica and Carissa	false		
112-9222928-2285813	03577890078746	2020-08-06T00:09:57+00:00	2020-08-05T17:09:57-07:00	2020-08-06T00:35:32+00:00	2020-08-08T06:59:59+00:00	-2	8bzjbfyr3whfr9t@marketplace.amazon.com	Maria Lake	+1 929-436-4790 ext. 07283	ABR0022	Purchase Now for Delivery by Monday | Arabella Farm Direct Bouquet of 12 Fresh Cut Pink Roses with a Free Glass Vase	1	0	1	Expedited	Christine Bianchi	33 MILL RD			WHITING	NJ	08759-3257	US		Dear Mom,     Sorry I messed this up the first time! Enjoy them - now we have matching beautiful roses. Happy Birthday! Love you, Maria and Mario From Maria and Mario	false		
112-8948044-0885012	60402919506266	2020-08-06T00:19:09+00:00	2020-08-05T17:19:09-07:00	2020-08-06T00:49:32+00:00	2020-08-08T06:59:59+00:00	-2	xxn2n1d55lr49rh@marketplace.amazon.com	rickey bennett	+1 929-436-4790 ext. 14074	ABR004	Arabella Farm Direct Bouquet of 12 Fresh Cut Yellow Roses with a Free Glass Vase	1	0	1	Expedited	Rickey bennett	14814 WOODLAWN ST SW			LAKEWOOD	WA	98498-2350	US			false		
114-9166458-8402629	19664966619706	2020-08-06T00:51:17+00:00	2020-08-05T17:51:17-07:00	2020-08-06T01:13:22+00:00	2020-08-08T06:59:59+00:00	-2	9x9nhysj4b6byg7@marketplace.amazon.com	Ronald S. Michaud	+1 929-436-4790 ext. 37794	ABR001	Purchase Now for Delivery by Monday | Arabella Bouquets 12 Stems of Fresh Cut Red Roses in a Free Designer Glass Vase	1	0	1	Expedited	Ann & Reggie Cobb	32 SHORE RD			DEXTER	ME	04930-2222	US			false		
111-3106052-3297829	05235429142586	2020-08-06T01:19:07+00:00	2020-08-05T18:19:07-07:00	2020-08-06T01:22:02+00:00	2020-08-08T06:59:59+00:00	-2	6cc19ljkqgkcj30@marketplace.amazon.com	Collin Southworth	+1 929-436-4790 ext. 47991	ABR001	Purchase Now for Delivery by Monday | Arabella Bouquets 12 Stems of Fresh Cut Red Roses in a Free Designer Glass Vase	1	0	1	Expedited	Melissa Witt	399 WILLOW CT UNIT 1			INCLINE VILLAGE	NV	89451-8272	US		Beautiful flowers for a beautiful girl. I love you! From Collin Southworth	false		
114-3984989-4112265	29154346716818	2020-08-06T01:33:42+00:00	2020-08-05T18:33:42-07:00	2020-08-06T02:01:23+00:00	2020-08-08T06:59:59+00:00	-2	r5ps01jfdnjs0yk@marketplace.amazon.com	Maria Straus	+1 929-436-4790 ext. 32830	ABR0022	Purchase Now for Delivery by Monday | Arabella Farm Direct Bouquet of 12 Fresh Cut Pink Roses with a Free Glass Vase	1	0	1	Expedited	Hilda Lopez Varela	7963 SW 104TH ST APT A109			MIAMI	FL	33156-3667	US		Espero que estas flores te acompañe From Maria Straus	false		
111-6277675-5723443	33264108529378	2020-08-06T01:51:06+00:00	2020-08-05T18:51:06-07:00	2020-08-06T02:18:01+00:00	2020-08-08T06:59:59+00:00	-2	0njf4rwt2r17y8q@marketplace.amazon.com	Marvin Carter	+1 929-436-4790 ext. 01455	ABR0022	Purchase Now for Delivery by Monday | Arabella Farm Direct Bouquet of 12 Fresh Cut Pink Roses with a Free Glass Vase	1	0	1	Expedited	Cindy Bush	2716 CHURCH ST			QUANTICO	MD	21856-2501	US		Happy Birthday Babe, love you.  Marv From Marvin Carter	false		
114-1949857-4962648	59322898985322	2020-08-06T02:06:52+00:00	2020-08-05T19:06:52-07:00	2020-08-06T02:34:23+00:00	2020-08-08T06:59:59+00:00	-2	smg00l37kbpysq5@marketplace.amazon.com	Cindy	+1 929-436-4790 ext. 35483	ABR0033	Purchase Now for Delivery by Monday | Arabella Farm Direct Bouquet of 12 Fresh Cut Orange Roses with a Free Glass Vase	1	0	1	Expedited	Chris Festa	501 PONOKA ST			SEBASTIAN	FL	32958-4445	US		❤❤❤ Cindy From Cindy	false		
111-9520191-9111405	29506419264962	2020-08-06T02:10:02+00:00	2020-08-05T19:10:02-07:00	2020-08-06T02:40:38+00:00	2020-08-08T06:59:59+00:00	-2	6jmgwlq2d15cv48@marketplace.amazon.com	Grace Johnston	+1 929-436-4790 ext. 19650	ABR0022	Purchase Now for Delivery by Monday | Arabella Farm Direct Bouquet of 12 Fresh Cut Pink Roses with a Free Glass Vase	1	0	1	Expedited	Jessica Rose Whitsitt	714 UNION ST			EMPORIA	KS	66801-3064	US			false		
113-7797725-7075423	46915888558250	2020-08-06T02:58:30+00:00	2020-08-05T19:58:30-07:00	2020-08-06T03:27:31+00:00	2020-08-07T06:59:59+00:00	-1	8zvfzty3hstvr0f@marketplace.amazon.com	Wayne blackburn	+1 929-436-4790 ext. 45631	ABR012	Purchase Now for Delivery by Monday | Arabella Farm Direct Bouquet of 18 Fresh Cut Pink Roses with a Free Glass Vase	1	0	1	SecondDay	Yvonne Laird	1812 EFFIE LN			PASADENA	TX	77502-2908	US		Thinking of you cheryl laired, Love kyle	false		
113-6488312-6995436	33179948252338	2020-08-06T03:06:57+00:00	2020-08-05T20:06:57-07:00	2020-08-06T03:36:11+00:00	2020-08-07T06:59:59+00:00	-1	tz1rykc6y4ffhc1@marketplace.amazon.com	Adrienne Townsend	+1 929-436-4790 ext. 91089	ABR0022	Purchase Now for Delivery by Monday | Arabella Farm Direct Bouquet of 12 Fresh Cut Pink Roses with a Free Glass Vase	1	0	1	SecondDay	Ruby Reid	19819 118TH AVE			SAINT ALBANS	NY	11412-3447	US		Hi Nana,  We Love you and we are sending hugs! Enjoy your flowers! From Theron and Adrienne Benton	false		
112-9838936-4090619	65093872988874	2020-08-06T03:17:37+00:00	2020-08-05T20:17:37-07:00	2020-08-06T03:44:26+00:00	2020-08-08T06:59:59+00:00	-2	cf1x0rr48sws3ld@marketplace.amazon.com	Jacqueline McAllister	+1 929-436-4790 ext. 12593	ABR0033	Purchase Now for Delivery by Monday | Arabella Farm Direct Bouquet of 12 Fresh Cut Orange Roses with a Free Glass Vase	1	0	1	Expedited	Janette Ruiz	6246 LONGHILL ST			RIVERSIDE	CA	92504-1513	US		Happy Birthday Janette. Wishing you a Fabulous 40th! Sending you much Love. From Jackie & Clint	false		
112-1551347-4245047	30001121952218	2020-08-06T03:22:45+00:00	2020-08-05T20:22:45-07:00	2020-08-06T03:49:38+00:00	2020-08-08T06:59:59+00:00	-2	ftlwkl1x0jbq6pc@marketplace.amazon.com	Karen king	+1 929-436-4790 ext. 55431	ABR0055	Purchase Now for Delivery by Monday | Arabella Farm Direct Bouquet of 12 Stems of Fresh Cut Hot Pink Roses in a Free Designer Glass Vase	1	0	1	Expedited	Marie and George Mageras	488 SALEM DR			PITTSBURGH	PA	15243-2076	US		Marie & George Congratulations!!!! Wish I could be up there to meet the new Mageras member.  Take care and enjoy Love KK	false		
114-3537766-0317044	00035887825474	2020-08-06T03:24:18+00:00	2020-08-05T20:24:18-07:00	2020-08-06T03:52:44+00:00	2020-08-08T06:59:59+00:00	-2	0c46f0hxqmxshk0@marketplace.amazon.com	Lalena Johnston	+1 929-436-4790 ext. 24867	ABR0022	Purchase Now for Delivery by Monday | Arabella Farm Direct Bouquet of 12 Fresh Cut Pink Roses with a Free Glass Vase	1	0	1	Expedited	Chanel Gardner	10262 N IRONWOOD DR			CEDAR HILLS	UT	84062-8558	US		Happy cast removable! Hope you are able to do yoga soon! OX! From Lalena	false		
113-0322400-4324225	61647426385538	2020-08-06T05:22:50+00:00	2020-08-05T22:22:50-07:00	2020-08-06T05:52:56+00:00	2020-08-08T06:59:59+00:00	-2	wzw3q7fqnhq64td@marketplace.amazon.com	RuthAnne Schneeflock	+1 929-436-4790 ext. 93405	ABR0055	Purchase Now for Delivery by Monday | Arabella Farm Direct Bouquet of 12 Stems of Fresh Cut Hot Pink Roses in a Free Designer Glass Vase	1	0	1	Expedited	RuthAnne Schneeflock	167Edith Street Apartments # 205( 415 )			Petaluma	California	94952-3184	US			false		
112-9770235-3099404	30350925945562	2020-08-06T05:30:54+00:00	2020-08-05T22:30:54-07:00	2020-08-06T06:01:32+00:00	2020-08-08T06:59:59+00:00	-2	j0mh1f6bz5ml9p6@marketplace.amazon.com	naomi2016happy@gmail.com	+1 929-436-4790 ext. 20247	ABR0066	Purchase Now for Delivery by Monday | Arabella Bouquets 12 Stems of Fresh Cut White Roses in a Free Designer Glass Vase	1	0	1	Expedited	Lei Chen	2760 DEVONSHIRE PL			GREENVILLE	MS	38701-8309	US			false		
114-9313586-2831459	43770803179202	2020-08-06T06:02:12+00:00	2020-08-05T23:02:12-07:00	2020-08-06T06:31:43+00:00	2020-08-08T06:59:59+00:00	-2	gyprd8kzwg8m48n@marketplace.amazon.com	Linda Reed	+1 929-436-4790 ext. 74624	ABR0055	Purchase Now for Delivery by Monday | Arabella Farm Direct Bouquet of 12 Stems of Fresh Cut Hot Pink Roses in a Free Designer Glass Vase	1	0	1	Expedited	Nancy Reed	MONARCH NURSING HOME	6825 HARRY HINES BLVD		DALLAS	TX	75235-4210	US		Enjoy your gift! From Linda And Lauren	false		
111-2636545-9492260	19948190998162	2020-08-05T03:24:36+00:00	2020-08-04T20:24:36-07:00	2020-08-06T07:15:23+00:00	2020-08-07T06:59:59+00:00	-1	zv6g1gqw60glbmj@marketplace.amazon.com	Sonnen Go	+1 929-436-4790 ext. 70183	ABR0022	Purchase Now for Delivery by Friday | Arabella Farm Direct Bouquet of 12 Fresh Cut Pink Roses with a Free Glass Vase	1	0	1	SecondDay	Roseanne Cathe L. Adolfsson	1630 41ST ST APT C1			BROOKLYN	NY	11218-5563	US		Happy 8th on 8th and 15th! Love you 😘 sorry it's late 😅 From Sonnen Go	false		
113-6993570-5889033	68022071936354	2020-08-06T08:19:38+00:00	2020-08-06T01:19:38-07:00	2020-08-06T08:48:29+00:00	2020-08-11T06:59:59+00:00	-5	ysr9j6895xx6pc3@marketplace.amazon.com	SwiftGift	+1 929-436-4790 ext. 20150	ABR0022	Purchase Now for Delivery by Monday | Arabella Farm Direct Bouquet of 12 Fresh Cut Pink Roses with a Free Glass Vase	1	0	1	Expedited	Kelly Huffman	144 DINNERBELL RD			BUTLER	PA	16002-0472	US		Enjoy your gift! From SwiftGift	false		
