order-id	order-item-id	purchase-date	payments-date	reporting-date	promise-date	days-past-promise	buyer-email	buyer-name	buyer-phone-number	sku	product-name	quantity-purchased	quantity-shipped	quantity-to-ship	ship-service-level	recipient-name	ship-address-1	ship-address-2	ship-address-3	ship-city	ship-state	ship-postal-code	ship-country	gift-wrap-type	gift-message-text	is-business-order	purchase-order-number	price-designation
114-3609848-1076215	46930953194210	2020-08-05T21:29:37+00:00	2020-08-05T14:29:37-07:00	2020-08-05T21:57:00+00:00	2020-08-08T06:59:59+00:00	-1	kj7gxly7215s6ls@marketplace.amazon.com	Christine Brown	+1 929-436-4790 ext. 21995	ABM010	Purchase Now for Delivery by Monday | The Spring Fling Bouquet by Arabella Bouquets with a Free Designer Glass Vase	1	0	1	Expedited	Sharon Fancher	432 BEARKILL RD			GILBOA	NY	12076-3516	US		Surrounding you with hugs, love and comfort.  All our Love, Sharon and Carolyn From Sharon and Carolyn	false		
113-7092884-8126617	25139436583554	2020-08-05T22:00:17+00:00	2020-08-05T15:00:17-07:00	2020-08-05T22:20:20+00:00	2020-08-08T06:59:59+00:00	-1	d1z3m09n81snwqc@marketplace.amazon.com	Handsome Homeless	+1 929-436-4790 ext. 82601	ABM010	Purchase Now for Delivery by Monday | The Spring Fling Bouquet by Arabella Bouquets with a Free Designer Glass Vase	1	0	1	Expedited	Paula Diepolder	201 ARNO ST NE APT 404			ALBUQUERQUE	NM	87102-4479	US			false		
112-3517177-0498658	04100998283698	2020-08-06T13:56:25+00:00	2020-08-06T06:56:25-07:00	2020-08-06T14:21:54+00:00	2020-08-11T06:59:59+00:00	-4	1z859h7bb2k2zxy@marketplace.amazon.com	Yeuk L Chau	+1 929-436-4790 ext. 55120	ABM010	Purchase Now for Delivery by Monday | The Spring Fling Bouquet by Arabella Bouquets with a Free Designer Glass Vase	1	0	1	Standard	Sally Long	130 DEER RUN DR APT 17			MARION	NC	28752-3163	US		Hi Sally, Happy birthday.    Love,   Lan	false		
113-7628644-7981809	36881112437986	2020-08-06T15:56:22+00:00	2020-08-06T08:56:22-07:00	2020-08-06T16:21:33+00:00	2020-08-11T06:59:59+00:00	-4	2sx3nzhcmkymhs6@marketplace.amazon.com	Barbara Cohen	+1 929-436-4790 ext. 80718	ABM010	Purchase Now for Delivery by Monday | The Spring Fling Bouquet by Arabella Bouquets with a Free Designer Glass Vase	1	0	1	Expedited	Mrs. Bebe Greenberg	51 MEADOWBROOK PL			SOUTH ORANGE	NJ	07079-2910	US		For my dear friend....just because :) xoxo Barbara From Barbara Cohen	false		
113-9505146-8646640	60408080414610	2020-08-06T17:27:50+00:00	2020-08-06T10:27:50-07:00	2020-08-06T17:57:02+00:00	2020-08-11T06:59:59+00:00	-4	kx6b5xktjsm01d6@marketplace.amazon.com	debbie cannavino	+1 929-436-4790 ext. 92480	ABM0044	Arabella Farm Direct Bouquet of Fresh Cut Blue Hydrangea with a Free Glass Vase	1	0	1	Expedited	Jane Christie Cannavino	3416 N 44TH ST UNIT 62			PHOENIX	AZ	85018-6049	US		Enjoy your gift! From debbie cannavino	false		
114-6340835-1185836	01932433818714	2020-08-06T17:59:06+00:00	2020-08-06T10:59:06-07:00	2020-08-06T18:27:22+00:00	2020-08-11T06:59:59+00:00	-4	rwk9kzlmmpqjkft@marketplace.amazon.com	Sarah A. Bridges	+1 929-436-4790 ext. 07345	ABM010	Purchase Now for Delivery by Monday | The Spring Fling Bouquet by Arabella Bouquets with a Free Designer Glass Vase	1	0	1	Expedited	William and Anne bridges	2615 WEST DR			FORT WAYNE	IN	46805-3624	US		Happy Birthday Mom!!!  We love you so much and hope these flowers add even more happiness to your day:) Lots of Love from Tennessee-John, Sarah, Joseph, Gianna, Maria, and Margaret From Sarah Notarianni	false		
114-0683735-4437037	35545546717586	2020-08-06T18:27:39+00:00	2020-08-06T11:27:39-07:00	2020-08-06T18:30:29+00:00	2020-08-08T06:59:59+00:00	-1	kwrl7xq9n3kj164@marketplace.amazon.com	cynthia	+1 929-436-4790 ext. 88585	ABM002	Purchase Now for Delivery by Monday | Arabella Bouquets Fresh Cut White Calla Lilies in a Free Designer Glass Vase |	1	0	1	NextDay	Susan Lilith Shannon	3705 CHURCHILL CT			PLANO	TX	75075-6120	US		You are loved and appreciated! From cynthia	false		
113-0685005-2486638	43695045754314	2020-08-06T18:41:21+00:00	2020-08-06T11:41:21-07:00	2020-08-06T18:43:58+00:00	2020-08-08T06:59:59+00:00	-1	4vsrj1s1lghss7l@marketplace.amazon.com	Shannon O'Keefe	+1 929-436-4790 ext. 00121	ABM010	Purchase Now for Delivery by Monday | The Spring Fling Bouquet by Arabella Bouquets with a Free Designer Glass Vase	1	0	1	NextDay	Ruth Hosek	175 E DELAWARE PL APT 5604			CHICAGO	IL	60611-7722	US		Dear Ruth,  Happy birthday! We love you and miss you a bunch!  Love,  Luke, Matt and Shannon From Luke, Matt and Shannon	false		
114-0307088-6406614	27777487320890	2020-08-06T20:36:34+00:00	2020-08-06T13:36:34-07:00	2020-08-06T20:40:27+00:00	2020-08-08T06:59:59+00:00	-1	rx3kkgzwgnwdl37@marketplace.amazon.com	Barbara Tako	+1 929-436-4790 ext. 40487	ABM010	Purchase Now for Delivery by Monday | The Spring Fling Bouquet by Arabella Bouquets with a Free Designer Glass Vase	1	0	1	NextDay	Barbara Tako	5855 128TH BAY N			HUGO	MN	55038-7458	US		Glad you are home!  Sending love and hugs,  Dan, Barb, Emily, & Sarah From Barbara Tako	false		
113-6521438-7017809	44669883798258	2020-08-06T22:04:12+00:00	2020-08-06T15:04:12-07:00	2020-08-06T22:07:21+00:00	2020-08-08T06:59:59+00:00	-1	qhdgwxc9bgygj3c@marketplace.amazon.com	Derrick Bowyer	+1 929-436-4790 ext. 80995	ABM010	Purchase Now for Delivery by Monday | The Spring Fling Bouquet by Arabella Bouquets with a Free Designer Glass Vase	1	0	1	NextDay	Joan Hay	2803 NE 170TH ST			RIDGEFIELD	WA	98642-6906	US			false		
113-6940038-8349860	43841770643794	2020-08-06T22:58:04+00:00	2020-08-06T15:58:04-07:00	2020-08-06T22:59:03+00:00	2020-08-08T06:59:59+00:00	-1	k3nfkpyv803lhrs@marketplace.amazon.com	Bronfman	+1 929-436-4790 ext. 59748	ABM010	Purchase Now for Delivery by Monday | The Spring Fling Bouquet by Arabella Bouquets with a Free Designer Glass Vase	1	0	1	NextDay	Vanessa Ochs	1617 SAINT ANNES RD			CHARLOTTESVILLE	VA	22901-3045	US		Thank you for your dedication to this year's Fellows! From Jake, Becky & The Bronfman Team	false		
113-2903749-3324218	07265657820858	2020-08-06T22:58:04+00:00	2020-08-06T15:58:04-07:00	2020-08-06T23:01:18+00:00	2020-08-08T06:59:59+00:00	-1	k3nfkpyv803lhrs@marketplace.amazon.com	Bronfman	+1 929-436-4790 ext. 49626	ABM010	Purchase Now for Delivery by Monday | The Spring Fling Bouquet by Arabella Bouquets with a Free Designer Glass Vase	1	0	1	NextDay	Micha'el Rosenberg	103 GREATON RD # 1			WEST ROXBURY	MA	02132-1426	US		Thank you for your dedication to this year's Fellows! From Jake, Becky & The Bronfman Team	false		
114-6931304-2961823	33043403290938	2020-08-06T23:27:28+00:00	2020-08-06T16:27:28-07:00	2020-08-06T23:31:25+00:00	2020-08-08T06:59:59+00:00	-1	gmk0672tb5g00pj@marketplace.amazon.com	Rebekah	+1 929-436-4790 ext. 41154	ABM010	Purchase Now for Delivery by Monday | The Spring Fling Bouquet by Arabella Bouquets with a Free Designer Glass Vase	1	0	1	NextDay	Scott Gray and Sarah Dimick Gray	883 BETTY LN			EAGAN	MN	55123-2462	US		Thinking of you, Fiona! From The Dimick Eastman family	false		
112-9421609-4550667	53878606878210	2020-08-07T00:40:07+00:00	2020-08-06T17:40:07-07:00	2020-08-07T00:42:26+00:00	2020-08-08T06:59:59+00:00	-1	bnfz25tmytz9k20@marketplace.amazon.com	Janet M Bauer	+1 929-436-4790 ext. 44933	ABM010	Purchase Now for Delivery by Monday | The Spring Fling Bouquet by Arabella Bouquets with a Free Designer Glass Vase	1	0	1	NextDay	Shirley Hollar	500 SAINT PATRICK RD			BALTIMORE	MD	21206-2112	US		Mom & Al, Beautiful flowers for awesome parents!!  Love Eddie, Janny, Keith, Edward & Elizabeth From Janet M Bauer	false		
113-8105898-1898656	02740609984842	2020-08-03T01:24:33+00:00	2020-08-02T18:24:33-07:00	2020-08-07T01:01:10+00:00	2020-08-08T06:59:59+00:00	-1	85qfcc6sxg86484@marketplace.amazon.com	Kevin Schauer	+1 929-436-4790 ext. 02872	ABM010	The Spring Fling Bouquet by Arabella Bouquets with a Free Designer Glass Vase	1	0	1	SecondDay	Amber Hofmaster	24 EAST AVE			BELLEVILLE	WI	53508-9334	US		❤ From Kevin Schauer	false		
113-5439420-3898624	21981311175082	2020-08-07T01:28:17+00:00	2020-08-06T18:28:17-07:00	2020-08-07T01:33:12+00:00	2020-08-08T06:59:59+00:00	-1	zwcmqbsf62rxd2f@marketplace.amazon.com	Heather Jochum	+1 929-436-4790 ext. 75309	ABM002	Purchase Now for Delivery by Monday | Arabella Bouquets Fresh Cut White Calla Lilies in a Free Designer Glass Vase |	1	0	1	NextDay	Heather Breidenbach	2320 FAIRHAVEN RD			DAVENPORT	IA	52803-2337	US			false		
112-4884198-9256252	45908081305210	2020-08-07T03:00:39+00:00	2020-08-06T20:00:39-07:00	2020-08-07T03:02:55+00:00	2020-08-08T06:59:59+00:00	-1	488qm4qzd7g6d4v@marketplace.amazon.com	Kelly Wilder	+1 929-436-4790 ext. 72378	ABM010	Purchase Now for Delivery by Monday | The Spring Fling Bouquet by Arabella Bouquets with a Free Designer Glass Vase	1	0	1	NextDay	Cathy Wilder	1305 S WASHINGTON ST			KOKOMO	IN	46902-6352	US		Thank you for all that you do for us and especially Maddy. We love you!! Happy birthday!!! From Kelly, Mike, and Maddy	false		
114-6089706-2098602	67547451044170	2020-08-07T05:02:24+00:00	2020-08-06T22:02:24-07:00	2020-08-07T05:03:44+00:00	2020-08-08T06:59:59+00:00	-1	rwjdw7twxzryjrj@marketplace.amazon.com	Danielle Owens Wilson	+1 929-436-4790 ext. 29245	ABM010	Purchase Now for Delivery by Monday | The Spring Fling Bouquet by Arabella Bouquets with a Free Designer Glass Vase	1	0	1	NextDay	Maggie Mellow	4201 SHAWNEE AVE			FLINT	MI	48507-2867	US		Happy Birthday, Love You Bunches!! Have a fabulous day!! Xoxo From Dani, Whitley and Aidan	false		
114-9237764-4293023	03786557103058	2020-08-07T05:16:08+00:00	2020-08-06T22:16:08-07:00	2020-08-07T05:16:59+00:00	2020-08-08T06:59:59+00:00	-1	k94fhkpms8t6pt9@marketplace.amazon.com	Jennifer Ferguson	+1 929-436-4790 ext. 33500	ABM010	Purchase Now for Delivery by Monday | The Spring Fling Bouquet by Arabella Bouquets with a Free Designer Glass Vase	1	0	1	NextDay	Katherine Faught	10210 DELMAR LN			OVERLAND PARK	KS	66207-3689	US		We all love you SO much! Praying for a speedy recovery for William. We are here for you always. You and your family will be in our hearts. From Zatos	false		
114-3554238-3911444	02727229922690	2020-08-07T12:26:12+00:00	2020-08-07T05:26:12-07:00	2020-08-07T12:55:22+00:00	2020-08-12T06:59:59+00:00	-5	qcksqllz7tdbb7t@marketplace.amazon.com	James (Jay) Elnicki	+1 929-436-4790 ext. 21364	ABR001	Purchase Now for Delivery by Tuesday | Arabella Bouquets 12 Stems of Fresh Cut Red Roses in a Free Designer Glass Vase	1	0	1	Standard	Liliana Sawyer	8 MONTGOMERY DR			MILLBURY	MA	01527-3506	US		Liliana,   I Love You and do not want to loose you! From James (Jay) Elnicki	false		
111-1329800-0325845	42518294488258	2020-08-07T12:41:38+00:00	2020-08-07T05:41:38-07:00	2020-08-07T13:08:49+00:00	2020-08-12T06:59:59+00:00	-5	r0ml5fgp710rydp@marketplace.amazon.com	Jacqueline L. Marlier	+1 929-436-4790 ext. 95520	ABM010	Purchase Now for Delivery by Tuesday | The Spring Fling Bouquet by Arabella Bouquets with a Free Designer Glass Vase	1	0	1	Expedited	Ms. Wendy Kamara	131 TONAWANDA ST			DORCHESTER	MA	02124-1316	US		Miss Wendy, I want you to know that my friends and I are keeping you in prayer. Romans 8:11 From Sophie	false		
113-7470802-0588218	12078076026882	2020-08-07T13:48:58+00:00	2020-08-07T06:48:58-07:00	2020-08-07T14:15:13+00:00	2020-08-12T06:59:59+00:00	-5	5jpsczbw5x87qqz@marketplace.amazon.com	Stacia Ramsey	+1 929-436-4790 ext. 58138	ABR0022	Purchase Now for Delivery by Tuesday | Arabella Farm Direct Bouquet of 12 Fresh Cut Pink Roses with a Free Glass Vase	1	0	1	Expedited	Sherry Sigmon	1325 COBBLESTONE TRL			WHITNEY	TX	76692-4019	US		Hope these brighten your day! From Stacia Ramsey	false		
113-8282303-7385003	28279628950386	2020-08-07T14:03:02+00:00	2020-08-07T07:03:02-07:00	2020-08-07T14:32:05+00:00	2020-08-12T06:59:59+00:00	-5	s6d4p4nl5r5bvg5@marketplace.amazon.com	Michelle Bonamy	+1 929-436-4790 ext. 91000	ABM010	Purchase Now for Delivery by Tuesday | The Spring Fling Bouquet by Arabella Bouquets with a Free Designer Glass Vase	1	0	1	Expedited	Yolanda Gonzalez	4816 NILE CT			CARMICHAEL	CA	95608-8036	US		Yolanda I look forward to getting to know you and earning your business. Stay healthy and safe! From Michelle Bonamy Quicken Loans	true		
