order-id	order-item-id	purchase-date	payments-date	reporting-date	promise-date	days-past-promise	buyer-email	buyer-name	buyer-phone-number	sku	product-name	quantity-purchased	quantity-shipped	quantity-to-ship	ship-service-level	recipient-name	ship-address-1	ship-address-2	ship-address-3	ship-city	ship-state	ship-postal-code	ship-country	gift-wrap-type	gift-message-text	is-business-order	purchase-order-number	price-designation
112-7838293-4813856	43965966322986	2020-08-05T17:59:06+00:00	2020-08-05T10:59:06-07:00	2020-08-05T18:23:03+00:00	2020-08-08T06:59:59+00:00	-2	gxc65kwqdm6pgjd@marketplace.amazon.com	Angela Young	+1 929-436-4790 ext. 39028	ABR012	Purchase Now for Delivery by Monday | Arabella Farm Direct Bouquet of 18 Fresh Cut Pink Roses with a Free Glass Vase	1	0	1	Expedited	Alice Shaut	5239 PORTLAND ST APT 103			COLUMBUS	OH	43235-7672	US		I have been thinking of you lately. I hope this brings good cheer. You will always be Aunt Alice. Thanks for the great summers of the past. From Angela (Hayden) Young	false		
111-8257705-8160227	66326375028498	2020-08-05T18:08:32+00:00	2020-08-05T11:08:32-07:00	2020-08-05T18:37:20+00:00	2020-08-08T06:59:59+00:00	-2	jj3f3dn7fjmtvgb@marketplace.amazon.com	Elena Malahina	+1 929-436-4790 ext. 90392	ABR0022	Purchase Now for Delivery by Monday | Arabella Farm Direct Bouquet of 12 Fresh Cut Pink Roses with a Free Glass Vase	1	0	1	Expedited	Kate Malahina	806 PALMETTO TER			OVIEDO	FL	32765-9463	US		Happy birthday! From Elena and John	false		
111-2622726-9887463	35911672608482	2020-08-05T19:15:30+00:00	2020-08-05T12:15:30-07:00	2020-08-05T19:42:48+00:00	2020-08-08T06:59:59+00:00	-2	rtjjhzdl28832hd@marketplace.amazon.com	deborah barton	+1 929-436-4790 ext. 94786	ABR0022	Purchase Now for Delivery by Monday | Arabella Farm Direct Bouquet of 12 Fresh Cut Pink Roses with a Free Glass Vase	1	0	1	Expedited	DONNA GLOGOWSKI	102 ARROWHEAD LN			O FALLON	IL	62269-1241	US		Dear Donna, thinking of you during these sad days. You must miss Dick terribly, especially after so many years of marriage. I do hope your many, many sweet memories give you some comfort and peace. Much love, From Debby and Dave	false		
113-4513478-0376264	49319316745410	2020-08-05T20:41:56+00:00	2020-08-05T13:41:56-07:00	2020-08-05T21:10:09+00:00	2020-08-08T06:59:59+00:00	-2	4n84hvyxqmhbvsx@marketplace.amazon.com	Saviour	+1 929-436-4790 ext. 39010	ABR001	Purchase Now for Delivery by Monday | Arabella Bouquets 12 Stems of Fresh Cut Red Roses in a Free Designer Glass Vase	1	0	1	Expedited	Alice Atkins	106 PAYNE ST CARAWAY AR 72419			CARAWAY	AR	72419-8621	US		I am so sorry please give me the chance to explain , please I beg you in God’s name  Read your Email as well I sent you an email From Mark	false		
113-4711289-1124221	22020671655402	2020-08-05T21:09:22+00:00	2020-08-05T14:09:22-07:00	2020-08-05T21:10:14+00:00	2020-08-08T06:59:59+00:00	-2	1jtgt16j875py6w@marketplace.amazon.com	Michael A Classen	+1 929-436-4790 ext. 08834	ABR001	Purchase Now for Delivery by Monday | Arabella Bouquets 12 Stems of Fresh Cut Red Roses in a Free Designer Glass Vase	1	0	1	Expedited	Jane Jarrow	2938 NORTHWEST BLVD			COLUMBUS	OH	43221-2902	US		Jane, We look forward to your time with us on Thursday! From WINAHEAD  Board	false		
114-3609848-1076215	46930953194210	2020-08-05T21:29:37+00:00	2020-08-05T14:29:37-07:00	2020-08-05T21:57:00+00:00	2020-08-08T06:59:59+00:00	-2	kj7gxly7215s6ls@marketplace.amazon.com	Christine Brown	+1 929-436-4790 ext. 21995	ABM010	Purchase Now for Delivery by Monday | The Spring Fling Bouquet by Arabella Bouquets with a Free Designer Glass Vase	1	0	1	Expedited	Sharon Fancher	432 BEARKILL RD			GILBOA	NY	12076-3516	US		Surrounding you with hugs, love and comfort.  All our Love, Sharon and Carolyn From Sharon and Carolyn	false		
112-3131020-7257846	14198803315498	2020-08-05T21:52:28+00:00	2020-08-05T14:52:28-07:00	2020-08-05T22:18:23+00:00	2020-08-08T06:59:59+00:00	-2	y6pgdq2s75yz3sl@marketplace.amazon.com	Robert	+1 929-436-4790 ext. 74249	ABR001	Purchase Now for Delivery by Monday | Arabella Bouquets 12 Stems of Fresh Cut Red Roses in a Free Designer Glass Vase	1	0	1	Expedited	Mary Ann	112 BROOKFIELD CROSSING DR			LAKE SAINT LOUIS	MO	63367-4410	US		I will always love you. From Robert	false		
113-7092884-8126617	25139436583554	2020-08-05T22:00:17+00:00	2020-08-05T15:00:17-07:00	2020-08-05T22:20:20+00:00	2020-08-08T06:59:59+00:00	-2	d1z3m09n81snwqc@marketplace.amazon.com	Handsome Homeless	+1 929-436-4790 ext. 82601	ABM010	Purchase Now for Delivery by Monday | The Spring Fling Bouquet by Arabella Bouquets with a Free Designer Glass Vase	1	0	1	Expedited	Paula Diepolder	201 ARNO ST NE APT 404			ALBUQUERQUE	NM	87102-4479	US			false		
112-6682389-4187417	27444283213194	2020-08-05T21:59:57+00:00	2020-08-05T14:59:57-07:00	2020-08-05T22:23:17+00:00	2020-08-08T06:59:59+00:00	-2	2dh2fb535092v2h@marketplace.amazon.com	Bruk	+1 929-436-4790 ext. 90026	ABR001	Purchase Now for Delivery by Monday | Arabella Bouquets 12 Stems of Fresh Cut Red Roses in a Free Designer Glass Vase	1	0	1	Expedited	Katlego Mashilo	11649 MAYFIELD AVE APT 1A			LOS ANGELES	CA	90049-5778	US		Hey Wifey☺️💎 - Happiest Birthday to you🎉. I just want to wish you an absolutely amazing new year. I pray that God will surpass what He thought He could ever do for you. I love you and miss you so much. ♥️ Habakkuk 1:5♥️ From Nokz	false		
111-0091489-2421803	47600268338570	2020-08-05T22:16:33+00:00	2020-08-05T15:16:33-07:00	2020-08-05T22:39:11+00:00	2020-08-08T06:59:59+00:00	-2	r3jgxq0pbkm89jl@marketplace.amazon.com	Pramod K Jain	+1 929-436-4790 ext. 39184	ABR013	Purchase Now for Delivery by Monday | Arabella Farm Direct Bouquet of 18 Fresh Cut Yellow Roses with a Free Glass Vase	1	0	1	Expedited	Ms. Lynn Campbell	19389 ROSCOMMON ST			HARPER WOODS	MI	48225-2117	US		Dearest Lynn, To The Best Boss Ever!!!! Good Luck with your new job. From Preeti & Madhu From Preeti & Madhu	false		
111-8818988-9859430	34129495890762	2020-08-05T23:54:02+00:00	2020-08-05T16:54:02-07:00	2020-08-06T00:18:02+00:00	2020-08-08T06:59:59+00:00	-2	pz4w2dnzbvmjl28@marketplace.amazon.com	monica	+1 929-436-4790 ext. 46612	ABR0022	Purchase Now for Delivery by Monday | Arabella Farm Direct Bouquet of 12 Fresh Cut Pink Roses with a Free Glass Vase	1	0	1	Expedited	Angie Voreis Lee	7709 W LAKE ST			ST LOUIS PARK	MN	55426-4327	US		Dear Greta! Welcome to the world.  We love you, Monica and Carissa From monica and Carissa	false		
112-9222928-2285813	03577890078746	2020-08-06T00:09:57+00:00	2020-08-05T17:09:57-07:00	2020-08-06T00:35:32+00:00	2020-08-08T06:59:59+00:00	-2	8bzjbfyr3whfr9t@marketplace.amazon.com	Maria Lake	+1 929-436-4790 ext. 07283	ABR0022	Purchase Now for Delivery by Monday | Arabella Farm Direct Bouquet of 12 Fresh Cut Pink Roses with a Free Glass Vase	1	0	1	Expedited	Christine Bianchi	33 MILL RD			WHITING	NJ	08759-3257	US		Dear Mom,     Sorry I messed this up the first time! Enjoy them - now we have matching beautiful roses. Happy Birthday! Love you, Maria and Mario From Maria and Mario	false		
112-8948044-0885012	60402919506266	2020-08-06T00:19:09+00:00	2020-08-05T17:19:09-07:00	2020-08-06T00:49:32+00:00	2020-08-08T06:59:59+00:00	-2	xxn2n1d55lr49rh@marketplace.amazon.com	rickey bennett	+1 929-436-4790 ext. 14074	ABR004	Arabella Farm Direct Bouquet of 12 Fresh Cut Yellow Roses with a Free Glass Vase	1	0	1	Expedited	Rickey bennett	14814 WOODLAWN ST SW			LAKEWOOD	WA	98498-2350	US			false		
114-9166458-8402629	19664966619706	2020-08-06T00:51:17+00:00	2020-08-05T17:51:17-07:00	2020-08-06T01:13:22+00:00	2020-08-08T06:59:59+00:00	-2	9x9nhysj4b6byg7@marketplace.amazon.com	Ronald S. Michaud	+1 929-436-4790 ext. 37794	ABR001	Purchase Now for Delivery by Monday | Arabella Bouquets 12 Stems of Fresh Cut Red Roses in a Free Designer Glass Vase	1	0	1	Expedited	Ann & Reggie Cobb	32 SHORE RD			DEXTER	ME	04930-2222	US			false		
111-3106052-3297829	05235429142586	2020-08-06T01:19:07+00:00	2020-08-05T18:19:07-07:00	2020-08-06T01:22:02+00:00	2020-08-08T06:59:59+00:00	-2	6cc19ljkqgkcj30@marketplace.amazon.com	Collin Southworth	+1 929-436-4790 ext. 47991	ABR001	Purchase Now for Delivery by Monday | Arabella Bouquets 12 Stems of Fresh Cut Red Roses in a Free Designer Glass Vase	1	0	1	Expedited	Melissa Witt	399 WILLOW CT UNIT 1			INCLINE VILLAGE	NV	89451-8272	US		Beautiful flowers for a beautiful girl. I love you! From Collin Southworth	false		
114-3984989-4112265	29154346716818	2020-08-06T01:33:42+00:00	2020-08-05T18:33:42-07:00	2020-08-06T02:01:23+00:00	2020-08-08T06:59:59+00:00	-2	r5ps01jfdnjs0yk@marketplace.amazon.com	Maria Straus	+1 929-436-4790 ext. 32830	ABR0022	Purchase Now for Delivery by Monday | Arabella Farm Direct Bouquet of 12 Fresh Cut Pink Roses with a Free Glass Vase	1	0	1	Expedited	Hilda Lopez Varela	7963 SW 104TH ST APT A109			MIAMI	FL	33156-3667	US		Espero que estas flores te acompañe From Maria Straus	false		
111-6277675-5723443	33264108529378	2020-08-06T01:51:06+00:00	2020-08-05T18:51:06-07:00	2020-08-06T02:18:01+00:00	2020-08-08T06:59:59+00:00	-2	0njf4rwt2r17y8q@marketplace.amazon.com	Marvin Carter	+1 929-436-4790 ext. 01455	ABR0022	Purchase Now for Delivery by Monday | Arabella Farm Direct Bouquet of 12 Fresh Cut Pink Roses with a Free Glass Vase	1	0	1	Expedited	Cindy Bush	2716 CHURCH ST			QUANTICO	MD	21856-2501	US		Happy Birthday Babe, love you.  Marv From Marvin Carter	false		
114-1949857-4962648	59322898985322	2020-08-06T02:06:52+00:00	2020-08-05T19:06:52-07:00	2020-08-06T02:34:23+00:00	2020-08-08T06:59:59+00:00	-2	smg00l37kbpysq5@marketplace.amazon.com	Cindy	+1 929-436-4790 ext. 35483	ABR0033	Purchase Now for Delivery by Monday | Arabella Farm Direct Bouquet of 12 Fresh Cut Orange Roses with a Free Glass Vase	1	0	1	Expedited	Chris Festa	501 PONOKA ST			SEBASTIAN	FL	32958-4445	US		❤❤❤ Cindy From Cindy	false		
111-9520191-9111405	29506419264962	2020-08-06T02:10:02+00:00	2020-08-05T19:10:02-07:00	2020-08-06T02:40:38+00:00	2020-08-08T06:59:59+00:00	-2	6jmgwlq2d15cv48@marketplace.amazon.com	Grace Johnston	+1 929-436-4790 ext. 19650	ABR0022	Purchase Now for Delivery by Monday | Arabella Farm Direct Bouquet of 12 Fresh Cut Pink Roses with a Free Glass Vase	1	0	1	Expedited	Jessica Rose Whitsitt	714 UNION ST			EMPORIA	KS	66801-3064	US			false		
113-7797725-7075423	46915888558250	2020-08-06T02:58:30+00:00	2020-08-05T19:58:30-07:00	2020-08-06T03:27:31+00:00	2020-08-07T06:59:59+00:00	-1	8zvfzty3hstvr0f@marketplace.amazon.com	Wayne blackburn	+1 929-436-4790 ext. 45631	ABR012	Purchase Now for Delivery by Monday | Arabella Farm Direct Bouquet of 18 Fresh Cut Pink Roses with a Free Glass Vase	1	0	1	SecondDay	Yvonne Laird	1812 EFFIE LN			PASADENA	TX	77502-2908	US		Thinking of you cheryl laired, Love kyle	false		
113-6488312-6995436	33179948252338	2020-08-06T03:06:57+00:00	2020-08-05T20:06:57-07:00	2020-08-06T03:36:11+00:00	2020-08-07T06:59:59+00:00	-1	tz1rykc6y4ffhc1@marketplace.amazon.com	Adrienne Townsend	+1 929-436-4790 ext. 91089	ABR0022	Purchase Now for Delivery by Monday | Arabella Farm Direct Bouquet of 12 Fresh Cut Pink Roses with a Free Glass Vase	1	0	1	SecondDay	Ruby Reid	19819 118TH AVE			SAINT ALBANS	NY	11412-3447	US		Hi Nana,  We Love you and we are sending hugs! Enjoy your flowers! From Theron and Adrienne Benton	false		
112-9838936-4090619	65093872988874	2020-08-06T03:17:37+00:00	2020-08-05T20:17:37-07:00	2020-08-06T03:44:26+00:00	2020-08-08T06:59:59+00:00	-2	cf1x0rr48sws3ld@marketplace.amazon.com	Jacqueline McAllister	+1 929-436-4790 ext. 12593	ABR0033	Purchase Now for Delivery by Monday | Arabella Farm Direct Bouquet of 12 Fresh Cut Orange Roses with a Free Glass Vase	1	0	1	Expedited	Janette Ruiz	6246 LONGHILL ST			RIVERSIDE	CA	92504-1513	US		Happy Birthday Janette. Wishing you a Fabulous 40th! Sending you much Love. From Jackie & Clint	false		
112-1551347-4245047	30001121952218	2020-08-06T03:22:45+00:00	2020-08-05T20:22:45-07:00	2020-08-06T03:49:38+00:00	2020-08-08T06:59:59+00:00	-2	ftlwkl1x0jbq6pc@marketplace.amazon.com	Karen king	+1 929-436-4790 ext. 55431	ABR0055	Purchase Now for Delivery by Monday | Arabella Farm Direct Bouquet of 12 Stems of Fresh Cut Hot Pink Roses in a Free Designer Glass Vase	1	0	1	Expedited	Marie and George Mageras	488 SALEM DR			PITTSBURGH	PA	15243-2076	US		Marie & George Congratulations!!!! Wish I could be up there to meet the new Mageras member.  Take care and enjoy Love KK	false		
114-3537766-0317044	00035887825474	2020-08-06T03:24:18+00:00	2020-08-05T20:24:18-07:00	2020-08-06T03:52:44+00:00	2020-08-08T06:59:59+00:00	-2	0c46f0hxqmxshk0@marketplace.amazon.com	Lalena Johnston	+1 929-436-4790 ext. 24867	ABR0022	Purchase Now for Delivery by Monday | Arabella Farm Direct Bouquet of 12 Fresh Cut Pink Roses with a Free Glass Vase	1	0	1	Expedited	Chanel Gardner	10262 N IRONWOOD DR			CEDAR HILLS	UT	84062-8558	US		Happy cast removable! Hope you are able to do yoga soon! OX! From Lalena	false		
113-0322400-4324225	61647426385538	2020-08-06T05:22:50+00:00	2020-08-05T22:22:50-07:00	2020-08-06T05:52:56+00:00	2020-08-08T06:59:59+00:00	-2	wzw3q7fqnhq64td@marketplace.amazon.com	RuthAnne Schneeflock	+1 929-436-4790 ext. 93405	ABR0055	Purchase Now for Delivery by Monday | Arabella Farm Direct Bouquet of 12 Stems of Fresh Cut Hot Pink Roses in a Free Designer Glass Vase	1	0	1	Expedited	RuthAnne Schneeflock	167Edith Street Apartments # 205( 415 )			Petaluma	California	94952-3184	US			false		
112-9770235-3099404	30350925945562	2020-08-06T05:30:54+00:00	2020-08-05T22:30:54-07:00	2020-08-06T06:01:32+00:00	2020-08-08T06:59:59+00:00	-2	j0mh1f6bz5ml9p6@marketplace.amazon.com	naomi2016happy@gmail.com	+1 929-436-4790 ext. 20247	ABR0066	Purchase Now for Delivery by Monday | Arabella Bouquets 12 Stems of Fresh Cut White Roses in a Free Designer Glass Vase	1	0	1	Expedited	Lei Chen	2760 DEVONSHIRE PL			GREENVILLE	MS	38701-8309	US			false		
114-9313586-2831459	43770803179202	2020-08-06T06:02:12+00:00	2020-08-05T23:02:12-07:00	2020-08-06T06:31:43+00:00	2020-08-08T06:59:59+00:00	-2	gyprd8kzwg8m48n@marketplace.amazon.com	Linda Reed	+1 929-436-4790 ext. 74624	ABR0055	Purchase Now for Delivery by Monday | Arabella Farm Direct Bouquet of 12 Stems of Fresh Cut Hot Pink Roses in a Free Designer Glass Vase	1	0	1	Expedited	Nancy Reed	MONARCH NURSING HOME	6825 HARRY HINES BLVD		DALLAS	TX	75235-4210	US		Enjoy your gift! From Linda And Lauren	false		
111-2636545-9492260	19948190998162	2020-08-05T03:24:36+00:00	2020-08-04T20:24:36-07:00	2020-08-06T07:15:23+00:00	2020-08-07T06:59:59+00:00	-1	zv6g1gqw60glbmj@marketplace.amazon.com	Sonnen Go	+1 929-436-4790 ext. 70183	ABR0022	Purchase Now for Delivery by Friday | Arabella Farm Direct Bouquet of 12 Fresh Cut Pink Roses with a Free Glass Vase	1	0	1	SecondDay	Roseanne Cathe L. Adolfsson	1630 41ST ST APT C1			BROOKLYN	NY	11218-5563	US		Happy 8th on 8th and 15th! Love you 😘 sorry it's late 😅 From Sonnen Go	false		
113-6993570-5889033	68022071936354	2020-08-06T08:19:38+00:00	2020-08-06T01:19:38-07:00	2020-08-06T08:48:29+00:00	2020-08-11T06:59:59+00:00	-5	ysr9j6895xx6pc3@marketplace.amazon.com	SwiftGift	+1 929-436-4790 ext. 20150	ABR0022	Purchase Now for Delivery by Monday | Arabella Farm Direct Bouquet of 12 Fresh Cut Pink Roses with a Free Glass Vase	1	0	1	Expedited	Kelly Huffman	144 DINNERBELL RD			BUTLER	PA	16002-0472	US		Enjoy your gift! From SwiftGift	false		
111-8506277-7128220	21883431061514	2020-08-06T12:22:04+00:00	2020-08-06T05:22:04-07:00	2020-08-06T12:49:50+00:00	2020-08-11T06:59:59+00:00	-5	nb3d03vwf6lj7jj@marketplace.amazon.com	Carletta Brooker	+1 929-436-4790 ext. 87573	ABR0055	Purchase Now for Delivery by Monday | Arabella Farm Direct Bouquet of 12 Stems of Fresh Cut Hot Pink Roses in a Free Designer Glass Vase	1	0	1	Expedited	Almalou Brandis	33 - 25 92nd St	APT 4D		Jackson Heights	New York	11372	US		Hi Sweet Stay strong...get better...see you soon!!! Hug from Florida Jill	false		
112-5319300-0889060	65069460794770	2020-08-06T13:52:22+00:00	2020-08-06T06:52:22-07:00	2020-08-06T14:00:31+00:00	2020-08-11T06:59:59+00:00	-5	0n99gg0bkkd8syt@marketplace.amazon.com	nicha	+1 929-436-4790 ext. 02793	ABR0022	Purchase Now for Delivery by Monday | Arabella Farm Direct Bouquet of 12 Fresh Cut Pink Roses with a Free Glass Vase	1	0	1	Expedited	Cynthia Rosenthal	GROUND FLOOR 1872 HENDRICKSON ST			BROOKLYN	NY	11234-4520	US		Thinking of my Grandma ! From Elyse	false		
112-3517177-0498658	04100998283698	2020-08-06T13:56:25+00:00	2020-08-06T06:56:25-07:00	2020-08-06T14:21:54+00:00	2020-08-11T06:59:59+00:00	-5	1z859h7bb2k2zxy@marketplace.amazon.com	Yeuk L Chau	+1 929-436-4790 ext. 55120	ABM010	Purchase Now for Delivery by Monday | The Spring Fling Bouquet by Arabella Bouquets with a Free Designer Glass Vase	1	0	1	Standard	Sally Long	130 DEER RUN DR APT 17			MARION	NC	28752-3163	US		Hi Sally, Happy birthday.    Love,   Lan	false		
114-0016440-7787451	61314461274370	2020-08-06T13:52:21+00:00	2020-08-06T06:52:21-07:00	2020-08-06T14:22:34+00:00	2020-08-11T06:59:59+00:00	-5	vd6xxzf0flnx24q@marketplace.amazon.com	ronald j fox	+1 929-436-4790 ext. 69627	ABR0055	Purchase Now for Delivery by Monday | Arabella Farm Direct Bouquet of 12 Stems of Fresh Cut Hot Pink Roses in a Free Designer Glass Vase	1	0	1	Expedited	Ronald Fox	135 LAKE RD LOT 147			BOZRAH	CT	06334-1415	US			false		
114-3152082-3569002	24092295578258	2020-08-06T14:45:19+00:00	2020-08-06T07:45:19-07:00	2020-08-06T15:15:31+00:00	2020-08-11T06:59:59+00:00	-5	044zpyldcjdx0qv@marketplace.amazon.com	Sarah rupp	+1 929-436-4790 ext. 20986	ABR0055	Purchase Now for Delivery by Monday | Arabella Farm Direct Bouquet of 12 Stems of Fresh Cut Hot Pink Roses in a Free Designer Glass Vase	1	0	1	Expedited	Jacqueline Rupp	550 14TH RD S			ARLINGTON	VA	22202-7400	US			false		
113-7628644-7981809	36881112437986	2020-08-06T15:56:22+00:00	2020-08-06T08:56:22-07:00	2020-08-06T16:21:33+00:00	2020-08-11T06:59:59+00:00	-5	2sx3nzhcmkymhs6@marketplace.amazon.com	Barbara Cohen	+1 929-436-4790 ext. 80718	ABM010	Purchase Now for Delivery by Monday | The Spring Fling Bouquet by Arabella Bouquets with a Free Designer Glass Vase	1	0	1	Expedited	Mrs. Bebe Greenberg	51 MEADOWBROOK PL			SOUTH ORANGE	NJ	07079-2910	US		For my dear friend....just because :) xoxo Barbara From Barbara Cohen	false		
112-4341894-5645831	43628610503034	2020-08-06T16:39:38+00:00	2020-08-06T09:39:38-07:00	2020-08-06T17:10:19+00:00	2020-08-11T06:59:59+00:00	-5	nxh9p1pvc6zyhw2@marketplace.amazon.com	Leah S Klein	+1 929-436-4790 ext. 84151	ABR0033	Purchase Now for Delivery by Monday | Arabella Farm Direct Bouquet of 12 Fresh Cut Orange Roses with a Free Glass Vase	1	0	1	Expedited	Leah S Klein	1 CHRISTIE PL UNIT 205E			SCARSDALE	NY	10583-8306	US			false		
113-9505146-8646640	60408080414610	2020-08-06T17:27:50+00:00	2020-08-06T10:27:50-07:00	2020-08-06T17:57:02+00:00	2020-08-11T06:59:59+00:00	-5	kx6b5xktjsm01d6@marketplace.amazon.com	debbie cannavino	+1 929-436-4790 ext. 92480	ABM0044	Arabella Farm Direct Bouquet of Fresh Cut Blue Hydrangea with a Free Glass Vase	1	0	1	Expedited	Jane Christie Cannavino	3416 N 44TH ST UNIT 62			PHOENIX	AZ	85018-6049	US		Enjoy your gift! From debbie cannavino	false		
114-9643142-9987462	31498419007378	2020-08-06T17:43:16+00:00	2020-08-06T10:43:16-07:00	2020-08-06T18:13:44+00:00	2020-08-11T06:59:59+00:00	-5	rlkwqnvhrzl95gf@marketplace.amazon.com	Fred West	+1 929-436-4790 ext. 57584	ABR0022	Purchase Now for Delivery by Monday | Arabella Farm Direct Bouquet of 12 Fresh Cut Pink Roses with a Free Glass Vase	1	0	1	Expedited	Fred E. West, Jr.	1401 W COPELAND DR			POWELL	TN	37849-3924	US			false		
114-6340835-1185836	01932433818714	2020-08-06T17:59:06+00:00	2020-08-06T10:59:06-07:00	2020-08-06T18:27:22+00:00	2020-08-11T06:59:59+00:00	-5	rwk9kzlmmpqjkft@marketplace.amazon.com	Sarah A. Bridges	+1 929-436-4790 ext. 07345	ABM010	Purchase Now for Delivery by Monday | The Spring Fling Bouquet by Arabella Bouquets with a Free Designer Glass Vase	1	0	1	Expedited	William and Anne bridges	2615 WEST DR			FORT WAYNE	IN	46805-3624	US		Happy Birthday Mom!!!  We love you so much and hope these flowers add even more happiness to your day:) Lots of Love from Tennessee-John, Sarah, Joseph, Gianna, Maria, and Margaret From Sarah Notarianni	false		
113-8100458-7438626	47384180151922	2020-08-06T18:06:39+00:00	2020-08-06T11:06:39-07:00	2020-08-06T18:29:29+00:00	2020-08-11T06:59:59+00:00	-5	mqg0l860p5vh2g2@marketplace.amazon.com	John T. Reim	+1 929-436-4790 ext. 89538	ABR0022	Purchase Now for Delivery by Monday | Arabella Farm Direct Bouquet of 12 Fresh Cut Pink Roses with a Free Glass Vase	1	0	1	Expedited	Anne Schmelzle	32 SILVA TER			OXFORD	CT	06478-1816	US		Dear Aunt Anne, we wish you a speedy recovery and a prompt return to your daily 5-mile runs! LOVE! From John T. & Mary Lou Reim	false		
111-1521876-4508258	09597524900194	2020-08-06T18:05:57+00:00	2020-08-06T11:05:57-07:00	2020-08-06T18:30:23+00:00	2020-08-11T06:59:59+00:00	-5	ltz7t1mcjqwskrb@marketplace.amazon.com	Tara Bowen	+1 929-436-4790 ext. 87636	ABR0022	Purchase Now for Delivery by Monday | Arabella Farm Direct Bouquet of 12 Fresh Cut Pink Roses with a Free Glass Vase	1	0	1	Expedited	Fay Riganto	1647 E HILLSIDE OAKS CV			DRAPER	UT	84020-5616	US		Fay, We were heartbroken to hear of Maury’s passing. Know we love you and are here for anything you need. We’ve loved seeing your smile at Maceys and feel so blessed to treasure years of friendship! Know your in our prayers! From Dean and Tara Bowen	false		
114-0683735-4437037	35545546717586	2020-08-06T18:27:39+00:00	2020-08-06T11:27:39-07:00	2020-08-06T18:30:29+00:00	2020-08-08T06:59:59+00:00	-2	kwrl7xq9n3kj164@marketplace.amazon.com	cynthia	+1 929-436-4790 ext. 88585	ABM002	Purchase Now for Delivery by Monday | Arabella Bouquets Fresh Cut White Calla Lilies in a Free Designer Glass Vase |	1	0	1	NextDay	Susan Lilith Shannon	3705 CHURCHILL CT			PLANO	TX	75075-6120	US		You are loved and appreciated! From cynthia	false		
112-9160672-8537822	57550965099154	2020-08-06T18:29:43+00:00	2020-08-06T11:29:43-07:00	2020-08-06T18:30:40+00:00	2020-08-08T06:59:59+00:00	-2	n0h40mrzsxslhvf@marketplace.amazon.com	Emilie Alberto	+1 929-436-4790 ext. 68871	ABR0022	Purchase Now for Delivery by Monday | Arabella Farm Direct Bouquet of 12 Fresh Cut Pink Roses with a Free Glass Vase	1	0	1	NextDay	Sheila Seno	5123 IRVINGTON TER  1/2			LOS ANGELES	CA	90042-2320	US		Happy 40th birthday Sheila! I hope you enjoy your day! Can't wait to reunite with you and Luda to catch up. It's been so long! I miss you! From Emilie Alberto	false		
113-0685005-2486638	43695045754314	2020-08-06T18:41:21+00:00	2020-08-06T11:41:21-07:00	2020-08-06T18:43:58+00:00	2020-08-08T06:59:59+00:00	-2	4vsrj1s1lghss7l@marketplace.amazon.com	Shannon O'Keefe	+1 929-436-4790 ext. 00121	ABM010	Purchase Now for Delivery by Monday | The Spring Fling Bouquet by Arabella Bouquets with a Free Designer Glass Vase	1	0	1	NextDay	Ruth Hosek	175 E DELAWARE PL APT 5604			CHICAGO	IL	60611-7722	US		Dear Ruth,  Happy birthday! We love you and miss you a bunch!  Love,  Luke, Matt and Shannon From Luke, Matt and Shannon	false		
111-4761624-5427413	60368056719346	2020-08-06T19:05:22+00:00	2020-08-06T12:05:22-07:00	2020-08-06T19:06:18+00:00	2020-08-08T06:59:59+00:00	-2	lr6lj68wc3pppd2@marketplace.amazon.com	Jennifer L	+1 929-436-4790 ext. 24483	ABR012	Purchase Now for Delivery by Monday | Arabella Farm Direct Bouquet of 18 Fresh Cut Pink Roses with a Free Glass Vase	1	0	1	NextDay	Guadalupe Limon	122 BEECHWOOD DR			KILLEN	AL	35645-5702	US		Esperamos que le guste sus flores y que se recupere muy pronto! La queremos mucho le mandamos muchos besos y abrazos.  (Soy hija de Valente, Jenny) From Jenny & Nathan From Jenny & Nathan	false		
113-1940865-7060222	49866818074130	2020-08-06T18:44:26+00:00	2020-08-06T11:44:26-07:00	2020-08-06T19:09:09+00:00	2020-08-11T06:59:59+00:00	-5	y0tn65yrr1lwmm8@marketplace.amazon.com	angela	+1 929-436-4790 ext. 91437	ABR0055	Purchase Now for Delivery by Monday | Arabella Farm Direct Bouquet of 12 Stems of Fresh Cut Hot Pink Roses in a Free Designer Glass Vase	1	0	1	Expedited	Jess Warner	606 GLENVILLE LAKE DR			FUQUAY VARINA	NC	27526-3944	US		Jess Know the heat is not helping Hope these can brighten your day! From angela	false		
111-4430344-7369063	33903127082738	2020-08-06T19:07:36+00:00	2020-08-06T12:07:36-07:00	2020-08-06T19:10:43+00:00	2020-08-08T06:59:59+00:00	-2	w14vn6m6tp4v48t@marketplace.amazon.com	Diane Whiteley	+1 929-436-4790 ext. 25699	ABR0022	Purchase Now for Delivery by Monday | Arabella Farm Direct Bouquet of 12 Fresh Cut Pink Roses with a Free Glass Vase	1	0	1	NextDay	Dorothy Hann	PENNSWOOD VILLAGE D-206	1382 NEWTOWN LANGHORNE RD		NEWTOWN	PENNSYLVANIA	18940-2401	US		HAPPY BIRTHDAY, Aunt Dot! We love youso much! From Diane and Doug	false		
111-0973131-6459450	23530290463842	2020-08-06T19:16:31+00:00	2020-08-06T12:16:31-07:00	2020-08-06T19:17:37+00:00	2020-08-08T06:59:59+00:00	-2	mvrvjgg11nl46vq@marketplace.amazon.com	Ronny Whyte	+1 929-436-4790 ext. 35782	ABR0022	Purchase Now for Delivery by Monday | Arabella Farm Direct Bouquet of 12 Fresh Cut Pink Roses with a Free Glass Vase	1	0	1	NextDay	Yseult Freilicher	333 E 56TH ST # 15C 15C			NEW YORK	NY	10022-3758	US		Get Well! From Ronny Whyte	false		
113-1687460-4179424	32327103361682	2020-08-06T19:36:27+00:00	2020-08-06T12:36:27-07:00	2020-08-06T19:39:10+00:00	2020-08-08T06:59:59+00:00	-2	qb504xrm43qh35f@marketplace.amazon.com	June Ulrich	+1 929-436-4790 ext. 26639	ABR0022	Purchase Now for Delivery by Monday | Arabella Farm Direct Bouquet of 12 Fresh Cut Pink Roses with a Free Glass Vase	1	0	1	NextDay	Barb Ulrich	224 GARDEN VIEW DR			APPLE VALLEY	MN	55124-6700	US		Birthday Babe, Have a great day/week/mo! Love you!! From June	false		
111-8966775-8185864	67596645963186	2020-08-06T19:42:19+00:00	2020-08-06T12:42:19-07:00	2020-08-06T19:43:36+00:00	2020-08-08T06:59:59+00:00	-2	dfysrxh86ll22nz@marketplace.amazon.com	Dr'Sue-Ellen O'Hara	+1 929-436-4790 ext. 83701	ABR0022	Purchase Now for Delivery by Monday | Arabella Farm Direct Bouquet of 12 Fresh Cut Pink Roses with a Free Glass Vase	1	0	1	NextDay	Sylvia Sellars	9922 FLORA VISTA ST APT 78			BELLFLOWER	CA	90706-8236	US		Enjoy your gift! Happy Birthday. Hope you are doing well and will have a lovely day with Diane and Andrew and Kelly.  Sure the children will keep you laughing. From Dr'Sue-Ellen O'Hara	false		
113-6463361-1685034	33043644664738	2020-08-06T19:55:03+00:00	2020-08-06T12:55:03-07:00	2020-08-06T19:57:07+00:00	2020-08-08T06:59:59+00:00	-2	zwqn5y3cd9g5gww@marketplace.amazon.com	Ernest H. Moreno	+1 929-436-4790 ext. 78462	ABR0022	Purchase Now for Delivery by Monday | Arabella Farm Direct Bouquet of 12 Fresh Cut Pink Roses with a Free Glass Vase	1	0	1	NextDay	Ernest H. Moreno	3372 COLONIAL AVE			LOS ANGELES	CA	90066-1508	US			false		
113-6516091-4640229	60381367322930	2020-08-06T20:01:55+00:00	2020-08-06T13:01:55-07:00	2020-08-06T20:03:01+00:00	2020-08-08T06:59:59+00:00	-2	f13c69zqyhjhtgy@marketplace.amazon.com	Sushma	+1 929-436-4790 ext. 08124	ABR0022	Purchase Now for Delivery by Monday | Arabella Farm Direct Bouquet of 12 Fresh Cut Pink Roses with a Free Glass Vase	1	0	1	NextDay	Afshin Nadershahi	1316 COLONY PLZ			NEWPORT BEACH	CA	92660-6361	US			false		
114-0307088-6406614	27777487320890	2020-08-06T20:36:34+00:00	2020-08-06T13:36:34-07:00	2020-08-06T20:40:27+00:00	2020-08-08T06:59:59+00:00	-2	rx3kkgzwgnwdl37@marketplace.amazon.com	Barbara Tako	+1 929-436-4790 ext. 40487	ABM010	Purchase Now for Delivery by Monday | The Spring Fling Bouquet by Arabella Bouquets with a Free Designer Glass Vase	1	0	1	NextDay	Barbara Tako	5855 128TH BAY N			HUGO	MN	55038-7458	US		Glad you are home!  Sending love and hugs,  Dan, Barb, Emily, & Sarah From Barbara Tako	false		
111-8741906-6372216	43047587900978	2020-08-06T20:44:05+00:00	2020-08-06T13:44:05-07:00	2020-08-06T20:48:12+00:00	2020-08-08T06:59:59+00:00	-2	78xd4m1wg2y5090@marketplace.amazon.com	Lezlie E. Milson	+1 929-436-4790 ext. 94623	ABR0022	Purchase Now for Delivery by Monday | Arabella Farm Direct Bouquet of 12 Fresh Cut Pink Roses with a Free Glass Vase	1	0	1	NextDay	Libby Miller	311 FLORAL DR			GREEN BAY	WI	54301-2203	US		Dear Libby, We wish you a REFUAH SHLEHMA!  Sending Best Wishes, and Lots of Love,   Fondly,  Lezlie, Sammy, Elaine & the rest of our crowd From Lezlie E. Milson	false		
111-9303193-8133021	04563833922618	2020-08-06T20:45:41+00:00	2020-08-06T13:45:41-07:00	2020-08-06T20:48:16+00:00	2020-08-08T06:59:59+00:00	-2	lx2bhzt9w0w9h0z@marketplace.amazon.com	shawnmarie1962	+1 929-436-4790 ext. 22406	ABR0022	Purchase Now for Delivery by Monday | Arabella Farm Direct Bouquet of 12 Fresh Cut Pink Roses with a Free Glass Vase	1	0	1	NextDay	Ella Carnahan	1353 ROXANNE DR			EL CAJON	CA	92021-1030	US			false		
112-6024198-8106646	25893807552362	2020-08-06T20:51:26+00:00	2020-08-06T13:51:26-07:00	2020-08-06T20:52:27+00:00	2020-08-08T06:59:59+00:00	-2	494np793ztz79fh@marketplace.amazon.com	Carleen Barnett	+1 929-436-4790 ext. 87930	ABR0022	Purchase Now for Delivery by Monday | Arabella Farm Direct Bouquet of 12 Fresh Cut Pink Roses with a Free Glass Vase	1	0	1	NextDay	Susan Kriss	302 CYPRESS RUN CT			NORTH PORT	FL	34287-3329	US		Dear Sue,  We were so sorry to hear of the passing of Fritz. Wishing you peace and love from now on. From Carleen Barnett	false		
114-2784771-5555467	66204455849842	2020-08-06T20:55:16+00:00	2020-08-06T13:55:16-07:00	2020-08-06T20:59:34+00:00	2020-08-08T06:59:59+00:00	-2	yjr6sth41cgzk33@marketplace.amazon.com	Douglas Lamb	+1 929-436-4790 ext. 51351	ABR001	Purchase Now for Delivery by Monday | Arabella Bouquets 12 Stems of Fresh Cut Red Roses in a Free Designer Glass Vase	1	0	1	NextDay	Vitru V-Kean	4005 MANZANITA AVE # 66			CARMICHAEL	CA	95608-1770	US			false		
114-9536749-7207467	68055349100682	2020-08-06T20:54:48+00:00	2020-08-06T13:54:48-07:00	2020-08-06T21:25:36+00:00	2020-08-11T06:59:59+00:00	-5	044zpyldcjdx0qv@marketplace.amazon.com	Sarah rupp	+1 929-436-4790 ext. 06015	ABR0066	Purchase Now for Delivery by Monday | Arabella Bouquets 12 Stems of Fresh Cut White Roses in a Free Designer Glass Vase	1	0	1	Expedited	Jacqueline Rupp	550 14TH RD S			ARLINGTON	VA	22202-7400	US			false		
113-4822870-8491437	51165639084074	2020-08-06T21:09:01+00:00	2020-08-06T14:09:01-07:00	2020-08-06T21:37:33+00:00	2020-08-11T06:59:59+00:00	-5	9drtqq9z98xr9xs@marketplace.amazon.com	Maribeth Dee	+1 929-436-4790 ext. 43356	ABR0022	Purchase Now for Delivery by Monday | Arabella Farm Direct Bouquet of 12 Fresh Cut Pink Roses with a Free Glass Vase	1	0	1	Expedited	Donna  Tobey	16 ATHLONE WAY			HYANNIS	MA	02601-5304	US		Happy Birthday, Donna! Blessings & love, Allen and Maribeth From Allen & Maribeth Dee	false		
114-7714310-3281007	46683784212730	2020-08-06T21:49:35+00:00	2020-08-06T14:49:35-07:00	2020-08-06T21:50:26+00:00	2020-08-08T06:59:59+00:00	-2	jhfmkyn6wgx0gj1@marketplace.amazon.com	lilkim131@aol.com	+1 929-436-4790 ext. 43707	ABR0066	Purchase Now for Delivery by Monday | Arabella Bouquets 12 Stems of Fresh Cut White Roses in a Free Designer Glass Vase	1	0	1	NextDay	Annie Lee	2466 NW 87TH ST			MIAMI	FL	33147-3818	US			false		
113-4849369-0103442	54126823892570	2020-08-06T21:55:10+00:00	2020-08-06T14:55:10-07:00	2020-08-06T21:57:32+00:00	2020-08-08T06:59:59+00:00	-2	7l0rhzq4ll7646c@marketplace.amazon.com	Cindy Elton	+1 929-436-4790 ext. 89520	ABR004	Arabella Farm Direct Bouquet of 12 Fresh Cut Yellow Roses with a Free Glass Vase	1	0	1	NextDay	Gwen Rapp	141 LAKE EDDINS 16387			PACHUTA	MS	39347-5237	US		Happy belated Birthday - I wish I was there to give you a Birthday hug!  Hope you had a fabulous day. From Cindy Elton	false		
111-3873266-1223440	68992645855146	2020-08-06T22:01:50+00:00	2020-08-06T15:01:50-07:00	2020-08-06T22:05:29+00:00	2020-08-08T06:59:59+00:00	-2	7ywk9w3yl9zvqgz@marketplace.amazon.com	Jean Millar	+1 929-436-4790 ext. 37198	ABR0055	Purchase Now for Delivery by Monday | Arabella Farm Direct Bouquet of 12 Stems of Fresh Cut Hot Pink Roses in a Free Designer Glass Vase	1	0	1	NextDay	Katie Millar	1300 MILLS ST			MENLO PARK	CA	94025-3279	US		Happy Birthday, Katie!!! 35 never looked so good! 💕💕💕💕💕 From Mom	false		
113-6521438-7017809	44669883798258	2020-08-06T22:04:12+00:00	2020-08-06T15:04:12-07:00	2020-08-06T22:07:21+00:00	2020-08-08T06:59:59+00:00	-2	qhdgwxc9bgygj3c@marketplace.amazon.com	Derrick Bowyer	+1 929-436-4790 ext. 80995	ABM010	Purchase Now for Delivery by Monday | The Spring Fling Bouquet by Arabella Bouquets with a Free Designer Glass Vase	1	0	1	NextDay	Joan Hay	2803 NE 170TH ST			RIDGEFIELD	WA	98642-6906	US			false		
114-9509520-0563436	06326273248874	2020-08-06T22:14:25+00:00	2020-08-06T15:14:25-07:00	2020-08-06T22:18:23+00:00	2020-08-08T06:59:59+00:00	-2	sg7xqqnk3j9c2r4@marketplace.amazon.com	Jeffrey Sinclair	+1 929-436-4790 ext. 40073	ABR001	Purchase Now for Delivery by Monday | Arabella Bouquets 12 Stems of Fresh Cut Red Roses in a Free Designer Glass Vase	1	0	1	NextDay	Marta Geibrich	27051 BROOK FOREST RD			PUNTA GORDA	FL	33950-1303	US		I was wrong to miss our Anniversary. I hope you can find it in your heart to forgive me.  Love always, Your husband. From Jeffrey Sinclair	false		
111-5909361-5693063	55023388396834	2020-08-06T21:52:05+00:00	2020-08-06T14:52:05-07:00	2020-08-06T22:22:19+00:00	2020-08-11T06:59:59+00:00	-5	bxy9n3rdyb19nj1@marketplace.amazon.com	John Land	+1 929-436-4790 ext. 82368	ABR0022	Purchase Now for Delivery by Monday | Arabella Farm Direct Bouquet of 12 Fresh Cut Pink Roses with a Free Glass Vase	1	0	1	Expedited	Carol Land	8304 S 107TH EAST AVE			TULSA	OK	74133-2577	US			false		
112-4717858-8169064	30038982662474	2020-08-06T22:32:34+00:00	2020-08-06T15:32:34-07:00	2020-08-06T22:33:31+00:00	2020-08-08T06:59:59+00:00	-2	d1ml85vkhvq1twy@marketplace.amazon.com	Debra L. Lare	+1 929-436-4790 ext. 70277	ABR0022	Purchase Now for Delivery by Monday | Arabella Farm Direct Bouquet of 12 Fresh Cut Pink Roses with a Free Glass Vase	1	0	1	NextDay	Natasha Smith	13514 CHEVY CHASE CT			CHANTILLY	VA	20151-3339	US		Hope your birthday is fantastic!!!  Happy, happy birthday! From Deb	false		
114-1089363-4122660	12191607186050	2020-08-06T22:38:13+00:00	2020-08-06T15:38:13-07:00	2020-08-06T22:39:11+00:00	2020-08-08T06:59:59+00:00	-2	0lk2y8yy0flzxts@marketplace.amazon.com	Maura Byrne	+1 929-436-4790 ext. 63193	ABR0055	Purchase Now for Delivery by Monday | Arabella Farm Direct Bouquet of 12 Stems of Fresh Cut Hot Pink Roses in a Free Designer Glass Vase	1	0	1	NextDay	Donna M Byrne	277 CASS MILL RD			ALEXANDRIA	NH	03222-6505	US		Just a little something to make you smile. : ) Love you!! - Maura From Maura Braatz	false		
113-6940038-8349860	43841770643794	2020-08-06T22:58:04+00:00	2020-08-06T15:58:04-07:00	2020-08-06T22:59:03+00:00	2020-08-08T06:59:59+00:00	-2	k3nfkpyv803lhrs@marketplace.amazon.com	Bronfman	+1 929-436-4790 ext. 59748	ABM010	Purchase Now for Delivery by Monday | The Spring Fling Bouquet by Arabella Bouquets with a Free Designer Glass Vase	1	0	1	NextDay	Vanessa Ochs	1617 SAINT ANNES RD			CHARLOTTESVILLE	VA	22901-3045	US		Thank you for your dedication to this year's Fellows! From Jake, Becky & The Bronfman Team	false		
112-6634029-9208230	51779059145994	2020-08-06T22:34:12+00:00	2020-08-06T15:34:12-07:00	2020-08-06T22:59:57+00:00	2020-08-11T06:59:59+00:00	-5	47z407r7mq35djm@marketplace.amazon.com	jane morgan	+1 929-436-4790 ext. 69601	ABR004	Arabella Farm Direct Bouquet of 12 Fresh Cut Yellow Roses with a Free Glass Vase	1	0	1	Expedited	Glenda Taylor	14537 VICTORIA ST			HOUSTON	TX	77015-4153	US		Glenda, Just a surprise to say  I love you! Hope this brightens Your day. Lv Jane xo	false		
113-2903749-3324218	07265657820858	2020-08-06T22:58:04+00:00	2020-08-06T15:58:04-07:00	2020-08-06T23:01:18+00:00	2020-08-08T06:59:59+00:00	-2	k3nfkpyv803lhrs@marketplace.amazon.com	Bronfman	+1 929-436-4790 ext. 49626	ABM010	Purchase Now for Delivery by Monday | The Spring Fling Bouquet by Arabella Bouquets with a Free Designer Glass Vase	1	0	1	NextDay	Micha'el Rosenberg	103 GREATON RD # 1			WEST ROXBURY	MA	02132-1426	US		Thank you for your dedication to this year's Fellows! From Jake, Becky & The Bronfman Team	false		
112-6015495-0090633	32187119076986	2020-08-06T22:38:55+00:00	2020-08-06T15:38:55-07:00	2020-08-06T23:06:45+00:00	2020-08-11T06:59:59+00:00	-5	47z407r7mq35djm@marketplace.amazon.com	jane morgan	+1 929-436-4790 ext. 49398	ABR004	Arabella Farm Direct Bouquet of 12 Fresh Cut Yellow Roses with a Free Glass Vase	1	0	1	Expedited	Janet Gauna	2906 MEADOW LN			TAYLOR	TX	76574-5324	US		Hi Janet, Just to say I love you! Hope this brightens your day! Love Jane xo	false		
112-6450646-5937027	29692577697210	2020-08-06T22:44:48+00:00	2020-08-06T15:44:48-07:00	2020-08-06T23:11:16+00:00	2020-08-11T06:59:59+00:00	-5	47z407r7mq35djm@marketplace.amazon.com	jane morgan	+1 929-436-4790 ext. 01023	ABR004	Arabella Farm Direct Bouquet of 12 Fresh Cut Yellow Roses with a Free Glass Vase	1	0	1	Standard	Jessica Weiss	169 SHEFFIELD DR			DOVER	DE	19901-1623	US		Jessica, Happy Birthday a Little early but We know your dad  and husband will cover you on the  Actual day. Love an and uf xoxo	false		
114-2847784-3433803	14663308660906	2020-08-06T23:19:49+00:00	2020-08-06T16:19:49-07:00	2020-08-06T23:20:39+00:00	2020-08-08T06:59:59+00:00	-2	7bkkp1lwdw0nrbl@marketplace.amazon.com	Ray Stark	+1 929-436-4790 ext. 58481	ABR0022	Purchase Now for Delivery by Monday | Arabella Farm Direct Bouquet of 12 Fresh Cut Pink Roses with a Free Glass Vase	1	0	1	NextDay	C & M Smith	423 COUNTY ROAD 2153			NACOGDOCHES	TX	75965-4885	US		Hi, Michelle  and Craig, Thanks  so much for taking good care of me  on my last visit.  I feel very  comfortable in your home , Love to you both. Ray	false		
112-0356026-7124219	40005557393546	2020-08-06T22:52:21+00:00	2020-08-06T15:52:21-07:00	2020-08-06T23:22:31+00:00	2020-08-11T06:59:59+00:00	-5	zt73yd9z2y9hz3t@marketplace.amazon.com	Randi Stokes	+1 929-436-4790 ext. 70490	ABR0055	Purchase Now for Delivery by Monday | Arabella Farm Direct Bouquet of 12 Stems of Fresh Cut Hot Pink Roses in a Free Designer Glass Vase	1	0	1	Expedited	Sandi McArthur	15422 ACORN WAY E			TACOMA	WA	98445-5903	US			false		
111-5078118-5161841	16051945399834	2020-08-06T23:27:00+00:00	2020-08-06T16:27:00-07:00	2020-08-06T23:27:57+00:00	2020-08-08T06:59:59+00:00	-2	0y1dr9ht6304g2x@marketplace.amazon.com	Libby Coleman	+1 929-436-4790 ext. 41254	ABB007	Arabella Farm Direct Bouquet of 24 Fresh Cut Pink Roses with a Free Glass Vase	1	0	1	NextDay	Alexandra Hallock	34 GREYLEDGE DR			LOUDONVILLE	NY	12211-2054	US		Happy birthday Mom 💕 ❤️💕 Love you! Libby	false		
112-8699725-5545040	07684123771754	2020-08-06T23:05:15+00:00	2020-08-06T16:05:15-07:00	2020-08-06T23:28:39+00:00	2020-08-11T06:59:59+00:00	-5	n6pthqzpdwc7ng3@marketplace.amazon.com	Alba	+1 929-436-4790 ext. 61167	ABR001	Purchase Now for Delivery by Monday | Arabella Bouquets 12 Stems of Fresh Cut Red Roses in a Free Designer Glass Vase	1	0	1	Expedited	Carmen	96 PAPER BIRCH AVE	ASHEVILLE NORTH CAROLINA 28806 CASA		ASHEVILLE	NC	28806-0006	US			false		
114-6931304-2961823	33043403290938	2020-08-06T23:27:28+00:00	2020-08-06T16:27:28-07:00	2020-08-06T23:31:25+00:00	2020-08-08T06:59:59+00:00	-2	gmk0672tb5g00pj@marketplace.amazon.com	Rebekah	+1 929-436-4790 ext. 41154	ABM010	Purchase Now for Delivery by Monday | The Spring Fling Bouquet by Arabella Bouquets with a Free Designer Glass Vase	1	0	1	NextDay	Scott Gray and Sarah Dimick Gray	883 BETTY LN			EAGAN	MN	55123-2462	US		Thinking of you, Fiona! From The Dimick Eastman family	false		
111-1225559-5694641	36120489691930	2020-08-06T23:36:02+00:00	2020-08-06T16:36:02-07:00	2020-08-06T23:39:04+00:00	2020-08-08T06:59:59+00:00	-2	tng5qfr7xv2y5qc@marketplace.amazon.com	Ngoc Tran	+1 929-436-4790 ext. 57473	ABR001	Purchase Now for Delivery by Monday | Arabella Bouquets 12 Stems of Fresh Cut Red Roses in a Free Designer Glass Vase	1	0	1	NextDay	Lien Dinh	9410 Chester Ave.			St. Louis	MO	63114	US		Happy Birthday, mom! From Ngoc Tran	false		
112-0754649-2650659	57819172756042	2020-08-07T00:05:04+00:00	2020-08-06T17:05:04-07:00	2020-08-07T00:07:39+00:00	2020-08-08T06:59:59+00:00	-2	7pbq52tbfdtb8mx@marketplace.amazon.com	Denise L Janey	+1 929-436-4790 ext. 05392	ABR0022	Purchase Now for Delivery by Monday | Arabella Farm Direct Bouquet of 12 Fresh Cut Pink Roses with a Free Glass Vase	1	0	1	NextDay	Mrs Claudia Haines Janey	3 Bandy Lane			Milford	Massachusetts	01757	US		Hi Nana, We hope you have a great birthday!!!  We Love You!! From Deni, Richard and Rachel	false		
111-9656195-8253065	26710338098370	2020-08-07T00:15:09+00:00	2020-08-06T17:15:09-07:00	2020-08-07T00:16:05+00:00	2020-08-08T06:59:59+00:00	-2	f91hpstjwmwrhc6@marketplace.amazon.com	Cathryn Hu	+1 929-436-4790 ext. 56425	ABR0022	Purchase Now for Delivery by Monday | Arabella Farm Direct Bouquet of 12 Fresh Cut Pink Roses with a Free Glass Vase	1	0	1	NextDay	Betty	14642 NEWPORT AVE STE 470			TUSTIN	CA	92780-6063	US			true		Business Price
112-8398828-5041818	05455872447642	2020-08-07T00:20:05+00:00	2020-08-06T17:20:05-07:00	2020-08-07T00:20:54+00:00	2020-08-08T06:59:59+00:00	-2	q3b47drdgpxz803@marketplace.amazon.com	Edna	+1 929-436-4790 ext. 74611	ABR0022	Purchase Now for Delivery by Monday | Arabella Farm Direct Bouquet of 12 Fresh Cut Pink Roses with a Free Glass Vase	1	0	1	NextDay	Lisa Pettiford	19821 LONESOME PINE DR			LAND O LAKES	FL	34638-2694	US		Lis, love you so much! Thank you for always being there for me! You have been such a great friend, mentor and sis!!’ I will truly miss seeing you. Please promise to stay in touch!   XO From Edna	false		
113-8342816-1856255	48984025331602	2020-08-07T00:22:49+00:00	2020-08-06T17:22:49-07:00	2020-08-07T00:24:31+00:00	2020-08-08T06:59:59+00:00	-2	9xdmg4n35tt45k9@marketplace.amazon.com	Ruth Hurley	+1 929-436-4790 ext. 99885	ABR0022	Purchase Now for Delivery by Monday | Arabella Farm Direct Bouquet of 12 Fresh Cut Pink Roses with a Free Glass Vase	1	0	1	NextDay	Robin Yesavage	2102 STAGS LEAP			CELINA	TX	75009-2818	US		Robin, So glad to hear that all went well with your surgery and wishing you a speedy recovery.   XOXO! From Ruth	false		
114-7746255-0149045	48448168010826	2020-08-07T00:23:12+00:00	2020-08-06T17:23:12-07:00	2020-08-07T00:28:35+00:00	2020-08-08T06:59:59+00:00	-2	ptk6tllcq49x8n3@marketplace.amazon.com	Danny Thrower	+1 929-436-4790 ext. 12947	ABR014	Arabella Bouquets 18 Stems of Fresh Cut White Roses in a Free Designer Glass Vase	1	0	1	NextDay	Lindsey Accronero	100 POLLEY LN			PLEASANT HILL	CA	94523-4625	US			false		
113-3559722-6278657	54042578021138	2020-08-06T23:53:22+00:00	2020-08-06T16:53:22-07:00	2020-08-07T00:29:59+00:00	2020-08-08T06:59:59+00:00	-2	9tqpgj0rnz72cl9@marketplace.amazon.com	Patricia M. Green	+1 929-436-4790 ext. 28914	ABR0022	Purchase Now for Delivery by Monday | Arabella Farm Direct Bouquet of 12 Fresh Cut Pink Roses with a Free Glass Vase	1	0	1	NextDay	Janice Main	GENEVA LIVING CENTER 196 NORTH ST			GENEVA	NY	14456-1651	US			false		
112-9421609-4550667	53878606878210	2020-08-07T00:40:07+00:00	2020-08-06T17:40:07-07:00	2020-08-07T00:42:26+00:00	2020-08-08T06:59:59+00:00	-2	bnfz25tmytz9k20@marketplace.amazon.com	Janet M Bauer	+1 929-436-4790 ext. 44933	ABM010	Purchase Now for Delivery by Monday | The Spring Fling Bouquet by Arabella Bouquets with a Free Designer Glass Vase	1	0	1	NextDay	Shirley Hollar	500 SAINT PATRICK RD			BALTIMORE	MD	21206-2112	US		Mom & Al, Beautiful flowers for awesome parents!!  Love Eddie, Janny, Keith, Edward & Elizabeth From Janet M Bauer	false		
113-5766812-4381036	55979346404442	2020-08-07T00:45:12+00:00	2020-08-06T17:45:12-07:00	2020-08-07T00:46:09+00:00	2020-08-08T06:59:59+00:00	-2	9mjvnwfv2mzxgzd@marketplace.amazon.com	margie guyger	+1 929-436-4790 ext. 84201	ABR0055	Purchase Now for Delivery by Monday | Arabella Farm Direct Bouquet of 12 Stems of Fresh Cut Hot Pink Roses in a Free Designer Glass Vase	1	0	1	NextDay	heidi plourde	57 MOHAWK RD			WEST ENFIELD	ME	04493-4502	US		Enjoy your gift!   thinking of you! From margie & patty	false		
111-5703841-0926622	70288639056586	2020-08-04T00:03:47+00:00	2020-08-03T17:03:47-07:00	2020-08-07T01:00:59+00:00	2020-08-08T06:59:59+00:00	-2	zv6g1gqw60glbmj@marketplace.amazon.com	Sonnen Go	+1 929-436-4790 ext. 00069	ABR0055	Purchase Now for Delivery by Thursday | Arabella Farm Direct Bouquet of 12 Stems of Fresh Cut Hot Pink Roses in a Free Designer Glass Vase	1	0	1	SecondDay	Roseanne Cathe L. Adolfsson	1630 41ST ST APT C1			BROOKLYN	NY	11218-5563	US		Happy 8th on the 8th! Love you 😘 From Sonnen Go	false		
113-8105898-1898656	02740609984842	2020-08-03T01:24:33+00:00	2020-08-02T18:24:33-07:00	2020-08-07T01:01:10+00:00	2020-08-08T06:59:59+00:00	-2	85qfcc6sxg86484@marketplace.amazon.com	Kevin Schauer	+1 929-436-4790 ext. 02872	ABM010	The Spring Fling Bouquet by Arabella Bouquets with a Free Designer Glass Vase	1	0	1	SecondDay	Amber Hofmaster	24 EAST AVE			BELLEVILLE	WI	53508-9334	US		❤ From Kevin Schauer	false		
112-3342875-0590669	47801583529402	2020-08-07T01:05:40+00:00	2020-08-06T18:05:40-07:00	2020-08-07T01:09:07+00:00	2020-08-08T06:59:59+00:00	-2	5p89k609f313wyz@marketplace.amazon.com	John Roberts	+1 929-436-4790 ext. 40088	ABR0022	Purchase Now for Delivery by Monday | Arabella Farm Direct Bouquet of 12 Fresh Cut Pink Roses with a Free Glass Vase	1	0	1	NextDay	Isabel Romo	26641 MEDRA			MISSION VIEJO	CA	92691-1518	US		Happy Birthday to the best cousin in the world! From Love, Randy and Jack	false		
114-3381609-7857832	02558589410674	2020-08-07T01:23:46+00:00	2020-08-06T18:23:46-07:00	2020-08-07T01:27:11+00:00	2020-08-08T06:59:59+00:00	-2	73z44sdj1xx3jf9@marketplace.amazon.com	Lisa Fredda	+1 929-436-4790 ext. 89013	ABR0022	Purchase Now for Delivery by Monday | Arabella Farm Direct Bouquet of 12 Fresh Cut Pink Roses with a Free Glass Vase	1	0	1	NextDay	Summer Anderson	497 NW 45TH CT			FORT LAUDERDALE	FL	33309-3963	US			false		
113-5439420-3898624	21981311175082	2020-08-07T01:28:17+00:00	2020-08-06T18:28:17-07:00	2020-08-07T01:33:12+00:00	2020-08-08T06:59:59+00:00	-2	zwcmqbsf62rxd2f@marketplace.amazon.com	Heather Jochum	+1 929-436-4790 ext. 75309	ABM002	Purchase Now for Delivery by Monday | Arabella Bouquets Fresh Cut White Calla Lilies in a Free Designer Glass Vase |	1	0	1	NextDay	Heather Breidenbach	2320 FAIRHAVEN RD			DAVENPORT	IA	52803-2337	US			false		
111-7590977-7336227	34239244090642	2020-08-07T01:53:10+00:00	2020-08-06T18:53:10-07:00	2020-08-07T01:57:00+00:00	2020-08-08T06:59:59+00:00	-2	l57xl9zn16m735p@marketplace.amazon.com	Josh Shields	+1 929-436-4790 ext. 09310	ABR0022	Purchase Now for Delivery by Monday | Arabella Farm Direct Bouquet of 12 Fresh Cut Pink Roses with a Free Glass Vase	1	0	1	NextDay	Stacey Shields	2903 WESTMORELAND CT			NEW PORT RICHEY	FL	34655-3520	US		Happy birthday! Wish we could spend it together! Miss you and love you! From Josh and Kirsten	false		
112-1576210-9838636	18310013919874	2020-08-07T02:13:06+00:00	2020-08-06T19:13:06-07:00	2020-08-07T02:18:00+00:00	2020-08-08T06:59:59+00:00	-2	vn3pp3tzb880ldy@marketplace.amazon.com	Juli Dajci	+1 929-436-4790 ext. 01658	ABR0022	Purchase Now for Delivery by Monday | Arabella Farm Direct Bouquet of 12 Fresh Cut Pink Roses with a Free Glass Vase	1	0	1	NextDay	Mehdie Allhavran	242 W 61ST ST APT 4C			NEW YORK	NY	10023-7837	US			false		
113-7489467-2127451	04553931737018	2020-08-07T02:03:00+00:00	2020-08-06T19:03:00-07:00	2020-08-07T02:31:02+00:00	2020-08-11T06:59:59+00:00	-5	txv9666n7887mz0@marketplace.amazon.com	Diana	+1 929-436-4790 ext. 67236	ABR0022	Purchase Now for Delivery by Monday | Arabella Farm Direct Bouquet of 12 Fresh Cut Pink Roses with a Free Glass Vase	1	0	1	Expedited	Theresa Kielar	1241 ALLENTOWN RD			QUAKERTOWN	PA	18951-3102	US		Happy Birthday! We Miss and Love you! From Adam & Diana	false		
112-8949400-0427416	11612545932962	2020-08-07T02:29:56+00:00	2020-08-06T19:29:56-07:00	2020-08-07T02:33:18+00:00	2020-08-08T06:59:59+00:00	-2	q0kf7rmlcvfzrqv@marketplace.amazon.com	Anthony Paglia	+1 929-436-4790 ext. 56705	ABR0022	Purchase Now for Delivery by Monday | Arabella Farm Direct Bouquet of 12 Fresh Cut Pink Roses with a Free Glass Vase	1	0	1	NextDay	HannaH Padgett	2025 SE 32ND ST			OCALA	FL	34471-6102	US		Just thinking about you and missing you more and more everyday. From Ant	false		
114-8222368-6498622	34423373491074	2020-08-07T02:37:20+00:00	2020-08-06T19:37:20-07:00	2020-08-07T02:41:31+00:00	2020-08-08T06:59:59+00:00	-2	r73mjpjr4mfqvlp@marketplace.amazon.com	Allan Kressig	+1 929-436-4790 ext. 32189	ABR0022	Purchase Now for Delivery by Monday | Arabella Farm Direct Bouquet of 12 Fresh Cut Pink Roses with a Free Glass Vase	1	0	1	NextDay	Karen Dettmer	#3 Longwood Lane			Ironton	MO	63650	US		Happy Birthday, Mom! From Allan, Amy & Julie	false		
112-3983529-4358643	07714006109970	2020-08-07T02:41:09+00:00	2020-08-06T19:41:09-07:00	2020-08-07T02:46:16+00:00	2020-08-08T06:59:59+00:00	-2	rsbb4nllzycbhgv@marketplace.amazon.com	Nathan	+1 929-436-4790 ext. 21317	ABR001	Purchase Now for Delivery by Monday | Arabella Bouquets 12 Stems of Fresh Cut Red Roses in a Free Designer Glass Vase	1	0	1	NextDay	Briana Rodriguez	2895 SCENIC RIDGE LOOP			LAS CRUCES	NM	88011-0842	US			false		
114-5636562-3911413	54745609841698	2020-08-07T02:19:13+00:00	2020-08-06T19:19:13-07:00	2020-08-07T02:47:22+00:00	2020-08-11T06:59:59+00:00	-5	n25084wysc0qq6j@marketplace.amazon.com	Valeria Villarreal	+1 929-436-4790 ext. 38922	ABR0022	Purchase Now for Delivery by Monday | Arabella Farm Direct Bouquet of 12 Fresh Cut Pink Roses with a Free Glass Vase	1	0	1	Expedited	Roxanne Villarreal	407 CODY RD APT 56			FORT LEAVENWORTH	KS	66027-1439	US		Happy 21st Birthday Roxy!! We wish that we could be there with you to celebrate but hope to see you soon. We love you and miss you so much! From Diego & Valeria Orozco	false		
112-7537457-7299442	29113376467418	2020-08-07T02:28:24+00:00	2020-08-06T19:28:24-07:00	2020-08-07T02:58:10+00:00	2020-08-11T06:59:59+00:00	-5	lm0q05h4pv84c3n@marketplace.amazon.com	Steven Lawson	+1 929-436-4790 ext. 78888	ABR0055	Purchase Now for Delivery by Monday | Arabella Farm Direct Bouquet of 12 Stems of Fresh Cut Hot Pink Roses in a Free Designer Glass Vase	1	0	1	Expedited	Jenny Murphy	15020 SPRUCE ST			LITTLE ELM	TEXAS	75068-2808	US			false		
111-9835647-6963467	51564414598282	2020-08-07T02:59:16+00:00	2020-08-06T19:59:16-07:00	2020-08-07T03:00:00+00:00	2020-08-08T06:59:59+00:00	-2	rjt8bnp7lfqjk2d@marketplace.amazon.com	Chantal Walker	+1 929-436-4790 ext. 00053	ABR004	Purchase Now for Delivery by Monday | Arabella Farm Direct Bouquet of 12 Fresh Cut Yellow Roses with a Free Glass Vase	1	0	1	NextDay	Monique Rhodes	7095 HOLLYWOOD BLVD STE 363			LOS ANGELES	CA	90028-8912	US		Thank you so much for coming into my life and " walking" with me over the past 6 months. I honestly don't think I would be so calm without you in my head every am. So thank you for being you & all you do for us all. Big Hugs From Chantal Walker	false		
112-4884198-9256252	45908081305210	2020-08-07T03:00:39+00:00	2020-08-06T20:00:39-07:00	2020-08-07T03:02:55+00:00	2020-08-08T06:59:59+00:00	-2	488qm4qzd7g6d4v@marketplace.amazon.com	Kelly Wilder	+1 929-436-4790 ext. 72378	ABM010	Purchase Now for Delivery by Monday | The Spring Fling Bouquet by Arabella Bouquets with a Free Designer Glass Vase	1	0	1	NextDay	Cathy Wilder	1305 S WASHINGTON ST			KOKOMO	IN	46902-6352	US		Thank you for all that you do for us and especially Maddy. We love you!! Happy birthday!!! From Kelly, Mike, and Maddy	false		
111-2714514-8417027	67797791015210	2020-08-07T03:10:44+00:00	2020-08-06T20:10:44-07:00	2020-08-07T03:15:07+00:00	2020-08-08T06:59:59+00:00	-2	3hrzw6wn454q2nc@marketplace.amazon.com	sandro franco	+1 929-436-4790 ext. 92330	ABR0022	Purchase Now for Delivery by Monday | Arabella Farm Direct Bouquet of 12 Fresh Cut Pink Roses with a Free Glass Vase	1	0	1	NextDay	Renee M Gersy	11471 MADERA ROSA WAY			SAN DIEGO	CA	92124-2877	US		Ti Amo From sandro	false		
114-5358534-8853844	00622767506338	2020-08-07T03:18:30+00:00	2020-08-06T20:18:30-07:00	2020-08-07T03:21:57+00:00	2020-08-08T06:59:59+00:00	-2	md815nx4cf2s0n5@marketplace.amazon.com	Julia Riley	+1 929-436-4790 ext. 03002	ABR0022	Purchase Now for Delivery by Monday | Arabella Farm Direct Bouquet of 12 Fresh Cut Pink Roses with a Free Glass Vase	1	0	1	NextDay	Joshua and Nicky Riley	4310 6TH AVE			KENOSHA	WI	53140-2932	US		Happy,  happy anniversary🥰 I love you two so very,  very much! From Mom	false		
111-1989152-6612237	47487030673770	2020-08-07T03:29:25+00:00	2020-08-06T20:29:25-07:00	2020-08-07T03:59:50+00:00	2020-08-11T06:59:59+00:00	-5	ml7ql62bqz0zsx6@marketplace.amazon.com	Desmond L. Smith	+1 929-436-4790 ext. 88883	ABR012	Purchase Now for Delivery by Monday | Arabella Farm Direct Bouquet of 18 Fresh Cut Pink Roses with a Free Glass Vase	1	0	1	Expedited	Karen R. Hudson	2013 TILLMAN PARK			SAN ANTONIO	TX	78253-4431	US			false		
113-9173143-3379440	55174192062250	2020-08-07T04:01:49+00:00	2020-08-06T21:01:49-07:00	2020-08-07T04:02:43+00:00	2020-08-08T06:59:59+00:00	-2	s5ywsbtg92mdj48@marketplace.amazon.com	Marilyn Facente	+1 929-436-4790 ext. 19737	ABR004	Purchase Now for Delivery by Monday | Arabella Farm Direct Bouquet of 12 Fresh Cut Yellow Roses with a Free Glass Vase	1	0	1	NextDay	Dr. Marianna Strakhan	SUMMIT MEDICAL GROUP-2ND FLR ONCOLOGY/HEMATOLOGY	31-00 BROADWAY		FAIR LAWN	NJ	07410-3963	US		Dear Dr. Strakhan, Thank you for your tireless and the excellent care! Your efforts are appreciated!! Please know that you are valued, respected and treasured! Enjoy! Sincerely, Marilyn Facente From Marilyn Facente	false		
112-4697319-1811406	61005147421538	2020-08-07T04:25:40+00:00	2020-08-06T21:25:40-07:00	2020-08-07T04:31:30+00:00	2020-08-08T06:59:59+00:00	-2	d4tzrv9mnbthdcw@marketplace.amazon.com	rosaline kanu	+1 929-436-4790 ext. 13513	ABR0055	Purchase Now for Delivery by Monday | Arabella Farm Direct Bouquet of 12 Stems of Fresh Cut Hot Pink Roses in a Free Designer Glass Vase	1	0	1	NextDay	rosaline kanu	9927 GREENBELT RD APT 103			LANHAM	MD	20706-2251	US			false		
114-6089706-2098602	67547451044170	2020-08-07T05:02:24+00:00	2020-08-06T22:02:24-07:00	2020-08-07T05:03:44+00:00	2020-08-08T06:59:59+00:00	-2	rwjdw7twxzryjrj@marketplace.amazon.com	Danielle Owens Wilson	+1 929-436-4790 ext. 29245	ABM010	Purchase Now for Delivery by Monday | The Spring Fling Bouquet by Arabella Bouquets with a Free Designer Glass Vase	1	0	1	NextDay	Maggie Mellow	4201 SHAWNEE AVE			FLINT	MI	48507-2867	US		Happy Birthday, Love You Bunches!! Have a fabulous day!! Xoxo From Dani, Whitley and Aidan	false		
112-6238505-5305835	64111940718914	2020-08-07T04:47:10+00:00	2020-08-06T21:47:10-07:00	2020-08-07T05:14:21+00:00	2020-08-11T06:59:59+00:00	-5	6f9l5k7rvsfrk0v@marketplace.amazon.com	Joey	+1 929-436-4790 ext. 70637	ABR0022	Purchase Now for Delivery by Monday | Arabella Farm Direct Bouquet of 12 Fresh Cut Pink Roses with a Free Glass Vase	1	0	1	Standard	Joey	1744 BANTRY DR			DRESHER	PA	19025-1232	US			false		
114-9237764-4293023	03786557103058	2020-08-07T05:16:08+00:00	2020-08-06T22:16:08-07:00	2020-08-07T05:16:59+00:00	2020-08-08T06:59:59+00:00	-2	k94fhkpms8t6pt9@marketplace.amazon.com	Jennifer Ferguson	+1 929-436-4790 ext. 33500	ABM010	Purchase Now for Delivery by Monday | The Spring Fling Bouquet by Arabella Bouquets with a Free Designer Glass Vase	1	0	1	NextDay	Katherine Faught	10210 DELMAR LN			OVERLAND PARK	KS	66207-3689	US		We all love you SO much! Praying for a speedy recovery for William. We are here for you always. You and your family will be in our hearts. From Zatos	false		
112-2503892-8048246	48402132972434	2020-08-07T05:51:27+00:00	2020-08-06T22:51:27-07:00	2020-08-07T05:53:27+00:00	2020-08-08T06:59:59+00:00	-2	kymjcvg46tc8fbh@marketplace.amazon.com	pamela kwan	+1 929-436-4790 ext. 10482	ABR0022	Purchase Now for Delivery by Monday | Arabella Farm Direct Bouquet of 12 Fresh Cut Pink Roses with a Free Glass Vase	1	0	1	NextDay	Susan Munoz	8313 GRANDVIEW LN			DARIEN	IL	60561-1655	US		Hi Ma! Happy Birthday! We love you very Much! Love, Pam, Edward, Paul and Emily. From Pamela Kwan	false		
113-3086112-9273807	59003562376914	2020-08-07T05:59:35+00:00	2020-08-06T22:59:35-07:00	2020-08-07T06:03:08+00:00	2020-08-08T06:59:59+00:00	-2	dqr4f2qpkn83nzp@marketplace.amazon.com	Scott T Murray	+1 929-436-4790 ext. 07304	ABR0022	Purchase Now for Delivery by Monday | Arabella Farm Direct Bouquet of 12 Fresh Cut Pink Roses with a Free Glass Vase	1	0	1	NextDay	Scott T Murray	127 COURT ST			CHARDON	OH	44024-1209	US		Flowers for the best mom! From Burt	false		
