order-id	order-item-id	purchase-date	payments-date	reporting-date	promise-date	days-past-promise	buyer-email	buyer-name	buyer-phone-number	sku	product-name	quantity-purchased	quantity-shipped	quantity-to-ship	ship-service-level	recipient-name	ship-address-1	ship-address-2	ship-address-3	ship-city	ship-state	ship-postal-code	ship-country	gift-wrap-type	gift-message-text	is-business-order	purchase-order-number	price-designation
114-3554238-3911444	02727229922690	2020-08-07T12:26:12+00:00	2020-08-07T05:26:12-07:00	2020-08-07T12:55:22+00:00	2020-08-12T06:59:59+00:00	-5	qcksqllz7tdbb7t@marketplace.amazon.com	James (Jay) Elnicki	+1 929-436-4790 ext. 21364	ABR001	Purchase Now for Delivery by Tuesday | Arabella Bouquets 12 Stems of Fresh Cut Red Roses in a Free Designer Glass Vase	1	0	1	Standard	Liliana Sawyer	8 MONTGOMERY DR			MILLBURY	MA	01527-3506	US		Liliana,   I Love You and do not want to loose you! From James (Jay) Elnicki	false		
111-1329800-0325845	42518294488258	2020-08-07T12:41:38+00:00	2020-08-07T05:41:38-07:00	2020-08-07T13:08:49+00:00	2020-08-12T06:59:59+00:00	-5	r0ml5fgp710rydp@marketplace.amazon.com	Jacqueline L. Marlier	+1 929-436-4790 ext. 95520	ABM010	Purchase Now for Delivery by Tuesday | The Spring Fling Bouquet by Arabella Bouquets with a Free Designer Glass Vase	1	0	1	Expedited	Ms. Wendy Kamara	131 TONAWANDA ST			DORCHESTER	MA	02124-1316	US		Miss Wendy, I want you to know that my friends and I are keeping you in prayer. Romans 8:11 From Sophie	false		
113-7470802-0588218	12078076026882	2020-08-07T13:48:58+00:00	2020-08-07T06:48:58-07:00	2020-08-07T14:15:13+00:00	2020-08-12T06:59:59+00:00	-5	5jpsczbw5x87qqz@marketplace.amazon.com	Stacia Ramsey	+1 929-436-4790 ext. 58138	ABR0022	Purchase Now for Delivery by Tuesday | Arabella Farm Direct Bouquet of 12 Fresh Cut Pink Roses with a Free Glass Vase	1	0	1	Expedited	Sherry Sigmon	1325 COBBLESTONE TRL			WHITNEY	TX	76692-4019	US		Hope these brighten your day! From Stacia Ramsey	false		
113-8282303-7385003	28279628950386	2020-08-07T14:03:02+00:00	2020-08-07T07:03:02-07:00	2020-08-07T14:32:05+00:00	2020-08-12T06:59:59+00:00	-5	s6d4p4nl5r5bvg5@marketplace.amazon.com	Michelle Bonamy	+1 929-436-4790 ext. 91000	ABM010	Purchase Now for Delivery by Tuesday | The Spring Fling Bouquet by Arabella Bouquets with a Free Designer Glass Vase	1	0	1	Expedited	Yolanda Gonzalez	4816 NILE CT			CARMICHAEL	CA	95608-8036	US		Yolanda I look forward to getting to know you and earning your business. Stay healthy and safe! From Michelle Bonamy Quicken Loans	true		
113-2234534-1391422	51997140882602	2020-08-07T14:48:41+00:00	2020-08-07T07:48:41-07:00	2020-08-07T15:18:47+00:00	2020-08-12T06:59:59+00:00	-5	lp34rsm0vryhlz8@marketplace.amazon.com	jenny brokaw	+1 929-436-4790 ext. 38371	ABR004	Purchase Now for Delivery by Tuesday | Arabella Farm Direct Bouquet of 12 Fresh Cut Yellow Roses with a Free Glass Vase	1	0	1	Expedited	Beverley Valentine	1050 MULBERRY WAY			NASHVILLE	TN	37207-6014	US			false		
112-1709461-0921845	29928236104706	2020-08-07T14:58:33+00:00	2020-08-07T07:58:33-07:00	2020-08-07T15:27:30+00:00	2020-08-12T06:59:59+00:00	-5	yz6x4p7tmlq4syt@marketplace.amazon.com	sharon L benoit	+1 929-436-4790 ext. 46985	ABR004	Purchase Now for Delivery by Tuesday | Arabella Farm Direct Bouquet of 12 Fresh Cut Yellow Roses with a Free Glass Vase	1	0	1	Expedited	Joe and Gayle Franz	2002 ROCHESTER ST			EDINBURG	TX	78539-1821	US		Happy Birthday to my precious cousin! Love, Sharon From sharon L benoit	false		
112-2959349-4115404	66501902783986	2020-08-07T15:17:24+00:00	2020-08-07T08:17:24-07:00	2020-08-07T15:39:33+00:00	2020-08-12T06:59:59+00:00	-5	tzp70rgc0rgzn2p@marketplace.amazon.com	R M REYNOLDS JR	+1 929-436-4790 ext. 47546	ABR0022	Purchase Now for Delivery by Tuesday | Arabella Farm Direct Bouquet of 12 Fresh Cut Pink Roses with a Free Glass Vase	1	0	1	Expedited	Alicia McComb	111 GOLF COURSE RD			CANTON	GA	30114-3202	US		Hope you are feeling better. We are praying for you. Love you From Ann and Maston	false		
114-3294043-6978653	42251034109698	2020-08-07T15:42:36+00:00	2020-08-07T08:42:36-07:00	2020-08-07T16:10:29+00:00	2020-08-12T06:59:59+00:00	-5	4f0xy1ljf8hcw4x@marketplace.amazon.com	Dan Menow	+1 929-436-4790 ext. 60215	ABR0022	Purchase Now for Delivery by Tuesday | Arabella Farm Direct Bouquet of 12 Fresh Cut Pink Roses with a Free Glass Vase	1	0	1	Expedited	Daniel Menow	4803 Howell Street			Philadelphia	Pennsylvania	19135	US			false		
114-0953885-8354656	63433995819994	2020-08-07T15:58:18+00:00	2020-08-07T08:58:18-07:00	2020-08-07T16:26:33+00:00	2020-08-12T06:59:59+00:00	-5	96c07l4s0c0j31s@marketplace.amazon.com	James H Bodenstedt	+1 929-436-4790 ext. 05969	ABR0022	Purchase Now for Delivery by Tuesday | Arabella Farm Direct Bouquet of 12 Fresh Cut Pink Roses with a Free Glass Vase	1	0	1	Expedited	Anna Anderson	146 W 57TH ST APT 46F			NEW YORK	NY	10019-0079	US		Happy Birthday! From Love The Bodenstedt’s	false		
113-0970675-5937834	36279353063978	2020-08-07T16:08:55+00:00	2020-08-07T09:08:55-07:00	2020-08-07T16:39:30+00:00	2020-08-12T06:59:59+00:00	-5	xyp2gv8lxdn5gb4@marketplace.amazon.com	Jessica Lilly	+1 929-436-4790 ext. 29664	ABR0022	Purchase Now for Delivery by Tuesday | Arabella Farm Direct Bouquet of 12 Fresh Cut Pink Roses with a Free Glass Vase	1	0	1	Expedited	Glenda Huston	1127 FLAMINGO AVE			EL CAJON	CA	92021-3323	US			false		
113-9452978-8993010	57748421669298	2020-08-07T17:14:46+00:00	2020-08-07T10:14:46-07:00	2020-08-07T17:45:03+00:00	2020-08-12T06:59:59+00:00	-5	m90t1hkhlg9tm57@marketplace.amazon.com	Barry Beegle	+1 929-436-4790 ext. 91202	ABR001	Purchase Now for Delivery by Tuesday | Arabella Bouquets 12 Stems of Fresh Cut Red Roses in a Free Designer Glass Vase	1	0	1	Expedited	Donna J. Beegle	225 BACHTEL ST SE			NORTH CANTON	OH	44720-3138	US			false		
114-2159735-0047408	42823536178954	2020-08-07T17:21:57+00:00	2020-08-07T10:21:57-07:00	2020-08-07T17:52:21+00:00	2020-08-12T06:59:59+00:00	-5	js4vks5vprhh7bl@marketplace.amazon.com	Leah P Harrell	+1 929-436-4790 ext. 73557	ABM010	Purchase Now for Delivery by Tuesday | The Spring Fling Bouquet by Arabella Bouquets with a Free Designer Glass Vase	1	0	1	Expedited	Margaret Riggins	2110 FLEISCHMANN RD APT 258			TALLAHASSEE	FL	32308-0562	US			false		
113-4836370-2825859	59957352561818	2020-08-07T17:24:20+00:00	2020-08-07T10:24:20-07:00	2020-08-07T17:54:19+00:00	2020-08-12T06:59:59+00:00	-5	9k32xqp5z328v9r@marketplace.amazon.com	John Littleford	+1 929-436-4790 ext. 81286	ABR0055	Purchase Now for Delivery by Tuesday | Arabella Farm Direct Bouquet of 12 Stems of Fresh Cut Hot Pink Roses in a Free Designer Glass Vase	1	0	1	Expedited	Lisa Ireland	13 Shepherd's Knoll			Pebble Beach,	CA	93953	US			false		
112-6932825-0429055	66344573973074	2020-08-07T18:06:11+00:00	2020-08-07T11:06:11-07:00	2020-08-07T18:33:03+00:00	2020-08-12T06:59:59+00:00	-5	w2rjfkv9gcwyh4l@marketplace.amazon.com	Lisa Nagle	+1 929-436-4790 ext. 98489	ABM010	Purchase Now for Delivery by Tuesday | The Spring Fling Bouquet by Arabella Bouquets with a Free Designer Glass Vase	1	0	1	Expedited	Cherri  Gordon	2240 DUNCAN ST			DIXON	CA	95620-4804	US		Sissy, Happy birthday! I love you! Lisa	false		
114-4292226-8935423	24095038079130	2020-08-07T18:16:23+00:00	2020-08-07T11:16:23-07:00	2020-08-07T18:38:19+00:00	2020-08-12T06:59:59+00:00	-5	xmdf70jphj5p9hz@marketplace.amazon.com	Erin Goodell	+1 929-436-4790 ext. 66396	ABR012	Purchase Now for Delivery by Tuesday | Arabella Farm Direct Bouquet of 18 Fresh Cut Pink Roses with a Free Glass Vase	1	0	1	Expedited	Anne Goltz	1962 IACOVETTI CT			TULARE	CA	93274-6294	US		Thank you for everything you have done for me! You will be sooo missed! From Love, Madi	false		
112-8812209-5256226	25231573522330	2020-08-07T18:34:04+00:00	2020-08-07T11:34:04-07:00	2020-08-07T18:38:39+00:00	2020-08-11T06:59:59+00:00	-4	l8hcpb5y75p668w@marketplace.amazon.com	T. Ruth Lopez	+1 929-436-4790 ext. 06563	ABR012	Purchase Now for Delivery by Tuesday | Arabella Farm Direct Bouquet of 18 Fresh Cut Pink Roses with a Free Glass Vase	1	0	1	NextDay	Freeda Breeding	1421 NW 96TH ST			OKLAHOMA CITY	OK	73114-4714	US		Happy Birthday Freeda!! Enjoy your day!!   Love From T. Ruthy Lopez and Ruth Portillo	false		
114-5283767-2057064	34310496501202	2020-08-07T18:42:15+00:00	2020-08-07T11:42:15-07:00	2020-08-07T18:46:10+00:00	2020-08-11T06:59:59+00:00	-4	7h50j26ctks837y@marketplace.amazon.com	Cynthia	+1 929-436-4790 ext. 66739	ABM022	Purple Extravagance Bouquet by Arabella Bouquets	1	0	1	NextDay	Lorrie Snowden	94 KINSEY RD			HARLEYSVILLE	PA	19438-2835	US			false		
114-1925628-1159442	02536318543642	2020-08-07T18:56:21+00:00	2020-08-07T11:56:21-07:00	2020-08-07T18:57:20+00:00	2020-08-11T06:59:59+00:00	-4	fq52269llsbhvfv@marketplace.amazon.com	FRANCINE JACKSON	+1 929-436-4790 ext. 10901	ABR0022	Purchase Now for Delivery by Tuesday | Arabella Farm Direct Bouquet of 12 Fresh Cut Pink Roses with a Free Glass Vase	1	0	1	NextDay	Suzie Mendoza	7822 PINE PKWY			DARIEN	IL	60561-5034	US		Happy Birthday to you.  With smiles and love, Francine From FRANCINE JACKSON	false		
113-2526128-4948243	59274010703826	2020-08-07T18:52:42+00:00	2020-08-07T11:52:42-07:00	2020-08-07T18:58:00+00:00	2020-08-11T06:59:59+00:00	-4	t8lhd0pkb9976dy@marketplace.amazon.com	Tanisha	+1 929-436-4790 ext. 47670	ABR0066	Purchase Now for Delivery by Tuesday | Arabella Bouquets 12 Stems of Fresh Cut White Roses in a Free Designer Glass Vase	1	0	1	NextDay	Ebony Mom	733 CAMELIA AVE			LA PLACE	LA	70068-3049	US			false		
112-4371225-5807406	37868388471570	2020-08-07T19:00:13+00:00	2020-08-07T12:00:13-07:00	2020-08-07T19:03:33+00:00	2020-08-11T06:59:59+00:00	-4	v3ct5lp9h7pk4p0@marketplace.amazon.com	chestina silverman	+1 929-436-4790 ext. 15574	ABR0022	Purchase Now for Delivery by Tuesday | Arabella Farm Direct Bouquet of 12 Fresh Cut Pink Roses with a Free Glass Vase	1	0	1	NextDay	To: Dr. Reagan L. Ross and her awesome loyal team	9768 US HWY 441, Suite 310	Suite 310		Boynton Beach	Florida	33472	US			false		
112-2821328-2931406	25411777820818	2020-08-07T19:06:00+00:00	2020-08-07T12:06:00-07:00	2020-08-07T19:10:49+00:00	2020-08-11T06:59:59+00:00	-4	n8r4mtwmvr0s5zz@marketplace.amazon.com	Nertila Shehu	+1 929-436-4790 ext. 04007	ABR0022	Purchase Now for Delivery by Tuesday | Arabella Farm Direct Bouquet of 12 Fresh Cut Pink Roses with a Free Glass Vase	1	0	1	NextDay	Luena Lamani	2 REPTON CIR UNIT 2315			WATERTOWN	MA	02472-2496	US		Happy birthday! From Nertila &Gledis	false		
114-1143771-4862649	55910992459714	2020-08-07T19:09:16+00:00	2020-08-07T12:09:16-07:00	2020-08-07T19:11:00+00:00	2020-08-11T06:59:59+00:00	-4	g64ysythv5whvcq@marketplace.amazon.com	steve pavlic	+1 929-436-4790 ext. 85943	ABR0022	Purchase Now for Delivery by Tuesday | Arabella Farm Direct Bouquet of 12 Fresh Cut Pink Roses with a Free Glass Vase	1	0	1	NextDay	Marie Pavlic	21 MERRIVALE DR			SMITHTOWN	NY	11787-4414	US		Happy 80th Birthday Mom!    God blessed us with your life, how fortunate we have been. Hopefully, next year, we can really celebrate.  God bless you! From Your loving children	false		
113-2730727-6997824	39432586795546	2020-08-07T18:44:56+00:00	2020-08-07T11:44:56-07:00	2020-08-07T19:14:26+00:00	2020-08-12T06:59:59+00:00	-5	psn0h39ssqz7ptv@marketplace.amazon.com	Tony Negrete	+1 929-436-4790 ext. 33494	ABM010	Purchase Now for Delivery by Tuesday | The Spring Fling Bouquet by Arabella Bouquets with a Free Designer Glass Vase	1	0	1	Expedited	Tony Negrete	1419 DAIRY AVE			CORCORAN	CA	93212-2743	US			false		
112-4429811-3431458	48520477669106	2020-08-07T19:14:48+00:00	2020-08-07T12:14:48-07:00	2020-08-07T19:17:52+00:00	2020-08-11T06:59:59+00:00	-4	wjdhhh5qhf8d91n@marketplace.amazon.com	kimberly alvarez	+1 929-436-4790 ext. 13641	ABM010	Purchase Now for Delivery by Tuesday | The Spring Fling Bouquet by Arabella Bouquets with a Free Designer Glass Vase	1	0	1	NextDay	Danica James	101 CARRIE LN APT 8			REDLANDS	CA	92373-6088	US		Happy Birthday sis!😘🎊🎉🎈🎂🎈🎉🎊 Love you to the moon and back 💗 From kimberly alvarez	false		
114-7319826-4831455	27038725264922	2020-08-07T20:18:46+00:00	2020-08-07T13:18:46-07:00	2020-08-07T20:23:17+00:00	2020-08-11T06:59:59+00:00	-4	0zb9mbczr1lrck5@marketplace.amazon.com	Sandra Kenworthy	+1 929-436-4790 ext. 37371	ABR0055	Purchase Now for Delivery by Tuesday | Arabella Farm Direct Bouquet of 12 Stems of Fresh Cut Hot Pink Roses in a Free Designer Glass Vase	1	0	1	NextDay	Beatriz Lopez	401 LITTLE TEXAS LN	APT 2021 REGENCY PARK APARTMENTS		AUSTIN	TX	78745-4102	US		Feliz cumpleaños Goggui!  Te que remos mucho Familia Kenworthy From Sandra Kenworthy	false		
114-8120937-7701811	39169712462074	2020-08-07T20:50:07+00:00	2020-08-07T13:50:07-07:00	2020-08-07T20:51:01+00:00	2020-08-11T06:59:59+00:00	-4	t90xp5kn0blpsm3@marketplace.amazon.com	Dan Gibson	+1 929-436-4790 ext. 23155	ABR0055	Purchase Now for Delivery by Tuesday | Arabella Farm Direct Bouquet of 12 Stems of Fresh Cut Hot Pink Roses in a Free Designer Glass Vase	1	0	1	NextDay	Libby GMG	311 INLET WAY APT 6	INLET REEF APARTMENTS		PALM BEACH SHORES	FL	33404-6276	US		I hope you receive these and you like them. I’m so very proud of you, Happy one year! Look what God did. Congratulations!!! Keep up the great work. N hello Cousy n Dumm Dumm From Dan 😘	false		
112-3021936-9166647	58437759542674	2020-08-07T20:52:17+00:00	2020-08-07T13:52:17-07:00	2020-08-07T20:54:22+00:00	2020-08-11T06:59:59+00:00	-4	k0h23fg5g6b96qv@marketplace.amazon.com	Kristen Mosley	+1 929-436-4790 ext. 04090	ABR0022	Purchase Now for Delivery by Tuesday | Arabella Farm Direct Bouquet of 12 Fresh Cut Pink Roses with a Free Glass Vase	1	0	1	NextDay	Savannah Partin	648 PLACE SAINT ETIENNE			COVINGTON	LA	70433-8137	US		Can't wait to meet that baby girl and see your face - Love you! Kristen From Kristen Mosley	false		
113-1124672-6715439	06466363432234	2020-08-07T20:56:18+00:00	2020-08-07T13:56:18-07:00	2020-08-07T20:57:14+00:00	2020-08-11T06:59:59+00:00	-4	vy5ycs21s5js2m1@marketplace.amazon.com	Melissa	+1 929-436-4790 ext. 99318	ABR0022	Purchase Now for Delivery by Tuesday | Arabella Farm Direct Bouquet of 12 Fresh Cut Pink Roses with a Free Glass Vase	1	0	1	NextDay	Paule Dorval	6 NELSON ST APT 2			DORCHESTER	MA	02124-4366	US		Just a little something to let you know, even though I'm not there right now, I'm thinking of you. SO GET BETTER NOW! LMAO! From Melissa	false		
112-5873654-9824206	17341507232026	2020-08-07T21:14:50+00:00	2020-08-07T14:14:50-07:00	2020-08-07T21:17:07+00:00	2020-08-11T06:59:59+00:00	-4	v3ct5lp9h7pk4p0@marketplace.amazon.com	chestina silverman	+1 929-436-4790 ext. 76362	ABR0022	Purchase Now for Delivery by Tuesday | Arabella Farm Direct Bouquet of 12 Fresh Cut Pink Roses with a Free Glass Vase	1	0	1	NextDay	To: Dr. Laurence Ehrlich and his awesome team!	Suite 206			Boynton Beach	Florida	33437	US			false		
111-9342485-3334641	44574400324834	2020-08-07T21:17:43+00:00	2020-08-07T14:17:43-07:00	2020-08-07T21:18:33+00:00	2020-08-11T06:59:59+00:00	-4	rlg72jrkxtm90cp@marketplace.amazon.com	Duvane	+1 929-436-4790 ext. 98269	ABR0022	Purchase Now for Delivery by Tuesday | Arabella Farm Direct Bouquet of 12 Fresh Cut Pink Roses with a Free Glass Vase	1	0	1	NextDay	Ena Abellard	1260 CROTON LOOP APT 8D			BROOKLYN	NY	11239-1502	US		Happy Birthday Grandma! May this day be as beautiful as you! May God bless you with many more birthdays! Love you, from Duvane Dorothy & Goldony Edouard + Amora! From Duvane	false		
114-5599050-7917812	48317985586730	2020-08-07T21:26:00+00:00	2020-08-07T14:26:00-07:00	2020-08-07T21:28:57+00:00	2020-08-11T06:59:59+00:00	-4	npdyrbcdzrfb5gw@marketplace.amazon.com	DONNA FABELA	+1 929-436-4790 ext. 50895	ABR0022	Purchase Now for Delivery by Tuesday | Arabella Farm Direct Bouquet of 12 Fresh Cut Pink Roses with a Free Glass Vase	1	0	1	NextDay	Juli Fabela	10421 CAYUSE CV			AUSTIN	TX	78748-2337	US		Happy Birthday Dear Daughter  We love you very much From DONNA FABELA	false		
113-7606318-3177823	23576526586458	2020-08-07T21:01:17+00:00	2020-08-07T14:01:17-07:00	2020-08-07T21:31:54+00:00	2020-08-12T06:59:59+00:00	-5	nk80mlx08jb9t9y@marketplace.amazon.com	Joy	+1 929-436-4790 ext. 92129	ABR0055	Purchase Now for Delivery by Tuesday | Arabella Farm Direct Bouquet of 12 Stems of Fresh Cut Hot Pink Roses in a Free Designer Glass Vase	1	0	1	Expedited	Rossana Bernardez	3534 CYPRESSWOOD DR			SPRING	TX	77388-5873	US			false		
114-1428290-9558651	09175424742962	2020-08-07T21:33:19+00:00	2020-08-07T14:33:19-07:00	2020-08-07T21:34:21+00:00	2020-08-11T06:59:59+00:00	-4	b7plbyqq1974qm5@marketplace.amazon.com	Gloria Fishman	+1 929-436-4790 ext. 51962	ABR0022	Purchase Now for Delivery by Tuesday | Arabella Farm Direct Bouquet of 12 Fresh Cut Pink Roses with a Free Glass Vase	1	0	1	NextDay	Trisha McGaw	5660 PIPING ROCK LN			HOUSTON	TX	77056-4029	US		What would we do without you!! Love and hugs From Mom and Dad	false		
114-7877362-6651439	23219908410946	2020-08-07T21:45:22+00:00	2020-08-07T14:45:22-07:00	2020-08-07T21:49:35+00:00	2020-08-11T06:59:59+00:00	-4	2ht1y7kvbmb28w4@marketplace.amazon.com	Diana Petrik	+1 929-436-4790 ext. 44903	ABR0055	Purchase Now for Delivery by Tuesday | Arabella Farm Direct Bouquet of 12 Stems of Fresh Cut Hot Pink Roses in a Free Designer Glass Vase	1	0	1	NextDay	Elda Preston	3737 Hoover St			Redwood City	CA	94063	US		Happy Birthday Chupis!  Love, Bill	false		
113-2571734-3427413	57656741317634	2020-08-07T21:49:50+00:00	2020-08-07T14:49:50-07:00	2020-08-07T21:53:52+00:00	2020-08-11T06:59:59+00:00	-4	cmrt7w4y55j6ht6@marketplace.amazon.com	Oleg	+1 929-436-4790 ext. 81943	ABR0022	Purchase Now for Delivery by Tuesday | Arabella Farm Direct Bouquet of 12 Fresh Cut Pink Roses with a Free Glass Vase	1	0	1	NextDay	Oleg Yershov	30 Waterside Plaza, Apt.5H			New York	New York	10010	US			false		
111-6584735-0963417	11074245231282	2020-08-07T22:18:47+00:00	2020-08-07T15:18:47-07:00	2020-08-07T22:19:43+00:00	2020-08-11T06:59:59+00:00	-4	3bzjyc38tzwhchs@marketplace.amazon.com	bonnieberdan	+1 929-436-4790 ext. 20772	ABM010	Purchase Now for Delivery by Tuesday | The Spring Fling Bouquet by Arabella Bouquets with a Free Designer Glass Vase	1	0	1	NextDay	Patricia Morahan	3 BUCCANEER LN			EAST SETAUKET	NY	11733-1805	US		Dear Pat, Hope you are feeling better soon. Take care. Love, Chris & Bonnie From bonnieberdan	false		
111-7184990-9443434	15547623590874	2020-08-07T22:20:16+00:00	2020-08-07T15:20:16-07:00	2020-08-07T22:25:28+00:00	2020-08-11T06:59:59+00:00	-4	cp2f0j2rc7jmr63@marketplace.amazon.com	tina baerd	+1 929-436-4790 ext. 62432	ABR0022	Purchase Now for Delivery by Tuesday | Arabella Farm Direct Bouquet of 12 Fresh Cut Pink Roses with a Free Glass Vase	1	0	1	NextDay	Dorothy Suhr	145 LEISUREVILLE CIR			WOODLAND	CA	95776-9424	US			false		
111-6734462-2376225	32862099242306	2020-08-07T22:49:22+00:00	2020-08-07T15:49:22-07:00	2020-08-07T22:50:26+00:00	2020-08-11T06:59:59+00:00	-4	z8gtc519kdc975s@marketplace.amazon.com	Jenny Weaver	+1 929-436-4790 ext. 09099	ABR0055	Purchase Now for Delivery by Tuesday | Arabella Farm Direct Bouquet of 12 Stems of Fresh Cut Hot Pink Roses in a Free Designer Glass Vase	1	0	1	NextDay	shawn Richards	905 GLADEWOOD DR APT 3A			MISHAWAKA	IN	46544-8905	US		Hoping you have a speedy recovery and looking forward to your return!  Hope you're catching up on all the Netflix you can stand! From Your Neuro Team!!!	false		
113-0761591-5811434	38401310006586	2020-08-07T23:02:42+00:00	2020-08-07T16:02:42-07:00	2020-08-07T23:03:48+00:00	2020-08-11T06:59:59+00:00	-4	jjzjhft5x3mhf38@marketplace.amazon.com	Alysha Jordan	+1 929-436-4790 ext. 48237	ABR0022	Purchase Now for Delivery by Tuesday | Arabella Farm Direct Bouquet of 12 Fresh Cut Pink Roses with a Free Glass Vase	1	0	1	NextDay	Marilyn Hendon	5000 HILLSBORO PIKE APT A-1			NASHVILLE	TN	37215-3754	US		I ove you! As these flowers are around may you feel our love with you!!! We can’t wait to see you again. Happy Birthday! Missing you very much! From Love, A	false		
111-7798607-1262655	10617843824322	2020-08-07T23:10:28+00:00	2020-08-07T16:10:28-07:00	2020-08-07T23:12:38+00:00	2020-08-11T06:59:59+00:00	-4	zpgw4lgqj3n904x@marketplace.amazon.com	Lindsay	+1 929-436-4790 ext. 82839	ABR0055	Purchase Now for Delivery by Tuesday | Arabella Farm Direct Bouquet of 12 Stems of Fresh Cut Hot Pink Roses in a Free Designer Glass Vase	1	0	1	NextDay	Dede Fitzpatrick	2951 INITIAL AVE			ENUMCLAW	WA	98022-2341	US		Enjoy your gift! From Lindsay	false		
113-3497187-4574668	44469378082114	2020-08-07T23:40:23+00:00	2020-08-07T16:40:23-07:00	2020-08-07T23:44:14+00:00	2020-08-11T06:59:59+00:00	-4	pb41gvm60qhyfkb@marketplace.amazon.com	Fanny Familia	+1 929-436-4790 ext. 99883	ABR004	Purchase Now for Delivery by Tuesday | Arabella Farm Direct Bouquet of 12 Fresh Cut Yellow Roses with a Free Glass Vase	1	0	1	NextDay	Clara de la Cruz	159 BENNINGTON ST			LAWRENCE	MA	01841-1143	US		HAPPY BIRTHDAY SISTER!!  Love you, Ñoña From Catalina dela Cruz	false		
112-7137052-4740255	43319015002466	2020-08-08T00:09:34+00:00	2020-08-07T17:09:34-07:00	2020-08-08T00:37:44+00:00	2020-08-12T06:59:59+00:00	-5	hsjs9gsqn7v7h81@marketplace.amazon.com	Sue H. Sipe	+1 929-436-4790 ext. 27943	ABR0022	Purchase Now for Delivery by Tuesday | Arabella Farm Direct Bouquet of 12 Fresh Cut Pink Roses with a Free Glass Vase	1	0	1	Expedited	Sue H. Sipe	7348 WARNER CREEK DR			CHESTER	CA	96020-9420	US		Thank you, Granny Sue for the meals, the dog watching, the laundry and everything else you do to make our stay so great!  We love you and really appreciate you! From Sandy, Josh, Seamus, Caleb, Samson, Lassen	false		
113-7139547-2058657	47938548122642	2020-08-08T01:41:40+00:00	2020-08-07T18:41:40-07:00	2020-08-08T01:45:29+00:00	2020-08-11T06:59:59+00:00	-4	dkgmc1qhmfhty17@marketplace.amazon.com	Sonia Guerrero	+1 929-436-4790 ext. 54270	ABR001	Purchase Now for Delivery by Tuesday | Arabella Bouquets 12 Stems of Fresh Cut Red Roses in a Free Designer Glass Vase	1	0	1	NextDay	Shirley Chestnut	22901 OLD LUMBERTON RD			MAXTON	NC	28364-7094	US		Have a Wonderful Birthday!  Love, From Keira Chestnut and Sonia	false		
113-4227982-3734636	29844437631690	2020-08-08T01:51:19+00:00	2020-08-07T18:51:19-07:00	2020-08-08T01:53:25+00:00	2020-08-11T06:59:59+00:00	-4	wnty1hfch1hz50k@marketplace.amazon.com	Honest	+1 929-436-4790 ext. 09897	ABR001	Purchase Now for Delivery by Tuesday | Arabella Bouquets 12 Stems of Fresh Cut Red Roses in a Free Designer Glass Vase	1	0	1	NextDay	Tony Hilgar	583 PIERSON DR	STATE COLLEGE PA 16803		STATE COLLEGE	PA	16803-2264	US		I’m sending you this from my heart. I love you so much. Kisses and a hug for you. From Honest	false		
112-5634864-2909866	31671314751018	2020-08-08T01:37:13+00:00	2020-08-07T18:37:13-07:00	2020-08-08T01:57:38+00:00	2020-08-12T06:59:59+00:00	-5	cr7pwwfvhpgljdf@marketplace.amazon.com	Allison F Bradbury	+1 929-436-4790 ext. 22692	ABR0055	Purchase Now for Delivery by Tuesday | Arabella Farm Direct Bouquet of 12 Stems of Fresh Cut Hot Pink Roses in a Free Designer Glass Vase	1	0	1	Expedited	Dawn McGrath	35446 BYRON TRL			BEAUMONT	CA	92223-6218	US			false		
111-6075418-3647408	00588011035682	2020-08-08T02:01:43+00:00	2020-08-07T19:01:43-07:00	2020-08-08T02:06:07+00:00	2020-08-11T06:59:59+00:00	-4	g6qxnddt4x84103@marketplace.amazon.com	Candi Di Biase	+1 929-436-4790 ext. 23714	ABR0022	Purchase Now for Delivery by Tuesday | Arabella Farm Direct Bouquet of 12 Fresh Cut Pink Roses with a Free Glass Vase	1	0	1	NextDay	Joanne Di Biase	56 POINT DR N			DUNKIRK	NY	14048-1022	US			false		
113-0532213-7840221	56901934281218	2020-08-08T02:07:07+00:00	2020-08-07T19:07:07-07:00	2020-08-08T02:08:00+00:00	2020-08-11T06:59:59+00:00	-4	km50bxx4735g1b0@marketplace.amazon.com	Eric	+1 929-436-4790 ext. 68346	ABR0033	Purchase Now for Delivery by Tuesday | Arabella Farm Direct Bouquet of 12 Fresh Cut Orange Roses with a Free Glass Vase	1	0	1	NextDay	Ruth K Goldman	13 CHANNING WAY			SAUSALITO	CA	94965-2303	US		We hope you feel better soon. Sending lots of love and extra hugs. From Eric,  Shannon  & Neva From Eric,  Shannon  & Neva	false		
112-0935155-7926625	17254049223850	2020-08-08T02:35:31+00:00	2020-08-07T19:35:31-07:00	2020-08-08T02:38:11+00:00	2020-08-11T06:59:59+00:00	-4	p6mvt7gtffw6h6n@marketplace.amazon.com	mary e reed	+1 929-436-4790 ext. 82440	ABR0055	Purchase Now for Delivery by Tuesday | Arabella Farm Direct Bouquet of 12 Stems of Fresh Cut Hot Pink Roses in a Free Designer Glass Vase	1	0	1	NextDay	Lexi Denton	1925B FANNIE DR			TALLAHASSEE	FL	32303-3204	US		Happy New Adventures! Love, Mary From mary e reed	false		
112-0574280-7840264	15713517086482	2020-08-08T02:52:17+00:00	2020-08-07T19:52:17-07:00	2020-08-08T02:55:53+00:00	2020-08-11T06:59:59+00:00	-4	6lsjw1v1pzcy9xv@marketplace.amazon.com	Michael DeCrescenzo	+1 929-436-4790 ext. 03155	ABR0066	Purchase Now for Delivery by Tuesday | Arabella Bouquets 12 Stems of Fresh Cut White Roses in a Free Designer Glass Vase	1	0	1	NextDay	Grace DeCrescenzo	8508 CLARK MILLS RD			WHITESBORO	NY	13492-2700	US			false		
114-2041950-6702621	49716196758418	2020-08-08T03:11:20+00:00	2020-08-07T20:11:20-07:00	2020-08-08T03:13:31+00:00	2020-08-11T06:59:59+00:00	-4	qvx56qbnj5881ys@marketplace.amazon.com	Mazsola	+1 929-436-4790 ext. 10011	ABR0022	Purchase Now for Delivery by Tuesday | Arabella Farm Direct Bouquet of 12 Fresh Cut Pink Roses with a Free Glass Vase	1	0	1	NextDay	Eva Vagi	19410 LARODA LN			SANTA CLARITA	CA	91350-3233	US		Happy birthday, Evi From Gyuri es Moni	false		
