order-id	order-item-id	purchase-date	payments-date	reporting-date	promise-date	days-past-promise	buyer-email	buyer-name	buyer-phone-number	sku	product-name	quantity-purchased	quantity-shipped	quantity-to-ship	ship-service-level	recipient-name	ship-address-1	ship-address-2	ship-address-3	ship-city	ship-state	ship-postal-code	ship-country	gift-wrap-type	gift-message-text	is-business-order	purchase-order-number	price-designation
112-4153212-2057848	07375423255442	2020-08-08T10:53:21+00:00	2020-08-08T03:53:21-07:00	2020-08-08T11:21:30+00:00	2020-08-11T06:59:59+00:00	-3	vdm8sd43h8d29xp@marketplace.amazon.com	Teresa's stranczek	+1 929-436-4790 ext. 36750	ABR0055	Arabella Farm Direct Bouquet of 12 Stems of Fresh Cut Hot Pink Roses in a Free Designer Glass Vase	1	0	1	SecondDay	Judy Stranczek	1020 N BERRY TRAIL CT			COPPER CANYON	TX	75077-8557	US		Happy Birthday Judy!! Love,  Teresa & Todd From Teresa's stranczek	false		
113-6303973-0181022	42962009017354	2020-08-08T11:08:47+00:00	2020-08-08T04:08:47-07:00	2020-08-08T11:37:58+00:00	2020-08-11T06:59:59+00:00	-3	lrqk7xrp54h2tpg@marketplace.amazon.com	Richard N Aviles	+1 929-436-4790 ext. 97564	ABM0044	Purchase Now for Delivery by Wednesday | Arabella Farm Direct Bouquet of Fresh Cut Blue Hydrangea with a Free Glass Vase	1	0	1	SecondDay	Catherine Turbett	180 S MERRIMACK RD			HOLLIS	NH	03049-6233	US		Just because I was thinking about you xoxo From Love, Lizz	false		
113-0827149-0105822	62154365545610	2020-08-08T11:40:47+00:00	2020-08-08T04:40:47-07:00	2020-08-08T12:03:00+00:00	2020-08-11T06:59:59+00:00	-3	khqrcxvpv6s7z0q@marketplace.amazon.com	Carolina Araque Gomez	+1 929-436-4790 ext. 91591	ABR0055	Purchase Now for Delivery by Wednesday | Arabella Farm Direct Bouquet of 12 Stems of Fresh Cut Hot Pink Roses in a Free Designer Glass Vase	1	0	1	SecondDay	Maria Lucero Gomez	351 Union Avenue	Ap C6		Elizabeth	NJ	07208	US		Mama te amamos!! From Caro y Beto	false		
112-4361618-9934608	44807077903482	2020-08-08T12:41:27+00:00	2020-08-08T05:41:27-07:00	2020-08-08T13:22:46+00:00	2020-08-12T06:59:59+00:00	-4	n9tvn3cj0kqh597@marketplace.amazon.com	d c dowhan	+1 929-436-4790 ext. 11607	ABR0022	Purchase Now for Delivery by Wednesday | Arabella Farm Direct Bouquet of 12 Fresh Cut Pink Roses with a Free Glass Vase	1	0	1	Expedited	leslie dowhan	29 LIBERTY CMN			RYE	NH	03870-2012	US			false		
111-3988350-7201056	67319408047946	2020-08-08T12:55:14+00:00	2020-08-08T05:55:14-07:00	2020-08-08T13:25:15+00:00	2020-08-11T06:59:59+00:00	-3	xjj75s1b9snwp6v@marketplace.amazon.com	Elizabeth Shaw	+1 929-436-4790 ext. 14698	ABR001	Purchase Now for Delivery by Wednesday | Arabella Bouquets 12 Stems of Fresh Cut Red Roses in a Free Designer Glass Vase	1	0	1	SecondDay	Michael/Carol McGreal	47 MARY ANN RD			OAK RIDGE	NJ	07438-8821	US			false		
112-5455709-2145844	16940518924514	2020-08-08T13:22:55+00:00	2020-08-08T06:22:55-07:00	2020-08-08T13:52:12+00:00	2020-08-11T06:59:59+00:00	-3	msmd66vvg84zc2s@marketplace.amazon.com	MICHEAL E JACKSON	+1 929-436-4790 ext. 75756	ABR0022	Purchase Now for Delivery by Wednesday | Arabella Farm Direct Bouquet of 12 Fresh Cut Pink Roses with a Free Glass Vase	1	0	1	SecondDay	Tiffany Hall	2109 SAWDUST RD APT 31205	# 31205 THE WOODLANDS TX 77380		THE WOODLANDS	TX	77380-5717	US		Wish I could be with you. From MJ	false		
112-0592032-1336251	23794879215546	2020-08-08T13:47:28+00:00	2020-08-08T06:47:28-07:00	2020-08-08T14:16:16+00:00	2020-08-11T06:59:59+00:00	-3	w66slb1rmwms092@marketplace.amazon.com	Chris	+1 929-436-4790 ext. 04694	ABR0022	Purchase Now for Delivery by Wednesday | Arabella Farm Direct Bouquet of 12 Fresh Cut Pink Roses with a Free Glass Vase	1	0	1	SecondDay	Stella Swenson	3095 WAGNER RD			AURORA	IL	60502-8612	US		Happy Birthday Stella!!! I hope you have a wonderful day. I hope Kent spoils you!  Enjoy your day. From Michelle Fritz	false		
112-1687436-0945008	21744415950586	2020-08-08T14:04:27+00:00	2020-08-08T07:04:27-07:00	2020-08-08T14:24:09+00:00	2020-08-11T06:59:59+00:00	-3	n9yv8kbgcbz9xk8@marketplace.amazon.com	Darlene Page	+1 929-436-4790 ext. 04072	ABR0055	Purchase Now for Delivery by Wednesday | Arabella Farm Direct Bouquet of 12 Stems of Fresh Cut Hot Pink Roses in a Free Designer Glass Vase	1	0	1	SecondDay	Ms. Goodlin	1414 S VOGDES ST			PHILADELPHIA	PA	19143-5304	US		Enjoy your gift! From Martin & Darlene Goodlin From Martin & Darlene	false		
114-2891946-3101846	55031962079106	2020-08-08T14:24:51+00:00	2020-08-08T07:24:51-07:00	2020-08-08T14:53:32+00:00	2020-08-11T06:59:59+00:00	-3	yylv8tcs3nl7r1g@marketplace.amazon.com	Victoria D Hanes	+1 929-436-4790 ext. 45849	ABM0044	Purchase Now for Delivery by Wednesday | Arabella Farm Direct Bouquet of Fresh Cut Blue Hydrangea with a Free Glass Vase	1	0	1	SecondDay	Marianne O'Brien	256 43RD ST			AVALON	NJ	08202-1412	US		Happy Birthday Marianne, hope these brighten your special day!  Love, Diane From Victoria D Hanes	false		
113-7281721-8675453	38646458355890	2020-08-08T14:27:34+00:00	2020-08-08T07:27:34-07:00	2020-08-08T14:54:23+00:00	2020-08-11T06:59:59+00:00	-3	d1k86dcz15g8mhb@marketplace.amazon.com	linda mccraw	+1 929-436-4790 ext. 45453	ABR0022	Purchase Now for Delivery by Wednesday | Arabella Farm Direct Bouquet of 12 Fresh Cut Pink Roses with a Free Glass Vase	1	0	1	SecondDay	Roseann Lirette	2 FAITH DR			EGG HARBOR TOWNSHIP	NJ	08234-5353	US		You are special Rosie, know we love you. Linda and Jim From linda mccraw	false		
112-5103794-5070636	21461929694770	2020-08-08T14:26:06+00:00	2020-08-08T07:26:06-07:00	2020-08-08T14:55:48+00:00	2020-08-11T06:59:59+00:00	-3	nkrss65hggd0c77@marketplace.amazon.com	Monique	+1 929-436-4790 ext. 73825	ABM022	Purple Extravagance Bouquet by Arabella Bouquets	1	0	1	SecondDay	Mrs. Marie Edwards	6 WINNERS CIR APT 334			ALBANY	NY	12205-5984	US			false		
112-4229742-4663459	07149982106386	2020-08-08T14:28:33+00:00	2020-08-08T07:28:33-07:00	2020-08-08T14:56:28+00:00	2020-08-12T06:59:59+00:00	-4	vv2918kkdwzs8c4@marketplace.amazon.com	Sylvia Rodriguez	+1 929-436-4790 ext. 22025	ABR0022	Purchase Now for Delivery by Wednesday | Arabella Farm Direct Bouquet of 12 Fresh Cut Pink Roses with a Free Glass Vase	1	0	1	Standard	Kayla Perez	912 LOVVORN RD APT 1333			CARROLLTON	GA	30117-2651	US			false		
113-6005329-1743466	24707478544866	2020-08-08T15:11:30+00:00	2020-08-08T08:11:30-07:00	2020-08-08T15:41:03+00:00	2020-08-11T06:59:59+00:00	-3	t7j1bzgb9l1ngv1@marketplace.amazon.com	Rosie Gutmann	+1 929-436-4790 ext. 90857	ABR012	Purchase Now for Delivery by Wednesday | Arabella Farm Direct Bouquet of 18 Fresh Cut Pink Roses with a Free Glass Vase	1	0	1	SecondDay	Rosemary Gutmann	181 COTTONWOOD DR			HAWLEY	PA	18428-4003	US		Dear Mema, We hope this helps make you feel better! Love, Cordelia, Rosie and Jeffy From Rosie Gutmann	false		
113-0861374-5945030	68505182613298	2020-08-08T15:20:03+00:00	2020-08-08T08:20:03-07:00	2020-08-08T15:48:47+00:00	2020-08-11T06:59:59+00:00	-3	6zhpvzhdmf7s7w3@marketplace.amazon.com	frank e. little jr	+1 929-436-4790 ext. 00210	ABR0022	Purchase Now for Delivery by Wednesday | Arabella Farm Direct Bouquet of 12 Fresh Cut Pink Roses with a Free Glass Vase	1	0	1	SecondDay	FRANK LITTLE JR	10 VISTA RD			HAMILTON	NJ	08690-2314	US		HAPPY BIRTHDAY WIFEY  GFL 307  ALL MY LOVE From GRINGO HUBBY	false		
114-7844187-7717851	63445562233034	2020-08-08T15:19:08+00:00	2020-08-08T08:19:08-07:00	2020-08-08T15:48:57+00:00	2020-08-11T06:59:59+00:00	-3	kxpllhvc7rvh6xk@marketplace.amazon.com	Daniel	+1 929-436-4790 ext. 01269	ABR0022	Purchase Now for Delivery by Wednesday | Arabella Farm Direct Bouquet of 12 Fresh Cut Pink Roses with a Free Glass Vase	1	0	1	SecondDay	Daniel R Petersen	C/O BETTY PETERSEN	300 S CLINTON ST APT 5D		DENVER	CO	80247-1273	US			false		
112-6090732-1757854	32905403938434	2020-08-08T14:56:49+00:00	2020-08-08T07:56:49-07:00	2020-08-08T16:23:48+00:00	2020-08-12T06:59:59+00:00	-4	9gl21w9jt975bqc@marketplace.amazon.com	Kartik sharma	+1 929-436-4790 ext. 66865	ABR001	Purchase Now for Delivery by Wednesday | Arabella Bouquets 12 Stems of Fresh Cut Red Roses in a Free Designer Glass Vase	1	0	1	Expedited	Lisa braden	404 VISTA LN FREMONT			FREMONT	MI	49412-1371	US			false		
113-6931807-2711415	26314930901562	2020-08-08T16:14:15+00:00	2020-08-08T09:14:15-07:00	2020-08-08T16:44:19+00:00	2020-08-12T06:59:59+00:00	-4	llrs1wl9hbvh8hl@marketplace.amazon.com	JAMES M BROOKS	+1 929-436-4790 ext. 21709	ABR0055	Purchase Now for Delivery by Wednesday | Arabella Farm Direct Bouquet of 12 Stems of Fresh Cut Hot Pink Roses in a Free Designer Glass Vase	1	0	1	Expedited	Ms Inge Burke	713 NAVIGATORS WAY			EDGEWATER	FL	32141-5923	US			false		
114-1214616-7862639	24377804143530	2020-08-08T17:01:45+00:00	2020-08-08T10:01:45-07:00	2020-08-08T17:24:11+00:00	2020-08-11T06:59:59+00:00	-3	766jsgz37dsp899@marketplace.amazon.com	Ben Cooper	+1 929-436-4790 ext. 81264	ABR0022	Purchase Now for Delivery by Wednesday | Arabella Farm Direct Bouquet of 12 Fresh Cut Pink Roses with a Free Glass Vase	1	0	1	SecondDay	Benjamin Cooper	9606 S TRACE RD			MILTON	FL	32583-9273	US		Hope this brightens your day Jenny! Love you lots :) From Ben Cooper	false		
111-3847363-1638667	46605223005994	2020-08-08T17:01:37+00:00	2020-08-08T10:01:37-07:00	2020-08-08T17:26:46+00:00	2020-08-11T06:59:59+00:00	-3	j4l33r5bf83j5zx@marketplace.amazon.com	William Dodd	+1 929-436-4790 ext. 89294	ABR0022	Purchase Now for Delivery by Wednesday | Arabella Farm Direct Bouquet of 12 Fresh Cut Pink Roses with a Free Glass Vase	1	0	1	SecondDay	Carol Mazzara	64 VAN NESS DR			BRICK	NJ	08723-5761	US			false		
111-7034491-4168238	42514485668402	2020-08-08T17:07:14+00:00	2020-08-08T10:07:14-07:00	2020-08-08T17:37:02+00:00	2020-08-11T06:59:59+00:00	-3	blxp66gqjyvx021@marketplace.amazon.com	Elijah Ramirez	+1 929-436-4790 ext. 59083	ABR0055	Purchase Now for Delivery by Wednesday | Arabella Farm Direct Bouquet of 12 Stems of Fresh Cut Hot Pink Roses in a Free Designer Glass Vase	1	0	1	SecondDay	Blanca Soto	WOMEN S HEALTH & REPRODUCTIVE CENTE	10861 CHERRY ST STE 109		LOS ALAMITOS	CA	90720-5400	US		I crown you the Queen of my heart. From Elijah Ramirez	false		
113-3695644-2282657	39126577835578	2020-08-08T17:34:15+00:00	2020-08-08T10:34:15-07:00	2020-08-08T17:58:57+00:00	2020-08-11T06:59:59+00:00	-3	k0sx4gnyvpx98vc@marketplace.amazon.com	jane dwyer	+1 929-436-4790 ext. 43854	ABR0055	Purchase Now for Delivery by Wednesday | Arabella Farm Direct Bouquet of 12 Stems of Fresh Cut Hot Pink Roses in a Free Designer Glass Vase	1	0	1	SecondDay	Barbara Dwyer	222 GREENWAVE BLVD			LARKSVILLE	PA	18704-1657	US			false		
112-0646661-8104243	52443375782426	2020-08-08T17:36:36+00:00	2020-08-08T10:36:36-07:00	2020-08-08T18:06:26+00:00	2020-08-11T06:59:59+00:00	-3	2qg666bsqjk490w@marketplace.amazon.com	Neil McNinch	+1 929-436-4790 ext. 06525	ABR0022	Purchase Now for Delivery by Wednesday | Arabella Farm Direct Bouquet of 12 Fresh Cut Pink Roses with a Free Glass Vase	1	0	1	SecondDay	Wendy Ronghi	591 GARLAND DR			NILES	OH	44446-1108	US			false		
114-7842040-7546644	32380589341994	2020-08-08T17:40:53+00:00	2020-08-08T10:40:53-07:00	2020-08-08T18:10:14+00:00	2020-08-11T06:59:59+00:00	-3	vsmwsdqjdr7v8yk@marketplace.amazon.com	Veronica Gibbs	+1 929-436-4790 ext. 23867	ABR004	Purchase Now for Delivery by Wednesday | Arabella Farm Direct Bouquet of 12 Fresh Cut Yellow Roses with a Free Glass Vase	1	0	1	SecondDay	Tara Brown Sutton	65 E WISTER ST			PHILADELPHIA	PA	19144-5906	US		Social Distance HUG!!!! From Veronica Gibbs	false		
111-8667176-4438659	24367940932578	2020-08-08T17:52:00+00:00	2020-08-08T10:52:00-07:00	2020-08-08T18:22:24+00:00	2020-08-12T06:59:59+00:00	-4	y9lzb2rth489nkc@marketplace.amazon.com	Andreas Kiss	+1 929-436-4790 ext. 87882	ABR0022	Purchase Now for Delivery by Wednesday | Arabella Farm Direct Bouquet of 12 Fresh Cut Pink Roses with a Free Glass Vase	1	0	1	Expedited	Andreas Kiss	0-178 Tunbridge Road			Fair Lawn	NJ	07410	US			false		
111-1183646-3180232	29475315750738	2020-08-08T18:05:00+00:00	2020-08-08T11:05:00-07:00	2020-08-08T18:33:52+00:00	2020-08-11T06:59:59+00:00	-3	dbj0bb9qz4bjj7j@marketplace.amazon.com	Edward A. Capano	+1 929-436-4790 ext. 99466	ABR0055	Purchase Now for Delivery by Wednesday | Arabella Farm Direct Bouquet of 12 Stems of Fresh Cut Hot Pink Roses in a Free Designer Glass Vase	1	0	1	SecondDay	Leslie Capano	5 BROWNELL WAY			SOUTH BURLINGTON	VERMONT	05403-7855	US		Happy premature birthday! Didn’t want to send to LBI. Lvya, Gramps From Edward A. Capano	false		
114-4997693-7737031	52603789957186	2020-08-08T18:27:59+00:00	2020-08-08T11:27:59-07:00	2020-08-08T18:56:21+00:00	2020-08-11T06:59:59+00:00	-3	vv132zbsl7dd6wz@marketplace.amazon.com	Chris Harvie	+1 929-436-4790 ext. 60702	ABR0055	Purchase Now for Delivery by Wednesday | Arabella Farm Direct Bouquet of 12 Stems of Fresh Cut Hot Pink Roses in a Free Designer Glass Vase	1	0	1	SecondDay	Alyssa Harvie	7217 BLAIR RD NW			WASHINGTON	DC	20012-1815	US		Just wanted to say I love you and miss you. Have a great day! From Love Daddy	false		
111-5588237-4655467	43795038644778	2020-08-08T18:59:20+00:00	2020-08-08T11:59:20-07:00	2020-08-08T19:00:14+00:00	2020-08-11T06:59:59+00:00	-3	5h6fyk6y3qcx9jv@marketplace.amazon.com	Carolyn Fields	+1 929-436-4790 ext. 01483	ABSR005	Arabella Bouquets | Fresh Cut Orange Spray Roses in a Free Designer Glass Vase	1	0	1	SecondDay	Helen Dodds	3568 Legareville Rd			Johns Island	SC	29455-8029	US			false		
113-5751824-0848229	11968038678794	2020-08-08T18:51:17+00:00	2020-08-08T11:51:17-07:00	2020-08-08T19:20:17+00:00	2020-08-11T06:59:59+00:00	-3	x2jjrnbv582d2kn@marketplace.amazon.com	LISA C LAMBERT	29576	ABR0022	Purchase Now for Delivery by Wednesday | Arabella Farm Direct Bouquet of 12 Fresh Cut Pink Roses with a Free Glass Vase	1	0	1	SecondDay	Patti Morken	195 WICKLOW DR			MURRELLS INLET	SC	29576-7652	US		Wishing you a joyful birthday and a year filled with health and happiness. From LISA C LAMBERT	false		
112-8381399-3272232	68814947688562	2020-08-08T19:08:28+00:00	2020-08-08T12:08:28-07:00	2020-08-08T19:36:53+00:00	2020-08-11T06:59:59+00:00	-3	l6dntdkty7bhbf4@marketplace.amazon.com	Sonya Miller	+1 929-436-4790 ext. 57221	ABM010	Purchase Now for Delivery by Wednesday | The Spring Fling Bouquet by Arabella Bouquets with a Free Designer Glass Vase	1	0	1	SecondDay	Bertha Miller	8816 ADMIRALS BAY DR			INDIANAPOLIS	IN	46236-9292	US		Happiest of birthdays Grandma Baseball!! We love you!! From Aviana, Luke, Super, and Emmett	false		
111-3636538-3067458	46614615640546	2020-08-08T19:23:06+00:00	2020-08-08T12:23:06-07:00	2020-08-08T19:48:10+00:00	2020-08-11T06:59:59+00:00	-3	vlrby3tn2fwtyj4@marketplace.amazon.com	Diluted Thought	+1 929-436-4790 ext. 97346	ABM010	Purchase Now for Delivery by Wednesday | The Spring Fling Bouquet by Arabella Bouquets with a Free Designer Glass Vase	1	0	1	SecondDay	Faith Lassiter	216 COTTONWOOD DR			ELKO	NV	89801-8489	US		Happy Birthday Faith We love you and may all your dreams come true! Blessed be  Love always  Jeanette and Miguel From Diluted Thought	false		
113-9641568-2873008	62761209564898	2020-08-08T19:32:38+00:00	2020-08-08T12:32:38-07:00	2020-08-08T19:59:23+00:00	2020-08-11T06:59:59+00:00	-3	1qf1zp4snkd8dcv@marketplace.amazon.com	William S Kordis	+1 929-436-4790 ext. 57400	ABR0022	Purchase Now for Delivery by Wednesday | Arabella Farm Direct Bouquet of 12 Fresh Cut Pink Roses with a Free Glass Vase	1	0	1	SecondDay	Cheryl adams	1668 S ZEPHYR CT			LAKEWOOD	CO	80232-6756	US		Enjoy your gift!   Feel better! From Hugs Nanny Johynne Doyle	false		
