order-id	order-item-id	purchase-date	payments-date	reporting-date	promise-date	days-past-promise	buyer-email	buyer-name	buyer-phone-number	sku	product-name	quantity-purchased	quantity-shipped	quantity-to-ship	ship-service-level	recipient-name	ship-address-1	ship-address-2	ship-address-3	ship-city	ship-state	ship-postal-code	ship-country	gift-wrap-type	gift-message-text	is-business-order	purchase-order-number	price-designation
112-4153212-2057848	07375423255442	2020-08-08T10:53:21+00:00	2020-08-08T03:53:21-07:00	2020-08-08T11:21:30+00:00	2020-08-11T06:59:59+00:00	-1	vdm8sd43h8d29xp@marketplace.amazon.com	Teresa's stranczek	+1 929-436-4790 ext. 36750	ABR0055	Arabella Farm Direct Bouquet of 12 Stems of Fresh Cut Hot Pink Roses in a Free Designer Glass Vase	1	0	1	SecondDay	Judy Stranczek	1020 N BERRY TRAIL CT			COPPER CANYON	TX	75077-8557	US		Happy Birthday Judy!! Love,  Teresa & Todd From Teresa's stranczek	false		
113-6303973-0181022	42962009017354	2020-08-08T11:08:47+00:00	2020-08-08T04:08:47-07:00	2020-08-08T11:37:58+00:00	2020-08-11T06:59:59+00:00	-1	lrqk7xrp54h2tpg@marketplace.amazon.com	Richard N Aviles	+1 929-436-4790 ext. 97564	ABM0044	Purchase Now for Delivery by Wednesday | Arabella Farm Direct Bouquet of Fresh Cut Blue Hydrangea with a Free Glass Vase	1	0	1	SecondDay	Catherine Turbett	180 S MERRIMACK RD			HOLLIS	NH	03049-6233	US		Just because I was thinking about you xoxo From Love, Lizz	false		
113-0827149-0105822	62154365545610	2020-08-08T11:40:47+00:00	2020-08-08T04:40:47-07:00	2020-08-08T12:03:00+00:00	2020-08-11T06:59:59+00:00	-1	khqrcxvpv6s7z0q@marketplace.amazon.com	Carolina Araque Gomez	+1 929-436-4790 ext. 91591	ABR0055	Purchase Now for Delivery by Wednesday | Arabella Farm Direct Bouquet of 12 Stems of Fresh Cut Hot Pink Roses in a Free Designer Glass Vase	1	0	1	SecondDay	Maria Lucero Gomez	351 Union Avenue	Ap C6		Elizabeth	NJ	07208	US		Mama te amamos!! From Caro y Beto	false		
112-4361618-9934608	44807077903482	2020-08-08T12:41:27+00:00	2020-08-08T05:41:27-07:00	2020-08-08T13:22:46+00:00	2020-08-12T06:59:59+00:00	-2	n9tvn3cj0kqh597@marketplace.amazon.com	d c dowhan	+1 929-436-4790 ext. 11607	ABR0022	Purchase Now for Delivery by Wednesday | Arabella Farm Direct Bouquet of 12 Fresh Cut Pink Roses with a Free Glass Vase	1	0	1	Expedited	leslie dowhan	29 LIBERTY CMN			RYE	NH	03870-2012	US			false		
111-3988350-7201056	67319408047946	2020-08-08T12:55:14+00:00	2020-08-08T05:55:14-07:00	2020-08-08T13:25:15+00:00	2020-08-11T06:59:59+00:00	-1	xjj75s1b9snwp6v@marketplace.amazon.com	Elizabeth Shaw	+1 929-436-4790 ext. 14698	ABR001	Purchase Now for Delivery by Wednesday | Arabella Bouquets 12 Stems of Fresh Cut Red Roses in a Free Designer Glass Vase	1	0	1	SecondDay	Michael/Carol McGreal	47 MARY ANN RD			OAK RIDGE	NJ	07438-8821	US			false		
112-5455709-2145844	16940518924514	2020-08-08T13:22:55+00:00	2020-08-08T06:22:55-07:00	2020-08-08T13:52:12+00:00	2020-08-11T06:59:59+00:00	-1	msmd66vvg84zc2s@marketplace.amazon.com	MICHEAL E JACKSON	+1 929-436-4790 ext. 75756	ABR0022	Purchase Now for Delivery by Wednesday | Arabella Farm Direct Bouquet of 12 Fresh Cut Pink Roses with a Free Glass Vase	1	0	1	SecondDay	Tiffany Hall	2109 SAWDUST RD APT 31205	# 31205 THE WOODLANDS TX 77380		THE WOODLANDS	TX	77380-5717	US		Wish I could be with you. From MJ	false		
112-0592032-1336251	23794879215546	2020-08-08T13:47:28+00:00	2020-08-08T06:47:28-07:00	2020-08-08T14:16:16+00:00	2020-08-11T06:59:59+00:00	-1	w66slb1rmwms092@marketplace.amazon.com	Chris	+1 929-436-4790 ext. 04694	ABR0022	Purchase Now for Delivery by Wednesday | Arabella Farm Direct Bouquet of 12 Fresh Cut Pink Roses with a Free Glass Vase	1	0	1	SecondDay	Stella Swenson	3095 WAGNER RD			AURORA	IL	60502-8612	US		Happy Birthday Stella!!! I hope you have a wonderful day. I hope Kent spoils you!  Enjoy your day. From Michelle Fritz	false		
112-1687436-0945008	21744415950586	2020-08-08T14:04:27+00:00	2020-08-08T07:04:27-07:00	2020-08-08T14:24:09+00:00	2020-08-11T06:59:59+00:00	-1	n9yv8kbgcbz9xk8@marketplace.amazon.com	Darlene Page	+1 929-436-4790 ext. 04072	ABR0055	Purchase Now for Delivery by Wednesday | Arabella Farm Direct Bouquet of 12 Stems of Fresh Cut Hot Pink Roses in a Free Designer Glass Vase	1	0	1	SecondDay	Ms. Goodlin	1414 S VOGDES ST			PHILADELPHIA	PA	19143-5304	US		Enjoy your gift! From Martin & Darlene Goodlin From Martin & Darlene	false		
114-2891946-3101846	55031962079106	2020-08-08T14:24:51+00:00	2020-08-08T07:24:51-07:00	2020-08-08T14:53:32+00:00	2020-08-11T06:59:59+00:00	-1	yylv8tcs3nl7r1g@marketplace.amazon.com	Victoria D Hanes	+1 929-436-4790 ext. 45849	ABM0044	Purchase Now for Delivery by Wednesday | Arabella Farm Direct Bouquet of Fresh Cut Blue Hydrangea with a Free Glass Vase	1	0	1	SecondDay	Marianne O'Brien	256 43RD ST			AVALON	NJ	08202-1412	US		Happy Birthday Marianne, hope these brighten your special day!  Love, Diane From Victoria D Hanes	false		
113-7281721-8675453	38646458355890	2020-08-08T14:27:34+00:00	2020-08-08T07:27:34-07:00	2020-08-08T14:54:23+00:00	2020-08-11T06:59:59+00:00	-1	d1k86dcz15g8mhb@marketplace.amazon.com	linda mccraw	+1 929-436-4790 ext. 45453	ABR0022	Purchase Now for Delivery by Wednesday | Arabella Farm Direct Bouquet of 12 Fresh Cut Pink Roses with a Free Glass Vase	1	0	1	SecondDay	Roseann Lirette	2 FAITH DR			EGG HARBOR TOWNSHIP	NJ	08234-5353	US		You are special Rosie, know we love you. Linda and Jim From linda mccraw	false		
112-5103794-5070636	21461929694770	2020-08-08T14:26:06+00:00	2020-08-08T07:26:06-07:00	2020-08-08T14:55:48+00:00	2020-08-11T06:59:59+00:00	-1	nkrss65hggd0c77@marketplace.amazon.com	Monique	+1 929-436-4790 ext. 73825	ABM022	Purple Extravagance Bouquet by Arabella Bouquets	1	0	1	SecondDay	Mrs. Marie Edwards	6 WINNERS CIR APT 334			ALBANY	NY	12205-5984	US			false		
112-4229742-4663459	07149982106386	2020-08-08T14:28:33+00:00	2020-08-08T07:28:33-07:00	2020-08-08T14:56:28+00:00	2020-08-12T06:59:59+00:00	-2	vv2918kkdwzs8c4@marketplace.amazon.com	Sylvia Rodriguez	+1 929-436-4790 ext. 22025	ABR0022	Purchase Now for Delivery by Wednesday | Arabella Farm Direct Bouquet of 12 Fresh Cut Pink Roses with a Free Glass Vase	1	0	1	Standard	Kayla Perez	912 LOVVORN RD APT 1333			CARROLLTON	GA	30117-2651	US			false		
113-6005329-1743466	24707478544866	2020-08-08T15:11:30+00:00	2020-08-08T08:11:30-07:00	2020-08-08T15:41:03+00:00	2020-08-11T06:59:59+00:00	-1	t7j1bzgb9l1ngv1@marketplace.amazon.com	Rosie Gutmann	+1 929-436-4790 ext. 90857	ABR012	Purchase Now for Delivery by Wednesday | Arabella Farm Direct Bouquet of 18 Fresh Cut Pink Roses with a Free Glass Vase	1	0	1	SecondDay	Rosemary Gutmann	181 COTTONWOOD DR			HAWLEY	PA	18428-4003	US		Dear Mema, We hope this helps make you feel better! Love, Cordelia, Rosie and Jeffy From Rosie Gutmann	false		
113-0861374-5945030	68505182613298	2020-08-08T15:20:03+00:00	2020-08-08T08:20:03-07:00	2020-08-08T15:48:47+00:00	2020-08-11T06:59:59+00:00	-1	6zhpvzhdmf7s7w3@marketplace.amazon.com	frank e. little jr	+1 929-436-4790 ext. 00210	ABR0022	Purchase Now for Delivery by Wednesday | Arabella Farm Direct Bouquet of 12 Fresh Cut Pink Roses with a Free Glass Vase	1	0	1	SecondDay	FRANK LITTLE JR	10 VISTA RD			HAMILTON	NJ	08690-2314	US		HAPPY BIRTHDAY WIFEY  GFL 307  ALL MY LOVE From GRINGO HUBBY	false		
114-7844187-7717851	63445562233034	2020-08-08T15:19:08+00:00	2020-08-08T08:19:08-07:00	2020-08-08T15:48:57+00:00	2020-08-11T06:59:59+00:00	-1	kxpllhvc7rvh6xk@marketplace.amazon.com	Daniel	+1 929-436-4790 ext. 01269	ABR0022	Purchase Now for Delivery by Wednesday | Arabella Farm Direct Bouquet of 12 Fresh Cut Pink Roses with a Free Glass Vase	1	0	1	SecondDay	Daniel R Petersen	C/O BETTY PETERSEN	300 S CLINTON ST APT 5D		DENVER	CO	80247-1273	US			false		
112-6090732-1757854	32905403938434	2020-08-08T14:56:49+00:00	2020-08-08T07:56:49-07:00	2020-08-08T16:23:48+00:00	2020-08-12T06:59:59+00:00	-2	9gl21w9jt975bqc@marketplace.amazon.com	Kartik sharma	+1 929-436-4790 ext. 66865	ABR001	Purchase Now for Delivery by Wednesday | Arabella Bouquets 12 Stems of Fresh Cut Red Roses in a Free Designer Glass Vase	1	0	1	Expedited	Lisa braden	404 VISTA LN FREMONT			FREMONT	MI	49412-1371	US			false		
113-6931807-2711415	26314930901562	2020-08-08T16:14:15+00:00	2020-08-08T09:14:15-07:00	2020-08-08T16:44:19+00:00	2020-08-12T06:59:59+00:00	-2	llrs1wl9hbvh8hl@marketplace.amazon.com	JAMES M BROOKS	+1 929-436-4790 ext. 21709	ABR0055	Purchase Now for Delivery by Wednesday | Arabella Farm Direct Bouquet of 12 Stems of Fresh Cut Hot Pink Roses in a Free Designer Glass Vase	1	0	1	Expedited	Ms Inge Burke	713 NAVIGATORS WAY			EDGEWATER	FL	32141-5923	US			false		
114-1214616-7862639	24377804143530	2020-08-08T17:01:45+00:00	2020-08-08T10:01:45-07:00	2020-08-08T17:24:11+00:00	2020-08-11T06:59:59+00:00	-1	766jsgz37dsp899@marketplace.amazon.com	Ben Cooper	+1 929-436-4790 ext. 81264	ABR0022	Purchase Now for Delivery by Wednesday | Arabella Farm Direct Bouquet of 12 Fresh Cut Pink Roses with a Free Glass Vase	1	0	1	SecondDay	Benjamin Cooper	9606 S TRACE RD			MILTON	FL	32583-9273	US		Hope this brightens your day Jenny! Love you lots :) From Ben Cooper	false		
111-3847363-1638667	46605223005994	2020-08-08T17:01:37+00:00	2020-08-08T10:01:37-07:00	2020-08-08T17:26:46+00:00	2020-08-11T06:59:59+00:00	-1	j4l33r5bf83j5zx@marketplace.amazon.com	William Dodd	+1 929-436-4790 ext. 89294	ABR0022	Purchase Now for Delivery by Wednesday | Arabella Farm Direct Bouquet of 12 Fresh Cut Pink Roses with a Free Glass Vase	1	0	1	SecondDay	Carol Mazzara	64 VAN NESS DR			BRICK	NJ	08723-5761	US			false		
111-7034491-4168238	42514485668402	2020-08-08T17:07:14+00:00	2020-08-08T10:07:14-07:00	2020-08-08T17:37:02+00:00	2020-08-11T06:59:59+00:00	-1	blxp66gqjyvx021@marketplace.amazon.com	Elijah Ramirez	+1 929-436-4790 ext. 59083	ABR0055	Purchase Now for Delivery by Wednesday | Arabella Farm Direct Bouquet of 12 Stems of Fresh Cut Hot Pink Roses in a Free Designer Glass Vase	1	0	1	SecondDay	Blanca Soto	WOMEN S HEALTH & REPRODUCTIVE CENTE	10861 CHERRY ST STE 109		LOS ALAMITOS	CA	90720-5400	US		I crown you the Queen of my heart. From Elijah Ramirez	false		
113-3695644-2282657	39126577835578	2020-08-08T17:34:15+00:00	2020-08-08T10:34:15-07:00	2020-08-08T17:58:57+00:00	2020-08-11T06:59:59+00:00	-1	k0sx4gnyvpx98vc@marketplace.amazon.com	jane dwyer	+1 929-436-4790 ext. 43854	ABR0055	Purchase Now for Delivery by Wednesday | Arabella Farm Direct Bouquet of 12 Stems of Fresh Cut Hot Pink Roses in a Free Designer Glass Vase	1	0	1	SecondDay	Barbara Dwyer	222 GREENWAVE BLVD			LARKSVILLE	PA	18704-1657	US			false		
112-0646661-8104243	52443375782426	2020-08-08T17:36:36+00:00	2020-08-08T10:36:36-07:00	2020-08-08T18:06:26+00:00	2020-08-11T06:59:59+00:00	-1	2qg666bsqjk490w@marketplace.amazon.com	Neil McNinch	+1 929-436-4790 ext. 06525	ABR0022	Purchase Now for Delivery by Wednesday | Arabella Farm Direct Bouquet of 12 Fresh Cut Pink Roses with a Free Glass Vase	1	0	1	SecondDay	Wendy Ronghi	591 GARLAND DR			NILES	OH	44446-1108	US			false		
114-7842040-7546644	32380589341994	2020-08-08T17:40:53+00:00	2020-08-08T10:40:53-07:00	2020-08-08T18:10:14+00:00	2020-08-11T06:59:59+00:00	-1	vsmwsdqjdr7v8yk@marketplace.amazon.com	Veronica Gibbs	+1 929-436-4790 ext. 23867	ABR004	Purchase Now for Delivery by Wednesday | Arabella Farm Direct Bouquet of 12 Fresh Cut Yellow Roses with a Free Glass Vase	1	0	1	SecondDay	Tara Brown Sutton	65 E WISTER ST			PHILADELPHIA	PA	19144-5906	US		Social Distance HUG!!!! From Veronica Gibbs	false		
111-8667176-4438659	24367940932578	2020-08-08T17:52:00+00:00	2020-08-08T10:52:00-07:00	2020-08-08T18:22:24+00:00	2020-08-12T06:59:59+00:00	-2	y9lzb2rth489nkc@marketplace.amazon.com	Andreas Kiss	+1 929-436-4790 ext. 87882	ABR0022	Purchase Now for Delivery by Wednesday | Arabella Farm Direct Bouquet of 12 Fresh Cut Pink Roses with a Free Glass Vase	1	0	1	Expedited	Andreas Kiss	0-178 Tunbridge Road			Fair Lawn	NJ	07410	US			false		
111-1183646-3180232	29475315750738	2020-08-08T18:05:00+00:00	2020-08-08T11:05:00-07:00	2020-08-08T18:33:52+00:00	2020-08-11T06:59:59+00:00	-1	dbj0bb9qz4bjj7j@marketplace.amazon.com	Edward A. Capano	+1 929-436-4790 ext. 99466	ABR0055	Purchase Now for Delivery by Wednesday | Arabella Farm Direct Bouquet of 12 Stems of Fresh Cut Hot Pink Roses in a Free Designer Glass Vase	1	0	1	SecondDay	Leslie Capano	5 BROWNELL WAY			SOUTH BURLINGTON	VERMONT	05403-7855	US		Happy premature birthday! Didn’t want to send to LBI. Lvya, Gramps From Edward A. Capano	false		
114-4997693-7737031	52603789957186	2020-08-08T18:27:59+00:00	2020-08-08T11:27:59-07:00	2020-08-08T18:56:21+00:00	2020-08-11T06:59:59+00:00	-1	vv132zbsl7dd6wz@marketplace.amazon.com	Chris Harvie	+1 929-436-4790 ext. 60702	ABR0055	Purchase Now for Delivery by Wednesday | Arabella Farm Direct Bouquet of 12 Stems of Fresh Cut Hot Pink Roses in a Free Designer Glass Vase	1	0	1	SecondDay	Alyssa Harvie	7217 BLAIR RD NW			WASHINGTON	DC	20012-1815	US		Just wanted to say I love you and miss you. Have a great day! From Love Daddy	false		
111-5588237-4655467	43795038644778	2020-08-08T18:59:20+00:00	2020-08-08T11:59:20-07:00	2020-08-08T19:00:14+00:00	2020-08-11T06:59:59+00:00	-1	5h6fyk6y3qcx9jv@marketplace.amazon.com	Carolyn Fields	+1 929-436-4790 ext. 01483	ABSR005	Arabella Bouquets | Fresh Cut Orange Spray Roses in a Free Designer Glass Vase	1	0	1	SecondDay	Helen Dodds	3568 Legareville Rd			Johns Island	SC	29455-8029	US			false		
113-5751824-0848229	11968038678794	2020-08-08T18:51:17+00:00	2020-08-08T11:51:17-07:00	2020-08-08T19:20:17+00:00	2020-08-11T06:59:59+00:00	-1	x2jjrnbv582d2kn@marketplace.amazon.com	LISA C LAMBERT	29576	ABR0022	Purchase Now for Delivery by Wednesday | Arabella Farm Direct Bouquet of 12 Fresh Cut Pink Roses with a Free Glass Vase	1	0	1	SecondDay	Patti Morken	195 WICKLOW DR			MURRELLS INLET	SC	29576-7652	US		Wishing you a joyful birthday and a year filled with health and happiness. From LISA C LAMBERT	false		
112-8381399-3272232	68814947688562	2020-08-08T19:08:28+00:00	2020-08-08T12:08:28-07:00	2020-08-08T19:36:53+00:00	2020-08-11T06:59:59+00:00	-1	l6dntdkty7bhbf4@marketplace.amazon.com	Sonya Miller	+1 929-436-4790 ext. 57221	ABM010	Purchase Now for Delivery by Wednesday | The Spring Fling Bouquet by Arabella Bouquets with a Free Designer Glass Vase	1	0	1	SecondDay	Bertha Miller	8816 ADMIRALS BAY DR			INDIANAPOLIS	IN	46236-9292	US		Happiest of birthdays Grandma Baseball!! We love you!! From Aviana, Luke, Super, and Emmett	false		
111-3636538-3067458	46614615640546	2020-08-08T19:23:06+00:00	2020-08-08T12:23:06-07:00	2020-08-08T19:48:10+00:00	2020-08-11T06:59:59+00:00	-1	vlrby3tn2fwtyj4@marketplace.amazon.com	Diluted Thought	+1 929-436-4790 ext. 97346	ABM010	Purchase Now for Delivery by Wednesday | The Spring Fling Bouquet by Arabella Bouquets with a Free Designer Glass Vase	1	0	1	SecondDay	Faith Lassiter	216 COTTONWOOD DR			ELKO	NV	89801-8489	US		Happy Birthday Faith We love you and may all your dreams come true! Blessed be  Love always  Jeanette and Miguel From Diluted Thought	false		
113-9641568-2873008	62761209564898	2020-08-08T19:32:38+00:00	2020-08-08T12:32:38-07:00	2020-08-08T19:59:23+00:00	2020-08-11T06:59:59+00:00	-1	1qf1zp4snkd8dcv@marketplace.amazon.com	William S Kordis	+1 929-436-4790 ext. 57400	ABR0022	Purchase Now for Delivery by Wednesday | Arabella Farm Direct Bouquet of 12 Fresh Cut Pink Roses with a Free Glass Vase	1	0	1	SecondDay	Cheryl adams	1668 S ZEPHYR CT			LAKEWOOD	CO	80232-6756	US		Enjoy your gift!   Feel better! From Hugs Nanny Johynne Doyle	false		
113-5268978-5485022	18138459667026	2020-08-08T21:12:47+00:00	2020-08-08T14:12:47-07:00	2020-08-08T21:39:54+00:00	2020-08-11T06:59:59+00:00	-1	ky5jgkb6ytt78fc@marketplace.amazon.com	Timothy Maloney	+1 929-436-4790 ext. 80391	ABR0022	Purchase Now for Delivery by Wednesday | Arabella Farm Direct Bouquet of 12 Fresh Cut Pink Roses with a Free Glass Vase	1	0	1	SecondDay	Valerie Rodenborn	16679 TRETHEWAY RD			LODI	CA	95240-9702	US			false		
113-5487462-1725053	44945482405594	2020-08-08T22:28:04+00:00	2020-08-08T15:28:04-07:00	2020-08-08T22:50:19+00:00	2020-08-11T06:59:59+00:00	-1	81914wd1xq7l3fn@marketplace.amazon.com	Shane C. Fanning	+1 929-436-4790 ext. 98378	ABM010	Purchase Now for Delivery by Wednesday | The Spring Fling Bouquet by Arabella Bouquets with a Free Designer Glass Vase	1	0	1	SecondDay	June  Fanning	15016 PRISTINE CIR			RATHDRUM	ID	83858-4918	US		Happy Birthday Mom!  Love you.  Miss you.  Thinking of you, especially this week!  May the strength of the Norwegian pantheon be with you!! From Shane & Liz	false		
114-0057792-2285841	23170728102858	2020-08-08T22:28:55+00:00	2020-08-08T15:28:55-07:00	2020-08-08T22:57:59+00:00	2020-08-11T06:59:59+00:00	-1	44s9fjnxnnfgpsp@marketplace.amazon.com	Jared Alexandrian	+1 929-436-4790 ext. 62846	ABR0022	Purchase Now for Delivery by Wednesday | Arabella Farm Direct Bouquet of 12 Fresh Cut Pink Roses with a Free Glass Vase	1	0	1	SecondDay	Tessa Johnson	7744 SOARING EAGLE DR			FLOWERY BRANCH	GA	30542-7551	US		Enjoy your gift! From Jared Alexandrian	false		
114-7530420-1947416	03029151517866	2020-08-08T22:51:40+00:00	2020-08-08T15:51:40-07:00	2020-08-08T23:30:15+00:00	2020-08-11T06:59:59+00:00	-1	0pcmqv8751wh483@marketplace.amazon.com	Pamela Pedziwiatr	+1 929-436-4790 ext. 47743	ABR0055	Purchase Now for Delivery by Wednesday | Arabella Farm Direct Bouquet of 12 Stems of Fresh Cut Hot Pink Roses in a Free Designer Glass Vase	1	0	1	SecondDay	Elizabeth Wind	19W450 DEERPATH LN			LEMONT	IL	60439-8898	US		Dear Elizabeth and Evan, Congratulations on your beautiful daughter,  Madison Albie!!!!!  We are overjoyed with happiness for you.Love, Pam and Stan From Pamela Pedziwiatr	false		
112-0923233-5854622	13069097819682	2020-08-08T23:26:45+00:00	2020-08-08T16:26:45-07:00	2020-08-08T23:39:41+00:00	2020-08-12T06:59:59+00:00	-2	rbt0l1s8mp4hjkd@marketplace.amazon.com	Josiah	+1 929-436-4790 ext. 21650	ABR0022	Purchase Now for Delivery by Wednesday | Arabella Farm Direct Bouquet of 12 Fresh Cut Pink Roses with a Free Glass Vase	1	0	1	Expedited	Sam Pawlak	13141 DEL MONTE DR UNIT 284 C			SEAL BEACH	CA	90740-4397	US		Every moment is precious just like you, so stop and smell the roses and enjoy with laughter and a smile;   sharing time with you is fine, thank you for sharing your life with us. Gleaton From Carol, Tom	false		
113-9628192-3217801	27082765305882	2020-08-08T23:16:06+00:00	2020-08-08T16:16:06-07:00	2020-08-08T23:44:12+00:00	2020-08-11T06:59:59+00:00	-1	q17y5dvsdnc1ljt@marketplace.amazon.com	Sharon Chidester	+1 929-436-4790 ext. 55106	ABR0022	Purchase Now for Delivery by Wednesday | Arabella Farm Direct Bouquet of 12 Fresh Cut Pink Roses with a Free Glass Vase	1	0	1	SecondDay	Lois Webb	10330 W THUNDERBIRD BLVD	APT C 126		SUN CITY	AZ	85351-3040	US		Thank you for the years of love and care. I love you. From Sharon	false		
114-2813305-1623462	35231021756850	2020-08-08T23:22:53+00:00	2020-08-08T16:22:53-07:00	2020-08-08T23:45:24+00:00	2020-08-11T06:59:59+00:00	-1	7s3jg59mcnrmmwk@marketplace.amazon.com	frank	+1 929-436-4790 ext. 89055	ABR0022	Purchase Now for Delivery by Wednesday | Arabella Farm Direct Bouquet of 12 Fresh Cut Pink Roses with a Free Glass Vase	1	0	1	SecondDay	Linda Williams	39 CHERRY PARK CT APT 5 OSHKOSH	WISCONSIN 54902		OSHKOSH	WI	54902-7805	US		Loving you my angel is the best thing that has ever happened to me.You make me so complete.I will always be your man forever.I LOVE YOU From Michael Smith	false		
112-7780581-1358628	20070582907578	2020-08-08T23:55:24+00:00	2020-08-08T16:55:24-07:00	2020-08-09T00:22:28+00:00	2020-08-11T06:59:59+00:00	-1	7v2nkdt6hdmcgzj@marketplace.amazon.com	Natalie	+1 929-436-4790 ext. 40908	ABR0022	Purchase Now for Delivery by Wednesday | Arabella Farm Direct Bouquet of 12 Fresh Cut Pink Roses with a Free Glass Vase	1	0	1	SecondDay	Ed Badrak	4713 HAMILTON ST			SAN DIEGO	CA	92116-1333	US		Dear Ed and Jan, Best wishes for your upcoming wedding!  Thinking of you, From Natalie and Robert	false		
114-8030677-6270621	45841052715306	2020-08-09T00:04:24+00:00	2020-08-08T17:04:24-07:00	2020-08-09T00:34:56+00:00	2020-08-12T06:59:59+00:00	-2	rw8m440tn7c8h80@marketplace.amazon.com	Harry Steinhauser	+1 929-436-4790 ext. 78479	ABM010	Purchase Now for Delivery by Wednesday | The Spring Fling Bouquet by Arabella Bouquets with a Free Designer Glass Vase	1	0	1	Expedited	Brandi Ennis	778 OLD STONE DR			CLINTWOOD	VA	24228-6739	US			false		
112-6797148-3605863	59613609051482	2020-08-09T01:13:31+00:00	2020-08-08T18:13:31-07:00	2020-08-09T01:43:33+00:00	2020-08-11T06:59:59+00:00	-1	pm2vw7q6p2zzv5q@marketplace.amazon.com	kyra miles	+1 929-436-4790 ext. 55946	ABR0022	Purchase Now for Delivery by Wednesday | Arabella Farm Direct Bouquet of 12 Fresh Cut Pink Roses with a Free Glass Vase	1	0	1	SecondDay	MP Savoie	141 WOODIN RD			CLIFTON PARK	NY	12065-6142	US			false		
114-2839494-4037837	23884815697010	2020-08-09T02:02:05+00:00	2020-08-08T19:02:05-07:00	2020-08-09T02:19:07+00:00	2020-08-11T06:59:59+00:00	-1	ltl141tkhb4x9pt@marketplace.amazon.com	Elsamma Arackal	+1 929-436-4790 ext. 16615	ABM010	Purchase Now for Delivery by Wednesday | The Spring Fling Bouquet by Arabella Bouquets with a Free Designer Glass Vase	1	0	1	SecondDay	Johny Illikkattil	1674 JAMIE LEIGH CT			SNELLVILLE	GA	30078-4303	US		Dear Johny, Thinking of You and Wishing You A Speedy Recovery!  Lots of Love and Prayers! From Your AIIMS Buddies and "Happy Husbands" From AIIMS Buddies	false		
114-5799649-6605838	33992654476754	2020-08-09T02:11:34+00:00	2020-08-08T19:11:34-07:00	2020-08-09T02:39:54+00:00	2020-08-12T06:59:59+00:00	-2	p0glnqbg55zfk9s@marketplace.amazon.com	Brett	+1 929-436-4790 ext. 29727	ABM010	Purchase Now for Delivery by Wednesday | The Spring Fling Bouquet by Arabella Bouquets with a Free Designer Glass Vase	1	0	1	Expedited	Megan Marron	417 E ESTHER ST			TAYLORVILLE	IL	62568-1469	US		I love you and your family so much. Thinking about simpler times and how hard we used to laugh. I’m always here for you.   Love, Church buddy From Brett	false		
114-2263073-7373863	64503832909490	2020-08-09T03:04:19+00:00	2020-08-08T20:04:19-07:00	2020-08-09T03:26:56+00:00	2020-08-12T06:59:59+00:00	-2	mbbpmp43g6mdp9f@marketplace.amazon.com	Randy Hummell	+1 929-436-4790 ext. 59150	ABB006	Arabella Bouquets | Farm Direct 48 Fresh Cut Red Roses	1	0	1	Expedited	Robyn Smith	185 THOMAS ST			MINERAL POINT	PA	15942-5925	US		"My Lovely Robyn, The most Beautiful Lady who I Love with All My Heart and Forever Will. The roses pale in comparison to your beauty, but I hope you will enjoy them From With All My Love Randy	false		
111-0350925-9185023	70349891751242	2020-08-09T03:05:16+00:00	2020-08-08T20:05:16-07:00	2020-08-09T03:34:51+00:00	2020-08-11T06:59:59+00:00	-1	dmpj7w2943z4yp8@marketplace.amazon.com	Thomas Murphy	+1 929-436-4790 ext. 37928	ABR0022	Purchase Now for Delivery by Wednesday | Arabella Farm Direct Bouquet of 12 Fresh Cut Pink Roses with a Free Glass Vase	1	0	1	SecondDay	Lexa Murphy	1942 LAWRENCE ST			PORT TOWNSEND	WA	98368-7929	US			false		
111-5398456-6310660	48892315403610	2020-08-09T03:14:37+00:00	2020-08-08T20:14:37-07:00	2020-08-09T03:40:01+00:00	2020-08-11T06:59:59+00:00	-1	ds51zqbj0dwhl11@marketplace.amazon.com	Putchy	+1 929-436-4790 ext. 03785	ABR0022	Purchase Now for Delivery by Wednesday | Arabella Farm Direct Bouquet of 12 Fresh Cut Pink Roses with a Free Glass Vase	1	0	1	SecondDay	Darren Buonaguidi	5144 W 141ST ST			HAWTHORNE	CA	90250-6508	US		Happy Anniversary! So happy and proud of all your successes.  Love, Marc and Mary From Dad and Mary	false		
111-2643230-4554651	41868188802682	2020-08-09T03:28:52+00:00	2020-08-08T20:28:52-07:00	2020-08-09T03:51:50+00:00	2020-08-11T06:59:59+00:00	-1	vx1f2k9t6vbxgz4@marketplace.amazon.com	Catherine D. Vail	+1 929-436-4790 ext. 40430	ABR0022	Purchase Now for Delivery by Wednesday | Arabella Farm Direct Bouquet of 12 Fresh Cut Pink Roses with a Free Glass Vase	1	0	1	SecondDay	Lia Valenzuela	7334 LUZ DE LUMBRE AVE			EL PASO	TX	79912-8425	US		HAPPY BIRTHDAY , have a great day! From Love, Cathy and Kevin	false		
113-6345978-5855401	70334704292906	2020-08-09T03:25:58+00:00	2020-08-08T20:25:58-07:00	2020-08-09T03:54:35+00:00	2020-08-11T06:59:59+00:00	-1	2ntxn7vc8z8d3n0@marketplace.amazon.com	Jennifer Bapton	+1 929-436-4790 ext. 16873	ABM010	Purchase Now for Delivery by Wednesday | The Spring Fling Bouquet by Arabella Bouquets with a Free Designer Glass Vase	1	0	1	SecondDay	Bloom Family	631 N CATHERINE AVE			LA GRANGE PARK	IL	60526-5601	US		Congratulations on your new home! From Bapton Family	false		
114-8222616-4105058	56829179634362	2020-08-09T05:24:11+00:00	2020-08-08T22:24:11-07:00	2020-08-09T05:52:38+00:00	2020-08-11T06:59:59+00:00	-1	yy7b09m1qxgwbkz@marketplace.amazon.com	Tres Ortiz	+1 929-436-4790 ext. 00305	ABR001	Purchase Now for Delivery by Wednesday | Arabella Bouquets 12 Stems of Fresh Cut Red Roses in a Free Designer Glass Vase	1	0	1	SecondDay	Tres Ortiz	915 TEAL CT APT 13			COLORADO SPRINGS	CO	80910-2301	US		A dozen roses, for the only rose that matters to me. I’ll see you soon my dear wife. I love you. From Your husband	false		
114-5742481-9358624	38486218102610	2020-08-09T10:31:16+00:00	2020-08-09T03:31:16-07:00	2020-08-09T10:57:41+00:00	2020-08-11T06:59:59+00:00	-1	b9vkd4qbvyqxscx@marketplace.amazon.com	marlene rickert	+1 929-436-4790 ext. 30389	ABR0022	Purchase Now for Delivery by Wednesday | Arabella Farm Direct Bouquet of 12 Fresh Cut Pink Roses with a Free Glass Vase	1	0	1	SecondDay	Phyllis Crockett	145 HOLBROOK AVE			WELLFLEET	MA	02667-7410	US		Bonny, I’m thinking of you and wishing we could celebrate your special day together HAPPY BIRTHDAY!!! Hugs, Marlene	false		
113-5335207-2770611	35770645149082	2020-08-09T11:08:09+00:00	2020-08-09T04:08:09-07:00	2020-08-09T11:31:49+00:00	2020-08-11T06:59:59+00:00	-1	ywy8j7x08rnkmcd@marketplace.amazon.com	Peter Dinardo	+1 929-436-4790 ext. 04133	ABR004	Purchase Now for Delivery by Wednesday | Arabella Farm Direct Bouquet of 12 Fresh Cut Yellow Roses with a Free Glass Vase	1	0	1	SecondDay	Peter Dinardo	390 Bigelow Street			Pittsburgh	Pennsylvania	15207	US			false		
111-0227183-0668201	20377725193794	2020-08-09T14:24:50+00:00	2020-08-09T07:24:50-07:00	2020-08-09T14:54:51+00:00	2020-08-11T06:59:59+00:00	-1	spq6xd2hk0hx0d0@marketplace.amazon.com	Natasha Rash	+1 929-436-4790 ext. 83640	ABR012	Purchase Now for Delivery by Wednesday | Arabella Farm Direct Bouquet of 18 Fresh Cut Pink Roses with a Free Glass Vase	1	0	1	SecondDay	Natasha Rash	213 BROWNING ST			GROESBECK	TX	76642-1217	US			false		
112-9758617-0501041	06724132575674	2020-08-09T14:49:39+00:00	2020-08-09T07:49:39-07:00	2020-08-09T15:08:21+00:00	2020-08-11T06:59:59+00:00	-1	3gw8t19vfbc3kwp@marketplace.amazon.com	Mark Powell	+1 929-436-4790 ext. 65616	ABM010	Purchase Now for Delivery by Wednesday | The Spring Fling Bouquet by Arabella Bouquets with a Free Designer Glass Vase	1	0	1	SecondDay	Jean & Mike Hansen	602 ADDISON SQ			KALISPELL	MT	59901-6612	US		With Love from Nancy’s kids, Jonn, Pam and Thom From Pamela Powell	false		
112-9505410-8453012	02828236188386	2020-08-09T14:41:28+00:00	2020-08-09T07:41:28-07:00	2020-08-09T15:09:30+00:00	2020-08-11T06:59:59+00:00	-1	8q0z9v5z5d0mnf4@marketplace.amazon.com	andrea	+1 929-436-4790 ext. 36610	ABR0022	Purchase Now for Delivery by Wednesday | Arabella Farm Direct Bouquet of 12 Fresh Cut Pink Roses with a Free Glass Vase	1	0	1	SecondDay	Niove Benitez	9370 SW 87TH AVE APT S-1			MIAMI	FL	33176-2414	US		Feliz Cumpleaños Tia Niove! Te queremos mucho, Carmen A, Diego, Andrea, Gabriel, Fresa, Mia, Tilin y Noel From andrea	false		
112-8785548-5479409	24159624762146	2020-08-09T14:47:44+00:00	2020-08-09T07:47:44-07:00	2020-08-09T15:13:25+00:00	2020-08-11T06:59:59+00:00	-1	81fd5qmfyjpz9py@marketplace.amazon.com	Howard Liverpool	+1 929-436-4790 ext. 29316	ABR0055	Purchase Now for Delivery by Wednesday | Arabella Farm Direct Bouquet of 12 Stems of Fresh Cut Hot Pink Roses in a Free Designer Glass Vase	1	0	1	SecondDay	Howard Liverpool	965 FERNWOOD AVE			PLAINFIELD	NJ	07062-2241	US		Renee Liverpool  Happy 25 wedding anniversary (08/12/20)  Enjoy your special day From Howard Liverpool	false		
111-6081986-4117830	30975436042818	2020-08-09T15:06:56+00:00	2020-08-09T08:06:56-07:00	2020-08-09T15:37:30+00:00	2020-08-12T06:59:59+00:00	-2	wtff09mwjld9nk9@marketplace.amazon.com	Arlana Roberson	+1 929-436-4790 ext. 18651	ABR001	Purchase Now for Delivery by Wednesday | Arabella Bouquets 12 Stems of Fresh Cut Red Roses in a Free Designer Glass Vase	1	0	1	Expedited	Arlana Roberson	1608 ARLINGTON AVE			CHATTANOOGA	TN	37406-3506	US			false		
111-6805104-6853023	36908454521602	2020-08-09T15:09:20+00:00	2020-08-09T08:09:20-07:00	2020-08-09T15:38:50+00:00	2020-08-12T06:59:59+00:00	-2	6mxm3ygvlq4frcf@marketplace.amazon.com	ELAINE F DORIO	+1 929-436-4790 ext. 68783	ABR0022	Purchase Now for Delivery by Wednesday | Arabella Farm Direct Bouquet of 12 Fresh Cut Pink Roses with a Free Glass Vase	1	0	1	Expedited	Mary Jane Celia	10 GROVE ST			N FALMOUTH	MA	02556-2534	US			false		
111-8193355-9860252	50571228961666	2020-08-09T15:10:55+00:00	2020-08-09T08:10:55-07:00	2020-08-09T15:40:07+00:00	2020-08-11T06:59:59+00:00	-1	sg95gwy2ypp8nqj@marketplace.amazon.com	Leah C Goldson	+1 929-436-4790 ext. 02255	ABR0022	Purchase Now for Delivery by Wednesday | Arabella Farm Direct Bouquet of 12 Fresh Cut Pink Roses with a Free Glass Vase	1	0	1	SecondDay	Larry & Karen Limbaugh	1810 NW 23RD BLVD BLDG 12 # 274			GAINESVILLE	FL	32605-3080	US			false		
111-3113513-4997800	55843324151010	2020-08-09T15:31:48+00:00	2020-08-09T08:31:48-07:00	2020-08-09T15:50:42+00:00	2020-08-11T06:59:59+00:00	-1	hc0j9wvxcrb6vzt@marketplace.amazon.com	Ashley Brown	+1 929-436-4790 ext. 00500	ABR0055	Purchase Now for Delivery by Wednesday | Arabella Farm Direct Bouquet of 12 Stems of Fresh Cut Hot Pink Roses in a Free Designer Glass Vase	1	0	1	SecondDay	Ashley Bush	3012 COTTAGE HILL RD APT 336			MOBILE	AL	36606-2910	US		Get Well Soon, Ashley. We Are Praying For You! Love, Your Legendary Family~ From Jabari & Ashley DeShields	false		
113-3612950-1540206	52986992992626	2020-08-09T15:26:03+00:00	2020-08-09T08:26:03-07:00	2020-08-09T15:53:48+00:00	2020-08-12T06:59:59+00:00	-2	jsvnsmglj3m9g3w@marketplace.amazon.com	sheila galvan	+1 929-436-4790 ext. 55141	ABR0033	Arabella Farm Direct Bouquet of 12 Fresh Cut Orange Roses with a Free Glass Vase	1	0	1	Expedited	Sheila Galvan	496 BREWERS BRIDGE RD			JACKSON	NJ	08527-2629	US		Happy Anniversary!! I love you more every year. Your the best Mom ever!! Love you. From Alfred and Al	false		
112-1643111-7156243	61331391330602	2020-08-09T15:30:27+00:00	2020-08-09T08:30:27-07:00	2020-08-09T15:56:31+00:00	2020-08-11T06:59:59+00:00	-1	5yqg6ndyr8pkkg7@marketplace.amazon.com	AMY K BRAINARD	+1 929-436-4790 ext. 87341	ABR004	Purchase Now for Delivery by Wednesday | Arabella Farm Direct Bouquet of 12 Fresh Cut Yellow Roses with a Free Glass Vase	1	0	1	SecondDay	Janet Tracy	125 WANDA WAY APT 103			HURST	TX	76053-6926	US		Happy Birthday!   Love you From AMY K BRAINARD	false		
112-2499616-9979417	62797174965698	2020-08-09T16:01:04+00:00	2020-08-09T09:01:04-07:00	2020-08-09T16:29:02+00:00	2020-08-11T06:59:59+00:00	-1	xkf6r9q1fycsy8h@marketplace.amazon.com	Nicholas Loiacono	+1 929-436-4790 ext. 71758	ABR0055	Purchase Now for Delivery by Wednesday | Arabella Farm Direct Bouquet of 12 Stems of Fresh Cut Hot Pink Roses in a Free Designer Glass Vase	1	0	1	SecondDay	Nicholas Loiacono	4 OTT PL			COMMACK	NEW YORK	11725-2024	US		Happy Anniversary Robert we will go out to dinner when I get back Love you always From Nicholas Loiacono	false		
113-8458787-0247456	40871593675402	2020-08-09T16:28:46+00:00	2020-08-09T09:28:46-07:00	2020-08-09T16:56:35+00:00	2020-08-11T06:59:59+00:00	-1	7kp6wdd7p5bdvpj@marketplace.amazon.com	William  H Gilmore	+1 929-436-4790 ext. 53594	ABR001	Purchase Now for Delivery by Wednesday | Arabella Bouquets 12 Stems of Fresh Cut Red Roses in a Free Designer Glass Vase	1	0	1	SecondDay	DARLENE M SENFT	BERKSHIRE HATHAWAY HOME SERVICES	1680 KENNETH RD		YORK	PA	17408-2229	US		HI DARLENE     THANKS FOR THE QUICK CASH SALE.         YOU ARE REMARKABLE.       BILL GILMORE From William  H Gilmore	false		
113-0689364-3841849	25369262194298	2020-08-09T16:33:19+00:00	2020-08-09T09:33:19-07:00	2020-08-09T17:01:22+00:00	2020-08-11T06:59:59+00:00	-1	sfz52pnn7whqxmt@marketplace.amazon.com	wendy	+1 929-436-4790 ext. 76799	ABR004	Purchase Now for Delivery by Wednesday | Arabella Farm Direct Bouquet of 12 Fresh Cut Yellow Roses with a Free Glass Vase	1	0	1	SecondDay	Janet Shen	842 ABE WAY			MONTEREY PARK	CA	91755-4207	US		Happy Birth Day! From Max, Wendy, Yang, Alice	false		
113-9090153-3026662	45660251579754	2020-08-09T16:43:41+00:00	2020-08-09T09:43:41-07:00	2020-08-09T17:05:58+00:00	2020-08-11T06:59:59+00:00	-1	t58xl9mkhqy4xtq@marketplace.amazon.com	Scott Fugelseth	+1 929-436-4790 ext. 86773	ABR004	Purchase Now for Delivery by Wednesday | Arabella Farm Direct Bouquet of 12 Fresh Cut Yellow Roses with a Free Glass Vase	1	0	1	SecondDay	Dorothy Gefroh	TRINITY HOMES HOSPICE CARE	305 8TH AVE NE		MINOT	ND	58703-2624	US		Dear Aunt Dorothy, I hope you enjoy the flowers. I wish I could come visit you and bring some of those giant shrimp we enjoyed..yummy!  Love, Kirk. From Kirk Fugelseth	false		
114-5911044-6166608	01988886112058	2020-08-09T16:41:04+00:00	2020-08-09T09:41:04-07:00	2020-08-09T17:10:39+00:00	2020-08-11T06:59:59+00:00	-1	8x3dr34gwj64znf@marketplace.amazon.com	Catherine Robinson	+1 929-436-4790 ext. 63197	ABR0055	Purchase Now for Delivery by Wednesday | Arabella Farm Direct Bouquet of 12 Stems of Fresh Cut Hot Pink Roses in a Free Designer Glass Vase	1	0	1	SecondDay	Dorothy Pearson-Driver	263 ADAMS LAKE DR			LAWRENCEVILLE	GA	30046-5320	US			false		
112-4427286-4382642	35303900820258	2020-08-09T16:54:06+00:00	2020-08-09T09:54:06-07:00	2020-08-09T17:15:03+00:00	2020-08-11T06:59:59+00:00	-1	fndvmxw8znkmcmk@marketplace.amazon.com	katharine coghlan	+1 929-436-4790 ext. 15641	ABR0022	Purchase Now for Delivery by Wednesday | Arabella Farm Direct Bouquet of 12 Fresh Cut Pink Roses with a Free Glass Vase	1	0	1	SecondDay	The Boer Family	38 WINEHURST RD			CATONSVILLE	MD	21228-4100	US		We send our live and prayers. From Kathy, Katie, Maureen, John and Families	false		
114-4855539-4068251	50439125423194	2020-08-09T16:55:39+00:00	2020-08-09T09:55:39-07:00	2020-08-09T17:22:30+00:00	2020-08-11T06:59:59+00:00	-1	jcr2k29k4mh7nph@marketplace.amazon.com	Julie Hess	+1 929-436-4790 ext. 82214	ABM010	Purchase Now for Delivery by Wednesday | The Spring Fling Bouquet by Arabella Bouquets with a Free Designer Glass Vase	1	0	1	SecondDay	Mary Hess	305 SACRAMENTO ST			BERLIN	WI	54923-1208	US		Hope you're feeling better soon. We love you lots!  Love, Tom, Julie, Izzy, Roy & Queso From Tom & Julie	false		
111-9846891-4386657	36459107553922	2020-08-09T17:00:55+00:00	2020-08-09T10:00:55-07:00	2020-08-09T17:31:33+00:00	2020-08-12T06:59:59+00:00	-2	2gst1thwws86vkq@marketplace.amazon.com	James s sieracki	+1 929-436-4790 ext. 85311	ABR0022	Purchase Now for Delivery by Wednesday | Arabella Farm Direct Bouquet of 12 Fresh Cut Pink Roses with a Free Glass Vase	1	0	1	Expedited	James Sieracki	429 TRIMBLEFIELDS DR			EDGEWOOD	MD	21040-3116	US			false		
113-4343335-5338658	12794435290922	2020-08-09T17:07:12+00:00	2020-08-09T10:07:12-07:00	2020-08-09T17:36:02+00:00	2020-08-12T06:59:59+00:00	-2	4qwpybxxqxdxx5l@marketplace.amazon.com	Perry McCarty	+1 929-436-4790 ext. 96954	ABR001	Purchase Now for Delivery by Wednesday | Arabella Bouquets 12 Stems of Fresh Cut Red Roses in a Free Designer Glass Vase	1	0	1	Expedited	Giny McCarty	BENTON HOUSE 3385 TRICKUM RD			WOODSTOCK	GA	30188-4234	US			false		
112-7818684-9918609	06845812771266	2020-08-09T17:17:55+00:00	2020-08-09T10:17:55-07:00	2020-08-09T17:41:51+00:00	2020-08-11T06:59:59+00:00	-1	835y8hs312wbjxg@marketplace.amazon.com	Tay Thurman	+1 929-436-4790 ext. 94976	ABR0033	Arabella Farm Direct Bouquet of 12 Fresh Cut Orange Roses with a Free Glass Vase	1	0	1	SecondDay	Lola Burgines	1252 WOODLANDS WAY			HELENA	AL	35080-3459	US		Happy Birthday Beautiful! Hope your day was as SPECIAL as you are. Just a little something to remind you that you are LOVED by many! I thank God for putting you in my life! LOVE YOU ALWAYS! From Tay and the Thurman family	false		
111-2485608-4163440	28630302981714	2020-08-09T17:21:31+00:00	2020-08-09T10:21:31-07:00	2020-08-09T17:50:35+00:00	2020-08-11T06:59:59+00:00	-1	x1hzk7jlxfqqxhl@marketplace.amazon.com	MICK LLOYD	+1 929-436-4790 ext. 36395	ABR0022	Purchase Now for Delivery by Wednesday | Arabella Farm Direct Bouquet of 12 Fresh Cut Pink Roses with a Free Glass Vase	1	0	1	SecondDay	MICK LLOYD	2925 PAPER MILL BRIDGE RD			THOMPSONS STATION	TN	37179-5449	US		To my beautiful Wife-Happy Anniversary to the love of my life! From MICK LLOYD	false		
113-2082367-4064217	65307774547706	2020-08-09T17:27:39+00:00	2020-08-09T10:27:39-07:00	2020-08-09T17:55:42+00:00	2020-08-12T06:59:59+00:00	-2	5cl9pzxt7dlvc82@marketplace.amazon.com	david m gibson	+1 929-436-4790 ext. 22725	ABR0022	Purchase Now for Delivery by Wednesday | Arabella Farm Direct Bouquet of 12 Fresh Cut Pink Roses with a Free Glass Vase	1	0	1	Expedited	Amy welch	45 WILCOX ST			ROCHESTER	NY	14607-3832	US			false		
113-4328695-4139429	39997717399146	2020-08-09T17:42:56+00:00	2020-08-09T10:42:56-07:00	2020-08-09T18:10:33+00:00	2020-08-11T06:59:59+00:00	-1	v38b9k47ns5q9s0@marketplace.amazon.com	Shaddy	+1 929-436-4790 ext. 63738	ABR0022	Purchase Now for Delivery by Wednesday | Arabella Farm Direct Bouquet of 12 Fresh Cut Pink Roses with a Free Glass Vase	1	0	1	SecondDay	Donna Molyneaux	2205 W EL PRADO RD			CHANDLER	AZ	85224-2132	US		If I could be with you forever, I’d be the happiest person alive. From Nicholas Wayne	false		
114-3711089-6995402	38026218729874	2020-08-09T17:41:10+00:00	2020-08-09T10:41:10-07:00	2020-08-09T18:11:11+00:00	2020-08-11T06:59:59+00:00	-1	t48q8nlwt1m76hq@marketplace.amazon.com	Jack McNelly	+1 929-436-4790 ext. 57513	ABR0022	Purchase Now for Delivery by Wednesday | Arabella Farm Direct Bouquet of 12 Fresh Cut Pink Roses with a Free Glass Vase	1	0	1	SecondDay	Taylor Kitten	10006A WALDEN ST			SODDY DAISY	TN	37379-4920	US			false		
111-2960212-0970612	65436464473058	2020-08-09T18:04:08+00:00	2020-08-09T11:04:08-07:00	2020-08-09T18:30:33+00:00	2020-08-11T06:59:59+00:00	-1	c8m9gvtjkwrfxpm@marketplace.amazon.com	Jeannie Schmucker	+1 929-436-4790 ext. 05649	ABR0055	Purchase Now for Delivery by Wednesday | Arabella Farm Direct Bouquet of 12 Stems of Fresh Cut Hot Pink Roses in a Free Designer Glass Vase	1	0	1	SecondDay	Margie Gaeta	118 CAWTHORN DR			SLIDELL	LA	70458-1554	US		Happy Belated Birthday,  Aunt Margie! Enjoy!  XoXo From Love, Jeannie & Ray	false		
111-3768403-7740260	34511974466130	2020-08-09T18:09:15+00:00	2020-08-09T11:09:15-07:00	2020-08-09T18:38:57+00:00	2020-08-11T06:59:59+00:00	-1	rz87dtysh2hl1bs@marketplace.amazon.com	Koranda Banks	+1 929-436-4790 ext. 66058	ABR013	Purchase Now for Delivery by Wednesday | Arabella Farm Direct Bouquet of 18 Fresh Cut Yellow Roses with a Free Glass Vase	1	0	1	SecondDay	Kathy Staggs	3759 Poors Ford Rd			Rutherfordton	NC	28139	US		Happy Birthday!!! We love you!! Jeff and Koranda From Koranda Banks	false		
114-9218769-2262649	47104666915810	2020-08-09T18:23:41+00:00	2020-08-09T11:23:41-07:00	2020-08-09T18:44:42+00:00	2020-08-11T06:59:59+00:00	-1	gl2s473kcpdjp9y@marketplace.amazon.com	Jason Holbrook	+1 929-436-4790 ext. 30678	ABR015	Purchase Now for Delivery by Wednesday | Arabella Farm Direct Bouquet of 18 Fresh Cut Orange Roses with a Free Glass Vase	1	0	1	SecondDay	Pat Grant	8404 SHELL HOUSE RD			EDISTO ISLAND	SC	29438-6822	US		Happy happy happy birthday!! From Jen	false		
114-5167954-4914620	28105395352810	2020-08-09T18:39:52+00:00	2020-08-09T11:39:52-07:00	2020-08-09T18:44:48+00:00	2020-08-11T06:59:59+00:00	-1	78m2m5sp07g6kdw@marketplace.amazon.com	mv	+1 929-436-4790 ext. 46292	ABB013	Arabella Bouquets | 24 Stems of Fresh Cut White Roses in a Free Designer Glass Vase	1	0	1	SecondDay	Stefani Germanotta	30460 MORNING VIEW DR			MALIBU	CA	90265-3600	US		Hope you are having a good day Stefani. Thank you for being you. Please stay safe. From Love you, Rita	false		
113-0817371-7450628	38125985187282	2020-08-09T18:24:14+00:00	2020-08-09T11:24:14-07:00	2020-08-09T18:53:18+00:00	2020-08-11T06:59:59+00:00	-1	xp2g4cqc67v7mgk@marketplace.amazon.com	Michael  Hollis	+1 929-436-4790 ext. 88553	ABR0022	Purchase Now for Delivery by Wednesday | Arabella Farm Direct Bouquet of 12 Fresh Cut Pink Roses with a Free Glass Vase	1	0	1	SecondDay	Suzanne Hollis	3031 THURSTON AVE			NORTH PORT	FL	34288-1803	US		Happy Birthday Suzanne! We miss you and love you ❤️ From Love Mike & David	false		
114-1577717-9050643	51312385690458	2020-08-09T18:30:37+00:00	2020-08-09T11:30:37-07:00	2020-08-09T18:56:41+00:00	2020-08-11T06:59:59+00:00	-1	bv4m72y4yn7f0xn@marketplace.amazon.com	Frank Feeley IV	+1 929-436-4790 ext. 59556	ABR0022	Purchase Now for Delivery by Wednesday | Arabella Farm Direct Bouquet of 12 Fresh Cut Pink Roses with a Free Glass Vase	1	0	1	SecondDay	Melissa McCarthy	1506 State Route 20			New Lebanon	NY	12125	US		Sleight of hand and twist of fate On a bed of nails, she makes me wait And I wait without you From 😘	false		
111-4077089-1173807	41459505138666	2020-08-09T18:36:53+00:00	2020-08-09T11:36:53-07:00	2020-08-09T19:05:54+00:00	2020-08-11T06:59:59+00:00	-1	l006ggr9z7bwr6k@marketplace.amazon.com	Chris Ferree	+1 929-436-4790 ext. 74460	ABR0055	Purchase Now for Delivery by Wednesday | Arabella Farm Direct Bouquet of 12 Stems of Fresh Cut Hot Pink Roses in a Free Designer Glass Vase	1	0	1	SecondDay	Chris Ferree	85 TRAVELERS TRL			MURPHY	NC	28906-2514	US			false		
114-3492643-8769037	57105273677570	2020-08-09T18:50:47+00:00	2020-08-09T11:50:47-07:00	2020-08-09T19:10:28+00:00	2020-08-11T06:59:59+00:00	-1	jlv0db71pps06pj@marketplace.amazon.com	Susan	+1 929-436-4790 ext. 98381	ABM0033	Arabella Farm Direct Bouquet of Fresh Cut White Hydrangea with a Free Glass Vase	1	0	1	SecondDay	MARIANNE MOHR	5 POWDER HORN TER			RANDOLPH	NJ	07869-4608	US		Happy Birthday to my wonderful sister!! Love, Susan & Tony	false		
112-0471760-7588200	13255624881682	2020-08-09T18:46:03+00:00	2020-08-09T11:46:03-07:00	2020-08-09T19:10:48+00:00	2020-08-11T06:59:59+00:00	-1	gmx2rmydwpy0s88@marketplace.amazon.com	Ellen Alger	+1 929-436-4790 ext. 38662	ABR0022	Purchase Now for Delivery by Wednesday | Arabella Farm Direct Bouquet of 12 Fresh Cut Pink Roses with a Free Glass Vase	1	0	1	SecondDay	Latici family	12 NICHOLS RD			MONTVALE	NJ	07645-2612	US		Happy 61st anniversary to a very special couple!! Terri & Don, we love you!! God bless!  Love, Ellen & Ed From Ellen Alger	false		
111-6232945-4439418	68972843848154	2020-08-09T18:55:10+00:00	2020-08-09T11:55:10-07:00	2020-08-09T19:23:52+00:00	2020-08-11T06:59:59+00:00	-1	j8prb1njhnb7c88@marketplace.amazon.com	Amie Radenbaugh	+1 929-436-4790 ext. 69422	ABM010	Purchase Now for Delivery by Wednesday | The Spring Fling Bouquet by Arabella Bouquets with a Free Designer Glass Vase	1	0	1	SecondDay	Katie Garcia	8716 N AMY AVE			FRESNO	CA	93720-1636	US		Happy birthday!! You are a day brightener. From KT and family	false		
114-5258560-8648233	19336605315818	2020-08-09T19:16:28+00:00	2020-08-09T12:16:28-07:00	2020-08-09T19:39:44+00:00	2020-08-12T06:59:59+00:00	-2	crq1p8skgrt5hct@marketplace.amazon.com	Farnoosh	+1 929-436-4790 ext. 74567	ABR0022	Purchase Now for Delivery by Wednesday | Arabella Farm Direct Bouquet of 12 Fresh Cut Pink Roses with a Free Glass Vase	1	0	1	Expedited	Sara & Hooman	3200 PATTERSON ST NW			WASHINGTON	DC	20015-1661	US		Happy Birthday to our favourite couple ❤️ & Happy New Home ❤️ From Farnoosh Amin Hana	false		
111-6557672-8997815	22993837277890	2020-08-09T19:25:35+00:00	2020-08-09T12:25:35-07:00	2020-08-09T19:51:48+00:00	2020-08-11T06:59:59+00:00	-1	3ggdpdtx1mg12ws@marketplace.amazon.com	Maria Dominguez	+1 929-436-4790 ext. 88967	ABM010	Purchase Now for Delivery by Wednesday | The Spring Fling Bouquet by Arabella Bouquets with a Free Designer Glass Vase	1	0	1	SecondDay	Houze-Blazer family	259 W 19TH ST APT 3E			NEW YORK	NY	10011-4070	US		Mazel tov! - toutes nos félicitations!- felicitaciones!                                   vive l'amour !!!! From Dad and Gloria	false		
114-2971130-9350601	55351285342914	2020-08-09T19:30:11+00:00	2020-08-09T12:30:11-07:00	2020-08-09T20:00:50+00:00	2020-08-12T06:59:59+00:00	-2	pqnh089qhd8cgx6@marketplace.amazon.com	Lesnichin Sergey	+1 929-436-4790 ext. 23252	ABR0055	Purchase Now for Delivery by Wednesday | Arabella Farm Direct Bouquet of 12 Stems of Fresh Cut Hot Pink Roses in a Free Designer Glass Vase	1	0	1	Expedited	Galina Berte	203 LAKE SUSAN LN  1			WEST PALM BEACH	FL	33411-9210	US			false		
114-7535446-6285808	02711851050218	2020-08-09T19:31:43+00:00	2020-08-09T12:31:43-07:00	2020-08-09T20:02:20+00:00	2020-08-12T06:59:59+00:00	-2	8fy2np9sp8tkmf6@marketplace.amazon.com	Ebrluck123@gmail.com	+347-430-7754	ABR001	Purchase Now for Delivery by Wednesday | Arabella Bouquets 12 Stems of Fresh Cut Red Roses in a Free Designer Glass Vase	1	0	1	Expedited	MARY LIM	22426 HORACE HARDING EXPY			BAYSIDE	NY	11364-2334	US			false		
112-8883130-0366649	46888758507658	2020-08-09T19:49:08+00:00	2020-08-09T12:49:08-07:00	2020-08-09T20:16:25+00:00	2020-08-11T06:59:59+00:00	-1	9n7bp2gzpjc5ctx@marketplace.amazon.com	HERRING	+1 929-436-4790 ext. 13314	ABM010	Purchase Now for Delivery by Wednesday | The Spring Fling Bouquet by Arabella Bouquets with a Free Designer Glass Vase	1	0	1	SecondDay	Audrey Nealis	158 Cochise Trail			Lock Haven	Pennsylvania	17745	US		Happy 60th Beautiful Sister!  May your special day be filled with much joy & happiness!  I love you! Liz-Beth From Grace Herring	false		
112-7629599-5565833	29848679330234	2020-08-09T20:18:28+00:00	2020-08-09T13:18:28-07:00	2020-08-09T20:43:28+00:00	2020-08-11T06:59:59+00:00	-1	vd0jf7c2dhtlm80@marketplace.amazon.com	Jessie	+1 929-436-4790 ext. 53228	ABR0022	Purchase Now for Delivery by Wednesday | Arabella Farm Direct Bouquet of 12 Fresh Cut Pink Roses with a Free Glass Vase	1	0	1	SecondDay	Claudia Alford	837 TIMBERLAIN DR			JACKSON	MS	39211-4128	US		Happy birthday! We love you!	false		
112-3586637-3913824	00926155812402	2020-08-09T20:51:04+00:00	2020-08-09T13:51:04-07:00	2020-08-09T21:12:26+00:00	2020-08-11T06:59:59+00:00	-1	8kp7t0l7qsmbvg8@marketplace.amazon.com	cheryl i. jolley	+1 929-436-4790 ext. 63250	ABR012	Purchase Now for Delivery by Wednesday | Arabella Farm Direct Bouquet of 18 Fresh Cut Pink Roses with a Free Glass Vase	1	0	1	SecondDay	Gail and Clifton Jolley	1646 29TH ST			OGDEN	UT	84403-0514	US		Had I not been awake, that a child then whispered in the night, humbly of a rose -- May your week be soften by roses. From cheryl i. jolley	false		
111-5578261-6907400	21834232964218	2020-08-09T20:51:49+00:00	2020-08-09T13:51:49-07:00	2020-08-09T21:19:40+00:00	2020-08-11T06:59:59+00:00	-1	p8666jh5n3ymr13@marketplace.amazon.com	dawn klinges	+1 929-436-4790 ext. 89391	ABR0022	Purchase Now for Delivery by Wednesday | Arabella Farm Direct Bouquet of 12 Fresh Cut Pink Roses with a Free Glass Vase	1	0	1	SecondDay	Pat Miller	758 LOWER MILL CITY RD			DALTON	PA	18414-8042	US		Good luck with your surgery this week! Get well soon! Love,  Dawn and Carl From dawn klinges	false		
112-6509990-4502652	57146160350242	2020-08-09T20:53:52+00:00	2020-08-09T13:53:52-07:00	2020-08-09T21:22:24+00:00	2020-08-11T06:59:59+00:00	-1	n1z8qdzzkrz6f2w@marketplace.amazon.com	frances thurston	+1 929-436-4790 ext. 80473	ABR0022	Purchase Now for Delivery by Wednesday | Arabella Farm Direct Bouquet of 12 Fresh Cut Pink Roses with a Free Glass Vase	1	0	1	SecondDay	Mrs. Anne LaGrow	4085 BLENDON POINT DR			COLUMBUS	OH	43230-7810	US			false		
111-3730601-6487457	53755882017586	2020-08-09T20:54:23+00:00	2020-08-09T13:54:23-07:00	2020-08-09T21:23:31+00:00	2020-08-11T06:59:59+00:00	-1	p3tssfvp8ng5cr4@marketplace.amazon.com	Jennifer	+1 929-436-4790 ext. 91764	ABR0022	Purchase Now for Delivery by Wednesday | Arabella Farm Direct Bouquet of 12 Fresh Cut Pink Roses with a Free Glass Vase	1	0	1	SecondDay	Kathleen Breslin	6800 E PASEO PENOSO			TUCSON	AZ	85750-6346	US		HAPPY 80th BIRTHDAY Mother! From Jennifer	false		
113-3449564-0710611	54160753698986	2020-08-09T20:59:44+00:00	2020-08-09T13:59:44-07:00	2020-08-09T21:26:06+00:00	2020-08-11T06:59:59+00:00	-1	fkkp1d5ldzxm5cw@marketplace.amazon.com	Danielle Inman	+1 929-436-4790 ext. 12470	ABM010	Purchase Now for Delivery by Wednesday | The Spring Fling Bouquet by Arabella Bouquets with a Free Designer Glass Vase	1	0	1	SecondDay	Donna Inman	7185 BIDWELL RD			JOELTON	TN	37080-8610	US		Happy Birthday, Donna/Grandma!! Love - Kevin, Danielle, Sara and Kady From Danielle Inman	false		
113-7591397-5443407	02760696146802	2020-08-09T21:02:06+00:00	2020-08-09T14:02:06-07:00	2020-08-09T21:32:14+00:00	2020-08-12T06:59:59+00:00	-2	vbqxnkxvd65k42r@marketplace.amazon.com	Craig Wright	+1 929-436-4790 ext. 57816	ABR0055	Purchase Now for Delivery by Wednesday | Arabella Farm Direct Bouquet of 12 Stems of Fresh Cut Hot Pink Roses in a Free Designer Glass Vase	1	0	1	Expedited	craig wright	2901 PAVINGSTONE CT			EFFINGHAM	SC	29541-4930	US		Love you! From Craig Wright	false		
111-8705989-9043431	42983753662514	2020-08-09T21:49:19+00:00	2020-08-09T14:49:19-07:00	2020-08-09T22:13:37+00:00	2020-08-12T06:59:59+00:00	-2	947g9qf1hqyqf11@marketplace.amazon.com	Susan D Kemp	+1 929-436-4790 ext. 38856	ABM010	Purchase Now for Delivery by Wednesday | The Spring Fling Bouquet by Arabella Bouquets with a Free Designer Glass Vase	1	0	1	Expedited	sharon Ciaramitaro	SAINT JUDE MEDICAL CENTER	101 E VALENCIA MESA DR		FULLERTON	CA	92835-3809	US			false		
114-4548025-4193857	17815406980018	2020-08-09T22:05:28+00:00	2020-08-09T15:05:28-07:00	2020-08-09T22:16:09+00:00	2020-08-11T06:59:59+00:00	-1	s3wqtl9d3nz830k@marketplace.amazon.com	Sc	+1 929-436-4790 ext. 77743	ABR0055	Purchase Now for Delivery by Wednesday | Arabella Farm Direct Bouquet of 12 Stems of Fresh Cut Hot Pink Roses in a Free Designer Glass Vase	1	0	1	SecondDay	Salon Devotion (Anthony at Salon Devotion)	38404 HAYES RD			CLINTON TOWNSHIP	MI	48038-3179	US		Happy Birthday !!!!  We hope you have a great birthday. From Susie and Jeffrey	false		
114-0315427-9057053	09866054600146	2020-08-09T21:55:42+00:00	2020-08-09T14:55:42-07:00	2020-08-09T22:24:31+00:00	2020-08-11T06:59:59+00:00	-1	t6m2qt6kll3dgsy@marketplace.amazon.com	Brett Clemons	+1 929-436-4790 ext. 17468	ABR012	Purchase Now for Delivery by Wednesday | Arabella Farm Direct Bouquet of 18 Fresh Cut Pink Roses with a Free Glass Vase	1	0	1	SecondDay	Robert Jackson	708 DURHAM RD			WAKE FOREST	NC	27587-9755	US		Happy Birthday Mom!  with love, Pam From Pam Clemons	false		
114-0771349-0917823	13014393724618	2020-08-09T22:16:44+00:00	2020-08-09T15:16:44-07:00	2020-08-09T22:45:22+00:00	2020-08-12T06:59:59+00:00	-2	3nj66mn7sfh5myx@marketplace.amazon.com	karen katz	+1 929-436-4790 ext. 87963	ABM010	Purchase Now for Delivery by Wednesday | The Spring Fling Bouquet by Arabella Bouquets with a Free Designer Glass Vase	1	0	1	Expedited	Mrs. Lillian Katz	Aegis Living	32170 Nigel Road		Laguna Niguel	California	92677	US			false		
111-2291747-3862615	59992456309546	2020-08-09T22:19:53+00:00	2020-08-09T15:19:53-07:00	2020-08-09T22:46:30+00:00	2020-08-11T06:59:59+00:00	-1	gxb2hj1d0m2yg2j@marketplace.amazon.com	Syed Hussaini	+1 929-436-4790 ext. 12817	ABR0055	Purchase Now for Delivery by Wednesday | Arabella Farm Direct Bouquet of 12 Stems of Fresh Cut Hot Pink Roses in a Free Designer Glass Vase	1	0	1	SecondDay	Yusuf Qureshi	1925 GRANITE SPRINGS RD			LEANDER	TX	78641-2520	US		Sadrooni!! We love you so much, you are so incredibly strong, and brave. Rest up, and take care of yourself :) We will visit you soon! From Syed Hussaini	false		
114-3126445-9866616	27277667506322	2020-08-09T22:38:58+00:00	2020-08-09T15:38:58-07:00	2020-08-09T22:58:06+00:00	2020-08-11T06:59:59+00:00	-1	m4gvx8f2799wy54@marketplace.amazon.com	Anjay Shah	+1 929-436-4790 ext. 72697	ABR0022	Purchase Now for Delivery by Wednesday | Arabella Farm Direct Bouquet of 12 Fresh Cut Pink Roses with a Free Glass Vase	1	0	1	SecondDay	Anjali Patel	5452 SW 41ST ST			OCALA	FL	34474-9633	US		To my best friend:) Keep being perfect! Miss you! From Anjay Shah	false		
114-5023189-9184240	47635766043666	2020-08-09T22:41:39+00:00	2020-08-09T15:41:39-07:00	2020-08-09T23:07:43+00:00	2020-08-11T06:59:59+00:00	-1	cllf3t94082gk39@marketplace.amazon.com	Geraldine Porras	+1 929-436-4790 ext. 23500	ABM010	Purchase Now for Delivery by Wednesday | The Spring Fling Bouquet by Arabella Bouquets with a Free Designer Glass Vase	1	0	1	SecondDay	Aurora Prado	3206 WOODWIND RD			MONTGOMERY	TX	77356-8057	US		Happy Birthday Aurorita!!!  Bendiciones y que la pases muy contenta From Los PPs	false		
113-6087314-7278618	34694571968106	2020-08-09T23:07:49+00:00	2020-08-09T16:07:49-07:00	2020-08-09T23:37:31+00:00	2020-08-11T06:59:59+00:00	-1	yflfqfhldn5pkj2@marketplace.amazon.com	fred goff	+1 929-436-4790 ext. 47886	ABM020	Summer Sunset Bouquet by Arabella Bouquets	1	0	1	SecondDay	Helen Wick	913 NEWBY LN			MODESTO	CA	95356-1825	US			false		
114-3410424-4511425	50549786244506	2020-08-09T23:08:26+00:00	2020-08-09T16:08:26-07:00	2020-08-09T23:37:46+00:00	2020-08-12T06:59:59+00:00	-2	gj789cyfwtfxlqd@marketplace.amazon.com	Edward T. Maguire	+1 929-436-4790 ext. 01539	ABR001	Purchase Now for Delivery by Wednesday | Arabella Bouquets 12 Stems of Fresh Cut Red Roses in a Free Designer Glass Vase	1	0	1	Expedited	Patricia Maguire / Brightview	1 SYMMES RD APT 2 2R			ARLINGTON	MA	02474-2140	US			false		
114-6459398-5577036	33293033222106	2020-08-09T23:16:59+00:00	2020-08-09T16:16:59-07:00	2020-08-09T23:38:45+00:00	2020-08-11T06:59:59+00:00	-1	2rbjr8q9k6qvnyz@marketplace.amazon.com	Renee Levinson	+1 929-436-4790 ext. 04536	ABM010	Purchase Now for Delivery by Wednesday | The Spring Fling Bouquet by Arabella Bouquets with a Free Designer Glass Vase	1	0	1	SecondDay	Katherine Altshuler	200 LOCUST ST APT 4B			PHILADELPHIA	PA	19106-3916	US		Nothing like a few flowers to give you a 'lift'!! You're going in the right direction to getting back to being you! XOXOX   Renee & Ted From Renee Levinson	false		
111-3174524-2380231	24313095359346	2020-08-09T23:30:25+00:00	2020-08-09T16:30:25-07:00	2020-08-09T23:50:08+00:00	2020-08-11T06:59:59+00:00	-1	zdygl0y3lkbnhbx@marketplace.amazon.com	Linda J. Hargrove	+1 929-436-4790 ext. 25176	ABR0055	Purchase Now for Delivery by Wednesday | Arabella Farm Direct Bouquet of 12 Stems of Fresh Cut Hot Pink Roses in a Free Designer Glass Vase	1	0	1	SecondDay	Ioanna Alecu	250 E 144TH ST APT 5Q			BRONX	NY	10451-5938	US		Thinking of you and miss you.  See you soon. Love you! From Bubba Hargrove	false		
114-2397320-3981843	31444856601330	2020-08-09T23:33:07+00:00	2020-08-09T16:33:07-07:00	2020-08-09T23:57:53+00:00	2020-08-11T06:59:59+00:00	-1	gq1ddr4v1p4047p@marketplace.amazon.com	Diane F. Dillon	+1 929-436-4790 ext. 81618	ABR0055	Purchase Now for Delivery by Wednesday | Arabella Farm Direct Bouquet of 12 Stems of Fresh Cut Hot Pink Roses in a Free Designer Glass Vase	1	0	1	SecondDay	Steve & Kristy Gregg	9798 CRIMSON FIRE CT			LA MESA	CA	91941-6879	US		This will soon be behind you! Stay strong. xo Diane From Diane F. Dillon	false		
114-1652340-0416246	39328087050082	2020-08-09T23:52:18+00:00	2020-08-09T16:52:18-07:00	2020-08-10T00:10:28+00:00	2020-08-11T06:59:59+00:00	-1	vkdklrbblspyl0l@marketplace.amazon.com	william	+1 929-436-4790 ext. 61113	ABR001	Purchase Now for Delivery by Wednesday | Arabella Bouquets 12 Stems of Fresh Cut Red Roses in a Free Designer Glass Vase	1	0	1	SecondDay	jammy klopotic	1712 PORTER ST WAUSAU WI APT			WAUSAU	WI	54401-5277	US		Hello jammy  Your smile brightens my life just like the morning sun brightens the world and that's why i want to put a smile on your face that would never leave.I love you to the moon and back. From Bradley Woodman	false		
112-9459900-9593061	24743957595482	2020-08-09T23:57:57+00:00	2020-08-09T16:57:57-07:00	2020-08-10T00:23:36+00:00	2020-08-11T06:59:59+00:00	-1	j1vn4nq01lp41jc@marketplace.amazon.com	Mary Drummond	+1 929-436-4790 ext. 43452	ABR0022	Purchase Now for Delivery by Wednesday | Arabella Farm Direct Bouquet of 12 Fresh Cut Pink Roses with a Free Glass Vase	1	0	1	SecondDay	Matt Ignacio and Jerrica.Stone	5707 BALTIMORE DR UNIT 14			LA MESA	CA	91942-1675	US		Jerrica and Matt, Congratulations on your engagement May you live together in love and harmony. Mary D. and Jim P.	false		
113-8849590-7782629	16509312564954	2020-08-10T00:21:29+00:00	2020-08-09T17:21:29-07:00	2020-08-10T00:48:52+00:00	2020-08-11T06:59:59+00:00	-1	gjj8m681nm5nt2c@marketplace.amazon.com	Matt Parks	+1 929-436-4790 ext. 85958	ABM010	Purchase Now for Delivery by Wednesday | The Spring Fling Bouquet by Arabella Bouquets with a Free Designer Glass Vase	1	0	1	SecondDay	Caroline Parks	2050 CHERRY AVE APT D			SIGNAL HILL	CA	90755-5843	US		Love you Bear! From Dad	false		
113-0870871-8523406	69548901502402	2020-08-10T00:23:00+00:00	2020-08-09T17:23:00-07:00	2020-08-10T00:51:38+00:00	2020-08-11T06:59:59+00:00	-1	5mcq66jrs3pd2v2@marketplace.amazon.com	pat mendez	+1 929-436-4790 ext. 84188	ABM010	Purchase Now for Delivery by Wednesday | The Spring Fling Bouquet by Arabella Bouquets with a Free Designer Glass Vase	1	0	1	SecondDay	Carinal Mayorga	178 CHELSEA CT			VACAVILLE	CA	95687-6706	US		Hi Mama, Happy Birthday  Love me Desio	false		
111-1794456-9208260	49942772452970	2020-08-10T00:23:30+00:00	2020-08-09T17:23:30-07:00	2020-08-10T00:52:53+00:00	2020-08-11T06:59:59+00:00	-1	k8xrqmgfmbymm25@marketplace.amazon.com	Sandra Schneider	+1 929-436-4790 ext. 14657	ABM010	Purchase Now for Delivery by Wednesday | The Spring Fling Bouquet by Arabella Bouquets with a Free Designer Glass Vase	1	0	1	SecondDay	Judy Greener	15591 MERRILL AVE			FONTANA	CA	92335-2023	US		To my Beautiful Momma! Thank you for everything you do for me!!! Love Forever, Sandy From Sandra Schneider	false		
112-1847831-7180205	33852578931210	2020-08-10T00:40:11+00:00	2020-08-09T17:40:11-07:00	2020-08-10T00:53:49+00:00	2020-08-11T06:59:59+00:00	-1	tbj7z0bc5p1zg8c@marketplace.amazon.com	Taryn Goode	+1 929-436-4790 ext. 76324	ABR012	Purchase Now for Delivery by Wednesday | Arabella Farm Direct Bouquet of 18 Fresh Cut Pink Roses with a Free Glass Vase	1	0	1	SecondDay	Daron Skogen	9438 FERMI AVE			SAN DIEGO	CA	92123-3223	US		Daron, we are thinking of you hope you get spoiled rotten during recovery!  xo From Taryn & Jason	false		
111-8094978-5638604	55634560003250	2020-08-10T00:38:02+00:00	2020-08-09T17:38:02-07:00	2020-08-10T01:03:23+00:00	2020-08-11T06:59:59+00:00	-1	75cvsj398vcyvcn@marketplace.amazon.com	John M Sampson	+1 929-436-4790 ext. 24995	ABM0044	Purchase Now for Delivery by Wednesday | Arabella Farm Direct Bouquet of Fresh Cut Blue Hydrangea with a Free Glass Vase	1	0	1	SecondDay	Carolina Luciano	1900 WILMOT RD			BANNOCKBURN	IL	60015-1872	US		Thank you all for a wonderful time!!   Love,  Jenna From Jill G Sampson	false		
114-8544118-1228213	16591182419026	2020-08-10T01:09:07+00:00	2020-08-09T18:09:07-07:00	2020-08-10T01:38:52+00:00	2020-08-11T06:59:59+00:00	-1	5yfnm07my9pldy3@marketplace.amazon.com	Annemarie Pile	623-551-555	ABR0033	Arabella Farm Direct Bouquet of 12 Fresh Cut Orange Roses with a Free Glass Vase	1	0	1	SecondDay	Dr. Nicholas Pile / Element Dental	3655 W ANTHEM WAY A-117			ANTHEM	AZ	85086-0430	US		Happy birthday mommy! We love you :) From Livia & Maxim	false		
112-1075137-7409007	00030173869090	2020-08-10T01:32:09+00:00	2020-08-09T18:32:09-07:00	2020-08-10T01:39:47+00:00	2020-08-11T06:59:59+00:00	-1	v8qs9hmwc7d29fm@marketplace.amazon.com	Lorraine Portelli	+1 929-436-4790 ext. 70831	ABR001	Purchase Now for Delivery by Wednesday | Arabella Bouquets 12 Stems of Fresh Cut Red Roses in a Free Designer Glass Vase	1	0	1	SecondDay	Edna Portelli	82 CEDAR RD			DUMONT	NJ	07628-1006	US		Hi Edna, Feel Better! Love, Hugs and Kisses, Anthony, Lorraine, Nick, Kelly and Gabriella From Lorraine Portelli	false		
111-2202745-7696220	30745617583994	2020-08-10T01:13:29+00:00	2020-08-09T18:13:29-07:00	2020-08-10T01:41:16+00:00	2020-08-11T06:59:59+00:00	-1	hky2kjprnf4lkx6@marketplace.amazon.com	Deb	+1 929-436-4790 ext. 79918	ABR0055	Purchase Now for Delivery by Wednesday | Arabella Farm Direct Bouquet of 12 Stems of Fresh Cut Hot Pink Roses in a Free Designer Glass Vase	1	0	1	SecondDay	GLORIA BAYER	1594 SAINT AMDREW DRIVE			VERNON HILLS	ILLINOIS	60661	US		MOM,  THESE BEAUTIFUL   HOT PINK ROSES ARE AS LOVELY AS YOU.   ENJOY THE  ROSES. LOVE, DEBBIE  & PETER XXOO From DebORAH OMALLEY	false		
113-7690387-7950639	48314417339794	2020-08-10T01:22:19+00:00	2020-08-09T18:22:19-07:00	2020-08-10T01:50:11+00:00	2020-08-11T06:59:59+00:00	-1	zkwshx1c99122c4@marketplace.amazon.com	Madelyn Hankins	+1 929-436-4790 ext. 33972	ABR0033	Arabella Farm Direct Bouquet of 12 Fresh Cut Orange Roses with a Free Glass Vase	1	0	1	SecondDay	Dr &Mrs Martin Pomphrey	297 Mayhew Rd			Mayhew	Ms	39753	US			false		
113-4866910-6833062	03993826153594	2020-08-10T01:34:20+00:00	2020-08-09T18:34:20-07:00	2020-08-10T02:01:43+00:00	2020-08-11T06:59:59+00:00	-1	kqkfcld7gtljv69@marketplace.amazon.com	ERIC ANTHONY	+1 929-436-4790 ext. 52472	ABR0055	Purchase Now for Delivery by Wednesday | Arabella Farm Direct Bouquet of 12 Stems of Fresh Cut Hot Pink Roses in a Free Designer Glass Vase	1	0	1	SecondDay	Carla Williams	3216 GALLANT DR			COLUMBUS	OH	43232-7445	US			false		
114-3234786-8945037	10432453560162	2020-08-10T01:42:10+00:00	2020-08-09T18:42:10-07:00	2020-08-10T02:07:53+00:00	2020-08-11T06:59:59+00:00	-1	vl4dl0gzp0h2rxg@marketplace.amazon.com	LSM	+1 929-436-4790 ext. 66495	ABR0055	Purchase Now for Delivery by Wednesday | Arabella Farm Direct Bouquet of 12 Stems of Fresh Cut Hot Pink Roses in a Free Designer Glass Vase	1	0	1	SecondDay	Kelli Rojas	2430 W RAY RD STE 3			CHANDLER	AZ	85224-3552	US		Thank you so much for all your help and allowing me a really good vacation..you’re the best!!! From Lori	false		
112-2145391-5897028	58895568437466	2020-08-10T02:06:28+00:00	2020-08-09T19:06:28-07:00	2020-08-10T02:09:50+00:00	2020-08-11T06:59:59+00:00	-1	f0980f1qytb95p4@marketplace.amazon.com	Alex Bamfo	+1 929-436-4790 ext. 41614	ABR001	Purchase Now for Delivery by Wednesday | Arabella Bouquets 12 Stems of Fresh Cut Red Roses in a Free Designer Glass Vase	1	0	1	SecondDay	Heather Green	839 E PLUM ST APT 2			VINELAND	NJ	08360-3823	US		Beautiful, beautiful, beautiful, beautiful angel. Love your imperfection and every angle. Tomorrow comes and goes before you know. SoI just had to let you know.  Love you From Alex Bamfo	false		
113-8389644-5781821	37345459741146	2020-08-10T01:47:43+00:00	2020-08-09T18:47:43-07:00	2020-08-10T02:15:36+00:00	2020-08-11T06:59:59+00:00	-1	pb41gvm60qhyfkb@marketplace.amazon.com	Fanny Familia	+1 929-436-4790 ext. 73992	ABR0022	Purchase Now for Delivery by Wednesday | Arabella Farm Direct Bouquet of 12 Fresh Cut Pink Roses with a Free Glass Vase	1	0	1	SecondDay	Clara de la Cruz	159 BENNINGTON ST			LAWRENCE	MA	01841-1143	US		Marta, Le deseo un feliz Cumpleaños. Que Dios la colme de bendiciones hoy, mañana y siempre.  Con mucho Amor, Bena From Maria Familia	false		
114-3815569-5499418	27422473457050	2020-08-10T01:57:51+00:00	2020-08-09T18:57:51-07:00	2020-08-10T02:23:50+00:00	2020-08-11T06:59:59+00:00	-1	bg4hfjf2y290v3k@marketplace.amazon.com	Lynetta Tinsley	+1 929-436-4790 ext. 74675	ABR0055	Purchase Now for Delivery by Wednesday | Arabella Farm Direct Bouquet of 12 Stems of Fresh Cut Hot Pink Roses in a Free Designer Glass Vase	1	0	1	SecondDay	Janice Rainey	11268 HESS CT			WALDORF	MD	20601-4961	US		Get well sweet Janice.......  Wishing you a perfect recovery.   We love you SO much! From Lynetta and Russell Phelps	false		
112-4213549-2796203	02523867162506	2020-08-10T01:55:30+00:00	2020-08-09T18:55:30-07:00	2020-08-10T02:25:26+00:00	2020-08-12T06:59:59+00:00	-2	v3jv8p9k75y7w2w@marketplace.amazon.com	DAVID RONALD VOLENTINE,JR.	+1 929-436-4790 ext. 51269	ABR001	Purchase Now for Delivery by Wednesday | Arabella Bouquets 12 Stems of Fresh Cut Red Roses in a Free Designer Glass Vase	1	0	1	Expedited	DAVID RONALD VOLENTINE,JR.	1589 HWY. 544			RUSTON	LOUISIANA	71270	US			false		
112-3844246-2069803	27254984573722	2020-08-10T02:04:52+00:00	2020-08-09T19:04:52-07:00	2020-08-10T02:34:44+00:00	2020-08-11T06:59:59+00:00	-1	d2k4q5xrgp3x7n6@marketplace.amazon.com	Elise White	+1 929-436-4790 ext. 69720	ABR0022	Purchase Now for Delivery by Wednesday | Arabella Farm Direct Bouquet of 12 Fresh Cut Pink Roses with a Free Glass Vase	1	0	1	SecondDay	Elise White	2995 SHUMAKER RD			MANHEIM	PA	17545-9459	US			false		
111-5819013-9966607	64232017494250	2020-08-10T02:09:14+00:00	2020-08-09T19:09:14-07:00	2020-08-10T02:36:33+00:00	2020-08-11T06:59:59+00:00	-1	fydpb7fmcgk8tm8@marketplace.amazon.com	Eugenia Calderon	+1 929-436-4790 ext. 60946	ABR0033	Arabella Farm Direct Bouquet of 12 Fresh Cut Orange Roses with a Free Glass Vase	1	0	1	SecondDay	Roland Mora	1659 ROSEMIST LN			CHINO HILLS	CA	91709-4875	US		Feliz Cumpleaños Yadira, con mucho cariño. Marta, Eugenia, Alfonso y Angel De Eugenia Calderon	false		
114-9388437-7319446	36343009690426	2020-08-10T02:32:03+00:00	2020-08-09T19:32:03-07:00	2020-08-10T02:53:43+00:00	2020-08-11T06:59:59+00:00	-1	0gzvq49x9rzrf2w@marketplace.amazon.com	Mark G. McDermid	+1 929-436-4790 ext. 87534	ABM010	Purchase Now for Delivery by Wednesday | The Spring Fling Bouquet by Arabella Bouquets with a Free Designer Glass Vase	1	0	1	SecondDay	Fran McDermid	2548 SLEEPY HOLLOW DR			STATE COLLEGE	PA	16803-2228	US			false		
114-8672110-5343449	02804611745138	2020-08-10T03:08:01+00:00	2020-08-09T20:08:01-07:00	2020-08-10T03:35:59+00:00	2020-08-11T06:59:59+00:00	-1	0g50c6nzx8rzdhh@marketplace.amazon.com	R	+1 929-436-4790 ext. 89171	ABB008	Arabella Farm Direct 48 Fresh Cut Pink Roses	1	0	1	SecondDay	Lyubov and Daniel Reed	2684 CORRIGAN DR			DELTONA	FL	32738-1701	US		С Днём Рождения, Люба! From 💗💗💗	false		
114-7919044-5597844	20159835466042	2020-08-10T03:40:32+00:00	2020-08-09T20:40:32-07:00	2020-08-10T03:49:06+00:00	2020-08-11T06:59:59+00:00	-1	f6rjp3n7qqhkjyd@marketplace.amazon.com	Mary K Broome	+1 929-436-4790 ext. 86264	ABR004	Purchase Now for Delivery by Wednesday | Arabella Farm Direct Bouquet of 12 Fresh Cut Yellow Roses with a Free Glass Vase	1	0	1	SecondDay	Miss Cassidy Fox	109 BRAEBURN DR			WINCHESTER	VA	22601-5734	US		From Logan V	false		
112-8593058-7282621	01347249038610	2020-08-10T03:36:47+00:00	2020-08-09T20:36:47-07:00	2020-08-10T04:05:13+00:00	2020-08-12T06:59:59+00:00	-2	0m2nq4nhjrh3sjy@marketplace.amazon.com	Ryan Small	+1 929-436-4790 ext. 52837	ABR0022	Purchase Now for Delivery by Wednesday | Arabella Farm Direct Bouquet of 12 Fresh Cut Pink Roses with a Free Glass Vase	1	0	1	Expedited	Ryan Small	4206 TUCKERMAN ST			UNIVERSITY PARK	MD	20782-2143	US			false		
114-0297920-9942648	06614752985866	2020-08-10T03:47:34+00:00	2020-08-09T20:47:34-07:00	2020-08-10T04:09:41+00:00	2020-08-11T06:59:59+00:00	-1	xq80hc993kdpt7s@marketplace.amazon.com	Diana Buser	+1 929-436-4790 ext. 99977	ABM010	Purchase Now for Delivery by Wednesday | The Spring Fling Bouquet by Arabella Bouquets with a Free Designer Glass Vase	1	0	1	SecondDay	Shauna Riley	719 NW 116TH ST			SEATTLE	WA	98177-4744	US			false		
114-4872685-2517869	24188726743066	2020-08-10T03:52:21+00:00	2020-08-09T20:52:21-07:00	2020-08-10T04:21:12+00:00	2020-08-11T06:59:59+00:00	-1	jxfy2vq036p2wdv@marketplace.amazon.com	Amanda Roberge	+1 929-436-4790 ext. 09990	ABR0022	Purchase Now for Delivery by Wednesday | Arabella Farm Direct Bouquet of 12 Fresh Cut Pink Roses with a Free Glass Vase	1	0	1	SecondDay	Ms. Lou Stine	16594 TENAJA RD			APPLE VALLEY	CA	92307-1776	US		Grandma, Happy 90th Birthday!  We LOVE you very much!  Love, Amanda & Paul From Amanda & Paul Roberge	false		
111-9541901-3749027	01470703492682	2020-08-10T04:30:22+00:00	2020-08-09T21:30:22-07:00	2020-08-10T04:31:53+00:00	2020-08-12T06:59:59+00:00	-2	jt9hy5frg6bgbnd@marketplace.amazon.com	Stephanie Chen	+1 929-436-4790 ext. 52016	ABM0044	Purchase Now for Delivery by Wednesday | Arabella Farm Direct Bouquet of Fresh Cut Blue Hydrangea with a Free Glass Vase	1	0	1	Expedited	Patricia Lau	11417 SW OAK CREEK DR	PORTLAND OR 97219		PORTLAND	OR	97219-8944	US		Dearest San,  Happy Big 40 Birthday! From Xuan Xuan, Hong & Amia	false		
114-1899858-6092221	52636863168634	2020-08-10T04:30:46+00:00	2020-08-09T21:30:46-07:00	2020-08-10T05:00:27+00:00	2020-08-11T06:59:59+00:00	-1	ttkhs31kc4jn4jf@marketplace.amazon.com	Frederick Legaspi	+1 929-436-4790 ext. 60617	ABR001	Purchase Now for Delivery by Wednesday | Arabella Bouquets 12 Stems of Fresh Cut Red Roses in a Free Designer Glass Vase	1	0	1	SecondDay	Tiffany Legaspi	4432 SAYRE DR			PRINCETON	NJ	08540-5824	US			false		
112-1167851-5375402	63669512074434	2020-08-10T05:02:11+00:00	2020-08-09T22:02:11-07:00	2020-08-10T05:32:22+00:00	2020-08-12T06:59:59+00:00	-2	vy3b0cw0fnj4lh3@marketplace.amazon.com	Eduardo .A.H	+1 929-436-4790 ext. 63226	ABR0022	Purchase Now for Delivery by Wednesday | Arabella Farm Direct Bouquet of 12 Fresh Cut Pink Roses with a Free Glass Vase	1	0	1	Expedited	Mariana Becerro Balbuena	103 MEADOW CIR S APT 51			BURNSVILLE	MN	55337-4500	US			false		
113-6721173-6255455	51421540769018	2020-08-10T05:03:32+00:00	2020-08-09T22:03:32-07:00	2020-08-10T05:32:45+00:00	2020-08-11T06:59:59+00:00	-1	ygyvqh157ww1j1l@marketplace.amazon.com	Holly Newman	+1 929-436-4790 ext. 12029	ABR0022	Purchase Now for Delivery by Wednesday | Arabella Farm Direct Bouquet of 12 Fresh Cut Pink Roses with a Free Glass Vase	1	0	1	SecondDay	Su Koerschner	37 DONICA RD			YORK	ME	03909-1620	US		Happy Birthday, dear Su!  Have a wonderful day. From Holly Newman	false		
112-6354442-2955436	55302908512258	2020-08-10T05:20:03+00:00	2020-08-09T22:20:03-07:00	2020-08-10T05:44:19+00:00	2020-08-11T06:59:59+00:00	-1	y9w4hyxkzwpnnpm@marketplace.amazon.com	(559) 4304904	+1 929-436-4790 ext. 36037	ABM010	Purchase Now for Delivery by Wednesday | The Spring Fling Bouquet by Arabella Bouquets with a Free Designer Glass Vase	1	0	1	SecondDay	Ms Marlyn Magna Alverez	360 N ROOSEVELT AVE APT 102			FRESNO	CA	93701-1447	US		Enjoy your gift! From (559) 4304904	false		
113-4732647-8429859	63421164071426	2020-08-10T05:43:14+00:00	2020-08-09T22:43:14-07:00	2020-08-10T06:11:25+00:00	2020-08-12T06:59:59+00:00	-2	z5gsrqd0m53mfnr@marketplace.amazon.com	Cynthia Tomasi	+1 929-436-4790 ext. 50524	ABR0033	Arabella Farm Direct Bouquet of 12 Fresh Cut Orange Roses with a Free Glass Vase	1	0	1	Expedited	Mr. & Mrs. Justin Massey	5731 DELBROOK LN			CARMICHAEL	CA	95608-2241	US		Happy 27th! From MumC	false		
111-8517752-9814604	16641837444202	2020-08-10T06:05:02+00:00	2020-08-09T23:05:02-07:00	2020-08-10T06:35:12+00:00	2020-08-11T06:59:59+00:00	-1	p4tp4529wq9k1bc@marketplace.amazon.com	Andre White	+1 929-436-4790 ext. 25806	ABR0022	Purchase Now for Delivery by Wednesday | Arabella Farm Direct Bouquet of 12 Fresh Cut Pink Roses with a Free Glass Vase	1	0	1	SecondDay	Connie White	77 JOHN ST			YEMASSEE	SC	29945-2506	US			false		
111-0741312-5120223	63173750291634	2020-08-10T06:43:07+00:00	2020-08-09T23:43:07-07:00	2020-08-10T07:07:41+00:00	2020-08-11T06:59:59+00:00	-1	jgvn6fzvfsbsq3l@marketplace.amazon.com	Sally Clark	+1 929-436-4790 ext. 99227	ABM010	Purchase Now for Delivery by Wednesday | The Spring Fling Bouquet by Arabella Bouquets with a Free Designer Glass Vase	1	0	1	SecondDay	Mrs. Linda Tucker	4174 LARCHWOOD PL			RIVERSIDE	CA	92506-1183	US		Dear Linda, (sister/friend of 48 yrs) I’m hoping our friendship will be sunny once again.  I’m so very sorry for the hurtful words I said to you.  I ask you for your forgiveness. From Love and hugs, Sally	false		
111-2692976-6121802	64123046208378	2020-08-10T06:53:53+00:00	2020-08-09T23:53:53-07:00	2020-08-10T07:21:55+00:00	2020-08-12T06:59:59+00:00	-2	17t2lls6820dpq6@marketplace.amazon.com	miguel a. sanchez	+1 929-436-4790 ext. 20405	ABR0055	Purchase Now for Delivery by Wednesday | Arabella Farm Direct Bouquet of 12 Stems of Fresh Cut Hot Pink Roses in a Free Designer Glass Vase	1	0	1	Expedited	Catherine J. Falcone	197 CAHILL CROSS RD NO 163			WEST MILFORD	NJ	07480-1947	US			false		
113-5156223-3105809	32808773228698	2020-08-10T07:09:36+00:00	2020-08-10T00:09:36-07:00	2020-08-10T07:28:43+00:00	2020-08-11T06:59:59+00:00	-1	z5lksmcnd3vh3g9@marketplace.amazon.com	Yuji Kamada	+1 929-436-4790 ext. 76743	ABR0022	Purchase Now for Delivery by Wednesday | Arabella Farm Direct Bouquet of 12 Fresh Cut Pink Roses with a Free Glass Vase	1	0	1	SecondDay	Jean Nakazono	2136 STUART ST			BERKELEY	CA	94705-1060	US		Wishing you the very best on your special Birthday Aunt Jean.  Sorry we couldn't be there.  Stay safe. Love, Yuji & Paula From Yuji Kamada	false		
111-6134276-6597033	12681390474802	2020-08-10T07:06:03+00:00	2020-08-10T00:06:03-07:00	2020-08-10T07:31:19+00:00	2020-08-11T06:59:59+00:00	-1	17t2lls6820dpq6@marketplace.amazon.com	miguel a. sanchez	+1 929-436-4790 ext. 33213	ABR0055	Purchase Now for Delivery by Wednesday | Arabella Farm Direct Bouquet of 12 Stems of Fresh Cut Hot Pink Roses in a Free Designer Glass Vase	1	0	1	SecondDay	Catherine J. Falcone	197 CAHILL CROSS RD NO 163			WEST MILFORD	NJ	07480-1947	US		Dearest Cathy, we wish you a very Happy Birthday! You are always in our hearts and in our thoughts!  With love, Mike, Fluffy & Adrienne From miguel a. sanchez	false		
