order-id	order-item-id	purchase-date	payments-date	reporting-date	promise-date	days-past-promise	buyer-email	buyer-name	buyer-phone-number	sku	product-name	quantity-purchased	quantity-shipped	quantity-to-ship	ship-service-level	recipient-name	ship-address-1	ship-address-2	ship-address-3	ship-city	ship-state	ship-postal-code	ship-country	gift-wrap-type	gift-message-text	is-business-order	purchase-order-number	price-designation
113-6218977-4042609	18344401187298	2020-08-10T17:52:18+00:00	2020-08-10T10:52:18-07:00	2020-08-10T18:05:36+00:00	2020-08-13T06:59:59+00:00	-3	djsf0kqpghyw7fk@marketplace.amazon.com	Richard L Kelly	+1 929-436-4790 ext. 83055	ABR0055	Arabella Farm Direct Bouquet of 12 Stems of Fresh Cut Hot Pink Roses in a Free Designer Glass Vase	1	0	1	Expedited	In Care of The Myrtles / Brenda Harvey	1018 ALBERTA AVE			COLUMBIA	MS	39429-2552	US		Enjoy your gift! I love you Brenda. Wish I could be there to celebrate with you! From Sandie	false		
111-5715443-1115440	65733403605074	2020-08-10T17:55:21+00:00	2020-08-10T10:55:21-07:00	2020-08-10T18:14:58+00:00	2020-08-13T06:59:59+00:00	-3	lnwywyms2kl4m2h@marketplace.amazon.com	Janice	+1 929-436-4790 ext. 32907	ABR012	Purchase Now for Delivery by Thursday | Arabella Farm Direct Bouquet of 18 Fresh Cut Pink Roses with a Free Glass Vase	1	0	1	Expedited	Dee Ridley	209 DIXON DR			GAINESVILLE	GA	30501-2901	US		Thinking of you and hope you enjoy a beautiful bouquet of roses.      With love, Cousin Janice From Janice	false		
112-7670084-6041837	32950180827298	2020-08-10T18:10:33+00:00	2020-08-10T11:10:33-07:00	2020-08-10T18:39:20+00:00	2020-08-13T06:59:59+00:00	-3	ht6mfv6khdntl1r@marketplace.amazon.com	Steven	+1 929-436-4790 ext. 18513	ABR001	Purchase Now for Delivery by Thursday | Arabella Bouquets 12 Stems of Fresh Cut Red Roses in a Free Designer Glass Vase	1	0	1	Expedited	Brooke hot sauce Jacobs	5440 RED SUN DR			LAS VEGAS	NV	89149-6641	US		Wake up and smell the roses hot sauce From Steven	true		Business Price
112-8261552-5414642	03377780778946	2020-08-10T18:14:16+00:00	2020-08-10T11:14:16-07:00	2020-08-10T18:39:35+00:00	2020-08-13T06:59:59+00:00	-3	dvkfnrvlyn9lhtk@marketplace.amazon.com	Thomas Lambert	+1 929-436-4790 ext. 76495	ABR004	Purchase Now for Delivery by Thursday | Arabella Farm Direct Bouquet of 12 Fresh Cut Yellow Roses with a Free Glass Vase	1	0	1	Expedited	McKenzie Garrison	103 BRECKENRIDGE DR APT 203			HATTIESBURG	MS	39402-7315	US		Hi Mac, Hope you’re settling back into Hattiesburg okay, can’t wait to be with you soon.  I love you! From Thomas Lambert	false		
113-0119448-1850677	52506827441242	2020-08-10T18:15:57+00:00	2020-08-10T11:15:57-07:00	2020-08-10T18:44:56+00:00	2020-08-13T06:59:59+00:00	-3	r71hdgrdqkds1j0@marketplace.amazon.com	katelyn hart	+1 929-436-4790 ext. 32299	ABR0022	Purchase Now for Delivery by Thursday | Arabella Farm Direct Bouquet of 12 Fresh Cut Pink Roses with a Free Glass Vase	1	0	1	Expedited	Alex Merk	2061 KEMMERLIN ST			JOHNS ISLAND	SC	29455-8294	US		Alex, Thank you for always taking care of me. I love and appreciate you- huge amounts. From Love Katelyn	false		
111-7000409-2163405	30936208976826	2020-08-10T18:36:16+00:00	2020-08-10T11:36:16-07:00	2020-08-10T19:06:35+00:00	2020-08-13T06:59:59+00:00	-3	4lncjzc4cvfm9cy@marketplace.amazon.com	Ursula	+1 929-436-4790 ext. 05923	ABR0055	Arabella Farm Direct Bouquet of 12 Stems of Fresh Cut Hot Pink Roses in a Free Designer Glass Vase	1	0	1	Expedited	Grandma Rose	302 FIELDCREST CT			LINCOLN	CA	95648-8157	US			false		
114-2488291-5830667	35636108266890	2020-08-10T18:43:11+00:00	2020-08-10T11:43:11-07:00	2020-08-10T19:13:09+00:00	2020-08-12T06:59:59+00:00	-2	xrv4l4p32mjypk1@marketplace.amazon.com	V Snowdon	+1 929-436-4790 ext. 00442	ABR0066	Purchase Now for Delivery by Thursday | Arabella Bouquets 12 Stems of Fresh Cut White Roses in a Free Designer Glass Vase	1	0	1	SecondDay	CATE LOWNES	665 THOMAS RD STE 200			LAFAYETTE HILL	PA	19444-1160	US			false		
112-8648093-4513809	20225643861146	2020-08-10T19:00:35+00:00	2020-08-10T12:00:35-07:00	2020-08-10T19:19:14+00:00	2020-08-12T06:59:59+00:00	-2	mkbkqfv2rh6xt5l@marketplace.amazon.com	Pamela Sibley	+1 929-436-4790 ext. 55225	ABM010	Purchase Now for Delivery by Thursday | The Spring Fling Bouquet by Arabella Bouquets with a Free Designer Glass Vase	1	0	1	SecondDay	Ms. Melanie Hodoh	2204 W ADAMS BLVD			LOS ANGELES	CA	90018-2067	US		Just because we love you! To brighten your day and oh yeah HAPPY BELATED BIRTHDAY! The Sibley's From Pamela Sibley	false		
114-0105405-0985828	24367597383298	2020-08-10T18:53:58+00:00	2020-08-10T11:53:58-07:00	2020-08-10T19:24:33+00:00	2020-08-12T06:59:59+00:00	-2	csq6vgwvzzrk75f@marketplace.amazon.com	Scott A. Bursor	+1 929-436-4790 ext. 72962	ABB011	Arabella Bouquets 24 Stems of Fresh Cut Hot Pink Roses in a Free Designer Glass Vase	1	0	1	SecondDay	Scott A. Bursor	167 E 61ST ST APT 19D			NEW YORK	NY	10065-8176	US			false		
111-7251865-2285000	18730101051186	2020-08-10T19:02:33+00:00	2020-08-10T12:02:33-07:00	2020-08-10T19:25:46+00:00	2020-08-12T06:59:59+00:00	-2	dqj6059wwxvd96f@marketplace.amazon.com	William	+1 929-436-4790 ext. 49619	ABR0022	Purchase Now for Delivery by Thursday | Arabella Farm Direct Bouquet of 12 Fresh Cut Pink Roses with a Free Glass Vase	1	0	1	SecondDay	Georgette lake	212 DOE RD			BARTONSVILLE	PA	18321-7768	US			false		
111-9966948-8646668	63034472329066	2020-08-10T18:58:12+00:00	2020-08-10T11:58:12-07:00	2020-08-10T19:27:32+00:00	2020-08-12T06:59:59+00:00	-2	6bw04j1c7zwcg9m@marketplace.amazon.com	tamara	+1 929-436-4790 ext. 93476	ABR0022	Purchase Now for Delivery by Thursday | Arabella Farm Direct Bouquet of 12 Fresh Cut Pink Roses with a Free Glass Vase	1	0	1	SecondDay	tamara joannas evans	52 EGBERT AVE			MORRISTOWN	NEW JERSEY	07960-3777	US			false		
111-0841240-6015446	32239493795666	2020-08-10T19:02:29+00:00	2020-08-10T12:02:29-07:00	2020-08-10T19:30:12+00:00	2020-08-12T06:59:59+00:00	-2	j0nyswhrm1nh4ns@marketplace.amazon.com	Jennifer Hancock Cammack	+1 929-436-4790 ext. 41878	ABM010	Purchase Now for Delivery by Thursday | The Spring Fling Bouquet by Arabella Bouquets with a Free Designer Glass Vase	1	0	1	SecondDay	Angela Morgan	1405 N MAIN ST			FUQUAY VARINA	NC	27526-9024	US		Hope you had a great week!!! From Me	false		
113-8307605-2778637	67703154770930	2020-08-10T19:18:13+00:00	2020-08-10T12:18:13-07:00	2020-08-10T19:45:28+00:00	2020-08-12T06:59:59+00:00	-2	pv8hstphbrt82l3@marketplace.amazon.com	michelle seidler	+1 929-436-4790 ext. 48835	ABR0022	Purchase Now for Delivery by Thursday | Arabella Farm Direct Bouquet of 12 Fresh Cut Pink Roses with a Free Glass Vase	1	0	1	SecondDay	Katie Zaharias	1297 STATE ROAD 206 E			SAINT AUGUSTINE	FL	32086-7952	US		Happy Birthday!!!!!!   I love you!!! From michelle seidler	false		
112-9259356-8713837	46468573212922	2020-08-10T19:21:44+00:00	2020-08-10T12:21:44-07:00	2020-08-10T19:50:16+00:00	2020-08-12T06:59:59+00:00	-2	kzcvlhcrn2p5py9@marketplace.amazon.com	Kim Marsh-Stearns	+1 929-436-4790 ext. 94059	ABR0022	Purchase Now for Delivery by Thursday | Arabella Farm Direct Bouquet of 12 Fresh Cut Pink Roses with a Free Glass Vase	1	0	1	SecondDay	Bonnie Hartman	6900 HELLER RD			WHITEHOUSE	OH	43571-9785	US		Happy “91st” Birthday!,  We love you! Ed and Kim From Kim Marsh-Stearns	false		
112-9498454-1328258	52739518193098	2020-08-10T19:27:11+00:00	2020-08-10T12:27:11-07:00	2020-08-10T19:53:03+00:00	2020-08-12T06:59:59+00:00	-2	hdqb42qpyfgktkm@marketplace.amazon.com	Willie sumter	+1 929-436-4790 ext. 87927	ABR0033	Purchase Now for Delivery by Thursday | Arabella Farm Direct Bouquet of 12 Fresh Cut Orange Roses with a Free Glass Vase	1	0	1	SecondDay	Myesha Culler	1005 HAYDEN RD			NORTH	SC	29112-9240	US		Love You ! From Willie sumter	false		
112-1193411-3857055	04630232840986	2020-08-10T19:31:21+00:00	2020-08-10T12:31:21-07:00	2020-08-10T19:57:11+00:00	2020-08-12T06:59:59+00:00	-2	361qkh31ycv43fn@marketplace.amazon.com	Joseph Rosenthal	+1 929-436-4790 ext. 43290	ABR0022	Purchase Now for Delivery by Thursday | Arabella Farm Direct Bouquet of 12 Fresh Cut Pink Roses with a Free Glass Vase	1	0	1	SecondDay	Marilyn Briggs	590 GLENVIEW DR			ASHLAND	OR	97520-2721	US		Happy Birthday Marilyn Brother Joe From Joseph Rosenthal	false		
112-7683116-9811422	09136173395602	2020-08-10T19:30:07+00:00	2020-08-10T12:30:07-07:00	2020-08-10T19:58:53+00:00	2020-08-12T06:59:59+00:00	-2	659zkl62xf3yddm@marketplace.amazon.com	Jonathan M. Terrell	+1 929-436-4790 ext. 27907	ABR0022	Purchase Now for Delivery by Thursday | Arabella Farm Direct Bouquet of 12 Fresh Cut Pink Roses with a Free Glass Vase	1	0	1	SecondDay	Kelli Jochum	613 6TH LN			PALM BEACH GARDENS	FL	33418-3551	US		Kelli, I’m so excited for you! Can’t wait to see you and the family and new baby boy Jochum! From Mandi Terrell	false		
111-4060355-5225019	57501061943290	2020-08-10T19:35:01+00:00	2020-08-10T12:35:01-07:00	2020-08-10T20:03:55+00:00	2020-08-13T06:59:59+00:00	-3	6pvbygzdntbnhv5@marketplace.amazon.com	Mayra Sanchez-Farley	+1 929-436-4790 ext. 88405	ABR013	Purchase Now for Delivery by Thursday | Arabella Farm Direct Bouquet of 18 Fresh Cut Yellow Roses with a Free Glass Vase	1	0	1	Expedited	Phyllis Farley	181 MANCHESTER RD			SCHENECTADY	NY	12304-3904	US		Happy 31st Birthday Phyllis! Wishing you a healthy and joy-ful year! Love, Ronnie and Mayra From Mayra Sanchez-Farley	false		
111-1331446-3985865	54580495350770	2020-08-10T19:49:45+00:00	2020-08-10T12:49:45-07:00	2020-08-10T20:18:26+00:00	2020-08-12T06:59:59+00:00	-2	s534csjt2ch6dtv@marketplace.amazon.com	dorothy lewis	+1 929-436-4790 ext. 14244	ABR0022	Purchase Now for Delivery by Thursday | Arabella Farm Direct Bouquet of 12 Fresh Cut Pink Roses with a Free Glass Vase	1	0	1	SecondDay	Samantha Lewis	727 W MADISON ST APT 1405			CHICAGO	IL	60661-2409	US		Happy Birthday Beautiful Samantha! I can’t wait to celebrate with you and I know this will be your best year yet! Love Forever , Mommy From dorothy lewis	false		
114-2770650-3428210	20144203323434	2020-08-10T19:52:35+00:00	2020-08-10T12:52:35-07:00	2020-08-10T20:19:37+00:00	2020-08-13T06:59:59+00:00	-3	97qq8qyzjq5k1m4@marketplace.amazon.com	Renee Bronk	+1 929-436-4790 ext. 18629	ABM010	Purchase Now for Delivery by Thursday | The Spring Fling Bouquet by Arabella Bouquets with a Free Designer Glass Vase	1	0	1	Expedited	Jill Takata	15817 W 74TH PL			ARVADA	CO	80007-7964	US			false		
112-5505597-4593816	30455444421290	2020-08-10T19:58:51+00:00	2020-08-10T12:58:51-07:00	2020-08-10T20:28:59+00:00	2020-08-12T06:59:59+00:00	-2	s7cfn3f08ldvc04@marketplace.amazon.com	Rachel Desmarais	+1 929-436-4790 ext. 07253	ABR0022	Purchase Now for Delivery by Thursday | Arabella Farm Direct Bouquet of 12 Fresh Cut Pink Roses with a Free Glass Vase	1	0	1	SecondDay	My Baby-Happy Birthday!!!	29061 N 125TH LN			PEORIA	AZ	85383-7293	US			false		
112-5272407-0000262	28437262886722	2020-08-10T20:06:14+00:00	2020-08-10T13:06:14-07:00	2020-08-10T20:34:35+00:00	2020-08-12T06:59:59+00:00	-2	6bzrtlrjgcl88lm@marketplace.amazon.com	Judy Darling	+1 929-436-4790 ext. 33396	ABR0066	Purchase Now for Delivery by Thursday | Arabella Bouquets 12 Stems of Fresh Cut White Roses in a Free Designer Glass Vase	1	0	1	SecondDay	Joe Gonzalez	NORTHWEST HILLS PHARMACY	3921 STECK AVE STE A121		AUSTIN	TX	78759-8786	US			false		
113-2906238-5553814	66754090977146	2020-08-10T20:34:35+00:00	2020-08-10T13:34:35-07:00	2020-08-10T21:03:30+00:00	2020-08-12T06:59:59+00:00	-2	brxw8gvqtlh66cl@marketplace.amazon.com	Sandra Burton	+1 929-436-4790 ext. 42406	ABR0022	Purchase Now for Delivery by Thursday | Arabella Farm Direct Bouquet of 12 Fresh Cut Pink Roses with a Free Glass Vase	1	0	1	SecondDay	Anna Alonso	3805 TREADWAY DR			VALRICO	FL	33594-5326	US		Just want you to know I'm thinking about you and your family. Love you guys so much! From Sandra Burton	false		
112-7808155-7473008	54580876570050	2020-08-10T20:38:56+00:00	2020-08-10T13:38:56-07:00	2020-08-10T21:04:56+00:00	2020-08-12T06:59:59+00:00	-2	bp4742wx02lfzrm@marketplace.amazon.com	Charles Whaley	+1 929-436-4790 ext. 94823	ABR0022	Purchase Now for Delivery by Thursday | Arabella Farm Direct Bouquet of 12 Fresh Cut Pink Roses with a Free Glass Vase	1	0	1	SecondDay	Arianna Ortega	1821 PUTNAM AVE APT 3L			RIDGEWOOD	NY	11385-4239	US		I am so proud of you mamita. I love you very much! From Tu Abuela.	false		
111-2208393-2781846	58632314374010	2020-08-10T20:39:11+00:00	2020-08-10T13:39:11-07:00	2020-08-10T21:05:20+00:00	2020-08-12T06:59:59+00:00	-2	7r4f6rml9bpgm9t@marketplace.amazon.com	alicia sao	+1 929-436-4790 ext. 24188	ABR0022	Purchase Now for Delivery by Thursday | Arabella Farm Direct Bouquet of 12 Fresh Cut Pink Roses with a Free Glass Vase	1	0	1	SecondDay	Rachel Johnson	2300 ALMA AVE			MANHATTAN BEACH	CA	90266-4309	US		Congratulations!   We can’t wait to meet Maren!   ❤️❤️ From Love, Karstin and Alicia	false		
114-7804888-4611412	56985732004778	2020-08-10T20:43:42+00:00	2020-08-10T13:43:42-07:00	2020-08-10T21:14:20+00:00	2020-08-12T06:59:59+00:00	-2	58hw8p09g8t0g6w@marketplace.amazon.com	Coker	+1 929-436-4790 ext. 57713	ABM0033	Purchase Now for Delivery by Thursday | Arabella Farm Direct Bouquet of Fresh Cut White Hydrangea with a Free Glass Vase	1	0	1	SecondDay	Coker Carson	325 OLD RIVER RD			ELLOREE	SC	29047-8703	US			false		
114-5178785-5973841	22075864043098	2020-08-10T20:52:57+00:00	2020-08-10T13:52:57-07:00	2020-08-10T21:20:46+00:00	2020-08-12T06:59:59+00:00	-2	g632szsyt0xzchk@marketplace.amazon.com	Generals Int'l	+1 929-436-4790 ext. 95366	ABR0033	Purchase Now for Delivery by Thursday | Arabella Farm Direct Bouquet of 12 Fresh Cut Orange Roses with a Free Glass Vase	1	0	1	SecondDay	Veretta Jacobs	539 W CROSSLAND BLVD			GRAND PRAIRIE	TX	75052-6642	US		Happy Birthday Veretta! From Love,  Mike and Cindy and everyone at Generals!	true		
113-1205782-0166601	13134686833986	2020-08-10T20:52:51+00:00	2020-08-10T13:52:51-07:00	2020-08-10T21:22:52+00:00	2020-08-13T06:59:59+00:00	-3	mgdg0y4v89vmgdn@marketplace.amazon.com	Patrick	+1 929-436-4790 ext. 01031	ABR001	Purchase Now for Delivery by Thursday | Arabella Bouquets 12 Stems of Fresh Cut Red Roses in a Free Designer Glass Vase	1	0	1	Expedited	Patrick	9812 PINOT NOR AVE SW			ALBUQUERQUE	NM	87121-5290	US			false		
112-2398085-7485044	16986004674898	2020-08-10T21:05:33+00:00	2020-08-10T14:05:33-07:00	2020-08-10T21:30:38+00:00	2020-08-12T06:59:59+00:00	-2	tr47ck100dgjw4h@marketplace.amazon.com	Linda J Anderson	+1 929-436-4790 ext. 98551	ABR012	Purchase Now for Delivery by Thursday | Arabella Farm Direct Bouquet of 18 Fresh Cut Pink Roses with a Free Glass Vase	1	0	1	SecondDay	Mr and Mrs Joseph Thorpe	34 MONUMENT HILL RD			PELHAM	NH	03076-4101	US		Enjoy your gift!  Happy anniversary. Much love, Mom From Linda J Anderson	false		
111-1011296-7437000	46846327863042	2020-08-10T21:22:46+00:00	2020-08-10T14:22:46-07:00	2020-08-10T21:52:33+00:00	2020-08-12T06:59:59+00:00	-2	229zn3pz7gbb595@marketplace.amazon.com	DeAnna Giuliani	+1 929-436-4790 ext. 44858	ABM0033	Purchase Now for Delivery by Thursday | Arabella Farm Direct Bouquet of Fresh Cut White Hydrangea with a Free Glass Vase	1	0	1	SecondDay	Laura Zoulek	12930 W CUSTER AVE			BUTLER	WI	53007-1112	US		Enjoy your gift! Thank you for hosting Sam's shower.  You are the best! From DeAnna Giuliani	false		
114-8810242-5961811	64404874937842	2020-08-10T21:23:46+00:00	2020-08-10T14:23:46-07:00	2020-08-10T21:54:14+00:00	2020-08-13T06:59:59+00:00	-3	vzkxw40krzwbrss@marketplace.amazon.com	Ted Fox	+1 929-436-4790 ext. 19194	ABR004	Purchase Now for Delivery by Thursday | Arabella Farm Direct Bouquet of 12 Fresh Cut Yellow Roses with a Free Glass Vase	1	0	1	Expedited	Theodore L. Fox III	7781 PASSER RD			BLOSSVALE	NY	13308-2225	US			false		
112-4894258-5257825	12270983770410	2020-08-10T21:33:26+00:00	2020-08-10T14:33:26-07:00	2020-08-10T21:57:20+00:00	2020-08-12T06:59:59+00:00	-2	ljy74jhr14wsjxp@marketplace.amazon.com	Theresa L. Gillis	+1 929-436-4790 ext. 50656	ABM010	Purchase Now for Delivery by Thursday | The Spring Fling Bouquet by Arabella Bouquets with a Free Designer Glass Vase	1	0	1	SecondDay	Katy Glovinsky	3804 North Pine Grove Unit 1			Chicago	IL	60613	US			false		
113-0174921-1297049	60873706891842	2020-08-10T21:33:50+00:00	2020-08-10T14:33:50-07:00	2020-08-10T22:03:06+00:00	2020-08-12T06:59:59+00:00	-2	st996zy1vqchms1@marketplace.amazon.com	Kathy	+1 929-436-4790 ext. 52832	ABR0022	Purchase Now for Delivery by Thursday | Arabella Farm Direct Bouquet of 12 Fresh Cut Pink Roses with a Free Glass Vase	1	0	1	SecondDay	Rhawnie Gallagher	463 ROBERT TRENT JONES BLVD			EAGLE POINT	OR	97524-9013	US			false		
111-4302306-6954612	03692073133314	2020-08-10T21:57:06+00:00	2020-08-10T14:57:06-07:00	2020-08-10T22:12:39+00:00	2020-08-12T06:59:59+00:00	-2	6l17symn7mstkqh@marketplace.amazon.com	William Hernandez	+1 929-436-4790 ext. 71562	ABR0022	Purchase Now for Delivery by Thursday | Arabella Farm Direct Bouquet of 12 Fresh Cut Pink Roses with a Free Glass Vase	1	0	1	SecondDay	C/O Leonard/Karina Noyola	MARGARITA HERNANDEZ	1203 LONDONDARY DR		SAN ANTONIO	TX	78260-5137	US		FEEL BETTER SOON.  MISS AND LOVE YOU. From William Hernandez	false		
112-4279258-9829049	57127006624826	2020-08-10T21:48:40+00:00	2020-08-10T14:48:40-07:00	2020-08-10T22:15:00+00:00	2020-08-12T06:59:59+00:00	-2	sh7ff8jhps3k2pc@marketplace.amazon.com	Susan Lundy	+1 929-436-4790 ext. 96868	ABM002	Arabella Bouquets Fresh Cut White Calla Lilies in a Free Designer Glass Vase |	1	0	1	SecondDay	Shanon Stoklosa	3016 RIVER VISTA WAY			MT PLEASANT	SC	29466-2440	US		Our thoughts are with you and your family. From Hannah, Tiffani, Matt, and Bill	false		
114-1343801-2408216	34426990362562	2020-08-10T21:50:07+00:00	2020-08-10T14:50:07-07:00	2020-08-10T22:16:58+00:00	2020-08-12T06:59:59+00:00	-2	77hr3nwtlc6zzps@marketplace.amazon.com	Scott	+1 929-436-4790 ext. 65165	ABR001	Purchase Now for Delivery by Thursday | Arabella Bouquets 12 Stems of Fresh Cut Red Roses in a Free Designer Glass Vase	1	0	1	SecondDay	Tiffany  Bowen	66 MELVIN LN			WARFIELD	KY	41267-9089	US		I love you so much babe I hope this cheers you up a little ❤️ From Your hubby Scott	false		
111-0088454-7429866	21328273816946	2020-08-10T21:58:07+00:00	2020-08-10T14:58:07-07:00	2020-08-10T22:18:31+00:00	2020-08-12T06:59:59+00:00	-2	v0l1pr90yzlktyd@marketplace.amazon.com	joan s. keillor	+1 929-436-4790 ext. 11129	ABR0022	Purchase Now for Delivery by Thursday | Arabella Farm Direct Bouquet of 12 Fresh Cut Pink Roses with a Free Glass Vase	1	0	1	SecondDay	Chrissie Keillor	5026 OAT FIELDS DR			MYRTLE BEACH	SC	29588-3720	US		Happy homecoming sweetheart. I want to be the first bouquet on your drying rack. Love you, Mama From joan s. keillor	false		
114-9129623-7848231	60641755788858	2020-08-10T21:54:04+00:00	2020-08-10T14:54:04-07:00	2020-08-10T22:21:33+00:00	2020-08-12T06:59:59+00:00	-2	n3tmzzbfgq7hggd@marketplace.amazon.com	Tobias Levey	+1 929-436-4790 ext. 69895	ABR0022	Purchase Now for Delivery by Thursday | Arabella Farm Direct Bouquet of 12 Fresh Cut Pink Roses with a Free Glass Vase	1	0	1	SecondDay	Valerie Gray & Arnetta Scott	3225 SW ROXBURY ST			SEATTLE	WA	98126-4153	US		Valerie and Arnetta Congratulations on your momentous day! Much love Toby From Tobias Levey	false		
111-8258313-5995425	55063570295906	2020-08-10T21:54:46+00:00	2020-08-10T14:54:46-07:00	2020-08-10T22:24:18+00:00	2020-08-12T06:59:59+00:00	-2	fgj1zkwf60k7l25@marketplace.amazon.com	katherine a hawthorne	+1 929-436-4790 ext. 36991	ABR0022	Purchase Now for Delivery by Thursday | Arabella Farm Direct Bouquet of 12 Fresh Cut Pink Roses with a Free Glass Vase	1	0	1	SecondDay	Linda Hawthorne	16208 ZAGROS WAY			AUSTIN	TX	78738-4017	US		Happy Birthday Mimi! From love, Connor, Adam, Ryan, Will and Anna	false		
113-7232497-2884240	44844605119754	2020-08-10T21:27:55+00:00	2020-08-10T14:27:55-07:00	2020-08-10T22:28:44+00:00	2020-08-12T06:59:59+00:00	-2	g6xvmn816wzhr08@marketplace.amazon.com	Hannah Loeffler		ABM0033	Purchase Now for Delivery by Thursday | Arabella Farm Direct Bouquet of Fresh Cut White Hydrangea with a Free Glass Vase	1	0	1	SecondDay	Hannah Lynn Gonzalez, lululemon athleticaPO200-0000024677	5435 Tamiami Trail North Unit C105,Collier			Naples	FL	34108	US			true	200-0000024677	
113-7232497-2884240	12800762847906	2020-08-10T21:27:55+00:00	2020-08-10T14:27:55-07:00	2020-08-10T22:28:44+00:00	2020-08-12T06:59:59+00:00	-2	g6xvmn816wzhr08@marketplace.amazon.com	Hannah Loeffler		ABR0066	Purchase Now for Delivery by Thursday | Arabella Bouquets 12 Stems of Fresh Cut White Roses in a Free Designer Glass Vase	1	0	1	SecondDay	Hannah Lynn Gonzalez, lululemon athleticaPO200-0000024677	5435 Tamiami Trail North Unit C105,Collier			Naples	FL	34108	US			true	200-0000024677	Business Price
114-0818998-9985058	49992017827418	2020-08-10T22:16:36+00:00	2020-08-10T15:16:36-07:00	2020-08-10T22:44:59+00:00	2020-08-12T06:59:59+00:00	-2	lv3k686jnn7q8tj@marketplace.amazon.com	Rsjanuary	+1 929-436-4790 ext. 93321	ABR0022	Purchase Now for Delivery by Thursday | Arabella Farm Direct Bouquet of 12 Fresh Cut Pink Roses with a Free Glass Vase	1	0	1	SecondDay	Joyce January	4700 LINDEN KNOLL DR APT 421			WILMINGTON	DE	19808-1730	US		Happy Birthday Mom!  Love you From Becky	false		
113-1711464-7609858	29151151458506	2020-08-10T22:19:52+00:00	2020-08-10T15:19:52-07:00	2020-08-10T22:45:39+00:00	2020-08-13T06:59:59+00:00	-3	xqy350lz5jgt1w9@marketplace.amazon.com	Geri von Freymann	+1 929-436-4790 ext. 83953	ABR0022	Purchase Now for Delivery by Thursday | Arabella Farm Direct Bouquet of 12 Fresh Cut Pink Roses with a Free Glass Vase	1	0	1	Expedited	Renee Ferrero	8211 MAINSAIL DR UNIT 203			HUNTINGTON BEACH	CA	92646-8540	US			false		
114-8178096-9760220	55800068732994	2020-08-10T22:18:35+00:00	2020-08-10T15:18:35-07:00	2020-08-10T22:49:03+00:00	2020-08-12T06:59:59+00:00	-2	yjr6sth41cgzk33@marketplace.amazon.com	Douglas Lamb	+1 929-436-4790 ext. 19337	ABR001	Purchase Now for Delivery by Thursday | Arabella Bouquets 12 Stems of Fresh Cut Red Roses in a Free Designer Glass Vase	1	0	1	SecondDay	Vitru V-Kean	4005 MANZANITA AVE STE 60			CARMICHAEL	CA	95608-1784	US			false		
114-4904831-9368268	53858650459962	2020-08-10T22:27:19+00:00	2020-08-10T15:27:19-07:00	2020-08-10T22:56:08+00:00	2020-08-12T06:59:59+00:00	-2	pm53lh30ffdkj2k@marketplace.amazon.com	Lenny and Tara Thomas	+1 929-436-4790 ext. 46203	ABR0055	Arabella Farm Direct Bouquet of 12 Stems of Fresh Cut Hot Pink Roses in a Free Designer Glass Vase	1	0	1	SecondDay	Katie Smith	521 FREDERICK ST UNIT B			SANTA CRUZ	CA	95062-2644	US		I hope you feel better soon! Sending my love and lots of kisses!!! I Love You Mama! Xoxo From Tara	false		
113-3379764-4893039	11622947625082	2020-08-10T22:31:30+00:00	2020-08-10T15:31:30-07:00	2020-08-10T22:56:46+00:00	2020-08-12T06:59:59+00:00	-2	h9kj290k4jg1wzt@marketplace.amazon.com	Debra Andrew	+1 929-436-4790 ext. 59207	ABR0022	Purchase Now for Delivery by Thursday | Arabella Farm Direct Bouquet of 12 Fresh Cut Pink Roses with a Free Glass Vase	1	0	1	SecondDay	Jean Lyon	2613 CONCORD AVE			DAVIS	CA	95618-6107	US		Thinking of you, With Lots of Love, Debra, Kirk, Ruth and Tom From Debra Andrew	false		
113-9437412-7157022	61307599808154	2020-08-10T22:31:59+00:00	2020-08-10T15:31:59-07:00	2020-08-10T23:00:03+00:00	2020-08-13T06:59:59+00:00	-3	mx0tx34ps7428cb@marketplace.amazon.com	josephine deering	+1 929-436-4790 ext. 44885	ABR0022	Purchase Now for Delivery by Thursday | Arabella Farm Direct Bouquet of 12 Fresh Cut Pink Roses with a Free Glass Vase	1	0	1	Expedited	mary ellen foster	511 W WASHINGTON AVE			MERIDIAN	ID	83642-2142	US		Happy , Happy Birthday Maryellen Love Jo From josephine deering	false		
114-6054568-7288253	30354586536466	2020-08-10T22:38:47+00:00	2020-08-10T15:38:47-07:00	2020-08-10T23:07:17+00:00	2020-08-12T06:59:59+00:00	-2	f1mnf19p2yljxhn@marketplace.amazon.com	Jarrod Blake	+1 929-436-4790 ext. 14410	ABM010	Purchase Now for Delivery by Thursday | The Spring Fling Bouquet by Arabella Bouquets with a Free Designer Glass Vase	1	0	1	SecondDay	Laura Wolf	89 HAYSTACK LN			SNOWMASS	CO	81654-9310	US		You are awesome! From Jarrod Blake	false		
114-0025452-9901012	42514734794778	2020-08-10T22:46:08+00:00	2020-08-10T15:46:08-07:00	2020-08-10T23:12:43+00:00	2020-08-12T06:59:59+00:00	-2	h2xtcrm06lff7dy@marketplace.amazon.com	Santiago Rodriguez	+1 929-436-4790 ext. 71666	ABM020	Summer Sunset Bouquet by Arabella Bouquets	1	0	1	SecondDay	Ammie Bowman	1484 E BOBWHITE LN			POST FALLS	ID	83854-4949	US			false		
113-6072754-4835413	22775923814578	2020-08-10T23:17:57+00:00	2020-08-10T16:17:57-07:00	2020-08-10T23:43:29+00:00	2020-08-12T06:59:59+00:00	-2	hmbs79lzymc73h4@marketplace.amazon.com	shannon g	+1 929-436-4790 ext. 56153	ABR0055	Arabella Farm Direct Bouquet of 12 Stems of Fresh Cut Hot Pink Roses in a Free Designer Glass Vase	1	0	1	SecondDay	Nancy Kistler	273 MITTMANN CIR			NEW BRAUNFELS	TX	78132-3721	US		Happy Birthday Mom, I love you! From Paul	false		
111-5939500-3051424	05304124332106	2020-08-10T23:35:40+00:00	2020-08-10T16:35:40-07:00	2020-08-11T00:04:11+00:00	2020-08-13T06:59:59+00:00	-3	yz7jqxcmg3y60hj@marketplace.amazon.com	Bob May	+1 929-436-4790 ext. 07539	ABR0033	Purchase Now for Delivery by Thursday | Arabella Farm Direct Bouquet of 12 Fresh Cut Orange Roses with a Free Glass Vase	1	0	1	Expedited	Heather Berger from Bob and Denise	2664 W PIAZZA DR			MERIDIAN	ID	83646-5613	US		Welcome Home Sweetheart ... Thank you so much for your service and sacrifice of your family time.  WE LOVE YOU From Bob & Denise May	false		
114-4661222-2420243	04733581638330	2020-08-10T23:37:16+00:00	2020-08-10T16:37:16-07:00	2020-08-11T00:06:30+00:00	2020-08-13T06:59:59+00:00	-3	y8m0lfb5c101j89@marketplace.amazon.com	Isabelle Bone Senst	+1 929-436-4790 ext. 34718	ABR0022	Purchase Now for Delivery by Thursday | Arabella Farm Direct Bouquet of 12 Fresh Cut Pink Roses with a Free Glass Vase	1	0	1	Expedited	Linda Rawlings	18710 S YALE AVE			BIXBY	OK	74008-5604	US			false		
111-6787688-1741841	12986550155466	2020-08-10T23:40:07+00:00	2020-08-10T16:40:07-07:00	2020-08-11T00:08:48+00:00	2020-08-12T06:59:59+00:00	-2	v6n254g23p6rf8z@marketplace.amazon.com	Martina McArthur	+1 929-436-4790 ext. 13636	ABR012	Purchase Now for Delivery by Thursday | Arabella Farm Direct Bouquet of 18 Fresh Cut Pink Roses with a Free Glass Vase	1	0	1	SecondDay	Tina L. Johnson	3254 WESTWICK DR			HOUSTON	TX	77082-2229	US		Happy Birthday Pretty Girl Aunt Tina + Uncle Stanley	false		
114-4878131-8173046	02765387061426	2020-08-10T23:50:26+00:00	2020-08-10T16:50:26-07:00	2020-08-11T00:12:17+00:00	2020-08-12T06:59:59+00:00	-2	02g96hqjtkcq7g6@marketplace.amazon.com	Andrew Acabeo	+1 929-436-4790 ext. 73415	ABR0022	Purchase Now for Delivery by Thursday | Arabella Farm Direct Bouquet of 12 Fresh Cut Pink Roses with a Free Glass Vase	1	0	1	SecondDay	Jamie Mangosing	1405 PALM VIEW DR			NATIONAL CITY	CA	91950-3656	US		Happy 7 years Jamie! Love you :) From Andrew	false		
111-4932182-7794619	45392091734562	2020-08-10T23:46:20+00:00	2020-08-10T16:46:20-07:00	2020-08-11T00:14:03+00:00	2020-08-12T06:59:59+00:00	-2	2kvv53qv7h2xsg2@marketplace.amazon.com	Tim Stempel	+1 929-436-4790 ext. 35437	ABR0022	Purchase Now for Delivery by Thursday | Arabella Farm Direct Bouquet of 12 Fresh Cut Pink Roses with a Free Glass Vase	1	0	1	SecondDay	Jane Ross Stempel	523 W PORT ROYALE LN			PHOENIX	AZ	85023-5272	US		Enjoy your gift! From TnTnt	false		
111-1433147-2745851	21083734482618	2020-08-10T23:56:10+00:00	2020-08-10T16:56:10-07:00	2020-08-11T00:20:35+00:00	2020-08-12T06:59:59+00:00	-2	q0sbqt6glk2j90q@marketplace.amazon.com	Glenda Alexander	+1 929-436-4790 ext. 45676	ABM010	Purchase Now for Delivery by Thursday | The Spring Fling Bouquet by Arabella Bouquets with a Free Designer Glass Vase	1	0	1	SecondDay	Mary Fondren	3913 CANTERBURY DR APT B			SAINT LOUIS	MO	63121-2558	US			false		
114-9710405-7223416	35197574507098	2020-08-11T00:12:45+00:00	2020-08-10T17:12:45-07:00	2020-08-11T00:32:20+00:00	2020-08-12T06:59:59+00:00	-2	fqryxzt87ltj2gv@marketplace.amazon.com	Judd Hansen	+1 929-436-4790 ext. 49448	ABM0033	Purchase Now for Delivery by Thursday | Arabella Farm Direct Bouquet of Fresh Cut White Hydrangea with a Free Glass Vase	1	0	1	SecondDay	Kim Eilks	14N652 BERKSHIRE LN			HAMPSHIRE	IL	60140-6803	US		Kim, Hard to believe the time has arrived for Connor to get married. We love you and will be thinking of you ALL. We know you be blessed with a beautiful day.  Hugs, Susan & Terri	false		
112-0624929-8619411	11170748294114	2020-08-11T00:10:13+00:00	2020-08-10T17:10:13-07:00	2020-08-11T00:32:48+00:00	2020-08-12T06:59:59+00:00	-2	5zhb1k782zlbg3l@marketplace.amazon.com	Becky Degefe	+1 929-436-4790 ext. 00499	ABR001	Purchase Now for Delivery by Thursday | Arabella Bouquets 12 Stems of Fresh Cut Red Roses in a Free Designer Glass Vase	1	0	1	SecondDay	Minhwa Jung	3024 PONDER PATH			KELLER	TX	76248-1200	US			false		
113-2606781-5575462	43629758844250	2020-08-11T00:29:26+00:00	2020-08-10T17:29:26-07:00	2020-08-11T00:58:12+00:00	2020-08-12T06:59:59+00:00	-2	nqkr68jdx5b6mfx@marketplace.amazon.com	Sonika	+1 929-436-4790 ext. 01970	ABR0022	Purchase Now for Delivery by Thursday | Arabella Farm Direct Bouquet of 12 Fresh Cut Pink Roses with a Free Glass Vase	1	0	1	SecondDay	Neelu Gandhi	159 QUINCE DR			FLOWER MOUND	TX	75028-5169	US		Dearest Massi,  Wish you a very Happy Birthday!!!   Lots of love and happiness. From Ria, Tara, Arun and Sonika	false		
111-1869433-7254643	67794975658450	2020-08-11T00:50:07+00:00	2020-08-10T17:50:07-07:00	2020-08-11T01:18:36+00:00	2020-08-12T06:59:59+00:00	-2	q2q17sm6p33zhq4@marketplace.amazon.com	Heidi Walsh	+1 929-436-4790 ext. 11014	ABR0055	Arabella Farm Direct Bouquet of 12 Stems of Fresh Cut Hot Pink Roses in a Free Designer Glass Vase	1	0	1	SecondDay	Mrs. June Walsh	20 LAURY LN			SCOTIA	NY	12302-2720	US		Happy 94th Birthday Grandma! Hope your day is as special as you are! Sending lots of love and hugs your way! Love: Sean, Heidi, Avery & Dylan xoxo From Heidi Walsh	false		
114-2810387-7020233	56233058190226	2020-08-11T00:51:04+00:00	2020-08-10T17:51:04-07:00	2020-08-11T01:20:37+00:00	2020-08-12T06:59:59+00:00	-2	y8m0lfb5c101j89@marketplace.amazon.com	Isabelle Bone Senst	+1 929-436-4790 ext. 63530	ABR0055	Arabella Farm Direct Bouquet of 12 Stems of Fresh Cut Hot Pink Roses in a Free Designer Glass Vase	1	0	1	SecondDay	Isabelle M. Bone	407 Poppy Dr.			Brighton	CO	80601	US			false		
112-6429116-4156232	17657705442618	2020-08-11T00:59:37+00:00	2020-08-10T17:59:37-07:00	2020-08-11T01:26:16+00:00	2020-08-12T06:59:59+00:00	-2	rgr3fgmp0ztvqfw@marketplace.amazon.com	Antonio flores	+1 929-436-4790 ext. 93559	ABR0022	Purchase Now for Delivery by Thursday | Arabella Farm Direct Bouquet of 12 Fresh Cut Pink Roses with a Free Glass Vase	1	0	1	SecondDay	Karolina Naula	602 56TH ST			WEST NEW YORK	NJ	07093-1236	US		Por supuesto que tendría una y todas las citas que se pueda , espero que te quedes con lo bien que lo pasamos ! Espero que te guste este detalle y que me pienses .. De Antonio flores	false		
114-0977551-2205059	19961547240858	2020-08-11T01:05:23+00:00	2020-08-10T18:05:23-07:00	2020-08-11T01:35:25+00:00	2020-08-12T06:59:59+00:00	-2	z6l3hk8s58tcqqk@marketplace.amazon.com	Lee Slezak	+1 929-436-4790 ext. 05446	ABR0022	Purchase Now for Delivery by Thursday | Arabella Farm Direct Bouquet of 12 Fresh Cut Pink Roses with a Free Glass Vase	1	0	1	SecondDay	Catherine Slezak	2835 N ALTUS DR			FAYETTEVILLE	AR	72703-6407	US		Happy Birthday! From Lee Slezak	false		
113-0939033-0046637	22370241182650	2020-08-11T01:15:44+00:00	2020-08-10T18:15:44-07:00	2020-08-11T01:45:36+00:00	2020-08-13T06:59:59+00:00	-3	wk9zcdbdymmwzvy@marketplace.amazon.com	Sequoia lagunas	+1 929-436-4790 ext. 42648	ABR0022	Purchase Now for Delivery by Thursday | Arabella Farm Direct Bouquet of 12 Fresh Cut Pink Roses with a Free Glass Vase	1	0	1	Expedited	Alaune butler	2175 KITTREDGE ST APT 203			BERKELEY	CA	94704-1472	US			false		
114-5048378-5475403	66990797960138	2020-08-11T01:45:48+00:00	2020-08-10T18:45:48-07:00	2020-08-11T02:06:07+00:00	2020-08-12T06:59:59+00:00	-2	8fdc6r01p65n2kp@marketplace.amazon.com	Christine A. Dorchak	+1 929-436-4790 ext. 17893	ABR0022	Purchase Now for Delivery by Thursday | Arabella Farm Direct Bouquet of 12 Fresh Cut Pink Roses with a Free Glass Vase	1	0	1	SecondDay	Mrs. Mayme Gigl	10430 BROOKHOLLOW CIR			HIGHLANDS RANCH	CO	80129-1801	US		Mayme, I am so sorry to hear about your fall. I know that God is on your side and will pray for your speedy recovery..(I will share some more big news about the greyhounds when next we speak).  Love, Christine From Christine	true		Business Price
112-1266842-2677029	59861381299626	2020-08-11T01:39:15+00:00	2020-08-10T18:39:15-07:00	2020-08-11T02:08:28+00:00	2020-08-12T06:59:59+00:00	-2	y5r263zrh8rzqk6@marketplace.amazon.com	Robert N. Thomas	+1 929-436-4790 ext. 18133	ABR001	Purchase Now for Delivery by Thursday | Arabella Bouquets 12 Stems of Fresh Cut Red Roses in a Free Designer Glass Vase	1	0	1	SecondDay	Kathy Jockitch	4305 PARKSIDE PL			SANDY SPRINGS	GA	30342-2902	US		Happy belated Birthday.   Love, Bob From Robert N. Thomas	false		
113-5443310-2389059	22926669263730	2020-08-11T01:45:03+00:00	2020-08-10T18:45:03-07:00	2020-08-11T02:14:32+00:00	2020-08-12T06:59:59+00:00	-2	rxss1rr9wpry3s1@marketplace.amazon.com	HLM	+1 929-436-4790 ext. 60111	ABR001	Purchase Now for Delivery by Thursday | Arabella Bouquets 12 Stems of Fresh Cut Red Roses in a Free Designer Glass Vase	1	0	1	SecondDay	Heidi L Mefford	441 WALNUT DR			EDGEWATER	MD	21037-3204	US		Happy day good memories and laughs. From Us	false		
111-1523769-5477004	62681380986898	2020-08-11T01:46:15+00:00	2020-08-10T18:46:15-07:00	2020-08-11T02:16:45+00:00	2020-08-12T06:59:59+00:00	-2	jtk6x9n3hxf2vdx@marketplace.amazon.com	Elaine	+1 929-436-4790 ext. 65733	ABR0022	Purchase Now for Delivery by Thursday | Arabella Farm Direct Bouquet of 12 Fresh Cut Pink Roses with a Free Glass Vase	1	0	1	SecondDay	Emily Nicole Brewster	60 WILDWOOD LN			UNCASVILLE	CT	06382-1432	US			false		
114-6160190-2625004	57753222057818	2020-08-11T01:49:40+00:00	2020-08-10T18:49:40-07:00	2020-08-11T02:18:16+00:00	2020-08-12T06:59:59+00:00	-2	cvg8pcgj67g91mx@marketplace.amazon.com	Lori tubaugh	+1 929-436-4790 ext. 12720	ABR0022	Purchase Now for Delivery by Thursday | Arabella Farm Direct Bouquet of 12 Fresh Cut Pink Roses with a Free Glass Vase	1	0	1	SecondDay	Lori tubaugh	7014 N BARBADOS PL			PHOENIX	AZ	85021-8762	US		Happy birthday Mom.    Love Lori and Rick. From Lori tubaugh	false		
111-0977075-4474633	11768259400218	2020-08-11T01:52:26+00:00	2020-08-10T18:52:26-07:00	2020-08-11T02:21:20+00:00	2020-08-12T06:59:59+00:00	-2	vpdhrtv38dgmf6w@marketplace.amazon.com	Dlurde Gerena	+1 929-436-4790 ext. 78681	ABR0022	Purchase Now for Delivery by Thursday | Arabella Farm Direct Bouquet of 12 Fresh Cut Pink Roses with a Free Glass Vase	1	0	1	SecondDay	Mrs Tashi Oyola	130 SHARP AVE			HOPATCONG	NJ	07843-1545	US		Happy Birthday  Love 💘always Titi Lulu From Dlurde Gerena	false		
114-3096198-4458602	37791245871914	2020-08-11T02:05:20+00:00	2020-08-10T19:05:20-07:00	2020-08-11T02:31:16+00:00	2020-08-12T06:59:59+00:00	-2	b0pcnqtwh35knyj@marketplace.amazon.com	Sharon Kopacz	+1 929-436-4790 ext. 21550	ABR0033	Purchase Now for Delivery by Thursday | Arabella Farm Direct Bouquet of 12 Fresh Cut Orange Roses with a Free Glass Vase	1	0	1	SecondDay	Gleneva Douglas	4305 FURMAN AVE APT 5C			BRONX	NY	10466-1628	US		To my favorite baby sister from Lorna with lots of love. Get well soon.I love you very very much . From Lorna Kopacz	false		
111-1967655-0777009	03492124919754	2020-08-11T02:57:42+00:00	2020-08-10T19:57:42-07:00	2020-08-11T03:25:19+00:00	2020-08-12T06:59:59+00:00	-2	s1pvvb8yg88ycft@marketplace.amazon.com	Keith Davis	+1 929-436-4790 ext. 68627	ABR0022	Purchase Now for Delivery by Thursday | Arabella Farm Direct Bouquet of 12 Fresh Cut Pink Roses with a Free Glass Vase	1	0	1	SecondDay	Daryl Berry	3808 CEDARDALE RD			BALTIMORE	MD	21215-7204	US		We love you! From Keith and Jardaé	false		
114-4891434-8763420	21110301752634	2020-08-11T02:56:14+00:00	2020-08-10T19:56:14-07:00	2020-08-11T03:25:27+00:00	2020-08-12T06:59:59+00:00	-2	qtrzp89s8bqnf9v@marketplace.amazon.com	harvey jacques	+1 929-436-4790 ext. 07740	ABR0022	Purchase Now for Delivery by Thursday | Arabella Farm Direct Bouquet of 12 Fresh Cut Pink Roses with a Free Glass Vase	1	0	1	SecondDay	Harvey Jacques	551 North Saturn Avenue			Clearwater	FL	33755	US			false		
114-9049151-7712237	31967386478450	2020-08-11T02:59:33+00:00	2020-08-10T19:59:33-07:00	2020-08-11T03:29:37+00:00	2020-08-13T06:59:59+00:00	-3	7ymjnrmv6nh7038@marketplace.amazon.com	Karim Ewing	+1 929-436-4790 ext. 89430	ABR001	Purchase Now for Delivery by Thursday | Arabella Bouquets 12 Stems of Fresh Cut Red Roses in a Free Designer Glass Vase	1	0	1	Expedited	Ana Ramirez	2600 CRESTON AVE APT 4G			BRONX	NY	10468-4455	US			false		
113-7938261-4157064	67488089453722	2020-08-11T03:08:49+00:00	2020-08-10T20:08:49-07:00	2020-08-11T03:38:03+00:00	2020-08-12T06:59:59+00:00	-2	y6v17s4xxxypb3b@marketplace.amazon.com	Karla Floor	+1 929-436-4790 ext. 36591	ABM010	Purchase Now for Delivery by Thursday | The Spring Fling Bouquet by Arabella Bouquets with a Free Designer Glass Vase	1	0	1	SecondDay	Donna Caldwell	258 SPRINGVIEW DR			WAYNESVILLE	NC	28786-4752	US			false		
113-0437444-2586646	15884597226618	2020-08-11T03:22:54+00:00	2020-08-10T20:22:54-07:00	2020-08-11T03:53:10+00:00	2020-08-12T06:59:59+00:00	-2	jfd3vwjsc912zx0@marketplace.amazon.com	konstantin prives	+1 929-436-4790 ext. 93283	ABR0022	Purchase Now for Delivery by Thursday | Arabella Farm Direct Bouquet of 12 Fresh Cut Pink Roses with a Free Glass Vase	1	0	1	SecondDay	konstantin s prives	60 RADNOR RD			GREAT NECK	NY	11023-1429	US			false		
111-6201308-2923441	23830871989186	2020-08-11T03:48:25+00:00	2020-08-10T20:48:25-07:00	2020-08-11T04:14:18+00:00	2020-08-12T06:59:59+00:00	-2	3mkv25rn4rdpbmx@marketplace.amazon.com	Lynda Gorman	+1 929-436-4790 ext. 14952	ABR0022	Purchase Now for Delivery by Thursday | Arabella Farm Direct Bouquet of 12 Fresh Cut Pink Roses with a Free Glass Vase	1	0	1	SecondDay	Heather Cangialosi	248 HADLEY COMMONS DR			MAULDIN	SC	29662-3253	US		Dear Heather, Have a wonderful shower. From Mom	false		
114-4930218-3175420	04654681668482	2020-08-11T03:54:52+00:00	2020-08-10T20:54:52-07:00	2020-08-11T04:16:33+00:00	2020-08-12T06:59:59+00:00	-2	wvqblzqkgfnn00b@marketplace.amazon.com	Dezarae Wynn	+1 929-436-4790 ext. 61284	ABR0022	Purchase Now for Delivery by Thursday | Arabella Farm Direct Bouquet of 12 Fresh Cut Pink Roses with a Free Glass Vase	1	0	1	SecondDay	Bailee spillers	511 S 4TH ST			TORONTO	OH	43964-1254	US		Hey Bailee, My name is Dezarae and I am a friend of Hailey’s. I heard the news of your daughters surgery & I jus wanted to spread love to you guys. I pray that little Brynlee makes it thru safely. Hope you enjoy the flowers❤️ From Dezarae Wynn	false		
114-1847879-5583422	44654434437226	2020-08-11T04:07:43+00:00	2020-08-10T21:07:43-07:00	2020-08-11T04:26:19+00:00	2020-08-12T06:59:59+00:00	-2	2tf0svgv7l91k98@marketplace.amazon.com	Leif Lund	+1 929-436-4790 ext. 59102	ABR0022	Purchase Now for Delivery by Thursday | Arabella Farm Direct Bouquet of 12 Fresh Cut Pink Roses with a Free Glass Vase	1	0	1	SecondDay	Lina Chamas	13304 BRIGHT SKY OVERLOOK			AUSTIN	TX	78732-2393	US			false		
112-2072655-3706618	40205012199738	2020-08-11T04:23:19+00:00	2020-08-10T21:23:19-07:00	2020-08-11T04:50:07+00:00	2020-08-12T06:59:59+00:00	-2	z500rp4g657zf7m@marketplace.amazon.com	Edlin	+1 929-436-4790 ext. 50767	ABR0022	Purchase Now for Delivery by Thursday | Arabella Farm Direct Bouquet of 12 Fresh Cut Pink Roses with a Free Glass Vase	1	0	1	SecondDay	Jiaqi Su	9701 FIELDS RD APT 2004			GAITHERSBURG	MD	20878-2733	US			false		
111-8844701-0783429	62672762352546	2020-08-11T04:21:58+00:00	2020-08-10T21:21:58-07:00	2020-08-11T04:52:11+00:00	2020-08-12T06:59:59+00:00	-2	745bpyzjccjl78z@marketplace.amazon.com	jonathan rosenberg	+1 929-436-4790 ext. 19843	ABR0066	Purchase Now for Delivery by Thursday | Arabella Bouquets 12 Stems of Fresh Cut White Roses in a Free Designer Glass Vase	2	0	2	SecondDay	Karen Rosenberg	910 PICKETT LN			NEWARK	DE	19711-2642	US			false		
111-8844701-0783429	27485077434714	2020-08-11T04:21:58+00:00	2020-08-10T21:21:58-07:00	2020-08-11T04:52:11+00:00	2020-08-12T06:59:59+00:00	-2	745bpyzjccjl78z@marketplace.amazon.com	jonathan rosenberg	+1 929-436-4790 ext. 19843	ABR0055	Arabella Farm Direct Bouquet of 12 Stems of Fresh Cut Hot Pink Roses in a Free Designer Glass Vase	1	0	1	SecondDay	Karen Rosenberg	910 PICKETT LN			NEWARK	DE	19711-2642	US			false		
111-8844701-0783429	13120109206978	2020-08-11T04:21:58+00:00	2020-08-10T21:21:58-07:00	2020-08-11T04:52:11+00:00	2020-08-12T06:59:59+00:00	-2	745bpyzjccjl78z@marketplace.amazon.com	jonathan rosenberg	+1 929-436-4790 ext. 19843	ABR0022	Purchase Now for Delivery by Thursday | Arabella Farm Direct Bouquet of 12 Fresh Cut Pink Roses with a Free Glass Vase	1	0	1	SecondDay	Karen Rosenberg	910 PICKETT LN			NEWARK	DE	19711-2642	US			false		
114-3494730-3701063	55067002541394	2020-08-11T04:37:01+00:00	2020-08-10T21:37:01-07:00	2020-08-11T04:58:14+00:00	2020-08-12T06:59:59+00:00	-2	451zv0hf39gj7cl@marketplace.amazon.com	Vanessa	+1 929-436-4790 ext. 18940	ABR0022	Purchase Now for Delivery by Thursday | Arabella Farm Direct Bouquet of 12 Fresh Cut Pink Roses with a Free Glass Vase	1	0	1	SecondDay	Hailey Abell	612 PROVIDENCE WALK PL			CANTON	GA	30114-8630	US		Congratulations on your engagement! we love you so much!! From Cole & Vanessa	false		
113-9616791-9723411	56587028407378	2020-08-11T04:39:27+00:00	2020-08-10T21:39:27-07:00	2020-08-11T05:05:58+00:00	2020-08-12T06:59:59+00:00	-2	103bwlfv08nr8zc@marketplace.amazon.com	Maureen O'Rourke	+1 929-436-4790 ext. 50988	ABR0022	Purchase Now for Delivery by Thursday | Arabella Farm Direct Bouquet of 12 Fresh Cut Pink Roses with a Free Glass Vase	1	0	1	SecondDay	MAUREEN O'ROURKE	22401 CALIFA ST			WOODLAND HILLS	CA	91367-4505	US		Happy Birthday!!!!  We love you!!!!!! From Maureen & Lanie	false		
114-6162587-7351403	03042149726962	2020-08-11T05:03:27+00:00	2020-08-10T22:03:27-07:00	2020-08-11T05:29:55+00:00	2020-08-12T06:59:59+00:00	-2	gfml689y9xbz29h@marketplace.amazon.com	Steve wood	+1 929-436-4790 ext. 29833	ABM010	Purchase Now for Delivery by Thursday | The Spring Fling Bouquet by Arabella Bouquets with a Free Designer Glass Vase	1	0	1	SecondDay	Bobbi Weimert	18994 69TH AVE			CHIPPEWA FALLS	WI	54729-8217	US		Thinking of you. From Steve & Missy	false		
114-0316086-0960239	49411300285842	2020-08-11T05:22:58+00:00	2020-08-10T22:22:58-07:00	2020-08-11T05:52:13+00:00	2020-08-12T06:59:59+00:00	-2	f057mkmmgkwzz9n@marketplace.amazon.com	Elizabeth	+1 929-436-4790 ext. 20989	ABR0022	Purchase Now for Delivery by Thursday | Arabella Farm Direct Bouquet of 12 Fresh Cut Pink Roses with a Free Glass Vase	1	0	1	SecondDay	Betty Pana Agarkov	83A Rolling Street	83A		Lynbrook	NY	11563	US			false		
113-2127923-8465022	06049905304474	2020-08-11T05:33:48+00:00	2020-08-10T22:33:48-07:00	2020-08-11T06:00:35+00:00	2020-08-12T06:59:59+00:00	-2	7c9yxncg87rmwhc@marketplace.amazon.com	AmardeepSingh	+1 929-436-4790 ext. 41622	ABR0022	Purchase Now for Delivery by Thursday | Arabella Farm Direct Bouquet of 12 Fresh Cut Pink Roses with a Free Glass Vase	1	0	1	SecondDay	Jaswinder Singh	538 PYRAMID CT			FAIRFIELD	CA	94534-6650	US		Happy Birthday to a special man! We love and appreciate you!! Sai Ram.  -Singh girls From AmardeepSingh	false		
114-7554891-7752228	48357788218242	2020-08-11T05:37:57+00:00	2020-08-10T22:37:57-07:00	2020-08-11T06:02:03+00:00	2020-08-12T06:59:59+00:00	-2	nw22tfr30n8k6fd@marketplace.amazon.com	SHARYN DRAGO	+1 929-436-4790 ext. 39120	ABR0033	Purchase Now for Delivery by Thursday | Arabella Farm Direct Bouquet of 12 Fresh Cut Orange Roses with a Free Glass Vase	1	0	1	SecondDay	ESTER HEYER	19630 E VIA DEL ORO			QUEEN CREEK	AZ	85142-8392	US		Happy Birthday Dulcy,  Wishing I could be there with you on your birthday this year. I hope you have a wonderful day sweetheart. I love you very much! Thinking of you always, From Sharyn	false		
