order-id	order-item-id	purchase-date	payments-date	reporting-date	promise-date	days-past-promise	buyer-email	buyer-name	buyer-phone-number	sku	product-name	quantity-purchased	quantity-shipped	quantity-to-ship	ship-service-level	recipient-name	ship-address-1	ship-address-2	ship-address-3	ship-city	ship-state	ship-postal-code	ship-country	gift-wrap-type	gift-message-text	is-business-order	purchase-order-number	price-designation
113-6218977-4042609	18344401187298	2020-08-10T17:52:18+00:00	2020-08-10T10:52:18-07:00	2020-08-10T18:05:36+00:00	2020-08-13T06:59:59+00:00	-2	djsf0kqpghyw7fk@marketplace.amazon.com	Richard L Kelly	+1 929-436-4790 ext. 83055	ABR0055	Arabella Farm Direct Bouquet of 12 Stems of Fresh Cut Hot Pink Roses in a Free Designer Glass Vase	1	0	1	Expedited	In Care of The Myrtles / Brenda Harvey	1018 ALBERTA AVE			COLUMBIA	MS	39429-2552	US		Enjoy your gift! I love you Brenda. Wish I could be there to celebrate with you! From Sandie	false		
111-5715443-1115440	65733403605074	2020-08-10T17:55:21+00:00	2020-08-10T10:55:21-07:00	2020-08-10T18:14:58+00:00	2020-08-13T06:59:59+00:00	-2	lnwywyms2kl4m2h@marketplace.amazon.com	Janice	+1 929-436-4790 ext. 32907	ABR012	Purchase Now for Delivery by Thursday | Arabella Farm Direct Bouquet of 18 Fresh Cut Pink Roses with a Free Glass Vase	1	0	1	Expedited	Dee Ridley	209 DIXON DR			GAINESVILLE	GA	30501-2901	US		Thinking of you and hope you enjoy a beautiful bouquet of roses.      With love, Cousin Janice From Janice	false		
112-7670084-6041837	32950180827298	2020-08-10T18:10:33+00:00	2020-08-10T11:10:33-07:00	2020-08-10T18:39:20+00:00	2020-08-13T06:59:59+00:00	-2	ht6mfv6khdntl1r@marketplace.amazon.com	Steven	+1 929-436-4790 ext. 18513	ABR001	Purchase Now for Delivery by Thursday | Arabella Bouquets 12 Stems of Fresh Cut Red Roses in a Free Designer Glass Vase	1	0	1	Expedited	Brooke hot sauce Jacobs	5440 RED SUN DR			LAS VEGAS	NV	89149-6641	US		Wake up and smell the roses hot sauce From Steven	true		Business Price
112-8261552-5414642	03377780778946	2020-08-10T18:14:16+00:00	2020-08-10T11:14:16-07:00	2020-08-10T18:39:35+00:00	2020-08-13T06:59:59+00:00	-2	dvkfnrvlyn9lhtk@marketplace.amazon.com	Thomas Lambert	+1 929-436-4790 ext. 76495	ABR004	Purchase Now for Delivery by Thursday | Arabella Farm Direct Bouquet of 12 Fresh Cut Yellow Roses with a Free Glass Vase	1	0	1	Expedited	McKenzie Garrison	103 BRECKENRIDGE DR APT 203			HATTIESBURG	MS	39402-7315	US		Hi Mac, Hope you’re settling back into Hattiesburg okay, can’t wait to be with you soon.  I love you! From Thomas Lambert	false		
113-0119448-1850677	52506827441242	2020-08-10T18:15:57+00:00	2020-08-10T11:15:57-07:00	2020-08-10T18:44:56+00:00	2020-08-13T06:59:59+00:00	-2	r71hdgrdqkds1j0@marketplace.amazon.com	katelyn hart	+1 929-436-4790 ext. 32299	ABR0022	Purchase Now for Delivery by Thursday | Arabella Farm Direct Bouquet of 12 Fresh Cut Pink Roses with a Free Glass Vase	1	0	1	Expedited	Alex Merk	2061 KEMMERLIN ST			JOHNS ISLAND	SC	29455-8294	US		Alex, Thank you for always taking care of me. I love and appreciate you- huge amounts. From Love Katelyn	false		
111-7000409-2163405	30936208976826	2020-08-10T18:36:16+00:00	2020-08-10T11:36:16-07:00	2020-08-10T19:06:35+00:00	2020-08-13T06:59:59+00:00	-2	4lncjzc4cvfm9cy@marketplace.amazon.com	Ursula	+1 929-436-4790 ext. 05923	ABR0055	Arabella Farm Direct Bouquet of 12 Stems of Fresh Cut Hot Pink Roses in a Free Designer Glass Vase	1	0	1	Expedited	Grandma Rose	302 FIELDCREST CT			LINCOLN	CA	95648-8157	US			false		
114-2488291-5830667	35636108266890	2020-08-10T18:43:11+00:00	2020-08-10T11:43:11-07:00	2020-08-10T19:13:09+00:00	2020-08-12T06:59:59+00:00	-1	xrv4l4p32mjypk1@marketplace.amazon.com	V Snowdon	+1 929-436-4790 ext. 00442	ABR0066	Purchase Now for Delivery by Thursday | Arabella Bouquets 12 Stems of Fresh Cut White Roses in a Free Designer Glass Vase	1	0	1	SecondDay	CATE LOWNES	665 THOMAS RD STE 200			LAFAYETTE HILL	PA	19444-1160	US			false		
112-8648093-4513809	20225643861146	2020-08-10T19:00:35+00:00	2020-08-10T12:00:35-07:00	2020-08-10T19:19:14+00:00	2020-08-12T06:59:59+00:00	-1	mkbkqfv2rh6xt5l@marketplace.amazon.com	Pamela Sibley	+1 929-436-4790 ext. 55225	ABM010	Purchase Now for Delivery by Thursday | The Spring Fling Bouquet by Arabella Bouquets with a Free Designer Glass Vase	1	0	1	SecondDay	Ms. Melanie Hodoh	2204 W ADAMS BLVD			LOS ANGELES	CA	90018-2067	US		Just because we love you! To brighten your day and oh yeah HAPPY BELATED BIRTHDAY! The Sibley's From Pamela Sibley	false		
114-0105405-0985828	24367597383298	2020-08-10T18:53:58+00:00	2020-08-10T11:53:58-07:00	2020-08-10T19:24:33+00:00	2020-08-12T06:59:59+00:00	-1	csq6vgwvzzrk75f@marketplace.amazon.com	Scott A. Bursor	+1 929-436-4790 ext. 72962	ABB011	Arabella Bouquets 24 Stems of Fresh Cut Hot Pink Roses in a Free Designer Glass Vase	1	0	1	SecondDay	Scott A. Bursor	167 E 61ST ST APT 19D			NEW YORK	NY	10065-8176	US			false		
111-7251865-2285000	18730101051186	2020-08-10T19:02:33+00:00	2020-08-10T12:02:33-07:00	2020-08-10T19:25:46+00:00	2020-08-12T06:59:59+00:00	-1	dqj6059wwxvd96f@marketplace.amazon.com	William	+1 929-436-4790 ext. 49619	ABR0022	Purchase Now for Delivery by Thursday | Arabella Farm Direct Bouquet of 12 Fresh Cut Pink Roses with a Free Glass Vase	1	0	1	SecondDay	Georgette lake	212 DOE RD			BARTONSVILLE	PA	18321-7768	US			false		
111-9966948-8646668	63034472329066	2020-08-10T18:58:12+00:00	2020-08-10T11:58:12-07:00	2020-08-10T19:27:32+00:00	2020-08-12T06:59:59+00:00	-1	6bw04j1c7zwcg9m@marketplace.amazon.com	tamara	+1 929-436-4790 ext. 93476	ABR0022	Purchase Now for Delivery by Thursday | Arabella Farm Direct Bouquet of 12 Fresh Cut Pink Roses with a Free Glass Vase	1	0	1	SecondDay	tamara joannas evans	52 EGBERT AVE			MORRISTOWN	NEW JERSEY	07960-3777	US			false		
111-0841240-6015446	32239493795666	2020-08-10T19:02:29+00:00	2020-08-10T12:02:29-07:00	2020-08-10T19:30:12+00:00	2020-08-12T06:59:59+00:00	-1	j0nyswhrm1nh4ns@marketplace.amazon.com	Jennifer Hancock Cammack	+1 929-436-4790 ext. 41878	ABM010	Purchase Now for Delivery by Thursday | The Spring Fling Bouquet by Arabella Bouquets with a Free Designer Glass Vase	1	0	1	SecondDay	Angela Morgan	1405 N MAIN ST			FUQUAY VARINA	NC	27526-9024	US		Hope you had a great week!!! From Me	false		
113-8307605-2778637	67703154770930	2020-08-10T19:18:13+00:00	2020-08-10T12:18:13-07:00	2020-08-10T19:45:28+00:00	2020-08-12T06:59:59+00:00	-1	pv8hstphbrt82l3@marketplace.amazon.com	michelle seidler	+1 929-436-4790 ext. 48835	ABR0022	Purchase Now for Delivery by Thursday | Arabella Farm Direct Bouquet of 12 Fresh Cut Pink Roses with a Free Glass Vase	1	0	1	SecondDay	Katie Zaharias	1297 STATE ROAD 206 E			SAINT AUGUSTINE	FL	32086-7952	US		Happy Birthday!!!!!!   I love you!!! From michelle seidler	false		
112-9259356-8713837	46468573212922	2020-08-10T19:21:44+00:00	2020-08-10T12:21:44-07:00	2020-08-10T19:50:16+00:00	2020-08-12T06:59:59+00:00	-1	kzcvlhcrn2p5py9@marketplace.amazon.com	Kim Marsh-Stearns	+1 929-436-4790 ext. 94059	ABR0022	Purchase Now for Delivery by Thursday | Arabella Farm Direct Bouquet of 12 Fresh Cut Pink Roses with a Free Glass Vase	1	0	1	SecondDay	Bonnie Hartman	6900 HELLER RD			WHITEHOUSE	OH	43571-9785	US		Happy “91st” Birthday!,  We love you! Ed and Kim From Kim Marsh-Stearns	false		
112-9498454-1328258	52739518193098	2020-08-10T19:27:11+00:00	2020-08-10T12:27:11-07:00	2020-08-10T19:53:03+00:00	2020-08-12T06:59:59+00:00	-1	hdqb42qpyfgktkm@marketplace.amazon.com	Willie sumter	+1 929-436-4790 ext. 87927	ABR0033	Purchase Now for Delivery by Thursday | Arabella Farm Direct Bouquet of 12 Fresh Cut Orange Roses with a Free Glass Vase	1	0	1	SecondDay	Myesha Culler	1005 HAYDEN RD			NORTH	SC	29112-9240	US		Love You ! From Willie sumter	false		
112-1193411-3857055	04630232840986	2020-08-10T19:31:21+00:00	2020-08-10T12:31:21-07:00	2020-08-10T19:57:11+00:00	2020-08-12T06:59:59+00:00	-1	361qkh31ycv43fn@marketplace.amazon.com	Joseph Rosenthal	+1 929-436-4790 ext. 43290	ABR0022	Purchase Now for Delivery by Thursday | Arabella Farm Direct Bouquet of 12 Fresh Cut Pink Roses with a Free Glass Vase	1	0	1	SecondDay	Marilyn Briggs	590 GLENVIEW DR			ASHLAND	OR	97520-2721	US		Happy Birthday Marilyn Brother Joe From Joseph Rosenthal	false		
112-7683116-9811422	09136173395602	2020-08-10T19:30:07+00:00	2020-08-10T12:30:07-07:00	2020-08-10T19:58:53+00:00	2020-08-12T06:59:59+00:00	-1	659zkl62xf3yddm@marketplace.amazon.com	Jonathan M. Terrell	+1 929-436-4790 ext. 27907	ABR0022	Purchase Now for Delivery by Thursday | Arabella Farm Direct Bouquet of 12 Fresh Cut Pink Roses with a Free Glass Vase	1	0	1	SecondDay	Kelli Jochum	613 6TH LN			PALM BEACH GARDENS	FL	33418-3551	US		Kelli, I’m so excited for you! Can’t wait to see you and the family and new baby boy Jochum! From Mandi Terrell	false		
111-4060355-5225019	57501061943290	2020-08-10T19:35:01+00:00	2020-08-10T12:35:01-07:00	2020-08-10T20:03:55+00:00	2020-08-13T06:59:59+00:00	-2	6pvbygzdntbnhv5@marketplace.amazon.com	Mayra Sanchez-Farley	+1 929-436-4790 ext. 88405	ABR013	Purchase Now for Delivery by Thursday | Arabella Farm Direct Bouquet of 18 Fresh Cut Yellow Roses with a Free Glass Vase	1	0	1	Expedited	Phyllis Farley	181 MANCHESTER RD			SCHENECTADY	NY	12304-3904	US		Happy 31st Birthday Phyllis! Wishing you a healthy and joy-ful year! Love, Ronnie and Mayra From Mayra Sanchez-Farley	false		
111-1331446-3985865	54580495350770	2020-08-10T19:49:45+00:00	2020-08-10T12:49:45-07:00	2020-08-10T20:18:26+00:00	2020-08-12T06:59:59+00:00	-1	s534csjt2ch6dtv@marketplace.amazon.com	dorothy lewis	+1 929-436-4790 ext. 14244	ABR0022	Purchase Now for Delivery by Thursday | Arabella Farm Direct Bouquet of 12 Fresh Cut Pink Roses with a Free Glass Vase	1	0	1	SecondDay	Samantha Lewis	727 W MADISON ST APT 1405			CHICAGO	IL	60661-2409	US		Happy Birthday Beautiful Samantha! I can’t wait to celebrate with you and I know this will be your best year yet! Love Forever , Mommy From dorothy lewis	false		
114-2770650-3428210	20144203323434	2020-08-10T19:52:35+00:00	2020-08-10T12:52:35-07:00	2020-08-10T20:19:37+00:00	2020-08-13T06:59:59+00:00	-2	97qq8qyzjq5k1m4@marketplace.amazon.com	Renee Bronk	+1 929-436-4790 ext. 18629	ABM010	Purchase Now for Delivery by Thursday | The Spring Fling Bouquet by Arabella Bouquets with a Free Designer Glass Vase	1	0	1	Expedited	Jill Takata	15817 W 74TH PL			ARVADA	CO	80007-7964	US			false		
112-5505597-4593816	30455444421290	2020-08-10T19:58:51+00:00	2020-08-10T12:58:51-07:00	2020-08-10T20:28:59+00:00	2020-08-12T06:59:59+00:00	-1	s7cfn3f08ldvc04@marketplace.amazon.com	Rachel Desmarais	+1 929-436-4790 ext. 07253	ABR0022	Purchase Now for Delivery by Thursday | Arabella Farm Direct Bouquet of 12 Fresh Cut Pink Roses with a Free Glass Vase	1	0	1	SecondDay	My Baby-Happy Birthday!!!	29061 N 125TH LN			PEORIA	AZ	85383-7293	US			false		
112-5272407-0000262	28437262886722	2020-08-10T20:06:14+00:00	2020-08-10T13:06:14-07:00	2020-08-10T20:34:35+00:00	2020-08-12T06:59:59+00:00	-1	6bzrtlrjgcl88lm@marketplace.amazon.com	Judy Darling	+1 929-436-4790 ext. 33396	ABR0066	Purchase Now for Delivery by Thursday | Arabella Bouquets 12 Stems of Fresh Cut White Roses in a Free Designer Glass Vase	1	0	1	SecondDay	Joe Gonzalez	NORTHWEST HILLS PHARMACY	3921 STECK AVE STE A121		AUSTIN	TX	78759-8786	US			false		
113-2906238-5553814	66754090977146	2020-08-10T20:34:35+00:00	2020-08-10T13:34:35-07:00	2020-08-10T21:03:30+00:00	2020-08-12T06:59:59+00:00	-1	brxw8gvqtlh66cl@marketplace.amazon.com	Sandra Burton	+1 929-436-4790 ext. 42406	ABR0022	Purchase Now for Delivery by Thursday | Arabella Farm Direct Bouquet of 12 Fresh Cut Pink Roses with a Free Glass Vase	1	0	1	SecondDay	Anna Alonso	3805 TREADWAY DR			VALRICO	FL	33594-5326	US		Just want you to know I'm thinking about you and your family. Love you guys so much! From Sandra Burton	false		
112-7808155-7473008	54580876570050	2020-08-10T20:38:56+00:00	2020-08-10T13:38:56-07:00	2020-08-10T21:04:56+00:00	2020-08-12T06:59:59+00:00	-1	bp4742wx02lfzrm@marketplace.amazon.com	Charles Whaley	+1 929-436-4790 ext. 94823	ABR0022	Purchase Now for Delivery by Thursday | Arabella Farm Direct Bouquet of 12 Fresh Cut Pink Roses with a Free Glass Vase	1	0	1	SecondDay	Arianna Ortega	1821 PUTNAM AVE APT 3L			RIDGEWOOD	NY	11385-4239	US		I am so proud of you mamita. I love you very much! From Tu Abuela.	false		
111-2208393-2781846	58632314374010	2020-08-10T20:39:11+00:00	2020-08-10T13:39:11-07:00	2020-08-10T21:05:20+00:00	2020-08-12T06:59:59+00:00	-1	7r4f6rml9bpgm9t@marketplace.amazon.com	alicia sao	+1 929-436-4790 ext. 24188	ABR0022	Purchase Now for Delivery by Thursday | Arabella Farm Direct Bouquet of 12 Fresh Cut Pink Roses with a Free Glass Vase	1	0	1	SecondDay	Rachel Johnson	2300 ALMA AVE			MANHATTAN BEACH	CA	90266-4309	US		Congratulations!   We can’t wait to meet Maren!   ❤️❤️ From Love, Karstin and Alicia	false		
114-7804888-4611412	56985732004778	2020-08-10T20:43:42+00:00	2020-08-10T13:43:42-07:00	2020-08-10T21:14:20+00:00	2020-08-12T06:59:59+00:00	-1	58hw8p09g8t0g6w@marketplace.amazon.com	Coker	+1 929-436-4790 ext. 57713	ABM0033	Purchase Now for Delivery by Thursday | Arabella Farm Direct Bouquet of Fresh Cut White Hydrangea with a Free Glass Vase	1	0	1	SecondDay	Coker Carson	325 OLD RIVER RD			ELLOREE	SC	29047-8703	US			false		
114-5178785-5973841	22075864043098	2020-08-10T20:52:57+00:00	2020-08-10T13:52:57-07:00	2020-08-10T21:20:46+00:00	2020-08-12T06:59:59+00:00	-1	g632szsyt0xzchk@marketplace.amazon.com	Generals Int'l	+1 929-436-4790 ext. 95366	ABR0033	Purchase Now for Delivery by Thursday | Arabella Farm Direct Bouquet of 12 Fresh Cut Orange Roses with a Free Glass Vase	1	0	1	SecondDay	Veretta Jacobs	539 W CROSSLAND BLVD			GRAND PRAIRIE	TX	75052-6642	US		Happy Birthday Veretta! From Love,  Mike and Cindy and everyone at Generals!	true		
113-1205782-0166601	13134686833986	2020-08-10T20:52:51+00:00	2020-08-10T13:52:51-07:00	2020-08-10T21:22:52+00:00	2020-08-13T06:59:59+00:00	-2	mgdg0y4v89vmgdn@marketplace.amazon.com	Patrick	+1 929-436-4790 ext. 01031	ABR001	Purchase Now for Delivery by Thursday | Arabella Bouquets 12 Stems of Fresh Cut Red Roses in a Free Designer Glass Vase	1	0	1	Expedited	Patrick	9812 PINOT NOR AVE SW			ALBUQUERQUE	NM	87121-5290	US			false		
112-2398085-7485044	16986004674898	2020-08-10T21:05:33+00:00	2020-08-10T14:05:33-07:00	2020-08-10T21:30:38+00:00	2020-08-12T06:59:59+00:00	-1	tr47ck100dgjw4h@marketplace.amazon.com	Linda J Anderson	+1 929-436-4790 ext. 98551	ABR012	Purchase Now for Delivery by Thursday | Arabella Farm Direct Bouquet of 18 Fresh Cut Pink Roses with a Free Glass Vase	1	0	1	SecondDay	Mr and Mrs Joseph Thorpe	34 MONUMENT HILL RD			PELHAM	NH	03076-4101	US		Enjoy your gift!  Happy anniversary. Much love, Mom From Linda J Anderson	false		
111-1011296-7437000	46846327863042	2020-08-10T21:22:46+00:00	2020-08-10T14:22:46-07:00	2020-08-10T21:52:33+00:00	2020-08-12T06:59:59+00:00	-1	229zn3pz7gbb595@marketplace.amazon.com	DeAnna Giuliani	+1 929-436-4790 ext. 44858	ABM0033	Purchase Now for Delivery by Thursday | Arabella Farm Direct Bouquet of Fresh Cut White Hydrangea with a Free Glass Vase	1	0	1	SecondDay	Laura Zoulek	12930 W CUSTER AVE			BUTLER	WI	53007-1112	US		Enjoy your gift! Thank you for hosting Sam's shower.  You are the best! From DeAnna Giuliani	false		
114-8810242-5961811	64404874937842	2020-08-10T21:23:46+00:00	2020-08-10T14:23:46-07:00	2020-08-10T21:54:14+00:00	2020-08-13T06:59:59+00:00	-2	vzkxw40krzwbrss@marketplace.amazon.com	Ted Fox	+1 929-436-4790 ext. 19194	ABR004	Purchase Now for Delivery by Thursday | Arabella Farm Direct Bouquet of 12 Fresh Cut Yellow Roses with a Free Glass Vase	1	0	1	Expedited	Theodore L. Fox III	7781 PASSER RD			BLOSSVALE	NY	13308-2225	US			false		
112-4894258-5257825	12270983770410	2020-08-10T21:33:26+00:00	2020-08-10T14:33:26-07:00	2020-08-10T21:57:20+00:00	2020-08-12T06:59:59+00:00	-1	ljy74jhr14wsjxp@marketplace.amazon.com	Theresa L. Gillis	+1 929-436-4790 ext. 50656	ABM010	Purchase Now for Delivery by Thursday | The Spring Fling Bouquet by Arabella Bouquets with a Free Designer Glass Vase	1	0	1	SecondDay	Katy Glovinsky	3804 North Pine Grove Unit 1			Chicago	IL	60613	US			false		
113-0174921-1297049	60873706891842	2020-08-10T21:33:50+00:00	2020-08-10T14:33:50-07:00	2020-08-10T22:03:06+00:00	2020-08-12T06:59:59+00:00	-1	st996zy1vqchms1@marketplace.amazon.com	Kathy	+1 929-436-4790 ext. 52832	ABR0022	Purchase Now for Delivery by Thursday | Arabella Farm Direct Bouquet of 12 Fresh Cut Pink Roses with a Free Glass Vase	1	0	1	SecondDay	Rhawnie Gallagher	463 ROBERT TRENT JONES BLVD			EAGLE POINT	OR	97524-9013	US			false		
111-4302306-6954612	03692073133314	2020-08-10T21:57:06+00:00	2020-08-10T14:57:06-07:00	2020-08-10T22:12:39+00:00	2020-08-12T06:59:59+00:00	-1	6l17symn7mstkqh@marketplace.amazon.com	William Hernandez	+1 929-436-4790 ext. 71562	ABR0022	Purchase Now for Delivery by Thursday | Arabella Farm Direct Bouquet of 12 Fresh Cut Pink Roses with a Free Glass Vase	1	0	1	SecondDay	C/O Leonard/Karina Noyola	MARGARITA HERNANDEZ	1203 LONDONDARY DR		SAN ANTONIO	TX	78260-5137	US		FEEL BETTER SOON.  MISS AND LOVE YOU. From William Hernandez	false		
112-4279258-9829049	57127006624826	2020-08-10T21:48:40+00:00	2020-08-10T14:48:40-07:00	2020-08-10T22:15:00+00:00	2020-08-12T06:59:59+00:00	-1	sh7ff8jhps3k2pc@marketplace.amazon.com	Susan Lundy	+1 929-436-4790 ext. 96868	ABM002	Arabella Bouquets Fresh Cut White Calla Lilies in a Free Designer Glass Vase |	1	0	1	SecondDay	Shanon Stoklosa	3016 RIVER VISTA WAY			MT PLEASANT	SC	29466-2440	US		Our thoughts are with you and your family. From Hannah, Tiffani, Matt, and Bill	false		
114-1343801-2408216	34426990362562	2020-08-10T21:50:07+00:00	2020-08-10T14:50:07-07:00	2020-08-10T22:16:58+00:00	2020-08-12T06:59:59+00:00	-1	77hr3nwtlc6zzps@marketplace.amazon.com	Scott	+1 929-436-4790 ext. 65165	ABR001	Purchase Now for Delivery by Thursday | Arabella Bouquets 12 Stems of Fresh Cut Red Roses in a Free Designer Glass Vase	1	0	1	SecondDay	Tiffany  Bowen	66 MELVIN LN			WARFIELD	KY	41267-9089	US		I love you so much babe I hope this cheers you up a little ❤️ From Your hubby Scott	false		
111-0088454-7429866	21328273816946	2020-08-10T21:58:07+00:00	2020-08-10T14:58:07-07:00	2020-08-10T22:18:31+00:00	2020-08-12T06:59:59+00:00	-1	v0l1pr90yzlktyd@marketplace.amazon.com	joan s. keillor	+1 929-436-4790 ext. 11129	ABR0022	Purchase Now for Delivery by Thursday | Arabella Farm Direct Bouquet of 12 Fresh Cut Pink Roses with a Free Glass Vase	1	0	1	SecondDay	Chrissie Keillor	5026 OAT FIELDS DR			MYRTLE BEACH	SC	29588-3720	US		Happy homecoming sweetheart. I want to be the first bouquet on your drying rack. Love you, Mama From joan s. keillor	false		
114-9129623-7848231	60641755788858	2020-08-10T21:54:04+00:00	2020-08-10T14:54:04-07:00	2020-08-10T22:21:33+00:00	2020-08-12T06:59:59+00:00	-1	n3tmzzbfgq7hggd@marketplace.amazon.com	Tobias Levey	+1 929-436-4790 ext. 69895	ABR0022	Purchase Now for Delivery by Thursday | Arabella Farm Direct Bouquet of 12 Fresh Cut Pink Roses with a Free Glass Vase	1	0	1	SecondDay	Valerie Gray & Arnetta Scott	3225 SW ROXBURY ST			SEATTLE	WA	98126-4153	US		Valerie and Arnetta Congratulations on your momentous day! Much love Toby From Tobias Levey	false		
111-8258313-5995425	55063570295906	2020-08-10T21:54:46+00:00	2020-08-10T14:54:46-07:00	2020-08-10T22:24:18+00:00	2020-08-12T06:59:59+00:00	-1	fgj1zkwf60k7l25@marketplace.amazon.com	katherine a hawthorne	+1 929-436-4790 ext. 36991	ABR0022	Purchase Now for Delivery by Thursday | Arabella Farm Direct Bouquet of 12 Fresh Cut Pink Roses with a Free Glass Vase	1	0	1	SecondDay	Linda Hawthorne	16208 ZAGROS WAY			AUSTIN	TX	78738-4017	US		Happy Birthday Mimi! From love, Connor, Adam, Ryan, Will and Anna	false		
113-7232497-2884240	44844605119754	2020-08-10T21:27:55+00:00	2020-08-10T14:27:55-07:00	2020-08-10T22:28:44+00:00	2020-08-12T06:59:59+00:00	-1	g6xvmn816wzhr08@marketplace.amazon.com	Hannah Loeffler		ABM0033	Purchase Now for Delivery by Thursday | Arabella Farm Direct Bouquet of Fresh Cut White Hydrangea with a Free Glass Vase	1	0	1	SecondDay	Hannah Lynn Gonzalez, lululemon athleticaPO200-0000024677	5435 Tamiami Trail North Unit C105,Collier			Naples	FL	34108	US			true	200-0000024677	
113-7232497-2884240	12800762847906	2020-08-10T21:27:55+00:00	2020-08-10T14:27:55-07:00	2020-08-10T22:28:44+00:00	2020-08-12T06:59:59+00:00	-1	g6xvmn816wzhr08@marketplace.amazon.com	Hannah Loeffler		ABR0066	Purchase Now for Delivery by Thursday | Arabella Bouquets 12 Stems of Fresh Cut White Roses in a Free Designer Glass Vase	1	0	1	SecondDay	Hannah Lynn Gonzalez, lululemon athleticaPO200-0000024677	5435 Tamiami Trail North Unit C105,Collier			Naples	FL	34108	US			true	200-0000024677	Business Price
114-0818998-9985058	49992017827418	2020-08-10T22:16:36+00:00	2020-08-10T15:16:36-07:00	2020-08-10T22:44:59+00:00	2020-08-12T06:59:59+00:00	-1	lv3k686jnn7q8tj@marketplace.amazon.com	Rsjanuary	+1 929-436-4790 ext. 93321	ABR0022	Purchase Now for Delivery by Thursday | Arabella Farm Direct Bouquet of 12 Fresh Cut Pink Roses with a Free Glass Vase	1	0	1	SecondDay	Joyce January	4700 LINDEN KNOLL DR APT 421			WILMINGTON	DE	19808-1730	US		Happy Birthday Mom!  Love you From Becky	false		
113-1711464-7609858	29151151458506	2020-08-10T22:19:52+00:00	2020-08-10T15:19:52-07:00	2020-08-10T22:45:39+00:00	2020-08-13T06:59:59+00:00	-2	xqy350lz5jgt1w9@marketplace.amazon.com	Geri von Freymann	+1 929-436-4790 ext. 83953	ABR0022	Purchase Now for Delivery by Thursday | Arabella Farm Direct Bouquet of 12 Fresh Cut Pink Roses with a Free Glass Vase	1	0	1	Expedited	Renee Ferrero	8211 MAINSAIL DR UNIT 203			HUNTINGTON BEACH	CA	92646-8540	US			false		
114-8178096-9760220	55800068732994	2020-08-10T22:18:35+00:00	2020-08-10T15:18:35-07:00	2020-08-10T22:49:03+00:00	2020-08-12T06:59:59+00:00	-1	yjr6sth41cgzk33@marketplace.amazon.com	Douglas Lamb	+1 929-436-4790 ext. 19337	ABR001	Purchase Now for Delivery by Thursday | Arabella Bouquets 12 Stems of Fresh Cut Red Roses in a Free Designer Glass Vase	1	0	1	SecondDay	Vitru V-Kean	4005 MANZANITA AVE STE 60			CARMICHAEL	CA	95608-1784	US			false		
114-4904831-9368268	53858650459962	2020-08-10T22:27:19+00:00	2020-08-10T15:27:19-07:00	2020-08-10T22:56:08+00:00	2020-08-12T06:59:59+00:00	-1	pm53lh30ffdkj2k@marketplace.amazon.com	Lenny and Tara Thomas	+1 929-436-4790 ext. 46203	ABR0055	Arabella Farm Direct Bouquet of 12 Stems of Fresh Cut Hot Pink Roses in a Free Designer Glass Vase	1	0	1	SecondDay	Katie Smith	521 FREDERICK ST UNIT B			SANTA CRUZ	CA	95062-2644	US		I hope you feel better soon! Sending my love and lots of kisses!!! I Love You Mama! Xoxo From Tara	false		
113-3379764-4893039	11622947625082	2020-08-10T22:31:30+00:00	2020-08-10T15:31:30-07:00	2020-08-10T22:56:46+00:00	2020-08-12T06:59:59+00:00	-1	h9kj290k4jg1wzt@marketplace.amazon.com	Debra Andrew	+1 929-436-4790 ext. 59207	ABR0022	Purchase Now for Delivery by Thursday | Arabella Farm Direct Bouquet of 12 Fresh Cut Pink Roses with a Free Glass Vase	1	0	1	SecondDay	Jean Lyon	2613 CONCORD AVE			DAVIS	CA	95618-6107	US		Thinking of you, With Lots of Love, Debra, Kirk, Ruth and Tom From Debra Andrew	false		
113-9437412-7157022	61307599808154	2020-08-10T22:31:59+00:00	2020-08-10T15:31:59-07:00	2020-08-10T23:00:03+00:00	2020-08-13T06:59:59+00:00	-2	mx0tx34ps7428cb@marketplace.amazon.com	josephine deering	+1 929-436-4790 ext. 44885	ABR0022	Purchase Now for Delivery by Thursday | Arabella Farm Direct Bouquet of 12 Fresh Cut Pink Roses with a Free Glass Vase	1	0	1	Expedited	mary ellen foster	511 W WASHINGTON AVE			MERIDIAN	ID	83642-2142	US		Happy , Happy Birthday Maryellen Love Jo From josephine deering	false		
114-6054568-7288253	30354586536466	2020-08-10T22:38:47+00:00	2020-08-10T15:38:47-07:00	2020-08-10T23:07:17+00:00	2020-08-12T06:59:59+00:00	-1	f1mnf19p2yljxhn@marketplace.amazon.com	Jarrod Blake	+1 929-436-4790 ext. 14410	ABM010	Purchase Now for Delivery by Thursday | The Spring Fling Bouquet by Arabella Bouquets with a Free Designer Glass Vase	1	0	1	SecondDay	Laura Wolf	89 HAYSTACK LN			SNOWMASS	CO	81654-9310	US		You are awesome! From Jarrod Blake	false		
114-0025452-9901012	42514734794778	2020-08-10T22:46:08+00:00	2020-08-10T15:46:08-07:00	2020-08-10T23:12:43+00:00	2020-08-12T06:59:59+00:00	-1	h2xtcrm06lff7dy@marketplace.amazon.com	Santiago Rodriguez	+1 929-436-4790 ext. 71666	ABM020	Summer Sunset Bouquet by Arabella Bouquets	1	0	1	SecondDay	Ammie Bowman	1484 E BOBWHITE LN			POST FALLS	ID	83854-4949	US			false		
113-6072754-4835413	22775923814578	2020-08-10T23:17:57+00:00	2020-08-10T16:17:57-07:00	2020-08-10T23:43:29+00:00	2020-08-12T06:59:59+00:00	-1	hmbs79lzymc73h4@marketplace.amazon.com	shannon g	+1 929-436-4790 ext. 56153	ABR0055	Arabella Farm Direct Bouquet of 12 Stems of Fresh Cut Hot Pink Roses in a Free Designer Glass Vase	1	0	1	SecondDay	Nancy Kistler	273 MITTMANN CIR			NEW BRAUNFELS	TX	78132-3721	US		Happy Birthday Mom, I love you! From Paul	false		
111-5939500-3051424	05304124332106	2020-08-10T23:35:40+00:00	2020-08-10T16:35:40-07:00	2020-08-11T00:04:11+00:00	2020-08-13T06:59:59+00:00	-2	yz7jqxcmg3y60hj@marketplace.amazon.com	Bob May	+1 929-436-4790 ext. 07539	ABR0033	Purchase Now for Delivery by Thursday | Arabella Farm Direct Bouquet of 12 Fresh Cut Orange Roses with a Free Glass Vase	1	0	1	Expedited	Heather Berger from Bob and Denise	2664 W PIAZZA DR			MERIDIAN	ID	83646-5613	US		Welcome Home Sweetheart ... Thank you so much for your service and sacrifice of your family time.  WE LOVE YOU From Bob & Denise May	false		
114-4661222-2420243	04733581638330	2020-08-10T23:37:16+00:00	2020-08-10T16:37:16-07:00	2020-08-11T00:06:30+00:00	2020-08-13T06:59:59+00:00	-2	y8m0lfb5c101j89@marketplace.amazon.com	Isabelle Bone Senst	+1 929-436-4790 ext. 34718	ABR0022	Purchase Now for Delivery by Thursday | Arabella Farm Direct Bouquet of 12 Fresh Cut Pink Roses with a Free Glass Vase	1	0	1	Expedited	Linda Rawlings	18710 S YALE AVE			BIXBY	OK	74008-5604	US			false		
111-6787688-1741841	12986550155466	2020-08-10T23:40:07+00:00	2020-08-10T16:40:07-07:00	2020-08-11T00:08:48+00:00	2020-08-12T06:59:59+00:00	-1	v6n254g23p6rf8z@marketplace.amazon.com	Martina McArthur	+1 929-436-4790 ext. 13636	ABR012	Purchase Now for Delivery by Thursday | Arabella Farm Direct Bouquet of 18 Fresh Cut Pink Roses with a Free Glass Vase	1	0	1	SecondDay	Tina L. Johnson	3254 WESTWICK DR			HOUSTON	TX	77082-2229	US		Happy Birthday Pretty Girl Aunt Tina + Uncle Stanley	false		
114-4878131-8173046	02765387061426	2020-08-10T23:50:26+00:00	2020-08-10T16:50:26-07:00	2020-08-11T00:12:17+00:00	2020-08-12T06:59:59+00:00	-1	02g96hqjtkcq7g6@marketplace.amazon.com	Andrew Acabeo	+1 929-436-4790 ext. 73415	ABR0022	Purchase Now for Delivery by Thursday | Arabella Farm Direct Bouquet of 12 Fresh Cut Pink Roses with a Free Glass Vase	1	0	1	SecondDay	Jamie Mangosing	1405 PALM VIEW DR			NATIONAL CITY	CA	91950-3656	US		Happy 7 years Jamie! Love you :) From Andrew	false		
111-4932182-7794619	45392091734562	2020-08-10T23:46:20+00:00	2020-08-10T16:46:20-07:00	2020-08-11T00:14:03+00:00	2020-08-12T06:59:59+00:00	-1	2kvv53qv7h2xsg2@marketplace.amazon.com	Tim Stempel	+1 929-436-4790 ext. 35437	ABR0022	Purchase Now for Delivery by Thursday | Arabella Farm Direct Bouquet of 12 Fresh Cut Pink Roses with a Free Glass Vase	1	0	1	SecondDay	Jane Ross Stempel	523 W PORT ROYALE LN			PHOENIX	AZ	85023-5272	US		Enjoy your gift! From TnTnt	false		
111-1433147-2745851	21083734482618	2020-08-10T23:56:10+00:00	2020-08-10T16:56:10-07:00	2020-08-11T00:20:35+00:00	2020-08-12T06:59:59+00:00	-1	q0sbqt6glk2j90q@marketplace.amazon.com	Glenda Alexander	+1 929-436-4790 ext. 45676	ABM010	Purchase Now for Delivery by Thursday | The Spring Fling Bouquet by Arabella Bouquets with a Free Designer Glass Vase	1	0	1	SecondDay	Mary Fondren	3913 CANTERBURY DR APT B			SAINT LOUIS	MO	63121-2558	US			false		
114-9710405-7223416	35197574507098	2020-08-11T00:12:45+00:00	2020-08-10T17:12:45-07:00	2020-08-11T00:32:20+00:00	2020-08-12T06:59:59+00:00	-1	fqryxzt87ltj2gv@marketplace.amazon.com	Judd Hansen	+1 929-436-4790 ext. 49448	ABM0033	Purchase Now for Delivery by Thursday | Arabella Farm Direct Bouquet of Fresh Cut White Hydrangea with a Free Glass Vase	1	0	1	SecondDay	Kim Eilks	14N652 BERKSHIRE LN			HAMPSHIRE	IL	60140-6803	US		Kim, Hard to believe the time has arrived for Connor to get married. We love you and will be thinking of you ALL. We know you be blessed with a beautiful day.  Hugs, Susan & Terri	false		
112-0624929-8619411	11170748294114	2020-08-11T00:10:13+00:00	2020-08-10T17:10:13-07:00	2020-08-11T00:32:48+00:00	2020-08-12T06:59:59+00:00	-1	5zhb1k782zlbg3l@marketplace.amazon.com	Becky Degefe	+1 929-436-4790 ext. 00499	ABR001	Purchase Now for Delivery by Thursday | Arabella Bouquets 12 Stems of Fresh Cut Red Roses in a Free Designer Glass Vase	1	0	1	SecondDay	Minhwa Jung	3024 PONDER PATH			KELLER	TX	76248-1200	US			false		
113-2606781-5575462	43629758844250	2020-08-11T00:29:26+00:00	2020-08-10T17:29:26-07:00	2020-08-11T00:58:12+00:00	2020-08-12T06:59:59+00:00	-1	nqkr68jdx5b6mfx@marketplace.amazon.com	Sonika	+1 929-436-4790 ext. 01970	ABR0022	Purchase Now for Delivery by Thursday | Arabella Farm Direct Bouquet of 12 Fresh Cut Pink Roses with a Free Glass Vase	1	0	1	SecondDay	Neelu Gandhi	159 QUINCE DR			FLOWER MOUND	TX	75028-5169	US		Dearest Massi,  Wish you a very Happy Birthday!!!   Lots of love and happiness. From Ria, Tara, Arun and Sonika	false		
111-1869433-7254643	67794975658450	2020-08-11T00:50:07+00:00	2020-08-10T17:50:07-07:00	2020-08-11T01:18:36+00:00	2020-08-12T06:59:59+00:00	-1	q2q17sm6p33zhq4@marketplace.amazon.com	Heidi Walsh	+1 929-436-4790 ext. 11014	ABR0055	Arabella Farm Direct Bouquet of 12 Stems of Fresh Cut Hot Pink Roses in a Free Designer Glass Vase	1	0	1	SecondDay	Mrs. June Walsh	20 LAURY LN			SCOTIA	NY	12302-2720	US		Happy 94th Birthday Grandma! Hope your day is as special as you are! Sending lots of love and hugs your way! Love: Sean, Heidi, Avery & Dylan xoxo From Heidi Walsh	false		
112-6429116-4156232	17657705442618	2020-08-11T00:59:37+00:00	2020-08-10T17:59:37-07:00	2020-08-11T01:26:16+00:00	2020-08-12T06:59:59+00:00	-1	rgr3fgmp0ztvqfw@marketplace.amazon.com	Antonio flores	+1 929-436-4790 ext. 93559	ABR0022	Purchase Now for Delivery by Thursday | Arabella Farm Direct Bouquet of 12 Fresh Cut Pink Roses with a Free Glass Vase	1	0	1	SecondDay	Karolina Naula	602 56TH ST			WEST NEW YORK	NJ	07093-1236	US		Por supuesto que tendría una y todas las citas que se pueda , espero que te quedes con lo bien que lo pasamos ! Espero que te guste este detalle y que me pienses .. De Antonio flores	false		
114-0977551-2205059	19961547240858	2020-08-11T01:05:23+00:00	2020-08-10T18:05:23-07:00	2020-08-11T01:35:25+00:00	2020-08-12T06:59:59+00:00	-1	z6l3hk8s58tcqqk@marketplace.amazon.com	Lee Slezak	+1 929-436-4790 ext. 05446	ABR0022	Purchase Now for Delivery by Thursday | Arabella Farm Direct Bouquet of 12 Fresh Cut Pink Roses with a Free Glass Vase	1	0	1	SecondDay	Catherine Slezak	2835 N ALTUS DR			FAYETTEVILLE	AR	72703-6407	US		Happy Birthday! From Lee Slezak	false		
113-0939033-0046637	22370241182650	2020-08-11T01:15:44+00:00	2020-08-10T18:15:44-07:00	2020-08-11T01:45:36+00:00	2020-08-13T06:59:59+00:00	-2	wk9zcdbdymmwzvy@marketplace.amazon.com	Sequoia lagunas	+1 929-436-4790 ext. 42648	ABR0022	Purchase Now for Delivery by Thursday | Arabella Farm Direct Bouquet of 12 Fresh Cut Pink Roses with a Free Glass Vase	1	0	1	Expedited	Alaune butler	2175 KITTREDGE ST APT 203			BERKELEY	CA	94704-1472	US			false		
114-5048378-5475403	66990797960138	2020-08-11T01:45:48+00:00	2020-08-10T18:45:48-07:00	2020-08-11T02:06:07+00:00	2020-08-12T06:59:59+00:00	-1	8fdc6r01p65n2kp@marketplace.amazon.com	Christine A. Dorchak	+1 929-436-4790 ext. 17893	ABR0022	Purchase Now for Delivery by Thursday | Arabella Farm Direct Bouquet of 12 Fresh Cut Pink Roses with a Free Glass Vase	1	0	1	SecondDay	Mrs. Mayme Gigl	10430 BROOKHOLLOW CIR			HIGHLANDS RANCH	CO	80129-1801	US		Mayme, I am so sorry to hear about your fall. I know that God is on your side and will pray for your speedy recovery..(I will share some more big news about the greyhounds when next we speak).  Love, Christine From Christine	true		Business Price
112-1266842-2677029	59861381299626	2020-08-11T01:39:15+00:00	2020-08-10T18:39:15-07:00	2020-08-11T02:08:28+00:00	2020-08-12T06:59:59+00:00	-1	y5r263zrh8rzqk6@marketplace.amazon.com	Robert N. Thomas	+1 929-436-4790 ext. 18133	ABR001	Purchase Now for Delivery by Thursday | Arabella Bouquets 12 Stems of Fresh Cut Red Roses in a Free Designer Glass Vase	1	0	1	SecondDay	Kathy Jockitch	4305 PARKSIDE PL			SANDY SPRINGS	GA	30342-2902	US		Happy belated Birthday.   Love, Bob From Robert N. Thomas	false		
113-5443310-2389059	22926669263730	2020-08-11T01:45:03+00:00	2020-08-10T18:45:03-07:00	2020-08-11T02:14:32+00:00	2020-08-12T06:59:59+00:00	-1	rxss1rr9wpry3s1@marketplace.amazon.com	HLM	+1 929-436-4790 ext. 60111	ABR001	Purchase Now for Delivery by Thursday | Arabella Bouquets 12 Stems of Fresh Cut Red Roses in a Free Designer Glass Vase	1	0	1	SecondDay	Heidi L Mefford	441 WALNUT DR			EDGEWATER	MD	21037-3204	US		Happy day good memories and laughs. From Us	false		
111-1523769-5477004	62681380986898	2020-08-11T01:46:15+00:00	2020-08-10T18:46:15-07:00	2020-08-11T02:16:45+00:00	2020-08-12T06:59:59+00:00	-1	jtk6x9n3hxf2vdx@marketplace.amazon.com	Elaine	+1 929-436-4790 ext. 65733	ABR0022	Purchase Now for Delivery by Thursday | Arabella Farm Direct Bouquet of 12 Fresh Cut Pink Roses with a Free Glass Vase	1	0	1	SecondDay	Emily Nicole Brewster	60 WILDWOOD LN			UNCASVILLE	CT	06382-1432	US			false		
114-6160190-2625004	57753222057818	2020-08-11T01:49:40+00:00	2020-08-10T18:49:40-07:00	2020-08-11T02:18:16+00:00	2020-08-12T06:59:59+00:00	-1	cvg8pcgj67g91mx@marketplace.amazon.com	Lori tubaugh	+1 929-436-4790 ext. 12720	ABR0022	Purchase Now for Delivery by Thursday | Arabella Farm Direct Bouquet of 12 Fresh Cut Pink Roses with a Free Glass Vase	1	0	1	SecondDay	Lori tubaugh	7014 N BARBADOS PL			PHOENIX	AZ	85021-8762	US		Happy birthday Mom.    Love Lori and Rick. From Lori tubaugh	false		
111-0977075-4474633	11768259400218	2020-08-11T01:52:26+00:00	2020-08-10T18:52:26-07:00	2020-08-11T02:21:20+00:00	2020-08-12T06:59:59+00:00	-1	vpdhrtv38dgmf6w@marketplace.amazon.com	Dlurde Gerena	+1 929-436-4790 ext. 78681	ABR0022	Purchase Now for Delivery by Thursday | Arabella Farm Direct Bouquet of 12 Fresh Cut Pink Roses with a Free Glass Vase	1	0	1	SecondDay	Mrs Tashi Oyola	130 SHARP AVE			HOPATCONG	NJ	07843-1545	US		Happy Birthday  Love 💘always Titi Lulu From Dlurde Gerena	false		
114-3096198-4458602	37791245871914	2020-08-11T02:05:20+00:00	2020-08-10T19:05:20-07:00	2020-08-11T02:31:16+00:00	2020-08-12T06:59:59+00:00	-1	b0pcnqtwh35knyj@marketplace.amazon.com	Sharon Kopacz	+1 929-436-4790 ext. 21550	ABR0033	Purchase Now for Delivery by Thursday | Arabella Farm Direct Bouquet of 12 Fresh Cut Orange Roses with a Free Glass Vase	1	0	1	SecondDay	Gleneva Douglas	4305 FURMAN AVE APT 5C			BRONX	NY	10466-1628	US		To my favorite baby sister from Lorna with lots of love. Get well soon.I love you very very much . From Lorna Kopacz	false		
111-1967655-0777009	03492124919754	2020-08-11T02:57:42+00:00	2020-08-10T19:57:42-07:00	2020-08-11T03:25:19+00:00	2020-08-12T06:59:59+00:00	-1	s1pvvb8yg88ycft@marketplace.amazon.com	Keith Davis	+1 929-436-4790 ext. 68627	ABR0022	Purchase Now for Delivery by Thursday | Arabella Farm Direct Bouquet of 12 Fresh Cut Pink Roses with a Free Glass Vase	1	0	1	SecondDay	Daryl Berry	3808 CEDARDALE RD			BALTIMORE	MD	21215-7204	US		We love you! From Keith and Jardaé	false		
114-4891434-8763420	21110301752634	2020-08-11T02:56:14+00:00	2020-08-10T19:56:14-07:00	2020-08-11T03:25:27+00:00	2020-08-12T06:59:59+00:00	-1	qtrzp89s8bqnf9v@marketplace.amazon.com	harvey jacques	+1 929-436-4790 ext. 07740	ABR0022	Purchase Now for Delivery by Thursday | Arabella Farm Direct Bouquet of 12 Fresh Cut Pink Roses with a Free Glass Vase	1	0	1	SecondDay	Harvey Jacques	551 North Saturn Avenue			Clearwater	FL	33755	US			false		
114-9049151-7712237	31967386478450	2020-08-11T02:59:33+00:00	2020-08-10T19:59:33-07:00	2020-08-11T03:29:37+00:00	2020-08-13T06:59:59+00:00	-2	7ymjnrmv6nh7038@marketplace.amazon.com	Karim Ewing	+1 929-436-4790 ext. 89430	ABR001	Purchase Now for Delivery by Thursday | Arabella Bouquets 12 Stems of Fresh Cut Red Roses in a Free Designer Glass Vase	1	0	1	Expedited	Ana Ramirez	2600 CRESTON AVE APT 4G			BRONX	NY	10468-4455	US			false		
113-7938261-4157064	67488089453722	2020-08-11T03:08:49+00:00	2020-08-10T20:08:49-07:00	2020-08-11T03:38:03+00:00	2020-08-12T06:59:59+00:00	-1	y6v17s4xxxypb3b@marketplace.amazon.com	Karla Floor	+1 929-436-4790 ext. 36591	ABM010	Purchase Now for Delivery by Thursday | The Spring Fling Bouquet by Arabella Bouquets with a Free Designer Glass Vase	1	0	1	SecondDay	Donna Caldwell	258 SPRINGVIEW DR			WAYNESVILLE	NC	28786-4752	US			false		
113-0437444-2586646	15884597226618	2020-08-11T03:22:54+00:00	2020-08-10T20:22:54-07:00	2020-08-11T03:53:10+00:00	2020-08-12T06:59:59+00:00	-1	jfd3vwjsc912zx0@marketplace.amazon.com	konstantin prives	+1 929-436-4790 ext. 93283	ABR0022	Purchase Now for Delivery by Thursday | Arabella Farm Direct Bouquet of 12 Fresh Cut Pink Roses with a Free Glass Vase	1	0	1	SecondDay	konstantin s prives	60 RADNOR RD			GREAT NECK	NY	11023-1429	US			false		
111-6201308-2923441	23830871989186	2020-08-11T03:48:25+00:00	2020-08-10T20:48:25-07:00	2020-08-11T04:14:18+00:00	2020-08-12T06:59:59+00:00	-1	3mkv25rn4rdpbmx@marketplace.amazon.com	Lynda Gorman	+1 929-436-4790 ext. 14952	ABR0022	Purchase Now for Delivery by Thursday | Arabella Farm Direct Bouquet of 12 Fresh Cut Pink Roses with a Free Glass Vase	1	0	1	SecondDay	Heather Cangialosi	248 HADLEY COMMONS DR			MAULDIN	SC	29662-3253	US		Dear Heather, Have a wonderful shower. From Mom	false		
114-4930218-3175420	04654681668482	2020-08-11T03:54:52+00:00	2020-08-10T20:54:52-07:00	2020-08-11T04:16:33+00:00	2020-08-12T06:59:59+00:00	-1	wvqblzqkgfnn00b@marketplace.amazon.com	Dezarae Wynn	+1 929-436-4790 ext. 61284	ABR0022	Purchase Now for Delivery by Thursday | Arabella Farm Direct Bouquet of 12 Fresh Cut Pink Roses with a Free Glass Vase	1	0	1	SecondDay	Bailee spillers	511 S 4TH ST			TORONTO	OH	43964-1254	US		Hey Bailee, My name is Dezarae and I am a friend of Hailey’s. I heard the news of your daughters surgery & I jus wanted to spread love to you guys. I pray that little Brynlee makes it thru safely. Hope you enjoy the flowers❤️ From Dezarae Wynn	false		
114-1847879-5583422	44654434437226	2020-08-11T04:07:43+00:00	2020-08-10T21:07:43-07:00	2020-08-11T04:26:19+00:00	2020-08-12T06:59:59+00:00	-1	2tf0svgv7l91k98@marketplace.amazon.com	Leif Lund	+1 929-436-4790 ext. 59102	ABR0022	Purchase Now for Delivery by Thursday | Arabella Farm Direct Bouquet of 12 Fresh Cut Pink Roses with a Free Glass Vase	1	0	1	SecondDay	Lina Chamas	13304 BRIGHT SKY OVERLOOK			AUSTIN	TX	78732-2393	US			false		
112-2072655-3706618	40205012199738	2020-08-11T04:23:19+00:00	2020-08-10T21:23:19-07:00	2020-08-11T04:50:07+00:00	2020-08-12T06:59:59+00:00	-1	z500rp4g657zf7m@marketplace.amazon.com	Edlin	+1 929-436-4790 ext. 50767	ABR0022	Purchase Now for Delivery by Thursday | Arabella Farm Direct Bouquet of 12 Fresh Cut Pink Roses with a Free Glass Vase	1	0	1	SecondDay	Jiaqi Su	9701 FIELDS RD APT 2004			GAITHERSBURG	MD	20878-2733	US			false		
111-8844701-0783429	62672762352546	2020-08-11T04:21:58+00:00	2020-08-10T21:21:58-07:00	2020-08-11T04:52:11+00:00	2020-08-12T06:59:59+00:00	-1	745bpyzjccjl78z@marketplace.amazon.com	jonathan rosenberg	+1 929-436-4790 ext. 19843	ABR0066	Purchase Now for Delivery by Thursday | Arabella Bouquets 12 Stems of Fresh Cut White Roses in a Free Designer Glass Vase	2	0	2	SecondDay	Karen Rosenberg	910 PICKETT LN			NEWARK	DE	19711-2642	US			false		
111-8844701-0783429	27485077434714	2020-08-11T04:21:58+00:00	2020-08-10T21:21:58-07:00	2020-08-11T04:52:11+00:00	2020-08-12T06:59:59+00:00	-1	745bpyzjccjl78z@marketplace.amazon.com	jonathan rosenberg	+1 929-436-4790 ext. 19843	ABR0055	Arabella Farm Direct Bouquet of 12 Stems of Fresh Cut Hot Pink Roses in a Free Designer Glass Vase	1	0	1	SecondDay	Karen Rosenberg	910 PICKETT LN			NEWARK	DE	19711-2642	US			false		
111-8844701-0783429	13120109206978	2020-08-11T04:21:58+00:00	2020-08-10T21:21:58-07:00	2020-08-11T04:52:11+00:00	2020-08-12T06:59:59+00:00	-1	745bpyzjccjl78z@marketplace.amazon.com	jonathan rosenberg	+1 929-436-4790 ext. 19843	ABR0022	Purchase Now for Delivery by Thursday | Arabella Farm Direct Bouquet of 12 Fresh Cut Pink Roses with a Free Glass Vase	1	0	1	SecondDay	Karen Rosenberg	910 PICKETT LN			NEWARK	DE	19711-2642	US			false		
114-3494730-3701063	55067002541394	2020-08-11T04:37:01+00:00	2020-08-10T21:37:01-07:00	2020-08-11T04:58:14+00:00	2020-08-12T06:59:59+00:00	-1	451zv0hf39gj7cl@marketplace.amazon.com	Vanessa	+1 929-436-4790 ext. 18940	ABR0022	Purchase Now for Delivery by Thursday | Arabella Farm Direct Bouquet of 12 Fresh Cut Pink Roses with a Free Glass Vase	1	0	1	SecondDay	Hailey Abell	612 PROVIDENCE WALK PL			CANTON	GA	30114-8630	US		Congratulations on your engagement! we love you so much!! From Cole & Vanessa	false		
113-9616791-9723411	56587028407378	2020-08-11T04:39:27+00:00	2020-08-10T21:39:27-07:00	2020-08-11T05:05:58+00:00	2020-08-12T06:59:59+00:00	-1	103bwlfv08nr8zc@marketplace.amazon.com	Maureen O'Rourke	+1 929-436-4790 ext. 50988	ABR0022	Purchase Now for Delivery by Thursday | Arabella Farm Direct Bouquet of 12 Fresh Cut Pink Roses with a Free Glass Vase	1	0	1	SecondDay	MAUREEN O'ROURKE	22401 CALIFA ST			WOODLAND HILLS	CA	91367-4505	US		Happy Birthday!!!!  We love you!!!!!! From Maureen & Lanie	false		
114-6162587-7351403	03042149726962	2020-08-11T05:03:27+00:00	2020-08-10T22:03:27-07:00	2020-08-11T05:29:55+00:00	2020-08-12T06:59:59+00:00	-1	gfml689y9xbz29h@marketplace.amazon.com	Steve wood	+1 929-436-4790 ext. 29833	ABM010	Purchase Now for Delivery by Thursday | The Spring Fling Bouquet by Arabella Bouquets with a Free Designer Glass Vase	1	0	1	SecondDay	Bobbi Weimert	18994 69TH AVE			CHIPPEWA FALLS	WI	54729-8217	US		Thinking of you. From Steve & Missy	false		
114-0316086-0960239	49411300285842	2020-08-11T05:22:58+00:00	2020-08-10T22:22:58-07:00	2020-08-11T05:52:13+00:00	2020-08-12T06:59:59+00:00	-1	f057mkmmgkwzz9n@marketplace.amazon.com	Elizabeth	+1 929-436-4790 ext. 20989	ABR0022	Purchase Now for Delivery by Thursday | Arabella Farm Direct Bouquet of 12 Fresh Cut Pink Roses with a Free Glass Vase	1	0	1	SecondDay	Betty Pana Agarkov	83A Rolling Street	83A		Lynbrook	NY	11563	US			false		
113-2127923-8465022	06049905304474	2020-08-11T05:33:48+00:00	2020-08-10T22:33:48-07:00	2020-08-11T06:00:35+00:00	2020-08-12T06:59:59+00:00	-1	7c9yxncg87rmwhc@marketplace.amazon.com	AmardeepSingh	+1 929-436-4790 ext. 41622	ABR0022	Purchase Now for Delivery by Thursday | Arabella Farm Direct Bouquet of 12 Fresh Cut Pink Roses with a Free Glass Vase	1	0	1	SecondDay	Jaswinder Singh	538 PYRAMID CT			FAIRFIELD	CA	94534-6650	US		Happy Birthday to a special man! We love and appreciate you!! Sai Ram.  -Singh girls From AmardeepSingh	false		
114-7554891-7752228	48357788218242	2020-08-11T05:37:57+00:00	2020-08-10T22:37:57-07:00	2020-08-11T06:02:03+00:00	2020-08-12T06:59:59+00:00	-1	nw22tfr30n8k6fd@marketplace.amazon.com	SHARYN DRAGO	+1 929-436-4790 ext. 39120	ABR0033	Purchase Now for Delivery by Thursday | Arabella Farm Direct Bouquet of 12 Fresh Cut Orange Roses with a Free Glass Vase	1	0	1	SecondDay	ESTER HEYER	19630 E VIA DEL ORO			QUEEN CREEK	AZ	85142-8392	US		Happy Birthday Dulcy,  Wishing I could be there with you on your birthday this year. I hope you have a wonderful day sweetheart. I love you very much! Thinking of you always, From Sharyn	false		
112-4151262-1614610	05233951835602	2020-08-11T05:48:41+00:00	2020-08-10T22:48:41-07:00	2020-08-11T06:18:47+00:00	2020-08-12T06:59:59+00:00	-1	jw8bmsvxtxyxhlg@marketplace.amazon.com	Roderick Marrs	+1 929-436-4790 ext. 40111	ABR001	Purchase Now for Delivery by Thursday | Arabella Bouquets 12 Stems of Fresh Cut Red Roses in a Free Designer Glass Vase	1	0	1	SecondDay	Bri Walker	550 SHILOH DR			CONWAY	AR	72032-8065	US			false		
111-6768499-5891466	15310497944114	2020-08-11T06:28:04+00:00	2020-08-10T23:28:04-07:00	2020-08-11T06:57:01+00:00	2020-08-12T06:59:59+00:00	-1	lysgjlmldhfkjdd@marketplace.amazon.com	David Luong	+1 929-436-4790 ext. 98399	ABR0022	Purchase Now for Delivery by Thursday | Arabella Farm Direct Bouquet of 12 Fresh Cut Pink Roses with a Free Glass Vase	1	0	1	SecondDay	Lisa kou	36 BIJOU			IRVINE	CA	92618-1512	US		Dear Lisa, Continuing to PRAY for your mommy to have the strength to recover from her heart surgery. May God give her comfort and you strength. Thinking of you both. From Amy Tong	false		
112-9958997-4550644	18934080910826	2020-08-11T07:01:40+00:00	2020-08-11T00:01:40-07:00	2020-08-11T07:19:23+00:00	2020-08-13T06:59:59+00:00	-2	9xvw973w2fv4r5y@marketplace.amazon.com	Dureale Davis	+1 929-436-4790 ext. 58932	ABR0022	Purchase Now for Delivery by Thursday | Arabella Farm Direct Bouquet of 12 Fresh Cut Pink Roses with a Free Glass Vase	1	0	1	Expedited	Lashae ward	501 E VIRGINIA WAY APT 134			BARSTOW	CA	92311-3971	US		I love u, Deona. And also, I am, truly hurt about our relationship. Take care, sweetheart. From Dureale Davis	false		
112-0625293-8892228	64628067886562	2020-08-11T07:06:22+00:00	2020-08-11T00:06:22-07:00	2020-08-11T07:33:43+00:00	2020-08-12T06:59:59+00:00	-1	brmysqr02s9cztj@marketplace.amazon.com	Miguel	+1 929-436-4790 ext. 45564	ABR0055	Arabella Farm Direct Bouquet of 12 Stems of Fresh Cut Hot Pink Roses in a Free Designer Glass Vase	1	0	1	SecondDay	Mariela Hernandes	5514 AMARANTH MEADOW LN			HOUSTON	TX	77085-3386	US		Gracias !!!! De Miguel	false		
114-0712504-7839443	57955705330762	2020-08-11T07:25:13+00:00	2020-08-11T00:25:13-07:00	2020-08-11T07:54:08+00:00	2020-08-12T06:59:59+00:00	-1	47t61d2ff3py166@marketplace.amazon.com	Jennifer Raasch	+1 929-436-4790 ext. 99217	ABR004	Purchase Now for Delivery by Thursday | Arabella Farm Direct Bouquet of 12 Fresh Cut Yellow Roses with a Free Glass Vase	1	0	1	SecondDay	Gordon Nash	205 PAMLICO LN			CHOCOWINITY	NC	27817-8865	US		I’m so sorry about your loss.   We love you guys and miss you.  I cried today looking at how old B looked.  They miss you too.  Xoxo From Jennie	false		
114-2336211-0380264	33004714765074	2020-08-11T09:08:42+00:00	2020-08-11T02:08:42-07:00	2020-08-11T09:39:19+00:00	2020-08-14T06:59:59+00:00	-3	shb22jd9bb26d6m@marketplace.amazon.com	Mafe Rogers	+1 929-436-4790 ext. 33880	ABR0022	Purchase Now for Delivery by Thursday | Arabella Farm Direct Bouquet of 12 Fresh Cut Pink Roses with a Free Glass Vase	1	0	1	Expedited	Marilou Quintana	#91 N Lakeshore Lake			Junaluska	NC	28745	US			false		
114-8782608-7732251	45283078653930	2020-08-11T10:05:21+00:00	2020-08-11T03:05:21-07:00	2020-08-11T10:34:56+00:00	2020-08-12T06:59:59+00:00	-1	dnq0ly42z5186n9@marketplace.amazon.com	John Baudry	+1 929-436-4790 ext. 70726	ABR0022	Purchase Now for Delivery by Thursday | Arabella Farm Direct Bouquet of 12 Fresh Cut Pink Roses with a Free Glass Vase	1	0	1	SecondDay	Abby Baudry	2573 S CHERRY TREE LN			SUTTONS BAY	MI	49682-9536	US			false		
111-6366444-4223444	03093148686138	2020-08-11T10:45:32+00:00	2020-08-11T03:45:32-07:00	2020-08-11T11:09:12+00:00	2020-08-12T06:59:59+00:00	-1	6s75wr55tvlmphg@marketplace.amazon.com	Randi LaRussa	+1 929-436-4790 ext. 70959	ABM010	Purchase Now for Delivery by Thursday | The Spring Fling Bouquet by Arabella Bouquets with a Free Designer Glass Vase	1	0	1	SecondDay	Russell Hall	36 PINE NECK AVE			SAG HARBOR	NY	11963-1704	US		Happy anniversary Russ& Diane Enjoy your gift! Love, Larry & Randi	false		
111-2049853-9311410	41723365495426	2020-08-11T11:16:33+00:00	2020-08-11T04:16:33-07:00	2020-08-11T11:46:28+00:00	2020-08-12T06:59:59+00:00	-1	wwrcnhmnf5bgg8r@marketplace.amazon.com	Nick Krueger	+1 929-436-4790 ext. 15950	ABR0033	Purchase Now for Delivery by Thursday | Arabella Farm Direct Bouquet of 12 Fresh Cut Orange Roses with a Free Glass Vase	1	0	1	SecondDay	Sandy Krueger	208 LAURELWOOD DR			DOUGLASSVILLE	PA	19518-1008	US			false		
112-6235949-7281833	18523136638178	2020-08-11T11:52:31+00:00	2020-08-11T04:52:31-07:00	2020-08-11T12:18:10+00:00	2020-08-12T06:59:59+00:00	-1	044zpyldcjdx0qv@marketplace.amazon.com	Sarah rupp	+1 929-436-4790 ext. 55286	ABR004	Purchase Now for Delivery by Thursday | Arabella Farm Direct Bouquet of 12 Fresh Cut Yellow Roses with a Free Glass Vase	1	0	1	SecondDay	Debbie and Jeff Berger	2405 SPINDRIFT RD			VIRGINIA BEACH	VA	23451-1722	US		Thanks again for the wonderful dinner and company. Love you guys!! From Sarah rupp	false		
111-2515306-5940234	51702024859754	2020-08-11T12:04:42+00:00	2020-08-11T05:04:42-07:00	2020-08-11T12:29:53+00:00	2020-08-12T06:59:59+00:00	-1	fkrf7q2xjdmbhth@marketplace.amazon.com	rosemarie DiBernardi	+1 929-436-4790 ext. 14912	ABR0022	Purchase Now for Delivery by Thursday | Arabella Farm Direct Bouquet of 12 Fresh Cut Pink Roses with a Free Glass Vase	1	0	1	SecondDay	Gabrielle DiBernardi	3002 39TH AVE APT B211			LONG ISLAND CITY	NY	11101-2756	US		Happy Birthday! We love you! From Pete, Rosemarie, Peter, John & Alexandra	false		
113-2373679-1435468	47192755134410	2020-08-11T12:15:12+00:00	2020-08-11T05:15:12-07:00	2020-08-11T12:39:38+00:00	2020-08-12T06:59:59+00:00	-1	tz1b0441m8yf907@marketplace.amazon.com	Jan J Eastman	+1 929-436-4790 ext. 73630	ABR0022	Purchase Now for Delivery by Thursday | Arabella Farm Direct Bouquet of 12 Fresh Cut Pink Roses with a Free Glass Vase	1	0	1	SecondDay	Karen Eastman	10538 SE 233RD PL			KENT	WA	98031-3349	US		Happy Birthday!!!  Celebrating having you in our lives! Love, Jim and Jan From Jan J Eastman	false		
111-6940497-8203422	54236496050050	2020-08-11T12:13:57+00:00	2020-08-11T05:13:57-07:00	2020-08-11T12:44:35+00:00	2020-08-14T06:59:59+00:00	-3	y6s5w7r4txf1hz8@marketplace.amazon.com	nick duren	+1 929-436-4790 ext. 15301	ABR0022	Purchase Now for Delivery by Thursday | Arabella Farm Direct Bouquet of 12 Fresh Cut Pink Roses with a Free Glass Vase	1	0	1	Expedited	Hannah kangas	5450 VAL VIEW DR SE			TURNER	OR	97392-9568	US			false		
113-5453307-5550646	65339155957474	2020-08-11T12:17:16+00:00	2020-08-11T05:17:16-07:00	2020-08-11T12:44:43+00:00	2020-08-12T06:59:59+00:00	-1	09zj17xtx1v24qn@marketplace.amazon.com	Tori babb	+1 929-436-4790 ext. 88731	ABM002	Arabella Bouquets Fresh Cut White Calla Lilies in a Free Designer Glass Vase |	1	0	1	SecondDay	Salena Babb	104 WESTWOOD CIR			STATE COLLEGE	PA	16803-3314	US		We are so proud of you!  Love you so much, Mom and Dad Babb From Mom and Dad	false		
111-0385343-1468225	68674161762282	2020-08-11T12:21:09+00:00	2020-08-11T05:21:09-07:00	2020-08-11T12:49:34+00:00	2020-08-12T06:59:59+00:00	-1	b0r9fcg7mlhvmj1@marketplace.amazon.com	scott reincke	+1 929-436-4790 ext. 05453	ABR0022	Purchase Now for Delivery by Thursday | Arabella Farm Direct Bouquet of 12 Fresh Cut Pink Roses with a Free Glass Vase	1	0	1	SecondDay	Becky Reincke	313 CHARROUX DR			PALM BEACH GARDENS	FL	33410-1615	US		Happy birthday Momma!! Hope your day is great!! From Scott, brandy, Madi, harbor	false		
112-3263534-4765023	31375860483122	2020-08-11T12:49:14+00:00	2020-08-11T05:49:14-07:00	2020-08-11T13:13:23+00:00	2020-08-14T06:59:59+00:00	-3	yzg7q5fwln35z5z@marketplace.amazon.com	lloyd bonner	+1 929-436-4790 ext. 87523	ABR0022	Purchase Now for Delivery by Thursday | Arabella Farm Direct Bouquet of 12 Fresh Cut Pink Roses with a Free Glass Vase	1	0	1	Expedited	sara bonner	1803 BILTMORE ST NW APT 509			WASHINGTON	DC	20009-1931	US		we are sending love and wishes for a certain quick recovery to our perfect niece....Uncle Lloyd and Aunt Lyd From lloyd bonner & Lyd Bonner	false		
114-3655999-1549031	35722073768466	2020-08-11T12:59:52+00:00	2020-08-11T05:59:52-07:00	2020-08-11T13:29:09+00:00	2020-08-12T06:59:59+00:00	-1	kdvf5tn9pqy7ctf@marketplace.amazon.com	Lisa Trail	+1 929-436-4790 ext. 82308	ABR0022	Purchase Now for Delivery by Thursday | Arabella Farm Direct Bouquet of 12 Fresh Cut Pink Roses with a Free Glass Vase	1	0	1	SecondDay	Jo Ann Trail	1375 N MOUNTAIN VIEW RD			MOSCOW	ID	83843-8136	US		Jo Ann, Thanks for 61 years!  Happy Anniversary! From Love Tom	false		
112-9321132-6847436	49293597629362	2020-08-11T13:05:43+00:00	2020-08-11T06:05:43-07:00	2020-08-11T13:34:39+00:00	2020-08-12T06:59:59+00:00	-1	hkxd0x4v0rylq3z@marketplace.amazon.com	Lois Barrett	+1 929-436-4790 ext. 68856	ABR0022	Purchase Now for Delivery by Thursday | Arabella Farm Direct Bouquet of 12 Fresh Cut Pink Roses with a Free Glass Vase	1	0	1	SecondDay	Eileen Bell	4 WILLOW ST			BELLA VISTA	AR	72714-5731	US		Happy Birthday Eileen, I hope your Birthday was a wonderful Day, you deserve the best in life.  Love LOIS From Lois Barrett	false		
113-0638151-8917060	39792568657538	2020-08-11T13:16:12+00:00	2020-08-11T06:16:12-07:00	2020-08-11T13:40:31+00:00	2020-08-12T06:59:59+00:00	-1	x8w9skmjnrp9j1d@marketplace.amazon.com	Daniel D. Cozart	+1 929-436-4790 ext. 64056	ABR0022	Purchase Now for Delivery by Thursday | Arabella Farm Direct Bouquet of 12 Fresh Cut Pink Roses with a Free Glass Vase	1	0	1	SecondDay	Mia Cozart	5100 7TH RD S APT B2			ARLINGTON	VA	22204-2516	US		Happy Birthday Mia!! Wish we could be there the celebrate it with you. We love & miss you tons! God bless your special day! Love, Mama, Pops, Maddie and Arabella From Daniel D. Cozart	false		
114-5808108-0385012	11051058024314	2020-08-11T13:35:14+00:00	2020-08-11T06:35:14-07:00	2020-08-11T14:03:59+00:00	2020-08-12T06:59:59+00:00	-1	pxkmgznxf1sgm6j@marketplace.amazon.com	Joanne Cunaccia	+1 929-436-4790 ext. 48440	ABM024	The Beauty of Color Bouquet by Arabella Bouquets	1	0	1	SecondDay	Marie  Korec	161 DEACON RIDGE ST			WAKE FOREST	NC	27587-2873	US			false		
113-9520642-5057817	62522331928322	2020-08-11T13:43:50+00:00	2020-08-11T06:43:50-07:00	2020-08-11T14:13:16+00:00	2020-08-12T06:59:59+00:00	-1	l4f69jwljfhdvzc@marketplace.amazon.com	Jacque trefry	+1 929-436-4790 ext. 49820	ABR001	Purchase Now for Delivery by Thursday | Arabella Bouquets 12 Stems of Fresh Cut Red Roses in a Free Designer Glass Vase	1	0	1	SecondDay	Jacque Trefry	12624 WYCKLOW DR			CLIFTON	VA	20124-1616	US			false		
112-4706867-6506651	41500069045194	2020-08-11T13:59:11+00:00	2020-08-11T06:59:11-07:00	2020-08-11T14:13:46+00:00	2020-08-12T06:59:59+00:00	-1	tkp55dlwdx983yf@marketplace.amazon.com	Sara	+1 929-436-4790 ext. 48682	ABR0022	Purchase Now for Delivery by Thursday | Arabella Farm Direct Bouquet of 12 Fresh Cut Pink Roses with a Free Glass Vase	1	0	1	SecondDay	Isabelle Daviau	c/o Michael Gelman	983 Head of Pond Road		Watermill	New York	11976	US		Happy Birthday Isabelle Love Ken and Sara From Sara	false		
111-5358735-4285819	48712547002682	2020-08-11T13:47:02+00:00	2020-08-11T06:47:02-07:00	2020-08-11T14:14:24+00:00	2020-08-12T06:59:59+00:00	-1	z6f8lct4cfypbl4@marketplace.amazon.com	Vidhya Shailesh	+1 929-436-4790 ext. 83305	ABR0022	Purchase Now for Delivery by Thursday | Arabella Farm Direct Bouquet of 12 Fresh Cut Pink Roses with a Free Glass Vase	1	0	1	SecondDay	Anuradha Somani	8 ROCKY HILL RD			PRINCETON	NJ	08540-9465	US		Happy Birthday Beautiful! Have a great day and an awesome year ahead! From Vidhya, Shailesh, Sasha & Gautam	false		
113-3692945-9397046	02400896275370	2020-08-11T14:05:05+00:00	2020-08-11T07:05:05-07:00	2020-08-11T14:19:43+00:00	2020-08-12T06:59:59+00:00	-1	0z76n5h9wcxw5tq@marketplace.amazon.com	Edward	+1 929-436-4790 ext. 15674	ABR0055	Arabella Farm Direct Bouquet of 12 Stems of Fresh Cut Hot Pink Roses in a Free Designer Glass Vase	1	0	1	SecondDay	Lauren	3401 SALTEE CIR			ORMOND BEACH	FL	32174-3084	US			false		
113-1883675-1962641	28431152820642	2020-08-11T14:05:08+00:00	2020-08-11T07:05:08-07:00	2020-08-11T14:23:27+00:00	2020-08-14T06:59:59+00:00	-3	v6g5cm1cd6021lm@marketplace.amazon.com	Dolores Miller	+1 929-436-4790 ext. 05935	ABR0022	Purchase Now for Delivery by Thursday | Arabella Farm Direct Bouquet of 12 Fresh Cut Pink Roses with a Free Glass Vase	1	0	1	Expedited	Lou and Jen Capparelli	6064 CHERRY HILL DR			COLUMBUS	OH	43213-3392	US		Happy Anniversary. May all your years together be as happy as the First. All my Love, Mom From Dolores Miller	false		
111-4626800-6556207	21823323894666	2020-08-11T13:58:18+00:00	2020-08-11T06:58:18-07:00	2020-08-11T14:27:36+00:00	2020-08-12T06:59:59+00:00	-1	ybhbb8qf3f1607z@marketplace.amazon.com	Tracy Shapoff	+1 929-436-4790 ext. 66433	ABR0055	Arabella Farm Direct Bouquet of 12 Stems of Fresh Cut Hot Pink Roses in a Free Designer Glass Vase	1	0	1	SecondDay	Christan Brown	636 HEIGHTS RD			RIDGEWOOD	NJ	07450-1334	US		Christan, Thinking of you xoxo. From Nicole	false		
114-8244620-1793021	26674769601266	2020-08-11T14:15:24+00:00	2020-08-11T07:15:24-07:00	2020-08-11T14:36:59+00:00	2020-08-12T06:59:59+00:00	-1	p8df28hl8v99nrd@marketplace.amazon.com	walt cichy	+1 929-436-4790 ext. 66878	ABM017	Arabella Bouquets | Prosperous Day a Farm Direct Bouquet in a Free Designer Glass Vase	1	0	1	SecondDay	Gina Duran	923 GREEN GROVE RD			TINTON FALLS	NJ	07712-2525	US		We love you  !    Take care , kisses to Emilio, Jr and Daddy Emilio .🙏💕 From Aunt Jeannie and Uncle Walter	false		
113-5798144-5206623	23048943585482	2020-08-11T14:19:10+00:00	2020-08-11T07:19:10-07:00	2020-08-11T14:49:13+00:00	2020-08-12T06:59:59+00:00	-1	fnfn52r5jprccz3@marketplace.amazon.com	Kimberly Knight	+1 929-436-4790 ext. 16911	ABM017	Arabella Bouquets | Prosperous Day a Farm Direct Bouquet in a Free Designer Glass Vase	1	0	1	SecondDay	kim	1808A BRANCH ST			NASHVILLE	TN	37216-3909	US			false		
112-1442235-8997844	60010899418522	2020-08-11T14:44:31+00:00	2020-08-11T07:44:31-07:00	2020-08-11T14:49:44+00:00	2020-08-14T06:59:59+00:00	-3	zknpq316pgg41kp@marketplace.amazon.com	jaime s marquez	+1 929-436-4790 ext. 95537	ABR0022	Purchase Now for Delivery by Thursday | Arabella Farm Direct Bouquet of 12 Fresh Cut Pink Roses with a Free Glass Vase	1	0	1	Standard	Mackie M.Pietila	8294 WILD TIMBER DR			FRANKTOWN	CO	80116-8101	US		Dear Mackie Happy birthday.  May all your hopes come true.Take care From jaime s marquez	false		
113-2826854-6878664	34109841794642	2020-08-11T14:35:50+00:00	2020-08-11T07:35:50-07:00	2020-08-11T14:58:29+00:00	2020-08-14T06:59:59+00:00	-3	vgzhx40hmlkdn05@marketplace.amazon.com	BOQUESTAL BARRAJA Erika	+1 929-436-4790 ext. 25480	ABR0022	Purchase Now for Delivery by Thursday | Arabella Farm Direct Bouquet of 12 Fresh Cut Pink Roses with a Free Glass Vase	1	0	1	Expedited	BARRAJA Isabelle	6443 ENGLISH IVY CT			SPRINGFIELD	VA	22152-2834	US		Très bon anniversaire grande soeur 🥰 From BOQUESTAL BARRAJA Erika	false		
112-8031851-1511406	01571667207530	2020-08-11T14:47:31+00:00	2020-08-11T07:47:31-07:00	2020-08-11T15:14:43+00:00	2020-08-12T06:59:59+00:00	-1	xfknbh4hhpzwzzy@marketplace.amazon.com	Janet Spreier Fisher	+1 929-436-4790 ext. 00907	ABM010	Purchase Now for Delivery by Thursday | The Spring Fling Bouquet by Arabella Bouquets with a Free Designer Glass Vase	1	0	1	SecondDay	LONI AKERS	4212 DANUBE CT			BAKERSFIELD	CA	93308-6659	US		Happy Birthday, Loni. We love you! Dad, Mom, and Grandma From Janet Spreier Fisher	false		
114-1961222-2626658	31655049423962	2020-08-11T15:11:05+00:00	2020-08-11T08:11:05-07:00	2020-08-11T15:40:52+00:00	2020-08-12T06:59:59+00:00	-1	7lr98t4q721h5m7@marketplace.amazon.com	Brian Weiner	+1 929-436-4790 ext. 03509	ABR0022	Purchase Now for Delivery by Thursday | Arabella Farm Direct Bouquet of 12 Fresh Cut Pink Roses with a Free Glass Vase	1	0	1	SecondDay	Tammy Curatilo	15 ROCK RIDGE CT			NEW FAIRFIELD	CT	06812-3313	US		Wishing you the best on your birthday! Love, Brian From Brian Weiner	false		
112-7850076-3436236	69541067000026	2020-08-11T15:16:53+00:00	2020-08-11T08:16:53-07:00	2020-08-11T15:44:38+00:00	2020-08-12T06:59:59+00:00	-1	25b810qds6v7qm8@marketplace.amazon.com	Connie Pennington	+1 929-436-4790 ext. 72303	ABR0055	Arabella Farm Direct Bouquet of 12 Stems of Fresh Cut Hot Pink Roses in a Free Designer Glass Vase	1	0	1	SecondDay	Nina Pennington	2505 BENDER RD LOT 2			TEXARKANA	TX	75501-8222	US		Happy birthday Mom! We love you so much ❤️ Your the best mom I could have ever wished for . May you have a special day . Love, Jan and Connie From Connie Pennington	false		
114-5484138-9066619	22967491311002	2020-08-11T15:23:25+00:00	2020-08-11T08:23:25-07:00	2020-08-11T15:52:58+00:00	2020-08-12T06:59:59+00:00	-1	r1zrr5kk8d6qdf4@marketplace.amazon.com	Ted Stank	+1 929-436-4790 ext. 52272	ABR0055	Arabella Farm Direct Bouquet of 12 Stems of Fresh Cut Hot Pink Roses in a Free Designer Glass Vase	1	0	1	SecondDay	Theodore Stank	1616 ANN ST			BEAUFORT	NC	28516-2304	US		Happy Birthday! From Ted Stank	false		
114-5646328-2366632	45046163000338	2020-08-11T15:24:27+00:00	2020-08-11T08:24:27-07:00	2020-08-11T15:53:15+00:00	2020-08-12T06:59:59+00:00	-1	96j93c78vfs5ph2@marketplace.amazon.com	Jeanette Palmer	+1 929-436-4790 ext. 30441	ABR0055	Arabella Farm Direct Bouquet of 12 Stems of Fresh Cut Hot Pink Roses in a Free Designer Glass Vase	1	0	1	SecondDay	Alex Riehl	17012 WRIGLEY CIR			FORT MYERS	FL	33908-3802	US			false		
111-3584214-0322656	33309237972906	2020-08-11T15:33:32+00:00	2020-08-11T08:33:32-07:00	2020-08-11T16:03:56+00:00	2020-08-14T06:59:59+00:00	-3	mn0b1lq17hh5d91@marketplace.amazon.com	Ernesto Rey	+1 929-436-4790 ext. 16172	ABR0066	Purchase Now for Delivery by Thursday | Arabella Bouquets 12 Stems of Fresh Cut White Roses in a Free Designer Glass Vase	1	0	1	Expedited	Ernesto Paz Rey	9162 Maercedes Avenue			Arleta	CA	91331	US			false		
114-5441379-6351432	04890381861026	2020-08-11T15:41:19+00:00	2020-08-11T08:41:19-07:00	2020-08-11T16:07:58+00:00	2020-08-12T06:59:59+00:00	-1	7qdbg4hp3nx1h97@marketplace.amazon.com	William	+1 929-436-4790 ext. 29365	ABR0022	Purchase Now for Delivery by Thursday | Arabella Farm Direct Bouquet of 12 Fresh Cut Pink Roses with a Free Glass Vase	1	0	1	SecondDay	Marguerite Dwyer	828 SOCIETY HILL BLVD			CHERRY HILL	NJ	08003-2429	US		Happy Birthday!  Love,   Bill & Sarah From William	false		
112-3897392-3674657	21040289659218	2020-08-11T16:08:17+00:00	2020-08-11T09:08:17-07:00	2020-08-11T16:38:56+00:00	2020-08-14T06:59:59+00:00	-3	j883j4lvhsvvn09@marketplace.amazon.com	Jason Rehfeld	+1 929-436-4790 ext. 89914	ABR0055	Arabella Farm Direct Bouquet of 12 Stems of Fresh Cut Hot Pink Roses in a Free Designer Glass Vase	1	0	1	Expedited	Jason Rehfeld	1255 N CHEROKEE AVE			LOS ANGELES	CA	90038-1301	US			false		
111-8465037-9959425	43767201365250	2020-08-11T16:30:06+00:00	2020-08-11T09:30:06-07:00	2020-08-11T16:58:35+00:00	2020-08-14T06:59:59+00:00	-3	jplt4chyg8g40xz@marketplace.amazon.com	Barbara Bowman	+1 929-436-4790 ext. 73973	ABR0022	Purchase Now for Delivery by Thursday | Arabella Farm Direct Bouquet of 12 Fresh Cut Pink Roses with a Free Glass Vase	1	0	1	Expedited	Cherie sherrier	13708 SOUTHERNWOOD CT			CHANTILLY	VA	20151-3344	US		Happy Birthday Cherie.    May this next year bring you good health, peace and and many weekly steps!  Love you. From BB	false		
113-1626212-2519440	34334677572922	2020-08-11T16:47:12+00:00	2020-08-11T09:47:12-07:00	2020-08-11T17:00:55+00:00	2020-08-12T06:59:59+00:00	-1	pzvggynl62l7tzd@marketplace.amazon.com	darlene rosario	+1 929-436-4790 ext. 70159	ABR0033	Purchase Now for Delivery by Thursday | Arabella Farm Direct Bouquet of 12 Fresh Cut Orange Roses with a Free Glass Vase	1	0	1	SecondDay	Carmen Rivera	8624 RIDGE BLVD APT 1L			BROOKLYN	NY	11209-4932	US		Mari, I'm praying for you to feel at peace and to know how much you're loved. From darlene rosario	false		
111-5393961-5656236	06221075374218	2020-08-11T16:41:27+00:00	2020-08-11T09:41:27-07:00	2020-08-11T17:04:09+00:00	2020-08-12T06:59:59+00:00	-1	2pz5xw13q5tgxrr@marketplace.amazon.com	Joseph Kish	+1 929-436-4790 ext. 67522	ABR0022	Purchase Now for Delivery by Thursday | Arabella Farm Direct Bouquet of 12 Fresh Cut Pink Roses with a Free Glass Vase	1	0	1	SecondDay	Miss Gigi Serrano	3821 AGUALINDA BLVD			CAPE CORAL	FL	33914-3622	US		Happy "Sweetheart Birthday" and Love from your own Grandmama From Grandmama	false		
113-7817909-8317002	43647987509042	2020-08-11T16:46:01+00:00	2020-08-11T09:46:01-07:00	2020-08-11T17:14:10+00:00	2020-08-12T06:59:59+00:00	-1	42xyphkrhyhby07@marketplace.amazon.com	Avital Glass	+1 929-436-4790 ext. 11843	ABR0022	Purchase Now for Delivery by Thursday | Arabella Farm Direct Bouquet of 12 Fresh Cut Pink Roses with a Free Glass Vase	1	0	1	SecondDay	Bobbie Lea Gould	1 FOREST GLEN CT			SUFFERN	NY	10901-2101	US		Happiest of birthday wishes to the best Bobbie kids could ask for. Love you to the moon and back. From The awesome  Glass Kids	false		
111-0324849-3122670	32002069172138	2020-08-11T16:55:52+00:00	2020-08-11T09:55:52-07:00	2020-08-11T17:24:24+00:00	2020-08-12T06:59:59+00:00	-1	wxj8w69sx6329yv@marketplace.amazon.com	Judith S Allen	+1 929-436-4790 ext. 95958	ABR0022	Purchase Now for Delivery by Thursday | Arabella Farm Direct Bouquet of 12 Fresh Cut Pink Roses with a Free Glass Vase	1	0	1	SecondDay	Mrs. Gertrude Edman	201 FLAGSTONE TRL			HAMILTON	AL	35570-4070	US		Happy 102nd Birthday to Aunt Gert.   I hope these flowers will brighten your day!! From Judith S Allen	false		
114-1648223-2347407	19047665871218	2020-08-11T17:02:12+00:00	2020-08-11T10:02:12-07:00	2020-08-11T17:27:06+00:00	2020-08-12T06:59:59+00:00	-1	1znpx3gf7mf6p1p@marketplace.amazon.com	Martin Dargan	+1 929-436-4790 ext. 04806	ABR0022	Purchase Now for Delivery by Thursday | Arabella Farm Direct Bouquet of 12 Fresh Cut Pink Roses with a Free Glass Vase	1	0	1	SecondDay	Marion Dargan	45 WASHINGTON ST UNIT 201			PLAINVILLE	MA	02762-2647	US		For you Hopefully it will brighten your day. From Martin Dargan	false		
113-7917333-7277806	45654403285178	2020-08-11T17:17:12+00:00	2020-08-11T10:17:12-07:00	2020-08-11T17:44:30+00:00	2020-08-14T06:59:59+00:00	-3	4z0w58xjmbrylq5@marketplace.amazon.com	Renee Milch	+1 929-436-4790 ext. 10618	ABR0022	Purchase Now for Delivery by Thursday | Arabella Farm Direct Bouquet of 12 Fresh Cut Pink Roses with a Free Glass Vase	1	0	1	Expedited	Kaila Gottlieb	25 CANYONWOOD			IRVINE	CA	92620-1222	US		Dear Kaila,  All of us wish you a wonderful, fantastic, very special birthday! You are just the best! Happy Birthday! From Love, Team Brower	false		
113-8694430-4538622	40072941024458	2020-08-11T17:23:16+00:00	2020-08-11T10:23:16-07:00	2020-08-11T17:53:05+00:00	2020-08-14T06:59:59+00:00	-3	rypv9dh7wf6z8w8@marketplace.amazon.com	John M Butler	+1 929-436-4790 ext. 49846	ABR0022	Purchase Now for Delivery by Thursday | Arabella Farm Direct Bouquet of 12 Fresh Cut Pink Roses with a Free Glass Vase	1	0	1	Expedited	John Butler	120 ALDRICH ST APT 6G			BRONX	NY	10475-4527	US			false		
