order-id	order-item-id	purchase-date	payments-date	reporting-date	promise-date	days-past-promise	buyer-email	buyer-name	buyer-phone-number	sku	product-name	quantity-purchased	quantity-shipped	quantity-to-ship	ship-service-level	recipient-name	ship-address-1	ship-address-2	ship-address-3	ship-city	ship-state	ship-postal-code	ship-country	gift-wrap-type	gift-message-text	is-business-order	purchase-order-number	price-designation
113-8694430-4538622	40072941024458	2020-08-11T17:23:16+00:00	2020-08-11T10:23:16-07:00	2020-08-11T17:53:05+00:00	2020-08-14T06:59:59+00:00	-3	rypv9dh7wf6z8w8@marketplace.amazon.com	John M Butler	+1 929-436-4790 ext. 49846	ABR0022	Purchase Now for Delivery by Thursday | Arabella Farm Direct Bouquet of 12 Fresh Cut Pink Roses with a Free Glass Vase	1	0	1	Expedited	John Butler	120 ALDRICH ST APT 6G			BRONX	NY	10475-4527	US			false		
114-4631473-2568242	22260897195610	2020-08-11T17:54:08+00:00	2020-08-11T10:54:08-07:00	2020-08-11T18:18:11+00:00	2020-08-14T06:59:59+00:00	-3	s6k4m3dq26kzhwr@marketplace.amazon.com	Dorothy Onufer	+1 929-436-4790 ext. 70955	ABR0022	Purchase Now for Delivery by Friday | Arabella Farm Direct Bouquet of 12 Fresh Cut Pink Roses with a Free Glass Vase	1	0	1	Expedited	Katherine Onufer	1 MCDONALD RD			ALBANY	NY	12209-1401	US		Sending lots of love your way!  Aunt Dot, Luci and Jake From Dorothy Onufer	false		
114-0353909-8325019	36710960085330	2020-08-11T19:21:00+00:00	2020-08-11T12:21:00-07:00	2020-08-11T19:48:57+00:00	2020-08-13T06:59:59+00:00	-2	y39nllxkd429m5v@marketplace.amazon.com	Alisha	+1 929-436-4790 ext. 32127	ABM010	Purchase Now for Delivery by Friday | The Spring Fling Bouquet by Arabella Bouquets with a Free Designer Glass Vase	1	0	1	SecondDay	Carolyn gay Brant	407 west sliver			Reading	Mi	49274	US			false		
114-8379605-1079415	70175958603938	2020-08-11T19:29:31+00:00	2020-08-11T12:29:31-07:00	2020-08-11T19:55:00+00:00	2020-08-14T06:59:59+00:00	-3	vk898s9b8jy58rs@marketplace.amazon.com	Ramakrishna Pappu	+1 929-436-4790 ext. 26651	ABR0066	Purchase Now for Delivery by Friday | Arabella Bouquets 12 Stems of Fresh Cut White Roses in a Free Designer Glass Vase	1	0	1	Standard	Rama Krishna Pappu	210 N WELLS ST APT 2607			CHICAGO	IL	60606-1346	US			false		
114-9017618-3665857	20625853911346	2020-08-11T19:38:53+00:00	2020-08-11T12:38:53-07:00	2020-08-11T20:04:03+00:00	2020-08-14T06:59:59+00:00	-3	njpsq2wzb64cgsv@marketplace.amazon.com	woodrow Jones	+1 929-436-4790 ext. 60468	ABR0055	Purchase Now for Delivery by Friday | Arabella Farm Direct Bouquet of 12 Stems of Fresh Cut Hot Pink Roses in a Free Designer Glass Vase	1	0	1	Expedited	Suzi Myers	106 NE 27TH ST			OAK ISLAND	NC	28465-5901	US			false		
113-9946690-2818650	38048567981986	2020-08-11T20:02:31+00:00	2020-08-11T13:02:31-07:00	2020-08-11T20:30:15+00:00	2020-08-13T06:59:59+00:00	-2	k695npxnj4y839d@marketplace.amazon.com	Jay Persaud	+1 929-436-4790 ext. 03922	ABR0022	Purchase Now for Delivery by Friday | Arabella Farm Direct Bouquet of 12 Fresh Cut Pink Roses with a Free Glass Vase	1	0	1	SecondDay	Kowsillia Persaud	10350 MAJESTIC CT			PARKLAND	FL	33076-4804	US		Enjoy your gift! From Jay Persaud	false		
112-9868341-7705034	67536785785330	2020-08-11T20:30:26+00:00	2020-08-11T13:30:26-07:00	2020-08-11T20:34:19+00:00	2020-08-14T06:59:59+00:00	-3	p9vmg5b18wwrmsy@marketplace.amazon.com	virginia karl	+1 929-436-4790 ext. 10782	ABR0055	Purchase Now for Delivery by Friday | Arabella Farm Direct Bouquet of 12 Stems of Fresh Cut Hot Pink Roses in a Free Designer Glass Vase	1	0	1	Expedited	Irene McFall	142 W END AVE APT 16T			NEW YORK	NY	10023-6119	US		Dear Irene....With special thoughts of you.                                 Love, Ginger From virginia karl	false		
113-5148523-2891402	02379311678722	2020-08-11T20:26:14+00:00	2020-08-11T13:26:14-07:00	2020-08-11T20:50:17+00:00	2020-08-14T06:59:59+00:00	-3	y21czy0v0b3dkbr@marketplace.amazon.com	candice g. winkler	+1 929-436-4790 ext. 07735	ABR0022	Purchase Now for Delivery by Friday | Arabella Farm Direct Bouquet of 12 Fresh Cut Pink Roses with a Free Glass Vase	1	0	1	Expedited	Alyssa jessmore	2614 HUNTINGTON CT			KISSIMMEE	FL	34743-5353	US		Happy birthday,  love,  Gramma Candi and aunt sue	false		
111-8598024-8875438	58523624432378	2020-08-11T20:26:03+00:00	2020-08-11T13:26:03-07:00	2020-08-11T20:53:30+00:00	2020-08-13T06:59:59+00:00	-2	8vz4m4m0krrpymj@marketplace.amazon.com	harold l. york	+1 929-436-4790 ext. 50862	ABR0022	Purchase Now for Delivery by Friday | Arabella Farm Direct Bouquet of 12 Fresh Cut Pink Roses with a Free Glass Vase	1	0	1	SecondDay	Elise York	519 SE 48TH AVE			PORTLAND	OREGON	97215-1718	US		Happy Birthday Elise! Love from  Grandpa and Grandma From harold l. york	false		
112-4737244-0113005	69875338588962	2020-08-11T20:36:14+00:00	2020-08-11T13:36:14-07:00	2020-08-11T21:04:05+00:00	2020-08-13T06:59:59+00:00	-2	5dm0frx8dhkn6h3@marketplace.amazon.com	Jessica Lashonda Scott	+1 929-436-4790 ext. 64235	ABR0022	Purchase Now for Delivery by Friday | Arabella Farm Direct Bouquet of 12 Fresh Cut Pink Roses with a Free Glass Vase	1	0	1	SecondDay	Reneè Turner	2802 SUNNYSIDE ST			JACKSONVILLE	FL	32254-4358	US		Happy Birthday Muffin!! Enjoy your day! Love ya!! From Michelle Dozier	false		
114-4441568-8401818	51759220377410	2020-08-11T21:45:09+00:00	2020-08-11T14:45:09-07:00	2020-08-11T21:58:47+00:00	2020-08-14T06:59:59+00:00	-3	d60htnx6wxskyft@marketplace.amazon.com	Donna Hambleton	+1 929-436-4790 ext. 96122	ABR0022	Purchase Now for Delivery by Friday | Arabella Farm Direct Bouquet of 12 Fresh Cut Pink Roses with a Free Glass Vase	1	0	1	Expedited	Alyson Clements	1437 SPRING RD NW APT 25			WASHINGTON	DC	20010-1278	US		Congratulations From Donna Hambleton and Mike	false		
112-4962607-2859440	27386513111546	2020-08-11T21:37:34+00:00	2020-08-11T14:37:34-07:00	2020-08-11T22:03:01+00:00	2020-08-13T06:59:59+00:00	-2	5yp1dlzv3ml0147@marketplace.amazon.com	Becky Machamer	+1 929-436-4790 ext. 36345	ABM010	Purchase Now for Delivery by Friday | The Spring Fling Bouquet by Arabella Bouquets with a Free Designer Glass Vase	1	0	1	SecondDay	Jenn Severson	1304 8TH AVE S			SOUTH ST PAUL	MN	55075-3314	US		Thanks for being an amazing teammate. We're going to miss working with you so much! Hope these bring you some beauty among the packing boxes! From Becky & Micaela	false		
113-5438273-6209822	06499759189338	2020-08-11T21:45:35+00:00	2020-08-11T14:45:35-07:00	2020-08-11T22:11:42+00:00	2020-08-14T06:59:59+00:00	-3	fm9xpx6bwy0jxk6@marketplace.amazon.com	John Warner	+1 929-436-4790 ext. 46227	ABR004	Purchase Now for Delivery by Friday | Arabella Farm Direct Bouquet of 12 Fresh Cut Yellow Roses with a Free Glass Vase	1	0	1	Expedited	Stephanie Quirk	23834 MIRABEL RD			MIDDLETOWN	CA	95461-9650	US		Something to make you smile during a week that I'm sure is tough.  Love to you, the family and lots of love and prayers to baby Bear. XOXOXO - Jax & Dani From Dani Warner	true		
112-0301127-1430668	41314521853562	2020-08-11T21:59:42+00:00	2020-08-11T14:59:42-07:00	2020-08-11T22:23:10+00:00	2020-08-13T06:59:59+00:00	-2	2l26lxkbq19cbpf@marketplace.amazon.com	Brendan J Kennedy	+1 929-436-4790 ext. 28696	ABM010	Purchase Now for Delivery by Friday | The Spring Fling Bouquet by Arabella Bouquets with a Free Designer Glass Vase	1	0	1	SecondDay	Brendan J Kennedy	139 HAZELMERE RD			NEW BRITAIN	CT	06053-2115	US			false		
114-7125207-4236201	28617898672666	2020-08-11T21:55:59+00:00	2020-08-11T14:55:59-07:00	2020-08-11T22:24:07+00:00	2020-08-13T06:59:59+00:00	-2	1ck0wcg49v2v3f2@marketplace.amazon.com	Jose	+1 929-436-4790 ext. 44232	ABR0022	Purchase Now for Delivery by Friday | Arabella Farm Direct Bouquet of 12 Fresh Cut Pink Roses with a Free Glass Vase	1	0	1	SecondDay	Veronica Molina	17365 WILLARD ST			NORTHRIDGE	CA	91325-4413	US			false		
112-6684295-9180208	47036724992682	2020-08-11T22:12:50+00:00	2020-08-11T15:12:50-07:00	2020-08-11T22:42:17+00:00	2020-08-13T06:59:59+00:00	-2	3bbf14rjtsrgj2z@marketplace.amazon.com	George Bates	+1 929-436-4790 ext. 41421	ABR0055	Purchase Now for Delivery by Friday | Arabella Farm Direct Bouquet of 12 Stems of Fresh Cut Hot Pink Roses in a Free Designer Glass Vase	1	0	1	SecondDay	marilyn nance paterson	18 Robindale Cr.			The Woodlands	TX	77384	US		Happy Birthday Mom! Love, Michelle George Keith & Georgia From Michelle Bates	false		
111-9255284-8230601	22028863675394	2020-08-11T22:27:34+00:00	2020-08-11T15:27:34-07:00	2020-08-11T22:52:56+00:00	2020-08-13T06:59:59+00:00	-2	ddbdn2h6txp9vvg@marketplace.amazon.com	Grant Ranselaar	+1 929-436-4790 ext. 89904	ABR012	Arabella Farm Direct Bouquet of 18 Fresh Cut Pink Roses with a Free Glass Vase	1	0	1	SecondDay	Carol Robension	18808 APHRODITE LN			SANTA CLARITA	CA	91351-3452	US		Hope you have a wonderfull Birthday!! From Love & miss you.   William Maya Grant & Luke	false		
112-9860362-3641062	56259397418106	2020-08-11T22:46:08+00:00	2020-08-11T15:46:08-07:00	2020-08-11T23:13:21+00:00	2020-08-14T06:59:59+00:00	-3	58ck0zhplnyh2rz@marketplace.amazon.com	louisa szasz	+1 929-436-4790 ext. 06950	ABR0022	Purchase Now for Delivery by Friday | Arabella Farm Direct Bouquet of 12 Fresh Cut Pink Roses with a Free Glass Vase	1	0	1	Expedited	Donna Messenger	6445 ITCHY ACRES RD			GRANITE BAY	CA	95746-8613	US			false		
113-7954779-9885069	19954982614370	2020-08-11T22:54:34+00:00	2020-08-11T15:54:34-07:00	2020-08-11T23:22:48+00:00	2020-08-13T06:59:59+00:00	-2	5hb0pyspn368q57@marketplace.amazon.com	Miguel Espinoza	+1 929-436-4790 ext. 24492	ABR0022	Purchase Now for Delivery by Friday | Arabella Farm Direct Bouquet of 12 Fresh Cut Pink Roses with a Free Glass Vase	1	0	1	SecondDay	Angelia Espinoza	634 N ELM ST			GREENSBORO	NC	27401-2020	US		Dear Angel,  I'm thinking about you and wish you a speedy recovery!  Hugs, love and kisses. From Miguel Espinoza	false		
114-6189859-8170639	59861527980354	2020-08-11T22:54:05+00:00	2020-08-11T15:54:05-07:00	2020-08-11T23:24:30+00:00	2020-08-13T06:59:59+00:00	-2	zmtlr9d50zv3n13@marketplace.amazon.com	Tina Smith	+1 929-436-4790 ext. 18966	ABR0055	Purchase Now for Delivery by Friday | Arabella Farm Direct Bouquet of 12 Stems of Fresh Cut Hot Pink Roses in a Free Designer Glass Vase	1	0	1	SecondDay	tina smith	124 HOUSTON DR			WESTLAKE	LA	70669-6810	US			false		
111-6097198-6252240	33123639259202	2020-08-11T23:07:12+00:00	2020-08-11T16:07:12-07:00	2020-08-11T23:34:38+00:00	2020-08-13T06:59:59+00:00	-2	yf3ybm1vj4jrwx9@marketplace.amazon.com	Louise Carroll	+1 929-436-4790 ext. 27950	ABB015	Arabella Farm Direct Bouquet of 24 Fresh Cut Orange Roses with a Free Glass Vase	1	0	1	SecondDay	Tina Hoffman	THIS IS A RESIDENCE610 BALDOVINO SKYWAY RESIDENCE	610 BALDOVINO SKWY		AUSTIN	TX	78738-6091	US		Enjoy your gift! Dear Tina, I hope you enjoy these beautiful flowers.  Have a Happy Birthday. Miss you & Love You, Mom From Louise Carroll	false		
111-1451053-0011428	62610429703994	2020-08-11T23:40:20+00:00	2020-08-11T16:40:20-07:00	2020-08-12T00:04:53+00:00	2020-08-13T06:59:59+00:00	-2	g9g3l27p2t5wlbc@marketplace.amazon.com	kemper chad	+1 929-436-4790 ext. 97844	ABR001	Purchase Now for Delivery by Friday | Arabella Bouquets 12 Stems of Fresh Cut Red Roses in a Free Designer Glass Vase	1	0	1	SecondDay	samuel karen	1 SYLVAN PARK RD			LINCOLN PARK	NJ	07035-2111	US		i wish you success in ur court case and i want you to know that i will always be there to lean on and support u emotonally,mentally cause u light up my world and so special to me wifey From neville enrique miller	false		
112-9955956-9669834	25340441672186	2020-08-12T00:37:11+00:00	2020-08-11T17:37:11-07:00	2020-08-12T01:07:39+00:00	2020-08-14T06:59:59+00:00	-3	ys713qy5nqqfnzd@marketplace.amazon.com	Daun Bhasavanich	+1 929-436-4790 ext. 63407	ABM0033	Purchase Now for Delivery by Friday | Arabella Farm Direct Bouquet of Fresh Cut White Hydrangea with a Free Glass Vase	1	0	1	Expedited	DAUN BHASAVANICH	458 COLON AVE			SAN FRANCISCO	CA	94127-2108	US			false		
111-3482151-4400247	49974504428698	2020-08-12T00:46:43+00:00	2020-08-11T17:46:43-07:00	2020-08-12T01:14:35+00:00	2020-08-14T06:59:59+00:00	-3	19mbpycvnpkypkz@marketplace.amazon.com	Makarand Gawade	+1 929-436-4790 ext. 23351	ABR0022	Purchase Now for Delivery by Friday | Arabella Farm Direct Bouquet of 12 Fresh Cut Pink Roses with a Free Glass Vase	1	0	1	Standard	Makarand Gawade	TALLAHASSEE 900 RIGGINS RD	APT 222		TALLAHASSEE	FL	32308-2213	US		Happy birth month Babu :) From Makarand Gawade	false		
112-8439042-3053021	04338891179338	2020-08-12T00:59:40+00:00	2020-08-11T17:59:40-07:00	2020-08-12T01:22:52+00:00	2020-08-14T06:59:59+00:00	-3	897r6ry7mx9c14k@marketplace.amazon.com	melissa cook	+1 929-436-4790 ext. 91063	ABR0055	Purchase Now for Delivery by Friday | Arabella Farm Direct Bouquet of 12 Stems of Fresh Cut Hot Pink Roses in a Free Designer Glass Vase	1	0	1	Expedited	Shirley Lacey	108 TRAILS WEST DR LOT 15			NEW FRANKLIN	MO	65274-9454	US		Happy Birthday Mom! Hope these brightens your day.  We love you Paul, Melissa, Eric & Jason!  Have a wonderful day.  Happy Birthday From Love you the cook family	false		
111-2079079-7829820	00390408079370	2020-08-12T01:04:09+00:00	2020-08-11T18:04:09-07:00	2020-08-12T01:32:26+00:00	2020-08-13T06:59:59+00:00	-2	wvb4cl2rb7s61r9@marketplace.amazon.com	Rick	+1 929-436-4790 ext. 37544	ABR0055	Purchase Now for Delivery by Friday | Arabella Farm Direct Bouquet of 12 Stems of Fresh Cut Hot Pink Roses in a Free Designer Glass Vase	1	0	1	SecondDay	Andrea Guraieb	7943 SW 167TH ST			PALMETTO BAY	FL	33157-3768	US		Happy Happy 21st Anniversary Missy! i wish I could be there to celebrate with you but hope you have a fantastic one!  Love you From Dad	false		
114-4363489-2898620	45066412610186	2020-08-12T01:28:51+00:00	2020-08-11T18:28:51-07:00	2020-08-12T01:52:58+00:00	2020-08-13T06:59:59+00:00	-2	3d5z32gxt00cmfl@marketplace.amazon.com	Erick	+1 929-436-4790 ext. 64804	ABR001	Purchase Now for Delivery by Friday | Arabella Bouquets 12 Stems of Fresh Cut Red Roses in a Free Designer Glass Vase	1	0	1	SecondDay	Denisse	116 BRIDGETTE BLVD			LAGRANGE	GA	30241-6652	US		¡Tkm! De Papá	false		
