order-id	order-item-id	purchase-date	payments-date	reporting-date	promise-date	days-past-promise	buyer-email	buyer-name	buyer-phone-number	sku	product-name	quantity-purchased	quantity-shipped	quantity-to-ship	ship-service-level	recipient-name	ship-address-1	ship-address-2	ship-address-3	ship-city	ship-state	ship-postal-code	ship-country	gift-wrap-type	gift-message-text	is-business-order	purchase-order-number	price-designation
114-5023327-1459413	18208320192450	2020-08-18T17:44:06+00:00	2020-08-18T10:44:06-07:00	2020-08-18T18:10:32+00:00	2020-08-21T06:59:59+00:00	-2	gjpnppxs8fkvhpr@marketplace.amazon.com	William Pietruszewicz	+1 929-436-4790 ext. 89746	ABR004	Purchase Now for Delivery by Friday | Arabella Farm Direct Bouquet of 12 Fresh Cut Yellow Roses with a Free Glass Vase	1	0	1	Expedited	Ann Malloy	8813 BRADFORD ST			DENTON	TX	76207-6726	US		Get well soon! Love Lisa & Bill From William Pietruszewicz	false		
114-6211589-5315455	44936689836706	2020-08-18T18:17:14+00:00	2020-08-18T11:17:14-07:00	2020-08-18T18:42:07+00:00	2020-08-21T06:59:59+00:00	-2	0wmb6dv2jnq8k36@marketplace.amazon.com	Kassandra Banuelos	+1 929-436-4790 ext. 13018	ABR0022	Purchase Now for Delivery by Friday | Arabella Farm Direct Bouquet of 12 Fresh Cut Pink Roses with a Free Glass Vase	1	0	1	Expedited	Mandee and family	9728 BROADWAY			LIVE OAK	CA	95953-2340	US		We are so sorry to hear of your loss. May you and your family be comforted by the outpouring of love surrounding you. From Kissandra and family	false		
113-2568701-6767421	36179672670186	2020-08-18T18:23:13+00:00	2020-08-18T11:23:13-07:00	2020-08-18T18:50:53+00:00	2020-08-21T06:59:59+00:00	-2	5qykv40x1mrbljx@marketplace.amazon.com	Jonathan R Fedorkowicz	+1 929-436-4790 ext. 96563	ABR0022	Purchase Now for Delivery by Friday | Arabella Farm Direct Bouquet of 12 Fresh Cut Pink Roses with a Free Glass Vase	1	0	1	Standard	Valencia Dylla c/o  Cheryl	794 WEAVER LN			LAYTON	UT	84041-3857	US		Happy Birthday Val. We hope you have a wonderful day.  Love and miss you. From Cheryl, Jon, Marcus, & Peyton	false		
113-0046216-7866607	42966005979554	2020-08-18T18:24:38+00:00	2020-08-18T11:24:38-07:00	2020-08-18T18:54:40+00:00	2020-08-21T06:59:59+00:00	-2	b3wk18p988tp485@marketplace.amazon.com	Daedra Marshall	+1 929-436-4790 ext. 73165	ABR0033	Purchase Now for Delivery by Friday | Arabella Farm Direct Bouquet of 12 Fresh Cut Orange Roses with a Free Glass Vase	1	0	1	Expedited	Janice Lancaster	91 MANER RD			ROCKMART	GA	30153-4842	US		Get well soon! From Daedra	false		
113-2918052-2330650	33988927880050	2020-08-18T18:25:54+00:00	2020-08-18T11:25:54-07:00	2020-08-18T18:56:17+00:00	2020-08-21T06:59:59+00:00	-2	dfwslzkngl6ys9c@marketplace.amazon.com	muadhul haq	+1 929-436-4790 ext. 47800	ABR001	Purchase Now for Delivery by Friday | Arabella Bouquets 12 Stems of Fresh Cut Red Roses in a Free Designer Glass Vase	1	0	1	Expedited	muadhul haq	4619 Amal Saleh Dr.			Irving	TX	75061	US			false		
111-6755015-4433845	08956469325794	2020-08-18T18:36:24+00:00	2020-08-18T11:36:24-07:00	2020-08-18T19:05:50+00:00	2020-08-21T06:59:59+00:00	-2	932hgjdf225x798@marketplace.amazon.com	Karen Bloecher	+1 929-436-4790 ext. 32372	ABM010	Purchase Now for Delivery by Friday | The Spring Fling Bouquet by Arabella Bouquets with a Free Designer Glass Vase	1	0	1	Expedited	Jean Light Willis	27 ALCIRA CT			ST AUGUSTINE	FL	32086-7620	US		Happy 90th Birthday Grandmommie! From Love Karen, Justin, Dillon & Sara	false		
111-4194024-7661800	40753208682258	2020-08-18T18:38:19+00:00	2020-08-18T11:38:19-07:00	2020-08-18T19:06:11+00:00	2020-08-21T06:59:59+00:00	-2	20ff79rj855hfyt@marketplace.amazon.com	Chad  Richardson	+1 929-436-4790 ext. 83433	ABR0022	Purchase Now for Delivery by Friday | Arabella Farm Direct Bouquet of 12 Fresh Cut Pink Roses with a Free Glass Vase	1	0	1	Expedited	Emily Shepherd	3524 N BRIARWOOD DR			TUCSON	AZ	85712-5454	US		Thinking of you and hoping you are feeling better! Love you! From Chad & Stephanie	false		
113-1550443-6646617	14869200834362	2020-08-18T18:41:12+00:00	2020-08-18T11:41:12-07:00	2020-08-18T19:08:26+00:00	2020-08-21T06:59:59+00:00	-2	sxpxh2d5s8yf5tp@marketplace.amazon.com	Emma Guerra	+1 929-436-4790 ext. 86776	ABR0022	Purchase Now for Delivery by Friday | Arabella Farm Direct Bouquet of 12 Fresh Cut Pink Roses with a Free Glass Vase	1	0	1	Expedited	Norma Hilton	712 Lundy Way			Pacifica	CA	94044	US		Have a wonderful birthday! Wish I was there. Love, Emma From Emma Guerra	false		
114-5015297-2017066	14332026359690	2020-08-18T18:47:05+00:00	2020-08-18T11:47:05-07:00	2020-08-18T19:16:15+00:00	2020-08-21T06:59:59+00:00	-2	zcn6kbzyv32dvk4@marketplace.amazon.com	Thomas Tripolt	+1 929-436-4790 ext. 88256	ABR0022	Purchase Now for Delivery by Friday | Arabella Farm Direct Bouquet of 12 Fresh Cut Pink Roses with a Free Glass Vase	1	0	1	Expedited	Claudia Weitkemper	1302 S 57TH ST			RICHMOND	CA	94804-4813	US			false		
111-4212364-7593865	32548704899426	2020-08-18T19:29:15+00:00	2020-08-18T12:29:15-07:00	2020-08-18T19:59:14+00:00	2020-08-20T06:59:59+00:00	-1	x1l6trsndf5wntm@marketplace.amazon.com	Kirsten Chapman	+1 929-436-4790 ext. 75450	ABR0022	Purchase Now for Delivery by Friday | Arabella Farm Direct Bouquet of 12 Fresh Cut Pink Roses with a Free Glass Vase	1	0	1	SecondDay	Kirsten Chapman	112 DUNHAM SPRINGS LN			NASHVILLE	TN	37205-2605	US			false		
112-6628198-5525868	22573031327226	2020-08-18T19:49:43+00:00	2020-08-18T12:49:43-07:00	2020-08-18T20:17:39+00:00	2020-08-20T06:59:59+00:00	-1	sr9nh2v7k0s805v@marketplace.amazon.com	Eileen Kontrovitz	+1 929-436-4790 ext. 00750	ABR0022	Purchase Now for Delivery by Friday | Arabella Farm Direct Bouquet of 12 Fresh Cut Pink Roses with a Free Glass Vase	1	0	1	SecondDay	Florence Romeo	12425 Dido Vista Ct			Ft. Worth	TX	76179	US		Hope you feel better soon. Love, Eileen From Eileen Kontrovitz	false		
111-6920907-2094607	21688605155018	2020-08-18T19:58:24+00:00	2020-08-18T12:58:24-07:00	2020-08-18T20:28:21+00:00	2020-08-20T06:59:59+00:00	-1	mlwnrwxp3749hkm@marketplace.amazon.com	Tracy J Carson	+1 929-436-4790 ext. 29714	ABM010	Purchase Now for Delivery by Friday | The Spring Fling Bouquet by Arabella Bouquets with a Free Designer Glass Vase	1	0	1	SecondDay	Nancy Monteleone	4730 12TH STREET CT E			BRADENTON	FL	34203-2641	US			false		
113-1707281-5085019	18384840697170	2020-08-18T20:25:46+00:00	2020-08-18T13:25:46-07:00	2020-08-18T20:48:16+00:00	2020-08-21T06:59:59+00:00	-2	26nd3xrfdpypc2q@marketplace.amazon.com	Itzel Barnes	+1 929-436-4790 ext. 19414	ABR0022	Purchase Now for Delivery by Friday | Arabella Farm Direct Bouquet of 12 Fresh Cut Pink Roses with a Free Glass Vase	1	0	1	Standard	Dianne Killpatrick	3180 KNOX MCRAE DR			TITUSVILLE	FL	32780-4551	US		Hi Dianne, Hoping you will get better soon! From :Lani, Leilani and Aunt Tita ( Ricky Barnes’ family in Panama) Love you!	false		
111-3488519-1651436	54004945036954	2020-08-18T20:24:21+00:00	2020-08-18T13:24:21-07:00	2020-08-18T20:53:24+00:00	2020-08-21T06:59:59+00:00	-2	tg3m17skpxf4zl5@marketplace.amazon.com	Donna Ebeling	+1 929-436-4790 ext. 36043	ABR0033	Purchase Now for Delivery by Friday | Arabella Farm Direct Bouquet of 12 Fresh Cut Orange Roses with a Free Glass Vase	1	0	1	Standard	Andy and Dawn Sahanas	1200 Hope Ranch Lane			Las Vegas	Nevada	89134	US		Dawn -hope your shoulder feels better.  Thinking of you Love, Donna and Chuckj From Donna Ebeling	false		
111-2141354-1501852	70248778617442	2020-08-18T20:40:55+00:00	2020-08-18T13:40:55-07:00	2020-08-18T21:11:07+00:00	2020-08-20T06:59:59+00:00	-1	ycbdyts3xv1bw9x@marketplace.amazon.com	Hector Perez	+1 929-436-4790 ext. 58075	ABB011	Arabella Bouquets 24 Stems of Fresh Cut Hot Pink Roses in a Free Designer Glass Vase	1	0	1	SecondDay	Sandra Nunez	14362 CLARKSON DR			ORLANDO	FL	32828-6467	US			false		
111-9872096-5739418	12599348405906	2020-08-18T20:53:31+00:00	2020-08-18T13:53:31-07:00	2020-08-18T21:18:38+00:00	2020-08-21T06:59:59+00:00	-2	rzhw92ylgh8nxpl@marketplace.amazon.com	janice hampton	+1 929-436-4790 ext. 59169	ABR0022	Purchase Now for Delivery by Friday | Arabella Farm Direct Bouquet of 12 Fresh Cut Pink Roses with a Free Glass Vase	1	0	1	Standard	Ava Lehman	500 CENTER ST  4			WINONA	MN	55987-3639	US		Miss you! Love you!❤️❤️ From Nolan	false		
114-1605986-1388215	11725041321498	2020-08-18T21:05:24+00:00	2020-08-18T14:05:24-07:00	2020-08-18T21:23:19+00:00	2020-08-21T06:59:59+00:00	-2	ns4f5k0vdmyfsmf@marketplace.amazon.com	Michele	+1 929-436-4790 ext. 27220	ABR0022	Purchase Now for Delivery by Friday | Arabella Farm Direct Bouquet of 12 Fresh Cut Pink Roses with a Free Glass Vase	1	0	1	Standard	Tony HadacPOTony and Jamie	6076 BIRCH RD			PRIOR LAKE	MN	55372-2651	US		Pink flowers for the new little one! Congratulations and what a blessing for you guys! Have a good time getting to know her! Welcome Emma Ruby! From Owens Companies, Inc. Crew!	true	Tony and Jamie	Business Price
112-2698901-4245058	02597997847730	2020-08-18T22:05:59+00:00	2020-08-18T15:05:59-07:00	2020-08-18T22:32:16+00:00	2020-08-21T06:59:59+00:00	-2	pgfflcjlmj84rfj@marketplace.amazon.com	Dana Szczepanski	+1 929-436-4790 ext. 03691	ABR0022	Purchase Now for Delivery by Friday | Arabella Farm Direct Bouquet of 12 Fresh Cut Pink Roses with a Free Glass Vase	1	0	1	Standard	Lilly McCrickard	24739 HEIRLOOM LN			KATY	TX	77493-3131	US		Lilly we miss your contagious enthusiasm and laughter. Your constantly in our thoughts. We hope these flowers brighten your day. From Dana, April & Tytus Szczepanski	false		
112-9242306-9655412	46237910044530	2020-08-18T22:21:53+00:00	2020-08-18T15:21:53-07:00	2020-08-18T22:51:52+00:00	2020-08-20T06:59:59+00:00	-1	ggrhky4hj8r8ttl@marketplace.amazon.com	Lovleen Sethi	+1 929-436-4790 ext. 19161	ABR0022	Purchase Now for Delivery by Friday | Arabella Farm Direct Bouquet of 12 Fresh Cut Pink Roses with a Free Glass Vase	1	0	1	SecondDay	Ellen Evans	115 FILLOW ST APT 48			NORWALK	CT	06850-2844	US		Enjoy your gift! From Lovleen Sethi	false		
114-3863323-7295439	45548533390266	2020-08-18T22:34:03+00:00	2020-08-18T15:34:03-07:00	2020-08-18T23:04:00+00:00	2020-08-21T06:59:59+00:00	-2	txr89jcmrr4n4j4@marketplace.amazon.com	mike penney	+1 929-436-4790 ext. 76351	ABR001	Purchase Now for Delivery by Friday | Arabella Bouquets 12 Stems of Fresh Cut Red Roses in a Free Designer Glass Vase	1	0	1	Standard	Danielle Rivers	457 W LOUCKS ST			SHERIDAN	WY	82801-4128	US			false		
112-4929614-0620232	53736383807362	2020-08-18T22:41:57+00:00	2020-08-18T15:41:57-07:00	2020-08-18T23:08:46+00:00	2020-08-21T06:59:59+00:00	-2	v2kqk43gv8db00s@marketplace.amazon.com	Ely D.	+1 929-436-4790 ext. 57010	ABM010	Purchase Now for Delivery by Friday | The Spring Fling Bouquet by Arabella Bouquets with a Free Designer Glass Vase	1	0	1	Standard	Alicia Diaz	1561 MINERAL LN			BENNETTSVILLE	SC	29512-7639	US		Mom, Wishing you the happiest of birthdays! Gracias for your sacrifices and continued loving ways. Hope to see you soon. God Bless You! From Love, Schendell y Ely D.	false		
112-1356880-5713060	29000134454650	2020-08-18T22:58:27+00:00	2020-08-18T15:58:27-07:00	2020-08-18T23:13:44+00:00	2020-08-21T06:59:59+00:00	-2	v62s6cl8rnd3yk8@marketplace.amazon.com	Altha Lindsay	+1 929-436-4790 ext. 99665	ABR004	Purchase Now for Delivery by Friday | Arabella Farm Direct Bouquet of 12 Fresh Cut Yellow Roses with a Free Glass Vase	1	0	1	Standard	Rhonda Lindsay	11574 W FAIRLAWN CT			BOISE	ID	83709-4438	US			false		
111-7910380-8699440	30269700818002	2020-08-18T23:08:16+00:00	2020-08-18T16:08:16-07:00	2020-08-18T23:33:27+00:00	2020-08-20T06:59:59+00:00	-1	ntylglsqcy8w8kd@marketplace.amazon.com	Roberta Stroyer	+1 929-436-4790 ext. 14011	ABR0022	Purchase Now for Delivery by Friday | Arabella Farm Direct Bouquet of 12 Fresh Cut Pink Roses with a Free Glass Vase	1	0	1	SecondDay	Katie Fox	140 SHEPARD ST			ROCHESTER	NY	14620-1818	US		So sorry to hear about Dooley and grandma’s dog.  We know how much you loved these pets who were part of your family.  Love Bobbie, Doug, and Melissa Stroyer	false		
112-8136203-3489818	52912715035850	2020-08-18T23:14:39+00:00	2020-08-18T16:14:39-07:00	2020-08-18T23:39:35+00:00	2020-08-21T06:59:59+00:00	-2	01p36x5cmjxy7rf@marketplace.amazon.com	Skip Elder	+1 929-436-4790 ext. 10950	ABM010	Purchase Now for Delivery by Friday | The Spring Fling Bouquet by Arabella Bouquets with a Free Designer Glass Vase	1	0	1	Standard	Tiffany Westover	3878 VINE MAPLE RD			SAN BERNARDINO	CA	92407-0458	US		Happy Birthday!  We love you, have a great day!! From Mom & Dad	false		
113-2894969-5243400	65618560900386	2020-08-18T23:22:58+00:00	2020-08-18T16:22:58-07:00	2020-08-18T23:46:31+00:00	2020-08-21T06:59:59+00:00	-2	bv2j5nzs0nc0mj0@marketplace.amazon.com	Debby Morgan	+1 929-436-4790 ext. 56161	ABR0066	Purchase Now for Delivery by Friday | Arabella Bouquets 12 Stems of Fresh Cut White Roses in a Free Designer Glass Vase	1	0	1	Standard	Heather Ryan	440 BOSLER AVE			LEMOYNE	PA	17043-1931	US			false		
113-1612468-2501804	22906386862938	2020-08-19T00:43:16+00:00	2020-08-18T17:43:16-07:00	2020-08-19T01:11:53+00:00	2020-08-20T06:59:59+00:00	-1	2swgwt4qgg3hj34@marketplace.amazon.com	Karen Wise	+1 929-436-4790 ext. 89044	ABR0033	Purchase Now for Delivery by Friday | Arabella Farm Direct Bouquet of 12 Fresh Cut Orange Roses with a Free Glass Vase	1	0	1	SecondDay	Shayla Minser	303 MATOT ST			BROOKINGS	OR	97415-9261	US		We love you.   Dad and Karen From Karen and Travis Wise	false		
114-5203057-4417035	57854446557866	2020-08-19T01:14:04+00:00	2020-08-18T18:14:04-07:00	2020-08-19T01:43:15+00:00	2020-08-21T06:59:59+00:00	-2	xkl8gcmhn9l53t1@marketplace.amazon.com	Ryan Vidal	+1 929-436-4790 ext. 66264	ABR0022	Purchase Now for Delivery by Friday | Arabella Farm Direct Bouquet of 12 Fresh Cut Pink Roses with a Free Glass Vase	1	0	1	Standard	Hannah Cohen	2254 CLOVERFIELD BLVD			SANTA MONICA	CA	90405-1821	US		To my favorite princess.  I love you more than words could ever describe. From Ryan Vidal	false		
114-3950208-8538664	44221996131714	2020-08-19T01:18:35+00:00	2020-08-18T18:18:35-07:00	2020-08-19T01:46:54+00:00	2020-08-21T06:59:59+00:00	-2	nl250d5q9fy1rcv@marketplace.amazon.com	sergio m rivas	+1 929-436-4790 ext. 86622	ABR0022	Purchase Now for Delivery by Friday | Arabella Farm Direct Bouquet of 12 Fresh Cut Pink Roses with a Free Glass Vase	1	0	1	Standard	Lauren Gauthier	698 NE 1ST AVE APT 405			MIAMI	FL	33132-1810	US		Like Gloria Stefan said "Get on your feet, and scores more goals" From sergio m rivas	false		
112-8315716-9149817	05853775799690	2020-08-19T01:46:22+00:00	2020-08-18T18:46:22-07:00	2020-08-19T02:15:31+00:00	2020-08-21T06:59:59+00:00	-2	lvnn0rxvvmz4shj@marketplace.amazon.com	Daniel Jalmanzar	+1 929-436-4790 ext. 57312	ABR0022	Purchase Now for Delivery by Friday | Arabella Farm Direct Bouquet of 12 Fresh Cut Pink Roses with a Free Glass Vase	1	0	1	Standard	Kirstin Iris Salaum	1885 SOPHIE LAKE RD			EUREKA	MT	59917-9223	US		I love you! From Daniel Jalmanzar	false		
113-9164822-5041844	53424694098242	2020-08-19T01:35:36+00:00	2020-08-18T18:35:36-07:00	2020-08-19T02:17:28+00:00	2020-08-20T06:59:59+00:00	-1	6w1t7cdk59szswm@marketplace.amazon.com	Bradley P. Davidson	+1 929-436-4790 ext. 02377	ABR001	Purchase Now for Delivery by Friday | Arabella Bouquets 12 Stems of Fresh Cut Red Roses in a Free Designer Glass Vase	1	0	1	SecondDay	Bradley Davidson	22 PINEHILL TRL W			TEQUESTA	FL	33469-2154	US			false		
111-3970897-8915418	51896725650154	2020-08-19T02:13:54+00:00	2020-08-18T19:13:54-07:00	2020-08-19T02:44:18+00:00	2020-08-20T06:59:59+00:00	-1	pknzdwd32l21myy@marketplace.amazon.com	Richard Nunez	+1 929-436-4790 ext. 59650	ABM010	Purchase Now for Delivery by Friday | The Spring Fling Bouquet by Arabella Bouquets with a Free Designer Glass Vase	1	0	1	SecondDay	C Mein	729 E CHARLES ST			HAMMOND	LA	70401-2720	US			false		
112-0092654-7128260	57028764122986	2020-08-19T02:25:59+00:00	2020-08-18T19:25:59-07:00	2020-08-19T02:55:43+00:00	2020-08-20T06:59:59+00:00	-1	ztg6tj18d995gt0@marketplace.amazon.com	Phobie Nelson	+1 929-436-4790 ext. 57058	ABR0022	Purchase Now for Delivery by Friday | Arabella Farm Direct Bouquet of 12 Fresh Cut Pink Roses with a Free Glass Vase	1	0	1	SecondDay	Leah Carlson	313 BAYARD ST			KANE	PA	16735-1403	US		Hope you feel better soon! Love ya girl From Sunny	false		
112-2872037-7525011	67732061841738	2020-08-19T02:40:56+00:00	2020-08-18T19:40:56-07:00	2020-08-19T03:07:09+00:00	2020-08-21T06:59:59+00:00	-2	mrysc5ncq8gj569@marketplace.amazon.com	arnulfo garza jr	+1 929-436-4790 ext. 92185	ABR0055	Purchase Now for Delivery by Friday | Arabella Farm Direct Bouquet of 12 Stems of Fresh Cut Hot Pink Roses in a Free Designer Glass Vase	1	0	1	Standard	Norma Aguilar	6425 WESTHEIMER RD APT 220			HOUSTON	TX	77057-5120	US		Enjoy your gift! From jr	false		
111-3033795-4013819	30930932082874	2020-08-19T02:43:07+00:00	2020-08-18T19:43:07-07:00	2020-08-19T03:10:16+00:00	2020-08-20T06:59:59+00:00	-1	0ls21lhkb00g0l9@marketplace.amazon.com	Sarah K. Baird	+1 929-436-4790 ext. 72883	ABR0033	Purchase Now for Delivery by Friday | Arabella Farm Direct Bouquet of 12 Fresh Cut Orange Roses with a Free Glass Vase	1	0	1	SecondDay	Laura Baird	1721 TOWER BATTERY RD			CHARLESTON	SC	29412-8321	US		Hi Laura, So sorry this happened, sweetie.  Rest and take care of yourself. Love you lots xxx. Sarah	false		
112-7351346-2635435	14209523188474	2020-08-19T02:47:44+00:00	2020-08-18T19:47:44-07:00	2020-08-19T03:15:26+00:00	2020-08-21T06:59:59+00:00	-2	7s3z6j41wnfqtr0@marketplace.amazon.com	Heather L Sopher	+1 929-436-4790 ext. 85246	ABM010	Purchase Now for Delivery by Friday | The Spring Fling Bouquet by Arabella Bouquets with a Free Designer Glass Vase	1	0	1	Standard	Linda Sopher	10150 LAVONNE DR			N HUNTINGDON	PA	15642-6604	US			false		
113-7772418-9521838	26815004413282	2020-08-19T03:01:38+00:00	2020-08-18T20:01:38-07:00	2020-08-19T03:27:42+00:00	2020-08-20T06:59:59+00:00	-1	m7zblrnbqx101zl@marketplace.amazon.com	Elizabeth K. Conrad	+1 929-436-4790 ext. 48404	ABR0022	Purchase Now for Delivery by Friday | Arabella Farm Direct Bouquet of 12 Fresh Cut Pink Roses with a Free Glass Vase	1	0	1	SecondDay	Hallie Conrad	2255 S UNIVERSITY PARKS DR	UNIT # 8D-A		WACO	TX	76706-6598	US			false		
114-0459125-0293801	13715720440818	2020-08-19T03:32:35+00:00	2020-08-18T20:32:35-07:00	2020-08-19T04:00:34+00:00	2020-08-20T06:59:59+00:00	-1	wxn7lwr8bdv6x2n@marketplace.amazon.com	Alison Skloot	+1 929-436-4790 ext. 84024	ABM010	Purchase Now for Delivery by Friday | The Spring Fling Bouquet by Arabella Bouquets with a Free Designer Glass Vase	1	0	1	SecondDay	Karen and Jeff Walstein	4 JUDITH PL			WEST LONG BRANCH	NJ	07764-1579	US		Dear Karen and Jeff, Congratulations again! I am so thrilled for the both of you. Lots of love always and many years of happiness in the sunshine.  Love, Ali From Alison Gesuele	false		
113-7985653-8291461	43926547157162	2020-08-19T03:46:26+00:00	2020-08-18T20:46:26-07:00	2020-08-19T04:15:52+00:00	2020-08-20T06:59:59+00:00	-1	m7zblrnbqx101zl@marketplace.amazon.com	Elizabeth K. Conrad	+1 929-436-4790 ext. 07284	ABR0055	Purchase Now for Delivery by Friday | Arabella Farm Direct Bouquet of 12 Stems of Fresh Cut Hot Pink Roses in a Free Designer Glass Vase	1	0	1	SecondDay	Kelly Conrad	8432 MAGNOLIA AVE BOX # 1367			RIVERSIDE	CA	92504-3206	US			false		
114-6713798-6973851	28883184969106	2020-08-19T04:04:01+00:00	2020-08-18T21:04:01-07:00	2020-08-19T04:28:45+00:00	2020-08-20T06:59:59+00:00	-1	bctf9c2f45hjn1m@marketplace.amazon.com	Terri Schilthorn	+1 929-436-4790 ext. 53066	ABM010	Purchase Now for Delivery by Friday | The Spring Fling Bouquet by Arabella Bouquets with a Free Designer Glass Vase	1	0	1	SecondDay	Gisela Alcerro	580 NW 125TH ST			NORTH MIAMI	FL	33168-3624	US		Happy Birthday, Gisela! I hope you have a beautiful day! Love, Terri From Terri Schilthorn	false		
114-2534840-6917012	58542138732690	2020-08-19T04:09:45+00:00	2020-08-18T21:09:45-07:00	2020-08-19T04:37:32+00:00	2020-08-20T06:59:59+00:00	-1	c095gy34cxy1035@marketplace.amazon.com	Lana Cong	+1 929-436-4790 ext. 46104	ABR012	Purchase Now for Delivery by Friday | Arabella Farm Direct Bouquet of 18 Fresh Cut Pink Roses with a Free Glass Vase	1	0	1	SecondDay	Pauline Wong	27241 ARLA ST			MORENO VALLEY	CA	92555-4942	US		Happy happy birthday to our dearest heart of gold and beloved Pauline!!!  We wish you could see yourself through our eyes and see how special you are. We love you to the moon and back. From The Nucleus	false		
113-4522723-2907435	70352148607858	2020-08-19T04:28:47+00:00	2020-08-18T21:28:47-07:00	2020-08-19T04:55:33+00:00	2020-08-20T06:59:59+00:00	-1	tdw39z2zvhv8tc9@marketplace.amazon.com	Elaine	+1 929-436-4790 ext. 91664	ABR004	Purchase Now for Delivery by Friday | Arabella Farm Direct Bouquet of 12 Fresh Cut Yellow Roses with a Free Glass Vase	1	0	1	SecondDay	Kelly Campbell	3953 1ST AVE APT 207			SAN DIEGO	CA	92103-3183	US		Happy birthday!! Love you! We miss you! From Elaine	false		
112-6919303-1569840	55060708786562	2020-08-19T05:36:40+00:00	2020-08-18T22:36:40-07:00	2020-08-19T06:06:37+00:00	2020-08-21T06:59:59+00:00	-2	xkx4vnczk8jdk74@marketplace.amazon.com	Ashley  Bonham	+1 929-436-4790 ext. 14542	ABR0055	Purchase Now for Delivery by Friday | Arabella Farm Direct Bouquet of 12 Stems of Fresh Cut Hot Pink Roses in a Free Designer Glass Vase	1	0	1	Standard	Lexi	613 BROWNING CT			BAKERSFIELD	CA	93309-1203	US		Happy Birthday Baby Girl.  -Auntie Ashley From Ashley  Bonham	false		
113-1912550-3341042	30524656504042	2020-08-19T06:16:22+00:00	2020-08-18T23:16:22-07:00	2020-08-19T06:45:01+00:00	2020-08-21T06:59:59+00:00	-2	yxvzjkhb0yz0pr5@marketplace.amazon.com	Drew Rodriguez	+1 929-436-4790 ext. 51611	ABR0022	Purchase Now for Delivery by Friday | Arabella Farm Direct Bouquet of 12 Fresh Cut Pink Roses with a Free Glass Vase	1	0	1	Standard	Erica Barboza	10811 MILANO AVE			NORWALK	CA	90650-1637	US		Enjoy your gift! From Drew Rodriguez	false		
113-3030265-7251452	11404293786178	2020-08-19T09:32:58+00:00	2020-08-19T02:32:58-07:00	2020-08-19T09:55:46+00:00	2020-08-22T06:59:59+00:00	-3	lkl6jrm3k7j4ffn@marketplace.amazon.com	Isaiah Turner	+1 929-436-4790 ext. 29866	ABR0022	Purchase Now for Delivery by Friday | Arabella Farm Direct Bouquet of 12 Fresh Cut Pink Roses with a Free Glass Vase	1	0	1	Standard	Courtney Webb	395 A ST			HAYWARD	CA	94541-4928	US		I thought of you today - and wanted you to know.....Miss You More #1 From Isaiah Turner	false		
114-1750476-3009855	17051896644738	2020-08-19T10:06:31+00:00	2020-08-19T03:06:31-07:00	2020-08-19T10:36:29+00:00	2020-08-22T06:59:59+00:00	-3	nc7h5gf825y74tv@marketplace.amazon.com	jlstryker	+1 929-436-4790 ext. 38647	ABR0055	Purchase Now for Delivery by Friday | Arabella Farm Direct Bouquet of 12 Stems of Fresh Cut Hot Pink Roses in a Free Designer Glass Vase	1	0	1	Standard	Jeffrey L. Stryker	420 ORONOCO ST			ALEXANDRIA	VA	22314-2324	US			false		
113-9182618-1537043	10306116530146	2020-08-19T12:26:52+00:00	2020-08-19T05:26:52-07:00	2020-08-19T12:57:10+00:00	2020-08-22T06:59:59+00:00	-3	xrv4l4p32mjypk1@marketplace.amazon.com	V Snowdon	+1 929-436-4790 ext. 93378	ABR0066	Purchase Now for Delivery by Friday | Arabella Bouquets 12 Stems of Fresh Cut White Roses in a Free Designer Glass Vase	1	0	1	Expedited	V Snowdon	17 CLOVER LN			PRINCETON	NJ	08540-4046	US			false		
112-6889704-3568217	15800867371154	2020-08-19T13:23:33+00:00	2020-08-19T06:23:33-07:00	2020-08-19T13:51:36+00:00	2020-08-22T06:59:59+00:00	-3	spskf6pd7vnlc6l@marketplace.amazon.com	Kimberly Baker	+1 929-436-4790 ext. 57666	ABM010	Purchase Now for Delivery by Friday | The Spring Fling Bouquet by Arabella Bouquets with a Free Designer Glass Vase	1	0	1	Expedited	Jamie Hines	8005 GRANDMEADOW LN			LOUISVILLE	KY	40258-3366	US			false		
114-3658959-6666617	57954525507466	2020-08-19T13:37:29+00:00	2020-08-19T06:37:29-07:00	2020-08-19T14:03:59+00:00	2020-08-22T06:59:59+00:00	-3	f7hgqbfzm58994h@marketplace.amazon.com	cathy wetzel	+1 929-436-4790 ext. 16152	ABR0022	Purchase Now for Delivery by Friday | Arabella Farm Direct Bouquet of 12 Fresh Cut Pink Roses with a Free Glass Vase	1	0	1	Expedited	Veronca Butler	2373 N ALAMEDA AVE			SAN BERNARDINO	CA	92404-4138	US		Congratulations Veronica and  Mac!  Welcome baby girl! Love you all! From Love Mom	false		
111-2521218-3129804	64831556242978	2020-08-19T13:41:26+00:00	2020-08-19T06:41:26-07:00	2020-08-19T14:10:47+00:00	2020-08-22T06:59:59+00:00	-3	b09g2s36pvjcklt@marketplace.amazon.com	laurel j single	+1 929-436-4790 ext. 28775	ABR013	Purchase Now for Delivery by Friday | Arabella Farm Direct Bouquet of 18 Fresh Cut Yellow Roses with a Free Glass Vase	1	0	1	Expedited	Patricia Single	10 FAIRWAYS CIR			PALM COAST	FL	32137-8014	US		Happy Birthday!  Love, Laurel & John From laurel j single	false		
111-0600535-9133802	64920685343002	2020-08-19T14:14:00+00:00	2020-08-19T07:14:00-07:00	2020-08-19T14:42:50+00:00	2020-08-22T06:59:59+00:00	-3	8pffnfgfnh5mj4v@marketplace.amazon.com	Eric Olof	+1 929-436-4790 ext. 36406	ABR0022	Purchase Now for Delivery by Friday | Arabella Farm Direct Bouquet of 12 Fresh Cut Pink Roses with a Free Glass Vase	1	0	1	Expedited	Eric Olof	5615 Highland Springs Rd			Lakeport	CA	95453-9350	US			false		
112-3575682-9080264	12315787674242	2020-08-19T14:23:57+00:00	2020-08-19T07:23:57-07:00	2020-08-19T14:48:06+00:00	2020-08-22T06:59:59+00:00	-3	kwslxrvh4d25n7w@marketplace.amazon.com	dennis ehlers	+1 929-436-4790 ext. 74403	ABM010	Purchase Now for Delivery by Friday | The Spring Fling Bouquet by Arabella Bouquets with a Free Designer Glass Vase	1	0	1	Expedited	GloriaJean Ehlers	621 CHARLES LN			MADISON	WI	53711-1320	US			false		
112-2675274-8355436	63543304958842	2020-08-19T14:18:08+00:00	2020-08-19T07:18:08-07:00	2020-08-19T14:48:33+00:00	2020-08-22T06:59:59+00:00	-3	mfgbqn7xpg0xdfm@marketplace.amazon.com	Bernard	+1 929-436-4790 ext. 77627	ABB013	Arabella Bouquets | 24 Stems of Fresh Cut White Roses in a Free Designer Glass Vase	1	0	1	Expedited	Bernard L. Rosauer	W277 N2118 Lakeview Drive			Pewaukee	WI	53072-5238	US			false		
112-0810561-7921030	55876454444082	2020-08-19T14:40:27+00:00	2020-08-19T07:40:27-07:00	2020-08-19T15:10:05+00:00	2020-08-22T06:59:59+00:00	-3	gmd9f1wl6688vp5@marketplace.amazon.com	Lorri Giovinco	+1 929-436-4790 ext. 65956	ABM010	Purchase Now for Delivery by Friday | The Spring Fling Bouquet by Arabella Bouquets with a Free Designer Glass Vase	1	0	1	Expedited	Jordana Bell	1880 PALMER AVE APT 7G			LARCHMONT	NY	10538-3068	US		Enjoy your gift! From Lorri Giovinco	false		
113-3139604-9285807	31564692448474	2020-08-19T15:03:22+00:00	2020-08-19T08:03:22-07:00	2020-08-19T15:29:06+00:00	2020-08-22T06:59:59+00:00	-3	mfkb7ttnp2dx5rv@marketplace.amazon.com	Michael Stathakis	+1 929-436-4790 ext. 36032	ABR001	Purchase Now for Delivery by Friday | Arabella Bouquets 12 Stems of Fresh Cut Red Roses in a Free Designer Glass Vase	1	0	1	Expedited	Cheryl Stathakis	401 N WABASH AVE UNIT 56C			CHICAGO	IL	60611-3802	US			false		
113-0150804-2377059	47524116229906	2020-08-19T15:07:22+00:00	2020-08-19T08:07:22-07:00	2020-08-19T15:37:25+00:00	2020-08-22T06:59:59+00:00	-3	yvp20l5hsh80ns3@marketplace.amazon.com	robert sheffield	+1 929-436-4790 ext. 69019	ABR0066	Purchase Now for Delivery by Friday | Arabella Bouquets 12 Stems of Fresh Cut White Roses in a Free Designer Glass Vase	1	0	1	Expedited	Kathy Young	555 RIVER MIST DR			SUWANEE	GA	30024-6837	US			false		
113-4793802-0949066	30843151496362	2020-08-19T15:10:19+00:00	2020-08-19T08:10:19-07:00	2020-08-19T15:38:03+00:00	2020-08-22T06:59:59+00:00	-3	mfkb7ttnp2dx5rv@marketplace.amazon.com	Michael Stathakis	+1 929-436-4790 ext. 81790	ABR0022	Purchase Now for Delivery by Friday | Arabella Farm Direct Bouquet of 12 Fresh Cut Pink Roses with a Free Glass Vase	1	0	1	Expedited	Karen Stathakis	1000 GARLANDS LN UNIT 1317			BARRINGTON	IL	60010-6023	US		Happy Birthday Mom!  We are so happy that you are such a big part of our lives.  We love you tons!  Looking forward to celebrating your birthday on Sunday. All our love, Mike and Cheryl From Mike & Cheryl	false		
113-7329794-6941803	32427463575554	2020-08-19T15:13:56+00:00	2020-08-19T08:13:56-07:00	2020-08-19T15:43:38+00:00	2020-08-22T06:59:59+00:00	-3	7d3hdmxg9lmc65m@marketplace.amazon.com	Jessica Pereira	+1 929-436-4790 ext. 86676	ABR0022	Purchase Now for Delivery by Friday | Arabella Farm Direct Bouquet of 12 Fresh Cut Pink Roses with a Free Glass Vase	1	0	1	Expedited	Mr. & Mrs. Farmer	110 STRATFORD PL			MADISON HEIGHTS	VA	24572-6268	US			false		
114-1929785-1564243	48046864043922	2020-08-19T15:46:55+00:00	2020-08-19T08:46:55-07:00	2020-08-19T16:17:05+00:00	2020-08-22T06:59:59+00:00	-3	rw35jst828k2v6t@marketplace.amazon.com	Natalie	+1 929-436-4790 ext. 07772	ABR0022	Purchase Now for Delivery by Friday | Arabella Farm Direct Bouquet of 12 Fresh Cut Pink Roses with a Free Glass Vase	1	0	1	Expedited	Megan Momma Jones	1508 CHARLESTON LN			LOVELAND	OH	45140-8016	US			false		
111-3126502-4129802	39135742849530	2020-08-19T16:53:46+00:00	2020-08-19T09:53:46-07:00	2020-08-19T17:20:22+00:00	2020-08-22T06:59:59+00:00	-3	9n679k2lcg5b3t2@marketplace.amazon.com	Salim Manzar	+1 929-436-4790 ext. 74100	ABR0022	Purchase Now for Delivery by Friday | Arabella Farm Direct Bouquet of 12 Fresh Cut Pink Roses with a Free Glass Vase	1	0	1	Expedited	Bushra Bhutta	1720 SABAL PALM DR			BOCA RATON	FL	33432-7425	US			false		
114-2852205-4246667	39536651973338	2020-08-19T16:56:53+00:00	2020-08-19T09:56:53-07:00	2020-08-19T17:23:58+00:00	2020-08-22T06:59:59+00:00	-3	7nq1dc5bttldrnx@marketplace.amazon.com	Jill	+1 929-436-4790 ext. 66903	ABR004	Purchase Now for Delivery by Friday | Arabella Farm Direct Bouquet of 12 Fresh Cut Yellow Roses with a Free Glass Vase	1	0	1	Expedited	Jeanne Downing Jeska	921 W KILGORE RD			PORTAGE	MI	49024-5828	US		Happy Birthday!!! 🤗❤️💕 From Jill and Evelyn	false		
113-4828119-4125858	17701223097522	2020-08-19T17:12:19+00:00	2020-08-19T10:12:19-07:00	2020-08-19T17:40:38+00:00	2020-08-22T06:59:59+00:00	-3	l1tdxnptz13jgq4@marketplace.amazon.com	Troy J. Corley	+1 929-436-4790 ext. 73040	ABM002	Purchase Now for Delivery by Friday | Arabella Bouquets Fresh Cut White Calla Lilies in a Free Designer Glass Vase |	1	0	1	Expedited	Anya	108 WELLSPRING DR			HOLLY SPRINGS	NC	27540-9322	US		Holly,  I hope you have a wonderful and enjoyable 40th birthday!! From Troy J. Corley	false		
114-5568424-4743419	58649202088154	2020-08-19T17:10:57+00:00	2020-08-19T10:10:57-07:00	2020-08-19T17:41:07+00:00	2020-08-22T06:59:59+00:00	-3	7wq790hwtnqmfsk@marketplace.amazon.com	Lucy	+1 929-436-4790 ext. 38544	ABR0022	Purchase Now for Delivery by Friday | Arabella Farm Direct Bouquet of 12 Fresh Cut Pink Roses with a Free Glass Vase	1	0	1	Expedited	Stephanie Lopez	13827 DURNESS ST			BALDWIN PARK	CA	91706-5145	US			false		
