order-id	order-item-id	purchase-date	payments-date	reporting-date	promise-date	days-past-promise	buyer-email	buyer-name	buyer-phone-number	sku	product-name	quantity-purchased	quantity-shipped	quantity-to-ship	ship-service-level	recipient-name	ship-address-1	ship-address-2	ship-address-3	ship-city	ship-state	ship-postal-code	ship-country	gift-wrap-type	gift-message-text	is-business-order	purchase-order-number	price-designation
111-8262137-9736259	14268895768306	2020-08-26T17:32:51+00:00	2020-08-26T10:32:51-07:00	2020-08-26T18:03:34+00:00	2020-08-29T06:59:59+00:00	-1	k7ctqllgwkgv8qv@marketplace.amazon.com	mike stokes	+1 480-618-5344 ext. 83731	ABR014	Arabella Bouquets 18 Stems of Fresh Cut White Roses in a Free Designer Glass Vase	1	0	1	Expedited	Mike Stokes	13323 E 14TH AVE			SPOKANE	WA	99216-0404	US			false		
114-0171938-1895473	62943594549090	2020-08-26T17:45:37+00:00	2020-08-26T10:45:37-07:00	2020-08-26T18:04:57+00:00	2020-08-29T06:59:59+00:00	-1	sgv83tfrczg10mx@marketplace.amazon.com	RAQUEL SIMBRELO	+1 929-436-4790 ext. 95503	ABR0022	Arabella Farm Direct Bouquet of 12 Fresh Cut Pink Roses with a Free Glass Vase	1	0	1	Standard	Mailen Camacho	7831 W 36TH AVE UNIT 202			HIALEAH	FL	33018-7525	US		Para ti mi querida amiga, en este día tan especial , te deseo lo disfrutes con mucha alegría .... Feliz Cumpleaños !!! De RAQUEL SIMBRELO	false		
113-1093495-1225047	05290152062698	2020-08-26T17:42:35+00:00	2020-08-26T10:42:35-07:00	2020-08-26T18:12:45+00:00	2020-08-29T06:59:59+00:00	-1	j2xpqtp7rx8d4dk@marketplace.amazon.com	CARL E GRENINGER	+1 480-618-5344 ext. 95663	ABR0022	Arabella Farm Direct Bouquet of 12 Fresh Cut Pink Roses with a Free Glass Vase	1	0	1	Expedited	Carl Greninger	31807 25TH AVE SW			FEDERAL WAY	WA	98023-2250	US			false		
111-5577215-9551433	60748732508778	2020-08-26T17:51:42+00:00	2020-08-26T10:51:42-07:00	2020-08-26T18:17:19+00:00	2020-08-29T06:59:59+00:00	-1	q544x8l2fzxsrnr@marketplace.amazon.com	Derrick Monks	+1 480-618-5344 ext. 30077	ABR012	Purchase Now for Delivery by Monday | Arabella Farm Direct Bouquet of 18 Fresh Cut Pink Roses with a Free Glass Vase	1	0	1	Expedited	Reba Cardillo	4 VIRGINIA AVE			LAVALLETTE	NJ	08735-2438	US		Mom + Dad,  Thank you for hosting us in FL and at the shore. We are missing you guys and the beach terribly! “When we give cheerfully and accept gratefully, everyone is blessed.” Maya Angelou —Love, D,E+K From Erin & Derrick Monks	false		
112-2119320-6392234	21601930765570	2020-08-26T17:52:44+00:00	2020-08-26T10:52:44-07:00	2020-08-26T18:20:39+00:00	2020-08-29T06:59:59+00:00	-1	fv4sz4tx82wc9ks@marketplace.amazon.com	Casey	+1 480-618-5344 ext. 90514	ABR0055	Purchase Now for Delivery by Monday | Arabella Farm Direct Bouquet of 12 Stems of Fresh Cut Hot Pink Roses in a Free Designer Glass Vase	1	0	1	Expedited	Yvonne	323 HODENCAMP RD APT 87			THOUSAND OAKS	CA	91360-5638	US			false		
111-7789736-3091451	61910791375394	2020-08-26T17:56:58+00:00	2020-08-26T10:56:58-07:00	2020-08-26T18:22:31+00:00	2020-08-29T06:59:59+00:00	-1	qpn65xfy2lj2gqz@marketplace.amazon.com	melissa mcleod	+1 929-436-4790 ext. 99067	ABM010	Purchase Now for Delivery by Monday | The Spring Fling Bouquet by Arabella Bouquets with a Free Designer Glass Vase	1	0	1	Expedited	Lyn McLeod	407 E ELM AVE			GALLOWAY	NJ	08205-4329	US		To a wonderful Mom: Happy, happy 93rd birthday!! Sending you lots of love and hugs and kisses. From Liss	false		
114-0836074-7549824	11723757301410	2020-08-26T18:08:19+00:00	2020-08-26T11:08:19-07:00	2020-08-26T18:36:28+00:00	2020-08-29T06:59:59+00:00	-1	ylnp87rn883wr4t@marketplace.amazon.com	Teresa Rocha	+1 929-436-4790 ext. 82915	ABR0055	Purchase Now for Delivery by Monday | Arabella Farm Direct Bouquet of 12 Stems of Fresh Cut Hot Pink Roses in a Free Designer Glass Vase	1	0	1	Expedited	Barbara Rocha	15 PINE LAKE CT			HAMPTON	VA	23669-1200	US		Happy birthday Barbara! We love you! From Mimi & Pop	false		
111-0719529-3746662	30573051323074	2020-08-26T18:25:50+00:00	2020-08-26T11:25:50-07:00	2020-08-26T18:46:50+00:00	2020-08-29T06:59:59+00:00	-1	bn24szyycry01l7@marketplace.amazon.com	Me Torres	+1 480-618-5344 ext. 51011	ABM010	Purchase Now for Delivery by Monday | The Spring Fling Bouquet by Arabella Bouquets with a Free Designer Glass Vase	1	0	1	Expedited	Rose T. Javier	32 EASTERN STATES PKWY			SOMERVILLE	NJ	08876-2625	US		Dearest Mama, May God’s blessings, good health, lovely, joyful, and peaceful days be with you always. We love and miss you. Happy Birthday!  Love, Jr., Mae, Miggy, and Gabby From Junior and Mae	false		
112-6442201-5477812	26528860936842	2020-08-26T18:25:39+00:00	2020-08-26T11:25:39-07:00	2020-08-26T18:51:42+00:00	2020-08-29T06:59:59+00:00	-1	n48z50h2xkxc4t2@marketplace.amazon.com	Trine Hjørnevik	+1 480-618-5344 ext. 12405	ABR0022	Purchase Now for Delivery by Monday | Arabella Farm Direct Bouquet of 12 Fresh Cut Pink Roses with a Free Glass Vase	1	0	1	Expedited	Audrey Fan	1728 G ST			SACRAMENTO	CA	95811-2119	US		Dear Audrey and Tyler,   Congratulations on your wedding! Wishing you lots of love and happiness :) Best,  Trine From Trine Hjørnevik	false		
113-5005742-6398653	55746156522914	2020-08-26T18:29:59+00:00	2020-08-26T11:29:59-07:00	2020-08-26T18:59:03+00:00	2020-08-29T06:59:59+00:00	-1	1v9hhgw858lzypf@marketplace.amazon.com	Christy Kealey	+1 929-436-4790 ext. 69428	ABM010	Purchase Now for Delivery by Monday | The Spring Fling Bouquet by Arabella Bouquets with a Free Designer Glass Vase	1	0	1	Expedited	Elaine Bell	1925 SUNNY CREST DR APT 212			FULLERTON	CA	92835-3685	US		Happy Birthday Mom We love you From Mark and Christy	false		
114-6639379-2548251	24137906494562	2020-08-26T18:46:45+00:00	2020-08-26T11:46:45-07:00	2020-08-26T18:59:42+00:00	2020-08-29T06:59:59+00:00	-1	wbh5dkxwzgsrh2m@marketplace.amazon.com	Betty J. Booth	+1 480-618-5344 ext. 88461	ABR0022	Purchase Now for Delivery by Monday | Arabella Farm Direct Bouquet of 12 Fresh Cut Pink Roses with a Free Glass Vase	1	0	1	Standard	Angela Rizzi	14708 W CHEERY LYNN DR			GOODYEAR	AZ	85395-8877	US		Ang:  Welcome to Medicare!  Happy 65th Birthday!!! From Much love,  Betty	false		
114-0485940-7046635	68621938838578	2020-08-26T18:33:59+00:00	2020-08-26T11:33:59-07:00	2020-08-26T19:01:27+00:00	2020-08-29T06:59:59+00:00	-1	rgcp6c666tqcd86@marketplace.amazon.com	Connie	+1 929-436-4790 ext. 05987	ABM024	The Beauty of Color Bouquet by Arabella Bouquets	1	0	1	Expedited	Frankie Uptain	5260 SYCAMORE DR			MILLBROOK	AL	36054-2004	US			false		
112-5245238-3117045	67499823516874	2020-08-26T18:34:10+00:00	2020-08-26T11:34:10-07:00	2020-08-26T19:04:28+00:00	2020-08-29T06:59:59+00:00	-1	x463ckbqk3wg6y3@marketplace.amazon.com	matt Johnson	+1 929-436-4790 ext. 85845	ABM010	Purchase Now for Delivery by Monday | The Spring Fling Bouquet by Arabella Bouquets with a Free Designer Glass Vase	1	0	1	Expedited	Dale Johnson	7740 N SOLEDAD AVE			TUCSON	AZ	85741-1317	US			false		
113-0072527-5681837	44111410273250	2020-08-26T19:15:07+00:00	2020-08-26T12:15:07-07:00	2020-08-26T19:41:47+00:00	2020-08-29T06:59:59+00:00	-1	pgycl4nmcvg0wrn@marketplace.amazon.com	Deidre thompson	+1 480-618-5344 ext. 81748	ABR004	Purchase Now for Delivery by Monday | Arabella Farm Direct Bouquet of 12 Fresh Cut Yellow Roses with a Free Glass Vase	1	0	1	Standard	Jason Hamm	553 RED FOX CIR S			MIDDLETOWN	DE	19709-8999	US		Happy Birthday!!  Enjoy your day.  Love you,  from  Mom & Glenn From Deidre thompson	false		
111-5449418-5093838	63817034399194	2020-08-26T19:35:30+00:00	2020-08-26T12:35:30-07:00	2020-08-26T20:03:45+00:00	2020-08-29T06:59:59+00:00	-1	9jh37wc6x3wxc59@marketplace.amazon.com	William Wortzman	+1 929-436-4790 ext. 60543	ABR0022	Purchase Now for Delivery by Monday | Arabella Farm Direct Bouquet of 12 Fresh Cut Pink Roses with a Free Glass Vase	1	0	1	Expedited	Leslie Koblenz	5300 MUIRFIELD DR			PEPPER PIKE	OH	44124-5380	US		Leslie.......I think I can do anything if I put my mind into it. Yet no matter how hard I try in all that I do, I just can’t take my mind off you.....Love, Bill From William Wortzman	true		Business Price
114-2705364-9416239	08362864106474	2020-08-26T20:08:25+00:00	2020-08-26T13:08:25-07:00	2020-08-26T20:34:30+00:00	2020-08-29T06:59:59+00:00	-1	6mw25jdtjvtylhv@marketplace.amazon.com	German Peluso	+1 929-436-4790 ext. 54979	ABR0055	Purchase Now for Delivery by Monday | Arabella Farm Direct Bouquet of 12 Stems of Fresh Cut Hot Pink Roses in a Free Designer Glass Vase	1	0	1	Expedited	Maria Paz Etcheverry	540 MEMORIAL DR WESTGATE MIT	APT 808		CAMBRIDGE	MA	02139-4908	US		Feliz cumple amiga! siempre juntas, te amamos y abrazamos fuerte a la distancia!!! De Eve, Tini, Pepa y Mechi.	false		
113-8393514-1335464	59966790880922	2020-08-26T20:35:43+00:00	2020-08-26T13:35:43-07:00	2020-08-26T20:46:52+00:00	2020-08-29T06:59:59+00:00	-1	mt2y5m51hpp8ndt@marketplace.amazon.com	Blanca Mojardin	+1 929-436-4790 ext. 73395	ABR0022	Purchase Now for Delivery by Monday | Arabella Farm Direct Bouquet of 12 Fresh Cut Pink Roses with a Free Glass Vase	1	0	1	Expedited	Maria E Rivas	489 N WESLING RD			TIPTON	CA	93272-9759	US		Quierida cuñada, Ojala que te alegren un poquito tus dias!  Son mis deseos, con todo mi corazon! Besos! De Blanca Coronado	false		
114-4810208-4142656	64830250012314	2020-08-26T20:20:04+00:00	2020-08-26T13:20:04-07:00	2020-08-26T20:48:09+00:00	2020-08-29T06:59:59+00:00	-1	g4qv5kqzxmpf5fb@marketplace.amazon.com	Christina Reed	+1 480-618-5344 ext. 69603	ABR013	Purchase Now for Delivery by Monday | Arabella Farm Direct Bouquet of 18 Fresh Cut Yellow Roses with a Free Glass Vase	1	0	1	Expedited	Virginia Reed	21623 EMERALD RIDGE CIR			KATY	TX	77450-5991	US		Happy Retirement Mrs. Reed!! You deserve some relaxing and fun time! We love you! From Eric, Chrissie, Cole & Niko Reed	false		
111-0943231-7769063	51649100817578	2020-08-26T20:26:46+00:00	2020-08-26T13:26:46-07:00	2020-08-26T20:50:58+00:00	2020-08-29T06:59:59+00:00	-1	t7vvk56b6z0kw8m@marketplace.amazon.com	Annemarie Gowan	+1 480-618-5344 ext. 93638	ABR0022	Purchase Now for Delivery by Monday | Arabella Farm Direct Bouquet of 12 Fresh Cut Pink Roses with a Free Glass Vase	1	0	1	Standard	Helen Mantler	2460 PRINCETON DR			SAN BRUNO	CA	94066-3847	US		Happy Birthday, Helen!   Hope your birthday week is great and you have lots of birthday wishes come true! From Annemarie, Matt, Paige, Taylor and Ross Gowan	false		
114-5764773-7021061	52297888189602	2020-08-26T21:00:53+00:00	2020-08-26T14:00:53-07:00	2020-08-26T21:32:03+00:00	2020-08-29T06:59:59+00:00	-1	72f4kr9yp7njlck@marketplace.amazon.com	Justin Kimmet	+1 929-436-4790 ext. 61827	ABR0022	Purchase Now for Delivery by Monday | Arabella Farm Direct Bouquet of 12 Fresh Cut Pink Roses with a Free Glass Vase	1	0	1	Expedited	Justin Kimmet	117 HORSE HAPPY RD			NEWMANSTOWN	PA	17073-8907	US			false		
113-2735759-8172235	29273637073314	2020-08-26T21:06:44+00:00	2020-08-26T14:06:44-07:00	2020-08-26T21:36:35+00:00	2020-08-29T06:59:59+00:00	-1	vpttz700z93mvpz@marketplace.amazon.com	Kari Volyn	50988822895	ABR0033	Purchase Now for Delivery by Monday | Arabella Farm Direct Bouquet of 12 Fresh Cut Orange Roses with a Free Glass Vase	1	0	1	Expedited	Charlotte Brody	CHARLOTTE BRODY	351 19TH ST NE # 17		EAST WENATCHEE	WA	98802-8308	US		Happy birthday with love From Kari and Bruce	false		
114-4183030-6271426	66908201814842	2020-08-26T21:23:52+00:00	2020-08-26T14:23:52-07:00	2020-08-26T21:45:54+00:00	2020-08-29T06:59:59+00:00	-1	2mhwlvww051zzrx@marketplace.amazon.com	Louay m Dbouk	+1 929-436-4790 ext. 30074	ABR0055	Purchase Now for Delivery by Monday | Arabella Farm Direct Bouquet of 12 Stems of Fresh Cut Hot Pink Roses in a Free Designer Glass Vase	1	0	1	Expedited	Abir  Mounaimneh	4019 Carmel view road unit 162			San Diego	California	93120	US		Enjoy your gift! From Mawhiba & Youssef Dbouk	false		
113-7268170-2581862	27460039420258	2020-08-26T21:24:36+00:00	2020-08-26T14:24:36-07:00	2020-08-26T21:52:39+00:00	2020-08-29T06:59:59+00:00	-1	fz6x4chglxxmp0n@marketplace.amazon.com	Marinell	+1 929-436-4790 ext. 20539	ABR0055	Purchase Now for Delivery by Monday | Arabella Farm Direct Bouquet of 12 Stems of Fresh Cut Hot Pink Roses in a Free Designer Glass Vase	1	0	1	Expedited	Betty Myers	685 STATE ROUTE 1124			MAYFIELD	KY	42066-4927	US			false		
111-9798885-7234647	20889428676026	2020-08-26T21:31:20+00:00	2020-08-26T14:31:20-07:00	2020-08-26T21:58:28+00:00	2020-08-29T06:59:59+00:00	-1	kh4zbwkrrwrmn5b@marketplace.amazon.com	Alona Prudnyk	+1 929-436-4790 ext. 21850	ABM022	Purple Extravagance Bouquet by Arabella Bouquets	1	0	1	Standard	Olena Shevelenko	14 RUBINO RD			WEST CALDWELL	NJ	07006-8000	US			false		
112-4886289-6425047	35161774706842	2020-08-26T21:46:36+00:00	2020-08-26T14:46:36-07:00	2020-08-26T22:16:20+00:00	2020-08-29T06:59:59+00:00	-1	jst2tyq8hc2ygpv@marketplace.amazon.com	Leanne S. Tolle	+1 929-436-4790 ext. 86482	ABR001	Purchase Now for Delivery by Monday | Arabella Bouquets 12 Stems of Fresh Cut Red Roses in a Free Designer Glass Vase	1	0	1	Expedited	Debbie Sinclair	8 AMBROSE DR			BRISTOL	RI	02809-2913	US		Happy birthday! From Love, Leanne & Norman	false		
111-6422165-8084254	62744724003906	2020-08-26T22:29:53+00:00	2020-08-26T15:29:53-07:00	2020-08-26T22:58:28+00:00	2020-08-29T06:59:59+00:00	-1	633sdt2jnmsjhl7@marketplace.amazon.com	Robert D King	+1 929-436-4790 ext. 41582	ABR0022	Purchase Now for Delivery by Monday | Arabella Farm Direct Bouquet of 12 Fresh Cut Pink Roses with a Free Glass Vase	1	0	1	Expedited	Charlotte Finlay	192 EVELYN ST			OAKVILLE	CT	06779-2212	US		Happy 90th Birthday, Mom.  Thinking of you today.  Love,  Bonnie and Bob	false		
111-4942958-0606658	17201232081562	2020-08-26T22:43:59+00:00	2020-08-26T15:43:59-07:00	2020-08-26T23:14:39+00:00	2020-08-29T06:59:59+00:00	-1	v34dlvy8lfvhr5b@marketplace.amazon.com	herbert bravo	+1 929-436-4790 ext. 62606	ABR001	Purchase Now for Delivery by Monday | Arabella Bouquets 12 Stems of Fresh Cut Red Roses in a Free Designer Glass Vase	1	0	1	Expedited	Ms. Cynthia Stella Lizano Saunders	EIBER ELEMENTARY SCHOOL	1385 INDEPENDENCE ST		LAKEWOOD	CO	80215-4612	US			false		
113-4191369-1646647	69331633719250	2020-08-26T23:03:50+00:00	2020-08-26T16:03:50-07:00	2020-08-26T23:27:46+00:00	2020-08-29T06:59:59+00:00	-1	02s2b9yjkvz5xdw@marketplace.amazon.com	David Colarusso	+1 480-618-5344 ext. 74493	ABM020	Summer Sunset Bouquet by Arabella Bouquets	1	0	1	Expedited	Dottie Thomson	5339 11TH ST			KATY	TX	77493-1727	US			false		
111-1417732-3330633	44404670251922	2020-08-26T23:12:29+00:00	2020-08-26T16:12:29-07:00	2020-08-26T23:42:35+00:00	2020-08-29T06:59:59+00:00	-1	tg34jn4fsxmlwpn@marketplace.amazon.com	Jason Pancheau	+1 929-436-4790 ext. 19961	ABM010	Purchase Now for Delivery by Monday | The Spring Fling Bouquet by Arabella Bouquets with a Free Designer Glass Vase	1	0	1	Standard	Jason Pancheau	6406 SE 91ST AVE			PORTLAND	OR	97266-5222	US			false		
114-0514471-6676219	69884301966770	2020-08-27T00:26:57+00:00	2020-08-26T17:26:57-07:00	2020-08-27T00:55:18+00:00	2020-08-29T06:59:59+00:00	-1	wxn7lwr8bdv6x2n@marketplace.amazon.com	Alison Skloot	+1 480-618-5344 ext. 55976	ABM010	Purchase Now for Delivery by Monday | The Spring Fling Bouquet by Arabella Bouquets with a Free Designer Glass Vase	1	0	1	Expedited	Jennifer Lang	14811 NEPONSIT AVE			NEPONSIT	NY	11694	US		Thought these might bring a smile to your face.  Hope you feel better soon! Love, Ali From Alison Gesuele	false		
113-0787346-8905843	46872283978218	2020-08-27T00:46:25+00:00	2020-08-26T17:46:25-07:00	2020-08-27T01:11:00+00:00	2020-08-29T06:59:59+00:00	-1	91r7hw0w2rmps9w@marketplace.amazon.com	Heather Paskewich	+1 929-436-4790 ext. 89432	ABR0022	Purchase Now for Delivery by Monday | Arabella Farm Direct Bouquet of 12 Fresh Cut Pink Roses with a Free Glass Vase	1	0	1	Expedited	Julianne Konopka	9 BARRINGTON DR APT A			WETHERSFIELD	CT	06109-2443	US		Happy Birthday!  Let's celebrate sometime when you're free. Would love to see you:)  Love Heather xoxo From Heather Paskewich	false		
113-3205975-2800258	32181660864730	2020-08-27T00:54:39+00:00	2020-08-26T17:54:39-07:00	2020-08-27T01:13:52+00:00	2020-08-29T06:59:59+00:00	-1	cqp1sqcxyfph98p@marketplace.amazon.com	Ana M A Dineen	+1 480-618-5344 ext. 22957	ABM010	Purchase Now for Delivery by Monday | The Spring Fling Bouquet by Arabella Bouquets with a Free Designer Glass Vase	1	0	1	Expedited	Melida Sanchez	1631 W PAMPAS LN APT 30			ANAHEIM	CA	92802-1053	US		Te queremos mucho, Güero y yo. From Melida Carrillo	false		
113-1370345-4320251	64834351801050	2020-08-27T01:06:51+00:00	2020-08-26T18:06:51-07:00	2020-08-27T01:30:52+00:00	2020-08-29T06:59:59+00:00	-1	3t54x8s172flryb@marketplace.amazon.com	Natalie J Mammone	+1 929-436-4790 ext. 06275	ABM002	Arabella Bouquets Fresh Cut White Calla Lilies in a Free Designer Glass Vase |	1	0	1	Expedited	Stephanie Butterworth	1750 CANADA BLVD			GLENDALE	CA	91208-2913	US		Hey Steph! Just wanted to send you something fresh and beautiful for your new home, and for some good cheer and celebration in your honor. I’m so proud of you for powering through your treatments and staying strong. Love you! From Natalie (aka Boo)	false		
111-3453524-5946636	61413940210130	2020-08-27T01:55:21+00:00	2020-08-26T18:55:21-07:00	2020-08-27T02:23:31+00:00	2020-08-29T06:59:59+00:00	-1	0h342g3vcm9q7sn@marketplace.amazon.com	Christine Kiebach	+1 929-436-4790 ext. 58225	ABM010	Purchase Now for Delivery by Monday | The Spring Fling Bouquet by Arabella Bouquets with a Free Designer Glass Vase	1	0	1	Expedited	Caroline Kiebach	1507 ATLANTIC AVE APT 99			MANASQUAN	NJ	08736-1110	US		Enjoy your gift! Happy Birthday Luv! From With Love, Mom & Kubi	false		
114-5949133-3067456	13873732559938	2020-08-27T02:38:41+00:00	2020-08-26T19:38:41-07:00	2020-08-27T03:00:32+00:00	2020-08-29T06:59:59+00:00	-1	g0rht212bpdjgg3@marketplace.amazon.com	Linda Robotham	+1 480-618-5344 ext. 21607	ABR0022	Purchase Now for Delivery by Monday | Arabella Farm Direct Bouquet of 12 Fresh Cut Pink Roses with a Free Glass Vase	1	0	1	Expedited	Kay Brauer	40 ENDICOTT DR			HOWELL	MI	48843-8602	US		Happy Birthday! Love, Ken and Lisa From Ken and Lisa	false		
112-1367548-4577802	02544302815178	2020-08-27T02:42:40+00:00	2020-08-26T19:42:40-07:00	2020-08-27T03:12:45+00:00	2020-08-29T06:59:59+00:00	-1	5v38jdz64b69yjc@marketplace.amazon.com	Timothy N. Gunderson		ABR0022	Purchase Now for Delivery by Monday | Arabella Farm Direct Bouquet of 12 Fresh Cut Pink Roses with a Free Glass Vase	1	0	1	Expedited	TIMOTHY N GUNDERSON	1013PINE DRIVE			WISCONSIN DELLS	WI	53965	US		Enjoy your gift! From Timothy N. Gunderson	false		
112-5472886-6066643	25176346700114	2020-08-27T03:15:08+00:00	2020-08-26T20:15:08-07:00	2020-08-27T03:44:51+00:00	2020-08-29T06:59:59+00:00	-1	mqwgdytvtgt4yqn@marketplace.amazon.com	James Lemann	+1 480-618-5344 ext. 02412	ABR0022	Purchase Now for Delivery by Monday | Arabella Farm Direct Bouquet of 12 Fresh Cut Pink Roses with a Free Glass Vase	1	0	1	Expedited	James Lemann	402 WESTOVER PINES DR			RICHMOND	VA	23223-3458	US			false		
112-2796590-8636201	00714368139802	2020-08-27T03:58:58+00:00	2020-08-26T20:58:58-07:00	2020-08-27T04:22:40+00:00	2020-08-29T06:59:59+00:00	-1	0469kcbfwntk4m7@marketplace.amazon.com	Jaquelyn J. Gleason	+1 929-436-4790 ext. 59642	ABR0033	Purchase Now for Delivery by Monday | Arabella Farm Direct Bouquet of 12 Fresh Cut Orange Roses with a Free Glass Vase	1	0	1	Expedited	The Garrison Family	3692 RAWHIDE CIR			CASTLE ROCK	CO	80104-7861	US		Wishing you peace during this difficult time and holding you close to our hearts.  Much love, Randy and Jackie From Randy and Jackie Kapushion	false		
114-1439944-9345860	66245501084954	2020-08-27T04:16:36+00:00	2020-08-26T21:16:36-07:00	2020-08-27T04:45:09+00:00	2020-08-29T06:59:59+00:00	-1	k4d8bq7sx2gcyhj@marketplace.amazon.com	Thomas	+1 929-436-4790 ext. 67723	ABM022	Purple Extravagance Bouquet by Arabella Bouquets	1	0	1	Expedited	Laurie Parker	131 VILLAGE DR			COTTAGE GROVE	OR	97424-9544	US			false		
113-2480988-8747451	50358573664642	2020-08-27T04:37:09+00:00	2020-08-26T21:37:09-07:00	2020-08-27T05:04:41+00:00	2020-08-29T06:59:59+00:00	-1	m4539bnnt373hjs@marketplace.amazon.com	nar	+1 480-618-5344 ext. 16091	ABR0022	Purchase Now for Delivery by Monday | Arabella Farm Direct Bouquet of 12 Fresh Cut Pink Roses with a Free Glass Vase	1	0	1	Standard	Christina Ahn	2233 MARTIN APT 106			IRVINE	CA	92612-1413	US		Here's to a new chapter filled with love, laughter and God's guidance. Always here for you....  Love, Nareg Eyvazian From Nareg	false		
112-1706834-7593007	28431315436778	2020-08-27T04:37:27+00:00	2020-08-26T21:37:27-07:00	2020-08-27T05:07:38+00:00	2020-08-29T06:59:59+00:00	-1	x3gzykxl2zlpnrm@marketplace.amazon.com	Brian	+1 480-618-5344 ext. 61389	ABR0022	Purchase Now for Delivery by Monday | Arabella Farm Direct Bouquet of 12 Fresh Cut Pink Roses with a Free Glass Vase	1	0	1	Expedited	Brian markell	44 GROVE ST			ADDISON	NY	14801-1227	US			false		
113-9832317-5479424	61580921919802	2020-08-27T04:58:03+00:00	2020-08-26T21:58:03-07:00	2020-08-27T05:20:39+00:00	2020-08-29T06:59:59+00:00	-1	bltj0sgf7p0ymls@marketplace.amazon.com	waiping kuk	+1 929-436-4790 ext. 18985	ABM010	Purchase Now for Delivery by Monday | The Spring Fling Bouquet by Arabella Bouquets with a Free Designer Glass Vase	1	0	1	Standard	Mr. James Bennett, IT Operations and Services	END USER OPERATION WEST LOS ANGELS MEDICAL CENTER	11301 WILSHIRE BLVD		LOS ANGELES	CA	90073-1003	US		Thanks for all the thing you've give to - love, care, time and attentions. Wish all your dreams come true. Happy Birthday to the Star of September From With Love, Kuk	false		
111-1160258-4179460	59369566525002	2020-08-27T05:11:56+00:00	2020-08-26T22:11:56-07:00	2020-08-27T05:39:21+00:00	2020-08-29T06:59:59+00:00	-1	jl8pzlvnx7wtmdr@marketplace.amazon.com	Shayna Jones	+1 480-618-5344 ext. 49258	ABR004	Purchase Now for Delivery by Monday | Arabella Farm Direct Bouquet of 12 Fresh Cut Yellow Roses with a Free Glass Vase	1	0	1	Expedited	Sam Randall	3670 TIFFANY LN			MORRIS	IL	60450-9581	US		Wishing you speedy recovery after surgery and sending you lots of love! Keep being the strong fighter you are! Love you so much! Love always, Shayna From Shayna Jones	false		
113-1412049-5739454	31582438879210	2020-08-27T05:23:32+00:00	2020-08-26T22:23:32-07:00	2020-08-27T05:52:36+00:00	2020-08-29T06:59:59+00:00	-1	n63brqpy1dwfrgs@marketplace.amazon.com	Tiffany Van Alst	+1 929-436-4790 ext. 01869	ABR0022	Purchase Now for Delivery by Monday | Arabella Farm Direct Bouquet of 12 Fresh Cut Pink Roses with a Free Glass Vase	1	0	1	Expedited	Jo Ann Emmons	170 WOODMONT CT			SENOIA	GA	30276-3519	US		I love you!! From Tiffany Van Alst	false		
113-0256176-3201814	47755466274106	2020-08-27T06:26:50+00:00	2020-08-26T23:26:50-07:00	2020-08-27T06:56:29+00:00	2020-08-29T06:59:59+00:00	-1	24zhdfj25gzwcp2@marketplace.amazon.com	Katherine Short	+1 929-436-4790 ext. 23320	ABR012	Purchase Now for Delivery by Monday | Arabella Farm Direct Bouquet of 18 Fresh Cut Pink Roses with a Free Glass Vase	1	0	1	Expedited	Martin Short	15907 ALCIMA AVE			PACIFIC PALISADES	CA	90272-2405	US		Dada Boy  Thank you so much for the perfect getaway in Montecito.  Love you  Katerina From Katherine Short	false		
113-2037137-9976200	52595164874962	2020-08-27T06:32:21+00:00	2020-08-26T23:32:21-07:00	2020-08-27T07:01:05+00:00	2020-08-29T06:59:59+00:00	-1	xkp3vpr91vtkjrz@marketplace.amazon.com	Besik Kobaivanov	+1 480-618-5344 ext. 81702	ABR0022	Purchase Now for Delivery by Monday | Arabella Farm Direct Bouquet of 12 Fresh Cut Pink Roses with a Free Glass Vase	1	0	1	Expedited	Anna Kobaivanov	3456 43RD ST APT D1			LONG ISLAND CITY	NY	11101-1237	US		I love you! From Your Husband	false		
112-6435135-2956218	20573784877802	2020-08-27T07:34:12+00:00	2020-08-27T00:34:12-07:00	2020-08-27T08:03:53+00:00	2020-09-01T06:59:59+00:00	-4	8q6bytc6l91mjw1@marketplace.amazon.com	Julie LeBlanc	6170676 8070	ABR0022	Purchase Now for Delivery by Monday | Arabella Farm Direct Bouquet of 12 Fresh Cut Pink Roses with a Free Glass Vase	1	0	1	Expedited	Greg & Lisa LeBlanc	100 FULTON ST APT 4E			BOSTON	MA	02109-1444	US		Greg and Lisa:  Happy 20th anniversary!  Love and miss you both,  Julie From Julie LeBlanc	false		
114-0981111-4537025	48218857980642	2020-08-27T09:23:43+00:00	2020-08-27T02:23:43-07:00	2020-08-27T09:26:14+00:00	2020-09-01T06:59:59+00:00	-4	l4dg384b4vzj51y@marketplace.amazon.com	Ella Froyman	+1 480-618-5344 ext. 66492	ABR012	Purchase Now for Delivery by Monday | Arabella Farm Direct Bouquet of 18 Fresh Cut Pink Roses with a Free Glass Vase	1	0	1	Expedited	Mila Belopolsky	100 SELWYN RD			NEWTON	MA	02461-2143	US		Dear Milochka, Happy, happy birthday! Be healthy, happy and blessed! May these flowers put a smile on your face and the sweets please your taste buds. :) Love you and miss you, Ella and Alik From Ella	false		
111-9840366-6888215	00792978417266	2020-08-27T10:10:45+00:00	2020-08-27T03:10:45-07:00	2020-08-27T10:39:52+00:00	2020-09-01T06:59:59+00:00	-4	s2ybtdz3sj0062l@marketplace.amazon.com	rohit kapoor	+1 929-436-4790 ext. 80297	ABR0022	Purchase Now for Delivery by Monday | Arabella Farm Direct Bouquet of 12 Fresh Cut Pink Roses with a Free Glass Vase	1	0	1	Expedited	Radhika Vyas	201 S HEIGHTS BLVD APT 2126			HOUSTON	TX	77007-5863	US		Happy birthday to you From rohit kapoor	false		
112-0824818-0830661	61036447609546	2020-08-27T10:16:48+00:00	2020-08-27T03:16:48-07:00	2020-08-27T10:42:17+00:00	2020-09-01T06:59:59+00:00	-4	3qvy7b239w7jl96@marketplace.amazon.com	Ana Skrelja	+1 480-618-5344 ext. 88189	ABR013	Purchase Now for Delivery by Monday | Arabella Farm Direct Bouquet of 18 Fresh Cut Yellow Roses with a Free Glass Vase	1	0	1	Expedited	Joan Seitz	1045 39TH ST			BROOKLYN	NY	11219-1017	US			false		
114-2127145-4191410	01549269225026	2020-08-27T11:18:14+00:00	2020-08-27T04:18:14-07:00	2020-08-27T11:47:10+00:00	2020-09-01T06:59:59+00:00	-4	rdkh38c74bhr87b@marketplace.amazon.com	Barbara	+1 480-618-5344 ext. 07761	ABR0022	Purchase Now for Delivery by Monday | Arabella Farm Direct Bouquet of 12 Fresh Cut Pink Roses with a Free Glass Vase	1	0	1	Expedited	Andrea Nataf	14540 YOSEMITE ST			BRIGHTON	CO	80602-5747	US		Dear Andrea,  Wishing you a speedy recovery. From Love, Barbara	false		
112-7482590-6796244	38408679542954	2020-08-27T11:27:00+00:00	2020-08-27T04:27:00-07:00	2020-08-27T11:55:53+00:00	2020-09-01T06:59:59+00:00	-4	htj8glgl1ftzb08@marketplace.amazon.com	Wendy Powe	+1 480-618-5344 ext. 67333	ABM002	Arabella Bouquets Fresh Cut White Calla Lilies in a Free Designer Glass Vase |	1	0	1	Expedited	Karen Stalvey	3715 N VALDOSTA RD APT 80			VALDOSTA	GA	31602-1086	US		Happy Birthday. Thanks for all you do for the both of us! Love you! From Wendy and Michael Powe	false		
112-9548316-6346658	65722725813274	2020-08-27T11:40:46+00:00	2020-08-27T04:40:46-07:00	2020-08-27T12:08:02+00:00	2020-09-01T06:59:59+00:00	-4	6lsjw1v1pzcy9xv@marketplace.amazon.com	Michael DeCrescenzo	+1 480-618-5344 ext. 37526	ABR0022	Purchase Now for Delivery by Monday | Arabella Farm Direct Bouquet of 12 Fresh Cut Pink Roses with a Free Glass Vase	1	0	1	Expedited	Alana Batson	12 KRAFT DR			DEERFIELD	NY	13502-1126	US		Alana - Wishing you a speedy recovery.  Love you ! From Love, Uncle Mike	false		
113-1997279-0077848	41170686622210	2020-08-27T12:16:20+00:00	2020-08-27T05:16:20-07:00	2020-08-27T12:37:27+00:00	2020-09-01T06:59:59+00:00	-4	f8cwcgtm8kn0wxm@marketplace.amazon.com	kho	+1 480-618-5344 ext. 62354	ABM010	Purchase Now for Delivery by Monday | The Spring Fling Bouquet by Arabella Bouquets with a Free Designer Glass Vase	1	0	1	Expedited	Adam and Lauren	10075 GATE PKWY N APT 613			JACKSONVILLE	FL	32246-4422	US		Congratulations Adam and Lauren and Welcome to the world Charles William! You Both deserve every bit of happiness this baby is going to bring you! So happy for you both and enjoy parenthood. From KO and team	false		
112-6548304-7169829	67203789126698	2020-08-27T12:21:26+00:00	2020-08-27T05:21:26-07:00	2020-08-27T12:42:42+00:00	2020-09-01T06:59:59+00:00	-4	f67m7qyd5vk25qj@marketplace.amazon.com	Maria Hugh	+1 929-436-4790 ext. 55285	ABR0022	Purchase Now for Delivery by Monday | Arabella Farm Direct Bouquet of 12 Fresh Cut Pink Roses with a Free Glass Vase	1	0	1	Expedited	Mrs.Bibi Hassan	384 WOODLAWN AVE			JERSEY CITY	NJ	07305-1306	US		Happy, happy birthday... u make 50 look amazing 😊 From MH.	false		
112-7040850-4183402	38428527419930	2020-08-27T12:22:25+00:00	2020-08-27T05:22:25-07:00	2020-08-27T12:51:17+00:00	2020-09-01T06:59:59+00:00	-4	0tlhwmpkschbwsz@marketplace.amazon.com	Ellen	+1 480-618-5344 ext. 83365	ABM010	Purchase Now for Delivery by Monday | The Spring Fling Bouquet by Arabella Bouquets with a Free Designer Glass Vase	1	0	1	Expedited	Barbara Pruim	5997 SEAN PAUL DR			GLOUCESTER	VA	23061-4364	US		Barb, Happy Birthday! Hope you have a Wonderful Day! Love Ellen & Tim From Ellen	false		
111-8082818-8713035	18888781849810	2020-08-27T12:42:02+00:00	2020-08-27T05:42:02-07:00	2020-08-27T13:10:50+00:00	2020-09-01T06:59:59+00:00	-4	g591w6dlty4pql0@marketplace.amazon.com	chuck campbell	+1 480-618-5344 ext. 68443	ABR0022	Purchase Now for Delivery by Monday | Arabella Farm Direct Bouquet of 12 Fresh Cut Pink Roses with a Free Glass Vase	1	0	1	Expedited	Annie  Campbell	4460 WILSHIRE BLVD APT 704			LOS ANGELES	CA	90010-3733	US			false		
111-4192388-6278606	30977085587354	2020-08-27T12:52:56+00:00	2020-08-27T05:52:56-07:00	2020-08-27T13:16:43+00:00	2020-09-01T06:59:59+00:00	-4	mvsqm9rvzdcz10g@marketplace.amazon.com	Sailasree Vaduri	+1 929-436-4790 ext. 44891	ABR001	Purchase Now for Delivery by Monday | Arabella Bouquets 12 Stems of Fresh Cut Red Roses in a Free Designer Glass Vase	1	0	1	Expedited	Sailasree Vaduri	10913, Trout Creek Place			Davidson	NC	28036	US		Dearest Nancy, Happy Birthday!  You are a loving, giving, faithful, discerning friend.  We are so thankful for our friendship. We wish you the very best. With love and regards, Vaduri Family From Sailasree Vaduri	false		
111-6071089-1342634	52181526863962	2020-08-27T13:36:18+00:00	2020-08-27T06:36:18-07:00	2020-08-27T14:03:09+00:00	2020-09-01T06:59:59+00:00	-4	pdv5dhy93kvtnyl@marketplace.amazon.com	Anthony Shumpert	+1 929-436-4790 ext. 69735	ABR0022	Purchase Now for Delivery by Monday | Arabella Farm Direct Bouquet of 12 Fresh Cut Pink Roses with a Free Glass Vase	1	0	1	Expedited	Beverly Credit	5270 E LOS ANGELES AVE RM 120			SIMI VALLEY	CA	93063-4137	US		You color my life with Jesus From  Heidi Shumpert	false		
113-4861901-1203425	07834872681154	2020-08-27T14:07:44+00:00	2020-08-27T07:07:44-07:00	2020-08-27T14:26:41+00:00	2020-09-01T06:59:59+00:00	-4	ydnb7rvw73nyzkv@marketplace.amazon.com	Bernell	+1 929-436-4790 ext. 98724	ABR0055	Purchase Now for Delivery by Monday | Arabella Farm Direct Bouquet of 12 Stems of Fresh Cut Hot Pink Roses in a Free Designer Glass Vase	1	0	1	Standard	Bernastine Buchanan	15025 FLORENCE DR			MAPLE HEIGHTS	OH	44137-4707	US			false		
113-0315725-7997800	51158682565890	2020-08-27T14:07:44+00:00	2020-08-27T07:07:44-07:00	2020-08-27T14:29:57+00:00	2020-09-01T06:59:59+00:00	-4	ydnb7rvw73nyzkv@marketplace.amazon.com	Bernell	+1 480-618-5344 ext. 71736	ABR004	Purchase Now for Delivery by Monday | Arabella Farm Direct Bouquet of 12 Fresh Cut Yellow Roses with a Free Glass Vase	1	0	1	Standard	Miranda Gutierrez	7413 E CALLE SINALOA			TUCSON	AZ	85710-3722	US			false		
111-3315612-1918613	37830580908018	2020-08-27T14:23:26+00:00	2020-08-27T07:23:26-07:00	2020-08-27T14:51:46+00:00	2020-09-01T06:59:59+00:00	-4	9drj27zvb8ytn8s@marketplace.amazon.com	Boris Karaman	+1 929-436-4790 ext. 40125	ABR0022	Purchase Now for Delivery by Monday | Arabella Farm Direct Bouquet of 12 Fresh Cut Pink Roses with a Free Glass Vase	1	0	1	Standard	Lyudmila Chapskiy	2025 SE 82ND AVE			PORTLAND	OR	97216-1407	US		Dear T. Luda,  I’m sorry about your loss. You are in my thought and prayers. From Yuliya  Karaman	false		
113-7774134-7922626	61764142514754	2020-08-27T14:34:50+00:00	2020-08-27T07:34:50-07:00	2020-08-27T15:01:24+00:00	2020-09-01T06:59:59+00:00	-4	hrfgv036b5l1p22@marketplace.amazon.com	Melanie STuckey	+1 480-618-5344 ext. 52458	ABR001	Purchase Now for Delivery by Monday | Arabella Bouquets 12 Stems of Fresh Cut Red Roses in a Free Designer Glass Vase	1	0	1	Expedited	Kerri Renfroe	3501 MEMORIAL PKWY SW STE 400			HUNTSVILLE	AL	35801-6902	US		YOU MADE THAT CLOSING HAPPEN FOR ME YESTERDAY AS YOU HAVE DONE BEFORE. Just wanted you to know Synergy Mortgage Group Appreciates you!  I hope you see these as beautiful as your heart!!! Thank you From Melanie STuckey	false		
114-4343684-8273862	29676953456266	2020-08-27T14:32:59+00:00	2020-08-27T07:32:59-07:00	2020-08-27T15:02:01+00:00	2020-09-01T06:59:59+00:00	-4	zb63z6pghvxzgsw@marketplace.amazon.com	Mariam Pstep	+1 480-618-5344 ext. 78601	ABR0022	Purchase Now for Delivery by Monday | Arabella Farm Direct Bouquet of 12 Fresh Cut Pink Roses with a Free Glass Vase	1	0	1	Expedited	Anzhik Romyan	1116 ROSEDALE AVE APT 2			GLENDALE	CA	91201-4135	US		Anzhik morkur jan! Happy 85th birthday! Shnorhavor 85-amyakd. Aroxjutyun enq maxtum yev bazum tarineri kyanq (!) u tsankutyunneri irakanatsum. From Pachikner, Shahane, Mariam & Astgh	false		
114-1931678-5174658	36277091842562	2020-08-27T15:18:02+00:00	2020-08-27T08:18:02-07:00	2020-08-27T15:46:33+00:00	2020-09-01T06:59:59+00:00	-4	9kbthn3qntnjt8t@marketplace.amazon.com	Eric Joel Weiler	+1 929-436-4790 ext. 82740	ABR0022	Purchase Now for Delivery by Monday | Arabella Farm Direct Bouquet of 12 Fresh Cut Pink Roses with a Free Glass Vase	1	0	1	Expedited	Barbara Weiler	3614 N WOODGATE DR			BEVERLY HILLS	FL	34465-3378	US		We love you!!!!   Happy Birthday! From Rosanne, Eric, Dan, Leigh and Beth	false		
113-5107272-7647431	67916095917314	2020-08-27T15:32:19+00:00	2020-08-27T08:32:19-07:00	2020-08-27T15:51:33+00:00	2020-09-01T06:59:59+00:00	-4	4mjv2pvxny9blt9@marketplace.amazon.com	kevin	+1 480-618-5344 ext. 00571	ABR0022	Purchase Now for Delivery by Monday | Arabella Farm Direct Bouquet of 12 Fresh Cut Pink Roses with a Free Glass Vase	1	0	1	Expedited	Jordan Karim	207 OLIVER CIR			NICHOLASVILLE	KY	40356-6524	US		Happy Birthday Enjoy your Special Day From Dad & Mom	false		
114-9092893-8689867	03159743264746	2020-08-27T15:31:41+00:00	2020-08-27T08:31:41-07:00	2020-08-27T16:00:52+00:00	2020-09-01T06:59:59+00:00	-4	lj7pflvlh2832mg@marketplace.amazon.com	Gricelda Flores	+1 929-436-4790 ext. 10684	ABR0022	Purchase Now for Delivery by Monday | Arabella Farm Direct Bouquet of 12 Fresh Cut Pink Roses with a Free Glass Vase	1	0	1	Expedited	Romelia Flores	11214 SHANNON HILLS DR			HOUSTON	TX	77099-1611	US			false		
113-2657495-6686650	06096996466210	2020-08-27T16:01:56+00:00	2020-08-27T09:01:56-07:00	2020-08-27T16:29:22+00:00	2020-09-01T06:59:59+00:00	-4	hvf49c288wghvbs@marketplace.amazon.com	Deetra	+1 480-618-5344 ext. 22280	ABR0066	Purchase Now for Delivery by Monday | Arabella Bouquets 12 Stems of Fresh Cut White Roses in a Free Designer Glass Vase	1	0	1	Standard	Daphne Edwards	19127 120TH AVE			SAINT ALBANS	NY	11412-3613	US			false		
113-8215639-3009035	13867525681226	2020-08-27T16:21:18+00:00	2020-08-27T09:21:18-07:00	2020-08-27T16:43:07+00:00	2020-09-01T06:59:59+00:00	-4	qrtmr6db0f3b616@marketplace.amazon.com	David A. Cagle	+1 929-436-4790 ext. 51527	ABR0022	Purchase Now for Delivery by Monday | Arabella Farm Direct Bouquet of 12 Fresh Cut Pink Roses with a Free Glass Vase	1	0	1	Expedited	Maria J. Kruse	7716 TIMBERCREST DR			DAYTON	OHIO	45424-1936	US		Mici, with these roses we are sending Much Love, Hugs, Kisses, Kind wishes, beautiful thoughts And soulful prayers to you! From Judy, Laura & Susan	false		
111-3730529-8296248	11830870647042	2020-08-27T16:46:07+00:00	2020-08-27T09:46:07-07:00	2020-08-27T17:15:08+00:00	2020-09-01T06:59:59+00:00	-4	93gt66rnv7p8x0x@marketplace.amazon.com	Trisha A. McCarthy	+1 929-436-4790 ext. 91851	ABR0022	Purchase Now for Delivery by Monday | Arabella Farm Direct Bouquet of 12 Fresh Cut Pink Roses with a Free Glass Vase	1	0	1	Expedited	Susan Ulmer	5939 ULMER RD			BEAUMONT	MS	39423-2695	US		My sincerest condolences during this difficult time.  Love Trisha From Trisha A. McCarthy	false		
114-0442465-8001818	45193139551202	2020-08-27T17:16:32+00:00	2020-08-27T10:16:32-07:00	2020-08-27T17:44:26+00:00	2020-09-01T06:59:59+00:00	-4	t22v007tqjrl1kk@marketplace.amazon.com	Joy Bryant	+1 480-618-5344 ext. 56860	ABR0022	Purchase Now for Delivery by Monday | Arabella Farm Direct Bouquet of 12 Fresh Cut Pink Roses with a Free Glass Vase	1	0	1	Expedited	Le’ann Ferris	612 KEEL WAY			AZLE	TX	76020-4911	US		We’ve missed YOU!! We are so glad you are getting stronger and doing well!! From Joy Bryant, Shannette Simon, Pam McCormick, Dianne Hopper and Vinita Walker	false		
111-5323905-3789024	22014052146370	2020-08-27T17:15:03+00:00	2020-08-27T10:15:03-07:00	2020-08-27T17:45:00+00:00	2020-09-01T06:59:59+00:00	-4	xd89kt2gcbg2w7l@marketplace.amazon.com	Bianca Mora	+1 480-618-5344 ext. 44393	ABR0055	Purchase Now for Delivery by Monday | Arabella Farm Direct Bouquet of 12 Stems of Fresh Cut Hot Pink Roses in a Free Designer Glass Vase	1	0	1	Expedited	Janelle Seibert	15252 Road 23	93637 Madera		Madera	CALIFORNIA	93637	US			false		
112-1578305-9046604	52742903030330	2020-08-27T17:26:39+00:00	2020-08-27T10:26:39-07:00	2020-08-27T17:55:40+00:00	2020-09-01T06:59:59+00:00	-4	6vklbkl4tpvd579@marketplace.amazon.com	Tricia Penniecook	+1 929-436-4790 ext. 38783	ABR004	Purchase Now for Delivery by Monday | Arabella Farm Direct Bouquet of 12 Fresh Cut Yellow Roses with a Free Glass Vase	1	0	1	Expedited	Nadia Williams	11486 FLOYD CIR			BEAUMONT	CA	92223-7459	US		Congratulations on your emergence as a woman leader. Proud of you and love you. From Tricia Penniecook	false		
113-9383591-3729822	40672383894546	2020-08-27T17:40:13+00:00	2020-08-27T10:40:13-07:00	2020-08-27T18:00:00+00:00	2020-09-01T06:59:59+00:00	-4	hf4g5kyn98n1xw2@marketplace.amazon.com	Laurens Derouck	+1 480-618-5344 ext. 37086	ABR0022	Purchase Now for Delivery by Monday | Arabella Farm Direct Bouquet of 12 Fresh Cut Pink Roses with a Free Glass Vase	1	0	1	Expedited	Michelle Allen	PEACEFUL HEART PILGRIMAGE	1167 REPUBLICAN ST		SEATTLE	WA	98109-5555	US		Happy birthday Michelle :-) Hope you are feeling better! x Laurens From Laurens Derouck	false		
113-7141869-0889839	18515070286850	2020-08-27T17:35:08+00:00	2020-08-27T10:35:08-07:00	2020-08-27T18:02:56+00:00	2020-09-01T06:59:59+00:00	-4	s6wvytqrwl5zdny@marketplace.amazon.com	gailbrady@yahoo.com	+1 929-436-4790 ext. 18964	ABR0066	Purchase Now for Delivery by Monday | Arabella Bouquets 12 Stems of Fresh Cut White Roses in a Free Designer Glass Vase	1	0	1	Expedited	CAROLYN BRADY KENNY	517 BASHFORD LN			ALEXANDRIA	VA	22314-1132	US			false		
112-4965035-3303404	22213365553138	2020-08-27T17:58:42+00:00	2020-08-27T10:58:42-07:00	2020-08-27T18:21:39+00:00	2020-09-01T06:59:59+00:00	-4	53lx2nf7gsjm2p4@marketplace.amazon.com	Mark Felthauser	+1 480-618-5344 ext. 19605	ABM010	Purchase Now for Delivery by Monday | The Spring Fling Bouquet by Arabella Bouquets with a Free Designer Glass Vase	1	0	1	Expedited	Joanna McCaffrey	740 W FULTON ST APT 702			CHICAGO	IL	60661-1078	US		Dear Joanna, Wishing You a Happy Birthday! From Mark	false		
114-2520013-0872204	45606689843602	2020-08-27T18:00:47+00:00	2020-08-27T11:00:47-07:00	2020-08-27T18:29:20+00:00	2020-09-01T06:59:59+00:00	-4	9m8fvjt21b05t2t@marketplace.amazon.com	Paul Bilson	+1 929-436-4790 ext. 17365	ABR0033	Purchase Now for Delivery by Monday | Arabella Farm Direct Bouquet of 12 Fresh Cut Orange Roses with a Free Glass Vase	1	0	1	Expedited	Koukoulas Family	12964 DURHAM DR			WARREN	MI	48088-6911	US		Thoughts and prayers during this difficult time. May his memory be eternal. Elaine,Paul, Evanthia and Stephan From Paul Bilson	false		
112-0065123-9849879	39689645252474	2020-08-27T18:31:37+00:00	2020-08-27T11:31:37-07:00	2020-08-27T18:59:18+00:00	2020-09-01T06:59:59+00:00	-4	hsmvbhtx9x45t0m@marketplace.amazon.com	Andrea Atwood	+1 929-436-4790 ext. 42760	ABM010	Purchase Now for Delivery by Monday | The Spring Fling Bouquet by Arabella Bouquets with a Free Designer Glass Vase	1	0	1	Expedited	Ashley Tish	7171 BUFFALO SPEEDWAY APT 627			HOUSTON	TX	77025-1428	US		Tish, we are so sorry about your co-worker. Our thoughts and prayers are with you and her family right now. We love you!!! From Lady Commune	false		
114-7589304-1946628	21788059006026	2020-08-27T18:29:27+00:00	2020-08-27T11:29:27-07:00	2020-08-27T18:59:19+00:00	2020-09-01T06:59:59+00:00	-4	r7mm7f179d7yw61@marketplace.amazon.com	Andrea M. Bieser	+1 929-436-4790 ext. 86269	ABR0022	Purchase Now for Delivery by Monday | Arabella Farm Direct Bouquet of 12 Fresh Cut Pink Roses with a Free Glass Vase	1	0	1	Expedited	Christine Sullivan	362 PIERCE ST APT C			SAN FRANCISCO	CA	94117-2446	US		Happy Birthday Christine! Love, Andrea From Andrea M. Bieser	false		
113-3488836-3826628	18411086644058	2020-08-27T19:06:03+00:00	2020-08-27T12:06:03-07:00	2020-08-27T19:08:58+00:00	2020-08-29T06:59:59+00:00	-1	d13b4b5pwgpk6vr@marketplace.amazon.com	Stacy Cullum Flemister	+1 929-436-4790 ext. 49240	ABM010	Purchase Now for Delivery by Monday | The Spring Fling Bouquet by Arabella Bouquets with a Free Designer Glass Vase	1	0	1	NextDay	Muffy Cullum	4 139TH ST UNIT 3			OCEAN CITY	MD	21842-6200	US		Happy Birthday, Mom!  Love you! From Stacy	false		
111-6043617-9059427	36908094149650	2020-08-27T18:41:18+00:00	2020-08-27T11:41:18-07:00	2020-08-27T19:11:19+00:00	2020-09-01T06:59:59+00:00	-4	b8m9ngmhl4pxs8w@marketplace.amazon.com	Patricia	+1 929-436-4790 ext. 58099	ABM010	Purchase Now for Delivery by Monday | The Spring Fling Bouquet by Arabella Bouquets with a Free Designer Glass Vase	1	0	1	Expedited	Joan Ingemi	618 S CORPINO DE PECHO			GREEN VALLEY	AZ	85614-1923	US			false		
111-3611965-0417015	64714886908562	2020-08-27T18:50:21+00:00	2020-08-27T11:50:21-07:00	2020-08-27T19:11:32+00:00	2020-09-01T06:59:59+00:00	-4	pgx27rrzv481j9t@marketplace.amazon.com	Tommy Baumgardner	+1 415-851-9136 ext. 26385	ABR0055	Purchase Now for Delivery by Monday | Arabella Farm Direct Bouquet of 12 Stems of Fresh Cut Hot Pink Roses in a Free Designer Glass Vase	1	0	1	Expedited	Michelle Herrera	18847 2ND ST			BLOOMINGTON	CA	92316-3760	US		I thought a pink peony would look amazing with these pink roses. From Tommy Baumgardner	false		
114-8819065-3973002	67522563178122	2020-08-27T19:29:45+00:00	2020-08-27T12:29:45-07:00	2020-08-27T19:30:39+00:00	2020-09-01T06:59:59+00:00	-4	jgp6fkrrdldsyjw@marketplace.amazon.com	Rebecca Reardon	+1 480-618-5344 ext. 60551	ABM010	Purchase Now for Delivery by Monday | The Spring Fling Bouquet by Arabella Bouquets with a Free Designer Glass Vase	1	0	1	Expedited	Ronnie Storey and Molly Moyer	1569 SAINT PAUL ST			DENVER	CO	80206-1612	US		Sending you mucho mucho amor. We will be keeping the faith that you'll be dancing by your birthday. We love you, Becky and Maggie From Becky and Maggie	false		
111-5398207-7128216	16039761637378	2020-08-27T19:19:59+00:00	2020-08-27T12:19:59-07:00	2020-08-27T19:30:54+00:00	2020-09-01T06:59:59+00:00	-4	npy590y9krwmwr2@marketplace.amazon.com	Morning Star Missionary Baptist Church	+1 480-618-5344 ext. 97516	ABM002	Arabella Bouquets Fresh Cut White Calla Lilies in a Free Designer Glass Vase |	1	0	1	Expedited	Minister Haver Crosley	752 WYNGATE DR W			VALLEY STREAM	NY	11580-1445	US		We love you much and pray that God will continue to strengthen you and uphold you with his righteous right hand. You are loved by the best! From Min. Althea & Debra From Min. Althea & Debra	false		
113-0012498-1442647	63218088416186	2020-08-27T19:22:21+00:00	2020-08-27T12:22:21-07:00	2020-08-27T19:50:58+00:00	2020-09-01T06:59:59+00:00	-4	7p4733dzq8fbmf0@marketplace.amazon.com	Suzanne Wertman	+1 480-618-5344 ext. 43188	ABR0055	Purchase Now for Delivery by Monday | Arabella Farm Direct Bouquet of 12 Stems of Fresh Cut Hot Pink Roses in a Free Designer Glass Vase	1	0	1	Expedited	Cheryl Fellem	7770 W CHADWICK RD			DEWITT	MI	48820-8052	US		HAPPY BIRTHDAY, Cheryl!  Hope you have a wonderful day!  :-) From Todd, Suzanne, Logan and Troy	false		
112-2353189-0120254	62130694294658	2020-08-27T19:29:15+00:00	2020-08-27T12:29:15-07:00	2020-08-27T19:59:34+00:00	2020-09-01T06:59:59+00:00	-4	s98267s455xkx1v@marketplace.amazon.com	Carina Gosch	+1 480-618-5344 ext. 96017	ABR0066	Purchase Now for Delivery by Monday | Arabella Bouquets 12 Stems of Fresh Cut White Roses in a Free Designer Glass Vase	1	0	1	Expedited	Carina Gosch	41759 VALENCIA WAY			TEMECULA	CA	92592-9713	US			false		
114-2760901-5773047	35676265993410	2020-08-27T20:13:22+00:00	2020-08-27T13:13:22-07:00	2020-08-27T20:43:56+00:00	2020-09-01T06:59:59+00:00	-4	3j2kvpvrkbxg0wf@marketplace.amazon.com	Wendi Caserotti	+1 929-436-4790 ext. 33851	ABR0033	Purchase Now for Delivery by Monday | Arabella Farm Direct Bouquet of 12 Fresh Cut Orange Roses with a Free Glass Vase	1	0	1	Expedited	Wendi Caserotti	16450 N Hawthorne Ln			Mount Vernon	IL	62864-1905	US			false		
112-4451651-4725862	09765391345810	2020-08-27T20:24:59+00:00	2020-08-27T13:24:59-07:00	2020-08-27T20:54:11+00:00	2020-09-01T06:59:59+00:00	-4	pfc5jjbkcqzd9hp@marketplace.amazon.com	Meghan	+1 929-436-4790 ext. 26952	ABR0055	Purchase Now for Delivery by Monday | Arabella Farm Direct Bouquet of 12 Stems of Fresh Cut Hot Pink Roses in a Free Designer Glass Vase	1	0	1	Expedited	Meme	15510 VIA EDUARDO			MORGAN HILL	CA	95037-5351	US		We love you and miss you MEME!! From The Bailey Bunch	false		
112-0558865-4208269	10815949130458	2020-08-27T20:31:44+00:00	2020-08-27T13:31:44-07:00	2020-08-27T21:00:33+00:00	2020-09-01T06:59:59+00:00	-4	pfc5jjbkcqzd9hp@marketplace.amazon.com	Meghan	+1 480-618-5344 ext. 86677	ABR0022	Purchase Now for Delivery by Monday | Arabella Farm Direct Bouquet of 12 Fresh Cut Pink Roses with a Free Glass Vase	1	0	1	Expedited	Tony and Chris Spencer	73 TOYON RD			ATHERTON	CA	94027-2219	US		Happy EARLY anniversary!!! We can’t wait to get together!! From The Bailey Bunch	false		
111-5275210-5437025	23245699424090	2020-08-27T20:54:55+00:00	2020-08-27T13:54:55-07:00	2020-08-27T21:18:42+00:00	2020-09-01T06:59:59+00:00	-4	4c4tcqpd8y20nmb@marketplace.amazon.com	Erin Wagner	+1 480-618-5344 ext. 72311	ABR0066	Purchase Now for Delivery by Monday | Arabella Bouquets 12 Stems of Fresh Cut White Roses in a Free Designer Glass Vase	1	0	1	Expedited	Alesha Herrera	724 E US HIGHWAY 80 # 24			FORNEY	TX	75126-8715	US			false		
112-0487022-5506642	55971843263490	2020-08-27T03:09:20+00:00	2020-08-26T20:09:20-07:00	2020-08-27T22:01:39+00:00	2020-09-01T06:59:59+00:00	-4	dd9mq9t4lrjwmvx@marketplace.amazon.com	Terri Luciana	+1 480-618-5344 ext. 33077	ABR0055	Purchase Now for Delivery by Monday | Arabella Farm Direct Bouquet of 12 Stems of Fresh Cut Hot Pink Roses in a Free Designer Glass Vase	1	0	1	Expedited	Nicole Hood	104 BAILEY RENEE CT			WAYNESVILLE	MO	65583-3448	US		Enjoy your gift! You're the best Mom Nicole, & such a good wife, always doing your best. We love you always!❤ From Terri Luciana	false		
113-1492246-2077850	07765021188370	2020-08-27T21:56:54+00:00	2020-08-27T14:56:54-07:00	2020-08-27T22:21:24+00:00	2020-09-01T06:59:59+00:00	-4	w46l7czhpqrhbb6@marketplace.amazon.com	Katrina Rowley	+1 480-618-5344 ext. 31942	ABR004	Purchase Now for Delivery by Monday | Arabella Farm Direct Bouquet of 12 Fresh Cut Yellow Roses with a Free Glass Vase	1	0	1	Expedited	Connie Hannah	37525 VINEYARD KNOLL DR			MURRIETA	CA	92562-3213	US		With our deepest sympathy, Connie, on John's passing.  We will miss him very much.  We love you and are here for you. From Katrina & Rich	false		
111-2525491-1003434	11164116844010	2020-08-27T22:01:26+00:00	2020-08-27T15:01:26-07:00	2020-08-27T22:32:05+00:00	2020-09-01T06:59:59+00:00	-4	cgg4dk2gf9v5bz2@marketplace.amazon.com	Omar Parvaiz	+1 929-436-4790 ext. 27301	ABR0033	Purchase Now for Delivery by Monday | Arabella Farm Direct Bouquet of 12 Fresh Cut Orange Roses with a Free Glass Vase	1	0	1	Expedited	Omar Parvaiz	11309 Grey Oaks Estates Way			GLEN ALLEN	VA	23059	US			false		
113-5404607-7085046	18413880327690	2020-08-27T22:06:18+00:00	2020-08-27T15:06:18-07:00	2020-08-27T22:35:28+00:00	2020-09-01T06:59:59+00:00	-4	y9pnckw3ddmjzqs@marketplace.amazon.com	Kahlida	+1 415-851-9136 ext. 83654	ABR0022	Purchase Now for Delivery by Monday | Arabella Farm Direct Bouquet of 12 Fresh Cut Pink Roses with a Free Glass Vase	1	0	1	Expedited	Carmaleta Bowers	8501 ASHFIELD HILLS TER			RICHMOND	VA	23227-1264	US		Welcome home! May God continue to bless you with amazing, divine health! I love you! From Love Kahlida	false		
112-3331348-5549806	64092473474274	2020-08-27T22:28:51+00:00	2020-08-27T15:28:51-07:00	2020-08-27T22:57:54+00:00	2020-09-01T06:59:59+00:00	-4	v2yj6h38kwpz8j4@marketplace.amazon.com	Brian Logsdon	+1 480-618-5344 ext. 03401	ABR0022	Purchase Now for Delivery by Monday | Arabella Farm Direct Bouquet of 12 Fresh Cut Pink Roses with a Free Glass Vase	1	0	1	Expedited	Cordelia Ray	7432 TIMBER FALLS CT			JACKSONVILLE	FL	32219-4358	US		TO:  Laura Logsdon  I love and miss you terribly - you are always on my mind and in my heart. From Brian Logsdon	false		
114-5915991-2115439	10274499771482	2020-08-27T22:48:57+00:00	2020-08-27T15:48:57-07:00	2020-08-27T23:17:01+00:00	2020-09-01T06:59:59+00:00	-4	86yyww9dgz87b5v@marketplace.amazon.com	Kent	+1 929-436-4790 ext. 36917	ABR0022	Purchase Now for Delivery by Monday | Arabella Farm Direct Bouquet of 12 Fresh Cut Pink Roses with a Free Glass Vase	1	0	1	Expedited	BARBARA WHITING	1320 N ROSE DR			STEPHENVILLE	TX	76401-2326	US		I love you Mom!! From Kent	false		
111-7410104-5073855	32995333742674	2020-08-27T23:02:06+00:00	2020-08-27T16:02:06-07:00	2020-08-27T23:31:09+00:00	2020-09-01T06:59:59+00:00	-4	xfwc9w25hcb9dgp@marketplace.amazon.com	Kianna	+1 929-436-4790 ext. 83474	ABR0022	Purchase Now for Delivery by Monday | Arabella Farm Direct Bouquet of 12 Fresh Cut Pink Roses with a Free Glass Vase	1	0	1	Expedited	Kianna	164 W 141ST ST APT 1D			NEW YORK	NY	10030-1818	US		Happy Birthday Joy From Donna	false		
111-3512382-1717864	42515817145514	2020-08-27T23:12:34+00:00	2020-08-27T16:12:34-07:00	2020-08-27T23:40:24+00:00	2020-09-01T06:59:59+00:00	-4	wk4592cjblxvm7d@marketplace.amazon.com	waheeda hussein	+1 480-618-5344 ext. 25334	ABR0022	Purchase Now for Delivery by Monday | Arabella Farm Direct Bouquet of 12 Fresh Cut Pink Roses with a Free Glass Vase	1	0	1	Expedited	Neva M Davis	1925 TALLMAN HOLLOW RD			MONTOURSVILLE	PA	17754-8585	US		We miss and love you. Hope you like the roses and they make you smile. We pray you get rain. From Darrell and Waheeda	false		
114-0106104-7202633	39988573084226	2020-08-27T23:20:36+00:00	2020-08-27T16:20:36-07:00	2020-08-27T23:44:57+00:00	2020-09-01T06:59:59+00:00	-4	bjyz3s628znnfry@marketplace.amazon.com	Kristen Brown	+1 929-436-4790 ext. 15005	ABR0022	Purchase Now for Delivery by Monday | Arabella Farm Direct Bouquet of 12 Fresh Cut Pink Roses with a Free Glass Vase	1	0	1	Expedited	Rebecca Knighton	1116 MORGAN ST			FORT COLLINS	CO	80524-3835	US		Our hearts are with you and your family during this time. The Office of Learning Supports Team From The Office of Learning Supports	false		
112-9332307-3085867	60601843534338	2020-08-27T23:44:43+00:00	2020-08-27T16:44:43-07:00	2020-08-28T00:13:23+00:00	2020-09-01T06:59:59+00:00	-4	ynq8zbldvg0zbs6@marketplace.amazon.com	Laura Khan	+1 929-436-4790 ext. 42887	ABM010	Purchase Now for Delivery by Monday | The Spring Fling Bouquet by Arabella Bouquets with a Free Designer Glass Vase	1	0	1	Expedited	Tom Schlemmer	1525 REDWOOD DR			LOS ALTOS	CA	94024-7255	US		Tom, Lea, Andrea & Stuart - you are our angels.  Love, Laura, Linda, Jim, Faith & Chip From Laura Khan	false		
114-6445857-3081865	19502618465066	2020-08-28T00:04:35+00:00	2020-08-27T17:04:35-07:00	2020-08-28T00:35:09+00:00	2020-09-01T06:59:59+00:00	-4	bmfy52pj7m9pc4b@marketplace.amazon.com	carolyn cardamis	+1 929-436-4790 ext. 83847	ABR0022	Purchase Now for Delivery by Monday | Arabella Farm Direct Bouquet of 12 Fresh Cut Pink Roses with a Free Glass Vase	1	0	1	Expedited	olympia milonas	206 149TH PL			WHITESTONE	NEW YORK	11357-1131	US			false		
111-6026817-7300263	10458359273674	2020-08-28T00:21:51+00:00	2020-08-27T17:21:51-07:00	2020-08-28T00:51:14+00:00	2020-09-01T06:59:59+00:00	-4	t512m4wbk6vlssh@marketplace.amazon.com	Cindy Lake	+1 929-436-4790 ext. 20391	ABM030	The Just Because Bouquet by Arabella Bouquets	1	0	1	Expedited	Virginia Nichols	1411 E 19TH AVE			WINFIELD	KS	67156-5203	US			false		
111-7584468-0866640	07470096459250	2020-08-28T01:12:15+00:00	2020-08-27T18:12:15-07:00	2020-08-28T01:13:07+00:00	2020-08-29T06:59:59+00:00	-1	jkpllw9jlpnw0wz@marketplace.amazon.com	Christian Birsching	+1 480-618-5344 ext. 21488	ABR0022	Purchase Now for Delivery by Monday | Arabella Farm Direct Bouquet of 12 Fresh Cut Pink Roses with a Free Glass Vase	1	0	1	NextDay	Bethany Brown	480 S JADE LN			ROUND LAKE	IL	60073-8162	US		I know you've had a tough year at work. I'm sorry you haven't been respected. For what it's worth, I think you're wonderful, and I appreciate everything you do! From Christian Birsching	false		
113-5825818-2089855	35111717050578	2020-08-28T00:49:56+00:00	2020-08-27T17:49:56-07:00	2020-08-28T01:17:28+00:00	2020-09-01T06:59:59+00:00	-4	xl8xkgqj3y2d6wk@marketplace.amazon.com	Susan	+1 480-618-5344 ext. 03066	ABM0044	Purchase Now for Delivery by Monday | Arabella Farm Direct Bouquet of Fresh Cut Blue Hydrangea with a Free Glass Vase	1	0	1	Expedited	Bob shepard	504 BRISTLE CONE LN			NAPLES	FLORIDA	34113-8317	US		Just wanted to say I love you and thank you for everything! From Kelly	false		
113-3737645-7321862	26964623316178	2020-08-28T01:11:35+00:00	2020-08-27T18:11:35-07:00	2020-08-28T01:33:06+00:00	2020-09-01T06:59:59+00:00	-4	zcmy9v33rd3tn1f@marketplace.amazon.com	Michael Haney	+1 480-618-5344 ext. 63582	ABR0055	Purchase Now for Delivery by Monday | Arabella Farm Direct Bouquet of 12 Stems of Fresh Cut Hot Pink Roses in a Free Designer Glass Vase	1	0	1	Expedited	Misty marconi	7730 SAGEBRUSH DR			PORT RICHEY	FL	34668-4143	US		Hope you Enjoy your gift!  I really do care alot about you From Michael Haney	false		
114-7157761-1404266	39068448302418	2020-08-28T01:07:29+00:00	2020-08-27T18:07:29-07:00	2020-08-28T01:34:36+00:00	2020-09-01T06:59:59+00:00	-4	t76jf9w6qd746jg@marketplace.amazon.com	Grannell Knox	+1 929-436-4790 ext. 40792	ABM010	Purchase Now for Delivery by Monday | The Spring Fling Bouquet by Arabella Bouquets with a Free Designer Glass Vase	1	0	1	Expedited	Marie Knox	20 KNOLLS RD			NEW FAIRFIELD	CT	06812-3435	US			false		
114-5778636-4860205	07021777960618	2020-08-28T01:15:08+00:00	2020-08-27T18:15:08-07:00	2020-08-28T01:44:41+00:00	2020-09-01T06:59:59+00:00	-4	bx9399ghx3jc3yk@marketplace.amazon.com	jon marshall	+1 480-618-5344 ext. 69201	ABR0022	Purchase Now for Delivery by Monday | Arabella Farm Direct Bouquet of 12 Fresh Cut Pink Roses with a Free Glass Vase	1	0	1	Expedited	frost abe	3711 NICOLET AVE APT 4			LOS ANGELES	CA	90016-5584	US		Pretty as a Rose!!! From Your adoring BF	false		
112-0222900-2625806	17150642868594	2020-08-28T01:44:25+00:00	2020-08-27T18:44:25-07:00	2020-08-28T01:47:16+00:00	2020-08-29T06:59:59+00:00	-1	4pg93z7s7vzh8x1@marketplace.amazon.com	Cherie Lindberg	+1 929-436-4790 ext. 50182	ABR0022	Purchase Now for Delivery by Monday | Arabella Farm Direct Bouquet of 12 Fresh Cut Pink Roses with a Free Glass Vase	1	0	1	NextDay	Melanie Young	963 9TH ST			BOULDER	CO	80302-7225	US			false		
112-4224607-7613825	11517438207474	2020-08-28T01:54:22+00:00	2020-08-27T18:54:22-07:00	2020-08-28T01:57:08+00:00	2020-08-29T06:59:59+00:00	-1	4pg93z7s7vzh8x1@marketplace.amazon.com	Cherie Lindberg	+1 480-618-5344 ext. 36785	ABR0055	Purchase Now for Delivery by Monday | Arabella Farm Direct Bouquet of 12 Stems of Fresh Cut Hot Pink Roses in a Free Designer Glass Vase	1	0	1	NextDay	Rachael Johnson	1532 W 18TH PL APT 1F			CHICAGO	IL	60608-4299	US			false		
111-9788840-5738661	05809546871442	2020-08-28T01:38:31+00:00	2020-08-27T18:38:31-07:00	2020-08-28T02:08:38+00:00	2020-09-01T06:59:59+00:00	-4	7kp6wdd7p5bdvpj@marketplace.amazon.com	William  H Gilmore	+1 929-436-4790 ext. 51927	ABR001	Purchase Now for Delivery by Monday | Arabella Bouquets 12 Stems of Fresh Cut Red Roses in a Free Designer Glass Vase	1	0	1	Expedited	JEANERA  PINCIERO    ooh ah yes	767 S HUMER ST			ENOLA	PA	17025-2623	US			false		
114-3856988-9468234	21787645417658	2020-08-28T02:05:56+00:00	2020-08-27T19:05:56-07:00	2020-08-28T02:11:11+00:00	2020-08-29T06:59:59+00:00	-1	77nhxytd5pm16gb@marketplace.amazon.com	Cynthia A. Lesher	+1 480-618-5344 ext. 39833	ABR0055	Purchase Now for Delivery by Monday | Arabella Farm Direct Bouquet of 12 Stems of Fresh Cut Hot Pink Roses in a Free Designer Glass Vase	1	0	1	NextDay	Cynthia A. Lesher	500 J ST UNIT 1701			SACRAMENTO	CA	95814-2335	US			false		
111-9441430-2165812	57723339144074	2020-08-28T02:25:59+00:00	2020-08-27T19:25:59-07:00	2020-08-28T02:51:42+00:00	2020-09-01T06:59:59+00:00	-4	1qw42sdf46ffdjw@marketplace.amazon.com	Corey Connelly	+1 929-436-4790 ext. 13834	ABR0055	Purchase Now for Delivery by Monday | Arabella Farm Direct Bouquet of 12 Stems of Fresh Cut Hot Pink Roses in a Free Designer Glass Vase	1	0	1	Expedited	Becky	7755 E WESTERN HILLS ST			MESA	AZ	85207-0976	US		Hi, I'm thinking of you. 🙂 From Corey Connelly	false		
113-3439116-6671454	57872259859802	2020-08-28T02:34:56+00:00	2020-08-27T19:34:56-07:00	2020-08-28T02:52:36+00:00	2020-09-01T06:59:59+00:00	-4	dcbh9vz9ml5h6pk@marketplace.amazon.com	B. Baines Browne	+1 480-618-5344 ext. 53175	ABR0055	Purchase Now for Delivery by Monday | Arabella Farm Direct Bouquet of 12 Stems of Fresh Cut Hot Pink Roses in a Free Designer Glass Vase	1	0	1	Expedited	Janine Hutchinson	1509 WARWICK CT			ANN ARBOR	MI	48103-5648	US			false		
111-1838717-6397867	13252148556978	2020-08-28T02:55:59+00:00	2020-08-27T19:55:59-07:00	2020-08-28T03:22:22+00:00	2020-09-01T06:59:59+00:00	-4	t0lbc3cx7fw4d4h@marketplace.amazon.com	John T Ondrejcka	+1 480-618-5344 ext. 42667	ABR004	Purchase Now for Delivery by Monday | Arabella Farm Direct Bouquet of 12 Fresh Cut Yellow Roses with a Free Glass Vase	1	0	1	Expedited	Jessica Fedynyshyn	204 RED BARN RD			WILLOW GROVE	PA	19090-1611	US		Jess and Riley, we hope these flowers bring some brightness to your week! We love you and can’t wait to meet you, Riley! From Whitney & Kate	false		
112-5383777-4637809	13685201733866	2020-08-28T03:20:09+00:00	2020-08-27T20:20:09-07:00	2020-08-28T03:23:54+00:00	2020-08-29T06:59:59+00:00	-1	cq5dl6vnyv6q2nt@marketplace.amazon.com	Siobhan Bennett	+1 929-436-4790 ext. 88738	ABR0022	Purchase Now for Delivery by Monday | Arabella Farm Direct Bouquet of 12 Fresh Cut Pink Roses with a Free Glass Vase	1	0	1	NextDay	Suzette Bennett	174 W SUGARMAPLE LN			BEVERLY HILLS	FL	34465-3858	US		Happy Birthday Suzette! Love,Your Sister	false		
112-7881202-9546658	21161307060530	2020-08-28T03:24:46+00:00	2020-08-27T20:24:46-07:00	2020-08-28T03:25:36+00:00	2020-08-29T06:59:59+00:00	-1	6cjpspqvrg3zb8r@marketplace.amazon.com	Beth M Gibson	+1 929-436-4790 ext. 97228	ABR0022	Purchase Now for Delivery by Monday | Arabella Farm Direct Bouquet of 12 Fresh Cut Pink Roses with a Free Glass Vase	1	0	1	NextDay	Janice and Mike Belcher	2151 Lakeview Drive East 881 The HideOut			LAKE ARIEL	PA	18436-9316	US		Happiest Celebration to You Janice and Mike! These flowers pale to the undying love and eternal hope you have for the most precious 16 year old in the world! Love and continued prayers now and always! From Beth and Doug	false		
112-5257231-6195466	55619735587994	2020-08-28T03:06:41+00:00	2020-08-27T20:06:41-07:00	2020-08-28T03:26:35+00:00	2020-09-01T06:59:59+00:00	-4	70bc46xnn1yhx8h@marketplace.amazon.com	Luis Jorge Castillo Orozco	+1 480-618-5344 ext. 97937	ABR001	Purchase Now for Delivery by Monday | Arabella Bouquets 12 Stems of Fresh Cut Red Roses in a Free Designer Glass Vase	1	0	1	Expedited	Martha Hernandez Gomez	3818 MERA ST			OAKLAND	CA	94601-4221	US		¡A pesar de la distancia, siempre estaré contigo! TQM....!!! De Luis Jorge Castillo Orozco	false		
112-9616181-3362606	32107647705738	2020-08-28T03:32:29+00:00	2020-08-27T20:32:29-07:00	2020-08-28T04:03:19+00:00	2020-09-01T06:59:59+00:00	-4	pq2zb8n6mq9y5pq@marketplace.amazon.com	Jessica Brunner	+1 480-618-5344 ext. 63350	ABB001	Arabella Farm Direct Fresh Cut White Hydrangea	1	0	1	Expedited	Melissa Brunner	7332 east coffe creek rd			Edmond	Ok	73034	US			false		
113-6706070-6792245	23886771572826	2020-08-28T04:08:50+00:00	2020-08-27T21:08:50-07:00	2020-08-28T04:12:52+00:00	2020-08-29T06:59:59+00:00	-1	gv2stt1knvw7r9y@marketplace.amazon.com	Brandon Monk	+1 929-436-4790 ext. 23826	ABR0033	Purchase Now for Delivery by Monday | Arabella Farm Direct Bouquet of 12 Fresh Cut Orange Roses with a Free Glass Vase	1	0	1	NextDay	Sheila Monk	23 ROXANNA LN			KINGSTON	RI	02881-1227	US		Happy Birthday!   Love, Brandon & John From Brandon Monk	false		
111-9077982-5849013	40779904596778	2020-08-28T04:18:03+00:00	2020-08-27T21:18:03-07:00	2020-08-28T04:22:19+00:00	2020-08-29T06:59:59+00:00	-1	71w530lkv64yptn@marketplace.amazon.com	Brian	+1 480-618-5344 ext. 93923	ABB011	Arabella Bouquets 24 Stems of Fresh Cut Hot Pink Roses in a Free Designer Glass Vase	1	0	1	NextDay	Tammy Rogers	130 CAPE ELIZABETH WAY			RIVERSIDE	CA	92506-6170	US		Happy Birthday...!!!  Enjoy the day... From Brian	false		
111-0968674-7261838	47951307102170	2020-08-28T04:40:25+00:00	2020-08-27T21:40:25-07:00	2020-08-28T05:03:06+00:00	2020-09-01T06:59:59+00:00	-4	th0tf6w2mlcmww4@marketplace.amazon.com	barbara francis	+1 929-436-4790 ext. 10564	ABR0022	Purchase Now for Delivery by Monday | Arabella Farm Direct Bouquet of 12 Fresh Cut Pink Roses with a Free Glass Vase	1	0	1	Expedited	pat gustafsson	188 CONCORD ST			BROOKLYN	NY	11201-2031	US		Hi pat, have a wonderful birthday! Love, barbara	false		
111-1452369-1138631	54932042665762	2020-08-28T05:46:33+00:00	2020-08-27T22:46:33-07:00	2020-08-28T06:14:29+00:00	2020-09-01T06:59:59+00:00	-4	llhk8jn67jw7yj7@marketplace.amazon.com	Michael T. Howley	+1 480-618-5344 ext. 02734	ABR0066	Purchase Now for Delivery by Monday | Arabella Bouquets 12 Stems of Fresh Cut White Roses in a Free Designer Glass Vase	1	0	1	Expedited	Sara Sisson	2997 MISSION SQUARE DR			FAIRFAX	VA	22031-1153	US			false		
114-9719738-0034656	48534709988866	2020-08-28T07:27:38+00:00	2020-08-28T00:27:38-07:00	2020-08-28T07:30:04+00:00	2020-08-29T06:59:59+00:00	-1	s9nxxtg25v0yhb3@marketplace.amazon.com	Hunter reininger	+1 929-436-4790 ext. 88908	ABR0022	Purchase Now for Delivery by Monday | Arabella Farm Direct Bouquet of 12 Fresh Cut Pink Roses with a Free Glass Vase	1	0	1	NextDay	Jayley Ward	4675 Gym Drive			Las Vegas	NV	89119	US		Baby I love you so much! I want to share my life and support you no matter what it is your doing i love you Jayley ward❤️ From Hunter reininger	false		
114-1442017-3616215	44781937219850	2020-08-28T07:11:47+00:00	2020-08-28T00:11:47-07:00	2020-08-28T07:38:46+00:00	2020-09-02T06:59:59+00:00	-5	0b8vtxx6kx0b957@marketplace.amazon.com	Rachael Gaunt	+1 929-436-4790 ext. 20171	ABR0022	Purchase Now for Delivery by Monday | Arabella Farm Direct Bouquet of 12 Fresh Cut Pink Roses with a Free Glass Vase	1	0	1	Standard	Laura Black	12565 MELVILLE DR UNIT 124			MONTGOMERY	TX	77356-9009	US		Happy Birthday from the Gaunt's!  Hope you have a lovely day.  We hope that these roses can inspire some more of your beautiful paintings.   We love you! From Rachael Gaunt	false		
113-4978422-4625027	22214163062994	2020-08-28T09:14:00+00:00	2020-08-28T02:14:00-07:00	2020-08-28T09:18:11+00:00	2020-08-29T06:59:59+00:00	-1	rpznvrsgd8wf5bd@marketplace.amazon.com	Jeffrey Ingram	+1 929-436-4790 ext. 89320	ABB001	Arabella Farm Direct Fresh Cut White Hydrangea	1	0	1	NextDay	Jeffrey D Ingram	2266 3600 AVE			JUNCTION CITY	KS	66441-8725	US			false		
111-9846685-9166603	04890474731738	2020-08-28T09:44:29+00:00	2020-08-28T02:44:29-07:00	2020-08-28T10:15:10+00:00	2020-09-02T06:59:59+00:00	-5	42b207f27y05njq@marketplace.amazon.com	Steven Kane	+1 480-618-5344 ext. 16495	ABM0044	Purchase Now for Delivery by Monday | Arabella Farm Direct Bouquet of Fresh Cut Blue Hydrangea with a Free Glass Vase	1	0	1	Expedited	Bobbyjo Noblitt	1010 STONERIDGE DR APT 223			SEYMOUR	IN	47274-5519	US			false		
112-9219710-3699405	07440746482146	2020-08-28T10:24:06+00:00	2020-08-28T03:24:06-07:00	2020-08-28T10:48:16+00:00	2020-09-02T06:59:59+00:00	-5	tk6st9hx6q8ts2d@marketplace.amazon.com	Penne Jaster	+1 480-618-5344 ext. 71950	ABR0022	Purchase Now for Delivery by Monday | Arabella Farm Direct Bouquet of 12 Fresh Cut Pink Roses with a Free Glass Vase	1	0	1	Expedited	Judyjane Witte	4025 CYPRESS CT SCHERTZ 78108			SCHERTZ	TX	78108-2207	US		But for you who fear My name [with awe-filled reverence] the sun of righteousness will rise with healing in its wings. And you will go forward and leap [joyfully]...” ‭Mal.‬ ‭4:2‬a U R  deeply loved & highly favored! From Penne	false		
114-5924644-9634642	07323940249994	2020-08-28T11:14:40+00:00	2020-08-28T04:14:40-07:00	2020-08-28T11:45:24+00:00	2020-09-02T06:59:59+00:00	-5	fdzgy35wjzz7611@marketplace.amazon.com	Sixto Mondragon	+1 929-436-4790 ext. 27950	ABR0022	Purchase Now for Delivery by Monday | Arabella Farm Direct Bouquet of 12 Fresh Cut Pink Roses with a Free Glass Vase	1	0	1	Expedited	Sixto Mondragon	3221 TAYLOR DR			ROYSE CITY	TX	75189-6239	US			false		
111-6788890-7870615	64426918741146	2020-08-28T13:13:45+00:00	2020-08-28T06:13:45-07:00	2020-08-28T13:15:07+00:00	2020-08-29T06:59:59+00:00	-1	ckdyrrsptm0tl9q@marketplace.amazon.com	linda musial-lintner	+1 929-436-4790 ext. 77043	ABR0022	Purchase Now for Delivery by Monday | Arabella Farm Direct Bouquet of 12 Fresh Cut Pink Roses with a Free Glass Vase	1	0	1	NextDay	Sara Lintner	733 SUMMIT AVE E APT 312			SEATTLE	WA	98102-5948	US		Sara, our lovely daughter: how happy we were when you were born!  Sending you pink roses remembering how much you loved pink as our little girl.  We are so proud of you and will love you forever!  Love&Kisses, Mom&Dad From linda musial-lintner	false		
114-9905144-7281869	20006759675058	2020-08-28T12:54:07+00:00	2020-08-28T05:54:07-07:00	2020-08-28T13:19:50+00:00	2020-09-02T06:59:59+00:00	-5	k9fw2mths5tfw2l@marketplace.amazon.com	Jeremy Laningham		ABR0022	Purchase Now for Delivery by Monday | Arabella Farm Direct Bouquet of 12 Fresh Cut Pink Roses with a Free Glass Vase	1	0	1	Standard	Stephane Farmer	6651 DALMATIA DR			MCKINNEY	TX	75072-1201	US		Happy Birthday Mama! Can’t wait to see you! Love Schmeally and JJ From Jeremy Laningham	false		
112-8891737-3234630	00402087473442	2020-08-28T13:14:51+00:00	2020-08-28T06:14:51-07:00	2020-08-28T13:20:23+00:00	2020-08-29T06:59:59+00:00	-1	xrv4l4p32mjypk1@marketplace.amazon.com	V Snowdon	+1 929-436-4790 ext. 31174	ABR0066	Purchase Now for Delivery by Monday | Arabella Bouquets 12 Stems of Fresh Cut White Roses in a Free Designer Glass Vase	1	0	1	NextDay	V Snowdon	17 CLOVER LN			PRINCETON	NJ	08540-4046	US			false		
114-4500562-9812226	26284468605602	2020-08-28T13:28:12+00:00	2020-08-28T06:28:12-07:00	2020-08-28T13:30:14+00:00	2020-08-29T06:59:59+00:00	-1	x7fhktf2qq38r2s@marketplace.amazon.com	Rita J Cozeolino	+1 929-436-4790 ext. 87576	ABM010	Purchase Now for Delivery by Monday | The Spring Fling Bouquet by Arabella Bouquets with a Free Designer Glass Vase	1	0	1	NextDay	Nancy Cavallero	1404 S MAYFAIR AVE			DALY CITY	CA	94015-3866	US		HAPPY 65th BIRTHDAY!!!! Hope you have an amazing day!!! Love and miss you bunches From RJ	false		
114-8339160-1705823	60206084082202	2020-08-28T13:39:18+00:00	2020-08-28T06:39:18-07:00	2020-08-28T13:40:16+00:00	2020-08-29T06:59:59+00:00	-1	k6schcb4krf69vb@marketplace.amazon.com	Sarah Kissinger	+1 480-618-5344 ext. 79829	ABM010	Purchase Now for Delivery by Monday | The Spring Fling Bouquet by Arabella Bouquets with a Free Designer Glass Vase	1	0	1	NextDay	Kayla Meredith	4065 HUBERTUS RD			HUBERTUS	WI	53033-9420	US		Thinking of you guys during this time <3 From Sarah, Mac, and Abby	false		
113-3595420-8762612	66351385118482	2020-08-28T13:17:47+00:00	2020-08-28T06:17:47-07:00	2020-08-28T13:47:19+00:00	2020-09-02T06:59:59+00:00	-5	64rpvs5f30pfzzv@marketplace.amazon.com	Sylvia Oden	+1 480-618-5344 ext. 54287	ABR0022	Purchase Now for Delivery by Monday | Arabella Farm Direct Bouquet of 12 Fresh Cut Pink Roses with a Free Glass Vase	1	0	1	Expedited	Sylvia Oden	1036 TIDELINE DR			LELAND	NC	28451-9494	US			false		
112-2003667-2144205	56927496622642	2020-08-28T13:45:53+00:00	2020-08-28T06:45:53-07:00	2020-08-28T13:47:22+00:00	2020-08-29T06:59:59+00:00	-1	tm075rwkgz3xlxn@marketplace.amazon.com	Joseph Andrews	+1 480-618-5344 ext. 35000	ABR001	Purchase Now for Delivery by Monday | Arabella Bouquets 12 Stems of Fresh Cut Red Roses in a Free Designer Glass Vase	1	0	1	NextDay	Paije Andrews	27 BARE HILL RD			BOXFORD	MA	01921-2403	US		Dear Paije,    You're such a wonderful daughter in law! Happy Birthday! We love you! Let's plan the joint party!!       Much love, Joe and Kris From Joseph Andrews	false		
111-2913259-1197809	61038953580546	2020-08-28T14:08:22+00:00	2020-08-28T07:08:22-07:00	2020-08-28T14:09:19+00:00	2020-08-29T06:59:59+00:00	-1	ntd8gtb9kgpr9x9@marketplace.amazon.com	malik	+1 929-436-4790 ext. 98213	ABR0022	Purchase Now for Delivery by Monday | Arabella Farm Direct Bouquet of 12 Fresh Cut Pink Roses with a Free Glass Vase	1	0	1	NextDay	Tasia Walker	EDEN SOUTH SHORE	7156 S DORCHESTER AVE		CHICAGO	IL	60619-1551	US		Enjoy your gift!l From Joe Goldberg 🤫😉	false		
111-9960979-4303424	63446648131642	2020-08-28T14:14:48+00:00	2020-08-28T07:14:48-07:00	2020-08-28T14:15:43+00:00	2020-08-29T06:59:59+00:00	-1	0vnxnp2g8hmbsr7@marketplace.amazon.com	Anglied S Geerlings	+7862 943 638	ABM0033	Purchase Now for Delivery by Monday | Arabella Farm Direct Bouquet of Fresh Cut White Hydrangea with a Free Glass Vase	1	0	1	NextDay	Mrs.Helen  Jong	15361 SW 154TH TER			MIAMI	FL	33187-5475	US			false		
111-0395210-8344255	33935543267402	2020-08-28T14:37:33+00:00	2020-08-28T07:37:33-07:00	2020-08-28T14:42:33+00:00	2020-08-29T06:59:59+00:00	-1	qbwnsc099pcmvyt@marketplace.amazon.com	Ana Luisa villa	+1 415-851-9136 ext. 76726	ABR015	Purchase Now for Delivery by Monday | Arabella Farm Direct Bouquet of 18 Fresh Cut Orange Roses with a Free Glass Vase	1	0	1	NextDay	Ana Abritta	7452 BRUNSWICK CIR			BOYNTON BEACH	FL	33472-2537	US			false		
111-2508705-6550655	14798750274250	2020-08-28T14:38:42+00:00	2020-08-28T07:38:42-07:00	2020-08-28T14:43:05+00:00	2020-08-29T06:59:59+00:00	-1	ngjc2s7fywcblpd@marketplace.amazon.com	James Baldo Jr.	+1 480-618-5344 ext. 75623	ABR001	Purchase Now for Delivery by Monday | Arabella Bouquets 12 Stems of Fresh Cut Red Roses in a Free Designer Glass Vase	1	0	1	NextDay	Dr. James Baldo Jr.	6763 River Rd			Manassas	VA	20111-4303	US		To my love. You are the most important person in my  life.  Your loving Husband Jimmy From James Baldo Jr.	false		
111-6164759-2732217	45812661102786	2020-08-28T14:43:51+00:00	2020-08-28T07:43:51-07:00	2020-08-28T15:10:22+00:00	2020-09-02T06:59:59+00:00	-5	g7mnrm2zkd5b2yw@marketplace.amazon.com	sonora renfro	+1 929-436-4790 ext. 62478	ABR0022	Purchase Now for Delivery by Monday | Arabella Farm Direct Bouquet of 12 Fresh Cut Pink Roses with a Free Glass Vase	1	0	1	Expedited	teresa lizardo ladart	905 GALYON DR			SOUTHAVEN	MS	38671-8980	US		happy birthday my love!!!! From sonora renfro	false		
114-6838935-9878636	10503591641554	2020-08-28T15:18:00+00:00	2020-08-28T08:18:00-07:00	2020-08-28T15:22:04+00:00	2020-08-29T06:59:59+00:00	-1	31qhd1xpvwz8nkk@marketplace.amazon.com	Lisa payne	+1 929-436-4790 ext. 57509	ABR0033	Purchase Now for Delivery by Monday | Arabella Farm Direct Bouquet of 12 Fresh Cut Orange Roses with a Free Glass Vase	1	0	1	NextDay	Rebecca Hongsermeier	1916 E MCCORD ST APT 111			CENTRALIA	IL	62801-6592	US		Happy Birthday Mom, Love you - Lisa, Ron and Ronni Sue From Lisa payne	false		
111-2555592-2090630	34773667296434	2020-08-28T15:37:34+00:00	2020-08-28T08:37:34-07:00	2020-08-28T15:38:40+00:00	2020-08-29T06:59:59+00:00	-1	2vxx0f7s9cht990@marketplace.amazon.com	Tanya Sixbey	+1 480-618-5344 ext. 15102	ABR0022	Purchase Now for Delivery by Monday | Arabella Farm Direct Bouquet of 12 Fresh Cut Pink Roses with a Free Glass Vase	1	0	1	NextDay	Andrea Orlando	9613 TIPPERARY DR			MCKINNEY	TX	75072-8914	US		Drean- Hope your day was good, and if not, hope these make it a little better!  Love you! From Tanya Sixbey	false		
