order-id	order-item-id	purchase-date	payments-date	reporting-date	promise-date	days-past-promise	buyer-email	buyer-name	buyer-phone-number	sku	product-name	quantity-purchased	quantity-shipped	quantity-to-ship	ship-service-level	recipient-name	ship-address-1	ship-address-2	ship-address-3	ship-city	ship-state	ship-postal-code	ship-country	gift-wrap-type	gift-message-text	is-business-order	purchase-order-number	price-designation
113-2724209-0271416	24924886925978	2020-09-03T09:14:42+00:00	2020-09-03T02:14:42-07:00	2020-09-03T09:46:05+00:00	2020-09-09T06:59:59+00:00	-5	8fztpc0n3q77b9d@marketplace.amazon.com	William Schreiner	+1 929-436-4790 ext. 28470	ABR001	Purchase Now for Delivery by Tuesday | Arabella Bouquets 12 Stems of Fresh Cut Red Roses in a Free Designer Glass Vase	1	0	1	Expedited	Carol Bates	955 OLIVE HILL RD			FRANKLIN	NC	28734-6321	US		Carol, Happy Birthday...and many more  Bill & Doris From William Schreiner	false		
113-1180061-6953862	31501838555434	2020-09-03T10:49:46+00:00	2020-09-03T03:49:46-07:00	2020-09-03T11:18:59+00:00	2020-09-09T06:59:59+00:00	-5	xwxnp2nmd9m8q5l@marketplace.amazon.com	Deb	+1 415-851-9136 ext. 07460	ABM010	Purchase Now for Delivery by Tuesday | The Spring Fling Bouquet by Arabella Bouquets with a Free Designer Glass Vase	1	0	1	Expedited	Ralph Fritz and Paul Miller	3434 REEDY DR			ANNANDALE	VA	22003-1136	US		Happy happy birthday, Ralph! Happiness and health!  We will you all good things!  Hi to Paul and Joe!  Be well and safe! From Love, Deb and Bill	false		
111-1872777-7432207	29061757019906	2020-09-03T12:19:44+00:00	2020-09-03T05:19:44-07:00	2020-09-03T12:44:41+00:00	2020-09-09T06:59:59+00:00	-5	kg7yptcj4nh15p3@marketplace.amazon.com	Tim Welsh	+1 480-618-5344 ext. 73077	ABR0022	Purchase Now for Delivery by Tuesday | Arabella Farm Direct Bouquet of 12 Fresh Cut Pink Roses with a Free Glass Vase	1	0	1	Expedited	Jan Andersen	4020 CERDAN DR			BURTON	MI	48529-1608	US		God Bless the Teacher From Tim Welsh	false		
114-1287794-1282619	49430841324282	2020-09-03T12:22:21+00:00	2020-09-03T05:22:21-07:00	2020-09-03T12:46:23+00:00	2020-09-09T06:59:59+00:00	-5	ckttrrmw4gv4l2q@marketplace.amazon.com	Tolulope Jagun	+1 480-618-5344 ext. 41861	ABR001	Purchase Now for Delivery by Tuesday | Arabella Bouquets 12 Stems of Fresh Cut Red Roses in a Free Designer Glass Vase	1	0	1	Expedited	Tracey warran	3 NEWFIELD ST APT 5			EAST ORANGE	NJ	07017-5439	US		I love you so much. You are the best thing that has happened to me. Thank you for been my wife. My love, My darling. From Tolulope Jagun	false		
113-2368199-7592257	38580569963218	2020-09-03T12:13:59+00:00	2020-09-03T05:13:59-07:00	2020-09-03T12:51:20+00:00	2020-09-09T06:59:59+00:00	-5	gpdkwnmds42mpvv@marketplace.amazon.com	Beth Smith	+1 929-436-4790 ext. 30925	ABM010	Purchase Now for Delivery by Tuesday | The Spring Fling Bouquet by Arabella Bouquets with a Free Designer Glass Vase	1	0	1	Expedited	Tori Lane	180 NEWBURY ST APT 1105			DANVERS	MA	01923-4101	US		We are so sorry for the loss of your Grandmother. Thinking of you and your family!  Also, congratulations on your new teaching job!! So proud of you. From Abbie, Janelle and Kelsey	false		
111-6566533-2953831	54875004778370	2020-09-03T12:42:43+00:00	2020-09-03T05:42:43-07:00	2020-09-03T13:11:03+00:00	2020-09-09T06:59:59+00:00	-5	884wsfhj0cl6zpq@marketplace.amazon.com	Cheryl Soell	+1 480-618-5344 ext. 29226	ABM0044	Purchase Now for Delivery by Tuesday | Arabella Farm Direct Bouquet of Fresh Cut Blue Hydrangea with a Free Glass Vase	1	0	1	Expedited	Nancy Munoz	121 OAK RIDGE AVE			SUMMIT	NJ	07901-4307	US		Happy Birthday Mom/Nancy/Nina! Enjoy your day and these beautiful flowers. From Love, Wills, Cheryl and AG	false		
111-9180991-4647446	52987996958866	2020-09-03T13:33:33+00:00	2020-09-03T06:33:33-07:00	2020-09-03T14:02:56+00:00	2020-09-09T06:59:59+00:00	-5	sf9ptz5y6zmrs4z@marketplace.amazon.com	Brian	+1 929-436-4790 ext. 38397	ABR0033	Purchase Now for Delivery by Tuesday | Arabella Farm Direct Bouquet of 12 Fresh Cut Orange Roses with a Free Glass Vase	1	0	1	Expedited	Madison England	807 WELSH AVE			COLLEGE STATION	TX	77840-6151	US		Happy Birthday to my beautiful girl! Love you soooo much! From Momma	false		
112-8551376-6605869	65737532510538	2020-09-03T13:57:39+00:00	2020-09-03T06:57:39-07:00	2020-09-03T14:28:10+00:00	2020-09-09T06:59:59+00:00	-5	pznph9qq47nsy9b@marketplace.amazon.com	Sherry	+1 480-618-5344 ext. 35962	ABR0022	Purchase Now for Delivery by Tuesday | Arabella Farm Direct Bouquet of 12 Fresh Cut Pink Roses with a Free Glass Vase	1	0	1	Expedited	Edna Isbell	140 BOWMAN LN			RICKMAN	TN	38580-1935	US			false		
112-9862445-5192258	37510641935658	2020-09-03T14:04:33+00:00	2020-09-03T07:04:33-07:00	2020-09-03T14:29:12+00:00	2020-09-09T06:59:59+00:00	-5	g82gb7jfkj6bwc9@marketplace.amazon.com	Kathleen Ahlen	+1 929-436-4790 ext. 46436	ABR0022	Purchase Now for Delivery by Tuesday | Arabella Farm Direct Bouquet of 12 Fresh Cut Pink Roses with a Free Glass Vase	1	0	1	Expedited	Rachel Feriozzi	1206 R ST			SPRINGFIELD	OR	97477-2602	US		Enjoy your gift!  Happy Birthday! Love Mom From Kathleen Ahlen	false		
111-9539621-0720203	17301825594482	2020-09-03T14:58:01+00:00	2020-09-03T07:58:01-07:00	2020-09-03T15:21:06+00:00	2020-09-09T06:59:59+00:00	-5	h7t1bp63w8jmj6w@marketplace.amazon.com	Xochilth	+1 929-436-4790 ext. 76862	ABR001	Purchase Now for Delivery by Tuesday | Arabella Bouquets 12 Stems of Fresh Cut Red Roses in a Free Designer Glass Vase	1	0	1	Expedited	Glenda Talavera	6512B AJAX AVE			BELL GARDENS	CA	90201-3010	US		Para la mejor madre, que mi Dios la bendiga siempre, y le regale muchos años más. la queremos mucho y esperamos disfrute su regalo, Gracias por ser una madre especial. De Sus hijas y nieto	false		
111-9788213-2756201	22070962101874	2020-09-03T15:20:36+00:00	2020-09-03T08:20:36-07:00	2020-09-03T15:41:55+00:00	2020-09-09T06:59:59+00:00	-5	h370y67rd3q7796@marketplace.amazon.com	Yuriko Dickey	+1 929-436-4790 ext. 94811	ABM010	Purchase Now for Delivery by Tuesday | The Spring Fling Bouquet by Arabella Bouquets with a Free Designer Glass Vase	1	0	1	Expedited	Joan & Mike Myers	28345 W RIVER RD			PERRYSBURG	OH	43551-1044	US		Dear Joan and Mike,  Wishing happy belated birthday and smooth quick recovery !!  Love, From Yuriko and Shayna	false		
111-6196893-0680210	40293533792378	2020-09-03T15:54:45+00:00	2020-09-03T08:54:45-07:00	2020-09-03T16:08:08+00:00	2020-09-09T06:59:59+00:00	-5	z26w4479trxn4sj@marketplace.amazon.com	Varsha Ponnuswamy	+1 480-618-5344 ext. 07263	ABR001	Purchase Now for Delivery by Tuesday | Arabella Bouquets 12 Stems of Fresh Cut Red Roses in a Free Designer Glass Vase	1	0	1	Expedited	Shilpa Datar	BAYTOWN TEXAS	8711 MORNING DOVE LN		BAYTOWN	TX	77521-4574	US		Our Dearest Darling Soul Sister, Shilpa,  Side by side OR Miles apart. We are always connected by heart !!!  Happy Birthday to you.  Loads of hugs n kisses with love n laughter. Dama-Manj-Vandu-Raju-Vrsh From Dma-Mnj-Vnd-Rju-Vrs	false		
111-2076840-3481004	29648374898594	2020-09-03T15:40:16+00:00	2020-09-03T08:40:16-07:00	2020-09-03T16:09:51+00:00	2020-09-09T06:59:59+00:00	-5	7q7h5p90jhljyx0@marketplace.amazon.com	James F Hettinger	+1 480-618-5344 ext. 98006	ABR0022	Purchase Now for Delivery by Tuesday | Arabella Farm Direct Bouquet of 12 Fresh Cut Pink Roses with a Free Glass Vase	1	0	1	Expedited	Arline Zoll	2019 FLAGLER AVE			KEY WEST	FL	33040-3732	US		Hi Arline, Happy Belated Birthday From The Hettinger’s	false		
112-8134101-3329048	62872404879074	2020-09-03T16:47:55+00:00	2020-09-03T09:47:55-07:00	2020-09-03T17:18:01+00:00	2020-09-09T06:59:59+00:00	-5	qsg73hwkyd2mrzl@marketplace.amazon.com	Ursula W. Pomy	+1 929-436-4790 ext. 14095	ABR012	Purchase Now for Delivery by Tuesday | Arabella Farm Direct Bouquet of 18 Fresh Cut Pink Roses with a Free Glass Vase	1	0	1	Expedited	Alyssa Weatherton	58 MINUET PL			OAK VIEW	CA	93022-9603	US			false		
113-3330684-3913828	62061220847954	2020-09-03T16:50:31+00:00	2020-09-03T09:50:31-07:00	2020-09-03T17:18:28+00:00	2020-09-09T06:59:59+00:00	-5	2tmy0hlt3y58hl3@marketplace.amazon.com	Jennifer Croll	+1 929-436-4790 ext. 85506	ABM010	Purchase Now for Delivery by Tuesday | The Spring Fling Bouquet by Arabella Bouquets with a Free Designer Glass Vase	1	0	1	Expedited	Adrianne Brewer	6311 NE 108TH CT			VANCOUVER	WA	98662-5384	US		Adrianne - We are all thinking about you. From Your CCM Family	false		
113-5511982-3592227	09803388611538	2020-09-03T16:49:55+00:00	2020-09-03T09:49:55-07:00	2020-09-03T17:18:33+00:00	2020-09-09T06:59:59+00:00	-5	vrctp84tghl7jwk@marketplace.amazon.com	Marty Overson	+1 929-436-4790 ext. 31517	ABR0022	Purchase Now for Delivery by Tuesday | Arabella Farm Direct Bouquet of 12 Fresh Cut Pink Roses with a Free Glass Vase	1	0	1	Expedited	Marci White	4949 NW 162ND TER			PORTLAND	OR	97229-1128	US		Happy Birthday Marse! Love Pam and Martino From Marty Overson	false		
111-7926630-6910636	30115095375890	2020-09-03T17:33:29+00:00	2020-09-03T10:33:29-07:00	2020-09-03T18:01:02+00:00	2020-09-09T06:59:59+00:00	-5	zvzkycf169gqjy1@marketplace.amazon.com	martha letard	+1 480-618-5344 ext. 48467	ABM010	Purchase Now for Delivery by Tuesday | The Spring Fling Bouquet by Arabella Bouquets with a Free Designer Glass Vase	1	0	1	Expedited	Sara Katherine and Luke LeTard	888 NEW YORK ST			MEMPHIS	TN	38104-5725	US			false		
111-0460625-3820222	35273362347642	2020-09-03T17:46:23+00:00	2020-09-03T10:46:23-07:00	2020-09-03T18:15:11+00:00	2020-09-09T06:59:59+00:00	-5	m3b1f0x8501bsn2@marketplace.amazon.com	Cheryl Reineke	+1 929-436-4790 ext. 85456	ABR0022	Purchase Now for Delivery by Tuesday | Arabella Farm Direct Bouquet of 12 Fresh Cut Pink Roses with a Free Glass Vase	1	0	1	Expedited	Karen Janesin	603 W HILLCREST BLVD			MONROVIA	CA	91016-1526	US			false		
113-9850275-3673816	42092915097010	2020-09-03T17:52:06+00:00	2020-09-03T10:52:06-07:00	2020-09-03T18:20:08+00:00	2020-09-09T06:59:59+00:00	-5	dl5wtp7stsm7jvy@marketplace.amazon.com	RICHARD BROWN	+1 415-851-9136 ext. 40880	ABM010	Purchase Now for Delivery by Tuesday | The Spring Fling Bouquet by Arabella Bouquets with a Free Designer Glass Vase	1	0	1	Expedited	Abigail Brown	24 MOUNTWOOD RD			SWAMPSCOTT	MA	01907-2904	US		Enjoy your gift! Happy Birthday From Nani and Pop	false		
113-3398210-0136220	16594868839346	2020-09-03T18:11:17+00:00	2020-09-03T11:11:17-07:00	2020-09-03T18:35:25+00:00	2020-09-09T06:59:59+00:00	-5	6xfsnd9ghqknsgp@marketplace.amazon.com	Sandra W Moshos	+1 929-436-4790 ext. 62183	ABR0022	Purchase Now for Delivery by Tuesday | Arabella Farm Direct Bouquet of 12 Fresh Cut Pink Roses with a Free Glass Vase	1	0	1	Expedited	Ann Marie Moshos	10396 STRATFORD AVE			FAIRFAX	VA	22030-3217	US		Enjoy your gift! Happy birthday to a great daughter! Love, Mom From Sandra W Moshos	false		
113-2657089-3340260	19791363074634	2020-09-03T18:10:04+00:00	2020-09-03T11:10:04-07:00	2020-09-03T18:40:35+00:00	2020-09-09T06:59:59+00:00	-5	9spnrqpn38ypllj@marketplace.amazon.com	Douglas	+1 929-436-4790 ext. 52778	ABR0022	Purchase Now for Delivery by Tuesday | Arabella Farm Direct Bouquet of 12 Fresh Cut Pink Roses with a Free Glass Vase	1	0	1	Expedited	Doug Fletcher	102 CROWN CT DRIVE			NATCHEZ	MS	39120-8869	US			false		
113-4325359-2335457	46122376333346	2020-09-03T18:11:05+00:00	2020-09-03T11:11:05-07:00	2020-09-03T18:41:30+00:00	2020-09-09T06:59:59+00:00	-5	9spnrqpn38ypllj@marketplace.amazon.com	Douglas	+1 480-618-5344 ext. 19093	ABR0022	Purchase Now for Delivery by Tuesday | Arabella Farm Direct Bouquet of 12 Fresh Cut Pink Roses with a Free Glass Vase	1	0	1	Expedited	Doug Fletcher	5816 LEVELLAND DR			FORT WORTH	TX	76107-7605	US			false		
113-7828694-4516248	26937145308106	2020-09-03T18:17:21+00:00	2020-09-03T11:17:21-07:00	2020-09-03T18:43:37+00:00	2020-09-09T06:59:59+00:00	-5	l406s297ywl7csw@marketplace.amazon.com	Bernard B. Megaffin	+1 929-436-4790 ext. 20516	ABM010	Purchase Now for Delivery by Tuesday | The Spring Fling Bouquet by Arabella Bouquets with a Free Designer Glass Vase	1	0	1	Expedited	Dr. Cleo Mattox	PRESBYTERIAN VILLAGE	510 BROOKSIDE DR		LITTLE ROCK	AR	72205-1694	US		Happy Birthday, Cleo! Love, Barney From Barney	false		
113-5076415-9913847	45959898447338	2020-09-03T18:17:41+00:00	2020-09-03T11:17:41-07:00	2020-09-03T18:48:13+00:00	2020-09-09T06:59:59+00:00	-5	9spnrqpn38ypllj@marketplace.amazon.com	Douglas	+1 480-618-5344 ext. 72645	ABR0022	Purchase Now for Delivery by Tuesday | Arabella Farm Direct Bouquet of 12 Fresh Cut Pink Roses with a Free Glass Vase	1	0	1	Expedited	Napoleon Fletcher	135 MELROSE AVE			NATCHEZ	MS	39120-4057	US			false		
113-7480814-7471420	23146835392082	2020-09-03T18:21:55+00:00	2020-09-03T11:21:55-07:00	2020-09-03T18:50:56+00:00	2020-09-09T06:59:59+00:00	-5	6xfsnd9ghqknsgp@marketplace.amazon.com	Sandra W Moshos	+1 480-618-5344 ext. 95809	ABR0022	Purchase Now for Delivery by Tuesday | Arabella Farm Direct Bouquet of 12 Fresh Cut Pink Roses with a Free Glass Vase	1	0	1	Expedited	April L. Moshos	44667 PROVINCETOWN DR			ASHBURN	VA	20147-6186	US		Enjoy your gift!  Happy birthday to a wonderful daughter!   Love, Mother From Sandra W Moshos	false		
112-1910107-6045022	56465163830394	2020-09-03T18:29:28+00:00	2020-09-03T11:29:28-07:00	2020-09-03T18:57:43+00:00	2020-09-09T06:59:59+00:00	-5	hqczf4fnx2bx3h4@marketplace.amazon.com	Tony	+1 929-436-4790 ext. 97271	ABR0055	Purchase Now for Delivery by Tuesday | Arabella Farm Direct Bouquet of 12 Stems of Fresh Cut Hot Pink Roses in a Free Designer Glass Vase	1	0	1	Expedited	Haifa Jweinat Skaf	38647 DREXEL CT			FREMONT	CA	94536-6811	US		Happy Birthday, Haifa! May God bless you. From Jamie	false		
113-3369974-9229054	63404295002850	2020-09-03T18:34:39+00:00	2020-09-03T11:34:39-07:00	2020-09-03T19:00:56+00:00	2020-09-09T06:59:59+00:00	-5	6xfsnd9ghqknsgp@marketplace.amazon.com	Sandra W Moshos	+1 929-436-4790 ext. 69181	ABR0022	Purchase Now for Delivery by Tuesday | Arabella Farm Direct Bouquet of 12 Fresh Cut Pink Roses with a Free Glass Vase	1	0	1	Expedited	Amber M. Beaudoin	3505 WINSTON PL			FAIRFAX	VA	22030-2937	US		Enjoy your gift! Happy birthday to a special daughter! Love, Mother From Sandra W Moshos	false		
112-7562956-3619452	48857372044002	2020-09-03T18:50:07+00:00	2020-09-03T11:50:07-07:00	2020-09-03T19:20:30+00:00	2020-09-09T06:59:59+00:00	-5	61qdhhz6q02k9n0@marketplace.amazon.com	Katherine Haimson	+1 480-618-5344 ext. 75140	ABM010	Purchase Now for Delivery by Tuesday | The Spring Fling Bouquet by Arabella Bouquets with a Free Designer Glass Vase	1	0	1	Expedited	Trupti Glaubman	134 BESANT RD			OJAI	CA	93023-2305	US			false		
111-4666527-2129032	49374096781026	2020-09-03T20:07:53+00:00	2020-09-03T13:07:53-07:00	2020-09-03T20:33:28+00:00	2020-09-09T06:59:59+00:00	-5	sz6y65s4wc0s8c1@marketplace.amazon.com	Shallah Baker	+1 929-436-4790 ext. 17826	ABR0022	Purchase Now for Delivery by Tuesday | Arabella Farm Direct Bouquet of 12 Fresh Cut Pink Roses with a Free Glass Vase	1	0	1	Expedited	Trisha Turner	APT-B-11 1469 VFW PKWY			WEST ROXBURY	MA	02132-5420	US		Enjoy your gift! From Shallah Baker	false		
112-0810898-7176265	53983614189554	2020-09-03T20:31:24+00:00	2020-09-03T13:31:24-07:00	2020-09-03T21:01:19+00:00	2020-09-09T06:59:59+00:00	-5	tf214650ngw8drc@marketplace.amazon.com	Summer Leader	+1 480-618-5344 ext. 67130	ABR001	Purchase Now for Delivery by Tuesday | Arabella Bouquets 12 Stems of Fresh Cut Red Roses in a Free Designer Glass Vase	1	0	1	Standard	Hatsuyo Scarborough	318 CRATER LAKE DR			PFLUGERVILLE	TX	78660-5899	US			false		
114-5796826-3626620	33194277630194	2020-09-03T20:40:53+00:00	2020-09-03T13:40:53-07:00	2020-09-03T21:08:14+00:00	2020-09-09T06:59:59+00:00	-5	7720q7mv0rdxykl@marketplace.amazon.com	martin w walpole	+1 929-436-4790 ext. 19116	ABR0033	Purchase Now for Delivery by Tuesday | Arabella Farm Direct Bouquet of 12 Fresh Cut Orange Roses with a Free Glass Vase	1	0	1	Expedited	Mr & Mrs Kenneth Krause	1492 RERUTKO DR			EAGLE RIVER	WI	54521-9318	US		Happy Anniversary All our love, Your Family & Kurt :) From Your Family	false		
114-8284375-4189023	41156423285594	2020-09-03T20:51:08+00:00	2020-09-03T13:51:08-07:00	2020-09-03T21:17:49+00:00	2020-09-09T06:59:59+00:00	-5	6ck2qcyr7r7n5wy@marketplace.amazon.com	Pamela huntoon	+1 929-436-4790 ext. 53000	ABR013	Purchase Now for Delivery by Tuesday | Arabella Farm Direct Bouquet of 18 Fresh Cut Yellow Roses with a Free Glass Vase	1	0	1	Expedited	Tracy Collins	1520 NORTHWOOD RD APT 244-I			SEAL BEACH	CA	90740-3428	US		We are all thinking of you Tracy. Love from Pamela Katie Tom Karen Mike John and Lizzy   xox From Pamela huntoon	false		
114-6365002-5925827	43177157344626	2020-09-03T21:06:41+00:00	2020-09-03T14:06:41-07:00	2020-09-03T21:36:03+00:00	2020-09-09T06:59:59+00:00	-5	j80zkwwtdxchsvy@marketplace.amazon.com	Jeni Betts	+1 929-436-4790 ext. 40626	ABR0055	Purchase Now for Delivery by Tuesday | Arabella Farm Direct Bouquet of 12 Stems of Fresh Cut Hot Pink Roses in a Free Designer Glass Vase	1	0	1	Expedited	Tanya Millin	2450 NW 39TH ST			BOCA RATON	FL	33431-5441	US		Congratulations! Your hard work has paid off and you've hit Gold Leader. I'm so excited to see where you'll be this time next year. From Jeni Betts	true		
112-8622871-4681037	68031791087434	2020-09-03T21:30:58+00:00	2020-09-03T14:30:58-07:00	2020-09-03T21:59:10+00:00	2020-09-09T06:59:59+00:00	-5	c8j7h93t9y5m4ds@marketplace.amazon.com	Justin R. Unruh	+1 929-436-4790 ext. 20261	ABM010	Purchase Now for Delivery by Tuesday | The Spring Fling Bouquet by Arabella Bouquets with a Free Designer Glass Vase	1	0	1	Expedited	Carly and Art Sajdera	56254 29 PALMS HWY SPC 45			YUCCA VALLEY	CA	92284-5216	US		Happy Belated Birthday We love you From Kalinda,Justin,Makana and Maile	false		
111-4328370-2325822	16017177418362	2020-09-03T21:51:42+00:00	2020-09-03T14:51:42-07:00	2020-09-03T22:20:28+00:00	2020-09-09T06:59:59+00:00	-5	hcgq26426dcxfyr@marketplace.amazon.com	amy fabian	+1 480-618-5344 ext. 73594	ABR0055	Purchase Now for Delivery by Tuesday | Arabella Farm Direct Bouquet of 12 Stems of Fresh Cut Hot Pink Roses in a Free Designer Glass Vase	1	0	1	Expedited	Margaret Fabian	563 Marshall			Bensenville	Il	60106	US		Happy birthday to you, happy birthday to you, happy birthday, dear Mama, happy birthday to you!!!! Cha cha cha. And many more!!! From Menehune and Dave	false		
112-2478096-6575464	68229010766610	2020-09-03T22:33:53+00:00	2020-09-03T15:33:53-07:00	2020-09-03T22:54:30+00:00	2020-09-09T06:59:59+00:00	-5	8jkjqv8gsjccbsg@marketplace.amazon.com	Jim Johnson	+1 480-618-5344 ext. 91293	ABR0055	Purchase Now for Delivery by Tuesday | Arabella Farm Direct Bouquet of 12 Stems of Fresh Cut Hot Pink Roses in a Free Designer Glass Vase	1	0	1	Expedited	Martha Rainbird	2303 REMUDA TRL			AUSTIN	TX	78745-3669	US		Happy Birthday to you. How does it feel to be 70 .? I hope you have many many many more . God bless you my sweet sister ! Sorry this may be a little late !  From  BonnieJohnson From BonnieJohnson	false		
112-4844087-6187436	57981489989490	2020-09-03T22:44:15+00:00	2020-09-03T15:44:15-07:00	2020-09-03T23:12:28+00:00	2020-09-09T06:59:59+00:00	-5	jp3ltwtnngz3pjf@marketplace.amazon.com	Jennifer Mancuso	+1 929-436-4790 ext. 79167	ABB012	Arabella Farm Direct 48 Fresh Cut Hot Pink Roses	1	0	1	Expedited	Janice Parker	3144 34TH CT N			BIRMINGHAM	AL	35207-3522	US			true		
114-9819864-3592263	54356099082018	2020-09-03T22:59:27+00:00	2020-09-03T15:59:27-07:00	2020-09-03T23:24:15+00:00	2020-09-09T06:59:59+00:00	-5	57yzbj2yml1ryb5@marketplace.amazon.com	Juli	+1 480-618-5344 ext. 89922	ABM010	Purchase Now for Delivery by Tuesday | The Spring Fling Bouquet by Arabella Bouquets with a Free Designer Glass Vase	1	0	1	Expedited	Kendall Zurbuchen	1314 SAPPHIRE BAY CT			HOUSTON	TX	77094-2967	US		Brad & Kendall, Congratulations on your Marriage! Looking forward to celebrating with you! Love, From Grandfather Dick & Grandmother Juli From Grandfather Dick & Grandmother Juli	false		
112-8383482-3754623	13871440734050	2020-09-03T23:19:16+00:00	2020-09-03T16:19:16-07:00	2020-09-03T23:33:08+00:00	2020-09-09T06:59:59+00:00	-5	ctj1hvspfrbs2ky@marketplace.amazon.com	Sig Wolf	+1 929-436-4790 ext. 11495	ABR0055	Purchase Now for Delivery by Tuesday | Arabella Farm Direct Bouquet of 12 Stems of Fresh Cut Hot Pink Roses in a Free Designer Glass Vase	1	0	1	Standard	Kate Wolf	3567 D ST			SACRAMENTO	CA	95816-3411	US		Dear Katie, Happy Birthday! Enjoy the flowers. With Love, Dad From Sig Wolf	false		
113-8335118-4988267	53512147669546	2020-09-03T23:15:55+00:00	2020-09-03T16:15:55-07:00	2020-09-03T23:34:16+00:00	2020-09-09T06:59:59+00:00	-5	5l40pr0g8s7xd8d@marketplace.amazon.com	James M. Carey	120709563392	ABM010	Purchase Now for Delivery by Tuesday | The Spring Fling Bouquet by Arabella Bouquets with a Free Designer Glass Vase	1	0	1	Expedited	Rose Blough	886 PORTLAND AVE			ROLLINSFORD	NH	03869-5700	US		Happy Birthday Rose, wish I was there to give you a big hug love you Auntie Betty From Betty carey	false		
114-3269167-7832243	59058534114122	2020-09-03T23:41:43+00:00	2020-09-03T16:41:43-07:00	2020-09-04T00:11:10+00:00	2020-09-09T06:59:59+00:00	-5	3bz54yzt90978td@marketplace.amazon.com	Howard	+1 480-618-5344 ext. 63492	ABR0022	Purchase Now for Delivery by Tuesday | Arabella Farm Direct Bouquet of 12 Fresh Cut Pink Roses with a Free Glass Vase	1	0	1	Expedited	Rita Burney	142 FAIRWAY RUN			FORSYTH	GA	31029-4975	US			false		
111-6306011-1235428	60351056544162	2020-09-03T23:45:26+00:00	2020-09-03T16:45:26-07:00	2020-09-04T00:12:50+00:00	2020-09-09T06:59:59+00:00	-5	s5ywsbtg92mdj48@marketplace.amazon.com	Marilyn Facente	+1 480-618-5344 ext. 93180	ABR0022	Purchase Now for Delivery by Tuesday | Arabella Farm Direct Bouquet of 12 Fresh Cut Pink Roses with a Free Glass Vase	1	0	1	Expedited	Miriam Vazquez	215 YARMOUTH RD			ROCHESTER	NY	14610-1451	US		Happy Birthday Madrina!!! We love you!! Enjoy your special day!!  Love, Marilyn, Peter and Isabella From Marilyn Facente	false		
112-7405091-8481025	56886162234026	2020-09-04T00:00:51+00:00	2020-09-03T17:00:51-07:00	2020-09-04T00:21:34+00:00	2020-09-09T06:59:59+00:00	-5	1dfm634kxjyv5dt@marketplace.amazon.com	April Young	+1 929-436-4790 ext. 02382	ABR001	Purchase Now for Delivery by Tuesday | Arabella Bouquets 12 Stems of Fresh Cut Red Roses in a Free Designer Glass Vase	1	0	1	Expedited	Jet Kurtz	804 W PENNSYLVANIA AVE			DOWNINGTOWN	PA	19335-2455	US		Welcome to the Wedbush family! From Frank & April	false		
111-2142220-9511444	50355840186514	2020-09-03T23:52:37+00:00	2020-09-03T16:52:37-07:00	2020-09-04T00:22:31+00:00	2020-09-09T06:59:59+00:00	-5	4bd7qhrwvqgvk2h@marketplace.amazon.com	teresa a herr	+1 929-436-4790 ext. 30661	ABM002	Purchase Now for Delivery by Tuesday | Arabella Bouquets Fresh Cut White Calla Lilies in a Free Designer Glass Vase |	1	0	1	Expedited	Martha Herr	40 PIEPERS GLEN CT			O FALLON	MO	63366-2019	US			false		
113-2847646-7318606	02346993144706	2020-09-04T00:01:42+00:00	2020-09-03T17:01:42-07:00	2020-09-04T00:30:31+00:00	2020-09-09T06:59:59+00:00	-5	gmqk89lpnty57g5@marketplace.amazon.com	Ali Kashif Shah	+1 929-436-4790 ext. 78503	ABR0022	Purchase Now for Delivery by Tuesday | Arabella Farm Direct Bouquet of 12 Fresh Cut Pink Roses with a Free Glass Vase	1	0	1	Expedited	Ali K. Shah	6519 W NEWBERRY RD APT 1203			GAINESVILLE	FL	32605-4331	US		We have been through an enormity, don’t quit on me now. I think I’m worth at least the consideration. From Ali Kashif Shah	false		
114-6926018-7741846	14689167305946	2020-09-04T00:14:57+00:00	2020-09-03T17:14:57-07:00	2020-09-04T00:44:02+00:00	2020-09-09T06:59:59+00:00	-5	nnl4ht8gpyjxlvw@marketplace.amazon.com	Connie Worley	+1 929-436-4790 ext. 59194	ABM020	Summer Sunset Bouquet by Arabella Bouquets	1	0	1	Expedited	Rebecca Rose	3730 LINKVIEW DR			HOUSTON	TX	77025-3516	US			false		
113-2685798-4962626	10397374814482	2020-09-04T00:32:11+00:00	2020-09-03T17:32:11-07:00	2020-09-04T00:52:12+00:00	2020-09-09T06:59:59+00:00	-5	6scwp8l7yxcqyhp@marketplace.amazon.com	Ronnie	+1 480-618-5344 ext. 55090	ABR0055	Purchase Now for Delivery by Tuesday | Arabella Farm Direct Bouquet of 12 Stems of Fresh Cut Hot Pink Roses in a Free Designer Glass Vase	1	0	1	Expedited	ANGEL LAWRENCE MARCHESE, Juris Doctorate	1705 SW HASTY WAY			LAWTON	OK	73505-8505	US		Dear Angel, Words can hardly express how proud of you we are. You have been faithful to God and God has the last say. Best wishes Attorney, Counselor, Esquire.  SKEEE-WEE & PHII-SKEE!!! From Uncle Ronnie/Aunt Sherry	false		
114-4381376-9234648	11910780634122	2020-09-04T00:52:47+00:00	2020-09-03T17:52:47-07:00	2020-09-04T01:22:09+00:00	2020-09-09T06:59:59+00:00	-5	8x62h93rl03vb24@marketplace.amazon.com	Jobayer Rahaman	+1 929-436-4790 ext. 66349	ABR001	Purchase Now for Delivery by Tuesday | Arabella Bouquets 12 Stems of Fresh Cut Red Roses in a Free Designer Glass Vase	1	0	1	Expedited	Aydeh Samari	1707 REGENTS ST			LANCASTER	CA	93534-5403	US		Love you babe. ❤️❤️❤️ From Jobayer Rahaman	false		
114-2794748-2216211	02493635071954	2020-09-04T01:43:50+00:00	2020-09-03T18:43:50-07:00	2020-09-04T02:05:41+00:00	2020-09-09T06:59:59+00:00	-5	hxsbpk0w02z4zv6@marketplace.amazon.com	YOLANDA R. THOMPSON-BOJANG	+1 415-851-9136 ext. 34902	ABR0022	Purchase Now for Delivery by Tuesday | Arabella Farm Direct Bouquet of 12 Fresh Cut Pink Roses with a Free Glass Vase	1	0	1	Expedited	Marsha R. Godard	1300 S SPAULDING AVE			CHICAGO	IL	60623-1713	US		Happy Birthday, Aunty Renee!    Tonight is your night to rock out! I might be miles away, but I’m still bobbing my head to your favorite songs. Party hard!  Love you ... From Sam & Yolanda-	false		
112-5191404-4672209	61040323716594	2020-09-04T02:07:40+00:00	2020-09-03T19:07:40-07:00	2020-09-04T02:33:09+00:00	2020-09-09T06:59:59+00:00	-5	z8mb8wvt2sl3hjx@marketplace.amazon.com	Shurid Sen	+1 480-618-5344 ext. 78986	ABR0033	Purchase Now for Delivery by Tuesday | Arabella Farm Direct Bouquet of 12 Fresh Cut Orange Roses with a Free Glass Vase	1	0	1	Expedited	Amy Holdridge	1278 CINNAMON RIDGE CT			SYKESVILLE	MD	21784-6446	US		Amy, good luck on the first day of school! Women are being tasked with more than can be imagined right now, but I have no doubt you will approach this next chapter with the same grace and positivity as you do everything else. From Lacey Sen	false		
112-0354140-0166669	25253803623522	2020-09-04T02:23:39+00:00	2020-09-03T19:23:39-07:00	2020-09-04T02:45:13+00:00	2020-09-09T06:59:59+00:00	-5	z8mb8wvt2sl3hjx@marketplace.amazon.com	Shurid Sen	+1 929-436-4790 ext. 07890	ABR0033	Purchase Now for Delivery by Tuesday | Arabella Farm Direct Bouquet of 12 Fresh Cut Orange Roses with a Free Glass Vase	1	0	1	Expedited	Karin Jue	8928 MAURICE LN			ANNANDALE	VA	22003-3914	US		Karin-Good luck on the first day of school! Parents are being tasked with more than can be imagined right now, but I have no doubt you will approach this next chapter with the same grace and positivity as you do everything. From Lacey Sen	false		
114-5246578-8581864	58675813649994	2020-09-04T02:20:22+00:00	2020-09-03T19:20:22-07:00	2020-09-04T02:49:51+00:00	2020-09-09T06:59:59+00:00	-5	sgh6k5q3m4tzfv2@marketplace.amazon.com	Shoshanna Starzynski	+1 480-618-5344 ext. 07537	ABR0022	Purchase Now for Delivery by Tuesday | Arabella Farm Direct Bouquet of 12 Fresh Cut Pink Roses with a Free Glass Vase	1	0	1	Expedited	Jeannine Rothenberg	19 BLOSSOM RD			RUMSON	NJ	07760-1848	US		Happy Birthday! Wishing you good health and happiness. With much love, Shoshanna From Shoshanna Starzynski	false		
113-3448116-3775466	20331613855362	2020-09-04T02:46:24+00:00	2020-09-03T19:46:24-07:00	2020-09-04T03:04:13+00:00	2020-09-09T06:59:59+00:00	-5	jyg1s1kw1cmr6vk@marketplace.amazon.com	Janet Goddard	+1 480-618-5344 ext. 10508	ABM0033	Purchase Now for Delivery by Tuesday | Arabella Farm Direct Bouquet of Fresh Cut White Hydrangea with a Free Glass Vase	1	0	1	Expedited	Nancy King	116 SKYVIEW DR			HENDERSONVILLE	TN	37075-4011	US		Sending Loving thoughts and prayers  From our hearts to yours, Chuck & Janet We Love you! From Janet Goddard	false		
111-7400966-5469845	26655512911554	2020-09-04T02:40:11+00:00	2020-09-03T19:40:11-07:00	2020-09-04T03:10:03+00:00	2020-09-09T06:59:59+00:00	-5	lkffk14v26340cj@marketplace.amazon.com	Bernice	+1 929-436-4790 ext. 85825	ABR0055	Purchase Now for Delivery by Tuesday | Arabella Farm Direct Bouquet of 12 Stems of Fresh Cut Hot Pink Roses in a Free Designer Glass Vase	1	0	1	Expedited	Ann Marie Churnetski	TERRACE VIEW LONG TERM CARE FACILITY	462 GRIDER ST		BUFFALO	NY	14215-3098	US		Happy Birthday! Enjoy your gift! From Bernice	false		
112-1136153-9083416	11420922899570	2020-09-04T02:58:37+00:00	2020-09-03T19:58:37-07:00	2020-09-04T03:25:27+00:00	2020-09-09T06:59:59+00:00	-5	mfsyjt50yj4tjdv@marketplace.amazon.com	Nina Basu	+1 929-436-4790 ext. 78749	ABR0022	Purchase Now for Delivery by Tuesday | Arabella Farm Direct Bouquet of 12 Fresh Cut Pink Roses with a Free Glass Vase	1	0	1	Expedited	Graham Cruickshank	7120 LASTING LIGHT WAY			COLUMBIA	MD	21045-5122	US		Manly men like pink. From Me	false		
111-2729341-3194639	07900018963082	2020-09-04T03:13:49+00:00	2020-09-03T20:13:49-07:00	2020-09-04T03:44:29+00:00	2020-09-09T06:59:59+00:00	-5	8ckhrnwttgj2tfq@marketplace.amazon.com	Dianne Caduhada	+1 929-436-4790 ext. 20111	ABR001	Purchase Now for Delivery by Tuesday | Arabella Bouquets 12 Stems of Fresh Cut Red Roses in a Free Designer Glass Vase	1	0	1	Expedited	Dianne Caduhada	1281 WANTAGH AVE			WANTAGH	NY	11793-2205	US			false		
111-9246764-8433046	04804127654522	2020-09-04T03:52:45+00:00	2020-09-03T20:52:45-07:00	2020-09-04T04:14:24+00:00	2020-09-09T06:59:59+00:00	-5	3dx8n2hs3f2dygs@marketplace.amazon.com	Maureen C. Begley	+1 929-436-4790 ext. 66110	ABR001	Purchase Now for Delivery by Tuesday | Arabella Bouquets 12 Stems of Fresh Cut Red Roses in a Free Designer Glass Vase	1	0	1	Expedited	Ms Karen Begley	60 MORSE AVE			STATEN ISLAND	NY	10314-5661	US		Hi Karen, Hope you're feeling better each day. Please rest and take care. Better days are coming.  Much love, Maureen  & Kevin From Maureen C. Begley	false		
114-2824122-2053865	47549094381082	2020-09-04T04:01:30+00:00	2020-09-03T21:01:30-07:00	2020-09-04T04:28:21+00:00	2020-09-09T06:59:59+00:00	-5	6s73w85jq50p31w@marketplace.amazon.com	Charlyn Chambers Greene	+1 480-618-5344 ext. 63558	ABR0022	Purchase Now for Delivery by Tuesday | Arabella Farm Direct Bouquet of 12 Fresh Cut Pink Roses with a Free Glass Vase	1	0	1	Expedited	Roseanna Larson	CENTRAL HIGH SCHOOL	1530 MONMOUTH ST		INDEPENDENCE	OR	97351-1006	US		Sending you love & Happy belated birthday wishes across the miles. Love you & miss you sis!  XoXo From Charlyn Chambers Greene	false		
111-7923165-3186652	38583845612810	2020-09-04T04:37:07+00:00	2020-09-03T21:37:07-07:00	2020-09-04T05:00:38+00:00	2020-09-09T06:59:59+00:00	-5	mlppfgqqkt7fdm9@marketplace.amazon.com	Octavia Hyacinth	+1 480-618-5344 ext. 66958	ABR0022	Purchase Now for Delivery by Tuesday | Arabella Farm Direct Bouquet of 12 Fresh Cut Pink Roses with a Free Glass Vase	1	0	1	Standard	Natasha Kerr	1001 OCALA RD APT K270			TALLAHASSEE	FL	32304-1610	US		Happy Birthday Natasha!!! Hope you enjoy the flowers and Macaron's!! Love, Tavia From Octavia Hyacinth	false		
113-7316130-4011412	63723882464410	2020-09-04T04:53:03+00:00	2020-09-03T21:53:03-07:00	2020-09-04T05:23:08+00:00	2020-09-09T06:59:59+00:00	-5	7n1c9khts6yl7w3@marketplace.amazon.com	Andrew Rabin	+1 480-618-5344 ext. 14072	ABR0066	Arabella Bouquets 12 Stems of Fresh Cut White Roses in a Free Designer Glass Vase	1	0	1	Expedited	Betty Joyce Rabin	BIG BEND WOODS HEALTHCARE CENTER	110 HIGHLAND AVE		VALLEY PARK	MO	63088-1422	US			false		
114-3082263-0609051	08886968915434	2020-09-04T05:12:25+00:00	2020-09-03T22:12:25-07:00	2020-09-04T05:39:04+00:00	2020-09-09T06:59:59+00:00	-5	wr85dh9rm134hgn@marketplace.amazon.com	Michele Robuck	+1 929-436-4790 ext. 07327	ABM010	Purchase Now for Delivery by Tuesday | The Spring Fling Bouquet by Arabella Bouquets with a Free Designer Glass Vase	1	0	1	Expedited	Bonnie Graham	2217 POOLE RD			RALEIGH	NC	27610-2728	US		Enjoy your new home, We love you guys.  Love M,M G, H and I From Michele Robuck	false		
111-2877082-6679406	38440449328674	2020-09-04T06:15:28+00:00	2020-09-03T23:15:28-07:00	2020-09-04T06:41:35+00:00	2020-09-09T06:59:59+00:00	-5	3vkmksq3w6dbthv@marketplace.amazon.com	Shermamat	+1 480-618-5344 ext. 62481	ABR015	Purchase Now for Delivery by Tuesday | Arabella Farm Direct Bouquet of 18 Fresh Cut Orange Roses with a Free Glass Vase	1	0	1	Expedited	Monica Kafil	59 S GLEN RD			KINNELON	NJ	07405-2715	US		Dear Monica Khanum, A wish for you on your birthday, whatever you ask may you receive, whatever you seek may you find, whatever you wish may it be fulfilled on your birthday and always. Happy birthday! Love you. From Julia Sherm	false		
114-3889083-6360254	21400116787698	2020-09-04T07:25:10+00:00	2020-09-04T00:25:10-07:00	2020-09-04T07:51:47+00:00	2020-09-10T06:59:59+00:00	-6	svyv5286jrqqk0k@marketplace.amazon.com	Tânia Carvalho	+1 480-618-5344 ext. 75998	ABR0066	Arabella Bouquets 12 Stems of Fresh Cut White Roses in a Free Designer Glass Vase	1	0	1	Expedited	La Fortune Forrester	3725 LAVISTA RD T-1			TUCKER	GA	30084	US			false		
112-5651562-0891433	21348711886170	2020-09-04T03:14:12+00:00	2020-09-03T20:14:12-07:00	2020-09-04T08:26:24+00:00	2020-09-09T06:59:59+00:00	-5	w7zbvc694ywky27@marketplace.amazon.com	Frank	+1 480-618-5344 ext. 48568	ABR0022	Purchase Now for Delivery by Tuesday | Arabella Farm Direct Bouquet of 12 Fresh Cut Pink Roses with a Free Glass Vase	1	0	1	Standard	MarryAnn Wright	4794 W VISTA DR HIGHLAND UT	4794 W VISTA DR HIGHLAND UT 84003HI		HIGHLAND	UT	84003-9583	US			false		
111-9393487-3029856	62561071936890	2020-09-04T12:52:56+00:00	2020-09-04T05:52:56-07:00	2020-09-04T13:22:12+00:00	2020-09-10T06:59:59+00:00	-6	d0pxm1l2n2v8m33@marketplace.amazon.com	James Caddell	+1 480-618-5344 ext. 21198	ABM022	Purple Extravagance Bouquet by Arabella Bouquets	1	0	1	Expedited	Deloris Combs	63 OAKFORD AVE			RICHWOOD	WV	26261-1134	US			false		
113-3146836-7024244	09228001960746	2020-09-04T13:21:31+00:00	2020-09-04T06:21:31-07:00	2020-09-04T13:51:14+00:00	2020-09-10T06:59:59+00:00	-6	qjz0hykd4kgpwtq@marketplace.amazon.com	Rick Allmon	+1 929-436-4790 ext. 55255	ABR0022	Purchase Now for Delivery by Tuesday | Arabella Farm Direct Bouquet of 12 Fresh Cut Pink Roses with a Free Glass Vase	1	0	1	Expedited	Elsie Allmon	4835 W LAWTHER DR APT 602			DALLAS	TX	75214-1852	US			false		
111-4895048-0777012	30727723379730	2020-09-04T13:23:27+00:00	2020-09-04T06:23:27-07:00	2020-09-04T13:52:52+00:00	2020-09-10T06:59:59+00:00	-6	bz3p9hcjdsc9307@marketplace.amazon.com	James Ferryman	+1 480-618-5344 ext. 09341	ABR001	Purchase Now for Delivery by Tuesday | Arabella Bouquets 12 Stems of Fresh Cut Red Roses in a Free Designer Glass Vase	1	0	1	Expedited	Christine Pemelton	2480 QUEENSBURY RD			ALLIANCE	OH	44601-8398	US		Love hits us when we least expect it, I’m happy we were in the crossfire and found each other From Richard B	false		
113-7937613-6118628	20799930637138	2020-09-04T13:35:55+00:00	2020-09-04T06:35:55-07:00	2020-09-04T14:02:53+00:00	2020-09-10T06:59:59+00:00	-6	brskyrb97xw4lwy@marketplace.amazon.com	Wayne Richards	+1 480-618-5344 ext. 19741	ABR0022	Purchase Now for Delivery by Tuesday | Arabella Farm Direct Bouquet of 12 Fresh Cut Pink Roses with a Free Glass Vase	1	0	1	Expedited	Ron and Judy Kuykendall	8251 Stenton Drive NE			Leland	North Carolina	28451	US		Enjoy your gift! You are the best Neighbors one can have  Wayne From Wayne Richards	false		
113-7371543-8809053	23758644508658	2020-09-04T14:07:09+00:00	2020-09-04T07:07:09-07:00	2020-09-04T14:35:10+00:00	2020-09-10T06:59:59+00:00	-6	5s5mfbrp6pnjpms@marketplace.amazon.com	Tracytan	+1 415-851-9136 ext. 61802	ABR0022	Purchase Now for Delivery by Tuesday | Arabella Farm Direct Bouquet of 12 Fresh Cut Pink Roses with a Free Glass Vase	1	0	1	Expedited	Zhitong Li	101 MC LELLAN DR APT 3022			SOUTH SAN FRANCISCO	CA	94080-7526	US		Happy birthday to Tongtong! From Mom	false		
113-5243759-0544236	29007983856986	2020-09-04T14:16:29+00:00	2020-09-04T07:16:29-07:00	2020-09-04T14:43:00+00:00	2020-09-10T06:59:59+00:00	-6	th1q2hf6dqfhcjf@marketplace.amazon.com	diane knight	+1 929-436-4790 ext. 53165	ABM010	Purchase Now for Delivery by Tuesday | The Spring Fling Bouquet by Arabella Bouquets with a Free Designer Glass Vase	1	0	1	Expedited	Denise Seeber	23W256 WOODCROFT DR			GLEN ELLYN	IL	60137-6551	US		Happy Birthday!! From diane knight	false		
114-6216319-6055454	02335608897802	2020-09-04T14:29:41+00:00	2020-09-04T07:29:41-07:00	2020-09-04T15:00:08+00:00	2020-09-10T06:59:59+00:00	-6	l0wby8ty4js7wm0@marketplace.amazon.com	jihae	+1 480-618-5344 ext. 36544	ABR0022	Purchase Now for Delivery by Tuesday | Arabella Farm Direct Bouquet of 12 Fresh Cut Pink Roses with a Free Glass Vase	1	0	1	Expedited	Jay Choi	3005 S 47TH ST CEDAR COURT	APT 124		TACOMA	WA	98409-6564	US			false		
111-1223848-1261869	52579259409410	2020-09-04T14:30:04+00:00	2020-09-04T07:30:04-07:00	2020-09-04T15:00:35+00:00	2020-09-10T06:59:59+00:00	-6	1blnldp0k46c0s8@marketplace.amazon.com	Liliu	+1 929-436-4790 ext. 94687	ABR0055	Purchase Now for Delivery by Tuesday | Arabella Farm Direct Bouquet of 12 Stems of Fresh Cut Hot Pink Roses in a Free Designer Glass Vase	1	0	1	Expedited	Shahada Shabazz	3112 DESERT DR APT 4			EAST POINT	GA	30344-6228	US			false		
111-5862352-8294635	60114754992586	2020-09-04T14:37:23+00:00	2020-09-04T07:37:23-07:00	2020-09-04T15:07:12+00:00	2020-09-10T06:59:59+00:00	-6	b048n9cdqxsh8k8@marketplace.amazon.com	Cindy Gilreath	+1 415-851-9136 ext. 38783	ABR0022	Purchase Now for Delivery by Tuesday | Arabella Farm Direct Bouquet of 12 Fresh Cut Pink Roses with a Free Glass Vase	1	0	1	Expedited	Shannon Luzadder	205 WATEREE WAY			SIMPSONVILLE	SC	29680-7738	US		Happy 50 th Birthday! From Cindy Gilreath	false		
114-9904076-8974615	50966037477722	2020-09-04T14:31:36+00:00	2020-09-04T07:31:36-07:00	2020-09-04T15:07:25+00:00	2020-09-10T06:59:59+00:00	-6	t7nqzwfbyqycsmh@marketplace.amazon.com	keithon williams	+1 415-851-9136 ext. 56601	ABR0022	Purchase Now for Delivery by Tuesday | Arabella Farm Direct Bouquet of 12 Fresh Cut Pink Roses with a Free Glass Vase	1	0	1	Expedited	Yessica Camarena Gomez	11211 WESTWOOD LOOP APT 2215			SAN ANTONIO	TX	78253-2109	US			false		
112-4305912-1883464	30699735713586	2020-09-04T14:41:12+00:00	2020-09-04T07:41:12-07:00	2020-09-04T15:09:51+00:00	2020-09-10T06:59:59+00:00	-6	vfs8jc2bkhx8dfy@marketplace.amazon.com	Carol S. Dickenson	+1 929-436-4790 ext. 12905	ABR0022	Purchase Now for Delivery by Tuesday | Arabella Farm Direct Bouquet of 12 Fresh Cut Pink Roses with a Free Glass Vase	1	0	1	Expedited	Rachel Dickenson	715 6TH ST NW UNIT 304			WASHINGTON	DC	20001-5904	US		Happy Birthday, Rachel!! Love, moms From Carol S. Dickenson	false		
114-4384123-5000262	10475356878978	2020-09-03T17:59:14+00:00	2020-09-03T10:59:14-07:00	2020-09-04T15:13:37+00:00	2020-09-10T06:59:59+00:00	-6	c0wp934dpcmkwkt@marketplace.amazon.com	Kelsie Davis	+1 480-618-5344 ext. 75216	ABR0055	Purchase Now for Delivery by Tuesday | Arabella Farm Direct Bouquet of 12 Stems of Fresh Cut Hot Pink Roses in a Free Designer Glass Vase	1	0	1	Expedited	Marla Schneider	70 LOCUST ST			DENVER	CO	80220-5961	US			false		
112-7650723-8809814	34164858367970	2020-09-04T14:46:10+00:00	2020-09-04T07:46:10-07:00	2020-09-04T15:16:09+00:00	2020-09-10T06:59:59+00:00	-6	1b4w9s4pg74dxhp@marketplace.amazon.com	Ellen Kingery	+1 480-618-5344 ext. 85980	ABM010	Purchase Now for Delivery by Tuesday | The Spring Fling Bouquet by Arabella Bouquets with a Free Designer Glass Vase	1	0	1	Expedited	Olivia Kingery	2606 8TH AVE S APT 6-101			NASHVILLE	TN	37204-2594	US			false		
112-7774447-6325863	25698031860482	2020-09-04T14:57:42+00:00	2020-09-04T07:57:42-07:00	2020-09-04T15:26:59+00:00	2020-09-10T06:59:59+00:00	-6	c2hh78t7j74sm0f@marketplace.amazon.com	Kavin Cartmell	+1 480-618-5344 ext. 27005	ABB003	Arabella Farm Direct Fresh Cut Blue Hydrangea	1	0	1	Expedited	Kavin Cartmell	5038 Parry Lane			Maysville	Ky	41056	US			false		
112-6083947-9005847	15331705986082	2020-09-04T15:14:15+00:00	2020-09-04T08:14:15-07:00	2020-09-04T15:40:02+00:00	2020-09-10T06:59:59+00:00	-6	bj70665kl2h8fxx@marketplace.amazon.com	Linda L James	+1 929-436-4790 ext. 49029	ABR0022	Purchase Now for Delivery by Tuesday | Arabella Farm Direct Bouquet of 12 Fresh Cut Pink Roses with a Free Glass Vase	1	0	1	Expedited	Beatrice James	GOLDEN LIVING CENTER-WOODLANDS	4088 FRAME RD		NEWBURGH	IN	47630-2258	US		Bea and Dad Wanted you to know we were thinking of you. Love, Linda and Jerry From Linda L James	false		
113-5955790-2264247	40742140991018	2020-09-04T15:10:18+00:00	2020-09-04T08:10:18-07:00	2020-09-04T15:40:40+00:00	2020-09-10T06:59:59+00:00	-6	q3gt9mvw49wglsm@marketplace.amazon.com	Lucie Nyirjesy	+1 929-436-4790 ext. 83955	ABR0022	Purchase Now for Delivery by Tuesday | Arabella Farm Direct Bouquet of 12 Fresh Cut Pink Roses with a Free Glass Vase	1	0	1	Expedited	Mikaela Hendrickson	184 8TH AVE APT 3			BROOKLYN	NY	11215-2225	US			false		
112-5806637-2327431	13938122109986	2020-09-04T15:49:06+00:00	2020-09-04T08:49:06-07:00	2020-09-04T15:49:52+00:00	2020-09-10T06:59:59+00:00	-6	1gxl5kv35rd84jj@marketplace.amazon.com	Arman	001 201 450 74 74	ABR014	Arabella Bouquets 18 Stems of Fresh Cut White Roses in a Free Designer Glass Vase	1	0	1	Standard	Anna Avagyan	449 Heights Road			Ridgewood, NJ 07450	New Jersey	07450	US			false		
112-3681984-0010632	37213266031914	2020-09-04T15:44:38+00:00	2020-09-04T08:44:38-07:00	2020-09-04T16:12:55+00:00	2020-09-10T06:59:59+00:00	-6	fmzm30x66rqllsf@marketplace.amazon.com	Sheila Ozbolt	+1 480-618-5344 ext. 69224	ABR0022	Purchase Now for Delivery by Tuesday | Arabella Farm Direct Bouquet of 12 Fresh Cut Pink Roses with a Free Glass Vase	1	0	1	Standard	Julia Ozbolt	9219 S STONE VIEW CV			SANDY	UT	84093-3204	US		Enjoy your gift! Happy Birthday! From Love from Mom	false		
112-6710339-4359426	62400320650538	2020-09-04T16:18:26+00:00	2020-09-04T09:18:26-07:00	2020-09-04T16:48:48+00:00	2020-09-10T06:59:59+00:00	-6	5cbwbyjr3cynkd4@marketplace.amazon.com	Gail Bennett	+1 929-436-4790 ext. 39718	ABR004	Arabella Farm Direct Bouquet of 12 Fresh Cut Yellow Roses with a Free Glass Vase	1	0	1	Expedited	Carol Coleman	118 Richards ave			Paxton	MA	01612	US			false		
114-9740346-9541802	17571837378890	2020-09-04T15:44:41+00:00	2020-09-04T08:44:41-07:00	2020-09-04T17:01:23+00:00	2020-09-10T06:59:59+00:00	-6	sstl3yylr38fk3m@marketplace.amazon.com	Marcela Pantoja	+1 929-436-4790 ext. 60762	ABR012	Purchase Now for Delivery by Tuesday | Arabella Farm Direct Bouquet of 18 Fresh Cut Pink Roses with a Free Glass Vase	1	0	1	Expedited	Johana Mamián	710 12TH ST S	APTO 2312		ARLINGTON	VA	22202-4289	US		Feliz cumpleaños!! Espero que haya tenido un lindo día, y que este nuevo año venga lleno de bendiciones, éxitos y menos estrés jeje, Abracitos De Marcela	false		
114-2471429-5808266	51582058870130	2020-09-04T16:42:59+00:00	2020-09-04T09:42:59-07:00	2020-09-04T17:11:37+00:00	2020-09-10T06:59:59+00:00	-6	1nmjxh2j54djcl2@marketplace.amazon.com	Cody Thompson	+1 480-618-5344 ext. 47654	ABR0022	Purchase Now for Delivery by Tuesday | Arabella Farm Direct Bouquet of 12 Fresh Cut Pink Roses with a Free Glass Vase	1	0	1	Expedited	Elizabeth Cheema	330 ACADEMY ST			SOUTH ORANGE	NJ	07079-1880	US			false		
112-7380617-9898662	00480027430386	2020-09-04T17:09:11+00:00	2020-09-04T10:09:11-07:00	2020-09-04T17:39:09+00:00	2020-09-10T06:59:59+00:00	-6	w2qw54xmv2bmx2c@marketplace.amazon.com	Wendi	+1 929-436-4790 ext. 95394	ABR0022	Purchase Now for Delivery by Tuesday | Arabella Farm Direct Bouquet of 12 Fresh Cut Pink Roses with a Free Glass Vase	1	0	1	Expedited	Sandra Burgamy	CHARTER SENIOR LIVING	6012 MAGNOLIA BEACH RD		PANAMA CITY BEACH	FL	32408-7065	US			false		
112-3836622-9989010	23552049145074	2020-09-04T17:21:32+00:00	2020-09-04T10:21:32-07:00	2020-09-04T17:49:38+00:00	2020-09-10T06:59:59+00:00	-6	vzvwplj7dhfshcb@marketplace.amazon.com	Natalie J Partyka	+1 929-436-4790 ext. 84541	ABR0022	Purchase Now for Delivery by Tuesday | Arabella Farm Direct Bouquet of 12 Fresh Cut Pink Roses with a Free Glass Vase	1	0	1	Expedited	KAthy Kemili	6 KASPER DR			CLIFTON PARK	NY	12065-5539	US		Sorry this is so late! Thinking of you and wishing you a speedy recovery!!!! From Natalie J Partyka	false		
113-6070706-7769036	47417498460882	2020-09-04T17:49:13+00:00	2020-09-04T10:49:13-07:00	2020-09-04T17:50:07+00:00	2020-09-10T06:59:59+00:00	-6	rk50323wyrfmfyx@marketplace.amazon.com	Sondra Oneill	+1 929-436-4790 ext. 11848	ABM010	Purchase Now for Delivery by Tuesday | The Spring Fling Bouquet by Arabella Bouquets with a Free Designer Glass Vase	1	0	1	Expedited	Sondra Oneill	1021 N BROADWAY			EVERETT	WA	98201-1405	US		Dear Gino, sending you loads of good wishes for a speedy recovery and good health. From Sunrise Services BH Team	false		
113-5803903-6801047	07796562204674	2020-09-04T17:29:09+00:00	2020-09-04T10:29:09-07:00	2020-09-04T17:51:15+00:00	2020-09-10T06:59:59+00:00	-6	wt57pb4dp9f2gzd@marketplace.amazon.com	Thomas Keinath	+1 929-436-4790 ext. 81643	ABR0022	Purchase Now for Delivery by Tuesday | Arabella Farm Direct Bouquet of 12 Fresh Cut Pink Roses with a Free Glass Vase	1	0	1	Expedited	Mrs. Tiffany Escobar	26954 E INDORE AVE			AURORA	CO	80016-5462	US		Happy Birthday, Tiffany. I love you and miss you so much. Have a wonderful day; and may Jesus bless the year ahead in every way. Love Dad From Thomas Keinath	false		
111-4051121-1333829	09628922940538	2020-09-04T17:54:08+00:00	2020-09-04T10:54:08-07:00	2020-09-04T18:20:35+00:00	2020-09-10T06:59:59+00:00	-6	2c20z1tmmsnj8t6@marketplace.amazon.com	Dorothy Laage	+1 415-851-9136 ext. 67028	ABR014	Arabella Bouquets 18 Stems of Fresh Cut White Roses in a Free Designer Glass Vase	1	0	1	Expedited	Lena Buyan	2 PIERCE AVE APT 539			SAN JOSE	CA	95110-2960	US			false		
113-5223004-4821805	15732607858482	2020-09-04T18:03:59+00:00	2020-09-04T11:03:59-07:00	2020-09-04T18:27:28+00:00	2020-09-10T06:59:59+00:00	-6	rk50323wyrfmfyx@marketplace.amazon.com	Sondra Oneill	+1 415-851-9136 ext. 98960	ABM010	Purchase Now for Delivery by Tuesday | The Spring Fling Bouquet by Arabella Bouquets with a Free Designer Glass Vase	1	0	1	Expedited	Frank Gino Wolfe	2439 WILLIAMS RD			OAK HARBOR	WA	98277-8582	US		Dear Gino, sending you loads of good wishes for a speedy recovery and good health. From Sunrise Services Behavioral Health Team	false		
111-3514644-0597807	66742102997738	2020-09-04T18:05:43+00:00	2020-09-04T11:05:43-07:00	2020-09-04T18:31:42+00:00	2020-09-10T06:59:59+00:00	-6	08y4w824h859svv@marketplace.amazon.com	Carol Malis	+1 929-436-4790 ext. 42051	ABR0022	Purchase Now for Delivery by Tuesday | Arabella Farm Direct Bouquet of 12 Fresh Cut Pink Roses with a Free Glass Vase	1	0	1	Expedited	Elaine Garrett	626 E KILBOURN AVE APT 2201			MILWAUKEE	WI	53202-3241	US		Dear Elaine We are all wishing you a complete and speedy recovery. Enjoy your gift! From Carol B. Evie, Rona, Anita, Carol M, Sharon, Sandy, Gail	false		
111-7717478-0858612	10285601519770	2020-09-04T19:24:29+00:00	2020-09-04T12:24:29-07:00	2020-09-04T19:50:26+00:00	2020-09-10T06:59:59+00:00	-6	rg13cbcjfs3t7qt@marketplace.amazon.com	Cindy Young	+1 480-618-5344 ext. 33885	ABR0055	Purchase Now for Delivery by Tuesday | Arabella Farm Direct Bouquet of 12 Stems of Fresh Cut Hot Pink Roses in a Free Designer Glass Vase	1	0	1	Expedited	Linda Mitchel	110 COATES AVE			TUSCOLA	TX	79562-3727	US		Happy Birthday!!!! Love you. From Cindy Young	false		
114-2094093-2273866	22579977904114	2020-09-04T19:30:43+00:00	2020-09-04T12:30:43-07:00	2020-09-04T20:00:20+00:00	2020-09-10T06:59:59+00:00	-6	8f26dplwkkrtxyv@marketplace.amazon.com	Jonathan	+1 929-436-4790 ext. 41468	ABR0022	Purchase Now for Delivery by Tuesday | Arabella Farm Direct Bouquet of 12 Fresh Cut Pink Roses with a Free Glass Vase	1	0	1	Standard	Cynthia diamond	4201 BRYN MAWR DR NE APT D212			ALBUQUERQUE	NM	87107-4873	US		I still love you and I will continue to love you forever and always no matter what happens 💜💖 From Jonathan	false		
113-1170732-9753864	31667516104506	2020-09-04T19:50:20+00:00	2020-09-04T12:50:20-07:00	2020-09-04T20:18:16+00:00	2020-09-10T06:59:59+00:00	-6	b12dndrzln263r9@marketplace.amazon.com	Scott Cameron	+1 929-436-4790 ext. 98717	ABM010	Purchase Now for Delivery by Tuesday | The Spring Fling Bouquet by Arabella Bouquets with a Free Designer Glass Vase	1	0	1	Expedited	Brian Fahey	21 PRIDES PATH			ORLEANS	MA	02653-2012	US		Brian,  I am very sorry for your loss.  Sending you love from NY.  Love,  Scott and Molly	false		
114-2502107-7329869	24247232103938	2020-09-04T20:15:26+00:00	2020-09-04T13:15:26-07:00	2020-09-04T20:33:20+00:00	2020-09-10T06:59:59+00:00	-6	w2sh5rzxxxx3j50@marketplace.amazon.com	Victor	+1 929-436-4790 ext. 12840	ABR0055	Purchase Now for Delivery by Tuesday | Arabella Farm Direct Bouquet of 12 Stems of Fresh Cut Hot Pink Roses in a Free Designer Glass Vase	1	0	1	Expedited	Heather Diaz	2749 TEAL DR			WEST SACRAMENTO	CA	95691-4405	US			false		
114-9300867-8940263	41252398455570	2020-09-04T20:21:00+00:00	2020-09-04T13:21:00-07:00	2020-09-04T20:49:44+00:00	2020-09-10T06:59:59+00:00	-6	qctvwlxlg3zlx09@marketplace.amazon.com	clara Pascal	+1 929-436-4790 ext. 09293	ABM022	Purple Extravagance Bouquet by Arabella Bouquets	1	0	1	Expedited	clara Pascal	1240 MARIOLA CT			CORAL GABLES	FLORIDA	33134-6264	US			false		
114-9720227-3761001	38573725793394	2020-09-04T20:58:19+00:00	2020-09-04T13:58:19-07:00	2020-09-04T21:27:32+00:00	2020-09-10T06:59:59+00:00	-6	1zmk3ct3l17s472@marketplace.amazon.com	Shawn Biehler	+1 480-618-5344 ext. 86570	ABR0022	Purchase Now for Delivery by Tuesday | Arabella Farm Direct Bouquet of 12 Fresh Cut Pink Roses with a Free Glass Vase	1	0	1	Expedited	Nancy Stevens	344 E Scranton Ave.			Lake Bluff	IL	60044	US			false		
112-4555925-1492224	32045636564354	2020-09-04T21:19:40+00:00	2020-09-04T14:19:40-07:00	2020-09-04T21:47:06+00:00	2020-09-10T06:59:59+00:00	-6	zcn3qgdj1q7553g@marketplace.amazon.com	Lauren Schoene	+1 480-618-5344 ext. 07054	ABM010	Purchase Now for Delivery by Tuesday | The Spring Fling Bouquet by Arabella Bouquets with a Free Designer Glass Vase	1	0	1	Expedited	Laura Butler	60 PATERSON ST APT 807			NEW BRUNSWICK	NJ	08901-2142	US		Laura,   Will you be my maid of honor? 💕  Love, Lauren From Lauren Schoene	false		
112-1783794-1132268	02050694788386	2020-09-04T21:25:34+00:00	2020-09-04T14:25:34-07:00	2020-09-04T21:54:24+00:00	2020-09-10T06:59:59+00:00	-6	s9p73ndxrrpm0gk@marketplace.amazon.com	Eric Barbera	+1 929-436-4790 ext. 19973	ABR0022	Purchase Now for Delivery by Tuesday | Arabella Farm Direct Bouquet of 12 Fresh Cut Pink Roses with a Free Glass Vase	1	0	1	Expedited	Anne Marie Correia	23939 AVENIDA CRESCENTA			VALENCIA	CA	91355-3101	US			false		
112-2667645-4843430	63400954084058	2020-09-04T21:33:55+00:00	2020-09-04T14:33:55-07:00	2020-09-04T22:03:08+00:00	2020-09-10T06:59:59+00:00	-6	lvm0nh8d6vyf36p@marketplace.amazon.com	Joseph Jurewicz	+1 480-618-5344 ext. 08764	ABM026	The Amour Bouquet by Arabella Bouquets	1	0	1	Expedited	Janet Beebe	12486 HICKIN RD NW			RAPID CITY	MI	49676-9811	US			false		
113-9500811-3632255	31124184038602	2020-09-04T21:35:10+00:00	2020-09-04T14:35:10-07:00	2020-09-04T22:05:17+00:00	2020-09-10T06:59:59+00:00	-6	40qx7vypvy0fpmp@marketplace.amazon.com	nancy torres	+1 929-436-4790 ext. 50943	ABR0022	Purchase Now for Delivery by Tuesday | Arabella Farm Direct Bouquet of 12 Fresh Cut Pink Roses with a Free Glass Vase	1	0	1	Expedited	Amy Cabral	7524 HILLCREST DR APT C			FLORENCE	KY	41042-2249	US			false		
111-5131911-3897821	15823085199650	2020-09-04T21:38:50+00:00	2020-09-04T14:38:50-07:00	2020-09-04T22:08:30+00:00	2020-09-10T06:59:59+00:00	-6	lcrxp95vhfygpq6@marketplace.amazon.com	Robert Gordon	+1 480-618-5344 ext. 69173	ABR0055	Purchase Now for Delivery by Tuesday | Arabella Farm Direct Bouquet of 12 Stems of Fresh Cut Hot Pink Roses in a Free Designer Glass Vase	1	0	1	Expedited	Robin Sayers	12116 NE 137TH PL			KIRKLAND	WA	98034-2229	US			false		
113-3660120-2894624	24001888170378	2020-09-04T21:57:21+00:00	2020-09-04T14:57:21-07:00	2020-09-04T22:25:49+00:00	2020-09-10T06:59:59+00:00	-6	hrfgv036b5l1p22@marketplace.amazon.com	Melanie STuckey	+1 929-436-4790 ext. 34456	ABR001	Purchase Now for Delivery by Tuesday | Arabella Bouquets 12 Stems of Fresh Cut Red Roses in a Free Designer Glass Vase	1	0	1	Expedited	walter stuckey	2027 SUBURBAN CIR			BIRMINGHAM	AL	35214-1830	US		YOUR FAVORITE DAUGHTER LOVES YOU!  ON BEHALF OF AMAZON WE ARE SORRY FOR THE DELAY! From Melanie STuckey	false		
112-8774717-2890625	44774084107762	2020-09-04T22:01:10+00:00	2020-09-04T15:01:10-07:00	2020-09-04T22:29:17+00:00	2020-09-10T06:59:59+00:00	-6	zb61668t1w29b66@marketplace.amazon.com	Cooper	+1 480-618-5344 ext. 34466	ABR0022	Purchase Now for Delivery by Tuesday | Arabella Farm Direct Bouquet of 12 Fresh Cut Pink Roses with a Free Glass Vase	1	0	1	Expedited	Taylor Donaldson	730 LAKEVIEW CT UNIT C			GRAND JUNCTION	CO	81505-8715	US		Wishing you the most speedy recovery possible.    I love you! From Cooper	false		
114-8179059-3908236	51481591604538	2020-09-02T02:49:49+00:00	2020-09-01T19:49:49-07:00	2020-09-04T22:35:26+00:00	2020-09-10T06:59:59+00:00	-6	fgzpt627bwkwyfz@marketplace.amazon.com	jesus gonzalez	+1 415-851-9136 ext. 45502	ABR001	Purchase Now for Delivery by Friday | Arabella Bouquets 12 Stems of Fresh Cut Red Roses in a Free Designer Glass Vase	1	0	1	Standard	Rodney Melgoza	D-01 AMERICAN EAGLE	1327 S YUMA PALMS PKWY		YUMA	AZ	85365-1715	US		I hope this brightens up your day,  like you’ve brightened up my life! I love you babe Happy birthday my love From jesus gonzalez	false		
111-6350634-8567405	02368108241434	2020-09-04T22:17:20+00:00	2020-09-04T15:17:20-07:00	2020-09-04T22:43:14+00:00	2020-09-10T06:59:59+00:00	-6	2sdm13dx44bb3r0@marketplace.amazon.com	Luz	+1 929-436-4790 ext. 03811	ABR012	Purchase Now for Delivery by Tuesday | Arabella Farm Direct Bouquet of 18 Fresh Cut Pink Roses with a Free Glass Vase	1	0	1	Expedited	Kristen Parry	16333 VANCE JACKSON APT 2302			SAN ANTONIO	TX	78257-5109	US		Thinking about you!  Sorry we are not seeing eye to eye but I know we love each other.  You are headstrong and so am I.  It's not wonder we butt heads.  Love always! From Ma	false		
113-9584082-2826608	68131250613050	2020-09-04T22:20:08+00:00	2020-09-04T15:20:08-07:00	2020-09-04T22:48:27+00:00	2020-09-10T06:59:59+00:00	-6	pnbh4shqm4qm1z6@marketplace.amazon.com	Thomas Danko	+1 929-436-4790 ext. 78993	ABR013	Purchase Now for Delivery by Tuesday | Arabella Farm Direct Bouquet of 18 Fresh Cut Yellow Roses with a Free Glass Vase	1	0	1	Expedited	Shelly Danko	49A BUTLER ST			SOUTH BERWICK	ME	03908-1315	US		Happy Birthday Shelly Darling! From Love your darling family	false		
114-2153572-3421815	16090588660882	2020-09-04T22:22:56+00:00	2020-09-04T15:22:56-07:00	2020-09-04T22:51:23+00:00	2020-09-10T06:59:59+00:00	-6	hlbqbc0qs7lj30q@marketplace.amazon.com	Sarah Cullen	+1 929-436-4790 ext. 56681	ABR0022	Purchase Now for Delivery by Tuesday | Arabella Farm Direct Bouquet of 12 Fresh Cut Pink Roses with a Free Glass Vase	1	0	1	Expedited	Sophia Drahos	209 BURGESS AVE			WESTWOOD	MA	02090-3011	US			false		
113-2262524-1497015	68916350731954	2020-09-04T22:46:27+00:00	2020-09-04T15:46:27-07:00	2020-09-04T23:15:05+00:00	2020-09-10T06:59:59+00:00	-6	7t1dm1901wltgvh@marketplace.amazon.com	Joanne Miller	+1 929-436-4790 ext. 21411	ABR0022	Purchase Now for Delivery by Tuesday | Arabella Farm Direct Bouquet of 12 Fresh Cut Pink Roses with a Free Glass Vase	1	0	1	Expedited	Terri Frobey	40 HILL DR			OYSTER BAY	NY	11771-3619	US		Hi Terri, Happy Birthday Love You! Jo and Ronnie	false		
112-7600084-9441027	23653458971210	2020-09-04T23:08:00+00:00	2020-09-04T16:08:00-07:00	2020-09-04T23:27:39+00:00	2020-09-10T06:59:59+00:00	-6	wqcc56s4f97xyj9@marketplace.amazon.com	Bob McDonald	+1 480-618-5344 ext. 04129	ABR0022	Purchase Now for Delivery by Tuesday | Arabella Farm Direct Bouquet of 12 Fresh Cut Pink Roses with a Free Glass Vase	1	0	1	Expedited	Debra Scarborough	2256 WINDMILL RD			NEWTON	AL	36352-8832	US		Deb,  We wanted you to know we are thinking of you and that you are loved Forever friends of you and your sweet sister, Angelyn,Barbara and Peggy	false		
112-4259843-4225844	04216858851082	2020-09-04T23:19:07+00:00	2020-09-04T16:19:07-07:00	2020-09-04T23:46:21+00:00	2020-09-10T06:59:59+00:00	-6	5ty64kz4p38f1f3@marketplace.amazon.com	Alicia Schult	+1 929-436-4790 ext. 27368	ABM010	Purchase Now for Delivery by Tuesday | The Spring Fling Bouquet by Arabella Bouquets with a Free Designer Glass Vase	1	0	1	Expedited	Kris Schult	152616 LAPWING LN			WAUSAU	WI	54401-6713	US			false		
111-6234166-2973020	60913367498922	2020-09-04T23:22:29+00:00	2020-09-04T16:22:29-07:00	2020-09-04T23:49:47+00:00	2020-09-10T06:59:59+00:00	-6	f28y6b532rkqzch@marketplace.amazon.com	Sally Vassalotti	+1 480-618-5344 ext. 16590	ABM0044	Purchase Now for Delivery by Tuesday | Arabella Farm Direct Bouquet of Fresh Cut Blue Hydrangea with a Free Glass Vase	1	0	1	Expedited	Joyce Anderson	8 LEWIS POINT RD RM 401			BUZZARDS BAY	MA	02532-5613	US		Happy Birthday Mom! With Love from Sally & Tom From Sally Vassalotti	false		
113-1533411-5949030	42483598701322	2020-09-04T23:28:33+00:00	2020-09-04T16:28:33-07:00	2020-09-04T23:54:02+00:00	2020-09-10T06:59:59+00:00	-6	w4dl8k3gpx5wxwn@marketplace.amazon.com	LYnnella Renshaw	+1 415-851-9136 ext. 76857	ABR0022	Purchase Now for Delivery by Tuesday | Arabella Farm Direct Bouquet of 12 Fresh Cut Pink Roses with a Free Glass Vase	1	0	1	Expedited	Angelina Fasano	2655 E DEER SPRINGS WAY APT 1047			NORTH LAS VEGAS	NV	89086-1454	US		Hi Angelina, Happy Birthday From Pop Pop and Grandmother	false		
114-8800563-2013803	25945426929346	2020-09-04T23:54:35+00:00	2020-09-04T16:54:35-07:00	2020-09-05T00:24:34+00:00	2020-09-10T06:59:59+00:00	-6	v3c5zqlwjcc9vz2@marketplace.amazon.com	Jennifer	+1 929-436-4790 ext. 01580	ABR0022	Purchase Now for Delivery by Tuesday | Arabella Farm Direct Bouquet of 12 Fresh Cut Pink Roses with a Free Glass Vase	1	0	1	Expedited	Kimberly Hill	905 W PERRINE ST			JOHNSTON CITY	IL	62951-1004	US			false		
112-9681553-0901852	00680727267786	2020-09-05T00:17:25+00:00	2020-09-04T17:17:25-07:00	2020-09-05T00:47:43+00:00	2020-09-10T06:59:59+00:00	-6	s9bry35vx3xnllz@marketplace.amazon.com	John Baitsell	+1 480-618-5344 ext. 98375	ABR0022	Purchase Now for Delivery by Tuesday | Arabella Farm Direct Bouquet of 12 Fresh Cut Pink Roses with a Free Glass Vase	1	0	1	Expedited	Tristan Okolica	38 WINDSOR GATE DR			NEW HYDE PARK	NY	11040-1061	US			false		
113-7015674-7734628	48125939982378	2020-09-05T00:32:22+00:00	2020-09-04T17:32:22-07:00	2020-09-05T01:01:44+00:00	2020-09-10T06:59:59+00:00	-6	7cj4ppywcsp0rfy@marketplace.amazon.com	Alex	+1 480-618-5344 ext. 21497	ABR0022	Purchase Now for Delivery by Tuesday | Arabella Farm Direct Bouquet of 12 Fresh Cut Pink Roses with a Free Glass Vase	1	0	1	Expedited	Alex/Danielle	4911 SETTLERS AVE			CALDWELL	ID	83607-1373	US		Danielle . I hope you are doing well and life is being fair to you. Just know you will always have a friend in me . From Alex	false		
114-4662797-1279432	13611368814042	2020-09-05T01:06:18+00:00	2020-09-04T18:06:18-07:00	2020-09-05T01:34:41+00:00	2020-09-10T06:59:59+00:00	-6	9rk5vkv06rdwp0h@marketplace.amazon.com	Dea Parks	+1 929-436-4790 ext. 31917	ABR0033	Purchase Now for Delivery by Tuesday | Arabella Farm Direct Bouquet of 12 Fresh Cut Orange Roses with a Free Glass Vase	1	0	1	Expedited	Kristen Parks	950 EMERALD BAY RD # 7502			SOUTH LAKE TAHOE	CA	96158-6425	US		Hope you’re feeling better.  Wishing you a speedy recovery.  I love you !  Marm From Dea Parks	false		
112-4023712-2558611	61416874579066	2020-09-05T01:15:48+00:00	2020-09-04T18:15:48-07:00	2020-09-05T01:44:35+00:00	2020-09-10T06:59:59+00:00	-6	8h9265g7m7srghz@marketplace.amazon.com	Clint	+1 929-436-4790 ext. 08141	ABR0022	Purchase Now for Delivery by Tuesday | Arabella Farm Direct Bouquet of 12 Fresh Cut Pink Roses with a Free Glass Vase	1	0	1	Expedited	Daniel & Joann Dimino	80 GRAND AVE			SHIRLEY	NY	11967-1927	US		Congratulations.  I can't wait to come and meet Isabella Marie.  May God continue to keep His hand upon you all and pour out His blessings.  We love you all! From Ritamarie & Clint	false		
111-0984709-4960227	61864016908442	2020-09-05T01:19:47+00:00	2020-09-04T18:19:47-07:00	2020-09-05T01:48:21+00:00	2020-09-10T06:59:59+00:00	-6	37rc6r21h9470jk@marketplace.amazon.com	Alexandria S Jones	+1 929-436-4790 ext. 97701	ABR0022	Purchase Now for Delivery by Tuesday | Arabella Farm Direct Bouquet of 12 Fresh Cut Pink Roses with a Free Glass Vase	1	0	1	Expedited	Sierra Moment	2777 S ARIZONA AVE APT 3030			CHANDLER	AZ	85286-1818	US			false		
114-9231602-9873850	27826748483682	2020-09-05T02:06:56+00:00	2020-09-04T19:06:56-07:00	2020-09-05T02:35:16+00:00	2020-09-10T06:59:59+00:00	-6	zjhzkl15pm62ftv@marketplace.amazon.com	Stephen Boyer	+1 480-618-5344 ext. 64694	ABR0022	Purchase Now for Delivery by Tuesday | Arabella Farm Direct Bouquet of 12 Fresh Cut Pink Roses with a Free Glass Vase	1	0	1	Expedited	Delores Scherer	24600 DUNNING ST			DEARBORN	MI	48124-3110	US			false		
111-8043296-2925033	08346290669922	2020-09-05T02:21:27+00:00	2020-09-04T19:21:27-07:00	2020-09-05T02:46:27+00:00	2020-09-10T06:59:59+00:00	-6	p3py7kd8t89pzgg@marketplace.amazon.com	Lila Watters	+1 929-436-4790 ext. 40264	ABR0022	Purchase Now for Delivery by Tuesday | Arabella Farm Direct Bouquet of 12 Fresh Cut Pink Roses with a Free Glass Vase	1	0	1	Expedited	Debra Murdock	1212 Pleasantview Ave SE			North Canton	OH	44270	US		Wishing you a quick recovery and knowing so much fun lays ahead for you. Love you so much 💗 From Lila Watters	false		
113-8617419-8673054	05985934822274	2020-09-05T02:38:00+00:00	2020-09-04T19:38:00-07:00	2020-09-05T02:52:27+00:00	2020-09-10T06:59:59+00:00	-6	l6fmc4w57hbrjld@marketplace.amazon.com	Haley	+1 929-436-4790 ext. 85176	ABR0022	Purchase Now for Delivery by Tuesday | Arabella Farm Direct Bouquet of 12 Fresh Cut Pink Roses with a Free Glass Vase	1	0	1	Expedited	Anna Li	1611 WINDSONG TRL			RICHARDSON	TX	75081-4629	US		I love you! Give yourself space to feel whatever emotions may come up. Let me know when you feel better so we can go shopping as retail therapy. From HK Gray	false		
113-3683854-4875425	17486480896250	2020-09-05T02:36:36+00:00	2020-09-04T19:36:36-07:00	2020-09-05T03:07:14+00:00	2020-09-10T06:59:59+00:00	-6	xkslj6wz8n5r4h4@marketplace.amazon.com	NANCY KISKA	+1 929-436-4790 ext. 22389	ABM0044	Purchase Now for Delivery by Tuesday | Arabella Farm Direct Bouquet of Fresh Cut Blue Hydrangea with a Free Glass Vase	1	0	1	Expedited	Nancy Kiska	DRAYTON TOWER 102 E LIBERTY ST	APT 509		SAVANNAH	GA	31401-4408	US			false		
112-1865173-7673054	56384203002082	2020-09-05T02:53:55+00:00	2020-09-04T19:53:55-07:00	2020-09-05T03:22:16+00:00	2020-09-10T06:59:59+00:00	-6	26bcbwnrfpy3v3y@marketplace.amazon.com	Peter Carlson	+1 415-851-9136 ext. 42364	ABR0033	Purchase Now for Delivery by Tuesday | Arabella Farm Direct Bouquet of 12 Fresh Cut Orange Roses with a Free Glass Vase	1	0	1	Expedited	Kass Carlson	1558 BEDFORD AVE			CLOVIS	CA	93611-6606	US		Happy birthday Katherine  Love The Carlson fam	false		
113-2745520-5630667	27172277043162	2020-09-05T03:41:35+00:00	2020-09-04T20:41:35-07:00	2020-09-05T04:09:30+00:00	2020-09-10T06:59:59+00:00	-6	fvkl8k3915y5t2z@marketplace.amazon.com	Suzie Rodland	+1 480-618-5344 ext. 11110	ABR0022	Purchase Now for Delivery by Tuesday | Arabella Farm Direct Bouquet of 12 Fresh Cut Pink Roses with a Free Glass Vase	1	0	1	Expedited	Suzie Rodland	10912 NE 60th St.			Kirkland	WA	98033	US		Dear Danielle,  Happy belated birthday and a joyful year to you! 💕 From Suzie and Dave	false		
111-1694771-8060231	57430208742074	2020-09-05T04:07:47+00:00	2020-09-04T21:07:47-07:00	2020-09-05T04:31:29+00:00	2020-09-10T06:59:59+00:00	-6	8k757h0hvsjkn14@marketplace.amazon.com	Sharon	+1 415-851-9136 ext. 27485	ABR0022	Purchase Now for Delivery by Tuesday | Arabella Farm Direct Bouquet of 12 Fresh Cut Pink Roses with a Free Glass Vase	1	0	1	Expedited	Reichlin Michele	6 HUNTERSWORTH CT			OWINGS MILLS	MD	21117-1541	US		Happy birthday Michele, Hope you have a great day, and a Wonderful year filled with Joy, From James and Sharona	false		
