order-id	order-item-id	purchase-date	payments-date	reporting-date	promise-date	days-past-promise	buyer-email	buyer-name	buyer-phone-number	sku	product-name	quantity-purchased	quantity-shipped	quantity-to-ship	ship-service-level	recipient-name	ship-address-1	ship-address-2	ship-address-3	ship-city	ship-state	ship-postal-code	ship-country	gift-wrap-type	gift-message-text	is-business-order	purchase-order-number	price-designation
113-6520858-1789825	13130438860826	2020-09-14T17:52:51+00:00	2020-09-14T10:52:51-07:00	2020-09-14T18:21:31+00:00	2020-09-17T06:59:59+00:00	-2	w49jy6y2lfdftzr@marketplace.amazon.com	Tara McCallum	+1 480-618-5344 ext. 27043	ABR012	Purchase Now for Delivery by Thursday | Arabella Farm Direct Bouquet of 18 Fresh Cut Pink Roses with a Free Glass Vase	1	0	1	Expedited	Elisabeth Polleys	CENTER FOR DISCOVERY	5124 CORINTHIAN BAY DR		PLANO	TX	75093-4001	US			false		
112-6100600-9444219	27041838811818	2020-09-14T18:03:26+00:00	2020-09-14T11:03:26-07:00	2020-09-14T18:31:30+00:00	2020-09-17T06:59:59+00:00	-2	kdl0w3jmglw177r@marketplace.amazon.com	Elizabeth O Clark	+1 480-618-5344 ext. 78115	ABR012	Purchase Now for Delivery by Thursday | Arabella Farm Direct Bouquet of 18 Fresh Cut Pink Roses with a Free Glass Vase	1	0	1	Expedited	Rosemarie Oelrich	2252 WALKE ST			VIRGINIA BEACH	VA	23451-1708	US		Congratulations! We are praying for an easy and safe pregnancy for you. We can't wait to meet Lincoln's little sister in the future. Take care and love to all! From Bill, Beth, Bennett and Renn	false		
113-2049758-4193856	52627471967522	2020-09-14T18:39:15+00:00	2020-09-14T11:39:15-07:00	2020-09-14T19:08:34+00:00	2020-09-16T06:59:59+00:00	-1	j5vj6z8rfmq164d@marketplace.amazon.com	Jordynn Hayes	+1 929-436-4790 ext. 02689	ABR0022	Purchase Now for Delivery by Thursday | Arabella Farm Direct Bouquet of 12 Fresh Cut Pink Roses with a Free Glass Vase	1	0	1	SecondDay	Jordynn Hayes	18 EASY ST			TOMS RIVER	NJ	08757-5219	US		I love you. Stay strong my wildflower 💛 From Jordynn Hayes	false		
111-4957019-3459429	15088844103938	2020-09-14T18:47:44+00:00	2020-09-14T11:47:44-07:00	2020-09-14T19:11:40+00:00	2020-09-16T06:59:59+00:00	-1	km8w4lm526xgkgq@marketplace.amazon.com	Steven Ray Strickling	+1 415-851-9136 ext. 20285	ABR0055	Purchase Now for Delivery by Thursday | Arabella Farm Direct Bouquet of 12 Stems of Fresh Cut Hot Pink Roses in a Free Designer Glass Vase	1	0	1	SecondDay	Marcia McVey	3880 ROSEWOOD PL			RIVERSIDE	CA	92506-1899	US		Hi Marci Mae! Happy Birthday Love you. Stevie Ray	false		
113-6469384-4607403	27396523946842	2020-09-14T18:44:09+00:00	2020-09-14T11:44:09-07:00	2020-09-14T19:13:18+00:00	2020-09-16T06:59:59+00:00	-1	34y4tzl1yccfy8f@marketplace.amazon.com	Dick J	+1 480-618-5344 ext. 21992	ABM010	Purchase Now for Delivery by Thursday | The Spring Fling Bouquet by Arabella Bouquets with a Free Designer Glass Vase	1	0	1	SecondDay	Richard Jurkowski	22465 FM 2767 E			Kilgore	Texas	75662	US			false		
113-3017637-4248240	04349675025098	2020-09-14T18:52:22+00:00	2020-09-14T11:52:22-07:00	2020-09-14T19:22:48+00:00	2020-09-16T06:59:59+00:00	-1	wn9d5x74cjkx96l@marketplace.amazon.com	Sadiqa K Khan	+1 929-436-4790 ext. 01006	ABR012	Purchase Now for Delivery by Thursday | Arabella Farm Direct Bouquet of 18 Fresh Cut Pink Roses with a Free Glass Vase	2	0	2	SecondDay	Sofia Khan	903 PAMPA DR			ALLEN	TX	75013-1140	US			false		
114-9427823-5457809	32254090599906	2020-09-14T19:07:49+00:00	2020-09-14T12:07:49-07:00	2020-09-14T19:36:02+00:00	2020-09-16T06:59:59+00:00	-1	46dxdg8q1m6w01r@marketplace.amazon.com	Christy Thompson	+1 480-618-5344 ext. 66583	ABR0022	Purchase Now for Delivery by Thursday | Arabella Farm Direct Bouquet of 12 Fresh Cut Pink Roses with a Free Glass Vase	1	0	1	SecondDay	Shantel Papin	16700 NORBORNE			REDFORD	MI	48240-2443	US		Happy Birthday Sunshine - We Love You! From Christy and Val	false		
111-5230403-4774613	47309543595018	2020-09-14T19:39:53+00:00	2020-09-14T12:39:53-07:00	2020-09-14T20:06:27+00:00	2020-09-16T06:59:59+00:00	-1	95tbhhgz9lszs5s@marketplace.amazon.com	Diane Wellday	+1 929-436-4790 ext. 43627	ABR0022	Purchase Now for Delivery by Thursday | Arabella Farm Direct Bouquet of 12 Fresh Cut Pink Roses with a Free Glass Vase	1	0	1	SecondDay	Betty and Matt Osborne	214 EMERSON AVE			YPSILANTI	MI	48198-4252	US		I hope you enjoy these flowers. I think of you both often! Best, Diane. From Diane Wellday	false		
112-5763986-8908242	46610242589050	2020-09-14T19:52:30+00:00	2020-09-14T12:52:30-07:00	2020-09-14T20:18:13+00:00	2020-09-17T06:59:59+00:00	-2	fn3fvbmm91jkf6j@marketplace.amazon.com	Brian Mait	+1 929-436-4790 ext. 63070	ABR0022	Purchase Now for Delivery by Thursday | Arabella Farm Direct Bouquet of 12 Fresh Cut Pink Roses with a Free Glass Vase	1	0	1	Standard	Ronnie and William Mait	131 EVANDALE RD			SCARSDALE	NEW YORK	10583-1920	US		Dearest Mother and Father,  Wishing you both a very happy, healthy and sweet New Year!! Love, From Brian Mait	false		
111-1094297-8569064	67679569487130	2020-09-14T21:09:50+00:00	2020-09-14T14:09:50-07:00	2020-09-14T21:37:41+00:00	2020-09-16T06:59:59+00:00	-1	wfgn5m6dpxnfryc@marketplace.amazon.com	Joy N Sacco	+1 480-618-5344 ext. 96671	ABR0022	Purchase Now for Delivery by Thursday | Arabella Farm Direct Bouquet of 12 Fresh Cut Pink Roses with a Free Glass Vase	1	0	1	SecondDay	Barbara Bartkiewicz	21 WICKLOW RD			WESTERLY	RI	02891-3645	US		DearJoAn, wishing you the happiest of birthdays, with love and hugs, Barbara, Susan, Joy From Joy N Sacco	false		
113-5891488-5788260	63216207918346	2020-09-14T21:44:26+00:00	2020-09-14T14:44:26-07:00	2020-09-14T22:18:06+00:00	2020-09-16T06:59:59+00:00	-1	hjm10rg49hjdhcf@marketplace.amazon.com	George J Mavrookas	+1 929-436-4790 ext. 98008	ABM010	Purchase Now for Delivery by Thursday | The Spring Fling Bouquet by Arabella Bouquets with a Free Designer Glass Vase	1	0	1	SecondDay	Evellyn Tsiadis	911 MARGARET CT			SOUTH PLAINFIELD	NJ	07080-2353	US			false		
113-4149835-0265033	39632754845378	2020-09-14T22:44:00+00:00	2020-09-14T15:44:00-07:00	2020-09-14T23:10:42+00:00	2020-09-16T06:59:59+00:00	-1	dyy2sf46sk55wdq@marketplace.amazon.com	Kelsey Cutler	+1 480-618-5344 ext. 12251	ABR0022	Purchase Now for Delivery by Thursday | Arabella Farm Direct Bouquet of 12 Fresh Cut Pink Roses with a Free Glass Vase	1	0	1	SecondDay	To the Queen Bee	101 FAULT LINE DR			HORSESHOE BAY	TX	78657-5793	US		Happy Birthday!! From: Craig, Kelsey, Kolten, Josie, Lexi, Roseph & Rosebush  xx! We love you! <3 you’re still fine as wine! :) From Kelsey Cutler	false		
111-0184921-9493045	05372596532834	2020-09-14T23:42:34+00:00	2020-09-14T16:42:34-07:00	2020-09-14T23:56:15+00:00	2020-09-17T06:59:59+00:00	-2	b70l7kg0h9vdkq8@marketplace.amazon.com	Mohammad Rawashdeh	+1 480-618-5344 ext. 34635	ABR0022	Purchase Now for Delivery by Thursday | Arabella Farm Direct Bouquet of 12 Fresh Cut Pink Roses with a Free Glass Vase	1	0	1	Standard	Anca Ralescu	2500 TWIGWOOD LN			CINCINNATI	OH	45237-2216	US		The warmest wishes on your special day, dear Professor!  Happy birthday Anca! From Mohammad and Sarah	false		
112-0018675-1658620	35298979480410	2020-09-14T23:37:39+00:00	2020-09-14T16:37:39-07:00	2020-09-15T00:02:28+00:00	2020-09-16T06:59:59+00:00	-1	yv4fwz7n43cmb4x@marketplace.amazon.com	Alan Dawson	+1 929-436-4790 ext. 54691	ABM031	The Harvest Moon Bouquet by Arabella Bouquets	1	0	1	SecondDay	Kim Koerner	4835 E ANAHEIM ST APT 110			LONG BEACH	CA	90804-3280	US			false		
113-0744582-5914642	03904973270546	2020-09-14T23:49:23+00:00	2020-09-14T16:49:23-07:00	2020-09-15T00:10:18+00:00	2020-09-17T06:59:59+00:00	-2	mkm788q877n7hnj@marketplace.amazon.com	Todd Rooney	+1 929-436-4790 ext. 65961	ABR0022	Purchase Now for Delivery by Thursday | Arabella Farm Direct Bouquet of 12 Fresh Cut Pink Roses with a Free Glass Vase	1	0	1	Standard	Shannon Rose Sutton	851 STOKES AVE			BEVERLY	NJ	08010-1718	US		Happy  sweet 16th Birthday Shannon Rose!! We love you and hope you have the best day ever!                                                                              Love Todd and Kelly xxxooo From Todd Rooney	false		
114-1053497-2851460	18403985146306	2020-09-14T23:53:33+00:00	2020-09-14T16:53:33-07:00	2020-09-15T00:23:08+00:00	2020-09-16T06:59:59+00:00	-1	7f490b3bv0nrkfs@marketplace.amazon.com	Sharon Fitzgerald	+1 415-851-9136 ext. 63729	ABR0022	Purchase Now for Delivery by Thursday | Arabella Farm Direct Bouquet of 12 Fresh Cut Pink Roses with a Free Glass Vase	1	0	1	SecondDay	Toni Thomas	1130 KOLBE LN			WEST CHESTER	PA	19382-7201	US		Happy Birthday!!! My dear Toni.  Love you so much my soul sister. From Sharon Fitzgerald	false		
113-0500754-3742647	52359146834242	2020-09-15T00:12:52+00:00	2020-09-14T17:12:52-07:00	2020-09-15T00:41:53+00:00	2020-09-16T06:59:59+00:00	-1	81x1n2m3j28c1wk@marketplace.amazon.com	brandon stein	+1 480-618-5344 ext. 34701	ABR0022	Purchase Now for Delivery by Thursday | Arabella Farm Direct Bouquet of 12 Fresh Cut Pink Roses with a Free Glass Vase	1	0	1	SecondDay	Mariah Cruz	1472 MORRILL AVE			SAN JOSE	CA	95132-2251	US		I love you so much Marhia From Brandon	false		
112-6518955-6811432	21742545551578	2020-09-15T00:17:52+00:00	2020-09-14T17:17:52-07:00	2020-09-15T00:46:28+00:00	2020-09-16T06:59:59+00:00	-1	1f3bb3v0yrgfhfl@marketplace.amazon.com	Jennifer Blackwood	+1 480-618-5344 ext. 24032	ABR0022	Purchase Now for Delivery by Thursday | Arabella Farm Direct Bouquet of 12 Fresh Cut Pink Roses with a Free Glass Vase	1	0	1	SecondDay	Dr. and Mrs. James B. Franko	7031 HIGHFIELDS FARM TRL			ROANOKE	VA	24018-5633	US		Lisette and Jim, Please know that your family is in our thoughts and prayers. From Allen and Jennifer Blackwood	false		
113-7290303-7509039	18556341090778	2020-09-15T00:28:32+00:00	2020-09-14T17:28:32-07:00	2020-09-15T00:59:02+00:00	2020-09-16T06:59:59+00:00	-1	grj8stjdkcwq95l@marketplace.amazon.com	Laura Dailey	+1 480-618-5344 ext. 38583	ABR0022	Purchase Now for Delivery by Thursday | Arabella Farm Direct Bouquet of 12 Fresh Cut Pink Roses with a Free Glass Vase	1	0	1	SecondDay	Ernie Roop	7 STERLING PL			RANCHO MIRAGE	CA	92270-1907	US			false		
111-1702900-5339416	37105357326666	2020-09-15T01:09:30+00:00	2020-09-14T18:09:30-07:00	2020-09-15T01:33:35+00:00	2020-09-16T06:59:59+00:00	-1	p2tpwbglzdv1tr5@marketplace.amazon.com	Dave White	+1 929-436-4790 ext. 36255	ABR001	Purchase Now for Delivery by Thursday | Arabella Bouquets 12 Stems of Fresh Cut Red Roses in a Free Designer Glass Vase	1	0	1	SecondDay	Beverly Peery	20807 101ST AVE SE			KENT	WA	98031-2061	US		Hey 'lil girl! You will always be the greatest love of my life. Thank you for sharing your life and love with me. From Dave	false		
114-1126801-8161059	47534635919882	2020-09-15T01:49:16+00:00	2020-09-14T18:49:16-07:00	2020-09-15T02:16:09+00:00	2020-09-16T06:59:59+00:00	-1	ftr8x90smq7n490@marketplace.amazon.com	Jessica	+1 929-436-4790 ext. 08508	ABR012	Purchase Now for Delivery by Thursday | Arabella Farm Direct Bouquet of 18 Fresh Cut Pink Roses with a Free Glass Vase	1	0	1	SecondDay	Joanne Johnson	37 HALE RD			STOW	MA	01775-1597	US		Sorry its late. Happy birthday  We all love you From Jessica, Joe, and Rose	false		
113-7236787-1285009	48189497940146	2020-09-15T01:49:08+00:00	2020-09-14T18:49:08-07:00	2020-09-15T02:18:10+00:00	2020-09-16T06:59:59+00:00	-1	j0kcqx9j30cv6dh@marketplace.amazon.com	Tim Roth	+1 480-618-5344 ext. 16902	ABR0055	Purchase Now for Delivery by Thursday | Arabella Farm Direct Bouquet of 12 Stems of Fresh Cut Hot Pink Roses in a Free Designer Glass Vase	1	0	1	SecondDay	Tim Roth	2684 E MCTAGGART RD			MIKADO	MI	48745-9763	US		just because I love you From Tim	false		
111-1162257-3487416	32412220396866	2020-09-15T01:50:23+00:00	2020-09-14T18:50:23-07:00	2020-09-15T02:19:01+00:00	2020-09-16T06:59:59+00:00	-1	9bdkw1qtjsgmg50@marketplace.amazon.com	Jarred Marc Badeaux	+1 929-436-4790 ext. 76092	ABR0055	Purchase Now for Delivery by Thursday | Arabella Farm Direct Bouquet of 12 Stems of Fresh Cut Hot Pink Roses in a Free Designer Glass Vase	1	0	1	SecondDay	Alexis Gooch	302 W ROSE HILL AVE			KIRKWOOD	MO	63122-5942	US			false		
114-9346371-3077013	17059925735106	2020-09-15T01:49:45+00:00	2020-09-14T18:49:45-07:00	2020-09-15T02:19:27+00:00	2020-09-16T06:59:59+00:00	-1	xf95bq1dfrg3zkc@marketplace.amazon.com	Corey Johnson	+1 480-618-5344 ext. 06601	ABR0033	Purchase Now for Delivery by Thursday | Arabella Farm Direct Bouquet of 12 Fresh Cut Orange Roses with a Free Glass Vase	1	0	1	SecondDay	Jennifer Duhon	3604 BATSON DR			AUSTIN	TX	78725-3018	US			false		
114-6532871-1979401	05889141532794	2020-09-15T01:59:37+00:00	2020-09-14T18:59:37-07:00	2020-09-15T02:27:40+00:00	2020-09-16T06:59:59+00:00	-1	ptkh4krxhxptwmv@marketplace.amazon.com	Mrs. Alex Berlan	+1 929-436-4790 ext. 11607	ABR0022	Purchase Now for Delivery by Thursday | Arabella Farm Direct Bouquet of 12 Fresh Cut Pink Roses with a Free Glass Vase	1	0	1	SecondDay	Peggy Berlan	944 FOUNTAIN COIN LOOP			ORLANDO	FL	32828-5000	US		It was great having you down...we really love you both being here. And an extra thank you for taking care of Lucas. Love you!  Xoxo Rob, Alex, Isabella & Lucas From Mrs. Alex Berlan	false		
112-8191262-9579418	29720277147866	2020-09-15T02:27:16+00:00	2020-09-14T19:27:16-07:00	2020-09-15T02:55:23+00:00	2020-09-16T06:59:59+00:00	-1	610flflrkl6jkgg@marketplace.amazon.com	Allie	+1 480-618-5344 ext. 67930	ABR0022	Purchase Now for Delivery by Thursday | Arabella Farm Direct Bouquet of 12 Fresh Cut Pink Roses with a Free Glass Vase	1	0	1	SecondDay	Jasmin Odion	3780 PAINTED PONY RD			RICHMOND	CA	94803-2116	US		Congratulations on graduating!! So proud of you, and I know you have a bright future ahead. Enjoy this Exciting time, and this huge accomplishment. Love you! From Allie	false		
112-2973217-7604228	12978083064426	2020-09-15T02:41:34+00:00	2020-09-14T19:41:34-07:00	2020-09-15T03:09:28+00:00	2020-09-16T06:59:59+00:00	-1	vbb1y8xjk0cqw87@marketplace.amazon.com	Michael Slemmons	+1 480-618-5344 ext. 30457	ABR0022	Purchase Now for Delivery by Thursday | Arabella Farm Direct Bouquet of 12 Fresh Cut Pink Roses with a Free Glass Vase	1	0	1	SecondDay	Kara Hayward	7 HAMPTON LN			ANDOVER	MA	01810-4301	US		<3 From M	false		
113-2179112-0332247	64894130525450	2020-09-15T04:40:55+00:00	2020-09-14T21:40:55-07:00	2020-09-15T05:00:30+00:00	2020-09-16T06:59:59+00:00	-1	tf69tbb5bj5q1v5@marketplace.amazon.com	Heidi Kennedy	+1 480-618-5344 ext. 18767	ABM0033	Purchase Now for Delivery by Thursday | Arabella Farm Direct Bouquet of Fresh Cut White Hydrangea with a Free Glass Vase	1	0	1	SecondDay	Nicole Wagner	10643 NW TUDOR LN			PORTLAND	OR	97229-8829	US		The haters will hate and then ask if you're hiring. When that day comes, smile and then flip 'em the bird! xo From Heidi Kennedy	false		
113-4032251-0105030	08231340520802	2020-09-15T06:43:30+00:00	2020-09-14T23:43:30-07:00	2020-09-15T07:11:12+00:00	2020-09-16T06:59:59+00:00	-1	n0x9kb34cjwjbx1@marketplace.amazon.com	joe preston	+1 929-436-4790 ext. 25565	ABM010	Purchase Now for Delivery by Thursday | The Spring Fling Bouquet by Arabella Bouquets with a Free Designer Glass Vase	1	0	1	SecondDay	Latasha Washington	6513 HARLEY WAY			SACRAMENTO	CA	95828-2113	US			false		
113-0674934-2459440	03655921438466	2020-09-15T10:43:25+00:00	2020-09-15T03:43:25-07:00	2020-09-15T11:13:39+00:00	2020-09-16T06:59:59+00:00	-1	1c1h9hcpfzxr9p9@marketplace.amazon.com	Dr. M Allen	+1 480-618-5344 ext. 10728	ABR0055	Purchase Now for Delivery by Thursday | Arabella Farm Direct Bouquet of 12 Stems of Fresh Cut Hot Pink Roses in a Free Designer Glass Vase	1	0	1	SecondDay	Michael Allen	2490 EASTSHORE PL UNIT F301			RENO	NV	89509-0017	US			false		
113-0674934-2459440	37445194239162	2020-09-15T10:43:25+00:00	2020-09-15T03:43:25-07:00	2020-09-15T11:13:39+00:00	2020-09-16T06:59:59+00:00	-1	1c1h9hcpfzxr9p9@marketplace.amazon.com	Dr. M Allen	+1 480-618-5344 ext. 10728	ABR0022	Purchase Now for Delivery by Thursday | Arabella Farm Direct Bouquet of 12 Fresh Cut Pink Roses with a Free Glass Vase	1	0	1	SecondDay	Michael Allen	2490 EASTSHORE PL UNIT F301			RENO	NV	89509-0017	US			false		
114-2690185-3842641	64144717252946	2020-09-15T11:01:50+00:00	2020-09-15T04:01:50-07:00	2020-09-15T11:31:11+00:00	2020-09-18T06:59:59+00:00	-3	5c5ypqbyn7ms9j0@marketplace.amazon.com	Sue Miller	+1 929-436-4790 ext. 37317	ABR014	Arabella Bouquets 18 Stems of Fresh Cut White Roses in a Free Designer Glass Vase	1	0	1	Expedited	Debbie Schlipf Sosnowski	431 BRANCHPORT AVE			OCEANPORT	NJ	07757-1417	US			false		
111-2939388-7963456	11526091158610	2020-09-15T12:22:32+00:00	2020-09-15T05:22:32-07:00	2020-09-15T12:50:39+00:00	2020-09-18T06:59:59+00:00	-3	ss9mjd4d3xsrwq9@marketplace.amazon.com	Brooke Miller	+1 480-618-5344 ext. 09746	ABR0022	Purchase Now for Delivery by Thursday | Arabella Farm Direct Bouquet of 12 Fresh Cut Pink Roses with a Free Glass Vase	1	0	1	Expedited	Brtittlyn Taylor	100 PETERSEN HALL RM 264			IOWA CITY	IA	52242-1131	US		Missing you Britt! Love, Charlotte and Brooke From Brooke Miller	false		
114-7425451-5365834	35477309585786	2020-09-15T12:58:16+00:00	2020-09-15T05:58:16-07:00	2020-09-15T13:27:32+00:00	2020-09-18T06:59:59+00:00	-3	f0j7llv79czcvtl@marketplace.amazon.com	Charles Erickson	+1 480-618-5344 ext. 81944	ABR0022	Purchase Now for Delivery by Thursday | Arabella Farm Direct Bouquet of 12 Fresh Cut Pink Roses with a Free Glass Vase	1	0	1	Expedited	Beth Guterman	2221 NORWEGIAN DR APT 3			CLEARWATER	FL	33763-2958	US			false		
111-9600319-1950638	33442716832970	2020-09-15T13:08:48+00:00	2020-09-15T06:08:48-07:00	2020-09-15T13:39:17+00:00	2020-09-18T06:59:59+00:00	-3	6rx4bks2k9qjlnk@marketplace.amazon.com	Trent lett	+1 929-436-4790 ext. 56851	ABR0022	Purchase Now for Delivery by Thursday | Arabella Farm Direct Bouquet of 12 Fresh Cut Pink Roses with a Free Glass Vase	1	0	1	Expedited	Trent lett	3205 E. State Route OO			Drexel	MO	64742	US			false		
111-0103256-3800265	50037569053530	2020-09-15T13:17:46+00:00	2020-09-15T06:17:46-07:00	2020-09-15T13:41:14+00:00	2020-09-18T06:59:59+00:00	-3	4bl25gztyjyzscm@marketplace.amazon.com	Jessica OBrien	+1 415-851-9136 ext. 84668	ABM010	Purchase Now for Delivery by Thursday | The Spring Fling Bouquet by Arabella Bouquets with a Free Designer Glass Vase	1	0	1	Expedited	Maria Janus	1003 WHALEY ST			OCEANSIDE	CA	92054-5951	US		Maria and Paul,   We're so sorry for your loss.  If cats really did have  nine lives, I know Morris would have chosen you every time. From Jessica and Rob	false		
112-1062499-0263408	44879349514202	2020-09-15T13:56:23+00:00	2020-09-15T06:56:23-07:00	2020-09-15T14:22:03+00:00	2020-09-18T06:59:59+00:00	-3	c7959vjpvy9y3pc@marketplace.amazon.com	Diane Powers	+1 480-618-5344 ext. 74601	ABM010	Purchase Now for Delivery by Thursday | The Spring Fling Bouquet by Arabella Bouquets with a Free Designer Glass Vase	1	0	1	Expedited	Stephanie Anderson	2232 W BERWYN AVE APT 1			CHICAGO	IL	60625-0010	US		Thinking about  you Stephanie! You’re a beautiful strong compassionate woman I’m so proud of you. Sending you love and good vibes for a good healthy fall. From Diane Powers	false		
113-1894419-4325857	61577530725194	2020-09-15T14:09:43+00:00	2020-09-15T07:09:43-07:00	2020-09-15T14:26:31+00:00	2020-09-18T06:59:59+00:00	-3	f0j7llv79czcvtl@marketplace.amazon.com	Charles Erickson	+1 929-436-4790 ext. 44026	ABR001	Purchase Now for Delivery by Thursday | Arabella Bouquets 12 Stems of Fresh Cut Red Roses in a Free Designer Glass Vase	1	0	1	Expedited	Ellen Peles	28708  Alabama Highway 53			Ardmore	AL	35739	US		Love you, Polly & Charlie From Charles Erickson	false		
114-5917861-3221042	29436320454866	2020-09-15T14:25:00+00:00	2020-09-15T07:25:00-07:00	2020-09-15T14:58:48+00:00	2020-09-18T06:59:59+00:00	-3	b4ffvzzmhvcmcps@marketplace.amazon.com	Bhatia	+1 415-851-9136 ext. 90943	ABB001	Arabella Farm Direct Fresh Cut White Hydrangea	1	0	1	Expedited	Laura Bhatia	11315 HOLIDAN WAY			HOUSTON	TX	77024-5306	US			false		
114-7215656-9963427	18313131367234	2020-09-15T15:06:37+00:00	2020-09-15T08:06:37-07:00	2020-09-15T15:34:07+00:00	2020-09-18T06:59:59+00:00	-3	l7ld2wsdzr1c9fk@marketplace.amazon.com	Joanne M. Backman	+1 415-851-9136 ext. 03830	ABR012	Purchase Now for Delivery by Thursday | Arabella Farm Direct Bouquet of 18 Fresh Cut Pink Roses with a Free Glass Vase	1	0	1	Expedited	John & Betty Backman	41 CRESTVIEW DR			SOUTH PORTLAND	ME	04106-6895	US		Happy Birthday Betty!  We hope you have a wonderful day and we hope we get to see you soon.  Sending lots of love. From Bob, Joanne and kids	false		
113-3979666-9349800	01481813689962	2020-09-15T15:12:26+00:00	2020-09-15T08:12:26-07:00	2020-09-15T15:44:21+00:00	2020-09-18T06:59:59+00:00	-3	ncv3krpztx5gwj8@marketplace.amazon.com	Asia	+1 480-618-5344 ext. 24022	ABR012	Purchase Now for Delivery by Thursday | Arabella Farm Direct Bouquet of 18 Fresh Cut Pink Roses with a Free Glass Vase	1	0	1	Expedited	Leslie Downing	4343 SMITHSON CREEK DR			ELLENWOOD	GA	30294-1558	US		Mommy,  Pink Roses symbolize gratitude. Thank you for all that you do. I hope this puts a smile on your face today. Love you. From Jessie, Da'Vionne, Ka'Vionne, Ta'Vionne, Na'Veah and Riyah	false		
111-8754298-7550669	40113252542306	2020-09-15T15:21:01+00:00	2020-09-15T08:21:01-07:00	2020-09-15T15:46:10+00:00	2020-09-18T06:59:59+00:00	-3	8pplw5rswqp51gt@marketplace.amazon.com	Tammy	+1 480-618-5344 ext. 71711	ABR0022	Purchase Now for Delivery by Thursday | Arabella Farm Direct Bouquet of 12 Fresh Cut Pink Roses with a Free Glass Vase	1	0	1	Expedited	Susie and Mark Mahowald	401 E 205TH ST JORDAN MN 55352			JORDAN	MN	55352-9435	US			false		
111-1178527-3592223	61175155204474	2020-09-15T15:26:58+00:00	2020-09-15T08:26:58-07:00	2020-09-15T15:51:13+00:00	2020-09-18T06:59:59+00:00	-3	xmbxq050g89x0rn@marketplace.amazon.com	Kathryn DeLallo	+1 480-618-5344 ext. 01285	ABR0022	Purchase Now for Delivery by Thursday | Arabella Farm Direct Bouquet of 12 Fresh Cut Pink Roses with a Free Glass Vase	1	0	1	Expedited	Susan Halpern	861 CASTLEBRIDGE DR			MURRELLS INLET	SC	29576-7532	US		To: Susan, Stacey, Mark & Shannon, You are all in our thoughts and prayers. With sympathy and love, Sonny, Kathy & Kaitlyn From Sonny, Kathy & Kaitlyn DeLallo	false		
113-3997238-1639449	04385086856434	2020-09-15T15:27:02+00:00	2020-09-15T08:27:02-07:00	2020-09-15T15:57:35+00:00	2020-09-18T06:59:59+00:00	-3	6tdcb2m6ql5h6yh@marketplace.amazon.com	Christina Hieb	+1 480-618-5344 ext. 92502	ABR0055	Purchase Now for Delivery by Thursday | Arabella Farm Direct Bouquet of 12 Stems of Fresh Cut Hot Pink Roses in a Free Designer Glass Vase	1	0	1	Expedited	judith meeker	110 FIFTH RD			SUMMERTOWN	TN	38483-8047	US			false		
114-6262413-3607462	67523027263434	2020-09-15T15:38:01+00:00	2020-09-15T08:38:01-07:00	2020-09-15T16:06:10+00:00	2020-09-18T06:59:59+00:00	-3	qm0d5xfm0nn8w7p@marketplace.amazon.com	Jonell	+1 929-436-4790 ext. 71236	ABR0055	Purchase Now for Delivery by Thursday | Arabella Farm Direct Bouquet of 12 Stems of Fresh Cut Hot Pink Roses in a Free Designer Glass Vase	1	0	1	Expedited	Glenis Ransom	3100 HOLIDAY SPRINGS BLVD APT 107			MARGATE	FL	33063-5419	US		Happy birthday! We’ve sent you this bouquet to keep you company on your day of celebration. We know that has nothing on your beauty but we hope it brings you some cheer. Love all of us From The Campbell's	false		
113-4726715-0849837	49733711215274	2020-09-15T16:38:36+00:00	2020-09-15T09:38:36-07:00	2020-09-15T16:56:33+00:00	2020-09-18T06:59:59+00:00	-3	hb7p8lz1jf1cpc3@marketplace.amazon.com	Carol Knight	+1 480-618-5344 ext. 82412	ABR0022	Purchase Now for Delivery by Thursday | Arabella Farm Direct Bouquet of 12 Fresh Cut Pink Roses with a Free Glass Vase	1	0	1	Expedited	Eldra Cutchens Room AL216	DOMINION SENIOR LIVING FACILITY	100 PERSHING AVE		CLEMSON	SC	29631-2187	US		You have been in our thoughts and prayers.  We love you! From Durwood & Carol Knight	false		
114-2620367-8664227	12450215237962	2020-09-15T16:33:32+00:00	2020-09-15T09:33:32-07:00	2020-09-15T17:02:35+00:00	2020-09-18T06:59:59+00:00	-3	9010jrrq9thxpm1@marketplace.amazon.com	Chris Gibbon	+1 929-436-4790 ext. 96512	ABM010	Purchase Now for Delivery by Thursday | The Spring Fling Bouquet by Arabella Bouquets with a Free Designer Glass Vase	1	0	1	Expedited	Susie Hyder	78570 DANCING WATERS RD			PALM DESERT	CA	92211-1421	US		Happy Belated Birthday Susie!  Love, Chris, Shane and Alex From Chris Gibbon	false		
114-5207686-1573869	28850665874538	2020-09-15T16:42:12+00:00	2020-09-15T09:42:12-07:00	2020-09-15T17:12:23+00:00	2020-09-18T06:59:59+00:00	-3	yz6bl2q4x8tkbzx@marketplace.amazon.com	Cathy P Ross	+1 480-618-5344 ext. 09643	ABR0022	Purchase Now for Delivery by Thursday | Arabella Farm Direct Bouquet of 12 Fresh Cut Pink Roses with a Free Glass Vase	1	0	1	Expedited	Ellie Ross	3236 MYSTIC PORT PL			TOMS RIVER	NJ	08753-6285	US			false		
114-9540953-1550641	27764344454826	2020-09-15T16:57:42+00:00	2020-09-15T09:57:42-07:00	2020-09-15T17:25:09+00:00	2020-09-18T06:59:59+00:00	-3	p6068m2lbwfwzv9@marketplace.amazon.com	Troy N Thielet	+1 480-618-5344 ext. 97073	ABR0022	Purchase Now for Delivery by Thursday | Arabella Farm Direct Bouquet of 12 Fresh Cut Pink Roses with a Free Glass Vase	1	0	1	Expedited	Karen Palmer	45 PAUL REVERE RD			OIL CITY	PA	16301-1135	US		Wishing you well! From Troy N Thielet	false		
113-3287939-2615462	41811610032954	2020-09-15T17:06:55+00:00	2020-09-15T10:06:55-07:00	2020-09-15T17:26:29+00:00	2020-09-18T06:59:59+00:00	-3	jcrp1ydhzytk33h@marketplace.amazon.com	Hunter Catlin	+1 480-618-5344 ext. 69619	ABR0022	Purchase Now for Delivery by Thursday | Arabella Farm Direct Bouquet of 12 Fresh Cut Pink Roses with a Free Glass Vase	1	0	1	Expedited	Kirra Milton	13722 RIDGE RD			WEST SPRINGFIELD	PA	16443-9448	US		Hey Hunny, This is a little surprise to brighten up your week! I hope the flowers look as beautiful as you. I love you to no end!  -Babe From Hunter Catlin	false		
113-3862434-3379406	23753410838754	2020-09-15T17:14:27+00:00	2020-09-15T10:14:27-07:00	2020-09-15T17:33:03+00:00	2020-09-18T06:59:59+00:00	-3	7rf93tm4wmbkf1m@marketplace.amazon.com	linda torelli	+1 480-618-5344 ext. 36241	ABR0022	Purchase Now for Delivery by Thursday | Arabella Farm Direct Bouquet of 12 Fresh Cut Pink Roses with a Free Glass Vase	1	0	1	Expedited	Rod & Sarah Washburn	205 RESERVOIR AVE			SAINT CHARLES	MO	63301-3515	US		Enjoy your gift! Happy anniversary! Love you, mom (Torelli) From linda torelli	false		
113-8107002-5107460	21590842946970	2020-09-15T17:06:58+00:00	2020-09-15T10:06:58-07:00	2020-09-15T17:36:12+00:00	2020-09-18T06:59:59+00:00	-3	q3rs8jtjr8wzplt@marketplace.amazon.com	Margaret A. Young	+1 480-618-5344 ext. 89867	ABM010	Purchase Now for Delivery by Thursday | The Spring Fling Bouquet by Arabella Bouquets with a Free Designer Glass Vase	1	0	1	Expedited	The Beddie's--From Peggy & Marggie	44 FAIRWAY DR			SOUTHGATE	KY	41071-3024	US		Happy Birthday! From With Love, Peggy & Marggie	false		
114-0529821-1644212	49683435499378	2020-09-15T17:19:13+00:00	2020-09-15T10:19:13-07:00	2020-09-15T17:49:03+00:00	2020-09-18T06:59:59+00:00	-3	qpdr9clz5mh4h01@marketplace.amazon.com	Preston Kersey	+1 415-851-9136 ext. 21169	ABR0022	Arabella Farm Direct Bouquet of 12 Fresh Cut Pink Roses with a Free Glass Vase	1	0	1	Expedited	Preston Kersey	592 DUNCAN AVE			UNADILLA	GA	31091-3558	US			false		
