order-id	order-item-id	purchase-date	payments-date	reporting-date	promise-date	days-past-promise	buyer-email	buyer-name	buyer-phone-number	sku	product-name	quantity-purchased	quantity-shipped	quantity-to-ship	ship-service-level	recipient-name	ship-address-1	ship-address-2	ship-address-3	ship-city	ship-state	ship-postal-code	ship-country	gift-wrap-type	gift-message-text	is-business-order	purchase-order-number	price-designation
112-2324189-2081848	53246150559194	2020-09-25T18:06:17+00:00	2020-09-25T11:06:17-07:00	2020-09-25T18:36:28+00:00	2020-09-30T06:59:59+00:00	-4	j1hvf0nyrpclxzn@marketplace.amazon.com	Rosalina Palencia	+1 480-618-5344 ext. 21571	ABR0022	Arabella Farm Direct Bouquet of 12 Fresh Cut Pink Roses with a Free Glass Vase	1	0	1	Expedited	Dianna Zink	17249 N 37TH AVE			GLENDALE	AZ	85308-4330	US			false		
113-1442323-0957040	28667645846362	2020-09-25T18:17:38+00:00	2020-09-25T11:17:38-07:00	2020-09-25T18:44:41+00:00	2020-09-30T06:59:59+00:00	-4	wjqq489b2shn9pn@marketplace.amazon.com	Laya	+1 602-671-6610 ext. 00028	ABM002	Delivery by Tuesday | Arabella Bouquets Fresh Cut White Calla Lilies in a Free Designer Glass Vase	1	0	1	Expedited	Mrs. Lili R.	1031 REGIS WAY			TUSTIN	CA	92780-2424	US		Just because you are very precious. Love you aunt Lili. From Laya & Family	false		
112-0304270-8145848	11771000886210	2020-09-25T18:32:13+00:00	2020-09-25T11:32:13-07:00	2020-09-25T19:02:09+00:00	2020-09-30T06:59:59+00:00	-4	x25l9bg8stql70r@marketplace.amazon.com	Richard Ventimilla	+1 929-436-4790 ext. 34307	ABR0022	Arabella Farm Direct Bouquet of 12 Fresh Cut Pink Roses with a Free Glass Vase	1	0	1	Expedited	Martha Ventimilla	139 WATER ST			NAPERVILLE	IL	60540-5338	US			false		
112-5973792-5205865	31431347557802	2020-09-25T18:39:56+00:00	2020-09-25T11:39:56-07:00	2020-09-25T19:09:48+00:00	2020-09-30T06:59:59+00:00	-4	c7md5n9r0v4771s@marketplace.amazon.com	Jodi	+1 602-671-6610 ext. 01664	ABR0022	Arabella Farm Direct Bouquet of 12 Fresh Cut Pink Roses with a Free Glass Vase	1	0	1	Expedited	Lauren Morgette	4501 DANBURY DR			TEMPLE	TX	76502-7357	US		Congratulations! She is beautiful From Jodi and Mike and Mary	false		
112-7099718-3614652	65608264118490	2020-09-25T18:57:03+00:00	2020-09-25T11:57:03-07:00	2020-09-25T19:26:19+00:00	2020-09-30T06:59:59+00:00	-4	pl2k0xxwz7c5zyk@marketplace.amazon.com	Ladan Golshan Swarin	+1 415-851-9136 ext. 89719	ABR004	Delivery by Tuesday | Arabella Farm Direct Bouquet of 12 Fresh Cut Yellow Roses with a Free Glass Vase	1	0	1	Expedited	Doug & Patricia Swarin	5607B CREEK BTM			AUSTIN	TX	78731-4602	US		We love you Tuxie and hope this brightens your day. From Ladan, Greg, Myles and Maya	false		
114-1440429-3617001	31744606660850	2020-09-25T18:58:42+00:00	2020-09-25T11:58:42-07:00	2020-09-25T19:28:34+00:00	2020-09-30T06:59:59+00:00	-4	tcm38j578fjtl1m@marketplace.amazon.com	Mike Eavenson	+1 480-618-5344 ext. 81689	ABR0022	Arabella Farm Direct Bouquet of 12 Fresh Cut Pink Roses with a Free Glass Vase	1	0	1	Expedited	Lynda Eavenson	8831 COUNTY ROAD 151			KAUFMAN	TX	75142-7322	US			false		
113-4312102-9746653	63807917854002	2020-09-25T19:26:22+00:00	2020-09-25T12:26:22-07:00	2020-09-25T19:51:23+00:00	2020-09-30T06:59:59+00:00	-4	j5q0b2gcc0xj6w6@marketplace.amazon.com	Kim Thompson	+1 415-851-9136 ext. 66277	ABR0055	Arabella Farm Direct Bouquet of 12 Stems of Fresh Cut Hot Pink Roses in a Free Designer Glass Vase	1	0	1	Expedited	Merilyn Johnson	4195 CR 575			BUSHNELL	FL	33513-7915	US		You have been wonderful with all your love and support! From Kim Thompson	false		
113-2716765-0936209	34165987404634	2020-09-25T20:05:17+00:00	2020-09-25T13:05:17-07:00	2020-09-25T20:34:29+00:00	2020-09-30T06:59:59+00:00	-4	1j1hbf3wzt9sqc5@marketplace.amazon.com	Deborah A Haines	+1 929-436-4790 ext. 04698	ABM0044	Delivery by Tuesday | Arabella Farm Direct Bouquet of Fresh Cut Blue Hydrangea with a Free Glass Vase	1	0	1	Expedited	Cherie Tyler	17851 BOONES FERRY RD NE			HUBBARD	OR	97032-8604	US		Cherie,  We are so sorry about Frank.  He will be missed Love, Debi & Phil	false		
112-0041091-2212215	18855563268114	2020-09-25T20:18:43+00:00	2020-09-25T13:18:43-07:00	2020-09-25T20:45:15+00:00	2020-09-30T06:59:59+00:00	-4	13wcj9ck06ddm4p@marketplace.amazon.com	Pamela Kraskey	+1 602-671-6610 ext. 02757	ABM010	Delivery by Tuesday | The Spring Fling Bouquet by Arabella Bouquets with a Free Designer Glass Vase	1	0	1	Expedited	Carmen Nolan	927 MARLIN DR			VISTA	CA	92084-5651	US		Sending you love and healing energy 🦋 Love Always,  Pam XOXO From Pamela Kraskey	false		
111-4563985-3939450	19251495344482	2020-09-25T20:23:03+00:00	2020-09-25T13:23:03-07:00	2020-09-25T20:50:59+00:00	2020-09-30T06:59:59+00:00	-4	4vr859rw5k5sb3x@marketplace.amazon.com	T. Glass	+1 929-436-4790 ext. 69589	ABR0022	Arabella Farm Direct Bouquet of 12 Fresh Cut Pink Roses with a Free Glass Vase	1	0	1	Expedited	Kevin Glass	THE BARTON APARTMENTS	2701 CALVERT ST NW APT 113		WASHINGTON	DC	20008-2616	US		Hi Kelly, Enjoy your flowers!  Enjoy your Day!  We'll call you! From T.  & D. Glass	false		
111-6512394-6931467	35008964555242	2020-09-25T20:21:58+00:00	2020-09-25T13:21:58-07:00	2020-09-25T20:52:40+00:00	2020-09-30T06:59:59+00:00	-4	mps6b7mchtm61t8@marketplace.amazon.com	Nathan M Welch	+1 929-436-4790 ext. 33275	ABB005	Arabella Bouquets 24 Stems of Fresh Cut Red Roses in a Designer Glass Vase	1	0	1	Expedited	Nathan M Welch	10 E LEE ST APT 1807			BALTIMORE	MD	21202-6021	US			false		
113-1699262-3862603	40308333203578	2020-09-25T20:36:43+00:00	2020-09-25T13:36:43-07:00	2020-09-25T21:02:24+00:00	2020-09-30T06:59:59+00:00	-4	94m5snflsknqb4v@marketplace.amazon.com	Taneitha Price	+1 929-436-4790 ext. 35276	ABR0033	Delivery by Tuesday | Arabella Farm Direct Bouquet of 12 Fresh Cut Orange Roses with a Free Glass Vase	1	0	1	Expedited	Karla Bickley	16211 AZALEA AVE			PARKER	CO	80134-4096	US		Happy Birthday Karla! Love, Nnambi, Tan, Kale and Tyson From Taneitha Price	false		
111-7486341-9394654	61737268484546	2020-09-25T20:37:30+00:00	2020-09-25T13:37:30-07:00	2020-09-25T21:02:25+00:00	2020-09-30T06:59:59+00:00	-4	w1h5mb2rdrq44gl@marketplace.amazon.com	Connie Rigsby	+1 480-618-5344 ext. 85281	ABR0022	Arabella Farm Direct Bouquet of 12 Fresh Cut Pink Roses with a Free Glass Vase	1	0	1	Expedited	Kelly Salemmo	5337 ASHLEIGH RD			FAIRFAX	VA	22030-7229	US		Enjoy your gift!  Happy Birthday Kelly and Betty🌸 From Connie Rigsby	false		
111-2581311-6937017	43406102935154	2020-09-25T20:40:52+00:00	2020-09-25T13:40:52-07:00	2020-09-25T21:05:10+00:00	2020-09-30T06:59:59+00:00	-4	wltwfyl33x87d92@marketplace.amazon.com	Craig devonshire	+1 480-618-5344 ext. 53270	ABR0022	Arabella Farm Direct Bouquet of 12 Fresh Cut Pink Roses with a Free Glass Vase	1	0	1	Expedited	Lois Williams	524 BILL HENRY RD			MULLINS	SC	29574-6097	US		Happy Birthday💕  Love you Lil Sis 💕💕💕💕 From Sandra Devonshire	false		
114-2336907-2313011	57879225058194	2020-09-25T20:55:09+00:00	2020-09-25T13:55:09-07:00	2020-09-25T21:23:31+00:00	2020-09-30T06:59:59+00:00	-4	c7bl8158qpyjrgl@marketplace.amazon.com	Gregory Morris	+1 929-436-4790 ext. 73154	ABR0055	Arabella Farm Direct Bouquet of 12 Stems of Fresh Cut Hot Pink Roses in a Free Designer Glass Vase	1	0	1	Expedited	Christie Schenk	3700 ESTES RD			NASHVILLE	TN	37215-1729	US		Thinking of you and hoping you feel better soon! ♥️ Margaret & Greg Morris From Gregory Morris	false		
112-9927938-6893063	43457879895090	2020-09-25T21:07:30+00:00	2020-09-25T14:07:30-07:00	2020-09-25T21:38:05+00:00	2020-09-30T06:59:59+00:00	-4	9ty81ckzyfg24xf@marketplace.amazon.com	jerry Moran		ABR001	Delivery by Tuesday | Arabella Bouquets 12 Stems of Fresh Cut Red Roses in a Free Designer Glass Vase	1	0	1	Expedited	JERRY MORAN	458 GOODNIGHT TRL			JUSTIN	TX	76247	US			false		
113-1050305-7962630	41496573287794	2020-09-25T21:18:41+00:00	2020-09-25T14:18:41-07:00	2020-09-25T21:48:14+00:00	2020-09-30T06:59:59+00:00	-4	g18xg9t53kj9x1z@marketplace.amazon.com	Tammy	+1 480-618-5344 ext. 83963	ABM010	Delivery by Tuesday | The Spring Fling Bouquet by Arabella Bouquets with a Free Designer Glass Vase	1	0	1	Expedited	Cathy Koll	3739 W BULLARD AVE APT 205			FRESNO	CA	93711-6547	US		Happy Birthday!  We love you. From Travis, Tammy, Jon, and Rene	false		
113-5724483-7205821	68427712808290	2020-09-25T21:56:13+00:00	2020-09-25T14:56:13-07:00	2020-09-25T22:26:11+00:00	2020-09-30T06:59:59+00:00	-4	9xn5wx0rjp2ndzm@marketplace.amazon.com	Tavis	+1 929-436-4790 ext. 03395	ABR001	Delivery by Tuesday | Arabella Bouquets 12 Stems of Fresh Cut Red Roses in a Free Designer Glass Vase	1	0	1	Expedited	Allee Kinney	2277 MARTHA BERRY HWY NW			MOUNT BERRY	GA	30149-9707	US			false		
112-0938188-9428258	27050521726314	2020-09-25T22:24:28+00:00	2020-09-25T15:24:28-07:00	2020-09-25T22:54:35+00:00	2020-09-30T06:59:59+00:00	-4	zr9txw8pqdh1g5z@marketplace.amazon.com	shedy	+1 602-671-6610 ext. 15235	ABR0022	Delivery by Tuesday | Arabella Farm Direct Bouquet of 12 Fresh Cut Pink Roses with a Free Glass Vase	1	0	1	Expedited	Umama khan	182 SUMMIT AVE			JERSEY CITY	NJ	07304-3145	US			false		
114-4686184-9222657	60884001802010	2020-09-25T22:35:12+00:00	2020-09-25T15:35:12-07:00	2020-09-25T23:04:09+00:00	2020-09-30T06:59:59+00:00	-4	nswyr6kl69wwk1l@marketplace.amazon.com	Roy M Carrinho	+1 480-618-5344 ext. 13117	ABR0022	Delivery by Tuesday | Arabella Farm Direct Bouquet of 12 Fresh Cut Pink Roses with a Free Glass Vase	1	0	1	Expedited	Christine Couri	15 BEECHWOODS HOLW			BRADFORD	RI	02808-1764	US		Happy Birthday Love Akisa and Roy From Roy Carrinho	false		
114-0254425-7093006	66144767331746	2020-09-25T22:38:29+00:00	2020-09-25T15:38:29-07:00	2020-09-25T23:07:53+00:00	2020-09-30T06:59:59+00:00	-4	nswyr6kl69wwk1l@marketplace.amazon.com	Roy M Carrinho	+1 602-671-6610 ext. 43670	ABM010	Delivery by Tuesday | The Spring Fling Bouquet by Arabella Bouquets with a Free Designer Glass Vase	1	0	1	Expedited	Zulmira Carrinho	181 S MAIN ST APT 511			FALL RIVER	MA	02721-5331	US		Happy Birthday Mom Love Roy and Akisa From Roy Carrinho	false		
111-0252174-4289017	61650090582050	2020-09-25T22:42:48+00:00	2020-09-25T15:42:48-07:00	2020-09-25T23:12:41+00:00	2020-09-30T06:59:59+00:00	-4	47k4rzmt76w277g@marketplace.amazon.com	ty merrill	+1 929-436-4790 ext. 10059	ABM010	Delivery by Tuesday | The Spring Fling Bouquet by Arabella Bouquets with a Free Designer Glass Vase	1	0	1	Expedited	Boots Gould	1913 ABREU WAY			UNION CITY	CA	94587-1990	US			false		
111-7841245-6538603	63812968204810	2020-09-25T23:08:05+00:00	2020-09-25T16:08:05-07:00	2020-09-25T23:24:19+00:00	2020-09-30T06:59:59+00:00	-4	twwb5k1c8wqktz7@marketplace.amazon.com	Cindy	+1 480-618-5344 ext. 22463	ABM010	Delivery by Tuesday | The Spring Fling Bouquet by Arabella Bouquets with a Free Designer Glass Vase	1	0	1	Standard	Mikki Simon	28041 HILLVIEW ST			ROSEVILLE	MI	48066-2511	US		Sending you smiles on your special day!  Happy Birthday From Love Mike & Cindy Marchetti	false		
112-8943669-7669801	56040924335418	2020-09-25T23:50:24+00:00	2020-09-25T16:50:24-07:00	2020-09-26T00:18:14+00:00	2020-09-30T06:59:59+00:00	-4	67rl44xdrgs6gr7@marketplace.amazon.com	Robert Warfield	+1 602-671-6610 ext. 21001	ABR0022	Delivery by Tuesday | Arabella Farm Direct Bouquet of 12 Fresh Cut Pink Roses with a Free Glass Vase	1	0	1	Expedited	Jan and John Harris	1115 EDENHURST CT			MONUMENT	CO	80132-8484	US		Happy Birthday Jan Love Cheryl and Rob....sorry for being late From Robert warfield	false		
112-0176204-5808221	42954468037434	2020-09-26T00:02:49+00:00	2020-09-25T17:02:49-07:00	2020-09-26T00:32:34+00:00	2020-09-30T06:59:59+00:00	-4	qjp1jrt2cdwxq8r@marketplace.amazon.com	Tammy	+1 602-671-6610 ext. 46703	ABR001	Delivery by Tuesday | Arabella Bouquets 12 Stems of Fresh Cut Red Roses in a Free Designer Glass Vase	1	0	1	Expedited	Jennifer Bohan	7365 BEINECKE PT			PEYTON	CO	80831-4742	US			false		
113-5656816-4981023	24287402378426	2020-09-26T00:58:50+00:00	2020-09-25T17:58:50-07:00	2020-09-26T01:19:06+00:00	2020-09-30T06:59:59+00:00	-4	78x4k96n24z13tc@marketplace.amazon.com	Masanori Onozuka	+1 480-618-5344 ext. 00786	ABM010	Delivery by Tuesday | The Spring Fling Bouquet by Arabella Bouquets with a Free Designer Glass Vase	1	0	1	Expedited	Joy Onozuka	2054 LAKE AUDUBON CT			RESTON	VA	20191-4808	US		Happy Anniversary! Thank you so much for your eternal love and supports for our life. I wish I were with you this time of year. I love you. From Masanori Onozuka	false		
114-5671314-9621063	00170499504514	2020-09-26T00:49:58+00:00	2020-09-25T17:49:58-07:00	2020-09-26T01:20:07+00:00	2020-09-30T06:59:59+00:00	-4	4h724qxsj8p1mfq@marketplace.amazon.com	patricia holman	+1 480-618-5344 ext. 58131	ABR0022	Delivery by Tuesday | Arabella Farm Direct Bouquet of 12 Fresh Cut Pink Roses with a Free Glass Vase	1	0	1	Expedited	Annette Jensen	9610 TILBY RD			NORTH ROYALTON	OH	44133-1255	US			false		
114-7193536-3401044	62810479823202	2020-09-26T01:07:23+00:00	2020-09-25T18:07:23-07:00	2020-09-26T01:34:51+00:00	2020-09-30T06:59:59+00:00	-4	z6w5kvn8q8w3mlz@marketplace.amazon.com	Charles Bell	+1 480-618-5344 ext. 12503	ABR0022	Delivery by Tuesday | Arabella Farm Direct Bouquet of 12 Fresh Cut Pink Roses with a Free Glass Vase	1	0	1	Expedited	Tyler Ledford	1570 HUNT DR APT E6			NORMAL	IL	61761-2162	US		I know you had a little bit of a rough week and a disappointment from your dad, so just wanted to brighten your day.   I can never be your biological dad but i love you like my own.  So smile and have a good day. From Chuck	false		
111-3823770-5201035	00455852055970	2020-09-26T01:08:42+00:00	2020-09-25T18:08:42-07:00	2020-09-26T01:36:00+00:00	2020-09-30T06:59:59+00:00	-4	kb8mlzc3l4bwytj@marketplace.amazon.com	Mario L. Relampagos	+1 602-671-6610 ext. 21151	ABR0022	Delivery by Tuesday | Arabella Farm Direct Bouquet of 12 Fresh Cut Pink Roses with a Free Glass Vase	1	0	1	Expedited	Antonio ALVAREZ	246 S CENTRAL AVE			HIGHWOOD	IL	60040-1602	US		Dear Mama Rose , a very Happy Birthday, celebrating the day with deep gratitude to God,  and praying for more good health! From Arlyn Mario L. Relampagos	false		
112-8352394-0318604	57996202313602	2020-09-26T01:36:36+00:00	2020-09-25T18:36:36-07:00	2020-09-26T01:39:13+00:00	2020-09-30T06:59:59+00:00	-4	nl8m1652wqcnxjf@marketplace.amazon.com	Erin McGarry	+1 602-671-6610 ext. 04602	ABR0022	Delivery by Tuesday | Arabella Farm Direct Bouquet of 12 Fresh Cut Pink Roses with a Free Glass Vase	1	0	1	Expedited	Amanda Grinnell	3002 PATRIOT DR			LAGO VISTA	TX	78645-6538	US		Just a little something to brighten your day!  Remember how strong you are. Remember how far you've come and everything you've achieved. Never forget how much you are loved! From Erin	false		
112-7268584-9209822	52346679046114	2020-09-26T01:21:56+00:00	2020-09-25T18:21:56-07:00	2020-09-26T01:51:59+00:00	2020-09-30T06:59:59+00:00	-4	lnbkv0nvzd00gq6@marketplace.amazon.com	kerrine white	+1 929-436-4790 ext. 35459	ABR012	Delivery by Tuesday | Arabella Farm Direct Bouquet of 18 Fresh Cut Pink Roses with a Free Glass Vase	1	0	1	Expedited	Shiela White	5322 GLENN VALLEY DR APT 3B			BATTLE CREEK	MI	49015-7314	US			false		
111-4300325-2235418	41607696174818	2020-09-26T01:40:00+00:00	2020-09-25T18:40:00-07:00	2020-09-26T02:10:26+00:00	2020-09-30T06:59:59+00:00	-4	jhgkhw866sy6ht7@marketplace.amazon.com	Dawn Sabatello	+1 602-671-6610 ext. 26961	ABB001	Arabella Farm Direct Fresh Cut White Hydrangea	1	0	1	Expedited	Dawn Sabatello	5002 WHISPERING HOLW			PALM BEACH GARDENS	FL	33418-3536	US			false		
112-7860524-5101835	57554844314042	2020-09-26T01:49:55+00:00	2020-09-25T18:49:55-07:00	2020-09-26T02:12:42+00:00	2020-09-30T06:59:59+00:00	-4	nl8m1652wqcnxjf@marketplace.amazon.com	Erin McGarry	+1 602-671-6610 ext. 84236	ABR0022	Delivery by Tuesday | Arabella Farm Direct Bouquet of 12 Fresh Cut Pink Roses with a Free Glass Vase	1	0	1	Expedited	Deanna Grinnell	2208 VIEW ST			PASADENA	TX	77502-3748	US		I am so incredibly sorry for your loss, something a parent should never experience. My thoughts and prayers are with you. I am always here for your family! From Erin McGarry	false		
111-2527387-0215433	68077736538450	2020-09-26T01:47:17+00:00	2020-09-25T18:47:17-07:00	2020-09-26T02:16:41+00:00	2020-09-30T06:59:59+00:00	-4	3rlt5c2ygnj9fh4@marketplace.amazon.com	Alexis Barnes	+1 415-851-9136 ext. 54500	ABR0033	Delivery by Tuesday | Arabella Farm Direct Bouquet of 12 Fresh Cut Orange Roses with a Free Glass Vase	1	0	1	Expedited	Florance Natzke	8212 COUNTY RD W			GREENLEAF	WI	54126-9409	US			false		
112-1111272-5360221	36269209663090	2020-09-26T02:01:55+00:00	2020-09-25T19:01:55-07:00	2020-09-26T02:30:24+00:00	2020-09-30T06:59:59+00:00	-4	nl8m1652wqcnxjf@marketplace.amazon.com	Erin McGarry	+1 415-851-9136 ext. 57514	ABM010	Delivery by Tuesday | The Spring Fling Bouquet by Arabella Bouquets with a Free Designer Glass Vase	1	0	1	Expedited	Catherine Wooldridge	15821 19 MILE RD APT 315			CLINTON TOWNSHIP	MI	48038-6323	US		Just because! Love you. From Erin	false		
112-3959950-8254640	40012808308706	2020-09-26T02:36:30+00:00	2020-09-25T19:36:30-07:00	2020-09-26T03:02:45+00:00	2020-09-30T06:59:59+00:00	-4	t3gvh2pvf4wrr01@marketplace.amazon.com	MikeBrooke Eddington	+1 929-436-4790 ext. 33528	ABM010	Delivery by Tuesday | The Spring Fling Bouquet by Arabella Bouquets with a Free Designer Glass Vase	1	0	1	Expedited	Sabrina Huyett	1338 S 1440 E			PROVO	UT	84606-6415	US		WE LOVE YOU SO SO SO MUCH!!!!! We are praying for you & thinking of you every single day. Love-Mike Brooke Emmett Abby Eddington From MikeBrooke Eddington	false		
114-0656344-6114654	55892752882490	2020-09-26T03:35:59+00:00	2020-09-25T20:35:59-07:00	2020-09-26T04:02:26+00:00	2020-09-30T06:59:59+00:00	-4	ctkxzk6qsxvr4w5@marketplace.amazon.com	Sergey Sobolev	+1 602-671-6610 ext. 57431	ABB010	Arabella Farm Direct 48 Fresh Cut Yellow Multi Color Roses	1	0	1	Expedited	Polina Fukshansky	2001 SAINT JULIEN CT			MOUNTAIN VIEW	CA	94043-5411	US		Полиночка, поздравляем!!! Миллион мы не осилили... С любовью From Соболевы из Бостона	false		
112-1163858-7538659	49822542255418	2020-09-26T04:02:17+00:00	2020-09-25T21:02:17-07:00	2020-09-26T04:30:49+00:00	2020-09-30T06:59:59+00:00	-4	v4ktr4w4vn2zn05@marketplace.amazon.com	Sasha Kolbeck	+1 929-436-4790 ext. 32836	ABR0022	Delivery by Tuesday | Arabella Farm Direct Bouquet of 12 Fresh Cut Pink Roses with a Free Glass Vase	1	0	1	Expedited	Cheryl Einerson	13206 NE 227TH AVE			BRUSH PRAIRIE	WA	98606-4203	US		Mom, Happy Birthday! Another gift is coming and a group birthday gift. Enjoy! Love, Sasha & Karl	false		
114-0075551-6775412	68814505604762	2020-09-26T04:28:30+00:00	2020-09-25T21:28:30-07:00	2020-09-26T04:57:48+00:00	2020-09-30T06:59:59+00:00	-4	s52yr51s85cknhf@marketplace.amazon.com	justin sanders	+1 480-618-5344 ext. 42269	ABR001	Delivery by Tuesday | Arabella Bouquets 12 Stems of Fresh Cut Red Roses in a Free Designer Glass Vase	1	0	1	Expedited	Mary Grace Jalandoni	1145 REGENTS ST			LANCASTER	CA	93534-1400	US		Thinking of you Tita Grace!  Love you! From Your other daughter, Sabrina	false		
111-5940265-0426659	62765114139530	2020-09-26T05:03:36+00:00	2020-09-25T22:03:36-07:00	2020-09-26T05:33:02+00:00	2020-09-30T06:59:59+00:00	-4	80kww0k7nbvxlk6@marketplace.amazon.com	MaLyds	+1 480-618-5344 ext. 25712	ABM010	Delivery by Tuesday | The Spring Fling Bouquet by Arabella Bouquets with a Free Designer Glass Vase	1	0	1	Expedited	Stephanie Shein	4113 COPPERFIELD DR			HARRISBURG	PA	17112-6026	US		Happy birthday Stephanie	false		
113-0534984-1136263	32025883469530	2020-09-26T05:23:37+00:00	2020-09-25T22:23:37-07:00	2020-09-26T05:52:09+00:00	2020-09-30T06:59:59+00:00	-4	3b3jccybgzz697h@marketplace.amazon.com	Sean Beecher	+1 480-618-5344 ext. 34768	ABR0055	Arabella Farm Direct Bouquet of 12 Stems of Fresh Cut Hot Pink Roses in a Free Designer Glass Vase	1	0	1	Expedited	Sean & Gaby Beecher	27917 154TH AVE SE			KENT	WA	98042-4412	US		I love you more than I could have ever imagined.  I also miss you like crazy!  You are the love of my life mi amor.  Till I see your face again :)   Love always, Sean From Sean Beecher	false		
114-7549830-7226643	43880900828434	2020-09-26T05:42:06+00:00	2020-09-25T22:42:06-07:00	2020-09-26T06:09:29+00:00	2020-09-30T06:59:59+00:00	-4	vk8ls2cmd3qx62x@marketplace.amazon.com	David Zdeb	+1 929-436-4790 ext. 91239	ABR0022	Delivery by Tuesday | Arabella Farm Direct Bouquet of 12 Fresh Cut Pink Roses with a Free Glass Vase	1	0	1	Expedited	David Zdeb	24312 Heatherwood Dr			SOUTH LYON	MI	48178	US		Dear Mom, Just wanted to bring some color to brighten your birthday! Love you. From Dave	false		
114-2121891-8932208	57324923720474	2020-09-26T05:54:56+00:00	2020-09-25T22:54:56-07:00	2020-09-26T06:25:14+00:00	2020-09-30T06:59:59+00:00	-4	9wg268537g56278@marketplace.amazon.com	noeh cruda	+1 602-671-6610 ext. 59952	ABR001	Delivery by Tuesday | Arabella Bouquets 12 Stems of Fresh Cut Red Roses in a Free Designer Glass Vase	1	0	1	Expedited	NOEH CRUDA	1621 TEAKWOOD CT			TRACY	CA	95376-5278	US			false		
112-7911707-2687428	61622084624498	2020-09-26T08:40:12+00:00	2020-09-26T01:40:12-07:00	2020-09-26T09:10:06+00:00	2020-09-30T06:59:59+00:00	-4	85t46vfg32f4qbc@marketplace.amazon.com	Ysael macelis	+1 415-851-9136 ext. 71240	ABR0022	Delivery by Tuesday | Arabella Farm Direct Bouquet of 12 Fresh Cut Pink Roses with a Free Glass Vase	1	0	1	Expedited	Omarion.  Damour	120 E STREET RD APT M4-10			WARMINSTER	PA	18974-3475	US			false		
113-9352669-1337815	33197487817770	2020-09-26T08:40:27+00:00	2020-09-26T01:40:27-07:00	2020-09-26T09:11:07+00:00	2020-09-30T06:59:59+00:00	-4	c46r09mmzz224m3@marketplace.amazon.com	Josh Sconyers	+1 602-671-6610 ext. 47071	ABR0022	Delivery by Tuesday | Arabella Farm Direct Bouquet of 12 Fresh Cut Pink Roses with a Free Glass Vase	1	0	1	Expedited	Joshua Sconyers	12483 BETHEL OAKS DR			FARMINGTON	AR	72730-8672	US			false		
114-2449076-6667444	52113050707978	2020-09-26T10:49:40+00:00	2020-09-26T03:49:40-07:00	2020-09-26T11:11:30+00:00	2020-09-30T06:59:59+00:00	-4	ynjxddr9x0sjs70@marketplace.amazon.com	Andrea	+1 602-671-6610 ext. 89920	ABR001	Arabella Bouquets 12 Stems of Fresh Cut Red Roses in a Free Designer Glass Vase	1	0	1	Expedited	Rosemary Walker	351 W 100 S			OREM	UT	84058-5493	US		Roses for my Rosy!  I love You, buon compleanno From Andrea	false		
114-8719113-0305816	25742886672258	2020-09-26T10:55:39+00:00	2020-09-26T03:55:39-07:00	2020-09-26T11:22:57+00:00	2020-09-30T06:59:59+00:00	-4	cjvsrtz0dgnhlj2@marketplace.amazon.com	Hariharan R. Narayanan	+1 415-851-9136 ext. 12043	ABR0066	Delivery by Wednesday | Arabella Bouquets 12 Stems of Fresh Cut White Roses in a Free Designer Glass Vase	1	0	1	Expedited	Alyssa Russo	2827 FRONTIER TRL			CHAMBLEE	GA	30341-5206	US			false		
114-4142205-0181030	34438713744506	2020-09-26T11:51:50+00:00	2020-09-26T04:51:50-07:00	2020-09-26T12:22:03+00:00	2020-09-30T06:59:59+00:00	-4	z56hyp69dn5f0s3@marketplace.amazon.com	RENXIAN XU	+1 929-436-4790 ext. 92427	ABR0022	Delivery by Wednesday | Arabella Farm Direct Bouquet of 12 Fresh Cut Pink Roses with a Free Glass Vase	1	0	1	Expedited	Xinyi Jiang	2300 IRON POINT RD NO 1623			FOLSOM	CA	95630-8489	US			false		
111-5664290-8572232	05741529085026	2020-09-26T12:07:33+00:00	2020-09-26T05:07:33-07:00	2020-09-26T12:37:40+00:00	2020-09-30T06:59:59+00:00	-4	0y3hx5g4fnkm15h@marketplace.amazon.com	Beth	+1 602-671-6610 ext. 13162	ABR0022	Delivery by Wednesday | Arabella Farm Direct Bouquet of 12 Fresh Cut Pink Roses with a Free Glass Vase	1	0	1	Expedited	Jodi Jagodzinski	4820 MAJESTIC PASS			LOVES PARK	IL	61111-7601	US		Jodi, we are thinking of you with love From Norman and Beth	false		
111-4234392-0631407	11208594197434	2020-09-26T12:22:43+00:00	2020-09-26T05:22:43-07:00	2020-09-26T12:45:28+00:00	2020-09-30T06:59:59+00:00	-4	lc0kg913y1tqzrj@marketplace.amazon.com	joe	+1 602-671-6610 ext. 78359	ABR0022	Delivery by Wednesday | Arabella Farm Direct Bouquet of 12 Fresh Cut Pink Roses with a Free Glass Vase	1	0	1	Expedited	Ciara Bailey	8777 KINZIE JOS WAY			MANHATTAN	KS	66502-8922	US		Happy Birthday my love I hope you have a great day From Joe	false		
113-9451657-7190664	18270514253514	2020-09-26T12:37:53+00:00	2020-09-26T05:37:53-07:00	2020-09-26T13:07:05+00:00	2020-09-30T06:59:59+00:00	-4	qr3p4q9g80zkbjc@marketplace.amazon.com	Ugne Pakalnickaite	+1 480-618-5344 ext. 46215	ABR0022	Delivery by Wednesday | Arabella Farm Direct Bouquet of 12 Fresh Cut Pink Roses with a Free Glass Vase	1	0	1	Expedited	Mrs Nijole Zauka	100 ROCHAMBEAU AVE 1			PROVIDENCE	RI	02906-1908	US			false		
114-9600346-4680268	48478858154306	2020-09-26T13:10:46+00:00	2020-09-26T06:10:46-07:00	2020-09-26T13:39:14+00:00	2020-09-30T06:59:59+00:00	-4	v5l8h7prpbmk6yz@marketplace.amazon.com	RoseAnn R Gerson	+1 929-436-4790 ext. 36505	ABR0022	Delivery by Wednesday | Arabella Farm Direct Bouquet of 12 Fresh Cut Pink Roses with a Free Glass Vase	1	0	1	Expedited	MARCIA Reiber	3705 PALMA CEIA CT			TAMPA	FL	33629-5123	US		Happpppppy birthday!! From Rosie and Steve	false		
113-5826767-9804201	30446117941218	2020-09-26T13:17:52+00:00	2020-09-26T06:17:52-07:00	2020-09-26T13:48:21+00:00	2020-09-30T06:59:59+00:00	-4	rpznvrsgd8wf5bd@marketplace.amazon.com	Jeffrey Ingram	+1 480-618-5344 ext. 24515	ABB001	Arabella Farm Direct Fresh Cut White Hydrangea	1	0	1	Expedited	Jeffrey D Ingram	2266 3600 AVE			JUNCTION CITY	KS	66441-8725	US			false		
113-9343003-2637854	22393763562050	2020-09-26T13:29:41+00:00	2020-09-26T06:29:41-07:00	2020-09-26T13:54:33+00:00	2020-09-30T06:59:59+00:00	-4	6fjq6jy8x55ycy7@marketplace.amazon.com	equienterprises	+1 929-436-4790 ext. 98606	ABR0022	Delivery by Wednesday | Arabella Farm Direct Bouquet of 12 Fresh Cut Pink Roses with a Free Glass Vase	1	0	1	Expedited	Sandra Hamilton	12 HACKLEYS MILL RD			AMISSVILLE	VA	20106-4122	US		Happy Birthday Mom!!!!! I hope you enjoy 💖 With love, Sara and family From Sara	false		
114-3565751-9642667	07438373182162	2020-09-26T13:35:19+00:00	2020-09-26T06:35:19-07:00	2020-09-26T14:02:23+00:00	2020-09-30T06:59:59+00:00	-4	ny50f93lm79pdg4@marketplace.amazon.com	Daniel J McKelvey	+1 480-618-5344 ext. 27476	ABM010	Delivery by Wednesday | The Spring Fling Bouquet by Arabella Bouquets with a Free Designer Glass Vase	1	0	1	Expedited	Cathy Garten and family	41 MARBERN LN			NAUGATUCK	CT	06770-1613	US		Dear Cathy, Brian, Tricia and Lisa, Sending you many hugs during this difficult and sad time. Love you lots, From Cousins Dan and Marie	false		
112-3986164-3011454	08471194133746	2020-09-26T14:07:01+00:00	2020-09-26T07:07:01-07:00	2020-09-26T14:07:58+00:00	2020-09-30T06:59:59+00:00	-4	f9fr4plmw42fgjx@marketplace.amazon.com	Dana Smith	+1 602-671-6610 ext. 48317	ABR0022	Delivery by Wednesday | Arabella Farm Direct Bouquet of 12 Fresh Cut Pink Roses with a Free Glass Vase	1	0	1	Expedited	Marjorie Daysal	2590 TRAYWICK CHASE			ALPHARETTA	GA	30004-4244	US		With all our love, Dana and Derek From Dana Smith	false		
112-7403640-2277812	53435587174442	2020-09-26T14:14:55+00:00	2020-09-26T07:14:55-07:00	2020-09-26T14:32:05+00:00	2020-09-30T06:59:59+00:00	-4	y3hh0fcjf8kl81n@marketplace.amazon.com	Janet Ackerman	+1 929-436-4790 ext. 51795	ABR0022	Delivery by Wednesday | Arabella Farm Direct Bouquet of 12 Fresh Cut Pink Roses with a Free Glass Vase	1	0	1	Expedited	Ms Gaby Miller	78 MACARTHUR RD			NATICK	MA	01760-2938	US		Dear Gaby, We love you. Enjoy your special day! Mazel tov! From Aunt Janet & Uncle Mark	false		
114-1714934-3140262	42810763480194	2020-09-26T14:29:22+00:00	2020-09-26T07:29:22-07:00	2020-09-26T14:37:28+00:00	2020-09-30T06:59:59+00:00	-4	my96cynsjdmqd7p@marketplace.amazon.com	david cooper	+1 929-436-4790 ext. 88263	ABM022	Delivery by Wednesday | Purple Extravagance Bouquet by Arabella Bouquets	1	0	1	Expedited	Cheryl Murray	APARTMENT - SECOND FLOOR	412 MUNRO AVE		MAMARONECK	NY	10543-3440	US		We are so sorry for your loss. From Cathi and David Cooper	false		
114-2844434-3329846	48407723837106	2020-09-26T15:02:43+00:00	2020-09-26T08:02:43-07:00	2020-09-26T15:31:59+00:00	2020-09-30T06:59:59+00:00	-4	0zb9mbczr1lrck5@marketplace.amazon.com	Sandra Kenworthy	+1 602-671-6610 ext. 45175	ABR0055	Delivery by Wednesday | Arabella Farm Direct Bouquet of 12 Stems of Fresh Cut Hot Pink Roses in a Free Designer Glass Vase	1	0	1	Expedited	Vannesa Vega	6325 N 13TH PL			PHOENIX	AZ	85014-1424	US		Amiga!!! Te deseo una pronta mejoría. Recuerda que te quiero mucho Sandra K From Sandra Kenworthy	false		
113-5742914-4827451	29858460840626	2020-09-26T15:09:50+00:00	2020-09-26T08:09:50-07:00	2020-09-26T15:38:53+00:00	2020-09-30T06:59:59+00:00	-4	cs6s35fs5z3qj6n@marketplace.amazon.com	Vonelle Clark	+1 480-618-5344 ext. 84665	ABR012	Delivery by Wednesday | Arabella Farm Direct Bouquet of 18 Fresh Cut Pink Roses with a Free Glass Vase	1	0	1	Expedited	Esther Turner	102 MRAZ ST			YOAKUM	TX	77995-4239	US		Happy Birthday!  Love you ❤️ From Vonelle Clark	false		
114-6447260-9788253	14868031500986	2020-09-26T15:29:28+00:00	2020-09-26T08:29:28-07:00	2020-09-26T15:55:13+00:00	2020-09-30T06:59:59+00:00	-4	174fttwlxrgqqq3@marketplace.amazon.com	Tim Chuter	+1 480-618-5344 ext. 08523	ABM010	Delivery by Wednesday | The Spring Fling Bouquet by Arabella Bouquets with a Free Designer Glass Vase	1	0	1	Expedited	Theresa Hiramoto	5 FAYENCE			NEWPORT COAST	CA	92657-0118	US		Happy Birthday Theresa! Have an awesome day! Love, Mom, Tim, Jade, and Carolyn From Mom, Tim, Jade, and Carolyn	false		
113-3348449-7560261	01734656325434	2020-09-26T15:34:48+00:00	2020-09-26T08:34:48-07:00	2020-09-26T16:07:42+00:00	2020-09-30T06:59:59+00:00	-4	4cp2lppxvbsxzz4@marketplace.amazon.com	Leica M Anzaldo	+1 929-436-4790 ext. 66403	ABM020	Delivery by Wednesday | Summer Sunset Bouquet by Arabella Bouquets	1	0	1	Expedited	Francine Anzaldo	33 BIRCH LN			PILESGROVE	NJ	08098-2419	US		Happy Birthday Mom. We love you. From Dave, Leica, Jackson & Gavin	false		
112-7281781-8828248	62382582552610	2020-09-26T16:36:48+00:00	2020-09-26T09:36:48-07:00	2020-09-26T16:48:53+00:00	2020-09-30T06:59:59+00:00	-4	590fyw7h6njysx7@marketplace.amazon.com	brorien	+1 602-671-6610 ext. 04986	ABR001	Delivery by Wednesday | Arabella Bouquets 12 Stems of Fresh Cut Red Roses in a Free Designer Glass Vase	1	0	1	Standard	Travis	2901 S MANSION DR APT 302	INDEPENDENCE MISSOURI		INDEPENDENCE	MO	64055-7547	US		Enjoy your gift! From Travis	false		
111-4775109-1793033	21103931398434	2020-09-26T16:27:01+00:00	2020-09-26T09:27:01-07:00	2020-09-26T16:55:11+00:00	2020-09-30T06:59:59+00:00	-4	hj301ny37dgmdnk@marketplace.amazon.com	JD Landers	+1 480-618-5344 ext. 55386	ABR0033	Delivery by Wednesday | Arabella Farm Direct Bouquet of 12 Fresh Cut Orange Roses with a Free Glass Vase	1	0	1	Expedited	Laura Lynn - Future Mrs!	426 VAIL CIR			OKLAHOMA CITY	OK	73114-7652	US		We are so happy for you and JC! Congratulations! Hope to see you in a few weeks for your birthday- double celebration!!  Love you! From Amanda, JD, and Merrick	false		
113-8023322-3207448	20449774451682	2020-09-26T16:39:06+00:00	2020-09-26T09:39:06-07:00	2020-09-26T17:05:25+00:00	2020-09-30T06:59:59+00:00	-4	k8lb9b2zbmnvf3l@marketplace.amazon.com	Linda F Dunn	+1 929-436-4790 ext. 43015	ABM022	Delivery by Wednesday | Purple Extravagance Bouquet by Arabella Bouquets	1	0	1	Expedited	Karen Degen	1712 SW 22ND CT			BATTLE GROUND	WA	98604-3134	US		Thinking of you and keeping you close in our prayers. From Linda F Dunn	false		
114-7149694-9408242	63898994980266	2020-09-26T16:43:11+00:00	2020-09-26T09:43:11-07:00	2020-09-26T17:07:58+00:00	2020-09-30T06:59:59+00:00	-4	bxkn0pf65lt8xml@marketplace.amazon.com	angela	+1 929-436-4790 ext. 36096	ABR0022	Delivery by Wednesday | Arabella Farm Direct Bouquet of 12 Fresh Cut Pink Roses with a Free Glass Vase	1	0	1	Expedited	Lisa Repoert	6051 TIMBERKNOLL DR			MACUNGIE	PA	18062-8882	US		Lisa,   We are thinking of you in this difficult time.   With love,  Stephanie & Jerry Ficco Angela & Michael Sultan From Angie Sultan	false		
113-7777479-6486650	21717798355698	2020-09-26T16:40:47+00:00	2020-09-26T09:40:47-07:00	2020-09-26T17:10:39+00:00	2020-09-30T06:59:59+00:00	-4	rxzqqvvcqq8lmwq@marketplace.amazon.com	Mister Hockey	+1 602-671-6610 ext. 64573	ABR0022	Delivery by Wednesday | Arabella Farm Direct Bouquet of 12 Fresh Cut Pink Roses with a Free Glass Vase	1	0	1	Expedited	Bonnie Marie	833 E LAUREL AVE			GLENDORA	CA	91741-2806	US			false		
