order-id	order-item-id	purchase-date	payments-date	reporting-date	promise-date	days-past-promise	buyer-email	buyer-name	buyer-phone-number	sku	product-name	quantity-purchased	quantity-shipped	quantity-to-ship	ship-service-level	recipient-name	ship-address-1	ship-address-2	ship-address-3	ship-city	ship-state	ship-postal-code	ship-country	gift-wrap-type	gift-message-text	is-business-order	purchase-order-number	price-designation
114-2449076-6667444	52113050707978	2020-09-26T10:49:40+00:00	2020-09-26T03:49:40-07:00	2020-09-26T11:11:30+00:00	2020-09-30T06:59:59+00:00	-3	ynjxddr9x0sjs70@marketplace.amazon.com	Andrea	+1 602-671-6610 ext. 89920	ABR001	Arabella Bouquets 12 Stems of Fresh Cut Red Roses in a Free Designer Glass Vase	1	0	1	Expedited	Rosemary Walker	351 W 100 S			OREM	UT	84058-5493	US		Roses for my Rosy!  I love You, buon compleanno From Andrea	false		
114-8719113-0305816	25742886672258	2020-09-26T10:55:39+00:00	2020-09-26T03:55:39-07:00	2020-09-26T11:22:57+00:00	2020-09-30T06:59:59+00:00	-3	cjvsrtz0dgnhlj2@marketplace.amazon.com	Hariharan R. Narayanan	+1 415-851-9136 ext. 12043	ABR0066	Delivery by Wednesday | Arabella Bouquets 12 Stems of Fresh Cut White Roses in a Free Designer Glass Vase	1	0	1	Expedited	Alyssa Russo	2827 FRONTIER TRL			CHAMBLEE	GA	30341-5206	US			false		
114-4142205-0181030	34438713744506	2020-09-26T11:51:50+00:00	2020-09-26T04:51:50-07:00	2020-09-26T12:22:03+00:00	2020-09-30T06:59:59+00:00	-3	z56hyp69dn5f0s3@marketplace.amazon.com	RENXIAN XU	+1 929-436-4790 ext. 92427	ABR0022	Delivery by Wednesday | Arabella Farm Direct Bouquet of 12 Fresh Cut Pink Roses with a Free Glass Vase	1	0	1	Expedited	Xinyi Jiang	2300 IRON POINT RD NO 1623			FOLSOM	CA	95630-8489	US			false		
111-5664290-8572232	05741529085026	2020-09-26T12:07:33+00:00	2020-09-26T05:07:33-07:00	2020-09-26T12:37:40+00:00	2020-09-30T06:59:59+00:00	-3	0y3hx5g4fnkm15h@marketplace.amazon.com	Beth	+1 602-671-6610 ext. 13162	ABR0022	Delivery by Wednesday | Arabella Farm Direct Bouquet of 12 Fresh Cut Pink Roses with a Free Glass Vase	1	0	1	Expedited	Jodi Jagodzinski	4820 MAJESTIC PASS			LOVES PARK	IL	61111-7601	US		Jodi, we are thinking of you with love From Norman and Beth	false		
111-4234392-0631407	11208594197434	2020-09-26T12:22:43+00:00	2020-09-26T05:22:43-07:00	2020-09-26T12:45:28+00:00	2020-09-30T06:59:59+00:00	-3	lc0kg913y1tqzrj@marketplace.amazon.com	joe	+1 602-671-6610 ext. 78359	ABR0022	Delivery by Wednesday | Arabella Farm Direct Bouquet of 12 Fresh Cut Pink Roses with a Free Glass Vase	1	0	1	Expedited	Ciara Bailey	8777 KINZIE JOS WAY			MANHATTAN	KS	66502-8922	US		Happy Birthday my love I hope you have a great day From Joe	false		
113-9451657-7190664	18270514253514	2020-09-26T12:37:53+00:00	2020-09-26T05:37:53-07:00	2020-09-26T13:07:05+00:00	2020-09-30T06:59:59+00:00	-3	qr3p4q9g80zkbjc@marketplace.amazon.com	Ugne Pakalnickaite	+1 480-618-5344 ext. 46215	ABR0022	Delivery by Wednesday | Arabella Farm Direct Bouquet of 12 Fresh Cut Pink Roses with a Free Glass Vase	1	0	1	Expedited	Mrs Nijole Zauka	100 ROCHAMBEAU AVE 1			PROVIDENCE	RI	02906-1908	US			false		
114-9600346-4680268	48478858154306	2020-09-26T13:10:46+00:00	2020-09-26T06:10:46-07:00	2020-09-26T13:39:14+00:00	2020-09-30T06:59:59+00:00	-3	v5l8h7prpbmk6yz@marketplace.amazon.com	RoseAnn R Gerson	+1 929-436-4790 ext. 36505	ABR0022	Delivery by Wednesday | Arabella Farm Direct Bouquet of 12 Fresh Cut Pink Roses with a Free Glass Vase	1	0	1	Expedited	MARCIA Reiber	3705 PALMA CEIA CT			TAMPA	FL	33629-5123	US		Happpppppy birthday!! From Rosie and Steve	false		
113-5826767-9804201	30446117941218	2020-09-26T13:17:52+00:00	2020-09-26T06:17:52-07:00	2020-09-26T13:48:21+00:00	2020-09-30T06:59:59+00:00	-3	rpznvrsgd8wf5bd@marketplace.amazon.com	Jeffrey Ingram	+1 480-618-5344 ext. 24515	ABB001	Arabella Farm Direct Fresh Cut White Hydrangea	1	0	1	Expedited	Jeffrey D Ingram	2266 3600 AVE			JUNCTION CITY	KS	66441-8725	US			false		
113-9343003-2637854	22393763562050	2020-09-26T13:29:41+00:00	2020-09-26T06:29:41-07:00	2020-09-26T13:54:33+00:00	2020-09-30T06:59:59+00:00	-3	6fjq6jy8x55ycy7@marketplace.amazon.com	equienterprises	+1 929-436-4790 ext. 98606	ABR0022	Delivery by Wednesday | Arabella Farm Direct Bouquet of 12 Fresh Cut Pink Roses with a Free Glass Vase	1	0	1	Expedited	Sandra Hamilton	12 HACKLEYS MILL RD			AMISSVILLE	VA	20106-4122	US		Happy Birthday Mom!!!!! I hope you enjoy 💖 With love, Sara and family From Sara	false		
114-3565751-9642667	07438373182162	2020-09-26T13:35:19+00:00	2020-09-26T06:35:19-07:00	2020-09-26T14:02:23+00:00	2020-09-30T06:59:59+00:00	-3	ny50f93lm79pdg4@marketplace.amazon.com	Daniel J McKelvey	+1 480-618-5344 ext. 27476	ABM010	Delivery by Wednesday | The Spring Fling Bouquet by Arabella Bouquets with a Free Designer Glass Vase	1	0	1	Expedited	Cathy Garten and family	41 MARBERN LN			NAUGATUCK	CT	06770-1613	US		Dear Cathy, Brian, Tricia and Lisa, Sending you many hugs during this difficult and sad time. Love you lots, From Cousins Dan and Marie	false		
112-3986164-3011454	08471194133746	2020-09-26T14:07:01+00:00	2020-09-26T07:07:01-07:00	2020-09-26T14:07:58+00:00	2020-09-30T06:59:59+00:00	-3	f9fr4plmw42fgjx@marketplace.amazon.com	Dana Smith	+1 602-671-6610 ext. 48317	ABR0022	Delivery by Wednesday | Arabella Farm Direct Bouquet of 12 Fresh Cut Pink Roses with a Free Glass Vase	1	0	1	Expedited	Marjorie Daysal	2590 TRAYWICK CHASE			ALPHARETTA	GA	30004-4244	US		With all our love, Dana and Derek From Dana Smith	false		
112-7403640-2277812	53435587174442	2020-09-26T14:14:55+00:00	2020-09-26T07:14:55-07:00	2020-09-26T14:32:05+00:00	2020-09-30T06:59:59+00:00	-3	y3hh0fcjf8kl81n@marketplace.amazon.com	Janet Ackerman	+1 929-436-4790 ext. 51795	ABR0022	Delivery by Wednesday | Arabella Farm Direct Bouquet of 12 Fresh Cut Pink Roses with a Free Glass Vase	1	0	1	Expedited	Ms Gaby Miller	78 MACARTHUR RD			NATICK	MA	01760-2938	US		Dear Gaby, We love you. Enjoy your special day! Mazel tov! From Aunt Janet & Uncle Mark	false		
114-1714934-3140262	42810763480194	2020-09-26T14:29:22+00:00	2020-09-26T07:29:22-07:00	2020-09-26T14:37:28+00:00	2020-09-30T06:59:59+00:00	-3	my96cynsjdmqd7p@marketplace.amazon.com	david cooper	+1 929-436-4790 ext. 88263	ABM022	Delivery by Wednesday | Purple Extravagance Bouquet by Arabella Bouquets	1	0	1	Expedited	Cheryl Murray	APARTMENT - SECOND FLOOR	412 MUNRO AVE		MAMARONECK	NY	10543-3440	US		We are so sorry for your loss. From Cathi and David Cooper	false		
114-2844434-3329846	48407723837106	2020-09-26T15:02:43+00:00	2020-09-26T08:02:43-07:00	2020-09-26T15:31:59+00:00	2020-09-30T06:59:59+00:00	-3	0zb9mbczr1lrck5@marketplace.amazon.com	Sandra Kenworthy	+1 602-671-6610 ext. 45175	ABR0055	Delivery by Wednesday | Arabella Farm Direct Bouquet of 12 Stems of Fresh Cut Hot Pink Roses in a Free Designer Glass Vase	1	0	1	Expedited	Vannesa Vega	6325 N 13TH PL			PHOENIX	AZ	85014-1424	US		Amiga!!! Te deseo una pronta mejoría. Recuerda que te quiero mucho Sandra K From Sandra Kenworthy	false		
113-5742914-4827451	29858460840626	2020-09-26T15:09:50+00:00	2020-09-26T08:09:50-07:00	2020-09-26T15:38:53+00:00	2020-09-30T06:59:59+00:00	-3	cs6s35fs5z3qj6n@marketplace.amazon.com	Vonelle Clark	+1 480-618-5344 ext. 84665	ABR012	Delivery by Wednesday | Arabella Farm Direct Bouquet of 18 Fresh Cut Pink Roses with a Free Glass Vase	1	0	1	Expedited	Esther Turner	102 MRAZ ST			YOAKUM	TX	77995-4239	US		Happy Birthday!  Love you ❤️ From Vonelle Clark	false		
114-6447260-9788253	14868031500986	2020-09-26T15:29:28+00:00	2020-09-26T08:29:28-07:00	2020-09-26T15:55:13+00:00	2020-09-30T06:59:59+00:00	-3	174fttwlxrgqqq3@marketplace.amazon.com	Tim Chuter	+1 480-618-5344 ext. 08523	ABM010	Delivery by Wednesday | The Spring Fling Bouquet by Arabella Bouquets with a Free Designer Glass Vase	1	0	1	Expedited	Theresa Hiramoto	5 FAYENCE			NEWPORT COAST	CA	92657-0118	US		Happy Birthday Theresa! Have an awesome day! Love, Mom, Tim, Jade, and Carolyn From Mom, Tim, Jade, and Carolyn	false		
113-3348449-7560261	01734656325434	2020-09-26T15:34:48+00:00	2020-09-26T08:34:48-07:00	2020-09-26T16:07:42+00:00	2020-09-30T06:59:59+00:00	-3	4cp2lppxvbsxzz4@marketplace.amazon.com	Leica M Anzaldo	+1 929-436-4790 ext. 66403	ABM020	Delivery by Wednesday | Summer Sunset Bouquet by Arabella Bouquets	1	0	1	Expedited	Francine Anzaldo	33 BIRCH LN			PILESGROVE	NJ	08098-2419	US		Happy Birthday Mom. We love you. From Dave, Leica, Jackson & Gavin	false		
112-7281781-8828248	62382582552610	2020-09-26T16:36:48+00:00	2020-09-26T09:36:48-07:00	2020-09-26T16:48:53+00:00	2020-09-30T06:59:59+00:00	-3	590fyw7h6njysx7@marketplace.amazon.com	brorien	+1 602-671-6610 ext. 04986	ABR001	Delivery by Wednesday | Arabella Bouquets 12 Stems of Fresh Cut Red Roses in a Free Designer Glass Vase	1	0	1	Standard	Travis	2901 S MANSION DR APT 302	INDEPENDENCE MISSOURI		INDEPENDENCE	MO	64055-7547	US		Enjoy your gift! From Travis	false		
111-4775109-1793033	21103931398434	2020-09-26T16:27:01+00:00	2020-09-26T09:27:01-07:00	2020-09-26T16:55:11+00:00	2020-09-30T06:59:59+00:00	-3	hj301ny37dgmdnk@marketplace.amazon.com	JD Landers	+1 480-618-5344 ext. 55386	ABR0033	Delivery by Wednesday | Arabella Farm Direct Bouquet of 12 Fresh Cut Orange Roses with a Free Glass Vase	1	0	1	Expedited	Laura Lynn - Future Mrs!	426 VAIL CIR			OKLAHOMA CITY	OK	73114-7652	US		We are so happy for you and JC! Congratulations! Hope to see you in a few weeks for your birthday- double celebration!!  Love you! From Amanda, JD, and Merrick	false		
113-8023322-3207448	20449774451682	2020-09-26T16:39:06+00:00	2020-09-26T09:39:06-07:00	2020-09-26T17:05:25+00:00	2020-09-30T06:59:59+00:00	-3	k8lb9b2zbmnvf3l@marketplace.amazon.com	Linda F Dunn	+1 929-436-4790 ext. 43015	ABM022	Delivery by Wednesday | Purple Extravagance Bouquet by Arabella Bouquets	1	0	1	Expedited	Karen Degen	1712 SW 22ND CT			BATTLE GROUND	WA	98604-3134	US		Thinking of you and keeping you close in our prayers. From Linda F Dunn	false		
114-7149694-9408242	63898994980266	2020-09-26T16:43:11+00:00	2020-09-26T09:43:11-07:00	2020-09-26T17:07:58+00:00	2020-09-30T06:59:59+00:00	-3	bxkn0pf65lt8xml@marketplace.amazon.com	angela	+1 929-436-4790 ext. 36096	ABR0022	Delivery by Wednesday | Arabella Farm Direct Bouquet of 12 Fresh Cut Pink Roses with a Free Glass Vase	1	0	1	Expedited	Lisa Repoert	6051 TIMBERKNOLL DR			MACUNGIE	PA	18062-8882	US		Lisa,   We are thinking of you in this difficult time.   With love,  Stephanie & Jerry Ficco Angela & Michael Sultan From Angie Sultan	false		
113-7777479-6486650	21717798355698	2020-09-26T16:40:47+00:00	2020-09-26T09:40:47-07:00	2020-09-26T17:10:39+00:00	2020-09-30T06:59:59+00:00	-3	rxzqqvvcqq8lmwq@marketplace.amazon.com	Mister Hockey	+1 602-671-6610 ext. 64573	ABR0022	Delivery by Wednesday | Arabella Farm Direct Bouquet of 12 Fresh Cut Pink Roses with a Free Glass Vase	1	0	1	Expedited	Bonnie Marie	833 E LAUREL AVE			GLENDORA	CA	91741-2806	US			false		
112-7650835-1645016	10037617685594	2020-09-26T17:09:20+00:00	2020-09-26T10:09:20-07:00	2020-09-26T17:18:03+00:00	2020-09-30T06:59:59+00:00	-3	590fyw7h6njysx7@marketplace.amazon.com	brorien	+1 602-671-6610 ext. 10637	ABR001	Delivery by Wednesday | Arabella Bouquets 12 Stems of Fresh Cut Red Roses in a Free Designer Glass Vase	1	0	1	Expedited	William Anderson	BUILDING 218 LENOX ST	UNIONTOWN PENNSYLVANIA 15401		UNIONTOWN	PA	15401-3081	US		I love you so much From William Anderson	false		
114-7866855-9247431	22646724586786	2020-09-26T16:49:39+00:00	2020-09-26T09:49:39-07:00	2020-09-26T17:18:04+00:00	2020-09-30T06:59:59+00:00	-3	bxkn0pf65lt8xml@marketplace.amazon.com	angela	+1 602-671-6610 ext. 86989	ABR0022	Delivery by Wednesday | Arabella Farm Direct Bouquet of 12 Fresh Cut Pink Roses with a Free Glass Vase	1	0	1	Expedited	Nikki Mendez	1221 MAUMEE AVE			ALLENTOWN	PA	18103-4227	US		Nikki, We are thinking of you and your family in this difficult time. We love you and loved your mom.   Angela & Michael Sultan Stephanie & Jerry Ficco From angela	false		
113-7552644-4780244	19569219279610	2020-09-26T16:54:39+00:00	2020-09-26T09:54:39-07:00	2020-09-26T17:22:35+00:00	2020-09-30T06:59:59+00:00	-3	ndw1w74yfxr706t@marketplace.amazon.com	corie	+1 602-671-6610 ext. 01908	ABR004	Delivery by Wednesday | Arabella Farm Direct Bouquet of 12 Fresh Cut Yellow Roses with a Free Glass Vase	1	0	1	Expedited	Kim ruiz	6290 RALEIGH ST			RIVERSIDE	CA	92506-2061	US		Happy Birthday! Love you Corie, Shane, Sage, Dillon Hannah and doggies. From corie	false		
113-2188359-6343441	08190484586762	2020-09-26T16:57:47+00:00	2020-09-26T09:57:47-07:00	2020-09-26T17:26:16+00:00	2020-09-30T06:59:59+00:00	-3	6075l8rx1jl49s4@marketplace.amazon.com	George Januzzi	+1 602-671-6610 ext. 73654	ABR0022	Delivery by Wednesday | Arabella Farm Direct Bouquet of 12 Fresh Cut Pink Roses with a Free Glass Vase	1	0	1	Expedited	Michelle Sutton	84 Roosevelt Ave			Colonia	NJ	07067	US		Hello Michelle! Happy Birthday! Just a little something to brighten your day! Love you. Hugs and Kisses, Mom and George	false		
114-4883091-7821040	61259898104402	2020-09-26T17:09:18+00:00	2020-09-26T10:09:18-07:00	2020-09-26T17:38:23+00:00	2020-09-30T06:59:59+00:00	-3	lw10hvndl7f2ds1@marketplace.amazon.com	Barbara Heil	+1 480-618-5344 ext. 94262	ABR0033	Delivery by Wednesday | Arabella Farm Direct Bouquet of 12 Fresh Cut Orange Roses with a Free Glass Vase	1	0	1	Expedited	Barbara Jones	1421 SHENK AVE			ERIE	PA	16505-3140	US		Mom,  Hope you have a wonderful birthday From Love Barbie	false		
111-2636990-4260255	25292811397370	2020-09-26T17:31:11+00:00	2020-09-26T10:31:11-07:00	2020-09-26T17:59:20+00:00	2020-09-30T06:59:59+00:00	-3	zj2mnd0lnzhq6w2@marketplace.amazon.com	Jose Ridriguez	+1 929-436-4790 ext. 96881	ABR0055	Delivery by Wednesday | Arabella Farm Direct Bouquet of 12 Stems of Fresh Cut Hot Pink Roses in a Free Designer Glass Vase	1	0	1	Expedited	Mary Sonia Gonzalez	5920 N KRAMER CT			RIMROCK	AZ	86335-6229	US			false		
114-8626324-2927416	13325226202266	2020-09-26T17:39:54+00:00	2020-09-26T10:39:54-07:00	2020-09-26T18:08:02+00:00	2020-09-30T06:59:59+00:00	-3	s0pnjwnww3d49fv@marketplace.amazon.com	Rick johnson	+1 480-618-5344 ext. 95216	ABR0055	Delivery by Wednesday | Arabella Farm Direct Bouquet of 12 Stems of Fresh Cut Hot Pink Roses in a Free Designer Glass Vase	1	0	1	Expedited	Jeanne johnson	7110 SECOR PL			GIG HARBOR	WA	98335-5108	US		To a Beautiful Person. You deserve flowers everyday. But I can’t afford it. Ha. Love you everyday tho. From Rick johnson	false		
114-1905406-4588202	00767153739634	2020-09-26T18:01:18+00:00	2020-09-26T11:01:18-07:00	2020-09-26T18:30:52+00:00	2020-09-30T06:59:59+00:00	-3	5qg5zzz60bj511z@marketplace.amazon.com	Cari L. Loveland	+1 602-671-6610 ext. 25175	ABR013	Delivery by Wednesday | Arabella Farm Direct Bouquet of 18 Fresh Cut Yellow Roses with a Free Glass Vase	1	0	1	Expedited	Bonnie Dembraski	12223 US HIGHWAY 45			BRUCE CROSSING	MI	49912-9305	US		Happy 50th Anniversary. So wish we could celebrate with you!  Love and miss you! From  Loveland	false		
113-4777405-3569802	43381784395858	2020-09-26T18:31:38+00:00	2020-09-26T11:31:38-07:00	2020-09-26T18:59:39+00:00	2020-09-30T06:59:59+00:00	-3	f737t8w96swqz96@marketplace.amazon.com	Carol A. Hegranes	+1 602-671-6610 ext. 18307	ABR0022	Delivery by Wednesday | Arabella Farm Direct Bouquet of 12 Fresh Cut Pink Roses with a Free Glass Vase	1	0	1	Expedited	Cristi Hegranes	11112 MIDVALE RD			KENSINGTON	MD	20895-1907	US		Hi Cristi, Henry&Louise.    Welcome to your new Home! Love you all, Grandma Carol and Grandpa Billy	false		
111-4550166-1638617	69575320407034	2020-09-26T18:42:21+00:00	2020-09-26T11:42:21-07:00	2020-09-26T19:08:04+00:00	2020-09-30T06:59:59+00:00	-3	qzzdzm7tzf6kcrk@marketplace.amazon.com	Patricia A. Parkinson	+1 602-671-6610 ext. 05020	ABR0055	Delivery by Wednesday | Arabella Farm Direct Bouquet of 12 Stems of Fresh Cut Hot Pink Roses in a Free Designer Glass Vase	1	0	1	Expedited	Kathryn Parkinson	804 CARLETON AVE			CARUTHERSVILLE	MO	63830-1839	US			false		
113-3871321-2900265	08136144380098	2020-09-26T19:08:49+00:00	2020-09-26T12:08:49-07:00	2020-09-26T19:36:09+00:00	2020-09-30T06:59:59+00:00	-3	mbgn1krwxgvy4x7@marketplace.amazon.com	Daisy Godfrey	646355994	ABR0022	Delivery by Wednesday | Arabella Farm Direct Bouquet of 12 Fresh Cut Pink Roses with a Free Glass Vase	1	0	1	Expedited	Natalie Martinez	140-26 Franklin Avenue  Apt. 1G			Flushing	New York	11355	US		Hope you are feeling better hope these roses brighten up your day!  Con Amor y Abrazos y Besos From Mommie	false		
112-9195555-3025048	44482211470090	2020-09-26T20:09:38+00:00	2020-09-26T13:09:38-07:00	2020-09-26T20:41:53+00:00	2020-09-30T06:59:59+00:00	-3	l6jgbhpfyhg8406@marketplace.amazon.com	Richard Wiley	+1 480-618-5344 ext. 74971	ABR0022	Delivery by Wednesday | Arabella Farm Direct Bouquet of 12 Fresh Cut Pink Roses with a Free Glass Vase	1	0	1	Expedited	Rich Wiley	13588 MILLPOND WAY			SAN DIEGO	CA	92129-2049	US		Hi, Happy birthday...love you😀 From Richard Wiley	false		
113-8011294-2266652	40001824245290	2020-09-26T20:15:01+00:00	2020-09-26T13:15:01-07:00	2020-09-26T20:45:02+00:00	2020-09-30T06:59:59+00:00	-3	01gx50cnlkd34t8@marketplace.amazon.com	ANNE M VARTERESIAN	+1 415-851-9136 ext. 66313	ABR001	Delivery by Wednesday | Arabella Bouquets 12 Stems of Fresh Cut Red Roses in a Free Designer Glass Vase	1	0	1	Expedited	Anne M Varteresian	10 WILSHIRE WAY			MARLBOROUGH	MA	01752-1257	US			false		
112-2862673-6128237	02534507806746	2020-09-26T20:51:41+00:00	2020-09-26T13:51:41-07:00	2020-09-26T21:18:56+00:00	2020-09-30T06:59:59+00:00	-3	mh2ykxnfzhmsv6g@marketplace.amazon.com	Angel Alvarado	+1 480-618-5344 ext. 07596	ABR012	Delivery by Wednesday | Arabella Farm Direct Bouquet of 18 Fresh Cut Pink Roses with a Free Glass Vase	1	0	1	Expedited	Angel Alvarado	9265 BYRD DR			MANASSAS	VA	20110-5918	US			false		
113-5431535-0934616	27985615218674	2020-09-26T20:59:19+00:00	2020-09-26T13:59:19-07:00	2020-09-26T21:29:12+00:00	2020-09-30T06:59:59+00:00	-3	dyh9trq42z797km@marketplace.amazon.com	Deborah O'Connor	+1 480-618-5344 ext. 69677	ABR0033	Delivery by Wednesday | Arabella Farm Direct Bouquet of 12 Fresh Cut Orange Roses with a Free Glass Vase	1	0	1	Expedited	Gina Cruz	1142 E 88TH PL			LOS ANGELES	CA	90002-1139	US		HAPPY Birthday love you From Deborah O'Connor	false		
111-1694057-2713060	33704014893682	2020-09-26T21:51:53+00:00	2020-09-26T14:51:53-07:00	2020-09-26T22:22:10+00:00	2020-09-30T06:59:59+00:00	-3	p3q61f3r1lj38lx@marketplace.amazon.com	Aron Murnane	+1 929-436-4790 ext. 56164	ABR0022	Delivery by Wednesday | Arabella Farm Direct Bouquet of 12 Fresh Cut Pink Roses with a Free Glass Vase	1	0	1	Expedited	Aron Murnane	6203 N 152nd St			OMAHA	NE	68116-4444	US			false		
114-7923017-5811446	55599100536882	2020-09-26T22:01:09+00:00	2020-09-26T15:01:09-07:00	2020-09-26T22:29:43+00:00	2020-09-30T06:59:59+00:00	-3	tpd1tn379z48llw@marketplace.amazon.com	GINA M KNAPP	+1 929-436-4790 ext. 42440	ABR0022	Delivery by Wednesday | Arabella Farm Direct Bouquet of 12 Fresh Cut Pink Roses with a Free Glass Vase	1	0	1	Expedited	Lorraine Ortiz	5 ORCHARD LN			OLD TAPPAN	NJ	07675-7445	US		Happy birthday! We love you!! From Gina, Bill, Gavin, Daniella	false		
112-1416948-2881828	49077295885146	2020-09-26T22:20:11+00:00	2020-09-26T15:20:11-07:00	2020-09-26T22:48:23+00:00	2020-09-30T06:59:59+00:00	-3	6pv5ywkpqqy0h1j@marketplace.amazon.com	Gregory C. Van Pelt	+1 415-851-9136 ext. 21060	ABM010	Delivery by Wednesday | The Spring Fling Bouquet by Arabella Bouquets with a Free Designer Glass Vase	1	0	1	Expedited	Judith Sernyak	3 BURKE AVE			CONSHOHOCKEN	PA	19428-1307	US		Hope this helps brighten your day. Love you, Joan From Gregory C. Van Pelt	false		
114-3390381-9050623	32223590552042	2020-09-26T23:26:54+00:00	2020-09-26T16:26:54-07:00	2020-09-26T23:47:56+00:00	2020-09-30T06:59:59+00:00	-3	nb3wx4t7l823dwq@marketplace.amazon.com	Daniel Pijeira	+1 480-618-5344 ext. 48888	ABR0022	Delivery by Wednesday | Arabella Farm Direct Bouquet of 12 Fresh Cut Pink Roses with a Free Glass Vase	1	0	1	Expedited	Gudelia Moreira	8060 SW 132ND CT			MIAMI	FL	33183-4128	US		!Feliz Cumpleaño Abuelita! Te quiero muchisimo y espero a ver té bien pronto. Gena y yo té mandámos mucho cariño, y queremos que pases el día relajando.  Con mucho amór, Danny y Gena From Daniel Pijeira	false		
112-6922389-8377848	02009772371978	2020-09-26T23:58:21+00:00	2020-09-26T16:58:21-07:00	2020-09-27T00:28:34+00:00	2020-09-30T06:59:59+00:00	-3	ct2my0hwt9xzb3n@marketplace.amazon.com	Greg Landry	+1 602-671-6610 ext. 11821	ABM006	Arabella Bouquets Fresh Cut Yellow Lillies in a Free Designer Glass Vase	1	0	1	Expedited	Gerry Landry	AMBER TERRACE 8585 SUMMA AVE	APT 117		BATON ROUGE	LA	70809-0611	US			false		
113-1758568-1636205	27338849119906	2020-09-27T00:38:48+00:00	2020-09-26T17:38:48-07:00	2020-09-27T01:08:54+00:00	2020-09-30T06:59:59+00:00	-3	rlf9rz65nj2vd49@marketplace.amazon.com	Lin Merage	+1 480-618-5344 ext. 31265	ABM022	Delivery by Wednesday | Purple Extravagance Bouquet by Arabella Bouquets	1	0	1	Expedited	Lin Merage	4880 S FAIRFAX ST			CHERRY HILLS VILLAGE	CO	80121-2016	US			false		
113-1495475-8983407	04119974958034	2020-09-27T00:48:37+00:00	2020-09-26T17:48:37-07:00	2020-09-27T01:19:17+00:00	2020-09-30T06:59:59+00:00	-3	y7n4d3hl7km1zp9@marketplace.amazon.com	Jenna	+1 480-618-5344 ext. 37450	ABR0022	Delivery by Wednesday | Arabella Farm Direct Bouquet of 12 Fresh Cut Pink Roses with a Free Glass Vase	1	0	1	Expedited	Jared	217 EXETER RD			LEBANON	CT	06249-1358	US			false		
113-7042983-1907406	07041910284578	2020-09-27T01:16:09+00:00	2020-09-26T18:16:09-07:00	2020-09-27T01:44:23+00:00	2020-09-30T06:59:59+00:00	-3	dkbjp9dj5r5077f@marketplace.amazon.com	Trent	+1 929-436-4790 ext. 88457	ABR0033	Delivery by Wednesday | Arabella Farm Direct Bouquet of 12 Fresh Cut Orange Roses with a Free Glass Vase	1	0	1	Expedited	Sharon Oeste	340 CHRISTIE AVE			HAWORTH	NJ	07641-1823	US		Sharon, Happy Birthday!!  I hope you have a wonderful day.  Enjoy!! Lisa Eastman	false		
113-8645317-6884233	33265157877170	2020-09-27T01:34:03+00:00	2020-09-26T18:34:03-07:00	2020-09-27T02:02:56+00:00	2020-09-30T06:59:59+00:00	-3	bh63mzhy1b3xd2h@marketplace.amazon.com	Naomi A. Sharpe	+1 415-851-9136 ext. 73963	ABR0022	Delivery by Wednesday | Arabella Farm Direct Bouquet of 12 Fresh Cut Pink Roses with a Free Glass Vase	1	0	1	Expedited	Joshua and Tiana Sharpe	222 SW WACAHOOTA RD			MICANOPY	FL	32667-5218	US		Happy 5th Anniversary Josh and Tiana. We love you both. Tim, Naomi, Hannah, Leah ❤️ From Naomi A. Sharpe	false		
113-1563013-5981015	08024390643866	2020-09-26T16:17:00+00:00	2020-09-26T09:17:00-07:00	2020-09-27T02:20:34+00:00	2020-09-30T06:59:59+00:00	-3	sr1wgfrjdbt6hdv@marketplace.amazon.com	Jim Walter	+1 480-618-5344 ext. 12975	ABR001	Delivery by Wednesday | Arabella Bouquets 12 Stems of Fresh Cut Red Roses in a Free Designer Glass Vase	1	0	1	Expedited	Jim to Laurie	HOUSE 1236 MADISON AVE			PAINESVILLE	OH	44077-5274	US			false		
112-2187921-1079411	09400392651338	2020-09-27T02:03:28+00:00	2020-09-26T19:03:28-07:00	2020-09-27T02:25:28+00:00	2020-09-30T06:59:59+00:00	-3	v5ct5r023pfb01c@marketplace.amazon.com	Raghuram Kuchibhatla	+1 929-436-4790 ext. 64432	ABR0022	Delivery by Wednesday | Arabella Farm Direct Bouquet of 12 Fresh Cut Pink Roses with a Free Glass Vase	1	0	1	Expedited	Natasha Krishnani	4 LEDDY LN			PLEASANTVILLE	NY	10570-3512	US		Happy Anniversary Niraj and Natasha! Enjoy your day and many more to come. Kuchibhatlas	false		
114-4599170-0613838	27259050099242	2020-09-27T02:08:53+00:00	2020-09-26T19:08:53-07:00	2020-09-27T02:37:27+00:00	2020-09-30T06:59:59+00:00	-3	ppyq1g3lw17nmck@marketplace.amazon.com	Rosa Franklin McGuire	+1 929-436-4790 ext. 84562	ABR0055	Delivery by Wednesday | Arabella Farm Direct Bouquet of 12 Stems of Fresh Cut Hot Pink Roses in a Free Designer Glass Vase	1	0	1	Expedited	Yvonne Risueno	221 W THOMAS AVE			FRESNO	CA	93728-3065	US		Congratulations to you on your delivery of the beautiful Khaleesi. Good job, Mama. From Rosa Franklin McGuire	false		
114-4270515-7373869	51523653453146	2020-09-27T02:23:36+00:00	2020-09-26T19:23:36-07:00	2020-09-27T02:51:37+00:00	2020-09-30T06:59:59+00:00	-3	8m29gcy22plmd3x@marketplace.amazon.com	Kimberly Bailey	+1 602-671-6610 ext. 50674	ABR0022	Delivery by Wednesday | Arabella Farm Direct Bouquet of 12 Fresh Cut Pink Roses with a Free Glass Vase	1	0	1	Expedited	Barb Spanjer	509 SPRING CANYON CT			FORT COLLINS	CO	80525-3269	US		So glad to see you are home and on the road to recovery.  Continuing to pray for your health and happiness.  Many hugs! From Kimberly Bailey	false		
113-7570928-4121063	23761500363666	2020-09-27T02:30:50+00:00	2020-09-26T19:30:50-07:00	2020-09-27T03:01:16+00:00	2020-09-30T06:59:59+00:00	-3	bsgnn6xsm868207@marketplace.amazon.com	Alexia Clifton	+1 480-618-5344 ext. 77845	ABM031	Delivery by Wednesday | The Harvest Moon Bouquet by Arabella Bouquets	1	0	1	Expedited	Alexia Clifton	3909 N EDGEWOOD DR			JANESVILLE	WI	53545-9068	US			false		
114-5638694-1064242	04430627210250	2020-09-27T03:27:08+00:00	2020-09-26T20:27:08-07:00	2020-09-27T03:57:38+00:00	2020-09-30T06:59:59+00:00	-3	9sqcvp3wf6c1d1r@marketplace.amazon.com	julie dock	+1 480-618-5344 ext. 51314	ABR0033	Delivery by Wednesday | Arabella Farm Direct Bouquet of 12 Fresh Cut Orange Roses with a Free Glass Vase	1	0	1	Expedited	Mom and Dad  Gordon	7332 LINDENMERE DR			BLOOMFIELD HILLS	MI	48301-3531	US			false		
111-4452424-3041861	50772415107530	2020-09-27T04:14:29+00:00	2020-09-26T21:14:29-07:00	2020-09-27T04:43:31+00:00	2020-09-30T06:59:59+00:00	-3	d015p3t05fsym9v@marketplace.amazon.com	suhjung kang	+1 602-671-6610 ext. 43208	ABR012	Delivery by Wednesday | Arabella Farm Direct Bouquet of 18 Fresh Cut Pink Roses with a Free Glass Vase	1	0	1	Standard	Lee, Che-Young	8383 EL MUNDO ST APT 123			HOUSTON	TX	77054-4664	US			false		
113-1094310-4220231	11885780673666	2020-09-27T04:14:54+00:00	2020-09-26T21:14:54-07:00	2020-09-27T04:45:21+00:00	2020-09-30T06:59:59+00:00	-3	wqgrp2m443fc1wg@marketplace.amazon.com	thuong bui	+1 602-671-6610 ext. 22542	ABM0044	Delivery by Wednesday | Arabella Farm Direct Bouquet of Fresh Cut Blue Hydrangea with a Free Glass Vase	1	0	1	Expedited	thuong bui	23 CLINTON ST APT 2A			NEW YORK	NY	10002-1715	US			false		
111-6065676-7837057	47493712339274	2020-09-27T02:19:13+00:00	2020-09-26T19:19:13-07:00	2020-09-27T05:08:44+00:00	2020-09-30T06:59:59+00:00	-3	nh1sywtg41zjk8r@marketplace.amazon.com	Decolia Rogers	+1 929-436-4790 ext. 10359	ABR0022	Delivery by Wednesday | Arabella Farm Direct Bouquet of 12 Fresh Cut Pink Roses with a Free Glass Vase	1	0	1	Expedited	Venessa Griffin	735 E FIFTH ST			YAZOO CITY	MS	39194-3720	US		Happy Birthday from Dallas and Decolia From Decolia Rogers	false		
114-1759718-0997817	36214589841298	2020-09-27T05:16:32+00:00	2020-09-26T22:16:32-07:00	2020-09-27T05:47:04+00:00	2020-09-30T06:59:59+00:00	-3	p0y6x4cgx3ymjm1@marketplace.amazon.com	Becky byrne	+1 602-671-6610 ext. 27868	ABR0055	Delivery by Wednesday | Arabella Farm Direct Bouquet of 12 Stems of Fresh Cut Hot Pink Roses in a Free Designer Glass Vase	1	0	1	Expedited	Amber Bryant	3942 ASHMORE DR			COLUMBUS	GA	31909-3810	US			false		
114-4764144-8702616	64675724790578	2020-09-27T06:39:16+00:00	2020-09-26T23:39:16-07:00	2020-09-27T07:07:28+00:00	2020-09-30T06:59:59+00:00	-3	vt4hsjjnbkrpnlj@marketplace.amazon.com	Bong-Bong Flores	+1 929-436-4790 ext. 33835	ABM010	Delivery by Wednesday | The Spring Fling Bouquet by Arabella Bouquets with a Free Designer Glass Vase	1	0	1	Expedited	Josie Vanderhoof	7923 RAINIER AVE S			SEATTLE	WA	98118-4444	US		Happy Birthday, Mommy Josie! Enjoy your day. God Bless. Stay young and pretty! From Jupiter and Bong	false		
112-7434236-6307415	62257386049698	2020-09-27T06:45:44+00:00	2020-09-26T23:45:44-07:00	2020-09-27T07:12:03+00:00	2020-09-30T06:59:59+00:00	-3	4kfftsxm739wdtw@marketplace.amazon.com	aaron moore	+1 480-618-5344 ext. 62618	ABR0055	Delivery by Wednesday | Arabella Farm Direct Bouquet of 12 Stems of Fresh Cut Hot Pink Roses in a Free Designer Glass Vase	1	0	1	Expedited	Heather Snelling	17820 151ST WAY NE			WOODINVILLE	WA	98072-6209	US		Happy birthday! Enjoy your day. We love you! From Aaron & Mariko	false		
113-7484643-6671418	04777214435842	2020-09-27T07:41:57+00:00	2020-09-27T00:41:57-07:00	2020-09-27T08:06:15+00:00	2020-09-30T06:59:59+00:00	-3	jh4n42nxtvpnhqm@marketplace.amazon.com	Ernesto	+1 602-671-6610 ext. 00395	ABM024	Delivery by Wednesday | The Beauty of Color Bouquet by Arabella Bouquets	1	0	1	Expedited	Noel Burgoa	19 PATRIOT DR			EAST HAMPSTEAD	NH	03826-8208	US			false		
111-6849384-7349001	56776273319490	2020-09-26T22:48:38+00:00	2020-09-26T15:48:38-07:00	2020-09-27T08:52:08+00:00	2020-09-30T06:59:59+00:00	-3	9g2n8g0p6xkfd55@marketplace.amazon.com	james gort	+1 602-671-6610 ext. 15137	ABR0022	Delivery by Wednesday | Arabella Farm Direct Bouquet of 12 Fresh Cut Pink Roses with a Free Glass Vase	1	0	1	Expedited	ADAM STEVEN WAYNE	RT T 801 elston acres e2 Jefferson City, MO			JEFFERSON	MISSOURI	65109	US		From ERONITA JESSICA COSTS	false		
