order-id	order-item-id	purchase-date	payments-date	reporting-date	promise-date	days-past-promise	buyer-email	buyer-name	buyer-phone-number	sku	product-name	quantity-purchased	quantity-shipped	quantity-to-ship	ship-service-level	recipient-name	ship-address-1	ship-address-2	ship-address-3	ship-city	ship-state	ship-postal-code	ship-country	gift-wrap-type	gift-message-text	is-business-order	purchase-order-number	price-designation
114-2449076-6667444	52113050707978	2020-09-26T10:49:40+00:00	2020-09-26T03:49:40-07:00	2020-09-26T11:11:30+00:00	2020-09-30T06:59:59+00:00	-3	ynjxddr9x0sjs70@marketplace.amazon.com	Andrea	+1 602-671-6610 ext. 89920	ABR001	Arabella Bouquets 12 Stems of Fresh Cut Red Roses in a Free Designer Glass Vase	1	0	1	Expedited	Rosemary Walker	351 W 100 S			OREM	UT	84058-5493	US		Roses for my Rosy!  I love You, buon compleanno From Andrea	false		
114-8719113-0305816	25742886672258	2020-09-26T10:55:39+00:00	2020-09-26T03:55:39-07:00	2020-09-26T11:22:57+00:00	2020-09-30T06:59:59+00:00	-3	cjvsrtz0dgnhlj2@marketplace.amazon.com	Hariharan R. Narayanan	+1 415-851-9136 ext. 12043	ABR0066	Delivery by Wednesday | Arabella Bouquets 12 Stems of Fresh Cut White Roses in a Free Designer Glass Vase	1	0	1	Expedited	Alyssa Russo	2827 FRONTIER TRL			CHAMBLEE	GA	30341-5206	US			false		
114-4142205-0181030	34438713744506	2020-09-26T11:51:50+00:00	2020-09-26T04:51:50-07:00	2020-09-26T12:22:03+00:00	2020-09-30T06:59:59+00:00	-3	z56hyp69dn5f0s3@marketplace.amazon.com	RENXIAN XU	+1 929-436-4790 ext. 92427	ABR0022	Delivery by Wednesday | Arabella Farm Direct Bouquet of 12 Fresh Cut Pink Roses with a Free Glass Vase	1	0	1	Expedited	Xinyi Jiang	2300 IRON POINT RD NO 1623			FOLSOM	CA	95630-8489	US			false		
111-5664290-8572232	05741529085026	2020-09-26T12:07:33+00:00	2020-09-26T05:07:33-07:00	2020-09-26T12:37:40+00:00	2020-09-30T06:59:59+00:00	-3	0y3hx5g4fnkm15h@marketplace.amazon.com	Beth	+1 602-671-6610 ext. 13162	ABR0022	Delivery by Wednesday | Arabella Farm Direct Bouquet of 12 Fresh Cut Pink Roses with a Free Glass Vase	1	0	1	Expedited	Jodi Jagodzinski	4820 MAJESTIC PASS			LOVES PARK	IL	61111-7601	US		Jodi, we are thinking of you with love From Norman and Beth	false		
111-4234392-0631407	11208594197434	2020-09-26T12:22:43+00:00	2020-09-26T05:22:43-07:00	2020-09-26T12:45:28+00:00	2020-09-30T06:59:59+00:00	-3	lc0kg913y1tqzrj@marketplace.amazon.com	joe	+1 602-671-6610 ext. 78359	ABR0022	Delivery by Wednesday | Arabella Farm Direct Bouquet of 12 Fresh Cut Pink Roses with a Free Glass Vase	1	0	1	Expedited	Ciara Bailey	8777 KINZIE JOS WAY			MANHATTAN	KS	66502-8922	US		Happy Birthday my love I hope you have a great day From Joe	false		
113-9451657-7190664	18270514253514	2020-09-26T12:37:53+00:00	2020-09-26T05:37:53-07:00	2020-09-26T13:07:05+00:00	2020-09-30T06:59:59+00:00	-3	qr3p4q9g80zkbjc@marketplace.amazon.com	Ugne Pakalnickaite	+1 480-618-5344 ext. 46215	ABR0022	Delivery by Wednesday | Arabella Farm Direct Bouquet of 12 Fresh Cut Pink Roses with a Free Glass Vase	1	0	1	Expedited	Mrs Nijole Zauka	100 ROCHAMBEAU AVE 1			PROVIDENCE	RI	02906-1908	US			false		
114-9600346-4680268	48478858154306	2020-09-26T13:10:46+00:00	2020-09-26T06:10:46-07:00	2020-09-26T13:39:14+00:00	2020-09-30T06:59:59+00:00	-3	v5l8h7prpbmk6yz@marketplace.amazon.com	RoseAnn R Gerson	+1 929-436-4790 ext. 36505	ABR0022	Delivery by Wednesday | Arabella Farm Direct Bouquet of 12 Fresh Cut Pink Roses with a Free Glass Vase	1	0	1	Expedited	MARCIA Reiber	3705 PALMA CEIA CT			TAMPA	FL	33629-5123	US		Happpppppy birthday!! From Rosie and Steve	false		
113-5826767-9804201	30446117941218	2020-09-26T13:17:52+00:00	2020-09-26T06:17:52-07:00	2020-09-26T13:48:21+00:00	2020-09-30T06:59:59+00:00	-3	rpznvrsgd8wf5bd@marketplace.amazon.com	Jeffrey Ingram	+1 480-618-5344 ext. 24515	ABB001	Arabella Farm Direct Fresh Cut White Hydrangea	1	0	1	Expedited	Jeffrey D Ingram	2266 3600 AVE			JUNCTION CITY	KS	66441-8725	US			false		
113-9343003-2637854	22393763562050	2020-09-26T13:29:41+00:00	2020-09-26T06:29:41-07:00	2020-09-26T13:54:33+00:00	2020-09-30T06:59:59+00:00	-3	6fjq6jy8x55ycy7@marketplace.amazon.com	equienterprises	+1 929-436-4790 ext. 98606	ABR0022	Delivery by Wednesday | Arabella Farm Direct Bouquet of 12 Fresh Cut Pink Roses with a Free Glass Vase	1	0	1	Expedited	Sandra Hamilton	12 HACKLEYS MILL RD			AMISSVILLE	VA	20106-4122	US		Happy Birthday Mom!!!!! I hope you enjoy 💖 With love, Sara and family From Sara	false		
114-3565751-9642667	07438373182162	2020-09-26T13:35:19+00:00	2020-09-26T06:35:19-07:00	2020-09-26T14:02:23+00:00	2020-09-30T06:59:59+00:00	-3	ny50f93lm79pdg4@marketplace.amazon.com	Daniel J McKelvey	+1 480-618-5344 ext. 27476	ABM010	Delivery by Wednesday | The Spring Fling Bouquet by Arabella Bouquets with a Free Designer Glass Vase	1	0	1	Expedited	Cathy Garten and family	41 MARBERN LN			NAUGATUCK	CT	06770-1613	US		Dear Cathy, Brian, Tricia and Lisa, Sending you many hugs during this difficult and sad time. Love you lots, From Cousins Dan and Marie	false		
112-3986164-3011454	08471194133746	2020-09-26T14:07:01+00:00	2020-09-26T07:07:01-07:00	2020-09-26T14:07:58+00:00	2020-09-30T06:59:59+00:00	-3	f9fr4plmw42fgjx@marketplace.amazon.com	Dana Smith	+1 602-671-6610 ext. 48317	ABR0022	Delivery by Wednesday | Arabella Farm Direct Bouquet of 12 Fresh Cut Pink Roses with a Free Glass Vase	1	0	1	Expedited	Marjorie Daysal	2590 TRAYWICK CHASE			ALPHARETTA	GA	30004-4244	US		With all our love, Dana and Derek From Dana Smith	false		
112-7403640-2277812	53435587174442	2020-09-26T14:14:55+00:00	2020-09-26T07:14:55-07:00	2020-09-26T14:32:05+00:00	2020-09-30T06:59:59+00:00	-3	y3hh0fcjf8kl81n@marketplace.amazon.com	Janet Ackerman	+1 929-436-4790 ext. 51795	ABR0022	Delivery by Wednesday | Arabella Farm Direct Bouquet of 12 Fresh Cut Pink Roses with a Free Glass Vase	1	0	1	Expedited	Ms Gaby Miller	78 MACARTHUR RD			NATICK	MA	01760-2938	US		Dear Gaby, We love you. Enjoy your special day! Mazel tov! From Aunt Janet & Uncle Mark	false		
114-1714934-3140262	42810763480194	2020-09-26T14:29:22+00:00	2020-09-26T07:29:22-07:00	2020-09-26T14:37:28+00:00	2020-09-30T06:59:59+00:00	-3	my96cynsjdmqd7p@marketplace.amazon.com	david cooper	+1 929-436-4790 ext. 88263	ABM022	Delivery by Wednesday | Purple Extravagance Bouquet by Arabella Bouquets	1	0	1	Expedited	Cheryl Murray	APARTMENT - SECOND FLOOR	412 MUNRO AVE		MAMARONECK	NY	10543-3440	US		We are so sorry for your loss. From Cathi and David Cooper	false		
114-2844434-3329846	48407723837106	2020-09-26T15:02:43+00:00	2020-09-26T08:02:43-07:00	2020-09-26T15:31:59+00:00	2020-09-30T06:59:59+00:00	-3	0zb9mbczr1lrck5@marketplace.amazon.com	Sandra Kenworthy	+1 602-671-6610 ext. 45175	ABR0055	Delivery by Wednesday | Arabella Farm Direct Bouquet of 12 Stems of Fresh Cut Hot Pink Roses in a Free Designer Glass Vase	1	0	1	Expedited	Vannesa Vega	6325 N 13TH PL			PHOENIX	AZ	85014-1424	US		Amiga!!! Te deseo una pronta mejoría. Recuerda que te quiero mucho Sandra K From Sandra Kenworthy	false		
113-5742914-4827451	29858460840626	2020-09-26T15:09:50+00:00	2020-09-26T08:09:50-07:00	2020-09-26T15:38:53+00:00	2020-09-30T06:59:59+00:00	-3	cs6s35fs5z3qj6n@marketplace.amazon.com	Vonelle Clark	+1 480-618-5344 ext. 84665	ABR012	Delivery by Wednesday | Arabella Farm Direct Bouquet of 18 Fresh Cut Pink Roses with a Free Glass Vase	1	0	1	Expedited	Esther Turner	102 MRAZ ST			YOAKUM	TX	77995-4239	US		Happy Birthday!  Love you ❤️ From Vonelle Clark	false		
114-6447260-9788253	14868031500986	2020-09-26T15:29:28+00:00	2020-09-26T08:29:28-07:00	2020-09-26T15:55:13+00:00	2020-09-30T06:59:59+00:00	-3	174fttwlxrgqqq3@marketplace.amazon.com	Tim Chuter	+1 480-618-5344 ext. 08523	ABM010	Delivery by Wednesday | The Spring Fling Bouquet by Arabella Bouquets with a Free Designer Glass Vase	1	0	1	Expedited	Theresa Hiramoto	5 FAYENCE			NEWPORT COAST	CA	92657-0118	US		Happy Birthday Theresa! Have an awesome day! Love, Mom, Tim, Jade, and Carolyn From Mom, Tim, Jade, and Carolyn	false		
113-3348449-7560261	01734656325434	2020-09-26T15:34:48+00:00	2020-09-26T08:34:48-07:00	2020-09-26T16:07:42+00:00	2020-09-30T06:59:59+00:00	-3	4cp2lppxvbsxzz4@marketplace.amazon.com	Leica M Anzaldo	+1 929-436-4790 ext. 66403	ABM020	Delivery by Wednesday | Summer Sunset Bouquet by Arabella Bouquets	1	0	1	Expedited	Francine Anzaldo	33 BIRCH LN			PILESGROVE	NJ	08098-2419	US		Happy Birthday Mom. We love you. From Dave, Leica, Jackson & Gavin	false		
112-7281781-8828248	62382582552610	2020-09-26T16:36:48+00:00	2020-09-26T09:36:48-07:00	2020-09-26T16:48:53+00:00	2020-09-30T06:59:59+00:00	-3	590fyw7h6njysx7@marketplace.amazon.com	brorien	+1 602-671-6610 ext. 04986	ABR001	Delivery by Wednesday | Arabella Bouquets 12 Stems of Fresh Cut Red Roses in a Free Designer Glass Vase	1	0	1	Standard	Travis	2901 S MANSION DR APT 302	INDEPENDENCE MISSOURI		INDEPENDENCE	MO	64055-7547	US		Enjoy your gift! From Travis	false		
111-4775109-1793033	21103931398434	2020-09-26T16:27:01+00:00	2020-09-26T09:27:01-07:00	2020-09-26T16:55:11+00:00	2020-09-30T06:59:59+00:00	-3	hj301ny37dgmdnk@marketplace.amazon.com	JD Landers	+1 480-618-5344 ext. 55386	ABR0033	Delivery by Wednesday | Arabella Farm Direct Bouquet of 12 Fresh Cut Orange Roses with a Free Glass Vase	1	0	1	Expedited	Laura Lynn - Future Mrs!	426 VAIL CIR			OKLAHOMA CITY	OK	73114-7652	US		We are so happy for you and JC! Congratulations! Hope to see you in a few weeks for your birthday- double celebration!!  Love you! From Amanda, JD, and Merrick	false		
113-8023322-3207448	20449774451682	2020-09-26T16:39:06+00:00	2020-09-26T09:39:06-07:00	2020-09-26T17:05:25+00:00	2020-09-30T06:59:59+00:00	-3	k8lb9b2zbmnvf3l@marketplace.amazon.com	Linda F Dunn	+1 929-436-4790 ext. 43015	ABM022	Delivery by Wednesday | Purple Extravagance Bouquet by Arabella Bouquets	1	0	1	Expedited	Karen Degen	1712 SW 22ND CT			BATTLE GROUND	WA	98604-3134	US		Thinking of you and keeping you close in our prayers. From Linda F Dunn	false		
114-7149694-9408242	63898994980266	2020-09-26T16:43:11+00:00	2020-09-26T09:43:11-07:00	2020-09-26T17:07:58+00:00	2020-09-30T06:59:59+00:00	-3	bxkn0pf65lt8xml@marketplace.amazon.com	angela	+1 929-436-4790 ext. 36096	ABR0022	Delivery by Wednesday | Arabella Farm Direct Bouquet of 12 Fresh Cut Pink Roses with a Free Glass Vase	1	0	1	Expedited	Lisa Repoert	6051 TIMBERKNOLL DR			MACUNGIE	PA	18062-8882	US		Lisa,   We are thinking of you in this difficult time.   With love,  Stephanie & Jerry Ficco Angela & Michael Sultan From Angie Sultan	false		
113-7777479-6486650	21717798355698	2020-09-26T16:40:47+00:00	2020-09-26T09:40:47-07:00	2020-09-26T17:10:39+00:00	2020-09-30T06:59:59+00:00	-3	rxzqqvvcqq8lmwq@marketplace.amazon.com	Mister Hockey	+1 602-671-6610 ext. 64573	ABR0022	Delivery by Wednesday | Arabella Farm Direct Bouquet of 12 Fresh Cut Pink Roses with a Free Glass Vase	1	0	1	Expedited	Bonnie Marie	833 E LAUREL AVE			GLENDORA	CA	91741-2806	US			false		
112-7650835-1645016	10037617685594	2020-09-26T17:09:20+00:00	2020-09-26T10:09:20-07:00	2020-09-26T17:18:03+00:00	2020-09-30T06:59:59+00:00	-3	590fyw7h6njysx7@marketplace.amazon.com	brorien	+1 602-671-6610 ext. 10637	ABR001	Delivery by Wednesday | Arabella Bouquets 12 Stems of Fresh Cut Red Roses in a Free Designer Glass Vase	1	0	1	Expedited	William Anderson	BUILDING 218 LENOX ST	UNIONTOWN PENNSYLVANIA 15401		UNIONTOWN	PA	15401-3081	US		I love you so much From William Anderson	false		
114-7866855-9247431	22646724586786	2020-09-26T16:49:39+00:00	2020-09-26T09:49:39-07:00	2020-09-26T17:18:04+00:00	2020-09-30T06:59:59+00:00	-3	bxkn0pf65lt8xml@marketplace.amazon.com	angela	+1 602-671-6610 ext. 86989	ABR0022	Delivery by Wednesday | Arabella Farm Direct Bouquet of 12 Fresh Cut Pink Roses with a Free Glass Vase	1	0	1	Expedited	Nikki Mendez	1221 MAUMEE AVE			ALLENTOWN	PA	18103-4227	US		Nikki, We are thinking of you and your family in this difficult time. We love you and loved your mom.   Angela & Michael Sultan Stephanie & Jerry Ficco From angela	false		
113-7552644-4780244	19569219279610	2020-09-26T16:54:39+00:00	2020-09-26T09:54:39-07:00	2020-09-26T17:22:35+00:00	2020-09-30T06:59:59+00:00	-3	ndw1w74yfxr706t@marketplace.amazon.com	corie	+1 602-671-6610 ext. 01908	ABR004	Delivery by Wednesday | Arabella Farm Direct Bouquet of 12 Fresh Cut Yellow Roses with a Free Glass Vase	1	0	1	Expedited	Kim ruiz	6290 RALEIGH ST			RIVERSIDE	CA	92506-2061	US		Happy Birthday! Love you Corie, Shane, Sage, Dillon Hannah and doggies. From corie	false		
113-2188359-6343441	08190484586762	2020-09-26T16:57:47+00:00	2020-09-26T09:57:47-07:00	2020-09-26T17:26:16+00:00	2020-09-30T06:59:59+00:00	-3	6075l8rx1jl49s4@marketplace.amazon.com	George Januzzi	+1 602-671-6610 ext. 73654	ABR0022	Delivery by Wednesday | Arabella Farm Direct Bouquet of 12 Fresh Cut Pink Roses with a Free Glass Vase	1	0	1	Expedited	Michelle Sutton	84 Roosevelt Ave			Colonia	NJ	07067	US		Hello Michelle! Happy Birthday! Just a little something to brighten your day! Love you. Hugs and Kisses, Mom and George	false		
114-4883091-7821040	61259898104402	2020-09-26T17:09:18+00:00	2020-09-26T10:09:18-07:00	2020-09-26T17:38:23+00:00	2020-09-30T06:59:59+00:00	-3	lw10hvndl7f2ds1@marketplace.amazon.com	Barbara Heil	+1 480-618-5344 ext. 94262	ABR0033	Delivery by Wednesday | Arabella Farm Direct Bouquet of 12 Fresh Cut Orange Roses with a Free Glass Vase	1	0	1	Expedited	Barbara Jones	1421 SHENK AVE			ERIE	PA	16505-3140	US		Mom,  Hope you have a wonderful birthday From Love Barbie	false		
111-2636990-4260255	25292811397370	2020-09-26T17:31:11+00:00	2020-09-26T10:31:11-07:00	2020-09-26T17:59:20+00:00	2020-09-30T06:59:59+00:00	-3	zj2mnd0lnzhq6w2@marketplace.amazon.com	Jose Ridriguez	+1 929-436-4790 ext. 96881	ABR0055	Delivery by Wednesday | Arabella Farm Direct Bouquet of 12 Stems of Fresh Cut Hot Pink Roses in a Free Designer Glass Vase	1	0	1	Expedited	Mary Sonia Gonzalez	5920 N KRAMER CT			RIMROCK	AZ	86335-6229	US			false		
114-8626324-2927416	13325226202266	2020-09-26T17:39:54+00:00	2020-09-26T10:39:54-07:00	2020-09-26T18:08:02+00:00	2020-09-30T06:59:59+00:00	-3	s0pnjwnww3d49fv@marketplace.amazon.com	Rick johnson	+1 480-618-5344 ext. 95216	ABR0055	Delivery by Wednesday | Arabella Farm Direct Bouquet of 12 Stems of Fresh Cut Hot Pink Roses in a Free Designer Glass Vase	1	0	1	Expedited	Jeanne johnson	7110 SECOR PL			GIG HARBOR	WA	98335-5108	US		To a Beautiful Person. You deserve flowers everyday. But I can’t afford it. Ha. Love you everyday tho. From Rick johnson	false		
113-4777405-3569802	43381784395858	2020-09-26T18:31:38+00:00	2020-09-26T11:31:38-07:00	2020-09-26T18:59:39+00:00	2020-09-30T06:59:59+00:00	-3	f737t8w96swqz96@marketplace.amazon.com	Carol A. Hegranes	+1 602-671-6610 ext. 18307	ABR0022	Delivery by Wednesday | Arabella Farm Direct Bouquet of 12 Fresh Cut Pink Roses with a Free Glass Vase	1	0	1	Expedited	Cristi Hegranes	11112 MIDVALE RD			KENSINGTON	MD	20895-1907	US		Hi Cristi, Henry&Louise.    Welcome to your new Home! Love you all, Grandma Carol and Grandpa Billy	false		
111-4550166-1638617	69575320407034	2020-09-26T18:42:21+00:00	2020-09-26T11:42:21-07:00	2020-09-26T19:08:04+00:00	2020-09-30T06:59:59+00:00	-3	qzzdzm7tzf6kcrk@marketplace.amazon.com	Patricia A. Parkinson	+1 602-671-6610 ext. 05020	ABR0055	Delivery by Wednesday | Arabella Farm Direct Bouquet of 12 Stems of Fresh Cut Hot Pink Roses in a Free Designer Glass Vase	1	0	1	Expedited	Kathryn Parkinson	804 CARLETON AVE			CARUTHERSVILLE	MO	63830-1839	US			false		
113-3871321-2900265	08136144380098	2020-09-26T19:08:49+00:00	2020-09-26T12:08:49-07:00	2020-09-26T19:36:09+00:00	2020-09-30T06:59:59+00:00	-3	mbgn1krwxgvy4x7@marketplace.amazon.com	Daisy Godfrey	646355994	ABR0022	Delivery by Wednesday | Arabella Farm Direct Bouquet of 12 Fresh Cut Pink Roses with a Free Glass Vase	1	0	1	Expedited	Natalie Martinez	140-26 Franklin Avenue  Apt. 1G			Flushing	New York	11355	US		Hope you are feeling better hope these roses brighten up your day!  Con Amor y Abrazos y Besos From Mommie	false		
112-9195555-3025048	44482211470090	2020-09-26T20:09:38+00:00	2020-09-26T13:09:38-07:00	2020-09-26T20:41:53+00:00	2020-09-30T06:59:59+00:00	-3	l6jgbhpfyhg8406@marketplace.amazon.com	Richard Wiley	+1 480-618-5344 ext. 74971	ABR0022	Delivery by Wednesday | Arabella Farm Direct Bouquet of 12 Fresh Cut Pink Roses with a Free Glass Vase	1	0	1	Expedited	Rich Wiley	13588 MILLPOND WAY			SAN DIEGO	CA	92129-2049	US		Hi, Happy birthday...love you😀 From Richard Wiley	false		
113-8011294-2266652	40001824245290	2020-09-26T20:15:01+00:00	2020-09-26T13:15:01-07:00	2020-09-26T20:45:02+00:00	2020-09-30T06:59:59+00:00	-3	01gx50cnlkd34t8@marketplace.amazon.com	ANNE M VARTERESIAN	+1 415-851-9136 ext. 66313	ABR001	Delivery by Wednesday | Arabella Bouquets 12 Stems of Fresh Cut Red Roses in a Free Designer Glass Vase	1	0	1	Expedited	Anne M Varteresian	10 WILSHIRE WAY			MARLBOROUGH	MA	01752-1257	US			false		
112-2862673-6128237	02534507806746	2020-09-26T20:51:41+00:00	2020-09-26T13:51:41-07:00	2020-09-26T21:18:56+00:00	2020-09-30T06:59:59+00:00	-3	mh2ykxnfzhmsv6g@marketplace.amazon.com	Angel Alvarado	+1 480-618-5344 ext. 07596	ABR012	Delivery by Wednesday | Arabella Farm Direct Bouquet of 18 Fresh Cut Pink Roses with a Free Glass Vase	1	0	1	Expedited	Angel Alvarado	9265 BYRD DR			MANASSAS	VA	20110-5918	US			false		
113-5431535-0934616	27985615218674	2020-09-26T20:59:19+00:00	2020-09-26T13:59:19-07:00	2020-09-26T21:29:12+00:00	2020-09-30T06:59:59+00:00	-3	dyh9trq42z797km@marketplace.amazon.com	Deborah O'Connor	+1 480-618-5344 ext. 69677	ABR0033	Delivery by Wednesday | Arabella Farm Direct Bouquet of 12 Fresh Cut Orange Roses with a Free Glass Vase	1	0	1	Expedited	Gina Cruz	1142 E 88TH PL			LOS ANGELES	CA	90002-1139	US		HAPPY Birthday love you From Deborah O'Connor	false		
111-1694057-2713060	33704014893682	2020-09-26T21:51:53+00:00	2020-09-26T14:51:53-07:00	2020-09-26T22:22:10+00:00	2020-09-30T06:59:59+00:00	-3	p3q61f3r1lj38lx@marketplace.amazon.com	Aron Murnane	+1 929-436-4790 ext. 56164	ABR0022	Delivery by Wednesday | Arabella Farm Direct Bouquet of 12 Fresh Cut Pink Roses with a Free Glass Vase	1	0	1	Expedited	Aron Murnane	6203 N 152nd St			OMAHA	NE	68116-4444	US			false		
114-7923017-5811446	55599100536882	2020-09-26T22:01:09+00:00	2020-09-26T15:01:09-07:00	2020-09-26T22:29:43+00:00	2020-09-30T06:59:59+00:00	-3	tpd1tn379z48llw@marketplace.amazon.com	GINA M KNAPP	+1 929-436-4790 ext. 42440	ABR0022	Delivery by Wednesday | Arabella Farm Direct Bouquet of 12 Fresh Cut Pink Roses with a Free Glass Vase	1	0	1	Expedited	Lorraine Ortiz	5 ORCHARD LN			OLD TAPPAN	NJ	07675-7445	US		Happy birthday! We love you!! From Gina, Bill, Gavin, Daniella	false		
112-1416948-2881828	49077295885146	2020-09-26T22:20:11+00:00	2020-09-26T15:20:11-07:00	2020-09-26T22:48:23+00:00	2020-09-30T06:59:59+00:00	-3	6pv5ywkpqqy0h1j@marketplace.amazon.com	Gregory C. Van Pelt	+1 415-851-9136 ext. 21060	ABM010	Delivery by Wednesday | The Spring Fling Bouquet by Arabella Bouquets with a Free Designer Glass Vase	1	0	1	Expedited	Judith Sernyak	3 BURKE AVE			CONSHOHOCKEN	PA	19428-1307	US		Hope this helps brighten your day. Love you, Joan From Gregory C. Van Pelt	false		
114-3390381-9050623	32223590552042	2020-09-26T23:26:54+00:00	2020-09-26T16:26:54-07:00	2020-09-26T23:47:56+00:00	2020-09-30T06:59:59+00:00	-3	nb3wx4t7l823dwq@marketplace.amazon.com	Daniel Pijeira	+1 480-618-5344 ext. 48888	ABR0022	Delivery by Wednesday | Arabella Farm Direct Bouquet of 12 Fresh Cut Pink Roses with a Free Glass Vase	1	0	1	Expedited	Gudelia Moreira	8060 SW 132ND CT			MIAMI	FL	33183-4128	US		!Feliz Cumpleaño Abuelita! Te quiero muchisimo y espero a ver té bien pronto. Gena y yo té mandámos mucho cariño, y queremos que pases el día relajando.  Con mucho amór, Danny y Gena From Daniel Pijeira	false		
112-6922389-8377848	02009772371978	2020-09-26T23:58:21+00:00	2020-09-26T16:58:21-07:00	2020-09-27T00:28:34+00:00	2020-09-30T06:59:59+00:00	-3	ct2my0hwt9xzb3n@marketplace.amazon.com	Greg Landry	+1 602-671-6610 ext. 11821	ABM006	Arabella Bouquets Fresh Cut Yellow Lillies in a Free Designer Glass Vase	1	0	1	Expedited	Gerry Landry	AMBER TERRACE 8585 SUMMA AVE	APT 117		BATON ROUGE	LA	70809-0611	US			false		
113-1758568-1636205	27338849119906	2020-09-27T00:38:48+00:00	2020-09-26T17:38:48-07:00	2020-09-27T01:08:54+00:00	2020-09-30T06:59:59+00:00	-3	rlf9rz65nj2vd49@marketplace.amazon.com	Lin Merage	+1 480-618-5344 ext. 31265	ABM022	Delivery by Wednesday | Purple Extravagance Bouquet by Arabella Bouquets	1	0	1	Expedited	Lin Merage	4880 S FAIRFAX ST			CHERRY HILLS VILLAGE	CO	80121-2016	US			false		
113-1495475-8983407	04119974958034	2020-09-27T00:48:37+00:00	2020-09-26T17:48:37-07:00	2020-09-27T01:19:17+00:00	2020-09-30T06:59:59+00:00	-3	y7n4d3hl7km1zp9@marketplace.amazon.com	Jenna	+1 480-618-5344 ext. 37450	ABR0022	Delivery by Wednesday | Arabella Farm Direct Bouquet of 12 Fresh Cut Pink Roses with a Free Glass Vase	1	0	1	Expedited	Jared	217 EXETER RD			LEBANON	CT	06249-1358	US			false		
113-7042983-1907406	07041910284578	2020-09-27T01:16:09+00:00	2020-09-26T18:16:09-07:00	2020-09-27T01:44:23+00:00	2020-09-30T06:59:59+00:00	-3	dkbjp9dj5r5077f@marketplace.amazon.com	Trent	+1 929-436-4790 ext. 88457	ABR0033	Delivery by Wednesday | Arabella Farm Direct Bouquet of 12 Fresh Cut Orange Roses with a Free Glass Vase	1	0	1	Expedited	Sharon Oeste	340 CHRISTIE AVE			HAWORTH	NJ	07641-1823	US		Sharon, Happy Birthday!!  I hope you have a wonderful day.  Enjoy!! Lisa Eastman	false		
113-8645317-6884233	33265157877170	2020-09-27T01:34:03+00:00	2020-09-26T18:34:03-07:00	2020-09-27T02:02:56+00:00	2020-09-30T06:59:59+00:00	-3	bh63mzhy1b3xd2h@marketplace.amazon.com	Naomi A. Sharpe	+1 415-851-9136 ext. 73963	ABR0022	Delivery by Wednesday | Arabella Farm Direct Bouquet of 12 Fresh Cut Pink Roses with a Free Glass Vase	1	0	1	Expedited	Joshua and Tiana Sharpe	222 SW WACAHOOTA RD			MICANOPY	FL	32667-5218	US		Happy 5th Anniversary Josh and Tiana. We love you both. Tim, Naomi, Hannah, Leah ❤️ From Naomi A. Sharpe	false		
113-1563013-5981015	08024390643866	2020-09-26T16:17:00+00:00	2020-09-26T09:17:00-07:00	2020-09-27T02:20:34+00:00	2020-09-30T06:59:59+00:00	-3	sr1wgfrjdbt6hdv@marketplace.amazon.com	Jim Walter	+1 480-618-5344 ext. 12975	ABR001	Delivery by Wednesday | Arabella Bouquets 12 Stems of Fresh Cut Red Roses in a Free Designer Glass Vase	1	0	1	Expedited	Jim to Laurie	HOUSE 1236 MADISON AVE			PAINESVILLE	OH	44077-5274	US			false		
112-2187921-1079411	09400392651338	2020-09-27T02:03:28+00:00	2020-09-26T19:03:28-07:00	2020-09-27T02:25:28+00:00	2020-09-30T06:59:59+00:00	-3	v5ct5r023pfb01c@marketplace.amazon.com	Raghuram Kuchibhatla	+1 929-436-4790 ext. 64432	ABR0022	Delivery by Wednesday | Arabella Farm Direct Bouquet of 12 Fresh Cut Pink Roses with a Free Glass Vase	1	0	1	Expedited	Natasha Krishnani	4 LEDDY LN			PLEASANTVILLE	NY	10570-3512	US		Happy Anniversary Niraj and Natasha! Enjoy your day and many more to come. Kuchibhatlas	false		
114-4599170-0613838	27259050099242	2020-09-27T02:08:53+00:00	2020-09-26T19:08:53-07:00	2020-09-27T02:37:27+00:00	2020-09-30T06:59:59+00:00	-3	ppyq1g3lw17nmck@marketplace.amazon.com	Rosa Franklin McGuire	+1 929-436-4790 ext. 84562	ABR0055	Delivery by Wednesday | Arabella Farm Direct Bouquet of 12 Stems of Fresh Cut Hot Pink Roses in a Free Designer Glass Vase	1	0	1	Expedited	Yvonne Risueno	221 W THOMAS AVE			FRESNO	CA	93728-3065	US		Congratulations to you on your delivery of the beautiful Khaleesi. Good job, Mama. From Rosa Franklin McGuire	false		
114-4270515-7373869	51523653453146	2020-09-27T02:23:36+00:00	2020-09-26T19:23:36-07:00	2020-09-27T02:51:37+00:00	2020-09-30T06:59:59+00:00	-3	8m29gcy22plmd3x@marketplace.amazon.com	Kimberly Bailey	+1 602-671-6610 ext. 50674	ABR0022	Delivery by Wednesday | Arabella Farm Direct Bouquet of 12 Fresh Cut Pink Roses with a Free Glass Vase	1	0	1	Expedited	Barb Spanjer	509 SPRING CANYON CT			FORT COLLINS	CO	80525-3269	US		So glad to see you are home and on the road to recovery.  Continuing to pray for your health and happiness.  Many hugs! From Kimberly Bailey	false		
113-7570928-4121063	23761500363666	2020-09-27T02:30:50+00:00	2020-09-26T19:30:50-07:00	2020-09-27T03:01:16+00:00	2020-09-30T06:59:59+00:00	-3	bsgnn6xsm868207@marketplace.amazon.com	Alexia Clifton	+1 480-618-5344 ext. 77845	ABM031	Delivery by Wednesday | The Harvest Moon Bouquet by Arabella Bouquets	1	0	1	Expedited	Alexia Clifton	3909 N EDGEWOOD DR			JANESVILLE	WI	53545-9068	US			false		
114-5638694-1064242	04430627210250	2020-09-27T03:27:08+00:00	2020-09-26T20:27:08-07:00	2020-09-27T03:57:38+00:00	2020-09-30T06:59:59+00:00	-3	9sqcvp3wf6c1d1r@marketplace.amazon.com	julie dock	+1 480-618-5344 ext. 51314	ABR0033	Delivery by Wednesday | Arabella Farm Direct Bouquet of 12 Fresh Cut Orange Roses with a Free Glass Vase	1	0	1	Expedited	Mom and Dad  Gordon	7332 LINDENMERE DR			BLOOMFIELD HILLS	MI	48301-3531	US			false		
111-4452424-3041861	50772415107530	2020-09-27T04:14:29+00:00	2020-09-26T21:14:29-07:00	2020-09-27T04:43:31+00:00	2020-09-30T06:59:59+00:00	-3	d015p3t05fsym9v@marketplace.amazon.com	suhjung kang	+1 602-671-6610 ext. 43208	ABR012	Delivery by Wednesday | Arabella Farm Direct Bouquet of 18 Fresh Cut Pink Roses with a Free Glass Vase	1	0	1	Standard	Lee, Che-Young	8383 EL MUNDO ST APT 123			HOUSTON	TX	77054-4664	US			false		
113-1094310-4220231	11885780673666	2020-09-27T04:14:54+00:00	2020-09-26T21:14:54-07:00	2020-09-27T04:45:21+00:00	2020-09-30T06:59:59+00:00	-3	wqgrp2m443fc1wg@marketplace.amazon.com	thuong bui	+1 602-671-6610 ext. 22542	ABM0044	Delivery by Wednesday | Arabella Farm Direct Bouquet of Fresh Cut Blue Hydrangea with a Free Glass Vase	1	0	1	Expedited	thuong bui	23 CLINTON ST APT 2A			NEW YORK	NY	10002-1715	US			false		
111-6065676-7837057	47493712339274	2020-09-27T02:19:13+00:00	2020-09-26T19:19:13-07:00	2020-09-27T05:08:44+00:00	2020-09-30T06:59:59+00:00	-3	nh1sywtg41zjk8r@marketplace.amazon.com	Decolia Rogers	+1 929-436-4790 ext. 10359	ABR0022	Delivery by Wednesday | Arabella Farm Direct Bouquet of 12 Fresh Cut Pink Roses with a Free Glass Vase	1	0	1	Expedited	Venessa Griffin	735 E FIFTH ST			YAZOO CITY	MS	39194-3720	US		Happy Birthday from Dallas and Decolia From Decolia Rogers	false		
114-1759718-0997817	36214589841298	2020-09-27T05:16:32+00:00	2020-09-26T22:16:32-07:00	2020-09-27T05:47:04+00:00	2020-09-30T06:59:59+00:00	-3	p0y6x4cgx3ymjm1@marketplace.amazon.com	Becky byrne	+1 602-671-6610 ext. 27868	ABR0055	Delivery by Wednesday | Arabella Farm Direct Bouquet of 12 Stems of Fresh Cut Hot Pink Roses in a Free Designer Glass Vase	1	0	1	Expedited	Amber Bryant	3942 ASHMORE DR			COLUMBUS	GA	31909-3810	US			false		
114-4764144-8702616	64675724790578	2020-09-27T06:39:16+00:00	2020-09-26T23:39:16-07:00	2020-09-27T07:07:28+00:00	2020-09-30T06:59:59+00:00	-3	vt4hsjjnbkrpnlj@marketplace.amazon.com	Bong-Bong Flores	+1 929-436-4790 ext. 33835	ABM010	Delivery by Wednesday | The Spring Fling Bouquet by Arabella Bouquets with a Free Designer Glass Vase	1	0	1	Expedited	Josie Vanderhoof	7923 RAINIER AVE S			SEATTLE	WA	98118-4444	US		Happy Birthday, Mommy Josie! Enjoy your day. God Bless. Stay young and pretty! From Jupiter and Bong	false		
112-7434236-6307415	62257386049698	2020-09-27T06:45:44+00:00	2020-09-26T23:45:44-07:00	2020-09-27T07:12:03+00:00	2020-09-30T06:59:59+00:00	-3	4kfftsxm739wdtw@marketplace.amazon.com	aaron moore	+1 480-618-5344 ext. 62618	ABR0055	Delivery by Wednesday | Arabella Farm Direct Bouquet of 12 Stems of Fresh Cut Hot Pink Roses in a Free Designer Glass Vase	1	0	1	Expedited	Heather Snelling	17820 151ST WAY NE			WOODINVILLE	WA	98072-6209	US		Happy birthday! Enjoy your day. We love you! From Aaron & Mariko	false		
113-7484643-6671418	04777214435842	2020-09-27T07:41:57+00:00	2020-09-27T00:41:57-07:00	2020-09-27T08:06:15+00:00	2020-09-30T06:59:59+00:00	-3	jh4n42nxtvpnhqm@marketplace.amazon.com	Ernesto	+1 602-671-6610 ext. 00395	ABM024	Delivery by Wednesday | The Beauty of Color Bouquet by Arabella Bouquets	1	0	1	Expedited	Noel Burgoa	19 PATRIOT DR			EAST HAMPSTEAD	NH	03826-8208	US			false		
111-6849384-7349001	56776273319490	2020-09-26T22:48:38+00:00	2020-09-26T15:48:38-07:00	2020-09-27T08:52:08+00:00	2020-09-30T06:59:59+00:00	-3	9g2n8g0p6xkfd55@marketplace.amazon.com	james gort	+1 602-671-6610 ext. 15137	ABR0022	Delivery by Wednesday | Arabella Farm Direct Bouquet of 12 Fresh Cut Pink Roses with a Free Glass Vase	1	0	1	Expedited	ADAM STEVEN WAYNE	RT T 801 elston acres e2 Jefferson City, MO			JEFFERSON	MISSOURI	65109	US		From ERONITA JESSICA COSTS	false		
112-9031474-3451469	53357919535330	2020-09-27T11:15:07+00:00	2020-09-27T04:15:07-07:00	2020-09-27T11:44:07+00:00	2020-09-30T06:59:59+00:00	-3	fdn5vygb8vf2hqp@marketplace.amazon.com	C.Bollinger	+1 602-671-6610 ext. 02751	ABR001	Delivery by Wednesday | Arabella Bouquets 12 Stems of Fresh Cut Red Roses in a Free Designer Glass Vase	1	0	1	Expedited	Jill Travis	3502 S 335 E			SALT LAKE CITY	UT	84115-4636	US		Just because ... Love, Coleen From C.Bollinger	false		
113-7842149-7301801	39538797017986	2020-09-27T11:33:23+00:00	2020-09-27T04:33:23-07:00	2020-09-27T12:10:23+00:00	2020-09-30T06:59:59+00:00	-3	8kbvvnf8f18scyn@marketplace.amazon.com	yvette a hinton	+1 602-671-6610 ext. 58207	ABR0022	Delivery by Wednesday | Arabella Farm Direct Bouquet of 12 Fresh Cut Pink Roses with a Free Glass Vase	1	0	1	Expedited	Cecelia Scales	5924 9TH ST NW APT 106			WASHINGTON	DC	20011-1925	US		Happy Belated Birthday!!!  Love Yvette From yvette a hinton	false		
114-4037944-1881030	33861115474194	2020-09-26T17:27:13+00:00	2020-09-26T10:27:13-07:00	2020-09-27T12:55:58+00:00	2020-09-30T06:59:59+00:00	-3	bln04nk30dxb1fj@marketplace.amazon.com	michelle nastally	+1 480-618-5344 ext. 53103	ABR0033	Delivery by Wednesday | Arabella Farm Direct Bouquet of 12 Fresh Cut Orange Roses with a Free Glass Vase	1	0	1	Expedited	Shirley Johnson	201 S ARDMORE LN			JACKSON	MI	49201-9634	US		Mom..."HAPPY BIRTHDAY!"....We Love You...  Michelle, Ricky and the Gang From michelle nastally	false		
114-2628164-6945032	10261822995130	2020-09-27T12:34:50+00:00	2020-09-27T05:34:50-07:00	2020-09-27T13:04:45+00:00	2020-09-30T06:59:59+00:00	-3	sq34tmn4jj4z8nk@marketplace.amazon.com	Rene A Perez	+1 929-436-4790 ext. 18442	ABM010	Delivery by Wednesday | The Spring Fling Bouquet by Arabella Bouquets with a Free Designer Glass Vase	1	0	1	Expedited	Julie Palumbo	23270 TORONJA CORTE			CORONA	CA	92883-9365	US			false		
114-4771914-9474622	36420412391506	2020-09-27T13:02:07+00:00	2020-09-27T06:02:07-07:00	2020-09-27T13:28:41+00:00	2020-09-30T06:59:59+00:00	-3	1rxb9bsb89b9kr2@marketplace.amazon.com	Kent Burks	+1 480-618-5344 ext. 45617	ABR0022	Delivery by Wednesday | Arabella Farm Direct Bouquet of 12 Fresh Cut Pink Roses with a Free Glass Vase	1	0	1	Expedited	Kent Burks	100 HIGHLANDS PT			NEWNAN	GA	30265-1283	US		LUV U 4VR. SORRY ITS NOT ME N U From Kent Burks	false		
111-8918763-1019447	22553902441666	2020-09-27T13:24:19+00:00	2020-09-27T06:24:19-07:00	2020-09-27T13:52:51+00:00	2020-09-30T06:59:59+00:00	-3	tfnj962csnn87cw@marketplace.amazon.com	Sharon Stice	+1 415-851-9136 ext. 23198	ABM022	Delivery by Wednesday | Purple Extravagance Bouquet by Arabella Bouquets	1	0	1	Expedited	Sharon Stice	107 Sherri lane			CARL JUNCTION	MO	64834	US		Enjoy your gift! Congratulations on your great progress! We love you! From Larry and Sharon	false		
114-3748956-5208252	44351305428258	2020-09-27T13:52:13+00:00	2020-09-27T06:52:13-07:00	2020-09-27T14:16:45+00:00	2020-09-30T06:59:59+00:00	-3	c3d3jm6jkytn9h3@marketplace.amazon.com	Laurie Pettit	+1 929-436-4790 ext. 28570	ABR0022	Delivery by Wednesday | Arabella Farm Direct Bouquet of 12 Fresh Cut Pink Roses with a Free Glass Vase	1	0	1	Expedited	Dorothy Diaz	4906 CARLEIGH LN			VALRICO	FL	33596-8259	US		GET well Soon!  Love  Laurie and Jack From Laurie Pettit	false		
113-0322389-1887461	43814648802170	2020-09-27T14:05:09+00:00	2020-09-27T07:05:09-07:00	2020-09-27T14:35:06+00:00	2020-09-30T06:59:59+00:00	-3	mwdpd321vkmr7wp@marketplace.amazon.com	aleah	+1 929-436-4790 ext. 45351	ABM002	Delivery by Wednesday | Arabella Bouquets Fresh Cut White Calla Lilies in a Free Designer Glass Vase	1	0	1	Expedited	Andre Richardson	12102 CAMILLA ST			WHITTIER	CA	90601-3206	US			false		
113-0322389-1887461	07376920717586	2020-09-27T14:05:09+00:00	2020-09-27T07:05:09-07:00	2020-09-27T14:35:06+00:00	2020-09-30T06:59:59+00:00	-3	mwdpd321vkmr7wp@marketplace.amazon.com	aleah	+1 929-436-4790 ext. 45351	ABR004	Delivery by Wednesday | Arabella Farm Direct Bouquet of 12 Fresh Cut Yellow Roses with a Free Glass Vase	1	0	1	Expedited	Andre Richardson	12102 CAMILLA ST			WHITTIER	CA	90601-3206	US			false		
112-1567197-6515407	08964354787586	2020-09-27T14:15:54+00:00	2020-09-27T07:15:54-07:00	2020-09-27T14:43:35+00:00	2020-09-30T06:59:59+00:00	-3	vfjpnjdqvrz273x@marketplace.amazon.com	Deborah Aloia	636697023	ABM0044	Delivery by Wednesday | Arabella Farm Direct Bouquet of Fresh Cut Blue Hydrangea with a Free Glass Vase	1	0	1	Expedited	Heather & Charlie  Ihle	8 Kristi La.			Lake Grove	NY	11755	US		Happy Anniversary!!! With all our Love💕💕💕 From Mom& Dad  Aloia	false		
114-7299292-3339413	54229231490458	2020-09-27T14:15:33+00:00	2020-09-27T07:15:33-07:00	2020-09-27T14:45:40+00:00	2020-09-30T06:59:59+00:00	-3	k2h7162b5z5qlpn@marketplace.amazon.com	Allison	+1 415-851-9136 ext. 31250	ABB001	Arabella Farm Direct Fresh Cut White Hydrangea	1	0	1	Expedited	Allison	88 INDIAN TRL			BRONX	NY	10465-3934	US			false		
113-6620897-4821049	62512299851938	2020-09-27T14:25:16+00:00	2020-09-27T07:25:16-07:00	2020-09-27T14:49:23+00:00	2020-09-30T06:59:59+00:00	-3	mvvfyrv6l9l5tvk@marketplace.amazon.com	harriet  lowor	+1 480-618-5344 ext. 06028	ABM010	Delivery by Wednesday | The Spring Fling Bouquet by Arabella Bouquets with a Free Designer Glass Vase	1	0	1	Expedited	Mrs Agnes Batsa	20512 HOWE ST			ELKHORN	NE	68022-2140	US		Mummy,  Just to let you know we are thinking of you and praying for your speedy recovery.  Get well soon. All our love From Frank & Harriet	false		
111-9860642-6912200	43258722530074	2020-09-27T14:27:04+00:00	2020-09-27T07:27:04-07:00	2020-09-27T14:50:08+00:00	2020-09-30T06:59:59+00:00	-3	49rcgr58gpjjmxg@marketplace.amazon.com	charles leonard	+1 929-436-4790 ext. 89733	ABR0022	Delivery by Wednesday | Arabella Farm Direct Bouquet of 12 Fresh Cut Pink Roses with a Free Glass Vase	1	0	1	Expedited	Jaruwarn Donegan	7403 W MANCHESTER AVE			LOS ANGELES	CA	90045-2321	US			true		Business Price
114-6696848-3438644	45339392839514	2020-09-27T14:23:49+00:00	2020-09-27T07:23:49-07:00	2020-09-27T14:53:17+00:00	2020-09-30T06:59:59+00:00	-3	qw8dm8cmxlpglf6@marketplace.amazon.com	Sara J Joncas	+1 929-436-4790 ext. 73166	ABR0022	Delivery by Wednesday | Arabella Farm Direct Bouquet of 12 Fresh Cut Pink Roses with a Free Glass Vase	1	0	1	Expedited	SandraAndMark Joncas	403 SHORE DR			LACONIA	NH	03246-2950	US		Happy Anniversary! From Sara, JR, Jackson, Brooke, and Winni	false		
113-4314866-7335424	11124129371930	2020-09-27T14:28:16+00:00	2020-09-27T07:28:16-07:00	2020-09-27T14:57:42+00:00	2020-09-30T06:59:59+00:00	-3	mb9dyw1k8l1njyv@marketplace.amazon.com	Kristin Momberg	+1 480-618-5344 ext. 75912	ABR0022	Delivery by Wednesday | Arabella Farm Direct Bouquet of 12 Fresh Cut Pink Roses with a Free Glass Vase	1	0	1	Expedited	Mary Elizabeth Hontz	ASSISTED LIVING PLUS	200 BRISTOL GLEN DR APT 375		NEWTON	NJ	07860-2329	US		Happy birthday, Mom!!  Love, Kristin, Don and Tasha From Kristin Momberg	false		
112-5255451-8222601	68739871991826	2020-09-27T14:32:42+00:00	2020-09-27T07:32:42-07:00	2020-09-27T15:02:16+00:00	2020-09-30T06:59:59+00:00	-3	b808nvt5pch4dlp@marketplace.amazon.com	Paula deDiego	+1 929-436-4790 ext. 19347	ABR0022	Delivery by Wednesday | Arabella Farm Direct Bouquet of 12 Fresh Cut Pink Roses with a Free Glass Vase	1	0	1	Expedited	Mom deDiego	4 PROSPECT ST			PEPPERELL	MA	01463-1540	US			false		
113-4075775-0983433	18727051053122	2020-09-27T15:50:59+00:00	2020-09-27T08:50:59-07:00	2020-09-27T16:08:54+00:00	2020-09-30T06:59:59+00:00	-3	q9vnnws70fdc9d3@marketplace.amazon.com	Stephanie R Okazaki	+1 602-671-6610 ext. 47551	ABM010	Delivery by Wednesday | The Spring Fling Bouquet by Arabella Bouquets with a Free Designer Glass Vase	1	0	1	Expedited	Nancy Pierce	35 ARAPAHO DR			PENSACOLA	FL	32507-8736	US		Happy Birthday Mom and Nanny!! 🎂🌸🍷 We love you! Hope we can come visit soon!  Love, Robyn, Butch and Joey	false		
111-5899197-9792242	42816939333914	2020-09-27T16:06:06+00:00	2020-09-27T09:06:06-07:00	2020-09-27T16:36:39+00:00	2020-09-30T06:59:59+00:00	-3	d9rjfrhx18ypk8t@marketplace.amazon.com	Margaret Derrick	+1 929-436-4790 ext. 51980	ABM022	Delivery by Wednesday | Purple Extravagance Bouquet by Arabella Bouquets	1	0	1	Expedited	MARGARET G DERRICK	4 MARWAY CT			IRMO	SC	29063-9397	US			false		
112-5093869-1803458	12534766247066	2020-09-27T16:38:49+00:00	2020-09-27T09:38:49-07:00	2020-09-27T16:58:55+00:00	2020-09-30T06:59:59+00:00	-3	lzhf7132d3bqq9y@marketplace.amazon.com	Sindile Dlamini	+1 602-671-6610 ext. 26775	ABR0033	Delivery by Wednesday | Arabella Farm Direct Bouquet of 12 Fresh Cut Orange Roses with a Free Glass Vase	1	0	1	Expedited	Pastor & Mrs Barbara Owens	4309 19TH ST NE			WASHINGTON	DC	20018-3303	US			false		
114-0187455-9423470	08590332614018	2020-09-27T16:33:40+00:00	2020-09-27T09:33:40-07:00	2020-09-27T17:01:16+00:00	2020-09-30T06:59:59+00:00	-3	yqxzkp66l9k67sn@marketplace.amazon.com	dr e cannan	+1 480-618-5344 ext. 80937	ABR0022	Delivery by Wednesday | Arabella Farm Direct Bouquet of 12 Fresh Cut Pink Roses with a Free Glass Vase	1	0	1	Expedited	pearl barclay	28094 lemonwood drive			menifee	CA	92584	US		Love you mom From dr e cannan	false		
112-3941820-0151442	67865289070330	2020-09-27T16:25:51+00:00	2020-09-27T09:25:51-07:00	2020-09-27T17:03:48+00:00	2020-09-30T06:59:59+00:00	-3	12wt5bxykbq54cl@marketplace.amazon.com	Debra gonzalez	+1 602-671-6610 ext. 23808	ABR0055	Delivery by Wednesday | Arabella Farm Direct Bouquet of 12 Stems of Fresh Cut Hot Pink Roses in a Free Designer Glass Vase	2	0	2	Expedited	Debra gonzalez	600 ASH ST			WINNETKA	IL	60093-2661	US			false		
112-3941820-0151442	31973147726994	2020-09-27T16:25:51+00:00	2020-09-27T09:25:51-07:00	2020-09-27T17:03:48+00:00	2020-09-30T06:59:59+00:00	-3	12wt5bxykbq54cl@marketplace.amazon.com	Debra gonzalez	+1 602-671-6610 ext. 23808	ABB011	Arabella Bouquets 24 Stems of Fresh Cut Hot Pink Roses in a Free Designer Glass Vase	1	0	1	Expedited	Debra gonzalez	600 ASH ST			WINNETKA	IL	60093-2661	US			false		
112-8808568-5617805	12383826052978	2020-09-27T16:54:35+00:00	2020-09-27T09:54:35-07:00	2020-09-27T17:17:20+00:00	2020-09-30T06:59:59+00:00	-3	sgrkcj6ts9db6d5@marketplace.amazon.com	toni	+1 415-851-9136 ext. 08395	ABR0022	Delivery by Wednesday | Arabella Farm Direct Bouquet of 12 Fresh Cut Pink Roses with a Free Glass Vase	1	0	1	Expedited	Kim Bryant	4502 N SOCRUM LOOP RD			LAKELAND	FL	33809-4202	US			false		
114-0796746-3425831	17342424370322	2020-09-27T17:06:02+00:00	2020-09-27T10:06:02-07:00	2020-09-27T17:35:17+00:00	2020-09-30T06:59:59+00:00	-3	k0q2kndf0svngvm@marketplace.amazon.com	D'Angelo Christian	+1 602-671-6610 ext. 69735	ABR0022	Delivery by Wednesday | Arabella Farm Direct Bouquet of 12 Fresh Cut Pink Roses with a Free Glass Vase	1	0	1	Expedited	Taylor Clough	200 CONNELL AVE APT B6			MISSOULA	MT	59801-4354	US			false		
113-1350457-9073821	45909148738234	2020-09-27T17:24:11+00:00	2020-09-27T10:24:11-07:00	2020-09-27T17:53:39+00:00	2020-09-30T06:59:59+00:00	-3	d6wpc58v9x27r48@marketplace.amazon.com	Jen Cappe	+1 415-851-9136 ext. 97317	ABR0022	Delivery by Wednesday | Arabella Farm Direct Bouquet of 12 Fresh Cut Pink Roses with a Free Glass Vase	1	0	1	Expedited	Heidi Bates	5565 NOGALES AVE			ATASCADERO	CA	93422-3434	US			false		
112-5685115-6423405	00033625669170	2020-09-27T18:03:40+00:00	2020-09-27T11:03:40-07:00	2020-09-27T18:33:02+00:00	2020-09-30T06:59:59+00:00	-3	1gp12lrfj03vs8z@marketplace.amazon.com	Fei Wang	+1 415-851-9136 ext. 65259	ABR001	Delivery by Wednesday | Arabella Bouquets 12 Stems of Fresh Cut Red Roses in a Free Designer Glass Vase	1	0	1	Expedited	Danqing Wang	1509 HEARST AVE APT 304			BERKELEY	CA	94703-1248	US			false		
113-4578523-3357839	23467884925418	2020-09-27T18:05:02+00:00	2020-09-27T11:05:02-07:00	2020-09-27T18:33:39+00:00	2020-09-30T06:59:59+00:00	-3	pdtnznkdwy393tc@marketplace.amazon.com	Melissa Y. Thrasher	+1 480-618-5344 ext. 91040	ABR0022	Delivery by Wednesday | Arabella Farm Direct Bouquet of 12 Fresh Cut Pink Roses with a Free Glass Vase	1	0	1	Expedited	Monica Thrasher	120 PETERSON ST APT 1-LN			FORT COLLINS	CO	80524-7906	US		HAPPY 40TH BIRTHDAY MONICA!!!  LOVE YOU!!! From Melissa Y. Thrasher	false		
114-9669403-9949030	65889822478090	2020-09-27T18:16:51+00:00	2020-09-27T11:16:51-07:00	2020-09-27T18:45:00+00:00	2020-09-30T06:59:59+00:00	-3	vc5dtp0j55j42qs@marketplace.amazon.com	Robin Hasson	+1 415-851-9136 ext. 10673	ABM0044	Delivery by Wednesday | Arabella Farm Direct Bouquet of Fresh Cut Blue Hydrangea with a Free Glass Vase	1	0	1	Expedited	Rhonda Garcia	12313 N ECHO VALLEY DR			ORO VALLEY	AZ	85755-1818	US		Enjoy your flowers....thinking of you❤️ From Robin Hasson	false		
112-6110259-9746663	58763126003330	2020-09-27T18:24:05+00:00	2020-09-27T11:24:05-07:00	2020-09-27T18:51:56+00:00	2020-09-30T06:59:59+00:00	-3	txlzxpl7y0qsjbm@marketplace.amazon.com	Mary Nims	+1 480-618-5344 ext. 59158	ABM022	Delivery by Wednesday | Purple Extravagance Bouquet by Arabella Bouquets	1	0	1	Expedited	Francine Kitchen	2520 CEDARWOOD AVE			BELLINGHAM	WA	98225-1405	US		Congrats on your Retirement.  We are all so happy for you. From Mary Nims	false		
113-4709723-1238611	03133694000738	2020-09-27T18:37:41+00:00	2020-09-27T11:37:41-07:00	2020-09-27T19:06:25+00:00	2020-09-30T06:59:59+00:00	-3	ykkb5n34g9fp70q@marketplace.amazon.com	Sabina Aharpour	+1 602-671-6610 ext. 33352	ABM020	Delivery by Wednesday | Summer Sunset Bouquet by Arabella Bouquets	1	0	1	Expedited	Kathy Newkirk	1003 PINEYWOODS DR APT D			AMERICUS	GA	31709-2411	US			false		
111-3400777-3088255	11629557086066	2020-09-27T18:59:40+00:00	2020-09-27T11:59:40-07:00	2020-09-27T19:13:57+00:00	2020-09-30T06:59:59+00:00	-3	lk97y5z63nvqtd2@marketplace.amazon.com	Debora Weisbacher	+1 480-618-5344 ext. 64917	ABM010	Delivery by Wednesday | The Spring Fling Bouquet by Arabella Bouquets with a Free Designer Glass Vase	1	0	1	Expedited	Ms. Gail Siebler	6439 PINEHURST LN			MASON	OH	45040-2051	US		Dear Gail, Roses are red Violets are blue The Bengals may not win But I hope these flowers cheer you! From Debora Weisbacher	false		
112-6810054-8868265	62689122070282	2020-09-27T18:59:57+00:00	2020-09-27T11:59:57-07:00	2020-09-27T19:27:28+00:00	2020-09-30T06:59:59+00:00	-3	mtrl98ylrx0lsts@marketplace.amazon.com	Dustin mancebo	+1 929-436-4790 ext. 07541	ABM010	Delivery by Wednesday | The Spring Fling Bouquet by Arabella Bouquets with a Free Designer Glass Vase	1	0	1	Standard	Kristin Mancebo LeFore	350 W BIRCH AVE			CLOVIS	CA	93611-0207	US		Kristin, I know that you were due around now and I just want you to know I am thinking about you. I want you to know that I am always here for you. Even if you just need a shoulder to cry on. From Sierra and Family	false		
113-3476735-1170652	47989363572338	2020-09-27T19:03:14+00:00	2020-09-27T12:03:14-07:00	2020-09-27T19:31:52+00:00	2020-09-30T06:59:59+00:00	-3	cw1wvhvd411qyf0@marketplace.amazon.com	Michelle	+1 480-618-5344 ext. 12371	ABR0066	Delivery by Wednesday | Arabella Bouquets 12 Stems of Fresh Cut White Roses in a Free Designer Glass Vase	1	0	1	Expedited	Maria Latorre	821 INVERNESS DR			RIO VISTA	CA	94571-9734	US			false		
114-7395241-0969064	21884840619970	2020-09-27T19:30:53+00:00	2020-09-27T12:30:53-07:00	2020-09-27T19:59:09+00:00	2020-09-30T06:59:59+00:00	-3	55xjmz0jwdcgcsf@marketplace.amazon.com	Deanna Forst	+1 602-671-6610 ext. 81791	ABM022	Delivery by Wednesday | Purple Extravagance Bouquet by Arabella Bouquets	1	0	1	Expedited	Denise Beard	4948 TERRANG TRL			MACHESNEY PARK	IL	61115-2292	US		Happy Birthday to you!  Hope you have a GREAT day!! Love you! Scott and Deanna From Deanna Forst	false		
112-3369567-0325024	63275443906282	2020-09-27T19:53:39+00:00	2020-09-27T12:53:39-07:00	2020-09-27T20:18:20+00:00	2020-09-30T06:59:59+00:00	-3	dgqdtry24w888y3@marketplace.amazon.com	ryan dahl	+1 602-671-6610 ext. 05178	ABR001	Delivery by Wednesday | Arabella Bouquets 12 Stems of Fresh Cut Red Roses in a Free Designer Glass Vase	1	0	1	Expedited	ryan dahl	4296 W BANNER MINE PL			TUCSON	AZ	85745-4100	US			false		
113-4059985-2889051	48860675304090	2020-09-27T20:01:21+00:00	2020-09-27T13:01:21-07:00	2020-09-27T20:27:53+00:00	2020-09-30T06:59:59+00:00	-3	3nmldqrffsr96cs@marketplace.amazon.com	michelle baxter	+1 602-671-6610 ext. 29649	ABR0055	Delivery by Wednesday | Arabella Farm Direct Bouquet of 12 Stems of Fresh Cut Hot Pink Roses in a Free Designer Glass Vase	1	0	1	Expedited	Mrs lisa elliott	845 YORK RD			DOVER	PA	17315-1609	US		I love you  Mom From michelle baxter	false		
111-1438414-2828259	03866171225778	2020-09-27T20:03:55+00:00	2020-09-27T13:03:55-07:00	2020-09-27T20:34:20+00:00	2020-09-30T06:59:59+00:00	-3	9nllztb1xwdslq9@marketplace.amazon.com	walter rich	+1 480-618-5344 ext. 03504	ABR0055	Delivery by Wednesday | Arabella Farm Direct Bouquet of 12 Stems of Fresh Cut Hot Pink Roses in a Free Designer Glass Vase	1	0	1	Expedited	nancy rich	19 hallsey lane			woodbridge	CT	06525	US			false		
111-9519797-7436223	67069978368586	2020-09-27T20:20:32+00:00	2020-09-27T13:20:32-07:00	2020-09-27T20:49:16+00:00	2020-09-30T06:59:59+00:00	-3	l10c78nzy2jrxgf@marketplace.amazon.com	Jon Boston	+1 929-436-4790 ext. 61766	ABR0066	Delivery by Wednesday | Arabella Bouquets 12 Stems of Fresh Cut White Roses in a Free Designer Glass Vase	1	0	1	Expedited	Scott Boston & Marta Kepe	684 N ARMISTEAD ST			ALEXANDRIA	VA	22312-2935	US			false		
113-0051045-3242668	44294463580162	2020-09-27T20:33:25+00:00	2020-09-27T13:33:25-07:00	2020-09-27T21:01:27+00:00	2020-09-30T06:59:59+00:00	-3	1b6nf28zyfj8202@marketplace.amazon.com	Kimberly Gorman	+1 415-851-9136 ext. 70057	ABM022	Delivery by Wednesday | Purple Extravagance Bouquet by Arabella Bouquets	1	0	1	Expedited	Laura Delicath	5433 N JAMES RD			PEORIA	IL	61615-3408	US		Happy 40th birthday, Aunt Laura!  Have a wonderful day!  We love you! Love, Madison, Collin, Kimberly & Corey From The Gormans	false		
114-2738368-9176255	19921463391138	2020-09-27T20:40:16+00:00	2020-09-27T13:40:16-07:00	2020-09-27T21:05:21+00:00	2020-09-30T06:59:59+00:00	-3	vxsq12h2p60tc9g@marketplace.amazon.com	Robert D Minick	+1 602-671-6610 ext. 04804	ABM022	Delivery by Wednesday | Purple Extravagance Bouquet by Arabella Bouquets	1	0	1	Expedited	Betty  Minick	691 CASCADE ST			LANDER	WY	82520-3611	US		Enjoy your gift!  Happy 95th Birthday Mom, Grandma and Great-grandma! Love, Bob, Esther, Cassie, Aly & Izzy From Robert D Minick	false		
114-9971195-9305032	58483638236618	2020-09-27T20:45:07+00:00	2020-09-27T13:45:07-07:00	2020-09-27T21:09:41+00:00	2020-09-30T06:59:59+00:00	-3	d8j0ng3qzt578yt@marketplace.amazon.com	Jean Raines	+1 602-671-6610 ext. 32289	ABR0022	Delivery by Wednesday | Arabella Farm Direct Bouquet of 12 Fresh Cut Pink Roses with a Free Glass Vase	1	0	1	Standard	Dawn Raines	9780 GREEN RD			FARWELL	MI	48622-9519	US		Please forgive me. I love and miss you.  Jean Raines	false		
112-5408691-8215460	09348881675290	2020-09-27T20:49:42+00:00	2020-09-27T13:49:42-07:00	2020-09-27T21:20:08+00:00	2020-09-30T06:59:59+00:00	-3	9mvm4198z6p1wg5@marketplace.amazon.com	Juan	+1 415-851-9136 ext. 79155	ABR001	Delivery by Wednesday | Arabella Bouquets 12 Stems of Fresh Cut Red Roses in a Free Designer Glass Vase	1	0	1	Expedited	Marlene Rodriguez	4360 NE PORTLAND HWY APT G			PORTLAND	OR	97218-1368	US			false		
114-9319434-0071468	41278948211170	2020-09-27T20:59:55+00:00	2020-09-27T13:59:55-07:00	2020-09-27T21:30:00+00:00	2020-09-30T06:59:59+00:00	-3	2s31hzl0rcf34pw@marketplace.amazon.com	Clay Skougard	94946340845	ABR0066	Delivery by Wednesday | Arabella Bouquets 12 Stems of Fresh Cut White Roses in a Free Designer Glass Vase	1	0	1	Expedited	Susan Skougard	307 PLYMOUTH DR			CHARLOTTE	MI	48813-2151	US			false		
112-4970472-7718613	53690707107962	2020-09-27T21:07:32+00:00	2020-09-27T14:07:32-07:00	2020-09-27T21:35:32+00:00	2020-09-30T06:59:59+00:00	-3	mj1n1d5wrsckfby@marketplace.amazon.com	Anne Morrison	+1 929-436-4790 ext. 93479	ABR0022	Delivery by Wednesday | Arabella Farm Direct Bouquet of 12 Fresh Cut Pink Roses with a Free Glass Vase	1	0	1	Expedited	Pam Powers	33 E 75TH ST			INDIANAPOLIS	IN	46240-2841	US		HAPPY BIRTHDAY HOSER! From Anne Morrison	false		
113-6191808-2977857	31091542556458	2020-09-27T21:10:41+00:00	2020-09-27T14:10:41-07:00	2020-09-27T21:36:58+00:00	2020-09-30T06:59:59+00:00	-3	dbcrrxfjr5ht2g9@marketplace.amazon.com	Rohit Malhotra	+1 929-436-4790 ext. 67583	ABR0022	Delivery by Wednesday | Arabella Farm Direct Bouquet of 12 Fresh Cut Pink Roses with a Free Glass Vase	1	0	1	Expedited	Carlos Plata	590 MINNESOTA ST			SAN FRANCISCO	CA	94107-3025	US		Hey C, Here’s my second attempt. I sent you flowers to thank you for spending all that time with me, which I totally loved. Made me miss you even more, also was thinking of you. Love! From Ro	false		
114-0994699-8633838	33549846095106	2020-09-27T21:28:46+00:00	2020-09-27T14:28:46-07:00	2020-09-27T21:55:10+00:00	2020-09-30T06:59:59+00:00	-3	03z1kgf8sb5p4zn@marketplace.amazon.com	Dawn Quinn	+1 929-436-4790 ext. 46381	ABM010	Delivery by Wednesday | The Spring Fling Bouquet by Arabella Bouquets with a Free Designer Glass Vase	2	0	2	Expedited	Ms. Eleanor Quinn	184 WATERFORD DR			VACAVILLE	CA	95688-9221	US		Happy Birthday - Love D.D. From Dawn Quinn	false		
113-6199176-9027428	27649810895522	2020-09-27T21:28:08+00:00	2020-09-27T14:28:08-07:00	2020-09-27T21:58:44+00:00	2020-09-30T06:59:59+00:00	-3	m5vy3pn0qgb10pm@marketplace.amazon.com	Quintin Stallion	+1 415-851-9136 ext. 41723	ABR0022	Delivery by Wednesday | Arabella Farm Direct Bouquet of 12 Fresh Cut Pink Roses with a Free Glass Vase	1	0	1	Expedited	Mackenzie Cross	241 McDaniel Ave	Apt 35		Richmond	Kentucky	40475	US			false		
113-4043715-2005842	27770081839138	2020-09-27T21:33:39+00:00	2020-09-27T14:33:39-07:00	2020-09-27T22:00:48+00:00	2020-09-30T06:59:59+00:00	-3	fcg674qlrwz5yz1@marketplace.amazon.com	debbie rodriguez	+1 415-851-9136 ext. 17606	ABR0022	Delivery by Wednesday | Arabella Farm Direct Bouquet of 12 Fresh Cut Pink Roses with a Free Glass Vase	1	0	1	Expedited	Megan Bixler	871 S CAMBRIDGE AVE			ELMHURST	IL	60126-4524	US		Happy Birthday Megan, We love you soooo much!! From Love Fred and Mom	false		
112-8110531-6964264	53559397747602	2020-09-27T21:38:01+00:00	2020-09-27T14:38:01-07:00	2020-09-27T22:04:25+00:00	2020-09-30T06:59:59+00:00	-3	6qxkhnpl5sxfyvh@marketplace.amazon.com	James J. Matulevich	+1 602-671-6610 ext. 61867	ABM0044	Delivery by Wednesday | Arabella Farm Direct Bouquet of Fresh Cut Blue Hydrangea with a Free Glass Vase	1	0	1	Expedited	Dale Crossman	7501 SMITHFIELD GREENE LN			PROSPECT	KY	40059-8350	US		Dear dad and Carol. Thank you so much for being the perfect host and hostess. We had a wonderful time visiting with you!  We hope that your eye continues to improve Carol. Love you both. From Vicki and Jim	false		
113-8983717-3199400	05013194837978	2020-09-27T21:59:19+00:00	2020-09-27T14:59:19-07:00	2020-09-27T22:22:01+00:00	2020-09-30T06:59:59+00:00	-3	0dnvp0p4rfmcjnq@marketplace.amazon.com	J	+1 480-618-5344 ext. 35298	ABR0022	Delivery by Wednesday | Arabella Farm Direct Bouquet of 12 Fresh Cut Pink Roses with a Free Glass Vase	1	0	1	Expedited	Mrs. Alonso	225 MEADOWLAND CT			MANCHESTER	TN	37355-7858	US		Best wishes Mrs. Alonso From The Jacksons	false		
114-3822797-6299401	22015598784642	2020-09-27T22:19:07+00:00	2020-09-27T15:19:07-07:00	2020-09-27T22:49:30+00:00	2020-09-30T06:59:59+00:00	-3	4wh2smr2v47hchr@marketplace.amazon.com	Maria Gonzalez	+1 602-671-6610 ext. 78206	ABR0022	Delivery by Wednesday | Arabella Farm Direct Bouquet of 12 Fresh Cut Pink Roses with a Free Glass Vase	1	0	1	Expedited	Maria Gonzalez	10768 YARMOUTH BAY CT			LAS VEGAS	NV	89179-1439	US			false		
113-8760627-6997822	56408634807802	2020-09-27T22:30:25+00:00	2020-09-27T15:30:25-07:00	2020-09-27T22:58:19+00:00	2020-09-30T06:59:59+00:00	-3	c8ftxt6v3fszffr@marketplace.amazon.com	amy magro	+1 602-671-6610 ext. 83137	ABR0022	Delivery by Wednesday | Arabella Farm Direct Bouquet of 12 Fresh Cut Pink Roses with a Free Glass Vase	1	0	1	Expedited	Vyvette Solt	2648 SEVIERVILLE RD	ASBURY PLACE - BEECH 507		MARYVILLE	TN	37804-3643	US		Happy Birthday Mimi!  We love you! Your daughter Amy and your grand kids Nick, Sullivan, Morgan and Jack From amy magro	false		
113-0243868-4365044	26279457921930	2020-09-27T22:30:21+00:00	2020-09-27T15:30:21-07:00	2020-09-27T23:00:27+00:00	2020-09-30T06:59:59+00:00	-3	p9f3j57dhcnr8nm@marketplace.amazon.com	Donna B ONeill	+1 480-618-5344 ext. 26423	ABM010	Delivery by Wednesday | The Spring Fling Bouquet by Arabella Bouquets with a Free Designer Glass Vase	1	0	1	Expedited	The ONEILLS	631 BOSPHOROUS AVE DAVIS ISLAND			TAMPA	FL	33606-3915	US			false		
113-0867424-3965063	54214299307650	2020-09-27T22:38:12+00:00	2020-09-27T15:38:12-07:00	2020-09-27T23:06:56+00:00	2020-09-30T06:59:59+00:00	-3	mg0sbptvdqxg0tl@marketplace.amazon.com	James Perkins	+1 415-851-9136 ext. 63548	ABR0022	Delivery by Wednesday | Arabella Farm Direct Bouquet of 12 Fresh Cut Pink Roses with a Free Glass Vase	1	0	1	Expedited	Theresa Perkins	8 ALBERTO DUMONT CV			GEORGETOWN	TX	78626-2205	US		I hope you have a wonderful birthday! We love you and can’t wait to see you on thanksgiving! From Wes and Lindsey	false		
112-6661550-3271465	66298362993994	2020-09-27T23:01:27+00:00	2020-09-27T16:01:27-07:00	2020-09-27T23:21:56+00:00	2020-09-30T06:59:59+00:00	-3	jhtltcrymyd4dbj@marketplace.amazon.com	Patricia D. Ostermick	+1 929-436-4790 ext. 69025	ABM010	Delivery by Wednesday | The Spring Fling Bouquet by Arabella Bouquets with a Free Designer Glass Vase	1	0	1	Expedited	Bernice Belger	650 STOCKTON DR APT 304 EAGLEVIEW			EXTON	PA	19341-1152	US		Enjoy your gift!  We love you. Welcome to your new apartment.  Pat, Terri, Patty and Maria From Patricia Belger	false		
111-8891380-1559463	41819050429770	2020-09-27T22:58:17+00:00	2020-09-27T15:58:17-07:00	2020-09-27T23:25:02+00:00	2020-09-30T06:59:59+00:00	-3	xst6s5b024whr3s@marketplace.amazon.com	Narasim Narayan	+1 602-671-6610 ext. 01189	ABM010	Delivery by Wednesday | The Spring Fling Bouquet by Arabella Bouquets with a Free Designer Glass Vase	1	0	1	Expedited	Catherine Chiateco	1248 MAGNOLIA AVE			REDLANDS	CA	92373-4902	US		Love & Best Wishes From Narasim  & Sri Narayan	false		
114-7777603-3717831	24633111718794	2020-09-27T22:59:46+00:00	2020-09-27T15:59:46-07:00	2020-09-27T23:26:07+00:00	2020-09-30T06:59:59+00:00	-3	bpbnck4rb8qlk57@marketplace.amazon.com	Civea I. Waleski	+1 602-671-6610 ext. 93810	ABR0022	Delivery by Wednesday | Arabella Farm Direct Bouquet of 12 Fresh Cut Pink Roses with a Free Glass Vase	1	0	1	Expedited	Forine Crowe	1943 STARR RD SW			CONYERS	GA	30094-5751	US		Dearest Ms. Florine, Ray and I  wish you a happy birthday! May  our Lord be with you and bless you always.  We love you.  Ray & Civea From Ray & Civea	false		
112-6423228-6238645	57720678403658	2020-09-27T23:20:45+00:00	2020-09-27T16:20:45-07:00	2020-09-27T23:49:33+00:00	2020-09-30T06:59:59+00:00	-3	twyll9gy64qnjbh@marketplace.amazon.com	Melody Fulton	+1 415-851-9136 ext. 16950	ABM010	Delivery by Wednesday | The Spring Fling Bouquet by Arabella Bouquets with a Free Designer Glass Vase	1	0	1	Expedited	Mary Ann Blair	24 RANKIN CT			UNCASVILLE	CT	06382-1704	US		Happy Birthday Mrs. Blair!! Hope these flowers brighten your day and help bring in the fall with a pop of color. From Logan and Taneal	false		
113-6685624-7849014	20518214908602	2020-09-27T23:25:19+00:00	2020-09-27T16:25:19-07:00	2020-09-27T23:55:53+00:00	2020-09-30T06:59:59+00:00	-3	ykjrbcxv5lvtyz4@marketplace.amazon.com	June Smith	+1 929-436-4790 ext. 96364	ABM010	Delivery by Wednesday | The Spring Fling Bouquet by Arabella Bouquets with a Free Designer Glass Vase	1	0	1	Expedited	June Smith	209 E MARFA AVE			ALPINE	TX	79830-2620	US			false		
114-6152891-2914667	59299545283522	2020-09-27T23:28:35+00:00	2020-09-27T16:28:35-07:00	2020-09-27T23:57:06+00:00	2020-09-30T06:59:59+00:00	-3	3mnrj35flfg78j7@marketplace.amazon.com	Lisa S. Dunaway	+1 929-436-4790 ext. 86375	ABM0044	Delivery by Wednesday | Arabella Farm Direct Bouquet of Fresh Cut Blue Hydrangea with a Free Glass Vase	1	0	1	Standard	Karen Cotter	2009 GREENHILL DR			ROWLETT	TX	75088-1564	US		Happy Birthday friend.   You are loved, admired, and missed. From Me	false		
114-9780778-0368230	53040164690898	2020-09-27T23:32:48+00:00	2020-09-27T16:32:48-07:00	2020-09-28T00:01:30+00:00	2020-09-30T06:59:59+00:00	-3	85lgvyrk8zk8z71@marketplace.amazon.com	Tonya G. Karczewski	+1 415-851-9136 ext. 85432	ABM022	Delivery by Wednesday | Purple Extravagance Bouquet by Arabella Bouquets	1	0	1	Expedited	Mardelle DeLanghe c/o Creekside Village	1420 E DOUGLAS RD RM 101			MISHAWAKA	IN	46545-1733	US		I hope these flowers brighten your day.  Miss and Love you.  Tonie and family. From Tonya G. Karczewski	false		
111-1979737-7356234	64145043417250	2020-09-27T23:46:12+00:00	2020-09-27T16:46:12-07:00	2020-09-28T00:13:58+00:00	2020-09-30T06:59:59+00:00	-3	hmth8jdp9c699b2@marketplace.amazon.com	cindy hutchins	+1 480-618-5344 ext. 90763	ABR0022	Delivery by Wednesday | Arabella Farm Direct Bouquet of 12 Fresh Cut Pink Roses with a Free Glass Vase	1	0	1	Expedited	Shenae & Trevor Cantrell	107 WHITEHALL DR			GREAT FALLS	MT	59405-8642	US		Sending our love & prayers to you all ❤️ From Dad & cindy	false		
111-0408557-9182633	59235863963626	2020-09-28T00:07:55+00:00	2020-09-27T17:07:55-07:00	2020-09-28T00:36:11+00:00	2020-09-30T06:59:59+00:00	-3	wpnjfy1jk4fkryr@marketplace.amazon.com	Christa Masters	+1 602-671-6610 ext. 95421	ABR012	Delivery by Wednesday | Arabella Farm Direct Bouquet of 18 Fresh Cut Pink Roses with a Free Glass Vase	1	0	1	Expedited	Melissa Santo	406 NEWGATE CT APT C3			BENSALEM	PA	19020-7767	US		Happy 40th!!!  The best is yet to come! From Christa	false		
111-4019080-1399464	18813049160010	2020-09-28T00:41:33+00:00	2020-09-27T17:41:33-07:00	2020-09-28T01:10:08+00:00	2020-09-30T06:59:59+00:00	-3	2q8bszbz1gpd90k@marketplace.amazon.com	april g. pugh	+1 602-671-6610 ext. 19355	ABR0055	Delivery by Wednesday | Arabella Farm Direct Bouquet of 12 Stems of Fresh Cut Hot Pink Roses in a Free Designer Glass Vase	1	0	1	Expedited	Geraldine Pugh	2446 LODGE FARM RD			SPARROWS POINT	MD	21219-1936	US		Enjoy your gift! We love you Mom! From april  and harry  pugh	false		
111-9024199-3536235	15092004519410	2020-09-28T01:01:47+00:00	2020-09-27T18:01:47-07:00	2020-09-28T01:28:10+00:00	2020-09-30T06:59:59+00:00	-3	v7nsgnk529fr8s7@marketplace.amazon.com	Nikhil Khadke	+1 602-671-6610 ext. 13034	ABR0022	Delivery by Wednesday | Arabella Farm Direct Bouquet of 12 Fresh Cut Pink Roses with a Free Glass Vase	1	0	1	Expedited	Prajakta Karandikar	10333 NE 1ST ST APT 421			BELLEVUE	WA	98004-4053	US		Giving up Sally must be hard. Sending hugs and kisses from San Francisco :) 🤗😘 From Nikhil	false		
114-4777062-8539401	51020067653138	2020-09-28T01:00:21+00:00	2020-09-27T18:00:21-07:00	2020-09-28T01:29:30+00:00	2020-09-30T06:59:59+00:00	-3	b8bkn1wv3zr9v1s@marketplace.amazon.com	D. T	+1 480-618-5344 ext. 28572	ABR0055	Delivery by Wednesday | Arabella Farm Direct Bouquet of 12 Stems of Fresh Cut Hot Pink Roses in a Free Designer Glass Vase	1	0	1	Expedited	Nina ( Helen) Hurtado	6905 GUMWOOD CIR			CITRUS HEIGHTS	CA	95621-1219	US		Happy Birthday Nina Love you so very much. Hope your have a wonderful and Blessed Birthday and many more to come. Love always Jerry, Debbie and Family. From D. T	false		
114-8833487-3854661	53331851315154	2020-09-28T01:36:37+00:00	2020-09-27T18:36:37-07:00	2020-09-28T02:03:01+00:00	2020-09-30T06:59:59+00:00	-3	fydm4x9dw508hf9@marketplace.amazon.com	Brian Keiser	+1 602-671-6610 ext. 49443	ABR0022	Delivery by Wednesday | Arabella Farm Direct Bouquet of 12 Fresh Cut Pink Roses with a Free Glass Vase	1	0	1	Expedited	Brian Keiser	4108 MIDNIGHT CREST AVE			N LAS VEGAS	NV	89031-3742	US			false		
114-9491790-4927430	59339245440978	2020-09-28T01:38:42+00:00	2020-09-27T18:38:42-07:00	2020-09-28T02:06:05+00:00	2020-09-30T06:59:59+00:00	-3	3d6r4h9b6my5tng@marketplace.amazon.com	Brian Muell	+1 415-851-9136 ext. 85374	ABR0022	Delivery by Wednesday | Arabella Farm Direct Bouquet of 12 Fresh Cut Pink Roses with a Free Glass Vase	1	0	1	Expedited	Sheila Muell	2929 LOOMIS AVE			MISSOURI VALLEY	IA	51555-8010	US			false		
112-4296676-1991403	02875352062682	2020-09-28T01:40:22+00:00	2020-09-27T18:40:22-07:00	2020-09-28T02:08:19+00:00	2020-09-30T06:59:59+00:00	-3	njc9fnmjkxnc0c4@marketplace.amazon.com	Keith Henderson	+1 929-436-4790 ext. 38211	ABR0055	Delivery by Wednesday | Arabella Farm Direct Bouquet of 12 Stems of Fresh Cut Hot Pink Roses in a Free Designer Glass Vase	1	0	1	Expedited	Samantha Coryell	30 CONDUCTOR CT			COTTAGEVILLE	SC	29435-5599	US		Happy Birthday beautiful.  I hope you have a wonderful day celebrating your special day.  Love K From Keith Henderson	false		
112-4296676-1991403	24603768612554	2020-09-28T01:40:22+00:00	2020-09-27T18:40:22-07:00	2020-09-28T02:08:19+00:00	2020-09-30T06:59:59+00:00	-3	njc9fnmjkxnc0c4@marketplace.amazon.com	Keith Henderson	+1 929-436-4790 ext. 38211	ABR0055	Delivery by Wednesday | Arabella Farm Direct Bouquet of 12 Stems of Fresh Cut Hot Pink Roses in a Free Designer Glass Vase	1	0	1	Expedited	Samantha Coryell	30 CONDUCTOR CT			COTTAGEVILLE	SC	29435-5599	US		Very proud of you Mallory.  Hope you enjoy the flowers.  Love Keith From Keith Henderson	false		
112-1585385-7465026	08289857507770	2020-09-28T02:00:25+00:00	2020-09-27T19:00:25-07:00	2020-09-28T02:28:49+00:00	2020-09-30T06:59:59+00:00	-3	vt41drgkdjntlc7@marketplace.amazon.com	Kristen Holmes	+1 929-436-4790 ext. 31280	ABM010	Delivery by Wednesday | The Spring Fling Bouquet by Arabella Bouquets with a Free Designer Glass Vase	1	0	1	Expedited	Susan Neumann	9216 KINGS CANYON DR			CHARLOTTE	NC	28210-7677	US		Enjoy your gift! Happy Birthday 1 From Kristen Holmes	false		
113-6751076-0430660	23139055779106	2020-09-28T02:03:32+00:00	2020-09-27T19:03:32-07:00	2020-09-28T02:32:34+00:00	2020-09-30T06:59:59+00:00	-3	jlg25vn4lj3d0sw@marketplace.amazon.com	gilbert crespin	+1 480-618-5344 ext. 49885	ABR0022	Delivery by Wednesday | Arabella Farm Direct Bouquet of 12 Fresh Cut Pink Roses with a Free Glass Vase	1	0	1	Expedited	Rebekah Moore	6100 MONTE VERDE PL			SANTA FE	NM	87507-1305	US		I love you soo much.....Gil	false		
112-4836286-1005844	09579768078962	2020-09-28T02:07:16+00:00	2020-09-27T19:07:16-07:00	2020-09-28T02:36:06+00:00	2020-09-30T06:59:59+00:00	-3	s2wvws31n78sbdy@marketplace.amazon.com	Melanie Vernacchia	+1 929-436-4790 ext. 56713	ABR0022	Delivery by Wednesday | Arabella Farm Direct Bouquet of 12 Fresh Cut Pink Roses with a Free Glass Vase	1	0	1	Expedited	Janet Vernacchia	310 SOUTHERN BREEZES CIR			MURRELLS INLET	SC	29576-9392	US		Happy Birthday!!! From Antonio, Matteo, Luciano and Melanie	true		Business Price
114-6303213-1965827	05880715062314	2020-09-28T02:09:22+00:00	2020-09-27T19:09:22-07:00	2020-09-28T02:39:09+00:00	2020-09-30T06:59:59+00:00	-3	29h9xh4gfys8h64@marketplace.amazon.com	sergio stone	+1 602-671-6610 ext. 20610	ABR0022	Delivery by Wednesday | Arabella Farm Direct Bouquet of 12 Fresh Cut Pink Roses with a Free Glass Vase	1	0	1	Expedited	Sergio C Stone	11 ESTATES DR			VILLA PARK	CA	92861-2300	US			false		
113-3398395-3667469	25514686060778	2020-09-28T02:55:28+00:00	2020-09-27T19:55:28-07:00	2020-09-28T03:21:35+00:00	2020-09-30T06:59:59+00:00	-3	vp44lvmy9hx7zkm@marketplace.amazon.com	K Kwan	+1 602-671-6610 ext. 87700	ABR001	Delivery by Wednesday | Arabella Bouquets 12 Stems of Fresh Cut Red Roses in a Free Designer Glass Vase	1	0	1	Expedited	Winnie mae	343 GOLD ST APT 2905			BROOKLYN	NY	11201-3092	US			false		
112-0570456-6124255	36288374587202	2020-09-28T03:40:46+00:00	2020-09-27T20:40:46-07:00	2020-09-28T03:41:44+00:00	2020-09-30T06:59:59+00:00	-3	zl9yxky2br725s9@marketplace.amazon.com	Michelle Yegge	+1 929-436-4790 ext. 01020	ABR0055	Delivery by Wednesday | Arabella Farm Direct Bouquet of 12 Stems of Fresh Cut Hot Pink Roses in a Free Designer Glass Vase	1	0	1	Expedited	Shery & Steve Baldwin	5405 PROSPECT RD APT 6			SAN JOSE	CA	95129-4846	US		Happy Anniversary Mom and Dad! We love you! Love, Nick, Michelle, Forrest, Clara & Baby Yegge	false		
111-9021893-8552269	25494234960610	2020-09-28T03:21:58+00:00	2020-09-27T20:21:58-07:00	2020-09-28T03:52:25+00:00	2020-09-30T06:59:59+00:00	-3	d1vz7d23n5404m8@marketplace.amazon.com	Alvin Hom	+1 602-671-6610 ext. 27203	ABR0055	Delivery by Wednesday | Arabella Farm Direct Bouquet of 12 Stems of Fresh Cut Hot Pink Roses in a Free Designer Glass Vase	1	0	1	Expedited	Denise Tom	2632 LA HONDA AVE			EL CERRITO	CA	94530-1533	US			false		
114-6390427-9561067	44889565635394	2020-09-28T03:30:40+00:00	2020-09-27T20:30:40-07:00	2020-09-28T03:59:39+00:00	2020-09-30T06:59:59+00:00	-3	n3j2c3zb1z22662@marketplace.amazon.com	Cruz Rubio	+1 602-671-6610 ext. 70253	ABR001	Delivery by Wednesday | Arabella Bouquets 12 Stems of Fresh Cut Red Roses in a Free Designer Glass Vase	1	0	1	Expedited	Kayla McIntosh	204 VIA PAMPLONA			SAN CLEMENTE	CA	92672-1808	US			false		
114-1231777-7877044	46105806954850	2020-09-27T07:20:29+00:00	2020-09-27T00:20:29-07:00	2020-09-28T04:02:16+00:00	2020-09-30T06:59:59+00:00	-3	2nxnhw7gr1mkz1q@marketplace.amazon.com	Mario	+1 929-436-4790 ext. 48708	ABR0022	Delivery by Wednesday | Arabella Farm Direct Bouquet of 12 Fresh Cut Pink Roses with a Free Glass Vase	1	0	1	Expedited	Michelle Marie	721 BOURBON ST APT 2			PAHRUMP	NV	89048-5646	US			false		
114-2883717-9105805	59659458789562	2020-09-28T03:53:00+00:00	2020-09-27T20:53:00-07:00	2020-09-28T04:18:37+00:00	2020-09-30T06:59:59+00:00	-3	qy6d4phcssx0360@marketplace.amazon.com	Kimberly Miles	+1 480-618-5344 ext. 38712	ABR0066	Delivery by Wednesday | Arabella Bouquets 12 Stems of Fresh Cut White Roses in a Free Designer Glass Vase	1	0	1	Expedited	Chief Keith Humphrey	500 W MARKHAM ST			LITTLE ROCK	AR	72201-1415	US			false		
113-5595339-3288244	15786036594098	2020-09-27T18:18:01+00:00	2020-09-27T11:18:01-07:00	2020-09-28T04:22:20+00:00	2020-09-30T06:59:59+00:00	-3	dr27mcd565lc8w2@marketplace.amazon.com	Tuan Nguyen	+1 480-618-5344 ext. 28345	ABR0055	Delivery by Wednesday | Arabella Farm Direct Bouquet of 12 Stems of Fresh Cut Hot Pink Roses in a Free Designer Glass Vase	1	0	1	Expedited	Ha Tran	5346 MANDERSTON DR			SAN JOSE	CA	95138-2251	US		Happy Birthday, and best wishes! From Tuan Nguyen	false		
111-5796720-5261812	19653390624890	2020-09-28T04:05:48+00:00	2020-09-27T21:05:48-07:00	2020-09-28T04:34:28+00:00	2020-09-30T06:59:59+00:00	-3	2vdxkb8s6kvbm88@marketplace.amazon.com	michelle k bookout	+1 480-618-5344 ext. 64635	ABR012	Delivery by Wednesday | Arabella Farm Direct Bouquet of 18 Fresh Cut Pink Roses with a Free Glass Vase	1	0	1	Expedited	Anna Christensen	8145 SAWBACK TRL			COLORADO SPRINGS	CO	80919-4527	US		Happy Birthday Anna!!!!!  Lots of love, From Michelle and John	false		
112-4889455-6456216	00121394871866	2020-09-28T04:22:07+00:00	2020-09-27T21:22:07-07:00	2020-09-28T04:39:15+00:00	2020-09-30T06:59:59+00:00	-3	r3m4ychqkxgm54v@marketplace.amazon.com	Roberto Castro Cortes	+1 415-851-9136 ext. 44519	ABR0022	Delivery by Wednesday | Arabella Farm Direct Bouquet of 12 Fresh Cut Pink Roses with a Free Glass Vase	1	0	1	Expedited	Ma. Elena Cortes	2821 LA JOLLA DR			ANTIOCH	CA	94531-7103	US		¡Feliz cumpleaños!  Te mandamos nuestro cariño y un abrazo fuerte: Rafael, Daniel, Roberto M., Vero y Beto De Roberto Castro Cortes	false		
112-0328888-3648270	14294915294506	2020-09-28T04:36:51+00:00	2020-09-27T21:36:51-07:00	2020-09-28T05:04:18+00:00	2020-09-30T06:59:59+00:00	-3	xpg3bmcj4l9bhr5@marketplace.amazon.com	M. O'Neill	+1 602-671-6610 ext. 54850	ABM010	Delivery by Wednesday | The Spring Fling Bouquet by Arabella Bouquets with a Free Designer Glass Vase	1	0	1	Expedited	Sarah Odell	3953 SW KENYON ST			SEATTLE	WA	98136-2330	US		I hope you are feeling better and enjoying your shower.  Sorry I could not be there but I know you would have a good time.  Keep taking care of yourself and no more falling (that's my mo).  Love to you and Pat From Maureen	false		
