order-id	order-item-id	purchase-date	payments-date	reporting-date	promise-date	days-past-promise	buyer-email	buyer-name	buyer-phone-number	sku	product-name	quantity-purchased	quantity-shipped	quantity-to-ship	ship-service-level	recipient-name	ship-address-1	ship-address-2	ship-address-3	ship-city	ship-state	ship-postal-code	ship-country	gift-wrap-type	gift-message-text	is-business-order	purchase-order-number	price-designation
114-0249260-1521821	13116585377074	2020-09-29T18:31:20+00:00	2020-09-29T11:31:20-07:00	2020-09-29T18:32:18+00:00	2020-10-02T06:59:59+00:00	-3	7mpt85c0kgqyk0t@marketplace.amazon.com	deirdre riley	+1 602-671-6610 ext. 43746	ABR0022	Delivery by Friday | Arabella Farm Direct Bouquet of 12 Fresh Cut Pink Roses with a Free Glass Vase	1	0	1	Expedited	Ciara McCone	131 83RD ST			BROOKLYN	NY	11209-4309	US		Take a deep breath and relax ...:)  You’ve got this !  Love and Prayers ,  The Riley’s  ( all of us ) From deirdre riley	false		
113-6399927-4520248	62008411536282	2020-09-29T18:07:56+00:00	2020-09-29T11:07:56-07:00	2020-09-29T18:37:06+00:00	2020-10-02T06:59:59+00:00	-3	38dwjtpbrc2nrgm@marketplace.amazon.com	Scott Mullennax	+1 480-618-5344 ext. 12628	ABM010	Delivery by Friday | The Spring Fling Bouquet by Arabella Bouquets with a Free Designer Glass Vase	1	0	1	Expedited	Scott Mullennax	147 GAINES CREEK RD			CANADIAN	OK	74425-5100	US		Looking forward to meeting you! From Scott Mullennax	false		
111-6969546-5277029	48247905293074	2020-09-29T18:17:47+00:00	2020-09-29T11:17:47-07:00	2020-09-29T18:40:14+00:00	2020-10-02T06:59:59+00:00	-3	49y64xt2c3dsl97@marketplace.amazon.com	Michelle	+1 929-436-4790 ext. 34741	ABR001	Arabella Bouquets 12 Stems of Fresh Cut Red Roses in a Free Designer Glass Vase	1	0	1	Expedited	Kristen Kandeel	620 S FRANKLIN ST UNIT E-56			WEST CHESTER	PA	19383	US		Just because I love you.   Keep grinding and I know you will be rewarded for the great work you do! From Mitchell	false		
113-4678664-1065865	50197161348906	2020-09-29T18:33:37+00:00	2020-09-29T11:33:37-07:00	2020-09-29T18:56:05+00:00	2020-10-02T06:59:59+00:00	-3	xz0gb90wpwkzcwr@marketplace.amazon.com	Richie	+1 929-436-4790 ext. 78896	ABR0022	Delivery by Friday | Arabella Farm Direct Bouquet of 12 Fresh Cut Pink Roses with a Free Glass Vase	1	0	1	Expedited	Nadine Trautman	AYERS HEALTH REHAB CENTER	606 NE 7TH ST		TRENTON	FL	32693-3636	US		Happy Birthday Grandma!  I love you and I miss you! I hope you have a wonderful day! Love,  Mattie, your granddaughter From Richie, Mattie, Emma, and Abby	false		
112-5388015-6350628	26751760863698	2020-09-29T18:26:19+00:00	2020-09-29T11:26:19-07:00	2020-09-29T18:56:32+00:00	2020-10-02T06:59:59+00:00	-3	sb82wghlmytk7mc@marketplace.amazon.com	Amy Hansfield	+1 602-671-6610 ext. 69685	ABR0022	Delivery by Friday | Arabella Farm Direct Bouquet of 12 Fresh Cut Pink Roses with a Free Glass Vase	1	0	1	Expedited	Paul and Carol Meier	13667 RIVER VALLEY CT			CHESTERFIELD	MO	63017-2640	US		To brighten your day! 💕🌸🌺 From Amy	false		
111-3880255-9126641	29956422406458	2020-09-29T18:27:54+00:00	2020-09-29T11:27:54-07:00	2020-09-29T18:56:36+00:00	2020-10-02T06:59:59+00:00	-3	143lwhm4hq2jxvy@marketplace.amazon.com	Shari Lee Burke	+1 929-436-4790 ext. 07655	ABM022	Delivery by Friday | Purple Extravagance Bouquet by Arabella Bouquets	1	0	1	Expedited	Becky Simmons	9809 CLEAR LAKE CIR			NAPLES	FL	34109-0787	US		Thinking of you and sending our thoughts and prayers. Love you, Shari and Paul From Shari Lee Burke	false		
111-6716340-9397005	41304493965378	2020-09-29T18:35:06+00:00	2020-09-29T11:35:06-07:00	2020-09-29T19:00:38+00:00	2020-10-02T06:59:59+00:00	-3	n6sckkvwny65t79@marketplace.amazon.com	Gail L. Shepey	+1 480-618-5344 ext. 14904	ABR004	Arabella Farm Direct Bouquet of 12 Fresh Cut Yellow Roses with a Free Glass Vase	1	0	1	Expedited	june harrington	26 PATMORE RD			BRICK	NJ	08724-1940	US		so glad you are home. Stay well. Don't call me. I will call you when you are feeling better From love barb	false		
113-6733560-0358607	06666974744234	2020-09-29T18:43:41+00:00	2020-09-29T11:43:41-07:00	2020-09-29T19:02:12+00:00	2020-10-02T06:59:59+00:00	-3	jfc215w1rj84kh4@marketplace.amazon.com	Jason	+1 602-671-6610 ext. 11648	ABM010	Delivery by Friday | The Spring Fling Bouquet by Arabella Bouquets with a Free Designer Glass Vase	1	0	1	Expedited	Uncle John	8211 E VIA DE VIVA			SCOTTSDALE	AZ	85258-3201	US		Uncle John and Bobbi G,  We love you and miss you. From The Bieber’s	false		
113-5571623-3625041	10329887355818	2020-09-29T19:08:19+00:00	2020-09-29T12:08:19-07:00	2020-09-29T19:09:19+00:00	2020-10-02T06:59:59+00:00	-3	d7g947z8z5pg7qn@marketplace.amazon.com	Britain Redline	+1 480-618-5344 ext. 20404	ABR0022	Delivery by Friday | Arabella Farm Direct Bouquet of 12 Fresh Cut Pink Roses with a Free Glass Vase	1	0	1	Expedited	Patty Redline	504 RIDGE RD			NEWTON	NJ	07860-5230	US		Happy Birthday Mom (Tulip)!  We love you! From Britain Redline	false		
114-5531097-3494639	03158903347682	2020-09-29T18:40:01+00:00	2020-09-29T11:40:01-07:00	2020-09-29T19:10:02+00:00	2020-10-02T06:59:59+00:00	-3	r183lkmwb7x60ns@marketplace.amazon.com	Michael A Snopko	+1 602-671-6610 ext. 96693	ABR0066	Delivery by Friday | Arabella Bouquets 12 Stems of Fresh Cut White Roses in a Free Designer Glass Vase	1	0	1	Expedited	Angie Schilsky	1610 FAIR OAKS DR			WESTLAKE	TX	76262-8209	US			false		
114-6387336-0518626	62785123042122	2020-09-29T19:20:01+00:00	2020-09-29T12:20:01-07:00	2020-09-29T19:41:56+00:00	2020-10-02T06:59:59+00:00	-3	hx6f1qdw7dzbzx2@marketplace.amazon.com	Wilma MacElree	+1 602-671-6610 ext. 24429	ABR0022	Delivery by Friday | Arabella Farm Direct Bouquet of 12 Fresh Cut Pink Roses with a Free Glass Vase	1	0	1	Expedited	Danielle Rogovich	18 ALMONT ST			WINTHROP	MA	02152-1106	US		Danielle, Enjoy your gift! Thank you for your kind hospitality. Love, Wilma From Wilma MacElree	false		
112-4800206-6379459	38178051263738	2020-09-29T20:08:29+00:00	2020-09-29T13:08:29-07:00	2020-09-29T20:33:50+00:00	2020-10-01T06:59:59+00:00	-2	3tnl7b08pqpdhmh@marketplace.amazon.com	Humberto	+1 415-851-9136 ext. 55335	ABR0055	Delivery by Friday | Arabella Farm Direct Bouquet of 12 Stems of Fresh Cut Hot Pink Roses in a Free Designer Glass Vase	1	0	1	SecondDay	Humberto E. Diaz	372 FOREST AVE			LOCUST VALLEY	NY	11560	US		Paola  Happy Anniversary my love! From Humberto	false		
