order-id	order-item-id	purchase-date	payments-date	reporting-date	promise-date	days-past-promise	buyer-email	buyer-name	buyer-phone-number	sku	product-name	quantity-purchased	quantity-shipped	quantity-to-ship	ship-service-level	recipient-name	ship-address-1	ship-address-2	ship-address-3	ship-city	ship-state	ship-postal-code	ship-country	gift-wrap-type	gift-message-text	is-business-order	purchase-order-number	price-designation
112-9179548-1573003	11607673036570	2020-09-28T17:55:01+00:00	2020-09-28T10:55:01-07:00	2020-09-28T18:24:45+00:00	2020-10-01T06:59:59+00:00	-2	4kf7q3yms0czx6x@marketplace.amazon.com	charlotte stangry	+1 415-851-9136 ext. 85743	ABR0022	Delivery by Thursday | Arabella Farm Direct Bouquet of 12 Fresh Cut Pink Roses with a Free Glass Vase	1	0	1	Expedited	Lueverne Meek	124 S 8TH ST			HAINES CITY	FL	33844-5220	US			false		
113-0294130-0091436	31245130654674	2020-09-28T18:10:58+00:00	2020-09-28T11:10:58-07:00	2020-09-28T18:36:16+00:00	2020-10-01T06:59:59+00:00	-2	ly3b2fknqbj0334@marketplace.amazon.com	Angela M. Dunne	+1 602-671-6610 ext. 84912	ABM020	Delivery by Thursday | The Sunset Bouquet by Arabella Bouquets	1	0	1	Expedited	Dawn Dunne	47648 W ANN ARBOR TRL			PLYMOUTH	MI	48170-3324	US		Get well soon! Maybe don’t leave the house until January 1st. We love you Dawnie From Mickey and Angela Dunne	false		
112-9272685-5616248	61103063793242	2020-09-28T18:27:47+00:00	2020-09-28T11:27:47-07:00	2020-09-28T18:58:04+00:00	2020-10-01T06:59:59+00:00	-2	vc070b555lxvnp4@marketplace.amazon.com	sherlyn denise	+1 480-618-5344 ext. 26870	ABR0066	Delivery by Thursday | Arabella Bouquets 12 Stems of Fresh Cut White Roses in a Free Designer Glass Vase	1	0	1	Expedited	Suzie Wilhelm	51 ISLAND WAY APT 103			CLEARWATER	FL	33767-2212	US			false		
112-6003694-9921021	32145773487394	2020-09-28T18:37:26+00:00	2020-09-28T11:37:26-07:00	2020-09-28T19:05:11+00:00	2020-10-01T06:59:59+00:00	-2	mtwgzcmd7h96dyd@marketplace.amazon.com	deepikaphakke	+1 929-436-4790 ext. 36977	ABR0066	Delivery by Thursday | Arabella Bouquets 12 Stems of Fresh Cut White Roses in a Free Designer Glass Vase	1	0	1	Expedited	Apeksha Raju	777 CROSS CREEK DR APT A			SAINT LOUIS	MO	63141-6583	US			false		
113-0933616-0529059	62931802265146	2020-09-28T18:41:29+00:00	2020-09-28T11:41:29-07:00	2020-09-28T19:08:16+00:00	2020-10-01T06:59:59+00:00	-2	nnm9mvtbrxjc6x1@marketplace.amazon.com	Alan Davis	+1 415-851-9136 ext. 49018	ABR012	Arabella Farm Direct Bouquet of 18 Fresh Cut Pink Roses with a Free Glass Vase	1	0	1	Expedited	Martha Robinson	PRESTIGE AUBURN MEADOWS ASSISTED LIVING	945 22ND ST NE APT 151		AUBURN	WA	98002-2891	US		Happy Birthday Aunt Martha, Love you Diana and Alan Davis....Enjoy your gift! From Alan Davis	false		
111-3965583-8479464	16145846217514	2020-09-28T18:44:53+00:00	2020-09-28T11:44:53-07:00	2020-09-28T19:15:27+00:00	2020-10-01T06:59:59+00:00	-2	qy4s2c7hqqc5ww2@marketplace.amazon.com	galie	505 231 536	ABR0022	Delivery by Thursday | Arabella Farm Direct Bouquet of 12 Fresh Cut Pink Roses with a Free Glass Vase	1	0	1	Expedited	Vinod Batra	5914 KIRKWYND COMMONS DR			CHARLOTTE	NC	28278-6661	US			false		
111-4548992-7751435	20460843122746	2020-09-28T19:01:00+00:00	2020-09-28T12:01:00-07:00	2020-09-28T19:28:22+00:00	2020-10-01T06:59:59+00:00	-2	yjqn3lpsyz6z3z7@marketplace.amazon.com	Patricia W. Cochrane	+1 929-436-4790 ext. 47349	ABR0022	Delivery by Thursday | Arabella Farm Direct Bouquet of 12 Fresh Cut Pink Roses with a Free Glass Vase	1	0	1	Expedited	Emma McCarl	4910 HONEYLORE CT			LOUISVILLE	KY	40241-4854	US		Happy 18th Birthday to a lovely young lady! Love, Grandma Pat & Grandpa Doug From Patricia W. Cochrane	false		
113-1460228-9348256	53380199754706	2020-09-28T19:08:07+00:00	2020-09-28T12:08:07-07:00	2020-09-28T19:37:41+00:00	2020-10-01T06:59:59+00:00	-2	ncsc4bg9kccylpk@marketplace.amazon.com	Sandra Page Mitchell	+1 480-618-5344 ext. 12248	ABM0044	Delivery by Thursday | Arabella Farm Direct Bouquet of Fresh Cut Blue Hydrangea with a Free Glass Vase	1	0	1	Expedited	Jane Lanzillo	611 JASMINE LN SW			SUNSET BEACH	NORTH CAROLINA	28468-5318	US		Mom, Have a wonderful start to your Birthday month!!! Love from California xoxoxo, Sandra, Chris, Bailey + Emma From Sandra Page Mitchell	false		
114-1216517-2585832	48886263600946	2020-09-28T19:28:52+00:00	2020-09-28T12:28:52-07:00	2020-09-28T19:54:25+00:00	2020-10-01T06:59:59+00:00	-2	0br287p7wvgnhs7@marketplace.amazon.com	Rosita Bower-Eyer	+1 415-851-9136 ext. 85846	ABR0022	Delivery by Thursday | Arabella Farm Direct Bouquet of 12 Fresh Cut Pink Roses with a Free Glass Vase	1	0	1	Expedited	Angela Casey	420 S YORK RD UNIT 37			HATBORO	PA	19040-3974	US		Feliz Cumpleanos ! From Rosita Bower-Eyer and Angela Eyer	false		
112-8555355-1578626	06545159610218	2020-09-28T19:48:20+00:00	2020-09-28T12:48:20-07:00	2020-09-28T20:16:11+00:00	2020-10-01T06:59:59+00:00	-2	gmj2pfpxvyx3szg@marketplace.amazon.com	Fern Entrekin	+1 602-671-6610 ext. 80881	ABR0066	Delivery by Thursday | Arabella Bouquets 12 Stems of Fresh Cut White Roses in a Free Designer Glass Vase	1	0	1	Expedited	Heather McKeown	50 EAST RD APT 5G			DELRAY BEACH	FL	33483-7036	US			false		
111-8508745-0989049	46857060992042	2020-09-28T20:03:58+00:00	2020-09-28T13:03:58-07:00	2020-09-28T20:21:56+00:00	2020-10-01T06:59:59+00:00	-2	x1l6trsndf5wntm@marketplace.amazon.com	Kirsten Chapman	+1 415-851-9136 ext. 97934	ABR0022	Delivery by Thursday | Arabella Farm Direct Bouquet of 12 Fresh Cut Pink Roses with a Free Glass Vase	1	0	1	Expedited	Ms. Miriam Ahlstrand	1102 WILLOW BROOK PT			MOUNT JULIET	TN	37122-2040	US		Dear Miriam,  So sorry over the loss of your father.  It was so good of you to be by his side with your mother & family.  What a loving daughter you were to him, and are to your mother.  Kirsten From Kirsten Chapman	false		
112-0143337-8181805	10575977906770	2020-09-28T19:39:38+00:00	2020-09-28T12:39:38-07:00	2020-09-28T20:21:57+00:00	2020-10-01T06:59:59+00:00	-2	bjtydsfq2pb7h59@marketplace.amazon.com	Joey Diaz	+1 415-851-9136 ext. 07191	ABM010	Delivery by Thursday | The Spring Fling Bouquet by Arabella Bouquets with a Free Designer Glass Vase	1	0	1	Expedited	Anjoe S.	8359 CHERIMOYA AVE			FONTANA	CA	92335-3206	US		Hi :).. Anjoe just want to tell you that your the most beautifull person in the world.  I wish i could take them myself but i know you can't have contact. But I hope they bring a smile to you cute ways.lightofday see you soon From Joey Diaz	false		
112-8371391-4477832	51866819231010	2020-09-28T20:07:02+00:00	2020-09-28T13:07:02-07:00	2020-09-28T20:32:29+00:00	2020-10-01T06:59:59+00:00	-2	0hj3lzvpsj6b8tv@marketplace.amazon.com	Mallory	+1 929-436-4790 ext. 05522	ABR012	Arabella Farm Direct Bouquet of 18 Fresh Cut Pink Roses with a Free Glass Vase	1	0	1	Expedited	Shirine Rouhi	1579 PROVIDENCE CIR			ORLANDO	FL	32818-5626	US		We're so sorry you lost your Mother. We love you. From Mallory & Ciera	false		
111-8637913-8901845	60553324442570	2020-09-28T20:40:31+00:00	2020-09-28T13:40:31-07:00	2020-09-28T20:41:33+00:00	2020-10-01T06:59:59+00:00	-2	x1l6trsndf5wntm@marketplace.amazon.com	Kirsten Chapman	+1 415-851-9136 ext. 31184	ABR0022	Delivery by Thursday | Arabella Farm Direct Bouquet of 12 Fresh Cut Pink Roses with a Free Glass Vase	1	0	1	Expedited	Ms. Nancy Livngston	614 VILLAGE CT			NASHVILLE	TN	37206-3137	US		Dear Nancy, I was a classmate & a Theta w/ your Aunt Betsey at N.U. I’m looking forward to meeting you, Steve & little Ulysses!   Nashville is lucky to have you all!   Kirsten Chapman:-) From Kirsten Chapman	false		
113-9664146-6069001	34716421157250	2020-09-28T20:37:44+00:00	2020-09-28T13:37:44-07:00	2020-09-28T20:55:52+00:00	2020-10-01T06:59:59+00:00	-2	zj556t4bqm5j5vq@marketplace.amazon.com	Rich Rice	+1 929-436-4790 ext. 64981	ABR004	Arabella Farm Direct Bouquet of 12 Fresh Cut Yellow Roses with a Free Glass Vase	1	0	1	Expedited	LaHollis Hill c/o Arkansas School for the Deaf	2400 W MARKHAM ST			LITTLE ROCK	AR	72205-6129	US		From the sexiest guy you know right now...  Love, From Rich	false		
113-5829631-3467460	39993755507866	2020-09-28T20:46:56+00:00	2020-09-28T13:46:56-07:00	2020-09-28T21:08:11+00:00	2020-10-01T06:59:59+00:00	-2	zks2lx02z7ftkyf@marketplace.amazon.com	Robert and Sue Wilbarg	+1 929-436-4790 ext. 07692	ABR0022	Delivery by Thursday | Arabella Farm Direct Bouquet of 12 Fresh Cut Pink Roses with a Free Glass Vase	1	0	1	Standard	Kerrie Nilson	10 HOAGLAND AVE			ROCKAWAY	NJ	07866-3012	US		Happy Birthday Kerrie. Lots of hugs and good wishes From Love Sam and Sue	false		
114-7082587-8009039	04609778671338	2020-09-28T20:43:38+00:00	2020-09-28T13:43:38-07:00	2020-09-28T21:12:43+00:00	2020-10-01T06:59:59+00:00	-2	y8l65c5ffjjdkx3@marketplace.amazon.com	Donna Robinson ott	+1 480-618-5344 ext. 62958	ABR0055	Delivery by Thursday | Arabella Farm Direct Bouquet of 12 Stems of Fresh Cut Hot Pink Roses in a Free Designer Glass Vase	1	0	1	Expedited	Nick Robinson	12606 MCMULLEN HWY SW APT 3			CUMBERLAND	MD	21502-5193	US		Morgan, I hope you feel better soon!!   I hope these brighten your day  Enjoy your gift! From Donna Robinson ott	false		
113-2517913-4591407	13982754008586	2020-09-28T20:45:39+00:00	2020-09-28T13:45:39-07:00	2020-09-28T21:15:16+00:00	2020-10-01T06:59:59+00:00	-2	bn9100kbrjnbf6x@marketplace.amazon.com	Susan Falevitch	+1 929-436-4790 ext. 90206	ABR0033	Delivery by Thursday | Arabella Farm Direct Bouquet of 12 Fresh Cut Orange Roses with a Free Glass Vase	1	0	1	Expedited	Linda Howard	11080 E PINAL VIS			TUCSON	AZ	85730-1520	US			false		
114-1727487-7993046	08413381682978	2020-09-28T20:56:48+00:00	2020-09-28T13:56:48-07:00	2020-09-28T21:21:59+00:00	2020-10-01T06:59:59+00:00	-2	3byl9dsz961qtrx@marketplace.amazon.com	shirley anne elliott	+1 480-618-5344 ext. 78553	ABM020	Delivery by Thursday | The Sunset Bouquet by Arabella Bouquets	1	0	1	Expedited	michele o'rourke	1651 W MESA AVE			FRESNO	CA	93711-1946	US		Happy Birthday Lots of love, A Shirley From shirley anne elliott	false		
114-6313603-3637064	46554768843498	2020-09-28T21:26:44+00:00	2020-09-28T14:26:44-07:00	2020-09-28T21:37:48+00:00	2020-10-01T06:59:59+00:00	-2	bnfd3qlk15mf1sj@marketplace.amazon.com	Anne Brichacek	+1 929-436-4790 ext. 88017	ABM022	Purple Extravagance Bouquet by Arabella Bouquets	1	0	1	Expedited	Ginny Wallace	1761 MAGNOLIA WAY			WALNUT CREEK	CA	94595-1449	US		Happy Birthday! To health and friendship and better days ahead...! Love, Anne From Anne Brichacek	false		
114-4746688-9129839	56752006921378	2020-09-28T21:13:52+00:00	2020-09-28T14:13:52-07:00	2020-09-28T21:41:29+00:00	2020-10-01T06:59:59+00:00	-2	pmwbtmltpc1b8sj@marketplace.amazon.com	Rondi Miller	+1 602-671-6610 ext. 22504	ABM022	Purple Extravagance Bouquet by Arabella Bouquets	1	0	1	Expedited	Claudia Miller	4080 N STRATFORD DR			BOISE	ID	83704-3350	US			false		
111-2146766-2416245	69758033423898	2020-09-28T21:22:12+00:00	2020-09-28T14:22:12-07:00	2020-09-28T21:52:22+00:00	2020-10-01T06:59:59+00:00	-2	3yy0kn6b7whhzvj@marketplace.amazon.com	Cheryl Colgin	+1 602-671-6610 ext. 08846	ABR0022	Delivery by Thursday | Arabella Farm Direct Bouquet of 12 Fresh Cut Pink Roses with a Free Glass Vase	1	0	1	Expedited	Nick I Skinner	17929 TRIBUNE PL			GRANADA HILLS	CA	91344-4419	US			false		
113-3767558-6828269	17899168145866	2020-09-28T21:30:02+00:00	2020-09-28T14:30:02-07:00	2020-09-28T21:54:27+00:00	2020-10-01T06:59:59+00:00	-2	8q9nb44l49wf1tj@marketplace.amazon.com	Carissa	+1 602-671-6610 ext. 42263	ABR0022	Delivery by Thursday | Arabella Farm Direct Bouquet of 12 Fresh Cut Pink Roses with a Free Glass Vase	1	0	1	Expedited	Lyndia Roehler	504 ASHTON PL NE			JACKSONVILLE	AL	36265-2695	US		~Happy Birthday, Beautiful Maude!~Hope these Roses bring a smile to your face, & are as beautiful as you are!~We Love You very much with all of our Heart~XoXo’s~ From All of our Love, Daught & Tom~ From Love, Daught & Tom~	false		
113-3903967-0283466	11997529194354	2020-09-28T21:28:18+00:00	2020-09-28T14:28:18-07:00	2020-09-28T21:54:37+00:00	2020-10-01T06:59:59+00:00	-2	t6jn51hfjqfxtff@marketplace.amazon.com	esther	+1 480-618-5344 ext. 28324	ABR0022	Delivery by Thursday | Arabella Farm Direct Bouquet of 12 Fresh Cut Pink Roses with a Free Glass Vase	1	0	1	Expedited	Ginny ahlen	134 GUILDFORD DR			GOOSE CREEK	SC	29445-7061	US		HAPPY BIRTHDAY  LOVE MOMMY & DAD From esther	false		
114-7675015-2456255	27573680452282	2020-09-28T21:28:15+00:00	2020-09-28T14:28:15-07:00	2020-09-28T21:58:25+00:00	2020-10-01T06:59:59+00:00	-2	qxfvdbdd6tcdsnd@marketplace.amazon.com	rebecca	07449901284	ABR0022	Delivery by Thursday | Arabella Farm Direct Bouquet of 12 Fresh Cut Pink Roses with a Free Glass Vase	1	0	1	Expedited	Andrew Glasspoole	6134 SIERRA LEON			AUSTIN	TX	78759-3991	US			false		
113-4970202-2873028	23187970103922	2020-09-28T21:44:35+00:00	2020-09-28T14:44:35-07:00	2020-09-28T22:09:14+00:00	2020-10-01T06:59:59+00:00	-2	zks2lx02z7ftkyf@marketplace.amazon.com	Robert and Sue Wilbarg	+1 415-851-9136 ext. 13082	ABR0022	Delivery by Thursday | Arabella Farm Direct Bouquet of 12 Fresh Cut Pink Roses with a Free Glass Vase	1	0	1	Expedited	Dorothy Lloyd	2353 DEVON ST			EAST MEADOW	NY	11554-3003	US		Happy Birthday lovely lady. We love you. From Sue and Bob	false		
111-0382318-5087463	12240177261650	2020-09-28T21:47:32+00:00	2020-09-28T14:47:32-07:00	2020-09-28T22:13:56+00:00	2020-10-01T06:59:59+00:00	-2	vp02zb77rvtggqp@marketplace.amazon.com	Randy Hartman	+1 602-671-6610 ext. 71193	ABR0022	Delivery by Thursday | Arabella Farm Direct Bouquet of 12 Fresh Cut Pink Roses with a Free Glass Vase	1	0	1	Expedited	Mrs. Sandy Arehart	4197 CARONDELET DR			BEAVERCREEK	OH	45440-3214	US		Thinking of you guys From Noris and Randy	false		
111-3933587-9094639	15670144794802	2020-09-28T22:03:10+00:00	2020-09-28T15:03:10-07:00	2020-09-28T22:32:21+00:00	2020-10-01T06:59:59+00:00	-2	7mdncfttrqpqdx2@marketplace.amazon.com	Coral Kisseberth	+1 480-618-5344 ext. 20245	ABR0033	Delivery by Thursday | Arabella Farm Direct Bouquet of 12 Fresh Cut Orange Roses with a Free Glass Vase	1	0	1	Expedited	Ann Kisseberth	40 FIELDSTONE LN			BEACON FALLS	CT	06403-1481	US		Dear Mom/Grandma Kissy, Happy Birthday!!  We love you and miss you dearly.  Enjoy your day.  Love, Mike, Coral, Jack, Camille and Danielle From Mike and Coral Kisseberth	false		
111-7589479-0099462	33855187110650	2020-09-28T22:10:43+00:00	2020-09-28T15:10:43-07:00	2020-09-28T22:38:41+00:00	2020-10-01T06:59:59+00:00	-2	53ywynzy4yj2h03@marketplace.amazon.com	Genna	+1 602-671-6610 ext. 74466	ABM022	Purple Extravagance Bouquet by Arabella Bouquets	1	0	1	Expedited	Alysse Quin	10515 NE 48TH PL			KIRKLAND	WA	98033-7607	US		Happy 18th Birthday Alysse !!! We hope you have a fab day. Go chase some dreams!! From Much love, Deb and Mel Jackson xxx	false		
112-2296778-1289018	40471999895778	2020-09-28T22:10:06+00:00	2020-09-28T15:10:06-07:00	2020-09-28T22:39:55+00:00	2020-10-01T06:59:59+00:00	-2	1cf6841tx8gxmnm@marketplace.amazon.com	Brent Papworth	+1 480-618-5344 ext. 13443	ABR001	Delivery by Thursday | Arabella Bouquets 12 Stems of Fresh Cut Red Roses in a Free Designer Glass Vase	1	0	1	Expedited	Brent Papworth	2967 N TEGAN CIR			IDAHO FALLS	IDAHO	83401-5032	US			false		
114-8232851-1030628	65648361858298	2020-09-28T22:13:45+00:00	2020-09-28T15:13:45-07:00	2020-09-28T22:44:20+00:00	2020-10-01T06:59:59+00:00	-2	kn26ygldt265rxb@marketplace.amazon.com	Oliva Glenn	+1 480-618-5344 ext. 58161	ABM022	Purple Extravagance Bouquet by Arabella Bouquets	1	0	1	Expedited	Jule Glenn	14419 TRISKETT RD APT 103S			CLEVELAND	OH	44111-2261	US		Happy Birthday Mama Jule..  Enjoy your gift! From Oliva Glenn	false		
112-8383743-3106624	59486272419714	2020-09-28T22:20:49+00:00	2020-09-28T15:20:49-07:00	2020-09-28T22:44:55+00:00	2020-10-01T06:59:59+00:00	-2	zrvwxbmzrgjmhx5@marketplace.amazon.com	Sheila Brenner	+1 602-671-6610 ext. 75565	ABR0033	Delivery by Thursday | Arabella Farm Direct Bouquet of 12 Fresh Cut Orange Roses with a Free Glass Vase	1	0	1	Expedited	Mackinsey DellaMaggiora	2157 LaDawn Lane			Atlanta	Georgia	30318	US			false		
111-5863997-9649854	00179540535858	2020-09-28T22:34:40+00:00	2020-09-28T15:34:40-07:00	2020-09-28T23:03:27+00:00	2020-10-01T06:59:59+00:00	-2	2ndc48hx7mqs5rp@marketplace.amazon.com	Scott Powell	+1 929-436-4790 ext. 07752	ABR0033	Delivery by Thursday | Arabella Farm Direct Bouquet of 12 Fresh Cut Orange Roses with a Free Glass Vase	1	0	1	Expedited	Sharon Powell	4304 N TAYLOR AVE			DECATUR	ILLINOIS	62526-9312	US		Hi mom,  happy birthday! Enjoy the flowers 💐! From Scott Powell	false		
113-2044149-6725013	03473258341562	2020-09-28T22:44:20+00:00	2020-09-28T15:44:20-07:00	2020-09-28T23:14:04+00:00	2020-10-01T06:59:59+00:00	-2	gwz8gx7mcq1ws3j@marketplace.amazon.com	Jonathan Finman	+1 480-618-5344 ext. 06350	ABR0033	Delivery by Thursday | Arabella Farm Direct Bouquet of 12 Fresh Cut Orange Roses with a Free Glass Vase	1	0	1	Expedited	Jonathan Finman	40 Daniel Trce			Burlington	CT	06013-1533	US			false		
112-5589742-2464203	52753203967986	2020-09-28T22:56:19+00:00	2020-09-28T15:56:19-07:00	2020-09-28T23:22:36+00:00	2020-10-01T06:59:59+00:00	-2	5hyrj0x9chg3m0h@marketplace.amazon.com	Carla	+1 602-671-6610 ext. 66861	ABM022	Purple Extravagance Bouquet by Arabella Bouquets	1	0	1	Expedited	Meybell Eva de Sermeño	4344 ALTAMIRA CAVE DR			NORTH LAS VEGAS	NV	89031-3445	US		Meybell, deseo te recuperes pronto,saludos a tu familia  Con cariño Elba López From Elba Lopez	false		
111-6160668-7837862	05845090924578	2020-09-28T22:55:13+00:00	2020-09-28T15:55:13-07:00	2020-09-28T23:23:39+00:00	2020-10-01T06:59:59+00:00	-2	ltngdj0wzck71xv@marketplace.amazon.com	Malissa	+1 929-436-4790 ext. 43674	ABR0022	Delivery by Thursday | Arabella Farm Direct Bouquet of 12 Fresh Cut Pink Roses with a Free Glass Vase	1	0	1	Expedited	Mrs. Malissa Mitchell	7630 W BRUNO AVE			MAPLEWOOD	MO	63117-2155	US		Happy Birthday to my favorite Centenarian! Miss and Love you Nana! From Malissa	false		
112-4442133-0800202	53964054048274	2020-09-28T23:01:07+00:00	2020-09-28T16:01:07-07:00	2020-09-28T23:28:43+00:00	2020-10-01T06:59:59+00:00	-2	7pl3ydkqck3kv00@marketplace.amazon.com	Mike Warren	+1 602-671-6610 ext. 71422	ABR0022	Delivery by Thursday | Arabella Farm Direct Bouquet of 12 Fresh Cut Pink Roses with a Free Glass Vase	1	0	1	Expedited	Coldwell Banker	447 BOSTON POST RD			SUDBURY	MA	01776-3055	US		Enjoy your Retirement           mb🥰💕 From Mike Warren	false		
112-7077906-5901063	27172290808802	2020-09-28T23:13:25+00:00	2020-09-28T16:13:25-07:00	2020-09-28T23:34:02+00:00	2020-10-01T06:59:59+00:00	-2	j15q2z42cc3tlqr@marketplace.amazon.com	Nicholos Cole	+1 602-671-6610 ext. 00266	ABR001	Delivery by Thursday | Arabella Bouquets 12 Stems of Fresh Cut Red Roses in a Free Designer Glass Vase	1	0	1	Expedited	Julie Jacobs	JW MARRIOTT CAMELBACK INN	5402 E LINCOLN DR		SCOTTSDALE	AZ	85253-4118	US		Just want to say I miss and Love you very much Mrs Julia Jacobs-Cole... x0x0 From Your husband Nicholos Cole	false		
114-3173629-6204229	70199513463618	2020-09-28T23:19:24+00:00	2020-09-28T16:19:24-07:00	2020-09-28T23:48:46+00:00	2020-10-01T06:59:59+00:00	-2	7h9149gqfc73tcf@marketplace.amazon.com	claudia rice	+1 415-851-9136 ext. 46458	ABR0022	Delivery by Thursday | Arabella Farm Direct Bouquet of 12 Fresh Cut Pink Roses with a Free Glass Vase	1	0	1	Expedited	Jackie Rice	15 SAINT LUKES RD			ALLSTON	MA	02134-3119	US		Happy Birthday  Love Mom & Dad From claudia rice	false		
112-6935260-1234667	27644044818522	2020-09-28T23:21:36+00:00	2020-09-28T16:21:36-07:00	2020-09-28T23:50:52+00:00	2020-10-01T06:59:59+00:00	-2	syjh2y0z9v28g53@marketplace.amazon.com	Paula	+1 602-671-6610 ext. 59352	ABR0066	Delivery by Thursday | Arabella Bouquets 12 Stems of Fresh Cut White Roses in a Free Designer Glass Vase	1	0	1	Expedited	Loy and Judy Coffey	81259 AVENIDA TRES LAGUNAS			INDIO	CA	92203-7546	US			false		
113-0281703-4279406	22065574356522	2020-09-28T23:36:55+00:00	2020-09-28T16:36:55-07:00	2020-09-29T00:07:30+00:00	2020-10-01T06:59:59+00:00	-2	l0spmy1nc4bkpkd@marketplace.amazon.com	Adele Leibowitz	+1 480-618-5344 ext. 92822	ABR0022	Delivery by Thursday | Arabella Farm Direct Bouquet of 12 Fresh Cut Pink Roses with a Free Glass Vase	1	0	1	Expedited	Grace Zwillenberg	2731 E 65TH ST			BROOKLYN	NY	11234-6855	US			false		
113-3938751-5026602	69370803917738	2020-09-28T23:41:19+00:00	2020-09-28T16:41:19-07:00	2020-09-29T00:08:49+00:00	2020-10-01T06:59:59+00:00	-2	gk1t2qty7tkdq5z@marketplace.amazon.com	Daniel Bickram	+1 480-618-5344 ext. 54470	ABM002	Delivery by Thursday | Arabella Bouquets Fresh Cut White Calla Lilies in a Free Designer Glass Vase	1	0	1	Expedited	Brandon Martin	2710 N OCEAN BLVD RM 328			MYRTLE BEACH	SC	29577-3052	US		I aint ya friend, believe that. Imma love u always. I hope this makes ur nee home a better place and think of me when u c these From Daniel Bickram	false		
112-6501614-2691439	03673258283090	2020-09-28T23:48:29+00:00	2020-09-28T16:48:29-07:00	2020-09-29T00:16:58+00:00	2020-10-01T06:59:59+00:00	-2	pxng8cvngkwq2fy@marketplace.amazon.com	jasmine patten	+1 929-436-4790 ext. 44531	ABR0022	Delivery by Thursday | Arabella Farm Direct Bouquet of 12 Fresh Cut Pink Roses with a Free Glass Vase	1	0	1	Expedited	Makeda Pennycooke	3725 EASTOVER RIDGE DR APT 1211			CHARLOTTE	NC	28211-1581	US		Wishing you grace and ease in this new chapter of your life.  May it be filled with lots of love, support, magic and possibilities!!  Sending you so much love <3 From jasmine patten	true		Business Price
113-5429247-5554654	44323600251626	2020-09-28T23:50:45+00:00	2020-09-28T16:50:45-07:00	2020-09-29T00:17:29+00:00	2020-10-01T06:59:59+00:00	-2	h806482rhhnhy5g@marketplace.amazon.com	Amy Bridenstine	+1 602-671-6610 ext. 78172	ABM010	Delivery by Thursday | The Spring Fling Bouquet by Arabella Bouquets with a Free Designer Glass Vase	1	0	1	Expedited	Carol Niemeyer	4377 80TH ST			FRANKSVILLE	WI	53126-9613	US		Hope you are on the mend soon Grandma!                                 Love,                                Evelyn From Evelyn, Amy and Andy	false		
111-7458692-0157017	26738938643642	2020-09-29T00:18:12+00:00	2020-09-28T17:18:12-07:00	2020-09-29T00:47:14+00:00	2020-10-01T06:59:59+00:00	-2	sn0m9r6s3pw5jwt@marketplace.amazon.com	Stephani Itzel Hernandez Toledo	0012133001376	ABM010	Delivery by Thursday | The Spring Fling Bouquet by Arabella Bouquets with a Free Designer Glass Vase	1	0	1	Expedited	ERENDIRA MENDEZ	1422 S WESTMORELAND AVE			LOS ANGELES	CA	90006-4629	US		Felíz cumpleaños Erendira, te queremos mucho!!! Espero que te guste tu regalo. De Familia Hernandez Toledo	false		
111-2352250-7048230	53222605471210	2020-09-29T00:23:44+00:00	2020-09-28T17:23:44-07:00	2020-09-29T00:49:40+00:00	2020-10-01T06:59:59+00:00	-2	8x3w3b4qpbrz21h@marketplace.amazon.com	Kelly A. Dehner	+1 929-436-4790 ext. 66993	ABM022	Purple Extravagance Bouquet by Arabella Bouquets	1	0	1	Standard	Bobbi Dehner	1396 ROBYN CT			OSAGE BEACH	MO	65065-3366	US		In loving memory of your sister, Judy, Leo and Kelly, Fred, Blaise, Leo, Georgia, Chloe and Julia From Kelly A. Dehner	false		
113-4213017-8731410	16094161976194	2020-09-29T00:39:17+00:00	2020-09-28T17:39:17-07:00	2020-09-29T00:59:41+00:00	2020-10-01T06:59:59+00:00	-2	ft7r7ls3c67p13m@marketplace.amazon.com	kogler	+1 415-851-9136 ext. 21264	ABR0022	Delivery by Thursday | Arabella Farm Direct Bouquet of 12 Fresh Cut Pink Roses with a Free Glass Vase	1	0	1	Expedited	Susan and Michael Kogler	11096 BLACK FIRE OPAL DR			LAS VEGAS	NV	89138-6198	US		Dear Susie and Mikey, What an awesome gift! I am thrilled, you are so generous! God Bless and Many Thank Yous! Love,  Mom From kogler	false		
114-3958444-6245052	06602806842138	2020-09-29T00:49:18+00:00	2020-09-28T17:49:18-07:00	2020-09-29T01:12:53+00:00	2020-10-01T06:59:59+00:00	-2	dww1yrlpqw1pdf4@marketplace.amazon.com	Kristina Underthun	+1 480-618-5344 ext. 86515	ABR0022	Delivery by Thursday | Arabella Farm Direct Bouquet of 12 Fresh Cut Pink Roses with a Free Glass Vase	1	0	1	Expedited	Mary McDevitt	610 W ELM AVE  219			MONROE	MI	48162-7909	US		I love you forever, for always, carry on my sweet sister. From Love, Mary	false		
114-0692658-2776249	30285569457522	2020-09-29T00:54:44+00:00	2020-09-28T17:54:44-07:00	2020-09-29T01:21:46+00:00	2020-10-01T06:59:59+00:00	-2	dww1yrlpqw1pdf4@marketplace.amazon.com	Kristina Underthun	+1 929-436-4790 ext. 71547	ABR0022	Delivery by Thursday | Arabella Farm Direct Bouquet of 12 Fresh Cut Pink Roses with a Free Glass Vase	1	0	1	Expedited	Elizabeth Boss	2633 GROVE CIR			COMMERCE TOWNSHIP	MI	48382-3595	US		I love you forever, for always, carry on my sweet sister. From Love, Mary	false		
112-0247264-8284236	56162158061546	2020-09-29T00:56:00+00:00	2020-09-28T17:56:00-07:00	2020-09-29T01:26:27+00:00	2020-10-01T06:59:59+00:00	-2	q3fw7ysr8dclglc@marketplace.amazon.com	ThunderACE234	+1 480-618-5344 ext. 74642	ABR0022	Delivery by Thursday | Arabella Farm Direct Bouquet of 12 Fresh Cut Pink Roses with a Free Glass Vase	1	0	1	Expedited	Stacey Foley	1 ROSE HILL DR			BLUFFTON	SC	29910-4720	US			false		
114-3464277-1997854	65203299822394	2020-09-29T01:03:16+00:00	2020-09-28T18:03:16-07:00	2020-09-29T01:30:11+00:00	2020-10-01T06:59:59+00:00	-2	v21qnhtlnwhrq6g@marketplace.amazon.com	Sheryl Nimtz	+1 602-671-6610 ext. 36450	ABM022	Purple Extravagance Bouquet by Arabella Bouquets	1	0	1	Expedited	Sadi Stonehocker	10357 TREASURE CT			MISSOULA	MT	59808-9652	US		Hi Sadi,   HaPpY BiRtHdAY! We love you!  Love, Sheryl, Chris and Bayleigh!	false		
114-2055805-9419463	23837615342026	2020-09-29T01:33:27+00:00	2020-09-28T18:33:27-07:00	2020-09-29T01:56:23+00:00	2020-10-01T06:59:59+00:00	-2	l25dph50rz0hjvn@marketplace.amazon.com	tamara kwinn	+1 480-618-5344 ext. 52336	ABR0022	Delivery by Thursday | Arabella Farm Direct Bouquet of 12 Fresh Cut Pink Roses with a Free Glass Vase	1	0	1	Expedited	Mrs. Helen Crawford	4794 SAN MIGUEL AVE			SAN BERNARDINO	CA	92407-6877	US		Helen and family, God’s ways are higher than our ways. Be immovable in your faith. I love you! We are sorry for your great loss. From The Kwinn Family	false		
113-9754615-9912256	53307134298802	2020-09-29T01:46:42+00:00	2020-09-28T18:46:42-07:00	2020-09-29T02:13:22+00:00	2020-10-01T06:59:59+00:00	-2	bg3gbb09j5wxqgs@marketplace.amazon.com	james walls	+1 602-671-6610 ext. 46915	ABR0022	Delivery by Thursday | Arabella Farm Direct Bouquet of 12 Fresh Cut Pink Roses with a Free Glass Vase	1	0	1	Expedited	Victoria Stallings	210 BELMONT FOREST CT UNIT 201			LUTHERVILLE TIMONIUM	MD	21093-7710	US		Happy Birthday from Nancy and I! From james walls	false		
112-5753145-8325057	52237443225034	2020-09-29T01:51:24+00:00	2020-09-28T18:51:24-07:00	2020-09-29T02:22:26+00:00	2020-10-01T06:59:59+00:00	-2	cxp044ms7ncjtrt@marketplace.amazon.com	Jennifer Whitehead	+1 929-436-4790 ext. 53501	ABR001	Delivery by Thursday | Arabella Bouquets 12 Stems of Fresh Cut Red Roses in a Free Designer Glass Vase	1	0	1	Expedited	Becca Price	14510 W DARTMOUTH DR			LAKEWOOD	CO	80228-5493	US		Dear Becca,   Please accept our sincerest condolences and sympathy for the loss of your dear Papa John.   Virtual hugs & support from your MPH@GW family. From Jennifer Whitehead	false		
113-6202153-5053817	36734066801730	2020-09-29T02:12:25+00:00	2020-09-28T19:12:25-07:00	2020-09-29T02:26:39+00:00	2020-10-01T06:59:59+00:00	-2	brybpkyqxh7d1hy@marketplace.amazon.com	Joshua Cate	+1 929-436-4790 ext. 50949	ABR001	Delivery by Thursday | Arabella Bouquets 12 Stems of Fresh Cut Red Roses in a Free Designer Glass Vase	1	0	1	Standard	Joshua Cate	2012 BALDWIN CATE RD			NEW MARKET	TN	37820-5232	US			false		
114-9676018-5807458	61450650350250	2020-09-29T02:03:21+00:00	2020-09-28T19:03:21-07:00	2020-09-29T02:29:14+00:00	2020-10-01T06:59:59+00:00	-2	xzj54784m4vvd0w@marketplace.amazon.com	Connor Carman	+1 929-436-4790 ext. 63599	ABR012	Arabella Farm Direct Bouquet of 18 Fresh Cut Pink Roses with a Free Glass Vase	1	0	1	Expedited	Katherine Elizabeth	18200 BUCKINGHAM AVE			BEVERLY HILLS	MI	48025-3108	US		Happiest of birthdays! I love you. Mom From Yo Momma	false		
111-1380245-7983466	66021139336962	2020-09-29T02:07:39+00:00	2020-09-28T19:07:39-07:00	2020-09-29T02:34:53+00:00	2020-10-01T06:59:59+00:00	-2	ynjwmlqchs3mz9g@marketplace.amazon.com	Terre reed	+1 602-671-6610 ext. 93539	ABR0033	Delivery by Thursday | Arabella Farm Direct Bouquet of 12 Fresh Cut Orange Roses with a Free Glass Vase	1	0	1	Expedited	Marina Scott	11670 JEFFERIES HWY			WALTERBORO	SC	29488-5758	US		Happy Happy Belated Birthday!  And House Warming!! From ME	false		
114-3028017-5466607	64590788829986	2020-09-29T02:09:00+00:00	2020-09-28T19:09:00-07:00	2020-09-29T02:37:51+00:00	2020-10-01T06:59:59+00:00	-2	xzj54784m4vvd0w@marketplace.amazon.com	Connor Carman	+1 480-618-5344 ext. 95239	ABR012	Arabella Farm Direct Bouquet of 18 Fresh Cut Pink Roses with a Free Glass Vase	1	0	1	Expedited	Christine Carman	18927 10TH DR SE			BOTHELL	WA	98012-7679	US		Happiest of birthdays! Much love, Becky From (and her Amazon assistant)	false		
114-2132479-9047437	63093017737098	2020-09-29T02:18:35+00:00	2020-09-28T19:18:35-07:00	2020-09-29T02:41:26+00:00	2020-10-01T06:59:59+00:00	-2	d9bnpds22jzbbs3@marketplace.amazon.com	Antonio Jackson	+1 602-671-6610 ext. 18961	ABR0022	Delivery by Thursday | Arabella Farm Direct Bouquet of 12 Fresh Cut Pink Roses with a Free Glass Vase	1	0	1	Expedited	Jennifer lynn Bennett	14488 ELDORADO ST NW			ANDOVER	MN	55304-3198	US		I love u bae forever and a day. From Antonio Jackson	false		
114-5994556-4327412	01545445126418	2020-09-29T02:16:50+00:00	2020-09-28T19:16:50-07:00	2020-09-29T02:42:45+00:00	2020-10-01T06:59:59+00:00	-2	c6krqqhstqczsv6@marketplace.amazon.com	leopold gayle	+1 415-851-9136 ext. 07031	ABR0022	Delivery by Thursday | Arabella Farm Direct Bouquet of 12 Fresh Cut Pink Roses with a Free Glass Vase	1	0	1	Expedited	Laverne Mahoney	1679 ARKANSAS DR VALLEY STREAM			VALLEY STREAM	NY	11580-1805	US		To my someone special who I love alot , hope these flowers make your day until I see you again.  Enjoy your gift! From leopold gayle	false		
114-0031987-3408276	23280508661866	2020-09-29T02:24:10+00:00	2020-09-28T19:24:10-07:00	2020-09-29T02:51:45+00:00	2020-10-01T06:59:59+00:00	-2	29tcw1788ywy54w@marketplace.amazon.com	Laureen Hunt	+1 602-671-6610 ext. 49353	ABR0022	Delivery by Thursday | Arabella Farm Direct Bouquet of 12 Fresh Cut Pink Roses with a Free Glass Vase	1	0	1	Expedited	Tessa Hunt	954 E DUANE AVE			SUNNYVALE	CA	94085-3919	US			false		
111-2400753-2805040	60661914900034	2020-09-29T02:23:31+00:00	2020-09-28T19:23:31-07:00	2020-09-29T02:53:08+00:00	2020-10-01T06:59:59+00:00	-2	y010pmlcsgtbjw1@marketplace.amazon.com	Daniel Bringhurst	+1 480-618-5344 ext. 71564	ABR001	Delivery by Thursday | Arabella Bouquets 12 Stems of Fresh Cut Red Roses in a Free Designer Glass Vase	1	0	1	Standard	Tamara Bringhurst	617 E LEADORA AVE			GLENDORA	CA	91741-2137	US		Pretty girl,   It was time to get you flowers. I love you. From Daniel Bringhurst	false		
114-1097017-3464213	63557047884970	2020-09-29T02:27:40+00:00	2020-09-28T19:27:40-07:00	2020-09-29T02:53:50+00:00	2020-10-01T06:59:59+00:00	-2	nl628j3jk723mmk@marketplace.amazon.com	Raffi Hulian	+1 415-851-9136 ext. 15779	ABM022	Purple Extravagance Bouquet by Arabella Bouquets	1	0	1	Expedited	Mykenzie Ott	6213 CLOVER WAY S			SAGINAW	MI	48603-1057	US		Kenz, This is a little something to lift yout spirit and bring some joy and happiness in this somber times. We will be together sooon I love you sooo much baby!  Raffi Hulian	false		
113-2623774-3351455	57057008546810	2020-09-29T02:27:09+00:00	2020-09-28T19:27:09-07:00	2020-09-29T02:56:18+00:00	2020-10-01T06:59:59+00:00	-2	9x983qmgdfsmvxh@marketplace.amazon.com	stephanie	+1 929-436-4790 ext. 56348	ABR0022	Delivery by Thursday | Arabella Farm Direct Bouquet of 12 Fresh Cut Pink Roses with a Free Glass Vase	1	0	1	Expedited	STEPHANI DIAS	348 OLD CONNECTICUT PATH			FRAMINGHAM	MA	01701-4540	US		I love and miss you so much mae. Thank you for being such a great mother to me you are the best ♥️ From Stephani	false		
113-6991948-3779464	07836149637002	2020-09-29T02:43:45+00:00	2020-09-28T19:43:45-07:00	2020-09-29T03:12:04+00:00	2020-10-01T06:59:59+00:00	-2	brybpkyqxh7d1hy@marketplace.amazon.com	Joshua Cate	+1 602-671-6610 ext. 52509	ABR001	Delivery by Thursday | Arabella Bouquets 12 Stems of Fresh Cut Red Roses in a Free Designer Glass Vase	1	0	1	Expedited	Brooke Shaye Decker	2824 CHARLESTOWN RD			NEW ALBANY	IN	47150-1978	US		When darkness falls upon the land Another moon glows bright For yet our friendship is bight Let these roses bring light From Joshua Cate	false		
112-8397959-0349018	08153001820218	2020-09-29T02:46:53+00:00	2020-09-28T19:46:53-07:00	2020-09-29T03:14:34+00:00	2020-10-01T06:59:59+00:00	-2	lkgmpwfb55wx620@marketplace.amazon.com	Vaibhav Malhotra	+1 929-436-4790 ext. 38134	ABR0022	Delivery by Thursday | Arabella Farm Direct Bouquet of 12 Fresh Cut Pink Roses with a Free Glass Vase	1	0	1	Expedited	Megha Nalwa	25 REAGIN WAY			MARLBOROUGH	MA	01752-2885	US			false		
111-8282036-1979456	43031813591082	2020-09-29T02:57:47+00:00	2020-09-28T19:57:47-07:00	2020-09-29T03:18:11+00:00	2020-10-01T06:59:59+00:00	-2	1j42y77s9dqmzx7@marketplace.amazon.com	Stuart Sigel	+1 602-671-6610 ext. 31166	ABR001	Delivery by Thursday | Arabella Bouquets 12 Stems of Fresh Cut Red Roses in a Free Designer Glass Vase	1	0	1	Expedited	Bonnie Sigel	36 ELGIN RD			POCASSET	MA	02559-2032	US		Happy 35th Anniversary. ❤️ May we share many more.  Love, Stu	false		
112-9699137-1529857	65213505957858	2020-09-29T03:00:13+00:00	2020-09-28T20:00:13-07:00	2020-09-29T03:25:54+00:00	2020-10-01T06:59:59+00:00	-2	n1xjpmkz6kysqkf@marketplace.amazon.com	Emily Ellis	+1 929-436-4790 ext. 50197	ABR0022	Delivery by Thursday | Arabella Farm Direct Bouquet of 12 Fresh Cut Pink Roses with a Free Glass Vase	1	0	1	Expedited	Angela Wright	2978 NESTLE CREEK DR			MARIETTA	GA	30062-4857	US		God made US sisters. Lean on me and know I love you oh so much!  I’m sending you flowers instead of my cooking. Ha!!!!!!  You’re welcome! From Emily Ellis	false		
111-3531010-7726619	31875249576410	2020-09-29T03:01:20+00:00	2020-09-28T20:01:20-07:00	2020-09-29T03:29:05+00:00	2020-10-01T06:59:59+00:00	-2	8gdbcd6c9t13yf9@marketplace.amazon.com	Ely Boucher	+1 929-436-4790 ext. 31063	ABM020	Delivery by Thursday | The Sunset Bouquet by Arabella Bouquets	1	0	1	Expedited	Mom. Rita Boucher	11126 HENSON DR			GREENWELL SPRINGS	LA	70739-5416	US		Hope you have a wonderful Birthday Mom.  I love you bunches From Ely Boucher	false		
114-0757821-5127447	64613608599666	2020-09-29T03:13:10+00:00	2020-09-28T20:13:10-07:00	2020-09-29T03:43:43+00:00	2020-10-01T06:59:59+00:00	-2	3j2kvpvrkbxg0wf@marketplace.amazon.com	Wendi Caserotti	+1 480-618-5344 ext. 22386	ABR0033	Delivery by Thursday | Arabella Farm Direct Bouquet of 12 Fresh Cut Orange Roses with a Free Glass Vase	1	0	1	Expedited	Wendi Caserotti	16450 N Hawthorne Ln			Mount Vernon	IL	62864-1905	US			false		
113-5733822-5812245	12619546502586	2020-09-29T03:21:07+00:00	2020-09-28T20:21:07-07:00	2020-09-29T03:50:28+00:00	2020-10-01T06:59:59+00:00	-2	grdrxhgqjg50d56@marketplace.amazon.com	Lindsey Bedford	+1 929-436-4790 ext. 52989	ABR0033	Delivery by Thursday | Arabella Farm Direct Bouquet of 12 Fresh Cut Orange Roses with a Free Glass Vase	1	0	1	Expedited	Lindsey Bedford	2101 S 324TH ST UNIT 3			FEDERAL WAY	WA	98003-8507	US		Love you Mom hope heal quickly!! From Love Linds	false		
111-1181939-8824254	08786025574922	2020-09-29T03:46:53+00:00	2020-09-28T20:46:53-07:00	2020-09-29T04:16:43+00:00	2020-10-01T06:59:59+00:00	-2	lrt5hndc3hl1l2v@marketplace.amazon.com	Timothy Schlentz	+1 415-851-9136 ext. 47708	ABR001	Delivery by Thursday | Arabella Bouquets 12 Stems of Fresh Cut Red Roses in a Free Designer Glass Vase	1	0	1	Expedited	Janine schlentz c/o dust collector services	1280 N SUNSHINE WAY			ANAHEIM	CA	92806-1746	US			false		
111-9100786-9347469	39248444971370	2020-09-29T04:22:04+00:00	2020-09-28T21:22:04-07:00	2020-09-29T04:30:10+00:00	2020-10-01T06:59:59+00:00	-2	ccdqnfrdvddzn2z@marketplace.amazon.com	Tony Chen	+1 602-671-6610 ext. 49421	ABM022	Purple Extravagance Bouquet by Arabella Bouquets	1	0	1	Expedited	Kevin Leak	3 HUNTERS LN			CHADDS FORD	PA	19317-9117	US			false		
114-0990827-7879467	63692629490130	2020-09-29T04:28:36+00:00	2020-09-28T21:28:36-07:00	2020-09-29T04:57:46+00:00	2020-10-01T06:59:59+00:00	-2	nxgfdwwkj3wlq3z@marketplace.amazon.com	Melisa	+1 929-436-4790 ext. 80673	ABR0022	Delivery by Thursday | Arabella Farm Direct Bouquet of 12 Fresh Cut Pink Roses with a Free Glass Vase	1	0	1	Expedited	Debbie Norton	3580 S OCEAN BLVD APT 7A			PALM BEACH	FL	33480-6469	US		Happy birthday GG, we love you! From - Adam, Melisa, Ryder, Maverick & Tripp	false		
113-3266626-3925846	34336989606162	2020-09-29T05:29:59+00:00	2020-09-28T22:29:59-07:00	2020-09-29T05:56:06+00:00	2020-09-30T06:59:59+00:00	-1	zws55p8c97g1br1@marketplace.amazon.com	Ryan Mitchell	+1 602-671-6610 ext. 92257	ABR0022	Delivery by Thursday | Arabella Farm Direct Bouquet of 12 Fresh Cut Pink Roses with a Free Glass Vase	1	0	1	SecondDay	Maryse Oudkerk	173 COMMODORE CIR W			ARVERNE	NY	11692-2010	US		Dear Maryse,  Thanks for investing and always believing in me. May God bless you with health, wealth, and strength for many more years. Love you From Ryo	false		
113-6355679-8849009	18844943733538	2020-09-29T05:32:21+00:00	2020-09-28T22:32:21-07:00	2020-09-29T06:00:18+00:00	2020-10-01T06:59:59+00:00	-2	48rz82z8drrp57p@marketplace.amazon.com	Mark D Fitzgerald	+1 602-671-6610 ext. 58422	ABR0022	Delivery by Thursday | Arabella Farm Direct Bouquet of 12 Fresh Cut Pink Roses with a Free Glass Vase	1	0	1	Expedited	Lori Hunt	759 W ZUNI DR			PRESCOTT	AZ	86303-5209	US		Happy Birthday Lori!! From Mark D Fitzgerald	false		
114-9817418-8756229	43377730339810	2020-09-29T05:46:37+00:00	2020-09-28T22:46:37-07:00	2020-09-29T06:07:28+00:00	2020-10-01T06:59:59+00:00	-2	vk8ls2cmd3qx62x@marketplace.amazon.com	David Zdeb	+1 415-851-9136 ext. 40386	ABR0022	Delivery by Thursday | Arabella Farm Direct Bouquet of 12 Fresh Cut Pink Roses with a Free Glass Vase	1	0	1	Expedited	Mary Zdeb	7968 E RUSSET SKY DR			SCOTTSDALE	AZ	85266-4236	US		Happy birthday, Mom! Thought these might brighten the occasion. Love you! From Dave	false		
114-9615035-7412217	11107308776234	2020-09-29T05:38:16+00:00	2020-09-28T22:38:16-07:00	2020-09-29T06:08:16+00:00	2020-09-30T06:59:59+00:00	-1	vq0xzl3plfycwrl@marketplace.amazon.com	Debbie Montalvo	+1 929-436-4790 ext. 64982	ABR0066	Delivery by Thursday | Arabella Bouquets 12 Stems of Fresh Cut White Roses in a Free Designer Glass Vase	1	0	1	SecondDay	Geidy Castellano	12719 ORANGE DR			WHITTIER	CA	90601-2405	US			false		
112-6920961-9056212	29571181822874	2020-09-29T06:26:08+00:00	2020-09-28T23:26:08-07:00	2020-09-29T06:54:08+00:00	2020-10-01T06:59:59+00:00	-2	7wqtjzk34h9rjt3@marketplace.amazon.com	Gwen	+1 602-671-6610 ext. 37300	ABR0022	Delivery by Thursday | Arabella Farm Direct Bouquet of 12 Fresh Cut Pink Roses with a Free Glass Vase	1	0	1	Expedited	Bogarts	20502 MENZEL LAKE RD			GRANITE FALLS	WA	98252-9724	US		Happy Birthday! I Love you Mom Daughter G From Gwen	false		
111-3182466-5778634	43252337250738	2020-09-29T06:42:35+00:00	2020-09-28T23:42:35-07:00	2020-09-29T07:11:50+00:00	2020-10-01T06:59:59+00:00	-2	1ghn0l53q0dt76c@marketplace.amazon.com	Adrian Salazar	+1 929-436-4790 ext. 89718	ABR0022	Delivery by Thursday | Arabella Farm Direct Bouquet of 12 Fresh Cut Pink Roses with a Free Glass Vase	1	0	1	Expedited	Lina Abba	5771 VIA SANTANA			YORBA LINDA	CA	92887-3415	US		Happy birthday! From Adrian Salazar	false		
111-4300653-2914647	37162736920482	2020-09-29T06:55:38+00:00	2020-09-28T23:55:38-07:00	2020-09-29T07:25:04+00:00	2020-09-30T06:59:59+00:00	-1	df04q70ltmlt57p@marketplace.amazon.com	Stefanie	+1 415-851-9136 ext. 01632	ABM022	Purple Extravagance Bouquet by Arabella Bouquets	1	0	1	SecondDay	Donna Adams	314 W GROVE ST			ABSAROKEE	MT	59001-6245	US		Happy birthday, granny!  We love you! From Us	false		
111-7739698-0257036	18481381468530	2020-09-29T06:36:38+00:00	2020-09-28T23:36:38-07:00	2020-09-29T08:18:45+00:00	2020-10-02T06:59:59+00:00	-3	0nrlc7vl717l671@marketplace.amazon.com	Louise Judd	07980992464	ABR0022	Delivery by Thursday | Arabella Farm Direct Bouquet of 12 Fresh Cut Pink Roses with a Free Glass Vase	1	0	1	Expedited	Mrs L J Judd	1223 BUNDAGE CT			MARINA	CA	93933-5005	US		Happy birthday little sis be special and enjoy xxx From Louise Judd	false		
