order-id	order-item-id	purchase-date	payments-date	reporting-date	promise-date	days-past-promise	buyer-email	buyer-name	buyer-phone-number	sku	product-name	quantity-purchased	quantity-shipped	quantity-to-ship	ship-service-level	recipient-name	ship-address-1	ship-address-2	ship-address-3	ship-city	ship-state	ship-postal-code	ship-country	gift-wrap-type	gift-message-text	is-business-order	purchase-order-number	price-designation
114-0249260-1521821	13116585377074	2020-09-29T18:31:20+00:00	2020-09-29T11:31:20-07:00	2020-09-29T18:32:18+00:00	2020-10-02T06:59:59+00:00	-2	7mpt85c0kgqyk0t@marketplace.amazon.com	deirdre riley	+1 602-671-6610 ext. 43746	ABR0022	Delivery by Friday | Arabella Farm Direct Bouquet of 12 Fresh Cut Pink Roses with a Free Glass Vase	1	0	1	Expedited	Ciara McCone	131 83RD ST			BROOKLYN	NY	11209-4309	US		Take a deep breath and relax ...:)  You’ve got this !  Love and Prayers ,  The Riley’s  ( all of us ) From deirdre riley	false		
113-6399927-4520248	62008411536282	2020-09-29T18:07:56+00:00	2020-09-29T11:07:56-07:00	2020-09-29T18:37:06+00:00	2020-10-02T06:59:59+00:00	-2	38dwjtpbrc2nrgm@marketplace.amazon.com	Scott Mullennax	+1 480-618-5344 ext. 12628	ABM010	Delivery by Friday | The Spring Fling Bouquet by Arabella Bouquets with a Free Designer Glass Vase	1	0	1	Expedited	Scott Mullennax	147 GAINES CREEK RD			CANADIAN	OK	74425-5100	US		Looking forward to meeting you! From Scott Mullennax	false		
111-6969546-5277029	48247905293074	2020-09-29T18:17:47+00:00	2020-09-29T11:17:47-07:00	2020-09-29T18:40:14+00:00	2020-10-02T06:59:59+00:00	-2	49y64xt2c3dsl97@marketplace.amazon.com	Michelle	+1 929-436-4790 ext. 34741	ABR001	Arabella Bouquets 12 Stems of Fresh Cut Red Roses in a Free Designer Glass Vase	1	0	1	Expedited	Kristen Kandeel	620 S FRANKLIN ST UNIT E-56			WEST CHESTER	PA	19383	US		Just because I love you.   Keep grinding and I know you will be rewarded for the great work you do! From Mitchell	false		
113-4678664-1065865	50197161348906	2020-09-29T18:33:37+00:00	2020-09-29T11:33:37-07:00	2020-09-29T18:56:05+00:00	2020-10-02T06:59:59+00:00	-2	xz0gb90wpwkzcwr@marketplace.amazon.com	Richie	+1 929-436-4790 ext. 78896	ABR0022	Delivery by Friday | Arabella Farm Direct Bouquet of 12 Fresh Cut Pink Roses with a Free Glass Vase	1	0	1	Expedited	Nadine Trautman	AYERS HEALTH REHAB CENTER	606 NE 7TH ST		TRENTON	FL	32693-3636	US		Happy Birthday Grandma!  I love you and I miss you! I hope you have a wonderful day! Love,  Mattie, your granddaughter From Richie, Mattie, Emma, and Abby	false		
112-5388015-6350628	26751760863698	2020-09-29T18:26:19+00:00	2020-09-29T11:26:19-07:00	2020-09-29T18:56:32+00:00	2020-10-02T06:59:59+00:00	-2	sb82wghlmytk7mc@marketplace.amazon.com	Amy Hansfield	+1 602-671-6610 ext. 69685	ABR0022	Delivery by Friday | Arabella Farm Direct Bouquet of 12 Fresh Cut Pink Roses with a Free Glass Vase	1	0	1	Expedited	Paul and Carol Meier	13667 RIVER VALLEY CT			CHESTERFIELD	MO	63017-2640	US		To brighten your day! 💕🌸🌺 From Amy	false		
111-3880255-9126641	29956422406458	2020-09-29T18:27:54+00:00	2020-09-29T11:27:54-07:00	2020-09-29T18:56:36+00:00	2020-10-02T06:59:59+00:00	-2	143lwhm4hq2jxvy@marketplace.amazon.com	Shari Lee Burke	+1 929-436-4790 ext. 07655	ABM022	Delivery by Friday | Purple Extravagance Bouquet by Arabella Bouquets	1	0	1	Expedited	Becky Simmons	9809 CLEAR LAKE CIR			NAPLES	FL	34109-0787	US		Thinking of you and sending our thoughts and prayers. Love you, Shari and Paul From Shari Lee Burke	false		
111-6716340-9397005	41304493965378	2020-09-29T18:35:06+00:00	2020-09-29T11:35:06-07:00	2020-09-29T19:00:38+00:00	2020-10-02T06:59:59+00:00	-2	n6sckkvwny65t79@marketplace.amazon.com	Gail L. Shepey	+1 480-618-5344 ext. 14904	ABR004	Arabella Farm Direct Bouquet of 12 Fresh Cut Yellow Roses with a Free Glass Vase	1	0	1	Expedited	june harrington	26 PATMORE RD			BRICK	NJ	08724-1940	US		so glad you are home. Stay well. Don't call me. I will call you when you are feeling better From love barb	false		
113-6733560-0358607	06666974744234	2020-09-29T18:43:41+00:00	2020-09-29T11:43:41-07:00	2020-09-29T19:02:12+00:00	2020-10-02T06:59:59+00:00	-2	jfc215w1rj84kh4@marketplace.amazon.com	Jason	+1 602-671-6610 ext. 11648	ABM010	Delivery by Friday | The Spring Fling Bouquet by Arabella Bouquets with a Free Designer Glass Vase	1	0	1	Expedited	Uncle John	8211 E VIA DE VIVA			SCOTTSDALE	AZ	85258-3201	US		Uncle John and Bobbi G,  We love you and miss you. From The Bieber’s	false		
113-5571623-3625041	10329887355818	2020-09-29T19:08:19+00:00	2020-09-29T12:08:19-07:00	2020-09-29T19:09:19+00:00	2020-10-02T06:59:59+00:00	-2	d7g947z8z5pg7qn@marketplace.amazon.com	Britain Redline	+1 480-618-5344 ext. 20404	ABR0022	Delivery by Friday | Arabella Farm Direct Bouquet of 12 Fresh Cut Pink Roses with a Free Glass Vase	1	0	1	Expedited	Patty Redline	504 RIDGE RD			NEWTON	NJ	07860-5230	US		Happy Birthday Mom (Tulip)!  We love you! From Britain Redline	false		
114-5531097-3494639	03158903347682	2020-09-29T18:40:01+00:00	2020-09-29T11:40:01-07:00	2020-09-29T19:10:02+00:00	2020-10-02T06:59:59+00:00	-2	r183lkmwb7x60ns@marketplace.amazon.com	Michael A Snopko	+1 602-671-6610 ext. 96693	ABR0066	Delivery by Friday | Arabella Bouquets 12 Stems of Fresh Cut White Roses in a Free Designer Glass Vase	1	0	1	Expedited	Angie Schilsky	1610 FAIR OAKS DR			WESTLAKE	TX	76262-8209	US			false		
114-6387336-0518626	62785123042122	2020-09-29T19:20:01+00:00	2020-09-29T12:20:01-07:00	2020-09-29T19:41:56+00:00	2020-10-02T06:59:59+00:00	-2	hx6f1qdw7dzbzx2@marketplace.amazon.com	Wilma MacElree	+1 602-671-6610 ext. 24429	ABR0022	Delivery by Friday | Arabella Farm Direct Bouquet of 12 Fresh Cut Pink Roses with a Free Glass Vase	1	0	1	Expedited	Danielle Rogovich	18 ALMONT ST			WINTHROP	MA	02152-1106	US		Danielle, Enjoy your gift! Thank you for your kind hospitality. Love, Wilma From Wilma MacElree	false		
112-4800206-6379459	38178051263738	2020-09-29T20:08:29+00:00	2020-09-29T13:08:29-07:00	2020-09-29T20:33:50+00:00	2020-10-01T06:59:59+00:00	-1	3tnl7b08pqpdhmh@marketplace.amazon.com	Humberto	+1 415-851-9136 ext. 55335	ABR0055	Delivery by Friday | Arabella Farm Direct Bouquet of 12 Stems of Fresh Cut Hot Pink Roses in a Free Designer Glass Vase	1	0	1	SecondDay	Humberto E. Diaz	372 FOREST AVE			LOCUST VALLEY	NY	11560	US		Paola  Happy Anniversary my love! From Humberto	false		
111-7095057-6665807	57885119670402	2020-09-29T20:40:12+00:00	2020-09-29T13:40:12-07:00	2020-09-29T21:00:10+00:00	2020-10-02T06:59:59+00:00	-2	sdsk372js0l3f5f@marketplace.amazon.com	murdo macleod	+1 602-671-6610 ext. 36989	ABR0055	Delivery by Friday | Arabella Farm Direct Bouquet of 12 Stems of Fresh Cut Hot Pink Roses in a Free Designer Glass Vase	1	0	1	Expedited	Tina Mushinske	54 SCHOOL AVE			EAST HANOVER	NJ	07936-2906	US		Thinking of you  Love Evelyn From Evelyn Maclrod	false		
111-5593119-6243460	42407251549602	2020-09-29T20:50:31+00:00	2020-09-29T13:50:31-07:00	2020-09-29T21:17:19+00:00	2020-10-01T06:59:59+00:00	-1	d14ybqprmbq3z5s@marketplace.amazon.com	Amethyst Gonzales-Miller	+1 415-851-9136 ext. 56787	ABM010	Delivery by Friday | The Spring Fling Bouquet by Arabella Bouquets with a Free Designer Glass Vase	1	0	1	SecondDay	Julie Gonzales	8335 W MANCHESTER AVE APT C			PLAYA DEL REY	CA	90293-8135	US		Happy milestone birthday! From Mom & Dad	false		
111-9824334-7337850	33287442091114	2020-09-29T21:01:53+00:00	2020-09-29T14:01:53-07:00	2020-09-29T21:26:37+00:00	2020-10-02T06:59:59+00:00	-2	rmyl95qfkt0lcbw@marketplace.amazon.com	Phebe Brown	+1 602-671-6610 ext. 04512	ABR0022	Delivery by Friday | Arabella Farm Direct Bouquet of 12 Fresh Cut Pink Roses with a Free Glass Vase	1	0	1	Expedited	Mildred Markham	SUN TREE HOME 1397 SUN TREE DR			ROSEVILLE	CA	95661-5344	US		Happy Birthday, Dear Millie From Phebe, Scott, Lucienne and Cheri Brown	false		
113-4809563-3514610	33036738151138	2020-09-29T21:30:06+00:00	2020-09-29T14:30:06-07:00	2020-09-29T21:56:02+00:00	2020-10-01T06:59:59+00:00	-1	rf7nbx4ltgn5bks@marketplace.amazon.com	Michelle Kulvinskas	+1 602-671-6610 ext. 94855	ABR0022	Delivery by Friday | Arabella Farm Direct Bouquet of 12 Fresh Cut Pink Roses with a Free Glass Vase	1	0	1	SecondDay	Lucy Mulligan	211 MERLINE RD			VERNON	CT	06066-4025	US			false		
113-1043112-7688232	15220264647330	2020-09-29T21:34:18+00:00	2020-09-29T14:34:18-07:00	2020-09-29T22:03:08+00:00	2020-10-01T06:59:59+00:00	-1	rf7nbx4ltgn5bks@marketplace.amazon.com	Michelle Kulvinskas	+1 929-436-4790 ext. 44725	ABR0022	Delivery by Friday | Arabella Farm Direct Bouquet of 12 Fresh Cut Pink Roses with a Free Glass Vase	1	0	1	SecondDay	Lucy Mulligan	211 MERLINE RD			VERNON	CT	06066-4025	US		Just a little something to cheer you up. Love you very much From Michelle Kulvinskas	false		
112-1197686-8857003	70352760777786	2020-09-29T21:49:46+00:00	2020-09-29T14:49:46-07:00	2020-09-29T22:18:22+00:00	2020-10-02T06:59:59+00:00	-2	jqd025gvskcy51t@marketplace.amazon.com	carole mead	+1 480-618-5344 ext. 07099	ABR0066	Delivery by Friday | Arabella Bouquets 12 Stems of Fresh Cut White Roses in a Free Designer Glass Vase	1	0	1	Expedited	Catherine Mead-Smith	1317 W ARTHUR AVE # 1			CHICAGO	IL	60626-5109	US			false		
113-6995342-6850604	24874084724930	2020-09-29T21:55:10+00:00	2020-09-29T14:55:10-07:00	2020-09-29T22:23:22+00:00	2020-10-02T06:59:59+00:00	-2	ch0dwrs1g0xhpp2@marketplace.amazon.com	Kylie	+1 480-618-5344 ext. 81265	ABR0066	Delivery by Friday | Arabella Bouquets 12 Stems of Fresh Cut White Roses in a Free Designer Glass Vase	1	0	1	Expedited	Tawni McWilliams	65333 76TH ST			BEND	OR	97703-8610	US			false		
112-0036299-5566639	47450335974610	2020-09-29T22:04:06+00:00	2020-09-29T15:04:06-07:00	2020-09-29T22:23:37+00:00	2020-10-01T06:59:59+00:00	-1	wgl8cl1zppnnz9y@marketplace.amazon.com	AJ	+1 602-671-6610 ext. 39874	ABR013	Delivery by Friday | Arabella Farm Direct Bouquet of 18 Fresh Cut Yellow Roses with a Free Glass Vase	1	0	1	SecondDay	Anshu Jain	6433 GREENWAY BEND DR			CHARLOTTE	NC	28226-5559	US		Dear Sheila  Wishing you a very happy birthday! Very special day in new city and new house, enjoy! We love you very much and miss you very much....   can't wait to see you all again! From Jains	false		
112-7270697-2661859	39465238508578	2020-09-29T21:57:31+00:00	2020-09-29T14:57:31-07:00	2020-09-29T22:27:41+00:00	2020-10-02T06:59:59+00:00	-2	1cf6841tx8gxmnm@marketplace.amazon.com	Brent Papworth	+1 480-618-5344 ext. 06006	ABR001	Arabella Bouquets 12 Stems of Fresh Cut Red Roses in a Free Designer Glass Vase	1	0	1	Expedited	Sharon Elton	133 WILLOW POINTE LOOP			LONGVIEW	WA	98632-9367	US			false		
114-1246822-7659431	51888735327082	2020-09-29T22:04:29+00:00	2020-09-29T15:04:29-07:00	2020-09-29T22:31:00+00:00	2020-10-01T06:59:59+00:00	-1	lqs526npdv4z1ly@marketplace.amazon.com	holly	+1 929-436-4790 ext. 82890	ABR0033	Delivery by Friday | Arabella Farm Direct Bouquet of 12 Fresh Cut Orange Roses with a Free Glass Vase	1	0	1	SecondDay	Holly A Curran	1503 N EDISON BLVD APT 5			BURBANK	CA	91505-1800	US			false		
111-0126184-8826641	38297823419098	2020-09-29T22:13:06+00:00	2020-09-29T15:13:06-07:00	2020-09-29T22:37:10+00:00	2020-10-02T06:59:59+00:00	-2	4dbvgjhpkn9g9cv@marketplace.amazon.com	Rory	+1 415-851-9136 ext. 09709	ABR0022	Delivery by Friday | Arabella Farm Direct Bouquet of 12 Fresh Cut Pink Roses with a Free Glass Vase	1	0	1	Expedited	Cheyannee	599 N US HIGHWAY 287			PALESTINE	TX	75803-2093	US		I know I'm not the best with flowery language, pun intended but got these because I wanted you to know I love you. Flowers are kinda dull but I think Pink Roses fit the amazing woman I'm head over heels in love with. From Rory	false		
114-5864892-9566642	49626824322946	2020-09-29T22:33:53+00:00	2020-09-29T15:33:53-07:00	2020-09-29T23:02:53+00:00	2020-10-01T06:59:59+00:00	-1	25rsth81gqbn1gj@marketplace.amazon.com	Harman Singh	+1 415-851-9136 ext. 13402	ABR0022	Delivery by Friday | Arabella Farm Direct Bouquet of 12 Fresh Cut Pink Roses with a Free Glass Vase	1	0	1	SecondDay	Balbir Kaur	5183 W VILLAGE DR			GLENDALE	AZ	85308-5312	US		Happy Birthday mom!  Enjoy your gift! From Harman Singh	false		
111-8152936-3652268	16275981471362	2020-09-29T22:50:44+00:00	2020-09-29T15:50:44-07:00	2020-09-29T23:12:37+00:00	2020-10-01T06:59:59+00:00	-1	3mk3tmdxgvrmylv@marketplace.amazon.com	Catherine F. Brooks	+1 602-671-6610 ext. 24277	ABM002	Delivery by Friday | Arabella Bouquets Fresh Cut White Calla Lilies in a Free Designer Glass Vase	1	0	1	SecondDay	Kaitlyn Leffler	6815 N CASCADE SPRING PL			TUCSON	AZ	85718-2133	US			false		
114-8737795-4614669	66952632076250	2020-09-29T22:55:17+00:00	2020-09-29T15:55:17-07:00	2020-09-29T23:20:01+00:00	2020-10-01T06:59:59+00:00	-1	5tpg9t7k7rj2kzx@marketplace.amazon.com	Mark G	+1 480-618-5344 ext. 19136	ABR0022	Delivery by Friday | Arabella Farm Direct Bouquet of 12 Fresh Cut Pink Roses with a Free Glass Vase	1	0	1	SecondDay	Cynthia Peterson	4565 Purdue Ave. NE			Seattle	WA	98105	US		Happy Birthday, Enjoy the roses and your special day. Love, Mirabelle, Mickey, and Mark From The Kittens & Mark	false		
111-0294951-9333024	51905421321698	2020-09-29T23:05:33+00:00	2020-09-29T16:05:33-07:00	2020-09-29T23:23:56+00:00	2020-10-02T06:59:59+00:00	-2	dz8fv692vtf0qnr@marketplace.amazon.com	Daniel	+1 929-436-4790 ext. 57642	ABR0022	Delivery by Friday | Arabella Farm Direct Bouquet of 12 Fresh Cut Pink Roses with a Free Glass Vase	1	0	1	Expedited	Marcia Shelly	595 BONA VISTA LN	LENOIR CITY TN 37771		LENOIR CITY	TN	37771-7786	US		Hello Marcia, I know you may not know this but i want to tell you how much joy you brought into my life Bruce. From Bruce	false		
113-8306255-3145021	40307630974266	2020-09-29T22:57:42+00:00	2020-09-29T15:57:42-07:00	2020-09-29T23:25:23+00:00	2020-10-01T06:59:59+00:00	-1	w7cf5n8f5pb6bmq@marketplace.amazon.com	emmanuelle roussel	+1 602-671-6610 ext. 85607	ABR0055	Delivery by Friday | Arabella Farm Direct Bouquet of 12 Stems of Fresh Cut Hot Pink Roses in a Free Designer Glass Vase	1	0	1	SecondDay	Emmanuelle Roussel	1227 TOWN CENTER DR			FORT COLLINS	CO	80524-1790	US		Joyeux Anniversaire.  Bonne soiree avec ton mari et les petits. Plein de bisous. Love Maman et Papa From emmanuelle roussel	false		
113-0682226-4312256	69246303527522	2020-09-29T23:09:27+00:00	2020-09-29T16:09:27-07:00	2020-09-29T23:35:46+00:00	2020-10-02T06:59:59+00:00	-2	rw5ytv1jlmg5r78@marketplace.amazon.com	Ruth Escher	+1 929-436-4790 ext. 49641	ABM022	Delivery by Friday | Purple Extravagance Bouquet by Arabella Bouquets	1	0	1	Expedited	VADA PEABODY C/O AVALON CARE CENTER	AVALON CARE CENTER 135 S 336TH ST			FEDERAL WAY	WA	98003-6350	US		WE LOVE YOU DEAR VADA! HOPE YOU ARE FEELING BETTER SOON! From RUTHY AND STEVE	false		
112-4631856-5926602	11124101597362	2020-09-29T23:15:29+00:00	2020-09-29T16:15:29-07:00	2020-09-29T23:42:42+00:00	2020-10-01T06:59:59+00:00	-1	jhtltcrymyd4dbj@marketplace.amazon.com	Patricia D. Ostermick	+1 480-618-5344 ext. 65557	ABM010	Delivery by Friday | The Spring Fling Bouquet by Arabella Bouquets with a Free Designer Glass Vase	1	0	1	SecondDay	Bernice Belger	650 STOCKTON DR APT 304 EAGLEVIEW			EXTON	PA	19341-1152	US		Enjoy your gift  Welcome to your new apartment. We love you much 🥰❤️  Pat, Patty, Terri and Maria From Patricia Belger	false		
112-3131277-5680261	12055744966650	2020-09-29T23:16:37+00:00	2020-09-29T16:16:37-07:00	2020-09-29T23:45:39+00:00	2020-10-01T06:59:59+00:00	-1	85d9z3c1mg20qrp@marketplace.amazon.com	Shawn	+1 480-618-5344 ext. 63656	ABM022	Delivery by Friday | Purple Extravagance Bouquet by Arabella Bouquets	1	0	1	SecondDay	Carrie Chappell	726 5TH ST			HERMOSA BEACH	CA	90254-4748	US		Happy 25th Birthday  Carrie Chapell   Love Mom xoxo.  317 505 7796 From Shawn Mom	false		
112-6573279-6855447	37449271958178	2020-09-29T23:16:59+00:00	2020-09-29T16:16:59-07:00	2020-09-29T23:46:18+00:00	2020-10-01T06:59:59+00:00	-1	mcfmd5pvdkccd83@marketplace.amazon.com	Frank Sodano	+1 480-618-5344 ext. 24083	ABR0022	Delivery by Friday | Arabella Farm Direct Bouquet of 12 Fresh Cut Pink Roses with a Free Glass Vase	1	0	1	SecondDay	Grace Sodano	5091 S PEACHWOOD DR			GILBERT	AZ	85298-5301	US			false		
114-2107069-3359404	64729049670082	2020-09-29T23:37:58+00:00	2020-09-29T16:37:58-07:00	2020-09-30T00:02:47+00:00	2020-10-01T06:59:59+00:00	-1	92rxdkxl0b64rk2@marketplace.amazon.com	Maria rios	+1 480-618-5344 ext. 64472	ABR0033	Delivery by Friday | Arabella Farm Direct Bouquet of 12 Fresh Cut Orange Roses with a Free Glass Vase	1	0	1	SecondDay	Lisa Lobitz	137 ROCHELLE AVE			PHILADELPHIA	PA	19128-3811	US		Lisa Hope you feel better soon! From Maria Rios	false		
113-9605677-8667417	02880266644490	2020-09-30T00:12:36+00:00	2020-09-29T17:12:36-07:00	2020-09-30T00:38:27+00:00	2020-10-01T06:59:59+00:00	-1	f779xthrcd8z7zz@marketplace.amazon.com	Justine	+1 415-851-9136 ext. 83600	ABM022	Delivery by Friday | Purple Extravagance Bouquet by Arabella Bouquets	1	0	1	SecondDay	Lina Aldakka and Family	1024 S CHURCH RD			MOUNT PROSPECT	IL	60056-4109	US		My thoughts, prayers and love are with you, your family and your friends.  I'm sorry for your lost.  Love Always! From Justine	false		
113-8721912-9808222	14786036642034	2020-09-30T00:13:36+00:00	2020-09-29T17:13:36-07:00	2020-09-30T00:39:41+00:00	2020-10-02T06:59:59+00:00	-2	t76jf9w6qd746jg@marketplace.amazon.com	Grannell Knox	+1 480-618-5344 ext. 21054	ABM022	Delivery by Friday | Purple Extravagance Bouquet by Arabella Bouquets	1	0	1	Expedited	Ms. Irene Knox	1518 N JAMES ST			MAMARONECK	NY	10543-1313	US		Happy 39th Anniversary,   with all my love,  Grannell Ill be back before you know it From Grannell Knox	false		
112-2287820-7303445	46810769868082	2020-09-30T00:28:56+00:00	2020-09-29T17:28:56-07:00	2020-09-30T00:59:22+00:00	2020-10-02T06:59:59+00:00	-2	6fhx4v62p68806b@marketplace.amazon.com	Hallie Immroth	+1 929-436-4790 ext. 16877	ABR012	Delivery by Friday |Arabella Farm Direct Bouquet of 18 Fresh Cut Pink Roses with a Free Glass Vase	1	0	1	Expedited	Carol McCartt	2800 NEILSON WAY APT 1608			SANTA MONICA	CA	90405-4044	US			false		
113-3203467-2462669	29254423309178	2020-09-30T00:41:58+00:00	2020-09-29T17:41:58-07:00	2020-09-30T01:03:12+00:00	2020-10-02T06:59:59+00:00	-2	yr237b1kv7fmnvk@marketplace.amazon.com	Emilie M Deady	+1 929-436-4790 ext. 58451	ABR0022	Delivery by Friday | Arabella Farm Direct Bouquet of 12 Fresh Cut Pink Roses with a Free Glass Vase	1	0	1	Expedited	Mr. & Mrs. William Kuperman	8465 LaJolla Shore Drive			LaJolla	CA	92037	US		Happy Anniversary and birthday to Gaby.  Love you From Joe and Emilie	false		
112-3661151-5422639	17527986924346	2020-09-30T00:52:21+00:00	2020-09-29T17:52:21-07:00	2020-09-30T01:22:26+00:00	2020-10-01T06:59:59+00:00	-1	8gqvymqdp7rq6jw@marketplace.amazon.com	Chad Whittle	+1 602-671-6610 ext. 21132	ABR0022	Delivery by Friday | Arabella Farm Direct Bouquet of 12 Fresh Cut Pink Roses with a Free Glass Vase	1	0	1	SecondDay	Chad Whittle	1663 SARA HUNTER LN NW			MILLEDGEVILLE	GA	31061-8634	US			false		
114-3352203-8905861	42853723848898	2020-09-30T01:12:10+00:00	2020-09-29T18:12:10-07:00	2020-09-30T01:39:39+00:00	2020-10-01T06:59:59+00:00	-1	1pdpd2gy2f2s4t2@marketplace.amazon.com	Olga Fedyna	+1 480-618-5344 ext. 92480	ABR0055	Delivery by Friday | Arabella Farm Direct Bouquet of 12 Stems of Fresh Cut Hot Pink Roses in a Free Designer Glass Vase	1	0	1	SecondDay	Imad Qumsieh	7514 N 107TH AVE			OMAHA	NE	68122-1566	US		Oksanka! Happy Birthday my dear!!! Enjoy every minute of this precious life!!! Love, million hugs and best wishes from Olga From Olga Fedyna	false		
114-3244246-4589810	66842073546858	2020-09-30T01:14:27+00:00	2020-09-29T18:14:27-07:00	2020-09-30T01:39:49+00:00	2020-10-02T06:59:59+00:00	-2	mtvcdxg6pdjn4tf@marketplace.amazon.com	denise	+1 480-618-5344 ext. 04613	ABR012	Delivery by Friday |Arabella Farm Direct Bouquet of 18 Fresh Cut Pink Roses with a Free Glass Vase	1	0	1	Expedited	Mrs J. Divita	252 BALDOVINO SKWY			LAKEWAY	TX	78738-6218	US		Happy Birthday!!!  Enjoy your special day in your new home  Love From Denise and family	false		
113-7361484-5251411	33760593148058	2020-09-30T01:29:24+00:00	2020-09-29T18:29:24-07:00	2020-09-30T01:57:38+00:00	2020-10-01T06:59:59+00:00	-1	z9cnmgmp0zb627b@marketplace.amazon.com	Adelina Wall	+1 602-671-6610 ext. 85572	ABR0055	Delivery by Friday | Arabella Farm Direct Bouquet of 12 Stems of Fresh Cut Hot Pink Roses in a Free Designer Glass Vase	1	0	1	SecondDay	Anne Best	507 BRIDGES ST			MOREHEAD CITY	NC	28557-3829	US		Happy Birthday, Anne! Love from the gang, Matt & Cheri Nick, Andrew & Rochelle From Adelina Wall	false		
113-9639443-4012269	57237670456154	2020-09-30T01:35:30+00:00	2020-09-29T18:35:30-07:00	2020-09-30T02:03:39+00:00	2020-10-01T06:59:59+00:00	-1	60qyvnknqnkfgf7@marketplace.amazon.com	Jane Coleman	+1 602-671-6610 ext. 70450	ABR0022	Delivery by Friday | Arabella Farm Direct Bouquet of 12 Fresh Cut Pink Roses with a Free Glass Vase	1	0	1	SecondDay	Sandy Pace	1015 ARCADIA AVE UNIT 13			ARCADIA	CA	91007-7119	US		Have a Great FOT From Jane and Paul	false		
111-3902641-8372266	28605781929458	2020-09-30T01:45:35+00:00	2020-09-29T18:45:35-07:00	2020-09-30T02:15:12+00:00	2020-10-02T06:59:59+00:00	-2	r1jt3v6c0kgs8vs@marketplace.amazon.com	katherine rohder	+1 929-436-4790 ext. 79933	ABR0022	Delivery by Friday | Arabella Farm Direct Bouquet of 12 Fresh Cut Pink Roses with a Free Glass Vase	1	0	1	Standard	Melissa Wheeler	16806 BURKET CT			WESTFIELD	IN	46074-8030	US			false		
114-2172890-0569044	24879018468538	2020-09-30T02:01:49+00:00	2020-09-29T19:01:49-07:00	2020-09-30T02:30:12+00:00	2020-10-01T06:59:59+00:00	-1	bwgpd7whv54whgx@marketplace.amazon.com	Abbi Toushin	+1 415-851-9136 ext. 52179	ABR0055	Delivery by Friday | Arabella Farm Direct Bouquet of 12 Stems of Fresh Cut Hot Pink Roses in a Free Designer Glass Vase	1	0	1	SecondDay	Sofia Bauman	7239 Canoga Drive			Rosharon	TX	77583	US		Sofia - Well wishes for a speedy recovery!!! From Your UNH Family :)	false		
112-5059666-5571410	60594996356954	2020-09-30T02:04:12+00:00	2020-09-29T19:04:12-07:00	2020-09-30T02:30:36+00:00	2020-10-01T06:59:59+00:00	-1	ljbzvt4gntvs954@marketplace.amazon.com	Penny	+1 929-436-4790 ext. 34248	ABM010	Delivery by Friday | The Spring Fling Bouquet by Arabella Bouquets with a Free Designer Glass Vase	1	0	1	SecondDay	Carole Chase	143 BRUNSWICK DR			DAVENPORT	FL	33837-4535	US		Carole and Dawn, So sorry for your loss.  Love, Penny From Penny	false		
114-2473892-0603464	07768729005402	2020-09-30T02:08:48+00:00	2020-09-29T19:08:48-07:00	2020-09-30T02:35:35+00:00	2020-10-02T06:59:59+00:00	-2	zrmt11qvptytvn6@marketplace.amazon.com	Diane B. Hilton	+1 480-618-5344 ext. 16161	ABR0033	Delivery by Friday | Arabella Farm Direct Bouquet of 12 Fresh Cut Orange Roses with a Free Glass Vase	1	0	1	Expedited	Linda White	7337 FM 2149 E			MAUD	TX	75567-2632	US		Happy birthday, Linda! I hope you have a wonderfully blessed birthday. Miss you. Ill come see you soon. Love always From Stephanie Hilton	false		
113-4196471-3993843	50520751839754	2020-09-30T02:09:38+00:00	2020-09-29T19:09:38-07:00	2020-09-30T02:38:09+00:00	2020-10-01T06:59:59+00:00	-1	c7lhndczkmgnmnr@marketplace.amazon.com	Debbie Kanner	+1 602-671-6610 ext. 83498	ABR0055	Delivery by Friday | Arabella Farm Direct Bouquet of 12 Stems of Fresh Cut Hot Pink Roses in a Free Designer Glass Vase	1	0	1	SecondDay	Susan Kanner	8685 MERCED CIR UNIT 1012-C			HUNTINGTON BEACH	CA	92646-8612	US		Happy birthday to the best woman I have ever met! I love you more than I can ever express! Debsidoodle xo From Debbie Kanner	false		
112-3251774-7325059	24903711770010	2020-09-30T02:18:23+00:00	2020-09-29T19:18:23-07:00	2020-09-30T02:47:08+00:00	2020-10-01T06:59:59+00:00	-1	wslz79qnbjf6kg3@marketplace.amazon.com	Amy Creamer	+1 480-618-5344 ext. 23913	ABR004	Arabella Farm Direct Bouquet of 12 Fresh Cut Yellow Roses with a Free Glass Vase	1	0	1	SecondDay	Sarah Nation	2115 PRINCETON AVE			SAINT PAUL	MN	55105-1118	US		Happy Birthday to my Countess xoxoxo From Audy	false		
112-8698446-7870635	17570522281522	2020-09-30T02:38:18+00:00	2020-09-29T19:38:18-07:00	2020-09-30T02:49:32+00:00	2020-10-01T06:59:59+00:00	-1	xjyx6571s7shjhq@marketplace.amazon.com	Michele Strong	+1 929-436-4790 ext. 76382	ABR012	Delivery by Friday |Arabella Farm Direct Bouquet of 18 Fresh Cut Pink Roses with a Free Glass Vase	1	0	1	SecondDay	Megan Anderson Cotes	1010 SYCAMORE ST			CHICO	CA	95928-5962	US		Ann -we love you  Michele, Dominique, Claudia and Bruce Strong Many hugs, gratitude, and smiles From Michele Strong	false		
114-7210888-9605863	26823304112266	2020-09-30T03:20:19+00:00	2020-09-29T20:20:19-07:00	2020-09-30T03:48:32+00:00	2020-10-01T06:59:59+00:00	-1	03fldy98zhk8prk@marketplace.amazon.com	Daniel Smith	+1 602-671-6610 ext. 20624	ABR0022	Delivery by Friday | Arabella Farm Direct Bouquet of 12 Fresh Cut Pink Roses with a Free Glass Vase	1	0	1	SecondDay	Audri Hess	3294 MAIN ST			NAVARRE	FL	32566-9720	US		Congratulations, Mr. & Mrs. Hulette! I’m so happy for you guys! I hope your day was magical. I love you so much!!! From Haley Smith	false		
114-3089116-6494640	47836653473026	2020-09-30T03:24:22+00:00	2020-09-29T20:24:22-07:00	2020-09-30T03:51:37+00:00	2020-10-01T06:59:59+00:00	-1	zdbsyjkvc647vtx@marketplace.amazon.com	THERESA YOUNG ESQUIRE	+1 929-436-4790 ext. 67775	ABR0022	Delivery by Friday | Arabella Farm Direct Bouquet of 12 Fresh Cut Pink Roses with a Free Glass Vase	1	0	1	SecondDay	Jeanne Pailet	7436 INSPIRA LN UNIT 2-306			NAPLES	FL	34113-1818	US		Happy Birthday! We love you more than you know. You are truly a special angel who dropped to earth. The best is yet come. Love, Kenny, Tree, and Kenny Gyi From THERESA YOUNG ESQUIRE	false		
111-7725011-7987406	66865111390978	2020-09-30T03:33:05+00:00	2020-09-29T20:33:05-07:00	2020-09-30T04:01:10+00:00	2020-10-02T06:59:59+00:00	-2	045b5f2l39kb4vx@marketplace.amazon.com	Anne K. Rowe	+1 602-671-6610 ext. 45837	ABM022	Delivery by Friday | Purple Extravagance Bouquet by Arabella Bouquets	1	0	1	Expedited	Kinzie Whitkamp	5412 Percy Priest St			Fort Worth	TX	76179	US		Dear Michael and Kinzie; Hoping you feel joy,  peace and happiness! You are both SO loved! From Anne K. Rowe	false		
112-3851295-6232236	36289691875522	2020-09-30T03:35:51+00:00	2020-09-29T20:35:51-07:00	2020-09-30T04:02:38+00:00	2020-10-02T06:59:59+00:00	-2	62w3jdx7jlgbpl2@marketplace.amazon.com	chris	+8325267935	ABM010	Delivery by Friday | The Spring Fling Bouquet by Arabella Bouquets with a Free Designer Glass Vase	1	0	1	Expedited	Sandy Perkins	1407 HIGH MESA DR			WIMBERLEY	TX	78676-9546	US		We miss you and hope you feel well soon so you can join us again and make our group complete.  Your poker friends, From Chris, Molly, Carol, Carolyn	false		
112-9715507-9759416	59581955952178	2020-09-30T03:55:04+00:00	2020-09-29T20:55:04-07:00	2020-09-30T04:18:04+00:00	2020-10-02T06:59:59+00:00	-2	7crdnmv8dw90nph@marketplace.amazon.com	June Kim	+1 480-618-5344 ext. 41977	ABR0022	Delivery by Friday | Arabella Farm Direct Bouquet of 12 Fresh Cut Pink Roses with a Free Glass Vase	1	0	1	Expedited	Hanie Kim	6300 S.W Grand Oaks Blvd	#B201		Corvallis	OR	97333	US		Happy Birthday! Stay Well!  Love, From Mom, Dad, Sally, Myoung, Olive, Harry, Elsie, Jason, Lucy	false		
112-6693908-0576256	46310731918642	2020-09-30T03:52:54+00:00	2020-09-29T20:52:54-07:00	2020-09-30T04:20:40+00:00	2020-10-02T06:59:59+00:00	-2	pc8ql2466jv0fcb@marketplace.amazon.com	Colleen	+1 480-618-5344 ext. 59234	ABR0022	Delivery by Friday | Arabella Farm Direct Bouquet of 12 Fresh Cut Pink Roses with a Free Glass Vase	1	0	1	Expedited	AUNT MARTHA BRUSCO	36 DEERFIELD DR			HARRISON CITY	PA	15636-1313	US		Dear Aunt Martha, Here is to wishing you a fantastic beginning of your 91st year!  God bless you with many many more :) From Colleen and Brian	false		
112-9660036-7353041	31926542058242	2020-09-30T04:22:52+00:00	2020-09-29T21:22:52-07:00	2020-09-30T04:46:42+00:00	2020-10-01T06:59:59+00:00	-1	j0ssbffg8grfnd5@marketplace.amazon.com	Ellen Wietecha	+1 602-671-6610 ext. 76858	ABR0033	Delivery by Friday | Arabella Farm Direct Bouquet of 12 Fresh Cut Orange Roses with a Free Glass Vase	1	0	1	SecondDay	Allie Brodsky	206 W MAY ST			MT PLEASANT	MI	48858-3408	US		To My Pretty Girl, Exam weeks suck, but you know what doesn't suck? Flowers ;)  On the days you don't want to study anymore, I hope these can help brighten up your day. I miss you, Brett From Brett Wietecha	false		
112-6568557-7017831	26716264281754	2020-09-30T04:39:39+00:00	2020-09-29T21:39:39-07:00	2020-09-30T05:08:33+00:00	2020-10-01T06:59:59+00:00	-1	9jcy02hnt9xgvn0@marketplace.amazon.com	Richard	+1 602-671-6610 ext. 50416	ABR001	Arabella Bouquets 12 Stems of Fresh Cut Red Roses in a Free Designer Glass Vase	1	0	1	SecondDay	Richard Alvarado	39344 Garden Place			FAWNSKIN	CA	92333-0301	US		Happy Anniversary Honey! From Love Richard	false		
112-3216538-7873045	67683204062418	2020-09-30T05:32:32+00:00	2020-09-29T22:32:32-07:00	2020-09-30T05:39:40+00:00	2020-10-01T06:59:59+00:00	-1	315twhptdrv59s9@marketplace.amazon.com	noel kelleher	+1 602-671-6610 ext. 17588	ABR0022	Delivery by Friday | Arabella Farm Direct Bouquet of 12 Fresh Cut Pink Roses with a Free Glass Vase	1	0	1	SecondDay	Noel Kelleher	109 Arcadia Dr.			Pacifica	CA	94044	US			false		
114-9759509-9559410	40199320466386	2020-09-30T05:16:47+00:00	2020-09-29T22:16:47-07:00	2020-09-30T05:42:53+00:00	2020-10-01T06:59:59+00:00	-1	kylmc6f9pzf52m9@marketplace.amazon.com	Margo Strull	+1 480-618-5344 ext. 76822	ABM010	Delivery by Friday | The Spring Fling Bouquet by Arabella Bouquets with a Free Designer Glass Vase	1	0	1	SecondDay	Rosalyn Wolfson	3535 SANTA FE ST UNIT 36			CORPUS CHRISTI	TX	78411-1346	US		Hope you feel better soon. We love you and we miss y’all.  Love, Margo, Eric, Porscha, Sox, Sophie, and Brody From Margo Strull	false		
111-7525373-4225804	04938692473946	2020-09-30T05:14:25+00:00	2020-09-29T22:14:25-07:00	2020-09-30T05:55:48+00:00	2020-10-01T06:59:59+00:00	-1	jvwh72rbg2lx3jz@marketplace.amazon.com	MARIA NERO	+1 480-618-5344 ext. 23143	ABR0022	Delivery by Friday | Arabella Farm Direct Bouquet of 12 Fresh Cut Pink Roses with a Free Glass Vase	1	0	1	SecondDay	MARIA C NERO	2781 La Brucherie Rd			Imperial	Ca	92251	US			false		
112-5838997-4244260	30503486770674	2020-09-30T05:44:22+00:00	2020-09-29T22:44:22-07:00	2020-09-30T06:15:00+00:00	2020-10-02T06:59:59+00:00	-2	1p53b9tkchtxw0b@marketplace.amazon.com	voliton	+1 929-436-4790 ext. 55776	ABR011	Delivery by Friday | Arabella Bouquets 18 Stems of Fresh Cut Red Roses in a Free Glass Vase	1	0	1	Expedited	Gary Ahlers	3760 S Rebel Avenue			Pahrump	NV	89048-0718	US			false		
113-6331622-8645014	38122405884066	2020-09-30T06:16:21+00:00	2020-09-29T23:16:21-07:00	2020-09-30T06:38:39+00:00	2020-10-01T06:59:59+00:00	-1	7y312d185k6g51h@marketplace.amazon.com	Wendy	+1 602-671-6610 ext. 38456	ABR001	Arabella Bouquets 12 Stems of Fresh Cut Red Roses in a Free Designer Glass Vase	1	0	1	SecondDay	Barbara Williamson	3409 ESPERANZA XING APT 7209			AUSTIN	TX	78758-8707	US		Dear Barbara,   Happy Birthday to You! Wish you enjoy your birthday during this difficult time.   Wen From Wen	false		
113-6214857-2320226	50509788668218	2020-09-30T06:22:14+00:00	2020-09-29T23:22:14-07:00	2020-09-30T06:44:15+00:00	2020-10-01T06:59:59+00:00	-1	4n5r3dbm5kctncg@marketplace.amazon.com	Raymond Townsend	+1 480-618-5344 ext. 19854	ABR0022	Delivery by Friday | Arabella Farm Direct Bouquet of 12 Fresh Cut Pink Roses with a Free Glass Vase	1	0	1	SecondDay	Amber M. Hatchett	2725 hwy 60 east			Bartow	FL	33830	US		Lover! Im so proud of u and i miss u so much. I hope knowing i love you and how great u r doing along with these flowers makes u have a smile on ur face you and i are gonna be just fine Lover keep doing so good!I❤U From Raymond Townsend	false		
112-2092104-9074629	29648880202890	2020-09-30T06:27:03+00:00	2020-09-29T23:27:03-07:00	2020-09-30T06:52:51+00:00	2020-10-01T06:59:59+00:00	-1	751zh6qc44wczj4@marketplace.amazon.com	Janette Olsen	+1 602-671-6610 ext. 60677	ABR0022	Delivery by Friday | Arabella Farm Direct Bouquet of 12 Fresh Cut Pink Roses with a Free Glass Vase	1	0	1	SecondDay	JUDY HARDMAN	8101 BRAXTON CT			MECHANICSVILLE	VA	23116-3972	US		Happy Birthday big sister and awesome Aunt!  We Love you very much! Janette and Josh From Janette Olsen	false		
113-5209790-2477035	25512789283426	2020-09-30T08:14:34+00:00	2020-09-30T01:14:34-07:00	2020-09-30T08:42:57+00:00	2020-10-01T06:59:59+00:00	-1	6gcv6rglfh4913y@marketplace.amazon.com	AJ	+1 415-851-9136 ext. 22900	ABR0055	Delivery by Friday | Arabella Farm Direct Bouquet of 12 Stems of Fresh Cut Hot Pink Roses in a Free Designer Glass Vase	1	0	1	SecondDay	Aman Luthra	301 CONSTITUTION AVE APT 412			BAYONNE	NJ	07002-6002	US		Happy Happy B'day! Have a great year ahead!! From AJ	false		
114-8546701-9685842	39787804587234	2020-09-30T10:06:35+00:00	2020-09-30T03:06:35-07:00	2020-09-30T10:33:12+00:00	2020-10-01T06:59:59+00:00	-1	w232r1wwxwxrqkf@marketplace.amazon.com	Norman Reynolds	+1 415-851-9136 ext. 82324	ABR001	Arabella Bouquets 12 Stems of Fresh Cut Red Roses in a Free Designer Glass Vase	1	0	1	SecondDay	Norman Reynolds	180 HOLIDAY LN			HAMBURG	NY	14075-4204	US			false		
