order-id	order-item-id	purchase-date	payments-date	reporting-date	promise-date	days-past-promise	buyer-email	buyer-name	buyer-phone-number	sku	product-name	quantity-purchased	quantity-shipped	quantity-to-ship	ship-service-level	recipient-name	ship-address-1	ship-address-2	ship-address-3	ship-city	ship-state	ship-postal-code	ship-country	gift-wrap-type	gift-message-text	is-business-order	purchase-order-number	price-designation
113-9940538-1443435	41253774117362	2020-09-30T17:40:04+00:00	2020-09-30T10:40:04-07:00	2020-09-30T18:21:00+00:00	2020-10-03T06:59:59+00:00	-3	z4rgzrqv8pqw5j0@marketplace.amazon.com	Ronald F Paletzki	+1 415-851-9136 ext. 61296	ABR0022	Delivery by Monday | Arabella Farm Direct Bouquet of 12 Fresh Cut Pink Roses with a Free Glass Vase	1	0	1	Expedited	Liis Edwards	859 9TH ST			SANTA MONICA	CA	90403-1508	US		Dearest Liis,  Wishing you the happiest of birthdays! May this year be full of joy and pleasure!  Love, Susan, Ron, Erik & Annika From Ronald F Paletzki	false		
113-2593866-2353012	10769125398074	2020-09-30T17:05:16+00:00	2020-09-30T10:05:16-07:00	2020-09-30T18:28:16+00:00	2020-10-02T06:59:59+00:00	-2	nvj6g61rb8ks8vj@marketplace.amazon.com	Shevani	+1 929-436-4790 ext. 85776	ABR0022	Delivery by Friday | Arabella Farm Direct Bouquet of 12 Fresh Cut Pink Roses with a Free Glass Vase	1	0	1	SecondDay	Sarah Robertson	658 N PORTER ST			ELGIN	IL	60120-3962	US		I am so sorry for your loss. Aunt Kay was a beautiful soul and will be dearly missed. I love you Sarah and Margie and am thinking about you both. From Shevani and Gurleen	false		
111-4558903-7053048	08277658220322	2020-09-30T16:22:31+00:00	2020-09-30T09:22:31-07:00	2020-09-30T18:39:53+00:00	2020-10-02T06:59:59+00:00	-2	4sfz93vqjpr38ry@marketplace.amazon.com	Kristen Hughes	+1 480-618-5344 ext. 19595	ABR0022	Delivery by Friday | Arabella Farm Direct Bouquet of 12 Fresh Cut Pink Roses with a Free Glass Vase	1	0	1	SecondDay	Mr and Mrs George Cudworth	11365 JUNEWAY TER			LAKE BLUFF	IL	60044-1215	US		Grandma and Grandpa,   Thank you for your kind generosity and helping us with throw the Wedding of our dreams.  We love you very much! From Kristen and Jonathan	false		
114-6291506-6239423	15140973990146	2020-09-30T16:34:36+00:00	2020-09-30T09:34:36-07:00	2020-09-30T18:41:57+00:00	2020-10-02T06:59:59+00:00	-2	sz2ntq8xw3n95zb@marketplace.amazon.com	Jerome	+1 480-618-5344 ext. 41710	ABR011	Delivery by Friday | Arabella Bouquets 18 Stems of Fresh Cut Red Roses in a Free Glass Vase	1	0	1	SecondDay	Sharon Shuler	5270 BUFFALO HL LN			GUTHRIE	OK	73044-7400	US		Sharon(Baby Angel) Sending my love I hope you feel better soon. Hugs From Mother	false		
113-0310719-1149039	26219002515722	2020-09-30T16:38:39+00:00	2020-09-30T09:38:39-07:00	2020-09-30T18:44:48+00:00	2020-10-02T06:59:59+00:00	-2	14f1cbl51nkp2xb@marketplace.amazon.com	Latonya Burney	+1 602-671-6610 ext. 66870	ABR0022	Delivery by Friday | Arabella Farm Direct Bouquet of 12 Fresh Cut Pink Roses with a Free Glass Vase	1	0	1	SecondDay	Elder Hill	4204 OSBORN RD			DALLAS	TX	75227-1760	US			false		
114-7652512-7642641	44299802012314	2020-09-30T17:27:56+00:00	2020-09-30T10:27:56-07:00	2020-09-30T18:45:48+00:00	2020-10-03T06:59:59+00:00	-3	hx3388nc0spsbg3@marketplace.amazon.com	Julie M. Pope	+1 929-436-4790 ext. 26331	ABR0022	Delivery by Monday | Arabella Farm Direct Bouquet of 12 Fresh Cut Pink Roses with a Free Glass Vase	1	0	1	Expedited	Annie Jolly	12405 WHARTONS WAY			RALEIGH	NC	27613-6031	US		Happy Double Didgets Annie! Love, Jack and Will	false		
113-0885633-9139423	00799073928378	2020-09-30T17:19:30+00:00	2020-09-30T10:19:30-07:00	2020-09-30T18:48:21+00:00	2020-10-03T06:59:59+00:00	-3	mr8766msjn4chwr@marketplace.amazon.com	jane johnson	+1 415-851-9136 ext. 62871	ABR0033	Delivery by Friday | Arabella Farm Direct Bouquet of 12 Fresh Cut Orange Roses with a Free Glass Vase	1	0	1	Expedited	Rodney and Hetomi Dovletian	4335 VINELAND AVE APT 303			N HOLLYWOOD	CA	91602-3430	US			false		
111-2826595-8305019	05587012592194	2020-09-30T18:18:25+00:00	2020-09-30T11:18:25-07:00	2020-09-30T18:52:27+00:00	2020-10-03T06:59:59+00:00	-3	xcs2bsp8pzxsndh@marketplace.amazon.com	Tamara Renuart	+1 929-436-4790 ext. 75680	ABR0022	Delivery by Monday | Arabella Farm Direct Bouquet of 12 Fresh Cut Pink Roses with a Free Glass Vase	1	0	1	Expedited	Ashley Bambach	123 TIMBERGATE DR			LEXINGTON	SC	29073-9009	US		Happy 30th Birthday sweet Ash! Love you so much!  Mama and Ron From Tamara Renuart	false		
113-7593173-5493045	65234657788466	2020-09-30T16:25:38+00:00	2020-09-30T09:25:38-07:00	2020-09-30T18:53:53+00:00	2020-10-02T06:59:59+00:00	-2	9y39nqp02yzcgy5@marketplace.amazon.com	Joanne Meserve	+1 929-436-4790 ext. 09344	ABR0022	Delivery by Friday | Arabella Farm Direct Bouquet of 12 Fresh Cut Pink Roses with a Free Glass Vase	1	0	1	SecondDay	Mrs Janice Green	2719 S MICHIGAN AVE			CHICAGO	IL	60616-2818	US		My DEAR SWEET AUNTIE  JANICE, I LOVE YOU, YOU'RE FOREVER IN MY HEART.                          HAPPY BIRTHDAY! From YOUR NIECE JOAN	false		
111-7784472-0108200	30264325504810	2020-09-30T15:58:51+00:00	2020-09-30T08:58:51-07:00	2020-09-30T18:55:22+00:00	2020-10-02T06:59:59+00:00	-2	90ymrhjnl89x3nj@marketplace.amazon.com	glen laehn	+1 929-436-4790 ext. 54647	ABM023	Delivery by Friday | The Morning Sun Bouquet by Arabella Bouquets	1	0	1	SecondDay	MarySue Taft	7558 RIVERVIEW RD			FRANKLIN	WI	53132-9750	US		Happy 60th Birthday, you young thing!! And may you have many more 🎉 From Barb and Glen	false		
113-9703675-5612242	56653477222346	2020-09-30T16:59:40+00:00	2020-09-30T09:59:40-07:00	2020-09-30T18:57:50+00:00	2020-10-02T06:59:59+00:00	-2	y7kkmpjszcc3jxd@marketplace.amazon.com	Janette Waite	+1 480-618-5344 ext. 15820	ABR0055	Delivery by Friday | Arabella Farm Direct Bouquet of 12 Stems of Fresh Cut Hot Pink Roses in a Free Designer Glass Vase	1	0	1	SecondDay	Barbara Bradley	3141 KEARSAGE DR UNIT 102			LAKE HAVASU CITY	AZ	86406-9056	US		Happy Birthday Barbara, Love you, Janette, Steve, Emme and Izzy From Janette Waite	false		
113-3671700-6205855	29219798007042	2020-09-30T17:04:08+00:00	2020-09-30T10:04:08-07:00	2020-09-30T19:05:02+00:00	2020-10-03T06:59:59+00:00	-3	3nnxrlrcywjkp02@marketplace.amazon.com	Lina	+1 602-671-6610 ext. 01548	ABR0022	Delivery by Friday | Arabella Farm Direct Bouquet of 12 Fresh Cut Pink Roses with a Free Glass Vase	1	0	1	Expedited	Vertina White	13201 S WAKIAL LOOP APT 2078			PHOENIX	AZ	85044-5083	US			false		
114-1366285-4285806	67316610543202	2020-09-30T18:33:31+00:00	2020-09-30T11:33:31-07:00	2020-09-30T19:11:24+00:00	2020-10-03T06:59:59+00:00	-3	70j4b5zjx1nt3nl@marketplace.amazon.com	Elizabeth Maciejewski	+1 480-618-5344 ext. 59690	ABR0022	Delivery by Monday | Arabella Farm Direct Bouquet of 12 Fresh Cut Pink Roses with a Free Glass Vase	1	0	1	Expedited	Rany Pasca	1407 MIDDLE RD UNIT 22			CALVERTON	NY	11933-1460	US		Thank you for being the most awesome mom on the planet!  I love you so much and can't wait to see you again. From Scatoula (lisa)	false		
112-3950871-4757812	03360971723634	2020-09-30T18:36:26+00:00	2020-09-30T11:36:26-07:00	2020-09-30T19:19:55+00:00	2020-10-03T06:59:59+00:00	-3	bpjyv64rgh6r2r7@marketplace.amazon.com	molly Burke	+1 929-436-4790 ext. 11026	ABR0022	Delivery by Monday | Arabella Farm Direct Bouquet of 12 Fresh Cut Pink Roses with a Free Glass Vase	1	0	1	Expedited	Erin Burke	819 2ND AVE E			KALISPELL	MT	59901-5410	US			false		
111-6362250-4852241	49888604390050	2020-09-30T19:05:10+00:00	2020-09-30T12:05:10-07:00	2020-09-30T19:29:26+00:00	2020-10-03T06:59:59+00:00	-3	ms4qyngkqrkp4d1@marketplace.amazon.com	Marina	+1 480-618-5344 ext. 91087	ABM022	Delivery by Monday | Purple Extravagance Bouquet by Arabella Bouquets	1	0	1	Expedited	Levan Elbakidze	1277 KINGS RD			MORGANTOWN	WV	26508-9155	US		Happy birthday dear Gulnara! Most best wishes for my smart, beautiful and hardworking girl! Stay strong, healthy and lucky for another 100 years!	false		
113-0516316-7997039	39577307558482	2020-09-30T17:31:32+00:00	2020-09-30T10:31:32-07:00	2020-09-30T19:31:51+00:00	2020-10-03T06:59:59+00:00	-3	h1wq9j9c2nkkdwr@marketplace.amazon.com	donna	+1 929-436-4790 ext. 39360	ABR001	Arabella Bouquets 12 Stems of Fresh Cut Red Roses in a Free Designer Glass Vase	1	0	1	Expedited	Future Mrs. Elizabeth Yount	3502 JENKS AVE APT 4307			PANAMA CITY	FL	32405-0412	US		Happy wedding week to the most beautiful bride, inside and out! Sending you all my love and best wishes from Denver. I hope you have the best day and I can't wait to celebrate soon!!! <3 From Amanda Dixon	false		
113-6461239-5621007	42817656045290	2020-09-30T16:45:58+00:00	2020-09-30T09:45:58-07:00	2020-09-30T19:34:51+00:00	2020-10-02T06:59:59+00:00	-2	7vz1t6f0tjhslrw@marketplace.amazon.com	Margaret A. Ingle	+1 929-436-4790 ext. 94730	ABM022	Delivery by Friday | Purple Extravagance Bouquet by Arabella Bouquets	1	0	1	SecondDay	Virginia Holsted	561 CEMETERY RD			ALPENA	AR	72611-3101	US		Happy belated 85th Birthday With love from your sister. From Margaret A. Ingle	false		
112-5186840-2200260	44003054774682	2020-09-30T18:42:42+00:00	2020-09-30T11:42:42-07:00	2020-09-30T19:40:41+00:00	2020-10-03T06:59:59+00:00	-3	l5l238274vb098l@marketplace.amazon.com	Rhonda K. Wade	+1 602-671-6610 ext. 02013	ABM010	Delivery by Monday | The Spring Fling Bouquet by Arabella Bouquets with a Free Designer Glass Vase	1	0	1	Expedited	Barbara Kercheval	130 PINEBROOK DR			FORT MYERS	FL	33907-5984	US		Happy Birthday Barb! Love, Rhonda From Rhonda K. Wade	false		
113-6842319-6968231	55915622820314	2020-09-30T16:02:01+00:00	2020-09-30T09:02:01-07:00	2020-09-30T19:43:52+00:00	2020-10-02T06:59:59+00:00	-2	s8cjff2f94w9ywx@marketplace.amazon.com	Theresa Andrews	+1 415-851-9136 ext. 94341	ABR0022	Delivery by Friday | Arabella Farm Direct Bouquet of 12 Fresh Cut Pink Roses with a Free Glass Vase	1	0	1	SecondDay	Debbie Crosdale	272 PENNSYLVANIA AVE			BROOKLYN	NY	11207-3442	US		Enjoy your gift! wishing you a speedy recovery From Theresa Andrews	false		
113-5398034-8151419	51466685443690	2020-09-30T19:28:11+00:00	2020-09-30T12:28:11-07:00	2020-09-30T19:57:42+00:00	2020-10-03T06:59:59+00:00	-3	yqh8tt7z2674hjf@marketplace.amazon.com	David Bouzek	+1 602-671-6610 ext. 56693	ABR0033	Delivery by Monday | Arabella Farm Direct Bouquet of 12 Fresh Cut Orange Roses with a Free Glass Vase	1	0	1	Standard	Jen Brieske	331 S WATER ST			SPARTA	WI	54656-1726	US		We hope you have a great birthday! We will go out when this is all over! From Em & Mal	false		
114-9500611-7384246	18644831745890	2020-09-30T19:32:56+00:00	2020-09-30T12:32:56-07:00	2020-09-30T20:09:20+00:00	2020-10-03T06:59:59+00:00	-3	dfjx49hssmz3k1k@marketplace.amazon.com	Karen Jaxheimer	+1 480-618-5344 ext. 02585	ABR0022	Delivery by Monday | Arabella Farm Direct Bouquet of 12 Fresh Cut Pink Roses with a Free Glass Vase	1	0	1	Expedited	Marcelline Baker	2 MARVIN CT			LAWRENCEVILLE	NJ	08648-2111	US		Dear Sis (Aunt Marcy), Enjoy your gift! Hope they brighten up your day! From Love, Joe and Karen	false		
112-1846903-7738616	11427668040746	2020-09-30T19:46:53+00:00	2020-09-30T12:46:53-07:00	2020-09-30T20:15:06+00:00	2020-10-03T06:59:59+00:00	-3	dqdryhf4svfn8f6@marketplace.amazon.com	David Alva	+1 602-671-6610 ext. 16744	ABR0066	Delivery by Monday | Arabella Bouquets 12 Stems of Fresh Cut White Roses in a Free Designer Glass Vase	1	0	1	Expedited	Lee Hales	100 8TH AVE S UNIT 302			HOPKINS	MN	55343-4603	US			false		
112-0203438-9161033	21835435817890	2020-09-30T20:08:14+00:00	2020-09-30T13:08:14-07:00	2020-09-30T20:33:40+00:00	2020-10-03T06:59:59+00:00	-3	bp403fbwqc6p4y6@marketplace.amazon.com	Lise Smetana	+1 929-436-4790 ext. 54642	ABM020	Delivery by Monday | The Sunset Bouquet by Arabella Bouquets	1	0	1	Expedited	Bjarne Nielsen	37 BEVERLY RD			KENSINGTON	CA	94707-1303	US		Kære Grete. Vi tænker meget på dig ❤️  Håber du kommer godt i gennem operationen. Kærlig hilsen Lone - Peter, Anne - Francois, Morten- Mette og Lars- Lise. From Lise Smetana	false		
111-7789974-9701867	18883454151602	2020-09-30T20:05:49+00:00	2020-09-30T13:05:49-07:00	2020-09-30T20:34:36+00:00	2020-10-03T06:59:59+00:00	-3	ln1zcyl98b477vk@marketplace.amazon.com	Robert Schrader	+1 929-436-4790 ext. 52888	ABR0022	Delivery by Monday | Arabella Farm Direct Bouquet of 12 Fresh Cut Pink Roses with a Free Glass Vase	1	0	1	Standard	Marcia Able	Q CARRIERS LOGISTICS - HUMAN RESOURCES DEPT	1415 MARAS ST		SHAKOPEE	MN	55379-8800	US		Marcia  All the best in your new position! From Bob Schrader	false		
