order-id	order-item-id	purchase-date	payments-date	reporting-date	promise-date	days-past-promise	buyer-email	buyer-name	buyer-phone-number	sku	product-name	quantity-purchased	quantity-shipped	quantity-to-ship	ship-service-level	recipient-name	ship-address-1	ship-address-2	ship-address-3	ship-city	ship-state	ship-postal-code	ship-country	gift-wrap-type	gift-message-text	is-business-order	purchase-order-number	price-designation
113-9940538-1443435	41253774117362	2020-09-30T17:40:04+00:00	2020-09-30T10:40:04-07:00	2020-09-30T18:21:00+00:00	2020-10-03T06:59:59+00:00	-2	z4rgzrqv8pqw5j0@marketplace.amazon.com	Ronald F Paletzki	+1 415-851-9136 ext. 61296	ABR0022	Delivery by Monday | Arabella Farm Direct Bouquet of 12 Fresh Cut Pink Roses with a Free Glass Vase	1	0	1	Expedited	Liis Edwards	859 9TH ST			SANTA MONICA	CA	90403-1508	US		Dearest Liis,  Wishing you the happiest of birthdays! May this year be full of joy and pleasure!  Love, Susan, Ron, Erik & Annika From Ronald F Paletzki	false		
113-2593866-2353012	10769125398074	2020-09-30T17:05:16+00:00	2020-09-30T10:05:16-07:00	2020-09-30T18:28:16+00:00	2020-10-02T06:59:59+00:00	-1	nvj6g61rb8ks8vj@marketplace.amazon.com	Shevani	+1 929-436-4790 ext. 85776	ABR0022	Delivery by Friday | Arabella Farm Direct Bouquet of 12 Fresh Cut Pink Roses with a Free Glass Vase	1	0	1	SecondDay	Sarah Robertson	658 N PORTER ST			ELGIN	IL	60120-3962	US		I am so sorry for your loss. Aunt Kay was a beautiful soul and will be dearly missed. I love you Sarah and Margie and am thinking about you both. From Shevani and Gurleen	false		
111-4558903-7053048	08277658220322	2020-09-30T16:22:31+00:00	2020-09-30T09:22:31-07:00	2020-09-30T18:39:53+00:00	2020-10-02T06:59:59+00:00	-1	4sfz93vqjpr38ry@marketplace.amazon.com	Kristen Hughes	+1 480-618-5344 ext. 19595	ABR0022	Delivery by Friday | Arabella Farm Direct Bouquet of 12 Fresh Cut Pink Roses with a Free Glass Vase	1	0	1	SecondDay	Mr and Mrs George Cudworth	11365 JUNEWAY TER			LAKE BLUFF	IL	60044-1215	US		Grandma and Grandpa,   Thank you for your kind generosity and helping us with throw the Wedding of our dreams.  We love you very much! From Kristen and Jonathan	false		
114-6291506-6239423	15140973990146	2020-09-30T16:34:36+00:00	2020-09-30T09:34:36-07:00	2020-09-30T18:41:57+00:00	2020-10-02T06:59:59+00:00	-1	sz2ntq8xw3n95zb@marketplace.amazon.com	Jerome	+1 480-618-5344 ext. 41710	ABR011	Delivery by Friday | Arabella Bouquets 18 Stems of Fresh Cut Red Roses in a Free Glass Vase	1	0	1	SecondDay	Sharon Shuler	5270 BUFFALO HL LN			GUTHRIE	OK	73044-7400	US		Sharon(Baby Angel) Sending my love I hope you feel better soon. Hugs From Mother	false		
113-0310719-1149039	26219002515722	2020-09-30T16:38:39+00:00	2020-09-30T09:38:39-07:00	2020-09-30T18:44:48+00:00	2020-10-02T06:59:59+00:00	-1	14f1cbl51nkp2xb@marketplace.amazon.com	Latonya Burney	+1 602-671-6610 ext. 66870	ABR0022	Delivery by Friday | Arabella Farm Direct Bouquet of 12 Fresh Cut Pink Roses with a Free Glass Vase	1	0	1	SecondDay	Elder Hill	4204 OSBORN RD			DALLAS	TX	75227-1760	US			false		
114-7652512-7642641	44299802012314	2020-09-30T17:27:56+00:00	2020-09-30T10:27:56-07:00	2020-09-30T18:45:48+00:00	2020-10-03T06:59:59+00:00	-2	hx3388nc0spsbg3@marketplace.amazon.com	Julie M. Pope	+1 929-436-4790 ext. 26331	ABR0022	Delivery by Monday | Arabella Farm Direct Bouquet of 12 Fresh Cut Pink Roses with a Free Glass Vase	1	0	1	Expedited	Annie Jolly	12405 WHARTONS WAY			RALEIGH	NC	27613-6031	US		Happy Double Didgets Annie! Love, Jack and Will	false		
113-0885633-9139423	00799073928378	2020-09-30T17:19:30+00:00	2020-09-30T10:19:30-07:00	2020-09-30T18:48:21+00:00	2020-10-03T06:59:59+00:00	-2	mr8766msjn4chwr@marketplace.amazon.com	jane johnson	+1 415-851-9136 ext. 62871	ABR0033	Delivery by Friday | Arabella Farm Direct Bouquet of 12 Fresh Cut Orange Roses with a Free Glass Vase	1	0	1	Expedited	Rodney and Hetomi Dovletian	4335 VINELAND AVE APT 303			N HOLLYWOOD	CA	91602-3430	US			false		
111-2826595-8305019	05587012592194	2020-09-30T18:18:25+00:00	2020-09-30T11:18:25-07:00	2020-09-30T18:52:27+00:00	2020-10-03T06:59:59+00:00	-2	xcs2bsp8pzxsndh@marketplace.amazon.com	Tamara Renuart	+1 929-436-4790 ext. 75680	ABR0022	Delivery by Monday | Arabella Farm Direct Bouquet of 12 Fresh Cut Pink Roses with a Free Glass Vase	1	0	1	Expedited	Ashley Bambach	123 TIMBERGATE DR			LEXINGTON	SC	29073-9009	US		Happy 30th Birthday sweet Ash! Love you so much!  Mama and Ron From Tamara Renuart	false		
113-7593173-5493045	65234657788466	2020-09-30T16:25:38+00:00	2020-09-30T09:25:38-07:00	2020-09-30T18:53:53+00:00	2020-10-02T06:59:59+00:00	-1	9y39nqp02yzcgy5@marketplace.amazon.com	Joanne Meserve	+1 929-436-4790 ext. 09344	ABR0022	Delivery by Friday | Arabella Farm Direct Bouquet of 12 Fresh Cut Pink Roses with a Free Glass Vase	1	0	1	SecondDay	Mrs Janice Green	2719 S MICHIGAN AVE			CHICAGO	IL	60616-2818	US		My DEAR SWEET AUNTIE  JANICE, I LOVE YOU, YOU'RE FOREVER IN MY HEART.                          HAPPY BIRTHDAY! From YOUR NIECE JOAN	false		
111-7784472-0108200	30264325504810	2020-09-30T15:58:51+00:00	2020-09-30T08:58:51-07:00	2020-09-30T18:55:22+00:00	2020-10-02T06:59:59+00:00	-1	90ymrhjnl89x3nj@marketplace.amazon.com	glen laehn	+1 929-436-4790 ext. 54647	ABM023	Delivery by Friday | The Morning Sun Bouquet by Arabella Bouquets	1	0	1	SecondDay	MarySue Taft	7558 RIVERVIEW RD			FRANKLIN	WI	53132-9750	US		Happy 60th Birthday, you young thing!! And may you have many more 🎉 From Barb and Glen	false		
113-9703675-5612242	56653477222346	2020-09-30T16:59:40+00:00	2020-09-30T09:59:40-07:00	2020-09-30T18:57:50+00:00	2020-10-02T06:59:59+00:00	-1	y7kkmpjszcc3jxd@marketplace.amazon.com	Janette Waite	+1 480-618-5344 ext. 15820	ABR0055	Delivery by Friday | Arabella Farm Direct Bouquet of 12 Stems of Fresh Cut Hot Pink Roses in a Free Designer Glass Vase	1	0	1	SecondDay	Barbara Bradley	3141 KEARSAGE DR UNIT 102			LAKE HAVASU CITY	AZ	86406-9056	US		Happy Birthday Barbara, Love you, Janette, Steve, Emme and Izzy From Janette Waite	false		
113-3671700-6205855	29219798007042	2020-09-30T17:04:08+00:00	2020-09-30T10:04:08-07:00	2020-09-30T19:05:02+00:00	2020-10-03T06:59:59+00:00	-2	3nnxrlrcywjkp02@marketplace.amazon.com	Lina	+1 602-671-6610 ext. 01548	ABR0022	Delivery by Friday | Arabella Farm Direct Bouquet of 12 Fresh Cut Pink Roses with a Free Glass Vase	1	0	1	Expedited	Vertina White	13201 S WAKIAL LOOP APT 2078			PHOENIX	AZ	85044-5083	US			false		
114-1366285-4285806	67316610543202	2020-09-30T18:33:31+00:00	2020-09-30T11:33:31-07:00	2020-09-30T19:11:24+00:00	2020-10-03T06:59:59+00:00	-2	70j4b5zjx1nt3nl@marketplace.amazon.com	Elizabeth Maciejewski	+1 480-618-5344 ext. 59690	ABR0022	Delivery by Monday | Arabella Farm Direct Bouquet of 12 Fresh Cut Pink Roses with a Free Glass Vase	1	0	1	Expedited	Rany Pasca	1407 MIDDLE RD UNIT 22			CALVERTON	NY	11933-1460	US		Thank you for being the most awesome mom on the planet!  I love you so much and can't wait to see you again. From Scatoula (lisa)	false		
112-3950871-4757812	03360971723634	2020-09-30T18:36:26+00:00	2020-09-30T11:36:26-07:00	2020-09-30T19:19:55+00:00	2020-10-03T06:59:59+00:00	-2	bpjyv64rgh6r2r7@marketplace.amazon.com	molly Burke	+1 929-436-4790 ext. 11026	ABR0022	Delivery by Monday | Arabella Farm Direct Bouquet of 12 Fresh Cut Pink Roses with a Free Glass Vase	1	0	1	Expedited	Erin Burke	819 2ND AVE E			KALISPELL	MT	59901-5410	US			false		
111-6362250-4852241	49888604390050	2020-09-30T19:05:10+00:00	2020-09-30T12:05:10-07:00	2020-09-30T19:29:26+00:00	2020-10-03T06:59:59+00:00	-2	ms4qyngkqrkp4d1@marketplace.amazon.com	Marina	+1 480-618-5344 ext. 91087	ABM022	Delivery by Monday | Purple Extravagance Bouquet by Arabella Bouquets	1	0	1	Expedited	Levan Elbakidze	1277 KINGS RD			MORGANTOWN	WV	26508-9155	US		Happy birthday dear Gulnara! Most best wishes for my smart, beautiful and hardworking girl! Stay strong, healthy and lucky for another 100 years!	false		
113-0516316-7997039	39577307558482	2020-09-30T17:31:32+00:00	2020-09-30T10:31:32-07:00	2020-09-30T19:31:51+00:00	2020-10-03T06:59:59+00:00	-2	h1wq9j9c2nkkdwr@marketplace.amazon.com	donna	+1 929-436-4790 ext. 39360	ABR001	Arabella Bouquets 12 Stems of Fresh Cut Red Roses in a Free Designer Glass Vase	1	0	1	Expedited	Future Mrs. Elizabeth Yount	3502 JENKS AVE APT 4307			PANAMA CITY	FL	32405-0412	US		Happy wedding week to the most beautiful bride, inside and out! Sending you all my love and best wishes from Denver. I hope you have the best day and I can't wait to celebrate soon!!! <3 From Amanda Dixon	false		
113-6461239-5621007	42817656045290	2020-09-30T16:45:58+00:00	2020-09-30T09:45:58-07:00	2020-09-30T19:34:51+00:00	2020-10-02T06:59:59+00:00	-1	7vz1t6f0tjhslrw@marketplace.amazon.com	Margaret A. Ingle	+1 929-436-4790 ext. 94730	ABM022	Delivery by Friday | Purple Extravagance Bouquet by Arabella Bouquets	1	0	1	SecondDay	Virginia Holsted	561 CEMETERY RD			ALPENA	AR	72611-3101	US		Happy belated 85th Birthday With love from your sister. From Margaret A. Ingle	false		
112-5186840-2200260	44003054774682	2020-09-30T18:42:42+00:00	2020-09-30T11:42:42-07:00	2020-09-30T19:40:41+00:00	2020-10-03T06:59:59+00:00	-2	l5l238274vb098l@marketplace.amazon.com	Rhonda K. Wade	+1 602-671-6610 ext. 02013	ABM010	Delivery by Monday | The Spring Fling Bouquet by Arabella Bouquets with a Free Designer Glass Vase	1	0	1	Expedited	Barbara Kercheval	130 PINEBROOK DR			FORT MYERS	FL	33907-5984	US		Happy Birthday Barb! Love, Rhonda From Rhonda K. Wade	false		
113-6842319-6968231	55915622820314	2020-09-30T16:02:01+00:00	2020-09-30T09:02:01-07:00	2020-09-30T19:43:52+00:00	2020-10-02T06:59:59+00:00	-1	s8cjff2f94w9ywx@marketplace.amazon.com	Theresa Andrews	+1 415-851-9136 ext. 94341	ABR0022	Delivery by Friday | Arabella Farm Direct Bouquet of 12 Fresh Cut Pink Roses with a Free Glass Vase	1	0	1	SecondDay	Debbie Crosdale	272 PENNSYLVANIA AVE			BROOKLYN	NY	11207-3442	US		Enjoy your gift! wishing you a speedy recovery From Theresa Andrews	false		
113-5398034-8151419	51466685443690	2020-09-30T19:28:11+00:00	2020-09-30T12:28:11-07:00	2020-09-30T19:57:42+00:00	2020-10-03T06:59:59+00:00	-2	yqh8tt7z2674hjf@marketplace.amazon.com	David Bouzek	+1 602-671-6610 ext. 56693	ABR0033	Delivery by Monday | Arabella Farm Direct Bouquet of 12 Fresh Cut Orange Roses with a Free Glass Vase	1	0	1	Standard	Jen Brieske	331 S WATER ST			SPARTA	WI	54656-1726	US		We hope you have a great birthday! We will go out when this is all over! From Em & Mal	false		
114-9500611-7384246	18644831745890	2020-09-30T19:32:56+00:00	2020-09-30T12:32:56-07:00	2020-09-30T20:09:20+00:00	2020-10-03T06:59:59+00:00	-2	dfjx49hssmz3k1k@marketplace.amazon.com	Karen Jaxheimer	+1 480-618-5344 ext. 02585	ABR0022	Delivery by Monday | Arabella Farm Direct Bouquet of 12 Fresh Cut Pink Roses with a Free Glass Vase	1	0	1	Expedited	Marcelline Baker	2 MARVIN CT			LAWRENCEVILLE	NJ	08648-2111	US		Dear Sis (Aunt Marcy), Enjoy your gift! Hope they brighten up your day! From Love, Joe and Karen	false		
112-1846903-7738616	11427668040746	2020-09-30T19:46:53+00:00	2020-09-30T12:46:53-07:00	2020-09-30T20:15:06+00:00	2020-10-03T06:59:59+00:00	-2	dqdryhf4svfn8f6@marketplace.amazon.com	David Alva	+1 602-671-6610 ext. 16744	ABR0066	Delivery by Monday | Arabella Bouquets 12 Stems of Fresh Cut White Roses in a Free Designer Glass Vase	1	0	1	Expedited	Lee Hales	100 8TH AVE S UNIT 302			HOPKINS	MN	55343-4603	US			false		
112-0203438-9161033	21835435817890	2020-09-30T20:08:14+00:00	2020-09-30T13:08:14-07:00	2020-09-30T20:33:40+00:00	2020-10-03T06:59:59+00:00	-2	bp403fbwqc6p4y6@marketplace.amazon.com	Lise Smetana	+1 929-436-4790 ext. 54642	ABM020	Delivery by Monday | The Sunset Bouquet by Arabella Bouquets	1	0	1	Expedited	Bjarne Nielsen	37 BEVERLY RD			KENSINGTON	CA	94707-1303	US		Kære Grete. Vi tænker meget på dig ❤️  Håber du kommer godt i gennem operationen. Kærlig hilsen Lone - Peter, Anne - Francois, Morten- Mette og Lars- Lise. From Lise Smetana	false		
111-7789974-9701867	18883454151602	2020-09-30T20:05:49+00:00	2020-09-30T13:05:49-07:00	2020-09-30T20:34:36+00:00	2020-10-03T06:59:59+00:00	-2	ln1zcyl98b477vk@marketplace.amazon.com	Robert Schrader	+1 929-436-4790 ext. 52888	ABR0022	Delivery by Monday | Arabella Farm Direct Bouquet of 12 Fresh Cut Pink Roses with a Free Glass Vase	1	0	1	Standard	Marcia Able	Q CARRIERS LOGISTICS - HUMAN RESOURCES DEPT	1415 MARAS ST		SHAKOPEE	MN	55379-8800	US		Marcia  All the best in your new position! From Bob Schrader	false		
112-7912484-9440228	61285004022362	2020-09-30T21:59:33+00:00	2020-09-30T14:59:33-07:00	2020-09-30T22:24:08+00:00	2020-10-03T06:59:59+00:00	-2	0d22v4q1pk4d3qc@marketplace.amazon.com	kay  O'Meara	+1 602-671-6610 ext. 64175	ABR015	Delivery by Monday | Arabella Farm Direct Bouquet of 18 Fresh Cut Orange Roses with a Free Glass Vase	1	0	1	Expedited	Jill Kilkelly	2121 SHARONDALE DR			NASHVILLE	TN	37215-1211	US		We hope these brighten your day. Bill and Kay From Kay OMeara	false		
111-2158625-8023424	43780707615778	2020-09-30T21:54:25+00:00	2020-09-30T14:54:25-07:00	2020-09-30T22:24:36+00:00	2020-10-03T06:59:59+00:00	-2	nfwv2w7xw76zzxr@marketplace.amazon.com	Caryl Parker	+1 602-671-6610 ext. 76618	ABR0033	Delivery by Monday | Arabella Farm Direct Bouquet of 12 Fresh Cut Orange Roses with a Free Glass Vase	1	0	1	Expedited	Connie Pirtle	OAKMONT REHABILITATION CENTER	26 ANN ST		OAKMONT	PA	15139-2005	US			false		
113-9498598-7316209	66749830049266	2020-09-30T22:00:40+00:00	2020-09-30T15:00:40-07:00	2020-09-30T22:28:14+00:00	2020-10-03T06:59:59+00:00	-2	2fvpb7bk39cddq6@marketplace.amazon.com	kim	+1 929-436-4790 ext. 72806	ABM022	Delivery by Monday | Purple Extravagance Bouquet by Arabella Bouquets	1	0	1	Expedited	Jackie porter	943 SW 149TH WAY			SUNRISE	FL	33326-1953	US		Get well! We love you Mimi From Bob Kim Jess Dan	false		
114-5742703-8937064	09937444745226	2020-09-30T22:02:17+00:00	2020-09-30T15:02:17-07:00	2020-09-30T22:28:55+00:00	2020-10-03T06:59:59+00:00	-2	0f7v3qxncy71zjy@marketplace.amazon.com	Sandra Lopes	+1 602-671-6610 ext. 92619	ABM010	Delivery by Monday | The Spring Fling Bouquet by Arabella Bouquets with a Free Designer Glass Vase	1	0	1	Expedited	Melissa Maldonado-Moody	4612 LOMA BLANCA DR			EL PASO	TX	79934-4121	US		Feliz Cumpleanos Mama!!!  Te queremos mucho y te estranamo mucho <3 From Dominic, Nicholas, Marcos y Sandra	false		
114-5273323-2276213	69146017150842	2020-09-30T22:10:28+00:00	2020-09-30T15:10:28-07:00	2020-09-30T22:37:43+00:00	2020-10-03T06:59:59+00:00	-2	kt9dkmhggbwcvqd@marketplace.amazon.com	Shayan Moazeni	+1 929-436-4790 ext. 66818	ABR0055	Delivery by Monday | Arabella Farm Direct Bouquet of 12 Stems of Fresh Cut Hot Pink Roses in a Free Designer Glass Vase	1	0	1	Expedited	Kelsey Theriault	321 TUSCANY WAY APT 307			MELBOURNE	FL	32940-8175	US			false		
112-5843902-3520215	34734649364674	2020-09-30T22:19:28+00:00	2020-09-30T15:19:28-07:00	2020-09-30T22:47:09+00:00	2020-10-03T06:59:59+00:00	-2	1wkz5xtfpm6d5l4@marketplace.amazon.com	rekha_kamani@hotmail.com	+1 415-851-9136 ext. 53968	ABR0022	Delivery by Monday | Arabella Farm Direct Bouquet of 12 Fresh Cut Pink Roses with a Free Glass Vase	1	0	1	Expedited	Niyathi Sulkunte	1201 CAMPUS POINTE CT APT 2202			CHARLOTTE	NC	28262-0820	US			false		
113-3271796-5671402	02481108257098	2020-09-30T22:21:25+00:00	2020-09-30T15:21:25-07:00	2020-09-30T22:51:06+00:00	2020-10-03T06:59:59+00:00	-2	slzzz4b4d87z12x@marketplace.amazon.com	bonnie michael	+1 480-618-5344 ext. 60316	ABSR003	Arabella Bouquets Fresh Cut Yellow Spray Roses in a Free Designer Glass Vase	1	0	1	Expedited	David Lowers	10409 N OKLAWAHA AVE			TAMPA	FL	33617-3427	US			false		
114-8520731-9018633	48787994899874	2020-09-30T22:34:43+00:00	2020-09-30T15:34:43-07:00	2020-09-30T22:55:34+00:00	2020-10-03T06:59:59+00:00	-2	7h7c746fqq3wmp4@marketplace.amazon.com	del barnes	+1 602-671-6610 ext. 10430	ABR0033	Delivery by Monday | Arabella Farm Direct Bouquet of 12 Fresh Cut Orange Roses with a Free Glass Vase	1	0	1	Expedited	Mary Hanks	6982 ENDERS AVE			SAN DIEGO	CA	92122-2803	US		Mary, as usual I'm always the last to know.... Anything.  I hope you are much better.  Hugs.  Enjoy your gift! From del barnes	false		
113-1661186-8728216	56214259087450	2020-09-30T22:49:27+00:00	2020-09-30T15:49:27-07:00	2020-09-30T23:18:42+00:00	2020-10-03T06:59:59+00:00	-2	f6rjl62kd1htfdx@marketplace.amazon.com	Monica	+1 929-436-4790 ext. 20461	ABR0022	Delivery by Monday | Arabella Farm Direct Bouquet of 12 Fresh Cut Pink Roses with a Free Glass Vase	1	0	1	Expedited	Monica peralta	13 DOLORES PL			CENTRAL ISLIP	NY	11722-2203	US			false		
112-6027334-6679417	01189996967474	2020-09-30T22:59:23+00:00	2020-09-30T15:59:23-07:00	2020-09-30T23:19:45+00:00	2020-10-03T06:59:59+00:00	-2	kqq77jn8fbwgjnf@marketplace.amazon.com	michael j. matuck	+1 602-671-6610 ext. 30801	ABM0033	Delivery by Monday | Arabella Farm Direct Bouquet of Fresh Cut White Hydrangea with a Free Glass Vase	1	0	1	Expedited	eileen  zastrow	6185 OVERLOOK CT			GREENDALE	WI	53129-2135	US			false		
113-1008350-3774617	10435147196930	2020-09-30T22:51:19+00:00	2020-09-30T15:51:19-07:00	2020-09-30T23:20:05+00:00	2020-10-03T06:59:59+00:00	-2	jhh02hvd19vfg4k@marketplace.amazon.com	william reeves	+1 480-618-5344 ext. 80757	ABM010	Delivery by Monday | The Spring Fling Bouquet by Arabella Bouquets with a Free Designer Glass Vase	1	0	1	Expedited	william reeves	5512 hennessey dr			Stockton	CA	95219	US		To my beautiful wife ❤ I don't show you how much I love you and what you mean 💛 to me and our whole family 👪  Hope you enjoy these flowers 💐  I love you, Bo From william reeves	false		
111-0497713-0238650	08607481406674	2020-09-30T23:03:09+00:00	2020-09-30T16:03:09-07:00	2020-09-30T23:24:55+00:00	2020-10-03T06:59:59+00:00	-2	g5wv8z2bj6phzl6@marketplace.amazon.com	jane linehan	+1 929-436-4790 ext. 20527	ABM022	Delivery by Monday | Purple Extravagance Bouquet by Arabella Bouquets	1	0	1	Expedited	Elly Drees	BROOKDALE RETIREMENT COMMUNITY	1590 W SAN MARCOS BLVD APT 320		SAN MARCOS	CA	92078-4076	US		Dear Elly, You are constantly in our thoughts, and we love you very much. Big hugs and kisses, Liam, Jane, Nick and Tristan From jane linehan	false		
111-3196020-2422668	17757982722130	2020-09-30T23:00:37+00:00	2020-09-30T16:00:37-07:00	2020-09-30T23:26:08+00:00	2020-10-03T06:59:59+00:00	-2	dy7wx4vp8s9qvnq@marketplace.amazon.com	masiha	+1 602-671-6610 ext. 18654	ABR0033	Arabella Farm Direct Bouquet of 12 Fresh Cut Orange Roses with a Free Glass Vase	1	0	1	Standard	Irene Brucker	2639 CALLE REYNOSO			PLEASANTON	CA	94566-5712	US		Dear Renee, Have a fantastic birthday and spoil yourself a bit....you deserve it! Hugs and love, Masiha From Masiha	false		
114-9908197-1380257	26291635689938	2020-09-30T23:06:28+00:00	2020-09-30T16:06:28-07:00	2020-09-30T23:31:19+00:00	2020-10-03T06:59:59+00:00	-2	sprsfkwl04rdddh@marketplace.amazon.com	Mansoor Ahmed	+1 480-618-5344 ext. 52281	ABM0033	Delivery by Monday | Arabella Farm Direct Bouquet of Fresh Cut White Hydrangea with a Free Glass Vase	1	0	1	Expedited	Narjis Ali	12356 LIMA LN			RESTON	VA	20191-2516	US		Dear Narjis, Tasmia, Chikoo and Ali, Ashiq was a gentle soul who left this world too soon. May he rest In peace. We are very sorry for your loss, and send you our prayers and condolences. From Mooni and Hema	false		
113-3055565-4141029	42343771618370	2020-09-30T23:10:25+00:00	2020-09-30T16:10:25-07:00	2020-09-30T23:32:13+00:00	2020-10-03T06:59:59+00:00	-2	62hr5tf0js5qw1k@marketplace.amazon.com	Gina Ivy	+1 929-436-4790 ext. 22522	ABR0022	Delivery by Monday | Arabella Farm Direct Bouquet of 12 Fresh Cut Pink Roses with a Free Glass Vase	1	0	1	Expedited	Koral Ivy	390 ECHO LN			SEDRO WOOLLEY	WA	98284-9578	US		Enjoy your gift! From Gina Ivy	false		
111-8246583-8242657	33737676581946	2020-09-30T23:26:31+00:00	2020-09-30T16:26:31-07:00	2020-09-30T23:52:57+00:00	2020-10-03T06:59:59+00:00	-2	1x6fvbc3yk0gz71@marketplace.amazon.com	Forrest Coleman	+1 602-671-6610 ext. 43894	ABM022	Delivery by Monday | Purple Extravagance Bouquet by Arabella Bouquets	1	0	1	Expedited	Loretta Davis	665 VERNON RD			COLUMBUS	OH	43209-2463	US		Thank you so much for everything.   We love you!  Inger and Sonia From Inger Johansen Coleman	false		
113-4481012-1737804	59624440295562	2020-10-01T00:11:25+00:00	2020-09-30T17:11:25-07:00	2020-10-01T00:41:42+00:00	2020-10-03T06:59:59+00:00	-2	f7bzcdb6w15mfwf@marketplace.amazon.com	Charles A McDonald	+1 602-671-6610 ext. 99933	ABR0022	Delivery by Monday | Arabella Farm Direct Bouquet of 12 Fresh Cut Pink Roses with a Free Glass Vase	1	0	1	Expedited	Sandra Grande	1042 CEDAR FOREST CT			STONE MOUNTAIN	GA	30083-2462	US			false		
114-0093849-5691438	62242620474778	2020-10-01T00:33:55+00:00	2020-09-30T17:33:55-07:00	2020-10-01T01:03:49+00:00	2020-10-03T06:59:59+00:00	-2	xzn0nlprltr4sxm@marketplace.amazon.com	Nancy	+1 415-851-9136 ext. 01730	ABR0033	Arabella Farm Direct Bouquet of 12 Fresh Cut Orange Roses with a Free Glass Vase	1	0	1	Expedited	Nancy D. Taylor	8612 STARGAZER ST			SARASOTA	FL	34238-2409	US			false		
113-8355668-9881006	70197768535178	2020-10-01T00:57:34+00:00	2020-09-30T17:57:34-07:00	2020-10-01T01:26:12+00:00	2020-10-03T06:59:59+00:00	-2	r7hkpgvp4mxsb36@marketplace.amazon.com	john jacoby	+1 929-436-4790 ext. 08542	ABM022	Delivery by Monday | Purple Extravagance Bouquet by Arabella Bouquets	1	0	1	Expedited	Edward A Jacoby	325 N BOSTON AVE			MASSAPEQUA	NY	11758-1553	US		Happy Birthday ,       Love John, Valerie n Kids...Enjoy the Day.. From john jacoby	false		
111-2795987-9181062	69337785877922	2020-10-01T00:59:36+00:00	2020-09-30T17:59:36-07:00	2020-10-01T01:27:29+00:00	2020-10-03T06:59:59+00:00	-2	dsmd9pstd6kr34j@marketplace.amazon.com	Jane Finan	+1 929-436-4790 ext. 82052	ABR0022	Delivery by Monday | Arabella Farm Direct Bouquet of 12 Fresh Cut Pink Roses with a Free Glass Vase	1	0	1	Expedited	Biana	122 SPY GLASS CT			ALBANY	NY	12203-4925	US		Dearest Biana! Happy Happy Birthday my love! Wish we could be there to celebrate you but cant wait to see you soon! Have the most beautiful & wonderful birthday! From Love, Jane & Paul	false		
111-4764007-6561811	11436448059778	2020-10-01T01:35:42+00:00	2020-09-30T18:35:42-07:00	2020-10-01T02:05:43+00:00	2020-10-03T06:59:59+00:00	-2	ckx7b75992xsgm4@marketplace.amazon.com	Bob Miller	+1 480-618-5344 ext. 35332	ABR0022	Delivery by Monday | Arabella Farm Direct Bouquet of 12 Fresh Cut Pink Roses with a Free Glass Vase	1	0	1	Expedited	Lucy Miller	4917 Chatfield Drive			Corpus Christi	TX	78413	US			false		
111-9504364-9940248	61738452769626	2020-10-01T01:45:25+00:00	2020-09-30T18:45:25-07:00	2020-10-01T02:13:42+00:00	2020-10-03T06:59:59+00:00	-2	ckx7b75992xsgm4@marketplace.amazon.com	Bob Miller	+1 602-671-6610 ext. 50045	ABR0022	Delivery by Monday | Arabella Farm Direct Bouquet of 12 Fresh Cut Pink Roses with a Free Glass Vase	1	0	1	Expedited	Pam Day	1512 LA PAZ DR			PLANO	TX	75074-7900	US			false		
114-0179606-3672254	57444418357490	2020-10-01T01:49:55+00:00	2020-09-30T18:49:55-07:00	2020-10-01T02:22:59+00:00	2020-10-03T06:59:59+00:00	-2	ptk6tllcq49x8n3@marketplace.amazon.com	Danny Thrower	+1 602-671-6610 ext. 93355	ABB014	Arabella Bouquets | Farm Direct 48 Fresh Cut White Roses	1	0	1	Expedited	Lindsey Accronero	100 POLLEY LN			PLEASANT HILL	CA	94523-4625	US		Those we have held in our arms for a short while we hold in our hearts forever in remembrance of all the good they have done. Say not in grief 'They are no more’ but in thankfulness that They Were. Le mie condoglianze. From Danny Thrower	false		
111-7884216-8401839	52888750217874	2020-10-01T02:05:03+00:00	2020-09-30T19:05:03-07:00	2020-10-01T02:34:11+00:00	2020-10-03T06:59:59+00:00	-2	l2nybdq8576ftgz@marketplace.amazon.com	Skye Scarbrough	+1 929-436-4790 ext. 05278	ABR0055	Delivery by Monday | Arabella Farm Direct Bouquet of 12 Stems of Fresh Cut Hot Pink Roses in a Free Designer Glass Vase	1	0	1	Expedited	Pamela Bell	930 N TAMIAMI TRL APT 1003			SARASOTA	FL	34236-4072	US		Here’s a reminder that you are AMAZING and LOVED so much! From Skye xoxo	false		
111-3934582-8546636	35871129950714	2020-10-01T02:19:07+00:00	2020-09-30T19:19:07-07:00	2020-10-01T02:45:07+00:00	2020-10-03T06:59:59+00:00	-2	b02ysfgm0xj95mv@marketplace.amazon.com	Lelia B. Mitchener	+1 602-671-6610 ext. 64817	ABR004	Delivery by Monday | Arabella Farm Direct Bouquet of 12 Fresh Cut Yellow Roses with a Free Glass Vase	1	0	1	Expedited	Audrea Robinson	3362 ROBERT TRENT JONES DR	UNIT 206		ORLANDO	FL	32835-2391	US		Happy Birthday Audrea From Lelia, Lindsay, and Kyla Mitchener	false		
114-5554091-2612207	58030503745626	2020-10-01T02:23:15+00:00	2020-09-30T19:23:15-07:00	2020-10-01T02:51:28+00:00	2020-10-03T06:59:59+00:00	-2	6wc8yb71v7m6h87@marketplace.amazon.com	Jennifer Hollerbach	+1 602-671-6610 ext. 93801	ABR0022	Delivery by Monday | Arabella Farm Direct Bouquet of 12 Fresh Cut Pink Roses with a Free Glass Vase	1	0	1	Expedited	Tracy Saunby	53036 PIGEON CREEK DR			CHESTERFIELD	MI	48047-5953	US		We hope you feel better soon! From Jenn and Family	false		
112-8566428-0382659	16048416382194	2020-10-01T02:34:53+00:00	2020-09-30T19:34:53-07:00	2020-10-01T03:02:50+00:00	2020-10-03T06:59:59+00:00	-2	25v5yk7z1d0fhvw@marketplace.amazon.com	dottie quijalvo	+1 415-851-9136 ext. 77531	ABR0022	Delivery by Monday | Arabella Farm Direct Bouquet of 12 Fresh Cut Pink Roses with a Free Glass Vase	1	0	1	Standard	Bonnie	11851 SE BULL RUN RD			SANDY	OR	97055-8567	US		happy birthday a little early From dottie quijalvo	false		
111-9540469-6417825	64902096260850	2020-10-01T03:25:37+00:00	2020-09-30T20:25:37-07:00	2020-10-01T03:56:03+00:00	2020-10-03T06:59:59+00:00	-2	cn35rp7xd0qnk9q@marketplace.amazon.com	hgfleming	+1 602-671-6610 ext. 05812	ABR0033	Arabella Farm Direct Bouquet of 12 Fresh Cut Orange Roses with a Free Glass Vase	1	0	1	Expedited	Patsy Fleming	6009 MASSACHUSETTS AVE			BETHESDA	MD	20816-2041	US			false		
114-7996346-6127446	55358291881002	2020-10-01T03:47:12+00:00	2020-09-30T20:47:12-07:00	2020-10-01T04:13:55+00:00	2020-10-03T06:59:59+00:00	-2	kvz3ybtj9vf8x8r@marketplace.amazon.com	MariannUrbancsik	+1 602-671-6610 ext. 48397	ABR0022	Delivery by Monday | Arabella Farm Direct Bouquet of 12 Fresh Cut Pink Roses with a Free Glass Vase	1	0	1	Standard	Charlotte Gallagher	17 DEBORAH CT			ROBBINSVILLE	NJ	08691-1333	US		Just a little something to thank you for your never- ending support and kindness! Love Always, Namaste,🙏🌹 Namaste 🙏 From Love, Mare	false		
113-4635632-8944233	18053586872418	2020-10-01T04:32:52+00:00	2020-09-30T21:32:52-07:00	2020-10-01T04:59:18+00:00	2020-10-03T06:59:59+00:00	-2	d1k86dcz15g8mhb@marketplace.amazon.com	linda mccraw	+1 480-618-5344 ext. 91322	ABR0022	Delivery by Monday | Arabella Farm Direct Bouquet of 12 Fresh Cut Pink Roses with a Free Glass Vase	1	0	1	Expedited	Whitney Taylor	3301 SE 17TH PL CAPE CORAL			CAPE CORAL	FL	33904-4466	US		Have a Happy Birthday my dear friend. Hope it’s the best one yet. From Love you, Linda and Jim	false		
111-7043436-3754617	05241888153106	2020-10-01T05:37:09+00:00	2020-09-30T22:37:09-07:00	2020-10-01T05:59:12+00:00	2020-10-03T06:59:59+00:00	-2	fzk8k7wd9zw1q5p@marketplace.amazon.com	LUDMILA DIVINA	+1 929-436-4790 ext. 31171	ABR013	Delivery by Monday | Arabella Farm Direct Bouquet of 18 Fresh Cut Yellow Roses with a Free Glass Vase	1	0	1	Expedited	Tatyana Apine	345 PACIFIC DR			MOUNTAIN VIEW	CA	94043-5248	US		Pozdravljaem! From LUDMILA DIVINA	false		
113-7839741-8300245	26305875713034	2020-10-01T05:34:38+00:00	2020-09-30T22:34:38-07:00	2020-10-01T06:04:48+00:00	2020-10-03T06:59:59+00:00	-2	dv7prwdbxt6tzn9@marketplace.amazon.com	kelley boone	+1 480-618-5344 ext. 66197	ABR0055	Delivery by Monday | Arabella Farm Direct Bouquet of 12 Stems of Fresh Cut Hot Pink Roses in a Free Designer Glass Vase	1	0	1	Expedited	Amy Trulock	1828 WINONA BLVD APT 2			LOS ANGELES	CA	90027-3853	US			false		
114-9229922-4518617	47511596151818	2020-10-01T05:47:09+00:00	2020-09-30T22:47:09-07:00	2020-10-01T06:12:26+00:00	2020-10-03T06:59:59+00:00	-2	bxld4gf1by3c5qj@marketplace.amazon.com	Anna Apples	+1 602-671-6610 ext. 86033	ABR0022	Delivery by Monday | Arabella Farm Direct Bouquet of 12 Fresh Cut Pink Roses with a Free Glass Vase	1	0	1	Expedited	Tavia Garland	1330 W 11TH ST APT 8 LOS	ANGELES CA 90015		LOS ANGELES	CA	90015-1259	US		Happy birthday! Thanks for being a great friend. I'm truly grateful to have you in my life From Anna	false		
113-6068864-2174602	13126801866802	2020-10-01T06:05:52+00:00	2020-09-30T23:05:52-07:00	2020-10-01T06:22:34+00:00	2020-10-03T06:59:59+00:00	-2	lg9lq941mcxcsj6@marketplace.amazon.com	Anna Gamboa	+8593912330	ABR0022	Delivery by Monday | Arabella Farm Direct Bouquet of 12 Fresh Cut Pink Roses with a Free Glass Vase	1	0	1	Expedited	Lilian Betancourt	1538 Crosswinds Drive			Independence	Kentucky	41051	US		Wishing you all the best in your new role, Lilian! I am sure you will do very well. Thanks a lot for all your coaching and guidance for the past 2.5 years. I will miss working with you. Take care and God bless. From Anna Gamboa	false		
