order-id	order-item-id	purchase-date	payments-date	reporting-date	promise-date	days-past-promise	buyer-email	buyer-name	buyer-phone-number	sku	product-name	quantity-purchased	quantity-shipped	quantity-to-ship	ship-service-level	recipient-name	ship-address-1	ship-address-2	ship-address-3	ship-city	ship-state	ship-postal-code	ship-country	gift-wrap-type	gift-message-text	is-business-order	purchase-order-number	price-designation
113-9940538-1443435	41253774117362	2020-09-30T17:40:04+00:00	2020-09-30T10:40:04-07:00	2020-09-30T18:21:00+00:00	2020-10-03T06:59:59+00:00	-2	z4rgzrqv8pqw5j0@marketplace.amazon.com	Ronald F Paletzki	+1 415-851-9136 ext. 61296	ABR0022	Delivery by Monday | Arabella Farm Direct Bouquet of 12 Fresh Cut Pink Roses with a Free Glass Vase	1	0	1	Expedited	Liis Edwards	859 9TH ST			SANTA MONICA	CA	90403-1508	US		Dearest Liis,  Wishing you the happiest of birthdays! May this year be full of joy and pleasure!  Love, Susan, Ron, Erik & Annika From Ronald F Paletzki	false		
114-7652512-7642641	44299802012314	2020-09-30T17:27:56+00:00	2020-09-30T10:27:56-07:00	2020-09-30T18:45:48+00:00	2020-10-03T06:59:59+00:00	-2	hx3388nc0spsbg3@marketplace.amazon.com	Julie M. Pope	+1 929-436-4790 ext. 26331	ABR0022	Delivery by Monday | Arabella Farm Direct Bouquet of 12 Fresh Cut Pink Roses with a Free Glass Vase	1	0	1	Expedited	Annie Jolly	12405 WHARTONS WAY			RALEIGH	NC	27613-6031	US		Happy Double Didgets Annie! Love, Jack and Will	false		
113-0885633-9139423	00799073928378	2020-09-30T17:19:30+00:00	2020-09-30T10:19:30-07:00	2020-09-30T18:48:21+00:00	2020-10-03T06:59:59+00:00	-2	mr8766msjn4chwr@marketplace.amazon.com	jane johnson	+1 415-851-9136 ext. 62871	ABR0033	Delivery by Friday | Arabella Farm Direct Bouquet of 12 Fresh Cut Orange Roses with a Free Glass Vase	1	0	1	Expedited	Rodney and Hetomi Dovletian	4335 VINELAND AVE APT 303			N HOLLYWOOD	CA	91602-3430	US			false		
111-2826595-8305019	05587012592194	2020-09-30T18:18:25+00:00	2020-09-30T11:18:25-07:00	2020-09-30T18:52:27+00:00	2020-10-03T06:59:59+00:00	-2	xcs2bsp8pzxsndh@marketplace.amazon.com	Tamara Renuart	+1 929-436-4790 ext. 75680	ABR0022	Delivery by Monday | Arabella Farm Direct Bouquet of 12 Fresh Cut Pink Roses with a Free Glass Vase	1	0	1	Expedited	Ashley Bambach	123 TIMBERGATE DR			LEXINGTON	SC	29073-9009	US		Happy 30th Birthday sweet Ash! Love you so much!  Mama and Ron From Tamara Renuart	false		
113-3671700-6205855	29219798007042	2020-09-30T17:04:08+00:00	2020-09-30T10:04:08-07:00	2020-09-30T19:05:02+00:00	2020-10-03T06:59:59+00:00	-2	3nnxrlrcywjkp02@marketplace.amazon.com	Lina	+1 602-671-6610 ext. 01548	ABR0022	Delivery by Friday | Arabella Farm Direct Bouquet of 12 Fresh Cut Pink Roses with a Free Glass Vase	1	0	1	Expedited	Vertina White	13201 S WAKIAL LOOP APT 2078			PHOENIX	AZ	85044-5083	US			false		
114-1366285-4285806	67316610543202	2020-09-30T18:33:31+00:00	2020-09-30T11:33:31-07:00	2020-09-30T19:11:24+00:00	2020-10-03T06:59:59+00:00	-2	70j4b5zjx1nt3nl@marketplace.amazon.com	Elizabeth Maciejewski	+1 480-618-5344 ext. 59690	ABR0022	Delivery by Monday | Arabella Farm Direct Bouquet of 12 Fresh Cut Pink Roses with a Free Glass Vase	1	0	1	Expedited	Rany Pasca	1407 MIDDLE RD UNIT 22			CALVERTON	NY	11933-1460	US		Thank you for being the most awesome mom on the planet!  I love you so much and can't wait to see you again. From Scatoula (lisa)	false		
112-3950871-4757812	03360971723634	2020-09-30T18:36:26+00:00	2020-09-30T11:36:26-07:00	2020-09-30T19:19:55+00:00	2020-10-03T06:59:59+00:00	-2	bpjyv64rgh6r2r7@marketplace.amazon.com	molly Burke	+1 929-436-4790 ext. 11026	ABR0022	Delivery by Monday | Arabella Farm Direct Bouquet of 12 Fresh Cut Pink Roses with a Free Glass Vase	1	0	1	Expedited	Erin Burke	819 2ND AVE E			KALISPELL	MT	59901-5410	US			false		
111-6362250-4852241	49888604390050	2020-09-30T19:05:10+00:00	2020-09-30T12:05:10-07:00	2020-09-30T19:29:26+00:00	2020-10-03T06:59:59+00:00	-2	ms4qyngkqrkp4d1@marketplace.amazon.com	Marina	+1 480-618-5344 ext. 91087	ABM022	Delivery by Monday | Purple Extravagance Bouquet by Arabella Bouquets	1	0	1	Expedited	Levan Elbakidze	1277 KINGS RD			MORGANTOWN	WV	26508-9155	US		Happy birthday dear Gulnara! Most best wishes for my smart, beautiful and hardworking girl! Stay strong, healthy and lucky for another 100 years!	false		
113-0516316-7997039	39577307558482	2020-09-30T17:31:32+00:00	2020-09-30T10:31:32-07:00	2020-09-30T19:31:51+00:00	2020-10-03T06:59:59+00:00	-2	h1wq9j9c2nkkdwr@marketplace.amazon.com	donna	+1 929-436-4790 ext. 39360	ABR001	Arabella Bouquets 12 Stems of Fresh Cut Red Roses in a Free Designer Glass Vase	1	0	1	Expedited	Future Mrs. Elizabeth Yount	3502 JENKS AVE APT 4307			PANAMA CITY	FL	32405-0412	US		Happy wedding week to the most beautiful bride, inside and out! Sending you all my love and best wishes from Denver. I hope you have the best day and I can't wait to celebrate soon!!! <3 From Amanda Dixon	false		
112-5186840-2200260	44003054774682	2020-09-30T18:42:42+00:00	2020-09-30T11:42:42-07:00	2020-09-30T19:40:41+00:00	2020-10-03T06:59:59+00:00	-2	l5l238274vb098l@marketplace.amazon.com	Rhonda K. Wade	+1 602-671-6610 ext. 02013	ABM010	Delivery by Monday | The Spring Fling Bouquet by Arabella Bouquets with a Free Designer Glass Vase	1	0	1	Expedited	Barbara Kercheval	130 PINEBROOK DR			FORT MYERS	FL	33907-5984	US		Happy Birthday Barb! Love, Rhonda From Rhonda K. Wade	false		
113-5398034-8151419	51466685443690	2020-09-30T19:28:11+00:00	2020-09-30T12:28:11-07:00	2020-09-30T19:57:42+00:00	2020-10-03T06:59:59+00:00	-2	yqh8tt7z2674hjf@marketplace.amazon.com	David Bouzek	+1 602-671-6610 ext. 56693	ABR0033	Delivery by Monday | Arabella Farm Direct Bouquet of 12 Fresh Cut Orange Roses with a Free Glass Vase	1	0	1	Standard	Jen Brieske	331 S WATER ST			SPARTA	WI	54656-1726	US		We hope you have a great birthday! We will go out when this is all over! From Em & Mal	false		
114-9500611-7384246	18644831745890	2020-09-30T19:32:56+00:00	2020-09-30T12:32:56-07:00	2020-09-30T20:09:20+00:00	2020-10-03T06:59:59+00:00	-2	dfjx49hssmz3k1k@marketplace.amazon.com	Karen Jaxheimer	+1 480-618-5344 ext. 02585	ABR0022	Delivery by Monday | Arabella Farm Direct Bouquet of 12 Fresh Cut Pink Roses with a Free Glass Vase	1	0	1	Expedited	Marcelline Baker	2 MARVIN CT			LAWRENCEVILLE	NJ	08648-2111	US		Dear Sis (Aunt Marcy), Enjoy your gift! Hope they brighten up your day! From Love, Joe and Karen	false		
112-1846903-7738616	11427668040746	2020-09-30T19:46:53+00:00	2020-09-30T12:46:53-07:00	2020-09-30T20:15:06+00:00	2020-10-03T06:59:59+00:00	-2	dqdryhf4svfn8f6@marketplace.amazon.com	David Alva	+1 602-671-6610 ext. 16744	ABR0066	Delivery by Monday | Arabella Bouquets 12 Stems of Fresh Cut White Roses in a Free Designer Glass Vase	1	0	1	Expedited	Lee Hales	100 8TH AVE S UNIT 302			HOPKINS	MN	55343-4603	US			false		
112-0203438-9161033	21835435817890	2020-09-30T20:08:14+00:00	2020-09-30T13:08:14-07:00	2020-09-30T20:33:40+00:00	2020-10-03T06:59:59+00:00	-2	bp403fbwqc6p4y6@marketplace.amazon.com	Lise Smetana	+1 929-436-4790 ext. 54642	ABM020	Delivery by Monday | The Sunset Bouquet by Arabella Bouquets	1	0	1	Expedited	Bjarne Nielsen	37 BEVERLY RD			KENSINGTON	CA	94707-1303	US		Kære Grete. Vi tænker meget på dig ❤️  Håber du kommer godt i gennem operationen. Kærlig hilsen Lone - Peter, Anne - Francois, Morten- Mette og Lars- Lise. From Lise Smetana	false		
111-7789974-9701867	18883454151602	2020-09-30T20:05:49+00:00	2020-09-30T13:05:49-07:00	2020-09-30T20:34:36+00:00	2020-10-03T06:59:59+00:00	-2	ln1zcyl98b477vk@marketplace.amazon.com	Robert Schrader	+1 929-436-4790 ext. 52888	ABR0022	Delivery by Monday | Arabella Farm Direct Bouquet of 12 Fresh Cut Pink Roses with a Free Glass Vase	1	0	1	Standard	Marcia Able	Q CARRIERS LOGISTICS - HUMAN RESOURCES DEPT	1415 MARAS ST		SHAKOPEE	MN	55379-8800	US		Marcia  All the best in your new position! From Bob Schrader	false		
112-7912484-9440228	61285004022362	2020-09-30T21:59:33+00:00	2020-09-30T14:59:33-07:00	2020-09-30T22:24:08+00:00	2020-10-03T06:59:59+00:00	-2	0d22v4q1pk4d3qc@marketplace.amazon.com	kay  O'Meara	+1 602-671-6610 ext. 64175	ABR015	Delivery by Monday | Arabella Farm Direct Bouquet of 18 Fresh Cut Orange Roses with a Free Glass Vase	1	0	1	Expedited	Jill Kilkelly	2121 SHARONDALE DR			NASHVILLE	TN	37215-1211	US		We hope these brighten your day. Bill and Kay From Kay OMeara	false		
111-2158625-8023424	43780707615778	2020-09-30T21:54:25+00:00	2020-09-30T14:54:25-07:00	2020-09-30T22:24:36+00:00	2020-10-03T06:59:59+00:00	-2	nfwv2w7xw76zzxr@marketplace.amazon.com	Caryl Parker	+1 602-671-6610 ext. 76618	ABR0033	Delivery by Monday | Arabella Farm Direct Bouquet of 12 Fresh Cut Orange Roses with a Free Glass Vase	1	0	1	Expedited	Connie Pirtle	OAKMONT REHABILITATION CENTER	26 ANN ST		OAKMONT	PA	15139-2005	US			false		
113-9498598-7316209	66749830049266	2020-09-30T22:00:40+00:00	2020-09-30T15:00:40-07:00	2020-09-30T22:28:14+00:00	2020-10-03T06:59:59+00:00	-2	2fvpb7bk39cddq6@marketplace.amazon.com	kim	+1 929-436-4790 ext. 72806	ABM022	Delivery by Monday | Purple Extravagance Bouquet by Arabella Bouquets	1	0	1	Expedited	Jackie porter	943 SW 149TH WAY			SUNRISE	FL	33326-1953	US		Get well! We love you Mimi From Bob Kim Jess Dan	false		
114-5742703-8937064	09937444745226	2020-09-30T22:02:17+00:00	2020-09-30T15:02:17-07:00	2020-09-30T22:28:55+00:00	2020-10-03T06:59:59+00:00	-2	0f7v3qxncy71zjy@marketplace.amazon.com	Sandra Lopes	+1 602-671-6610 ext. 92619	ABM010	Delivery by Monday | The Spring Fling Bouquet by Arabella Bouquets with a Free Designer Glass Vase	1	0	1	Expedited	Melissa Maldonado-Moody	4612 LOMA BLANCA DR			EL PASO	TX	79934-4121	US		Feliz Cumpleanos Mama!!!  Te queremos mucho y te estranamo mucho <3 From Dominic, Nicholas, Marcos y Sandra	false		
114-5273323-2276213	69146017150842	2020-09-30T22:10:28+00:00	2020-09-30T15:10:28-07:00	2020-09-30T22:37:43+00:00	2020-10-03T06:59:59+00:00	-2	kt9dkmhggbwcvqd@marketplace.amazon.com	Shayan Moazeni	+1 929-436-4790 ext. 66818	ABR0055	Delivery by Monday | Arabella Farm Direct Bouquet of 12 Stems of Fresh Cut Hot Pink Roses in a Free Designer Glass Vase	1	0	1	Expedited	Kelsey Theriault	321 TUSCANY WAY APT 307			MELBOURNE	FL	32940-8175	US			false		
113-3271796-5671402	02481108257098	2020-09-30T22:21:25+00:00	2020-09-30T15:21:25-07:00	2020-09-30T22:51:06+00:00	2020-10-03T06:59:59+00:00	-2	slzzz4b4d87z12x@marketplace.amazon.com	bonnie michael	+1 480-618-5344 ext. 60316	ABSR003	Arabella Bouquets Fresh Cut Yellow Spray Roses in a Free Designer Glass Vase	1	0	1	Expedited	David Lowers	10409 N OKLAWAHA AVE			TAMPA	FL	33617-3427	US			false		
114-8520731-9018633	48787994899874	2020-09-30T22:34:43+00:00	2020-09-30T15:34:43-07:00	2020-09-30T22:55:34+00:00	2020-10-03T06:59:59+00:00	-2	7h7c746fqq3wmp4@marketplace.amazon.com	del barnes	+1 602-671-6610 ext. 10430	ABR0033	Delivery by Monday | Arabella Farm Direct Bouquet of 12 Fresh Cut Orange Roses with a Free Glass Vase	1	0	1	Expedited	Mary Hanks	6982 ENDERS AVE			SAN DIEGO	CA	92122-2803	US		Mary, as usual I'm always the last to know.... Anything.  I hope you are much better.  Hugs.  Enjoy your gift! From del barnes	false		
112-6027334-6679417	01189996967474	2020-09-30T22:59:23+00:00	2020-09-30T15:59:23-07:00	2020-09-30T23:19:45+00:00	2020-10-03T06:59:59+00:00	-2	kqq77jn8fbwgjnf@marketplace.amazon.com	michael j. matuck	+1 602-671-6610 ext. 30801	ABM0033	Delivery by Monday | Arabella Farm Direct Bouquet of Fresh Cut White Hydrangea with a Free Glass Vase	1	0	1	Expedited	eileen  zastrow	6185 OVERLOOK CT			GREENDALE	WI	53129-2135	US			false		
113-1008350-3774617	10435147196930	2020-09-30T22:51:19+00:00	2020-09-30T15:51:19-07:00	2020-09-30T23:20:05+00:00	2020-10-03T06:59:59+00:00	-2	jhh02hvd19vfg4k@marketplace.amazon.com	william reeves	+1 480-618-5344 ext. 80757	ABM010	Delivery by Monday | The Spring Fling Bouquet by Arabella Bouquets with a Free Designer Glass Vase	1	0	1	Expedited	william reeves	5512 hennessey dr			Stockton	CA	95219	US		To my beautiful wife ❤ I don't show you how much I love you and what you mean 💛 to me and our whole family 👪  Hope you enjoy these flowers 💐  I love you, Bo From william reeves	false		
111-0497713-0238650	08607481406674	2020-09-30T23:03:09+00:00	2020-09-30T16:03:09-07:00	2020-09-30T23:24:55+00:00	2020-10-03T06:59:59+00:00	-2	g5wv8z2bj6phzl6@marketplace.amazon.com	jane linehan	+1 929-436-4790 ext. 20527	ABM022	Delivery by Monday | Purple Extravagance Bouquet by Arabella Bouquets	1	0	1	Expedited	Elly Drees	BROOKDALE RETIREMENT COMMUNITY	1590 W SAN MARCOS BLVD APT 320		SAN MARCOS	CA	92078-4076	US		Dear Elly, You are constantly in our thoughts, and we love you very much. Big hugs and kisses, Liam, Jane, Nick and Tristan From jane linehan	false		
111-3196020-2422668	17757982722130	2020-09-30T23:00:37+00:00	2020-09-30T16:00:37-07:00	2020-09-30T23:26:08+00:00	2020-10-03T06:59:59+00:00	-2	dy7wx4vp8s9qvnq@marketplace.amazon.com	masiha	+1 602-671-6610 ext. 18654	ABR0033	Arabella Farm Direct Bouquet of 12 Fresh Cut Orange Roses with a Free Glass Vase	1	0	1	Standard	Irene Brucker	2639 CALLE REYNOSO			PLEASANTON	CA	94566-5712	US		Dear Renee, Have a fantastic birthday and spoil yourself a bit....you deserve it! Hugs and love, Masiha From Masiha	false		
114-9908197-1380257	26291635689938	2020-09-30T23:06:28+00:00	2020-09-30T16:06:28-07:00	2020-09-30T23:31:19+00:00	2020-10-03T06:59:59+00:00	-2	sprsfkwl04rdddh@marketplace.amazon.com	Mansoor Ahmed	+1 480-618-5344 ext. 52281	ABM0033	Delivery by Monday | Arabella Farm Direct Bouquet of Fresh Cut White Hydrangea with a Free Glass Vase	1	0	1	Expedited	Narjis Ali	12356 LIMA LN			RESTON	VA	20191-2516	US		Dear Narjis, Tasmia, Chikoo and Ali, Ashiq was a gentle soul who left this world too soon. May he rest In peace. We are very sorry for your loss, and send you our prayers and condolences. From Mooni and Hema	false		
113-3055565-4141029	42343771618370	2020-09-30T23:10:25+00:00	2020-09-30T16:10:25-07:00	2020-09-30T23:32:13+00:00	2020-10-03T06:59:59+00:00	-2	62hr5tf0js5qw1k@marketplace.amazon.com	Gina Ivy	+1 929-436-4790 ext. 22522	ABR0022	Delivery by Monday | Arabella Farm Direct Bouquet of 12 Fresh Cut Pink Roses with a Free Glass Vase	1	0	1	Expedited	Koral Ivy	390 ECHO LN			SEDRO WOOLLEY	WA	98284-9578	US		Enjoy your gift! From Gina Ivy	false		
111-8246583-8242657	33737676581946	2020-09-30T23:26:31+00:00	2020-09-30T16:26:31-07:00	2020-09-30T23:52:57+00:00	2020-10-03T06:59:59+00:00	-2	1x6fvbc3yk0gz71@marketplace.amazon.com	Forrest Coleman	+1 602-671-6610 ext. 43894	ABM022	Delivery by Monday | Purple Extravagance Bouquet by Arabella Bouquets	1	0	1	Expedited	Loretta Davis	665 VERNON RD			COLUMBUS	OH	43209-2463	US		Thank you so much for everything.   We love you!  Inger and Sonia From Inger Johansen Coleman	false		
113-4481012-1737804	59624440295562	2020-10-01T00:11:25+00:00	2020-09-30T17:11:25-07:00	2020-10-01T00:41:42+00:00	2020-10-03T06:59:59+00:00	-2	f7bzcdb6w15mfwf@marketplace.amazon.com	Charles A McDonald	+1 602-671-6610 ext. 99933	ABR0022	Delivery by Monday | Arabella Farm Direct Bouquet of 12 Fresh Cut Pink Roses with a Free Glass Vase	1	0	1	Expedited	Sandra Grande	1042 CEDAR FOREST CT			STONE MOUNTAIN	GA	30083-2462	US			false		
114-0093849-5691438	62242620474778	2020-10-01T00:33:55+00:00	2020-09-30T17:33:55-07:00	2020-10-01T01:03:49+00:00	2020-10-03T06:59:59+00:00	-2	xzn0nlprltr4sxm@marketplace.amazon.com	Nancy	+1 415-851-9136 ext. 01730	ABR0033	Arabella Farm Direct Bouquet of 12 Fresh Cut Orange Roses with a Free Glass Vase	1	0	1	Expedited	Nancy D. Taylor	8612 STARGAZER ST			SARASOTA	FL	34238-2409	US			false		
113-8355668-9881006	70197768535178	2020-10-01T00:57:34+00:00	2020-09-30T17:57:34-07:00	2020-10-01T01:26:12+00:00	2020-10-03T06:59:59+00:00	-2	r7hkpgvp4mxsb36@marketplace.amazon.com	john jacoby	+1 929-436-4790 ext. 08542	ABM022	Delivery by Monday | Purple Extravagance Bouquet by Arabella Bouquets	1	0	1	Expedited	Edward A Jacoby	325 N BOSTON AVE			MASSAPEQUA	NY	11758-1553	US		Happy Birthday ,       Love John, Valerie n Kids...Enjoy the Day.. From john jacoby	false		
111-2795987-9181062	69337785877922	2020-10-01T00:59:36+00:00	2020-09-30T17:59:36-07:00	2020-10-01T01:27:29+00:00	2020-10-03T06:59:59+00:00	-2	dsmd9pstd6kr34j@marketplace.amazon.com	Jane Finan	+1 929-436-4790 ext. 82052	ABR0022	Delivery by Monday | Arabella Farm Direct Bouquet of 12 Fresh Cut Pink Roses with a Free Glass Vase	1	0	1	Expedited	Biana	122 SPY GLASS CT			ALBANY	NY	12203-4925	US		Dearest Biana! Happy Happy Birthday my love! Wish we could be there to celebrate you but cant wait to see you soon! Have the most beautiful & wonderful birthday! From Love, Jane & Paul	false		
111-4764007-6561811	11436448059778	2020-10-01T01:35:42+00:00	2020-09-30T18:35:42-07:00	2020-10-01T02:05:43+00:00	2020-10-03T06:59:59+00:00	-2	ckx7b75992xsgm4@marketplace.amazon.com	Bob Miller	+1 480-618-5344 ext. 35332	ABR0022	Delivery by Monday | Arabella Farm Direct Bouquet of 12 Fresh Cut Pink Roses with a Free Glass Vase	1	0	1	Expedited	Lucy Miller	4917 Chatfield Drive			Corpus Christi	TX	78413	US			false		
111-9504364-9940248	61738452769626	2020-10-01T01:45:25+00:00	2020-09-30T18:45:25-07:00	2020-10-01T02:13:42+00:00	2020-10-03T06:59:59+00:00	-2	ckx7b75992xsgm4@marketplace.amazon.com	Bob Miller	+1 602-671-6610 ext. 50045	ABR0022	Delivery by Monday | Arabella Farm Direct Bouquet of 12 Fresh Cut Pink Roses with a Free Glass Vase	1	0	1	Expedited	Pam Day	1512 LA PAZ DR			PLANO	TX	75074-7900	US			false		
114-0179606-3672254	57444418357490	2020-10-01T01:49:55+00:00	2020-09-30T18:49:55-07:00	2020-10-01T02:22:59+00:00	2020-10-03T06:59:59+00:00	-2	ptk6tllcq49x8n3@marketplace.amazon.com	Danny Thrower	+1 602-671-6610 ext. 93355	ABB014	Arabella Bouquets | Farm Direct 48 Fresh Cut White Roses	1	0	1	Expedited	Lindsey Accronero	100 POLLEY LN			PLEASANT HILL	CA	94523-4625	US		Those we have held in our arms for a short while we hold in our hearts forever in remembrance of all the good they have done. Say not in grief 'They are no more’ but in thankfulness that They Were. Le mie condoglianze. From Danny Thrower	false		
111-7884216-8401839	52888750217874	2020-10-01T02:05:03+00:00	2020-09-30T19:05:03-07:00	2020-10-01T02:34:11+00:00	2020-10-03T06:59:59+00:00	-2	l2nybdq8576ftgz@marketplace.amazon.com	Skye Scarbrough	+1 929-436-4790 ext. 05278	ABR0055	Delivery by Monday | Arabella Farm Direct Bouquet of 12 Stems of Fresh Cut Hot Pink Roses in a Free Designer Glass Vase	1	0	1	Expedited	Pamela Bell	930 N TAMIAMI TRL APT 1003			SARASOTA	FL	34236-4072	US		Here’s a reminder that you are AMAZING and LOVED so much! From Skye xoxo	false		
111-3934582-8546636	35871129950714	2020-10-01T02:19:07+00:00	2020-09-30T19:19:07-07:00	2020-10-01T02:45:07+00:00	2020-10-03T06:59:59+00:00	-2	b02ysfgm0xj95mv@marketplace.amazon.com	Lelia B. Mitchener	+1 602-671-6610 ext. 64817	ABR004	Delivery by Monday | Arabella Farm Direct Bouquet of 12 Fresh Cut Yellow Roses with a Free Glass Vase	1	0	1	Expedited	Audrea Robinson	3362 ROBERT TRENT JONES DR	UNIT 206		ORLANDO	FL	32835-2391	US		Happy Birthday Audrea From Lelia, Lindsay, and Kyla Mitchener	false		
114-5554091-2612207	58030503745626	2020-10-01T02:23:15+00:00	2020-09-30T19:23:15-07:00	2020-10-01T02:51:28+00:00	2020-10-03T06:59:59+00:00	-2	6wc8yb71v7m6h87@marketplace.amazon.com	Jennifer Hollerbach	+1 602-671-6610 ext. 93801	ABR0022	Delivery by Monday | Arabella Farm Direct Bouquet of 12 Fresh Cut Pink Roses with a Free Glass Vase	1	0	1	Expedited	Tracy Saunby	53036 PIGEON CREEK DR			CHESTERFIELD	MI	48047-5953	US		We hope you feel better soon! From Jenn and Family	false		
112-8566428-0382659	16048416382194	2020-10-01T02:34:53+00:00	2020-09-30T19:34:53-07:00	2020-10-01T03:02:50+00:00	2020-10-03T06:59:59+00:00	-2	25v5yk7z1d0fhvw@marketplace.amazon.com	dottie quijalvo	+1 415-851-9136 ext. 77531	ABR0022	Delivery by Monday | Arabella Farm Direct Bouquet of 12 Fresh Cut Pink Roses with a Free Glass Vase	1	0	1	Standard	Bonnie	11851 SE BULL RUN RD			SANDY	OR	97055-8567	US		happy birthday a little early From dottie quijalvo	false		
111-9540469-6417825	64902096260850	2020-10-01T03:25:37+00:00	2020-09-30T20:25:37-07:00	2020-10-01T03:56:03+00:00	2020-10-03T06:59:59+00:00	-2	cn35rp7xd0qnk9q@marketplace.amazon.com	hgfleming	+1 602-671-6610 ext. 05812	ABR0033	Arabella Farm Direct Bouquet of 12 Fresh Cut Orange Roses with a Free Glass Vase	1	0	1	Expedited	Patsy Fleming	6009 MASSACHUSETTS AVE			BETHESDA	MD	20816-2041	US			false		
114-7996346-6127446	55358291881002	2020-10-01T03:47:12+00:00	2020-09-30T20:47:12-07:00	2020-10-01T04:13:55+00:00	2020-10-03T06:59:59+00:00	-2	kvz3ybtj9vf8x8r@marketplace.amazon.com	MariannUrbancsik	+1 602-671-6610 ext. 48397	ABR0022	Delivery by Monday | Arabella Farm Direct Bouquet of 12 Fresh Cut Pink Roses with a Free Glass Vase	1	0	1	Standard	Charlotte Gallagher	17 DEBORAH CT			ROBBINSVILLE	NJ	08691-1333	US		Just a little something to thank you for your never- ending support and kindness! Love Always, Namaste,🙏🌹 Namaste 🙏 From Love, Mare	false		
113-4635632-8944233	18053586872418	2020-10-01T04:32:52+00:00	2020-09-30T21:32:52-07:00	2020-10-01T04:59:18+00:00	2020-10-03T06:59:59+00:00	-2	d1k86dcz15g8mhb@marketplace.amazon.com	linda mccraw	+1 480-618-5344 ext. 91322	ABR0022	Delivery by Monday | Arabella Farm Direct Bouquet of 12 Fresh Cut Pink Roses with a Free Glass Vase	1	0	1	Expedited	Whitney Taylor	3301 SE 17TH PL CAPE CORAL			CAPE CORAL	FL	33904-4466	US		Have a Happy Birthday my dear friend. Hope it’s the best one yet. From Love you, Linda and Jim	false		
111-7043436-3754617	05241888153106	2020-10-01T05:37:09+00:00	2020-09-30T22:37:09-07:00	2020-10-01T05:59:12+00:00	2020-10-03T06:59:59+00:00	-2	fzk8k7wd9zw1q5p@marketplace.amazon.com	LUDMILA DIVINA	+1 929-436-4790 ext. 31171	ABR013	Delivery by Monday | Arabella Farm Direct Bouquet of 18 Fresh Cut Yellow Roses with a Free Glass Vase	1	0	1	Expedited	Tatyana Apine	345 PACIFIC DR			MOUNTAIN VIEW	CA	94043-5248	US		Pozdravljaem! From LUDMILA DIVINA	false		
113-7839741-8300245	26305875713034	2020-10-01T05:34:38+00:00	2020-09-30T22:34:38-07:00	2020-10-01T06:04:48+00:00	2020-10-03T06:59:59+00:00	-2	dv7prwdbxt6tzn9@marketplace.amazon.com	kelley boone	+1 480-618-5344 ext. 66197	ABR0055	Delivery by Monday | Arabella Farm Direct Bouquet of 12 Stems of Fresh Cut Hot Pink Roses in a Free Designer Glass Vase	1	0	1	Expedited	Amy Trulock	1828 WINONA BLVD APT 2			LOS ANGELES	CA	90027-3853	US			false		
114-9229922-4518617	47511596151818	2020-10-01T05:47:09+00:00	2020-09-30T22:47:09-07:00	2020-10-01T06:12:26+00:00	2020-10-03T06:59:59+00:00	-2	bxld4gf1by3c5qj@marketplace.amazon.com	Anna Apples	+1 602-671-6610 ext. 86033	ABR0022	Delivery by Monday | Arabella Farm Direct Bouquet of 12 Fresh Cut Pink Roses with a Free Glass Vase	1	0	1	Expedited	Tavia Garland	1330 W 11TH ST APT 8 LOS	ANGELES CA 90015		LOS ANGELES	CA	90015-1259	US		Happy birthday! Thanks for being a great friend. I'm truly grateful to have you in my life From Anna	false		
113-6068864-2174602	13126801866802	2020-10-01T06:05:52+00:00	2020-09-30T23:05:52-07:00	2020-10-01T06:22:34+00:00	2020-10-03T06:59:59+00:00	-2	lg9lq941mcxcsj6@marketplace.amazon.com	Anna Gamboa	+8593912330	ABR0022	Delivery by Monday | Arabella Farm Direct Bouquet of 12 Fresh Cut Pink Roses with a Free Glass Vase	1	0	1	Expedited	Lilian Betancourt	1538 Crosswinds Drive			Independence	Kentucky	41051	US		Wishing you all the best in your new role, Lilian! I am sure you will do very well. Thanks a lot for all your coaching and guidance for the past 2.5 years. I will miss working with you. Take care and God bless. From Anna Gamboa	false		
114-8841244-3825016	06195554239058	2020-10-01T08:29:36+00:00	2020-10-01T01:29:36-07:00	2020-10-01T08:50:05+00:00	2020-10-06T06:59:59+00:00	-5	t2rg5tq4m7kbp5g@marketplace.amazon.com	SnydePiper Inc., Kurt G. Snyder	+1 602-671-6610 ext. 81454	ABR0022	Delivery by Monday | Arabella Farm Direct Bouquet of 12 Fresh Cut Pink Roses with a Free Glass Vase	1	0	1	Expedited	Jennifer Brown Esq.	205 PEMBROKE AVE			WAYNE	PA	19087-4807	US		Happy birthday dear Linda! Love, Gaye and Kurt	false		
111-9663665-2774664	00291936934066	2020-10-01T09:15:04+00:00	2020-10-01T02:15:04-07:00	2020-10-01T09:42:57+00:00	2020-10-06T06:59:59+00:00	-5	c139vhlrssw8pf8@marketplace.amazon.com	Mrs S Sharpe	+1 602-671-6610 ext. 15743	ABR0055	Delivery by Monday | Arabella Farm Direct Bouquet of 12 Stems of Fresh Cut Hot Pink Roses in a Free Designer Glass Vase	1	0	1	Standard	Mr and Mrs Oliver Barton	3746 REKLAW DR STUDIO CITY			STUDIO CITY	CALIFORNIA	91604-3829	US		Happy Birthday, Jerusha! Hope you have a wonderful day with plenty of cake and fizz! With love from Shed and Sally xxxx	false		
114-2083818-9897868	44782117288250	2020-10-01T09:53:55+00:00	2020-10-01T02:53:55-07:00	2020-10-01T10:23:33+00:00	2020-10-06T06:59:59+00:00	-5	1qwbb56tv9f1hgj@marketplace.amazon.com	Thane J Pringle	+1 480-618-5344 ext. 83629	ABR0055	Delivery by Monday | Arabella Farm Direct Bouquet of 12 Stems of Fresh Cut Hot Pink Roses in a Free Designer Glass Vase	2	0	2	Expedited	Sandy Showalter	120 LA PORTE DR			UHRICHSVILLE	OH	44683-2332	US			false		
114-1189077-0697835	39160135264810	2020-10-01T10:52:40+00:00	2020-10-01T03:52:40-07:00	2020-10-01T11:20:46+00:00	2020-10-06T06:59:59+00:00	-5	zjw51mnp954kh4y@marketplace.amazon.com	Nerissa	+1 602-671-6610 ext. 21530	ABR0022	Delivery by Monday | Arabella Farm Direct Bouquet of 12 Fresh Cut Pink Roses with a Free Glass Vase	1	0	1	Expedited	Carlee Lukje	2237 E SELLS DR			PHOENIX	AZ	85016-5531	US		Welcome to the family Lily....we love you to the moon and back again. From Aunty Rissa, Uncle David?	false		
114-1551778-3412227	64641134746466	2020-10-01T11:20:14+00:00	2020-10-01T04:20:14-07:00	2020-10-01T11:49:13+00:00	2020-10-06T06:59:59+00:00	-5	7klzfhcjzhnc39q@marketplace.amazon.com	william f. waller	+1 929-436-4790 ext. 59347	ABR001	Delivery by Monday | Arabella Bouquets 12 Stems of Fresh Cut Red Roses in a Free Designer Glass Vase	1	0	1	Expedited	william f. waller, jr	6104 dry leaf path			columbia	MD	21044	US			false		
114-8215979-4546629	04357078274858	2020-10-01T12:18:20+00:00	2020-10-01T05:18:20-07:00	2020-10-01T12:47:53+00:00	2020-10-06T06:59:59+00:00	-5	988bqrfbw48pzr7@marketplace.amazon.com	Crystal wicker	+1 480-618-5344 ext. 16735	ABM022	Delivery by Monday | Purple Extravagance Bouquet by Arabella Bouquets	1	0	1	Expedited	Crystal wicker	7174 MEADOWBROOK DR APT 103			CANTON	MI	48187-3552	US			false		
111-6057278-1785829	34135982974866	2020-10-01T12:50:22+00:00	2020-10-01T05:50:22-07:00	2020-10-01T13:17:14+00:00	2020-10-06T06:59:59+00:00	-5	pdp1dlp2zyxhs0r@marketplace.amazon.com	Kim Windish	+1 602-671-6610 ext. 18985	ABM010	Delivery by Monday | The Spring Fling Bouquet by Arabella Bouquets with a Free Designer Glass Vase	1	0	1	Expedited	Riverside Health & Rehab- Rita Hanson Room 460	745 MAIN ST RM 460 RITA HANSON			EAST HARTFORD	CT	06108-3115	US		Gram, We love you and miss you! From Love, Fred, Deb, Stacey, Kim And Dave	false		
111-6572661-9677801	59837532319266	2020-10-01T13:08:22+00:00	2020-10-01T06:08:22-07:00	2020-10-01T13:37:05+00:00	2020-10-06T06:59:59+00:00	-5	y2nqqjh5rgy30gq@marketplace.amazon.com	Melissa Warren	+1 602-671-6610 ext. 79624	ABM022	Delivery by Monday | Purple Extravagance Bouquet by Arabella Bouquets	1	0	1	Expedited	Sue Warren	504 PARKWOOD CT			COLUMBIA	MO	65203-0290	US		We hope you have a wonderful birthday! Sending lots of love! Xoxo Curt, Amy, Marc, Melissa and Emme From Melissa Warren	false		
111-5495835-4122619	13323981256618	2020-10-01T13:40:13+00:00	2020-10-01T06:40:13-07:00	2020-10-01T14:07:16+00:00	2020-10-06T06:59:59+00:00	-5	g4mwv181xbmjl5s@marketplace.amazon.com	Kris Fant	+1 929-436-4790 ext. 69285	ABR001	Delivery by Monday | Arabella Bouquets 12 Stems of Fresh Cut Red Roses in a Free Designer Glass Vase	1	0	1	Expedited	Mom and Dad Trigg	1235 SABAL DR			SAN JOSE	CA	95132-2750	US			false		
111-1021626-5864255	56446940795426	2020-10-01T13:50:23+00:00	2020-10-01T06:50:23-07:00	2020-10-01T14:19:33+00:00	2020-10-06T06:59:59+00:00	-5	532y5xp6ny2hnjp@marketplace.amazon.com	Andrew C MacAulay	+1 480-618-5344 ext. 71506	ABR0033	Arabella Farm Direct Bouquet of 12 Fresh Cut Orange Roses with a Free Glass Vase	1	0	1	Expedited	Allison Ruane	24 CONCORD AVE APT 104			CAMBRIDGE	MA	02138-2337	US			false		
114-3340429-3146623	06940077132418	2020-10-01T14:36:06+00:00	2020-10-01T07:36:06-07:00	2020-10-01T14:57:53+00:00	2020-10-06T06:59:59+00:00	-5	rr4k05qb1rdzdcg@marketplace.amazon.com	margaret price	0014802763107	ABM022	Delivery by Monday | Purple Extravagance Bouquet by Arabella Bouquets	1	0	1	Expedited	Tonya &Steve Price	2143 E NANTUCKETT DR			Gilbert	AZ	85234-3843	US		Hi Tonya and Steve  Happy Anniversary!  Have a fantastic time !  All our love as always Mum and Dad xoxoxo Congratulations !	false		
111-4573621-7870648	57660894884578	2020-10-01T14:34:38+00:00	2020-10-01T07:34:38-07:00	2020-10-01T15:04:05+00:00	2020-10-06T06:59:59+00:00	-5	59fm31759gd5pg7@marketplace.amazon.com	Cody King	+1 415-851-9136 ext. 38837	ABR0022	Delivery by Monday | Arabella Farm Direct Bouquet of 12 Fresh Cut Pink Roses with a Free Glass Vase	1	0	1	Expedited	Cody King	738 N ASHLEY RIDGE LOOP			SHREVEPORT	LA	71106-7209	US		Enjoy your gift! From Cody King	false		
113-5221804-2237864	19449240875714	2020-10-01T14:56:38+00:00	2020-10-01T07:56:38-07:00	2020-10-01T15:25:31+00:00	2020-10-06T06:59:59+00:00	-5	jqmpjj84pynb39h@marketplace.amazon.com	Timothy Ward	+1 602-671-6610 ext. 27470	ABR013	Delivery by Monday | Arabella Farm Direct Bouquet of 18 Fresh Cut Yellow Roses with a Free Glass Vase	1	0	1	Expedited	Mrs Faye Ward	164 CONWAY RD			FAIR BLUFF	NC	28439-9523	US		We wish you a very HAPPY BIRTHDAY!! From Timothy Dorene & Millie	false		
114-2921155-2429855	37265232259698	2020-10-01T15:18:21+00:00	2020-10-01T08:18:21-07:00	2020-10-01T15:47:36+00:00	2020-10-06T06:59:59+00:00	-5	rr4k05qb1rdzdcg@marketplace.amazon.com	margaret price	0014802763107	ABM022	Delivery by Monday | Purple Extravagance Bouquet by Arabella Bouquets	1	0	1	Expedited	Tonya &Steve Price	2143 E NANTUCKETT DR			Gilbert	AZ	85234-3843	US			false		
112-5919750-2319411	47084728420194	2020-10-01T15:46:13+00:00	2020-10-01T08:46:13-07:00	2020-10-01T16:02:27+00:00	2020-10-06T06:59:59+00:00	-5	1yxqcqrj4dknbjw@marketplace.amazon.com	Iclal Atay	+1 602-671-6610 ext. 22436	ABR0022	Delivery by Monday | Arabella Farm Direct Bouquet of 12 Fresh Cut Pink Roses with a Free Glass Vase	1	0	1	Expedited	Dr. Sezen Ozoktay	14 Q 330 E 38TH ST			NEW YORK	NY	10016-2759	US		Dear Sezen abla, I wish you good health. I love you. Please let me know if I can be of any help. From Iclal Atay	false		
114-7310274-5585868	60830239528682	2020-10-01T15:34:49+00:00	2020-10-01T08:34:49-07:00	2020-10-01T16:03:05+00:00	2020-10-06T06:59:59+00:00	-5	1jftg7qld2xgk09@marketplace.amazon.com	Daniel Bozicevic	+1 602-671-6610 ext. 59801	ABM022	Delivery by Monday | Purple Extravagance Bouquet by Arabella Bouquets	1	0	1	Expedited	Gordana Fuegert	825 NE 17TH TER UNIT 5			FORT LAUDERDALE	FL	33304-4589	US		Draga moja Gogica, zelim ti od srca sretan 47. Rodjendan srce moje. Puno zdravlja, srece i uspjeha. Mama te najvise voli na svetu. Nedostajes mi pile moje. Volim te! MAMA From Daniel Bozicevic	false		
114-2373491-8006605	22337523935402	2020-10-01T15:48:14+00:00	2020-10-01T08:48:14-07:00	2020-10-01T16:11:23+00:00	2020-10-06T06:59:59+00:00	-5	g1l88w6d2mnllhw@marketplace.amazon.com	Joanne Fitzpatrick	+1 602-671-6610 ext. 83405	ABR0022	Delivery by Monday | Arabella Farm Direct Bouquet of 12 Fresh Cut Pink Roses with a Free Glass Vase	1	0	1	Expedited	Kara Murphy	18 CHURCHILL RD			DOUGLAS	MA	01516-2512	US		Dear Kara, We are so proud of you! Congratulations! You deserve it and so much more! love, Mom and Dad From Joanne  and Chuck Fitzpatrick	false		
114-0888080-4418605	57117207259602	2020-10-01T15:47:17+00:00	2020-10-01T08:47:17-07:00	2020-10-01T16:17:23+00:00	2020-10-06T06:59:59+00:00	-5	3hbyks78phn0h07@marketplace.amazon.com	Jason Hernandez	+1 929-436-4790 ext. 44966	ABM026	The Amour Bouquet by Arabella Bouquets	1	0	1	Expedited	Jason Hernandez	9336 CHARTER PT			SAN ANTONIO	TX	78250-2882	US			false		
113-5112842-8744207	48039798269690	2020-10-01T16:11:27+00:00	2020-10-01T09:11:27-07:00	2020-10-01T16:30:50+00:00	2020-10-06T06:59:59+00:00	-5	2r32m836vcbf53g@marketplace.amazon.com	A.A. Rossi	+1 480-618-5344 ext. 34415	ABR0022	Delivery by Monday | Arabella Farm Direct Bouquet of 12 Fresh Cut Pink Roses with a Free Glass Vase	1	0	1	Expedited	Barbara Saylor Hughes	440 BELMONT BAY DR UNIT 308			WOODBRIDGE	VA	22191-5452	US		Hi Barbara, Happy2020Birthday LuMe/Anthony	false		
114-5291979-4149848	55708092040858	2020-10-01T16:33:42+00:00	2020-10-01T09:33:42-07:00	2020-10-01T17:04:02+00:00	2020-10-06T06:59:59+00:00	-5	q3mf7sg7gsqm3n4@marketplace.amazon.com	Bruce A Watters	+1 929-436-4790 ext. 01289	ABM020	Delivery by Monday | The Sunset Bouquet by Arabella Bouquets	1	0	1	Expedited	Mr. & Mrs. Ralph Watters	165 S PANSY ST			ISHPEMING	MI	49849-2732	US			false		
113-0399435-2398635	09002686341098	2020-10-01T16:35:50+00:00	2020-10-01T09:35:50-07:00	2020-10-01T17:05:13+00:00	2020-10-06T06:59:59+00:00	-5	gt5rtp44pldqwpk@marketplace.amazon.com	William H Bryce	+1 602-671-6610 ext. 07074	ABR0022	Delivery by Monday | Arabella Farm Direct Bouquet of 12 Fresh Cut Pink Roses with a Free Glass Vase	1	0	1	Expedited	Corine Milne	1480 GULF BLVD UNIT 1107			CLEARWATER	FL	33767-2853	US			false		
114-2371892-9457052	68777971671618	2020-10-01T17:00:44+00:00	2020-10-01T10:00:44-07:00	2020-10-01T17:26:35+00:00	2020-10-06T06:59:59+00:00	-5	94lq0j5q83ytcdn@marketplace.amazon.com	Michael  Ryan	+1 415-851-9136 ext. 71997	ABM022	Delivery by Monday | Purple Extravagance Bouquet by Arabella Bouquets	1	0	1	Expedited	Nelly Ryan	2907 WINCHESTER WAY PH			FALLSTON	MD	21047-2412	US			false		
113-3295712-3397052	13285878880706	2020-10-01T17:27:13+00:00	2020-10-01T10:27:13-07:00	2020-10-01T17:52:40+00:00	2020-10-06T06:59:59+00:00	-5	9phbzn9pfqy568c@marketplace.amazon.com	R Smith	+1 602-671-6610 ext. 93328	ABM010	Delivery by Monday | The Spring Fling Bouquet by Arabella Bouquets with a Free Designer Glass Vase	1	0	1	Expedited	Maryann Cortijo	1220 RICHMOND HILL RD			WARSAW	VA	22572-3588	US		Maryann: Enjoy your "Special" Birthday. Love Ro From R Smith	false		
113-8763975-3931407	35798253890770	2020-10-01T17:33:07+00:00	2020-10-01T10:33:07-07:00	2020-10-01T17:57:55+00:00	2020-10-06T06:59:59+00:00	-5	ygmbpbn81t41sf4@marketplace.amazon.com	M Tuggle	+1 480-618-5344 ext. 43035	ABB011	Arabella Bouquets 24 Stems of Fresh Cut Hot Pink Roses in a Free Designer Glass Vase	1	0	1	Expedited	Dr. Lois Jordan	112 MASTERS WAY			HENDERSONVILLE	TN	37075-8571	US			false		
111-2396844-6869863	49445605118554	2020-10-01T17:48:42+00:00	2020-10-01T10:48:42-07:00	2020-10-01T18:05:22+00:00	2020-10-06T06:59:59+00:00	-5	gjt65mhdb4r4smp@marketplace.amazon.com	Valerie Hoyte	+1 602-671-6610 ext. 06311	ABR004	Delivery by Monday | Arabella Farm Direct Bouquet of 12 Fresh Cut Yellow Roses with a Free Glass Vase	1	0	1	Expedited	Jamila Marshall Roberts	1128 VIRGINIA AVE	CULPEPER VIRGINIA 22701		CULPEPER	VA	22701-1987	US		Enjoy your gift! From Valerie Hoyte	false		
111-3467606-4258636	64819743463506	2020-10-01T17:38:10+00:00	2020-10-01T10:38:10-07:00	2020-10-01T18:07:30+00:00	2020-10-06T06:59:59+00:00	-5	904ryjc196ywmsj@marketplace.amazon.com	Nassreen	+1 480-618-5344 ext. 48854	ABR0022	Delivery by Monday | Arabella Farm Direct Bouquet of 12 Fresh Cut Pink Roses with a Free Glass Vase	1	0	1	Expedited	Ana Carretero	676 E Mt View Ave			Woodlake	CA	93286	US		My deepest sympathy for the loss of your beloved father.... From Nassreen	false		
113-8564407-5865827	53183539668922	2020-10-01T17:41:25+00:00	2020-10-01T10:41:25-07:00	2020-10-01T18:07:48+00:00	2020-10-06T06:59:59+00:00	-5	76r58xmy17zf135@marketplace.amazon.com	Laura D. Shaw	+1 480-618-5344 ext. 20205	ABM010	Delivery by Monday | The Spring Fling Bouquet by Arabella Bouquets with a Free Designer Glass Vase	1	0	1	Expedited	Kenya McCall	2312 GRANVILLE DR			GOLDSBORO	NC	27530-5592	US		Just thinking of you and sending happy thoughts your way.  Shirt	false		
112-6614405-8204212	08233020756154	2020-10-01T17:43:35+00:00	2020-10-01T10:43:35-07:00	2020-10-01T18:14:12+00:00	2020-10-06T06:59:59+00:00	-5	9k32xqp5z328v9r@marketplace.amazon.com	John Littleford	+1 929-436-4790 ext. 05808	ABR0022	Delivery by Monday | Arabella Farm Direct Bouquet of 12 Fresh Cut Pink Roses with a Free Glass Vase	1	0	1	Expedited	Mary Littleford	170 Seaview Ave	170 Seaview Ave.		Osterville	MA	02655	US			false		
111-6048055-3810666	49637251651586	2020-10-01T17:54:36+00:00	2020-10-01T10:54:36-07:00	2020-10-01T18:17:31+00:00	2020-10-06T06:59:59+00:00	-5	972nxnlkb312ylt@marketplace.amazon.com	Ntumba Makenda	+1 415-851-9136 ext. 68301	ABM022	Delivery by Monday | Purple Extravagance Bouquet by Arabella Bouquets	1	0	1	Expedited	Michelle Jones	4031 OGDEN ST			PHILADELPHIA	PA	19104-1559	US		Dearest Michelle, please know that our thoughts and prayers are with you and your family. Love always Ann, Eva, Shirryl, Barb, Tamika, and John From Census Family	false		
112-3650721-6620201	13396774056218	2020-10-01T18:16:42+00:00	2020-10-01T11:16:42-07:00	2020-10-01T18:18:55+00:00	2020-10-03T06:59:59+00:00	-2	cg0b3yzhs38l9z8@marketplace.amazon.com	Christine Peterson	+1 480-618-5344 ext. 74897	ABB011	Arabella Bouquets 24 Stems of Fresh Cut Hot Pink Roses in a Free Designer Glass Vase	1	0	1	NextDay	Mrs. Mary Zagami	5705 BOULDER BLUFF DR			CUMMING	GA	30040-3828	US		Enjoy your gift! Happy Birthday Mary! From Chris and Bunny	false		
112-3816500-7883448	56892322625290	2020-10-01T18:29:38+00:00	2020-10-01T11:29:38-07:00	2020-10-01T18:31:03+00:00	2020-10-03T06:59:59+00:00	-2	mpxnrs1b0cfhdb5@marketplace.amazon.com	Pari Anvar	+4152251817	ABR0055	Delivery by Monday | Arabella Farm Direct Bouquet of 12 Stems of Fresh Cut Hot Pink Roses in a Free Designer Glass Vase	1	0	1	NextDay	Sarah Durphy	18357 TRISTRAM WAY			EDEN PRAIRIE	MN	55346-1133	US			false		
111-8752939-3039430	58103758786330	2020-10-01T18:59:30+00:00	2020-10-01T11:59:30-07:00	2020-10-01T19:04:52+00:00	2020-10-03T06:59:59+00:00	-2	sx7s7xxmdkqhn6s@marketplace.amazon.com	Joe DeBode	+1 480-618-5344 ext. 01371	ABR0066	Delivery by Monday | Arabella Bouquets 12 Stems of Fresh Cut White Roses in a Free Designer Glass Vase	1	0	1	NextDay	Joe DeBode	505 CYPRESS POINT DR UNIT 260			MOUNTAIN VIEW	CA	94043-4892	US			false		
111-9713501-9981014	24574504481522	2020-10-01T19:09:24+00:00	2020-10-01T12:09:24-07:00	2020-10-01T19:10:23+00:00	2020-10-03T06:59:59+00:00	-2	lsfqz4wg2rp3pcb@marketplace.amazon.com	Lisa Everett	+1 929-436-4790 ext. 81150	ABR0055	Delivery by Monday | Arabella Farm Direct Bouquet of 12 Stems of Fresh Cut Hot Pink Roses in a Free Designer Glass Vase	1	0	1	NextDay	Fern campbell	3859 E NICOLE AVE			KINGMAN	AZ	86409-0837	US			false		
114-4245564-8192203	27829193792450	2020-10-01T19:19:09+00:00	2020-10-01T12:19:09-07:00	2020-10-01T19:21:59+00:00	2020-10-03T06:59:59+00:00	-2	9mmn4ybyy6gyfgw@marketplace.amazon.com	Vanessa Espinoza	520-6097-7083	ABR0033	Arabella Farm Direct Bouquet of 12 Fresh Cut Orange Roses with a Free Glass Vase	1	0	1	NextDay	Sylvia Espinoza	9963 E PASEO SAN ARDO			TUCSON	AZ	85747-9129	US		Happy Birthday! Enjoy your gift Nina! Love, Chris, Nicky & Jessica From Your God kids	false		
114-8176776-8749864	69114313190058	2020-10-01T19:35:10+00:00	2020-10-01T12:35:10-07:00	2020-10-01T19:36:08+00:00	2020-10-03T06:59:59+00:00	-2	mhd8thqymlfbhy1@marketplace.amazon.com	Glenda Clausell Elliott	+1 602-671-6610 ext. 67426	ABR004	Delivery by Monday | Arabella Farm Direct Bouquet of 12 Fresh Cut Yellow Roses with a Free Glass Vase	1	0	1	NextDay	Karen Y. Williams	11504 BAY CROSSING DR			PEARLAND	TX	77584-8182	US		Hello Karen. Hope you and your family are well. I wanted to send an expression of thanks to you in appreciation of your continued referrals. Thanks again. Cheers! From Glenda Clausell Elliott	false		
112-1555145-1277052	29454982902090	2020-10-01T19:47:28+00:00	2020-10-01T12:47:28-07:00	2020-10-01T19:50:51+00:00	2020-10-03T06:59:59+00:00	-2	xdkl9c54dpxjcfn@marketplace.amazon.com	Annalesa Thomas	+1 602-671-6610 ext. 10613	ABR0022	Delivery by Monday | Arabella Farm Direct Bouquet of 12 Fresh Cut Pink Roses with a Free Glass Vase	1	0	1	NextDay	Jan Jewel	10805 47TH ST E EDGEWOOD 98372			EDGEWOOD	WA	98372-2204	US		Happy Birthday Jan💜 From Love, Lesa	false		
112-3445525-5876253	45922986953514	2020-10-01T19:49:36+00:00	2020-10-01T12:49:36-07:00	2020-10-01T19:52:21+00:00	2020-10-03T06:59:59+00:00	-2	ydj57v3js2shpcl@marketplace.amazon.com	Susan Grigor	+1 602-671-6610 ext. 44185	ABR0055	Delivery by Monday | Arabella Farm Direct Bouquet of 12 Stems of Fresh Cut Hot Pink Roses in a Free Designer Glass Vase	1	0	1	NextDay	Rebecca Siebert	2466 SPLIT RAIL DR			EAST PETERSBURG	PA	17520-1412	US		Happy Birthday, Sister!  Love you! From Susan Grigor	false		
112-1203231-1483465	08885071165826	2020-10-01T20:05:27+00:00	2020-10-01T13:05:27-07:00	2020-10-01T20:10:39+00:00	2020-10-03T06:59:59+00:00	-2	x0h2wgpw62szhpq@marketplace.amazon.com	Claudia Zapata	+1 415-851-9136 ext. 54778	ABR001	Delivery by Monday | Arabella Bouquets 12 Stems of Fresh Cut Red Roses in a Free Designer Glass Vase	1	0	1	NextDay	Graciela Restrepo	123 W HIVELY AVE APT G82			ELKHART	IN	46517-2172	US			false		
111-0951501-8395409	09991852297858	2020-10-01T20:13:27+00:00	2020-10-01T13:13:27-07:00	2020-10-01T20:14:25+00:00	2020-10-03T06:59:59+00:00	-2	syc2lc9rtcj564k@marketplace.amazon.com	Lisa Russell-Pinson	+1 929-436-4790 ext. 82188	ABM010	Delivery by Monday | The Spring Fling Bouquet by Arabella Bouquets with a Free Designer Glass Vase	1	0	1	NextDay	Pat and Al Smith	119 SUMMER OAK LN			SIMPSONVILLE	SC	29680-6455	US		Happy Birthday, Mom!  We love you! Lisa, Dan & Lily From Lisa Russell-Pinson	false		
113-2742565-1423417	18536188139322	2020-10-01T20:30:00+00:00	2020-10-01T13:30:00-07:00	2020-10-01T20:32:50+00:00	2020-10-03T06:59:59+00:00	-2	4dchr0p1z2c33n3@marketplace.amazon.com	Meridith Piazza	+1 602-671-6610 ext. 91115	ABR0033	Arabella Farm Direct Bouquet of 12 Fresh Cut Orange Roses with a Free Glass Vase	1	0	1	NextDay	Rahsan & Tori	1213 HOLLY ST NW			WASHINGTON	DC	20012-1737	US		Congratulations! We are excited to welcome Sage as the newest member of the phamily! -Truong, Justin, Chad & the rest of us! From Meridith Piazza	false		
111-2151369-0595418	20096423557482	2020-10-01T20:35:30+00:00	2020-10-01T13:35:30-07:00	2020-10-01T20:37:59+00:00	2020-10-03T06:59:59+00:00	-2	ylbb54vcwx4b62t@marketplace.amazon.com	michelle demott	+1 480-618-5344 ext. 57510	ABR0022	Delivery by Monday | Arabella Farm Direct Bouquet of 12 Fresh Cut Pink Roses with a Free Glass Vase	1	0	1	NextDay	Amanda Williams	4301 Menton Ave			Flint	Michigan	48507	US			false		
113-8452872-7018627	59733571579322	2020-10-01T20:55:59+00:00	2020-10-01T13:55:59-07:00	2020-10-01T20:57:00+00:00	2020-10-03T06:59:59+00:00	-2	283wwg8n48l5dql@marketplace.amazon.com	Shelby Fischer	+1 929-436-4790 ext. 76754	ABR0055	Delivery by Monday | Arabella Farm Direct Bouquet of 12 Stems of Fresh Cut Hot Pink Roses in a Free Designer Glass Vase	1	0	1	NextDay	sue Matijevich	1525 S OAKHILL AVE			JANESVILLE	WI	53546-5763	US		Thank you so much for the beautiful gown you made for Annie we love you and appreciate all your hard work it  is beautiful. Love Dan Shelby and Annie From Shelby Fischer	false		
113-6710631-6209860	39153911226066	2020-10-01T20:42:24+00:00	2020-10-01T13:42:24-07:00	2020-10-01T21:07:13+00:00	2020-10-06T06:59:59+00:00	-5	bglk0tbxdb7l1yl@marketplace.amazon.com	Luba	+1 602-671-6610 ext. 27398	ABR0055	Delivery by Monday | Arabella Farm Direct Bouquet of 12 Stems of Fresh Cut Hot Pink Roses in a Free Designer Glass Vase	1	0	1	Standard	HANNAH LEVINTOVA	1240 BEDFORD AVE APT 4H			BROOKLYN	NY	11216-1884	US		HAPPY BIRTHDAY! I HOPE THE COMING YEAR WILL BE SAFE AND HEALTHY! MANY HUGS AND KISSES! From YOUR MOTHER	true		
113-5307209-3057843	19597921379090	2020-09-30T00:30:34+00:00	2020-09-29T17:30:34-07:00	2020-10-01T21:10:14+00:00	2020-10-06T06:59:59+00:00	-5	3c0jr3mz275y3kt@marketplace.amazon.com	Wafaa Eltom	+1 415-851-9136 ext. 45877	ABR001	Arabella Bouquets 12 Stems of Fresh Cut Red Roses in a Free Designer Glass Vase	1	0	1	Expedited	Nicole  Kina	27339 PALOMINO DR			WARREN	MI	48093-8322	US		Nicole & Baron: Congratulations on your Engagement.  Wishing you a lifetime of happiness together. Love you, Wafaa From Wafaa	false		
111-6209535-2673009	31176571040914	2020-10-01T21:10:18+00:00	2020-10-01T14:10:18-07:00	2020-10-01T21:11:17+00:00	2020-10-03T06:59:59+00:00	-2	84ygvwddwzt0nqk@marketplace.amazon.com	Cynthia M. Dupree	+1 602-671-6610 ext. 52717	ABR004	Delivery by Monday | Arabella Farm Direct Bouquet of 12 Fresh Cut Yellow Roses with a Free Glass Vase	1	0	1	NextDay	Brandi Fullen	13542 CARAVEL PL			CERRITOS	CA	90703-6321	US			false		
111-6714970-7003419	27175620329666	2020-10-01T21:37:07+00:00	2020-10-01T14:37:07-07:00	2020-10-01T21:38:08+00:00	2020-10-03T06:59:59+00:00	-2	ggp21d1dkdh8t1t@marketplace.amazon.com	Donna Stevens	+1 415-851-9136 ext. 20351	ABM022	Delivery by Monday | Purple Extravagance Bouquet by Arabella Bouquets	1	0	1	NextDay	Lauren Stevens	2901 STADIUM DR			FT WORTH	TX	76129-0006	US		Lauren:  Yea!  Gamma Phi Beta!  We are so happy for you!  Have fun with all of your new sisters! Love you, Pop & Gam From Donna Stevens	false		
113-2996497-9198660	70231158792258	2020-10-01T22:00:16+00:00	2020-10-01T15:00:16-07:00	2020-10-01T22:03:21+00:00	2020-10-03T06:59:59+00:00	-2	tj7zrpqbzvsktwn@marketplace.amazon.com	Richard	+1 929-436-4790 ext. 34369	ABR0022	Delivery by Monday | Arabella Farm Direct Bouquet of 12 Fresh Cut Pink Roses with a Free Glass Vase	1	0	1	NextDay	Aubrey Brooks	3586 BLECHNUM FERN LN			SARASOTA	FL	34235-6618	US		I’m always thinking of you even when u think I’m not I always am. It’s hard some times to show you appreciation but u deserve the world and I wish I could give you that and more. I love you baby. I’ll always do right by you. From Richard	false		
114-8238185-2207452	47754052328778	2020-10-01T23:14:36+00:00	2020-10-01T16:14:36-07:00	2020-10-01T23:15:29+00:00	2020-10-03T06:59:59+00:00	-2	hp85q628tcvcfdy@marketplace.amazon.com	linda	+1 929-436-4790 ext. 91361	ABM010	Delivery by Monday | The Spring Fling Bouquet by Arabella Bouquets with a Free Designer Glass Vase	1	0	1	NextDay	Walter and Marie Heath	20 PRESTON WAY			ACTON	MA	01720-5877	US		You are both in our thoughts and hearts. From Linda and Dave	false		
