order-id	order-item-id	purchase-date	payments-date	reporting-date	promise-date	days-past-promise	buyer-email	buyer-name	buyer-phone-number	sku	product-name	quantity-purchased	quantity-shipped	quantity-to-ship	ship-service-level	recipient-name	ship-address-1	ship-address-2	ship-address-3	ship-city	ship-state	ship-postal-code	ship-country	gift-wrap-type	gift-message-text	is-business-order	purchase-order-number	price-designation
114-1922942-2225042	25313253135114	2020-10-02T18:00:22+00:00	2020-10-02T11:00:22-07:00	2020-10-02T18:23:54+00:00	2020-10-07T06:59:59+00:00	-4	fqmf7vbnkx23cjm@marketplace.amazon.com	Sara Patterson	+1 929-436-4790 ext. 45356	ABM010	Delivery by Tuesday | The Spring Fling Bouquet by Arabella Bouquets with a Free Designer Glass Vase	1	0	1	Expedited	Serena McDonald	198 MACDONALD DR			WAYNE	NJ	07470-3846	US		Serena, Thank you for your endless support, help and good humor. I appreciate all that you do. Paul From Paul Provost	false		
114-8200052-7858651	29702816869522	2020-10-02T18:02:20+00:00	2020-10-02T11:02:20-07:00	2020-10-02T18:26:35+00:00	2020-10-07T06:59:59+00:00	-4	j32vzzp4l8gf58c@marketplace.amazon.com	Ian	+1 480-618-5344 ext. 41543	ABM022	Delivery by Tuesday | Purple Extravagance Bouquet by Arabella Bouquets	1	0	1	Expedited	Corrine Blazek	105 HARRISON AVE			NORTH PLAINFIELD	NJ	07060-3600	US		Dear Corrine,  Feel better. Heal fast. Cuddle Max. Listen to your doctors. Take care. Stay safe. From Love, Aunt Judi & Uncle Rick	false		
111-4995164-6202631	33202554317850	2020-10-02T18:46:30+00:00	2020-10-02T11:46:30-07:00	2020-10-02T19:07:09+00:00	2020-10-07T06:59:59+00:00	-4	7vjldvk6ljrvh1h@marketplace.amazon.com	Gisela Baner	+1 602-671-6610 ext. 34592	ABR0022	Delivery by Tuesday | Arabella Farm Direct Bouquet of 12 Fresh Cut Pink Roses with a Free Glass Vase	1	0	1	Expedited	John P. Alley and Michelle Bevilacqua	5260 S ULSTER ST APT 3423			GREENWOOD VILLAGE	CO	80111-2876	US		Thinking of you! With all our love, L+G+L+S Baner From Gisela Baner	false		
112-6529474-9677855	19891812026482	2020-10-02T19:13:08+00:00	2020-10-02T12:13:08-07:00	2020-10-02T19:16:23+00:00	2020-10-06T06:59:59+00:00	-3	bvcf5kd3l3zlb9k@marketplace.amazon.com	David A. Stephens	+1 480-618-5344 ext. 39295	ABR004	Delivery by Tuesday | Arabella Farm Direct Bouquet of 12 Fresh Cut Yellow Roses with a Free Glass Vase	1	0	1	NextDay	JACK STEPHENS	6981 GARDEN CIR			HUNTINGTON BEACH	CA	92648-2108	US		HAPPY 30TH ANNIVERSARY. :) LOVE, MOM & DAD S. From David A. Stephens	false		
111-2304001-5664264	01055525610842	2020-10-02T18:49:38+00:00	2020-10-02T11:49:38-07:00	2020-10-02T19:19:20+00:00	2020-10-07T06:59:59+00:00	-4	gqwdqfhshwgpg1f@marketplace.amazon.com	Patricia Leon	+1 602-671-6610 ext. 45073	ABR0055	Delivery by Tuesday | Arabella Farm Direct Bouquet of 12 Stems of Fresh Cut Hot Pink Roses in a Free Designer Glass Vase	1	0	1	Expedited	Patricia Leon	120 KINGSTON ST UNIT 1310			BOSTON	MA	02111-2257	US			false		
111-2304001-5664264	35532143127282	2020-10-02T18:49:38+00:00	2020-10-02T11:49:38-07:00	2020-10-02T19:19:20+00:00	2020-10-07T06:59:59+00:00	-4	gqwdqfhshwgpg1f@marketplace.amazon.com	Patricia Leon	+1 602-671-6610 ext. 45073	ABR0022	Delivery by Tuesday | Arabella Farm Direct Bouquet of 12 Fresh Cut Pink Roses with a Free Glass Vase	1	0	1	Expedited	Patricia Leon	120 KINGSTON ST UNIT 1310			BOSTON	MA	02111-2257	US			false		
113-2708918-1370648	59385296260474	2020-10-02T18:54:39+00:00	2020-10-02T11:54:39-07:00	2020-10-02T19:25:20+00:00	2020-10-07T06:59:59+00:00	-4	m7qz5b1c8m9d3vw@marketplace.amazon.com	Yvonne Jackson	+1 929-436-4790 ext. 57826	ABB001	Arabella Farm Direct Fresh Cut White Hydrangea	1	0	1	Expedited	Rasheeda Jackson	112 E SHARPNACK ST			PHILADELPHIA	PA	19119-2237	US			false		
113-1667817-4017041	02073327603154	2020-10-02T19:29:10+00:00	2020-10-02T12:29:10-07:00	2020-10-02T19:52:32+00:00	2020-10-07T06:59:59+00:00	-4	tr9xsf8xkzmnmzv@marketplace.amazon.com	Andrea J Farnham	+1 929-436-4790 ext. 45245	ABR012	Delivery by Tuesday | Arabella Farm Direct Bouquet of 18 Fresh Cut Pink Roses with a Free Glass Vase	1	0	1	Expedited	Sylvia Grapes	ROOM D101 ELDERWOOD AT HAMBURG	5775 MAELOU DR		HAMBURG	NY	14075-7419	US		Get well soon Aunt Sylvia! From With love from Mark and Andrea	false		
114-4408653-7039454	64167478620322	2020-10-02T19:48:48+00:00	2020-10-02T12:48:48-07:00	2020-10-02T20:16:41+00:00	2020-10-07T06:59:59+00:00	-4	g95qv1fsnkk4g0g@marketplace.amazon.com	Kimberly Handley	+1 480-618-5344 ext. 57580	ABM022	Delivery by Tuesday | Purple Extravagance Bouquet by Arabella Bouquets	1	0	1	Expedited	Mrs. Natalie Gledhill	1175 NE 236TH AVE			WOOD VILLAGE	OR	97060-2715	US		Happy Birthday to our Sis. You are loved very much! 60 years jeepers,  getting better every year.  :) From Kimberly Handley	false		
114-6319665-5176209	53995274691586	2020-10-02T19:50:59+00:00	2020-10-02T12:50:59-07:00	2020-10-02T20:19:39+00:00	2020-10-07T06:59:59+00:00	-4	016ddl8q5bw5qwm@marketplace.amazon.com	manuel	+1 480-618-5344 ext. 23412	ABR0022	Delivery by Tuesday | Arabella Farm Direct Bouquet of 12 Fresh Cut Pink Roses with a Free Glass Vase	1	0	1	Expedited	Heydi	1525 JOAN DR			PETALUMA	CA	94954-3639	US		¡Disfruta de tu regalo! De LOCO POR TI🤪🤪🤪	false		
114-0639472-9893830	45327847172570	2020-10-02T19:55:07+00:00	2020-10-02T12:55:07-07:00	2020-10-02T20:24:21+00:00	2020-10-07T06:59:59+00:00	-4	2rf3cflczf6xx83@marketplace.amazon.com	Bethel Ubaka	+1 480-618-5344 ext. 16440	ABR0022	Delivery by Tuesday | Arabella Farm Direct Bouquet of 12 Fresh Cut Pink Roses with a Free Glass Vase	1	0	1	Expedited	Emily Garcia	BUILDING 2207 WESCOTT AVE			SAN ANTONIO	TX	78237-3665	US		Since you came into my life it’s been so much happiness ❤️ You brighten up my life From Ethan	false		
113-5641454-3374647	08519950849026	2020-10-02T20:22:37+00:00	2020-10-02T13:22:37-07:00	2020-10-02T20:46:37+00:00	2020-10-07T06:59:59+00:00	-4	w5ktbxrf8wtx5vw@marketplace.amazon.com	Kim Castro	+1 929-436-4790 ext. 00782	ABM022	Delivery by Tuesday | Purple Extravagance Bouquet by Arabella Bouquets	1	0	1	Expedited	Maria Rodriguez	1515 E 39TH ST			SAN BERNARDINO	CA	92404-2002	US		Feliz cumpleaños mi nina hermosa. La queremos mucho From Kim Gonzalez y Familia	false		
114-5751903-2863445	01015917722306	2020-10-02T20:21:19+00:00	2020-10-02T13:21:19-07:00	2020-10-02T20:49:33+00:00	2020-10-07T06:59:59+00:00	-4	nkpcy13j96xplhs@marketplace.amazon.com	Danielle Hockaday	+1 929-436-4790 ext. 62693	ABM029	Delivery by Tuesday | The Day Dream Bouquet by Arabella Bouquets	1	0	1	Expedited	Betty Draper	4117 WHITE BEAM CT			VIRGINIA BEACH	VA	23462-4929	US		Enjoy your flowers! From Danielle	false		
114-7019593-1473058	63102570599362	2020-10-02T20:24:46+00:00	2020-10-02T13:24:46-07:00	2020-10-02T20:51:06+00:00	2020-10-07T06:59:59+00:00	-4	tg5lvk2g84fndbz@marketplace.amazon.com	Zanub Abulaban	+1 415-851-9136 ext. 11825	ABM0033	Delivery by Tuesday | Arabella Farm Direct Bouquet of Fresh Cut White Hydrangea with a Free Glass Vase	1	0	1	Expedited	Khrysta Lowe	1445 STONELAKE COVE AVE APT 7205			HENDERSON	NV	89074-7906	US			false		
112-3913987-0281065	59259371679746	2020-10-02T20:45:10+00:00	2020-10-02T13:45:10-07:00	2020-10-02T21:05:27+00:00	2020-10-07T06:59:59+00:00	-4	46wrg9w4m6p4w65@marketplace.amazon.com	Peter J Mastroianni	+1 602-671-6610 ext. 24598	ABB001	Arabella Farm Direct Fresh Cut White Hydrangea	2	0	2	Expedited	Joseph Grusczak	362 TRANSYLVANIA RD			WOODBURY	CT	06798-3123	US			false		
112-8897531-7373061	01387043770986	2020-10-02T21:05:14+00:00	2020-10-02T14:05:14-07:00	2020-10-02T21:32:47+00:00	2020-10-07T06:59:59+00:00	-4	md6cwclgs1y0pxm@marketplace.amazon.com	frank reff	+1 929-436-4790 ext. 65931	ABR0022	Delivery by Tuesday | Arabella Farm Direct Bouquet of 12 Fresh Cut Pink Roses with a Free Glass Vase	1	0	1	Expedited	Shannon Brannigan	6507 OLD STATE RD			CASTORLAND	NY	13620-3147	US		Shannon, I  always look forward to a chance to see you, today was no different.  Thought you could use a little pick me up.  Don't forget the Wurst Party of the Pandemic 10/10. Hang in there. From frank reff	false		
111-5126377-7148235	47535569441762	2020-10-02T21:28:37+00:00	2020-10-02T14:28:37-07:00	2020-10-02T21:33:20+00:00	2020-10-06T06:59:59+00:00	-3	06bpwkw369yfwls@marketplace.amazon.com	Mianne Irick	+1 480-618-5344 ext. 68739	ABR0033	Delivery by Tuesday | Arabella Farm Direct Bouquet of 12 Fresh Cut Orange Roses with a Free Glass Vase	1	0	1	NextDay	Bobbi Blankenship	514 QUINCY BLVD			SMITHVILLE	MO	64089-8616	US		Bobbi, I'm always thinking of you. Love, Mianne From Mianne Irick	false		
113-7140326-6203457	44280635532754	2020-10-02T21:36:10+00:00	2020-10-02T14:36:10-07:00	2020-10-02T21:37:06+00:00	2020-10-06T06:59:59+00:00	-3	rg92hlyr1w46g1z@marketplace.amazon.com	Robert  E. Fox	+1 602-671-6610 ext. 98235	ABR004	Delivery by Tuesday | Arabella Farm Direct Bouquet of 12 Fresh Cut Yellow Roses with a Free Glass Vase	1	0	1	NextDay	Frani Bybee	2735 N WALNUT AVE			TUCSON	AZ	85712-1829	US		With Love from the Fox family. From The Fox Family	false		
111-5545761-3650646	05200869250610	2020-10-02T21:09:06+00:00	2020-10-02T14:09:06-07:00	2020-10-02T21:37:16+00:00	2020-10-07T06:59:59+00:00	-4	r3v4blx479l5qgv@marketplace.amazon.com	j. geramy quarto	+1 415-851-9136 ext. 63501	ABR0022	Delivery by Tuesday | Arabella Farm Direct Bouquet of 12 Fresh Cut Pink Roses with a Free Glass Vase	1	0	1	Expedited	Alison Joyce	27 GALLO CT			LAWRENCEVILLE	NJ	08648-1477	US		Happy Birthday, Alison! Wishing you a great year of health and happiness ahead.    Love You,  Geramy From Geramy	false		
113-3747766-3377013	66901016987298	2020-10-02T21:48:13+00:00	2020-10-02T14:48:13-07:00	2020-10-02T21:51:18+00:00	2020-10-06T06:59:59+00:00	-3	f3b53tbx3v6d3r8@marketplace.amazon.com	Jade Baker	+1 415-851-9136 ext. 94846	ABR0033	Delivery by Tuesday | Arabella Farm Direct Bouquet of 12 Fresh Cut Orange Roses with a Free Glass Vase	1	0	1	NextDay	Jacki Prosper	1026 CLOVER CT			ABERDEEN	SD	57401-6636	US		Celebrating your summer "Happy Birthday" with some shades of fall!  Sorry we are so late!  Hope to see you soon... love ya! From Jerry, Jade, Kaleb, Aubrey, Brielle & Liam	false		
111-1839368-9765815	51756295365362	2020-10-02T21:55:18+00:00	2020-10-02T14:55:18-07:00	2020-10-02T22:20:04+00:00	2020-10-07T06:59:59+00:00	-4	w1fpp5bcn4lb7db@marketplace.amazon.com	Zachary	+1 602-671-6610 ext. 33403	ABR0022	Delivery by Tuesday | Arabella Farm Direct Bouquet of 12 Fresh Cut Pink Roses with a Free Glass Vase	1	0	1	Expedited	Zachary	1 ARBORGATE TER			WICHITA FALLS	TX	76308-1461	US		Happy belated birthday beautiful  :) From Zach	false		
112-0444583-8317056	01976526760682	2020-10-02T22:08:34+00:00	2020-10-02T15:08:34-07:00	2020-10-02T22:33:38+00:00	2020-10-07T06:59:59+00:00	-4	5b8ynl5m8q3vhp2@marketplace.amazon.com	gustavo guzman	+1 480-618-5344 ext. 63247	ABR011	Delivery by Tuesday | Arabella Bouquets 18 Stems of Fresh Cut Red Roses in a Free Glass Vase	1	0	1	Expedited	Nora Núñez	6619 MAYFAIR DR APT 101			FALLS CHURCH	VA	22042-6619	US		Para la mujer mas linda y buena persona  que me alegra mis días From gus guzman	false		
111-3871289-5955431	57861432367050	2020-10-02T22:41:44+00:00	2020-10-02T15:41:44-07:00	2020-10-02T23:06:10+00:00	2020-10-07T06:59:59+00:00	-4	yvsq8rsrw2c0zkh@marketplace.amazon.com	malikyoung	+1 602-671-6610 ext. 51760	ABR0022	Delivery by Tuesday | Arabella Farm Direct Bouquet of 12 Fresh Cut Pink Roses with a Free Glass Vase	1	0	1	Expedited	Clifton yorkman	4800 MAUI ST			CLINTON	MD	20735-4402	US		Get well soon mr.chip kick cancer butt and thanks for the cooking skills From malikyoung	false		
113-4785099-7834616	53391408810386	2020-10-02T22:48:09+00:00	2020-10-02T15:48:09-07:00	2020-10-02T23:16:01+00:00	2020-10-07T06:59:59+00:00	-4	yngtmcksvy9f4tt@marketplace.amazon.com	Lia M Toledo	+1 602-671-6610 ext. 15342	ABR011	Delivery by Tuesday | Arabella Bouquets 18 Stems of Fresh Cut Red Roses in a Free Glass Vase	1	0	1	Expedited	Rose Sylvia Martinez	1711 W SAINT ISABEL ST			TAMPA	FL	33607-6517	US		Enjoy your gift! Happy belated Birthday! From Lia	false		
111-7810965-7277812	01942134742058	2020-10-02T22:59:02+00:00	2020-10-02T15:59:02-07:00	2020-10-02T23:19:47+00:00	2020-10-07T06:59:59+00:00	-4	kjmzz34vm6m34y8@marketplace.amazon.com	Paul Terras	+1 602-671-6610 ext. 18503	ABM0044	Delivery by Tuesday | Arabella Farm Direct Bouquet of Fresh Cut Blue Hydrangea with a Free Glass Vase	1	0	1	Expedited	Vera Jarrell	2102 HARRISON CT			CHOWCHILLA	CA	93610-1802	US		Hi Vera, Happy Birthday month and hope you enjoy the flowers! Love you, Paul M. T.	false		
112-2802353-1107458	30835235806434	2020-10-02T23:29:48+00:00	2020-10-02T16:29:48-07:00	2020-10-03T00:00:17+00:00	2020-10-07T06:59:59+00:00	-4	wnr1wzy8b5rjhb7@marketplace.amazon.com	Ayana Rochee	+1 480-618-5344 ext. 72369	ABSR004	Arabella Farm Direct Bouquet of Fresh Cut White Spray Roses with a Free Glass Vase	1	0	1	Expedited	Ayana Rochee	3705 33RD ST  2D			MOUNT RAINIER	MD	20712-2017	US			false		
112-4787118-3345040	42135636823826	2020-10-03T00:16:56+00:00	2020-10-02T17:16:56-07:00	2020-10-03T00:28:40+00:00	2020-10-07T06:59:59+00:00	-4	r8z4mky8n4rt31h@marketplace.amazon.com	SKG	+1 929-436-4790 ext. 11390	ABM0044	Delivery by Tuesday | Arabella Farm Direct Bouquet of Fresh Cut Blue Hydrangea with a Free Glass Vase	1	0	1	Expedited	Ann Goldberg	4232 MIGUEL VIEW RD			LA MESA	CA	91941-7227	US		Oh my gosh... Ann!  We are so sorry to hear about your Mom. 😢 Knowing how close you were, I cannot imagine your pain.  Please know we are praying for your healing. 🙏 Much love, Sunny & Brian oxoxo From Sunny & Brian	false		
111-2943520-2419406	09815161833410	2020-10-03T00:16:14+00:00	2020-10-02T17:16:14-07:00	2020-10-03T00:44:38+00:00	2020-10-07T06:59:59+00:00	-4	pb3g5g529fp6xfc@marketplace.amazon.com	Jennifer Darmogray-Lombard	+1 602-671-6610 ext. 56410	ABR0055	Delivery by Tuesday | Arabella Farm Direct Bouquet of 12 Stems of Fresh Cut Hot Pink Roses in a Free Designer Glass Vase	1	0	1	Expedited	Kimberly Gaines Wichern	17746 SANIBEL CIR			WESTFIELD	IN	46062-7637	US		Thinking of you always. I thought you could use something pretty to look at while you are resting. Brad Pitt cannot travel during Covid.   Love you my dear friend. From Jennifer Darmogray-Lombard	false		
113-8093751-6225817	63320508279882	2020-10-03T00:22:13+00:00	2020-10-02T17:22:13-07:00	2020-10-03T00:45:27+00:00	2020-10-07T06:59:59+00:00	-4	sg4bjqn2frcknff@marketplace.amazon.com	Cara Wilde	+1 929-436-4790 ext. 29354	ABR0022	Delivery by Tuesday | Arabella Farm Direct Bouquet of 12 Fresh Cut Pink Roses with a Free Glass Vase	1	0	1	Expedited	Carlene Badeau	404 Anise Place			Kissimmee	Florida	34759	US		Happy Birthday Mom!  Thank you for everything you do and all of your help! You are a treasure.  Happy Birthday and many, many more! From Cara, Tom, Tommy, Greg and Cameryn	false		
112-5232873-9727428	23716954312682	2020-10-03T00:21:27+00:00	2020-10-02T17:21:27-07:00	2020-10-03T00:49:26+00:00	2020-10-07T06:59:59+00:00	-4	2ycx131jh3jj0hs@marketplace.amazon.com	Jan Glassco	+1 480-618-5344 ext. 82387	ABR0022	Delivery by Tuesday | Arabella Farm Direct Bouquet of 12 Fresh Cut Pink Roses with a Free Glass Vase	1	0	1	Expedited	Eileen Jura	1100 E SPRUCE AVE APT 331			FRESNO	CA	93720-3338	US		Happy 100th Birthday  Love JoAnn, Jan and families From Jan Glassco	false		
112-5411500-5366616	42554361414122	2020-10-03T00:23:15+00:00	2020-10-02T17:23:15-07:00	2020-10-03T00:51:11+00:00	2020-10-07T06:59:59+00:00	-4	rq4ppg3hhhnbxdl@marketplace.amazon.com	Kathleen	+1 929-436-4790 ext. 09651	ABM010	Delivery by Tuesday | The Spring Fling Bouquet by Arabella Bouquets with a Free Designer Glass Vase	1	0	1	Expedited	Karen Million	8935 EARLY APRIL WAY APT E			COLUMBIA	MD	21046-2449	US		Happy Birthday best friend! I'm sorry I can't be there to crack a bottle of wine with you in person, but know that I love you and am thinking of you on your special day. Don't forget to #treatyoself! XOXO, Kat From Kathleen	false		
113-4276321-5505861	17428523314762	2020-10-03T00:37:04+00:00	2020-10-02T17:37:04-07:00	2020-10-03T00:59:29+00:00	2020-10-07T06:59:59+00:00	-4	k67h5dh77gzzp2v@marketplace.amazon.com	Karen Testa	+1 929-436-4790 ext. 89241	ABR0022	Delivery by Tuesday | Arabella Farm Direct Bouquet of 12 Fresh Cut Pink Roses with a Free Glass Vase	1	0	1	Expedited	Diane Caglianine	749 TEE TIME LN			ST JOHNS	FL	32259-4345	US		Diane,  Sending happy hugs, and lots of love!! We are so happy that you are well on your way to feeling better!! Love and miss you!  Karen, Kenny and the kids. From Karen Testa	false		
112-8147953-1552214	66827589634346	2020-10-03T00:38:42+00:00	2020-10-02T17:38:42-07:00	2020-10-03T01:04:15+00:00	2020-10-07T06:59:59+00:00	-4	x094vcq9qk7thm7@marketplace.amazon.com	PJ	+1 602-671-6610 ext. 47318	ABR0022	Delivery by Tuesday | Arabella Farm Direct Bouquet of 12 Fresh Cut Pink Roses with a Free Glass Vase	1	0	1	Expedited	Janice Patterson	1111 FM-467			Seguin	Texas	78155	US		Happy Birthday Aunt Janice!  We love you! From PJ & Yuri	false		
112-7394971-1130648	29191488397386	2020-10-03T01:08:22+00:00	2020-10-02T18:08:22-07:00	2020-10-03T01:30:59+00:00	2020-10-07T06:59:59+00:00	-4	rmvms12b2slh3sp@marketplace.amazon.com	Rikard Wicksell	+1 480-618-5344 ext. 45304	ABR011	Delivery by Tuesday | Arabella Bouquets 18 Stems of Fresh Cut Red Roses in a Free Glass Vase	1	0	1	Expedited	Laura Simons	154 GARNET AVE			SAN CARLOS	CA	94070-4531	US		Happy birthday my love, My body may be far away. But my soul is close to yours. Always. Tell Henry, Walter and Reecie to be extra nice today. And maybe make brownies.  I miss you. From Rikard Wicksell	false		
114-5367225-8931459	02877823641490	2020-10-03T01:08:06+00:00	2020-10-02T18:08:06-07:00	2020-10-03T01:36:27+00:00	2020-10-07T06:59:59+00:00	-4	t0zr27lycvr3bnt@marketplace.amazon.com	margaret a berlan	+1 480-618-5344 ext. 69645	ABR0022	Delivery by Tuesday | Arabella Farm Direct Bouquet of 12 Fresh Cut Pink Roses with a Free Glass Vase	1	0	1	Expedited	Alexandra Berlan	3138 BREAKWATER CT			WEST PALM BEACH	FL	33411-6428	US		To our precious daughter-in-law who is as beautiful as these flowers.  Happy Birthday! Love, Greg and Peggy From margaret a berlan	false		
113-5955783-0712203	40911405276370	2020-10-03T01:37:51+00:00	2020-10-02T18:37:51-07:00	2020-10-03T02:05:45+00:00	2020-10-07T06:59:59+00:00	-4	nnrnky29tdc4vww@marketplace.amazon.com	Lori Durbin	+1 480-618-5344 ext. 36033	ABR0055	Delivery by Tuesday | Arabella Farm Direct Bouquet of 12 Stems of Fresh Cut Hot Pink Roses in a Free Designer Glass Vase	1	0	1	Expedited	Dorothy Lyons	9408 S BREEN TER			HOMOSASSA	FL	34446-6513	US		Happy Birthday Grandma! 🎉🎈🍰 We love you! Lori & Brian	false		
113-8268442-6793817	05921337770442	2020-10-03T01:39:04+00:00	2020-10-02T18:39:04-07:00	2020-10-03T02:07:33+00:00	2020-10-07T06:59:59+00:00	-4	w4cjz3fwqh8hmgc@marketplace.amazon.com	Robin Ringsdorf	+1 929-436-4790 ext. 40534	ABR0022	Delivery by Tuesday | Arabella Farm Direct Bouquet of 12 Fresh Cut Pink Roses with a Free Glass Vase	1	0	1	Expedited	Kelly Gritzinger	14425 GILBERT RD			ALLENTON	MI	48002-3807	US			false		
113-8511563-2641018	00994567651210	2020-10-03T01:44:13+00:00	2020-10-02T18:44:13-07:00	2020-10-03T02:12:53+00:00	2020-10-07T06:59:59+00:00	-4	xfz7xd2z7vgp2fz@marketplace.amazon.com	JENNIFER ESKRIDGE	+1 929-436-4790 ext. 64184	ABM022	Delivery by Tuesday | Purple Extravagance Bouquet by Arabella Bouquets	1	0	1	Standard	Althea Nunn c/o Via Elegante	ROOM 11 MILLER HOUSE	4120 E RAMSEY RD		HEREFORD	AZ	85615-8917	US		Thinking of you. Hope all is well. Love you, From JENNIFER, PAUL and PARKER	false		
114-2067088-1478638	54018276278002	2020-10-03T02:25:37+00:00	2020-10-02T19:25:37-07:00	2020-10-03T02:46:04+00:00	2020-10-07T06:59:59+00:00	-4	nrlbbvwnkw0gd9c@marketplace.amazon.com	STEVEN REESE	+1 929-436-4790 ext. 66761	ABR0055	Delivery by Tuesday | Arabella Farm Direct Bouquet of 12 Stems of Fresh Cut Hot Pink Roses in a Free Designer Glass Vase	1	0	1	Expedited	Mamie Days Corley	634 Anders Drive			Columbia	S.C.	29203	US		Happy 70TH Birthday  wish we were there with you to celebrate.  We love you very much From Kitty and Steve	false		
113-3288470-1112225	15099290337850	2020-10-03T02:57:12+00:00	2020-10-02T19:57:12-07:00	2020-10-03T03:26:42+00:00	2020-10-07T06:59:59+00:00	-4	r2k4jkwlbsc1bzb@marketplace.amazon.com	Anthony Bruno	+1 415-851-9136 ext. 97485	ABM022	Delivery by Tuesday | Purple Extravagance Bouquet by Arabella Bouquets	1	0	1	Expedited	Khenpo Kalsang c/o Tsechen Kunchab Ling	12 EDMUNDS LN			WALDEN	NY	12586-1539	US		Khenpo Kalsang, Happy Birthday! From Anthony Bruno	false		
113-5257190-4805067	49725688971082	2020-10-03T03:02:19+00:00	2020-10-02T20:02:19-07:00	2020-10-03T03:32:08+00:00	2020-10-07T06:59:59+00:00	-4	lcrmmd4624wg683@marketplace.amazon.com	Don Acton	+1 929-436-4790 ext. 11313	ABR0022	Delivery by Tuesday | Arabella Farm Direct Bouquet of 12 Fresh Cut Pink Roses with a Free Glass Vase	1	0	1	Expedited	Debbie Kimsey	104 W 9 TH ST			HAWTHORNE	NV	89415-0166	US			false		
111-3926721-0721846	06465614028634	2020-10-03T03:09:58+00:00	2020-10-02T20:09:58-07:00	2020-10-03T03:36:12+00:00	2020-10-07T06:59:59+00:00	-4	ggx804dhsr0hq51@marketplace.amazon.com	tina gruenstern	+1 602-671-6610 ext. 95476	ABR0022	Delivery by Tuesday | Arabella Farm Direct Bouquet of 12 Fresh Cut Pink Roses with a Free Glass Vase	1	0	1	Expedited	Helen Johnson	6649 E LAFAYETTE BLVD			SCOTTSDALE	AZ	85251-3145	US		Helen & Mark  Sending you both so much love during this time of loss.  We love you both and will keep your families in our thoughts and prayers! From Tina & Bob	false		
111-0340665-7241852	32064987934906	2020-10-03T03:36:08+00:00	2020-10-02T20:36:08-07:00	2020-10-03T03:49:09+00:00	2020-10-07T06:59:59+00:00	-4	qk7xvdc643chjss@marketplace.amazon.com	Chris L. Depkin	+1 480-618-5344 ext. 77352	ABM022	Delivery by Tuesday | Purple Extravagance Bouquet by Arabella Bouquets	1	0	1	Expedited	Michael and Leslie Keelty	FIRST FLOOR 400 WOODFORD ST			PORTLAND	ME	04103-2437	US		Mike and Leslie, We were so saddened to hear of your sister, Norah's passing. We send our love and support at this difficult time. Keeping you in our thoughts and sending hugs. From Chris  and Jim	false		
111-7108515-8572236	49020934250682	2020-10-03T03:26:46+00:00	2020-10-02T20:26:46-07:00	2020-10-03T03:53:33+00:00	2020-10-07T06:59:59+00:00	-4	1y5pp6p6prp61zh@marketplace.amazon.com	Richard f Foxworth	+1 480-618-5344 ext. 20770	ABR0022	Delivery by Tuesday | Arabella Farm Direct Bouquet of 12 Fresh Cut Pink Roses with a Free Glass Vase	1	0	1	Expedited	Tara Foxworth	406 EAGLE ROCK DR			PONTE VEDRA	FL	32081-8393	US		Hi Tara, Happy birthday From Rick and Lahnie	false		
113-0893313-9174653	21362142776082	2020-10-03T05:05:45+00:00	2020-10-02T22:05:45-07:00	2020-10-03T05:25:00+00:00	2020-10-07T06:59:59+00:00	-4	y1v485n03f99s7k@marketplace.amazon.com	Sue Acton	+1 929-436-4790 ext. 22906	ABR0022	Delivery by Tuesday | Arabella Farm Direct Bouquet of 12 Fresh Cut Pink Roses with a Free Glass Vase	1	0	1	Expedited	The Geimers	856 WINESAP			ROCHESTER HILLS	MI	48307-6809	US		Happy first week together!! Love and Miss you all so much!! Hugs and Kisses to all of you. From Gram-Gram	false		
