order-id	order-item-id	purchase-date	payments-date	reporting-date	promise-date	days-past-promise	buyer-email	buyer-name	buyer-phone-number	sku	product-name	quantity-purchased	quantity-shipped	quantity-to-ship	ship-service-level	recipient-name	ship-address-1	ship-address-2	ship-address-3	ship-city	ship-state	ship-postal-code	ship-country	gift-wrap-type	gift-message-text	is-business-order	purchase-order-number	price-designation
114-2067088-1478638	54018276278002	2020-10-03T02:25:37+00:00	2020-10-02T19:25:37-07:00	2020-10-03T02:46:04+00:00	2020-10-07T06:59:59+00:00	-4	nrlbbvwnkw0gd9c@marketplace.amazon.com	STEVEN REESE	+1 929-436-4790 ext. 66761	ABR0055	Delivery by Tuesday | Arabella Farm Direct Bouquet of 12 Stems of Fresh Cut Hot Pink Roses in a Free Designer Glass Vase	1	0	1	Expedited	Mamie Days Corley	634 Anders Drive			Columbia	S.C.	29203	US		Happy 70TH Birthday  wish we were there with you to celebrate.  We love you very much From Kitty and Steve	false		
113-0654727-7725012	27930183199186	2020-10-03T11:55:35+00:00	2020-10-03T04:55:35-07:00	2020-10-03T12:22:11+00:00	2020-10-07T06:59:59+00:00	-4	mztz179m1dss9wf@marketplace.amazon.com	Julissa Avelar	+1 602-671-6610 ext. 31228	ABM022	Delivery by Wednesday | Purple Extravagance Bouquet by Arabella Bouquets	1	0	1	Expedited	Julissa avelar	3713 ELBY ST			SILVER SPRING	MD	20906-4342	US		Happy birthday wishing the absolute best, today, tomorrow and always!  Love you!! From DS	false		
114-4449115-0823430	61066757411066	2020-10-03T12:05:19+00:00	2020-10-03T05:05:19-07:00	2020-10-03T12:32:59+00:00	2020-10-07T06:59:59+00:00	-4	jsy3tptk1bdf8f0@marketplace.amazon.com	Demyran Quinn	+1 929-436-4790 ext. 75587	ABR001	Delivery by Wednesday | Arabella Bouquets 12 Stems of Fresh Cut Red Roses in a Free Designer Glass Vase	1	0	1	Expedited	Gabriella Lee Myers	270 COVENANT SQUARE DR APT 12			BILOXI	MS	39531-3911	US			false		
112-0389687-5736250	08048847393450	2020-10-03T12:27:43+00:00	2020-10-03T05:27:43-07:00	2020-10-03T12:56:44+00:00	2020-10-07T06:59:59+00:00	-4	crllvwl93vp9wgs@marketplace.amazon.com	mbauer	+1 602-671-6610 ext. 71487	ABR0022	Delivery by Wednesday | Arabella Farm Direct Bouquet of 12 Fresh Cut Pink Roses with a Free Glass Vase	1	0	1	Expedited	Rene Bauer	417 RED BUD DR			ELIZABETHTOWN	KY	42701-5416	US		Happy Birthday!  Enjoy your day!!!!  Love you!!! From Daryl, Mary, Patrick, Abby and Julia	false		
114-1656645-2425825	39813828684650	2020-10-03T13:33:15+00:00	2020-10-03T06:33:15-07:00	2020-10-03T13:57:42+00:00	2020-10-07T06:59:59+00:00	-4	qx1p1b6n784zs7p@marketplace.amazon.com	matthew	+1 929-436-4790 ext. 67275	ABR0022	Delivery by Wednesday | Arabella Farm Direct Bouquet of 12 Fresh Cut Pink Roses with a Free Glass Vase	1	0	1	Expedited	Jessica  long	4706 Viviana Drive			Tarzana	California	91536	US			false		
114-5647165-7130633	02561240999458	2020-10-03T14:30:00+00:00	2020-10-03T07:30:00-07:00	2020-10-03T14:58:57+00:00	2020-10-07T06:59:59+00:00	-4	85zt25m91k8qfkf@marketplace.amazon.com	Corey Langdale	+1 415-851-9136 ext. 82143	ABM010	The Spring Fling Bouquet by Arabella Bouquets with a Free Designer Glass Vase	1	0	1	Expedited	Sherry Lowrey	1417 Fircrest Way			Waldport	OR	97394	US		Love you Mom! Hope your birthday was wonderful, and you keep celebrating all month long! From Corey Langdale	false		
113-7379245-5579418	28979506849538	2020-10-03T14:33:59+00:00	2020-10-03T07:33:59-07:00	2020-10-03T15:01:50+00:00	2020-10-07T06:59:59+00:00	-4	lkd7m1581m7fh4c@marketplace.amazon.com	Donald Parker	+1 602-671-6610 ext. 10703	ABR001	Delivery by Wednesday | Arabella Bouquets 12 Stems of Fresh Cut Red Roses in a Free Designer Glass Vase	1	0	1	Expedited	Laurie Ferradino	149 South Street Ballston Spa NY 12020			Ballston	New York	12020	US		I can’t wait to spend the rest of my life with you sweetheart. I just want to let you know that I love you with all my heart. From JOB BANKI	false		
114-8259484-0565058	66553483039170	2020-10-03T14:38:08+00:00	2020-10-03T07:38:08-07:00	2020-10-03T15:05:38+00:00	2020-10-07T06:59:59+00:00	-4	6dc7dwzxg6p7kvb@marketplace.amazon.com	Danny Clark	+1 602-671-6610 ext. 64670	ABR013	Arabella Farm Direct Bouquet of 18 Fresh Cut Yellow Roses with a Free Glass Vase	1	0	1	Expedited	Danny Clark	8059 WINDWARD KEY DR			CHESAPEAKE BEACH	MD	20732-3194	US			false		
114-2137115-5539436	47738594117666	2020-10-03T15:18:24+00:00	2020-10-03T08:18:24-07:00	2020-10-03T15:48:01+00:00	2020-10-07T06:59:59+00:00	-4	9ftplcvm5f7dfvf@marketplace.amazon.com	Heidi C Patchett	+1 602-671-6610 ext. 80712	ABB003	Arabella Farm Direct Fresh Cut Blue Hydrangea	1	0	1	Expedited	Susan Maehler	49 STONE RIDGE DR			ETNA	ME	04434-3639	US		I love you more than flowers!!!!!! From Heidi C Patchett	false		
113-0986530-6105812	58226456421954	2020-10-03T15:36:16+00:00	2020-10-03T08:36:16-07:00	2020-10-03T16:00:32+00:00	2020-10-07T06:59:59+00:00	-4	068ydkl2nsb0fgq@marketplace.amazon.com	Manuel Lenoci	+1 929-436-4790 ext. 81909	ABR0022	Delivery by Wednesday | Arabella Farm Direct Bouquet of 12 Fresh Cut Pink Roses with a Free Glass Vase	1	0	1	Expedited	SUE WEBSTER	1925 HAGOOD LOOP			THE VILLAGES	FL	32162-6753	US		Happy Birthday Sue enjoy your special day Much Love Colette and Manny xxx From Manuel Lenoci	false		
114-0032834-9347477	42269081517706	2020-10-03T15:47:00+00:00	2020-10-03T08:47:00-07:00	2020-10-03T16:13:54+00:00	2020-10-07T06:59:59+00:00	-4	8hg9st40xnvf3fg@marketplace.amazon.com	Jon Fidler	+1 480-618-5344 ext. 19034	ABR0022	Delivery by Wednesday | Arabella Farm Direct Bouquet of 12 Fresh Cut Pink Roses with a Free Glass Vase	1	0	1	Expedited	Susan Brown	6016 WOODCREST DR			MORRISTOWN	TN	37814-1315	US		The world is a kinder and more loving place because of wonderful people like you!  Thank you! From The Fidler Family	false		
111-0345339-4025017	40358580270578	2020-10-03T16:19:49+00:00	2020-10-03T09:19:49-07:00	2020-10-03T16:47:00+00:00	2020-10-07T06:59:59+00:00	-4	z849fzdr4lvw2s5@marketplace.amazon.com	John Johnston	+1 480-618-5344 ext. 61928	ABR0055	Delivery by Wednesday | Arabella Farm Direct Bouquet of 12 Stems of Fresh Cut Hot Pink Roses in a Free Designer Glass Vase	1	0	1	Expedited	Taylor Davis	9801 CRYSTALLINE DR			RENO	NV	89506-7566	US		A little sunshine to brighten your day.  Hugs and Love From Juli Johnston	false		
113-6593121-4948217	48038542397586	2020-10-03T16:47:25+00:00	2020-10-03T09:47:25-07:00	2020-10-03T17:15:37+00:00	2020-10-07T06:59:59+00:00	-4	4330zjp55msw92r@marketplace.amazon.com	Heather Huff	+1 415-851-9136 ext. 00356	ABR0033	Delivery by Wednesday | Arabella Farm Direct Bouquet of 12 Fresh Cut Orange Roses with a Free Glass Vase	1	0	1	Expedited	Jesse Couch	7034 SOUTHERLAND CIR			SALEM	VA	24153-8202	US		Jess,  Thinking of you… I hope these brighten your day! Remember you can’t get flowers without a little rain... I love you, Heather	false		
112-5959876-4961806	06414192552234	2020-10-03T16:56:26+00:00	2020-10-03T09:56:26-07:00	2020-10-03T17:25:29+00:00	2020-10-07T06:59:59+00:00	-4	y3n14gsl7ybpvql@marketplace.amazon.com	Josh J. Jazeel	+1 929-436-4790 ext. 92419	ABR001	Delivery by Wednesday | Arabella Bouquets 12 Stems of Fresh Cut Red Roses in a Free Designer Glass Vase	1	0	1	Expedited	Gloria Rivera	37 MOSS AVE APT 8			OAKLAND	CA	94610-1338	US		Hi Gloria, Enjoy your gift! From Josh J. Jazeel	false		
112-2111532-4442661	10091836902234	2020-10-03T17:11:38+00:00	2020-10-03T10:11:38-07:00	2020-10-03T17:30:53+00:00	2020-10-07T06:59:59+00:00	-4	xbgxv34ntlygr1s@marketplace.amazon.com	Brittany Envall	+1 602-671-6610 ext. 05987	ABR0033	Delivery by Wednesday | Arabella Farm Direct Bouquet of 12 Fresh Cut Orange Roses with a Free Glass Vase	1	0	1	Expedited	Jennifer Rias Cannon	142 ROCKLYN AVE			LYNBROOK	NY	11563-3732	US		Sending you quarantine edition birthday wishes m’love xoxo BFF From Brittany Envall	false		
112-5910109-4047405	53334785767562	2020-10-03T17:18:24+00:00	2020-10-03T10:18:24-07:00	2020-10-03T17:48:16+00:00	2020-10-07T06:59:59+00:00	-4	b76rmjmyp2qpfj9@marketplace.amazon.com	Anthony Menio	+1 929-436-4790 ext. 39328	ABR0022	Delivery by Wednesday | Arabella Farm Direct Bouquet of 12 Fresh Cut Pink Roses with a Free Glass Vase	1	0	1	Expedited	Meghan Sullivan	36 SHERMAN PL APT 409			JERSEY CITY	NJ	07307-3049	US		I hope these brighten a Meeg's day. Don't let Goofer eat them!!! From Anthony Menio	false		
113-5129323-8571404	18320382899802	2020-10-03T17:26:51+00:00	2020-10-03T10:26:51-07:00	2020-10-03T17:53:20+00:00	2020-10-07T06:59:59+00:00	-4	pqf752cjsv3jkvq@marketplace.amazon.com	Diane Hatch	20638786233	ABM022	Delivery by Wednesday | Purple Extravagance Bouquet by Arabella Bouquets	1	0	1	Expedited	Wendy Faulconer	18927 146TH ST E			BONNEY LAKE	WA	98391-7553	US			false		
114-2694408-3013843	20492392663050	2020-10-03T18:01:34+00:00	2020-10-03T11:01:34-07:00	2020-10-03T18:24:11+00:00	2020-10-07T06:59:59+00:00	-4	0dl918jx2zn4wzp@marketplace.amazon.com	Rama Gopinath	+1 602-671-6610 ext. 56668	ABM0044	Delivery by Wednesday | Arabella Farm Direct Bouquet of Fresh Cut Blue Hydrangea with a Free Glass Vase	1	0	1	Expedited	Asha Ramesh	1205 GARDEN TERRACE DR			IRVING	TX	75060-7706	US		Dear Asha, Wishing you a speedy recovery  Love and hugs From       Gopi and Rama Gopinath	false		
114-4458369-3320246	18299178614666	2020-10-03T18:16:54+00:00	2020-10-03T11:16:54-07:00	2020-10-03T18:46:00+00:00	2020-10-07T06:59:59+00:00	-4	924vr56mj0ww7sp@marketplace.amazon.com	Dehlia Haughton	+1 415-851-9136 ext. 79181	ABM026	Delivery by Wednesday | The Amour Bouquet by Arabella Bouquets	1	0	1	Expedited	Ashley Franke	6159 LONGMONT WAY			CARMICHAEL	CA	95608-0765	US		Happy Birthday Ashley! I hope your day is wonderful and I can’t wait for the day when we can get together again and celebrate in person. From Dehlia Haughton	false		
114-6465974-3798656	40639176538170	2020-10-03T18:39:10+00:00	2020-10-03T11:39:10-07:00	2020-10-03T19:03:38+00:00	2020-10-07T06:59:59+00:00	-4	cd1pchjbrzjq80m@marketplace.amazon.com	Larry A. Shireley	+1 480-618-5344 ext. 36865	ABM025	Delivery by Wednesday | The Fell for You Bouquet by Arabella Bouquets	1	0	1	Expedited	Janet K. Shireley	200 SHERMAN ST	BOX 141		BATTLE GROUND	IN	47920-9763	US		Happy Birthday & Happy Anniversary. Love,  Peggy, Larry & David From Larry A. Shireley	false		
111-0485821-2932216	21737851369762	2020-10-03T18:50:55+00:00	2020-10-03T11:50:55-07:00	2020-10-03T19:11:44+00:00	2020-10-07T06:59:59+00:00	-4	kndnsf4bv5m5qrr@marketplace.amazon.com	thomas r detar	+1 480-618-5344 ext. 46617	ABM002	Delivery by Wednesday | Arabella Bouquets Fresh Cut White Calla Lilies in a Free Designer Glass Vase	1	0	1	Expedited	Suzanne deTar	8990 RICHMOND AVE APT 409			HOUSTON	TX	77063-4933	US		Happy Birthday, Boodanny! We love you and can't wait to see you soon. God bless you! Love, Mama and Papa From thomas r detar	false		
111-9302039-7165016	33208082427946	2020-10-03T18:44:15+00:00	2020-10-03T11:44:15-07:00	2020-10-03T19:13:05+00:00	2020-10-07T06:59:59+00:00	-4	258h1s31vc1lrc3@marketplace.amazon.com	Cathleen	+1 480-618-5344 ext. 67348	ABR0022	Delivery by Wednesday | Arabella Farm Direct Bouquet of 12 Fresh Cut Pink Roses with a Free Glass Vase	1	0	1	Expedited	Beatrice Cooper	400 S PALM DR APT 113			NOVATO	CA	94949-5044	US		Happy Birthday Love From Cathleen	false		
112-1318869-4678663	61381345003050	2020-10-03T19:04:49+00:00	2020-10-03T12:04:49-07:00	2020-10-03T19:32:37+00:00	2020-10-07T06:59:59+00:00	-4	djnkyl4x5d4qwr6@marketplace.amazon.com	Doletta Hobson	+1 415-851-9136 ext. 14334	ABSR003	Arabella Bouquets Fresh Cut Yellow Spray Roses in a Free Designer Glass Vase	1	0	1	Standard	Soror LaTonya Davney	14327 DOBSON AVE			DOLTON	IL	60419-1338	US		Happy Sigma Birthday, Daughter!  Here's to many more years of Sigma Service! From Doletta Hobson	false		
112-3632649-7789053	08810767552490	2020-10-03T19:32:52+00:00	2020-10-03T12:32:52-07:00	2020-10-03T20:01:07+00:00	2020-10-07T06:59:59+00:00	-4	h94rqvl2dh9lqgb@marketplace.amazon.com	Scott Orton	+1 929-436-4790 ext. 60338	ABR0022	Delivery by Wednesday | Arabella Farm Direct Bouquet of 12 Fresh Cut Pink Roses with a Free Glass Vase	1	0	1	Expedited	Glenda Brown / Kele Stansel	19111 WHISPERING PINES DR			INDIAN SHORES	FL	33785-2114	US		Hi Glenda,Welcome back Home From Scott & Johnny	false		
111-6182923-2201809	19310929816922	2020-10-03T20:20:53+00:00	2020-10-03T13:20:53-07:00	2020-10-03T20:44:46+00:00	2020-10-07T06:59:59+00:00	-4	mwfmhg6zb5bqqm6@marketplace.amazon.com	Ramona L Doswell	+1 929-436-4790 ext. 27091	ABR0022	Delivery by Wednesday | Arabella Farm Direct Bouquet of 12 Fresh Cut Pink Roses with a Free Glass Vase	1	0	1	Expedited	Gladys Doswell	1318 GOODWOOD AVE			ESSEX	MD	21221-6012	US			false		
111-1605576-7403438	39368729116506	2020-10-03T20:22:46+00:00	2020-10-03T13:22:46-07:00	2020-10-03T20:50:39+00:00	2020-10-07T06:59:59+00:00	-4	0qw4mfqcssbp6pc@marketplace.amazon.com	Krag Senior	+1 929-436-4790 ext. 80999	ABR004	Delivery by Wednesday | Arabella Farm Direct Bouquet of 12 Fresh Cut Yellow Roses with a Free Glass Vase	1	0	1	Expedited	Elsie Senior	3006 Simpson avenue Apt #2			Hoquiam	WA	98550	US		Happy birthday mom 🥰🥰🥰 Enjoy your gift! From Krag Senior	false		
112-0447282-9750662	59104511999218	2020-10-03T20:37:56+00:00	2020-10-03T13:37:56-07:00	2020-10-03T20:58:00+00:00	2020-10-07T06:59:59+00:00	-4	222vnvp9w72r8qh@marketplace.amazon.com	Maureen Szary	+1 929-436-4790 ext. 38816	ABR0022	Delivery by Wednesday | Arabella Farm Direct Bouquet of 12 Fresh Cut Pink Roses with a Free Glass Vase	1	0	1	Expedited	Constance Schwobe	345 HAYDENVILLE RD APT 311			LEEDS	MA	01053-9793	US		Happy Birthday!  I thought you might have enough hankies by now :-)  I hope you have a super day and please give me a call 352-569-1188 or 352-446-7387 (cell).  I love you! p.s. I hope these arrive in time for your birthday From Maureen	false		
113-3926326-9403449	10712458974938	2020-10-03T20:27:51+00:00	2020-10-03T13:27:51-07:00	2020-10-03T20:58:26+00:00	2020-10-07T06:59:59+00:00	-4	02c5v5c8vrc1s27@marketplace.amazon.com	Bryce Robertson	+1 602-671-6610 ext. 01754	ABR0022	Delivery by Wednesday | Arabella Farm Direct Bouquet of 12 Fresh Cut Pink Roses with a Free Glass Vase	1	0	1	Expedited	Bryce Robertson	60166 HIGHWAY 1046			AMITE	LA	70422-4414	US			false		
113-8714985-3276235	26024321533650	2020-10-03T20:53:56+00:00	2020-10-03T13:53:56-07:00	2020-10-03T21:21:07+00:00	2020-10-07T06:59:59+00:00	-4	03vgt9b5v7h5xzw@marketplace.amazon.com	B J Stroud	+1 415-851-9136 ext. 23717	ABR0055	Delivery by Wednesday | Arabella Farm Direct Bouquet of 12 Stems of Fresh Cut Hot Pink Roses in a Free Designer Glass Vase	1	0	1	Expedited	John W. Stroud	639 PRESQUE ISLE DR			PITTSBURGH	PA	15239-2636	US		My Honey:  Happy Birthday Honey (39th)  Me	false		
112-2002571-9756263	45007432000138	2020-10-03T21:03:58+00:00	2020-10-03T14:03:58-07:00	2020-10-03T21:29:41+00:00	2020-10-07T06:59:59+00:00	-4	qjbx7p8gyl8y9gf@marketplace.amazon.com	Jack	+1 602-671-6610 ext. 53382	ABR0033	Delivery by Wednesday | Arabella Farm Direct Bouquet of 12 Fresh Cut Orange Roses with a Free Glass Vase	1	0	1	Expedited	Josephine J. Ellis	6412 YORK DR UNIT A			LUBBOCK	TX	79414-4626	US		Waste time with me.	false		
113-3959072-3309065	61022939523330	2020-10-03T21:38:28+00:00	2020-10-03T14:38:28-07:00	2020-10-03T22:04:06+00:00	2020-10-07T06:59:59+00:00	-4	dv73l7wr1myhv0j@marketplace.amazon.com	MARK VANDERBOOM	+1 602-671-6610 ext. 48569	ABM024	Delivery by Wednesday | The Beauty of Color Bouquet by Arabella Bouquets	1	0	1	Expedited	July Gray (home)	29515 80TH AVE N			HILLSDALE	IL	61257-9621	US		CONGRATULATIONS! God bless you on this next chapter of your life with your dear husband. From Lots of love, Mark & Laurie From Lots of love, Mark & Laurie	false		
112-7873987-8307436	44030794740906	2020-10-03T21:39:15+00:00	2020-10-03T14:39:15-07:00	2020-10-03T22:06:52+00:00	2020-10-07T06:59:59+00:00	-4	l8tspv3hpmjp0bf@marketplace.amazon.com	Linda E Osborn	+1 929-436-4790 ext. 04870	ABR004	Delivery by Wednesday | Arabella Farm Direct Bouquet of 12 Fresh Cut Yellow Roses with a Free Glass Vase	1	0	1	Expedited	Linda E Osborn	111 E 41ST ST APT 2			TULSA	OK	74105-3800	US		Happy 86th Birthday! Hope these bring you some Joy. From Love, Linda	false		
113-9244508-6429031	41183041050226	2020-10-03T21:52:45+00:00	2020-10-03T14:52:45-07:00	2020-10-03T22:23:21+00:00	2020-10-07T06:59:59+00:00	-4	klbw7zh3sq81jwh@marketplace.amazon.com	debbie navar	+1 602-671-6610 ext. 29501	ABR0022	Delivery by Wednesday | Arabella Farm Direct Bouquet of 12 Fresh Cut Pink Roses with a Free Glass Vase	1	0	1	Expedited	debbie navar	4114 Boy Scout Ln			El Paso	TX	79922-2326	US			false		
