order-id	order-item-id	purchase-date	payments-date	reporting-date	promise-date	days-past-promise	buyer-email	buyer-name	buyer-phone-number	sku	product-name	quantity-purchased	quantity-shipped	quantity-to-ship	ship-service-level	recipient-name	ship-address-1	ship-address-2	ship-address-3	ship-city	ship-state	ship-postal-code	ship-country	gift-wrap-type	gift-message-text	is-business-order	purchase-order-number	price-designation
114-2067088-1478638	54018276278002	2020-10-03T02:25:37+00:00	2020-10-02T19:25:37-07:00	2020-10-03T02:46:04+00:00	2020-10-07T06:59:59+00:00	-2	nrlbbvwnkw0gd9c@marketplace.amazon.com	STEVEN REESE	+1 929-436-4790 ext. 66761	ABR0055	Delivery by Tuesday | Arabella Farm Direct Bouquet of 12 Stems of Fresh Cut Hot Pink Roses in a Free Designer Glass Vase	1	0	1	Expedited	Mamie Days Corley	634 Anders Drive			Columbia	S.C.	29203	US		Happy 70TH Birthday  wish we were there with you to celebrate.  We love you very much From Kitty and Steve	false		
113-0654727-7725012	27930183199186	2020-10-03T11:55:35+00:00	2020-10-03T04:55:35-07:00	2020-10-03T12:22:11+00:00	2020-10-07T06:59:59+00:00	-2	mztz179m1dss9wf@marketplace.amazon.com	Julissa Avelar	+1 602-671-6610 ext. 31228	ABM022	Delivery by Wednesday | Purple Extravagance Bouquet by Arabella Bouquets	1	0	1	Expedited	Julissa avelar	3713 ELBY ST			SILVER SPRING	MD	20906-4342	US		Happy birthday wishing the absolute best, today, tomorrow and always!  Love you!! From DS	false		
114-4449115-0823430	61066757411066	2020-10-03T12:05:19+00:00	2020-10-03T05:05:19-07:00	2020-10-03T12:32:59+00:00	2020-10-07T06:59:59+00:00	-2	jsy3tptk1bdf8f0@marketplace.amazon.com	Demyran Quinn	+1 929-436-4790 ext. 75587	ABR001	Delivery by Wednesday | Arabella Bouquets 12 Stems of Fresh Cut Red Roses in a Free Designer Glass Vase	1	0	1	Expedited	Gabriella Lee Myers	270 COVENANT SQUARE DR APT 12			BILOXI	MS	39531-3911	US			false		
112-0389687-5736250	08048847393450	2020-10-03T12:27:43+00:00	2020-10-03T05:27:43-07:00	2020-10-03T12:56:44+00:00	2020-10-07T06:59:59+00:00	-2	crllvwl93vp9wgs@marketplace.amazon.com	mbauer	+1 602-671-6610 ext. 71487	ABR0022	Delivery by Wednesday | Arabella Farm Direct Bouquet of 12 Fresh Cut Pink Roses with a Free Glass Vase	1	0	1	Expedited	Rene Bauer	417 RED BUD DR			ELIZABETHTOWN	KY	42701-5416	US		Happy Birthday!  Enjoy your day!!!!  Love you!!! From Daryl, Mary, Patrick, Abby and Julia	false		
114-1656645-2425825	39813828684650	2020-10-03T13:33:15+00:00	2020-10-03T06:33:15-07:00	2020-10-03T13:57:42+00:00	2020-10-07T06:59:59+00:00	-2	qx1p1b6n784zs7p@marketplace.amazon.com	matthew	+1 929-436-4790 ext. 67275	ABR0022	Delivery by Wednesday | Arabella Farm Direct Bouquet of 12 Fresh Cut Pink Roses with a Free Glass Vase	1	0	1	Expedited	Jessica  long	4706 Viviana Drive			Tarzana	California	91536	US			false		
114-5647165-7130633	02561240999458	2020-10-03T14:30:00+00:00	2020-10-03T07:30:00-07:00	2020-10-03T14:58:57+00:00	2020-10-07T06:59:59+00:00	-2	85zt25m91k8qfkf@marketplace.amazon.com	Corey Langdale	+1 415-851-9136 ext. 82143	ABM010	The Spring Fling Bouquet by Arabella Bouquets with a Free Designer Glass Vase	1	0	1	Expedited	Sherry Lowrey	1417 Fircrest Way			Waldport	OR	97394	US		Love you Mom! Hope your birthday was wonderful, and you keep celebrating all month long! From Corey Langdale	false		
113-7379245-5579418	28979506849538	2020-10-03T14:33:59+00:00	2020-10-03T07:33:59-07:00	2020-10-03T15:01:50+00:00	2020-10-07T06:59:59+00:00	-2	lkd7m1581m7fh4c@marketplace.amazon.com	Donald Parker	+1 602-671-6610 ext. 10703	ABR001	Delivery by Wednesday | Arabella Bouquets 12 Stems of Fresh Cut Red Roses in a Free Designer Glass Vase	1	0	1	Expedited	Laurie Ferradino	149 South Street Ballston Spa NY 12020			Ballston	New York	12020	US		I can’t wait to spend the rest of my life with you sweetheart. I just want to let you know that I love you with all my heart. From JOB BANKI	false		
114-8259484-0565058	66553483039170	2020-10-03T14:38:08+00:00	2020-10-03T07:38:08-07:00	2020-10-03T15:05:38+00:00	2020-10-07T06:59:59+00:00	-2	6dc7dwzxg6p7kvb@marketplace.amazon.com	Danny Clark	+1 602-671-6610 ext. 64670	ABR013	Arabella Farm Direct Bouquet of 18 Fresh Cut Yellow Roses with a Free Glass Vase	1	0	1	Expedited	Danny Clark	8059 WINDWARD KEY DR			CHESAPEAKE BEACH	MD	20732-3194	US			false		
114-2137115-5539436	47738594117666	2020-10-03T15:18:24+00:00	2020-10-03T08:18:24-07:00	2020-10-03T15:48:01+00:00	2020-10-07T06:59:59+00:00	-2	9ftplcvm5f7dfvf@marketplace.amazon.com	Heidi C Patchett	+1 602-671-6610 ext. 80712	ABB003	Arabella Farm Direct Fresh Cut Blue Hydrangea	1	0	1	Expedited	Susan Maehler	49 STONE RIDGE DR			ETNA	ME	04434-3639	US		I love you more than flowers!!!!!! From Heidi C Patchett	false		
113-0986530-6105812	58226456421954	2020-10-03T15:36:16+00:00	2020-10-03T08:36:16-07:00	2020-10-03T16:00:32+00:00	2020-10-07T06:59:59+00:00	-2	068ydkl2nsb0fgq@marketplace.amazon.com	Manuel Lenoci	+1 929-436-4790 ext. 81909	ABR0022	Delivery by Wednesday | Arabella Farm Direct Bouquet of 12 Fresh Cut Pink Roses with a Free Glass Vase	1	0	1	Expedited	SUE WEBSTER	1925 HAGOOD LOOP			THE VILLAGES	FL	32162-6753	US		Happy Birthday Sue enjoy your special day Much Love Colette and Manny xxx From Manuel Lenoci	false		
114-0032834-9347477	42269081517706	2020-10-03T15:47:00+00:00	2020-10-03T08:47:00-07:00	2020-10-03T16:13:54+00:00	2020-10-07T06:59:59+00:00	-2	8hg9st40xnvf3fg@marketplace.amazon.com	Jon Fidler	+1 480-618-5344 ext. 19034	ABR0022	Delivery by Wednesday | Arabella Farm Direct Bouquet of 12 Fresh Cut Pink Roses with a Free Glass Vase	1	0	1	Expedited	Susan Brown	6016 WOODCREST DR			MORRISTOWN	TN	37814-1315	US		The world is a kinder and more loving place because of wonderful people like you!  Thank you! From The Fidler Family	false		
111-0345339-4025017	40358580270578	2020-10-03T16:19:49+00:00	2020-10-03T09:19:49-07:00	2020-10-03T16:47:00+00:00	2020-10-07T06:59:59+00:00	-2	z849fzdr4lvw2s5@marketplace.amazon.com	John Johnston	+1 480-618-5344 ext. 61928	ABR0055	Delivery by Wednesday | Arabella Farm Direct Bouquet of 12 Stems of Fresh Cut Hot Pink Roses in a Free Designer Glass Vase	1	0	1	Expedited	Taylor Davis	9801 CRYSTALLINE DR			RENO	NV	89506-7566	US		A little sunshine to brighten your day.  Hugs and Love From Juli Johnston	false		
113-6593121-4948217	48038542397586	2020-10-03T16:47:25+00:00	2020-10-03T09:47:25-07:00	2020-10-03T17:15:37+00:00	2020-10-07T06:59:59+00:00	-2	4330zjp55msw92r@marketplace.amazon.com	Heather Huff	+1 415-851-9136 ext. 00356	ABR0033	Delivery by Wednesday | Arabella Farm Direct Bouquet of 12 Fresh Cut Orange Roses with a Free Glass Vase	1	0	1	Expedited	Jesse Couch	7034 SOUTHERLAND CIR			SALEM	VA	24153-8202	US		Jess,  Thinking of you… I hope these brighten your day! Remember you can’t get flowers without a little rain... I love you, Heather	false		
112-5959876-4961806	06414192552234	2020-10-03T16:56:26+00:00	2020-10-03T09:56:26-07:00	2020-10-03T17:25:29+00:00	2020-10-07T06:59:59+00:00	-2	y3n14gsl7ybpvql@marketplace.amazon.com	Josh J. Jazeel	+1 929-436-4790 ext. 92419	ABR001	Delivery by Wednesday | Arabella Bouquets 12 Stems of Fresh Cut Red Roses in a Free Designer Glass Vase	1	0	1	Expedited	Gloria Rivera	37 MOSS AVE APT 8			OAKLAND	CA	94610-1338	US		Hi Gloria, Enjoy your gift! From Josh J. Jazeel	false		
112-2111532-4442661	10091836902234	2020-10-03T17:11:38+00:00	2020-10-03T10:11:38-07:00	2020-10-03T17:30:53+00:00	2020-10-07T06:59:59+00:00	-2	xbgxv34ntlygr1s@marketplace.amazon.com	Brittany Envall	+1 602-671-6610 ext. 05987	ABR0033	Delivery by Wednesday | Arabella Farm Direct Bouquet of 12 Fresh Cut Orange Roses with a Free Glass Vase	1	0	1	Expedited	Jennifer Rias Cannon	142 ROCKLYN AVE			LYNBROOK	NY	11563-3732	US		Sending you quarantine edition birthday wishes m’love xoxo BFF From Brittany Envall	false		
112-5910109-4047405	53334785767562	2020-10-03T17:18:24+00:00	2020-10-03T10:18:24-07:00	2020-10-03T17:48:16+00:00	2020-10-07T06:59:59+00:00	-2	b76rmjmyp2qpfj9@marketplace.amazon.com	Anthony Menio	+1 929-436-4790 ext. 39328	ABR0022	Delivery by Wednesday | Arabella Farm Direct Bouquet of 12 Fresh Cut Pink Roses with a Free Glass Vase	1	0	1	Expedited	Meghan Sullivan	36 SHERMAN PL APT 409			JERSEY CITY	NJ	07307-3049	US		I hope these brighten a Meeg's day. Don't let Goofer eat them!!! From Anthony Menio	false		
113-5129323-8571404	18320382899802	2020-10-03T17:26:51+00:00	2020-10-03T10:26:51-07:00	2020-10-03T17:53:20+00:00	2020-10-07T06:59:59+00:00	-2	pqf752cjsv3jkvq@marketplace.amazon.com	Diane Hatch	20638786233	ABM022	Delivery by Wednesday | Purple Extravagance Bouquet by Arabella Bouquets	1	0	1	Expedited	Wendy Faulconer	18927 146TH ST E			BONNEY LAKE	WA	98391-7553	US			false		
114-2694408-3013843	20492392663050	2020-10-03T18:01:34+00:00	2020-10-03T11:01:34-07:00	2020-10-03T18:24:11+00:00	2020-10-07T06:59:59+00:00	-2	0dl918jx2zn4wzp@marketplace.amazon.com	Rama Gopinath	+1 602-671-6610 ext. 56668	ABM0044	Delivery by Wednesday | Arabella Farm Direct Bouquet of Fresh Cut Blue Hydrangea with a Free Glass Vase	1	0	1	Expedited	Asha Ramesh	1205 GARDEN TERRACE DR			IRVING	TX	75060-7706	US		Dear Asha, Wishing you a speedy recovery  Love and hugs From       Gopi and Rama Gopinath	false		
114-4458369-3320246	18299178614666	2020-10-03T18:16:54+00:00	2020-10-03T11:16:54-07:00	2020-10-03T18:46:00+00:00	2020-10-07T06:59:59+00:00	-2	924vr56mj0ww7sp@marketplace.amazon.com	Dehlia Haughton	+1 415-851-9136 ext. 79181	ABM026	Delivery by Wednesday | The Amour Bouquet by Arabella Bouquets	1	0	1	Expedited	Ashley Franke	6159 LONGMONT WAY			CARMICHAEL	CA	95608-0765	US		Happy Birthday Ashley! I hope your day is wonderful and I can’t wait for the day when we can get together again and celebrate in person. From Dehlia Haughton	false		
114-6465974-3798656	40639176538170	2020-10-03T18:39:10+00:00	2020-10-03T11:39:10-07:00	2020-10-03T19:03:38+00:00	2020-10-07T06:59:59+00:00	-2	cd1pchjbrzjq80m@marketplace.amazon.com	Larry A. Shireley	+1 480-618-5344 ext. 36865	ABM025	Delivery by Wednesday | The Fell for You Bouquet by Arabella Bouquets	1	0	1	Expedited	Janet K. Shireley	200 SHERMAN ST	BOX 141		BATTLE GROUND	IN	47920-9763	US		Happy Birthday & Happy Anniversary. Love,  Peggy, Larry & David From Larry A. Shireley	false		
111-0485821-2932216	21737851369762	2020-10-03T18:50:55+00:00	2020-10-03T11:50:55-07:00	2020-10-03T19:11:44+00:00	2020-10-07T06:59:59+00:00	-2	kndnsf4bv5m5qrr@marketplace.amazon.com	thomas r detar	+1 480-618-5344 ext. 46617	ABM002	Delivery by Wednesday | Arabella Bouquets Fresh Cut White Calla Lilies in a Free Designer Glass Vase	1	0	1	Expedited	Suzanne deTar	8990 RICHMOND AVE APT 409			HOUSTON	TX	77063-4933	US		Happy Birthday, Boodanny! We love you and can't wait to see you soon. God bless you! Love, Mama and Papa From thomas r detar	false		
111-9302039-7165016	33208082427946	2020-10-03T18:44:15+00:00	2020-10-03T11:44:15-07:00	2020-10-03T19:13:05+00:00	2020-10-07T06:59:59+00:00	-2	258h1s31vc1lrc3@marketplace.amazon.com	Cathleen	+1 480-618-5344 ext. 67348	ABR0022	Delivery by Wednesday | Arabella Farm Direct Bouquet of 12 Fresh Cut Pink Roses with a Free Glass Vase	1	0	1	Expedited	Beatrice Cooper	400 S PALM DR APT 113			NOVATO	CA	94949-5044	US		Happy Birthday Love From Cathleen	false		
112-1318869-4678663	61381345003050	2020-10-03T19:04:49+00:00	2020-10-03T12:04:49-07:00	2020-10-03T19:32:37+00:00	2020-10-07T06:59:59+00:00	-2	djnkyl4x5d4qwr6@marketplace.amazon.com	Doletta Hobson	+1 415-851-9136 ext. 14334	ABSR003	Arabella Bouquets Fresh Cut Yellow Spray Roses in a Free Designer Glass Vase	1	0	1	Standard	Soror LaTonya Davney	14327 DOBSON AVE			DOLTON	IL	60419-1338	US		Happy Sigma Birthday, Daughter!  Here's to many more years of Sigma Service! From Doletta Hobson	false		
112-3632649-7789053	08810767552490	2020-10-03T19:32:52+00:00	2020-10-03T12:32:52-07:00	2020-10-03T20:01:07+00:00	2020-10-07T06:59:59+00:00	-2	h94rqvl2dh9lqgb@marketplace.amazon.com	Scott Orton	+1 929-436-4790 ext. 60338	ABR0022	Delivery by Wednesday | Arabella Farm Direct Bouquet of 12 Fresh Cut Pink Roses with a Free Glass Vase	1	0	1	Expedited	Glenda Brown / Kele Stansel	19111 WHISPERING PINES DR			INDIAN SHORES	FL	33785-2114	US		Hi Glenda,Welcome back Home From Scott & Johnny	false		
111-6182923-2201809	19310929816922	2020-10-03T20:20:53+00:00	2020-10-03T13:20:53-07:00	2020-10-03T20:44:46+00:00	2020-10-07T06:59:59+00:00	-2	mwfmhg6zb5bqqm6@marketplace.amazon.com	Ramona L Doswell	+1 929-436-4790 ext. 27091	ABR0022	Delivery by Wednesday | Arabella Farm Direct Bouquet of 12 Fresh Cut Pink Roses with a Free Glass Vase	1	0	1	Expedited	Gladys Doswell	1318 GOODWOOD AVE			ESSEX	MD	21221-6012	US			false		
111-1605576-7403438	39368729116506	2020-10-03T20:22:46+00:00	2020-10-03T13:22:46-07:00	2020-10-03T20:50:39+00:00	2020-10-07T06:59:59+00:00	-2	0qw4mfqcssbp6pc@marketplace.amazon.com	Krag Senior	+1 929-436-4790 ext. 80999	ABR004	Delivery by Wednesday | Arabella Farm Direct Bouquet of 12 Fresh Cut Yellow Roses with a Free Glass Vase	1	0	1	Expedited	Elsie Senior	3006 Simpson avenue Apt #2			Hoquiam	WA	98550	US		Happy birthday mom 🥰🥰🥰 Enjoy your gift! From Krag Senior	false		
112-0447282-9750662	59104511999218	2020-10-03T20:37:56+00:00	2020-10-03T13:37:56-07:00	2020-10-03T20:58:00+00:00	2020-10-07T06:59:59+00:00	-2	222vnvp9w72r8qh@marketplace.amazon.com	Maureen Szary	+1 929-436-4790 ext. 38816	ABR0022	Delivery by Wednesday | Arabella Farm Direct Bouquet of 12 Fresh Cut Pink Roses with a Free Glass Vase	1	0	1	Expedited	Constance Schwobe	345 HAYDENVILLE RD APT 311			LEEDS	MA	01053-9793	US		Happy Birthday!  I thought you might have enough hankies by now :-)  I hope you have a super day and please give me a call 352-569-1188 or 352-446-7387 (cell).  I love you! p.s. I hope these arrive in time for your birthday From Maureen	false		
113-3926326-9403449	10712458974938	2020-10-03T20:27:51+00:00	2020-10-03T13:27:51-07:00	2020-10-03T20:58:26+00:00	2020-10-07T06:59:59+00:00	-2	02c5v5c8vrc1s27@marketplace.amazon.com	Bryce Robertson	+1 602-671-6610 ext. 01754	ABR0022	Delivery by Wednesday | Arabella Farm Direct Bouquet of 12 Fresh Cut Pink Roses with a Free Glass Vase	1	0	1	Expedited	Bryce Robertson	60166 HIGHWAY 1046			AMITE	LA	70422-4414	US			false		
113-8714985-3276235	26024321533650	2020-10-03T20:53:56+00:00	2020-10-03T13:53:56-07:00	2020-10-03T21:21:07+00:00	2020-10-07T06:59:59+00:00	-2	03vgt9b5v7h5xzw@marketplace.amazon.com	B J Stroud	+1 415-851-9136 ext. 23717	ABR0055	Delivery by Wednesday | Arabella Farm Direct Bouquet of 12 Stems of Fresh Cut Hot Pink Roses in a Free Designer Glass Vase	1	0	1	Expedited	John W. Stroud	639 PRESQUE ISLE DR			PITTSBURGH	PA	15239-2636	US		My Honey:  Happy Birthday Honey (39th)  Me	false		
112-2002571-9756263	45007432000138	2020-10-03T21:03:58+00:00	2020-10-03T14:03:58-07:00	2020-10-03T21:29:41+00:00	2020-10-07T06:59:59+00:00	-2	qjbx7p8gyl8y9gf@marketplace.amazon.com	Jack	+1 602-671-6610 ext. 53382	ABR0033	Delivery by Wednesday | Arabella Farm Direct Bouquet of 12 Fresh Cut Orange Roses with a Free Glass Vase	1	0	1	Expedited	Josephine J. Ellis	6412 YORK DR UNIT A			LUBBOCK	TX	79414-4626	US		Waste time with me.	false		
113-3959072-3309065	61022939523330	2020-10-03T21:38:28+00:00	2020-10-03T14:38:28-07:00	2020-10-03T22:04:06+00:00	2020-10-07T06:59:59+00:00	-2	dv73l7wr1myhv0j@marketplace.amazon.com	MARK VANDERBOOM	+1 602-671-6610 ext. 48569	ABM024	Delivery by Wednesday | The Beauty of Color Bouquet by Arabella Bouquets	1	0	1	Expedited	July Gray (home)	29515 80TH AVE N			HILLSDALE	IL	61257-9621	US		CONGRATULATIONS! God bless you on this next chapter of your life with your dear husband. From Lots of love, Mark & Laurie From Lots of love, Mark & Laurie	false		
112-7873987-8307436	44030794740906	2020-10-03T21:39:15+00:00	2020-10-03T14:39:15-07:00	2020-10-03T22:06:52+00:00	2020-10-07T06:59:59+00:00	-2	l8tspv3hpmjp0bf@marketplace.amazon.com	Linda E Osborn	+1 929-436-4790 ext. 04870	ABR004	Delivery by Wednesday | Arabella Farm Direct Bouquet of 12 Fresh Cut Yellow Roses with a Free Glass Vase	1	0	1	Expedited	Linda E Osborn	111 E 41ST ST APT 2			TULSA	OK	74105-3800	US		Happy 86th Birthday! Hope these bring you some Joy. From Love, Linda	false		
112-6749246-7237802	29088834281754	2020-10-03T22:03:10+00:00	2020-10-03T15:03:10-07:00	2020-10-03T22:33:40+00:00	2020-10-07T06:59:59+00:00	-2	5md488yrkqh9y0t@marketplace.amazon.com	Ángel alverto Maradiaga Barahona	+1 415-851-9136 ext. 00237	ABR0055	Delivery by Wednesday | Arabella Farm Direct Bouquet of 12 Stems of Fresh Cut Hot Pink Roses in a Free Designer Glass Vase	1	0	1	Expedited	Ángel Alberto Maradiaga Barahona	13004EVANSTON ST	13004 EVANSTON ST		ROCKVILLE	MD	20853-3027	US			false		
114-8666202-2346624	61145507332730	2020-10-03T22:46:41+00:00	2020-10-03T15:46:41-07:00	2020-10-03T23:00:10+00:00	2020-10-07T06:59:59+00:00	-2	jg2hyt28xrkphfg@marketplace.amazon.com	David	+1 415-851-9136 ext. 15901	ABR001	Delivery by Wednesday | Arabella Bouquets 12 Stems of Fresh Cut Red Roses in a Free Designer Glass Vase	1	0	1	Expedited	Kimesha Morris	19389 WATERS REACH TRL APT 1103			BOCA RATON	FL	33434-5124	US		I love you baby please forgive me. I want to spend the rest of my life with you!! From Your Husband David Daley	false		
111-4377198-8019452	26075627204554	2020-10-03T22:57:03+00:00	2020-10-03T15:57:03-07:00	2020-10-03T23:25:38+00:00	2020-10-07T06:59:59+00:00	-2	kq3xntxbbszvvgf@marketplace.amazon.com	Dan	+1 480-618-5344 ext. 93661	ABM022	Delivery by Wednesday | Purple Extravagance Bouquet by Arabella Bouquets	1	0	1	Expedited	Daniel Hoyt	30575 204TH AVE SE			COVINGTON	WA	98042-9516	US		Happy Birthday Love You Daniel From Dan	false		
113-6202940-2517847	50155683160106	2020-10-03T23:26:58+00:00	2020-10-03T16:26:58-07:00	2020-10-03T23:57:14+00:00	2020-10-07T06:59:59+00:00	-2	syqzv4322bzbjhl@marketplace.amazon.com	Elizabeth J. Markley	+1 929-436-4790 ext. 56200	ABR0055	Delivery by Wednesday | Arabella Farm Direct Bouquet of 12 Stems of Fresh Cut Hot Pink Roses in a Free Designer Glass Vase	1	0	1	Expedited	Catie Roberts	8104 SAINT CLAIR DR			MCKINNEY	TX	75071-6339	US			false		
114-2925663-6924224	65905682272098	2020-10-03T23:39:48+00:00	2020-10-03T16:39:48-07:00	2020-10-04T00:10:25+00:00	2020-10-07T06:59:59+00:00	-2	241zfkgsdypk4t0@marketplace.amazon.com	nancy Bing	+1 602-671-6610 ext. 99233	ABR0066	Delivery by Wednesday | Arabella Bouquets 12 Stems of Fresh Cut White Roses in a Free Designer Glass Vase	1	0	1	Expedited	Nancy Bing	3000 VALLEY FORGE CIR APT 345			KING OF PRUSSIA	PA	19406-1144	US			false		
114-9670403-6716223	13815583514626	2020-10-03T23:48:44+00:00	2020-10-03T16:48:44-07:00	2020-10-04T00:18:01+00:00	2020-10-07T06:59:59+00:00	-2	ldvpvtkhhrcmp15@marketplace.amazon.com	Daniel S McLaughlin	+1 929-436-4790 ext. 17875	ABR0022	Delivery by Wednesday | Arabella Farm Direct Bouquet of 12 Fresh Cut Pink Roses with a Free Glass Vase	1	0	1	Expedited	Daniel McLaughlin	1247 HALLADAY AVE W			SUFFIELD	CT	06078-1021	US		Gramma, Happy birthday!   Love,  Pam, Dan and kids From Daniel S McLaughlin	false		
113-7294938-3433841	15017268068170	2020-10-03T23:59:17+00:00	2020-10-03T16:59:17-07:00	2020-10-04T00:21:45+00:00	2020-10-07T06:59:59+00:00	-2	q654dmzl06n58j4@marketplace.amazon.com	Michael J.Tomczak	+1 415-851-9136 ext. 92751	ABM010	The Spring Fling Bouquet by Arabella Bouquets with a Free Designer Glass Vase	1	0	1	Expedited	Mrs.Patricia Hazen	71 APPLEWOOD RD			CHEEKTOWAGA	NY	14225-1364	US		We love you! We’re praying for you. God bless you. From Jolene, Lisa and Evie	false		
113-3686583-4833014	10620006704194	2020-10-03T23:53:18+00:00	2020-10-03T16:53:18-07:00	2020-10-04T00:23:54+00:00	2020-10-07T06:59:59+00:00	-2	klbw7zh3sq81jwh@marketplace.amazon.com	debbie navar	+1 480-618-5344 ext. 27595	ABR0022	Delivery by Wednesday | Arabella Farm Direct Bouquet of 12 Fresh Cut Pink Roses with a Free Glass Vase	1	0	1	Expedited	Anita Schilling	1213 COUNTY ROAD 610			DIMMITT	TEXAS	79027-6213	US			false		
114-0930519-1557006	02722103399562	2020-10-04T00:53:56+00:00	2020-10-03T17:53:56-07:00	2020-10-04T01:23:10+00:00	2020-10-07T06:59:59+00:00	-2	v91rsx2x4g671q2@marketplace.amazon.com	Kelly Preston	+1 602-671-6610 ext. 14023	ABR0033	Delivery by Wednesday | Arabella Farm Direct Bouquet of 12 Fresh Cut Orange Roses with a Free Glass Vase	1	0	1	Expedited	Pacifica Memory Care	ROSEMARY WIDENER	1808 SE 182ND AVE		PORTLAND	OR	97233-5120	US			false		
114-8810310-1740214	61427701927082	2020-10-04T00:55:42+00:00	2020-10-03T17:55:42-07:00	2020-10-04T01:24:15+00:00	2020-10-07T06:59:59+00:00	-2	1pdpd2gy2f2s4t2@marketplace.amazon.com	Olga Fedyna	+1 929-436-4790 ext. 12513	ABR0055	Delivery by Wednesday | Arabella Farm Direct Bouquet of 12 Stems of Fresh Cut Hot Pink Roses in a Free Designer Glass Vase	1	0	1	Expedited	Natalia Kulytska	795 VERNON CT S			BUFFALO GROVE	IL	60089-3483	US		Dorogenka Natalochko!!!! Z Dnem Narodzhennia! Zdorovia, shchastia I Bozhoi lasky na mnogii lita! From Olga Fedyna	false		
112-9026413-2256267	21165930469242	2020-10-04T01:23:15+00:00	2020-10-03T18:23:15-07:00	2020-10-04T01:50:52+00:00	2020-10-07T06:59:59+00:00	-2	qm28n57x9w6r4tj@marketplace.amazon.com	Teresa Hassanally	+1 602-671-6610 ext. 54894	ABR0022	Delivery by Wednesday | Arabella Farm Direct Bouquet of 12 Fresh Cut Pink Roses with a Free Glass Vase	1	0	1	Expedited	Rawsthorne	3800 S DECATUR BLVD SPC 122			LAS VEGAS	NV	89103-5827	US		Enjoy your birthday,  love Teresa From Teresa Hassanally	false		
112-7375964-4243432	21558292115466	2020-10-04T02:25:52+00:00	2020-10-03T19:25:52-07:00	2020-10-04T02:38:20+00:00	2020-10-07T06:59:59+00:00	-2	ncz49msd5w5l8cr@marketplace.amazon.com	Inspier	+1 480-618-5344 ext. 16545	ABM022	Delivery by Wednesday | Purple Extravagance Bouquet by Arabella Bouquets	1	0	1	Expedited	Samantha Weis	2495 SAWDUST RD APT 1105			SPRING	TX	77380-3365	US		We turn not older with years, but newer every day.  – Emily Dickinson Flowers to celebrate you...just a bit delayed! Happy Birthday 27years + 16days... From Love, Mom & Dad Weis	false		
112-6130334-0060261	15630689006154	2020-10-04T02:38:25+00:00	2020-10-03T19:38:25-07:00	2020-10-04T03:06:07+00:00	2020-10-07T06:59:59+00:00	-2	p9j0zftjs9n97s6@marketplace.amazon.com	Thomas DeFreitas	+1 929-436-4790 ext. 54348	ABR001	Delivery by Wednesday | Arabella Bouquets 12 Stems of Fresh Cut Red Roses in a Free Designer Glass Vase	1	0	1	Expedited	Melinda DeFreitas	325 LOWELL ST A			WAKEFIELD	MA	01880-1736	US		Happy 4 year anniversary babe...i love you so much and love the new and improved life we are building together...nothing can stop us  Love me, G, tino and big ang From Thomas DeFreitas	false		
112-8730834-0305824	41023659277874	2020-10-04T02:44:00+00:00	2020-10-03T19:44:00-07:00	2020-10-04T03:13:20+00:00	2020-10-07T06:59:59+00:00	-2	1b6nf28zyfj8202@marketplace.amazon.com	Kimberly Gorman	+1 602-671-6610 ext. 85041	ABR0022	Delivery by Wednesday | Arabella Farm Direct Bouquet of 12 Fresh Cut Pink Roses with a Free Glass Vase	2	0	2	Expedited	Kimberly Gorman	6016 N TRAILS END			PEORIA	IL	61614-3523	US			false		
112-9599678-8441053	50285980979066	2020-10-04T04:47:49+00:00	2020-10-03T21:47:49-07:00	2020-10-04T05:16:22+00:00	2020-10-07T06:59:59+00:00	-2	214zn2mn49jxn6s@marketplace.amazon.com	Erik	+1 929-436-4790 ext. 72517	ABM022	Delivery by Wednesday | Purple Extravagance Bouquet by Arabella Bouquets	1	0	1	Expedited	Renea Forrest	7826 WHITTAKER ST			DETROIT	MI	48209-4300	US		For Susan,  With Love Always From Erik and Michelle	false		
112-6556248-8725029	16896961350666	2020-10-04T05:00:04+00:00	2020-10-03T22:00:04-07:00	2020-10-04T05:27:00+00:00	2020-10-07T06:59:59+00:00	-2	ypd7hdpy9s1h0yz@marketplace.amazon.com	Linda Brusco	+1 929-436-4790 ext. 04530	ABM030	Delivery by Wednesday | The Just Because Bouquet by Arabella Bouquets	1	0	1	Expedited	Dora Beltramo	THE CARNELIAN 2380 WARREN RD			WALNUT CREEK	CA	94595-1247	US		Happiest of birthdays! We love you so very much.  Linda, Ryan, Lindsay, Deanna, Joshua, Aven, Siena, Truly, & Layla From Linda Brusco	false		
112-6297409-0070616	52349911416522	2020-10-04T06:51:47+00:00	2020-10-03T23:51:47-07:00	2020-10-04T07:21:51+00:00	2020-10-07T06:59:59+00:00	-2	ns39swm9855vqb9@marketplace.amazon.com	Mike Storms	+1 480-618-5344 ext. 68181	ABB014	Arabella Bouquets | Farm Direct 48 Fresh Cut White Roses	1	0	1	Expedited	Lee Storms	404 E MARSHALL ST			SWEET SPRINGS	MO	65351-9757	US			false		
113-5758578-2123426	29475806742418	2020-10-04T07:45:59+00:00	2020-10-04T00:45:59-07:00	2020-10-04T08:16:18+00:00	2020-10-07T06:59:59+00:00	-2	jrg8wmfw9th0jks@marketplace.amazon.com	Barb davis	+1 602-671-6610 ext. 00242	ABM022	Delivery by Wednesday | Purple Extravagance Bouquet by Arabella Bouquets	1	0	1	Expedited	Scottie Brower	23 INDEPENDENCE GRN			MONTPELIER	VT	05602-3343	US			false		
112-1348081-8439423	13340252641698	2020-10-04T11:55:08+00:00	2020-10-04T04:55:08-07:00	2020-10-04T12:21:32+00:00	2020-10-07T06:59:59+00:00	-2	glwzlck86d0w0hz@marketplace.amazon.com	Steve Cordovani	+1 929-436-4790 ext. 86448	ABR0022	Delivery by Wednesday | Arabella Farm Direct Bouquet of 12 Fresh Cut Pink Roses with a Free Glass Vase	1	0	1	Expedited	Hannah Drexler	724 S SAINT ASAPH ST # WB311			ALEXANDRIA	VA	22314-4349	US		Always missing you!  You are the most amazing and stunning woman I have ever known!!  You are absolutely beyond the most beautiful woman I have ever seen! XOXOSC	false		
114-9284115-6791427	20803718202658	2020-10-04T12:19:29+00:00	2020-10-04T05:19:29-07:00	2020-10-04T12:48:05+00:00	2020-10-07T06:59:59+00:00	-2	nkpcy13j96xplhs@marketplace.amazon.com	Danielle Hockaday	+1 602-671-6610 ext. 52163	ABM027	Delivery by Wednesday | The Changing Seasons Bouquet by Arabella Bouquets	1	0	1	Expedited	Brenda Harris	978 COUNTRY CLUB PARK			DELAND	FL	32724-8033	US		Happy Birthday Ms. Harris! Enjoy your day to the fullest! From Danielle Hockaday	false		
112-0006822-9990619	30488732611922	2020-10-04T12:50:26+00:00	2020-10-04T05:50:26-07:00	2020-10-04T13:19:51+00:00	2020-10-07T06:59:59+00:00	-2	z79my3v6cwwl16x@marketplace.amazon.com	Danielle Curiel-Gaffney	+1 415-851-9136 ext. 24471	ABR0066	Delivery by Wednesday | Arabella Bouquets 12 Stems of Fresh Cut White Roses in a Free Designer Glass Vase	1	0	1	Expedited	Sharon O’Rourke	100 DALY BLVD			OCEANSIDE	NY	11572-6000	US			false		
112-3105543-8166635	48933126507658	2020-10-04T13:49:37+00:00	2020-10-04T06:49:37-07:00	2020-10-04T14:20:19+00:00	2020-10-07T06:59:59+00:00	-2	qs9mdx268vk3sv2@marketplace.amazon.com	Blue August	+1 480-618-5344 ext. 14757	ABM0044	Delivery by Wednesday | Arabella Farm Direct Bouquet of Fresh Cut Blue Hydrangea with a Free Glass Vase	1	0	1	Expedited	Blue V. August	205 VIRGINIA ST			RAVENSWOOD	WV	26164-1831	US			false		
111-4183515-4421842	04797204516010	2020-10-04T14:04:15+00:00	2020-10-04T07:04:15-07:00	2020-10-04T14:33:37+00:00	2020-10-07T06:59:59+00:00	-2	6sb36mtp2rxf1gp@marketplace.amazon.com	Marianne Dalton	+1 480-618-5344 ext. 86373	ABM010	The Spring Fling Bouquet by Arabella Bouquets with a Free Designer Glass Vase	1	0	1	Expedited	Tarragon Gatchell	8820 SOUTHWESTERN BLVD APT 904			DALLAS	TX	75206-2872	US		Wish I could be there! Love you lots xxx From Mum	false		
112-3998313-5524256	67608414868682	2020-10-04T14:15:54+00:00	2020-10-04T07:15:54-07:00	2020-10-04T14:38:38+00:00	2020-10-07T06:59:59+00:00	-2	kzxb5n2592slhm1@marketplace.amazon.com	Roger L Knott	+1 480-618-5344 ext. 23531	ABM022	Delivery by Wednesday | Purple Extravagance Bouquet by Arabella Bouquets	1	0	1	Expedited	Jilyssa Bolton	327 NORTH RD			FREMONT	NH	03044-3114	US		Enjoy your gift! Dear Jilyssa, We are so happy you are home! We’re sending all our love and best wishes and hugs too!! Auntie Godmother Gail, and families Job,Knott, and Wiederhold xxxx From Gail Knott	false		
112-7608780-8781822	15032022508282	2020-10-04T14:25:35+00:00	2020-10-04T07:25:35-07:00	2020-10-04T14:52:26+00:00	2020-10-07T06:59:59+00:00	-2	ks8hjykvng1ymt2@marketplace.amazon.com	ryokoku	+1 929-436-4790 ext. 63523	ABR0022	Delivery by Wednesday | Arabella Farm Direct Bouquet of 12 Fresh Cut Pink Roses with a Free Glass Vase	1	0	1	Expedited	Ryokoku Nakamoto	11204 HARCROSS CT			PRINCETON	NJ	08540-6581	US		This is flowers for you !! I hope you like it and wish your best in your first year of 30s. From ryokoku	false		
114-8301282-9072234	49402435692322	2020-10-04T14:39:38+00:00	2020-10-04T07:39:38-07:00	2020-10-04T15:08:07+00:00	2020-10-07T06:59:59+00:00	-2	x4lygqw5t2xf0ph@marketplace.amazon.com	Adriana	+1 602-671-6610 ext. 19029	ABR0022	Delivery by Wednesday | Arabella Farm Direct Bouquet of 12 Fresh Cut Pink Roses with a Free Glass Vase	1	0	1	Expedited	Adriana lopez	221 NEWCOMB LN			RIDDLE	OR	97469-9721	US			false		
112-7980229-8429004	19451138075514	2020-10-04T14:58:10+00:00	2020-10-04T07:58:10-07:00	2020-10-04T15:23:55+00:00	2020-10-07T06:59:59+00:00	-2	l1j7lmw9vqd3x23@marketplace.amazon.com	Marquita Queeley	+1 415-851-9136 ext. 03074	ABM010	The Spring Fling Bouquet by Arabella Bouquets with a Free Designer Glass Vase	1	0	1	Expedited	Helena Queeley	30 CURTIS RD UNIT 55			MILTON	MA	02186-1661	US		Dear Aunt Helena,  Happy Belated Birthday. Hope you are enjoying your birthday week.   Love, Marquita From Marquita	false		
113-8104316-8052261	28789694897298	2020-10-04T15:05:04+00:00	2020-10-04T08:05:04-07:00	2020-10-04T15:29:51+00:00	2020-10-07T06:59:59+00:00	-2	sh7bj2tbx9l6vr7@marketplace.amazon.com	Nurit reshef	+1 415-851-9136 ext. 87459	ABR0022	Delivery by Wednesday | Arabella Farm Direct Bouquet of 12 Fresh Cut Pink Roses with a Free Glass Vase	1	0	1	Expedited	Reshef omer	404 11TH ST			BROOKLYN	NY	11215-4022	US		Dana’le Happy birthday  Love you!!!!!!! From Nurit Rafi and all the family	false		
111-8853427-3218662	54840349477066	2020-10-04T15:09:27+00:00	2020-10-04T08:09:27-07:00	2020-10-04T15:39:31+00:00	2020-10-07T06:59:59+00:00	-2	d7593ff3zj5z05p@marketplace.amazon.com	ELAINE FLOYD	+1 415-851-9136 ext. 71286	ABB003	Arabella Farm Direct Fresh Cut Blue Hydrangea	1	0	1	Expedited	Elaine Floyd	2013 FERNWOOD CT			HENDERSON	NC	27536-5815	US			false		
114-2974700-5185009	44743598828738	2020-10-04T15:17:45+00:00	2020-10-04T08:17:45-07:00	2020-10-04T15:46:02+00:00	2020-10-07T06:59:59+00:00	-2	96zbkcv8hnnwc1v@marketplace.amazon.com	Joe Carlo	+1 602-671-6610 ext. 49890	ABR0022	Delivery by Wednesday | Arabella Farm Direct Bouquet of 12 Fresh Cut Pink Roses with a Free Glass Vase	1	0	1	Expedited	Joanne Velthaus	99B Central Ave			Hillsdale	NJ	07642	US		Happy Birthday Mom! Wishing you a great day! Love Joanne, Mike, Joey and Tyler From Joanne, Mike, Joey and Tyler	false		
111-6545973-7514654	26518396875378	2020-10-02T00:57:31+00:00	2020-10-01T17:57:31-07:00	2020-10-04T15:48:09+00:00	2020-10-06T06:59:59+00:00	-1	7t8m9ttk3h9qc2g@marketplace.amazon.com	Andre	+1 480-618-5344 ext. 31065	ABR001	Delivery by Monday | Arabella Bouquets 12 Stems of Fresh Cut Red Roses in a Free Designer Glass Vase	1	0	1	NextDay	Fran Rock	2602 NASSAU BND APT A2			COCONUT CREEK	FL	33066-2726	US		I must have done something real good in this life that someone like you was rewarded back to me.You made me a better person, brought out the best in me. Thanks for loving me. Words may not be enough to express my gratitude. From Jeremy Bergman	false		
114-8017678-4204262	63501795442154	2020-10-04T16:11:10+00:00	2020-10-04T09:11:10-07:00	2020-10-04T16:36:06+00:00	2020-10-07T06:59:59+00:00	-2	n35fr6bkcwqw4w9@marketplace.amazon.com	Stephanie K Reilly	+1 602-671-6610 ext. 30179	ABR0066	Delivery by Wednesday | Arabella Bouquets 12 Stems of Fresh Cut White Roses in a Free Designer Glass Vase	1	0	1	Expedited	The Bykov Family	10 ASHLAND DR			HUNTINGTON	NY	11743-3861	US			false		
112-2987158-0424244	00910330818938	2020-10-04T16:23:00+00:00	2020-10-04T09:23:00-07:00	2020-10-04T16:51:37+00:00	2020-10-07T06:59:59+00:00	-2	vt0v8s7jj749wj4@marketplace.amazon.com	Luan Johnson	+1 602-671-6610 ext. 72418	ABM0033	Arabella Farm Direct Bouquet of Fresh Cut White Hydrangea with a Free Glass Vase	1	0	1	Expedited	Letha Kennedy	2558 PAHMEYER RD			NEW BRAUNFELS	TX	78130-3933	US		Happy birthday my forever younger friend!! From Luan Johnson	false		
114-9970403-4913824	30155593864330	2020-10-03T18:04:02+00:00	2020-10-03T11:04:02-07:00	2020-10-04T17:00:52+00:00	2020-10-07T06:59:59+00:00	-2	0qhz7bhz6rjvv8q@marketplace.amazon.com	Markeith	+1 602-671-6610 ext. 78336	ABR001	Delivery by Wednesday | Arabella Bouquets 12 Stems of Fresh Cut Red Roses in a Free Designer Glass Vase	1	0	1	Expedited	Markeith	340 FAIR OAKS DR			FAIRFIELD	AL	35064-2417	US			false		
112-8833892-3800256	51760951023618	2020-10-04T16:35:13+00:00	2020-10-04T09:35:13-07:00	2020-10-04T17:04:22+00:00	2020-10-07T06:59:59+00:00	-2	vt0v8s7jj749wj4@marketplace.amazon.com	Luan Johnson	+1 602-671-6610 ext. 92119	ABM0033	Arabella Farm Direct Bouquet of Fresh Cut White Hydrangea with a Free Glass Vase	1	0	1	Expedited	Letha Kennedy	2558 PAHMEYER RD			NEW BRAUNFELS	TX	78130-3933	US			false		
114-3452992-6533064	15034488017106	2020-10-04T16:45:13+00:00	2020-10-04T09:45:13-07:00	2020-10-04T17:11:46+00:00	2020-10-07T06:59:59+00:00	-2	5ts21sq8ht9vybc@marketplace.amazon.com	Marlene fishy	+1 602-671-6610 ext. 13251	ABR0055	Delivery by Wednesday | Arabella Farm Direct Bouquet of 12 Stems of Fresh Cut Hot Pink Roses in a Free Designer Glass Vase	1	0	1	Expedited	Rochelle Sobel	276 TEMPLE HILL RD UNIT 2704			NEW WINDSOR	NY	12553-6874	US			false		
113-3342218-8998644	51223170574442	2020-10-04T02:44:26+00:00	2020-10-03T19:44:26-07:00	2020-10-04T17:31:56+00:00	2020-10-07T06:59:59+00:00	-2	fzs9mhqb5wk1y8w@marketplace.amazon.com	Gage	+1 602-671-6610 ext. 22900	ABR001	Delivery by Wednesday | Arabella Bouquets 12 Stems of Fresh Cut Red Roses in a Free Designer Glass Vase	1	0	1	Expedited	Felicia Catalfamo-Smith	3835 GREEN POND RD	BOX # 175 NORTHAMPTON COMMUNITY COLLEGE		BETHLEHEM	PA	18020-7568	US			false		
114-8221317-0630602	47470427186674	2020-10-04T17:08:19+00:00	2020-10-04T10:08:19-07:00	2020-10-04T17:38:12+00:00	2020-10-07T06:59:59+00:00	-2	cw75x46wn5fkfb9@marketplace.amazon.com	Richard Snelling	+1 602-671-6610 ext. 92675	ABR0055	Delivery by Wednesday | Arabella Farm Direct Bouquet of 12 Stems of Fresh Cut Hot Pink Roses in a Free Designer Glass Vase	1	0	1	Expedited	Janina Hartung	1250 AMERICAN PACIFIC DR APT 1922			HENDERSON	NV	89074-7860	US			false		
111-4026152-6937065	68347553828338	2020-10-04T18:55:18+00:00	2020-10-04T11:55:18-07:00	2020-10-04T19:20:27+00:00	2020-10-07T06:59:59+00:00	-2	cyhmjs1yfzs5sfg@marketplace.amazon.com	Mike Simon	+1 602-671-6610 ext. 74493	ABR0022	Delivery by Wednesday | Arabella Farm Direct Bouquet of 12 Fresh Cut Pink Roses with a Free Glass Vase	1	0	1	Expedited	Sarah Simon	2 E ERIE ST APT 3002			CHICAGO	IL	60611-3192	US		Congratulations and blessings to Steve, Sarah, Isla, and Maeve! Can't wait to meet her.  Love, Mike & Kathy From Mike Simon	false		
113-9221050-2600248	20055468942802	2020-10-04T19:10:50+00:00	2020-10-04T12:10:50-07:00	2020-10-04T19:38:42+00:00	2020-10-07T06:59:59+00:00	-2	hy9dnsgsw3l8mwk@marketplace.amazon.com	Amanda Leibovitz	+1 929-436-4790 ext. 72342	ABR0022	Delivery by Wednesday | Arabella Farm Direct Bouquet of 12 Fresh Cut Pink Roses with a Free Glass Vase	1	0	1	Expedited	Marge Sawyer c/o Nan's House	16503 PILGRIMS CIR			SPRING	TX	77379-7250	US		Dearest Marge, We all love you very much and pray the next part of your journey is filled with peace. You deserve the best. Love, Mary Lynn, Ann, Elizabeth & Kate From E Leibovitz	false		
111-8537507-8479402	24027593887210	2020-10-04T19:37:04+00:00	2020-10-04T12:37:04-07:00	2020-10-04T19:40:18+00:00	2020-10-07T06:59:59+00:00	-2	ffp6vfts3vtz7v4@marketplace.amazon.com	Terry Wilkie	+1 415-851-9136 ext. 54744	ABR015	Delivery by Wednesday | Arabella Farm Direct Bouquet of 18 Fresh Cut Orange Roses with a Free Glass Vase	1	0	1	Expedited	Mark and Katherine Weidmann	12565 SWAN CANYON PL			SAN DIEGO	CA	92131-3545	US		Dearest Kate, Mark, Mae, and Matt.  Wishing you beautiful days ahead, and a lifetime of wonderful memories.  With all of our Love, Lizzy & Terry From Lizzy & Terry	false		
111-8537507-8479402	57958618370946	2020-10-04T19:37:04+00:00	2020-10-04T12:37:04-07:00	2020-10-04T19:40:18+00:00	2020-10-07T06:59:59+00:00	-2	ffp6vfts3vtz7v4@marketplace.amazon.com	Terry Wilkie	+1 415-851-9136 ext. 54744	ABR0022	Delivery by Wednesday | Arabella Farm Direct Bouquet of 12 Fresh Cut Pink Roses with a Free Glass Vase	1	0	1	Expedited	Mark and Katherine Weidmann	12565 SWAN CANYON PL			SAN DIEGO	CA	92131-3545	US		Dearest Kate, Mark, Mae, and Matt.  Wishing you beautiful days ahead, and a lifetime of wonderful memories.  With all of our Love, Lizzy & Terry From Lizzy & Terry	false		
111-8537507-8479402	22461620310330	2020-10-04T19:37:04+00:00	2020-10-04T12:37:04-07:00	2020-10-04T19:40:18+00:00	2020-10-07T06:59:59+00:00	-2	ffp6vfts3vtz7v4@marketplace.amazon.com	Terry Wilkie	+1 415-851-9136 ext. 54744	ABR0055	Delivery by Wednesday | Arabella Farm Direct Bouquet of 12 Stems of Fresh Cut Hot Pink Roses in a Free Designer Glass Vase	1	0	1	Expedited	Mark and Katherine Weidmann	12565 SWAN CANYON PL			SAN DIEGO	CA	92131-3545	US		Dearest Kate, Mark, Mae, and Matt.  Wishing you beautiful days ahead, and a lifetime of wonderful memories.  With all of our Love, Lizzy & Terry From Lizzy & Terry	false		
112-7225437-1772254	31483917165218	2020-10-04T19:26:14+00:00	2020-10-04T12:26:14-07:00	2020-10-04T19:53:03+00:00	2020-10-07T06:59:59+00:00	-2	9ymf54pb06s67lm@marketplace.amazon.com	arthur aguero	+1 480-618-5344 ext. 74982	ABR0022	Delivery by Wednesday | Arabella Farm Direct Bouquet of 12 Fresh Cut Pink Roses with a Free Glass Vase	1	0	1	Expedited	Rosalee Lynn	216 MYRTLEWOOD DR			CALIMESA	CA	92320-1721	US			false		
112-2734773-4134619	16248587529786	2020-10-04T19:43:17+00:00	2020-10-04T12:43:17-07:00	2020-10-04T20:08:49+00:00	2020-10-07T06:59:59+00:00	-2	5l6nl6w1qv0n3md@marketplace.amazon.com	Cindy Christiansen	+1 602-671-6610 ext. 23559	ABR004	Delivery by Wednesday | Arabella Farm Direct Bouquet of 12 Fresh Cut Yellow Roses with a Free Glass Vase	1	0	1	Expedited	Mandy Scaff	79 TRAFFORD ST			QUINCY	MA	02169-7623	US		Happy Birthday Mandy!  I hope you have a healthy and joyful year until your next one!  Much Love, Cindy From Cindy Christiansen	false		
113-5035393-2329044	66785858344138	2020-10-04T20:18:18+00:00	2020-10-04T13:18:18-07:00	2020-10-04T20:45:05+00:00	2020-10-07T06:59:59+00:00	-2	tz1rykc6y4ffhc1@marketplace.amazon.com	Adrienne Townsend	+1 929-436-4790 ext. 49606	ABR001	Delivery by Wednesday | Arabella Bouquets 12 Stems of Fresh Cut Red Roses in a Free Designer Glass Vase	1	0	1	Expedited	Christina Hunter	8430 W CAMPUS CIRCLE DR			BERRIEN SPRINGS	MI	49103-8516	US		Dear Christina and family, We send our deepest condolences, prayers and love! We love you and pray that God will hold you all close with His peace! From Theron and Adrienne Benton	false		
113-7744916-6637844	18275489272410	2020-10-04T21:08:04+00:00	2020-10-04T14:08:04-07:00	2020-10-04T21:38:44+00:00	2020-10-07T06:59:59+00:00	-2	7wbcyhztf9v9prf@marketplace.amazon.com	jorge arche prats	+1 480-618-5344 ext. 39309	ABR001	Delivery by Wednesday | Arabella Bouquets 12 Stems of Fresh Cut Red Roses in a Free Designer Glass Vase	1	0	1	Expedited	Amelia	13030 SW 280TH ST	HOMESTEAD FL 1330		HOMESTEAD	FL	33032-8572	US			false		
113-4749803-3405839	11423850673530	2020-10-04T21:09:22+00:00	2020-10-04T14:09:22-07:00	2020-10-04T21:40:08+00:00	2020-10-07T06:59:59+00:00	-2	7wbcyhztf9v9prf@marketplace.amazon.com	jorge arche prats	+1 480-618-5344 ext. 30298	ABR001	Delivery by Wednesday | Arabella Bouquets 12 Stems of Fresh Cut Red Roses in a Free Designer Glass Vase	1	0	1	Expedited	Amelia	13030 SW 280TH ST	HOMESTEAD FL 1330		HOMESTEAD	FL	33032-8572	US			false		
111-5685895-6525062	23018818974194	2020-10-04T21:26:05+00:00	2020-10-04T14:26:05-07:00	2020-10-04T21:54:07+00:00	2020-10-07T06:59:59+00:00	-2	82h93r3f5p8dzbd@marketplace.amazon.com	Catherine Macan	+1 929-436-4790 ext. 59068	ABR0022	Delivery by Wednesday | Arabella Farm Direct Bouquet of 12 Fresh Cut Pink Roses with a Free Glass Vase	1	0	1	Expedited	Lydia Forrestal	4945 PINTO ST			RIVERSIDE	CA	92509-5606	US			false		
111-0394311-4213023	08339063446434	2020-10-04T21:28:57+00:00	2020-10-04T14:28:57-07:00	2020-10-04T21:58:26+00:00	2020-10-07T06:59:59+00:00	-2	x8y4lsbkl8ffz9f@marketplace.amazon.com	Karen Felix	+1 480-618-5344 ext. 37122	ABR004	Delivery by Wednesday | Arabella Farm Direct Bouquet of 12 Fresh Cut Yellow Roses with a Free Glass Vase	1	0	1	Expedited	Margaret McGrady	361 NEILSON CT			SAN JOSE	CA	95111-3852	US		Happy Birthday Mom! We love you! Karen and Paul From Karen Felix	false		
114-0243628-4103427	44208404277970	2020-10-04T21:47:26+00:00	2020-10-04T14:47:26-07:00	2020-10-04T22:15:02+00:00	2020-10-07T06:59:59+00:00	-2	wpbjfl8cyj960cy@marketplace.amazon.com	Bahar khojasteh	+1 480-618-5344 ext. 46605	ABM022	Delivery by Wednesday | Purple Extravagance Bouquet by Arabella Bouquets	1	0	1	Standard	Sharareh Khashe	8120 POWER INN RD APT 706			SACRAMENTO	CA	95828-6729	US		Dear Sharareh Happy Birthday From Bahar	false		
113-5182775-0479437	18499706304114	2020-10-04T22:03:49+00:00	2020-10-04T15:03:49-07:00	2020-10-04T22:33:45+00:00	2020-10-07T06:59:59+00:00	-2	xq8mmg16btnxjzm@marketplace.amazon.com	Ricky Pease	+1 480-618-5344 ext. 03749	ABR001	Delivery by Wednesday | Arabella Bouquets 12 Stems of Fresh Cut Red Roses in a Free Designer Glass Vase	1	0	1	Expedited	Shannon Pease	112 TICES SPRING CT			DICKSON	TN	37055-2640	US			false		
114-4600096-8729819	29574351639986	2020-10-04T22:21:03+00:00	2020-10-04T15:21:03-07:00	2020-10-04T22:51:26+00:00	2020-10-07T06:59:59+00:00	-2	x2gg3mqr7f8nc8l@marketplace.amazon.com	Phillip	+1 480-618-5344 ext. 20914	ABM0033	Arabella Farm Direct Bouquet of Fresh Cut White Hydrangea with a Free Glass Vase	1	0	1	Expedited	Phillip Curl	267 SIEBERT ST			COLUMBUS	OH	43206-2718	US			false		
113-0416288-5114649	17872910124026	2020-10-04T22:32:33+00:00	2020-10-04T15:32:33-07:00	2020-10-04T23:01:59+00:00	2020-10-07T06:59:59+00:00	-2	dqr4f2qpkn83nzp@marketplace.amazon.com	Scott T Murray	+1 929-436-4790 ext. 68854	ABR0022	Delivery by Wednesday | Arabella Farm Direct Bouquet of 12 Fresh Cut Pink Roses with a Free Glass Vase	1	0	1	Expedited	Scott T Murray	127 COURT ST			CHARDON	OH	44024-1209	US		Happy Anniversary my dear! I love you more and more everyday! From Burt	false		
111-6159491-3431453	51811970632610	2020-10-04T22:57:26+00:00	2020-10-04T15:57:26-07:00	2020-10-04T23:24:55+00:00	2020-10-07T06:59:59+00:00	-2	dvryy6l8v88bs4l@marketplace.amazon.com	Petra Bianchi	+1 602-671-6610 ext. 60709	ABR0022	Delivery by Wednesday | Arabella Farm Direct Bouquet of 12 Fresh Cut Pink Roses with a Free Glass Vase	1	0	1	Expedited	Melissa Hartiman	3 HEATHER WAY			LARKSPUR	CA	94939-1519	US		Happy Birthday Sweetie!!! I love you bunches! Xoxo From Petra :))	false		
114-4866530-0309011	49882116920178	2020-10-04T23:12:33+00:00	2020-10-04T16:12:33-07:00	2020-10-04T23:26:08+00:00	2020-10-07T06:59:59+00:00	-2	f9yk74bcvbyktmc@marketplace.amazon.com	mark balmuth	+1 480-618-5344 ext. 06721	ABM020	Delivery by Wednesday | The Sunset Bouquet by Arabella Bouquets	1	0	1	Expedited	Rebekka Rosen	160 LAKE RIDGE RD			SOUTHBURY	CT	06488-4161	US		Rebekka Happy Birthday to a 23 year old who has gone from adolescence too becoming  a responsible young  woman who has continuously made her family proud and never disappoints, love Mark From mark balmuth	false		
114-0023466-3536251	35183799115626	2020-10-04T23:15:42+00:00	2020-10-04T16:15:42-07:00	2020-10-04T23:31:08+00:00	2020-10-07T06:59:59+00:00	-2	m06bhcs9t4gsq5v@marketplace.amazon.com	Linda L. Regner	+1 480-618-5344 ext. 68232	ABR0022	Delivery by Wednesday | Arabella Farm Direct Bouquet of 12 Fresh Cut Pink Roses with a Free Glass Vase	1	0	1	Expedited	Maria. Regner.  (Winmar sleep center)	2700 12TH AVE S STE B			FARGO	ND	58103-8723	US		Congratulations!  We know you worked hard and will be successful! Love you! From Linda  and Tom Regner	false		
111-1269887-4794636	54025470727898	2020-10-04T23:24:22+00:00	2020-10-04T16:24:22-07:00	2020-10-04T23:50:33+00:00	2020-10-07T06:59:59+00:00	-2	1kq2ld0f3m8x1gr@marketplace.amazon.com	Chris Piazza	+1 480-618-5344 ext. 92311	ABM002	Delivery by Wednesday | Arabella Bouquets Fresh Cut White Calla Lilies in a Free Designer Glass Vase	1	0	1	Expedited	Rebecca & Patrick Sierawski	22749 CALIFORNIA ST			SAINT CLAIR SHORES	MI	48080-3826	US		Happy Anniversary!  Love, Mom & Dad From Chris Piazza	false		
113-1665253-7307401	00699072950130	2020-10-04T23:26:43+00:00	2020-10-04T16:26:43-07:00	2020-10-04T23:55:49+00:00	2020-10-07T06:59:59+00:00	-2	qq6448kw068gnv5@marketplace.amazon.com	Louann Adair	+1 929-436-4790 ext. 67539	ABM026	Delivery by Wednesday | The Amour Bouquet by Arabella Bouquets	1	0	1	Expedited	Elaine Jones	2 Edgewood Dr			Pontiac	IL	61764	US		Happy Birthday Mom From Louann	false		
114-2616558-6723419	59959373011002	2020-10-04T23:38:54+00:00	2020-10-04T16:38:54-07:00	2020-10-05T00:08:33+00:00	2020-10-07T06:59:59+00:00	-2	2s31hzl0rcf34pw@marketplace.amazon.com	Clay Skougard	94946340845	ABSR005	Arabella Bouquets Fresh Cut Orange Spray Roses in a Free Designer Glass Vase	1	0	1	Expedited	Susan Skougard	307 PLYMOUTH DR			CHARLOTTE	MI	48813-2151	US			false		
113-2034505-6885062	38144679479722	2020-10-04T23:51:50+00:00	2020-10-04T16:51:50-07:00	2020-10-05T00:20:54+00:00	2020-10-07T06:59:59+00:00	-2	5pg4tcw4pgz1r6k@marketplace.amazon.com	melissa leamer	+1 602-671-6610 ext. 61837	ABM010	The Spring Fling Bouquet by Arabella Bouquets with a Free Designer Glass Vase	1	0	1	Expedited	Carolyn Thompson	15295 W SAN JOAQUIN AVE			KERMAN	CA	93630-1008	US		Hope you have a great day!  Glad you are still Alive! Jesus loves you and we do as well!  The leamers .Happy harvest!!! Enjoy your gift! From melissa leamer	false		
111-9040826-6441002	39284158019786	2020-10-05T00:04:38+00:00	2020-10-04T17:04:38-07:00	2020-10-05T00:30:43+00:00	2020-10-07T06:59:59+00:00	-2	vdvlp9b8zzq4hpj@marketplace.amazon.com	Brad Epps	+1 929-436-4790 ext. 85788	ABR0022	Delivery by Wednesday | Arabella Farm Direct Bouquet of 12 Fresh Cut Pink Roses with a Free Glass Vase	1	0	1	Expedited	Betty Epps	907 7TH AVE SW			CONOVER	NC	28613-2827	US		I hope these roses help brighten up the house. Love, Bradley From Brad Epps	false		
112-2479322-6323417	10252199623970	2020-10-05T00:28:33+00:00	2020-10-04T17:28:33-07:00	2020-10-05T00:58:33+00:00	2020-10-07T06:59:59+00:00	-2	58p43psmgs8jg3y@marketplace.amazon.com	Lauren Mott	+1 480-618-5344 ext. 67611	ABR0022	Delivery by Wednesday | Arabella Farm Direct Bouquet of 12 Fresh Cut Pink Roses with a Free Glass Vase	1	0	1	Expedited	Sharon Wentz	3278 E VIA MONTIANO AVE			CLOVIS	CA	93619-8383	US		Wishing you a quick recovery!  Garrett, Lauren, Wyatt, and James From Lauren Mott	false		
112-4703036-1683438	38979742427058	2020-10-05T00:35:08+00:00	2020-10-04T17:35:08-07:00	2020-10-05T01:03:44+00:00	2020-10-07T06:59:59+00:00	-2	4nh23k9xbbqmf2c@marketplace.amazon.com	lisakrogers	+1 480-618-5344 ext. 58777	ABM022	Delivery by Wednesday | Purple Extravagance Bouquet by Arabella Bouquets	1	0	1	Expedited	Lori Sciacqua	736 TWIN OAKS AVE			CHULA VISTA	CA	91910-5925	US			false		
114-5176727-8733001	35241019314426	2020-10-05T00:38:15+00:00	2020-10-04T17:38:15-07:00	2020-10-05T01:06:01+00:00	2020-10-07T06:59:59+00:00	-2	zwtc5xqp5wtp05l@marketplace.amazon.com	Travis Wiliams	+1 602-671-6610 ext. 44150	ABM010	The Spring Fling Bouquet by Arabella Bouquets with a Free Designer Glass Vase	1	0	1	Expedited	Dennis Diamonon	7102 KILCONNELL DR			ELK GROVE	CA	95758-4486	US		Dennis,  We are so sorry for the loss of your dad.  We are thinking about you and are here for you! From The Williams Boys	false		
114-5144917-9938648	42615980387706	2020-10-05T01:04:30+00:00	2020-10-04T18:04:30-07:00	2020-10-05T01:33:37+00:00	2020-10-07T06:59:59+00:00	-2	0z4x9cpkr4wrtwx@marketplace.amazon.com	Lee Hyre	+1 602-671-6610 ext. 89717	ABM022	Delivery by Wednesday | Purple Extravagance Bouquet by Arabella Bouquets	1	0	1	Expedited	Joan Eichman	8835 YORKSHIRE CT			JACKSONVILLE	FL	32257-5249	US		Happy Birthday! From Anna Eichman	false		
114-5246448-9907454	08743693318026	2020-10-05T01:12:36+00:00	2020-10-04T18:12:36-07:00	2020-10-05T01:40:59+00:00	2020-10-07T06:59:59+00:00	-2	6q9qmwm5jf414mj@marketplace.amazon.com	Carole Adams	+1 929-436-4790 ext. 29464	ABR0022	Delivery by Wednesday | Arabella Farm Direct Bouquet of 12 Fresh Cut Pink Roses with a Free Glass Vase	1	0	1	Expedited	Mike and Sharon Hope	3357 N SAN JOAQUIN RD			COVINA	CA	91724-3465	US		Sharon...so glad you are in the mend!  Keep up the good work!  You are loved by many. From Phil and Taffy	false		
114-4855987-1681041	64144261185218	2020-10-05T01:24:20+00:00	2020-10-04T18:24:20-07:00	2020-10-05T01:54:54+00:00	2020-10-07T06:59:59+00:00	-2	vm5htcjlrv3b4t5@marketplace.amazon.com	Rosanna Pittella	+1 602-671-6610 ext. 81256	ABM010	The Spring Fling Bouquet by Arabella Bouquets with a Free Designer Glass Vase	1	0	1	Expedited	Rita Brown	1441 MONTEREY RD APT 61F			SEAL BEACH	CA	90740-5254	US		Enjoy your gift! Hopes this makes you smile, and brightens up the place! Love, All of Us From Rosanna Pittella	false		
112-6452852-0437062	18369229419818	2020-10-05T01:35:04+00:00	2020-10-04T18:35:04-07:00	2020-10-05T02:10:43+00:00	2020-10-07T06:59:59+00:00	-2	vx8mrdff6v97nhg@marketplace.amazon.com	Debora Fernández	+1 929-436-4790 ext. 69934	ABM022	Delivery by Wednesday | Purple Extravagance Bouquet by Arabella Bouquets	1	0	1	Expedited	Rose Stone	555 CLUB HOUSE DR			DUNN	NC	28334-8859	US		Muchas felicidades en su cumpleaños y bendiciones del Señor. Con mucho cariño y un gran abrazo. From Sonia Paz	false		
112-9802972-6985841	04363172429538	2020-10-05T02:40:29+00:00	2020-10-04T19:40:29-07:00	2020-10-05T02:41:17+00:00	2020-10-07T06:59:59+00:00	-2	16sj03qjtkgtw8p@marketplace.amazon.com	Emil Alexander Swenson	+1 480-618-5344 ext. 98501	ABR0055	Delivery by Wednesday | Arabella Farm Direct Bouquet of 12 Stems of Fresh Cut Hot Pink Roses in a Free Designer Glass Vase	1	0	1	Expedited	SCOTT & ELENA SWENSON	204 W TARRINGTON DR			DELAND	FL	32724-7705	US		Желаю вам счастливого 20-летия свадьбы! Желаю счастья, здоровья, успехов и воплощения в жизнь & все ваши цели и мечты! From С любовью, Лидия	false		
112-9802972-6985841	38835621854362	2020-10-05T02:40:29+00:00	2020-10-04T19:40:29-07:00	2020-10-05T02:41:17+00:00	2020-10-07T06:59:59+00:00	-2	16sj03qjtkgtw8p@marketplace.amazon.com	Emil Alexander Swenson	+1 480-618-5344 ext. 98501	ABR0022	Delivery by Wednesday | Arabella Farm Direct Bouquet of 12 Fresh Cut Pink Roses with a Free Glass Vase	1	0	1	Expedited	SCOTT & ELENA SWENSON	204 W TARRINGTON DR			DELAND	FL	32724-7705	US		Mom and dad, you have been my pillars in life. Today, let’s raise a toast to the day your hearts came together! Happy 20th Anniversary to the parents that inspire us every day. From With love, Emil	false		
111-3400230-8485864	54053180024274	2020-10-05T02:22:44+00:00	2020-10-04T19:22:44-07:00	2020-10-05T02:47:42+00:00	2020-10-07T06:59:59+00:00	-2	hdkwjbgqtzdjbbb@marketplace.amazon.com	Rodolfo Theissen	+1 480-618-5344 ext. 27328	ABB006	Arabella Bouquets | Farm Direct 48 Fresh Cut Red Roses	1	0	1	Expedited	Carmen Engel	9 JUNIPER RD APT B			PORT WASHINGTON	NY	11050-1434	US		Para una mujer hermosa, atenta y cariñosa que nos ha ensenado los mejores valores y principios. Feliz cumpleaños! Te amamos abuelita De Tus Hijos y tu nieto Luka :)	false		
113-8152313-9410665	59146101442570	2020-10-05T02:40:49+00:00	2020-10-04T19:40:49-07:00	2020-10-05T03:07:25+00:00	2020-10-07T06:59:59+00:00	-2	nccyjz8ynh1ygpq@marketplace.amazon.com	Barbie	+1 602-671-6610 ext. 42521	ABR0022	Delivery by Wednesday | Arabella Farm Direct Bouquet of 12 Fresh Cut Pink Roses with a Free Glass Vase	1	0	1	Expedited	Rosie Ruetten	43922 COUNTY RD S			GAYS MILLS	WI	54631-6241	US		Hope you have a wonderful birthday.  I love you! From Barbie	false		
114-8827116-0553821	20075315511522	2020-10-05T02:40:34+00:00	2020-10-04T19:40:34-07:00	2020-10-05T03:09:45+00:00	2020-10-07T06:59:59+00:00	-2	j6c8nzdyc6b0xvf@marketplace.amazon.com	Taylor Hinson	+1 415-851-9136 ext. 62520	ABM010	The Spring Fling Bouquet by Arabella Bouquets with a Free Designer Glass Vase	1	0	1	Expedited	Donna Hewitt	2931 E RAAB RD			NORMAL	IL	61761-9541	US		Happy Birthday Grandma! From Love, Taylor	false		
112-2933339-0025837	12633268644458	2020-10-05T03:07:34+00:00	2020-10-04T20:07:34-07:00	2020-10-05T03:17:34+00:00	2020-10-07T06:59:59+00:00	-2	dmhzlxs5kkt029m@marketplace.amazon.com	Matthew Borja	+1 929-436-4790 ext. 24907	ABR0022	Delivery by Wednesday | Arabella Farm Direct Bouquet of 12 Fresh Cut Pink Roses with a Free Glass Vase	1	0	1	Expedited	PAMELA & GIRLS	26528 THUNDER RD APT 1			FORT RILEY	KS	66442-3512	US		Congratulations on the birth of your sweet baby girl, Mila! All of you deserve every bit of happiness and joy she will bring to you. Enjoy making new memories together! From The Borja Family	false		
113-5419997-9697017	43291780601338	2020-10-05T02:57:55+00:00	2020-10-04T19:57:55-07:00	2020-10-05T03:21:42+00:00	2020-10-07T06:59:59+00:00	-2	df8yt79r0lcfjq8@marketplace.amazon.com	Emily	+1 602-671-6610 ext. 15934	ABR0022	Delivery by Wednesday | Arabella Farm Direct Bouquet of 12 Fresh Cut Pink Roses with a Free Glass Vase	1	0	1	Expedited	Mary Wong	10625 SW LANCASTER RD			PORTLAND	OR	97219-6403	US		Happy, happy birthday Mary. I am so happy to be your Visiting Angel. I hope you have a wonderful birthday and many more ahead. From Emily Guillermo	false		
113-9036620-4219437	25612836149906	2020-10-05T02:56:27+00:00	2020-10-04T19:56:27-07:00	2020-10-05T03:26:16+00:00	2020-10-07T06:59:59+00:00	-2	8pnkdmc7zn8cwcz@marketplace.amazon.com	James P Finnerty	+1 602-671-6610 ext. 43577	ABR001	Delivery by Wednesday | Arabella Bouquets 12 Stems of Fresh Cut Red Roses in a Free Designer Glass Vase	1	0	1	Expedited	Michelle A Shirley	8984 W WIND DR			ZEELAND	MI	49464-1940	US		Got a roses for you, sweetie From James P Finnerty	false		
112-8553542-3846656	40625052705954	2020-10-05T03:19:49+00:00	2020-10-04T20:19:49-07:00	2020-10-05T03:42:13+00:00	2020-10-07T06:59:59+00:00	-2	p5p79x98qbw6xmm@marketplace.amazon.com	Peter Truxillo	+1 480-618-5344 ext. 16074	ABR0022	Delivery by Wednesday | Arabella Farm Direct Bouquet of 12 Fresh Cut Pink Roses with a Free Glass Vase	1	0	1	Expedited	Karla M. Campbell	871 HORSESHOE RD			WINNFIELD	LA	71483-6029	US			false		
111-8138226-2321828	39023226854474	2020-10-05T03:29:45+00:00	2020-10-04T20:29:45-07:00	2020-10-05T03:52:13+00:00	2020-10-07T06:59:59+00:00	-2	w9blzp89k66b2wy@marketplace.amazon.com	Margaret Jefferson	+1 415-851-9136 ext. 79912	ABM022	Delivery by Wednesday | Purple Extravagance Bouquet by Arabella Bouquets	1	0	1	Expedited	Danita Ruffin	11639 S ST ANDREWS PL			LOS ANGELES	CA	90047-5047	US		This gift is a token of my deepest appreciation for allowing Exavier to come spend the afternoon with my family and I. I appreciate you so much. Thank you again. From Hannah Jefferson	false		
113-9513387-1430605	06017265125114	2020-10-05T04:17:51+00:00	2020-10-04T21:17:51-07:00	2020-10-05T04:46:45+00:00	2020-10-07T06:59:59+00:00	-2	pfvlfhhkgqklhvy@marketplace.amazon.com	Jennifer Bennett	+1 929-436-4790 ext. 66071	ABM006	Arabella Bouquets Fresh Cut Yellow Lillies in a Free Designer Glass Vase	1	0	1	Expedited	Rosanne Bennett	1223 ESTUARY DR			INDIANAPOLIS	IN	46217-5266	US		Happy Birthday, sorry we can’t celebrate in person ! We love you From Jennifer, Tyree & Deandre From Jennifer, Tyree & Deandre	false		
112-3456615-4083427	15355302502202	2020-10-05T04:34:58+00:00	2020-10-04T21:34:58-07:00	2020-10-05T05:03:19+00:00	2020-10-07T06:59:59+00:00	-2	rpgnl7927cjttzn@marketplace.amazon.com	Vera	+1 415-851-9136 ext. 45326	ABR0022	Delivery by Wednesday | Arabella Farm Direct Bouquet of 12 Fresh Cut Pink Roses with a Free Glass Vase	1	0	1	Expedited	Raj Gill	2729 N IRVINE CT			CORNELIUS	OR	97113-7470	US		Wishing you a speedy recovery! Miss you 💕 From Vera	false		
111-2847782-5241804	34206592916050	2020-10-05T04:56:24+00:00	2020-10-04T21:56:24-07:00	2020-10-05T05:21:30+00:00	2020-10-07T06:59:59+00:00	-2	9gzv96sjvsx28tn@marketplace.amazon.com	Jim	1+813-789-7055	ABR0066	Delivery by Wednesday | Arabella Bouquets 12 Stems of Fresh Cut White Roses in a Free Designer Glass Vase	1	0	1	Expedited	Marian Winters	719 SEDDON COVE WAY			TAMPA	FL	33602-5702	US			false		
114-0463353-3865843	61384805192706	2020-10-05T05:59:47+00:00	2020-10-04T22:59:47-07:00	2020-10-05T06:28:09+00:00	2020-10-07T06:59:59+00:00	-2	h5v5gq7lgy51s2s@marketplace.amazon.com	Cheri Gillespie	+1 929-436-4790 ext. 87176	ABR0022	Delivery by Wednesday | Arabella Farm Direct Bouquet of 12 Fresh Cut Pink Roses with a Free Glass Vase	1	0	1	Expedited	Jane Rolen	2015 WICKLOW WOODS DR			YREKA	CA	96097-9579	US		We love you sooooo much! You are in our hearts and prayers! May Jehovah give you peace From Cheri Gillespie	false		
