order-id	order-item-id	purchase-date	payments-date	reporting-date	promise-date	days-past-promise	buyer-email	buyer-name	buyer-phone-number	sku	product-name	quantity-purchased	quantity-shipped	quantity-to-ship	ship-service-level	recipient-name	ship-address-1	ship-address-2	ship-address-3	ship-city	ship-state	ship-postal-code	ship-country	gift-wrap-type	gift-message-text	is-business-order	purchase-order-number	price-designation
114-7165417-4789822	09362768112122	2020-10-05T17:14:05+00:00	2020-10-05T10:14:05-07:00	2020-10-05T17:51:46+00:00	2020-10-08T06:59:59+00:00	-3	mlkb2cw4n9tc92r@marketplace.amazon.com	Dawn Henn	+1 929-436-4790 ext. 97189	ABM022	Delivery by Wednesday | Purple Extravagance Bouquet by Arabella Bouquets	1	0	1	Expedited	Jeanie Parish	14602 E SUNSET SHORES CIR			HARRISON	ID	83833-8804	US		Happy Birthday! From Your grandchildren	false		
113-4100343-8868242	44802880970954	2020-10-05T17:54:51+00:00	2020-10-05T10:54:51-07:00	2020-10-05T18:20:55+00:00	2020-10-08T06:59:59+00:00	-3	2j0w8qbfskyqjmb@marketplace.amazon.com	Nathan Latimer	+1 602-671-6610 ext. 00742	ABM010	The Spring Fling Bouquet by Arabella Bouquets with a Free Designer Glass Vase	1	0	1	Expedited	Steven Gass	92 GIBSON RD			ORLEANS	MA	02653-2502	US		Congratulations on beginning your dental implant experience. We appreciate you as our patient. Dr. Olmstead & Dr. Latimer From Nathan Latimer	false		
112-8398265-4655463	04974422511978	2020-10-05T18:04:43+00:00	2020-10-05T11:04:43-07:00	2020-10-05T18:33:03+00:00	2020-10-08T06:59:59+00:00	-3	sc22ddpc5t67p0t@marketplace.amazon.com	Robert D. Goudie	+1 602-671-6610 ext. 13486	ABR001	Arabella Bouquets 12 Stems of Fresh Cut Red Roses in a Free Designer Glass Vase	1	0	1	Expedited	Leah Goudie	22822 SE 266TH ST			MAPLE VALLEY	WA	98038-5828	US		Happy Birthday! Love Bob & Claire From Robert D. Goudie	false		
114-1355265-1850662	08440082825930	2020-10-05T18:11:22+00:00	2020-10-05T11:11:22-07:00	2020-10-05T18:41:21+00:00	2020-10-08T06:59:59+00:00	-3	bb241d7hh0x0dnj@marketplace.amazon.com	Abby Suskin	+1 480-618-5344 ext. 56952	ABM0033	Delivery by Thursday | Arabella Farm Direct Bouquet of Fresh Cut White Hydrangea with a Free Glass Vase	1	0	1	Expedited	Nwando Emejulu	2205 3RD AVE APT 8G			NEW YORK	NY	10035-3050	US		You are almost halfway there, boo! Thinking of you and sending you some sunshine. You deserve all the best! From Abby Suskin	false		
114-6831971-1274628	59520826550914	2020-10-05T18:17:44+00:00	2020-10-05T11:17:44-07:00	2020-10-05T18:48:05+00:00	2020-10-08T06:59:59+00:00	-3	8wkddtvjx5149cc@marketplace.amazon.com	Shrivar Singh	+1 480-618-5344 ext. 44074	ABM026	Delivery by Thursday | The Amour Bouquet by Arabella Bouquets	1	0	1	Expedited	Demi Naidoo	30 SEAFIRTH PL			TIBURON	CA	94920-1123	US			false		
113-0749394-1459412	36565139113250	2020-10-05T18:22:14+00:00	2020-10-05T11:22:14-07:00	2020-10-05T18:51:43+00:00	2020-10-08T06:59:59+00:00	-3	0x8s0dxdvbdkgk2@marketplace.amazon.com	Patrick D Phillips	+1 415-851-9136 ext. 18170	ABM022	Delivery by Thursday | Purple Extravagance Bouquet by Arabella Bouquets	1	0	1	Expedited	Rusty Phillips	106 GREENWAY DR			SEQUIM	WA	98382-9311	US		Happy Birthday Rusty We love you Patrick and Elena From Patrick D Phillips	false		
113-0347879-7871462	27406019809458	2020-10-05T18:51:17+00:00	2020-10-05T11:51:17-07:00	2020-10-05T19:19:56+00:00	2020-10-08T06:59:59+00:00	-3	sfcdr7br4y92nyp@marketplace.amazon.com	Nadine Khatib	+1 602-671-6610 ext. 09249	ABR0066	Delivery by Thursday | Arabella Bouquets 12 Stems of Fresh Cut White Roses in a Free Designer Glass Vase	1	0	1	Expedited	Amina Zeghar	1434 ARDEE AVE			NASHVILLE	TN	37216-2804	US			false		
112-1128898-0494627	44611470837954	2020-10-05T19:05:51+00:00	2020-10-05T12:05:51-07:00	2020-10-05T19:31:41+00:00	2020-10-07T06:59:59+00:00	-2	bmf5jhhsh7746m9@marketplace.amazon.com	Melanie Wernick	+1 602-671-6610 ext. 55447	ABR0022	Delivery by Thursday | Arabella Farm Direct Bouquet of 12 Fresh Cut Pink Roses with a Free Glass Vase	1	0	1	SecondDay	cindy joyce	389 Beacon Street #9			Boston	Massachusetts	02108	US		Sweet Pea Cindy, I think Steve was definitely laughing when he saw you from heaven, trip and break your finger. Only you! Good luck on your surgery. Steve will be your Guardian Angle. Love you. Melanie From Melanie Wernick	false		
111-5391769-2141810	53462862788066	2020-10-05T19:06:27+00:00	2020-10-05T12:06:27-07:00	2020-10-05T19:35:31+00:00	2020-10-07T06:59:59+00:00	-2	bc4t67tsg9q644q@marketplace.amazon.com	Artie C. Bautista	+1 929-436-4790 ext. 28286	ABR0055	Delivery by Thursday | Arabella Farm Direct Bouquet of 12 Stems of Fresh Cut Hot Pink Roses in a Free Designer Glass Vase	1	0	1	SecondDay	Ariel & Teresa Bautista	10311 JIMENEZ ST			LAKE VIEW TERRACE	CA	91342-6927	US		Happy Birthday Dear Momsie, We love you and miss you. Izzy and KC. From Artie C. Bautista	false		
112-6851268-4337848	18527638016882	2020-10-05T19:31:48+00:00	2020-10-05T12:31:48-07:00	2020-10-05T19:57:05+00:00	2020-10-07T06:59:59+00:00	-2	trwh96bdtyn6vyn@marketplace.amazon.com	Susan McPherson	+1 480-618-5344 ext. 48859	ABR0022	Delivery by Thursday | Arabella Farm Direct Bouquet of 12 Fresh Cut Pink Roses with a Free Glass Vase	1	0	1	SecondDay	Joan West	9205 WESCOTT PL UNIT A			ROCKVILLE	MD	20850-3635	US		Joan, Thinking of you! From Mary McGowan	false		
114-0122998-3423401	05366438033058	2020-10-05T19:39:25+00:00	2020-10-05T12:39:25-07:00	2020-10-05T20:07:38+00:00	2020-10-07T06:59:59+00:00	-2	vg1d5xqfkgx89d5@marketplace.amazon.com	David Dezwaan Jr.	+1 415-851-9136 ext. 36953	ABR0022	Delivery by Thursday | Arabella Farm Direct Bouquet of 12 Fresh Cut Pink Roses with a Free Glass Vase	1	0	1	SecondDay	Martha Dezwaan	5418 120TH AVE			HOLLAND	MI	49424-8606	US		Enjoy your gift! Love you mom! From David Dezwaan Jr.	false		
112-6197936-2979449	41914348157850	2020-10-05T19:46:06+00:00	2020-10-05T12:46:06-07:00	2020-10-05T20:13:14+00:00	2020-10-07T06:59:59+00:00	-2	vtby26b83r3sqml@marketplace.amazon.com	mary davis	+1 480-618-5344 ext. 60049	ABR0022	Delivery by Thursday | Arabella Farm Direct Bouquet of 12 Fresh Cut Pink Roses with a Free Glass Vase	1	0	1	SecondDay	Grandma Toni Davis	5610 Rosano Way			Anacortes	Washington	98221	US		Happy Birthday Grandma Toni ! Hope you are feeling well . From Love , Kelcy , Thomas , Cole & Shay From Love , Kelcy , Thomas , Cole & Shay	false		
112-3694921-5110600	26453799486690	2020-10-05T19:54:32+00:00	2020-10-05T12:54:32-07:00	2020-10-05T20:21:58+00:00	2020-10-07T06:59:59+00:00	-2	4lq6w2bprmdll05@marketplace.amazon.com	Tom and Mia Dailey	+1 415-851-9136 ext. 39793	ABR012	Delivery by Thursday | Arabella Farm Direct Bouquet of 18 Fresh Cut Pink Roses with a Free Glass Vase	1	0	1	SecondDay	Quilda Macedo	28 OSBORNE RD			MILTON	MA	02186-5148	US		Quilda - Happy Birthday! Wishing you a terrific birthday and a wonderful year! Lots of love! From Mia and Tom	false		
113-7403983-1288232	33481759820434	2020-10-05T19:56:53+00:00	2020-10-05T12:56:53-07:00	2020-10-05T20:25:50+00:00	2020-10-07T06:59:59+00:00	-2	7qpn5zh43506s6s@marketplace.amazon.com	Paula Caamaño	+1 929-436-4790 ext. 19983	ABR0022	Delivery by Thursday | Arabella Farm Direct Bouquet of 12 Fresh Cut Pink Roses with a Free Glass Vase	1	0	1	SecondDay	Maria Formoso	3111 87TH ST			EAST ELMHURST	NY	11369-1411	US		Happy Birthday to the best cousin on earth!! I love you so much =) xoxo From Paula Caamaño	false		
112-3588058-8015437	05809852885066	2020-10-05T20:37:03+00:00	2020-10-05T13:37:03-07:00	2020-10-05T20:55:51+00:00	2020-10-07T06:59:59+00:00	-2	5kmn9bhs40brx8r@marketplace.amazon.com	Arkadiy Gurevich	+1 929-436-4790 ext. 71003	ABR0022	Delivery by Thursday | Arabella Farm Direct Bouquet of 12 Fresh Cut Pink Roses with a Free Glass Vase	1	0	1	SecondDay	Alex Rafalovich	8222 SANTA ROSA CT			SARASOTA	FL	34243-3007	US			false		
114-8157249-0383467	27827958808514	2020-10-05T20:29:19+00:00	2020-10-05T13:29:19-07:00	2020-10-05T20:56:42+00:00	2020-10-07T06:59:59+00:00	-2	nm6s3v5mg43lz0t@marketplace.amazon.com	Paulette	+1 602-671-6610 ext. 30267	ABR0055	Delivery by Thursday | Arabella Farm Direct Bouquet of 12 Stems of Fresh Cut Hot Pink Roses in a Free Designer Glass Vase	1	0	1	SecondDay	Joyce Reale	2402 BRADFORD DR N APT 6A			WILSON	NC	27896-7008	US		Happy Birthday. Love and miss you very much. Sending a Big Hug ! From Paulette ,christine, caitlyn, Caroline ,and corinne   xoxo.	false		
112-6501364-0689841	63131622733890	2020-10-05T20:31:43+00:00	2020-10-05T13:31:43-07:00	2020-10-05T21:02:22+00:00	2020-10-08T06:59:59+00:00	-3	shgpv3vln08j9vx@marketplace.amazon.com	Nicholas Perfect	+1 480-618-5344 ext. 24879	ABR0022	Delivery by Thursday | Arabella Farm Direct Bouquet of 12 Fresh Cut Pink Roses with a Free Glass Vase	1	0	1	Expedited	Nicholas Perfect	952 CHELSEA AVE			COLUMBUS	OH	43209-2521	US			false		
111-8536080-6279420	17975095507290	2020-10-05T20:37:29+00:00	2020-10-05T13:37:29-07:00	2020-10-05T21:03:57+00:00	2020-10-08T06:59:59+00:00	-3	95rdsjl40gg93c5@marketplace.amazon.com	Georgine ferguson	+1 929-436-4790 ext. 47315	ABR0022	Delivery by Thursday | Arabella Farm Direct Bouquet of 12 Fresh Cut Pink Roses with a Free Glass Vase	1	0	1	Expedited	Lynda little	2225 PIERCE CREEK CIR			WAKE FOREST	NC	27587-7066	US		Enjoy your gift! Happy 50th - we love you! From Georgine ferguson	false		
114-8697383-8119448	17608708259202	2020-10-05T20:36:28+00:00	2020-10-05T13:36:28-07:00	2020-10-05T21:05:49+00:00	2020-10-08T06:59:59+00:00	-3	rrv8ktf1v4v8r0m@marketplace.amazon.com	Colin M. Cashel	+1 929-436-4790 ext. 72275	ABR0022	Delivery by Thursday | Arabella Farm Direct Bouquet of 12 Fresh Cut Pink Roses with a Free Glass Vase	1	0	1	Expedited	Beth Martino	RUMSEY HALL SCHOOL 201 ROMFORD RD			WASHINGTON DEPOT	CT	06794-1399	US		Ms. Martino, Thank you for all that you do for Katie and our family. From The Cashel Family	false		
112-8499995-8403453	55297866095402	2020-10-05T20:56:13+00:00	2020-10-05T13:56:13-07:00	2020-10-05T21:19:50+00:00	2020-10-07T06:59:59+00:00	-2	j0hn1s9f852tf3b@marketplace.amazon.com	Kaitlin Nottestad	+1 929-436-4790 ext. 55908	ABM024	Delivery by Thursday | The Beauty of Color Bouquet by Arabella Bouquets	1	0	1	SecondDay	Kelly Nottestad	W4601 BIG BAY RD			NECEDAH	WI	54646-7065	US		Mom,   Congratulations on a successful surgery! You'll feel better soon & once you do, you'll be moving around better than ever.   Love you & see you soon! From Kaitlin Nottestad	false		
111-4279957-2334630	57050575589970	2020-10-05T21:12:18+00:00	2020-10-05T14:12:18-07:00	2020-10-05T21:40:33+00:00	2020-10-08T06:59:59+00:00	-3	34l81vrzyj2s81l@marketplace.amazon.com	Chris Hanson	+1 602-671-6610 ext. 71616	ABR0022	Delivery by Thursday | Arabella Farm Direct Bouquet of 12 Fresh Cut Pink Roses with a Free Glass Vase	1	0	1	Expedited	Cadi Weaver	5317 RAVENNA PL NE			SEATTLE	WA	98105-3223	US		Happy Birthday Sweet Cadi!!!!!!!!!!!!!!  Miss you so...................  Much love, From Chris and Mom	true		Business Price
111-3229607-6101026	42333434925714	2020-10-05T21:15:51+00:00	2020-10-05T14:15:51-07:00	2020-10-05T21:45:50+00:00	2020-10-07T06:59:59+00:00	-2	rbv1ddv032lstb1@marketplace.amazon.com	Frank Cereska	+1 480-618-5344 ext. 42824	ABR0022	Delivery by Thursday | Arabella Farm Direct Bouquet of 12 Fresh Cut Pink Roses with a Free Glass Vase	1	0	1	SecondDay	Frank Cereska	10780 N 117TH PL			SCOTTSDALE	AZ	85259-4051	US			false		
111-4092141-6853059	37310871255994	2020-10-05T22:01:21+00:00	2020-10-05T15:01:21-07:00	2020-10-05T22:26:37+00:00	2020-10-07T06:59:59+00:00	-2	nfvdl74yhq529vq@marketplace.amazon.com	Janice Jean	+1 415-851-9136 ext. 50240	ABR0066	Delivery by Thursday | Arabella Bouquets 12 Stems of Fresh Cut White Roses in a Free Designer Glass Vase	1	0	1	SecondDay	Winsome Jean	3783 UPPARK DR			ATLANTA	GA	30349-8731	US			false		
111-8115433-4568255	66206190345058	2020-10-05T21:58:29+00:00	2020-10-05T14:58:29-07:00	2020-10-05T22:28:18+00:00	2020-10-08T06:59:59+00:00	-3	kn07l66hf8cx119@marketplace.amazon.com	Aaron Strous	+1 415-851-9136 ext. 19873	ABR0022	Delivery by Thursday | Arabella Farm Direct Bouquet of 12 Fresh Cut Pink Roses with a Free Glass Vase	1	0	1	Expedited	Amy Sandell	101 W CHERRY ST			PALMYRA	PA	17078-2300	US			false		
111-5751944-7523466	29390481550210	2020-10-05T22:09:08+00:00	2020-10-05T15:09:08-07:00	2020-10-05T22:34:04+00:00	2020-10-08T06:59:59+00:00	-3	ltclpj2zh51198b@marketplace.amazon.com	Calvez	+1 480-618-5344 ext. 24797	ABR0022	Delivery by Thursday | Arabella Farm Direct Bouquet of 12 Fresh Cut Pink Roses with a Free Glass Vase	1	0	1	Expedited	Ines Obtinalla	2291 STOCKTON ST APT 4357			SAN FRANCISCO	CA	94133-1534	US		Je t’aime mon bebe 🥰 3 ans d’amour avec toi! Et je souhaite que cela continue. Love From Cédric Calvez	false		
112-3810878-8211468	63181648899882	2020-10-05T22:08:28+00:00	2020-10-05T15:08:28-07:00	2020-10-05T22:35:43+00:00	2020-10-08T06:59:59+00:00	-3	65g4mr8ytsfcnrf@marketplace.amazon.com	Sandrine Pierre	+1 929-436-4790 ext. 19096	ABM022	Delivery by Thursday | Purple Extravagance Bouquet by Arabella Bouquets	1	0	1	Expedited	Bernadette Cox	9617 AVENUE M			BROOKLYN	NY	11236-5020	US		Dear Sister Cox,  You are in our thoughts and our prayers! From Brother Othniel and family	false		
114-0112542-6805031	47820971886802	2020-10-05T22:07:50+00:00	2020-10-05T15:07:50-07:00	2020-10-05T22:36:30+00:00	2020-10-08T06:59:59+00:00	-3	1tfz2twr66znp5v@marketplace.amazon.com	Armando Gonzalez	+1 602-671-6610 ext. 33088	ABR0022	Delivery by Thursday | Arabella Farm Direct Bouquet of 12 Fresh Cut Pink Roses with a Free Glass Vase	1	0	1	Expedited	Geneva Paz	331 N LOCUST ST			STOCKTON	CA	95205-4526	US			false		
112-4402352-5829865	33933893975474	2020-10-05T22:07:42+00:00	2020-10-05T15:07:42-07:00	2020-10-05T22:38:18+00:00	2020-10-08T06:59:59+00:00	-3	2xw5ks2jshk6q4b@marketplace.amazon.com	quentin bolbach	+1 929-436-4790 ext. 78672	ABR0022	Delivery by Thursday | Arabella Farm Direct Bouquet of 12 Fresh Cut Pink Roses with a Free Glass Vase	1	0	1	Expedited	quentin	7219 STONEY CREEK DR			HIGHLAND	CA	92346-3383	US			false		
112-2249168-3171439	18096340764738	2020-10-05T22:14:46+00:00	2020-10-05T15:14:46-07:00	2020-10-05T22:39:43+00:00	2020-10-08T06:59:59+00:00	-3	65g4mr8ytsfcnrf@marketplace.amazon.com	Sandrine Pierre	+1 415-851-9136 ext. 21218	ABM010	The Spring Fling Bouquet by Arabella Bouquets with a Free Designer Glass Vase	1	0	1	Expedited	Rickford & Ethelina Paulsingh	9617 AVENUE M			BROOKLYN	NY	11236-5020	US		Dear Brother Rickford and Sister Ethelina,  You are in our thoughts and our prayers! From Brother Othniel and family	false		
114-0162552-2655468	54961675081778	2020-10-05T22:09:50+00:00	2020-10-05T15:09:50-07:00	2020-10-05T22:39:58+00:00	2020-10-08T06:59:59+00:00	-3	vd8j3l3042htp7k@marketplace.amazon.com	Todd Martin	+1 602-671-6610 ext. 95936	ABR0022	Delivery by Thursday | Arabella Farm Direct Bouquet of 12 Fresh Cut Pink Roses with a Free Glass Vase	1	0	1	Expedited	Todd Martin	1818 BLUE LEVEL RD			BOWLING GREEN	KY	42101-9279	US			false		
111-6252911-8712200	42959488663930	2020-10-05T22:02:23+00:00	2020-10-05T15:02:23-07:00	2020-10-05T22:45:35+00:00	2020-10-07T06:59:59+00:00	-2	1yw1yf463tt6z6h@marketplace.amazon.com	Kyle Silvey	+1 602-671-6610 ext. 63043	ABR0022	Delivery by Thursday | Arabella Farm Direct Bouquet of 12 Fresh Cut Pink Roses with a Free Glass Vase	1	0	1	SecondDay	CHRISTINE AND KYLE BARKLEY	3425 COUNTY HOUSE RD			PENN YAN	NY	14527-8967	US		HAPPY WEDDING WEEK! We are so sad that we can’t celebrate with you but want you to know how much you are loved. Enjoy every moment! XOXO -your SC besties Rachael, Alyssa, Kati and Maria From Rachael, Alyssa, Kati and Maria	false		
111-0937782-6651414	26433838708634	2020-10-05T22:21:58+00:00	2020-10-05T15:21:58-07:00	2020-10-05T22:51:04+00:00	2020-10-07T06:59:59+00:00	-2	gl4wwly8097dgvq@marketplace.amazon.com	Patricia Scott	+1 602-671-6610 ext. 57156	ABR0022	Delivery by Thursday | Arabella Farm Direct Bouquet of 12 Fresh Cut Pink Roses with a Free Glass Vase	1	0	1	SecondDay	Marilyn Hills	8641 DEVON CIR			LA PALMA	CA	90623-2311	US		Hi Marilyn, Have a great birthday! From Pat Scott	false		
112-1994445-7890646	69957791719450	2020-10-05T22:31:47+00:00	2020-10-05T15:31:47-07:00	2020-10-05T22:57:56+00:00	2020-10-07T06:59:59+00:00	-2	ypv82vkr05mfkxh@marketplace.amazon.com	Carolyn Paredes	+1 415-851-9136 ext. 18693	ABR0055	Delivery by Thursday | Arabella Farm Direct Bouquet of 12 Stems of Fresh Cut Hot Pink Roses in a Free Designer Glass Vase	1	0	1	SecondDay	Amanda Schultz,St. Rose Dominican Hospital, Siena	8280 W WARM SPRINGS RD			LAS VEGAS	NV	89113-3612	US		Hi Amanda, Hope you’re feeling better! Love, John & Carolyn	false		
112-6389373-2968224	53965641621466	2020-10-05T23:19:12+00:00	2020-10-05T16:19:12-07:00	2020-10-05T23:43:47+00:00	2020-10-07T06:59:59+00:00	-2	gvx6v9pl4dvf93r@marketplace.amazon.com	Jess	+1 929-436-4790 ext. 97944	ABR0055	Delivery by Thursday | Arabella Farm Direct Bouquet of 12 Stems of Fresh Cut Hot Pink Roses in a Free Designer Glass Vase	1	0	1	SecondDay	Jo	1816 N 68TH DR			PHOENIX	AZ	85035-4609	US			false		
114-9905336-5224247	37548621816106	2020-10-06T00:09:09+00:00	2020-10-05T17:09:09-07:00	2020-10-06T00:36:55+00:00	2020-10-08T06:59:59+00:00	-3	d7dw8m70fh1bfc0@marketplace.amazon.com	Roanld Mason	+1 602-671-6610 ext. 09030	ABR0022	Delivery by Thursday | Arabella Farm Direct Bouquet of 12 Fresh Cut Pink Roses with a Free Glass Vase	1	0	1	Expedited	Karen Mason	6406 78TH ST			CABIN JOHN	MD	20818-1602	US		Happy Birthday, Karen!!  XOXOXO From Ron, Colleen, & Ryan	false		
113-6511380-4425007	69250279444162	2020-10-06T00:15:58+00:00	2020-10-05T17:15:58-07:00	2020-10-06T00:41:28+00:00	2020-10-08T06:59:59+00:00	-3	ynglvhy8w06b7hz@marketplace.amazon.com	Diane k wallach	+1 602-671-6610 ext. 44725	ABR0022	Delivery by Thursday | Arabella Farm Direct Bouquet of 12 Fresh Cut Pink Roses with a Free Glass Vase	1	0	1	Expedited	Robin Palm	4140 Topanga Canyon Rd			Calabasas	CA	91302	US		Mark and I are praying for a speedy, full recovery.  Lots of love to you and your beautiful family. Xoxo From Diane k wallach	false		
112-1654954-0213853	20397150718586	2020-10-06T00:26:07+00:00	2020-10-05T17:26:07-07:00	2020-10-06T00:46:39+00:00	2020-10-08T06:59:59+00:00	-3	t2krxz169jk0vnv@marketplace.amazon.com	Linda Holmes-Cook	+1 480-618-5344 ext. 20232	ABR0022	Delivery by Thursday | Arabella Farm Direct Bouquet of 12 Fresh Cut Pink Roses with a Free Glass Vase	1	0	1	Expedited	Sam and Amber Holmes-Tarlton	4207 FULTON PL			LAS VEGAS	NV	89107-4118	US		I know your hearts are breaking. Only the very best can leave you feeling so sad - No one will ever replace George - he was so dear. From Mom and Gary	false		
111-0686486-4375417	06160598263458	2020-10-06T00:27:36+00:00	2020-10-05T17:27:36-07:00	2020-10-06T00:56:22+00:00	2020-10-08T06:59:59+00:00	-3	yf83hlprykn08c1@marketplace.amazon.com	Liz	+1 929-436-4790 ext. 06779	ABM025	Delivery by Thursday | The Fell for You Bouquet by Arabella Bouquets	1	0	1	Standard	Claudia Stanny	4750 FLORENTINA CT			PENSACOLA	FL	32504-9023	US		Claudia, You are in our thoughts and prayers during this difficult time. From Love, Joe (Mike) and Liz	false		
114-1101728-4209825	61869588542426	2020-10-06T00:58:12+00:00	2020-10-05T17:58:12-07:00	2020-10-06T01:21:11+00:00	2020-10-07T06:59:59+00:00	-2	bpdsj1yd5r72cs9@marketplace.amazon.com	Caroline Jasso	+1 415-851-9136 ext. 87430	ABB003	Arabella Farm Direct Fresh Cut Blue Hydrangea	1	0	1	SecondDay	Bernadette Altamirano	3535 E MONTHAN STRA			TUCSON	AZ	85713-2462	US		Mom, You are BLESSED, LOVED, and FABULOUS! Have a wonderful birthday!  We love you!  With all our love, Line and Marc From Caroline Jasso	false		
111-0968298-0457050	67441851254426	2020-10-06T00:57:36+00:00	2020-10-05T17:57:36-07:00	2020-10-06T01:26:07+00:00	2020-10-08T06:59:59+00:00	-3	ht2mwmxbzb2gbm0@marketplace.amazon.com	Laura Smith	+1 929-436-4790 ext. 19404	ABM020	Delivery by Thursday | The Sunset Bouquet by Arabella Bouquets	1	0	1	Expedited	Laure Fuerstenberg	1608 HURST CASTLE RD			SAINT CLOUD	MN	56303-0004	US		Happy Birthday Laure! I hope you have an awesome day. You are a blessing! Love, Laura	false		
111-6034013-2853020	32034929816666	2020-10-06T00:57:03+00:00	2020-10-05T17:57:03-07:00	2020-10-06T01:26:31+00:00	2020-10-08T06:59:59+00:00	-3	ztz20vytqb9dslt@marketplace.amazon.com	Julie A. Greenberg	+1 415-851-9136 ext. 90370	ABR0022	Delivery by Thursday | Arabella Farm Direct Bouquet of 12 Fresh Cut Pink Roses with a Free Glass Vase	1	0	1	Expedited	Connie Merrill	432 STAR MOUNTAIN LN			GEORGETOWN	TX	78633-5707	US			false		
113-8858180-7573024	37116954437146	2020-10-06T01:00:53+00:00	2020-10-05T18:00:53-07:00	2020-10-06T01:26:47+00:00	2020-10-08T06:59:59+00:00	-3	h041dwjbrfff59m@marketplace.amazon.com	Stephany A. Watson	+1 480-618-5344 ext. 47552	ABR0055	Delivery by Thursday | Arabella Farm Direct Bouquet of 12 Stems of Fresh Cut Hot Pink Roses in a Free Designer Glass Vase	1	0	1	Expedited	Greg and Marica Russ	130164TH AVE NE			BELLEVUE	WA	98008-4450	US			false		
112-1137267-1460261	18166700132162	2020-10-06T01:33:50+00:00	2020-10-05T18:33:50-07:00	2020-10-06T02:03:43+00:00	2020-10-08T06:59:59+00:00	-3	t344930bkxkhycn@marketplace.amazon.com	Frederick Daniel	+1 929-436-4790 ext. 65108	ABR0022	Delivery by Thursday | Arabella Farm Direct Bouquet of 12 Fresh Cut Pink Roses with a Free Glass Vase	1	0	1	Expedited	Amy Scoles	2440 CLOVER BLOSSOM CT			GROVE CITY	OH	43123-9185	US			false		
114-9134331-3989831	37050852050154	2020-10-06T01:48:39+00:00	2020-10-05T18:48:39-07:00	2020-10-06T02:13:29+00:00	2020-10-07T06:59:59+00:00	-2	01v67fsdzbtwmzl@marketplace.amazon.com	Tamatha Farrow	+1 929-436-4790 ext. 69015	ABM010	The Spring Fling Bouquet by Arabella Bouquets with a Free Designer Glass Vase	1	0	1	SecondDay	Jeanne Rodek	44 MILLBROOK RD			NEWARK	DE	19713-2518	US		Thinking of you and sending you love and hugs! From Tami	false		
111-2985286-1559406	07850291596042	2020-10-06T02:26:21+00:00	2020-10-05T19:26:21-07:00	2020-10-06T02:44:22+00:00	2020-10-08T06:59:59+00:00	-3	5wsh5kgtj2t52my@marketplace.amazon.com	wendy Johnston	+1 602-671-6610 ext. 76063	ABR0022	Delivery by Thursday | Arabella Farm Direct Bouquet of 12 Fresh Cut Pink Roses with a Free Glass Vase	1	0	1	Expedited	Joyce Oudheusden	STAM FORD HOSPITAL -	1 HOSPITAL PLZ RM # 3304 - VAN MUNCHING REHAB		STAMFORD	CT	06902-3602	US		Here's something to brighten your day! Remember, you're an overcomer. 🙏  With love,  Wendy 💜💐💗 From wendy Johnston	false		
111-2392691-2961803	09525820135898	2020-10-06T02:19:49+00:00	2020-10-05T19:19:49-07:00	2020-10-06T02:46:42+00:00	2020-10-08T06:59:59+00:00	-3	fq21g2kxwmd4ynk@marketplace.amazon.com	gener m. cura	+1 929-436-4790 ext. 34270	ABR0055	Delivery by Thursday | Arabella Farm Direct Bouquet of 12 Stems of Fresh Cut Hot Pink Roses in a Free Designer Glass Vase	1	0	1	Expedited	Iris Van Kralingen	230 HIGH MEADOW ST			SIMI VALLEY	CA	93065-7351	US		Thank you for everything! From gene	false		
113-0353679-8031471	39120034528218	2020-10-06T02:38:03+00:00	2020-10-05T19:38:03-07:00	2020-10-06T03:05:21+00:00	2020-10-08T06:59:59+00:00	-3	l2nqdylpczgmyp5@marketplace.amazon.com	Kristen Magers	+1 415-851-9136 ext. 65041	ABM022	Delivery by Thursday | Purple Extravagance Bouquet by Arabella Bouquets	1	0	1	Expedited	Ann Yonce	3292 HELGESON LN			GRANTS PASS	OR	97527-7120	US		Dear Ann, So sorry to hear you were hurt! We hope this brightens your recovery. Love, Chris and Krissy From K&C	false		
112-0448735-1794653	37267919975466	2020-10-06T02:34:52+00:00	2020-10-05T19:34:52-07:00	2020-10-06T03:14:54+00:00	2020-10-07T06:59:59+00:00	-2	vkt0xr7wr37k1rs@marketplace.amazon.com	jessi	+1 602-671-6610 ext. 18863	ABR0055	Delivery by Thursday | Arabella Farm Direct Bouquet of 12 Stems of Fresh Cut Hot Pink Roses in a Free Designer Glass Vase	1	0	1	SecondDay	LINDA BALDWIN	549 PLATTNER TRL			BEAVERCREEK	OH	45430-1516	US		Im so glad your home and well. Feel better soon. Love and miss you maamm !! Love joe,kim,judi,jessi,harry From Love. jessi	false		
114-4171926-8644212	17678483168154	2020-10-06T02:57:00+00:00	2020-10-05T19:57:00-07:00	2020-10-06T03:21:58+00:00	2020-10-07T06:59:59+00:00	-2	m5zm1mq78q4qz8t@marketplace.amazon.com	Orrin david James	+1 929-436-4790 ext. 34676	ABR0022	Delivery by Thursday | Arabella Farm Direct Bouquet of 12 Fresh Cut Pink Roses with a Free Glass Vase	1	0	1	SecondDay	Dakota Rider	44 HULBERT RD			WESTPORT	NY	12993-2228	US		HAPPY BELATED BIRTHDAY...CANT WAIT TO SEE YOU, HOPEFULLY SOON. LOVE YOU From Orrin James	false		
114-8393461-8089040	16332218178522	2020-10-06T02:44:34+00:00	2020-10-05T19:44:34-07:00	2020-10-06T03:22:48+00:00	2020-10-07T06:59:59+00:00	-2	r7r5ns1bn67dnj2@marketplace.amazon.com	Brian sir	+1 415-851-9136 ext. 74318	ABR0022	Delivery by Thursday | Arabella Farm Direct Bouquet of 12 Fresh Cut Pink Roses with a Free Glass Vase	2	0	2	SecondDay	Brian sir	W5438 SOLID COMFORT RD			ELKHORN	WI	53121-2600	US			false		
111-2324038-1177040	41758494051826	2020-10-06T02:58:05+00:00	2020-10-05T19:58:05-07:00	2020-10-06T03:27:16+00:00	2020-10-07T06:59:59+00:00	-2	tmgwm9xtxlb7v71@marketplace.amazon.com	Scott R Lazure	+1 602-671-6610 ext. 30711	ABR0022	Delivery by Thursday | Arabella Farm Direct Bouquet of 12 Fresh Cut Pink Roses with a Free Glass Vase	1	0	1	SecondDay	Marilyn Satchell	8505 MID CITIES BLVD APT 117			NORTH RICHLAND HILLS	TX	76182-4706	US		Happy birthday gma! We love you From Scott, Stephanie, Aiden and Harper	false		
111-5441886-8266601	49474166257434	2020-10-06T03:12:37+00:00	2020-10-05T20:12:37-07:00	2020-10-06T03:36:32+00:00	2020-10-07T06:59:59+00:00	-2	cy2sk0khxyt6q2p@marketplace.amazon.com	Cristina	+1 480-618-5344 ext. 71583	ABM022	Delivery by Thursday | Purple Extravagance Bouquet by Arabella Bouquets	1	0	1	SecondDay	Susan McCain	2715 Crandall Ct.			Birmingham	Alabama	35243	US		For the Kindest and most Loving Mom Susan! We are blessed to have You in our lives. May God keep you Safe and Healthy. From With Love from Cristina & Tommy	false		
114-4734028-0381808	57750085115218	2020-10-06T03:50:35+00:00	2020-10-05T20:50:35-07:00	2020-10-06T04:13:16+00:00	2020-10-08T06:59:59+00:00	-3	vcnkgl33mnsncdz@marketplace.amazon.com	Lisa A. Fusano	+1 602-671-6610 ext. 70830	ABR0055	Delivery by Thursday | Arabella Farm Direct Bouquet of 12 Stems of Fresh Cut Hot Pink Roses in a Free Designer Glass Vase	1	0	1	Expedited	Danette Hussion	1010 PLAZA SIENNA			LAKE HAVASU CITY	AZ	86406-4563	US		Dearest Danette,  My heartfelt condolences in the loss of your son Jesse.  Hugs and Prayers and   Love from the other Grandma. From Lisa Fusano	false		
112-4493882-4722604	14202151293394	2020-10-06T04:13:19+00:00	2020-10-05T21:13:19-07:00	2020-10-06T04:39:55+00:00	2020-10-07T06:59:59+00:00	-2	tzzrqlv9z8kxjgc@marketplace.amazon.com	Elaine Katsikas	+1 480-618-5344 ext. 57149	ABR0022	Delivery by Thursday | Arabella Farm Direct Bouquet of 12 Fresh Cut Pink Roses with a Free Glass Vase	1	0	1	SecondDay	Nancy Devlopoulos	19 WALNUT AVE			PATCHOGUE	NY	11772-2658	US		Nancy,  Wishing you a very Happy Birthday!  Love, Elaine and George From Elaine Katsikas	false		
