order-id	order-item-id	purchase-date	payments-date	reporting-date	promise-date	days-past-promise	buyer-email	buyer-name	buyer-phone-number	sku	product-name	quantity-purchased	quantity-shipped	quantity-to-ship	ship-service-level	recipient-name	ship-address-1	ship-address-2	ship-address-3	ship-city	ship-state	ship-postal-code	ship-country	gift-wrap-type	gift-message-text	is-business-order	purchase-order-number	price-designation
111-5005955-2312239	63278757561914	2020-10-06T18:17:05+00:00	2020-10-06T11:17:05-07:00	2020-10-06T18:17:59+00:00	2020-10-09T06:59:59+00:00	-3	k5v5654dy9gzm44@marketplace.amazon.com	Carol Reichman	+1 480-618-5344 ext. 27443	ABR012	Delivery by Friday | Arabella Farm Direct Bouquet of 18 Fresh Cut Pink Roses with a Free Glass Vase	1	0	1	Expedited	Julia Reichman	10636 BALLANTRAE DR			SAINT LOUIS	MO	63131-2831	US		Happy Sweet Sixteen, Beautiful Julia Rose! Enjoy every moment!  Miss you.   Love and kisses, Grandma and Papa Cookie	false		
113-3866410-8283429	43807487953314	2020-10-06T17:48:26+00:00	2020-10-06T10:48:26-07:00	2020-10-06T18:18:11+00:00	2020-10-09T06:59:59+00:00	-3	bwnhr2h7jwx58n5@marketplace.amazon.com	Robin Talley	+1 929-436-4790 ext. 60899	ABR0033	Arabella Farm Direct Bouquet of 12 Fresh Cut Orange Roses with a Free Glass Vase	1	0	1	Expedited	Mrs. Rachel Hayes	315 WAYSIDE RD			BASKERVILLE	VA	23915-1521	US			false		
111-2241943-9062645	00366654431258	2020-10-06T18:14:35+00:00	2020-10-06T11:14:35-07:00	2020-10-06T18:26:52+00:00	2020-10-09T06:59:59+00:00	-3	fz85756p6t78w1g@marketplace.amazon.com	candi caprio	+1 480-618-5344 ext. 09910	ABR013	Delivery by Friday | Arabella Farm Direct Bouquet of 18 Fresh Cut Yellow Roses with a Free Glass Vase	1	0	1	Expedited	Robin Maley	818 PENNSYLVANIA AVE			PINE BEACH	NJ	08741-1724	US		Robin My heart goes out to you and your family To brighter days  Love Candi From candi caprio	false		
114-0388720-3877815	49483234465586	2020-10-06T18:00:13+00:00	2020-10-06T11:00:13-07:00	2020-10-06T18:27:07+00:00	2020-10-09T06:59:59+00:00	-3	hynq11bw4w0v676@marketplace.amazon.com	Colleen	+1 929-436-4790 ext. 17491	ABR0022	Delivery by Friday | Arabella Farm Direct Bouquet of 12 Fresh Cut Pink Roses with a Free Glass Vase	1	0	1	Expedited	Bernadette Burkhead	1149 LA ROSA RD			ARCADIA	CA	91007-6145	US		Happy Birthday Mom!  We love you!  Colleen & Chris From Colleen & Chris	false		
113-9264907-3909821	42395134975234	2020-10-06T15:58:20+00:00	2020-10-06T08:58:20-07:00	2020-10-06T19:02:36+00:00	2020-10-09T06:59:59+00:00	-3	lms6gt5vs1z8hnt@marketplace.amazon.com	Kale Blackshear	+1 602-671-6610 ext. 14833	ABSR005	Arabella Bouquets Fresh Cut Orange Spray Roses in a Free Designer Glass Vase	1	0	1	Expedited	Janice Johnson	15 HALTER CT			COVINGTON	GA	30016-6507	US			false		
114-8676259-7569863	65404783071938	2020-10-06T18:34:05+00:00	2020-10-06T11:34:05-07:00	2020-10-06T19:04:07+00:00	2020-10-09T06:59:59+00:00	-3	rnj1s4xddsd9sty@marketplace.amazon.com	Alexia Terry		ABR012	Delivery by Friday | Arabella Farm Direct Bouquet of 18 Fresh Cut Pink Roses with a Free Glass Vase	1	0	1	Standard	Alexia Terry	104 N Tennessee St			CROSSETT	AR	71635	US			false		
114-7199739-4041844	37556095291866	2020-10-06T19:07:49+00:00	2020-10-06T12:07:49-07:00	2020-10-06T19:25:15+00:00	2020-10-09T06:59:59+00:00	-3	pmwkm3j3gdwwh5k@marketplace.amazon.com	Marie Elliott	+1 480-618-5344 ext. 99887	ABR0033	Delivery by Friday | Arabella Farm Direct Bouquet of 12 Fresh Cut Orange Roses with a Free Glass Vase	1	0	1	Expedited	Kevin and Alicia Gill	13814 SHAVANO GLENN			SAN ANTONIO	TX	78230-5818	US		Kevin and Alicia, Merlin was loved and had a wonderful life with you.   I love you both, Mom	false		
111-2800087-1245021	52844393182618	2020-10-06T19:29:06+00:00	2020-10-06T12:29:06-07:00	2020-10-06T19:52:41+00:00	2020-10-08T06:59:59+00:00	-2	r5f9yqp828kms6n@marketplace.amazon.com	Hema Srini	+1 602-671-6610 ext. 89262	ABM022	Delivery by Friday | Purple Extravagance Bouquet by Arabella Bouquets	1	0	1	SecondDay	Laura Arguija	25005 HENDON ST			LAGUNA HILLS	CA	92653-4628	US		Dear Laura, Thank you for your timely & divine help. Kids' admissions in their Indian school is confirmed, we are beyond thrilled! THANK YOU FOR BEING AMAZING as always. We are grateful and indebted to you FOREVER! Miss You From Love Hema	false		
111-2104164-3021063	08783131422858	2020-10-06T19:28:07+00:00	2020-10-06T12:28:07-07:00	2020-10-06T19:55:45+00:00	2020-10-08T06:59:59+00:00	-2	rkbw57frrngy7d4@marketplace.amazon.com	Christopher E Baldridge	+1 480-618-5344 ext. 32893	ABR0022	Delivery by Friday | Arabella Farm Direct Bouquet of 12 Fresh Cut Pink Roses with a Free Glass Vase	1	0	1	SecondDay	Brittney Baldridge	5280 NIAGARA LN N			MINNEAPOLIS	MN	55446-4597	US		Carrying your hearts with me. From Chris	false		
111-1280688-3484221	18660684363402	2020-10-06T19:42:30+00:00	2020-10-06T12:42:30-07:00	2020-10-06T20:07:36+00:00	2020-10-08T06:59:59+00:00	-2	3j142370dt9k5ty@marketplace.amazon.com	rhonda curtis	+1 602-671-6610 ext. 09042	ABR004	Delivery by Friday | Arabella Farm Direct Bouquet of 12 Fresh Cut Yellow Roses with a Free Glass Vase	1	0	1	SecondDay	RHONDA CURTIS-WHITE	644 NE BENT PADDLE LN			PORT ST LUCIE	FL	34983-3528	US		Happy Birthday! Yellow, orange roses  for a fall celebration :) From Arianna	false		
111-0466522-9771451	05612532674538	2020-10-06T19:39:53+00:00	2020-10-06T12:39:53-07:00	2020-10-06T20:08:07+00:00	2020-10-09T06:59:59+00:00	-3	3cbg171bst61wwx@marketplace.amazon.com	Alexis M. Orto	+1 602-671-6610 ext. 98981	ABM010	Delivery by Friday | The Spring Fling Bouquet by Arabella Bouquets with a Free Designer Glass Vase	1	0	1	Expedited	John Domutz	26251 HARDING ST			OAK PARK	MI	48237-1057	US			false		
113-4940684-5361863	11061216918762	2020-10-06T19:46:23+00:00	2020-10-06T12:46:23-07:00	2020-10-06T20:15:27+00:00	2020-10-08T06:59:59+00:00	-2	m8sbb4ryw604lwy@marketplace.amazon.com	stefani jacobsmeyer	+1 480-618-5344 ext. 90179	ABR0033	Delivery by Friday | Arabella Farm Direct Bouquet of 12 Fresh Cut Orange Roses with a Free Glass Vase	1	0	1	SecondDay	Kristen Frye	820 GROVE VALE DR			PROSPER	TX	75078-1555	US		Hi Friend! I know this week might be a tough one for you. I just wanted to tell you that you are SO loved. You are a wonderful mama and the BEST friend. I am so grateful S&C brought us together! From Your Work Wifey	false		
111-0229325-4747474	21650833862178	2020-10-06T20:11:39+00:00	2020-10-06T13:11:39-07:00	2020-10-06T20:37:31+00:00	2020-10-08T06:59:59+00:00	-2	snz8q7zvw41hc2t@marketplace.amazon.com	Claudia Pantaleao	+1 602-671-6610 ext. 76619	ABM021	Delivery by Friday | The Joyous Bouquet by Arabella Bouquets	1	0	1	SecondDay	Sonia Alonso	14839 SINGLE TRCE			AUSTIN	TX	78728-4333	US		Happy Birthday my dearest Sonia. You are beautiful as this bouquet and I hope it brings joy for your day. I wish I could give you a big and warm hug to say how much I admire you :) From Claudia Pantaleao	false		
113-8217929-7809868	32254931087778	2020-10-06T20:26:48+00:00	2020-10-06T13:26:48-07:00	2020-10-06T20:49:49+00:00	2020-10-08T06:59:59+00:00	-2	7r79vq83bg475tg@marketplace.amazon.com	teresa trovello	+1 415-851-9136 ext. 76708	ABR0033	Delivery by Friday | Arabella Farm Direct Bouquet of 12 Fresh Cut Orange Roses with a Free Glass Vase	1	0	1	SecondDay	Mrs marrietta pilasky	185 PEBBLE BEACH DR			MAYS LANDING	NJ	08330-5402	US		My condolences thinking  of you at this difficult time ❤️❤️ From teresa trovello and Alex Trovello xoxo	false		
113-5897674-0009853	52766597327874	2020-10-06T20:35:22+00:00	2020-10-06T13:35:22-07:00	2020-10-06T21:02:09+00:00	2020-10-09T06:59:59+00:00	-3	nqdlfhs2cm9rsj1@marketplace.amazon.com	Chee gong	+1 415-851-9136 ext. 58311	ABM022	Delivery by Friday | Purple Extravagance Bouquet by Arabella Bouquets	1	0	1	Expedited	Barbara Manaugh	BERKLEY EAST CONVALESCENT HOSPITAL	2021 ARIZONA AVE RM 314A		SANTA MONICA	CA	90404-1335	US		Dear Mom:  Happiest Birthday ever!  Hope your day is filled with joy, laughter and fun!  Sending you hugs and kisses! and happy birthday wishes! From All your family	false		
114-7205145-2101048	33089433741194	2020-10-06T20:52:22+00:00	2020-10-06T13:52:22-07:00	2020-10-06T21:22:28+00:00	2020-10-08T06:59:59+00:00	-2	ss15jrml0xjdjmw@marketplace.amazon.com	Joe BEAUMONT	+1 602-671-6610 ext. 23255	ABB001	Arabella Farm Direct Fresh Cut White Hydrangea	1	0	1	SecondDay	Christy Mark	5811 245th Place N.E.			Redmond	WA	98053	US			false		
114-5848574-8805068	12306368582050	2020-10-06T21:37:53+00:00	2020-10-06T14:37:53-07:00	2020-10-06T22:04:32+00:00	2020-10-08T06:59:59+00:00	-2	vvty1znq58hg44k@marketplace.amazon.com	Monique	+1 415-851-9136 ext. 11994	ABR0022	Delivery by Friday | Arabella Farm Direct Bouquet of 12 Fresh Cut Pink Roses with a Free Glass Vase	1	0	1	SecondDay	Mother Ruthie Newell	9007 S CLYDE AVE			CHICAGO	IL	60617-3708	US		Get well soon! Love you much! From Preacher Monique and Mother Cora	false		
114-2164572-1909003	38031914222154	2020-10-06T21:34:53+00:00	2020-10-06T14:34:53-07:00	2020-10-06T22:05:18+00:00	2020-10-09T06:59:59+00:00	-3	hfy284s3v47qmtp@marketplace.amazon.com	Chris Jones	+1 602-671-6610 ext. 29489	ABR0022	Delivery by Friday | Arabella Farm Direct Bouquet of 12 Fresh Cut Pink Roses with a Free Glass Vase	1	0	1	Expedited	Dyonne  Milbrandt	18272 BLUE HERON POINTE DR			NORTHVILLE	MI	48168-9259	US			false		
114-0623981-7802649	33141395453090	2020-10-06T21:50:48+00:00	2020-10-06T14:50:48-07:00	2020-10-06T22:19:42+00:00	2020-10-09T06:59:59+00:00	-3	gk9cbjb0m4b8110@marketplace.amazon.com	Shahara'Tova Dente	+1 480-618-5344 ext. 03005	ABR0022	Delivery by Friday | Arabella Farm Direct Bouquet of 12 Fresh Cut Pink Roses with a Free Glass Vase	1	0	1	Expedited	Kenya Brown	139 CYPRESS RD			BYRAM	MS	39272-6050	US		Sending you and the family all my prayers and love! Here for you always! From Shahara'Tova Dente	false		
111-4108159-0383465	06283540183290	2020-10-06T21:54:56+00:00	2020-10-06T14:54:56-07:00	2020-10-06T22:20:02+00:00	2020-10-08T06:59:59+00:00	-2	xvp87yrqcd0rxhw@marketplace.amazon.com	Ryan Belanger	+1 602-671-6610 ext. 36147	ABR0055	Delivery by Friday | Arabella Farm Direct Bouquet of 12 Stems of Fresh Cut Hot Pink Roses in a Free Designer Glass Vase	1	0	1	SecondDay	Jennifer Cray	95 HOLLY LN			PORTSMOUTH	NH	03801-4723	US		because we love you!!! From Legal Ladies and Chris	false		
114-5812111-8536221	05750156225578	2020-10-06T22:24:49+00:00	2020-10-06T15:24:49-07:00	2020-10-06T22:25:46+00:00	2020-10-08T06:59:59+00:00	-2	cq47w6fmpjzrtyd@marketplace.amazon.com	Kathy	+1 602-671-6610 ext. 16837	ABR004	Delivery by Friday | Arabella Farm Direct Bouquet of 12 Fresh Cut Yellow Roses with a Free Glass Vase	1	0	1	SecondDay	Jenny Wade	5200 FM 715			MIDLAND	TX	79706-6540	US		I love you very much! Hope this Brightens your day! From Kathy W McKay	false		
114-4636969-2375429	19609884976586	2020-10-06T21:59:31+00:00	2020-10-06T14:59:31-07:00	2020-10-06T22:27:23+00:00	2020-10-09T06:59:59+00:00	-3	29xxmnwz2x7js2c@marketplace.amazon.com	D	+1 602-671-6610 ext. 82241	ABM010	Delivery by Friday | The Spring Fling Bouquet by Arabella Bouquets with a Free Designer Glass Vase	1	0	1	Expedited	Lora West	1520 DAISY LN			NEW BRAUNFELS	TX	78130-7737	US		Happy birthday my bestest friend! I love you and wished I could spend the day with you! I miss you and hope your day is beyond amazing! From Terri	false		
114-9105571-9100205	29691563998250	2020-10-06T22:20:37+00:00	2020-10-06T15:20:37-07:00	2020-10-06T22:43:14+00:00	2020-10-08T06:59:59+00:00	-2	dyw8jn5t9xrfr6v@marketplace.amazon.com	crystal perry	+1 929-436-4790 ext. 23804	ABM0044	Arabella Farm Direct Bouquet of Fresh Cut Blue Hydrangea with a Free Glass Vase	1	0	1	SecondDay	The Bond Family	480 HOLLY SPRINGS CHURCH RD			INMAN	SC	29349-7986	US		In Loving Memory of Janet’s Birthday. We love y’all. From Manly and family.	false		
111-8455885-4456253	04186837601578	2020-10-06T22:57:29+00:00	2020-10-06T15:57:29-07:00	2020-10-06T23:26:36+00:00	2020-10-08T06:59:59+00:00	-2	kdd5v3xk6n66b7z@marketplace.amazon.com	Lori Miller	+1 602-671-6610 ext. 66923	ABM010	Delivery by Friday | The Spring Fling Bouquet by Arabella Bouquets with a Free Designer Glass Vase	1	0	1	SecondDay	Julie Devlin	5719 WATERWALK CT			RICHMOND	TX	77469-7352	US		Happy HaPpY 50th Birthday, Julie!  We hope you day is filled with much love, lots of fun, and cake...lots of cake:)!  We love you, The Miller Clan From Lori Miller	false		
112-9602079-0003421	49421098650778	2020-10-06T23:03:53+00:00	2020-10-06T16:03:53-07:00	2020-10-06T23:33:07+00:00	2020-10-08T06:59:59+00:00	-2	4bjb3nth34sxm3p@marketplace.amazon.com	Frederick T Ducey	+1 929-436-4790 ext. 31591	ABM021	Delivery by Friday | The Joyous Bouquet by Arabella Bouquets	1	0	1	SecondDay	Frederick Ducey	11 MONTVIEW RD			SUMMIT	NJ	07901-4303	US		To the best wife a man could ever have. Babe!  I love you babe! From Frederick T Ducey	false		
112-8112536-0661810	63415643057706	2020-10-06T23:28:42+00:00	2020-10-06T16:28:42-07:00	2020-10-06T23:53:19+00:00	2020-10-08T06:59:59+00:00	-2	zzlfrw74lnqbd0t@marketplace.amazon.com	Martina Tassius	+1 480-618-5344 ext. 87589	ABR0022	Delivery by Friday | Arabella Farm Direct Bouquet of 12 Fresh Cut Pink Roses with a Free Glass Vase	1	0	1	SecondDay	Tamara Zetsche	7810 BECKETT ST			SUNLAND	CA	91040-3302	US		Liebe Tamara, ich wollte dir eine kleine Freude machen, und dir ein wenig Liebe zukommen lassen, bleib tapfer und lass dich nicht unterkriegen !!! From Martina Tassius	false		
113-2327534-4111443	69939045909538	2020-10-06T23:34:08+00:00	2020-10-06T16:34:08-07:00	2020-10-06T23:56:30+00:00	2020-10-08T06:59:59+00:00	-2	5gpklnj57z4fnxj@marketplace.amazon.com	Ann Territo	+1 602-671-6610 ext. 90542	ABR0055	Delivery by Friday | Arabella Farm Direct Bouquet of 12 Stems of Fresh Cut Hot Pink Roses in a Free Designer Glass Vase	1	0	1	SecondDay	Robin Pomazal	OAK CONDOMINIUMS 6237 TRINITY DR			LISLE	IL	60532-2844	US		Robin, We hope these flowers brighten your day. Better days are ahead.  We love you. From Ann  & Dean Territo	false		
113-9745914-5900258	41406760444690	2020-10-06T23:49:58+00:00	2020-10-06T16:49:58-07:00	2020-10-07T00:06:27+00:00	2020-10-08T06:59:59+00:00	-2	43gs9clz621zp3c@marketplace.amazon.com	Jean Martineau Noel	+1 929-436-4790 ext. 83270	ABR001	Delivery by Friday | Arabella Bouquets 12 Stems of Fresh Cut Red Roses in a Free Designer Glass Vase	1	0	1	SecondDay	Sophonia Stephie Deronneth	2511 LUTHER RD			PUNTA GORDA	FL	33983-2646	US		To My Girlfriend Meeting you was fate Becoming your boyfriend was a choice But falling in love with you was beyon my control. You are my best friend My human diary  I love you From Jean Martineau Noel	false		
114-8047194-4498662	11348693151194	2020-10-06T23:54:02+00:00	2020-10-06T16:54:02-07:00	2020-10-07T00:22:04+00:00	2020-10-08T06:59:59+00:00	-2	nfwthh8qlxstxft@marketplace.amazon.com	Margaret Bancroft	+1 602-671-6610 ext. 85446	ABR004	Delivery by Friday | Arabella Farm Direct Bouquet of 12 Fresh Cut Yellow Roses with a Free Glass Vase	1	0	1	SecondDay	Bre Junker	23915 CLEARMONT CT			VALENCIA	CA	91354-2617	US		Thank you for so many very special outfits. You are so talented and I am glad you are enjoying creating things that are so special to others. Love you! From Emily	false		
111-8371859-0196257	59313337503666	2020-10-07T00:02:03+00:00	2020-10-06T17:02:03-07:00	2020-10-07T00:32:07+00:00	2020-10-09T06:59:59+00:00	-3	5n3977bkphjm9vm@marketplace.amazon.com	paul duke	+1 602-671-6610 ext. 01634	ABM023	Delivery by Friday | The Morning Sun Bouquet by Arabella Bouquets	1	0	1	Expedited	Denise Laprade	16 COUNTRY WAY			NORTH SMITHFIELD	RI	02896-7901	US			false		
113-6902474-7000222	57586892031562	2020-10-07T00:30:57+00:00	2020-10-06T17:30:57-07:00	2020-10-07T00:57:36+00:00	2020-10-08T06:59:59+00:00	-2	pc8rty8czbzsf15@marketplace.amazon.com	Anne  Stephenson	+1 602-671-6610 ext. 32318	ABR004	Delivery by Friday | Arabella Farm Direct Bouquet of 12 Fresh Cut Yellow Roses with a Free Glass Vase	1	0	1	SecondDay	Peter Stephenson	587 Ashbury Dr			Aiken	SC	29803-3725	US		To Mom, Something to brighten your day. Love,   Mark, Anne, Neil, and Owen (and Pumpkin) From Mark Stephenson	false		
112-5754777-4510617	16739823965938	2020-10-07T01:08:56+00:00	2020-10-06T18:08:56-07:00	2020-10-07T01:25:19+00:00	2020-10-08T06:59:59+00:00	-2	pc8ql2466jv0fcb@marketplace.amazon.com	Colleen	+1 415-851-9136 ext. 38585	ABR0022	Delivery by Friday | Arabella Farm Direct Bouquet of 12 Fresh Cut Pink Roses with a Free Glass Vase	1	0	1	SecondDay	CAROL SCALA	525 KENTUCKY AVE			MONROEVILLE	PA	15146-3930	US		Happy Birthday my Precious Sister! I love you so very much :)  Have a most beautiful day XOXOXOX From Colleen and Brian	false		
114-3700484-0263445	43008021269642	2020-10-07T01:17:29+00:00	2020-10-06T18:17:29-07:00	2020-10-07T01:35:27+00:00	2020-10-09T06:59:59+00:00	-3	jfp31k7h4tsgd8s@marketplace.amazon.com	Angella Dixon	+1 602-671-6610 ext. 32426	ABR0055	Delivery by Friday | Arabella Farm Direct Bouquet of 12 Stems of Fresh Cut Hot Pink Roses in a Free Designer Glass Vase	1	0	1	Expedited	Tiffani Kopa	1005 HALIDON WAY			FOLSOM	CA	95630-8537	US			false		
113-7943578-8753854	48983867743306	2020-10-07T01:14:40+00:00	2020-10-06T18:14:40-07:00	2020-10-07T01:42:55+00:00	2020-10-08T06:59:59+00:00	-2	sd7m19xn29x087g@marketplace.amazon.com	Matt	+1 480-618-5344 ext. 17892	ABM022	Delivery by Friday | Purple Extravagance Bouquet by Arabella Bouquets	1	0	1	SecondDay	Morgan Chism	421 RIVER WAY DR			GREER	SC	29651-6876	US		So happy for y’all!! Love you! Hope these help you feel better :) From Sarah xoxo	false		
111-2923223-3754611	18774687872890	2020-10-07T01:20:36+00:00	2020-10-06T18:20:36-07:00	2020-10-07T01:50:17+00:00	2020-10-08T06:59:59+00:00	-2	gv0www4k85l0lc0@marketplace.amazon.com	BEVERLY A. SALLEY	+1 480-618-5344 ext. 04773	ABR0022	Delivery by Friday | Arabella Farm Direct Bouquet of 12 Fresh Cut Pink Roses with a Free Glass Vase	1	0	1	SecondDay	Yvonne Pratt	16567 SW Two Wood Way			Indiantown	FL	34956	US			false		
111-0353392-9539438	15480445406746	2020-10-07T01:34:59+00:00	2020-10-06T18:34:59-07:00	2020-10-07T02:04:32+00:00	2020-10-08T06:59:59+00:00	-2	pm1ylp9mb9mp5kg@marketplace.amazon.com	Jeffrey Bracco	+1 480-618-5344 ext. 11912	ABR0022	Delivery by Friday | Arabella Farm Direct Bouquet of 12 Fresh Cut Pink Roses with a Free Glass Vase	1	0	1	SecondDay	Kristen Algeri	4912 ASPEN ST			WEST MIFFLIN	PA	15122-1233	US			false		
113-6841060-9352258	18281240115706	2020-10-07T01:45:26+00:00	2020-10-06T18:45:26-07:00	2020-10-07T02:07:10+00:00	2020-10-08T06:59:59+00:00	-2	gn3lcny97wrp1zn@marketplace.amazon.com	christine marquez	+1 602-671-6610 ext. 41854	ABR0022	Delivery by Friday | Arabella Farm Direct Bouquet of 12 Fresh Cut Pink Roses with a Free Glass Vase	1	0	1	SecondDay	Rosario Maano	25 SMITH ST			METUCHEN	NJ	08840-1732	US		Wishing you a very happy birthday Tita/Ninang Rosie! Love lots, Cherry, John & JC From Cherry, John & JC Donohoe	false		
113-7376929-8427405	29367359574762	2020-10-07T01:47:12+00:00	2020-10-06T18:47:12-07:00	2020-10-07T02:17:10+00:00	2020-10-08T06:59:59+00:00	-2	p3v40ywmj72xvhy@marketplace.amazon.com	simona	+1 929-436-4790 ext. 23152	ABR0022	Delivery by Friday | Arabella Farm Direct Bouquet of 12 Fresh Cut Pink Roses with a Free Glass Vase	1	0	1	SecondDay	Tani Christina	3325 44TH AVE S			MINNEAPOLIS	MN	55406-2317	US			false		
114-7483486-5614651	65643673321322	2020-10-07T01:57:44+00:00	2020-10-06T18:57:44-07:00	2020-10-07T02:23:46+00:00	2020-10-09T06:59:59+00:00	-3	903s75k96ysqx2y@marketplace.amazon.com	Gerald A. Altilio	+1 480-618-5344 ext. 47646	ABR015	Delivery by Friday | Arabella Farm Direct Bouquet of 18 Fresh Cut Orange Roses with a Free Glass Vase	1	0	1	Expedited	Jennifer Kadavy	21810 DORCAS ST			ELKHORN	NE	68022-2878	US		Happy Anniversary From Love, Mom and Dad	false		
112-0687344-1201049	51984810332618	2020-10-07T01:57:41+00:00	2020-10-06T18:57:41-07:00	2020-10-07T02:27:21+00:00	2020-10-09T06:59:59+00:00	-3	jm16y52z0h7hh6p@marketplace.amazon.com	Abel Vasquez	+1 602-671-6610 ext. 92797	ABR0022	Delivery by Friday | Arabella Farm Direct Bouquet of 12 Fresh Cut Pink Roses with a Free Glass Vase	1	0	1	Expedited	Teresa Vasquez	18270 NW COUNTY ROAD 4160			FROST	TX	76641-3490	US			false		
113-5817982-1558658	61287300895466	2020-10-07T02:14:08+00:00	2020-10-06T19:14:08-07:00	2020-10-07T02:35:56+00:00	2020-10-09T06:59:59+00:00	-3	s7dpyblswbfqdgl@marketplace.amazon.com	Cheryl Stathakis	+1 480-618-5344 ext. 17000	ABM022	Delivery by Friday | Purple Extravagance Bouquet by Arabella Bouquets	1	0	1	Expedited	Amy & Tony Pierce	2752 HANCOCK CT			LINDENHURST	IL	60046-4948	US		Tony, Amy, Anthony, Amanda & Alexa: In Loving memory of BJ.   May these flowers remind you of our loving thoughts and prayers. From Love, Cheryl & Mike  Stathakis	false		
113-7930993-5141807	31493964959514	2020-10-07T02:14:49+00:00	2020-10-06T19:14:49-07:00	2020-10-07T02:40:26+00:00	2020-10-09T06:59:59+00:00	-3	flw8vvn1j3zhm0b@marketplace.amazon.com	bobby g burns	+1 480-618-5344 ext. 82758	ABR0055	Delivery by Friday | Arabella Farm Direct Bouquet of 12 Stems of Fresh Cut Hot Pink Roses in a Free Designer Glass Vase	1	0	1	Expedited	Brady Burns	5684 BAY ST APT 538			EMERYVILLE	CA	94608-2415	US		Happy Birthday Evy - Wish we could spend it with you!!!! From Bobby and Cheryl	false		
113-4217279-8897859	63252356996874	2020-10-07T02:18:53+00:00	2020-10-06T19:18:53-07:00	2020-10-07T02:46:04+00:00	2020-10-09T06:59:59+00:00	-3	xt5qzlrsdl7811f@marketplace.amazon.com	a b	+1 602-671-6610 ext. 19902	ABM010	Delivery by Friday | The Spring Fling Bouquet by Arabella Bouquets with a Free Designer Glass Vase	1	0	1	Expedited	I. Davis  c/o A. Brown	1655 Flatbush Ave	#A2107		Brooklyn	NY	11210	US			false		
