order-id	order-item-id	purchase-date	payments-date	reporting-date	promise-date	days-past-promise	buyer-email	buyer-name	buyer-phone-number	sku	product-name	quantity-purchased	quantity-shipped	quantity-to-ship	ship-service-level	recipient-name	ship-address-1	ship-address-2	ship-address-3	ship-city	ship-state	ship-postal-code	ship-country	gift-wrap-type	gift-message-text	is-business-order	purchase-order-number	price-designation
112-7966871-7935410	06893385664082	2020-10-06T04:27:26+00:00	2020-10-05T21:27:26-07:00	2020-10-06T04:57:36+00:00	2020-10-08T06:59:59+00:00	-2	jqw8sxsz7lk81lm@marketplace.amazon.com	Melissa Valenzuela	+1 480-618-5344 ext. 88834	ABM022	Delivery by Thursday | Purple Extravagance Bouquet by Arabella Bouquets	1	0	1	Expedited	Florencia Ruiz	2909 CORTEZ DR			DOUGLAS	AZ	85607-2634	US			false		
114-2185471-3855468	27057341860306	2020-10-06T16:44:01+00:00	2020-10-06T09:44:01-07:00	2020-10-06T17:12:59+00:00	2020-10-07T06:59:59+00:00	-1	y9d4x32w7r76csz@marketplace.amazon.com	Karen Yeakley	+1 480-618-5344 ext. 19209	ABM022	Delivery by Thursday | Purple Extravagance Bouquet by Arabella Bouquets	1	0	1	SecondDay	Gary Yeakley	7359 South County Road 50 East			LOGANSPORT	IN	46947-8119	US		Happy Birthday Mom, Love you From Kelly	false		
111-5005955-2312239	63278757561914	2020-10-06T18:17:05+00:00	2020-10-06T11:17:05-07:00	2020-10-06T18:17:59+00:00	2020-10-09T06:59:59+00:00	-3	k5v5654dy9gzm44@marketplace.amazon.com	Carol Reichman	+1 480-618-5344 ext. 27443	ABR012	Delivery by Friday | Arabella Farm Direct Bouquet of 18 Fresh Cut Pink Roses with a Free Glass Vase	1	0	1	Expedited	Julia Reichman	10636 BALLANTRAE DR			SAINT LOUIS	MO	63131-2831	US		Happy Sweet Sixteen, Beautiful Julia Rose! Enjoy every moment!  Miss you.   Love and kisses, Grandma and Papa Cookie	false		
113-3866410-8283429	43807487953314	2020-10-06T17:48:26+00:00	2020-10-06T10:48:26-07:00	2020-10-06T18:18:11+00:00	2020-10-09T06:59:59+00:00	-3	bwnhr2h7jwx58n5@marketplace.amazon.com	Robin Talley	+1 929-436-4790 ext. 60899	ABR0033	Arabella Farm Direct Bouquet of 12 Fresh Cut Orange Roses with a Free Glass Vase	1	0	1	Expedited	Mrs. Rachel Hayes	315 WAYSIDE RD			BASKERVILLE	VA	23915-1521	US			false		
111-2241943-9062645	00366654431258	2020-10-06T18:14:35+00:00	2020-10-06T11:14:35-07:00	2020-10-06T18:26:52+00:00	2020-10-09T06:59:59+00:00	-3	fz85756p6t78w1g@marketplace.amazon.com	candi caprio	+1 480-618-5344 ext. 09910	ABR013	Delivery by Friday | Arabella Farm Direct Bouquet of 18 Fresh Cut Yellow Roses with a Free Glass Vase	1	0	1	Expedited	Robin Maley	818 PENNSYLVANIA AVE			PINE BEACH	NJ	08741-1724	US		Robin My heart goes out to you and your family To brighter days  Love Candi From candi caprio	false		
114-0388720-3877815	49483234465586	2020-10-06T18:00:13+00:00	2020-10-06T11:00:13-07:00	2020-10-06T18:27:07+00:00	2020-10-09T06:59:59+00:00	-3	hynq11bw4w0v676@marketplace.amazon.com	Colleen	+1 929-436-4790 ext. 17491	ABR0022	Delivery by Friday | Arabella Farm Direct Bouquet of 12 Fresh Cut Pink Roses with a Free Glass Vase	1	0	1	Expedited	Bernadette Burkhead	1149 LA ROSA RD			ARCADIA	CA	91007-6145	US		Happy Birthday Mom!  We love you!  Colleen & Chris From Colleen & Chris	false		
113-9264907-3909821	42395134975234	2020-10-06T15:58:20+00:00	2020-10-06T08:58:20-07:00	2020-10-06T19:02:36+00:00	2020-10-09T06:59:59+00:00	-3	lms6gt5vs1z8hnt@marketplace.amazon.com	Kale Blackshear	+1 602-671-6610 ext. 14833	ABSR005	Arabella Bouquets Fresh Cut Orange Spray Roses in a Free Designer Glass Vase	1	0	1	Expedited	Janice Johnson	15 HALTER CT			COVINGTON	GA	30016-6507	US			false		
114-8676259-7569863	65404783071938	2020-10-06T18:34:05+00:00	2020-10-06T11:34:05-07:00	2020-10-06T19:04:07+00:00	2020-10-09T06:59:59+00:00	-3	rnj1s4xddsd9sty@marketplace.amazon.com	Alexia Terry		ABR012	Delivery by Friday | Arabella Farm Direct Bouquet of 18 Fresh Cut Pink Roses with a Free Glass Vase	1	0	1	Standard	Alexia Terry	104 N Tennessee St			CROSSETT	AR	71635	US			false		
114-7199739-4041844	37556095291866	2020-10-06T19:07:49+00:00	2020-10-06T12:07:49-07:00	2020-10-06T19:25:15+00:00	2020-10-09T06:59:59+00:00	-3	pmwkm3j3gdwwh5k@marketplace.amazon.com	Marie Elliott	+1 480-618-5344 ext. 99887	ABR0033	Delivery by Friday | Arabella Farm Direct Bouquet of 12 Fresh Cut Orange Roses with a Free Glass Vase	1	0	1	Expedited	Kevin and Alicia Gill	13814 SHAVANO GLENN			SAN ANTONIO	TX	78230-5818	US		Kevin and Alicia, Merlin was loved and had a wonderful life with you.   I love you both, Mom	false		
111-2800087-1245021	52844393182618	2020-10-06T19:29:06+00:00	2020-10-06T12:29:06-07:00	2020-10-06T19:52:41+00:00	2020-10-08T06:59:59+00:00	-2	r5f9yqp828kms6n@marketplace.amazon.com	Hema Srini	+1 602-671-6610 ext. 89262	ABM022	Delivery by Friday | Purple Extravagance Bouquet by Arabella Bouquets	1	0	1	SecondDay	Laura Arguija	25005 HENDON ST			LAGUNA HILLS	CA	92653-4628	US		Dear Laura, Thank you for your timely & divine help. Kids' admissions in their Indian school is confirmed, we are beyond thrilled! THANK YOU FOR BEING AMAZING as always. We are grateful and indebted to you FOREVER! Miss You From Love Hema	false		
111-2104164-3021063	08783131422858	2020-10-06T19:28:07+00:00	2020-10-06T12:28:07-07:00	2020-10-06T19:55:45+00:00	2020-10-08T06:59:59+00:00	-2	rkbw57frrngy7d4@marketplace.amazon.com	Christopher E Baldridge	+1 480-618-5344 ext. 32893	ABR0022	Delivery by Friday | Arabella Farm Direct Bouquet of 12 Fresh Cut Pink Roses with a Free Glass Vase	1	0	1	SecondDay	Brittney Baldridge	5280 NIAGARA LN N			MINNEAPOLIS	MN	55446-4597	US		Carrying your hearts with me. From Chris	false		
111-1280688-3484221	18660684363402	2020-10-06T19:42:30+00:00	2020-10-06T12:42:30-07:00	2020-10-06T20:07:36+00:00	2020-10-08T06:59:59+00:00	-2	3j142370dt9k5ty@marketplace.amazon.com	rhonda curtis	+1 602-671-6610 ext. 09042	ABR004	Delivery by Friday | Arabella Farm Direct Bouquet of 12 Fresh Cut Yellow Roses with a Free Glass Vase	1	0	1	SecondDay	RHONDA CURTIS-WHITE	644 NE BENT PADDLE LN			PORT ST LUCIE	FL	34983-3528	US		Happy Birthday! Yellow, orange roses  for a fall celebration :) From Arianna	false		
111-0466522-9771451	05612532674538	2020-10-06T19:39:53+00:00	2020-10-06T12:39:53-07:00	2020-10-06T20:08:07+00:00	2020-10-09T06:59:59+00:00	-3	3cbg171bst61wwx@marketplace.amazon.com	Alexis M. Orto	+1 602-671-6610 ext. 98981	ABM010	Delivery by Friday | The Spring Fling Bouquet by Arabella Bouquets with a Free Designer Glass Vase	1	0	1	Expedited	John Domutz	26251 HARDING ST			OAK PARK	MI	48237-1057	US			false		
113-4940684-5361863	11061216918762	2020-10-06T19:46:23+00:00	2020-10-06T12:46:23-07:00	2020-10-06T20:15:27+00:00	2020-10-08T06:59:59+00:00	-2	m8sbb4ryw604lwy@marketplace.amazon.com	stefani jacobsmeyer	+1 480-618-5344 ext. 90179	ABR0033	Delivery by Friday | Arabella Farm Direct Bouquet of 12 Fresh Cut Orange Roses with a Free Glass Vase	1	0	1	SecondDay	Kristen Frye	820 GROVE VALE DR			PROSPER	TX	75078-1555	US		Hi Friend! I know this week might be a tough one for you. I just wanted to tell you that you are SO loved. You are a wonderful mama and the BEST friend. I am so grateful S&C brought us together! From Your Work Wifey	false		
111-0229325-4747474	21650833862178	2020-10-06T20:11:39+00:00	2020-10-06T13:11:39-07:00	2020-10-06T20:37:31+00:00	2020-10-08T06:59:59+00:00	-2	snz8q7zvw41hc2t@marketplace.amazon.com	Claudia Pantaleao	+1 602-671-6610 ext. 76619	ABM021	Delivery by Friday | The Joyous Bouquet by Arabella Bouquets	1	0	1	SecondDay	Sonia Alonso	14839 SINGLE TRCE			AUSTIN	TX	78728-4333	US		Happy Birthday my dearest Sonia. You are beautiful as this bouquet and I hope it brings joy for your day. I wish I could give you a big and warm hug to say how much I admire you :) From Claudia Pantaleao	false		
113-8217929-7809868	32254931087778	2020-10-06T20:26:48+00:00	2020-10-06T13:26:48-07:00	2020-10-06T20:49:49+00:00	2020-10-08T06:59:59+00:00	-2	7r79vq83bg475tg@marketplace.amazon.com	teresa trovello	+1 415-851-9136 ext. 76708	ABR0033	Delivery by Friday | Arabella Farm Direct Bouquet of 12 Fresh Cut Orange Roses with a Free Glass Vase	1	0	1	SecondDay	Mrs marrietta pilasky	185 PEBBLE BEACH DR			MAYS LANDING	NJ	08330-5402	US		My condolences thinking  of you at this difficult time ❤️❤️ From teresa trovello and Alex Trovello xoxo	false		
113-5897674-0009853	52766597327874	2020-10-06T20:35:22+00:00	2020-10-06T13:35:22-07:00	2020-10-06T21:02:09+00:00	2020-10-09T06:59:59+00:00	-3	nqdlfhs2cm9rsj1@marketplace.amazon.com	Chee gong	+1 415-851-9136 ext. 58311	ABM022	Delivery by Friday | Purple Extravagance Bouquet by Arabella Bouquets	1	0	1	Expedited	Barbara Manaugh	BERKLEY EAST CONVALESCENT HOSPITAL	2021 ARIZONA AVE RM 314A		SANTA MONICA	CA	90404-1335	US		Dear Mom:  Happiest Birthday ever!  Hope your day is filled with joy, laughter and fun!  Sending you hugs and kisses! and happy birthday wishes! From All your family	false		
114-7205145-2101048	33089433741194	2020-10-06T20:52:22+00:00	2020-10-06T13:52:22-07:00	2020-10-06T21:22:28+00:00	2020-10-08T06:59:59+00:00	-2	ss15jrml0xjdjmw@marketplace.amazon.com	Joe BEAUMONT	+1 602-671-6610 ext. 23255	ABB001	Arabella Farm Direct Fresh Cut White Hydrangea	1	0	1	SecondDay	Christy Mark	5811 245th Place N.E.			Redmond	WA	98053	US			false		
