order-id	order-item-id	purchase-date	payments-date	reporting-date	promise-date	days-past-promise	buyer-email	buyer-name	buyer-phone-number	sku	product-name	quantity-purchased	quantity-shipped	quantity-to-ship	ship-service-level	recipient-name	ship-address-1	ship-address-2	ship-address-3	ship-city	ship-state	ship-postal-code	ship-country	gift-wrap-type	gift-message-text	is-business-order	purchase-order-number	price-designation
111-5005955-2312239	63278757561914	2020-10-06T18:17:05+00:00	2020-10-06T11:17:05-07:00	2020-10-06T18:17:59+00:00	2020-10-09T06:59:59+00:00	-2	k5v5654dy9gzm44@marketplace.amazon.com	Carol Reichman	+1 480-618-5344 ext. 27443	ABR012	Delivery by Friday | Arabella Farm Direct Bouquet of 18 Fresh Cut Pink Roses with a Free Glass Vase	1	0	1	Expedited	Julia Reichman	10636 BALLANTRAE DR			SAINT LOUIS	MO	63131-2831	US		Happy Sweet Sixteen, Beautiful Julia Rose! Enjoy every moment!  Miss you.   Love and kisses, Grandma and Papa Cookie	false		
113-3866410-8283429	43807487953314	2020-10-06T17:48:26+00:00	2020-10-06T10:48:26-07:00	2020-10-06T18:18:11+00:00	2020-10-09T06:59:59+00:00	-2	bwnhr2h7jwx58n5@marketplace.amazon.com	Robin Talley	+1 929-436-4790 ext. 60899	ABR0033	Arabella Farm Direct Bouquet of 12 Fresh Cut Orange Roses with a Free Glass Vase	1	0	1	Expedited	Mrs. Rachel Hayes	315 WAYSIDE RD			BASKERVILLE	VA	23915-1521	US			false		
111-2241943-9062645	00366654431258	2020-10-06T18:14:35+00:00	2020-10-06T11:14:35-07:00	2020-10-06T18:26:52+00:00	2020-10-09T06:59:59+00:00	-2	fz85756p6t78w1g@marketplace.amazon.com	candi caprio	+1 480-618-5344 ext. 09910	ABR013	Delivery by Friday | Arabella Farm Direct Bouquet of 18 Fresh Cut Yellow Roses with a Free Glass Vase	1	0	1	Expedited	Robin Maley	818 PENNSYLVANIA AVE			PINE BEACH	NJ	08741-1724	US		Robin My heart goes out to you and your family To brighter days  Love Candi From candi caprio	false		
114-0388720-3877815	49483234465586	2020-10-06T18:00:13+00:00	2020-10-06T11:00:13-07:00	2020-10-06T18:27:07+00:00	2020-10-09T06:59:59+00:00	-2	hynq11bw4w0v676@marketplace.amazon.com	Colleen	+1 929-436-4790 ext. 17491	ABR0022	Delivery by Friday | Arabella Farm Direct Bouquet of 12 Fresh Cut Pink Roses with a Free Glass Vase	1	0	1	Expedited	Bernadette Burkhead	1149 LA ROSA RD			ARCADIA	CA	91007-6145	US		Happy Birthday Mom!  We love you!  Colleen & Chris From Colleen & Chris	false		
113-9264907-3909821	42395134975234	2020-10-06T15:58:20+00:00	2020-10-06T08:58:20-07:00	2020-10-06T19:02:36+00:00	2020-10-09T06:59:59+00:00	-2	lms6gt5vs1z8hnt@marketplace.amazon.com	Kale Blackshear	+1 602-671-6610 ext. 14833	ABSR005	Arabella Bouquets Fresh Cut Orange Spray Roses in a Free Designer Glass Vase	1	0	1	Expedited	Janice Johnson	15 HALTER CT			COVINGTON	GA	30016-6507	US			false		
114-8676259-7569863	65404783071938	2020-10-06T18:34:05+00:00	2020-10-06T11:34:05-07:00	2020-10-06T19:04:07+00:00	2020-10-09T06:59:59+00:00	-2	rnj1s4xddsd9sty@marketplace.amazon.com	Alexia Terry		ABR012	Delivery by Friday | Arabella Farm Direct Bouquet of 18 Fresh Cut Pink Roses with a Free Glass Vase	1	0	1	Standard	Alexia Terry	104 N Tennessee St			CROSSETT	AR	71635	US			false		
114-7199739-4041844	37556095291866	2020-10-06T19:07:49+00:00	2020-10-06T12:07:49-07:00	2020-10-06T19:25:15+00:00	2020-10-09T06:59:59+00:00	-2	pmwkm3j3gdwwh5k@marketplace.amazon.com	Marie Elliott	+1 480-618-5344 ext. 99887	ABR0033	Delivery by Friday | Arabella Farm Direct Bouquet of 12 Fresh Cut Orange Roses with a Free Glass Vase	1	0	1	Expedited	Kevin and Alicia Gill	13814 SHAVANO GLENN			SAN ANTONIO	TX	78230-5818	US		Kevin and Alicia, Merlin was loved and had a wonderful life with you.   I love you both, Mom	false		
111-2800087-1245021	52844393182618	2020-10-06T19:29:06+00:00	2020-10-06T12:29:06-07:00	2020-10-06T19:52:41+00:00	2020-10-08T06:59:59+00:00	-1	r5f9yqp828kms6n@marketplace.amazon.com	Hema Srini	+1 602-671-6610 ext. 89262	ABM022	Delivery by Friday | Purple Extravagance Bouquet by Arabella Bouquets	1	0	1	SecondDay	Laura Arguija	25005 HENDON ST			LAGUNA HILLS	CA	92653-4628	US		Dear Laura, Thank you for your timely & divine help. Kids' admissions in their Indian school is confirmed, we are beyond thrilled! THANK YOU FOR BEING AMAZING as always. We are grateful and indebted to you FOREVER! Miss You From Love Hema	false		
111-2104164-3021063	08783131422858	2020-10-06T19:28:07+00:00	2020-10-06T12:28:07-07:00	2020-10-06T19:55:45+00:00	2020-10-08T06:59:59+00:00	-1	rkbw57frrngy7d4@marketplace.amazon.com	Christopher E Baldridge	+1 480-618-5344 ext. 32893	ABR0022	Delivery by Friday | Arabella Farm Direct Bouquet of 12 Fresh Cut Pink Roses with a Free Glass Vase	1	0	1	SecondDay	Brittney Baldridge	5280 NIAGARA LN N			MINNEAPOLIS	MN	55446-4597	US		Carrying your hearts with me. From Chris	false		
111-1280688-3484221	18660684363402	2020-10-06T19:42:30+00:00	2020-10-06T12:42:30-07:00	2020-10-06T20:07:36+00:00	2020-10-08T06:59:59+00:00	-1	3j142370dt9k5ty@marketplace.amazon.com	rhonda curtis	+1 602-671-6610 ext. 09042	ABR004	Delivery by Friday | Arabella Farm Direct Bouquet of 12 Fresh Cut Yellow Roses with a Free Glass Vase	1	0	1	SecondDay	RHONDA CURTIS-WHITE	644 NE BENT PADDLE LN			PORT ST LUCIE	FL	34983-3528	US		Happy Birthday! Yellow, orange roses  for a fall celebration :) From Arianna	false		
111-0466522-9771451	05612532674538	2020-10-06T19:39:53+00:00	2020-10-06T12:39:53-07:00	2020-10-06T20:08:07+00:00	2020-10-09T06:59:59+00:00	-2	3cbg171bst61wwx@marketplace.amazon.com	Alexis M. Orto	+1 602-671-6610 ext. 98981	ABM010	Delivery by Friday | The Spring Fling Bouquet by Arabella Bouquets with a Free Designer Glass Vase	1	0	1	Expedited	John Domutz	26251 HARDING ST			OAK PARK	MI	48237-1057	US			false		
113-4940684-5361863	11061216918762	2020-10-06T19:46:23+00:00	2020-10-06T12:46:23-07:00	2020-10-06T20:15:27+00:00	2020-10-08T06:59:59+00:00	-1	m8sbb4ryw604lwy@marketplace.amazon.com	stefani jacobsmeyer	+1 480-618-5344 ext. 90179	ABR0033	Delivery by Friday | Arabella Farm Direct Bouquet of 12 Fresh Cut Orange Roses with a Free Glass Vase	1	0	1	SecondDay	Kristen Frye	820 GROVE VALE DR			PROSPER	TX	75078-1555	US		Hi Friend! I know this week might be a tough one for you. I just wanted to tell you that you are SO loved. You are a wonderful mama and the BEST friend. I am so grateful S&C brought us together! From Your Work Wifey	false		
111-0229325-4747474	21650833862178	2020-10-06T20:11:39+00:00	2020-10-06T13:11:39-07:00	2020-10-06T20:37:31+00:00	2020-10-08T06:59:59+00:00	-1	snz8q7zvw41hc2t@marketplace.amazon.com	Claudia Pantaleao	+1 602-671-6610 ext. 76619	ABM021	Delivery by Friday | The Joyous Bouquet by Arabella Bouquets	1	0	1	SecondDay	Sonia Alonso	14839 SINGLE TRCE			AUSTIN	TX	78728-4333	US		Happy Birthday my dearest Sonia. You are beautiful as this bouquet and I hope it brings joy for your day. I wish I could give you a big and warm hug to say how much I admire you :) From Claudia Pantaleao	false		
113-8217929-7809868	32254931087778	2020-10-06T20:26:48+00:00	2020-10-06T13:26:48-07:00	2020-10-06T20:49:49+00:00	2020-10-08T06:59:59+00:00	-1	7r79vq83bg475tg@marketplace.amazon.com	teresa trovello	+1 415-851-9136 ext. 76708	ABR0033	Delivery by Friday | Arabella Farm Direct Bouquet of 12 Fresh Cut Orange Roses with a Free Glass Vase	1	0	1	SecondDay	Mrs marrietta pilasky	185 PEBBLE BEACH DR			MAYS LANDING	NJ	08330-5402	US		My condolences thinking  of you at this difficult time ❤️❤️ From teresa trovello and Alex Trovello xoxo	false		
113-5897674-0009853	52766597327874	2020-10-06T20:35:22+00:00	2020-10-06T13:35:22-07:00	2020-10-06T21:02:09+00:00	2020-10-09T06:59:59+00:00	-2	nqdlfhs2cm9rsj1@marketplace.amazon.com	Chee gong	+1 415-851-9136 ext. 58311	ABM022	Delivery by Friday | Purple Extravagance Bouquet by Arabella Bouquets	1	0	1	Expedited	Barbara Manaugh	BERKLEY EAST CONVALESCENT HOSPITAL	2021 ARIZONA AVE RM 314A		SANTA MONICA	CA	90404-1335	US		Dear Mom:  Happiest Birthday ever!  Hope your day is filled with joy, laughter and fun!  Sending you hugs and kisses! and happy birthday wishes! From All your family	false		
114-7205145-2101048	33089433741194	2020-10-06T20:52:22+00:00	2020-10-06T13:52:22-07:00	2020-10-06T21:22:28+00:00	2020-10-08T06:59:59+00:00	-1	ss15jrml0xjdjmw@marketplace.amazon.com	Joe BEAUMONT	+1 602-671-6610 ext. 23255	ABB001	Arabella Farm Direct Fresh Cut White Hydrangea	1	0	1	SecondDay	Christy Mark	5811 245th Place N.E.			Redmond	WA	98053	US			false		
114-5848574-8805068	12306368582050	2020-10-06T21:37:53+00:00	2020-10-06T14:37:53-07:00	2020-10-06T22:04:32+00:00	2020-10-08T06:59:59+00:00	-1	vvty1znq58hg44k@marketplace.amazon.com	Monique	+1 415-851-9136 ext. 11994	ABR0022	Delivery by Friday | Arabella Farm Direct Bouquet of 12 Fresh Cut Pink Roses with a Free Glass Vase	1	0	1	SecondDay	Mother Ruthie Newell	9007 S CLYDE AVE			CHICAGO	IL	60617-3708	US		Get well soon! Love you much! From Preacher Monique and Mother Cora	false		
114-2164572-1909003	38031914222154	2020-10-06T21:34:53+00:00	2020-10-06T14:34:53-07:00	2020-10-06T22:05:18+00:00	2020-10-09T06:59:59+00:00	-2	hfy284s3v47qmtp@marketplace.amazon.com	Chris Jones	+1 602-671-6610 ext. 29489	ABR0022	Delivery by Friday | Arabella Farm Direct Bouquet of 12 Fresh Cut Pink Roses with a Free Glass Vase	1	0	1	Expedited	Dyonne  Milbrandt	18272 BLUE HERON POINTE DR			NORTHVILLE	MI	48168-9259	US			false		
114-0623981-7802649	33141395453090	2020-10-06T21:50:48+00:00	2020-10-06T14:50:48-07:00	2020-10-06T22:19:42+00:00	2020-10-09T06:59:59+00:00	-2	gk9cbjb0m4b8110@marketplace.amazon.com	Shahara'Tova Dente	+1 480-618-5344 ext. 03005	ABR0022	Delivery by Friday | Arabella Farm Direct Bouquet of 12 Fresh Cut Pink Roses with a Free Glass Vase	1	0	1	Expedited	Kenya Brown	139 CYPRESS RD			BYRAM	MS	39272-6050	US		Sending you and the family all my prayers and love! Here for you always! From Shahara'Tova Dente	false		
111-4108159-0383465	06283540183290	2020-10-06T21:54:56+00:00	2020-10-06T14:54:56-07:00	2020-10-06T22:20:02+00:00	2020-10-08T06:59:59+00:00	-1	xvp87yrqcd0rxhw@marketplace.amazon.com	Ryan Belanger	+1 602-671-6610 ext. 36147	ABR0055	Delivery by Friday | Arabella Farm Direct Bouquet of 12 Stems of Fresh Cut Hot Pink Roses in a Free Designer Glass Vase	1	0	1	SecondDay	Jennifer Cray	95 HOLLY LN			PORTSMOUTH	NH	03801-4723	US		because we love you!!! From Legal Ladies and Chris	false		
114-5812111-8536221	05750156225578	2020-10-06T22:24:49+00:00	2020-10-06T15:24:49-07:00	2020-10-06T22:25:46+00:00	2020-10-08T06:59:59+00:00	-1	cq47w6fmpjzrtyd@marketplace.amazon.com	Kathy	+1 602-671-6610 ext. 16837	ABR004	Delivery by Friday | Arabella Farm Direct Bouquet of 12 Fresh Cut Yellow Roses with a Free Glass Vase	1	0	1	SecondDay	Jenny Wade	5200 FM 715			MIDLAND	TX	79706-6540	US		I love you very much! Hope this Brightens your day! From Kathy W McKay	false		
114-4636969-2375429	19609884976586	2020-10-06T21:59:31+00:00	2020-10-06T14:59:31-07:00	2020-10-06T22:27:23+00:00	2020-10-09T06:59:59+00:00	-2	29xxmnwz2x7js2c@marketplace.amazon.com	D	+1 602-671-6610 ext. 82241	ABM010	Delivery by Friday | The Spring Fling Bouquet by Arabella Bouquets with a Free Designer Glass Vase	1	0	1	Expedited	Lora West	1520 DAISY LN			NEW BRAUNFELS	TX	78130-7737	US		Happy birthday my bestest friend! I love you and wished I could spend the day with you! I miss you and hope your day is beyond amazing! From Terri	false		
114-9105571-9100205	29691563998250	2020-10-06T22:20:37+00:00	2020-10-06T15:20:37-07:00	2020-10-06T22:43:14+00:00	2020-10-08T06:59:59+00:00	-1	dyw8jn5t9xrfr6v@marketplace.amazon.com	crystal perry	+1 929-436-4790 ext. 23804	ABM0044	Arabella Farm Direct Bouquet of Fresh Cut Blue Hydrangea with a Free Glass Vase	1	0	1	SecondDay	The Bond Family	480 HOLLY SPRINGS CHURCH RD			INMAN	SC	29349-7986	US		In Loving Memory of Janet’s Birthday. We love y’all. From Manly and family.	false		
111-8455885-4456253	04186837601578	2020-10-06T22:57:29+00:00	2020-10-06T15:57:29-07:00	2020-10-06T23:26:36+00:00	2020-10-08T06:59:59+00:00	-1	kdd5v3xk6n66b7z@marketplace.amazon.com	Lori Miller	+1 602-671-6610 ext. 66923	ABM010	Delivery by Friday | The Spring Fling Bouquet by Arabella Bouquets with a Free Designer Glass Vase	1	0	1	SecondDay	Julie Devlin	5719 WATERWALK CT			RICHMOND	TX	77469-7352	US		Happy HaPpY 50th Birthday, Julie!  We hope you day is filled with much love, lots of fun, and cake...lots of cake:)!  We love you, The Miller Clan From Lori Miller	false		
112-9602079-0003421	49421098650778	2020-10-06T23:03:53+00:00	2020-10-06T16:03:53-07:00	2020-10-06T23:33:07+00:00	2020-10-08T06:59:59+00:00	-1	4bjb3nth34sxm3p@marketplace.amazon.com	Frederick T Ducey	+1 929-436-4790 ext. 31591	ABM021	Delivery by Friday | The Joyous Bouquet by Arabella Bouquets	1	0	1	SecondDay	Frederick Ducey	11 MONTVIEW RD			SUMMIT	NJ	07901-4303	US		To the best wife a man could ever have. Babe!  I love you babe! From Frederick T Ducey	false		
112-8112536-0661810	63415643057706	2020-10-06T23:28:42+00:00	2020-10-06T16:28:42-07:00	2020-10-06T23:53:19+00:00	2020-10-08T06:59:59+00:00	-1	zzlfrw74lnqbd0t@marketplace.amazon.com	Martina Tassius	+1 480-618-5344 ext. 87589	ABR0022	Delivery by Friday | Arabella Farm Direct Bouquet of 12 Fresh Cut Pink Roses with a Free Glass Vase	1	0	1	SecondDay	Tamara Zetsche	7810 BECKETT ST			SUNLAND	CA	91040-3302	US		Liebe Tamara, ich wollte dir eine kleine Freude machen, und dir ein wenig Liebe zukommen lassen, bleib tapfer und lass dich nicht unterkriegen !!! From Martina Tassius	false		
113-2327534-4111443	69939045909538	2020-10-06T23:34:08+00:00	2020-10-06T16:34:08-07:00	2020-10-06T23:56:30+00:00	2020-10-08T06:59:59+00:00	-1	5gpklnj57z4fnxj@marketplace.amazon.com	Ann Territo	+1 602-671-6610 ext. 90542	ABR0055	Delivery by Friday | Arabella Farm Direct Bouquet of 12 Stems of Fresh Cut Hot Pink Roses in a Free Designer Glass Vase	1	0	1	SecondDay	Robin Pomazal	OAK CONDOMINIUMS 6237 TRINITY DR			LISLE	IL	60532-2844	US		Robin, We hope these flowers brighten your day. Better days are ahead.  We love you. From Ann  & Dean Territo	false		
113-9745914-5900258	41406760444690	2020-10-06T23:49:58+00:00	2020-10-06T16:49:58-07:00	2020-10-07T00:06:27+00:00	2020-10-08T06:59:59+00:00	-1	43gs9clz621zp3c@marketplace.amazon.com	Jean Martineau Noel	+1 929-436-4790 ext. 83270	ABR001	Delivery by Friday | Arabella Bouquets 12 Stems of Fresh Cut Red Roses in a Free Designer Glass Vase	1	0	1	SecondDay	Sophonia Stephie Deronneth	2511 LUTHER RD			PUNTA GORDA	FL	33983-2646	US		To My Girlfriend Meeting you was fate Becoming your boyfriend was a choice But falling in love with you was beyon my control. You are my best friend My human diary  I love you From Jean Martineau Noel	false		
114-8047194-4498662	11348693151194	2020-10-06T23:54:02+00:00	2020-10-06T16:54:02-07:00	2020-10-07T00:22:04+00:00	2020-10-08T06:59:59+00:00	-1	nfwthh8qlxstxft@marketplace.amazon.com	Margaret Bancroft	+1 602-671-6610 ext. 85446	ABR004	Delivery by Friday | Arabella Farm Direct Bouquet of 12 Fresh Cut Yellow Roses with a Free Glass Vase	1	0	1	SecondDay	Bre Junker	23915 CLEARMONT CT			VALENCIA	CA	91354-2617	US		Thank you for so many very special outfits. You are so talented and I am glad you are enjoying creating things that are so special to others. Love you! From Emily	false		
111-8371859-0196257	59313337503666	2020-10-07T00:02:03+00:00	2020-10-06T17:02:03-07:00	2020-10-07T00:32:07+00:00	2020-10-09T06:59:59+00:00	-2	5n3977bkphjm9vm@marketplace.amazon.com	paul duke	+1 602-671-6610 ext. 01634	ABM023	Delivery by Friday | The Morning Sun Bouquet by Arabella Bouquets	1	0	1	Expedited	Denise Laprade	16 COUNTRY WAY			NORTH SMITHFIELD	RI	02896-7901	US			false		
113-6902474-7000222	57586892031562	2020-10-07T00:30:57+00:00	2020-10-06T17:30:57-07:00	2020-10-07T00:57:36+00:00	2020-10-08T06:59:59+00:00	-1	pc8rty8czbzsf15@marketplace.amazon.com	Anne  Stephenson	+1 602-671-6610 ext. 32318	ABR004	Delivery by Friday | Arabella Farm Direct Bouquet of 12 Fresh Cut Yellow Roses with a Free Glass Vase	1	0	1	SecondDay	Peter Stephenson	587 Ashbury Dr			Aiken	SC	29803-3725	US		To Mom, Something to brighten your day. Love,   Mark, Anne, Neil, and Owen (and Pumpkin) From Mark Stephenson	false		
112-5754777-4510617	16739823965938	2020-10-07T01:08:56+00:00	2020-10-06T18:08:56-07:00	2020-10-07T01:25:19+00:00	2020-10-08T06:59:59+00:00	-1	pc8ql2466jv0fcb@marketplace.amazon.com	Colleen	+1 415-851-9136 ext. 38585	ABR0022	Delivery by Friday | Arabella Farm Direct Bouquet of 12 Fresh Cut Pink Roses with a Free Glass Vase	1	0	1	SecondDay	CAROL SCALA	525 KENTUCKY AVE			MONROEVILLE	PA	15146-3930	US		Happy Birthday my Precious Sister! I love you so very much :)  Have a most beautiful day XOXOXOX From Colleen and Brian	false		
114-3700484-0263445	43008021269642	2020-10-07T01:17:29+00:00	2020-10-06T18:17:29-07:00	2020-10-07T01:35:27+00:00	2020-10-09T06:59:59+00:00	-2	jfp31k7h4tsgd8s@marketplace.amazon.com	Angella Dixon	+1 602-671-6610 ext. 32426	ABR0055	Delivery by Friday | Arabella Farm Direct Bouquet of 12 Stems of Fresh Cut Hot Pink Roses in a Free Designer Glass Vase	1	0	1	Expedited	Tiffani Kopa	1005 HALIDON WAY			FOLSOM	CA	95630-8537	US			false		
113-7943578-8753854	48983867743306	2020-10-07T01:14:40+00:00	2020-10-06T18:14:40-07:00	2020-10-07T01:42:55+00:00	2020-10-08T06:59:59+00:00	-1	sd7m19xn29x087g@marketplace.amazon.com	Matt	+1 480-618-5344 ext. 17892	ABM022	Delivery by Friday | Purple Extravagance Bouquet by Arabella Bouquets	1	0	1	SecondDay	Morgan Chism	421 RIVER WAY DR			GREER	SC	29651-6876	US		So happy for y’all!! Love you! Hope these help you feel better :) From Sarah xoxo	false		
111-2923223-3754611	18774687872890	2020-10-07T01:20:36+00:00	2020-10-06T18:20:36-07:00	2020-10-07T01:50:17+00:00	2020-10-08T06:59:59+00:00	-1	gv0www4k85l0lc0@marketplace.amazon.com	BEVERLY A. SALLEY	+1 480-618-5344 ext. 04773	ABR0022	Delivery by Friday | Arabella Farm Direct Bouquet of 12 Fresh Cut Pink Roses with a Free Glass Vase	1	0	1	SecondDay	Yvonne Pratt	16567 SW Two Wood Way			Indiantown	FL	34956	US			false		
111-0353392-9539438	15480445406746	2020-10-07T01:34:59+00:00	2020-10-06T18:34:59-07:00	2020-10-07T02:04:32+00:00	2020-10-08T06:59:59+00:00	-1	pm1ylp9mb9mp5kg@marketplace.amazon.com	Jeffrey Bracco	+1 480-618-5344 ext. 11912	ABR0022	Delivery by Friday | Arabella Farm Direct Bouquet of 12 Fresh Cut Pink Roses with a Free Glass Vase	1	0	1	SecondDay	Kristen Algeri	4912 ASPEN ST			WEST MIFFLIN	PA	15122-1233	US			false		
113-6841060-9352258	18281240115706	2020-10-07T01:45:26+00:00	2020-10-06T18:45:26-07:00	2020-10-07T02:07:10+00:00	2020-10-08T06:59:59+00:00	-1	gn3lcny97wrp1zn@marketplace.amazon.com	christine marquez	+1 602-671-6610 ext. 41854	ABR0022	Delivery by Friday | Arabella Farm Direct Bouquet of 12 Fresh Cut Pink Roses with a Free Glass Vase	1	0	1	SecondDay	Rosario Maano	25 SMITH ST			METUCHEN	NJ	08840-1732	US		Wishing you a very happy birthday Tita/Ninang Rosie! Love lots, Cherry, John & JC From Cherry, John & JC Donohoe	false		
113-7376929-8427405	29367359574762	2020-10-07T01:47:12+00:00	2020-10-06T18:47:12-07:00	2020-10-07T02:17:10+00:00	2020-10-08T06:59:59+00:00	-1	p3v40ywmj72xvhy@marketplace.amazon.com	simona	+1 929-436-4790 ext. 23152	ABR0022	Delivery by Friday | Arabella Farm Direct Bouquet of 12 Fresh Cut Pink Roses with a Free Glass Vase	1	0	1	SecondDay	Tani Christina	3325 44TH AVE S			MINNEAPOLIS	MN	55406-2317	US			false		
114-7483486-5614651	65643673321322	2020-10-07T01:57:44+00:00	2020-10-06T18:57:44-07:00	2020-10-07T02:23:46+00:00	2020-10-09T06:59:59+00:00	-2	903s75k96ysqx2y@marketplace.amazon.com	Gerald A. Altilio	+1 480-618-5344 ext. 47646	ABR015	Delivery by Friday | Arabella Farm Direct Bouquet of 18 Fresh Cut Orange Roses with a Free Glass Vase	1	0	1	Expedited	Jennifer Kadavy	21810 DORCAS ST			ELKHORN	NE	68022-2878	US		Happy Anniversary From Love, Mom and Dad	false		
112-0687344-1201049	51984810332618	2020-10-07T01:57:41+00:00	2020-10-06T18:57:41-07:00	2020-10-07T02:27:21+00:00	2020-10-09T06:59:59+00:00	-2	jm16y52z0h7hh6p@marketplace.amazon.com	Abel Vasquez	+1 602-671-6610 ext. 92797	ABR0022	Delivery by Friday | Arabella Farm Direct Bouquet of 12 Fresh Cut Pink Roses with a Free Glass Vase	1	0	1	Expedited	Teresa Vasquez	18270 NW COUNTY ROAD 4160			FROST	TX	76641-3490	US			false		
113-5817982-1558658	61287300895466	2020-10-07T02:14:08+00:00	2020-10-06T19:14:08-07:00	2020-10-07T02:35:56+00:00	2020-10-09T06:59:59+00:00	-2	s7dpyblswbfqdgl@marketplace.amazon.com	Cheryl Stathakis	+1 480-618-5344 ext. 17000	ABM022	Delivery by Friday | Purple Extravagance Bouquet by Arabella Bouquets	1	0	1	Expedited	Amy & Tony Pierce	2752 HANCOCK CT			LINDENHURST	IL	60046-4948	US		Tony, Amy, Anthony, Amanda & Alexa: In Loving memory of BJ.   May these flowers remind you of our loving thoughts and prayers. From Love, Cheryl & Mike  Stathakis	false		
113-7930993-5141807	31493964959514	2020-10-07T02:14:49+00:00	2020-10-06T19:14:49-07:00	2020-10-07T02:40:26+00:00	2020-10-09T06:59:59+00:00	-2	flw8vvn1j3zhm0b@marketplace.amazon.com	bobby g burns	+1 480-618-5344 ext. 82758	ABR0055	Delivery by Friday | Arabella Farm Direct Bouquet of 12 Stems of Fresh Cut Hot Pink Roses in a Free Designer Glass Vase	1	0	1	Expedited	Brady Burns	5684 BAY ST APT 538			EMERYVILLE	CA	94608-2415	US		Happy Birthday Evy - Wish we could spend it with you!!!! From Bobby and Cheryl	false		
113-4217279-8897859	63252356996874	2020-10-07T02:18:53+00:00	2020-10-06T19:18:53-07:00	2020-10-07T02:46:04+00:00	2020-10-09T06:59:59+00:00	-2	xt5qzlrsdl7811f@marketplace.amazon.com	a b	+1 602-671-6610 ext. 19902	ABM010	Delivery by Friday | The Spring Fling Bouquet by Arabella Bouquets with a Free Designer Glass Vase	1	0	1	Expedited	I. Davis  c/o A. Brown	1655 Flatbush Ave	#A2107		Brooklyn	NY	11210	US			false		
113-4462191-9693046	11064383191154	2020-10-07T02:49:38+00:00	2020-10-06T19:49:38-07:00	2020-10-07T03:09:35+00:00	2020-10-09T06:59:59+00:00	-2	s7dpyblswbfqdgl@marketplace.amazon.com	Cheryl Stathakis	+1 602-671-6610 ext. 88499	ABSR004	Arabella Farm Direct Bouquet of Fresh Cut White Spray Roses with a Free Glass Vase	1	0	1	Expedited	Cindy Cowdrey	1145 GLENCREST DR			INVERNESS	IL	60010-5663	US		Cindy: We cant thank you enough for shopping with us so Melissa could say "Yes to the Dress". These small roses remind us of the little flowers on the dress. Cant wait for you to see it in person. From Melissa & Cheryl Stathakis	false		
112-4079337-1498615	15071986427738	2020-10-07T02:49:05+00:00	2020-10-06T19:49:05-07:00	2020-10-07T03:17:54+00:00	2020-10-08T06:59:59+00:00	-1	2wt4vms9pfmr22x@marketplace.amazon.com	Lisa	+1 480-618-5344 ext. 69427	ABM024	Delivery by Friday | The Beauty of Color Bouquet by Arabella Bouquets	1	0	1	SecondDay	Pauline Markman	7271 CREEKS BEND CT			WEST BLOOMFIELD	MI	48322-3523	US			false		
111-5342271-9481023	20282002440322	2020-10-07T03:14:53+00:00	2020-10-06T20:14:53-07:00	2020-10-07T03:44:27+00:00	2020-10-09T06:59:59+00:00	-2	hmvyzckhqln5d89@marketplace.amazon.com	Matthias Gahwiler	+1 602-671-6610 ext. 28353	ABR001	Delivery by Friday | Arabella Bouquets 12 Stems of Fresh Cut Red Roses in a Free Designer Glass Vase	1	0	1	Expedited	Matthias Gahwiler	6130 SHEILA ST			COMMERCE	CA	90040-2407	US			false		
112-5325938-4742608	13902472012866	2020-10-07T03:23:21+00:00	2020-10-06T20:23:21-07:00	2020-10-07T03:50:34+00:00	2020-10-08T06:59:59+00:00	-1	cq2q0rpkh23zpw2@marketplace.amazon.com	Farhad Soltanshahi	+1 480-618-5344 ext. 79245	ABR0022	Delivery by Friday | Arabella Farm Direct Bouquet of 12 Fresh Cut Pink Roses with a Free Glass Vase	1	0	1	SecondDay	Nickisa Hodgson	107 COLUMBIA HTS APT 6M			BROOKLYN	NY	11201-7334	US		Happy 1st Birthday Darya Joon!!! Lots of love! Hamideh and Farhad From Hamideh Zakeri	false		
113-0334279-9429031	55149845454258	2020-10-07T03:31:37+00:00	2020-10-06T20:31:37-07:00	2020-10-07T03:51:37+00:00	2020-10-09T06:59:59+00:00	-2	lnttm32jqhstkkl@marketplace.amazon.com	Patricia	+1 602-671-6610 ext. 56940	ABR0022	Delivery by Friday | Arabella Farm Direct Bouquet of 12 Fresh Cut Pink Roses with a Free Glass Vase	1	0	1	Expedited	Anna Wilkins	44 LEXINGTON AVE			MONTCLAIR	NJ	07042-4502	US		Happy Birthday.. Enjoy your gift! Love you Mom ❤️ From Craig and Patricia	false		
114-5596421-8033848	32352514044490	2020-10-07T04:07:12+00:00	2020-10-06T21:07:12-07:00	2020-10-07T04:28:34+00:00	2020-10-08T06:59:59+00:00	-1	cg0lspbv7n2shgd@marketplace.amazon.com	Paul smith	+1 602-671-6610 ext. 94710	ABR0022	Delivery by Friday | Arabella Farm Direct Bouquet of 12 Fresh Cut Pink Roses with a Free Glass Vase	1	0	1	SecondDay	Paul smith	28480 RED GUM DR			LAKE ELSINORE	CA	92532-2081	US			false		
111-9830490-7579444	33667815213626	2020-10-07T04:13:55+00:00	2020-10-06T21:13:55-07:00	2020-10-07T04:39:01+00:00	2020-10-08T06:59:59+00:00	-1	845cd614sqhsd0r@marketplace.amazon.com	David Neylon	+1 602-671-6610 ext. 72334	ABR0022	Delivery by Friday | Arabella Farm Direct Bouquet of 12 Fresh Cut Pink Roses with a Free Glass Vase	1	0	1	SecondDay	Maureen Moreno	5238 FREEPORT DR			SPRING HILL	FL	34606-1303	US			false		
114-7972566-7949845	69506322225282	2020-10-07T04:56:07+00:00	2020-10-06T21:56:07-07:00	2020-10-07T05:25:14+00:00	2020-10-08T06:59:59+00:00	-1	sgx5xx7fgc5b7f7@marketplace.amazon.com	sydney valentino	+1 415-851-9136 ext. 43705	ABM022	Delivery by Friday | Purple Extravagance Bouquet by Arabella Bouquets	1	0	1	SecondDay	Cindy valentino	15 CRESCENT ST			SALEM	NH	03079-2205	US		I am so sorry for your loss. I am thinking about you. Sorry I couldn't be there. From Love Syd	false		
114-0954173-5783431	39716684435634	2020-10-07T05:23:05+00:00	2020-10-06T22:23:05-07:00	2020-10-07T05:26:13+00:00	2020-10-08T06:59:59+00:00	-1	9jsb6bhshxx2kyt@marketplace.amazon.com	Eduardo Garcia	+1 480-618-5344 ext. 35108	ABR0022	Delivery by Friday | Arabella Farm Direct Bouquet of 12 Fresh Cut Pink Roses with a Free Glass Vase	1	0	1	SecondDay	Aylin	4767 E ALAMOS AVE APT 106			FRESNO	CA	93726-1472	US		Happy Birthday! I hope you have a great day chula! Hopefully this small detalle makes it a little more special. Espero que te guste! From Eddie	false		
112-2177493-3547422	11376436255266	2020-10-07T05:10:12+00:00	2020-10-06T22:10:12-07:00	2020-10-07T05:38:30+00:00	2020-10-09T06:59:59+00:00	-2	sjrwb7860yr82jq@marketplace.amazon.com	RenYicheng	+1 480-618-5344 ext. 46437	ABR0022	Delivery by Friday | Arabella Farm Direct Bouquet of 12 Fresh Cut Pink Roses with a Free Glass Vase	1	0	1	Expedited	Sendy Lin	100 COPPERLINE DR APT J			CHAPEL HILL	NC	27516-0409	US			false		
111-1770147-3099469	03040240333122	2020-10-07T05:17:59+00:00	2020-10-06T22:17:59-07:00	2020-10-07T05:46:55+00:00	2020-10-08T06:59:59+00:00	-1	w90jtvz9mnbtcvm@marketplace.amazon.com	Wesley Van Fossan	+1 480-618-5344 ext. 05555	ABR0055	Delivery by Friday | Arabella Farm Direct Bouquet of 12 Stems of Fresh Cut Hot Pink Roses in a Free Designer Glass Vase	1	0	1	SecondDay	wesley Van Fossan	**BREEZEWOOD AMAZON HUB AT VALENTIA APARTMENTS*****	951 S BEACH BLVD UNIT J1083		LA HABRA	CA	90631-1688	US		Sending our condolences,  may our dear Jessica rest in heaven and heal with God.  We love you all very much From The Van Fossans	false		
113-7234406-5868234	62072625984202	2020-10-07T05:23:08+00:00	2020-10-06T22:23:08-07:00	2020-10-07T05:48:36+00:00	2020-10-08T06:59:59+00:00	-1	q6lbgfztycj3bwl@marketplace.amazon.com	Megan McCrillis	+1 480-618-5344 ext. 73396	ABM020	Delivery by Friday | The Sunset Bouquet by Arabella Bouquets	1	0	1	SecondDay	Julie McCrillis	8260 TIDELAND WAY			CLINTON	WA	98236-8936	US		Wishing the happiest birthday to a much-loved mom and nana! We hope your day is filled with happiness and hugs (and cake)! From Love, Callahan, Lachlan, Erik & Megan	false		
114-4495948-8752206	42995616478594	2020-10-07T05:45:50+00:00	2020-10-06T22:45:50-07:00	2020-10-07T05:51:38+00:00	2020-10-08T06:59:59+00:00	-1	p7l095pgvndbzq3@marketplace.amazon.com	abena kankam	+1 929-436-4790 ext. 91481	ABR0066	Delivery by Friday | Arabella Bouquets 12 Stems of Fresh Cut White Roses in a Free Designer Glass Vase	1	0	1	SecondDay	Isaac Ampofo	9 saddle lane			Vernon	Connecticut	06066	US			false		
111-8522956-4243465	42110261765394	2020-10-07T05:50:07+00:00	2020-10-06T22:50:07-07:00	2020-10-07T06:15:25+00:00	2020-10-09T06:59:59+00:00	-2	klzr34ryy6kv4qg@marketplace.amazon.com	brandi	+1 602-671-6610 ext. 56011	ABR0022	Delivery by Friday | Arabella Farm Direct Bouquet of 12 Fresh Cut Pink Roses with a Free Glass Vase	1	0	1	Expedited	Jennifer	806 SOLANO CIR			MEDFORD	OR	97504-8687	US		I love you! I’m there even though I’m not ❤️ From Brandi	false		
114-9619243-7005026	28880045285298	2020-10-07T05:59:44+00:00	2020-10-06T22:59:44-07:00	2020-10-07T06:17:25+00:00	2020-10-09T06:59:59+00:00	-2	t173xyfc41v6z9l@marketplace.amazon.com	Darren	+1 415-851-9136 ext. 14524	ABR0022	Delivery by Friday | Arabella Farm Direct Bouquet of 12 Fresh Cut Pink Roses with a Free Glass Vase	1	0	1	Expedited	Mayte	912 MAGOFFIN AVE			EL PASO	TX	79901-1520	US		You are my love, Honey From Darren	false		
114-0398579-1879456	17263658100426	2020-10-07T07:44:16+00:00	2020-10-07T00:44:16-07:00	2020-10-07T08:13:15+00:00	2020-10-08T06:59:59+00:00	-1	38svfykzlsfh1zl@marketplace.amazon.com	Nicole Allen	+1 602-671-6610 ext. 69558	ABM002	Delivery by Friday | Arabella Bouquets Fresh Cut White Calla Lilies in a Free Designer Glass Vase	1	0	1	SecondDay	Dawne Morgan	405 W BRIDGE ST			PLAINWELL	MI	49080-1552	US		Happy Birthday Mom!! You are LOVED beyond measure!! From Canoli Lynn	false		
113-9047984-2372248	22496573113410	2020-10-07T08:08:45+00:00	2020-10-07T01:08:45-07:00	2020-10-07T08:39:18+00:00	2020-10-10T06:59:59+00:00	-3	4dvhsvbtvyh09h7@marketplace.amazon.com	Michael Beard	+1 602-671-6610 ext. 41923	ABR0066	Delivery by Friday | Arabella Bouquets 12 Stems of Fresh Cut White Roses in a Free Designer Glass Vase	1	0	1	Expedited	Michael Beard	BANGOR SUBMARINE BASE	2650 OHIO ST UNIT 6143		SILVERDALE	WA	98315-3408	US			false		
114-5240152-0213869	54927109207882	2020-10-07T10:28:01+00:00	2020-10-07T03:28:01-07:00	2020-10-07T10:52:56+00:00	2020-10-08T06:59:59+00:00	-1	n6v5jdrpskk5k25@marketplace.amazon.com	Ronald Rancourt	+1 602-671-6610 ext. 76768	ABR012	Delivery by Friday | Arabella Farm Direct Bouquet of 18 Fresh Cut Pink Roses with a Free Glass Vase	1	0	1	SecondDay	Samantha Rancourt	84 WISWALL RD			DURHAM	NH	03824-4421	US		Sam, We are so sorry for your loss. Love, Mom and Dad R. From Rosemary Rancourt	false		
112-7351295-8561834	29086237453218	2020-10-07T11:33:41+00:00	2020-10-07T04:33:41-07:00	2020-10-07T12:03:08+00:00	2020-10-08T06:59:59+00:00	-1	982vtgjc49l8c0s@marketplace.amazon.com	Muhammad Irfan Butt	+1 929-436-4790 ext. 09780	ABR001	Delivery by Friday | Arabella Bouquets 12 Stems of Fresh Cut Red Roses in a Free Designer Glass Vase	1	0	1	SecondDay	Farah Irfan	11 WILDBERRY DR			MOUNT HOLLY	NJ	08060-5675	US			false		
113-7206225-1070662	55555775576642	2020-10-07T11:51:52+00:00	2020-10-07T04:51:52-07:00	2020-10-07T12:21:05+00:00	2020-10-08T06:59:59+00:00	-1	10d3070gx2z8tws@marketplace.amazon.com	Ed Fernandez	+1 602-671-6610 ext. 32513	ABR001	Delivery by Friday | Arabella Bouquets 12 Stems of Fresh Cut Red Roses in a Free Designer Glass Vase	1	0	1	SecondDay	Eduardo Fernandez	3327 SEVEN SPRINGS BLVD			NEW PORT RICHEY	FL	34655-3136	US		Happy Birthday! Love you Always From Love, yayo	false		
114-9757405-4537842	19761901260874	2020-10-07T12:03:54+00:00	2020-10-07T05:03:54-07:00	2020-10-07T12:29:09+00:00	2020-10-08T06:59:59+00:00	-1	8nk9qlwpp85p65r@marketplace.amazon.com	Alan Yu	+1 415-851-9136 ext. 85768	ABM002	Delivery by Friday | Arabella Bouquets Fresh Cut White Calla Lilies in a Free Designer Glass Vase	1	0	1	SecondDay	Alan Yu	112 CINNAMON CT			MELVILLE	NY	11747-8710	US			false		
111-3616849-6736226	08067006857994	2020-10-07T12:36:29+00:00	2020-10-07T05:36:29-07:00	2020-10-07T13:03:26+00:00	2020-10-08T06:59:59+00:00	-1	vqbn9jybsnnj4r4@marketplace.amazon.com	Jean Lewis	+1 929-436-4790 ext. 57302	ABR0022	Delivery by Friday | Arabella Farm Direct Bouquet of 12 Fresh Cut Pink Roses with a Free Glass Vase	1	0	1	SecondDay	Jamie Mead	27 VISTA TRAMONTO			NEWPORT COAST	CA	92657-1402	US		Happy Birthday Jamie From lots of love from Jean & Anthony xx	false		
113-8105777-3489814	32367609800418	2020-10-07T13:23:19+00:00	2020-10-07T06:23:19-07:00	2020-10-07T13:52:04+00:00	2020-10-08T06:59:59+00:00	-1	llxrstqfzffqyb1@marketplace.amazon.com	Kara Hess	+1 415-851-9136 ext. 54268	ABM010	Delivery by Friday | The Spring Fling Bouquet by Arabella Bouquets with a Free Designer Glass Vase	1	0	1	SecondDay	Melissa Heisenfelt	14151 TERRITORIAL RD UNIT 126			MAPLE GROVE	MN	55369-5723	US		I thought you needed some extra sunshine. I hope this brightens your day!! Xo Kara From Kara Hess	false		
112-8960212-0560264	66994071817730	2020-10-07T13:30:04+00:00	2020-10-07T06:30:04-07:00	2020-10-07T13:56:01+00:00	2020-10-10T06:59:59+00:00	-3	8gwhy9thwtmknkj@marketplace.amazon.com	Frederick Barthelme	+1 480-618-5344 ext. 21858	ABR0022	Delivery by Friday | Arabella Farm Direct Bouquet of 12 Fresh Cut Pink Roses with a Free Glass Vase	1	0	1	Expedited	Trudy Stringer	101 N EUCLID AVE APT 4			OAK PARK	IL	60301-1430	US		Hope you have a good day! From Rie	false		
114-3429720-1872225	17791213296026	2020-10-07T13:44:37+00:00	2020-10-07T06:44:37-07:00	2020-10-07T14:12:33+00:00	2020-10-08T06:59:59+00:00	-1	fzl211gprh7ggfz@marketplace.amazon.com	karen leoncavallo	+1 929-436-4790 ext. 71620	ABM022	Delivery by Friday | Purple Extravagance Bouquet by Arabella Bouquets	1	0	1	SecondDay	erica leoncavallo	1834 9TH ST APT 1			SANTA MONICA	CA	90404-4552	US		Happy Birthday to a very awesome daughter who we are missing very much.  Wish we could be there with you........Love, From Richard and mommy	false		
112-2449133-2122641	39256545501506	2020-10-07T13:48:33+00:00	2020-10-07T06:48:33-07:00	2020-10-07T14:16:42+00:00	2020-10-08T06:59:59+00:00	-1	0r4lt0czj6x7qr5@marketplace.amazon.com	Marian Purcell	+1 415-851-9136 ext. 57910	ABM010	Delivery by Friday | The Spring Fling Bouquet by Arabella Bouquets with a Free Designer Glass Vase	1	0	1	SecondDay	Renata Paglianite	7690 WYLDWOOD WAY			PORT SAINT LUCIE	FL	34986-3008	US		Thank you for making my birthday so special! Thank you all for a relaxing trip we both needed. From Marian Purcell	false		
111-2624311-0275419	47667228282818	2020-10-07T13:48:39+00:00	2020-10-07T06:48:39-07:00	2020-10-07T14:17:57+00:00	2020-10-08T06:59:59+00:00	-1	1wmjd7jft31z3ph@marketplace.amazon.com	Jen	+1 602-671-6610 ext. 70250	ABR0022	Delivery by Friday | Arabella Farm Direct Bouquet of 12 Fresh Cut Pink Roses with a Free Glass Vase	1	0	1	SecondDay	Jenn Preach	23437 8TH ST			NEWHALL	CA	91321-2605	US		Happy birthday Jenn! I hope you have a great day momma! Love you!!!! From Jen Zev	false		
112-9636329-9198662	33612416037370	2020-10-07T14:00:45+00:00	2020-10-07T07:00:45-07:00	2020-10-07T14:22:29+00:00	2020-10-08T06:59:59+00:00	-1	r072hcydcbhw0bh@marketplace.amazon.com	LEE YORK	+1 415-851-9136 ext. 07644	ABM022	Delivery by Friday | Purple Extravagance Bouquet by Arabella Bouquets	1	0	1	SecondDay	Joan Weber	8203 TIS WELL DR			ALEXANDRIA	VA	22306-3249	US		Happy Birthday dear friend!  Love from both of us, Lee and Jeanie From Jeanie and Lee	false		
114-8839848-1990640	04688299420994	2020-10-07T14:33:45+00:00	2020-10-07T07:33:45-07:00	2020-10-07T14:34:43+00:00	2020-10-08T06:59:59+00:00	-1	m98kz9ljcggf6l3@marketplace.amazon.com	Carolyn	+1 929-436-4790 ext. 91000	ABM022	Delivery by Friday | Purple Extravagance Bouquet by Arabella Bouquets	1	0	1	SecondDay	Lynette Keteyian	48884 GARDEN LN			CANTON	MI	48188-3523	US		Lynette, we are so grateful for all of the work and time that you have put in to make the wedding in Tawas amazing. Thank you for patience, grace, and creativity! From Carly & Phyllis	false		
114-3798867-5253022	19388302925026	2020-10-07T14:13:58+00:00	2020-10-07T07:13:58-07:00	2020-10-07T14:43:41+00:00	2020-10-10T06:59:59+00:00	-3	96zbkcv8hnnwc1v@marketplace.amazon.com	Joe Carlo	+1 602-671-6610 ext. 91780	ABR0022	Delivery by Friday | Arabella Farm Direct Bouquet of 12 Fresh Cut Pink Roses with a Free Glass Vase	1	0	1	Expedited	Helen Gibbons	1571 GOLDSPIRE RD			TOMS RIVER	NJ	08755-0888	US		Happy Birthday Mom! From Joanne, Mike, Joey and Tyler	false		
114-0237701-4749064	50644432653602	2020-10-07T14:15:35+00:00	2020-10-07T07:15:35-07:00	2020-10-07T14:45:13+00:00	2020-10-08T06:59:59+00:00	-1	kq4z1tqy5zqs56w@marketplace.amazon.com	Tammi	+1 415-851-9136 ext. 28820	ABR0055	Delivery by Friday | Arabella Farm Direct Bouquet of 12 Stems of Fresh Cut Hot Pink Roses in a Free Designer Glass Vase	1	0	1	SecondDay	Eula Bea Boatwright (Encompass Health Rehab)	95 MEDICAL PARK BLVD			PETERSBURG	VA	23805-9280	US			false		
113-2244823-0964257	11196395825610	2020-10-07T14:17:36+00:00	2020-10-07T07:17:36-07:00	2020-10-07T14:46:59+00:00	2020-10-08T06:59:59+00:00	-1	dqmtvl7gj977c28@marketplace.amazon.com	Joseph M Bisognani	+1 929-436-4790 ext. 88326	ABM022	Delivery by Friday | Purple Extravagance Bouquet by Arabella Bouquets	1	0	1	SecondDay	Lisa Cottle	14231 WILD TIMBER CT			ESTERO	FL	33928-2041	US		Happy Birthday Rayline! Love, Michelle, Joe, Annabelle, and Natalie From Joseph M Bisognani	false		
113-7534075-8910663	11272879833586	2020-10-07T14:18:12+00:00	2020-10-07T07:18:12-07:00	2020-10-07T14:48:24+00:00	2020-10-08T06:59:59+00:00	-1	9lgq732vx2zx6sq@marketplace.amazon.com	Nancy L. Reilly	+1 602-671-6610 ext. 73293	ABR0055	Delivery by Friday | Arabella Farm Direct Bouquet of 12 Stems of Fresh Cut Hot Pink Roses in a Free Designer Glass Vase	1	0	1	SecondDay	Erin Goldberg	5909 E REDFIELD RD			SCOTTSDALE	AZ	85254-3123	US			false		
114-8141434-4174616	23863429450242	2020-10-07T14:20:54+00:00	2020-10-07T07:20:54-07:00	2020-10-07T14:51:11+00:00	2020-10-08T06:59:59+00:00	-1	yr4stt91v046f9y@marketplace.amazon.com	Nicole Chiarantona	+1 602-671-6610 ext. 38865	ABM010	Delivery by Friday | The Spring Fling Bouquet by Arabella Bouquets with a Free Designer Glass Vase	1	0	1	SecondDay	Sara Carrieri	1693 MOUNT CROGHAN TRL			THE VILLAGES	FL	32162-6057	US			false		
113-3123181-7114653	18932293586914	2020-10-07T14:36:04+00:00	2020-10-07T07:36:04-07:00	2020-10-07T15:04:16+00:00	2020-10-10T06:59:59+00:00	-3	l4jh0xnrrc2j152@marketplace.amazon.com	Emily Malone Medeiros	+1 602-671-6610 ext. 50137	ABM025	Delivery by Friday | The Fell for You Bouquet by Arabella Bouquets	1	0	1	Expedited	Susan Malone - apt 8E	400 CHAMBERS ST APT 8E			NEW YORK	NY	10282-1007	US		HAPPY BIRTHDAY, MOM! WE LOVE YOU, EMILY, JARED, and LILAH From Emily Malone Medeiros	false		
112-8002052-4437849	68689115579290	2020-10-07T14:40:45+00:00	2020-10-07T07:40:45-07:00	2020-10-07T15:09:22+00:00	2020-10-08T06:59:59+00:00	-1	rv53087pmqfzktz@marketplace.amazon.com	Kim Kalloch	+1 929-436-4790 ext. 59745	ABR0022	Delivery by Friday | Arabella Farm Direct Bouquet of 12 Fresh Cut Pink Roses with a Free Glass Vase	1	0	1	SecondDay	Tina Prior	39 LINDSAY RD			BILLERICA	MA	01821-4427	US		HAPPY BIRTHDAY WEEKEND! WE LOVE YOU! Kim, David, Dolly and John From Kim Kalloch	false		
111-5667075-6865869	48929539167154	2020-10-07T14:53:30+00:00	2020-10-07T07:53:30-07:00	2020-10-07T15:10:02+00:00	2020-10-08T06:59:59+00:00	-1	cfxlsfd36s9hxtv@marketplace.amazon.com	eileen barton	+1 929-436-4790 ext. 85031	ABR0022	Delivery by Friday | Arabella Farm Direct Bouquet of 12 Fresh Cut Pink Roses with a Free Glass Vase	1	0	1	SecondDay	Carol and Tarry Wood	12563 VILLAGE CIRCLE DR APT 2205			SAINT LOUIS	MO	63127-1758	US		Happy Anniversary!  I hope it was a lovely day.  So pleased you tied the knot 60 years ago as John is such a wonderful husband and father and son-in-law. Love, Eileen From Eileen Barton	false		
111-8566910-6651404	66399884283098	2020-10-07T14:46:10+00:00	2020-10-07T07:46:10-07:00	2020-10-07T15:15:31+00:00	2020-10-08T06:59:59+00:00	-1	tkdck5q8jw0yb0z@marketplace.amazon.com	Greg Esper	+1 480-618-5344 ext. 48736	ABR0055	Delivery by Friday | Arabella Farm Direct Bouquet of 12 Stems of Fresh Cut Hot Pink Roses in a Free Designer Glass Vase	1	0	1	SecondDay	Amy Louise Esper	GREG ESPER 5283 SUTTON RD			ANN ARBOR	MI	48105-9538	US		I will LOVE you forever!  Happy Anniversary From Greg Esper	false		
112-7431176-5097014	08887827207594	2020-10-07T14:46:25+00:00	2020-10-07T07:46:25-07:00	2020-10-07T15:15:46+00:00	2020-10-08T06:59:59+00:00	-1	rv53087pmqfzktz@marketplace.amazon.com	Kim Kalloch	+1 415-851-9136 ext. 25483	ABR0055	Delivery by Friday | Arabella Farm Direct Bouquet of 12 Stems of Fresh Cut Hot Pink Roses in a Free Designer Glass Vase	1	0	1	SecondDay	Jack Day	17650 SE 90TH NEWPORT AVE			THE VILLAGES	FL	32162-0892	US		Happy Birthday  MUMMA!  We love you! Love, Kim, David, Dolly and John From Kim Kalloch	false		
112-9979337-2499423	51361655587738	2020-10-07T15:12:12+00:00	2020-10-07T08:12:12-07:00	2020-10-07T15:29:07+00:00	2020-10-08T06:59:59+00:00	-1	3dd9w507svnvbl9@marketplace.amazon.com	Maida Carter	+1 929-436-4790 ext. 18583	ABR0022	Delivery by Friday | Arabella Farm Direct Bouquet of 12 Fresh Cut Pink Roses with a Free Glass Vase	1	0	1	SecondDay	Gejlana Carter	943 SHOREHAM ST			WATERPORT	NY	14571-9765	US		Wishing you a very happy birthday mom. Thinking of you and wishing I could have been there this year.  Warmest hugs and love From Maida	false		
111-2041033-4743451	60641388175210	2020-10-07T15:02:20+00:00	2020-10-07T08:02:20-07:00	2020-10-07T15:36:07+00:00	2020-10-10T06:59:59+00:00	-3	sj1b8fp05ldpbzr@marketplace.amazon.com	Charlynn Lawrence	+1 480-618-5344 ext. 67108	ABM010	Delivery by Friday | The Spring Fling Bouquet by Arabella Bouquets with a Free Designer Glass Vase	1	0	1	Expedited	Margaret O'Connor	23 OLD BEACH RD			NEWPORT	RI	02840-3175	US		Enjoy your gift! A Very Happy Birthday to you. Love you!!! xxoo From Charlynn Lawrence	false		
113-6278763-1666631	55039608625442	2020-10-07T15:14:07+00:00	2020-10-07T08:14:07-07:00	2020-10-07T15:36:20+00:00	2020-10-08T06:59:59+00:00	-1	8gwhm7xx4cpmfx2@marketplace.amazon.com	D.. Olson	+1 415-851-9136 ext. 53382	ABM020	Delivery by Friday | The Sunset Bouquet by Arabella Bouquets	1	0	1	SecondDay	Daliya Reynt	VANGUARD GROUP	14321 N NORTHSIGHT BLVD		SCOTTSDALE	AZ	85260-3604	US		Daliya: Congratulations on your promotion and many thanks for your help to us. From Devon and Noel Olson	false		
114-0581550-3061037	47584047528794	2020-10-07T15:16:56+00:00	2020-10-07T08:16:56-07:00	2020-10-07T15:42:24+00:00	2020-10-10T06:59:59+00:00	-3	cvcrfvk703b1d9g@marketplace.amazon.com	Carol A. Durr	+1 480-618-5344 ext. 37410	ABM022	Delivery by Friday | Purple Extravagance Bouquet by Arabella Bouquets	1	0	1	Expedited	Cara Galvis	1737 PRISCILLA CT			MOUNTAIN VIEW	CA	94040-2325	US		Cara,  Lotsa Love! From Mom & Dad	false		
113-5337838-1837003	65541411644170	2020-10-07T15:22:40+00:00	2020-10-07T08:22:40-07:00	2020-10-07T15:42:58+00:00	2020-10-08T06:59:59+00:00	-1	5j00hvyslj0p5kx@marketplace.amazon.com	Jerry A Salvador	+1 602-671-6610 ext. 99819	ABR001	Delivery by Friday | Arabella Bouquets 12 Stems of Fresh Cut Red Roses in a Free Designer Glass Vase	1	0	1	SecondDay	Jean Sexton-Kreis	829 SUNSET DR			KINGSTON	TN	37763-2131	US		Dear Auntie Jean,  A special thought on a special day for a special lady.  Happy Birthday. All the very best to you and Jim.  Take good care and stay safe and healthy! From Jerry A Salvador	false		
113-7650051-5660236	21885271325202	2020-10-07T15:17:50+00:00	2020-10-07T08:17:50-07:00	2020-10-07T15:47:15+00:00	2020-10-08T06:59:59+00:00	-1	ztvfs9fcfd4c1j8@marketplace.amazon.com	Maureen Dunn	+1 929-436-4790 ext. 46152	ABM023	Delivery by Friday | The Morning Sun Bouquet by Arabella Bouquets	1	0	1	SecondDay	Maureen Dunn	74 CHURCH RD			SWANTON	VT	05488-8056	US			false		
111-3274589-0379431	48899999225450	2020-10-07T15:36:30+00:00	2020-10-07T08:36:30-07:00	2020-10-07T16:02:01+00:00	2020-10-08T06:59:59+00:00	-1	8j1yfm7vzs2n7ry@marketplace.amazon.com	Gina Gilliam	+1 415-851-9136 ext. 65878	ABM021	Delivery by Friday | The Joyous Bouquet by Arabella Bouquets	1	0	1	SecondDay	Cathy Witte	8621 Arbor Circle			McKinney	Texas	75070	US		Happy FIVE OH!!! We will celebrate soon my friend! From Gina Gilliam	false		
113-4552335-1085801	37599556894682	2020-10-07T15:39:26+00:00	2020-10-07T08:39:26-07:00	2020-10-07T16:04:50+00:00	2020-10-08T06:59:59+00:00	-1	yyj2sh11l61wz54@marketplace.amazon.com	barron clark	+1 602-671-6610 ext. 76466	ABR0022	Delivery by Friday | Arabella Farm Direct Bouquet of 12 Fresh Cut Pink Roses with a Free Glass Vase	1	0	1	SecondDay	Belinda Taylor	11 SHETLAND WAY			RICHMOND HILL	GA	31324-6339	US		Belinda H. Taylor we love you and thank you for being so strong. You are still our HERO!!!! You are a Breast Cancer Survivor!!!! From Love Always Amber D and Jimmie Simmons	false		
113-1609252-1093855	18859586285714	2020-10-07T15:41:42+00:00	2020-10-07T08:41:42-07:00	2020-10-07T16:08:30+00:00	2020-10-08T06:59:59+00:00	-1	srvkymp9wmnc8lw@marketplace.amazon.com	Joanne Ring	+1 480-618-5344 ext. 95543	ABM010	Delivery by Friday | The Spring Fling Bouquet by Arabella Bouquets with a Free Designer Glass Vase	1	0	1	SecondDay	Carlie Ring	1042 N BONNIE BRAE ST			LOS ANGELES	CA	90026-3111	US		Hi Carlie, Happy Birthday Weekend. Can't wait 'til we can all get together. Love, Jim & Joanne From Joanne Ring	false		
112-1417594-1017817	33639999036002	2020-10-07T15:43:20+00:00	2020-10-07T08:43:20-07:00	2020-10-07T16:09:06+00:00	2020-10-08T06:59:59+00:00	-1	zw4rd46s3glv4l0@marketplace.amazon.com	Sue Lydon	+1 415-851-9136 ext. 47736	ABM020	Delivery by Friday | The Sunset Bouquet by Arabella Bouquets	1	0	1	SecondDay	Ann Brierley	1486 MAIN ST			COVENTRY	CT	06238-3176	US		You are incredible and so glad you are a part of my team!  Congrats! From Sue Lydon	false		
111-0704404-1624259	08211440773370	2020-10-07T15:57:22+00:00	2020-10-07T08:57:22-07:00	2020-10-07T16:12:55+00:00	2020-10-10T06:59:59+00:00	-3	2j9n4l20kkv9y9g@marketplace.amazon.com	peter	+1 929-436-4790 ext. 10238	ABR001	Delivery by Friday | Arabella Bouquets 12 Stems of Fresh Cut Red Roses in a Free Designer Glass Vase	1	0	1	Expedited	ELLEN COOPER	435 COLONIAL AVE APT A LANCASTER	SC 29720		LANCASTER	SC	29720-2860	US		Hi honey    my life has been incomplete without you honey and i feel so lost and empty without your love please contact me on this email address deanlevens75@gmail  i love you so much my heatbrat. From levens	false		
113-8716269-4059454	54199160458570	2020-10-07T15:46:07+00:00	2020-10-07T08:46:07-07:00	2020-10-07T16:14:34+00:00	2020-10-08T06:59:59+00:00	-1	qftwcf6ch1mcnv0@marketplace.amazon.com	Carlotta Stricker	+1 602-671-6610 ext. 73954	ABR0055	Delivery by Friday | Arabella Farm Direct Bouquet of 12 Stems of Fresh Cut Hot Pink Roses in a Free Designer Glass Vase	1	0	1	SecondDay	Noelle  Schlichting	5377 INLET CT			OMRO	WI	54963-8232	US		Happy Birthday honey! Enjoy your gift! Love, Mom	false		
113-5243028-8049806	62021402370762	2020-10-07T15:46:26+00:00	2020-10-07T08:46:26-07:00	2020-10-07T16:14:57+00:00	2020-10-08T06:59:59+00:00	-1	7pj2lj8n8mfvg8f@marketplace.amazon.com	Andy Cambron	+1 602-671-6610 ext. 26018	ABR0066	Delivery by Friday | Arabella Bouquets 12 Stems of Fresh Cut White Roses in a Free Designer Glass Vase	1	0	1	SecondDay	Patricia Fernandez	25430 WHITEHAVEN GATE ST			KATY	TX	77493-3834	US			false		
111-0676228-6422637	21416029478002	2020-10-07T16:03:05+00:00	2020-10-07T09:03:05-07:00	2020-10-07T16:15:58+00:00	2020-10-08T06:59:59+00:00	-1	yt33wpgkp0pv8yj@marketplace.amazon.com	Mindi Gold	+1 602-671-6610 ext. 62861	ABR012	Delivery by Friday | Arabella Farm Direct Bouquet of 18 Fresh Cut Pink Roses with a Free Glass Vase	1	0	1	SecondDay	Maya Gold	1043 INDIANA ST APT 111			LAWRENCE	KS	66044-3093	US		Maya, Merde to you! We are so proud of your accomplishments with UDC & KU Dance dept. love, mom, dad & isaac From Mindi Gold	false		
112-8602703-4511460	35549791594210	2020-10-07T16:19:17+00:00	2020-10-07T09:19:17-07:00	2020-10-07T16:47:46+00:00	2020-10-08T06:59:59+00:00	-1	lsfznntnsr5kz0n@marketplace.amazon.com	lakeisha	+1 602-671-6610 ext. 54504	ABB011	Arabella Bouquets 24 Stems of Fresh Cut Hot Pink Roses in a Free Designer Glass Vase	1	0	1	SecondDay	Catherine McCartney	220 CLOUTER CREEK DR			CHARLESTON	SC	29492-8411	US		Congratulations on your engagement!!!! So happy for the both of you!!! Let the Pinterest planning begin!!! From La’Keisha	false		
114-0058372-5285814	36908093479106	2020-10-07T16:48:39+00:00	2020-10-07T09:48:39-07:00	2020-10-07T17:18:04+00:00	2020-10-08T06:59:59+00:00	-1	qzsk8rfcqtgh132@marketplace.amazon.com	Kathryn R. Koh	+1 929-436-4790 ext. 09546	ABM022	Purple Extravagance Bouquet by Arabella Bouquets	1	0	1	SecondDay	Erika Chang-Sing	123 YORK ST APT 3K			NEW HAVEN	CT	06511-5630	US		Dearest Erika, Happy Birthday! Love, Mom & Dad From Kathryn R. Koh	false		
111-9853597-4601001	38040134075850	2020-10-07T16:59:26+00:00	2020-10-07T09:59:26-07:00	2020-10-07T17:21:19+00:00	2020-10-08T06:59:59+00:00	-1	gbxh5936bf8bk65@marketplace.amazon.com	Bernard philippe	+1 602-671-6610 ext. 05472	ABM022	Purple Extravagance Bouquet by Arabella Bouquets	1	0	1	SecondDay	Shadeera O Allen	6611 winfield boulvard	110-B		Margate	FL	33063	US			false		
112-3006328-9877034	33634395862738	2020-10-07T16:57:32+00:00	2020-10-07T09:57:32-07:00	2020-10-07T17:27:31+00:00	2020-10-08T06:59:59+00:00	-1	bqj3cyq5z11n3rb@marketplace.amazon.com	Peter B Menard	+1 602-671-6610 ext. 91039	ABM022	Purple Extravagance Bouquet by Arabella Bouquets	1	0	1	SecondDay	Peter B Menard	11 CHERRY TREE LN			FREDERICKSBURG	VA	22405-3011	US			false		
112-4251136-2031467	12596044895906	2020-10-07T17:01:53+00:00	2020-10-07T10:01:53-07:00	2020-10-07T17:28:54+00:00	2020-10-08T06:59:59+00:00	-1	bqj3cyq5z11n3rb@marketplace.amazon.com	Peter B Menard	+1 602-671-6610 ext. 42552	ABM022	Purple Extravagance Bouquet by Arabella Bouquets	1	0	1	SecondDay	Charlene Robey	12371 MINARCHI PARK DR			WOODFORD	VA	22580-2248	US			false		
112-0302258-4520229	68388065748194	2020-10-07T17:03:51+00:00	2020-10-07T10:03:51-07:00	2020-10-07T17:29:58+00:00	2020-10-10T06:59:59+00:00	-3	3m2v1x7qntgmwyr@marketplace.amazon.com	Becca Eddy	+1 602-671-6610 ext. 02035	ABM020	The Sunset Bouquet by Arabella Bouquets	1	0	1	Standard	Jessi & Matt Barnes	1515 HOLY TRINITY CHURCH RD			LITTLE MOUNTAIN	SC	29075-8623	US		Thinking of you all & sending love and prayers <3 Love you little! From Becca Eddy	false		
111-0193850-5905013	65776333231282	2020-10-07T17:37:12+00:00	2020-10-07T10:37:12-07:00	2020-10-07T18:06:47+00:00	2020-10-10T06:59:59+00:00	-3	jp9k8bl51dyf851@marketplace.amazon.com	Muhammad Abid	+1 602-671-6610 ext. 87636	ABR0022	Arabella Farm Direct Bouquet of 12 Fresh Cut Pink Roses with a Free Glass Vase	1	0	1	Expedited	Dr. Iqra Nadeem	825 NEW YORK AVE			BROOKLYN	NY	11203-2720	US		Good Morning! From Zee Zee	false		
112-5173892-9285044	68241438558490	2020-10-07T18:07:01+00:00	2020-10-07T11:07:01-07:00	2020-10-07T18:26:07+00:00	2020-10-10T06:59:59+00:00	-3	s1yq09bj1ddmh6j@marketplace.amazon.com	Karen Roberts	+1 415-851-9136 ext. 06975	ABM022	Delivery by Monday | Purple Extravagance Bouquet by Arabella Bouquets	1	0	1	Expedited	Cheri Jex	134 PECAN ST			RAY CITY	GA	31645-8433	US		We love you! Our arms are wrapped around you! Our prayers are with you everyday! Much love... Karen, Karla, Lauri and Shelli From Karen Roberts	false		
112-0189071-1398614	22544385236338	2020-10-07T18:05:59+00:00	2020-10-07T11:05:59-07:00	2020-10-07T18:36:25+00:00	2020-10-10T06:59:59+00:00	-3	0n9mdms4flgmn3x@marketplace.amazon.com	Florence tango	+1 929-436-4790 ext. 31105	ABR0022	Arabella Farm Direct Bouquet of 12 Fresh Cut Pink Roses with a Free Glass Vase	1	0	1	Expedited	Florence	9330 BREMERTON WAY MONTGOMERY VILLAGE			GAITHERSBURG	MARYLAND	20886-1417	US			false		
