order-id	order-item-id	purchase-date	payments-date	reporting-date	promise-date	days-past-promise	buyer-email	buyer-name	buyer-phone-number	sku	product-name	quantity-purchased	quantity-shipped	quantity-to-ship	ship-service-level	recipient-name	ship-address-1	ship-address-2	ship-address-3	ship-city	ship-state	ship-postal-code	ship-country	gift-wrap-type	gift-message-text	is-business-order	purchase-order-number	price-designation
112-5173892-9285044	68241438558490	2020-10-07T18:07:01+00:00	2020-10-07T11:07:01-07:00	2020-10-07T18:26:07+00:00	2020-10-10T06:59:59+00:00	-3	s1yq09bj1ddmh6j@marketplace.amazon.com	Karen Roberts	+1 415-851-9136 ext. 06975	ABM022	Delivery by Monday | Purple Extravagance Bouquet by Arabella Bouquets	1	0	1	Expedited	Cheri Jex	134 PECAN ST			RAY CITY	GA	31645-8433	US		We love you! Our arms are wrapped around you! Our prayers are with you everyday! Much love... Karen, Karla, Lauri and Shelli From Karen Roberts	false		
112-0189071-1398614	22544385236338	2020-10-07T18:05:59+00:00	2020-10-07T11:05:59-07:00	2020-10-07T18:36:25+00:00	2020-10-10T06:59:59+00:00	-3	0n9mdms4flgmn3x@marketplace.amazon.com	Florence tango	+1 929-436-4790 ext. 31105	ABR0022	Arabella Farm Direct Bouquet of 12 Fresh Cut Pink Roses with a Free Glass Vase	1	0	1	Expedited	Florence	9330 BREMERTON WAY MONTGOMERY VILLAGE			GAITHERSBURG	MARYLAND	20886-1417	US			false		
111-9312186-1235430	10812633459770	2020-10-07T18:27:14+00:00	2020-10-07T11:27:14-07:00	2020-10-07T18:54:54+00:00	2020-10-10T06:59:59+00:00	-3	8xr7xry1gkx0wt9@marketplace.amazon.com	Gilda Gonzalez	+1 602-671-6610 ext. 87696	ABM031	Delivery by Monday | The Harvest Moon Bouquet by Arabella Bouquets	1	0	1	Expedited	Grettel Martin	1720 NW 113TH AVE			PEMBROKE PINES	FL	33026-2110	US		Hi Grettel, Wishing you a speedy recovery Love you! Gilda	false		
111-8245344-6297011	12935966671578	2020-10-07T18:57:56+00:00	2020-10-07T11:57:56-07:00	2020-10-07T19:20:31+00:00	2020-10-10T06:59:59+00:00	-3	xq6dvw83l39bg1k@marketplace.amazon.com	Yan Wang	+1 929-436-4790 ext. 43636	ABM020	Delivery by Monday | The Sunset Bouquet by Arabella Bouquets	1	0	1	Expedited	Weishan Zhang	1702 NE HAYES DR			ANKENY	IA	50021-4557	US		Happy Birthday! From mao	false		
114-0096127-2005002	11653986745010	2020-10-07T19:00:09+00:00	2020-10-07T12:00:09-07:00	2020-10-07T19:27:21+00:00	2020-10-10T06:59:59+00:00	-3	qssnjh889q35b82@marketplace.amazon.com	Peter Cohen	+1 929-436-4790 ext. 46259	ABR0033	Delivery by Monday | Arabella Farm Direct Bouquet of 12 Fresh Cut Orange Roses with a Free Glass Vase	1	0	1	Expedited	Lori James Rice	4500 MIRADOR DR			PLEASANTON	CA	94566-7436	US		Thank you so much Lj, I love you, we love you.  You are the best, Julie, Peter, Delilah & Inman From Julie Rice	false		
114-2487000-5430611	26685203945570	2020-10-07T19:21:42+00:00	2020-10-07T12:21:42-07:00	2020-10-07T19:45:59+00:00	2020-10-10T06:59:59+00:00	-3	q3m11t9py7cz9cg@marketplace.amazon.com	Nicole Santangeli	+1 602-671-6610 ext. 57742	ABR0022	Arabella Farm Direct Bouquet of 12 Fresh Cut Pink Roses with a Free Glass Vase	1	0	1	Expedited	Ann Geanuracos Frascone	14 JOES HILL RD			DANBURY	CT	06811-4235	US		Wishing you health, strength & happiness on your birthday and year ahead!   Love,  Nicole, Rob, Lidia and Claudia From Nicole Santangeli	false		
113-2144163-3022647	50953426175098	2020-10-07T19:41:22+00:00	2020-10-07T12:41:22-07:00	2020-10-07T20:08:08+00:00	2020-10-10T06:59:59+00:00	-3	nqdlfhs2cm9rsj1@marketplace.amazon.com	Chee gong	+1 602-671-6610 ext. 07454	ABR0033	Delivery by Monday | Arabella Farm Direct Bouquet of 12 Fresh Cut Orange Roses with a Free Glass Vase	1	0	1	Expedited	Lenny Gong	9805 HOWARD ST			LAMONT	CA	93241-1309	US		Happy Birthday, Sam Yee!  Have a wonderful birthday month!  Love, Chee and Jan From Chee gong	false		
111-1030206-9467437	65215769986490	2020-10-07T19:47:50+00:00	2020-10-07T12:47:50-07:00	2020-10-07T20:17:33+00:00	2020-10-10T06:59:59+00:00	-3	sw8844cy0f4w7p8@marketplace.amazon.com	Alexander Willow	+1 480-618-5344 ext. 24226	ABR001	Delivery by Monday | Arabella Bouquets 12 Stems of Fresh Cut Red Roses in a Free Designer Glass Vase	1	0	1	Expedited	Alex Willow	6726 BESTWOOD CT			SAN DIEGO	CA	92119-1534	US			false		
113-2104518-9588214	19485810334810	2020-10-07T20:01:50+00:00	2020-10-07T13:01:50-07:00	2020-10-07T20:32:26+00:00	2020-10-10T06:59:59+00:00	-3	bsgnn6xsm868207@marketplace.amazon.com	Alexia Clifton	+1 929-436-4790 ext. 07860	ABM021	Delivery by Monday | The Joyous Bouquet by Arabella Bouquets	1	0	1	Expedited	Alexia Clifton	3909 N EDGEWOOD DR			JANESVILLE	WI	53545-9068	US			false		
111-8126585-4579467	32245801501090	2020-10-07T20:32:49+00:00	2020-10-07T13:32:49-07:00	2020-10-07T21:03:10+00:00	2020-10-10T06:59:59+00:00	-3	bw08pdf3yzxqc7w@marketplace.amazon.com	Virginia	+1 602-671-6610 ext. 56021	ABR012	Delivery by Monday | Arabella Farm Direct Bouquet of 18 Fresh Cut Pink Roses with a Free Glass Vase	1	0	1	Expedited	Princess Liana	1120 PIN OAK DR			DENTON	TX	76209-4684	US			false		
111-9978985-1429867	23374297846610	2020-10-07T20:56:42+00:00	2020-10-07T13:56:42-07:00	2020-10-07T21:20:02+00:00	2020-10-10T06:59:59+00:00	-3	szb3p7br9k7d08f@marketplace.amazon.com	parrilla,luz	+1 602-671-6610 ext. 19457	ABR0022	Arabella Farm Direct Bouquet of 12 Fresh Cut Pink Roses with a Free Glass Vase	1	0	1	Expedited	Cherry Trocio	1110 JOHNSON CT			NEW MILFORD	NJ	07646-2524	US		Hi Cher and Sam, My sincere condolences and sympathies for your dad and aunt’s passing... Praying for the repose of their soul...love, Luz From parrilla,luz	false		
112-4401839-1265062	50669203820266	2020-10-07T21:02:52+00:00	2020-10-07T14:02:52-07:00	2020-10-07T21:30:01+00:00	2020-10-10T06:59:59+00:00	-3	nyglcymp0y42gfm@marketplace.amazon.com	Sal Bellarmino	+1 480-618-5344 ext. 17356	ABR0022	Arabella Farm Direct Bouquet of 12 Fresh Cut Pink Roses with a Free Glass Vase	1	0	1	Expedited	Denise Carleton	2460 Gants Hill Place			Cumming	GA	30041	US		Happy Birthday, Denise! From Love, Uncle Sal	false		
113-9046388-0158655	69764226552866	2020-10-07T21:21:23+00:00	2020-10-07T14:21:23-07:00	2020-10-07T21:50:13+00:00	2020-10-10T06:59:59+00:00	-3	2tk8tbg6sp4jypn@marketplace.amazon.com	Amy Corron	+1 480-618-5344 ext. 56306	ABR0022	Arabella Farm Direct Bouquet of 12 Fresh Cut Pink Roses with a Free Glass Vase	1	0	1	Expedited	Elizabeth Walsh	211 WARFIELD HALL 451 E SPRING ST			OXFORD	OH	45056-1860	US		Liz! We are sending you well wishes and healing thoughts during this time. Hoping these blooms bring some brightness and cheer! Let us know if you need anything at all <3 Friend Group From Amy Corron	false		
112-6535072-4411439	50955836700122	2020-10-07T21:26:53+00:00	2020-10-07T14:26:53-07:00	2020-10-07T21:50:18+00:00	2020-10-10T06:59:59+00:00	-3	bvk1xhw9kxwvs9n@marketplace.amazon.com	Yi Liu	+1 602-671-6610 ext. 98453	ABR0022	Arabella Farm Direct Bouquet of 12 Fresh Cut Pink Roses with a Free Glass Vase	1	0	1	Expedited	Yonghong Jin	33 HUDNUT LN			BELLE MEAD	NJ	08502-4330	US		Dear Sister, Happy Birthday! Wish you a lot of Happiness, Joy, Forever Young and Beautiful! From Yi & Jixin	false		
112-9506076-2701807	61196513183450	2020-10-07T21:24:51+00:00	2020-10-07T14:24:51-07:00	2020-10-07T21:54:47+00:00	2020-10-10T06:59:59+00:00	-3	58p43psmgs8jg3y@marketplace.amazon.com	Lauren Mott	+1 602-671-6610 ext. 19004	ABR0055	Delivery by Monday | Arabella Farm Direct Bouquet of 12 Stems of Fresh Cut Hot Pink Roses in a Free Designer Glass Vase	1	0	1	Expedited	Grandma aoki	7448 N MERIDIAN AVE			FRESNO	CA	93720-3653	US		Hi Grandma, thinking of you! From Lauren, Garrett, Wyatt, James	false		
111-8933982-9937021	18374581753010	2020-10-07T21:46:36+00:00	2020-10-07T14:46:36-07:00	2020-10-07T22:14:23+00:00	2020-10-10T06:59:59+00:00	-3	7bmj7y8kt55z7vw@marketplace.amazon.com	Julie Werfelmann	+1 415-851-9136 ext. 84195	ABM020	Delivery by Monday | The Sunset Bouquet by Arabella Bouquets	1	0	1	Expedited	JJ Werfelmann	624 GREEN ASH ST # 4			HIGHLANDS RANCH	CO	80129-2550	US		We love you! We're over here pulling for you and praying for you every day. Big Hugs, From Paul n Julie	false		
114-3028639-1025819	07573626090514	2020-10-07T21:52:11+00:00	2020-10-07T14:52:11-07:00	2020-10-07T22:19:32+00:00	2020-10-10T06:59:59+00:00	-3	q8y3mb5s515lps6@marketplace.amazon.com	Veronica Johnson	+1 415-851-9136 ext. 95011	ABR001	Delivery by Monday | Arabella Bouquets 12 Stems of Fresh Cut Red Roses in a Free Designer Glass Vase	1	0	1	Expedited	Veronica Johnson	5445 N PARAMOUNT BLVD APT 207			LONG BEACH	CA	90805-5757	US		Enjoy your gift! Happy Birthday 💝 From Veronica Johnson	false		
113-4010905-5782662	32064440149082	2020-10-07T21:58:25+00:00	2020-10-07T14:58:25-07:00	2020-10-07T22:27:14+00:00	2020-10-10T06:59:59+00:00	-3	5273gxvh6ykq245@marketplace.amazon.com	Yvette Green	+1 602-671-6610 ext. 48609	ABM010	Delivery by Monday | The Spring Fling Bouquet by Arabella Bouquets with a Free Designer Glass Vase	1	0	1	Expedited	Lindsey Green	4850 FIRST COAST TECH PKWY	APT 1307		JACKSONVILLE	FL	32224-0655	US		Happy 20th Birthday!  Love, Mom From Yvette Green	false		
112-7574274-2569022	33463297167962	2020-10-07T22:23:53+00:00	2020-10-07T15:23:53-07:00	2020-10-07T22:52:57+00:00	2020-10-10T06:59:59+00:00	-3	58p43psmgs8jg3y@marketplace.amazon.com	Lauren Mott	+1 602-671-6610 ext. 28893	ABR0055	Delivery by Monday | Arabella Farm Direct Bouquet of 12 Stems of Fresh Cut Hot Pink Roses in a Free Designer Glass Vase	1	0	1	Expedited	Nana Mott	930 RAMBLER RD			MERCED	CA	95348-2566	US		Hi Nana, thinking of you! From Garrett, Lauren, Wyatt, James	false		
111-5837989-2877835	37451489690882	2020-10-07T23:16:03+00:00	2020-10-07T16:16:03-07:00	2020-10-07T23:44:21+00:00	2020-10-10T06:59:59+00:00	-3	j3xycrz9fk02dhv@marketplace.amazon.com	Penny J Brichta	+1 929-436-4790 ext. 62262	ABR0022	Arabella Farm Direct Bouquet of 12 Fresh Cut Pink Roses with a Free Glass Vase	1	0	1	Expedited	Becky Pollock	320 HILL ST			MONROVIA	CA	91016-2338	US		Thinking of you.  Wishing you speedy healing!  Love,   Penny and Bob From Penny J Brichta	false		
114-1310667-2646632	44943719140138	2020-10-07T23:34:02+00:00	2020-10-07T16:34:02-07:00	2020-10-07T23:59:11+00:00	2020-10-10T06:59:59+00:00	-3	kfzdds2znzps240@marketplace.amazon.com	Elisabeth Heptner	+1 415-851-9136 ext. 92571	ABR0022	Arabella Farm Direct Bouquet of 12 Fresh Cut Pink Roses with a Free Glass Vase	1	0	1	Expedited	Alice Ann Kovalchik	4005 DARES BEACH RD			PRINCE FREDERICK	MD	20678-4239	US			false		
111-9924122-4052238	24064178954194	2020-10-08T00:13:32+00:00	2020-10-07T17:13:32-07:00	2020-10-08T00:43:11+00:00	2020-10-10T06:59:59+00:00	-3	03bhj2wtzbp01q6@marketplace.amazon.com	Kelly Ortelt	+1 415-851-9136 ext. 06490	ABR0022	Arabella Farm Direct Bouquet of 12 Fresh Cut Pink Roses with a Free Glass Vase	1	0	1	Expedited	Barbara fernaays	16 EAST AVE			LE ROY	NY	14482-1206	US		We love you! Xoxoxo From Your Loving family!	false		
112-4337583-1877835	06634814758122	2020-10-08T00:28:38+00:00	2020-10-07T17:28:38-07:00	2020-10-08T00:55:39+00:00	2020-10-10T06:59:59+00:00	-3	q0bjgtl3xb19zq0@marketplace.amazon.com	Pamela Giangreco Marotta	+1 602-671-6610 ext. 52926	ABM010	Delivery by Monday | The Spring Fling Bouquet by Arabella Bouquets with a Free Designer Glass Vase	1	0	1	Standard	Ellen Spangenthal	192 CASTLEBROOK LN			WILLIAMSVILLE	NY	14221-4475	US		Wishing you love, joy and happiness in your new home. From Pamela Giangreco Marotta	false		
113-5915571-0152240	12088981429090	2020-10-08T00:41:39+00:00	2020-10-07T17:41:39-07:00	2020-10-08T01:11:08+00:00	2020-10-10T06:59:59+00:00	-3	90l9q8fnmcscsd0@marketplace.amazon.com	Nicholas Beardo	+1 415-851-9136 ext. 74839	ABM002	Delivery by Monday | Arabella Bouquets Fresh Cut White Calla Lilies in a Free Designer Glass Vase	1	0	1	Expedited	Nicholas Beardo	8911 Napa Valley Way			SACRAMENTO	CA	95829	US			false		
114-5033848-1640216	35674224764010	2020-10-08T00:58:21+00:00	2020-10-07T17:58:21-07:00	2020-10-08T01:20:31+00:00	2020-10-10T06:59:59+00:00	-3	0xfjpgm7nw6q2dr@marketplace.amazon.com	Brian Jackson	+1 929-436-4790 ext. 16392	ABM022	Delivery by Monday | Purple Extravagance Bouquet by Arabella Bouquets	1	0	1	Expedited	Margaret Jackson	187 CARLISLE RD			AUDUBON	NJ	08106-1209	US		Mom,  Happy Birthday! Enjoy the Fall weather. See you as soon as I can. Love, Brian From Brian Jackson	false		
113-8622235-3114636	05449127938434	2020-10-08T01:01:21+00:00	2020-10-07T18:01:21-07:00	2020-10-08T01:30:45+00:00	2020-10-10T06:59:59+00:00	-3	f10mm5sq1dl80hk@marketplace.amazon.com	Amelia Boenig	+1 480-618-5344 ext. 11009	ABM010	Delivery by Monday | The Spring Fling Bouquet by Arabella Bouquets with a Free Designer Glass Vase	1	0	1	Expedited	Anita Boenig	624 rock island circle			Danville	CA	94526	US		Feel better soon!  We love you! From Chris Aimee Zach and Merritt	false		
113-0757035-8751442	60486986890330	2020-10-08T01:20:29+00:00	2020-10-07T18:20:29-07:00	2020-10-08T01:49:19+00:00	2020-10-10T06:59:59+00:00	-3	kf2bh02l1hcc7kl@marketplace.amazon.com	Susan H Slater	+1 480-618-5344 ext. 48233	ABM010	Delivery by Monday | The Spring Fling Bouquet by Arabella Bouquets with a Free Designer Glass Vase	1	0	1	Expedited	Meaghan Slater	2525 W TENNESSEE ST APT 2301			TALLAHASSEE	FL	32304-2505	US		Meaghan, Happy 22nd Birthday! Love you so very much, Mom and Dad From Susan H Slater	false		
113-3514866-8687403	64987285938322	2020-10-08T01:35:57+00:00	2020-10-07T18:35:57-07:00	2020-10-08T01:52:42+00:00	2020-10-10T06:59:59+00:00	-3	b7gn6nwy362fdf4@marketplace.amazon.com	simonetta spaccia	+1 929-436-4790 ext. 75182	ABR0022	Arabella Farm Direct Bouquet of 12 Fresh Cut Pink Roses with a Free Glass Vase	1	0	1	Expedited	Julia bering	6280 CEANOTHUS LN			SAN JOSE	CA	95119-1217	US			false		
114-5074628-3849024	08051567485482	2020-10-08T02:51:13+00:00	2020-10-07T19:51:13-07:00	2020-10-08T03:16:52+00:00	2020-10-10T06:59:59+00:00	-3	0hj3lzvpsj6b8tv@marketplace.amazon.com	Mallory	+1 929-436-4790 ext. 72290	ABB005	Arabella Bouquets 24 Stems of Fresh Cut Red Roses in a Designer Glass Vase	1	0	1	Expedited	Monicea Barnes	6760 WINDHAVEN PKWY APT 2046			THE COLONY	TX	75056-6882	US		So sorry you’re going through so much, Mo. We love you and hope these roses brighten your day. Praying for you! From Mallory, Davey, Daniela & Marcellus	false		
111-0420782-5349868	00201054116362	2020-10-08T02:58:55+00:00	2020-10-07T19:58:55-07:00	2020-10-08T03:22:31+00:00	2020-10-10T06:59:59+00:00	-3	c57zj3fskh29rxc@marketplace.amazon.com	Ann Elias	+1 929-436-4790 ext. 80228	ABR0022	Arabella Farm Direct Bouquet of 12 Fresh Cut Pink Roses with a Free Glass Vase	1	0	1	Expedited	Brittany Elias	4806 E LAKE RESERVE BLVD			SAINT CLOUD	FL	34771-8271	US		Happy Birthday Brittany! Sending lots of love to you on this special occasion! Love, Mom, Dad, Caitlin, Jalin and Alanna xxxx oooo xxxx From Ann Elias	false		
112-6631510-7950650	26014893955034	2020-10-08T03:17:22+00:00	2020-10-07T20:17:22-07:00	2020-10-08T03:47:57+00:00	2020-10-10T06:59:59+00:00	-3	fs12trwvqy2khf7@marketplace.amazon.com	Mary Poole	+1 602-671-6610 ext. 72560	ABR004	Delivery by Monday | Arabella Farm Direct Bouquet of 12 Fresh Cut Yellow Roses with a Free Glass Vase	1	0	1	Expedited	Mary Poole	8 HARBOR POINT PL			SAFETY HARBOR	FL	34695-2817	US			false		
113-1051065-9828242	12059918292530	2020-10-08T03:24:20+00:00	2020-10-07T20:24:20-07:00	2020-10-08T03:51:21+00:00	2020-10-10T06:59:59+00:00	-3	ydtrp26g020mxzz@marketplace.amazon.com	CoolCat	+1 480-618-5344 ext. 47977	ABR0022	Arabella Farm Direct Bouquet of 12 Fresh Cut Pink Roses with a Free Glass Vase	1	0	1	Expedited	Celine Simon	20 HARVARD WAY			WALNUT CREEK	CA	94597-3504	US		Celine, We hope you recover quickly! Toughest mama in town. 💪🙂 From Gianna, Olivia, and Jason	false		
114-2136378-3960242	17504392291290	2020-10-08T04:21:02+00:00	2020-10-07T21:21:02-07:00	2020-10-08T04:45:23+00:00	2020-10-10T06:59:59+00:00	-3	gjpnppxs8fkvhpr@marketplace.amazon.com	William Pietruszewicz	+1 415-851-9136 ext. 06914	ABR0022	Arabella Farm Direct Bouquet of 12 Fresh Cut Pink Roses with a Free Glass Vase	1	0	1	Expedited	Jenny Wilson	14221 N 51ST AVE APT 2099			GLENDALE	AZ	85306-2552	US		Congratulations on your new baby! Hope all is well. From William & Lisa  Pietruszewicz	false		
111-8462570-7665067	35823145809114	2020-10-08T04:51:05+00:00	2020-10-07T21:51:05-07:00	2020-10-08T05:20:03+00:00	2020-10-10T06:59:59+00:00	-3	ptqctd5bxhclstz@marketplace.amazon.com	huda	+1 480-618-5344 ext. 17677	ABB006	Arabella Bouquets | Farm Direct 48 Fresh Cut Red Roses	1	0	1	Expedited	Brooks hitchcock	6601 BEECHMONT AVE APT 52			CINCINNATI	OH	45230-5904	US		We were mentioned in the book of life .. and for that we shall never be apart From Huda	false		
