order-id	order-item-id	purchase-date	payments-date	reporting-date	promise-date	days-past-promise	buyer-email	buyer-name	buyer-phone-number	sku	product-name	quantity-purchased	quantity-shipped	quantity-to-ship	ship-service-level	recipient-name	ship-address-1	ship-address-2	ship-address-3	ship-city	ship-state	ship-postal-code	ship-country	gift-wrap-type	gift-message-text	is-business-order	purchase-order-number	price-designation
112-5173892-9285044	68241438558490	2020-10-07T18:07:01+00:00	2020-10-07T11:07:01-07:00	2020-10-07T18:26:07+00:00	2020-10-10T06:59:59+00:00	-1	s1yq09bj1ddmh6j@marketplace.amazon.com	Karen Roberts	+1 415-851-9136 ext. 06975	ABM022	Delivery by Monday | Purple Extravagance Bouquet by Arabella Bouquets	1	0	1	Expedited	Cheri Jex	134 PECAN ST			RAY CITY	GA	31645-8433	US		We love you! Our arms are wrapped around you! Our prayers are with you everyday! Much love... Karen, Karla, Lauri and Shelli From Karen Roberts	false		
112-0189071-1398614	22544385236338	2020-10-07T18:05:59+00:00	2020-10-07T11:05:59-07:00	2020-10-07T18:36:25+00:00	2020-10-10T06:59:59+00:00	-1	0n9mdms4flgmn3x@marketplace.amazon.com	Florence tango	+1 929-436-4790 ext. 31105	ABR0022	Arabella Farm Direct Bouquet of 12 Fresh Cut Pink Roses with a Free Glass Vase	1	0	1	Expedited	Florence	9330 BREMERTON WAY MONTGOMERY VILLAGE			GAITHERSBURG	MARYLAND	20886-1417	US			false		
111-9312186-1235430	10812633459770	2020-10-07T18:27:14+00:00	2020-10-07T11:27:14-07:00	2020-10-07T18:54:54+00:00	2020-10-10T06:59:59+00:00	-1	8xr7xry1gkx0wt9@marketplace.amazon.com	Gilda Gonzalez	+1 602-671-6610 ext. 87696	ABM031	Delivery by Monday | The Harvest Moon Bouquet by Arabella Bouquets	1	0	1	Expedited	Grettel Martin	1720 NW 113TH AVE			PEMBROKE PINES	FL	33026-2110	US		Hi Grettel, Wishing you a speedy recovery Love you! Gilda	false		
111-8245344-6297011	12935966671578	2020-10-07T18:57:56+00:00	2020-10-07T11:57:56-07:00	2020-10-07T19:20:31+00:00	2020-10-10T06:59:59+00:00	-1	xq6dvw83l39bg1k@marketplace.amazon.com	Yan Wang	+1 929-436-4790 ext. 43636	ABM020	Delivery by Monday | The Sunset Bouquet by Arabella Bouquets	1	0	1	Expedited	Weishan Zhang	1702 NE HAYES DR			ANKENY	IA	50021-4557	US		Happy Birthday! From mao	false		
114-0096127-2005002	11653986745010	2020-10-07T19:00:09+00:00	2020-10-07T12:00:09-07:00	2020-10-07T19:27:21+00:00	2020-10-10T06:59:59+00:00	-1	qssnjh889q35b82@marketplace.amazon.com	Peter Cohen	+1 929-436-4790 ext. 46259	ABR0033	Delivery by Monday | Arabella Farm Direct Bouquet of 12 Fresh Cut Orange Roses with a Free Glass Vase	1	0	1	Expedited	Lori James Rice	4500 MIRADOR DR			PLEASANTON	CA	94566-7436	US		Thank you so much Lj, I love you, we love you.  You are the best, Julie, Peter, Delilah & Inman From Julie Rice	false		
114-2487000-5430611	26685203945570	2020-10-07T19:21:42+00:00	2020-10-07T12:21:42-07:00	2020-10-07T19:45:59+00:00	2020-10-10T06:59:59+00:00	-1	q3m11t9py7cz9cg@marketplace.amazon.com	Nicole Santangeli	+1 602-671-6610 ext. 57742	ABR0022	Arabella Farm Direct Bouquet of 12 Fresh Cut Pink Roses with a Free Glass Vase	1	0	1	Expedited	Ann Geanuracos Frascone	14 JOES HILL RD			DANBURY	CT	06811-4235	US		Wishing you health, strength & happiness on your birthday and year ahead!   Love,  Nicole, Rob, Lidia and Claudia From Nicole Santangeli	false		
113-2144163-3022647	50953426175098	2020-10-07T19:41:22+00:00	2020-10-07T12:41:22-07:00	2020-10-07T20:08:08+00:00	2020-10-10T06:59:59+00:00	-1	nqdlfhs2cm9rsj1@marketplace.amazon.com	Chee gong	+1 602-671-6610 ext. 07454	ABR0033	Delivery by Monday | Arabella Farm Direct Bouquet of 12 Fresh Cut Orange Roses with a Free Glass Vase	1	0	1	Expedited	Lenny Gong	9805 HOWARD ST			LAMONT	CA	93241-1309	US		Happy Birthday, Sam Yee!  Have a wonderful birthday month!  Love, Chee and Jan From Chee gong	false		
111-1030206-9467437	65215769986490	2020-10-07T19:47:50+00:00	2020-10-07T12:47:50-07:00	2020-10-07T20:17:33+00:00	2020-10-10T06:59:59+00:00	-1	sw8844cy0f4w7p8@marketplace.amazon.com	Alexander Willow	+1 480-618-5344 ext. 24226	ABR001	Delivery by Monday | Arabella Bouquets 12 Stems of Fresh Cut Red Roses in a Free Designer Glass Vase	1	0	1	Expedited	Alex Willow	6726 BESTWOOD CT			SAN DIEGO	CA	92119-1534	US			false		
113-2104518-9588214	19485810334810	2020-10-07T20:01:50+00:00	2020-10-07T13:01:50-07:00	2020-10-07T20:32:26+00:00	2020-10-10T06:59:59+00:00	-1	bsgnn6xsm868207@marketplace.amazon.com	Alexia Clifton	+1 929-436-4790 ext. 07860	ABM021	Delivery by Monday | The Joyous Bouquet by Arabella Bouquets	1	0	1	Expedited	Alexia Clifton	3909 N EDGEWOOD DR			JANESVILLE	WI	53545-9068	US			false		
111-8126585-4579467	32245801501090	2020-10-07T20:32:49+00:00	2020-10-07T13:32:49-07:00	2020-10-07T21:03:10+00:00	2020-10-10T06:59:59+00:00	-1	bw08pdf3yzxqc7w@marketplace.amazon.com	Virginia	+1 602-671-6610 ext. 56021	ABR012	Delivery by Monday | Arabella Farm Direct Bouquet of 18 Fresh Cut Pink Roses with a Free Glass Vase	1	0	1	Expedited	Princess Liana	1120 PIN OAK DR			DENTON	TX	76209-4684	US			false		
112-4401839-1265062	50669203820266	2020-10-07T21:02:52+00:00	2020-10-07T14:02:52-07:00	2020-10-07T21:30:01+00:00	2020-10-10T06:59:59+00:00	-1	nyglcymp0y42gfm@marketplace.amazon.com	Sal Bellarmino	+1 480-618-5344 ext. 17356	ABR0022	Arabella Farm Direct Bouquet of 12 Fresh Cut Pink Roses with a Free Glass Vase	1	0	1	Expedited	Denise Carleton	2460 Gants Hill Place			Cumming	GA	30041	US		Happy Birthday, Denise! From Love, Uncle Sal	false		
113-9046388-0158655	69764226552866	2020-10-07T21:21:23+00:00	2020-10-07T14:21:23-07:00	2020-10-07T21:50:13+00:00	2020-10-10T06:59:59+00:00	-1	2tk8tbg6sp4jypn@marketplace.amazon.com	Amy Corron	+1 480-618-5344 ext. 56306	ABR0022	Arabella Farm Direct Bouquet of 12 Fresh Cut Pink Roses with a Free Glass Vase	1	0	1	Expedited	Elizabeth Walsh	211 WARFIELD HALL 451 E SPRING ST			OXFORD	OH	45056-1860	US		Liz! We are sending you well wishes and healing thoughts during this time. Hoping these blooms bring some brightness and cheer! Let us know if you need anything at all <3 Friend Group From Amy Corron	false		
112-6535072-4411439	50955836700122	2020-10-07T21:26:53+00:00	2020-10-07T14:26:53-07:00	2020-10-07T21:50:18+00:00	2020-10-10T06:59:59+00:00	-1	bvk1xhw9kxwvs9n@marketplace.amazon.com	Yi Liu	+1 602-671-6610 ext. 98453	ABR0022	Arabella Farm Direct Bouquet of 12 Fresh Cut Pink Roses with a Free Glass Vase	1	0	1	Expedited	Yonghong Jin	33 HUDNUT LN			BELLE MEAD	NJ	08502-4330	US		Dear Sister, Happy Birthday! Wish you a lot of Happiness, Joy, Forever Young and Beautiful! From Yi & Jixin	false		
112-9506076-2701807	61196513183450	2020-10-07T21:24:51+00:00	2020-10-07T14:24:51-07:00	2020-10-07T21:54:47+00:00	2020-10-10T06:59:59+00:00	-1	58p43psmgs8jg3y@marketplace.amazon.com	Lauren Mott	+1 602-671-6610 ext. 19004	ABR0055	Delivery by Monday | Arabella Farm Direct Bouquet of 12 Stems of Fresh Cut Hot Pink Roses in a Free Designer Glass Vase	1	0	1	Expedited	Grandma aoki	7448 N MERIDIAN AVE			FRESNO	CA	93720-3653	US		Hi Grandma, thinking of you! From Lauren, Garrett, Wyatt, James	false		
111-8933982-9937021	18374581753010	2020-10-07T21:46:36+00:00	2020-10-07T14:46:36-07:00	2020-10-07T22:14:23+00:00	2020-10-10T06:59:59+00:00	-1	7bmj7y8kt55z7vw@marketplace.amazon.com	Julie Werfelmann	+1 415-851-9136 ext. 84195	ABM020	Delivery by Monday | The Sunset Bouquet by Arabella Bouquets	1	0	1	Expedited	JJ Werfelmann	624 GREEN ASH ST # 4			HIGHLANDS RANCH	CO	80129-2550	US		We love you! We're over here pulling for you and praying for you every day. Big Hugs, From Paul n Julie	false		
114-3028639-1025819	07573626090514	2020-10-07T21:52:11+00:00	2020-10-07T14:52:11-07:00	2020-10-07T22:19:32+00:00	2020-10-10T06:59:59+00:00	-1	q8y3mb5s515lps6@marketplace.amazon.com	Veronica Johnson	+1 415-851-9136 ext. 95011	ABR001	Delivery by Monday | Arabella Bouquets 12 Stems of Fresh Cut Red Roses in a Free Designer Glass Vase	1	0	1	Expedited	Veronica Johnson	5445 N PARAMOUNT BLVD APT 207			LONG BEACH	CA	90805-5757	US		Enjoy your gift! Happy Birthday 💝 From Veronica Johnson	false		
112-7574274-2569022	33463297167962	2020-10-07T22:23:53+00:00	2020-10-07T15:23:53-07:00	2020-10-07T22:52:57+00:00	2020-10-10T06:59:59+00:00	-1	58p43psmgs8jg3y@marketplace.amazon.com	Lauren Mott	+1 602-671-6610 ext. 28893	ABR0055	Delivery by Monday | Arabella Farm Direct Bouquet of 12 Stems of Fresh Cut Hot Pink Roses in a Free Designer Glass Vase	1	0	1	Expedited	Nana Mott	930 RAMBLER RD			MERCED	CA	95348-2566	US		Hi Nana, thinking of you! From Garrett, Lauren, Wyatt, James	false		
111-5837989-2877835	37451489690882	2020-10-07T23:16:03+00:00	2020-10-07T16:16:03-07:00	2020-10-07T23:44:21+00:00	2020-10-10T06:59:59+00:00	-1	j3xycrz9fk02dhv@marketplace.amazon.com	Penny J Brichta	+1 929-436-4790 ext. 62262	ABR0022	Arabella Farm Direct Bouquet of 12 Fresh Cut Pink Roses with a Free Glass Vase	1	0	1	Expedited	Becky Pollock	320 HILL ST			MONROVIA	CA	91016-2338	US		Thinking of you.  Wishing you speedy healing!  Love,   Penny and Bob From Penny J Brichta	false		
114-1310667-2646632	44943719140138	2020-10-07T23:34:02+00:00	2020-10-07T16:34:02-07:00	2020-10-07T23:59:11+00:00	2020-10-10T06:59:59+00:00	-1	kfzdds2znzps240@marketplace.amazon.com	Elisabeth Heptner	+1 415-851-9136 ext. 92571	ABR0022	Arabella Farm Direct Bouquet of 12 Fresh Cut Pink Roses with a Free Glass Vase	1	0	1	Expedited	Alice Ann Kovalchik	4005 DARES BEACH RD			PRINCE FREDERICK	MD	20678-4239	US			false		
111-9924122-4052238	24064178954194	2020-10-08T00:13:32+00:00	2020-10-07T17:13:32-07:00	2020-10-08T00:43:11+00:00	2020-10-10T06:59:59+00:00	-1	03bhj2wtzbp01q6@marketplace.amazon.com	Kelly Ortelt	+1 415-851-9136 ext. 06490	ABR0022	Arabella Farm Direct Bouquet of 12 Fresh Cut Pink Roses with a Free Glass Vase	1	0	1	Expedited	Barbara fernaays	16 EAST AVE			LE ROY	NY	14482-1206	US		We love you! Xoxoxo From Your Loving family!	false		
112-4337583-1877835	06634814758122	2020-10-08T00:28:38+00:00	2020-10-07T17:28:38-07:00	2020-10-08T00:55:39+00:00	2020-10-10T06:59:59+00:00	-1	q0bjgtl3xb19zq0@marketplace.amazon.com	Pamela Giangreco Marotta	+1 602-671-6610 ext. 52926	ABM010	Delivery by Monday | The Spring Fling Bouquet by Arabella Bouquets with a Free Designer Glass Vase	1	0	1	Standard	Ellen Spangenthal	192 CASTLEBROOK LN			WILLIAMSVILLE	NY	14221-4475	US		Wishing you love, joy and happiness in your new home. From Pamela Giangreco Marotta	false		
113-5915571-0152240	12088981429090	2020-10-08T00:41:39+00:00	2020-10-07T17:41:39-07:00	2020-10-08T01:11:08+00:00	2020-10-10T06:59:59+00:00	-1	90l9q8fnmcscsd0@marketplace.amazon.com	Nicholas Beardo	+1 415-851-9136 ext. 74839	ABM002	Delivery by Monday | Arabella Bouquets Fresh Cut White Calla Lilies in a Free Designer Glass Vase	1	0	1	Expedited	Nicholas Beardo	8911 Napa Valley Way			SACRAMENTO	CA	95829	US			false		
114-5033848-1640216	35674224764010	2020-10-08T00:58:21+00:00	2020-10-07T17:58:21-07:00	2020-10-08T01:20:31+00:00	2020-10-10T06:59:59+00:00	-1	0xfjpgm7nw6q2dr@marketplace.amazon.com	Brian Jackson	+1 929-436-4790 ext. 16392	ABM022	Delivery by Monday | Purple Extravagance Bouquet by Arabella Bouquets	1	0	1	Expedited	Margaret Jackson	187 CARLISLE RD			AUDUBON	NJ	08106-1209	US		Mom,  Happy Birthday! Enjoy the Fall weather. See you as soon as I can. Love, Brian From Brian Jackson	false		
113-8622235-3114636	05449127938434	2020-10-08T01:01:21+00:00	2020-10-07T18:01:21-07:00	2020-10-08T01:30:45+00:00	2020-10-10T06:59:59+00:00	-1	f10mm5sq1dl80hk@marketplace.amazon.com	Amelia Boenig	+1 480-618-5344 ext. 11009	ABM010	Delivery by Monday | The Spring Fling Bouquet by Arabella Bouquets with a Free Designer Glass Vase	1	0	1	Expedited	Anita Boenig	624 rock island circle			Danville	CA	94526	US		Feel better soon!  We love you! From Chris Aimee Zach and Merritt	false		
113-0757035-8751442	60486986890330	2020-10-08T01:20:29+00:00	2020-10-07T18:20:29-07:00	2020-10-08T01:49:19+00:00	2020-10-10T06:59:59+00:00	-1	kf2bh02l1hcc7kl@marketplace.amazon.com	Susan H Slater	+1 480-618-5344 ext. 48233	ABM010	Delivery by Monday | The Spring Fling Bouquet by Arabella Bouquets with a Free Designer Glass Vase	1	0	1	Expedited	Meaghan Slater	2525 W TENNESSEE ST APT 2301			TALLAHASSEE	FL	32304-2505	US		Meaghan, Happy 22nd Birthday! Love you so very much, Mom and Dad From Susan H Slater	false		
113-3514866-8687403	64987285938322	2020-10-08T01:35:57+00:00	2020-10-07T18:35:57-07:00	2020-10-08T01:52:42+00:00	2020-10-10T06:59:59+00:00	-1	b7gn6nwy362fdf4@marketplace.amazon.com	simonetta spaccia	+1 929-436-4790 ext. 75182	ABR0022	Arabella Farm Direct Bouquet of 12 Fresh Cut Pink Roses with a Free Glass Vase	1	0	1	Expedited	Julia bering	6280 CEANOTHUS LN			SAN JOSE	CA	95119-1217	US			false		
114-5074628-3849024	08051567485482	2020-10-08T02:51:13+00:00	2020-10-07T19:51:13-07:00	2020-10-08T03:16:52+00:00	2020-10-10T06:59:59+00:00	-1	0hj3lzvpsj6b8tv@marketplace.amazon.com	Mallory	+1 929-436-4790 ext. 72290	ABB005	Arabella Bouquets 24 Stems of Fresh Cut Red Roses in a Designer Glass Vase	1	0	1	Expedited	Monicea Barnes	6760 WINDHAVEN PKWY APT 2046			THE COLONY	TX	75056-6882	US		So sorry you’re going through so much, Mo. We love you and hope these roses brighten your day. Praying for you! From Mallory, Davey, Daniela & Marcellus	false		
111-0420782-5349868	00201054116362	2020-10-08T02:58:55+00:00	2020-10-07T19:58:55-07:00	2020-10-08T03:22:31+00:00	2020-10-10T06:59:59+00:00	-1	c57zj3fskh29rxc@marketplace.amazon.com	Ann Elias	+1 929-436-4790 ext. 80228	ABR0022	Arabella Farm Direct Bouquet of 12 Fresh Cut Pink Roses with a Free Glass Vase	1	0	1	Expedited	Brittany Elias	4806 E LAKE RESERVE BLVD			SAINT CLOUD	FL	34771-8271	US		Happy Birthday Brittany! Sending lots of love to you on this special occasion! Love, Mom, Dad, Caitlin, Jalin and Alanna xxxx oooo xxxx From Ann Elias	false		
112-6631510-7950650	26014893955034	2020-10-08T03:17:22+00:00	2020-10-07T20:17:22-07:00	2020-10-08T03:47:57+00:00	2020-10-10T06:59:59+00:00	-1	fs12trwvqy2khf7@marketplace.amazon.com	Mary Poole	+1 602-671-6610 ext. 72560	ABR004	Delivery by Monday | Arabella Farm Direct Bouquet of 12 Fresh Cut Yellow Roses with a Free Glass Vase	1	0	1	Expedited	Mary Poole	8 HARBOR POINT PL			SAFETY HARBOR	FL	34695-2817	US			false		
113-1051065-9828242	12059918292530	2020-10-08T03:24:20+00:00	2020-10-07T20:24:20-07:00	2020-10-08T03:51:21+00:00	2020-10-10T06:59:59+00:00	-1	ydtrp26g020mxzz@marketplace.amazon.com	CoolCat	+1 480-618-5344 ext. 47977	ABR0022	Arabella Farm Direct Bouquet of 12 Fresh Cut Pink Roses with a Free Glass Vase	1	0	1	Expedited	Celine Simon	20 HARVARD WAY			WALNUT CREEK	CA	94597-3504	US		Celine, We hope you recover quickly! Toughest mama in town. 💪🙂 From Gianna, Olivia, and Jason	false		
114-2136378-3960242	17504392291290	2020-10-08T04:21:02+00:00	2020-10-07T21:21:02-07:00	2020-10-08T04:45:23+00:00	2020-10-10T06:59:59+00:00	-1	gjpnppxs8fkvhpr@marketplace.amazon.com	William Pietruszewicz	+1 415-851-9136 ext. 06914	ABR0022	Arabella Farm Direct Bouquet of 12 Fresh Cut Pink Roses with a Free Glass Vase	1	0	1	Expedited	Jenny Wilson	14221 N 51ST AVE APT 2099			GLENDALE	AZ	85306-2552	US		Congratulations on your new baby! Hope all is well. From William & Lisa  Pietruszewicz	false		
111-8462570-7665067	35823145809114	2020-10-08T04:51:05+00:00	2020-10-07T21:51:05-07:00	2020-10-08T05:20:03+00:00	2020-10-10T06:59:59+00:00	-1	ptqctd5bxhclstz@marketplace.amazon.com	huda	+1 480-618-5344 ext. 17677	ABB006	Arabella Bouquets | Farm Direct 48 Fresh Cut Red Roses	1	0	1	Expedited	Brooks hitchcock	6601 BEECHMONT AVE APT 52			CINCINNATI	OH	45230-5904	US		We were mentioned in the book of life .. and for that we shall never be apart From Huda	false		
112-7335326-1970606	37916949353354	2020-10-08T06:30:48+00:00	2020-10-07T23:30:48-07:00	2020-10-08T06:48:52+00:00	2020-10-10T06:59:59+00:00	-1	d5t2krypqqs4mjp@marketplace.amazon.com	Sami	+1 415-851-9136 ext. 19464	ABM022	Delivery by Monday | Purple Extravagance Bouquet by Arabella Bouquets	1	0	1	Expedited	Shereen Spahi	19195 MYSTIC POINTE DR APT 2506			AVENTURA	FL	33180-4510	US		Get well soon Love you, From Samia	false		
111-4525383-1792246	50806083750378	2020-10-08T07:14:53+00:00	2020-10-08T00:14:53-07:00	2020-10-08T07:45:05+00:00	2020-10-14T06:59:59+00:00	-5	7tsf1688mrbxxtz@marketplace.amazon.com	jan baldwin	+1 929-436-4790 ext. 19470	ABM010	Delivery by Monday | The Spring Fling Bouquet by Arabella Bouquets with a Free Designer Glass Vase	1	0	1	Expedited	Esther Gore	16424 CASSIDY CT			LA PINE	OR	97739-7512	US			false		
112-8896865-8461040	61510729658994	2020-10-08T12:28:24+00:00	2020-10-08T05:28:24-07:00	2020-10-08T12:54:35+00:00	2020-10-14T06:59:59+00:00	-5	g8fz5112vwc005w@marketplace.amazon.com	Angela	+1 480-618-5344 ext. 22905	ABR0022	Arabella Farm Direct Bouquet of 12 Fresh Cut Pink Roses with a Free Glass Vase	1	0	1	Expedited	Carrie Marshall Tarver	7234 DOVERTON CT			RALEIGH	NC	27615-5816	US			false		
111-2721938-5029853	01724985668618	2020-10-08T13:11:32+00:00	2020-10-08T06:11:32-07:00	2020-10-08T13:38:45+00:00	2020-10-14T06:59:59+00:00	-5	8p6dlf52bxxxfkx@marketplace.amazon.com	sedat saatcioglu	+1 929-436-4790 ext. 19620	ABM022	Delivery by Monday | Purple Extravagance Bouquet by Arabella Bouquets	1	0	1	Expedited	Pinar Tabakci	4688 S ATLANTIC AVE			PORT ORANGE	FL	32127-7004	US		Seni düşünmek bile icimi isitiyor , seni seviyorum ve senin herseyin  olmak istiyorum. From sedat saatcioglu	false		
112-5274212-8800250	33482962326474	2020-10-08T13:42:03+00:00	2020-10-08T06:42:03-07:00	2020-10-08T14:10:39+00:00	2020-10-14T06:59:59+00:00	-5	2q895fn5wmk26gb@marketplace.amazon.com	John P. Kennedy	+1 602-671-6610 ext. 44679	ABR001	Delivery by Monday | Arabella Bouquets 12 Stems of Fresh Cut Red Roses in a Free Designer Glass Vase	1	0	1	Standard	Ida Nicholas	115 MIRAGE BLVD			BARNEGAT	NJ	08005-5543	US		Dear Aunt Ida,  Happy Birthday!  We love and miss you. John, Emily, Giuseppe, and Anna Kennedy From John P. Kennedy	false		
112-8729144-8537063	42743545616338	2020-10-08T14:32:31+00:00	2020-10-08T07:32:31-07:00	2020-10-08T15:00:48+00:00	2020-10-14T06:59:59+00:00	-5	qsvptr4ftfjr7y5@marketplace.amazon.com	Sheila Martin	+1 415-851-9136 ext. 66086	ABM0044	Delivery by Monday | Arabella Farm Direct Bouquet of Fresh Cut Blue Hydrangea with a Free Glass Vase	1	0	1	Expedited	Mary Davis	31252 N STAR WAY			VALLEY CENTER	CA	92082-3875	US		Happy Birthday Grandy! We muss you so much! Love, Emma, Evan, Sheila & Tom From The Montana Martins	false		
113-9178532-7552205	04894511003906	2020-10-08T14:34:19+00:00	2020-10-08T07:34:19-07:00	2020-10-08T15:04:04+00:00	2020-10-14T06:59:59+00:00	-5	1c1h9hcpfzxr9p9@marketplace.amazon.com	Dr. M Allen	+1 480-618-5344 ext. 03267	ABR0055	Delivery by Monday | Arabella Farm Direct Bouquet of 12 Stems of Fresh Cut Hot Pink Roses in a Free Designer Glass Vase	1	0	1	Expedited	Dr. M Allen	65573 E CATALINA HILLS DR			TUCSON	AZ	85739-1341	US			false		
113-9178532-7552205	43081972858554	2020-10-08T14:34:19+00:00	2020-10-08T07:34:19-07:00	2020-10-08T15:04:04+00:00	2020-10-14T06:59:59+00:00	-5	1c1h9hcpfzxr9p9@marketplace.amazon.com	Dr. M Allen	+1 480-618-5344 ext. 03267	ABR0022	Arabella Farm Direct Bouquet of 12 Fresh Cut Pink Roses with a Free Glass Vase	1	0	1	Expedited	Dr. M Allen	65573 E CATALINA HILLS DR			TUCSON	AZ	85739-1341	US			false		
114-0447374-7294607	01049379128394	2020-10-08T15:09:25+00:00	2020-10-08T08:09:25-07:00	2020-10-08T15:37:21+00:00	2020-10-14T06:59:59+00:00	-5	jwcmgjy6h0hx8yx@marketplace.amazon.com	dolores browder	+1 929-436-4790 ext. 36610	ABR015	Delivery by Monday | Arabella Farm Direct Bouquet of 18 Fresh Cut Orange Roses with a Free Glass Vase	1	0	1	Expedited	The Dougherty's	7055 REMINGTON OAKS LOOP			LAKELAND	FL	33810-4789	US		Our love to you all.  From John, Dorrie, Ken and Mike. From dolores browder	false		
112-8872239-4298634	25492231362810	2020-10-08T16:45:00+00:00	2020-10-08T09:45:00-07:00	2020-10-08T17:14:10+00:00	2020-10-14T06:59:59+00:00	-5	5xtnwy4g90gttz8@marketplace.amazon.com	suzette renwick	+1 602-671-6610 ext. 90067	ABR004	Delivery by Monday | Arabella Farm Direct Bouquet of 12 Fresh Cut Yellow Roses with a Free Glass Vase	1	0	1	Expedited	Suzette Renwick	3108 Mac Harley lane			LA CROSSE	WI	54601	US		Love you in every shade of the 🌈 From Mom	false		
111-7636536-3128218	11559953685850	2020-10-08T17:01:54+00:00	2020-10-08T10:01:54-07:00	2020-10-08T17:29:42+00:00	2020-10-14T06:59:59+00:00	-5	g48tzflrgfx183l@marketplace.amazon.com	Kate Connolly	+1 602-671-6610 ext. 42968	ABR0022	Arabella Farm Direct Bouquet of 12 Fresh Cut Pink Roses with a Free Glass Vase	1	0	1	Expedited	Margaret Connolly	211 BENNETT DR			WEST COLUMBIA	TX	77486-3113	US		Dear Margaret, Thank you for all your help! Love, Kate & Marty From Kate Connolly	false		
113-1761400-1477807	13059627893354	2020-10-08T17:01:51+00:00	2020-10-08T10:01:51-07:00	2020-10-08T17:29:59+00:00	2020-10-14T06:59:59+00:00	-5	0fd77vljk5y6j7c@marketplace.amazon.com	Lou Cerritelli	+1 480-618-5344 ext. 64862	ABM022	Delivery by Monday | Purple Extravagance Bouquet by Arabella Bouquets	1	0	1	Expedited	Mary Ann Wright	117 N SUGAR ST			SAINT CLAIRSVILLE	OH	43950-1331	US			false		
114-5806779-9399408	03131270475266	2020-10-08T17:52:25+00:00	2020-10-08T10:52:25-07:00	2020-10-08T18:04:13+00:00	2020-10-14T06:59:59+00:00	-5	mjz6d9srsztfdcc@marketplace.amazon.com	Patricia Laing	4109871048 x2430	ABR0055	Delivery by Monday | Arabella Farm Direct Bouquet of 12 Stems of Fresh Cut Hot Pink Roses in a Free Designer Glass Vase	1	0	1	Expedited	Dennise LopezPOsfewster	37 MAVISTA AVE			BALTIMORE	MD	21222-4858	US		Dennise,  Thank you for all your support to the Housing Team. We are lucky to have you on our team! From The Housing Team	true	sfewster	
113-8872219-9842645	21296851839698	2020-10-08T17:43:47+00:00	2020-10-08T10:43:47-07:00	2020-10-08T18:04:51+00:00	2020-10-14T06:59:59+00:00	-5	k91s0z75mnqxx9h@marketplace.amazon.com	Dr. James J. Ripley	+1 415-851-9136 ext. 41157	ABM026	Delivery by Monday | The Amour Bouquet by Arabella Bouquets	1	0	1	Expedited	Sra. Francisca Matias	4222 W 120TH ST			HAWTHORNE	CA	90250-3011	US		Querida Francisca, Feliz Cumpleanos!!! Abrazos, James and Estela Ripley. From Estela and James	false		
113-2695485-1326625	36489968449610	2020-10-08T18:07:20+00:00	2020-10-08T11:07:20-07:00	2020-10-08T18:11:02+00:00	2020-10-10T06:59:59+00:00	-1	kv4zktshwtx45p9@marketplace.amazon.com	Ingrid Feng	+1 929-436-4790 ext. 20297	ABM020	Delivery by Monday | The Sunset Bouquet by Arabella Bouquets	1	0	1	NextDay	Ingrid Feng	1201 GLEN COVE PKWY APT 1513			VALLEJO	CA	94591-7178	US		Happy 25th Birthday to our wonderful Ingrid! You are beautiful inside and out. We are so proud of you! Love Always! From Mom and Dad	false		
111-8005354-3648257	15541766584778	2020-10-08T17:54:25+00:00	2020-10-08T10:54:25-07:00	2020-10-08T18:20:09+00:00	2020-10-14T06:59:59+00:00	-5	t36p7w53s4dk6vq@marketplace.amazon.com	Gina Weeks	+1 602-671-6610 ext. 21260	ABR0022	Arabella Farm Direct Bouquet of 12 Fresh Cut Pink Roses with a Free Glass Vase	1	0	1	Expedited	Barbra Hart and Connie&Ben Woodruff	7738 W SOLANO DR			GLENDALE	AZ	85303-4614	US		In honor of Penny and her love... she's always in our hearts. From Love, Gina Weeks	false		
111-6439108-8306642	04396746294306	2020-10-08T17:57:35+00:00	2020-10-08T10:57:35-07:00	2020-10-08T18:22:13+00:00	2020-10-14T06:59:59+00:00	-5	99xyk5h7c6p04cw@marketplace.amazon.com	Dana Kirk	+1 480-618-5344 ext. 87317	ABM022	Delivery by Monday | Purple Extravagance Bouquet by Arabella Bouquets	1	0	1	Expedited	Marthalyn McCurry	583 MARTINS CHAPEL RD			LAWRENCEVILLE	GA	30045-6633	US		Happy Birthday Mom! From Dana and Chris Kirk	false		
111-7892731-4801856	00493317387514	2020-10-08T18:36:18+00:00	2020-10-08T11:36:18-07:00	2020-10-08T18:37:14+00:00	2020-10-10T06:59:59+00:00	-1	5nq579ks274pv2t@marketplace.amazon.com	Jeanne k payne	+1 480-618-5344 ext. 73846	ABR001	Delivery by Monday | Arabella Bouquets 12 Stems of Fresh Cut Red Roses in a Free Designer Glass Vase	1	0	1	NextDay	Bev Fauser	149 TOP OF THE HILL CIR			CUB RUN	KY	42729-8349	US		Happy Happy 90th we love you so much. Jean Paul and Jeannie From Jeanie and Jean Paul Fauser	false		
112-6460705-8432259	13677399131082	2020-10-08T18:37:42+00:00	2020-10-08T11:37:42-07:00	2020-10-08T18:41:09+00:00	2020-10-10T06:59:59+00:00	-1	8x2rcmkww56xxyk@marketplace.amazon.com	Mathew Goerge	+1 480-618-5344 ext. 07824	ABM010	Delivery by Monday | The Spring Fling Bouquet by Arabella Bouquets with a Free Designer Glass Vase	1	0	1	NextDay	Mariann D Zacharias	46437 KILLARNEY CIR			CANTON	MI	48188-3501	US		Dear Mariann, I just want to light up your day with these flowers. You are very dear to me and I keep you always in my prayers.  Fr. Mathew From Mathew Goerge	false		
113-9260926-3253067	59464661802506	2020-10-08T19:03:44+00:00	2020-10-08T12:03:44-07:00	2020-10-08T19:07:06+00:00	2020-10-10T06:59:59+00:00	-1	95zx9w0ty83rzw2@marketplace.amazon.com	robert finnell	+1 602-671-6610 ext. 79983	ABM022	Delivery by Monday | Purple Extravagance Bouquet by Arabella Bouquets	1	0	1	NextDay	Gloria Gerner	7804 78TH ST			GLENDALE	NY	11385-7445	US		We love you! From Alice and Bob	false		
111-3725157-8313836	15393289488570	2020-10-08T19:10:05+00:00	2020-10-08T12:10:05-07:00	2020-10-08T19:14:06+00:00	2020-10-10T06:59:59+00:00	-1	qbr5cmk4dfypltd@marketplace.amazon.com	Krista Moore	+1 602-671-6610 ext. 89988	ABR013	Delivery by Monday | Arabella Farm Direct Bouquet of 18 Fresh Cut Yellow Roses with a Free Glass Vase	1	0	1	NextDay	Gigi	12325 SE 67TH CT			MILWAUKIE	OR	97222-2074	US		We love you!  Love, Tyler, Krista, and Logan From Krista Moore	false		
114-7738469-4363457	29990567578290	2020-10-08T19:46:03+00:00	2020-10-08T12:46:03-07:00	2020-10-08T19:49:13+00:00	2020-10-10T06:59:59+00:00	-1	s0z1ykls9h438ln@marketplace.amazon.com	Fahd Rasul	+1 929-436-4790 ext. 09271	ABR0022	Arabella Farm Direct Bouquet of 12 Fresh Cut Pink Roses with a Free Glass Vase	1	0	1	NextDay	M.A. Faisal	414 SW WINDSOR DR			LAKE CITY	FL	32024-3539	US		Dearest Bhai, Happy Birthday!!  Love and blessings always!! 🙏💐❤️ From Papri & Family	false		
114-6765178-7037814	11723561036010	2020-10-08T19:52:15+00:00	2020-10-08T12:52:15-07:00	2020-10-08T19:53:12+00:00	2020-10-10T06:59:59+00:00	-1	27r2bth629qd6xm@marketplace.amazon.com	Barbara D. Marlin	+1 480-618-5344 ext. 54962	ABM010	Delivery by Monday | The Spring Fling Bouquet by Arabella Bouquets with a Free Designer Glass Vase	1	0	1	NextDay	Helen Ahern	C/O JACKSON CREEK SENIOR LIVING	16601 JACKSON CREEK PKWY		MONUMENT	CO	80132-7307	US		Happy Birthday, Helen.  Ralph From Ralph E. Dyson	false		
114-9067028-8940228	60544102402258	2020-10-08T20:43:48+00:00	2020-10-08T13:43:48-07:00	2020-10-08T20:46:34+00:00	2020-10-10T06:59:59+00:00	-1	n9g4qpx5tsv3y33@marketplace.amazon.com	Jean Pennino	+1 415-851-9136 ext. 46441	ABR0033	Delivery by Monday | Arabella Farm Direct Bouquet of 12 Fresh Cut Orange Roses with a Free Glass Vase	1	0	1	NextDay	Kathleen Haviland	8483 SW 60TH CT			OCALA	FL	34476-8517	US		Wishing you a wonderful birthday and a terrific year! From We love you! Jean and Ernie	false		
114-1211127-8373859	48386827723602	2020-10-08T22:55:21+00:00	2020-10-08T15:55:21-07:00	2020-10-08T23:00:11+00:00	2020-10-10T06:59:59+00:00	-1	y325nry3fcdbtvh@marketplace.amazon.com	lisa kay beck	+1 929-436-4790 ext. 26896	ABR0022	Arabella Farm Direct Bouquet of 12 Fresh Cut Pink Roses with a Free Glass Vase	1	0	1	NextDay	Lisa Kay Beck	16059 27TH AVE NE			SHORELINE	WA	98155-6451	US			false		
114-0695205-5588264	54685777566162	2020-10-08T23:01:31+00:00	2020-10-08T16:01:31-07:00	2020-10-08T23:03:59+00:00	2020-10-10T06:59:59+00:00	-1	y325nry3fcdbtvh@marketplace.amazon.com	lisa kay beck	+1 929-436-4790 ext. 71881	ABR0022	Arabella Farm Direct Bouquet of 12 Fresh Cut Pink Roses with a Free Glass Vase	1	0	1	NextDay	Lindy Spray-Thomas	6212 30TH AVE NE			SEATTLE	WA	98115-7208	US			false		
112-5829288-3699405	05959974520906	2020-10-08T23:37:55+00:00	2020-10-08T16:37:55-07:00	2020-10-08T23:40:55+00:00	2020-10-10T06:59:59+00:00	-1	y7l57wzs6tsd7gn@marketplace.amazon.com	carol van pelt	+4025162208	ABR0022	Arabella Farm Direct Bouquet of 12 Fresh Cut Pink Roses with a Free Glass Vase	1	0	1	NextDay	Mrs Susie Moore	2857 COASTAL DR			AURORA	IL	60503-5707	US		Congratulations Mama on your beautiful baby boy Myles From carol van pelt	false		
112-7791504-2075454	09395331006026	2020-10-08T23:59:15+00:00	2020-10-08T16:59:15-07:00	2020-10-09T00:00:09+00:00	2020-10-10T06:59:59+00:00	-1	hlwpm8v09qflkjd@marketplace.amazon.com	Guadalupe	+1 415-851-9136 ext. 50708	ABR0022	Arabella Farm Direct Bouquet of 12 Fresh Cut Pink Roses with a Free Glass Vase	1	0	1	NextDay	Alma E Cuevas	8409 Eddy Stone Ave			LAS VEGAS	NV	89117	US		To all of you who are mourning our beloved Jack. You are in my thoughts and prayers. From Lupe Uriarte	false		
113-9103529-1309865	64111085194906	2020-10-09T00:07:25+00:00	2020-10-08T17:07:25-07:00	2020-10-09T00:12:52+00:00	2020-10-10T06:59:59+00:00	-1	26mmcbk74ykpyqj@marketplace.amazon.com	E.C.RUCKMAN	+1 929-436-4790 ext. 14882	ABM022	Delivery by Monday | Purple Extravagance Bouquet by Arabella Bouquets	1	0	1	NextDay	Brenda Inez Sullivan	# 5 MACMILLAN DR			BRUNSWICK	ME	04011-3205	US			false		
111-8927110-1965058	03040195267290	2020-10-09T00:14:56+00:00	2020-10-08T17:14:56-07:00	2020-10-09T00:15:56+00:00	2020-10-10T06:59:59+00:00	-1	gx5ngl8lz19y7h4@marketplace.amazon.com	Ben Cherek	+1 929-436-4790 ext. 52706	ABR0022	Arabella Farm Direct Bouquet of 12 Fresh Cut Pink Roses with a Free Glass Vase	1	0	1	NextDay	Etta Cherek Room 82	HILLCREST HEALTH & REHAB	1702 HILLCREST DR		BELLEVUE	NE	68005-3652	US		From your kids in Florida. Love you. From Ben Cherek	false		
112-5086255-3647467	34323010719146	2020-10-09T00:19:52+00:00	2020-10-08T17:19:52-07:00	2020-10-09T00:25:20+00:00	2020-10-10T06:59:59+00:00	-1	d3mnly2brf1cr1w@marketplace.amazon.com	Erin McCormick	+1 929-436-4790 ext. 37288	ABM0044	Delivery by Monday | Arabella Farm Direct Bouquet of Fresh Cut Blue Hydrangea with a Free Glass Vase	1	0	1	NextDay	Erin McCormick	1336 RED HILL RD			MARIETTA	GA	30008-5302	US			false		
113-5257621-7008260	55678154092194	2020-10-09T00:24:18+00:00	2020-10-08T17:24:18-07:00	2020-10-09T00:28:04+00:00	2020-10-10T06:59:59+00:00	-1	m78lv8v2j3pp915@marketplace.amazon.com	Pam Dedinsky	+1 602-671-6610 ext. 68934	ABR0022	Arabella Farm Direct Bouquet of 12 Fresh Cut Pink Roses with a Free Glass Vase	1	0	1	NextDay	Eva bassiri	2821 2ND AVE APT 1205			SEATTLE	WA	98121-1249	US			false		
113-8403857-2929010	04351108635170	2020-10-09T00:34:50+00:00	2020-10-08T17:34:50-07:00	2020-10-09T00:39:47+00:00	2020-10-10T06:59:59+00:00	-1	m78lv8v2j3pp915@marketplace.amazon.com	Pam Dedinsky	+1 929-436-4790 ext. 57909	ABR0022	Arabella Farm Direct Bouquet of 12 Fresh Cut Pink Roses with a Free Glass Vase	1	0	1	NextDay	Rachel Dedinsky	1301 DAVID ST APT 121			SAN MATEO	CA	94403-1911	US			false		
114-1583256-4213830	36986673858034	2020-10-09T00:49:02+00:00	2020-10-08T17:49:02-07:00	2020-10-09T00:50:29+00:00	2020-10-10T06:59:59+00:00	-1	kp7bgly8qq2l9s2@marketplace.amazon.com	Edwin R Lozano	+1 480-618-5344 ext. 14575	ABM022	Delivery by Monday | Purple Extravagance Bouquet by Arabella Bouquets	1	0	1	NextDay	Maritza Dancsecs	5 LAUREL HILL RD			MOUNTAIN LAKES	NJ	07046-1108	US		Sweetheart - happy 46.2 birthday!  I am super late but I didn’t want to miss the chance to send you my best wishes anyway.  Hope to see you soon. Love, Vicky From Vicky Lozano	false		
113-4098912-0708224	35111354587450	2020-10-09T00:53:31+00:00	2020-10-08T17:53:31-07:00	2020-10-09T00:58:20+00:00	2020-10-10T06:59:59+00:00	-1	ktvpy8w059ksvdz@marketplace.amazon.com	Michelle	+1 480-618-5344 ext. 64780	ABM010	Delivery by Monday | The Spring Fling Bouquet by Arabella Bouquets with a Free Designer Glass Vase	1	0	1	NextDay	Deborah Perez	146 KENILWORTH PL APARTMENT # 2			BROOKLYN	NY	11210-2424	US			false		
112-0603586-8627456	03269103168546	2020-10-09T01:11:33+00:00	2020-10-08T18:11:33-07:00	2020-10-09T01:12:32+00:00	2020-10-10T06:59:59+00:00	-1	1pn7jqyjgk0thzc@marketplace.amazon.com	D	+1 602-671-6610 ext. 86792	ABR001	Delivery by Monday | Arabella Bouquets 12 Stems of Fresh Cut Red Roses in a Free Designer Glass Vase	1	0	1	NextDay	Michele Arbunic	1703 CORRAL DR			HOUSTON	TX	77090-2125	US		I hope you are feeling well and rested from your trip after bringing me such joy! From -Davy.	false		
113-1682752-7391459	45831626500946	2020-10-09T01:07:07+00:00	2020-10-08T18:07:07-07:00	2020-10-09T01:12:42+00:00	2020-10-10T06:59:59+00:00	-1	32lzr2f9l7kdb5m@marketplace.amazon.com	Benjamin J Brooks	+1 929-436-4790 ext. 00478	ABR0033	Delivery by Monday | Arabella Farm Direct Bouquet of 12 Fresh Cut Orange Roses with a Free Glass Vase	1	0	1	NextDay	Benjamin J Brooks	2319 BOTTLEBRUSH LN			CONROE	TX	77384-2708	US			false		
113-3802045-8845021	44222629485906	2020-10-09T01:18:28+00:00	2020-10-08T18:18:28-07:00	2020-10-09T01:19:25+00:00	2020-10-10T06:59:59+00:00	-1	71hnjzfdkwrrfdf@marketplace.amazon.com	HEATHER ADAMS	+1 929-436-4790 ext. 83233	ABR0022	Arabella Farm Direct Bouquet of 12 Fresh Cut Pink Roses with a Free Glass Vase	1	0	1	NextDay	judy	8907 N 94TH AVE			PEORIA	AZ	85345-7709	US		These are as pretty as mom! From Luv. David ,Head and Aspen	false		
111-8356247-8867457	65483192665770	2020-10-09T01:21:57+00:00	2020-10-08T18:21:57-07:00	2020-10-09T01:24:42+00:00	2020-10-10T06:59:59+00:00	-1	hxhyy8g7qyrhbg9@marketplace.amazon.com	Angela Manifold	+1 480-618-5344 ext. 24508	ABR0033	Delivery by Monday | Arabella Farm Direct Bouquet of 12 Fresh Cut Orange Roses with a Free Glass Vase	1	0	1	NextDay	Suzanne McGowan	117 PINE VALLEY RD			DOVER	DE	19904-7108	US		Dear Mrs McGowan. We’re so sorry to hear about your loss but wanted to send healing prayers and comforting your way as you have done so many times for others. God Bless The Manifold Family From Angela Manifold	false		
111-2988448-7943427	64029958873258	2020-10-09T01:47:27+00:00	2020-10-08T18:47:27-07:00	2020-10-09T01:52:39+00:00	2020-10-10T06:59:59+00:00	-1	try2hmr5h4nxvcf@marketplace.amazon.com	pam erling	+1 415-851-9136 ext. 63082	ABR0022	Arabella Farm Direct Bouquet of 12 Fresh Cut Pink Roses with a Free Glass Vase	1	0	1	NextDay	Arlene Jewett	2550 FOUNTAIN HILL LOOP			LINCOLN	CA	95648-8224	US			false		
112-6154033-2049853	27275832093274	2020-10-09T02:58:02+00:00	2020-10-08T19:58:02-07:00	2020-10-09T02:58:52+00:00	2020-10-10T06:59:59+00:00	-1	mx5s1d2z45889q9@marketplace.amazon.com	ELIANA	+1 415-851-9136 ext. 55505	ABR001	Delivery by Monday | Arabella Bouquets 12 Stems of Fresh Cut Red Roses in a Free Designer Glass Vase	1	0	1	NextDay	Beatriz Alvarez	18524 73RD AVE W UNIT A			EDMONDS	WA	98026-5537	US		Feliz Cumpleaños Abuelita From Cristian	false		
114-4861990-0555412	19884470608410	2020-10-09T03:23:55+00:00	2020-10-08T20:23:55-07:00	2020-10-09T03:26:06+00:00	2020-10-10T06:59:59+00:00	-1	qd4n8q88sj81xwy@marketplace.amazon.com	Kathleen Ann Jacobi	+1 602-671-6610 ext. 79931	ABR0022	Arabella Farm Direct Bouquet of 12 Fresh Cut Pink Roses with a Free Glass Vase	1	0	1	NextDay	Pamela Starbuck	227 W 25TH AVE			SPOKANE	WA	99203-1805	US		Happy 50th Birthday, baby sister! I love you very much, Pam! I hope you enjoy your celebrations and this new decade ahead!  You’re an amazing woman! From Kathy	false		
114-7824136-9506655	56710359752634	2020-10-09T03:53:09+00:00	2020-10-08T20:53:09-07:00	2020-10-09T03:54:05+00:00	2020-10-10T06:59:59+00:00	-1	03x5104j04l505k@marketplace.amazon.com	Nedra Moore	+1 480-618-5344 ext. 50662	ABM023	Delivery by Monday | The Morning Sun Bouquet by Arabella Bouquets	1	0	1	NextDay	Jean Venton	6371 MURRAY PARK CT			SAN DIEGO	CA	92119-2930	US		THANK YOU!💕💕💕 From Nedra Moore	false		
111-0405911-8448251	59750398455306	2020-10-09T04:37:00+00:00	2020-10-08T21:37:00-07:00	2020-10-09T04:42:00+00:00	2020-10-10T06:59:59+00:00	-1	w90jtvz9mnbtcvm@marketplace.amazon.com	Wesley Van Fossan	+1 602-671-6610 ext. 28150	ABR0055	Delivery by Monday | Arabella Farm Direct Bouquet of 12 Stems of Fresh Cut Hot Pink Roses in a Free Designer Glass Vase	1	0	1	NextDay	Pedro Molina	1221 SPRING BREEZE CIR			NORTH LAS VEGAS	NV	89031-2365	US		"Sending our condolences, may our dear Jessica rest in heaven and heal with God. We love you all very much From The Van Fossans" From Wesley Van Fossan	false		
112-3640292-2237851	43279260803714	2020-10-09T04:43:25+00:00	2020-10-08T21:43:25-07:00	2020-10-09T04:44:18+00:00	2020-10-10T06:59:59+00:00	-1	b3mdqnz2lfs7yqj@marketplace.amazon.com	sel sarkin	+1 480-618-5344 ext. 06647	ABM022	Delivery by Monday | Purple Extravagance Bouquet by Arabella Bouquets	1	0	1	NextDay	Darren sarkin	141 BOULEVARD			NEW MILFORD	NJ	07646-1701	US		Dearest Darren and Sparrow, Here's a little colour to brighten up your new home. Sending blessings and love to the newly weds. Looking forward to many good things from you and a few shared adventures. Perhaps a ceremony at BM From Sel and Felicia	false		
111-6396121-9004254	09948679624682	2020-10-09T05:23:04+00:00	2020-10-08T22:23:04-07:00	2020-10-09T05:25:45+00:00	2020-10-10T06:59:59+00:00	-1	sp5lq42s0qhx4ty@marketplace.amazon.com	Avinash Ganesh Pai	+1 415-851-9136 ext. 12107	ABM010	Delivery by Monday | The Spring Fling Bouquet by Arabella Bouquets with a Free Designer Glass Vase	1	0	1	NextDay	Jaidev Prabhu	19864 WHEATON DR			CUPERTINO	CA	95014-2362	US		On your 50th Birthday.... Wish you the very best in life for many more years to come.... From Anu and Family.	false		
114-5603110-2950644	31402993773658	2020-10-09T05:58:42+00:00	2020-10-08T22:58:42-07:00	2020-10-09T05:59:34+00:00	2020-10-10T06:59:59+00:00	-1	rqzns0pxw30vhv1@marketplace.amazon.com	michael veliyev	+1 480-618-5344 ext. 51220	ABM022	Delivery by Monday | Purple Extravagance Bouquet by Arabella Bouquets	1	0	1	NextDay	Michael Veliyev	1011 N TYNDALL AVE UNIT # 803			TUCSON	AZ	85719-4446	US		I'm sorry I haven't been there for you. I want to start showing you that I will be. Thank you so much for everything. I love you, and I miss you From Love, Michael	false		
114-3826374-3849031	34085495795074	2020-10-09T06:31:39+00:00	2020-10-08T23:31:39-07:00	2020-10-09T06:34:32+00:00	2020-10-10T06:59:59+00:00	-1	4scp5jh3bq09708@marketplace.amazon.com	Terri	+1 602-671-6610 ext. 75611	ABR012	Delivery by Monday | Arabella Farm Direct Bouquet of 18 Fresh Cut Pink Roses with a Free Glass Vase	1	0	1	NextDay	Lela Culpepper	4045 NILES ST			WATERLOO	IA	50703-1535	US		Happy Birthday Mom!  Wish we were there to help you celebrate! We Love You! From Tyrone & Terri	false		
112-7303865-3381835	63924460276346	2020-10-09T06:38:28+00:00	2020-10-08T23:38:28-07:00	2020-10-09T06:44:00+00:00	2020-10-10T06:59:59+00:00	-1	73db3t6p0p1tnvc@marketplace.amazon.com	Josh Stancea	+1 602-671-6610 ext. 73244	ABSR004	Arabella Farm Direct Bouquet of Fresh Cut White Spray Roses with a Free Glass Vase	1	0	1	NextDay	Josh Stancea	7100 BAYSHORE DR			MILTON	FL	32583-2921	US			false		
112-8646244-8177006	61914884071250	2020-10-09T07:52:04+00:00	2020-10-09T00:52:04-07:00	2020-10-09T07:57:30+00:00	2020-10-10T06:59:59+00:00	-1	l78rtskcyr9wwws@marketplace.amazon.com	Eduardo flores	+1 602-671-6610 ext. 95657	ABR001	Delivery by Monday | Arabella Bouquets 12 Stems of Fresh Cut Red Roses in a Free Designer Glass Vase	1	0	1	NextDay	Sarah E Olea	1349 VIA SANTIAGO APT A			CORONA	CA	92882-1401	US			false		
112-9684994-3455401	41290231090866	2020-10-09T10:06:01+00:00	2020-10-09T03:06:01-07:00	2020-10-09T10:09:58+00:00	2020-10-10T06:59:59+00:00	-1	63wlbzx10z35mt0@marketplace.amazon.com	Tyreek	+1 602-671-6610 ext. 73821	ABR0022	Arabella Farm Direct Bouquet of 12 Fresh Cut Pink Roses with a Free Glass Vase	1	0	1	NextDay	Shakayla Turner	21 CORONA ST APT 3			BOSTON	MA	02124-1062	US			false		
112-8061305-9441028	38848537450642	2020-10-09T10:45:13+00:00	2020-10-09T03:45:13-07:00	2020-10-09T10:50:51+00:00	2020-10-10T06:59:59+00:00	-1	p2hk82d48mnfrjp@marketplace.amazon.com	Annette L. Baker	+1 480-618-5344 ext. 78014	ABB003	Arabella Farm Direct Fresh Cut Blue Hydrangea	1	0	1	NextDay	Annette Baker	93 STANLEY RD			SWAMPSCOTT	MA	01907-1454	US			false		
112-4063381-5887450	62788602415010	2020-10-09T12:11:37+00:00	2020-10-09T05:11:37-07:00	2020-10-09T12:13:42+00:00	2020-10-10T06:59:59+00:00	-1	ymndb3mv7qkwtds@marketplace.amazon.com	Robin Sandor	+1 480-618-5344 ext. 52558	ABR0022	Arabella Farm Direct Bouquet of 12 Fresh Cut Pink Roses with a Free Glass Vase	1	0	1	NextDay	Kathy Voight	65 KINGS WAY			PAWLING	NY	12564-2162	US		Thinking of you and sending much love and good thoughts. xoxo From Audra & Robin	false		
