order-id	order-item-id	purchase-date	payments-date	reporting-date	promise-date	days-past-promise	buyer-email	buyer-name	buyer-phone-number	sku	product-name	quantity-purchased	quantity-shipped	quantity-to-ship	ship-service-level	recipient-name	ship-address-1	ship-address-2	ship-address-3	ship-city	ship-state	ship-postal-code	ship-country	gift-wrap-type	gift-message-text	is-business-order	purchase-order-number	price-designation
111-3619228-1265057	68236796429594	2020-10-09T17:51:46+00:00	2020-10-09T10:51:46-07:00	2020-10-09T18:18:02+00:00	2020-10-15T06:59:59+00:00	-6	dlkzzxfdqwr37sv@marketplace.amazon.com	Bill	+1 480-618-5344 ext. 15359	ABR0022	Delivery by Tuesday | Arabella Farm Direct Bouquet of 12 Fresh Cut Pink Roses with a Free Glass Vase	1	0	1	Expedited	Dolores Hufnagel	85 FARADAY ST			HYDE PARK	MA	02136-3307	US		Happy Anniversary Love Bill Marie and family From Bill	false		
114-8474014-7980217	62837828878594	2020-10-09T18:50:06+00:00	2020-10-09T11:50:06-07:00	2020-10-09T18:51:00+00:00	2020-10-14T06:59:59+00:00	-5	f20wby5hl80z1mj@marketplace.amazon.com	Carol Ann	+1 480-618-5344 ext. 41260	ABR011	Delivery by Tuesday | Arabella Bouquets 18 Stems of Fresh Cut Red Roses in a Free Glass Vase	1	0	1	NextDay	Allene Stiffel	7451 NW 29TH ST			MARGATE	FL	33063-7851	US		Happy Birthday!  We love you. From Carol Ann	false		
111-2483439-9108244	41098782713978	2020-10-09T18:50:03+00:00	2020-10-09T11:50:03-07:00	2020-10-09T18:52:59+00:00	2020-10-14T06:59:59+00:00	-5	nfgnxv5vl9q5ylt@marketplace.amazon.com	frank evans	+1 480-618-5344 ext. 30499	ABR0022	Delivery by Tuesday | Arabella Farm Direct Bouquet of 12 Fresh Cut Pink Roses with a Free Glass Vase	1	0	1	NextDay	Beth Howell	344 COUNTY ROAD 1660			CHICO	TX	76431-3721	US		Hi Beth, Enjoy your gift ! Thank you for the great dinners you made for us. Much appreciated! From frank evans	false		
112-4055835-9932255	15463222041674	2020-10-09T18:52:02+00:00	2020-10-09T11:52:02-07:00	2020-10-09T18:53:02+00:00	2020-10-14T06:59:59+00:00	-5	34vszdns3ylfc27@marketplace.amazon.com	yizhe chen	+1 415-851-9136 ext. 49047	ABM020	Delivery by Tuesday | The Sunset Bouquet by Arabella Bouquets	1	0	1	NextDay	Zhuma Hu	8159 S MAIO DR			SANDY	UT	84093-6773	US		Dear Sister Zhuma,  Happy 60th Birthday! May our God bless you more and bless more people through you :)  Sincerely, Yizhe, Hoshin and Eleanor From Yizhe and Hoshin	false		
114-0890705-0192260	44037794015770	2020-10-09T18:25:29+00:00	2020-10-09T11:25:29-07:00	2020-10-09T18:54:54+00:00	2020-10-15T06:59:59+00:00	-6	zn45d8qg7fxy2gd@marketplace.amazon.com	asia	+1 929-436-4790 ext. 66772	ABR0022	Delivery by Tuesday | Arabella Farm Direct Bouquet of 12 Fresh Cut Pink Roses with a Free Glass Vase	1	0	1	Expedited	Silvia Gant	4040 QUARTZITE LN			SAN BERNARDINO	CA	92407-0473	US		Thank you for all of your help!! We love you! From Asia & the kids	false		
111-0615088-2125056	05066816169546	2020-10-09T19:21:37+00:00	2020-10-09T12:21:37-07:00	2020-10-09T19:23:14+00:00	2020-10-14T06:59:59+00:00	-5	2z32khf9g0r9pln@marketplace.amazon.com	dale w fiscus	+1 929-436-4790 ext. 38290	ABR0022	Delivery by Tuesday | Arabella Farm Direct Bouquet of 12 Fresh Cut Pink Roses with a Free Glass Vase	1	0	1	NextDay	Gena McVitty	1929 FRY LOOP AVE			CARLISLE	PA	17013-1031	US		Congratulations on 10 years! We love you! From Ted, Michele & Rachel	false		
113-6269129-6485806	07343612659482	2020-10-09T19:22:36+00:00	2020-10-09T12:22:36-07:00	2020-10-09T19:23:34+00:00	2020-10-14T06:59:59+00:00	-5	7n1j3ptss22kzl7@marketplace.amazon.com	Alexander rafalovich	+1 602-671-6610 ext. 66196	ABR0022	Delivery by Tuesday | Arabella Farm Direct Bouquet of 12 Fresh Cut Pink Roses with a Free Glass Vase	1	0	1	NextDay	Klauz Katya	4018 DOLAN WAY			WESTFIELD	IN	46074-8286	US		Happy birthday! We wish you the best, With love Susanna & Sasha. From Alexander rafalovich	false		
111-2620572-5256214	10744087068786	2020-10-09T19:24:18+00:00	2020-10-09T12:24:18-07:00	2020-10-09T19:25:11+00:00	2020-10-14T06:59:59+00:00	-5	5mwk2gcx1fmsqqk@marketplace.amazon.com	Ruth Richard	+1 929-436-4790 ext. 93409	ABR0022	Delivery by Tuesday | Arabella Farm Direct Bouquet of 12 Fresh Cut Pink Roses with a Free Glass Vase	1	0	1	NextDay	Marilyn Brusherd	134 W PARK AVE UNIT A			SUGAR GROVE	IL	60554-2285	US			false		
113-6731285-5800239	34467769571778	2020-10-09T19:40:18+00:00	2020-10-09T12:40:18-07:00	2020-10-09T19:44:13+00:00	2020-10-14T06:59:59+00:00	-5	vkdklrbblspyl0l@marketplace.amazon.com	william	+1 929-436-4790 ext. 66244	ABR001	Delivery by Tuesday | Arabella Bouquets 12 Stems of Fresh Cut Red Roses in a Free Designer Glass Vase	1	0	1	NextDay	Dianne howell	7645 MARSHALL ST	LINCOLN APARTMENT		LINCOLN	DE	19960-3106	US		I am unable to give you the world, but I can give you something even more valuable: I can give you my heart and all of me. Every day of my life, every hour and minute, my heart is beating your name. I love you honey From Roy cooper	false		
111-4013372-6908244	42886185615962	2020-10-09T19:44:32+00:00	2020-10-09T12:44:32-07:00	2020-10-09T19:45:39+00:00	2020-10-14T06:59:59+00:00	-5	81s6sdjqtw49g79@marketplace.amazon.com	Paula Frazier	+1 929-436-4790 ext. 29426	ABR0022	Delivery by Tuesday | Arabella Farm Direct Bouquet of 12 Fresh Cut Pink Roses with a Free Glass Vase	1	0	1	NextDay	Arlene-Nicki Hagoski	STAFFORD HEALTHCARE	2800 S 224TH ST		DES MOINES	WA	98198-5132	US		HAPPY BIRTHDAY, SISTER! (Finally!) From Paula & Jeff Frazier	false		
111-5933269-5799402	68521237057706	2020-10-09T19:41:05+00:00	2020-10-09T12:41:05-07:00	2020-10-09T19:46:10+00:00	2020-10-14T06:59:59+00:00	-5	h69gd1lt6qx4s3y@marketplace.amazon.com	victor colin	+1 480-618-5344 ext. 27356	ABR0022	Delivery by Tuesday | Arabella Farm Direct Bouquet of 12 Fresh Cut Pink Roses with a Free Glass Vase	1	0	1	NextDay	victor colin	14917 ashland ave			Harvey	Illinois	60426	US		¡Disfruta de tu regalo! TE AMO De victor colin	false		
112-4469810-7908261	13878685371746	2020-10-09T19:57:46+00:00	2020-10-09T12:57:46-07:00	2020-10-09T20:02:50+00:00	2020-10-14T06:59:59+00:00	-5	yf136hgc903jm7m@marketplace.amazon.com	Pat Maxwell	+1 480-618-5344 ext. 43561	ABR0033	Delivery by Tuesday | Arabella Farm Direct Bouquet of 12 Fresh Cut Orange Roses with a Free Glass Vase	1	0	1	NextDay	William Maxwell	9 EMERY LN			DOVER	NH	03820-5011	US			false		
111-7771358-3800242	15680235719042	2020-10-09T20:19:28+00:00	2020-10-09T13:19:28-07:00	2020-10-09T20:21:32+00:00	2020-10-14T06:59:59+00:00	-5	26ms5lnvpjbj5lb@marketplace.amazon.com	Leigh-Ann Gabriel	+1 929-436-4790 ext. 03853	ABM020	Delivery by Tuesday | The Sunset Bouquet by Arabella Bouquets	1	0	1	NextDay	Cheryl Nebhut	21594 AWBREY PL			BROADLANDS	VA	20148-5006	US		Happy Birthday to my beautiful, amazing, Momma Strong sista! Congrats on the new house! Abundance all around!   Love, Aunt LA, Uncle Mark and the boys! From Leigh-Ann Gabriel	false		
112-2176563-9882632	31776223349202	2020-10-09T20:21:11+00:00	2020-10-09T13:21:11-07:00	2020-10-09T20:24:11+00:00	2020-10-14T06:59:59+00:00	-5	r678k5zrgx0pb5g@marketplace.amazon.com	G Singh	+1 415-851-9136 ext. 80329	ABR004	Arabella Farm Direct Bouquet of 12 Fresh Cut Yellow Roses with a Free Glass Vase	1	0	1	NextDay	Denise Paarlberg	7945 W BARRY AVE			ELMWOOD PARK	IL	60707-1025	US			false		
112-3504999-5305062	04249813625538	2020-10-09T20:20:21+00:00	2020-10-09T13:20:21-07:00	2020-10-09T20:24:48+00:00	2020-10-14T06:59:59+00:00	-5	7z06vnscvl8pbby@marketplace.amazon.com	Jennifer Friedman	+1 602-671-6610 ext. 49304	ABR0022	Delivery by Tuesday | Arabella Farm Direct Bouquet of 12 Fresh Cut Pink Roses with a Free Glass Vase	1	0	1	NextDay	Olivia Leigh Hirshorn	288 BEATTY WITTE 615 W JOHNSON ST			MADISON	WI	53706-1723	US		I’m madly in love with you. Happy one month of being my girlfriend. I’ve loved every second of being yours. From Lizzie :) soulmate/girlfriend	false		
111-8478994-5948237	18378293039010	2020-10-09T20:20:31+00:00	2020-10-09T13:20:31-07:00	2020-10-09T20:26:14+00:00	2020-10-14T06:59:59+00:00	-5	vmb0qkpbpb5gysx@marketplace.amazon.com	Douglas A. Kaiser	+1 929-436-4790 ext. 77057	ABB003	Arabella Farm Direct Fresh Cut Blue Hydrangea	1	0	1	NextDay	Karen Kaiser	20116 AINTREE CT			PARKER	CO	80138-7301	US			false		
111-4882360-7546634	70269636019514	2020-10-09T20:31:03+00:00	2020-10-09T13:31:03-07:00	2020-10-09T20:33:56+00:00	2020-10-14T06:59:59+00:00	-5	bgmrb33tfss2qd6@marketplace.amazon.com	Marlene smith	+1 480-618-5344 ext. 78224	ABM031	Delivery by Tuesday | The Harvest Moon Bouquet by Arabella Bouquets	1	0	1	NextDay	Beth Johnson	402 MOKELUMNE RIVER DR			LODI	CA	95240-7611	US		Have a nice day ! From Megan	false		
112-1351736-0875428	52346748369250	2020-10-09T20:10:44+00:00	2020-10-09T13:10:44-07:00	2020-10-09T20:37:56+00:00	2020-10-15T06:59:59+00:00	-6	w9hg2k94yslk395@marketplace.amazon.com	Derek Hamsgiving	+1 480-618-5344 ext. 18191	ABM022	Delivery by Tuesday | Purple Extravagance Bouquet by Arabella Bouquets	1	0	1	Standard	Derek Hamsgiving	827 DATE AVE			CHULA VISTA	CA	91911-1111	US		Enjoy your gift! From Derek Hamsgiving	false		
112-1351736-0875428	16999941848858	2020-10-09T20:10:44+00:00	2020-10-09T13:10:44-07:00	2020-10-09T20:37:56+00:00	2020-10-15T06:59:59+00:00	-6	w9hg2k94yslk395@marketplace.amazon.com	Derek Hamsgiving	+1 480-618-5344 ext. 18191	ABM010	Delivery by Tuesday | The Spring Fling Bouquet by Arabella Bouquets with a Free Designer Glass Vase	1	0	1	Standard	Derek Hamsgiving	827 DATE AVE			CHULA VISTA	CA	91911-1111	US		Enjoy your gift! From Derek Hamsgiving	false		
114-7924345-7089069	01919051316882	2020-10-09T20:38:40+00:00	2020-10-09T13:38:40-07:00	2020-10-09T20:39:36+00:00	2020-10-14T06:59:59+00:00	-5	v26lgpzlq417yvj@marketplace.amazon.com	Patricia Rose	+1 602-671-6610 ext. 34148	ABR0055	Delivery by Tuesday | Arabella Farm Direct Bouquet of 12 Stems of Fresh Cut Hot Pink Roses in a Free Designer Glass Vase	1	0	1	NextDay	Bettie Mitchell	2510 BISCAY WAY			WALNUT CREEK	CA	94598-1215	US		Happy 62 Anniversary! 🌟🥂🎂 Love and Happiness always ... 🥰 From Patricia Rose	false		
114-4373826-3329019	68465834010754	2020-10-09T20:58:25+00:00	2020-10-09T13:58:25-07:00	2020-10-09T20:59:20+00:00	2020-10-14T06:59:59+00:00	-5	364rt2kk1j7c617@marketplace.amazon.com	robert mulholland	+1 415-851-9136 ext. 19776	ABM022	Delivery by Tuesday | Purple Extravagance Bouquet by Arabella Bouquets	1	0	1	NextDay	Ava matteucci	7730 ANGLE RD			NORTHVILLE	MI	48168-9465	US		Enjoy your gift! Happy 13th Birthday Ava Lol GRAMMA & Papa ROY From robert mulholland	false		
114-5292996-4194617	32330313110938	2020-10-09T21:01:33+00:00	2020-10-09T14:01:33-07:00	2020-10-09T21:05:34+00:00	2020-10-14T06:59:59+00:00	-5	364rt2kk1j7c617@marketplace.amazon.com	robert mulholland	+1 480-618-5344 ext. 46539	ABM022	Delivery by Tuesday | Purple Extravagance Bouquet by Arabella Bouquets	1	0	1	NextDay	linda Mulholland	261 SPANISH MOSS LN			RICHMOND HILL	GA	31324-4487	US		Enjoy your gift! Happy Birthday Linda, Love Roy. From robert mulholland	false		
114-0277747-6289865	05198378826034	2020-10-09T21:11:25+00:00	2020-10-09T14:11:25-07:00	2020-10-09T21:12:29+00:00	2020-10-14T06:59:59+00:00	-5	b07d64x815cy3gx@marketplace.amazon.com	Nicole Jones	+1 415-851-9136 ext. 83576	ABR0022	Delivery by Tuesday | Arabella Farm Direct Bouquet of 12 Fresh Cut Pink Roses with a Free Glass Vase	1	0	1	NextDay	Jill Ansted c/o Northwest Healthcare	4317 NE THURSTON WAY STE 220			VANCOUVER	WA	98662-6660	US			false		
114-9296718-7737844	55775601976498	2020-10-09T21:11:05+00:00	2020-10-09T14:11:05-07:00	2020-10-09T21:15:04+00:00	2020-10-14T06:59:59+00:00	-5	jv0f2n28kck1phy@marketplace.amazon.com	Lois Sockol	+1 480-618-5344 ext. 32005	ABM022	Delivery by Tuesday | Purple Extravagance Bouquet by Arabella Bouquets	1	0	1	NextDay	Alie Basil	3614B DOGE PL			NASHVILLE	TN	37204-3809	US			false		
111-8949525-7549801	14148401561138	2020-10-09T21:05:56+00:00	2020-10-09T14:05:56-07:00	2020-10-09T21:33:39+00:00	2020-10-15T06:59:59+00:00	-6	7390rpjfd8w4p3s@marketplace.amazon.com	Marian Milender	+1 480-618-5344 ext. 87768	ABM021	Delivery by Tuesday | The Joyous Bouquet by Arabella Bouquets	1	0	1	Standard	Rachel Milender	6443 SHETLAND DR NW			ROCHESTER	MN	55901-5662	US		Happy Birthday dear Daughter!  We are thinking of you and wish you a very special celebration and many special new memories. From Mom and Dad	false		
113-3034867-8522629	44323832034242	2020-10-09T21:59:05+00:00	2020-10-09T14:59:05-07:00	2020-10-09T22:04:09+00:00	2020-10-14T06:59:59+00:00	-5	78qx9fn7f383c33@marketplace.amazon.com	Javier	+1 929-436-4790 ext. 79087	ABR0055	Delivery by Tuesday | Arabella Farm Direct Bouquet of 12 Stems of Fresh Cut Hot Pink Roses in a Free Designer Glass Vase	1	0	1	NextDay	Betina hernandez	19406 MONTCLAIR MEADOW LN			KATY	TX	77449-4125	US			false		
113-7549500-0304211	22438896491162	2020-10-09T22:05:38+00:00	2020-10-09T15:05:38-07:00	2020-10-09T22:07:58+00:00	2020-10-14T06:59:59+00:00	-5	lb8nj577tym41c0@marketplace.amazon.com	Tara Belcher	+1 602-671-6610 ext. 32555	ABM027	Delivery by Tuesday | The Changing Seasons Bouquet by Arabella Bouquets	1	0	1	NextDay	Jean Bobo	99 BIRDSONG WAY APT D204			HILTON HEAD ISLAND	SC	29926-1380	US		HAPPY 90TH BIRTHDAY MOM !!!!!!! We'd love to be with you celebrating your day ! Our thoughts are with you today and always  Much love mom From Karen and Joe	false		
111-8958874-2285059	40676443036970	2020-10-09T22:31:23+00:00	2020-10-09T15:31:23-07:00	2020-10-09T22:35:30+00:00	2020-10-14T06:59:59+00:00	-5	8vjvgvz80kqz414@marketplace.amazon.com	Justin Solomon	+1 929-436-4790 ext. 98618	ABM022	Delivery by Tuesday | Purple Extravagance Bouquet by Arabella Bouquets	1	0	1	NextDay	Nancy Griesemer	3101 WHIMBRELL CT			OAKTON	VA	22124-1835	US		Happy birthday, Mom! From Justin Solomon	false		
111-6430632-5703447	01742494850986	2020-10-09T23:09:11+00:00	2020-10-09T16:09:11-07:00	2020-10-09T23:10:39+00:00	2020-10-14T06:59:59+00:00	-5	6zmqbbvr35xtt4c@marketplace.amazon.com	Tina Rinaldi	+1 602-671-6610 ext. 79548	ABR012	Delivery by Tuesday | Arabella Farm Direct Bouquet of 18 Fresh Cut Pink Roses with a Free Glass Vase	1	0	1	NextDay	Nina Rinaldi	1623 MADEIRA AVE			JENKINTOWN	PA	19046-2252	US		Sweet Nina, Enjoy your special double digit birthday! Sending our love Pop pop and Nana	false		
113-6255623-6299464	25700049352898	2020-10-09T23:47:20+00:00	2020-10-09T16:47:20-07:00	2020-10-09T23:50:13+00:00	2020-10-14T06:59:59+00:00	-5	l8n1bfqv8y1rhl3@marketplace.amazon.com	Karen S. Rafferty	+1 602-671-6610 ext. 28500	ABR0033	Delivery by Tuesday | Arabella Farm Direct Bouquet of 12 Fresh Cut Orange Roses with a Free Glass Vase	1	0	1	NextDay	Christopher and Becca Rafferty	12405 MEDITERRA PL			AUSTIN	TX	78732-1263	US		Happy birthday Becca From Love Mom and Pop	false		
111-9907029-8894648	41707158875474	2020-10-10T00:01:13+00:00	2020-10-09T17:01:13-07:00	2020-10-10T00:01:56+00:00	2020-10-14T06:59:59+00:00	-5	8l8wzq26d9lq71j@marketplace.amazon.com	midori inoko	+1 415-851-9136 ext. 99575	ABR0022	Delivery by Tuesday | Arabella Farm Direct Bouquet of 12 Fresh Cut Pink Roses with a Free Glass Vase	1	0	1	NextDay	Mitsuki Sawada	201 N GARLAND CT UNIT 4002			CHICAGO	IL	60601-3725	US		Happy birthday Mitsuki ‼︎ I hope you'll have a wonderful birthday and a peaceful and happy year. Really wishing that traveling gets easier, so we can see you in person.... Omedeto ~ ‼︎ From Midori Nishimura	false		
113-0252854-6021801	37125228834890	2020-10-10T00:09:42+00:00	2020-10-09T17:09:42-07:00	2020-10-10T00:11:41+00:00	2020-10-14T06:59:59+00:00	-5	yyb8yf27f51rdfz@marketplace.amazon.com	Cindy Walton	+1 480-618-5344 ext. 74359	ABM010	Delivery by Tuesday | The Spring Fling Bouquet by Arabella Bouquets with a Free Designer Glass Vase	1	0	1	NextDay	Carol Jo Tichenor	11478 CULL CANYON RD			CASTRO VALLEY	CA	94552-9525	US		Dear Carol Jo, Thank you for all you have done and continue to do for me and our profession.  You are truly an inspiration. From Cindy Walton	false		
111-8860961-4914619	03562123978922	2020-10-10T00:33:03+00:00	2020-10-09T17:33:03-07:00	2020-10-10T00:34:32+00:00	2020-10-14T06:59:59+00:00	-5	8jqtqjwmctvl2wj@marketplace.amazon.com	Terry Holloway	+1 602-671-6610 ext. 67635	ABR0022	Delivery by Tuesday | Arabella Farm Direct Bouquet of 12 Fresh Cut Pink Roses with a Free Glass Vase	1	0	1	NextDay	A. Nigelle Holloway	12142 HOBBY HORSE DR			CARMEL	IN	46032-6300	US		Happy Birthday to our Angel!! We love you and hope you have a wonderful day!! A day early so you can enjoy them more!! Much LOVE!!! From Mom and Dad	false		
114-3315863-8399461	66603289908554	2020-10-10T00:51:39+00:00	2020-10-09T17:51:39-07:00	2020-10-10T00:52:38+00:00	2020-10-14T06:59:59+00:00	-5	6x1m85m894y83xy@marketplace.amazon.com	Vincent Civitello	+1 602-671-6610 ext. 01716	ABR0022	Delivery by Tuesday | Arabella Farm Direct Bouquet of 12 Fresh Cut Pink Roses with a Free Glass Vase	1	0	1	NextDay	Eileen Tanaka	7500 E 35TH AVE			DENVER	CO	80207-2407	US		Hi, It's been a tough year and figured you could use a little pick me up...  You're a great friend and a terrific person, even if you blew me off for a torchy taco... From Vincent Civitello	false		
113-3660980-9929809	04161792223466	2020-10-10T01:20:52+00:00	2020-10-09T18:20:52-07:00	2020-10-10T01:21:43+00:00	2020-10-14T06:59:59+00:00	-5	4p382qpkk40kkgq@marketplace.amazon.com	Thomas Zeller	+1 929-436-4790 ext. 27052	ABR0022	Delivery by Tuesday | Arabella Farm Direct Bouquet of 12 Fresh Cut Pink Roses with a Free Glass Vase	1	0	1	NextDay	MICHELLE FRANK	9816 CUDDY CT			FORT MYERS	FL	33919-3174	US		Hope these bring a feeling of a warm heart and a big smile.. From TZ	false		
111-2863354-3245839	54908499632026	2020-10-10T02:51:42+00:00	2020-10-09T19:51:42-07:00	2020-10-10T02:55:36+00:00	2020-10-14T06:59:59+00:00	-5	mrxhqdr0sx5cw7y@marketplace.amazon.com	Margaret Barton	+1 480-618-5344 ext. 71354	ABR0066	Delivery by Tuesday | Arabella Bouquets 12 Stems of Fresh Cut White Roses in a Free Designer Glass Vase	1	0	1	NextDay	Maureen Ahern	151 PAGE RD			DUBLIN	NH	03444-8614	US			false		
113-7482948-0277826	51100189702522	2020-10-10T03:34:49+00:00	2020-10-09T20:34:49-07:00	2020-10-10T03:40:16+00:00	2020-10-14T06:59:59+00:00	-5	1mk8b4zc1zxtjwg@marketplace.amazon.com	Eve Reynolds	+1 929-436-4790 ext. 47655	ABR0066	Delivery by Tuesday | Arabella Bouquets 12 Stems of Fresh Cut White Roses in a Free Designer Glass Vase	1	0	1	NextDay	Amy Y. Zhao	9607 SCENIC BLUFF DR			AUSTIN	TX	78733-6017	US			false		
