order-id	order-item-id	purchase-date	payments-date	reporting-date	promise-date	days-past-promise	buyer-email	buyer-name	buyer-phone-number	sku	product-name	quantity-purchased	quantity-shipped	quantity-to-ship	ship-service-level	recipient-name	ship-address-1	ship-address-2	ship-address-3	ship-city	ship-state	ship-postal-code	ship-country	gift-wrap-type	gift-message-text	is-business-order	purchase-order-number	price-designation
114-0006831-1763403	15081911704746	2020-10-10T11:07:29+00:00	2020-10-10T04:07:29-07:00	2020-10-10T11:09:56+00:00	2020-10-14T06:59:59+00:00	-3	gmb33symtly6ys2@marketplace.amazon.com	sabine hain	+1 929-436-4790 ext. 39707	ABR012	Delivery by Wednesday | Arabella Farm Direct Bouquet of 18 Fresh Cut Pink Roses with a Free Glass Vase	1	0	1	NextDay	Frank Witting for Heidemarie Krix	546 S CASTELL AVE			NEW BRAUNFELS	TX	78130-7621	US		...einfach, um Ihnen eine kleine Freude zu machen... Herzlichst Ihre Sabine Hain From sabine hain	false		
114-6331017-2545041	43646774717210	2020-10-10T11:09:46+00:00	2020-10-10T04:09:46-07:00	2020-10-10T11:10:54+00:00	2020-10-14T06:59:59+00:00	-3	dgqxdhkcrhqt362@marketplace.amazon.com	Shikma Gertner	+1 929-436-4790 ext. 01880	ABR0022	Delivery by Wednesday | Arabella Farm Direct Bouquet of 12 Fresh Cut Pink Roses with a Free Glass Vase	1	0	1	NextDay	Gil-li Vardi	1645 AMHERST WAY			PALO ALTO	CA	94304-1148	US		Happy Birthday Gil! Miss you... From Shikma Gertner	false		
114-1918459-4419462	63765102761802	2020-10-10T11:20:18+00:00	2020-10-10T04:20:18-07:00	2020-10-10T11:23:43+00:00	2020-10-14T06:59:59+00:00	-3	n6lm8pd45bfcsd7@marketplace.amazon.com	Y.HENNESSY	07718261966	ABM020	Delivery by Wednesday | The Sunset Bouquet by Arabella Bouquets	1	0	1	NextDay	Mrs Karen Hennessy Coles	3942 REDWOOD AVE			LOS ANGELES	CA	90066-4108	US		Have a speedy recovery Karen, a little something to brighten your day. Lots of love Mum and Dad Xxx From Y.HENNESSY	false		
114-6457007-8285024	38464757311226	2020-10-10T13:00:00+00:00	2020-10-10T06:00:00-07:00	2020-10-10T13:05:14+00:00	2020-10-14T06:59:59+00:00	-3	9rx43y2kbvqn33l@marketplace.amazon.com	Wesner Elgirus	+1 602-671-6610 ext. 05443	ABR001	Delivery by Wednesday | Arabella Bouquets 12 Stems of Fresh Cut Red Roses in a Free Designer Glass Vase	1	0	1	NextDay	Cynthia Drake	560 12TH RD APT 106			VERO BEACH	FL	32960-7623	US			false		
112-8942181-9448257	36049170070122	2020-10-10T13:52:32+00:00	2020-10-10T06:52:32-07:00	2020-10-10T13:53:50+00:00	2020-10-14T06:59:59+00:00	-3	ytlwjgg9r5bmrmj@marketplace.amazon.com	alexandra portela	+1 480-618-5344 ext. 80622	ABR0022	Delivery by Wednesday | Arabella Farm Direct Bouquet of 12 Fresh Cut Pink Roses with a Free Glass Vase	1	0	1	NextDay	Iris and Wayne Collins	148 Sarah Lynn Dr			Claxton	Ga	30417	US		We are sorry to learn of your mother’s passing, and hope that sweet  memories of her will help you through this difficult time. Much love from Sandy and Joaquim From alexandra portela	false		
114-0929222-6575408	28716813389762	2020-10-10T13:32:04+00:00	2020-10-10T06:32:04-07:00	2020-10-10T14:00:38+00:00	2020-10-15T06:59:59+00:00	-4	klwcx30r80820wx@marketplace.amazon.com	Paul Edstrom	+1 602-671-6610 ext. 87861	ABR0022	Delivery by Wednesday | Arabella Farm Direct Bouquet of 12 Fresh Cut Pink Roses with a Free Glass Vase	1	0	1	Standard	Sylvia Salmon	400 S EDWARDS BLVD # 25			LAKE GENEVA	WI	53147-4568	US		Dear Edai I hope this brightens your day a bit and makes your birthday a bit happier. Paul From Paul Edstrom	false		
112-8726280-8318627	32773269913250	2020-10-10T14:02:43+00:00	2020-10-10T07:02:43-07:00	2020-10-10T14:08:12+00:00	2020-10-14T06:59:59+00:00	-3	g1q437n36g665pt@marketplace.amazon.com	Fredrick	+1 602-671-6610 ext. 64246	ABR0022	Delivery by Wednesday | Arabella Farm Direct Bouquet of 12 Fresh Cut Pink Roses with a Free Glass Vase	1	0	1	NextDay	Diamond Ross	7924 164TH PL			TINLEY PARK	IL	60477-1477	US			false		
113-9800120-1895417	29792334381570	2020-10-10T14:17:48+00:00	2020-10-10T07:17:48-07:00	2020-10-10T14:18:41+00:00	2020-10-14T06:59:59+00:00	-3	xnnybdfs4bdhmnj@marketplace.amazon.com	Donna gruszynski	+1 480-618-5344 ext. 11657	ABM022	Delivery by Wednesday | Purple Extravagance Bouquet by Arabella Bouquets	1	0	1	NextDay	Parente	22 VERANO LOOP			SANTA FE	NM	87508-8827	US			false		
112-0019673-3506608	53848018823930	2020-10-10T14:24:08+00:00	2020-10-10T07:24:08-07:00	2020-10-10T14:25:13+00:00	2020-10-14T06:59:59+00:00	-3	64h18nsqhzgkb28@marketplace.amazon.com	Maleah Montney	+1 480-618-5344 ext. 57144	ABR0033	Delivery by Wednesday | Arabella Farm Direct Bouquet of 12 Fresh Cut Orange Roses with a Free Glass Vase	1	0	1	NextDay	The Testanti Family	26067 LILA LN			DEARBORN HEIGHTS	MI	48127-4138	US		Denice, Danny,  Marissa, Yolanda, & Sophia, Thank you for being so good to Sierra.  She absolutely loves being an adopted Testani🧡🍁  Enjoy your week!  Lots of love & hugs this Fall!  Love, The Dynkowski Crew From Maleah Montney	false		
112-8232623-7036236	60084608755362	2020-10-10T14:32:08+00:00	2020-10-10T07:32:08-07:00	2020-10-10T14:33:01+00:00	2020-10-14T06:59:59+00:00	-3	wbrk8bkjybtq79w@marketplace.amazon.com	James W Holmes	+1 480-618-5344 ext. 70476	ABR0055	Delivery by Wednesday | Arabella Farm Direct Bouquet of 12 Stems of Fresh Cut Hot Pink Roses in a Free Designer Glass Vase	1	0	1	NextDay	Bridgett Aycock Farner	1726 CHELSA DR NE			CLEVELAND	TN	37323-5892	US		Dull roses are red These are Hot Pink "Dances on Ceilings" Is the cinema link!  Much love to my Beautiful Bridgett... From Jim	false		
112-8175782-3055442	15091799591410	2020-10-10T14:37:28+00:00	2020-10-10T07:37:28-07:00	2020-10-10T14:38:21+00:00	2020-10-14T06:59:59+00:00	-3	2fwpw02x364v3np@marketplace.amazon.com	Robert Jordan	+1 929-436-4790 ext. 53476	ABR0022	Delivery by Wednesday | Arabella Farm Direct Bouquet of 12 Fresh Cut Pink Roses with a Free Glass Vase	1	0	1	NextDay	Robert Jordan	101 AMARULA LN			RICHMOND HILL	GA	31324-5899	US		My love fore you is unconditionally for eternity.  Our love can survive anything.  I look forward to hopefully holding you in my arms again soon.   My eternal love From Robert Jordan	false		
112-8268685-7299444	66634036765674	2020-10-10T15:11:00+00:00	2020-10-10T08:11:00-07:00	2020-10-10T15:13:55+00:00	2020-10-14T06:59:59+00:00	-3	rkbwqxlql1qjlnn@marketplace.amazon.com	Susan Sullivan-Smith	+1 602-671-6610 ext. 89090	ABR0055	Delivery by Wednesday | Arabella Farm Direct Bouquet of 12 Stems of Fresh Cut Hot Pink Roses in a Free Designer Glass Vase	1	0	1	NextDay	Ms Sally schaldenbrand	52694 COVECREEK DR			MACOMB	MI	48042-2952	US		Happy Happy Birthday sassy Sally!! Enjoy your special day  & year ahead! We love you!! From Susan Sullivan-Smith & Curtis	false		
113-2627876-1380238	03065076711858	2020-10-10T15:19:18+00:00	2020-10-10T08:19:18-07:00	2020-10-10T15:22:29+00:00	2020-10-14T06:59:59+00:00	-3	y197cb9cb5rz5s0@marketplace.amazon.com	Dolly Skricka	+1 602-671-6610 ext. 37951	ABR0022	Delivery by Wednesday | Arabella Farm Direct Bouquet of 12 Fresh Cut Pink Roses with a Free Glass Vase	1	0	1	NextDay	Jeanette Green	13357 BERGSTROM AVE			ORLANDO	FL	32827-7675	US			false		
111-6169825-2225820	05372677814034	2020-10-10T15:30:28+00:00	2020-10-10T08:30:28-07:00	2020-10-10T15:32:04+00:00	2020-10-14T06:59:59+00:00	-3	n723cyzwncnfs52@marketplace.amazon.com	Tara K Wohlgemuth	+1 929-436-4790 ext. 35503	ABR0022	Delivery by Wednesday | Arabella Farm Direct Bouquet of 12 Fresh Cut Pink Roses with a Free Glass Vase	1	0	1	NextDay	Lamond Leech	7692 LILLY LN			SOUTHAVEN	MS	38671-5364	US			false		
111-8410093-2641865	50896068987850	2020-10-10T15:33:08+00:00	2020-10-10T08:33:08-07:00	2020-10-10T15:38:12+00:00	2020-10-14T06:59:59+00:00	-3	n723cyzwncnfs52@marketplace.amazon.com	Tara K Wohlgemuth	+1 602-671-6610 ext. 86126	ABR0022	Delivery by Wednesday | Arabella Farm Direct Bouquet of 12 Fresh Cut Pink Roses with a Free Glass Vase	1	0	1	NextDay	Lamond Leech	7692 LILLY LN			SOUTHAVEN	MS	38671-5364	US			false		
113-6405677-9841826	30022212006210	2020-10-10T15:43:55+00:00	2020-10-10T08:43:55-07:00	2020-10-10T15:48:01+00:00	2020-10-14T06:59:59+00:00	-3	s84z0f1r64g0bhp@marketplace.amazon.com	Diana Yankelevits	+1 929-436-4790 ext. 46367	ABR0022	Delivery by Wednesday | Arabella Farm Direct Bouquet of 12 Fresh Cut Pink Roses with a Free Glass Vase	1	0	1	NextDay	Netta Batyam	374 B			Lakewood	NJ	08701	US			false		
114-2840931-9677033	67750961850626	2020-10-10T16:11:38+00:00	2020-10-10T09:11:38-07:00	2020-10-10T16:14:30+00:00	2020-10-14T06:59:59+00:00	-3	l0n17xg74s3dlkv@marketplace.amazon.com	Arichica Prescott	+1 602-671-6610 ext. 94071	ABM010	Delivery by Wednesday | The Spring Fling Bouquet by Arabella Bouquets with a Free Designer Glass Vase	1	0	1	NextDay	Steph Liggett	1805 77TH ST			WINDSOR HEIGHTS	IA	50324-5721	US		Words cannot describe how lucky I am to have such a fantastic friend like you.  Happy Birthday, looking forward to our belated celebration!  Have a fantastic day. From Arichica Prescott	false		
111-8580065-3613062	36878729111514	2020-10-10T16:44:41+00:00	2020-10-10T09:44:41-07:00	2020-10-10T16:45:50+00:00	2020-10-14T06:59:59+00:00	-3	ngdln322j02jwb6@marketplace.amazon.com	Dr. Saku W Gunasegaram	+1 929-436-4790 ext. 60378	ABR004	Arabella Farm Direct Bouquet of 12 Fresh Cut Yellow Roses with a Free Glass Vase	1	0	1	NextDay	FATHER / AIYAH / DADDY-O / WIM GUNASEGARAM	MANY HAPPY RETURNS OF YOUR EIGHTY-FOURTH BIRTHDAY	226 NE 58TH ST		TOPEKA	KS	66617-1612	US		TO:  WIM/AIYAH/DAD: MANY HAPPY RETURNS OF YOUR 84th!  CONGRATS ON OUTLIVING YOUR AIYAH APPU BY 21 years! From ONLY DAUGHTER Dr. Saku Gunasegaram	false		
111-8580065-3613062	39157999873010	2020-10-10T16:44:41+00:00	2020-10-10T09:44:41-07:00	2020-10-10T16:45:50+00:00	2020-10-14T06:59:59+00:00	-3	ngdln322j02jwb6@marketplace.amazon.com	Dr. Saku W Gunasegaram	+1 929-436-4790 ext. 60378	ABR004	Arabella Farm Direct Bouquet of 12 Fresh Cut Yellow Roses with a Free Glass Vase	1	0	1	NextDay	FATHER / AIYAH / DADDY-O / WIM GUNASEGARAM	MANY HAPPY RETURNS OF YOUR EIGHTY-FOURTH BIRTHDAY	226 NE 58TH ST		TOPEKA	KS	66617-1612	US		TO:  WIM/AIYAH/DAD: MANY HAPPY RETURNS OF YOUR 84th!   CONGRATS ON OUTLIVING YOUR AIYAH APPU BY 21 years! From ONLY DAUGHTER Dr. Saku Gunasegaram	false		
111-8580065-3613062	03815620634986	2020-10-10T16:44:41+00:00	2020-10-10T09:44:41-07:00	2020-10-10T16:45:50+00:00	2020-10-14T06:59:59+00:00	-3	ngdln322j02jwb6@marketplace.amazon.com	Dr. Saku W Gunasegaram	+1 929-436-4790 ext. 60378	ABR013	Delivery be Wednesday | Arabella Farm Direct Bouquet of 18 Fresh Cut Yellow Roses with a Free Glass Vase	1	0	1	NextDay	FATHER / AIYAH / DADDY-O / WIM GUNASEGARAM	MANY HAPPY RETURNS OF YOUR EIGHTY-FOURTH BIRTHDAY	226 NE 58TH ST		TOPEKA	KS	66617-1612	US		TO:  WIM/AIYAH/DAD: MANY HAPPY RETURNS OF YOUR 84th!  CONGRATS ON OUTLIVING YOUR AIYAH APPU BY 21 years! From ONLY DAUGHTER Dr. Saku Gunasegaram	false		
113-6343869-2133035	06212438951210	2020-10-10T16:48:56+00:00	2020-10-10T09:48:56-07:00	2020-10-10T16:53:11+00:00	2020-10-14T06:59:59+00:00	-3	6tc1n3blxrlq38r@marketplace.amazon.com	Juliet Way	+1 929-436-4790 ext. 14524	ABM022	Delivery by Wednesday | Purple Extravagance Bouquet by Arabella Bouquets	1	0	1	NextDay	Carlal Way	2876 LUCCA CT			LEAGUE CITY	TX	77573-3363	US		Wishing you a wonderful birthday Carla! With loads of love and hugs Juliet	false		
112-0683539-3465016	61268467157722	2020-10-10T17:11:27+00:00	2020-10-10T10:11:27-07:00	2020-10-10T17:13:02+00:00	2020-10-14T06:59:59+00:00	-3	1c6h6t4zpb24xwy@marketplace.amazon.com	Elizabeth Galloghly	+1 480-618-5344 ext. 66805	ABR0022	Delivery by Wednesday | Arabella Farm Direct Bouquet of 12 Fresh Cut Pink Roses with a Free Glass Vase	1	0	1	NextDay	Marilyn Moran	31102 TOWN GREEN DR			ELMSFORD	NY	10523-1591	US			false		
111-2884090-0473860	15520408533074	2020-10-10T17:33:57+00:00	2020-10-10T10:33:57-07:00	2020-10-10T17:38:52+00:00	2020-10-14T06:59:59+00:00	-3	dfy1yw35htnnjv2@marketplace.amazon.com	Yvonne Whaley	+1 929-436-4790 ext. 43508	ABR0055	Delivery by Wednesday | Arabella Farm Direct Bouquet of 12 Stems of Fresh Cut Hot Pink Roses in a Free Designer Glass Vase	1	0	1	NextDay	Vonnie Whaley	1295 W 7TH ST APT 9			WEISER	ID	83672-1168	US			false		
111-6505192-3710623	11305249190746	2020-10-10T17:59:01+00:00	2020-10-10T10:59:01-07:00	2020-10-10T18:02:19+00:00	2020-10-14T06:59:59+00:00	-3	tsf2wbj7d114qm4@marketplace.amazon.com	Sherree Harrison	+1 602-671-6610 ext. 31327	ABR0033	Delivery by Wednesday | Arabella Farm Direct Bouquet of 12 Fresh Cut Orange Roses with a Free Glass Vase	1	0	1	NextDay	Sherree Harrison	711 FRANKLIN DR			ALLEN	TX	75013-2927	US		Dear Mom,      Thinking of you and wishing you a very Happy Birthday! Wish we were there! We love you, Donnie and Sherree From Sherree Harrison	false		
113-9154381-6552258	59018337308514	2020-10-10T18:05:22+00:00	2020-10-10T11:05:22-07:00	2020-10-10T18:06:18+00:00	2020-10-14T06:59:59+00:00	-3	yq3zpx67h7tm3yg@marketplace.amazon.com	Ritu Java	+1 602-671-6610 ext. 33442	ABR012	Delivery by Wednesday | Arabella Farm Direct Bouquet of 18 Fresh Cut Pink Roses with a Free Glass Vase	1	0	1	NextDay	Smita Bakshi	9319 Pahatsi Road			Soda Springs	CA	95728	US		Dearest, sweetest Smita!  Wish you a FABULOUS 50th birthday!  Lots of love and hugggggs! Ritu From Ritu Java	false		
114-1520879-0282629	46094424777826	2020-10-10T18:43:15+00:00	2020-10-10T11:43:15-07:00	2020-10-10T18:46:45+00:00	2020-10-14T06:59:59+00:00	-3	mxyjl2qmhkrsb5l@marketplace.amazon.com	Latechia White	+1 480-618-5344 ext. 86322	ABR0055	Delivery by Wednesday | Arabella Farm Direct Bouquet of 12 Stems of Fresh Cut Hot Pink Roses in a Free Designer Glass Vase	1	0	1	NextDay	Barbara Nightingale	6476 LAGUNA MIRAGE LN			ELK GROVE	CA	95758-5463	US		Happy, Happy, Belated Birthday!!  Love you much! From Latechia White	false		
113-5833578-4154654	60868390681570	2020-10-10T19:02:49+00:00	2020-10-10T12:02:49-07:00	2020-10-10T19:08:03+00:00	2020-10-14T06:59:59+00:00	-3	79ywptrhzg6qwkp@marketplace.amazon.com	Mona al-Kazemi		ABSR005	Arabella Bouquets Fresh Cut Orange Spray Roses in a Free Designer Glass Vase	1	0	1	NextDay	MONA AL KAZEMI	2 RIVER TER APT 21C			NEW YORK	NY	10282	US			false		
111-7195742-6796233	62899062109002	2020-10-10T19:16:11+00:00	2020-10-10T12:16:11-07:00	2020-10-10T19:17:24+00:00	2020-10-14T06:59:59+00:00	-3	dn01shnkprh20cw@marketplace.amazon.com	Craig A Thiese	+1 602-671-6610 ext. 61768	ABM022	Delivery by Wednesday | Purple Extravagance Bouquet by Arabella Bouquets	1	0	1	NextDay	Madison Wahl	1720 SW 4TH AVE APT 316			PORTLAND	OR	97201-5531	US		Happy Birthday Madison!  We hope you have a wonderful day celebrating YOU! Lots of LOVE, From The Thiese Family	false		
112-6265560-3201809	26971994935330	2020-10-10T19:22:26+00:00	2020-10-10T12:22:26-07:00	2020-10-10T19:25:33+00:00	2020-10-14T06:59:59+00:00	-3	v6v7xz0725bgn4k@marketplace.amazon.com	Jonathan C. Bessler	+1 602-671-6610 ext. 98545	ABM022	Delivery by Wednesday | Purple Extravagance Bouquet by Arabella Bouquets	1	0	1	NextDay	Becky Sullivan	11519 E Hwy 13			Maple	WI	54854	US			false		
113-8950613-1620223	63296111260098	2020-10-10T20:52:18+00:00	2020-10-10T13:52:18-07:00	2020-10-10T20:56:35+00:00	2020-10-14T06:59:59+00:00	-3	1gtfr02hy3465sz@marketplace.amazon.com	Sarah	+1 602-671-6610 ext. 64567	ABR0022	Delivery by Wednesday | Arabella Farm Direct Bouquet of 12 Fresh Cut Pink Roses with a Free Glass Vase	1	0	1	NextDay	Supriya Faroz	31 GRANITE PATH PL			SPRING	TX	77389-6935	US		From Anita + family	false		
112-9944026-2876234	27437336453362	2020-10-10T21:28:08+00:00	2020-10-10T14:28:08-07:00	2020-10-10T21:32:53+00:00	2020-10-14T06:59:59+00:00	-3	ttbhpgmjqfrdbp3@marketplace.amazon.com	Lisa Rothfeld	+1 929-436-4790 ext. 47873	ABR0022	Delivery by Wednesday | Arabella Farm Direct Bouquet of 12 Fresh Cut Pink Roses with a Free Glass Vase	1	0	1	NextDay	The emers	428 ESSEX AVE			BOONTON	NJ	07005-1122	US			false		
111-0016897-5262629	60061349812706	2020-10-10T21:53:47+00:00	2020-10-10T14:53:47-07:00	2020-10-10T21:54:39+00:00	2020-10-14T06:59:59+00:00	-3	2z7d173mqkgcj9t@marketplace.amazon.com	Joyce Thau	+1 602-671-6610 ext. 55984	ABR0033	Delivery by Wednesday | Arabella Farm Direct Bouquet of 12 Fresh Cut Orange Roses with a Free Glass Vase	1	0	1	NextDay	Lisa Black	546 11TH AVE			SAN FRANCISCO	CA	94118-3640	US		Dear Lisa,  Happy Birthday, Enjoy the day From Love Joyce and Rick	false		
111-9938808-0098614	69977343623026	2020-10-10T22:01:03+00:00	2020-10-10T15:01:03-07:00	2020-10-10T22:02:56+00:00	2020-10-14T06:59:59+00:00	-3	b5kb085t5hz37kk@marketplace.amazon.com	sandra fellin	+1 480-618-5344 ext. 44508	ABM022	Delivery by Wednesday | Purple Extravagance Bouquet by Arabella Bouquets	1	0	1	NextDay	Elizabeth Munday	138 SHAW RD			ROCK TAVERN	NY	12575-5218	US		Just a little something to brighten your world and wish you both happy birthday wishes.....happy birthdays Joyce and Betty!!!!! Hope they are what they look like...lol..:) From sandra and paul  fellin	false		
111-5839094-0545058	31620404343394	2020-10-10T22:12:57+00:00	2020-10-10T15:12:57-07:00	2020-10-10T22:16:04+00:00	2020-10-14T06:59:59+00:00	-3	h7l0hwlsksw7xws@marketplace.amazon.com	Daniel Roditi	+1 480-618-5344 ext. 37579	ABR0055	Delivery by Wednesday | Arabella Farm Direct Bouquet of 12 Stems of Fresh Cut Hot Pink Roses in a Free Designer Glass Vase	1	0	1	NextDay	Helen Roditi	2840 RIVER BROOK CT			FORT WORTH	TX	76116-0930	US		Happy Birthday! We all love you very much and hope you have a special week filled with lots of great memories and celebration. XOXO From Dan, Candice, Sofia and Elias	false		
112-1655860-3768257	51185932284794	2020-10-10T22:21:31+00:00	2020-10-10T15:21:31-07:00	2020-10-10T22:24:05+00:00	2020-10-14T06:59:59+00:00	-3	dphblw854vcwkfv@marketplace.amazon.com	Anthony	+1 415-851-9136 ext. 12181	ABR0055	Delivery by Wednesday | Arabella Farm Direct Bouquet of 12 Stems of Fresh Cut Hot Pink Roses in a Free Designer Glass Vase	1	0	1	NextDay	Anthony Stoltzfus	1086 LETORT RD			CONESTOGA	PA	17516-9312	US		Hi Most Precious! I love you and can't wait to hug you when I get home from work! Thank you for being the most darling wife ever! You're the lover of a lifetime! From Your Lover, Anthony	false		
114-0061696-1377864	40985788219586	2020-10-10T22:24:11+00:00	2020-10-10T15:24:11-07:00	2020-10-10T22:27:01+00:00	2020-10-14T06:59:59+00:00	-3	w2ph2c73nnw0hxj@marketplace.amazon.com	Amy B Stafford	+1 602-671-6610 ext. 13263	ABM022	Delivery by Wednesday | Purple Extravagance Bouquet by Arabella Bouquets	1	0	1	NextDay	Sophia Stafford 2/c	15 MOHEGAN AVE	USCGA 8822 CHASE HALL		NEW LONDON	CT	06320-8100	US		These flowers can't compare to how beautiful you have "bloomed."  We are so proud of the young woman you have become and can't wait to see the woman you will be. Happy 21st Birthday, Sausage! From Mom, Dad, Jake and Nelly XOXOXOX	false		
112-4352593-4590655	28707794042194	2020-10-10T22:31:50+00:00	2020-10-10T15:31:50-07:00	2020-10-10T22:35:29+00:00	2020-10-14T06:59:59+00:00	-3	58w0j00gwtmfw91@marketplace.amazon.com	Siobain M Bonilla	+1 929-436-4790 ext. 43327	ABM024	Delivery by Wednesday | The Beauty of Color Bouquet by Arabella Bouquets	1	0	1	NextDay	Tina bonilla	17023 ABELL CT			LA PUENTE	CA	91744-4206	US		Our love and sympathies on the loss of your dad.  We love you - you are in our prayers. From Siobain and Nesto	false		
112-3635145-2620231	34956818212458	2020-10-10T22:32:03+00:00	2020-10-10T15:32:03-07:00	2020-10-10T22:37:12+00:00	2020-10-14T06:59:59+00:00	-3	vdmpnqlm009v1by@marketplace.amazon.com	Darryl Richardson	+1 929-436-4790 ext. 70072	ABR0022	Delivery by Wednesday | Arabella Farm Direct Bouquet of 12 Fresh Cut Pink Roses with a Free Glass Vase	1	0	1	NextDay	Darryl Richardson	18 E PINE ST			ALTADENA	CA	91001-4802	US			false		
112-1080050-9581844	46504523907786	2020-10-10T22:40:21+00:00	2020-10-10T15:40:21-07:00	2020-10-10T22:41:17+00:00	2020-10-14T06:59:59+00:00	-3	6s9d38pjd6pzvp0@marketplace.amazon.com	Fredericka Coleman	+1 602-671-6610 ext. 25994	ABR0033	Delivery by Wednesday | Arabella Farm Direct Bouquet of 12 Fresh Cut Orange Roses with a Free Glass Vase	1	0	1	NextDay	Pauline Lee and Family	570 - 21st Avenue			San Francisco	CA	94121	US			false		
111-2597992-3370604	15940938700802	2020-10-10T23:13:22+00:00	2020-10-10T16:13:22-07:00	2020-10-10T23:15:56+00:00	2020-10-14T06:59:59+00:00	-3	ql3vlm91tzvjgcf@marketplace.amazon.com	Joy D'Amore	+1 415-851-9136 ext. 65825	ABR0022	Delivery by Wednesday | Arabella Farm Direct Bouquet of 12 Fresh Cut Pink Roses with a Free Glass Vase	1	0	1	NextDay	Tia May	3950 STRATFORD RD			DREXEL HILL	PA	19026-2723	US			false		
112-7256116-4019422	50531014758114	2020-10-10T23:46:31+00:00	2020-10-10T16:46:31-07:00	2020-10-10T23:48:19+00:00	2020-10-14T06:59:59+00:00	-3	8jksfnmyd6vnzjs@marketplace.amazon.com	Sharon Boggs	+1 415-851-9136 ext. 68209	ABM010	Delivery by Wednesday | The Spring Fling Bouquet by Arabella Bouquets with a Free Designer Glass Vase	1	0	1	NextDay	Heather Boggs	2801 ALEXANDRA DR APT 2912			ROSEVILLE	CA	95661-6031	US		Dear Heather, Hope these brighten your day. We love you! Love your sister's, Lisa and Sharon	false		
111-3150168-8994666	47839168545810	2020-10-11T00:09:42+00:00	2020-10-10T17:09:42-07:00	2020-10-11T00:10:33+00:00	2020-10-14T06:59:59+00:00	-3	0rlkkbxt18rv2zy@marketplace.amazon.com	Kelly Barton	+1 929-436-4790 ext. 98144	ABR014	Arabella Bouquets 18 Stems of Fresh Cut White Roses in a Free Designer Glass Vase	1	0	1	NextDay	Julie Barton	6 S LAKESHORE DR			RANSOM CANYON	TX	79366-2412	US			false		
111-3962543-4651465	26989143501594	2020-10-11T00:15:04+00:00	2020-10-10T17:15:04-07:00	2020-10-11T00:17:58+00:00	2020-10-14T06:59:59+00:00	-3	h38w3k95fbk4tpm@marketplace.amazon.com	Elana Shackelford	+1 415-851-9136 ext. 55439	ABM0044	Arabella Farm Direct Bouquet of Fresh Cut Blue Hydrangea with a Free Glass Vase	1	0	1	NextDay	Jessica Taylor-Levy	7900 NW 87TH AVE			TAMARAC	FL	33321-1649	US		Happy Birthday, Jess! We love you! From The Shacks	false		
113-1850856-7733858	01355878125154	2020-10-11T00:17:37+00:00	2020-10-10T17:17:37-07:00	2020-10-11T00:21:12+00:00	2020-10-14T06:59:59+00:00	-3	6v88swvc3p9tt0n@marketplace.amazon.com	Lisa G. Bissette	+1 480-618-5344 ext. 31847	ABR0055	Delivery by Wednesday | Arabella Farm Direct Bouquet of 12 Stems of Fresh Cut Hot Pink Roses in a Free Designer Glass Vase	1	0	1	NextDay	Kylee Bissette	14059 RIVEREDGE DR UNIT 4306			TAMPA	FL	33637-1043	US		I hope this helps brighten your day. I love you lots and lots of much!  Love, Mom and Dad From Mom and Dad xoxo	false		
111-5544064-0597052	14732334376138	2020-10-11T00:39:27+00:00	2020-10-10T17:39:27-07:00	2020-10-11T00:43:11+00:00	2020-10-14T06:59:59+00:00	-3	68z7f1qdqym7gbm@marketplace.amazon.com	Angela	+1 480-618-5344 ext. 46132	ABM025	Delivery by Wednesday | The Fell for You Bouquet by Arabella Bouquets	1	0	1	NextDay	Paula Ashley	22580 E 10 MILE RD			SAINT CLAIR SHORES	MI	48080-1363	US		Dear Aunt Paula,  We hope that these flowers brighten your day. We are thinking of you and praying for you. You are loved. From Ang, Adam, Maddie and Jack	false		
112-7738419-7537834	21461768390562	2020-10-11T00:43:24+00:00	2020-10-10T17:43:24-07:00	2020-10-11T00:44:34+00:00	2020-10-14T06:59:59+00:00	-3	v47qg3n9gcf068v@marketplace.amazon.com	Gary S. Vicchairelli	+1 602-671-6610 ext. 48634	ABM010	Delivery by Wednesday | The Spring Fling Bouquet by Arabella Bouquets with a Free Designer Glass Vase	1	0	1	NextDay	Lanette Barry	47 DOVER DR			LINDENWOLD	NJ	08021-6707	US		Happy Birthday Lanette From Gary & Susan Vicchairelli	false		
114-5313587-2692244	05222263016194	2020-10-11T01:31:27+00:00	2020-10-10T18:31:27-07:00	2020-10-11T01:33:27+00:00	2020-10-14T06:59:59+00:00	-3	scd585g858126h8@marketplace.amazon.com	julian nathan	+1 415-851-9136 ext. 71471	ABR001	Delivery by Wednesday | Arabella Bouquets 12 Stems of Fresh Cut Red Roses in a Free Designer Glass Vase	1	0	1	NextDay	Julian nathan	2602 NW 82 Terrace	N		Coral Springs	Florida	33065	US		Thinking about you  my love ❤️ just want to say your my world and my everything From julian nathan	false		
111-5777637-9510660	50263411586602	2020-10-11T01:51:48+00:00	2020-10-10T18:51:48-07:00	2020-10-11T01:54:08+00:00	2020-10-14T06:59:59+00:00	-3	jkwl4sgv7xkzvk0@marketplace.amazon.com	elizabeth keresztes	+1 602-671-6610 ext. 57386	ABR001	Delivery by Wednesday | Arabella Bouquets 12 Stems of Fresh Cut Red Roses in a Free Designer Glass Vase	1	0	1	NextDay	Sister M Stephanie Szody	850 HYLAN BLVD CONVENT BUILDING			STATEN ISLAND	NY	10305-2021	US		Happy Birthday, dear Sister, my dear Friend  Sending you much love and prayers . Erzsi From elizabeth keresztes	false		
111-0795893-6786607	08368487853794	2020-10-11T03:29:01+00:00	2020-10-10T20:29:01-07:00	2020-10-11T03:31:29+00:00	2020-10-14T06:59:59+00:00	-3	kdgw2zs06chzwz9@marketplace.amazon.com	vincent d scala	+1 929-436-4790 ext. 72996	ABR0055	Delivery by Wednesday | Arabella Farm Direct Bouquet of 12 Stems of Fresh Cut Hot Pink Roses in a Free Designer Glass Vase	1	0	1	NextDay	vincent scala	58 KINGSBURY RD			GARDEN CITY	NY	11530-3140	US		Hi Joy!! Just a little something to make you smile! Hope you feel stronger every day... Love you!! Teresa and Vincent (a/k/a Douche) From vincent d scala	false		
111-9636677-5981863	34488177943450	2020-10-11T03:41:23+00:00	2020-10-10T20:41:23-07:00	2020-10-11T03:42:21+00:00	2020-10-14T06:59:59+00:00	-3	kdgw2zs06chzwz9@marketplace.amazon.com	vincent d scala	+1 929-436-4790 ext. 22702	ABR0055	Delivery by Wednesday | Arabella Farm Direct Bouquet of 12 Stems of Fresh Cut Hot Pink Roses in a Free Designer Glass Vase	1	0	1	NextDay	Mrs. Joy Troiano	194 READ AVE			TUCKAHOE	NY	10707-2316	US		Hello Joy! Just a little something to make you smile today! We hope you get stronger every day...  Love you! Teresa and Vincent (a/k/a Douche!) From vincent d scala	false		
114-1265164-0007469	27596404979378	2020-10-11T03:44:25+00:00	2020-10-10T20:44:25-07:00	2020-10-11T03:46:26+00:00	2020-10-14T06:59:59+00:00	-3	2ll1np9p8qdx356@marketplace.amazon.com	shelbee	+1 929-436-4790 ext. 68389	ABR0055	Delivery by Wednesday | Arabella Farm Direct Bouquet of 12 Stems of Fresh Cut Hot Pink Roses in a Free Designer Glass Vase	1	0	1	NextDay	Kathy Tobin	3725 NW 118TH PL			PORTLAND	OR	97229-9300	US		Kathy, Something to brighten your day.  Love you lots! Shelbee From shelbee	false		
111-0231022-1548242	41914680798298	2020-10-11T04:07:30+00:00	2020-10-10T21:07:30-07:00	2020-10-11T04:10:55+00:00	2020-10-14T06:59:59+00:00	-3	x4m715g31rxqtcq@marketplace.amazon.com	Karyleen Mangual	+1 929-436-4790 ext. 32756	ABB003	Arabella Farm Direct Fresh Cut Blue Hydrangea	1	0	1	NextDay	Karyleen Mangual	614 GILA DR			KISSIMMEE	FL	34759-5931	US			false		
114-5957819-2832237	57296312100746	2020-10-11T04:37:17+00:00	2020-10-10T21:37:17-07:00	2020-10-11T04:38:44+00:00	2020-10-14T06:59:59+00:00	-3	p3nkyjlfhfffcsd@marketplace.amazon.com	Sheilachu P. Gomez	+1 602-671-6610 ext. 32635	ABR012	Delivery by Wednesday | Arabella Farm Direct Bouquet of 18 Fresh Cut Pink Roses with a Free Glass Vase	1	0	1	NextDay	Teresa B Garcia	5432 BAYRIDGE DR			BATON ROUGE	LA	70817-2803	US		In appreciation for all that you do for others. Good bless and Happy birthday my friend - we love you! From Sheilachu P. Gomez	true		
113-1052349-6009819	30705213103602	2020-10-11T04:43:04+00:00	2020-10-10T21:43:04-07:00	2020-10-11T04:45:05+00:00	2020-10-14T06:59:59+00:00	-3	fwbzpnp4cwbm5s7@marketplace.amazon.com	Hannah Huynh	+1 929-436-4790 ext. 79055	ABR0022	Delivery by Wednesday | Arabella Farm Direct Bouquet of 12 Fresh Cut Pink Roses with a Free Glass Vase	1	0	1	NextDay	Anh Le	3506 AVENUE I STE B			SCOTTSBLUFF	NE	69361-4768	US		Mom,   Happy Birthday! Thank you for all that you do.   Love, Hannah From Hannah Huynh	false		
114-3369735-9448245	38743978088506	2020-10-11T04:44:43+00:00	2020-10-10T21:44:43-07:00	2020-10-11T04:49:24+00:00	2020-10-14T06:59:59+00:00	-3	35km8jfp11jt5wz@marketplace.amazon.com	Allan	+1 602-671-6610 ext. 62669	ABR001	Delivery by Wednesday | Arabella Bouquets 12 Stems of Fresh Cut Red Roses in a Free Designer Glass Vase	1	0	1	NextDay	Allan Buezo	13812 24TH AVE S			SEATAC	WA	98168-3818	US			false		
111-5730498-9075415	28482471662258	2020-10-11T05:02:38+00:00	2020-10-10T22:02:38-07:00	2020-10-11T05:05:47+00:00	2020-10-14T06:59:59+00:00	-3	h8857n607pq5htb@marketplace.amazon.com	Hilmi Baran	+1 602-671-6610 ext. 49989	ABM010	Delivery by Wednesday | The Spring Fling Bouquet by Arabella Bouquets with a Free Designer Glass Vase	1	0	1	NextDay	Elizabeth White	9232 BELGRAVE AVE			NORFOLK	VA	23503-4360	US			false		
111-5852099-8740239	53667669567386	2020-10-11T09:16:30+00:00	2020-10-11T02:16:30-07:00	2020-10-11T09:17:23+00:00	2020-10-14T06:59:59+00:00	-3	rmgpt8lghm2k6dx@marketplace.amazon.com	Dan Edelstein	+1 602-671-6610 ext. 35220	ABM010	Delivery by Wednesday | The Spring Fling Bouquet by Arabella Bouquets with a Free Designer Glass Vase	1	0	1	NextDay	Arline & Ben Guefen	6336 WOODWAY DR	PH07 THE TRADITION		HOUSTON	TX	77057-1706	US		Dear Ben and Arline! The Mazkirut of Hanoar Hatzioni wishes you a lot of happiness in your new home! Chazak ve ematz From Sergio, Gabo and Joel	false		
113-7441257-4130645	40755397497066	2020-10-11T09:16:47+00:00	2020-10-11T02:16:47-07:00	2020-10-11T09:20:34+00:00	2020-10-14T06:59:59+00:00	-3	w6rvdc060rzsz9r@marketplace.amazon.com	Anne Luna-Gordinier	+1 602-671-6610 ext. 22823	ABM020	Delivery by Wednesday | The Sunset Bouquet by Arabella Bouquets	1	0	1	NextDay	Eileen Luna-Firebaugh	1111 ALVARADO AVE APT 137			DAVIS	CA	95616-5920	US		Happy 75th Birthday Mom! I love you & wish I could spend our birthdays together. Hopefully we will get to see each other soon. Love, From Anne Luna-Gordinier	false		
112-0139096-4901841	22841796771018	2020-10-11T09:52:12+00:00	2020-10-11T02:52:12-07:00	2020-10-11T09:53:01+00:00	2020-10-14T06:59:59+00:00	-3	gvq8ttxzlx7j5m2@marketplace.amazon.com	david tepper	+1 929-436-4790 ext. 16048	ABM022	Delivery by Wednesday | Purple Extravagance Bouquet by Arabella Bouquets	1	0	1	NextDay	Tamara Wilkow	55 E PEARSON ST			CHICAGO	IL	60611-2535	US		Just thinking of my favorite aunt today. You have made my life brighter, I hope these brighten your day a little.Enjoy! From david tepper	false		
112-6593722-2189850	61462146266922	2020-10-11T13:01:40+00:00	2020-10-11T06:01:40-07:00	2020-10-11T13:05:52+00:00	2020-10-14T06:59:59+00:00	-3	smcxz83j0xm1qzh@marketplace.amazon.com	Jax Clouse	+1 929-436-4790 ext. 59840	ABR0022	Delivery by Wednesday | Arabella Farm Direct Bouquet of 12 Fresh Cut Pink Roses with a Free Glass Vase	1	0	1	NextDay	Bonita Breit	440 JAMES ST			BURLINGTON	WI	53105-1111	US		Happy Birthday!!!   Mush Jax From Jax Clouse	false		
113-1061434-4338607	26971840456634	2020-10-11T13:09:15+00:00	2020-10-11T06:09:15-07:00	2020-10-11T13:14:48+00:00	2020-10-14T06:59:59+00:00	-3	5px056fv61p79sn@marketplace.amazon.com	John Vickers	+1 929-436-4790 ext. 14443	ABM010	Delivery by Wednesday | The Spring Fling Bouquet by Arabella Bouquets with a Free Designer Glass Vase	1	0	1	NextDay	Brenda Love	955 CORONADO DR NW			ATLANTA	GA	30327-3716	US			false		
111-5577791-3273861	29595616269978	2020-10-11T13:13:20+00:00	2020-10-11T06:13:20-07:00	2020-10-11T13:17:01+00:00	2020-10-14T06:59:59+00:00	-3	vqb4r2zrkg088t0@marketplace.amazon.com	James Cruz-Brown	+1 602-671-6610 ext. 51156	ABR012	Delivery by Wednesday | Arabella Farm Direct Bouquet of 18 Fresh Cut Pink Roses with a Free Glass Vase	1	0	1	NextDay	Emma Merlo	1532 Windward Ave			Beachwood	NJ	08722-4207	US		Emma, Hope you have a happy birthday! Love J&J From James Cruz-Brown	false		
111-1451441-7617828	06015125611354	2020-10-11T13:20:07+00:00	2020-10-11T06:20:07-07:00	2020-10-11T13:21:02+00:00	2020-10-14T06:59:59+00:00	-3	53srwpr5y02n76x@marketplace.amazon.com	micheline wilson	+1 929-436-4790 ext. 18520	ABR0022	Delivery by Wednesday | Arabella Farm Direct Bouquet of 12 Fresh Cut Pink Roses with a Free Glass Vase	1	0	1	NextDay	Soraya Stelle	9437 SW 8TH AVE			PORTLAND	OR	97219-4737	US			false		
112-6601006-7318619	24697697715146	2020-10-11T13:27:25+00:00	2020-10-11T06:27:25-07:00	2020-10-11T13:31:02+00:00	2020-10-14T06:59:59+00:00	-3	lkqymsg47s9xgvs@marketplace.amazon.com	Cassandra	+1 415-851-9136 ext. 43023	ABR0022	Delivery by Wednesday | Arabella Farm Direct Bouquet of 12 Fresh Cut Pink Roses with a Free Glass Vase	1	0	1	NextDay	Diana Herrington	2303 S 23RD ST			FORT SMITH	AR	72901-6205	US		Happy Birthday”S” and Anniversary to you both! We miss the snot out of you two. Love you to the moon and FAR FAR beyond From Chickapea and Family	false		
111-4384833-4080213	16695209407762	2020-10-11T13:59:12+00:00	2020-10-11T06:59:12-07:00	2020-10-11T14:00:38+00:00	2020-10-14T06:59:59+00:00	-3	g77fpr14r2736cb@marketplace.amazon.com	reynaldo zavalza	+1 602-671-6610 ext. 75086	ABR0022	Delivery by Wednesday | Arabella Farm Direct Bouquet of 12 Fresh Cut Pink Roses with a Free Glass Vase	1	0	1	NextDay	Erin Zavalza	9901 HONEY LOCUST LN APT 101			LOUISVILLE	KY	40241-3187	US			false		
113-0427272-5641815	04834924558618	2020-10-11T14:09:37+00:00	2020-10-11T07:09:37-07:00	2020-10-11T14:10:32+00:00	2020-10-14T06:59:59+00:00	-3	7t9gl84wfsbxwbb@marketplace.amazon.com	Pushpa Thakarar	+1 480-618-5344 ext. 17786	ABM020	Delivery by Wednesday | The Sunset Bouquet by Arabella Bouquets	1	0	1	NextDay	Meera Tejura Shah	2205 VISTA LA NISA			CARLSBAD	CA	92009-8712	US		Our deepest condolences to you and your family.   We will miss Kavita.   She is in heaven with GOD and spreading ❤️ From Aunty Madhu and uncle Kishor	false		
111-8885094-5638658	37346286194434	2020-10-11T14:22:33+00:00	2020-10-11T07:22:33-07:00	2020-10-11T14:25:21+00:00	2020-10-14T06:59:59+00:00	-3	r5z3rt3ylbn1grk@marketplace.amazon.com	Christine Chen	+1 602-671-6610 ext. 24333	ABR014	Arabella Bouquets 18 Stems of Fresh Cut White Roses in a Free Designer Glass Vase	1	0	1	NextDay	Julie Brockert	5158 DRY RIDGE RD			CINCINNATI	OH	45252-1934	US			false		
113-3418440-5172203	52881550188666	2020-10-11T14:46:48+00:00	2020-10-11T07:46:48-07:00	2020-10-11T14:47:52+00:00	2020-10-14T06:59:59+00:00	-3	gl8b83xyjd3vxck@marketplace.amazon.com	Mary Catherine Dolehide	+1 602-671-6610 ext. 85428	ABM0044	Arabella Farm Direct Bouquet of Fresh Cut Blue Hydrangea with a Free Glass Vase	1	0	1	NextDay	Zlata Cvetanovska	21A KINGERY QUARTER APT 103			WILLOWBROOK	IL	60527-6564	US		Dear Z,  We are so grateful that you came into our lives 20 years ago! Our lives forever changed -  love, Mary Catherine and Brian From Mary Catherine Dolehide	false		
113-5240286-9478658	33651242435290	2020-10-11T14:52:33+00:00	2020-10-11T07:52:33-07:00	2020-10-11T14:53:15+00:00	2020-10-14T06:59:59+00:00	-3	7d1hrq831c4plft@marketplace.amazon.com	wanli yu	+1 929-436-4790 ext. 07618	ABM022	Delivery by Wednesday | Purple Extravagance Bouquet by Arabella Bouquets	1	0	1	NextDay	Yufei Wang	2719 44TH DR APT 18E			LONG ISLAND CITY	NY	11101-3053	US		happy birthday From wanli yu	false		
111-8028709-2730619	42319380746578	2020-10-11T15:09:23+00:00	2020-10-11T08:09:23-07:00	2020-10-11T15:10:20+00:00	2020-10-14T06:59:59+00:00	-3	ffmgjpvgngcl0hq@marketplace.amazon.com	Melissa Schoning	+1 929-436-4790 ext. 93017	ABM0044	Arabella Farm Direct Bouquet of Fresh Cut Blue Hydrangea with a Free Glass Vase	1	0	1	NextDay	Cacky  Burnette	104 E AVE			GRUNDY CENTER	IA	50638-1926	US		Happy late bday.  Miss you much. From Lots love, Mel from KC	false		
