order-id	order-item-id	purchase-date	payments-date	reporting-date	promise-date	days-past-promise	buyer-email	buyer-name	buyer-phone-number	sku	product-name	quantity-purchased	quantity-shipped	quantity-to-ship	ship-service-level	recipient-name	ship-address-1	ship-address-2	ship-address-3	ship-city	ship-state	ship-postal-code	ship-country	gift-wrap-type	gift-message-text	is-business-order	purchase-order-number	price-designation
113-5833578-4154654	60868390681570	2020-10-10T19:02:49+00:00	2020-10-10T12:02:49-07:00	2020-10-10T19:08:03+00:00	2020-10-14T06:59:59+00:00	-2	79ywptrhzg6qwkp@marketplace.amazon.com	Mona al-Kazemi		ABSR005	Arabella Bouquets Fresh Cut Orange Spray Roses in a Free Designer Glass Vase	1	0	1	NextDay	MONA AL KAZEMI	2 RIVER TER APT 21C			NEW YORK	NY	10282	US			false		
111-0016897-5262629	60061349812706	2020-10-10T21:53:47+00:00	2020-10-10T14:53:47-07:00	2020-10-10T21:54:39+00:00	2020-10-14T06:59:59+00:00	-2	2z7d173mqkgcj9t@marketplace.amazon.com	Joyce Thau	+1 602-671-6610 ext. 55984	ABR0033	Delivery by Wednesday | Arabella Farm Direct Bouquet of 12 Fresh Cut Orange Roses with a Free Glass Vase	1	0	1	NextDay	Lisa Black	546 11TH AVE			SAN FRANCISCO	CA	94118-3640	US		Dear Lisa,  Happy Birthday, Enjoy the day From Love Joyce and Rick	false		
112-1080050-9581844	46504523907786	2020-10-10T22:40:21+00:00	2020-10-10T15:40:21-07:00	2020-10-10T22:41:17+00:00	2020-10-14T06:59:59+00:00	-2	6s9d38pjd6pzvp0@marketplace.amazon.com	Fredericka Coleman	+1 602-671-6610 ext. 25994	ABR0033	Delivery by Wednesday | Arabella Farm Direct Bouquet of 12 Fresh Cut Orange Roses with a Free Glass Vase	1	0	1	NextDay	Pauline Lee and Family	570 - 21st Avenue			San Francisco	CA	94121	US			false		
114-9142573-9531443	00159490021930	2020-10-12T13:22:40+00:00	2020-10-12T06:22:40-07:00	2020-10-12T13:48:33+00:00	2020-10-15T06:59:59+00:00	-3	qw1hqjwgt6rn1wn@marketplace.amazon.com	Albert Simone	+1 480-618-5344 ext. 93533	ABM010	The Spring Fling Bouquet by Arabella Bouquets with a Free Designer Glass Vase	1	0	1	Expedited	Karen Simone	70 MAIN ST			BUXTON	ME	04093-6105	US			false		
112-8471759-4317059	24088537980674	2020-10-12T14:19:21+00:00	2020-10-12T07:19:21-07:00	2020-10-12T14:49:58+00:00	2020-10-15T06:59:59+00:00	-3	bg05n80pr278hcl@marketplace.amazon.com	Mackenzie Alsip	+1 602-671-6610 ext. 65529	ABR0022	Arabella Farm Direct Bouquet of 12 Fresh Cut Pink Roses with a Free Glass Vase	1	0	1	Expedited	Mackenzie Alsip	291 NALLY ST			LORENA	TX	76655-4341	US			false		
111-8602251-6153040	02436989418050	2020-10-12T15:08:01+00:00	2020-10-12T08:08:01-07:00	2020-10-12T15:35:18+00:00	2020-10-15T06:59:59+00:00	-3	vl31fbj3tnwhxry@marketplace.amazon.com	Mark Tuttle	+1 602-671-6610 ext. 44702	ABB005	Arabella Bouquets 24 Stems of Fresh Cut Red Roses in a Designer Glass Vase	1	0	1	Expedited	Barbie Tuttle	548 QUAIL HOLLOW DR			PRESCOTT	AZ	86303-5459	US		Happy Birthday Mom/Grandma!! We Love You more than our words can express. Thank you for being the best Mother/Grandmother we could ever ask for!!!  Love, Mark, Carmen, Lauren From Mark Tuttle	false		
114-2154354-2830632	18202438041442	2020-10-12T15:24:13+00:00	2020-10-12T08:24:13-07:00	2020-10-12T15:52:35+00:00	2020-10-15T06:59:59+00:00	-3	6zf3wrf7w24frpj@marketplace.amazon.com	Bill Sears	+1 602-671-6610 ext. 87628	ABR0022	Arabella Farm Direct Bouquet of 12 Fresh Cut Pink Roses with a Free Glass Vase	1	0	1	Expedited	Dori Ritland	4305 PINE MEADOW DR			EAU CLAIRE	WI	54701-7992	US		Enjoy your gift! Happy Birthday! From Marilyn	false		
113-7129010-3325040	40462187647530	2020-10-12T15:25:52+00:00	2020-10-12T08:25:52-07:00	2020-10-12T15:52:50+00:00	2020-10-15T06:59:59+00:00	-3	txtlx1g4z0vnm36@marketplace.amazon.com	Roza Beno	+1 602-671-6610 ext. 36875	ABR0022	Arabella Farm Direct Bouquet of 12 Fresh Cut Pink Roses with a Free Glass Vase	1	0	1	Expedited	Zainab Bakeer	113 OXFORD LN			GLENDALE HEIGHTS	IL	60139-3016	US		Happy Birthday dearest Zainab!  I wish we could celebrate together. I hope this brings you some cheer on your day. May you always be healthy happy and fabulous!  Love you tons From Roza Beno	false		
114-4547088-3485843	04816616385802	2020-10-12T15:41:28+00:00	2020-10-12T08:41:28-07:00	2020-10-12T16:10:42+00:00	2020-10-15T06:59:59+00:00	-3	5xw4jm8ggrjwgs9@marketplace.amazon.com	melissa lukan	+1 602-671-6610 ext. 94949	ABR0022	Arabella Farm Direct Bouquet of 12 Fresh Cut Pink Roses with a Free Glass Vase	1	0	1	Expedited	Judi Svetlich	37 COLVIN LOOP			BRUMLEY	MO	65017-3314	US		Enjoy your gift! From Mark,Melissa, Oscar and Georgia	false		
114-1802642-1097010	59759169936842	2020-10-12T15:45:02+00:00	2020-10-12T08:45:02-07:00	2020-10-12T16:14:44+00:00	2020-10-15T06:59:59+00:00	-3	c68dllp025x1zvy@marketplace.amazon.com	Becky Pelfrey	+1 929-436-4790 ext. 56411	ABM022	Delivery by Thursday | Purple Extravagance Bouquet by Arabella Bouquets	1	0	1	Expedited	Cindy Hageman	6750 HILHAM RD			COOKEVILLE	TN	38506-7266	US			false		
113-2374732-9731449	33539963423426	2020-10-12T15:50:10+00:00	2020-10-12T08:50:10-07:00	2020-10-12T16:18:27+00:00	2020-10-15T06:59:59+00:00	-3	38q3l6h92hr9gsb@marketplace.amazon.com	Sita R Upadhyay	+1 415-851-9136 ext. 90699	ABR0055	Arabella Farm Direct Bouquet of 12 Stems of Fresh Cut Hot Pink Roses in a Free Designer Glass Vase	1	0	1	Expedited	Richa Upadhyay	4728 11TH ST  4B			LONG ISLAND CITY	NY	11101-5504	US		Happy  Anniversary Sumit and Richa From Usha Ram and Sinchu Upadhyay	false		
113-0682382-6685026	50472184563306	2020-10-12T16:01:34+00:00	2020-10-12T09:01:34-07:00	2020-10-12T16:24:08+00:00	2020-10-15T06:59:59+00:00	-3	dkgmc1qhmfhty17@marketplace.amazon.com	Sonia Guerrero	+1 602-671-6610 ext. 45226	ABM0033	Arabella Farm Direct Bouquet of Fresh Cut White Hydrangea with a Free Glass Vase	1	0	1	Expedited	Clara Espitia	15029 72ND RD APT 3K			FLUSHING	NY	11367-2137	US			false		
113-0682382-6685026	14584489116674	2020-10-12T16:01:34+00:00	2020-10-12T09:01:34-07:00	2020-10-12T16:24:08+00:00	2020-10-15T06:59:59+00:00	-3	dkgmc1qhmfhty17@marketplace.amazon.com	Sonia Guerrero	+1 602-671-6610 ext. 45226	ABM0044	Arabella Farm Direct Bouquet of Fresh Cut Blue Hydrangea with a Free Glass Vase	1	0	1	Expedited	Clara Espitia	15029 72ND RD APT 3K			FLUSHING	NY	11367-2137	US			false		
113-6701154-6309055	66704656550802	2020-10-12T16:08:16+00:00	2020-10-12T09:08:16-07:00	2020-10-12T16:35:48+00:00	2020-10-15T06:59:59+00:00	-3	twq2zs1kxlsgh86@marketplace.amazon.com	Barbara Becker	+1 415-851-9136 ext. 17395	ABR0055	Arabella Farm Direct Bouquet of 12 Stems of Fresh Cut Hot Pink Roses in a Free Designer Glass Vase	1	0	1	Expedited	Kerry Sue Gross	6630 N PURDY PKWY			APPLETON	WI	54913-7843	US		Thank you for all you do.  The world is a better place because of people like you.  Praise God!  Love, and miss you. From Auntie Barbara	false		
114-0754558-6429037	61366790408730	2020-10-12T16:37:37+00:00	2020-10-12T09:37:37-07:00	2020-10-12T17:08:18+00:00	2020-10-15T06:59:59+00:00	-3	zkf636kcp22jfgm@marketplace.amazon.com	Debbie Meekins	+1 415-851-9136 ext. 23423	ABR0022	Arabella Farm Direct Bouquet of 12 Fresh Cut Pink Roses with a Free Glass Vase	1	0	1	Expedited	Joanne Whittington	MANOR CARE	550 S CARLIN SPRINGS RD		ARLINGTON	VA	22204-1022	US			false		
113-1117581-2693057	19585906095570	2020-10-12T17:09:57+00:00	2020-10-12T10:09:57-07:00	2020-10-12T17:17:11+00:00	2020-10-14T06:59:59+00:00	-2	tbmy8q0s9pnyyy2@marketplace.amazon.com	Roger Taber	+1 415-851-9136 ext. 69206	ABM010	Delivery by Thursday | The Spring Fling Bouquet by Arabella Bouquets with a Free Designer Glass Vase	1	0	1	SecondDay	Wendy Taber	5297 ELMHURST ST			VENTURA	CA	93003-3937	US			false		
114-9684299-4409820	20462376568130	2020-10-12T16:56:49+00:00	2020-10-12T09:56:49-07:00	2020-10-12T17:25:07+00:00	2020-10-15T06:59:59+00:00	-3	cnr1l9qyzgfmppp@marketplace.amazon.com	Marla Walsh	+1 602-671-6610 ext. 36368	ABM022	Delivery by Thursday | Purple Extravagance Bouquet by Arabella Bouquets	1	0	1	Expedited	Babs MacDonald	125 N 10TH ST			FORT PIERCE	FL	34950-4170	US		Happy Birthday, Mom! I hope these reach you in time for your actual birthday  <3 From Marla & Rob	false		
113-8693561-0105059	14971257872570	2020-10-12T17:33:43+00:00	2020-10-12T10:33:43-07:00	2020-10-12T18:01:53+00:00	2020-10-14T06:59:59+00:00	-2	ntq7t5hc4xch27x@marketplace.amazon.com	Eulyssa.s@yahoo.com	+1 929-436-4790 ext. 14099	ABM010	Delivery by Thursday | The Spring Fling Bouquet by Arabella Bouquets with a Free Designer Glass Vase	1	0	1	SecondDay	Eulyssa wade	44200 KINGTREE AVE UNIT 30			LANCASTER	CA	93534-4119	US		It will get better. I love you, and you’re the greatest mom I could ever ask for. ❤️ From Buffie	false		
112-1887054-8978659	53415280269914	2020-10-12T17:35:43+00:00	2020-10-12T10:35:43-07:00	2020-10-12T18:02:44+00:00	2020-10-15T06:59:59+00:00	-3	mw7bbf9fk2wk6gh@marketplace.amazon.com	Franklin C. Jessup II	+1 415-851-9136 ext. 52129	ABM010	Delivery by Thursday | The Spring Fling Bouquet by Arabella Bouquets with a Free Designer Glass Vase	1	0	1	Expedited	Alexis and Alan Klotun	44477 MALTESE FALCON SQ			ASHBURN	VA	20147-3886	US		Hope you have a speedy recovery ! Love you more. From Franklin C. Jessup II	false		
111-4924682-0124224	38451353811954	2020-10-12T17:34:17+00:00	2020-10-12T10:34:17-07:00	2020-10-12T18:04:19+00:00	2020-10-15T06:59:59+00:00	-3	7kvtnvk9l2vzg1l@marketplace.amazon.com	TERI TERRILL	+1 929-436-4790 ext. 95910	ABR014	Arabella Bouquets 18 Stems of Fresh Cut White Roses in a Free Designer Glass Vase	1	0	1	Expedited	iko Terrill	7025 DEVEREUX CIRCLE DR			ALEXANDRIA	VA	22315-4227	US			false		
112-7154282-0353015	20521471960962	2020-10-12T17:40:37+00:00	2020-10-12T10:40:37-07:00	2020-10-12T18:10:25+00:00	2020-10-14T06:59:59+00:00	-2	d7tsgznsbmj98hr@marketplace.amazon.com	deb	+1 415-851-9136 ext. 89686	ABM024	Delivery by Thursday | The Beauty of Color Bouquet by Arabella Bouquets	1	0	1	SecondDay	Deborah Burns	4 BANNAN LN			BERLIN	CT	06037-4097	US		Sending loads of love!! From  xoxoxo deb	false		
114-9244575-8955434	69193395488474	2020-10-12T17:40:49+00:00	2020-10-12T10:40:49-07:00	2020-10-12T18:11:03+00:00	2020-10-15T06:59:59+00:00	-3	h0mcmn11x4q9kk6@marketplace.amazon.com	Roberta Stiger	+1 929-436-4790 ext. 81027	ABM010	Delivery by Thursday | The Spring Fling Bouquet by Arabella Bouquets with a Free Designer Glass Vase	1	0	1	Expedited	Grace Stiger	300 W HAWTHORNE RD SB # 1478			SPOKANE	WA	99251-2515	US			false		
111-7618792-1832245	36630715045282	2020-10-12T18:41:23+00:00	2020-10-12T11:41:23-07:00	2020-10-12T18:54:22+00:00	2020-10-14T06:59:59+00:00	-2	tclhpq98kv8m4by@marketplace.amazon.com	mario gonzalez	+1 415-851-9136 ext. 45334	ABM020	Delivery by Thursday | The Sunset Bouquet by Arabella Bouquets	1	0	1	SecondDay	Rosemary Rodriguez	8263 PHELPS LAKE CT			LORTON	VA	22079-5201	US		HAPPY BIRTHDAY! LOVE ALWAYS From Rosalba	false		
112-1453615-2474619	69737794508690	2020-10-12T18:39:31+00:00	2020-10-12T11:39:31-07:00	2020-10-12T19:04:29+00:00	2020-10-14T06:59:59+00:00	-2	jrfczy4n71jc8q1@marketplace.amazon.com	Ann L. Robinson	+1 602-671-6610 ext. 30676	ABR0022	Delivery by Thursday | Arabella Farm Direct Bouquet of 12 Fresh Cut Pink Roses with a Free Glass Vase	1	0	1	SecondDay	Theresa Robinson	198 CEZANNE DR			BLOWING ROCK	NC	28605-9381	US		better late than never!  happy birthday dear Theresa!  love, Ann and Peter From Ann L. Robinson	false		
113-8952525-4669856	45516093562754	2020-10-12T18:57:58+00:00	2020-10-12T11:57:58-07:00	2020-10-12T19:06:01+00:00	2020-10-15T06:59:59+00:00	-3	dtyr18234ly47nh@marketplace.amazon.com	Rick Leone	+1 602-671-6610 ext. 41652	ABR001	Delivery by Thursday | Arabella Bouquets 12 Stems of Fresh Cut Red Roses in a Free Designer Glass Vase	1	0	1	Expedited	Darlene DeVito	12304 EMERY OAKS RD			AUSTIN	TX	78758-2455	US		Dar, Before I met you, I never knew what it was like to smile for no reason. xoxoxox From Rick Leone	false		
112-4263626-8066663	45525332874658	2020-10-12T18:59:12+00:00	2020-10-12T11:59:12-07:00	2020-10-12T19:24:29+00:00	2020-10-14T06:59:59+00:00	-2	sjr1bf5q50jf0y2@marketplace.amazon.com	Barbara Mueller	+1 602-671-6610 ext. 97923	ABM024	Delivery by Thursday | The Beauty of Color Bouquet by Arabella Bouquets	1	0	1	SecondDay	TAB Christina Bannister	910 MAGNOLIA BLOSSOM CT			SYKESVILLE	MD	21784-7688	US		TAB and Christina,  Congratulations!! I cannot wait to meet the newest member of the Bannister family.  All my love, Aunt Barbara From Barbara Mueller	false		
114-3114064-9568213	40316827683970	2020-10-12T19:12:31+00:00	2020-10-12T12:12:31-07:00	2020-10-12T19:36:51+00:00	2020-10-15T06:59:59+00:00	-3	4rf6j0y89f5yp08@marketplace.amazon.com	Bendar	+1 480-618-5344 ext. 77223	ABR0022	Delivery by Wednesday | Arabella Farm Direct Bouquet of 12 Fresh Cut Pink Roses with a Free Glass Vase	1	0	1	Expedited	Jed and Sidney Perkins	608 SUNNYSIDE CT			FORT MYERS	FL	33919-2510	US		Our thoughts and prayers are with your family. From Duong Family	false		
114-8450388-3889842	55713187592338	2020-10-12T19:08:41+00:00	2020-10-12T12:08:41-07:00	2020-10-12T19:38:44+00:00	2020-10-14T06:59:59+00:00	-2	q247x0wqgts3523@marketplace.amazon.com	carolyn schneebeck	+1 602-671-6610 ext. 88928	ABM002	Delivery by Thursday | Arabella Bouquets Fresh Cut White Calla Lilies in a Free Designer Glass Vase	1	0	1	SecondDay	carolyn schneebeck	741 N MANASOTA KEY RD			ENGLEWOOD	FL	34223-9758	US			false		
112-0550273-2763437	53842932116450	2020-10-12T19:23:38+00:00	2020-10-12T12:23:38-07:00	2020-10-12T19:50:42+00:00	2020-10-14T06:59:59+00:00	-2	6b6nd9llmsfn1nt@marketplace.amazon.com	Lisa Coleman	+1 602-671-6610 ext. 27909	ABR0022	Delivery by Wednesday | Arabella Farm Direct Bouquet of 12 Fresh Cut Pink Roses with a Free Glass Vase	1	0	1	SecondDay	Amy Dubroc	318 NELMS LOOP			COLFAX	LA	71417-5538	US		Get well soon!  Our thoughts and prayers are with you. From Lisa Coleman	true		Business Price
113-4667010-6182606	65002804518658	2020-10-12T19:27:40+00:00	2020-10-12T12:27:40-07:00	2020-10-12T19:58:19+00:00	2020-10-15T06:59:59+00:00	-3	2srwxp9t6cb653w@marketplace.amazon.com	Joan Nicholson	+1 929-436-4790 ext. 65922	ABM010	Delivery by Wednesday | The Spring Fling Bouquet by Arabella Bouquets with a Free Designer Glass Vase	1	0	1	Expedited	Monique Morgan	38056 AIDEA ST			PALMDALE	CA	93552-3408	US			false		
112-0300119-2421006	18933150977114	2020-10-12T19:42:17+00:00	2020-10-12T12:42:17-07:00	2020-10-12T20:07:08+00:00	2020-10-15T06:59:59+00:00	-3	c0k1ndzp97d0ybh@marketplace.amazon.com	gene	323-268-0220 X 241	ABR0033	Delivery by Wednesday | Arabella Farm Direct Bouquet of 12 Fresh Cut Orange Roses with a Free Glass Vase	1	0	1	Expedited	JENNIFER WISE	5548 LINDBERGH LN			BELL GARDENS	CA	90201-6410	US		YOU'RE MY WORLD From LOVE USG	false		
114-4383637-0805847	05645241297242	2020-10-12T19:45:28+00:00	2020-10-12T12:45:28-07:00	2020-10-12T20:08:18+00:00	2020-10-15T06:59:59+00:00	-3	d1blbsh1knynr05@marketplace.amazon.com	Mrs Iona Rudder	07731876633	ABR0055	Delivery by Wednesday | Arabella Farm Direct Bouquet of 12 Stems of Fresh Cut Hot Pink Roses in a Free Designer Glass Vase	1	0	1	Expedited	Mrs Rudder	116 SUMMIT RIDGE Drive Reynoldsburg			COLUMBUS	Ohio	43068	US		Happy blessed birthday mum. Wishing you a beautiful day. With all our love Robert and Iona ❤️❤️❤️ From Mrs Iona Rudder	false		
113-7109836-6856245	52319151290162	2020-10-12T19:40:58+00:00	2020-10-12T12:40:58-07:00	2020-10-12T20:10:56+00:00	2020-10-15T06:59:59+00:00	-3	bl2w196rgh3b2jf@marketplace.amazon.com	Sheela Mohan-Peterson	+1 929-436-4790 ext. 58242	ABR0022	Delivery by Wednesday | Arabella Farm Direct Bouquet of 12 Fresh Cut Pink Roses with a Free Glass Vase	1	0	1	Expedited	Sheela Mohan-Peterson	970 Cherry Ave			San Jose	CA	95126	US		Happy birthday From Dave	false		
113-5436577-0449850	49548003925658	2020-10-12T19:54:14+00:00	2020-10-12T12:54:14-07:00	2020-10-12T20:22:44+00:00	2020-10-15T06:59:59+00:00	-3	mdc9xccs5sx5cgm@marketplace.amazon.com	Kathryn Mailey	+1 415-851-9136 ext. 24283	ABR0033	Delivery by Wednesday | Arabella Farm Direct Bouquet of 12 Fresh Cut Orange Roses with a Free Glass Vase	1	0	1	Expedited	Mrs Kerrie Cohee	523 S GENESEE AVE			LOS ANGELES	CA	90036-3240	US		Huge congratulations, So very proud of you Love Mum xx From Kathryn Mailey	false		
113-4638103-3785843	17633498562882	2020-10-12T20:25:51+00:00	2020-10-12T13:25:51-07:00	2020-10-12T20:45:00+00:00	2020-10-15T06:59:59+00:00	-3	slzzz4b4d87z12x@marketplace.amazon.com	bonnie michael	+1 602-671-6610 ext. 04223	ABR0022	Delivery by Wednesday | Arabella Farm Direct Bouquet of 12 Fresh Cut Pink Roses with a Free Glass Vase	1	0	1	Expedited	Virginia Cuthbertson	18410 TROUTMANS LN			FROSTBURG	MD	21532-3752	US		With love Webe& Ralph, Allen & Bonnie We will miss her dealery	false		
111-9919513-8907402	04132928575098	2020-10-12T20:27:39+00:00	2020-10-12T13:27:39-07:00	2020-10-12T20:45:05+00:00	2020-10-14T06:59:59+00:00	-2	j11hnpxmk7mh5z4@marketplace.amazon.com	Lucy M Sholtis	+1 480-618-5344 ext. 55656	ABM010	Delivery by Wednesday | The Spring Fling Bouquet by Arabella Bouquets with a Free Designer Glass Vase	1	0	1	SecondDay	JO RASA	19405 TREADWAY RD			BROOKEVILLE	MD	20833-2722	US			false		
114-9679855-5557024	65471371808930	2020-10-12T20:18:59+00:00	2020-10-12T13:18:59-07:00	2020-10-12T20:48:30+00:00	2020-10-14T06:59:59+00:00	-2	ntc7qx2m8j10qlj@marketplace.amazon.com	Kendra Clement	+1 602-671-6610 ext. 62723	ABM010	Delivery by Wednesday | The Spring Fling Bouquet by Arabella Bouquets with a Free Designer Glass Vase	1	0	1	SecondDay	Barbara Richardson	11420 VIA GRANDE DR			AUSTIN	TX	78739-1921	US		Happy Birthday Boss! We love and celebrate you! From, your Southern Swagger Team From Kendra Clement	false		
113-4953844-4894624	47326531555466	2020-10-12T20:24:08+00:00	2020-10-12T13:24:08-07:00	2020-10-12T20:53:04+00:00	2020-10-14T06:59:59+00:00	-2	qc5b1c7g97w0wr4@marketplace.amazon.com	Robert Ward	+1 415-851-9136 ext. 21771	ABM0044	Delivery by Thursday | Arabella Farm Direct Bouquet of Fresh Cut Blue Hydrangea with a Free Glass Vase	1	0	1	SecondDay	Amy Thompson	5140 OLD ALTON RD			GRANITE CITY	IL	62040-2624	US			false		
112-8457140-0392239	46267179079490	2020-10-12T20:22:29+00:00	2020-10-12T13:22:29-07:00	2020-10-12T20:53:13+00:00	2020-10-15T06:59:59+00:00	-3	r8hcrbprn9w3g07@marketplace.amazon.com	Elizabeth Vaughan	+1 929-436-4790 ext. 04134	ABR0022	Delivery by Wednesday | Arabella Farm Direct Bouquet of 12 Fresh Cut Pink Roses with a Free Glass Vase	1	0	1	Expedited	Elizabeth Vaughan	231 GLASS MILL RD			CHICKAMAUGA	GA	30707-3437	US			false		
111-9175038-4810659	51862620865890	2020-10-12T20:48:15+00:00	2020-10-12T13:48:15-07:00	2020-10-12T21:16:54+00:00	2020-10-15T06:59:59+00:00	-3	nzqznx2zp7kr5bq@marketplace.amazon.com	Giselle Downing	+1 480-618-5344 ext. 64483	ABR015	Delivery by Thursday | Arabella Farm Direct Bouquet of 18 Fresh Cut Orange Roses with a Free Glass Vase	1	0	1	Expedited	Nicole Abraham Downing	3700 MAPLESHADE LN APT 3019			PLANO	TX	75075-6019	US		Get well soon Nikky!  We love you, Mom & Carlos	false		
112-4967590-7061057	21243536402594	2020-10-12T21:14:27+00:00	2020-10-12T14:14:27-07:00	2020-10-12T21:21:17+00:00	2020-10-14T06:59:59+00:00	-2	hqjg5yb2kjp5m7y@marketplace.amazon.com	Lauren Wilson	+1 602-671-6610 ext. 95780	ABM022	Delivery by Wednesday | Purple Extravagance Bouquet by Arabella Bouquets	1	0	1	SecondDay	Diane Tabar and Carl Tabar	2972 COLLIER LN			BURLINGTON	KY	41005-6516	US		To my God-Parents and Jake,  Think of you and wishing you peace, happiness, and fortitude.    Love, Lauren From Lauren	false		
114-6597530-3205849	23464190238938	2020-10-12T21:09:38+00:00	2020-10-12T14:09:38-07:00	2020-10-12T21:36:35+00:00	2020-10-14T06:59:59+00:00	-2	cfvdg6h10zy6pmw@marketplace.amazon.com	Christi Callaghan	+1 602-671-6610 ext. 33805	ABM022	Delivery by Wednesday | Purple Extravagance Bouquet by Arabella Bouquets	1	0	1	SecondDay	Ann Craven	4413 IDAHO ST			VANCOUVER	WA	98661-6320	US		Happy Birthday Ann, Sorry I can't be there to give you a hug! Love, Marcia From Marcia Horan	false		
113-9646371-5880223	48244140557338	2020-10-12T21:10:12+00:00	2020-10-12T14:10:12-07:00	2020-10-12T21:36:51+00:00	2020-10-15T06:59:59+00:00	-3	mv45d9yhwl1pzb8@marketplace.amazon.com	Cecilia Gomes	+1 480-618-5344 ext. 19421	ABM022	Delivery by Wednesday | Purple Extravagance Bouquet by Arabella Bouquets	1	0	1	Expedited	Barb Sluga	8003 BUCKTHORN DR			MENTOR	OH	44060-7449	US		Happy Birthday Mom! Hope you have a fabulous day!! We are thinking of you!  Love, Dave and Cecilia From Dave and Cecilia	false		
112-6157255-0796245	59498435224642	2020-10-12T21:08:33+00:00	2020-10-12T14:08:33-07:00	2020-10-12T21:37:38+00:00	2020-10-15T06:59:59+00:00	-3	l8yzyczqdwjdnmq@marketplace.amazon.com	Tisa Zurita	+1 602-671-6610 ext. 17767	ABR001	Delivery by Wednesday | Arabella Bouquets 12 Stems of Fresh Cut Red Roses in a Free Designer Glass Vase	1	0	1	Expedited	Tara Cakes	643 ALLERTON WAY			SANFORD	FL	32771-5435	US			false		
112-9517032-9452264	22352503848650	2020-10-12T21:24:57+00:00	2020-10-12T14:24:57-07:00	2020-10-12T21:51:28+00:00	2020-10-15T06:59:59+00:00	-3	84zrwg9k9w5z424@marketplace.amazon.com	Kim Wheeler	+1 415-851-9136 ext. 76409	ABR0022	Delivery by Wednesday | Arabella Farm Direct Bouquet of 12 Fresh Cut Pink Roses with a Free Glass Vase	1	0	1	Expedited	Patricia Crompton	2345 COUNTY ROAD 306			PARACHUTE	CO	81635-9432	US		Happy Birthday Mom! Sending love your way- hope the flowers brighten your day. Love Kim From Kim Wheeler	false		
114-2516617-3265822	12541793941402	2020-10-12T22:04:53+00:00	2020-10-12T15:04:53-07:00	2020-10-12T22:33:38+00:00	2020-10-15T06:59:59+00:00	-3	mbh6k1jx8wl04dw@marketplace.amazon.com	Joan E Krueger	+1 929-436-4790 ext. 87898	ABR0022	Delivery by Wednesday | Arabella Farm Direct Bouquet of 12 Fresh Cut Pink Roses with a Free Glass Vase	1	0	1	Expedited	Penny Holt	22982 LONE OAK DR			ESTERO	FL	33928-4328	US		Happy Birthday to my very special friend. Hope you have a great day. Will celebrate when I get to Estero on the 26th Love you Joan From Joan E Krueger	false		
112-6058896-7705844	43745536513266	2020-10-12T22:30:05+00:00	2020-10-12T15:30:05-07:00	2020-10-12T22:59:23+00:00	2020-10-14T06:59:59+00:00	-2	n08rwlz9r1ybys4@marketplace.amazon.com	Bruce Smith	+1 929-436-4790 ext. 84102	ABR001	Delivery by Wednesday | Arabella Bouquets 12 Stems of Fresh Cut Red Roses in a Free Designer Glass Vase	1	0	1	SecondDay	Jasmine Smith	15694 FERNCREEK DR			CHESTERFIELD	MO	63017-0702	US			false		
112-4579380-4535444	00449819420746	2020-10-12T22:49:18+00:00	2020-10-12T15:49:18-07:00	2020-10-12T23:18:45+00:00	2020-10-15T06:59:59+00:00	-3	czmccxpypttl4sk@marketplace.amazon.com	Bev Tautalatasi	+1 929-436-4790 ext. 00435	ABR0022	Delivery by Wednesday | Arabella Farm Direct Bouquet of 12 Fresh Cut Pink Roses with a Free Glass Vase	1	0	1	Expedited	Geraldine Belisario	212 WILTON COMMONS DR			GANSEVOORT	NY	12831-3307	US		Mom  Enjoy your flowers, hope you feel  better From Bev Tautalatasi	false		
114-8778043-5520241	36618415268394	2020-10-12T22:56:38+00:00	2020-10-12T15:56:38-07:00	2020-10-12T23:25:20+00:00	2020-10-14T06:59:59+00:00	-2	y4ysd0jtszb0sn6@marketplace.amazon.com	Emax	+1 602-671-6610 ext. 16956	ABR0022	Delivery by Wednesday | Arabella Farm Direct Bouquet of 12 Fresh Cut Pink Roses with a Free Glass Vase	1	0	1	SecondDay	Tiffany M Solomon_Stewart	4683 BEHLMANN FARMS BLVD			FLORISSANT	MO	63034-2858	US			false		
113-8216266-5300260	50091048363962	2020-10-12T23:06:24+00:00	2020-10-12T16:06:24-07:00	2020-10-12T23:33:57+00:00	2020-10-14T06:59:59+00:00	-2	t0s21mvdm9ktzxt@marketplace.amazon.com	Mary	+1 480-618-5344 ext. 04487	ABR0022	Delivery by Wednesday | Arabella Farm Direct Bouquet of 12 Fresh Cut Pink Roses with a Free Glass Vase	1	0	1	SecondDay	John and Lindsey Anderson (Mila and Everest)	2067 E BALD EAGLE WAY			EAGLE MOUNTAIN	UT	84005-4565	US		With all my love, From Mare	false		
113-2147274-3606651	11870471923362	2020-10-12T23:09:52+00:00	2020-10-12T16:09:52-07:00	2020-10-12T23:34:27+00:00	2020-10-15T06:59:59+00:00	-3	3wjf0xxjt2g70g6@marketplace.amazon.com	Maria Angeles Rodriguez	+1 602-671-6610 ext. 24343	ABR0022	Delivery by Wednesday | Arabella Farm Direct Bouquet of 12 Fresh Cut Pink Roses with a Free Glass Vase	1	0	1	Expedited	Luisa Gartner	8005 SAINT JAMES WAY			MOUNT DORA	FL	32757-9134	US		May God bless you today and always. Happy belated birthday, dear Luisa! Love, Maria Mercedes From Maria Mercedes	false		
111-7600354-1773818	40029726705706	2020-10-12T23:37:11+00:00	2020-10-12T16:37:11-07:00	2020-10-13T00:05:58+00:00	2020-10-14T06:59:59+00:00	-2	3mk3tmdxgvrmylv@marketplace.amazon.com	Catherine F. Brooks	+1 929-436-4790 ext. 15071	ABR0066	Delivery by Wednesday | Arabella Bouquets 12 Stems of Fresh Cut White Roses in a Free Designer Glass Vase	1	0	1	SecondDay	Rosemary Jackson	1146 W HEMLOCK AVE			VISALIA	CA	93277-7465	US			false		
111-4467093-3880256	40548272893906	2020-10-12T23:41:04+00:00	2020-10-12T16:41:04-07:00	2020-10-13T00:10:03+00:00	2020-10-15T06:59:59+00:00	-3	99mzpm7dkv2tbhg@marketplace.amazon.com	Carrie L. Spaeth	+1 602-671-6610 ext. 66707	ABM022	Delivery by Wednesday | Purple Extravagance Bouquet by Arabella Bouquets	1	0	1	Expedited	Jennifer Spaeth	1115 W DIAMOND SHORE LOOP			HERNANDO	FL	34442-6238	US		Happy Birthday Mom!! We hope you enjoy your special day! 70 years never looked more beautiful.   Love, Carrie, Cheryl, and the rest of the gang From Carrie L. Spaeth	false		
114-6012213-1677816	25436671057450	2020-10-12T23:54:50+00:00	2020-10-12T16:54:50-07:00	2020-10-13T00:23:27+00:00	2020-10-14T06:59:59+00:00	-2	vwnhkdqcq1swvh8@marketplace.amazon.com	Sherry Jones	+1 602-671-6610 ext. 59555	ABM022	Delivery by Wednesday | Purple Extravagance Bouquet by Arabella Bouquets	1	0	1	SecondDay	Sherry Jones	455 SILVER LEAF DR			OROVILLE	CA	95966-3938	US		Wishing you a very special Birthday!  Hope to see you soon! Love Sherry From Sherry Jones	false		
113-0297010-3522629	65785409656986	2020-10-13T00:27:12+00:00	2020-10-12T17:27:12-07:00	2020-10-13T00:49:40+00:00	2020-10-15T06:59:59+00:00	-3	57y8rw74khhxvpb@marketplace.amazon.com	heather velazquez	+1 929-436-4790 ext. 97731	ABR0022	Delivery by Wednesday | Arabella Farm Direct Bouquet of 12 Fresh Cut Pink Roses with a Free Glass Vase	1	0	1	Expedited	kelsey Reinertson	1318 N ORANGE DR APT 104			LOS ANGELES	CA	90028-7560	US		Thank you lil sis for all the bday love From heather velazquez	false		
114-0931588-8481033	69481778872418	2020-10-13T00:37:25+00:00	2020-10-12T17:37:25-07:00	2020-10-13T01:04:38+00:00	2020-10-15T06:59:59+00:00	-3	yqbc96q0p33d44v@marketplace.amazon.com	Luis	+1 480-618-5344 ext. 63822	ABR0022	Delivery by Wednesday | Arabella Farm Direct Bouquet of 12 Fresh Cut Pink Roses with a Free Glass Vase	1	0	1	Expedited	Sonia	18 S C ST APT BPERRIS CA 92570			PERRIS	CA	92570-2034	US		Dios la bendiga hermanita De Lily	false		
113-6199515-6483403	12587060691194	2020-10-13T00:36:11+00:00	2020-10-12T17:36:11-07:00	2020-10-13T01:04:55+00:00	2020-10-14T06:59:59+00:00	-2	xhj4tjh5ggyn4g7@marketplace.amazon.com	Kathylee B. Thompson	+1 480-618-5344 ext. 01131	ABM0044	Delivery by Thursday | Arabella Farm Direct Bouquet of Fresh Cut Blue Hydrangea with a Free Glass Vase	1	0	1	SecondDay	Kathylee Thompson	317 EASTOVER RD			CHARLOTTE	NC	28207-2349	US			false		
114-7721064-1111445	23730113658010	2020-10-13T00:43:52+00:00	2020-10-12T17:43:52-07:00	2020-10-13T01:12:06+00:00	2020-10-14T06:59:59+00:00	-2	63cs3zsl0yql9th@marketplace.amazon.com	Wendy Bowers	+1 415-851-9136 ext. 66428	ABM022	Delivery by Wednesday | Purple Extravagance Bouquet by Arabella Bouquets	1	0	1	SecondDay	Alexis Callender	3377 DANBURY RD			FAIRFIELD	OH	45014-5350	US		Happy bosses day, we appreciate you! From Wendy, Rhonda, Randi and David	false		
113-4583278-3882602	10172567305370	2020-10-13T00:50:39+00:00	2020-10-12T17:50:39-07:00	2020-10-13T01:20:11+00:00	2020-10-14T06:59:59+00:00	-2	6jts21hvh3dy9k2@marketplace.amazon.com	Maria Velasco	+1 480-618-5344 ext. 63484	ABR001	Delivery by Wednesday | Arabella Bouquets 12 Stems of Fresh Cut Red Roses in a Free Designer Glass Vase	1	0	1	SecondDay	Lidia Piña	18600 INGOMAR ST			RESEDA	CA	91335-1852	US			false		
112-6470929-1197065	63409173655978	2020-10-13T00:53:48+00:00	2020-10-12T17:53:48-07:00	2020-10-13T01:21:08+00:00	2020-10-14T06:59:59+00:00	-2	dfj2h2b5ykpgn21@marketplace.amazon.com	Cristina Williams	+1 602-671-6610 ext. 09492	ABR012	Delivery by Thursday | Arabella Farm Direct Bouquet of 18 Fresh Cut Pink Roses with a Free Glass Vase	1	0	1	SecondDay	Ana B. Mubarak	14880 AMOROSE ST			LAKE ELSINORE	CA	92530-7414	US		🎼🎶🎵🥳 Happy birthday, Ana 🎁🎂🎈🎉! 🎼🎶🎵🥳🌈❤️😘🥰 Wishing you continued happiness and blessings 🙏🏼👼🏼🙏🏼  Enjoy your gift! From Tom and Cristina Williams	false		
112-8412744-3793069	66164698615818	2020-10-13T01:04:00+00:00	2020-10-12T18:04:00-07:00	2020-10-13T01:34:15+00:00	2020-10-15T06:59:59+00:00	-3	0r6fdl3nh7gdqkx@marketplace.amazon.com	Colton Malich	+1 929-436-4790 ext. 70784	ABR0022	Delivery by Wednesday | Arabella Farm Direct Bouquet of 12 Fresh Cut Pink Roses with a Free Glass Vase	1	0	1	Expedited	Emaly Burns	7626 W MYRTLE AVE			CHICAGO	IL	60631-1834	US			false		
114-4043915-9396267	06437043685578	2020-10-13T01:24:56+00:00	2020-10-12T18:24:56-07:00	2020-10-13T01:52:15+00:00	2020-10-14T06:59:59+00:00	-2	6z7y7jm4lclzv6l@marketplace.amazon.com	T	+1 415-851-9136 ext. 31441	ABR012	Delivery by Thursday | Arabella Farm Direct Bouquet of 18 Fresh Cut Pink Roses with a Free Glass Vase	1	0	1	SecondDay	Ida Santos	10015 WONDERFUL DAY DR			LAS VEGAS	NV	89148-4599	US		Happy 75th Birthday Mom  Love, Caroline, Terry, TJ, and Troy From Caroline	false		
111-2814814-0428230	69900719845306	2020-10-13T01:40:20+00:00	2020-10-12T18:40:20-07:00	2020-10-13T02:06:47+00:00	2020-10-14T06:59:59+00:00	-2	jj7slm9351scm13@marketplace.amazon.com	Edith Welch	+1 929-436-4790 ext. 48680	ABM010	Delivery by Wednesday | The Spring Fling Bouquet by Arabella Bouquets with a Free Designer Glass Vase	1	0	1	SecondDay	Veda Britton	416 PAGAN ST			HENDERSON	NV	89011-4341	US		Happy Birthday From Edith	false		
111-6406212-4399413	65827802559986	2020-10-13T01:56:27+00:00	2020-10-12T18:56:27-07:00	2020-10-13T02:22:26+00:00	2020-10-15T06:59:59+00:00	-3	1nzz67yncflk45z@marketplace.amazon.com	Deborah Bowman	+1 602-671-6610 ext. 69772	ABR0022	Delivery by Wednesday | Arabella Farm Direct Bouquet of 12 Fresh Cut Pink Roses with a Free Glass Vase	1	0	1	Expedited	Akemi Bowman	8120 PRIESTLEY DR			REYNOLDSBURG	OH	43068-1358	US		Please know we are thinking of you, wishing you well and sending lots of love! From Deborah & Steve	false		
114-9270357-3711441	01970618295986	2020-10-13T01:57:37+00:00	2020-10-12T18:57:37-07:00	2020-10-13T02:24:44+00:00	2020-10-15T06:59:59+00:00	-3	l6v8yhl462plgb7@marketplace.amazon.com	Loren D Wright	+1 480-618-5344 ext. 27388	ABR0055	Delivery by Wednesday | Arabella Farm Direct Bouquet of 12 Stems of Fresh Cut Hot Pink Roses in a Free Designer Glass Vase	1	0	1	Expedited	Loren Wright	3920 N GUY RD			POST FALLS	ID	83854-9379	US		Hi Honey😁 Love you ❤️! Loren	false		
113-0430879-4968266	56015948846418	2020-10-13T02:16:01+00:00	2020-10-12T19:16:01-07:00	2020-10-13T02:46:09+00:00	2020-10-15T06:59:59+00:00	-3	q8d893ql4lyrbyy@marketplace.amazon.com	Shanika McClinton	+1 929-436-4790 ext. 65868	ABM022	Delivery by Wednesday | Purple Extravagance Bouquet by Arabella Bouquets	1	0	1	Expedited	Jackie Alder	233 S BRANCH PKWY			SPRINGFIELD	MA	01118-1306	US			false		
114-1360155-0538657	19066319544554	2020-10-13T02:46:31+00:00	2020-10-12T19:46:31-07:00	2020-10-13T02:59:09+00:00	2020-10-14T06:59:59+00:00	-2	2p1vs6wrfhrgc64@marketplace.amazon.com	Dominique Agnone	+1 602-671-6610 ext. 25221	ABR0033	Delivery by Wednesday | Arabella Farm Direct Bouquet of 12 Fresh Cut Orange Roses with a Free Glass Vase	1	0	1	SecondDay	Titi Helen Natale	6926 66TH PL			GLENDALE	NY	11385-6542	US		Happy Birthday, Titi Helen! God bless you! May His Word warm your heart: Jeremiah 29:11 1 Corinthians 2:9 Philippians 4:6-8 From Love, Justin & Dominique	false		
113-8382572-0321860	36566358371458	2020-10-13T02:36:23+00:00	2020-10-12T19:36:23-07:00	2020-10-13T03:02:38+00:00	2020-10-15T06:59:59+00:00	-3	069dk10phh6xy17@marketplace.amazon.com	Kevin Wood	+1 415-851-9136 ext. 39303	ABM022	Delivery by Wednesday | Purple Extravagance Bouquet by Arabella Bouquets	1	0	1	Expedited	Brandon Pope	729 WESTMINSTER LN			VIRGINIA BEACH	VA	23454-3412	US		Dear Brandon and Family,  Praying for a swift and full recovery for your baby girl.   With all our Love,  your ES team From ES leadership	false		
112-9798861-2425831	67302346108378	2020-10-13T02:53:43+00:00	2020-10-12T19:53:43-07:00	2020-10-13T03:21:05+00:00	2020-10-14T06:59:59+00:00	-2	0tsmqf4gdz3b1xm@marketplace.amazon.com	jessie FAN	+1 602-671-6610 ext. 41956	ABM022	Delivery by Wednesday | Purple Extravagance Bouquet by Arabella Bouquets	1	0	1	SecondDay	HONG, ZHANG	419 OTISCO DR WESTFIELD			WESTFIELD	NJ	07090-2715	US		Happy birthday to my dearest Hong, with my love From jessie FAN	false		
