order-id	order-item-id	purchase-date	payments-date	reporting-date	promise-date	days-past-promise	buyer-email	buyer-name	buyer-phone-number	sku	product-name	quantity-purchased	quantity-shipped	quantity-to-ship	ship-service-level	recipient-name	ship-address-1	ship-address-2	ship-address-3	ship-city	ship-state	ship-postal-code	ship-country	gift-wrap-type	gift-message-text	is-business-order	purchase-order-number	price-designation
114-2840931-9677033	67750961850626	2020-10-10T16:11:38+00:00	2020-10-10T09:11:38-07:00	2020-10-10T16:14:30+00:00	2020-10-14T06:59:59+00:00	-2	l0n17xg74s3dlkv@marketplace.amazon.com	Arichica Prescott	+1 602-671-6610 ext. 94071	ABM010	Delivery by Wednesday | The Spring Fling Bouquet by Arabella Bouquets with a Free Designer Glass Vase	1	0	1	NextDay	Steph Liggett	1805 77TH ST			WINDSOR HEIGHTS	IA	50324-5721	US		Words cannot describe how lucky I am to have such a fantastic friend like you.  Happy Birthday, looking forward to our belated celebration!  Have a fantastic day. From Arichica Prescott	false		
113-6343869-2133035	06212438951210	2020-10-10T16:48:56+00:00	2020-10-10T09:48:56-07:00	2020-10-10T16:53:11+00:00	2020-10-14T06:59:59+00:00	-2	6tc1n3blxrlq38r@marketplace.amazon.com	Juliet Way	+1 929-436-4790 ext. 14524	ABM022	Delivery by Wednesday | Purple Extravagance Bouquet by Arabella Bouquets	1	0	1	NextDay	Carlal Way	2876 LUCCA CT			LEAGUE CITY	TX	77573-3363	US		Wishing you a wonderful birthday Carla! With loads of love and hugs Juliet	false		
113-5833578-4154654	60868390681570	2020-10-10T19:02:49+00:00	2020-10-10T12:02:49-07:00	2020-10-10T19:08:03+00:00	2020-10-14T06:59:59+00:00	-2	79ywptrhzg6qwkp@marketplace.amazon.com	Mona al-Kazemi		ABSR005	Arabella Bouquets Fresh Cut Orange Spray Roses in a Free Designer Glass Vase	1	0	1	NextDay	MONA AL KAZEMI	2 RIVER TER APT 21C			NEW YORK	NY	10282	US			false		
111-0016897-5262629	60061349812706	2020-10-10T21:53:47+00:00	2020-10-10T14:53:47-07:00	2020-10-10T21:54:39+00:00	2020-10-14T06:59:59+00:00	-2	2z7d173mqkgcj9t@marketplace.amazon.com	Joyce Thau	+1 602-671-6610 ext. 55984	ABR0033	Delivery by Wednesday | Arabella Farm Direct Bouquet of 12 Fresh Cut Orange Roses with a Free Glass Vase	1	0	1	NextDay	Lisa Black	546 11TH AVE			SAN FRANCISCO	CA	94118-3640	US		Dear Lisa,  Happy Birthday, Enjoy the day From Love Joyce and Rick	false		
112-1080050-9581844	46504523907786	2020-10-10T22:40:21+00:00	2020-10-10T15:40:21-07:00	2020-10-10T22:41:17+00:00	2020-10-14T06:59:59+00:00	-2	6s9d38pjd6pzvp0@marketplace.amazon.com	Fredericka Coleman	+1 602-671-6610 ext. 25994	ABR0033	Delivery by Wednesday | Arabella Farm Direct Bouquet of 12 Fresh Cut Orange Roses with a Free Glass Vase	1	0	1	NextDay	Pauline Lee and Family	570 - 21st Avenue			San Francisco	CA	94121	US			false		
112-0139096-4901841	22841796771018	2020-10-11T09:52:12+00:00	2020-10-11T02:52:12-07:00	2020-10-11T09:53:01+00:00	2020-10-14T06:59:59+00:00	-2	gvq8ttxzlx7j5m2@marketplace.amazon.com	david tepper	+1 929-436-4790 ext. 16048	ABM022	Delivery by Wednesday | Purple Extravagance Bouquet by Arabella Bouquets	1	0	1	NextDay	Tamara Wilkow	55 E PEARSON ST			CHICAGO	IL	60611-2535	US		Just thinking of my favorite aunt today. You have made my life brighter, I hope these brighten your day a little.Enjoy! From david tepper	false		
114-2129688-2137030	20783263196002	2020-10-11T20:36:56+00:00	2020-10-11T13:36:56-07:00	2020-10-11T20:37:52+00:00	2020-10-14T06:59:59+00:00	-2	zrk3mhbjwsnhfwl@marketplace.amazon.com	Sudesh	+1 480-618-5344 ext. 20460	ABM010	Delivery by Wednesday | The Spring Fling Bouquet by Arabella Bouquets with a Free Designer Glass Vase	1	0	1	NextDay	KIRAN BAGGA	2510 LAIN DR			KILLEEN	TX	76543-2565	US		HAPPY BIRTHDAY! ENJOY YOUR DAY. From Sudesh	false		
114-8712554-8621840	43074628375994	2020-10-11T20:45:30+00:00	2020-10-11T13:45:30-07:00	2020-10-11T20:47:48+00:00	2020-10-14T06:59:59+00:00	-2	f642wsd93v3zk5p@marketplace.amazon.com	Jeffrey Novak	+1 602-671-6610 ext. 37420	ABM022	Delivery by Wednesday | Purple Extravagance Bouquet by Arabella Bouquets	1	0	1	NextDay	Gail Landelius	1530 BIRCHCREST DR			DEARBORN	MI	48124-4090	US		Happy birthday, Grandma! Hope you have a great day! We miss you! Love, Ellie, Alex, Julie, and Jeff	false		
112-1930598-0985041	05283410768106	2020-10-11T21:52:24+00:00	2020-10-11T14:52:24-07:00	2020-10-11T21:53:23+00:00	2020-10-14T06:59:59+00:00	-2	yjfyzv9w7g9sh4w@marketplace.amazon.com	Abraham Baidoo	+1 929-436-4790 ext. 08836	ABM022	Delivery by Wednesday | Purple Extravagance Bouquet by Arabella Bouquets	1	0	1	NextDay	Gilda Djabarzade	6292 GARRETT LN APT 4			ROCKFORD	IL	61107-6656	US		From Wakanda with love thinking of You everyday while in the ICU hiding from COVID From Abraham Baidoo	false		
112-6895468-8729850	27318419444666	2020-10-12T12:22:38+00:00	2020-10-12T05:22:38-07:00	2020-10-12T12:27:21+00:00	2020-10-14T06:59:59+00:00	-2	6ppx87761gll7ws@marketplace.amazon.com	Cathy Spencer	+1 602-671-6610 ext. 44337	ABM022	Delivery by Wednesday | Purple Extravagance Bouquet by Arabella Bouquets	1	0	1	NextDay	Bunny Anderson	900 S GRAND AVE			GAINESVILLE	TX	76240-5806	US			false		
114-9142573-9531443	00159490021930	2020-10-12T13:22:40+00:00	2020-10-12T06:22:40-07:00	2020-10-12T13:48:33+00:00	2020-10-15T06:59:59+00:00	-3	qw1hqjwgt6rn1wn@marketplace.amazon.com	Albert Simone	+1 480-618-5344 ext. 93533	ABM010	The Spring Fling Bouquet by Arabella Bouquets with a Free Designer Glass Vase	1	0	1	Expedited	Karen Simone	70 MAIN ST			BUXTON	ME	04093-6105	US			false		
112-8471759-4317059	24088537980674	2020-10-12T14:19:21+00:00	2020-10-12T07:19:21-07:00	2020-10-12T14:49:58+00:00	2020-10-15T06:59:59+00:00	-3	bg05n80pr278hcl@marketplace.amazon.com	Mackenzie Alsip	+1 602-671-6610 ext. 65529	ABR0022	Arabella Farm Direct Bouquet of 12 Fresh Cut Pink Roses with a Free Glass Vase	1	0	1	Expedited	Mackenzie Alsip	291 NALLY ST			LORENA	TX	76655-4341	US			false		
111-8602251-6153040	02436989418050	2020-10-12T15:08:01+00:00	2020-10-12T08:08:01-07:00	2020-10-12T15:35:18+00:00	2020-10-15T06:59:59+00:00	-3	vl31fbj3tnwhxry@marketplace.amazon.com	Mark Tuttle	+1 602-671-6610 ext. 44702	ABB005	Arabella Bouquets 24 Stems of Fresh Cut Red Roses in a Designer Glass Vase	1	0	1	Expedited	Barbie Tuttle	548 QUAIL HOLLOW DR			PRESCOTT	AZ	86303-5459	US		Happy Birthday Mom/Grandma!! We Love You more than our words can express. Thank you for being the best Mother/Grandmother we could ever ask for!!!  Love, Mark, Carmen, Lauren From Mark Tuttle	false		
114-2154354-2830632	18202438041442	2020-10-12T15:24:13+00:00	2020-10-12T08:24:13-07:00	2020-10-12T15:52:35+00:00	2020-10-15T06:59:59+00:00	-3	6zf3wrf7w24frpj@marketplace.amazon.com	Bill Sears	+1 602-671-6610 ext. 87628	ABR0022	Arabella Farm Direct Bouquet of 12 Fresh Cut Pink Roses with a Free Glass Vase	1	0	1	Expedited	Dori Ritland	4305 PINE MEADOW DR			EAU CLAIRE	WI	54701-7992	US		Enjoy your gift! Happy Birthday! From Marilyn	false		
113-7129010-3325040	40462187647530	2020-10-12T15:25:52+00:00	2020-10-12T08:25:52-07:00	2020-10-12T15:52:50+00:00	2020-10-15T06:59:59+00:00	-3	txtlx1g4z0vnm36@marketplace.amazon.com	Roza Beno	+1 602-671-6610 ext. 36875	ABR0022	Arabella Farm Direct Bouquet of 12 Fresh Cut Pink Roses with a Free Glass Vase	1	0	1	Expedited	Zainab Bakeer	113 OXFORD LN			GLENDALE HEIGHTS	IL	60139-3016	US		Happy Birthday dearest Zainab!  I wish we could celebrate together. I hope this brings you some cheer on your day. May you always be healthy happy and fabulous!  Love you tons From Roza Beno	false		
114-4547088-3485843	04816616385802	2020-10-12T15:41:28+00:00	2020-10-12T08:41:28-07:00	2020-10-12T16:10:42+00:00	2020-10-15T06:59:59+00:00	-3	5xw4jm8ggrjwgs9@marketplace.amazon.com	melissa lukan	+1 602-671-6610 ext. 94949	ABR0022	Arabella Farm Direct Bouquet of 12 Fresh Cut Pink Roses with a Free Glass Vase	1	0	1	Expedited	Judi Svetlich	37 COLVIN LOOP			BRUMLEY	MO	65017-3314	US		Enjoy your gift! From Mark,Melissa, Oscar and Georgia	false		
114-1802642-1097010	59759169936842	2020-10-12T15:45:02+00:00	2020-10-12T08:45:02-07:00	2020-10-12T16:14:44+00:00	2020-10-15T06:59:59+00:00	-3	c68dllp025x1zvy@marketplace.amazon.com	Becky Pelfrey	+1 929-436-4790 ext. 56411	ABM022	Delivery by Thursday | Purple Extravagance Bouquet by Arabella Bouquets	1	0	1	Expedited	Cindy Hageman	6750 HILHAM RD			COOKEVILLE	TN	38506-7266	US			false		
113-2374732-9731449	33539963423426	2020-10-12T15:50:10+00:00	2020-10-12T08:50:10-07:00	2020-10-12T16:18:27+00:00	2020-10-15T06:59:59+00:00	-3	38q3l6h92hr9gsb@marketplace.amazon.com	Sita R Upadhyay	+1 415-851-9136 ext. 90699	ABR0055	Arabella Farm Direct Bouquet of 12 Stems of Fresh Cut Hot Pink Roses in a Free Designer Glass Vase	1	0	1	Expedited	Richa Upadhyay	4728 11TH ST  4B			LONG ISLAND CITY	NY	11101-5504	US		Happy  Anniversary Sumit and Richa From Usha Ram and Sinchu Upadhyay	false		
113-0682382-6685026	50472184563306	2020-10-12T16:01:34+00:00	2020-10-12T09:01:34-07:00	2020-10-12T16:24:08+00:00	2020-10-15T06:59:59+00:00	-3	dkgmc1qhmfhty17@marketplace.amazon.com	Sonia Guerrero	+1 602-671-6610 ext. 45226	ABM0033	Arabella Farm Direct Bouquet of Fresh Cut White Hydrangea with a Free Glass Vase	1	0	1	Expedited	Clara Espitia	15029 72ND RD APT 3K			FLUSHING	NY	11367-2137	US			false		
113-0682382-6685026	14584489116674	2020-10-12T16:01:34+00:00	2020-10-12T09:01:34-07:00	2020-10-12T16:24:08+00:00	2020-10-15T06:59:59+00:00	-3	dkgmc1qhmfhty17@marketplace.amazon.com	Sonia Guerrero	+1 602-671-6610 ext. 45226	ABM0044	Arabella Farm Direct Bouquet of Fresh Cut Blue Hydrangea with a Free Glass Vase	1	0	1	Expedited	Clara Espitia	15029 72ND RD APT 3K			FLUSHING	NY	11367-2137	US			false		
113-6701154-6309055	66704656550802	2020-10-12T16:08:16+00:00	2020-10-12T09:08:16-07:00	2020-10-12T16:35:48+00:00	2020-10-15T06:59:59+00:00	-3	twq2zs1kxlsgh86@marketplace.amazon.com	Barbara Becker	+1 415-851-9136 ext. 17395	ABR0055	Arabella Farm Direct Bouquet of 12 Stems of Fresh Cut Hot Pink Roses in a Free Designer Glass Vase	1	0	1	Expedited	Kerry Sue Gross	6630 N PURDY PKWY			APPLETON	WI	54913-7843	US		Thank you for all you do.  The world is a better place because of people like you.  Praise God!  Love, and miss you. From Auntie Barbara	false		
114-0754558-6429037	61366790408730	2020-10-12T16:37:37+00:00	2020-10-12T09:37:37-07:00	2020-10-12T17:08:18+00:00	2020-10-15T06:59:59+00:00	-3	zkf636kcp22jfgm@marketplace.amazon.com	Debbie Meekins	+1 415-851-9136 ext. 23423	ABR0022	Arabella Farm Direct Bouquet of 12 Fresh Cut Pink Roses with a Free Glass Vase	1	0	1	Expedited	Joanne Whittington	MANOR CARE	550 S CARLIN SPRINGS RD		ARLINGTON	VA	22204-1022	US			false		
113-1117581-2693057	19585906095570	2020-10-12T17:09:57+00:00	2020-10-12T10:09:57-07:00	2020-10-12T17:17:11+00:00	2020-10-14T06:59:59+00:00	-2	tbmy8q0s9pnyyy2@marketplace.amazon.com	Roger Taber	+1 415-851-9136 ext. 69206	ABM010	Delivery by Thursday | The Spring Fling Bouquet by Arabella Bouquets with a Free Designer Glass Vase	1	0	1	SecondDay	Wendy Taber	5297 ELMHURST ST			VENTURA	CA	93003-3937	US			false		
114-9684299-4409820	20462376568130	2020-10-12T16:56:49+00:00	2020-10-12T09:56:49-07:00	2020-10-12T17:25:07+00:00	2020-10-15T06:59:59+00:00	-3	cnr1l9qyzgfmppp@marketplace.amazon.com	Marla Walsh	+1 602-671-6610 ext. 36368	ABM022	Delivery by Thursday | Purple Extravagance Bouquet by Arabella Bouquets	1	0	1	Expedited	Babs MacDonald	125 N 10TH ST			FORT PIERCE	FL	34950-4170	US		Happy Birthday, Mom! I hope these reach you in time for your actual birthday  <3 From Marla & Rob	false		
113-8693561-0105059	14971257872570	2020-10-12T17:33:43+00:00	2020-10-12T10:33:43-07:00	2020-10-12T18:01:53+00:00	2020-10-14T06:59:59+00:00	-2	ntq7t5hc4xch27x@marketplace.amazon.com	Eulyssa.s@yahoo.com	+1 929-436-4790 ext. 14099	ABM010	Delivery by Thursday | The Spring Fling Bouquet by Arabella Bouquets with a Free Designer Glass Vase	1	0	1	SecondDay	Eulyssa wade	44200 KINGTREE AVE UNIT 30			LANCASTER	CA	93534-4119	US		It will get better. I love you, and you’re the greatest mom I could ever ask for. ❤️ From Buffie	false		
112-1887054-8978659	53415280269914	2020-10-12T17:35:43+00:00	2020-10-12T10:35:43-07:00	2020-10-12T18:02:44+00:00	2020-10-15T06:59:59+00:00	-3	mw7bbf9fk2wk6gh@marketplace.amazon.com	Franklin C. Jessup II	+1 415-851-9136 ext. 52129	ABM010	Delivery by Thursday | The Spring Fling Bouquet by Arabella Bouquets with a Free Designer Glass Vase	1	0	1	Expedited	Alexis and Alan Klotun	44477 MALTESE FALCON SQ			ASHBURN	VA	20147-3886	US		Hope you have a speedy recovery ! Love you more. From Franklin C. Jessup II	false		
111-4924682-0124224	38451353811954	2020-10-12T17:34:17+00:00	2020-10-12T10:34:17-07:00	2020-10-12T18:04:19+00:00	2020-10-15T06:59:59+00:00	-3	7kvtnvk9l2vzg1l@marketplace.amazon.com	TERI TERRILL	+1 929-436-4790 ext. 95910	ABR014	Arabella Bouquets 18 Stems of Fresh Cut White Roses in a Free Designer Glass Vase	1	0	1	Expedited	iko Terrill	7025 DEVEREUX CIRCLE DR			ALEXANDRIA	VA	22315-4227	US			false		
112-7154282-0353015	20521471960962	2020-10-12T17:40:37+00:00	2020-10-12T10:40:37-07:00	2020-10-12T18:10:25+00:00	2020-10-14T06:59:59+00:00	-2	d7tsgznsbmj98hr@marketplace.amazon.com	deb	+1 415-851-9136 ext. 89686	ABM024	Delivery by Thursday | The Beauty of Color Bouquet by Arabella Bouquets	1	0	1	SecondDay	Deborah Burns	4 BANNAN LN			BERLIN	CT	06037-4097	US		Sending loads of love!! From  xoxoxo deb	false		
114-9244575-8955434	69193395488474	2020-10-12T17:40:49+00:00	2020-10-12T10:40:49-07:00	2020-10-12T18:11:03+00:00	2020-10-15T06:59:59+00:00	-3	h0mcmn11x4q9kk6@marketplace.amazon.com	Roberta Stiger	+1 929-436-4790 ext. 81027	ABM010	Delivery by Thursday | The Spring Fling Bouquet by Arabella Bouquets with a Free Designer Glass Vase	1	0	1	Expedited	Grace Stiger	300 W HAWTHORNE RD SB # 1478			SPOKANE	WA	99251-2515	US			false		
111-7618792-1832245	36630715045282	2020-10-12T18:41:23+00:00	2020-10-12T11:41:23-07:00	2020-10-12T18:54:22+00:00	2020-10-14T06:59:59+00:00	-2	tclhpq98kv8m4by@marketplace.amazon.com	mario gonzalez	+1 415-851-9136 ext. 45334	ABM020	Delivery by Thursday | The Sunset Bouquet by Arabella Bouquets	1	0	1	SecondDay	Rosemary Rodriguez	8263 PHELPS LAKE CT			LORTON	VA	22079-5201	US		HAPPY BIRTHDAY! LOVE ALWAYS From Rosalba	false		
112-1453615-2474619	69737794508690	2020-10-12T18:39:31+00:00	2020-10-12T11:39:31-07:00	2020-10-12T19:04:29+00:00	2020-10-14T06:59:59+00:00	-2	jrfczy4n71jc8q1@marketplace.amazon.com	Ann L. Robinson	+1 602-671-6610 ext. 30676	ABR0022	Delivery by Thursday | Arabella Farm Direct Bouquet of 12 Fresh Cut Pink Roses with a Free Glass Vase	1	0	1	SecondDay	Theresa Robinson	198 CEZANNE DR			BLOWING ROCK	NC	28605-9381	US		better late than never!  happy birthday dear Theresa!  love, Ann and Peter From Ann L. Robinson	false		
113-8952525-4669856	45516093562754	2020-10-12T18:57:58+00:00	2020-10-12T11:57:58-07:00	2020-10-12T19:06:01+00:00	2020-10-15T06:59:59+00:00	-3	dtyr18234ly47nh@marketplace.amazon.com	Rick Leone	+1 602-671-6610 ext. 41652	ABR001	Delivery by Thursday | Arabella Bouquets 12 Stems of Fresh Cut Red Roses in a Free Designer Glass Vase	1	0	1	Expedited	Darlene DeVito	12304 EMERY OAKS RD			AUSTIN	TX	78758-2455	US		Dar, Before I met you, I never knew what it was like to smile for no reason. xoxoxox From Rick Leone	false		
112-4263626-8066663	45525332874658	2020-10-12T18:59:12+00:00	2020-10-12T11:59:12-07:00	2020-10-12T19:24:29+00:00	2020-10-14T06:59:59+00:00	-2	sjr1bf5q50jf0y2@marketplace.amazon.com	Barbara Mueller	+1 602-671-6610 ext. 97923	ABM024	Delivery by Thursday | The Beauty of Color Bouquet by Arabella Bouquets	1	0	1	SecondDay	TAB Christina Bannister	910 MAGNOLIA BLOSSOM CT			SYKESVILLE	MD	21784-7688	US		TAB and Christina,  Congratulations!! I cannot wait to meet the newest member of the Bannister family.  All my love, Aunt Barbara From Barbara Mueller	false		
