order-id	order-item-id	purchase-date	payments-date	reporting-date	promise-date	days-past-promise	buyer-email	buyer-name	buyer-phone-number	sku	product-name	quantity-purchased	quantity-shipped	quantity-to-ship	ship-service-level	recipient-name	ship-address-1	ship-address-2	ship-address-3	ship-city	ship-state	ship-postal-code	ship-country	gift-wrap-type	gift-message-text	is-business-order	purchase-order-number	price-designation
111-2566286-2558623	63058313544514	2020-10-13T16:48:18+00:00	2020-10-13T09:48:18-07:00	2020-10-13T17:18:52+00:00	2020-10-16T06:59:59+00:00	-3	jch9qp8mswcxyt6@marketplace.amazon.com	Barbara Dudl	+1 602-671-6610 ext. 25310	ABM022	Delivery by Wednesday | Purple Extravagance Bouquet by Arabella Bouquets	1	0	1	Expedited	Barbara Dudl	6889 Paseo Laredo			La Jolla	California	92037	US			false		
114-5931531-2933054	53923412045890	2020-10-13T17:41:59+00:00	2020-10-13T10:41:59-07:00	2020-10-13T18:10:47+00:00	2020-10-16T06:59:59+00:00	-3	cxstbx3w0jqmx31@marketplace.amazon.com	lieb10@aol.com	+1 602-671-6610 ext. 02823	ABR0022	Delivery by Thursday | Arabella Farm Direct Bouquet of 12 Fresh Cut Pink Roses with a Free Glass Vase	1	0	1	Expedited	Karen Tucker	1830 OLD PLAINS RD			PENNSBURG	PA	18073-2419	US			false		
114-8275881-9612251	36477203130226	2020-10-13T18:19:58+00:00	2020-10-13T11:19:58-07:00	2020-10-13T18:37:04+00:00	2020-10-16T06:59:59+00:00	-3	6pz4pgqvqvspkvm@marketplace.amazon.com	ann marie clark	+1 213-442-1463 ext. 88236	ABM022	Delivery by Thursday | Purple Extravagance Bouquet by Arabella Bouquets	1	0	1	Expedited	Karen Mather	3630 Auburn-Folson Road			Loomis	CA	95650	US		Thinking of you often.  Get well soon. We love and miss you both  Jim and Ann Marie From ann marie clark	false		
112-6200858-3061033	40890377717850	2020-10-13T18:09:29+00:00	2020-10-13T11:09:29-07:00	2020-10-13T18:38:03+00:00	2020-10-16T06:59:59+00:00	-3	c75y4b6k4dfd4m3@marketplace.amazon.com	John Shermer	+1 480-618-5344 ext. 40255	ABM021	Delivery by Friday | The Joyous Bouquet by Arabella Bouquets	1	0	1	Expedited	Kristen Young	4134 Rittenhouse Lane			Skippack	PA	19474	US		Happy Boss’ Day to the best boss in the world! Thank you for all you do! From Akua, Don Ann, Marianne, Maureen	false		
111-8489833-9489066	19228176034562	2020-10-13T18:09:49+00:00	2020-10-13T11:09:49-07:00	2020-10-13T18:38:30+00:00	2020-10-16T06:59:59+00:00	-3	6km3m1jz3r3ztkx@marketplace.amazon.com	Margaret R. Miller	+1 213-442-1463 ext. 58937	ABM020	The Sunset Bouquet by Arabella Bouquets	1	0	1	Expedited	Monica R. Miller	1707 E SIERRA VISTA DR			PHOENIX	AZ	85016-1329	US		Monica Happy Birthday Love, Mom	false		
114-8727702-2069820	10481908023002	2020-10-13T18:44:57+00:00	2020-10-13T11:44:57-07:00	2020-10-13T19:15:07+00:00	2020-10-16T06:59:59+00:00	-3	10xnfzjvx434m3g@marketplace.amazon.com	Andrea McMurray	+1 213-442-1463 ext. 82042	ABM022	Delivery by Thursday | Purple Extravagance Bouquet by Arabella Bouquets	1	0	1	Expedited	Andrea McMurray	1035 W MC KINLEY AVE			SUNNYVALE	CA	94086-7438	US			false		
114-0794336-9293813	00011969167946	2020-10-13T18:53:51+00:00	2020-10-13T11:53:51-07:00	2020-10-13T19:21:03+00:00	2020-10-16T06:59:59+00:00	-3	10xnfzjvx434m3g@marketplace.amazon.com	Andrea McMurray	+1 619-854-2705 ext. 68139	ABM022	Delivery by Thursday | Purple Extravagance Bouquet by Arabella Bouquets	1	0	1	Expedited	Jacqueline Bailey	714 APPLAUSE PL			SAN JOSE	CA	95134-2608	US		Enjoy your gift. Thank you so much for helping us. I love you! From Andrea and George McMurray	false		
114-5405526-2166610	06381124044746	2020-10-13T18:59:01+00:00	2020-10-13T11:59:01-07:00	2020-10-13T19:26:39+00:00	2020-10-16T06:59:59+00:00	-3	10xnfzjvx434m3g@marketplace.amazon.com	Andrea McMurray	+1 929-436-4790 ext. 70940	ABM022	Delivery by Thursday | Purple Extravagance Bouquet by Arabella Bouquets	1	0	1	Expedited	Barbara Delprince	2080 FOXHALL LOOP			SAN JOSE	CA	95125-5986	US		Enjoy your gift. Thank you so much for helping us, girlfriend. Love you! Andrea From Andrea and George McMurray	false		
113-3008664-9438630	31002483486410	2020-10-13T19:00:33+00:00	2020-10-13T12:00:33-07:00	2020-10-13T19:29:33+00:00	2020-10-16T06:59:59+00:00	-3	wfwpbmx7xmcj85m@marketplace.amazon.com	Catherine Noonan	+1 480-618-5344 ext. 04815	ABR0022	Delivery by Thursday | Arabella Farm Direct Bouquet of 12 Fresh Cut Pink Roses with a Free Glass Vase	1	0	1	Expedited	Lorraine Noonan	THE IVY AT WATERTOWN	655 STRAITS TPKE		WATERTOWN	CT	06795-3322	US		Mom - a little something to brighten your day! Love, Cathy From Catherine Noonan	false		
112-1685404-6149851	06112211248058	2020-10-13T19:02:20+00:00	2020-10-13T12:02:20-07:00	2020-10-13T19:31:42+00:00	2020-10-16T06:59:59+00:00	-3	4x1qjb5w7v131k5@marketplace.amazon.com	Nichole Annett	+1 619-854-2705 ext. 73926	ABR0022	Delivery by Thursday | Arabella Farm Direct Bouquet of 12 Fresh Cut Pink Roses with a Free Glass Vase	1	0	1	Standard	Victoria Johnson	45 PELL RD			GAULEY BRIDGE	WV	25085	US			true		Business Price
114-3861351-7673862	01934375462122	2020-10-13T19:13:24+00:00	2020-10-13T12:13:24-07:00	2020-10-13T19:36:23+00:00	2020-10-16T06:59:59+00:00	-3	10xnfzjvx434m3g@marketplace.amazon.com	Andrea McMurray	+1 602-671-6610 ext. 48790	ABM022	Delivery by Thursday | Purple Extravagance Bouquet by Arabella Bouquets	1	0	1	Expedited	Irma and Bob Stalder	192 CENTRE ST			MOUNTAIN VIEW	CA	94041-2318	US		Enjoy your gift. Thank you so much for helping us with everything! We love you! From Andrea and George McMurray	false		
113-1300688-0945814	53233999993810	2020-10-13T19:18:08+00:00	2020-10-13T12:18:08-07:00	2020-10-13T19:46:03+00:00	2020-10-16T06:59:59+00:00	-3	d8960f4yns8r71r@marketplace.amazon.com	Mary Linney	+1 929-436-4790 ext. 41136	ABM021	Delivery by Friday | The Joyous Bouquet by Arabella Bouquets	1	0	1	Expedited	Claire Linney	2602 Linnet Lane			Arnold	CA	95223	US		Happy belated Birthday!  Better late than never. We love you! From Dennis & Mary	false		
111-8839181-4701011	04025647652586	2020-10-13T19:53:53+00:00	2020-10-13T12:53:53-07:00	2020-10-13T20:15:36+00:00	2020-10-16T06:59:59+00:00	-3	pfb8grx943qngg7@marketplace.amazon.com	David A Belcher Sr	+1 213-442-1463 ext. 77339	ABR0066	Arabella Bouquets 12 Stems of Fresh Cut White Roses in a Free Designer Glass Vase	1	0	1	Expedited	Alauna Marrow	12223 DALTON LN			GLEN ALLEN	VA	23059-7026	US			false		
113-9119337-8380255	29944926302234	2020-10-13T19:54:29+00:00	2020-10-13T12:54:29-07:00	2020-10-13T20:23:29+00:00	2020-10-16T06:59:59+00:00	-3	qnnh7bl00sy6b7z@marketplace.amazon.com	E. John Mohler	+1 929-436-4790 ext. 83982	ABR0022	Delivery by Thursday | Arabella Farm Direct Bouquet of 12 Fresh Cut Pink Roses with a Free Glass Vase	1	0	1	Expedited	E. John Mohler	18346 Fairway Oaks Sq			Leesburg	VA	20176	US			false		
113-3686254-9173807	44046045443642	2020-10-13T19:56:46+00:00	2020-10-13T12:56:46-07:00	2020-10-13T20:24:20+00:00	2020-10-16T06:59:59+00:00	-3	b26z4lbc312qmkf@marketplace.amazon.com	Renee Mossman	+1 213-442-1463 ext. 51796	ABR0022	Delivery by Thursday | Arabella Farm Direct Bouquet of 12 Fresh Cut Pink Roses with a Free Glass Vase	1	0	1	Expedited	Charlotte Batey	1600 E CITRUS AVE STE A			REDLANDS	CA	92374-4802	US		Happy Birthday Charlotte! We love you ❤️ From The Sims	false		
112-0253974-1359434	40668464428210	2020-10-13T19:55:02+00:00	2020-10-13T12:55:02-07:00	2020-10-13T20:24:40+00:00	2020-10-16T06:59:59+00:00	-3	7s6d2phd4122xyp@marketplace.amazon.com	Charlotte Markey	+1 602-671-6610 ext. 51543	ABR0033	Delivery by Thursday | Arabella Farm Direct Bouquet of 12 Fresh Cut Orange Roses with a Free Glass Vase	1	0	1	Expedited	Laura Lemaire	18 FERNDALE RD			MADISON	NJ	07940-1404	US		Laura -  Happy, happy birthday!  We love you! xoxo Charlotte, Dan, Charlie and Grace From Charlotte Markey	false		
111-5472476-1698636	03046876237426	2020-10-13T20:05:51+00:00	2020-10-13T13:05:51-07:00	2020-10-13T20:28:42+00:00	2020-10-16T06:59:59+00:00	-3	rh8zbx9702yr87f@marketplace.amazon.com	Ethan Lange	+1 213-442-1463 ext. 32488	ABM010	Delivery by Thursday | The Spring Fling Bouquet by Arabella Bouquets with a Free Designer Glass Vase	1	0	1	Expedited	Karen Haughey	40455 CHAPEL WAY APT 109			FREMONT	CA	94538-3444	US		Happy Birthday Mom! I wish we could have been there with you. We love you so much! From Shelly, Mike, and Ethan	false		
