order-id	order-item-id	purchase-date	payments-date	reporting-date	promise-date	days-past-promise	buyer-email	buyer-name	buyer-phone-number	sku	product-name	quantity-purchased	quantity-shipped	quantity-to-ship	ship-service-level	recipient-name	ship-address-1	ship-address-2	ship-address-3	ship-city	ship-state	ship-postal-code	ship-country	gift-wrap-type	gift-message-text	is-business-order	purchase-order-number	price-designation
111-2566286-2558623	63058313544514	2020-10-13T16:48:18+00:00	2020-10-13T09:48:18-07:00	2020-10-13T17:18:52+00:00	2020-10-16T06:59:59+00:00	-3	jch9qp8mswcxyt6@marketplace.amazon.com	Barbara Dudl	+1 602-671-6610 ext. 25310	ABM022	Delivery by Wednesday | Purple Extravagance Bouquet by Arabella Bouquets	1	0	1	Expedited	Barbara Dudl	6889 Paseo Laredo			La Jolla	California	92037	US			false		
114-5931531-2933054	53923412045890	2020-10-13T17:41:59+00:00	2020-10-13T10:41:59-07:00	2020-10-13T18:10:47+00:00	2020-10-16T06:59:59+00:00	-3	cxstbx3w0jqmx31@marketplace.amazon.com	lieb10@aol.com	+1 602-671-6610 ext. 02823	ABR0022	Delivery by Thursday | Arabella Farm Direct Bouquet of 12 Fresh Cut Pink Roses with a Free Glass Vase	1	0	1	Expedited	Karen Tucker	1830 OLD PLAINS RD			PENNSBURG	PA	18073-2419	US			false		
114-8275881-9612251	36477203130226	2020-10-13T18:19:58+00:00	2020-10-13T11:19:58-07:00	2020-10-13T18:37:04+00:00	2020-10-16T06:59:59+00:00	-3	6pz4pgqvqvspkvm@marketplace.amazon.com	ann marie clark	+1 213-442-1463 ext. 88236	ABM022	Delivery by Thursday | Purple Extravagance Bouquet by Arabella Bouquets	1	0	1	Expedited	Karen Mather	3630 Auburn-Folson Road			Loomis	CA	95650	US		Thinking of you often.  Get well soon. We love and miss you both  Jim and Ann Marie From ann marie clark	false		
112-6200858-3061033	40890377717850	2020-10-13T18:09:29+00:00	2020-10-13T11:09:29-07:00	2020-10-13T18:38:03+00:00	2020-10-16T06:59:59+00:00	-3	c75y4b6k4dfd4m3@marketplace.amazon.com	John Shermer	+1 480-618-5344 ext. 40255	ABM021	Delivery by Friday | The Joyous Bouquet by Arabella Bouquets	1	0	1	Expedited	Kristen Young	4134 Rittenhouse Lane			Skippack	PA	19474	US		Happy Boss’ Day to the best boss in the world! Thank you for all you do! From Akua, Don Ann, Marianne, Maureen	false		
111-8489833-9489066	19228176034562	2020-10-13T18:09:49+00:00	2020-10-13T11:09:49-07:00	2020-10-13T18:38:30+00:00	2020-10-16T06:59:59+00:00	-3	6km3m1jz3r3ztkx@marketplace.amazon.com	Margaret R. Miller	+1 213-442-1463 ext. 58937	ABM020	The Sunset Bouquet by Arabella Bouquets	1	0	1	Expedited	Monica R. Miller	1707 E SIERRA VISTA DR			PHOENIX	AZ	85016-1329	US		Monica Happy Birthday Love, Mom	false		
114-8727702-2069820	10481908023002	2020-10-13T18:44:57+00:00	2020-10-13T11:44:57-07:00	2020-10-13T19:15:07+00:00	2020-10-16T06:59:59+00:00	-3	10xnfzjvx434m3g@marketplace.amazon.com	Andrea McMurray	+1 213-442-1463 ext. 82042	ABM022	Delivery by Thursday | Purple Extravagance Bouquet by Arabella Bouquets	1	0	1	Expedited	Andrea McMurray	1035 W MC KINLEY AVE			SUNNYVALE	CA	94086-7438	US			false		
114-0794336-9293813	00011969167946	2020-10-13T18:53:51+00:00	2020-10-13T11:53:51-07:00	2020-10-13T19:21:03+00:00	2020-10-16T06:59:59+00:00	-3	10xnfzjvx434m3g@marketplace.amazon.com	Andrea McMurray	+1 619-854-2705 ext. 68139	ABM022	Delivery by Thursday | Purple Extravagance Bouquet by Arabella Bouquets	1	0	1	Expedited	Jacqueline Bailey	714 APPLAUSE PL			SAN JOSE	CA	95134-2608	US		Enjoy your gift. Thank you so much for helping us. I love you! From Andrea and George McMurray	false		
114-5405526-2166610	06381124044746	2020-10-13T18:59:01+00:00	2020-10-13T11:59:01-07:00	2020-10-13T19:26:39+00:00	2020-10-16T06:59:59+00:00	-3	10xnfzjvx434m3g@marketplace.amazon.com	Andrea McMurray	+1 929-436-4790 ext. 70940	ABM022	Delivery by Thursday | Purple Extravagance Bouquet by Arabella Bouquets	1	0	1	Expedited	Barbara Delprince	2080 FOXHALL LOOP			SAN JOSE	CA	95125-5986	US		Enjoy your gift. Thank you so much for helping us, girlfriend. Love you! Andrea From Andrea and George McMurray	false		
113-3008664-9438630	31002483486410	2020-10-13T19:00:33+00:00	2020-10-13T12:00:33-07:00	2020-10-13T19:29:33+00:00	2020-10-16T06:59:59+00:00	-3	wfwpbmx7xmcj85m@marketplace.amazon.com	Catherine Noonan	+1 480-618-5344 ext. 04815	ABR0022	Delivery by Thursday | Arabella Farm Direct Bouquet of 12 Fresh Cut Pink Roses with a Free Glass Vase	1	0	1	Expedited	Lorraine Noonan	THE IVY AT WATERTOWN	655 STRAITS TPKE		WATERTOWN	CT	06795-3322	US		Mom - a little something to brighten your day! Love, Cathy From Catherine Noonan	false		
112-1685404-6149851	06112211248058	2020-10-13T19:02:20+00:00	2020-10-13T12:02:20-07:00	2020-10-13T19:31:42+00:00	2020-10-16T06:59:59+00:00	-3	4x1qjb5w7v131k5@marketplace.amazon.com	Nichole Annett	+1 619-854-2705 ext. 73926	ABR0022	Delivery by Thursday | Arabella Farm Direct Bouquet of 12 Fresh Cut Pink Roses with a Free Glass Vase	1	0	1	Standard	Victoria Johnson	45 PELL RD			GAULEY BRIDGE	WV	25085	US			true		Business Price
114-3861351-7673862	01934375462122	2020-10-13T19:13:24+00:00	2020-10-13T12:13:24-07:00	2020-10-13T19:36:23+00:00	2020-10-16T06:59:59+00:00	-3	10xnfzjvx434m3g@marketplace.amazon.com	Andrea McMurray	+1 602-671-6610 ext. 48790	ABM022	Delivery by Thursday | Purple Extravagance Bouquet by Arabella Bouquets	1	0	1	Expedited	Irma and Bob Stalder	192 CENTRE ST			MOUNTAIN VIEW	CA	94041-2318	US		Enjoy your gift. Thank you so much for helping us with everything! We love you! From Andrea and George McMurray	false		
113-1300688-0945814	53233999993810	2020-10-13T19:18:08+00:00	2020-10-13T12:18:08-07:00	2020-10-13T19:46:03+00:00	2020-10-16T06:59:59+00:00	-3	d8960f4yns8r71r@marketplace.amazon.com	Mary Linney	+1 929-436-4790 ext. 41136	ABM021	Delivery by Friday | The Joyous Bouquet by Arabella Bouquets	1	0	1	Expedited	Claire Linney	2602 Linnet Lane			Arnold	CA	95223	US		Happy belated Birthday!  Better late than never. We love you! From Dennis & Mary	false		
111-8839181-4701011	04025647652586	2020-10-13T19:53:53+00:00	2020-10-13T12:53:53-07:00	2020-10-13T20:15:36+00:00	2020-10-16T06:59:59+00:00	-3	pfb8grx943qngg7@marketplace.amazon.com	David A Belcher Sr	+1 213-442-1463 ext. 77339	ABR0066	Arabella Bouquets 12 Stems of Fresh Cut White Roses in a Free Designer Glass Vase	1	0	1	Expedited	Alauna Marrow	12223 DALTON LN			GLEN ALLEN	VA	23059-7026	US			false		
113-9119337-8380255	29944926302234	2020-10-13T19:54:29+00:00	2020-10-13T12:54:29-07:00	2020-10-13T20:23:29+00:00	2020-10-16T06:59:59+00:00	-3	qnnh7bl00sy6b7z@marketplace.amazon.com	E. John Mohler	+1 929-436-4790 ext. 83982	ABR0022	Delivery by Thursday | Arabella Farm Direct Bouquet of 12 Fresh Cut Pink Roses with a Free Glass Vase	1	0	1	Expedited	E. John Mohler	18346 Fairway Oaks Sq			Leesburg	VA	20176	US			false		
113-3686254-9173807	44046045443642	2020-10-13T19:56:46+00:00	2020-10-13T12:56:46-07:00	2020-10-13T20:24:20+00:00	2020-10-16T06:59:59+00:00	-3	b26z4lbc312qmkf@marketplace.amazon.com	Renee Mossman	+1 213-442-1463 ext. 51796	ABR0022	Delivery by Thursday | Arabella Farm Direct Bouquet of 12 Fresh Cut Pink Roses with a Free Glass Vase	1	0	1	Expedited	Charlotte Batey	1600 E CITRUS AVE STE A			REDLANDS	CA	92374-4802	US		Happy Birthday Charlotte! We love you ❤️ From The Sims	false		
112-0253974-1359434	40668464428210	2020-10-13T19:55:02+00:00	2020-10-13T12:55:02-07:00	2020-10-13T20:24:40+00:00	2020-10-16T06:59:59+00:00	-3	7s6d2phd4122xyp@marketplace.amazon.com	Charlotte Markey	+1 602-671-6610 ext. 51543	ABR0033	Delivery by Thursday | Arabella Farm Direct Bouquet of 12 Fresh Cut Orange Roses with a Free Glass Vase	1	0	1	Expedited	Laura Lemaire	18 FERNDALE RD			MADISON	NJ	07940-1404	US		Laura -  Happy, happy birthday!  We love you! xoxo Charlotte, Dan, Charlie and Grace From Charlotte Markey	false		
111-5472476-1698636	03046876237426	2020-10-13T20:05:51+00:00	2020-10-13T13:05:51-07:00	2020-10-13T20:28:42+00:00	2020-10-16T06:59:59+00:00	-3	rh8zbx9702yr87f@marketplace.amazon.com	Ethan Lange	+1 213-442-1463 ext. 32488	ABM010	Delivery by Thursday | The Spring Fling Bouquet by Arabella Bouquets with a Free Designer Glass Vase	1	0	1	Expedited	Karen Haughey	40455 CHAPEL WAY APT 109			FREMONT	CA	94538-3444	US		Happy Birthday Mom! I wish we could have been there with you. We love you so much! From Shelly, Mike, and Ethan	false		
112-0013990-7959468	31558625587170	2020-10-13T20:24:56+00:00	2020-10-13T13:24:56-07:00	2020-10-13T20:42:42+00:00	2020-10-16T06:59:59+00:00	-3	ld0mxrw5m8w4dq8@marketplace.amazon.com	Jim	+1 213-442-1463 ext. 52434	ABR0022	Delivery by Thursday | Arabella Farm Direct Bouquet of 12 Fresh Cut Pink Roses with a Free Glass Vase	1	0	1	Expedited	Peter and Myrtle Van Brummelen	1309 NE 7TH ST			MULBERRY	FL	33860-2813	US		Hi Aunt Myrtle and Uncle Peter,  Happy 50th anniversary! We love you both and are praying for you.  Love, Jimmy, Lise, Victoria and Hannah	false		
111-5973540-8608233	15417525127850	2020-10-13T20:26:37+00:00	2020-10-13T13:26:37-07:00	2020-10-13T20:56:49+00:00	2020-10-16T06:59:59+00:00	-3	0tsyp2m35htfx2q@marketplace.amazon.com	Chad Suders	+1 929-436-4790 ext. 01802	ABM031	Delivery by Friday | The Harvest Moon Bouquet by Arabella Bouquets	1	0	1	Expedited	Marilyn Sensenig	3777 34TH AVE N			ST PETERSBURG	FL	33713-1302	US			true		
111-4494353-3246631	21226359070274	2020-10-13T20:32:21+00:00	2020-10-13T13:32:21-07:00	2020-10-13T20:57:17+00:00	2020-10-16T06:59:59+00:00	-3	g4wdyh4kmjgdykq@marketplace.amazon.com	diana	+1 213-442-1463 ext. 55663	ABM024	Delivery by Thursday | The Beauty of Color Bouquet by Arabella Bouquets	1	0	1	Expedited	Mayte	2614 STELLA BURNS DR			TUCKER	GA	30084-3621	US		Te deseo lo mejor de la vida Mary. Te quiero muchísimo. "Feliz cumpleaños" De Tú casi hermana	false		
113-9384925-1270642	47075528400554	2020-10-13T21:11:33+00:00	2020-10-13T14:11:33-07:00	2020-10-13T21:12:28+00:00	2020-10-16T06:59:59+00:00	-3	cnsm0k3dyvzhbhc@marketplace.amazon.com	Robin	+1 602-671-6610 ext. 04398	ABM010	Delivery by Thursday | The Spring Fling Bouquet by Arabella Bouquets with a Free Designer Glass Vase	1	0	1	Expedited	Kristan Viox	10927 WILLFLEET DR			CINCINNATI	OH	45241-2832	US		Kristan and Chris,  We are so sorry for your loss and have you in our thoughts and prayers. From The TriComB2B Team	false		
114-0943387-5673033	66789698172426	2020-10-13T20:55:40+00:00	2020-10-13T13:55:40-07:00	2020-10-13T21:24:50+00:00	2020-10-16T06:59:59+00:00	-3	45cytttc3ktx3tf@marketplace.amazon.com	Susan Walsh	+1 213-442-1463 ext. 57387	ABR0022	Delivery by Thursday | Arabella Farm Direct Bouquet of 12 Fresh Cut Pink Roses with a Free Glass Vase	1	0	1	Expedited	Mary Ellen Fox	4122 RALEIGH RD			BALTIMORE	MD	21208-5834	US		Happy Birthday Mom—love you!! From Susan Walsh	false		
112-5058936-9550640	14179021357026	2020-10-13T21:07:57+00:00	2020-10-13T14:07:57-07:00	2020-10-13T21:33:45+00:00	2020-10-16T06:59:59+00:00	-3	4qy87lq4mw19x16@marketplace.amazon.com	Sheena	+1 415-851-9136 ext. 95056	ABR0022	Delivery by Thursday | Arabella Farm Direct Bouquet of 12 Fresh Cut Pink Roses with a Free Glass Vase	1	0	1	Expedited	Nilda Giguere	16260 SE 9TH CT			SUMMERFIELD	FL	34491-4986	US		Thank you for taking care of  me Memere! I had fun! From Love, Dutch	false		
114-9058499-4807458	13756617195930	2020-10-13T21:19:17+00:00	2020-10-13T14:19:17-07:00	2020-10-13T21:49:28+00:00	2020-10-16T06:59:59+00:00	-3	hnn518lg9n3dcrp@marketplace.amazon.com	Patricia Kaunelis	+1 480-618-5344 ext. 34761	ABM022	Delivery by Thursday | Purple Extravagance Bouquet by Arabella Bouquets	1	0	1	Expedited	Josie Buffa	18750 PURLINGBROOK ST			LIVONIA	MI	48152-3308	US			false		
112-0353645-8148226	58366987218066	2020-10-13T21:33:53+00:00	2020-10-13T14:33:53-07:00	2020-10-13T22:04:00+00:00	2020-10-16T06:59:59+00:00	-3	sctq3vt11n43686@marketplace.amazon.com	Law Offices of Gerome Pinkins	+1 415-851-9136 ext. 08510	ABM002	Delivery by Friday | Arabella Bouquets Fresh Cut White Calla Lilies in a Free Designer Glass Vase	1	0	1	Expedited	Leslie Rutledge	4 WISTERIA LN			LAKE GROVE	NY	11755-1843	US			false		
112-9680852-9009011	21031778140130	2020-10-13T21:43:04+00:00	2020-10-13T14:43:04-07:00	2020-10-13T22:07:20+00:00	2020-10-16T06:59:59+00:00	-3	kd8q1gpwvgyc63d@marketplace.amazon.com	Karen A Reardon	+1 480-618-5344 ext. 69047	ABR0022	Delivery by Thursday | Arabella Farm Direct Bouquet of 12 Fresh Cut Pink Roses with a Free Glass Vase	1	0	1	Expedited	Diane Bower	83 CATULLO DR			GUILFORD	CT	06437-4344	US			false		
113-7820247-2859445	18866599648482	2020-10-13T21:38:57+00:00	2020-10-13T14:38:57-07:00	2020-10-13T22:09:32+00:00	2020-10-16T06:59:59+00:00	-3	5r7z79y25blr8cj@marketplace.amazon.com	deb weigold	+1 602-671-6610 ext. 87246	ABR0033	Delivery by Thursday | Arabella Farm Direct Bouquet of 12 Fresh Cut Orange Roses with a Free Glass Vase	1	0	1	Expedited	Pat Brown	121 DANIEL ST SE			KENTWOOD	MI	49548-4420	US			false		
113-7681697-8889801	65723771623026	2020-10-13T22:00:34+00:00	2020-10-13T15:00:34-07:00	2020-10-13T22:24:41+00:00	2020-10-16T06:59:59+00:00	-3	wcyqg7lmsqdmdty@marketplace.amazon.com	Renee	+1 619-854-2705 ext. 44799	ABR0022	Delivery by Thursday | Arabella Farm Direct Bouquet of 12 Fresh Cut Pink Roses with a Free Glass Vase	1	0	1	Expedited	Bonnie Horwath	151 BORDEAUX LN			SAVANNAH	GA	31419-2865	US		We are thinking of you during this difficult time.  We love you. From Renee	false		
113-3457101-4981052	10126266049122	2020-10-13T22:30:35+00:00	2020-10-13T15:30:35-07:00	2020-10-13T22:33:11+00:00	2020-10-16T06:59:59+00:00	-3	b7dy01g0wdcgspt@marketplace.amazon.com	LaKiesha McDonald	+1 619-854-2705 ext. 00546	ABR0055	Arabella Farm Direct Bouquet of 12 Stems of Fresh Cut Hot Pink Roses in a Free Designer Glass Vase	1	0	1	Expedited	Chanai Catarich	1191 SYRACUSE LN			MANTECA	CA	95336-2990	US		If there was anything I'd like to be better at, communicating would be it... these are simply to say you are  thought of...often...hope you are doing well...hope these  make you smile & light up your day  a bit sweet girl... From LaKiesha McDonald	false		
112-2261825-3619441	44735011391770	2020-10-13T22:10:51+00:00	2020-10-13T15:10:51-07:00	2020-10-13T22:40:12+00:00	2020-10-16T06:59:59+00:00	-3	2y0l1svckcptbz5@marketplace.amazon.com	Hubert Ahn	+1 619-854-2705 ext. 89349	ABR0022	Delivery by Thursday | Arabella Farm Direct Bouquet of 12 Fresh Cut Pink Roses with a Free Glass Vase	1	0	1	Expedited	Young Soo Ahn	628 WOODHAVEN DR			COMMERCE TOWNSHIP	MI	48390-5806	US		Happy Birthday Mom!   세계 최고의 엄마!  -Hubert From Hubert Ahn	false		
111-8328930-7389832	44579582390802	2020-10-13T22:18:23+00:00	2020-10-13T15:18:23-07:00	2020-10-13T22:47:58+00:00	2020-10-16T06:59:59+00:00	-3	3bzkjltvx6b4jb3@marketplace.amazon.com	Lora Freeland	+1 602-671-6610 ext. 73642	ABR0022	Delivery by Thursday | Arabella Farm Direct Bouquet of 12 Fresh Cut Pink Roses with a Free Glass Vase	1	0	1	Expedited	Cheryl Stuart	80 WALNUT ST			KINGSTON	NY	12401-3340	US		Hi Cheryl, Thinking of you! From Nancy Freeland	false		
112-7837345-6338650	48878702838906	2020-10-13T22:51:05+00:00	2020-10-13T15:51:05-07:00	2020-10-13T23:20:09+00:00	2020-10-16T06:59:59+00:00	-3	6n4pg4cqprw99tv@marketplace.amazon.com	Jasmyn Liedke	+1 602-671-6610 ext. 68356	ABR0066	Arabella Bouquets 12 Stems of Fresh Cut White Roses in a Free Designer Glass Vase	1	0	1	Expedited	Patty Williamson	2249 S BRIGHTON			MESA	AZ	85209-4834	US			false		
111-8578527-6704246	66485260322738	2020-10-13T23:46:52+00:00	2020-10-13T16:46:52-07:00	2020-10-14T00:04:05+00:00	2020-10-16T06:59:59+00:00	-3	mvvk3wr1qc904tx@marketplace.amazon.com	Leigh Anne Cramer	+1 929-436-4790 ext. 12178	ABM022	Delivery by Thursday | Purple Extravagance Bouquet by Arabella Bouquets	1	0	1	Expedited	Melna Frazier	1065 FRONIE DR			NESBIT	MS	38651-9523	US		Happy 90th Birthday Mom!  I know you love flowers and I hope you enjoy them. Love you, Leigh Anne From Leigh Anne Cramer	false		
112-4354982-8635445	47008304953282	2020-10-13T23:42:10+00:00	2020-10-13T16:42:10-07:00	2020-10-14T00:10:10+00:00	2020-10-16T06:59:59+00:00	-3	7s6d2phd4122xyp@marketplace.amazon.com	Charlotte Markey	+1 213-442-1463 ext. 20654	ABR0055	Arabella Farm Direct Bouquet of 12 Stems of Fresh Cut Hot Pink Roses in a Free Designer Glass Vase	1	0	1	Expedited	Jen Rappaport	406 CEDAR LN			SWARTHMORE	PA	19081-1103	US		Jen, Happy, happy Bday! xoxox Char, Dan, Charlie and Grace From Charlotte Markey	false		
113-2540712-2628203	05674041013898	2020-10-13T23:41:25+00:00	2020-10-13T16:41:25-07:00	2020-10-14T00:10:31+00:00	2020-10-16T06:59:59+00:00	-3	6tjntjgcfwpjp7x@marketplace.amazon.com	Nic Kozlowski	+1 602-671-6610 ext. 16470	ABM0044	Delivery by Friday | Arabella Farm Direct Bouquet of Fresh Cut Blue Hydrangea with a Free Glass Vase	1	0	1	Expedited	Mika Andrew (Goose)	14725 SE 187TH CT			RENTON	WA	98058-9310	US		Yeet From Komo	false		
112-4902274-4149833	50846893988450	2020-10-13T23:47:39+00:00	2020-10-13T16:47:39-07:00	2020-10-14T00:14:26+00:00	2020-10-16T06:59:59+00:00	-3	sm6w77d83zjwxzx@marketplace.amazon.com	Elizabeth A. Bracken	+1 213-442-1463 ext. 98847	ABR0033	Delivery by Thursday | Arabella Farm Direct Bouquet of 12 Fresh Cut Orange Roses with a Free Glass Vase	1	0	1	Expedited	Linda Blacksmith	122 SANDRO ST			INDIANA	PA	15701-6005	US		Mom, Grami, Linda, Writing a book is certainly something to celebrate and we are excited to do just that this week!  Thank you for loving Jesus and loving us well. WE love you back! Ed, Beth, Caleb, Michaela & Gideon From Elizabeth A. Bracken	false		
111-8913585-5241830	52471324712234	2020-10-14T00:03:03+00:00	2020-10-13T17:03:03-07:00	2020-10-14T00:32:16+00:00	2020-10-16T06:59:59+00:00	-3	pzqgb8zsfgr9nw6@marketplace.amazon.com	Lex Martinez	+1 619-854-2705 ext. 68643	ABR001	Delivery by Thursday | Arabella Bouquets 12 Stems of Fresh Cut Red Roses in a Free Designer Glass Vase	1	0	1	Expedited	Alma Walsh	10704 PLEASANT HILL DR			EL PASO	TX	79924-1006	US			false		
112-9791192-4961840	66912753599770	2020-10-14T00:19:16+00:00	2020-10-13T17:19:16-07:00	2020-10-14T00:42:26+00:00	2020-10-16T06:59:59+00:00	-3	3ykr8jjldps8h1q@marketplace.amazon.com	Christy Mueller	+1 213-442-1463 ext. 66778	ABR0055	Arabella Farm Direct Bouquet of 12 Stems of Fresh Cut Hot Pink Roses in a Free Designer Glass Vase	1	0	1	Expedited	Dasia Green	627 SUMMIT AVE APT 14G			JERSEY CITY	NJ	07306-3798	US		Dear Dashia: Everything you do is noticed. I love you & appreciate you for the kindness you have shown. You are a beautiful person & I'm grateful to have you in my life. Thank you for being you. I love you Dasia. From Christopher Erazo	false		
113-4987222-9198618	13009807010962	2020-10-14T00:26:07+00:00	2020-10-13T17:26:07-07:00	2020-10-14T00:50:22+00:00	2020-10-16T06:59:59+00:00	-3	3xk9x687d2yk08v@marketplace.amazon.com	Lisa Shire	+1 929-436-4790 ext. 98073	ABR0022	Delivery by Thursday | Arabella Farm Direct Bouquet of 12 Fresh Cut Pink Roses with a Free Glass Vase	1	0	1	Expedited	Cindy Graffenius	9140 SWEET TREE TRL			JACKSONVILLE	FL	32256-9199	US		Happy Boss's Day!!! Thank you for everything you do for us!!  Joseph, Monique, Tinoush, Vince, Lisa, Mike, Nicole, Kara, Kevin	false		
114-6418948-2710638	20229330680218	2020-10-14T00:35:47+00:00	2020-10-13T17:35:47-07:00	2020-10-14T01:00:20+00:00	2020-10-16T06:59:59+00:00	-3	z3l3929zkfpyt3r@marketplace.amazon.com	H suzanne	+1 602-671-6610 ext. 93563	ABR0055	Arabella Farm Direct Bouquet of 12 Stems of Fresh Cut Hot Pink Roses in a Free Designer Glass Vase	1	0	1	Expedited	Christina Spaeth	7210 POTRANCO RD APT 31110			SAN ANTONIO	TX	78251-2395	US		Happy Birthday, Christi! Wish we were celebrating with you!!❤️ From Mom and Katie✨⭐️	false		
