order-id	order-item-id	purchase-date	payments-date	reporting-date	promise-date	days-past-promise	buyer-email	buyer-name	buyer-phone-number	sku	product-name	quantity-purchased	quantity-shipped	quantity-to-ship	ship-service-level	recipient-name	ship-address-1	ship-address-2	ship-address-3	ship-city	ship-state	ship-postal-code	ship-country	gift-wrap-type	gift-message-text	is-business-order	purchase-order-number	price-designation
112-1685404-6149851	06112211248058	2020-10-13T19:02:20+00:00	2020-10-13T12:02:20-07:00	2020-10-13T19:31:42+00:00	2020-10-16T06:59:59+00:00	-2	4x1qjb5w7v131k5@marketplace.amazon.com	Nichole Annett	+1 619-854-2705 ext. 73926	ABR0022	Delivery by Thursday | Arabella Farm Direct Bouquet of 12 Fresh Cut Pink Roses with a Free Glass Vase	1	0	1	Standard	Victoria Johnson	45 PELL RD			GAULEY BRIDGE	WV	25085	US			true		Business Price
112-2261825-3619441	44735011391770	2020-10-13T22:10:51+00:00	2020-10-13T15:10:51-07:00	2020-10-13T22:40:12+00:00	2020-10-16T06:59:59+00:00	-2	2y0l1svckcptbz5@marketplace.amazon.com	Hubert Ahn	+1 619-854-2705 ext. 89349	ABR0022	Delivery by Thursday | Arabella Farm Direct Bouquet of 12 Fresh Cut Pink Roses with a Free Glass Vase	1	0	1	Expedited	Young Soo Ahn	628 WOODHAVEN DR			COMMERCE TOWNSHIP	MI	48390-5806	US		Happy Birthday Mom!   세계 최고의 엄마!  -Hubert From Hubert Ahn	false		
114-8774340-1125010	22319081208434	2020-10-14T01:07:54+00:00	2020-10-13T18:07:54-07:00	2020-10-14T01:35:12+00:00	2020-10-16T06:59:59+00:00	-2	1qzz3kpxg27ptbv@marketplace.amazon.com	Tina Inman	+1 602-671-6610 ext. 96259	ABM022	Delivery by Thursday | Purple Extravagance Bouquet by Arabella Bouquets	1	0	1	Expedited	Joyce Strilzuk	10550 SE 70TH AVE LOT 3			PORTLAND	OR	97222-3911	US		Happy birthday Granny. Wishing you many more. We love you. Scott and Tina From Tina Inman	false		
113-8011407-4033011	36416310508650	2020-10-14T01:08:52+00:00	2020-10-13T18:08:52-07:00	2020-10-14T01:37:04+00:00	2020-10-16T06:59:59+00:00	-2	5k9wwnlm4frbjw2@marketplace.amazon.com	Ana Alfonso	+1 619-854-2705 ext. 91590	ABM010	Delivery by Thursday | The Spring Fling Bouquet by Arabella Bouquets with a Free Designer Glass Vase	1	0	1	Expedited	Kelly Brin (super maestra!)	13704 SE 233RD ST			KENT	WA	98042-3244	US		Gracias por todo el trabajo que dedicaste a los “growth goals”, Kelly. Te debo una MUY GRANDE! Un besazo!!!!!! From Ana Alfonso	false		
112-8071571-1939445	59537391378042	2020-10-14T01:13:11+00:00	2020-10-13T18:13:11-07:00	2020-10-14T01:39:53+00:00	2020-10-16T06:59:59+00:00	-2	361wx60f39lvp4j@marketplace.amazon.com	Karen Angle	+1 619-854-2705 ext. 85696	ABM010	Delivery by Thursday | The Spring Fling Bouquet by Arabella Bouquets with a Free Designer Glass Vase	1	0	1	Expedited	Nadine Doolittle	3635 N HUSON ST			TACOMA	WA	98407-4119	US		Happy Birthday Mom! Love Dave and Karen	false		
111-3028578-6761852	12561252018594	2020-10-14T03:15:53+00:00	2020-10-13T20:15:53-07:00	2020-10-14T03:40:40+00:00	2020-10-16T06:59:59+00:00	-2	ltcvw42dhtqhhdn@marketplace.amazon.com	Heather A. Burns	+1 480-618-5344 ext. 14895	ABM022	Delivery by Thursday | Purple Extravagance Bouquet by Arabella Bouquets	1	0	1	Expedited	Shannon and Mark Deacon	6617 75TH DR NE			MARYSVILLE	WA	98270-6561	US		I wish I could go to the memorial, but can't due to COVID. Please know how badly I want to hug you Shannon and make you feel better. From Heather A. Burns	false		
111-9367575-0851438	61471375010330	2020-10-14T04:37:59+00:00	2020-10-13T21:37:59-07:00	2020-10-14T04:47:40+00:00	2020-10-16T06:59:59+00:00	-2	32q5k9v0g64fdrn@marketplace.amazon.com	Nao Inoue	+1 619-854-2705 ext. 19356	ABR0022	Delivery by Thursday | Arabella Farm Direct Bouquet of 12 Fresh Cut Pink Roses with a Free Glass Vase	1	0	1	Expedited	Madison Jenkins (Jerry Sampson)	1117 S WALNUT ST			SPOKANE	WA	99204-4035	US		Happy 80th Birthday Jerry! I wish I were celebrating your special day in person. I hope you have a wonderful birthday with your friends and loved ones. From Nao Inoue	false		
114-7832147-7597068	07675707034298	2020-10-14T04:50:28+00:00	2020-10-13T21:50:28-07:00	2020-10-14T05:15:09+00:00	2020-10-16T06:59:59+00:00	-2	p1g71djxsrdkvvd@marketplace.amazon.com	Colleen L. Reece	+1 929-436-4790 ext. 23446	ABR0022	Delivery by Thursday | Arabella Farm Direct Bouquet of 12 Fresh Cut Pink Roses with a Free Glass Vase	1	0	1	Expedited	Camille Reece	12631 SE 235TH ST			KENT	WA	98031-3623	US		Enjoy your gift! From Colleen L. Reece	false		
113-0604142-7413038	05716818582194	2020-10-14T16:34:47+00:00	2020-10-14T09:34:47-07:00	2020-10-14T17:01:29+00:00	2020-10-17T06:59:59+00:00	-3	3qpssd4cnvb0p3t@marketplace.amazon.com	Kunal Dave	+1 929-436-4790 ext. 41732	ABR001	Delivery by Thursday | Arabella Bouquets 12 Stems of Fresh Cut Red Roses in a Free Designer Glass Vase	1	0	1	Expedited	Zeta Cooper	33504 4TH CT SW			FEDERAL WAY	WA	98023-6201	US		Hi Zeta, Wishing you a very Happy Boss Day 2020. From your own Release Team. From Kavita Dave	false		
112-2401030-3765838	62882656348578	2020-10-14T18:09:55+00:00	2020-10-14T11:09:55-07:00	2020-10-14T18:38:03+00:00	2020-10-17T06:59:59+00:00	-3	g8p8rbs934vrkvw@marketplace.amazon.com	Dorothy M. Rodgers	+1 213-442-1463 ext. 73967	ABR0022	Delivery by Friday | Arabella Farm Direct Bouquet of 12 Fresh Cut Pink Roses with a Free Glass Vase	1	0	1	Expedited	Rosemarie Ailles	15017 MONTICELLO DR			OKLAHOMA CITY	OK	73134-1837	US		Enjoy your gift! So glad that you are home and recovering. Love you much. Dorothy From Dorothy M. Rodgers	false		
113-2483259-3825053	51031621230370	2020-10-14T18:14:00+00:00	2020-10-14T11:14:00-07:00	2020-10-14T18:38:12+00:00	2020-10-17T06:59:59+00:00	-3	10xnfzjvx434m3g@marketplace.amazon.com	Andrea McMurray	+1 619-854-2705 ext. 96856	ABM022	Delivery by Friday | Purple Extravagance Bouquet by Arabella Bouquets	1	0	1	Expedited	Polly Davila	14270 TARA ST			CALDWELL	ID	83607-1428	US		Enjoy your gift. Thank you so much for coming and helping, we would not have been able to pull this. Love you, sista! From Andrea and George McMurray	false		
112-6016739-6613805	05642977754666	2020-10-14T18:22:47+00:00	2020-10-14T11:22:47-07:00	2020-10-14T18:51:58+00:00	2020-10-17T06:59:59+00:00	-3	063n2c8ksbdz14v@marketplace.amazon.com	lawrence g grantham	+1 619-854-2705 ext. 43649	ABR0022	Delivery by Friday | Arabella Farm Direct Bouquet of 12 Fresh Cut Pink Roses with a Free Glass Vase	1	0	1	Expedited	Linda  grantham	18416 GREEN ISLAND TER			LEESBURG	VA	20176-3927	US		Sending you love and light and tons of hugs!!!!! From Greg, Tricia, Jacob & Lucas	false		
112-1680658-2328206	21302969607930	2020-10-14T18:29:57+00:00	2020-10-14T11:29:57-07:00	2020-10-14T18:56:55+00:00	2020-10-17T06:59:59+00:00	-3	7dhl1pyzvbnhsdl@marketplace.amazon.com	peggallagher@comcast	+1 213-442-1463 ext. 78544	ABM021	Delivery by Monday | The Joyous Bouquet by Arabella Bouquets	1	0	1	Expedited	Julie Gallagher	5437 ZEPHYR CT			ARVADA	CO	80002-2496	US		Happy birthday to our beautiful Julie! Xxxooo - Mom and Dad From peggallagher@comcast	false		
112-6554126-2997027	34594909881218	2020-10-14T18:58:37+00:00	2020-10-14T11:58:37-07:00	2020-10-14T19:21:33+00:00	2020-10-17T06:59:59+00:00	-3	sh7bdb288y8hhpn@marketplace.amazon.com	Pete Stevens	+1 213-442-1463 ext. 35987	ABR0022	Delivery by Friday | Arabella Farm Direct Bouquet of 12 Fresh Cut Pink Roses with a Free Glass Vase	1	0	1	Expedited	Jan Nash	1005 Grey Village Way			Marietta	GA	30068	US		The Lord is my strength and my shield.  In Him my heart trusts and I am helped.  My heart exults and with my song I give thanks to Him.  Psalm 28:7 For an amazing woman with amazing faith. From Gwen	false		
112-7086037-4056234	17073831066954	2020-10-14T18:58:13+00:00	2020-10-14T11:58:13-07:00	2020-10-14T19:23:48+00:00	2020-10-17T06:59:59+00:00	-3	hh3vh072y1ymwq4@marketplace.amazon.com	Ramon Fragozo	+1 619-854-2705 ext. 70905	ABR0022	Delivery by Friday | Arabella Farm Direct Bouquet of 12 Fresh Cut Pink Roses with a Free Glass Vase	1	0	1	Expedited	Carolina Nascimento	4137 BROOKWOOD DR			LOVES PARK	IL	61111-7673	US		Happy Birthday and may God bless you forever and ever From Ramon Fragozo (tu amorcito)	false		
112-6347691-9321810	44722766220674	2020-10-14T19:03:00+00:00	2020-10-14T12:03:00-07:00	2020-10-14T19:29:58+00:00	2020-10-17T06:59:59+00:00	-3	q98qn5cfvsq3z3p@marketplace.amazon.com	Jon	+1 929-436-4790 ext. 38029	ABM021	Delivery by Monday | The Joyous Bouquet by Arabella Bouquets	1	0	1	Expedited	Kat Gotsick	1619 W HOLLYWOOD AVE APT 1			CHICAGO	IL	60660-4025	US		Kat, We are so sad to hear about the passing of your dad. You and your family are in all of our thoughts and prayers during this season. We love you very much! From Your Csz Family	false		
112-5850156-9492225	09400446701242	2020-10-14T19:05:49+00:00	2020-10-14T12:05:49-07:00	2020-10-14T19:35:31+00:00	2020-10-17T06:59:59+00:00	-3	2myc97p6zzt8yf7@marketplace.amazon.com	john finn	+1 213-442-1463 ext. 88756	ABR0022	Delivery by Friday | Arabella Farm Direct Bouquet of 12 Fresh Cut Pink Roses with a Free Glass Vase	1	0	1	Expedited	JOHN FINN	1780 COUNTRY CLUB DR			LONG GROVE	IL	60047-5135	US		To my love From john finn	false		
112-3151029-1688249	52824058925018	2020-10-14T20:00:17+00:00	2020-10-14T13:00:17-07:00	2020-10-14T20:01:18+00:00	2020-10-17T06:59:59+00:00	-3	4rvbwdfs3yrj0fd@marketplace.amazon.com	stephen	+1 929-436-4790 ext. 41293	ABB011	Arabella Bouquets 24 Stems of Fresh Cut Hot Pink Roses in a Free Designer Glass Vase	1	0	1	Expedited	Barbara Moses	70 GREENE ST APT 2507			JERSEY CITY	NJ	07302-7599	US		My one and only tanta Bobbie! Happy early birthday. I couldn’t wait to share my love and happiness with you for reaching such a momentous milestone. May you continue to shine your light and love with all of us. We are blessed From Your nephew Stephen	false		
112-7174970-8129042	34234596259514	2020-10-14T19:58:26+00:00	2020-10-14T12:58:26-07:00	2020-10-14T20:21:04+00:00	2020-10-17T06:59:59+00:00	-3	zv5crl12yrvjd3v@marketplace.amazon.com	Zenia Kotval	+1 602-671-6610 ext. 72101	ABM022	Delivery by Friday | Purple Extravagance Bouquet by Arabella Bouquets	1	0	1	Expedited	Pauline Volpe's Funeral Mass	ST BRIGID S PARISH	122 N PLEASANT ST		AMHERST	MA	01002-1703	US		Celebrating Pauline's beautiful soul.  She will forever live in my memories.  Lots of love to Joe, Tore and Zeb. From Zee and Family in Michigan	false		
114-3048547-4607410	35754359126658	2020-10-14T20:09:08+00:00	2020-10-14T13:09:08-07:00	2020-10-14T20:31:39+00:00	2020-10-17T06:59:59+00:00	-3	lkn6lf9905vblwq@marketplace.amazon.com	Gary R Allen	+1 929-436-4790 ext. 18246	ABR001	Delivery by Friday | Arabella Bouquets 12 Stems of Fresh Cut Red Roses in a Free Designer Glass Vase	1	0	1	Expedited	Y. Underwood/Seattle Police HQ	6TH FLOOR DOMESTIC VIOLENCE	610 5TH AVE UNIT		SEATTLE	WA	98104-1900	US		Thanks LT for all of your hard work. We appreciate you! From The DV Unit	false		
114-8056664-7022651	65397962278194	2020-10-14T20:04:25+00:00	2020-10-14T13:04:25-07:00	2020-10-14T20:32:07+00:00	2020-10-17T06:59:59+00:00	-3	cck5dvfy5172gpd@marketplace.amazon.com	Paola	+1 619-854-2705 ext. 16845	ABR0066	Delivery by Friday | Arabella Bouquets 12 Stems of Fresh Cut White Roses in a Free Designer Glass Vase	1	0	1	Standard	Maria Gonzalez	21510 CHIRPING SPARROW RD			DIAMOND BAR	CA	91765-3758	US			false		
113-8619843-6790629	60770142201242	2020-10-14T20:07:03+00:00	2020-10-14T13:07:03-07:00	2020-10-14T20:33:46+00:00	2020-10-17T06:59:59+00:00	-3	gjnvvmm5gf196jb@marketplace.amazon.com	Barbara Jarczyk	+1 619-854-2705 ext. 11786	ABR004	Delivery by Friday | Arabella Farm Direct Bouquet of 12 Fresh Cut Yellow Roses with a Free Glass Vase	1	0	1	Expedited	Charles Fanucchi	2069 CHESHIRE DR			HOFFMAN ESTATES	IL	60192-4136	US		Dear Christina  Have a wonderful birthday and a wonderful year Love you Barbie and Wally From Barbara Jarczyk	false		
111-5017153-1745856	39150331088466	2020-10-14T20:26:23+00:00	2020-10-14T13:26:23-07:00	2020-10-14T20:46:44+00:00	2020-10-17T06:59:59+00:00	-3	mx7zhz5yktzcjjm@marketplace.amazon.com	Wendy Yuan	+1 480-618-5344 ext. 57341	ABM022	Delivery by Friday | Purple Extravagance Bouquet by Arabella Bouquets	1	0	1	Expedited	Carmen Perez	2601 CRYSTAL FALLS DR			PEARLAND	TX	77584-2509	US		Dear Carmen, Hope these flowers brighten up your day! From Wendy, Dusya, and Mangala	false		
114-1794359-0925827	31169110508682	2020-10-14T20:45:58+00:00	2020-10-14T13:45:58-07:00	2020-10-14T21:11:06+00:00	2020-10-17T06:59:59+00:00	-3	3hwdj11vmmqrmgw@marketplace.amazon.com	Karl Horn	+1 480-618-5344 ext. 54804	ABM022	Delivery by Friday | Purple Extravagance Bouquet by Arabella Bouquets	1	0	1	Expedited	Katie Doxsie	6429 EMERALD SPRINGS DR			INDIANAPOLIS	IN	46221-4185	US		So Glad Your Home! May God Continue to Heal and Comfort You and Rich! Our Prayers are with you both, we love you!! From Karl and Nan Horn	false		
