order-id	order-item-id	purchase-date	payments-date	reporting-date	promise-date	days-past-promise	buyer-email	buyer-name	buyer-phone-number	sku	product-name	quantity-purchased	quantity-shipped	quantity-to-ship	ship-service-level	recipient-name	ship-address-1	ship-address-2	ship-address-3	ship-city	ship-state	ship-postal-code	ship-country	gift-wrap-type	gift-message-text	is-business-order	purchase-order-number	price-designation
111-2566286-2558623	63058313544514	2020-10-13T16:48:18+00:00	2020-10-13T09:48:18-07:00	2020-10-13T17:18:52+00:00	2020-10-16T06:59:59+00:00	-2	jch9qp8mswcxyt6@marketplace.amazon.com	Barbara Dudl	+1 602-671-6610 ext. 25310	ABM022	Delivery by Wednesday | Purple Extravagance Bouquet by Arabella Bouquets	1	0	1	Expedited	Barbara Dudl	6889 Paseo Laredo			La Jolla	California	92037	US			false		
114-5931531-2933054	53923412045890	2020-10-13T17:41:59+00:00	2020-10-13T10:41:59-07:00	2020-10-13T18:10:47+00:00	2020-10-16T06:59:59+00:00	-2	cxstbx3w0jqmx31@marketplace.amazon.com	lieb10@aol.com	+1 602-671-6610 ext. 02823	ABR0022	Delivery by Thursday | Arabella Farm Direct Bouquet of 12 Fresh Cut Pink Roses with a Free Glass Vase	1	0	1	Expedited	Karen Tucker	1830 OLD PLAINS RD			PENNSBURG	PA	18073-2419	US			false		
114-8275881-9612251	36477203130226	2020-10-13T18:19:58+00:00	2020-10-13T11:19:58-07:00	2020-10-13T18:37:04+00:00	2020-10-16T06:59:59+00:00	-2	6pz4pgqvqvspkvm@marketplace.amazon.com	ann marie clark	+1 213-442-1463 ext. 88236	ABM022	Delivery by Thursday | Purple Extravagance Bouquet by Arabella Bouquets	1	0	1	Expedited	Karen Mather	3630 Auburn-Folson Road			Loomis	CA	95650	US		Thinking of you often.  Get well soon. We love and miss you both  Jim and Ann Marie From ann marie clark	false		
112-6200858-3061033	40890377717850	2020-10-13T18:09:29+00:00	2020-10-13T11:09:29-07:00	2020-10-13T18:38:03+00:00	2020-10-16T06:59:59+00:00	-2	c75y4b6k4dfd4m3@marketplace.amazon.com	John Shermer	+1 480-618-5344 ext. 40255	ABM021	Delivery by Friday | The Joyous Bouquet by Arabella Bouquets	1	0	1	Expedited	Kristen Young	4134 Rittenhouse Lane			Skippack	PA	19474	US		Happy Boss’ Day to the best boss in the world! Thank you for all you do! From Akua, Don Ann, Marianne, Maureen	false		
111-8489833-9489066	19228176034562	2020-10-13T18:09:49+00:00	2020-10-13T11:09:49-07:00	2020-10-13T18:38:30+00:00	2020-10-16T06:59:59+00:00	-2	6km3m1jz3r3ztkx@marketplace.amazon.com	Margaret R. Miller	+1 213-442-1463 ext. 58937	ABM020	The Sunset Bouquet by Arabella Bouquets	1	0	1	Expedited	Monica R. Miller	1707 E SIERRA VISTA DR			PHOENIX	AZ	85016-1329	US		Monica Happy Birthday Love, Mom	false		
114-8727702-2069820	10481908023002	2020-10-13T18:44:57+00:00	2020-10-13T11:44:57-07:00	2020-10-13T19:15:07+00:00	2020-10-16T06:59:59+00:00	-2	10xnfzjvx434m3g@marketplace.amazon.com	Andrea McMurray	+1 213-442-1463 ext. 82042	ABM022	Delivery by Thursday | Purple Extravagance Bouquet by Arabella Bouquets	1	0	1	Expedited	Andrea McMurray	1035 W MC KINLEY AVE			SUNNYVALE	CA	94086-7438	US			false		
114-0794336-9293813	00011969167946	2020-10-13T18:53:51+00:00	2020-10-13T11:53:51-07:00	2020-10-13T19:21:03+00:00	2020-10-16T06:59:59+00:00	-2	10xnfzjvx434m3g@marketplace.amazon.com	Andrea McMurray	+1 619-854-2705 ext. 68139	ABM022	Delivery by Thursday | Purple Extravagance Bouquet by Arabella Bouquets	1	0	1	Expedited	Jacqueline Bailey	714 APPLAUSE PL			SAN JOSE	CA	95134-2608	US		Enjoy your gift. Thank you so much for helping us. I love you! From Andrea and George McMurray	false		
114-5405526-2166610	06381124044746	2020-10-13T18:59:01+00:00	2020-10-13T11:59:01-07:00	2020-10-13T19:26:39+00:00	2020-10-16T06:59:59+00:00	-2	10xnfzjvx434m3g@marketplace.amazon.com	Andrea McMurray	+1 929-436-4790 ext. 70940	ABM022	Delivery by Thursday | Purple Extravagance Bouquet by Arabella Bouquets	1	0	1	Expedited	Barbara Delprince	2080 FOXHALL LOOP			SAN JOSE	CA	95125-5986	US		Enjoy your gift. Thank you so much for helping us, girlfriend. Love you! Andrea From Andrea and George McMurray	false		
113-3008664-9438630	31002483486410	2020-10-13T19:00:33+00:00	2020-10-13T12:00:33-07:00	2020-10-13T19:29:33+00:00	2020-10-16T06:59:59+00:00	-2	wfwpbmx7xmcj85m@marketplace.amazon.com	Catherine Noonan	+1 480-618-5344 ext. 04815	ABR0022	Delivery by Thursday | Arabella Farm Direct Bouquet of 12 Fresh Cut Pink Roses with a Free Glass Vase	1	0	1	Expedited	Lorraine Noonan	THE IVY AT WATERTOWN	655 STRAITS TPKE		WATERTOWN	CT	06795-3322	US		Mom - a little something to brighten your day! Love, Cathy From Catherine Noonan	false		
112-1685404-6149851	06112211248058	2020-10-13T19:02:20+00:00	2020-10-13T12:02:20-07:00	2020-10-13T19:31:42+00:00	2020-10-16T06:59:59+00:00	-2	4x1qjb5w7v131k5@marketplace.amazon.com	Nichole Annett	+1 619-854-2705 ext. 73926	ABR0022	Delivery by Thursday | Arabella Farm Direct Bouquet of 12 Fresh Cut Pink Roses with a Free Glass Vase	1	0	1	Standard	Victoria Johnson	45 PELL RD			GAULEY BRIDGE	WV	25085	US			true		Business Price
114-3861351-7673862	01934375462122	2020-10-13T19:13:24+00:00	2020-10-13T12:13:24-07:00	2020-10-13T19:36:23+00:00	2020-10-16T06:59:59+00:00	-2	10xnfzjvx434m3g@marketplace.amazon.com	Andrea McMurray	+1 602-671-6610 ext. 48790	ABM022	Delivery by Thursday | Purple Extravagance Bouquet by Arabella Bouquets	1	0	1	Expedited	Irma and Bob Stalder	192 CENTRE ST			MOUNTAIN VIEW	CA	94041-2318	US		Enjoy your gift. Thank you so much for helping us with everything! We love you! From Andrea and George McMurray	false		
113-1300688-0945814	53233999993810	2020-10-13T19:18:08+00:00	2020-10-13T12:18:08-07:00	2020-10-13T19:46:03+00:00	2020-10-16T06:59:59+00:00	-2	d8960f4yns8r71r@marketplace.amazon.com	Mary Linney	+1 929-436-4790 ext. 41136	ABM021	Delivery by Friday | The Joyous Bouquet by Arabella Bouquets	1	0	1	Expedited	Claire Linney	2602 Linnet Lane			Arnold	CA	95223	US		Happy belated Birthday!  Better late than never. We love you! From Dennis & Mary	false		
111-8839181-4701011	04025647652586	2020-10-13T19:53:53+00:00	2020-10-13T12:53:53-07:00	2020-10-13T20:15:36+00:00	2020-10-16T06:59:59+00:00	-2	pfb8grx943qngg7@marketplace.amazon.com	David A Belcher Sr	+1 213-442-1463 ext. 77339	ABR0066	Arabella Bouquets 12 Stems of Fresh Cut White Roses in a Free Designer Glass Vase	1	0	1	Expedited	Alauna Marrow	12223 DALTON LN			GLEN ALLEN	VA	23059-7026	US			false		
113-9119337-8380255	29944926302234	2020-10-13T19:54:29+00:00	2020-10-13T12:54:29-07:00	2020-10-13T20:23:29+00:00	2020-10-16T06:59:59+00:00	-2	qnnh7bl00sy6b7z@marketplace.amazon.com	E. John Mohler	+1 929-436-4790 ext. 83982	ABR0022	Delivery by Thursday | Arabella Farm Direct Bouquet of 12 Fresh Cut Pink Roses with a Free Glass Vase	1	0	1	Expedited	E. John Mohler	18346 Fairway Oaks Sq			Leesburg	VA	20176	US			false		
112-0253974-1359434	40668464428210	2020-10-13T19:55:02+00:00	2020-10-13T12:55:02-07:00	2020-10-13T20:24:40+00:00	2020-10-16T06:59:59+00:00	-2	7s6d2phd4122xyp@marketplace.amazon.com	Charlotte Markey	+1 602-671-6610 ext. 51543	ABR0033	Delivery by Thursday | Arabella Farm Direct Bouquet of 12 Fresh Cut Orange Roses with a Free Glass Vase	1	0	1	Expedited	Laura Lemaire	18 FERNDALE RD			MADISON	NJ	07940-1404	US		Laura -  Happy, happy birthday!  We love you! xoxo Charlotte, Dan, Charlie and Grace From Charlotte Markey	false		
111-5472476-1698636	03046876237426	2020-10-13T20:05:51+00:00	2020-10-13T13:05:51-07:00	2020-10-13T20:28:42+00:00	2020-10-16T06:59:59+00:00	-2	rh8zbx9702yr87f@marketplace.amazon.com	Ethan Lange	+1 213-442-1463 ext. 32488	ABM010	Delivery by Thursday | The Spring Fling Bouquet by Arabella Bouquets with a Free Designer Glass Vase	1	0	1	Expedited	Karen Haughey	40455 CHAPEL WAY APT 109			FREMONT	CA	94538-3444	US		Happy Birthday Mom! I wish we could have been there with you. We love you so much! From Shelly, Mike, and Ethan	false		
112-0013990-7959468	31558625587170	2020-10-13T20:24:56+00:00	2020-10-13T13:24:56-07:00	2020-10-13T20:42:42+00:00	2020-10-16T06:59:59+00:00	-2	ld0mxrw5m8w4dq8@marketplace.amazon.com	Jim	+1 213-442-1463 ext. 52434	ABR0022	Delivery by Thursday | Arabella Farm Direct Bouquet of 12 Fresh Cut Pink Roses with a Free Glass Vase	1	0	1	Expedited	Peter and Myrtle Van Brummelen	1309 NE 7TH ST			MULBERRY	FL	33860-2813	US		Hi Aunt Myrtle and Uncle Peter,  Happy 50th anniversary! We love you both and are praying for you.  Love, Jimmy, Lise, Victoria and Hannah	false		
111-5973540-8608233	15417525127850	2020-10-13T20:26:37+00:00	2020-10-13T13:26:37-07:00	2020-10-13T20:56:49+00:00	2020-10-16T06:59:59+00:00	-2	0tsyp2m35htfx2q@marketplace.amazon.com	Chad Suders	+1 929-436-4790 ext. 01802	ABM031	Delivery by Friday | The Harvest Moon Bouquet by Arabella Bouquets	1	0	1	Expedited	Marilyn Sensenig	3777 34TH AVE N			ST PETERSBURG	FL	33713-1302	US			true		
111-4494353-3246631	21226359070274	2020-10-13T20:32:21+00:00	2020-10-13T13:32:21-07:00	2020-10-13T20:57:17+00:00	2020-10-16T06:59:59+00:00	-2	g4wdyh4kmjgdykq@marketplace.amazon.com	diana	+1 213-442-1463 ext. 55663	ABM024	Delivery by Thursday | The Beauty of Color Bouquet by Arabella Bouquets	1	0	1	Expedited	Mayte	2614 STELLA BURNS DR			TUCKER	GA	30084-3621	US		Te deseo lo mejor de la vida Mary. Te quiero muchísimo. "Feliz cumpleaños" De Tú casi hermana	false		
113-9384925-1270642	47075528400554	2020-10-13T21:11:33+00:00	2020-10-13T14:11:33-07:00	2020-10-13T21:12:28+00:00	2020-10-16T06:59:59+00:00	-2	cnsm0k3dyvzhbhc@marketplace.amazon.com	Robin	+1 602-671-6610 ext. 04398	ABM010	Delivery by Thursday | The Spring Fling Bouquet by Arabella Bouquets with a Free Designer Glass Vase	1	0	1	Expedited	Kristan Viox	10927 WILLFLEET DR			CINCINNATI	OH	45241-2832	US		Kristan and Chris,  We are so sorry for your loss and have you in our thoughts and prayers. From The TriComB2B Team	false		
114-0943387-5673033	66789698172426	2020-10-13T20:55:40+00:00	2020-10-13T13:55:40-07:00	2020-10-13T21:24:50+00:00	2020-10-16T06:59:59+00:00	-2	45cytttc3ktx3tf@marketplace.amazon.com	Susan Walsh	+1 213-442-1463 ext. 57387	ABR0022	Delivery by Thursday | Arabella Farm Direct Bouquet of 12 Fresh Cut Pink Roses with a Free Glass Vase	1	0	1	Expedited	Mary Ellen Fox	4122 RALEIGH RD			BALTIMORE	MD	21208-5834	US		Happy Birthday Mom—love you!! From Susan Walsh	false		
112-5058936-9550640	14179021357026	2020-10-13T21:07:57+00:00	2020-10-13T14:07:57-07:00	2020-10-13T21:33:45+00:00	2020-10-16T06:59:59+00:00	-2	4qy87lq4mw19x16@marketplace.amazon.com	Sheena	+1 415-851-9136 ext. 95056	ABR0022	Delivery by Thursday | Arabella Farm Direct Bouquet of 12 Fresh Cut Pink Roses with a Free Glass Vase	1	0	1	Expedited	Nilda Giguere	16260 SE 9TH CT			SUMMERFIELD	FL	34491-4986	US		Thank you for taking care of  me Memere! I had fun! From Love, Dutch	false		
114-9058499-4807458	13756617195930	2020-10-13T21:19:17+00:00	2020-10-13T14:19:17-07:00	2020-10-13T21:49:28+00:00	2020-10-16T06:59:59+00:00	-2	hnn518lg9n3dcrp@marketplace.amazon.com	Patricia Kaunelis	+1 480-618-5344 ext. 34761	ABM022	Delivery by Thursday | Purple Extravagance Bouquet by Arabella Bouquets	1	0	1	Expedited	Josie Buffa	18750 PURLINGBROOK ST			LIVONIA	MI	48152-3308	US			false		
112-0353645-8148226	58366987218066	2020-10-13T21:33:53+00:00	2020-10-13T14:33:53-07:00	2020-10-13T22:04:00+00:00	2020-10-16T06:59:59+00:00	-2	sctq3vt11n43686@marketplace.amazon.com	Law Offices of Gerome Pinkins	+1 415-851-9136 ext. 08510	ABM002	Delivery by Friday | Arabella Bouquets Fresh Cut White Calla Lilies in a Free Designer Glass Vase	1	0	1	Expedited	Leslie Rutledge	4 WISTERIA LN			LAKE GROVE	NY	11755-1843	US			false		
112-9680852-9009011	21031778140130	2020-10-13T21:43:04+00:00	2020-10-13T14:43:04-07:00	2020-10-13T22:07:20+00:00	2020-10-16T06:59:59+00:00	-2	kd8q1gpwvgyc63d@marketplace.amazon.com	Karen A Reardon	+1 480-618-5344 ext. 69047	ABR0022	Delivery by Thursday | Arabella Farm Direct Bouquet of 12 Fresh Cut Pink Roses with a Free Glass Vase	1	0	1	Expedited	Diane Bower	83 CATULLO DR			GUILFORD	CT	06437-4344	US			false		
113-7820247-2859445	18866599648482	2020-10-13T21:38:57+00:00	2020-10-13T14:38:57-07:00	2020-10-13T22:09:32+00:00	2020-10-16T06:59:59+00:00	-2	5r7z79y25blr8cj@marketplace.amazon.com	deb weigold	+1 602-671-6610 ext. 87246	ABR0033	Delivery by Thursday | Arabella Farm Direct Bouquet of 12 Fresh Cut Orange Roses with a Free Glass Vase	1	0	1	Expedited	Pat Brown	121 DANIEL ST SE			KENTWOOD	MI	49548-4420	US			false		
113-7681697-8889801	65723771623026	2020-10-13T22:00:34+00:00	2020-10-13T15:00:34-07:00	2020-10-13T22:24:41+00:00	2020-10-16T06:59:59+00:00	-2	wcyqg7lmsqdmdty@marketplace.amazon.com	Renee	+1 619-854-2705 ext. 44799	ABR0022	Delivery by Thursday | Arabella Farm Direct Bouquet of 12 Fresh Cut Pink Roses with a Free Glass Vase	1	0	1	Expedited	Bonnie Horwath	151 BORDEAUX LN			SAVANNAH	GA	31419-2865	US		We are thinking of you during this difficult time.  We love you. From Renee	false		
113-3457101-4981052	10126266049122	2020-10-13T22:30:35+00:00	2020-10-13T15:30:35-07:00	2020-10-13T22:33:11+00:00	2020-10-16T06:59:59+00:00	-2	b7dy01g0wdcgspt@marketplace.amazon.com	LaKiesha McDonald	+1 619-854-2705 ext. 00546	ABR0055	Arabella Farm Direct Bouquet of 12 Stems of Fresh Cut Hot Pink Roses in a Free Designer Glass Vase	1	0	1	Expedited	Chanai Catarich	1191 SYRACUSE LN			MANTECA	CA	95336-2990	US		If there was anything I'd like to be better at, communicating would be it... these are simply to say you are  thought of...often...hope you are doing well...hope these  make you smile & light up your day  a bit sweet girl... From LaKiesha McDonald	false		
112-2261825-3619441	44735011391770	2020-10-13T22:10:51+00:00	2020-10-13T15:10:51-07:00	2020-10-13T22:40:12+00:00	2020-10-16T06:59:59+00:00	-2	2y0l1svckcptbz5@marketplace.amazon.com	Hubert Ahn	+1 619-854-2705 ext. 89349	ABR0022	Delivery by Thursday | Arabella Farm Direct Bouquet of 12 Fresh Cut Pink Roses with a Free Glass Vase	1	0	1	Expedited	Young Soo Ahn	628 WOODHAVEN DR			COMMERCE TOWNSHIP	MI	48390-5806	US		Happy Birthday Mom!   세계 최고의 엄마!  -Hubert From Hubert Ahn	false		
111-8328930-7389832	44579582390802	2020-10-13T22:18:23+00:00	2020-10-13T15:18:23-07:00	2020-10-13T22:47:58+00:00	2020-10-16T06:59:59+00:00	-2	3bzkjltvx6b4jb3@marketplace.amazon.com	Lora Freeland	+1 602-671-6610 ext. 73642	ABR0022	Delivery by Thursday | Arabella Farm Direct Bouquet of 12 Fresh Cut Pink Roses with a Free Glass Vase	1	0	1	Expedited	Cheryl Stuart	80 WALNUT ST			KINGSTON	NY	12401-3340	US		Hi Cheryl, Thinking of you! From Nancy Freeland	false		
112-7837345-6338650	48878702838906	2020-10-13T22:51:05+00:00	2020-10-13T15:51:05-07:00	2020-10-13T23:20:09+00:00	2020-10-16T06:59:59+00:00	-2	6n4pg4cqprw99tv@marketplace.amazon.com	Jasmyn Liedke	+1 602-671-6610 ext. 68356	ABR0066	Arabella Bouquets 12 Stems of Fresh Cut White Roses in a Free Designer Glass Vase	1	0	1	Expedited	Patty Williamson	2249 S BRIGHTON			MESA	AZ	85209-4834	US			false		
111-8578527-6704246	66485260322738	2020-10-13T23:46:52+00:00	2020-10-13T16:46:52-07:00	2020-10-14T00:04:05+00:00	2020-10-16T06:59:59+00:00	-2	mvvk3wr1qc904tx@marketplace.amazon.com	Leigh Anne Cramer	+1 929-436-4790 ext. 12178	ABM022	Delivery by Thursday | Purple Extravagance Bouquet by Arabella Bouquets	1	0	1	Expedited	Melna Frazier	1065 FRONIE DR			NESBIT	MS	38651-9523	US		Happy 90th Birthday Mom!  I know you love flowers and I hope you enjoy them. Love you, Leigh Anne From Leigh Anne Cramer	false		
112-4354982-8635445	47008304953282	2020-10-13T23:42:10+00:00	2020-10-13T16:42:10-07:00	2020-10-14T00:10:10+00:00	2020-10-16T06:59:59+00:00	-2	7s6d2phd4122xyp@marketplace.amazon.com	Charlotte Markey	+1 213-442-1463 ext. 20654	ABR0055	Arabella Farm Direct Bouquet of 12 Stems of Fresh Cut Hot Pink Roses in a Free Designer Glass Vase	1	0	1	Expedited	Jen Rappaport	406 CEDAR LN			SWARTHMORE	PA	19081-1103	US		Jen, Happy, happy Bday! xoxox Char, Dan, Charlie and Grace From Charlotte Markey	false		
113-2540712-2628203	05674041013898	2020-10-13T23:41:25+00:00	2020-10-13T16:41:25-07:00	2020-10-14T00:10:31+00:00	2020-10-16T06:59:59+00:00	-2	6tjntjgcfwpjp7x@marketplace.amazon.com	Nic Kozlowski	+1 602-671-6610 ext. 16470	ABM0044	Delivery by Friday | Arabella Farm Direct Bouquet of Fresh Cut Blue Hydrangea with a Free Glass Vase	1	0	1	Expedited	Mika Andrew (Goose)	14725 SE 187TH CT			RENTON	WA	98058-9310	US		Yeet From Komo	false		
112-9791192-4961840	66912753599770	2020-10-14T00:19:16+00:00	2020-10-13T17:19:16-07:00	2020-10-14T00:42:26+00:00	2020-10-16T06:59:59+00:00	-2	3ykr8jjldps8h1q@marketplace.amazon.com	Christy Mueller	+1 213-442-1463 ext. 66778	ABR0055	Arabella Farm Direct Bouquet of 12 Stems of Fresh Cut Hot Pink Roses in a Free Designer Glass Vase	1	0	1	Expedited	Dasia Green	627 SUMMIT AVE APT 14G			JERSEY CITY	NJ	07306-3798	US		Dear Dashia: Everything you do is noticed. I love you & appreciate you for the kindness you have shown. You are a beautiful person & I'm grateful to have you in my life. Thank you for being you. I love you Dasia. From Christopher Erazo	false		
113-4987222-9198618	13009807010962	2020-10-14T00:26:07+00:00	2020-10-13T17:26:07-07:00	2020-10-14T00:50:22+00:00	2020-10-16T06:59:59+00:00	-2	3xk9x687d2yk08v@marketplace.amazon.com	Lisa Shire	+1 929-436-4790 ext. 98073	ABR0022	Delivery by Thursday | Arabella Farm Direct Bouquet of 12 Fresh Cut Pink Roses with a Free Glass Vase	1	0	1	Expedited	Cindy Graffenius	9140 SWEET TREE TRL			JACKSONVILLE	FL	32256-9199	US		Happy Boss's Day!!! Thank you for everything you do for us!!  Joseph, Monique, Tinoush, Vince, Lisa, Mike, Nicole, Kara, Kevin	false		
114-6418948-2710638	20229330680218	2020-10-14T00:35:47+00:00	2020-10-13T17:35:47-07:00	2020-10-14T01:00:20+00:00	2020-10-16T06:59:59+00:00	-2	z3l3929zkfpyt3r@marketplace.amazon.com	H suzanne	+1 602-671-6610 ext. 93563	ABR0055	Arabella Farm Direct Bouquet of 12 Stems of Fresh Cut Hot Pink Roses in a Free Designer Glass Vase	1	0	1	Expedited	Christina Spaeth	7210 POTRANCO RD APT 31110			SAN ANTONIO	TX	78251-2395	US		Happy Birthday, Christi! Wish we were celebrating with you!!❤️ From Mom and Katie✨⭐️	false		
111-7143682-5865864	60114365037066	2020-10-14T00:55:31+00:00	2020-10-13T17:55:31-07:00	2020-10-14T01:25:03+00:00	2020-10-16T06:59:59+00:00	-2	sl6y3sv0mrq4rpl@marketplace.amazon.com	Amy LeDahl	+1 213-442-1463 ext. 23048	ABR0022	Delivery by Thursday | Arabella Farm Direct Bouquet of 12 Fresh Cut Pink Roses with a Free Glass Vase	1	0	1	Standard	Peggy Hayden	14370 GRATIOT RD			HEMLOCK	MI	48626-8453	US		Happy Birthday Mom! Love you!!! From Amy and James	false		
113-4448337-2057848	17978257538786	2020-10-14T01:00:59+00:00	2020-10-13T18:00:59-07:00	2020-10-14T01:29:53+00:00	2020-10-16T06:59:59+00:00	-2	g3x6tsfbs3h3y2k@marketplace.amazon.com	Marvin S. Medow	+1 619-854-2705 ext. 43993	ABR0022	Delivery by Thursday | Arabella Farm Direct Bouquet of 12 Fresh Cut Pink Roses with a Free Glass Vase	1	0	1	Expedited	S. Herbert Ostern	39-19 Grant Street			Fairlawn	New Jersey	07410	US		Dear Aunt Arlene and Uncle Herb,  Happy 60th Anniversary.  Love, Carol and Marvin From Marvin S. Medow	false		
113-8362957-4191445	42114941024866	2020-10-14T01:04:11+00:00	2020-10-13T18:04:11-07:00	2020-10-14T01:33:26+00:00	2020-10-16T06:59:59+00:00	-2	6xm913xgzv3tzsg@marketplace.amazon.com	Robert Kane	+1 929-436-4790 ext. 69493	ABM022	Delivery by Thursday | Purple Extravagance Bouquet by Arabella Bouquets	1	0	1	Expedited	Robert/Paula Kane	9022 Fox Lair Dr			Burke	VA	22015	US		Happy B-Day to PK. From BK	false		
114-8774340-1125010	22319081208434	2020-10-14T01:07:54+00:00	2020-10-13T18:07:54-07:00	2020-10-14T01:35:12+00:00	2020-10-16T06:59:59+00:00	-2	1qzz3kpxg27ptbv@marketplace.amazon.com	Tina Inman	+1 602-671-6610 ext. 96259	ABM022	Delivery by Thursday | Purple Extravagance Bouquet by Arabella Bouquets	1	0	1	Expedited	Joyce Strilzuk	10550 SE 70TH AVE LOT 3			PORTLAND	OR	97222-3911	US		Happy birthday Granny. Wishing you many more. We love you. Scott and Tina From Tina Inman	false		
113-8011407-4033011	36416310508650	2020-10-14T01:08:52+00:00	2020-10-13T18:08:52-07:00	2020-10-14T01:37:04+00:00	2020-10-16T06:59:59+00:00	-2	5k9wwnlm4frbjw2@marketplace.amazon.com	Ana Alfonso	+1 619-854-2705 ext. 91590	ABM010	Delivery by Thursday | The Spring Fling Bouquet by Arabella Bouquets with a Free Designer Glass Vase	1	0	1	Expedited	Kelly Brin (super maestra!)	13704 SE 233RD ST			KENT	WA	98042-3244	US		Gracias por todo el trabajo que dedicaste a los “growth goals”, Kelly. Te debo una MUY GRANDE! Un besazo!!!!!! From Ana Alfonso	false		
112-8071571-1939445	59537391378042	2020-10-14T01:13:11+00:00	2020-10-13T18:13:11-07:00	2020-10-14T01:39:53+00:00	2020-10-16T06:59:59+00:00	-2	361wx60f39lvp4j@marketplace.amazon.com	Karen Angle	+1 619-854-2705 ext. 85696	ABM010	Delivery by Thursday | The Spring Fling Bouquet by Arabella Bouquets with a Free Designer Glass Vase	1	0	1	Expedited	Nadine Doolittle	3635 N HUSON ST			TACOMA	WA	98407-4119	US		Happy Birthday Mom! Love Dave and Karen	false		
113-6971452-5639432	44705894360634	2020-10-14T01:26:11+00:00	2020-10-13T18:26:11-07:00	2020-10-14T01:56:42+00:00	2020-10-16T06:59:59+00:00	-2	xws3n8q52sztr5b@marketplace.amazon.com	Kay Maxwell	+1 213-442-1463 ext. 21885	ABR0022	Delivery by Thursday | Arabella Farm Direct Bouquet of 12 Fresh Cut Pink Roses with a Free Glass Vase	1	0	1	Expedited	Kay Maxwell	8404 SPRING CRK			COLLEGE STATION	TX	77845-4607	US			false		
113-4263240-2945812	42529743511994	2020-10-14T01:49:10+00:00	2020-10-13T18:49:10-07:00	2020-10-14T02:19:12+00:00	2020-10-16T06:59:59+00:00	-2	q9k354qfmmnd1r5@marketplace.amazon.com	Lori Mastin	+1 602-671-6610 ext. 06792	ABR0022	Delivery by Thursday | Arabella Farm Direct Bouquet of 12 Fresh Cut Pink Roses with a Free Glass Vase	1	0	1	Expedited	Rodney mastin	462 NW PARADISE VALLEY DR			LAWTON	OK	73507-7773	US			false		
112-9689858-0102659	64830016683162	2020-10-14T02:29:46+00:00	2020-10-13T19:29:46-07:00	2020-10-14T02:50:32+00:00	2020-10-16T06:59:59+00:00	-2	sshht9xggpq3ccw@marketplace.amazon.com	Kathleen Osborn	+1 619-854-2705 ext. 94686	ABM0044	Delivery by Friday | Arabella Farm Direct Bouquet of Fresh Cut Blue Hydrangea with a Free Glass Vase	1	0	1	Expedited	Sandy and Steve Smith	5150 EAGLES NEST LN			LELAND	MI	49654-9747	US		These are safe from the deer and raccoons. Thank you for your wonderful hospitality! With love, xoxo From Kathleen	false		
113-0052179-5215400	14253381211338	2020-10-14T02:23:41+00:00	2020-10-13T19:23:41-07:00	2020-10-14T02:51:47+00:00	2020-10-16T06:59:59+00:00	-2	rr4v3ck2pm84807@marketplace.amazon.com	Daniel	+1 213-442-1463 ext. 40863	ABM0033	Delivery by Friday | Arabella Farm Direct Bouquet of Fresh Cut White Hydrangea with a Free Glass Vase	1	0	1	Standard	Adriana Arellano	8825 ALCOTT ST APT 1/2			LOS ANGELES	CA	90035-3321	US		Couldn’t do life without you! Feel better so we can go to Palm Springs! 😊 Love you so much bestie!   XOX, From Megan	false		
112-1040862-3894662	25372579012674	2020-10-14T02:36:05+00:00	2020-10-13T19:36:05-07:00	2020-10-14T02:57:02+00:00	2020-10-16T06:59:59+00:00	-2	ww3mzvn841njlfd@marketplace.amazon.com	Thomas Simon	+1 929-436-4790 ext. 86992	ABM022	Delivery by Thursday | Purple Extravagance Bouquet by Arabella Bouquets	1	0	1	Expedited	Michelle Dunn	369 WILMA CT			NORTH EAST	MD	21901-2125	US			false		
114-1714694-3372229	65149667365378	2020-10-14T03:03:56+00:00	2020-10-13T20:03:56-07:00	2020-10-14T03:29:42+00:00	2020-10-16T06:59:59+00:00	-2	g975lsgf46yzbbf@marketplace.amazon.com	Alejandra Methot	+1 619-854-2705 ext. 06266	ABM020	The Sunset Bouquet by Arabella Bouquets	1	0	1	Expedited	Carol Compton	1724 CEDAR ST			BERKELEY	CA	94703-1153	US		Dear Carol, get well soon, sister! Lots of love, hugs and kisses! From Alejandra Methot	false		
114-2556258-3430663	47524229846866	2020-10-14T03:04:57+00:00	2020-10-13T20:04:57-07:00	2020-10-14T03:33:52+00:00	2020-10-16T06:59:59+00:00	-2	45cytttc3ktx3tf@marketplace.amazon.com	Susan Walsh	+1 619-854-2705 ext. 84272	ABM010	Delivery by Thursday | The Spring Fling Bouquet by Arabella Bouquets with a Free Designer Glass Vase	1	0	1	Expedited	Mary Ellen Fox	4122 RALEIGH RD			BALTIMORE	MD	21208-5834	US		Happy Birthday!!  Love you dearly!! From Madeline, Elizabeth &  Emily	false		
111-3028578-6761852	12561252018594	2020-10-14T03:15:53+00:00	2020-10-13T20:15:53-07:00	2020-10-14T03:40:40+00:00	2020-10-16T06:59:59+00:00	-2	ltcvw42dhtqhhdn@marketplace.amazon.com	Heather A. Burns	+1 480-618-5344 ext. 14895	ABM022	Delivery by Thursday | Purple Extravagance Bouquet by Arabella Bouquets	1	0	1	Expedited	Shannon and Mark Deacon	6617 75TH DR NE			MARYSVILLE	WA	98270-6561	US		I wish I could go to the memorial, but can't due to COVID. Please know how badly I want to hug you Shannon and make you feel better. From Heather A. Burns	false		
112-5004204-7817802	19966264347898	2020-10-14T03:13:12+00:00	2020-10-13T20:13:12-07:00	2020-10-14T03:41:13+00:00	2020-10-16T06:59:59+00:00	-2	3h4wrwd4ymblh5v@marketplace.amazon.com	Kristen Lukach	+1 619-854-2705 ext. 29741	ABR0022	Delivery by Thursday | Arabella Farm Direct Bouquet of 12 Fresh Cut Pink Roses with a Free Glass Vase	1	0	1	Expedited	Joan Dias	302 DEKALB AVE			WOODBRIDGE	NJ	07095-1712	US		Happy 80th Aunt Joanie!!!! love you!  Have fun in AC From Michael Kristen Emily and Isabel	false		
113-9712820-4960222	11498494802978	2020-10-14T03:13:21+00:00	2020-10-13T20:13:21-07:00	2020-10-14T03:42:06+00:00	2020-10-16T06:59:59+00:00	-2	rhdws7lv9dx4h9v@marketplace.amazon.com	Ellen Perez	+1 602-671-6610 ext. 62439	ABR0055	Arabella Farm Direct Bouquet of 12 Stems of Fresh Cut Hot Pink Roses in a Free Designer Glass Vase	1	0	1	Expedited	Mary DUCY	15339 E RITTER CIR			HOUSTON	TX	77071-3213	US			false		
112-8855939-2331453	01142088074154	2020-10-14T04:00:58+00:00	2020-10-13T21:00:58-07:00	2020-10-14T04:31:15+00:00	2020-10-16T06:59:59+00:00	-2	41r5jmwljnd0810@marketplace.amazon.com	tiffany	+1 602-671-6610 ext. 84412	ABM010	Delivery by Thursday | The Spring Fling Bouquet by Arabella Bouquets with a Free Designer Glass Vase	1	0	1	Expedited	Paula Loiso	11124 E ADOBE CT			GOLD CANYON	AZ	85118-5152	US			false		
112-5927011-9907466	29607722746490	2020-10-14T04:03:01+00:00	2020-10-13T21:03:01-07:00	2020-10-14T04:32:28+00:00	2020-10-16T06:59:59+00:00	-2	pt6vjhwfctxzwws@marketplace.amazon.com	Professor Deborah	+1 929-436-4790 ext. 21517	ABR0033	Delivery by Thursday | Arabella Farm Direct Bouquet of 12 Fresh Cut Orange Roses with a Free Glass Vase	1	0	1	Expedited	Marie T. Arangno	230 E. Rockrimmon Blvd			Colorado Springs	CO	80919	US		HAPPY BIRTHDAY, BEAUTIFUL!!!  God love you, Mommy!!! From Roonie	false		
113-5164075-0282644	35331078670874	2020-10-14T04:10:09+00:00	2020-10-13T21:10:09-07:00	2020-10-14T04:33:06+00:00	2020-10-16T06:59:59+00:00	-2	djjf261qcmpyt8j@marketplace.amazon.com	Nancy Garre	+1 619-854-2705 ext. 61225	ABR0022	Delivery by Thursday | Arabella Farm Direct Bouquet of 12 Fresh Cut Pink Roses with a Free Glass Vase	1	0	1	Expedited	Lorrie Scott	18018 BISHOPS POND			SAN ANTONIO	TX	78257-1436	US		Happy Birthday to my sweet Lorrie.  I love you❤️ Me From Nancy Garre	false		
112-6896951-9961828	34390165011690	2020-10-14T04:13:43+00:00	2020-10-13T21:13:43-07:00	2020-10-14T04:43:24+00:00	2020-10-16T06:59:59+00:00	-2	103qw7l7f8fkjz2@marketplace.amazon.com	Magdalena	+1 602-671-6610 ext. 66025	ABR0055	Arabella Farm Direct Bouquet of 12 Stems of Fresh Cut Hot Pink Roses in a Free Designer Glass Vase	1	0	1	Standard	Magdalena Starzec	609 NEWMAN PL APT 43			ROSELLE	NJ	07203-2860	US			false		
111-9367575-0851438	61471375010330	2020-10-14T04:37:59+00:00	2020-10-13T21:37:59-07:00	2020-10-14T04:47:40+00:00	2020-10-16T06:59:59+00:00	-2	32q5k9v0g64fdrn@marketplace.amazon.com	Nao Inoue	+1 619-854-2705 ext. 19356	ABR0022	Delivery by Thursday | Arabella Farm Direct Bouquet of 12 Fresh Cut Pink Roses with a Free Glass Vase	1	0	1	Expedited	Madison Jenkins (Jerry Sampson)	1117 S WALNUT ST			SPOKANE	WA	99204-4035	US		Happy 80th Birthday Jerry! I wish I were celebrating your special day in person. I hope you have a wonderful birthday with your friends and loved ones. From Nao Inoue	false		
111-9639336-5919456	01749618095418	2020-10-14T04:34:18+00:00	2020-10-13T21:34:18-07:00	2020-10-14T04:58:46+00:00	2020-10-16T06:59:59+00:00	-2	szb3p7br9k7d08f@marketplace.amazon.com	parrilla,luz	+1 619-854-2705 ext. 40001	ABR0022	Delivery by Thursday | Arabella Farm Direct Bouquet of 12 Fresh Cut Pink Roses with a Free Glass Vase	1	0	1	Expedited	Cherry Trocio	1110 JOHNSON CT			NEW MILFORD	NJ	07646-2524	US		Hi Cher, Sam, and Family, My sincere condolences and sympathies for the passing of your dad,aunts, and brother- in - law... 🙏🙏🙏 From parrilla,luz	false		
114-7832147-7597068	07675707034298	2020-10-14T04:50:28+00:00	2020-10-13T21:50:28-07:00	2020-10-14T05:15:09+00:00	2020-10-16T06:59:59+00:00	-2	p1g71djxsrdkvvd@marketplace.amazon.com	Colleen L. Reece	+1 929-436-4790 ext. 23446	ABR0022	Delivery by Thursday | Arabella Farm Direct Bouquet of 12 Fresh Cut Pink Roses with a Free Glass Vase	1	0	1	Expedited	Camille Reece	12631 SE 235TH ST			KENT	WA	98031-3623	US		Enjoy your gift! From Colleen L. Reece	false		
113-5158862-0855415	28435843691778	2020-10-14T05:01:15+00:00	2020-10-13T22:01:15-07:00	2020-10-14T05:23:48+00:00	2020-10-16T06:59:59+00:00	-2	rpyv6flydkg2ykt@marketplace.amazon.com	Jeremy Tuggle	+1 415-851-9136 ext. 94592	ABR0022	Delivery by Thursday | Arabella Farm Direct Bouquet of 12 Fresh Cut Pink Roses with a Free Glass Vase	1	0	1	Expedited	Tyler sims	377 CROSS CREEK RD APT N			CENTRAL	SC	29630-4138	US		I love you and miss you! From Jeremy	false		
113-2718934-5100252	30272024291098	2020-10-14T09:46:14+00:00	2020-10-14T02:46:14-07:00	2020-10-14T10:16:20+00:00	2020-10-17T06:59:59+00:00	-3	prtvzh3bqgbpf0k@marketplace.amazon.com	Alex Castro	+1 480-618-5344 ext. 37015	ABR0022	Delivery by Thursday | Arabella Farm Direct Bouquet of 12 Fresh Cut Pink Roses with a Free Glass Vase	1	0	1	Expedited	Alan Castro	3701 E IRONHORSE RD			GILBERT	AZ	85297-9414	US			false		
111-1692857-5464252	64904535279026	2020-10-14T10:48:41+00:00	2020-10-14T03:48:41-07:00	2020-10-14T11:08:31+00:00	2020-10-17T06:59:59+00:00	-3	glwzlck86d0w0hz@marketplace.amazon.com	Steve Cordovani	+1 415-851-9136 ext. 25085	ABR0055	Arabella Farm Direct Bouquet of 12 Stems of Fresh Cut Hot Pink Roses in a Free Designer Glass Vase	1	0	1	Expedited	Hannah Drexler	724 S SAINT ASAPH ST # WB311			ALEXANDRIA	VA	22314-4349	US		Real beauty is in the fragility of your petals. A rose that never wilts isn’t a rose at all.  Pink is the color of your beauty, enjoy your beauty every moment of the day! From XOXOSC	false		
112-2500887-5217000	26955155012338	2020-10-14T12:21:36+00:00	2020-10-14T05:21:36-07:00	2020-10-14T12:51:53+00:00	2020-10-17T06:59:59+00:00	-3	mfsyjt50yj4tjdv@marketplace.amazon.com	Nina Basu	+1 602-671-6610 ext. 57622	ABR0055	Arabella Farm Direct Bouquet of 12 Stems of Fresh Cut Hot Pink Roses in a Free Designer Glass Vase	1	0	1	Expedited	Graham Cruickshank	7120 LASTING LIGHT WAY			COLUMBIA	MD	21045-5122	US			false		
111-0926953-6355458	46461194937330	2020-10-14T12:31:41+00:00	2020-10-14T05:31:41-07:00	2020-10-14T13:00:23+00:00	2020-10-17T06:59:59+00:00	-3	5pnvtkh5wc71ncl@marketplace.amazon.com	Alpher barry	+1 480-618-5344 ext. 89867	ABR001	Delivery by Thursday | Arabella Bouquets 12 Stems of Fresh Cut Red Roses in a Free Designer Glass Vase	1	0	1	Expedited	Darline lops	9524 SW 8TH ST			PEMBROKE PINES	FL	33025-1120	US			false		
114-7438792-6185840	38174460720162	2020-10-14T12:32:05+00:00	2020-10-14T05:32:05-07:00	2020-10-14T13:02:21+00:00	2020-10-17T06:59:59+00:00	-3	g074cj3f3k3lq7z@marketplace.amazon.com	Palmira Nicolo	+1 619-854-2705 ext. 18448	ABR0022	Delivery by Thursday | Arabella Farm Direct Bouquet of 12 Fresh Cut Pink Roses with a Free Glass Vase	1	0	1	Expedited	Palmira Nicolo	307 W KENNEDY RD			NORTH WALES	PA	19454-5605	US			false		
112-1309580-1541866	15761354812866	2020-10-14T12:45:09+00:00	2020-10-14T05:45:09-07:00	2020-10-14T13:14:53+00:00	2020-10-17T06:59:59+00:00	-3	y9w4hyxkzwpnnpm@marketplace.amazon.com	(559) 4304904	+1 619-854-2705 ext. 58765	ABM020	The Sunset Bouquet by Arabella Bouquets	1	0	1	Standard	Ms Marlyn Magna Alverez	360 N ROOSEVELT AVE APT 102			FRESNO	CA	93701-1447	US		Enjoy your gift! HAPPY BIRTHDAY MARLYN !! LOTS OF LOVE & BEST WISHES  LOVE ALWAYS SAROJ From (559) 4304904	false		
111-6308177-4549827	49081475414586	2020-10-14T13:34:47+00:00	2020-10-14T06:34:47-07:00	2020-10-14T14:05:00+00:00	2020-10-17T06:59:59+00:00	-3	79t3j72q03jc1ys@marketplace.amazon.com	Elizabeth Pedziwiatr	+1 602-671-6610 ext. 21286	ABR0033	Delivery by Thursday | Arabella Farm Direct Bouquet of 12 Fresh Cut Orange Roses with a Free Glass Vase	1	0	1	Expedited	Ali Stoffer	306 E BOLIVAR AVE			MILWAUKEE	WI	53207-5018	US			false		
111-3114980-3784213	39897858110386	2020-10-14T13:42:06+00:00	2020-10-14T06:42:06-07:00	2020-10-14T14:12:11+00:00	2020-10-17T06:59:59+00:00	-3	l1kf45qwpv7zs1q@marketplace.amazon.com	John gonzales	+1 619-854-2705 ext. 62183	ABR0022	Delivery by Thursday | Arabella Farm Direct Bouquet of 12 Fresh Cut Pink Roses with a Free Glass Vase	1	0	1	Expedited	Danuska maisel jung	536 SCENIC RD			FAIRFAX	CA	94930-1930	US			false		
114-1718064-5078634	29923603779714	2020-10-14T14:02:59+00:00	2020-10-14T07:02:59-07:00	2020-10-14T14:26:35+00:00	2020-10-17T06:59:59+00:00	-3	c9r9qfyl5mqtm9w@marketplace.amazon.com	Vivian jackson	+1 480-618-5344 ext. 73463	ABR0055	Arabella Farm Direct Bouquet of 12 Stems of Fresh Cut Hot Pink Roses in a Free Designer Glass Vase	1	0	1	Expedited	Andrea West	5141 CHASTEAL TRL			RALEIGH	NC	27610-6421	US			false		
114-9021391-9367449	64236526896330	2020-10-14T14:45:18+00:00	2020-10-14T07:45:18-07:00	2020-10-14T14:46:11+00:00	2020-10-17T06:59:59+00:00	-3	x9zp4f2s5hm879y@marketplace.amazon.com	Jennifer Courville	+1 602-671-6610 ext. 19139	ABM0044	Delivery by Friday | Arabella Farm Direct Bouquet of Fresh Cut Blue Hydrangea with a Free Glass Vase	1	0	1	Expedited	Karen Butler	2380 MONTFORD PL SE			SMYRNA	GA	30080-4814	US		Karen - We know it is a lot with both your mom & Susanna having surgery.  We want you to know that you and your family are loved and prayed for! From Chick-fil-A - TA & RCMS	false		
111-8160000-6911463	33882798832770	2020-10-14T14:27:53+00:00	2020-10-14T07:27:53-07:00	2020-10-14T14:55:04+00:00	2020-10-17T06:59:59+00:00	-3	15bys7hbhptbh4g@marketplace.amazon.com	Mary Ann Benvenutti	+1 929-436-4790 ext. 00296	ABM022	Delivery by Thursday | Purple Extravagance Bouquet by Arabella Bouquets	1	0	1	Expedited	Sybil McLemore	19425 BELL CREEK RD			PERKINSTON	MS	39573-3521	US		Happy 40th Birthday, Sybil! We love you, Mikey, Mary Ann & Laurie From Mary Ann Benvenutti	false		
114-6294052-6825802	46835131691754	2020-10-14T14:56:36+00:00	2020-10-14T07:56:36-07:00	2020-10-14T15:20:39+00:00	2020-10-17T06:59:59+00:00	-3	9307jvxm21s7pck@marketplace.amazon.com	Geraldine Kreppel	+1 602-671-6610 ext. 36035	ABR0055	Arabella Farm Direct Bouquet of 12 Stems of Fresh Cut Hot Pink Roses in a Free Designer Glass Vase	1	0	1	Expedited	Jackie Legado (Rosann)	1405 GULF STREAM CIR APT 2302			BRANDON	FL	33511-2846	US		Happy Birthday  Love and Miss you From Geraldine Kreppel	false		
113-0031213-4530642	27882727076522	2020-10-14T15:58:51+00:00	2020-10-14T08:58:51-07:00	2020-10-14T16:29:14+00:00	2020-10-17T06:59:59+00:00	-3	ctpkd2g14f9757s@marketplace.amazon.com	Dorothy Hill	+1 213-442-1463 ext. 06628	ABR0022	Delivery by Thursday | Arabella Farm Direct Bouquet of 12 Fresh Cut Pink Roses with a Free Glass Vase	1	0	1	Expedited	Peggy Sipes	388 ATTIX DR			DOVER	DE	19904-1071	US			false		
112-8408445-0065807	46544916312962	2020-10-14T16:10:36+00:00	2020-10-14T09:10:36-07:00	2020-10-14T16:40:18+00:00	2020-10-17T06:59:59+00:00	-3	9q0z6gwn4d97grk@marketplace.amazon.com	Kristin A Poore	+1 480-618-5344 ext. 39005	ABM010	Delivery by Thursday | The Spring Fling Bouquet by Arabella Bouquets with a Free Designer Glass Vase	1	0	1	Expedited	Sharyn Poore	17628 ALLIS RD			COUNCIL BLUFFS	IA	51503-6478	US		Enjoy your gift! From Kristin A Poore	false		
111-8690479-5049056	55614688876586	2020-10-14T16:15:57+00:00	2020-10-14T09:15:57-07:00	2020-10-14T16:42:57+00:00	2020-10-17T06:59:59+00:00	-3	3l9dkbwknxhdpjm@marketplace.amazon.com	victoria anez	+1 213-442-1463 ext. 44217	ABR0022	Delivery by Thursday | Arabella Farm Direct Bouquet of 12 Fresh Cut Pink Roses with a Free Glass Vase	1	0	1	Expedited	Mrs. Janet Hollingsworth	5615 FOGGY LN			DERWOOD	MD	20855-1652	US		Mom, HAPPY BIRTHDAY!! We hope you have a wonderful day. We love you and miss lots!  Love From Gage & Victoria	false		
111-4080034-8719402	28536468569034	2020-10-14T16:25:33+00:00	2020-10-14T09:25:33-07:00	2020-10-14T16:55:17+00:00	2020-10-17T06:59:59+00:00	-3	jv2cqck68xzv855@marketplace.amazon.com	Doris Witherell	+1 619-854-2705 ext. 65317	ABR0066	Arabella Bouquets 12 Stems of Fresh Cut White Roses in a Free Designer Glass Vase	1	0	1	Expedited	Dawn & Carl Sabatello	5002 WHISPERING HOLW			PALM BEACH GARDENS	FL	33418-3536	US			false		
112-5118725-3149014	21885039206490	2020-10-14T16:34:43+00:00	2020-10-14T09:34:43-07:00	2020-10-14T17:00:34+00:00	2020-10-17T06:59:59+00:00	-3	3nzjs4scztbcj85@marketplace.amazon.com	Maartje	+1 619-854-2705 ext. 81319	ABM021	Delivery by Friday | The Joyous Bouquet by Arabella Bouquets	1	0	1	Expedited	Anne van Vlimmeren	549 RIVERSIDE DR APT 5H			NEW YORK	NY	10027-3943	US		Dear Anne and Konstantin,  Enjoy living together! Hopefully you will find a nice place for this bouquet.  Greetings and kisses Maartje and Rian From Maartje	false		
113-0604142-7413038	05716818582194	2020-10-14T16:34:47+00:00	2020-10-14T09:34:47-07:00	2020-10-14T17:01:29+00:00	2020-10-17T06:59:59+00:00	-3	3qpssd4cnvb0p3t@marketplace.amazon.com	Kunal Dave	+1 929-436-4790 ext. 41732	ABR001	Delivery by Thursday | Arabella Bouquets 12 Stems of Fresh Cut Red Roses in a Free Designer Glass Vase	1	0	1	Expedited	Zeta Cooper	33504 4TH CT SW			FEDERAL WAY	WA	98023-6201	US		Hi Zeta, Wishing you a very Happy Boss Day 2020. From your own Release Team. From Kavita Dave	false		
111-2119155-8645864	35367619227178	2020-10-14T16:34:22+00:00	2020-10-14T09:34:22-07:00	2020-10-14T17:03:55+00:00	2020-10-17T06:59:59+00:00	-3	mz9bg5x8ynfl9d2@marketplace.amazon.com	Richard Glasgow	+1 929-436-4790 ext. 06459	ABR001	Delivery by Thursday | Arabella Bouquets 12 Stems of Fresh Cut Red Roses in a Free Designer Glass Vase	1	0	1	Expedited	Richard A Glasgow	6023 Churchside Drive			Lithia	FL	33547	US			false		
111-0830848-4171469	08637804851210	2020-10-14T16:51:34+00:00	2020-10-14T09:51:34-07:00	2020-10-14T17:20:16+00:00	2020-10-17T06:59:59+00:00	-3	dnsgs5nnshbr9zh@marketplace.amazon.com	Kathy Roberson	+1 213-442-1463 ext. 70899	ABM021	Delivery by Friday | The Joyous Bouquet by Arabella Bouquets	1	0	1	Expedited	Nancy Trela	23810 ASHLEY DR			BROWNSTOWN	MI	48134-9097	US		Happy Birthday, Nancy! We love you and think of you often. The Robersons From Kathy Roberson	false		
114-5515533-1926606	61147983600298	2020-10-14T16:58:51+00:00	2020-10-14T09:58:51-07:00	2020-10-14T17:25:38+00:00	2020-10-17T06:59:59+00:00	-3	5jlys3dw1hkvs33@marketplace.amazon.com	Annemarie Taylor	+1 619-854-2705 ext. 91960	ABM0033	Delivery by Friday | Arabella Farm Direct Bouquet of Fresh Cut White Hydrangea with a Free Glass Vase	1	0	1	Expedited	Xiomara Lopez	13831 SW 71ST LN			MIAMI	FL	33183-2133	US		So happy you are home.  Get real well soon From Annemarie Taylor	false		
111-5106945-4854610	37318185372522	2020-10-14T17:16:25+00:00	2020-10-14T10:16:25-07:00	2020-10-14T17:40:35+00:00	2020-10-17T06:59:59+00:00	-3	qm5x7tf4xcqjmn9@marketplace.amazon.com	Karen Kennedy	+1 602-671-6610 ext. 95940	ABR0022	Delivery by Thursday | Arabella Farm Direct Bouquet of 12 Fresh Cut Pink Roses with a Free Glass Vase	1	0	1	Expedited	Cara Williams	6 SAGAMORE HILL RD			OYSTER BAY	NY	11771-1807	US		Dear Cara,  Wishing you a wonderful day  Happy Birthday  Love Aunt Karen From Karen Kennedy	false		
112-4046916-3886617	53681242348186	2020-10-14T17:12:33+00:00	2020-10-14T10:12:33-07:00	2020-10-14T17:41:00+00:00	2020-10-17T06:59:59+00:00	-3	vhcsnnhcv0hqdvs@marketplace.amazon.com	Allison Hunte	+1 213-442-1463 ext. 75960	ABM020	The Sunset Bouquet by Arabella Bouquets	1	0	1	Expedited	Jackie Anthony	1867 STRAUSS ST			BROOKLYN	NY	11212-4522	US		Happy birthday sis enjoy your special day love always Allo & Curtis ❤️❤️❤️🙏 From Allison Hunte	false		
114-5784688-0654645	13349663676162	2020-10-14T17:41:07+00:00	2020-10-14T10:41:07-07:00	2020-10-14T17:58:58+00:00	2020-10-17T06:59:59+00:00	-3	wj6vfqvs09gjtzv@marketplace.amazon.com	christine	+1 213-442-1463 ext. 67371	ABR0022	Delivery by Thursday | Arabella Farm Direct Bouquet of 12 Fresh Cut Pink Roses with a Free Glass Vase	1	0	1	Expedited	Aldene Hinds	140 - 40 SANFORD AVE			FLUSHING	NY	11355-2556	US		Happy Birthday. We love you. From Paulette, Christine, Carolyn and Ruben	false		
112-5119914-3152259	52624793059106	2020-10-14T17:39:11+00:00	2020-10-14T10:39:11-07:00	2020-10-14T18:06:49+00:00	2020-10-17T06:59:59+00:00	-3	gt1b055c9sqvphq@marketplace.amazon.com	zoreh lahiji	+1 480-618-5344 ext. 89267	ABR0055	Delivery by Friday | Arabella Farm Direct Bouquet of 12 Stems of Fresh Cut Hot Pink Roses in a Free Designer Glass Vase	1	0	1	Expedited	Celia Medina	3854 EUGENE ST			FREMONT	CA	94538-3434	US		Happy birthday.  May you always be surrounded with happiness. Zoreh & Pirooz From zoreh lahiji & Pirooz Lahiji	false		
112-0693466-3810611	64361422248546	2020-10-14T17:19:09+00:00	2020-10-14T10:19:09-07:00	2020-10-14T18:08:25+00:00	2020-10-17T06:59:59+00:00	-3	hx7nj2sbq6wkq3q@marketplace.amazon.com	Susan McLane-Maxwell	+1 213-442-1463 ext. 29229	ABR004	Delivery by Thursday | Arabella Farm Direct Bouquet of 12 Fresh Cut Yellow Roses with a Free Glass Vase	1	0	1	Expedited	Barbara Eitnier	3776 DERRY ST			HARRISBURG	PA	17111-1921	US		Dear Barb, We all wish you a speedy recovery!   Good luck with PT. We love you very much! From Susan, Rob, Toby & Finn	false		
113-1177494-9992233	40794346861066	2020-10-14T17:57:42+00:00	2020-10-14T10:57:42-07:00	2020-10-14T18:24:41+00:00	2020-10-17T06:59:59+00:00	-3	rm9ppwlgpkz8syq@marketplace.amazon.com	MARTHA  STEWART	+1 619-854-2705 ext. 20724	ABR0033	Delivery by Friday | Arabella Farm Direct Bouquet of 12 Fresh Cut Orange Roses with a Free Glass Vase	1	0	1	Expedited	Nancy Schneider	5245 E ARROYO RD			PARADISE VALLEY	AZ	85253-3321	US		HAPPY BIRTHDAY! Love, marti & Brent From MARTHA  STEWART	false		
112-2401030-3765838	62882656348578	2020-10-14T18:09:55+00:00	2020-10-14T11:09:55-07:00	2020-10-14T18:38:03+00:00	2020-10-17T06:59:59+00:00	-3	g8p8rbs934vrkvw@marketplace.amazon.com	Dorothy M. Rodgers	+1 213-442-1463 ext. 73967	ABR0022	Delivery by Friday | Arabella Farm Direct Bouquet of 12 Fresh Cut Pink Roses with a Free Glass Vase	1	0	1	Expedited	Rosemarie Ailles	15017 MONTICELLO DR			OKLAHOMA CITY	OK	73134-1837	US		Enjoy your gift! So glad that you are home and recovering. Love you much. Dorothy From Dorothy M. Rodgers	false		
113-2483259-3825053	51031621230370	2020-10-14T18:14:00+00:00	2020-10-14T11:14:00-07:00	2020-10-14T18:38:12+00:00	2020-10-17T06:59:59+00:00	-3	10xnfzjvx434m3g@marketplace.amazon.com	Andrea McMurray	+1 619-854-2705 ext. 96856	ABM022	Delivery by Friday | Purple Extravagance Bouquet by Arabella Bouquets	1	0	1	Expedited	Polly Davila	14270 TARA ST			CALDWELL	ID	83607-1428	US		Enjoy your gift. Thank you so much for coming and helping, we would not have been able to pull this. Love you, sista! From Andrea and George McMurray	false		
112-6016739-6613805	05642977754666	2020-10-14T18:22:47+00:00	2020-10-14T11:22:47-07:00	2020-10-14T18:51:58+00:00	2020-10-17T06:59:59+00:00	-3	063n2c8ksbdz14v@marketplace.amazon.com	lawrence g grantham	+1 619-854-2705 ext. 43649	ABR0022	Delivery by Friday | Arabella Farm Direct Bouquet of 12 Fresh Cut Pink Roses with a Free Glass Vase	1	0	1	Expedited	Linda  grantham	18416 GREEN ISLAND TER			LEESBURG	VA	20176-3927	US		Sending you love and light and tons of hugs!!!!! From Greg, Tricia, Jacob & Lucas	false		
112-1680658-2328206	21302969607930	2020-10-14T18:29:57+00:00	2020-10-14T11:29:57-07:00	2020-10-14T18:56:55+00:00	2020-10-17T06:59:59+00:00	-3	7dhl1pyzvbnhsdl@marketplace.amazon.com	peggallagher@comcast	+1 213-442-1463 ext. 78544	ABM021	Delivery by Monday | The Joyous Bouquet by Arabella Bouquets	1	0	1	Expedited	Julie Gallagher	5437 ZEPHYR CT			ARVADA	CO	80002-2496	US		Happy birthday to our beautiful Julie! Xxxooo - Mom and Dad From peggallagher@comcast	false		
112-6554126-2997027	34594909881218	2020-10-14T18:58:37+00:00	2020-10-14T11:58:37-07:00	2020-10-14T19:21:33+00:00	2020-10-17T06:59:59+00:00	-3	sh7bdb288y8hhpn@marketplace.amazon.com	Pete Stevens	+1 213-442-1463 ext. 35987	ABR0022	Delivery by Friday | Arabella Farm Direct Bouquet of 12 Fresh Cut Pink Roses with a Free Glass Vase	1	0	1	Expedited	Jan Nash	1005 Grey Village Way			Marietta	GA	30068	US		The Lord is my strength and my shield.  In Him my heart trusts and I am helped.  My heart exults and with my song I give thanks to Him.  Psalm 28:7 For an amazing woman with amazing faith. From Gwen	false		
112-7086037-4056234	17073831066954	2020-10-14T18:58:13+00:00	2020-10-14T11:58:13-07:00	2020-10-14T19:23:48+00:00	2020-10-17T06:59:59+00:00	-3	hh3vh072y1ymwq4@marketplace.amazon.com	Ramon Fragozo	+1 619-854-2705 ext. 70905	ABR0022	Delivery by Friday | Arabella Farm Direct Bouquet of 12 Fresh Cut Pink Roses with a Free Glass Vase	1	0	1	Expedited	Carolina Nascimento	4137 BROOKWOOD DR			LOVES PARK	IL	61111-7673	US		Happy Birthday and may God bless you forever and ever From Ramon Fragozo (tu amorcito)	false		
112-6347691-9321810	44722766220674	2020-10-14T19:03:00+00:00	2020-10-14T12:03:00-07:00	2020-10-14T19:29:58+00:00	2020-10-17T06:59:59+00:00	-3	q98qn5cfvsq3z3p@marketplace.amazon.com	Jon	+1 929-436-4790 ext. 38029	ABM021	Delivery by Monday | The Joyous Bouquet by Arabella Bouquets	1	0	1	Expedited	Kat Gotsick	1619 W HOLLYWOOD AVE APT 1			CHICAGO	IL	60660-4025	US		Kat, We are so sad to hear about the passing of your dad. You and your family are in all of our thoughts and prayers during this season. We love you very much! From Your Csz Family	false		
112-5850156-9492225	09400446701242	2020-10-14T19:05:49+00:00	2020-10-14T12:05:49-07:00	2020-10-14T19:35:31+00:00	2020-10-17T06:59:59+00:00	-3	2myc97p6zzt8yf7@marketplace.amazon.com	john finn	+1 213-442-1463 ext. 88756	ABR0022	Delivery by Friday | Arabella Farm Direct Bouquet of 12 Fresh Cut Pink Roses with a Free Glass Vase	1	0	1	Expedited	JOHN FINN	1780 COUNTRY CLUB DR			LONG GROVE	IL	60047-5135	US		To my love From john finn	false		
