order-id	order-item-id	purchase-date	payments-date	reporting-date	promise-date	days-past-promise	buyer-email	buyer-name	buyer-phone-number	sku	product-name	quantity-purchased	quantity-shipped	quantity-to-ship	ship-service-level	recipient-name	ship-address-1	ship-address-2	ship-address-3	ship-city	ship-state	ship-postal-code	ship-country	gift-wrap-type	gift-message-text	is-business-order	purchase-order-number	price-designation
112-1685404-6149851	06112211248058	2020-10-13T19:02:20+00:00	2020-10-13T12:02:20-07:00	2020-10-13T19:31:42+00:00	2020-10-16T06:59:59+00:00	-1	4x1qjb5w7v131k5@marketplace.amazon.com	Nichole Annett	+1 619-854-2705 ext. 73926	ABR0022	Delivery by Thursday | Arabella Farm Direct Bouquet of 12 Fresh Cut Pink Roses with a Free Glass Vase	1	0	1	Standard	Victoria Johnson	45 PELL RD			GAULEY BRIDGE	WV	25085	US			true		Business Price
112-2261825-3619441	44735011391770	2020-10-13T22:10:51+00:00	2020-10-13T15:10:51-07:00	2020-10-13T22:40:12+00:00	2020-10-16T06:59:59+00:00	-1	2y0l1svckcptbz5@marketplace.amazon.com	Hubert Ahn	+1 619-854-2705 ext. 89349	ABR0022	Delivery by Thursday | Arabella Farm Direct Bouquet of 12 Fresh Cut Pink Roses with a Free Glass Vase	1	0	1	Expedited	Young Soo Ahn	628 WOODHAVEN DR			COMMERCE TOWNSHIP	MI	48390-5806	US		Happy Birthday Mom!   세계 최고의 엄마!  -Hubert From Hubert Ahn	false		
114-8774340-1125010	22319081208434	2020-10-14T01:07:54+00:00	2020-10-13T18:07:54-07:00	2020-10-14T01:35:12+00:00	2020-10-16T06:59:59+00:00	-1	1qzz3kpxg27ptbv@marketplace.amazon.com	Tina Inman	+1 602-671-6610 ext. 96259	ABM022	Delivery by Thursday | Purple Extravagance Bouquet by Arabella Bouquets	1	0	1	Expedited	Joyce Strilzuk	10550 SE 70TH AVE LOT 3			PORTLAND	OR	97222-3911	US		Happy birthday Granny. Wishing you many more. We love you. Scott and Tina From Tina Inman	false		
113-8011407-4033011	36416310508650	2020-10-14T01:08:52+00:00	2020-10-13T18:08:52-07:00	2020-10-14T01:37:04+00:00	2020-10-16T06:59:59+00:00	-1	5k9wwnlm4frbjw2@marketplace.amazon.com	Ana Alfonso	+1 619-854-2705 ext. 91590	ABM010	Delivery by Thursday | The Spring Fling Bouquet by Arabella Bouquets with a Free Designer Glass Vase	1	0	1	Expedited	Kelly Brin (super maestra!)	13704 SE 233RD ST			KENT	WA	98042-3244	US		Gracias por todo el trabajo que dedicaste a los “growth goals”, Kelly. Te debo una MUY GRANDE! Un besazo!!!!!! From Ana Alfonso	false		
112-8071571-1939445	59537391378042	2020-10-14T01:13:11+00:00	2020-10-13T18:13:11-07:00	2020-10-14T01:39:53+00:00	2020-10-16T06:59:59+00:00	-1	361wx60f39lvp4j@marketplace.amazon.com	Karen Angle	+1 619-854-2705 ext. 85696	ABM010	Delivery by Thursday | The Spring Fling Bouquet by Arabella Bouquets with a Free Designer Glass Vase	1	0	1	Expedited	Nadine Doolittle	3635 N HUSON ST			TACOMA	WA	98407-4119	US		Happy Birthday Mom! Love Dave and Karen	false		
111-3028578-6761852	12561252018594	2020-10-14T03:15:53+00:00	2020-10-13T20:15:53-07:00	2020-10-14T03:40:40+00:00	2020-10-16T06:59:59+00:00	-1	ltcvw42dhtqhhdn@marketplace.amazon.com	Heather A. Burns	+1 480-618-5344 ext. 14895	ABM022	Delivery by Thursday | Purple Extravagance Bouquet by Arabella Bouquets	1	0	1	Expedited	Shannon and Mark Deacon	6617 75TH DR NE			MARYSVILLE	WA	98270-6561	US		I wish I could go to the memorial, but can't due to COVID. Please know how badly I want to hug you Shannon and make you feel better. From Heather A. Burns	false		
111-9367575-0851438	61471375010330	2020-10-14T04:37:59+00:00	2020-10-13T21:37:59-07:00	2020-10-14T04:47:40+00:00	2020-10-16T06:59:59+00:00	-1	32q5k9v0g64fdrn@marketplace.amazon.com	Nao Inoue	+1 619-854-2705 ext. 19356	ABR0022	Delivery by Thursday | Arabella Farm Direct Bouquet of 12 Fresh Cut Pink Roses with a Free Glass Vase	1	0	1	Expedited	Madison Jenkins (Jerry Sampson)	1117 S WALNUT ST			SPOKANE	WA	99204-4035	US		Happy 80th Birthday Jerry! I wish I were celebrating your special day in person. I hope you have a wonderful birthday with your friends and loved ones. From Nao Inoue	false		
114-7832147-7597068	07675707034298	2020-10-14T04:50:28+00:00	2020-10-13T21:50:28-07:00	2020-10-14T05:15:09+00:00	2020-10-16T06:59:59+00:00	-1	p1g71djxsrdkvvd@marketplace.amazon.com	Colleen L. Reece	+1 929-436-4790 ext. 23446	ABR0022	Delivery by Thursday | Arabella Farm Direct Bouquet of 12 Fresh Cut Pink Roses with a Free Glass Vase	1	0	1	Expedited	Camille Reece	12631 SE 235TH ST			KENT	WA	98031-3623	US		Enjoy your gift! From Colleen L. Reece	false		
113-0604142-7413038	05716818582194	2020-10-14T16:34:47+00:00	2020-10-14T09:34:47-07:00	2020-10-14T17:01:29+00:00	2020-10-17T06:59:59+00:00	-2	3qpssd4cnvb0p3t@marketplace.amazon.com	Kunal Dave	+1 929-436-4790 ext. 41732	ABR001	Delivery by Thursday | Arabella Bouquets 12 Stems of Fresh Cut Red Roses in a Free Designer Glass Vase	1	0	1	Expedited	Zeta Cooper	33504 4TH CT SW			FEDERAL WAY	WA	98023-6201	US		Hi Zeta, Wishing you a very Happy Boss Day 2020. From your own Release Team. From Kavita Dave	false		
112-2401030-3765838	62882656348578	2020-10-14T18:09:55+00:00	2020-10-14T11:09:55-07:00	2020-10-14T18:38:03+00:00	2020-10-17T06:59:59+00:00	-2	g8p8rbs934vrkvw@marketplace.amazon.com	Dorothy M. Rodgers	+1 213-442-1463 ext. 73967	ABR0022	Delivery by Friday | Arabella Farm Direct Bouquet of 12 Fresh Cut Pink Roses with a Free Glass Vase	1	0	1	Expedited	Rosemarie Ailles	15017 MONTICELLO DR			OKLAHOMA CITY	OK	73134-1837	US		Enjoy your gift! So glad that you are home and recovering. Love you much. Dorothy From Dorothy M. Rodgers	false		
113-2483259-3825053	51031621230370	2020-10-14T18:14:00+00:00	2020-10-14T11:14:00-07:00	2020-10-14T18:38:12+00:00	2020-10-17T06:59:59+00:00	-2	10xnfzjvx434m3g@marketplace.amazon.com	Andrea McMurray	+1 619-854-2705 ext. 96856	ABM022	Delivery by Friday | Purple Extravagance Bouquet by Arabella Bouquets	1	0	1	Expedited	Polly Davila	14270 TARA ST			CALDWELL	ID	83607-1428	US		Enjoy your gift. Thank you so much for coming and helping, we would not have been able to pull this. Love you, sista! From Andrea and George McMurray	false		
112-6016739-6613805	05642977754666	2020-10-14T18:22:47+00:00	2020-10-14T11:22:47-07:00	2020-10-14T18:51:58+00:00	2020-10-17T06:59:59+00:00	-2	063n2c8ksbdz14v@marketplace.amazon.com	lawrence g grantham	+1 619-854-2705 ext. 43649	ABR0022	Delivery by Friday | Arabella Farm Direct Bouquet of 12 Fresh Cut Pink Roses with a Free Glass Vase	1	0	1	Expedited	Linda  grantham	18416 GREEN ISLAND TER			LEESBURG	VA	20176-3927	US		Sending you love and light and tons of hugs!!!!! From Greg, Tricia, Jacob & Lucas	false		
112-1680658-2328206	21302969607930	2020-10-14T18:29:57+00:00	2020-10-14T11:29:57-07:00	2020-10-14T18:56:55+00:00	2020-10-17T06:59:59+00:00	-2	7dhl1pyzvbnhsdl@marketplace.amazon.com	peggallagher@comcast	+1 213-442-1463 ext. 78544	ABM021	Delivery by Monday | The Joyous Bouquet by Arabella Bouquets	1	0	1	Expedited	Julie Gallagher	5437 ZEPHYR CT			ARVADA	CO	80002-2496	US		Happy birthday to our beautiful Julie! Xxxooo - Mom and Dad From peggallagher@comcast	false		
112-6554126-2997027	34594909881218	2020-10-14T18:58:37+00:00	2020-10-14T11:58:37-07:00	2020-10-14T19:21:33+00:00	2020-10-17T06:59:59+00:00	-2	sh7bdb288y8hhpn@marketplace.amazon.com	Pete Stevens	+1 213-442-1463 ext. 35987	ABR0022	Delivery by Friday | Arabella Farm Direct Bouquet of 12 Fresh Cut Pink Roses with a Free Glass Vase	1	0	1	Expedited	Jan Nash	1005 Grey Village Way			Marietta	GA	30068	US		The Lord is my strength and my shield.  In Him my heart trusts and I am helped.  My heart exults and with my song I give thanks to Him.  Psalm 28:7 For an amazing woman with amazing faith. From Gwen	false		
112-7086037-4056234	17073831066954	2020-10-14T18:58:13+00:00	2020-10-14T11:58:13-07:00	2020-10-14T19:23:48+00:00	2020-10-17T06:59:59+00:00	-2	hh3vh072y1ymwq4@marketplace.amazon.com	Ramon Fragozo	+1 619-854-2705 ext. 70905	ABR0022	Delivery by Friday | Arabella Farm Direct Bouquet of 12 Fresh Cut Pink Roses with a Free Glass Vase	1	0	1	Expedited	Carolina Nascimento	4137 BROOKWOOD DR			LOVES PARK	IL	61111-7673	US		Happy Birthday and may God bless you forever and ever From Ramon Fragozo (tu amorcito)	false		
112-6347691-9321810	44722766220674	2020-10-14T19:03:00+00:00	2020-10-14T12:03:00-07:00	2020-10-14T19:29:58+00:00	2020-10-17T06:59:59+00:00	-2	q98qn5cfvsq3z3p@marketplace.amazon.com	Jon	+1 929-436-4790 ext. 38029	ABM021	Delivery by Monday | The Joyous Bouquet by Arabella Bouquets	1	0	1	Expedited	Kat Gotsick	1619 W HOLLYWOOD AVE APT 1			CHICAGO	IL	60660-4025	US		Kat, We are so sad to hear about the passing of your dad. You and your family are in all of our thoughts and prayers during this season. We love you very much! From Your Csz Family	false		
112-5850156-9492225	09400446701242	2020-10-14T19:05:49+00:00	2020-10-14T12:05:49-07:00	2020-10-14T19:35:31+00:00	2020-10-17T06:59:59+00:00	-2	2myc97p6zzt8yf7@marketplace.amazon.com	john finn	+1 213-442-1463 ext. 88756	ABR0022	Delivery by Friday | Arabella Farm Direct Bouquet of 12 Fresh Cut Pink Roses with a Free Glass Vase	1	0	1	Expedited	JOHN FINN	1780 COUNTRY CLUB DR			LONG GROVE	IL	60047-5135	US		To my love From john finn	false		
112-3151029-1688249	52824058925018	2020-10-14T20:00:17+00:00	2020-10-14T13:00:17-07:00	2020-10-14T20:01:18+00:00	2020-10-17T06:59:59+00:00	-2	4rvbwdfs3yrj0fd@marketplace.amazon.com	stephen	+1 929-436-4790 ext. 41293	ABB011	Arabella Bouquets 24 Stems of Fresh Cut Hot Pink Roses in a Free Designer Glass Vase	1	0	1	Expedited	Barbara Moses	70 GREENE ST APT 2507			JERSEY CITY	NJ	07302-7599	US		My one and only tanta Bobbie! Happy early birthday. I couldn’t wait to share my love and happiness with you for reaching such a momentous milestone. May you continue to shine your light and love with all of us. We are blessed From Your nephew Stephen	false		
112-7174970-8129042	34234596259514	2020-10-14T19:58:26+00:00	2020-10-14T12:58:26-07:00	2020-10-14T20:21:04+00:00	2020-10-17T06:59:59+00:00	-2	zv5crl12yrvjd3v@marketplace.amazon.com	Zenia Kotval	+1 602-671-6610 ext. 72101	ABM022	Delivery by Friday | Purple Extravagance Bouquet by Arabella Bouquets	1	0	1	Expedited	Pauline Volpe's Funeral Mass	ST BRIGID S PARISH	122 N PLEASANT ST		AMHERST	MA	01002-1703	US		Celebrating Pauline's beautiful soul.  She will forever live in my memories.  Lots of love to Joe, Tore and Zeb. From Zee and Family in Michigan	false		
114-3048547-4607410	35754359126658	2020-10-14T20:09:08+00:00	2020-10-14T13:09:08-07:00	2020-10-14T20:31:39+00:00	2020-10-17T06:59:59+00:00	-2	lkn6lf9905vblwq@marketplace.amazon.com	Gary R Allen	+1 929-436-4790 ext. 18246	ABR001	Delivery by Friday | Arabella Bouquets 12 Stems of Fresh Cut Red Roses in a Free Designer Glass Vase	1	0	1	Expedited	Y. Underwood/Seattle Police HQ	6TH FLOOR DOMESTIC VIOLENCE	610 5TH AVE UNIT		SEATTLE	WA	98104-1900	US		Thanks LT for all of your hard work. We appreciate you! From The DV Unit	false		
114-8056664-7022651	65397962278194	2020-10-14T20:04:25+00:00	2020-10-14T13:04:25-07:00	2020-10-14T20:32:07+00:00	2020-10-17T06:59:59+00:00	-2	cck5dvfy5172gpd@marketplace.amazon.com	Paola	+1 619-854-2705 ext. 16845	ABR0066	Delivery by Friday | Arabella Bouquets 12 Stems of Fresh Cut White Roses in a Free Designer Glass Vase	1	0	1	Standard	Maria Gonzalez	21510 CHIRPING SPARROW RD			DIAMOND BAR	CA	91765-3758	US			false		
113-8619843-6790629	60770142201242	2020-10-14T20:07:03+00:00	2020-10-14T13:07:03-07:00	2020-10-14T20:33:46+00:00	2020-10-17T06:59:59+00:00	-2	gjnvvmm5gf196jb@marketplace.amazon.com	Barbara Jarczyk	+1 619-854-2705 ext. 11786	ABR004	Delivery by Friday | Arabella Farm Direct Bouquet of 12 Fresh Cut Yellow Roses with a Free Glass Vase	1	0	1	Expedited	Charles Fanucchi	2069 CHESHIRE DR			HOFFMAN ESTATES	IL	60192-4136	US		Dear Christina  Have a wonderful birthday and a wonderful year Love you Barbie and Wally From Barbara Jarczyk	false		
111-5017153-1745856	39150331088466	2020-10-14T20:26:23+00:00	2020-10-14T13:26:23-07:00	2020-10-14T20:46:44+00:00	2020-10-17T06:59:59+00:00	-2	mx7zhz5yktzcjjm@marketplace.amazon.com	Wendy Yuan	+1 480-618-5344 ext. 57341	ABM022	Delivery by Friday | Purple Extravagance Bouquet by Arabella Bouquets	1	0	1	Expedited	Carmen Perez	2601 CRYSTAL FALLS DR			PEARLAND	TX	77584-2509	US		Dear Carmen, Hope these flowers brighten up your day! From Wendy, Dusya, and Mangala	false		
114-1794359-0925827	31169110508682	2020-10-14T20:45:58+00:00	2020-10-14T13:45:58-07:00	2020-10-14T21:11:06+00:00	2020-10-17T06:59:59+00:00	-2	3hwdj11vmmqrmgw@marketplace.amazon.com	Karl Horn	+1 480-618-5344 ext. 54804	ABM022	Delivery by Friday | Purple Extravagance Bouquet by Arabella Bouquets	1	0	1	Expedited	Katie Doxsie	6429 EMERALD SPRINGS DR			INDIANAPOLIS	IN	46221-4185	US		So Glad Your Home! May God Continue to Heal and Comfort You and Rich! Our Prayers are with you both, we love you!! From Karl and Nan Horn	false		
112-7926935-8779449	29029398623538	2020-10-14T21:17:29+00:00	2020-10-14T14:17:29-07:00	2020-10-14T21:46:02+00:00	2020-10-17T06:59:59+00:00	-2	xs4fwwlk3txvckg@marketplace.amazon.com	ELIAS	+1 602-671-6610 ext. 56218	ABR0022	Delivery by Friday | Arabella Farm Direct Bouquet of 12 Fresh Cut Pink Roses with a Free Glass Vase	1	0	1	Expedited	Lauren Schultz	801 TEMPLE DR			HITCHCOCK	TX	77563-1621	US		I was blind and now I can see ....  I love you From ELIAS	false		
111-0953906-2315450	40900697473810	2020-10-14T21:23:06+00:00	2020-10-14T14:23:06-07:00	2020-10-14T21:52:10+00:00	2020-10-17T06:59:59+00:00	-2	nyfrjfdx1p1qw17@marketplace.amazon.com	Sabrina Stennis-Jefferson	+1 213-442-1463 ext. 78864	ABB007	Arabella Farm Direct Bouquet of 24 Fresh Cut Pink Roses with a Free Glass Vase	1	0	1	Expedited	Debbie Kelly McGill	401 LEAGUE RD			ROCKWALL	TX	75032-2629	US			false		
112-8028434-3863408	45101580953162	2020-10-14T21:29:35+00:00	2020-10-14T14:29:35-07:00	2020-10-14T22:00:03+00:00	2020-10-17T06:59:59+00:00	-2	56hnnv5grd0l1qw@marketplace.amazon.com	Mary R Metzger	+1 602-671-6610 ext. 32576	ABR0022	Delivery by Friday | Arabella Farm Direct Bouquet of 12 Fresh Cut Pink Roses with a Free Glass Vase	1	0	1	Expedited	Tim Metzger	1621 29TH ST			ROCK ISLAND	IL	61201-3738	US			false		
113-6471005-2521867	34942402092994	2020-10-14T21:39:02+00:00	2020-10-14T14:39:02-07:00	2020-10-14T22:05:11+00:00	2020-10-17T06:59:59+00:00	-2	rxq51n58bv22dbt@marketplace.amazon.com	AnnMargaret Palmer	+1 602-671-6610 ext. 54039	ABR0022	Delivery by Friday | Arabella Farm Direct Bouquet of 12 Fresh Cut Pink Roses with a Free Glass Vase	1	0	1	Expedited	Susan Lifke	HOGAN LOVELLS	1999 AVENUE OF THE STARS STE 1400		LOS ANGELES	CA	90067-6047	US		Boss Lady,  Happy Bosses Day to the Best Boss Ever!! Love you & miss you, From Ann Palmer	false		
113-1130350-1711432	45079824696946	2020-10-14T21:47:17+00:00	2020-10-14T14:47:17-07:00	2020-10-14T22:16:23+00:00	2020-10-17T06:59:59+00:00	-2	f1x3qbnmwk4grc2@marketplace.amazon.com	Alex Dovalina	+1 929-436-4790 ext. 58271	ABR0022	Delivery by Friday | Arabella Farm Direct Bouquet of 12 Fresh Cut Pink Roses with a Free Glass Vase	1	0	1	Expedited	Viviana Dovalina	1268 Scoville Ave			Pomona	California	91767	US			false		
111-0878846-3696216	48892762828050	2020-10-14T21:53:32+00:00	2020-10-14T14:53:32-07:00	2020-10-14T22:20:03+00:00	2020-10-17T06:59:59+00:00	-2	8z2jsj5p2wtzs98@marketplace.amazon.com	Alejandra Paola Arevalo	+1 929-436-4790 ext. 57170	ABR004	Delivery by Friday | Arabella Farm Direct Bouquet of 12 Fresh Cut Yellow Roses with a Free Glass Vase	1	0	1	Expedited	ROSA CAMACHO	13224 3RD ST			CHINO	CA	91710-4008	US			false		
111-9806132-7621056	29325951617890	2020-10-14T21:53:57+00:00	2020-10-14T14:53:57-07:00	2020-10-14T22:24:15+00:00	2020-10-17T06:59:59+00:00	-2	0wl5dt2ks3wmymn@marketplace.amazon.com	aiorizzo	+1 480-618-5344 ext. 88650	ABM020	Delivery by Friday | The Sunset Bouquet by Arabella Bouquets	1	0	1	Expedited	Marion Iorizzo	19 DOWNHILL LN			WANTAGH	NY	11793-1817	US			false		
114-8348046-5885007	39266496985114	2020-10-14T22:04:53+00:00	2020-10-14T15:04:53-07:00	2020-10-14T22:31:27+00:00	2020-10-17T06:59:59+00:00	-2	cl6pkg1gkmjrqgj@marketplace.amazon.com	Melanie Milliner	+1 929-436-4790 ext. 20641	ABR0022	Delivery by Friday | Arabella Farm Direct Bouquet of 12 Fresh Cut Pink Roses with a Free Glass Vase	1	0	1	Standard	Joan Maltz	MAYBROOK 325 PENN RD UNIT 415			WYNNEWOOD	PA	19096-1459	US		Happy Birthday darling Joan, Today we celebrate what a wonderfully, loving and caring lady you are.  We love you From Melanie, Sean, Mike and Jake	false		
111-9207349-6579401	08484441008946	2020-10-14T22:18:49+00:00	2020-10-14T15:18:49-07:00	2020-10-14T22:35:18+00:00	2020-10-17T06:59:59+00:00	-2	grs4fgh3bkv90gz@marketplace.amazon.com	Amy D. Moore	+1 929-436-4790 ext. 87166	ABM010	Delivery by Friday | The Spring Fling Bouquet by Arabella Bouquets with a Free Designer Glass Vase	1	0	1	Expedited	Anahid minans	7708 PASEO DEL REY APT 6			PLAYA DEL REY	CA	90293-8348	US		Dear Anahid Minans,  love from AMY and Wil GET WELL SOON	false		
111-6097962-8224216	03333311986474	2020-10-14T22:18:07+00:00	2020-10-14T15:18:07-07:00	2020-10-14T22:47:03+00:00	2020-10-17T06:59:59+00:00	-2	1803jp8k65vcv44@marketplace.amazon.com	Kay Kobe	+1 929-436-4790 ext. 31003	ABR004	Delivery by Friday | Arabella Farm Direct Bouquet of 12 Fresh Cut Yellow Roses with a Free Glass Vase	1	0	1	Expedited	Leah RothPOLeah	1202 IBERVILLE DR			OCEAN SPRINGS	MS	39564-2924	US		Get well girl - we've got fun times to make!!! Love you to pieces :) From Kay, Lynnoa, Caty, Bryan	true	Leah	
112-8319587-4056213	02636786901770	2020-10-14T22:31:21+00:00	2020-10-14T15:31:21-07:00	2020-10-14T22:59:27+00:00	2020-10-17T06:59:59+00:00	-2	cz88t0l6qq3xdf9@marketplace.amazon.com	Kathy Cooper	+1 480-618-5344 ext. 00993	ABR0022	Delivery by Friday | Arabella Farm Direct Bouquet of 12 Fresh Cut Pink Roses with a Free Glass Vase	1	0	1	Standard	Sandra Cooper	3135 FROST AVE			CHINO HILLS	CA	91709-2405	US		With our love to you all. Mrs Lewis is in the hands of the lord From Kathy & Rodney Cooper	false		
113-3513807-7951443	10818945379514	2020-10-14T22:33:48+00:00	2020-10-14T15:33:48-07:00	2020-10-14T23:00:36+00:00	2020-10-17T06:59:59+00:00	-2	nrwvjx5j9g2qnv0@marketplace.amazon.com	Jane Stout	+1 929-436-4790 ext. 00303	ABR0022	Delivery by Friday | Arabella Farm Direct Bouquet of 12 Fresh Cut Pink Roses with a Free Glass Vase	1	0	1	Expedited	Charlotte Dickinson	14957 S AURORA VISTA DR			HERRIMAN	UT	84096-3873	US		Melinda, Get better fast! So happy your mom is a nurse who takes good care of you. Better days are ahead. Much love to you. From Grandma & Grandpa Stout	false		
112-1826648-0605842	26198180472074	2020-10-14T22:40:25+00:00	2020-10-14T15:40:25-07:00	2020-10-14T23:10:30+00:00	2020-10-17T06:59:59+00:00	-2	8xny2s14zgr0m7r@marketplace.amazon.com	George Affe	+1 480-618-5344 ext. 38167	ABR0055	Delivery by Friday | Arabella Farm Direct Bouquet of 12 Stems of Fresh Cut Hot Pink Roses in a Free Designer Glass Vase	1	0	1	Expedited	Irina Belyaeva	13063 WALLICH WAY			GERMANTOWN	MD	20874-1887	US			false		
112-9186979-2485852	63901132961066	2020-10-14T22:47:16+00:00	2020-10-14T15:47:16-07:00	2020-10-14T23:13:00+00:00	2020-10-17T06:59:59+00:00	-2	qn7tgsm9l0djkxb@marketplace.amazon.com	Tracey	+1 929-436-4790 ext. 81244	ABR0022	Delivery by Friday | Arabella Farm Direct Bouquet of 12 Fresh Cut Pink Roses with a Free Glass Vase	1	0	1	Expedited	Jeanette Denyes, Marlette Extended Care	2770 MAIN ST ROOM # 2			MARLETTE	MI	48453-1141	US		Happy Very Special Birthday! From Tracey & Joe From Tracey & Joe	false		
113-4322127-7235458	02621314188066	2020-10-14T23:04:04+00:00	2020-10-14T16:04:04-07:00	2020-10-14T23:29:41+00:00	2020-10-17T06:59:59+00:00	-2	dx2tzh0nwwwz62y@marketplace.amazon.com	Gabriela Kackley	+1 619-854-2705 ext. 53557	ABR0022	Delivery by Friday | Arabella Farm Direct Bouquet of 12 Fresh Cut Pink Roses with a Free Glass Vase	1	0	1	Expedited	Levrier Howell	746 N RABB RD			LA FERIA	TX	78559-6204	US		Happy birthday Lev, I am so thankful for your friendship and cant wait to hug you soon:) Proud and honored to know such an amazing woman xoxi From Gaby	false		
112-3150642-6931406	43488494479794	2020-10-14T23:30:49+00:00	2020-10-14T16:30:49-07:00	2020-10-14T23:57:55+00:00	2020-10-17T06:59:59+00:00	-2	fk9wkcpmmtn7rhx@marketplace.amazon.com	Kevin	+1 619-854-2705 ext. 21446	ABR0022	Delivery by Friday | Arabella Farm Direct Bouquet of 12 Fresh Cut Pink Roses with a Free Glass Vase	1	0	1	Expedited	Kevin	99 NORTH RD			EDEN MILLS	VT	05653-9734	US		Enjoy your gift! Thank You So Much For All That You Do Without You It Could Not Have Been Done Love Always Logan And Kevin From Kevin	false		
112-3461676-0949861	10295802679178	2020-10-14T23:57:43+00:00	2020-10-14T16:57:43-07:00	2020-10-15T00:15:16+00:00	2020-10-17T06:59:59+00:00	-2	vk7g6m7nky55c3d@marketplace.amazon.com	Alay Tsige	+1 480-618-5344 ext. 38992	ABR001	Delivery by Friday | Arabella Bouquets 12 Stems of Fresh Cut Red Roses in a Free Designer Glass Vase	1	0	1	Expedited	Muna I maruf.	17902 110TH PL SE			RENTON	WA	98055-6562	US			false		
112-1555775-9672211	63826856861426	2020-10-14T23:49:20+00:00	2020-10-14T16:49:20-07:00	2020-10-15T00:19:47+00:00	2020-10-17T06:59:59+00:00	-2	phby9m723xq9grf@marketplace.amazon.com	Michael Strickland	+1 619-854-2705 ext. 29385	ABR001	Delivery by Friday | Arabella Bouquets 12 Stems of Fresh Cut Red Roses in a Free Designer Glass Vase	1	0	1	Expedited	Michael Strickland	205 S WILKINSON DR			SAINT PAULS	NC	28384-1464	US			false		
111-6179681-5441814	35870704963714	2020-10-14T23:57:14+00:00	2020-10-14T16:57:14-07:00	2020-10-15T00:22:18+00:00	2020-10-17T06:59:59+00:00	-2	x1jj68250p45wb5@marketplace.amazon.com	Katrina Oppelt	+1 602-671-6610 ext. 82467	ABR0055	Delivery by Friday | Arabella Farm Direct Bouquet of 12 Stems of Fresh Cut Hot Pink Roses in a Free Designer Glass Vase	1	0	1	Expedited	Michelle K Feldstein	32219 CUTTING HORSE LN			POLSON	MT	59860-7584	US		Happy Birthday Mom!  We'll celebrate again when we get there.  Love ya lots!! From Oppelt Family	false		
111-0704673-3711422	13744105939954	2020-10-15T00:03:17+00:00	2020-10-14T17:03:17-07:00	2020-10-15T00:26:21+00:00	2020-10-17T06:59:59+00:00	-2	0yqnpplxj2sxk13@marketplace.amazon.com	Suad	+1 480-618-5344 ext. 42927	ABM022	Delivery by Friday | Purple Extravagance Bouquet by Arabella Bouquets	1	0	1	Expedited	Suad Romodan Osman	756 NEWTON PL NW			WASHINGTON	DC	20010-1514	US		Happy Birthday!!! From Suad	false		
114-7557567-9057831	61074163381474	2020-10-14T23:58:34+00:00	2020-10-14T16:58:34-07:00	2020-10-15T00:27:52+00:00	2020-10-17T06:59:59+00:00	-2	j4r2lvwh5ksxvfw@marketplace.amazon.com	Saundra Crellin	+1 213-442-1463 ext. 20503	ABR0055	Delivery by Friday | Arabella Farm Direct Bouquet of 12 Stems of Fresh Cut Hot Pink Roses in a Free Designer Glass Vase	1	0	1	Expedited	Terry Sue	Vick	6 Inwood Knoll		San Antonio	TX	78248	US		Happy birthday to my beautiful friend! I hope your day is magnificent, and blooms with joy - miss you much From Sandee Crellin	false		
111-8973175-7700229	45704764983250	2020-10-15T00:06:00+00:00	2020-10-14T17:06:00-07:00	2020-10-15T00:34:30+00:00	2020-10-17T06:59:59+00:00	-2	yhgs6ccld0ryhqc@marketplace.amazon.com	Megan	+1 480-618-5344 ext. 91513	ABM022	Delivery by Friday | Purple Extravagance Bouquet by Arabella Bouquets	1	0	1	Expedited	Heidi Welch	42 FARMBROOK DR			LEVITTOWN	PA	19055-2101	US		We hope you feel better soon! Love, The Cervantes Family From Megan	false		
111-6352196-5404208	15055670750162	2020-10-15T00:44:34+00:00	2020-10-14T17:44:34-07:00	2020-10-15T01:13:13+00:00	2020-10-17T06:59:59+00:00	-2	nmr8r7926zlqxm8@marketplace.amazon.com	Michelle Felice	+1 415-851-9136 ext. 57835	ABR0022	Delivery by Friday | Arabella Farm Direct Bouquet of 12 Fresh Cut Pink Roses with a Free Glass Vase	1	0	1	Expedited	Randy Walker	415 HARBOR LAKE DR			DOUGLAS	MI	49406-5217	US			false		
114-2570039-2829832	17838031481466	2020-10-15T01:29:22+00:00	2020-10-14T18:29:22-07:00	2020-10-15T01:30:19+00:00	2020-10-17T06:59:59+00:00	-2	v7t90xrlnt7d2ht@marketplace.amazon.com	Paul Harris	+1 213-442-1463 ext. 29261	ABR0022	Delivery by Friday | Arabella Farm Direct Bouquet of 12 Fresh Cut Pink Roses with a Free Glass Vase	1	0	1	Expedited	Reagan Fast	40 WINDHAM LN			GRAND ISLAND	NY	14072-1974	US		Dear Reagan,  Happiest Birthday. My sixteen words to you- I chose Pink roses , I notice kindness in pink. Quiet Reagan, Kindness I see In you! From Ryan	false		
111-9825228-2729841	05381852982250	2020-10-15T01:19:22+00:00	2020-10-14T18:19:22-07:00	2020-10-15T01:42:11+00:00	2020-10-17T06:59:59+00:00	-2	v8lkgjvrls15qfv@marketplace.amazon.com	Joe Martinez	+1 929-436-4790 ext. 71802	ABR0022	Delivery by Friday | Arabella Farm Direct Bouquet of 12 Fresh Cut Pink Roses with a Free Glass Vase	1	0	1	Expedited	Joe Martinez	14602 S 33RD ST			PHOENIX	AZ	85044-7008	US		Happy 33rd Anniversary! Wish we were together to celebrate. I love you. From Joe Martinez	false		
111-0863171-3084223	12371543698850	2020-10-15T01:24:24+00:00	2020-10-14T18:24:24-07:00	2020-10-15T01:54:38+00:00	2020-10-17T06:59:59+00:00	-2	zlbj11z2kj29g14@marketplace.amazon.com	Stephanie L. Moore	+1 929-436-4790 ext. 17660	ABR013	Delivery by Monday | Arabella Farm Direct Bouquet of 18 Fresh Cut Yellow Roses with a Free Glass Vase	1	0	1	Expedited	Stephanie Lynn Moore	23095 SHADY MILE DR			CALIFORNIA	MD	20619-4211	US			false		
113-3744671-1576220	65693146164978	2020-10-15T01:27:38+00:00	2020-10-14T18:27:38-07:00	2020-10-15T01:56:18+00:00	2020-10-17T06:59:59+00:00	-2	ymjsn1998g39yb3@marketplace.amazon.com	Steven	+1 929-436-4790 ext. 43516	ABR0055	Delivery by Friday | Arabella Farm Direct Bouquet of 12 Stems of Fresh Cut Hot Pink Roses in a Free Designer Glass Vase	1	0	1	Expedited	Kim Williams	2257 EARLY ROBIN DR			DENVER	NC	28037-0369	US		Happy Birthday, Mom!!! From Matthew and Christina	false		
112-5899737-2955420	68769255102242	2020-10-15T01:37:06+00:00	2020-10-14T18:37:06-07:00	2020-10-15T02:05:37+00:00	2020-10-17T06:59:59+00:00	-2	0y902q15qps649w@marketplace.amazon.com	Stu	+1 929-436-4790 ext. 78302	ABR012	Delivery by Monday | Arabella Farm Direct Bouquet of 18 Fresh Cut Pink Roses with a Free Glass Vase	1	0	1	Expedited	Stuart Tomisaka	787 SANTA CHRISTINA CT			SUNNYVALE	CA	94085-3052	US		To Lisa, not in time for your b-day but hope they make you show your incredible smile. From Stu	false		
114-8747495-8421839	53771427725746	2020-10-15T01:42:58+00:00	2020-10-14T18:42:58-07:00	2020-10-15T02:10:01+00:00	2020-10-17T06:59:59+00:00	-2	71g8xx9l1snly9b@marketplace.amazon.com	Jeffery L Morrow	+1 619-854-2705 ext. 97692	ABM022	Delivery by Friday | Purple Extravagance Bouquet by Arabella Bouquets	1	0	1	Expedited	Corbyn Pool	13274 GREENWELL LN			CALDWELL	ID	83607-7732	US		Happy birthday! From Micah Morrow	false		
114-7768516-0893060	05862736355178	2020-10-15T01:44:41+00:00	2020-10-14T18:44:41-07:00	2020-10-15T02:10:21+00:00	2020-10-17T06:59:59+00:00	-2	vvqvrghbb2183c1@marketplace.amazon.com	James A. Grant	+1 415-851-9136 ext. 70727	ABM022	Delivery by Friday | Purple Extravagance Bouquet by Arabella Bouquets	1	0	1	Expedited	James A. Grant	700 DUNWOODY RD APT 726			WINSTON SALEM	NC	27127-5086	US		Happy Anniversary!! From Mia and Ashley Grant	false		
111-4643437-1480265	25863716905666	2020-10-15T01:47:44+00:00	2020-10-14T18:47:44-07:00	2020-10-15T02:18:27+00:00	2020-10-17T06:59:59+00:00	-2	pgz8k7csw94dzsl@marketplace.amazon.com	Almightyjo	+1 213-442-1463 ext. 01705	ABR001	Delivery by Friday | Arabella Bouquets 12 Stems of Fresh Cut Red Roses in a Free Designer Glass Vase	1	0	1	Expedited	Patrice King	3336 BROKEN BRANCH CT APT 110			SACRAMENTO	CA	95834-1812	US			false		
112-8002958-5520235	19792401402898	2020-10-15T02:05:38+00:00	2020-10-14T19:05:38-07:00	2020-10-15T02:27:43+00:00	2020-10-17T06:59:59+00:00	-2	f4f6l3l5jw58dmj@marketplace.amazon.com	Lizabeth Main	+1 619-854-2705 ext. 44204	ABR001	Delivery by Friday | Arabella Bouquets 12 Stems of Fresh Cut Red Roses in a Free Designer Glass Vase	1	0	1	Expedited	Luperfina Fussa	1042 AUDUBON DR			LAKELAND	FL	33809-4606	US		Feliz Cumpleanos!  Te queremos mucho. From Lizzie y Familia	false		
112-5638531-9504244	26071440621898	2020-10-15T02:04:33+00:00	2020-10-14T19:04:33-07:00	2020-10-15T02:32:43+00:00	2020-10-17T06:59:59+00:00	-2	pd08f5lf58tb9lz@marketplace.amazon.com	Kelly	+1 619-854-2705 ext. 43721	ABR0022	Delivery by Friday | Arabella Farm Direct Bouquet of 12 Fresh Cut Pink Roses with a Free Glass Vase	1	0	1	Expedited	Vicky Flores	3751 EVE CIR APT A			JURUPA VALLEY	CA	91752-1229	US		Happy Birthday Comade 💖 I Love & Misss You Muchos! Enjoy Your Special Day. From Kelly	false		
111-1627283-0004228	42872700457570	2020-10-15T02:14:22+00:00	2020-10-14T19:14:22-07:00	2020-10-15T02:40:26+00:00	2020-10-17T06:59:59+00:00	-2	ysc34tn2813y562@marketplace.amazon.com	Jessica Anne Coy	+1 619-854-2705 ext. 15518	ABM010	Delivery by Friday | The Spring Fling Bouquet by Arabella Bouquets with a Free Designer Glass Vase	1	0	1	Expedited	Corri Ellis	1514 18TH ST			OREGON CITY	OR	97045-1783	US		To my friend Corri who is always there when I need her. I hope these cheer you up. Thinking of you! Jessica Coy From Jessica Coy	false		
112-5250764-7629810	13085859336338	2020-10-15T02:14:59+00:00	2020-10-14T19:14:59-07:00	2020-10-15T02:45:00+00:00	2020-10-17T06:59:59+00:00	-2	12wt5bxykbq54cl@marketplace.amazon.com	Debra gonzalez	+1 602-671-6610 ext. 61772	ABR0033	Delivery by Friday | Arabella Farm Direct Bouquet of 12 Fresh Cut Orange Roses with a Free Glass Vase	1	0	1	Expedited	Debra gonzalez	600 ASH ST			WINNETKA	IL	60093-2661	US			false		
112-5250764-7629810	47678558213642	2020-10-15T02:14:59+00:00	2020-10-14T19:14:59-07:00	2020-10-15T02:45:00+00:00	2020-10-17T06:59:59+00:00	-2	12wt5bxykbq54cl@marketplace.amazon.com	Debra gonzalez	+1 602-671-6610 ext. 61772	ABR0022	Delivery by Friday | Arabella Farm Direct Bouquet of 12 Fresh Cut Pink Roses with a Free Glass Vase	1	0	1	Expedited	Debra gonzalez	600 ASH ST			WINNETKA	IL	60093-2661	US			false		
112-5250764-7629810	11236668398498	2020-10-15T02:14:59+00:00	2020-10-14T19:14:59-07:00	2020-10-15T02:45:00+00:00	2020-10-17T06:59:59+00:00	-2	12wt5bxykbq54cl@marketplace.amazon.com	Debra gonzalez	+1 602-671-6610 ext. 61772	ABR0066	Delivery by Friday | Arabella Bouquets 12 Stems of Fresh Cut White Roses in a Free Designer Glass Vase	1	0	1	Expedited	Debra gonzalez	600 ASH ST			WINNETKA	IL	60093-2661	US			false		
111-5444893-3893051	31466003302762	2020-10-15T02:22:10+00:00	2020-10-14T19:22:10-07:00	2020-10-15T02:47:34+00:00	2020-10-17T06:59:59+00:00	-2	069njvk2b2dtgn4@marketplace.amazon.com	Angela C Haist-Bowen	+1 602-671-6610 ext. 42138	ABR0022	Delivery by Friday | Arabella Farm Direct Bouquet of 12 Fresh Cut Pink Roses with a Free Glass Vase	1	0	1	Expedited	Karen Woods	19 PARKRIDGE DR			BATTLE CREEK	MI	49037-2028	US		Thanks so much for all your help in buying our new vacation home! From Ed and Angie Bowen	false		
112-9020119-9050617	35097181194210	2020-10-15T02:53:23+00:00	2020-10-14T19:53:23-07:00	2020-10-15T03:21:35+00:00	2020-10-17T06:59:59+00:00	-2	7dsv7lgx022z4n8@marketplace.amazon.com	JoAnn vonNormann	+1 480-618-5344 ext. 04371	ABM010	Delivery by Friday | The Spring Fling Bouquet by Arabella Bouquets with a Free Designer Glass Vase	1	0	1	Expedited	Carolyn Cofield	1415 Mountain View Drive			Corona	CA	92881	US		Carolyn- Sending you love, prayers, and happiness. From Your sister-Pauline  :):)	false		
113-4750678-4033055	01962728917778	2020-10-15T02:55:05+00:00	2020-10-14T19:55:05-07:00	2020-10-15T03:24:57+00:00	2020-10-17T06:59:59+00:00	-2	0wcw27xxd7yl329@marketplace.amazon.com	Sarah J Balkin	+1 213-442-1463 ext. 39321	ABR0033	Delivery by Friday | Arabella Farm Direct Bouquet of 12 Fresh Cut Orange Roses with a Free Glass Vase	1	0	1	Expedited	Deedee Rescher	45 ESPERANZA AVE			LONG BEACH	CA	90802-5702	US		Sending love and healing to you, Aunt Deedles. Love, Sarah From Sarah J Balkin	false		
111-8987903-5838662	58119613730426	2020-10-15T02:57:34+00:00	2020-10-14T19:57:34-07:00	2020-10-15T03:26:50+00:00	2020-10-17T06:59:59+00:00	-2	l1fzd1y4kgsd7hg@marketplace.amazon.com	marques pagan	+1 213-442-1463 ext. 22080	ABR0055	Delivery by Friday | Arabella Farm Direct Bouquet of 12 Stems of Fresh Cut Hot Pink Roses in a Free Designer Glass Vase	1	0	1	Expedited	marques pagan	607 CHABLIS WAY			WILMINGTON	NC	28411-8754	US		Happy Birthday Millie Munchkin! From Love Grandma	false		
114-4983225-8050601	03546192435994	2020-10-15T03:02:40+00:00	2020-10-14T20:02:40-07:00	2020-10-15T03:32:06+00:00	2020-10-17T06:59:59+00:00	-2	ktdlrlkml9fjxqt@marketplace.amazon.com	Ana	+1 619-854-2705 ext. 81712	ABR0022	Delivery by Friday | Arabella Farm Direct Bouquet of 12 Fresh Cut Pink Roses with a Free Glass Vase	1	0	1	Expedited	Diane Lopez	127 EARL AVE			ROSEVILLE	CA	95678-3213	US		Happy birthday grandma. From Love you, Ricky and Alex	false		
112-0598271-8997040	64324165536562	2020-10-15T03:18:14+00:00	2020-10-14T20:18:14-07:00	2020-10-15T03:45:59+00:00	2020-10-17T06:59:59+00:00	-2	zv2cjx2q00jflv3@marketplace.amazon.com	johnny scharnweber	+1 619-854-2705 ext. 04183	ABR0022	Delivery by Friday | Arabella Farm Direct Bouquet of 12 Fresh Cut Pink Roses with a Free Glass Vase	1	0	1	Expedited	Karalynn Sprouse	3940 MYRTLE AVE			LONG BEACH	CA	90807-3518	US		I love you so much Sis! From johnny scharnweber	false		
114-8265698-1489865	25461353977242	2020-10-15T03:44:38+00:00	2020-10-14T20:44:38-07:00	2020-10-15T04:04:11+00:00	2020-10-17T06:59:59+00:00	-2	47p73q091r6t3sg@marketplace.amazon.com	Barbra reed	+1 480-618-5344 ext. 70206	ABM010	Delivery by Friday | The Spring Fling Bouquet by Arabella Bouquets with a Free Designer Glass Vase	1	0	1	Expedited	Annastasia     Mola	8 NORDEN PL APT 239			NORWALK	CT	06855-1466	US		Thinking about you and sending you big hugs.  Miss you and love you..  love, David, Barbra and Beau. Xoxo From Barbra reed	false		
112-7987228-8340244	50138183466834	2020-10-15T03:35:20+00:00	2020-10-14T20:35:20-07:00	2020-10-15T04:04:35+00:00	2020-10-17T06:59:59+00:00	-2	60hjb71py9yk2w2@marketplace.amazon.com	Aisha Davy	+1 602-671-6610 ext. 46654	ABR004	Delivery by Friday | Arabella Farm Direct Bouquet of 12 Fresh Cut Yellow Roses with a Free Glass Vase	1	0	1	Expedited	Sean Mc Kinney	748 GREENWAY MANOR DR APT 1			FLORISSANT	MO	63031-8910	US		U wanted to send something bright and amazing for u and your family for Ryan's Birthday! From Aisha Davy	false		
114-2949198-0397006	06649127371098	2020-10-15T03:57:11+00:00	2020-10-14T20:57:11-07:00	2020-10-15T04:17:58+00:00	2020-10-17T06:59:59+00:00	-2	6j9hc8278th411g@marketplace.amazon.com	Rebecca	+1 619-854-2705 ext. 40316	ABM022	Delivery by Friday | Purple Extravagance Bouquet by Arabella Bouquets	1	0	1	Expedited	Rebecca Mistretta	7608 164TH ST 2ND FLOOR			FRESH MEADOWS	NY	11366-1261	US		Happy Birthday! May god bless you with many good to come. Even though times are rough with us right now, No matter what your my best sister, always in my heart, I love you, and i wish you the best. Enjoy your special day! From Rebecca	false		
111-3420003-3601028	50053689951986	2020-10-15T04:25:17+00:00	2020-10-14T21:25:17-07:00	2020-10-15T04:47:06+00:00	2020-10-17T06:59:59+00:00	-2	hs3ry0fnwn2cbsn@marketplace.amazon.com	Todd Khozein	+1 602-671-6610 ext. 53249	ABR0022	Delivery by Friday | Arabella Farm Direct Bouquet of 12 Fresh Cut Pink Roses with a Free Glass Vase	1	0	1	Expedited	Ms. Tahereh Talebi	30017 CORTE SAN LUIS			TEMECULA	CA	92591-1923	US		Thank you for participating in the class, chanting prayers, bringing so much love and joy and writing your memories of the story of The Bab.  Love,  Nasim From Nasim Khozein	false		
111-9119106-7655446	17595677193226	2020-10-15T05:09:12+00:00	2020-10-14T22:09:12-07:00	2020-10-15T05:33:56+00:00	2020-10-17T06:59:59+00:00	-2	vfdz8l13rxnjg04@marketplace.amazon.com	Victoria Roe	+1 602-671-6610 ext. 56797	ABR0022	Delivery by Friday | Arabella Farm Direct Bouquet of 12 Fresh Cut Pink Roses with a Free Glass Vase	1	0	1	Expedited	Elena and Richie Johnson	4035 LANGNER AVE			SANTA ROSA	CA	95407-7791	US		Congratulations on having a daughter!!!!!   We love you! From Aunt Vicki and Aunt Deanna	false		
111-7136830-2857802	47479588608210	2020-10-15T05:33:42+00:00	2020-10-14T22:33:42-07:00	2020-10-15T06:03:08+00:00	2020-10-17T06:59:59+00:00	-2	ccnptmhjfj85ct3@marketplace.amazon.com	Carl Irwin	+1 415-851-9136 ext. 28018	ABR001	Delivery by Friday | Arabella Bouquets 12 Stems of Fresh Cut Red Roses in a Free Designer Glass Vase	1	0	1	Expedited	Carl Irwin	1006 7TH ST			WHITEHALL	PA	18052-5216	US			false		
113-0470245-8734648	52697613034994	2020-10-15T05:56:01+00:00	2020-10-14T22:56:01-07:00	2020-10-15T06:25:38+00:00	2020-10-17T06:59:59+00:00	-2	v6hmw3ctxz1wvk1@marketplace.amazon.com	Kimberly Aquino	+1 619-854-2705 ext. 90931	ABR0022	Delivery by Friday | Arabella Farm Direct Bouquet of 12 Fresh Cut Pink Roses with a Free Glass Vase	1	0	1	Expedited	Audrey Aquino	2581 FULTON SQUARE LN APT 71			SACRAMENTO	CA	95821-2390	US		Happy Birthday Ate! From Kim	false		
113-0795274-3067456	65327305193282	2020-10-15T06:05:36+00:00	2020-10-14T23:05:36-07:00	2020-10-15T06:31:42+00:00	2020-10-17T06:59:59+00:00	-2	d9jmq529z1snr6g@marketplace.amazon.com	Raymond Pyles	+1 602-671-6610 ext. 51684	ABR0033	Delivery by Friday | Arabella Farm Direct Bouquet of 12 Fresh Cut Orange Roses with a Free Glass Vase	1	0	1	Expedited	Tameika Richards	2029 4TH ST SE			CANTON	OH	44707-2974	US		Because you’re so special! SMILE .. Stop being so hard on yourself From Daddy Laflare	false		
114-8506953-0269825	30314855660258	2020-10-15T07:30:32+00:00	2020-10-15T00:30:32-07:00	2020-10-15T07:31:27+00:00	2020-10-17T06:59:59+00:00	-2	kpsz8ng85qx0sts@marketplace.amazon.com	esummers@frontlinemarketing.com	+1 213-442-1463 ext. 71150	ABR004	Delivery by Friday | Arabella Farm Direct Bouquet of 12 Fresh Cut Yellow Roses with a Free Glass Vase	1	0	1	Expedited	Jo-Ann Perini	308 BROOKFIELD DR UNIT C			MYRTLE BEACH	SC	29588-1363	US		You're my only mother & I'm your only child. 2020 has shown tomorrow isn't promised. My heart wouldn't feel right not wishing Happy Birthday to you. May you be blessed with every single thing you deserve today & all days. From Jillie-pot-pie	false		
