order-id	order-item-id	purchase-date	payments-date	reporting-date	promise-date	days-past-promise	buyer-email	buyer-name	buyer-phone-number	sku	product-name	quantity-purchased	quantity-shipped	quantity-to-ship	ship-service-level	recipient-name	ship-address-1	ship-address-2	ship-address-3	ship-city	ship-state	ship-postal-code	ship-country	gift-wrap-type	gift-message-text	is-business-order	purchase-order-number	price-designation
113-2483259-3825053	51031621230370	2020-10-14T18:14:00+00:00	2020-10-14T11:14:00-07:00	2020-10-14T18:38:12+00:00	2020-10-17T06:59:59+00:00	-2	10xnfzjvx434m3g@marketplace.amazon.com	Andrea McMurray	+1 619-854-2705 ext. 96856	ABM022	Delivery by Friday | Purple Extravagance Bouquet by Arabella Bouquets	1	0	1	Expedited	Polly Davila	14270 TARA ST			CALDWELL	ID	83607-1428	US		Enjoy your gift. Thank you so much for coming and helping, we would not have been able to pull this. Love you, sista! From Andrea and George McMurray	false		
112-1680658-2328206	21302969607930	2020-10-14T18:29:57+00:00	2020-10-14T11:29:57-07:00	2020-10-14T18:56:55+00:00	2020-10-17T06:59:59+00:00	-2	7dhl1pyzvbnhsdl@marketplace.amazon.com	peggallagher@comcast	+1 213-442-1463 ext. 78544	ABM021	Delivery by Monday | The Joyous Bouquet by Arabella Bouquets	1	0	1	Expedited	Julie Gallagher	5437 ZEPHYR CT			ARVADA	CO	80002-2496	US		Happy birthday to our beautiful Julie! Xxxooo - Mom and Dad From peggallagher@comcast	false		
112-6347691-9321810	44722766220674	2020-10-14T19:03:00+00:00	2020-10-14T12:03:00-07:00	2020-10-14T19:29:58+00:00	2020-10-17T06:59:59+00:00	-2	q98qn5cfvsq3z3p@marketplace.amazon.com	Jon	+1 929-436-4790 ext. 38029	ABM021	Delivery by Monday | The Joyous Bouquet by Arabella Bouquets	1	0	1	Expedited	Kat Gotsick	1619 W HOLLYWOOD AVE APT 1			CHICAGO	IL	60660-4025	US		Kat, We are so sad to hear about the passing of your dad. You and your family are in all of our thoughts and prayers during this season. We love you very much! From Your Csz Family	false		
112-3151029-1688249	52824058925018	2020-10-14T20:00:17+00:00	2020-10-14T13:00:17-07:00	2020-10-14T20:01:18+00:00	2020-10-17T06:59:59+00:00	-2	4rvbwdfs3yrj0fd@marketplace.amazon.com	stephen	+1 929-436-4790 ext. 41293	ABB011	Arabella Bouquets 24 Stems of Fresh Cut Hot Pink Roses in a Free Designer Glass Vase	1	0	1	Expedited	Barbara Moses	70 GREENE ST APT 2507			JERSEY CITY	NJ	07302-7599	US		My one and only tanta Bobbie! Happy early birthday. I couldn’t wait to share my love and happiness with you for reaching such a momentous milestone. May you continue to shine your light and love with all of us. We are blessed From Your nephew Stephen	false		
114-3048547-4607410	35754359126658	2020-10-14T20:09:08+00:00	2020-10-14T13:09:08-07:00	2020-10-14T20:31:39+00:00	2020-10-17T06:59:59+00:00	-2	lkn6lf9905vblwq@marketplace.amazon.com	Gary R Allen	+1 929-436-4790 ext. 18246	ABR001	Delivery by Friday | Arabella Bouquets 12 Stems of Fresh Cut Red Roses in a Free Designer Glass Vase	1	0	1	Expedited	Y. Underwood/Seattle Police HQ	6TH FLOOR DOMESTIC VIOLENCE	610 5TH AVE UNIT		SEATTLE	WA	98104-1900	US		Thanks LT for all of your hard work. We appreciate you! From The DV Unit	false		
114-8056664-7022651	65397962278194	2020-10-14T20:04:25+00:00	2020-10-14T13:04:25-07:00	2020-10-14T20:32:07+00:00	2020-10-17T06:59:59+00:00	-2	cck5dvfy5172gpd@marketplace.amazon.com	Paola	+1 619-854-2705 ext. 16845	ABR0066	Delivery by Friday | Arabella Bouquets 12 Stems of Fresh Cut White Roses in a Free Designer Glass Vase	1	0	1	Standard	Maria Gonzalez	21510 CHIRPING SPARROW RD			DIAMOND BAR	CA	91765-3758	US			false		
111-0953906-2315450	40900697473810	2020-10-14T21:23:06+00:00	2020-10-14T14:23:06-07:00	2020-10-14T21:52:10+00:00	2020-10-17T06:59:59+00:00	-2	nyfrjfdx1p1qw17@marketplace.amazon.com	Sabrina Stennis-Jefferson	+1 213-442-1463 ext. 78864	ABB007	Arabella Farm Direct Bouquet of 24 Fresh Cut Pink Roses with a Free Glass Vase	1	0	1	Expedited	Debbie Kelly McGill	401 LEAGUE RD			ROCKWALL	TX	75032-2629	US			false		
113-6471005-2521867	34942402092994	2020-10-14T21:39:02+00:00	2020-10-14T14:39:02-07:00	2020-10-14T22:05:11+00:00	2020-10-17T06:59:59+00:00	-2	rxq51n58bv22dbt@marketplace.amazon.com	AnnMargaret Palmer	+1 602-671-6610 ext. 54039	ABR0022	Delivery by Friday | Arabella Farm Direct Bouquet of 12 Fresh Cut Pink Roses with a Free Glass Vase	1	0	1	Expedited	Susan Lifke	HOGAN LOVELLS	1999 AVENUE OF THE STARS STE 1400		LOS ANGELES	CA	90067-6047	US		Boss Lady,  Happy Bosses Day to the Best Boss Ever!! Love you & miss you, From Ann Palmer	false		
113-1130350-1711432	45079824696946	2020-10-14T21:47:17+00:00	2020-10-14T14:47:17-07:00	2020-10-14T22:16:23+00:00	2020-10-17T06:59:59+00:00	-2	f1x3qbnmwk4grc2@marketplace.amazon.com	Alex Dovalina	+1 929-436-4790 ext. 58271	ABR0022	Delivery by Friday | Arabella Farm Direct Bouquet of 12 Fresh Cut Pink Roses with a Free Glass Vase	1	0	1	Expedited	Viviana Dovalina	1268 Scoville Ave			Pomona	California	91767	US			false		
111-0878846-3696216	48892762828050	2020-10-14T21:53:32+00:00	2020-10-14T14:53:32-07:00	2020-10-14T22:20:03+00:00	2020-10-17T06:59:59+00:00	-2	8z2jsj5p2wtzs98@marketplace.amazon.com	Alejandra Paola Arevalo	+1 929-436-4790 ext. 57170	ABR004	Delivery by Friday | Arabella Farm Direct Bouquet of 12 Fresh Cut Yellow Roses with a Free Glass Vase	1	0	1	Expedited	ROSA CAMACHO	13224 3RD ST			CHINO	CA	91710-4008	US			false		
111-9207349-6579401	08484441008946	2020-10-14T22:18:49+00:00	2020-10-14T15:18:49-07:00	2020-10-14T22:35:18+00:00	2020-10-17T06:59:59+00:00	-2	grs4fgh3bkv90gz@marketplace.amazon.com	Amy D. Moore	+1 929-436-4790 ext. 87166	ABM010	Delivery by Friday | The Spring Fling Bouquet by Arabella Bouquets with a Free Designer Glass Vase	1	0	1	Expedited	Anahid minans	7708 PASEO DEL REY APT 6			PLAYA DEL REY	CA	90293-8348	US		Dear Anahid Minans,  love from AMY and Wil GET WELL SOON	false		
111-6097962-8224216	03333311986474	2020-10-14T22:18:07+00:00	2020-10-14T15:18:07-07:00	2020-10-14T22:47:03+00:00	2020-10-17T06:59:59+00:00	-2	1803jp8k65vcv44@marketplace.amazon.com	Kay Kobe	+1 929-436-4790 ext. 31003	ABR004	Delivery by Friday | Arabella Farm Direct Bouquet of 12 Fresh Cut Yellow Roses with a Free Glass Vase	1	0	1	Expedited	Leah RothPOLeah	1202 IBERVILLE DR			OCEAN SPRINGS	MS	39564-2924	US		Get well girl - we've got fun times to make!!! Love you to pieces :) From Kay, Lynnoa, Caty, Bryan	true	Leah	
112-8319587-4056213	02636786901770	2020-10-14T22:31:21+00:00	2020-10-14T15:31:21-07:00	2020-10-14T22:59:27+00:00	2020-10-17T06:59:59+00:00	-2	cz88t0l6qq3xdf9@marketplace.amazon.com	Kathy Cooper	+1 480-618-5344 ext. 00993	ABR0022	Delivery by Friday | Arabella Farm Direct Bouquet of 12 Fresh Cut Pink Roses with a Free Glass Vase	1	0	1	Standard	Sandra Cooper	3135 FROST AVE			CHINO HILLS	CA	91709-2405	US		With our love to you all. Mrs Lewis is in the hands of the lord From Kathy & Rodney Cooper	false		
113-3513807-7951443	10818945379514	2020-10-14T22:33:48+00:00	2020-10-14T15:33:48-07:00	2020-10-14T23:00:36+00:00	2020-10-17T06:59:59+00:00	-2	nrwvjx5j9g2qnv0@marketplace.amazon.com	Jane Stout	+1 929-436-4790 ext. 00303	ABR0022	Delivery by Friday | Arabella Farm Direct Bouquet of 12 Fresh Cut Pink Roses with a Free Glass Vase	1	0	1	Expedited	Charlotte Dickinson	14957 S AURORA VISTA DR			HERRIMAN	UT	84096-3873	US		Melinda, Get better fast! So happy your mom is a nurse who takes good care of you. Better days are ahead. Much love to you. From Grandma & Grandpa Stout	false		
112-9186979-2485852	63901132961066	2020-10-14T22:47:16+00:00	2020-10-14T15:47:16-07:00	2020-10-14T23:13:00+00:00	2020-10-17T06:59:59+00:00	-2	qn7tgsm9l0djkxb@marketplace.amazon.com	Tracey	+1 929-436-4790 ext. 81244	ABR0022	Delivery by Friday | Arabella Farm Direct Bouquet of 12 Fresh Cut Pink Roses with a Free Glass Vase	1	0	1	Expedited	Jeanette Denyes, Marlette Extended Care	2770 MAIN ST ROOM # 2			MARLETTE	MI	48453-1141	US		Happy Very Special Birthday! From Tracey & Joe From Tracey & Joe	false		
113-4322127-7235458	02621314188066	2020-10-14T23:04:04+00:00	2020-10-14T16:04:04-07:00	2020-10-14T23:29:41+00:00	2020-10-17T06:59:59+00:00	-2	dx2tzh0nwwwz62y@marketplace.amazon.com	Gabriela Kackley	+1 619-854-2705 ext. 53557	ABR0022	Delivery by Friday | Arabella Farm Direct Bouquet of 12 Fresh Cut Pink Roses with a Free Glass Vase	1	0	1	Expedited	Levrier Howell	746 N RABB RD			LA FERIA	TX	78559-6204	US		Happy birthday Lev, I am so thankful for your friendship and cant wait to hug you soon:) Proud and honored to know such an amazing woman xoxi From Gaby	false		
111-6179681-5441814	35870704963714	2020-10-14T23:57:14+00:00	2020-10-14T16:57:14-07:00	2020-10-15T00:22:18+00:00	2020-10-17T06:59:59+00:00	-2	x1jj68250p45wb5@marketplace.amazon.com	Katrina Oppelt	+1 602-671-6610 ext. 82467	ABR0055	Delivery by Friday | Arabella Farm Direct Bouquet of 12 Stems of Fresh Cut Hot Pink Roses in a Free Designer Glass Vase	1	0	1	Expedited	Michelle K Feldstein	32219 CUTTING HORSE LN			POLSON	MT	59860-7584	US		Happy Birthday Mom!  We'll celebrate again when we get there.  Love ya lots!! From Oppelt Family	false		
111-0863171-3084223	12371543698850	2020-10-15T01:24:24+00:00	2020-10-14T18:24:24-07:00	2020-10-15T01:54:38+00:00	2020-10-17T06:59:59+00:00	-2	zlbj11z2kj29g14@marketplace.amazon.com	Stephanie L. Moore	+1 929-436-4790 ext. 17660	ABR013	Delivery by Monday | Arabella Farm Direct Bouquet of 18 Fresh Cut Yellow Roses with a Free Glass Vase	1	0	1	Expedited	Stephanie Lynn Moore	23095 SHADY MILE DR			CALIFORNIA	MD	20619-4211	US			false		
112-5899737-2955420	68769255102242	2020-10-15T01:37:06+00:00	2020-10-14T18:37:06-07:00	2020-10-15T02:05:37+00:00	2020-10-17T06:59:59+00:00	-2	0y902q15qps649w@marketplace.amazon.com	Stu	+1 929-436-4790 ext. 78302	ABR012	Delivery by Monday | Arabella Farm Direct Bouquet of 18 Fresh Cut Pink Roses with a Free Glass Vase	1	0	1	Expedited	Stuart Tomisaka	787 SANTA CHRISTINA CT			SUNNYVALE	CA	94085-3052	US		To Lisa, not in time for your b-day but hope they make you show your incredible smile. From Stu	false		
114-8747495-8421839	53771427725746	2020-10-15T01:42:58+00:00	2020-10-14T18:42:58-07:00	2020-10-15T02:10:01+00:00	2020-10-17T06:59:59+00:00	-2	71g8xx9l1snly9b@marketplace.amazon.com	Jeffery L Morrow	+1 619-854-2705 ext. 97692	ABM022	Delivery by Friday | Purple Extravagance Bouquet by Arabella Bouquets	1	0	1	Expedited	Corbyn Pool	13274 GREENWELL LN			CALDWELL	ID	83607-7732	US		Happy birthday! From Micah Morrow	false		
112-8002958-5520235	19792401402898	2020-10-15T02:05:38+00:00	2020-10-14T19:05:38-07:00	2020-10-15T02:27:43+00:00	2020-10-17T06:59:59+00:00	-2	f4f6l3l5jw58dmj@marketplace.amazon.com	Lizabeth Main	+1 619-854-2705 ext. 44204	ABR001	Delivery by Friday | Arabella Bouquets 12 Stems of Fresh Cut Red Roses in a Free Designer Glass Vase	1	0	1	Expedited	Luperfina Fussa	1042 AUDUBON DR			LAKELAND	FL	33809-4606	US		Feliz Cumpleanos!  Te queremos mucho. From Lizzie y Familia	false		
112-5638531-9504244	26071440621898	2020-10-15T02:04:33+00:00	2020-10-14T19:04:33-07:00	2020-10-15T02:32:43+00:00	2020-10-17T06:59:59+00:00	-2	pd08f5lf58tb9lz@marketplace.amazon.com	Kelly	+1 619-854-2705 ext. 43721	ABR0022	Delivery by Friday | Arabella Farm Direct Bouquet of 12 Fresh Cut Pink Roses with a Free Glass Vase	1	0	1	Expedited	Vicky Flores	3751 EVE CIR APT A			JURUPA VALLEY	CA	91752-1229	US		Happy Birthday Comade 💖 I Love & Misss You Muchos! Enjoy Your Special Day. From Kelly	false		
112-9020119-9050617	35097181194210	2020-10-15T02:53:23+00:00	2020-10-14T19:53:23-07:00	2020-10-15T03:21:35+00:00	2020-10-17T06:59:59+00:00	-2	7dsv7lgx022z4n8@marketplace.amazon.com	JoAnn vonNormann	+1 480-618-5344 ext. 04371	ABM010	Delivery by Friday | The Spring Fling Bouquet by Arabella Bouquets with a Free Designer Glass Vase	1	0	1	Expedited	Carolyn Cofield	1415 Mountain View Drive			Corona	CA	92881	US		Carolyn- Sending you love, prayers, and happiness. From Your sister-Pauline  :):)	false		
113-4750678-4033055	01962728917778	2020-10-15T02:55:05+00:00	2020-10-14T19:55:05-07:00	2020-10-15T03:24:57+00:00	2020-10-17T06:59:59+00:00	-2	0wcw27xxd7yl329@marketplace.amazon.com	Sarah J Balkin	+1 213-442-1463 ext. 39321	ABR0033	Delivery by Friday | Arabella Farm Direct Bouquet of 12 Fresh Cut Orange Roses with a Free Glass Vase	1	0	1	Expedited	Deedee Rescher	45 ESPERANZA AVE			LONG BEACH	CA	90802-5702	US		Sending love and healing to you, Aunt Deedles. Love, Sarah From Sarah J Balkin	false		
112-0598271-8997040	64324165536562	2020-10-15T03:18:14+00:00	2020-10-14T20:18:14-07:00	2020-10-15T03:45:59+00:00	2020-10-17T06:59:59+00:00	-2	zv2cjx2q00jflv3@marketplace.amazon.com	johnny scharnweber	+1 619-854-2705 ext. 04183	ABR0022	Delivery by Friday | Arabella Farm Direct Bouquet of 12 Fresh Cut Pink Roses with a Free Glass Vase	1	0	1	Expedited	Karalynn Sprouse	3940 MYRTLE AVE			LONG BEACH	CA	90807-3518	US		I love you so much Sis! From johnny scharnweber	false		
111-3420003-3601028	50053689951986	2020-10-15T04:25:17+00:00	2020-10-14T21:25:17-07:00	2020-10-15T04:47:06+00:00	2020-10-17T06:59:59+00:00	-2	hs3ry0fnwn2cbsn@marketplace.amazon.com	Todd Khozein	+1 602-671-6610 ext. 53249	ABR0022	Delivery by Friday | Arabella Farm Direct Bouquet of 12 Fresh Cut Pink Roses with a Free Glass Vase	1	0	1	Expedited	Ms. Tahereh Talebi	30017 CORTE SAN LUIS			TEMECULA	CA	92591-1923	US		Thank you for participating in the class, chanting prayers, bringing so much love and joy and writing your memories of the story of The Bab.  Love,  Nasim From Nasim Khozein	false		
112-9647748-8111440	42279301814018	2020-10-15T07:10:13+00:00	2020-10-15T00:10:13-07:00	2020-10-15T07:33:43+00:00	2020-10-20T06:59:59+00:00	-5	p49vm1p222vzbvl@marketplace.amazon.com	Debbie Myers	+1 602-671-6610 ext. 06874	ABR001	Delivery by Friday | Arabella Bouquets 12 Stems of Fresh Cut Red Roses in a Free Designer Glass Vase	1	0	1	Expedited	Shae Gamble	605 S 50TH PL H RENTON WA 98055			RENTON	WA	98055-8310	US		Happy Birthday Shae... From Debbie and Dennis Myers	false		
112-9824960-1081852	70003309245170	2020-10-15T09:29:48+00:00	2020-10-15T02:29:48-07:00	2020-10-15T09:56:46+00:00	2020-10-20T06:59:59+00:00	-5	hbmnjjvb4bj8fc5@marketplace.amazon.com	sharon lams	+1 213-442-1463 ext. 40062	ABM020	Delivery by Friday | The Sunset Bouquet by Arabella Bouquets	1	0	1	Expedited	Mrs K Lams	3051 OLD HILLSBORO RD			FRANKLIN	TN	37064-9544	US		Dear Mama and Portly Thinking of you both and sending all our love Teddy and Sharon xx From sharon lams	false		
112-2037509-2055412	07369613056090	2020-10-15T10:58:40+00:00	2020-10-15T03:58:40-07:00	2020-10-15T11:20:46+00:00	2020-10-20T06:59:59+00:00	-5	dg460yd2mtdmgws@marketplace.amazon.com	Lois McGrane	+1 213-442-1463 ext. 87058	ABM020	Delivery by Friday | The Sunset Bouquet by Arabella Bouquets	1	0	1	Expedited	Tina Neumiller	32801 east 147th street			Brighton	Colorado	80603	US		Deepest sympathy Love Lois Quincy and Bella 🐾 From Lois McGrane	false		
112-2547773-5639420	05641572277298	2020-10-15T13:07:36+00:00	2020-10-15T06:07:36-07:00	2020-10-15T13:27:37+00:00	2020-10-20T06:59:59+00:00	-5	d4z8x2tmk50ngk0@marketplace.amazon.com	paul johnson	+1 619-854-2705 ext. 47063	ABR012	Delivery by Monday | Arabella Farm Direct Bouquet of 18 Fresh Cut Pink Roses with a Free Glass Vase	1	0	1	Expedited	Joanne K. Hawk	3308 N STONEHOUSE DR			PORT CLINTON	OH	43452-9702	US		Dearest Jodi, Happy Birthday to YOU!!! We are so sad we couldn't be with you on your special day, but we love you and pray your Birthday was perfect! Enjoy!! From Love and Blessings, Amy & Paul	false		
114-8910652-6269010	07374990628122	2020-10-15T14:07:46+00:00	2020-10-15T07:07:46-07:00	2020-10-15T14:34:32+00:00	2020-10-20T06:59:59+00:00	-5	g8x9tt3zh5djllr@marketplace.amazon.com	Meredith Vry	+1 213-442-1463 ext. 53038	ABM026	Delivery by Monday | The Amour Bouquet by Arabella Bouquets	1	0	1	Expedited	Jennie Liu	433 PRUDDEN LN			ORANGE	CT	06477-2325	US		Happy birthday! From Peep and Dad	false		
111-1156423-2020259	34142156585946	2020-10-15T14:33:04+00:00	2020-10-15T07:33:04-07:00	2020-10-15T14:57:13+00:00	2020-10-20T06:59:59+00:00	-5	81s6sdjqtw49g79@marketplace.amazon.com	Paula Frazier	+1 602-671-6610 ext. 25321	ABR0055	Delivery by Friday | Arabella Farm Direct Bouquet of 12 Stems of Fresh Cut Hot Pink Roses in a Free Designer Glass Vase	1	0	1	Expedited	Allene Clark	28807 BASELINE ST RM 216			HIGHLAND	CA	92346-5019	US		HAPPY BIRTHDAY, sweet Aunt!  We love you & miss you SO very much! From Paula & Jeff From Paula & Jeff	false		
112-0181578-6249870	12167166184554	2020-10-15T14:40:37+00:00	2020-10-15T07:40:37-07:00	2020-10-15T15:04:03+00:00	2020-10-20T06:59:59+00:00	-5	q23qr95t37skcmt@marketplace.amazon.com	Kevin Harkey	+1 619-854-2705 ext. 26256	ABR001	Delivery by Friday | Arabella Bouquets 12 Stems of Fresh Cut Red Roses in a Free Designer Glass Vase	1	0	1	Expedited	Becky Musgrave	532 MARINER WAY			CHATTANOOGA	TN	37402-2922	US		Our love and prayers -- Carrie and Kevin From Kevin Harkey	false		
114-5930021-8518669	04602821688362	2020-10-15T15:15:26+00:00	2020-10-15T08:15:26-07:00	2020-10-15T15:44:35+00:00	2020-10-20T06:59:59+00:00	-5	lvy47mvplcwqb1z@marketplace.amazon.com	Diana Seronello	+1 213-442-1463 ext. 27120	ABR004	Delivery by Friday | Arabella Farm Direct Bouquet of 12 Fresh Cut Yellow Roses with a Free Glass Vase	1	0	1	Expedited	Val Seronello	3008 WALNUT PARK CT			HENDERSON	NV	89052-6962	US		Happy Birthday! Love, Richard, Diana, Brie, & Ty From Diana Seronello	false		
113-7897097-9662644	59868832739722	2020-10-15T15:29:37+00:00	2020-10-15T08:29:37-07:00	2020-10-15T15:57:24+00:00	2020-10-20T06:59:59+00:00	-5	lftsz40yqb2mhrc@marketplace.amazon.com	Brenna	+1 213-442-1463 ext. 84497	ABR012	Delivery by Monday | Arabella Farm Direct Bouquet of 18 Fresh Cut Pink Roses with a Free Glass Vase	1	0	1	Expedited	Phil and Amber Balzer	5205 TIMBERCREEK DR			NORTH CHESTERFIELD	VA	23237-3169	US		We are so sorry to hear about your loss. Thinking of you both during this incredibly difficult time. Sending love and prayers... From Alex, Anna, Brenna, Joe, Pat and Rachel	false		
111-8451802-3690648	21351769200602	2020-10-15T15:30:28+00:00	2020-10-15T08:30:28-07:00	2020-10-15T15:58:29+00:00	2020-10-20T06:59:59+00:00	-5	z2kyc9d4s0001z0@marketplace.amazon.com	Karen a. Reynolds	+1 929-436-4790 ext. 33299	ABR0022	Delivery by Friday | Arabella Farm Direct Bouquet of 12 Fresh Cut Pink Roses with a Free Glass Vase	1	0	1	Standard	Betty Laughlin	250 W ARTESIA ST RM 610B			POMONA	CA	91768-1807	US		Happy 90th Birthday Betty         sending lots of love and good wishes From Karen a. Reynolds	false		
112-7788742-2458652	65419677588786	2020-10-15T16:27:16+00:00	2020-10-15T09:27:16-07:00	2020-10-15T16:52:10+00:00	2020-10-20T06:59:59+00:00	-5	mv0dwghk1j4cj0m@marketplace.amazon.com	Jose Munoz	+1 929-436-4790 ext. 94494	ABR0022	Delivery by Friday | Arabella Farm Direct Bouquet of 12 Fresh Cut Pink Roses with a Free Glass Vase	1	0	1	Expedited	Jose Munoz	1872 DEL CIERVO PL			CAMARILLO	CA	93012-4066	US		Hola!  Happy week day! From Jose	false		
111-4035675-4417010	07854696536602	2020-10-15T16:55:40+00:00	2020-10-15T09:55:40-07:00	2020-10-15T17:25:21+00:00	2020-10-20T06:59:59+00:00	-5	1r2r3620bh74pgr@marketplace.amazon.com	Dawn	+1 929-436-4790 ext. 53602	ABR012	Delivery by Monday | Arabella Farm Direct Bouquet of 18 Fresh Cut Pink Roses with a Free Glass Vase	1	0	1	Expedited	Gayna Anthony	1412 MONTESANO AVE			WAUKEGAN	IL	60087-4817	US			false		
113-7846406-7834621	45329621610842	2020-10-15T17:06:18+00:00	2020-10-15T10:06:18-07:00	2020-10-15T17:36:04+00:00	2020-10-20T06:59:59+00:00	-5	w0d08ngwzyrfl5v@marketplace.amazon.com	Bryan Jackson	+1 415-851-9136 ext. 57889	ABR0033	Delivery by Friday | Arabella Farm Direct Bouquet of 12 Fresh Cut Orange Roses with a Free Glass Vase	1	0	1	Expedited	Vanessa Hernandez	15462 LEFFINGWELL RD			WHITTIER	CA	90604-3207	US			false		
113-1087820-7519465	07115886424506	2020-10-15T17:09:40+00:00	2020-10-15T10:09:40-07:00	2020-10-15T17:37:30+00:00	2020-10-20T06:59:59+00:00	-5	fytjppznd67cmh3@marketplace.amazon.com	Gary Babbitt	+1 602-671-6610 ext. 79305	ABM010	Delivery by Friday | The Spring Fling Bouquet by Arabella Bouquets with a Free Designer Glass Vase	1	0	1	Expedited	Shannon Babbitt	1940 SILVER MAPLE TRL			NORTH LIBERTY	IA	52317-4763	US		Happy Birthday, Hope you have a great day.  Love you Dad From Gary Babbitt	false		
112-2573585-0487423	59412875378186	2020-10-15T17:34:26+00:00	2020-10-15T10:34:26-07:00	2020-10-15T18:04:25+00:00	2020-10-20T06:59:59+00:00	-5	8tqp5xwc6jdn7q8@marketplace.amazon.com	Brendan Lowrey	+1 602-671-6610 ext. 41661	ABR001	Delivery by Saturday | Arabella Bouquets 12 Stems of Fresh Cut Red Roses in a Free Designer Glass Vase	1	0	1	Expedited	Kimberly Lowrey	11740 JOAN OF ARC DR			HOUSTON	TX	77024-2602	US		Happy Anniversary From Brendan Lowrey	false		
113-4864671-2302645	60583291691914	2020-10-15T17:57:08+00:00	2020-10-15T10:57:08-07:00	2020-10-15T18:26:51+00:00	2020-10-20T06:59:59+00:00	-5	zjqzbr43l4s2jsy@marketplace.amazon.com	GINA R WALKER	+1 415-851-9136 ext. 97943	ABM022	Delivery by Saturday | Purple Extravagance Bouquet by Arabella Bouquets	1	0	1	Expedited	Dylan & Alyssa Walker	6746 SABINAL			SAN ANTONIO	TX	78252-4451	US		Happy, Happy Birthday! Hope you have(had) a great day! Love you! From The Village	false		
113-8171009-3867420	68385765427338	2020-10-14T17:55:34+00:00	2020-10-14T10:55:34-07:00	2020-10-15T18:26:55+00:00	2020-10-20T06:59:59+00:00	-5	4m6t4tw84k9bj21@marketplace.amazon.com	Elizabeth Nelson	+1 602-671-6610 ext. 55740	ABR0022	Delivery by Friday | Arabella Farm Direct Bouquet of 12 Fresh Cut Pink Roses with a Free Glass Vase	1	0	1	Expedited	Sydney Marlow	3643 PONCE DE LEON AVE			JACKSONVILLE	FL	32202	US		Hope you have a wonderful birthday! We love and miss you so much!  Xoxo  Libby, Abbi, Gabby & Stacy   P.S. Can’t wait to see you in 3 weeks!! -Lib From Elizabeth Nelson	false		
112-7777042-9773865	23740643000434	2020-10-15T18:31:48+00:00	2020-10-15T11:31:48-07:00	2020-10-15T18:33:24+00:00	2020-10-17T06:59:59+00:00	-2	wmf6r7zh2wj857h@marketplace.amazon.com	Thai	+1 602-671-6610 ext. 51204	ABR001	Delivery by Saturday | Arabella Bouquets 12 Stems of Fresh Cut Red Roses in a Free Designer Glass Vase	1	0	1	NextDay	Julie	200 LASHLEY ST			LONGMONT	CO	80501-6068	US		Enjoy your gift! Miss you much!!! From N/A	false		
113-3801610-2607454	17302409794346	2020-10-15T18:18:38+00:00	2020-10-15T11:18:38-07:00	2020-10-15T18:46:10+00:00	2020-10-20T06:59:59+00:00	-5	fv0bn2bkt0zp54p@marketplace.amazon.com	Kam Baidwan	+1 619-854-2705 ext. 14566	ABR001	Delivery by Saturday | Arabella Bouquets 12 Stems of Fresh Cut Red Roses in a Free Designer Glass Vase	1	0	1	Standard	Kamarveer Baidwan	1419 W ALLEGHENY AVE APT 408			PHILADELPHIA	PA	19132-1710	US			false		
111-9033510-5301866	68647194430074	2020-10-15T18:54:22+00:00	2020-10-15T11:54:22-07:00	2020-10-15T19:16:09+00:00	2020-10-20T06:59:59+00:00	-5	m02fq0cwgml7j7r@marketplace.amazon.com	Judy	+1 929-436-4790 ext. 96101	ABM031	Delivery by Monday | The Harvest Moon Bouquet by Arabella Bouquets	1	0	1	Expedited	Jill Canady	637 STAPLEFORD LN			FUQUAY VARINA	NC	27526-3624	US		Have a beautiful day, beautiful Bestie! From Judy	false		
114-5079818-5799448	10269185118818	2020-10-15T18:48:15+00:00	2020-10-15T11:48:15-07:00	2020-10-15T19:17:36+00:00	2020-10-20T06:59:59+00:00	-5	jlkwg757p3k7lk8@marketplace.amazon.com	kim dominick	+1 602-671-6610 ext. 75995	ABM010	Delivery by Saturday | The Spring Fling Bouquet by Arabella Bouquets with a Free Designer Glass Vase	1	0	1	Expedited	Claire Tedesko	645 SAYBROOK RD APT 211			MIDDLETOWN	CT	06457-4756	US		Happy 100 birthday From kim and Rich	false		
114-6336129-2023429	39555786077162	2020-10-15T18:59:58+00:00	2020-10-15T11:59:58-07:00	2020-10-15T19:30:59+00:00	2020-10-20T06:59:59+00:00	-5	dkvmlz2rj7js9r8@marketplace.amazon.com	Elaina	+1 929-436-4790 ext. 78809	ABR004	Delivery by Saturday | Arabella Farm Direct Bouquet of 12 Fresh Cut Yellow Roses with a Free Glass Vase	1	0	1	Expedited	Olivia Iott	423 PARK ST			ARCHBOLD	OH	43502-1345	US			false		
113-1409441-3036263	24774617041522	2020-10-15T19:24:12+00:00	2020-10-15T12:24:12-07:00	2020-10-15T19:42:13+00:00	2020-10-20T06:59:59+00:00	-5	2nxyh1fcv9m6hys@marketplace.amazon.com	Bev Richter	+1 480-618-5344 ext. 35976	ABR0055	Delivery by Saturday | Arabella Farm Direct Bouquet of 12 Stems of Fresh Cut Hot Pink Roses in a Free Designer Glass Vase	1	0	1	Expedited	Megan O'Connor	1812 WILDBROOK CT APT E			CONCORD	CA	94521-1460	US		🎵Happy Birdy to you! Happy Birdy to you!🎵 Happy Bird Day, dear Megan...🎶 🎵🎶Happy Birdy to you!!! 🎵🎶 Happy Birthday, Chickie!!! We love you!!! From Mom and Dan   :)   :)	false		
113-2360437-0525007	03779221723234	2020-10-15T19:21:13+00:00	2020-10-15T12:21:13-07:00	2020-10-15T19:51:21+00:00	2020-10-20T06:59:59+00:00	-5	kkq345pd4gxttwl@marketplace.amazon.com	JessRochelle	+1 929-436-4790 ext. 04923	ABM022	Delivery by Saturday | Purple Extravagance Bouquet by Arabella Bouquets	1	0	1	Expedited	jess rochelle	458 NE DELAWARE AVE UNIT 419	BUILDING 2		ANKENY	IA	50021-6564	US			false		
113-6624702-1773007	34385836102962	2020-10-15T19:45:35+00:00	2020-10-15T12:45:35-07:00	2020-10-15T20:14:10+00:00	2020-10-20T06:59:59+00:00	-5	mwyzqr5z791fd7z@marketplace.amazon.com	Donna Angel	+1 602-671-6610 ext. 68366	ABR0033	Delivery by Saturday | Arabella Farm Direct Bouquet of 12 Fresh Cut Orange Roses with a Free Glass Vase	1	0	1	Expedited	Betty Davis	146 BAINBRIDGE RD			FRIES	VA	24330-3884	US		HAPPY BIRTHDAY to a very special and wonderful mom. We love you bunches! From Donna & Randy	false		
112-4243026-0315441	46640379114642	2020-10-15T20:17:10+00:00	2020-10-15T13:17:10-07:00	2020-10-15T20:47:22+00:00	2020-10-20T06:59:59+00:00	-5	j9q7ysgdggy8pxm@marketplace.amazon.com	Steven miller	+1 480-618-5344 ext. 15405	ABR0055	Delivery by Saturday | Arabella Farm Direct Bouquet of 12 Stems of Fresh Cut Hot Pink Roses in a Free Designer Glass Vase	1	0	1	Expedited	Steven Miller	2350 MCMINNVILLE HWY			SPARTA	TN	38583-2432	US			false		
111-6491437-4463436	05203805744874	2020-10-15T20:22:35+00:00	2020-10-15T13:22:35-07:00	2020-10-15T20:48:52+00:00	2020-10-20T06:59:59+00:00	-5	j8s4wkhq6xm258z@marketplace.amazon.com	Mabel Harris	+1 929-436-4790 ext. 88004	ABR0022	Delivery by Saturday | Arabella Farm Direct Bouquet of 12 Fresh Cut Pink Roses with a Free Glass Vase	1	0	1	Expedited	Scott and Celeste Harris	462 SHANDY ST			VERONA	WI	53593-9559	US		Happy Birthday and much love to Celeste -  hope this arrives on time! From Molly and Chip	false		
113-0894345-4104202	43945048658626	2020-10-15T21:02:03+00:00	2020-10-15T14:02:03-07:00	2020-10-15T21:26:17+00:00	2020-10-20T06:59:59+00:00	-5	3xstl5jg4pgljn1@marketplace.amazon.com	Steven Mauss	+1 213-442-1463 ext. 41223	ABM020	Delivery by Saturday | The Sunset Bouquet by Arabella Bouquets	1	0	1	Expedited	Delight Sittman	4529 CHANTRY CT			CYPRESS	CA	90630-3501	US		Thank you SO much for hosting the "meet-and-greet" event on Tuesday to support my campaign for Cypress City Council.  Please convey my appreciation to everyone in your family. From Steven Mauss	false		
111-4220945-7333849	18941378473770	2020-10-15T21:13:15+00:00	2020-10-15T14:13:15-07:00	2020-10-15T21:29:11+00:00	2020-10-20T06:59:59+00:00	-5	z2j97p7nhzgwg0t@marketplace.amazon.com	Mikhail	+1 213-442-1463 ext. 71920	ABM010	Delivery by Saturday | The Spring Fling Bouquet by Arabella Bouquets with a Free Designer Glass Vase	1	0	1	Expedited	Douglas Hearn	9610 Tharp Rd			Seaford	DE	19973-7713	US		Happy Birthday, dear Mrs.Debbie! Today our families are thinking of you! We wish you best health and stay to be so kind and pretty woman! We miss you a lot! Remember, that 2 guyes in Russia loves you! From Yours, Misha & Dima	false		
113-3347961-6363417	42322791431170	2020-10-15T21:04:59+00:00	2020-10-15T14:04:59-07:00	2020-10-15T21:30:29+00:00	2020-10-20T06:59:59+00:00	-5	k4lnrc7x4vvd1nh@marketplace.amazon.com	Oscar Danilo Brenes	+1 213-442-1463 ext. 01761	ABR0055	Delivery by Saturday | Arabella Farm Direct Bouquet of 12 Stems of Fresh Cut Hot Pink Roses in a Free Designer Glass Vase	1	0	1	Expedited	Leonela Tatiana Espinoza	726 SW 11TH AVE APART 6			MIAMI	FL	33130-3199	US			false		
112-4904235-6557023	40917510476618	2020-10-15T21:15:07+00:00	2020-10-15T14:15:07-07:00	2020-10-15T21:42:59+00:00	2020-10-20T06:59:59+00:00	-5	dc764nskr3c1nqg@marketplace.amazon.com	Courtney Wright	+1 602-671-6610 ext. 57692	ABM010	Delivery by Saturday | The Spring Fling Bouquet by Arabella Bouquets with a Free Designer Glass Vase	1	0	1	Expedited	Maria Yoder	2796 STONEWALL HTS			COLORADO SPRINGS	CO	80909-1700	US		Happy Birthday!! We love you. Hope you enjoyed your day, wish we were there to celebrate with you. From Bruce, Dorene & the kids	false		
111-8009786-7364254	10370972411210	2020-10-15T21:28:55+00:00	2020-10-15T14:28:55-07:00	2020-10-15T21:53:17+00:00	2020-10-20T06:59:59+00:00	-5	cgnkhmwhxk3p6b2@marketplace.amazon.com	Michelle Romero	+1 480-618-5344 ext. 08235	ABR0022	Delivery by Saturday | Arabella Farm Direct Bouquet of 12 Fresh Cut Pink Roses with a Free Glass Vase	1	0	1	Expedited	Ashleigh Colin	6660 ARCHWOOD AVE			SAN DIEGO	CA	92120-2402	US		Dear Ashleigh, Happiest of Birthdays wished your way. May this year bring you lots of laughter, health and peace. From Michelle R. & Directors	false		
112-4277013-0625819	05605650605722	2020-10-15T22:02:08+00:00	2020-10-15T15:02:08-07:00	2020-10-15T22:31:28+00:00	2020-10-20T06:59:59+00:00	-5	z8q01n3q51lqk87@marketplace.amazon.com	Rebecca	+1 929-436-4790 ext. 19138	ABR0022	Delivery by Saturday | Arabella Farm Direct Bouquet of 12 Fresh Cut Pink Roses with a Free Glass Vase	1	0	1	Expedited	Mary Ellen Fox	4122 RALEIGH RD			PIKESVILLE	MD	21208-5834	US		Happy Birthday, Nanny!  We love you more! From Rebecca and Eric	false		
111-8915987-3202653	07772895154490	2020-10-15T22:52:24+00:00	2020-10-15T15:52:24-07:00	2020-10-15T23:20:31+00:00	2020-10-20T06:59:59+00:00	-5	q95d3n2v8ydqj8q@marketplace.amazon.com	raymundo chaparro	+1 415-851-9136 ext. 57357	ABM010	Delivery by Saturday | The Spring Fling Bouquet by Arabella Bouquets with a Free Designer Glass Vase	1	0	1	Expedited	inSite Digestive Health Care  Anna marie lopez	201 S BUENA VISTA ST STE 401			BURBANK	CA	91505-4571	US		Because you're you💋 From ray	false		
111-4378254-1335460	24237696798090	2020-10-15T22:55:16+00:00	2020-10-15T15:55:16-07:00	2020-10-15T23:23:08+00:00	2020-10-20T06:59:59+00:00	-5	6fs34px23g1zywj@marketplace.amazon.com	W B Barrett	+1 619-854-2705 ext. 04519	ABR0055	Delivery by Saturday | Arabella Farm Direct Bouquet of 12 Stems of Fresh Cut Hot Pink Roses in a Free Designer Glass Vase	1	0	1	Standard	A A Llyod	191 MEADOWVIEW DR			STATE COLLEGE	PA	16801-2569	US		In celebration of you birthday Allison... From B	false		
113-6670016-4512218	66594990709282	2020-10-15T23:05:38+00:00	2020-10-15T16:05:38-07:00	2020-10-15T23:35:53+00:00	2020-10-20T06:59:59+00:00	-5	ldthrc913kgkx73@marketplace.amazon.com	Adjovi Alate	+1 213-442-1463 ext. 28958	ABR0055	Delivery by Saturday | Arabella Farm Direct Bouquet of 12 Stems of Fresh Cut Hot Pink Roses in a Free Designer Glass Vase	1	0	1	Expedited	Adjovi Alate	11700 AUDELIA RD APT 1926			DALLAS	TX	75243-4729	US			false		
113-8092134-7574632	59237240431962	2020-10-15T23:32:38+00:00	2020-10-15T16:32:38-07:00	2020-10-15T23:48:01+00:00	2020-10-20T06:59:59+00:00	-5	tqk3ygjw9925qd4@marketplace.amazon.com	Jeremy	+1 929-436-4790 ext. 20202	ABR001	Delivery by Saturday | Arabella Bouquets 12 Stems of Fresh Cut Red Roses in a Free Designer Glass Vase	1	0	1	Expedited	Kathleen Medina	20431 Outback Ct			Bend	Oregon	97702	US		Happy Birthday Mom! Another year has passed. Even still today I can't tell you enough how thankful I am to have been raised by an absolutely amazing mother like yourself. I will always love you. From Your Loving Son, Jeremy	false		
113-8894244-2126632	08973929696706	2020-10-15T23:44:16+00:00	2020-10-15T16:44:16-07:00	2020-10-16T00:14:03+00:00	2020-10-20T06:59:59+00:00	-5	9psgxpns6gj60hm@marketplace.amazon.com	linda	+1 213-442-1463 ext. 30600	ABM022	Delivery by Saturday | Purple Extravagance Bouquet by Arabella Bouquets	1	0	1	Expedited	EVELYN Bellew	19205 LAMBERT WAY			FREEHOLD	NJ	07728-4865	US			false		
112-3489581-3065018	21083312364538	2020-10-16T01:20:05+00:00	2020-10-15T18:20:05-07:00	2020-10-16T01:29:52+00:00	2020-10-20T06:59:59+00:00	-5	q0nf33mrfdcwsjp@marketplace.amazon.com	Kyjuan Myers	+1 619-854-2705 ext. 26164	ABR0022	Delivery by Saturday | Arabella Farm Direct Bouquet of 12 Fresh Cut Pink Roses with a Free Glass Vase	1	0	1	Expedited	Anastacia Moore	5835 58TH WAY			WEST PALM BEACH	FL	33409-7147	US		I know you wasn’t expecting this, but I wanted to get you something special. Lately it’s been really difficult for you but I’m always here for you bby. I love you and miss you so much. Hope you love it bby😘I love you so much From Jay	false		
