order-id	order-item-id	purchase-date	payments-date	reporting-date	promise-date	days-past-promise	buyer-email	buyer-name	buyer-phone-number	sku	product-name	quantity-purchased	quantity-shipped	quantity-to-ship	ship-service-level	recipient-name	ship-address-1	ship-address-2	ship-address-3	ship-city	ship-state	ship-postal-code	ship-country	gift-wrap-type	gift-message-text	is-business-order	purchase-order-number	price-designation
112-9824960-1081852	70003309245170	2020-10-15T09:29:48+00:00	2020-10-15T02:29:48-07:00	2020-10-15T09:56:46+00:00	2020-10-20T06:59:59+00:00	-3	hbmnjjvb4bj8fc5@marketplace.amazon.com	sharon lams	+1 213-442-1463 ext. 40062	ABM020	Delivery by Friday | The Sunset Bouquet by Arabella Bouquets	1	0	1	Expedited	Mrs K Lams	3051 OLD HILLSBORO RD			FRANKLIN	TN	37064-9544	US		Dear Mama and Portly Thinking of you both and sending all our love Teddy and Sharon xx From sharon lams	false		
112-0181578-6249870	12167166184554	2020-10-15T14:40:37+00:00	2020-10-15T07:40:37-07:00	2020-10-15T15:04:03+00:00	2020-10-20T06:59:59+00:00	-3	q23qr95t37skcmt@marketplace.amazon.com	Kevin Harkey	+1 619-854-2705 ext. 26256	ABR001	Delivery by Friday | Arabella Bouquets 12 Stems of Fresh Cut Red Roses in a Free Designer Glass Vase	1	0	1	Expedited	Becky Musgrave	532 MARINER WAY			CHATTANOOGA	TN	37402-2922	US		Our love and prayers -- Carrie and Kevin From Kevin Harkey	false		
112-4243026-0315441	46640379114642	2020-10-15T20:17:10+00:00	2020-10-15T13:17:10-07:00	2020-10-15T20:47:22+00:00	2020-10-20T06:59:59+00:00	-3	j9q7ysgdggy8pxm@marketplace.amazon.com	Steven miller	+1 480-618-5344 ext. 15405	ABR0055	Delivery by Saturday | Arabella Farm Direct Bouquet of 12 Stems of Fresh Cut Hot Pink Roses in a Free Designer Glass Vase	1	0	1	Expedited	Steven Miller	2350 MCMINNVILLE HWY			SPARTA	TN	38583-2432	US			false		
112-1797485-2345849	18222727777210	2020-10-16T18:16:30+00:00	2020-10-16T11:16:30-07:00	2020-10-16T18:17:14+00:00	2020-10-21T06:59:59+00:00	-4	vrgsbvlrstzlxd1@marketplace.amazon.com	Andrew laird	+1 213-442-1463 ext. 10560	ABR0022	Delivery by Tuesday | Arabella Farm Direct Bouquet of 12 Fresh Cut Pink Roses with a Free Glass Vase	1	0	1	Expedited	Kristina Hensley	4229 WYNFIELD PL			ENGLEWOOD	OH	45322-2646	US		I hope you feel better real soon Kristina, and next time I promise I will be there as soon as I possibly can. I am thinking of you and sending you healing, I love you and can’t wait for you to be my wife. From Andrew laird	false		
112-4329468-3375403	16275580648882	2020-10-16T18:18:24+00:00	2020-10-16T11:18:24-07:00	2020-10-16T18:42:47+00:00	2020-10-21T06:59:59+00:00	-4	7j17nyf632zg49y@marketplace.amazon.com	Patricia Thompson	+1 602-671-6610 ext. 09094	ABR0022	Delivery by Tuesday | Arabella Farm Direct Bouquet of 12 Fresh Cut Pink Roses with a Free Glass Vase	1	0	1	Expedited	Magee Schreijer	369 BENT STREAM LN			BROWNSBURG	IN	46112-8128	US		Happy 16th Birthday Magee! We Love You! From Uncle Mark & Auntie Patti	false		
112-3084799-2132209	28654823118650	2020-10-16T18:42:36+00:00	2020-10-16T11:42:36-07:00	2020-10-16T18:43:43+00:00	2020-10-20T06:59:59+00:00	-3	hp1d3ld1hvzjjy6@marketplace.amazon.com	Dianne Neihengen	+1 213-442-1463 ext. 14042	ABR0033	Delivery by Tuesday | Arabella Farm Direct Bouquet of 12 Fresh Cut Orange Roses with a Free Glass Vase	1	0	1	NextDay	Helen Vick	427 BRANTLEY PL			WHEATON	IL	60187-4889	US		Helen, thanks again for the wonderful wedding video and for your friendship. From Dianne Neihengen	false		
111-1994317-2508237	27037071838290	2020-10-16T18:41:37+00:00	2020-10-16T11:41:37-07:00	2020-10-16T18:47:04+00:00	2020-10-20T06:59:59+00:00	-3	l5c77r4d7s7875r@marketplace.amazon.com	michael Burnett	+1 480-618-5344 ext. 61264	ABR001	Arabella Bouquets 12 Stems of Fresh Cut Red Roses in a Free Designer Glass Vase	1	0	1	NextDay	Michael Burnett	4878 beachway			Ferndale	Washington	98248	US			false		
114-0093130-2622632	23055532578162	2020-10-16T18:23:47+00:00	2020-10-16T11:23:47-07:00	2020-10-16T18:51:00+00:00	2020-10-21T06:59:59+00:00	-4	g5pg6p8rpv44tqp@marketplace.amazon.com	JOANN TONON	+1 602-671-6610 ext. 86819	ABR0022	Delivery by Tuesday | Arabella Farm Direct Bouquet of 12 Fresh Cut Pink Roses with a Free Glass Vase	1	0	1	Expedited	Betty Fong	53 GREENWAY TER			FOREST HILLS	NY	11375-5239	US		Wishing you a speedy recovery From Your friends in Cell Therapy	false		
112-6857540-1521045	65603096533498	2020-10-16T18:26:36+00:00	2020-10-16T11:26:36-07:00	2020-10-16T18:54:17+00:00	2020-10-21T06:59:59+00:00	-4	qv09kqw9z88cc7f@marketplace.amazon.com	judy spiegel	+1 619-854-2705 ext. 96938	ABR0055	Delivery by Tuesday | Arabella Farm Direct Bouquet of 12 Stems of Fresh Cut Hot Pink Roses in a Free Designer Glass Vase	1	0	1	Expedited	Rhoda smith	16 FOREST HILL TER			ORONO	ME	04473-3634	US		Happy 89th Birthday blessings! I know you will have a wonderful beautiful birthday with BJ visiting. Loads of love From judy spiegel	false		
113-3980524-6072269	47830723447690	2020-10-16T19:16:59+00:00	2020-10-16T12:16:59-07:00	2020-10-16T19:17:52+00:00	2020-10-20T06:59:59+00:00	-3	lnh2b2ww1n4yrht@marketplace.amazon.com	John Taylor	+1 213-442-1463 ext. 31404	ABR0055	Delivery by Tuesday | Arabella Farm Direct Bouquet of 12 Stems of Fresh Cut Hot Pink Roses in a Free Designer Glass Vase	1	0	1	NextDay	Kerry Ann Plunket	417 COACH HOUSE LN			HILLSBOROUGH	NC	27278-9849	US			false		
113-5731120-1148215	06735556935474	2020-10-16T19:17:59+00:00	2020-10-16T12:17:59-07:00	2020-10-16T19:21:42+00:00	2020-10-20T06:59:59+00:00	-3	k62c6brhxqkxptv@marketplace.amazon.com	Richard J Bailey	+1 213-442-1463 ext. 42102	ABM022	Delivery by Tuesday | Purple Extravagance Bouquet by Arabella Bouquets	1	0	1	NextDay	Ella Lousie Burke	212 MONTCALM ST			TICONDEROGA	NY	12883-4115	US			false		
111-5217522-3411456	58156331260722	2020-10-16T19:20:46+00:00	2020-10-16T12:20:46-07:00	2020-10-16T19:24:00+00:00	2020-10-20T06:59:59+00:00	-3	kc9t5bbydcw2z8q@marketplace.amazon.com	annie mead	+1 480-618-5344 ext. 40653	ABR0022	Delivery by Tuesday | Arabella Farm Direct Bouquet of 12 Fresh Cut Pink Roses with a Free Glass Vase	1	0	1	NextDay	June Vaughn	3850 N 760 W			SHIPSHEWANA	IN	46565-9533	US		Happy Birthday! At least we didn't eat them this time. From Jeff and Annie	false		
111-8951213-9930663	09559111664730	2020-10-16T19:33:27+00:00	2020-10-16T12:33:27-07:00	2020-10-16T19:34:25+00:00	2020-10-20T06:59:59+00:00	-3	71pryvs9mg9nrh5@marketplace.amazon.com	Patricia Nicholson	+1 480-618-5344 ext. 24990	ABM022	Delivery by Tuesday | Purple Extravagance Bouquet by Arabella Bouquets	1	0	1	NextDay	Marjorie Ann Kirk-Nicholson	CHELSEA RETIREMENT COMMUNITY	805 W MIDDLE ST		CHELSEA	MI	48118-1369	US		Happy Birthday Margie.  Have a nice day! Love, Pat and Bob From Patricia Nicholson	false		
112-4619871-2276245	68606044127418	2020-10-16T19:32:36+00:00	2020-10-16T12:32:36-07:00	2020-10-16T19:36:40+00:00	2020-10-20T06:59:59+00:00	-3	qwpqxp3ggcrk6sb@marketplace.amazon.com	Carmela Arstill	+1 213-442-1463 ext. 87101	ABR0022	Delivery by Tuesday | Arabella Farm Direct Bouquet of 12 Fresh Cut Pink Roses with a Free Glass Vase	1	0	1	NextDay	Terri Carpowich	12720 AZZURO CT			SAN DIEGO	CA	92130-2469	US		Hau'oli La Hanau Sweetie!! Wish I could be there for cake LOL! Love you my Niz! From Carmela Arstill	false		
113-8808682-7337857	56781615871034	2020-10-16T19:41:15+00:00	2020-10-16T12:41:15-07:00	2020-10-16T19:44:40+00:00	2020-10-20T06:59:59+00:00	-3	zks2lx02z7ftkyf@marketplace.amazon.com	Robert and Sue Wilbarg	+1 480-618-5344 ext. 78375	ABR0022	Delivery by Tuesday | Arabella Farm Direct Bouquet of 12 Fresh Cut Pink Roses with a Free Glass Vase	1	0	1	NextDay	Judy Thomas	7319 CHINABERRY CT			PORT RICHEY	FLORIDA	34668-6920	US		Happy Birthday Little Sis From Love Ya	false		
111-3557716-9165011	69860393487642	2020-10-16T20:04:21+00:00	2020-10-16T13:04:21-07:00	2020-10-16T20:05:21+00:00	2020-10-20T06:59:59+00:00	-3	kbbd77l9pj1p833@marketplace.amazon.com	Jaime Fuentes	+1 480-618-5344 ext. 29298	ABM022	Delivery by Tuesday | Purple Extravagance Bouquet by Arabella Bouquets	1	0	1	NextDay	Patti Brunter	3721 TOLAND AVE			LOS ALAMITOS	CA	90720-2257	US		We are so sorry for your loss. Sending healing prayers and comforting hugs through this difficult time. Please know you are in our thoughts, in our hearts, and in our prayers. Xoxo From Velia and Jaime Fuentes	false		
114-5840618-9552245	04503208232162	2020-10-16T20:09:22+00:00	2020-10-16T13:09:22-07:00	2020-10-16T20:13:11+00:00	2020-10-20T06:59:59+00:00	-3	tdsrt3hl8psxs76@marketplace.amazon.com	JOHN JAMES MILLER	+1 213-442-1463 ext. 91539	ABM022	Delivery by Tuesday | Purple Extravagance Bouquet by Arabella Bouquets	1	0	1	NextDay	Natacha Linton	12539 S HARVARD AVE			CHICAGO	IL	60628-7220	US		Wishing you peace and comfort. From SBSS	false		
113-6586482-2953023	63078556244554	2020-10-16T20:08:16+00:00	2020-10-16T13:08:16-07:00	2020-10-16T20:13:54+00:00	2020-10-20T06:59:59+00:00	-3	m4vss2b1skr6f1p@marketplace.amazon.com	Jennifer Vandy	30-568-7508	ABR0033	Delivery by Tuesday | Arabella Farm Direct Bouquet of 12 Fresh Cut Orange Roses with a Free Glass Vase	1	0	1	NextDay	Jen Vandy	68 WASHINGTON CT			TOWACO	NJ	07082-1243	US			false		
114-3944840-1861838	09884892396626	2020-10-16T20:09:12+00:00	2020-10-16T13:09:12-07:00	2020-10-16T20:14:09+00:00	2020-10-20T06:59:59+00:00	-3	5vjdhdp6yhzh43h@marketplace.amazon.com	zryan hassan	+1 929-436-4790 ext. 61088	ABM010	Delivery by Tuesday | The Spring Fling Bouquet by Arabella Bouquets with a Free Designer Glass Vase	1	0	1	NextDay	zryan hassan	JULIANNE M KINSEY	14235 AMELIA ISLAND WAY		ORLANDO	FL	32828-4811	US			false		
111-9011525-4100265	46061337240434	2020-10-16T20:25:14+00:00	2020-10-16T13:25:14-07:00	2020-10-16T20:27:35+00:00	2020-10-20T06:59:59+00:00	-3	t2dmyy0dsxwv9sy@marketplace.amazon.com	Bonnie G Parker	+1 213-442-1463 ext. 87517	ABM020	Delivery by Tuesday | The Sunset Bouquet by Arabella Bouquets	1	0	1	NextDay	Jamie Gramkow	2309 COW PATTY TRL			ALEXANDER	AR	72002-8756	US		Thought te vase was unique - like YOU!!  Wishing you good healing.. Love, J & B From Jerry & Bonnie	false		
112-9523165-4566613	21708213969530	2020-10-16T20:53:21+00:00	2020-10-16T13:53:21-07:00	2020-10-16T20:54:14+00:00	2020-10-20T06:59:59+00:00	-3	wxqpxfcgy46syq0@marketplace.amazon.com	Margaret Burgreen	+1 213-442-1463 ext. 01722	ABR0022	Delivery by Tuesday | Arabella Farm Direct Bouquet of 12 Fresh Cut Pink Roses with a Free Glass Vase	1	0	1	NextDay	Kathy Jones	714 SLOOP POINTE LN			KURE BEACH	NC	28449-4924	US		Kathy,  Congratulations on 5 years cancer free! Big love from Scowcroft’s,Carter’s,& Burgreen’s! ❤️	false		
112-5261342-5973010	12331201684658	2020-10-16T20:49:31+00:00	2020-10-16T13:49:31-07:00	2020-10-16T20:54:30+00:00	2020-10-20T06:59:59+00:00	-3	5gp7kjbs7qs78z4@marketplace.amazon.com	angela b. croto	+1 602-671-6610 ext. 34989	ABR012	Delivery by Tuesday | Arabella Farm Direct Bouquet of 18 Fresh Cut Pink Roses with a Free Glass Vase	1	0	1	NextDay	Alison Croto	413 E TRUMAN AVE			SALT LAKE CITY	UT	84115-2833	US			false		
113-1708725-3989067	36676889967650	2020-10-16T21:14:02+00:00	2020-10-16T14:14:02-07:00	2020-10-16T21:15:00+00:00	2020-10-20T06:59:59+00:00	-3	hfn82fpl1zl9sbm@marketplace.amazon.com	sanjeev gupta	+1 480-618-5344 ext. 20280	ABM022	Delivery by Tuesday | Purple Extravagance Bouquet by Arabella Bouquets	1	0	1	NextDay	GAURI GUPTA	230 W DIVISION ST APT 503			CHICAGO	IL	60610-8635	US		Dear Gauri & Mitch we are so delighted with news that we are going to be grand parents. Thank you both . God bless you.  lots of love Mom & Dad From sanjeev gupta	false		
111-5226848-1398606	49094826424098	2020-10-16T21:15:12+00:00	2020-10-16T14:15:12-07:00	2020-10-16T21:20:19+00:00	2020-10-20T06:59:59+00:00	-3	lz770n0v44ztv34@marketplace.amazon.com	David Dean Archibald II	+1 602-671-6610 ext. 49411	ABR0055	Delivery by Tuesday | Arabella Farm Direct Bouquet of 12 Stems of Fresh Cut Hot Pink Roses in a Free Designer Glass Vase	1	0	1	NextDay	Lisa Setz @ Aspen Hills Healthcare Center	600 PEMBERTON BROWNS MILLS RD	RM 377-1		PEMBERTON	NJ	08068-1537	US			false		
112-3430533-7349842	19367853510970	2020-10-16T21:49:20+00:00	2020-10-16T14:49:20-07:00	2020-10-16T21:52:55+00:00	2020-10-20T06:59:59+00:00	-3	95qxkv7fsw45x0m@marketplace.amazon.com	Jessie Reynolds	+1 929-436-4790 ext. 75796	ABR0022	Delivery by Tuesday | Arabella Farm Direct Bouquet of 12 Fresh Cut Pink Roses with a Free Glass Vase	1	0	1	NextDay	Mari Sanford	3707 NW PARK HILL BLVD			BENTONVILLE	AR	72712-3458	US		Enjoy your gift Happy Birthday Dear Mari, love Jessie From Jessie Reynolds	false		
114-8379693-5113060	66852562413370	2020-10-16T22:07:14+00:00	2020-10-16T15:07:14-07:00	2020-10-16T22:08:09+00:00	2020-10-20T06:59:59+00:00	-3	xgbhxkgr09qg4rj@marketplace.amazon.com	RODRIGO MARTINEZ	+1 213-442-1463 ext. 63284	ABR0055	Delivery by Tuesday | Arabella Farm Direct Bouquet of 12 Stems of Fresh Cut Hot Pink Roses in a Free Designer Glass Vase	1	0	1	NextDay	Kaysi The Cutie Parke	4094 S FEDERAL WAY APT K103			BOISE	ID	83716-5256	US		Love you and miss you!!! A housewarming gift to start off this wonderful new chapter.  😊❤ From Rodrigo Thiccc Boi Martinez From Rodrigo Thiccc Boi Martinez	false		
112-1430040-5143455	53104298359954	2020-10-16T22:06:53+00:00	2020-10-16T15:06:53-07:00	2020-10-16T22:12:35+00:00	2020-10-20T06:59:59+00:00	-3	r4bvsnw3sg6xqvl@marketplace.amazon.com	Noelle A Detweiler		ABR0022	Delivery by Tuesday | Arabella Farm Direct Bouquet of 12 Fresh Cut Pink Roses with a Free Glass Vase	1	0	1	NextDay	NOELLE A DETWEILER	214 N IDAHO AVE			MASSAPEQUA	NY	11758	US			false		
114-0537713-7834640	64821887869466	2020-10-16T22:19:10+00:00	2020-10-16T15:19:10-07:00	2020-10-16T22:23:08+00:00	2020-10-20T06:59:59+00:00	-3	wslr3xsq5xx25g2@marketplace.amazon.com	MYRNA GOELLER	+1 415-851-9136 ext. 59716	ABR001	Delivery by Tuesday | Arabella Bouquets 12 Stems of Fresh Cut Red Roses in a Free Designer Glass Vase	1	0	1	NextDay	Ivette Muniz	940 SUMMIT AVE			JERSEY CITY	NJ	07307-3744	US		Dear Ivette, thank you for everything you are doing to help mom and pop.  May God bless you tenfold! From MYRNA GOELLER	false		
114-8675421-9481019	24631146123442	2020-10-16T22:21:36+00:00	2020-10-16T15:21:36-07:00	2020-10-16T22:25:56+00:00	2020-10-20T06:59:59+00:00	-3	wslr3xsq5xx25g2@marketplace.amazon.com	MYRNA GOELLER	+1 619-854-2705 ext. 76512	ABR004	Delivery by Tuesday | Arabella Farm Direct Bouquet of 12 Fresh Cut Yellow Roses with a Free Glass Vase	1	0	1	NextDay	Elizabeth Eduardo Orona	542 35TH ST			UNION CITY	NJ	07087-2502	US		Para Mama, voy estar en Union City pronto! From MYRNA GOELLER	false		
113-0510333-0894635	47853754839010	2020-10-16T22:53:56+00:00	2020-10-16T15:53:56-07:00	2020-10-16T22:59:00+00:00	2020-10-20T06:59:59+00:00	-3	zwrc9kj6xzqzwlr@marketplace.amazon.com	Catherine Baker	+1 602-671-6610 ext. 86854	ABR015	Delivery by Tuesday | Arabella Farm Direct Bouquet of 18 Fresh Cut Orange Roses with a Free Glass Vase	1	0	1	NextDay	LaTanya Miller	SCHOOL DISTRICT OF PHILADELPHIA	440 N BROAD ST STE 210		PHILADELPHIA	PA	19130-4015	US			false		
114-3352000-4139409	17181750061362	2020-10-16T23:16:32+00:00	2020-10-16T16:16:32-07:00	2020-10-16T23:17:26+00:00	2020-10-20T06:59:59+00:00	-3	rl7frsjsxft8x5k@marketplace.amazon.com	Jennifer Melvin	+1 480-618-5344 ext. 66628	ABR0033	Delivery by Tuesday | Arabella Farm Direct Bouquet of 12 Fresh Cut Orange Roses with a Free Glass Vase	1	0	1	NextDay	Barbara melvin	EMPLOYEE HEALTH 1600 ROCKLAND RD			WILMINGTON	DE	19803-3607	US		happy birthday to the best grandmom!  We love you!  Julius, Syrus, Charlotte, Forest and JJ	false		
113-3429307-2957852	28585091939146	2020-10-16T23:48:18+00:00	2020-10-16T16:48:18-07:00	2020-10-16T23:50:59+00:00	2020-10-20T06:59:59+00:00	-3	mnrqlm0l6rwzhj8@marketplace.amazon.com	Matthew Murray	+1 602-671-6610 ext. 29542	ABM010	Delivery by Tuesday | The Spring Fling Bouquet by Arabella Bouquets with a Free Designer Glass Vase	1	0	1	NextDay	Jessica Murray	2510 ROLLING VIEW DR SE			SMYRNA	GA	30080-2624	US		Happy Birthday and Congratulations on your New Home and Roommate :) Love You a bunch!! mom and dad From Matthew Murray	false		
113-3479626-7892241	50489078937330	2020-10-17T00:03:55+00:00	2020-10-16T17:03:55-07:00	2020-10-17T00:08:22+00:00	2020-10-20T06:59:59+00:00	-3	ng87qnb3n2zt2bm@marketplace.amazon.com	Manuel P Williams	+1 213-442-1463 ext. 73815	ABM010	Delivery by Tuesday | The Spring Fling Bouquet by Arabella Bouquets with a Free Designer Glass Vase	1	0	1	NextDay	Deandrea Terry	1042 GOLDEN POND DR			MANTECA	CA	95336-8365	US			false		
113-1475245-0630604	54240325602778	2020-10-17T00:37:57+00:00	2020-10-16T17:37:57-07:00	2020-10-17T00:38:53+00:00	2020-10-20T06:59:59+00:00	-3	ynfmj2q0bcftbh3@marketplace.amazon.com	Hans Philipps	+1 619-854-2705 ext. 28609	ABR0033	Delivery by Tuesday | Arabella Farm Direct Bouquet of 12 Fresh Cut Orange Roses with a Free Glass Vase	1	0	1	NextDay	Dr. and Mrs Adrian Mikulicich M.D	4468 La Orilla			Rancho Santa Fe	CA	92067	US		Enjoy your gift! Happy early Birthday from Eva and Hans From Hans Philipps	false		
114-2081978-6814656	14992761632618	2020-10-17T00:42:44+00:00	2020-10-16T17:42:44-07:00	2020-10-17T00:45:41+00:00	2020-10-20T06:59:59+00:00	-3	d0p27b470tjlg35@marketplace.amazon.com	Sylvia Hemme	+1 619-854-2705 ext. 86716	ABR0022	Delivery by Tuesday | Arabella Farm Direct Bouquet of 12 Fresh Cut Pink Roses with a Free Glass Vase	1	0	1	NextDay	Mary Jones	43 LINE CREEK CIR			SHARPSBURG	GA	30277-1649	US			false		
111-0557773-7711446	63293742858530	2020-10-17T01:29:28+00:00	2020-10-16T18:29:28-07:00	2020-10-17T01:33:05+00:00	2020-10-20T06:59:59+00:00	-3	0sb8d2nvb18ldnw@marketplace.amazon.com	Maria Zampano	+1 480-618-5344 ext. 40882	ABR0022	Delivery by Tuesday | Arabella Farm Direct Bouquet of 12 Fresh Cut Pink Roses with a Free Glass Vase	1	0	1	NextDay	Theresa Moore	182 WALNUT ST			SEYMOUR	CT	06483-3629	US		May God keep you in his tender, loving care. I am praying for your speedy recovery.  All my love, From Maria Zampano	false		
114-6831828-1326627	03686101882946	2020-10-17T01:31:40+00:00	2020-10-16T18:31:40-07:00	2020-10-17T01:35:00+00:00	2020-10-20T06:59:59+00:00	-3	tttpblvbwq45svc@marketplace.amazon.com	william Amos	+1 619-854-2705 ext. 04376	ABR0055	Delivery by Tuesday | Arabella Farm Direct Bouquet of 12 Stems of Fresh Cut Hot Pink Roses in a Free Designer Glass Vase	1	0	1	NextDay	Kisha Nicole Garner	10596 NARAMORE LN			JOHNS CREEK	GA	30022-5537	US		HAPPY TWO YEARS From william Amos	false		
111-6799835-4417834	32239575232018	2020-10-17T01:44:53+00:00	2020-10-16T18:44:53-07:00	2020-10-17T01:48:45+00:00	2020-10-20T06:59:59+00:00	-3	x6kh0dps99m8q9s@marketplace.amazon.com	josh	+1 480-618-5344 ext. 39722	ABR001	Delivery by Tuesday | Arabella Bouquets 12 Stems of Fresh Cut Red Roses in a Free Designer Glass Vase	1	0	1	NextDay	Diana Barrera	9501 MELITA ST			PICO RIVERA	CA	90660-1830	US		Love you gorgeous and proud of you!! From You’re Love	false		
114-9142788-3213025	32955768387594	2020-10-17T01:49:00+00:00	2020-10-16T18:49:00-07:00	2020-10-17T01:54:43+00:00	2020-10-20T06:59:59+00:00	-3	6spztdb1dfm9mdm@marketplace.amazon.com	james nazy	+1 602-671-6610 ext. 22808	ABR001	Delivery by Tuesday | Arabella Bouquets 12 Stems of Fresh Cut Red Roses in a Free Designer Glass Vase	1	0	1	NextDay	james nazy	10514 S AVENUE E			CHICAGO	IL	60617-6313	US			false		
113-5525383-2417046	49768288095370	2020-10-17T01:58:33+00:00	2020-10-16T18:58:33-07:00	2020-10-17T02:00:25+00:00	2020-10-20T06:59:59+00:00	-3	ywnyspn0xppqcjt@marketplace.amazon.com	jennifer isiogu	+1 602-671-6610 ext. 69300	ABR0055	Delivery by Tuesday | Arabella Farm Direct Bouquet of 12 Stems of Fresh Cut Hot Pink Roses in a Free Designer Glass Vase	1	0	1	NextDay	Laura Douglas	3789 CORNICE FALLS DR APT 9			HOLT	MI	48842-8822	US		Hi Laura, Enjoy your gift! From jennifer isiogu	false		
111-2439578-6749805	59778915491762	2020-10-17T02:16:40+00:00	2020-10-16T19:16:40-07:00	2020-10-17T02:20:04+00:00	2020-10-20T06:59:59+00:00	-3	jxx82zgqjwrrr45@marketplace.amazon.com	Matt Abraham	+1 602-671-6610 ext. 42530	ABR001	Delivery by Tuesday | Arabella Bouquets 12 Stems of Fresh Cut Red Roses in a Free Designer Glass Vase	1	0	1	NextDay	Mary Ann McGirr	9232 WARSAW RD			LE ROY	NY	14482-8820	US		For you... From Matthew	false		
111-7572801-1054648	03575494548498	2020-10-17T00:40:25+00:00	2020-10-16T17:40:25-07:00	2020-10-17T02:39:50+00:00	2020-10-20T06:59:59+00:00	-3	htys4k1cp9myl74@marketplace.amazon.com	Newell King	+1 213-442-1463 ext. 14234	ABR0022	Delivery by Tuesday | Arabella Farm Direct Bouquet of 12 Fresh Cut Pink Roses with a Free Glass Vase	1	0	1	NextDay	Lana King	5500 LAVON DR			GARLAND	TX	75040-3122	US		I love you very much I hope this brightens your day! Miss you! From Newell King	false		
114-6273108-8328222	49422113438810	2020-10-17T02:41:04+00:00	2020-10-16T19:41:04-07:00	2020-10-17T02:42:00+00:00	2020-10-20T06:59:59+00:00	-3	xq4tkjbkd1jcvv3@marketplace.amazon.com	Lois Oxborough	+1 602-671-6610 ext. 56249	ABR0033	Delivery by Tuesday | Arabella Farm Direct Bouquet of 12 Fresh Cut Orange Roses with a Free Glass Vase	1	0	1	NextDay	Jenny Oxborough	24020 YELLOWSTONE TRL			EXCELSIOR	MN	55331-2969	US		Happy 60th Birthday Jenny. Hope you have a great year.  Jerry & Lois From Lois Oxborough	false		
114-1913792-5151405	42162430044834	2020-10-17T02:55:26+00:00	2020-10-16T19:55:26-07:00	2020-10-17T02:59:58+00:00	2020-10-20T06:59:59+00:00	-3	n13hcxrzdynrm7s@marketplace.amazon.com	Dann Davis	+1 929-436-4790 ext. 31575	ABM010	Delivery by Tuesday | The Spring Fling Bouquet by Arabella Bouquets with a Free Designer Glass Vase	1	0	1	NextDay	Marilynn Davis	201 VILLAGE GATE RD			ORINDA	CA	94563-2720	US		Happy Birthday Mom!  I love and miss you. From Dann Davis	false		
114-9161722-4221060	03921665714786	2020-10-17T03:07:13+00:00	2020-10-16T20:07:13-07:00	2020-10-17T03:12:46+00:00	2020-10-20T06:59:59+00:00	-3	dh077qlwp99dx4q@marketplace.amazon.com	Stephen Bares	+1 619-854-2705 ext. 93532	ABR0022	Delivery by Tuesday | Arabella Farm Direct Bouquet of 12 Fresh Cut Pink Roses with a Free Glass Vase	1	0	1	NextDay	Becca Warner	224 MURCIA DR APT 303			JUPITER	FL	33458-2744	US			false		
113-2111980-0318652	31989876812514	2020-10-17T03:20:14+00:00	2020-10-16T20:20:14-07:00	2020-10-17T03:25:37+00:00	2020-10-20T06:59:59+00:00	-3	lvbgg16yjdh9t1d@marketplace.amazon.com	Rebecca Gilbert	+1 619-854-2705 ext. 36961	ABR0066	Delivery by Tuesday | Arabella Bouquets 12 Stems of Fresh Cut White Roses in a Free Designer Glass Vase	1	0	1	NextDay	Libby Isaac	562 WAITS RD			CYNTHIANA	KY	41031-7541	US			false		
111-8731014-9288215	03869002113218	2020-10-17T03:37:33+00:00	2020-10-16T20:37:33-07:00	2020-10-17T03:42:01+00:00	2020-10-20T06:59:59+00:00	-3	pfp0c25scrp2c31@marketplace.amazon.com	fereshteh rigi	+1 619-854-2705 ext. 72863	ABR001	Delivery by Tuesday | Arabella Bouquets 12 Stems of Fresh Cut Red Roses in a Free Designer Glass Vase	1	0	1	NextDay	Ann Haw	ALJOYA 450 NE 100TH ST APT 607			SEATTLE	WA	98125-8028	US			false		
111-1143697-2021021	62522870758994	2020-10-17T04:57:42+00:00	2020-10-16T21:57:42-07:00	2020-10-17T04:58:35+00:00	2020-10-20T06:59:59+00:00	-3	r54rx622hs9bjhk@marketplace.amazon.com	Brennan Frank	+1 480-618-5344 ext. 01139	ABR001	Delivery by Tuesday | Arabella Bouquets 12 Stems of Fresh Cut Red Roses in a Free Designer Glass Vase	1	0	1	NextDay	Danielle Frank	1730 S LOGAN ST			DENVER	CO	80210-3124	US		My first thought was to get you a knife set but that felt too romantic. Decided roses instead. I love you.  Brennan From Brennan Frank	false		
113-5147504-6051447	44327807886666	2020-10-17T05:17:51+00:00	2020-10-16T22:17:51-07:00	2020-10-17T05:23:22+00:00	2020-10-20T06:59:59+00:00	-3	dwfw0v86gsdlbs9@marketplace.amazon.com	Federico casas	+1 415-851-9136 ext. 77558	ABR0022	Delivery by Tuesday | Arabella Farm Direct Bouquet of 12 Fresh Cut Pink Roses with a Free Glass Vase	1	0	1	NextDay	Claudia alejandres	620 N FRONT ST			STEELTON	PA	17113-2127	US			false		
111-2543370-5480207	23004100775746	2020-10-17T07:51:21+00:00	2020-10-17T00:51:21-07:00	2020-10-17T07:54:30+00:00	2020-10-20T06:59:59+00:00	-3	pb0206ptdkncp9f@marketplace.amazon.com	Annette Auld	+1 213-442-1463 ext. 02874	ABR0022	Delivery by Tuesday | Arabella Farm Direct Bouquet of 12 Fresh Cut Pink Roses with a Free Glass Vase	1	0	1	NextDay	Mary Jennings	926 PINE GROVE RD			SENECA	SC	29678-6231	US		Happy Birthday to our beautiful Mom and Grandmama! We love you so much!  Nette, Trey, Dru, Lex and Mary Delle From Annette Auld	false		
112-1642236-4209812	50712659394554	2020-10-17T08:22:15+00:00	2020-10-17T01:22:15-07:00	2020-10-17T08:23:24+00:00	2020-10-20T06:59:59+00:00	-3	69rqfjdysg03w44@marketplace.amazon.com	Carlo Luis De Guzman	+1 480-618-5344 ext. 84973	ABR0022	Delivery by Tuesday | Arabella Farm Direct Bouquet of 12 Fresh Cut Pink Roses with a Free Glass Vase	1	0	1	NextDay	Isabel Constantino	1100 N WALNUT ST APT 11			BLOOMINGTON	IN	47404-3508	US		Happy Anniversary!!! I may be far away, but I will still try my best to support you in all of your endeavors!!  Love and miss you! From Carlo Luis De Guzman	false		
112-8268793-3239414	36424745159498	2020-10-17T10:01:20+00:00	2020-10-17T03:01:20-07:00	2020-10-17T10:03:30+00:00	2020-10-20T06:59:59+00:00	-3	hv6j3cby49cr413@marketplace.amazon.com	Mark Hoover	608628733	ABM022	Delivery by Tuesday | Purple Extravagance Bouquet by Arabella Bouquets	1	0	1	NextDay	Sandy Prestine & Dan	3638 ICE AGE DR			MADISON	WI	53719-5411	US		Sandy - your friendship is priceless to me. Thank you for the support and all the help - enjoy a little personal time with these gifts - From Your forever friend, Angel	false		
114-6148071-2833808	22203007362666	2020-10-17T12:46:02+00:00	2020-10-17T05:46:02-07:00	2020-10-17T13:15:37+00:00	2020-10-21T06:59:59+00:00	-4	r42r50hnpfstrl9@marketplace.amazon.com	Irene Reillo	+1 602-671-6610 ext. 10717	ABR0066	Delivery by Tuesday | Arabella Bouquets 12 Stems of Fresh Cut White Roses in a Free Designer Glass Vase	1	0	1	Expedited	Maria Reillo	6701 DEL REY AVE APT 205			LAS VEGAS	NV	89146-9217	US			false		
114-0274637-0219470	34740683264418	2020-10-17T12:59:15+00:00	2020-10-17T05:59:15-07:00	2020-10-17T13:25:24+00:00	2020-10-21T06:59:59+00:00	-4	g69z5hjkj0fl3k1@marketplace.amazon.com	Carol Scandariato	+1 619-854-2705 ext. 05344	ABM022	Delivery by Tuesday | Purple Extravagance Bouquet by Arabella Bouquets	1	0	1	Expedited	Holly Seitz	23 GARDNER ACRES RD			NORWICH	CT	06360-4024	US		Congratulations on the birth of your beautiful little girl! From Warm regards from Ret. Chief Scand and Carol	false		
113-5714088-4135455	53540947129794	2020-10-17T14:00:41+00:00	2020-10-17T07:00:41-07:00	2020-10-17T14:17:57+00:00	2020-10-21T06:59:59+00:00	-4	p3t17b903jtk18v@marketplace.amazon.com	Judith Shapiro	+1 480-618-5344 ext. 95312	ABR0022	Delivery by Tuesday | Arabella Farm Direct Bouquet of 12 Fresh Cut Pink Roses with a Free Glass Vase	1	0	1	Expedited	Yana Richards	3385 SLEDD CT			WINSTON SALEM	NC	27106-5228	US		Dear Yana, We so enjoyed our time in your beautiful Kiawah home. Thank you so much, Judy and Carl Shapiro From Judith Shapiro	false		
112-5412331-3561003	05982449369794	2020-10-17T13:53:50+00:00	2020-10-17T06:53:50-07:00	2020-10-17T14:22:27+00:00	2020-10-21T06:59:59+00:00	-4	lw48qkg1ffw4xhl@marketplace.amazon.com	wanglingfeng	+1 929-436-4790 ext. 11345	ABR0022	Delivery by Tuesday | Arabella Farm Direct Bouquet of 12 Fresh Cut Pink Roses with a Free Glass Vase	1	0	1	Expedited	Weiyuan Fan	3203 PINEFORD DR MIDDLETOWN			MIDDLETOWN	PA	17057-2632	US			false		
111-5008769-8885069	43022826172194	2020-10-17T14:01:28+00:00	2020-10-17T07:01:28-07:00	2020-10-17T14:30:22+00:00	2020-10-21T06:59:59+00:00	-4	vv7ylrtsmk0fnsn@marketplace.amazon.com	Debra A. Licht	+1 480-618-5344 ext. 89709	ABR0022	Delivery by Tuesday | Arabella Farm Direct Bouquet of 12 Fresh Cut Pink Roses with a Free Glass Vase	1	0	1	Expedited	Debra Licht Mayer	28 N CONE RD			EAST HAMPTON	CT	06424-2110	US		Happy birthday!!!! Love you very much!!!! From Debbie and Rick	false		
111-4508811-2845037	05411424763218	2020-10-17T14:06:29+00:00	2020-10-17T07:06:29-07:00	2020-10-17T14:35:04+00:00	2020-10-21T06:59:59+00:00	-4	p3pytlxhtghrw9z@marketplace.amazon.com	Tiko Russell	+1 929-436-4790 ext. 45955	ABR0033	Delivery by Tuesday | Arabella Farm Direct Bouquet of 12 Fresh Cut Orange Roses with a Free Glass Vase	1	0	1	Expedited	Michelle Russell	630 PRINCE TRL			MCDONOUGH	GA	30252-8900	US		Happy Birthday, Michelle! From Bryan, Tiko, Braxton and Morgan	false		
111-8980044-9443429	41956617290906	2020-10-17T14:09:32+00:00	2020-10-17T07:09:32-07:00	2020-10-17T14:38:00+00:00	2020-10-21T06:59:59+00:00	-4	9ppb555qvk1f68l@marketplace.amazon.com	Suzy	+1 480-618-5344 ext. 18827	ABM020	Delivery by Tuesday | The Sunset Bouquet by Arabella Bouquets	1	0	1	Expedited	Patty Kelly	5916 CRAIG ST			SPRINGFIELD	VA	22150-3244	US		Patty, hope these bring a smile while you recover. Hope you are doing a bit better each day!  BIG HUGS!! From Suzy	false		
111-9616412-4856262	45853092153034	2020-10-17T14:19:12+00:00	2020-10-17T07:19:12-07:00	2020-10-17T14:46:34+00:00	2020-10-20T06:59:59+00:00	-3	w5zd1rncw2fnl0v@marketplace.amazon.com	Dallas Owens	+1 929-436-4790 ext. 27397	ABR0022	Delivery by Tuesday | Arabella Farm Direct Bouquet of 12 Fresh Cut Pink Roses with a Free Glass Vase	1	0	1	SecondDay	Chelsea Brinson	5766 REIMS PL			FORT MYERS	FL	33919-3472	US		Hope these brighten your day and you feel better soon. Next time I’m in town, hopefully we can meet up! From Dallas Owens	false		
113-3710544-8692207	55930421538274	2020-10-17T14:32:52+00:00	2020-10-17T07:32:52-07:00	2020-10-17T14:58:09+00:00	2020-10-20T06:59:59+00:00	-3	0vsf94s4zysvkh2@marketplace.amazon.com	Charles Gradante	+1 929-436-4790 ext. 35555	ABR0022	Delivery by Tuesday | Arabella Farm Direct Bouquet of 12 Fresh Cut Pink Roses with a Free Glass Vase	1	0	1	SecondDay	Rose Anna Boni	3800 WASHINGTON RD APT 409			WEST PALM BEACH	FL	33405-2369	US		A good friend is hard to find. A woman like you is even harder to find. Thank you for being a friend. Xoxo From Charles	false		
112-2180031-4798630	15463138334514	2020-10-17T14:38:56+00:00	2020-10-17T07:38:56-07:00	2020-10-17T15:04:22+00:00	2020-10-20T06:59:59+00:00	-3	cknpntggt5s2nzd@marketplace.amazon.com	Mark Shaughnessy	+1 929-436-4790 ext. 87538	ABR004	Delivery by Tuesday | Arabella Farm Direct Bouquet of 12 Fresh Cut Yellow Roses with a Free Glass Vase	1	0	1	SecondDay	Cybelle Fox	200 2ND ST UNIT 301			OAKLAND	CA	94607-4575	US		Happy Birthday Cybelle!  Hope you do something special for your birthday. We love and miss you so much. From Love, Maria, Mark, Devyn, Kendall xoxoxo	false		
112-3039149-9711466	58337099288842	2020-10-17T15:02:22+00:00	2020-10-17T08:02:22-07:00	2020-10-17T15:19:07+00:00	2020-10-20T06:59:59+00:00	-3	z2kqk5mjdk8t1xg@marketplace.amazon.com	zaine	+1 619-854-2705 ext. 93561	ABR0066	Delivery by Tuesday | Arabella Bouquets 12 Stems of Fresh Cut White Roses in a Free Designer Glass Vase	1	0	1	SecondDay	Ma. Carmen Hyde	10311 SABER CT			HOUSTON	TX	77038-2240	US			false		
113-4105787-3151402	29427945795002	2020-10-17T15:23:44+00:00	2020-10-17T08:23:44-07:00	2020-10-17T15:49:40+00:00	2020-10-20T06:59:59+00:00	-3	hlwk5rhnnt2fphf@marketplace.amazon.com	Shaima Alrashed	+1 619-854-2705 ext. 37859	ABM022	Delivery by Tuesday | Purple Extravagance Bouquet by Arabella Bouquets	1	0	1	SecondDay	Nour Alrashed	2039 MADRILLON SPRINGS CT			VIENNA	VA	22182-3764	US		Congratulations on your new bundle of joy! From Shaima Alrashed	false		
113-1358147-4979400	10431393025194	2020-10-17T16:03:02+00:00	2020-10-17T09:03:02-07:00	2020-10-17T16:27:17+00:00	2020-10-21T06:59:59+00:00	-4	pv8w4pwpw3qc0c4@marketplace.amazon.com	Andrew Cristancho	+1 602-671-6610 ext. 27153	ABR0033	Delivery by Tuesday | Arabella Farm Direct Bouquet of 12 Fresh Cut Orange Roses with a Free Glass Vase	1	0	1	Expedited	Pauline Deutman	1835 RALEIGH RD			NEW RICHMOND	WI	54017-7509	US			false		
114-9959655-7181816	38784827662850	2020-10-17T16:33:11+00:00	2020-10-17T09:33:11-07:00	2020-10-17T16:34:06+00:00	2020-10-20T06:59:59+00:00	-3	f1625p9ynpm0mbd@marketplace.amazon.com	Lorena Castaneda	+1 619-854-2705 ext. 32430	ABR001	Delivery by Tuesday | Arabella Bouquets 12 Stems of Fresh Cut Red Roses in a Free Designer Glass Vase	1	0	1	NextDay	Sheryll Ebbs	6200 SOMERSET WAY			CAMBRIA	CA	93428-1912	US		Dear Sheryll, Thanks for another year of being an awesome friend. Happy birthday dear friend! Love you, From Lorena Castaneda	false		
111-6920201-2852264	67338914444642	2020-10-17T16:33:34+00:00	2020-10-17T09:33:34-07:00	2020-10-17T16:37:32+00:00	2020-10-20T06:59:59+00:00	-3	yfqf70sr72ymsqp@marketplace.amazon.com	Dorine M. Klietz	+1 602-671-6610 ext. 86125	ABR0022	Delivery by Tuesday | Arabella Farm Direct Bouquet of 12 Fresh Cut Pink Roses with a Free Glass Vase	1	0	1	NextDay	Debbie VanderVen	7624 SALMON CREEK RD			WILLIAMSON	NY	14589-9578	US		Hope you feel better my friend!  Love you very much! Doe From Dorine M. Klietz	false		
112-6290687-9064208	34316415981426	2020-10-17T16:53:54+00:00	2020-10-17T09:53:54-07:00	2020-10-17T16:56:42+00:00	2020-10-20T06:59:59+00:00	-3	wksbwsc7230g3s5@marketplace.amazon.com	Joylynn Boardman	+1 602-671-6610 ext. 02175	ABR0066	Delivery by Tuesday | Arabella Bouquets 12 Stems of Fresh Cut White Roses in a Free Designer Glass Vase	1	0	1	NextDay	Kate Boardman	515 NE MAPLE ST			PULLMAN	WA	99163-4106	US			false		
114-5875227-4830648	03463156532882	2020-10-17T17:00:36+00:00	2020-10-17T10:00:36-07:00	2020-10-17T17:25:53+00:00	2020-10-21T06:59:59+00:00	-4	djvf7dsswvynj48@marketplace.amazon.com	Tera	+1 929-436-4790 ext. 83663	ABR0033	Delivery by Tuesday | Arabella Farm Direct Bouquet of 12 Fresh Cut Orange Roses with a Free Glass Vase	1	0	1	Expedited	Eva Oriakhi	5917 NW Cleveland Ave			Portland	OR	97211	US		Happy 30th Birthday dearest Eva!! I couldn't not get you flowers on your 30th :) What special day!! Sorry they are little late but I thought it might be nice to extend gifts and celebrations into the next week :D Love you! From Tera	false		
113-7463551-7875405	39446546272026	2020-10-17T17:07:11+00:00	2020-10-17T10:07:11-07:00	2020-10-17T17:36:14+00:00	2020-10-21T06:59:59+00:00	-4	ynfmj2q0bcftbh3@marketplace.amazon.com	Hans Philipps	+1 929-436-4790 ext. 48384	ABR0033	Delivery by Tuesday | Arabella Farm Direct Bouquet of 12 Fresh Cut Orange Roses with a Free Glass Vase	1	0	1	Expedited	Hans Philipps	1231 THORNTON DR			SEQUIM	WA	98382-8091	US			false		
111-9282603-7890652	06152485025106	2020-10-17T17:34:37+00:00	2020-10-17T10:34:37-07:00	2020-10-17T17:37:42+00:00	2020-10-20T06:59:59+00:00	-3	2htk8qg583gv25v@marketplace.amazon.com	Jose Vega	+1 602-671-6610 ext. 79173	ABR0022	Delivery by Tuesday | Arabella Farm Direct Bouquet of 12 Fresh Cut Pink Roses with a Free Glass Vase	1	0	1	NextDay	Nicole Levy	1984 NORSHON RD			MERRICK	NY	11566-4627	US			false		
114-5280374-5706641	45416417277514	2020-10-17T17:08:24+00:00	2020-10-17T10:08:24-07:00	2020-10-17T17:38:48+00:00	2020-10-21T06:59:59+00:00	-4	ldngvxplq0r5fjb@marketplace.amazon.com	Karyn	+1 480-618-5344 ext. 15475	ABR0033	Delivery by Tuesday | Arabella Farm Direct Bouquet of 12 Fresh Cut Orange Roses with a Free Glass Vase	1	0	1	Expedited	Lindsey Hart	2501 STIRLING CIR UNIT 105			DUNEDIN	FL	34698-7063	US			false		
112-3657234-7470607	48772853228778	2020-10-17T17:47:42+00:00	2020-10-17T10:47:42-07:00	2020-10-17T17:52:21+00:00	2020-10-20T06:59:59+00:00	-3	sfthyr43fxxkqbs@marketplace.amazon.com	Denise Mason	+1 602-671-6610 ext. 68139	ABM020	Delivery by Tuesday | The Sunset Bouquet by Arabella Bouquets	1	0	1	NextDay	Brenda McClafferty	2214 HARPOON DR			STAFFORD	VA	22554-2523	US		Love you!!! From Stacy and Denise	false		
112-8769027-2033047	42027770950050	2020-10-17T17:50:58+00:00	2020-10-17T10:50:58-07:00	2020-10-17T17:55:22+00:00	2020-10-20T06:59:59+00:00	-3	37dspm9jhnp1k03@marketplace.amazon.com	William Dempsey	+1 213-442-1463 ext. 15336	ABM022	Delivery by Tuesday | Purple Extravagance Bouquet by Arabella Bouquets	1	0	1	NextDay	Jack and Teresa Stainback	2512 EMPIE DR			LELAND	NC	28451-2505	US		Happy Birthday Teresa! We love you! From Christine & Bill	false		
111-2385915-8153820	64309703212346	2020-10-17T17:55:25+00:00	2020-10-17T10:55:25-07:00	2020-10-17T18:00:30+00:00	2020-10-20T06:59:59+00:00	-3	w0d2lwrxvpb5zby@marketplace.amazon.com	Iyce	+1 602-671-6610 ext. 77987	ABR001	Delivery by Tuesday | Arabella Bouquets 12 Stems of Fresh Cut Red Roses in a Free Designer Glass Vase	1	0	1	NextDay	Pamela	6811 JEFFERSON AVE	FALLS CHURCH AVA 22042		FALLS CHURCH	VA	22042-1932	US		You are the queen of my heart...love you From KAI	false		
113-2691512-7514646	10296064710218	2020-10-17T18:18:16+00:00	2020-10-17T11:18:16-07:00	2020-10-17T18:20:55+00:00	2020-10-20T06:59:59+00:00	-3	vsb2m86k9tdb162@marketplace.amazon.com	Kathleen Graf Deeb	+1 415-851-9136 ext. 21877	ABR0022	Delivery by Tuesday | Arabella Farm Direct Bouquet of 12 Fresh Cut Pink Roses with a Free Glass Vase	1	0	1	NextDay	Jean Deeb	5841 MARLOW DR			EAST SYRACUSE	NY	13057-3021	US		Happy 80th Birthday Sitto!  Thinking of you on your special day.  We love you so much! From Anne Marie & Mary Kate	false		
111-9476110-3836220	25558617292122	2020-10-17T18:01:02+00:00	2020-10-17T11:01:02-07:00	2020-10-17T18:21:26+00:00	2020-10-21T06:59:59+00:00	-4	00y8t1p0w24hwb3@marketplace.amazon.com	Catherine Holland	+1 602-671-6610 ext. 57223	ABR004	Delivery by Wednesday | Arabella Farm Direct Bouquet of 12 Fresh Cut Yellow Roses with a Free Glass Vase	1	0	1	Expedited	June Dayhoff	10 E GREEN ST			WESTMINSTER	MD	21157-4910	US		Mama... a rose by any other name would smell as sweet.... as my mama... From Ginger	false		
111-8446786-4083464	26482568870402	2020-10-17T18:23:21+00:00	2020-10-17T11:23:21-07:00	2020-10-17T18:25:58+00:00	2020-10-20T06:59:59+00:00	-3	13mwz5jbhf25rrx@marketplace.amazon.com	Shawn Gisler	+1 602-671-6610 ext. 03033	ABR0055	Delivery by Tuesday | Arabella Farm Direct Bouquet of 12 Stems of Fresh Cut Hot Pink Roses in a Free Designer Glass Vase	1	0	1	NextDay	Shawn A. Gisler	378 PLAZA TOLUCA			CHULA VISTA	CA	91914-4405	US		Eileen, We know you are overwhelmed with school and it’s hard to live alone.  Please don’t get discouraged.  We love you so much and are very proud of you.  I am praying for you and I will see you soon.  Enjoy your gift! From Mom & Dad	false		
111-4251759-9657844	67261465125658	2020-10-17T18:25:28+00:00	2020-10-17T11:25:28-07:00	2020-10-17T18:28:05+00:00	2020-10-20T06:59:59+00:00	-3	m121x6c0rqc9ywj@marketplace.amazon.com	karen freeman	+1 213-442-1463 ext. 90328	ABM022	Delivery by Tuesday | Purple Extravagance Bouquet by Arabella Bouquets	1	0	1	NextDay	Jan Brainard	10988 KIRBY BLVD			CHISAGO CITY	MN	55013-5414	US		Dearest Dit, We hope you can feel our love and hugs! So sorry about your Mom! What an amazing lady!! Our prayers and love, Sonja, Karen and Knef	false		
112-5194902-1514627	54948804856730	2020-10-17T18:31:48+00:00	2020-10-17T11:31:48-07:00	2020-10-17T18:37:22+00:00	2020-10-20T06:59:59+00:00	-3	2wxvy7rpf4r4rqv@marketplace.amazon.com	Susan Kingcade	+1 415-851-9136 ext. 54055	ABM022	Delivery by Tuesday | Purple Extravagance Bouquet by Arabella Bouquets	1	0	1	NextDay	Joan dowler	2387 RANCH HOUSE RD			WEST PALM BEACH	FL	33406-3151	US			false		
113-8485328-4069023	28607022693090	2020-10-17T19:12:40+00:00	2020-10-17T12:12:40-07:00	2020-10-17T19:16:29+00:00	2020-10-20T06:59:59+00:00	-3	cbnys55mjb4t9vz@marketplace.amazon.com	John Cluff	+1 619-854-2705 ext. 31224	ABR0022	Delivery by Tuesday | Arabella Farm Direct Bouquet of 12 Fresh Cut Pink Roses with a Free Glass Vase	1	0	1	NextDay	Susan Good	576 EAGLEWOOD DR			REXBURG	ID	83440-2606	US		Hi Susan, Enjoy your belated birthday gift! Love, Karen ❤️	false		
114-3479290-3077039	33051798836114	2020-10-17T19:33:35+00:00	2020-10-17T12:33:35-07:00	2020-10-17T19:36:20+00:00	2020-10-20T06:59:59+00:00	-3	3q0dnnj28vxcmvw@marketplace.amazon.com	Katy	+1 929-436-4790 ext. 04737	ABM022	Delivery by Tuesday | Purple Extravagance Bouquet by Arabella Bouquets	1	0	1	NextDay	Emily McGinnis	1455 MONROE ST NW			WASHINGTON	DC	20010-3138	US		Happy 31st Birthday!  We love you! Michael, Patrick,Katy, Dad and Mom Sophie and George too!! xoxo From Your Family!! xoxo	false		
