order-id	order-item-id	purchase-date	payments-date	reporting-date	promise-date	days-past-promise	buyer-email	buyer-name	buyer-phone-number	sku	product-name	quantity-purchased	quantity-shipped	quantity-to-ship	ship-service-level	recipient-name	ship-address-1	ship-address-2	ship-address-3	ship-city	ship-state	ship-postal-code	ship-country	gift-wrap-type	gift-message-text	is-business-order	purchase-order-number	price-designation
112-9824960-1081852	70003309245170	2020-10-15T09:29:48+00:00	2020-10-15T02:29:48-07:00	2020-10-15T09:56:46+00:00	2020-10-20T06:59:59+00:00	-2	hbmnjjvb4bj8fc5@marketplace.amazon.com	sharon lams	+1 213-442-1463 ext. 40062	ABM020	Delivery by Friday | The Sunset Bouquet by Arabella Bouquets	1	0	1	Expedited	Mrs K Lams	3051 OLD HILLSBORO RD			FRANKLIN	TN	37064-9544	US		Dear Mama and Portly Thinking of you both and sending all our love Teddy and Sharon xx From sharon lams	false		
112-0181578-6249870	12167166184554	2020-10-15T14:40:37+00:00	2020-10-15T07:40:37-07:00	2020-10-15T15:04:03+00:00	2020-10-20T06:59:59+00:00	-2	q23qr95t37skcmt@marketplace.amazon.com	Kevin Harkey	+1 619-854-2705 ext. 26256	ABR001	Delivery by Friday | Arabella Bouquets 12 Stems of Fresh Cut Red Roses in a Free Designer Glass Vase	1	0	1	Expedited	Becky Musgrave	532 MARINER WAY			CHATTANOOGA	TN	37402-2922	US		Our love and prayers -- Carrie and Kevin From Kevin Harkey	false		
112-4243026-0315441	46640379114642	2020-10-15T20:17:10+00:00	2020-10-15T13:17:10-07:00	2020-10-15T20:47:22+00:00	2020-10-20T06:59:59+00:00	-2	j9q7ysgdggy8pxm@marketplace.amazon.com	Steven miller	+1 480-618-5344 ext. 15405	ABR0055	Delivery by Saturday | Arabella Farm Direct Bouquet of 12 Stems of Fresh Cut Hot Pink Roses in a Free Designer Glass Vase	1	0	1	Expedited	Steven Miller	2350 MCMINNVILLE HWY			SPARTA	TN	38583-2432	US			false		
112-1797485-2345849	18222727777210	2020-10-16T18:16:30+00:00	2020-10-16T11:16:30-07:00	2020-10-16T18:17:14+00:00	2020-10-21T06:59:59+00:00	-3	vrgsbvlrstzlxd1@marketplace.amazon.com	Andrew laird	+1 213-442-1463 ext. 10560	ABR0022	Delivery by Tuesday | Arabella Farm Direct Bouquet of 12 Fresh Cut Pink Roses with a Free Glass Vase	1	0	1	Expedited	Kristina Hensley	4229 WYNFIELD PL			ENGLEWOOD	OH	45322-2646	US		I hope you feel better real soon Kristina, and next time I promise I will be there as soon as I possibly can. I am thinking of you and sending you healing, I love you and can’t wait for you to be my wife. From Andrew laird	false		
112-4329468-3375403	16275580648882	2020-10-16T18:18:24+00:00	2020-10-16T11:18:24-07:00	2020-10-16T18:42:47+00:00	2020-10-21T06:59:59+00:00	-3	7j17nyf632zg49y@marketplace.amazon.com	Patricia Thompson	+1 602-671-6610 ext. 09094	ABR0022	Delivery by Tuesday | Arabella Farm Direct Bouquet of 12 Fresh Cut Pink Roses with a Free Glass Vase	1	0	1	Expedited	Magee Schreijer	369 BENT STREAM LN			BROWNSBURG	IN	46112-8128	US		Happy 16th Birthday Magee! We Love You! From Uncle Mark & Auntie Patti	false		
111-1994317-2508237	27037071838290	2020-10-16T18:41:37+00:00	2020-10-16T11:41:37-07:00	2020-10-16T18:47:04+00:00	2020-10-20T06:59:59+00:00	-2	l5c77r4d7s7875r@marketplace.amazon.com	michael Burnett	+1 480-618-5344 ext. 61264	ABR001	Arabella Bouquets 12 Stems of Fresh Cut Red Roses in a Free Designer Glass Vase	1	0	1	NextDay	Michael Burnett	4878 beachway			Ferndale	Washington	98248	US			false		
114-0093130-2622632	23055532578162	2020-10-16T18:23:47+00:00	2020-10-16T11:23:47-07:00	2020-10-16T18:51:00+00:00	2020-10-21T06:59:59+00:00	-3	g5pg6p8rpv44tqp@marketplace.amazon.com	JOANN TONON	+1 602-671-6610 ext. 86819	ABR0022	Delivery by Tuesday | Arabella Farm Direct Bouquet of 12 Fresh Cut Pink Roses with a Free Glass Vase	1	0	1	Expedited	Betty Fong	53 GREENWAY TER			FOREST HILLS	NY	11375-5239	US		Wishing you a speedy recovery From Your friends in Cell Therapy	false		
112-6857540-1521045	65603096533498	2020-10-16T18:26:36+00:00	2020-10-16T11:26:36-07:00	2020-10-16T18:54:17+00:00	2020-10-21T06:59:59+00:00	-3	qv09kqw9z88cc7f@marketplace.amazon.com	judy spiegel	+1 619-854-2705 ext. 96938	ABR0055	Delivery by Tuesday | Arabella Farm Direct Bouquet of 12 Stems of Fresh Cut Hot Pink Roses in a Free Designer Glass Vase	1	0	1	Expedited	Rhoda smith	16 FOREST HILL TER			ORONO	ME	04473-3634	US		Happy 89th Birthday blessings! I know you will have a wonderful beautiful birthday with BJ visiting. Loads of love From judy spiegel	false		
113-3980524-6072269	47830723447690	2020-10-16T19:16:59+00:00	2020-10-16T12:16:59-07:00	2020-10-16T19:17:52+00:00	2020-10-20T06:59:59+00:00	-2	lnh2b2ww1n4yrht@marketplace.amazon.com	John Taylor	+1 213-442-1463 ext. 31404	ABR0055	Delivery by Tuesday | Arabella Farm Direct Bouquet of 12 Stems of Fresh Cut Hot Pink Roses in a Free Designer Glass Vase	1	0	1	NextDay	Kerry Ann Plunket	417 COACH HOUSE LN			HILLSBOROUGH	NC	27278-9849	US			false		
113-5731120-1148215	06735556935474	2020-10-16T19:17:59+00:00	2020-10-16T12:17:59-07:00	2020-10-16T19:21:42+00:00	2020-10-20T06:59:59+00:00	-2	k62c6brhxqkxptv@marketplace.amazon.com	Richard J Bailey	+1 213-442-1463 ext. 42102	ABM022	Delivery by Tuesday | Purple Extravagance Bouquet by Arabella Bouquets	1	0	1	NextDay	Ella Lousie Burke	212 MONTCALM ST			TICONDEROGA	NY	12883-4115	US			false		
111-5217522-3411456	58156331260722	2020-10-16T19:20:46+00:00	2020-10-16T12:20:46-07:00	2020-10-16T19:24:00+00:00	2020-10-20T06:59:59+00:00	-2	kc9t5bbydcw2z8q@marketplace.amazon.com	annie mead	+1 480-618-5344 ext. 40653	ABR0022	Delivery by Tuesday | Arabella Farm Direct Bouquet of 12 Fresh Cut Pink Roses with a Free Glass Vase	1	0	1	NextDay	June Vaughn	3850 N 760 W			SHIPSHEWANA	IN	46565-9533	US		Happy Birthday! At least we didn't eat them this time. From Jeff and Annie	false		
111-8951213-9930663	09559111664730	2020-10-16T19:33:27+00:00	2020-10-16T12:33:27-07:00	2020-10-16T19:34:25+00:00	2020-10-20T06:59:59+00:00	-2	71pryvs9mg9nrh5@marketplace.amazon.com	Patricia Nicholson	+1 480-618-5344 ext. 24990	ABM022	Delivery by Tuesday | Purple Extravagance Bouquet by Arabella Bouquets	1	0	1	NextDay	Marjorie Ann Kirk-Nicholson	CHELSEA RETIREMENT COMMUNITY	805 W MIDDLE ST		CHELSEA	MI	48118-1369	US		Happy Birthday Margie.  Have a nice day! Love, Pat and Bob From Patricia Nicholson	false		
112-4619871-2276245	68606044127418	2020-10-16T19:32:36+00:00	2020-10-16T12:32:36-07:00	2020-10-16T19:36:40+00:00	2020-10-20T06:59:59+00:00	-2	qwpqxp3ggcrk6sb@marketplace.amazon.com	Carmela Arstill	+1 213-442-1463 ext. 87101	ABR0022	Delivery by Tuesday | Arabella Farm Direct Bouquet of 12 Fresh Cut Pink Roses with a Free Glass Vase	1	0	1	NextDay	Terri Carpowich	12720 AZZURO CT			SAN DIEGO	CA	92130-2469	US		Hau'oli La Hanau Sweetie!! Wish I could be there for cake LOL! Love you my Niz! From Carmela Arstill	false		
113-8808682-7337857	56781615871034	2020-10-16T19:41:15+00:00	2020-10-16T12:41:15-07:00	2020-10-16T19:44:40+00:00	2020-10-20T06:59:59+00:00	-2	zks2lx02z7ftkyf@marketplace.amazon.com	Robert and Sue Wilbarg	+1 480-618-5344 ext. 78375	ABR0022	Delivery by Tuesday | Arabella Farm Direct Bouquet of 12 Fresh Cut Pink Roses with a Free Glass Vase	1	0	1	NextDay	Judy Thomas	7319 CHINABERRY CT			PORT RICHEY	FLORIDA	34668-6920	US		Happy Birthday Little Sis From Love Ya	false		
111-3557716-9165011	69860393487642	2020-10-16T20:04:21+00:00	2020-10-16T13:04:21-07:00	2020-10-16T20:05:21+00:00	2020-10-20T06:59:59+00:00	-2	kbbd77l9pj1p833@marketplace.amazon.com	Jaime Fuentes	+1 480-618-5344 ext. 29298	ABM022	Delivery by Tuesday | Purple Extravagance Bouquet by Arabella Bouquets	1	0	1	NextDay	Patti Brunter	3721 TOLAND AVE			LOS ALAMITOS	CA	90720-2257	US		We are so sorry for your loss. Sending healing prayers and comforting hugs through this difficult time. Please know you are in our thoughts, in our hearts, and in our prayers. Xoxo From Velia and Jaime Fuentes	false		
114-5840618-9552245	04503208232162	2020-10-16T20:09:22+00:00	2020-10-16T13:09:22-07:00	2020-10-16T20:13:11+00:00	2020-10-20T06:59:59+00:00	-2	tdsrt3hl8psxs76@marketplace.amazon.com	JOHN JAMES MILLER	+1 213-442-1463 ext. 91539	ABM022	Delivery by Tuesday | Purple Extravagance Bouquet by Arabella Bouquets	1	0	1	NextDay	Natacha Linton	12539 S HARVARD AVE			CHICAGO	IL	60628-7220	US		Wishing you peace and comfort. From SBSS	false		
114-3944840-1861838	09884892396626	2020-10-16T20:09:12+00:00	2020-10-16T13:09:12-07:00	2020-10-16T20:14:09+00:00	2020-10-20T06:59:59+00:00	-2	5vjdhdp6yhzh43h@marketplace.amazon.com	zryan hassan	+1 929-436-4790 ext. 61088	ABM010	Delivery by Tuesday | The Spring Fling Bouquet by Arabella Bouquets with a Free Designer Glass Vase	1	0	1	NextDay	zryan hassan	JULIANNE M KINSEY	14235 AMELIA ISLAND WAY		ORLANDO	FL	32828-4811	US			false		
111-9011525-4100265	46061337240434	2020-10-16T20:25:14+00:00	2020-10-16T13:25:14-07:00	2020-10-16T20:27:35+00:00	2020-10-20T06:59:59+00:00	-2	t2dmyy0dsxwv9sy@marketplace.amazon.com	Bonnie G Parker	+1 213-442-1463 ext. 87517	ABM020	Delivery by Tuesday | The Sunset Bouquet by Arabella Bouquets	1	0	1	NextDay	Jamie Gramkow	2309 COW PATTY TRL			ALEXANDER	AR	72002-8756	US		Thought te vase was unique - like YOU!!  Wishing you good healing.. Love, J & B From Jerry & Bonnie	false		
112-9523165-4566613	21708213969530	2020-10-16T20:53:21+00:00	2020-10-16T13:53:21-07:00	2020-10-16T20:54:14+00:00	2020-10-20T06:59:59+00:00	-2	wxqpxfcgy46syq0@marketplace.amazon.com	Margaret Burgreen	+1 213-442-1463 ext. 01722	ABR0022	Delivery by Tuesday | Arabella Farm Direct Bouquet of 12 Fresh Cut Pink Roses with a Free Glass Vase	1	0	1	NextDay	Kathy Jones	714 SLOOP POINTE LN			KURE BEACH	NC	28449-4924	US		Kathy,  Congratulations on 5 years cancer free! Big love from Scowcroft’s,Carter’s,& Burgreen’s! ❤️	false		
113-1708725-3989067	36676889967650	2020-10-16T21:14:02+00:00	2020-10-16T14:14:02-07:00	2020-10-16T21:15:00+00:00	2020-10-20T06:59:59+00:00	-2	hfn82fpl1zl9sbm@marketplace.amazon.com	sanjeev gupta	+1 480-618-5344 ext. 20280	ABM022	Delivery by Tuesday | Purple Extravagance Bouquet by Arabella Bouquets	1	0	1	NextDay	GAURI GUPTA	230 W DIVISION ST APT 503			CHICAGO	IL	60610-8635	US		Dear Gauri & Mitch we are so delighted with news that we are going to be grand parents. Thank you both . God bless you.  lots of love Mom & Dad From sanjeev gupta	false		
111-5226848-1398606	49094826424098	2020-10-16T21:15:12+00:00	2020-10-16T14:15:12-07:00	2020-10-16T21:20:19+00:00	2020-10-20T06:59:59+00:00	-2	lz770n0v44ztv34@marketplace.amazon.com	David Dean Archibald II	+1 602-671-6610 ext. 49411	ABR0055	Delivery by Tuesday | Arabella Farm Direct Bouquet of 12 Stems of Fresh Cut Hot Pink Roses in a Free Designer Glass Vase	1	0	1	NextDay	Lisa Setz @ Aspen Hills Healthcare Center	600 PEMBERTON BROWNS MILLS RD	RM 377-1		PEMBERTON	NJ	08068-1537	US			false		
112-1430040-5143455	53104298359954	2020-10-16T22:06:53+00:00	2020-10-16T15:06:53-07:00	2020-10-16T22:12:35+00:00	2020-10-20T06:59:59+00:00	-2	r4bvsnw3sg6xqvl@marketplace.amazon.com	Noelle A Detweiler		ABR0022	Delivery by Tuesday | Arabella Farm Direct Bouquet of 12 Fresh Cut Pink Roses with a Free Glass Vase	1	0	1	NextDay	NOELLE A DETWEILER	214 N IDAHO AVE			MASSAPEQUA	NY	11758	US			false		
114-0537713-7834640	64821887869466	2020-10-16T22:19:10+00:00	2020-10-16T15:19:10-07:00	2020-10-16T22:23:08+00:00	2020-10-20T06:59:59+00:00	-2	wslr3xsq5xx25g2@marketplace.amazon.com	MYRNA GOELLER	+1 415-851-9136 ext. 59716	ABR001	Delivery by Tuesday | Arabella Bouquets 12 Stems of Fresh Cut Red Roses in a Free Designer Glass Vase	1	0	1	NextDay	Ivette Muniz	940 SUMMIT AVE			JERSEY CITY	NJ	07307-3744	US		Dear Ivette, thank you for everything you are doing to help mom and pop.  May God bless you tenfold! From MYRNA GOELLER	false		
114-8675421-9481019	24631146123442	2020-10-16T22:21:36+00:00	2020-10-16T15:21:36-07:00	2020-10-16T22:25:56+00:00	2020-10-20T06:59:59+00:00	-2	wslr3xsq5xx25g2@marketplace.amazon.com	MYRNA GOELLER	+1 619-854-2705 ext. 76512	ABR004	Delivery by Tuesday | Arabella Farm Direct Bouquet of 12 Fresh Cut Yellow Roses with a Free Glass Vase	1	0	1	NextDay	Elizabeth Eduardo Orona	542 35TH ST			UNION CITY	NJ	07087-2502	US		Para Mama, voy estar en Union City pronto! From MYRNA GOELLER	false		
113-3429307-2957852	28585091939146	2020-10-16T23:48:18+00:00	2020-10-16T16:48:18-07:00	2020-10-16T23:50:59+00:00	2020-10-20T06:59:59+00:00	-2	mnrqlm0l6rwzhj8@marketplace.amazon.com	Matthew Murray	+1 602-671-6610 ext. 29542	ABM010	Delivery by Tuesday | The Spring Fling Bouquet by Arabella Bouquets with a Free Designer Glass Vase	1	0	1	NextDay	Jessica Murray	2510 ROLLING VIEW DR SE			SMYRNA	GA	30080-2624	US		Happy Birthday and Congratulations on your New Home and Roommate :) Love You a bunch!! mom and dad From Matthew Murray	false		
113-3479626-7892241	50489078937330	2020-10-17T00:03:55+00:00	2020-10-16T17:03:55-07:00	2020-10-17T00:08:22+00:00	2020-10-20T06:59:59+00:00	-2	ng87qnb3n2zt2bm@marketplace.amazon.com	Manuel P Williams	+1 213-442-1463 ext. 73815	ABM010	Delivery by Tuesday | The Spring Fling Bouquet by Arabella Bouquets with a Free Designer Glass Vase	1	0	1	NextDay	Deandrea Terry	1042 GOLDEN POND DR			MANTECA	CA	95336-8365	US			false		
111-0557773-7711446	63293742858530	2020-10-17T01:29:28+00:00	2020-10-16T18:29:28-07:00	2020-10-17T01:33:05+00:00	2020-10-20T06:59:59+00:00	-2	0sb8d2nvb18ldnw@marketplace.amazon.com	Maria Zampano	+1 480-618-5344 ext. 40882	ABR0022	Delivery by Tuesday | Arabella Farm Direct Bouquet of 12 Fresh Cut Pink Roses with a Free Glass Vase	1	0	1	NextDay	Theresa Moore	182 WALNUT ST			SEYMOUR	CT	06483-3629	US		May God keep you in his tender, loving care. I am praying for your speedy recovery.  All my love, From Maria Zampano	false		
114-6831828-1326627	03686101882946	2020-10-17T01:31:40+00:00	2020-10-16T18:31:40-07:00	2020-10-17T01:35:00+00:00	2020-10-20T06:59:59+00:00	-2	tttpblvbwq45svc@marketplace.amazon.com	william Amos	+1 619-854-2705 ext. 04376	ABR0055	Delivery by Tuesday | Arabella Farm Direct Bouquet of 12 Stems of Fresh Cut Hot Pink Roses in a Free Designer Glass Vase	1	0	1	NextDay	Kisha Nicole Garner	10596 NARAMORE LN			JOHNS CREEK	GA	30022-5537	US		HAPPY TWO YEARS From william Amos	false		
111-6799835-4417834	32239575232018	2020-10-17T01:44:53+00:00	2020-10-16T18:44:53-07:00	2020-10-17T01:48:45+00:00	2020-10-20T06:59:59+00:00	-2	x6kh0dps99m8q9s@marketplace.amazon.com	josh	+1 480-618-5344 ext. 39722	ABR001	Delivery by Tuesday | Arabella Bouquets 12 Stems of Fresh Cut Red Roses in a Free Designer Glass Vase	1	0	1	NextDay	Diana Barrera	9501 MELITA ST			PICO RIVERA	CA	90660-1830	US		Love you gorgeous and proud of you!! From You’re Love	false		
114-9142788-3213025	32955768387594	2020-10-17T01:49:00+00:00	2020-10-16T18:49:00-07:00	2020-10-17T01:54:43+00:00	2020-10-20T06:59:59+00:00	-2	6spztdb1dfm9mdm@marketplace.amazon.com	james nazy	+1 602-671-6610 ext. 22808	ABR001	Delivery by Tuesday | Arabella Bouquets 12 Stems of Fresh Cut Red Roses in a Free Designer Glass Vase	1	0	1	NextDay	james nazy	10514 S AVENUE E			CHICAGO	IL	60617-6313	US			false		
113-5525383-2417046	49768288095370	2020-10-17T01:58:33+00:00	2020-10-16T18:58:33-07:00	2020-10-17T02:00:25+00:00	2020-10-20T06:59:59+00:00	-2	ywnyspn0xppqcjt@marketplace.amazon.com	jennifer isiogu	+1 602-671-6610 ext. 69300	ABR0055	Delivery by Tuesday | Arabella Farm Direct Bouquet of 12 Stems of Fresh Cut Hot Pink Roses in a Free Designer Glass Vase	1	0	1	NextDay	Laura Douglas	3789 CORNICE FALLS DR APT 9			HOLT	MI	48842-8822	US		Hi Laura, Enjoy your gift! From jennifer isiogu	false		
111-2439578-6749805	59778915491762	2020-10-17T02:16:40+00:00	2020-10-16T19:16:40-07:00	2020-10-17T02:20:04+00:00	2020-10-20T06:59:59+00:00	-2	jxx82zgqjwrrr45@marketplace.amazon.com	Matt Abraham	+1 602-671-6610 ext. 42530	ABR001	Delivery by Tuesday | Arabella Bouquets 12 Stems of Fresh Cut Red Roses in a Free Designer Glass Vase	1	0	1	NextDay	Mary Ann McGirr	9232 WARSAW RD			LE ROY	NY	14482-8820	US		For you... From Matthew	false		
111-7572801-1054648	03575494548498	2020-10-17T00:40:25+00:00	2020-10-16T17:40:25-07:00	2020-10-17T02:39:50+00:00	2020-10-20T06:59:59+00:00	-2	htys4k1cp9myl74@marketplace.amazon.com	Newell King	+1 213-442-1463 ext. 14234	ABR0022	Delivery by Tuesday | Arabella Farm Direct Bouquet of 12 Fresh Cut Pink Roses with a Free Glass Vase	1	0	1	NextDay	Lana King	5500 LAVON DR			GARLAND	TX	75040-3122	US		I love you very much I hope this brightens your day! Miss you! From Newell King	false		
114-1913792-5151405	42162430044834	2020-10-17T02:55:26+00:00	2020-10-16T19:55:26-07:00	2020-10-17T02:59:58+00:00	2020-10-20T06:59:59+00:00	-2	n13hcxrzdynrm7s@marketplace.amazon.com	Dann Davis	+1 929-436-4790 ext. 31575	ABM010	Delivery by Tuesday | The Spring Fling Bouquet by Arabella Bouquets with a Free Designer Glass Vase	1	0	1	NextDay	Marilynn Davis	201 VILLAGE GATE RD			ORINDA	CA	94563-2720	US		Happy Birthday Mom!  I love and miss you. From Dann Davis	false		
114-9161722-4221060	03921665714786	2020-10-17T03:07:13+00:00	2020-10-16T20:07:13-07:00	2020-10-17T03:12:46+00:00	2020-10-20T06:59:59+00:00	-2	dh077qlwp99dx4q@marketplace.amazon.com	Stephen Bares	+1 619-854-2705 ext. 93532	ABR0022	Delivery by Tuesday | Arabella Farm Direct Bouquet of 12 Fresh Cut Pink Roses with a Free Glass Vase	1	0	1	NextDay	Becca Warner	224 MURCIA DR APT 303			JUPITER	FL	33458-2744	US			false		
111-1143697-2021021	62522870758994	2020-10-17T04:57:42+00:00	2020-10-16T21:57:42-07:00	2020-10-17T04:58:35+00:00	2020-10-20T06:59:59+00:00	-2	r54rx622hs9bjhk@marketplace.amazon.com	Brennan Frank	+1 480-618-5344 ext. 01139	ABR001	Delivery by Tuesday | Arabella Bouquets 12 Stems of Fresh Cut Red Roses in a Free Designer Glass Vase	1	0	1	NextDay	Danielle Frank	1730 S LOGAN ST			DENVER	CO	80210-3124	US		My first thought was to get you a knife set but that felt too romantic. Decided roses instead. I love you.  Brennan From Brennan Frank	false		
113-5147504-6051447	44327807886666	2020-10-17T05:17:51+00:00	2020-10-16T22:17:51-07:00	2020-10-17T05:23:22+00:00	2020-10-20T06:59:59+00:00	-2	dwfw0v86gsdlbs9@marketplace.amazon.com	Federico casas	+1 415-851-9136 ext. 77558	ABR0022	Delivery by Tuesday | Arabella Farm Direct Bouquet of 12 Fresh Cut Pink Roses with a Free Glass Vase	1	0	1	NextDay	Claudia alejandres	620 N FRONT ST			STEELTON	PA	17113-2127	US			false		
112-1642236-4209812	50712659394554	2020-10-17T08:22:15+00:00	2020-10-17T01:22:15-07:00	2020-10-17T08:23:24+00:00	2020-10-20T06:59:59+00:00	-2	69rqfjdysg03w44@marketplace.amazon.com	Carlo Luis De Guzman	+1 480-618-5344 ext. 84973	ABR0022	Delivery by Tuesday | Arabella Farm Direct Bouquet of 12 Fresh Cut Pink Roses with a Free Glass Vase	1	0	1	NextDay	Isabel Constantino	1100 N WALNUT ST APT 11			BLOOMINGTON	IN	47404-3508	US		Happy Anniversary!!! I may be far away, but I will still try my best to support you in all of your endeavors!!  Love and miss you! From Carlo Luis De Guzman	false		
112-8268793-3239414	36424745159498	2020-10-17T10:01:20+00:00	2020-10-17T03:01:20-07:00	2020-10-17T10:03:30+00:00	2020-10-20T06:59:59+00:00	-2	hv6j3cby49cr413@marketplace.amazon.com	Mark Hoover	608628733	ABM022	Delivery by Tuesday | Purple Extravagance Bouquet by Arabella Bouquets	1	0	1	NextDay	Sandy Prestine & Dan	3638 ICE AGE DR			MADISON	WI	53719-5411	US		Sandy - your friendship is priceless to me. Thank you for the support and all the help - enjoy a little personal time with these gifts - From Your forever friend, Angel	false		
114-6148071-2833808	22203007362666	2020-10-17T12:46:02+00:00	2020-10-17T05:46:02-07:00	2020-10-17T13:15:37+00:00	2020-10-21T06:59:59+00:00	-3	r42r50hnpfstrl9@marketplace.amazon.com	Irene Reillo	+1 602-671-6610 ext. 10717	ABR0066	Delivery by Tuesday | Arabella Bouquets 12 Stems of Fresh Cut White Roses in a Free Designer Glass Vase	1	0	1	Expedited	Maria Reillo	6701 DEL REY AVE APT 205			LAS VEGAS	NV	89146-9217	US			false		
114-0274637-0219470	34740683264418	2020-10-17T12:59:15+00:00	2020-10-17T05:59:15-07:00	2020-10-17T13:25:24+00:00	2020-10-21T06:59:59+00:00	-3	g69z5hjkj0fl3k1@marketplace.amazon.com	Carol Scandariato	+1 619-854-2705 ext. 05344	ABM022	Delivery by Tuesday | Purple Extravagance Bouquet by Arabella Bouquets	1	0	1	Expedited	Holly Seitz	23 GARDNER ACRES RD			NORWICH	CT	06360-4024	US		Congratulations on the birth of your beautiful little girl! From Warm regards from Ret. Chief Scand and Carol	false		
113-5714088-4135455	53540947129794	2020-10-17T14:00:41+00:00	2020-10-17T07:00:41-07:00	2020-10-17T14:17:57+00:00	2020-10-21T06:59:59+00:00	-3	p3t17b903jtk18v@marketplace.amazon.com	Judith Shapiro	+1 480-618-5344 ext. 95312	ABR0022	Delivery by Tuesday | Arabella Farm Direct Bouquet of 12 Fresh Cut Pink Roses with a Free Glass Vase	1	0	1	Expedited	Yana Richards	3385 SLEDD CT			WINSTON SALEM	NC	27106-5228	US		Dear Yana, We so enjoyed our time in your beautiful Kiawah home. Thank you so much, Judy and Carl Shapiro From Judith Shapiro	false		
112-5412331-3561003	05982449369794	2020-10-17T13:53:50+00:00	2020-10-17T06:53:50-07:00	2020-10-17T14:22:27+00:00	2020-10-21T06:59:59+00:00	-3	lw48qkg1ffw4xhl@marketplace.amazon.com	wanglingfeng	+1 929-436-4790 ext. 11345	ABR0022	Delivery by Tuesday | Arabella Farm Direct Bouquet of 12 Fresh Cut Pink Roses with a Free Glass Vase	1	0	1	Expedited	Weiyuan Fan	3203 PINEFORD DR MIDDLETOWN			MIDDLETOWN	PA	17057-2632	US			false		
111-5008769-8885069	43022826172194	2020-10-17T14:01:28+00:00	2020-10-17T07:01:28-07:00	2020-10-17T14:30:22+00:00	2020-10-21T06:59:59+00:00	-3	vv7ylrtsmk0fnsn@marketplace.amazon.com	Debra A. Licht	+1 480-618-5344 ext. 89709	ABR0022	Delivery by Tuesday | Arabella Farm Direct Bouquet of 12 Fresh Cut Pink Roses with a Free Glass Vase	1	0	1	Expedited	Debra Licht Mayer	28 N CONE RD			EAST HAMPTON	CT	06424-2110	US		Happy birthday!!!! Love you very much!!!! From Debbie and Rick	false		
111-4508811-2845037	05411424763218	2020-10-17T14:06:29+00:00	2020-10-17T07:06:29-07:00	2020-10-17T14:35:04+00:00	2020-10-21T06:59:59+00:00	-3	p3pytlxhtghrw9z@marketplace.amazon.com	Tiko Russell	+1 929-436-4790 ext. 45955	ABR0033	Delivery by Tuesday | Arabella Farm Direct Bouquet of 12 Fresh Cut Orange Roses with a Free Glass Vase	1	0	1	Expedited	Michelle Russell	630 PRINCE TRL			MCDONOUGH	GA	30252-8900	US		Happy Birthday, Michelle! From Bryan, Tiko, Braxton and Morgan	false		
111-8980044-9443429	41956617290906	2020-10-17T14:09:32+00:00	2020-10-17T07:09:32-07:00	2020-10-17T14:38:00+00:00	2020-10-21T06:59:59+00:00	-3	9ppb555qvk1f68l@marketplace.amazon.com	Suzy	+1 480-618-5344 ext. 18827	ABM020	Delivery by Tuesday | The Sunset Bouquet by Arabella Bouquets	1	0	1	Expedited	Patty Kelly	5916 CRAIG ST			SPRINGFIELD	VA	22150-3244	US		Patty, hope these bring a smile while you recover. Hope you are doing a bit better each day!  BIG HUGS!! From Suzy	false		
111-9616412-4856262	45853092153034	2020-10-17T14:19:12+00:00	2020-10-17T07:19:12-07:00	2020-10-17T14:46:34+00:00	2020-10-20T06:59:59+00:00	-2	w5zd1rncw2fnl0v@marketplace.amazon.com	Dallas Owens	+1 929-436-4790 ext. 27397	ABR0022	Delivery by Tuesday | Arabella Farm Direct Bouquet of 12 Fresh Cut Pink Roses with a Free Glass Vase	1	0	1	SecondDay	Chelsea Brinson	5766 REIMS PL			FORT MYERS	FL	33919-3472	US		Hope these brighten your day and you feel better soon. Next time I’m in town, hopefully we can meet up! From Dallas Owens	false		
113-3710544-8692207	55930421538274	2020-10-17T14:32:52+00:00	2020-10-17T07:32:52-07:00	2020-10-17T14:58:09+00:00	2020-10-20T06:59:59+00:00	-2	0vsf94s4zysvkh2@marketplace.amazon.com	Charles Gradante	+1 929-436-4790 ext. 35555	ABR0022	Delivery by Tuesday | Arabella Farm Direct Bouquet of 12 Fresh Cut Pink Roses with a Free Glass Vase	1	0	1	SecondDay	Rose Anna Boni	3800 WASHINGTON RD APT 409			WEST PALM BEACH	FL	33405-2369	US		A good friend is hard to find. A woman like you is even harder to find. Thank you for being a friend. Xoxo From Charles	false		
112-2180031-4798630	15463138334514	2020-10-17T14:38:56+00:00	2020-10-17T07:38:56-07:00	2020-10-17T15:04:22+00:00	2020-10-20T06:59:59+00:00	-2	cknpntggt5s2nzd@marketplace.amazon.com	Mark Shaughnessy	+1 929-436-4790 ext. 87538	ABR004	Delivery by Tuesday | Arabella Farm Direct Bouquet of 12 Fresh Cut Yellow Roses with a Free Glass Vase	1	0	1	SecondDay	Cybelle Fox	200 2ND ST UNIT 301			OAKLAND	CA	94607-4575	US		Happy Birthday Cybelle!  Hope you do something special for your birthday. We love and miss you so much. From Love, Maria, Mark, Devyn, Kendall xoxoxo	false		
112-3039149-9711466	58337099288842	2020-10-17T15:02:22+00:00	2020-10-17T08:02:22-07:00	2020-10-17T15:19:07+00:00	2020-10-20T06:59:59+00:00	-2	z2kqk5mjdk8t1xg@marketplace.amazon.com	zaine	+1 619-854-2705 ext. 93561	ABR0066	Delivery by Tuesday | Arabella Bouquets 12 Stems of Fresh Cut White Roses in a Free Designer Glass Vase	1	0	1	SecondDay	Ma. Carmen Hyde	10311 SABER CT			HOUSTON	TX	77038-2240	US			false		
113-4105787-3151402	29427945795002	2020-10-17T15:23:44+00:00	2020-10-17T08:23:44-07:00	2020-10-17T15:49:40+00:00	2020-10-20T06:59:59+00:00	-2	hlwk5rhnnt2fphf@marketplace.amazon.com	Shaima Alrashed	+1 619-854-2705 ext. 37859	ABM022	Delivery by Tuesday | Purple Extravagance Bouquet by Arabella Bouquets	1	0	1	SecondDay	Nour Alrashed	2039 MADRILLON SPRINGS CT			VIENNA	VA	22182-3764	US		Congratulations on your new bundle of joy! From Shaima Alrashed	false		
113-1358147-4979400	10431393025194	2020-10-17T16:03:02+00:00	2020-10-17T09:03:02-07:00	2020-10-17T16:27:17+00:00	2020-10-21T06:59:59+00:00	-3	pv8w4pwpw3qc0c4@marketplace.amazon.com	Andrew Cristancho	+1 602-671-6610 ext. 27153	ABR0033	Delivery by Tuesday | Arabella Farm Direct Bouquet of 12 Fresh Cut Orange Roses with a Free Glass Vase	1	0	1	Expedited	Pauline Deutman	1835 RALEIGH RD			NEW RICHMOND	WI	54017-7509	US			false		
114-9959655-7181816	38784827662850	2020-10-17T16:33:11+00:00	2020-10-17T09:33:11-07:00	2020-10-17T16:34:06+00:00	2020-10-20T06:59:59+00:00	-2	f1625p9ynpm0mbd@marketplace.amazon.com	Lorena Castaneda	+1 619-854-2705 ext. 32430	ABR001	Delivery by Tuesday | Arabella Bouquets 12 Stems of Fresh Cut Red Roses in a Free Designer Glass Vase	1	0	1	NextDay	Sheryll Ebbs	6200 SOMERSET WAY			CAMBRIA	CA	93428-1912	US		Dear Sheryll, Thanks for another year of being an awesome friend. Happy birthday dear friend! Love you, From Lorena Castaneda	false		
111-6920201-2852264	67338914444642	2020-10-17T16:33:34+00:00	2020-10-17T09:33:34-07:00	2020-10-17T16:37:32+00:00	2020-10-20T06:59:59+00:00	-2	yfqf70sr72ymsqp@marketplace.amazon.com	Dorine M. Klietz	+1 602-671-6610 ext. 86125	ABR0022	Delivery by Tuesday | Arabella Farm Direct Bouquet of 12 Fresh Cut Pink Roses with a Free Glass Vase	1	0	1	NextDay	Debbie VanderVen	7624 SALMON CREEK RD			WILLIAMSON	NY	14589-9578	US		Hope you feel better my friend!  Love you very much! Doe From Dorine M. Klietz	false		
112-6290687-9064208	34316415981426	2020-10-17T16:53:54+00:00	2020-10-17T09:53:54-07:00	2020-10-17T16:56:42+00:00	2020-10-20T06:59:59+00:00	-2	wksbwsc7230g3s5@marketplace.amazon.com	Joylynn Boardman	+1 602-671-6610 ext. 02175	ABR0066	Delivery by Tuesday | Arabella Bouquets 12 Stems of Fresh Cut White Roses in a Free Designer Glass Vase	1	0	1	NextDay	Kate Boardman	515 NE MAPLE ST			PULLMAN	WA	99163-4106	US			false		
114-5875227-4830648	03463156532882	2020-10-17T17:00:36+00:00	2020-10-17T10:00:36-07:00	2020-10-17T17:25:53+00:00	2020-10-21T06:59:59+00:00	-3	djvf7dsswvynj48@marketplace.amazon.com	Tera	+1 929-436-4790 ext. 83663	ABR0033	Delivery by Tuesday | Arabella Farm Direct Bouquet of 12 Fresh Cut Orange Roses with a Free Glass Vase	1	0	1	Expedited	Eva Oriakhi	5917 NW Cleveland Ave			Portland	OR	97211	US		Happy 30th Birthday dearest Eva!! I couldn't not get you flowers on your 30th :) What special day!! Sorry they are little late but I thought it might be nice to extend gifts and celebrations into the next week :D Love you! From Tera	false		
113-7463551-7875405	39446546272026	2020-10-17T17:07:11+00:00	2020-10-17T10:07:11-07:00	2020-10-17T17:36:14+00:00	2020-10-21T06:59:59+00:00	-3	ynfmj2q0bcftbh3@marketplace.amazon.com	Hans Philipps	+1 929-436-4790 ext. 48384	ABR0033	Delivery by Tuesday | Arabella Farm Direct Bouquet of 12 Fresh Cut Orange Roses with a Free Glass Vase	1	0	1	Expedited	Hans Philipps	1231 THORNTON DR			SEQUIM	WA	98382-8091	US			false		
111-9282603-7890652	06152485025106	2020-10-17T17:34:37+00:00	2020-10-17T10:34:37-07:00	2020-10-17T17:37:42+00:00	2020-10-20T06:59:59+00:00	-2	2htk8qg583gv25v@marketplace.amazon.com	Jose Vega	+1 602-671-6610 ext. 79173	ABR0022	Delivery by Tuesday | Arabella Farm Direct Bouquet of 12 Fresh Cut Pink Roses with a Free Glass Vase	1	0	1	NextDay	Nicole Levy	1984 NORSHON RD			MERRICK	NY	11566-4627	US			false		
114-5280374-5706641	45416417277514	2020-10-17T17:08:24+00:00	2020-10-17T10:08:24-07:00	2020-10-17T17:38:48+00:00	2020-10-21T06:59:59+00:00	-3	ldngvxplq0r5fjb@marketplace.amazon.com	Karyn	+1 480-618-5344 ext. 15475	ABR0033	Delivery by Tuesday | Arabella Farm Direct Bouquet of 12 Fresh Cut Orange Roses with a Free Glass Vase	1	0	1	Expedited	Lindsey Hart	2501 STIRLING CIR UNIT 105			DUNEDIN	FL	34698-7063	US			false		
112-3657234-7470607	48772853228778	2020-10-17T17:47:42+00:00	2020-10-17T10:47:42-07:00	2020-10-17T17:52:21+00:00	2020-10-20T06:59:59+00:00	-2	sfthyr43fxxkqbs@marketplace.amazon.com	Denise Mason	+1 602-671-6610 ext. 68139	ABM020	Delivery by Tuesday | The Sunset Bouquet by Arabella Bouquets	1	0	1	NextDay	Brenda McClafferty	2214 HARPOON DR			STAFFORD	VA	22554-2523	US		Love you!!! From Stacy and Denise	false		
112-8769027-2033047	42027770950050	2020-10-17T17:50:58+00:00	2020-10-17T10:50:58-07:00	2020-10-17T17:55:22+00:00	2020-10-20T06:59:59+00:00	-2	37dspm9jhnp1k03@marketplace.amazon.com	William Dempsey	+1 213-442-1463 ext. 15336	ABM022	Delivery by Tuesday | Purple Extravagance Bouquet by Arabella Bouquets	1	0	1	NextDay	Jack and Teresa Stainback	2512 EMPIE DR			LELAND	NC	28451-2505	US		Happy Birthday Teresa! We love you! From Christine & Bill	false		
111-2385915-8153820	64309703212346	2020-10-17T17:55:25+00:00	2020-10-17T10:55:25-07:00	2020-10-17T18:00:30+00:00	2020-10-20T06:59:59+00:00	-2	w0d2lwrxvpb5zby@marketplace.amazon.com	Iyce	+1 602-671-6610 ext. 77987	ABR001	Delivery by Tuesday | Arabella Bouquets 12 Stems of Fresh Cut Red Roses in a Free Designer Glass Vase	1	0	1	NextDay	Pamela	6811 JEFFERSON AVE	FALLS CHURCH AVA 22042		FALLS CHURCH	VA	22042-1932	US		You are the queen of my heart...love you From KAI	false		
113-2691512-7514646	10296064710218	2020-10-17T18:18:16+00:00	2020-10-17T11:18:16-07:00	2020-10-17T18:20:55+00:00	2020-10-20T06:59:59+00:00	-2	vsb2m86k9tdb162@marketplace.amazon.com	Kathleen Graf Deeb	+1 415-851-9136 ext. 21877	ABR0022	Delivery by Tuesday | Arabella Farm Direct Bouquet of 12 Fresh Cut Pink Roses with a Free Glass Vase	1	0	1	NextDay	Jean Deeb	5841 MARLOW DR			EAST SYRACUSE	NY	13057-3021	US		Happy 80th Birthday Sitto!  Thinking of you on your special day.  We love you so much! From Anne Marie & Mary Kate	false		
111-9476110-3836220	25558617292122	2020-10-17T18:01:02+00:00	2020-10-17T11:01:02-07:00	2020-10-17T18:21:26+00:00	2020-10-21T06:59:59+00:00	-3	00y8t1p0w24hwb3@marketplace.amazon.com	Catherine Holland	+1 602-671-6610 ext. 57223	ABR004	Delivery by Wednesday | Arabella Farm Direct Bouquet of 12 Fresh Cut Yellow Roses with a Free Glass Vase	1	0	1	Expedited	June Dayhoff	10 E GREEN ST			WESTMINSTER	MD	21157-4910	US		Mama... a rose by any other name would smell as sweet.... as my mama... From Ginger	false		
111-8446786-4083464	26482568870402	2020-10-17T18:23:21+00:00	2020-10-17T11:23:21-07:00	2020-10-17T18:25:58+00:00	2020-10-20T06:59:59+00:00	-2	13mwz5jbhf25rrx@marketplace.amazon.com	Shawn Gisler	+1 602-671-6610 ext. 03033	ABR0055	Delivery by Tuesday | Arabella Farm Direct Bouquet of 12 Stems of Fresh Cut Hot Pink Roses in a Free Designer Glass Vase	1	0	1	NextDay	Shawn A. Gisler	378 PLAZA TOLUCA			CHULA VISTA	CA	91914-4405	US		Eileen, We know you are overwhelmed with school and it’s hard to live alone.  Please don’t get discouraged.  We love you so much and are very proud of you.  I am praying for you and I will see you soon.  Enjoy your gift! From Mom & Dad	false		
111-4251759-9657844	67261465125658	2020-10-17T18:25:28+00:00	2020-10-17T11:25:28-07:00	2020-10-17T18:28:05+00:00	2020-10-20T06:59:59+00:00	-2	m121x6c0rqc9ywj@marketplace.amazon.com	karen freeman	+1 213-442-1463 ext. 90328	ABM022	Delivery by Tuesday | Purple Extravagance Bouquet by Arabella Bouquets	1	0	1	NextDay	Jan Brainard	10988 KIRBY BLVD			CHISAGO CITY	MN	55013-5414	US		Dearest Dit, We hope you can feel our love and hugs! So sorry about your Mom! What an amazing lady!! Our prayers and love, Sonja, Karen and Knef	false		
112-5194902-1514627	54948804856730	2020-10-17T18:31:48+00:00	2020-10-17T11:31:48-07:00	2020-10-17T18:37:22+00:00	2020-10-20T06:59:59+00:00	-2	2wxvy7rpf4r4rqv@marketplace.amazon.com	Susan Kingcade	+1 415-851-9136 ext. 54055	ABM022	Delivery by Tuesday | Purple Extravagance Bouquet by Arabella Bouquets	1	0	1	NextDay	Joan dowler	2387 RANCH HOUSE RD			WEST PALM BEACH	FL	33406-3151	US			false		
113-8485328-4069023	28607022693090	2020-10-17T19:12:40+00:00	2020-10-17T12:12:40-07:00	2020-10-17T19:16:29+00:00	2020-10-20T06:59:59+00:00	-2	cbnys55mjb4t9vz@marketplace.amazon.com	John Cluff	+1 619-854-2705 ext. 31224	ABR0022	Delivery by Tuesday | Arabella Farm Direct Bouquet of 12 Fresh Cut Pink Roses with a Free Glass Vase	1	0	1	NextDay	Susan Good	576 EAGLEWOOD DR			REXBURG	ID	83440-2606	US		Hi Susan, Enjoy your belated birthday gift! Love, Karen ❤️	false		
114-3479290-3077039	33051798836114	2020-10-17T19:33:35+00:00	2020-10-17T12:33:35-07:00	2020-10-17T19:36:20+00:00	2020-10-20T06:59:59+00:00	-2	3q0dnnj28vxcmvw@marketplace.amazon.com	Katy	+1 929-436-4790 ext. 04737	ABM022	Delivery by Tuesday | Purple Extravagance Bouquet by Arabella Bouquets	1	0	1	NextDay	Emily McGinnis	1455 MONROE ST NW			WASHINGTON	DC	20010-3138	US		Happy 31st Birthday!  We love you! Michael, Patrick,Katy, Dad and Mom Sophie and George too!! xoxo From Your Family!! xoxo	false		
111-7548883-5810640	57938918652146	2020-10-17T19:51:52+00:00	2020-10-17T12:51:52-07:00	2020-10-17T19:57:09+00:00	2020-10-20T06:59:59+00:00	-2	nfd4795pbjyqjt6@marketplace.amazon.com	Ana María CA	+1 619-854-2705 ext. 26717	ABR0022	Delivery by Tuesday | Arabella Farm Direct Bouquet of 12 Fresh Cut Pink Roses with a Free Glass Vase	1	0	1	NextDay	Leslie Hankins	3405 SWEETWATER RD APT 536			LAWRENCEVILLE	GA	30044-2459	US			false		
113-9481934-1386665	28246601809482	2020-10-17T20:07:21+00:00	2020-10-17T13:07:21-07:00	2020-10-17T20:08:49+00:00	2020-10-20T06:59:59+00:00	-2	mf37rjkc2jlcrlp@marketplace.amazon.com	Tracy Himes	+1 213-442-1463 ext. 16298	ABM010	Delivery by Tuesday | The Spring Fling Bouquet by Arabella Bouquets with a Free Designer Glass Vase	1	0	1	NextDay	India Mathis	2941 E LOMBARD ST			SPRINGFIELD	MO	65802-2729	US		I hope these bring a smile to your face...Happy Happy Happy Birthday Mama Mathis. I love you lots! ❤️ From Tracy Himes	false		
111-3888428-2170647	32792297076554	2020-10-17T19:53:50+00:00	2020-10-17T12:53:50-07:00	2020-10-17T20:21:06+00:00	2020-10-21T06:59:59+00:00	-3	7gqr9tqg90bbfr3@marketplace.amazon.com	coffeelulu	+1 213-442-1463 ext. 60024	ABM021	Delivery by Wednesday | The Joyous Bouquet by Arabella Bouquets	1	0	1	Expedited	Xin Wang	2 LITCHFIELD CT			LAKE IN THE HILLS	IL	60156-5954	US		We are So sorry for your family loss!! We are thinking of all of you in these difficult times! May time help you heal and bring peace. Lots of love from us... From Love, the Pauwels family	false		
112-1415999-8853862	54253386760658	2020-10-17T20:47:12+00:00	2020-10-17T13:47:12-07:00	2020-10-17T20:48:32+00:00	2020-10-20T06:59:59+00:00	-2	2qdtlw121x17kwj@marketplace.amazon.com	Wanda duran-gallegos	+1 480-618-5344 ext. 19960	ABR0055	Delivery by Tuesday | Arabella Farm Direct Bouquet of 12 Stems of Fresh Cut Hot Pink Roses in a Free Designer Glass Vase	1	0	1	NextDay	johnny duran	5119 TREVI PL NW			ALBUQUERQUE	NM	87114-3809	US		REEENEEE--We wanted to surprise you with these beautiful roses and wish you a wonderful BIRTHDAY this year and Many More Love ya lots Wanda Brendell Mateo Estevan and all the FAMILIA 505 From Bren Wally Gabriel Jen Mateo Mandy Jerick	false		
114-6939050-1312242	02229011308146	2020-10-17T20:56:57+00:00	2020-10-17T13:56:57-07:00	2020-10-17T20:59:43+00:00	2020-10-20T06:59:59+00:00	-2	sz6gfxjjnn4z5tb@marketplace.amazon.com	Sestilio Family	+1 602-671-6610 ext. 56695	ABM010	Delivery by Tuesday | The Spring Fling Bouquet by Arabella Bouquets with a Free Designer Glass Vase	1	0	1	NextDay	Melissa Metcalf	1709 INDIAN TOWN LN			TALLAHASSEE	FL	32312-3673	US		Happy Birthday, Melissa! Enjoy your day and know we are thinking of you! Love, Matt and Amber	false		
113-8494352-9113869	46376535938082	2020-10-17T20:57:41+00:00	2020-10-17T13:57:41-07:00	2020-10-17T21:01:42+00:00	2020-10-20T06:59:59+00:00	-2	y57k8px3jk08772@marketplace.amazon.com	Elizabeth Zamora	+1 929-436-4790 ext. 42036	ABM010	Delivery by Tuesday | The Spring Fling Bouquet by Arabella Bouquets with a Free Designer Glass Vase	1	0	1	NextDay	Elizabeth Zamora	1301 SW 142ND AVE H114			PEMBROKE PINES	FL	33027-3564	US		Happy birthday mama we love you very much From Lizzy and Jorge	false		
113-3019269-8875425	26335563070906	2020-10-17T21:01:51+00:00	2020-10-17T14:01:51-07:00	2020-10-17T21:02:47+00:00	2020-10-20T06:59:59+00:00	-2	93j8z89kf1810wh@marketplace.amazon.com	richard j lindner	+1 619-854-2705 ext. 55899	ABR0022	Delivery by Tuesday | Arabella Farm Direct Bouquet of 12 Fresh Cut Pink Roses with a Free Glass Vase	1	0	1	NextDay	Paje Lindner	1000 NE 12TH AVE APT 504			HALLANDALE BEACH	FL	33009-2671	US		Happy Birthday, beautiful Pajey!     Enjoy your 1st birthday in Florida!  We love and miss you so much! From Dad, and Kelly	false		
113-7906028-6642650	43952760693738	2020-10-17T21:22:14+00:00	2020-10-17T14:22:14-07:00	2020-10-17T21:24:22+00:00	2020-10-20T06:59:59+00:00	-2	tx6r4wb896jj3yr@marketplace.amazon.com	john muir	01506 417351	ABR001	Delivery by Tuesday | Arabella Bouquets 12 Stems of Fresh Cut Red Roses in a Free Designer Glass Vase	1	0	1	NextDay	Katherine matheney	840 LEEDS CT			BENICIA	CA	94510-3600	US		To Kate  Thinking of you at this sad time  John x From john muir	false		
113-2073468-4889059	67786091204114	2020-10-17T21:30:30+00:00	2020-10-17T14:30:30-07:00	2020-10-17T21:35:41+00:00	2020-10-20T06:59:59+00:00	-2	s3nmvznbnby4nx2@marketplace.amazon.com	Lauren Sullivan	+1 480-618-5344 ext. 21867	ABM010	Delivery by Tuesday | The Spring Fling Bouquet by Arabella Bouquets with a Free Designer Glass Vase	1	0	1	NextDay	Shelly LaBatt	580 E JACKSON RD			AURORA	OH	44202-9700	US			false		
113-6706856-4404201	33853636937730	2020-10-17T21:46:43+00:00	2020-10-17T14:46:43-07:00	2020-10-17T21:51:13+00:00	2020-10-20T06:59:59+00:00	-2	20rt3zld9fpkkj1@marketplace.amazon.com	Tracy	+1 602-671-6610 ext. 27640	ABM010	Delivery by Tuesday | The Spring Fling Bouquet by Arabella Bouquets with a Free Designer Glass Vase	1	0	1	NextDay	Doreen Cannon	3420 PICKET FENCE LN			MYRTLE BEACH	SC	29579-3323	US		Happy Boss’s Day.    Love you!!! From Tracy	false		
114-6298919-8963422	05825331370866	2020-10-17T22:30:36+00:00	2020-10-17T15:30:36-07:00	2020-10-17T22:31:32+00:00	2020-10-20T06:59:59+00:00	-2	ff84f3fkb9bd8g9@marketplace.amazon.com	Linda E. Piserelle	+1 602-671-6610 ext. 32557	ABM010	Delivery by Tuesday | The Spring Fling Bouquet by Arabella Bouquets with a Free Designer Glass Vase	1	0	1	NextDay	Belinda Galvan	2309 13TH ST			LUBBOCK	TX	79401-3621	US		We are saddened by the death of your father.  Happy he will be with your mom again. From Linda Piserelle & Marzie Bailey	false		
114-9137660-2993030	60643633136434	2020-10-17T22:33:21+00:00	2020-10-17T15:33:21-07:00	2020-10-17T22:37:59+00:00	2020-10-20T06:59:59+00:00	-2	ff84f3fkb9bd8g9@marketplace.amazon.com	Linda E. Piserelle	+1 213-442-1463 ext. 52355	ABM010	Delivery by Tuesday | The Spring Fling Bouquet by Arabella Bouquets with a Free Designer Glass Vase	1	0	1	NextDay	Hilda Villegas	2307 13TH ST			LUBBOCK	TX	79401-3621	US		We are saddened by the death of your father.  Happy he will be with your mom again. From Linda Piserelle & Marzie Bailey	false		
113-5657395-2426619	60117998989482	2020-10-17T22:32:24+00:00	2020-10-17T15:32:24-07:00	2020-10-17T22:38:01+00:00	2020-10-20T06:59:59+00:00	-2	vrjrxphy38hlkqg@marketplace.amazon.com	Eva J. D'Alonzo	+1 602-671-6610 ext. 48289	ABR001	Delivery by Tuesday | Arabella Bouquets 12 Stems of Fresh Cut Red Roses in a Free Designer Glass Vase	1	0	1	NextDay	Eva J. D'Alonzo	709 RIGHTERS MILL RD	DELIVERY ENTRANCE 909 WOODBINE TO 709 RIGHTERS MILL DOOR		PENN VALLEY	PA	19072-1428	US			false		
112-7754020-3219437	63986036312730	2020-10-17T22:49:34+00:00	2020-10-17T15:49:34-07:00	2020-10-17T22:50:56+00:00	2020-10-20T06:59:59+00:00	-2	d2gnsx0cgcyd55k@marketplace.amazon.com	CHERYL MC ILVAIN	+1 602-671-6610 ext. 51608	ABM010	Delivery by Tuesday | The Spring Fling Bouquet by Arabella Bouquets with a Free Designer Glass Vase	1	0	1	NextDay	CHERYL MCILVAIN	333 GODFREY AVE			BELEN	NM	87002-6310	US		Thank you Katherine for retrieving and mailing the hat back to us Kevin and Cheryl McIlvain	false		
114-2506720-3321817	60490052617346	2020-10-17T22:51:03+00:00	2020-10-17T15:51:03-07:00	2020-10-17T23:19:59+00:00	2020-10-20T06:59:59+00:00	-2	vsl364gt4b6xcj3@marketplace.amazon.com	Lacie Murtha	+1 415-851-9136 ext. 89026	ABR013	Delivery by Wednesday | Arabella Farm Direct Bouquet of 18 Fresh Cut Yellow Roses with a Free Glass Vase	1	0	1	SecondDay	Joyce Thorpe	160 NEW DAM RD			SANFORD	ME	04073-5913	US		Happy birthday to you Joyce and Happy birthday to Mitch. Thinking of you both.   Love you, Lacie and Kerrie From Lacie Murtha	false		
112-7202847-1831468	64066358846930	2020-10-17T22:54:07+00:00	2020-10-17T15:54:07-07:00	2020-10-17T23:20:09+00:00	2020-10-21T06:59:59+00:00	-3	9mmn4ybyy6gyfgw@marketplace.amazon.com	Vanessa Espinoza	+1 480-618-5344 ext. 24755	ABR0033	Delivery by Wednesday | Arabella Farm Direct Bouquet of 12 Fresh Cut Orange Roses with a Free Glass Vase	1	0	1	Expedited	Elena Aguayo	409 W 3RD ST			PERRIS	CA	92570-2071	US		Get well soon. From Mumu & Jasmin	false		
112-0282312-8889073	29345056070602	2020-10-17T23:32:10+00:00	2020-10-17T16:32:10-07:00	2020-10-17T23:37:17+00:00	2020-10-20T06:59:59+00:00	-2	7lmm1wbwccfssnx@marketplace.amazon.com	Diane Vandette	+1 929-436-4790 ext. 52839	ABR0022	Delivery by Tuesday | Arabella Farm Direct Bouquet of 12 Fresh Cut Pink Roses with a Free Glass Vase	1	0	1	NextDay	Linda Basnett	347 NASHUA RD			DRACUT	MA	01826-2927	US			false		
113-8823539-9685841	06707292507178	2020-10-17T23:53:15+00:00	2020-10-17T16:53:15-07:00	2020-10-17T23:58:33+00:00	2020-10-20T06:59:59+00:00	-2	pm6f3dyrqczhd74@marketplace.amazon.com	Evelina Fowler	+1 929-436-4790 ext. 38856	ABR0022	Delivery by Tuesday | Arabella Farm Direct Bouquet of 12 Fresh Cut Pink Roses with a Free Glass Vase	1	0	1	NextDay	Adriana Bosi	8340 10TH AVE NW			SEATTLE	WA	98117-3337	US			false		
113-0397853-0156250	35496394754930	2020-10-18T00:18:55+00:00	2020-10-17T17:18:55-07:00	2020-10-18T00:24:23+00:00	2020-10-20T06:59:59+00:00	-2	ntgr0hdcryrx7nt@marketplace.amazon.com	Marc Meyers	+1 929-436-4790 ext. 09250	ABR0022	Delivery by Tuesday | Arabella Farm Direct Bouquet of 12 Fresh Cut Pink Roses with a Free Glass Vase	1	0	1	NextDay	Nadia Para	400 CLEMENTINA ST APT 811			SAN FRANCISCO	CA	94103-4259	US			false		
114-5833355-5557051	42681895741282	2020-10-18T00:20:54+00:00	2020-10-17T17:20:54-07:00	2020-10-18T00:24:32+00:00	2020-10-20T06:59:59+00:00	-2	rdfw324nl3lw9qm@marketplace.amazon.com	K J Vanden Bos	+1 213-442-1463 ext. 98782	ABM024	Delivery by Tuesday | The Beauty of Color Bouquet by Arabella Bouquets	1	0	1	NextDay	Terri Trespicio	155 W 68TH ST APT 1806			NEW YORK	NY	10023-5845	US		Congratulations!!! So proud of you and can’t wait to support you in this next phase of your journey! From ATX with Love! K xoxo	false		
113-6632818-6531435	45108843721530	2020-10-18T00:25:26+00:00	2020-10-17T17:25:26-07:00	2020-10-18T00:27:49+00:00	2020-10-20T06:59:59+00:00	-2	9cs89ywkj8b0g8v@marketplace.amazon.com	Marie Stanley	+1 602-671-6610 ext. 99505	ABM020	Delivery by Tuesday | The Sunset Bouquet by Arabella Bouquets	1	0	1	NextDay	Diane Cullinan	204 LEE ST			OPP	AL	36467-3530	US		Happy Birthday from Ethan, Marie and Steve From Ethan,Marie and Steve	false		
112-1859298-9077864	32577616459082	2020-10-18T00:34:47+00:00	2020-10-17T17:34:47-07:00	2020-10-18T00:37:37+00:00	2020-10-20T06:59:59+00:00	-2	h706gn4g4p8snxh@marketplace.amazon.com	Jill Udell	+1 213-442-1463 ext. 16390	ABR0022	Delivery by Tuesday | Arabella Farm Direct Bouquet of 12 Fresh Cut Pink Roses with a Free Glass Vase	1	0	1	NextDay	Sharon Karstenson	3242 N WEIL ST			MILWAUKEE	WI	53212-2242	US		Dear Sharon, We’re thinking of you and believing for your healing. We love you. Jill, Douglas and Kate From Jill Udell	false		
114-3450287-9660235	27317977339818	2020-10-18T00:50:15+00:00	2020-10-17T17:50:15-07:00	2020-10-18T00:51:12+00:00	2020-10-20T06:59:59+00:00	-2	rhxdg0wfwwcy3kx@marketplace.amazon.com	Assel Moldak	+1 480-618-5344 ext. 70057	ABR0022	Delivery by Tuesday | Arabella Farm Direct Bouquet of 12 Fresh Cut Pink Roses with a Free Glass Vase	1	0	1	NextDay	Marilyn Vukelic	6533 BRAGG PL APT 2			FORT RILEY	KS	66442-2259	US		Dear Marilyn, I’d wish you lots of surprises on your birthday, but then every day with our son is full of surprises. So instead, I’ll just wish you luck. 😉  With Love from Assel and Tomiris	false		
113-8031871-1393840	31586122399434	2020-10-18T00:27:47+00:00	2020-10-17T17:27:47-07:00	2020-10-18T00:54:02+00:00	2020-10-21T06:59:59+00:00	-3	ngdln322j02jwb6@marketplace.amazon.com	Dr. Saku W Gunasegaram	+1 213-442-1463 ext. 73096	ABR004	Delivery by Wednesday | Arabella Farm Direct Bouquet of 12 Fresh Cut Yellow Roses with a Free Glass Vase	2	0	2	Expedited	DR STACY DEAN  DENTIST PAR EXCELLENCE FOREVER	PLEASE EXPLAIN TO DR ROLL AND STAFFERS ABOUT DRY MOUTH	125 N FRANKLIN DR STE 5		WASHINGTON	PA	15301-5892	US		TO:DR DEAN FROM:DENTAL PATIENT DR SAKU GUNASEGARAM PLEASE EXPLAIN TO DR ROLL _AND_ STAFFERS SHANNON+ISABELLE+PAM+NICOLETTE WHAT MY DRY MOUTH IS _AND_ MANAGEMENT WITH ENAMELON.THEY _TRULY_ HAVE _NO_ CLUE :( From Dr. Saku Gunasegaram	false		
112-1338092-0645027	06432598509458	2020-10-18T01:08:37+00:00	2020-10-17T18:08:37-07:00	2020-10-18T01:09:30+00:00	2020-10-20T06:59:59+00:00	-2	0q54by1gq3v763f@marketplace.amazon.com	mary stefan	+1 213-442-1463 ext. 96790	ABR0055	Delivery by Tuesday | Arabella Farm Direct Bouquet of 12 Stems of Fresh Cut Hot Pink Roses in a Free Designer Glass Vase	1	0	1	NextDay	Martha Riha	11750 SHORECREST CT			SOUTH LYON	MI	48178-9312	US		Happy birthday, love Mary and Rick From mary stefan	false		
113-3316194-7204231	00409558645850	2020-10-18T02:48:49+00:00	2020-10-17T19:48:49-07:00	2020-10-18T02:54:04+00:00	2020-10-20T06:59:59+00:00	-2	g8lf5hl0s16grrm@marketplace.amazon.com	Jamie Medina Haughey	+1 929-436-4790 ext. 81739	ABR0066	Delivery by Tuesday | Arabella Bouquets 12 Stems of Fresh Cut White Roses in a Free Designer Glass Vase	1	0	1	NextDay	Chris Medina	161 PEYTON RD			STERLING	VA	20165-5605	US			false		
111-4638061-8880223	14522896900058	2020-10-18T02:51:14+00:00	2020-10-17T19:51:14-07:00	2020-10-18T02:56:01+00:00	2020-10-20T06:59:59+00:00	-2	cgk5b6wbwyb3vrj@marketplace.amazon.com	Misha Lincourt	+1 213-442-1463 ext. 70669	ABR0022	Delivery by Tuesday | Arabella Farm Direct Bouquet of 12 Fresh Cut Pink Roses with a Free Glass Vase	1	0	1	NextDay	Jolena Shelby	197 MAGNOLIA AVE			CLARKSBURG	WV	26301-4139	US		Hope you like these. From Misha Lincourt	false		
113-7681680-9357064	39214652559778	2020-10-18T02:54:57+00:00	2020-10-17T19:54:57-07:00	2020-10-18T02:56:16+00:00	2020-10-20T06:59:59+00:00	-2	fx9hccy11q3v5k9@marketplace.amazon.com	Teresita	+1 480-618-5344 ext. 82881	ABR001	Delivery by Tuesday | Arabella Bouquets 12 Stems of Fresh Cut Red Roses in a Free Designer Glass Vase	1	0	1	NextDay	Yolanda Hernandez	8413 BEETHOVEN DR			BUENA PARK	CA	90621-3107	US		Enjoy your gift! Just to say I care From Teresita	false		
113-4538641-5528202	29369501623698	2020-10-18T03:07:39+00:00	2020-10-17T20:07:39-07:00	2020-10-18T03:11:07+00:00	2020-10-20T06:59:59+00:00	-2	ycvzmy7vfn5jp56@marketplace.amazon.com	Helena	+1 480-618-5344 ext. 95662	ABR0022	Delivery by Tuesday | Arabella Farm Direct Bouquet of 12 Fresh Cut Pink Roses with a Free Glass Vase	1	0	1	NextDay	Sarah Gaylord	125 NASHUA ST STE 540			BOSTON	MA	02114-1106	US		Dear Sarah:  Happy Belated Birthday!   Love,   Helena and Family From Helena	false		
114-4389997-4577036	08541701905138	2020-10-18T04:14:19+00:00	2020-10-17T21:14:19-07:00	2020-10-18T04:18:03+00:00	2020-10-20T06:59:59+00:00	-2	9wtz73kf2yrk61r@marketplace.amazon.com	Charlie Cunha	+1 929-436-4790 ext. 50815	ABR001	Delivery by Tuesday | Arabella Bouquets 12 Stems of Fresh Cut Red Roses in a Free Designer Glass Vase	1	0	1	NextDay	Grace Campbell	933 MCGEE ST UNIT 219			KANSAS CITY	MO	64106-2208	US			false		
113-6508391-5455428	24358671871290	2020-10-18T04:46:47+00:00	2020-10-17T21:46:47-07:00	2020-10-18T05:17:16+00:00	2020-10-21T06:59:59+00:00	-3	5tvqp2cxr12s22m@marketplace.amazon.com	Nichole Cady	+1 480-618-5344 ext. 08236	ABSR002	Arabella Farm Direct Bouquet of Fresh Cut Pink Multicolor Spray Roses with a Free Glass Vase	1	0	1	Expedited	Nichole Cady	917 W WENDY WAY			GILBERT	AZ	85233-3622	US			false		
113-9969285-9106639	05080971773154	2020-10-18T06:02:51+00:00	2020-10-17T23:02:51-07:00	2020-10-18T06:05:53+00:00	2020-10-20T06:59:59+00:00	-2	xqtrj9l89g9s70q@marketplace.amazon.com	MARIA E TORRES	+1 213-442-1463 ext. 07939	ABR0022	Delivery by Tuesday | Arabella Farm Direct Bouquet of 12 Fresh Cut Pink Roses with a Free Glass Vase	1	0	1	NextDay	Priscilla Torres	2321 CORDELIA ST			HENDERSON	NV	89044-1528	US		Hi Priscilla, Enjoy your gift! From MARIA E TORRES	false		
112-3761695-7589051	34306851794346	2020-10-18T11:57:31+00:00	2020-10-18T04:57:31-07:00	2020-10-18T11:59:38+00:00	2020-10-20T06:59:59+00:00	-2	crqcs5r99vzjk3w@marketplace.amazon.com	Heidi Barnes	+1 602-671-6610 ext. 77861	ABM022	Delivery by Tuesday | Purple Extravagance Bouquet by Arabella Bouquets	1	0	1	NextDay	Katie Morris Scipioni	144 ELBERON CT			MOCKSVILLE	NC	27028-7375	US			false		
113-8587787-8557849	59693563233674	2020-10-18T11:57:28+00:00	2020-10-18T04:57:28-07:00	2020-10-18T12:18:37+00:00	2020-10-21T06:59:59+00:00	-3	sqmz5vrm14mxm2f@marketplace.amazon.com	Jared Jobe	+1 213-442-1463 ext. 97943	ABM020	Delivery by Tuesday | The Sunset Bouquet by Arabella Bouquets	1	0	1	Expedited	Jocelyn Sams	7005 SEDGEWICK RD			INDIAN TRAIL	NC	28079-4706	US		We are so sorry for what you are going through. Get well soon. We love you all. From Jared and Lisa	false		
112-5194018-2389013	16183459019666	2020-10-18T13:10:49+00:00	2020-10-18T06:10:49-07:00	2020-10-18T13:14:58+00:00	2020-10-20T06:59:59+00:00	-2	m9jdv6vbyt76893@marketplace.amazon.com	Holly Conklin	+1 213-442-1463 ext. 83629	ABM022	Delivery by Tuesday | Purple Extravagance Bouquet by Arabella Bouquets	1	0	1	NextDay	Gale kidder	26909 BECKER CT			LEESBURG	FL	34748-8092	US		Wishing you a speedy recovery! We love & miss you.   Rick holly landen Cambry From Holly Conklin	false		
112-6933223-8456236	65312061790170	2020-10-18T14:22:12+00:00	2020-10-18T07:22:12-07:00	2020-10-18T14:25:34+00:00	2020-10-20T06:59:59+00:00	-2	lxlg6k7wdwz6305@marketplace.amazon.com	nabila sheikh	+1 619-854-2705 ext. 94810	ABR0022	Delivery by Tuesday | Arabella Farm Direct Bouquet of 12 Fresh Cut Pink Roses with a Free Glass Vase	1	0	1	NextDay	Asifa & Mahmood Sheikh	5374 LAURA BELLE LN			FAIRFAX	VA	22032-3227	US		Happy 50th Anniversary! May you have many more years of a long and happy married life together! From Musarrat Sheikh & Family	false		
114-0503209-1828266	20773414963850	2020-10-18T14:14:23+00:00	2020-10-18T07:14:23-07:00	2020-10-18T14:43:04+00:00	2020-10-21T06:59:59+00:00	-3	0hk6wvy34hn87l5@marketplace.amazon.com	Mary D. D'Agostino	+1 929-436-4790 ext. 06757	ABM020	Delivery by Tuesday | The Sunset Bouquet by Arabella Bouquets	1	0	1	Expedited	Millie DAGostino	2949 CHERRY CREEK LN			STERLING HEIGHTS	MI	48314-1021	US		Love you very much and proud of you. From Mary and Johnny, Maxx and Gibby	false		
112-3652939-9231458	33743903743058	2020-10-18T14:58:48+00:00	2020-10-18T07:58:48-07:00	2020-10-18T15:01:15+00:00	2020-10-20T06:59:59+00:00	-2	2btkvlwsh699wmr@marketplace.amazon.com	Arslan	+1 619-854-2705 ext. 96767	ABM010	Delivery by Tuesday | The Spring Fling Bouquet by Arabella Bouquets with a Free Designer Glass Vase	1	0	1	NextDay	Soombal and Arslan Zubair	360 S MONROE ST APT 626			DENVER	CO	80209-3739	US		Happy Birthday to our dearest daughter Soombal! May Allah bless you always, Ameen xxxxx From The Zubair Family	false		
112-7709789-2103435	15693675803290	2020-10-18T15:14:26+00:00	2020-10-18T08:14:26-07:00	2020-10-18T15:19:53+00:00	2020-10-20T06:59:59+00:00	-2	2s31hzl0rcf34pw@marketplace.amazon.com	Clay Skougard	94946340845	ABR0022	Delivery by Tuesday | Arabella Farm Direct Bouquet of 12 Fresh Cut Pink Roses with a Free Glass Vase	1	0	1	NextDay	Susan Skougard	307 PLYMOUTH DR			CHARLOTTE	MI	48813-2151	US			false		
112-6316017-8522659	20884060554050	2020-10-18T15:21:13+00:00	2020-10-18T08:21:13-07:00	2020-10-18T15:24:33+00:00	2020-10-20T06:59:59+00:00	-2	ff7x1jwqnkrryjg@marketplace.amazon.com	ralph steinlight	+1 929-436-4790 ext. 40716	ABR0022	Delivery by Tuesday | Arabella Farm Direct Bouquet of 12 Fresh Cut Pink Roses with a Free Glass Vase	1	0	1	NextDay	Amy Steinlight	5718 FAIRWOOD DR NW			ACWORTH	GA	30101-7840	US		Hi Amy, We hope you have an Awesome Birthday All our Love! Ralph and Karen	false		
111-3993993-7631449	62235368533522	2020-10-18T15:24:56+00:00	2020-10-18T08:24:56-07:00	2020-10-18T15:53:39+00:00	2020-10-21T06:59:59+00:00	-3	rplx4x94fp203py@marketplace.amazon.com	Robin Bartley	+1 929-436-4790 ext. 15600	ABM006	Arabella Bouquets Fresh Cut Yellow Lillies in a Free Designer Glass Vase	1	0	1	Expedited	Caroline Collier	7125 WINTER OAKS WAY			KNOXVILLE	TN	37918-9474	US		Just a little pick-me-up to let you know you are being thought of today.  You've been through so much! From Robin Bartley	false		
111-2663562-2077865	35771243201458	2020-10-18T16:10:22+00:00	2020-10-18T09:10:22-07:00	2020-10-18T16:14:25+00:00	2020-10-20T06:59:59+00:00	-2	spwxt0dc0br3zbx@marketplace.amazon.com	Rebecca Ortiz	+1 602-671-6610 ext. 41119	ABM024	Delivery by Tuesday | The Beauty of Color Bouquet by Arabella Bouquets	1	0	1	NextDay	Rebecca Ortiz	3100 Ronan Drive			Lake in the Hills	IL	60156	US		Marcela! Thankful for today as it's the day my BFF was born! Love you so much & hope this is the best #Marcelapalooza ever!! XOXO! HAPPY BIRTHDAY! From Rebecca	false		
111-1320133-9228262	29014267021178	2020-10-18T16:21:57+00:00	2020-10-18T09:21:57-07:00	2020-10-18T16:23:04+00:00	2020-10-20T06:59:59+00:00	-2	38csl891z4b44vx@marketplace.amazon.com	Margaret Gavigan	+1 480-618-5344 ext. 88846	ABR0022	Delivery by Tuesday | Arabella Farm Direct Bouquet of 12 Fresh Cut Pink Roses with a Free Glass Vase	1	0	1	NextDay	Nina Purdue	403 CHAPELWOOD LN			LUTHVLE TIMON	MD	21093-2815	US		Happy Birthday!!  Wishing you the very best day and year ahead! We love you! From Margi, Barry,  Lauren & Matt	false		
114-9154454-6782609	01375683617930	2020-10-18T16:19:26+00:00	2020-10-18T09:19:26-07:00	2020-10-18T16:24:54+00:00	2020-10-20T06:59:59+00:00	-2	hdmf7b59dpm5gb9@marketplace.amazon.com	Amanda Guzman	+1 619-854-2705 ext. 17340	ABR0022	Delivery by Tuesday | Arabella Farm Direct Bouquet of 12 Fresh Cut Pink Roses with a Free Glass Vase	1	0	1	NextDay	Aunt Glenda	359 MANHATTAN DR			LEXINGTON	KY	40505-2125	US			false		
114-9121812-8015454	43554557134594	2020-10-18T16:21:03+00:00	2020-10-18T09:21:03-07:00	2020-10-18T16:41:50+00:00	2020-10-20T06:59:59+00:00	-2	zqgbcwbk6kfvdfq@marketplace.amazon.com	k deak	+1 213-442-1463 ext. 70199	ABB008	Arabella Farm Direct 48 Fresh Cut Pink Roses	1	0	1	SecondDay	Agi Spitzer	3236 E CHANDLER BLVD UNIT 1029			PHOENIX	AZ	85048-7281	US		Happy Birthday Agi! Love, Krissy From k deak	false		
113-1754073-1721800	54825897739682	2020-10-18T16:44:13+00:00	2020-10-18T09:44:13-07:00	2020-10-18T16:49:43+00:00	2020-10-20T06:59:59+00:00	-2	88xjzqrqxqk1kld@marketplace.amazon.com	Cassandra J Martin	+1 929-436-4790 ext. 48601	ABM022	Delivery by Tuesday | Purple Extravagance Bouquet by Arabella Bouquets	1	0	1	NextDay	Erin Poh	2630 22ND AVE			SAN FRANCISCO	CA	94116-3030	US			false		
113-9181125-8033810	26162193349570	2020-10-18T16:52:32+00:00	2020-10-18T09:52:32-07:00	2020-10-18T16:56:32+00:00	2020-10-20T06:59:59+00:00	-2	kqkfcld7gtljv69@marketplace.amazon.com	ERIC ANTHONY	+1 929-436-4790 ext. 84655	ABR001	Delivery by Tuesday | Arabella Bouquets 12 Stems of Fresh Cut Red Roses in a Free Designer Glass Vase	1	0	1	NextDay	Carla Williams	3216 GALLANT DR			COLUMBUS	OH	43232-7445	US		Enjoy your Birthday! From ERIC ANTHONY	false		
111-6972493-7365010	01999068166522	2020-10-18T16:34:26+00:00	2020-10-18T09:34:26-07:00	2020-10-18T16:59:29+00:00	2020-10-21T06:59:59+00:00	-3	38csl891z4b44vx@marketplace.amazon.com	Margaret Gavigan	+1 602-671-6610 ext. 16289	ABR0033	Delivery by Wednesday | Arabella Farm Direct Bouquet of 12 Fresh Cut Orange Roses with a Free Glass Vase	1	0	1	Expedited	Charlotte Loftus	930 BEACON WAY			ANNAPOLIS	MD	21401-7385	US		Aunt Charlotte, We heard about your surgery.  Hope you are feeling better soon.  Take care, thinking of you. From Love, Margi, Barry, Lauren & Matt	false		
111-6814986-5855462	25910944943674	2020-10-18T17:20:19+00:00	2020-10-18T10:20:19-07:00	2020-10-18T17:23:17+00:00	2020-10-20T06:59:59+00:00	-2	cf6sqpkljcldfjf@marketplace.amazon.com	Farrukh Karimov	+1 480-618-5344 ext. 25807	ABR0022	Delivery by Tuesday | Arabella Farm Direct Bouquet of 12 Fresh Cut Pink Roses with a Free Glass Vase	1	0	1	NextDay	Jalalova Zulfiya	2939 AVENUE Y APT 2A			BROOKLYN	NY	11235-1628	US		to daughter and sister with love!!! Happy birthday!!! From Karimov’s family	false		
113-9145611-7342639	32191373773458	2020-10-18T17:31:50+00:00	2020-10-18T10:31:50-07:00	2020-10-18T17:32:48+00:00	2020-10-20T06:59:59+00:00	-2	77hdxfhkqb41zcq@marketplace.amazon.com	Yvette Alexander	+1 602-671-6610 ext. 66298	ABR0055	Delivery by Tuesday | Arabella Farm Direct Bouquet of 12 Stems of Fresh Cut Hot Pink Roses in a Free Designer Glass Vase	1	0	1	NextDay	Apple Rehab Cromwell	MILDRED COURNOYER 156 BERLIN RD			CROMWELL	CT	06416-1019	US			false		
112-4278908-3029028	05728965249906	2020-10-18T17:31:08+00:00	2020-10-18T10:31:08-07:00	2020-10-18T17:36:38+00:00	2020-10-20T06:59:59+00:00	-2	vpst21l6ppjv75t@marketplace.amazon.com	Dana Edwards	+1 929-436-4790 ext. 82834	ABR001	Delivery by Tuesday | Arabella Bouquets 12 Stems of Fresh Cut Red Roses in a Free Designer Glass Vase	1	0	1	NextDay	Jennifer Cortazzo	143 LONG DR			IRWIN	PA	15642-9487	US			false		
113-5647217-0398616	56540989963850	2020-10-18T17:32:49+00:00	2020-10-18T10:32:49-07:00	2020-10-18T17:36:52+00:00	2020-10-20T06:59:59+00:00	-2	jbqj1vxxxjlrwz4@marketplace.amazon.com	Luis ibarra	+1 929-436-4790 ext. 83532	ABR001	Delivery by Tuesday | Arabella Bouquets 12 Stems of Fresh Cut Red Roses in a Free Designer Glass Vase	1	0	1	NextDay	Lucie gonzales	7550 W 62ND ST APT 3			SUMMIT	IL	60501-1778	US		Espero te gusten y te alegre tu dia chula...eres esp ial para mi me encatas mucho eres hermosaaa From Luis ibarra	false		
114-1507257-6373837	45818224865906	2020-10-18T18:07:59+00:00	2020-10-18T11:07:59-07:00	2020-10-18T18:12:10+00:00	2020-10-20T06:59:59+00:00	-2	186s1bpzq8dkbrn@marketplace.amazon.com	Scarlett Wood	+1 929-436-4790 ext. 74160	ABR001	Delivery by Tuesday | Arabella Bouquets 12 Stems of Fresh Cut Red Roses in a Free Designer Glass Vase	1	0	1	NextDay	Judy Harmer	2244 E 4TH ST			NATIONAL CITY	CA	91950-2053	US		To Judy  Love Scarlett Jim & Joe & family From Scarlett Wood	false		
114-6023805-5148229	00598723922330	2020-10-18T18:38:12+00:00	2020-10-18T11:38:12-07:00	2020-10-18T18:42:38+00:00	2020-10-20T06:59:59+00:00	-2	xgqhr7833jryvd3@marketplace.amazon.com	Robin Beavers	+1 929-436-4790 ext. 63078	ABR0022	Delivery by Tuesday | Arabella Farm Direct Bouquet of 12 Fresh Cut Pink Roses with a Free Glass Vase	1	0	1	NextDay	Rachel Lazar	43274 W MARICOPA AVE			MARICOPA	AZ	85138-8260	US		Feel better! Love you! Robs, J and Bo From Robin Beavers	false		
112-1859914-9329027	42509556390410	2020-10-18T18:16:26+00:00	2020-10-18T11:16:26-07:00	2020-10-18T18:44:09+00:00	2020-10-21T06:59:59+00:00	-3	3kytv1t0wfnf2p7@marketplace.amazon.com	michelle.m.smith	+1 619-854-2705 ext. 04220	ABR0033	Delivery by Wednesday | Arabella Farm Direct Bouquet of 12 Fresh Cut Orange Roses with a Free Glass Vase	1	0	1	Expedited	Gretchen Stokes	65 LEBANON ST			HANOVER	NH	03755-2508	US		Dear Gretchen Happy Birthday! From Love, Michelle & Mark	false		
111-3637212-8653857	67577355651538	2020-10-18T18:24:19+00:00	2020-10-18T11:24:19-07:00	2020-10-18T18:46:57+00:00	2020-10-21T06:59:59+00:00	-3	n40hh3vrydjj3hr@marketplace.amazon.com	Diana DeVinney	+1 480-618-5344 ext. 68189	ABM020	Delivery by Tuesday | The Sunset Bouquet by Arabella Bouquets	1	0	1	Expedited	Betty England	1431 SHEAFE AVE NE APT 105			PALM BAY	FL	32905-7635	US		Enjoy your gift! happy birthday Hope these brighten your day Love Nina, Jody, and family From Diana DeVinney	false		
114-7520673-4645822	40207384604722	2020-10-18T18:48:28+00:00	2020-10-18T11:48:28-07:00	2020-10-18T18:53:47+00:00	2020-10-20T06:59:59+00:00	-2	fr1k9td19rzp55f@marketplace.amazon.com	Adam Dunainawi	+1 619-854-2705 ext. 89389	ABR0022	Delivery by Tuesday | Arabella Farm Direct Bouquet of 12 Fresh Cut Pink Roses with a Free Glass Vase	1	0	1	NextDay	Adam Dunainawi	25331 SANDY TRACE LN			KATY	TX	77494-2487	US			false		
114-3822590-0763467	16255487668450	2020-10-18T19:02:25+00:00	2020-10-18T12:02:25-07:00	2020-10-18T19:04:20+00:00	2020-10-20T06:59:59+00:00	-2	mnq777lfdhwynf2@marketplace.amazon.com	Lisa DelBusso	+1 480-618-5344 ext. 86854	ABR0022	Delivery by Tuesday | Arabella Farm Direct Bouquet of 12 Fresh Cut Pink Roses with a Free Glass Vase	1	0	1	NextDay	Cindy Harbin	12064 E ARABIAN PARK DR			SCOTTSDALE	AZ	85259-5116	US		Happy Birthday!  Love Lisa and Mike From Lisa DelBusso	false		
112-7102193-7789816	19244923610498	2020-10-18T19:05:43+00:00	2020-10-18T12:05:43-07:00	2020-10-18T19:11:24+00:00	2020-10-20T06:59:59+00:00	-2	ld8s7j773n1941q@marketplace.amazon.com	Heather M Brenner	+1 213-442-1463 ext. 98680	ABR001	Delivery by Tuesday | Arabella Bouquets 12 Stems of Fresh Cut Red Roses in a Free Designer Glass Vase	1	0	1	NextDay	Heather M Brenner	38 MITCHELL AVE			PLAINVIEW	NY	11803-3019	US			false		
