order-id	order-item-id	purchase-date	payments-date	reporting-date	promise-date	days-past-promise	buyer-email	buyer-name	buyer-phone-number	sku	product-name	quantity-purchased	quantity-shipped	quantity-to-ship	ship-service-level	recipient-name	ship-address-1	ship-address-2	ship-address-3	ship-city	ship-state	ship-postal-code	ship-country	gift-wrap-type	gift-message-text	is-business-order	purchase-order-number	price-designation
113-7463551-7875405	39446546272026	2020-10-17T17:07:11+00:00	2020-10-17T10:07:11-07:00	2020-10-17T17:36:14+00:00	2020-10-21T06:59:59+00:00	-2	ynfmj2q0bcftbh3@marketplace.amazon.com	Hans Philipps	+1 929-436-4790 ext. 48384	ABR0033	Delivery by Tuesday | Arabella Farm Direct Bouquet of 12 Fresh Cut Orange Roses with a Free Glass Vase	1	0	1	Expedited	Hans Philipps	1231 THORNTON DR			SEQUIM	WA	98382-8091	US			false		
112-7202847-1831468	64066358846930	2020-10-17T22:54:07+00:00	2020-10-17T15:54:07-07:00	2020-10-17T23:20:09+00:00	2020-10-21T06:59:59+00:00	-2	9mmn4ybyy6gyfgw@marketplace.amazon.com	Vanessa Espinoza	+1 480-618-5344 ext. 24755	ABR0033	Delivery by Wednesday | Arabella Farm Direct Bouquet of 12 Fresh Cut Orange Roses with a Free Glass Vase	1	0	1	Expedited	Elena Aguayo	409 W 3RD ST			PERRIS	CA	92570-2071	US		Get well soon. From Mumu & Jasmin	false		
111-6972493-7365010	01999068166522	2020-10-18T16:34:26+00:00	2020-10-18T09:34:26-07:00	2020-10-18T16:59:29+00:00	2020-10-21T06:59:59+00:00	-2	38csl891z4b44vx@marketplace.amazon.com	Margaret Gavigan	+1 602-671-6610 ext. 16289	ABR0033	Delivery by Wednesday | Arabella Farm Direct Bouquet of 12 Fresh Cut Orange Roses with a Free Glass Vase	1	0	1	Expedited	Charlotte Loftus	930 BEACON WAY			ANNAPOLIS	MD	21401-7385	US		Aunt Charlotte, We heard about your surgery.  Hope you are feeling better soon.  Take care, thinking of you. From Love, Margi, Barry, Lauren & Matt	false		
112-1859914-9329027	42509556390410	2020-10-18T18:16:26+00:00	2020-10-18T11:16:26-07:00	2020-10-18T18:44:09+00:00	2020-10-21T06:59:59+00:00	-2	3kytv1t0wfnf2p7@marketplace.amazon.com	michelle.m.smith	+1 619-854-2705 ext. 04220	ABR0033	Delivery by Wednesday | Arabella Farm Direct Bouquet of 12 Fresh Cut Orange Roses with a Free Glass Vase	1	0	1	Expedited	Gretchen Stokes	65 LEBANON ST			HANOVER	NH	03755-2508	US		Dear Gretchen Happy Birthday! From Love, Michelle & Mark	false		
111-7713574-9654614	62621783600810	2020-10-19T11:42:24+00:00	2020-10-19T04:42:24-07:00	2020-10-19T11:57:40+00:00	2020-10-22T06:59:59+00:00	-3	q1d6blh3447t77y@marketplace.amazon.com	Rafael San Agustin	+1 213-442-1463 ext. 25328	ABR0033	Delivery by Wednesday | Arabella Farm Direct Bouquet of 12 Fresh Cut Orange Roses with a Free Glass Vase	1	0	1	Expedited	Ernie Lacson	641 PILGRIM DR			FOSTER CITY	CA	94404-1729	US		Dear Ernie,  We are thinking of you and hope these flowers brings some light into the room.  Hope your procedure went well and that you recover swiftly. We love you! From Butch and Mia	false		
111-8058711-3037020	24486270694466	2020-10-19T18:29:20+00:00	2020-10-19T11:29:20-07:00	2020-10-19T18:57:12+00:00	2020-10-22T06:59:59+00:00	-3	6p1vbvmhr1bfs00@marketplace.amazon.com	ted presti	+1 480-618-5344 ext. 69373	ABR0055	Delivery by Wednesday | Arabella Farm Direct Bouquet of 12 Stems of Fresh Cut Hot Pink Roses in a Free Designer Glass Vase	1	0	1	Expedited	Denise m whitworth	2711 BRISTOL LAKE DR			COLUMBIA	MO	65201-7512	US		Hi Denise, Enjoy your gift! From ted presti	false		
113-7216612-6153846	23543635843266	2020-10-19T18:42:07+00:00	2020-10-19T11:42:07-07:00	2020-10-19T19:04:47+00:00	2020-10-22T06:59:59+00:00	-3	mz746pytzgtt4hr@marketplace.amazon.com	brittany dixon	+1 213-442-1463 ext. 97702	ABR0022	Delivery by Wednesday | Arabella Farm Direct Bouquet of 12 Fresh Cut Pink Roses with a Free Glass Vase	1	0	1	Expedited	Happiest Birthday Mom	189 EWBANK GARDENS DR APT A			HENDERSONVILLE	NC	28791-2292	US		A Very Special Birthday Ahead, to a Very Special Lady! Wishing you a fabulous, fun, and Special Birthday this year Mom!!! Celebrate to the fullest!! Love you lots and your always in my heart. With love, Your Daughter Bebe From Britt	false		
111-7646096-4170634	18323124270330	2020-10-19T18:42:38+00:00	2020-10-19T11:42:38-07:00	2020-10-19T19:08:17+00:00	2020-10-21T06:59:59+00:00	-2	8lmszw2sw8s0wjd@marketplace.amazon.com	sharyn kalinousky	+1 929-436-4790 ext. 34646	ABR013	Delivery by Thursday | Arabella Farm Direct Bouquet of 18 Fresh Cut Yellow Roses with a Free Glass Vase	1	0	1	SecondDay	Allison Kalinousky	915 S WOLFE ST APT 548			BALTIMORE	MD	21231-3647	US		HAPPY 23rd BIRTHDAY ALLISON!    WE LOVE YOU. Go easy on the celebration ❤️  Love Mom & Dad. XOXO From Mom & Dad	false		
113-8586191-3001808	23713528650322	2020-10-19T17:34:04+00:00	2020-10-19T10:34:04-07:00	2020-10-19T19:27:33+00:00	2020-10-22T06:59:59+00:00	-3	1d8svkqbw9mwk1x@marketplace.amazon.com	Darcy OBrien	+1 619-854-2705 ext. 42431	ABR0022	Delivery by Wednesday | Arabella Farm Direct Bouquet of 12 Fresh Cut Pink Roses with a Free Glass Vase	1	0	1	Expedited	Ana Evangelista	MARRIOTT 13444 E SHEA BLVD			SCOTTSDALE	AZ	85259-5405	US		Ana ,  To brighten up your room and remind you how much we care about you , Luis and the girls!  Love From Darcy Jon Ben and Lila	false		
114-3965786-2309068	29236874156362	2020-10-19T19:41:13+00:00	2020-10-19T12:41:13-07:00	2020-10-19T20:01:40+00:00	2020-10-21T06:59:59+00:00	-2	f2k450qrzmd81h1@marketplace.amazon.com	Mark Maloney	+1 929-436-4790 ext. 49641	ABR0022	Delivery by Wednesday | Arabella Farm Direct Bouquet of 12 Fresh Cut Pink Roses with a Free Glass Vase	1	0	1	SecondDay	Sharon Davies	1280 W PEACHTREE ST NW APT 4002			ATLANTA	GA	30309-3444	US		Happy days and many more to come! (and more R!) From Mark Maloney	false		
113-0205382-4730662	54089513461570	2020-10-19T19:42:53+00:00	2020-10-19T12:42:53-07:00	2020-10-19T20:02:06+00:00	2020-10-22T06:59:59+00:00	-3	b4hgt7xp7zng9f5@marketplace.amazon.com	Alejandra	+1 619-854-2705 ext. 55086	ABR0022	Delivery by Wednesday | Arabella Farm Direct Bouquet of 12 Fresh Cut Pink Roses with a Free Glass Vase	1	0	1	Expedited	INGRID CASTRO	18 MALCOLM ST			HINGHAM	MA	02043-1352	US		¡Viene un gran día para ti bebish! Aunque no podamos estar físicamente contigo estaremos en distancia. Te amamos y deseamos lo mejor en esta nueva etapa que comienzas. Muchas felicidades a ti y Steve. Con mucho amor Lyn y Ale From Alejandra	false		
113-3091749-5433006	64139880976274	2020-10-19T19:36:29+00:00	2020-10-19T12:36:29-07:00	2020-10-19T20:05:15+00:00	2020-10-22T06:59:59+00:00	-3	cyhrl7l4zzkpvg0@marketplace.amazon.com	Kim Meredith	+1 213-442-1463 ext. 21609	ABR0022	Delivery by Wednesday | Arabella Farm Direct Bouquet of 12 Fresh Cut Pink Roses with a Free Glass Vase	1	0	1	Expedited	Ann Meredith	4537 OLD STAGE RD			PULASKI	VIRGINIA	24301-6909	US		Happy Birthday! Enjoy! From Jay, Kim, Kyle, Chelsie, Connor, Morgan and Cooper	false		
114-4363721-9689847	15769300949842	2020-10-19T20:18:43+00:00	2020-10-19T13:18:43-07:00	2020-10-19T20:39:24+00:00	2020-10-21T06:59:59+00:00	-2	d1211mny6yk1mdk@marketplace.amazon.com	Charles Jacks	+1 602-671-6610 ext. 50505	ABR0022	Delivery by Wednesday | Arabella Farm Direct Bouquet of 12 Fresh Cut Pink Roses with a Free Glass Vase	1	0	1	SecondDay	Michaela Jacks	3823 HURON AVE APT 3			CULVER CITY	CA	90232-3867	US		Hi Michaela, Thinking of you and hoping you are doing well❤️ From Xoxo Nana and Papa Jacks	false		
112-2281044-0791418	23215106513522	2020-10-19T20:15:00+00:00	2020-10-19T13:15:00-07:00	2020-10-19T20:45:40+00:00	2020-10-22T06:59:59+00:00	-3	cvvgpbsw20m10km@marketplace.amazon.com	Howard Jones	+1 602-671-6610 ext. 45981	ABR004	Delivery by Thursday | Arabella Farm Direct Bouquet of 12 Fresh Cut Yellow Roses with a Free Glass Vase	1	0	1	Expedited	Sandra E Jones	2 LAUREL OAK RD			FERNANDINA BEACH	FL	32034-6524	US			false		
112-7308414-3389002	31513010004978	2020-10-19T19:56:52+00:00	2020-10-19T12:56:52-07:00	2020-10-19T20:55:23+00:00	2020-10-22T06:59:59+00:00	-3	dqpvfz4ccltsmbn@marketplace.amazon.com	Meg McDonald	+1 213-442-1463 ext. 24020	ABR0022	Delivery by Wednesday | Arabella Farm Direct Bouquet of 12 Fresh Cut Pink Roses with a Free Glass Vase	1	0	1	Expedited	Betty Miller	402 N PRESIDENT AVE			LANCASTER	PA	17603-2604	US		Happy Birthday! From Meg	false		
112-3595371-5362658	41059691365450	2020-10-19T20:44:47+00:00	2020-10-19T13:44:47-07:00	2020-10-19T21:15:04+00:00	2020-10-22T06:59:59+00:00	-3	779n0v1fj78tj71@marketplace.amazon.com	Carole Doorley	+1 602-671-6610 ext. 31976	ABM022	Delivery by Wednesday | Purple Extravagance Bouquet by Arabella Bouquets	1	0	1	Expedited	Mathilda Doorley	7818 JILLS CREEK CV			BARTLETT	TN	38133-2897	US		Happy Birthday, Mom! From Carole & Patrick	false		
111-6461702-4865869	25537189269714	2020-10-19T20:58:27+00:00	2020-10-19T13:58:27-07:00	2020-10-19T21:20:18+00:00	2020-10-22T06:59:59+00:00	-3	n6jpdl3pp4w1t82@marketplace.amazon.com	brandi	+1 213-442-1463 ext. 06985	ABR001	Delivery by Wednesday | Arabella Bouquets 12 Stems of Fresh Cut Red Roses in a Free Designer Glass Vase	1	0	1	Expedited	Du-Shan Conway	3741 BISON HILL LN			RALEIGH	NC	27604-5008	US		Wishing you a very Happy birthday Sis! The plan was to be there with you; since couldn't make it happen, hope this makes you smile! Love you much Sis! Brandi,LaMont, Bianca & Raiden From brandi	false		
113-7819698-1949839	65887291850506	2020-10-19T21:13:46+00:00	2020-10-19T14:13:46-07:00	2020-10-19T21:43:00+00:00	2020-10-22T06:59:59+00:00	-3	r36xr5qpjg0xqf3@marketplace.amazon.com	Cathy A VanDrunen	+1 929-436-4790 ext. 96065	ABM010	Delivery by Wednesday | The Spring Fling Bouquet by Arabella Bouquets with a Free Designer Glass Vase	1	0	1	Expedited	Ruth Rarey	12525 NACIDO DR			SAN DIEGO	CA	92128-3119	US		Happy Birthday mom! From Cathy, Guido, Ben and Martin	false		
112-7085299-9385039	60934701863570	2020-10-19T21:24:53+00:00	2020-10-19T14:24:53-07:00	2020-10-19T21:53:00+00:00	2020-10-22T06:59:59+00:00	-3	6swxqydqt707k6c@marketplace.amazon.com	Laura Sommo	+1 602-671-6610 ext. 02261	ABR0022	Delivery by Wednesday | Arabella Farm Direct Bouquet of 12 Fresh Cut Pink Roses with a Free Glass Vase	1	0	1	Expedited	Loretta Lussier	2038 CARSON AVE			SPRING HILL	FL	34608-5913	US		Happy birthday! Thinking of you today and always! From Laura	false		
113-9010908-0517825	45442489857954	2020-10-19T21:50:34+00:00	2020-10-19T14:50:34-07:00	2020-10-19T22:16:41+00:00	2020-10-21T06:59:59+00:00	-2	kst4xp0zv453nj3@marketplace.amazon.com	Jill Watson	+1 602-671-6610 ext. 25596	ABR0022	Delivery by Wednesday | Arabella Farm Direct Bouquet of 12 Fresh Cut Pink Roses with a Free Glass Vase	1	0	1	SecondDay	Nola Wilcox	254 CANAL LN			BRINNON	WA	98320-9611	US		Happy birthday Mom!.    Hope you have a great special day From Love Jill & Jamie	false		
113-3879064-4811401	11389509782314	2020-10-19T21:52:48+00:00	2020-10-19T14:52:48-07:00	2020-10-19T22:20:24+00:00	2020-10-22T06:59:59+00:00	-3	168ggc1rvw8x9z3@marketplace.amazon.com	laurel seward	+1 619-854-2705 ext. 34486	ABR0022	Delivery by Wednesday | Arabella Farm Direct Bouquet of 12 Fresh Cut Pink Roses with a Free Glass Vase	1	0	1	Expedited	Gail Seward	6291 SIERRA SIENA RD			IRVINE	CA	92603-3925	US		Thinking of you all week with much love! From XOXO Laurel	false		
111-4529226-2075419	67956903983866	2020-10-19T21:58:44+00:00	2020-10-19T14:58:44-07:00	2020-10-19T22:26:46+00:00	2020-10-22T06:59:59+00:00	-3	k67r9wpw3mg6w78@marketplace.amazon.com	Lauren Blakely	+1 602-671-6610 ext. 40789	ABM022	Delivery by Wednesday | Purple Extravagance Bouquet by Arabella Bouquets	1	0	1	Expedited	Polly Whitney	12806 SCHLEICHER TRL			AUSTIN	TX	78732-2284	US		Happy Birthday! Love you so much! From Dogter	false		
113-3718248-4407417	62930625130066	2020-10-19T22:04:36+00:00	2020-10-19T15:04:36-07:00	2020-10-19T22:28:16+00:00	2020-10-22T06:59:59+00:00	-3	8pqxl4sd1jtc2kn@marketplace.amazon.com	Janice Ruiz	+1 480-618-5344 ext. 49570	ABR001	Delivery by Wednesday | Arabella Bouquets 12 Stems of Fresh Cut Red Roses in a Free Designer Glass Vase	1	0	1	Expedited	Kay	5 BUTTON CT			SACRAMENTO	CA	95835-1742	US		Kay, My condolences for the loss of your beloved husband.  My thoughts and prayers are for you and your family From Sincerely, Janice Ruiz	false		
111-1942943-4427468	21938977747738	2020-10-19T22:31:17+00:00	2020-10-19T15:31:17-07:00	2020-10-19T23:01:02+00:00	2020-10-21T06:59:59+00:00	-2	578dhb00lpjq1kx@marketplace.amazon.com	Kelcy Cunningham	+1 480-618-5344 ext. 79564	ABR0055	Delivery by Wednesday | Arabella Farm Direct Bouquet of 12 Stems of Fresh Cut Hot Pink Roses in a Free Designer Glass Vase	1	0	1	SecondDay	Lynda Howard	109 NELSONS GRV ROAD			LAKEVILLE	MA	02347-1646	US		Happy Birthday! Love you! From Kelcy Cunningham	false		
112-1092716-9545034	48555116411690	2020-10-19T23:13:49+00:00	2020-10-19T16:13:49-07:00	2020-10-19T23:42:23+00:00	2020-10-22T06:59:59+00:00	-3	zxxgns44gcg09tf@marketplace.amazon.com	T.H.	+1 213-442-1463 ext. 15101	ABR0022	Delivery by Wednesday | Arabella Farm Direct Bouquet of 12 Fresh Cut Pink Roses with a Free Glass Vase	1	0	1	Expedited	Mrs. George Dean	6480 COLCHESTER AVE			HARRISBURG	PA	17111-3920	US		Happy Birthday,  Grandma! We love you!!! From Mike, Tani, Elizabeth, Michael, Sarah and Scotty	false		
111-2916112-6040240	44455416881586	2020-10-19T23:13:40+00:00	2020-10-19T16:13:40-07:00	2020-10-19T23:43:38+00:00	2020-10-22T06:59:59+00:00	-3	mt4r21j2pgl4gj2@marketplace.amazon.com	Jeff Norman	+1 619-854-2705 ext. 00674	ABM020	Delivery by Wednesday | The Sunset Bouquet by Arabella Bouquets	1	0	1	Expedited	Jeff Norman	491 GERARD AVE APT 9Q			BRONX	NY	10451-5378	US			false		
113-8839231-5147457	26071472886626	2020-10-19T23:22:37+00:00	2020-10-19T16:22:37-07:00	2020-10-19T23:46:28+00:00	2020-10-21T06:59:59+00:00	-2	zdhd2y6fsncqwxp@marketplace.amazon.com	Jon St Germain	+1 602-671-6610 ext. 37889	ABM010	Delivery by Wednesday | The Spring Fling Bouquet by Arabella Bouquets with a Free Designer Glass Vase	1	0	1	SecondDay	Merrill Milani	12629 WYNDHAM WEST DR			GLEN ALLEN	VA	23059-7085	US		Happy B'day Merrill....... Love from Mom and Jon From Jon St Germain	false		
111-1827135-2345847	14989707873930	2020-10-19T23:37:52+00:00	2020-10-19T16:37:52-07:00	2020-10-20T00:01:56+00:00	2020-10-21T06:59:59+00:00	-2	1z3vvv3grb5wg7g@marketplace.amazon.com	Annette	+1 602-671-6610 ext. 79339	ABR0022	Delivery by Wednesday | Arabella Farm Direct Bouquet of 12 Fresh Cut Pink Roses with a Free Glass Vase	1	0	1	SecondDay	Shea Smelser	8013 BLACKBURN AVE APT 2			LOS ANGELES	CA	90048-4441	US		HAPPY BIRTHDAY!! Miss you tons....Enjoy the adventure. Love You Most  Mom From Mom	false		
114-3193935-2769022	06012061317514	2020-10-19T23:37:24+00:00	2020-10-19T16:37:24-07:00	2020-10-20T00:06:48+00:00	2020-10-21T06:59:59+00:00	-2	qnq712rdxg3xnqf@marketplace.amazon.com	Richard A. Silvestro	+1 480-618-5344 ext. 96970	ABR001	Delivery by Wednesday | Arabella Bouquets 12 Stems of Fresh Cut Red Roses in a Free Designer Glass Vase	1	0	1	SecondDay	Richard A.Silvestro	62 CLYDE AVE			EAST PROVIDENCE	RI	02914-3004	US			false		
114-2093099-5634624	19151212286682	2020-10-19T23:51:49+00:00	2020-10-19T16:51:49-07:00	2020-10-20T00:14:44+00:00	2020-10-21T06:59:59+00:00	-2	qnq712rdxg3xnqf@marketplace.amazon.com	Richard A. Silvestro	+1 480-618-5344 ext. 20855	ABR001	Delivery by Wednesday | Arabella Bouquets 12 Stems of Fresh Cut Red Roses in a Free Designer Glass Vase	1	0	1	SecondDay	Michelle Miller	14204 DRUMVALE DR			CHESTER	VA	23831-7650	US		Enjoy your gift!   Michelle,   Happy Birthday!!! Love & Kisses!!! From Richard A. Silvestro	false		
113-5018494-8414644	01963939565938	2020-10-19T23:57:09+00:00	2020-10-19T16:57:09-07:00	2020-10-20T00:25:14+00:00	2020-10-22T06:59:59+00:00	-3	ybv29b1lpc2scsv@marketplace.amazon.com	D Smith	+1 480-618-5344 ext. 73790	ABR0022	Delivery by Wednesday | Arabella Farm Direct Bouquet of 12 Fresh Cut Pink Roses with a Free Glass Vase	1	0	1	Expedited	Carrie Lynn	5611 SUTTONTOWN RD			FAISON	NC	28341-6575	US		Happy birthday!!! From D Smith	false		
112-5689567-5505020	02404503067106	2020-10-20T00:27:35+00:00	2020-10-19T17:27:35-07:00	2020-10-20T00:45:17+00:00	2020-10-22T06:59:59+00:00	-3	xs4fwwlk3txvckg@marketplace.amazon.com	ELIAS	+1 602-671-6610 ext. 81063	ABM022	Delivery by Wednesday | Purple Extravagance Bouquet by Arabella Bouquets	1	0	1	Expedited	Lauren Schultz	801 TEMPLE DR			HITCHCOCK	TX	77563-1621	US		I love you my queen ,and I will never let you go. From ELIAS	false		
113-7524604-4329839	69025167317362	2020-10-20T00:32:52+00:00	2020-10-19T17:32:52-07:00	2020-10-20T00:58:01+00:00	2020-10-21T06:59:59+00:00	-2	45srzxcd8pj9f9p@marketplace.amazon.com	mike greene	+1 602-671-6610 ext. 07159	ABM022	Delivery by Wednesday | Purple Extravagance Bouquet by Arabella Bouquets	1	0	1	SecondDay	anna greene	21 MOUNT VERNON ST UNIT 2A			WORCESTER	MA	01605-3467	US		Happy Birthday, Love Daddy From You know who.	false		
111-8175136-8468205	69747408792986	2020-10-20T00:36:52+00:00	2020-10-19T17:36:52-07:00	2020-10-20T01:05:30+00:00	2020-10-22T06:59:59+00:00	-3	zsrwkgcc9jq3dkn@marketplace.amazon.com	Robert Stewart	+1 602-671-6610 ext. 12679	ABM021	Delivery by Thursday | The Joyous Bouquet by Arabella Bouquets	1	0	1	Expedited	Amy Stewart Walker	57 ASH HILL RD			READING	MA	01867-3832	US			false		
111-8345486-5640206	54801358589434	2020-10-20T00:51:54+00:00	2020-10-19T17:51:54-07:00	2020-10-20T01:13:36+00:00	2020-10-22T06:59:59+00:00	-3	6vftrrmnk1zf6r1@marketplace.amazon.com	Darcy Long	+1 619-854-2705 ext. 98364	ABM022	Delivery by Wednesday | Purple Extravagance Bouquet by Arabella Bouquets	1	0	1	Expedited	Sister Halane Flowers Ricketts	9371 PASCAGOULA DR			BATON ROUGE	LA	70810-6842	US		Dear Sister Ricketts: Our deepest sympathy to you & your family. Brother Ricketts has most definitely “fought the fine fight, run the race to the finish, observed the faith” 2 Tim 4:7. Our love to you at this time. From Ryan and Darcy Long	false		
112-8681827-1943407	43808465713682	2020-10-20T00:58:15+00:00	2020-10-19T17:58:15-07:00	2020-10-20T01:27:08+00:00	2020-10-22T06:59:59+00:00	-3	z9xbh2tn7dnrczj@marketplace.amazon.com	Jeanne Spaletto	+1 602-671-6610 ext. 09488	ABM010	Delivery by Wednesday | The Spring Fling Bouquet by Arabella Bouquets with a Free Designer Glass Vase	1	0	1	Expedited	Sarah Malkus	3151 GARDEN HILL LN			SAINT LOUIS	MO	63139-1784	US		Sending big hugs & prayers your way.   We love you! From Cathy, Cheri, Betsy, Jeanne & Barb	false		
113-0975284-4289826	62063364103594	2020-10-20T01:09:04+00:00	2020-10-19T18:09:04-07:00	2020-10-20T01:37:32+00:00	2020-10-22T06:59:59+00:00	-3	hyys95b5z9yh02j@marketplace.amazon.com	aysha arshad	+1 415-851-9136 ext. 35924	ABB011	Arabella Bouquets 24 Stems of Fresh Cut Hot Pink Roses in a Free Designer Glass Vase	1	0	1	Expedited	Whitney Thomas	8845 HOWLAND PL			BRISTOW	VA	20136-5712	US		Enjoy your gift! Hope you have a wonderfully memorable pre wedding week!! From aysha arshad	false		
