order-id	order-item-id	purchase-date	payments-date	reporting-date	promise-date	days-past-promise	buyer-email	buyer-name	buyer-phone-number	sku	product-name	quantity-purchased	quantity-shipped	quantity-to-ship	ship-service-level	recipient-name	ship-address-1	ship-address-2	ship-address-3	ship-city	ship-state	ship-postal-code	ship-country	gift-wrap-type	gift-message-text	is-business-order	purchase-order-number	price-designation
113-7463551-7875405	39446546272026	2020-10-17T17:07:11+00:00	2020-10-17T10:07:11-07:00	2020-10-17T17:36:14+00:00	2020-10-21T06:59:59+00:00	-1	ynfmj2q0bcftbh3@marketplace.amazon.com	Hans Philipps	+1 929-436-4790 ext. 48384	ABR0033	Delivery by Tuesday | Arabella Farm Direct Bouquet of 12 Fresh Cut Orange Roses with a Free Glass Vase	1	0	1	Expedited	Hans Philipps	1231 THORNTON DR			SEQUIM	WA	98382-8091	US			false		
112-7202847-1831468	64066358846930	2020-10-17T22:54:07+00:00	2020-10-17T15:54:07-07:00	2020-10-17T23:20:09+00:00	2020-10-21T06:59:59+00:00	-1	9mmn4ybyy6gyfgw@marketplace.amazon.com	Vanessa Espinoza	+1 480-618-5344 ext. 24755	ABR0033	Delivery by Wednesday | Arabella Farm Direct Bouquet of 12 Fresh Cut Orange Roses with a Free Glass Vase	1	0	1	Expedited	Elena Aguayo	409 W 3RD ST			PERRIS	CA	92570-2071	US		Get well soon. From Mumu & Jasmin	false		
111-6972493-7365010	01999068166522	2020-10-18T16:34:26+00:00	2020-10-18T09:34:26-07:00	2020-10-18T16:59:29+00:00	2020-10-21T06:59:59+00:00	-1	38csl891z4b44vx@marketplace.amazon.com	Margaret Gavigan	+1 602-671-6610 ext. 16289	ABR0033	Delivery by Wednesday | Arabella Farm Direct Bouquet of 12 Fresh Cut Orange Roses with a Free Glass Vase	1	0	1	Expedited	Charlotte Loftus	930 BEACON WAY			ANNAPOLIS	MD	21401-7385	US		Aunt Charlotte, We heard about your surgery.  Hope you are feeling better soon.  Take care, thinking of you. From Love, Margi, Barry, Lauren & Matt	false		
112-1859914-9329027	42509556390410	2020-10-18T18:16:26+00:00	2020-10-18T11:16:26-07:00	2020-10-18T18:44:09+00:00	2020-10-21T06:59:59+00:00	-1	3kytv1t0wfnf2p7@marketplace.amazon.com	michelle.m.smith	+1 619-854-2705 ext. 04220	ABR0033	Delivery by Wednesday | Arabella Farm Direct Bouquet of 12 Fresh Cut Orange Roses with a Free Glass Vase	1	0	1	Expedited	Gretchen Stokes	65 LEBANON ST			HANOVER	NH	03755-2508	US		Dear Gretchen Happy Birthday! From Love, Michelle & Mark	false		
111-7713574-9654614	62621783600810	2020-10-19T11:42:24+00:00	2020-10-19T04:42:24-07:00	2020-10-19T11:57:40+00:00	2020-10-22T06:59:59+00:00	-2	q1d6blh3447t77y@marketplace.amazon.com	Rafael San Agustin	+1 213-442-1463 ext. 25328	ABR0033	Delivery by Wednesday | Arabella Farm Direct Bouquet of 12 Fresh Cut Orange Roses with a Free Glass Vase	1	0	1	Expedited	Ernie Lacson	641 PILGRIM DR			FOSTER CITY	CA	94404-1729	US		Dear Ernie,  We are thinking of you and hope these flowers brings some light into the room.  Hope your procedure went well and that you recover swiftly. We love you! From Butch and Mia	false		
111-8058711-3037020	24486270694466	2020-10-19T18:29:20+00:00	2020-10-19T11:29:20-07:00	2020-10-19T18:57:12+00:00	2020-10-22T06:59:59+00:00	-2	6p1vbvmhr1bfs00@marketplace.amazon.com	ted presti	+1 480-618-5344 ext. 69373	ABR0055	Delivery by Wednesday | Arabella Farm Direct Bouquet of 12 Stems of Fresh Cut Hot Pink Roses in a Free Designer Glass Vase	1	0	1	Expedited	Denise m whitworth	2711 BRISTOL LAKE DR			COLUMBIA	MO	65201-7512	US		Hi Denise, Enjoy your gift! From ted presti	false		
113-7216612-6153846	23543635843266	2020-10-19T18:42:07+00:00	2020-10-19T11:42:07-07:00	2020-10-19T19:04:47+00:00	2020-10-22T06:59:59+00:00	-2	mz746pytzgtt4hr@marketplace.amazon.com	brittany dixon	+1 213-442-1463 ext. 97702	ABR0022	Delivery by Wednesday | Arabella Farm Direct Bouquet of 12 Fresh Cut Pink Roses with a Free Glass Vase	1	0	1	Expedited	Happiest Birthday Mom	189 EWBANK GARDENS DR APT A			HENDERSONVILLE	NC	28791-2292	US		A Very Special Birthday Ahead, to a Very Special Lady! Wishing you a fabulous, fun, and Special Birthday this year Mom!!! Celebrate to the fullest!! Love you lots and your always in my heart. With love, Your Daughter Bebe From Britt	false		
111-7646096-4170634	18323124270330	2020-10-19T18:42:38+00:00	2020-10-19T11:42:38-07:00	2020-10-19T19:08:17+00:00	2020-10-21T06:59:59+00:00	-1	8lmszw2sw8s0wjd@marketplace.amazon.com	sharyn kalinousky	+1 929-436-4790 ext. 34646	ABR013	Delivery by Thursday | Arabella Farm Direct Bouquet of 18 Fresh Cut Yellow Roses with a Free Glass Vase	1	0	1	SecondDay	Allison Kalinousky	915 S WOLFE ST APT 548			BALTIMORE	MD	21231-3647	US		HAPPY 23rd BIRTHDAY ALLISON!    WE LOVE YOU. Go easy on the celebration ❤️  Love Mom & Dad. XOXO From Mom & Dad	false		
113-8586191-3001808	23713528650322	2020-10-19T17:34:04+00:00	2020-10-19T10:34:04-07:00	2020-10-19T19:27:33+00:00	2020-10-22T06:59:59+00:00	-2	1d8svkqbw9mwk1x@marketplace.amazon.com	Darcy OBrien	+1 619-854-2705 ext. 42431	ABR0022	Delivery by Wednesday | Arabella Farm Direct Bouquet of 12 Fresh Cut Pink Roses with a Free Glass Vase	1	0	1	Expedited	Ana Evangelista	MARRIOTT 13444 E SHEA BLVD			SCOTTSDALE	AZ	85259-5405	US		Ana ,  To brighten up your room and remind you how much we care about you , Luis and the girls!  Love From Darcy Jon Ben and Lila	false		
114-3965786-2309068	29236874156362	2020-10-19T19:41:13+00:00	2020-10-19T12:41:13-07:00	2020-10-19T20:01:40+00:00	2020-10-21T06:59:59+00:00	-1	f2k450qrzmd81h1@marketplace.amazon.com	Mark Maloney	+1 929-436-4790 ext. 49641	ABR0022	Delivery by Wednesday | Arabella Farm Direct Bouquet of 12 Fresh Cut Pink Roses with a Free Glass Vase	1	0	1	SecondDay	Sharon Davies	1280 W PEACHTREE ST NW APT 4002			ATLANTA	GA	30309-3444	US		Happy days and many more to come! (and more R!) From Mark Maloney	false		
113-0205382-4730662	54089513461570	2020-10-19T19:42:53+00:00	2020-10-19T12:42:53-07:00	2020-10-19T20:02:06+00:00	2020-10-22T06:59:59+00:00	-2	b4hgt7xp7zng9f5@marketplace.amazon.com	Alejandra	+1 619-854-2705 ext. 55086	ABR0022	Delivery by Wednesday | Arabella Farm Direct Bouquet of 12 Fresh Cut Pink Roses with a Free Glass Vase	1	0	1	Expedited	INGRID CASTRO	18 MALCOLM ST			HINGHAM	MA	02043-1352	US		¡Viene un gran día para ti bebish! Aunque no podamos estar físicamente contigo estaremos en distancia. Te amamos y deseamos lo mejor en esta nueva etapa que comienzas. Muchas felicidades a ti y Steve. Con mucho amor Lyn y Ale From Alejandra	false		
113-3091749-5433006	64139880976274	2020-10-19T19:36:29+00:00	2020-10-19T12:36:29-07:00	2020-10-19T20:05:15+00:00	2020-10-22T06:59:59+00:00	-2	cyhrl7l4zzkpvg0@marketplace.amazon.com	Kim Meredith	+1 213-442-1463 ext. 21609	ABR0022	Delivery by Wednesday | Arabella Farm Direct Bouquet of 12 Fresh Cut Pink Roses with a Free Glass Vase	1	0	1	Expedited	Ann Meredith	4537 OLD STAGE RD			PULASKI	VIRGINIA	24301-6909	US		Happy Birthday! Enjoy! From Jay, Kim, Kyle, Chelsie, Connor, Morgan and Cooper	false		
114-4363721-9689847	15769300949842	2020-10-19T20:18:43+00:00	2020-10-19T13:18:43-07:00	2020-10-19T20:39:24+00:00	2020-10-21T06:59:59+00:00	-1	d1211mny6yk1mdk@marketplace.amazon.com	Charles Jacks	+1 602-671-6610 ext. 50505	ABR0022	Delivery by Wednesday | Arabella Farm Direct Bouquet of 12 Fresh Cut Pink Roses with a Free Glass Vase	1	0	1	SecondDay	Michaela Jacks	3823 HURON AVE APT 3			CULVER CITY	CA	90232-3867	US		Hi Michaela, Thinking of you and hoping you are doing well❤️ From Xoxo Nana and Papa Jacks	false		
112-2281044-0791418	23215106513522	2020-10-19T20:15:00+00:00	2020-10-19T13:15:00-07:00	2020-10-19T20:45:40+00:00	2020-10-22T06:59:59+00:00	-2	cvvgpbsw20m10km@marketplace.amazon.com	Howard Jones	+1 602-671-6610 ext. 45981	ABR004	Delivery by Thursday | Arabella Farm Direct Bouquet of 12 Fresh Cut Yellow Roses with a Free Glass Vase	1	0	1	Expedited	Sandra E Jones	2 LAUREL OAK RD			FERNANDINA BEACH	FL	32034-6524	US			false		
112-7308414-3389002	31513010004978	2020-10-19T19:56:52+00:00	2020-10-19T12:56:52-07:00	2020-10-19T20:55:23+00:00	2020-10-22T06:59:59+00:00	-2	dqpvfz4ccltsmbn@marketplace.amazon.com	Meg McDonald	+1 213-442-1463 ext. 24020	ABR0022	Delivery by Wednesday | Arabella Farm Direct Bouquet of 12 Fresh Cut Pink Roses with a Free Glass Vase	1	0	1	Expedited	Betty Miller	402 N PRESIDENT AVE			LANCASTER	PA	17603-2604	US		Happy Birthday! From Meg	false		
112-3595371-5362658	41059691365450	2020-10-19T20:44:47+00:00	2020-10-19T13:44:47-07:00	2020-10-19T21:15:04+00:00	2020-10-22T06:59:59+00:00	-2	779n0v1fj78tj71@marketplace.amazon.com	Carole Doorley	+1 602-671-6610 ext. 31976	ABM022	Delivery by Wednesday | Purple Extravagance Bouquet by Arabella Bouquets	1	0	1	Expedited	Mathilda Doorley	7818 JILLS CREEK CV			BARTLETT	TN	38133-2897	US		Happy Birthday, Mom! From Carole & Patrick	false		
111-6461702-4865869	25537189269714	2020-10-19T20:58:27+00:00	2020-10-19T13:58:27-07:00	2020-10-19T21:20:18+00:00	2020-10-22T06:59:59+00:00	-2	n6jpdl3pp4w1t82@marketplace.amazon.com	brandi	+1 213-442-1463 ext. 06985	ABR001	Delivery by Wednesday | Arabella Bouquets 12 Stems of Fresh Cut Red Roses in a Free Designer Glass Vase	1	0	1	Expedited	Du-Shan Conway	3741 BISON HILL LN			RALEIGH	NC	27604-5008	US		Wishing you a very Happy birthday Sis! The plan was to be there with you; since couldn't make it happen, hope this makes you smile! Love you much Sis! Brandi,LaMont, Bianca & Raiden From brandi	false		
113-7819698-1949839	65887291850506	2020-10-19T21:13:46+00:00	2020-10-19T14:13:46-07:00	2020-10-19T21:43:00+00:00	2020-10-22T06:59:59+00:00	-2	r36xr5qpjg0xqf3@marketplace.amazon.com	Cathy A VanDrunen	+1 929-436-4790 ext. 96065	ABM010	Delivery by Wednesday | The Spring Fling Bouquet by Arabella Bouquets with a Free Designer Glass Vase	1	0	1	Expedited	Ruth Rarey	12525 NACIDO DR			SAN DIEGO	CA	92128-3119	US		Happy Birthday mom! From Cathy, Guido, Ben and Martin	false		
112-7085299-9385039	60934701863570	2020-10-19T21:24:53+00:00	2020-10-19T14:24:53-07:00	2020-10-19T21:53:00+00:00	2020-10-22T06:59:59+00:00	-2	6swxqydqt707k6c@marketplace.amazon.com	Laura Sommo	+1 602-671-6610 ext. 02261	ABR0022	Delivery by Wednesday | Arabella Farm Direct Bouquet of 12 Fresh Cut Pink Roses with a Free Glass Vase	1	0	1	Expedited	Loretta Lussier	2038 CARSON AVE			SPRING HILL	FL	34608-5913	US		Happy birthday! Thinking of you today and always! From Laura	false		
113-9010908-0517825	45442489857954	2020-10-19T21:50:34+00:00	2020-10-19T14:50:34-07:00	2020-10-19T22:16:41+00:00	2020-10-21T06:59:59+00:00	-1	kst4xp0zv453nj3@marketplace.amazon.com	Jill Watson	+1 602-671-6610 ext. 25596	ABR0022	Delivery by Wednesday | Arabella Farm Direct Bouquet of 12 Fresh Cut Pink Roses with a Free Glass Vase	1	0	1	SecondDay	Nola Wilcox	254 CANAL LN			BRINNON	WA	98320-9611	US		Happy birthday Mom!.    Hope you have a great special day From Love Jill & Jamie	false		
113-3879064-4811401	11389509782314	2020-10-19T21:52:48+00:00	2020-10-19T14:52:48-07:00	2020-10-19T22:20:24+00:00	2020-10-22T06:59:59+00:00	-2	168ggc1rvw8x9z3@marketplace.amazon.com	laurel seward	+1 619-854-2705 ext. 34486	ABR0022	Delivery by Wednesday | Arabella Farm Direct Bouquet of 12 Fresh Cut Pink Roses with a Free Glass Vase	1	0	1	Expedited	Gail Seward	6291 SIERRA SIENA RD			IRVINE	CA	92603-3925	US		Thinking of you all week with much love! From XOXO Laurel	false		
111-4529226-2075419	67956903983866	2020-10-19T21:58:44+00:00	2020-10-19T14:58:44-07:00	2020-10-19T22:26:46+00:00	2020-10-22T06:59:59+00:00	-2	k67r9wpw3mg6w78@marketplace.amazon.com	Lauren Blakely	+1 602-671-6610 ext. 40789	ABM022	Delivery by Wednesday | Purple Extravagance Bouquet by Arabella Bouquets	1	0	1	Expedited	Polly Whitney	12806 SCHLEICHER TRL			AUSTIN	TX	78732-2284	US		Happy Birthday! Love you so much! From Dogter	false		
113-3718248-4407417	62930625130066	2020-10-19T22:04:36+00:00	2020-10-19T15:04:36-07:00	2020-10-19T22:28:16+00:00	2020-10-22T06:59:59+00:00	-2	8pqxl4sd1jtc2kn@marketplace.amazon.com	Janice Ruiz	+1 480-618-5344 ext. 49570	ABR001	Delivery by Wednesday | Arabella Bouquets 12 Stems of Fresh Cut Red Roses in a Free Designer Glass Vase	1	0	1	Expedited	Kay	5 BUTTON CT			SACRAMENTO	CA	95835-1742	US		Kay, My condolences for the loss of your beloved husband.  My thoughts and prayers are for you and your family From Sincerely, Janice Ruiz	false		
111-1942943-4427468	21938977747738	2020-10-19T22:31:17+00:00	2020-10-19T15:31:17-07:00	2020-10-19T23:01:02+00:00	2020-10-21T06:59:59+00:00	-1	578dhb00lpjq1kx@marketplace.amazon.com	Kelcy Cunningham	+1 480-618-5344 ext. 79564	ABR0055	Delivery by Wednesday | Arabella Farm Direct Bouquet of 12 Stems of Fresh Cut Hot Pink Roses in a Free Designer Glass Vase	1	0	1	SecondDay	Lynda Howard	109 NELSONS GRV ROAD			LAKEVILLE	MA	02347-1646	US		Happy Birthday! Love you! From Kelcy Cunningham	false		
112-1092716-9545034	48555116411690	2020-10-19T23:13:49+00:00	2020-10-19T16:13:49-07:00	2020-10-19T23:42:23+00:00	2020-10-22T06:59:59+00:00	-2	zxxgns44gcg09tf@marketplace.amazon.com	T.H.	+1 213-442-1463 ext. 15101	ABR0022	Delivery by Wednesday | Arabella Farm Direct Bouquet of 12 Fresh Cut Pink Roses with a Free Glass Vase	1	0	1	Expedited	Mrs. George Dean	6480 COLCHESTER AVE			HARRISBURG	PA	17111-3920	US		Happy Birthday,  Grandma! We love you!!! From Mike, Tani, Elizabeth, Michael, Sarah and Scotty	false		
111-2916112-6040240	44455416881586	2020-10-19T23:13:40+00:00	2020-10-19T16:13:40-07:00	2020-10-19T23:43:38+00:00	2020-10-22T06:59:59+00:00	-2	mt4r21j2pgl4gj2@marketplace.amazon.com	Jeff Norman	+1 619-854-2705 ext. 00674	ABM020	Delivery by Wednesday | The Sunset Bouquet by Arabella Bouquets	1	0	1	Expedited	Jeff Norman	491 GERARD AVE APT 9Q			BRONX	NY	10451-5378	US			false		
113-8839231-5147457	26071472886626	2020-10-19T23:22:37+00:00	2020-10-19T16:22:37-07:00	2020-10-19T23:46:28+00:00	2020-10-21T06:59:59+00:00	-1	zdhd2y6fsncqwxp@marketplace.amazon.com	Jon St Germain	+1 602-671-6610 ext. 37889	ABM010	Delivery by Wednesday | The Spring Fling Bouquet by Arabella Bouquets with a Free Designer Glass Vase	1	0	1	SecondDay	Merrill Milani	12629 WYNDHAM WEST DR			GLEN ALLEN	VA	23059-7085	US		Happy B'day Merrill....... Love from Mom and Jon From Jon St Germain	false		
111-1827135-2345847	14989707873930	2020-10-19T23:37:52+00:00	2020-10-19T16:37:52-07:00	2020-10-20T00:01:56+00:00	2020-10-21T06:59:59+00:00	-1	1z3vvv3grb5wg7g@marketplace.amazon.com	Annette	+1 602-671-6610 ext. 79339	ABR0022	Delivery by Wednesday | Arabella Farm Direct Bouquet of 12 Fresh Cut Pink Roses with a Free Glass Vase	1	0	1	SecondDay	Shea Smelser	8013 BLACKBURN AVE APT 2			LOS ANGELES	CA	90048-4441	US		HAPPY BIRTHDAY!! Miss you tons....Enjoy the adventure. Love You Most  Mom From Mom	false		
114-2093099-5634624	19151212286682	2020-10-19T23:51:49+00:00	2020-10-19T16:51:49-07:00	2020-10-20T00:14:44+00:00	2020-10-21T06:59:59+00:00	-1	qnq712rdxg3xnqf@marketplace.amazon.com	Richard A. Silvestro	+1 480-618-5344 ext. 20855	ABR001	Delivery by Wednesday | Arabella Bouquets 12 Stems of Fresh Cut Red Roses in a Free Designer Glass Vase	1	0	1	SecondDay	Michelle Miller	14204 DRUMVALE DR			CHESTER	VA	23831-7650	US		Enjoy your gift!   Michelle,   Happy Birthday!!! Love & Kisses!!! From Richard A. Silvestro	false		
113-5018494-8414644	01963939565938	2020-10-19T23:57:09+00:00	2020-10-19T16:57:09-07:00	2020-10-20T00:25:14+00:00	2020-10-22T06:59:59+00:00	-2	ybv29b1lpc2scsv@marketplace.amazon.com	D Smith	+1 480-618-5344 ext. 73790	ABR0022	Delivery by Wednesday | Arabella Farm Direct Bouquet of 12 Fresh Cut Pink Roses with a Free Glass Vase	1	0	1	Expedited	Carrie Lynn	5611 SUTTONTOWN RD			FAISON	NC	28341-6575	US		Happy birthday!!! From D Smith	false		
112-5689567-5505020	02404503067106	2020-10-20T00:27:35+00:00	2020-10-19T17:27:35-07:00	2020-10-20T00:45:17+00:00	2020-10-22T06:59:59+00:00	-2	xs4fwwlk3txvckg@marketplace.amazon.com	ELIAS	+1 602-671-6610 ext. 81063	ABM022	Delivery by Wednesday | Purple Extravagance Bouquet by Arabella Bouquets	1	0	1	Expedited	Lauren Schultz	801 TEMPLE DR			HITCHCOCK	TX	77563-1621	US		I love you my queen ,and I will never let you go. From ELIAS	false		
113-7524604-4329839	69025167317362	2020-10-20T00:32:52+00:00	2020-10-19T17:32:52-07:00	2020-10-20T00:58:01+00:00	2020-10-21T06:59:59+00:00	-1	45srzxcd8pj9f9p@marketplace.amazon.com	mike greene	+1 602-671-6610 ext. 07159	ABM022	Delivery by Wednesday | Purple Extravagance Bouquet by Arabella Bouquets	1	0	1	SecondDay	anna greene	21 MOUNT VERNON ST UNIT 2A			WORCESTER	MA	01605-3467	US		Happy Birthday, Love Daddy From You know who.	false		
111-8175136-8468205	69747408792986	2020-10-20T00:36:52+00:00	2020-10-19T17:36:52-07:00	2020-10-20T01:05:30+00:00	2020-10-22T06:59:59+00:00	-2	zsrwkgcc9jq3dkn@marketplace.amazon.com	Robert Stewart	+1 602-671-6610 ext. 12679	ABM021	Delivery by Thursday | The Joyous Bouquet by Arabella Bouquets	1	0	1	Expedited	Amy Stewart Walker	57 ASH HILL RD			READING	MA	01867-3832	US			false		
111-8345486-5640206	54801358589434	2020-10-20T00:51:54+00:00	2020-10-19T17:51:54-07:00	2020-10-20T01:13:36+00:00	2020-10-22T06:59:59+00:00	-2	6vftrrmnk1zf6r1@marketplace.amazon.com	Darcy Long	+1 619-854-2705 ext. 98364	ABM022	Delivery by Wednesday | Purple Extravagance Bouquet by Arabella Bouquets	1	0	1	Expedited	Sister Halane Flowers Ricketts	9371 PASCAGOULA DR			BATON ROUGE	LA	70810-6842	US		Dear Sister Ricketts: Our deepest sympathy to you & your family. Brother Ricketts has most definitely “fought the fine fight, run the race to the finish, observed the faith” 2 Tim 4:7. Our love to you at this time. From Ryan and Darcy Long	false		
112-8681827-1943407	43808465713682	2020-10-20T00:58:15+00:00	2020-10-19T17:58:15-07:00	2020-10-20T01:27:08+00:00	2020-10-22T06:59:59+00:00	-2	z9xbh2tn7dnrczj@marketplace.amazon.com	Jeanne Spaletto	+1 602-671-6610 ext. 09488	ABM010	Delivery by Wednesday | The Spring Fling Bouquet by Arabella Bouquets with a Free Designer Glass Vase	1	0	1	Expedited	Sarah Malkus	3151 GARDEN HILL LN			SAINT LOUIS	MO	63139-1784	US		Sending big hugs & prayers your way.   We love you! From Cathy, Cheri, Betsy, Jeanne & Barb	false		
113-0975284-4289826	62063364103594	2020-10-20T01:09:04+00:00	2020-10-19T18:09:04-07:00	2020-10-20T01:37:32+00:00	2020-10-22T06:59:59+00:00	-2	hyys95b5z9yh02j@marketplace.amazon.com	aysha arshad	+1 415-851-9136 ext. 35924	ABB011	Arabella Bouquets 24 Stems of Fresh Cut Hot Pink Roses in a Free Designer Glass Vase	1	0	1	Expedited	Whitney Thomas	8845 HOWLAND PL			BRISTOW	VA	20136-5712	US		Enjoy your gift! Hope you have a wonderfully memorable pre wedding week!! From aysha arshad	false		
112-4943302-6130628	50514182906858	2020-10-20T01:32:54+00:00	2020-10-19T18:32:54-07:00	2020-10-20T02:02:04+00:00	2020-10-21T06:59:59+00:00	-1	04sg8bjnzszlk29@marketplace.amazon.com	miriam bender	+1 619-854-2705 ext. 08957	ABR0022	Delivery by Wednesday | Arabella Farm Direct Bouquet of 12 Fresh Cut Pink Roses with a Free Glass Vase	1	0	1	SecondDay	MRS CAROL GUTMANN	1495 E TERRACE CIR FL 3RD			TEANECK	NJ	07666-5224	US		HAPPY BIRTHDAY AND MANY MORE IN GOOD HEALTH  SIDNEY MIRIAM AND THE CREW From miriam bender	false		
113-2676330-1773803	31453867348778	2020-10-20T01:36:36+00:00	2020-10-19T18:36:36-07:00	2020-10-20T02:06:16+00:00	2020-10-22T06:59:59+00:00	-2	q3j51j1ytk0sx00@marketplace.amazon.com	terry Hudson	+1 929-436-4790 ext. 06574	ABR0033	Delivery by Thursday | Arabella Farm Direct Bouquet of 12 Fresh Cut Orange Roses with a Free Glass Vase	1	0	1	Expedited	Cathy Hudson	1040 SAVANNAH HWY			CHARLESTON	SC	29407-7804	US			false		
113-5796071-3918601	38311237067874	2020-10-20T01:54:38+00:00	2020-10-19T18:54:38-07:00	2020-10-20T02:18:40+00:00	2020-10-22T06:59:59+00:00	-2	g4qv8k51bn2w2pj@marketplace.amazon.com	Mada Gray	+1 213-442-1463 ext. 90670	ABR0055	Delivery by Wednesday | Arabella Farm Direct Bouquet of 12 Stems of Fresh Cut Hot Pink Roses in a Free Designer Glass Vase	1	0	1	Standard	Mrs. Margaret Veihmeyer	10847 SYMPHONY PARK DR			ROCKVILLE	MD	20852-3486	US		Happy 100th birthday, Mrs. Veihmeyer!  With love, Mada Gray  (Mary Pat´s co-worker) From Mada Gray	false		
111-5100944-4549067	00813924062242	2020-10-20T01:55:42+00:00	2020-10-19T18:55:42-07:00	2020-10-20T02:25:10+00:00	2020-10-21T06:59:59+00:00	-1	qmrn1v8bvhkl8qz@marketplace.amazon.com	Traci Knoblauch Nordberg	+1 415-851-9136 ext. 04259	ABM010	Delivery by Wednesday | The Spring Fling Bouquet by Arabella Bouquets with a Free Designer Glass Vase	1	0	1	SecondDay	Teri Martin	3722 SE 8TH AVE			CAPE CORAL	FL	33904-5209	US		Happy 70th Birthday! Love, Traci, Peter, Ella, Kate, Louisa From Nordberg	false		
113-4080133-5309048	54815475145498	2020-10-20T02:28:33+00:00	2020-10-19T19:28:33-07:00	2020-10-20T02:43:48+00:00	2020-10-22T06:59:59+00:00	-2	6rvvwh3ljnsxt11@marketplace.amazon.com	james zhou	+1 602-671-6610 ext. 20326	ABR0022	Delivery by Wednesday | Arabella Farm Direct Bouquet of 12 Fresh Cut Pink Roses with a Free Glass Vase	1	0	1	Expedited	Jennifer and John Boice	210 MOUNTAIN REST RD			NEW PALTZ	NY	12561-2824	US		Dear John, I am looking forward to Jennifer's speedy and fully recovery! Joey From Joey Zhou	false		
114-0293221-6990669	02199592026370	2020-10-20T02:57:05+00:00	2020-10-19T19:57:05-07:00	2020-10-20T02:59:54+00:00	2020-10-21T06:59:59+00:00	-1	b04x4r0hpg92qrw@marketplace.amazon.com	amit dhoot	+1 213-442-1463 ext. 39549	ABR0055	Delivery by Wednesday | Arabella Farm Direct Bouquet of 12 Stems of Fresh Cut Hot Pink Roses in a Free Designer Glass Vase	1	0	1	SecondDay	Abbie	97 WALNUT ST APT 3			NEW ROCHELLE	NY	10801-6224	US		Darling Abbie. Happy  Happy Birthday. Many joy Returns of the day.May your day is filled with loads of love and blessings.. "The more you praise and celebrate your life, the more there is in life to celebrate" From amit  dhoot	false		
111-9368318-5955403	49101702819650	2020-10-20T02:44:51+00:00	2020-10-19T19:44:51-07:00	2020-10-20T03:09:29+00:00	2020-10-21T06:59:59+00:00	-1	d1vc5ltjtchr5fb@marketplace.amazon.com	leila.07091993@gmail.com	+1 619-854-2705 ext. 36413	ABB001	Arabella Farm Direct Fresh Cut White Hydrangea	1	0	1	SecondDay	Leila Mendez	7649 GREENWICH RD			NOKESVILLE	VA	20181-5860	US			false		
112-1658765-4677841	49844279520650	2020-10-20T02:46:06+00:00	2020-10-19T19:46:06-07:00	2020-10-20T03:14:18+00:00	2020-10-22T06:59:59+00:00	-2	yfm2q4pphh5swx9@marketplace.amazon.com	Amberly Sohm	+1 929-436-4790 ext. 67482	ABR0022	Delivery by Wednesday | Arabella Farm Direct Bouquet of 12 Fresh Cut Pink Roses with a Free Glass Vase	1	0	1	Expedited	Susan Sohm	492 PAR THREE CIR			SAINT GEORGE	UT	84770-6109	US			false		
114-1119103-7942642	55783050753586	2020-10-20T02:50:56+00:00	2020-10-19T19:50:56-07:00	2020-10-20T03:18:29+00:00	2020-10-22T06:59:59+00:00	-2	1zf5c51r082t6s0@marketplace.amazon.com	Dee Goraj	+1 415-851-9136 ext. 01096	ABM010	Delivery by Wednesday | The Spring Fling Bouquet by Arabella Bouquets with a Free Designer Glass Vase	1	0	1	Expedited	Bernice Bobby Boo Boo Bender	413 OLD STAGE RD APT E			GLEN BURNIE	MD	21061-4567	US		Happy Halloween, Bernice!  So proud of you and all you are accomplishing!  Regina loves you From Regina Goraj	false		
114-4490139-7117817	46031923569858	2020-10-20T02:59:29+00:00	2020-10-19T19:59:29-07:00	2020-10-20T03:24:47+00:00	2020-10-21T06:59:59+00:00	-1	h0jh0w71bfy9g26@marketplace.amazon.com	Kenneth R Krasowski Jr	+1 415-851-9136 ext. 41727	ABR0055	Delivery by Wednesday | Arabella Farm Direct Bouquet of 12 Stems of Fresh Cut Hot Pink Roses in a Free Designer Glass Vase	1	0	1	SecondDay	Shirley Coleman; Rhonda Childers	803 LANCER CIR			OCOEE	FL	34761-4314	US		Happy Birthday! Enjoy these wonderful flowers on this great day! From Lukas, Alex, Chance, Nikky & Kenny	false		
113-5267305-4822641	46210878670546	2020-10-20T03:20:13+00:00	2020-10-19T20:20:13-07:00	2020-10-20T03:47:11+00:00	2020-10-21T06:59:59+00:00	-1	9mwqvsfhs47d71r@marketplace.amazon.com	hancy gomez	+1 619-854-2705 ext. 87770	ABR001	Delivery by Wednesday | Arabella Bouquets 12 Stems of Fresh Cut Red Roses in a Free Designer Glass Vase	1	0	1	SecondDay	HANCY GOMEZ	3916 AVILA ST			LAS VEGAS	NEVADA	89103-2007	US		Feliz aniversario mi vida.  ¡Disfruta de tu regalo! De hancy gomez	false		
112-8429380-7452206	26986713869298	2020-10-20T03:32:18+00:00	2020-10-19T20:32:18-07:00	2020-10-20T03:55:21+00:00	2020-10-22T06:59:59+00:00	-2	gp0b8h3gs8zz872@marketplace.amazon.com	julie conway	+1 929-436-4790 ext. 12773	ABM010	Delivery by Wednesday | The Spring Fling Bouquet by Arabella Bouquets with a Free Designer Glass Vase	1	0	1	Expedited	Denise Sofka	5710 BALSAM GROVE CT			NORTH BETHESDA	MD	20852-5551	US			false		
113-3534354-5453820	06839709396882	2020-10-20T03:31:32+00:00	2020-10-19T20:31:32-07:00	2020-10-20T03:57:30+00:00	2020-10-22T06:59:59+00:00	-2	9d8mvrk9wx84f92@marketplace.amazon.com	Asia	+1 929-436-4790 ext. 23526	ABR0066	Delivery by Thursday | Arabella Bouquets 12 Stems of Fresh Cut White Roses in a Free Designer Glass Vase	1	0	1	Expedited	Mae Alice Durant	6301 WINDSOR GATE LN			CHARLOTTE	NC	28215-4225	US			false		
114-9873423-5253800	61602103654850	2020-10-20T04:16:14+00:00	2020-10-19T21:16:14-07:00	2020-10-20T04:42:53+00:00	2020-10-22T06:59:59+00:00	-2	f9nsfrt37zp1cgy@marketplace.amazon.com	Aaron Thomas Brungardt	+1 415-851-9136 ext. 34127	ABM010	Delivery by Wednesday | The Spring Fling Bouquet by Arabella Bouquets with a Free Designer Glass Vase	1	0	1	Expedited	Chrissy and Liz	2105 GROVE ST			NATIONAL CITY	CA	91950-6124	US		Chrissy and Mom,  Thank you so much for hosting our Baby Shower! We loved it and know how much time and effort you both put into making it such a lovely day for us. We loved the theme and all the fun special touches. From Aaron and Leah	false		
111-0005371-9341812	34432729735066	2020-10-20T04:20:42+00:00	2020-10-19T21:20:42-07:00	2020-10-20T04:44:28+00:00	2020-10-22T06:59:59+00:00	-2	dzk75y7hvbyy0w6@marketplace.amazon.com	Ricardo Black	+1 602-671-6610 ext. 72135	ABR0022	Delivery by Wednesday | Arabella Farm Direct Bouquet of 12 Fresh Cut Pink Roses with a Free Glass Vase	1	0	1	Expedited	Violine Roberty	1238 E 45TH ST			BROOKLYN	NY	11234-1430	US		Happy belated birthday, Violine!  You work hard and give selflessly to everyone. It’s time to take a few precious moments for yourself. Enjoy your gift! From Ricardo Black	true		Business Price
111-1602087-0617045	67134504415578	2020-10-20T04:17:57+00:00	2020-10-19T21:17:57-07:00	2020-10-20T04:48:15+00:00	2020-10-22T06:59:59+00:00	-2	30bxx5ytvkwg5pc@marketplace.amazon.com	Rebecca S. Wack	+1 480-618-5344 ext. 29602	ABR0022	Delivery by Wednesday | Arabella Farm Direct Bouquet of 12 Fresh Cut Pink Roses with a Free Glass Vase	1	0	1	Expedited	Rebecca S. Wack	4161 Cobbler Rd			New Albany	OH	43054-7100	US			false		
112-0046807-0242677	09214932904794	2020-10-20T04:39:57+00:00	2020-10-19T21:39:57-07:00	2020-10-20T05:05:51+00:00	2020-10-22T06:59:59+00:00	-2	rdgmqx1m27zt61c@marketplace.amazon.com	Jackal Ma	+1 602-671-6610 ext. 50764	ABM0044	Delivery by Thursday | Arabella Farm Direct Bouquet of Fresh Cut Blue Hydrangea with a Free Glass Vase	1	0	1	Expedited	Jackal Ma	7622 JACQUELIN ST			DUBLIN	CA	94568-4235	US		Good tranquil years，together we completed each others From Jackal Ma	false		
114-9555872-2733803	21948237824658	2020-10-20T04:50:36+00:00	2020-10-19T21:50:36-07:00	2020-10-20T05:20:21+00:00	2020-10-21T06:59:59+00:00	-1	hsjssp8fq4ts8nq@marketplace.amazon.com	Sunyoung park	+1 480-618-5344 ext. 29315	ABM022	Delivery by Wednesday | Purple Extravagance Bouquet by Arabella Bouquets	1	0	1	SecondDay	Soyoun min	62 BARNES RD			TUSTIN	CA	92782-3750	US			false		
112-1789473-3601854	40706826519570	2020-10-20T05:33:55+00:00	2020-10-19T22:33:55-07:00	2020-10-20T05:57:53+00:00	2020-10-22T06:59:59+00:00	-2	5bpch5322qtp67z@marketplace.amazon.com	Jonathan	+1 619-854-2705 ext. 91184	ABR0055	Delivery by Wednesday | Arabella Farm Direct Bouquet of 12 Stems of Fresh Cut Hot Pink Roses in a Free Designer Glass Vase	1	0	1	Expedited	Dailene	1452 TOURS CT			BEAUMONT	CA	92223-3151	US			false		
111-3559140-8771452	63638385579530	2020-10-20T05:36:25+00:00	2020-10-19T22:36:25-07:00	2020-10-20T06:04:15+00:00	2020-10-22T06:59:59+00:00	-2	xp5h3fxqhgdsksb@marketplace.amazon.com	Martha Silveira	+1 480-618-5344 ext. 05118	ABM0044	Delivery by Thursday | Arabella Farm Direct Bouquet of Fresh Cut Blue Hydrangea with a Free Glass Vase	1	0	1	Expedited	Manuel Silveira	KPPACC 1440 168TH AVE			SAN LEANDRO	CA	94578-2409	US			false		
111-5770247-6299404	42908394475914	2020-10-20T05:38:33+00:00	2020-10-19T22:38:33-07:00	2020-10-20T06:08:46+00:00	2020-10-22T06:59:59+00:00	-2	dlshcy64vzv65d1@marketplace.amazon.com	Michael J Walsh	+1 619-854-2705 ext. 99991	ABR0022	Delivery by Wednesday | Arabella Farm Direct Bouquet of 12 Fresh Cut Pink Roses with a Free Glass Vase	1	0	1	Expedited	Mary Theresa Walsh	410 E 20TH ST APT 7D			NEW YORK	NY	10009-8114	US			false		
111-3461576-3956204	36230730457682	2020-10-20T06:26:52+00:00	2020-10-19T23:26:52-07:00	2020-10-20T06:57:10+00:00	2020-10-22T06:59:59+00:00	-2	bcn7w7mvcy39ymz@marketplace.amazon.com	Ryan pillarelli	+1 213-442-1463 ext. 82646	ABM022	Delivery by Wednesday | Purple Extravagance Bouquet by Arabella Bouquets	1	0	1	Expedited	Chelsea willis	5720 E DUNBAR RD			MONROE	MI	48161-9130	US			false		
114-7052904-1337038	19909571630346	2020-10-20T06:47:43+00:00	2020-10-19T23:47:43-07:00	2020-10-20T07:15:23+00:00	2020-10-21T06:59:59+00:00	-1	vstn8ckp2lxvjpy@marketplace.amazon.com	jesse	+1 602-671-6610 ext. 49375	ABM002	Delivery by Thursday | Arabella Bouquets Fresh Cut White Calla Lilies in a Free Designer Glass Vase	1	0	1	SecondDay	carmenmartin	2701 SAN MARCOS CT			ROCKLIN	CA	95765-5153	US		Happy Birthday !!!!! Love you my friend. From jesse	false		
114-3264320-7730645	27872881608130	2020-10-20T11:15:27+00:00	2020-10-20T04:15:27-07:00	2020-10-20T11:29:08+00:00	2020-10-21T06:59:59+00:00	-1	90pggm2g2pr8qfk@marketplace.amazon.com	Joe	+1 619-854-2705 ext. 59797	ABR0055	Delivery by Wednesday | Arabella Farm Direct Bouquet of 12 Stems of Fresh Cut Hot Pink Roses in a Free Designer Glass Vase	1	0	1	SecondDay	Lauren Signore	1 WOODBINE ST			BRISTOL	CT	06010-6222	US		Hope these give you something to smile at when you are home. P.S this was Chance's idea in case you were wondering 😁 From Joe & Chance	false		
114-2904508-1421853	24619490505314	2020-10-20T11:12:23+00:00	2020-10-20T04:12:23-07:00	2020-10-20T11:40:52+00:00	2020-10-21T06:59:59+00:00	-1	ppk71sz10yppngq@marketplace.amazon.com	Efiom Bassey	+1 213-442-1463 ext. 24850	ABR0022	Delivery by Wednesday | Arabella Farm Direct Bouquet of 12 Fresh Cut Pink Roses with a Free Glass Vase	1	0	1	SecondDay	Nina Bassey	1600 SPRINGWOODS PLAZA DR APT 422			SPRING	TX	77389-1823	US			false		
111-0073553-2231434	15985355110410	2020-10-20T11:46:10+00:00	2020-10-20T04:46:10-07:00	2020-10-20T12:16:50+00:00	2020-10-23T06:59:59+00:00	-3	tgtthkymv94qfy0@marketplace.amazon.com	Nicole Horn	+1 602-671-6610 ext. 06213	ABM022	Delivery by Wednesday | Purple Extravagance Bouquet by Arabella Bouquets	1	0	1	Expedited	Nicole Horn	23080 E 1200 RD			CORDELL	OK	73632-1001	US			false		
114-7725440-2429821	26619366012602	2020-10-20T12:29:53+00:00	2020-10-20T05:29:53-07:00	2020-10-20T12:55:46+00:00	2020-10-21T06:59:59+00:00	-1	7h6qsl1dqdb9cnf@marketplace.amazon.com	Gloria Rodriguez	+1 213-442-1463 ext. 47449	ABM022	Delivery by Wednesday | Purple Extravagance Bouquet by Arabella Bouquets	1	0	1	SecondDay	Rose Hawkins	2130 HOPKINS ST			ORANGE PARK	FL	32073-5220	US		happy birthday Nana From love Haji	false		
114-7725440-2429821	65493887366226	2020-10-20T12:29:53+00:00	2020-10-20T05:29:53-07:00	2020-10-20T12:55:46+00:00	2020-10-21T06:59:59+00:00	-1	7h6qsl1dqdb9cnf@marketplace.amazon.com	Gloria Rodriguez	+1 213-442-1463 ext. 47449	ABR0022	Delivery by Wednesday | Arabella Farm Direct Bouquet of 12 Fresh Cut Pink Roses with a Free Glass Vase	1	0	1	SecondDay	Rose Hawkins	2130 HOPKINS ST			ORANGE PARK	FL	32073-5220	US		Happy Birthday Mom From love you Gloria	false		
114-8073617-3019439	34527831687058	2020-10-20T12:25:57+00:00	2020-10-20T05:25:57-07:00	2020-10-20T12:55:56+00:00	2020-10-21T06:59:59+00:00	-1	zn22st6hylnkzgl@marketplace.amazon.com	Paul Davis	+1 213-442-1463 ext. 10271	ABM002	Delivery by Thursday | Arabella Bouquets Fresh Cut White Calla Lilies in a Free Designer Glass Vase	1	0	1	SecondDay	Paul B. Davis	338 Woodspring Ct.			Oldsmar	FL	34677	US			false		
113-2698318-5657824	32986982905482	2020-10-20T12:40:40+00:00	2020-10-20T05:40:40-07:00	2020-10-20T13:10:25+00:00	2020-10-21T06:59:59+00:00	-1	6jb0b2mjkdwh3dn@marketplace.amazon.com	debbie gross	+1 415-851-9136 ext. 01486	ABR0022	Delivery by Wednesday | Arabella Farm Direct Bouquet of 12 Fresh Cut Pink Roses with a Free Glass Vase	1	0	1	SecondDay	Jeanette Meyer	20032 County Hightway 33			Fergus Falls	MN	56537	US		Happy birthday Sis! From debbie	false		
112-9028356-9105006	61816932138426	2020-10-20T12:47:12+00:00	2020-10-20T05:47:12-07:00	2020-10-20T13:14:50+00:00	2020-10-23T06:59:59+00:00	-3	yn4ds3f8vlbv7bl@marketplace.amazon.com	elmer j smith	+1 929-436-4790 ext. 54228	ABR001	Delivery by Wednesday | Arabella Bouquets 12 Stems of Fresh Cut Red Roses in a Free Designer Glass Vase	1	0	1	Expedited	constance e. lower	10343 LIGHTNER BRIDGE DR			TAMPA	FL	33626-1810	US		On my daughter special day. Because you are my Daughter. From Your Father w/Much Love	false		
112-0845271-2684236	61978639374058	2020-10-20T12:48:19+00:00	2020-10-20T05:48:19-07:00	2020-10-20T13:17:48+00:00	2020-10-21T06:59:59+00:00	-1	5yb7mqpt668f17j@marketplace.amazon.com	Katie Hinkley	+1 213-442-1463 ext. 10663	ABM010	Delivery by Wednesday | The Spring Fling Bouquet by Arabella Bouquets with a Free Designer Glass Vase	1	0	1	SecondDay	Laura Cosby	9504 LYNDONWAY DR			RICHMOND	VA	23229-3915	US		Happy Birthday Laura!! Hope you have an amazing day! You deserve it! From Love, Katie, Brett & Reed	false		
114-0512257-6383431	35694025461346	2020-10-20T12:57:08+00:00	2020-10-20T05:57:08-07:00	2020-10-20T13:23:26+00:00	2020-10-23T06:59:59+00:00	-3	f4g6g7gj6nfgx9y@marketplace.amazon.com	CECILIA IRIZARRY	+1 619-854-2705 ext. 46011	ABM020	Delivery by Wednesday | The Sunset Bouquet by Arabella Bouquets	1	0	1	Expedited	Joan	JEFFERSON OB/GYN 12 MEDICAL DR	STE A		PORT JEFF STA	NY	11776-1588	US		Thank you so much for making me an insurance warrior! I couldn’t have done it with out you! From CECILIA IRIZARRY	false		
112-9388040-6287449	42363072081274	2020-10-20T12:58:52+00:00	2020-10-20T05:58:52-07:00	2020-10-20T13:29:22+00:00	2020-10-23T06:59:59+00:00	-3	yjk33f7w3x523h8@marketplace.amazon.com	kathy weldon	+1 619-854-2705 ext. 64169	ABR0033	Delivery by Thursday | Arabella Farm Direct Bouquet of 12 Fresh Cut Orange Roses with a Free Glass Vase	1	0	1	Expedited	Eileen Tattersall	6076 NEOLA RD			STROUDSBURG	PA	18360-6636	US			false		
114-7670177-5307458	05148791914994	2020-10-20T13:00:47+00:00	2020-10-20T06:00:47-07:00	2020-10-20T13:30:41+00:00	2020-10-23T06:59:59+00:00	-3	cxgd43d0t3l0vb4@marketplace.amazon.com	Shamier delvison	+1 929-436-4790 ext. 94356	ABR001	Delivery by Wednesday | Arabella Bouquets 12 Stems of Fresh Cut Red Roses in a Free Designer Glass Vase	1	0	1	Expedited	Shamier delvison	1627 MURDOCH RD # 1			PHILADELPHIA	PA	19150-1011	US			false		
114-9003321-4684216	22229653416034	2020-10-20T13:15:57+00:00	2020-10-20T06:15:57-07:00	2020-10-20T13:44:25+00:00	2020-10-21T06:59:59+00:00	-1	z3087gmvql8jx9h@marketplace.amazon.com	Linda Christoforidis	+1 213-442-1463 ext. 41896	ABM0044	Delivery by Thursday | Arabella Farm Direct Bouquet of Fresh Cut Blue Hydrangea with a Free Glass Vase	1	0	1	SecondDay	Kristi Amendolare	538 LYNN FELLS PKWY A			MELROSE	MA	02176-2311	US		Enjoy your 44 th birthday From Mom	false		
114-6373738-5697801	08263045013706	2020-10-20T13:37:43+00:00	2020-10-20T06:37:43-07:00	2020-10-20T13:57:09+00:00	2020-10-23T06:59:59+00:00	-3	xc0br2n4tn76sds@marketplace.amazon.com	Lori	+1 929-436-4790 ext. 40179	ABM010	Delivery by Wednesday | The Spring Fling Bouquet by Arabella Bouquets with a Free Designer Glass Vase	1	0	1	Expedited	Shaughnessy Tran	34 MCCUSKER DR APT 11			BRAINTREE	MA	02184-4232	US		Best wishes on the new addition to your family! From Stantec	false		
113-7315655-6756261	34498275448418	2020-10-20T13:46:57+00:00	2020-10-20T06:46:57-07:00	2020-10-20T14:04:02+00:00	2020-10-21T06:59:59+00:00	-1	swdm4j6sr1t80md@marketplace.amazon.com	Bonnie Hoffmann	+1 480-618-5344 ext. 00426	ABR0022	Delivery by Wednesday | Arabella Farm Direct Bouquet of 12 Fresh Cut Pink Roses with a Free Glass Vase	1	0	1	SecondDay	Kamden Geair	11700 OLD GEORGETOWN RD UNIT 1408			ROCKVILLE	MD	20852-8614	US		Happy Birthday Kamden!  Hope you enjoy your gifts and have a wonderful day.  We lover you to the moon and back! Mom and Dad XOXOXOXOXO From Bonnie Hoffmann	false		
112-8393898-6055465	02873838843498	2020-10-20T14:06:38+00:00	2020-10-20T07:06:38-07:00	2020-10-20T14:35:04+00:00	2020-10-21T06:59:59+00:00	-1	5wxm2p07p85z5q5@marketplace.amazon.com	Sarah Kim	+1 602-671-6610 ext. 80631	ABM0044	Delivery by Thursday | Arabella Farm Direct Bouquet of Fresh Cut Blue Hydrangea with a Free Glass Vase	1	0	1	SecondDay	Saerom Kim	214 STRUMMER LN			GAITHERSBURG	MD	20878-4523	US		From Sarah Kim	false		
112-6871003-0841836	52750647331978	2020-10-20T14:14:22+00:00	2020-10-20T07:14:22-07:00	2020-10-20T14:42:57+00:00	2020-10-21T06:59:59+00:00	-1	xc279f1lrm19ngh@marketplace.amazon.com	Richard Williams	+1 480-618-5344 ext. 08462	ABM020	Delivery by Wednesday | The Sunset Bouquet by Arabella Bouquets	1	0	1	SecondDay	Linda Plott Moore	1539 HALSTEAD AVE			NORFOLK	VA	23502-1708	US		Happy Birthday from Sheila and her  children and grands and great       grands!  Much love! From All of us!	false		
113-3850750-4733024	69801655652226	2020-10-20T14:56:28+00:00	2020-10-20T07:56:28-07:00	2020-10-20T15:26:21+00:00	2020-10-23T06:59:59+00:00	-3	4134mbhlrh81cky@marketplace.amazon.com	Jing	+1 619-854-2705 ext. 01244	ABM020	Delivery by Wednesday | The Sunset Bouquet by Arabella Bouquets	1	0	1	Expedited	Jing Wen	846 BUSH ST APT 9			SAN FRANCISCO	CA	94108-3370	US			false		
113-3850750-4733024	33905219276090	2020-10-20T14:56:28+00:00	2020-10-20T07:56:28-07:00	2020-10-20T15:26:21+00:00	2020-10-23T06:59:59+00:00	-3	4134mbhlrh81cky@marketplace.amazon.com	Jing	+1 619-854-2705 ext. 01244	ABR0033	Delivery by Thursday | Arabella Farm Direct Bouquet of 12 Fresh Cut Orange Roses with a Free Glass Vase	1	0	1	Expedited	Jing Wen	846 BUSH ST APT 9			SAN FRANCISCO	CA	94108-3370	US			false		
114-0205839-5365830	63182781218986	2020-10-20T15:01:42+00:00	2020-10-20T08:01:42-07:00	2020-10-20T15:28:35+00:00	2020-10-21T06:59:59+00:00	-1	36d546rpcd37c3p@marketplace.amazon.com	savita chatoorang	+1 619-854-2705 ext. 66341	ABM022	Delivery by Wednesday | Purple Extravagance Bouquet by Arabella Bouquets	1	0	1	SecondDay	Rita Badhwa	2050 ORMOND DR			SHAKOPEE	MN	55379-4476	US			false		
111-5107575-3085008	46514861629266	2020-10-20T15:13:08+00:00	2020-10-20T08:13:08-07:00	2020-10-20T15:35:03+00:00	2020-10-23T06:59:59+00:00	-3	krhtnxqhp8pgk38@marketplace.amazon.com	Chia Lee	+1 213-442-1463 ext. 53282	ABM022	Delivery by Wednesday | Purple Extravagance Bouquet by Arabella Bouquets	1	0	1	Expedited	Kristine Smith	25243 W DEEP CANYON DR			STAR	ID	83669-5904	US			false		
112-9651226-5178665	14909339244538	2020-10-20T15:11:49+00:00	2020-10-20T08:11:49-07:00	2020-10-20T15:37:42+00:00	2020-10-21T06:59:59+00:00	-1	8yghzgb2br1zxy8@marketplace.amazon.com	Carolyn Norton	+1 602-671-6610 ext. 57432	ABB003	Arabella Farm Direct Fresh Cut Blue Hydrangea	1	0	1	SecondDay	Liz Eva	4634 MIRA LOMA ST			CASTRO VALLEY	CA	94546-2314	US		For you Liz. A beautiful gift for a beautiful person. With my heart full of love and gratitude for all you’ve done. I have never seen so much love in action. ♥️♥️♥️ From Love and hugs, Car	false		
114-2416605-5697845	68532389804186	2020-10-20T15:13:13+00:00	2020-10-20T08:13:13-07:00	2020-10-20T15:38:30+00:00	2020-10-21T06:59:59+00:00	-1	h18hrq1ybf7zq7k@marketplace.amazon.com	kelly leppert	+1 602-671-6610 ext. 11410	ABR0055	Delivery by Wednesday | Arabella Farm Direct Bouquet of 12 Stems of Fresh Cut Hot Pink Roses in a Free Designer Glass Vase	1	0	1	SecondDay	Connie Bowman	8 S FOLGER ST			CARROLLTON	MO	64633-1253	US		Wishing you a wonderful Happy Birthday Mom!  Love you bunches. From Shawn, Kelly, Ruger & Roman	false		
111-1977214-6053046	53525790739082	2020-10-20T15:09:38+00:00	2020-10-20T08:09:38-07:00	2020-10-20T15:39:56+00:00	2020-10-21T06:59:59+00:00	-1	2r4445rqd0n5p8r@marketplace.amazon.com	donald williams	+1 619-854-2705 ext. 67614	ABR0022	Delivery by Wednesday | Arabella Farm Direct Bouquet of 12 Fresh Cut Pink Roses with a Free Glass Vase	1	0	1	SecondDay	Donald Williams	4941 WESTMORELAND DR			WILLIAMSBURG	VA	23188-1989	US			false		
112-0833526-6737827	68994191604458	2020-10-20T15:16:47+00:00	2020-10-20T08:16:47-07:00	2020-10-20T15:43:20+00:00	2020-10-21T06:59:59+00:00	-1	8yghzgb2br1zxy8@marketplace.amazon.com	Carolyn Norton	+1 480-618-5344 ext. 36187	ABB003	Arabella Farm Direct Fresh Cut Blue Hydrangea	1	0	1	SecondDay	Cathy Silva	1832 3RD ST			KIRKLAND	WA	98033-4917	US		For you Cathy, a beautiful gift for a beautiful person. With my heart full of love and gratitude for all you’ve done. I have never seen so much love in action!! ♥️♥️♥️ From With love and hugs, Car	false		
112-7823158-7173811	61262542947610	2020-10-20T15:15:08+00:00	2020-10-20T08:15:08-07:00	2020-10-20T15:43:47+00:00	2020-10-21T06:59:59+00:00	-1	mq0mr1b645w0fh9@marketplace.amazon.com	stephen waldron	+1 619-854-2705 ext. 92167	ABM0033	Delivery by Thursday | Arabella Farm Direct Bouquet of Fresh Cut White Hydrangea with a Free Glass Vase	1	0	1	SecondDay	Rock Steady	907 Marietta Street NW			Atlanta	GA	30318	US		Welcome back Rock Steady!  Looking forward again to great food, great vibes and "More Stuff!" From Stephen and Julene	false		
113-9729442-4037013	27822981957850	2020-10-20T15:22:57+00:00	2020-10-20T08:22:57-07:00	2020-10-20T15:52:18+00:00	2020-10-21T06:59:59+00:00	-1	5nl8dqpgj9tg43f@marketplace.amazon.com	Jeff Crivellaro	+1 602-671-6610 ext. 59811	ABR013	Delivery by Thursday | Arabella Farm Direct Bouquet of 18 Fresh Cut Yellow Roses with a Free Glass Vase	1	0	1	SecondDay	Cherrie Wilkins	4500 MILL POND CT			FORT WORTH	TX	76133-6233	US		Happy Birthday Mom! From Love, The Crivs	false		
111-3373459-0339422	26232082186818	2020-10-20T15:37:40+00:00	2020-10-20T08:37:40-07:00	2020-10-20T16:06:49+00:00	2020-10-21T06:59:59+00:00	-1	dgtq0htg92c355m@marketplace.amazon.com	Judi Jones	+1 602-671-6610 ext. 72953	ABR001	Delivery by Wednesday | Arabella Bouquets 12 Stems of Fresh Cut Red Roses in a Free Designer Glass Vase	1	0	1	SecondDay	Mrs S Fariello	2 UNION ST			ROCKAWAY	NJ	07866-3024	US			false		
111-9924443-7739406	58070830897458	2020-10-20T15:42:50+00:00	2020-10-20T08:42:50-07:00	2020-10-20T16:09:02+00:00	2020-10-23T06:59:59+00:00	-3	61pdlbdzqkq3q9d@marketplace.amazon.com	Linda D. McDevitt	+1 213-442-1463 ext. 36873	ABM0033	Delivery by Thursday | Arabella Farm Direct Bouquet of Fresh Cut White Hydrangea with a Free Glass Vase	1	0	1	Expedited	Ann Mauch	1016 HOWARD GEORGE DR			MANCHESTER	MO	63021-5400	US		Sending a bright spot for your day 😘. Looking forward to my visit From Linda D. McDevitt	false		
