order-id	order-item-id	purchase-date	payments-date	reporting-date	promise-date	days-past-promise	buyer-email	buyer-name	buyer-phone-number	sku	product-name	quantity-purchased	quantity-shipped	quantity-to-ship	ship-service-level	recipient-name	ship-address-1	ship-address-2	ship-address-3	ship-city	ship-state	ship-postal-code	ship-country	gift-wrap-type	gift-message-text	is-business-order	purchase-order-number	price-designation
114-0441967-9216225	33989264434538	2020-10-20T17:50:27+00:00	2020-10-20T10:50:27-07:00	2020-10-20T18:18:15+00:00	2020-10-23T06:59:59+00:00	-3	5nvr2qbxsf3s3fn@marketplace.amazon.com	Altrise H Jones-Madewale	+1 213-442-1463 ext. 25448	ABR0033	Delivery by Friday | Arabella Farm Direct Bouquet of 12 Fresh Cut Orange Roses with a Free Glass Vase	1	0	1	Expedited	Dwight and Dorothy Peterson	428 CARRIAGE DR			BIRMINGHAM	AL	35214-1329	US		Enjoy your gift! Thanks Mom and Dad for all your love, prayers and support! We all love you both here in Huntsville ❣❣❣ From Altrise H Jones-Madewale	false		
114-7216173-5873018	56821214294170	2020-10-20T17:58:58+00:00	2020-10-20T10:58:58-07:00	2020-10-20T18:28:50+00:00	2020-10-23T06:59:59+00:00	-3	2pncyv0kh23vq09@marketplace.amazon.com	Lee Platt	+1 619-854-2705 ext. 55043	ABR012	Delivery by Friday | Arabella Farm Direct Bouquet of 18 Fresh Cut Pink Roses with a Free Glass Vase	1	0	1	Expedited	Lynn McCreary	1235 OVERHILL RD			ELM GROVE	WI	53122-1627	US		Happy Birthday! Love, Lee and Chris. From Lee Platt	false		
111-6086604-4636251	13071096606410	2020-10-20T18:28:00+00:00	2020-10-20T11:28:00-07:00	2020-10-20T18:33:02+00:00	2020-10-22T06:59:59+00:00	-2	042vp9v0ffnkkfc@marketplace.amazon.com	sweetlanka	+1 480-618-5344 ext. 90830	ABR0055	Arabella Farm Direct Bouquet of 12 Stems of Fresh Cut Hot Pink Roses in a Free Designer Glass Vase	1	0	1	NextDay	Katya Vinnichuk	2540 JAMES LN			SEDALIA	MO	65301-6959	US			false		
112-0249592-0700209	68059757530914	2020-10-20T18:35:34+00:00	2020-10-20T11:35:34-07:00	2020-10-20T18:39:14+00:00	2020-10-22T06:59:59+00:00	-2	thdj4vb9czkbjbs@marketplace.amazon.com	Moses vargas	+1 602-671-6610 ext. 64642	ABR001	Delivery by Thursday | Arabella Bouquets 12 Stems of Fresh Cut Red Roses in a Free Designer Glass Vase	1	0	1	NextDay	Gabriella Rubio	3400 LOUETTA RD APT 327 327			SPRING	TX	77388-4724	US		Love you,babygirl hope your day was just as beautiful as you From Moses Vargas	false		
111-7210417-9808203	07798428066514	2020-10-20T18:43:07+00:00	2020-10-20T11:43:07-07:00	2020-10-20T18:46:06+00:00	2020-10-22T06:59:59+00:00	-2	4vb2y6s79gzl0bn@marketplace.amazon.com	Lesley Lawson	+1 929-436-4790 ext. 63695	ABR0022	Delivery by Thursday | Arabella Farm Direct Bouquet of 12 Fresh Cut Pink Roses with a Free Glass Vase	1	0	1	NextDay	Freda Lewis	743 FOREST AVE			FRANKLIN	OH	45005-3621	US		Thinking of you today From Lesley	false		
112-7640312-1441053	15838973287762	2020-10-20T18:40:21+00:00	2020-10-20T11:40:21-07:00	2020-10-20T19:04:05+00:00	2020-10-22T06:59:59+00:00	-2	yjdfqpdwjxdx2f1@marketplace.amazon.com	joel mark greenberg	+1 213-442-1463 ext. 56587	ABR004	Delivery by Friday | Arabella Farm Direct Bouquet of 12 Fresh Cut Yellow Roses with a Free Glass Vase	1	0	1	SecondDay	Stacey and Adam Greenberg	650 NEWBRIDGE RD APT 43			EAST MEADOW	NY	11554-5238	US		Dear Stacey and Adam,   Have a happy anniversary weekend! From Mom and Dad/Leslie and Joel	false		
113-8820655-3788254	29849589068810	2020-10-20T19:11:09+00:00	2020-10-20T12:11:09-07:00	2020-10-20T19:15:04+00:00	2020-10-22T06:59:59+00:00	-2	0v0g2j9rzbszpzd@marketplace.amazon.com	Jan C. Pettit	+1 415-851-9136 ext. 67293	ABR0022	Delivery by Thursday | Arabella Farm Direct Bouquet of 12 Fresh Cut Pink Roses with a Free Glass Vase	1	0	1	NextDay	Rebecca Drake	5125 2ND AVE			LOS ANGELES	CA	90043-1948	US		For a beautiful, strong daughter who I love!!! From Love, Mama	false		
111-0904534-0548262	06124157053202	2020-10-20T18:46:35+00:00	2020-10-20T11:46:35-07:00	2020-10-20T19:16:11+00:00	2020-10-23T06:59:59+00:00	-3	4vb2y6s79gzl0bn@marketplace.amazon.com	Lesley Lawson	+1 602-671-6610 ext. 96450	ABR0022	Delivery by Thursday | Arabella Farm Direct Bouquet of 12 Fresh Cut Pink Roses with a Free Glass Vase	1	0	1	Standard	Freda Lewis	743 FOREST AVE			FRANKLIN	OH	45005-3621	US			false		
112-8184319-9134612	24326687068698	2020-10-20T19:16:59+00:00	2020-10-20T12:16:59-07:00	2020-10-20T19:40:48+00:00	2020-10-22T06:59:59+00:00	-2	cnvrk4srj6tqls0@marketplace.amazon.com	maura e forsyth	+1 929-436-4790 ext. 31905	ABR0066	Arabella Bouquets 12 Stems of Fresh Cut White Roses in a Free Designer Glass Vase	1	0	1	SecondDay	Caroline Beek	1029 MADISON ST			SYRACUSE	NY	13210-2267	US			false		
111-2168830-5596239	08722264886898	2020-10-20T19:43:05+00:00	2020-10-20T12:43:05-07:00	2020-10-20T19:46:38+00:00	2020-10-22T06:59:59+00:00	-2	l8chnnp6q8zwfyj@marketplace.amazon.com	NOE SEPULVEDA	+1 480-618-5344 ext. 94826	ABR0022	Delivery by Thursday | Arabella Farm Direct Bouquet of 12 Fresh Cut Pink Roses with a Free Glass Vase	1	0	1	NextDay	Cecilia Sepulveda	21135 GRANDIN WOOD CT			HUMBLE	TX	77338-4785	US		Enjoy your gift! Happy Birthday! God bless you! We love you! From NOE SEPULVEDA	false		
111-3157888-6001845	70058980758618	2020-10-20T19:27:37+00:00	2020-10-20T12:27:37-07:00	2020-10-20T19:56:27+00:00	2020-10-23T06:59:59+00:00	-3	78l3nfv46f8lzhb@marketplace.amazon.com	kyrabrown	+1 480-618-5344 ext. 81021	ABR0033	Delivery by Friday | Arabella Farm Direct Bouquet of 12 Fresh Cut Orange Roses with a Free Glass Vase	1	0	1	Expedited	Connie Chapman	4644 WOOD DUCK RD			PINCKNEYVILLE	IL	62274-3112	US		I LOVE YOU, MAMA! You deserve all the flowers in the world but these will have to do for now :) From Kyra	false		
111-7953038-4102652	61215108315130	2020-10-20T19:33:41+00:00	2020-10-20T12:33:41-07:00	2020-10-20T20:01:11+00:00	2020-10-23T06:59:59+00:00	-3	16s342xq9t4hwgp@marketplace.amazon.com	craig scott	+1 929-436-4790 ext. 47058	ABR012	Delivery by Friday | Arabella Farm Direct Bouquet of 18 Fresh Cut Pink Roses with a Free Glass Vase	1	0	1	Expedited	Missy Chapman Tucker	15819 TOWNSHIP GLEN LN			CYPRESS	TX	77433-5581	US		Dear Mark & Missy: Your special day is coming soon.  Best wishes for your 35th wedding anniversary. Love,  Craig & Melanie From Craig & Melanie Scott	false		
112-5424523-5521007	65459967338066	2020-10-20T19:45:38+00:00	2020-10-20T12:45:38-07:00	2020-10-20T20:04:40+00:00	2020-10-22T06:59:59+00:00	-2	fzp9zvx2n5tvj49@marketplace.amazon.com	Arthur R. Dunlap	+1 213-442-1463 ext. 21955	ABR0033	Delivery by Friday | Arabella Farm Direct Bouquet of 12 Fresh Cut Orange Roses with a Free Glass Vase	1	0	1	SecondDay	Janet Nguyen	12296 NANTUCKET PL			SEAL BEACH	CA	90740-2772	US		Happy  Birthday  We will celebrate later From Love Art and Olivia	false		
114-2764978-6369057	08264049333002	2020-10-20T20:08:33+00:00	2020-10-20T13:08:33-07:00	2020-10-20T20:09:22+00:00	2020-10-22T06:59:59+00:00	-2	cy6rfb448vmg8jm@marketplace.amazon.com	Linda Thopy	+1 213-442-1463 ext. 03004	ABR0022	Delivery by Thursday | Arabella Farm Direct Bouquet of 12 Fresh Cut Pink Roses with a Free Glass Vase	1	0	1	NextDay	Tammy Thopy	8942 BUCKHAVEN DR			INDIANAPOLIS	IN	46256-1138	US			false		
112-8225651-2042615	44467563727514	2020-10-20T20:05:56+00:00	2020-10-20T13:05:56-07:00	2020-10-20T20:10:16+00:00	2020-10-22T06:59:59+00:00	-2	j3xc976ps0hrdp5@marketplace.amazon.com	Jimmyoking	+1 213-442-1463 ext. 44804	ABR001	Delivery by Thursday | Arabella Bouquets 12 Stems of Fresh Cut Red Roses in a Free Designer Glass Vase	1	0	1	NextDay	Jimmy King	1199 NORTON AVE			IDAHO FALLS	ID	83402-1731	US			false		
113-2466041-8035463	39566917050658	2020-10-20T20:17:20+00:00	2020-10-20T13:17:20-07:00	2020-10-20T20:18:15+00:00	2020-10-22T06:59:59+00:00	-2	w13k83800nvxksf@marketplace.amazon.com	Edward D. Strassman	+1 619-854-2705 ext. 59359	ABR0055	Arabella Farm Direct Bouquet of 12 Stems of Fresh Cut Hot Pink Roses in a Free Designer Glass Vase	1	0	1	NextDay	Alex Gorun	4337 LOOKOUT DR			LOVELAND	CO	80537-3400	US		Dear Alex, Amy and Christine, We are so sorry for your loss and thinking of you at this difficult time. Elise will live forever in our hearts. Love forever, Deirdre & Don From Edward D. Strassman	false		
111-8312375-8685820	60882527847674	2020-10-20T19:52:40+00:00	2020-10-20T12:52:40-07:00	2020-10-20T20:20:28+00:00	2020-10-22T06:59:59+00:00	-2	987jdkqh268cbym@marketplace.amazon.com	Priscilla	+1 929-436-4790 ext. 83990	ABM002	Delivery by Friday | Arabella Bouquets Fresh Cut White Calla Lilies in a Free Designer Glass Vase	1	0	1	SecondDay	Sophia Ie	604 14TH AVE SW			ROCHESTER	MN	55902-2075	US		Happy housewarming! From P	false		
113-5626077-4792260	10571195632698	2020-10-20T19:53:37+00:00	2020-10-20T12:53:37-07:00	2020-10-20T20:21:53+00:00	2020-10-23T06:59:59+00:00	-3	2v9ldbpl7j4rh36@marketplace.amazon.com	Leslie K. Crouthamel	+1 480-618-5344 ext. 34285	ABM022	Delivery by Thursday | Purple Extravagance Bouquet by Arabella Bouquets	1	0	1	Expedited	Cheryl Guth	22257 SW FISK TER			SHERWOOD	OR	97140-8049	US		Glad your surgery went well. Hope you are feeling much better already! -Leslie and Roger From Leslie	false		
111-4553995-0513053	64646729120522	2020-10-20T20:24:50+00:00	2020-10-20T13:24:50-07:00	2020-10-20T20:27:18+00:00	2020-10-22T06:59:59+00:00	-2	2jq8p5zhdkzzl83@marketplace.amazon.com	Brianna Hogan	+1 213-442-1463 ext. 96751	ABR0022	Delivery by Thursday | Arabella Farm Direct Bouquet of 12 Fresh Cut Pink Roses with a Free Glass Vase	1	0	1	NextDay	Laura Bachman	3829 WAKE CIR			NORFOLK	VA	23513-3429	US		We are wishing you a safe procedure and speedy recovery!!!!! LOVE YOU!!!! From Bri & Rock	false		
114-9442400-5200269	53430013811058	2020-10-20T20:22:45+00:00	2020-10-20T13:22:45-07:00	2020-10-20T20:51:37+00:00	2020-10-23T06:59:59+00:00	-3	7zlp4wg2tvcmnl4@marketplace.amazon.com	Patricia Moran	+1 213-442-1463 ext. 22561	ABM022	Delivery by Thursday | Purple Extravagance Bouquet by Arabella Bouquets	1	0	1	Expedited	Tom Moran	487 HERITAGE DR			GETTYSBURG	PA	17325-8942	US			false		
112-9990807-1829043	51574245269154	2020-10-20T20:29:45+00:00	2020-10-20T13:29:45-07:00	2020-10-20T20:57:37+00:00	2020-10-22T06:59:59+00:00	-2	xlf3pklscb03633@marketplace.amazon.com	Rodica	+1 213-442-1463 ext. 52877	ABM022	Delivery by Thursday | Purple Extravagance Bouquet by Arabella Bouquets	1	0	1	SecondDay	Ilinca Sacultanu	53 HARRISON ST			LITTLE FALLS	NJ	07424-1656	US		Felicitari scumpa noatra nanasica! From Familia Burdujel	false		
114-4451596-4345839	45813732865658	2020-10-20T20:57:54+00:00	2020-10-20T13:57:54-07:00	2020-10-20T21:01:33+00:00	2020-10-22T06:59:59+00:00	-2	751q5m8bdlqsrb5@marketplace.amazon.com	Mary M Minkler	+1 480-618-5344 ext. 57428	ABR0022	Delivery by Thursday | Arabella Farm Direct Bouquet of 12 Fresh Cut Pink Roses with a Free Glass Vase	1	0	1	NextDay	Megan Johnson	325 HUGUELET DR RM 242	HAGGIN HALL		LEXINGTON	KY	40526-2004	US		Happy Birthday Pretty Girl!  With love from your family in VA/DC/MD From xo Aunt Mary (FOR ALL!!)	false		
113-4983412-2684200	03087345435794	2020-10-20T21:12:55+00:00	2020-10-20T14:12:55-07:00	2020-10-20T21:14:40+00:00	2020-10-22T06:59:59+00:00	-2	4zbdp23rz5sbdns@marketplace.amazon.com	Roy Mathews	+1 602-671-6610 ext. 20286	ABR0022	Delivery by Thursday | Arabella Farm Direct Bouquet of 12 Fresh Cut Pink Roses with a Free Glass Vase	1	0	1	NextDay	Habibah Camara	2770 NEWHALL ST APT 33			SANTA CLARA	CA	95050-5663	US		HAPPY BIRTHDAY TO ONE OF THE GREATEST GRANDDAUGHTERS IN THE WORLD!!!!!!!!!  We love and miss you, and we hope you have a beautiful birthday.  Love you Bibah!!!!! From GRANDMA & GRANDPA	false		
113-4653635-7067421	53998830330714	2020-10-20T20:58:14+00:00	2020-10-20T13:58:14-07:00	2020-10-20T21:25:56+00:00	2020-10-23T06:59:59+00:00	-3	wrkblbdgy57x51h@marketplace.amazon.com	David A Parandoosh	+1 480-618-5344 ext. 77968	ABR0066	Arabella Bouquets 12 Stems of Fresh Cut White Roses in a Free Designer Glass Vase	1	0	1	Expedited	Patti Taboada	1005 SUNSET DR			BRIELLE	NJ	08730-1141	US			false		
113-0395560-3977018	40224264515058	2020-10-20T21:15:20+00:00	2020-10-20T14:15:20-07:00	2020-10-20T21:30:02+00:00	2020-10-23T06:59:59+00:00	-3	k2r0n26sd5152tq@marketplace.amazon.com	Cantata Singers	+1 480-618-5344 ext. 46423	ABM020	Delivery by Thursday | The Sunset Bouquet by Arabella Bouquets	1	0	1	Expedited	Alison LaRosaPO02148	25 JAMES ST UNIT 11			MALDEN	MA	02148-7458	US		Thank you for all you have done for the GBCC! From The GBCC Board	true	02148	
111-1351736-1671466	33795915015546	2020-10-20T21:13:06+00:00	2020-10-20T14:13:06-07:00	2020-10-20T21:42:36+00:00	2020-10-22T06:59:59+00:00	-2	l06xxrqtfb35ccy@marketplace.amazon.com	Ren	+1 929-436-4790 ext. 66783	ABR011	Delivery by Friday | Arabella Bouquets 18 Stems of Fresh Cut Red Roses in a Free Glass Vase	1	0	1	SecondDay	Ren Zuo	4322 QUEENS ST APT 1414			LONG ISLAND CITY	NY	11101-7944	US			false		
112-6470029-0317852	11374760059338	2020-10-20T21:33:27+00:00	2020-10-20T14:33:27-07:00	2020-10-20T21:57:35+00:00	2020-10-22T06:59:59+00:00	-2	qykkcjmhs0s86jk@marketplace.amazon.com	Karen Lewis	+1 213-442-1463 ext. 38268	ABR001	Delivery by Thursday | Arabella Bouquets 12 Stems of Fresh Cut Red Roses in a Free Designer Glass Vase	1	0	1	NextDay	Maranda Williams Brassel	4637 PARKMOUNT DR			FORT WORTH	TX	76137-5483	US			false		
114-9333439-9590657	05653411971458	2020-10-20T21:48:40+00:00	2020-10-20T14:48:40-07:00	2020-10-20T22:02:16+00:00	2020-10-22T06:59:59+00:00	-2	6f4vshnw3phl87h@marketplace.amazon.com	Dr. Ian Alleyne	+1 213-442-1463 ext. 08064	ABR012	Delivery by Friday | Arabella Farm Direct Bouquet of 18 Fresh Cut Pink Roses with a Free Glass Vase	1	0	1	SecondDay	Erica Hayes	14 CANAVERAL CREEK LN			SUGAR LAND	TX	77479-2724	US			false		
111-5352330-5666656	00425133743050	2020-10-20T22:01:00+00:00	2020-10-20T15:01:00-07:00	2020-10-20T22:04:44+00:00	2020-10-22T06:59:59+00:00	-2	gcf5sdkfhjcg8vs@marketplace.amazon.com	Bobak Nayebdadash	+1 602-671-6610 ext. 01547	ABR0022	Delivery by Thursday | Arabella Farm Direct Bouquet of 12 Fresh Cut Pink Roses with a Free Glass Vase	1	0	1	NextDay	Bobak Nayebdadash	6780 LOS VERDES DR APT 4			RANCHO PALOS VERDES	CA	90275-7613	US		Happy Birthday Mama!!!! Muahs!!!! From Jasmin and Cyrus and NOT YOUUUUUUU, DADA!!!!	false		
112-8165178-2763423	58157388526234	2020-10-20T21:35:51+00:00	2020-10-20T14:35:51-07:00	2020-10-20T22:05:29+00:00	2020-10-22T06:59:59+00:00	-2	dk9zjd5l7rgry5k@marketplace.amazon.com	Susan E Bogie	+1 415-851-9136 ext. 38173	ABR015	Delivery by Friday | Arabella Farm Direct Bouquet of 18 Fresh Cut Orange Roses with a Free Glass Vase	1	0	1	SecondDay	Dr. Lauren Curtis	12618 LaBahia St.			San Antonio	TX	78233	US		Laurie -  Wishing you a very Happy BIG Birthday! Love - Bogue & Helen From Susan E Bogie	false		
113-2827288-7715408	54441077825858	2020-10-20T22:04:29+00:00	2020-10-20T15:04:29-07:00	2020-10-20T22:05:46+00:00	2020-10-22T06:59:59+00:00	-2	vlmnygl7vsz3tgp@marketplace.amazon.com	Dara Pazooki	+1 213-442-1463 ext. 70454	ABR0022	Delivery by Thursday | Arabella Farm Direct Bouquet of 12 Fresh Cut Pink Roses with a Free Glass Vase	1	0	1	NextDay	Kristen Gildea	26 COBBLESTONE RD			NORTH EASTON	MA	02356-1301	US		❤️ From Gino	false		
112-9540076-3547460	25081053698770	2020-10-20T22:46:25+00:00	2020-10-20T15:46:25-07:00	2020-10-20T22:47:20+00:00	2020-10-22T06:59:59+00:00	-2	p685q85h62d4kbx@marketplace.amazon.com	jeena kar	+1 602-671-6610 ext. 51688	ABR0022	Delivery by Thursday | Arabella Farm Direct Bouquet of 12 Fresh Cut Pink Roses with a Free Glass Vase	1	0	1	NextDay	Shalini Bhargava	HAPPY BIRTHDAY FROM KARS FL	63 BUCKINGHAM DR		BELLE MEAD	NJ	08502-4023	US			false		
113-6921205-3352261	58884813001954	2020-10-20T22:49:52+00:00	2020-10-20T15:49:52-07:00	2020-10-20T22:50:49+00:00	2020-10-22T06:59:59+00:00	-2	hsf60q0brys2270@marketplace.amazon.com	Thomas S. Held	+1 602-671-6610 ext. 63524	ABR0022	Delivery by Thursday | Arabella Farm Direct Bouquet of 12 Fresh Cut Pink Roses with a Free Glass Vase	1	0	1	NextDay	Amanda Held	1335 ASHBY AVE			BERKELEY	CA	94702-2403	US		Happy Birthday Amanda ! Enjoy :) Love you and miss you !!! From Mom and Dad XOXOXO	false		
111-2962442-8944253	34629841041650	2020-10-20T22:53:41+00:00	2020-10-20T15:53:41-07:00	2020-10-20T23:05:27+00:00	2020-10-23T06:59:59+00:00	-3	3c0klq92bdfgzzb@marketplace.amazon.com	Donna Wilkinson	+1 213-442-1463 ext. 39879	ABR0033	Delivery by Friday | Arabella Farm Direct Bouquet of 12 Fresh Cut Orange Roses with a Free Glass Vase	1	0	1	Expedited	Kieley Family	2901 PINE NEEDLE DR			ELLICOTT CITY	MD	21042-7602	US		Our deepest sympathies to you and your family. We are thinking about you and sending our love. From Donna, Bill, Keira and Claudia	false		
113-2302694-5952211	45043947863378	2020-10-20T23:06:02+00:00	2020-10-20T16:06:02-07:00	2020-10-20T23:06:52+00:00	2020-10-22T06:59:59+00:00	-2	576x4px9fbgr9pg@marketplace.amazon.com	Emilio	+1 929-436-4790 ext. 99626	ABR0022	Delivery by Thursday | Arabella Farm Direct Bouquet of 12 Fresh Cut Pink Roses with a Free Glass Vase	1	0	1	NextDay	Glenda Martinez	3560 E 4TH AVE			HIALEAH	FL	33013-3010	US		¿Qué cuánto te amo? Dime cuántas estrellas hay en el cielo, cuánta agua en el mar...cuánta arena en la playa...y yo te diré cuánto te amo. From Bobito Tuyo	false		
114-7890467-3238616	10658528548706	2020-10-20T22:49:30+00:00	2020-10-20T15:49:30-07:00	2020-10-20T23:15:48+00:00	2020-10-22T06:59:59+00:00	-2	0ms3fsv4rg3x6nw@marketplace.amazon.com	Liz Taylor	+1 929-436-4790 ext. 00602	ABM021	Delivery by Friday | The Joyous Bouquet by Arabella Bouquets	1	0	1	SecondDay	Colleen Leary	68 SMITH ST			CHELMSFORD	MA	01824-1711	US		Many Happy Returns, wish I was with you to celebrate. Here’s to another year! From Liz	false		
112-9840982-0769022	15711794501442	2020-10-20T23:21:41+00:00	2020-10-20T16:21:41-07:00	2020-10-20T23:22:34+00:00	2020-10-22T06:59:59+00:00	-2	pglm0bzmvn0qs8p@marketplace.amazon.com	Amaryllis Lans	+1 415-851-9136 ext. 67387	ABR0022	Delivery by Thursday | Arabella Farm Direct Bouquet of 12 Fresh Cut Pink Roses with a Free Glass Vase	1	0	1	NextDay	Cora and Jun Payawal	8216 246TH ST			BELLEROSE	NY	11426-1713	US		Dear Cora and Jun,  Always thinking of you and praying to give you  strength and comfort during these trying times.     Amaryllis From Amaryllis Lans	false		
112-1205530-2144222	62127078445514	2020-10-20T23:41:03+00:00	2020-10-20T16:41:03-07:00	2020-10-20T23:41:59+00:00	2020-10-22T06:59:59+00:00	-2	cqfnm698zb42f7c@marketplace.amazon.com	lorraine weist	+1 480-618-5344 ext. 39075	ABR001	Delivery by Thursday | Arabella Bouquets 12 Stems of Fresh Cut Red Roses in a Free Designer Glass Vase	1	0	1	NextDay	Sandra D’Attilo	135 W HEATHER RD			WILDWOOD CREST	NJ	08260-1325	US		Happy Birthday Sandy! I hope these brighten your day.                 Love                 Lorraine ❤️❤️ From Lorraine Weist	false		
112-1872291-0752262	34079604207730	2020-10-20T23:51:59+00:00	2020-10-20T16:51:59-07:00	2020-10-20T23:57:00+00:00	2020-10-22T06:59:59+00:00	-2	zjxv2bbrh3hd6v2@marketplace.amazon.com	Kris	+1 619-854-2705 ext. 43402	ABR001	Delivery by Thursday | Arabella Bouquets 12 Stems of Fresh Cut Red Roses in a Free Designer Glass Vase	1	0	1	NextDay	Kris Fontanarosa	695 Oak St.			Glen Ellyn	Illinois	60137	US			false		
112-2245033-4350606	58377361648258	2020-10-21T00:06:12+00:00	2020-10-20T17:06:12-07:00	2020-10-21T00:07:06+00:00	2020-10-22T06:59:59+00:00	-2	kpmrpmp8kg01d5k@marketplace.amazon.com	Ben A Gregori	+1 619-854-2705 ext. 22513	ABM0033	Delivery by Friday | Arabella Farm Direct Bouquet of Fresh Cut White Hydrangea with a Free Glass Vase	1	0	1	SecondDay	Hanako Ricci	27802 N 108TH WAY			SCOTTSDALE	AZ	85262-5641	US		I do listen :) Love you more than anything. -Ben From Ben Gregori	false		
113-2006305-5544265	69593491788458	2020-10-21T00:12:12+00:00	2020-10-20T17:12:12-07:00	2020-10-21T00:14:15+00:00	2020-10-22T06:59:59+00:00	-2	b7k2wg21npfc8tg@marketplace.amazon.com	sanjivani,joglekar	+1 480-618-5344 ext. 47750	ABR0055	Arabella Farm Direct Bouquet of 12 Stems of Fresh Cut Hot Pink Roses in a Free Designer Glass Vase	1	0	1	NextDay	Ria Joglekar	1208 E KENNEDY BLVD UNIT 616			TAMPA	FL	33602-3523	US		Dearest Ria, Many Happy returns of the day !  Enjoy your favorite pink roses . Love Mom & Dad. From sanjivani,joglekar	false		
112-5079605-3354667	49738762237178	2020-10-20T23:56:38+00:00	2020-10-20T16:56:38-07:00	2020-10-21T00:23:08+00:00	2020-10-23T06:59:59+00:00	-3	h1sqcjw1mkqh6xc@marketplace.amazon.com	Patricia A Anen	+1 602-671-6610 ext. 32845	ABM0044	Delivery by Friday | Arabella Farm Direct Bouquet of Fresh Cut Blue Hydrangea with a Free Glass Vase	1	0	1	Expedited	Mary Davis Holt	711 PRINCE ST			ALEXANDRIA	VA	22314-3004	US		Hi Mary, Thank you for all your help. I so appreciate it. WIll keep in touch. Thank you for all you are doing for Amy. Talk soon, trish	false		
111-1248210-0393036	02717235148178	2020-10-21T00:22:26+00:00	2020-10-20T17:22:26-07:00	2020-10-21T00:25:00+00:00	2020-10-22T06:59:59+00:00	-2	drg0f283cx9t44x@marketplace.amazon.com	Barbara A Wojcik	+1 213-442-1463 ext. 20008	ABR0055	Arabella Farm Direct Bouquet of 12 Stems of Fresh Cut Hot Pink Roses in a Free Designer Glass Vase	1	0	1	NextDay	John Wojcik	130 RIVER CLUB WAY			YOUNGSVILLE	NC	27596-7565	US		Dear Barbara, Happy 40th Wedding Anniversary! Love Always, John From John	false		
112-2589451-0309061	08248673618746	2020-10-20T23:58:32+00:00	2020-10-20T16:58:32-07:00	2020-10-21T00:26:36+00:00	2020-10-22T06:59:59+00:00	-2	8cqhzbjymfl5337@marketplace.amazon.com	Laura Shafer	+1 480-618-5344 ext. 94756	ABM022	Delivery by Thursday | Purple Extravagance Bouquet by Arabella Bouquets	1	0	1	SecondDay	Sheryl Bodmer	1133 E STERLING LN			FLAGSTAFF	AZ	86005-6575	US		Happy Birthday, Mom. I hope you have a great day! From Love, Laura	false		
113-5410057-1362669	69892906351786	2020-10-21T00:45:24+00:00	2020-10-20T17:45:24-07:00	2020-10-21T00:46:15+00:00	2020-10-22T06:59:59+00:00	-2	bhs673fgs58d40x@marketplace.amazon.com	Dean McDaniel	+1 929-436-4790 ext. 79641	ABR0022	Delivery by Thursday | Arabella Farm Direct Bouquet of 12 Fresh Cut Pink Roses with a Free Glass Vase	1	0	1	NextDay	Kerry Hernandez	406 CUMBERLAND CT			ARLINGTON	TX	76014-2130	US		Happy 50th Birthday to our favorite daughters... We love you, Mom and Dad From Dean McDaniel	false		
114-0209741-3137868	27632831646138	2020-10-21T00:48:03+00:00	2020-10-20T17:48:03-07:00	2020-10-21T00:49:00+00:00	2020-10-22T06:59:59+00:00	-2	429g7zttwr9k2v3@marketplace.amazon.com	Katherine Leeth	+1 602-671-6610 ext. 14821	ABR0022	Delivery by Thursday | Arabella Farm Direct Bouquet of 12 Fresh Cut Pink Roses with a Free Glass Vase	1	0	1	NextDay	Amanda Edenfield	1700 RIVERSIDE RD			ROSWELL	GA	30076-3315	US		Sending much love your way. Love,  Katherine, Jason, Shannon & Josh From The Leeth & The Lazarus Families	false		
112-6687364-9968211	36547908787650	2020-10-21T00:32:20+00:00	2020-10-20T17:32:20-07:00	2020-10-21T00:53:01+00:00	2020-10-22T06:59:59+00:00	-2	n5btx47l2rzyqjh@marketplace.amazon.com	annaliese mayette	+1 619-854-2705 ext. 98738	ABM010	Delivery by Thursday | The Spring Fling Bouquet by Arabella Bouquets with a Free Designer Glass Vase	1	0	1	SecondDay	Elizabeth Leggett	8409 WYNVIEW CT NW			ALBUQUERQUE	NM	87120-5574	US			false		
113-3721092-8018668	12531682311954	2020-10-21T00:54:55+00:00	2020-10-20T17:54:55-07:00	2020-10-21T00:55:49+00:00	2020-10-22T06:59:59+00:00	-2	bhs673fgs58d40x@marketplace.amazon.com	Dean McDaniel	+1 619-854-2705 ext. 28697	ABR0022	Delivery by Thursday | Arabella Farm Direct Bouquet of 12 Fresh Cut Pink Roses with a Free Glass Vase	1	0	1	NextDay	Kelly Jacobson	14269 GALLEON LN			HELENDALE	CA	92342-7779	US		Happy 50th Birthday to our favorite daughters... We Love You, Mom and Dad From Dean McDaniel	false		
111-2352143-5670632	28715848363130	2020-10-21T01:02:16+00:00	2020-10-20T18:02:16-07:00	2020-10-21T01:06:46+00:00	2020-10-22T06:59:59+00:00	-2	25rwh09fr4tms0g@marketplace.amazon.com	Lynda Sahnow	+1 415-851-9136 ext. 91137	ABR0022	Delivery by Thursday | Arabella Farm Direct Bouquet of 12 Fresh Cut Pink Roses with a Free Glass Vase	1	0	1	NextDay	Tara Sahnow	2080 COUNTY ROAD 102			CARBONDALE	CO	81623-9628	US		Happy Birthday Tara, From Love, Ron and Lynda	false		
114-7576891-8834612	64572528756546	2020-10-21T01:07:30+00:00	2020-10-20T18:07:30-07:00	2020-10-21T01:13:07+00:00	2020-10-22T06:59:59+00:00	-2	89c0jc5fkpsml1d@marketplace.amazon.com	Adriana Louison	+1 602-671-6610 ext. 16543	ABR0022	Delivery by Thursday | Arabella Farm Direct Bouquet of 12 Fresh Cut Pink Roses with a Free Glass Vase	1	0	1	NextDay	Juana Rodriguez	1311 ALEXANDER ST			HOUSTON	TX	77008-3845	US			false		
114-8187033-7273049	51582994494514	2020-10-21T01:29:00+00:00	2020-10-20T18:29:00-07:00	2020-10-21T01:29:50+00:00	2020-10-22T06:59:59+00:00	-2	3r335ylljbp47d1@marketplace.amazon.com	Alex Terehoff	+1 619-854-2705 ext. 68020	ABR0022	Delivery by Thursday | Arabella Farm Direct Bouquet of 12 Fresh Cut Pink Roses with a Free Glass Vase	1	0	1	NextDay	Roman Terehoff	1016 SAINT JOHNS LOOP			RAEFORD	NC	28376-8895	US		For Christina and Katrina Wishing you a lifetime of love, health and happiness together.  Love  Alex	false		
111-0295279-2828251	33912329508666	2020-10-21T01:32:29+00:00	2020-10-20T18:32:29-07:00	2020-10-21T01:34:12+00:00	2020-10-22T06:59:59+00:00	-2	hw9r44gz7k57sf4@marketplace.amazon.com	Dyshun Harris	+1 602-671-6610 ext. 39432	ABR001	Delivery by Thursday | Arabella Bouquets 12 Stems of Fresh Cut Red Roses in a Free Designer Glass Vase	1	0	1	NextDay	Mrs. Ester Forest	2420 WILLOW PASS RD UNIT 311			BAY POINT	CA	94565-3381	US			false		
114-8192650-1947438	46215456647674	2020-10-21T01:21:46+00:00	2020-10-20T18:21:46-07:00	2020-10-21T01:48:06+00:00	2020-10-22T06:59:59+00:00	-2	jfktxd5wz8rm2qp@marketplace.amazon.com	Isaac Hernandez	+1 929-436-4790 ext. 32077	ABM020	Delivery by Thursday | The Sunset Bouquet by Arabella Bouquets	1	0	1	SecondDay	Isaac Hernandez	145 ACADIA LOOP			LAREDO	TX	78045-7058	US		Feliz Cumpleaños Mayo! Que estés bien y te extraño mucho! Espero que estemos todos juntos pronto para comer y ver la tele y sonreír. Te quiero mucho Ma.  Tu hijo siempre. -papachito From Isaac and Sasa	false		
113-1891653-5062640	04061311282482	2020-10-21T01:50:26+00:00	2020-10-20T18:50:26-07:00	2020-10-21T01:51:22+00:00	2020-10-22T06:59:59+00:00	-2	sl0wwjc58jswbdw@marketplace.amazon.com	obinna ijomah	+1 929-436-4790 ext. 75840	ABR001	Delivery by Thursday | Arabella Bouquets 12 Stems of Fresh Cut Red Roses in a Free Designer Glass Vase	1	0	1	NextDay	Inova Javier	2 GREENHILL DR APT 8D			FISHKILL	NY	12524-1988	US		I hope you are not upset with me, and I hope you forgive me if you are.   You know how much I love you, my Inova, my sweetheart, my love.   For now and Forever From Obi	false		
111-6187734-7737017	68395428714546	2020-10-21T01:36:30+00:00	2020-10-20T18:36:30-07:00	2020-10-21T02:01:00+00:00	2020-10-22T06:59:59+00:00	-2	x04jnp7frwyg7vt@marketplace.amazon.com	Jeanette Lucht	+1 929-436-4790 ext. 82892	ABM022	Delivery by Thursday | Purple Extravagance Bouquet by Arabella Bouquets	1	0	1	SecondDay	Werning / Kania	W1202 FROELICH RD			SULLIVAN	WI	53178-9604	US		Happy Fall!  But not fall, so happy autumn!! Love, Nettie	false		
114-6962616-0437015	03412761375514	2020-10-21T01:37:37+00:00	2020-10-20T18:37:37-07:00	2020-10-21T02:06:25+00:00	2020-10-22T06:59:59+00:00	-2	slcpd4rtzytbncd@marketplace.amazon.com	Petra Mencia	+1 213-442-1463 ext. 97554	ABR0033	Delivery by Friday | Arabella Farm Direct Bouquet of 12 Fresh Cut Orange Roses with a Free Glass Vase	1	0	1	SecondDay	Maria Disla Mencia	10 W 138TH ST APT 7L			NEW YORK	NY	10037-1773	US		¡Bendiciones hoy y siempre! La queremos Rafi, Yoki, Rafael y Petra From Familia de Buffalo	false		
111-0736708-5149868	51091662425050	2020-10-21T02:11:54+00:00	2020-10-20T19:11:54-07:00	2020-10-21T02:16:30+00:00	2020-10-22T06:59:59+00:00	-2	2sj2lv6h5kzm5vc@marketplace.amazon.com	Dennis Doty	+1 213-442-1463 ext. 78663	ABR001	Delivery by Thursday | Arabella Bouquets 12 Stems of Fresh Cut Red Roses in a Free Designer Glass Vase	1	0	1	NextDay	Max Doty	253 NORMAL AVE			ASHLAND	OR	97520-1327	US			false		
