order-id	order-item-id	purchase-date	payments-date	reporting-date	promise-date	days-past-promise	buyer-email	buyer-name	buyer-phone-number	sku	product-name	quantity-purchased	quantity-shipped	quantity-to-ship	ship-service-level	recipient-name	ship-address-1	ship-address-2	ship-address-3	ship-city	ship-state	ship-postal-code	ship-country	gift-wrap-type	gift-message-text	is-business-order	purchase-order-number	price-designation
114-0441967-9216225	33989264434538	2020-10-20T17:50:27+00:00	2020-10-20T10:50:27-07:00	2020-10-20T18:18:15+00:00	2020-10-23T06:59:59+00:00	-2	5nvr2qbxsf3s3fn@marketplace.amazon.com	Altrise H Jones-Madewale	+1 213-442-1463 ext. 25448	ABR0033	Delivery by Friday | Arabella Farm Direct Bouquet of 12 Fresh Cut Orange Roses with a Free Glass Vase	1	0	1	Expedited	Dwight and Dorothy Peterson	428 CARRIAGE DR			BIRMINGHAM	AL	35214-1329	US		Enjoy your gift! Thanks Mom and Dad for all your love, prayers and support! We all love you both here in Huntsville ❣❣❣ From Altrise H Jones-Madewale	false		
111-6086604-4636251	13071096606410	2020-10-20T18:28:00+00:00	2020-10-20T11:28:00-07:00	2020-10-20T18:33:02+00:00	2020-10-22T06:59:59+00:00	-1	042vp9v0ffnkkfc@marketplace.amazon.com	sweetlanka	+1 480-618-5344 ext. 90830	ABR0055	Arabella Farm Direct Bouquet of 12 Stems of Fresh Cut Hot Pink Roses in a Free Designer Glass Vase	1	0	1	NextDay	Katya Vinnichuk	2540 JAMES LN			SEDALIA	MO	65301-6959	US			false		
112-0249592-0700209	68059757530914	2020-10-20T18:35:34+00:00	2020-10-20T11:35:34-07:00	2020-10-20T18:39:14+00:00	2020-10-22T06:59:59+00:00	-1	thdj4vb9czkbjbs@marketplace.amazon.com	Moses vargas	+1 602-671-6610 ext. 64642	ABR001	Delivery by Thursday | Arabella Bouquets 12 Stems of Fresh Cut Red Roses in a Free Designer Glass Vase	1	0	1	NextDay	Gabriella Rubio	3400 LOUETTA RD APT 327 327			SPRING	TX	77388-4724	US		Love you,babygirl hope your day was just as beautiful as you From Moses Vargas	false		
111-7210417-9808203	07798428066514	2020-10-20T18:43:07+00:00	2020-10-20T11:43:07-07:00	2020-10-20T18:46:06+00:00	2020-10-22T06:59:59+00:00	-1	4vb2y6s79gzl0bn@marketplace.amazon.com	Lesley Lawson	+1 929-436-4790 ext. 63695	ABR0022	Delivery by Thursday | Arabella Farm Direct Bouquet of 12 Fresh Cut Pink Roses with a Free Glass Vase	1	0	1	NextDay	Freda Lewis	743 FOREST AVE			FRANKLIN	OH	45005-3621	US		Thinking of you today From Lesley	false		
112-7640312-1441053	15838973287762	2020-10-20T18:40:21+00:00	2020-10-20T11:40:21-07:00	2020-10-20T19:04:05+00:00	2020-10-22T06:59:59+00:00	-1	yjdfqpdwjxdx2f1@marketplace.amazon.com	joel mark greenberg	+1 213-442-1463 ext. 56587	ABR004	Delivery by Friday | Arabella Farm Direct Bouquet of 12 Fresh Cut Yellow Roses with a Free Glass Vase	1	0	1	SecondDay	Stacey and Adam Greenberg	650 NEWBRIDGE RD APT 43			EAST MEADOW	NY	11554-5238	US		Dear Stacey and Adam,   Have a happy anniversary weekend! From Mom and Dad/Leslie and Joel	false		
113-8820655-3788254	29849589068810	2020-10-20T19:11:09+00:00	2020-10-20T12:11:09-07:00	2020-10-20T19:15:04+00:00	2020-10-22T06:59:59+00:00	-1	0v0g2j9rzbszpzd@marketplace.amazon.com	Jan C. Pettit	+1 415-851-9136 ext. 67293	ABR0022	Delivery by Thursday | Arabella Farm Direct Bouquet of 12 Fresh Cut Pink Roses with a Free Glass Vase	1	0	1	NextDay	Rebecca Drake	5125 2ND AVE			LOS ANGELES	CA	90043-1948	US		For a beautiful, strong daughter who I love!!! From Love, Mama	false		
111-0904534-0548262	06124157053202	2020-10-20T18:46:35+00:00	2020-10-20T11:46:35-07:00	2020-10-20T19:16:11+00:00	2020-10-23T06:59:59+00:00	-2	4vb2y6s79gzl0bn@marketplace.amazon.com	Lesley Lawson	+1 602-671-6610 ext. 96450	ABR0022	Delivery by Thursday | Arabella Farm Direct Bouquet of 12 Fresh Cut Pink Roses with a Free Glass Vase	1	0	1	Standard	Freda Lewis	743 FOREST AVE			FRANKLIN	OH	45005-3621	US			false		
112-8184319-9134612	24326687068698	2020-10-20T19:16:59+00:00	2020-10-20T12:16:59-07:00	2020-10-20T19:40:48+00:00	2020-10-22T06:59:59+00:00	-1	cnvrk4srj6tqls0@marketplace.amazon.com	maura e forsyth	+1 929-436-4790 ext. 31905	ABR0066	Arabella Bouquets 12 Stems of Fresh Cut White Roses in a Free Designer Glass Vase	1	0	1	SecondDay	Caroline Beek	1029 MADISON ST			SYRACUSE	NY	13210-2267	US			false		
111-2168830-5596239	08722264886898	2020-10-20T19:43:05+00:00	2020-10-20T12:43:05-07:00	2020-10-20T19:46:38+00:00	2020-10-22T06:59:59+00:00	-1	l8chnnp6q8zwfyj@marketplace.amazon.com	NOE SEPULVEDA	+1 480-618-5344 ext. 94826	ABR0022	Delivery by Thursday | Arabella Farm Direct Bouquet of 12 Fresh Cut Pink Roses with a Free Glass Vase	1	0	1	NextDay	Cecilia Sepulveda	21135 GRANDIN WOOD CT			HUMBLE	TX	77338-4785	US		Enjoy your gift! Happy Birthday! God bless you! We love you! From NOE SEPULVEDA	false		
111-3157888-6001845	70058980758618	2020-10-20T19:27:37+00:00	2020-10-20T12:27:37-07:00	2020-10-20T19:56:27+00:00	2020-10-23T06:59:59+00:00	-2	78l3nfv46f8lzhb@marketplace.amazon.com	kyrabrown	+1 480-618-5344 ext. 81021	ABR0033	Delivery by Friday | Arabella Farm Direct Bouquet of 12 Fresh Cut Orange Roses with a Free Glass Vase	1	0	1	Expedited	Connie Chapman	4644 WOOD DUCK RD			PINCKNEYVILLE	IL	62274-3112	US		I LOVE YOU, MAMA! You deserve all the flowers in the world but these will have to do for now :) From Kyra	false		
111-7953038-4102652	61215108315130	2020-10-20T19:33:41+00:00	2020-10-20T12:33:41-07:00	2020-10-20T20:01:11+00:00	2020-10-23T06:59:59+00:00	-2	16s342xq9t4hwgp@marketplace.amazon.com	craig scott	+1 929-436-4790 ext. 47058	ABR012	Delivery by Friday | Arabella Farm Direct Bouquet of 18 Fresh Cut Pink Roses with a Free Glass Vase	1	0	1	Expedited	Missy Chapman Tucker	15819 TOWNSHIP GLEN LN			CYPRESS	TX	77433-5581	US		Dear Mark & Missy: Your special day is coming soon.  Best wishes for your 35th wedding anniversary. Love,  Craig & Melanie From Craig & Melanie Scott	false		
112-5424523-5521007	65459967338066	2020-10-20T19:45:38+00:00	2020-10-20T12:45:38-07:00	2020-10-20T20:04:40+00:00	2020-10-22T06:59:59+00:00	-1	fzp9zvx2n5tvj49@marketplace.amazon.com	Arthur R. Dunlap	+1 213-442-1463 ext. 21955	ABR0033	Delivery by Friday | Arabella Farm Direct Bouquet of 12 Fresh Cut Orange Roses with a Free Glass Vase	1	0	1	SecondDay	Janet Nguyen	12296 NANTUCKET PL			SEAL BEACH	CA	90740-2772	US		Happy  Birthday  We will celebrate later From Love Art and Olivia	false		
114-2764978-6369057	08264049333002	2020-10-20T20:08:33+00:00	2020-10-20T13:08:33-07:00	2020-10-20T20:09:22+00:00	2020-10-22T06:59:59+00:00	-1	cy6rfb448vmg8jm@marketplace.amazon.com	Linda Thopy	+1 213-442-1463 ext. 03004	ABR0022	Delivery by Thursday | Arabella Farm Direct Bouquet of 12 Fresh Cut Pink Roses with a Free Glass Vase	1	0	1	NextDay	Tammy Thopy	8942 BUCKHAVEN DR			INDIANAPOLIS	IN	46256-1138	US			false		
112-8225651-2042615	44467563727514	2020-10-20T20:05:56+00:00	2020-10-20T13:05:56-07:00	2020-10-20T20:10:16+00:00	2020-10-22T06:59:59+00:00	-1	j3xc976ps0hrdp5@marketplace.amazon.com	Jimmyoking	+1 213-442-1463 ext. 44804	ABR001	Delivery by Thursday | Arabella Bouquets 12 Stems of Fresh Cut Red Roses in a Free Designer Glass Vase	1	0	1	NextDay	Jimmy King	1199 NORTON AVE			IDAHO FALLS	ID	83402-1731	US			false		
113-2466041-8035463	39566917050658	2020-10-20T20:17:20+00:00	2020-10-20T13:17:20-07:00	2020-10-20T20:18:15+00:00	2020-10-22T06:59:59+00:00	-1	w13k83800nvxksf@marketplace.amazon.com	Edward D. Strassman	+1 619-854-2705 ext. 59359	ABR0055	Arabella Farm Direct Bouquet of 12 Stems of Fresh Cut Hot Pink Roses in a Free Designer Glass Vase	1	0	1	NextDay	Alex Gorun	4337 LOOKOUT DR			LOVELAND	CO	80537-3400	US		Dear Alex, Amy and Christine, We are so sorry for your loss and thinking of you at this difficult time. Elise will live forever in our hearts. Love forever, Deirdre & Don From Edward D. Strassman	false		
111-8312375-8685820	60882527847674	2020-10-20T19:52:40+00:00	2020-10-20T12:52:40-07:00	2020-10-20T20:20:28+00:00	2020-10-22T06:59:59+00:00	-1	987jdkqh268cbym@marketplace.amazon.com	Priscilla	+1 929-436-4790 ext. 83990	ABM002	Delivery by Friday | Arabella Bouquets Fresh Cut White Calla Lilies in a Free Designer Glass Vase	1	0	1	SecondDay	Sophia Ie	604 14TH AVE SW			ROCHESTER	MN	55902-2075	US		Happy housewarming! From P	false		
113-5626077-4792260	10571195632698	2020-10-20T19:53:37+00:00	2020-10-20T12:53:37-07:00	2020-10-20T20:21:53+00:00	2020-10-23T06:59:59+00:00	-2	2v9ldbpl7j4rh36@marketplace.amazon.com	Leslie K. Crouthamel	+1 480-618-5344 ext. 34285	ABM022	Delivery by Thursday | Purple Extravagance Bouquet by Arabella Bouquets	1	0	1	Expedited	Cheryl Guth	22257 SW FISK TER			SHERWOOD	OR	97140-8049	US		Glad your surgery went well. Hope you are feeling much better already! -Leslie and Roger From Leslie	false		
111-4553995-0513053	64646729120522	2020-10-20T20:24:50+00:00	2020-10-20T13:24:50-07:00	2020-10-20T20:27:18+00:00	2020-10-22T06:59:59+00:00	-1	2jq8p5zhdkzzl83@marketplace.amazon.com	Brianna Hogan	+1 213-442-1463 ext. 96751	ABR0022	Delivery by Thursday | Arabella Farm Direct Bouquet of 12 Fresh Cut Pink Roses with a Free Glass Vase	1	0	1	NextDay	Laura Bachman	3829 WAKE CIR			NORFOLK	VA	23513-3429	US		We are wishing you a safe procedure and speedy recovery!!!!! LOVE YOU!!!! From Bri & Rock	false		
114-9442400-5200269	53430013811058	2020-10-20T20:22:45+00:00	2020-10-20T13:22:45-07:00	2020-10-20T20:51:37+00:00	2020-10-23T06:59:59+00:00	-2	7zlp4wg2tvcmnl4@marketplace.amazon.com	Patricia Moran	+1 213-442-1463 ext. 22561	ABM022	Delivery by Thursday | Purple Extravagance Bouquet by Arabella Bouquets	1	0	1	Expedited	Tom Moran	487 HERITAGE DR			GETTYSBURG	PA	17325-8942	US			false		
112-9990807-1829043	51574245269154	2020-10-20T20:29:45+00:00	2020-10-20T13:29:45-07:00	2020-10-20T20:57:37+00:00	2020-10-22T06:59:59+00:00	-1	xlf3pklscb03633@marketplace.amazon.com	Rodica	+1 213-442-1463 ext. 52877	ABM022	Delivery by Thursday | Purple Extravagance Bouquet by Arabella Bouquets	1	0	1	SecondDay	Ilinca Sacultanu	53 HARRISON ST			LITTLE FALLS	NJ	07424-1656	US		Felicitari scumpa noatra nanasica! From Familia Burdujel	false		
114-4451596-4345839	45813732865658	2020-10-20T20:57:54+00:00	2020-10-20T13:57:54-07:00	2020-10-20T21:01:33+00:00	2020-10-22T06:59:59+00:00	-1	751q5m8bdlqsrb5@marketplace.amazon.com	Mary M Minkler	+1 480-618-5344 ext. 57428	ABR0022	Delivery by Thursday | Arabella Farm Direct Bouquet of 12 Fresh Cut Pink Roses with a Free Glass Vase	1	0	1	NextDay	Megan Johnson	325 HUGUELET DR RM 242	HAGGIN HALL		LEXINGTON	KY	40526-2004	US		Happy Birthday Pretty Girl!  With love from your family in VA/DC/MD From xo Aunt Mary (FOR ALL!!)	false		
113-4983412-2684200	03087345435794	2020-10-20T21:12:55+00:00	2020-10-20T14:12:55-07:00	2020-10-20T21:14:40+00:00	2020-10-22T06:59:59+00:00	-1	4zbdp23rz5sbdns@marketplace.amazon.com	Roy Mathews	+1 602-671-6610 ext. 20286	ABR0022	Delivery by Thursday | Arabella Farm Direct Bouquet of 12 Fresh Cut Pink Roses with a Free Glass Vase	1	0	1	NextDay	Habibah Camara	2770 NEWHALL ST APT 33			SANTA CLARA	CA	95050-5663	US		HAPPY BIRTHDAY TO ONE OF THE GREATEST GRANDDAUGHTERS IN THE WORLD!!!!!!!!!  We love and miss you, and we hope you have a beautiful birthday.  Love you Bibah!!!!! From GRANDMA & GRANDPA	false		
113-4653635-7067421	53998830330714	2020-10-20T20:58:14+00:00	2020-10-20T13:58:14-07:00	2020-10-20T21:25:56+00:00	2020-10-23T06:59:59+00:00	-2	wrkblbdgy57x51h@marketplace.amazon.com	David A Parandoosh	+1 480-618-5344 ext. 77968	ABR0066	Arabella Bouquets 12 Stems of Fresh Cut White Roses in a Free Designer Glass Vase	1	0	1	Expedited	Patti Taboada	1005 SUNSET DR			BRIELLE	NJ	08730-1141	US			false		
113-0395560-3977018	40224264515058	2020-10-20T21:15:20+00:00	2020-10-20T14:15:20-07:00	2020-10-20T21:30:02+00:00	2020-10-23T06:59:59+00:00	-2	k2r0n26sd5152tq@marketplace.amazon.com	Cantata Singers	+1 480-618-5344 ext. 46423	ABM020	Delivery by Thursday | The Sunset Bouquet by Arabella Bouquets	1	0	1	Expedited	Alison LaRosaPO02148	25 JAMES ST UNIT 11			MALDEN	MA	02148-7458	US		Thank you for all you have done for the GBCC! From The GBCC Board	true	02148	
111-1351736-1671466	33795915015546	2020-10-20T21:13:06+00:00	2020-10-20T14:13:06-07:00	2020-10-20T21:42:36+00:00	2020-10-22T06:59:59+00:00	-1	l06xxrqtfb35ccy@marketplace.amazon.com	Ren	+1 929-436-4790 ext. 66783	ABR011	Delivery by Friday | Arabella Bouquets 18 Stems of Fresh Cut Red Roses in a Free Glass Vase	1	0	1	SecondDay	Ren Zuo	4322 QUEENS ST APT 1414			LONG ISLAND CITY	NY	11101-7944	US			false		
112-6470029-0317852	11374760059338	2020-10-20T21:33:27+00:00	2020-10-20T14:33:27-07:00	2020-10-20T21:57:35+00:00	2020-10-22T06:59:59+00:00	-1	qykkcjmhs0s86jk@marketplace.amazon.com	Karen Lewis	+1 213-442-1463 ext. 38268	ABR001	Delivery by Thursday | Arabella Bouquets 12 Stems of Fresh Cut Red Roses in a Free Designer Glass Vase	1	0	1	NextDay	Maranda Williams Brassel	4637 PARKMOUNT DR			FORT WORTH	TX	76137-5483	US			false		
114-9333439-9590657	05653411971458	2020-10-20T21:48:40+00:00	2020-10-20T14:48:40-07:00	2020-10-20T22:02:16+00:00	2020-10-22T06:59:59+00:00	-1	6f4vshnw3phl87h@marketplace.amazon.com	Dr. Ian Alleyne	+1 213-442-1463 ext. 08064	ABR012	Delivery by Friday | Arabella Farm Direct Bouquet of 18 Fresh Cut Pink Roses with a Free Glass Vase	1	0	1	SecondDay	Erica Hayes	14 CANAVERAL CREEK LN			SUGAR LAND	TX	77479-2724	US			false		
111-5352330-5666656	00425133743050	2020-10-20T22:01:00+00:00	2020-10-20T15:01:00-07:00	2020-10-20T22:04:44+00:00	2020-10-22T06:59:59+00:00	-1	gcf5sdkfhjcg8vs@marketplace.amazon.com	Bobak Nayebdadash	+1 602-671-6610 ext. 01547	ABR0022	Delivery by Thursday | Arabella Farm Direct Bouquet of 12 Fresh Cut Pink Roses with a Free Glass Vase	1	0	1	NextDay	Bobak Nayebdadash	6780 LOS VERDES DR APT 4			RANCHO PALOS VERDES	CA	90275-7613	US		Happy Birthday Mama!!!! Muahs!!!! From Jasmin and Cyrus and NOT YOUUUUUUU, DADA!!!!	false		
112-8165178-2763423	58157388526234	2020-10-20T21:35:51+00:00	2020-10-20T14:35:51-07:00	2020-10-20T22:05:29+00:00	2020-10-22T06:59:59+00:00	-1	dk9zjd5l7rgry5k@marketplace.amazon.com	Susan E Bogie	+1 415-851-9136 ext. 38173	ABR015	Delivery by Friday | Arabella Farm Direct Bouquet of 18 Fresh Cut Orange Roses with a Free Glass Vase	1	0	1	SecondDay	Dr. Lauren Curtis	12618 LaBahia St.			San Antonio	TX	78233	US		Laurie -  Wishing you a very Happy BIG Birthday! Love - Bogue & Helen From Susan E Bogie	false		
112-9540076-3547460	25081053698770	2020-10-20T22:46:25+00:00	2020-10-20T15:46:25-07:00	2020-10-20T22:47:20+00:00	2020-10-22T06:59:59+00:00	-1	p685q85h62d4kbx@marketplace.amazon.com	jeena kar	+1 602-671-6610 ext. 51688	ABR0022	Delivery by Thursday | Arabella Farm Direct Bouquet of 12 Fresh Cut Pink Roses with a Free Glass Vase	1	0	1	NextDay	Shalini Bhargava	HAPPY BIRTHDAY FROM KARS FL	63 BUCKINGHAM DR		BELLE MEAD	NJ	08502-4023	US			false		
113-6921205-3352261	58884813001954	2020-10-20T22:49:52+00:00	2020-10-20T15:49:52-07:00	2020-10-20T22:50:49+00:00	2020-10-22T06:59:59+00:00	-1	hsf60q0brys2270@marketplace.amazon.com	Thomas S. Held	+1 602-671-6610 ext. 63524	ABR0022	Delivery by Thursday | Arabella Farm Direct Bouquet of 12 Fresh Cut Pink Roses with a Free Glass Vase	1	0	1	NextDay	Amanda Held	1335 ASHBY AVE			BERKELEY	CA	94702-2403	US		Happy Birthday Amanda ! Enjoy :) Love you and miss you !!! From Mom and Dad XOXOXO	false		
111-2962442-8944253	34629841041650	2020-10-20T22:53:41+00:00	2020-10-20T15:53:41-07:00	2020-10-20T23:05:27+00:00	2020-10-23T06:59:59+00:00	-2	3c0klq92bdfgzzb@marketplace.amazon.com	Donna Wilkinson	+1 213-442-1463 ext. 39879	ABR0033	Delivery by Friday | Arabella Farm Direct Bouquet of 12 Fresh Cut Orange Roses with a Free Glass Vase	1	0	1	Expedited	Kieley Family	2901 PINE NEEDLE DR			ELLICOTT CITY	MD	21042-7602	US		Our deepest sympathies to you and your family. We are thinking about you and sending our love. From Donna, Bill, Keira and Claudia	false		
113-2302694-5952211	45043947863378	2020-10-20T23:06:02+00:00	2020-10-20T16:06:02-07:00	2020-10-20T23:06:52+00:00	2020-10-22T06:59:59+00:00	-1	576x4px9fbgr9pg@marketplace.amazon.com	Emilio	+1 929-436-4790 ext. 99626	ABR0022	Delivery by Thursday | Arabella Farm Direct Bouquet of 12 Fresh Cut Pink Roses with a Free Glass Vase	1	0	1	NextDay	Glenda Martinez	3560 E 4TH AVE			HIALEAH	FL	33013-3010	US		¿Qué cuánto te amo? Dime cuántas estrellas hay en el cielo, cuánta agua en el mar...cuánta arena en la playa...y yo te diré cuánto te amo. From Bobito Tuyo	false		
114-7890467-3238616	10658528548706	2020-10-20T22:49:30+00:00	2020-10-20T15:49:30-07:00	2020-10-20T23:15:48+00:00	2020-10-22T06:59:59+00:00	-1	0ms3fsv4rg3x6nw@marketplace.amazon.com	Liz Taylor	+1 929-436-4790 ext. 00602	ABM021	Delivery by Friday | The Joyous Bouquet by Arabella Bouquets	1	0	1	SecondDay	Colleen Leary	68 SMITH ST			CHELMSFORD	MA	01824-1711	US		Many Happy Returns, wish I was with you to celebrate. Here’s to another year! From Liz	false		
112-9840982-0769022	15711794501442	2020-10-20T23:21:41+00:00	2020-10-20T16:21:41-07:00	2020-10-20T23:22:34+00:00	2020-10-22T06:59:59+00:00	-1	pglm0bzmvn0qs8p@marketplace.amazon.com	Amaryllis Lans	+1 415-851-9136 ext. 67387	ABR0022	Delivery by Thursday | Arabella Farm Direct Bouquet of 12 Fresh Cut Pink Roses with a Free Glass Vase	1	0	1	NextDay	Cora and Jun Payawal	8216 246TH ST			BELLEROSE	NY	11426-1713	US		Dear Cora and Jun,  Always thinking of you and praying to give you  strength and comfort during these trying times.     Amaryllis From Amaryllis Lans	false		
112-1205530-2144222	62127078445514	2020-10-20T23:41:03+00:00	2020-10-20T16:41:03-07:00	2020-10-20T23:41:59+00:00	2020-10-22T06:59:59+00:00	-1	cqfnm698zb42f7c@marketplace.amazon.com	lorraine weist	+1 480-618-5344 ext. 39075	ABR001	Delivery by Thursday | Arabella Bouquets 12 Stems of Fresh Cut Red Roses in a Free Designer Glass Vase	1	0	1	NextDay	Sandra D’Attilo	135 W HEATHER RD			WILDWOOD CREST	NJ	08260-1325	US		Happy Birthday Sandy! I hope these brighten your day.                 Love                 Lorraine ❤️❤️ From Lorraine Weist	false		
112-1872291-0752262	34079604207730	2020-10-20T23:51:59+00:00	2020-10-20T16:51:59-07:00	2020-10-20T23:57:00+00:00	2020-10-22T06:59:59+00:00	-1	zjxv2bbrh3hd6v2@marketplace.amazon.com	Kris	+1 619-854-2705 ext. 43402	ABR001	Delivery by Thursday | Arabella Bouquets 12 Stems of Fresh Cut Red Roses in a Free Designer Glass Vase	1	0	1	NextDay	Kris Fontanarosa	695 Oak St.			Glen Ellyn	Illinois	60137	US			false		
113-2006305-5544265	69593491788458	2020-10-21T00:12:12+00:00	2020-10-20T17:12:12-07:00	2020-10-21T00:14:15+00:00	2020-10-22T06:59:59+00:00	-1	b7k2wg21npfc8tg@marketplace.amazon.com	sanjivani,joglekar	+1 480-618-5344 ext. 47750	ABR0055	Arabella Farm Direct Bouquet of 12 Stems of Fresh Cut Hot Pink Roses in a Free Designer Glass Vase	1	0	1	NextDay	Ria Joglekar	1208 E KENNEDY BLVD UNIT 616			TAMPA	FL	33602-3523	US		Dearest Ria, Many Happy returns of the day !  Enjoy your favorite pink roses . Love Mom & Dad. From sanjivani,joglekar	false		
112-5079605-3354667	49738762237178	2020-10-20T23:56:38+00:00	2020-10-20T16:56:38-07:00	2020-10-21T00:23:08+00:00	2020-10-23T06:59:59+00:00	-2	h1sqcjw1mkqh6xc@marketplace.amazon.com	Patricia A Anen	+1 602-671-6610 ext. 32845	ABM0044	Delivery by Friday | Arabella Farm Direct Bouquet of Fresh Cut Blue Hydrangea with a Free Glass Vase	1	0	1	Expedited	Mary Davis Holt	711 PRINCE ST			ALEXANDRIA	VA	22314-3004	US		Hi Mary, Thank you for all your help. I so appreciate it. WIll keep in touch. Thank you for all you are doing for Amy. Talk soon, trish	false		
111-1248210-0393036	02717235148178	2020-10-21T00:22:26+00:00	2020-10-20T17:22:26-07:00	2020-10-21T00:25:00+00:00	2020-10-22T06:59:59+00:00	-1	drg0f283cx9t44x@marketplace.amazon.com	Barbara A Wojcik	+1 213-442-1463 ext. 20008	ABR0055	Arabella Farm Direct Bouquet of 12 Stems of Fresh Cut Hot Pink Roses in a Free Designer Glass Vase	1	0	1	NextDay	John Wojcik	130 RIVER CLUB WAY			YOUNGSVILLE	NC	27596-7565	US		Dear Barbara, Happy 40th Wedding Anniversary! Love Always, John From John	false		
112-2589451-0309061	08248673618746	2020-10-20T23:58:32+00:00	2020-10-20T16:58:32-07:00	2020-10-21T00:26:36+00:00	2020-10-22T06:59:59+00:00	-1	8cqhzbjymfl5337@marketplace.amazon.com	Laura Shafer	+1 480-618-5344 ext. 94756	ABM022	Delivery by Thursday | Purple Extravagance Bouquet by Arabella Bouquets	1	0	1	SecondDay	Sheryl Bodmer	1133 E STERLING LN			FLAGSTAFF	AZ	86005-6575	US		Happy Birthday, Mom. I hope you have a great day! From Love, Laura	false		
113-5410057-1362669	69892906351786	2020-10-21T00:45:24+00:00	2020-10-20T17:45:24-07:00	2020-10-21T00:46:15+00:00	2020-10-22T06:59:59+00:00	-1	bhs673fgs58d40x@marketplace.amazon.com	Dean McDaniel	+1 929-436-4790 ext. 79641	ABR0022	Delivery by Thursday | Arabella Farm Direct Bouquet of 12 Fresh Cut Pink Roses with a Free Glass Vase	1	0	1	NextDay	Kerry Hernandez	406 CUMBERLAND CT			ARLINGTON	TX	76014-2130	US		Happy 50th Birthday to our favorite daughters... We love you, Mom and Dad From Dean McDaniel	false		
114-0209741-3137868	27632831646138	2020-10-21T00:48:03+00:00	2020-10-20T17:48:03-07:00	2020-10-21T00:49:00+00:00	2020-10-22T06:59:59+00:00	-1	429g7zttwr9k2v3@marketplace.amazon.com	Katherine Leeth	+1 602-671-6610 ext. 14821	ABR0022	Delivery by Thursday | Arabella Farm Direct Bouquet of 12 Fresh Cut Pink Roses with a Free Glass Vase	1	0	1	NextDay	Amanda Edenfield	1700 RIVERSIDE RD			ROSWELL	GA	30076-3315	US		Sending much love your way. Love,  Katherine, Jason, Shannon & Josh From The Leeth & The Lazarus Families	false		
112-6687364-9968211	36547908787650	2020-10-21T00:32:20+00:00	2020-10-20T17:32:20-07:00	2020-10-21T00:53:01+00:00	2020-10-22T06:59:59+00:00	-1	n5btx47l2rzyqjh@marketplace.amazon.com	annaliese mayette	+1 619-854-2705 ext. 98738	ABM010	Delivery by Thursday | The Spring Fling Bouquet by Arabella Bouquets with a Free Designer Glass Vase	1	0	1	SecondDay	Elizabeth Leggett	8409 WYNVIEW CT NW			ALBUQUERQUE	NM	87120-5574	US			false		
113-3721092-8018668	12531682311954	2020-10-21T00:54:55+00:00	2020-10-20T17:54:55-07:00	2020-10-21T00:55:49+00:00	2020-10-22T06:59:59+00:00	-1	bhs673fgs58d40x@marketplace.amazon.com	Dean McDaniel	+1 619-854-2705 ext. 28697	ABR0022	Delivery by Thursday | Arabella Farm Direct Bouquet of 12 Fresh Cut Pink Roses with a Free Glass Vase	1	0	1	NextDay	Kelly Jacobson	14269 GALLEON LN			HELENDALE	CA	92342-7779	US		Happy 50th Birthday to our favorite daughters... We Love You, Mom and Dad From Dean McDaniel	false		
111-2352143-5670632	28715848363130	2020-10-21T01:02:16+00:00	2020-10-20T18:02:16-07:00	2020-10-21T01:06:46+00:00	2020-10-22T06:59:59+00:00	-1	25rwh09fr4tms0g@marketplace.amazon.com	Lynda Sahnow	+1 415-851-9136 ext. 91137	ABR0022	Delivery by Thursday | Arabella Farm Direct Bouquet of 12 Fresh Cut Pink Roses with a Free Glass Vase	1	0	1	NextDay	Tara Sahnow	2080 COUNTY ROAD 102			CARBONDALE	CO	81623-9628	US		Happy Birthday Tara, From Love, Ron and Lynda	false		
114-7576891-8834612	64572528756546	2020-10-21T01:07:30+00:00	2020-10-20T18:07:30-07:00	2020-10-21T01:13:07+00:00	2020-10-22T06:59:59+00:00	-1	89c0jc5fkpsml1d@marketplace.amazon.com	Adriana Louison	+1 602-671-6610 ext. 16543	ABR0022	Delivery by Thursday | Arabella Farm Direct Bouquet of 12 Fresh Cut Pink Roses with a Free Glass Vase	1	0	1	NextDay	Juana Rodriguez	1311 ALEXANDER ST			HOUSTON	TX	77008-3845	US			false		
114-8187033-7273049	51582994494514	2020-10-21T01:29:00+00:00	2020-10-20T18:29:00-07:00	2020-10-21T01:29:50+00:00	2020-10-22T06:59:59+00:00	-1	3r335ylljbp47d1@marketplace.amazon.com	Alex Terehoff	+1 619-854-2705 ext. 68020	ABR0022	Delivery by Thursday | Arabella Farm Direct Bouquet of 12 Fresh Cut Pink Roses with a Free Glass Vase	1	0	1	NextDay	Roman Terehoff	1016 SAINT JOHNS LOOP			RAEFORD	NC	28376-8895	US		For Christina and Katrina Wishing you a lifetime of love, health and happiness together.  Love  Alex	false		
111-0295279-2828251	33912329508666	2020-10-21T01:32:29+00:00	2020-10-20T18:32:29-07:00	2020-10-21T01:34:12+00:00	2020-10-22T06:59:59+00:00	-1	hw9r44gz7k57sf4@marketplace.amazon.com	Dyshun Harris	+1 602-671-6610 ext. 39432	ABR001	Delivery by Thursday | Arabella Bouquets 12 Stems of Fresh Cut Red Roses in a Free Designer Glass Vase	1	0	1	NextDay	Mrs. Ester Forest	2420 WILLOW PASS RD UNIT 311			BAY POINT	CA	94565-3381	US			false		
114-8192650-1947438	46215456647674	2020-10-21T01:21:46+00:00	2020-10-20T18:21:46-07:00	2020-10-21T01:48:06+00:00	2020-10-22T06:59:59+00:00	-1	jfktxd5wz8rm2qp@marketplace.amazon.com	Isaac Hernandez	+1 929-436-4790 ext. 32077	ABM020	Delivery by Thursday | The Sunset Bouquet by Arabella Bouquets	1	0	1	SecondDay	Isaac Hernandez	145 ACADIA LOOP			LAREDO	TX	78045-7058	US		Feliz Cumpleaños Mayo! Que estés bien y te extraño mucho! Espero que estemos todos juntos pronto para comer y ver la tele y sonreír. Te quiero mucho Ma.  Tu hijo siempre. -papachito From Isaac and Sasa	false		
113-1891653-5062640	04061311282482	2020-10-21T01:50:26+00:00	2020-10-20T18:50:26-07:00	2020-10-21T01:51:22+00:00	2020-10-22T06:59:59+00:00	-1	sl0wwjc58jswbdw@marketplace.amazon.com	obinna ijomah	+1 929-436-4790 ext. 75840	ABR001	Delivery by Thursday | Arabella Bouquets 12 Stems of Fresh Cut Red Roses in a Free Designer Glass Vase	1	0	1	NextDay	Inova Javier	2 GREENHILL DR APT 8D			FISHKILL	NY	12524-1988	US		I hope you are not upset with me, and I hope you forgive me if you are.   You know how much I love you, my Inova, my sweetheart, my love.   For now and Forever From Obi	false		
111-6187734-7737017	68395428714546	2020-10-21T01:36:30+00:00	2020-10-20T18:36:30-07:00	2020-10-21T02:01:00+00:00	2020-10-22T06:59:59+00:00	-1	x04jnp7frwyg7vt@marketplace.amazon.com	Jeanette Lucht	+1 929-436-4790 ext. 82892	ABM022	Delivery by Thursday | Purple Extravagance Bouquet by Arabella Bouquets	1	0	1	SecondDay	Werning / Kania	W1202 FROELICH RD			SULLIVAN	WI	53178-9604	US		Happy Fall!  But not fall, so happy autumn!! Love, Nettie	false		
114-6962616-0437015	03412761375514	2020-10-21T01:37:37+00:00	2020-10-20T18:37:37-07:00	2020-10-21T02:06:25+00:00	2020-10-22T06:59:59+00:00	-1	slcpd4rtzytbncd@marketplace.amazon.com	Petra Mencia	+1 213-442-1463 ext. 97554	ABR0033	Delivery by Friday | Arabella Farm Direct Bouquet of 12 Fresh Cut Orange Roses with a Free Glass Vase	1	0	1	SecondDay	Maria Disla Mencia	10 W 138TH ST APT 7L			NEW YORK	NY	10037-1773	US		¡Bendiciones hoy y siempre! La queremos Rafi, Yoki, Rafael y Petra From Familia de Buffalo	false		
111-0736708-5149868	51091662425050	2020-10-21T02:11:54+00:00	2020-10-20T19:11:54-07:00	2020-10-21T02:16:30+00:00	2020-10-22T06:59:59+00:00	-1	2sj2lv6h5kzm5vc@marketplace.amazon.com	Dennis Doty	+1 213-442-1463 ext. 78663	ABR001	Delivery by Thursday | Arabella Bouquets 12 Stems of Fresh Cut Red Roses in a Free Designer Glass Vase	1	0	1	NextDay	Max Doty	253 NORMAL AVE			ASHLAND	OR	97520-1327	US			false		
113-3953801-6909008	43602101096978	2020-10-21T02:34:32+00:00	2020-10-20T19:34:32-07:00	2020-10-21T03:02:36+00:00	2020-10-22T06:59:59+00:00	-1	4lq35bsp0gwltmv@marketplace.amazon.com	dwynette	+1 929-436-4790 ext. 95566	ABM010	Delivery by Thursday | The Spring Fling Bouquet by Arabella Bouquets with a Free Designer Glass Vase	1	0	1	SecondDay	Lena Lizana	24058 CUEVAS DELISLE RD			PASS CHRISTIAN	MS	39571-9114	US		Happy Birthday to the best mom ever! We love you. From Lucy & Family	false		
114-8205251-8377032	51464742655514	2020-10-21T02:51:54+00:00	2020-10-20T19:51:54-07:00	2020-10-21T03:21:33+00:00	2020-10-23T06:59:59+00:00	-2	l2jhd76c160rsv8@marketplace.amazon.com	Sharda Kaushik	+1 929-436-4790 ext. 21300	ABR0022	Delivery by Thursday | Arabella Farm Direct Bouquet of 12 Fresh Cut Pink Roses with a Free Glass Vase	1	0	1	Standard	Divya Kohli	1314 N HOWARD ST			GLENDALE	CA	91207-1414	US			false		
111-6213943-0600211	55854287321938	2020-10-21T03:22:14+00:00	2020-10-20T20:22:14-07:00	2020-10-21T03:42:47+00:00	2020-10-22T06:59:59+00:00	-1	m2llf7m8sgqc68t@marketplace.amazon.com	KENT CORNER	+1 619-854-2705 ext. 91225	ABM022	Delivery by Thursday | Purple Extravagance Bouquet by Arabella Bouquets	1	0	1	SecondDay	James K Bazor	1511 MERIWETHER RD			MONTGOMERY	AL	36117-3458	US		Babe The Beauty of these flowers will fade away, your beauty is here to stay  Happy Birthday  I LOVE YOU From KENT CORNER	false		
112-5268548-2080243	35030778227770	2020-10-21T03:53:40+00:00	2020-10-20T20:53:40-07:00	2020-10-21T03:54:35+00:00	2020-10-22T06:59:59+00:00	-1	0g0q23bkz6trxk8@marketplace.amazon.com	George S Foglesong	+1 619-854-2705 ext. 94319	ABR0022	Delivery by Thursday | Arabella Farm Direct Bouquet of 12 Fresh Cut Pink Roses with a Free Glass Vase	1	0	1	NextDay	Leona Groesbeck	315 VERNAL ST			EUGENE	OR	97401-6126	US			false		
111-9947786-1796258	62120753584498	2020-10-21T03:24:12+00:00	2020-10-20T20:24:12-07:00	2020-10-21T03:56:51+00:00	2020-10-23T06:59:59+00:00	-2	k1mygwwgbtpnmt7@marketplace.amazon.com	Avangelina mahan	+1 929-436-4790 ext. 03179	ABR012	Delivery by Friday | Arabella Farm Direct Bouquet of 18 Fresh Cut Pink Roses with a Free Glass Vase	1	0	1	Expedited	Wing and Lila  mok	14618 MARWOOD ST			HACIENDA HEIGHTS	CA	91745-1244	US		Thinking of you Lila love Scott , Ava and Nicholas From Avangelina mahan	false		
111-7659413-8337058	56205631034402	2020-10-21T03:37:47+00:00	2020-10-20T20:37:47-07:00	2020-10-21T04:02:46+00:00	2020-10-23T06:59:59+00:00	-2	yd1xyttyn1zlgtk@marketplace.amazon.com	Linda Dineen	+1 480-618-5344 ext. 52406	ABM022	Delivery by Thursday | Purple Extravagance Bouquet by Arabella Bouquets	1	0	1	Expedited	Jessica Pittman	835 E VASSAR AVE			FRESNO	CA	93704-6132	US		Jess! Congrats again on TEN YEARS! What an amazing feat and worth celebrating. You have invested much and believed strong. I'm proud of you and celebrate you and the team from afar... but, really... celebrating you, my friend From Meghan Dineen	false		
114-7869340-2688227	05379696145154	2020-10-21T03:40:42+00:00	2020-10-20T20:40:42-07:00	2020-10-21T04:14:00+00:00	2020-10-22T06:59:59+00:00	-1	41zs6ld696ldn5w@marketplace.amazon.com	Patrick A. Ratcliff		ABM022	Delivery by Thursday | Purple Extravagance Bouquet by Arabella Bouquets	1	0	1	SecondDay	Patrick A. Ratcliff	390 Twincreek Circle			Pagosa Springs	CO	81147	US		Happy birthday mom! From Patrick	false		
111-7705856-0244254	65349975503138	2020-10-21T03:52:45+00:00	2020-10-20T20:52:45-07:00	2020-10-21T04:19:09+00:00	2020-10-22T06:59:59+00:00	-1	rm8strlrv16t4v3@marketplace.amazon.com	Franz Andrew	+1 480-618-5344 ext. 12902	ABM010	Delivery by Thursday | The Spring Fling Bouquet by Arabella Bouquets with a Free Designer Glass Vase	1	0	1	SecondDay	Jon and Jen Cornett	300 S 15TH ST			MOUNT VERNON	WA	98274-4509	US		Happy Anniversary Jen and Jon! Love you guys and miss you lots! From Franz Andrew	false		
111-4187398-5871439	24723672792450	2020-10-21T04:24:12+00:00	2020-10-20T21:24:12-07:00	2020-10-21T04:45:05+00:00	2020-10-22T06:59:59+00:00	-1	jt1bqkdjmn0jff9@marketplace.amazon.com	Nelson Key	+1 602-671-6610 ext. 86958	ABM006	Arabella Bouquets Fresh Cut Yellow Lillies in a Free Designer Glass Vase	1	0	1	SecondDay	Lily Woo	3802 CALLE LA QUINTA			SAN CLEMENTE	CA	92673-2713	US		Happy Birthday Lily! Wishing you a wonderful celebration and stay healthy! From Love, Vivian	false		
114-8399103-7593801	07716381915594	2020-10-21T04:30:09+00:00	2020-10-20T21:30:09-07:00	2020-10-21T04:53:35+00:00	2020-10-23T06:59:59+00:00	-2	cmzb5wx1kwv9slp@marketplace.amazon.com	BERNARD DIAZ	+1 929-436-4790 ext. 17208	ABR012	Delivery by Friday | Arabella Farm Direct Bouquet of 18 Fresh Cut Pink Roses with a Free Glass Vase	1	0	1	Expedited	Roxana Díaz	216 SPOKANE DR			GREENVILLE	SC	29607-5158	US		Roxana, Get well soon! Our best wishes! Love Bernard and Cynthia From BERNARD DIAZ	false		
112-7133692-9139426	63721815166226	2020-10-21T04:31:00+00:00	2020-10-20T21:31:00-07:00	2020-10-21T04:59:29+00:00	2020-10-23T06:59:59+00:00	-2	xw4wtkhz63276gz@marketplace.amazon.com	Michael S. Berry	+1 929-436-4790 ext. 38772	ABM022	Delivery by Thursday | Purple Extravagance Bouquet by Arabella Bouquets	1	0	1	Expedited	MICHAEL S BERRY	1420 GOEGLEIN GULCH			DURANGO	CO	81301-6861	US		Hello my love! From Michael S. Berry	false		
113-6818240-1927402	06683939700346	2020-10-21T05:00:14+00:00	2020-10-20T22:00:14-07:00	2020-10-21T05:01:13+00:00	2020-10-22T06:59:59+00:00	-1	73lzhnzxsbb2hcl@marketplace.amazon.com	Israel	+1 213-442-1463 ext. 25814	ABR001	Delivery by Thursday | Arabella Bouquets 12 Stems of Fresh Cut Red Roses in a Free Designer Glass Vase	1	0	1	NextDay	Israel	3211 W DIVISION ST TRLR 97			ARLINGTON	TX	76012-3405	US		Te quiero y no quiero perderte mi amor.!!! De Israel	false		
111-0442115-4177006	12976020892594	2020-10-21T04:38:27+00:00	2020-10-20T21:38:27-07:00	2020-10-21T05:06:27+00:00	2020-10-22T06:59:59+00:00	-1	0wl5dt2ks3wmymn@marketplace.amazon.com	aiorizzo	+1 602-671-6610 ext. 39585	ABM010	Delivery by Thursday | The Spring Fling Bouquet by Arabella Bouquets with a Free Designer Glass Vase	1	0	1	SecondDay	Veronica Buckley	105 STIRRUP LN			LEVITTOWN	NY	11756-3840	US		Happy Birthday Veronica, we love you! From Frank & Andrea	false		
114-9271957-1928257	20146175376578	2020-10-21T05:21:42+00:00	2020-10-20T22:21:42-07:00	2020-10-21T05:25:38+00:00	2020-10-22T06:59:59+00:00	-1	l44tsfvlk8bnj1r@marketplace.amazon.com	Ashley	+1 602-671-6610 ext. 62926	ABR0055	Arabella Farm Direct Bouquet of 12 Stems of Fresh Cut Hot Pink Roses in a Free Designer Glass Vase	1	0	1	NextDay	Sarah Hasley	511 IDA MAYBEE RD			MONROE	MI	48161-9662	US		Thinking about you today, and always!   Love you! From Christina	false		
114-6514166-8203431	13765062122322	2020-10-21T05:03:24+00:00	2020-10-20T22:03:24-07:00	2020-10-21T05:27:11+00:00	2020-10-22T06:59:59+00:00	-1	8qpcfql3c24jkmy@marketplace.amazon.com	Me	+1 213-442-1463 ext. 67323	ABM022	Delivery by Thursday | Purple Extravagance Bouquet by Arabella Bouquets	1	0	1	SecondDay	Divya Patel	65600 Alabama Hwy 77 North			Talladega	AL	35160	US		Happy Birthday Divya! From 🙃	false		
113-2987110-4804268	18639627213202	2020-10-21T05:08:50+00:00	2020-10-20T22:08:50-07:00	2020-10-21T05:38:08+00:00	2020-10-22T06:59:59+00:00	-1	xfbpgddrqxy1x29@marketplace.amazon.com	aran murphy	+1 480-618-5344 ext. 29719	ABM002	Delivery by Friday | Arabella Bouquets Fresh Cut White Calla Lilies in a Free Designer Glass Vase	1	0	1	SecondDay	Nina Kaplan	9041 DICKS ST			WEST HOLLYWOOD	CA	90069-4808	US		So sorry for your loss, April From aran murphy	false		
114-7966815-2955435	48232188782634	2020-10-21T05:54:23+00:00	2020-10-20T22:54:23-07:00	2020-10-21T05:55:19+00:00	2020-10-22T06:59:59+00:00	-1	ljzqzfcscgjp3ln@marketplace.amazon.com	June Elmblad	+1 480-618-5344 ext. 20903	ABR0022	Delivery by Thursday | Arabella Farm Direct Bouquet of 12 Fresh Cut Pink Roses with a Free Glass Vase	1	0	1	NextDay	Freida Phipps	316 W SUNSETSTRIP DR			SENECA	SC	29672-6653	US		Wishing you a wonderful Birthday  and tons of Love, From Keith & June Elmblad	false		
113-6725238-0305029	30477517285858	2020-10-21T05:44:03+00:00	2020-10-20T22:44:03-07:00	2020-10-21T06:05:35+00:00	2020-10-22T06:59:59+00:00	-1	0lx3ycl2q1kl66l@marketplace.amazon.com	GINSBURG	+1 213-442-1463 ext. 19518	ABB011	Arabella Bouquets 24 Stems of Fresh Cut Hot Pink Roses in a Free Designer Glass Vase	1	0	1	SecondDay	KAYE DeHAITRE	N3190 KOEPP RD			MERRIMAC	WI	53561-9657	US		Happy Birthday to my best friend and sister forever. Love always, Rosanne. From Rosanne	false		
111-3078258-2907442	17345653327274	2020-10-21T05:58:15+00:00	2020-10-20T22:58:15-07:00	2020-10-21T06:24:21+00:00	2020-10-22T06:59:59+00:00	-1	q3h9fqq4b8bywsn@marketplace.amazon.com	Jonathan Kramer	+1 415-851-9136 ext. 75373	ABM022	Delivery by Thursday | Purple Extravagance Bouquet by Arabella Bouquets	1	0	1	SecondDay	Lori Alvarez	5820 S VAN NESS AVE			LOS ANGELES	CA	90047-1026	US		Thank you for helping me through an incredibly difficult time and for your friendship. From Jonathan Kramer	false		
114-9136336-3665020	53010388933858	2020-10-21T06:19:24+00:00	2020-10-20T23:19:24-07:00	2020-10-21T06:45:06+00:00	2020-10-22T06:59:59+00:00	-1	sf9wykl1z1jqptt@marketplace.amazon.com	David Miller	+1 480-618-5344 ext. 10843	ABM002	Delivery by Friday | Arabella Bouquets Fresh Cut White Calla Lilies in a Free Designer Glass Vase	1	0	1	SecondDay	Agnes Miller	81 OSTERVILLE WEST BARNSTABLE RD			OSTERVILLE	MA	02655-1550	US		HAPPY BIRTHDAY  !!  LOVE YOUR FAVORITE CHILD, YOUR FAVORITE DAUGHTER IN LAW, YOUR FAVORITE GRANDSON, YOUR FAVORITE GRANDDAUGHTER, AND YOUR CO FAVORITE DOGS From David Miller	false		
112-2550276-7192202	24146234651410	2020-10-21T06:35:14+00:00	2020-10-20T23:35:14-07:00	2020-10-21T07:04:25+00:00	2020-10-22T06:59:59+00:00	-1	zsltnb3x87ymb2p@marketplace.amazon.com	Joshua Dulaney	+1 602-671-6610 ext. 43851	ABM0044	Delivery by Friday | Arabella Farm Direct Bouquet of Fresh Cut Blue Hydrangea with a Free Glass Vase	1	0	1	SecondDay	Stephanie Campbell	230 Austin Loop			Fort Benning	GA	31905	US			false		
114-1177191-9930638	36956750018474	2020-10-21T06:45:47+00:00	2020-10-20T23:45:47-07:00	2020-10-21T07:16:04+00:00	2020-10-22T06:59:59+00:00	-1	mw2fm91hxw8135p@marketplace.amazon.com	Marques Mazyck	+1 619-854-2705 ext. 76588	ABM022	Delivery by Thursday | Purple Extravagance Bouquet by Arabella Bouquets	1	0	1	SecondDay	Marques Mazyck	7440 NW 7TH CT			PLANTATION	FL	33317-1012	US			false		
112-6772424-7530608	58274184206818	2020-10-21T07:27:28+00:00	2020-10-21T00:27:28-07:00	2020-10-21T07:48:30+00:00	2020-10-22T06:59:59+00:00	-1	2sbrmv0d3wll8t7@marketplace.amazon.com	Stephen S. Leacy	+1 213-442-1463 ext. 97488	ABM022	Delivery by Thursday | Purple Extravagance Bouquet by Arabella Bouquets	1	0	1	SecondDay	Suzanne L. Leacy	2730 YORBA ST			SAN FRANCISCO	CA	94116-2849	US		So many years ago - yet it seems like yesterday. Flowers for your heart - lavender and white - soft colors and sweet scents for now until we meet again my love and my Lover  - now and forever. From Stephen S. Leacy	false		
114-4378394-8324230	17224407418762	2020-10-21T08:41:19+00:00	2020-10-21T01:41:19-07:00	2020-10-21T08:43:57+00:00	2020-10-22T06:59:59+00:00	-1	v230kcqjs2wqmzy@marketplace.amazon.com	kelita Guerrier	+1 213-442-1463 ext. 92372	ABR001	Delivery by Thursday | Arabella Bouquets 12 Stems of Fresh Cut Red Roses in a Free Designer Glass Vase	1	0	1	NextDay	Veronica Eritagne	760 ELDERT LN APT 11C			BROOKLYN	NY	11208-4225	US		Happy Birthday Tartat. We love you!!! From kelita Lloyd	false		
114-7756681-7967447	58950151822210	2020-10-21T09:06:15+00:00	2020-10-21T02:06:15-07:00	2020-10-21T09:30:02+00:00	2020-10-22T06:59:59+00:00	-1	12tcvjhw95pgqhc@marketplace.amazon.com	Signe A. McNeil	+1 929-436-4790 ext. 85922	ABM010	Delivery by Thursday | The Spring Fling Bouquet by Arabella Bouquets with a Free Designer Glass Vase	1	0	1	SecondDay	Pauline Harvey	6111 BURKE WAY			BAKERSFIELD	CA	93309-2877	US		Pauline, Happy 80th Birthday. Enjoy your day. Love, Signe Ann and Mac From Signe A. McNeil	false		
111-7211126-8001855	64442959543042	2020-10-21T09:08:10+00:00	2020-10-21T02:08:10-07:00	2020-10-21T09:35:37+00:00	2020-10-22T06:59:59+00:00	-1	m4z6kq23xc883hm@marketplace.amazon.com	Kerry Spaedy	+1 619-854-2705 ext. 61690	ABR0033	Delivery by Friday | Arabella Farm Direct Bouquet of 12 Fresh Cut Orange Roses with a Free Glass Vase	1	0	1	SecondDay	Shannon Klinger	15331 S JOLIET RD			PLAINFIELD	IL	60544-2215	US		Happy birthday to my beautiful daughter. From Mom	false		
111-5335585-9718609	19203434108378	2020-10-21T09:41:52+00:00	2020-10-21T02:41:52-07:00	2020-10-21T10:07:34+00:00	2020-10-22T06:59:59+00:00	-1	76bkqhqp2v89jz8@marketplace.amazon.com	SUE	+1 480-618-5344 ext. 43071	ABM022	Delivery by Thursday | Purple Extravagance Bouquet by Arabella Bouquets	1	0	1	SecondDay	Sarah Coie	47302 TIMBER RUN ST			NEW WATERFORD	OH	44445-8712	US			false		
114-6462210-8664263	46933293161834	2020-10-21T10:00:59+00:00	2020-10-21T03:00:59-07:00	2020-10-21T10:30:10+00:00	2020-10-22T06:59:59+00:00	-1	6883zjyylryvmw6@marketplace.amazon.com	Vineet Agrawal	+1 929-436-4790 ext. 22820	ABM010	Delivery by Thursday | The Spring Fling Bouquet by Arabella Bouquets with a Free Designer Glass Vase	1	0	1	SecondDay	Ritambhara Agrawal	4029 BOWSER AVE			DALLAS	TX	75219-3710	US		Happy Birthday. From Amit, Gunjan, Suhani, Ishika	false		
112-4946639-9084230	59137344876650	2020-10-21T10:50:55+00:00	2020-10-21T03:50:55-07:00	2020-10-21T10:55:35+00:00	2020-10-22T06:59:59+00:00	-1	ldfnqbb5xk09vrs@marketplace.amazon.com	Robert	+1 213-442-1463 ext. 07265	ABR001	Delivery by Thursday | Arabella Bouquets 12 Stems of Fresh Cut Red Roses in a Free Designer Glass Vase	1	0	1	NextDay	Robert Woodall	1508 LIBERTY AVE			LINCOLN PARK	MI	48146-3516	US			false		
114-9749938-1328214	26053421215426	2020-10-21T11:12:58+00:00	2020-10-21T04:12:58-07:00	2020-10-21T11:40:24+00:00	2020-10-22T06:59:59+00:00	-1	rx6jz3sr7z6crkx@marketplace.amazon.com	Jose Maria Alfaro	+1 415-851-9136 ext. 93679	ABM022	Delivery by Thursday | Purple Extravagance Bouquet by Arabella Bouquets	1	0	1	SecondDay	Casey Lee Sloan	2401 CHAPMAN BLVD			PUNTA GORDA	FL	33950-6803	US		I hope you finally like this gift!!  Love You chunker! De Jose Maria Alfaro	false		
112-8197277-6457032	22181489975178	2020-10-21T11:19:58+00:00	2020-10-21T04:19:58-07:00	2020-10-21T11:48:49+00:00	2020-10-22T06:59:59+00:00	-1	h94jx5zct3g57r4@marketplace.amazon.com	Becca Bell	+1 929-436-4790 ext. 19678	ABR0033	Delivery by Friday | Arabella Farm Direct Bouquet of 12 Fresh Cut Orange Roses with a Free Glass Vase	1	0	1	SecondDay	Pat Begalla	3050 BLACKWELL DR			VISTA	CA	92084-1424	US		Happy birthday Pat! From Love,  Becca	false		
113-4725503-4501832	07625414581578	2020-10-21T12:11:28+00:00	2020-10-21T05:11:28-07:00	2020-10-21T12:37:20+00:00	2020-10-24T06:59:59+00:00	-3	k8jw88ddggwzbp9@marketplace.amazon.com	Charlotte	+1 213-442-1463 ext. 74893	ABM0033	Delivery by Friday | Arabella Farm Direct Bouquet of Fresh Cut White Hydrangea with a Free Glass Vase	1	0	1	Expedited	Ann Lawson	294 UXBRIDGE			CHERRY HILL	NJ	08034-3725	US		Hi Ann, Happy Retirement! From Margaret	false		
111-0654668-1648237	51775733280338	2020-10-21T12:16:10+00:00	2020-10-21T05:16:10-07:00	2020-10-21T12:44:48+00:00	2020-10-24T06:59:59+00:00	-3	1vpwj9bvggttzlb@marketplace.amazon.com	Joshua Powell	+1 602-671-6610 ext. 16443	ABM020	Delivery by Thursday | The Sunset Bouquet by Arabella Bouquets	1	0	1	Expedited	Joshua Powell	205 HUNTER TRL			SOUTHERN PINES	NC	28387-2940	US		All my love for the greatest gift life gave me. “YOU DANIELLE!” From Joshua-	false		
114-6977249-9929834	62186517851874	2020-10-21T12:32:28+00:00	2020-10-21T05:32:28-07:00	2020-10-21T12:58:00+00:00	2020-10-22T06:59:59+00:00	-1	t2ngrsh49p57hkb@marketplace.amazon.com	Christine Overfors	+1 619-854-2705 ext. 99880	ABM022	Delivery by Thursday | Purple Extravagance Bouquet by Arabella Bouquets	1	0	1	SecondDay	DJ Himstedt	2235 W LELAND AVE			CHICAGO	IL	60625-2005	US		DJ,  I am so sorry for your loss. I just wanted you to know I'm thinking about you and praying for you. I'm always here if you need to reach out. Love you! From Christine Overfors	false		
111-6986746-1817041	56352733117778	2020-10-21T12:47:38+00:00	2020-10-21T05:47:38-07:00	2020-10-21T13:11:56+00:00	2020-10-22T06:59:59+00:00	-1	0vlznc8p56szjsc@marketplace.amazon.com	Betty Black	+1 929-436-4790 ext. 49338	ABR0022	Delivery by Thursday | Arabella Farm Direct Bouquet of 12 Fresh Cut Pink Roses with a Free Glass Vase	1	0	1	SecondDay	Anita Jones Gates	6405 THE TRL			STONE MOUNTAIN	GA	30087-4959	US		Thank you my sister, for helping my dear friends! Love you much, enjoy your weekend! From Betty Black	false		
113-2462133-1185818	39824355003450	2020-10-21T12:47:15+00:00	2020-10-21T05:47:15-07:00	2020-10-21T13:14:32+00:00	2020-10-22T06:59:59+00:00	-1	5xqh1ff2vy333kw@marketplace.amazon.com	Aleza Merkel	+1 213-442-1463 ext. 25332	ABM010	Delivery by Thursday | The Spring Fling Bouquet by Arabella Bouquets with a Free Designer Glass Vase	1	0	1	SecondDay	Linda Edie	1151 COLLEGE AVE	WEXNER HERITAGE VILLAGE REHAB RM 27		COLUMBUS	OH	43209-2827	US		WE LOVE YOU! XOXOXO From LOVE, Aleza & SHAUNA	false		
113-4325524-4674657	12061819614466	2020-10-21T12:54:00+00:00	2020-10-21T05:54:00-07:00	2020-10-21T13:23:48+00:00	2020-10-22T06:59:59+00:00	-1	nhqknnccsm9dkdv@marketplace.amazon.com	Lise Thiim	+1 929-436-4790 ext. 42053	ABR001	Delivery by Thursday | Arabella Bouquets 12 Stems of Fresh Cut Red Roses in a Free Designer Glass Vase	1	0	1	SecondDay	Lise Thiim	342 LYNSHIRE AVE			CLAYTON	NC	27527-9400	US			false		
112-5043828-0940254	53187656943066	2020-10-21T13:07:50+00:00	2020-10-21T06:07:50-07:00	2020-10-21T13:36:20+00:00	2020-10-22T06:59:59+00:00	-1	m1hd6ybp7znrh53@marketplace.amazon.com	Robert M. DiScipio	+1 602-671-6610 ext. 14029	ABM0033	Delivery by Friday | Arabella Farm Direct Bouquet of Fresh Cut White Hydrangea with a Free Glass Vase	1	0	1	SecondDay	Christine Discipio	8514 Skyland Drive			Longmont	CO	80503	US		Congratulations on our oldest daughter getting married! We have travelled an incredible path together and have four wonderful kids. I love you. Come visit? xoxo B From Robert M. DiScipio	false		
113-6114038-0114623	28883957686818	2020-10-21T13:19:12+00:00	2020-10-21T06:19:12-07:00	2020-10-21T13:48:37+00:00	2020-10-24T06:59:59+00:00	-3	5lrc6zd68b7lqxz@marketplace.amazon.com	Pam S. Brownfield	+1 929-436-4790 ext. 30307	ABM022	Delivery by Thursday | Purple Extravagance Bouquet by Arabella Bouquets	1	0	1	Expedited	Daniel and Ashley Brownfield	6301 MEADOWVISTA DR APT 917			CORPUS CHRISTI	TX	78414-2637	US		Happy Birthday sweet Ashley! We know these are early, but in all our travel madness we didn't want to lose track of time. We love you! From Mom and Dad Brownfield	false		
114-5872794-5205821	28240105271786	2020-10-21T13:22:11+00:00	2020-10-21T06:22:11-07:00	2020-10-21T13:51:15+00:00	2020-10-22T06:59:59+00:00	-1	14153cf5wqjfh7x@marketplace.amazon.com	Melanie Gaspar	+1 213-442-1463 ext. 37163	ABR001	Delivery by Thursday | Arabella Bouquets 12 Stems of Fresh Cut Red Roses in a Free Designer Glass Vase	1	0	1	SecondDay	Kym Gaspar	11013 101ST AVE			SOUTH RICHMOND HILL	NY	11419-1031	US		Thinking of you❤ From Melanie Gaspar	false		
111-0474601-0092256	38728318772346	2020-10-21T13:47:47+00:00	2020-10-21T06:47:47-07:00	2020-10-21T14:15:13+00:00	2020-10-24T06:59:59+00:00	-3	fmbrlmhqt3cqvck@marketplace.amazon.com	David Brown	+1 929-436-4790 ext. 62511	ABR0022	Delivery by Thursday | Arabella Farm Direct Bouquet of 12 Fresh Cut Pink Roses with a Free Glass Vase	1	0	1	Expedited	Ann Neuville	6333 MIAMI CT			LOVELAND	OH	45140-8062	US		HAPPY BIRTHDAY TO A WONDERFUL LADY AND FRIEND. I HOPE YOU HAVE A SUPER GOOD DAY 60 YEARS YOUNG-- WHAT A GREAT DAY DAVE From David Brown	false		
114-9254532-1921847	52212798405530	2020-10-21T14:00:44+00:00	2020-10-21T07:00:44-07:00	2020-10-21T14:16:15+00:00	2020-10-24T06:59:59+00:00	-3	1pdpd2gy2f2s4t2@marketplace.amazon.com	Olga Fedyna	+1 619-854-2705 ext. 34508	ABR0055	Arabella Farm Direct Bouquet of 12 Stems of Fresh Cut Hot Pink Roses in a Free Designer Glass Vase	1	0	1	Expedited	Joy Okpaleke	328 MARENGO AVE APT 3N			FOREST PARK	IL	60130-1647	US		Happy Birthday dear Joy!!! All the best to the best! Enjoy every moment of life and every minute of your birthday! Hugs and best wishes from Olga From Olga Fedyna	false		
112-2267242-6122644	46796574245890	2020-10-21T14:07:30+00:00	2020-10-21T07:07:30-07:00	2020-10-21T14:35:29+00:00	2020-10-24T06:59:59+00:00	-3	hytmj9tljvtbb32@marketplace.amazon.com	Marty SLayden	+1 213-442-1463 ext. 95869	ABM010	Delivery by Thursday | The Spring Fling Bouquet by Arabella Bouquets with a Free Designer Glass Vase	1	0	1	Expedited	Tommie Slayden	710 PINE HILL LN			NASHVILLE	TN	37221-5013	US		I hope these blooms help brighten your recovery. Love, Marty From Marty SLayden	false		
113-5076234-6111427	34840045348314	2020-10-21T14:16:01+00:00	2020-10-21T07:16:01-07:00	2020-10-21T14:46:41+00:00	2020-10-24T06:59:59+00:00	-3	5c04q1sz38jmfgs@marketplace.amazon.com	Alana Muhlsteff	+1 480-618-5344 ext. 64422	ABR0066	Arabella Bouquets 12 Stems of Fresh Cut White Roses in a Free Designer Glass Vase	1	0	1	Expedited	Alana Muhlsteff	1019 WRITERS WAY			CORNELIUS	NC	28031-8168	US			false		
111-3536568-2758658	31305042606050	2020-10-21T14:28:11+00:00	2020-10-21T07:28:11-07:00	2020-10-21T14:51:43+00:00	2020-10-22T06:59:59+00:00	-1	xzf2y6865s55v9b@marketplace.amazon.com	Gisele Friedrichs	+1 480-618-5344 ext. 03036	ABR0022	Delivery by Thursday | Arabella Farm Direct Bouquet of 12 Fresh Cut Pink Roses with a Free Glass Vase	1	0	1	SecondDay	Carol Leone	6931 CONSERVATORY LN			CHARLOTTE	NC	28210-3497	US			false		
113-0602021-2517048	02409411108146	2020-10-21T14:24:38+00:00	2020-10-21T07:24:38-07:00	2020-10-21T14:53:29+00:00	2020-10-22T06:59:59+00:00	-1	vdjnfssgr0cxsnv@marketplace.amazon.com	Natali	+1 602-671-6610 ext. 32449	ABM010	Delivery by Thursday | The Spring Fling Bouquet by Arabella Bouquets with a Free Designer Glass Vase	1	0	1	SecondDay	Natali Tesche-Ricciardi	167 Freyer Drive			Marietta	GA	30060	US		Dear Ann, happy mother-in-law day! You have been my rock this last year, and I couldn't have made it through without you. Thank you for being you! From Love you bunches, Natali.	false		
114-6801720-5487437	44074858226562	2020-10-21T14:32:15+00:00	2020-10-21T07:32:15-07:00	2020-10-21T15:01:19+00:00	2020-10-22T06:59:59+00:00	-1	766jsgz37dsp899@marketplace.amazon.com	Ben Cooper	+1 619-854-2705 ext. 28168	ABM024	Delivery by Thursday | The Beauty of Color Bouquet by Arabella Bouquets	1	0	1	SecondDay	Benjamin Cooper	9606 S TRACE RD			MILTON	FL	32583-9273	US		Enjoy your gift! From Ben Cooper	false		
114-6046860-8497041	14070972691874	2020-10-21T14:51:48+00:00	2020-10-21T07:51:48-07:00	2020-10-21T15:13:05+00:00	2020-10-22T06:59:59+00:00	-1	x7yzsmpjlfxvhfx@marketplace.amazon.com	Britiney Arnold	+1 602-671-6610 ext. 51862	ABR0022	Delivery by Thursday | Arabella Farm Direct Bouquet of 12 Fresh Cut Pink Roses with a Free Glass Vase	1	0	1	SecondDay	LaTreka Jones	507 N GILL ST			ZEBULON	NC	27597-2743	US		Happy Birthday BM , Hope You Enjoy This Wonderful Day . Relax and Let That Little Hair Down . WE Love You ! From Your Chocolate BM !	false		
112-5471193-0420258	37718535239634	2020-10-21T14:48:45+00:00	2020-10-21T07:48:45-07:00	2020-10-21T15:18:50+00:00	2020-10-22T06:59:59+00:00	-1	xd2m112tmwt52s7@marketplace.amazon.com	Kolece	+1 213-442-1463 ext. 56321	ABR0022	Delivery by Thursday | Arabella Farm Direct Bouquet of 12 Fresh Cut Pink Roses with a Free Glass Vase	1	0	1	SecondDay	Doris McBride	5100 Villagewood Drive			Sacramento	CA	95823	US			false		
114-6612798-3985069	32446003070226	2020-10-21T15:01:16+00:00	2020-10-21T08:01:16-07:00	2020-10-21T15:28:14+00:00	2020-10-22T06:59:59+00:00	-1	f7s4j60jshb11p4@marketplace.amazon.com	Michele Binkley	+1 602-671-6610 ext. 36060	ABR0022	Delivery by Thursday | Arabella Farm Direct Bouquet of 12 Fresh Cut Pink Roses with a Free Glass Vase	1	0	1	SecondDay	Brandon Binkley	1178 WINDSOR ESTATES CT			WESTFIELD	IN	46074-7003	US		Happy Shower Brandon and Claire!   We love you and can’t wait to meet baby girl! From Love, Mom, Dad & Brooke	false		
114-6093491-9418619	00711816858690	2020-10-21T15:26:09+00:00	2020-10-21T08:26:09-07:00	2020-10-21T15:53:57+00:00	2020-10-22T06:59:59+00:00	-1	kpcqj87zz9v0dmm@marketplace.amazon.com	Sharon	+1 213-442-1463 ext. 67465	ABM022	Delivery by Thursday | Purple Extravagance Bouquet by Arabella Bouquets	1	0	1	SecondDay	Irene Bowen	9 MONTVALE CT			SILVER SPRING	MD	20904-1222	US		Irene, hope this brightens your day.  Feel better soon! Love, C. Sharon and C. Jeff From Sharon and Jeff	false		
112-9082437-9178609	25422598151226	2020-10-21T15:59:18+00:00	2020-10-21T08:59:18-07:00	2020-10-21T16:26:59+00:00	2020-10-24T06:59:59+00:00	-3	b75m8sdp9d8l3q1@marketplace.amazon.com	Jeffrey L Pilson Jr	+1 619-854-2705 ext. 52558	ABM022	Delivery by Thursday | Purple Extravagance Bouquet by Arabella Bouquets	1	0	1	Expedited	Jackie Morse	503 BAY GREEN DR			ARNOLD	MD	21012-2043	US		Happy birthday!  We love you. From Jessica, Jeff and the girls	false		
114-8513257-3781860	62700840951274	2020-10-21T16:04:22+00:00	2020-10-21T09:04:22-07:00	2020-10-21T16:32:54+00:00	2020-10-22T06:59:59+00:00	-1	t10czv2p9qxf8nq@marketplace.amazon.com	sharon darr	+1 929-436-4790 ext. 60820	ABR0022	Delivery by Thursday | Arabella Farm Direct Bouquet of 12 Fresh Cut Pink Roses with a Free Glass Vase	1	0	1	SecondDay	Betty Murray	1413 EMPIRE ST			FAIRFIELD	CA	94533-4721	US		Dear Betty, Hope these roses make your homecoming more special.  Be safe and careful. I need my guru. From Sharon, David and Ariana	false		
114-2405475-7133812	55115080701738	2020-10-21T16:06:45+00:00	2020-10-21T09:06:45-07:00	2020-10-21T16:35:39+00:00	2020-10-22T06:59:59+00:00	-1	g118ppcxpkb6s3q@marketplace.amazon.com	Brad Bryan	+1 619-854-2705 ext. 92731	ABM025	Delivery by Friday | The Fell for You Bouquet by Arabella Bouquets	1	0	1	SecondDay	Linda Foley	5316 SORGHUM DR			FT WORTH	TX	76179-8140	US		Hope your feeling better and that these brighten your day. Love, Becca and Charlie From Becca Sullivan	false		
112-1564370-2050661	27279062888178	2020-10-21T16:21:02+00:00	2020-10-21T09:21:02-07:00	2020-10-21T16:42:17+00:00	2020-10-22T06:59:59+00:00	-1	hvppwdkxg8g44lx@marketplace.amazon.com	Kevin Coursin	+1 213-442-1463 ext. 78671	ABM022	Delivery by Thursday | Purple Extravagance Bouquet by Arabella Bouquets	1	0	1	SecondDay	Shirley Madden	W4978 ARROWHEAD CT			SHAWANO	WI	54166-1810	US		HAPPY BIRTHDAY MOM! Enjoy your special day. From Laurie, Kevin, LouAnne and Jon	false		
111-9316326-7801815	58497948020314	2020-10-21T16:12:04+00:00	2020-10-21T09:12:04-07:00	2020-10-21T16:42:34+00:00	2020-10-24T06:59:59+00:00	-3	x5rktp3nvb46gp4@marketplace.amazon.com	jonathan hinderliter	+1 619-854-2705 ext. 34638	ABM022	Delivery by Thursday | Purple Extravagance Bouquet by Arabella Bouquets	1	0	1	Expedited	Jonathan Hinderliter	2604 31ST ST			MOLINE	IL	61265-5308	US			false		
114-3415024-5081832	37438280525554	2020-10-21T16:30:18+00:00	2020-10-21T09:30:18-07:00	2020-10-21T16:53:26+00:00	2020-10-22T06:59:59+00:00	-1	2twsy21cssp8d9q@marketplace.amazon.com	John Angell	+1 602-671-6610 ext. 21610	ABM026	Delivery by Friday | The Amour Bouquet by Arabella Bouquets	1	0	1	SecondDay	Yipsi Molero	139 HIGHLAND AVE APT 1			FITCHBURG	MA	01420-3409	US		Thank you for the beautiful Birthday gifts. We are all very grateful for all you do, Love love xxoo From Polly	false		
112-3476054-5482604	11739376539770	2020-10-21T16:26:44+00:00	2020-10-21T09:26:44-07:00	2020-10-21T16:56:43+00:00	2020-10-22T06:59:59+00:00	-1	r73cftpkk8c5wv3@marketplace.amazon.com	willi hermann	+1 602-671-6610 ext. 19595	ABM022	Delivery by Thursday | Purple Extravagance Bouquet by Arabella Bouquets	1	0	1	SecondDay	Willi Hermann	1609 JOLLA DEL SOL			EL PASO	TX	79911-3005	US			false		
111-3292209-4803448	49190760470506	2020-10-21T16:28:15+00:00	2020-10-21T09:28:15-07:00	2020-10-21T16:57:43+00:00	2020-10-24T06:59:59+00:00	-3	p2pg2fg5nfnw0rw@marketplace.amazon.com	Christine Bobek	+1 213-442-1463 ext. 68212	ABM010	Delivery by Thursday | The Spring Fling Bouquet by Arabella Bouquets with a Free Designer Glass Vase	1	0	1	Expedited	Christine Bobek/Judith Tiberio	16 WANDA ST			NARRAGANSETT	RI	02882-3325	US			false		
