order-id	order-item-id	purchase-date	payments-date	reporting-date	promise-date	days-past-promise	buyer-email	buyer-name	buyer-phone-number	sku	product-name	quantity-purchased	quantity-shipped	quantity-to-ship	ship-service-level	recipient-name	ship-address-1	ship-address-2	ship-address-3	ship-city	ship-state	ship-postal-code	ship-country	gift-wrap-type	gift-message-text	is-business-order	purchase-order-number	price-designation
114-0028935-4747443	22927385740114	2020-10-21T17:25:34+00:00	2020-10-21T10:25:34-07:00	2020-10-21T17:53:34+00:00	2020-10-24T06:59:59+00:00	-2	wjkmcqzjs0dvbzr@marketplace.amazon.com	Mary A Burke	+1 619-854-2705 ext. 86131	ABR0022	Delivery by Thursday | Arabella Farm Direct Bouquet of 12 Fresh Cut Pink Roses with a Free Glass Vase	1	0	1	Expedited	Mary A Burke	45 EASTERN PROMENADE APT 10C			PORTLAND	ME	04101-4824	US		Dear Teresa, Pink, the color of hope.  We'll overcome this as we have so many things ... together!   Love you and Hugging you!!  Mary From Mary A Burke	false		
112-7503979-6214615	52237022406050	2020-10-21T17:35:49+00:00	2020-10-21T10:35:49-07:00	2020-10-21T18:04:31+00:00	2020-10-24T06:59:59+00:00	-2	zjhgth092mwp5lw@marketplace.amazon.com	Paul Camacho	+1 213-442-1463 ext. 26818	ABM031	Delivery by Friday | The Harvest Moon Bouquet by Arabella Bouquets	1	0	1	Expedited	Paul Camacho	8441 E KETCHUM WAY			ANAHEIM	CA	92808-2367	US		Enjoy the flowers, LOML You deserve so much more and in time we will get it done! All my love From Paul Camacho	false		
112-3189841-7915469	34496838956626	2020-10-21T17:46:42+00:00	2020-10-21T10:46:42-07:00	2020-10-21T18:13:02+00:00	2020-10-24T06:59:59+00:00	-2	kr6g5sf35h6s5qf@marketplace.amazon.com	Katelyn Kane	+1 602-671-6610 ext. 01864	ABM025	Delivery by Monday | The Fell for You Bouquet by Arabella Bouquets	1	0	1	Expedited	The Popjoy Family	474 WESTWOOD DR			WEST DEPTFORD	NJ	08096-3130	US		We are so sorry for your loss. Keeping your family in our prayers. We love you all so much! From Sophie, Katelyn and Cera	false		
111-3747228-7704268	36625536309194	2020-10-21T17:55:48+00:00	2020-10-21T10:55:48-07:00	2020-10-21T18:26:27+00:00	2020-10-24T06:59:59+00:00	-2	cjgqx70fwvdq2zh@marketplace.amazon.com	Ryan Cunningham	+1 480-618-5344 ext. 15736	ABR001	Delivery by Friday | Arabella Bouquets 12 Stems of Fresh Cut Red Roses in a Free Designer Glass Vase	1	0	1	Expedited	Ryan Cunningham	1276 POULOS RD			INDIANA	PA	15701-5941	US			false		
112-2061358-2736213	33863601499354	2020-10-21T18:09:05+00:00	2020-10-21T11:09:05-07:00	2020-10-21T18:39:00+00:00	2020-10-24T06:59:59+00:00	-2	cmjz986l1zk3nky@marketplace.amazon.com	JQ	+1 619-854-2705 ext. 51924	ABR0022	Delivery by Friday | Arabella Farm Direct Bouquet of 12 Fresh Cut Pink Roses with a Free Glass Vase	1	0	1	Expedited	Joyce Spencer	68 Alpine Village Drive			Alpine	Ca	91901	US			false		
114-5568841-7604214	37094325689066	2020-10-21T18:22:57+00:00	2020-10-21T11:22:57-07:00	2020-10-21T18:48:31+00:00	2020-10-24T06:59:59+00:00	-2	9hlz5ymjlrs7cqd@marketplace.amazon.com	Susan D Altman	+1 480-618-5344 ext. 90491	ABM020	Delivery by Friday | The Sunset Bouquet by Arabella Bouquets	1	0	1	Expedited	Dr Beverly Daniel	34 COTTON HOPE LN			COLUMBIA	SC	29209-0821	US		We all love u very much especially Sandy From Susan Charles David	false		
114-0144015-0941066	15584023272466	2020-10-21T18:30:18+00:00	2020-10-21T11:30:18-07:00	2020-10-21T19:00:20+00:00	2020-10-24T06:59:59+00:00	-2	kt5c6t374ln0xzz@marketplace.amazon.com	Ann C. Ross	+1 929-436-4790 ext. 70388	ABR0022	Delivery by Friday | Arabella Farm Direct Bouquet of 12 Fresh Cut Pink Roses with a Free Glass Vase	1	0	1	Expedited	Jessica Berben	15 PARK EDGE LN			DELMAR	NY	12054-9619	US			false		
111-2083959-4941840	29497038772290	2020-10-21T18:58:05+00:00	2020-10-21T11:58:05-07:00	2020-10-21T19:00:48+00:00	2020-10-23T06:59:59+00:00	-1	yhhc3kxqn32f3v9@marketplace.amazon.com	Mike Davidson	+1 619-854-2705 ext. 70892	ABR0022	Delivery by Friday | Arabella Farm Direct Bouquet of 12 Fresh Cut Pink Roses with a Free Glass Vase	1	0	1	NextDay	Judy Fruland	86123 MEADOWFIELD BLUFFS RD			YULEE	FL	32097-8412	US		For my BFF on her birthday!  69 & holding!!  Love you to the moon!! From Diane & Mike	false		
111-9358011-8102635	46351988595098	2020-10-21T18:56:02+00:00	2020-10-21T11:56:02-07:00	2020-10-21T19:04:24+00:00	2020-10-24T06:59:59+00:00	-2	8qcf34s8bbszf4x@marketplace.amazon.com	Yen S chou	+1 929-436-4790 ext. 39437	ABM010	Delivery by Friday | The Spring Fling Bouquet by Arabella Bouquets with a Free Designer Glass Vase	1	0	1	Expedited	Nita Zhou/Edward Chen	10 CITY PT APT 35J			BROOKLYN	NY	11201-6993	US		To Our Dear Nita,  Happy 30-Year-Old Birthday.   We love you. From Daddy and Mommy	false		
111-4599571-3070624	06391422194218	2020-10-21T19:01:48+00:00	2020-10-21T12:01:48-07:00	2020-10-21T19:07:01+00:00	2020-10-23T06:59:59+00:00	-1	zxsqs1jns72szq7@marketplace.amazon.com	Anca Grama	+1 415-851-9136 ext. 86971	ABR0022	Delivery by Friday | Arabella Farm Direct Bouquet of 12 Fresh Cut Pink Roses with a Free Glass Vase	1	0	1	NextDay	Mia Cazan	2406 FAIRVIEW AVE			LYNCHBURG	VA	24501-4646	US			false		
113-0347886-3089815	15664962862530	2020-10-21T19:20:19+00:00	2020-10-21T12:20:19-07:00	2020-10-21T19:21:11+00:00	2020-10-23T06:59:59+00:00	-1	wb3d3xsgjbfm78q@marketplace.amazon.com	Russell Worcester	+1 602-671-6610 ext. 72285	ABR0022	Delivery by Friday | Arabella Farm Direct Bouquet of 12 Fresh Cut Pink Roses with a Free Glass Vase	1	0	1	NextDay	Linda Tremper	13647 171ST AVE SE			RENTON	WA	98059-7031	US		10/25 --- Happy Birthday Sweets! From Russell Worcester	false		
111-5152680-5425041	13578014939714	2020-10-21T19:25:46+00:00	2020-10-21T12:25:46-07:00	2020-10-21T19:26:38+00:00	2020-10-23T06:59:59+00:00	-1	kd9c8ckdd8xxqbq@marketplace.amazon.com	Wanda S. Allison	+1 213-442-1463 ext. 58155	ABR0055	Arabella Farm Direct Bouquet of 12 Stems of Fresh Cut Hot Pink Roses in a Free Designer Glass Vase	1	0	1	NextDay	Caycie Allison	111 RUCKER LN APT 4212			STATESBORO	GA	30458-3330	US			false		
112-0961341-7588267	69743823223346	2020-10-21T19:24:41+00:00	2020-10-21T12:24:41-07:00	2020-10-21T19:26:59+00:00	2020-10-23T06:59:59+00:00	-1	ln9g4lnx8tjgq29@marketplace.amazon.com	Heather Pence	+1 929-436-4790 ext. 45012	ABR0055	Arabella Farm Direct Bouquet of 12 Stems of Fresh Cut Hot Pink Roses in a Free Designer Glass Vase	1	0	1	NextDay	Andrea And Matt Berns	5122 HIAWATHA AVE			MINNEAPOLIS	MN	55417-1643	US		Sending good vibes and hoping for a speedy recovery from 3502!! ::Side hugs:: From Heather Pence	false		
114-4987776-9249831	70029719283866	2020-10-21T19:01:44+00:00	2020-10-21T12:01:44-07:00	2020-10-21T19:28:59+00:00	2020-10-24T06:59:59+00:00	-2	pvwvm5z5cz8b827@marketplace.amazon.com	Walter Steinhoff	+1 619-854-2705 ext. 60296	ABR012	Arabella Farm Direct Bouquet of 18 Fresh Cut Pink Roses with a Free Glass Vase	1	0	1	Expedited	Jane Tuomala	112 WILDWOOD CIR			BLOOMINGBURG	NY	12721-4118	US		Happy Birthday!! Much Love!! From GG and GP	false		
112-3719437-7266647	04854195701626	2020-10-21T19:32:51+00:00	2020-10-21T12:32:51-07:00	2020-10-21T19:33:49+00:00	2020-10-23T06:59:59+00:00	-1	91mk8t1sq5r00td@marketplace.amazon.com	Paula Roman	+1 480-618-5344 ext. 65598	ABR0022	Delivery by Friday | Arabella Farm Direct Bouquet of 12 Fresh Cut Pink Roses with a Free Glass Vase	1	0	1	NextDay	Karen Gonder	800 S 15TH ST APT 1017			SEBRING	OH	44672-2093	US		Kit, since we like to bring flowers when we visit but ran out of time, thought this would work out better anyways since it will be a reminder of us being there the day before!! :-)  Love, Jackie & Christa From Paula Roman	false		
112-9467914-6133806	02380540720154	2020-10-21T19:31:00+00:00	2020-10-21T12:31:00-07:00	2020-10-21T19:34:54+00:00	2020-10-23T06:59:59+00:00	-1	30bxx5ytvkwg5pc@marketplace.amazon.com	Rebecca S. Wack	+1 602-671-6610 ext. 39800	ABR0022	Delivery by Friday | Arabella Farm Direct Bouquet of 12 Fresh Cut Pink Roses with a Free Glass Vase	1	0	1	NextDay	Emily wack	400 UCCELLI DR APT 4304			REDWOOD CITY	CA	94063-3041	US		HAPPY BIRTHDAY!  LOVE YOU!! From Rebecca S. Wack	false		
114-3138562-2613067	23541975962322	2020-10-21T19:38:41+00:00	2020-10-21T12:38:41-07:00	2020-10-21T19:39:32+00:00	2020-10-23T06:59:59+00:00	-1	mrx90m9wbgff4bk@marketplace.amazon.com	marlene perez	+1 619-854-2705 ext. 42028	ABR0055	Arabella Farm Direct Bouquet of 12 Stems of Fresh Cut Hot Pink Roses in a Free Designer Glass Vase	1	0	1	NextDay	Ms. Denise Buonanno	2095 SPRING GROVE AVE			LEXINGTON	KY	40503-1711	US			false		
114-5488431-4218626	59413541316842	2020-10-21T19:48:00+00:00	2020-10-21T12:48:00-07:00	2020-10-21T19:49:35+00:00	2020-10-23T06:59:59+00:00	-1	9jbq8t4m4x59hxz@marketplace.amazon.com	Nikki	+1 929-436-4790 ext. 38745	ABR0022	Delivery by Friday | Arabella Farm Direct Bouquet of 12 Fresh Cut Pink Roses with a Free Glass Vase	1	0	1	NextDay	Angelica Alaniz	9477 W DEANNA DR			PEORIA	AZ	85382-8327	US		Congratulations! Angelica, enjoy the flowers before you say "I DO".  Nikki Bruggman From Nikki	false		
111-1454850-4125035	26874776989898	2020-10-21T19:27:56+00:00	2020-10-21T12:27:56-07:00	2020-10-21T19:51:34+00:00	2020-10-24T06:59:59+00:00	-2	h616yd9qw8fl9sq@marketplace.amazon.com	DEBBIE YOUSEF	+1 480-618-5344 ext. 25746	ABM010	Delivery by Friday | The Spring Fling Bouquet by Arabella Bouquets with a Free Designer Glass Vase	1	0	1	Expedited	DEBBIE YOUSEF	12147 LAKELAND RD SPC 53			SANTA FE SPRINGS	CA	90670-5966	US		HAPPY BIRTHDAY Sweetie!  I love you yesterday, today, tomorrow and forever always! Your the best!  Your Sweetheart forever From DEBBIE	false		
113-9109490-7594653	54809121655114	2020-10-21T19:34:57+00:00	2020-10-21T12:34:57-07:00	2020-10-21T19:55:10+00:00	2020-10-24T06:59:59+00:00	-2	k4pxx269l7cqwmp@marketplace.amazon.com	Kate Dutton	+1 619-854-2705 ext. 56260	ABM021	Delivery by Monday | The Joyous Bouquet by Arabella Bouquets	1	0	1	Expedited	Mrs J Frank	5550 N FIGARDEN DR APT 138			FRESNO	CA	93722-3864	US		Dear Jeanne, wishing you a very happy birthday from a long distance away. We're so sorry we can't be with you, but looking forward to hopefully seeing you and celebrating properly next year. Much love, Kate & Claire Xxx From Kate Dutton	false		
113-1366459-4923436	52733193132162	2020-10-21T19:44:17+00:00	2020-10-21T12:44:17-07:00	2020-10-21T20:11:30+00:00	2020-10-24T06:59:59+00:00	-2	58yhfj3kh67rzhk@marketplace.amazon.com	Stella Rogers	+1 213-442-1463 ext. 86040	ABM029	Delivery by Monday | The Day Dream Bouquet by Arabella Bouquets	1	0	1	Expedited	Julia Rogers	75 S HILLSIDE AVE			ELMSFORD	NY	10523-3620	US		Enjoy your gift! From Stella Rogers	false		
113-1405503-0694614	18753844239066	2020-10-21T20:21:21+00:00	2020-10-21T13:21:21-07:00	2020-10-21T20:24:55+00:00	2020-10-23T06:59:59+00:00	-1	hm9h94xnzp2rzrw@marketplace.amazon.com	robert ingenito	+1 415-851-9136 ext. 04659	ABR0022	Delivery by Friday | Arabella Farm Direct Bouquet of 12 Fresh Cut Pink Roses with a Free Glass Vase	1	0	1	NextDay	robert ingenito	150 TOURNAMENT DR			MONROE TWP	NJ	08831-2538	US		To my beautiful wife Maryann: Happy 65th birthday! Love you forever,  Bob From robert ingenito	false		
114-9565768-4390633	45841176747522	2020-10-21T20:15:53+00:00	2020-10-21T13:15:53-07:00	2020-10-21T20:38:23+00:00	2020-10-24T06:59:59+00:00	-2	62wnq28mnddmk98@marketplace.amazon.com	LISA BRINKMANN	+1 602-671-6610 ext. 86601	ABM022	Delivery by Friday | Purple Extravagance Bouquet by Arabella Bouquets	1	0	1	Expedited	Carol Cloutier	PROFILE GEAR 4777 BROTT RD			RUBY	MI	48049-2317	US		Dear Carol, Wishing you a Happy Birthday!!! Love, Tom, Lisa, Tommy & Matthew xoxoxoxo From LISA BRINKMANN	false		
112-9357977-9914608	46823743377658	2020-10-21T20:19:44+00:00	2020-10-21T13:19:44-07:00	2020-10-21T20:47:08+00:00	2020-10-24T06:59:59+00:00	-2	djwyq02zfxz99yc@marketplace.amazon.com	wilbur cabell	+1 213-442-1463 ext. 77532	ABM022	Delivery by Friday | Purple Extravagance Bouquet by Arabella Bouquets	1	0	1	Expedited	danielle swim	625 FOXFIRE RD			ELIZABETHTOWN	KY	42701-9412	US		Enjoy your gift! Congratulations. Love ya ...mom and dad From wilbur cabell	false		
114-2383154-1944248	07265877301450	2020-10-21T20:26:47+00:00	2020-10-21T13:26:47-07:00	2020-10-21T20:52:54+00:00	2020-10-24T06:59:59+00:00	-2	xw6vf0vjhkzldbt@marketplace.amazon.com	Cal Paterson	61414416049	ABM022	Delivery by Friday | Purple Extravagance Bouquet by Arabella Bouquets	1	0	1	Expedited	Freya Wilson	922 NW 63RD ST			SEATTLE	WA	98107-2214	US		Dear Freya, Ben and Marigold, congratulations on the addition of the gorgeous Kit to your beautiful family.  Love Cal Calli Zali and Roxy. From Paterbrowns	false		
114-5348501-0317854	00997202017658	2020-10-21T20:49:19+00:00	2020-10-21T13:49:19-07:00	2020-10-21T20:54:09+00:00	2020-10-23T06:59:59+00:00	-1	vyl9400b3l5wzc4@marketplace.amazon.com	Darin R Shebesta	+1 619-854-2705 ext. 66104	ABR0022	Delivery by Friday | Arabella Farm Direct Bouquet of 12 Fresh Cut Pink Roses with a Free Glass Vase	1	0	1	NextDay	Ann Shebesta	12924 SANDIA POINT RD NE			ALBUQUERQUE	NM	87111-8198	US		Mom,  Happy Birthday to you!  Thank you for who you are and for being the source of my life.  I love you! From Darin	false		
112-8595334-6961829	09825932052018	2020-10-21T20:56:11+00:00	2020-10-21T13:56:11-07:00	2020-10-21T20:56:55+00:00	2020-10-23T06:59:59+00:00	-1	87lyb0rcvmj9nq1@marketplace.amazon.com	Afadameh Ashimizo	+1 619-854-2705 ext. 80117	ABR0022	Delivery by Friday | Arabella Farm Direct Bouquet of 12 Fresh Cut Pink Roses with a Free Glass Vase	1	0	1	NextDay	Mary Anugo	14906 SUGAR MIST LN			SUGAR LAND	TX	77498-4064	US		Happy birthday Anuli. I hope you enjoy your day. From Afadameh Ashimizo	false		
111-3023329-3458634	44863197818810	2020-10-21T20:32:42+00:00	2020-10-21T13:32:42-07:00	2020-10-21T21:02:50+00:00	2020-10-24T06:59:59+00:00	-2	1d67hwfq74w8qk7@marketplace.amazon.com	Gary c Griffith	+1 480-618-5344 ext. 90067	ABR001	Delivery by Friday | Arabella Bouquets 12 Stems of Fresh Cut Red Roses in a Free Designer Glass Vase	1	0	1	Expedited	Linda Lane	1710 ECHOLS ST APT 4			BRYAN	TX	77801-1255	US			true		Business Price
112-3199050-7519438	57723330059834	2020-10-21T21:02:49+00:00	2020-10-21T14:02:49-07:00	2020-10-21T21:05:48+00:00	2020-10-23T06:59:59+00:00	-1	1wsfx3b1zlvm96r@marketplace.amazon.com	Nora Alexander	+1 213-442-1463 ext. 46320	ABR0022	Delivery by Friday | Arabella Farm Direct Bouquet of 12 Fresh Cut Pink Roses with a Free Glass Vase	1	0	1	NextDay	Lillian O'Connor	300 SEA URCHIN CV			SNEADS FERRY	NC	28460-9181	US		Happy 80th Birthday!!! We hope your day is a special as your are! We love you!!! From Will, Nora, Bill, Spike & Oreo	false		
113-3509183-4242651	08712045260658	2020-10-21T21:06:13+00:00	2020-10-21T14:06:13-07:00	2020-10-21T21:07:07+00:00	2020-10-23T06:59:59+00:00	-1	3lnsxfbbcd9s5sb@marketplace.amazon.com	Azusa	+1 619-854-2705 ext. 60870	ABR0022	Delivery by Friday | Arabella Farm Direct Bouquet of 12 Fresh Cut Pink Roses with a Free Glass Vase	1	0	1	NextDay	Shanice Wheeler	6708 S WAKEFIELD WAY			WEST JORDAN	UT	84081-8161	US		So happy to celebrate this milestone with you!  Our appreciation for you is way more than a bouquet, but we still wanted to brighten up your day — just like you have done for us! From Azusa & Reis From Azusa & Reis	false		
112-9672217-2705860	47805890600330	2020-10-21T20:43:26+00:00	2020-10-21T13:43:26-07:00	2020-10-21T21:07:27+00:00	2020-10-24T06:59:59+00:00	-2	gsxk42p4tx3bqx3@marketplace.amazon.com	tracey rudman	+1 619-854-2705 ext. 24285	ABR0033	Delivery by Monday | Arabella Farm Direct Bouquet of 12 Fresh Cut Orange Roses with a Free Glass Vase	1	0	1	Expedited	Gale Marshall	13982 IPAVA DR			POWAY	CA	92064-3421	US		Gale,  Dear Friend, Thinking of you always and hoping these remind you of how loved and special you are.  Have a great day! Love-Tracey From tracey rudman	false		
112-3298203-2745042	70002341871146	2020-10-21T21:25:18+00:00	2020-10-21T14:25:18-07:00	2020-10-21T21:27:45+00:00	2020-10-23T06:59:59+00:00	-1	5wsxt7xr8qnjltt@marketplace.amazon.com	Tung Doan	+1 480-618-5344 ext. 21827	ABR0022	Delivery by Friday | Arabella Farm Direct Bouquet of 12 Fresh Cut Pink Roses with a Free Glass Vase	1	0	1	NextDay	Sherry Luong	9667 SEVILLE WAY			CYPRESS	CA	90630-6805	US			false		
113-0102756-8157015	31397108462402	2020-10-21T21:31:29+00:00	2020-10-21T14:31:29-07:00	2020-10-21T21:36:40+00:00	2020-10-23T06:59:59+00:00	-1	wh0lq0v5w6pw58k@marketplace.amazon.com	Adrienne Douglas	+1 213-442-1463 ext. 49498	ABR0022	Delivery by Friday | Arabella Farm Direct Bouquet of 12 Fresh Cut Pink Roses with a Free Glass Vase	1	0	1	NextDay	James & Waldine Walker	Legacy Oaks of South Austin	7501 US 290		Austin	Texas	78736	US			false		
113-9938609-7854633	02363490941402	2020-10-21T21:40:38+00:00	2020-10-21T14:40:38-07:00	2020-10-21T21:41:33+00:00	2020-10-23T06:59:59+00:00	-1	4md27yygk7bpq25@marketplace.amazon.com	Cindy & Dirk van Klaveren	+1 619-854-2705 ext. 60893	ABR0022	Delivery by Friday | Arabella Farm Direct Bouquet of 12 Fresh Cut Pink Roses with a Free Glass Vase	1	0	1	NextDay	Danielle Golfieri	9343 NOTRE DAME AVE			CHATSWORTH	CA	91311-6344	US		Dear Danielle, HAPPY BIRTHDAY! Love, Mom and Dad From Cindy & Dirk van Klaveren	false		
112-6229694-7972221	17113834055874	2020-10-21T21:27:09+00:00	2020-10-21T14:27:09-07:00	2020-10-21T21:54:21+00:00	2020-10-24T06:59:59+00:00	-2	sxrwhg47rts3t68@marketplace.amazon.com	Linda Patton	+1 619-854-2705 ext. 91822	ABM022	Delivery by Friday | Purple Extravagance Bouquet by Arabella Bouquets	1	0	1	Expedited	Michelle Shelton	3389 N THOMASTOWN RD			AUSTIN	IN	47102-8925	US		FUCK COVID!  Love Linda Patton From Linda Patton	false		
111-7707439-6204218	29588263284946	2020-10-21T21:29:16+00:00	2020-10-21T14:29:16-07:00	2020-10-21T21:56:24+00:00	2020-10-24T06:59:59+00:00	-2	0dqyt96zqbpjkks@marketplace.amazon.com	Christian camarena	+1 619-854-2705 ext. 90808	ABR001	Delivery by Friday | Arabella Bouquets 12 Stems of Fresh Cut Red Roses in a Free Designer Glass Vase	1	0	1	Expedited	Edith O	3645 E 4TH ST			LOS ANGELES	CA	90063-3916	US			false		
112-0418743-5662653	55802226396962	2020-10-21T21:53:38+00:00	2020-10-21T14:53:38-07:00	2020-10-21T21:59:06+00:00	2020-10-23T06:59:59+00:00	-1	wj61vcw7fh01zx4@marketplace.amazon.com	saritha	+1 619-854-2705 ext. 01379	ABR0022	Delivery by Friday | Arabella Farm Direct Bouquet of 12 Fresh Cut Pink Roses with a Free Glass Vase	1	0	1	NextDay	Poojitha Gecka	119 ALLERTON DR			SCHAUMBURG	IL	60194-5167	US			false		
112-0095242-2037051	35787584143226	2020-10-21T22:03:44+00:00	2020-10-21T15:03:44-07:00	2020-10-21T22:06:04+00:00	2020-10-23T06:59:59+00:00	-1	f3nhv69dtrr47kw@marketplace.amazon.com	Princess Kelly	+1 619-854-2705 ext. 76740	ABR0055	Arabella Farm Direct Bouquet of 12 Stems of Fresh Cut Hot Pink Roses in a Free Designer Glass Vase	1	0	1	NextDay	Jen Krey	492 MOORE AVE			BUFFALO	NY	14223-1757	US		Sorry for your loss  Kelly and John And the whole Krantz gang From Me	false		
111-0431271-2542662	03945698450394	2020-10-21T21:37:52+00:00	2020-10-21T14:37:52-07:00	2020-10-21T22:06:27+00:00	2020-10-24T06:59:59+00:00	-2	f8gjtvflthcqjjk@marketplace.amazon.com	Tom Barnum	+1 619-854-2705 ext. 25985	ABM020	Delivery by Monday | The Sunset Bouquet by Arabella Bouquets	1	0	1	Expedited	Diane Barnum	105 HETHERTON DR			PITTSBURGH	PA	15237-1719	US		Happy Birthday! I love you Mom From Tom Barnum	false		
111-9313915-2953021	52454629559698	2020-10-21T21:42:13+00:00	2020-10-21T14:42:13-07:00	2020-10-21T22:10:28+00:00	2020-10-24T06:59:59+00:00	-2	lj0tg1dg7g5xq1v@marketplace.amazon.com	Craig Russell	+1 602-671-6610 ext. 32779	ABR001	Delivery by Friday | Arabella Bouquets 12 Stems of Fresh Cut Red Roses in a Free Designer Glass Vase	1	0	1	Expedited	Suzy Russell	31 WHITE SAIL			LAGUNA NIGUEL	CA	92677-4243	US		We hope you have a wonderful birthday!  We love you!  Love, From Craig and Sandie Russell	false		
114-1173548-8665056	13718872861322	2020-10-21T21:53:16+00:00	2020-10-21T14:53:16-07:00	2020-10-21T22:21:28+00:00	2020-10-24T06:59:59+00:00	-2	hnjhd0728rb5hps@marketplace.amazon.com	Janet Holmgren	+1 480-618-5344 ext. 22359	ABM010	Delivery by Friday | The Spring Fling Bouquet by Arabella Bouquets with a Free Designer Glass Vase	1	0	1	Expedited	Ellen Lorenzo	1324 SUNSET DR			WINTER PARK	FL	32789-2028	US		Happy new home!!! From Mom/Nana	false		
112-9652767-5565806	01158763177074	2020-10-21T22:23:08+00:00	2020-10-21T15:23:08-07:00	2020-10-21T22:27:15+00:00	2020-10-23T06:59:59+00:00	-1	gn3krlxrdcc2l00@marketplace.amazon.com	Corby Campbell	+1805053991	ABR0022	Delivery by Friday | Arabella Farm Direct Bouquet of 12 Fresh Cut Pink Roses with a Free Glass Vase	1	0	1	NextDay	Amy Ostler	4437 VIA PRECIPICIO			SAN DIEGO	CA	92122-1590	US		So sad I couldn't be with you this weekend. Can't wait to see you in November love Suzanne From Corby Campbell	false		
114-0200283-9097062	51916093660954	2020-10-21T21:58:36+00:00	2020-10-21T14:58:36-07:00	2020-10-21T22:28:15+00:00	2020-10-24T06:59:59+00:00	-2	f6nrmm8gpfzd0dq@marketplace.amazon.com	Melissa Dunsmore	+1 602-671-6610 ext. 36629	ABR0033	Delivery by Monday | Arabella Farm Direct Bouquet of 12 Fresh Cut Orange Roses with a Free Glass Vase	1	0	1	Expedited	Mom and Michael Roach	1074 COUNTY ROAD 821			NACOGDOCHES	TX	75964-2743	US		Happy Birthday Mom! We love you!  Love Rob and Melissa From Melissa Dunsmore	false		
113-1578127-9680210	07551787404258	2020-10-21T22:28:32+00:00	2020-10-21T15:28:32-07:00	2020-10-21T22:40:03+00:00	2020-10-24T06:59:59+00:00	-2	vt47gg9n1v183qd@marketplace.amazon.com	Diana Higgins	+1 480-618-5344 ext. 40835	ABR015	Delivery by Monday | Arabella Farm Direct Bouquet of 18 Fresh Cut Orange Roses with a Free Glass Vase	1	0	1	Expedited	Emily Ivey	28264 US-70			San Patricio	New Mexico	88348	US			false		
113-4217797-7312249	38865897651754	2020-10-21T22:44:02+00:00	2020-10-21T15:44:02-07:00	2020-10-21T22:49:15+00:00	2020-10-23T06:59:59+00:00	-1	l0srlhf1j86l3tv@marketplace.amazon.com	Jamie R. Vannata	+1 480-618-5344 ext. 98102	ABR0055	Arabella Farm Direct Bouquet of 12 Stems of Fresh Cut Hot Pink Roses in a Free Designer Glass Vase	1	0	1	NextDay	Tabetha Telles	406 W SPOKANE AVE			COEUR D ALENE	ID	83814-2351	US			false		
112-7091230-2982669	55969337145114	2020-10-21T22:50:00+00:00	2020-10-21T15:50:00-07:00	2020-10-21T22:52:35+00:00	2020-10-23T06:59:59+00:00	-1	yhn9y64y8cn2kzy@marketplace.amazon.com	Marcia G. Campbell	+1 415-851-9136 ext. 83279	ABR0055	Arabella Farm Direct Bouquet of 12 Stems of Fresh Cut Hot Pink Roses in a Free Designer Glass Vase	1	0	1	NextDay	Ramona Hatch	900 W LAKE RD APT A231			PALM HARBOR	FL	34684-3165	US		Happy Birthday! Love you. From Marcia G. Campbell	false		
112-0955527-8245050	50262119999306	2020-10-21T22:51:55+00:00	2020-10-21T15:51:55-07:00	2020-10-21T22:52:58+00:00	2020-10-23T06:59:59+00:00	-1	z5qdbdn9p5w7zdh@marketplace.amazon.com	Jenelle Schuman	+1 480-618-5344 ext. 08669	ABR0022	Delivery by Friday | Arabella Farm Direct Bouquet of 12 Fresh Cut Pink Roses with a Free Glass Vase	1	0	1	NextDay	Heather knoll c/o Sandra Burch A Wing	1134 NORTH AVE			TALLMADGE	OH	44278-1065	US		HAPPY BIRTHDAY GRANDMA! MISS AND LOVE YOU! From Jenelle, Adam, Anthony, Brayden, Briona and Kathy	false		
112-8251354-9271441	70271947818554	2020-10-21T22:26:17+00:00	2020-10-21T15:26:17-07:00	2020-10-21T22:53:15+00:00	2020-10-24T06:59:59+00:00	-2	ln1txcysrtx0hxg@marketplace.amazon.com	Stefanie Schrauger	+1 480-618-5344 ext. 55191	ABM022	Delivery by Friday | Purple Extravagance Bouquet by Arabella Bouquets	1	0	1	Expedited	Donna Schrauger	516 W FRANKLIN ST			ENDICOTT	NY	13760-3909	US		Happy Birthday Ma Dukes! I love you! From Stefanie Schrauger	false		
114-2688468-4209852	55678328101050	2020-10-21T23:18:04+00:00	2020-10-21T16:18:04-07:00	2020-10-21T23:19:00+00:00	2020-10-23T06:59:59+00:00	-1	g2ls1rvhclvzgw9@marketplace.amazon.com	Kathy Starr	+1 619-854-2705 ext. 44808	ABR0022	Delivery by Friday | Arabella Farm Direct Bouquet of 12 Fresh Cut Pink Roses with a Free Glass Vase	1	0	1	NextDay	T. Thomas and Walker Families	18 FIDDLEWOOD CT			HOMOSASSA	FL	34446-4307	US		Much love to  Thomas and Walker Families Celebrating our dear Cicely - all the love, wisdom, enthusiasm, compassion, and dedication she brought to living each day. Praise God for the gift of Cicely From Kathy and Bill Starr	false		
112-9492616-2521028	61901602049482	2020-10-21T23:19:29+00:00	2020-10-21T16:19:29-07:00	2020-10-21T23:21:50+00:00	2020-10-24T06:59:59+00:00	-2	b83y6z9393dfb88@marketplace.amazon.com	Helen Tesfay	+1 213-442-1463 ext. 00698	ABM022	Delivery by Friday | Purple Extravagance Bouquet by Arabella Bouquets	1	0	1	Expedited	Aida Tesfazghi	5721 GULFTON ST APT 2534			HOUSTON	TX	77081-2657	US		Dear Dani and Aideye, I am expressing my joy through these flowers. I wish I was there but I know you are both very happy that I am not. Because by now I would have kissed Yotam a million times. From Fiori	false		
114-7567585-6974636	16853118130314	2020-10-21T23:27:37+00:00	2020-10-21T16:27:37-07:00	2020-10-21T23:28:28+00:00	2020-10-23T06:59:59+00:00	-1	f5y7kc3xxqlyg5s@marketplace.amazon.com	Margaret Brackley	+1 480-618-5344 ext. 25417	ABR0022	Delivery by Friday | Arabella Farm Direct Bouquet of 12 Fresh Cut Pink Roses with a Free Glass Vase	1	0	1	NextDay	Leila Brackley	14107 GRAY WING ST			SAN ANTONIO	TX	78231-1610	US		Hello Momma,  I know that times are hard but know that I will always love you and I cannot wait to see you again after this thing is up. Love you. From Mitchell Brackley	false		
113-0363012-2653007	62676904802938	2020-10-21T23:14:05+00:00	2020-10-21T16:14:05-07:00	2020-10-21T23:42:45+00:00	2020-10-24T06:59:59+00:00	-2	b9kw3my79vkzjv5@marketplace.amazon.com	Angela Kauffman	+1 415-851-9136 ext. 47580	ABM020	Delivery by Monday | The Sunset Bouquet by Arabella Bouquets	1	0	1	Expedited	Michelle Kush	10356 KINGSBRIDGE RD			ELLICOTT CITY	MD	21042-5850	US		Michelle,  Happy Birthday!  We wish you all the best!  Have an awesome day! From Love, Ash, Ang & Steve	false		
113-7955155-9600222	21207474012722	2020-10-21T23:34:21+00:00	2020-10-21T16:34:21-07:00	2020-10-21T23:56:46+00:00	2020-10-24T06:59:59+00:00	-2	5j00hvyslj0p5kx@marketplace.amazon.com	Jerry A Salvador	+1 213-442-1463 ext. 37361	ABR001	Delivery by Friday | Arabella Bouquets 12 Stems of Fresh Cut Red Roses in a Free Designer Glass Vase	1	0	1	Expedited	Emma  Salvador	59 ARLINGTON DR			SOUTH SAN FRANCISCO	CA	94080-1124	US		To a good sister.  I love you! j From Big Brother	false		
114-1617648-1723453	13021647018226	2020-10-22T00:10:00+00:00	2020-10-21T17:10:00-07:00	2020-10-22T00:10:50+00:00	2020-10-23T06:59:59+00:00	-1	fp6r1qdg57qqw63@marketplace.amazon.com	Kerstin Vogel	+1 929-436-4790 ext. 52465	ABR0022	Delivery by Friday | Arabella Farm Direct Bouquet of 12 Fresh Cut Pink Roses with a Free Glass Vase	1	0	1	NextDay	Janet Difranco	109 LONDONDERRY WAY			UXBRIDGE	MA	01569-1288	US		Hi Janet, I hope this makes you smile a bit. Thinking of you! Love you, Kerstin From Kerstin Vogel	false		
114-3078358-0548268	04242529741690	2020-10-22T00:02:26+00:00	2020-10-21T17:02:26-07:00	2020-10-22T00:27:31+00:00	2020-10-24T06:59:59+00:00	-2	c6y0lstvnmhjw4z@marketplace.amazon.com	Robert Kisel	+1 602-671-6610 ext. 42942	ABM022	Delivery by Friday | Purple Extravagance Bouquet by Arabella Bouquets	1	0	1	Expedited	Raymond Kizelevicus	759 E WASHINGTON BLVD			LOMBARD	IL	60148-2953	US		Something to brighten your recovery a bit! Get well soon! From Robert and Sharon Kisel	false		
111-0605502-5047431	26311412798154	2020-10-22T00:33:02+00:00	2020-10-21T17:33:02-07:00	2020-10-22T00:35:36+00:00	2020-10-23T06:59:59+00:00	-1	f54czj32ndmzxgx@marketplace.amazon.com	selina	+1 602-671-6610 ext. 30134	ABR0022	Delivery by Friday | Arabella Farm Direct Bouquet of 12 Fresh Cut Pink Roses with a Free Glass Vase	1	0	1	NextDay	Francillia Lutchman	PUNTA GORDA 620 SHOWALTER AVE			PUNTA GORDA	FL	33950-4945	US		Thank you for everything. We love and appreciate you. From Calvin Shelly and Ciara	false		
112-0222293-6480239	35675729329410	2020-10-22T00:10:08+00:00	2020-10-21T17:10:08-07:00	2020-10-22T00:39:42+00:00	2020-10-24T06:59:59+00:00	-2	d7tlx9nk34v4chg@marketplace.amazon.com	carolyn arras	+1 619-854-2705 ext. 69611	ABR0066	Delivery by Monday | Arabella Bouquets 12 Stems of Fresh Cut White Roses in a Free Designer Glass Vase	1	0	1	Expedited	Carolyn Arras	2370 HILLSIDE TER			LAFAYETTE	CO	80026-3440	US			false		
113-4222111-9207452	28337182584514	2020-10-22T01:10:12+00:00	2020-10-21T18:10:12-07:00	2020-10-22T01:11:04+00:00	2020-10-23T06:59:59+00:00	-1	hhbp46jz039csmg@marketplace.amazon.com	zona s williams	+1 213-442-1463 ext. 02596	ABR0022	Delivery by Friday | Arabella Farm Direct Bouquet of 12 Fresh Cut Pink Roses with a Free Glass Vase	1	0	1	NextDay	zona s williams	715 BOOTH ST			SAFETY HARBOR	FL	34695-2400	US		SARITA FOR ONE for each OF MY GIRLS THANK YOU STEF From zona s williams	false		
111-2947961-1306603	59408940615698	2020-10-22T00:49:26+00:00	2020-10-21T17:49:26-07:00	2020-10-22T01:18:04+00:00	2020-10-24T06:59:59+00:00	-2	vbb1y8xjk0cqw87@marketplace.amazon.com	Michael Slemmons	+1 619-854-2705 ext. 49676	ABM022	Delivery by Friday | Purple Extravagance Bouquet by Arabella Bouquets	1	0	1	Expedited	Kara Hayward	7 HAMPTON LN			ANDOVER	MA	01810-4301	US		To the love of my life.  I hope you feel better. From Michael Slemmons	false		
113-6845640-0896225	23102778502250	2020-10-22T01:21:05+00:00	2020-10-21T18:21:05-07:00	2020-10-22T01:22:19+00:00	2020-10-23T06:59:59+00:00	-1	1x0cf9v4044c4kq@marketplace.amazon.com	Tammy Cavaliere	+1 415-851-9136 ext. 84189	ABR0022	Delivery by Friday | Arabella Farm Direct Bouquet of 12 Fresh Cut Pink Roses with a Free Glass Vase	1	0	1	NextDay	Jerilyn Cavaliere	7036 RUSHWOOD DR			EL DORADO HILLS	CA	95762-5002	US		Just because we love and appreciate you!! From Love Eric and TamTam	false		
111-8753495-6219410	57908843540810	2020-10-22T01:18:12+00:00	2020-10-21T18:18:12-07:00	2020-10-22T01:48:44+00:00	2020-10-24T06:59:59+00:00	-2	gjyyyrmt1c1z7x5@marketplace.amazon.com	DR. JIM	+1 602-671-6610 ext. 86493	ABM010	Delivery by Friday | The Spring Fling Bouquet by Arabella Bouquets with a Free Designer Glass Vase	1	0	1	Expedited	Jiya Hardwick	8483 S PAINTED SKY ST			HIGHLANDS RANCH	CO	80126-2015	US			false		
112-4553774-9421050	65211549188482	2020-10-22T01:51:06+00:00	2020-10-21T18:51:06-07:00	2020-10-22T01:53:02+00:00	2020-10-23T06:59:59+00:00	-1	rplhfl48j0qy2mj@marketplace.amazon.com	Michael R Dedic	+1 602-671-6610 ext. 36868	ABR0022	Delivery by Friday | Arabella Farm Direct Bouquet of 12 Fresh Cut Pink Roses with a Free Glass Vase	1	0	1	NextDay	Michael R Dedic	1233 NEWMAN LN			MORRIS	IL	60450-2592	US		Dear Stephanie,  Thanks for a wonderful 29 years of marriage.  Happy 29th Anniversary!  From your loving husband	false		
114-8800562-0273808	05318708226386	2020-10-22T01:32:13+00:00	2020-10-21T18:32:13-07:00	2020-10-22T01:53:34+00:00	2020-10-24T06:59:59+00:00	-2	fbq3fz2lcj3kbtd@marketplace.amazon.com	Mary-Kate Lewis	+1 213-442-1463 ext. 07004	ABM010	Delivery by Friday | The Spring Fling Bouquet by Arabella Bouquets with a Free Designer Glass Vase	1	0	1	Expedited	Bernadine Burghdurf	4632 SAELI RD			SAVANNAH	NY	13146-9658	US		Happy Birthday, Nana! We wish we could be there to celebrate you! We love you!!! From Laura, Mary-Kate, Josh, & Isaac :)	false		
111-6697827-1373064	19267261622082	2020-10-22T01:51:21+00:00	2020-10-21T18:51:21-07:00	2020-10-22T01:53:36+00:00	2020-10-23T06:59:59+00:00	-1	vbv770tscy2f64p@marketplace.amazon.com	Sid Suss	+1 480-618-5344 ext. 54051	ABR0022	Delivery by Friday | Arabella Farm Direct Bouquet of 12 Fresh Cut Pink Roses with a Free Glass Vase	1	0	1	NextDay	Isabel Suss	1711 Wood Fern Dr.			Boynton Beach	FL	33436	US		Happy Birthday Mom!!! We love you very much and hope you enjoy these flowers. We are thinking about you and our hearts are with you, even if we can't be.  Love, Sid & Kim From Sid & Kim	false		
114-0418252-1366667	65717873844242	2020-10-22T02:01:35+00:00	2020-10-21T19:01:35-07:00	2020-10-22T02:02:38+00:00	2020-10-23T06:59:59+00:00	-1	735yqd5yhp12z68@marketplace.amazon.com	Mary Jo Rangel	+1 929-436-4790 ext. 20388	ABR0022	Delivery by Friday | Arabella Farm Direct Bouquet of 12 Fresh Cut Pink Roses with a Free Glass Vase	1	0	1	NextDay	Christine DeLaO	29 TAFT CT UNIT A			STREAMWOOD	IL	60107-4207	US			false		
112-7922784-3320212	11480592041514	2020-10-22T02:02:33+00:00	2020-10-21T19:02:33-07:00	2020-10-22T02:03:54+00:00	2020-10-23T06:59:59+00:00	-1	jpf119ngdw0dwsr@marketplace.amazon.com	Yolanda Najera Ewing	+1 602-671-6610 ext. 38429	ABR0022	Delivery by Friday | Arabella Farm Direct Bouquet of 12 Fresh Cut Pink Roses with a Free Glass Vase	1	0	1	NextDay	Elana Najera	1077 FOSTER CITY BLVD APT D			FOSTER CITY	CA	94404-2313	US		CONGRATULATIONS, LOVE YOU MUCH, VERY PROUD OF YOU, MOM AND DAD From Mom and Dad	false		
113-9089894-7205807	29251367718922	2020-10-22T01:49:25+00:00	2020-10-21T18:49:25-07:00	2020-10-22T02:10:52+00:00	2020-10-24T06:59:59+00:00	-2	vyc5g5xg0gn2wcg@marketplace.amazon.com	Tzeitel Waldron	+1 929-436-4790 ext. 41319	ABR0033	Delivery by Monday | Arabella Farm Direct Bouquet of 12 Fresh Cut Orange Roses with a Free Glass Vase	1	0	1	Expedited	Birthday Girl Cruz aka Maria Teresa	10209B ASHBROOKE CT			OAKTON	VA	22124-3101	US		Happy Birthday, Mom!!! Happy Birthday, Gami! We wish you a beautiful day, week, month. Nay, year!!! Big love to you. 💕 Abrazotototototes! 🥳🎂🎉🤗 From Tzeitel & Anielka	false		
113-0155740-5047465	24465492183802	2020-10-22T02:17:24+00:00	2020-10-21T19:17:24-07:00	2020-10-22T02:18:21+00:00	2020-10-23T06:59:59+00:00	-1	gqn4sft4wz5p34k@marketplace.amazon.com	Paul oleske	+1 619-854-2705 ext. 06603	ABR0022	Delivery by Friday | Arabella Farm Direct Bouquet of 12 Fresh Cut Pink Roses with a Free Glass Vase	1	0	1	NextDay	Emilia Golebiewska	22 EDWARDS ST			ROSLYN HEIGHTS	NY	11577-1122	US		Dear Emilka, Have a very Happy Birthday!!!❤️🎉💐 Enjoy your gift!  We hope it will brighten a little bit your special day...Hugs and kisses, Xoxo  Anna, Paul & Stephanie From The Oleske	false		
114-5015891-2459406	00468840025442	2020-10-22T02:30:28+00:00	2020-10-21T19:30:28-07:00	2020-10-22T02:35:57+00:00	2020-10-23T06:59:59+00:00	-1	729qbm6n7y241w2@marketplace.amazon.com	Sherry fiorentino	+1 619-854-2705 ext. 96969	ABR0022	Delivery by Friday | Arabella Farm Direct Bouquet of 12 Fresh Cut Pink Roses with a Free Glass Vase	1	0	1	NextDay	Ellene Bunner	219 3RD AVE NE			GRAVETTE	AR	72736-9139	US			false		
112-4210376-0333012	10896749281186	2020-10-22T02:39:18+00:00	2020-10-21T19:39:18-07:00	2020-10-22T02:40:45+00:00	2020-10-23T06:59:59+00:00	-1	f0pcs586zqzkcbj@marketplace.amazon.com	Raghu	+1 480-618-5344 ext. 18528	ABR0022	Delivery by Friday | Arabella Farm Direct Bouquet of 12 Fresh Cut Pink Roses with a Free Glass Vase	1	0	1	NextDay	Hetal Jariwala	14 PLUMROSE LN			SCHAUMBURG	IL	60194-5162	US		Happy Birthday Dear Hetal! From Hum Paanch	false		
111-2144173-6217849	50555565580450	2020-10-22T02:13:28+00:00	2020-10-21T19:13:28-07:00	2020-10-22T02:42:07+00:00	2020-10-24T06:59:59+00:00	-2	03c3k07g2tf5tnc@marketplace.amazon.com	Kazim Guven	+1 602-671-6610 ext. 69685	ABM002	Delivery by Monday | Arabella Bouquets Fresh Cut White Calla Lilies in a Free Designer Glass Vase	1	0	1	Expedited	Carolyn Uluc	30 WATERSIDE PLZ APT 4-J			NEW YORK	NY	10010-2624	US		Dear Carolyn, Happy Birthday! We send you all our love! xoxo From The Guven Family	false		
111-9061148-2293027	63132614972834	2020-10-22T02:41:25+00:00	2020-10-21T19:41:25-07:00	2020-10-22T03:05:18+00:00	2020-10-24T06:59:59+00:00	-2	mtf9xjfr834ntwm@marketplace.amazon.com	KAT	+1 602-671-6610 ext. 66602	ABM010	Delivery by Friday | The Spring Fling Bouquet by Arabella Bouquets with a Free Designer Glass Vase	1	0	1	Expedited	Aunt Bernadette	1659 ARROW WOOD RD			ASHEBORO	NC	27205-7101	US		Happy 70th birthday!  We hope you have a fabulous day! From Kathleen, Mike & Dee	false		
112-7562912-2989824	06685394962442	2020-10-22T03:14:12+00:00	2020-10-21T20:14:12-07:00	2020-10-22T03:15:03+00:00	2020-10-24T06:59:59+00:00	-2	yhq2r8p0t00tvv1@marketplace.amazon.com	terri	+1 415-851-9136 ext. 35809	ABR013	Delivery by Monday | Arabella Farm Direct Bouquet of 18 Fresh Cut Yellow Roses with a Free Glass Vase	1	0	1	Expedited	Jane Shattuck	27 EVERGREEN ST			WAKEFIELD	MA	01880-3616	US		Jane, we are so sorry for your loss, and pray you  can enjoy warm memories through this big change in life. With love, From Terri, Lisa and Liz	false		
113-5797031-1283420	36143022577162	2020-10-22T03:15:00+00:00	2020-10-21T20:15:00-07:00	2020-10-22T03:18:46+00:00	2020-10-23T06:59:59+00:00	-1	8rc622m141q7zxq@marketplace.amazon.com	Mariano Batalla	+1 213-442-1463 ext. 35564	ABR0022	Delivery by Friday | Arabella Farm Direct Bouquet of 12 Fresh Cut Pink Roses with a Free Glass Vase	1	0	1	NextDay	Rahmanparast Batalla	9891 SW 67TH AVE			MIAMI	FL	33156-3207	US		Pensando mucho en ustedes, especialmente en Abuela, con la partida de Tio Roberto. Un abrazo de parte de los Batalla Berrocal From Mariano Batalla	false		
114-3649241-4445866	43561314757778	2020-10-22T03:23:55+00:00	2020-10-21T20:23:55-07:00	2020-10-22T03:24:50+00:00	2020-10-23T06:59:59+00:00	-1	46477g8hmvd7rp1@marketplace.amazon.com	Nancy Mondoro	+1 415-851-9136 ext. 19602	ABR0055	Arabella Farm Direct Bouquet of 12 Stems of Fresh Cut Hot Pink Roses in a Free Designer Glass Vase	1	0	1	NextDay	Georgeann  Bremer	18414 AVON AVE			PORT CHARLOTTE	FL	33948-6174	US		14381 happy anniversary	false		
112-8552906-5545800	20946221730866	2020-10-22T03:23:18+00:00	2020-10-21T20:23:18-07:00	2020-10-22T03:25:56+00:00	2020-10-23T06:59:59+00:00	-1	jp2j5dc2gsvznbb@marketplace.amazon.com	Nancy Hesseltine	+1 480-618-5344 ext. 90932	ABR0022	Delivery by Friday | Arabella Farm Direct Bouquet of 12 Fresh Cut Pink Roses with a Free Glass Vase	1	0	1	NextDay	Rose Devine	841 VISTA DEL RIO			SANTA MARIA	CA	93458-8269	US		Thinking of you. From Nancy Hesseltine, Gerri Jellison, Donna Wayne	false		
112-2307857-8821003	45602352197770	2020-10-22T03:40:21+00:00	2020-10-21T20:40:21-07:00	2020-10-22T03:41:55+00:00	2020-10-23T06:59:59+00:00	-1	2c1lvs54m142chf@marketplace.amazon.com	denis Mccafferty	+1 929-436-4790 ext. 69870	ABR0022	Delivery by Friday | Arabella Farm Direct Bouquet of 12 Fresh Cut Pink Roses with a Free Glass Vase	1	0	1	NextDay	Melissa sparnroft	1675 STEPHEN ST			RIDGEWOOD	NY	11385-5345	US		We love you both💙 From Aunt Marie,Uncle Den & Bill	false		
114-1144777-7112234	63799615012690	2020-10-22T03:39:10+00:00	2020-10-21T20:39:10-07:00	2020-10-22T03:43:05+00:00	2020-10-23T06:59:59+00:00	-1	0pyw343bgbh3vnl@marketplace.amazon.com	Lorrie Penhall	+1 619-854-2705 ext. 69150	ABR0055	Arabella Farm Direct Bouquet of 12 Stems of Fresh Cut Hot Pink Roses in a Free Designer Glass Vase	1	0	1	NextDay	Crista Fair	5417 N FIELDCREST DR			BOISE	ID	83704-1944	US		I love you to infinity! Get well quick! Love, From Mom	false		
111-3458369-9028207	35595087537354	2020-10-22T03:29:19+00:00	2020-10-21T20:29:19-07:00	2020-10-22T03:50:35+00:00	2020-10-24T06:59:59+00:00	-2	0pysxd8p17t8qch@marketplace.amazon.com	Gavin thomas	+1 480-618-5344 ext. 08316	ABM022	Delivery by Friday | Purple Extravagance Bouquet by Arabella Bouquets	1	0	1	Expedited	Annie Skeete	44 PINE TREE DR			PALM COAST	FL	32164-4836	US		Enjoy your gift! Happy birthday from all your children and grand children From Lee-Ann Thomas	false		
113-2393346-5651452	29848545706466	2020-10-22T03:32:03+00:00	2020-10-21T20:32:03-07:00	2020-10-22T03:57:19+00:00	2020-10-24T06:59:59+00:00	-2	c95dq4yhg5hmg7k@marketplace.amazon.com	patricia whempner	+1 602-671-6610 ext. 03116	ABR0033	Delivery by Monday | Arabella Farm Direct Bouquet of 12 Fresh Cut Orange Roses with a Free Glass Vase	1	0	1	Expedited	Virginia Gonzales	1500 38TH AVE			SEATTLE	WA	98122-3442	US		Happy Birthday Mija!  Abrazos Pat From patricia whempner	false		
112-9292935-0565023	29456344454282	2020-10-22T03:59:22+00:00	2020-10-21T20:59:22-07:00	2020-10-22T04:00:16+00:00	2020-10-23T06:59:59+00:00	-1	p4blgvvn36y8r12@marketplace.amazon.com	Sheri L. Thomas	+1 619-854-2705 ext. 99153	ABR0022	Delivery by Friday | Arabella Farm Direct Bouquet of 12 Fresh Cut Pink Roses with a Free Glass Vase	1	0	1	NextDay	DeAnne Moore	48213 ALDER CUTOFF RD E			EATONVILLE	WA	98328-7484	US		I carry your heart with me (I carry it in my heart)  I'm sorry about Willy. I'm here for you. From Love, Sis	false		
111-3553438-9410631	31733729184722	2020-10-22T03:58:37+00:00	2020-10-21T20:58:37-07:00	2020-10-22T04:02:46+00:00	2020-10-23T06:59:59+00:00	-1	t4nlq9q46b5z216@marketplace.amazon.com	David J. Wachter	+1 619-854-2705 ext. 18274	ABR0022	Delivery by Friday | Arabella Farm Direct Bouquet of 12 Fresh Cut Pink Roses with a Free Glass Vase	1	0	1	NextDay	Ashley Turner	21802 FLANDERS CT			ASHBURN	VA	20147-6729	US		Aahley- The best daughter ever!  All my love. Jackie kuchta From Jackie kuchta	false		
113-9994188-1934618	34912209341546	2020-10-22T05:23:03+00:00	2020-10-21T22:23:03-07:00	2020-10-22T05:26:20+00:00	2020-10-23T06:59:59+00:00	-1	6mq359x8lk2xbpw@marketplace.amazon.com	Gloria Ramsey	+1 929-436-4790 ext. 50153	ABR0022	Delivery by Friday | Arabella Farm Direct Bouquet of 12 Fresh Cut Pink Roses with a Free Glass Vase	1	0	1	NextDay	Lukricia Adams	34 COBBLESTONE LN			MIDDLETOWN	NY	10940-5090	US		Happy Birthday our beautiful daughter!  May this day be full of love, joy & blessings and  may all your wishes come true. Lots of love always, Dad and Mrs. G From Gloria Ramsey	false		
112-2767041-2165055	33354307065746	2020-10-22T05:14:09+00:00	2020-10-21T22:14:09-07:00	2020-10-22T05:41:47+00:00	2020-10-24T06:59:59+00:00	-2	7z7747vd83xlnjq@marketplace.amazon.com	Christie catlin	+1 602-671-6610 ext. 32692	ABR0033	Delivery by Monday | Arabella Farm Direct Bouquet of 12 Fresh Cut Orange Roses with a Free Glass Vase	1	0	1	Expedited	Olivia Heath/ Kim Potter	7725 BODEGA AVE APT 15			SEBASTOPOL	CA	95472-3574	US		Dear Kimbers  36th Happy birthday  Love Mom	false		
112-3469075-1447463	57615976439218	2020-10-22T05:26:27+00:00	2020-10-21T22:26:27-07:00	2020-10-22T05:57:01+00:00	2020-10-24T06:59:59+00:00	-2	hxy487k0qsyh367@marketplace.amazon.com	chad	+1 619-854-2705 ext. 92749	ABM010	Delivery by Friday | The Spring Fling Bouquet by Arabella Bouquets with a Free Designer Glass Vase	1	0	1	Expedited	Maegan Chaney	1015 10TH ST N # 15			ST PETERSBURG	FL	33705-1150	US			false		
113-4745883-4628232	13884201251858	2020-10-22T05:58:32+00:00	2020-10-21T22:58:32-07:00	2020-10-22T05:59:29+00:00	2020-10-23T06:59:59+00:00	-1	31w74vj6yqrfkwj@marketplace.amazon.com	Natalya Volk	+1 602-671-6610 ext. 95146	ABR0022	Delivery by Friday | Arabella Farm Direct Bouquet of 12 Fresh Cut Pink Roses with a Free Glass Vase	1	0	1	NextDay	Yelena Volk	1801 LEVERETTE ST			DETROIT	MI	48216-1981	US		Леночка, с Днем рождения! Здоровья, радости и счастья! From Mama, Dima, Tanya, Liza, Katya	false		
113-0428612-8425806	62205835689154	2020-10-22T06:27:04+00:00	2020-10-21T23:27:04-07:00	2020-10-22T06:31:21+00:00	2020-10-23T06:59:59+00:00	-1	bqqybzfzhw46kjh@marketplace.amazon.com	Sandra Shelinbarger	+1 929-436-4790 ext. 04139	ABR0022	Delivery by Friday | Arabella Farm Direct Bouquet of 12 Fresh Cut Pink Roses with a Free Glass Vase	1	0	1	NextDay	Kaitlin Cline	7340 NOLENSVILLE RD STE 104			NOLENSVILLE	TN	37135-1667	US		Happy Birthday Sweetie!!! From Mom &Brian	false		
112-7022728-1545067	18542661373402	2020-10-22T06:24:41+00:00	2020-10-21T23:24:41-07:00	2020-10-22T06:49:31+00:00	2020-10-24T06:59:59+00:00	-2	tq22xs8k2mh6z3x@marketplace.amazon.com	Phillip N. May	+1 480-618-5344 ext. 52765	ABM022	Delivery by Friday | Purple Extravagance Bouquet by Arabella Bouquets	1	0	1	Expedited	Angie Bertsch	7713 SOUTHSHORE ST			PAPILLION	NE	68046-3628	US		Hope you are feeling better!!!!   Figured you would like flowers better after you are able to get up and moving around more.   Love You Lots!!!! Phil From Phillip N. May	false		
112-0774971-0685836	13021555993882	2020-10-22T06:50:25+00:00	2020-10-21T23:50:25-07:00	2020-10-22T06:51:25+00:00	2020-10-23T06:59:59+00:00	-1	9xrz6xq65pv0qtp@marketplace.amazon.com	John	+1 929-436-4790 ext. 21183	ABR0022	Delivery by Friday | Arabella Farm Direct Bouquet of 12 Fresh Cut Pink Roses with a Free Glass Vase	1	0	1	NextDay	Marlene Griswold	207 SHERIDAN ST			MENLO	IA	50164-7713	US		Happy Birthday!  Love the Northern Griswolds: John, Sibel, Talia, Joseph From The Griswold Family	false		
114-0514639-6989056	19204388406618	2020-10-22T07:24:55+00:00	2020-10-22T00:24:55-07:00	2020-10-22T07:54:16+00:00	2020-10-27T06:59:59+00:00	-5	ct3n61b38lcvhf8@marketplace.amazon.com	Guo Rong Chen	+1 602-671-6610 ext. 85451	ABR001	Delivery by Friday | Arabella Bouquets 12 Stems of Fresh Cut Red Roses in a Free Designer Glass Vase	1	0	1	Expedited	Haoge Li	446 CAMBRIDGE ST UNIT 208			ALLSTON	MA	02134-2051	US			false		
111-3725489-0718650	48674712874234	2020-10-22T07:39:39+00:00	2020-10-22T00:39:39-07:00	2020-10-22T08:09:27+00:00	2020-10-27T06:59:59+00:00	-5	4thmxysyg669t0s@marketplace.amazon.com	yuzhu li	+1 619-854-2705 ext. 42761	ABR004	Delivery by Monday | Arabella Farm Direct Bouquet of 12 Fresh Cut Yellow Roses with a Free Glass Vase	1	0	1	Expedited	Karen lin	516 LORING AVE			SALEM	MA	01970-4239	US			false		
114-0559919-0841853	34289110453970	2020-10-22T10:42:09+00:00	2020-10-22T03:42:09-07:00	2020-10-22T10:45:49+00:00	2020-10-23T06:59:59+00:00	-1	9q5bdkk1zg300yq@marketplace.amazon.com	Claire Willetts	+1 415-851-9136 ext. 01456	ABR0022	Delivery by Friday | Arabella Farm Direct Bouquet of 12 Fresh Cut Pink Roses with a Free Glass Vase	1	0	1	NextDay	Annette Brown	806 SHADY BEND CT			HIGHLAND VILLAGE	TEXAS	75077-6443	US		To Annette Happy Special Birthday!! Love from Andrew, Claire, Maxie & Jamie From Claire Willetts	false		
111-3499332-5257022	00680967462258	2020-10-22T10:36:43+00:00	2020-10-22T03:36:43-07:00	2020-10-22T10:57:22+00:00	2020-10-27T06:59:59+00:00	-5	q0h25yl66hbyml0@marketplace.amazon.com	Corinna Schenck	+1 602-671-6610 ext. 63554	ABR013	Delivery by Monday | Arabella Farm Direct Bouquet of 18 Fresh Cut Yellow Roses with a Free Glass Vase	1	0	1	Expedited	Lee Staats	2415 TWO OAKS DR			CHARLESTON	SOUTH CAROLINA	29414-4825	US		Enjoy your gift! Liebe Tante! Herzlichen Glückwunsch zu Deinem Geburtstag, Wir haben Dich sehr lieb und vermissen Dich sehr. Hab einen schönen Tag! Liebe Grüße aus Bremen From Corinna Schenck	false		
111-2392139-2670618	62291958837202	2020-10-22T10:58:06+00:00	2020-10-22T03:58:06-07:00	2020-10-22T11:02:14+00:00	2020-10-23T06:59:59+00:00	-1	3yc0y8kxr4nkb67@marketplace.amazon.com	BESS LARONDE	+1 619-854-2705 ext. 09775	ABR0022	Delivery by Friday | Arabella Farm Direct Bouquet of 12 Fresh Cut Pink Roses with a Free Glass Vase	1	0	1	NextDay	Jackie Trovato	19 KAZIMER DR			BILLERICA	MA	01821-1518	US		Sending you lots of love! Get some rest! Love, all the LaRonde/Sweeney’s From BESS LARONDE	false		
112-5429796-6453005	26146739117178	2020-10-22T10:47:23+00:00	2020-10-22T03:47:23-07:00	2020-10-22T11:17:28+00:00	2020-10-27T06:59:59+00:00	-5	9k32xqp5z328v9r@marketplace.amazon.com	John Littleford	+1 602-671-6610 ext. 91712	ABM022	Delivery by Friday | Purple Extravagance Bouquet by Arabella Bouquets	1	0	1	Expedited	Mary Littleford	170 Seaview Ave	170 Seaview Ave.		Osterville	MA	02655	US			false		
114-0509014-0758616	06163498948730	2020-10-22T11:12:27+00:00	2020-10-22T04:12:27-07:00	2020-10-22T11:17:35+00:00	2020-10-23T06:59:59+00:00	-1	hhbp46jz039csmg@marketplace.amazon.com	zona s williams	+1 619-854-2705 ext. 22697	ABR0022	Delivery by Friday | Arabella Farm Direct Bouquet of 12 Fresh Cut Pink Roses with a Free Glass Vase	2	0	2	NextDay	zona s williams	715 BOOTH ST			SAFETY HARBOR	FL	34695-2400	US			false		
114-2383082-0483466	53519019756682	2020-10-22T11:32:39+00:00	2020-10-22T04:32:39-07:00	2020-10-22T11:36:14+00:00	2020-10-23T06:59:59+00:00	-1	xg0n6wngb4cx2g7@marketplace.amazon.com	MSW	+1 619-854-2705 ext. 12915	ABR0022	Delivery by Friday | Arabella Farm Direct Bouquet of 12 Fresh Cut Pink Roses with a Free Glass Vase	1	0	1	NextDay	Claudia Cordava	2209 CHAPALA ST			SANTA BARBARA	CA	93105-3906	US		Happy Birthday. Enjoy your Day. From Shahzad	false		
112-9436488-9897840	54615273455922	2020-10-22T11:49:42+00:00	2020-10-22T04:49:42-07:00	2020-10-22T11:52:31+00:00	2020-10-23T06:59:59+00:00	-1	s0m9b68g979dt16@marketplace.amazon.com	Steve seldomridge	+1 619-854-2705 ext. 03158	ABR0022	Delivery by Friday | Arabella Farm Direct Bouquet of 12 Fresh Cut Pink Roses with a Free Glass Vase	1	0	1	NextDay	Esther Kondy	4786 STILES AVE			COLUMBUS	OH	43228-1904	US		Always thinking of you. I love you more than you know. You have always been an inspiration to me. From Jennifer Steve and Nicholas Seldomridge	false		
112-3176994-5325865	36358644131146	2020-10-22T12:14:16+00:00	2020-10-22T05:14:16-07:00	2020-10-22T12:17:17+00:00	2020-10-23T06:59:59+00:00	-1	7hhx1gb95kv5xvx@marketplace.amazon.com	Cynthia J.Schell	+1 415-851-9136 ext. 05420	ABR0022	Delivery by Friday | Arabella Farm Direct Bouquet of 12 Fresh Cut Pink Roses with a Free Glass Vase	1	0	1	NextDay	Laura Borer	12632 SE 178TH PL			SUMMERFIELD	FL	34491-8076	US		To Laura and Phil, thank you both for all you have done.  Everything was beautiful!  Love, Terry and Cynthia	false		
111-4189463-1025002	10809404207522	2020-10-22T12:17:36+00:00	2020-10-22T05:17:36-07:00	2020-10-22T12:20:25+00:00	2020-10-23T06:59:59+00:00	-1	zdx4d1y072p0r2t@marketplace.amazon.com	Matthew F Peake	001 508 486 9211	ABR0022	Delivery by Friday | Arabella Farm Direct Bouquet of 12 Fresh Cut Pink Roses with a Free Glass Vase	1	0	1	NextDay	Mrs S. Butler	10 PRESIDENTIAL DR			SOUTHBOROUGH	MA	01772-1100	US		Dear Steph, Hope you have a very Happy Birthday! lots of love xxxxx From the Peakes xxx	false		
113-6128956-7115406	35464149141634	2020-10-22T12:37:39+00:00	2020-10-22T05:37:39-07:00	2020-10-22T12:38:34+00:00	2020-10-23T06:59:59+00:00	-1	x1l6xjmk92c9149@marketplace.amazon.com	Sharon Umhoefer	+1 480-618-5344 ext. 84527	ABR0022	Delivery by Friday | Arabella Farm Direct Bouquet of 12 Fresh Cut Pink Roses with a Free Glass Vase	1	0	1	NextDay	Mrs. Phyllis Cosulich	106 CYNWYD DR			ABSECON	NJ	08201-2221	US		Our dogs asked that we tell you to "SIT, STAY & HEAL" and we wish the same.    Love, John, Sharon, Merlin & Winston From Sharon Umhoefer	false		
114-2038329-2568259	16990480603250	2020-10-22T12:39:16+00:00	2020-10-22T05:39:16-07:00	2020-10-22T13:08:57+00:00	2020-10-27T06:59:59+00:00	-5	zt6x5lbhlp9j194@marketplace.amazon.com	damien	+1 602-671-6610 ext. 93001	ABR004	Delivery by Monday | Arabella Farm Direct Bouquet of 12 Fresh Cut Yellow Roses with a Free Glass Vase	1	0	1	Expedited	Julia Ferrick	101 MARKET ST UNIT 312			SAN DIEGO	CA	92101-6812	US		I know you’ve been tired and exhausted lately, hope these bring you some joy Lil J From Sally	false		
111-0152118-8506624	07412258035450	2020-10-22T12:49:07+00:00	2020-10-22T05:49:07-07:00	2020-10-22T13:13:30+00:00	2020-10-27T06:59:59+00:00	-5	2j0w8qbfskyqjmb@marketplace.amazon.com	Nathan Latimer	+1 213-442-1463 ext. 36053	ABM010	Delivery by Friday | The Spring Fling Bouquet by Arabella Bouquets with a Free Designer Glass Vase	1	0	1	Expedited	Suzanne Edwards	91 CHASE ST			WEST HARWICH	MA	02671-1612	US		Congratulations on beginning your dental implant experience. We appreciate you as a patient . Dr Campagna & Dr Latimer From Nathan Latimer	false		
114-6628523-2701062	03180442411666	2020-10-22T13:21:28+00:00	2020-10-22T06:21:28-07:00	2020-10-22T13:22:32+00:00	2020-10-23T06:59:59+00:00	-1	5qdw8f7qhkfylmw@marketplace.amazon.com	Anita Zimmerman	+1 480-618-5344 ext. 71746	ABR0022	Delivery by Friday | Arabella Farm Direct Bouquet of 12 Fresh Cut Pink Roses with a Free Glass Vase	1	0	1	NextDay	Crystal A. Miller	101 TICONDEROGA DR			WARWICK	RI	02889-4383	US		Dear Miller family,  You have our greatest sympathies for your loss.    Kind regards, MPPB From Anita Zimmerman	false		
111-8141029-1113866	31857536169370	2020-10-22T12:54:44+00:00	2020-10-22T05:54:44-07:00	2020-10-22T13:24:50+00:00	2020-10-27T06:59:59+00:00	-5	hjxgk8m74978xwj@marketplace.amazon.com	kelsey	+1 602-671-6610 ext. 69413	ABM0044	Delivery by Monday | Arabella Farm Direct Bouquet of Fresh Cut Blue Hydrangea with a Free Glass Vase	1	0	1	Expedited	Garrett and Sara Warren	1525 N REFUGIO RD			SANTA YNEZ	CA	93460-9105	US		Miss you guys xx From kelsey	false		
111-8940413-6223409	48066108598466	2020-10-22T12:56:50+00:00	2020-10-22T05:56:50-07:00	2020-10-22T13:26:07+00:00	2020-10-27T06:59:59+00:00	-5	2j0w8qbfskyqjmb@marketplace.amazon.com	Nathan Latimer	+1 480-618-5344 ext. 30964	ABM010	Delivery by Friday | The Spring Fling Bouquet by Arabella Bouquets with a Free Designer Glass Vase	1	0	1	Expedited	Richard Bolduc	95 CASA BELLA WAY			PLYMOUTH	MA	02360-9000	US		Congratulations on beginning your dental implant experience. We appreciate you as a patient! Dr. Do & Dr. Latimer From Nathan Latimer	false		
111-0357286-5537010	22086121669882	2020-10-22T13:27:00+00:00	2020-10-22T06:27:00-07:00	2020-10-22T13:30:31+00:00	2020-10-23T06:59:59+00:00	-1	3d0t14qs4kf9clx@marketplace.amazon.com	Jennifer Rabchuk	+1 213-442-1463 ext. 90157	ABR0022	Delivery by Friday | Arabella Farm Direct Bouquet of 12 Fresh Cut Pink Roses with a Free Glass Vase	1	0	1	NextDay	T. John and Carolyn M.  Whittall	4938 W 116TH ST			ALSIP	IL	60803-2882	US		Happy Birthday mama. I remember that Papa often bought you pink roses for your birthday.  I pray it is a lovely day full of grace and peace, joy and everlasting hope!  Love The Chuks! From Jennifer Rabchuk	false		
112-0953296-9364231	63312033508634	2020-10-22T13:45:34+00:00	2020-10-22T06:45:34-07:00	2020-10-22T13:50:43+00:00	2020-10-23T06:59:59+00:00	-1	ggr8wgmdm8d6t0l@marketplace.amazon.com	Hossein M Chalajour	+1 213-442-1463 ext. 94793	ABR0055	Arabella Farm Direct Bouquet of 12 Stems of Fresh Cut Hot Pink Roses in a Free Designer Glass Vase	1	0	1	NextDay	Ariana Z Chalajour	121 WATERBURY			NEW BRAUNFELS	TX	78132-2321	US			true		
113-5120615-3743457	03768825323290	2020-10-22T13:52:59+00:00	2020-10-22T06:52:59-07:00	2020-10-22T13:57:13+00:00	2020-10-23T06:59:59+00:00	-1	5j1160f6c1jmpq8@marketplace.amazon.com	Ola	+1 929-436-4790 ext. 47039	ABR0022	Delivery by Friday | Arabella Farm Direct Bouquet of 12 Fresh Cut Pink Roses with a Free Glass Vase	1	0	1	NextDay	Carolyn James	3606 LE MANS CT			ARLINGTON	TX	76016-2937	US		Love you my darling. From James	false		
113-1517078-1949050	57260978535162	2020-10-22T13:36:09+00:00	2020-10-22T06:36:09-07:00	2020-10-22T13:59:02+00:00	2020-10-27T06:59:59+00:00	-5	jsvnsmglj3m9g3w@marketplace.amazon.com	sheila galvan	+1 602-671-6610 ext. 20109	ABR0033	Delivery by Monday | Arabella Farm Direct Bouquet of 12 Fresh Cut Orange Roses with a Free Glass Vase	1	0	1	Expedited	Cynthia Iorio Butler	1101 N 13TH AVE			HOLLYWOOD	FL	33019-3134	US			false		
111-2071937-5026604	66516011026090	2020-10-22T13:59:52+00:00	2020-10-22T06:59:52-07:00	2020-10-22T14:03:09+00:00	2020-10-23T06:59:59+00:00	-1	2f687188q835pb5@marketplace.amazon.com	Betsy Ferguson	+1 929-436-4790 ext. 34062	ABR0022	Delivery by Friday | Arabella Farm Direct Bouquet of 12 Fresh Cut Pink Roses with a Free Glass Vase	1	0	1	NextDay	Randow family	2003 TUSCARORA VALLEY CT			FREDERICK	MD	21702-7901	US		Enjoy your gift! Happy Birthday From Betsy Ferguson	false		
114-4282465-0478607	34243952811610	2020-10-22T14:16:39+00:00	2020-10-22T07:16:39-07:00	2020-10-22T14:19:22+00:00	2020-10-23T06:59:59+00:00	-1	5yzsms5wtsddz3p@marketplace.amazon.com	Patrice V. Johnson	212-79-7808	ABR0022	Delivery by Friday | Arabella Farm Direct Bouquet of 12 Fresh Cut Pink Roses with a Free Glass Vase	1	0	1	NextDay	Jacquelyn Ellis	330 E 26TH ST APT 6D			NEW YORK	NY	10010-1906	US		Mom, I wish you a very Happy Birthday. I hope you enjoy theses beautiful pink flowers. Love your daughter Patrice From Patrice V. Johnson	false		
111-2159193-3957824	16588154285354	2020-10-22T14:09:24+00:00	2020-10-22T07:09:24-07:00	2020-10-22T14:38:46+00:00	2020-10-27T06:59:59+00:00	-5	x01vf25wqh0tn9p@marketplace.amazon.com	Harland J Schuster	+1 929-436-4790 ext. 70963	ABR0066	Delivery by Monday | Arabella Bouquets 12 Stems of Fresh Cut White Roses in a Free Designer Glass Vase	1	0	1	Expedited	Rainbow Communications	SUZANNE SCHUSTER 628 OREGON ST			HIAWATHA	KS	66434-2231	US			true		Business Price
114-9783599-4745052	15200070507130	2020-10-20T17:16:24+00:00	2020-10-20T10:16:24-07:00	2020-10-22T14:38:54+00:00	2020-10-23T06:59:59+00:00	-1	cg6ng5g3mhrbfk3@marketplace.amazon.com	Colleen McDonough	+1 213-442-1463 ext. 12033	ABM0044	Delivery by Thursday | Arabella Farm Direct Bouquet of Fresh Cut Blue Hydrangea with a Free Glass Vase	1	0	1	SecondDay	Colleen F. McDonough	2610 Point del Mar			Corona del Mar	CA	92625	US			false		
111-5872594-6705821	37033424830586	2020-10-22T14:21:25+00:00	2020-10-22T07:21:25-07:00	2020-10-22T14:43:42+00:00	2020-10-27T06:59:59+00:00	-5	2bk571z459qgwzx@marketplace.amazon.com	Nancy Averill	+1 602-671-6610 ext. 40153	ABM010	Delivery by Friday | The Spring Fling Bouquet by Arabella Bouquets with a Free Designer Glass Vase	1	0	1	Expedited	Carol Greeson	790 Sur Palm Cove Dr			Palm City	Florida	34990	US		Carol, We love you and are keeping you in our prayers!! We are praying for strength during your recovery.  Here's to your complete healing!!  xoxoxo  Nancy & Sarah From Nancy Averill	false		
113-1172709-0329040	31928731825170	2020-10-22T14:47:47+00:00	2020-10-22T07:47:47-07:00	2020-10-22T14:48:40+00:00	2020-10-23T06:59:59+00:00	-1	hwhf3pckzwv51nt@marketplace.amazon.com	Lisa Mendenhall	+1 619-854-2705 ext. 20152	ABR0022	Delivery by Friday | Arabella Farm Direct Bouquet of 12 Fresh Cut Pink Roses with a Free Glass Vase	1	0	1	NextDay	Pam Briscoe	15610 BLUFF PARK CT			CYPRESS	TX	77429-5726	US		Happy Birthday Sweet Pamela!  Enjoy your weekend and see you Monday for Lunch! From Lisa Mendenhall	false		
112-1232016-2537047	14807897907522	2020-10-22T14:51:45+00:00	2020-10-22T07:51:45-07:00	2020-10-22T15:16:19+00:00	2020-10-27T06:59:59+00:00	-5	39ylwdy8gl2h46q@marketplace.amazon.com	david forsman	+1 213-442-1463 ext. 69945	ABR014	Arabella Bouquets 18 Stems of Fresh Cut White Roses in a Free Designer Glass Vase	1	0	1	Expedited	The Copare Family (Congrats from the Forsmans)	5800 MCCOMMAS BLVD APT 105			DALLAS	TX	75206-5739	US			false		
111-7189991-2128221	23088516278386	2020-10-22T14:52:38+00:00	2020-10-22T07:52:38-07:00	2020-10-22T15:21:51+00:00	2020-10-27T06:59:59+00:00	-5	79t3j72q03jc1ys@marketplace.amazon.com	Elizabeth Pedziwiatr	+1 480-618-5344 ext. 54285	ABR004	Delivery by Monday | Arabella Farm Direct Bouquet of 12 Fresh Cut Yellow Roses with a Free Glass Vase	1	0	1	Expedited	Sarah Corrigan	14 S ASHLAND AVE APT 507			LA GRANGE	IL	60525-2372	US		Congrats Aunt Sarah on finishing your program! You rock! From Elizabeth, Evan and Madison	false		
113-7181387-1811408	03209684617154	2020-10-22T15:45:26+00:00	2020-10-22T08:45:26-07:00	2020-10-22T15:49:04+00:00	2020-10-23T06:59:59+00:00	-1	9m6ky620n1111j5@marketplace.amazon.com	Elodia Wyatt	+1 213-442-1463 ext. 07573	ABR0055	Arabella Farm Direct Bouquet of 12 Stems of Fresh Cut Hot Pink Roses in a Free Designer Glass Vase	1	0	1	NextDay	Emily Smith	581 W CHARLEY WAY			ERDA	UT	84074-9413	US		Just a little something to brighten your day.  Our thoughts and prayers are with you and your family. From Theresa and Doug Peoble	false		
111-8853380-3094658	59029060230386	2020-10-22T15:48:32+00:00	2020-10-22T08:48:32-07:00	2020-10-22T15:54:02+00:00	2020-10-23T06:59:59+00:00	-1	6rx4bks2k9qjlnk@marketplace.amazon.com	Trent lett	+1 602-671-6610 ext. 90549	ABR0022	Delivery by Friday | Arabella Farm Direct Bouquet of 12 Fresh Cut Pink Roses with a Free Glass Vase	1	0	1	NextDay	Trent lett	3205 E. State Route OO			Drexel	MO	64742	US			false		
112-4426772-0311422	09464225744314	2020-10-22T15:56:30+00:00	2020-10-22T08:56:30-07:00	2020-10-22T16:01:18+00:00	2020-10-23T06:59:59+00:00	-1	z5hbpm85pt26t8d@marketplace.amazon.com	Robert Feist	+1 480-618-5344 ext. 99613	ABR0022	Delivery by Friday | Arabella Farm Direct Bouquet of 12 Fresh Cut Pink Roses with a Free Glass Vase	1	0	1	NextDay	Marge Feist	12000 TURNMEYER DR SE APT 1312			HUNTSVILLE	AL	35803-3365	US		Happy Birthday, Mom!  Love,  Bob and Kate From Robert Feist	false		
113-0574913-1832265	66757212281458	2020-10-22T16:03:16+00:00	2020-10-22T09:03:16-07:00	2020-10-22T16:04:11+00:00	2020-10-23T06:59:59+00:00	-1	nqd80ctlrq8bmyc@marketplace.amazon.com	Kirk Foggie	+1 619-854-2705 ext. 32244	ABR0022	Delivery by Friday | Arabella Farm Direct Bouquet of 12 Fresh Cut Pink Roses with a Free Glass Vase	1	0	1	NextDay	Sandra Caesar	6012 HAWTHORNE ST			CHEVERLY	MD	20785-3139	US		With our deepest sympathies. From Kirk F. & Bill R.	false		
113-3950649-9990618	46034774498458	2020-10-22T16:01:13+00:00	2020-10-22T09:01:13-07:00	2020-10-22T16:05:27+00:00	2020-10-23T06:59:59+00:00	-1	drs9q8vzzryrpgw@marketplace.amazon.com	Gerard W. Quinn	+1 213-442-1463 ext. 27891	ABR0022	Delivery by Friday | Arabella Farm Direct Bouquet of 12 Fresh Cut Pink Roses with a Free Glass Vase	1	0	1	NextDay	Mary Skocylas	306 MEADOWLARK DR			BALLSTON SPA	NY	12020-2648	US		We love you! From Gerard W. Quinn	false		
111-6863972-0673039	54500232977850	2020-10-22T16:09:58+00:00	2020-10-22T09:09:58-07:00	2020-10-22T16:10:47+00:00	2020-10-23T06:59:59+00:00	-1	9kpzfqgqb03d5rt@marketplace.amazon.com	Terry D. Wilson	+1 929-436-4790 ext. 53000	ABR0022	Delivery by Friday | Arabella Farm Direct Bouquet of 12 Fresh Cut Pink Roses with a Free Glass Vase	1	0	1	NextDay	Jenny Wilson	39742 DULUTH ST			HARRISON TWP	MI	48045-1508	US		Congratulations Jenny, we love you!  Dad and Susan From Terry D. Wilson	false		
113-0774891-3513800	56527633799066	2020-10-22T15:56:53+00:00	2020-10-22T08:56:53-07:00	2020-10-22T16:22:31+00:00	2020-10-27T06:59:59+00:00	-5	7xhcm1kf69nks78@marketplace.amazon.com	Ferdinand Prantl	+1 602-671-6610 ext. 19419	ABR013	Delivery by Monday | Arabella Farm Direct Bouquet of 18 Fresh Cut Yellow Roses with a Free Glass Vase	1	0	1	Expedited	Jessica Wilkinson	425 SHOREBIRD LN			CHESAPEAKE	VA	23323-4056	US		Congratulations on your newest Certification!!! From Donna Prantl	false		
111-2707423-0135421	09836246192002	2020-10-22T16:02:53+00:00	2020-10-22T09:02:53-07:00	2020-10-22T16:27:28+00:00	2020-10-27T06:59:59+00:00	-5	mxfjrw2h76nlpmv@marketplace.amazon.com	Kimberly A Rosenthal	+704-877-7266	ABM025	Delivery by Monday | The Fell for You Bouquet by Arabella Bouquets	1	0	1	Expedited	Audrey Gardner	2020 WINDSOR RUN LN APT 201			MATTHEWS	NC	28105-0060	US		Dear Aunt Audrey, Happy Birthday!  Think about you often, hope you are well.  Love and Miss you. xo xo From Kim, Mike, Zach and Olivia	false		
112-7926984-4536266	66697092654194	2020-10-22T16:08:06+00:00	2020-10-22T09:08:06-07:00	2020-10-22T16:31:12+00:00	2020-10-27T06:59:59+00:00	-5	dnck236cv28cx7t@marketplace.amazon.com	Adina Lavoie	+1 415-851-9136 ext. 05046	ABR0022	Delivery by Friday | Arabella Farm Direct Bouquet of 12 Fresh Cut Pink Roses with a Free Glass Vase	1	0	1	Standard	Addy Quinn Upton	114 BIG OAK CIR			MAYLENE	AL	35114-9724	US		Dear Addy Quinn, Ashtyn, and Alexandra,  I hope these flowers are as beautiful as you girls!! I miss you soooo much and hope you have an extra special Halloween, too. I love you very much. XOXO- Aunt DeeDee ❤️🌈🎃 From Adina Lavoie	false		
111-4565429-9276245	53321563403074	2020-10-22T16:03:17+00:00	2020-10-22T09:03:17-07:00	2020-10-22T16:33:19+00:00	2020-10-27T06:59:59+00:00	-5	jjmzhpw47089wh8@marketplace.amazon.com	CAMILLE DEROSA	+1 213-442-1463 ext. 18358	ABR0033	Delivery by Monday | Arabella Farm Direct Bouquet of 12 Fresh Cut Orange Roses with a Free Glass Vase	1	0	1	Expedited	CIKANOWICK FAMILY	1200 HERITAGE CLUB DR			GREENVILLE	SC	29615-3982	US			false		
113-8268401-1125039	22043754590738	2020-10-22T16:36:00+00:00	2020-10-22T09:36:00-07:00	2020-10-22T16:39:04+00:00	2020-10-23T06:59:59+00:00	-1	dxz3mlxz6lyfsxf@marketplace.amazon.com	Christine A Stevens	+1 619-854-2705 ext. 18704	ABR0022	Delivery by Friday | Arabella Farm Direct Bouquet of 12 Fresh Cut Pink Roses with a Free Glass Vase	1	0	1	NextDay	Phyllis Pickens	500 WALTON WAY APT 117			ROSWELL	GA	30076-3426	US			false		
112-4593357-6938619	36446414333514	2020-10-22T16:31:12+00:00	2020-10-22T09:31:12-07:00	2020-10-22T16:40:51+00:00	2020-10-27T06:59:59+00:00	-5	3qrm3zzt78r39fn@marketplace.amazon.com	Yoko Carrola	+1 480-618-5344 ext. 13088	ABB013	Arabella Bouquets | 24 Stems of Fresh Cut White Roses in a Free Designer Glass Vase	1	0	1	Expedited	Yumi Horton	2333 GARFIELD AVE			CARMICHAEL	CA	95608-5119	US		We are truly sorry to hear of your loss. May you still feel the light of your mother’s love for you, especially in this time of sorrow. From Emiko Okabe and Yoko Carrola	false		
112-0311159-7689012	08644168989602	2020-10-22T17:03:00+00:00	2020-10-22T10:03:00-07:00	2020-10-22T17:03:57+00:00	2020-10-23T06:59:59+00:00	-1	zhgqfjfrssp71ym@marketplace.amazon.com	enrique quaglia	+1 213-442-1463 ext. 33956	ABR0022	Delivery by Friday | Arabella Farm Direct Bouquet of 12 Fresh Cut Pink Roses with a Free Glass Vase	1	0	1	NextDay	Margarita Beral	296 KNOX AVE APT A1			CLIFFSIDE PARK	NJ	07010-2560	US		Best wishes...... From enrique quaglia @ meneses clan.	false		
111-3788288-5093047	48170799287242	2020-10-22T17:17:16+00:00	2020-10-22T10:17:16-07:00	2020-10-22T17:18:08+00:00	2020-10-27T06:59:59+00:00	-5	2j0w8qbfskyqjmb@marketplace.amazon.com	Nathan Latimer	+1 619-854-2705 ext. 06065	ABM010	Delivery by Friday | The Spring Fling Bouquet by Arabella Bouquets with a Free Designer Glass Vase	1	0	1	Expedited	Jocelyn King	19 LAMBETH CIR			SANDWICH	MA	02563-2423	US		Congratulations on beginning your dental implant experience. We appreciate you as a patient!  Dr Balthazar & Dr Latimer From Nathan Latimer	false		
113-2544248-4842607	02607259940162	2020-10-22T17:21:20+00:00	2020-10-22T10:21:20-07:00	2020-10-22T17:47:55+00:00	2020-10-27T06:59:59+00:00	-5	s6wvytqrwl5zdny@marketplace.amazon.com	gailbrady@yahoo.com	+1 619-854-2705 ext. 51560	ABR0066	Delivery by Monday | Arabella Bouquets 12 Stems of Fresh Cut White Roses in a Free Designer Glass Vase	1	0	1	Standard	Marge Longabucco	24 EVERETT ST			TUCKAHOE	NY	10707-3733	US			false		
