order-id	order-item-id	purchase-date	payments-date	reporting-date	promise-date	days-past-promise	buyer-email	buyer-name	buyer-phone-number	sku	product-name	quantity-purchased	quantity-shipped	quantity-to-ship	ship-service-level	recipient-name	ship-address-1	ship-address-2	ship-address-3	ship-city	ship-state	ship-postal-code	ship-country	gift-wrap-type	gift-message-text	is-business-order	purchase-order-number	price-designation
112-7503979-6214615	52237022406050	2020-10-21T17:35:49+00:00	2020-10-21T10:35:49-07:00	2020-10-21T18:04:31+00:00	2020-10-24T06:59:59+00:00	-1	zjhgth092mwp5lw@marketplace.amazon.com	Paul Camacho	+1 213-442-1463 ext. 26818	ABM031	Delivery by Friday | The Harvest Moon Bouquet by Arabella Bouquets	1	0	1	Expedited	Paul Camacho	8441 E KETCHUM WAY			ANAHEIM	CA	92808-2367	US		Enjoy the flowers, LOML You deserve so much more and in time we will get it done! All my love From Paul Camacho	false		
112-3189841-7915469	34496838956626	2020-10-21T17:46:42+00:00	2020-10-21T10:46:42-07:00	2020-10-21T18:13:02+00:00	2020-10-24T06:59:59+00:00	-1	kr6g5sf35h6s5qf@marketplace.amazon.com	Katelyn Kane	+1 602-671-6610 ext. 01864	ABM025	Delivery by Monday | The Fell for You Bouquet by Arabella Bouquets	1	0	1	Expedited	The Popjoy Family	474 WESTWOOD DR			WEST DEPTFORD	NJ	08096-3130	US		We are so sorry for your loss. Keeping your family in our prayers. We love you all so much! From Sophie, Katelyn and Cera	false		
111-3747228-7704268	36625536309194	2020-10-21T17:55:48+00:00	2020-10-21T10:55:48-07:00	2020-10-21T18:26:27+00:00	2020-10-24T06:59:59+00:00	-1	cjgqx70fwvdq2zh@marketplace.amazon.com	Ryan Cunningham	+1 480-618-5344 ext. 15736	ABR001	Delivery by Friday | Arabella Bouquets 12 Stems of Fresh Cut Red Roses in a Free Designer Glass Vase	1	0	1	Expedited	Ryan Cunningham	1276 POULOS RD			INDIANA	PA	15701-5941	US			false		
114-4987776-9249831	70029719283866	2020-10-21T19:01:44+00:00	2020-10-21T12:01:44-07:00	2020-10-21T19:28:59+00:00	2020-10-24T06:59:59+00:00	-1	pvwvm5z5cz8b827@marketplace.amazon.com	Walter Steinhoff	+1 619-854-2705 ext. 60296	ABR012	Arabella Farm Direct Bouquet of 18 Fresh Cut Pink Roses with a Free Glass Vase	1	0	1	Expedited	Jane Tuomala	112 WILDWOOD CIR			BLOOMINGBURG	NY	12721-4118	US		Happy Birthday!! Much Love!! From GG and GP	false		
111-1454850-4125035	26874776989898	2020-10-21T19:27:56+00:00	2020-10-21T12:27:56-07:00	2020-10-21T19:51:34+00:00	2020-10-24T06:59:59+00:00	-1	h616yd9qw8fl9sq@marketplace.amazon.com	DEBBIE YOUSEF	+1 480-618-5344 ext. 25746	ABM010	Delivery by Friday | The Spring Fling Bouquet by Arabella Bouquets with a Free Designer Glass Vase	1	0	1	Expedited	DEBBIE YOUSEF	12147 LAKELAND RD SPC 53			SANTA FE SPRINGS	CA	90670-5966	US		HAPPY BIRTHDAY Sweetie!  I love you yesterday, today, tomorrow and forever always! Your the best!  Your Sweetheart forever From DEBBIE	false		
113-9109490-7594653	54809121655114	2020-10-21T19:34:57+00:00	2020-10-21T12:34:57-07:00	2020-10-21T19:55:10+00:00	2020-10-24T06:59:59+00:00	-1	k4pxx269l7cqwmp@marketplace.amazon.com	Kate Dutton	+1 619-854-2705 ext. 56260	ABM021	Delivery by Monday | The Joyous Bouquet by Arabella Bouquets	1	0	1	Expedited	Mrs J Frank	5550 N FIGARDEN DR APT 138			FRESNO	CA	93722-3864	US		Dear Jeanne, wishing you a very happy birthday from a long distance away. We're so sorry we can't be with you, but looking forward to hopefully seeing you and celebrating properly next year. Much love, Kate & Claire Xxx From Kate Dutton	false		
113-1366459-4923436	52733193132162	2020-10-21T19:44:17+00:00	2020-10-21T12:44:17-07:00	2020-10-21T20:11:30+00:00	2020-10-24T06:59:59+00:00	-1	58yhfj3kh67rzhk@marketplace.amazon.com	Stella Rogers	+1 213-442-1463 ext. 86040	ABM029	Delivery by Monday | The Day Dream Bouquet by Arabella Bouquets	1	0	1	Expedited	Julia Rogers	75 S HILLSIDE AVE			ELMSFORD	NY	10523-3620	US		Enjoy your gift! From Stella Rogers	false		
114-2383154-1944248	07265877301450	2020-10-21T20:26:47+00:00	2020-10-21T13:26:47-07:00	2020-10-21T20:52:54+00:00	2020-10-24T06:59:59+00:00	-1	xw6vf0vjhkzldbt@marketplace.amazon.com	Cal Paterson	61414416049	ABM022	Delivery by Friday | Purple Extravagance Bouquet by Arabella Bouquets	1	0	1	Expedited	Freya Wilson	922 NW 63RD ST			SEATTLE	WA	98107-2214	US		Dear Freya, Ben and Marigold, congratulations on the addition of the gorgeous Kit to your beautiful family.  Love Cal Calli Zali and Roxy. From Paterbrowns	false		
111-3023329-3458634	44863197818810	2020-10-21T20:32:42+00:00	2020-10-21T13:32:42-07:00	2020-10-21T21:02:50+00:00	2020-10-24T06:59:59+00:00	-1	1d67hwfq74w8qk7@marketplace.amazon.com	Gary c Griffith	+1 480-618-5344 ext. 90067	ABR001	Delivery by Friday | Arabella Bouquets 12 Stems of Fresh Cut Red Roses in a Free Designer Glass Vase	1	0	1	Expedited	Linda Lane	1710 ECHOLS ST APT 4			BRYAN	TX	77801-1255	US			true		Business Price
112-9672217-2705860	47805890600330	2020-10-21T20:43:26+00:00	2020-10-21T13:43:26-07:00	2020-10-21T21:07:27+00:00	2020-10-24T06:59:59+00:00	-1	gsxk42p4tx3bqx3@marketplace.amazon.com	tracey rudman	+1 619-854-2705 ext. 24285	ABR0033	Delivery by Monday | Arabella Farm Direct Bouquet of 12 Fresh Cut Orange Roses with a Free Glass Vase	1	0	1	Expedited	Gale Marshall	13982 IPAVA DR			POWAY	CA	92064-3421	US		Gale,  Dear Friend, Thinking of you always and hoping these remind you of how loved and special you are.  Have a great day! Love-Tracey From tracey rudman	false		
111-7707439-6204218	29588263284946	2020-10-21T21:29:16+00:00	2020-10-21T14:29:16-07:00	2020-10-21T21:56:24+00:00	2020-10-24T06:59:59+00:00	-1	0dqyt96zqbpjkks@marketplace.amazon.com	Christian camarena	+1 619-854-2705 ext. 90808	ABR001	Delivery by Friday | Arabella Bouquets 12 Stems of Fresh Cut Red Roses in a Free Designer Glass Vase	1	0	1	Expedited	Edith O	3645 E 4TH ST			LOS ANGELES	CA	90063-3916	US			false		
111-9313915-2953021	52454629559698	2020-10-21T21:42:13+00:00	2020-10-21T14:42:13-07:00	2020-10-21T22:10:28+00:00	2020-10-24T06:59:59+00:00	-1	lj0tg1dg7g5xq1v@marketplace.amazon.com	Craig Russell	+1 602-671-6610 ext. 32779	ABR001	Delivery by Friday | Arabella Bouquets 12 Stems of Fresh Cut Red Roses in a Free Designer Glass Vase	1	0	1	Expedited	Suzy Russell	31 WHITE SAIL			LAGUNA NIGUEL	CA	92677-4243	US		We hope you have a wonderful birthday!  We love you!  Love, From Craig and Sandie Russell	false		
113-1578127-9680210	07551787404258	2020-10-21T22:28:32+00:00	2020-10-21T15:28:32-07:00	2020-10-21T22:40:03+00:00	2020-10-24T06:59:59+00:00	-1	vt47gg9n1v183qd@marketplace.amazon.com	Diana Higgins	+1 480-618-5344 ext. 40835	ABR015	Delivery by Monday | Arabella Farm Direct Bouquet of 18 Fresh Cut Orange Roses with a Free Glass Vase	1	0	1	Expedited	Emily Ivey	28264 US-70			San Patricio	New Mexico	88348	US			false		
113-0363012-2653007	62676904802938	2020-10-21T23:14:05+00:00	2020-10-21T16:14:05-07:00	2020-10-21T23:42:45+00:00	2020-10-24T06:59:59+00:00	-1	b9kw3my79vkzjv5@marketplace.amazon.com	Angela Kauffman	+1 415-851-9136 ext. 47580	ABM020	Delivery by Monday | The Sunset Bouquet by Arabella Bouquets	1	0	1	Expedited	Michelle Kush	10356 KINGSBRIDGE RD			ELLICOTT CITY	MD	21042-5850	US		Michelle,  Happy Birthday!  We wish you all the best!  Have an awesome day! From Love, Ash, Ang & Steve	false		
113-7955155-9600222	21207474012722	2020-10-21T23:34:21+00:00	2020-10-21T16:34:21-07:00	2020-10-21T23:56:46+00:00	2020-10-24T06:59:59+00:00	-1	5j00hvyslj0p5kx@marketplace.amazon.com	Jerry A Salvador	+1 213-442-1463 ext. 37361	ABR001	Delivery by Friday | Arabella Bouquets 12 Stems of Fresh Cut Red Roses in a Free Designer Glass Vase	1	0	1	Expedited	Emma  Salvador	59 ARLINGTON DR			SOUTH SAN FRANCISCO	CA	94080-1124	US		To a good sister.  I love you! j From Big Brother	false		
114-3078358-0548268	04242529741690	2020-10-22T00:02:26+00:00	2020-10-21T17:02:26-07:00	2020-10-22T00:27:31+00:00	2020-10-24T06:59:59+00:00	-1	c6y0lstvnmhjw4z@marketplace.amazon.com	Robert Kisel	+1 602-671-6610 ext. 42942	ABM022	Delivery by Friday | Purple Extravagance Bouquet by Arabella Bouquets	1	0	1	Expedited	Raymond Kizelevicus	759 E WASHINGTON BLVD			LOMBARD	IL	60148-2953	US		Something to brighten your recovery a bit! Get well soon! From Robert and Sharon Kisel	false		
112-0222293-6480239	35675729329410	2020-10-22T00:10:08+00:00	2020-10-21T17:10:08-07:00	2020-10-22T00:39:42+00:00	2020-10-24T06:59:59+00:00	-1	d7tlx9nk34v4chg@marketplace.amazon.com	carolyn arras	+1 619-854-2705 ext. 69611	ABR0066	Delivery by Monday | Arabella Bouquets 12 Stems of Fresh Cut White Roses in a Free Designer Glass Vase	1	0	1	Expedited	Carolyn Arras	2370 HILLSIDE TER			LAFAYETTE	CO	80026-3440	US			false		
114-8800562-0273808	05318708226386	2020-10-22T01:32:13+00:00	2020-10-21T18:32:13-07:00	2020-10-22T01:53:34+00:00	2020-10-24T06:59:59+00:00	-1	fbq3fz2lcj3kbtd@marketplace.amazon.com	Mary-Kate Lewis	+1 213-442-1463 ext. 07004	ABM010	Delivery by Friday | The Spring Fling Bouquet by Arabella Bouquets with a Free Designer Glass Vase	1	0	1	Expedited	Bernadine Burghdurf	4632 SAELI RD			SAVANNAH	NY	13146-9658	US		Happy Birthday, Nana! We wish we could be there to celebrate you! We love you!!! From Laura, Mary-Kate, Josh, & Isaac :)	false		
113-9089894-7205807	29251367718922	2020-10-22T01:49:25+00:00	2020-10-21T18:49:25-07:00	2020-10-22T02:10:52+00:00	2020-10-24T06:59:59+00:00	-1	vyc5g5xg0gn2wcg@marketplace.amazon.com	Tzeitel Waldron	+1 929-436-4790 ext. 41319	ABR0033	Delivery by Monday | Arabella Farm Direct Bouquet of 12 Fresh Cut Orange Roses with a Free Glass Vase	1	0	1	Expedited	Birthday Girl Cruz aka Maria Teresa	10209B ASHBROOKE CT			OAKTON	VA	22124-3101	US		Happy Birthday, Mom!!! Happy Birthday, Gami! We wish you a beautiful day, week, month. Nay, year!!! Big love to you. 💕 Abrazotototototes! 🥳🎂🎉🤗 From Tzeitel & Anielka	false		
111-2144173-6217849	50555565580450	2020-10-22T02:13:28+00:00	2020-10-21T19:13:28-07:00	2020-10-22T02:42:07+00:00	2020-10-24T06:59:59+00:00	-1	03c3k07g2tf5tnc@marketplace.amazon.com	Kazim Guven	+1 602-671-6610 ext. 69685	ABM002	Delivery by Monday | Arabella Bouquets Fresh Cut White Calla Lilies in a Free Designer Glass Vase	1	0	1	Expedited	Carolyn Uluc	30 WATERSIDE PLZ APT 4-J			NEW YORK	NY	10010-2624	US		Dear Carolyn, Happy Birthday! We send you all our love! xoxo From The Guven Family	false		
112-7562912-2989824	06685394962442	2020-10-22T03:14:12+00:00	2020-10-21T20:14:12-07:00	2020-10-22T03:15:03+00:00	2020-10-24T06:59:59+00:00	-1	yhq2r8p0t00tvv1@marketplace.amazon.com	terri	+1 415-851-9136 ext. 35809	ABR013	Delivery by Monday | Arabella Farm Direct Bouquet of 18 Fresh Cut Yellow Roses with a Free Glass Vase	1	0	1	Expedited	Jane Shattuck	27 EVERGREEN ST			WAKEFIELD	MA	01880-3616	US		Jane, we are so sorry for your loss, and pray you  can enjoy warm memories through this big change in life. With love, From Terri, Lisa and Liz	false		
113-2393346-5651452	29848545706466	2020-10-22T03:32:03+00:00	2020-10-21T20:32:03-07:00	2020-10-22T03:57:19+00:00	2020-10-24T06:59:59+00:00	-1	c95dq4yhg5hmg7k@marketplace.amazon.com	patricia whempner	+1 602-671-6610 ext. 03116	ABR0033	Delivery by Monday | Arabella Farm Direct Bouquet of 12 Fresh Cut Orange Roses with a Free Glass Vase	1	0	1	Expedited	Virginia Gonzales	1500 38TH AVE			SEATTLE	WA	98122-3442	US		Happy Birthday Mija!  Abrazos Pat From patricia whempner	false		
112-2767041-2165055	33354307065746	2020-10-22T05:14:09+00:00	2020-10-21T22:14:09-07:00	2020-10-22T05:41:47+00:00	2020-10-24T06:59:59+00:00	-1	7z7747vd83xlnjq@marketplace.amazon.com	Christie catlin	+1 602-671-6610 ext. 32692	ABR0033	Delivery by Monday | Arabella Farm Direct Bouquet of 12 Fresh Cut Orange Roses with a Free Glass Vase	1	0	1	Expedited	Olivia Heath/ Kim Potter	7725 BODEGA AVE APT 15			SEBASTOPOL	CA	95472-3574	US		Dear Kimbers  36th Happy birthday  Love Mom	false		
112-7022728-1545067	18542661373402	2020-10-22T06:24:41+00:00	2020-10-21T23:24:41-07:00	2020-10-22T06:49:31+00:00	2020-10-24T06:59:59+00:00	-1	tq22xs8k2mh6z3x@marketplace.amazon.com	Phillip N. May	+1 480-618-5344 ext. 52765	ABM022	Delivery by Friday | Purple Extravagance Bouquet by Arabella Bouquets	1	0	1	Expedited	Angie Bertsch	7713 SOUTHSHORE ST			PAPILLION	NE	68046-3628	US		Hope you are feeling better!!!!   Figured you would like flowers better after you are able to get up and moving around more.   Love You Lots!!!! Phil From Phillip N. May	false		
114-0514639-6989056	19204388406618	2020-10-22T07:24:55+00:00	2020-10-22T00:24:55-07:00	2020-10-22T07:54:16+00:00	2020-10-27T06:59:59+00:00	-4	ct3n61b38lcvhf8@marketplace.amazon.com	Guo Rong Chen	+1 602-671-6610 ext. 85451	ABR001	Delivery by Friday | Arabella Bouquets 12 Stems of Fresh Cut Red Roses in a Free Designer Glass Vase	1	0	1	Expedited	Haoge Li	446 CAMBRIDGE ST UNIT 208			ALLSTON	MA	02134-2051	US			false		
111-3725489-0718650	48674712874234	2020-10-22T07:39:39+00:00	2020-10-22T00:39:39-07:00	2020-10-22T08:09:27+00:00	2020-10-27T06:59:59+00:00	-4	4thmxysyg669t0s@marketplace.amazon.com	yuzhu li	+1 619-854-2705 ext. 42761	ABR004	Delivery by Monday | Arabella Farm Direct Bouquet of 12 Fresh Cut Yellow Roses with a Free Glass Vase	1	0	1	Expedited	Karen lin	516 LORING AVE			SALEM	MA	01970-4239	US			false		
111-3499332-5257022	00680967462258	2020-10-22T10:36:43+00:00	2020-10-22T03:36:43-07:00	2020-10-22T10:57:22+00:00	2020-10-27T06:59:59+00:00	-4	q0h25yl66hbyml0@marketplace.amazon.com	Corinna Schenck	+1 602-671-6610 ext. 63554	ABR013	Delivery by Monday | Arabella Farm Direct Bouquet of 18 Fresh Cut Yellow Roses with a Free Glass Vase	1	0	1	Expedited	Lee Staats	2415 TWO OAKS DR			CHARLESTON	SOUTH CAROLINA	29414-4825	US		Enjoy your gift! Liebe Tante! Herzlichen Glückwunsch zu Deinem Geburtstag, Wir haben Dich sehr lieb und vermissen Dich sehr. Hab einen schönen Tag! Liebe Grüße aus Bremen From Corinna Schenck	false		
114-2038329-2568259	16990480603250	2020-10-22T12:39:16+00:00	2020-10-22T05:39:16-07:00	2020-10-22T13:08:57+00:00	2020-10-27T06:59:59+00:00	-4	zt6x5lbhlp9j194@marketplace.amazon.com	damien	+1 602-671-6610 ext. 93001	ABR004	Delivery by Monday | Arabella Farm Direct Bouquet of 12 Fresh Cut Yellow Roses with a Free Glass Vase	1	0	1	Expedited	Julia Ferrick	101 MARKET ST UNIT 312			SAN DIEGO	CA	92101-6812	US		I know you’ve been tired and exhausted lately, hope these bring you some joy Lil J From Sally	false		
111-0152118-8506624	07412258035450	2020-10-22T12:49:07+00:00	2020-10-22T05:49:07-07:00	2020-10-22T13:13:30+00:00	2020-10-27T06:59:59+00:00	-4	2j0w8qbfskyqjmb@marketplace.amazon.com	Nathan Latimer	+1 213-442-1463 ext. 36053	ABM010	Delivery by Friday | The Spring Fling Bouquet by Arabella Bouquets with a Free Designer Glass Vase	1	0	1	Expedited	Suzanne Edwards	91 CHASE ST			WEST HARWICH	MA	02671-1612	US		Congratulations on beginning your dental implant experience. We appreciate you as a patient . Dr Campagna & Dr Latimer From Nathan Latimer	false		
111-8141029-1113866	31857536169370	2020-10-22T12:54:44+00:00	2020-10-22T05:54:44-07:00	2020-10-22T13:24:50+00:00	2020-10-27T06:59:59+00:00	-4	hjxgk8m74978xwj@marketplace.amazon.com	kelsey	+1 602-671-6610 ext. 69413	ABM0044	Delivery by Monday | Arabella Farm Direct Bouquet of Fresh Cut Blue Hydrangea with a Free Glass Vase	1	0	1	Expedited	Garrett and Sara Warren	1525 N REFUGIO RD			SANTA YNEZ	CA	93460-9105	US		Miss you guys xx From kelsey	false		
111-8940413-6223409	48066108598466	2020-10-22T12:56:50+00:00	2020-10-22T05:56:50-07:00	2020-10-22T13:26:07+00:00	2020-10-27T06:59:59+00:00	-4	2j0w8qbfskyqjmb@marketplace.amazon.com	Nathan Latimer	+1 480-618-5344 ext. 30964	ABM010	Delivery by Friday | The Spring Fling Bouquet by Arabella Bouquets with a Free Designer Glass Vase	1	0	1	Expedited	Richard Bolduc	95 CASA BELLA WAY			PLYMOUTH	MA	02360-9000	US		Congratulations on beginning your dental implant experience. We appreciate you as a patient! Dr. Do & Dr. Latimer From Nathan Latimer	false		
111-2159193-3957824	16588154285354	2020-10-22T14:09:24+00:00	2020-10-22T07:09:24-07:00	2020-10-22T14:38:46+00:00	2020-10-27T06:59:59+00:00	-4	x01vf25wqh0tn9p@marketplace.amazon.com	Harland J Schuster	+1 929-436-4790 ext. 70963	ABR0066	Delivery by Monday | Arabella Bouquets 12 Stems of Fresh Cut White Roses in a Free Designer Glass Vase	1	0	1	Expedited	Rainbow Communications	SUZANNE SCHUSTER 628 OREGON ST			HIAWATHA	KS	66434-2231	US			true		Business Price
112-1232016-2537047	14807897907522	2020-10-22T14:51:45+00:00	2020-10-22T07:51:45-07:00	2020-10-22T15:16:19+00:00	2020-10-27T06:59:59+00:00	-4	39ylwdy8gl2h46q@marketplace.amazon.com	david forsman	+1 213-442-1463 ext. 69945	ABR014	Arabella Bouquets 18 Stems of Fresh Cut White Roses in a Free Designer Glass Vase	1	0	1	Expedited	The Copare Family (Congrats from the Forsmans)	5800 MCCOMMAS BLVD APT 105			DALLAS	TX	75206-5739	US			false		
111-7189991-2128221	23088516278386	2020-10-22T14:52:38+00:00	2020-10-22T07:52:38-07:00	2020-10-22T15:21:51+00:00	2020-10-27T06:59:59+00:00	-4	79t3j72q03jc1ys@marketplace.amazon.com	Elizabeth Pedziwiatr	+1 480-618-5344 ext. 54285	ABR004	Delivery by Monday | Arabella Farm Direct Bouquet of 12 Fresh Cut Yellow Roses with a Free Glass Vase	1	0	1	Expedited	Sarah Corrigan	14 S ASHLAND AVE APT 507			LA GRANGE	IL	60525-2372	US		Congrats Aunt Sarah on finishing your program! You rock! From Elizabeth, Evan and Madison	false		
113-0774891-3513800	56527633799066	2020-10-22T15:56:53+00:00	2020-10-22T08:56:53-07:00	2020-10-22T16:22:31+00:00	2020-10-27T06:59:59+00:00	-4	7xhcm1kf69nks78@marketplace.amazon.com	Ferdinand Prantl	+1 602-671-6610 ext. 19419	ABR013	Delivery by Monday | Arabella Farm Direct Bouquet of 18 Fresh Cut Yellow Roses with a Free Glass Vase	1	0	1	Expedited	Jessica Wilkinson	425 SHOREBIRD LN			CHESAPEAKE	VA	23323-4056	US		Congratulations on your newest Certification!!! From Donna Prantl	false		
111-2707423-0135421	09836246192002	2020-10-22T16:02:53+00:00	2020-10-22T09:02:53-07:00	2020-10-22T16:27:28+00:00	2020-10-27T06:59:59+00:00	-4	mxfjrw2h76nlpmv@marketplace.amazon.com	Kimberly A Rosenthal	+704-877-7266	ABM025	Delivery by Monday | The Fell for You Bouquet by Arabella Bouquets	1	0	1	Expedited	Audrey Gardner	2020 WINDSOR RUN LN APT 201			MATTHEWS	NC	28105-0060	US		Dear Aunt Audrey, Happy Birthday!  Think about you often, hope you are well.  Love and Miss you. xo xo From Kim, Mike, Zach and Olivia	false		
112-4593357-6938619	36446414333514	2020-10-22T16:31:12+00:00	2020-10-22T09:31:12-07:00	2020-10-22T16:40:51+00:00	2020-10-27T06:59:59+00:00	-4	3qrm3zzt78r39fn@marketplace.amazon.com	Yoko Carrola	+1 480-618-5344 ext. 13088	ABB013	Arabella Bouquets | 24 Stems of Fresh Cut White Roses in a Free Designer Glass Vase	1	0	1	Expedited	Yumi Horton	2333 GARFIELD AVE			CARMICHAEL	CA	95608-5119	US		We are truly sorry to hear of your loss. May you still feel the light of your mother’s love for you, especially in this time of sorrow. From Emiko Okabe and Yoko Carrola	false		
111-3788288-5093047	48170799287242	2020-10-22T17:17:16+00:00	2020-10-22T10:17:16-07:00	2020-10-22T17:18:08+00:00	2020-10-27T06:59:59+00:00	-4	2j0w8qbfskyqjmb@marketplace.amazon.com	Nathan Latimer	+1 619-854-2705 ext. 06065	ABM010	Delivery by Friday | The Spring Fling Bouquet by Arabella Bouquets with a Free Designer Glass Vase	1	0	1	Expedited	Jocelyn King	19 LAMBETH CIR			SANDWICH	MA	02563-2423	US		Congratulations on beginning your dental implant experience. We appreciate you as a patient!  Dr Balthazar & Dr Latimer From Nathan Latimer	false		
113-2544248-4842607	02607259940162	2020-10-22T17:21:20+00:00	2020-10-22T10:21:20-07:00	2020-10-22T17:47:55+00:00	2020-10-27T06:59:59+00:00	-4	s6wvytqrwl5zdny@marketplace.amazon.com	gailbrady@yahoo.com	+1 619-854-2705 ext. 51560	ABR0066	Delivery by Monday | Arabella Bouquets 12 Stems of Fresh Cut White Roses in a Free Designer Glass Vase	1	0	1	Standard	Marge Longabucco	24 EVERETT ST			TUCKAHOE	NY	10707-3733	US			false		
114-0129812-5341000	01167212913090	2020-10-22T18:35:27+00:00	2020-10-22T11:35:27-07:00	2020-10-22T18:40:08+00:00	2020-10-24T06:59:59+00:00	-1	z8dtlpd27jbrfl3@marketplace.amazon.com	victor	+1 415-851-9136 ext. 93019	ABR0022	Delivery by Saturday | Arabella Farm Direct Bouquet of 12 Fresh Cut Pink Roses with a Free Glass Vase	1	0	1	NextDay	sylvia kaminetsky	240 E 47TH ST APT 34C			NEW YORK	NY	10017-2139	US			false		
113-7138884-4437046	25744054545138	2020-10-22T18:48:35+00:00	2020-10-22T11:48:35-07:00	2020-10-22T18:49:24+00:00	2020-10-24T06:59:59+00:00	-1	knk14t5nbp3dzwf@marketplace.amazon.com	eloy mestre	+1 602-671-6610 ext. 02226	ABR0055	Delivery by Saturday | Arabella Farm Direct Bouquet of 12 Stems of Fresh Cut Hot Pink Roses in a Free Designer Glass Vase	1	0	1	NextDay	Mabel mestre	1723 22ND CT N			ARLINGTON	VA	22209-1129	US		I am crazy about u and will always be married to u emotionally fotever and hopefully physically. Ir Cross es my kind that u may throw the flowers away but they will always have a positive meaning to me and i hope to u too. From U husband foeever	false		
114-3275613-4521009	17238172595858	2020-10-22T18:51:33+00:00	2020-10-22T11:51:33-07:00	2020-10-22T18:52:26+00:00	2020-10-24T06:59:59+00:00	-1	lgq4wrj945dm1jx@marketplace.amazon.com	John Parrott	+1 602-671-6610 ext. 50809	ABM022	Delivery by Saturday | Purple Extravagance Bouquet by Arabella Bouquets	1	0	1	NextDay	John Parrott	4211 W ARROWHEAD RD			SPOKANE	WA	99208-4966	US		GET WELL FAST!  TIGER AND RANGER ARE COUNTING ON YOU!  WE LOVE YOU AND ARE SO HAPPY YOU ARE RECOVERING SO WELL.  LOVE, MOM & DAD From John Parrott	false		
112-5271302-5666652	11029211755794	2020-10-22T18:56:25+00:00	2020-10-22T11:56:25-07:00	2020-10-22T19:01:39+00:00	2020-10-24T06:59:59+00:00	-1	b4jhb69v2cg9scd@marketplace.amazon.com	Anthony Podojil	+1 619-854-2705 ext. 69931	ABR0055	Delivery by Saturday | Arabella Farm Direct Bouquet of 12 Stems of Fresh Cut Hot Pink Roses in a Free Designer Glass Vase	1	0	1	NextDay	Carolyn Bobbit	8140 TOWNSHIP LINE RD			INDIANAPOLIS	IN	46260-5824	US			false		
113-3697042-4865818	21230935015946	2020-10-22T19:01:28+00:00	2020-10-22T12:01:28-07:00	2020-10-22T19:02:59+00:00	2020-10-24T06:59:59+00:00	-1	8jyxjz3jkvqf1sd@marketplace.amazon.com	Hector	+1 929-436-4790 ext. 38003	ABR0066	Delivery by Monday | Arabella Bouquets 12 Stems of Fresh Cut White Roses in a Free Designer Glass Vase	1	0	1	NextDay	Marie Martinez	28-31 Borden Avenue	Crystal Comfort Inc.		Long Island City	New York	11101	US			false		
113-5863680-6216246	25375917960202	2020-10-22T19:09:24+00:00	2020-10-22T12:09:24-07:00	2020-10-22T19:12:17+00:00	2020-10-24T06:59:59+00:00	-1	y57k8px3jk08772@marketplace.amazon.com	Elizabeth Zamora	+1 213-442-1463 ext. 07301	ABR0022	Delivery by Saturday | Arabella Farm Direct Bouquet of 12 Fresh Cut Pink Roses with a Free Glass Vase	1	0	1	NextDay	Gladys Fernandez	4440 SW 1ST ST			MIAMI	FL	33134-1521	US		Felicitates para nuestra hermana. Te queremos muchisimo Orlando y Gladys From Huguet’s	false		
113-8101324-3080211	61189092932618	2020-10-22T19:12:40+00:00	2020-10-22T12:12:40-07:00	2020-10-22T19:16:26+00:00	2020-10-24T06:59:59+00:00	-1	y57k8px3jk08772@marketplace.amazon.com	Elizabeth Zamora	+1 602-671-6610 ext. 05702	ABR013	Delivery by Monday | Arabella Farm Direct Bouquet of 18 Fresh Cut Yellow Roses with a Free Glass Vase	1	0	1	NextDay	Gladys Fernandez	4440 SW 1ST ST			MIAMI	FL	33134-1521	US		To our wonderful loving Tia. Happy Birthday and many many beautiful days for you. Luv you Liz and Jorge From Elizabeth Zamora	false		
113-7430446-0079467	60899091823642	2020-10-22T19:14:43+00:00	2020-10-22T12:14:43-07:00	2020-10-22T19:18:50+00:00	2020-10-24T06:59:59+00:00	-1	0prp9dznx5p7vf2@marketplace.amazon.com	Laurie Pelosi	+1 929-436-4790 ext. 38325	ABR0055	Delivery by Saturday | Arabella Farm Direct Bouquet of 12 Stems of Fresh Cut Hot Pink Roses in a Free Designer Glass Vase	1	0	1	NextDay	Deborah Gatto	88 MILL ST			WEYMOUTH	MA	02188-1925	US		Wishing you a speedy recovery, all good thoughts your way!!! From Laurie Pelosi and Barbara	false		
114-8714480-9488228	59882020356618	2020-10-22T19:38:43+00:00	2020-10-22T12:38:43-07:00	2020-10-22T19:43:57+00:00	2020-10-24T06:59:59+00:00	-1	6g5p03v3qdc4mfn@marketplace.amazon.com	gary Prestridge	+1 602-671-6610 ext. 90476	ABM010	Delivery by Saturday | The Spring Fling Bouquet by Arabella Bouquets with a Free Designer Glass Vase	1	0	1	NextDay	Sandra Woo	210 SAINT ANDREWS WAY			SANTA MARIA	CA	93455-1612	US			false		
112-3137193-9395459	50220818596410	2020-10-22T19:54:07+00:00	2020-10-22T12:54:07-07:00	2020-10-22T19:56:04+00:00	2020-10-24T06:59:59+00:00	-1	xt9rs4c52ggdhn7@marketplace.amazon.com	Gloria Pope	+1 929-436-4790 ext. 39426	ABR0055	Delivery by Saturday | Arabella Farm Direct Bouquet of 12 Stems of Fresh Cut Hot Pink Roses in a Free Designer Glass Vase	1	0	1	NextDay	Gloria Pope	207 Salt Creek Lane			Georgetown	TX	78633-5414	US		To wonderful neighbors with blessings and love From Jack and Gloria Pope	false		
114-5096423-6365869	27717214704690	2020-10-22T19:59:45+00:00	2020-10-22T12:59:45-07:00	2020-10-22T20:04:25+00:00	2020-10-24T06:59:59+00:00	-1	0brp517xp8824sc@marketplace.amazon.com	Theresamarino	+1 213-442-1463 ext. 85650	ABB011	Arabella Bouquets 24 Stems of Fresh Cut Hot Pink Roses in a Free Designer Glass Vase	1	0	1	NextDay	Anita corozzo	15550 79TH ST			HOWARD BEACH	NY	11414-2315	US		Anita  I am so thankful to have you as my friend. I adore you . HAPPY BIRTHDAY  WE LOVE YOU! RON THERESA SOFIA From Theresamarino	false		
112-6948695-1610626	45700428389698	2020-10-22T20:08:54+00:00	2020-10-22T13:08:54-07:00	2020-10-22T20:13:46+00:00	2020-10-24T06:59:59+00:00	-1	ht6mfv6khdntl1r@marketplace.amazon.com	Steven	+1 602-671-6610 ext. 92645	ABR0055	Delivery by Saturday | Arabella Farm Direct Bouquet of 12 Stems of Fresh Cut Hot Pink Roses in a Free Designer Glass Vase	1	0	1	NextDay	Brooke hot sauce Jacobs	5440 RED SUN DR			LAS VEGAS	NV	89149-6641	US			true		
113-3645615-4261863	65989793478418	2020-10-22T20:08:34+00:00	2020-10-22T13:08:34-07:00	2020-10-22T20:13:49+00:00	2020-10-24T06:59:59+00:00	-1	ryd0w4988vcdcn7@marketplace.amazon.com	Jose Isaac Padilla	+1 929-436-4790 ext. 66377	ABR0066	Delivery by Monday | Arabella Bouquets 12 Stems of Fresh Cut White Roses in a Free Designer Glass Vase	1	0	1	NextDay	Josie Bisono	700 BROOK AVE APT 1G			BRONX	NY	10455-1391	US			false		
112-4813572-6902607	48332770357794	2020-10-22T20:12:55+00:00	2020-10-22T13:12:55-07:00	2020-10-22T20:13:58+00:00	2020-10-24T06:59:59+00:00	-1	blkp0ny0f6q403v@marketplace.amazon.com	Dan baker	+1 213-442-1463 ext. 37750	ABM022	Delivery by Saturday | Purple Extravagance Bouquet by Arabella Bouquets	1	0	1	NextDay	Emilie pinto	475 S PERKINS RD APT 906			MEMPHIS	TN	38117-3924	US		We share your friend and suffering. Love, Jinghui Zhang and Danny BAKER	false		
114-6665734-7948233	67185698850690	2020-10-22T20:13:59+00:00	2020-10-22T13:13:59-07:00	2020-10-22T20:17:12+00:00	2020-10-24T06:59:59+00:00	-1	vdjnfssgr0cxsnv@marketplace.amazon.com	Natali	+1 619-854-2705 ext. 87744	ABM010	Delivery by Saturday | The Spring Fling Bouquet by Arabella Bouquets with a Free Designer Glass Vase	1	0	1	NextDay	Ann Ricciardi	1249 W ISLAND CLUB SQ			VERO BEACH	FL	32963-5517	US		Dear Ann, happy mother-in-law day! You have been my rock this last year, I couldn’t have made it through without you! From I love you, Natali.	false		
111-1279249-1895424	50006643683682	2020-10-22T20:20:16+00:00	2020-10-22T13:20:16-07:00	2020-10-22T20:21:12+00:00	2020-10-24T06:59:59+00:00	-1	m9wh27rktq06qjc@marketplace.amazon.com	Wanda Higueros	+1 415-851-9136 ext. 68416	ABM026	Delivery by Monday | The Amour Bouquet by Arabella Bouquets	1	0	1	NextDay	Edner y Diana Castro/ Hortensia Osoy	1549 PLACENTIA AVE APT 124			NEWPORT BEACH	CA	92663-2816	US		Te amamos Mami, Feliz Cumpleanos! Dios te Bendiga. From Familia Villalpando	false		
111-7824150-0295455	26679826864666	2020-10-22T20:19:58+00:00	2020-10-22T13:19:58-07:00	2020-10-22T20:21:33+00:00	2020-10-24T06:59:59+00:00	-1	sry21ms3q529bjm@marketplace.amazon.com	alexandra chihoski	+1 480-618-5344 ext. 24523	ABM022	Delivery by Saturday | Purple Extravagance Bouquet by Arabella Bouquets	1	0	1	NextDay	karena mee	12766 HENSON CREEK ST			PARKER	CO	80134-7590	US		HAPPY BIRTHDAY!! I found out about your birthday the day of, so i'm sorry if they arrived late!! I hope you had an amazing day and can continue to enjoy your weekend alone! Love from Nebraska, Alexandra From Alexandra Chihoski	false		
113-1974475-0437030	14951015413146	2020-10-22T20:21:35+00:00	2020-10-22T13:21:35-07:00	2020-10-22T20:24:55+00:00	2020-10-24T06:59:59+00:00	-1	9wyszkl7vxq9lj4@marketplace.amazon.com	Carlene Giraudy	+1 213-442-1463 ext. 70307	ABR0055	Delivery by Saturday | Arabella Farm Direct Bouquet of 12 Stems of Fresh Cut Hot Pink Roses in a Free Designer Glass Vase	1	0	1	NextDay	Pamela Bobb	1233 MELROSE FOREST LN			LAWRENCEVILLE	GA	30045-7020	US			false		
112-7508781-5941836	37553263971026	2020-10-22T19:58:49+00:00	2020-10-22T12:58:49-07:00	2020-10-22T20:25:39+00:00	2020-10-27T06:59:59+00:00	-4	jkr910gjq8gl65f@marketplace.amazon.com	Nicholas Couchara	+1 213-442-1463 ext. 14606	ABR004	Delivery by Monday | Arabella Farm Direct Bouquet of 12 Fresh Cut Yellow Roses with a Free Glass Vase	1	0	1	Standard	Maria Olifer	3935 CANTERBURY WALK DR			DULUTH	GA	30097-8117	US			false		
113-3559179-6160250	15976399081290	2020-10-22T20:30:33+00:00	2020-10-22T13:30:33-07:00	2020-10-22T20:36:03+00:00	2020-10-24T06:59:59+00:00	-1	rzrdz7z5tzjvvlm@marketplace.amazon.com	Joseph House	+1 480-618-5344 ext. 86579	ABR0022	Delivery by Saturday | Arabella Farm Direct Bouquet of 12 Fresh Cut Pink Roses with a Free Glass Vase	1	0	1	NextDay	Tara Weathersby & Family	303 SPRINGFIELD ST			PARK FOREST	IL	60466-1144	US			false		
111-8639178-8363431	44732472045930	2020-10-22T20:40:59+00:00	2020-10-22T13:40:59-07:00	2020-10-22T20:44:34+00:00	2020-10-24T06:59:59+00:00	-1	x7918s8v0t7kqsl@marketplace.amazon.com	Amey Mitchell	+1 602-671-6610 ext. 08070	ABR0022	Delivery by Saturday | Arabella Farm Direct Bouquet of 12 Fresh Cut Pink Roses with a Free Glass Vase	1	0	1	NextDay	The Majkas	21935 SW 82ND ST			DUNNELLON	FL	34431-4805	US		We love you, Mayme! From Amey and the Crew:)	false		
113-0844937-5601003	45985562916834	2020-10-22T20:49:47+00:00	2020-10-22T13:49:47-07:00	2020-10-22T20:50:41+00:00	2020-10-24T06:59:59+00:00	-1	3rqvzr5jkvv18rs@marketplace.amazon.com	Maria C Smith	+1 602-671-6610 ext. 09743	ABR0022	Delivery by Saturday | Arabella Farm Direct Bouquet of 12 Fresh Cut Pink Roses with a Free Glass Vase	1	0	1	NextDay	Molly E Shields	1141 BARLEY STONE WAY			RALEIGH	NC	27603-5194	US		This is just a small surprise to celebrate your swearing in :) We are so proud of all of your accomplishments.  You will make a difference in the lives of many (as you always have). We love you, Mar and Sponge From Maria C Smith	false		
112-7315136-1305033	26062203545346	2020-10-22T20:50:07+00:00	2020-10-22T13:50:07-07:00	2020-10-22T20:53:07+00:00	2020-10-24T06:59:59+00:00	-1	1sl32lx46fqcfvp@marketplace.amazon.com	Marisa Delmer	+1 619-854-2705 ext. 29331	ABR012	Delivery by Monday | Arabella Farm Direct Bouquet of 18 Fresh Cut Pink Roses with a Free Glass Vase	1	0	1	NextDay	Vanessa Matthews	782 PRADERA WAY			SAN RAMON	CA	94583-5365	US		MA VANESSA Gabadouuu !!!! Joyeux anniversaire !!! On t'aime fort ! Juju & Marisa From Marisa Delmer	false		
112-3678976-7745062	61539862927546	2020-10-22T21:15:32+00:00	2020-10-22T14:15:32-07:00	2020-10-22T21:16:22+00:00	2020-10-24T06:59:59+00:00	-1	ghw8fbm8b7jmmp3@marketplace.amazon.com	Karen Quintanilla	+1 602-671-6610 ext. 64156	ABM022	Delivery by Saturday | Purple Extravagance Bouquet by Arabella Bouquets	1	0	1	NextDay	KRISTEN SWEARINGEN	12504 MULBERRY CREEK CT			AUSTIN	TX	78732-2113	US		To My Marvelous MM Friend: You are taking brave steps to a bright future! Prayers for much success with your transplant. Love, Karen From Karen Quintanilla	false		
111-2373268-3153858	28362465740082	2020-10-22T21:18:58+00:00	2020-10-22T14:18:58-07:00	2020-10-22T21:23:43+00:00	2020-10-24T06:59:59+00:00	-1	4qcfnqzj5dzhk5p@marketplace.amazon.com	Heber Cuesta	+1 415-851-9136 ext. 62237	ABR0022	Delivery by Saturday | Arabella Farm Direct Bouquet of 12 Fresh Cut Pink Roses with a Free Glass Vase	1	0	1	NextDay	M Cuesta	120 DREISER LOOP APT 20 D			BRONX	NY	10475-2603	US			false		
111-2373268-3153858	62289329539754	2020-10-22T21:18:58+00:00	2020-10-22T14:18:58-07:00	2020-10-22T21:23:43+00:00	2020-10-24T06:59:59+00:00	-1	4qcfnqzj5dzhk5p@marketplace.amazon.com	Heber Cuesta	+1 415-851-9136 ext. 62237	ABR0055	Delivery by Saturday | Arabella Farm Direct Bouquet of 12 Stems of Fresh Cut Hot Pink Roses in a Free Designer Glass Vase	1	0	1	NextDay	M Cuesta	120 DREISER LOOP APT 20 D			BRONX	NY	10475-2603	US			false		
114-2343112-2701025	56307676721434	2020-10-22T21:27:39+00:00	2020-10-22T14:27:39-07:00	2020-10-22T21:33:14+00:00	2020-10-24T06:59:59+00:00	-1	b94x3xwkkgg85gn@marketplace.amazon.com	adam tarrance	+1 480-618-5344 ext. 10744	ABM022	Delivery by Saturday | Purple Extravagance Bouquet by Arabella Bouquets	1	0	1	NextDay	Adam Tarrance	44698 BARTON ST APT 1			FORT RILEY	KS	66442-1495	US			false		
114-3256860-6156203	09545437054138	2020-10-22T21:58:50+00:00	2020-10-22T14:58:50-07:00	2020-10-22T22:02:25+00:00	2020-10-24T06:59:59+00:00	-1	ygl3qbq206nnqd0@marketplace.amazon.com	Mary Lee Thrasher	+1 480-618-5344 ext. 70112	ABR0022	Delivery by Saturday | Arabella Farm Direct Bouquet of 12 Fresh Cut Pink Roses with a Free Glass Vase	1	0	1	NextDay	Beatrice Matthews	840 W BLACKHAWK ST APT 1604			CHICAGO	IL	60642-2555	US		Hi Beatrice and Chris, I’m sorry if you are disappointed about the house. You did everything right and a better one will come along! From Mom	false		
113-8794719-8385030	43568382377250	2020-10-21T21:30:58+00:00	2020-10-21T14:30:58-07:00	2020-10-22T22:12:28+00:00	2020-10-27T06:59:59+00:00	-4	zf4ng0cklzzlvld@marketplace.amazon.com	Usha Mohabir	+1 929-436-4790 ext. 74034	ABR0066	Delivery by Monday | Arabella Bouquets 12 Stems of Fresh Cut White Roses in a Free Designer Glass Vase	1	0	1	Expedited	Usha Mohabir	254 COUNTY LINE RD			AMITYVILLE	NY	11701-2905	US			false		
114-4300850-3289805	36972869754874	2020-10-22T22:16:50+00:00	2020-10-22T15:16:50-07:00	2020-10-22T22:19:31+00:00	2020-10-24T06:59:59+00:00	-1	z3zt19841qvy83m@marketplace.amazon.com	Andrew Mertha	+1 602-671-6610 ext. 57218	ABR0033	Delivery by Monday | Arabella Farm Direct Bouquet of 12 Fresh Cut Orange Roses with a Free Glass Vase	1	0	1	NextDay	EVA FOREMAN	878 W END AVE APT 2B			NEW YORK	NY	10025-8464	US		Dear Mom  Happy birthday from Isa, Sophie, and me!  We love you!!!	false		
111-7707260-7253017	09040533918226	2020-10-22T22:18:06+00:00	2020-10-22T15:18:06-07:00	2020-10-22T22:22:01+00:00	2020-10-24T06:59:59+00:00	-1	n6pyc1kjg1wr68c@marketplace.amazon.com	Meredith Payette	+1 480-618-5344 ext. 43328	ABR0055	Delivery by Saturday | Arabella Farm Direct Bouquet of 12 Stems of Fresh Cut Hot Pink Roses in a Free Designer Glass Vase	1	0	1	NextDay	Julie Lin Mothersill	608 BRYAN AVE			SUNNYVALE	CA	94086-6423	US		So excited for you and Jason on baby girl #2. Wishing you a smooth pregnancy and I hope to visit you and the babies soon. Miss you! XOXO From Meredith Payette	false		
113-7731501-2674666	49108711768090	2020-10-22T22:27:56+00:00	2020-10-22T15:27:56-07:00	2020-10-22T22:28:48+00:00	2020-10-24T06:59:59+00:00	-1	7vdsz1qps70n3rp@marketplace.amazon.com	karen bishop	+1 213-442-1463 ext. 91373	ABB006	Arabella Bouquets | Farm Direct 48 Fresh Cut Red Roses	1	0	1	NextDay	Mrs. Erika Sizemore	827 LAZY LN			LUSBY	MD	20657-3545	US		Happy 50th Birthday sweet girl. Here is a red rose for every year you have blessed us with your love.  You are our sunshine and the love of our life.  You truly are our greatest blessing.  We love you beyond measure. From Love, Mom and Dad	false		
114-7413794-4069019	25243943366410	2020-10-22T22:37:21+00:00	2020-10-22T15:37:21-07:00	2020-10-22T22:38:03+00:00	2020-10-24T06:59:59+00:00	-1	fr1n3vky6dt6cx9@marketplace.amazon.com	Luis Márquez Sánchez	+1 213-442-1463 ext. 48987	ABR0055	Delivery by Saturday | Arabella Farm Direct Bouquet of 12 Stems of Fresh Cut Hot Pink Roses in a Free Designer Glass Vase	1	0	1	NextDay	Mayra Jazmín Garcia	285 WIGWAM RD			WEST BROOKFIELD	MA	01585-3208	US		Love me like you do De Guigue	false		
114-5783663-4081851	59538831273546	2020-10-22T22:41:28+00:00	2020-10-22T15:41:28-07:00	2020-10-22T22:42:42+00:00	2020-10-24T06:59:59+00:00	-1	h3h6kjn1gbt0362@marketplace.amazon.com	laura gehrke	+1 929-436-4790 ext. 90381	ABB005	Arabella Bouquets 24 Stems of Fresh Cut Red Roses in a Designer Glass Vase	1	0	1	NextDay	phyllis wheeler	4510 IRONTON AVE APT 7104			LUBBOCK	TX	79407-3787	US		Happy 88th to a wonderful woman and friend.  Love Laura	false		
113-3112104-6460200	11736817823122	2020-10-22T22:50:26+00:00	2020-10-22T15:50:26-07:00	2020-10-22T22:52:38+00:00	2020-10-24T06:59:59+00:00	-1	bd984bxs9thzng6@marketplace.amazon.com	heather k bobo	+1 480-618-5344 ext. 21334	ABR0066	Delivery by Monday | Arabella Bouquets 12 Stems of Fresh Cut White Roses in a Free Designer Glass Vase	1	0	1	NextDay	Lori Valdivia Roby	4711 AMBROSE AVE UNIT 202			LOS ANGELES	CA	90027-1936	US			false		
111-9102800-1328223	11087569210426	2020-10-22T22:50:24+00:00	2020-10-22T15:50:24-07:00	2020-10-22T22:55:28+00:00	2020-10-24T06:59:59+00:00	-1	mtsfzfwjc8st9vj@marketplace.amazon.com	Scott Wang	+1 602-671-6610 ext. 52851	ABR0055	Delivery by Saturday | Arabella Farm Direct Bouquet of 12 Stems of Fresh Cut Hot Pink Roses in a Free Designer Glass Vase	1	0	1	NextDay	Amy Lu	2161 Ortega Hill Rd			Summerland	Ca	93067	US			false		
111-5108256-1852217	37777220613634	2020-10-22T22:53:22+00:00	2020-10-22T15:53:22-07:00	2020-10-22T22:55:57+00:00	2020-10-24T06:59:59+00:00	-1	q1jfgkww78wqgdk@marketplace.amazon.com	arian	+1 619-854-2705 ext. 54611	ABM022	Delivery by Saturday | Purple Extravagance Bouquet by Arabella Bouquets	1	0	1	NextDay	Farzad Nikro-Rezaei	1000 CANONGATE DR			FLOWER MOUND	TX	75022-4366	US		ثميرا و فرزاد عزيزم قدم  نو رسيده مبارك From  Aunt Foroozan & cousin Arian and Jasi	false		
113-5065405-1598654	29048063161114	2020-10-22T22:56:50+00:00	2020-10-22T15:56:50-07:00	2020-10-22T23:00:43+00:00	2020-10-24T06:59:59+00:00	-1	9b6f6gdrqds8tf5@marketplace.amazon.com	Daniel Ochoa	+1 415-851-9136 ext. 77292	ABM031	Delivery by Monday | The Harvest Moon Bouquet by Arabella Bouquets	1	0	1	NextDay	Thania Romero	6506 ASHTON ACRES WAY			BAKERSFIELD	CA	93307-7135	US		Teamo mucho gordita hermosa preciosa!! Eres la mujer mas hermosa corazon! From Daniel Ochoa	false		
112-5161430-8246629	21278402058634	2020-10-22T23:01:03+00:00	2020-10-22T16:01:03-07:00	2020-10-22T23:01:58+00:00	2020-10-24T06:59:59+00:00	-1	3qrm3zzt78r39fn@marketplace.amazon.com	Yoko Carrola	+1 480-618-5344 ext. 40148	ABB013	Arabella Bouquets | 24 Stems of Fresh Cut White Roses in a Free Designer Glass Vase	1	0	1	NextDay	Noriko Nagato	1824 STONE CANYON DR			ROSEVILLE	CA	95661-4042	US		Dear Noriko sensei, We are deeply sorry to hear of your sister.   We extend our deepest sympathy to you and your family at this sad and difficult time.  We will be thinking of you. From Emiko Okabe and Yoko Carrola	false		
111-6950755-9243451	64057034519122	2020-10-22T23:15:56+00:00	2020-10-22T16:15:56-07:00	2020-10-22T23:17:49+00:00	2020-10-24T06:59:59+00:00	-1	lcxd2klthflw4xs@marketplace.amazon.com	I A NAIRN	+1 602-671-6610 ext. 83447	ABR0055	Delivery by Saturday | Arabella Farm Direct Bouquet of 12 Stems of Fresh Cut Hot Pink Roses in a Free Designer Glass Vase	1	0	1	NextDay	Andrew C Nairn, Louise Nairn	1429 N MORNINGSIDE DR NE			ATLANTA	GA	30306-3239	US		Happy Birthday and Wedding Anniversary, Louise! Have a great day. Lots of love from Jan and Ian. From I A NAIRN	false		
112-5990409-5513863	18275424119458	2020-10-22T23:07:24+00:00	2020-10-22T16:07:24-07:00	2020-10-22T23:28:47+00:00	2020-10-27T06:59:59+00:00	-4	cxz00pbs3vvql1x@marketplace.amazon.com	T Durham	+1 213-442-1463 ext. 07403	ABR0022	Delivery by Saturday | Arabella Farm Direct Bouquet of 12 Fresh Cut Pink Roses with a Free Glass Vase	1	0	1	Standard	Theresa Hamilton	3151 ROESCH BLVD APT 5			FAIRFIELD	OH	45014-7003	US		Happy Birthday From T Durham	false		
113-2125093-5213040	38192379995138	2020-10-22T23:32:24+00:00	2020-10-22T16:32:24-07:00	2020-10-22T23:37:39+00:00	2020-10-24T06:59:59+00:00	-1	lwpjv5b0h42b70g@marketplace.amazon.com	jessica	+1 602-671-6610 ext. 87453	ABR0066	Delivery by Monday | Arabella Bouquets 12 Stems of Fresh Cut White Roses in a Free Designer Glass Vase	1	0	1	NextDay	Medrano Family	4073 AMBLER WAY			SAN JOSE	CA	95111-1506	US			false		
114-8293039-1437815	20233043149170	2020-10-22T23:38:06+00:00	2020-10-22T16:38:06-07:00	2020-10-22T23:38:57+00:00	2020-10-24T06:59:59+00:00	-1	jmkb2fbb7hy0mqs@marketplace.amazon.com	susan	+1 415-851-9136 ext. 47542	ABR0022	Delivery by Saturday | Arabella Farm Direct Bouquet of 12 Fresh Cut Pink Roses with a Free Glass Vase	1	0	1	NextDay	Hannah Gebresilassie	1231 SHEPPARD DR SW			LILBURN	GA	30047-6740	US		Dear Hannah. You did an outstanding  job hosting our first ever Int’l Day of the Girl Event. We appreciate your lifting our girls and the girls around the world. Your heart and soul shine so bright. We honor and thank you. From Studio Samuel Board	false		
114-8293039-1437815	23374252888434	2020-10-22T23:38:06+00:00	2020-10-22T16:38:06-07:00	2020-10-22T23:38:57+00:00	2020-10-24T06:59:59+00:00	-1	jmkb2fbb7hy0mqs@marketplace.amazon.com	susan	+1 415-851-9136 ext. 47542	ABR0022	Delivery by Saturday | Arabella Farm Direct Bouquet of 12 Fresh Cut Pink Roses with a Free Glass Vase	1	0	1	NextDay	Hannah Gebresilassie	1231 SHEPPARD DR SW			LILBURN	GA	30047-6740	US		Enjoy your gift! From susan	false		
114-5930413-9144257	35056863005850	2020-10-22T23:40:48+00:00	2020-10-22T16:40:48-07:00	2020-10-22T23:44:51+00:00	2020-10-24T06:59:59+00:00	-1	dl9vdjh3k0tmflp@marketplace.amazon.com	Ronald M James	+1 602-671-6610 ext. 75822	ABM022	Delivery by Saturday | Purple Extravagance Bouquet by Arabella Bouquets	1	0	1	NextDay	Shelby James	1225 WADE GREEN CIR NW			ACWORTH	GEORGIA	30102-3492	US		Thinking of you and missing you bunches!!! From Dad	false		
114-6603678-8425026	35660341477858	2020-10-22T23:47:18+00:00	2020-10-22T16:47:18-07:00	2020-10-22T23:49:08+00:00	2020-10-24T06:59:59+00:00	-1	2ng549zm1tcpsy6@marketplace.amazon.com	APRIL L. BECK-miller	+1 602-671-6610 ext. 44414	ABR0022	Delivery by Saturday | Arabella Farm Direct Bouquet of 12 Fresh Cut Pink Roses with a Free Glass Vase	1	0	1	NextDay	Dorothy Parker	1022 WINDWARD LN			SUFFOLK	VA	23435-3746	US		Get well soon momma, we love you. From The Bibleline	false		
113-4231627-8643432	09084904323034	2020-10-22T23:54:33+00:00	2020-10-22T16:54:33-07:00	2020-10-22T23:57:47+00:00	2020-10-24T06:59:59+00:00	-1	pwcmzt00fd32tx2@marketplace.amazon.com	Nancy J. Adams	+1 480-618-5344 ext. 98322	ABM022	Delivery by Saturday | Purple Extravagance Bouquet by Arabella Bouquets	1	0	1	NextDay	Cindy Bauerfeld	284 CRESTVIEW DR			HASTINGS	MN	55033-1584	US		We love you! And are praying for you, Jay and Nancy From Nancy J. Adams	false		
111-0217351-9809879	34232041057962	2020-10-23T00:04:04+00:00	2020-10-22T17:04:04-07:00	2020-10-23T00:05:11+00:00	2020-10-24T06:59:59+00:00	-1	7brv95zh2q27c7c@marketplace.amazon.com	jack imbo	+1 619-854-2705 ext. 25616	ABR012	Delivery by Monday | Arabella Farm Direct Bouquet of 18 Fresh Cut Pink Roses with a Free Glass Vase	1	0	1	NextDay	Terry Panzera	87 KENWOOD RD			GARDEN CITY	NY	11530-3107	US		Dear Mom,  We hope you have a very happy birthday!  Sorry we won't be with you to celebrate, but we are sending love and hugs across the miles!  Love you loads, Anne & John  xoxo From anne and john	false		
111-5180192-1481036	60013370108154	2020-10-23T00:07:22+00:00	2020-10-22T17:07:22-07:00	2020-10-23T00:10:55+00:00	2020-10-24T06:59:59+00:00	-1	v9xzt4llhcd853j@marketplace.amazon.com	Justin cirrone	+1 619-854-2705 ext. 07089	ABM022	Delivery by Saturday | Purple Extravagance Bouquet by Arabella Bouquets	1	0	1	NextDay	John & Pauline Cuoco	63 ATLANTIC AVE APT 6E			BOSTON	MA	02110-3705	US			false		
111-2529944-0724202	27806738347882	2020-10-23T00:13:17+00:00	2020-10-22T17:13:17-07:00	2020-10-23T00:14:07+00:00	2020-10-24T06:59:59+00:00	-1	p5f27b96nxlyxfc@marketplace.amazon.com	John McAlister	+1 480-618-5344 ext. 87331	ABR0022	Delivery by Saturday | Arabella Farm Direct Bouquet of 12 Fresh Cut Pink Roses with a Free Glass Vase	1	0	1	NextDay	Kirby Pines	DORIS WOODY 3535 KIRBY PKWY			MEMPHIS	TN	38115-3721	US		Happy Birthday! We miss you. Love John, Patti & Andrea. From John McAlister	false		
111-4422717-1541856	36221184130962	2020-10-23T00:13:37+00:00	2020-10-22T17:13:37-07:00	2020-10-23T00:16:28+00:00	2020-10-24T06:59:59+00:00	-1	s2fg60mfwywqrck@marketplace.amazon.com	Ashok Gaikwad	+1 619-854-2705 ext. 09915	ABM020	Delivery by Saturday | The Sunset Bouquet by Arabella Bouquets	1	0	1	NextDay	Ashok Gaikwad	4635 NE KELSEY RD			KANSAS CITY	MO	64116-2023	US		Happy Birthday, my love!  I know this year has been a very hard on you, but I pray that this new year would be the most beautiful and exciting year... With love, Ash From Ashok Gaikwad	false		
113-5712757-9348246	24208274384946	2020-10-23T00:38:53+00:00	2020-10-22T17:38:53-07:00	2020-10-23T00:39:48+00:00	2020-10-24T06:59:59+00:00	-1	nqrbf32hk5flhfq@marketplace.amazon.com	Michelle Vesneske	+1 619-854-2705 ext. 30300	ABR0022	Delivery by Saturday | Arabella Farm Direct Bouquet of 12 Fresh Cut Pink Roses with a Free Glass Vase	1	0	1	NextDay	Pat Easling	225 ARROWBROOK RD			HARMONY	NC	28634-9103	US		Happy Birthday Mom Love, Michelle and Lenny From Michelle Vesneske	false		
113-8015755-4962665	22453397311794	2020-10-23T00:37:40+00:00	2020-10-22T17:37:40-07:00	2020-10-23T00:40:28+00:00	2020-10-24T06:59:59+00:00	-1	ynndf78jl2pmrfr@marketplace.amazon.com	Christine	+1 602-671-6610 ext. 99897	ABM022	Delivery by Saturday | Purple Extravagance Bouquet by Arabella Bouquets	1	0	1	NextDay	Evelia Rojas	4719 E MYRRH ST			COMPTON	CA	90221-3755	US			false		
114-3117963-0478624	40048149785546	2020-10-23T00:42:42+00:00	2020-10-22T17:42:42-07:00	2020-10-23T00:45:01+00:00	2020-10-24T06:59:59+00:00	-1	sy6b527jk1mc51k@marketplace.amazon.com	Rachel Landsman Daley	+1 480-618-5344 ext. 68569	ABR0022	Delivery by Saturday | Arabella Farm Direct Bouquet of 12 Fresh Cut Pink Roses with a Free Glass Vase	1	0	1	NextDay	Nancy Landsman	125 N. Buffalo Grove Rd.	Apt. 412		Buffalo Grove	IL	60089	US		Mom, Happiest of birthdays, and best wishes for a happy and healthy year ahead! All our love, Rachel and Kevin From Rachel Landsman Daley	false		
111-7954410-4795454	19779274878402	2020-10-23T00:58:39+00:00	2020-10-22T17:58:39-07:00	2020-10-23T00:59:34+00:00	2020-10-24T06:59:59+00:00	-1	lh33w7cmj6g3xxj@marketplace.amazon.com	jordan materna	+1 619-854-2705 ext. 28717	ABR0022	Delivery by Saturday | Arabella Farm Direct Bouquet of 12 Fresh Cut Pink Roses with a Free Glass Vase	1	0	1	NextDay	Morgan Materna	510 W WALWORTH ST APT 1			WHITEWATER	WI	53190-1780	US		We are so proud of you! We wanted to send you something that is as beautiful as you are, but since that's impossible, hope you enjoy the roses.   XO From Mom & Dad From Mom & Dad	false		
114-9792151-3696202	11480727733258	2020-10-23T01:12:01+00:00	2020-10-22T18:12:01-07:00	2020-10-23T01:12:55+00:00	2020-10-24T06:59:59+00:00	-1	8hznf49l0t31h4k@marketplace.amazon.com	carmen	+1 602-671-6610 ext. 99266	ABR001	Arabella Bouquets 12 Stems of Fresh Cut Red Roses in a Free Designer Glass Vase	1	0	1	NextDay	Bris	128 JAMES ADAMS LN			MOUNT OLIVE	NC	28365-6184	US		Enjoy your gift! And happy birthday amor. God bless you on your special day.  ( sorry if it delivered early or late) From Raymundo	false		
111-2663874-7780248	10709231447538	2020-10-23T02:18:47+00:00	2020-10-22T19:18:47-07:00	2020-10-23T02:19:43+00:00	2020-10-24T06:59:59+00:00	-1	4jsqxcy6jydqw8g@marketplace.amazon.com	Gian Adam	+1 602-671-6610 ext. 07661	ABM010	Delivery by Saturday | The Spring Fling Bouquet by Arabella Bouquets with a Free Designer Glass Vase	1	0	1	NextDay	Mary Decker	45 GAVIN DR			MIDDLEBURG	PA	17842-7707	US		Happy Birthday Mom! Wishing you a Happy and Healthy Year! I Love You! From Gian Adam	false		
113-7435750-6211409	32996051146538	2020-10-23T02:23:15+00:00	2020-10-22T19:23:15-07:00	2020-10-23T02:27:21+00:00	2020-10-24T06:59:59+00:00	-1	0r2gvzxjgh2jx2n@marketplace.amazon.com	Lisa Wairoto	+1 619-854-2705 ext. 40423	ABR0033	Delivery by Monday | Arabella Farm Direct Bouquet of 12 Fresh Cut Orange Roses with a Free Glass Vase	1	0	1	NextDay	Bobby and Patti Lipes	1600 RICHMOND RD			AMELIA COURT HOUSE	VA	23002-3127	US		Happy Birthday Patti , You are one of a kind! From Lisa Wairoto and Priyaka Patel	false		
113-9527777-9037814	47531011525290	2020-10-23T02:57:02+00:00	2020-10-22T19:57:02-07:00	2020-10-23T02:59:47+00:00	2020-10-24T06:59:59+00:00	-1	mxvn89w9p024zxw@marketplace.amazon.com	carol d reid	+1 602-671-6610 ext. 36397	ABM022	Delivery by Saturday | Purple Extravagance Bouquet by Arabella Bouquets	1	0	1	NextDay	Maxine Johnson	1511 BRENDLE CT			VIRGINIA BEACH	VA	23464-6760	US		Happy Birthday Mom. I hope you enjoy your birthday and flowers. With all our love. From Ron and Carol	false		
111-9706155-2007455	04156634548746	2020-10-23T03:10:15+00:00	2020-10-22T20:10:15-07:00	2020-10-23T03:14:54+00:00	2020-10-24T06:59:59+00:00	-1	r6rqsvhc3wjx1d9@marketplace.amazon.com	jacqueline hale	+1 619-854-2705 ext. 48789	ABR0022	Delivery by Saturday | Arabella Farm Direct Bouquet of 12 Fresh Cut Pink Roses with a Free Glass Vase	1	0	1	NextDay	Arleen Flowers	7713 ORPHEUS PL			PHILADELPHIA	PA	19153-1717	US			false		
114-6804508-7472254	02465304474418	2020-10-23T03:22:10+00:00	2020-10-22T20:22:10-07:00	2020-10-23T03:22:59+00:00	2020-10-24T06:59:59+00:00	-1	tl6q3thpshtrgg3@marketplace.amazon.com	Giang	+1 619-854-2705 ext. 42270	ABR0022	Delivery by Saturday | Arabella Farm Direct Bouquet of 12 Fresh Cut Pink Roses with a Free Glass Vase	1	0	1	NextDay	Julie Smith	732 STATION SQUARE BLVD			LANSDALE	PA	19446-7700	US		Congratulations on your engagement, Julie and Jeff! I couldn’t figure out how to send tequila so this will have to do :) LOVE YOU! From Giang	false		
113-2802644-6541825	66770339691562	2020-10-23T03:40:29+00:00	2020-10-22T20:40:29-07:00	2020-10-23T03:41:19+00:00	2020-10-24T06:59:59+00:00	-1	z59pxrrsvpv7t0g@marketplace.amazon.com	Marie O. Knutzen	+1 619-854-2705 ext. 44904	ABR015	Delivery by Monday | Arabella Farm Direct Bouquet of 18 Fresh Cut Orange Roses with a Free Glass Vase	1	0	1	NextDay	Richard Jason O'Dell or Mamello Tekateka	2416 NATHANIEL PL			EVANSTON	IL	60202-1044	US		Ms. Tekateka, During this difficult time, know that we add our prayers to all those who love and care about you! - Marie & Ryan Knutzen From Marie O. Knutzen	false		
112-3208674-4779425	36055772209666	2020-10-23T03:47:55+00:00	2020-10-22T20:47:55-07:00	2020-10-23T03:51:05+00:00	2020-10-24T06:59:59+00:00	-1	dsv1gy404xrjdk9@marketplace.amazon.com	Jason Melbourne	+1 213-442-1463 ext. 98176	ABR0022	Delivery by Saturday | Arabella Farm Direct Bouquet of 12 Fresh Cut Pink Roses with a Free Glass Vase	1	0	1	NextDay	Laura Melbourne	12225 LAUREL TERRACE DR			STUDIO CITY	CA	91604-3609	US		Happy Birthday Laura! Love, EGYJ From Jason Melbourne	false		
111-9576874-4781867	54191185626826	2020-10-23T04:02:38+00:00	2020-10-22T21:02:38-07:00	2020-10-23T04:03:40+00:00	2020-10-24T06:59:59+00:00	-1	v53l74cl7w918mz@marketplace.amazon.com	Derek Keating	+1 619-854-2705 ext. 19168	ABM022	Delivery by Saturday | Purple Extravagance Bouquet by Arabella Bouquets	1	0	1	NextDay	Derek Keating	14 HOLLY PL			BELLMAWR	NJ	08031-1816	US		Happy Birthday to the most beautiful, smart, strong, sexy woman alive!!   !I love you today and forever!!! From Derek Keating	false		
114-6919694-6799458	65609886669986	2020-10-23T04:11:39+00:00	2020-10-22T21:11:39-07:00	2020-10-23T04:12:31+00:00	2020-10-24T06:59:59+00:00	-1	3mn26m8x475vpbk@marketplace.amazon.com	Zavier Syed	+1 619-854-2705 ext. 34048	ABR0066	Delivery by Monday | Arabella Bouquets 12 Stems of Fresh Cut White Roses in a Free Designer Glass Vase	1	0	1	NextDay	Mariam Ali	286 ALPINE DR			PARAMUS	NJ	07652-1317	US			false		
113-7700393-6705018	60388331984418	2020-10-23T04:44:08+00:00	2020-10-22T21:44:08-07:00	2020-10-23T04:46:46+00:00	2020-10-24T06:59:59+00:00	-1	w14dv8d6pv2c3xt@marketplace.amazon.com	Jill M. Walters-Sheaffer	+1 480-618-5344 ext. 15695	ABM022	Delivery by Saturday | Purple Extravagance Bouquet by Arabella Bouquets	1	0	1	NextDay	Jill Walters-Sheaffer	5227 N DEPAUW ST			PORTLAND	OR	97203-4347	US		Happy Birthday Mom & Nana! We love you dearly. All of our love, Jill, Kyle, Nancy, Tabitha, Joey From All of us!	false		
112-5674658-7124238	43860504913730	2020-10-23T05:34:55+00:00	2020-10-22T22:34:55-07:00	2020-10-23T05:35:58+00:00	2020-10-24T06:59:59+00:00	-1	3tsk7g7w2f8prb0@marketplace.amazon.com	PAMELA	+1 480-618-5344 ext. 05924	ABR0022	Delivery by Saturday | Arabella Farm Direct Bouquet of 12 Fresh Cut Pink Roses with a Free Glass Vase	1	0	1	NextDay	Mrs. Mary Davis	395 SALLEY DAVIS DR			SWANSEA	SC	29160-8928	US		Thinking of you in Pinktober.  Have a blessed day from one cancer survivor to another From PAMELA	false		
114-2517886-8188226	60543394686698	2020-10-23T05:46:23+00:00	2020-10-22T22:46:23-07:00	2020-10-23T05:50:21+00:00	2020-10-24T06:59:59+00:00	-1	4d2mh9c27znxw0n@marketplace.amazon.com	Hema Iyer	+1 480-618-5344 ext. 93583	ABM022	Delivery by Saturday | Purple Extravagance Bouquet by Arabella Bouquets	1	0	1	NextDay	Reena Chaba	8333 WILDFLOWER DR			POWELL	OHIO	43065-7293	US		HAPPY BIRTHDAY ROHIT !! From Hema Iyer	false		
113-8123794-3300243	08508912898530	2020-10-23T07:02:29+00:00	2020-10-23T00:02:29-07:00	2020-10-23T07:03:26+00:00	2020-10-24T06:59:59+00:00	-1	539ptr9dnx9dq4v@marketplace.amazon.com	Patricia Ann Wellendorf	+1 929-436-4790 ext. 43678	ABR0022	Delivery by Saturday | Arabella Farm Direct Bouquet of 12 Fresh Cut Pink Roses with a Free Glass Vase	1	0	1	NextDay	Rebekah Roberts	2826 PARKGREEN DR			CORPUS CHRISTI	TX	78414-3234	US			false		
112-4857845-0132265	51837269861834	2020-10-23T07:13:20+00:00	2020-10-23T00:13:20-07:00	2020-10-23T07:14:15+00:00	2020-10-24T06:59:59+00:00	-1	xt5qzlrsdl7811f@marketplace.amazon.com	a b	+1 929-436-4790 ext. 20411	ABR0022	Delivery by Saturday | Arabella Farm Direct Bouquet of 12 Fresh Cut Pink Roses with a Free Glass Vase	1	0	1	NextDay	Dona Doyle	60 SUMMIT AVE APT 1			ALBANY	NY	12209-1644	US		Happy Birthday, Dona! Enjoy your gift! ~Sister Davis & Lisa From Sister Davis & Lisa	false		
113-0158349-4402610	08952143443794	2020-10-23T09:52:42+00:00	2020-10-23T02:52:42-07:00	2020-10-23T09:57:23+00:00	2020-10-24T06:59:59+00:00	-1	79s37rl1srq6b9p@marketplace.amazon.com	sam lee	+1 929-436-4790 ext. 01909	ABM020	Delivery by Saturday | The Sunset Bouquet by Arabella Bouquets	1	0	1	NextDay	Sam Lee	4907 COURTSIDE DR APT 223			IRVING	TX	75038-3327	US			false		
112-3412844-1622622	13036739617018	2020-10-23T10:28:20+00:00	2020-10-23T03:28:20-07:00	2020-10-23T10:31:46+00:00	2020-10-24T06:59:59+00:00	-1	qpdtqp6hv5j4fmb@marketplace.amazon.com	A.D.A Landscaping inc	+1 619-854-2705 ext. 75669	ABR0022	Delivery by Saturday | Arabella Farm Direct Bouquet of 12 Fresh Cut Pink Roses with a Free Glass Vase	1	0	1	NextDay	A.D.A Landscaping inc/Jeanette Holy	9700 AVIATION BLVD			MARATHON	FL	33050-2944	US			true		Business Price
