order-id	order-item-id	purchase-date	payments-date	reporting-date	promise-date	days-past-promise	buyer-email	buyer-name	buyer-phone-number	sku	product-name	quantity-purchased	quantity-shipped	quantity-to-ship	ship-service-level	recipient-name	ship-address-1	ship-address-2	ship-address-3	ship-city	ship-state	ship-postal-code	ship-country	gift-wrap-type	gift-message-text	is-business-order	purchase-order-number	price-designation
114-5031312-3269844	06553214566882	2020-10-23T17:55:17+00:00	2020-10-23T10:55:17-07:00	2020-10-23T18:10:51+00:00	2020-10-28T06:59:59+00:00	-5	z244xxcwbc0thk4@marketplace.amazon.com	Theresa Nagy	+1 619-854-2705 ext. 13162	ABM030	The Just Because Bouquet by Arabella Bouquets	1	0	1	Expedited	Grandma Nagy	26118 LAKEWOOD DR			ELKHART	IN	46514-6225	US		I love you very, very much Grandma!!   Love always, Theresa Nagy From Theresa Nagy	false		
112-8144111-3331424	34676687496066	2020-10-23T17:53:54+00:00	2020-10-23T10:53:54-07:00	2020-10-23T18:17:49+00:00	2020-10-28T06:59:59+00:00	-5	4y7984tkqmpvkdd@marketplace.amazon.com	Lars Johnson	+1 480-618-5344 ext. 18273	ABM020	Delivery by Tuesday | The Sunset Bouquet by Arabella Bouquets	1	0	1	Expedited	Dorothea Szymanski	20412 JULLIARD DR			WALNUT	CA	91789-2435	US		Thank you for all you do for us.  See you in November! Lars & Jan From Lars Johnson	false		
114-3197878-6321855	06736481606098	2020-10-23T18:06:44+00:00	2020-10-23T11:06:44-07:00	2020-10-23T18:29:36+00:00	2020-10-28T06:59:59+00:00	-5	nzhz8gzxl1h3wxf@marketplace.amazon.com	GLADYS VERDUGA	+1 929-436-4790 ext. 43961	ABM027	Delivery by Tuesday | The Changing Seasons Bouquet by Arabella Bouquets	1	0	1	Expedited	Graciela Montero	2 CUTTING AVE			WOBURN	MA	01801-1402	US		Gracias a Dios por habernos dado la mejor madre del mundo . Te amamos . Tus hijas Belly y Yayi . De Bella/ Yayi	false		
113-0573238-4827430	01035308950538	2020-10-23T18:09:33+00:00	2020-10-23T11:09:33-07:00	2020-10-23T18:30:33+00:00	2020-10-28T06:59:59+00:00	-5	r7rd6fynxd4k9mg@marketplace.amazon.com	Susan	+1 619-854-2705 ext. 02151	ABM010	Delivery by Tuesday | The Spring Fling Bouquet by Arabella Bouquets with a Free Designer Glass Vase	1	0	1	Expedited	Jo Ann Baade	6042 S NATOMA AVE			CHICAGO	IL	60638-4114	US		We are praying for your speedy recovery. Love, Ellen and Suzy Paczek From Ellen and Suzy Paczek	false		
113-9119485-6843456	22294803647314	2020-10-23T18:03:27+00:00	2020-10-23T11:03:27-07:00	2020-10-23T18:31:18+00:00	2020-10-28T06:59:59+00:00	-5	w1d9fy5vwf5p26l@marketplace.amazon.com	Ann Wild	+1 480-618-5344 ext. 98161	ABM022	Delivery by Tuesday | Purple Extravagance Bouquet by Arabella Bouquets	1	0	1	Expedited	JoAnn Blelloch	181 ROSE DR			WEEMS	VA	22576-2420	US			false		
113-4809485-3609057	43425504894482	2020-10-23T18:11:35+00:00	2020-10-23T11:11:35-07:00	2020-10-23T18:36:06+00:00	2020-10-28T06:59:59+00:00	-5	h0tc648h78wy047@marketplace.amazon.com	Dino Coltrinari	+1 480-618-5344 ext. 11156	ABR0022	Delivery by Tuesday | Arabella Farm Direct Bouquet of 12 Fresh Cut Pink Roses with a Free Glass Vase	1	0	1	Expedited	Debbie Cope	1201 S PRAIRIE AVE APT 2405			CHICAGO	IL	60605-3426	US		Dear Debbie.  Just wanted you to know we are thinking about you. Big hugs to you.  Julie and Dino From Dino Coltrinari	false		
114-8141070-6249026	59898643806226	2020-10-23T18:19:44+00:00	2020-10-23T11:19:44-07:00	2020-10-23T18:46:11+00:00	2020-10-28T06:59:59+00:00	-5	h9bcxdhb5zh145s@marketplace.amazon.com	Gloria M Bruno	+1 480-618-5344 ext. 97569	ABM022	Delivery by Tuesday | Purple Extravagance Bouquet by Arabella Bouquets	1	0	1	Expedited	Kathy Miller	31 NEW CANAAN HILLS CT			MANDEVILLE	LA	70448-1082	US			false		
113-2220081-5171426	49173427782226	2020-10-23T18:32:52+00:00	2020-10-23T11:32:52-07:00	2020-10-23T19:01:23+00:00	2020-10-28T06:59:59+00:00	-5	znh2631cscv2w96@marketplace.amazon.com	Dave billheimer	+1 619-854-2705 ext. 69050	ABM010	Delivery by Tuesday | The Spring Fling Bouquet by Arabella Bouquets with a Free Designer Glass Vase	1	0	1	Expedited	Don and John Angelo	25068 EL CARRIZO			LAGUNA NIGUEL	CA	92677-7541	US		Dear Don, Get well soon! Hope you're feeling better. Love ya! Billie and Dave From Dave billheimer	false		
112-4005074-0554611	43918816083546	2020-10-23T19:16:23+00:00	2020-10-23T12:16:23-07:00	2020-10-23T19:20:02+00:00	2020-10-27T06:59:59+00:00	-4	fl9h59s10z98zcw@marketplace.amazon.com	Song Xiong	+1 602-671-6610 ext. 25410	ABR0055	Delivery by Tuesday | Arabella Farm Direct Bouquet of 12 Stems of Fresh Cut Hot Pink Roses in a Free Designer Glass Vase	1	0	1	NextDay	Grandma (we love you!)	902 6TH AVE N			ONALASKA	WI	54650-2220	US			false		
112-6170457-7673814	06763739036946	2020-10-23T19:15:09+00:00	2020-10-23T12:15:09-07:00	2020-10-23T19:20:45+00:00	2020-10-27T06:59:59+00:00	-4	nxh9p1pvc6zyhw2@marketplace.amazon.com	Leah S Klein	+1 602-671-6610 ext. 60361	ABR0022	Delivery by Tuesday | Arabella Farm Direct Bouquet of 12 Fresh Cut Pink Roses with a Free Glass Vase	1	0	1	NextDay	Leah S Klein	1 CHRISTIE PL UNIT 205E			SCARSDALE	NY	10583-8306	US			false		
112-6170457-7673814	10411847221282	2020-10-23T19:15:09+00:00	2020-10-23T12:15:09-07:00	2020-10-23T19:20:45+00:00	2020-10-27T06:59:59+00:00	-4	nxh9p1pvc6zyhw2@marketplace.amazon.com	Leah S Klein	+1 602-671-6610 ext. 60361	ABM002	Delivery by Tuesday | Arabella Bouquets Fresh Cut White Calla Lilies in a Free Designer Glass Vase	1	0	1	NextDay	Leah S Klein	1 CHRISTIE PL UNIT 205E			SCARSDALE	NY	10583-8306	US			false		
113-0678252-5624226	47147322586746	2020-10-23T19:22:48+00:00	2020-10-23T12:22:48-07:00	2020-10-23T19:24:52+00:00	2020-10-27T06:59:59+00:00	-4	08wwds9dr55k9bg@marketplace.amazon.com	Joia Thornton	+1 480-618-5344 ext. 58969	ABR0055	Delivery by Tuesday | Arabella Farm Direct Bouquet of 12 Stems of Fresh Cut Hot Pink Roses in a Free Designer Glass Vase	1	0	1	NextDay	Kimkea Harris	1601 S STATE ST UNIT 2G			CHICAGO	IL	60616-1372	US		Kimkea, I just wanted to show how thankful I am for your dedication, heart, warm spirit and fortitude to our team. You've literally gained a sister! From Joia Thornton	false		
112-6071971-0740265	31240442575978	2020-10-23T19:25:52+00:00	2020-10-23T12:25:52-07:00	2020-10-23T19:30:00+00:00	2020-10-27T06:59:59+00:00	-4	ty76rrnqtndpnt8@marketplace.amazon.com	Page F. Valentino	+1 213-442-1463 ext. 34423	ABR0022	Delivery by Tuesday | Arabella Farm Direct Bouquet of 12 Fresh Cut Pink Roses with a Free Glass Vase	1	0	1	NextDay	Debbie Bridge	1300 W OLSON AVE SPC 124			REEDLEY	CA	93654-3658	US		Dearest Debbie,  Wishing you a very Happy Birthday! Sending you lots of love, hugs & smiles. Be happy, Love. Your, Kate From Kate Page	false		
113-7998695-1936200	07974388572098	2020-10-23T19:52:31+00:00	2020-10-23T12:52:31-07:00	2020-10-23T19:58:07+00:00	2020-10-27T06:59:59+00:00	-4	5jgyp14nczltgnp@marketplace.amazon.com	Antonio Camporese	+1 480-618-5344 ext. 09600	ABR012	Delivery by Tuesday | Arabella Farm Direct Bouquet of 18 Fresh Cut Pink Roses with a Free Glass Vase	1	0	1	NextDay	Antonio Camporese	6 LEELAND RD			NEWBURGH	NY	12550-1511	US			false		
111-1633145-7867462	40769312988594	2020-10-23T20:01:38+00:00	2020-10-23T13:01:38-07:00	2020-10-23T20:02:33+00:00	2020-10-27T06:59:59+00:00	-4	zzpyvvcbhs24hxt@marketplace.amazon.com	Jennifer DeYorgi	+1 213-442-1463 ext. 48851	ABR012	Delivery by Tuesday | Arabella Farm Direct Bouquet of 18 Fresh Cut Pink Roses with a Free Glass Vase	1	0	1	NextDay	Tara Tamigi	5061 N HIGHWAY A1A APT 503			HUTCHINSON ISLAND	FL	34949-8244	US		Wishing you a very Happy Birthday !   Miss you and hope to see you soon. Love Always, Ray & Jennifer From Jennifer Maher	false		
111-1675113-7884236	66505786770106	2020-10-23T20:24:02+00:00	2020-10-23T13:24:02-07:00	2020-10-23T20:28:16+00:00	2020-10-27T06:59:59+00:00	-4	yxkztxcmwrkkk2n@marketplace.amazon.com	Valerie Howland	+1 415-851-9136 ext. 89975	ABM010	Delivery by Tuesday | The Spring Fling Bouquet by Arabella Bouquets with a Free Designer Glass Vase	1	0	1	NextDay	Evan and Maggie Howland	55 HOFF RD			SANTA ROSA	CA	95409-6501	US		Enjoy your gift! happy anniversary.. we love you From Valerie Howland and Bryan Howland	false		
113-5563311-7428206	06900611266626	2020-10-23T20:24:24+00:00	2020-10-23T13:24:24-07:00	2020-10-23T20:28:36+00:00	2020-10-27T06:59:59+00:00	-4	kd78n9yxjy8kvgt@marketplace.amazon.com	samantha	+1 415-851-9136 ext. 79162	ABM010	Delivery by Tuesday | The Spring Fling Bouquet by Arabella Bouquets with a Free Designer Glass Vase	1	0	1	NextDay	Samantha koon	7804 Owen drive			North Richland hills	Tx	76180	US		Flowers to brighten your day! Sending lots of love!! From samantha	false		
113-3129146-7167420	15658517146562	2020-10-23T20:31:47+00:00	2020-10-23T13:31:47-07:00	2020-10-23T20:35:32+00:00	2020-10-27T06:59:59+00:00	-4	jd5rp4509c54h0w@marketplace.amazon.com	Miriam Grimmer	+1 929-436-4790 ext. 08962	ABM010	Delivery by Tuesday | The Spring Fling Bouquet by Arabella Bouquets with a Free Designer Glass Vase	1	0	1	NextDay	Judith Lenz	8277 SW 128TH ST APT 105 BLDG 3			MIAMI	FL	33156-5967	US		Feliz Cumpleanos Ninina. Te queremos mucho. Que Dios te bendiga. Con todo nuestro amor From Miriam y Steve	false		
113-9602861-3826644	08488828654290	2020-10-23T20:39:05+00:00	2020-10-23T13:39:05-07:00	2020-10-23T20:41:54+00:00	2020-10-27T06:59:59+00:00	-4	65g5rmdrhmw845w@marketplace.amazon.com	richard saburro	+1 929-436-4790 ext. 27586	ABR013	Delivery by Tuesday | Arabella Farm Direct Bouquet of 18 Fresh Cut Yellow Roses with a Free Glass Vase	1	0	1	NextDay	Richard Saburro	718 ADRIENNE WAY			THE VILLAGES	FL	32163-6013	US		Happy birthday my sweetheart  I love you and love making you happy From richard saburro	false		
113-7564248-5484263	08550355306746	2020-10-23T20:49:37+00:00	2020-10-23T13:49:37-07:00	2020-10-23T20:51:19+00:00	2020-10-27T06:59:59+00:00	-4	hcw113svzbktcmg@marketplace.amazon.com	James Coblentz	+1 213-442-1463 ext. 19930	ABR0022	Delivery by Tuesday | Arabella Farm Direct Bouquet of 12 Fresh Cut Pink Roses with a Free Glass Vase	1	0	1	NextDay	Carol Simone	1011 FULTON ST			PALO ALTO	CA	94301-3313	US			false		
113-7187165-0650629	19687442468882	2020-10-23T20:52:11+00:00	2020-10-23T13:52:11-07:00	2020-10-23T20:53:09+00:00	2020-10-27T06:59:59+00:00	-4	8gwhy9thwtmknkj@marketplace.amazon.com	Frederick Barthelme	+1 619-854-2705 ext. 66456	ABR0022	Delivery by Tuesday | Arabella Farm Direct Bouquet of 12 Fresh Cut Pink Roses with a Free Glass Vase	1	0	1	NextDay	Amy Hessel	246 PARKLAND AVE			KIRKWOOD	MO	63122-4710	US		Happy Happy Birthday! 50 ain’t so bad.   Much love from someone who’s  been there.  Rie From Rie	false		
114-9039576-6517803	53907363260338	2020-10-23T20:59:34+00:00	2020-10-23T13:59:34-07:00	2020-10-23T21:00:30+00:00	2020-10-27T06:59:59+00:00	-4	zyyh4xm61lml27f@marketplace.amazon.com	Barbara	+1 415-851-9136 ext. 87825	ABM020	Delivery by Tuesday | The Sunset Bouquet by Arabella Bouquets	1	0	1	NextDay	Julie fulop	1981 RHODODENDRON CT			LIVERMORE	CA	94551-6787	US		Happy Birthday. From Kalman, Moni	false		
112-2968101-6529031	10325857925202	2020-10-23T21:21:43+00:00	2020-10-23T14:21:43-07:00	2020-10-23T21:22:40+00:00	2020-10-27T06:59:59+00:00	-4	252hh78lh4y35ln@marketplace.amazon.com	Tony	+1 602-671-6610 ext. 77468	ABM022	Delivery by Tuesday | Purple Extravagance Bouquet by Arabella Bouquets	1	0	1	NextDay	Colorado Title Attention Amber Dembeck	44 COOK ST STE 350			DENVER	CO	80206-5837	US		Happy Birth day dear From Dad	false		
113-9771793-8142653	14508502147754	2020-10-23T18:14:32+00:00	2020-10-23T11:14:32-07:00	2020-10-23T21:25:51+00:00	2020-10-28T06:59:59+00:00	-5	p2w1nq1v9cy0l3m@marketplace.amazon.com	HHM Quality	+1 619-854-2705 ext. 52903	ABM022	Delivery by Tuesday | Purple Extravagance Bouquet by Arabella Bouquets	1	0	1	Expedited	John and Angela TaylorPOUSB 201041	7925 WHITETAIL DR			MOUNT PLEASANT	WI	53406-1750	US			true	USB 201041	
114-4458109-2551463	61218718368482	2020-10-23T21:33:20+00:00	2020-10-23T14:33:20-07:00	2020-10-23T21:34:09+00:00	2020-10-27T06:59:59+00:00	-4	wk1zfdhssk7d3zq@marketplace.amazon.com	Elizabeth Skinner	+1 602-671-6610 ext. 22940	ABM020	Delivery by Tuesday | The Sunset Bouquet by Arabella Bouquets	1	0	1	NextDay	Mr and Mrs R Skinner	233 N VAL VISTA DR LOT # 368			MESA	AZ	85213-8686	US		Wishing you both a wonderful 60th anniversary on Wednesday .  With lots of love from us all in GA xx From Skinner/Hopkins	false		
112-8522513-3053800	20419844595762	2020-10-23T21:35:44+00:00	2020-10-23T14:35:44-07:00	2020-10-23T21:40:32+00:00	2020-10-27T06:59:59+00:00	-4	l83t1nvgrwty5j5@marketplace.amazon.com	Kate Haaland	+1 213-442-1463 ext. 43603	ABR0022	Delivery by Tuesday | Arabella Farm Direct Bouquet of 12 Fresh Cut Pink Roses with a Free Glass Vase	1	0	1	NextDay	Celeste Clark	8 SPINNAKER DR			NIANTIC	CT	06357-1611	US		Happy Anniversary! We love you! From Peter, Katie & Chris	false		
113-5469829-3448217	18430987813194	2020-10-23T21:58:24+00:00	2020-10-23T14:58:24-07:00	2020-10-23T22:02:40+00:00	2020-10-27T06:59:59+00:00	-4	p125jf162q3fhfx@marketplace.amazon.com	Sheila Utz	+1 619-854-2705 ext. 56099	ABR0055	Delivery by Tuesday | Arabella Farm Direct Bouquet of 12 Stems of Fresh Cut Hot Pink Roses in a Free Designer Glass Vase	1	0	1	NextDay	Molly Verbraeken	240 WHITE OAK CIR			MAITLAND	FL	32751-4829	US			false		
113-4278063-1630619	13428915104714	2020-10-23T22:13:52+00:00	2020-10-23T15:13:52-07:00	2020-10-23T22:19:21+00:00	2020-10-27T06:59:59+00:00	-4	wyf5x9kdzdqgt10@marketplace.amazon.com	Robert Riley	+1 480-618-5344 ext. 65564	ABM031	Delivery by Tuesday | The Harvest Moon Bouquet by Arabella Bouquets	1	0	1	NextDay	Lynda Wyllie	30315 MIDDLE CREEK CIR			SPANISH FORT	AL	36527-5607	US			false		
114-0383482-7096252	19916476722658	2020-10-23T22:36:59+00:00	2020-10-23T15:36:59-07:00	2020-10-23T22:41:45+00:00	2020-10-27T06:59:59+00:00	-4	ny91g2pz71g2zmk@marketplace.amazon.com	Michelle Valladolid	+1 602-671-6610 ext. 04049	ABR0022	Delivery by Tuesday | Arabella Farm Direct Bouquet of 12 Fresh Cut Pink Roses with a Free Glass Vase	1	0	1	NextDay	Terry R. Smith	31130 S GENERAL KEARNY RD SPACE 32			TEMECULA	CA	92591-2027	US		Thinking of you and Nana today. ! From Michelle Valladolid	false		
114-0322321-3589066	37860001983498	2020-10-23T22:59:32+00:00	2020-10-23T15:59:32-07:00	2020-10-23T23:04:27+00:00	2020-10-27T06:59:59+00:00	-4	g35s9f196tw95mr@marketplace.amazon.com	Natalie Spektor	+1 619-854-2705 ext. 13288	ABR001	Delivery by Tuesday | Arabella Bouquets 12 Stems of Fresh Cut Red Roses in a Free Designer Glass Vase	1	0	1	NextDay	Milind Kapadia (for your daughter)	200 LAIRD AVE C2109			CLIFFSIDE PARK	NJ	07010-1285	US			false		
111-5189127-7579419	04253565330978	2020-10-23T23:34:36+00:00	2020-10-23T16:34:36-07:00	2020-10-23T23:35:39+00:00	2020-10-27T06:59:59+00:00	-4	qlvnhmw0z62lc3b@marketplace.amazon.com	Khaled Abdo	+1 929-436-4790 ext. 97859	ABM010	Delivery by Tuesday | The Spring Fling Bouquet by Arabella Bouquets with a Free Designer Glass Vase	1	0	1	NextDay	Timour Rashed	707 N VAN BUREN WAY			HOPKINS	MN	55343-8146	US		Hi Timour, Enjoy your gift! With love & best wishes for a wonderful future together . Rashed family	false		
114-6266578-3453842	02976083212634	2020-10-23T23:37:54+00:00	2020-10-23T16:37:54-07:00	2020-10-23T23:38:50+00:00	2020-10-27T06:59:59+00:00	-4	76ghwtl01175h69@marketplace.amazon.com	Michael Mahar	+1 619-854-2705 ext. 24136	ABR0022	Delivery by Tuesday | Arabella Farm Direct Bouquet of 12 Fresh Cut Pink Roses with a Free Glass Vase	1	0	1	NextDay	Kathy Hull	139 JEPSON RD			STAMFORD	VT	05352-9695	US		Mum, Happy birthday.  I hope you enjoy the flowers I know how much you enjoy them.  Love ya, Mike	false		
113-8553297-4783419	06534301821882	2020-10-23T23:41:59+00:00	2020-10-23T16:41:59-07:00	2020-10-23T23:45:35+00:00	2020-10-27T06:59:59+00:00	-4	6znckd2z2gkl0wl@marketplace.amazon.com	Emil	+1 619-854-2705 ext. 47325	ABR0022	Delivery by Tuesday | Arabella Farm Direct Bouquet of 12 Fresh Cut Pink Roses with a Free Glass Vase	1	0	1	NextDay	Ilona	23439 CARLOW RD			TORRANCE	CA	90505-4557	US			false		
111-7729567-1559420	68896477757826	2020-10-24T00:03:02+00:00	2020-10-23T17:03:02-07:00	2020-10-24T00:08:31+00:00	2020-10-27T06:59:59+00:00	-4	ml9lx333nsdhx1v@marketplace.amazon.com	georgeBullock	+1 619-854-2705 ext. 35598	ABR0022	Delivery by Tuesday | Arabella Farm Direct Bouquet of 12 Fresh Cut Pink Roses with a Free Glass Vase	1	0	1	NextDay	malou mariano	140 LINDEN AVE APT 856			LONG BEACH	CA	90802-4935	US			false		
113-3441708-0137055	22344538548858	2020-10-24T00:20:03+00:00	2020-10-23T17:20:03-07:00	2020-10-24T00:22:50+00:00	2020-10-27T06:59:59+00:00	-4	kkx511rjp15xndg@marketplace.amazon.com	Albert A. Mazzone	+1 602-671-6610 ext. 85801	ABR013	Delivery by Tuesday | Arabella Farm Direct Bouquet of 18 Fresh Cut Yellow Roses with a Free Glass Vase	1	0	1	NextDay	Rita Goris	1807 PARK PL			MINEOLA	TX	75773-1157	US		Happy (delayed) Birthday. Love, Dawn and Albert From Albert A. Mazzone	false		
113-9877562-3008242	41655357531730	2020-10-24T00:45:34+00:00	2020-10-23T17:45:34-07:00	2020-10-24T00:50:02+00:00	2020-10-27T06:59:59+00:00	-4	8zr5k0ptg5xdy5c@marketplace.amazon.com	Glenda	+1 415-851-9136 ext. 49109	ABR001	Delivery by Tuesday | Arabella Bouquets 12 Stems of Fresh Cut Red Roses in a Free Designer Glass Vase	1	0	1	NextDay	Alexandra Rivera	1817 ANDY HOLT AVE	BOX #243		KNOXVILLE	TN	37996	US		Happy Birthday mi niña bonita! Te amo 💗 From Glenda	false		
113-0031781-4886669	43749192733458	2020-10-24T01:01:14+00:00	2020-10-23T18:01:14-07:00	2020-10-24T01:03:07+00:00	2020-10-27T06:59:59+00:00	-4	v4qb28hqxwrwxh2@marketplace.amazon.com	michael martin	+1 480-618-5344 ext. 59788	ABR0022	Delivery by Tuesday | Arabella Farm Direct Bouquet of 12 Fresh Cut Pink Roses with a Free Glass Vase	1	0	1	NextDay	Camille Kerins	7812 35TH AVE APT 5G			JACKSON HEIGHTS	NY	11372-2550	US		With love and gratitude and best wishes - from Michael , Albert and Rosie From michael martin	false		
111-9419945-7978659	43092670904154	2020-10-24T01:16:27+00:00	2020-10-23T18:16:27-07:00	2020-10-24T01:17:09+00:00	2020-10-27T06:59:59+00:00	-4	kmx27hqvc259mx0@marketplace.amazon.com	elaf	+1 480-618-5344 ext. 59119	ABR0055	Delivery by Tuesday | Arabella Farm Direct Bouquet of 12 Stems of Fresh Cut Hot Pink Roses in a Free Designer Glass Vase	1	0	1	NextDay	Yasser	9301 GOLDEN WAY CT APT N			RICHMOND	VA	23294-6427	US		For your beautiful eyes and nose ❤️  Love you يالخبل From E	false		
114-6885868-3569031	16833929983714	2020-10-24T01:32:52+00:00	2020-10-23T18:32:52-07:00	2020-10-24T01:35:37+00:00	2020-10-27T06:59:59+00:00	-4	vkq5xd9vm3ml5zy@marketplace.amazon.com	Mary Carlin Yates	+1 619-854-2705 ext. 81612	ABR0022	Delivery by Tuesday | Arabella Farm Direct Bouquet of 12 Fresh Cut Pink Roses with a Free Glass Vase	1	0	1	NextDay	Vicki Butler	330 6TH ST SE			WASHINGTON	DC	20003-2733	US		Thank you for such a wonderful time at your family special place on Lake Coeur d'Alene.  A treasure for me at a time when I needed it.  Good luck with your cataract operation.  Love,  Mary From Mary Carlin Yates	false		
112-4555443-7374656	52173595975026	2020-10-24T01:58:26+00:00	2020-10-23T18:58:26-07:00	2020-10-24T02:02:30+00:00	2020-10-27T06:59:59+00:00	-4	k7j79s7f89hrw3r@marketplace.amazon.com	lisa sarmiento	+1 213-442-1463 ext. 75046	ABM022	Delivery by Tuesday | Purple Extravagance Bouquet by Arabella Bouquets	1	0	1	NextDay	Sue Ramirez	7756 TIGERWOODS DR			SACRAMENTO	CA	95829-6607	US		Happy Birthday Sister Sue! Your sisters love you!!! From Lisa and Debbie	false		
114-1039797-0965002	00855595217746	2020-10-24T01:36:12+00:00	2020-10-23T18:36:12-07:00	2020-10-24T02:05:36+00:00	2020-10-28T06:59:59+00:00	-5	9jwks0xt6zyqk9r@marketplace.amazon.com	linda browning	+1 602-671-6610 ext. 76262	ABR0022	Delivery by Tuesday | Arabella Farm Direct Bouquet of 12 Fresh Cut Pink Roses with a Free Glass Vase	1	0	1	Standard	Patricia Browning	10 TERRACINA BLVD APT 143	ASSISTED LIVING		REDLANDS	CA	92373-4877	US		Happy Happy birthday Mom!! Love you! From (Lin)linda browning love ya	false		
113-7384151-6567415	57023078429666	2020-10-24T02:12:53+00:00	2020-10-23T19:12:53-07:00	2020-10-24T02:13:45+00:00	2020-10-27T06:59:59+00:00	-4	w14dv8d6pv2c3xt@marketplace.amazon.com	Jill M. Walters-Sheaffer	+1 619-854-2705 ext. 66827	ABM022	Delivery by Tuesday | Purple Extravagance Bouquet by Arabella Bouquets	1	0	1	NextDay	Jan Carrier	43 WESTBROOK WAY			EUGENE	OR	97405-2076	US		Happy Birthday Mom & Nana! We love you dearly. All of our love, From Jill, Kyle, Nancy, Tabitha, Joey	false		
114-0975799-7233846	35977030528034	2020-10-24T02:34:10+00:00	2020-10-23T19:34:10-07:00	2020-10-24T02:37:50+00:00	2020-10-27T06:59:59+00:00	-4	kncw38t7s37hh9h@marketplace.amazon.com	Johanna Krause	+1 602-671-6610 ext. 97423	ABR0022	Delivery by Tuesday | Arabella Farm Direct Bouquet of 12 Fresh Cut Pink Roses with a Free Glass Vase	1	0	1	NextDay	Lisbeth Fox	3834 CLORE PL APT 203			LAKE RIDGE	VA	22192-7491	US		Happy Birthday Lisbeth!  Wishing you all the best on this special day. Sending love and light your way.  Xoxo Johanna, Mathias, Pia From Johanna Krause	false		
114-0994039-3849059	45611263695042	2020-10-24T02:51:32+00:00	2020-10-23T19:51:32-07:00	2020-10-24T02:54:48+00:00	2020-10-27T06:59:59+00:00	-4	8y1jm3ry6hbnrdj@marketplace.amazon.com	Lynn Whistle	+1 929-436-4790 ext. 67397	ABR001	Delivery by Tuesday | Arabella Bouquets 12 Stems of Fresh Cut Red Roses in a Free Designer Glass Vase	1	0	1	NextDay	Melva Arleen Whistle	3362 BUCKLAND SQ APT 125			OWENSBORO	KY	42301-5829	US		Just because....  Love you, From Lynn	false		
113-0320483-5289838	65479060574426	2020-10-24T03:00:29+00:00	2020-10-23T20:00:29-07:00	2020-10-24T03:04:21+00:00	2020-10-27T06:59:59+00:00	-4	1cps1dfgyx1yrjs@marketplace.amazon.com	Carmela	+1 602-671-6610 ext. 17596	ABR0022	Delivery by Tuesday | Arabella Farm Direct Bouquet of 12 Fresh Cut Pink Roses with a Free Glass Vase	1	0	1	NextDay	Courtney Navarro	6593 LEMITAR DR			LAS VEGAS	NV	89108-2757	US		Enjoy your gift! From Carmela	false		
111-0526099-1645811	54617470796682	2020-10-24T03:04:53+00:00	2020-10-23T20:04:53-07:00	2020-10-24T03:07:39+00:00	2020-10-27T06:59:59+00:00	-4	ckdgxgw37r99r32@marketplace.amazon.com	Irma sandoval	+1 480-618-5344 ext. 45024	ABR0022	Delivery by Tuesday | Arabella Farm Direct Bouquet of 12 Fresh Cut Pink Roses with a Free Glass Vase	1	0	1	NextDay	Josefina Gomez	506 E ACACIA AVE APT D			GLENDALE	CA	91205-2881	US		Happy birthday abuelita te queremos mucho eres la mejor abuelita del mundo   Att: Scarlett, Mia  & Gianella From Irma sandoval	false		
111-4528741-6001064	28949837953698	2020-10-24T03:19:09+00:00	2020-10-23T20:19:09-07:00	2020-10-24T03:24:31+00:00	2020-10-27T06:59:59+00:00	-4	vb4yfdxs35znwms@marketplace.amazon.com	Manjushree Badlani	+1 213-442-1463 ext. 10991	ABM020	Delivery by Tuesday | The Sunset Bouquet by Arabella Bouquets	1	0	1	NextDay	Manjushree M. Badlani	10567 Hunters Way			Laurel	MD	20723-5723	US			false		
111-4528741-6001064	67279168010330	2020-10-24T03:19:09+00:00	2020-10-23T20:19:09-07:00	2020-10-24T03:24:31+00:00	2020-10-27T06:59:59+00:00	-4	vb4yfdxs35znwms@marketplace.amazon.com	Manjushree Badlani	+1 213-442-1463 ext. 10991	ABR0022	Delivery by Tuesday | Arabella Farm Direct Bouquet of 12 Fresh Cut Pink Roses with a Free Glass Vase	1	0	1	NextDay	Manjushree M. Badlani	10567 Hunters Way			Laurel	MD	20723-5723	US			false		
111-5667754-1889841	29007912573730	2020-10-24T03:24:07+00:00	2020-10-23T20:24:07-07:00	2020-10-24T03:26:48+00:00	2020-10-27T06:59:59+00:00	-4	vb4yfdxs35znwms@marketplace.amazon.com	Manjushree Badlani	+1 619-854-2705 ext. 74931	ABM010	Delivery by Tuesday | The Spring Fling Bouquet by Arabella Bouquets with a Free Designer Glass Vase	1	0	1	NextDay	Manjushree M. Badlani	10567 Hunters Way			Laurel	MD	20723-5723	US		Happy Birthday Darling Wife From Manu with all my love	false		
111-5667754-1889841	68015714293978	2020-10-24T03:24:07+00:00	2020-10-23T20:24:07-07:00	2020-10-24T03:26:48+00:00	2020-10-27T06:59:59+00:00	-4	vb4yfdxs35znwms@marketplace.amazon.com	Manjushree Badlani	+1 619-854-2705 ext. 74931	ABR0022	Delivery by Tuesday | Arabella Farm Direct Bouquet of 12 Fresh Cut Pink Roses with a Free Glass Vase	1	0	1	NextDay	Manjushree M. Badlani	10567 Hunters Way			Laurel	MD	20723-5723	US		Happy Birthday Darling Wife From Manu with all my love	false		
112-5033256-6324212	17877178070034	2020-10-24T04:06:45+00:00	2020-10-23T21:06:45-07:00	2020-10-24T04:11:57+00:00	2020-10-27T06:59:59+00:00	-4	jv3bz15bbd0b6l8@marketplace.amazon.com	Marilyn Jamie Benton	+1 929-436-4790 ext. 33286	ABR0022	Delivery by Tuesday | Arabella Farm Direct Bouquet of 12 Fresh Cut Pink Roses with a Free Glass Vase	1	0	1	NextDay	Jamie E. Benton	19431 SIERRA LINDA RD			IRVINE	CA	92603-3937	US			false		
111-7967161-9710660	19963088882466	2020-10-24T05:30:40+00:00	2020-10-23T22:30:40-07:00	2020-10-24T05:31:54+00:00	2020-10-27T06:59:59+00:00	-4	46bbrytvjq4t2z0@marketplace.amazon.com	tariq abdelhadi	+1 480-618-5344 ext. 92174	ABR001	Delivery by Tuesday | Arabella Bouquets 12 Stems of Fresh Cut Red Roses in a Free Designer Glass Vase	1	0	1	NextDay	Tala salem	780 boylston street	18 E		Boston	MA	02199	US		Happy Anniversary Om Ayla , God bless you my Queen, many more to come nshalla! Love you and miss you so much xx From tariq abdelhadi	false		
114-6183640-4370630	44822003058538	2020-10-24T05:49:39+00:00	2020-10-23T22:49:39-07:00	2020-10-24T05:52:37+00:00	2020-10-27T06:59:59+00:00	-4	8rms9sngbztmlbj@marketplace.amazon.com	lakeesha burr	+1 619-854-2705 ext. 31227	ABR0022	Delivery by Tuesday | Arabella Farm Direct Bouquet of 12 Fresh Cut Pink Roses with a Free Glass Vase	1	0	1	NextDay	Lakeesha Lockett-burr	5283 FINKAS LN			FAIRFIELD	CA	94533-1556	US			false		
