order-id	order-item-id	purchase-date	payments-date	reporting-date	promise-date	days-past-promise	buyer-email	buyer-name	buyer-phone-number	sku	product-name	quantity-purchased	quantity-shipped	quantity-to-ship	ship-service-level	recipient-name	ship-address-1	ship-address-2	ship-address-3	ship-city	ship-state	ship-postal-code	ship-country	gift-wrap-type	gift-message-text	is-business-order	purchase-order-number	price-designation
112-8144111-3331424	34676687496066	2020-10-23T17:53:54+00:00	2020-10-23T10:53:54-07:00	2020-10-23T18:17:49+00:00	2020-10-28T06:59:59+00:00	-4	4y7984tkqmpvkdd@marketplace.amazon.com	Lars Johnson	+1 480-618-5344 ext. 18273	ABM020	Delivery by Tuesday | The Sunset Bouquet by Arabella Bouquets	1	0	1	Expedited	Dorothea Szymanski	20412 JULLIARD DR			WALNUT	CA	91789-2435	US		Thank you for all you do for us.  See you in November! Lars & Jan From Lars Johnson	false		
113-0573238-4827430	01035308950538	2020-10-23T18:09:33+00:00	2020-10-23T11:09:33-07:00	2020-10-23T18:30:33+00:00	2020-10-28T06:59:59+00:00	-4	r7rd6fynxd4k9mg@marketplace.amazon.com	Susan	+1 619-854-2705 ext. 02151	ABM010	Delivery by Tuesday | The Spring Fling Bouquet by Arabella Bouquets with a Free Designer Glass Vase	1	0	1	Expedited	Jo Ann Baade	6042 S NATOMA AVE			CHICAGO	IL	60638-4114	US		We are praying for your speedy recovery. Love, Ellen and Suzy Paczek From Ellen and Suzy Paczek	false		
113-9119485-6843456	22294803647314	2020-10-23T18:03:27+00:00	2020-10-23T11:03:27-07:00	2020-10-23T18:31:18+00:00	2020-10-28T06:59:59+00:00	-4	w1d9fy5vwf5p26l@marketplace.amazon.com	Ann Wild	+1 480-618-5344 ext. 98161	ABM022	Delivery by Tuesday | Purple Extravagance Bouquet by Arabella Bouquets	1	0	1	Expedited	JoAnn Blelloch	181 ROSE DR			WEEMS	VA	22576-2420	US			false		
113-4809485-3609057	43425504894482	2020-10-23T18:11:35+00:00	2020-10-23T11:11:35-07:00	2020-10-23T18:36:06+00:00	2020-10-28T06:59:59+00:00	-4	h0tc648h78wy047@marketplace.amazon.com	Dino Coltrinari	+1 480-618-5344 ext. 11156	ABR0022	Delivery by Tuesday | Arabella Farm Direct Bouquet of 12 Fresh Cut Pink Roses with a Free Glass Vase	1	0	1	Expedited	Debbie Cope	1201 S PRAIRIE AVE APT 2405			CHICAGO	IL	60605-3426	US		Dear Debbie.  Just wanted you to know we are thinking about you. Big hugs to you.  Julie and Dino From Dino Coltrinari	false		
112-4005074-0554611	43918816083546	2020-10-23T19:16:23+00:00	2020-10-23T12:16:23-07:00	2020-10-23T19:20:02+00:00	2020-10-27T06:59:59+00:00	-3	fl9h59s10z98zcw@marketplace.amazon.com	Song Xiong	+1 602-671-6610 ext. 25410	ABR0055	Delivery by Tuesday | Arabella Farm Direct Bouquet of 12 Stems of Fresh Cut Hot Pink Roses in a Free Designer Glass Vase	1	0	1	NextDay	Grandma (we love you!)	902 6TH AVE N			ONALASKA	WI	54650-2220	US			false		
112-6170457-7673814	06763739036946	2020-10-23T19:15:09+00:00	2020-10-23T12:15:09-07:00	2020-10-23T19:20:45+00:00	2020-10-27T06:59:59+00:00	-3	nxh9p1pvc6zyhw2@marketplace.amazon.com	Leah S Klein	+1 602-671-6610 ext. 60361	ABR0022	Delivery by Tuesday | Arabella Farm Direct Bouquet of 12 Fresh Cut Pink Roses with a Free Glass Vase	1	0	1	NextDay	Leah S Klein	1 CHRISTIE PL UNIT 205E			SCARSDALE	NY	10583-8306	US			false		
113-0678252-5624226	47147322586746	2020-10-23T19:22:48+00:00	2020-10-23T12:22:48-07:00	2020-10-23T19:24:52+00:00	2020-10-27T06:59:59+00:00	-3	08wwds9dr55k9bg@marketplace.amazon.com	Joia Thornton	+1 480-618-5344 ext. 58969	ABR0055	Delivery by Tuesday | Arabella Farm Direct Bouquet of 12 Stems of Fresh Cut Hot Pink Roses in a Free Designer Glass Vase	1	0	1	NextDay	Kimkea Harris	1601 S STATE ST UNIT 2G			CHICAGO	IL	60616-1372	US		Kimkea, I just wanted to show how thankful I am for your dedication, heart, warm spirit and fortitude to our team. You've literally gained a sister! From Joia Thornton	false		
112-6071971-0740265	31240442575978	2020-10-23T19:25:52+00:00	2020-10-23T12:25:52-07:00	2020-10-23T19:30:00+00:00	2020-10-27T06:59:59+00:00	-3	ty76rrnqtndpnt8@marketplace.amazon.com	Page F. Valentino	+1 213-442-1463 ext. 34423	ABR0022	Delivery by Tuesday | Arabella Farm Direct Bouquet of 12 Fresh Cut Pink Roses with a Free Glass Vase	1	0	1	NextDay	Debbie Bridge	1300 W OLSON AVE SPC 124			REEDLEY	CA	93654-3658	US		Dearest Debbie,  Wishing you a very Happy Birthday! Sending you lots of love, hugs & smiles. Be happy, Love. Your, Kate From Kate Page	false		
111-1675113-7884236	66505786770106	2020-10-23T20:24:02+00:00	2020-10-23T13:24:02-07:00	2020-10-23T20:28:16+00:00	2020-10-27T06:59:59+00:00	-3	yxkztxcmwrkkk2n@marketplace.amazon.com	Valerie Howland	+1 415-851-9136 ext. 89975	ABM010	Delivery by Tuesday | The Spring Fling Bouquet by Arabella Bouquets with a Free Designer Glass Vase	1	0	1	NextDay	Evan and Maggie Howland	55 HOFF RD			SANTA ROSA	CA	95409-6501	US		Enjoy your gift! happy anniversary.. we love you From Valerie Howland and Bryan Howland	false		
113-5563311-7428206	06900611266626	2020-10-23T20:24:24+00:00	2020-10-23T13:24:24-07:00	2020-10-23T20:28:36+00:00	2020-10-27T06:59:59+00:00	-3	kd78n9yxjy8kvgt@marketplace.amazon.com	samantha	+1 415-851-9136 ext. 79162	ABM010	Delivery by Tuesday | The Spring Fling Bouquet by Arabella Bouquets with a Free Designer Glass Vase	1	0	1	NextDay	Samantha koon	7804 Owen drive			North Richland hills	Tx	76180	US		Flowers to brighten your day! Sending lots of love!! From samantha	false		
113-3129146-7167420	15658517146562	2020-10-23T20:31:47+00:00	2020-10-23T13:31:47-07:00	2020-10-23T20:35:32+00:00	2020-10-27T06:59:59+00:00	-3	jd5rp4509c54h0w@marketplace.amazon.com	Miriam Grimmer	+1 929-436-4790 ext. 08962	ABM010	Delivery by Tuesday | The Spring Fling Bouquet by Arabella Bouquets with a Free Designer Glass Vase	1	0	1	NextDay	Judith Lenz	8277 SW 128TH ST APT 105 BLDG 3			MIAMI	FL	33156-5967	US		Feliz Cumpleanos Ninina. Te queremos mucho. Que Dios te bendiga. Con todo nuestro amor From Miriam y Steve	false		
113-7564248-5484263	08550355306746	2020-10-23T20:49:37+00:00	2020-10-23T13:49:37-07:00	2020-10-23T20:51:19+00:00	2020-10-27T06:59:59+00:00	-3	hcw113svzbktcmg@marketplace.amazon.com	James Coblentz	+1 213-442-1463 ext. 19930	ABR0022	Delivery by Tuesday | Arabella Farm Direct Bouquet of 12 Fresh Cut Pink Roses with a Free Glass Vase	1	0	1	NextDay	Carol Simone	1011 FULTON ST			PALO ALTO	CA	94301-3313	US			false		
113-7187165-0650629	19687442468882	2020-10-23T20:52:11+00:00	2020-10-23T13:52:11-07:00	2020-10-23T20:53:09+00:00	2020-10-27T06:59:59+00:00	-3	8gwhy9thwtmknkj@marketplace.amazon.com	Frederick Barthelme	+1 619-854-2705 ext. 66456	ABR0022	Delivery by Tuesday | Arabella Farm Direct Bouquet of 12 Fresh Cut Pink Roses with a Free Glass Vase	1	0	1	NextDay	Amy Hessel	246 PARKLAND AVE			KIRKWOOD	MO	63122-4710	US		Happy Happy Birthday! 50 ain’t so bad.   Much love from someone who’s  been there.  Rie From Rie	false		
112-2968101-6529031	10325857925202	2020-10-23T21:21:43+00:00	2020-10-23T14:21:43-07:00	2020-10-23T21:22:40+00:00	2020-10-27T06:59:59+00:00	-3	252hh78lh4y35ln@marketplace.amazon.com	Tony	+1 602-671-6610 ext. 77468	ABM022	Delivery by Tuesday | Purple Extravagance Bouquet by Arabella Bouquets	1	0	1	NextDay	Colorado Title Attention Amber Dembeck	44 COOK ST STE 350			DENVER	CO	80206-5837	US		Happy Birth day dear From Dad	false		
113-9771793-8142653	14508502147754	2020-10-23T18:14:32+00:00	2020-10-23T11:14:32-07:00	2020-10-23T21:25:51+00:00	2020-10-28T06:59:59+00:00	-4	p2w1nq1v9cy0l3m@marketplace.amazon.com	HHM Quality	+1 619-854-2705 ext. 52903	ABM022	Delivery by Tuesday | Purple Extravagance Bouquet by Arabella Bouquets	1	0	1	Expedited	John and Angela TaylorPOUSB 201041	7925 WHITETAIL DR			MOUNT PLEASANT	WI	53406-1750	US			true	USB 201041	
112-8522513-3053800	20419844595762	2020-10-23T21:35:44+00:00	2020-10-23T14:35:44-07:00	2020-10-23T21:40:32+00:00	2020-10-27T06:59:59+00:00	-3	l83t1nvgrwty5j5@marketplace.amazon.com	Kate Haaland	+1 213-442-1463 ext. 43603	ABR0022	Delivery by Tuesday | Arabella Farm Direct Bouquet of 12 Fresh Cut Pink Roses with a Free Glass Vase	1	0	1	NextDay	Celeste Clark	8 SPINNAKER DR			NIANTIC	CT	06357-1611	US		Happy Anniversary! We love you! From Peter, Katie & Chris	false		
113-5469829-3448217	18430987813194	2020-10-23T21:58:24+00:00	2020-10-23T14:58:24-07:00	2020-10-23T22:02:40+00:00	2020-10-27T06:59:59+00:00	-3	p125jf162q3fhfx@marketplace.amazon.com	Sheila Utz	+1 619-854-2705 ext. 56099	ABR0055	Delivery by Tuesday | Arabella Farm Direct Bouquet of 12 Stems of Fresh Cut Hot Pink Roses in a Free Designer Glass Vase	1	0	1	NextDay	Molly Verbraeken	240 WHITE OAK CIR			MAITLAND	FL	32751-4829	US			false		
114-0383482-7096252	19916476722658	2020-10-23T22:36:59+00:00	2020-10-23T15:36:59-07:00	2020-10-23T22:41:45+00:00	2020-10-27T06:59:59+00:00	-3	ny91g2pz71g2zmk@marketplace.amazon.com	Michelle Valladolid	+1 602-671-6610 ext. 04049	ABR0022	Delivery by Tuesday | Arabella Farm Direct Bouquet of 12 Fresh Cut Pink Roses with a Free Glass Vase	1	0	1	NextDay	Terry R. Smith	31130 S GENERAL KEARNY RD SPACE 32			TEMECULA	CA	92591-2027	US		Thinking of you and Nana today. ! From Michelle Valladolid	false		
114-0322321-3589066	37860001983498	2020-10-23T22:59:32+00:00	2020-10-23T15:59:32-07:00	2020-10-23T23:04:27+00:00	2020-10-27T06:59:59+00:00	-3	g35s9f196tw95mr@marketplace.amazon.com	Natalie Spektor	+1 619-854-2705 ext. 13288	ABR001	Delivery by Tuesday | Arabella Bouquets 12 Stems of Fresh Cut Red Roses in a Free Designer Glass Vase	1	0	1	NextDay	Milind Kapadia (for your daughter)	200 LAIRD AVE C2109			CLIFFSIDE PARK	NJ	07010-1285	US			false		
114-6266578-3453842	02976083212634	2020-10-23T23:37:54+00:00	2020-10-23T16:37:54-07:00	2020-10-23T23:38:50+00:00	2020-10-27T06:59:59+00:00	-3	76ghwtl01175h69@marketplace.amazon.com	Michael Mahar	+1 619-854-2705 ext. 24136	ABR0022	Delivery by Tuesday | Arabella Farm Direct Bouquet of 12 Fresh Cut Pink Roses with a Free Glass Vase	1	0	1	NextDay	Kathy Hull	139 JEPSON RD			STAMFORD	VT	05352-9695	US		Mum, Happy birthday.  I hope you enjoy the flowers I know how much you enjoy them.  Love ya, Mike	false		
113-8553297-4783419	06534301821882	2020-10-23T23:41:59+00:00	2020-10-23T16:41:59-07:00	2020-10-23T23:45:35+00:00	2020-10-27T06:59:59+00:00	-3	6znckd2z2gkl0wl@marketplace.amazon.com	Emil	+1 619-854-2705 ext. 47325	ABR0022	Delivery by Tuesday | Arabella Farm Direct Bouquet of 12 Fresh Cut Pink Roses with a Free Glass Vase	1	0	1	NextDay	Ilona	23439 CARLOW RD			TORRANCE	CA	90505-4557	US			false		
111-7729567-1559420	68896477757826	2020-10-24T00:03:02+00:00	2020-10-23T17:03:02-07:00	2020-10-24T00:08:31+00:00	2020-10-27T06:59:59+00:00	-3	ml9lx333nsdhx1v@marketplace.amazon.com	georgeBullock	+1 619-854-2705 ext. 35598	ABR0022	Delivery by Tuesday | Arabella Farm Direct Bouquet of 12 Fresh Cut Pink Roses with a Free Glass Vase	1	0	1	NextDay	malou mariano	140 LINDEN AVE APT 856			LONG BEACH	CA	90802-4935	US			false		
113-9877562-3008242	41655357531730	2020-10-24T00:45:34+00:00	2020-10-23T17:45:34-07:00	2020-10-24T00:50:02+00:00	2020-10-27T06:59:59+00:00	-3	8zr5k0ptg5xdy5c@marketplace.amazon.com	Glenda	+1 415-851-9136 ext. 49109	ABR001	Delivery by Tuesday | Arabella Bouquets 12 Stems of Fresh Cut Red Roses in a Free Designer Glass Vase	1	0	1	NextDay	Alexandra Rivera	1817 ANDY HOLT AVE	BOX #243		KNOXVILLE	TN	37996	US		Happy Birthday mi niña bonita! Te amo 💗 From Glenda	false		
113-0031781-4886669	43749192733458	2020-10-24T01:01:14+00:00	2020-10-23T18:01:14-07:00	2020-10-24T01:03:07+00:00	2020-10-27T06:59:59+00:00	-3	v4qb28hqxwrwxh2@marketplace.amazon.com	michael martin	+1 480-618-5344 ext. 59788	ABR0022	Delivery by Tuesday | Arabella Farm Direct Bouquet of 12 Fresh Cut Pink Roses with a Free Glass Vase	1	0	1	NextDay	Camille Kerins	7812 35TH AVE APT 5G			JACKSON HEIGHTS	NY	11372-2550	US		With love and gratitude and best wishes - from Michael , Albert and Rosie From michael martin	false		
111-9419945-7978659	43092670904154	2020-10-24T01:16:27+00:00	2020-10-23T18:16:27-07:00	2020-10-24T01:17:09+00:00	2020-10-27T06:59:59+00:00	-3	kmx27hqvc259mx0@marketplace.amazon.com	elaf	+1 480-618-5344 ext. 59119	ABR0055	Delivery by Tuesday | Arabella Farm Direct Bouquet of 12 Stems of Fresh Cut Hot Pink Roses in a Free Designer Glass Vase	1	0	1	NextDay	Yasser	9301 GOLDEN WAY CT APT N			RICHMOND	VA	23294-6427	US		For your beautiful eyes and nose ❤️  Love you يالخبل From E	false		
114-1039797-0965002	00855595217746	2020-10-24T01:36:12+00:00	2020-10-23T18:36:12-07:00	2020-10-24T02:05:36+00:00	2020-10-28T06:59:59+00:00	-4	9jwks0xt6zyqk9r@marketplace.amazon.com	linda browning	+1 602-671-6610 ext. 76262	ABR0022	Delivery by Tuesday | Arabella Farm Direct Bouquet of 12 Fresh Cut Pink Roses with a Free Glass Vase	1	0	1	Standard	Patricia Browning	10 TERRACINA BLVD APT 143	ASSISTED LIVING		REDLANDS	CA	92373-4877	US		Happy Happy birthday Mom!! Love you! From (Lin)linda browning love ya	false		
114-0994039-3849059	45611263695042	2020-10-24T02:51:32+00:00	2020-10-23T19:51:32-07:00	2020-10-24T02:54:48+00:00	2020-10-27T06:59:59+00:00	-3	8y1jm3ry6hbnrdj@marketplace.amazon.com	Lynn Whistle	+1 929-436-4790 ext. 67397	ABR001	Delivery by Tuesday | Arabella Bouquets 12 Stems of Fresh Cut Red Roses in a Free Designer Glass Vase	1	0	1	NextDay	Melva Arleen Whistle	3362 BUCKLAND SQ APT 125			OWENSBORO	KY	42301-5829	US		Just because....  Love you, From Lynn	false		
113-0320483-5289838	65479060574426	2020-10-24T03:00:29+00:00	2020-10-23T20:00:29-07:00	2020-10-24T03:04:21+00:00	2020-10-27T06:59:59+00:00	-3	1cps1dfgyx1yrjs@marketplace.amazon.com	Carmela	+1 602-671-6610 ext. 17596	ABR0022	Delivery by Tuesday | Arabella Farm Direct Bouquet of 12 Fresh Cut Pink Roses with a Free Glass Vase	1	0	1	NextDay	Courtney Navarro	6593 LEMITAR DR			LAS VEGAS	NV	89108-2757	US		Enjoy your gift! From Carmela	false		
111-0526099-1645811	54617470796682	2020-10-24T03:04:53+00:00	2020-10-23T20:04:53-07:00	2020-10-24T03:07:39+00:00	2020-10-27T06:59:59+00:00	-3	ckdgxgw37r99r32@marketplace.amazon.com	Irma sandoval	+1 480-618-5344 ext. 45024	ABR0022	Delivery by Tuesday | Arabella Farm Direct Bouquet of 12 Fresh Cut Pink Roses with a Free Glass Vase	1	0	1	NextDay	Josefina Gomez	506 E ACACIA AVE APT D			GLENDALE	CA	91205-2881	US		Happy birthday abuelita te queremos mucho eres la mejor abuelita del mundo   Att: Scarlett, Mia  & Gianella From Irma sandoval	false		
111-5667754-1889841	29007912573730	2020-10-24T03:24:07+00:00	2020-10-23T20:24:07-07:00	2020-10-24T03:26:48+00:00	2020-10-27T06:59:59+00:00	-3	vb4yfdxs35znwms@marketplace.amazon.com	Manjushree Badlani	+1 619-854-2705 ext. 74931	ABM010	Delivery by Tuesday | The Spring Fling Bouquet by Arabella Bouquets with a Free Designer Glass Vase	1	0	1	NextDay	Manjushree M. Badlani	10567 Hunters Way			Laurel	MD	20723-5723	US		Happy Birthday Darling Wife From Manu with all my love	false		
112-5033256-6324212	17877178070034	2020-10-24T04:06:45+00:00	2020-10-23T21:06:45-07:00	2020-10-24T04:11:57+00:00	2020-10-27T06:59:59+00:00	-3	jv3bz15bbd0b6l8@marketplace.amazon.com	Marilyn Jamie Benton	+1 929-436-4790 ext. 33286	ABR0022	Delivery by Tuesday | Arabella Farm Direct Bouquet of 12 Fresh Cut Pink Roses with a Free Glass Vase	1	0	1	NextDay	Jamie E. Benton	19431 SIERRA LINDA RD			IRVINE	CA	92603-3937	US			false		
114-6183640-4370630	44822003058538	2020-10-24T05:49:39+00:00	2020-10-23T22:49:39-07:00	2020-10-24T05:52:37+00:00	2020-10-27T06:59:59+00:00	-3	8rms9sngbztmlbj@marketplace.amazon.com	lakeesha burr	+1 619-854-2705 ext. 31227	ABR0022	Delivery by Tuesday | Arabella Farm Direct Bouquet of 12 Fresh Cut Pink Roses with a Free Glass Vase	1	0	1	NextDay	Lakeesha Lockett-burr	5283 FINKAS LN			FAIRFIELD	CA	94533-1556	US			false		
112-8636164-5247423	54214517413802	2020-10-24T07:30:41+00:00	2020-10-24T00:30:41-07:00	2020-10-24T07:33:59+00:00	2020-10-27T06:59:59+00:00	-3	sbq436h6ltbz6k8@marketplace.amazon.com	Toto Dharmadji	+1 213-442-1463 ext. 17597	ABM022	Delivery by Tuesday | Purple Extravagance Bouquet by Arabella Bouquets	1	0	1	NextDay	Jade Asmara Dharmadji	5360 BASIE ST			VENTURA	CA	93003-0218	US		Panjang Umur nya dan kangen sekali Ibu Jade From Lada Dharmadji	false		
114-3627453-5414609	49657104380298	2020-10-24T07:52:32+00:00	2020-10-24T00:52:32-07:00	2020-10-24T07:57:10+00:00	2020-10-27T06:59:59+00:00	-3	s2frv5t5xqb184l@marketplace.amazon.com	Rebekah C. Hanks	+1 929-436-4790 ext. 52915	ABM022	Delivery by Tuesday | Purple Extravagance Bouquet by Arabella Bouquets	1	0	1	NextDay	Kara Hanks	13 N AVON DR			CLAYMONT	DE	19703-1501	US		Thinking of you!! From Love Mom and Dad	false		
113-1974232-4232210	68625549324554	2020-10-24T10:08:57+00:00	2020-10-24T03:08:57-07:00	2020-10-24T10:34:56+00:00	2020-10-27T06:59:59+00:00	-3	64bz2t0gy35lk3t@marketplace.amazon.com	Frank Meyer-Schuchardt	+1 213-442-1463 ext. 87653	ABR0022	Delivery by Tuesday | Arabella Farm Direct Bouquet of 12 Fresh Cut Pink Roses with a Free Glass Vase	1	0	1	SecondDay	Gudrun Volker	7517 Cutlass Ave			MIAMI BEACH	Florida	33141-4113	US		Gute Besserung - Alles Liebe von Lisa und Frank From Frank Meyer-Schuchardt	false		
112-9594924-3155458	52391536031354	2020-10-24T12:15:10+00:00	2020-10-24T05:15:10-07:00	2020-10-24T12:42:11+00:00	2020-10-27T06:59:59+00:00	-3	yknhbmgk9y4np6v@marketplace.amazon.com	Lisa Harter	+1 213-442-1463 ext. 11149	ABR001	Delivery by Wednesday | Arabella Bouquets 12 Stems of Fresh Cut Red Roses in a Free Designer Glass Vase	1	0	1	SecondDay	Maris Delladrocce	39 BOWER RD APT2			QUINCY	MA	02169-8113	US		Maria. You are a inspiration. Love Lisa From Lisa Harter	false		
114-4874845-2200239	28263952355810	2020-10-24T12:39:07+00:00	2020-10-24T05:39:07-07:00	2020-10-24T13:09:16+00:00	2020-10-28T06:59:59+00:00	-4	d8lhl1ys4mk5wml@marketplace.amazon.com	Martin	+1 619-854-2705 ext. 19775	ABM022	Delivery by Tuesday | Purple Extravagance Bouquet by Arabella Bouquets	1	0	1	Expedited	Martin Anderson	913 33RD ST			PERU	IL	61354-9504	US			false		
114-7013253-5709821	07646183363010	2020-10-24T13:45:38+00:00	2020-10-24T06:45:38-07:00	2020-10-24T14:13:34+00:00	2020-10-27T06:59:59+00:00	-3	wd24kkqp8hwsx49@marketplace.amazon.com	Payalj66	+1 602-671-6610 ext. 94328	ABR0022	Delivery by Tuesday | Arabella Farm Direct Bouquet of 12 Fresh Cut Pink Roses with a Free Glass Vase	1	0	1	SecondDay	Kamal kishore	2700 DOUBLE CHURCHES RD APT 133	PALMS APPARTMENTS		COLUMBUS	GA	31909-2889	US		Dear Kamal - Wish you a very Happy Birthday !!  From Payal From Payalj66	false		
113-3090144-7748225	09134262527474	2020-10-24T13:45:35+00:00	2020-10-24T06:45:35-07:00	2020-10-24T14:13:45+00:00	2020-10-28T06:59:59+00:00	-4	rrzf7dx0sfc2jcb@marketplace.amazon.com	David Courtwright	+1 415-851-9136 ext. 88156	ABM022	Delivery by Tuesday | Purple Extravagance Bouquet by Arabella Bouquets	1	0	1	Expedited	David Courtwright	3871 Arrow Point Trail West			Jacksonville	FL	32277	US		Happy birthday, Shelby. Forever young, forever in love. From David	false		
112-9760237-7421863	35174159599762	2020-10-24T14:43:14+00:00	2020-10-24T07:43:14-07:00	2020-10-24T15:04:02+00:00	2020-10-28T06:59:59+00:00	-4	szb3p7br9k7d08f@marketplace.amazon.com	parrilla,luz	+1 602-671-6610 ext. 61667	ABR0022	Delivery by Tuesday | Arabella Farm Direct Bouquet of 12 Fresh Cut Pink Roses with a Free Glass Vase	1	0	1	Expedited	Jhun and Cora Payawal	8216 246TH ST			BELLEROSE	NY	11426-1713	US		Our condolences, sympathies, thoughts and prayers are with you during this sad time... be strong and take care From Louie, Nen and family	false		
112-9060068-8216240	05978179828082	2020-10-24T14:40:52+00:00	2020-10-24T07:40:52-07:00	2020-10-24T15:09:34+00:00	2020-10-27T06:59:59+00:00	-3	xfjdh2867gj63zc@marketplace.amazon.com	Kristen Dressler	+1 619-854-2705 ext. 66590	ABM010	Delivery by Wednesday | The Spring Fling Bouquet by Arabella Bouquets with a Free Designer Glass Vase	1	0	1	SecondDay	Karen Johns	31 MAPLE AVE			SHILOH	NJ	08353-8520	US		Happy Birthday to my bestest friend!!!  Wishing you a day (and at least another 50 years!!) filled with lots of love and joy!!  Love you!! From Kristen Dressler	false		
113-6152188-7276233	48309210197026	2020-10-24T15:36:07+00:00	2020-10-24T08:36:07-07:00	2020-10-24T16:01:25+00:00	2020-10-28T06:59:59+00:00	-4	ym65sstmhm2z2lx@marketplace.amazon.com	Leslie Bernstein	+1 213-442-1463 ext. 06895	ABB011	Arabella Bouquets 24 Stems of Fresh Cut Hot Pink Roses in a Free Designer Glass Vase	1	0	1	Expedited	Judie Schlager	125 EL MIRASOL			PALM BEACH	FL	33480-3611	US		Happy Happy Birthday Judie!  We love and miss you and hope you have a wonderful day celebrating wonderful YOU!! xxoo  Roberta and Leslie From Leslie Bernstein	false		
114-3720602-3172220	09045378342666	2020-10-24T15:52:19+00:00	2020-10-24T08:52:19-07:00	2020-10-24T16:19:01+00:00	2020-10-28T06:59:59+00:00	-4	2m82j6b5f82hbxy@marketplace.amazon.com	Daniel Leka	+1 415-851-9136 ext. 28826	ABR0022	Delivery by Tuesday | Arabella Farm Direct Bouquet of 12 Fresh Cut Pink Roses with a Free Glass Vase	1	0	1	Expedited	Jennica Matis (Rus)	25293 CONSTITUTION			NOVI	MI	48375-1761	US		Happy birthday Chip!!!!  I love you so much! I hope today is extra special and I can’t wait to see you again! God bless you today & always!! Te iubesc!!! From Dale (and Esmee and Kylo)	false		
111-1389345-9318629	06575756752218	2020-10-24T16:32:41+00:00	2020-10-24T09:32:41-07:00	2020-10-24T17:03:04+00:00	2020-10-28T06:59:59+00:00	-4	5r0v4gx7qxxwj1r@marketplace.amazon.com	John L.	40065602658	ABR0022	Delivery by Tuesday | Arabella Farm Direct Bouquet of 12 Fresh Cut Pink Roses with a Free Glass Vase	1	0	1	Expedited	John l. Johnson	415 Galena			Philipsburg	mt	59858	US			false		
114-2581787-9794644	31905888269258	2020-10-24T16:35:49+00:00	2020-10-24T09:35:49-07:00	2020-10-24T17:03:38+00:00	2020-10-28T06:59:59+00:00	-4	kwm4xh0lsm7ycw4@marketplace.amazon.com	Cheryl R. McDade	+1 619-854-2705 ext. 30195	ABR0022	Delivery by Tuesday | Arabella Farm Direct Bouquet of 12 Fresh Cut Pink Roses with a Free Glass Vase	1	0	1	Expedited	Necola Francis	6208 WOOD POINTE DR			GLENN DALE	MD	20769-2113	US			false		
113-1742139-8777061	68743324800202	2020-10-24T18:00:23+00:00	2020-10-24T11:00:23-07:00	2020-10-24T18:28:13+00:00	2020-10-28T06:59:59+00:00	-4	9g7gmpdq346ltqn@marketplace.amazon.com	Mary L Muenchinger	+1 602-671-6610 ext. 31839	ABM020	Delivery by Wednesday | The Sunset Bouquet by Arabella Bouquets	1	0	1	Expedited	Betty Pritchard	4160 BETHEL ST APT 310			COLUMBIA	MO	65203-6806	US		Happy Happy Birthday!! Love, Mary & Bill From Mary L Muenchinger	false		
112-5940637-3606628	46480494942466	2020-10-24T18:00:54+00:00	2020-10-24T11:00:54-07:00	2020-10-24T18:29:48+00:00	2020-10-28T06:59:59+00:00	-4	glwzlck86d0w0hz@marketplace.amazon.com	Steve Cordovani	+1 602-671-6610 ext. 47915	ABR0055	Delivery by Tuesday | Arabella Farm Direct Bouquet of 12 Stems of Fresh Cut Hot Pink Roses in a Free Designer Glass Vase	1	0	1	Expedited	Hannah Drexler	724 S SAINT ASAPH ST # WB311			ALEXANDRIA	VA	22314-4349	US		One day I hope to be......... SCXOXO	false		
111-9147054-5311405	11422871795938	2020-10-24T18:31:10+00:00	2020-10-24T11:31:10-07:00	2020-10-24T18:59:01+00:00	2020-10-28T06:59:59+00:00	-4	m7t3xbgg2brj0jj@marketplace.amazon.com	DON B. TEED	+1 929-436-4790 ext. 48539	ABR0022	Delivery by Tuesday | Arabella Farm Direct Bouquet of 12 Fresh Cut Pink Roses with a Free Glass Vase	1	0	1	Expedited	Debra Teed	33 Tobisset St			Mashpee	Ma.	02649	US			false		
113-5638644-2950623	36832372530306	2020-10-24T19:08:56+00:00	2020-10-24T12:08:56-07:00	2020-10-24T19:32:41+00:00	2020-10-28T06:59:59+00:00	-4	8tr86khyxqb95tv@marketplace.amazon.com	christina castle	447859931189	ABR0022	Delivery by Tuesday | Arabella Farm Direct Bouquet of 12 Fresh Cut Pink Roses with a Free Glass Vase	1	0	1	Expedited	Mr & Mrs Briggs	5024 36TH AVE SW			SEATTLE	WA	98126-2806	US		Congratulations on the birth of your beautiful baby girl! Sending you all our love xxxx From Mum, Paul, Elise, Luke & boys xxx	false		
113-0283452-3973012	10400062642898	2020-10-24T19:22:36+00:00	2020-10-24T12:22:36-07:00	2020-10-24T19:49:08+00:00	2020-10-28T06:59:59+00:00	-4	f8j7vx1vr3ccdhp@marketplace.amazon.com	Bing Wang	+1 619-854-2705 ext. 90817	ABM022	Delivery by Tuesday | Purple Extravagance Bouquet by Arabella Bouquets	1	0	1	Expedited	Aisha Oliver-Staley	6223 BALTUSROL TRCE			FAIRBURN	GA	30213-5127	US		Dear Aisha,  Sending healthy vibes your way. Please take good care of yourself! From Bing Wang	false		
111-0215167-8539442	58106107079426	2020-10-24T19:28:25+00:00	2020-10-24T12:28:25-07:00	2020-10-24T19:57:49+00:00	2020-10-28T06:59:59+00:00	-4	6g46315j197xrfl@marketplace.amazon.com	Ruth Dowling	+1 213-442-1463 ext. 35367	ABR0055	Delivery by Tuesday | Arabella Farm Direct Bouquet of 12 Stems of Fresh Cut Hot Pink Roses in a Free Designer Glass Vase	1	0	1	Expedited	Ruth Dowling	1260 15th Ct, SW			Largo	FL	33770	US			false		
113-1739659-8247465	07111928732658	2020-10-24T19:36:19+00:00	2020-10-24T12:36:19-07:00	2020-10-24T20:04:19+00:00	2020-10-28T06:59:59+00:00	-4	6lsjw1v1pzcy9xv@marketplace.amazon.com	Michael DeCrescenzo	+1 213-442-1463 ext. 20501	ABR0022	Delivery by Tuesday | Arabella Farm Direct Bouquet of 12 Fresh Cut Pink Roses with a Free Glass Vase	1	0	1	Expedited	Grace DeCrescenzo	8508 CLARK MILLS RD			WHITESBORO	NY	13492-2700	US		Thinking of you and Carol. Nieces are daughters who live in different houses. Wishing you much peace. From With much Love your Children and Grandchildren	false		
114-0682041-6477808	68137594695298	2020-10-24T20:29:00+00:00	2020-10-24T13:29:00-07:00	2020-10-24T20:53:56+00:00	2020-10-27T06:59:59+00:00	-3	wfnz787z5141d59@marketplace.amazon.com	Frank Gianola	+1 929-436-4790 ext. 24089	ABM021	Delivery by Wednesday | The Joyous Bouquet by Arabella Bouquets	1	0	1	SecondDay	Esther Kirsch	26765 N 126TH LN			PEORIA	AZ	85383-2834	US		Speedy Recovery! We love you! From Vicky & Frank	false		
113-3870763-6996228	02994053622970	2020-10-24T20:30:12+00:00	2020-10-24T13:30:12-07:00	2020-10-24T20:54:43+00:00	2020-10-27T06:59:59+00:00	-3	nclwqs9y968ws88@marketplace.amazon.com	Shari Jones	+1 602-671-6610 ext. 47282	ABR0022	Delivery by Tuesday | Arabella Farm Direct Bouquet of 12 Fresh Cut Pink Roses with a Free Glass Vase	1	0	1	SecondDay	Luellen Jones	8001 SILVER MAPLE LN			MINT HILL	NC	28227-7625	US		Love you! Please take good care of yourself... From Shari Jones	false		
112-9251747-6197815	37546743565914	2020-10-24T20:25:22+00:00	2020-10-24T13:25:22-07:00	2020-10-24T20:55:09+00:00	2020-10-28T06:59:59+00:00	-4	80nk9qx1snxxfrq@marketplace.amazon.com	kelly watz	+1 213-442-1463 ext. 55724	ABR0022	Delivery by Tuesday | Arabella Farm Direct Bouquet of 12 Fresh Cut Pink Roses with a Free Glass Vase	1	0	1	Expedited	Linda Olkowski	905 ORCHID WAY			SAN DIEGO	CA	92154-1533	US		Just because.... From Your KelBel	false		
