order-id	order-item-id	purchase-date	payments-date	reporting-date	promise-date	days-past-promise	buyer-email	buyer-name	buyer-phone-number	sku	product-name	quantity-purchased	quantity-shipped	quantity-to-ship	ship-service-level	recipient-name	ship-address-1	ship-address-2	ship-address-3	ship-city	ship-state	ship-postal-code	ship-country	gift-wrap-type	gift-message-text	is-business-order	purchase-order-number	price-designation
112-8144111-3331424	34676687496066	2020-10-23T17:53:54+00:00	2020-10-23T10:53:54-07:00	2020-10-23T18:17:49+00:00	2020-10-28T06:59:59+00:00	-3	4y7984tkqmpvkdd@marketplace.amazon.com	Lars Johnson	+1 480-618-5344 ext. 18273	ABM020	Delivery by Tuesday | The Sunset Bouquet by Arabella Bouquets	1	0	1	Expedited	Dorothea Szymanski	20412 JULLIARD DR			WALNUT	CA	91789-2435	US		Thank you for all you do for us.  See you in November! Lars & Jan From Lars Johnson	false		
113-0573238-4827430	01035308950538	2020-10-23T18:09:33+00:00	2020-10-23T11:09:33-07:00	2020-10-23T18:30:33+00:00	2020-10-28T06:59:59+00:00	-3	r7rd6fynxd4k9mg@marketplace.amazon.com	Susan	+1 619-854-2705 ext. 02151	ABM010	Delivery by Tuesday | The Spring Fling Bouquet by Arabella Bouquets with a Free Designer Glass Vase	1	0	1	Expedited	Jo Ann Baade	6042 S NATOMA AVE			CHICAGO	IL	60638-4114	US		We are praying for your speedy recovery. Love, Ellen and Suzy Paczek From Ellen and Suzy Paczek	false		
113-9119485-6843456	22294803647314	2020-10-23T18:03:27+00:00	2020-10-23T11:03:27-07:00	2020-10-23T18:31:18+00:00	2020-10-28T06:59:59+00:00	-3	w1d9fy5vwf5p26l@marketplace.amazon.com	Ann Wild	+1 480-618-5344 ext. 98161	ABM022	Delivery by Tuesday | Purple Extravagance Bouquet by Arabella Bouquets	1	0	1	Expedited	JoAnn Blelloch	181 ROSE DR			WEEMS	VA	22576-2420	US			false		
113-4809485-3609057	43425504894482	2020-10-23T18:11:35+00:00	2020-10-23T11:11:35-07:00	2020-10-23T18:36:06+00:00	2020-10-28T06:59:59+00:00	-3	h0tc648h78wy047@marketplace.amazon.com	Dino Coltrinari	+1 480-618-5344 ext. 11156	ABR0022	Delivery by Tuesday | Arabella Farm Direct Bouquet of 12 Fresh Cut Pink Roses with a Free Glass Vase	1	0	1	Expedited	Debbie Cope	1201 S PRAIRIE AVE APT 2405			CHICAGO	IL	60605-3426	US		Dear Debbie.  Just wanted you to know we are thinking about you. Big hugs to you.  Julie and Dino From Dino Coltrinari	false		
112-4005074-0554611	43918816083546	2020-10-23T19:16:23+00:00	2020-10-23T12:16:23-07:00	2020-10-23T19:20:02+00:00	2020-10-27T06:59:59+00:00	-2	fl9h59s10z98zcw@marketplace.amazon.com	Song Xiong	+1 602-671-6610 ext. 25410	ABR0055	Delivery by Tuesday | Arabella Farm Direct Bouquet of 12 Stems of Fresh Cut Hot Pink Roses in a Free Designer Glass Vase	1	0	1	NextDay	Grandma (we love you!)	902 6TH AVE N			ONALASKA	WI	54650-2220	US			false		
112-6170457-7673814	06763739036946	2020-10-23T19:15:09+00:00	2020-10-23T12:15:09-07:00	2020-10-23T19:20:45+00:00	2020-10-27T06:59:59+00:00	-2	nxh9p1pvc6zyhw2@marketplace.amazon.com	Leah S Klein	+1 602-671-6610 ext. 60361	ABR0022	Delivery by Tuesday | Arabella Farm Direct Bouquet of 12 Fresh Cut Pink Roses with a Free Glass Vase	1	0	1	NextDay	Leah S Klein	1 CHRISTIE PL UNIT 205E			SCARSDALE	NY	10583-8306	US			false		
113-0678252-5624226	47147322586746	2020-10-23T19:22:48+00:00	2020-10-23T12:22:48-07:00	2020-10-23T19:24:52+00:00	2020-10-27T06:59:59+00:00	-2	08wwds9dr55k9bg@marketplace.amazon.com	Joia Thornton	+1 480-618-5344 ext. 58969	ABR0055	Delivery by Tuesday | Arabella Farm Direct Bouquet of 12 Stems of Fresh Cut Hot Pink Roses in a Free Designer Glass Vase	1	0	1	NextDay	Kimkea Harris	1601 S STATE ST UNIT 2G			CHICAGO	IL	60616-1372	US		Kimkea, I just wanted to show how thankful I am for your dedication, heart, warm spirit and fortitude to our team. You've literally gained a sister! From Joia Thornton	false		
112-6071971-0740265	31240442575978	2020-10-23T19:25:52+00:00	2020-10-23T12:25:52-07:00	2020-10-23T19:30:00+00:00	2020-10-27T06:59:59+00:00	-2	ty76rrnqtndpnt8@marketplace.amazon.com	Page F. Valentino	+1 213-442-1463 ext. 34423	ABR0022	Delivery by Tuesday | Arabella Farm Direct Bouquet of 12 Fresh Cut Pink Roses with a Free Glass Vase	1	0	1	NextDay	Debbie Bridge	1300 W OLSON AVE SPC 124			REEDLEY	CA	93654-3658	US		Dearest Debbie,  Wishing you a very Happy Birthday! Sending you lots of love, hugs & smiles. Be happy, Love. Your, Kate From Kate Page	false		
111-1675113-7884236	66505786770106	2020-10-23T20:24:02+00:00	2020-10-23T13:24:02-07:00	2020-10-23T20:28:16+00:00	2020-10-27T06:59:59+00:00	-2	yxkztxcmwrkkk2n@marketplace.amazon.com	Valerie Howland	+1 415-851-9136 ext. 89975	ABM010	Delivery by Tuesday | The Spring Fling Bouquet by Arabella Bouquets with a Free Designer Glass Vase	1	0	1	NextDay	Evan and Maggie Howland	55 HOFF RD			SANTA ROSA	CA	95409-6501	US		Enjoy your gift! happy anniversary.. we love you From Valerie Howland and Bryan Howland	false		
113-5563311-7428206	06900611266626	2020-10-23T20:24:24+00:00	2020-10-23T13:24:24-07:00	2020-10-23T20:28:36+00:00	2020-10-27T06:59:59+00:00	-2	kd78n9yxjy8kvgt@marketplace.amazon.com	samantha	+1 415-851-9136 ext. 79162	ABM010	Delivery by Tuesday | The Spring Fling Bouquet by Arabella Bouquets with a Free Designer Glass Vase	1	0	1	NextDay	Samantha koon	7804 Owen drive			North Richland hills	Tx	76180	US		Flowers to brighten your day! Sending lots of love!! From samantha	false		
113-3129146-7167420	15658517146562	2020-10-23T20:31:47+00:00	2020-10-23T13:31:47-07:00	2020-10-23T20:35:32+00:00	2020-10-27T06:59:59+00:00	-2	jd5rp4509c54h0w@marketplace.amazon.com	Miriam Grimmer	+1 929-436-4790 ext. 08962	ABM010	Delivery by Tuesday | The Spring Fling Bouquet by Arabella Bouquets with a Free Designer Glass Vase	1	0	1	NextDay	Judith Lenz	8277 SW 128TH ST APT 105 BLDG 3			MIAMI	FL	33156-5967	US		Feliz Cumpleanos Ninina. Te queremos mucho. Que Dios te bendiga. Con todo nuestro amor From Miriam y Steve	false		
113-7564248-5484263	08550355306746	2020-10-23T20:49:37+00:00	2020-10-23T13:49:37-07:00	2020-10-23T20:51:19+00:00	2020-10-27T06:59:59+00:00	-2	hcw113svzbktcmg@marketplace.amazon.com	James Coblentz	+1 213-442-1463 ext. 19930	ABR0022	Delivery by Tuesday | Arabella Farm Direct Bouquet of 12 Fresh Cut Pink Roses with a Free Glass Vase	1	0	1	NextDay	Carol Simone	1011 FULTON ST			PALO ALTO	CA	94301-3313	US			false		
113-7187165-0650629	19687442468882	2020-10-23T20:52:11+00:00	2020-10-23T13:52:11-07:00	2020-10-23T20:53:09+00:00	2020-10-27T06:59:59+00:00	-2	8gwhy9thwtmknkj@marketplace.amazon.com	Frederick Barthelme	+1 619-854-2705 ext. 66456	ABR0022	Delivery by Tuesday | Arabella Farm Direct Bouquet of 12 Fresh Cut Pink Roses with a Free Glass Vase	1	0	1	NextDay	Amy Hessel	246 PARKLAND AVE			KIRKWOOD	MO	63122-4710	US		Happy Happy Birthday! 50 ain’t so bad.   Much love from someone who’s  been there.  Rie From Rie	false		
112-2968101-6529031	10325857925202	2020-10-23T21:21:43+00:00	2020-10-23T14:21:43-07:00	2020-10-23T21:22:40+00:00	2020-10-27T06:59:59+00:00	-2	252hh78lh4y35ln@marketplace.amazon.com	Tony	+1 602-671-6610 ext. 77468	ABM022	Delivery by Tuesday | Purple Extravagance Bouquet by Arabella Bouquets	1	0	1	NextDay	Colorado Title Attention Amber Dembeck	44 COOK ST STE 350			DENVER	CO	80206-5837	US		Happy Birth day dear From Dad	false		
113-9771793-8142653	14508502147754	2020-10-23T18:14:32+00:00	2020-10-23T11:14:32-07:00	2020-10-23T21:25:51+00:00	2020-10-28T06:59:59+00:00	-3	p2w1nq1v9cy0l3m@marketplace.amazon.com	HHM Quality	+1 619-854-2705 ext. 52903	ABM022	Delivery by Tuesday | Purple Extravagance Bouquet by Arabella Bouquets	1	0	1	Expedited	John and Angela TaylorPOUSB 201041	7925 WHITETAIL DR			MOUNT PLEASANT	WI	53406-1750	US			true	USB 201041	
112-8522513-3053800	20419844595762	2020-10-23T21:35:44+00:00	2020-10-23T14:35:44-07:00	2020-10-23T21:40:32+00:00	2020-10-27T06:59:59+00:00	-2	l83t1nvgrwty5j5@marketplace.amazon.com	Kate Haaland	+1 213-442-1463 ext. 43603	ABR0022	Delivery by Tuesday | Arabella Farm Direct Bouquet of 12 Fresh Cut Pink Roses with a Free Glass Vase	1	0	1	NextDay	Celeste Clark	8 SPINNAKER DR			NIANTIC	CT	06357-1611	US		Happy Anniversary! We love you! From Peter, Katie & Chris	false		
113-5469829-3448217	18430987813194	2020-10-23T21:58:24+00:00	2020-10-23T14:58:24-07:00	2020-10-23T22:02:40+00:00	2020-10-27T06:59:59+00:00	-2	p125jf162q3fhfx@marketplace.amazon.com	Sheila Utz	+1 619-854-2705 ext. 56099	ABR0055	Delivery by Tuesday | Arabella Farm Direct Bouquet of 12 Stems of Fresh Cut Hot Pink Roses in a Free Designer Glass Vase	1	0	1	NextDay	Molly Verbraeken	240 WHITE OAK CIR			MAITLAND	FL	32751-4829	US			false		
114-0383482-7096252	19916476722658	2020-10-23T22:36:59+00:00	2020-10-23T15:36:59-07:00	2020-10-23T22:41:45+00:00	2020-10-27T06:59:59+00:00	-2	ny91g2pz71g2zmk@marketplace.amazon.com	Michelle Valladolid	+1 602-671-6610 ext. 04049	ABR0022	Delivery by Tuesday | Arabella Farm Direct Bouquet of 12 Fresh Cut Pink Roses with a Free Glass Vase	1	0	1	NextDay	Terry R. Smith	31130 S GENERAL KEARNY RD SPACE 32			TEMECULA	CA	92591-2027	US		Thinking of you and Nana today. ! From Michelle Valladolid	false		
114-0322321-3589066	37860001983498	2020-10-23T22:59:32+00:00	2020-10-23T15:59:32-07:00	2020-10-23T23:04:27+00:00	2020-10-27T06:59:59+00:00	-2	g35s9f196tw95mr@marketplace.amazon.com	Natalie Spektor	+1 619-854-2705 ext. 13288	ABR001	Delivery by Tuesday | Arabella Bouquets 12 Stems of Fresh Cut Red Roses in a Free Designer Glass Vase	1	0	1	NextDay	Milind Kapadia (for your daughter)	200 LAIRD AVE C2109			CLIFFSIDE PARK	NJ	07010-1285	US			false		
114-6266578-3453842	02976083212634	2020-10-23T23:37:54+00:00	2020-10-23T16:37:54-07:00	2020-10-23T23:38:50+00:00	2020-10-27T06:59:59+00:00	-2	76ghwtl01175h69@marketplace.amazon.com	Michael Mahar	+1 619-854-2705 ext. 24136	ABR0022	Delivery by Tuesday | Arabella Farm Direct Bouquet of 12 Fresh Cut Pink Roses with a Free Glass Vase	1	0	1	NextDay	Kathy Hull	139 JEPSON RD			STAMFORD	VT	05352-9695	US		Mum, Happy birthday.  I hope you enjoy the flowers I know how much you enjoy them.  Love ya, Mike	false		
113-8553297-4783419	06534301821882	2020-10-23T23:41:59+00:00	2020-10-23T16:41:59-07:00	2020-10-23T23:45:35+00:00	2020-10-27T06:59:59+00:00	-2	6znckd2z2gkl0wl@marketplace.amazon.com	Emil	+1 619-854-2705 ext. 47325	ABR0022	Delivery by Tuesday | Arabella Farm Direct Bouquet of 12 Fresh Cut Pink Roses with a Free Glass Vase	1	0	1	NextDay	Ilona	23439 CARLOW RD			TORRANCE	CA	90505-4557	US			false		
111-7729567-1559420	68896477757826	2020-10-24T00:03:02+00:00	2020-10-23T17:03:02-07:00	2020-10-24T00:08:31+00:00	2020-10-27T06:59:59+00:00	-2	ml9lx333nsdhx1v@marketplace.amazon.com	georgeBullock	+1 619-854-2705 ext. 35598	ABR0022	Delivery by Tuesday | Arabella Farm Direct Bouquet of 12 Fresh Cut Pink Roses with a Free Glass Vase	1	0	1	NextDay	malou mariano	140 LINDEN AVE APT 856			LONG BEACH	CA	90802-4935	US			false		
113-9877562-3008242	41655357531730	2020-10-24T00:45:34+00:00	2020-10-23T17:45:34-07:00	2020-10-24T00:50:02+00:00	2020-10-27T06:59:59+00:00	-2	8zr5k0ptg5xdy5c@marketplace.amazon.com	Glenda	+1 415-851-9136 ext. 49109	ABR001	Delivery by Tuesday | Arabella Bouquets 12 Stems of Fresh Cut Red Roses in a Free Designer Glass Vase	1	0	1	NextDay	Alexandra Rivera	1817 ANDY HOLT AVE	BOX #243		KNOXVILLE	TN	37996	US		Happy Birthday mi niña bonita! Te amo 💗 From Glenda	false		
113-0031781-4886669	43749192733458	2020-10-24T01:01:14+00:00	2020-10-23T18:01:14-07:00	2020-10-24T01:03:07+00:00	2020-10-27T06:59:59+00:00	-2	v4qb28hqxwrwxh2@marketplace.amazon.com	michael martin	+1 480-618-5344 ext. 59788	ABR0022	Delivery by Tuesday | Arabella Farm Direct Bouquet of 12 Fresh Cut Pink Roses with a Free Glass Vase	1	0	1	NextDay	Camille Kerins	7812 35TH AVE APT 5G			JACKSON HEIGHTS	NY	11372-2550	US		With love and gratitude and best wishes - from Michael , Albert and Rosie From michael martin	false		
111-9419945-7978659	43092670904154	2020-10-24T01:16:27+00:00	2020-10-23T18:16:27-07:00	2020-10-24T01:17:09+00:00	2020-10-27T06:59:59+00:00	-2	kmx27hqvc259mx0@marketplace.amazon.com	elaf	+1 480-618-5344 ext. 59119	ABR0055	Delivery by Tuesday | Arabella Farm Direct Bouquet of 12 Stems of Fresh Cut Hot Pink Roses in a Free Designer Glass Vase	1	0	1	NextDay	Yasser	9301 GOLDEN WAY CT APT N			RICHMOND	VA	23294-6427	US		For your beautiful eyes and nose ❤️  Love you يالخبل From E	false		
114-1039797-0965002	00855595217746	2020-10-24T01:36:12+00:00	2020-10-23T18:36:12-07:00	2020-10-24T02:05:36+00:00	2020-10-28T06:59:59+00:00	-3	9jwks0xt6zyqk9r@marketplace.amazon.com	linda browning	+1 602-671-6610 ext. 76262	ABR0022	Delivery by Tuesday | Arabella Farm Direct Bouquet of 12 Fresh Cut Pink Roses with a Free Glass Vase	1	0	1	Standard	Patricia Browning	10 TERRACINA BLVD APT 143	ASSISTED LIVING		REDLANDS	CA	92373-4877	US		Happy Happy birthday Mom!! Love you! From (Lin)linda browning love ya	false		
114-0994039-3849059	45611263695042	2020-10-24T02:51:32+00:00	2020-10-23T19:51:32-07:00	2020-10-24T02:54:48+00:00	2020-10-27T06:59:59+00:00	-2	8y1jm3ry6hbnrdj@marketplace.amazon.com	Lynn Whistle	+1 929-436-4790 ext. 67397	ABR001	Delivery by Tuesday | Arabella Bouquets 12 Stems of Fresh Cut Red Roses in a Free Designer Glass Vase	1	0	1	NextDay	Melva Arleen Whistle	3362 BUCKLAND SQ APT 125			OWENSBORO	KY	42301-5829	US		Just because....  Love you, From Lynn	false		
113-0320483-5289838	65479060574426	2020-10-24T03:00:29+00:00	2020-10-23T20:00:29-07:00	2020-10-24T03:04:21+00:00	2020-10-27T06:59:59+00:00	-2	1cps1dfgyx1yrjs@marketplace.amazon.com	Carmela	+1 602-671-6610 ext. 17596	ABR0022	Delivery by Tuesday | Arabella Farm Direct Bouquet of 12 Fresh Cut Pink Roses with a Free Glass Vase	1	0	1	NextDay	Courtney Navarro	6593 LEMITAR DR			LAS VEGAS	NV	89108-2757	US		Enjoy your gift! From Carmela	false		
111-0526099-1645811	54617470796682	2020-10-24T03:04:53+00:00	2020-10-23T20:04:53-07:00	2020-10-24T03:07:39+00:00	2020-10-27T06:59:59+00:00	-2	ckdgxgw37r99r32@marketplace.amazon.com	Irma sandoval	+1 480-618-5344 ext. 45024	ABR0022	Delivery by Tuesday | Arabella Farm Direct Bouquet of 12 Fresh Cut Pink Roses with a Free Glass Vase	1	0	1	NextDay	Josefina Gomez	506 E ACACIA AVE APT D			GLENDALE	CA	91205-2881	US		Happy birthday abuelita te queremos mucho eres la mejor abuelita del mundo   Att: Scarlett, Mia  & Gianella From Irma sandoval	false		
111-5667754-1889841	29007912573730	2020-10-24T03:24:07+00:00	2020-10-23T20:24:07-07:00	2020-10-24T03:26:48+00:00	2020-10-27T06:59:59+00:00	-2	vb4yfdxs35znwms@marketplace.amazon.com	Manjushree Badlani	+1 619-854-2705 ext. 74931	ABM010	Delivery by Tuesday | The Spring Fling Bouquet by Arabella Bouquets with a Free Designer Glass Vase	1	0	1	NextDay	Manjushree M. Badlani	10567 Hunters Way			Laurel	MD	20723-5723	US		Happy Birthday Darling Wife From Manu with all my love	false		
112-5033256-6324212	17877178070034	2020-10-24T04:06:45+00:00	2020-10-23T21:06:45-07:00	2020-10-24T04:11:57+00:00	2020-10-27T06:59:59+00:00	-2	jv3bz15bbd0b6l8@marketplace.amazon.com	Marilyn Jamie Benton	+1 929-436-4790 ext. 33286	ABR0022	Delivery by Tuesday | Arabella Farm Direct Bouquet of 12 Fresh Cut Pink Roses with a Free Glass Vase	1	0	1	NextDay	Jamie E. Benton	19431 SIERRA LINDA RD			IRVINE	CA	92603-3937	US			false		
114-6183640-4370630	44822003058538	2020-10-24T05:49:39+00:00	2020-10-23T22:49:39-07:00	2020-10-24T05:52:37+00:00	2020-10-27T06:59:59+00:00	-2	8rms9sngbztmlbj@marketplace.amazon.com	lakeesha burr	+1 619-854-2705 ext. 31227	ABR0022	Delivery by Tuesday | Arabella Farm Direct Bouquet of 12 Fresh Cut Pink Roses with a Free Glass Vase	1	0	1	NextDay	Lakeesha Lockett-burr	5283 FINKAS LN			FAIRFIELD	CA	94533-1556	US			false		
112-8636164-5247423	54214517413802	2020-10-24T07:30:41+00:00	2020-10-24T00:30:41-07:00	2020-10-24T07:33:59+00:00	2020-10-27T06:59:59+00:00	-2	sbq436h6ltbz6k8@marketplace.amazon.com	Toto Dharmadji	+1 213-442-1463 ext. 17597	ABM022	Delivery by Tuesday | Purple Extravagance Bouquet by Arabella Bouquets	1	0	1	NextDay	Jade Asmara Dharmadji	5360 BASIE ST			VENTURA	CA	93003-0218	US		Panjang Umur nya dan kangen sekali Ibu Jade From Lada Dharmadji	false		
114-3627453-5414609	49657104380298	2020-10-24T07:52:32+00:00	2020-10-24T00:52:32-07:00	2020-10-24T07:57:10+00:00	2020-10-27T06:59:59+00:00	-2	s2frv5t5xqb184l@marketplace.amazon.com	Rebekah C. Hanks	+1 929-436-4790 ext. 52915	ABM022	Delivery by Tuesday | Purple Extravagance Bouquet by Arabella Bouquets	1	0	1	NextDay	Kara Hanks	13 N AVON DR			CLAYMONT	DE	19703-1501	US		Thinking of you!! From Love Mom and Dad	false		
113-1974232-4232210	68625549324554	2020-10-24T10:08:57+00:00	2020-10-24T03:08:57-07:00	2020-10-24T10:34:56+00:00	2020-10-27T06:59:59+00:00	-2	64bz2t0gy35lk3t@marketplace.amazon.com	Frank Meyer-Schuchardt	+1 213-442-1463 ext. 87653	ABR0022	Delivery by Tuesday | Arabella Farm Direct Bouquet of 12 Fresh Cut Pink Roses with a Free Glass Vase	1	0	1	SecondDay	Gudrun Volker	7517 Cutlass Ave			MIAMI BEACH	Florida	33141-4113	US		Gute Besserung - Alles Liebe von Lisa und Frank From Frank Meyer-Schuchardt	false		
112-9594924-3155458	52391536031354	2020-10-24T12:15:10+00:00	2020-10-24T05:15:10-07:00	2020-10-24T12:42:11+00:00	2020-10-27T06:59:59+00:00	-2	yknhbmgk9y4np6v@marketplace.amazon.com	Lisa Harter	+1 213-442-1463 ext. 11149	ABR001	Delivery by Wednesday | Arabella Bouquets 12 Stems of Fresh Cut Red Roses in a Free Designer Glass Vase	1	0	1	SecondDay	Maris Delladrocce	39 BOWER RD APT2			QUINCY	MA	02169-8113	US		Maria. You are a inspiration. Love Lisa From Lisa Harter	false		
114-4874845-2200239	28263952355810	2020-10-24T12:39:07+00:00	2020-10-24T05:39:07-07:00	2020-10-24T13:09:16+00:00	2020-10-28T06:59:59+00:00	-3	d8lhl1ys4mk5wml@marketplace.amazon.com	Martin	+1 619-854-2705 ext. 19775	ABM022	Delivery by Tuesday | Purple Extravagance Bouquet by Arabella Bouquets	1	0	1	Expedited	Martin Anderson	913 33RD ST			PERU	IL	61354-9504	US			false		
114-7013253-5709821	07646183363010	2020-10-24T13:45:38+00:00	2020-10-24T06:45:38-07:00	2020-10-24T14:13:34+00:00	2020-10-27T06:59:59+00:00	-2	wd24kkqp8hwsx49@marketplace.amazon.com	Payalj66	+1 602-671-6610 ext. 94328	ABR0022	Delivery by Tuesday | Arabella Farm Direct Bouquet of 12 Fresh Cut Pink Roses with a Free Glass Vase	1	0	1	SecondDay	Kamal kishore	2700 DOUBLE CHURCHES RD APT 133	PALMS APPARTMENTS		COLUMBUS	GA	31909-2889	US		Dear Kamal - Wish you a very Happy Birthday !!  From Payal From Payalj66	false		
113-3090144-7748225	09134262527474	2020-10-24T13:45:35+00:00	2020-10-24T06:45:35-07:00	2020-10-24T14:13:45+00:00	2020-10-28T06:59:59+00:00	-3	rrzf7dx0sfc2jcb@marketplace.amazon.com	David Courtwright	+1 415-851-9136 ext. 88156	ABM022	Delivery by Tuesday | Purple Extravagance Bouquet by Arabella Bouquets	1	0	1	Expedited	David Courtwright	3871 Arrow Point Trail West			Jacksonville	FL	32277	US		Happy birthday, Shelby. Forever young, forever in love. From David	false		
112-9760237-7421863	35174159599762	2020-10-24T14:43:14+00:00	2020-10-24T07:43:14-07:00	2020-10-24T15:04:02+00:00	2020-10-28T06:59:59+00:00	-3	szb3p7br9k7d08f@marketplace.amazon.com	parrilla,luz	+1 602-671-6610 ext. 61667	ABR0022	Delivery by Tuesday | Arabella Farm Direct Bouquet of 12 Fresh Cut Pink Roses with a Free Glass Vase	1	0	1	Expedited	Jhun and Cora Payawal	8216 246TH ST			BELLEROSE	NY	11426-1713	US		Our condolences, sympathies, thoughts and prayers are with you during this sad time... be strong and take care From Louie, Nen and family	false		
112-9060068-8216240	05978179828082	2020-10-24T14:40:52+00:00	2020-10-24T07:40:52-07:00	2020-10-24T15:09:34+00:00	2020-10-27T06:59:59+00:00	-2	xfjdh2867gj63zc@marketplace.amazon.com	Kristen Dressler	+1 619-854-2705 ext. 66590	ABM010	Delivery by Wednesday | The Spring Fling Bouquet by Arabella Bouquets with a Free Designer Glass Vase	1	0	1	SecondDay	Karen Johns	31 MAPLE AVE			SHILOH	NJ	08353-8520	US		Happy Birthday to my bestest friend!!!  Wishing you a day (and at least another 50 years!!) filled with lots of love and joy!!  Love you!! From Kristen Dressler	false		
113-6152188-7276233	48309210197026	2020-10-24T15:36:07+00:00	2020-10-24T08:36:07-07:00	2020-10-24T16:01:25+00:00	2020-10-28T06:59:59+00:00	-3	ym65sstmhm2z2lx@marketplace.amazon.com	Leslie Bernstein	+1 213-442-1463 ext. 06895	ABB011	Arabella Bouquets 24 Stems of Fresh Cut Hot Pink Roses in a Free Designer Glass Vase	1	0	1	Expedited	Judie Schlager	125 EL MIRASOL			PALM BEACH	FL	33480-3611	US		Happy Happy Birthday Judie!  We love and miss you and hope you have a wonderful day celebrating wonderful YOU!! xxoo  Roberta and Leslie From Leslie Bernstein	false		
114-3720602-3172220	09045378342666	2020-10-24T15:52:19+00:00	2020-10-24T08:52:19-07:00	2020-10-24T16:19:01+00:00	2020-10-28T06:59:59+00:00	-3	2m82j6b5f82hbxy@marketplace.amazon.com	Daniel Leka	+1 415-851-9136 ext. 28826	ABR0022	Delivery by Tuesday | Arabella Farm Direct Bouquet of 12 Fresh Cut Pink Roses with a Free Glass Vase	1	0	1	Expedited	Jennica Matis (Rus)	25293 CONSTITUTION			NOVI	MI	48375-1761	US		Happy birthday Chip!!!!  I love you so much! I hope today is extra special and I can’t wait to see you again! God bless you today & always!! Te iubesc!!! From Dale (and Esmee and Kylo)	false		
114-2581787-9794644	31905888269258	2020-10-24T16:35:49+00:00	2020-10-24T09:35:49-07:00	2020-10-24T17:03:38+00:00	2020-10-28T06:59:59+00:00	-3	kwm4xh0lsm7ycw4@marketplace.amazon.com	Cheryl R. McDade	+1 619-854-2705 ext. 30195	ABR0022	Delivery by Tuesday | Arabella Farm Direct Bouquet of 12 Fresh Cut Pink Roses with a Free Glass Vase	1	0	1	Expedited	Necola Francis	6208 WOOD POINTE DR			GLENN DALE	MD	20769-2113	US			false		
113-1742139-8777061	68743324800202	2020-10-24T18:00:23+00:00	2020-10-24T11:00:23-07:00	2020-10-24T18:28:13+00:00	2020-10-28T06:59:59+00:00	-3	9g7gmpdq346ltqn@marketplace.amazon.com	Mary L Muenchinger	+1 602-671-6610 ext. 31839	ABM020	Delivery by Wednesday | The Sunset Bouquet by Arabella Bouquets	1	0	1	Expedited	Betty Pritchard	4160 BETHEL ST APT 310			COLUMBIA	MO	65203-6806	US		Happy Happy Birthday!! Love, Mary & Bill From Mary L Muenchinger	false		
112-5940637-3606628	46480494942466	2020-10-24T18:00:54+00:00	2020-10-24T11:00:54-07:00	2020-10-24T18:29:48+00:00	2020-10-28T06:59:59+00:00	-3	glwzlck86d0w0hz@marketplace.amazon.com	Steve Cordovani	+1 602-671-6610 ext. 47915	ABR0055	Delivery by Tuesday | Arabella Farm Direct Bouquet of 12 Stems of Fresh Cut Hot Pink Roses in a Free Designer Glass Vase	1	0	1	Expedited	Hannah Drexler	724 S SAINT ASAPH ST # WB311			ALEXANDRIA	VA	22314-4349	US		One day I hope to be......... SCXOXO	false		
111-9147054-5311405	11422871795938	2020-10-24T18:31:10+00:00	2020-10-24T11:31:10-07:00	2020-10-24T18:59:01+00:00	2020-10-28T06:59:59+00:00	-3	m7t3xbgg2brj0jj@marketplace.amazon.com	DON B. TEED	+1 929-436-4790 ext. 48539	ABR0022	Delivery by Tuesday | Arabella Farm Direct Bouquet of 12 Fresh Cut Pink Roses with a Free Glass Vase	1	0	1	Expedited	Debra Teed	33 Tobisset St			Mashpee	Ma.	02649	US			false		
113-5638644-2950623	36832372530306	2020-10-24T19:08:56+00:00	2020-10-24T12:08:56-07:00	2020-10-24T19:32:41+00:00	2020-10-28T06:59:59+00:00	-3	8tr86khyxqb95tv@marketplace.amazon.com	christina castle	447859931189	ABR0022	Delivery by Tuesday | Arabella Farm Direct Bouquet of 12 Fresh Cut Pink Roses with a Free Glass Vase	1	0	1	Expedited	Mr & Mrs Briggs	5024 36TH AVE SW			SEATTLE	WA	98126-2806	US		Congratulations on the birth of your beautiful baby girl! Sending you all our love xxxx From Mum, Paul, Elise, Luke & boys xxx	false		
113-0283452-3973012	10400062642898	2020-10-24T19:22:36+00:00	2020-10-24T12:22:36-07:00	2020-10-24T19:49:08+00:00	2020-10-28T06:59:59+00:00	-3	f8j7vx1vr3ccdhp@marketplace.amazon.com	Bing Wang	+1 619-854-2705 ext. 90817	ABM022	Delivery by Tuesday | Purple Extravagance Bouquet by Arabella Bouquets	1	0	1	Expedited	Aisha Oliver-Staley	6223 BALTUSROL TRCE			FAIRBURN	GA	30213-5127	US		Dear Aisha,  Sending healthy vibes your way. Please take good care of yourself! From Bing Wang	false		
111-0215167-8539442	58106107079426	2020-10-24T19:28:25+00:00	2020-10-24T12:28:25-07:00	2020-10-24T19:57:49+00:00	2020-10-28T06:59:59+00:00	-3	6g46315j197xrfl@marketplace.amazon.com	Ruth Dowling	+1 213-442-1463 ext. 35367	ABR0055	Delivery by Tuesday | Arabella Farm Direct Bouquet of 12 Stems of Fresh Cut Hot Pink Roses in a Free Designer Glass Vase	1	0	1	Expedited	Ruth Dowling	1260 15th Ct, SW			Largo	FL	33770	US			false		
113-1739659-8247465	07111928732658	2020-10-24T19:36:19+00:00	2020-10-24T12:36:19-07:00	2020-10-24T20:04:19+00:00	2020-10-28T06:59:59+00:00	-3	6lsjw1v1pzcy9xv@marketplace.amazon.com	Michael DeCrescenzo	+1 213-442-1463 ext. 20501	ABR0022	Delivery by Tuesday | Arabella Farm Direct Bouquet of 12 Fresh Cut Pink Roses with a Free Glass Vase	1	0	1	Expedited	Grace DeCrescenzo	8508 CLARK MILLS RD			WHITESBORO	NY	13492-2700	US		Thinking of you and Carol. Nieces are daughters who live in different houses. Wishing you much peace. From With much Love your Children and Grandchildren	false		
114-0682041-6477808	68137594695298	2020-10-24T20:29:00+00:00	2020-10-24T13:29:00-07:00	2020-10-24T20:53:56+00:00	2020-10-27T06:59:59+00:00	-2	wfnz787z5141d59@marketplace.amazon.com	Frank Gianola	+1 929-436-4790 ext. 24089	ABM021	Delivery by Wednesday | The Joyous Bouquet by Arabella Bouquets	1	0	1	SecondDay	Esther Kirsch	26765 N 126TH LN			PEORIA	AZ	85383-2834	US		Speedy Recovery! We love you! From Vicky & Frank	false		
113-3870763-6996228	02994053622970	2020-10-24T20:30:12+00:00	2020-10-24T13:30:12-07:00	2020-10-24T20:54:43+00:00	2020-10-27T06:59:59+00:00	-2	nclwqs9y968ws88@marketplace.amazon.com	Shari Jones	+1 602-671-6610 ext. 47282	ABR0022	Delivery by Tuesday | Arabella Farm Direct Bouquet of 12 Fresh Cut Pink Roses with a Free Glass Vase	1	0	1	SecondDay	Luellen Jones	8001 SILVER MAPLE LN			MINT HILL	NC	28227-7625	US		Love you! Please take good care of yourself... From Shari Jones	false		
112-9251747-6197815	37546743565914	2020-10-24T20:25:22+00:00	2020-10-24T13:25:22-07:00	2020-10-24T20:55:09+00:00	2020-10-28T06:59:59+00:00	-3	80nk9qx1snxxfrq@marketplace.amazon.com	kelly watz	+1 213-442-1463 ext. 55724	ABR0022	Delivery by Tuesday | Arabella Farm Direct Bouquet of 12 Fresh Cut Pink Roses with a Free Glass Vase	1	0	1	Expedited	Linda Olkowski	905 ORCHID WAY			SAN DIEGO	CA	92154-1533	US		Just because.... From Your KelBel	false		
113-9617996-8211423	24715569393186	2020-10-24T21:28:02+00:00	2020-10-24T14:28:02-07:00	2020-10-24T21:54:56+00:00	2020-10-28T06:59:59+00:00	-3	6lsjw1v1pzcy9xv@marketplace.amazon.com	Michael DeCrescenzo	+1 415-851-9136 ext. 25864	ABR0022	Delivery by Tuesday | Arabella Farm Direct Bouquet of 12 Fresh Cut Pink Roses with a Free Glass Vase	1	0	1	Expedited	Ann Trozzi	1670 CONKLING AVE			UTICA	NY	13501-5120	US		Aunt Ann - Thinking of you and Carol.  Nieces are daughters who live in different houses.  Wishing you much peace. From Love, DeCrescenzo Children and Grandchildren	false		
112-3022973-5133039	67205987958746	2020-10-24T21:32:28+00:00	2020-10-24T14:32:28-07:00	2020-10-24T21:57:00+00:00	2020-10-28T06:59:59+00:00	-3	ttx8b03r8ptnt87@marketplace.amazon.com	Barbara warden	+1 213-442-1463 ext. 62876	ABR015	Delivery by Wednesday | Arabella Farm Direct Bouquet of 18 Fresh Cut Orange Roses with a Free Glass Vase	1	0	1	Expedited	Ann Ryden	955 GRAND AVE	OAKMONT PACIFIC BEACH RM 121		SAN DIEGO	CA	92109-4042	US		Ann...  With love and prayers!  Barb and Dick From Barbara warden	false		
111-4191409-1666667	17533251053290	2020-10-24T21:43:37+00:00	2020-10-24T14:43:37-07:00	2020-10-24T22:03:36+00:00	2020-10-27T06:59:59+00:00	-2	mxwtsmxssbp5fc7@marketplace.amazon.com	Kerstin Roolfs	+1 602-671-6610 ext. 33700	ABM031	Delivery by Wednesday | The Harvest Moon Bouquet by Arabella Bouquets	1	0	1	SecondDay	Phyllis Herschenfeld	4455 DOUGLAS AVE APT 4F			BRONX	NY	10471-3543	US		Dear Phyllis, we'd rather see you in person on your birthday, but since it is not possible this year, we wish you a very, very Happy Birthday!!! lots of love From Ethan&Kerstin&dogs From Ethan&Kerstin&dogs	false		
113-6197508-0226612	36947021481154	2020-10-24T21:36:22+00:00	2020-10-24T14:36:22-07:00	2020-10-24T22:05:08+00:00	2020-10-28T06:59:59+00:00	-3	6lsjw1v1pzcy9xv@marketplace.amazon.com	Michael DeCrescenzo	+1 619-854-2705 ext. 00581	ABR0033	Delivery by Wednesday | Arabella Farm Direct Bouquet of 12 Fresh Cut Orange Roses with a Free Glass Vase	1	0	1	Expedited	Michael DeCrescenzo	2 ROLLINS ST APT D507			BOSTON	MA	02118-4412	US		Aunt Mary - Thinking of you and Carol.  Our thoughts and prayers are with you.  Wishing you much peace. From Love, DeCrescenzo Children and Grandchildren	false		
112-1143565-8901820	08355218669914	2020-10-24T21:52:43+00:00	2020-10-24T14:52:43-07:00	2020-10-24T22:20:41+00:00	2020-10-28T06:59:59+00:00	-3	6t11s5ct35tfwtk@marketplace.amazon.com	Lydia Colon	+1 929-436-4790 ext. 75020	ABM002	Delivery by Wednesday | Arabella Bouquets Fresh Cut White Calla Lilies in a Free Designer Glass Vase	1	0	1	Expedited	Andrea Leckey	5300 PARKVIEW DR APT 2018			LAKE OSWEGO	OR	97035-8729	US		Enjoy your gift and your birthday! Blessings are coming Starshine! Love always, Mom From Lydia Colon	false		
113-5885112-2053834	32978523549362	2020-10-24T22:07:50+00:00	2020-10-24T15:07:50-07:00	2020-10-24T22:33:22+00:00	2020-10-27T06:59:59+00:00	-2	7tgj1gqhxtnqlsv@marketplace.amazon.com	Joan Liesener	+1 213-442-1463 ext. 76900	ABR0022	Delivery by Tuesday | Arabella Farm Direct Bouquet of 12 Fresh Cut Pink Roses with a Free Glass Vase	1	0	1	SecondDay	Alfred Engel	35925 ROSEMONT DR			PALM DESERT	CA	92211-2707	US		Thinking of you both today From Heinz & Joan	false		
112-3925270-1681858	11154154483258	2020-10-24T22:43:44+00:00	2020-10-24T15:43:44-07:00	2020-10-24T23:14:09+00:00	2020-10-28T06:59:59+00:00	-3	74nb8q3vngrfpvv@marketplace.amazon.com	curtis kousoulides	+1 602-671-6610 ext. 08119	ABR014	Arabella Bouquets 18 Stems of Fresh Cut White Roses in a Free Designer Glass Vase	1	0	1	Expedited	Curtis Vance	80 SAINT MARKS AVE APT 2B			BROOKLYN	NY	11217-2468	US			false		
113-3850123-7343409	70252937782370	2020-10-24T23:01:35+00:00	2020-10-24T16:01:35-07:00	2020-10-24T23:27:18+00:00	2020-10-27T06:59:59+00:00	-2	dsx7cs4749sx0sd@marketplace.amazon.com	Nicole Scotti	+1 213-442-1463 ext. 13568	ABR0022	Delivery by Tuesday | Arabella Farm Direct Bouquet of 12 Fresh Cut Pink Roses with a Free Glass Vase	1	0	1	SecondDay	Suzanne Sinkey	4620 SUNFLOWER LN			TEMPLE	TX	76502-4879	US		Suzanne,  Know that we are all thinking of you at this time. Love, Ann, Charley, and Maura From Your team!	false		
112-8912951-8811420	45654755115554	2020-10-24T23:11:55+00:00	2020-10-24T16:11:55-07:00	2020-10-24T23:39:27+00:00	2020-10-28T06:59:59+00:00	-3	hjrvx5mmmghwf2c@marketplace.amazon.com	howard masters	+1 213-442-1463 ext. 76812	ABR0022	Delivery by Tuesday | Arabella Farm Direct Bouquet of 12 Fresh Cut Pink Roses with a Free Glass Vase	1	0	1	Expedited	Diane Armstrong	2824 PCR816			Perryville	MO	63775	US		My beautiful sexy wife, please rest for a speedy recovery.  I love and miss you so much From howard masters	false		
112-3584691-6063453	62503202608898	2020-10-24T23:16:45+00:00	2020-10-24T16:16:45-07:00	2020-10-24T23:41:26+00:00	2020-10-28T06:59:59+00:00	-3	bkdwb9f329l3qf8@marketplace.amazon.com	Jason Reid	+1 415-851-9136 ext. 02710	ABR0022	Delivery by Tuesday | Arabella Farm Direct Bouquet of 12 Fresh Cut Pink Roses with a Free Glass Vase	1	0	1	Expedited	Anne Dugravot	18431 KLIMM AVE			HOMEWOOD	IL	60430-3206	US		I hope you are having an excellent day. Enjoy the flowers, you deserve these and so much more. ❤️ From Jason	false		
112-3361710-9977041	08632671769370	2020-10-24T23:21:12+00:00	2020-10-24T16:21:12-07:00	2020-10-24T23:45:39+00:00	2020-10-28T06:59:59+00:00	-3	d4f6ds858571gh5@marketplace.amazon.com	ALVIN WILSON	+1 619-854-2705 ext. 58424	ABR0022	Delivery by Tuesday | Arabella Farm Direct Bouquet of 12 Fresh Cut Pink Roses with a Free Glass Vase	1	0	1	Expedited	Susan Covarrubias	32 E PLATT ST			LONG BEACH	CA	90805-5835	US			false		
113-5718950-4094649	23887566419898	2020-10-25T00:02:06+00:00	2020-10-24T17:02:06-07:00	2020-10-25T00:31:53+00:00	2020-10-28T06:59:59+00:00	-3	668r9w8m6x9cypt@marketplace.amazon.com	Andre Eddins	+1 929-436-4790 ext. 62818	ABR0033	Delivery by Wednesday | Arabella Farm Direct Bouquet of 12 Fresh Cut Orange Roses with a Free Glass Vase	1	0	1	Expedited	Bianca Ventura	445 DOG LEG DR			FERNLEY	NV	89408-6698	US			false		
114-6964741-0363460	41225346069786	2020-10-25T00:20:37+00:00	2020-10-24T17:20:37-07:00	2020-10-25T00:47:07+00:00	2020-10-27T06:59:59+00:00	-2	k76c8494jd0fgf7@marketplace.amazon.com	Diana H. VanDuzer	+1 602-671-6610 ext. 70740	ABR012	Delivery by Wednesday | Arabella Farm Direct Bouquet of 18 Fresh Cut Pink Roses with a Free Glass Vase	1	0	1	SecondDay	Dan and Julie Van Duzer	6 LARSEN PARK DR			MEDFORD	NJ	08055-8169	US			false		
113-2704938-9373817	18235074418802	2020-10-25T00:19:05+00:00	2020-10-24T17:19:05-07:00	2020-10-25T00:48:52+00:00	2020-10-28T06:59:59+00:00	-3	g750q6qk9795w9n@marketplace.amazon.com	Mando	+1 619-854-2705 ext. 41727	ABR0022	Delivery by Tuesday | Arabella Farm Direct Bouquet of 12 Fresh Cut Pink Roses with a Free Glass Vase	1	0	1	Expedited	Olivia Dominguez	3217 CENTRUM DR			AUSTIN	TX	78754-5985	US			false		
111-1488780-9596220	18043412585370	2020-10-25T00:50:21+00:00	2020-10-24T17:50:21-07:00	2020-10-25T01:19:16+00:00	2020-10-28T06:59:59+00:00	-3	79t3j72q03jc1ys@marketplace.amazon.com	Elizabeth Pedziwiatr	+1 480-618-5344 ext. 77439	ABR0022	Delivery by Tuesday | Arabella Farm Direct Bouquet of 12 Fresh Cut Pink Roses with a Free Glass Vase	1	0	1	Expedited	Betsy Quick	2444 N 72ND ST APT 2 TOP			WAUWATOSA	WI	53213-1204	US			false		
113-1575550-8141002	00689246745594	2020-10-25T01:17:26+00:00	2020-10-24T18:17:26-07:00	2020-10-25T01:39:37+00:00	2020-10-28T06:59:59+00:00	-3	zfcv260s32tv10y@marketplace.amazon.com	William Shirey	+1 929-436-4790 ext. 34679	ABR0022	Delivery by Tuesday | Arabella Farm Direct Bouquet of 12 Fresh Cut Pink Roses with a Free Glass Vase	1	0	1	Expedited	Joan Ochs	12001 EDGEPARK CT			POTOMAC	MD	20854-2138	US		Hi Joan,  We wanted to wish you (belatedly) a very happy, well-deserved retirement!  Ps: It was so nice seeing you Saturday. You look fabulous; retirement agrees with you! From Jack, Harry, and Brooks Shirey	false		
114-9724327-9598632	04066800810458	2020-10-25T01:30:39+00:00	2020-10-24T18:30:39-07:00	2020-10-25T01:58:21+00:00	2020-10-27T06:59:59+00:00	-2	xz24jc0v4xq9q4j@marketplace.amazon.com	S. Nobles	+1 602-671-6610 ext. 70467	ABR0055	Delivery by Tuesday | Arabella Farm Direct Bouquet of 12 Stems of Fresh Cut Hot Pink Roses in a Free Designer Glass Vase	1	0	1	SecondDay	Carlotta Jones	9306 GREAT HILLS TRL UNIT 141			AUSTIN	TX	78759-7164	US		Happy Birthday! We love you and hope to see you soon! From Harry, Sherri and Cole	false		
113-6199606-2979407	07376480143066	2020-10-25T02:20:18+00:00	2020-10-24T19:20:18-07:00	2020-10-25T02:41:47+00:00	2020-10-28T06:59:59+00:00	-3	8l08wr0kk83q0rq@marketplace.amazon.com	aruna narayan	+1 415-851-9136 ext. 77309	ABM022	Delivery by Tuesday | Purple Extravagance Bouquet by Arabella Bouquets	1	0	1	Expedited	Sharwari & Arjun	170 TREMONT ST APT 1704			BOSTON	MA	02111-1128	US		Happy Wedding Anniversary! From aruna narayan	false		
111-0928903-4429822	50527457456330	2020-10-25T02:22:09+00:00	2020-10-24T19:22:09-07:00	2020-10-25T02:49:32+00:00	2020-10-28T06:59:59+00:00	-3	9sxvh19t5tqr1lx@marketplace.amazon.com	Margie Henderson	(816) 886-895	ABM022	Delivery by Tuesday | Purple Extravagance Bouquet by Arabella Bouquets	1	0	1	Expedited	Anne Moses	16910 MEADOW CREEK CIR			BELTON	MO	64012-3707	US		You are on our minds and in our prayers. We are here for you if you need anything. We love you! From Sherry and Margie	false		
113-3818105-2669005	09818638613714	2020-10-25T02:56:04+00:00	2020-10-24T19:56:04-07:00	2020-10-25T03:17:23+00:00	2020-10-28T06:59:59+00:00	-3	r1f56vpg2kcwrd3@marketplace.amazon.com	Val Sant	+1 213-442-1463 ext. 67197	ABR0055	Delivery by Tuesday | Arabella Farm Direct Bouquet of 12 Stems of Fresh Cut Hot Pink Roses in a Free Designer Glass Vase	1	0	1	Expedited	Jaanvi  Sant	46 LONGWOOD AVE APT 1			BROOKLINE	MA	02446-5220	US		Dear Jaanvi, Happy Birthday to you! We hope these flowers make your day beautiful and your year full of peace, love, and good health. We love you so much! Love, Putchka and Valerie Aunty From Valerie and Putchka Sant	false		
112-0411101-9369038	57162872576298	2020-10-25T03:27:01+00:00	2020-10-24T20:27:01-07:00	2020-10-25T03:55:22+00:00	2020-10-27T06:59:59+00:00	-2	f6jz74dv2ly2q67@marketplace.amazon.com	Tara Lukasik	+1 602-671-6610 ext. 77548	ABM022	Delivery by Tuesday | Purple Extravagance Bouquet by Arabella Bouquets	1	0	1	SecondDay	Dan Macdonald	3721 DAFFODIL LN			MCKINNEY	TX	75070-7642	US		Happy Birthday Mom!!! I wish I was there tocelebrate with you. I hope you have a beautiful day filled with everything wonderful. Love you, Tara From Tara Lukasik	false		
112-2942981-1442654	09167723198194	2020-10-25T04:03:07+00:00	2020-10-24T21:03:07-07:00	2020-10-25T04:25:33+00:00	2020-10-28T06:59:59+00:00	-3	bh4637ym0phpp2d@marketplace.amazon.com	Beverli Montague	+1 619-854-2705 ext. 16764	ABR0022	Delivery by Tuesday | Arabella Farm Direct Bouquet of 12 Fresh Cut Pink Roses with a Free Glass Vase	1	0	1	Expedited	Claudia Cortez	13060 Rain Shadow Rd.			Victorville	CA	92395	US			false		
112-3832131-4307408	50838581950762	2020-10-25T04:39:46+00:00	2020-10-24T21:39:46-07:00	2020-10-25T05:07:06+00:00	2020-10-28T06:59:59+00:00	-3	07nnqkw586v01bt@marketplace.amazon.com	Phuong Nguyen	+1 602-671-6610 ext. 49726	ABR0022	Delivery by Tuesday | Arabella Farm Direct Bouquet of 12 Fresh Cut Pink Roses with a Free Glass Vase	1	0	1	Expedited	Ngan Nguyen	15015 S ROUND TREE LN			DRAPER	UT	84020-5509	US		Wishing you the happiest of birthday! Love you much! <3 From Be^	false		
113-2620832-7945868	30456247952602	2020-10-25T05:33:21+00:00	2020-10-24T22:33:21-07:00	2020-10-25T06:01:38+00:00	2020-10-28T06:59:59+00:00	-3	7c60h59rtfw0sx2@marketplace.amazon.com	Mary Wilks	+1 213-442-1463 ext. 53078	ABR001	Delivery by Wednesday | Arabella Bouquets 12 Stems of Fresh Cut Red Roses in a Free Designer Glass Vase	1	0	1	Expedited	Jacqueline Alvarez	3205 S UNIVERSITY RD APT 60			SPOKANE VALLEY	WA	99206-5866	US		I hope this put a smiles on your face girl You deserve to be loved. From Randy cares.	false		
111-4131723-4512224	41206228941786	2020-10-25T06:19:04+00:00	2020-10-24T23:19:04-07:00	2020-10-25T06:46:04+00:00	2020-10-28T06:59:59+00:00	-3	dczw1qtf799cfzr@marketplace.amazon.com	Alex Polishchuk	+1 619-854-2705 ext. 94566	ABR0022	Delivery by Tuesday | Arabella Farm Direct Bouquet of 12 Fresh Cut Pink Roses with a Free Glass Vase	1	0	1	Expedited	LIlya Demyanik	2710 NE 170TH ST			RIDGEFIELD	WA	98642-6905	US			true		
113-8457804-4772257	21941661061410	2020-10-25T12:28:08+00:00	2020-10-25T05:28:08-07:00	2020-10-25T12:43:06+00:00	2020-10-28T06:59:59+00:00	-3	wt4bpvmz4jwxb0r@marketplace.amazon.com	Robin Groom	+1 415-851-9136 ext. 86453	ABR0055	Delivery by Tuesday | Arabella Farm Direct Bouquet of 12 Stems of Fresh Cut Hot Pink Roses in a Free Designer Glass Vase	1	0	1	Expedited	Anna Dinkins	HOSPICE HOUSE 501 PARK ST			CHARLOTTESVILLE	VA	22902-4739	US		For Anna with our love and our prayers. From The Groom children and their families	false		
111-7822375-8977019	04964340441826	2020-10-25T12:33:07+00:00	2020-10-25T05:33:07-07:00	2020-10-25T13:02:14+00:00	2020-10-28T06:59:59+00:00	-3	jplt4chyg8g40xz@marketplace.amazon.com	Barbara Bowman	+1 619-854-2705 ext. 24415	ABR0022	Delivery by Tuesday | Arabella Farm Direct Bouquet of 12 Fresh Cut Pink Roses with a Free Glass Vase	1	0	1	Expedited	Wanda Van Duzer	7504 TEMPLE HILL RD			TEMPLE HILLS	MD	20748-5449	US		Happy Birthday Wanda.  May the next year bring you GOOD health.   I am blessed to call you friend. From BB.	false		
112-7704701-4225049	31011272288642	2020-10-25T12:39:50+00:00	2020-10-25T05:39:50-07:00	2020-10-25T13:07:42+00:00	2020-10-28T06:59:59+00:00	-3	drmn2fzmj5hnymr@marketplace.amazon.com	Donna broms	18153967	ABR0022	Delivery by Tuesday | Arabella Farm Direct Bouquet of 12 Fresh Cut Pink Roses with a Free Glass Vase	1	0	1	Expedited	Eva Hunt	2511 SE 150TH AVE			VANCOUVER	WA	98683-7663	US		Happy Birthday Aunt Eva we love you!  Bill and Donna From Donna broms	false		
113-7824639-3261868	18319093237610	2020-10-25T15:01:11+00:00	2020-10-25T08:01:11-07:00	2020-10-25T15:15:15+00:00	2020-10-28T06:59:59+00:00	-3	yzgxft0r9yb5cx5@marketplace.amazon.com	Dorothy Caldwell	+1 213-442-1463 ext. 35522	ABR012	Delivery by Wednesday | Arabella Farm Direct Bouquet of 18 Fresh Cut Pink Roses with a Free Glass Vase	1	0	1	Expedited	Vicky Kennedy	SHELL POINT 9207 PARKWOOD CT			FORT MYERS	FL	33908-2829	US		Vicky, Thank you so much for helping us celebrate Eileen! From In loving appreciation - Lex, Dorothy, David, Diane	false		
111-0790756-8776249	17622314245394	2020-10-25T15:13:07+00:00	2020-10-25T08:13:07-07:00	2020-10-25T15:40:36+00:00	2020-10-28T06:59:59+00:00	-3	lrvr3k50ff1l1zz@marketplace.amazon.com	Kennette Bailey	+1 602-671-6610 ext. 19535	ABM022	Delivery by Tuesday | Purple Extravagance Bouquet by Arabella Bouquets	1	0	1	Expedited	Alnae Bailey	80 WALDO AVE			BLOOMFIELD	NJ	07003-5619	US		Love you to the moon and back you are an awesome young lady. Hope you are feeling better. From Auntie	false		
113-3849115-5101064	14347621424786	2020-10-25T15:44:04+00:00	2020-10-25T08:44:04-07:00	2020-10-25T16:12:52+00:00	2020-10-28T06:59:59+00:00	-3	fl5ttfw7lz48xvy@marketplace.amazon.com	Jennifer T. Thompson	+1 929-436-4790 ext. 16973	ABR0022	Delivery by Tuesday | Arabella Farm Direct Bouquet of 12 Fresh Cut Pink Roses with a Free Glass Vase	1	0	1	Expedited	Margaret Weymouth	ALDEN COURT REHAB CENTER	389 ALDEN RD		FAIRHAVEN	MA	02719-4451	US		A little cheer just because....With love from Jennifer and Izzy From Jennifer T. Thompson	false		
111-3763541-2189806	39176595323266	2020-10-25T15:47:53+00:00	2020-10-25T08:47:53-07:00	2020-10-25T16:13:43+00:00	2020-10-28T06:59:59+00:00	-3	thznkp3n0p7qr5b@marketplace.amazon.com	Angela Hansen	+1 480-618-5344 ext. 04884	ABM0044	Arabella Farm Direct Bouquet of Fresh Cut Blue Hydrangea with a Free Glass Vase	1	0	1	Expedited	Krista Tittle	9550 LANDMARK PL			FRISCO	TX	75035-6046	US		Hey there ~ Wanted to send you a little something to hopefully put a smile on your face and to let you know I’m thinking of you.  Wishing you a speedy recovery!  Take Care! From Angela Hansen	false		
