order-id	order-item-id	purchase-date	payments-date	reporting-date	promise-date	days-past-promise	buyer-email	buyer-name	buyer-phone-number	sku	product-name	quantity-purchased	quantity-shipped	quantity-to-ship	ship-service-level	recipient-name	ship-address-1	ship-address-2	ship-address-3	ship-city	ship-state	ship-postal-code	ship-country	gift-wrap-type	gift-message-text	is-business-order	purchase-order-number	price-designation
111-9147054-5311405	11422871795938	2020-10-24T18:31:10+00:00	2020-10-24T11:31:10-07:00	2020-10-24T18:59:01+00:00	2020-10-28T06:59:59+00:00	-2	m7t3xbgg2brj0jj@marketplace.amazon.com	DON B. TEED	+1 929-436-4790 ext. 48539	ABR0022	Delivery by Tuesday | Arabella Farm Direct Bouquet of 12 Fresh Cut Pink Roses with a Free Glass Vase	1	0	1	Expedited	Debra Teed	33 Tobisset St			Mashpee	Ma.	02649	US			false		
111-7626716-0329853	56600263257506	2020-10-26T17:34:00+00:00	2020-10-26T10:34:00-07:00	2020-10-26T18:02:37+00:00	2020-10-29T06:59:59+00:00	-3	vsx7bdh6dhkzml8@marketplace.amazon.com	Maria T. Johnson	+1 213-442-1463 ext. 98415	ABM022	Delivery by Tuesday | Purple Extravagance Bouquet by Arabella Bouquets	1	0	1	Standard	Val Milliman	4165 ROUTE 380			JAMESTOWN	NY	14701-9659	US		Dear Val, Wishing you a very speedy recovery. Maria and Jeff Johnson From Maria T. Johnson	false		
112-1246880-4529815	32408979407762	2020-10-26T17:46:35+00:00	2020-10-26T10:46:35-07:00	2020-10-26T18:16:24+00:00	2020-10-29T06:59:59+00:00	-3	3xplpl4jzjvxv7f@marketplace.amazon.com	Chris Persaud	+1 619-854-2705 ext. 01385	ABR0022	Delivery by Wednesday | Arabella Farm Direct Bouquet of 12 Fresh Cut Pink Roses with a Free Glass Vase	1	0	1	Expedited	Mohan C Persaud	222 APPLEWOOD CT			KISSIMMEE	FL	34743-8300	US			false		
114-4073723-8797006	19407818759970	2020-10-26T17:55:12+00:00	2020-10-26T10:55:12-07:00	2020-10-26T18:25:46+00:00	2020-10-29T06:59:59+00:00	-3	mk5025ncszy44p1@marketplace.amazon.com	Chris Davis	+1 602-671-6610 ext. 56020	ABR0022	Delivery by Wednesday | Arabella Farm Direct Bouquet of 12 Fresh Cut Pink Roses with a Free Glass Vase	1	0	1	Expedited	Chris Davis	8003 FINCH TRL			AUSTIN	TX	78745-6838	US			false		
114-1236735-7690615	51714372838018	2020-10-26T17:59:16+00:00	2020-10-26T10:59:16-07:00	2020-10-26T18:29:55+00:00	2020-10-29T06:59:59+00:00	-3	902c9rklz7z3475@marketplace.amazon.com	Renee Scatena	+1 929-436-4790 ext. 91852	ABM010	Delivery by Wednesday | The Spring Fling Bouquet by Arabella Bouquets with a Free Designer Glass Vase	1	0	1	Expedited	Renee Scatena	8306 E BUCKSKIN TRL			SCOTTSDALE	AZ	85255-2159	US			false		
112-7784803-7192254	66723299995370	2020-10-26T18:29:36+00:00	2020-10-26T11:29:36-07:00	2020-10-26T18:53:49+00:00	2020-10-29T06:59:59+00:00	-3	qy4cqgnn6frvmtl@marketplace.amazon.com	Rosa & Jason Moore	+1 929-436-4790 ext. 54359	ABM022	Delivery by Wednesday | Purple Extravagance Bouquet by Arabella Bouquets	1	0	1	Expedited	Pam Blakemore & Family	34766 TARA LN			YUCAIPA	CA	92399-6600	US		We love you Blakemore Family! We are so sad for the loss of Pete. Just know that you are in our hearts and prayers as you get through this season. From Rosa & Jason Moore	false		
114-7673248-8633821	37729239103506	2020-10-26T18:58:42+00:00	2020-10-26T11:58:42-07:00	2020-10-26T19:25:55+00:00	2020-10-29T06:59:59+00:00	-3	7bfkgxzp3km3jxp@marketplace.amazon.com	sheryl	+1 619-854-2705 ext. 26979	ABM022	Delivery by Wednesday | Purple Extravagance Bouquet by Arabella Bouquets	1	0	1	Expedited	Dee Lippincott	307 N PINEVIEW ST			STANBERRY	MO	64489-1509	US		To Dad Dee, We love you so much Dad. Hugs, kisses and sweet dreams. Your loving and Proud Kids From Sue, Pam, Sheryl, Chris, Mike, Luis	false		
111-7721083-9366608	24021052246962	2020-10-26T19:01:53+00:00	2020-10-26T12:01:53-07:00	2020-10-26T19:29:56+00:00	2020-10-29T06:59:59+00:00	-3	2pb6d595mqrp733@marketplace.amazon.com	Salvatore Rincione	+1 619-854-2705 ext. 02751	ABM022	Delivery by Wednesday | Purple Extravagance Bouquet by Arabella Bouquets	1	0	1	Expedited	Leni Goldsmith	48 WESTBRIDGE RD			WESTHAMPTON BEACH	NY	11978-2624	US		This concludes the birthday flowers :)  From the Rincione’s, Liebs, Goldsmiths, Posners! From .	false		
113-9100151-2677034	48034976626562	2020-10-26T19:39:25+00:00	2020-10-26T12:39:25-07:00	2020-10-26T20:09:18+00:00	2020-10-29T06:59:59+00:00	-3	zn5qzmfrrdyz2g4@marketplace.amazon.com	Alan Shropshire	+1 213-442-1463 ext. 88515	ABM022	Delivery by Wednesday | Purple Extravagance Bouquet by Arabella Bouquets	1	0	1	Expedited	Leslie Shropshire	220 OAK ST			GILBERTSVILLE	PA	19525-9413	US			false		
113-5293669-6012266	52029108654890	2020-10-26T20:00:47+00:00	2020-10-26T13:00:47-07:00	2020-10-26T20:31:03+00:00	2020-10-29T06:59:59+00:00	-3	6lsjw1v1pzcy9xv@marketplace.amazon.com	Michael DeCrescenzo	+1 619-854-2705 ext. 86616	ABR0033	Delivery by Wednesday | Arabella Farm Direct Bouquet of 12 Fresh Cut Orange Roses with a Free Glass Vase	1	0	1	Expedited	Marie Wojnas	2209 CENTENNIAL CIR			UTICA	NY	13502-1671	US			false		
114-1039980-5803438	39216529196802	2020-10-26T20:26:57+00:00	2020-10-26T13:26:57-07:00	2020-10-26T21:00:59+00:00	2020-10-29T06:59:59+00:00	-3	0hj3lzvpsj6b8tv@marketplace.amazon.com	Mallory	+1 619-854-2705 ext. 07882	ABR0066	Delivery by Wednesday | Arabella Bouquets 12 Stems of Fresh Cut White Roses in a Free Designer Glass Vase	1	0	1	Expedited	Marina Gibson	1217 W 10TH ST			PANAMA CITY	FL	32401-2109	US			false		
111-7585166-9259456	33048919140602	2020-10-26T20:39:24+00:00	2020-10-26T13:39:24-07:00	2020-10-26T21:06:25+00:00	2020-10-29T06:59:59+00:00	-3	nf3xcy46s2w6rn0@marketplace.amazon.com	Cindy	+1 619-854-2705 ext. 80030	ABR0055	Delivery by Wednesday | Arabella Farm Direct Bouquet of 12 Stems of Fresh Cut Hot Pink Roses in a Free Designer Glass Vase	1	0	1	Expedited	Penny Rosman	1518 HILL ST			SANTA MONICA	CA	90405-4840	US		Happy Birthday Penny! Wishing you Happiness in this new year of life! Love you, XO From Cindy Ralston	false		
