order-id	order-item-id	purchase-date	payments-date	reporting-date	promise-date	days-past-promise	buyer-email	buyer-name	buyer-phone-number	sku	product-name	quantity-purchased	quantity-shipped	quantity-to-ship	ship-service-level	recipient-name	ship-address-1	ship-address-2	ship-address-3	ship-city	ship-state	ship-postal-code	ship-country	gift-wrap-type	gift-message-text	is-business-order	purchase-order-number	price-designation
111-9147054-5311405	11422871795938	2020-10-24T18:31:10+00:00	2020-10-24T11:31:10-07:00	2020-10-24T18:59:01+00:00	2020-10-28T06:59:59+00:00	-2	m7t3xbgg2brj0jj@marketplace.amazon.com	DON B. TEED	+1 929-436-4790 ext. 48539	ABR0022	Delivery by Tuesday | Arabella Farm Direct Bouquet of 12 Fresh Cut Pink Roses with a Free Glass Vase	1	0	1	Expedited	Debra Teed	33 Tobisset St			Mashpee	Ma.	02649	US			false		
111-7626716-0329853	56600263257506	2020-10-26T17:34:00+00:00	2020-10-26T10:34:00-07:00	2020-10-26T18:02:37+00:00	2020-10-29T06:59:59+00:00	-3	vsx7bdh6dhkzml8@marketplace.amazon.com	Maria T. Johnson	+1 213-442-1463 ext. 98415	ABM022	Delivery by Tuesday | Purple Extravagance Bouquet by Arabella Bouquets	1	0	1	Standard	Val Milliman	4165 ROUTE 380			JAMESTOWN	NY	14701-9659	US		Dear Val, Wishing you a very speedy recovery. Maria and Jeff Johnson From Maria T. Johnson	false		
112-1246880-4529815	32408979407762	2020-10-26T17:46:35+00:00	2020-10-26T10:46:35-07:00	2020-10-26T18:16:24+00:00	2020-10-29T06:59:59+00:00	-3	3xplpl4jzjvxv7f@marketplace.amazon.com	Chris Persaud	+1 619-854-2705 ext. 01385	ABR0022	Delivery by Wednesday | Arabella Farm Direct Bouquet of 12 Fresh Cut Pink Roses with a Free Glass Vase	1	0	1	Expedited	Mohan C Persaud	222 APPLEWOOD CT			KISSIMMEE	FL	34743-8300	US			false		
114-4073723-8797006	19407818759970	2020-10-26T17:55:12+00:00	2020-10-26T10:55:12-07:00	2020-10-26T18:25:46+00:00	2020-10-29T06:59:59+00:00	-3	mk5025ncszy44p1@marketplace.amazon.com	Chris Davis	+1 602-671-6610 ext. 56020	ABR0022	Delivery by Wednesday | Arabella Farm Direct Bouquet of 12 Fresh Cut Pink Roses with a Free Glass Vase	1	0	1	Expedited	Chris Davis	8003 FINCH TRL			AUSTIN	TX	78745-6838	US			false		
114-1236735-7690615	51714372838018	2020-10-26T17:59:16+00:00	2020-10-26T10:59:16-07:00	2020-10-26T18:29:55+00:00	2020-10-29T06:59:59+00:00	-3	902c9rklz7z3475@marketplace.amazon.com	Renee Scatena	+1 929-436-4790 ext. 91852	ABM010	Delivery by Wednesday | The Spring Fling Bouquet by Arabella Bouquets with a Free Designer Glass Vase	1	0	1	Expedited	Renee Scatena	8306 E BUCKSKIN TRL			SCOTTSDALE	AZ	85255-2159	US			false		
112-7784803-7192254	66723299995370	2020-10-26T18:29:36+00:00	2020-10-26T11:29:36-07:00	2020-10-26T18:53:49+00:00	2020-10-29T06:59:59+00:00	-3	qy4cqgnn6frvmtl@marketplace.amazon.com	Rosa & Jason Moore	+1 929-436-4790 ext. 54359	ABM022	Delivery by Wednesday | Purple Extravagance Bouquet by Arabella Bouquets	1	0	1	Expedited	Pam Blakemore & Family	34766 TARA LN			YUCAIPA	CA	92399-6600	US		We love you Blakemore Family! We are so sad for the loss of Pete. Just know that you are in our hearts and prayers as you get through this season. From Rosa & Jason Moore	false		
114-7673248-8633821	37729239103506	2020-10-26T18:58:42+00:00	2020-10-26T11:58:42-07:00	2020-10-26T19:25:55+00:00	2020-10-29T06:59:59+00:00	-3	7bfkgxzp3km3jxp@marketplace.amazon.com	sheryl	+1 619-854-2705 ext. 26979	ABM022	Delivery by Wednesday | Purple Extravagance Bouquet by Arabella Bouquets	1	0	1	Expedited	Dee Lippincott	307 N PINEVIEW ST			STANBERRY	MO	64489-1509	US		To Dad Dee, We love you so much Dad. Hugs, kisses and sweet dreams. Your loving and Proud Kids From Sue, Pam, Sheryl, Chris, Mike, Luis	false		
111-7721083-9366608	24021052246962	2020-10-26T19:01:53+00:00	2020-10-26T12:01:53-07:00	2020-10-26T19:29:56+00:00	2020-10-29T06:59:59+00:00	-3	2pb6d595mqrp733@marketplace.amazon.com	Salvatore Rincione	+1 619-854-2705 ext. 02751	ABM022	Delivery by Wednesday | Purple Extravagance Bouquet by Arabella Bouquets	1	0	1	Expedited	Leni Goldsmith	48 WESTBRIDGE RD			WESTHAMPTON BEACH	NY	11978-2624	US		This concludes the birthday flowers :)  From the Rincione’s, Liebs, Goldsmiths, Posners! From .	false		
113-9100151-2677034	48034976626562	2020-10-26T19:39:25+00:00	2020-10-26T12:39:25-07:00	2020-10-26T20:09:18+00:00	2020-10-29T06:59:59+00:00	-3	zn5qzmfrrdyz2g4@marketplace.amazon.com	Alan Shropshire	+1 213-442-1463 ext. 88515	ABM022	Delivery by Wednesday | Purple Extravagance Bouquet by Arabella Bouquets	1	0	1	Expedited	Leslie Shropshire	220 OAK ST			GILBERTSVILLE	PA	19525-9413	US			false		
113-5293669-6012266	52029108654890	2020-10-26T20:00:47+00:00	2020-10-26T13:00:47-07:00	2020-10-26T20:31:03+00:00	2020-10-29T06:59:59+00:00	-3	6lsjw1v1pzcy9xv@marketplace.amazon.com	Michael DeCrescenzo	+1 619-854-2705 ext. 86616	ABR0033	Delivery by Wednesday | Arabella Farm Direct Bouquet of 12 Fresh Cut Orange Roses with a Free Glass Vase	1	0	1	Expedited	Marie Wojnas	2209 CENTENNIAL CIR			UTICA	NY	13502-1671	US			false		
114-1039980-5803438	39216529196802	2020-10-26T20:26:57+00:00	2020-10-26T13:26:57-07:00	2020-10-26T21:00:59+00:00	2020-10-29T06:59:59+00:00	-3	0hj3lzvpsj6b8tv@marketplace.amazon.com	Mallory	+1 619-854-2705 ext. 07882	ABR0066	Delivery by Wednesday | Arabella Bouquets 12 Stems of Fresh Cut White Roses in a Free Designer Glass Vase	1	0	1	Expedited	Marina Gibson	1217 W 10TH ST			PANAMA CITY	FL	32401-2109	US			false		
111-7585166-9259456	33048919140602	2020-10-26T20:39:24+00:00	2020-10-26T13:39:24-07:00	2020-10-26T21:06:25+00:00	2020-10-29T06:59:59+00:00	-3	nf3xcy46s2w6rn0@marketplace.amazon.com	Cindy	+1 619-854-2705 ext. 80030	ABR0055	Delivery by Wednesday | Arabella Farm Direct Bouquet of 12 Stems of Fresh Cut Hot Pink Roses in a Free Designer Glass Vase	1	0	1	Expedited	Penny Rosman	1518 HILL ST			SANTA MONICA	CA	90405-4840	US		Happy Birthday Penny! Wishing you Happiness in this new year of life! Love you, XO From Cindy Ralston	false		
112-4593212-5307412	27710175734322	2020-10-26T20:51:40+00:00	2020-10-26T13:51:40-07:00	2020-10-26T21:20:59+00:00	2020-10-29T06:59:59+00:00	-3	gc76b7f65txpwwy@marketplace.amazon.com	Anika Hutton	+1 602-671-6610 ext. 64247	ABM022	Delivery by Wednesday | Purple Extravagance Bouquet by Arabella Bouquets	1	0	1	Expedited	Pia Knigge	8309 CARRINGTON CT			MONTGOMERY	AL	36117-6359	US		Alles Gute zum Geburtstag!! <3 From Anika und die Lilly	false		
111-7383207-4040251	45144805263050	2020-10-26T20:56:23+00:00	2020-10-26T13:56:23-07:00	2020-10-26T21:21:36+00:00	2020-10-29T06:59:59+00:00	-3	k3nfkpyv803lhrs@marketplace.amazon.com	Bronfman	+1 602-671-6610 ext. 50917	ABM031	Delivery by Thursday | The Harvest Moon Bouquet by Arabella Bouquets	1	0	1	Expedited	Heather Smith Santelli	17 COUNTY ROUTE 64A			SHUSHAN	NY	12873-3142	US		Happy Birthday!  Wishing you brightness on your special day. From Becky and the Bronfman Team	false		
114-9479157-5361869	54089848639042	2020-10-26T21:14:26+00:00	2020-10-26T14:14:26-07:00	2020-10-26T21:39:56+00:00	2020-10-29T06:59:59+00:00	-3	wd4wv60w3b692qk@marketplace.amazon.com	brock alan carney m.d.	+1 415-851-9136 ext. 49158	ABR0055	Delivery by Wednesday | Arabella Farm Direct Bouquet of 12 Stems of Fresh Cut Hot Pink Roses in a Free Designer Glass Vase	1	0	1	Expedited	Jayney Sechler	C/I ORLANDO RECOVERY CENTER	6000 LAKE ELLENOR DR		ORLANDO	FL	32809-4615	US		Love you sweet girl!! So excited for your new beginning!! So very proud of you!! From Aunt Lauren	false		
111-2680063-9381008	55900564053890	2020-10-26T21:18:00+00:00	2020-10-26T14:18:00-07:00	2020-10-26T21:47:02+00:00	2020-10-29T06:59:59+00:00	-3	624hz5w43077t5n@marketplace.amazon.com	Kevin Johnson	+1 480-618-5344 ext. 35668	ABM022	Delivery by Wednesday | Purple Extravagance Bouquet by Arabella Bouquets	1	0	1	Expedited	Emilee Johnson	6421 MONTANA CT			SAN JOSE	CA	95120-1830	US			false		
112-0905905-1805052	66222684011394	2020-10-26T21:22:32+00:00	2020-10-26T14:22:32-07:00	2020-10-26T21:50:45+00:00	2020-10-29T06:59:59+00:00	-3	d8hrttm3cfd0mr6@marketplace.amazon.com	Lillian Selle	+1 619-854-2705 ext. 89116	ABR0022	Delivery by Wednesday | Arabella Farm Direct Bouquet of 12 Fresh Cut Pink Roses with a Free Glass Vase	1	0	1	Expedited	Morgen Hawley	2164 STATE ROUTE 9N			LAKE GEORGE	NY	12845-5911	US		Morgen, Luv, hugs and prayer your way!!!!!! From Shelley Selle	false		
113-6449095-5589863	48619373827962	2020-10-26T21:52:30+00:00	2020-10-26T14:52:30-07:00	2020-10-26T22:12:43+00:00	2020-10-29T06:59:59+00:00	-3	wgy5wgh545ldg83@marketplace.amazon.com	Vicky Bell	+1 480-618-5344 ext. 40803	ABR001	Delivery by Wednesday | Arabella Bouquets 12 Stems of Fresh Cut Red Roses in a Free Designer Glass Vase	1	0	1	Expedited	Cara Bell	2896 W BRYANT PL			LITTLETON	CO	80120-2931	US		Cara, I love you bunches! and you are my favorite second child!  We both love you and wish the best in all your desires! Love You from From Mom and Ray	false		
114-8491380-9173838	05396814763514	2020-10-26T22:13:47+00:00	2020-10-26T15:13:47-07:00	2020-10-26T22:39:55+00:00	2020-10-29T06:59:59+00:00	-3	kcsmxypk2j7p5wz@marketplace.amazon.com	Jo-Ann campanella	+1 480-618-5344 ext. 42502	ABR0022	Delivery by Wednesday | Arabella Farm Direct Bouquet of 12 Fresh Cut Pink Roses with a Free Glass Vase	1	0	1	Expedited	Ms Ethel McClain	20263 E MAYA RD			QUEEN CREEK	AZ	85142-7475	US		Wishing you all good things most especially Good health.  Happy 94th Love Jo-Ann From Jo-Ann campanella	false		
111-3556735-7662621	43892759034506	2020-10-26T22:37:58+00:00	2020-10-26T15:37:58-07:00	2020-10-26T22:41:09+00:00	2020-10-29T06:59:59+00:00	-3	99lypyfg7pkg0tf@marketplace.amazon.com	Peter Hololob	+1 619-854-2705 ext. 15609	ABR0022	Delivery by Wednesday | Arabella Farm Direct Bouquet of 12 Fresh Cut Pink Roses with a Free Glass Vase	1	0	1	Expedited	Peter Hololob	10 Prestwick Terr.			Glen Cove	New York	11542-2299	US		Sweetheart, 44 years just flew by when you're having fun. Thank you for sharing this journey with me.   ....and the adventure continues. I Love You. Peter From Peter	false		
