order-id	order-item-id	purchase-date	payments-date	reporting-date	promise-date	days-past-promise	buyer-email	buyer-name	buyer-phone-number	sku	product-name	quantity-purchased	quantity-shipped	quantity-to-ship	ship-service-level	recipient-name	ship-address-1	ship-address-2	ship-address-3	ship-city	ship-state	ship-postal-code	ship-country	gift-wrap-type	gift-message-text	is-business-order	purchase-order-number	price-designation
111-9147054-5311405	11422871795938	2020-10-24T18:31:10+00:00	2020-10-24T11:31:10-07:00	2020-10-24T18:59:01+00:00	2020-10-28T06:59:59+00:00	-2	m7t3xbgg2brj0jj@marketplace.amazon.com	DON B. TEED	+1 929-436-4790 ext. 48539	ABR0022	Delivery by Tuesday | Arabella Farm Direct Bouquet of 12 Fresh Cut Pink Roses with a Free Glass Vase	1	0	1	Expedited	Debra Teed	33 Tobisset St			Mashpee	Ma.	02649	US			false		
111-7626716-0329853	56600263257506	2020-10-26T17:34:00+00:00	2020-10-26T10:34:00-07:00	2020-10-26T18:02:37+00:00	2020-10-29T06:59:59+00:00	-3	vsx7bdh6dhkzml8@marketplace.amazon.com	Maria T. Johnson	+1 213-442-1463 ext. 98415	ABM022	Delivery by Tuesday | Purple Extravagance Bouquet by Arabella Bouquets	1	0	1	Standard	Val Milliman	4165 ROUTE 380			JAMESTOWN	NY	14701-9659	US		Dear Val, Wishing you a very speedy recovery. Maria and Jeff Johnson From Maria T. Johnson	false		
112-1246880-4529815	32408979407762	2020-10-26T17:46:35+00:00	2020-10-26T10:46:35-07:00	2020-10-26T18:16:24+00:00	2020-10-29T06:59:59+00:00	-3	3xplpl4jzjvxv7f@marketplace.amazon.com	Chris Persaud	+1 619-854-2705 ext. 01385	ABR0022	Delivery by Wednesday | Arabella Farm Direct Bouquet of 12 Fresh Cut Pink Roses with a Free Glass Vase	1	0	1	Expedited	Mohan C Persaud	222 APPLEWOOD CT			KISSIMMEE	FL	34743-8300	US			false		
114-4073723-8797006	19407818759970	2020-10-26T17:55:12+00:00	2020-10-26T10:55:12-07:00	2020-10-26T18:25:46+00:00	2020-10-29T06:59:59+00:00	-3	mk5025ncszy44p1@marketplace.amazon.com	Chris Davis	+1 602-671-6610 ext. 56020	ABR0022	Delivery by Wednesday | Arabella Farm Direct Bouquet of 12 Fresh Cut Pink Roses with a Free Glass Vase	1	0	1	Expedited	Chris Davis	8003 FINCH TRL			AUSTIN	TX	78745-6838	US			false		
114-1236735-7690615	51714372838018	2020-10-26T17:59:16+00:00	2020-10-26T10:59:16-07:00	2020-10-26T18:29:55+00:00	2020-10-29T06:59:59+00:00	-3	902c9rklz7z3475@marketplace.amazon.com	Renee Scatena	+1 929-436-4790 ext. 91852	ABM010	Delivery by Wednesday | The Spring Fling Bouquet by Arabella Bouquets with a Free Designer Glass Vase	1	0	1	Expedited	Renee Scatena	8306 E BUCKSKIN TRL			SCOTTSDALE	AZ	85255-2159	US			false		
112-7784803-7192254	66723299995370	2020-10-26T18:29:36+00:00	2020-10-26T11:29:36-07:00	2020-10-26T18:53:49+00:00	2020-10-29T06:59:59+00:00	-3	qy4cqgnn6frvmtl@marketplace.amazon.com	Rosa & Jason Moore	+1 929-436-4790 ext. 54359	ABM022	Delivery by Wednesday | Purple Extravagance Bouquet by Arabella Bouquets	1	0	1	Expedited	Pam Blakemore & Family	34766 TARA LN			YUCAIPA	CA	92399-6600	US		We love you Blakemore Family! We are so sad for the loss of Pete. Just know that you are in our hearts and prayers as you get through this season. From Rosa & Jason Moore	false		
114-7673248-8633821	37729239103506	2020-10-26T18:58:42+00:00	2020-10-26T11:58:42-07:00	2020-10-26T19:25:55+00:00	2020-10-29T06:59:59+00:00	-3	7bfkgxzp3km3jxp@marketplace.amazon.com	sheryl	+1 619-854-2705 ext. 26979	ABM022	Delivery by Wednesday | Purple Extravagance Bouquet by Arabella Bouquets	1	0	1	Expedited	Dee Lippincott	307 N PINEVIEW ST			STANBERRY	MO	64489-1509	US		To Dad Dee, We love you so much Dad. Hugs, kisses and sweet dreams. Your loving and Proud Kids From Sue, Pam, Sheryl, Chris, Mike, Luis	false		
111-7721083-9366608	24021052246962	2020-10-26T19:01:53+00:00	2020-10-26T12:01:53-07:00	2020-10-26T19:29:56+00:00	2020-10-29T06:59:59+00:00	-3	2pb6d595mqrp733@marketplace.amazon.com	Salvatore Rincione	+1 619-854-2705 ext. 02751	ABM022	Delivery by Wednesday | Purple Extravagance Bouquet by Arabella Bouquets	1	0	1	Expedited	Leni Goldsmith	48 WESTBRIDGE RD			WESTHAMPTON BEACH	NY	11978-2624	US		This concludes the birthday flowers :)  From the Rincione’s, Liebs, Goldsmiths, Posners! From .	false		
113-9100151-2677034	48034976626562	2020-10-26T19:39:25+00:00	2020-10-26T12:39:25-07:00	2020-10-26T20:09:18+00:00	2020-10-29T06:59:59+00:00	-3	zn5qzmfrrdyz2g4@marketplace.amazon.com	Alan Shropshire	+1 213-442-1463 ext. 88515	ABM022	Delivery by Wednesday | Purple Extravagance Bouquet by Arabella Bouquets	1	0	1	Expedited	Leslie Shropshire	220 OAK ST			GILBERTSVILLE	PA	19525-9413	US			false		
113-5293669-6012266	52029108654890	2020-10-26T20:00:47+00:00	2020-10-26T13:00:47-07:00	2020-10-26T20:31:03+00:00	2020-10-29T06:59:59+00:00	-3	6lsjw1v1pzcy9xv@marketplace.amazon.com	Michael DeCrescenzo	+1 619-854-2705 ext. 86616	ABR0033	Delivery by Wednesday | Arabella Farm Direct Bouquet of 12 Fresh Cut Orange Roses with a Free Glass Vase	1	0	1	Expedited	Marie Wojnas	2209 CENTENNIAL CIR			UTICA	NY	13502-1671	US			false		
114-1039980-5803438	39216529196802	2020-10-26T20:26:57+00:00	2020-10-26T13:26:57-07:00	2020-10-26T21:00:59+00:00	2020-10-29T06:59:59+00:00	-3	0hj3lzvpsj6b8tv@marketplace.amazon.com	Mallory	+1 619-854-2705 ext. 07882	ABR0066	Delivery by Wednesday | Arabella Bouquets 12 Stems of Fresh Cut White Roses in a Free Designer Glass Vase	1	0	1	Expedited	Marina Gibson	1217 W 10TH ST			PANAMA CITY	FL	32401-2109	US			false		
111-7585166-9259456	33048919140602	2020-10-26T20:39:24+00:00	2020-10-26T13:39:24-07:00	2020-10-26T21:06:25+00:00	2020-10-29T06:59:59+00:00	-3	nf3xcy46s2w6rn0@marketplace.amazon.com	Cindy	+1 619-854-2705 ext. 80030	ABR0055	Delivery by Wednesday | Arabella Farm Direct Bouquet of 12 Stems of Fresh Cut Hot Pink Roses in a Free Designer Glass Vase	1	0	1	Expedited	Penny Rosman	1518 HILL ST			SANTA MONICA	CA	90405-4840	US		Happy Birthday Penny! Wishing you Happiness in this new year of life! Love you, XO From Cindy Ralston	false		
112-4593212-5307412	27710175734322	2020-10-26T20:51:40+00:00	2020-10-26T13:51:40-07:00	2020-10-26T21:20:59+00:00	2020-10-29T06:59:59+00:00	-3	gc76b7f65txpwwy@marketplace.amazon.com	Anika Hutton	+1 602-671-6610 ext. 64247	ABM022	Delivery by Wednesday | Purple Extravagance Bouquet by Arabella Bouquets	1	0	1	Expedited	Pia Knigge	8309 CARRINGTON CT			MONTGOMERY	AL	36117-6359	US		Alles Gute zum Geburtstag!! <3 From Anika und die Lilly	false		
111-7383207-4040251	45144805263050	2020-10-26T20:56:23+00:00	2020-10-26T13:56:23-07:00	2020-10-26T21:21:36+00:00	2020-10-29T06:59:59+00:00	-3	k3nfkpyv803lhrs@marketplace.amazon.com	Bronfman	+1 602-671-6610 ext. 50917	ABM031	Delivery by Thursday | The Harvest Moon Bouquet by Arabella Bouquets	1	0	1	Expedited	Heather Smith Santelli	17 COUNTY ROUTE 64A			SHUSHAN	NY	12873-3142	US		Happy Birthday!  Wishing you brightness on your special day. From Becky and the Bronfman Team	false		
114-9479157-5361869	54089848639042	2020-10-26T21:14:26+00:00	2020-10-26T14:14:26-07:00	2020-10-26T21:39:56+00:00	2020-10-29T06:59:59+00:00	-3	wd4wv60w3b692qk@marketplace.amazon.com	brock alan carney m.d.	+1 415-851-9136 ext. 49158	ABR0055	Delivery by Wednesday | Arabella Farm Direct Bouquet of 12 Stems of Fresh Cut Hot Pink Roses in a Free Designer Glass Vase	1	0	1	Expedited	Jayney Sechler	C/I ORLANDO RECOVERY CENTER	6000 LAKE ELLENOR DR		ORLANDO	FL	32809-4615	US		Love you sweet girl!! So excited for your new beginning!! So very proud of you!! From Aunt Lauren	false		
111-2680063-9381008	55900564053890	2020-10-26T21:18:00+00:00	2020-10-26T14:18:00-07:00	2020-10-26T21:47:02+00:00	2020-10-29T06:59:59+00:00	-3	624hz5w43077t5n@marketplace.amazon.com	Kevin Johnson	+1 480-618-5344 ext. 35668	ABM022	Delivery by Wednesday | Purple Extravagance Bouquet by Arabella Bouquets	1	0	1	Expedited	Emilee Johnson	6421 MONTANA CT			SAN JOSE	CA	95120-1830	US			false		
112-0905905-1805052	66222684011394	2020-10-26T21:22:32+00:00	2020-10-26T14:22:32-07:00	2020-10-26T21:50:45+00:00	2020-10-29T06:59:59+00:00	-3	d8hrttm3cfd0mr6@marketplace.amazon.com	Lillian Selle	+1 619-854-2705 ext. 89116	ABR0022	Delivery by Wednesday | Arabella Farm Direct Bouquet of 12 Fresh Cut Pink Roses with a Free Glass Vase	1	0	1	Expedited	Morgen Hawley	2164 STATE ROUTE 9N			LAKE GEORGE	NY	12845-5911	US		Morgen, Luv, hugs and prayer your way!!!!!! From Shelley Selle	false		
113-6449095-5589863	48619373827962	2020-10-26T21:52:30+00:00	2020-10-26T14:52:30-07:00	2020-10-26T22:12:43+00:00	2020-10-29T06:59:59+00:00	-3	wgy5wgh545ldg83@marketplace.amazon.com	Vicky Bell	+1 480-618-5344 ext. 40803	ABR001	Delivery by Wednesday | Arabella Bouquets 12 Stems of Fresh Cut Red Roses in a Free Designer Glass Vase	1	0	1	Expedited	Cara Bell	2896 W BRYANT PL			LITTLETON	CO	80120-2931	US		Cara, I love you bunches! and you are my favorite second child!  We both love you and wish the best in all your desires! Love You from From Mom and Ray	false		
114-8491380-9173838	05396814763514	2020-10-26T22:13:47+00:00	2020-10-26T15:13:47-07:00	2020-10-26T22:39:55+00:00	2020-10-29T06:59:59+00:00	-3	kcsmxypk2j7p5wz@marketplace.amazon.com	Jo-Ann campanella	+1 480-618-5344 ext. 42502	ABR0022	Delivery by Wednesday | Arabella Farm Direct Bouquet of 12 Fresh Cut Pink Roses with a Free Glass Vase	1	0	1	Expedited	Ms Ethel McClain	20263 E MAYA RD			QUEEN CREEK	AZ	85142-7475	US		Wishing you all good things most especially Good health.  Happy 94th Love Jo-Ann From Jo-Ann campanella	false		
111-3556735-7662621	43892759034506	2020-10-26T22:37:58+00:00	2020-10-26T15:37:58-07:00	2020-10-26T22:41:09+00:00	2020-10-29T06:59:59+00:00	-3	99lypyfg7pkg0tf@marketplace.amazon.com	Peter Hololob	+1 619-854-2705 ext. 15609	ABR0022	Delivery by Wednesday | Arabella Farm Direct Bouquet of 12 Fresh Cut Pink Roses with a Free Glass Vase	1	0	1	Expedited	Peter Hololob	10 Prestwick Terr.			Glen Cove	New York	11542-2299	US		Sweetheart, 44 years just flew by when you're having fun. Thank you for sharing this journey with me.   ....and the adventure continues. I Love You. Peter From Peter	false		
114-9575427-7325060	15866619577538	2020-10-26T22:32:10+00:00	2020-10-26T15:32:10-07:00	2020-10-26T22:57:50+00:00	2020-10-29T06:59:59+00:00	-3	qtq3xrs1jb5hg67@marketplace.amazon.com	Mary Margaret Lara	+1 602-671-6610 ext. 75239	ABR0022	Delivery by Wednesday | Arabella Farm Direct Bouquet of 12 Fresh Cut Pink Roses with a Free Glass Vase	1	0	1	Expedited	Aurorita Martinez	509 CRATER LAKE DR			PFLUGERVILLE	TX	78660-5277	US		Dios sabía que el mundo necesitaba unas cuantas sonrisas más, un poco más de gozo y un poco más de AMOR. ¡Por eso te hizo! ¡FELIZ CUMPLEAÑOS atrasado!🥰  Le Mando un fuerte abrazo y muchos besitos.💋💋💋 Margie From Margie Lara	false		
113-8157584-8543426	21859070471546	2020-10-26T22:33:59+00:00	2020-10-26T15:33:59-07:00	2020-10-26T23:03:47+00:00	2020-10-29T06:59:59+00:00	-3	gj3wqg5lrywblkh@marketplace.amazon.com	Ryan Higley	+1 602-671-6610 ext. 91968	ABR0022	Delivery by Wednesday | Arabella Farm Direct Bouquet of 12 Fresh Cut Pink Roses with a Free Glass Vase	1	0	1	Expedited	Mike Higley	125 GRAND AVE			LAPORTE	IN	46350-5349	US			false		
112-5118657-3293037	40124464596858	2020-10-26T22:39:07+00:00	2020-10-26T15:39:07-07:00	2020-10-26T23:05:08+00:00	2020-10-29T06:59:59+00:00	-3	6dlyxgz4fq9csdp@marketplace.amazon.com	Sheila L. Greenwood	+1 929-436-4790 ext. 22265	ABR0033	Delivery by Wednesday | Arabella Farm Direct Bouquet of 12 Fresh Cut Orange Roses with a Free Glass Vase	1	0	1	Expedited	Linda Barenchi	901 WHITE PINE DR			DURHAM	NORTH CAROLINA	27705-7515	US		We have been so busy trying to pack up my mom and Les, but wanted you to know you are constantly on our minds. Sending love and hugs to you. Love, Scott and Sheil From Sheila L. Greenwood	false		
111-3359635-7927468	12495613444114	2020-10-26T22:43:36+00:00	2020-10-26T15:43:36-07:00	2020-10-26T23:08:48+00:00	2020-10-29T06:59:59+00:00	-3	39b70kjv25964k5@marketplace.amazon.com	Bennett Broadway	+1 602-671-6610 ext. 74713	ABM010	Delivery by Wednesday | The Spring Fling Bouquet by Arabella Bouquets with a Free Designer Glass Vase	1	0	1	Expedited	Candy Urutia	211 LUCADA ST			SANTA PAULA	CA	93060-3113	US		Hi Candy, We love you and are praying for your upcoming surgery. From Ben and Judy	false		
112-3126778-4629064	50798500050466	2020-10-25T21:26:02+00:00	2020-10-25T14:26:02-07:00	2020-10-26T23:09:37+00:00	2020-10-29T06:59:59+00:00	-3	cmmd10hr7q7rvzg@marketplace.amazon.com	juliemaffei	+1 602-671-6610 ext. 12866	ABR0066	Delivery by Wednesday | Arabella Bouquets 12 Stems of Fresh Cut White Roses in a Free Designer Glass Vase	1	0	1	Expedited	julie  maffei	527 MAIN ST APT 1A			STONEHAM	MA	02180-2885	US			false		
114-4333108-6280250	06350452887442	2020-10-26T23:11:50+00:00	2020-10-26T16:11:50-07:00	2020-10-26T23:38:10+00:00	2020-10-29T06:59:59+00:00	-3	5vmxfq7zdrngr68@marketplace.amazon.com	Andre	+1 480-618-5344 ext. 30781	ABM010	Delivery by Wednesday | The Spring Fling Bouquet by Arabella Bouquets with a Free Designer Glass Vase	1	0	1	Expedited	Heidi Allen	1855 TELSTAR DR			COLORADO SPRINGS	CO	80920-1005	US		Wishing you a Happiest Birthday Heidi !! I hope you are spoiled all day long!! You deserve it! From Lorinda	false		
114-9054123-8443440	45767827128266	2020-10-26T23:13:48+00:00	2020-10-26T16:13:48-07:00	2020-10-26T23:42:02+00:00	2020-10-29T06:59:59+00:00	-3	rg8xkgh4v8q97c9@marketplace.amazon.com	Jodie Butler	+1 480-618-5344 ext. 31602	ABM0044	Delivery by Thursday | Arabella Farm Direct Bouquet of Fresh Cut Blue Hydrangea with a Free Glass Vase	1	0	1	Expedited	Bryce Fields	1420 W JONQUIL TER APT 2E			CHICAGO	IL	60626-1212	US		Happy 4th Anniversary! Fruit and Flowers?! Who comes up with these? Love you!  Ma! From Jodie Butler	false		
114-0119958-1569816	12122648824882	2020-10-26T23:21:10+00:00	2020-10-26T16:21:10-07:00	2020-10-26T23:47:28+00:00	2020-10-29T06:59:59+00:00	-3	zq492fnvkx21r63@marketplace.amazon.com	Tamara McKee	+1 480-618-5344 ext. 15139	ABM022	Delivery by Wednesday | Purple Extravagance Bouquet by Arabella Bouquets	1	0	1	Expedited	Karen Sharpee	134 SUNFLOWER DR			WINDSOR	CO	80550-5506	US		Happy Birthday, Mom! Hope you have a wonderful day - Love you! From Tamara and  Mick McKee	false		
111-1064728-2261807	23632462893746	2020-10-26T23:29:19+00:00	2020-10-26T16:29:19-07:00	2020-10-26T23:57:19+00:00	2020-10-29T06:59:59+00:00	-3	cjsbmvxdkr374ls@marketplace.amazon.com	Patricia McDonald	+1 480-618-5344 ext. 01216	ABR0022	Delivery by Wednesday | Arabella Farm Direct Bouquet of 12 Fresh Cut Pink Roses with a Free Glass Vase	1	0	1	Expedited	Judy Thompson	9330 MINNETREE HILL RD			PROVIDENCE FORGE	VA	23140-3440	US		Your good friend Sam From Sam Jones	false		
112-8079078-3133012	38561703435858	2020-10-26T23:45:14+00:00	2020-10-26T16:45:14-07:00	2020-10-27T00:08:46+00:00	2020-10-29T06:59:59+00:00	-3	znfmcmt3bvvkr78@marketplace.amazon.com	R Wells	+1 480-618-5344 ext. 44129	ABR0022	Delivery by Wednesday | Arabella Farm Direct Bouquet of 12 Fresh Cut Pink Roses with a Free Glass Vase	1	0	1	Expedited	Jane Norton	220 ZOAR AVE			LUBBOCK	TX	79416-3102	US		Every time you look at these flowers, we hope you'll be able to feel the love and comfort being sent your way. Your mom lives on in you and the wonderful human you created. Dan, Ruth, Chris, Meg, Jess, Robert, twins & Z From R Wells	false		
111-3929400-2940229	03238623917370	2020-10-26T23:43:31+00:00	2020-10-26T16:43:31-07:00	2020-10-27T00:12:36+00:00	2020-10-29T06:59:59+00:00	-3	75ft10cqvg4wc4v@marketplace.amazon.com	Margret McCall	+1 929-436-4790 ext. 01970	ABR0022	Delivery by Wednesday | Arabella Farm Direct Bouquet of 12 Fresh Cut Pink Roses with a Free Glass Vase	1	0	1	Expedited	Dorothy Dwyer	6 PROVINCE ST			PEPPERELL	MA	01463-1734	US		Happy Birthday From Margret McCall	false		
113-4109444-7145869	44047257280066	2020-10-26T23:44:30+00:00	2020-10-26T16:44:30-07:00	2020-10-27T00:14:08+00:00	2020-10-29T06:59:59+00:00	-3	yf8c6pp18cvr1f6@marketplace.amazon.com	Jennifer	+1 602-671-6610 ext. 05246	ABR001	Delivery by Wednesday | Arabella Bouquets 12 Stems of Fresh Cut Red Roses in a Free Designer Glass Vase	1	0	1	Expedited	Jennifer	25744 W 12 MILE RD  3-303			SOUTHFIELD	MI	48034-1863	US			false		
111-7072753-1881030	32037540057426	2020-10-26T23:56:38+00:00	2020-10-26T16:56:38-07:00	2020-10-27T00:23:57+00:00	2020-10-29T06:59:59+00:00	-3	tj8vr2h50kv4v8v@marketplace.amazon.com	caroline reilly	+1 929-436-4790 ext. 27679	ABM010	Delivery by Wednesday | The Spring Fling Bouquet by Arabella Bouquets with a Free Designer Glass Vase	1	0	1	Expedited	Kathleen Wright	1 NASHUA ST APT 1207			BOSTON	MA	02114-1611	US		Happy Birthday Kathleen we are sending you love & hugs . Have a beautiful day . From Love you , Leo & Caroline	false		
114-5059852-2764257	64135101018058	2020-10-27T00:27:52+00:00	2020-10-26T17:27:52-07:00	2020-10-27T00:56:25+00:00	2020-10-29T06:59:59+00:00	-3	6d4s8r29zzzkjd3@marketplace.amazon.com	John Chwirut	+1 213-442-1463 ext. 82992	ABM010	Delivery by Wednesday | The Spring Fling Bouquet by Arabella Bouquets with a Free Designer Glass Vase	1	0	1	Expedited	Luba Jovan	6 FOX TRCE			LANCASTER	NY	14086-3072	US		Thinking of you!!  hoping for a speedy recovery From Love, Judy and John	false		
114-1337306-4599450	58218651665138	2020-10-27T00:10:17+00:00	2020-10-26T17:10:17-07:00	2020-10-27T01:10:50+00:00	2020-10-29T06:59:59+00:00	-3	x16v2h0sp9tlfl8@marketplace.amazon.com	Tim Sonnemann	+1 619-854-2705 ext. 11945	ABM020	Delivery by Thursday | The Sunset Bouquet by Arabella Bouquets	1	0	1	Standard	Mary K. Butwin	18900 68TH AVE NE APT G204			KENMORE	WA	98028-2650	US		Happy Birthday Muffin! Hugs and kisses and all the best for you! From Tim	false		
111-7158476-8018622	10739210214402	2020-10-27T00:53:11+00:00	2020-10-26T17:53:11-07:00	2020-10-27T01:16:50+00:00	2020-10-29T06:59:59+00:00	-3	kqq4qflgpdqv4m6@marketplace.amazon.com	Susan	+1 619-854-2705 ext. 54421	ABR0022	Delivery by Wednesday | Arabella Farm Direct Bouquet of 12 Fresh Cut Pink Roses with a Free Glass Vase	1	0	1	Expedited	Allison Moldovan	187 CONCH SHELL CT			HARDEEVILLE	SC	29927-5067	US			false		
113-3222125-3145826	57086877334026	2020-10-26T08:09:16+00:00	2020-10-26T01:09:16-07:00	2020-10-27T01:25:20+00:00	2020-10-29T06:59:59+00:00	-3	6ljh560jmfsxr53@marketplace.amazon.com	Akishige Suganuma	+1 619-854-2705 ext. 16615	ABM022	Delivery by Tuesday | Purple Extravagance Bouquet by Arabella Bouquets	1	0	1	Expedited	Lily Nguyen	25120 MIDDLEBROOK WAY			MORENO VALLEY	CA	92551-9202	US		Purple is the common color for you and me. Wishing you would have more love from me, smiles, hugs and lots of purple. From Shige	false		
113-2055716-8828217	58039244964706	2020-10-27T01:04:19+00:00	2020-10-26T18:04:19-07:00	2020-10-27T01:31:29+00:00	2020-10-29T06:59:59+00:00	-3	2w2jyhsyfl2ks8m@marketplace.amazon.com	TJ	+1 929-436-4790 ext. 77312	ABR0022	Delivery by Wednesday | Arabella Farm Direct Bouquet of 12 Fresh Cut Pink Roses with a Free Glass Vase	1	0	1	Expedited	Empress Shay	4803 ARABIA AVE			BALTIMORE	MD	21214-2929	US		For the Love of my life!! You're truly More than Amazing n I Love you sooooo much 😘😘😘 Love your King!!!♥️ From TJ	false		
111-6238230-9991449	40106950835242	2020-10-27T01:05:13+00:00	2020-10-26T18:05:13-07:00	2020-10-27T01:33:33+00:00	2020-10-29T06:59:59+00:00	-3	2tdqkbw666dcs31@marketplace.amazon.com	Barbara L. Rice	+1 213-442-1463 ext. 54056	ABM022	Delivery by Wednesday | Purple Extravagance Bouquet by Arabella Bouquets	1	0	1	Expedited	Carol Bukys	3 KOSCIUSKO ST			WOBURN	MA	01801-3863	US		Carol, thank you for all you have done (!) to get us through this past Sunday. You have worked tirelessly. Thank you, thank you for your love of Hancock. Now, onto the next tasks... Gratefully, Barbara From Barbara	false		
111-6318831-0707437	70068723687026	2020-10-27T01:08:06+00:00	2020-10-26T18:08:06-07:00	2020-10-27T01:35:39+00:00	2020-10-29T06:59:59+00:00	-3	mv58lf97btvxh1n@marketplace.amazon.com	Caitlyn	+1 213-442-1463 ext. 21855	ABM010	Delivery by Wednesday | The Spring Fling Bouquet by Arabella Bouquets with a Free Designer Glass Vase	1	0	1	Expedited	Barbara Aris	3177 LANCASTER DR			SANTA MARIA	CA	93455-2011	US		Happy 85th Birthday Grandma!!! Hope you have a wonderful day! Love you! Love,  Tyler, Caitlyn, Shea, and soon to be baby girl From The Kaneshiros	false		
111-3317827-4603439	18890704963058	2020-10-27T01:12:28+00:00	2020-10-26T18:12:28-07:00	2020-10-27T01:38:18+00:00	2020-10-29T06:59:59+00:00	-3	2tdqkbw666dcs31@marketplace.amazon.com	Barbara L. Rice	+1 415-851-9136 ext. 99118	ABM022	Delivery by Wednesday | Purple Extravagance Bouquet by Arabella Bouquets	1	0	1	Expedited	Joan Rutila	6 BELFRY TER			LEXINGTON	MA	02421-4931	US		Dear Joan, thank you for all you have done to get us through this past Sunday! Thank you for your love of Hancock, through so many things. I'm looking forward to 18 more months of working with you. Gratefully, Barbara From Barbara	false		
111-1948240-5966647	34311102772010	2020-10-27T01:15:58+00:00	2020-10-26T18:15:58-07:00	2020-10-27T01:39:42+00:00	2020-10-29T06:59:59+00:00	-3	zl2mv70s06c2vgf@marketplace.amazon.com	Abuela	+1 602-671-6610 ext. 30194	ABR011	Delivery by Thursday | Arabella Bouquets 18 Stems of Fresh Cut Red Roses in a Free Glass Vase	1	0	1	Expedited	Renee Serrano & Family,  From Ponce’s	1504 N 5TH ST			PORT HUENEME	CA	93041-2207	US			false		
111-9560137-5951406	65341277332858	2020-10-27T01:13:04+00:00	2020-10-26T18:13:04-07:00	2020-10-27T01:42:54+00:00	2020-10-29T06:59:59+00:00	-3	ct2my0hwt9xzb3n@marketplace.amazon.com	Greg Landry	+1 619-854-2705 ext. 20841	ABM022	Delivery by Wednesday | Purple Extravagance Bouquet by Arabella Bouquets	1	0	1	Expedited	Gerry Landry	AMBER TERRACE 8585 SUMMA AVE	APT 105		BATON ROUGE	LA	70809-0611	US			false		
