order-id	order-item-id	purchase-date	payments-date	reporting-date	promise-date	days-past-promise	buyer-email	buyer-name	buyer-phone-number	sku	product-name	quantity-purchased	quantity-shipped	quantity-to-ship	ship-service-level	recipient-name	ship-address-1	ship-address-2	ship-address-3	ship-city	ship-state	ship-postal-code	ship-country	gift-wrap-type	gift-message-text	is-business-order	purchase-order-number	price-designation
113-5560182-5493813	16550148285306	2020-10-28T17:47:07+00:00	2020-10-28T10:47:07-07:00	2020-10-28T18:14:30+00:00	2020-10-31T06:59:59+00:00	-3	blbc53qm7jmsbfk@marketplace.amazon.com	Christina DeMarco	+1 213-442-1463 ext. 33208	ABM010	Delivery by Friday | The Spring Fling Bouquet by Arabella Bouquets with a Free Designer Glass Vase	1	0	1	Expedited	Jackie Porto	214 WASHINGTON ST  1			WALLINGFORD	CT	06492-2326	US		Jackie and Paulo,  We love you both and you guys are in our prayers!  Love, Chrissy and Matthew From Christina DeMarco	false		
113-9906785-9373027	05614792498746	2020-10-28T18:03:26+00:00	2020-10-28T11:03:26-07:00	2020-10-28T18:22:20+00:00	2020-10-31T06:59:59+00:00	-3	yr19z1y512n9npk@marketplace.amazon.com	Dale	+1 602-671-6610 ext. 57679	ABR0055	Delivery by Friday | Arabella Farm Direct Bouquet of 12 Stems of Fresh Cut Hot Pink Roses in a Free Designer Glass Vase	1	0	1	Expedited	LOIS DORF  c/o schwartzswied	2741 RIVER PINE CT			OVIEDO	FL	32765-8953	US		Hoping you feel  better   VERY soon !!!!! From Love, Dale	false		
112-7485365-2550606	06398240247338	2020-10-28T17:58:03+00:00	2020-10-28T10:58:03-07:00	2020-10-28T18:28:18+00:00	2020-10-31T06:59:59+00:00	-3	0q5pyh209h24dbc@marketplace.amazon.com	rich egan	+1 602-671-6610 ext. 41572	ABR0022	Delivery by Friday | Arabella Farm Direct Bouquet of 12 Fresh Cut Pink Roses with a Free Glass Vase	1	0	1	Expedited	Marriott	ATTN JASMINE MITCHELL	1818 N 90TH ST		OMAHA	NE	68114-1315	US			false		
114-9038970-5320251	37723748247386	2020-10-28T18:01:31+00:00	2020-10-28T11:01:31-07:00	2020-10-28T18:31:10+00:00	2020-10-31T06:59:59+00:00	-3	vy3w5ht47463jdp@marketplace.amazon.com	Jasmine Hopkins	+1 929-436-4790 ext. 51791	ABM0033	Delivery by Monday | Arabella Farm Direct Bouquet of Fresh Cut White Hydrangea with a Free Glass Vase	1	0	1	Expedited	Shirley Hopkins	13029 CHIMNEY STONE CT			RICHMOND	VA	23233-7519	US		Rich used to choose Hydrangeas. The flowers for our 1st date, bouquet for our wedding, bush in the store on a random Tues. I'm sharing these with you so you can feel his love too. Thank you for raising the love of my life. From Jazz	false		
114-6407450-7574626	60696945969562	2020-10-28T18:43:25+00:00	2020-10-28T11:43:25-07:00	2020-10-28T18:44:13+00:00	2020-10-31T06:59:59+00:00	-3	z5h50p6rc46xq8l@marketplace.amazon.com	Bruce A. Raley	+1 480-618-5344 ext. 53349	ABM022	Delivery by Friday | Purple Extravagance Bouquet by Arabella Bouquets	1	0	1	Expedited	Rick and Regan Powell	29259 MASTERS DR			MURRIETA	CA	92563-5851	US		Dear Regan, May this color and fragrance brighten your days as you recover from surgery. Cheers to a smooth and speedy healing process! And of course I hope you enjoy them as well, Rick! From With love, Michele (and Bruce)	false		
114-0726067-6049047	09743765101250	2020-10-28T18:33:26+00:00	2020-10-28T11:33:26-07:00	2020-10-28T18:55:24+00:00	2020-10-31T06:59:59+00:00	-3	9d4mj29dwjpk5gc@marketplace.amazon.com	angelica	+1 480-618-5344 ext. 08325	ABM020	Delivery by Friday | The Sunset Bouquet by Arabella Bouquets	1	0	1	Expedited	Barbra Butler	2553 H. Westminster Ln.			Boise	ID	83704	US		Happy Birthday Grandma!! You are fearfully and wonderfully made! Hope you have the most beautiful blessed day. We love you and miss you! God bless! From Caroline, Jocelyn, Teddy & Angelica From Caroline, Angelica, Teddy & Jocelyn	false		
114-0374891-1741819	47693615529818	2020-10-28T18:44:15+00:00	2020-10-28T11:44:15-07:00	2020-10-28T19:02:13+00:00	2020-10-31T06:59:59+00:00	-3	fsrf4ywzvhzjs16@marketplace.amazon.com	David J. Corrigan	+1 213-442-1463 ext. 58548	ABM022	Delivery by Friday | Purple Extravagance Bouquet by Arabella Bouquets	1	0	1	Expedited	Mr. & Mrs. Frank Austin	31 HAMPTON CT			ORCHARD PARK	NY	14127-3461	US		In loving memory of your dear mother and her passion for flowers and gardening. From Dave & Judy Corrigan	false		
113-9491599-0887415	68996471502162	2020-10-28T18:41:38+00:00	2020-10-28T11:41:38-07:00	2020-10-28T19:04:49+00:00	2020-10-31T06:59:59+00:00	-3	2n82cmqh36r5pvq@marketplace.amazon.com	PMT	+1 480-618-5344 ext. 98255	ABM022	Delivery by Friday | Purple Extravagance Bouquet by Arabella Bouquets	1	0	1	Expedited	Hamid  Alai	1404 JOSEPHINE ST			NEW ORLEANS	LA	70130-5323	US		Happy Birthday Lizzie! From Parveen, Ali, Jeila	false		
114-9771469-8091404	52612940680698	2020-10-28T18:49:26+00:00	2020-10-28T11:49:26-07:00	2020-10-28T19:08:32+00:00	2020-10-31T06:59:59+00:00	-3	gr01cpkx2x6zhjm@marketplace.amazon.com	GJ Young	+1 602-671-6610 ext. 00736	ABM022	Delivery by Friday | Purple Extravagance Bouquet by Arabella Bouquets	1	0	1	Expedited	Pam  Roeser	210 HAMPTON AVE			GREENVILLE	SC	29601-1931	US			false		
114-9686231-3305061	49511348613170	2020-10-28T18:51:45+00:00	2020-10-28T11:51:45-07:00	2020-10-28T19:17:51+00:00	2020-10-31T06:59:59+00:00	-3	7qqz16vcl0p1vhr@marketplace.amazon.com	Kimberly O'Malley	+1 213-442-1463 ext. 30244	ABM022	Delivery by Friday | Purple Extravagance Bouquet by Arabella Bouquets	1	0	1	Expedited	Andrea Barrozzi	1530 NW 48TH LN			BOCA RATON	FL	33431-3340	US			false		
111-3976101-2049053	49661721859602	2020-10-28T18:58:04+00:00	2020-10-28T11:58:04-07:00	2020-10-28T19:24:59+00:00	2020-10-31T06:59:59+00:00	-3	jtty6htnfk54sr9@marketplace.amazon.com	Gail Krauss	+1 213-442-1463 ext. 20475	ABR0055	Delivery by Friday | Arabella Farm Direct Bouquet of 12 Stems of Fresh Cut Hot Pink Roses in a Free Designer Glass Vase	1	0	1	Expedited	Dot Milliken	114 BANK BARN LN			LANCASTER	PA	17602-1661	US		Hi Dot, Enjoy and heal well! Love in Christ, Jim and Gail	false		
113-9429033-5090612	00226892686402	2020-10-28T18:55:41+00:00	2020-10-28T11:55:41-07:00	2020-10-28T19:25:57+00:00	2020-10-31T06:59:59+00:00	-3	5yh3t2qyc7j6w1z@marketplace.amazon.com	Ellen LoCicero	+1 929-436-4790 ext. 88570	ABR0022	Delivery by Friday | Arabella Farm Direct Bouquet of 12 Fresh Cut Pink Roses with a Free Glass Vase	1	0	1	Expedited	Salvatore LoCicero	261 Clems Run			Mullica Hill	NJ	08062-2851	US			false		
114-4136249-1915400	25295152713570	2020-10-28T19:06:17+00:00	2020-10-28T12:06:17-07:00	2020-10-28T19:36:36+00:00	2020-10-31T06:59:59+00:00	-3	mhg079ff2kqhhq3@marketplace.amazon.com	James Keys Jr	+1 480-618-5344 ext. 13462	ABM022	Delivery by Friday | Purple Extravagance Bouquet by Arabella Bouquets	1	0	1	Expedited	Nanette Callahan	122 BLACKBERRY LN			CHUCKEY	TN	37641-2556	US			false		
113-3007648-7377017	35950885123426	2020-10-28T19:18:12+00:00	2020-10-28T12:18:12-07:00	2020-10-28T19:43:19+00:00	2020-10-31T06:59:59+00:00	-3	wp5yk69hh7kc31l@marketplace.amazon.com	KURT PETERSON	+1 619-854-2705 ext. 31498	ABM022	Delivery by Friday | Purple Extravagance Bouquet by Arabella Bouquets	1	0	1	Expedited	ALAINA PETERSON	26 PINE CHIP CT			NOTTINGHAM	MD	21236-3542	US		Happy Birthday Peanut!  ...they were out of Titleists so I hope these will do!    Love you, Dad From KURT PETERSON	false		
112-7373479-0297846	67858496802746	2020-10-28T19:21:53+00:00	2020-10-28T12:21:53-07:00	2020-10-28T19:48:50+00:00	2020-10-31T06:59:59+00:00	-3	rw4b49zzjsrdw06@marketplace.amazon.com	Lara Hunsberger	+1 619-854-2705 ext. 39776	ABM022	Delivery by Friday | Purple Extravagance Bouquet by Arabella Bouquets	1	0	1	Expedited	Janet Kephart	440 GULF BLVD			BELLEAIR SHORES	FL	33786-3201	US		We are so glad you are home and feeling better!!  We love you!! From Love, David, Lara, Jeremy & Jamieson From David, Lara, Jeremy & Jamieson	false		
112-2428825-5753048	35509668612898	2020-10-28T19:42:01+00:00	2020-10-28T12:42:01-07:00	2020-10-28T19:58:38+00:00	2020-10-31T06:59:59+00:00	-3	b1fhhy4rrcvv263@marketplace.amazon.com	Joseph Sanders	+1 213-442-1463 ext. 71028	ABR0033	Delivery by Friday | Arabella Farm Direct Bouquet of 12 Fresh Cut Orange Roses with a Free Glass Vase	1	0	1	Expedited	Linda Brackmann	W231N7435 E STONERIDGE CT			SUSSEX	WI	53089-2057	US			false		
114-5059078-5649824	34595669610426	2020-10-28T19:41:22+00:00	2020-10-28T12:41:22-07:00	2020-10-28T20:13:40+00:00	2020-10-31T06:59:59+00:00	-3	12wt5bxykbq54cl@marketplace.amazon.com	Debra gonzalez	+1 480-618-5344 ext. 14979	ABR012	Delivery by Monday | Arabella Farm Direct Bouquet of 18 Fresh Cut Pink Roses with a Free Glass Vase	1	0	1	Expedited	Debra gonzalez	600 ASH ST			WINNETKA	IL	60093-2661	US			false		
112-1726632-0156268	38518125491426	2020-10-28T20:01:23+00:00	2020-10-28T13:01:23-07:00	2020-10-28T20:27:52+00:00	2020-10-31T06:59:59+00:00	-3	bgfmnq8vfz8q4br@marketplace.amazon.com	April L. Healey	+1 602-671-6610 ext. 88636	ABR0055	Delivery by Friday | Arabella Farm Direct Bouquet of 12 Stems of Fresh Cut Hot Pink Roses in a Free Designer Glass Vase	1	0	1	Expedited	Deborah Larson	14418 62ND ST SE			SHELDON	ND	58068-9755	US		Hi Deb!  Hope you are feeling better every hour, but REST and don’t rush it.  Love you!  April	false		
112-6746330-5361825	53643672582602	2020-10-28T20:15:29+00:00	2020-10-28T13:15:29-07:00	2020-10-28T20:38:13+00:00	2020-10-31T06:59:59+00:00	-3	f20fym6qc8khc0w@marketplace.amazon.com	kathy korzeb	+1 213-442-1463 ext. 17105	ABM022	Delivery by Friday | Purple Extravagance Bouquet by Arabella Bouquets	1	0	1	Expedited	Mrs. Jean Hegdus	18 FOX RUNNE			ROBBINSVILLE	NJ	08691-3647	US		Hello Jean  Happy Birthday!  Love the KORZEBS💕💕💕	false		
