order-id	order-item-id	purchase-date	payments-date	reporting-date	promise-date	days-past-promise	buyer-email	buyer-name	buyer-phone-number	sku	product-name	quantity-purchased	quantity-shipped	quantity-to-ship	ship-service-level	recipient-name	ship-address-1	ship-address-2	ship-address-3	ship-city	ship-state	ship-postal-code	ship-country	gift-wrap-type	gift-message-text	is-business-order	purchase-order-number	price-designation
111-5145994-7897069	51931111119130	2020-10-27T17:58:49+00:00	2020-10-27T10:58:49-07:00	2020-10-27T17:59:39+00:00	2020-10-30T06:59:59+00:00	-2	pnx1jvys8qww6sm@marketplace.amazon.com	Stef Layton	+1 619-854-2705 ext. 00828	ABR0055	Delivery by Wednesday | Arabella Farm Direct Bouquet of 12 Stems of Fresh Cut Hot Pink Roses in a Free Designer Glass Vase	1	0	1	Expedited	Miss Jo Brimberry	7172 S OAKLEAF ST			BENNETT	CO	80102-8528	US		We're praying for you Josie! Get better soon!! HUGS!! From Layton Family	false		
112-2240246-1437056	33456901924106	2020-10-27T17:30:38+00:00	2020-10-27T10:30:38-07:00	2020-10-27T17:59:59+00:00	2020-10-30T06:59:59+00:00	-2	1gb018vbjhk2nt8@marketplace.amazon.com	chang sim	+1 213-442-1463 ext. 15728	ABM022	Delivery by Wednesday | Purple Extravagance Bouquet by Arabella Bouquets	1	0	1	Expedited	Chong S. Nelson	3005 GALAXIE RD			GARLAND	TX	75044-6501	US			false		
111-6429852-5549053	36811910567962	2020-10-27T18:02:13+00:00	2020-10-27T11:02:13-07:00	2020-10-27T18:31:07+00:00	2020-10-30T06:59:59+00:00	-2	113fy12722s8mpt@marketplace.amazon.com	Benita Ryley	+1 480-618-5344 ext. 79498	ABM022	Delivery by Thursday | Purple Extravagance Bouquet by Arabella Bouquets	1	0	1	Expedited	Jill TuckerPOjill	1543 N US HIGHWAY 41			ROCKVILLE	IN	47872-7146	US		Thanks for being my angel on earth. You touch so many lives, we are all lucky you are in ours. From Benita Ryley	true	jill	
112-9708195-8954665	45070163454282	2020-10-27T18:15:22+00:00	2020-10-27T11:15:22-07:00	2020-10-27T18:45:14+00:00	2020-10-30T06:59:59+00:00	-2	l380jkfxmtdx1nk@marketplace.amazon.com	Michaela Dempsey		ABM0044	Delivery by Friday | Arabella Farm Direct Bouquet of Fresh Cut Blue Hydrangea with a Free Glass Vase	1	0	1	Expedited	Richard Dempsey	3525 S VIA DEL ESTORNINO			GREEN VALLEY	AZ	85622-5032	US			false		
111-5921119-1650644	01151570744250	2020-10-27T18:21:01+00:00	2020-10-27T11:21:01-07:00	2020-10-27T18:49:08+00:00	2020-10-30T06:59:59+00:00	-2	rstbys628l57m1t@marketplace.amazon.com	Timothy A. Lewis	+1 213-442-1463 ext. 87052	ABM020	Delivery by Thursday | The Sunset Bouquet by Arabella Bouquets	1	0	1	Expedited	Gayle Battrell	5410 PINE RANCH ST			LAS VEGAS	NV	89113-1525	US		Happy Birthday Gayle!  We hope you enjoy your special day! With Love ❤️ From the Lewis Family	false		
114-3427918-6350640	17975990271034	2020-10-27T18:39:57+00:00	2020-10-27T11:39:57-07:00	2020-10-27T19:00:11+00:00	2020-10-30T06:59:59+00:00	-2	jrq1thy61dqcp99@marketplace.amazon.com	Jeannette Baxter	+1 929-436-4790 ext. 69379	ABR0022	Delivery by Thursday | Arabella Farm Direct Bouquet of 12 Fresh Cut Pink Roses with a Free Glass Vase	1	0	1	Expedited	Gina Baxter	SABRE REAL ESTATE	500 OLD COUNTRY RD		GARDEN CITY	NY	11530-1901	US		Happy Birthday, Precious Angel! Hope your day is as special as you are. All our love forever. From Mom and Dad	false		
111-6779189-5214653	14205992052506	2020-10-27T18:35:02+00:00	2020-10-27T11:35:02-07:00	2020-10-27T19:04:31+00:00	2020-10-30T06:59:59+00:00	-2	5x92rgfg3tjw982@marketplace.amazon.com	BARBARA GIANNONE	+1 929-436-4790 ext. 08101	ABR0022	Delivery by Thursday | Arabella Farm Direct Bouquet of 12 Fresh Cut Pink Roses with a Free Glass Vase	1	0	1	Expedited	JAMIE MONACO	2554 NW 44TH CT			BOCA RATON	FL	33434-2530	US			false		
111-3863322-2488215	46467295693218	2020-10-27T18:57:37+00:00	2020-10-27T11:57:37-07:00	2020-10-27T19:23:55+00:00	2020-10-30T06:59:59+00:00	-2	zf04m8q7t16jg8t@marketplace.amazon.com	Tony Davis	+1 602-671-6610 ext. 75907	ABM010	Delivery by Thursday | The Spring Fling Bouquet by Arabella Bouquets with a Free Designer Glass Vase	1	0	1	Expedited	Laura Woodard	1166 D P GUY RD			RUTH	MS	39662-9574	US		I'm so sorry for your loss guys! I'm truely heartbroken for you! If there is anything you need please don't hesitate to ask! Love yall From Waylon	false		
112-9424943-4077818	63309833669362	2020-10-27T18:58:41+00:00	2020-10-27T11:58:41-07:00	2020-10-27T19:29:06+00:00	2020-10-30T06:59:59+00:00	-2	tmjmf92dxtrtpw7@marketplace.amazon.com	Elizabeth Olson	+1 415-851-9136 ext. 27981	ABM010	Delivery by Thursday | The Spring Fling Bouquet by Arabella Bouquets with a Free Designer Glass Vase	1	0	1	Expedited	Kenzie Zidel	4260 N VENTANA DR			TUCSON	AZ	85750-6216	US			false		
112-6016535-9308249	04877503534866	2020-10-27T19:06:30+00:00	2020-10-27T12:06:30-07:00	2020-10-27T19:32:33+00:00	2020-10-30T06:59:59+00:00	-2	s1ngdtdn0lx7b28@marketplace.amazon.com	Margarete P. Cleveland	+1 602-671-6610 ext. 61974	ABM022	Delivery by Thursday | Purple Extravagance Bouquet by Arabella Bouquets	1	0	1	Expedited	Priscilla Wentworth	581 MOUNT EPHRAIM RD			SEARSPORT	ME	04974-3902	US		Thinking of you with love, Your forever friend, Margo From Margarete P. Cleveland	false		
114-6203252-4346610	40036788360842	2020-10-27T19:16:34+00:00	2020-10-27T12:16:34-07:00	2020-10-27T19:43:02+00:00	2020-10-30T06:59:59+00:00	-2	spzn4dzbtvnxd2m@marketplace.amazon.com	Terry Lewis	+1 929-436-4790 ext. 76169	ABR001	Delivery by Thursday | Arabella Bouquets 12 Stems of Fresh Cut Red Roses in a Free Designer Glass Vase	1	0	1	Expedited	Laurie Dillon	4447 ERIE RIDGE AVE APT 29			ASHTABULA	OH	44004-4554	US			false		
113-3405061-9824220	17672351944826	2020-10-27T19:36:59+00:00	2020-10-27T12:36:59-07:00	2020-10-27T20:06:25+00:00	2020-10-30T06:59:59+00:00	-2	dpf3fldt2q25hpw@marketplace.amazon.com	Jeanie Brandon	+1 619-854-2705 ext. 87257	ABR0055	Delivery by Thursday | Arabella Farm Direct Bouquet of 12 Stems of Fresh Cut Hot Pink Roses in a Free Designer Glass Vase	1	0	1	Expedited	Genie McKee	46 FAIRWAY WOODS CIR			MAUMELLE	AR	72113-5701	US			false		
112-5125490-8940254	57507570186138	2020-10-27T19:43:59+00:00	2020-10-27T12:43:59-07:00	2020-10-27T20:12:21+00:00	2020-10-30T06:59:59+00:00	-2	x71f3glvtsj83r8@marketplace.amazon.com	Mary O'Byrne	+1 929-436-4790 ext. 03047	ABR0022	Delivery by Thursday | Arabella Farm Direct Bouquet of 12 Fresh Cut Pink Roses with a Free Glass Vase	1	0	1	Expedited	ANN O'BYRNE	756 OAK KNOLL DR			LAKE FOREST	IL	60045-2632	US		Ann,  Thank you for all you do for all of us!  I really appreciate it.  We would be lost without you.   Love, Mary From Mary O'Byrne	false		
114-8898486-5524248	41067312308194	2020-10-27T19:59:42+00:00	2020-10-27T12:59:42-07:00	2020-10-27T20:22:35+00:00	2020-10-30T06:59:59+00:00	-2	gxr42n2qd2v9vqc@marketplace.amazon.com	David Donovan	+1 602-671-6610 ext. 73637	ABR0066	Delivery by Thursday | Arabella Bouquets 12 Stems of Fresh Cut White Roses in a Free Designer Glass Vase	1	0	1	Expedited	Asma Mosammat c/o People's United Bank	300 WHEATLEY PLZ			GREENVALE	NY	11548-1325	US			false		
112-5895558-6334663	22781199508234	2020-10-27T20:02:17+00:00	2020-10-27T13:02:17-07:00	2020-10-27T20:23:51+00:00	2020-10-30T06:59:59+00:00	-2	q6n60j10nynt29m@marketplace.amazon.com	Melissa Browning	+1 929-436-4790 ext. 10250	ABM026	Delivery by Friday | The Amour Bouquet by Arabella Bouquets	1	0	1	Expedited	Susan Browning	808 Montana Ridge			Grain Valley	Missouri	64029	US			false		
112-0299607-5834674	52890844923682	2020-10-27T20:11:26+00:00	2020-10-27T13:11:26-07:00	2020-10-27T20:35:53+00:00	2020-10-30T06:59:59+00:00	-2	fkmv7szwwx5yt5w@marketplace.amazon.com	Rosalie C. DeCaprio	1+908-672-5942	ABR0055	Delivery by Thursday | Arabella Farm Direct Bouquet of 12 Stems of Fresh Cut Hot Pink Roses in a Free Designer Glass Vase	1	0	1	Expedited	Kathleen Winer	17 BLUE WILLOW ST			BLUFFTON	SC	29910-8348	US		Dearest Kathleen, Happy Birthday to a very special person. Feel better soon. Love and Hugs, Rosalie and Marion From Rosalie and Marion	false		
111-9157003-8858609	19585065229394	2020-10-27T20:20:52+00:00	2020-10-27T13:20:52-07:00	2020-10-27T20:38:50+00:00	2020-10-30T06:59:59+00:00	-2	mb91ywff8q3dwz7@marketplace.amazon.com	steve kunze	+1 480-618-5344 ext. 79708	ABR0022	Delivery by Thursday | Arabella Farm Direct Bouquet of 12 Fresh Cut Pink Roses with a Free Glass Vase	1	0	1	Expedited	Victoria, Matthew, and Avery Kunze	37453 PEACHWOOD PL			PALMDALE	CA	93551-6211	US		May these flowers brighten your days as you walk through the time ahead.  Sending you all  heartfelt sympathy for the loss of Zhanneta.  Love, Dad From steve kunze	false		
114-9774378-0693012	64365840380866	2020-10-27T20:40:43+00:00	2020-10-27T13:40:43-07:00	2020-10-27T20:41:24+00:00	2020-10-30T06:59:59+00:00	-2	02shxtbzcx49r68@marketplace.amazon.com	Wendy Deverill	+1 619-854-2705 ext. 58507	ABM002	Delivery by Friday | Arabella Bouquets Fresh Cut White Calla Lilies in a Free Designer Glass Vase	1	0	1	Expedited	Rachel Cohen	1652 KENTFIELD AVE			REDWOOD CITY	CA	94061-2706	US		Love and congratulations to Rachel, Zak, Emmy and Alden  with love from Granny and Grumps xxxxxx From Wendy Deverill	false		
111-0073892-7642619	61921144768490	2020-10-27T20:18:36+00:00	2020-10-27T13:18:36-07:00	2020-10-27T20:49:17+00:00	2020-10-30T06:59:59+00:00	-2	kx7c5n5bnpbyny4@marketplace.amazon.com	taylor	+1 480-618-5344 ext. 39235	ABR0022	Delivery by Thursday | Arabella Farm Direct Bouquet of 12 Fresh Cut Pink Roses with a Free Glass Vase	1	0	1	Expedited	taylor	4950 239th avenue			East Bethel	MN	55005	US			false		
113-8391744-4451416	10364262811634	2020-10-27T20:21:52+00:00	2020-10-27T13:21:52-07:00	2020-10-27T20:51:15+00:00	2020-10-30T06:59:59+00:00	-2	k3pdxgs79f203hv@marketplace.amazon.com	Matt Hancock	+1 602-671-6610 ext. 89032	ABM022	Delivery by Thursday | Purple Extravagance Bouquet by Arabella Bouquets	1	0	1	Expedited	Burt & Willie Fenimore	4930 E 88TH PL			TULSA	OK	74137-2959	US		We’re thinking of you two on your birthday week!  Love,  All of the grandkids From Matt Hancock	false		
112-1452440-3469866	15021093275418	2020-10-27T20:34:02+00:00	2020-10-27T13:34:02-07:00	2020-10-27T20:58:24+00:00	2020-10-30T06:59:59+00:00	-2	vqrchrxxm5zyyc8@marketplace.amazon.com	Robin Fukano	+1 480-618-5344 ext. 00277	ABM022	Delivery by Thursday | Purple Extravagance Bouquet by Arabella Bouquets	1	0	1	Expedited	Marlys and Art Henriksen	73452 PALM GREENS PKWY			PALM DESERT	CA	92260-1144	US		We love you and miss you, Mom and Art! From Robin and Steve Fukano	false		
114-6276199-5819406	46396580440370	2020-10-27T20:35:28+00:00	2020-10-27T13:35:28-07:00	2020-10-27T21:03:34+00:00	2020-10-30T06:59:59+00:00	-2	lssjzt4cxpdfrq2@marketplace.amazon.com	Whitney Stanton	+1 480-618-5344 ext. 38779	ABR0055	Delivery by Thursday | Arabella Farm Direct Bouquet of 12 Stems of Fresh Cut Hot Pink Roses in a Free Designer Glass Vase	1	0	1	Expedited	Luciana Andrus	150 SHORELINE HWY	BUILDING C SUITE 36 BUILDING C SUITE 36 MILL VALLEY CA 94941		MILL VALLEY	CA	94941-3639	US		Luciana! So grateful for you.. and your healing hands AND energy. You're truly a gift to this world, and I am so lucky to get to work with you. Thank you for healing me and making me healthy (and bearing with me with my eye!) From Nicole Whiteside	false		
113-4284642-4097036	26781307068578	2020-10-27T20:49:44+00:00	2020-10-27T13:49:44-07:00	2020-10-27T21:19:05+00:00	2020-10-30T06:59:59+00:00	-2	b7wllp59npzqgnm@marketplace.amazon.com	Uta Schmid	0016145969404	ABR0022	Delivery by Thursday | Arabella Farm Direct Bouquet of 12 Fresh Cut Pink Roses with a Free Glass Vase	1	0	1	Expedited	Bettina Wittler	35 PRINCETON AVE FL 1ST			ROCKY HILL	NJ	08553-1001	US		Hi Bettina, Enjoy your gift! From Uta Schmid	false		
114-4066487-0624229	41874806837562	2020-10-27T20:55:25+00:00	2020-10-27T13:55:25-07:00	2020-10-27T21:26:07+00:00	2020-10-30T06:59:59+00:00	-2	z8jgq4y8wyl14sd@marketplace.amazon.com	Corey Aiken	+1 929-436-4790 ext. 64832	ABM020	Delivery by Thursday | The Sunset Bouquet by Arabella Bouquets	1	0	1	Expedited	Corey Aiken	9636 BAY GROVE LN			TAMPA	FL	33615-4318	US			false		
114-3377425-1673005	58471068612370	2020-10-27T21:27:36+00:00	2020-10-27T14:27:36-07:00	2020-10-27T21:50:36+00:00	2020-10-30T06:59:59+00:00	-2	lqg44ps61p3yxv3@marketplace.amazon.com	Sean Ryan	07535 611681	ABM022	Delivery by Thursday | Purple Extravagance Bouquet by Arabella Bouquets	1	0	1	Expedited	Paige Greenwell	12014 HUDSON VIEW CT			LOUISVILLE	KY	40299-8326	US		Dear Paige,  Thank you for taking care of Emily for me, and for helping us to be able to start our lives together. From Sean Ryan	false		
111-6069457-6141044	19274147219274	2020-10-27T21:30:27+00:00	2020-10-27T14:30:27-07:00	2020-10-27T22:00:16+00:00	2020-10-30T06:59:59+00:00	-2	k59pg5m641f4r69@marketplace.amazon.com	Tim Hickle	+1 929-436-4790 ext. 53013	ABR012	Delivery by Friday | Arabella Farm Direct Bouquet of 18 Fresh Cut Pink Roses with a Free Glass Vase	1	0	1	Expedited	Lauren Hickle	646 ALABAMA ST			IMPERIAL BEACH	CA	91932-1104	US			false		
113-2620815-3667404	69135154860954	2020-10-27T22:04:46+00:00	2020-10-27T15:04:46-07:00	2020-10-27T22:34:17+00:00	2020-10-30T06:59:59+00:00	-2	00y8t1p0w24hwb3@marketplace.amazon.com	Catherine Holland	+1 929-436-4790 ext. 19486	ABR004	Delivery by Thursday | Arabella Farm Direct Bouquet of 12 Fresh Cut Yellow Roses with a Free Glass Vase	1	0	1	Expedited	Mr. and Mrs. Michael Huggler	22 SUNNY LN			DILLSBURG	PA	17019-9312	US		Happy Anniversary!!  Happy Halloween! From Catherine Holland	false		
113-0752602-6128249	64874640334226	2020-10-27T22:31:57+00:00	2020-10-27T15:31:57-07:00	2020-10-27T23:00:20+00:00	2020-10-30T06:59:59+00:00	-2	yb8gp2873bydlgx@marketplace.amazon.com	Robert	+1 602-671-6610 ext. 15723	ABM010	Delivery by Thursday | The Spring Fling Bouquet by Arabella Bouquets with a Free Designer Glass Vase	1	0	1	Expedited	Robert Huffnagle	1306 W 2ND AVE			LENOIR CITY	TN	37771-2642	US		Hope these make you smile as much as you make me smile!! From Bobby	false		
113-0667937-9895458	57657845296090	2020-10-27T23:05:01+00:00	2020-10-27T16:05:01-07:00	2020-10-27T23:31:18+00:00	2020-10-30T06:59:59+00:00	-2	ys3zq5bp4tvbgkr@marketplace.amazon.com	Ric Ramirez	+1 929-436-4790 ext. 58032	ABR0022	Delivery by Thursday | Arabella Farm Direct Bouquet of 12 Fresh Cut Pink Roses with a Free Glass Vase	1	0	1	Expedited	Ric Ramirez	4801 E CALLE REDONDA			PHOENIX	AZ	85018-2930	US			false		
113-4526062-9802650	55187462553218	2020-10-27T23:00:43+00:00	2020-10-27T16:00:43-07:00	2020-10-27T23:31:28+00:00	2020-10-30T06:59:59+00:00	-2	hgdf8f323wz0849@marketplace.amazon.com	Elizabeth McTaggart	+1 619-854-2705 ext. 95741	ABR0066	Delivery by Thursday | Arabella Bouquets 12 Stems of Fresh Cut White Roses in a Free Designer Glass Vase	1	0	1	Expedited	Elizabeth McTaggart	2266 E 1500 NORTH RD			WATSEKA	IL	60970-7537	US			false		
112-9808819-6055402	34169817306042	2020-10-27T23:10:29+00:00	2020-10-27T16:10:29-07:00	2020-10-27T23:36:06+00:00	2020-10-30T06:59:59+00:00	-2	scxhvdj3zxfy9q3@marketplace.amazon.com	Carole Murrell	+1 929-436-4790 ext. 26299	ABR0022	Delivery by Thursday | Arabella Farm Direct Bouquet of 12 Fresh Cut Pink Roses with a Free Glass Vase	1	0	1	Expedited	Gustavo Maestre	11675 VACA PL			SAN DIEGO	CA	92124-2826	US		Leann, without your help, we would still be in the probate process of my mother-in-law's estate. Thank you! Everything is complete. And without any headaches. From Carole Murrell	false		
114-1168936-3805833	58691861587002	2020-10-27T23:07:18+00:00	2020-10-27T16:07:18-07:00	2020-10-27T23:37:40+00:00	2020-10-30T06:59:59+00:00	-2	1zvy3yqr4yt0ncx@marketplace.amazon.com	Kaylee Steele	+1 480-618-5344 ext. 39876	ABR0055	Delivery by Thursday | Arabella Farm Direct Bouquet of 12 Stems of Fresh Cut Hot Pink Roses in a Free Designer Glass Vase	1	0	1	Expedited	James Steele	16109 W 129TH ST			OLATHE	KS	66062-1391	US			false		
114-5485467-1956221	46424866399850	2020-10-27T23:12:06+00:00	2020-10-27T16:12:06-07:00	2020-10-27T23:40:13+00:00	2020-10-30T06:59:59+00:00	-2	c1llwj99l5srgd6@marketplace.amazon.com	Justin Kenny	+1 929-436-4790 ext. 27479	ABR0022	Delivery by Thursday | Arabella Farm Direct Bouquet of 12 Fresh Cut Pink Roses with a Free Glass Vase	1	0	1	Expedited	Mei Lu Ko	2161 Ortega Hill Rd			Summerland	CA	93067	US		Happy Birthday grandma, hope you have a wonderful day! From Justin Kenny	false		
111-1780222-0454605	60596723576226	2020-10-27T23:25:07+00:00	2020-10-27T16:25:07-07:00	2020-10-27T23:42:52+00:00	2020-10-30T06:59:59+00:00	-2	m2ysxs3x7rw09p9@marketplace.amazon.com	ronald w. bennett	+1 213-442-1463 ext. 14509	ABR0022	Delivery by Thursday | Arabella Farm Direct Bouquet of 12 Fresh Cut Pink Roses with a Free Glass Vase	1	0	1	Expedited	Heath and Christine	32 N FRONT ST APT 2F			PHILADELPHIA	PA	19106-2239	US		Thanks for everything Heath! Enjoy your gift! From ronald w. bennett	false		
112-3779426-5517843	04166277008738	2020-10-27T23:39:22+00:00	2020-10-27T16:39:22-07:00	2020-10-27T23:57:34+00:00	2020-10-30T06:59:59+00:00	-2	74rxr49gf2rwfg7@marketplace.amazon.com	BARBARA GLASSMAN	+5612743950	ABM020	Delivery by Thursday | The Sunset Bouquet by Arabella Bouquets	1	0	1	Expedited	Leslie and Stuart Surfer	10497 MATEO CT			BOCA RATON	FL	33498-6734	US		So happy to know that you are getting through this and are on the road to good health- you are special neighbors !! From Barbara,Julie,&Melanie	false		
114-1227745-8490647	06245375013370	2020-10-27T23:45:23+00:00	2020-10-27T16:45:23-07:00	2020-10-28T00:07:35+00:00	2020-10-30T06:59:59+00:00	-2	6ky5q1gp07r8dhw@marketplace.amazon.com	Eva	92830057829	ABM022	Delivery by Thursday | Purple Extravagance Bouquet by Arabella Bouquets	1	0	1	Expedited	Mary Ann Owen	165 PARTRIDGE LN			PRESCOTT	AZ	86303-5330	US		EZ does it.  Get well soon.  All are love. From Eva, Michaela and David	false		
112-7666596-9929016	02827476725490	2020-10-28T00:00:24+00:00	2020-10-27T17:00:24-07:00	2020-10-28T00:21:43+00:00	2020-10-30T06:59:59+00:00	-2	mt0dsssk18sytrj@marketplace.amazon.com	raymond piotrowski	+1 619-854-2705 ext. 50197	ABM022	Delivery by Thursday | Purple Extravagance Bouquet by Arabella Bouquets	1	0	1	Expedited	Phyllis Ochs	229 SEWARD PL			SCHENECTADY	NY	12305-1208	US		Enjoy your gift from your friends in the Victorian Social Club ! We are all thinking of you and sending love. From The Victorian Social Club	false		
111-2680336-4706615	32659852707114	2020-10-28T00:26:03+00:00	2020-10-27T17:26:03-07:00	2020-10-28T00:55:44+00:00	2020-10-30T06:59:59+00:00	-2	24b2mgg4h62sd22@marketplace.amazon.com	Raymond Rodriguez	+1 602-671-6610 ext. 00600	ABR0022	Delivery by Thursday | Arabella Farm Direct Bouquet of 12 Fresh Cut Pink Roses with a Free Glass Vase	1	0	1	Expedited	Raymond Rodriguez	36058 AGAPE LN			WILDOMAR	CA	92595-7534	US			false		
114-0781355-3357068	47704956224306	2020-10-28T00:36:18+00:00	2020-10-27T17:36:18-07:00	2020-10-28T01:01:50+00:00	2020-10-30T06:59:59+00:00	-2	5wwpg9vnm0wsgs4@marketplace.amazon.com	Chartina Voorheis	+1 480-618-5344 ext. 03833	ABR0022	Delivery by Thursday | Arabella Farm Direct Bouquet of 12 Fresh Cut Pink Roses with a Free Glass Vase	1	0	1	Expedited	Ellie Fears	2307 TEDESCA DR			HENDERSON	NV	89052-6536	US		Dear Aunt Ellie,  We are sorry to hear of your sister's death. We hope the Spirit comforts you and you continue to feel Nina's love. We love you! From Orin and Chartina	false		
111-0151409-2006608	29124958671578	2020-10-28T00:39:57+00:00	2020-10-27T17:39:57-07:00	2020-10-28T01:09:02+00:00	2020-10-30T06:59:59+00:00	-2	575dp40zwdpyh8j@marketplace.amazon.com	michele sahney	+1 929-436-4790 ext. 61254	ABR0022	Delivery by Thursday | Arabella Farm Direct Bouquet of 12 Fresh Cut Pink Roses with a Free Glass Vase	1	0	1	Expedited	Upasna Sahney	1500 HANCOCK ST APT 602			QUINCY	MA	02169-5077	US		Happy Birthday dear sister/bua!! Love Nitin, Michele, Meera & Mona From michele sahney	false		
114-4910762-2092243	13868439015306	2020-10-28T00:46:18+00:00	2020-10-27T17:46:18-07:00	2020-10-28T01:16:41+00:00	2020-10-30T06:59:59+00:00	-2	nbbs1lbvm7b9ypq@marketplace.amazon.com	Patricia  Lemmer	+8017031528	ABR0055	Delivery by Thursday | Arabella Farm Direct Bouquet of 12 Stems of Fresh Cut Hot Pink Roses in a Free Designer Glass Vase	1	0	1	Expedited	Lauren	7031 S 160 E			Midvale	Utah	84047	US			false		
112-6000285-6861822	39029850027930	2020-10-28T01:17:22+00:00	2020-10-27T18:17:22-07:00	2020-10-28T01:47:10+00:00	2020-10-30T06:59:59+00:00	-2	6x0196vbrhs4j33@marketplace.amazon.com	Alvin Hegner	+1 602-671-6610 ext. 63375	ABR0022	Delivery by Thursday | Arabella Farm Direct Bouquet of 12 Fresh Cut Pink Roses with a Free Glass Vase	1	0	1	Expedited	Alvin Hegner	109 Kilkenney Rd			Tyrone	Ga	30290	US		Thanks for being a wonderful mother to our children.  Love always. Enjoy your gift! From Alvin Hegner	false		
112-2795644-3897026	68705422734882	2020-10-28T01:21:46+00:00	2020-10-27T18:21:46-07:00	2020-10-28T01:52:26+00:00	2020-10-30T06:59:59+00:00	-2	gj9hslrbqnbbfkq@marketplace.amazon.com	Peter Simones	+1 602-671-6610 ext. 88556	ABM022	Delivery by Thursday | Purple Extravagance Bouquet by Arabella Bouquets	1	0	1	Expedited	Peter Simones	20470 fischer ave			hastings	MN	55033	US			false		
114-3938212-7838637	19111479324786	2020-10-28T01:45:59+00:00	2020-10-27T18:45:59-07:00	2020-10-28T02:07:44+00:00	2020-10-30T06:59:59+00:00	-2	1198yf9dtjwb2ck@marketplace.amazon.com	Barbara Fitchett	+1 619-854-2705 ext. 85196	ABR0022	Delivery by Thursday | Arabella Farm Direct Bouquet of 12 Fresh Cut Pink Roses with a Free Glass Vase	1	0	1	Expedited	Norma Jean Welsh	3817 MARSH RD			GARNET VALLEY	PA	19060-4416	US		Enjoy your gift! From Barbara and Steve Fitchett	false		
111-9693386-1867454	67786396654818	2020-10-28T01:46:13+00:00	2020-10-27T18:46:13-07:00	2020-10-28T02:11:10+00:00	2020-10-30T06:59:59+00:00	-2	pg910pcvcwhvqrr@marketplace.amazon.com	Sammy Schilling	+1 619-854-2705 ext. 22539	ABM022	Delivery by Thursday | Purple Extravagance Bouquet by Arabella Bouquets	1	0	1	Expedited	cassidy clayton	3001 E SCENIC VALLEY LN			SANDY	UT	84092-4941	US		Hey Girl !!  Wishing for a speedy recovery.  You can do it!!!  You've go a fantastic nurse.  Thinking of you! xoxo From Tina Schilling	false		
113-7574570-3292250	20276657869786	2020-10-28T01:53:06+00:00	2020-10-27T18:53:06-07:00	2020-10-28T02:15:35+00:00	2020-10-30T06:59:59+00:00	-2	2s4b7x008j93hf1@marketplace.amazon.com	lisa allard	+1 602-671-6610 ext. 79173	ABR0022	Delivery by Thursday | Arabella Farm Direct Bouquet of 12 Fresh Cut Pink Roses with a Free Glass Vase	1	0	1	Expedited	Marsha Hall	2809 35TH ST NW	WASHINGTON DC 20007		WASHINGTON	DC	20007-1412	US		Thinking of you and a speedy recovery ! Best wishes! Get well soon!  Love and kisses! From lisa allard	false		
114-0248329-0998601	09188091608346	2020-10-28T01:48:12+00:00	2020-10-27T18:48:12-07:00	2020-10-28T02:17:02+00:00	2020-10-30T06:59:59+00:00	-2	3gk5f9gz6dbd6h7@marketplace.amazon.com	Deanna Gemmill	+1 213-442-1463 ext. 31017	ABR0022	Delivery by Thursday | Arabella Farm Direct Bouquet of 12 Fresh Cut Pink Roses with a Free Glass Vase	1	0	1	Expedited	Deanna Gemmill	8642 GARLAND CT			ARVADA	CO	80005-1250	US			false		
112-1080653-0341825	61678413752410	2020-10-28T01:49:16+00:00	2020-10-27T18:49:16-07:00	2020-10-28T02:19:01+00:00	2020-10-30T06:59:59+00:00	-2	34tj0mjmv5s5k4n@marketplace.amazon.com	Joe Simon	+1 602-671-6610 ext. 18452	ABM022	Delivery by Thursday | Purple Extravagance Bouquet by Arabella Bouquets	1	0	1	Expedited	Connie Williams	4407 LAKE ST			BRIDGMAN	MI	49106-9510	US		Hi Connie, get well soon! From Joey Simon	false		
114-7353540-5625845	19153408598338	2020-10-28T01:55:36+00:00	2020-10-27T18:55:36-07:00	2020-10-28T02:19:13+00:00	2020-10-30T06:59:59+00:00	-2	w2svr8fpjl90z2f@marketplace.amazon.com	Carlos Avila	+1 929-436-4790 ext. 39297	ABM022	Delivery by Thursday | Purple Extravagance Bouquet by Arabella Bouquets	1	0	1	Expedited	Carlos Avila	212 MAGNOLIA ST			PROVIDENCE	RI	02909-2906	US		Te quiero mucho ma, ojalá pases un feliz cumpleaños en estos tiempos mierda. Te extraño bastante. From Carlos Avila	false		
112-0195450-0933050	30143489242826	2020-10-28T01:58:49+00:00	2020-10-27T18:58:49-07:00	2020-10-28T02:25:25+00:00	2020-10-30T06:59:59+00:00	-2	q0cxn5kcngssp5y@marketplace.amazon.com	jonathan parks	+1 602-671-6610 ext. 73517	ABR0055	Delivery by Thursday | Arabella Farm Direct Bouquet of 12 Stems of Fresh Cut Hot Pink Roses in a Free Designer Glass Vase	1	0	1	Expedited	Zeenath Shareef	461 CENTRAL PARK W APT 3L			NEW YORK	NY	10025-3843	US		Break a leg hon! From Lis	false		
113-5902521-6530630	15594837360186	2020-10-28T02:16:20+00:00	2020-10-27T19:16:20-07:00	2020-10-28T02:31:48+00:00	2020-10-30T06:59:59+00:00	-2	lfkk4vfbdqh3jsk@marketplace.amazon.com	Michelle Watkins	+1 619-854-2705 ext. 55182	ABR0055	Delivery by Thursday | Arabella Farm Direct Bouquet of 12 Stems of Fresh Cut Hot Pink Roses in a Free Designer Glass Vase	1	0	1	Expedited	Mary Nelson	902 BROOKWOOD DR			TRENTON	OH	45067-1812	US		Mary: So happy for you and your new grandma status.  Enjoy every second of it... I know you will!  Love you!! From Michelle Watkins	false		
111-4199293-4015428	59952388104258	2020-10-28T02:30:08+00:00	2020-10-27T19:30:08-07:00	2020-10-28T02:55:18+00:00	2020-10-30T06:59:59+00:00	-2	s91tzq49vfql9c8@marketplace.amazon.com	Anicia Gopez	+1 213-442-1463 ext. 12358	ABR0022	Delivery by Thursday | Arabella Farm Direct Bouquet of 12 Fresh Cut Pink Roses with a Free Glass Vase	1	0	1	Expedited	anicia gopez	14065 golden rain tree blvd			orlando	florida	32828	US		Dear Ma,  Happy Birthday!  We love you! From Edwin, Christine, Justine & Eric	false		
113-1452769-0165827	44637770368010	2020-10-28T02:50:28+00:00	2020-10-27T19:50:28-07:00	2020-10-28T03:01:01+00:00	2020-10-30T06:59:59+00:00	-2	118clj3jbm2n4tv@marketplace.amazon.com	Aalyah Duncan	+1 619-854-2705 ext. 95536	ABM010	Delivery by Thursday | The Spring Fling Bouquet by Arabella Bouquets with a Free Designer Glass Vase	1	0	1	Expedited	Shydia Cannady	19 MERION CIR			NORTH EAST	MD	21901-3830	US		Dear Mom,  Celebrating your tenacity, courage, and overcoming b.c. the past 5 yrs. Cheers to you!  Love you Mom! From Your oldest	false		
113-8598108-6421013	12737085815562	2020-10-28T02:35:12+00:00	2020-10-27T19:35:12-07:00	2020-10-28T03:04:39+00:00	2020-10-30T06:59:59+00:00	-2	0lchjj1xc8v4gg0@marketplace.amazon.com	oleg	+1 602-671-6610 ext. 45804	ABM022	Delivery by Thursday | Purple Extravagance Bouquet by Arabella Bouquets	1	0	1	Expedited	Effi Safarova	2922 NOSTRAND AVE APT 5K			BROOKLYN	NY	11229-1890	US		Happy birthday! I love you From Yuliana	false		
111-4312414-6513812	38554484132826	2020-10-28T02:50:29+00:00	2020-10-27T19:50:29-07:00	2020-10-28T03:20:57+00:00	2020-10-30T06:59:59+00:00	-2	00wrlkq920mlqfh@marketplace.amazon.com	Tim Engblom	+1 602-671-6610 ext. 48507	ABR0022	Delivery by Thursday | Arabella Farm Direct Bouquet of 12 Fresh Cut Pink Roses with a Free Glass Vase	1	0	1	Expedited	Sherry Engblom	8149 M DR S			BURLINGTON	MI	49029-9739	US			false		
114-1486230-0060260	27239286760522	2020-10-28T03:54:42+00:00	2020-10-27T20:54:42-07:00	2020-10-28T04:13:24+00:00	2020-10-30T06:59:59+00:00	-2	gbrvmn84kgtjbqm@marketplace.amazon.com	Loretta Bronk	+1 415-851-9136 ext. 00486	ABM010	Delivery by Thursday | The Spring Fling Bouquet by Arabella Bouquets with a Free Designer Glass Vase	1	0	1	Expedited	Carol Paczesny	152 W GOLDLEAF AVE			MILWAUKEE	WI	53207-6267	US		Sending Lots of Get Well Wishes & Big Hugs For a Very Speedy Recovery! Love, Dennis & Loretta From Dennis & Loretta	false		
113-5154087-5931429	38084525714842	2020-10-28T03:54:28+00:00	2020-10-27T20:54:28-07:00	2020-10-28T04:14:32+00:00	2020-10-30T06:59:59+00:00	-2	z5nvhfmtzqpy8d2@marketplace.amazon.com	Sue K. Bicknell	+1 929-436-4790 ext. 81363	ABM022	Delivery by Thursday | Purple Extravagance Bouquet by Arabella Bouquets	1	0	1	Expedited	Kait & Devan Kimberley	2570 BERK ST			CUYAHOGA FALLS	OH	44221-2605	US		Congratulations to You Two!  We are so happy for you, and hope you are enjoying having little Conway in your family. From Grammy & Sue B	false		
112-1775634-5973832	14620521672226	2020-10-28T04:16:30+00:00	2020-10-27T21:16:30-07:00	2020-10-28T04:42:06+00:00	2020-10-30T06:59:59+00:00	-2	y60vq82srmw33lw@marketplace.amazon.com	Pat Whittendale	+1 929-436-4790 ext. 98510	ABM010	Delivery by Thursday | The Spring Fling Bouquet by Arabella Bouquets with a Free Designer Glass Vase	1	0	1	Expedited	Pat Whittendale	950 HARRINGTON AVE NE APT S402			RENTON	WA	98056-3479	US			false		
114-1052925-2046659	10833053006058	2020-10-28T04:35:14+00:00	2020-10-27T21:35:14-07:00	2020-10-28T05:02:49+00:00	2020-10-30T06:59:59+00:00	-2	td0rzxrp83tgc25@marketplace.amazon.com	Jorge Rubiera	+1 619-854-2705 ext. 84304	ABR0022	Delivery by Thursday | Arabella Farm Direct Bouquet of 12 Fresh Cut Pink Roses with a Free Glass Vase	1	0	1	Expedited	Nazneen Sarwar	42 SUSAN DR			NEWBURGH	NY	12550-1409	US		Happy birthday Mom, we love you. From Shareen and Sara	false		
112-0228053-9689812	28432479164834	2020-10-28T04:41:21+00:00	2020-10-27T21:41:21-07:00	2020-10-28T05:06:19+00:00	2020-10-30T06:59:59+00:00	-2	3r9jtv1hkptkhfg@marketplace.amazon.com	Sunny E. Ray	+1 213-442-1463 ext. 27467	ABR0022	Delivery by Thursday | Arabella Farm Direct Bouquet of 12 Fresh Cut Pink Roses with a Free Glass Vase	1	0	1	Expedited	Dave and Marilyn Badham	3202 S 75 E			BOUNTIFUL	UT	84010-5707	US		We are sorry for your loss. We are praying for you. From Spencer and Sunny Ray Family	false		
111-2994271-7713828	40580520835962	2020-10-28T05:02:08+00:00	2020-10-27T22:02:08-07:00	2020-10-28T05:31:11+00:00	2020-10-30T06:59:59+00:00	-2	4tw6t6xn3mc6g42@marketplace.amazon.com	sadie	+1 213-442-1463 ext. 27281	ABR0022	Delivery by Thursday | Arabella Farm Direct Bouquet of 12 Fresh Cut Pink Roses with a Free Glass Vase	1	0	1	Expedited	Taylor Medley	2315 STOCKTON BLVD	MAIN HOSPITAL 3RD FLOOR ROOM # 88		SACRAMENTO	CA	95817-2201	US			false		
111-6560563-4482630	19120701803434	2020-10-28T05:37:38+00:00	2020-10-27T22:37:38-07:00	2020-10-28T06:03:27+00:00	2020-10-30T06:59:59+00:00	-2	gmnf4hv3b47yqmd@marketplace.amazon.com	dean blikre	+1 619-854-2705 ext. 22131	ABR0055	Delivery by Thursday | Arabella Farm Direct Bouquet of 12 Stems of Fresh Cut Hot Pink Roses in a Free Designer Glass Vase	1	0	1	Expedited	Agnes Pringle	7474 AMBLER LN SE			CALEDONIA	MI	49316-9763	US		Happy Birthday! From Karla and Oliver	false		
113-1698089-0540226	40030158072106	2020-10-28T05:50:00+00:00	2020-10-27T22:50:00-07:00	2020-10-28T06:14:46+00:00	2020-10-30T06:59:59+00:00	-2	9zqqcs8h1xf1yfm@marketplace.amazon.com	lynda reddy	+1 480-618-5344 ext. 28816	ABR0022	Delivery by Thursday | Arabella Farm Direct Bouquet of 12 Fresh Cut Pink Roses with a Free Glass Vase	1	0	1	Expedited	Carole Patton	Wallow memorial hospital			Wallowa	OR	97885	US			false		
112-3769709-5726635	44045086217802	2020-10-28T07:10:34+00:00	2020-10-28T00:10:34-07:00	2020-10-28T07:30:30+00:00	2020-10-30T06:59:59+00:00	-2	9bp0xp4n6ctl80d@marketplace.amazon.com	Eric The Half A Bee	+1 619-854-2705 ext. 99902	ABR0055	Delivery by Thursday | Arabella Farm Direct Bouquet of 12 Stems of Fresh Cut Hot Pink Roses in a Free Designer Glass Vase	1	0	1	Expedited	Kylie George	10515 FAIR OAKS BLVD APT B			FAIR OAKS	CA	95628-7269	US		Happy Birthday, Kylie!! I hope you have an amazingly special day on your special day! I love you tons and hope we  get a chance to hang out soon! From Uncle E	false		
114-0581495-9850627	08359948638954	2020-10-28T08:32:42+00:00	2020-10-28T01:32:42-07:00	2020-10-28T09:01:43+00:00	2020-10-31T06:59:59+00:00	-3	y012vvyb3y9l1nr@marketplace.amazon.com	Israela Hirsch	+1 929-436-4790 ext. 87784	ABR0022	Delivery by Thursday | Arabella Farm Direct Bouquet of 12 Fresh Cut Pink Roses with a Free Glass Vase	1	0	1	Expedited	Itai and Melissa Hirsch	7614 CIRCULO SEQUOIA			CARLSBAD	CA	92009-8472	US		Dear Missi and Itai, Congratulations on your wedding day. Enjoy your gift!  Love, Israela and Yiftach, Aba and Ima From Israela Hirsch	false		
111-4177543-6477016	03115617321298	2020-10-28T11:04:25+00:00	2020-10-28T04:04:25-07:00	2020-10-28T11:29:39+00:00	2020-10-31T06:59:59+00:00	-3	7hmnnzzv4b6cm2p@marketplace.amazon.com	David A schrabeck	+1 929-436-4790 ext. 38934	ABR0022	Delivery by Thursday | Arabella Farm Direct Bouquet of 12 Fresh Cut Pink Roses with a Free Glass Vase	1	0	1	Expedited	Mary J Waushesock	24200 E ORIENT CEMETERY RD			HARRISONVILLE	MO	64701-1398	US			false		
112-8848799-4695411	07178946831538	2020-10-28T11:26:53+00:00	2020-10-28T04:26:53-07:00	2020-10-28T11:53:17+00:00	2020-10-31T06:59:59+00:00	-3	s0wqnddlxmxz88g@marketplace.amazon.com	nelson laret	+1 415-851-9136 ext. 13626	ABR0055	Delivery by Thursday | Arabella Farm Direct Bouquet of 12 Stems of Fresh Cut Hot Pink Roses in a Free Designer Glass Vase	1	0	1	Expedited	Trudy tuttle	13605 GETZ LN			NEW CONCORD	OH	43762-7500	US		Happy birthday Trudy! These flowers are for your bday but also to give you a little pick me up. You have had some rough work and personal days. Love you! From Ellen & Nelson :)	false		
113-1375444-9849022	58505072087170	2020-10-28T11:24:14+00:00	2020-10-28T04:24:14-07:00	2020-10-28T11:54:36+00:00	2020-10-31T06:59:59+00:00	-3	k484swzstwwrqyr@marketplace.amazon.com	Sharon Pearson	+1 602-671-6610 ext. 03489	ABR0022	Delivery by Thursday | Arabella Farm Direct Bouquet of 12 Fresh Cut Pink Roses with a Free Glass Vase	1	0	1	Expedited	Jason Egger	8408 DIANTHUS CT UNIT 104			CHARLOTTE	NC	28277-3997	US			false		
112-3408563-1415435	42458636403330	2020-10-28T11:26:31+00:00	2020-10-28T04:26:31-07:00	2020-10-28T11:55:50+00:00	2020-10-31T06:59:59+00:00	-3	mpw6qzqmm3slv88@marketplace.amazon.com	monica buchnik	+1 213-442-1463 ext. 86610	ABR015	Delivery by Friday | Arabella Farm Direct Bouquet of 18 Fresh Cut Orange Roses with a Free Glass Vase	1	0	1	Expedited	Jayne Smith	1466 MANOR RD			STATEN ISLAND	NY	10314-7027	US		Happiest of birthdays to my dear friend and mentor for life. Love a lot!  Monica From monica buchnik	false		
113-2178851-7643404	07902315461354	2020-10-28T11:45:37+00:00	2020-10-28T04:45:37-07:00	2020-10-28T12:14:48+00:00	2020-10-31T06:59:59+00:00	-3	pbrns4kfc4r27wx@marketplace.amazon.com	Allison Dee	+1 929-436-4790 ext. 13242	ABR012	Delivery by Friday | Arabella Farm Direct Bouquet of 18 Fresh Cut Pink Roses with a Free Glass Vase	1	0	1	Expedited	Marianne Dee	512 SW SOUTH CAROLINA DR			STUART	FL	34994-7264	US		Happy Birthday Mar! - Meg and I love and miss you so much!   xoxox From Allison & Meg	false		
113-9836933-7928239	24619618419978	2020-10-28T12:07:36+00:00	2020-10-28T05:07:36-07:00	2020-10-28T12:37:01+00:00	2020-10-31T06:59:59+00:00	-3	st5kw3c5j25h2zr@marketplace.amazon.com	wendell plumlee	+1 619-854-2705 ext. 62216	ABM022	Delivery by Thursday | Purple Extravagance Bouquet by Arabella Bouquets	1	0	1	Expedited	Gil Cirelli	4540 HIGHWAY 31			SNEEDVILLE	TN	37869-4252	US			false		
111-3599661-5071442	61002117316258	2020-10-28T12:41:56+00:00	2020-10-28T05:41:56-07:00	2020-10-28T13:09:32+00:00	2020-10-31T06:59:59+00:00	-3	ky7r9kvp00qxyg5@marketplace.amazon.com	Adrienne	+1 602-671-6610 ext. 76992	ABM022	Delivery by Thursday | Purple Extravagance Bouquet by Arabella Bouquets	1	0	1	Expedited	Angie Smith	1155 BRAKE RD			ELLISTON	VA	24087-3827	US		Thinking of you Angie! From Adrienne	false		
111-3426225-7348233	34704311706730	2020-10-28T12:45:25+00:00	2020-10-28T05:45:25-07:00	2020-10-28T13:15:40+00:00	2020-10-31T06:59:59+00:00	-3	32bzv9hvlp0c47g@marketplace.amazon.com	Geoffrey john mclear	+1 929-436-4790 ext. 59273	ABR0022	Delivery by Thursday | Arabella Farm Direct Bouquet of 12 Fresh Cut Pink Roses with a Free Glass Vase	1	0	1	Expedited	Geoff McLear	18 San Fernando Lane			East Amherst	NEW YORK	14051	US			false		
112-8588567-1921856	59357794621978	2020-10-28T13:13:22+00:00	2020-10-28T06:13:22-07:00	2020-10-28T13:43:43+00:00	2020-10-31T06:59:59+00:00	-3	8l7kh671t2w9f77@marketplace.amazon.com	Russ Clark	+1 480-618-5344 ext. 80584	ABM022	Delivery by Thursday | Purple Extravagance Bouquet by Arabella Bouquets	1	0	1	Expedited	Charleen clark	5309 WHISTLER CT			N ROYALTON	OH	44133-5274	US			false		
112-5360176-4633006	18480431628234	2020-10-28T13:19:58+00:00	2020-10-28T06:19:58-07:00	2020-10-28T13:48:22+00:00	2020-10-31T06:59:59+00:00	-3	c386wjz5vxwfzcx@marketplace.amazon.com	Jody	+1 602-671-6610 ext. 17692	ABR0033	Delivery by Thursday | Arabella Farm Direct Bouquet of 12 Fresh Cut Orange Roses with a Free Glass Vase	1	0	1	Expedited	Joan Boyd	888 THREE CHOPT RD			MANAKIN SABOT	VA	23103-2150	US		Happy Fall and Halloween, Mommasan! Love you bushels! From Jody and Frank	false		
113-4428831-2645820	57392129805098	2020-10-28T13:24:47+00:00	2020-10-28T06:24:47-07:00	2020-10-28T13:51:16+00:00	2020-10-31T06:59:59+00:00	-3	wwrzrbwwzn2fdq9@marketplace.amazon.com	Rana Nasser	+1 602-671-6610 ext. 73373	ABR0022	Delivery by Thursday | Arabella Farm Direct Bouquet of 12 Fresh Cut Pink Roses with a Free Glass Vase	1	0	1	Expedited	Linda Lopez	1628 WOOD THRUSH DR			MURRELLS INLET	SC	29576-8840	US		Enjoy your birthday My dear Lind! From Rana Nasser	false		
114-0665812-8116212	61567498870874	2020-10-28T13:37:24+00:00	2020-10-28T06:37:24-07:00	2020-10-28T14:06:28+00:00	2020-10-31T06:59:59+00:00	-3	g40hcc5g4pzbw54@marketplace.amazon.com	shawn seekings	+1 619-854-2705 ext. 66711	ABR0022	Delivery by Thursday | Arabella Farm Direct Bouquet of 12 Fresh Cut Pink Roses with a Free Glass Vase	1	0	1	Expedited	Sylvia Schaaf	25099 PINEWATER COVE LN			BONITA SPRINGS	FL	34134-1959	US		We love and miss you Grandma!! From Killian, Isla, Christian, Logan, Kristin and Shawn	false		
114-0006968-1632232	46804810796698	2020-10-28T13:54:22+00:00	2020-10-28T06:54:22-07:00	2020-10-28T14:17:01+00:00	2020-10-31T06:59:59+00:00	-3	8s259dsk3gytpt9@marketplace.amazon.com	Maria Candelario	+1 619-854-2705 ext. 60730	ABM010	Delivery by Thursday | The Spring Fling Bouquet by Arabella Bouquets with a Free Designer Glass Vase	1	0	1	Standard	Danielle M Krueger	567 MADISON LN			LINDENHURST	IL	60046-7891	US		Happy Birthday too  my wonderful daaughter. From Maria Candelario	false		
113-9418432-5580263	63273946686322	2020-10-28T14:11:38+00:00	2020-10-28T07:11:38-07:00	2020-10-28T14:41:49+00:00	2020-10-31T06:59:59+00:00	-3	5nvhcbcj47bvtpn@marketplace.amazon.com	Harriet Henderson	+1 602-671-6610 ext. 35852	ABM010	Delivery by Thursday | The Spring Fling Bouquet by Arabella Bouquets with a Free Designer Glass Vase	1	0	1	Expedited	Martha Wood	5 STONEBURY CT			GREENSBORO	NC	27410-4757	US			false		
112-4221813-6633858	17540003896610	2020-10-28T14:22:37+00:00	2020-10-28T07:22:37-07:00	2020-10-28T14:47:53+00:00	2020-10-31T06:59:59+00:00	-3	t7ggx3rlrw343yh@marketplace.amazon.com	Karen stureski	+1 415-851-9136 ext. 69566	ABR0022	Delivery by Thursday | Arabella Farm Direct Bouquet of 12 Fresh Cut Pink Roses with a Free Glass Vase	1	0	1	Expedited	Patricia mcfall	209 VIVIAN LN			VESTAL	NY	13850-1170	US		We are so sorry for your loss. You are in our thoughts and prayers. From Karen,mike,Brian,Jeff,Diane,jerry,Dave,Wendy	false		
112-6944121-9091454	22262602884090	2020-10-28T14:18:14+00:00	2020-10-28T07:18:14-07:00	2020-10-28T14:48:36+00:00	2020-10-31T06:59:59+00:00	-3	9md3zlkct57kdqj@marketplace.amazon.com	Pamela Immitt	+1 929-436-4790 ext. 98974	ABR0055	Delivery by Thursday | Arabella Farm Direct Bouquet of 12 Stems of Fresh Cut Hot Pink Roses in a Free Designer Glass Vase	1	0	1	Expedited	Kiki Kantralis	13656 TEAGUE LN APT 40			CORPUS CHRISTI	TX	78410-5210	US			false		
114-0845688-7544255	54874752358458	2020-10-28T14:28:09+00:00	2020-10-28T07:28:09-07:00	2020-10-28T14:55:15+00:00	2020-10-31T06:59:59+00:00	-3	tqlbx2wgt08xrbx@marketplace.amazon.com	Mary Vallier	+1 415-851-9136 ext. 20267	ABR0022	Delivery by Thursday | Arabella Farm Direct Bouquet of 12 Fresh Cut Pink Roses with a Free Glass Vase	1	0	1	Expedited	Cynthia Kambos	6 SHERWOOD PL			STATEN ISLAND	NY	10308-2353	US		Happy Birthday Cindy! Wish we could be there to celebrate with you. We will have to do that when you come down next! Hope you have a special day! Love, Mary & Mark From Mary Vallier	false		
114-9384900-8804263	21512595930554	2020-10-28T14:38:46+00:00	2020-10-28T07:38:46-07:00	2020-10-28T15:06:07+00:00	2020-10-31T06:59:59+00:00	-3	k4629fsyd4pfphd@marketplace.amazon.com	Stephanie Gilmore	+1 602-671-6610 ext. 54847	ABR0022	Delivery by Thursday | Arabella Farm Direct Bouquet of 12 Fresh Cut Pink Roses with a Free Glass Vase	1	0	1	Expedited	Reagan Reiferson	11812 SHADOW RUN DR			GLEN ALLEN	VA	23059-2525	US		Wishing you an even faster recovery the 2nd time around. We love you! Aunt Steff, Uncle Rich, Richie, Lindsey &Grady From Stephanie Gilmore	false		
111-2490165-1801003	32310538904946	2020-10-28T14:52:09+00:00	2020-10-28T07:52:09-07:00	2020-10-28T15:11:48+00:00	2020-10-31T06:59:59+00:00	-3	l2rq01g2txgbc22@marketplace.amazon.com	PST	+1 602-671-6610 ext. 64205	ABR0022	Delivery by Thursday | Arabella Farm Direct Bouquet of 12 Fresh Cut Pink Roses with a Free Glass Vase	1	0	1	Expedited	Phyllis and Mark Mehler	3340 81ST ST APT 62			JACKSON HEIGHTS	NY	11372-1374	US		Happy 25th! Your first “I DO” was to will you marry me. Now it’s do you want pizza! From Love Phyllis & Connie	false		
114-8789798-5000223	41754766031066	2020-10-28T14:47:17+00:00	2020-10-28T07:47:17-07:00	2020-10-28T15:13:01+00:00	2020-10-31T06:59:59+00:00	-3	zzlckphwsh4jzty@marketplace.amazon.com	Stacy Pellegrin	+1 619-854-2705 ext. 75042	ABR0022	Delivery by Thursday | Arabella Farm Direct Bouquet of 12 Fresh Cut Pink Roses with a Free Glass Vase	1	0	1	Expedited	Katara West	2914 SILVER HILL AVE			GWYNN OAK	MD	21207-6854	US		K-Dub, Just a little something to brighten your day.  You are an amazing lady!  Stay strong, my friend.  Thank you for being my partner in change. From Mama P	false		
111-0658838-0975405	21676648047682	2020-10-28T14:56:37+00:00	2020-10-28T07:56:37-07:00	2020-10-28T15:23:17+00:00	2020-10-31T06:59:59+00:00	-3	76lcjbh5tsbnv9g@marketplace.amazon.com	Judith G. Carter	+1 619-854-2705 ext. 81148	ABR0033	Delivery by Thursday | Arabella Farm Direct Bouquet of 12 Fresh Cut Orange Roses with a Free Glass Vase	1	0	1	Expedited	Guebert	1000 APPLEWOOD DR APT 262			ROSWELL	GA	30076-6311	US		Happy birthday Muz! Haha, am I first?   Love from Judy Booty and family P.S. to Puppa - sorry about the vase. Unavoidable.	false		
113-9459827-5097026	53908471863082	2020-10-28T14:57:19+00:00	2020-10-28T07:57:19-07:00	2020-10-28T15:27:17+00:00	2020-10-31T06:59:59+00:00	-3	12hzc53klphk7gm@marketplace.amazon.com	JAMES MEANEY	+1 415-851-9136 ext. 36820	ABR0055	Delivery by Thursday | Arabella Farm Direct Bouquet of 12 Stems of Fresh Cut Hot Pink Roses in a Free Designer Glass Vase	1	0	1	Expedited	Kathy Lawten	100 E BELLEVUE PL APT 4C			CHICAGO	IL	60611-6160	US			false		
111-2523641-6811442	62212566310562	2020-10-28T15:06:19+00:00	2020-10-28T08:06:19-07:00	2020-10-28T15:36:13+00:00	2020-10-31T06:59:59+00:00	-3	g2b2jy9drmnxgt8@marketplace.amazon.com	John Vasile	+1 602-671-6610 ext. 13625	ABM010	Delivery by Thursday | The Spring Fling Bouquet by Arabella Bouquets with a Free Designer Glass Vase	1	0	1	Expedited	Helen Eliya	455 HUNTER RD			RIDGEWOOD	NJ	07450-5515	US		Happy 5 year! Love you From John Vasile	false		
112-2253377-0594601	70113712049890	2020-10-28T15:12:50+00:00	2020-10-28T08:12:50-07:00	2020-10-28T15:38:32+00:00	2020-10-31T06:59:59+00:00	-3	y3sjp131d3zzn4l@marketplace.amazon.com	John Morgenson	+1 929-436-4790 ext. 19546	ABR0055	Delivery by Thursday | Arabella Farm Direct Bouquet of 12 Stems of Fresh Cut Hot Pink Roses in a Free Designer Glass Vase	1	0	1	Expedited	Cari Erickson	7865 SW 88TH AVE			PORTLAND	OR	97223-7017	US		Happy Friday....you really are the best and always have been, period.  Thanks for all you do for us! From John Morgenson	false		
113-2965717-8378646	37772595738698	2020-10-28T15:18:15+00:00	2020-10-28T08:18:15-07:00	2020-10-28T15:47:14+00:00	2020-10-31T06:59:59+00:00	-3	7nm8n6stcffrbys@marketplace.amazon.com	Charles R. Kirst	+1 213-442-1463 ext. 13408	ABR0055	Delivery by Thursday | Arabella Farm Direct Bouquet of 12 Stems of Fresh Cut Hot Pink Roses in a Free Designer Glass Vase	1	0	1	Expedited	Michelle Kirst	26 MAPLE VILLAGE CT			BERNARDSVILLE	NEW JERSEY	07924-2531	US			false		
114-7035182-3273019	17936747525954	2020-10-28T15:27:42+00:00	2020-10-28T08:27:42-07:00	2020-10-28T15:58:19+00:00	2020-10-31T06:59:59+00:00	-3	103rpd6d516mfm0@marketplace.amazon.com	Mark Guadagnini	+1 602-671-6610 ext. 89285	ABM010	Delivery by Thursday | The Spring Fling Bouquet by Arabella Bouquets with a Free Designer Glass Vase	1	0	1	Expedited	Donna Guadagnini	740 WARREN DR			ANNAPOLIS	MD	21403-2817	US			false		
113-1196629-9125829	18941046169442	2020-10-28T15:46:06+00:00	2020-10-28T08:46:06-07:00	2020-10-28T16:11:10+00:00	2020-10-31T06:59:59+00:00	-3	kcc2twp9sy987d7@marketplace.amazon.com	Phyllis Packert	+1 619-854-2705 ext. 26505	ABR0022	Delivery by Thursday | Arabella Farm Direct Bouquet of 12 Fresh Cut Pink Roses with a Free Glass Vase	1	0	1	Expedited	Faye Held	103 WILLIAMS ST			PORT JEFFERSON	NY	11777-1826	US		CONGRATS ON 1530 SAT.   LOVE U, AMA and Grandpa Pat From Phyllis	false		
113-4810325-2880214	63756371852346	2020-10-28T15:48:31+00:00	2020-10-28T08:48:31-07:00	2020-10-28T16:13:45+00:00	2020-10-31T06:59:59+00:00	-3	ztrhkqr25889n6d@marketplace.amazon.com	RAMA P. COVETZ	+1 619-854-2705 ext. 76194	ABR0033	Delivery by Thursday | Arabella Farm Direct Bouquet of 12 Fresh Cut Orange Roses with a Free Glass Vase	1	0	1	Expedited	Valerie Garcia	9157 N PALM BROOK DR			TUCSON	AZ	85743-8930	US		Just a little something to brighten your day.  We miss and love you.  Hope your ankle is feeling better.   Love love love from, Ivan, Prebah, Ishaan & Kitties (Meow!) From RAMA P. COVETZ	false		
114-5947247-1180264	34591607653802	2020-10-28T15:46:58+00:00	2020-10-28T08:46:58-07:00	2020-10-28T16:13:48+00:00	2020-10-31T06:59:59+00:00	-3	rj3c3bwx095bpzx@marketplace.amazon.com	melissa calabrese	+1 929-436-4790 ext. 64560	ABM0033	Delivery by Friday | Arabella Farm Direct Bouquet of Fresh Cut White Hydrangea with a Free Glass Vase	1	0	1	Expedited	Julie Lee	100 N KINGS RD			LOS ANGELES	CA	90048-2626	US		Dear Julie, We are so sorry for your loss Sincerely and with much love, Melissa, Francis, Josh and the rest our family From melissa calabrese	false		
111-9537686-2058611	63160121055474	2020-10-28T16:01:23+00:00	2020-10-28T09:01:23-07:00	2020-10-28T16:23:49+00:00	2020-10-31T06:59:59+00:00	-3	k0v2r36bg1btw9l@marketplace.amazon.com	Darlene	+1 619-854-2705 ext. 24324	ABM010	Delivery by Thursday | The Spring Fling Bouquet by Arabella Bouquets with a Free Designer Glass Vase	1	0	1	Expedited	Pauline Kienbaum	2314 E GERBERA WAY			ORO VALLEY	AZ	85755-7167	US		Hope this brightens your day.  Miss you!  Love, Dar and Jerry From Darlene	false		
112-9508649-4893029	26282061452066	2020-10-28T15:59:54+00:00	2020-10-28T08:59:54-07:00	2020-10-28T16:27:36+00:00	2020-10-31T06:59:59+00:00	-3	ybj012b698w65h8@marketplace.amazon.com	Barbara J. D'Angelo	+1 929-436-4790 ext. 73494	ABM017	Delivery by Friday | Arabella Bouquets 10 Stems of Blue Dendrobium Orchids in a Free Designer Glass Vase	1	0	1	Expedited	Bedda D'Angelo	17770 BELLECHASE CIR			SAN DIEGO	CA	92128-2095	US		Welcome home! Wishes for a speedy recovery! From Barbara J. D'Angelo	false		
113-5849000-7181011	52156412985722	2020-10-28T16:02:40+00:00	2020-10-28T09:02:40-07:00	2020-10-28T16:31:17+00:00	2020-10-31T06:59:59+00:00	-3	s35rdw1b2cvq9jk@marketplace.amazon.com	SIRENA	+1 602-671-6610 ext. 57697	ABR0022	Delivery by Thursday | Arabella Farm Direct Bouquet of 12 Fresh Cut Pink Roses with a Free Glass Vase	1	0	1	Expedited	Candise Cox	298 WILLOW RD W			STATEN ISLAND	NY	10314-1674	US		Just thinking of you Ma. I hope you enjoy! Love you! From Sirena	false		
114-3686565-2189858	11040004232378	2020-10-28T16:09:28+00:00	2020-10-28T09:09:28-07:00	2020-10-28T16:37:20+00:00	2020-10-31T06:59:59+00:00	-3	c1z8f9m4xklckrg@marketplace.amazon.com	Brian	+1 480-618-5344 ext. 26769	ABR0022	Delivery by Thursday | Arabella Farm Direct Bouquet of 12 Fresh Cut Pink Roses with a Free Glass Vase	1	0	1	Expedited	Amanda	119 CRESCENT AVE APT 10			SUNNYVALE	CA	94087-2724	US			false		
114-5369778-8866654	39007630738386	2020-10-28T16:11:45+00:00	2020-10-28T09:11:45-07:00	2020-10-28T16:39:52+00:00	2020-10-31T06:59:59+00:00	-3	1kqbbplzw6yg478@marketplace.amazon.com	MaryAnn Hoober	+1 213-442-1463 ext. 60380	ABR0033	Delivery by Thursday | Arabella Farm Direct Bouquet of 12 Fresh Cut Orange Roses with a Free Glass Vase	1	0	1	Expedited	Aaron Hoober	7815 WAINWRIGHT LN			MAINEVILLE	OH	45039-8801	US		Happy Birthday! We hope you gave a blessed day! We love You! From Clem and MaryAnn	false		
112-5937333-4469827	52959317617098	2020-10-28T16:19:04+00:00	2020-10-28T09:19:04-07:00	2020-10-28T16:42:40+00:00	2020-10-31T06:59:59+00:00	-3	1v8283jks1q9z9g@marketplace.amazon.com	Meredith Scott	+1 619-854-2705 ext. 68814	ABR0022	Delivery by Thursday | Arabella Farm Direct Bouquet of 12 Fresh Cut Pink Roses with a Free Glass Vase	1	0	1	Expedited	Kayla Hill, RN	13500 N MERIDIAN ST	3RD FLOOR- LABOR AND DELIVERY DEPT		CARMEL	IN	46032-1456	US		Kayla- thank you for all the wonderful care you provided as we brought baby Madison into the world. You are so special and we are so thankful and lucky to have you in our life! From Meredith and Kyle Strait	false		
