order-id	order-item-id	purchase-date	payments-date	reporting-date	promise-date	days-past-promise	buyer-email	buyer-name	buyer-phone-number	sku	product-name	quantity-purchased	quantity-shipped	quantity-to-ship	ship-service-level	recipient-name	ship-address-1	ship-address-2	ship-address-3	ship-city	ship-state	ship-postal-code	ship-country	gift-wrap-type	gift-message-text	is-business-order	purchase-order-number	price-designation
113-5560182-5493813	16550148285306	2020-10-28T17:47:07+00:00	2020-10-28T10:47:07-07:00	2020-10-28T18:14:30+00:00	2020-10-31T06:59:59+00:00	-2	blbc53qm7jmsbfk@marketplace.amazon.com	Christina DeMarco	+1 213-442-1463 ext. 33208	ABM010	Delivery by Friday | The Spring Fling Bouquet by Arabella Bouquets with a Free Designer Glass Vase	1	0	1	Expedited	Jackie Porto	214 WASHINGTON ST  1			WALLINGFORD	CT	06492-2326	US		Jackie and Paulo,  We love you both and you guys are in our prayers!  Love, Chrissy and Matthew From Christina DeMarco	false		
113-9906785-9373027	05614792498746	2020-10-28T18:03:26+00:00	2020-10-28T11:03:26-07:00	2020-10-28T18:22:20+00:00	2020-10-31T06:59:59+00:00	-2	yr19z1y512n9npk@marketplace.amazon.com	Dale	+1 602-671-6610 ext. 57679	ABR0055	Delivery by Friday | Arabella Farm Direct Bouquet of 12 Stems of Fresh Cut Hot Pink Roses in a Free Designer Glass Vase	1	0	1	Expedited	LOIS DORF  c/o schwartzswied	2741 RIVER PINE CT			OVIEDO	FL	32765-8953	US		Hoping you feel  better   VERY soon !!!!! From Love, Dale	false		
112-7485365-2550606	06398240247338	2020-10-28T17:58:03+00:00	2020-10-28T10:58:03-07:00	2020-10-28T18:28:18+00:00	2020-10-31T06:59:59+00:00	-2	0q5pyh209h24dbc@marketplace.amazon.com	rich egan	+1 602-671-6610 ext. 41572	ABR0022	Delivery by Friday | Arabella Farm Direct Bouquet of 12 Fresh Cut Pink Roses with a Free Glass Vase	1	0	1	Expedited	Marriott	ATTN JASMINE MITCHELL	1818 N 90TH ST		OMAHA	NE	68114-1315	US			false		
114-9038970-5320251	37723748247386	2020-10-28T18:01:31+00:00	2020-10-28T11:01:31-07:00	2020-10-28T18:31:10+00:00	2020-10-31T06:59:59+00:00	-2	vy3w5ht47463jdp@marketplace.amazon.com	Jasmine Hopkins	+1 929-436-4790 ext. 51791	ABM0033	Delivery by Monday | Arabella Farm Direct Bouquet of Fresh Cut White Hydrangea with a Free Glass Vase	1	0	1	Expedited	Shirley Hopkins	13029 CHIMNEY STONE CT			RICHMOND	VA	23233-7519	US		Rich used to choose Hydrangeas. The flowers for our 1st date, bouquet for our wedding, bush in the store on a random Tues. I'm sharing these with you so you can feel his love too. Thank you for raising the love of my life. From Jazz	false		
114-6407450-7574626	60696945969562	2020-10-28T18:43:25+00:00	2020-10-28T11:43:25-07:00	2020-10-28T18:44:13+00:00	2020-10-31T06:59:59+00:00	-2	z5h50p6rc46xq8l@marketplace.amazon.com	Bruce A. Raley	+1 480-618-5344 ext. 53349	ABM022	Delivery by Friday | Purple Extravagance Bouquet by Arabella Bouquets	1	0	1	Expedited	Rick and Regan Powell	29259 MASTERS DR			MURRIETA	CA	92563-5851	US		Dear Regan, May this color and fragrance brighten your days as you recover from surgery. Cheers to a smooth and speedy healing process! And of course I hope you enjoy them as well, Rick! From With love, Michele (and Bruce)	false		
114-0726067-6049047	09743765101250	2020-10-28T18:33:26+00:00	2020-10-28T11:33:26-07:00	2020-10-28T18:55:24+00:00	2020-10-31T06:59:59+00:00	-2	9d4mj29dwjpk5gc@marketplace.amazon.com	angelica	+1 480-618-5344 ext. 08325	ABM020	Delivery by Friday | The Sunset Bouquet by Arabella Bouquets	1	0	1	Expedited	Barbra Butler	2553 H. Westminster Ln.			Boise	ID	83704	US		Happy Birthday Grandma!! You are fearfully and wonderfully made! Hope you have the most beautiful blessed day. We love you and miss you! God bless! From Caroline, Jocelyn, Teddy & Angelica From Caroline, Angelica, Teddy & Jocelyn	false		
114-0374891-1741819	47693615529818	2020-10-28T18:44:15+00:00	2020-10-28T11:44:15-07:00	2020-10-28T19:02:13+00:00	2020-10-31T06:59:59+00:00	-2	fsrf4ywzvhzjs16@marketplace.amazon.com	David J. Corrigan	+1 213-442-1463 ext. 58548	ABM022	Delivery by Friday | Purple Extravagance Bouquet by Arabella Bouquets	1	0	1	Expedited	Mr. & Mrs. Frank Austin	31 HAMPTON CT			ORCHARD PARK	NY	14127-3461	US		In loving memory of your dear mother and her passion for flowers and gardening. From Dave & Judy Corrigan	false		
113-9491599-0887415	68996471502162	2020-10-28T18:41:38+00:00	2020-10-28T11:41:38-07:00	2020-10-28T19:04:49+00:00	2020-10-31T06:59:59+00:00	-2	2n82cmqh36r5pvq@marketplace.amazon.com	PMT	+1 480-618-5344 ext. 98255	ABM022	Delivery by Friday | Purple Extravagance Bouquet by Arabella Bouquets	1	0	1	Expedited	Hamid  Alai	1404 JOSEPHINE ST			NEW ORLEANS	LA	70130-5323	US		Happy Birthday Lizzie! From Parveen, Ali, Jeila	false		
114-9771469-8091404	52612940680698	2020-10-28T18:49:26+00:00	2020-10-28T11:49:26-07:00	2020-10-28T19:08:32+00:00	2020-10-31T06:59:59+00:00	-2	gr01cpkx2x6zhjm@marketplace.amazon.com	GJ Young	+1 602-671-6610 ext. 00736	ABM022	Delivery by Friday | Purple Extravagance Bouquet by Arabella Bouquets	1	0	1	Expedited	Pam  Roeser	210 HAMPTON AVE			GREENVILLE	SC	29601-1931	US			false		
114-9686231-3305061	49511348613170	2020-10-28T18:51:45+00:00	2020-10-28T11:51:45-07:00	2020-10-28T19:17:51+00:00	2020-10-31T06:59:59+00:00	-2	7qqz16vcl0p1vhr@marketplace.amazon.com	Kimberly O'Malley	+1 213-442-1463 ext. 30244	ABM022	Delivery by Friday | Purple Extravagance Bouquet by Arabella Bouquets	1	0	1	Expedited	Andrea Barrozzi	1530 NW 48TH LN			BOCA RATON	FL	33431-3340	US			false		
111-3976101-2049053	49661721859602	2020-10-28T18:58:04+00:00	2020-10-28T11:58:04-07:00	2020-10-28T19:24:59+00:00	2020-10-31T06:59:59+00:00	-2	jtty6htnfk54sr9@marketplace.amazon.com	Gail Krauss	+1 213-442-1463 ext. 20475	ABR0055	Delivery by Friday | Arabella Farm Direct Bouquet of 12 Stems of Fresh Cut Hot Pink Roses in a Free Designer Glass Vase	1	0	1	Expedited	Dot Milliken	114 BANK BARN LN			LANCASTER	PA	17602-1661	US		Hi Dot, Enjoy and heal well! Love in Christ, Jim and Gail	false		
113-9429033-5090612	00226892686402	2020-10-28T18:55:41+00:00	2020-10-28T11:55:41-07:00	2020-10-28T19:25:57+00:00	2020-10-31T06:59:59+00:00	-2	5yh3t2qyc7j6w1z@marketplace.amazon.com	Ellen LoCicero	+1 929-436-4790 ext. 88570	ABR0022	Delivery by Friday | Arabella Farm Direct Bouquet of 12 Fresh Cut Pink Roses with a Free Glass Vase	1	0	1	Expedited	Salvatore LoCicero	261 Clems Run			Mullica Hill	NJ	08062-2851	US			false		
114-4136249-1915400	25295152713570	2020-10-28T19:06:17+00:00	2020-10-28T12:06:17-07:00	2020-10-28T19:36:36+00:00	2020-10-31T06:59:59+00:00	-2	mhg079ff2kqhhq3@marketplace.amazon.com	James Keys Jr	+1 480-618-5344 ext. 13462	ABM022	Delivery by Friday | Purple Extravagance Bouquet by Arabella Bouquets	1	0	1	Expedited	Nanette Callahan	122 BLACKBERRY LN			CHUCKEY	TN	37641-2556	US			false		
113-3007648-7377017	35950885123426	2020-10-28T19:18:12+00:00	2020-10-28T12:18:12-07:00	2020-10-28T19:43:19+00:00	2020-10-31T06:59:59+00:00	-2	wp5yk69hh7kc31l@marketplace.amazon.com	KURT PETERSON	+1 619-854-2705 ext. 31498	ABM022	Delivery by Friday | Purple Extravagance Bouquet by Arabella Bouquets	1	0	1	Expedited	ALAINA PETERSON	26 PINE CHIP CT			NOTTINGHAM	MD	21236-3542	US		Happy Birthday Peanut!  ...they were out of Titleists so I hope these will do!    Love you, Dad From KURT PETERSON	false		
112-7373479-0297846	67858496802746	2020-10-28T19:21:53+00:00	2020-10-28T12:21:53-07:00	2020-10-28T19:48:50+00:00	2020-10-31T06:59:59+00:00	-2	rw4b49zzjsrdw06@marketplace.amazon.com	Lara Hunsberger	+1 619-854-2705 ext. 39776	ABM022	Delivery by Friday | Purple Extravagance Bouquet by Arabella Bouquets	1	0	1	Expedited	Janet Kephart	440 GULF BLVD			BELLEAIR SHORES	FL	33786-3201	US		We are so glad you are home and feeling better!!  We love you!! From Love, David, Lara, Jeremy & Jamieson From David, Lara, Jeremy & Jamieson	false		
112-2428825-5753048	35509668612898	2020-10-28T19:42:01+00:00	2020-10-28T12:42:01-07:00	2020-10-28T19:58:38+00:00	2020-10-31T06:59:59+00:00	-2	b1fhhy4rrcvv263@marketplace.amazon.com	Joseph Sanders	+1 213-442-1463 ext. 71028	ABR0033	Delivery by Friday | Arabella Farm Direct Bouquet of 12 Fresh Cut Orange Roses with a Free Glass Vase	1	0	1	Expedited	Linda Brackmann	W231N7435 E STONERIDGE CT			SUSSEX	WI	53089-2057	US			false		
114-5059078-5649824	34595669610426	2020-10-28T19:41:22+00:00	2020-10-28T12:41:22-07:00	2020-10-28T20:13:40+00:00	2020-10-31T06:59:59+00:00	-2	12wt5bxykbq54cl@marketplace.amazon.com	Debra gonzalez	+1 480-618-5344 ext. 14979	ABR012	Delivery by Monday | Arabella Farm Direct Bouquet of 18 Fresh Cut Pink Roses with a Free Glass Vase	1	0	1	Expedited	Debra gonzalez	600 ASH ST			WINNETKA	IL	60093-2661	US			false		
112-1726632-0156268	38518125491426	2020-10-28T20:01:23+00:00	2020-10-28T13:01:23-07:00	2020-10-28T20:27:52+00:00	2020-10-31T06:59:59+00:00	-2	bgfmnq8vfz8q4br@marketplace.amazon.com	April L. Healey	+1 602-671-6610 ext. 88636	ABR0055	Delivery by Friday | Arabella Farm Direct Bouquet of 12 Stems of Fresh Cut Hot Pink Roses in a Free Designer Glass Vase	1	0	1	Expedited	Deborah Larson	14418 62ND ST SE			SHELDON	ND	58068-9755	US		Hi Deb!  Hope you are feeling better every hour, but REST and don’t rush it.  Love you!  April	false		
112-6746330-5361825	53643672582602	2020-10-28T20:15:29+00:00	2020-10-28T13:15:29-07:00	2020-10-28T20:38:13+00:00	2020-10-31T06:59:59+00:00	-2	f20fym6qc8khc0w@marketplace.amazon.com	kathy korzeb	+1 213-442-1463 ext. 17105	ABM022	Delivery by Friday | Purple Extravagance Bouquet by Arabella Bouquets	1	0	1	Expedited	Mrs. Jean Hegdus	18 FOX RUNNE			ROBBINSVILLE	NJ	08691-3647	US		Hello Jean  Happy Birthday!  Love the KORZEBS💕💕💕	false		
111-2778647-3822621	23585444833946	2020-10-28T21:02:24+00:00	2020-10-28T14:02:24-07:00	2020-10-28T21:27:34+00:00	2020-10-31T06:59:59+00:00	-2	6tf9qd1yzz1566w@marketplace.amazon.com	Babak Ghiasi	+1 929-436-4790 ext. 33284	ABR0022	Delivery by Friday | Arabella Farm Direct Bouquet of 12 Fresh Cut Pink Roses with a Free Glass Vase	1	0	1	Expedited	Elena Ghiassi	1030 S VIA DE ROSA			ANAHEIM	CA	92807-4521	US		happy birthday Elena jan From Maman Bozorg	false		
111-7394606-3541845	46161133141842	2020-10-28T21:05:24+00:00	2020-10-28T14:05:24-07:00	2020-10-28T21:34:56+00:00	2020-10-31T06:59:59+00:00	-2	c8h4nch5qkhr76x@marketplace.amazon.com	Jonathan Gacek	+1 929-436-4790 ext. 88746	ABM022	Delivery by Friday | Purple Extravagance Bouquet by Arabella Bouquets	1	0	1	Standard	BioTrans - Attn: Terry Costa	15 JONATHAN DR STE 1			BROCKTON	MA	02301-5566	US		Thinking of you! We miss you! Keep feeling with your fingers & stay healthy! From Marlo & Jon Gacek	false		
114-9573619-4927443	47419069384658	2020-10-28T21:24:13+00:00	2020-10-28T14:24:13-07:00	2020-10-28T21:49:54+00:00	2020-10-31T06:59:59+00:00	-2	g6qc32c1fqz52jj@marketplace.amazon.com	Sheryl Thompson	+1 619-854-2705 ext. 34858	ABR013	Delivery by Monday | Arabella Farm Direct Bouquet of 18 Fresh Cut Yellow Roses with a Free Glass Vase	1	0	1	Standard	Savannah Lozano	910 E 5TH ST # 211			TUCSON	AZ	85719-5006	US		Happy 18th Birthday Luv Bug! You're 18 years of specialness! Time to look ahead to the possibilities the future holds! We love you so much!! From Grandma, Mom & Auntie Alicia From Sheryl Thompson	false		
113-5331830-3707402	37073379103858	2020-10-28T21:20:54+00:00	2020-10-28T14:20:54-07:00	2020-10-28T21:50:44+00:00	2020-10-31T06:59:59+00:00	-2	s0gkhwjdv4n0dhf@marketplace.amazon.com	Jan L Fritzinger	+1 619-854-2705 ext. 09877	ABR0022	Delivery by Friday | Arabella Farm Direct Bouquet of 12 Fresh Cut Pink Roses with a Free Glass Vase	1	0	1	Expedited	Susan Loughran	32 TERBAR LOOP			NEW PALTZ	NY	12561-4026	US			false		
114-0094787-4245854	28552614374362	2020-10-28T22:10:57+00:00	2020-10-28T15:10:57-07:00	2020-10-28T22:30:24+00:00	2020-10-31T06:59:59+00:00	-2	6k3n987px86s9zz@marketplace.amazon.com	Diane Emich	+1 415-851-9136 ext. 58850	ABM010	Delivery by Friday | The Spring Fling Bouquet by Arabella Bouquets with a Free Designer Glass Vase	1	0	1	Expedited	Abigail Emich	1355 17TH ST NW APT 819			WASHINGTON	DC	20036-1940	US		Abigail,  Love you, miss you, and I hope all is well.  I am looking forward to your homecoming next month  Take care of yourself.   Love you,  Mom (and Dad) From Diane Emich	false		
112-3033978-4633046	66582729136634	2020-10-28T22:21:02+00:00	2020-10-28T15:21:02-07:00	2020-10-28T22:43:57+00:00	2020-10-31T06:59:59+00:00	-2	ld5chzxgm3hgyhb@marketplace.amazon.com	Miles  Brown	+1 929-436-4790 ext. 74516	ABR0022	Delivery by Friday | Arabella Farm Direct Bouquet of 12 Fresh Cut Pink Roses with a Free Glass Vase	1	0	1	Expedited	Kelly Banks	3001 BRANCH AVE APT 406			TEMPLE HILLS	MD	20748-1013	US		Why? ‘Because I love you Beautiful, that’s why... From Miles	false		
111-9733826-1199446	28367658000586	2020-10-28T22:29:14+00:00	2020-10-28T15:29:14-07:00	2020-10-28T22:51:32+00:00	2020-10-31T06:59:59+00:00	-2	brvkhxmcjxl78q5@marketplace.amazon.com	Janet	+1 602-671-6610 ext. 94029	ABR0022	Delivery by Friday | Arabella Farm Direct Bouquet of 12 Fresh Cut Pink Roses with a Free Glass Vase	1	0	1	Expedited	Kerry Jacobi	634 FAULKNER RD			ONEONTA	AL	35121-3751	US		Congratulations on a wonderfully successful go live at Vandy!  I hope you know how much your Sectra family appreciates all the hard work you've put in to making this a success! From Janet and the Sectra Gang!	false		
112-6329728-5939431	40765418872626	2020-10-28T22:21:57+00:00	2020-10-28T15:21:57-07:00	2020-10-28T22:52:14+00:00	2020-10-31T06:59:59+00:00	-2	vv6qw0zlw2qm33f@marketplace.amazon.com	Jamesp	+1 929-436-4790 ext. 14147	ABM010	Delivery by Friday | The Spring Fling Bouquet by Arabella Bouquets with a Free Designer Glass Vase	1	0	1	Expedited	Grossmont Post Acute Care c/o Joan Patula rm 29b	8787 CENTER DR RM 29B			LA MESA	CA	91942-3034	US			false		
111-1901165-6401845	12181064972666	2020-10-28T22:32:05+00:00	2020-10-28T15:32:05-07:00	2020-10-28T23:01:42+00:00	2020-10-31T06:59:59+00:00	-2	hg9zjhmwbzpd1hb@marketplace.amazon.com	Peter Richards	+1 619-854-2705 ext. 50031	ABM022	Delivery by Friday | Purple Extravagance Bouquet by Arabella Bouquets	1	0	1	Expedited	Peter Richards	13895 122ND ST			FELLSMERE	FL	32948-6410	US			false		
112-5435515-3750634	64222239270554	2020-10-28T23:16:52+00:00	2020-10-28T16:16:52-07:00	2020-10-28T23:46:50+00:00	2020-10-31T06:59:59+00:00	-2	fxbk7mc2hcqk6vh@marketplace.amazon.com	Rob Kemp	+1 929-436-4790 ext. 12239	ABR0066	Delivery by Friday | Arabella Bouquets 12 Stems of Fresh Cut White Roses in a Free Designer Glass Vase	1	0	1	Expedited	Felicia	314 FELDON DR			CRESTVIEW	FL	32536-9281	US			false		
111-7634334-6254600	28352978822402	2020-10-28T23:46:32+00:00	2020-10-28T16:46:32-07:00	2020-10-28T23:47:28+00:00	2020-10-31T06:59:59+00:00	-2	3dtc9jvxxg0k5tc@marketplace.amazon.com	Sue & Tim Tobin	+1 619-854-2705 ext. 13634	ABR013	Delivery by Monday | Arabella Farm Direct Bouquet of 18 Fresh Cut Yellow Roses with a Free Glass Vase	1	0	1	Expedited	Yvette Haralson	200 WILDERNESS RD			GLASGOW	KY	42141-2068	US		Dear Yvette,  We were shocked to hear about Bob's passing and know how much you miss him. He was an exceptional husband and father. Please accept our deepest condolences. Love, Sue and Tim From Sue & Tim Tobin	false		
112-8853025-2643432	31773672023914	2020-10-28T23:20:58+00:00	2020-10-28T16:20:58-07:00	2020-10-28T23:49:17+00:00	2020-10-31T06:59:59+00:00	-2	b3s95ctbp1233pf@marketplace.amazon.com	Eva Rivera	+1 929-436-4790 ext. 16521	ABR0033	Delivery by Friday | Arabella Farm Direct Bouquet of 12 Fresh Cut Orange Roses with a Free Glass Vase	1	0	1	Expedited	Gilda Solares	10741 COLYER AVE			LYNWOOD	CA	90262-2211	US		Sending you our love and prayers. Celebrating Ines'  life - she was loved and blessed. May God's love & comfort fill your hearts always.    Love, Rivera Family From Eva Rivera	false		
114-2480301-1839447	18721410081066	2020-10-28T23:46:32+00:00	2020-10-28T16:46:32-07:00	2020-10-29T00:12:51+00:00	2020-10-31T06:59:59+00:00	-2	6p3k536f8ns7jqq@marketplace.amazon.com	Rajiv Mallipudi	+1 480-618-5344 ext. 90127	ABM022	Delivery by Friday | Purple Extravagance Bouquet by Arabella Bouquets	1	0	1	Expedited	ROB BUTLER	6 ROLLING MEADOW RD			MADISON	CT	06443-2352	US		Dear Sandy and Rob, Sorry for the lost of your mother and mother-in-law Jeanne. May she rest in peace and her memory carry on in your lives. I wish you and your family well during this challenging time. From Rajiv Mallipudi	false		
114-1672697-9014619	65226936331754	2020-10-28T23:47:18+00:00	2020-10-28T16:47:18-07:00	2020-10-29T00:13:38+00:00	2020-10-31T06:59:59+00:00	-2	qz20lcs346h8qws@marketplace.amazon.com	SUSAN HAMPTON	+1 619-854-2705 ext. 99967	ABR0055	Delivery by Friday | Arabella Farm Direct Bouquet of 12 Stems of Fresh Cut Hot Pink Roses in a Free Designer Glass Vase	1	0	1	Expedited	Chris Kennedy	3 SARAH DR			NEWTOWN	PA	18940-4129	US		Wishing you a very Happy Birthday!! Love you❤️ From SUSAN HAMPTON	false		
113-3141460-5249038	23859081573378	2020-10-29T00:16:58+00:00	2020-10-28T17:16:58-07:00	2020-10-29T00:39:24+00:00	2020-10-31T06:59:59+00:00	-2	gxfyt4ftk791rsz@marketplace.amazon.com	Mohammad Shokriyan	+1 480-618-5344 ext. 13248	ABR001	Delivery by Friday | Arabella Bouquets 12 Stems of Fresh Cut Red Roses in a Free Designer Glass Vase	1	0	1	Expedited	Tannaz Nazar	1521 BOYD POINTE WAY APT 2113			VIENNA	VA	22182-7554	US		Hope you like it ☺️ From M	false		
114-0075097-9060222	64987588349522	2020-10-29T00:10:20+00:00	2020-10-28T17:10:20-07:00	2020-10-29T00:39:50+00:00	2020-10-31T06:59:59+00:00	-2	2zwmw88krmkm0d5@marketplace.amazon.com	Latriece	+1 929-436-4790 ext. 47094	ABR0022	Delivery by Friday | Arabella Farm Direct Bouquet of 12 Fresh Cut Pink Roses with a Free Glass Vase	1	0	1	Expedited	Mia Powers	4418 LAKEVIEW DR			TEMPLE HILLS	MD	20748-4939	US		Dear Mia, I want to express my condolences to your family. Please know you are in my prayers. From Latriece	false		
111-9924009-4407443	20317796573234	2020-10-29T00:35:26+00:00	2020-10-28T17:35:26-07:00	2020-10-29T00:41:48+00:00	2020-10-31T06:59:59+00:00	-2	djwg1lpvtmdwm5q@marketplace.amazon.com	Mayan O Marshall	+1 602-671-6610 ext. 96286	ABR0022	Delivery by Friday | Arabella Farm Direct Bouquet of 12 Fresh Cut Pink Roses with a Free Glass Vase	1	0	1	Expedited	Shirley Roberts	930 BLACKBURN RD			SEWICKLEY	PA	15143-1491	US		Shirley, Sorry for your loss. May these flowers remind you -Jesus LOVES you!! Psalm 23:1-2 The Lord is my best friend and my shepherd. I always have more than enough. He offers a resting place for me in his luxurious love. From Sheronica at CBS	false		
114-2510707-9918638	43707686622522	2020-10-29T00:25:50+00:00	2020-10-28T17:25:50-07:00	2020-10-29T00:47:26+00:00	2020-10-31T06:59:59+00:00	-2	jmhpjvmqn9pscvd@marketplace.amazon.com	makenna	+1 480-618-5344 ext. 62068	ABR0022	Delivery by Friday | Arabella Farm Direct Bouquet of 12 Fresh Cut Pink Roses with a Free Glass Vase	1	0	1	Expedited	Daniel McLean-Lorence	37 SCHNEIDERMAN LN APT 5			AKRON	OH	44319-4055	US		I love you so very much Pam! I wanted to get you something as beautiful as you're a person. I'm always here if you need anything or want to talk.   Love Always, From Danny+Makenna	false		
113-7429483-9078666	11307553192010	2020-10-29T00:23:28+00:00	2020-10-28T17:23:28-07:00	2020-10-29T00:52:20+00:00	2020-10-31T06:59:59+00:00	-2	5sbcyqms5ctkh3t@marketplace.amazon.com	janet treftz-allen	+1 619-854-2705 ext. 71002	ABM010	Delivery by Friday | The Spring Fling Bouquet by Arabella Bouquets with a Free Designer Glass Vase	1	0	1	Expedited	crystal allen	4200 ARMAR DR SE APT 11			CEDAR RAPIDS	IA	52403-4645	US		Crystal Get feeling better soon.  Love you! From Mom and Dad	false		
113-0691822-4339416	62677231858498	2020-10-29T00:39:52+00:00	2020-10-28T17:39:52-07:00	2020-10-29T01:06:24+00:00	2020-10-31T06:59:59+00:00	-2	vkdklrbblspyl0l@marketplace.amazon.com	william	+1 619-854-2705 ext. 44093	ABR001	Delivery by Friday | Arabella Bouquets 12 Stems of Fresh Cut Red Roses in a Free Designer Glass Vase	1	0	1	Expedited	Lisa M. Loesch	280 39TH ST LINDENHURST APARTMENT			LINDENHURST	NY	11757-2621	US		I appreciate your love, kindness, and support! Having someone who makes you laugh and cheers you up when you're down is a great blessing. Thanks, my friend, for being that someone in my life..LOVE YOU LISA. From Jordan	false		
113-4048671-2977010	47891656206450	2020-10-29T00:42:42+00:00	2020-10-28T17:42:42-07:00	2020-10-29T01:10:14+00:00	2020-10-31T06:59:59+00:00	-2	t0zr27lycvr3bnt@marketplace.amazon.com	margaret a berlan	+1 619-854-2705 ext. 22361	ABR0022	Delivery by Friday | Arabella Farm Direct Bouquet of 12 Fresh Cut Pink Roses with a Free Glass Vase	1	0	1	Expedited	Steve and Patsy Chambers	41379 SOUTHWIND DR # 23			CANTON	MI	48188-3121	US		Happy Anniversary Steve and Patsy.  Happy birthday Patsy! Love, Greg and Peggy From margaret a berlan	false		
113-1078166-0417022	16036485110106	2020-10-29T00:44:13+00:00	2020-10-28T17:44:13-07:00	2020-10-29T01:10:43+00:00	2020-10-31T06:59:59+00:00	-2	t8s8q3g6nqclsjd@marketplace.amazon.com	cecelia a harley	+1 619-854-2705 ext. 44759	ABR004	Arabella Farm Direct Bouquet of 12 Fresh Cut Yellow Roses with a Free Glass Vase	1	0	1	Expedited	Mary Harley	455 E ALLUVIAL AVE			FRESNO	CA	93720-2819	US		Happy you’re feeling better. Hang in there! Love, Mom xxxooo From cecelia a harley	false		
112-1660811-5363439	65639340840930	2020-10-29T00:47:43+00:00	2020-10-28T17:47:43-07:00	2020-10-29T01:13:07+00:00	2020-10-31T06:59:59+00:00	-2	s2csgfykwtc6msl@marketplace.amazon.com	richard s wilson	+1 602-671-6610 ext. 86542	ABR0022	Delivery by Friday | Arabella Farm Direct Bouquet of 12 Fresh Cut Pink Roses with a Free Glass Vase	1	0	1	Expedited	Jessica Cosimano	40 COLBY DR			CORAM	NY	11727-2234	US		Just for you, sugar plum. Hope to see you again soon :) From Rich	false		
113-5610887-5409029	60068021880314	2020-10-29T00:49:35+00:00	2020-10-28T17:49:35-07:00	2020-10-29T01:18:59+00:00	2020-10-31T06:59:59+00:00	-2	rytcydgyhns90cy@marketplace.amazon.com	Melissa Johnston	+1 602-671-6610 ext. 64109	ABM022	Delivery by Friday | Purple Extravagance Bouquet by Arabella Bouquets	1	0	1	Expedited	Susan Cazrkowski	217 MEMORY LN			DOVER	DE	19901-2884	US		Happy Anniversary, Mom and Dad!  Love, Melissa, Mark, and Jerry From Melissa Johnston	false		
112-4549904-2290611	13037963915954	2020-10-29T01:01:47+00:00	2020-10-28T18:01:47-07:00	2020-10-29T01:28:55+00:00	2020-10-31T06:59:59+00:00	-2	53vmcvfkkgwqzpl@marketplace.amazon.com	John Bailey	+1 602-671-6610 ext. 89950	ABR0022	Delivery by Friday | Arabella Farm Direct Bouquet of 12 Fresh Cut Pink Roses with a Free Glass Vase	1	0	1	Expedited	Keshia Bailey	3305 EVENING BREEZE WAY			PFLUGERVILLE	TX	78660-3689	US		Hi Keshia, Enjoy your gift! From Carolyn and John  We love you❤️🌹	false		
114-9598946-9949001	38059114533410	2020-10-29T01:07:07+00:00	2020-10-28T18:07:07-07:00	2020-10-29T01:36:34+00:00	2020-10-31T06:59:59+00:00	-2	1716gn0q969gm2q@marketplace.amazon.com	Sarah Perrone	+1 480-618-5344 ext. 06994	ABR0033	Delivery by Friday | Arabella Farm Direct Bouquet of 12 Fresh Cut Orange Roses with a Free Glass Vase	1	0	1	Expedited	Debi Walls	17902 DEERING ST			LIVONIA	MI	48152-3798	US		Happy Birthday, we love you! Enjoy your day and Happy Halloween too! From Sarah, Christian, and Ella	false		
112-6415103-6889869	36234120920714	2020-10-29T01:25:17+00:00	2020-10-28T18:25:17-07:00	2020-10-29T01:47:51+00:00	2020-10-31T06:59:59+00:00	-2	7ztwcfzrb63j8ns@marketplace.amazon.com	Barbara E. Roman	+1 480-618-5344 ext. 08889	ABR0022	Delivery by Friday | Arabella Farm Direct Bouquet of 12 Fresh Cut Pink Roses with a Free Glass Vase	1	0	1	Expedited	Susan Carter	SHARPLEY 310 SPALDING RD			WILMINGTON	DE	19803-2422	US		Get Well soon!!!  Tom & Barbara Roman From Barbara E. Roman	false		
112-4306871-8923428	39267257537754	2020-10-29T01:40:11+00:00	2020-10-28T18:40:11-07:00	2020-10-29T02:08:55+00:00	2020-10-31T06:59:59+00:00	-2	ysmyyn5wctpm90k@marketplace.amazon.com	Bridget Brattleaf	+1 480-618-5344 ext. 17674	ABR0022	Delivery by Friday | Arabella Farm Direct Bouquet of 12 Fresh Cut Pink Roses with a Free Glass Vase	1	0	1	Expedited	Anna Hooks	836 W 950 N			LAKE VILLAGE	IN	46349-9268	US		Happy Birthday Anna! We Love you! From Uncle Tim, Aunt Bridget, Emily & Timmy	false		
112-5477243-8923417	51504747098690	2020-10-29T01:51:02+00:00	2020-10-28T18:51:02-07:00	2020-10-29T02:15:04+00:00	2020-10-31T06:59:59+00:00	-2	6jtx8j81dqhrnc3@marketplace.amazon.com	Carolyn Henderson	+1 602-671-6610 ext. 04624	ABR0022	Delivery by Friday | Arabella Farm Direct Bouquet of 12 Fresh Cut Pink Roses with a Free Glass Vase	1	0	1	Standard	Kiana Matsuura	15185 MARQUETTE ST UNIT C			MOORPARK	CA	93021-2512	US		Happy Birthday Kiana!! Hope you have a fun day and a healthy year ahead!! Love, Grandma and Grandpa From Carolyn Henderson	false		
113-2633868-0106610	09976083299338	2020-10-29T02:17:50+00:00	2020-10-28T19:17:50-07:00	2020-10-29T02:46:38+00:00	2020-10-31T06:59:59+00:00	-2	1h2dzdd8356cycy@marketplace.amazon.com	Betty Jean Toby	+1 415-851-9136 ext. 33170	ABR0022	Delivery by Friday | Arabella Farm Direct Bouquet of 12 Fresh Cut Pink Roses with a Free Glass Vase	1	0	1	Expedited	Betty Jean Toby	11 TERRACE PL APT 1F 1F			BROOKLYN	NY	11218-1084	US			false		
112-1432848-0523442	60745097479642	2020-10-29T02:20:59+00:00	2020-10-28T19:20:59-07:00	2020-10-29T02:51:12+00:00	2020-10-31T06:59:59+00:00	-2	285j4slyjkl1s7r@marketplace.amazon.com	Jammer lupardi	+1 415-851-9136 ext. 16747	ABR0033	Delivery by Friday | Arabella Farm Direct Bouquet of 12 Fresh Cut Orange Roses with a Free Glass Vase	1	0	1	Expedited	John lupardi	24 WENDY RD			COLONIA	NJ	07067-1349	US			false		
114-1680260-8920256	21791880696034	2020-10-29T02:33:40+00:00	2020-10-28T19:33:40-07:00	2020-10-29T02:57:20+00:00	2020-10-31T06:59:59+00:00	-2	y474mx0961dtws3@marketplace.amazon.com	Lori Sopak	+1 929-436-4790 ext. 49564	ABR0022	Delivery by Friday | Arabella Farm Direct Bouquet of 12 Fresh Cut Pink Roses with a Free Glass Vase	1	0	1	Expedited	Shannon Wickley	5300 BROOKE FARM DR			ATLANTA	GA	30338-3149	US		Happy 50th! We love you! From Lori Sopak	false		
113-4232411-1489032	69205880860578	2020-10-29T02:37:50+00:00	2020-10-28T19:37:50-07:00	2020-10-29T02:57:45+00:00	2020-10-31T06:59:59+00:00	-2	5mx0nc9kymrw8tv@marketplace.amazon.com	Manuel Velez	+1 213-442-1463 ext. 36675	ABM022	Delivery by Friday | Purple Extravagance Bouquet by Arabella Bouquets	1	0	1	Expedited	Andrea Velez	594 LAKE WILDMERE CV			LONGWOOD	FL	32750-5511	US		Andrea,  Age ain't nothing but a number.  Your love and dedication to your family and friends is what makes you special.  God only created one YOU and we are happy you are in our life. Happy Birthday!!! From Stef, Manny, & Tino	false		
113-4545385-2336246	55296444749730	2020-10-29T02:23:51+00:00	2020-10-28T19:23:51-07:00	2020-10-29T02:58:44+00:00	2020-10-31T06:59:59+00:00	-2	8ndfp1l7431l5gm@marketplace.amazon.com	elizabeth	+1 480-618-5344 ext. 75649	ABR0022	Delivery by Friday | Arabella Farm Direct Bouquet of 12 Fresh Cut Pink Roses with a Free Glass Vase	1	0	1	Expedited	Joann Morrison	5829 CONCORD LN			THE COLONY	TX	75056-7123	US		Sorry, I am late, but it is 2020.   Have a Happy Unbirthday sweet lady Love you From la jefa	false		
113-8845648-0972224	08948830825274	2020-10-29T02:08:40+00:00	2020-10-28T19:08:40-07:00	2020-10-29T02:59:28+00:00	2020-10-31T06:59:59+00:00	-2	8ndfp1l7431l5gm@marketplace.amazon.com	elizabeth	+1 480-618-5344 ext. 81849	ABR0055	Delivery by Friday | Arabella Farm Direct Bouquet of 12 Stems of Fresh Cut Hot Pink Roses in a Free Designer Glass Vase	1	0	1	Expedited	Twila Joiner	4513 NERVIN ST			THE COLONY	TX	75056-3178	US		Enjoy your gift! From elizabeth	false		
112-2712412-9384251	40527777857682	2020-10-29T02:36:15+00:00	2020-10-28T19:36:15-07:00	2020-10-29T03:05:15+00:00	2020-10-31T06:59:59+00:00	-2	2fzg273t6b78hrh@marketplace.amazon.com	Dara Brady	+1 213-442-1463 ext. 39065	ABM021	Delivery by Monday | The Joyous Bouquet by Arabella Bouquets	1	0	1	Expedited	Joni Okamoto	934 VAN AUKEN CIR			PALO ALTO	CA	94303-3841	US		Glad you are feeling better! Hope this is better than a jumbo barf bag! From Dara, Erika and Franklin	false		
113-9795207-4958626	15801008953346	2020-10-29T03:08:47+00:00	2020-10-28T20:08:47-07:00	2020-10-29T03:32:13+00:00	2020-10-31T06:59:59+00:00	-2	t0vx0ffm9h0hsjv@marketplace.amazon.com	Jennifer Jacobi	+1 602-671-6610 ext. 37200	ABM010	Delivery by Friday | The Spring Fling Bouquet by Arabella Bouquets with a Free Designer Glass Vase	1	0	1	Expedited	Charlene	1017 OAKLAND AVE			WAUKESHA	WI	53186-5106	US		Hi Char!! Hope you are healing up quick!! Hugs, From Jennifer Jacobi	false		
114-4474684-6787409	45139218684778	2020-10-29T03:16:15+00:00	2020-10-28T20:16:15-07:00	2020-10-29T03:44:11+00:00	2020-10-31T06:59:59+00:00	-2	ljffl87q3rlj3dx@marketplace.amazon.com	Jackson Ennels	+1 480-618-5344 ext. 89728	ABR0022	Delivery by Friday | Arabella Farm Direct Bouquet of 12 Fresh Cut Pink Roses with a Free Glass Vase	1	0	1	Expedited	Allison Lang	1246 WEDGEWOOD DR			FORNEY	TX	75126-3849	US		I wish you the best in life From Jackson Ennels	false		
112-9018228-8760251	48345703067946	2020-10-29T03:16:24+00:00	2020-10-28T20:16:24-07:00	2020-10-29T03:44:45+00:00	2020-10-31T06:59:59+00:00	-2	s42nb91n2m8h0ph@marketplace.amazon.com	Arpad Solti	+1 619-854-2705 ext. 48864	ABR0022	Delivery by Friday | Arabella Farm Direct Bouquet of 12 Fresh Cut Pink Roses with a Free Glass Vase	1	0	1	Expedited	Yaroslaba Garcia	9687 SPRINGLAKE CIR			ESTERO	FL	33928-6283	US			false		
114-2999731-0648244	64934772032306	2020-10-29T03:23:42+00:00	2020-10-28T20:23:42-07:00	2020-10-29T03:48:35+00:00	2020-10-31T06:59:59+00:00	-2	wswc7pmt6vv2t9s@marketplace.amazon.com	Beba M. Cates	+1 415-851-9136 ext. 95103	ABR0055	Delivery by Friday | Arabella Farm Direct Bouquet of 12 Stems of Fresh Cut Hot Pink Roses in a Free Designer Glass Vase	1	0	1	Expedited	Brenda Howell	121 STEEPLECHASE CIR			WEST MONROE	LA	71291-9019	US		So sorry for the loss of your mother! I hope you get well soon. Take care of yourself.  Love you, Beba From Beba M. Cates	false		
114-7319545-2473832	59384335130130	2020-10-29T03:31:48+00:00	2020-10-28T20:31:48-07:00	2020-10-29T03:50:37+00:00	2020-10-31T06:59:59+00:00	-2	dkmvjnmc9fdmjb5@marketplace.amazon.com	Graceann  Norman	+1 602-671-6610 ext. 59724	ABR001	Delivery by Friday | Arabella Bouquets 12 Stems of Fresh Cut Red Roses in a Free Designer Glass Vase	1	0	1	Expedited	Brothers of Mercy Nursing 3W  GRACE NORMAN	10570 BERGTOLD RD RM 317 - 3 WEST			CLARENCE	NY	14031-2105	US			false		
112-3549089-7469836	59118571147234	2020-10-29T03:25:47+00:00	2020-10-28T20:25:47-07:00	2020-10-29T03:52:29+00:00	2020-10-31T06:59:59+00:00	-2	lczz1jwb0l7xqhm@marketplace.amazon.com	Vibhav	+1 213-442-1463 ext. 76258	ABM022	Delivery by Friday | Purple Extravagance Bouquet by Arabella Bouquets	1	0	1	Expedited	Manish Bhandari	Apartment 908	The Kimpton Schofeld hotel		Cleveland	Ohio	44115	US		Dearest Radhika,  Happy birthday! Wishing you much laughter, love, health, and happiness. Hope to celebrate with you soon. From Vibhu, Vandana, and PJ	false		
112-2326690-2077005	16694212584578	2020-10-29T03:44:13+00:00	2020-10-28T20:44:13-07:00	2020-10-29T04:04:47+00:00	2020-10-31T06:59:59+00:00	-2	3x2jxnr849lmhgd@marketplace.amazon.com	Samuel	+1 619-854-2705 ext. 86996	ABR001	Delivery by Friday | Arabella Bouquets 12 Stems of Fresh Cut Red Roses in a Free Designer Glass Vase	1	0	1	Expedited	Tania Torres	7939 PINEY WOOD CT			INDIANAPOLIS	IN	46214-1532	US		Enjoy your gift! From Samuel	false		
113-5770303-6653800	66972045404154	2020-10-29T04:28:20+00:00	2020-10-28T21:28:20-07:00	2020-10-29T04:48:10+00:00	2020-10-31T06:59:59+00:00	-2	cbzxcylg8p67b62@marketplace.amazon.com	Caleb	+1 602-671-6610 ext. 45184	ABR0022	Delivery by Friday | Arabella Farm Direct Bouquet of 12 Fresh Cut Pink Roses with a Free Glass Vase	1	0	1	Expedited	Caleb	20325 JOY LN			LYNWOOD	IL	60411-1061	US			false		
111-7084007-9737055	07791748032930	2020-10-29T04:35:49+00:00	2020-10-28T21:35:49-07:00	2020-10-29T05:06:06+00:00	2020-10-31T06:59:59+00:00	-2	ggx804dhsr0hq51@marketplace.amazon.com	tina gruenstern	+1 929-436-4790 ext. 45905	ABR004	Arabella Farm Direct Bouquet of 12 Fresh Cut Yellow Roses with a Free Glass Vase	1	0	1	Expedited	Cathie Seffern	N5827 rock wood court			Fond du lac	Wi	54935	US			false		
112-1562655-7025064	60469112636002	2020-10-29T05:16:02+00:00	2020-10-28T22:16:02-07:00	2020-10-29T05:44:16+00:00	2020-10-31T06:59:59+00:00	-2	qy285dbstx5gfm2@marketplace.amazon.com	John	+1 213-442-1463 ext. 84526	ABR0022	Delivery by Friday | Arabella Farm Direct Bouquet of 12 Fresh Cut Pink Roses with a Free Glass Vase	1	0	1	Expedited	Marcia crowder	303 CLARK AVE EDGERTON MO 64444			EDGERTON	MO	64444-9133	US			false		
112-6710560-6083469	19990447375706	2020-10-29T06:34:24+00:00	2020-10-28T23:34:24-07:00	2020-10-29T06:55:12+00:00	2020-10-31T06:59:59+00:00	-2	dw7g4qv0lt27576@marketplace.amazon.com	Cynthia Lane	+1 619-854-2705 ext. 86488	ABR0022	Delivery by Friday | Arabella Farm Direct Bouquet of 12 Fresh Cut Pink Roses with a Free Glass Vase	1	0	1	Expedited	Brenda Hopkins	963 Regents Park			Monroe	Michigan	48162	US		Hi Brenda, Enjoy your gift! From Cynthia Lane	false		
113-3713604-8093853	68454751061650	2020-10-29T06:37:00+00:00	2020-10-28T23:37:00-07:00	2020-10-29T07:04:18+00:00	2020-10-31T06:59:59+00:00	-2	18ycdw7cj71g25b@marketplace.amazon.com	Alexander	+1 602-671-6610 ext. 64535	ABR0022	Delivery by Friday | Arabella Farm Direct Bouquet of 12 Fresh Cut Pink Roses with a Free Glass Vase	1	0	1	Expedited	Alice Robertson	345 WEST ST			BEREA	OH	44017-2333	US			false		
112-3522504-7221860	33944875473354	2020-10-29T08:43:31+00:00	2020-10-29T01:43:31-07:00	2020-10-29T08:54:09+00:00	2020-11-03T07:59:59+00:00	-5	r717vdwl5lkgf6y@marketplace.amazon.com	Kim	+1 602-671-6610 ext. 59040	ABR0022	Delivery by Friday | Arabella Farm Direct Bouquet of 12 Fresh Cut Pink Roses with a Free Glass Vase	1	0	1	Expedited	Sylvia Love	5208 N 48TH AVE			OMAHA	NE	68104-2377	US		Just want you to know that I’m thinking about you. Keep those spirits high and celebrate every small step toward recovery! You’re stronger than you know, and you have a lot of people rooting for you. Never forget that. Enjoy! From Louise	false		
114-2227668-3539417	37134256355698	2020-10-29T11:23:16+00:00	2020-10-29T04:23:16-07:00	2020-10-29T11:52:26+00:00	2020-11-03T07:59:59+00:00	-5	3hplc8ybszjpbcn@marketplace.amazon.com	Rizalino Bacani	+1 213-442-1463 ext. 56985	ABM022	Delivery by Friday | Purple Extravagance Bouquet by Arabella Bouquets	1	0	1	Expedited	Rizalino Bacani	c/o Remedios Bacani Bonagua	220 C First Avenue Apt 208		Daly City	California	94014	US		Happy Birthday for the best Mom of all times!!! We love you always! Riz, Precy & Nielda From Rizalino Bacani	false		
112-3708716-8192237	26613150392298	2020-10-29T12:14:24+00:00	2020-10-29T05:14:24-07:00	2020-10-29T12:43:24+00:00	2020-11-03T07:59:59+00:00	-5	ymndb3mv7qkwtds@marketplace.amazon.com	Robin Sandor	+1 213-442-1463 ext. 59525	ABR0033	Delivery by Friday | Arabella Farm Direct Bouquet of 12 Fresh Cut Orange Roses with a Free Glass Vase	1	0	1	Expedited	Kathy Voight	65 KINGS WAY			PAWLING	NY	12564-2162	US		We love you. From Audra & Robin	false		
