order-id	order-item-id	purchase-date	payments-date	reporting-date	promise-date	days-past-promise	buyer-email	buyer-name	buyer-phone-number	sku	product-name	quantity-purchased	quantity-shipped	quantity-to-ship	ship-service-level	recipient-name	ship-address-1	ship-address-2	ship-address-3	ship-city	ship-state	ship-postal-code	ship-country	gift-wrap-type	gift-message-text	is-business-order	purchase-order-number	price-designation
112-7485365-2550606	06398240247338	2020-10-28T17:58:03+00:00	2020-10-28T10:58:03-07:00	2020-10-28T18:28:18+00:00	2020-10-31T06:59:59+00:00	-1	0q5pyh209h24dbc@marketplace.amazon.com	rich egan	+1 602-671-6610 ext. 41572	ABR0022	Delivery by Friday | Arabella Farm Direct Bouquet of 12 Fresh Cut Pink Roses with a Free Glass Vase	1	0	1	Expedited	Marriott	ATTN JASMINE MITCHELL	1818 N 90TH ST		OMAHA	NE	68114-1315	US			false		
114-9038970-5320251	37723748247386	2020-10-28T18:01:31+00:00	2020-10-28T11:01:31-07:00	2020-10-28T18:31:10+00:00	2020-10-31T06:59:59+00:00	-1	vy3w5ht47463jdp@marketplace.amazon.com	Jasmine Hopkins	+1 929-436-4790 ext. 51791	ABM0033	Delivery by Monday | Arabella Farm Direct Bouquet of Fresh Cut White Hydrangea with a Free Glass Vase	1	0	1	Expedited	Shirley Hopkins	13029 CHIMNEY STONE CT			RICHMOND	VA	23233-7519	US		Rich used to choose Hydrangeas. The flowers for our 1st date, bouquet for our wedding, bush in the store on a random Tues. I'm sharing these with you so you can feel his love too. Thank you for raising the love of my life. From Jazz	false		
114-0726067-6049047	09743765101250	2020-10-28T18:33:26+00:00	2020-10-28T11:33:26-07:00	2020-10-28T18:55:24+00:00	2020-10-31T06:59:59+00:00	-1	9d4mj29dwjpk5gc@marketplace.amazon.com	angelica	+1 480-618-5344 ext. 08325	ABM020	Delivery by Friday | The Sunset Bouquet by Arabella Bouquets	1	0	1	Expedited	Barbra Butler	2553 H. Westminster Ln.			Boise	ID	83704	US		Happy Birthday Grandma!! You are fearfully and wonderfully made! Hope you have the most beautiful blessed day. We love you and miss you! God bless! From Caroline, Jocelyn, Teddy & Angelica From Caroline, Angelica, Teddy & Jocelyn	false		
114-0374891-1741819	47693615529818	2020-10-28T18:44:15+00:00	2020-10-28T11:44:15-07:00	2020-10-28T19:02:13+00:00	2020-10-31T06:59:59+00:00	-1	fsrf4ywzvhzjs16@marketplace.amazon.com	David J. Corrigan	+1 213-442-1463 ext. 58548	ABM022	Delivery by Friday | Purple Extravagance Bouquet by Arabella Bouquets	1	0	1	Expedited	Mr. & Mrs. Frank Austin	31 HAMPTON CT			ORCHARD PARK	NY	14127-3461	US		In loving memory of your dear mother and her passion for flowers and gardening. From Dave & Judy Corrigan	false		
113-9491599-0887415	68996471502162	2020-10-28T18:41:38+00:00	2020-10-28T11:41:38-07:00	2020-10-28T19:04:49+00:00	2020-10-31T06:59:59+00:00	-1	2n82cmqh36r5pvq@marketplace.amazon.com	PMT	+1 480-618-5344 ext. 98255	ABM022	Delivery by Friday | Purple Extravagance Bouquet by Arabella Bouquets	1	0	1	Expedited	Hamid  Alai	1404 JOSEPHINE ST			NEW ORLEANS	LA	70130-5323	US		Happy Birthday Lizzie! From Parveen, Ali, Jeila	false		
113-3007648-7377017	35950885123426	2020-10-28T19:18:12+00:00	2020-10-28T12:18:12-07:00	2020-10-28T19:43:19+00:00	2020-10-31T06:59:59+00:00	-1	wp5yk69hh7kc31l@marketplace.amazon.com	KURT PETERSON	+1 619-854-2705 ext. 31498	ABM022	Delivery by Friday | Purple Extravagance Bouquet by Arabella Bouquets	1	0	1	Expedited	ALAINA PETERSON	26 PINE CHIP CT			NOTTINGHAM	MD	21236-3542	US		Happy Birthday Peanut!  ...they were out of Titleists so I hope these will do!    Love you, Dad From KURT PETERSON	false		
112-7373479-0297846	67858496802746	2020-10-28T19:21:53+00:00	2020-10-28T12:21:53-07:00	2020-10-28T19:48:50+00:00	2020-10-31T06:59:59+00:00	-1	rw4b49zzjsrdw06@marketplace.amazon.com	Lara Hunsberger	+1 619-854-2705 ext. 39776	ABM022	Delivery by Friday | Purple Extravagance Bouquet by Arabella Bouquets	1	0	1	Expedited	Janet Kephart	440 GULF BLVD			BELLEAIR SHORES	FL	33786-3201	US		We are so glad you are home and feeling better!!  We love you!! From Love, David, Lara, Jeremy & Jamieson From David, Lara, Jeremy & Jamieson	false		
114-5059078-5649824	34595669610426	2020-10-28T19:41:22+00:00	2020-10-28T12:41:22-07:00	2020-10-28T20:13:40+00:00	2020-10-31T06:59:59+00:00	-1	12wt5bxykbq54cl@marketplace.amazon.com	Debra gonzalez	+1 480-618-5344 ext. 14979	ABR012	Delivery by Monday | Arabella Farm Direct Bouquet of 18 Fresh Cut Pink Roses with a Free Glass Vase	1	0	1	Expedited	Debra gonzalez	600 ASH ST			WINNETKA	IL	60093-2661	US			false		
112-1726632-0156268	38518125491426	2020-10-28T20:01:23+00:00	2020-10-28T13:01:23-07:00	2020-10-28T20:27:52+00:00	2020-10-31T06:59:59+00:00	-1	bgfmnq8vfz8q4br@marketplace.amazon.com	April L. Healey	+1 602-671-6610 ext. 88636	ABR0055	Delivery by Friday | Arabella Farm Direct Bouquet of 12 Stems of Fresh Cut Hot Pink Roses in a Free Designer Glass Vase	1	0	1	Expedited	Deborah Larson	14418 62ND ST SE			SHELDON	ND	58068-9755	US		Hi Deb!  Hope you are feeling better every hour, but REST and don’t rush it.  Love you!  April	false		
112-6746330-5361825	53643672582602	2020-10-28T20:15:29+00:00	2020-10-28T13:15:29-07:00	2020-10-28T20:38:13+00:00	2020-10-31T06:59:59+00:00	-1	f20fym6qc8khc0w@marketplace.amazon.com	kathy korzeb	+1 213-442-1463 ext. 17105	ABM022	Delivery by Friday | Purple Extravagance Bouquet by Arabella Bouquets	1	0	1	Expedited	Mrs. Jean Hegdus	18 FOX RUNNE			ROBBINSVILLE	NJ	08691-3647	US		Hello Jean  Happy Birthday!  Love the KORZEBS💕💕💕	false		
111-2778647-3822621	23585444833946	2020-10-28T21:02:24+00:00	2020-10-28T14:02:24-07:00	2020-10-28T21:27:34+00:00	2020-10-31T06:59:59+00:00	-1	6tf9qd1yzz1566w@marketplace.amazon.com	Babak Ghiasi	+1 929-436-4790 ext. 33284	ABR0022	Delivery by Friday | Arabella Farm Direct Bouquet of 12 Fresh Cut Pink Roses with a Free Glass Vase	1	0	1	Expedited	Elena Ghiassi	1030 S VIA DE ROSA			ANAHEIM	CA	92807-4521	US		happy birthday Elena jan From Maman Bozorg	false		
111-7394606-3541845	46161133141842	2020-10-28T21:05:24+00:00	2020-10-28T14:05:24-07:00	2020-10-28T21:34:56+00:00	2020-10-31T06:59:59+00:00	-1	c8h4nch5qkhr76x@marketplace.amazon.com	Jonathan Gacek	+1 929-436-4790 ext. 88746	ABM022	Delivery by Friday | Purple Extravagance Bouquet by Arabella Bouquets	1	0	1	Standard	BioTrans - Attn: Terry Costa	15 JONATHAN DR STE 1			BROCKTON	MA	02301-5566	US		Thinking of you! We miss you! Keep feeling with your fingers & stay healthy! From Marlo & Jon Gacek	false		
114-9573619-4927443	47419069384658	2020-10-28T21:24:13+00:00	2020-10-28T14:24:13-07:00	2020-10-28T21:49:54+00:00	2020-10-31T06:59:59+00:00	-1	g6qc32c1fqz52jj@marketplace.amazon.com	Sheryl Thompson	+1 619-854-2705 ext. 34858	ABR013	Delivery by Monday | Arabella Farm Direct Bouquet of 18 Fresh Cut Yellow Roses with a Free Glass Vase	1	0	1	Standard	Savannah Lozano	910 E 5TH ST # 211			TUCSON	AZ	85719-5006	US		Happy 18th Birthday Luv Bug! You're 18 years of specialness! Time to look ahead to the possibilities the future holds! We love you so much!! From Grandma, Mom & Auntie Alicia From Sheryl Thompson	false		
114-0094787-4245854	28552614374362	2020-10-28T22:10:57+00:00	2020-10-28T15:10:57-07:00	2020-10-28T22:30:24+00:00	2020-10-31T06:59:59+00:00	-1	6k3n987px86s9zz@marketplace.amazon.com	Diane Emich	+1 415-851-9136 ext. 58850	ABM010	Delivery by Friday | The Spring Fling Bouquet by Arabella Bouquets with a Free Designer Glass Vase	1	0	1	Expedited	Abigail Emich	1355 17TH ST NW APT 819			WASHINGTON	DC	20036-1940	US		Abigail,  Love you, miss you, and I hope all is well.  I am looking forward to your homecoming next month  Take care of yourself.   Love you,  Mom (and Dad) From Diane Emich	false		
112-6329728-5939431	40765418872626	2020-10-28T22:21:57+00:00	2020-10-28T15:21:57-07:00	2020-10-28T22:52:14+00:00	2020-10-31T06:59:59+00:00	-1	vv6qw0zlw2qm33f@marketplace.amazon.com	Jamesp	+1 929-436-4790 ext. 14147	ABM010	Delivery by Friday | The Spring Fling Bouquet by Arabella Bouquets with a Free Designer Glass Vase	1	0	1	Expedited	Grossmont Post Acute Care c/o Joan Patula rm 29b	8787 CENTER DR RM 29B			LA MESA	CA	91942-3034	US			false		
111-1901165-6401845	12181064972666	2020-10-28T22:32:05+00:00	2020-10-28T15:32:05-07:00	2020-10-28T23:01:42+00:00	2020-10-31T06:59:59+00:00	-1	hg9zjhmwbzpd1hb@marketplace.amazon.com	Peter Richards	+1 619-854-2705 ext. 50031	ABM022	Delivery by Friday | Purple Extravagance Bouquet by Arabella Bouquets	1	0	1	Expedited	Peter Richards	13895 122ND ST			FELLSMERE	FL	32948-6410	US			false		
112-5435515-3750634	64222239270554	2020-10-28T23:16:52+00:00	2020-10-28T16:16:52-07:00	2020-10-28T23:46:50+00:00	2020-10-31T06:59:59+00:00	-1	fxbk7mc2hcqk6vh@marketplace.amazon.com	Rob Kemp	+1 929-436-4790 ext. 12239	ABR0066	Delivery by Friday | Arabella Bouquets 12 Stems of Fresh Cut White Roses in a Free Designer Glass Vase	1	0	1	Expedited	Felicia	314 FELDON DR			CRESTVIEW	FL	32536-9281	US			false		
111-7634334-6254600	28352978822402	2020-10-28T23:46:32+00:00	2020-10-28T16:46:32-07:00	2020-10-28T23:47:28+00:00	2020-10-31T06:59:59+00:00	-1	3dtc9jvxxg0k5tc@marketplace.amazon.com	Sue & Tim Tobin	+1 619-854-2705 ext. 13634	ABR013	Delivery by Monday | Arabella Farm Direct Bouquet of 18 Fresh Cut Yellow Roses with a Free Glass Vase	1	0	1	Expedited	Yvette Haralson	200 WILDERNESS RD			GLASGOW	KY	42141-2068	US		Dear Yvette,  We were shocked to hear about Bob's passing and know how much you miss him. He was an exceptional husband and father. Please accept our deepest condolences. Love, Sue and Tim From Sue & Tim Tobin	false		
114-2480301-1839447	18721410081066	2020-10-28T23:46:32+00:00	2020-10-28T16:46:32-07:00	2020-10-29T00:12:51+00:00	2020-10-31T06:59:59+00:00	-1	6p3k536f8ns7jqq@marketplace.amazon.com	Rajiv Mallipudi	+1 480-618-5344 ext. 90127	ABM022	Delivery by Friday | Purple Extravagance Bouquet by Arabella Bouquets	1	0	1	Expedited	ROB BUTLER	6 ROLLING MEADOW RD			MADISON	CT	06443-2352	US		Dear Sandy and Rob, Sorry for the lost of your mother and mother-in-law Jeanne. May she rest in peace and her memory carry on in your lives. I wish you and your family well during this challenging time. From Rajiv Mallipudi	false		
114-0075097-9060222	64987588349522	2020-10-29T00:10:20+00:00	2020-10-28T17:10:20-07:00	2020-10-29T00:39:50+00:00	2020-10-31T06:59:59+00:00	-1	2zwmw88krmkm0d5@marketplace.amazon.com	Latriece	+1 929-436-4790 ext. 47094	ABR0022	Delivery by Friday | Arabella Farm Direct Bouquet of 12 Fresh Cut Pink Roses with a Free Glass Vase	1	0	1	Expedited	Mia Powers	4418 LAKEVIEW DR			TEMPLE HILLS	MD	20748-4939	US		Dear Mia, I want to express my condolences to your family. Please know you are in my prayers. From Latriece	false		
113-5610887-5409029	60068021880314	2020-10-29T00:49:35+00:00	2020-10-28T17:49:35-07:00	2020-10-29T01:18:59+00:00	2020-10-31T06:59:59+00:00	-1	rytcydgyhns90cy@marketplace.amazon.com	Melissa Johnston	+1 602-671-6610 ext. 64109	ABM022	Delivery by Friday | Purple Extravagance Bouquet by Arabella Bouquets	1	0	1	Expedited	Susan Cazrkowski	217 MEMORY LN			DOVER	DE	19901-2884	US		Happy Anniversary, Mom and Dad!  Love, Melissa, Mark, and Jerry From Melissa Johnston	false		
112-4549904-2290611	13037963915954	2020-10-29T01:01:47+00:00	2020-10-28T18:01:47-07:00	2020-10-29T01:28:55+00:00	2020-10-31T06:59:59+00:00	-1	53vmcvfkkgwqzpl@marketplace.amazon.com	John Bailey	+1 602-671-6610 ext. 89950	ABR0022	Delivery by Friday | Arabella Farm Direct Bouquet of 12 Fresh Cut Pink Roses with a Free Glass Vase	1	0	1	Expedited	Keshia Bailey	3305 EVENING BREEZE WAY			PFLUGERVILLE	TX	78660-3689	US		Hi Keshia, Enjoy your gift! From Carolyn and John  We love you❤️🌹	false		
112-5477243-8923417	51504747098690	2020-10-29T01:51:02+00:00	2020-10-28T18:51:02-07:00	2020-10-29T02:15:04+00:00	2020-10-31T06:59:59+00:00	-1	6jtx8j81dqhrnc3@marketplace.amazon.com	Carolyn Henderson	+1 602-671-6610 ext. 04624	ABR0022	Delivery by Friday | Arabella Farm Direct Bouquet of 12 Fresh Cut Pink Roses with a Free Glass Vase	1	0	1	Standard	Kiana Matsuura	15185 MARQUETTE ST UNIT C			MOORPARK	CA	93021-2512	US		Happy Birthday Kiana!! Hope you have a fun day and a healthy year ahead!! Love, Grandma and Grandpa From Carolyn Henderson	false		
113-4232411-1489032	69205880860578	2020-10-29T02:37:50+00:00	2020-10-28T19:37:50-07:00	2020-10-29T02:57:45+00:00	2020-10-31T06:59:59+00:00	-1	5mx0nc9kymrw8tv@marketplace.amazon.com	Manuel Velez	+1 213-442-1463 ext. 36675	ABM022	Delivery by Friday | Purple Extravagance Bouquet by Arabella Bouquets	1	0	1	Expedited	Andrea Velez	594 LAKE WILDMERE CV			LONGWOOD	FL	32750-5511	US		Andrea,  Age ain't nothing but a number.  Your love and dedication to your family and friends is what makes you special.  God only created one YOU and we are happy you are in our life. Happy Birthday!!! From Stef, Manny, & Tino	false		
113-4545385-2336246	55296444749730	2020-10-29T02:23:51+00:00	2020-10-28T19:23:51-07:00	2020-10-29T02:58:44+00:00	2020-10-31T06:59:59+00:00	-1	8ndfp1l7431l5gm@marketplace.amazon.com	elizabeth	+1 480-618-5344 ext. 75649	ABR0022	Delivery by Friday | Arabella Farm Direct Bouquet of 12 Fresh Cut Pink Roses with a Free Glass Vase	1	0	1	Expedited	Joann Morrison	5829 CONCORD LN			THE COLONY	TX	75056-7123	US		Sorry, I am late, but it is 2020.   Have a Happy Unbirthday sweet lady Love you From la jefa	false		
112-2712412-9384251	40527777857682	2020-10-29T02:36:15+00:00	2020-10-28T19:36:15-07:00	2020-10-29T03:05:15+00:00	2020-10-31T06:59:59+00:00	-1	2fzg273t6b78hrh@marketplace.amazon.com	Dara Brady	+1 213-442-1463 ext. 39065	ABM021	Delivery by Monday | The Joyous Bouquet by Arabella Bouquets	1	0	1	Expedited	Joni Okamoto	934 VAN AUKEN CIR			PALO ALTO	CA	94303-3841	US		Glad you are feeling better! Hope this is better than a jumbo barf bag! From Dara, Erika and Franklin	false		
114-4474684-6787409	45139218684778	2020-10-29T03:16:15+00:00	2020-10-28T20:16:15-07:00	2020-10-29T03:44:11+00:00	2020-10-31T06:59:59+00:00	-1	ljffl87q3rlj3dx@marketplace.amazon.com	Jackson Ennels	+1 480-618-5344 ext. 89728	ABR0022	Delivery by Friday | Arabella Farm Direct Bouquet of 12 Fresh Cut Pink Roses with a Free Glass Vase	1	0	1	Expedited	Allison Lang	1246 WEDGEWOOD DR			FORNEY	TX	75126-3849	US		I wish you the best in life From Jackson Ennels	false		
114-2999731-0648244	64934772032306	2020-10-29T03:23:42+00:00	2020-10-28T20:23:42-07:00	2020-10-29T03:48:35+00:00	2020-10-31T06:59:59+00:00	-1	wswc7pmt6vv2t9s@marketplace.amazon.com	Beba M. Cates	+1 415-851-9136 ext. 95103	ABR0055	Delivery by Friday | Arabella Farm Direct Bouquet of 12 Stems of Fresh Cut Hot Pink Roses in a Free Designer Glass Vase	1	0	1	Expedited	Brenda Howell	121 STEEPLECHASE CIR			WEST MONROE	LA	71291-9019	US		So sorry for the loss of your mother! I hope you get well soon. Take care of yourself.  Love you, Beba From Beba M. Cates	false		
111-7084007-9737055	07791748032930	2020-10-29T04:35:49+00:00	2020-10-28T21:35:49-07:00	2020-10-29T05:06:06+00:00	2020-10-31T06:59:59+00:00	-1	ggx804dhsr0hq51@marketplace.amazon.com	tina gruenstern	+1 929-436-4790 ext. 45905	ABR004	Arabella Farm Direct Bouquet of 12 Fresh Cut Yellow Roses with a Free Glass Vase	1	0	1	Expedited	Cathie Seffern	N5827 rock wood court			Fond du lac	Wi	54935	US			false		
112-1562655-7025064	60469112636002	2020-10-29T05:16:02+00:00	2020-10-28T22:16:02-07:00	2020-10-29T05:44:16+00:00	2020-10-31T06:59:59+00:00	-1	qy285dbstx5gfm2@marketplace.amazon.com	John	+1 213-442-1463 ext. 84526	ABR0022	Delivery by Friday | Arabella Farm Direct Bouquet of 12 Fresh Cut Pink Roses with a Free Glass Vase	1	0	1	Expedited	Marcia crowder	303 CLARK AVE EDGERTON MO 64444			EDGERTON	MO	64444-9133	US			false		
112-3522504-7221860	33944875473354	2020-10-29T08:43:31+00:00	2020-10-29T01:43:31-07:00	2020-10-29T08:54:09+00:00	2020-11-03T07:59:59+00:00	-4	r717vdwl5lkgf6y@marketplace.amazon.com	Kim	+1 602-671-6610 ext. 59040	ABR0022	Delivery by Friday | Arabella Farm Direct Bouquet of 12 Fresh Cut Pink Roses with a Free Glass Vase	1	0	1	Expedited	Sylvia Love	5208 N 48TH AVE			OMAHA	NE	68104-2377	US		Just want you to know that I’m thinking about you. Keep those spirits high and celebrate every small step toward recovery! You’re stronger than you know, and you have a lot of people rooting for you. Never forget that. Enjoy! From Louise	false		
112-8587654-5269809	00897724290690	2020-10-29T12:55:43+00:00	2020-10-29T05:55:43-07:00	2020-10-29T13:19:02+00:00	2020-11-03T07:59:59+00:00	-4	x4j8y5q82w0mdtg@marketplace.amazon.com	Maria	+1 602-671-6610 ext. 37260	ABM022	Delivery by Friday | Purple Extravagance Bouquet by Arabella Bouquets	1	0	1	Standard	Ed Almstedt	Cox's Double Eagle H-D, Pinehurst			North Carolina	NC	27376	US		Happy Birthday in advance baby ! I love you ❤️❤️❤️ From Maria	false		
114-4664296-2235433	57867282504594	2020-10-29T12:59:25+00:00	2020-10-29T05:59:25-07:00	2020-10-29T13:23:11+00:00	2020-11-03T07:59:59+00:00	-4	jsq8z0lpgh2t4kk@marketplace.amazon.com	Torlorean Young	+1 929-436-4790 ext. 53201	ABR0033	Delivery by Friday | Arabella Farm Direct Bouquet of 12 Fresh Cut Orange Roses with a Free Glass Vase	1	0	1	Expedited	Tj Xavier	196 QUAIL DR			VIDALIA	GA	30474-7064	US		Peace I leave with you, My peace I give to you; not as the world gives do I give to you. Let not your heart be troubled... John 14:27 From Torey Xavier Young	false		
113-7332409-7092240	39785899307650	2020-10-29T13:22:45+00:00	2020-10-29T06:22:45-07:00	2020-10-29T13:51:39+00:00	2020-11-03T07:59:59+00:00	-4	gf9zws4v4p9s8ss@marketplace.amazon.com	Denise P Lewis	+1 415-851-9136 ext. 57347	ABR0022	Delivery by Friday | Arabella Farm Direct Bouquet of 12 Fresh Cut Pink Roses with a Free Glass Vase	1	0	1	Expedited	Danesha Horten	1801 WELLS BRANCH PKWY APT 1710			AUSTIN	TX	78728-6919	US			false		
111-2754877-6208204	17237779473146	2020-10-29T13:46:20+00:00	2020-10-29T06:46:20-07:00	2020-10-29T14:11:59+00:00	2020-11-03T07:59:59+00:00	-4	7qc6pskrbj5y9gg@marketplace.amazon.com	Brittany L McMahon	+1 480-618-5344 ext. 49452	ABM022	Delivery by Friday | Purple Extravagance Bouquet by Arabella Bouquets	1	0	1	Expedited	Jennifer Hughes	15801 ROCKVILLE ST SW			LONACONING	MD	21539-1256	US		Jennifer, Rick, and Tommy, I am so very sorry for the loss of your mother. I am praying for you and sending so much love.   Love, Brittany From Brittany L McMahon	false		
113-2389871-9144268	43005308943522	2020-10-29T15:27:51+00:00	2020-10-29T08:27:51-07:00	2020-10-29T15:57:12+00:00	2020-11-03T07:59:59+00:00	-4	2swgwt4qgg3hj34@marketplace.amazon.com	Karen Wise	+1 213-442-1463 ext. 74877	ABR0055	Delivery by Friday | Arabella Farm Direct Bouquet of 12 Stems of Fresh Cut Hot Pink Roses in a Free Designer Glass Vase	1	0	1	Expedited	Shayla Minser	303 MATOT ST			BROOKINGS	OR	97415-9261	US		We love you and hope that you will feel better.  Love and hugs, Dad and Karen From Karen Wise	false		
114-0021446-1701820	30386378873794	2020-10-29T17:11:23+00:00	2020-10-29T10:11:23-07:00	2020-10-29T17:35:27+00:00	2020-11-03T07:59:59+00:00	-4	5f7b4fdfz85j1d2@marketplace.amazon.com	Helen Carr	+1 602-671-6610 ext. 37419	ABR0022	Delivery by Friday | Arabella Farm Direct Bouquet of 12 Fresh Cut Pink Roses with a Free Glass Vase	1	0	1	Expedited	Sally Kellar	84 BRYANT RD			JAFFREY	NH	03452-5406	US		Sorry I missed your Birthday. Thank U 4 all your kindness :) From Helen Carr	false		
112-0609978-0280212	35793727652522	2020-10-29T17:26:37+00:00	2020-10-29T10:26:37-07:00	2020-10-29T17:53:14+00:00	2020-11-03T07:59:59+00:00	-4	zfzjf5js289t6pv@marketplace.amazon.com	Jill Seidel	+1 480-618-5344 ext. 92543	ABR0033	Delivery by Friday | Arabella Farm Direct Bouquet of 12 Fresh Cut Orange Roses with a Free Glass Vase	1	0	1	Expedited	Carole Forman	9038 LAKES BLVD			WEST PALM BEACH	FL	33412-1560	US		Happy Birthday! Hope we can celebrate together soon! Miss & love you! From Jill & kids!	false		
114-9424003-7282665	70122532741522	2020-10-29T17:49:12+00:00	2020-10-29T10:49:12-07:00	2020-10-29T18:19:45+00:00	2020-11-03T07:59:59+00:00	-4	4q2w8ddyr2xkn3b@marketplace.amazon.com	Nikolay	+1 213-442-1463 ext. 89985	ABM022	Delivery by Saturday | Purple Extravagance Bouquet by Arabella Bouquets	1	0	1	Expedited	Lena Singer	3540 GATEWOOD LN			AURORA	IL	60504-3132	US			false		
113-6783552-5382641	43221993673346	2020-10-29T18:43:35+00:00	2020-10-29T11:43:35-07:00	2020-10-29T19:01:15+00:00	2020-11-03T07:59:59+00:00	-4	tz2p1ksqlxcvn41@marketplace.amazon.com	D. Gregory Howard	+1 602-671-6610 ext. 14956	ABM022	Delivery by Saturday | Purple Extravagance Bouquet by Arabella Bouquets	1	0	1	Standard	Georgina Phillips	15403 MALAYA PL			LAUREL	MD	20707-2975	US		Our sincerest condolences to you and your family. Greg, Kathi, Chip, Pam and Callie From D. Gregory Howard	false		
112-7316697-2216251	64082785564794	2020-10-29T18:36:13+00:00	2020-10-29T11:36:13-07:00	2020-10-29T19:05:52+00:00	2020-11-03T07:59:59+00:00	-4	sr3z7lxzydkj09f@marketplace.amazon.com	Raul Paredes	+1 602-671-6610 ext. 31509	ABR0022	Delivery by Saturday | Arabella Farm Direct Bouquet of 12 Fresh Cut Pink Roses with a Free Glass Vase	1	0	1	Expedited	Lupe Lemos	1909 GRIER ST			POMONA	CA	91766-1034	US		Happy Anniversary. I love you From Raul Paredes	false		
111-0215718-5545833	55864455161346	2020-10-29T18:39:29+00:00	2020-10-29T11:39:29-07:00	2020-10-29T19:06:24+00:00	2020-11-03T07:59:59+00:00	-4	w13k83800nvxksf@marketplace.amazon.com	Edward D. Strassman	+1 602-671-6610 ext. 31561	ABR0022	Delivery by Saturday | Arabella Farm Direct Bouquet of 12 Fresh Cut Pink Roses with a Free Glass Vase	1	0	1	Expedited	Mrs. Lindsey Strassman	331 E 92ND ST APT 4B			NEW YORK	NY	10128-5464	US		Dear Lindsey, We wish you a wonderful birthday! With love, Deirdre and Don From Edward D. Strassman	false		
113-8821364-1213053	49542848798634	2020-10-29T18:40:55+00:00	2020-10-29T11:40:55-07:00	2020-10-29T19:11:16+00:00	2020-11-03T07:59:59+00:00	-4	w0d08ngwzyrfl5v@marketplace.amazon.com	Bryan Jackson	+1 213-442-1463 ext. 82052	ABM010	Delivery by Saturday | The Spring Fling Bouquet by Arabella Bouquets with a Free Designer Glass Vase	1	0	1	Standard	Vanessa Hernandez	15462 LEFFINGWELL RD			WHITTIER	CA	90604-3207	US			false		
111-0251670-0995426	16906045335178	2020-10-29T19:13:46+00:00	2020-10-29T12:13:46-07:00	2020-10-29T19:30:26+00:00	2020-11-03T07:59:59+00:00	-4	0fksrv0l1yh95g9@marketplace.amazon.com	Tishisa Braziel	+1 929-436-4790 ext. 11687	ABR0055	Delivery by Saturday | Arabella Farm Direct Bouquet of 12 Stems of Fresh Cut Hot Pink Roses in a Free Designer Glass Vase	1	0	1	Standard	Lynette Armstrong	100 OZONE DR			HAMMOND	LA	70403-6018	US		We appreciate all the help regarding Dad's new apartment.  May God bless, sister, bountifully. From Love, Ty and Drellar	false		
112-5962405-4727419	16576344620634	2020-10-29T19:13:08+00:00	2020-10-29T12:13:08-07:00	2020-10-29T19:41:10+00:00	2020-11-03T07:59:59+00:00	-4	31h6rppwl1l3lhj@marketplace.amazon.com	Lynne	+1 619-854-2705 ext. 63700	ABM029	Delivery by Monday | The Day Dream Bouquet by Arabella Bouquets	1	0	1	Standard	Anna Tuerck	411 MORTON ST W			SAINT PAUL	MN	55107-2546	US		Hi Anna! Hope you are feeling better  Very soon! Love💕💕💕 Lynne & Dad	false		
114-1576721-7400250	08421687133842	2020-10-29T19:24:10+00:00	2020-10-29T12:24:10-07:00	2020-10-29T19:52:44+00:00	2020-11-03T07:59:59+00:00	-4	9sy0xjkcxjq0v06@marketplace.amazon.com	Durina	+1 619-854-2705 ext. 63454	ABR0055	Delivery by Saturday | Arabella Farm Direct Bouquet of 12 Stems of Fresh Cut Hot Pink Roses in a Free Designer Glass Vase	1	0	1	Standard	Delano	4356 RIVERVIEW AVE			WEST LINN	OR	97068-3533	US			false		
111-0053607-5123434	39625823096874	2020-10-29T19:29:41+00:00	2020-10-29T12:29:41-07:00	2020-10-29T19:56:19+00:00	2020-11-03T07:59:59+00:00	-4	f91dcb1nwx92f1d@marketplace.amazon.com	Matt Guthrie	+1 929-436-4790 ext. 72838	ABM010	Delivery by Saturday | The Spring Fling Bouquet by Arabella Bouquets with a Free Designer Glass Vase	1	0	1	Standard	Carla Guthrie	500 BROAD LEAF LN			MCKINNEY	TX	75072-5170	US		Hey Mom-O,  I'm so glad that you were able to get back on both feet again. Excuse the pun. I hope these brighten the days of your recovery.  LOVE YOU Matt (and Chelsea) From Matt Guthrie	false		
113-3827074-8922669	64365096430586	2020-10-29T19:58:53+00:00	2020-10-29T12:58:53-07:00	2020-10-29T20:22:01+00:00	2020-11-03T07:59:59+00:00	-4	2qyrz67pykfsztn@marketplace.amazon.com	pam takacs	+1 480-618-5344 ext. 00369	ABR0022	Delivery by Saturday | Arabella Farm Direct Bouquet of 12 Fresh Cut Pink Roses with a Free Glass Vase	1	0	1	Expedited	Mary shuff	834 GLEBE HARBOR DR			MONTROSS	VA	22520-4126	US		Dear Mary: My thoughts and prayers are with you this week as you lay Julie to rest. So sorry for your loss. She is gone to soon. Lots of love, Pam From pam takacs	false		
114-5388781-1394620	41518549894506	2020-10-29T19:55:41+00:00	2020-10-29T12:55:41-07:00	2020-10-29T20:24:18+00:00	2020-11-03T07:59:59+00:00	-4	2343btkdc55tg47@marketplace.amazon.com	jacqueline abston	+1 602-671-6610 ext. 91976	ABR014	Arabella Bouquets 18 Stems of Fresh Cut White Roses in a Free Designer Glass Vase	1	0	1	Standard	Dr. & Mrs. Kenny Brooks	213 FAIRHAVEN WAY			VALLEJO	CA	94591-7266	US			false		
113-9929488-7429068	52768300287370	2020-10-29T20:08:13+00:00	2020-10-29T13:08:13-07:00	2020-10-29T20:30:44+00:00	2020-11-03T07:59:59+00:00	-4	2qyrz67pykfsztn@marketplace.amazon.com	pam takacs	+1 602-671-6610 ext. 03604	ABR0022	Delivery by Saturday | Arabella Farm Direct Bouquet of 12 Fresh Cut Pink Roses with a Free Glass Vase	1	0	1	Expedited	Wendy Moyer	4603 CUTSHAW AVE			RICHMOND	VA	23230-3715	US		Dear Wendy: My thoughts and prayers are with you this Friday for Julie’s memorial. I am so sorry I can ‘t be there to celebrate her life. So very sorry for your loss. She is gone to soon. Lots of Love , Pam From pam takacs	false		
112-3466891-0608225	10001879928794	2020-10-29T20:01:35+00:00	2020-10-29T13:01:35-07:00	2020-10-29T20:31:48+00:00	2020-11-03T07:59:59+00:00	-4	wy9g3nh0bsfbny4@marketplace.amazon.com	John Armitage	+1 619-854-2705 ext. 88125	ABM022	Delivery by Saturday | Purple Extravagance Bouquet by Arabella Bouquets	1	0	1	Standard	Jerica Green	12840 E VIA DE PALMAS			CHANDLER	AZ	85249-3454	US			false		
114-9187200-0161856	50399058982082	2020-10-29T20:08:01+00:00	2020-10-29T13:08:01-07:00	2020-10-29T20:37:48+00:00	2020-11-03T07:59:59+00:00	-4	2343btkdc55tg47@marketplace.amazon.com	jacqueline abston	+1 213-442-1463 ext. 39320	ABR014	Arabella Bouquets 18 Stems of Fresh Cut White Roses in a Free Designer Glass Vase	1	0	1	Standard	Mr. Cedric Brooks and Family	410 LOCUST DR			VALLEJO	CA	94591-4223	US			false		
113-6725778-2205869	36222596074314	2020-10-29T20:31:25+00:00	2020-10-29T13:31:25-07:00	2020-10-29T21:00:27+00:00	2020-11-03T07:59:59+00:00	-4	m6xscjt2h4rq01t@marketplace.amazon.com	Elizabeth Bell	+1 213-442-1463 ext. 64523	ABR0022	Delivery by Saturday | Arabella Farm Direct Bouquet of 12 Fresh Cut Pink Roses with a Free Glass Vase	1	0	1	Expedited	Therese Zaffiro	11841 W DENIS AVE			HALES CORNERS	WI	53130-1782	US		Thinking of you! From Elizabeth And Joe	false		
112-3511774-3318662	69875360254618	2020-10-29T20:39:48+00:00	2020-10-29T13:39:48-07:00	2020-10-29T21:03:52+00:00	2020-11-03T07:59:59+00:00	-4	7mwn4ztlqz17bhf@marketplace.amazon.com	Jeanna Larsen	+1 213-442-1463 ext. 85115	ABM010	Delivery by Saturday | The Spring Fling Bouquet by Arabella Bouquets with a Free Designer Glass Vase	1	0	1	Standard	Tracy Curran	235 SADDLE RIDGE LN			FREDERICKSBURG	VA	22406-4162	US		Just wanting to send you a little pick me up after your surgery!  Hope you are feeling better and starting to heal!  we love you! From Jeanna and Kerry	false		
111-8490269-8904227	58242436571010	2020-10-29T20:38:50+00:00	2020-10-29T13:38:50-07:00	2020-10-29T21:04:41+00:00	2020-11-03T07:59:59+00:00	-4	dx9x8pjb09t5hdv@marketplace.amazon.com	Tipu	+1 619-854-2705 ext. 33323	ABM022	Delivery by Saturday | Purple Extravagance Bouquet by Arabella Bouquets	1	0	1	Standard	Haider Nazeer, MD	1326 S MICHIGAN AVE APT 3701			CHICAGO	IL	60605-3529	US		Dearest Herah  Welcome to your home . May you and Haider share happiness,, laughter ,peace and health by the blessings of Allah swt  lots of love From Tipu and Maliha	false		
112-9970452-8323462	23756386448970	2020-10-29T20:55:33+00:00	2020-10-29T13:55:33-07:00	2020-10-29T21:23:45+00:00	2020-11-03T07:59:59+00:00	-4	5dpg7mlq3t7l3l4@marketplace.amazon.com	Brooke Tachibana	+1 619-854-2705 ext. 24999	ABR0022	Delivery by Saturday | Arabella Farm Direct Bouquet of 12 Fresh Cut Pink Roses with a Free Glass Vase	1	0	1	Expedited	Nora McCaleb	249 SUEZ CANAL LN			SACRAMENTO	CA	95834-7508	US		Enjoy your gift! Happy birthday! From Brooke & Kevin	false		
111-4136662-6985823	56075614164410	2020-10-29T21:18:07+00:00	2020-10-29T14:18:07-07:00	2020-10-29T21:30:23+00:00	2020-11-03T07:59:59+00:00	-4	kmpdkmkmwcgf8nb@marketplace.amazon.com	Marta Gemme	+1 213-442-1463 ext. 89396	ABR0022	Delivery by Saturday | Arabella Farm Direct Bouquet of 12 Fresh Cut Pink Roses with a Free Glass Vase	1	0	1	Expedited	Arango Puerta Family	27846 MOONRIDGE DR			SUN CITY	CA	92585-8902	US			false		
111-1176301-3559406	04321066596018	2020-10-29T21:32:17+00:00	2020-10-29T14:32:17-07:00	2020-10-29T21:59:16+00:00	2020-11-03T07:59:59+00:00	-4	y9qb4wvtktyxpjq@marketplace.amazon.com	Sean Chimenti	+1 929-436-4790 ext. 64517	ABM022	Delivery by Saturday | Purple Extravagance Bouquet by Arabella Bouquets	1	0	1	Standard	Tara Evans	28 ELEUTHERA DR			BOYNTON BEACH	FL	33435-3307	US		Hope you get lots of rest. Speedy recovery. From The Chimenti Family	false		
114-4395341-5535406	16002269002850	2020-10-29T21:52:24+00:00	2020-10-29T14:52:24-07:00	2020-10-29T22:14:51+00:00	2020-11-03T07:59:59+00:00	-4	xx6ymgly05tlgk8@marketplace.amazon.com	chris persing	+1 619-854-2705 ext. 72564	ABR0022	Delivery by Saturday | Arabella Farm Direct Bouquet of 12 Fresh Cut Pink Roses with a Free Glass Vase	1	0	1	Expedited	Becky Witt	5701 SEASHORE DR			NEWPORT BEACH	CA	92663-2223	US		We heard you were having some other health issues. We hope this is resolved soon. Our prayers are with you. We love you! From Chris and Cherie	true		
112-9319993-9004226	53749905611986	2020-10-29T21:46:58+00:00	2020-10-29T14:46:58-07:00	2020-10-29T22:16:16+00:00	2020-11-03T07:59:59+00:00	-4	sjkztt3l6y4dyzy@marketplace.amazon.com	adrian	+1 619-854-2705 ext. 08305	ABM022	Delivery by Saturday | Purple Extravagance Bouquet by Arabella Bouquets	1	0	1	Standard	Madison	2216 MONTICELLO DR			DEKALB	IL	60115-9515	US			false		
113-0664933-7452259	43951856576498	2020-10-29T21:50:44+00:00	2020-10-29T14:50:44-07:00	2020-10-29T22:16:55+00:00	2020-11-03T07:59:59+00:00	-4	szjgmd5sxkwjp5w@marketplace.amazon.com	Elizabeth Klein	+1 602-671-6610 ext. 72621	ABM010	Delivery by Saturday | The Spring Fling Bouquet by Arabella Bouquets with a Free Designer Glass Vase	1	0	1	Standard	Adina M. Diamond	3024 MONTEREY ST			SAN MATEO	CA	94403-3249	US		Dearest Ned and Adina, Happy Happy 11th Anniversary! Hope this adds to the celebration! All our love, Mom and Dad From Elizabeth Klein	false		
114-0904879-1177036	35407632787050	2020-10-29T20:55:42+00:00	2020-10-29T13:55:42-07:00	2020-10-29T22:29:55+00:00	2020-11-03T07:59:59+00:00	-4	8hj4kf6wpgwyzjw@marketplace.amazon.com	Shawn Kaputa	+1 602-671-6610 ext. 30430	ABR001	Delivery by Saturday | Arabella Bouquets 12 Stems of Fresh Cut Red Roses in a Free Designer Glass Vase	1	0	1	Standard	Jade Green	204 HICKORY ST			MAHOMET	IL	61853-9219	US		I love when your close, love when away, I will love you tomorrow and will love you Today, I wrote your name in my heart and forever it will stay! Here is a little something just because I love you Jadorade! From Your Cameroono :)	false		
114-9395565-6605803	38933755164882	2020-10-29T22:02:36+00:00	2020-10-29T15:02:36-07:00	2020-10-29T22:30:45+00:00	2020-11-03T07:59:59+00:00	-4	4r3ldq4j5bfx953@marketplace.amazon.com	mike Dolan	+1 929-436-4790 ext. 15671	ABR001	Delivery by Saturday | Arabella Bouquets 12 Stems of Fresh Cut Red Roses in a Free Designer Glass Vase	1	0	1	Standard	Ivonne Aponte	946 SANDYWOOD DR			BRANDON	FL	33510-2554	US		Feel better Enjoy your gift! I miss everything about you . Especially seeing you every day at  breakfast time LOL From mike Dolan	false		
111-4159295-3916213	58776415603362	2020-10-29T22:24:20+00:00	2020-10-29T15:24:20-07:00	2020-10-29T22:40:08+00:00	2020-11-03T07:59:59+00:00	-4	llzqp8376zgkjr7@marketplace.amazon.com	John Leon Milner	+1 619-854-2705 ext. 95898	ABR001	Delivery by Saturday | Arabella Bouquets 12 Stems of Fresh Cut Red Roses in a Free Designer Glass Vase	1	0	1	Standard	LaShell Johnson	1327 H ST APT 321			LAS VEGAS	NV	89106-2980	US		Hi my love, this is from the depth of my heart Jonathan! I hope this little gift means a lot to you, put smile to your face, make you understand that I’m always thinking about you and our love keeps growing. I love you! From Turner	false		
111-2978451-0558667	27860972102586	2020-10-29T22:42:25+00:00	2020-10-29T15:42:25-07:00	2020-10-29T23:07:33+00:00	2020-11-03T07:59:59+00:00	-4	43r4dxq4xyzmc2s@marketplace.amazon.com	Cara Sarmiento	+1 619-854-2705 ext. 72305	ABR004	Delivery by Saturday | Arabella Farm Direct Bouquet of 12 Fresh Cut Yellow Roses with a Free Glass Vase	1	0	1	Standard	Ashton Sarmiento	714 SW 16TH AVE APT 108			GAINESVILLE	FL	32601-8591	US		Congratulations Ashton Davis Sarmiento Registered Nurse. We are so proud of you! God is good all the time! We glorify His Name for what He is doing in you! From Cara and Julio Sarmiento	false		
111-3706716-3809061	33333687033970	2020-10-29T23:03:14+00:00	2020-10-29T16:03:14-07:00	2020-10-29T23:30:29+00:00	2020-11-03T07:59:59+00:00	-4	76135rkywsfjx86@marketplace.amazon.com	MJ	+1 619-854-2705 ext. 15717	ABM010	Delivery by Saturday | The Spring Fling Bouquet by Arabella Bouquets with a Free Designer Glass Vase	1	0	1	Standard	Laura Rapp	5410 LEON LN			CROZET	VA	22932-3184	US		Thank you for fighting for us! From Your CDHS Friends	false		
111-2839656-9232222	60278421796194	2020-10-29T23:11:33+00:00	2020-10-29T16:11:33-07:00	2020-10-29T23:35:14+00:00	2020-11-03T07:59:59+00:00	-4	2bk571z459qgwzx@marketplace.amazon.com	Nancy Averill	+1 929-436-4790 ext. 20961	ABM010	Delivery by Saturday | The Spring Fling Bouquet by Arabella Bouquets with a Free Designer Glass Vase	1	0	1	Standard	Jackie Vaughn	211 BATTLE ST SW			VIENNA	VA	22180-6304	US		Hey Jackie- Here's to be BEST NEXT WEEK!!!  You are about to be on the mend and feeling amazing.  I am grateful for you and our friendship.  CHEERS!! Nancy & Blake From Nancy Averill	false		
112-2536482-5151451	63674782089514	2020-10-29T23:12:05+00:00	2020-10-29T16:12:05-07:00	2020-10-29T23:41:49+00:00	2020-11-03T07:59:59+00:00	-4	7r1s3xtfvwwslkl@marketplace.amazon.com	Susie	+1 415-851-9136 ext. 71993	ABR0022	Delivery by Saturday | Arabella Farm Direct Bouquet of 12 Fresh Cut Pink Roses with a Free Glass Vase	1	0	1	Expedited	Patrice Kopitzki	81 STATE ST APT 4B			HOLLEY	NY	14470-1213	US		We’re so sorry for tour loss. Love you From Susie & Isla	false		
114-4754325-4000261	45838131271730	2020-10-29T23:16:58+00:00	2020-10-29T16:16:58-07:00	2020-10-29T23:47:43+00:00	2020-11-03T07:59:59+00:00	-4	vgzsvj2ymsbk382@marketplace.amazon.com	Brian K Gibbons	+1 619-854-2705 ext. 74980	ABM022	Delivery by Saturday | Purple Extravagance Bouquet by Arabella Bouquets	1	0	1	Standard	Brian K  Gibbons	36 Cherry st			Somerville	Ma	02144	US			false		
113-4743100-2108213	32002008170450	2020-10-29T23:36:31+00:00	2020-10-29T16:36:31-07:00	2020-10-30T00:06:57+00:00	2020-11-03T07:59:59+00:00	-4	czg24lcsgb1qlq5@marketplace.amazon.com	Robert M. Sproul	+1 415-851-9136 ext. 15587	ABM017	Delivery by Monday | Arabella Bouquets 10 Stems of Blue Dendrobium Orchids in a Free Designer Glass Vase	1	0	1	Standard	Robert Sproul	1800 FORT PULASKI CT			DUMFRIES	VA	22026-2506	US			false		
113-7422128-0705047	31039820589210	2020-10-29T23:59:59+00:00	2020-10-29T16:59:59-07:00	2020-10-30T00:18:17+00:00	2020-11-03T07:59:59+00:00	-4	pnzzcf6xr9bxpsh@marketplace.amazon.com	William	+1 929-436-4790 ext. 53297	ABR0022	Delivery by Saturday | Arabella Farm Direct Bouquet of 12 Fresh Cut Pink Roses with a Free Glass Vase	1	0	1	Expedited	Kaylee Lane	90 GARVINS FALLS RD			CONCORD	NH	03301-5174	US		Hey Kaylee, Sorry you're going through a hard time. While these flowers are not as beautiful as you. Hopefully they can brighten up your day as much as you brighten everyone else's. From William	false		
113-7323692-2268228	04884829118522	2020-10-29T23:53:37+00:00	2020-10-29T16:53:37-07:00	2020-10-30T00:20:11+00:00	2020-11-03T07:59:59+00:00	-4	9t19gm904r5k36k@marketplace.amazon.com	Toyin Falusi	+1 929-436-4790 ext. 36755	ABM024	Delivery by Monday | The Beauty of Color Bouquet by Arabella Bouquets	1	0	1	Standard	Dr Ngozi Ezike	814 HILLBERRY CT			LA GRANGE	IL	60525-2647	US		Dear Dr Ezike ( Ngozi) We value. Admire and respect  all you do for the people of Illinois. Keep up the phenomenal job. We support you, Toyin Falusi Nwafor, MD and family From Toyin Falusi	false		
112-9089276-1106650	32607018703642	2020-10-30T00:06:04+00:00	2020-10-29T17:06:04-07:00	2020-10-30T00:34:06+00:00	2020-11-03T07:59:59+00:00	-4	rtlftfckb3dg8mm@marketplace.amazon.com	ANTHONY COLLINS	+1 929-436-4790 ext. 68702	ABR0022	Delivery by Saturday | Arabella Farm Direct Bouquet of 12 Fresh Cut Pink Roses with a Free Glass Vase	1	0	1	Expedited	Billie Jean Foster	760 CASTLEGLEN DR APT D			GARLAND	TX	75043-3853	US		Happy Birthday!!!  We love you.....Tony, Zoe, Grace, and D'Nette From Anthony Collins And D'Nette Daughtry	false		
112-6882713-1314657	62648894398090	2020-10-30T00:15:50+00:00	2020-10-29T17:15:50-07:00	2020-10-30T00:45:12+00:00	2020-11-03T07:59:59+00:00	-4	j3dh7gp842sx83f@marketplace.amazon.com	caren scalla	530966656	ABM010	Delivery by Saturday | The Spring Fling Bouquet by Arabella Bouquets with a Free Designer Glass Vase	1	0	1	Standard	Bessy knechtel	14260 MANATEE CIR			MAGALIA	CA	95954-9608	US		Just because you are you ! Thank you for all you do ! From Love your sis caren Scalla	false		
114-9849295-6123424	43973382896874	2020-10-30T00:30:24+00:00	2020-10-29T17:30:24-07:00	2020-10-30T01:00:52+00:00	2020-11-03T07:59:59+00:00	-4	4xjhjr0bnkrfgzn@marketplace.amazon.com	Zhonghong Li	+1 929-436-4790 ext. 37195	ABR0022	Delivery by Saturday | Arabella Farm Direct Bouquet of 12 Fresh Cut Pink Roses with a Free Glass Vase	1	0	1	Expedited	Bingyu Wu	THE COURTYARDS APARTMENTS	1780 BROADWAY ST		ANN ARBOR	MI	48105-3317	US			false		
114-2381970-1646608	11649059831906	2020-10-30T00:58:25+00:00	2020-10-29T17:58:25-07:00	2020-10-30T01:28:52+00:00	2020-11-03T07:59:59+00:00	-4	n2f1kqlqwqw2jd9@marketplace.amazon.com	john e cangro	+1 602-671-6610 ext. 76008	ABM022	Delivery by Saturday | Purple Extravagance Bouquet by Arabella Bouquets	1	0	1	Standard	Karen Cangro	56 LINMOUTH RD			MALVERNE	NY	11565-2117	US			false		
112-2026431-4988242	02194171330146	2020-10-30T01:12:45+00:00	2020-10-29T18:12:45-07:00	2020-10-30T01:39:34+00:00	2020-11-03T07:59:59+00:00	-4	0b1vxn5zmnsgjjv@marketplace.amazon.com	Erica Hart	+1 929-436-4790 ext. 10452	ABM022	Delivery by Saturday | Purple Extravagance Bouquet by Arabella Bouquets	1	0	1	Standard	Nora Harris	1730 N BARCELONA ST			PENSACOLA	FL	32501-2047	US		Hope these brighten your day as much as you brighten other’s. We love you so much and miss you! You and Peepaw always inspired our marriage. Thank you for everything you’ve done! From Erica Hart	false		
113-2880708-6399411	36792102122578	2020-10-30T01:17:27+00:00	2020-10-29T18:17:27-07:00	2020-10-30T01:43:22+00:00	2020-11-03T07:59:59+00:00	-4	bv4b1grtwnqmt0m@marketplace.amazon.com	Jeanne C. Buland	+1 602-671-6610 ext. 26135	ABR001	Delivery by Saturday | Arabella Bouquets 12 Stems of Fresh Cut Red Roses in a Free Designer Glass Vase	1	0	1	Standard	Olga and Cory Buland	129 W 77TH ST APT 3			NEW YORK	NY	10024-6921	US		Happy Anniversary!  Wish we could be there to celebrate with you!  Love,  (Grandma Jeanne and Grandpa Larry) From Jeanne C. Buland	false		
111-5684079-3561058	60962291661002	2020-10-30T01:23:28+00:00	2020-10-29T18:23:28-07:00	2020-10-30T01:52:52+00:00	2020-11-03T07:59:59+00:00	-4	jxt1bwtd5mz627q@marketplace.amazon.com	Samuel Ledwitz	+1 602-671-6610 ext. 40069	ABR001	Delivery by Saturday | Arabella Bouquets 12 Stems of Fresh Cut Red Roses in a Free Designer Glass Vase	1	0	1	Standard	Jane Riddle	1825 STOVER LN			MYRTLE POINT	OR	97458-1652	US		Hi Jane,   Hoping you had a wonderful birthday.   Love,  Samuel From Samuel Ledwitz	false		
111-8221404-1039431	67212492022626	2020-10-30T01:36:24+00:00	2020-10-29T18:36:24-07:00	2020-10-30T01:59:33+00:00	2020-11-03T07:59:59+00:00	-4	wj2v9psj44kcbxf@marketplace.amazon.com	arnoldo gomez jr	+1 929-436-4790 ext. 57392	ABR0022	Delivery by Saturday | Arabella Farm Direct Bouquet of 12 Fresh Cut Pink Roses with a Free Glass Vase	1	0	1	Expedited	Abilene Bryant	5824 BRETT DR UNIT A			FORT KNOX	KY	40121-2040	US		Hope you like this beautiful i couldn’t find 10 From Arnoldo Gomez JR	false		
113-7327183-4584254	08421205526170	2020-10-29T01:33:10+00:00	2020-10-28T18:33:10-07:00	2020-10-30T02:01:07+00:00	2020-11-03T07:59:59+00:00	-4	fk5m30c29hjdznh@marketplace.amazon.com	margaret violet	+1 619-854-2705 ext. 59557	ABM010	Delivery by Friday | The Spring Fling Bouquet by Arabella Bouquets with a Free Designer Glass Vase	1	0	1	Expedited	Amanda Lydon	22 AVON RD			NARBERTH	PA	19072-2304	US		Adam and Amanda, Happy 10th Anniversary to a fabulous couple, great parents and beautiful people! Love, mom and mike From margaret violet	false		
111-4943122-9614637	42763097896234	2020-10-30T01:32:21+00:00	2020-10-29T18:32:21-07:00	2020-10-30T02:02:40+00:00	2020-11-03T07:59:59+00:00	-4	k22t22fxp78t6pr@marketplace.amazon.com	José	+1 213-442-1463 ext. 49085	ABM020	Delivery by Saturday | The Sunset Bouquet by Arabella Bouquets	1	0	1	Standard	José Reyes	1396 N CLIFF VALLEY WAY NE	APT # 1396-G		ATLANTA	GA	30319-4292	US			false		
113-0406991-5752229	35924458931866	2020-10-30T01:50:33+00:00	2020-10-29T18:50:33-07:00	2020-10-30T02:20:40+00:00	2020-11-03T07:59:59+00:00	-4	0kvr1jzw662m2th@marketplace.amazon.com	Liz Kuhns	+1 602-671-6610 ext. 03231	ABM017	Delivery by Monday | Arabella Bouquets 10 Stems of Blue Dendrobium Orchids in a Free Designer Glass Vase	1	0	1	Standard	jane kuhns	12615 WHITHORN CT			PLYMOUTH	MI	48170-6912	US			false		
111-3599072-3585816	41637017670570	2020-10-30T02:04:54+00:00	2020-10-29T19:04:54-07:00	2020-10-30T02:35:08+00:00	2020-11-03T07:59:59+00:00	-4	fjbx2lwzv44qrrd@marketplace.amazon.com	Gene	+1 213-442-1463 ext. 54242	ABR0055	Delivery by Saturday | Arabella Farm Direct Bouquet of 12 Stems of Fresh Cut Hot Pink Roses in a Free Designer Glass Vase	1	0	1	Standard	Gene Lachner	3072 Killearn Pointe Ct.			Tallahassee	FL	32312	US			false		
112-4471948-8762656	35190088111802	2020-10-30T02:54:59+00:00	2020-10-29T19:54:59-07:00	2020-10-30T02:55:57+00:00	2020-11-03T07:59:59+00:00	-4	v1xbgvnjr9fhncb@marketplace.amazon.com	Daniel S Trigo	+1 213-442-1463 ext. 03397	ABR0022	Delivery by Saturday | Arabella Farm Direct Bouquet of 12 Fresh Cut Pink Roses with a Free Glass Vase	1	0	1	Expedited	Nichole Wedlund	2428 5TH ST NE APT 1			MINNEAPOLIS	MN	55418-5305	US		Hope you enjoy these pretty in pink flower's like my sis! From Tammie	false		
111-8489022-7619414	12366754139338	2020-10-30T02:34:12+00:00	2020-10-29T19:34:12-07:00	2020-10-30T03:03:07+00:00	2020-11-03T07:59:59+00:00	-4	v3xgm6dhlztj53p@marketplace.amazon.com	Gregory J Petitti	+1 602-671-6610 ext. 85160	ABM020	Delivery by Saturday | The Sunset Bouquet by Arabella Bouquets	1	0	1	Standard	Rachel Petitti	4607 WILCOX AVE			SAINT LOUIS	MO	63116-1337	US		Big hugs and kisses from Grandma, Grandpa, and Dad.  Love you lots.  Get well soon. From Gregory J Petitti	false		
112-3187253-5561814	48061873611530	2020-10-30T02:38:05+00:00	2020-10-29T19:38:05-07:00	2020-10-30T03:06:14+00:00	2020-11-03T07:59:59+00:00	-4	hwsf3fgmzdybklz@marketplace.amazon.com	Margaret Schneck	+1 619-854-2705 ext. 19286	ABB001	Delivery by Monday | Arabella Farm Direct Fresh Cut White Hydrangea	1	0	1	Standard	Colleen and Riley McCormick	1140 CENTINELA AVE			SANTA MONICA	CA	90403-2342	US		SO, SO PROUD AND HAPPY FOR YOU! Can’t wait to spend next chapter of your life w you! From Meg	false		
111-7124945-3837043	12059081316026	2020-10-30T03:41:08+00:00	2020-10-29T20:41:08-07:00	2020-10-30T04:00:48+00:00	2020-11-03T07:59:59+00:00	-4	5qflch575vxsrrb@marketplace.amazon.com	Janis R. Garmong	+1 929-436-4790 ext. 95639	ABM022	Delivery by Saturday | Purple Extravagance Bouquet by Arabella Bouquets	1	0	1	Standard	Mary Ann Rowley	C/O PAM REHABILITATION HOSPITAL OF ALLEN	1001 RAINTREE CIR		ALLEN	TX	75013-4912	US		Hi Mary, Thinking of you and wishing for a fast recovery!  Love you,  From Jan	false		
114-4985669-5057826	26996354000170	2020-10-30T03:32:41+00:00	2020-10-29T20:32:41-07:00	2020-10-30T04:01:00+00:00	2020-11-03T07:59:59+00:00	-4	qy27ttyqspjzyht@marketplace.amazon.com	Bruce	+1 480-618-5344 ext. 55074	ABR001	Delivery by Saturday | Arabella Bouquets 12 Stems of Fresh Cut Red Roses in a Free Designer Glass Vase	1	0	1	Standard	Bruce	10025 COUNTRY BROOK RD			BOCA RATON	FL	33428-4217	US			false		
114-4688657-5468247	41318697229970	2020-10-30T07:28:18+00:00	2020-10-30T00:28:18-07:00	2020-10-30T07:52:55+00:00	2020-11-04T07:59:59+00:00	-5	343x774yckg8c1w@marketplace.amazon.com	Kevin  A Brooker	+1 619-854-2705 ext. 28022	ABR0022	Delivery by Saturday | Arabella Farm Direct Bouquet of 12 Fresh Cut Pink Roses with a Free Glass Vase	1	0	1	Expedited	Mr. Gary and Cindy Brooker	24711 ARCHWAY LN			LAGUNA NIGUEL	CA	92677-3801	US		Bev, Enjoy your gift! Hope you get well soon. Love, Kevin, Eileen &kids From Kevin  A Brooker	false		
113-9286951-2956204	70268546890946	2020-10-30T07:27:38+00:00	2020-10-30T00:27:38-07:00	2020-10-30T07:54:09+00:00	2020-11-04T07:59:59+00:00	-5	2v7xh18xm4sk1vy@marketplace.amazon.com	Charlie Day	+1 480-618-5344 ext. 98002	ABR004	Delivery by Saturday | Arabella Farm Direct Bouquet of 12 Fresh Cut Yellow Roses with a Free Glass Vase	1	0	1	Standard	Catherine Day	3101 Imperial Dr			Gastonia	NC	28054-7252	US		Thank you for every hug, word of encouragement, and acts of love you've given me. From Charlie	false		
