order-id	order-item-id	purchase-date	payments-date	reporting-date	promise-date	days-past-promise	buyer-email	buyer-name	buyer-phone-number	sku	product-name	quantity-purchased	quantity-shipped	quantity-to-ship	ship-service-level	recipient-name	ship-address-1	ship-address-2	ship-address-3	ship-city	ship-state	ship-postal-code	ship-country	gift-wrap-type	gift-message-text	is-business-order	purchase-order-number	price-designation
113-4743100-2108213	32002008170450	2020-10-29T23:36:31+00:00	2020-10-29T16:36:31-07:00	2020-10-30T00:06:57+00:00	2020-11-03T07:59:59+00:00	-4	czg24lcsgb1qlq5@marketplace.amazon.com	Robert M. Sproul	+1 415-851-9136 ext. 15587	ABM017	Delivery by Monday | Arabella Bouquets 10 Stems of Blue Dendrobium Orchids in a Free Designer Glass Vase	1	0	1	Standard	Robert Sproul	1800 FORT PULASKI CT			DUMFRIES	VA	22026-2506	US			false		
113-0406991-5752229	35924458931866	2020-10-30T01:50:33+00:00	2020-10-29T18:50:33-07:00	2020-10-30T02:20:40+00:00	2020-11-03T07:59:59+00:00	-4	0kvr1jzw662m2th@marketplace.amazon.com	Liz Kuhns	+1 602-671-6610 ext. 03231	ABM017	Delivery by Monday | Arabella Bouquets 10 Stems of Blue Dendrobium Orchids in a Free Designer Glass Vase	1	0	1	Standard	jane kuhns	12615 WHITHORN CT			PLYMOUTH	MI	48170-6912	US			false		
112-0093765-8631429	08607212955802	2020-10-30T15:46:38+00:00	2020-10-30T08:46:38-07:00	2020-10-30T16:10:06+00:00	2020-11-04T07:59:59+00:00	-5	8h5mx3swh52r87h@marketplace.amazon.com	Estella Munoz	+1 602-671-6610 ext. 38850	ABM017	Delivery by Monday | Arabella Bouquets 10 Stems of Blue Dendrobium Orchids in a Free Designer Glass Vase	1	0	1	Standard	Josie Vasquez	237 JENSEN AVE			EL PASO	TX	79915-3807	US		Enjoy your gift! From Estella Munoz	false		
113-8767409-5623457	18875362879402	2020-10-30T18:10:04+00:00	2020-10-30T11:10:04-07:00	2020-10-30T18:32:17+00:00	2020-11-04T07:59:59+00:00	-5	dgmxz1vyrs2n577@marketplace.amazon.com	Storm Wojcik	+1 929-436-4790 ext. 36659	ABM010	Delivery by Tuesday | The Spring Fling Bouquet by Arabella Bouquets with a Free Designer Glass Vase	1	0	1	Expedited	alexa Wojcik	1245 WIMBELDON BLVD			COLUMBUS	OH	43228-9329	US			false		
113-7537306-1511465	59536292448882	2020-10-30T18:18:29+00:00	2020-10-30T11:18:29-07:00	2020-10-30T18:41:23+00:00	2020-11-04T07:59:59+00:00	-5	dgmxz1vyrs2n577@marketplace.amazon.com	Storm Wojcik	+1 213-442-1463 ext. 32808	ABM010	Delivery by Tuesday | The Spring Fling Bouquet by Arabella Bouquets with a Free Designer Glass Vase	1	0	1	Expedited	Kathryn Harrison	6108 WATERFIELD WAY			SAINT CLOUD	FL	34771-8845	US		Happy (late) Birthday! From Captain of the SS Butthead	false		
114-9791613-4295461	49032634240346	2020-10-30T18:24:34+00:00	2020-10-30T11:24:34-07:00	2020-10-30T18:47:43+00:00	2020-11-04T07:59:59+00:00	-5	z4r7zm5nv2vp5lt@marketplace.amazon.com	Oluwatoyin Ogunmuyiwa	+1 929-436-4790 ext. 31796	ABR0055	Arabella Farm Direct Bouquet of 12 Stems of Fresh Cut Hot Pink Roses in a Free Designer Glass Vase	1	0	1	Expedited	Victoria Olanrewaju	5925 N 10TH ST			PHILADELPHIA	PA	19141-3711	US		You may hold my hand for a while, but you hold my heart forever 💕 From Are You There?	false		
113-8202854-4360211	51750717121002	2020-10-30T18:19:33+00:00	2020-10-30T11:19:33-07:00	2020-10-30T18:48:38+00:00	2020-11-04T07:59:59+00:00	-5	nsbhwfnkzrkn9j9@marketplace.amazon.com	Ruffina F. Anklesaria	+1 602-671-6610 ext. 37796	ABR004	Delivery by Tuesday | Arabella Farm Direct Bouquet of 12 Fresh Cut Yellow Roses with a Free Glass Vase	1	0	1	Expedited	Janet Fatoke	1049 RESERVE WAY			INDIANAPOLIS	IN	46220-1884	US		Beloved Devi, Sending you a little sunshine with a lot of love, Ruffina From Ruffina F. Anklesaria	false		
112-0366042-4137073	58656249745322	2020-10-30T18:27:59+00:00	2020-10-30T11:27:59-07:00	2020-10-30T18:53:57+00:00	2020-11-04T07:59:59+00:00	-5	c11pzv0jj3y7gs1@marketplace.amazon.com	Stacey Czeck	+1 929-436-4790 ext. 75026	ABM0033	Delivery by Tuesday | Arabella Farm Direct Bouquet of Fresh Cut White Hydrangea with a Free Glass Vase	1	0	1	Expedited	Jim and Sue Grahek	10815 50TH CT N			PLYMOUTH	MN	55442-3009	US		Dear Sue and Jim, My heart aches for you during this difficult time. Please take good care of each other and know that Irene's legacy lives on in you! With Love, Stacey From Stacey Czeck	false		
111-2588886-6920258	21744673468330	2020-10-30T18:55:59+00:00	2020-10-30T11:55:59-07:00	2020-10-30T19:24:34+00:00	2020-11-04T07:59:59+00:00	-5	n3d7t10mbf88twh@marketplace.amazon.com	Amy	+1 480-618-5344 ext. 13279	ABM017	Delivery by Wednesday | Arabella Bouquets 10 Stems of Blue Dendrobium Orchids in a Free Designer Glass Vase	1	0	1	Expedited	Suk Friedhaber	13324 WARNER HILL RD			SOUTH WALES	NY	14139-9745	US		Hugs from Colorado. We love you Grandma! From Jacob & Lilana	false		
112-9110228-3439404	23757829099242	2020-10-30T19:13:07+00:00	2020-10-30T12:13:07-07:00	2020-10-30T19:38:57+00:00	2020-11-04T07:59:59+00:00	-5	d2dppnm4xg61tcg@marketplace.amazon.com	STEVEN JONES	+1 213-442-1463 ext. 06840	ABM010	Delivery by Tuesday | The Spring Fling Bouquet by Arabella Bouquets with a Free Designer Glass Vase	1	0	1	Expedited	Clarissa Knighten	2211 NW 62ND ST			KANSAS CITY	MO	64151-2174	US		Happy Birthday Clarissa I love you. From Sharon Jones	false		
114-9276067-6731465	22375030715370	2020-10-30T19:24:17+00:00	2020-10-30T12:24:17-07:00	2020-10-30T19:52:36+00:00	2020-11-04T07:59:59+00:00	-5	t1t10gx371vzdd5@marketplace.amazon.com	Jeanette Patterson	+1 619-854-2705 ext. 20367	ABM010	Delivery by Tuesday | The Spring Fling Bouquet by Arabella Bouquets with a Free Designer Glass Vase	1	0	1	Expedited	Cheryl Covington,  Agent	345 CYPRESS ST			FORT BRAGG	CA	95437-5407	US			false		
111-8475473-9909827	48422227593546	2020-10-30T19:45:29+00:00	2020-10-30T12:45:29-07:00	2020-10-30T20:07:57+00:00	2020-11-04T07:59:59+00:00	-5	2qb0t28zjdcfqf9@marketplace.amazon.com	Isaac Warshaw	+1 619-854-2705 ext. 91393	ABM022	Delivery by Tuesday | Purple Extravagance Bouquet by Arabella Bouquets	1	0	1	Expedited	Eileen & Peter Sudler	81 LOWERY LN			MENDHAM	NJ	07945-3404	US		Dear Eileen & Peter, A small token of appreciation from the boys for our first class flying accommodations up to Mass last weekend. It was a delightful trip and Daniel and your family are extremely generous to include us. From Isaac, Mitch & Chuck	false		
114-9135620-8369860	06475675055442	2020-10-30T20:15:44+00:00	2020-10-30T13:15:44-07:00	2020-10-30T20:36:20+00:00	2020-11-04T07:59:59+00:00	-5	1vq81j527pmlhyy@marketplace.amazon.com	Carlos Mesegue	+1 213-442-1463 ext. 35104	ABR012	Delivery by Tuesday | Arabella Farm Direct Bouquet of 18 Fresh Cut Pink Roses with a Free Glass Vase	1	0	1	Expedited	Yvonne Mesegue	2140 S DIXIE HWY STE 309			MIAMI	FL	33133-2461	US			false		
113-9491444-3392214	42095160869362	2020-10-30T20:08:04+00:00	2020-10-30T13:08:04-07:00	2020-10-30T20:37:19+00:00	2020-11-04T07:59:59+00:00	-5	v9vynf65ycg7lv1@marketplace.amazon.com	Kathy SIms Melton	+1 929-436-4790 ext. 49921	ABR0022	Delivery by Tuesday | Arabella Farm Direct Bouquet of 12 Fresh Cut Pink Roses with a Free Glass Vase	1	0	1	Expedited	Nora Fyffe	984 11TH ST			PASADENA	MD	21122-1791	US		Thinking of you my friend. I am always here ❤️ From Kathy SIms Melton	false		
113-6118333-0189843	56546004781290	2020-10-27T18:25:00+00:00	2020-10-27T11:25:00-07:00	2020-10-30T20:46:16+00:00	2020-11-04T07:59:59+00:00	-5	tgkp6hd3hvf4bjs@marketplace.amazon.com	Essey Woldemariam	+1 619-854-2705 ext. 73376	ABM022	Delivery by Thursday | Purple Extravagance Bouquet by Arabella Bouquets	1	0	1	Expedited	Serby Samson	12612 Brickyard Blvd			Beltsville	Md	20705	US		Just a small token of my love.  Te quiero From Essey Woldemariam	false		
113-3154602-8531467	18017994110026	2020-10-30T20:53:52+00:00	2020-10-30T13:53:52-07:00	2020-10-30T21:23:04+00:00	2020-11-04T07:59:59+00:00	-5	fgfrfjwkj6k6rrg@marketplace.amazon.com	Christen P. Embry	+1 602-671-6610 ext. 24702	ABM010	Delivery by Tuesday | The Spring Fling Bouquet by Arabella Bouquets with a Free Designer Glass Vase	1	0	1	Expedited	Judy Pudlewski	1005 BLOOMDALE DR			LAS CRUCES	NM	88005-1249	US		Get Well Soon, Mom!  Love, Chris, Shawn and Meri From Christen P. Embry	false		
113-0743967-8534601	64597130036754	2020-10-30T21:16:19+00:00	2020-10-30T14:16:19-07:00	2020-10-30T21:42:03+00:00	2020-11-04T07:59:59+00:00	-5	z6vqp428cdhfbdl@marketplace.amazon.com	Christina Rabbitz	+1 415-851-9136 ext. 31658	ABB014	Delivery by Tuesday | Arabella Bouquets | Farm Direct 48 Fresh Cut White Roses	1	0	1	Expedited	Lisa Rabbitz	51 MICHAELSON DR			MOUNT LAUREL	NJ	08054-1355	US		Happy Birthday Christina !!!!!  XOXOXO. From LOVE  MOM	false		
113-4911563-3330669	26483203872410	2020-10-30T21:21:25+00:00	2020-10-30T14:21:25-07:00	2020-10-30T21:51:48+00:00	2020-11-04T07:59:59+00:00	-5	k20l6qr64y0tyrj@marketplace.amazon.com	Gwendolyn Baker	+1 929-436-4790 ext. 66427	ABM022	Delivery by Tuesday | Purple Extravagance Bouquet by Arabella Bouquets	1	0	1	Expedited	Barbara Kenyon and Dana Turner	13059 SANDY PINE LN			CLERMONT	FL	34711-6566	US			false		
114-4202582-1156243	54188244551058	2020-10-30T21:44:52+00:00	2020-10-30T14:44:52-07:00	2020-10-30T22:11:11+00:00	2020-11-04T07:59:59+00:00	-5	6rgkmqnwhcdcrs8@marketplace.amazon.com	Sarah Mader	+1 480-618-5344 ext. 96276	ABM022	Delivery by Tuesday | Purple Extravagance Bouquet by Arabella Bouquets	1	0	1	Expedited	Jeanne Soule	5593 ROUTE 23C			PRATTSVILLE	NY	12468-5508	US		Happy birthday Mamacita! Love you always! From Sarah	false		
113-8620463-8931444	33684424110722	2020-10-30T21:59:59+00:00	2020-10-30T14:59:59-07:00	2020-10-30T22:35:25+00:00	2020-11-04T07:59:59+00:00	-5	p5mry8kfhkk57wd@marketplace.amazon.com	Jared Ross	+1 480-618-5344 ext. 90112	ABR012	Delivery by Tuesday | Arabella Farm Direct Bouquet of 18 Fresh Cut Pink Roses with a Free Glass Vase	1	0	1	Expedited	Jared Ross	1276 N WAYNE ST APT 1221			ARLINGTON	VA	22201-5857	US			false		
111-2987533-7565837	54511404115154	2020-10-30T22:16:59+00:00	2020-10-30T15:16:59-07:00	2020-10-30T22:43:41+00:00	2020-11-04T07:59:59+00:00	-5	0m9ztlddxf65bzj@marketplace.amazon.com	linda parker	+1 602-671-6610 ext. 80408	ABR0055	Delivery by Tuesday | Arabella Farm Direct Bouquet of 12 Stems of Fresh Cut Hot Pink Roses in a Free Designer Glass Vase	1	0	1	Expedited	linda parker	HOUSE 3905 STANTON ST			RIVERSIDE	CA	92509-2705	US			false		
113-6696964-0107438	12307057751946	2020-10-30T22:32:25+00:00	2020-10-30T15:32:25-07:00	2020-10-30T22:57:41+00:00	2020-11-04T07:59:59+00:00	-5	5kl9n7szyddrf7h@marketplace.amazon.com	Yonicel Leyva	+1 480-618-5344 ext. 13752	ABR0033	Delivery by Tuesday | Arabella Farm Direct Bouquet of 12 Fresh Cut Orange Roses with a Free Glass Vase	1	0	1	Expedited	Yaumara Perez	6450 NW 191ST TER			HIALEAH	FL	33015-4710	US		Para el amor de mi vida.Dios te me bendiga siempre mujer virtuosa From Luis Miguel	false		
114-6096571-8897053	55756060379234	2020-10-30T22:28:27+00:00	2020-10-30T15:28:27-07:00	2020-10-30T22:57:46+00:00	2020-11-04T07:59:59+00:00	-5	ccznvxv4h2rmdw5@marketplace.amazon.com	Jennifer Lynn Webster	+1 213-442-1463 ext. 36148	ABR0055	Delivery by Tuesday | Arabella Farm Direct Bouquet of 12 Stems of Fresh Cut Hot Pink Roses in a Free Designer Glass Vase	1	0	1	Expedited	Kirsten Webster	4700 NW 10TH ST			OKLAHOMA CITY	OK	73127-5901	US		HAPPY BIRTHDAY! We have a fun-filled weekend planned for you. See you soon! Love, Mom, Dad & Lucas From Jennifer Lynn Webster	false		
113-7113721-7732201	35414982361818	2020-10-30T22:29:53+00:00	2020-10-30T15:29:53-07:00	2020-10-30T22:58:53+00:00	2020-11-04T07:59:59+00:00	-5	0wcw27xxd7yl329@marketplace.amazon.com	Sarah J Balkin	+1 602-671-6610 ext. 86683	ABR0033	Delivery by Tuesday | Arabella Farm Direct Bouquet of 12 Fresh Cut Orange Roses with a Free Glass Vase	1	0	1	Expedited	Jennifer Balkin	52 W 2550 S			BOUNTIFUL	UT	84010-6441	US		Something to brighten your recovery. Love, Sarah From Sarah J Balkin	false		
113-1740667-6219453	20588536592498	2020-10-30T23:08:14+00:00	2020-10-30T16:08:14-07:00	2020-10-30T23:09:10+00:00	2020-11-04T07:59:59+00:00	-5	0803tq1bjmnn2jq@marketplace.amazon.com	Stanley J. Niemala	+1 602-671-6610 ext. 13598	ABR0022	Delivery by Tuesday | Arabella Farm Direct Bouquet of 12 Fresh Cut Pink Roses with a Free Glass Vase	1	0	1	Expedited	RHONDA and PETE  COMSTOCK	13675 SIENNA PASS			DEWITT	MI	48820-7821	US		Dear Rhonda,                  HAPPY BIRTHDAY from US!                      Love,  Mar'ceil & Stan From Stanley J. Niemala	false		
111-2792535-1980200	60225492963938	2020-10-30T22:54:09+00:00	2020-10-30T15:54:09-07:00	2020-10-30T23:10:19+00:00	2020-11-04T07:59:59+00:00	-5	g2gk49gb15042dn@marketplace.amazon.com	Abhi	+1 213-442-1463 ext. 24873	ABR001	Delivery by Tuesday | Arabella Bouquets 12 Stems of Fresh Cut Red Roses in a Free Designer Glass Vase	1	0	1	Expedited	Neha Rawat	2001 HOLLEMAN DR W APT 917			COLLEGE STATION	TX	77840-6377	US		Happy Birthday Neha! Have an awesome year ahead! Best wishes!! From Abhi	false		
