order-id	order-item-id	purchase-date	payments-date	reporting-date	promise-date	days-past-promise	buyer-email	buyer-name	buyer-phone-number	sku	product-name	quantity-purchased	quantity-shipped	quantity-to-ship	ship-service-level	recipient-name	ship-address-1	ship-address-2	ship-address-3	ship-city	ship-state	ship-postal-code	ship-country	gift-wrap-type	gift-message-text	is-business-order	purchase-order-number	price-designation
113-4743100-2108213	32002008170450	2020-10-29T23:36:31+00:00	2020-10-29T16:36:31-07:00	2020-10-30T00:06:57+00:00	2020-11-03T07:59:59+00:00	-4	czg24lcsgb1qlq5@marketplace.amazon.com	Robert M. Sproul	+1 415-851-9136 ext. 15587	ABM017	Delivery by Monday | Arabella Bouquets 10 Stems of Blue Dendrobium Orchids in a Free Designer Glass Vase	1	0	1	Standard	Robert Sproul	1800 FORT PULASKI CT			DUMFRIES	VA	22026-2506	US			false		
113-0406991-5752229	35924458931866	2020-10-30T01:50:33+00:00	2020-10-29T18:50:33-07:00	2020-10-30T02:20:40+00:00	2020-11-03T07:59:59+00:00	-4	0kvr1jzw662m2th@marketplace.amazon.com	Liz Kuhns	+1 602-671-6610 ext. 03231	ABM017	Delivery by Monday | Arabella Bouquets 10 Stems of Blue Dendrobium Orchids in a Free Designer Glass Vase	1	0	1	Standard	jane kuhns	12615 WHITHORN CT			PLYMOUTH	MI	48170-6912	US			false		
112-0093765-8631429	08607212955802	2020-10-30T15:46:38+00:00	2020-10-30T08:46:38-07:00	2020-10-30T16:10:06+00:00	2020-11-04T07:59:59+00:00	-5	8h5mx3swh52r87h@marketplace.amazon.com	Estella Munoz	+1 602-671-6610 ext. 38850	ABM017	Delivery by Monday | Arabella Bouquets 10 Stems of Blue Dendrobium Orchids in a Free Designer Glass Vase	1	0	1	Standard	Josie Vasquez	237 JENSEN AVE			EL PASO	TX	79915-3807	US		Enjoy your gift! From Estella Munoz	false		
113-8767409-5623457	18875362879402	2020-10-30T18:10:04+00:00	2020-10-30T11:10:04-07:00	2020-10-30T18:32:17+00:00	2020-11-04T07:59:59+00:00	-5	dgmxz1vyrs2n577@marketplace.amazon.com	Storm Wojcik	+1 929-436-4790 ext. 36659	ABM010	Delivery by Tuesday | The Spring Fling Bouquet by Arabella Bouquets with a Free Designer Glass Vase	1	0	1	Expedited	alexa Wojcik	1245 WIMBELDON BLVD			COLUMBUS	OH	43228-9329	US			false		
113-7537306-1511465	59536292448882	2020-10-30T18:18:29+00:00	2020-10-30T11:18:29-07:00	2020-10-30T18:41:23+00:00	2020-11-04T07:59:59+00:00	-5	dgmxz1vyrs2n577@marketplace.amazon.com	Storm Wojcik	+1 213-442-1463 ext. 32808	ABM010	Delivery by Tuesday | The Spring Fling Bouquet by Arabella Bouquets with a Free Designer Glass Vase	1	0	1	Expedited	Kathryn Harrison	6108 WATERFIELD WAY			SAINT CLOUD	FL	34771-8845	US		Happy (late) Birthday! From Captain of the SS Butthead	false		
114-9791613-4295461	49032634240346	2020-10-30T18:24:34+00:00	2020-10-30T11:24:34-07:00	2020-10-30T18:47:43+00:00	2020-11-04T07:59:59+00:00	-5	z4r7zm5nv2vp5lt@marketplace.amazon.com	Oluwatoyin Ogunmuyiwa	+1 929-436-4790 ext. 31796	ABR0055	Arabella Farm Direct Bouquet of 12 Stems of Fresh Cut Hot Pink Roses in a Free Designer Glass Vase	1	0	1	Expedited	Victoria Olanrewaju	5925 N 10TH ST			PHILADELPHIA	PA	19141-3711	US		You may hold my hand for a while, but you hold my heart forever 💕 From Are You There?	false		
113-8202854-4360211	51750717121002	2020-10-30T18:19:33+00:00	2020-10-30T11:19:33-07:00	2020-10-30T18:48:38+00:00	2020-11-04T07:59:59+00:00	-5	nsbhwfnkzrkn9j9@marketplace.amazon.com	Ruffina F. Anklesaria	+1 602-671-6610 ext. 37796	ABR004	Delivery by Tuesday | Arabella Farm Direct Bouquet of 12 Fresh Cut Yellow Roses with a Free Glass Vase	1	0	1	Expedited	Janet Fatoke	1049 RESERVE WAY			INDIANAPOLIS	IN	46220-1884	US		Beloved Devi, Sending you a little sunshine with a lot of love, Ruffina From Ruffina F. Anklesaria	false		
112-0366042-4137073	58656249745322	2020-10-30T18:27:59+00:00	2020-10-30T11:27:59-07:00	2020-10-30T18:53:57+00:00	2020-11-04T07:59:59+00:00	-5	c11pzv0jj3y7gs1@marketplace.amazon.com	Stacey Czeck	+1 929-436-4790 ext. 75026	ABM0033	Delivery by Tuesday | Arabella Farm Direct Bouquet of Fresh Cut White Hydrangea with a Free Glass Vase	1	0	1	Expedited	Jim and Sue Grahek	10815 50TH CT N			PLYMOUTH	MN	55442-3009	US		Dear Sue and Jim, My heart aches for you during this difficult time. Please take good care of each other and know that Irene's legacy lives on in you! With Love, Stacey From Stacey Czeck	false		
111-2588886-6920258	21744673468330	2020-10-30T18:55:59+00:00	2020-10-30T11:55:59-07:00	2020-10-30T19:24:34+00:00	2020-11-04T07:59:59+00:00	-5	n3d7t10mbf88twh@marketplace.amazon.com	Amy	+1 480-618-5344 ext. 13279	ABM017	Delivery by Wednesday | Arabella Bouquets 10 Stems of Blue Dendrobium Orchids in a Free Designer Glass Vase	1	0	1	Expedited	Suk Friedhaber	13324 WARNER HILL RD			SOUTH WALES	NY	14139-9745	US		Hugs from Colorado. We love you Grandma! From Jacob & Lilana	false		
112-9110228-3439404	23757829099242	2020-10-30T19:13:07+00:00	2020-10-30T12:13:07-07:00	2020-10-30T19:38:57+00:00	2020-11-04T07:59:59+00:00	-5	d2dppnm4xg61tcg@marketplace.amazon.com	STEVEN JONES	+1 213-442-1463 ext. 06840	ABM010	Delivery by Tuesday | The Spring Fling Bouquet by Arabella Bouquets with a Free Designer Glass Vase	1	0	1	Expedited	Clarissa Knighten	2211 NW 62ND ST			KANSAS CITY	MO	64151-2174	US		Happy Birthday Clarissa I love you. From Sharon Jones	false		
114-9276067-6731465	22375030715370	2020-10-30T19:24:17+00:00	2020-10-30T12:24:17-07:00	2020-10-30T19:52:36+00:00	2020-11-04T07:59:59+00:00	-5	t1t10gx371vzdd5@marketplace.amazon.com	Jeanette Patterson	+1 619-854-2705 ext. 20367	ABM010	Delivery by Tuesday | The Spring Fling Bouquet by Arabella Bouquets with a Free Designer Glass Vase	1	0	1	Expedited	Cheryl Covington,  Agent	345 CYPRESS ST			FORT BRAGG	CA	95437-5407	US			false		
111-8475473-9909827	48422227593546	2020-10-30T19:45:29+00:00	2020-10-30T12:45:29-07:00	2020-10-30T20:07:57+00:00	2020-11-04T07:59:59+00:00	-5	2qb0t28zjdcfqf9@marketplace.amazon.com	Isaac Warshaw	+1 619-854-2705 ext. 91393	ABM022	Delivery by Tuesday | Purple Extravagance Bouquet by Arabella Bouquets	1	0	1	Expedited	Eileen & Peter Sudler	81 LOWERY LN			MENDHAM	NJ	07945-3404	US		Dear Eileen & Peter, A small token of appreciation from the boys for our first class flying accommodations up to Mass last weekend. It was a delightful trip and Daniel and your family are extremely generous to include us. From Isaac, Mitch & Chuck	false		
114-9135620-8369860	06475675055442	2020-10-30T20:15:44+00:00	2020-10-30T13:15:44-07:00	2020-10-30T20:36:20+00:00	2020-11-04T07:59:59+00:00	-5	1vq81j527pmlhyy@marketplace.amazon.com	Carlos Mesegue	+1 213-442-1463 ext. 35104	ABR012	Delivery by Tuesday | Arabella Farm Direct Bouquet of 18 Fresh Cut Pink Roses with a Free Glass Vase	1	0	1	Expedited	Yvonne Mesegue	2140 S DIXIE HWY STE 309			MIAMI	FL	33133-2461	US			false		
113-9491444-3392214	42095160869362	2020-10-30T20:08:04+00:00	2020-10-30T13:08:04-07:00	2020-10-30T20:37:19+00:00	2020-11-04T07:59:59+00:00	-5	v9vynf65ycg7lv1@marketplace.amazon.com	Kathy SIms Melton	+1 929-436-4790 ext. 49921	ABR0022	Delivery by Tuesday | Arabella Farm Direct Bouquet of 12 Fresh Cut Pink Roses with a Free Glass Vase	1	0	1	Expedited	Nora Fyffe	984 11TH ST			PASADENA	MD	21122-1791	US		Thinking of you my friend. I am always here ❤️ From Kathy SIms Melton	false		
113-6118333-0189843	56546004781290	2020-10-27T18:25:00+00:00	2020-10-27T11:25:00-07:00	2020-10-30T20:46:16+00:00	2020-11-04T07:59:59+00:00	-5	tgkp6hd3hvf4bjs@marketplace.amazon.com	Essey Woldemariam	+1 619-854-2705 ext. 73376	ABM022	Delivery by Thursday | Purple Extravagance Bouquet by Arabella Bouquets	1	0	1	Expedited	Serby Samson	12612 Brickyard Blvd			Beltsville	Md	20705	US		Just a small token of my love.  Te quiero From Essey Woldemariam	false		
113-3154602-8531467	18017994110026	2020-10-30T20:53:52+00:00	2020-10-30T13:53:52-07:00	2020-10-30T21:23:04+00:00	2020-11-04T07:59:59+00:00	-5	fgfrfjwkj6k6rrg@marketplace.amazon.com	Christen P. Embry	+1 602-671-6610 ext. 24702	ABM010	Delivery by Tuesday | The Spring Fling Bouquet by Arabella Bouquets with a Free Designer Glass Vase	1	0	1	Expedited	Judy Pudlewski	1005 BLOOMDALE DR			LAS CRUCES	NM	88005-1249	US		Get Well Soon, Mom!  Love, Chris, Shawn and Meri From Christen P. Embry	false		
113-0743967-8534601	64597130036754	2020-10-30T21:16:19+00:00	2020-10-30T14:16:19-07:00	2020-10-30T21:42:03+00:00	2020-11-04T07:59:59+00:00	-5	z6vqp428cdhfbdl@marketplace.amazon.com	Christina Rabbitz	+1 415-851-9136 ext. 31658	ABB014	Delivery by Tuesday | Arabella Bouquets | Farm Direct 48 Fresh Cut White Roses	1	0	1	Expedited	Lisa Rabbitz	51 MICHAELSON DR			MOUNT LAUREL	NJ	08054-1355	US		Happy Birthday Christina !!!!!  XOXOXO. From LOVE  MOM	false		
113-4911563-3330669	26483203872410	2020-10-30T21:21:25+00:00	2020-10-30T14:21:25-07:00	2020-10-30T21:51:48+00:00	2020-11-04T07:59:59+00:00	-5	k20l6qr64y0tyrj@marketplace.amazon.com	Gwendolyn Baker	+1 929-436-4790 ext. 66427	ABM022	Delivery by Tuesday | Purple Extravagance Bouquet by Arabella Bouquets	1	0	1	Expedited	Barbara Kenyon and Dana Turner	13059 SANDY PINE LN			CLERMONT	FL	34711-6566	US			false		
114-4202582-1156243	54188244551058	2020-10-30T21:44:52+00:00	2020-10-30T14:44:52-07:00	2020-10-30T22:11:11+00:00	2020-11-04T07:59:59+00:00	-5	6rgkmqnwhcdcrs8@marketplace.amazon.com	Sarah Mader	+1 480-618-5344 ext. 96276	ABM022	Delivery by Tuesday | Purple Extravagance Bouquet by Arabella Bouquets	1	0	1	Expedited	Jeanne Soule	5593 ROUTE 23C			PRATTSVILLE	NY	12468-5508	US		Happy birthday Mamacita! Love you always! From Sarah	false		
113-8620463-8931444	33684424110722	2020-10-30T21:59:59+00:00	2020-10-30T14:59:59-07:00	2020-10-30T22:35:25+00:00	2020-11-04T07:59:59+00:00	-5	p5mry8kfhkk57wd@marketplace.amazon.com	Jared Ross	+1 480-618-5344 ext. 90112	ABR012	Delivery by Tuesday | Arabella Farm Direct Bouquet of 18 Fresh Cut Pink Roses with a Free Glass Vase	1	0	1	Expedited	Jared Ross	1276 N WAYNE ST APT 1221			ARLINGTON	VA	22201-5857	US			false		
111-2987533-7565837	54511404115154	2020-10-30T22:16:59+00:00	2020-10-30T15:16:59-07:00	2020-10-30T22:43:41+00:00	2020-11-04T07:59:59+00:00	-5	0m9ztlddxf65bzj@marketplace.amazon.com	linda parker	+1 602-671-6610 ext. 80408	ABR0055	Delivery by Tuesday | Arabella Farm Direct Bouquet of 12 Stems of Fresh Cut Hot Pink Roses in a Free Designer Glass Vase	1	0	1	Expedited	linda parker	HOUSE 3905 STANTON ST			RIVERSIDE	CA	92509-2705	US			false		
113-6696964-0107438	12307057751946	2020-10-30T22:32:25+00:00	2020-10-30T15:32:25-07:00	2020-10-30T22:57:41+00:00	2020-11-04T07:59:59+00:00	-5	5kl9n7szyddrf7h@marketplace.amazon.com	Yonicel Leyva	+1 480-618-5344 ext. 13752	ABR0033	Delivery by Tuesday | Arabella Farm Direct Bouquet of 12 Fresh Cut Orange Roses with a Free Glass Vase	1	0	1	Expedited	Yaumara Perez	6450 NW 191ST TER			HIALEAH	FL	33015-4710	US		Para el amor de mi vida.Dios te me bendiga siempre mujer virtuosa From Luis Miguel	false		
114-6096571-8897053	55756060379234	2020-10-30T22:28:27+00:00	2020-10-30T15:28:27-07:00	2020-10-30T22:57:46+00:00	2020-11-04T07:59:59+00:00	-5	ccznvxv4h2rmdw5@marketplace.amazon.com	Jennifer Lynn Webster	+1 213-442-1463 ext. 36148	ABR0055	Delivery by Tuesday | Arabella Farm Direct Bouquet of 12 Stems of Fresh Cut Hot Pink Roses in a Free Designer Glass Vase	1	0	1	Expedited	Kirsten Webster	4700 NW 10TH ST			OKLAHOMA CITY	OK	73127-5901	US		HAPPY BIRTHDAY! We have a fun-filled weekend planned for you. See you soon! Love, Mom, Dad & Lucas From Jennifer Lynn Webster	false		
113-7113721-7732201	35414982361818	2020-10-30T22:29:53+00:00	2020-10-30T15:29:53-07:00	2020-10-30T22:58:53+00:00	2020-11-04T07:59:59+00:00	-5	0wcw27xxd7yl329@marketplace.amazon.com	Sarah J Balkin	+1 602-671-6610 ext. 86683	ABR0033	Delivery by Tuesday | Arabella Farm Direct Bouquet of 12 Fresh Cut Orange Roses with a Free Glass Vase	1	0	1	Expedited	Jennifer Balkin	52 W 2550 S			BOUNTIFUL	UT	84010-6441	US		Something to brighten your recovery. Love, Sarah From Sarah J Balkin	false		
113-1740667-6219453	20588536592498	2020-10-30T23:08:14+00:00	2020-10-30T16:08:14-07:00	2020-10-30T23:09:10+00:00	2020-11-04T07:59:59+00:00	-5	0803tq1bjmnn2jq@marketplace.amazon.com	Stanley J. Niemala	+1 602-671-6610 ext. 13598	ABR0022	Delivery by Tuesday | Arabella Farm Direct Bouquet of 12 Fresh Cut Pink Roses with a Free Glass Vase	1	0	1	Expedited	RHONDA and PETE  COMSTOCK	13675 SIENNA PASS			DEWITT	MI	48820-7821	US		Dear Rhonda,                  HAPPY BIRTHDAY from US!                      Love,  Mar'ceil & Stan From Stanley J. Niemala	false		
111-2792535-1980200	60225492963938	2020-10-30T22:54:09+00:00	2020-10-30T15:54:09-07:00	2020-10-30T23:10:19+00:00	2020-11-04T07:59:59+00:00	-5	g2gk49gb15042dn@marketplace.amazon.com	Abhi	+1 213-442-1463 ext. 24873	ABR001	Delivery by Tuesday | Arabella Bouquets 12 Stems of Fresh Cut Red Roses in a Free Designer Glass Vase	1	0	1	Expedited	Neha Rawat	2001 HOLLEMAN DR W APT 917			COLLEGE STATION	TX	77840-6377	US		Happy Birthday Neha! Have an awesome year ahead! Best wishes!! From Abhi	false		
111-5695887-3448241	66058438328258	2020-10-30T22:54:28+00:00	2020-10-30T15:54:28-07:00	2020-10-30T23:19:20+00:00	2020-11-04T07:59:59+00:00	-5	nhjxmr9nyn6qjxl@marketplace.amazon.com	Becky Oxner	+1 619-854-2705 ext. 47098	ABM031	Delivery by Tuesday | The Harvest Moon Bouquet by Arabella Bouquets	1	0	1	Expedited	Gladys Oliver Family c/o Stella Oliver	95 E 500 S TRLR 12			BLANDING	UT	84511-3047	US		With our deepest Sympathy, And lots of love and hugs from the Canyonlands Care Center From The Staff at Canyonlands Care Center	false		
111-9626974-9453002	31026271984562	2020-10-30T22:52:29+00:00	2020-10-30T15:52:29-07:00	2020-10-30T23:21:11+00:00	2020-11-04T07:59:59+00:00	-5	dldzd49wxq4kr86@marketplace.amazon.com	thomas lyons	+1 480-618-5344 ext. 14881	ABR0022	Delivery by Tuesday | Arabella Farm Direct Bouquet of 12 Fresh Cut Pink Roses with a Free Glass Vase	1	0	1	Expedited	Molly Lyons Bahrke	6261 E IOWA AVE			DENVER	CO	80224-2112	US		Happy Birthday! In place of a hug...with love from Maine From Tom and Cath	false		
113-1373961-3835405	39969577003162	2020-10-30T22:56:20+00:00	2020-10-30T15:56:20-07:00	2020-10-30T23:23:20+00:00	2020-11-04T07:59:59+00:00	-5	5ybtwf9p6dmxmn5@marketplace.amazon.com	Mike Moran	+1 602-671-6610 ext. 72805	ABR0022	Delivery by Tuesday | Arabella Farm Direct Bouquet of 12 Fresh Cut Pink Roses with a Free Glass Vase	1	0	1	Expedited	Michael Moran	242 QUAKER CHURCH RD			RANDOLPH	NJ	07869-1416	US		I love you so much and I'm so grateful Rosie and I have you in our lives. You are the most amazing Wife and Mother and we are so lucky to spend every day by your side. From Your Husband	false		
112-7243781-5441031	42303662497378	2020-10-30T23:01:38+00:00	2020-10-30T16:01:38-07:00	2020-10-30T23:30:06+00:00	2020-11-04T07:59:59+00:00	-5	qr3wfsskydm53w1@marketplace.amazon.com	Dorothy Sonnenberg	+1 480-618-5344 ext. 21256	ABR0022	Delivery by Tuesday | Arabella Farm Direct Bouquet of 12 Fresh Cut Pink Roses with a Free Glass Vase	1	0	1	Expedited	Beth  Moloughney	222 OWL HOLLOW DR			TANNERSVILLE	PA	18372-7789	US			false		
113-5079096-9336254	66547641433114	2020-10-30T23:04:08+00:00	2020-10-30T16:04:08-07:00	2020-10-30T23:32:20+00:00	2020-11-04T07:59:59+00:00	-5	8dgchjq36ym7rtd@marketplace.amazon.com	Jack bied	+1 480-618-5344 ext. 44203	ABR0033	Delivery by Tuesday | Arabella Farm Direct Bouquet of 12 Fresh Cut Orange Roses with a Free Glass Vase	1	0	1	Expedited	AnnaBelle Sartore	16400 PACIFIC COAST HWY STE 211			HUNTINGTON BEACH	CA	92649-1822	US			false		
112-2205105-9451404	24999648760914	2020-10-30T23:16:26+00:00	2020-10-30T16:16:26-07:00	2020-10-30T23:35:27+00:00	2020-11-04T07:59:59+00:00	-5	vkv12rqj348jykb@marketplace.amazon.com	Alyssa Kavanaugh	+1 480-618-5344 ext. 14847	ABR0022	Delivery by Tuesday | Arabella Farm Direct Bouquet of 12 Fresh Cut Pink Roses with a Free Glass Vase	1	0	1	Expedited	Nicole Kavanaugh-NZK townhome 809	1001 LAFAYETTE DR			FARMINGTON	PA	15437-9754	US		Happy 27th birthday!  We wish you all the best.  May you be blessed with health, and happiness and may you be successful in all of your endeavors. From Love, Mom and Dad	false		
111-6645764-1175461	57090248081850	2020-10-30T23:37:34+00:00	2020-10-30T16:37:34-07:00	2020-10-30T23:59:52+00:00	2020-11-04T07:59:59+00:00	-5	75st4xfblxk738c@marketplace.amazon.com	yadira rodriguez	+1 619-854-2705 ext. 04813	ABM010	Delivery by Tuesday | The Spring Fling Bouquet by Arabella Bouquets with a Free Designer Glass Vase	1	0	1	Expedited	Kati Ubiera	6 OSBORNE RD			POUGHKEEPSIE	NY	12601-4946	US		Happy birthday. Many blessings to you Enjoy your gift! From yadira rodriguez	false		
112-5568673-0679439	20058899332274	2020-10-30T23:42:14+00:00	2020-10-30T16:42:14-07:00	2020-10-31T00:11:05+00:00	2020-11-04T07:59:59+00:00	-5	t6lk0729stk8vrb@marketplace.amazon.com	Michele Shafer	+1 619-854-2705 ext. 16410	ABM022	Delivery by Tuesday | Purple Extravagance Bouquet by Arabella Bouquets	1	0	1	Expedited	MOM-  Battiste	9024 BROOK FORD RD			BURKE	VA	22015-3612	US		Enjoy your gift! Happy Birthday From Michele Shafer & Casey	false		
112-0361115-5177006	59745260572506	2020-10-30T23:52:26+00:00	2020-10-30T16:52:26-07:00	2020-10-31T00:22:48+00:00	2020-11-04T07:59:59+00:00	-5	fngg2c1tllf7ckx@marketplace.amazon.com	Judy McNelley	+1 602-671-6610 ext. 37769	ABM022	Delivery by Tuesday | Purple Extravagance Bouquet by Arabella Bouquets	1	0	1	Expedited	geri shaeffer	4671 ARBOGA RD			OLIVEHURST	CALIFORNIA	95961-4445	US			false		
113-8317927-5905023	54759775510410	2020-10-30T23:57:40+00:00	2020-10-30T16:57:40-07:00	2020-10-31T00:27:08+00:00	2020-11-04T07:59:59+00:00	-5	q260tmc0dsrx597@marketplace.amazon.com	Jamie Spalding	+1 602-671-6610 ext. 31473	ABM010	Delivery by Tuesday | The Spring Fling Bouquet by Arabella Bouquets with a Free Designer Glass Vase	1	0	1	Expedited	Deborah Loveless	40 MCCREA RD			PLAINS	MT	59859-9331	US			false		
111-7340821-3970640	20279585458378	2020-10-31T00:14:42+00:00	2020-10-30T17:14:42-07:00	2020-10-31T00:43:40+00:00	2020-11-04T07:59:59+00:00	-5	szsbzp8qf38r15w@marketplace.amazon.com	Bianca Moruzzi	+1 929-436-4790 ext. 87953	ABM010	Delivery by Tuesday | The Spring Fling Bouquet by Arabella Bouquets with a Free Designer Glass Vase	1	0	1	Expedited	Bruna Moruzzi	8 Pennstar Lane			South Yarmouth	MA	02664	US		I love you mom!  Everything is going to be okay. From Bianca Moruzzi	false		
113-5091502-0504223	51908635059690	2020-10-31T00:36:26+00:00	2020-10-30T17:36:26-07:00	2020-10-31T01:02:38+00:00	2020-11-04T07:59:59+00:00	-5	7z23t0d9r5rjvyq@marketplace.amazon.com	lolly werner	+1 480-618-5344 ext. 68867	ABM022	Delivery by Tuesday | Purple Extravagance Bouquet by Arabella Bouquets	1	0	1	Expedited	Margie Arvallo	2036 E TOPEKA DR			PHOENIX	AZ	85024-2404	US		Get well soon! We love you!!  Lolly and Vicki From lolly werner	false		
111-7588272-9109021	00216569980898	2020-10-31T00:32:30+00:00	2020-10-30T17:32:30-07:00	2020-10-31T01:02:51+00:00	2020-11-04T07:59:59+00:00	-5	mm6rhbln222mt7k@marketplace.amazon.com	Mark L Slocum	552797044	ABM022	Delivery by Tuesday | Purple Extravagance Bouquet by Arabella Bouquets	1	0	1	Expedited	Linda Harden	7501 E THOMPSON PEAK PKWY UNIT 419			SCOTTSDALE	AZ	85255-4537	US			false		
113-9721351-2784233	40167658076962	2020-10-31T00:56:40+00:00	2020-10-30T17:56:40-07:00	2020-10-31T01:26:18+00:00	2020-11-04T07:59:59+00:00	-5	1b6nf28zyfj8202@marketplace.amazon.com	Kimberly Gorman	+1 619-854-2705 ext. 43689	ABM022	Delivery by Tuesday | Purple Extravagance Bouquet by Arabella Bouquets	1	0	1	Expedited	Kimberly Gorman	6016 N TRAILS END			PEORIA	IL	61614-3523	US		Happy birthday, Nana!  We love you!  Love,  Madison, Collin, Kimberly and Corey From The Gormans	false		
111-6558883-8816221	20513295488258	2020-10-31T01:13:09+00:00	2020-10-30T18:13:09-07:00	2020-10-31T01:40:04+00:00	2020-11-04T07:59:59+00:00	-5	6y29lzhr9fr0g3d@marketplace.amazon.com	Jill A. Sweringen	+1 213-442-1463 ext. 19269	ABM020	Delivery by Tuesday | The Sunset Bouquet by Arabella Bouquets	1	0	1	Expedited	Richard W. Sweringen	163 WOODLANDS DR			VERONA	PA	15147-3879	US		Happy 60th Anniversary, Dad and Mom! From Jill, Barb and Joxer	false		
111-6558883-8816221	55006893578938	2020-10-31T01:13:09+00:00	2020-10-30T18:13:09-07:00	2020-10-31T01:40:04+00:00	2020-11-04T07:59:59+00:00	-5	6y29lzhr9fr0g3d@marketplace.amazon.com	Jill A. Sweringen	+1 213-442-1463 ext. 19269	ABM022	Delivery by Tuesday | Purple Extravagance Bouquet by Arabella Bouquets	1	0	1	Expedited	Richard W. Sweringen	163 WOODLANDS DR			VERONA	PA	15147-3879	US		Happy 60th Anniversary, Mom and Dad! From Jill, Barb and Joxer	false		
112-8264654-8119419	65952959223466	2020-10-31T01:09:30+00:00	2020-10-30T18:09:30-07:00	2020-10-31T01:40:12+00:00	2020-11-04T07:59:59+00:00	-5	s8zggnztns5bx7s@marketplace.amazon.com	TASCO	+1 480-618-5344 ext. 40383	ABM0044	Delivery by Tuesday | Arabella Farm Direct Bouquet of Fresh Cut Blue Hydrangea with a Free Glass Vase	1	0	1	Expedited	Marylyn Simpson	628 E SAWBACK LN			DRAPER	UT	84020-1418	US			false		
