order-id	order-item-id	purchase-date	payments-date	reporting-date	promise-date	days-past-promise	buyer-email	buyer-name	buyer-phone-number	sku	product-name	quantity-purchased	quantity-shipped	quantity-to-ship	ship-service-level	recipient-name	ship-address-1	ship-address-2	ship-address-3	ship-city	ship-state	ship-postal-code	ship-country	gift-wrap-type	gift-message-text	is-business-order	purchase-order-number	price-designation
113-4743100-2108213	32002008170450	2020-10-29T23:36:31+00:00	2020-10-29T16:36:31-07:00	2020-10-30T00:06:57+00:00	2020-11-03T07:59:59+00:00	-3	czg24lcsgb1qlq5@marketplace.amazon.com	Robert M. Sproul	+1 415-851-9136 ext. 15587	ABM017	Delivery by Monday | Arabella Bouquets 10 Stems of Blue Dendrobium Orchids in a Free Designer Glass Vase	1	0	1	Standard	Robert Sproul	1800 FORT PULASKI CT			DUMFRIES	VA	22026-2506	US			false		
113-0406991-5752229	35924458931866	2020-10-30T01:50:33+00:00	2020-10-29T18:50:33-07:00	2020-10-30T02:20:40+00:00	2020-11-03T07:59:59+00:00	-3	0kvr1jzw662m2th@marketplace.amazon.com	Liz Kuhns	+1 602-671-6610 ext. 03231	ABM017	Delivery by Monday | Arabella Bouquets 10 Stems of Blue Dendrobium Orchids in a Free Designer Glass Vase	1	0	1	Standard	jane kuhns	12615 WHITHORN CT			PLYMOUTH	MI	48170-6912	US			false		
112-0093765-8631429	08607212955802	2020-10-30T15:46:38+00:00	2020-10-30T08:46:38-07:00	2020-10-30T16:10:06+00:00	2020-11-04T07:59:59+00:00	-4	8h5mx3swh52r87h@marketplace.amazon.com	Estella Munoz	+1 602-671-6610 ext. 38850	ABM017	Delivery by Monday | Arabella Bouquets 10 Stems of Blue Dendrobium Orchids in a Free Designer Glass Vase	1	0	1	Standard	Josie Vasquez	237 JENSEN AVE			EL PASO	TX	79915-3807	US		Enjoy your gift! From Estella Munoz	false		
113-8767409-5623457	18875362879402	2020-10-30T18:10:04+00:00	2020-10-30T11:10:04-07:00	2020-10-30T18:32:17+00:00	2020-11-04T07:59:59+00:00	-4	dgmxz1vyrs2n577@marketplace.amazon.com	Storm Wojcik	+1 929-436-4790 ext. 36659	ABM010	Delivery by Tuesday | The Spring Fling Bouquet by Arabella Bouquets with a Free Designer Glass Vase	1	0	1	Expedited	alexa Wojcik	1245 WIMBELDON BLVD			COLUMBUS	OH	43228-9329	US			false		
113-7537306-1511465	59536292448882	2020-10-30T18:18:29+00:00	2020-10-30T11:18:29-07:00	2020-10-30T18:41:23+00:00	2020-11-04T07:59:59+00:00	-4	dgmxz1vyrs2n577@marketplace.amazon.com	Storm Wojcik	+1 213-442-1463 ext. 32808	ABM010	Delivery by Tuesday | The Spring Fling Bouquet by Arabella Bouquets with a Free Designer Glass Vase	1	0	1	Expedited	Kathryn Harrison	6108 WATERFIELD WAY			SAINT CLOUD	FL	34771-8845	US		Happy (late) Birthday! From Captain of the SS Butthead	false		
114-9791613-4295461	49032634240346	2020-10-30T18:24:34+00:00	2020-10-30T11:24:34-07:00	2020-10-30T18:47:43+00:00	2020-11-04T07:59:59+00:00	-4	z4r7zm5nv2vp5lt@marketplace.amazon.com	Oluwatoyin Ogunmuyiwa	+1 929-436-4790 ext. 31796	ABR0055	Arabella Farm Direct Bouquet of 12 Stems of Fresh Cut Hot Pink Roses in a Free Designer Glass Vase	1	0	1	Expedited	Victoria Olanrewaju	5925 N 10TH ST			PHILADELPHIA	PA	19141-3711	US		You may hold my hand for a while, but you hold my heart forever 💕 From Are You There?	false		
113-8202854-4360211	51750717121002	2020-10-30T18:19:33+00:00	2020-10-30T11:19:33-07:00	2020-10-30T18:48:38+00:00	2020-11-04T07:59:59+00:00	-4	nsbhwfnkzrkn9j9@marketplace.amazon.com	Ruffina F. Anklesaria	+1 602-671-6610 ext. 37796	ABR004	Delivery by Tuesday | Arabella Farm Direct Bouquet of 12 Fresh Cut Yellow Roses with a Free Glass Vase	1	0	1	Expedited	Janet Fatoke	1049 RESERVE WAY			INDIANAPOLIS	IN	46220-1884	US		Beloved Devi, Sending you a little sunshine with a lot of love, Ruffina From Ruffina F. Anklesaria	false		
111-2588886-6920258	21744673468330	2020-10-30T18:55:59+00:00	2020-10-30T11:55:59-07:00	2020-10-30T19:24:34+00:00	2020-11-04T07:59:59+00:00	-4	n3d7t10mbf88twh@marketplace.amazon.com	Amy	+1 480-618-5344 ext. 13279	ABM017	Delivery by Wednesday | Arabella Bouquets 10 Stems of Blue Dendrobium Orchids in a Free Designer Glass Vase	1	0	1	Expedited	Suk Friedhaber	13324 WARNER HILL RD			SOUTH WALES	NY	14139-9745	US		Hugs from Colorado. We love you Grandma! From Jacob & Lilana	false		
114-9276067-6731465	22375030715370	2020-10-30T19:24:17+00:00	2020-10-30T12:24:17-07:00	2020-10-30T19:52:36+00:00	2020-11-04T07:59:59+00:00	-4	t1t10gx371vzdd5@marketplace.amazon.com	Jeanette Patterson	+1 619-854-2705 ext. 20367	ABM010	Delivery by Tuesday | The Spring Fling Bouquet by Arabella Bouquets with a Free Designer Glass Vase	1	0	1	Expedited	Cheryl Covington,  Agent	345 CYPRESS ST			FORT BRAGG	CA	95437-5407	US			false		
113-9491444-3392214	42095160869362	2020-10-30T20:08:04+00:00	2020-10-30T13:08:04-07:00	2020-10-30T20:37:19+00:00	2020-11-04T07:59:59+00:00	-4	v9vynf65ycg7lv1@marketplace.amazon.com	Kathy SIms Melton	+1 929-436-4790 ext. 49921	ABR0022	Delivery by Tuesday | Arabella Farm Direct Bouquet of 12 Fresh Cut Pink Roses with a Free Glass Vase	1	0	1	Expedited	Nora Fyffe	984 11TH ST			PASADENA	MD	21122-1791	US		Thinking of you my friend. I am always here ❤️ From Kathy SIms Melton	false		
113-6118333-0189843	56546004781290	2020-10-27T18:25:00+00:00	2020-10-27T11:25:00-07:00	2020-10-30T20:46:16+00:00	2020-11-04T07:59:59+00:00	-4	tgkp6hd3hvf4bjs@marketplace.amazon.com	Essey Woldemariam	+1 619-854-2705 ext. 73376	ABM022	Delivery by Thursday | Purple Extravagance Bouquet by Arabella Bouquets	1	0	1	Expedited	Serby Samson	12612 Brickyard Blvd			Beltsville	Md	20705	US		Just a small token of my love.  Te quiero From Essey Woldemariam	false		
113-4911563-3330669	26483203872410	2020-10-30T21:21:25+00:00	2020-10-30T14:21:25-07:00	2020-10-30T21:51:48+00:00	2020-11-04T07:59:59+00:00	-4	k20l6qr64y0tyrj@marketplace.amazon.com	Gwendolyn Baker	+1 929-436-4790 ext. 66427	ABM022	Delivery by Tuesday | Purple Extravagance Bouquet by Arabella Bouquets	1	0	1	Expedited	Barbara Kenyon and Dana Turner	13059 SANDY PINE LN			CLERMONT	FL	34711-6566	US			false		
111-2987533-7565837	54511404115154	2020-10-30T22:16:59+00:00	2020-10-30T15:16:59-07:00	2020-10-30T22:43:41+00:00	2020-11-04T07:59:59+00:00	-4	0m9ztlddxf65bzj@marketplace.amazon.com	linda parker	+1 602-671-6610 ext. 80408	ABR0055	Delivery by Tuesday | Arabella Farm Direct Bouquet of 12 Stems of Fresh Cut Hot Pink Roses in a Free Designer Glass Vase	1	0	1	Expedited	linda parker	HOUSE 3905 STANTON ST			RIVERSIDE	CA	92509-2705	US			false		
113-6696964-0107438	12307057751946	2020-10-30T22:32:25+00:00	2020-10-30T15:32:25-07:00	2020-10-30T22:57:41+00:00	2020-11-04T07:59:59+00:00	-4	5kl9n7szyddrf7h@marketplace.amazon.com	Yonicel Leyva	+1 480-618-5344 ext. 13752	ABR0033	Delivery by Tuesday | Arabella Farm Direct Bouquet of 12 Fresh Cut Orange Roses with a Free Glass Vase	1	0	1	Expedited	Yaumara Perez	6450 NW 191ST TER			HIALEAH	FL	33015-4710	US		Para el amor de mi vida.Dios te me bendiga siempre mujer virtuosa From Luis Miguel	false		
114-6096571-8897053	55756060379234	2020-10-30T22:28:27+00:00	2020-10-30T15:28:27-07:00	2020-10-30T22:57:46+00:00	2020-11-04T07:59:59+00:00	-4	ccznvxv4h2rmdw5@marketplace.amazon.com	Jennifer Lynn Webster	+1 213-442-1463 ext. 36148	ABR0055	Delivery by Tuesday | Arabella Farm Direct Bouquet of 12 Stems of Fresh Cut Hot Pink Roses in a Free Designer Glass Vase	1	0	1	Expedited	Kirsten Webster	4700 NW 10TH ST			OKLAHOMA CITY	OK	73127-5901	US		HAPPY BIRTHDAY! We have a fun-filled weekend planned for you. See you soon! Love, Mom, Dad & Lucas From Jennifer Lynn Webster	false		
113-1740667-6219453	20588536592498	2020-10-30T23:08:14+00:00	2020-10-30T16:08:14-07:00	2020-10-30T23:09:10+00:00	2020-11-04T07:59:59+00:00	-4	0803tq1bjmnn2jq@marketplace.amazon.com	Stanley J. Niemala	+1 602-671-6610 ext. 13598	ABR0022	Delivery by Tuesday | Arabella Farm Direct Bouquet of 12 Fresh Cut Pink Roses with a Free Glass Vase	1	0	1	Expedited	RHONDA and PETE  COMSTOCK	13675 SIENNA PASS			DEWITT	MI	48820-7821	US		Dear Rhonda,                  HAPPY BIRTHDAY from US!                      Love,  Mar'ceil & Stan From Stanley J. Niemala	false		
111-2792535-1980200	60225492963938	2020-10-30T22:54:09+00:00	2020-10-30T15:54:09-07:00	2020-10-30T23:10:19+00:00	2020-11-04T07:59:59+00:00	-4	g2gk49gb15042dn@marketplace.amazon.com	Abhi	+1 213-442-1463 ext. 24873	ABR001	Delivery by Tuesday | Arabella Bouquets 12 Stems of Fresh Cut Red Roses in a Free Designer Glass Vase	1	0	1	Expedited	Neha Rawat	2001 HOLLEMAN DR W APT 917			COLLEGE STATION	TX	77840-6377	US		Happy Birthday Neha! Have an awesome year ahead! Best wishes!! From Abhi	false		
111-9626974-9453002	31026271984562	2020-10-30T22:52:29+00:00	2020-10-30T15:52:29-07:00	2020-10-30T23:21:11+00:00	2020-11-04T07:59:59+00:00	-4	dldzd49wxq4kr86@marketplace.amazon.com	thomas lyons	+1 480-618-5344 ext. 14881	ABR0022	Delivery by Tuesday | Arabella Farm Direct Bouquet of 12 Fresh Cut Pink Roses with a Free Glass Vase	1	0	1	Expedited	Molly Lyons Bahrke	6261 E IOWA AVE			DENVER	CO	80224-2112	US		Happy Birthday! In place of a hug...with love from Maine From Tom and Cath	false		
113-1373961-3835405	39969577003162	2020-10-30T22:56:20+00:00	2020-10-30T15:56:20-07:00	2020-10-30T23:23:20+00:00	2020-11-04T07:59:59+00:00	-4	5ybtwf9p6dmxmn5@marketplace.amazon.com	Mike Moran	+1 602-671-6610 ext. 72805	ABR0022	Delivery by Tuesday | Arabella Farm Direct Bouquet of 12 Fresh Cut Pink Roses with a Free Glass Vase	1	0	1	Expedited	Michael Moran	242 QUAKER CHURCH RD			RANDOLPH	NJ	07869-1416	US		I love you so much and I'm so grateful Rosie and I have you in our lives. You are the most amazing Wife and Mother and we are so lucky to spend every day by your side. From Your Husband	false		
112-7243781-5441031	42303662497378	2020-10-30T23:01:38+00:00	2020-10-30T16:01:38-07:00	2020-10-30T23:30:06+00:00	2020-11-04T07:59:59+00:00	-4	qr3wfsskydm53w1@marketplace.amazon.com	Dorothy Sonnenberg	+1 480-618-5344 ext. 21256	ABR0022	Delivery by Tuesday | Arabella Farm Direct Bouquet of 12 Fresh Cut Pink Roses with a Free Glass Vase	1	0	1	Expedited	Beth  Moloughney	222 OWL HOLLOW DR			TANNERSVILLE	PA	18372-7789	US			false		
113-5079096-9336254	66547641433114	2020-10-30T23:04:08+00:00	2020-10-30T16:04:08-07:00	2020-10-30T23:32:20+00:00	2020-11-04T07:59:59+00:00	-4	8dgchjq36ym7rtd@marketplace.amazon.com	Jack bied	+1 480-618-5344 ext. 44203	ABR0033	Delivery by Tuesday | Arabella Farm Direct Bouquet of 12 Fresh Cut Orange Roses with a Free Glass Vase	1	0	1	Expedited	AnnaBelle Sartore	16400 PACIFIC COAST HWY STE 211			HUNTINGTON BEACH	CA	92649-1822	US			false		
111-6645764-1175461	57090248081850	2020-10-30T23:37:34+00:00	2020-10-30T16:37:34-07:00	2020-10-30T23:59:52+00:00	2020-11-04T07:59:59+00:00	-4	75st4xfblxk738c@marketplace.amazon.com	yadira rodriguez	+1 619-854-2705 ext. 04813	ABM010	Delivery by Tuesday | The Spring Fling Bouquet by Arabella Bouquets with a Free Designer Glass Vase	1	0	1	Expedited	Kati Ubiera	6 OSBORNE RD			POUGHKEEPSIE	NY	12601-4946	US		Happy birthday. Many blessings to you Enjoy your gift! From yadira rodriguez	false		
112-5568673-0679439	20058899332274	2020-10-30T23:42:14+00:00	2020-10-30T16:42:14-07:00	2020-10-31T00:11:05+00:00	2020-11-04T07:59:59+00:00	-4	t6lk0729stk8vrb@marketplace.amazon.com	Michele Shafer	+1 619-854-2705 ext. 16410	ABM022	Delivery by Tuesday | Purple Extravagance Bouquet by Arabella Bouquets	1	0	1	Expedited	MOM-  Battiste	9024 BROOK FORD RD			BURKE	VA	22015-3612	US		Enjoy your gift! Happy Birthday From Michele Shafer & Casey	false		
112-0361115-5177006	59745260572506	2020-10-30T23:52:26+00:00	2020-10-30T16:52:26-07:00	2020-10-31T00:22:48+00:00	2020-11-04T07:59:59+00:00	-4	fngg2c1tllf7ckx@marketplace.amazon.com	Judy McNelley	+1 602-671-6610 ext. 37769	ABM022	Delivery by Tuesday | Purple Extravagance Bouquet by Arabella Bouquets	1	0	1	Expedited	geri shaeffer	4671 ARBOGA RD			OLIVEHURST	CALIFORNIA	95961-4445	US			false		
111-7340821-3970640	20279585458378	2020-10-31T00:14:42+00:00	2020-10-30T17:14:42-07:00	2020-10-31T00:43:40+00:00	2020-11-04T07:59:59+00:00	-4	szsbzp8qf38r15w@marketplace.amazon.com	Bianca Moruzzi	+1 929-436-4790 ext. 87953	ABM010	Delivery by Tuesday | The Spring Fling Bouquet by Arabella Bouquets with a Free Designer Glass Vase	1	0	1	Expedited	Bruna Moruzzi	8 Pennstar Lane			South Yarmouth	MA	02664	US		I love you mom!  Everything is going to be okay. From Bianca Moruzzi	false		
113-5091502-0504223	51908635059690	2020-10-31T00:36:26+00:00	2020-10-30T17:36:26-07:00	2020-10-31T01:02:38+00:00	2020-11-04T07:59:59+00:00	-4	7z23t0d9r5rjvyq@marketplace.amazon.com	lolly werner	+1 480-618-5344 ext. 68867	ABM022	Delivery by Tuesday | Purple Extravagance Bouquet by Arabella Bouquets	1	0	1	Expedited	Margie Arvallo	2036 E TOPEKA DR			PHOENIX	AZ	85024-2404	US		Get well soon! We love you!!  Lolly and Vicki From lolly werner	false		
113-9721351-2784233	40167658076962	2020-10-31T00:56:40+00:00	2020-10-30T17:56:40-07:00	2020-10-31T01:26:18+00:00	2020-11-04T07:59:59+00:00	-4	1b6nf28zyfj8202@marketplace.amazon.com	Kimberly Gorman	+1 619-854-2705 ext. 43689	ABM022	Delivery by Tuesday | Purple Extravagance Bouquet by Arabella Bouquets	1	0	1	Expedited	Kimberly Gorman	6016 N TRAILS END			PEORIA	IL	61614-3523	US		Happy birthday, Nana!  We love you!  Love,  Madison, Collin, Kimberly and Corey From The Gormans	false		
111-6558883-8816221	20513295488258	2020-10-31T01:13:09+00:00	2020-10-30T18:13:09-07:00	2020-10-31T01:40:04+00:00	2020-11-04T07:59:59+00:00	-4	6y29lzhr9fr0g3d@marketplace.amazon.com	Jill A. Sweringen	+1 213-442-1463 ext. 19269	ABM020	Delivery by Tuesday | The Sunset Bouquet by Arabella Bouquets	1	0	1	Expedited	Richard W. Sweringen	163 WOODLANDS DR			VERONA	PA	15147-3879	US		Happy 60th Anniversary, Dad and Mom! From Jill, Barb and Joxer	false		
111-6558883-8816221	55006893578938	2020-10-31T01:13:09+00:00	2020-10-30T18:13:09-07:00	2020-10-31T01:40:04+00:00	2020-11-04T07:59:59+00:00	-4	6y29lzhr9fr0g3d@marketplace.amazon.com	Jill A. Sweringen	+1 213-442-1463 ext. 19269	ABM022	Delivery by Tuesday | Purple Extravagance Bouquet by Arabella Bouquets	1	0	1	Expedited	Richard W. Sweringen	163 WOODLANDS DR			VERONA	PA	15147-3879	US		Happy 60th Anniversary, Mom and Dad! From Jill, Barb and Joxer	false		
111-9336604-1335405	64832316100330	2020-10-31T01:24:51+00:00	2020-10-30T18:24:51-07:00	2020-10-31T01:53:42+00:00	2020-11-04T07:59:59+00:00	-4	43nhjrhkrmgmtr1@marketplace.amazon.com	Terry A. Marchillo	+1 619-854-2705 ext. 18327	ABM010	Delivery by Tuesday | The Spring Fling Bouquet by Arabella Bouquets with a Free Designer Glass Vase	1	0	1	Expedited	Vincent and Jaimie Marchillo	1010 TAYLOR AVE N			SEATTLE	WA	98109-3849	US		❤️Congratulations to the bride and groom!!  Love you both so much! From Mommola!😊	false		
111-0302329-3968272	22266411553186	2020-10-31T01:38:31+00:00	2020-10-30T18:38:31-07:00	2020-10-31T02:05:07+00:00	2020-11-04T07:59:59+00:00	-4	bsng724k7bqwf80@marketplace.amazon.com	Amy Saras	56128999006	ABM022	Delivery by Tuesday | Purple Extravagance Bouquet by Arabella Bouquets	1	0	1	Expedited	Christine Nesheiwat	6756 CHRISTIANSTED LN			NASHVILLE	TN	37211-7485	US		Congratulations on your new sweet baby girl! We are so happy for you and cannot wait to meet her! God bless! XOXO From Robbie, Amy & the kids	false		
114-3846990-7021044	26835802305122	2020-10-31T01:49:28+00:00	2020-10-30T18:49:28-07:00	2020-10-31T02:18:14+00:00	2020-11-04T07:59:59+00:00	-4	qq0djv46fx8p2rc@marketplace.amazon.com	Leanne P Morse	+1 602-671-6610 ext. 25956	ABR0022	Delivery by Tuesday | Arabella Farm Direct Bouquet of 12 Fresh Cut Pink Roses with a Free Glass Vase	1	0	1	Expedited	Gretchen Morse	129 BERRY CREEK DR			FLAT ROCK	NC	28731-8531	US		2020 Sucks!!  We love you and hope these cheer you up! XOXOXOXO From Dan, Leanne, Maxon, & Anika	false		
111-7787109-6366601	23858863823410	2020-10-31T02:19:02+00:00	2020-10-30T19:19:02-07:00	2020-10-31T02:48:36+00:00	2020-11-04T07:59:59+00:00	-4	nyf06plcyp7cbkh@marketplace.amazon.com	Sachi Brittin	+1 213-442-1463 ext. 11416	ABM022	Delivery by Tuesday | Purple Extravagance Bouquet by Arabella Bouquets	1	0	1	Expedited	Yoshie R. Brittin	2739 NE 88th St.			Seattle	WA	98115	US		Happy 47th Anniversary!!  We love you both mucho!!  Love,  Sachi, Stephan, Sean and Amelie From Sachi Brittin	false		
114-7780366-4693056	41554094838130	2020-10-31T02:39:34+00:00	2020-10-30T19:39:34-07:00	2020-10-31T03:10:01+00:00	2020-11-04T07:59:59+00:00	-4	xzsv4vf1mq2t1sq@marketplace.amazon.com	Sonia L Smythe	+1 480-618-5344 ext. 75593	ABR0022	Delivery by Tuesday | Arabella Farm Direct Bouquet of 12 Fresh Cut Pink Roses with a Free Glass Vase	1	0	1	Expedited	Betsy Welsh	3575 ALEXANDRIA PIKE			ANDERSON	IN	46012-9208	US			false		
112-2077065-3524209	66805236940794	2020-10-31T02:43:52+00:00	2020-10-30T19:43:52-07:00	2020-10-31T03:11:41+00:00	2020-11-04T07:59:59+00:00	-4	015xv000f4smqt9@marketplace.amazon.com	Jessica Gonzalez	+1 213-442-1463 ext. 68738	ABR0022	Delivery by Tuesday | Arabella Farm Direct Bouquet of 12 Fresh Cut Pink Roses with a Free Glass Vase	1	0	1	Expedited	Jaclynn Smith	2825 PALM BEACH BLVD APT 504			FORT MYERS	FL	33916-1518	US		You did it!! Beautiful - It’s who you are. It’s what you’ve done! Your strength and courage to get through this part was beyond admirable. You are such a fighter and I’m so lucky to have you in my life! Love you XO From Jessica Gonzalez	false		
114-0876245-4925852	03347262105002	2020-10-31T03:05:57+00:00	2020-10-30T20:05:57-07:00	2020-10-31T03:35:49+00:00	2020-11-04T07:59:59+00:00	-4	83w651cn1n11lky@marketplace.amazon.com	Ayesha Khan	+1 602-671-6610 ext. 60263	ABC004	Delivery by Wednesday | Arabella Bouquets 10 Stems of Purple Dendrobium Orchids in a Free Designer Glass Vase	2	0	2	Expedited	Syeda Muneeruddin	3019 BLUESTEM CT			NAPERVILLE	IL	60565-3556	US			false		
112-3846094-3406604	10026633559554	2020-10-31T04:58:57+00:00	2020-10-30T21:58:57-07:00	2020-10-31T05:20:27+00:00	2020-11-04T07:59:59+00:00	-4	q5xdmwgd6969ryw@marketplace.amazon.com	Mariko Prigel	+1 929-436-4790 ext. 54801	ABM010	Delivery by Tuesday | The Spring Fling Bouquet by Arabella Bouquets with a Free Designer Glass Vase	1	0	1	Expedited	Mai Hessel	1809 TREGO DR			JUSTIN	TX	76247-5774	US		Happy happy happy birthday !! This is the first birthday as a mother! Enjoy your day with your amazing husband, extra cute baby Rhys, and neko chans ! Love you! From James & Mariko Prigel	false		
111-1292534-6770651	31571663966090	2020-10-31T05:35:30+00:00	2020-10-30T22:35:30-07:00	2020-10-31T06:06:03+00:00	2020-11-04T07:59:59+00:00	-4	9nllztb1xwdslq9@marketplace.amazon.com	walter rich	+1 602-671-6610 ext. 11133	ABR0033	Delivery by Tuesday | Arabella Farm Direct Bouquet of 12 Fresh Cut Orange Roses with a Free Glass Vase	1	0	1	Expedited	SUSAN CALLAGHAN	34 COLONY ST			ANSONIA	CT	06401-1406	US			false		
113-4235120-6353826	40462728899362	2020-10-31T06:37:37+00:00	2020-10-30T23:37:37-07:00	2020-10-31T07:02:21+00:00	2020-11-04T07:59:59+00:00	-4	g4yk3mjt7ffcbpj@marketplace.amazon.com	Jennifer Ditrich	+1 602-671-6610 ext. 59348	ABM022	Delivery by Tuesday | Purple Extravagance Bouquet by Arabella Bouquets	1	0	1	Expedited	Kelly Parthenakis	2802 ZUCK RD			ERIE	PA	16506-3155	US		Dear Kelly, I know these past few months have been very difficult for you. You will get through this. You are a warrior, a survivor, a savage. I’m here for you & I love you! From Jen	false		
113-7192556-7092257	47879857457946	2020-10-31T06:32:50+00:00	2020-10-30T23:32:50-07:00	2020-10-31T07:03:32+00:00	2020-11-04T07:59:59+00:00	-4	h041dwjbrfff59m@marketplace.amazon.com	Stephany A. Watson	+1 415-851-9136 ext. 17382	ABR0033	Delivery by Tuesday | Arabella Farm Direct Bouquet of 12 Fresh Cut Orange Roses with a Free Glass Vase	1	0	1	Expedited	Greg and Marica Russ	130164TH AVE NE			BELLEVUE	WA	98008-4450	US			false		
112-8711947-0132231	15891558444338	2020-10-31T08:04:48+00:00	2020-10-31T01:04:48-07:00	2020-10-31T08:32:38+00:00	2020-11-04T07:59:59+00:00	-4	xbhnr8g9yjw4whp@marketplace.amazon.com	Cynthia Barclay Hoffmann	+1 213-442-1463 ext. 27811	ABM022	Delivery by Tuesday | Purple Extravagance Bouquet by Arabella Bouquets	1	0	1	Expedited	Robert Post	3300 DARBY RD APT 6303			HAVERFORD	PA	19041-1074	US		Dear Robin, Happy 100th !!  What more is there to say :-)  With much love, Cynthia From Cynthia Barclay Hoffmann	false		
112-8125432-0384206	17762946716698	2020-10-31T09:08:10+00:00	2020-10-31T02:08:10-07:00	2020-10-31T09:35:19+00:00	2020-11-04T07:59:59+00:00	-4	80swg1g3n4j70wj@marketplace.amazon.com	Hector Marchi	+1 619-854-2705 ext. 71048	ABR001	Delivery by Tuesday | Arabella Bouquets 12 Stems of Fresh Cut Red Roses in a Free Designer Glass Vase	1	0	1	Expedited	Nubia Marchi	135 MARTIN ST			OCEANSIDE	CA	92058-7711	US		Para la mejor esposa del mundo. Ya merito mi amor. Te amo mucho desde acá. -Héctor	false		
113-1997723-2705025	62467562483098	2020-10-31T11:21:02+00:00	2020-10-31T04:21:02-07:00	2020-10-31T11:50:57+00:00	2020-11-04T07:59:59+00:00	-4	v8jycr9fww9v2yp@marketplace.amazon.com	nick	+1 213-442-1463 ext. 31039	ABR0022	Delivery by Tuesday | Arabella Farm Direct Bouquet of 12 Fresh Cut Pink Roses with a Free Glass Vase	1	0	1	Expedited	Laura D'Andria	8337 NICHOLS ST B			FORT CAMPBELL	KY	42223-2610	US			false		
113-2812466-8735423	23985401125546	2020-10-31T12:09:46+00:00	2020-10-31T05:09:46-07:00	2020-10-31T12:37:04+00:00	2020-11-04T07:59:59+00:00	-4	sxwpxc2p6qsz8cf@marketplace.amazon.com	Pooja	+1 929-436-4790 ext. 91509	ABR0022	Delivery by Tuesday | Arabella Farm Direct Bouquet of 12 Fresh Cut Pink Roses with a Free Glass Vase	1	0	1	Expedited	Shikha	CLINTON 18 OVERLOOK DR			CLINTON	NJ	08809-1133	US		Heartiest Congratulations on the most awaited news. We all are really happy for you. Wishing you all the luck for future. From Maa Paa Pooja Vishu	false		
111-7698597-6547408	33139286578554	2020-10-31T13:00:20+00:00	2020-10-31T06:00:20-07:00	2020-10-31T13:29:07+00:00	2020-11-04T07:59:59+00:00	-4	zm5cm7120v6hdpx@marketplace.amazon.com	denise regan	+1 480-618-5344 ext. 28378	ABR001	Delivery by Tuesday | Arabella Bouquets 12 Stems of Fresh Cut Red Roses in a Free Designer Glass Vase	1	0	1	Expedited	Cora elizabet thomas	16 E JONES ST			SAVANNAH	GA	31401-4515	US		Happy birthday!! From denise	false		
114-5199857-6671431	66990932509978	2020-10-31T13:02:45+00:00	2020-10-31T06:02:45-07:00	2020-10-31T13:31:09+00:00	2020-11-04T07:59:59+00:00	-4	912zxqtm6qrc4gl@marketplace.amazon.com	Doug	+1 929-436-4790 ext. 76825	ABM020	Delivery by Tuesday | The Sunset Bouquet by Arabella Bouquets	1	0	1	Expedited	Hannah D. Stephens	1019 N VILLARD ST			TACOMA	WA	98406-2635	US		I love you Hannah - Happy Birthday ! From Dad	false		
111-5609351-4792210	30514637910242	2020-10-31T13:15:24+00:00	2020-10-31T06:15:24-07:00	2020-10-31T13:40:45+00:00	2020-11-04T07:59:59+00:00	-4	ngdln322j02jwb6@marketplace.amazon.com	Dr. Saku W Gunasegaram	+1 619-854-2705 ext. 03428	ABR004	Delivery by Tuesday | Arabella Farm Direct Bouquet of 12 Fresh Cut Yellow Roses with a Free Glass Vase	3	0	3	Expedited	TO:EVERYONE WHO LOVED DICK CSAPLAR   NANCY CSAPLAR	WE CANNOT SEE YOU BUT YOU ARE IN THOUG HTS AND PRAYERS	76 YALE ST SINCEREST CONDOLENCES		WINCHESTER	MA	01890-2332	US		TO: EVERYONE WHO LOVED UNCLE DICK CSAPLAR C/O DAUGHTER-IN-LAW NANCY CSAPLAR IT IS ALWAYS A SHOCK EVEN WHEN IT'S BEEN ANTICIPATED FOR _YEARS_. SINCEREST CONDOLENCES. From Dr. Saku Gunasegaram+WILF	false		
111-4766603-8556246	39068717619978	2020-10-31T13:21:01+00:00	2020-10-31T06:21:01-07:00	2020-10-31T13:47:45+00:00	2020-11-04T07:59:59+00:00	-4	ngdln322j02jwb6@marketplace.amazon.com	Dr. Saku W Gunasegaram	+1 602-671-6610 ext. 24373	ABR004	Delivery by Tuesday | Arabella Farm Direct Bouquet of 12 Fresh Cut Yellow Roses with a Free Glass Vase	3	0	3	Expedited	WILL CSAPLAR (SENIOR) SINCEREST CONDOLENCES	101 BARRY RD UNIT 1352 THE	WILLOWS CSAPLAR		WORCESTER	MA	01609-1273	US		TO: WILL CSAPLAR (SENIOR) IT IS ALWAYS A SHOCK EVEN WHEN IT'S BEEN ANTICIPATED FOR _YEARS_. SINCEREST CONDOLENCES. From Dr. Saku Gunasegaram+WILF	false		
112-4982691-7701813	38258873710906	2020-10-31T13:24:18+00:00	2020-10-31T06:24:18-07:00	2020-10-31T13:52:26+00:00	2020-11-04T07:59:59+00:00	-4	0fymr7np3dkk6xv@marketplace.amazon.com	Jenelle Haugan	+1 480-618-5344 ext. 57787	ABM025	Delivery by Wednesday | The Fell for You Bouquet by Arabella Bouquets	1	0	1	Expedited	Kim McLaughlin	587 south Movil lake rd			Bemidji	MN	56601	US		Enjoy your gift! From Jenelle Haugan	false		
112-2051473-6110602	55146704994210	2020-10-31T13:31:29+00:00	2020-10-31T06:31:29-07:00	2020-10-31T14:00:50+00:00	2020-11-04T07:59:59+00:00	-4	py7j8fllkrjz4nm@marketplace.amazon.com	Tracy Cornette	+1 929-436-4790 ext. 30084	ABM022	Delivery by Tuesday | Purple Extravagance Bouquet by Arabella Bouquets	1	0	1	Expedited	Carol Cornette	1949 FRANKS RD			STURGEON BAY	WI	54235-9231	US		Happy Birthday!!! From Tracy, Alex & Aiden	false		
111-7874116-9247431	07797066846418	2020-10-31T13:33:45+00:00	2020-10-31T06:33:45-07:00	2020-10-31T14:03:13+00:00	2020-11-04T07:59:59+00:00	-4	p3tssfvp8ng5cr4@marketplace.amazon.com	Jennifer	+1 619-854-2705 ext. 31218	ABR0055	Delivery by Tuesday | Arabella Farm Direct Bouquet of 12 Stems of Fresh Cut Hot Pink Roses in a Free Designer Glass Vase	1	0	1	Expedited	Anissa Dowling	218 BELMONT CT			LOVELAND	OH	45140-7125	US		Anissa,  HAPPY 50th BIRTHDAY!  Welcome to the club! From Jennifer	false		
113-6490627-8929854	09753022404562	2020-10-31T14:27:08+00:00	2020-10-31T07:27:08-07:00	2020-10-31T14:56:48+00:00	2020-11-04T07:59:59+00:00	-4	qm5x7tf4xcqjmn9@marketplace.amazon.com	Karen Kennedy	+1 929-436-4790 ext. 20263	ABR0022	Delivery by Tuesday | Arabella Farm Direct Bouquet of 12 Fresh Cut Pink Roses with a Free Glass Vase	1	0	1	Expedited	Rose Valzavano	6 Marietta Lane			Glen Cove	New York	11542	US			false		
111-8096900-4505051	05729280439730	2020-10-31T14:49:15+00:00	2020-10-31T07:49:15-07:00	2020-10-31T15:05:52+00:00	2020-11-04T07:59:59+00:00	-4	tjp58pwrf80ds4j@marketplace.amazon.com	perry r hammer	+1 619-854-2705 ext. 08017	ABR0055	Delivery by Tuesday | Arabella Farm Direct Bouquet of 12 Stems of Fresh Cut Hot Pink Roses in a Free Designer Glass Vase	1	0	1	Expedited	judy viljevac	6638 S 20TH ST			MILWAUKEE	WI	53221-5226	US		see what happens when you mix white and red !!!            he who does not play well with others..... From        perry r hammer From perry r hammer	false		
112-0000024-3294612	60052292872930	2020-10-31T15:16:05+00:00	2020-10-31T08:16:05-07:00	2020-10-31T15:46:44+00:00	2020-11-04T07:59:59+00:00	-4	1vppyvzf1f978ld@marketplace.amazon.com	C M J Kimpton	+1 619-854-2705 ext. 37302	ABM002	Delivery by Wednesday | Arabella Bouquets Fresh Cut White Calla Lilies in a Free Designer Glass Vase	1	0	1	Expedited	Camilla kimpton	900 CARUTHERS AVE LEAVE ON PORCH			NASHVILLE	TN	37204-2409	US			false		
112-0790125-9255400	27263494337314	2020-10-31T15:28:46+00:00	2020-10-31T08:28:46-07:00	2020-10-31T15:49:06+00:00	2020-11-04T07:59:59+00:00	-4	h2bt0ld598v8pnn@marketplace.amazon.com	Darlene Zanders	+1 602-671-6610 ext. 72788	ABR0022	Delivery by Tuesday | Arabella Farm Direct Bouquet of 12 Fresh Cut Pink Roses with a Free Glass Vase	1	0	1	Expedited	Mother Blueford	204 MIDLAND AVE			COLUMBUS	OH	43223-1023	US		Enjoy your gift! Happy Birthday Mom Blue Love You. Your GodDaughter From Darlene Zanders	false		
112-4206927-2003428	65390478403130	2020-10-31T15:28:10+00:00	2020-10-31T08:28:10-07:00	2020-10-31T15:57:30+00:00	2020-11-04T07:59:59+00:00	-4	x3f6b5yvr12j9hg@marketplace.amazon.com	Jocelyn K Liberg	+1 480-618-5344 ext. 99949	ABR0022	Delivery by Tuesday | Arabella Farm Direct Bouquet of 12 Fresh Cut Pink Roses with a Free Glass Vase	1	0	1	Expedited	Bernice Young	22156 TOWEY CT			GREAT MILLS	MD	20634-2213	US		Bernice, Just wanted you to know I’m thinking about you, and that I miss seeing you every day! All my best, Jocelyn Liberg From Jocelyn K Liberg	false		
113-6095834-1701854	18737767593522	2020-10-31T15:35:17+00:00	2020-10-31T08:35:17-07:00	2020-10-31T15:59:43+00:00	2020-11-04T07:59:59+00:00	-4	mp7r9cn68gycyx1@marketplace.amazon.com	John Savageau	+1 480-618-5344 ext. 62158	ABR004	Delivery by Tuesday | Arabella Farm Direct Bouquet of 12 Fresh Cut Yellow Roses with a Free Glass Vase	1	0	1	Expedited	Alison Willing	434 DAY MOUNTAIN RD			TEMPLE	ME	04984-3604	US		Happy Birthday.  You are a special, caring person who is often unappreciated.  We know all you do and we love you very much.  Do something special for yourself today! From Ann & John	false		
114-1467095-9367439	26086855726034	2020-10-31T15:33:23+00:00	2020-10-31T08:33:23-07:00	2020-10-31T16:01:40+00:00	2020-11-04T07:59:59+00:00	-4	d8tprc33rf4w0d0@marketplace.amazon.com	Jeremy	+1 929-436-4790 ext. 42871	ABM020	Delivery by Tuesday | The Sunset Bouquet by Arabella Bouquets	1	0	1	Expedited	Michael and Sharla Leary	18284 TENNYSON LN			PARKER	CO	80134-7751	US		Hope you all feel better soon! From The Hotsenpiller’s	false		
112-1146791-7690618	61198236299674	2020-10-31T15:36:31+00:00	2020-10-31T08:36:31-07:00	2020-10-31T16:06:55+00:00	2020-11-04T07:59:59+00:00	-4	q4chsv3w68rqsnf@marketplace.amazon.com	Linda Kester	+1 619-854-2705 ext. 03666	ABR001	Delivery by Tuesday | Arabella Bouquets 12 Stems of Fresh Cut Red Roses in a Free Designer Glass Vase	1	0	1	Expedited	Dolores Kester	1818 WINCHESTER ST			MADISON	WI	53704-3457	US			false		
113-8355594-8889828	46623986283586	2020-10-31T16:00:05+00:00	2020-10-31T09:00:05-07:00	2020-10-31T16:28:39+00:00	2020-11-04T07:59:59+00:00	-4	klx9lswvg1zndtx@marketplace.amazon.com	JULIE OLIVERI	+1 602-671-6610 ext. 60701	ABM024	Delivery by Wednesday | The Beauty of Color Bouquet by Arabella Bouquets	1	0	1	Expedited	Mary  Mazzei	81 OXFORD AVE			CAMBRIDGE	MA	02138-4422	US		Thinking  of you during this difficult time Love   Julie and Joanne (Kennedy) From JULIE OLIVERI	false		
112-1916463-1838617	20386256138418	2020-10-31T16:13:11+00:00	2020-10-31T09:13:11-07:00	2020-10-31T16:33:07+00:00	2020-11-04T07:59:59+00:00	-4	fllnchb0wyrk2gm@marketplace.amazon.com	Amanda Desroches	+1 602-671-6610 ext. 21271	ABR0022	Delivery by Tuesday | Arabella Farm Direct Bouquet of 12 Fresh Cut Pink Roses with a Free Glass Vase	1	0	1	Expedited	Carol and George Dinardi	68 EUSTIS AVE			WAKEFIELD	MA	01880-1431	US		Sending warm, good and healthy vibes your way. From Mandie & Derek Desroches & family	false		
112-0110647-4620257	12116886691882	2020-10-31T16:03:27+00:00	2020-10-31T09:03:27-07:00	2020-10-31T16:33:21+00:00	2020-11-04T07:59:59+00:00	-4	205n6jhvkjrxm7c@marketplace.amazon.com	Richard Payne	+1 213-442-1463 ext. 56153	ABM020	Delivery by Tuesday | The Sunset Bouquet by Arabella Bouquets	1	0	1	Expedited	Sherry Schreck c/o ROSALYN DOTY	811 FREEDOM PLAZA CIR APT 203			SUN CITY CENTER	FL	33573-5294	US		Love you!! From Richard	false		
112-6916786-5941048	00664050611346	2020-10-31T16:30:25+00:00	2020-10-31T09:30:25-07:00	2020-10-31T16:56:41+00:00	2020-11-04T07:59:59+00:00	-4	dmfk66l3gxb89tf@marketplace.amazon.com	Carolyn Langer	+1 480-618-5344 ext. 55543	ABM022	Delivery by Tuesday | Purple Extravagance Bouquet by Arabella Bouquets	1	0	1	Expedited	Carol Langer	6113 BYRON ST			ROSEMONT	IL	60018-4415	US		Happy birthday Mom! We love you, From Steve, Carolyn, Nick, Carly, Lilly & Xander	false		
111-4883221-1646644	24267955710274	2020-10-31T16:48:08+00:00	2020-10-31T09:48:08-07:00	2020-10-31T17:01:07+00:00	2020-11-04T07:59:59+00:00	-4	lszd17bnx2fqd7w@marketplace.amazon.com	Turner Robin	+1 929-436-4790 ext. 79114	ABM022	Delivery by Tuesday | Purple Extravagance Bouquet by Arabella Bouquets	1	0	1	Standard	Erica Nagyvegi	4400 PELUSO DR			SYRACUSE	NY	13215-1301	US		God bless you on this milestone birthday! From Robin	false		
114-7515551-3159449	01218971217506	2020-10-31T16:34:26+00:00	2020-10-31T09:34:26-07:00	2020-10-31T17:03:40+00:00	2020-11-04T07:59:59+00:00	-4	jgrrs2dn7krb5d2@marketplace.amazon.com	Randa Spears	+1 213-442-1463 ext. 32405	ABR0033	Delivery by Tuesday | Arabella Farm Direct Bouquet of 12 Fresh Cut Orange Roses with a Free Glass Vase	1	0	1	Expedited	Hilary Mason	5415 GRESHAM AVE			SAINT LOUIS	MO	63109-3704	US		Very Happy Belated Birthday! Much love, Randa From Randa Spears	false		
114-7936831-3211403	44527636440082	2020-10-31T16:44:32+00:00	2020-10-31T09:44:32-07:00	2020-10-31T17:11:28+00:00	2020-11-04T07:59:59+00:00	-4	q2jmvmd5583kqp2@marketplace.amazon.com	Jason	+1 929-436-4790 ext. 63352	ABM022	Delivery by Tuesday | Purple Extravagance Bouquet by Arabella Bouquets	1	0	1	Expedited	Marji Family	42573 SADDLE LN			STERLING HEIGHTS	MI	48314-2928	US			false		
114-2301813-6484245	17818795831762	2020-10-31T16:46:38+00:00	2020-10-31T09:46:38-07:00	2020-10-31T17:15:59+00:00	2020-11-04T07:59:59+00:00	-4	q2jmvmd5583kqp2@marketplace.amazon.com	Jason	+1 602-671-6610 ext. 50023	ABM022	Delivery by Tuesday | Purple Extravagance Bouquet by Arabella Bouquets	1	0	1	Expedited	Haddad Family	2853 CULBERTSON AVE			ROCHESTER HILLS	MI	48307-4617	US		To the lovely family, our hearts ache with you! He was such an incredible man. We are so sorry for your loss & we are continuously praying for peace & comfort during this difficult time. We love you so much & know we are here From Qandahs & Millers	false		
112-1211600-5103413	23655454660386	2020-10-31T16:48:54+00:00	2020-10-31T09:48:54-07:00	2020-10-31T17:18:15+00:00	2020-11-04T07:59:59+00:00	-4	vkn41hldcqxf9z2@marketplace.amazon.com	Jocelyn M Crenshaw	+1 415-851-9136 ext. 25281	ABR0033	Delivery by Tuesday | Arabella Farm Direct Bouquet of 12 Fresh Cut Orange Roses with a Free Glass Vase	1	0	1	Standard	Grace Jones	624 ENGLAND ST			FATE	TX	75189-7010	US		Congratulations on the Adoption!!! Can't wait to celebrate with you soon. We love you guys. From The Crenshaws	false		
112-0510174-9466665	01052506904434	2020-10-31T16:50:16+00:00	2020-10-31T09:50:16-07:00	2020-10-31T17:19:20+00:00	2020-11-04T07:59:59+00:00	-4	1z07xyg1xcfdn9q@marketplace.amazon.com	shannon sommerville	+1 619-854-2705 ext. 22843	ABM024	Delivery by Wednesday | The Beauty of Color Bouquet by Arabella Bouquets	1	0	1	Expedited	Donna Telyzcka	151 RAMSEY AVE			YONKERS	NY	10701-5243	US		Aunt Donna Happy Birthday! Sorry so late. Hope you had the best day. Love you Annette From shannon sommerville	false		
112-5169180-9449032	24627056869954	2020-10-31T17:05:07+00:00	2020-10-31T10:05:07-07:00	2020-10-31T17:31:27+00:00	2020-11-04T07:59:59+00:00	-4	tkd4pmcd0jb2thc@marketplace.amazon.com	Ryan Jamaal Tims	+1 602-671-6610 ext. 16450	ABM0033	Delivery by Wednesday | Arabella Farm Direct Bouquet of Fresh Cut White Hydrangea with a Free Glass Vase	1	0	1	Expedited	Tameshia Henson	20920 WINDMILL RIDGE ST			PFLUGERVILLE	TX	78660-6539	US		You’re DONE! What is school? We don’t know her. Just another notch on your superwoman belt.  Love you big From Rosalynn & Ryan	false		
113-8738927-9767410	15218751003066	2020-10-31T17:21:28+00:00	2020-10-31T10:21:28-07:00	2020-10-31T17:50:47+00:00	2020-11-04T07:59:59+00:00	-4	zv8yc880rhkrz4d@marketplace.amazon.com	David D Piper	+1 602-671-6610 ext. 88937	ABM025	Delivery by Wednesday | The Fell for You Bouquet by Arabella Bouquets	1	0	1	Expedited	Maggie Piper	4548 17TH AVE NE			SEATTLE	WA	98105-4204	US		Magpie - I just want you to know that I am thinking of you, that you are loved, and that you are amazing in every single way.... I love you, Dad From David D Piper	false		
113-9725809-4850647	06672904309466	2020-10-31T17:26:26+00:00	2020-10-31T10:26:26-07:00	2020-10-31T17:56:40+00:00	2020-11-04T07:59:59+00:00	-4	23vpyr7n30f1n4p@marketplace.amazon.com	Stephen Howard Knox	+1 929-436-4790 ext. 59327	ABM010	Delivery by Tuesday | The Spring Fling Bouquet by Arabella Bouquets with a Free Designer Glass Vase	1	0	1	Expedited	Arthur Spenser	2545 SW TERWILLIGER BLVD			PORTLAND	OR	97201-6302	US			false		
