order-id	order-item-id	purchase-date	payments-date	reporting-date	promise-date	days-past-promise	buyer-email	buyer-name	buyer-phone-number	sku	product-name	quantity-purchased	quantity-shipped	quantity-to-ship	ship-service-level	recipient-name	ship-address-1	ship-address-2	ship-address-3	ship-city	ship-state	ship-postal-code	ship-country	gift-wrap-type	gift-message-text	is-business-order	purchase-order-number	price-designation
113-4743100-2108213	32002008170450	2020-10-29T23:36:31+00:00	2020-10-29T16:36:31-07:00	2020-10-30T00:06:57+00:00	2020-11-03T07:59:59+00:00	-3	czg24lcsgb1qlq5@marketplace.amazon.com	Robert M. Sproul	+1 415-851-9136 ext. 15587	ABM017	Delivery by Monday | Arabella Bouquets 10 Stems of Blue Dendrobium Orchids in a Free Designer Glass Vase	1	0	1	Standard	Robert Sproul	1800 FORT PULASKI CT			DUMFRIES	VA	22026-2506	US			false		
113-0406991-5752229	35924458931866	2020-10-30T01:50:33+00:00	2020-10-29T18:50:33-07:00	2020-10-30T02:20:40+00:00	2020-11-03T07:59:59+00:00	-3	0kvr1jzw662m2th@marketplace.amazon.com	Liz Kuhns	+1 602-671-6610 ext. 03231	ABM017	Delivery by Monday | Arabella Bouquets 10 Stems of Blue Dendrobium Orchids in a Free Designer Glass Vase	1	0	1	Standard	jane kuhns	12615 WHITHORN CT			PLYMOUTH	MI	48170-6912	US			false		
112-0093765-8631429	08607212955802	2020-10-30T15:46:38+00:00	2020-10-30T08:46:38-07:00	2020-10-30T16:10:06+00:00	2020-11-04T07:59:59+00:00	-4	8h5mx3swh52r87h@marketplace.amazon.com	Estella Munoz	+1 602-671-6610 ext. 38850	ABM017	Delivery by Monday | Arabella Bouquets 10 Stems of Blue Dendrobium Orchids in a Free Designer Glass Vase	1	0	1	Standard	Josie Vasquez	237 JENSEN AVE			EL PASO	TX	79915-3807	US		Enjoy your gift! From Estella Munoz	false		
113-8767409-5623457	18875362879402	2020-10-30T18:10:04+00:00	2020-10-30T11:10:04-07:00	2020-10-30T18:32:17+00:00	2020-11-04T07:59:59+00:00	-4	dgmxz1vyrs2n577@marketplace.amazon.com	Storm Wojcik	+1 929-436-4790 ext. 36659	ABM010	Delivery by Tuesday | The Spring Fling Bouquet by Arabella Bouquets with a Free Designer Glass Vase	1	0	1	Expedited	alexa Wojcik	1245 WIMBELDON BLVD			COLUMBUS	OH	43228-9329	US			false		
113-7537306-1511465	59536292448882	2020-10-30T18:18:29+00:00	2020-10-30T11:18:29-07:00	2020-10-30T18:41:23+00:00	2020-11-04T07:59:59+00:00	-4	dgmxz1vyrs2n577@marketplace.amazon.com	Storm Wojcik	+1 213-442-1463 ext. 32808	ABM010	Delivery by Tuesday | The Spring Fling Bouquet by Arabella Bouquets with a Free Designer Glass Vase	1	0	1	Expedited	Kathryn Harrison	6108 WATERFIELD WAY			SAINT CLOUD	FL	34771-8845	US		Happy (late) Birthday! From Captain of the SS Butthead	false		
114-9791613-4295461	49032634240346	2020-10-30T18:24:34+00:00	2020-10-30T11:24:34-07:00	2020-10-30T18:47:43+00:00	2020-11-04T07:59:59+00:00	-4	z4r7zm5nv2vp5lt@marketplace.amazon.com	Oluwatoyin Ogunmuyiwa	+1 929-436-4790 ext. 31796	ABR0055	Arabella Farm Direct Bouquet of 12 Stems of Fresh Cut Hot Pink Roses in a Free Designer Glass Vase	1	0	1	Expedited	Victoria Olanrewaju	5925 N 10TH ST			PHILADELPHIA	PA	19141-3711	US		You may hold my hand for a while, but you hold my heart forever 💕 From Are You There?	false		
113-8202854-4360211	51750717121002	2020-10-30T18:19:33+00:00	2020-10-30T11:19:33-07:00	2020-10-30T18:48:38+00:00	2020-11-04T07:59:59+00:00	-4	nsbhwfnkzrkn9j9@marketplace.amazon.com	Ruffina F. Anklesaria	+1 602-671-6610 ext. 37796	ABR004	Delivery by Tuesday | Arabella Farm Direct Bouquet of 12 Fresh Cut Yellow Roses with a Free Glass Vase	1	0	1	Expedited	Janet Fatoke	1049 RESERVE WAY			INDIANAPOLIS	IN	46220-1884	US		Beloved Devi, Sending you a little sunshine with a lot of love, Ruffina From Ruffina F. Anklesaria	false		
112-0366042-4137073	58656249745322	2020-10-30T18:27:59+00:00	2020-10-30T11:27:59-07:00	2020-10-30T18:53:57+00:00	2020-11-04T07:59:59+00:00	-4	c11pzv0jj3y7gs1@marketplace.amazon.com	Stacey Czeck	+1 929-436-4790 ext. 75026	ABM0033	Delivery by Tuesday | Arabella Farm Direct Bouquet of Fresh Cut White Hydrangea with a Free Glass Vase	1	0	1	Expedited	Jim and Sue Grahek	10815 50TH CT N			PLYMOUTH	MN	55442-3009	US		Dear Sue and Jim, My heart aches for you during this difficult time. Please take good care of each other and know that Irene's legacy lives on in you! With Love, Stacey From Stacey Czeck	false		
111-2588886-6920258	21744673468330	2020-10-30T18:55:59+00:00	2020-10-30T11:55:59-07:00	2020-10-30T19:24:34+00:00	2020-11-04T07:59:59+00:00	-4	n3d7t10mbf88twh@marketplace.amazon.com	Amy	+1 480-618-5344 ext. 13279	ABM017	Delivery by Wednesday | Arabella Bouquets 10 Stems of Blue Dendrobium Orchids in a Free Designer Glass Vase	1	0	1	Expedited	Suk Friedhaber	13324 WARNER HILL RD			SOUTH WALES	NY	14139-9745	US		Hugs from Colorado. We love you Grandma! From Jacob & Lilana	false		
112-9110228-3439404	23757829099242	2020-10-30T19:13:07+00:00	2020-10-30T12:13:07-07:00	2020-10-30T19:38:57+00:00	2020-11-04T07:59:59+00:00	-4	d2dppnm4xg61tcg@marketplace.amazon.com	STEVEN JONES	+1 213-442-1463 ext. 06840	ABM010	Delivery by Tuesday | The Spring Fling Bouquet by Arabella Bouquets with a Free Designer Glass Vase	1	0	1	Expedited	Clarissa Knighten	2211 NW 62ND ST			KANSAS CITY	MO	64151-2174	US		Happy Birthday Clarissa I love you. From Sharon Jones	false		
114-9276067-6731465	22375030715370	2020-10-30T19:24:17+00:00	2020-10-30T12:24:17-07:00	2020-10-30T19:52:36+00:00	2020-11-04T07:59:59+00:00	-4	t1t10gx371vzdd5@marketplace.amazon.com	Jeanette Patterson	+1 619-854-2705 ext. 20367	ABM010	Delivery by Tuesday | The Spring Fling Bouquet by Arabella Bouquets with a Free Designer Glass Vase	1	0	1	Expedited	Cheryl Covington,  Agent	345 CYPRESS ST			FORT BRAGG	CA	95437-5407	US			false		
111-8475473-9909827	48422227593546	2020-10-30T19:45:29+00:00	2020-10-30T12:45:29-07:00	2020-10-30T20:07:57+00:00	2020-11-04T07:59:59+00:00	-4	2qb0t28zjdcfqf9@marketplace.amazon.com	Isaac Warshaw	+1 619-854-2705 ext. 91393	ABM022	Delivery by Tuesday | Purple Extravagance Bouquet by Arabella Bouquets	1	0	1	Expedited	Eileen & Peter Sudler	81 LOWERY LN			MENDHAM	NJ	07945-3404	US		Dear Eileen & Peter, A small token of appreciation from the boys for our first class flying accommodations up to Mass last weekend. It was a delightful trip and Daniel and your family are extremely generous to include us. From Isaac, Mitch & Chuck	false		
114-9135620-8369860	06475675055442	2020-10-30T20:15:44+00:00	2020-10-30T13:15:44-07:00	2020-10-30T20:36:20+00:00	2020-11-04T07:59:59+00:00	-4	1vq81j527pmlhyy@marketplace.amazon.com	Carlos Mesegue	+1 213-442-1463 ext. 35104	ABR012	Delivery by Tuesday | Arabella Farm Direct Bouquet of 18 Fresh Cut Pink Roses with a Free Glass Vase	1	0	1	Expedited	Yvonne Mesegue	2140 S DIXIE HWY STE 309			MIAMI	FL	33133-2461	US			false		
113-9491444-3392214	42095160869362	2020-10-30T20:08:04+00:00	2020-10-30T13:08:04-07:00	2020-10-30T20:37:19+00:00	2020-11-04T07:59:59+00:00	-4	v9vynf65ycg7lv1@marketplace.amazon.com	Kathy SIms Melton	+1 929-436-4790 ext. 49921	ABR0022	Delivery by Tuesday | Arabella Farm Direct Bouquet of 12 Fresh Cut Pink Roses with a Free Glass Vase	1	0	1	Expedited	Nora Fyffe	984 11TH ST			PASADENA	MD	21122-1791	US		Thinking of you my friend. I am always here ❤️ From Kathy SIms Melton	false		
113-6118333-0189843	56546004781290	2020-10-27T18:25:00+00:00	2020-10-27T11:25:00-07:00	2020-10-30T20:46:16+00:00	2020-11-04T07:59:59+00:00	-4	tgkp6hd3hvf4bjs@marketplace.amazon.com	Essey Woldemariam	+1 619-854-2705 ext. 73376	ABM022	Delivery by Thursday | Purple Extravagance Bouquet by Arabella Bouquets	1	0	1	Expedited	Serby Samson	12612 Brickyard Blvd			Beltsville	Md	20705	US		Just a small token of my love.  Te quiero From Essey Woldemariam	false		
113-3154602-8531467	18017994110026	2020-10-30T20:53:52+00:00	2020-10-30T13:53:52-07:00	2020-10-30T21:23:04+00:00	2020-11-04T07:59:59+00:00	-4	fgfrfjwkj6k6rrg@marketplace.amazon.com	Christen P. Embry	+1 602-671-6610 ext. 24702	ABM010	Delivery by Tuesday | The Spring Fling Bouquet by Arabella Bouquets with a Free Designer Glass Vase	1	0	1	Expedited	Judy Pudlewski	1005 BLOOMDALE DR			LAS CRUCES	NM	88005-1249	US		Get Well Soon, Mom!  Love, Chris, Shawn and Meri From Christen P. Embry	false		
113-0743967-8534601	64597130036754	2020-10-30T21:16:19+00:00	2020-10-30T14:16:19-07:00	2020-10-30T21:42:03+00:00	2020-11-04T07:59:59+00:00	-4	z6vqp428cdhfbdl@marketplace.amazon.com	Christina Rabbitz	+1 415-851-9136 ext. 31658	ABB014	Delivery by Tuesday | Arabella Bouquets | Farm Direct 48 Fresh Cut White Roses	1	0	1	Expedited	Lisa Rabbitz	51 MICHAELSON DR			MOUNT LAUREL	NJ	08054-1355	US		Happy Birthday Christina !!!!!  XOXOXO. From LOVE  MOM	false		
113-4911563-3330669	26483203872410	2020-10-30T21:21:25+00:00	2020-10-30T14:21:25-07:00	2020-10-30T21:51:48+00:00	2020-11-04T07:59:59+00:00	-4	k20l6qr64y0tyrj@marketplace.amazon.com	Gwendolyn Baker	+1 929-436-4790 ext. 66427	ABM022	Delivery by Tuesday | Purple Extravagance Bouquet by Arabella Bouquets	1	0	1	Expedited	Barbara Kenyon and Dana Turner	13059 SANDY PINE LN			CLERMONT	FL	34711-6566	US			false		
114-4202582-1156243	54188244551058	2020-10-30T21:44:52+00:00	2020-10-30T14:44:52-07:00	2020-10-30T22:11:11+00:00	2020-11-04T07:59:59+00:00	-4	6rgkmqnwhcdcrs8@marketplace.amazon.com	Sarah Mader	+1 480-618-5344 ext. 96276	ABM022	Delivery by Tuesday | Purple Extravagance Bouquet by Arabella Bouquets	1	0	1	Expedited	Jeanne Soule	5593 ROUTE 23C			PRATTSVILLE	NY	12468-5508	US		Happy birthday Mamacita! Love you always! From Sarah	false		
113-8620463-8931444	33684424110722	2020-10-30T21:59:59+00:00	2020-10-30T14:59:59-07:00	2020-10-30T22:35:25+00:00	2020-11-04T07:59:59+00:00	-4	p5mry8kfhkk57wd@marketplace.amazon.com	Jared Ross	+1 480-618-5344 ext. 90112	ABR012	Delivery by Tuesday | Arabella Farm Direct Bouquet of 18 Fresh Cut Pink Roses with a Free Glass Vase	1	0	1	Expedited	Jared Ross	1276 N WAYNE ST APT 1221			ARLINGTON	VA	22201-5857	US			false		
111-2987533-7565837	54511404115154	2020-10-30T22:16:59+00:00	2020-10-30T15:16:59-07:00	2020-10-30T22:43:41+00:00	2020-11-04T07:59:59+00:00	-4	0m9ztlddxf65bzj@marketplace.amazon.com	linda parker	+1 602-671-6610 ext. 80408	ABR0055	Delivery by Tuesday | Arabella Farm Direct Bouquet of 12 Stems of Fresh Cut Hot Pink Roses in a Free Designer Glass Vase	1	0	1	Expedited	linda parker	HOUSE 3905 STANTON ST			RIVERSIDE	CA	92509-2705	US			false		
113-6696964-0107438	12307057751946	2020-10-30T22:32:25+00:00	2020-10-30T15:32:25-07:00	2020-10-30T22:57:41+00:00	2020-11-04T07:59:59+00:00	-4	5kl9n7szyddrf7h@marketplace.amazon.com	Yonicel Leyva	+1 480-618-5344 ext. 13752	ABR0033	Delivery by Tuesday | Arabella Farm Direct Bouquet of 12 Fresh Cut Orange Roses with a Free Glass Vase	1	0	1	Expedited	Yaumara Perez	6450 NW 191ST TER			HIALEAH	FL	33015-4710	US		Para el amor de mi vida.Dios te me bendiga siempre mujer virtuosa From Luis Miguel	false		
114-6096571-8897053	55756060379234	2020-10-30T22:28:27+00:00	2020-10-30T15:28:27-07:00	2020-10-30T22:57:46+00:00	2020-11-04T07:59:59+00:00	-4	ccznvxv4h2rmdw5@marketplace.amazon.com	Jennifer Lynn Webster	+1 213-442-1463 ext. 36148	ABR0055	Delivery by Tuesday | Arabella Farm Direct Bouquet of 12 Stems of Fresh Cut Hot Pink Roses in a Free Designer Glass Vase	1	0	1	Expedited	Kirsten Webster	4700 NW 10TH ST			OKLAHOMA CITY	OK	73127-5901	US		HAPPY BIRTHDAY! We have a fun-filled weekend planned for you. See you soon! Love, Mom, Dad & Lucas From Jennifer Lynn Webster	false		
113-7113721-7732201	35414982361818	2020-10-30T22:29:53+00:00	2020-10-30T15:29:53-07:00	2020-10-30T22:58:53+00:00	2020-11-04T07:59:59+00:00	-4	0wcw27xxd7yl329@marketplace.amazon.com	Sarah J Balkin	+1 602-671-6610 ext. 86683	ABR0033	Delivery by Tuesday | Arabella Farm Direct Bouquet of 12 Fresh Cut Orange Roses with a Free Glass Vase	1	0	1	Expedited	Jennifer Balkin	52 W 2550 S			BOUNTIFUL	UT	84010-6441	US		Something to brighten your recovery. Love, Sarah From Sarah J Balkin	false		
113-1740667-6219453	20588536592498	2020-10-30T23:08:14+00:00	2020-10-30T16:08:14-07:00	2020-10-30T23:09:10+00:00	2020-11-04T07:59:59+00:00	-4	0803tq1bjmnn2jq@marketplace.amazon.com	Stanley J. Niemala	+1 602-671-6610 ext. 13598	ABR0022	Delivery by Tuesday | Arabella Farm Direct Bouquet of 12 Fresh Cut Pink Roses with a Free Glass Vase	1	0	1	Expedited	RHONDA and PETE  COMSTOCK	13675 SIENNA PASS			DEWITT	MI	48820-7821	US		Dear Rhonda,                  HAPPY BIRTHDAY from US!                      Love,  Mar'ceil & Stan From Stanley J. Niemala	false		
111-2792535-1980200	60225492963938	2020-10-30T22:54:09+00:00	2020-10-30T15:54:09-07:00	2020-10-30T23:10:19+00:00	2020-11-04T07:59:59+00:00	-4	g2gk49gb15042dn@marketplace.amazon.com	Abhi	+1 213-442-1463 ext. 24873	ABR001	Delivery by Tuesday | Arabella Bouquets 12 Stems of Fresh Cut Red Roses in a Free Designer Glass Vase	1	0	1	Expedited	Neha Rawat	2001 HOLLEMAN DR W APT 917			COLLEGE STATION	TX	77840-6377	US		Happy Birthday Neha! Have an awesome year ahead! Best wishes!! From Abhi	false		
111-5695887-3448241	66058438328258	2020-10-30T22:54:28+00:00	2020-10-30T15:54:28-07:00	2020-10-30T23:19:20+00:00	2020-11-04T07:59:59+00:00	-4	nhjxmr9nyn6qjxl@marketplace.amazon.com	Becky Oxner	+1 619-854-2705 ext. 47098	ABM031	Delivery by Tuesday | The Harvest Moon Bouquet by Arabella Bouquets	1	0	1	Expedited	Gladys Oliver Family c/o Stella Oliver	95 E 500 S TRLR 12			BLANDING	UT	84511-3047	US		With our deepest Sympathy, And lots of love and hugs from the Canyonlands Care Center From The Staff at Canyonlands Care Center	false		
111-9626974-9453002	31026271984562	2020-10-30T22:52:29+00:00	2020-10-30T15:52:29-07:00	2020-10-30T23:21:11+00:00	2020-11-04T07:59:59+00:00	-4	dldzd49wxq4kr86@marketplace.amazon.com	thomas lyons	+1 480-618-5344 ext. 14881	ABR0022	Delivery by Tuesday | Arabella Farm Direct Bouquet of 12 Fresh Cut Pink Roses with a Free Glass Vase	1	0	1	Expedited	Molly Lyons Bahrke	6261 E IOWA AVE			DENVER	CO	80224-2112	US		Happy Birthday! In place of a hug...with love from Maine From Tom and Cath	false		
113-1373961-3835405	39969577003162	2020-10-30T22:56:20+00:00	2020-10-30T15:56:20-07:00	2020-10-30T23:23:20+00:00	2020-11-04T07:59:59+00:00	-4	5ybtwf9p6dmxmn5@marketplace.amazon.com	Mike Moran	+1 602-671-6610 ext. 72805	ABR0022	Delivery by Tuesday | Arabella Farm Direct Bouquet of 12 Fresh Cut Pink Roses with a Free Glass Vase	1	0	1	Expedited	Michael Moran	242 QUAKER CHURCH RD			RANDOLPH	NJ	07869-1416	US		I love you so much and I'm so grateful Rosie and I have you in our lives. You are the most amazing Wife and Mother and we are so lucky to spend every day by your side. From Your Husband	false		
112-7243781-5441031	42303662497378	2020-10-30T23:01:38+00:00	2020-10-30T16:01:38-07:00	2020-10-30T23:30:06+00:00	2020-11-04T07:59:59+00:00	-4	qr3wfsskydm53w1@marketplace.amazon.com	Dorothy Sonnenberg	+1 480-618-5344 ext. 21256	ABR0022	Delivery by Tuesday | Arabella Farm Direct Bouquet of 12 Fresh Cut Pink Roses with a Free Glass Vase	1	0	1	Expedited	Beth  Moloughney	222 OWL HOLLOW DR			TANNERSVILLE	PA	18372-7789	US			false		
113-5079096-9336254	66547641433114	2020-10-30T23:04:08+00:00	2020-10-30T16:04:08-07:00	2020-10-30T23:32:20+00:00	2020-11-04T07:59:59+00:00	-4	8dgchjq36ym7rtd@marketplace.amazon.com	Jack bied	+1 480-618-5344 ext. 44203	ABR0033	Delivery by Tuesday | Arabella Farm Direct Bouquet of 12 Fresh Cut Orange Roses with a Free Glass Vase	1	0	1	Expedited	AnnaBelle Sartore	16400 PACIFIC COAST HWY STE 211			HUNTINGTON BEACH	CA	92649-1822	US			false		
112-2205105-9451404	24999648760914	2020-10-30T23:16:26+00:00	2020-10-30T16:16:26-07:00	2020-10-30T23:35:27+00:00	2020-11-04T07:59:59+00:00	-4	vkv12rqj348jykb@marketplace.amazon.com	Alyssa Kavanaugh	+1 480-618-5344 ext. 14847	ABR0022	Delivery by Tuesday | Arabella Farm Direct Bouquet of 12 Fresh Cut Pink Roses with a Free Glass Vase	1	0	1	Expedited	Nicole Kavanaugh-NZK townhome 809	1001 LAFAYETTE DR			FARMINGTON	PA	15437-9754	US		Happy 27th birthday!  We wish you all the best.  May you be blessed with health, and happiness and may you be successful in all of your endeavors. From Love, Mom and Dad	false		
111-6645764-1175461	57090248081850	2020-10-30T23:37:34+00:00	2020-10-30T16:37:34-07:00	2020-10-30T23:59:52+00:00	2020-11-04T07:59:59+00:00	-4	75st4xfblxk738c@marketplace.amazon.com	yadira rodriguez	+1 619-854-2705 ext. 04813	ABM010	Delivery by Tuesday | The Spring Fling Bouquet by Arabella Bouquets with a Free Designer Glass Vase	1	0	1	Expedited	Kati Ubiera	6 OSBORNE RD			POUGHKEEPSIE	NY	12601-4946	US		Happy birthday. Many blessings to you Enjoy your gift! From yadira rodriguez	false		
112-5568673-0679439	20058899332274	2020-10-30T23:42:14+00:00	2020-10-30T16:42:14-07:00	2020-10-31T00:11:05+00:00	2020-11-04T07:59:59+00:00	-4	t6lk0729stk8vrb@marketplace.amazon.com	Michele Shafer	+1 619-854-2705 ext. 16410	ABM022	Delivery by Tuesday | Purple Extravagance Bouquet by Arabella Bouquets	1	0	1	Expedited	MOM-  Battiste	9024 BROOK FORD RD			BURKE	VA	22015-3612	US		Enjoy your gift! Happy Birthday From Michele Shafer & Casey	false		
112-0361115-5177006	59745260572506	2020-10-30T23:52:26+00:00	2020-10-30T16:52:26-07:00	2020-10-31T00:22:48+00:00	2020-11-04T07:59:59+00:00	-4	fngg2c1tllf7ckx@marketplace.amazon.com	Judy McNelley	+1 602-671-6610 ext. 37769	ABM022	Delivery by Tuesday | Purple Extravagance Bouquet by Arabella Bouquets	1	0	1	Expedited	geri shaeffer	4671 ARBOGA RD			OLIVEHURST	CALIFORNIA	95961-4445	US			false		
113-8317927-5905023	54759775510410	2020-10-30T23:57:40+00:00	2020-10-30T16:57:40-07:00	2020-10-31T00:27:08+00:00	2020-11-04T07:59:59+00:00	-4	q260tmc0dsrx597@marketplace.amazon.com	Jamie Spalding	+1 602-671-6610 ext. 31473	ABM010	Delivery by Tuesday | The Spring Fling Bouquet by Arabella Bouquets with a Free Designer Glass Vase	1	0	1	Expedited	Deborah Loveless	40 MCCREA RD			PLAINS	MT	59859-9331	US			false		
111-7340821-3970640	20279585458378	2020-10-31T00:14:42+00:00	2020-10-30T17:14:42-07:00	2020-10-31T00:43:40+00:00	2020-11-04T07:59:59+00:00	-4	szsbzp8qf38r15w@marketplace.amazon.com	Bianca Moruzzi	+1 929-436-4790 ext. 87953	ABM010	Delivery by Tuesday | The Spring Fling Bouquet by Arabella Bouquets with a Free Designer Glass Vase	1	0	1	Expedited	Bruna Moruzzi	8 Pennstar Lane			South Yarmouth	MA	02664	US		I love you mom!  Everything is going to be okay. From Bianca Moruzzi	false		
113-5091502-0504223	51908635059690	2020-10-31T00:36:26+00:00	2020-10-30T17:36:26-07:00	2020-10-31T01:02:38+00:00	2020-11-04T07:59:59+00:00	-4	7z23t0d9r5rjvyq@marketplace.amazon.com	lolly werner	+1 480-618-5344 ext. 68867	ABM022	Delivery by Tuesday | Purple Extravagance Bouquet by Arabella Bouquets	1	0	1	Expedited	Margie Arvallo	2036 E TOPEKA DR			PHOENIX	AZ	85024-2404	US		Get well soon! We love you!!  Lolly and Vicki From lolly werner	false		
111-7588272-9109021	00216569980898	2020-10-31T00:32:30+00:00	2020-10-30T17:32:30-07:00	2020-10-31T01:02:51+00:00	2020-11-04T07:59:59+00:00	-4	mm6rhbln222mt7k@marketplace.amazon.com	Mark L Slocum	552797044	ABM022	Delivery by Tuesday | Purple Extravagance Bouquet by Arabella Bouquets	1	0	1	Expedited	Linda Harden	7501 E THOMPSON PEAK PKWY UNIT 419			SCOTTSDALE	AZ	85255-4537	US			false		
113-9721351-2784233	40167658076962	2020-10-31T00:56:40+00:00	2020-10-30T17:56:40-07:00	2020-10-31T01:26:18+00:00	2020-11-04T07:59:59+00:00	-4	1b6nf28zyfj8202@marketplace.amazon.com	Kimberly Gorman	+1 619-854-2705 ext. 43689	ABM022	Delivery by Tuesday | Purple Extravagance Bouquet by Arabella Bouquets	1	0	1	Expedited	Kimberly Gorman	6016 N TRAILS END			PEORIA	IL	61614-3523	US		Happy birthday, Nana!  We love you!  Love,  Madison, Collin, Kimberly and Corey From The Gormans	false		
111-6558883-8816221	20513295488258	2020-10-31T01:13:09+00:00	2020-10-30T18:13:09-07:00	2020-10-31T01:40:04+00:00	2020-11-04T07:59:59+00:00	-4	6y29lzhr9fr0g3d@marketplace.amazon.com	Jill A. Sweringen	+1 213-442-1463 ext. 19269	ABM020	Delivery by Tuesday | The Sunset Bouquet by Arabella Bouquets	1	0	1	Expedited	Richard W. Sweringen	163 WOODLANDS DR			VERONA	PA	15147-3879	US		Happy 60th Anniversary, Dad and Mom! From Jill, Barb and Joxer	false		
111-6558883-8816221	55006893578938	2020-10-31T01:13:09+00:00	2020-10-30T18:13:09-07:00	2020-10-31T01:40:04+00:00	2020-11-04T07:59:59+00:00	-4	6y29lzhr9fr0g3d@marketplace.amazon.com	Jill A. Sweringen	+1 213-442-1463 ext. 19269	ABM022	Delivery by Tuesday | Purple Extravagance Bouquet by Arabella Bouquets	1	0	1	Expedited	Richard W. Sweringen	163 WOODLANDS DR			VERONA	PA	15147-3879	US		Happy 60th Anniversary, Mom and Dad! From Jill, Barb and Joxer	false		
112-8264654-8119419	65952959223466	2020-10-31T01:09:30+00:00	2020-10-30T18:09:30-07:00	2020-10-31T01:40:12+00:00	2020-11-04T07:59:59+00:00	-4	s8zggnztns5bx7s@marketplace.amazon.com	TASCO	+1 480-618-5344 ext. 40383	ABM0044	Delivery by Tuesday | Arabella Farm Direct Bouquet of Fresh Cut Blue Hydrangea with a Free Glass Vase	1	0	1	Expedited	Marylyn Simpson	628 E SAWBACK LN			DRAPER	UT	84020-1418	US			false		
111-9336604-1335405	64832316100330	2020-10-31T01:24:51+00:00	2020-10-30T18:24:51-07:00	2020-10-31T01:53:42+00:00	2020-11-04T07:59:59+00:00	-4	43nhjrhkrmgmtr1@marketplace.amazon.com	Terry A. Marchillo	+1 619-854-2705 ext. 18327	ABM010	Delivery by Tuesday | The Spring Fling Bouquet by Arabella Bouquets with a Free Designer Glass Vase	1	0	1	Expedited	Vincent and Jaimie Marchillo	1010 TAYLOR AVE N			SEATTLE	WA	98109-3849	US		❤️Congratulations to the bride and groom!!  Love you both so much! From Mommola!😊	false		
111-0302329-3968272	22266411553186	2020-10-31T01:38:31+00:00	2020-10-30T18:38:31-07:00	2020-10-31T02:05:07+00:00	2020-11-04T07:59:59+00:00	-4	bsng724k7bqwf80@marketplace.amazon.com	Amy Saras	56128999006	ABM022	Delivery by Tuesday | Purple Extravagance Bouquet by Arabella Bouquets	1	0	1	Expedited	Christine Nesheiwat	6756 CHRISTIANSTED LN			NASHVILLE	TN	37211-7485	US		Congratulations on your new sweet baby girl! We are so happy for you and cannot wait to meet her! God bless! XOXO From Robbie, Amy & the kids	false		
114-3846990-7021044	26835802305122	2020-10-31T01:49:28+00:00	2020-10-30T18:49:28-07:00	2020-10-31T02:18:14+00:00	2020-11-04T07:59:59+00:00	-4	qq0djv46fx8p2rc@marketplace.amazon.com	Leanne P Morse	+1 602-671-6610 ext. 25956	ABR0022	Delivery by Tuesday | Arabella Farm Direct Bouquet of 12 Fresh Cut Pink Roses with a Free Glass Vase	1	0	1	Expedited	Gretchen Morse	129 BERRY CREEK DR			FLAT ROCK	NC	28731-8531	US		2020 Sucks!!  We love you and hope these cheer you up! XOXOXOXO From Dan, Leanne, Maxon, & Anika	false		
111-1054753-2871454	59645005550890	2020-10-31T02:01:33+00:00	2020-10-30T19:01:33-07:00	2020-10-31T02:28:33+00:00	2020-11-04T07:59:59+00:00	-4	2ngdvylshktbgr1@marketplace.amazon.com	Ilene Munk	+1 480-618-5344 ext. 22040	ABR0022	Delivery by Tuesday | Arabella Farm Direct Bouquet of 12 Fresh Cut Pink Roses with a Free Glass Vase	1	0	1	Expedited	Sarah Reed	3301 WINDSOR AVE			KANSAS CITY	MO	64123-1136	US		Happy Birthday my friend! From Ilene Munk	false		
114-3893992-4664217	40329003973386	2020-10-31T02:30:57+00:00	2020-10-30T19:30:57-07:00	2020-10-31T02:41:14+00:00	2020-11-04T07:59:59+00:00	-4	vkz16qmvtf9hbmd@marketplace.amazon.com	Amy	+1 619-854-2705 ext. 61316	ABR0055	Delivery by Tuesday | Arabella Farm Direct Bouquet of 12 Stems of Fresh Cut Hot Pink Roses in a Free Designer Glass Vase	1	0	1	Expedited	Heather Catt	5520 UNDERWOOD LN N			PLYMOUTH	MN	55442-1739	US		So happy to hear your progress.  We are always here for you.  Love you so much! From Love, Amy and Greg	false		
111-7787109-6366601	23858863823410	2020-10-31T02:19:02+00:00	2020-10-30T19:19:02-07:00	2020-10-31T02:48:36+00:00	2020-11-04T07:59:59+00:00	-4	nyf06plcyp7cbkh@marketplace.amazon.com	Sachi Brittin	+1 213-442-1463 ext. 11416	ABM022	Delivery by Tuesday | Purple Extravagance Bouquet by Arabella Bouquets	1	0	1	Expedited	Yoshie R. Brittin	2739 NE 88th St.			Seattle	WA	98115	US		Happy 47th Anniversary!!  We love you both mucho!!  Love,  Sachi, Stephan, Sean and Amelie From Sachi Brittin	false		
114-7780366-4693056	41554094838130	2020-10-31T02:39:34+00:00	2020-10-30T19:39:34-07:00	2020-10-31T03:10:01+00:00	2020-11-04T07:59:59+00:00	-4	xzsv4vf1mq2t1sq@marketplace.amazon.com	Sonia L Smythe	+1 480-618-5344 ext. 75593	ABR0022	Delivery by Tuesday | Arabella Farm Direct Bouquet of 12 Fresh Cut Pink Roses with a Free Glass Vase	1	0	1	Expedited	Betsy Welsh	3575 ALEXANDRIA PIKE			ANDERSON	IN	46012-9208	US			false		
112-2077065-3524209	66805236940794	2020-10-31T02:43:52+00:00	2020-10-30T19:43:52-07:00	2020-10-31T03:11:41+00:00	2020-11-04T07:59:59+00:00	-4	015xv000f4smqt9@marketplace.amazon.com	Jessica Gonzalez	+1 213-442-1463 ext. 68738	ABR0022	Delivery by Tuesday | Arabella Farm Direct Bouquet of 12 Fresh Cut Pink Roses with a Free Glass Vase	1	0	1	Expedited	Jaclynn Smith	2825 PALM BEACH BLVD APT 504			FORT MYERS	FL	33916-1518	US		You did it!! Beautiful - It’s who you are. It’s what you’ve done! Your strength and courage to get through this part was beyond admirable. You are such a fighter and I’m so lucky to have you in my life! Love you XO From Jessica Gonzalez	false		
112-9854970-3609855	04774935264914	2020-10-31T02:43:52+00:00	2020-10-30T19:43:52-07:00	2020-10-31T03:11:53+00:00	2020-11-04T07:59:59+00:00	-4	58cj5clyt2q1v8q@marketplace.amazon.com	Joshua Meduna	+1 415-851-9136 ext. 85217	ABM022	Delivery by Tuesday | Purple Extravagance Bouquet by Arabella Bouquets	1	0	1	Expedited	Bette Meduna	6827 STONEBROOK DR S			MOBILE	AL	36695-3014	US		Happy Birthday!  We love you so much. From Meduna Party of Five	false		
113-7624507-9958659	44470279468042	2020-10-31T02:44:06+00:00	2020-10-30T19:44:06-07:00	2020-10-31T03:13:36+00:00	2020-11-04T07:59:59+00:00	-4	7yb0kvd2yvcgmyr@marketplace.amazon.com	wandia	+1 602-671-6610 ext. 22060	ABM021	Delivery by Tuesday | The Joyous Bouquet by Arabella Bouquets	1	0	1	Expedited	Susan Mboya Kidero	235 W 56TH ST APT 22B			NEW YORK	NY	10019-4330	US		Have a great week Twiggy. From Anna Musomba	false		
113-0202782-8141044	13417214017754	2020-10-31T03:07:14+00:00	2020-10-30T20:07:14-07:00	2020-10-31T03:29:30+00:00	2020-11-04T07:59:59+00:00	-4	yhswgb2mcscc38n@marketplace.amazon.com	Ann Landau Kantor	+1 619-854-2705 ext. 25597	ABR013	Delivery by Tuesday | Arabella Farm Direct Bouquet of 18 Fresh Cut Yellow Roses with a Free Glass Vase	1	0	1	Expedited	Mrs. Carla Silver	154 S DEMAREST AVE			BERGENFIELD	NJ	07621-2859	US		Dearest Carla.. Happy Special Birthday to our beautiful friend! yellow roses for our wonderful,lasting incredible friendship that we cherish so much lots of love and kisses.Dennis and Ann From Ann Landau Kantor	false		
114-0876245-4925852	03347262105002	2020-10-31T03:05:57+00:00	2020-10-30T20:05:57-07:00	2020-10-31T03:35:49+00:00	2020-11-04T07:59:59+00:00	-4	83w651cn1n11lky@marketplace.amazon.com	Ayesha Khan	+1 602-671-6610 ext. 60263	ABC004	Delivery by Wednesday | Arabella Bouquets 10 Stems of Purple Dendrobium Orchids in a Free Designer Glass Vase	2	0	2	Expedited	Syeda Muneeruddin	3019 BLUESTEM CT			NAPERVILLE	IL	60565-3556	US			false		
111-1421451-0030630	07725567221530	2020-10-31T03:17:24+00:00	2020-10-30T20:17:24-07:00	2020-10-31T03:44:13+00:00	2020-11-04T07:59:59+00:00	-4	pwx91fpq8mh6n4j@marketplace.amazon.com	Lorena Riffo Jenson	+1 619-854-2705 ext. 89537	ABR0033	Delivery by Tuesday | Arabella Farm Direct Bouquet of 12 Fresh Cut Orange Roses with a Free Glass Vase	1	0	1	Expedited	Theresa Martinez	SLC 805 E 3RD AVE			SALT LAKE CITY	UT	84103-3831	US		Happy Belated 60th Birthday! Love you so much. From Lorena & Sophia	false		
114-2490859-1375413	34255130813850	2020-10-31T03:30:59+00:00	2020-10-30T20:30:59-07:00	2020-10-31T03:58:05+00:00	2020-11-04T07:59:59+00:00	-4	gpvgwlqb39j3b4g@marketplace.amazon.com	Gretchen Jackson	+1 929-436-4790 ext. 25559	ABM024	Delivery by Tuesday | The Beauty of Color Bouquet by Arabella Bouquets	1	0	1	Expedited	Cheryll Jackson	1358 AVALON DR			MADISON	OH	44057-1202	US			false		
113-9160330-6292209	14807949555938	2020-10-31T04:29:33+00:00	2020-10-30T21:29:33-07:00	2020-10-31T05:03:53+00:00	2020-11-04T07:59:59+00:00	-4	41qc3gf936blqlv@marketplace.amazon.com	Aaron Dunn	+1 213-442-1463 ext. 59479	ABM010	Delivery by Tuesday | The Spring Fling Bouquet by Arabella Bouquets with a Free Designer Glass Vase	1	0	1	Standard	Aaron Dunn	10 N KINGSBRIDGE PL APT B			CHESAPEAKE	VA	23322-5685	US			false		
114-3042009-7334604	05196376473530	2020-10-31T04:47:46+00:00	2020-10-30T21:47:46-07:00	2020-10-31T05:16:18+00:00	2020-11-04T07:59:59+00:00	-4	jw4rjb8nqtn2sz2@marketplace.amazon.com	Brianna Vickers	+1 480-618-5344 ext. 14558	ABM026	Delivery by Tuesday | The Amour Bouquet by Arabella Bouquets	1	0	1	Expedited	Ken & Sherrie Wade	30335 LAKE RD			MANNFORD	OK	74044-3147	US		HAPPY BIRTHDAY MOM! Love you! From Jacob & Valerie	false		
112-3846094-3406604	10026633559554	2020-10-31T04:58:57+00:00	2020-10-30T21:58:57-07:00	2020-10-31T05:20:27+00:00	2020-11-04T07:59:59+00:00	-4	q5xdmwgd6969ryw@marketplace.amazon.com	Mariko Prigel	+1 929-436-4790 ext. 54801	ABM010	Delivery by Tuesday | The Spring Fling Bouquet by Arabella Bouquets with a Free Designer Glass Vase	1	0	1	Expedited	Mai Hessel	1809 TREGO DR			JUSTIN	TX	76247-5774	US		Happy happy happy birthday !! This is the first birthday as a mother! Enjoy your day with your amazing husband, extra cute baby Rhys, and neko chans ! Love you! From James & Mariko Prigel	false		
111-1292534-6770651	31571663966090	2020-10-31T05:35:30+00:00	2020-10-30T22:35:30-07:00	2020-10-31T06:06:03+00:00	2020-11-04T07:59:59+00:00	-4	9nllztb1xwdslq9@marketplace.amazon.com	walter rich	+1 602-671-6610 ext. 11133	ABR0033	Delivery by Tuesday | Arabella Farm Direct Bouquet of 12 Fresh Cut Orange Roses with a Free Glass Vase	1	0	1	Expedited	SUSAN CALLAGHAN	34 COLONY ST			ANSONIA	CT	06401-1406	US			false		
111-5436148-6530614	54012453938506	2020-10-31T05:43:48+00:00	2020-10-30T22:43:48-07:00	2020-10-31T06:12:03+00:00	2020-11-04T07:59:59+00:00	-4	0hsy882r9qfvhwv@marketplace.amazon.com	Jimbalentine	+1 929-436-4790 ext. 81735	ABM024	Delivery by Tuesday | The Beauty of Color Bouquet by Arabella Bouquets	1	0	1	Expedited	Jim Balentine/Rita Amador	38231 MANZANITA ST			NEWARK	CA	94560-4503	US		Missing you!! From Jim	false		
114-4535950-2497835	55471291767498	2020-10-31T05:47:24+00:00	2020-10-30T22:47:24-07:00	2020-10-31T06:16:38+00:00	2020-11-04T07:59:59+00:00	-4	1p55qjtp7wbjk93@marketplace.amazon.com	ami mckernan	+1 480-618-5344 ext. 09224	ABM024	Delivery by Tuesday | The Beauty of Color Bouquet by Arabella Bouquets	1	0	1	Expedited	Jamie Jadid	1852 HEYDON CT			HENDERSON	NV	89014-3868	US		Thinking about you bunches! Hope these brighten your day and recovery process. We love you so much!  Love,  Dev and Ami From ami mckernan	false		
113-4235120-6353826	40462728899362	2020-10-31T06:37:37+00:00	2020-10-30T23:37:37-07:00	2020-10-31T07:02:21+00:00	2020-11-04T07:59:59+00:00	-4	g4yk3mjt7ffcbpj@marketplace.amazon.com	Jennifer Ditrich	+1 602-671-6610 ext. 59348	ABM022	Delivery by Tuesday | Purple Extravagance Bouquet by Arabella Bouquets	1	0	1	Expedited	Kelly Parthenakis	2802 ZUCK RD			ERIE	PA	16506-3155	US		Dear Kelly, I know these past few months have been very difficult for you. You will get through this. You are a warrior, a survivor, a savage. I’m here for you & I love you! From Jen	false		
113-7192556-7092257	47879857457946	2020-10-31T06:32:50+00:00	2020-10-30T23:32:50-07:00	2020-10-31T07:03:32+00:00	2020-11-04T07:59:59+00:00	-4	h041dwjbrfff59m@marketplace.amazon.com	Stephany A. Watson	+1 415-851-9136 ext. 17382	ABR0033	Delivery by Tuesday | Arabella Farm Direct Bouquet of 12 Fresh Cut Orange Roses with a Free Glass Vase	1	0	1	Expedited	Greg and Marica Russ	130164TH AVE NE			BELLEVUE	WA	98008-4450	US			false		
114-8955407-6690661	14638642172210	2020-10-31T06:52:18+00:00	2020-10-30T23:52:18-07:00	2020-10-31T07:03:43+00:00	2020-11-04T07:59:59+00:00	-4	z31cpm4ykdy3lgy@marketplace.amazon.com	ozzy	+1 619-854-2705 ext. 54796	ABSR004	Delivery by Tuesday | Arabella Farm Direct Bouquet of Fresh Cut White Spray Roses with a Free Glass Vase	1	0	1	Expedited	CAGLA YILDIRIM	1 MEMORY LN DENVILLE NJ 07834			DENVILLE	NJ	07834-2427	US		You are the grain of the rain that touch on my dreams. The breath in my awakening, the life in my breathing. It is the best thing you were born into my life. Happy birthday my love. I love you so much; my last chance... From Ozzy	false		
