order-id	order-item-id	purchase-date	payments-date	reporting-date	promise-date	days-past-promise	buyer-email	buyer-name	buyer-phone-number	sku	product-name	quantity-purchased	quantity-shipped	quantity-to-ship	ship-service-level	recipient-name	ship-address-1	ship-address-2	ship-address-3	ship-city	ship-state	ship-postal-code	ship-country	gift-wrap-type	gift-message-text	is-business-order	purchase-order-number	price-designation
113-4743100-2108213	32002008170450	2020-10-29T23:36:31+00:00	2020-10-29T16:36:31-07:00	2020-10-30T00:06:57+00:00	2020-11-03T07:59:59+00:00	-2	czg24lcsgb1qlq5@marketplace.amazon.com	Robert M. Sproul	+1 415-851-9136 ext. 15587	ABM017	Delivery by Monday | Arabella Bouquets 10 Stems of Blue Dendrobium Orchids in a Free Designer Glass Vase	1	0	1	Standard	Robert Sproul	1800 FORT PULASKI CT			DUMFRIES	VA	22026-2506	US			false		
113-0406991-5752229	35924458931866	2020-10-30T01:50:33+00:00	2020-10-29T18:50:33-07:00	2020-10-30T02:20:40+00:00	2020-11-03T07:59:59+00:00	-2	0kvr1jzw662m2th@marketplace.amazon.com	Liz Kuhns	+1 602-671-6610 ext. 03231	ABM017	Delivery by Monday | Arabella Bouquets 10 Stems of Blue Dendrobium Orchids in a Free Designer Glass Vase	1	0	1	Standard	jane kuhns	12615 WHITHORN CT			PLYMOUTH	MI	48170-6912	US			false		
112-0093765-8631429	08607212955802	2020-10-30T15:46:38+00:00	2020-10-30T08:46:38-07:00	2020-10-30T16:10:06+00:00	2020-11-04T07:59:59+00:00	-3	8h5mx3swh52r87h@marketplace.amazon.com	Estella Munoz	+1 602-671-6610 ext. 38850	ABM017	Delivery by Monday | Arabella Bouquets 10 Stems of Blue Dendrobium Orchids in a Free Designer Glass Vase	1	0	1	Standard	Josie Vasquez	237 JENSEN AVE			EL PASO	TX	79915-3807	US		Enjoy your gift! From Estella Munoz	false		
113-8767409-5623457	18875362879402	2020-10-30T18:10:04+00:00	2020-10-30T11:10:04-07:00	2020-10-30T18:32:17+00:00	2020-11-04T07:59:59+00:00	-3	dgmxz1vyrs2n577@marketplace.amazon.com	Storm Wojcik	+1 929-436-4790 ext. 36659	ABM010	Delivery by Tuesday | The Spring Fling Bouquet by Arabella Bouquets with a Free Designer Glass Vase	1	0	1	Expedited	alexa Wojcik	1245 WIMBELDON BLVD			COLUMBUS	OH	43228-9329	US			false		
113-7537306-1511465	59536292448882	2020-10-30T18:18:29+00:00	2020-10-30T11:18:29-07:00	2020-10-30T18:41:23+00:00	2020-11-04T07:59:59+00:00	-3	dgmxz1vyrs2n577@marketplace.amazon.com	Storm Wojcik	+1 213-442-1463 ext. 32808	ABM010	Delivery by Tuesday | The Spring Fling Bouquet by Arabella Bouquets with a Free Designer Glass Vase	1	0	1	Expedited	Kathryn Harrison	6108 WATERFIELD WAY			SAINT CLOUD	FL	34771-8845	US		Happy (late) Birthday! From Captain of the SS Butthead	false		
114-9791613-4295461	49032634240346	2020-10-30T18:24:34+00:00	2020-10-30T11:24:34-07:00	2020-10-30T18:47:43+00:00	2020-11-04T07:59:59+00:00	-3	z4r7zm5nv2vp5lt@marketplace.amazon.com	Oluwatoyin Ogunmuyiwa	+1 929-436-4790 ext. 31796	ABR0055	Arabella Farm Direct Bouquet of 12 Stems of Fresh Cut Hot Pink Roses in a Free Designer Glass Vase	1	0	1	Expedited	Victoria Olanrewaju	5925 N 10TH ST			PHILADELPHIA	PA	19141-3711	US		You may hold my hand for a while, but you hold my heart forever 💕 From Are You There?	false		
113-8202854-4360211	51750717121002	2020-10-30T18:19:33+00:00	2020-10-30T11:19:33-07:00	2020-10-30T18:48:38+00:00	2020-11-04T07:59:59+00:00	-3	nsbhwfnkzrkn9j9@marketplace.amazon.com	Ruffina F. Anklesaria	+1 602-671-6610 ext. 37796	ABR004	Delivery by Tuesday | Arabella Farm Direct Bouquet of 12 Fresh Cut Yellow Roses with a Free Glass Vase	1	0	1	Expedited	Janet Fatoke	1049 RESERVE WAY			INDIANAPOLIS	IN	46220-1884	US		Beloved Devi, Sending you a little sunshine with a lot of love, Ruffina From Ruffina F. Anklesaria	false		
111-2588886-6920258	21744673468330	2020-10-30T18:55:59+00:00	2020-10-30T11:55:59-07:00	2020-10-30T19:24:34+00:00	2020-11-04T07:59:59+00:00	-3	n3d7t10mbf88twh@marketplace.amazon.com	Amy	+1 480-618-5344 ext. 13279	ABM017	Delivery by Wednesday | Arabella Bouquets 10 Stems of Blue Dendrobium Orchids in a Free Designer Glass Vase	1	0	1	Expedited	Suk Friedhaber	13324 WARNER HILL RD			SOUTH WALES	NY	14139-9745	US		Hugs from Colorado. We love you Grandma! From Jacob & Lilana	false		
114-9276067-6731465	22375030715370	2020-10-30T19:24:17+00:00	2020-10-30T12:24:17-07:00	2020-10-30T19:52:36+00:00	2020-11-04T07:59:59+00:00	-3	t1t10gx371vzdd5@marketplace.amazon.com	Jeanette Patterson	+1 619-854-2705 ext. 20367	ABM010	Delivery by Tuesday | The Spring Fling Bouquet by Arabella Bouquets with a Free Designer Glass Vase	1	0	1	Expedited	Cheryl Covington,  Agent	345 CYPRESS ST			FORT BRAGG	CA	95437-5407	US			false		
113-9491444-3392214	42095160869362	2020-10-30T20:08:04+00:00	2020-10-30T13:08:04-07:00	2020-10-30T20:37:19+00:00	2020-11-04T07:59:59+00:00	-3	v9vynf65ycg7lv1@marketplace.amazon.com	Kathy SIms Melton	+1 929-436-4790 ext. 49921	ABR0022	Delivery by Tuesday | Arabella Farm Direct Bouquet of 12 Fresh Cut Pink Roses with a Free Glass Vase	1	0	1	Expedited	Nora Fyffe	984 11TH ST			PASADENA	MD	21122-1791	US		Thinking of you my friend. I am always here ❤️ From Kathy SIms Melton	false		
113-6118333-0189843	56546004781290	2020-10-27T18:25:00+00:00	2020-10-27T11:25:00-07:00	2020-10-30T20:46:16+00:00	2020-11-04T07:59:59+00:00	-3	tgkp6hd3hvf4bjs@marketplace.amazon.com	Essey Woldemariam	+1 619-854-2705 ext. 73376	ABM022	Delivery by Thursday | Purple Extravagance Bouquet by Arabella Bouquets	1	0	1	Expedited	Serby Samson	12612 Brickyard Blvd			Beltsville	Md	20705	US		Just a small token of my love.  Te quiero From Essey Woldemariam	false		
113-4911563-3330669	26483203872410	2020-10-30T21:21:25+00:00	2020-10-30T14:21:25-07:00	2020-10-30T21:51:48+00:00	2020-11-04T07:59:59+00:00	-3	k20l6qr64y0tyrj@marketplace.amazon.com	Gwendolyn Baker	+1 929-436-4790 ext. 66427	ABM022	Delivery by Tuesday | Purple Extravagance Bouquet by Arabella Bouquets	1	0	1	Expedited	Barbara Kenyon and Dana Turner	13059 SANDY PINE LN			CLERMONT	FL	34711-6566	US			false		
111-2987533-7565837	54511404115154	2020-10-30T22:16:59+00:00	2020-10-30T15:16:59-07:00	2020-10-30T22:43:41+00:00	2020-11-04T07:59:59+00:00	-3	0m9ztlddxf65bzj@marketplace.amazon.com	linda parker	+1 602-671-6610 ext. 80408	ABR0055	Delivery by Tuesday | Arabella Farm Direct Bouquet of 12 Stems of Fresh Cut Hot Pink Roses in a Free Designer Glass Vase	1	0	1	Expedited	linda parker	HOUSE 3905 STANTON ST			RIVERSIDE	CA	92509-2705	US			false		
113-6696964-0107438	12307057751946	2020-10-30T22:32:25+00:00	2020-10-30T15:32:25-07:00	2020-10-30T22:57:41+00:00	2020-11-04T07:59:59+00:00	-3	5kl9n7szyddrf7h@marketplace.amazon.com	Yonicel Leyva	+1 480-618-5344 ext. 13752	ABR0033	Delivery by Tuesday | Arabella Farm Direct Bouquet of 12 Fresh Cut Orange Roses with a Free Glass Vase	1	0	1	Expedited	Yaumara Perez	6450 NW 191ST TER			HIALEAH	FL	33015-4710	US		Para el amor de mi vida.Dios te me bendiga siempre mujer virtuosa From Luis Miguel	false		
114-6096571-8897053	55756060379234	2020-10-30T22:28:27+00:00	2020-10-30T15:28:27-07:00	2020-10-30T22:57:46+00:00	2020-11-04T07:59:59+00:00	-3	ccznvxv4h2rmdw5@marketplace.amazon.com	Jennifer Lynn Webster	+1 213-442-1463 ext. 36148	ABR0055	Delivery by Tuesday | Arabella Farm Direct Bouquet of 12 Stems of Fresh Cut Hot Pink Roses in a Free Designer Glass Vase	1	0	1	Expedited	Kirsten Webster	4700 NW 10TH ST			OKLAHOMA CITY	OK	73127-5901	US		HAPPY BIRTHDAY! We have a fun-filled weekend planned for you. See you soon! Love, Mom, Dad & Lucas From Jennifer Lynn Webster	false		
113-1740667-6219453	20588536592498	2020-10-30T23:08:14+00:00	2020-10-30T16:08:14-07:00	2020-10-30T23:09:10+00:00	2020-11-04T07:59:59+00:00	-3	0803tq1bjmnn2jq@marketplace.amazon.com	Stanley J. Niemala	+1 602-671-6610 ext. 13598	ABR0022	Delivery by Tuesday | Arabella Farm Direct Bouquet of 12 Fresh Cut Pink Roses with a Free Glass Vase	1	0	1	Expedited	RHONDA and PETE  COMSTOCK	13675 SIENNA PASS			DEWITT	MI	48820-7821	US		Dear Rhonda,                  HAPPY BIRTHDAY from US!                      Love,  Mar'ceil & Stan From Stanley J. Niemala	false		
111-2792535-1980200	60225492963938	2020-10-30T22:54:09+00:00	2020-10-30T15:54:09-07:00	2020-10-30T23:10:19+00:00	2020-11-04T07:59:59+00:00	-3	g2gk49gb15042dn@marketplace.amazon.com	Abhi	+1 213-442-1463 ext. 24873	ABR001	Delivery by Tuesday | Arabella Bouquets 12 Stems of Fresh Cut Red Roses in a Free Designer Glass Vase	1	0	1	Expedited	Neha Rawat	2001 HOLLEMAN DR W APT 917			COLLEGE STATION	TX	77840-6377	US		Happy Birthday Neha! Have an awesome year ahead! Best wishes!! From Abhi	false		
111-9626974-9453002	31026271984562	2020-10-30T22:52:29+00:00	2020-10-30T15:52:29-07:00	2020-10-30T23:21:11+00:00	2020-11-04T07:59:59+00:00	-3	dldzd49wxq4kr86@marketplace.amazon.com	thomas lyons	+1 480-618-5344 ext. 14881	ABR0022	Delivery by Tuesday | Arabella Farm Direct Bouquet of 12 Fresh Cut Pink Roses with a Free Glass Vase	1	0	1	Expedited	Molly Lyons Bahrke	6261 E IOWA AVE			DENVER	CO	80224-2112	US		Happy Birthday! In place of a hug...with love from Maine From Tom and Cath	false		
113-1373961-3835405	39969577003162	2020-10-30T22:56:20+00:00	2020-10-30T15:56:20-07:00	2020-10-30T23:23:20+00:00	2020-11-04T07:59:59+00:00	-3	5ybtwf9p6dmxmn5@marketplace.amazon.com	Mike Moran	+1 602-671-6610 ext. 72805	ABR0022	Delivery by Tuesday | Arabella Farm Direct Bouquet of 12 Fresh Cut Pink Roses with a Free Glass Vase	1	0	1	Expedited	Michael Moran	242 QUAKER CHURCH RD			RANDOLPH	NJ	07869-1416	US		I love you so much and I'm so grateful Rosie and I have you in our lives. You are the most amazing Wife and Mother and we are so lucky to spend every day by your side. From Your Husband	false		
112-7243781-5441031	42303662497378	2020-10-30T23:01:38+00:00	2020-10-30T16:01:38-07:00	2020-10-30T23:30:06+00:00	2020-11-04T07:59:59+00:00	-3	qr3wfsskydm53w1@marketplace.amazon.com	Dorothy Sonnenberg	+1 480-618-5344 ext. 21256	ABR0022	Delivery by Tuesday | Arabella Farm Direct Bouquet of 12 Fresh Cut Pink Roses with a Free Glass Vase	1	0	1	Expedited	Beth  Moloughney	222 OWL HOLLOW DR			TANNERSVILLE	PA	18372-7789	US			false		
113-5079096-9336254	66547641433114	2020-10-30T23:04:08+00:00	2020-10-30T16:04:08-07:00	2020-10-30T23:32:20+00:00	2020-11-04T07:59:59+00:00	-3	8dgchjq36ym7rtd@marketplace.amazon.com	Jack bied	+1 480-618-5344 ext. 44203	ABR0033	Delivery by Tuesday | Arabella Farm Direct Bouquet of 12 Fresh Cut Orange Roses with a Free Glass Vase	1	0	1	Expedited	AnnaBelle Sartore	16400 PACIFIC COAST HWY STE 211			HUNTINGTON BEACH	CA	92649-1822	US			false		
111-6645764-1175461	57090248081850	2020-10-30T23:37:34+00:00	2020-10-30T16:37:34-07:00	2020-10-30T23:59:52+00:00	2020-11-04T07:59:59+00:00	-3	75st4xfblxk738c@marketplace.amazon.com	yadira rodriguez	+1 619-854-2705 ext. 04813	ABM010	Delivery by Tuesday | The Spring Fling Bouquet by Arabella Bouquets with a Free Designer Glass Vase	1	0	1	Expedited	Kati Ubiera	6 OSBORNE RD			POUGHKEEPSIE	NY	12601-4946	US		Happy birthday. Many blessings to you Enjoy your gift! From yadira rodriguez	false		
112-5568673-0679439	20058899332274	2020-10-30T23:42:14+00:00	2020-10-30T16:42:14-07:00	2020-10-31T00:11:05+00:00	2020-11-04T07:59:59+00:00	-3	t6lk0729stk8vrb@marketplace.amazon.com	Michele Shafer	+1 619-854-2705 ext. 16410	ABM022	Delivery by Tuesday | Purple Extravagance Bouquet by Arabella Bouquets	1	0	1	Expedited	MOM-  Battiste	9024 BROOK FORD RD			BURKE	VA	22015-3612	US		Enjoy your gift! Happy Birthday From Michele Shafer & Casey	false		
112-0361115-5177006	59745260572506	2020-10-30T23:52:26+00:00	2020-10-30T16:52:26-07:00	2020-10-31T00:22:48+00:00	2020-11-04T07:59:59+00:00	-3	fngg2c1tllf7ckx@marketplace.amazon.com	Judy McNelley	+1 602-671-6610 ext. 37769	ABM022	Delivery by Tuesday | Purple Extravagance Bouquet by Arabella Bouquets	1	0	1	Expedited	geri shaeffer	4671 ARBOGA RD			OLIVEHURST	CALIFORNIA	95961-4445	US			false		
111-7340821-3970640	20279585458378	2020-10-31T00:14:42+00:00	2020-10-30T17:14:42-07:00	2020-10-31T00:43:40+00:00	2020-11-04T07:59:59+00:00	-3	szsbzp8qf38r15w@marketplace.amazon.com	Bianca Moruzzi	+1 929-436-4790 ext. 87953	ABM010	Delivery by Tuesday | The Spring Fling Bouquet by Arabella Bouquets with a Free Designer Glass Vase	1	0	1	Expedited	Bruna Moruzzi	8 Pennstar Lane			South Yarmouth	MA	02664	US		I love you mom!  Everything is going to be okay. From Bianca Moruzzi	false		
113-5091502-0504223	51908635059690	2020-10-31T00:36:26+00:00	2020-10-30T17:36:26-07:00	2020-10-31T01:02:38+00:00	2020-11-04T07:59:59+00:00	-3	7z23t0d9r5rjvyq@marketplace.amazon.com	lolly werner	+1 480-618-5344 ext. 68867	ABM022	Delivery by Tuesday | Purple Extravagance Bouquet by Arabella Bouquets	1	0	1	Expedited	Margie Arvallo	2036 E TOPEKA DR			PHOENIX	AZ	85024-2404	US		Get well soon! We love you!!  Lolly and Vicki From lolly werner	false		
113-9721351-2784233	40167658076962	2020-10-31T00:56:40+00:00	2020-10-30T17:56:40-07:00	2020-10-31T01:26:18+00:00	2020-11-04T07:59:59+00:00	-3	1b6nf28zyfj8202@marketplace.amazon.com	Kimberly Gorman	+1 619-854-2705 ext. 43689	ABM022	Delivery by Tuesday | Purple Extravagance Bouquet by Arabella Bouquets	1	0	1	Expedited	Kimberly Gorman	6016 N TRAILS END			PEORIA	IL	61614-3523	US		Happy birthday, Nana!  We love you!  Love,  Madison, Collin, Kimberly and Corey From The Gormans	false		
111-6558883-8816221	20513295488258	2020-10-31T01:13:09+00:00	2020-10-30T18:13:09-07:00	2020-10-31T01:40:04+00:00	2020-11-04T07:59:59+00:00	-3	6y29lzhr9fr0g3d@marketplace.amazon.com	Jill A. Sweringen	+1 213-442-1463 ext. 19269	ABM020	Delivery by Tuesday | The Sunset Bouquet by Arabella Bouquets	1	0	1	Expedited	Richard W. Sweringen	163 WOODLANDS DR			VERONA	PA	15147-3879	US		Happy 60th Anniversary, Dad and Mom! From Jill, Barb and Joxer	false		
111-6558883-8816221	55006893578938	2020-10-31T01:13:09+00:00	2020-10-30T18:13:09-07:00	2020-10-31T01:40:04+00:00	2020-11-04T07:59:59+00:00	-3	6y29lzhr9fr0g3d@marketplace.amazon.com	Jill A. Sweringen	+1 213-442-1463 ext. 19269	ABM022	Delivery by Tuesday | Purple Extravagance Bouquet by Arabella Bouquets	1	0	1	Expedited	Richard W. Sweringen	163 WOODLANDS DR			VERONA	PA	15147-3879	US		Happy 60th Anniversary, Mom and Dad! From Jill, Barb and Joxer	false		
111-9336604-1335405	64832316100330	2020-10-31T01:24:51+00:00	2020-10-30T18:24:51-07:00	2020-10-31T01:53:42+00:00	2020-11-04T07:59:59+00:00	-3	43nhjrhkrmgmtr1@marketplace.amazon.com	Terry A. Marchillo	+1 619-854-2705 ext. 18327	ABM010	Delivery by Tuesday | The Spring Fling Bouquet by Arabella Bouquets with a Free Designer Glass Vase	1	0	1	Expedited	Vincent and Jaimie Marchillo	1010 TAYLOR AVE N			SEATTLE	WA	98109-3849	US		❤️Congratulations to the bride and groom!!  Love you both so much! From Mommola!😊	false		
111-0302329-3968272	22266411553186	2020-10-31T01:38:31+00:00	2020-10-30T18:38:31-07:00	2020-10-31T02:05:07+00:00	2020-11-04T07:59:59+00:00	-3	bsng724k7bqwf80@marketplace.amazon.com	Amy Saras	56128999006	ABM022	Delivery by Tuesday | Purple Extravagance Bouquet by Arabella Bouquets	1	0	1	Expedited	Christine Nesheiwat	6756 CHRISTIANSTED LN			NASHVILLE	TN	37211-7485	US		Congratulations on your new sweet baby girl! We are so happy for you and cannot wait to meet her! God bless! XOXO From Robbie, Amy & the kids	false		
114-3846990-7021044	26835802305122	2020-10-31T01:49:28+00:00	2020-10-30T18:49:28-07:00	2020-10-31T02:18:14+00:00	2020-11-04T07:59:59+00:00	-3	qq0djv46fx8p2rc@marketplace.amazon.com	Leanne P Morse	+1 602-671-6610 ext. 25956	ABR0022	Delivery by Tuesday | Arabella Farm Direct Bouquet of 12 Fresh Cut Pink Roses with a Free Glass Vase	1	0	1	Expedited	Gretchen Morse	129 BERRY CREEK DR			FLAT ROCK	NC	28731-8531	US		2020 Sucks!!  We love you and hope these cheer you up! XOXOXOXO From Dan, Leanne, Maxon, & Anika	false		
111-7787109-6366601	23858863823410	2020-10-31T02:19:02+00:00	2020-10-30T19:19:02-07:00	2020-10-31T02:48:36+00:00	2020-11-04T07:59:59+00:00	-3	nyf06plcyp7cbkh@marketplace.amazon.com	Sachi Brittin	+1 213-442-1463 ext. 11416	ABM022	Delivery by Tuesday | Purple Extravagance Bouquet by Arabella Bouquets	1	0	1	Expedited	Yoshie R. Brittin	2739 NE 88th St.			Seattle	WA	98115	US		Happy 47th Anniversary!!  We love you both mucho!!  Love,  Sachi, Stephan, Sean and Amelie From Sachi Brittin	false		
114-7780366-4693056	41554094838130	2020-10-31T02:39:34+00:00	2020-10-30T19:39:34-07:00	2020-10-31T03:10:01+00:00	2020-11-04T07:59:59+00:00	-3	xzsv4vf1mq2t1sq@marketplace.amazon.com	Sonia L Smythe	+1 480-618-5344 ext. 75593	ABR0022	Delivery by Tuesday | Arabella Farm Direct Bouquet of 12 Fresh Cut Pink Roses with a Free Glass Vase	1	0	1	Expedited	Betsy Welsh	3575 ALEXANDRIA PIKE			ANDERSON	IN	46012-9208	US			false		
112-2077065-3524209	66805236940794	2020-10-31T02:43:52+00:00	2020-10-30T19:43:52-07:00	2020-10-31T03:11:41+00:00	2020-11-04T07:59:59+00:00	-3	015xv000f4smqt9@marketplace.amazon.com	Jessica Gonzalez	+1 213-442-1463 ext. 68738	ABR0022	Delivery by Tuesday | Arabella Farm Direct Bouquet of 12 Fresh Cut Pink Roses with a Free Glass Vase	1	0	1	Expedited	Jaclynn Smith	2825 PALM BEACH BLVD APT 504			FORT MYERS	FL	33916-1518	US		You did it!! Beautiful - It’s who you are. It’s what you’ve done! Your strength and courage to get through this part was beyond admirable. You are such a fighter and I’m so lucky to have you in my life! Love you XO From Jessica Gonzalez	false		
114-0876245-4925852	03347262105002	2020-10-31T03:05:57+00:00	2020-10-30T20:05:57-07:00	2020-10-31T03:35:49+00:00	2020-11-04T07:59:59+00:00	-3	83w651cn1n11lky@marketplace.amazon.com	Ayesha Khan	+1 602-671-6610 ext. 60263	ABC004	Delivery by Wednesday | Arabella Bouquets 10 Stems of Purple Dendrobium Orchids in a Free Designer Glass Vase	2	0	2	Expedited	Syeda Muneeruddin	3019 BLUESTEM CT			NAPERVILLE	IL	60565-3556	US			false		
112-3846094-3406604	10026633559554	2020-10-31T04:58:57+00:00	2020-10-30T21:58:57-07:00	2020-10-31T05:20:27+00:00	2020-11-04T07:59:59+00:00	-3	q5xdmwgd6969ryw@marketplace.amazon.com	Mariko Prigel	+1 929-436-4790 ext. 54801	ABM010	Delivery by Tuesday | The Spring Fling Bouquet by Arabella Bouquets with a Free Designer Glass Vase	1	0	1	Expedited	Mai Hessel	1809 TREGO DR			JUSTIN	TX	76247-5774	US		Happy happy happy birthday !! This is the first birthday as a mother! Enjoy your day with your amazing husband, extra cute baby Rhys, and neko chans ! Love you! From James & Mariko Prigel	false		
111-1292534-6770651	31571663966090	2020-10-31T05:35:30+00:00	2020-10-30T22:35:30-07:00	2020-10-31T06:06:03+00:00	2020-11-04T07:59:59+00:00	-3	9nllztb1xwdslq9@marketplace.amazon.com	walter rich	+1 602-671-6610 ext. 11133	ABR0033	Delivery by Tuesday | Arabella Farm Direct Bouquet of 12 Fresh Cut Orange Roses with a Free Glass Vase	1	0	1	Expedited	SUSAN CALLAGHAN	34 COLONY ST			ANSONIA	CT	06401-1406	US			false		
113-4235120-6353826	40462728899362	2020-10-31T06:37:37+00:00	2020-10-30T23:37:37-07:00	2020-10-31T07:02:21+00:00	2020-11-04T07:59:59+00:00	-3	g4yk3mjt7ffcbpj@marketplace.amazon.com	Jennifer Ditrich	+1 602-671-6610 ext. 59348	ABM022	Delivery by Tuesday | Purple Extravagance Bouquet by Arabella Bouquets	1	0	1	Expedited	Kelly Parthenakis	2802 ZUCK RD			ERIE	PA	16506-3155	US		Dear Kelly, I know these past few months have been very difficult for you. You will get through this. You are a warrior, a survivor, a savage. I’m here for you & I love you! From Jen	false		
113-7192556-7092257	47879857457946	2020-10-31T06:32:50+00:00	2020-10-30T23:32:50-07:00	2020-10-31T07:03:32+00:00	2020-11-04T07:59:59+00:00	-3	h041dwjbrfff59m@marketplace.amazon.com	Stephany A. Watson	+1 415-851-9136 ext. 17382	ABR0033	Delivery by Tuesday | Arabella Farm Direct Bouquet of 12 Fresh Cut Orange Roses with a Free Glass Vase	1	0	1	Expedited	Greg and Marica Russ	130164TH AVE NE			BELLEVUE	WA	98008-4450	US			false		
112-8711947-0132231	15891558444338	2020-10-31T08:04:48+00:00	2020-10-31T01:04:48-07:00	2020-10-31T08:32:38+00:00	2020-11-04T07:59:59+00:00	-3	xbhnr8g9yjw4whp@marketplace.amazon.com	Cynthia Barclay Hoffmann	+1 213-442-1463 ext. 27811	ABM022	Delivery by Tuesday | Purple Extravagance Bouquet by Arabella Bouquets	1	0	1	Expedited	Robert Post	3300 DARBY RD APT 6303			HAVERFORD	PA	19041-1074	US		Dear Robin, Happy 100th !!  What more is there to say :-)  With much love, Cynthia From Cynthia Barclay Hoffmann	false		
112-8125432-0384206	17762946716698	2020-10-31T09:08:10+00:00	2020-10-31T02:08:10-07:00	2020-10-31T09:35:19+00:00	2020-11-04T07:59:59+00:00	-3	80swg1g3n4j70wj@marketplace.amazon.com	Hector Marchi	+1 619-854-2705 ext. 71048	ABR001	Delivery by Tuesday | Arabella Bouquets 12 Stems of Fresh Cut Red Roses in a Free Designer Glass Vase	1	0	1	Expedited	Nubia Marchi	135 MARTIN ST			OCEANSIDE	CA	92058-7711	US		Para la mejor esposa del mundo. Ya merito mi amor. Te amo mucho desde acá. -Héctor	false		
113-1997723-2705025	62467562483098	2020-10-31T11:21:02+00:00	2020-10-31T04:21:02-07:00	2020-10-31T11:50:57+00:00	2020-11-04T07:59:59+00:00	-3	v8jycr9fww9v2yp@marketplace.amazon.com	nick	+1 213-442-1463 ext. 31039	ABR0022	Delivery by Tuesday | Arabella Farm Direct Bouquet of 12 Fresh Cut Pink Roses with a Free Glass Vase	1	0	1	Expedited	Laura D'Andria	8337 NICHOLS ST B			FORT CAMPBELL	KY	42223-2610	US			false		
113-2812466-8735423	23985401125546	2020-10-31T12:09:46+00:00	2020-10-31T05:09:46-07:00	2020-10-31T12:37:04+00:00	2020-11-04T07:59:59+00:00	-3	sxwpxc2p6qsz8cf@marketplace.amazon.com	Pooja	+1 929-436-4790 ext. 91509	ABR0022	Delivery by Tuesday | Arabella Farm Direct Bouquet of 12 Fresh Cut Pink Roses with a Free Glass Vase	1	0	1	Expedited	Shikha	CLINTON 18 OVERLOOK DR			CLINTON	NJ	08809-1133	US		Heartiest Congratulations on the most awaited news. We all are really happy for you. Wishing you all the luck for future. From Maa Paa Pooja Vishu	false		
111-7698597-6547408	33139286578554	2020-10-31T13:00:20+00:00	2020-10-31T06:00:20-07:00	2020-10-31T13:29:07+00:00	2020-11-04T07:59:59+00:00	-3	zm5cm7120v6hdpx@marketplace.amazon.com	denise regan	+1 480-618-5344 ext. 28378	ABR001	Delivery by Tuesday | Arabella Bouquets 12 Stems of Fresh Cut Red Roses in a Free Designer Glass Vase	1	0	1	Expedited	Cora elizabet thomas	16 E JONES ST			SAVANNAH	GA	31401-4515	US		Happy birthday!! From denise	false		
114-5199857-6671431	66990932509978	2020-10-31T13:02:45+00:00	2020-10-31T06:02:45-07:00	2020-10-31T13:31:09+00:00	2020-11-04T07:59:59+00:00	-3	912zxqtm6qrc4gl@marketplace.amazon.com	Doug	+1 929-436-4790 ext. 76825	ABM020	Delivery by Tuesday | The Sunset Bouquet by Arabella Bouquets	1	0	1	Expedited	Hannah D. Stephens	1019 N VILLARD ST			TACOMA	WA	98406-2635	US		I love you Hannah - Happy Birthday ! From Dad	false		
111-5609351-4792210	30514637910242	2020-10-31T13:15:24+00:00	2020-10-31T06:15:24-07:00	2020-10-31T13:40:45+00:00	2020-11-04T07:59:59+00:00	-3	ngdln322j02jwb6@marketplace.amazon.com	Dr. Saku W Gunasegaram	+1 619-854-2705 ext. 03428	ABR004	Delivery by Tuesday | Arabella Farm Direct Bouquet of 12 Fresh Cut Yellow Roses with a Free Glass Vase	3	0	3	Expedited	TO:EVERYONE WHO LOVED DICK CSAPLAR   NANCY CSAPLAR	WE CANNOT SEE YOU BUT YOU ARE IN THOUG HTS AND PRAYERS	76 YALE ST SINCEREST CONDOLENCES		WINCHESTER	MA	01890-2332	US		TO: EVERYONE WHO LOVED UNCLE DICK CSAPLAR C/O DAUGHTER-IN-LAW NANCY CSAPLAR IT IS ALWAYS A SHOCK EVEN WHEN IT'S BEEN ANTICIPATED FOR _YEARS_. SINCEREST CONDOLENCES. From Dr. Saku Gunasegaram+WILF	false		
111-4766603-8556246	39068717619978	2020-10-31T13:21:01+00:00	2020-10-31T06:21:01-07:00	2020-10-31T13:47:45+00:00	2020-11-04T07:59:59+00:00	-3	ngdln322j02jwb6@marketplace.amazon.com	Dr. Saku W Gunasegaram	+1 602-671-6610 ext. 24373	ABR004	Delivery by Tuesday | Arabella Farm Direct Bouquet of 12 Fresh Cut Yellow Roses with a Free Glass Vase	3	0	3	Expedited	WILL CSAPLAR (SENIOR) SINCEREST CONDOLENCES	101 BARRY RD UNIT 1352 THE	WILLOWS CSAPLAR		WORCESTER	MA	01609-1273	US		TO: WILL CSAPLAR (SENIOR) IT IS ALWAYS A SHOCK EVEN WHEN IT'S BEEN ANTICIPATED FOR _YEARS_. SINCEREST CONDOLENCES. From Dr. Saku Gunasegaram+WILF	false		
112-4982691-7701813	38258873710906	2020-10-31T13:24:18+00:00	2020-10-31T06:24:18-07:00	2020-10-31T13:52:26+00:00	2020-11-04T07:59:59+00:00	-3	0fymr7np3dkk6xv@marketplace.amazon.com	Jenelle Haugan	+1 480-618-5344 ext. 57787	ABM025	Delivery by Wednesday | The Fell for You Bouquet by Arabella Bouquets	1	0	1	Expedited	Kim McLaughlin	587 south Movil lake rd			Bemidji	MN	56601	US		Enjoy your gift! From Jenelle Haugan	false		
112-2051473-6110602	55146704994210	2020-10-31T13:31:29+00:00	2020-10-31T06:31:29-07:00	2020-10-31T14:00:50+00:00	2020-11-04T07:59:59+00:00	-3	py7j8fllkrjz4nm@marketplace.amazon.com	Tracy Cornette	+1 929-436-4790 ext. 30084	ABM022	Delivery by Tuesday | Purple Extravagance Bouquet by Arabella Bouquets	1	0	1	Expedited	Carol Cornette	1949 FRANKS RD			STURGEON BAY	WI	54235-9231	US		Happy Birthday!!! From Tracy, Alex & Aiden	false		
111-7874116-9247431	07797066846418	2020-10-31T13:33:45+00:00	2020-10-31T06:33:45-07:00	2020-10-31T14:03:13+00:00	2020-11-04T07:59:59+00:00	-3	p3tssfvp8ng5cr4@marketplace.amazon.com	Jennifer	+1 619-854-2705 ext. 31218	ABR0055	Delivery by Tuesday | Arabella Farm Direct Bouquet of 12 Stems of Fresh Cut Hot Pink Roses in a Free Designer Glass Vase	1	0	1	Expedited	Anissa Dowling	218 BELMONT CT			LOVELAND	OH	45140-7125	US		Anissa,  HAPPY 50th BIRTHDAY!  Welcome to the club! From Jennifer	false		
113-6490627-8929854	09753022404562	2020-10-31T14:27:08+00:00	2020-10-31T07:27:08-07:00	2020-10-31T14:56:48+00:00	2020-11-04T07:59:59+00:00	-3	qm5x7tf4xcqjmn9@marketplace.amazon.com	Karen Kennedy	+1 929-436-4790 ext. 20263	ABR0022	Delivery by Tuesday | Arabella Farm Direct Bouquet of 12 Fresh Cut Pink Roses with a Free Glass Vase	1	0	1	Expedited	Rose Valzavano	6 Marietta Lane			Glen Cove	New York	11542	US			false		
111-8096900-4505051	05729280439730	2020-10-31T14:49:15+00:00	2020-10-31T07:49:15-07:00	2020-10-31T15:05:52+00:00	2020-11-04T07:59:59+00:00	-3	tjp58pwrf80ds4j@marketplace.amazon.com	perry r hammer	+1 619-854-2705 ext. 08017	ABR0055	Delivery by Tuesday | Arabella Farm Direct Bouquet of 12 Stems of Fresh Cut Hot Pink Roses in a Free Designer Glass Vase	1	0	1	Expedited	judy viljevac	6638 S 20TH ST			MILWAUKEE	WI	53221-5226	US		see what happens when you mix white and red !!!            he who does not play well with others..... From        perry r hammer From perry r hammer	false		
112-0000024-3294612	60052292872930	2020-10-31T15:16:05+00:00	2020-10-31T08:16:05-07:00	2020-10-31T15:46:44+00:00	2020-11-04T07:59:59+00:00	-3	1vppyvzf1f978ld@marketplace.amazon.com	C M J Kimpton	+1 619-854-2705 ext. 37302	ABM002	Delivery by Wednesday | Arabella Bouquets Fresh Cut White Calla Lilies in a Free Designer Glass Vase	1	0	1	Expedited	Camilla kimpton	900 CARUTHERS AVE LEAVE ON PORCH			NASHVILLE	TN	37204-2409	US			false		
112-0790125-9255400	27263494337314	2020-10-31T15:28:46+00:00	2020-10-31T08:28:46-07:00	2020-10-31T15:49:06+00:00	2020-11-04T07:59:59+00:00	-3	h2bt0ld598v8pnn@marketplace.amazon.com	Darlene Zanders	+1 602-671-6610 ext. 72788	ABR0022	Delivery by Tuesday | Arabella Farm Direct Bouquet of 12 Fresh Cut Pink Roses with a Free Glass Vase	1	0	1	Expedited	Mother Blueford	204 MIDLAND AVE			COLUMBUS	OH	43223-1023	US		Enjoy your gift! Happy Birthday Mom Blue Love You. Your GodDaughter From Darlene Zanders	false		
112-4206927-2003428	65390478403130	2020-10-31T15:28:10+00:00	2020-10-31T08:28:10-07:00	2020-10-31T15:57:30+00:00	2020-11-04T07:59:59+00:00	-3	x3f6b5yvr12j9hg@marketplace.amazon.com	Jocelyn K Liberg	+1 480-618-5344 ext. 99949	ABR0022	Delivery by Tuesday | Arabella Farm Direct Bouquet of 12 Fresh Cut Pink Roses with a Free Glass Vase	1	0	1	Expedited	Bernice Young	22156 TOWEY CT			GREAT MILLS	MD	20634-2213	US		Bernice, Just wanted you to know I’m thinking about you, and that I miss seeing you every day! All my best, Jocelyn Liberg From Jocelyn K Liberg	false		
113-6095834-1701854	18737767593522	2020-10-31T15:35:17+00:00	2020-10-31T08:35:17-07:00	2020-10-31T15:59:43+00:00	2020-11-04T07:59:59+00:00	-3	mp7r9cn68gycyx1@marketplace.amazon.com	John Savageau	+1 480-618-5344 ext. 62158	ABR004	Delivery by Tuesday | Arabella Farm Direct Bouquet of 12 Fresh Cut Yellow Roses with a Free Glass Vase	1	0	1	Expedited	Alison Willing	434 DAY MOUNTAIN RD			TEMPLE	ME	04984-3604	US		Happy Birthday.  You are a special, caring person who is often unappreciated.  We know all you do and we love you very much.  Do something special for yourself today! From Ann & John	false		
114-1467095-9367439	26086855726034	2020-10-31T15:33:23+00:00	2020-10-31T08:33:23-07:00	2020-10-31T16:01:40+00:00	2020-11-04T07:59:59+00:00	-3	d8tprc33rf4w0d0@marketplace.amazon.com	Jeremy	+1 929-436-4790 ext. 42871	ABM020	Delivery by Tuesday | The Sunset Bouquet by Arabella Bouquets	1	0	1	Expedited	Michael and Sharla Leary	18284 TENNYSON LN			PARKER	CO	80134-7751	US		Hope you all feel better soon! From The Hotsenpiller’s	false		
112-1146791-7690618	61198236299674	2020-10-31T15:36:31+00:00	2020-10-31T08:36:31-07:00	2020-10-31T16:06:55+00:00	2020-11-04T07:59:59+00:00	-3	q4chsv3w68rqsnf@marketplace.amazon.com	Linda Kester	+1 619-854-2705 ext. 03666	ABR001	Delivery by Tuesday | Arabella Bouquets 12 Stems of Fresh Cut Red Roses in a Free Designer Glass Vase	1	0	1	Expedited	Dolores Kester	1818 WINCHESTER ST			MADISON	WI	53704-3457	US			false		
113-8355594-8889828	46623986283586	2020-10-31T16:00:05+00:00	2020-10-31T09:00:05-07:00	2020-10-31T16:28:39+00:00	2020-11-04T07:59:59+00:00	-3	klx9lswvg1zndtx@marketplace.amazon.com	JULIE OLIVERI	+1 602-671-6610 ext. 60701	ABM024	Delivery by Wednesday | The Beauty of Color Bouquet by Arabella Bouquets	1	0	1	Expedited	Mary  Mazzei	81 OXFORD AVE			CAMBRIDGE	MA	02138-4422	US		Thinking  of you during this difficult time Love   Julie and Joanne (Kennedy) From JULIE OLIVERI	false		
112-1916463-1838617	20386256138418	2020-10-31T16:13:11+00:00	2020-10-31T09:13:11-07:00	2020-10-31T16:33:07+00:00	2020-11-04T07:59:59+00:00	-3	fllnchb0wyrk2gm@marketplace.amazon.com	Amanda Desroches	+1 602-671-6610 ext. 21271	ABR0022	Delivery by Tuesday | Arabella Farm Direct Bouquet of 12 Fresh Cut Pink Roses with a Free Glass Vase	1	0	1	Expedited	Carol and George Dinardi	68 EUSTIS AVE			WAKEFIELD	MA	01880-1431	US		Sending warm, good and healthy vibes your way. From Mandie & Derek Desroches & family	false		
112-0110647-4620257	12116886691882	2020-10-31T16:03:27+00:00	2020-10-31T09:03:27-07:00	2020-10-31T16:33:21+00:00	2020-11-04T07:59:59+00:00	-3	205n6jhvkjrxm7c@marketplace.amazon.com	Richard Payne	+1 213-442-1463 ext. 56153	ABM020	Delivery by Tuesday | The Sunset Bouquet by Arabella Bouquets	1	0	1	Expedited	Sherry Schreck c/o ROSALYN DOTY	811 FREEDOM PLAZA CIR APT 203			SUN CITY CENTER	FL	33573-5294	US		Love you!! From Richard	false		
112-6916786-5941048	00664050611346	2020-10-31T16:30:25+00:00	2020-10-31T09:30:25-07:00	2020-10-31T16:56:41+00:00	2020-11-04T07:59:59+00:00	-3	dmfk66l3gxb89tf@marketplace.amazon.com	Carolyn Langer	+1 480-618-5344 ext. 55543	ABM022	Delivery by Tuesday | Purple Extravagance Bouquet by Arabella Bouquets	1	0	1	Expedited	Carol Langer	6113 BYRON ST			ROSEMONT	IL	60018-4415	US		Happy birthday Mom! We love you, From Steve, Carolyn, Nick, Carly, Lilly & Xander	false		
111-4883221-1646644	24267955710274	2020-10-31T16:48:08+00:00	2020-10-31T09:48:08-07:00	2020-10-31T17:01:07+00:00	2020-11-04T07:59:59+00:00	-3	lszd17bnx2fqd7w@marketplace.amazon.com	Turner Robin	+1 929-436-4790 ext. 79114	ABM022	Delivery by Tuesday | Purple Extravagance Bouquet by Arabella Bouquets	1	0	1	Standard	Erica Nagyvegi	4400 PELUSO DR			SYRACUSE	NY	13215-1301	US		God bless you on this milestone birthday! From Robin	false		
114-7515551-3159449	01218971217506	2020-10-31T16:34:26+00:00	2020-10-31T09:34:26-07:00	2020-10-31T17:03:40+00:00	2020-11-04T07:59:59+00:00	-3	jgrrs2dn7krb5d2@marketplace.amazon.com	Randa Spears	+1 213-442-1463 ext. 32405	ABR0033	Delivery by Tuesday | Arabella Farm Direct Bouquet of 12 Fresh Cut Orange Roses with a Free Glass Vase	1	0	1	Expedited	Hilary Mason	5415 GRESHAM AVE			SAINT LOUIS	MO	63109-3704	US		Very Happy Belated Birthday! Much love, Randa From Randa Spears	false		
114-7936831-3211403	44527636440082	2020-10-31T16:44:32+00:00	2020-10-31T09:44:32-07:00	2020-10-31T17:11:28+00:00	2020-11-04T07:59:59+00:00	-3	q2jmvmd5583kqp2@marketplace.amazon.com	Jason	+1 929-436-4790 ext. 63352	ABM022	Delivery by Tuesday | Purple Extravagance Bouquet by Arabella Bouquets	1	0	1	Expedited	Marji Family	42573 SADDLE LN			STERLING HEIGHTS	MI	48314-2928	US			false		
114-2301813-6484245	17818795831762	2020-10-31T16:46:38+00:00	2020-10-31T09:46:38-07:00	2020-10-31T17:15:59+00:00	2020-11-04T07:59:59+00:00	-3	q2jmvmd5583kqp2@marketplace.amazon.com	Jason	+1 602-671-6610 ext. 50023	ABM022	Delivery by Tuesday | Purple Extravagance Bouquet by Arabella Bouquets	1	0	1	Expedited	Haddad Family	2853 CULBERTSON AVE			ROCHESTER HILLS	MI	48307-4617	US		To the lovely family, our hearts ache with you! He was such an incredible man. We are so sorry for your loss & we are continuously praying for peace & comfort during this difficult time. We love you so much & know we are here From Qandahs & Millers	false		
112-1211600-5103413	23655454660386	2020-10-31T16:48:54+00:00	2020-10-31T09:48:54-07:00	2020-10-31T17:18:15+00:00	2020-11-04T07:59:59+00:00	-3	vkn41hldcqxf9z2@marketplace.amazon.com	Jocelyn M Crenshaw	+1 415-851-9136 ext. 25281	ABR0033	Delivery by Tuesday | Arabella Farm Direct Bouquet of 12 Fresh Cut Orange Roses with a Free Glass Vase	1	0	1	Standard	Grace Jones	624 ENGLAND ST			FATE	TX	75189-7010	US		Congratulations on the Adoption!!! Can't wait to celebrate with you soon. We love you guys. From The Crenshaws	false		
112-0510174-9466665	01052506904434	2020-10-31T16:50:16+00:00	2020-10-31T09:50:16-07:00	2020-10-31T17:19:20+00:00	2020-11-04T07:59:59+00:00	-3	1z07xyg1xcfdn9q@marketplace.amazon.com	shannon sommerville	+1 619-854-2705 ext. 22843	ABM024	Delivery by Wednesday | The Beauty of Color Bouquet by Arabella Bouquets	1	0	1	Expedited	Donna Telyzcka	151 RAMSEY AVE			YONKERS	NY	10701-5243	US		Aunt Donna Happy Birthday! Sorry so late. Hope you had the best day. Love you Annette From shannon sommerville	false		
112-5169180-9449032	24627056869954	2020-10-31T17:05:07+00:00	2020-10-31T10:05:07-07:00	2020-10-31T17:31:27+00:00	2020-11-04T07:59:59+00:00	-3	tkd4pmcd0jb2thc@marketplace.amazon.com	Ryan Jamaal Tims	+1 602-671-6610 ext. 16450	ABM0033	Delivery by Wednesday | Arabella Farm Direct Bouquet of Fresh Cut White Hydrangea with a Free Glass Vase	1	0	1	Expedited	Tameshia Henson	20920 WINDMILL RIDGE ST			PFLUGERVILLE	TX	78660-6539	US		You’re DONE! What is school? We don’t know her. Just another notch on your superwoman belt.  Love you big From Rosalynn & Ryan	false		
113-8738927-9767410	15218751003066	2020-10-31T17:21:28+00:00	2020-10-31T10:21:28-07:00	2020-10-31T17:50:47+00:00	2020-11-04T07:59:59+00:00	-3	zv8yc880rhkrz4d@marketplace.amazon.com	David D Piper	+1 602-671-6610 ext. 88937	ABM025	Delivery by Wednesday | The Fell for You Bouquet by Arabella Bouquets	1	0	1	Expedited	Maggie Piper	4548 17TH AVE NE			SEATTLE	WA	98105-4204	US		Magpie - I just want you to know that I am thinking of you, that you are loved, and that you are amazing in every single way.... I love you, Dad From David D Piper	false		
113-9725809-4850647	06672904309466	2020-10-31T17:26:26+00:00	2020-10-31T10:26:26-07:00	2020-10-31T17:56:40+00:00	2020-11-04T07:59:59+00:00	-3	23vpyr7n30f1n4p@marketplace.amazon.com	Stephen Howard Knox	+1 929-436-4790 ext. 59327	ABM010	Delivery by Tuesday | The Spring Fling Bouquet by Arabella Bouquets with a Free Designer Glass Vase	1	0	1	Expedited	Arthur Spenser	2545 SW TERWILLIGER BLVD			PORTLAND	OR	97201-6302	US			false		
112-6273356-1340211	43836297907274	2020-10-31T17:53:40+00:00	2020-10-31T10:53:40-07:00	2020-10-31T18:17:50+00:00	2020-11-04T07:59:59+00:00	-3	vjlb9rmnlm7vrs1@marketplace.amazon.com	Leslie S Hobkirk	+1 929-436-4790 ext. 65447	ABM022	Delivery by Tuesday | Purple Extravagance Bouquet by Arabella Bouquets	1	0	1	Expedited	Nona O'Connell	3415 CHANDLER PKWY			BELLINGHAM	WA	98226-4141	US		Sending love and healing prayers your way. God bless - The Hobkirk Family From Leslie S Hobkirk	false		
114-1668947-5193855	20158602464138	2020-10-31T18:30:53+00:00	2020-10-31T11:30:53-07:00	2020-10-31T18:54:30+00:00	2020-11-04T07:59:59+00:00	-3	mp92nvyq6l8n6zh@marketplace.amazon.com	Tom Wellen	+1 602-671-6610 ext. 36752	ABR0022	Delivery by Tuesday | Arabella Farm Direct Bouquet of 12 Fresh Cut Pink Roses with a Free Glass Vase	1	0	1	Expedited	rita maloney	14558 N SUNSET GALLERY DR			MARANA	AZ	85658-4481	US		Rita, Karin and I want you to enjoy these roses ! Know that we are thinking about and care about you very much! From Beverly and Karin	false		
114-4042903-5249021	56824641776546	2020-10-31T18:30:55+00:00	2020-10-31T11:30:55-07:00	2020-10-31T19:00:46+00:00	2020-11-04T07:59:59+00:00	-3	w7qql5nnsrb62qb@marketplace.amazon.com	Millie	+1 415-851-9136 ext. 11867	ABR0055	Delivery by Tuesday | Arabella Farm Direct Bouquet of 12 Stems of Fresh Cut Hot Pink Roses in a Free Designer Glass Vase	1	0	1	Expedited	Patient Mary Lou Giddings	801 BAILIFF DR RM 41			DEXTER	MO	63841-9500	US			false		
111-3478577-3936261	46197181191154	2020-10-31T18:30:27+00:00	2020-10-31T11:30:27-07:00	2020-10-31T19:00:46+00:00	2020-11-04T07:59:59+00:00	-3	qcz156v0sjwr5yf@marketplace.amazon.com	Debra Viney	+1 480-618-5344 ext. 00186	ABR001	Delivery by Tuesday | Arabella Bouquets 12 Stems of Fresh Cut Red Roses in a Free Designer Glass Vase	1	0	1	Expedited	Paul VIney	6601 LANI LN			MC FARLAND	WI	53558-9131	US			false		
112-4612772-6748249	55319949173962	2020-10-31T18:46:27+00:00	2020-10-31T11:46:27-07:00	2020-10-31T19:07:25+00:00	2020-11-04T07:59:59+00:00	-3	zt9r51z5jz097jd@marketplace.amazon.com	james melnicoff	+1 602-671-6610 ext. 23253	ABM022	Delivery by Tuesday | Purple Extravagance Bouquet by Arabella Bouquets	1	0	1	Expedited	Edna and Terry Melnicoff	500 NW DOVER CT			PORT ST LUCIE	FL	34983-3420	US		Dear Edna,  Sending you love, well wishes and prayers.  Jim & Deysi From Jim and Deysi	false		
111-2276673-9757034	52976625808226	2020-10-31T19:07:42+00:00	2020-10-31T12:07:42-07:00	2020-10-31T19:08:34+00:00	2020-11-04T07:59:59+00:00	-3	3qhhs1nj6xbyplf@marketplace.amazon.com	Yasmeen	+1 602-671-6610 ext. 06739	ABM022	Delivery by Tuesday | Purple Extravagance Bouquet by Arabella Bouquets	1	0	1	Expedited	Layla Gabertai	47 CIPRESSO			IRVINE	CA	92618-0105	US		I know this is super late but better late than never. HAPPY BIRTHDAY LELO💞😘 From Yasmeen	false		
114-4774723-0013069	52438926949570	2020-10-31T19:03:52+00:00	2020-10-31T12:03:52-07:00	2020-10-31T19:32:11+00:00	2020-11-04T07:59:59+00:00	-3	d8tprc33rf4w0d0@marketplace.amazon.com	Jeremy	+1 213-442-1463 ext. 35842	ABM020	Delivery by Tuesday | The Sunset Bouquet by Arabella Bouquets	1	0	1	Expedited	Ashley Gillit	407 RIDGEWOOD AVE			COLORADO SPRINGS	CO	80906-3257	US		Ashley,  Hoping you feel better soon!  Let us know if you need anything. From The Hotsenpiller’s	false		
112-5958786-6414656	26538234372874	2020-10-31T19:11:40+00:00	2020-10-31T12:11:40-07:00	2020-10-31T19:39:32+00:00	2020-11-04T07:59:59+00:00	-3	8pg3dxtyv2jffmm@marketplace.amazon.com	Elsie Delgado	+1 602-671-6610 ext. 00827	ABM022	Delivery by Tuesday | Purple Extravagance Bouquet by Arabella Bouquets	1	0	1	Expedited	Maria Ramos	1428 FOUNTAIN GLEN DR			BEL AIR	MD	21015-5751	US		Enjoy your gift!  Happy Birthday MOM We all LOVE YOU!! Enjoy your special day. Ralph,Elsie,Junito and Melvin From Elsie Delgado	false		
111-8272785-0079448	65003804940634	2020-10-31T20:03:34+00:00	2020-10-31T13:03:34-07:00	2020-10-31T20:30:45+00:00	2020-11-04T07:59:59+00:00	-3	lc43qtwkqvgg7n5@marketplace.amazon.com	Susanna Calderone	+1 929-436-4790 ext. 32583	ABR0055	Delivery by Tuesday | Arabella Farm Direct Bouquet of 12 Stems of Fresh Cut Hot Pink Roses in a Free Designer Glass Vase	1	0	1	Expedited	Suzanh Boronkay	8 HIGHFIELD CT			LAWRENCE TOWNSHIP	NJ	08648-1077	US		Happy belated Birthday!!!  Hope it was a good one ❤️ From Paul and Susanna	false		
111-0230999-2194672	32701806580842	2020-10-31T20:19:07+00:00	2020-10-31T13:19:07-07:00	2020-10-31T20:48:04+00:00	2020-11-04T07:59:59+00:00	-3	gkjrw70q6t63vqv@marketplace.amazon.com	Karen Nest	+1 213-442-1463 ext. 32382	ABM022	Delivery by Tuesday | Purple Extravagance Bouquet by Arabella Bouquets	1	0	1	Expedited	Robert and Alice Sauer	1435 WASHINGTON ST			GRAFTON	WI	53024-9443	US		Dear Dad and Mom, Sorry for your losses. We're thinking of you and love you. Love, All of your children From All of your children	false		
113-5754836-7813046	30996983537930	2020-10-31T20:29:02+00:00	2020-10-31T13:29:02-07:00	2020-10-31T20:59:32+00:00	2020-11-04T07:59:59+00:00	-3	0pwrcjf7pdsjkpr@marketplace.amazon.com	Patricia Kathryn Beachy	+1 213-442-1463 ext. 69964	ABR001	Delivery by Tuesday | Arabella Bouquets 12 Stems of Fresh Cut Red Roses in a Free Designer Glass Vase	1	0	1	Expedited	PAT BEACHY	8107 MILLER FALLS DR			ROUND ROCK	TX	78681-3565	US			false		
114-4067215-3610630	49621137079034	2020-10-31T20:25:35+00:00	2020-10-31T13:25:35-07:00	2020-10-31T21:01:15+00:00	2020-11-04T07:59:59+00:00	-3	hck1n329pp67kg0@marketplace.amazon.com	lee bennett	+1 213-442-1463 ext. 47375	ABR0022	Delivery by Tuesday | Arabella Farm Direct Bouquet of 12 Fresh Cut Pink Roses with a Free Glass Vase	1	0	1	Expedited	kerryann jones	1009 BRAZIL NUT WAY DOVER			DOVER	DE	19901-7944	US		Happy birthday babes From lee bennett	false		
112-5087933-6031423	55977705272786	2020-10-31T20:39:42+00:00	2020-10-31T13:39:42-07:00	2020-10-31T21:02:12+00:00	2020-11-04T07:59:59+00:00	-3	s8mm8gkwwrjhtb2@marketplace.amazon.com	carol kolls	+1 929-436-4790 ext. 78929	ABM023	Delivery by Wednesday | The Morning Sun Bouquet by Arabella Bouquets	1	0	1	Expedited	Sharon Hermes	2167 LANCASTER CIR			NAPERVILLE	IL	60565-2082	US		I cannot express my thanks for everything you’ve done for me this year.  Thank you from the bottom of my heart. From carol	false		
113-9358877-3592208	29845396364890	2020-10-31T21:08:15+00:00	2020-10-31T14:08:15-07:00	2020-10-31T21:36:17+00:00	2020-11-04T07:59:59+00:00	-3	5z51d1ksrfd8115@marketplace.amazon.com	Vassilis	+1 480-618-5344 ext. 94801	ABM017	Delivery by Wednesday | Arabella Bouquets 10 Stems of Blue Dendrobium Orchids in a Free Designer Glass Vase	1	0	1	Expedited	Maria A. Solis	6348 BRIGHTON ST			DOWNERS GROVE	IL	60516-2478	US		Happy birthday Alex! Thank you for being such a good mother to the girls 😊😊 From Vassilis	false		
113-1888907-8797033	11768748534594	2020-10-31T21:25:54+00:00	2020-10-31T14:25:54-07:00	2020-10-31T21:54:30+00:00	2020-11-04T07:59:59+00:00	-3	jmt18r8clvx3n8c@marketplace.amazon.com	Jeff M Swinehart	+1 213-442-1463 ext. 70760	ABM010	Delivery by Tuesday | The Spring Fling Bouquet by Arabella Bouquets with a Free Designer Glass Vase	1	0	1	Expedited	Joan McClimon	7168 S POPLAR LN			CENTENNIAL	CO	80112-1635	US		Hi mom, Happy birthday!  Enjoy the flowers. Love, Jeff	false		
113-7380219-8436233	00256000622522	2020-10-31T21:33:38+00:00	2020-10-31T14:33:38-07:00	2020-10-31T21:54:50+00:00	2020-11-04T07:59:59+00:00	-3	n5qc99vm9gvp75n@marketplace.amazon.com	Danee J Miller	+1 480-618-5344 ext. 51509	ABR0022	Delivery by Tuesday | Arabella Farm Direct Bouquet of 12 Fresh Cut Pink Roses with a Free Glass Vase	1	0	1	Expedited	Sumner Lagow	1226 CONSTITUTION DR			LOUISVILLE	KY	40214-4135	US		We love you and Remy so much, congratulations! 💗💗💗  Love, her BKPSWE Aunties, Danée, Telessa, Alex, Beth, Jennifer, Yai, Jonté, and Jill From Danee J Miller	false		
111-9869696-8531428	56360861302434	2020-10-31T21:30:06+00:00	2020-10-31T14:30:06-07:00	2020-10-31T21:57:32+00:00	2020-11-04T07:59:59+00:00	-3	dhhhvhxm1b5c8fj@marketplace.amazon.com	Xuxiang	+1 480-618-5344 ext. 41771	ABR0033	Delivery by Tuesday | Arabella Farm Direct Bouquet of 12 Fresh Cut Orange Roses with a Free Glass Vase	1	0	1	Expedited	Xinhui Kou	2903 SW 13TH ST APT 17			GAINESVILLE	FL	32608-3034	US		Dear Baobao, Hang in there! A cat is waiting for you! Love, your Da Baobao From Xuxiang	false		
112-4987535-0378668	21986751622906	2020-10-31T22:06:03+00:00	2020-10-31T15:06:03-07:00	2020-10-31T22:34:46+00:00	2020-11-04T07:59:59+00:00	-3	20v9m7s8t01lsqs@marketplace.amazon.com	Heidi Desormeaux	+1 213-442-1463 ext. 06081	ABM024	Delivery by Wednesday | The Beauty of Color Bouquet by Arabella Bouquets	1	0	1	Expedited	Cliff and Judy Desormeaux	20337 S LIBBY RD			PICKFORD	MI	49774-9228	US		Happy birthday have a great day! From Craig & Heidi	false		
112-6718570-1889004	21887042575362	2020-10-31T22:12:12+00:00	2020-10-31T15:12:12-07:00	2020-10-31T22:41:07+00:00	2020-11-04T07:59:59+00:00	-3	jf8ptzd46s6pr0g@marketplace.amazon.com	shannon chamberlain	+1 602-671-6610 ext. 48088	ABM026	Delivery by Wednesday | The Amour Bouquet by Arabella Bouquets	1	0	1	Expedited	Robert Helmer	21003 N 142ND AVE			SUN CITY WEST	AZ	85375-5545	US		Hope you feel better soon!!! We LOVE and Miss you. From shannon chamberlain	false		
113-6385424-8682600	46968813751922	2020-10-31T22:48:54+00:00	2020-10-31T15:48:54-07:00	2020-10-31T23:16:08+00:00	2020-11-04T07:59:59+00:00	-3	jvnsy4q71hpvl2z@marketplace.amazon.com	Ronald B Goldberg	+1 602-671-6610 ext. 38235	ABR0022	Delivery by Tuesday | Arabella Farm Direct Bouquet of 12 Fresh Cut Pink Roses with a Free Glass Vase	1	0	1	Expedited	Catherine Stirn	538 S CANDLER ST			DECATUR	GA	30030-3750	US		Happy Birthday Sweetheart. We wish we could be there. Kisses Galore! From Mama and Ron	false		
112-3786001-5620207	27719995505058	2020-10-31T22:52:45+00:00	2020-10-31T15:52:45-07:00	2020-10-31T23:21:33+00:00	2020-11-04T07:59:59+00:00	-3	95dhyvy4dqlg0bp@marketplace.amazon.com	Robert Sumsky	+1 213-442-1463 ext. 21185	ABR0022	Delivery by Tuesday | Arabella Farm Direct Bouquet of 12 Fresh Cut Pink Roses with a Free Glass Vase	1	0	1	Expedited	JoAnne Clements	15051 W PINCHOT AVE			GOODYEAR	AZ	85395-8671	US		Thanks for your help JoAnne! Best, Robert From Robert Sumsky	false		
111-4813472-4965803	50672321424690	2020-10-31T23:12:11+00:00	2020-10-31T16:12:11-07:00	2020-10-31T23:42:07+00:00	2020-11-04T07:59:59+00:00	-3	b9n3428z4d4rhtw@marketplace.amazon.com	Sabeen T.  Amin	+1 619-854-2705 ext. 35498	ABR014	Arabella Bouquets 18 Stems of Fresh Cut White Roses in a Free Designer Glass Vase	1	0	1	Standard	Ghina Noor	1970 VETERANS HWY APT M4			LEVITTOWN	PA	19056-2505	US			false		
113-2323371-7794620	14034849551650	2020-10-31T23:22:33+00:00	2020-10-31T16:22:33-07:00	2020-10-31T23:42:13+00:00	2020-11-04T07:59:59+00:00	-3	tv2mrzcx2q00zjr@marketplace.amazon.com	Kristen P Boydston	+1 415-851-9136 ext. 24114	ABM022	Delivery by Tuesday | Purple Extravagance Bouquet by Arabella Bouquets	1	0	1	Expedited	Susan and Bob Burroughs	6601 W SUMAC AVE			LITTLETON	CO	80123-0814	US		From the Maryland Boydstons,  We missed everyone at the Halloween get together. Bob & Susan, we are wrapping you in love and hugs from afar.  Love, Jeremy and Kristen From Kristen P Boydston	false		
114-6583076-3871424	68525131152634	2020-10-31T23:24:18+00:00	2020-10-31T16:24:18-07:00	2020-10-31T23:54:37+00:00	2020-11-04T07:59:59+00:00	-3	gc2q9y2mmmf21s7@marketplace.amazon.com	Collins Dobbs	+1 619-854-2705 ext. 83299	ABR001	Delivery by Tuesday | Arabella Bouquets 12 Stems of Fresh Cut Red Roses in a Free Designer Glass Vase	1	0	1	Expedited	Arlene Dobbs	4712 SYLVAN AVE			PITTSBURGH	PA	15207-1549	US			false		
113-2307406-3109058	56812846327866	2020-10-31T23:33:16+00:00	2020-10-31T16:33:16-07:00	2020-11-01T00:03:57+00:00	2020-11-04T07:59:59+00:00	-3	pdz8b1sxzmzgbfd@marketplace.amazon.com	Pooja Gurnani	+1 602-671-6610 ext. 86699	ABR0055	Delivery by Tuesday | Arabella Farm Direct Bouquet of 12 Stems of Fresh Cut Hot Pink Roses in a Free Designer Glass Vase	1	0	1	Expedited	Pooja Gurnani	90 KYLE DR			TINTON FALLS	NJ	07712-7536	US			false		
111-2400876-8339408	21050614729290	2020-11-01T00:08:35+00:00	2020-10-31T17:08:35-07:00	2020-11-01T00:23:05+00:00	2020-11-04T07:59:59+00:00	-3	86p94gmfjldf7gd@marketplace.amazon.com	Becky	+1 602-671-6610 ext. 19029	ABM020	Delivery by Tuesday | The Sunset Bouquet by Arabella Bouquets	1	0	1	Expedited	Colleen Todd	620 BRIAR HILL DR			GARDEN CITY	KS	67846-3308	US		Dear Colleen, Just a little something to show you how much I appreciate your friendship and all you have done for me. Thank you for being you! I feel so very blessed to have you in my life. Love you so much! From Becky Hommerding	false		
111-2896522-3581852	56519791744626	2020-11-01T00:08:02+00:00	2020-10-31T17:08:02-07:00	2020-11-01T00:33:17+00:00	2020-11-04T07:59:59+00:00	-3	nd98hl62q4vkty1@marketplace.amazon.com	linda koolish	+1 213-442-1463 ext. 87790	ABR0055	Delivery by Tuesday | Arabella Farm Direct Bouquet of 12 Stems of Fresh Cut Hot Pink Roses in a Free Designer Glass Vase	1	0	1	Expedited	Linda Lasson	126 WASHINGTON CIR			LAKE FOREST	IL	60045-2456	US		Linda, I hope that these flowers bring you sunshine and that you are healing and getting stronger with each day. Linda Koolish From linda koolish	false		
114-7307493-7654640	53755843863130	2020-11-01T00:50:48+00:00	2020-10-31T17:50:48-07:00	2020-11-01T01:02:17+00:00	2020-11-04T07:59:59+00:00	-3	q8ljt72g64zt8ky@marketplace.amazon.com	Ralph L Seeberger	+1 602-671-6610 ext. 17273	ABM022	Delivery by Tuesday | Purple Extravagance Bouquet by Arabella Bouquets	1	0	1	Expedited	RALPH L SEEBERGER	418 GRAND VISTA TRL			LEESBURG	FL	34748-8189	US			false		
114-6588913-7991444	25375182376738	2020-11-01T00:38:57+00:00	2020-10-31T17:38:57-07:00	2020-11-01T01:07:35+00:00	2020-11-04T07:59:59+00:00	-3	rnsxjpkgp2c9dn2@marketplace.amazon.com	Robert Doyle	+1 213-442-1463 ext. 62036	ABR0022	Delivery by Tuesday | Arabella Farm Direct Bouquet of 12 Fresh Cut Pink Roses with a Free Glass Vase	1	0	1	Expedited	Jill Alderman	19464 BAINBRIDGE AVE			LIVONIA	MI	48152-1787	US		So sorry for your loss. Hope this brightens your day! From All the Doyle	false		
113-9030703-8317841	22761718727658	2020-11-01T01:08:34+00:00	2020-10-31T18:08:34-07:00	2020-11-01T01:35:04+00:00	2020-11-04T07:59:59+00:00	-3	vwmy42g62grt1p0@marketplace.amazon.com	Mary	+1 213-442-1463 ext. 00159	ABM022	Delivery by Tuesday | Purple Extravagance Bouquet by Arabella Bouquets	1	0	1	Expedited	Joy D. Bishop	151 Center Street			Avoca	IN	47420	US		Hope you'll enjoy these, and get feeling better soon. From Stephanie and Bill	false		
113-9595609-6001045	29333399197730	2020-11-01T01:40:06+00:00	2020-10-31T18:40:06-07:00	2020-11-01T02:07:54+00:00	2020-11-04T07:59:59+00:00	-3	mssb44vqfhrkn86@marketplace.amazon.com	Frank Melo	+1 929-436-4790 ext. 72022	ABM020	Delivery by Tuesday | The Sunset Bouquet by Arabella Bouquets	1	0	1	Expedited	Frank Melo	1106 Avenida Los Suenos			Bernalillo	New Mexico	87004	US		Happy Birthday to my honey...Love you always and forever! Your Honey From Frank Melo	false		
112-4318959-9957062	41017212441410	2020-11-01T01:54:04+00:00	2020-10-31T18:54:04-07:00	2020-11-01T02:22:26+00:00	2020-11-04T07:59:59+00:00	-3	y4kcmdtvgfx1dg9@marketplace.amazon.com	Margaret Marquis	+1 929-436-4790 ext. 97628	ABM021	Delivery by Wednesday | The Joyous Bouquet by Arabella Bouquets	1	0	1	Expedited	John Lusk	20069 N. London Bridge Dr.			Surprise	AZ	85387	US			false		
113-0325157-3343403	31012079977786	2020-11-01T02:37:13+00:00	2020-10-31T19:37:13-07:00	2020-11-01T03:07:22+00:00	2020-11-04T07:59:59+00:00	-3	k6vzsn9l1v3xrl6@marketplace.amazon.com	Tim Ayers	+1 213-442-1463 ext. 43344	ABR0022	Delivery by Tuesday | Arabella Farm Direct Bouquet of 12 Fresh Cut Pink Roses with a Free Glass Vase	1	0	1	Expedited	Carol Oberman	3632 235TH AVE TRLR 69			KEOKUK	IA	52632-9772	US			false		
111-1319538-0660213	50662785826066	2020-11-01T03:21:24+00:00	2020-10-31T20:21:24-07:00	2020-11-01T03:49:46+00:00	2020-11-04T07:59:59+00:00	-3	ypncs48xd46tk08@marketplace.amazon.com	Juan Escriu	+1 480-618-5344 ext. 11750	ABM022	Delivery by Tuesday | Purple Extravagance Bouquet by Arabella Bouquets	1	0	1	Expedited	Pamela Faust	24031 FAIRLANE BLVD			WOODHAVEN	MI	48183-1692	US		We love you so much and are sorry you won’t be able to come next week. Praying for you!! From Andrew, Stephanie and Thomas	false		
114-9603587-7386624	07075366092882	2020-11-01T03:44:42+00:00	2020-10-31T20:44:42-07:00	2020-11-01T04:14:55+00:00	2020-11-04T07:59:59+00:00	-3	168t9gybz1brj2b@marketplace.amazon.com	Matt Foley	+1 602-671-6610 ext. 30087	ABR012	Delivery by Wednesday | Arabella Farm Direct Bouquet of 18 Fresh Cut Pink Roses with a Free Glass Vase	1	0	1	Expedited	Lynne Terranova	133 W PALATINE RD UNIT 212			PALATINE	IL	60067-5151	US			false		
112-2406801-1261816	34018114499138	2020-11-01T03:59:49+00:00	2020-10-31T20:59:49-07:00	2020-11-01T04:28:52+00:00	2020-11-04T07:59:59+00:00	-3	hw29048s3gx7t5j@marketplace.amazon.com	Denice M Heimbuch	+1 480-618-5344 ext. 02045	ABM020	Delivery by Tuesday | The Sunset Bouquet by Arabella Bouquets	1	0	1	Expedited	Debra Carlin	554 BANKS MILL RD SE			AIKEN	SC	29801-5110	US			false		
114-0087175-5336228	62839869287242	2020-11-01T04:21:04+00:00	2020-10-31T21:21:04-07:00	2020-11-01T04:48:57+00:00	2020-11-04T07:59:59+00:00	-3	gqlcfymddwl3r2h@marketplace.amazon.com	Michelle Rowe	+1 602-671-6610 ext. 58122	ABM028	Delivery by Wednesday | The Brightened Day Bouquet by Arabella Bouquets	1	0	1	Expedited	Stacey Bonar	4417 N 24TH PL			PHOENIX	AZ	85016-4971	US		Stacey - We hope this brightens your day! - Tony & Michelle From Michelle Rowe	false		
113-7784888-7229846	51380759980778	2020-11-01T04:32:39+00:00	2020-10-31T21:32:39-07:00	2020-11-01T05:00:41+00:00	2020-11-04T07:59:59+00:00	-3	p3sbf0jbhl2zy5s@marketplace.amazon.com	guillermina carmona	+1 619-854-2705 ext. 39193	ABR001	Delivery by Tuesday | Arabella Bouquets 12 Stems of Fresh Cut Red Roses in a Free Designer Glass Vase	1	0	1	Expedited	Carlota Guel	1043 MCKINLEY AVE			SAN ANTONIO	TX	78210-4230	US		Feliz cumpleaños !!! From guille,Iza y Jazzmin	false		
112-6776921-3349030	15018130265546	2020-11-01T04:38:07+00:00	2020-10-31T21:38:07-07:00	2020-11-01T05:00:51+00:00	2020-11-04T07:59:59+00:00	-3	hp6rvctz67ry9fj@marketplace.amazon.com	Aberlyn Yap	+1 602-671-6610 ext. 51328	ABR0022	Delivery by Tuesday | Arabella Farm Direct Bouquet of 12 Fresh Cut Pink Roses with a Free Glass Vase	1	0	1	Expedited	Jiang Ke Qing	171 DELTA RD			BUFFALO	NY	14226-2043	US		18shui songni huahua xiwang nixihuan <3 Yuebian yuemei danshi biezai zhanggao la From Nide zuiai baobei xp	false		
113-5683246-6181016	31689788209810	2020-11-01T04:48:25+00:00	2020-10-31T21:48:25-07:00	2020-11-01T05:14:30+00:00	2020-11-04T07:59:59+00:00	-3	nx75m7vhlh73nd7@marketplace.amazon.com	jill smith	013463080941	ABM022	Delivery by Tuesday | Purple Extravagance Bouquet by Arabella Bouquets	1	0	1	Expedited	Hannah stuchlik	6301 SCHULER ST			HOUSTON	TX	77007-2041	US		Congratulations! Pink and blue flowers because - who knows! All our love From Mum and Dad,  Future Durham grandparents. Xxxx	false		
111-6067105-9564221	22579375333330	2020-11-01T05:00:59+00:00	2020-10-31T22:00:59-07:00	2020-11-01T05:27:48+00:00	2020-11-04T07:59:59+00:00	-3	hk0yd2nj3n1kf1f@marketplace.amazon.com	Susan Burgoyne	+1 480-618-5344 ext. 37003	ABR0055	Delivery by Tuesday | Arabella Farm Direct Bouquet of 12 Stems of Fresh Cut Hot Pink Roses in a Free Designer Glass Vase	1	0	1	Expedited	Tanis Goltra	9432 KEOKI CIR			HUNTINGTON BEACH	CA	92646-7945	US		Mom and Dad,  Happy 50th Anniversary!  We love so very much!  Thank you for having such a beautiful marriage. From Susie and Tori	false		
113-7604186-1937005	16503733649698	2020-11-01T05:17:22+00:00	2020-10-31T22:17:22-07:00	2020-11-01T05:46:37+00:00	2020-11-04T07:59:59+00:00	-3	jymcr7hj8l9g146@marketplace.amazon.com	M. C.  McCutcheon	+1 213-442-1463 ext. 06973	ABM017	Delivery by Wednesday | Arabella Bouquets 10 Stems of Blue Dendrobium Orchids in a Free Designer Glass Vase	1	0	1	Expedited	Wilma Taylor	39194 MOUNTAIN SKY CIR			TEMECULA	CA	92591-7442	US			false		
114-8663763-0612257	03915206486682	2020-11-01T05:28:31+00:00	2020-10-31T22:28:31-07:00	2020-11-01T05:49:45+00:00	2020-11-04T07:59:59+00:00	-3	4tk7mzx4rzsw49x@marketplace.amazon.com	Mildred Cababaan	+1 415-851-9136 ext. 81489	ABR0022	Delivery by Tuesday | Arabella Farm Direct Bouquet of 12 Fresh Cut Pink Roses with a Free Glass Vase	1	0	1	Expedited	Virginia Martin	19042 HOMESTEAD LN			HUNTINGTON BEACH	CA	92646-2219	US		HAPPY BIRTHDAY, VIRGIE  A little bit late, but I hope you had a good one. From Mildred Cababaan	false		
112-8296568-1924215	55408879478314	2020-11-01T05:27:35+00:00	2020-10-31T22:27:35-07:00	2020-11-01T05:56:26+00:00	2020-11-04T07:59:59+00:00	-3	hphmhj2r7y8vqtf@marketplace.amazon.com	Sandra Reyes	+1 480-618-5344 ext. 36647	ABM0033	Delivery by Wednesday | Arabella Farm Direct Bouquet of Fresh Cut White Hydrangea with a Free Glass Vase	1	0	1	Expedited	Sandra Reyes	14555 BLANCO RD APT 1703			SAN ANTONIO	TX	78216-7776	US			false		
111-8498121-7992208	60932403579106	2020-11-01T05:47:31+00:00	2020-10-31T22:47:31-07:00	2020-11-01T06:15:59+00:00	2020-11-04T07:59:59+00:00	-3	403ck9xxczn05pt@marketplace.amazon.com	Kimberlyn	+1 619-854-2705 ext. 79593	ABM010	Delivery by Tuesday | The Spring Fling Bouquet by Arabella Bouquets with a Free Designer Glass Vase	1	0	1	Expedited	Essie Queen Monocure	245 DEASON DR			JACKSON	MS	39209-3644	US		Enjoy your gift! - Blessings From Kimberlyn	false		
114-6481586-2061818	00878675272226	2020-11-01T06:51:02+00:00	2020-10-31T23:51:02-07:00	2020-11-01T07:16:12+00:00	2020-11-04T07:59:59+00:00	-3	sxl3lf7513ltlh6@marketplace.amazon.com	Carlos	+1 415-851-9136 ext. 58743	ABR013	Delivery by Wednesday | Arabella Farm Direct Bouquet of 18 Fresh Cut Yellow Roses with a Free Glass Vase	1	0	1	Expedited	Ginger Lewis	6813 FAIRWAY DR E			FAYETTEVILLE	PA	17222-9401	US		Happy Birthday Mama! We love you and hope you have a great day. From Beth, Carlos, Clarence & Alabama	false		
113-6282437-9293022	68566240011658	2020-11-01T07:56:23+00:00	2020-11-01T00:56:23-07:00	2020-11-01T08:21:43+00:00	2020-11-04T07:59:59+00:00	-3	2v2h6s87lhhmdjy@marketplace.amazon.com	Beckie Burnham	+1 480-618-5344 ext. 84928	ABM010	Delivery by Tuesday | The Spring Fling Bouquet by Arabella Bouquets with a Free Designer Glass Vase	1	0	1	Expedited	Jenni Ostvig	614 PANORAMA DR			MOSCOW	ID	83843-9645	US		Jenni,       Hang in there, little sis.  I love you so much! From Beckie Burnham	false		
114-1086046-3251457	52029865033882	2020-11-01T08:27:22+00:00	2020-11-01T01:27:22-07:00	2020-11-01T08:57:15+00:00	2020-11-04T07:59:59+00:00	-3	dy06ppwyn8sw380@marketplace.amazon.com	Tshun Basden	+1 213-442-1463 ext. 18996	ABR0022	Delivery by Tuesday | Arabella Farm Direct Bouquet of 12 Fresh Cut Pink Roses with a Free Glass Vase	1	0	1	Expedited	Roxanne	5062 DEER CREEK PL			INDIANAPOLIS	IN	46254-3730	US			false		
114-7782385-1271415	17838684731658	2020-11-01T08:38:33+00:00	2020-11-01T01:38:33-07:00	2020-11-01T09:06:26+00:00	2020-11-04T07:59:59+00:00	-3	gsgyk93cpmxljx2@marketplace.amazon.com	Alexander Merkushev	+1 929-436-4790 ext. 85400	ABM022	Delivery by Tuesday | Purple Extravagance Bouquet by Arabella Bouquets	1	0	1	Expedited	Daria Merkusheva	15710 RIVERSIDE DR W APT 15Q			NEW YORK	NY	10032-7049	US		Happy birthday, Dashechka! Best wishes from Sveta and Laima! From Alexander Merkushev	false		
112-8666511-2836237	56014005068426	2020-11-01T09:23:27+00:00	2020-11-01T01:23:27-08:00	2020-11-01T09:53:11+00:00	2020-11-04T07:59:59+00:00	-3	l02nd37rlqv39g8@marketplace.amazon.com	Ian Maynard	+1 415-851-9136 ext. 19123	ABR0022	Delivery by Tuesday | Arabella Farm Direct Bouquet of 12 Fresh Cut Pink Roses with a Free Glass Vase	1	0	1	Expedited	Ian J Maynard	216 LAKEWOOD DR			HOUMA	LA	70360-2516	US			false		
112-5522657-0563447	69254905481010	2020-11-01T11:59:23+00:00	2020-11-01T03:59:23-08:00	2020-11-01T12:29:10+00:00	2020-11-04T07:59:59+00:00	-3	08gk3tpmyxqn7k4@marketplace.amazon.com	susan markel	+1 213-442-1463 ext. 61251	ABM0033	Delivery by Wednesday | Arabella Farm Direct Bouquet of Fresh Cut White Hydrangea with a Free Glass Vase	1	0	1	Expedited	Allison Boone	3421 OVERTON RD			MOUNTAIN BRK	ALABAMA	35223-2123	US		Happy Birthday!  I love you!! From Susan	false		
112-3753233-1625862	58317428251338	2020-11-01T12:05:49+00:00	2020-11-01T04:05:49-08:00	2020-11-01T12:42:12+00:00	2020-11-04T07:59:59+00:00	-3	cs42swt4n1l5t62@marketplace.amazon.com	Sherrie Page	+1 213-442-1463 ext. 74244	ABM020	Delivery by Tuesday | The Sunset Bouquet by Arabella Bouquets	1	0	1	Expedited	Rev. Dorothy White	4520 GROVE AVE UNIT 8			RICHMOND	VA	23221-1843	US		Dear Dorothy, Thank you for sharing your uplifting words with us. We needed to hear them-- balm for the soul! Lots of love, Your Saint Catherine's Family From Sherrie Page	false		
112-7172410-5714602	03662432759690	2020-11-01T13:17:31+00:00	2020-11-01T05:17:31-08:00	2020-11-01T13:43:17+00:00	2020-11-04T07:59:59+00:00	-3	splczm0dnn6qbjl@marketplace.amazon.com	Jose Tantao	+1 480-618-5344 ext. 68668	ABM020	Delivery by Tuesday | The Sunset Bouquet by Arabella Bouquets	1	0	1	Expedited	Idalisse Rivera	425 WOOD PARK WAY APT 103			WEKIVA SPRINGS	FL	32779-6078	US		Felicidades pelota de mi alma! From Jose Tantao	false		
111-1046255-6977843	15334888048154	2020-11-01T13:22:49+00:00	2020-11-01T05:22:49-08:00	2020-11-01T13:48:05+00:00	2020-11-04T07:59:59+00:00	-3	pb5q772mkr8h1sh@marketplace.amazon.com	Tillie Furstein	+1 602-671-6610 ext. 89471	ABR0022	Delivery by Tuesday | Arabella Farm Direct Bouquet of 12 Fresh Cut Pink Roses with a Free Glass Vase	1	0	1	Expedited	tara kendell	80 DOVER GRN			STATEN ISLAND	NY	10312-1706	US		Enjoy your gift! From Tillie	false		
111-5804639-5901056	14085028547898	2020-11-01T13:32:20+00:00	2020-11-01T05:32:20-08:00	2020-11-01T14:02:41+00:00	2020-11-04T07:59:59+00:00	-3	b6n7k03y4dz8p4r@marketplace.amazon.com	Russell Crow	+1 619-854-2705 ext. 83727	ABR0022	Delivery by Tuesday | Arabella Farm Direct Bouquet of 12 Fresh Cut Pink Roses with a Free Glass Vase	1	0	1	Expedited	Kathy Williams	7 LILAC LN			PORTSMOUTH	RI	02871-2262	US			false		
113-8192942-4342601	13230886861362	2020-11-01T13:37:16+00:00	2020-11-01T05:37:16-08:00	2020-11-01T14:05:45+00:00	2020-11-04T07:59:59+00:00	-3	xwsbhhppzvg6kcj@marketplace.amazon.com	Rebecca	+1 602-671-6610 ext. 59137	ABM022	Delivery by Tuesday | Purple Extravagance Bouquet by Arabella Bouquets	1	0	1	Expedited	Mark Villanueva	2831 WHISPER VIEW ST			SAN ANTONIO	TX	78230-3741	US		To the Villanueva family: We are so sorry for your loss and our thoughts and prayers are with you. From The Thibodeaux’s	false		
113-1416935-4911462	67442529942482	2020-11-01T13:44:25+00:00	2020-11-01T05:44:25-08:00	2020-11-01T14:10:18+00:00	2020-11-04T07:59:59+00:00	-3	qzrtln38cswwpkf@marketplace.amazon.com	Deborah Dougherty	+1 619-854-2705 ext. 06162	ABR0055	Delivery by Tuesday | Arabella Farm Direct Bouquet of 12 Stems of Fresh Cut Hot Pink Roses in a Free Designer Glass Vase	1	0	1	Expedited	Katelynn Halloran	53 DEERING ST			AGAWAM	MA	01001-2807	US		Happy Birthday beautiful niece!  Hope these flowers brighten your special day! Love, Chuck, Auntie Debbie, Adam and Grandma	false		
111-1762455-9419456	01256295647466	2020-11-01T13:45:58+00:00	2020-11-01T05:45:58-08:00	2020-11-01T14:15:49+00:00	2020-11-04T07:59:59+00:00	-3	jjywmwlb05v2kjd@marketplace.amazon.com	susanne snedeker	+1 213-442-1463 ext. 95850	ABR0033	Delivery by Tuesday | Arabella Farm Direct Bouquet of 12 Fresh Cut Orange Roses with a Free Glass Vase	1	0	1	Expedited	Lisa Wiedmeyer	276 SIXTH AVE			WEST CAPE MAY	NJ	08204-1131	US			false		
