order-id	order-item-id	purchase-date	payments-date	reporting-date	promise-date	days-past-promise	buyer-email	buyer-name	buyer-phone-number	sku	product-name	quantity-purchased	quantity-shipped	quantity-to-ship	ship-service-level	recipient-name	ship-address-1	ship-address-2	ship-address-3	ship-city	ship-state	ship-postal-code	ship-country	gift-wrap-type	gift-message-text	is-business-order	purchase-order-number	price-designation
113-4743100-2108213	32002008170450	2020-10-29T23:36:31+00:00	2020-10-29T16:36:31-07:00	2020-10-30T00:06:57+00:00	2020-11-03T07:59:59+00:00	-1	czg24lcsgb1qlq5@marketplace.amazon.com	Robert M. Sproul	+1 415-851-9136 ext. 15587	ABM017	Delivery by Monday | Arabella Bouquets 10 Stems of Blue Dendrobium Orchids in a Free Designer Glass Vase	1	0	1	Standard	Robert Sproul	1800 FORT PULASKI CT			DUMFRIES	VA	22026-2506	US			false		
113-0406991-5752229	35924458931866	2020-10-30T01:50:33+00:00	2020-10-29T18:50:33-07:00	2020-10-30T02:20:40+00:00	2020-11-03T07:59:59+00:00	-1	0kvr1jzw662m2th@marketplace.amazon.com	Liz Kuhns	+1 602-671-6610 ext. 03231	ABM017	Delivery by Monday | Arabella Bouquets 10 Stems of Blue Dendrobium Orchids in a Free Designer Glass Vase	1	0	1	Standard	jane kuhns	12615 WHITHORN CT			PLYMOUTH	MI	48170-6912	US			false		
112-0093765-8631429	08607212955802	2020-10-30T15:46:38+00:00	2020-10-30T08:46:38-07:00	2020-10-30T16:10:06+00:00	2020-11-04T07:59:59+00:00	-2	8h5mx3swh52r87h@marketplace.amazon.com	Estella Munoz	+1 602-671-6610 ext. 38850	ABM017	Delivery by Monday | Arabella Bouquets 10 Stems of Blue Dendrobium Orchids in a Free Designer Glass Vase	1	0	1	Standard	Josie Vasquez	237 JENSEN AVE			EL PASO	TX	79915-3807	US		Enjoy your gift! From Estella Munoz	false		
113-8767409-5623457	18875362879402	2020-10-30T18:10:04+00:00	2020-10-30T11:10:04-07:00	2020-10-30T18:32:17+00:00	2020-11-04T07:59:59+00:00	-2	dgmxz1vyrs2n577@marketplace.amazon.com	Storm Wojcik	+1 929-436-4790 ext. 36659	ABM010	Delivery by Tuesday | The Spring Fling Bouquet by Arabella Bouquets with a Free Designer Glass Vase	1	0	1	Expedited	alexa Wojcik	1245 WIMBELDON BLVD			COLUMBUS	OH	43228-9329	US			false		
113-7537306-1511465	59536292448882	2020-10-30T18:18:29+00:00	2020-10-30T11:18:29-07:00	2020-10-30T18:41:23+00:00	2020-11-04T07:59:59+00:00	-2	dgmxz1vyrs2n577@marketplace.amazon.com	Storm Wojcik	+1 213-442-1463 ext. 32808	ABM010	Delivery by Tuesday | The Spring Fling Bouquet by Arabella Bouquets with a Free Designer Glass Vase	1	0	1	Expedited	Kathryn Harrison	6108 WATERFIELD WAY			SAINT CLOUD	FL	34771-8845	US		Happy (late) Birthday! From Captain of the SS Butthead	false		
114-9791613-4295461	49032634240346	2020-10-30T18:24:34+00:00	2020-10-30T11:24:34-07:00	2020-10-30T18:47:43+00:00	2020-11-04T07:59:59+00:00	-2	z4r7zm5nv2vp5lt@marketplace.amazon.com	Oluwatoyin Ogunmuyiwa	+1 929-436-4790 ext. 31796	ABR0055	Arabella Farm Direct Bouquet of 12 Stems of Fresh Cut Hot Pink Roses in a Free Designer Glass Vase	1	0	1	Expedited	Victoria Olanrewaju	5925 N 10TH ST			PHILADELPHIA	PA	19141-3711	US		You may hold my hand for a while, but you hold my heart forever 💕 From Are You There?	false		
113-8202854-4360211	51750717121002	2020-10-30T18:19:33+00:00	2020-10-30T11:19:33-07:00	2020-10-30T18:48:38+00:00	2020-11-04T07:59:59+00:00	-2	nsbhwfnkzrkn9j9@marketplace.amazon.com	Ruffina F. Anklesaria	+1 602-671-6610 ext. 37796	ABR004	Delivery by Tuesday | Arabella Farm Direct Bouquet of 12 Fresh Cut Yellow Roses with a Free Glass Vase	1	0	1	Expedited	Janet Fatoke	1049 RESERVE WAY			INDIANAPOLIS	IN	46220-1884	US		Beloved Devi, Sending you a little sunshine with a lot of love, Ruffina From Ruffina F. Anklesaria	false		
111-2588886-6920258	21744673468330	2020-10-30T18:55:59+00:00	2020-10-30T11:55:59-07:00	2020-10-30T19:24:34+00:00	2020-11-04T07:59:59+00:00	-2	n3d7t10mbf88twh@marketplace.amazon.com	Amy	+1 480-618-5344 ext. 13279	ABM017	Delivery by Wednesday | Arabella Bouquets 10 Stems of Blue Dendrobium Orchids in a Free Designer Glass Vase	1	0	1	Expedited	Suk Friedhaber	13324 WARNER HILL RD			SOUTH WALES	NY	14139-9745	US		Hugs from Colorado. We love you Grandma! From Jacob & Lilana	false		
114-9276067-6731465	22375030715370	2020-10-30T19:24:17+00:00	2020-10-30T12:24:17-07:00	2020-10-30T19:52:36+00:00	2020-11-04T07:59:59+00:00	-2	t1t10gx371vzdd5@marketplace.amazon.com	Jeanette Patterson	+1 619-854-2705 ext. 20367	ABM010	Delivery by Tuesday | The Spring Fling Bouquet by Arabella Bouquets with a Free Designer Glass Vase	1	0	1	Expedited	Cheryl Covington,  Agent	345 CYPRESS ST			FORT BRAGG	CA	95437-5407	US			false		
113-9491444-3392214	42095160869362	2020-10-30T20:08:04+00:00	2020-10-30T13:08:04-07:00	2020-10-30T20:37:19+00:00	2020-11-04T07:59:59+00:00	-2	v9vynf65ycg7lv1@marketplace.amazon.com	Kathy SIms Melton	+1 929-436-4790 ext. 49921	ABR0022	Delivery by Tuesday | Arabella Farm Direct Bouquet of 12 Fresh Cut Pink Roses with a Free Glass Vase	1	0	1	Expedited	Nora Fyffe	984 11TH ST			PASADENA	MD	21122-1791	US		Thinking of you my friend. I am always here ❤️ From Kathy SIms Melton	false		
113-6118333-0189843	56546004781290	2020-10-27T18:25:00+00:00	2020-10-27T11:25:00-07:00	2020-10-30T20:46:16+00:00	2020-11-04T07:59:59+00:00	-2	tgkp6hd3hvf4bjs@marketplace.amazon.com	Essey Woldemariam	+1 619-854-2705 ext. 73376	ABM022	Delivery by Thursday | Purple Extravagance Bouquet by Arabella Bouquets	1	0	1	Expedited	Serby Samson	12612 Brickyard Blvd			Beltsville	Md	20705	US		Just a small token of my love.  Te quiero From Essey Woldemariam	false		
113-4911563-3330669	26483203872410	2020-10-30T21:21:25+00:00	2020-10-30T14:21:25-07:00	2020-10-30T21:51:48+00:00	2020-11-04T07:59:59+00:00	-2	k20l6qr64y0tyrj@marketplace.amazon.com	Gwendolyn Baker	+1 929-436-4790 ext. 66427	ABM022	Delivery by Tuesday | Purple Extravagance Bouquet by Arabella Bouquets	1	0	1	Expedited	Barbara Kenyon and Dana Turner	13059 SANDY PINE LN			CLERMONT	FL	34711-6566	US			false		
111-2987533-7565837	54511404115154	2020-10-30T22:16:59+00:00	2020-10-30T15:16:59-07:00	2020-10-30T22:43:41+00:00	2020-11-04T07:59:59+00:00	-2	0m9ztlddxf65bzj@marketplace.amazon.com	linda parker	+1 602-671-6610 ext. 80408	ABR0055	Delivery by Tuesday | Arabella Farm Direct Bouquet of 12 Stems of Fresh Cut Hot Pink Roses in a Free Designer Glass Vase	1	0	1	Expedited	linda parker	HOUSE 3905 STANTON ST			RIVERSIDE	CA	92509-2705	US			false		
113-6696964-0107438	12307057751946	2020-10-30T22:32:25+00:00	2020-10-30T15:32:25-07:00	2020-10-30T22:57:41+00:00	2020-11-04T07:59:59+00:00	-2	5kl9n7szyddrf7h@marketplace.amazon.com	Yonicel Leyva	+1 480-618-5344 ext. 13752	ABR0033	Delivery by Tuesday | Arabella Farm Direct Bouquet of 12 Fresh Cut Orange Roses with a Free Glass Vase	1	0	1	Expedited	Yaumara Perez	6450 NW 191ST TER			HIALEAH	FL	33015-4710	US		Para el amor de mi vida.Dios te me bendiga siempre mujer virtuosa From Luis Miguel	false		
114-6096571-8897053	55756060379234	2020-10-30T22:28:27+00:00	2020-10-30T15:28:27-07:00	2020-10-30T22:57:46+00:00	2020-11-04T07:59:59+00:00	-2	ccznvxv4h2rmdw5@marketplace.amazon.com	Jennifer Lynn Webster	+1 213-442-1463 ext. 36148	ABR0055	Delivery by Tuesday | Arabella Farm Direct Bouquet of 12 Stems of Fresh Cut Hot Pink Roses in a Free Designer Glass Vase	1	0	1	Expedited	Kirsten Webster	4700 NW 10TH ST			OKLAHOMA CITY	OK	73127-5901	US		HAPPY BIRTHDAY! We have a fun-filled weekend planned for you. See you soon! Love, Mom, Dad & Lucas From Jennifer Lynn Webster	false		
113-1740667-6219453	20588536592498	2020-10-30T23:08:14+00:00	2020-10-30T16:08:14-07:00	2020-10-30T23:09:10+00:00	2020-11-04T07:59:59+00:00	-2	0803tq1bjmnn2jq@marketplace.amazon.com	Stanley J. Niemala	+1 602-671-6610 ext. 13598	ABR0022	Delivery by Tuesday | Arabella Farm Direct Bouquet of 12 Fresh Cut Pink Roses with a Free Glass Vase	1	0	1	Expedited	RHONDA and PETE  COMSTOCK	13675 SIENNA PASS			DEWITT	MI	48820-7821	US		Dear Rhonda,                  HAPPY BIRTHDAY from US!                      Love,  Mar'ceil & Stan From Stanley J. Niemala	false		
111-2792535-1980200	60225492963938	2020-10-30T22:54:09+00:00	2020-10-30T15:54:09-07:00	2020-10-30T23:10:19+00:00	2020-11-04T07:59:59+00:00	-2	g2gk49gb15042dn@marketplace.amazon.com	Abhi	+1 213-442-1463 ext. 24873	ABR001	Delivery by Tuesday | Arabella Bouquets 12 Stems of Fresh Cut Red Roses in a Free Designer Glass Vase	1	0	1	Expedited	Neha Rawat	2001 HOLLEMAN DR W APT 917			COLLEGE STATION	TX	77840-6377	US		Happy Birthday Neha! Have an awesome year ahead! Best wishes!! From Abhi	false		
111-9626974-9453002	31026271984562	2020-10-30T22:52:29+00:00	2020-10-30T15:52:29-07:00	2020-10-30T23:21:11+00:00	2020-11-04T07:59:59+00:00	-2	dldzd49wxq4kr86@marketplace.amazon.com	thomas lyons	+1 480-618-5344 ext. 14881	ABR0022	Delivery by Tuesday | Arabella Farm Direct Bouquet of 12 Fresh Cut Pink Roses with a Free Glass Vase	1	0	1	Expedited	Molly Lyons Bahrke	6261 E IOWA AVE			DENVER	CO	80224-2112	US		Happy Birthday! In place of a hug...with love from Maine From Tom and Cath	false		
113-1373961-3835405	39969577003162	2020-10-30T22:56:20+00:00	2020-10-30T15:56:20-07:00	2020-10-30T23:23:20+00:00	2020-11-04T07:59:59+00:00	-2	5ybtwf9p6dmxmn5@marketplace.amazon.com	Mike Moran	+1 602-671-6610 ext. 72805	ABR0022	Delivery by Tuesday | Arabella Farm Direct Bouquet of 12 Fresh Cut Pink Roses with a Free Glass Vase	1	0	1	Expedited	Michael Moran	242 QUAKER CHURCH RD			RANDOLPH	NJ	07869-1416	US		I love you so much and I'm so grateful Rosie and I have you in our lives. You are the most amazing Wife and Mother and we are so lucky to spend every day by your side. From Your Husband	false		
112-7243781-5441031	42303662497378	2020-10-30T23:01:38+00:00	2020-10-30T16:01:38-07:00	2020-10-30T23:30:06+00:00	2020-11-04T07:59:59+00:00	-2	qr3wfsskydm53w1@marketplace.amazon.com	Dorothy Sonnenberg	+1 480-618-5344 ext. 21256	ABR0022	Delivery by Tuesday | Arabella Farm Direct Bouquet of 12 Fresh Cut Pink Roses with a Free Glass Vase	1	0	1	Expedited	Beth  Moloughney	222 OWL HOLLOW DR			TANNERSVILLE	PA	18372-7789	US			false		
113-5079096-9336254	66547641433114	2020-10-30T23:04:08+00:00	2020-10-30T16:04:08-07:00	2020-10-30T23:32:20+00:00	2020-11-04T07:59:59+00:00	-2	8dgchjq36ym7rtd@marketplace.amazon.com	Jack bied	+1 480-618-5344 ext. 44203	ABR0033	Delivery by Tuesday | Arabella Farm Direct Bouquet of 12 Fresh Cut Orange Roses with a Free Glass Vase	1	0	1	Expedited	AnnaBelle Sartore	16400 PACIFIC COAST HWY STE 211			HUNTINGTON BEACH	CA	92649-1822	US			false		
111-6645764-1175461	57090248081850	2020-10-30T23:37:34+00:00	2020-10-30T16:37:34-07:00	2020-10-30T23:59:52+00:00	2020-11-04T07:59:59+00:00	-2	75st4xfblxk738c@marketplace.amazon.com	yadira rodriguez	+1 619-854-2705 ext. 04813	ABM010	Delivery by Tuesday | The Spring Fling Bouquet by Arabella Bouquets with a Free Designer Glass Vase	1	0	1	Expedited	Kati Ubiera	6 OSBORNE RD			POUGHKEEPSIE	NY	12601-4946	US		Happy birthday. Many blessings to you Enjoy your gift! From yadira rodriguez	false		
112-5568673-0679439	20058899332274	2020-10-30T23:42:14+00:00	2020-10-30T16:42:14-07:00	2020-10-31T00:11:05+00:00	2020-11-04T07:59:59+00:00	-2	t6lk0729stk8vrb@marketplace.amazon.com	Michele Shafer	+1 619-854-2705 ext. 16410	ABM022	Delivery by Tuesday | Purple Extravagance Bouquet by Arabella Bouquets	1	0	1	Expedited	MOM-  Battiste	9024 BROOK FORD RD			BURKE	VA	22015-3612	US		Enjoy your gift! Happy Birthday From Michele Shafer & Casey	false		
112-0361115-5177006	59745260572506	2020-10-30T23:52:26+00:00	2020-10-30T16:52:26-07:00	2020-10-31T00:22:48+00:00	2020-11-04T07:59:59+00:00	-2	fngg2c1tllf7ckx@marketplace.amazon.com	Judy McNelley	+1 602-671-6610 ext. 37769	ABM022	Delivery by Tuesday | Purple Extravagance Bouquet by Arabella Bouquets	1	0	1	Expedited	geri shaeffer	4671 ARBOGA RD			OLIVEHURST	CALIFORNIA	95961-4445	US			false		
111-7340821-3970640	20279585458378	2020-10-31T00:14:42+00:00	2020-10-30T17:14:42-07:00	2020-10-31T00:43:40+00:00	2020-11-04T07:59:59+00:00	-2	szsbzp8qf38r15w@marketplace.amazon.com	Bianca Moruzzi	+1 929-436-4790 ext. 87953	ABM010	Delivery by Tuesday | The Spring Fling Bouquet by Arabella Bouquets with a Free Designer Glass Vase	1	0	1	Expedited	Bruna Moruzzi	8 Pennstar Lane			South Yarmouth	MA	02664	US		I love you mom!  Everything is going to be okay. From Bianca Moruzzi	false		
113-5091502-0504223	51908635059690	2020-10-31T00:36:26+00:00	2020-10-30T17:36:26-07:00	2020-10-31T01:02:38+00:00	2020-11-04T07:59:59+00:00	-2	7z23t0d9r5rjvyq@marketplace.amazon.com	lolly werner	+1 480-618-5344 ext. 68867	ABM022	Delivery by Tuesday | Purple Extravagance Bouquet by Arabella Bouquets	1	0	1	Expedited	Margie Arvallo	2036 E TOPEKA DR			PHOENIX	AZ	85024-2404	US		Get well soon! We love you!!  Lolly and Vicki From lolly werner	false		
113-9721351-2784233	40167658076962	2020-10-31T00:56:40+00:00	2020-10-30T17:56:40-07:00	2020-10-31T01:26:18+00:00	2020-11-04T07:59:59+00:00	-2	1b6nf28zyfj8202@marketplace.amazon.com	Kimberly Gorman	+1 619-854-2705 ext. 43689	ABM022	Delivery by Tuesday | Purple Extravagance Bouquet by Arabella Bouquets	1	0	1	Expedited	Kimberly Gorman	6016 N TRAILS END			PEORIA	IL	61614-3523	US		Happy birthday, Nana!  We love you!  Love,  Madison, Collin, Kimberly and Corey From The Gormans	false		
111-6558883-8816221	20513295488258	2020-10-31T01:13:09+00:00	2020-10-30T18:13:09-07:00	2020-10-31T01:40:04+00:00	2020-11-04T07:59:59+00:00	-2	6y29lzhr9fr0g3d@marketplace.amazon.com	Jill A. Sweringen	+1 213-442-1463 ext. 19269	ABM020	Delivery by Tuesday | The Sunset Bouquet by Arabella Bouquets	1	0	1	Expedited	Richard W. Sweringen	163 WOODLANDS DR			VERONA	PA	15147-3879	US		Happy 60th Anniversary, Dad and Mom! From Jill, Barb and Joxer	false		
111-6558883-8816221	55006893578938	2020-10-31T01:13:09+00:00	2020-10-30T18:13:09-07:00	2020-10-31T01:40:04+00:00	2020-11-04T07:59:59+00:00	-2	6y29lzhr9fr0g3d@marketplace.amazon.com	Jill A. Sweringen	+1 213-442-1463 ext. 19269	ABM022	Delivery by Tuesday | Purple Extravagance Bouquet by Arabella Bouquets	1	0	1	Expedited	Richard W. Sweringen	163 WOODLANDS DR			VERONA	PA	15147-3879	US		Happy 60th Anniversary, Mom and Dad! From Jill, Barb and Joxer	false		
111-9336604-1335405	64832316100330	2020-10-31T01:24:51+00:00	2020-10-30T18:24:51-07:00	2020-10-31T01:53:42+00:00	2020-11-04T07:59:59+00:00	-2	43nhjrhkrmgmtr1@marketplace.amazon.com	Terry A. Marchillo	+1 619-854-2705 ext. 18327	ABM010	Delivery by Tuesday | The Spring Fling Bouquet by Arabella Bouquets with a Free Designer Glass Vase	1	0	1	Expedited	Vincent and Jaimie Marchillo	1010 TAYLOR AVE N			SEATTLE	WA	98109-3849	US		❤️Congratulations to the bride and groom!!  Love you both so much! From Mommola!😊	false		
111-0302329-3968272	22266411553186	2020-10-31T01:38:31+00:00	2020-10-30T18:38:31-07:00	2020-10-31T02:05:07+00:00	2020-11-04T07:59:59+00:00	-2	bsng724k7bqwf80@marketplace.amazon.com	Amy Saras	56128999006	ABM022	Delivery by Tuesday | Purple Extravagance Bouquet by Arabella Bouquets	1	0	1	Expedited	Christine Nesheiwat	6756 CHRISTIANSTED LN			NASHVILLE	TN	37211-7485	US		Congratulations on your new sweet baby girl! We are so happy for you and cannot wait to meet her! God bless! XOXO From Robbie, Amy & the kids	false		
114-3846990-7021044	26835802305122	2020-10-31T01:49:28+00:00	2020-10-30T18:49:28-07:00	2020-10-31T02:18:14+00:00	2020-11-04T07:59:59+00:00	-2	qq0djv46fx8p2rc@marketplace.amazon.com	Leanne P Morse	+1 602-671-6610 ext. 25956	ABR0022	Delivery by Tuesday | Arabella Farm Direct Bouquet of 12 Fresh Cut Pink Roses with a Free Glass Vase	1	0	1	Expedited	Gretchen Morse	129 BERRY CREEK DR			FLAT ROCK	NC	28731-8531	US		2020 Sucks!!  We love you and hope these cheer you up! XOXOXOXO From Dan, Leanne, Maxon, & Anika	false		
111-7787109-6366601	23858863823410	2020-10-31T02:19:02+00:00	2020-10-30T19:19:02-07:00	2020-10-31T02:48:36+00:00	2020-11-04T07:59:59+00:00	-2	nyf06plcyp7cbkh@marketplace.amazon.com	Sachi Brittin	+1 213-442-1463 ext. 11416	ABM022	Delivery by Tuesday | Purple Extravagance Bouquet by Arabella Bouquets	1	0	1	Expedited	Yoshie R. Brittin	2739 NE 88th St.			Seattle	WA	98115	US		Happy 47th Anniversary!!  We love you both mucho!!  Love,  Sachi, Stephan, Sean and Amelie From Sachi Brittin	false		
114-7780366-4693056	41554094838130	2020-10-31T02:39:34+00:00	2020-10-30T19:39:34-07:00	2020-10-31T03:10:01+00:00	2020-11-04T07:59:59+00:00	-2	xzsv4vf1mq2t1sq@marketplace.amazon.com	Sonia L Smythe	+1 480-618-5344 ext. 75593	ABR0022	Delivery by Tuesday | Arabella Farm Direct Bouquet of 12 Fresh Cut Pink Roses with a Free Glass Vase	1	0	1	Expedited	Betsy Welsh	3575 ALEXANDRIA PIKE			ANDERSON	IN	46012-9208	US			false		
112-2077065-3524209	66805236940794	2020-10-31T02:43:52+00:00	2020-10-30T19:43:52-07:00	2020-10-31T03:11:41+00:00	2020-11-04T07:59:59+00:00	-2	015xv000f4smqt9@marketplace.amazon.com	Jessica Gonzalez	+1 213-442-1463 ext. 68738	ABR0022	Delivery by Tuesday | Arabella Farm Direct Bouquet of 12 Fresh Cut Pink Roses with a Free Glass Vase	1	0	1	Expedited	Jaclynn Smith	2825 PALM BEACH BLVD APT 504			FORT MYERS	FL	33916-1518	US		You did it!! Beautiful - It’s who you are. It’s what you’ve done! Your strength and courage to get through this part was beyond admirable. You are such a fighter and I’m so lucky to have you in my life! Love you XO From Jessica Gonzalez	false		
114-0876245-4925852	03347262105002	2020-10-31T03:05:57+00:00	2020-10-30T20:05:57-07:00	2020-10-31T03:35:49+00:00	2020-11-04T07:59:59+00:00	-2	83w651cn1n11lky@marketplace.amazon.com	Ayesha Khan	+1 602-671-6610 ext. 60263	ABC004	Delivery by Wednesday | Arabella Bouquets 10 Stems of Purple Dendrobium Orchids in a Free Designer Glass Vase	2	0	2	Expedited	Syeda Muneeruddin	3019 BLUESTEM CT			NAPERVILLE	IL	60565-3556	US			false		
112-3846094-3406604	10026633559554	2020-10-31T04:58:57+00:00	2020-10-30T21:58:57-07:00	2020-10-31T05:20:27+00:00	2020-11-04T07:59:59+00:00	-2	q5xdmwgd6969ryw@marketplace.amazon.com	Mariko Prigel	+1 929-436-4790 ext. 54801	ABM010	Delivery by Tuesday | The Spring Fling Bouquet by Arabella Bouquets with a Free Designer Glass Vase	1	0	1	Expedited	Mai Hessel	1809 TREGO DR			JUSTIN	TX	76247-5774	US		Happy happy happy birthday !! This is the first birthday as a mother! Enjoy your day with your amazing husband, extra cute baby Rhys, and neko chans ! Love you! From James & Mariko Prigel	false		
111-1292534-6770651	31571663966090	2020-10-31T05:35:30+00:00	2020-10-30T22:35:30-07:00	2020-10-31T06:06:03+00:00	2020-11-04T07:59:59+00:00	-2	9nllztb1xwdslq9@marketplace.amazon.com	walter rich	+1 602-671-6610 ext. 11133	ABR0033	Delivery by Tuesday | Arabella Farm Direct Bouquet of 12 Fresh Cut Orange Roses with a Free Glass Vase	1	0	1	Expedited	SUSAN CALLAGHAN	34 COLONY ST			ANSONIA	CT	06401-1406	US			false		
113-7192556-7092257	47879857457946	2020-10-31T06:32:50+00:00	2020-10-30T23:32:50-07:00	2020-10-31T07:03:32+00:00	2020-11-04T07:59:59+00:00	-2	h041dwjbrfff59m@marketplace.amazon.com	Stephany A. Watson	+1 415-851-9136 ext. 17382	ABR0033	Delivery by Tuesday | Arabella Farm Direct Bouquet of 12 Fresh Cut Orange Roses with a Free Glass Vase	1	0	1	Expedited	Greg and Marica Russ	130164TH AVE NE			BELLEVUE	WA	98008-4450	US			false		
112-8711947-0132231	15891558444338	2020-10-31T08:04:48+00:00	2020-10-31T01:04:48-07:00	2020-10-31T08:32:38+00:00	2020-11-04T07:59:59+00:00	-2	xbhnr8g9yjw4whp@marketplace.amazon.com	Cynthia Barclay Hoffmann	+1 213-442-1463 ext. 27811	ABM022	Delivery by Tuesday | Purple Extravagance Bouquet by Arabella Bouquets	1	0	1	Expedited	Robert Post	3300 DARBY RD APT 6303			HAVERFORD	PA	19041-1074	US		Dear Robin, Happy 100th !!  What more is there to say :-)  With much love, Cynthia From Cynthia Barclay Hoffmann	false		
112-8125432-0384206	17762946716698	2020-10-31T09:08:10+00:00	2020-10-31T02:08:10-07:00	2020-10-31T09:35:19+00:00	2020-11-04T07:59:59+00:00	-2	80swg1g3n4j70wj@marketplace.amazon.com	Hector Marchi	+1 619-854-2705 ext. 71048	ABR001	Delivery by Tuesday | Arabella Bouquets 12 Stems of Fresh Cut Red Roses in a Free Designer Glass Vase	1	0	1	Expedited	Nubia Marchi	135 MARTIN ST			OCEANSIDE	CA	92058-7711	US		Para la mejor esposa del mundo. Ya merito mi amor. Te amo mucho desde acá. -Héctor	false		
113-1997723-2705025	62467562483098	2020-10-31T11:21:02+00:00	2020-10-31T04:21:02-07:00	2020-10-31T11:50:57+00:00	2020-11-04T07:59:59+00:00	-2	v8jycr9fww9v2yp@marketplace.amazon.com	nick	+1 213-442-1463 ext. 31039	ABR0022	Delivery by Tuesday | Arabella Farm Direct Bouquet of 12 Fresh Cut Pink Roses with a Free Glass Vase	1	0	1	Expedited	Laura D'Andria	8337 NICHOLS ST B			FORT CAMPBELL	KY	42223-2610	US			false		
113-2812466-8735423	23985401125546	2020-10-31T12:09:46+00:00	2020-10-31T05:09:46-07:00	2020-10-31T12:37:04+00:00	2020-11-04T07:59:59+00:00	-2	sxwpxc2p6qsz8cf@marketplace.amazon.com	Pooja	+1 929-436-4790 ext. 91509	ABR0022	Delivery by Tuesday | Arabella Farm Direct Bouquet of 12 Fresh Cut Pink Roses with a Free Glass Vase	1	0	1	Expedited	Shikha	CLINTON 18 OVERLOOK DR			CLINTON	NJ	08809-1133	US		Heartiest Congratulations on the most awaited news. We all are really happy for you. Wishing you all the luck for future. From Maa Paa Pooja Vishu	false		
111-7698597-6547408	33139286578554	2020-10-31T13:00:20+00:00	2020-10-31T06:00:20-07:00	2020-10-31T13:29:07+00:00	2020-11-04T07:59:59+00:00	-2	zm5cm7120v6hdpx@marketplace.amazon.com	denise regan	+1 480-618-5344 ext. 28378	ABR001	Delivery by Tuesday | Arabella Bouquets 12 Stems of Fresh Cut Red Roses in a Free Designer Glass Vase	1	0	1	Expedited	Cora elizabet thomas	16 E JONES ST			SAVANNAH	GA	31401-4515	US		Happy birthday!! From denise	false		
114-5199857-6671431	66990932509978	2020-10-31T13:02:45+00:00	2020-10-31T06:02:45-07:00	2020-10-31T13:31:09+00:00	2020-11-04T07:59:59+00:00	-2	912zxqtm6qrc4gl@marketplace.amazon.com	Doug	+1 929-436-4790 ext. 76825	ABM020	Delivery by Tuesday | The Sunset Bouquet by Arabella Bouquets	1	0	1	Expedited	Hannah D. Stephens	1019 N VILLARD ST			TACOMA	WA	98406-2635	US		I love you Hannah - Happy Birthday ! From Dad	false		
111-5609351-4792210	30514637910242	2020-10-31T13:15:24+00:00	2020-10-31T06:15:24-07:00	2020-10-31T13:40:45+00:00	2020-11-04T07:59:59+00:00	-2	ngdln322j02jwb6@marketplace.amazon.com	Dr. Saku W Gunasegaram	+1 619-854-2705 ext. 03428	ABR004	Delivery by Tuesday | Arabella Farm Direct Bouquet of 12 Fresh Cut Yellow Roses with a Free Glass Vase	3	2	1	Expedited	TO:EVERYONE WHO LOVED DICK CSAPLAR   NANCY CSAPLAR	WE CANNOT SEE YOU BUT YOU ARE IN THOUG HTS AND PRAYERS	76 YALE ST SINCEREST CONDOLENCES		WINCHESTER	MA	01890-2332	US		TO: EVERYONE WHO LOVED UNCLE DICK CSAPLAR C/O DAUGHTER-IN-LAW NANCY CSAPLAR IT IS ALWAYS A SHOCK EVEN WHEN IT'S BEEN ANTICIPATED FOR _YEARS_. SINCEREST CONDOLENCES. From Dr. Saku Gunasegaram+WILF	false		
111-4766603-8556246	39068717619978	2020-10-31T13:21:01+00:00	2020-10-31T06:21:01-07:00	2020-10-31T13:47:45+00:00	2020-11-04T07:59:59+00:00	-2	ngdln322j02jwb6@marketplace.amazon.com	Dr. Saku W Gunasegaram	+1 602-671-6610 ext. 24373	ABR004	Delivery by Tuesday | Arabella Farm Direct Bouquet of 12 Fresh Cut Yellow Roses with a Free Glass Vase	3	2	1	Expedited	WILL CSAPLAR (SENIOR) SINCEREST CONDOLENCES	101 BARRY RD UNIT 1352 THE	WILLOWS CSAPLAR		WORCESTER	MA	01609-1273	US		TO: WILL CSAPLAR (SENIOR) IT IS ALWAYS A SHOCK EVEN WHEN IT'S BEEN ANTICIPATED FOR _YEARS_. SINCEREST CONDOLENCES. From Dr. Saku Gunasegaram+WILF	false		
112-2051473-6110602	55146704994210	2020-10-31T13:31:29+00:00	2020-10-31T06:31:29-07:00	2020-10-31T14:00:50+00:00	2020-11-04T07:59:59+00:00	-2	py7j8fllkrjz4nm@marketplace.amazon.com	Tracy Cornette	+1 929-436-4790 ext. 30084	ABM022	Delivery by Tuesday | Purple Extravagance Bouquet by Arabella Bouquets	1	0	1	Expedited	Carol Cornette	1949 FRANKS RD			STURGEON BAY	WI	54235-9231	US		Happy Birthday!!! From Tracy, Alex & Aiden	false		
111-7874116-9247431	07797066846418	2020-10-31T13:33:45+00:00	2020-10-31T06:33:45-07:00	2020-10-31T14:03:13+00:00	2020-11-04T07:59:59+00:00	-2	p3tssfvp8ng5cr4@marketplace.amazon.com	Jennifer	+1 619-854-2705 ext. 31218	ABR0055	Delivery by Tuesday | Arabella Farm Direct Bouquet of 12 Stems of Fresh Cut Hot Pink Roses in a Free Designer Glass Vase	1	0	1	Expedited	Anissa Dowling	218 BELMONT CT			LOVELAND	OH	45140-7125	US		Anissa,  HAPPY 50th BIRTHDAY!  Welcome to the club! From Jennifer	false		
113-6490627-8929854	09753022404562	2020-10-31T14:27:08+00:00	2020-10-31T07:27:08-07:00	2020-10-31T14:56:48+00:00	2020-11-04T07:59:59+00:00	-2	qm5x7tf4xcqjmn9@marketplace.amazon.com	Karen Kennedy	+1 929-436-4790 ext. 20263	ABR0022	Delivery by Tuesday | Arabella Farm Direct Bouquet of 12 Fresh Cut Pink Roses with a Free Glass Vase	1	0	1	Expedited	Rose Valzavano	6 Marietta Lane			Glen Cove	New York	11542	US			false		
111-8096900-4505051	05729280439730	2020-10-31T14:49:15+00:00	2020-10-31T07:49:15-07:00	2020-10-31T15:05:52+00:00	2020-11-04T07:59:59+00:00	-2	tjp58pwrf80ds4j@marketplace.amazon.com	perry r hammer	+1 619-854-2705 ext. 08017	ABR0055	Delivery by Tuesday | Arabella Farm Direct Bouquet of 12 Stems of Fresh Cut Hot Pink Roses in a Free Designer Glass Vase	1	0	1	Expedited	judy viljevac	6638 S 20TH ST			MILWAUKEE	WI	53221-5226	US		see what happens when you mix white and red !!!            he who does not play well with others..... From        perry r hammer From perry r hammer	false		
112-0790125-9255400	27263494337314	2020-10-31T15:28:46+00:00	2020-10-31T08:28:46-07:00	2020-10-31T15:49:06+00:00	2020-11-04T07:59:59+00:00	-2	h2bt0ld598v8pnn@marketplace.amazon.com	Darlene Zanders	+1 602-671-6610 ext. 72788	ABR0022	Delivery by Tuesday | Arabella Farm Direct Bouquet of 12 Fresh Cut Pink Roses with a Free Glass Vase	1	0	1	Expedited	Mother Blueford	204 MIDLAND AVE			COLUMBUS	OH	43223-1023	US		Enjoy your gift! Happy Birthday Mom Blue Love You. Your GodDaughter From Darlene Zanders	false		
112-4206927-2003428	65390478403130	2020-10-31T15:28:10+00:00	2020-10-31T08:28:10-07:00	2020-10-31T15:57:30+00:00	2020-11-04T07:59:59+00:00	-2	x3f6b5yvr12j9hg@marketplace.amazon.com	Jocelyn K Liberg	+1 480-618-5344 ext. 99949	ABR0022	Delivery by Tuesday | Arabella Farm Direct Bouquet of 12 Fresh Cut Pink Roses with a Free Glass Vase	1	0	1	Expedited	Bernice Young	22156 TOWEY CT			GREAT MILLS	MD	20634-2213	US		Bernice, Just wanted you to know I’m thinking about you, and that I miss seeing you every day! All my best, Jocelyn Liberg From Jocelyn K Liberg	false		
113-6095834-1701854	18737767593522	2020-10-31T15:35:17+00:00	2020-10-31T08:35:17-07:00	2020-10-31T15:59:43+00:00	2020-11-04T07:59:59+00:00	-2	mp7r9cn68gycyx1@marketplace.amazon.com	John Savageau	+1 480-618-5344 ext. 62158	ABR004	Delivery by Tuesday | Arabella Farm Direct Bouquet of 12 Fresh Cut Yellow Roses with a Free Glass Vase	1	0	1	Expedited	Alison Willing	434 DAY MOUNTAIN RD			TEMPLE	ME	04984-3604	US		Happy Birthday.  You are a special, caring person who is often unappreciated.  We know all you do and we love you very much.  Do something special for yourself today! From Ann & John	false		
112-1146791-7690618	61198236299674	2020-10-31T15:36:31+00:00	2020-10-31T08:36:31-07:00	2020-10-31T16:06:55+00:00	2020-11-04T07:59:59+00:00	-2	q4chsv3w68rqsnf@marketplace.amazon.com	Linda Kester	+1 619-854-2705 ext. 03666	ABR001	Delivery by Tuesday | Arabella Bouquets 12 Stems of Fresh Cut Red Roses in a Free Designer Glass Vase	1	0	1	Expedited	Dolores Kester	1818 WINCHESTER ST			MADISON	WI	53704-3457	US			false		
113-8355594-8889828	46623986283586	2020-10-31T16:00:05+00:00	2020-10-31T09:00:05-07:00	2020-10-31T16:28:39+00:00	2020-11-04T07:59:59+00:00	-2	klx9lswvg1zndtx@marketplace.amazon.com	JULIE OLIVERI	+1 602-671-6610 ext. 60701	ABM024	Delivery by Wednesday | The Beauty of Color Bouquet by Arabella Bouquets	1	0	1	Expedited	Mary  Mazzei	81 OXFORD AVE			CAMBRIDGE	MA	02138-4422	US		Thinking  of you during this difficult time Love   Julie and Joanne (Kennedy) From JULIE OLIVERI	false		
112-1916463-1838617	20386256138418	2020-10-31T16:13:11+00:00	2020-10-31T09:13:11-07:00	2020-10-31T16:33:07+00:00	2020-11-04T07:59:59+00:00	-2	fllnchb0wyrk2gm@marketplace.amazon.com	Amanda Desroches	+1 602-671-6610 ext. 21271	ABR0022	Delivery by Tuesday | Arabella Farm Direct Bouquet of 12 Fresh Cut Pink Roses with a Free Glass Vase	1	0	1	Expedited	Carol and George Dinardi	68 EUSTIS AVE			WAKEFIELD	MA	01880-1431	US		Sending warm, good and healthy vibes your way. From Mandie & Derek Desroches & family	false		
112-0110647-4620257	12116886691882	2020-10-31T16:03:27+00:00	2020-10-31T09:03:27-07:00	2020-10-31T16:33:21+00:00	2020-11-04T07:59:59+00:00	-2	205n6jhvkjrxm7c@marketplace.amazon.com	Richard Payne	+1 213-442-1463 ext. 56153	ABM020	Delivery by Tuesday | The Sunset Bouquet by Arabella Bouquets	1	0	1	Expedited	Sherry Schreck c/o ROSALYN DOTY	811 FREEDOM PLAZA CIR APT 203			SUN CITY CENTER	FL	33573-5294	US		Love you!! From Richard	false		
112-6916786-5941048	00664050611346	2020-10-31T16:30:25+00:00	2020-10-31T09:30:25-07:00	2020-10-31T16:56:41+00:00	2020-11-04T07:59:59+00:00	-2	dmfk66l3gxb89tf@marketplace.amazon.com	Carolyn Langer	+1 480-618-5344 ext. 55543	ABM022	Delivery by Tuesday | Purple Extravagance Bouquet by Arabella Bouquets	1	0	1	Expedited	Carol Langer	6113 BYRON ST			ROSEMONT	IL	60018-4415	US		Happy birthday Mom! We love you, From Steve, Carolyn, Nick, Carly, Lilly & Xander	false		
114-7515551-3159449	01218971217506	2020-10-31T16:34:26+00:00	2020-10-31T09:34:26-07:00	2020-10-31T17:03:40+00:00	2020-11-04T07:59:59+00:00	-2	jgrrs2dn7krb5d2@marketplace.amazon.com	Randa Spears	+1 213-442-1463 ext. 32405	ABR0033	Delivery by Tuesday | Arabella Farm Direct Bouquet of 12 Fresh Cut Orange Roses with a Free Glass Vase	1	0	1	Expedited	Hilary Mason	5415 GRESHAM AVE			SAINT LOUIS	MO	63109-3704	US		Very Happy Belated Birthday! Much love, Randa From Randa Spears	false		
114-7936831-3211403	44527636440082	2020-10-31T16:44:32+00:00	2020-10-31T09:44:32-07:00	2020-10-31T17:11:28+00:00	2020-11-04T07:59:59+00:00	-2	q2jmvmd5583kqp2@marketplace.amazon.com	Jason	+1 929-436-4790 ext. 63352	ABM022	Delivery by Tuesday | Purple Extravagance Bouquet by Arabella Bouquets	1	0	1	Expedited	Marji Family	42573 SADDLE LN			STERLING HEIGHTS	MI	48314-2928	US			false		
114-2301813-6484245	17818795831762	2020-10-31T16:46:38+00:00	2020-10-31T09:46:38-07:00	2020-10-31T17:15:59+00:00	2020-11-04T07:59:59+00:00	-2	q2jmvmd5583kqp2@marketplace.amazon.com	Jason	+1 602-671-6610 ext. 50023	ABM022	Delivery by Tuesday | Purple Extravagance Bouquet by Arabella Bouquets	1	0	1	Expedited	Haddad Family	2853 CULBERTSON AVE			ROCHESTER HILLS	MI	48307-4617	US		To the lovely family, our hearts ache with you! He was such an incredible man. We are so sorry for your loss & we are continuously praying for peace & comfort during this difficult time. We love you so much & know we are here From Qandahs & Millers	false		
112-1211600-5103413	23655454660386	2020-10-31T16:48:54+00:00	2020-10-31T09:48:54-07:00	2020-10-31T17:18:15+00:00	2020-11-04T07:59:59+00:00	-2	vkn41hldcqxf9z2@marketplace.amazon.com	Jocelyn M Crenshaw	+1 415-851-9136 ext. 25281	ABR0033	Delivery by Tuesday | Arabella Farm Direct Bouquet of 12 Fresh Cut Orange Roses with a Free Glass Vase	1	0	1	Standard	Grace Jones	624 ENGLAND ST			FATE	TX	75189-7010	US		Congratulations on the Adoption!!! Can't wait to celebrate with you soon. We love you guys. From The Crenshaws	false		
113-9725809-4850647	06672904309466	2020-10-31T17:26:26+00:00	2020-10-31T10:26:26-07:00	2020-10-31T17:56:40+00:00	2020-11-04T07:59:59+00:00	-2	23vpyr7n30f1n4p@marketplace.amazon.com	Stephen Howard Knox	+1 929-436-4790 ext. 59327	ABM010	Delivery by Tuesday | The Spring Fling Bouquet by Arabella Bouquets with a Free Designer Glass Vase	1	0	1	Expedited	Arthur Spenser	2545 SW TERWILLIGER BLVD			PORTLAND	OR	97201-6302	US			false		
112-6273356-1340211	43836297907274	2020-10-31T17:53:40+00:00	2020-10-31T10:53:40-07:00	2020-10-31T18:17:50+00:00	2020-11-04T07:59:59+00:00	-2	vjlb9rmnlm7vrs1@marketplace.amazon.com	Leslie S Hobkirk	+1 929-436-4790 ext. 65447	ABM022	Delivery by Tuesday | Purple Extravagance Bouquet by Arabella Bouquets	1	0	1	Expedited	Nona O'Connell	3415 CHANDLER PKWY			BELLINGHAM	WA	98226-4141	US		Sending love and healing prayers your way. God bless - The Hobkirk Family From Leslie S Hobkirk	false		
114-1668947-5193855	20158602464138	2020-10-31T18:30:53+00:00	2020-10-31T11:30:53-07:00	2020-10-31T18:54:30+00:00	2020-11-04T07:59:59+00:00	-2	mp92nvyq6l8n6zh@marketplace.amazon.com	Tom Wellen	+1 602-671-6610 ext. 36752	ABR0022	Delivery by Tuesday | Arabella Farm Direct Bouquet of 12 Fresh Cut Pink Roses with a Free Glass Vase	1	0	1	Expedited	rita maloney	14558 N SUNSET GALLERY DR			MARANA	AZ	85658-4481	US		Rita, Karin and I want you to enjoy these roses ! Know that we are thinking about and care about you very much! From Beverly and Karin	false		
111-3478577-3936261	46197181191154	2020-10-31T18:30:27+00:00	2020-10-31T11:30:27-07:00	2020-10-31T19:00:46+00:00	2020-11-04T07:59:59+00:00	-2	qcz156v0sjwr5yf@marketplace.amazon.com	Debra Viney	+1 480-618-5344 ext. 00186	ABR001	Delivery by Tuesday | Arabella Bouquets 12 Stems of Fresh Cut Red Roses in a Free Designer Glass Vase	1	0	1	Expedited	Paul VIney	6601 LANI LN			MC FARLAND	WI	53558-9131	US			false		
112-4612772-6748249	55319949173962	2020-10-31T18:46:27+00:00	2020-10-31T11:46:27-07:00	2020-10-31T19:07:25+00:00	2020-11-04T07:59:59+00:00	-2	zt9r51z5jz097jd@marketplace.amazon.com	james melnicoff	+1 602-671-6610 ext. 23253	ABM022	Delivery by Tuesday | Purple Extravagance Bouquet by Arabella Bouquets	1	0	1	Expedited	Edna and Terry Melnicoff	500 NW DOVER CT			PORT ST LUCIE	FL	34983-3420	US		Dear Edna,  Sending you love, well wishes and prayers.  Jim & Deysi From Jim and Deysi	false		
111-2276673-9757034	52976625808226	2020-10-31T19:07:42+00:00	2020-10-31T12:07:42-07:00	2020-10-31T19:08:34+00:00	2020-11-04T07:59:59+00:00	-2	3qhhs1nj6xbyplf@marketplace.amazon.com	Yasmeen	+1 602-671-6610 ext. 06739	ABM022	Delivery by Tuesday | Purple Extravagance Bouquet by Arabella Bouquets	1	0	1	Expedited	Layla Gabertai	47 CIPRESSO			IRVINE	CA	92618-0105	US		I know this is super late but better late than never. HAPPY BIRTHDAY LELO💞😘 From Yasmeen	false		
111-8272785-0079448	65003804940634	2020-10-31T20:03:34+00:00	2020-10-31T13:03:34-07:00	2020-10-31T20:30:45+00:00	2020-11-04T07:59:59+00:00	-2	lc43qtwkqvgg7n5@marketplace.amazon.com	Susanna Calderone	+1 929-436-4790 ext. 32583	ABR0055	Delivery by Tuesday | Arabella Farm Direct Bouquet of 12 Stems of Fresh Cut Hot Pink Roses in a Free Designer Glass Vase	1	0	1	Expedited	Suzanh Boronkay	8 HIGHFIELD CT			LAWRENCE TOWNSHIP	NJ	08648-1077	US		Happy belated Birthday!!!  Hope it was a good one ❤️ From Paul and Susanna	false		
113-5754836-7813046	30996983537930	2020-10-31T20:29:02+00:00	2020-10-31T13:29:02-07:00	2020-10-31T20:59:32+00:00	2020-11-04T07:59:59+00:00	-2	0pwrcjf7pdsjkpr@marketplace.amazon.com	Patricia Kathryn Beachy	+1 213-442-1463 ext. 69964	ABR001	Delivery by Tuesday | Arabella Bouquets 12 Stems of Fresh Cut Red Roses in a Free Designer Glass Vase	1	0	1	Expedited	PAT BEACHY	8107 MILLER FALLS DR			ROUND ROCK	TX	78681-3565	US			false		
114-4067215-3610630	49621137079034	2020-10-31T20:25:35+00:00	2020-10-31T13:25:35-07:00	2020-10-31T21:01:15+00:00	2020-11-04T07:59:59+00:00	-2	hck1n329pp67kg0@marketplace.amazon.com	lee bennett	+1 213-442-1463 ext. 47375	ABR0022	Delivery by Tuesday | Arabella Farm Direct Bouquet of 12 Fresh Cut Pink Roses with a Free Glass Vase	1	0	1	Expedited	kerryann jones	1009 BRAZIL NUT WAY DOVER			DOVER	DE	19901-7944	US		Happy birthday babes From lee bennett	false		
113-9358877-3592208	29845396364890	2020-10-31T21:08:15+00:00	2020-10-31T14:08:15-07:00	2020-10-31T21:36:17+00:00	2020-11-04T07:59:59+00:00	-2	5z51d1ksrfd8115@marketplace.amazon.com	Vassilis	+1 480-618-5344 ext. 94801	ABM017	Delivery by Wednesday | Arabella Bouquets 10 Stems of Blue Dendrobium Orchids in a Free Designer Glass Vase	1	0	1	Expedited	Maria A. Solis	6348 BRIGHTON ST			DOWNERS GROVE	IL	60516-2478	US		Happy birthday Alex! Thank you for being such a good mother to the girls 😊😊 From Vassilis	false		
113-7380219-8436233	00256000622522	2020-10-31T21:33:38+00:00	2020-10-31T14:33:38-07:00	2020-10-31T21:54:50+00:00	2020-11-04T07:59:59+00:00	-2	n5qc99vm9gvp75n@marketplace.amazon.com	Danee J Miller	+1 480-618-5344 ext. 51509	ABR0022	Delivery by Tuesday | Arabella Farm Direct Bouquet of 12 Fresh Cut Pink Roses with a Free Glass Vase	1	0	1	Expedited	Sumner Lagow	1226 CONSTITUTION DR			LOUISVILLE	KY	40214-4135	US		We love you and Remy so much, congratulations! 💗💗💗  Love, her BKPSWE Aunties, Danée, Telessa, Alex, Beth, Jennifer, Yai, Jonté, and Jill From Danee J Miller	false		
113-6385424-8682600	46968813751922	2020-10-31T22:48:54+00:00	2020-10-31T15:48:54-07:00	2020-10-31T23:16:08+00:00	2020-11-04T07:59:59+00:00	-2	jvnsy4q71hpvl2z@marketplace.amazon.com	Ronald B Goldberg	+1 602-671-6610 ext. 38235	ABR0022	Delivery by Tuesday | Arabella Farm Direct Bouquet of 12 Fresh Cut Pink Roses with a Free Glass Vase	1	0	1	Expedited	Catherine Stirn	538 S CANDLER ST			DECATUR	GA	30030-3750	US		Happy Birthday Sweetheart. We wish we could be there. Kisses Galore! From Mama and Ron	false		
112-3786001-5620207	27719995505058	2020-10-31T22:52:45+00:00	2020-10-31T15:52:45-07:00	2020-10-31T23:21:33+00:00	2020-11-04T07:59:59+00:00	-2	95dhyvy4dqlg0bp@marketplace.amazon.com	Robert Sumsky	+1 213-442-1463 ext. 21185	ABR0022	Delivery by Tuesday | Arabella Farm Direct Bouquet of 12 Fresh Cut Pink Roses with a Free Glass Vase	1	0	1	Expedited	JoAnne Clements	15051 W PINCHOT AVE			GOODYEAR	AZ	85395-8671	US		Thanks for your help JoAnne! Best, Robert From Robert Sumsky	false		
113-2323371-7794620	14034849551650	2020-10-31T23:22:33+00:00	2020-10-31T16:22:33-07:00	2020-10-31T23:42:13+00:00	2020-11-04T07:59:59+00:00	-2	tv2mrzcx2q00zjr@marketplace.amazon.com	Kristen P Boydston	+1 415-851-9136 ext. 24114	ABM022	Delivery by Tuesday | Purple Extravagance Bouquet by Arabella Bouquets	1	0	1	Expedited	Susan and Bob Burroughs	6601 W SUMAC AVE			LITTLETON	CO	80123-0814	US		From the Maryland Boydstons,  We missed everyone at the Halloween get together. Bob & Susan, we are wrapping you in love and hugs from afar.  Love, Jeremy and Kristen From Kristen P Boydston	false		
114-6583076-3871424	68525131152634	2020-10-31T23:24:18+00:00	2020-10-31T16:24:18-07:00	2020-10-31T23:54:37+00:00	2020-11-04T07:59:59+00:00	-2	gc2q9y2mmmf21s7@marketplace.amazon.com	Collins Dobbs	+1 619-854-2705 ext. 83299	ABR001	Delivery by Tuesday | Arabella Bouquets 12 Stems of Fresh Cut Red Roses in a Free Designer Glass Vase	1	0	1	Expedited	Arlene Dobbs	4712 SYLVAN AVE			PITTSBURGH	PA	15207-1549	US			false		
113-2307406-3109058	56812846327866	2020-10-31T23:33:16+00:00	2020-10-31T16:33:16-07:00	2020-11-01T00:03:57+00:00	2020-11-04T07:59:59+00:00	-2	pdz8b1sxzmzgbfd@marketplace.amazon.com	Pooja Gurnani	+1 602-671-6610 ext. 86699	ABR0055	Delivery by Tuesday | Arabella Farm Direct Bouquet of 12 Stems of Fresh Cut Hot Pink Roses in a Free Designer Glass Vase	1	0	1	Expedited	Pooja Gurnani	90 KYLE DR			TINTON FALLS	NJ	07712-7536	US			false		
111-2896522-3581852	56519791744626	2020-11-01T00:08:02+00:00	2020-10-31T17:08:02-07:00	2020-11-01T00:33:17+00:00	2020-11-04T07:59:59+00:00	-2	nd98hl62q4vkty1@marketplace.amazon.com	linda koolish	+1 213-442-1463 ext. 87790	ABR0055	Delivery by Tuesday | Arabella Farm Direct Bouquet of 12 Stems of Fresh Cut Hot Pink Roses in a Free Designer Glass Vase	1	0	1	Expedited	Linda Lasson	126 WASHINGTON CIR			LAKE FOREST	IL	60045-2456	US		Linda, I hope that these flowers bring you sunshine and that you are healing and getting stronger with each day. Linda Koolish From linda koolish	false		
114-6588913-7991444	25375182376738	2020-11-01T00:38:57+00:00	2020-10-31T17:38:57-07:00	2020-11-01T01:07:35+00:00	2020-11-04T07:59:59+00:00	-2	rnsxjpkgp2c9dn2@marketplace.amazon.com	Robert Doyle	+1 213-442-1463 ext. 62036	ABR0022	Delivery by Tuesday | Arabella Farm Direct Bouquet of 12 Fresh Cut Pink Roses with a Free Glass Vase	1	0	1	Expedited	Jill Alderman	19464 BAINBRIDGE AVE			LIVONIA	MI	48152-1787	US		So sorry for your loss. Hope this brightens your day! From All the Doyle	false		
113-0325157-3343403	31012079977786	2020-11-01T02:37:13+00:00	2020-10-31T19:37:13-07:00	2020-11-01T03:07:22+00:00	2020-11-04T07:59:59+00:00	-2	k6vzsn9l1v3xrl6@marketplace.amazon.com	Tim Ayers	+1 213-442-1463 ext. 43344	ABR0022	Delivery by Tuesday | Arabella Farm Direct Bouquet of 12 Fresh Cut Pink Roses with a Free Glass Vase	1	0	1	Expedited	Carol Oberman	3632 235TH AVE TRLR 69			KEOKUK	IA	52632-9772	US			false		
112-6776921-3349030	15018130265546	2020-11-01T04:38:07+00:00	2020-10-31T21:38:07-07:00	2020-11-01T05:00:51+00:00	2020-11-04T07:59:59+00:00	-2	hp6rvctz67ry9fj@marketplace.amazon.com	Aberlyn Yap	+1 602-671-6610 ext. 51328	ABR0022	Delivery by Tuesday | Arabella Farm Direct Bouquet of 12 Fresh Cut Pink Roses with a Free Glass Vase	1	0	1	Expedited	Jiang Ke Qing	171 DELTA RD			BUFFALO	NY	14226-2043	US		18shui songni huahua xiwang nixihuan <3 Yuebian yuemei danshi biezai zhanggao la From Nide zuiai baobei xp	false		
113-5683246-6181016	31689788209810	2020-11-01T04:48:25+00:00	2020-10-31T21:48:25-07:00	2020-11-01T05:14:30+00:00	2020-11-04T07:59:59+00:00	-2	nx75m7vhlh73nd7@marketplace.amazon.com	jill smith	013463080941	ABM022	Delivery by Tuesday | Purple Extravagance Bouquet by Arabella Bouquets	1	0	1	Expedited	Hannah stuchlik	6301 SCHULER ST			HOUSTON	TX	77007-2041	US		Congratulations! Pink and blue flowers because - who knows! All our love From Mum and Dad,  Future Durham grandparents. Xxxx	false		
111-6067105-9564221	22579375333330	2020-11-01T05:00:59+00:00	2020-10-31T22:00:59-07:00	2020-11-01T05:27:48+00:00	2020-11-04T07:59:59+00:00	-2	hk0yd2nj3n1kf1f@marketplace.amazon.com	Susan Burgoyne	+1 480-618-5344 ext. 37003	ABR0055	Delivery by Tuesday | Arabella Farm Direct Bouquet of 12 Stems of Fresh Cut Hot Pink Roses in a Free Designer Glass Vase	1	0	1	Expedited	Tanis Goltra	9432 KEOKI CIR			HUNTINGTON BEACH	CA	92646-7945	US		Mom and Dad,  Happy 50th Anniversary!  We love so very much!  Thank you for having such a beautiful marriage. From Susie and Tori	false		
113-7604186-1937005	16503733649698	2020-11-01T05:17:22+00:00	2020-10-31T22:17:22-07:00	2020-11-01T05:46:37+00:00	2020-11-04T07:59:59+00:00	-2	jymcr7hj8l9g146@marketplace.amazon.com	M. C.  McCutcheon	+1 213-442-1463 ext. 06973	ABM017	Delivery by Wednesday | Arabella Bouquets 10 Stems of Blue Dendrobium Orchids in a Free Designer Glass Vase	1	0	1	Expedited	Wilma Taylor	39194 MOUNTAIN SKY CIR			TEMECULA	CA	92591-7442	US			false		
114-1086046-3251457	52029865033882	2020-11-01T08:27:22+00:00	2020-11-01T01:27:22-07:00	2020-11-01T08:57:15+00:00	2020-11-04T07:59:59+00:00	-2	dy06ppwyn8sw380@marketplace.amazon.com	Tshun Basden	+1 213-442-1463 ext. 18996	ABR0022	Delivery by Tuesday | Arabella Farm Direct Bouquet of 12 Fresh Cut Pink Roses with a Free Glass Vase	1	0	1	Expedited	Roxanne	5062 DEER CREEK PL			INDIANAPOLIS	IN	46254-3730	US			false		
112-3753233-1625862	58317428251338	2020-11-01T12:05:49+00:00	2020-11-01T04:05:49-08:00	2020-11-01T12:42:12+00:00	2020-11-04T07:59:59+00:00	-2	cs42swt4n1l5t62@marketplace.amazon.com	Sherrie Page	+1 213-442-1463 ext. 74244	ABM020	Delivery by Tuesday | The Sunset Bouquet by Arabella Bouquets	1	0	1	Expedited	Rev. Dorothy White	4520 GROVE AVE UNIT 8			RICHMOND	VA	23221-1843	US		Dear Dorothy, Thank you for sharing your uplifting words with us. We needed to hear them-- balm for the soul! Lots of love, Your Saint Catherine's Family From Sherrie Page	false		
111-1046255-6977843	15334888048154	2020-11-01T13:22:49+00:00	2020-11-01T05:22:49-08:00	2020-11-01T13:48:05+00:00	2020-11-04T07:59:59+00:00	-2	pb5q772mkr8h1sh@marketplace.amazon.com	Tillie Furstein	+1 602-671-6610 ext. 89471	ABR0022	Delivery by Tuesday | Arabella Farm Direct Bouquet of 12 Fresh Cut Pink Roses with a Free Glass Vase	1	0	1	Expedited	tara kendell	80 DOVER GRN			STATEN ISLAND	NY	10312-1706	US		Enjoy your gift! From Tillie	false		
111-5804639-5901056	14085028547898	2020-11-01T13:32:20+00:00	2020-11-01T05:32:20-08:00	2020-11-01T14:02:41+00:00	2020-11-04T07:59:59+00:00	-2	b6n7k03y4dz8p4r@marketplace.amazon.com	Russell Crow	+1 619-854-2705 ext. 83727	ABR0022	Delivery by Tuesday | Arabella Farm Direct Bouquet of 12 Fresh Cut Pink Roses with a Free Glass Vase	1	0	1	Expedited	Kathy Williams	7 LILAC LN			PORTSMOUTH	RI	02871-2262	US			false		
113-8192942-4342601	13230886861362	2020-11-01T13:37:16+00:00	2020-11-01T05:37:16-08:00	2020-11-01T14:05:45+00:00	2020-11-04T07:59:59+00:00	-2	xwsbhhppzvg6kcj@marketplace.amazon.com	Rebecca	+1 602-671-6610 ext. 59137	ABM022	Delivery by Tuesday | Purple Extravagance Bouquet by Arabella Bouquets	1	0	1	Expedited	Mark Villanueva	2831 WHISPER VIEW ST			SAN ANTONIO	TX	78230-3741	US		To the Villanueva family: We are so sorry for your loss and our thoughts and prayers are with you. From The Thibodeaux’s	false		
111-1762455-9419456	01256295647466	2020-11-01T13:45:58+00:00	2020-11-01T05:45:58-08:00	2020-11-01T14:15:49+00:00	2020-11-04T07:59:59+00:00	-2	jjywmwlb05v2kjd@marketplace.amazon.com	susanne snedeker	+1 213-442-1463 ext. 95850	ABR0033	Delivery by Tuesday | Arabella Farm Direct Bouquet of 12 Fresh Cut Orange Roses with a Free Glass Vase	1	0	1	Expedited	Lisa Wiedmeyer	276 SIXTH AVE			WEST CAPE MAY	NJ	08204-1131	US			false		
113-0930144-2799412	50460369044514	2020-11-01T13:58:09+00:00	2020-11-01T05:58:09-08:00	2020-11-01T14:23:34+00:00	2020-11-04T07:59:59+00:00	-2	c1xqzddxlbvqkfx@marketplace.amazon.com	teresa rangel	+1 213-442-1463 ext. 51280	ABR0033	Delivery by Tuesday | Arabella Farm Direct Bouquet of 12 Fresh Cut Orange Roses with a Free Glass Vase	1	0	1	Expedited	Mary Kessler	10813 W DENHAM DR			SUN CITY	AZ	85351-4649	US		Happy Birthday Mom    I wish I could be there to celebrate your birthday .  I love you ❤️ and miss you!!!  I hope you have a great day 😘	false		
113-2217512-5773004	54804098575442	2020-11-01T13:59:53+00:00	2020-11-01T05:59:53-08:00	2020-11-01T14:24:44+00:00	2020-11-04T07:59:59+00:00	-2	kkn9tmww0qbdv3m@marketplace.amazon.com	john	+561-213-2273	ABR001	Delivery by Tuesday | Arabella Bouquets 12 Stems of Fresh Cut Red Roses in a Free Designer Glass Vase	1	0	1	Expedited	Connie Hutson	213 W MULBERRY ST			WAYNESFIELD	OH	45896-9498	US		Hey Con!  Take this time to stop smell the roses!!! From Brother John and Sue	true		Business Price
113-2047617-9248269	68912475700226	2020-11-01T14:22:06+00:00	2020-11-01T06:22:06-08:00	2020-11-01T14:45:52+00:00	2020-11-04T07:59:59+00:00	-2	5231br5qt3rbgjv@marketplace.amazon.com	Juan Rodriguez	+1 480-618-5344 ext. 64959	ABR001	Delivery by Tuesday | Arabella Bouquets 12 Stems of Fresh Cut Red Roses in a Free Designer Glass Vase	1	0	1	Expedited	OBGYN GROUP OF EASTERN CT/ CO Norma I De La Cruz	2600 TAMARACK AVE STE 200			SOUTH WINDSOR	CT	06074-5560	US		To my one and only Girl I want to share my life with You From Juan Rodriguez	false		
113-9383033-7377066	10850059074714	2020-11-01T14:26:05+00:00	2020-11-01T06:26:05-08:00	2020-11-01T14:55:36+00:00	2020-11-04T07:59:59+00:00	-2	dhkjt5l47mjbbzj@marketplace.amazon.com	Julie Hwayoung C Shepherd	+1 213-442-1463 ext. 34359	ABM010	Delivery by Tuesday | The Spring Fling Bouquet by Arabella Bouquets with a Free Designer Glass Vase	1	0	1	Expedited	Hyunyoung Cho	3 CHESAPEAKE CT			PRINCETON JUNCTION	NJ	08550-2212	US		We hope you feel better soon!!!  We LOVE YOU immo!!! From Kai, Cory, and Hwayoung	false		
111-6381512-4283440	52710623045186	2020-11-01T14:30:00+00:00	2020-11-01T06:30:00-08:00	2020-11-01T14:59:52+00:00	2020-11-04T07:59:59+00:00	-2	7g200f501h1tj19@marketplace.amazon.com	Deepti Palande	+1 213-442-1463 ext. 74210	ABR0022	Delivery by Tuesday | Arabella Farm Direct Bouquet of 12 Fresh Cut Pink Roses with a Free Glass Vase	1	0	1	Expedited	Sagar Palande	276 MILL RD APT 1103	CHELMSFORD MA		CHELMSFORD	MA	01824-4106	US			false		
114-5012744-1569809	52018417027714	2020-11-01T15:02:11+00:00	2020-11-01T07:02:11-08:00	2020-11-01T15:15:36+00:00	2020-11-04T07:59:59+00:00	-2	n3wkzrmgtp824t3@marketplace.amazon.com	Angela Winter	+1 619-854-2705 ext. 58506	ABR0055	Delivery by Tuesday | Arabella Farm Direct Bouquet of 12 Stems of Fresh Cut Hot Pink Roses in a Free Designer Glass Vase	1	0	1	Expedited	Patricia Winter rm 139	MENTOR RIDGE REHABILITATION	8151 NORTON PKWY		MENTOR	OH	44060-6055	US		Happy Birthday Mom  Love Bob, Angela, IZZY and Jack From Bob Winter	false		
111-0976044-3889062	51720223951970	2020-11-01T14:48:50+00:00	2020-11-01T06:48:50-08:00	2020-11-01T15:17:05+00:00	2020-11-04T07:59:59+00:00	-2	j2rrdtsz4xdm0qq@marketplace.amazon.com	lucy adlington	+1 619-854-2705 ext. 60800	ABR0022	Delivery by Tuesday | Arabella Farm Direct Bouquet of 12 Fresh Cut Pink Roses with a Free Glass Vase	1	0	1	Expedited	Mrs B. Kohut	31 LATHAM ST			SAN RAFAEL	CA	94901-2742	US		Wishing you a wonderful birthday x From Lucy Adlington	false		
114-1300836-8627420	44432304247754	2020-11-01T15:32:28+00:00	2020-11-01T07:32:28-08:00	2020-11-01T16:00:26+00:00	2020-11-04T07:59:59+00:00	-2	st3ldkn815jl4hk@marketplace.amazon.com	William J. DiCola	+1 929-436-4790 ext. 44160	ABR0022	Delivery by Tuesday | Arabella Farm Direct Bouquet of 12 Fresh Cut Pink Roses with a Free Glass Vase	1	0	1	Expedited	Iona DiCola	6302 LYDIA HOLLOW DR			GLEN MILLS	PA	19342-1071	US		To you with all of my love💞 From Me	false		
113-4849632-2425813	39688644426994	2020-11-01T15:40:40+00:00	2020-11-01T07:40:40-08:00	2020-11-01T16:06:52+00:00	2020-11-04T07:59:59+00:00	-2	2wzp5n8f6c3cfp2@marketplace.amazon.com	Alice Kelley	+1 602-671-6610 ext. 86372	ABR0022	Delivery by Tuesday | Arabella Farm Direct Bouquet of 12 Fresh Cut Pink Roses with a Free Glass Vase	1	0	1	Standard	Laura Tanous-Marshall	40 TEAGUE AVE			TURNER	ME	04282-3517	US		Wishing my kind, beautiful cousin and best friend a very Happy Birthday!  Love you, Alice, Eric & Casey From Alice Kelley	false		
114-0102872-1843423	11697975433530	2020-11-01T15:42:39+00:00	2020-11-01T07:42:39-08:00	2020-11-01T16:09:19+00:00	2020-11-04T07:59:59+00:00	-2	0rhw6w858q57xvk@marketplace.amazon.com	leslie caracciolo	+1 619-854-2705 ext. 04392	ABR0022	Delivery by Tuesday | Arabella Farm Direct Bouquet of 12 Fresh Cut Pink Roses with a Free Glass Vase	1	0	1	Expedited	Diane Stravato	1796 N MONROE AVE			WEST ISLIP	NY	11795-1921	US		Hi Diane, Glad you’re feeling better! Love, Leslie	false		
114-0046503-7242654	12743633117650	2020-11-01T16:01:12+00:00	2020-11-01T08:01:12-08:00	2020-11-01T16:28:48+00:00	2020-11-04T07:59:59+00:00	-2	z1550t9512b2zz9@marketplace.amazon.com	Deanne Smith	+1 602-671-6610 ext. 06359	ABR0033	Delivery by Tuesday | Arabella Farm Direct Bouquet of 12 Fresh Cut Orange Roses with a Free Glass Vase	1	0	1	Expedited	Teresa Klein-Smith	5282 PROSPECTOR CIR			BANNING	CA	92220-3319	US		Happy birthday From Deanne Smith	false		
114-6456020-7830668	31142264799586	2020-11-01T16:45:19+00:00	2020-11-01T08:45:19-08:00	2020-11-01T17:14:19+00:00	2020-11-04T07:59:59+00:00	-2	10z9q7vmphh340c@marketplace.amazon.com	Kimberly Skelly	+1 929-436-4790 ext. 94724	ABR0022	Delivery by Tuesday | Arabella Farm Direct Bouquet of 12 Fresh Cut Pink Roses with a Free Glass Vase	1	0	1	Expedited	Tiffany Bell	4218 W ROGERS AVE			BALTIMORE	MD	21215-4336	US		You got this! Hugs and kisses!   Love You! From Kimberly Skelly	false		
114-3263644-6447433	12952665940378	2020-11-01T17:01:08+00:00	2020-11-01T09:01:08-08:00	2020-11-01T17:31:18+00:00	2020-11-04T07:59:59+00:00	-2	dhc3xmmq84b8qfv@marketplace.amazon.com	Ashley	+1 213-442-1463 ext. 74158	ABR0022	Delivery by Tuesday | Arabella Farm Direct Bouquet of 12 Fresh Cut Pink Roses with a Free Glass Vase	1	0	1	Expedited	Melanie Salvino	10774 WHISPERWOODS CV			COLLIERVILLE	TN	38017-8532	US			false		
112-6741156-7463414	46524490632090	2020-11-01T17:37:27+00:00	2020-11-01T09:37:27-08:00	2020-11-01T17:48:33+00:00	2020-11-04T07:59:59+00:00	-2	q3qmsdpyt155tfz@marketplace.amazon.com	Steve Chazaro	+1 619-854-2705 ext. 54169	ABR0022	Delivery by Tuesday | Arabella Farm Direct Bouquet of 12 Fresh Cut Pink Roses with a Free Glass Vase	1	0	1	Expedited	Alícia C. Reinhart	11385 COUNTY LINE RD			CHESTERLAND	OH	44026-1248	US		Vince  With our deepest sympathy you are in our hearts. We loved Alícia From Cecilia Chazaro and children	false		
112-3056479-1727451	62011427173994	2020-11-01T17:25:52+00:00	2020-11-01T09:25:52-08:00	2020-11-01T17:55:54+00:00	2020-11-04T07:59:59+00:00	-2	ks7b78r0y2zfm8n@marketplace.amazon.com	Steve Freschi	+1 213-442-1463 ext. 04231	ABM020	Delivery by Tuesday | The Sunset Bouquet by Arabella Bouquets	1	0	1	Expedited	M. Caitlin Freschi	1527 N WESTERN AVE APT 3			CHICAGO	IL	60622-1747	US			false		
111-2645826-4410640	63163445608370	2020-11-01T17:39:52+00:00	2020-11-01T09:39:52-08:00	2020-11-01T18:10:26+00:00	2020-11-04T07:59:59+00:00	-2	ljbqyy7y0mtgpkx@marketplace.amazon.com	Melissa P	+1 929-436-4790 ext. 69493	ABR0022	Delivery by Tuesday | Arabella Farm Direct Bouquet of 12 Fresh Cut Pink Roses with a Free Glass Vase	1	0	1	Expedited	Mei Mei Peng	16 CANTERBURY RD APT 3-O			GREAT NECK	NY	11021-2133	US			false		
112-7785893-0127465	24025161514234	2020-11-01T17:52:53+00:00	2020-11-01T09:52:53-08:00	2020-11-01T18:19:32+00:00	2020-11-04T07:59:59+00:00	-2	1r3kjyt3r9h0rmv@marketplace.amazon.com	DOROTHY DEPHILLIP	+1 415-851-9136 ext. 65286	ABR0055	Delivery by Tuesday | Arabella Farm Direct Bouquet of 12 Stems of Fresh Cut Hot Pink Roses in a Free Designer Glass Vase	1	0	1	Expedited	Jinny Wathen	GOLDEN LIFE ASSISTED LIVING	3876 OLD WASHINGTON RD		WALDORF	MD	20602-3215	US		Happy Birthday!  Hope it's great! With Love, Bobby and Dorothy From BOBBY AND DOROTHY DEPHILLIP	false		
112-3094378-4478609	70063611587082	2020-11-01T17:52:51+00:00	2020-11-01T09:52:51-08:00	2020-11-01T18:20:17+00:00	2020-11-04T07:59:59+00:00	-2	rd7fb880wnv9y3r@marketplace.amazon.com	Karen Murphy	+1 619-854-2705 ext. 76638	ABR0022	Delivery by Tuesday | Arabella Farm Direct Bouquet of 12 Fresh Cut Pink Roses with a Free Glass Vase	1	0	1	Expedited	Eva Murphy Olson	Vantage Glen Unit 159	18100 107th Place SE		Renton	Washington	98055-6489	US		Happy Birthday Eva,  Much love on your birthday! We miss you. From The Murphy Family	false		
114-7026855-7914642	66743664695458	2020-11-01T18:11:55+00:00	2020-11-01T10:11:55-08:00	2020-11-01T18:36:38+00:00	2020-11-04T07:59:59+00:00	-2	gkwgp89r3b05stz@marketplace.amazon.com	kathy velardi	+1 213-442-1463 ext. 39644	ABR0066	Delivery by Tuesday | Arabella Bouquets 12 Stems of Fresh Cut White Roses in a Free Designer Glass Vase	1	0	1	Expedited	Nancy Donovan	5712 TRAILVIEW CT APT B22			FREDERICK	MD	21703-8285	US			false		
114-9244318-2629017	56324357172834	2020-11-01T18:32:20+00:00	2020-11-01T10:32:20-08:00	2020-11-01T19:00:18+00:00	2020-11-04T07:59:59+00:00	-2	05plz1dwwnppk3n@marketplace.amazon.com	maddie	+1 602-671-6610 ext. 14678	ABR0022	Delivery by Tuesday | Arabella Farm Direct Bouquet of 12 Fresh Cut Pink Roses with a Free Glass Vase	1	0	1	Expedited	Kim Vitale	10 FISHER AVE			MOHAWK	NY	13407-1537	US			false		
114-5744721-4165844	37618053380306	2020-11-01T18:33:05+00:00	2020-11-01T10:33:05-08:00	2020-11-01T19:03:39+00:00	2020-11-04T07:59:59+00:00	-2	h94m290h87lksj7@marketplace.amazon.com	Maura Sullivan	+1 602-671-6610 ext. 09557	ABR001	Delivery by Tuesday | Arabella Bouquets 12 Stems of Fresh Cut Red Roses in a Free Designer Glass Vase	1	0	1	Expedited	David D Krizanc	175 Gates St			Portsmouth	NH	03801-4607	US			false		
113-1145800-8854660	28821492726162	2020-11-01T18:49:04+00:00	2020-11-01T10:49:04-08:00	2020-11-01T19:17:25+00:00	2020-11-04T07:59:59+00:00	-2	lyw7w463wwz5f2m@marketplace.amazon.com	Alexandra	+1 213-442-1463 ext. 64726	ABR0022	Delivery by Tuesday | Arabella Farm Direct Bouquet of 12 Fresh Cut Pink Roses with a Free Glass Vase	1	0	1	Expedited	Leif and Barb Berg	6147 LAKEFRONT ST			DURHAM	NC	27703-6572	US		We had such a great time in New Orleans, thank you for a great weekend! Stay safe this week. From Alexandra	false		
113-4010115-5401804	66505382898994	2020-11-01T19:12:23+00:00	2020-11-01T11:12:23-08:00	2020-11-01T19:40:52+00:00	2020-11-04T07:59:59+00:00	-2	x0l40sc0xgqr3k5@marketplace.amazon.com	Nick	+1 929-436-4790 ext. 32329	ABR0022	Delivery by Tuesday | Arabella Farm Direct Bouquet of 12 Fresh Cut Pink Roses with a Free Glass Vase	1	0	1	Expedited	Daniele Lowry	2319 ILLINOIS AVE			NEW HOLSTEIN	WI	53061-1214	US		To the one who make my heart smiles 😘 From Nick	false		
113-8866297-1268225	33969784597946	2020-11-01T19:20:13+00:00	2020-11-01T11:20:13-08:00	2020-11-01T19:47:45+00:00	2020-11-04T07:59:59+00:00	-2	92q3hm59lmsj9kd@marketplace.amazon.com	Eric L Fisher	+1 602-671-6610 ext. 89458	ABM010	Delivery by Tuesday | The Spring Fling Bouquet by Arabella Bouquets with a Free Designer Glass Vase	1	0	1	Expedited	Wilson S Comer	4030 CARDINAL AT NORTH HILLS ST	APT 430		RALEIGH	NC	27609-2625	US			false		
111-2031664-7520263	11029287515994	2020-11-01T19:31:08+00:00	2020-11-01T11:31:08-08:00	2020-11-01T19:58:07+00:00	2020-11-04T07:59:59+00:00	-2	42nqr0jdv3zshwg@marketplace.amazon.com	Paul Steigerwald	+1 619-854-2705 ext. 87197	ABR0022	Delivery by Tuesday | Arabella Farm Direct Bouquet of 12 Fresh Cut Pink Roses with a Free Glass Vase	1	0	1	Expedited	Emily and Dennis Pederson	9331 PRAIRIE TRAILS DR			SPRING	TX	77379-4448	US		With deepest sympathy at the passing of  your brother and love in Christ Jesus, our Savior. From Paul and ShelleySteigerwald	false		
113-7377044-8006642	60082217506794	2020-11-01T20:22:05+00:00	2020-11-01T12:22:05-08:00	2020-11-01T20:50:46+00:00	2020-11-04T07:59:59+00:00	-2	62v66lh687lxbfb@marketplace.amazon.com	Rosemarie Frushon	+1 415-851-9136 ext. 95858	ABM010	Delivery by Tuesday | The Spring Fling Bouquet by Arabella Bouquets with a Free Designer Glass Vase	1	0	1	Expedited	Janice Frushon	1001 OTTER MILL WAY			SUN CITY CENTER	FL	33573-7045	US			false		
114-4714709-1335450	64051675770746	2020-11-01T20:29:47+00:00	2020-11-01T12:29:47-08:00	2020-11-01T20:58:34+00:00	2020-11-04T07:59:59+00:00	-2	0txhvnppjc283bh@marketplace.amazon.com	Julie Missimore	+1 619-854-2705 ext. 48589	ABM020	Delivery by Tuesday | The Sunset Bouquet by Arabella Bouquets	1	0	1	Expedited	Judy Missimore	1171 COMPASS LN APT 114			FOSTER CITY	CA	94404-3421	US		We were thinking of you and wanted to send you flowers to let you know! From Julie, Cory, Caleb & Eleanor	false		
111-5105205-2609029	55193706877466	2020-11-01T20:58:49+00:00	2020-11-01T12:58:49-08:00	2020-11-01T21:29:25+00:00	2020-11-04T07:59:59+00:00	-2	4jdksnglpv8ryy9@marketplace.amazon.com	Tino	+1 619-854-2705 ext. 82330	ABR0066	Delivery by Tuesday | Arabella Bouquets 12 Stems of Fresh Cut White Roses in a Free Designer Glass Vase	1	0	1	Expedited	Jacqueline	14932 COLBY PL			FONTANA	CA	92337-3418	US			false		
113-6533704-1621869	64303651744474	2020-11-01T21:20:15+00:00	2020-11-01T13:20:15-08:00	2020-11-01T21:46:26+00:00	2020-11-04T07:59:59+00:00	-2	phcfly8thxmp23t@marketplace.amazon.com	Anne Hale	+1 602-671-6610 ext. 35018	ABR0022	Delivery by Tuesday | Arabella Farm Direct Bouquet of 12 Fresh Cut Pink Roses with a Free Glass Vase	1	0	1	Expedited	Kim Peterson	2131 SUNRISE DR			APPLETON	WI	54914-8701	US		Happy Belated Birthday Kim!  You make a huge difference for Bellin!  So glad to work with you!  Take Care, Anne From Anne Hale	false		
114-5046724-5869869	54884234748266	2020-11-01T21:23:21+00:00	2020-11-01T13:23:21-08:00	2020-11-01T21:52:17+00:00	2020-11-04T07:59:59+00:00	-2	5yfgbhb9390ww0f@marketplace.amazon.com	Lindsay	+1 602-671-6610 ext. 13478	ABM010	Delivery by Tuesday | The Spring Fling Bouquet by Arabella Bouquets with a Free Designer Glass Vase	1	0	1	Expedited	Linda Robitaille	11811 GOLDENROD AVE			BRADENTON	FL	34212-0019	US		Happy birthday, Grandma! We wish we could be with you celebrating today. Miss you so very much. Hope you have the BEST day. Love you so much! From Lindsay and Patrick	false		
111-6381788-6297021	44182158009466	2020-11-01T21:40:51+00:00	2020-11-01T13:40:51-08:00	2020-11-01T22:10:46+00:00	2020-11-04T07:59:59+00:00	-2	256lpgqmfs1p748@marketplace.amazon.com	Laura Vopelius	+1 602-671-6610 ext. 17316	ABR0022	Delivery by Tuesday | Arabella Farm Direct Bouquet of 12 Fresh Cut Pink Roses with a Free Glass Vase	1	0	1	Expedited	Laura Vopelius	5 KIRKDALE DR			MARLTON	NEW JERSEY	08053-2519	US			false		
114-0800114-8589843	36613015339314	2020-11-01T22:12:40+00:00	2020-11-01T14:12:40-08:00	2020-11-01T22:36:21+00:00	2020-11-04T07:59:59+00:00	-2	9r55d2fwrrpqx53@marketplace.amazon.com	David Rossman	+1 213-442-1463 ext. 72443	ABR0022	Delivery by Tuesday | Arabella Farm Direct Bouquet of 12 Fresh Cut Pink Roses with a Free Glass Vase	1	0	1	Expedited	Erin Lerma	1305 WALNUT CV			CEDAR PARK	TX	78613-3773	US			false		
112-8388273-5593850	63543674100546	2020-11-01T23:26:07+00:00	2020-11-01T15:26:07-08:00	2020-11-01T23:54:04+00:00	2020-11-04T07:59:59+00:00	-2	722yh5q797cgsr5@marketplace.amazon.com	Steve Dermit	+1 213-442-1463 ext. 60740	ABM020	Delivery by Tuesday | The Sunset Bouquet by Arabella Bouquets	1	0	1	Expedited	Terri Smith	2302 S WALNUT DR			SAINT ALBANS	WV	25177-3947	US		Happy Birthday Sweet Pea!  I Love You! From Steve Dermit	false		
113-4619854-9088266	02806118566770	2020-11-01T23:38:04+00:00	2020-11-01T15:38:04-08:00	2020-11-02T00:08:46+00:00	2020-11-04T07:59:59+00:00	-2	qslrccbyhpyh4xj@marketplace.amazon.com	Colleen	+1 480-618-5344 ext. 02359	ABR0022	Delivery by Tuesday | Arabella Farm Direct Bouquet of 12 Fresh Cut Pink Roses with a Free Glass Vase	1	0	1	Expedited	Colleen Payne	6612 ROCKVIEW WAY			LOUISVILLE	KY	40299-4267	US			false		
112-8066024-9951434	08708656432538	2020-11-01T23:45:27+00:00	2020-11-01T15:45:27-08:00	2020-11-02T00:14:24+00:00	2020-11-04T07:59:59+00:00	-2	yvhs1gjh2j42r2z@marketplace.amazon.com	SANDY JOHNSON	+1 415-851-9136 ext. 60541	ABR0022	Delivery by Tuesday | Arabella Farm Direct Bouquet of 12 Fresh Cut Pink Roses with a Free Glass Vase	1	0	1	Expedited	Sandy Taylor	3304 LINCOLN AVE NE			RENTON	WA	98056-8013	US		Thinking of you all. From Sandy and  Bruce	false		
111-9977739-8163420	08104753513698	2020-11-02T00:45:43+00:00	2020-11-01T16:45:43-08:00	2020-11-02T01:13:23+00:00	2020-11-04T07:59:59+00:00	-2	qrp3f7sgxyblb13@marketplace.amazon.com	Linda C. Foster	+1 602-671-6610 ext. 27549	ABR0022	Delivery by Tuesday | Arabella Farm Direct Bouquet of 12 Fresh Cut Pink Roses with a Free Glass Vase	1	0	1	Expedited	Jennifer Michael	7021 RIPPLING STONE LN			RALEIGH	NC	27612-7253	US		We are thinking of you and sending our love.   Linda and Randy From Linda C. Foster	false		
114-1483328-0026627	51509309632138	2020-11-02T00:50:28+00:00	2020-11-01T16:50:28-08:00	2020-11-02T01:17:51+00:00	2020-11-04T07:59:59+00:00	-2	tt3rcxf97gt19lj@marketplace.amazon.com	JASON GRAYBILL	+1 619-854-2705 ext. 79561	ABM020	Delivery by Tuesday | The Sunset Bouquet by Arabella Bouquets	1	0	1	Expedited	Wallie Graybill	7609 NW 32ND ST			BETHANY	OK	73008-3606	US		Happy Birthday Week Mom !!   Hope you have a great birthday and week!  I love you - From JASON	false		
113-0021111-4923477	58883402339962	2020-11-02T01:07:22+00:00	2020-11-01T17:07:22-08:00	2020-11-02T01:36:46+00:00	2020-11-04T07:59:59+00:00	-2	2x1rg63zn60fpyp@marketplace.amazon.com	Daniel Corlazzoli-Capote	+1 213-442-1463 ext. 56887	ABR0022	Delivery by Tuesday | Arabella Farm Direct Bouquet of 12 Fresh Cut Pink Roses with a Free Glass Vase	1	0	1	Expedited	Samantha Sheinker	3300 NE 192ND ST APT 213			AVENTURA	FL	33180-2428	US		Happy Birthday Sam! I wish I could be there with you to celebrate. I hope to see you soon so we can celebrate together love you From Daniel	false		
112-6102872-8415425	55792015545378	2020-11-02T01:35:02+00:00	2020-11-01T17:35:02-08:00	2020-11-02T02:01:52+00:00	2020-11-04T07:59:59+00:00	-2	8n847qs51dbxdpg@marketplace.amazon.com	Kimberly A Jacobs	+1 213-442-1463 ext. 58966	ABR0022	Delivery by Tuesday | Arabella Farm Direct Bouquet of 12 Fresh Cut Pink Roses with a Free Glass Vase	1	0	1	Expedited	Angela Fry	1471 WYNOOCHE VALLEY RD			MONTESANO	WA	98563-9311	US		Angela (and Donny) ....  So very sorry for your loss.  The wonderful memories you have w/her will fill your heart for a lifetime.  You were a fantastic, caring daughter & she went knowing this.  HUGS. From Kim & Johnny	false		
114-2592819-1532202	32246091111370	2020-11-02T02:10:00+00:00	2020-11-01T18:10:00-08:00	2020-11-02T02:36:24+00:00	2020-11-04T07:59:59+00:00	-2	9yb56j0vg7z25ph@marketplace.amazon.com	Patricia R. Steigerwald	+1 480-618-5344 ext. 39316	ABR0022	Delivery by Tuesday | Arabella Farm Direct Bouquet of 12 Fresh Cut Pink Roses with a Free Glass Vase	1	0	1	Expedited	Mrs. Mary Steigerwald	BROOKDALE 1200 CARLOS DR APT 410			RALEIGH	NC	27609-4777	US		Dear Mary, We hope you heal quickly and enjoy the flowers. Thinking of you with love! From John, Pattie and family	false		
114-0493396-4143464	59136936283474	2020-11-02T02:37:06+00:00	2020-11-01T18:37:06-08:00	2020-11-02T02:58:39+00:00	2020-11-04T07:59:59+00:00	-2	x9w25p2jhrnn6bm@marketplace.amazon.com	Danielle Vince	+1 602-671-6610 ext. 33317	ABM010	Delivery by Tuesday | The Spring Fling Bouquet by Arabella Bouquets with a Free Designer Glass Vase	1	0	1	Expedited	Lisa Ferriera	7490 COMMON OAK DR			STANLEY	NC	28164-7817	US		Happy Birthday BFF! Today I celebrate what a smart, kind, funny, giving person you are. I hope you enjoy your day and feel valued!  I am grateful to have you in my life. I wish I could be there to celebrate with you. XOXO From Dani	false		
111-2154546-5272231	35111888871794	2020-11-02T02:30:52+00:00	2020-11-01T18:30:52-08:00	2020-11-02T02:59:16+00:00	2020-11-04T07:59:59+00:00	-2	l74whp5dtng1mxw@marketplace.amazon.com	Krystal Dogolo	+1 929-436-4790 ext. 14843	ABM020	Delivery by Tuesday | The Sunset Bouquet by Arabella Bouquets	1	0	1	Expedited	Maryanne Bauknecht	86 HELLSTROM RD			EAST HAVEN	CT	06512-1320	US		Happy Birthday! From Krystal & Mike	false		
111-7951342-4049052	33390469183682	2020-11-02T02:31:43+00:00	2020-11-01T18:31:43-08:00	2020-11-02T03:00:15+00:00	2020-11-04T07:59:59+00:00	-2	6g5nxf7g4bpml0q@marketplace.amazon.com	BRGview	+1 415-851-9136 ext. 13393	ABR0055	Delivery by Tuesday | Arabella Farm Direct Bouquet of 12 Stems of Fresh Cut Hot Pink Roses in a Free Designer Glass Vase	1	0	1	Expedited	Wendy Gaze	305 KIMBALL TRCE			ALPHARETTA	GA	30022-6427	US		Happy Birthday sweetheart!! From your husband ;)	false		
111-2719204-9801843	30582745530082	2020-11-02T02:55:59+00:00	2020-11-01T18:55:59-08:00	2020-11-02T03:25:22+00:00	2020-11-04T07:59:59+00:00	-2	hhctyrbvwm80507@marketplace.amazon.com	Nicole Weinstein	+1 929-436-4790 ext. 46802	ABR0022	Delivery by Tuesday | Arabella Farm Direct Bouquet of 12 Fresh Cut Pink Roses with a Free Glass Vase	1	0	1	Expedited	Sheryl Weinstein	11734 E WINDROSE DR			SCOTTSDALE	AZ	85259-2745	US		Happy birthday momma bear! I love you so much <3! Your first born. From Nicole Weinstein	false		
112-8376912-4397831	00443842117594	2020-11-02T02:45:52+00:00	2020-11-01T18:45:52-08:00	2020-11-02T03:30:19+00:00	2020-11-04T07:59:59+00:00	-2	1mk64qf7d1xksns@marketplace.amazon.com	victoria english	+1 480-618-5344 ext. 48946	ABR0022	Delivery by Tuesday | Arabella Farm Direct Bouquet of 12 Fresh Cut Pink Roses with a Free Glass Vase	1	0	1	Expedited	Lauren Lage	9038 WHITE SAGE LOOP			LAKEWOOD RANCH	FL	34202-6411	US		Dear Lauren,  I am so honored to have watched you grow into the woman that God intends you to become. Your future self thanks you, and you are so deeply loved!  Love, Momma From Victoria English	false		
114-5614959-4699427	58358704136594	2020-11-02T03:55:11+00:00	2020-11-01T19:55:11-08:00	2020-11-02T04:25:19+00:00	2020-11-04T07:59:59+00:00	-2	57vmphxqgxt6scl@marketplace.amazon.com	Kathrine Ley	+1 213-442-1463 ext. 55640	ABR0022	Delivery by Tuesday | Arabella Farm Direct Bouquet of 12 Fresh Cut Pink Roses with a Free Glass Vase	1	0	1	Expedited	Becky Bullard	1220 TASMAN DR SPC 137			SUNNYVALE	CA	94089-2443	US			false		
112-1067752-2996241	23630000894930	2020-11-02T04:49:20+00:00	2020-11-01T20:49:20-08:00	2020-11-02T05:14:58+00:00	2020-11-04T07:59:59+00:00	-2	2qyn9fdnhn10hgs@marketplace.amazon.com	john najima	+1 213-442-1463 ext. 16126	ABR0055	Delivery by Tuesday | Arabella Farm Direct Bouquet of 12 Stems of Fresh Cut Hot Pink Roses in a Free Designer Glass Vase	1	0	1	Expedited	Cathy Shiraki	2432 DESERT BUTTE DR			LAS VEGAS	NV	89134-8865	US		Wishing you peace and strength during this difficult time From John and Donna Najima	false		
113-7827084-2754668	69944890010914	2020-11-02T05:11:33+00:00	2020-11-01T21:11:33-08:00	2020-11-02T05:38:35+00:00	2020-11-04T07:59:59+00:00	-2	5clwvgy37k3rn46@marketplace.amazon.com	Hongjie Zhu	+1 929-436-4790 ext. 43366	ABR0033	Delivery by Tuesday | Arabella Farm Direct Bouquet of 12 Fresh Cut Orange Roses with a Free Glass Vase	1	0	1	Expedited	Lisa Li	19203 PRESERVE OAK			SAN ANTONIO	TX	78258-4509	US		亲爱的美女老板，Happy Birthday! Love you and thank you from the bottom of my heart! From Gracie Zhu	false		
111-3904842-1444222	58393442351386	2020-11-02T08:37:39+00:00	2020-11-02T00:37:39-08:00	2020-11-02T09:02:22+00:00	2020-11-05T07:59:59+00:00	-3	slffdwc9fvblcd1@marketplace.amazon.com	Jeanette Bellaci	+1 929-436-4790 ext. 83717	ABR0033	Delivery by Tuesday | Arabella Farm Direct Bouquet of 12 Fresh Cut Orange Roses with a Free Glass Vase	1	0	1	Expedited	Rachelle Sanchez	3011 SUMMIT VIEW DR			SAN RAMON	CA	94582-5651	US		Happy 50th Birthday Rachelle  I wish you many blessings. Love, Jeanette From Jeanette Bellaci	false		
111-3272806-1090657	59827217188362	2020-11-02T10:35:41+00:00	2020-11-02T02:35:41-08:00	2020-11-02T11:04:42+00:00	2020-11-05T07:59:59+00:00	-3	mv7yfcsx0gyrn4z@marketplace.amazon.com	Patricia Warshell	+1 602-671-6610 ext. 24040	ABR0022	Delivery by Tuesday | Arabella Farm Direct Bouquet of 12 Fresh Cut Pink Roses with a Free Glass Vase	1	0	1	Expedited	Deanna Clark	11428 BLUFF CREEK DR			OKLAHOMA CITY	OK	73162-3725	US		Happy Birthday Deanna. XXX From Trish, Sean, Ashley and the girls Ella and Audrey	false		
111-4433663-7126631	70110734868626	2020-11-02T10:58:54+00:00	2020-11-02T02:58:54-08:00	2020-11-02T11:20:16+00:00	2020-11-05T07:59:59+00:00	-3	kxz9jklp3zkpgtx@marketplace.amazon.com	Maria Elena Merlo Martinez	+1 480-618-5344 ext. 66839	ABR0022	Delivery by Tuesday | Arabella Farm Direct Bouquet of 12 Fresh Cut Pink Roses with a Free Glass Vase	1	0	1	Expedited	DONNA O'CONNOR	102 OLSON ST			ABINGTON	MA	02351-2382	US		DEAR DONNA. HAVE A WONDERFUL DAY!. LOTS OF LOVE FROM ELENA From Maria Elena Merlo Martinez	false		
114-7321429-6260250	62510582197018	2020-11-02T11:46:18+00:00	2020-11-02T03:46:18-08:00	2020-11-02T12:15:27+00:00	2020-11-05T07:59:59+00:00	-3	k133wlhqcchn8yz@marketplace.amazon.com	Alyssa	+1 480-618-5344 ext. 26000	ABM020	Delivery by Tuesday | The Sunset Bouquet by Arabella Bouquets	1	0	1	Expedited	Elaine Woodall	4 JESSUP CT			CARMEL	NY	10512-4910	US		Elaine, Happy birthday! I hope your day is as wonderful as you. The puppies say they love and miss you From Love, Alyssa	false		
112-4229646-3951423	60360640243338	2020-11-02T12:48:13+00:00	2020-11-02T04:48:13-08:00	2020-11-02T13:12:35+00:00	2020-11-05T07:59:59+00:00	-3	j9d2cxyq551rnpz@marketplace.amazon.com	Elaine Radis	+1 619-854-2705 ext. 82925	ABM020	Delivery by Tuesday | The Sunset Bouquet by Arabella Bouquets	1	0	1	Expedited	Molly MacDonald & Mark Bedine	29 PETER PARLEY RD APT 3			JAMAICA PLAIN	MA	02130-4951	US		Sadie Macs flowers, the first of. many in her life  With love Great Grandma From Elaine Radis	false		
114-8822998-1040252	09372725535026	2020-11-02T12:53:50+00:00	2020-11-02T04:53:50-08:00	2020-11-02T13:23:43+00:00	2020-11-05T07:59:59+00:00	-3	jvt82k6ypsx474c@marketplace.amazon.com	Hector	+1 480-618-5344 ext. 27802	ABR0022	Delivery by Tuesday | Arabella Farm Direct Bouquet of 12 Fresh Cut Pink Roses with a Free Glass Vase	1	0	1	Expedited	Hector Perez	1003 PATTON AVE			READING	PA	19611-1729	US			false		
111-3701368-6430621	26398067910074	2020-11-02T13:01:12+00:00	2020-11-02T05:01:12-08:00	2020-11-02T13:27:54+00:00	2020-11-05T07:59:59+00:00	-3	25rwh09fr4tms0g@marketplace.amazon.com	Lynda Sahnow	+1 213-442-1463 ext. 88801	ABM022	Delivery by Tuesday | Purple Extravagance Bouquet by Arabella Bouquets	1	0	1	Expedited	David Roth	1222 2ND ST			CHENEY	WA	99004-1807	US		Dear Danielle and David,   Thank you for accepting our packages at your house. We really appreciate your help!   Happy Fall!   Lynda and Ron From Lynda Sahnow	false		
113-6118535-2569864	36979008213002	2020-11-02T13:02:02+00:00	2020-11-02T05:02:02-08:00	2020-11-02T13:32:30+00:00	2020-11-05T07:59:59+00:00	-3	ggy2dgprgjz1k8n@marketplace.amazon.com	Karen V. Johnson	+1 213-442-1463 ext. 15209	ABR0055	Delivery by Tuesday | Arabella Farm Direct Bouquet of 12 Stems of Fresh Cut Hot Pink Roses in a Free Designer Glass Vase	1	0	1	Expedited	Caty and Hans Otten	404 BOW LN			GILBERTSVILLE	PA	19525-9180	US			false		
112-4420456-8355462	28798590432098	2020-11-02T13:14:49+00:00	2020-11-02T05:14:49-08:00	2020-11-02T13:41:44+00:00	2020-11-05T07:59:59+00:00	-3	rcb8krqdz1hts2r@marketplace.amazon.com	Kelly K Bacon	+1 602-671-6610 ext. 84241	ABM010	Delivery by Tuesday | The Spring Fling Bouquet by Arabella Bouquets with a Free Designer Glass Vase	1	0	1	Expedited	Shelby Gorski	111 RICHLAND DR			WAKE FOREST	NC	27587-6624	US		Happy Birthday!! Love ya!  Kelly and Bruce From Kelly K Bacon	false		
112-6779652-2955457	56725478992946	2020-11-02T13:34:32+00:00	2020-11-02T05:34:32-08:00	2020-11-02T14:02:20+00:00	2020-11-05T07:59:59+00:00	-3	v8bzr35w9symqzl@marketplace.amazon.com	Colleen	+1 619-854-2705 ext. 08488	ABM020	Delivery by Tuesday | The Sunset Bouquet by Arabella Bouquets	1	0	1	Expedited	Jessica Johnson	12724 KILLDEER ST NW			COON RAPIDS	MN	55448-7052	US		Wishing you a speed recovery with love!!! From Your Freedom Family!!	false		
113-7500981-8408202	29597849846202	2020-11-02T13:35:44+00:00	2020-11-02T05:35:44-08:00	2020-11-02T14:05:19+00:00	2020-11-05T07:59:59+00:00	-3	3w9tsz56zw9ppgh@marketplace.amazon.com	Cheryl Statzel	+1 213-442-1463 ext. 81452	ABM020	Delivery by Tuesday | The Sunset Bouquet by Arabella Bouquets	1	0	1	Expedited	Christine Statzel	6672 MONTRESOR PL			ALTA LOMA	CALIFORNIA	91737-4363	US			false		
113-3190870-7538612	19164556225170	2020-11-02T13:40:24+00:00	2020-11-02T05:40:24-08:00	2020-11-02T14:06:56+00:00	2020-11-05T07:59:59+00:00	-3	dvzkzh4nk8sbpcm@marketplace.amazon.com	Jennifer Davis	+1 602-671-6610 ext. 96430	ABR0022	Delivery by Tuesday | Arabella Farm Direct Bouquet of 12 Fresh Cut Pink Roses with a Free Glass Vase	1	0	1	Expedited	Kristin Smith	420 PARK AVE			COOS BAY	OR	97420-2232	US		Happy 45th!! Wish I could be there! From Jennifer Davis	false		
114-9043089-2506638	63220377273658	2020-11-02T13:45:37+00:00	2020-11-02T05:45:37-08:00	2020-11-02T14:13:28+00:00	2020-11-05T07:59:59+00:00	-3	t7rq1w1sdv2hwy4@marketplace.amazon.com	Minami Imamura	+1 929-436-4790 ext. 42759	ABB011	Delivery by Thursday | Arabella Bouquets 24 Stems of Fresh Cut Hot Pink Roses in a Free Designer Glass Vase	1	0	1	Expedited	Mayra Romero	624 W 5TH ST APT 6			LONG BEACH	CA	90802-2123	US		I love you mi amor hermosa... Enjoy the gift! From Minami Imamura	false		
114-7300442-9489048	25530343031378	2020-11-02T13:51:48+00:00	2020-11-02T05:51:48-08:00	2020-11-02T14:28:09+00:00	2020-11-05T07:59:59+00:00	-3	rm38hq2knmy17sq@marketplace.amazon.com	willis m. king	+1 480-618-5344 ext. 07385	ABR0022	Delivery by Tuesday | Arabella Farm Direct Bouquet of 12 Fresh Cut Pink Roses with a Free Glass Vase	1	0	1	Expedited	willis maurice king	432 ELKINS LK 1672 GREEN BRIAR DR			HUNTSVILLE	TX	77340-7310	US		For Princess Daughter From willis m. king	false		
113-3875571-4627466	63925958176882	2020-11-02T14:19:16+00:00	2020-11-02T06:19:16-08:00	2020-11-02T14:44:43+00:00	2020-11-05T07:59:59+00:00	-3	048ycmj88f2y1rj@marketplace.amazon.com	Deborah L Hummel	+1 213-442-1463 ext. 09192	ABM022	Delivery by Tuesday | Purple Extravagance Bouquet by Arabella Bouquets	1	0	1	Expedited	Florence Jankowski	529 KIMBERLY CIR			WEST MELBOURNE	FL	32904-5728	US		Busha, We love you and wish you an incredible 93rd birthday! Bruce, Deb, Eric, Bryan, Dawn, Nici, Lucas, Cohen and Carter From You Hummel's	false		
111-3136085-4422652	47022719946154	2020-11-02T14:23:56+00:00	2020-11-02T06:23:56-08:00	2020-11-02T14:50:29+00:00	2020-11-05T07:59:59+00:00	-3	sm6w77d83zjwxzx@marketplace.amazon.com	Elizabeth A. Bracken	+1 619-854-2705 ext. 78108	ABR0033	Delivery by Tuesday | Arabella Farm Direct Bouquet of 12 Fresh Cut Orange Roses with a Free Glass Vase	1	0	1	Expedited	Amy Arblaster	6258 LUCIUSBORO RD			HOMER CITY	PA	15748-6404	US		Sending some November love this week since I forgot your October birthday!! Thank you for being YOU!! ♥️ Have a wonderful day my friend! Love, Beth From Elizabeth A. Bracken	false		
112-8949699-7837026	46761673294354	2020-11-02T14:21:36+00:00	2020-11-02T06:21:36-08:00	2020-11-02T14:52:09+00:00	2020-11-05T07:59:59+00:00	-3	bs6jlfngy3cn11f@marketplace.amazon.com	Cora Siegel	+1 602-671-6610 ext. 93066	ABM020	Delivery by Tuesday | The Sunset Bouquet by Arabella Bouquets	1	0	1	Expedited	Karen McKay	6253 BEARWALLOW MOUNTAIN RD			GERTON	NC	28735-9722	US			false		
113-5327626-5044256	64249143661050	2020-11-02T14:25:37+00:00	2020-11-02T06:25:37-08:00	2020-11-02T14:55:47+00:00	2020-11-05T07:59:59+00:00	-3	gcz043kg6tfz2mv@marketplace.amazon.com	Jan Steverlynck	+1 602-671-6610 ext. 37212	ABR0022	Delivery by Tuesday | Arabella Farm Direct Bouquet of 12 Fresh Cut Pink Roses with a Free Glass Vase	1	0	1	Expedited	JAN STEVERLYNCK	C/O MARIA LAURA STEVERLYNCK	3519 76TH ST APT 22		JACKSON HEIGHTS	NY	11372-4567	US			false		
114-1929133-7330625	50727358945922	2020-11-02T14:44:07+00:00	2020-11-02T06:44:07-08:00	2020-11-02T15:13:07+00:00	2020-11-05T07:59:59+00:00	-3	khlflckkp51fc35@marketplace.amazon.com	Ann Roering	+1 929-436-4790 ext. 87695	ABR0022	Delivery by Tuesday | Arabella Farm Direct Bouquet of 12 Fresh Cut Pink Roses with a Free Glass Vase	1	0	1	Expedited	Sarah Miller	3008 S BRANDING IRON CT			YUMA	AZ	85364-7445	US		Happy Anniversary!!  Sarah and Seth From Ann Roering	false		
113-5292255-8915467	42446415986850	2020-11-02T14:44:59+00:00	2020-11-02T06:44:59-08:00	2020-11-02T15:13:25+00:00	2020-11-05T07:59:59+00:00	-3	n0zmt695vmtptxl@marketplace.amazon.com	Genevieve Woods	+1 602-671-6610 ext. 48475	ABR0022	Delivery by Tuesday | Arabella Farm Direct Bouquet of 12 Fresh Cut Pink Roses with a Free Glass Vase	1	0	1	Expedited	Tabitha Parker	3500 TANGLE BRUSH DR APT 79			THE WOODLANDS	TX	77381-2938	US		Thinking of you and sending hugs. Love you bunches. From The Fam	false		
114-3640460-3181831	67802172901010	2020-11-02T14:52:52+00:00	2020-11-02T06:52:52-08:00	2020-11-02T15:21:11+00:00	2020-11-05T07:59:59+00:00	-3	k6sc8638rg0cwbc@marketplace.amazon.com	Jane Stutzman	+1 929-436-4790 ext. 06963	ABM023	Delivery by Thursday | The Morning Sun Bouquet by Arabella Bouquets	1	0	1	Expedited	Jen Rodriguez	52954 HOLLOW TRL			SOUTH BEND	IN	46628-7413	US			false		
114-0346255-3861850	19280501795274	2020-11-02T15:14:58+00:00	2020-11-02T07:14:58-08:00	2020-11-02T15:34:25+00:00	2020-11-05T07:59:59+00:00	-3	l471p3by8k8hq1x@marketplace.amazon.com	Kellien	+1 415-851-9136 ext. 03943	ABR0022	Delivery by Tuesday | Arabella Farm Direct Bouquet of 12 Fresh Cut Pink Roses with a Free Glass Vase	1	0	1	Expedited	Connie Shears	23331 VIA LINDA APT B			MISSION VIEJO	CA	92691-6859	US		Thinking of you!  Thank you for being such a beautiful inspiration!   You’re truly a blessing in my life!  Love you so much Connie! From Kellie	false		
112-0591714-0064218	55480424825138	2020-11-02T15:09:31+00:00	2020-11-02T07:09:31-08:00	2020-11-02T15:38:58+00:00	2020-11-05T07:59:59+00:00	-3	yvcftvhm4c1sg50@marketplace.amazon.com	Gary Pritchett	+1 415-851-9136 ext. 74814	ABR0022	Delivery by Tuesday | Arabella Farm Direct Bouquet of 12 Fresh Cut Pink Roses with a Free Glass Vase	1	0	1	Expedited	Kelly Coombs	5736 ROLLING CREEK PL			GLEN ALLEN	VA	23059-6989	US			false		
113-5690566-4009821	66752298140834	2020-11-02T15:14:48+00:00	2020-11-02T07:14:48-08:00	2020-11-02T15:41:49+00:00	2020-11-05T07:59:59+00:00	-3	nmd0pkgmbjny9tp@marketplace.amazon.com	David Rampe	+1 213-442-1463 ext. 62353	ABM010	Delivery by Tuesday | The Spring Fling Bouquet by Arabella Bouquets with a Free Designer Glass Vase	1	0	1	Expedited	Jane Lanz	4735 BENTLEY DR			CARMEL	IN	46033-3389	US			false		
111-3791385-3611435	57799172535610	2020-11-02T15:25:16+00:00	2020-11-02T07:25:16-08:00	2020-11-02T15:52:48+00:00	2020-11-05T07:59:59+00:00	-3	9b7n2sz52xfybls@marketplace.amazon.com	Ruthann Thetford	+1 602-671-6610 ext. 99000	ABR0022	Delivery by Tuesday | Arabella Farm Direct Bouquet of 12 Fresh Cut Pink Roses with a Free Glass Vase	1	0	1	Expedited	Michelle Thetford	100 E BELLEVUE PL APT 10 E			CHICAGO	IL	60611-5179	US		Happy birthday sweetie!! From Ruthann & Dad	false		
113-3360801-4797057	48817973448690	2020-11-02T15:28:37+00:00	2020-11-02T07:28:37-08:00	2020-11-02T15:58:40+00:00	2020-11-05T07:59:59+00:00	-3	z1yrttms9sws0rl@marketplace.amazon.com	Dawn Detamore	+1 602-671-6610 ext. 63524	ABM024	Delivery by Thursday | The Beauty of Color Bouquet by Arabella Bouquets	1	0	1	Expedited	Karen Pulliam	4430 DONCASTER DR			INDIAN HEAD	MD	20640-3544	US			false		
112-7849118-4102614	18231317493282	2020-11-02T15:29:18+00:00	2020-11-02T07:29:18-08:00	2020-11-02T16:04:14+00:00	2020-11-05T07:59:59+00:00	-3	8bn418f5vw1qq92@marketplace.amazon.com	Nancy L. Deuel	+1 480-618-5344 ext. 34535	ABM022	Delivery by Tuesday | Purple Extravagance Bouquet by Arabella Bouquets	1	0	1	Expedited	Kathleen Parker	359 N DIXIE DR			ST GEORGE	UT	84770-7039	US		Dear Kathleen, Wishing you a  very happy birthday with many more to come. Wish I was  there with you to celebrate your special day.  Love  always Nancy From Nancy L. Deuel	false		
114-0251791-4033843	63128118806506	2020-11-02T15:48:19+00:00	2020-11-02T07:48:19-08:00	2020-11-02T16:11:59+00:00	2020-11-05T07:59:59+00:00	-3	p9p0k7qwkypylrn@marketplace.amazon.com	Michelle Lockwood	+1 415-851-9136 ext. 63345	ABR0022	Delivery by Tuesday | Arabella Farm Direct Bouquet of 12 Fresh Cut Pink Roses with a Free Glass Vase	1	0	1	Expedited	Leigh Logan	6424 WIND SONG DR			MCKINNEY	TX	75071-7638	US		Thinking of you and sending so much love and strength.   Lots of love, Dan, Michelle & Miles From Dan, Michelle & Miles	false		
112-2866865-4516235	63564545171802	2020-11-02T15:48:48+00:00	2020-11-02T07:48:48-08:00	2020-11-02T16:18:42+00:00	2020-11-05T07:59:59+00:00	-3	jcrs3w3xc7bfcp1@marketplace.amazon.com	Joe Willmes	+1 480-618-5344 ext. 72037	ABR0022	Delivery by Tuesday | Arabella Farm Direct Bouquet of 12 Fresh Cut Pink Roses with a Free Glass Vase	1	0	1	Expedited	Blake Willmes	10001 E VIA DEL PASTO			TUCSON	AZ	85747-5204	US			false		
114-8210434-1576241	62595487078170	2020-11-02T15:52:40+00:00	2020-11-02T07:52:40-08:00	2020-11-02T16:20:02+00:00	2020-11-05T07:59:59+00:00	-3	fbfw0hskj6xp52g@marketplace.amazon.com	walter rudella	+1 929-436-4790 ext. 53712	ABM022	Delivery by Tuesday | Purple Extravagance Bouquet by Arabella Bouquets	1	0	1	Expedited	Carol Rennard	BRIGHTON GARDENS 5 BOROLINE RD			SADDLE RIVER	NJ	07458-2343	US		Carol,  We are all thinking of you! Good luck with rehab!  Hugs and love, Gail, Edith, and Joan!	false		
114-0787675-9111425	50501271112658	2020-11-02T15:54:41+00:00	2020-11-02T07:54:41-08:00	2020-11-02T16:23:18+00:00	2020-11-05T07:59:59+00:00	-3	yf0pdn6wlbt92p3@marketplace.amazon.com	Sandra L. Ward	+1 929-436-4790 ext. 49250	ABR001	Delivery by Tuesday | Arabella Bouquets 12 Stems of Fresh Cut Red Roses in a Free Designer Glass Vase	1	0	1	Expedited	Roland Dionne	5004 TERRELL ST			ANNANDALE	VA	22003-5129	US		Happy Anniversary!  Love, Sandy and Maury	false		
111-1364648-7856246	34474712961010	2020-11-02T16:08:58+00:00	2020-11-02T08:08:58-08:00	2020-11-02T16:35:17+00:00	2020-11-05T07:59:59+00:00	-3	4pkxmn6dc3tz09p@marketplace.amazon.com	Jane Davenport	+1 480-618-5344 ext. 05571	ABM023	Delivery by Thursday | The Morning Sun Bouquet by Arabella Bouquets	1	0	1	Expedited	Karen Crowe	9148 WATER HAZARD DR			HUDSON	FL	34667-8529	US		Dear Karen, This is to thank you for all the wonderful work you do, like enriching children's lives and supporting our democratic processes.  Now get some sleep! Love, Jane From Jane Davenport	false		
113-4767013-0197003	64405657855418	2020-11-02T16:06:21+00:00	2020-11-02T08:06:21-08:00	2020-11-02T16:35:25+00:00	2020-11-05T07:59:59+00:00	-3	l60rtkt1lf7jbbv@marketplace.amazon.com	Wallace or Marsha Fowler	+1 213-442-1463 ext. 35665	ABM010	Delivery by Tuesday | The Spring Fling Bouquet by Arabella Bouquets with a Free Designer Glass Vase	1	0	1	Expedited	Dr. Tracy Barrett	109 NORTHLAKE DR			MADISON	MS	39110-5003	US		Enjoy your gift!  Just 'cause!  We love you! From Wallace or Marsha Fowler	false		
114-5863720-4346637	26735409360938	2020-11-02T16:16:14+00:00	2020-11-02T08:16:14-08:00	2020-11-02T16:44:31+00:00	2020-11-05T07:59:59+00:00	-3	sm5kpxl6610wsbv@marketplace.amazon.com	Gail Hundley	+1 415-851-9136 ext. 50545	ABM031	Delivery by Thursday | The Harvest Moon Bouquet by Arabella Bouquets	1	0	1	Expedited	Cindy Kuehner % Johnson	1104 E 4TH ST COURT			COAL VALLEY	IL	61240-9417	US		Hope you have a quick recovery            Love Gail Mike Tammy & John	false		
111-5302453-3505001	04891574129554	2020-11-02T16:31:34+00:00	2020-11-02T08:31:34-08:00	2020-11-02T16:51:29+00:00	2020-11-05T07:59:59+00:00	-3	2x69ll4ddjxhjxm@marketplace.amazon.com	Kim	+1 213-442-1463 ext. 50948	ABM022	Delivery by Tuesday | Purple Extravagance Bouquet by Arabella Bouquets	1	0	1	Expedited	Theresa Wheaton	67 OLD STONE LN			ROCHESTER	NY	14615-1535	US		Happy Birthday! Wish we could be there to celebrate! Miss you! Love you! From Dave & Kim	false		
111-4842872-9627468	70157861503842	2020-11-02T16:34:24+00:00	2020-11-02T08:34:24-08:00	2020-11-02T17:01:43+00:00	2020-11-05T07:59:59+00:00	-3	42nqr0jdv3zshwg@marketplace.amazon.com	Paul Steigerwald	+1 415-851-9136 ext. 71942	ABR0022	Delivery by Tuesday | Arabella Farm Direct Bouquet of 12 Fresh Cut Pink Roses with a Free Glass Vase	1	0	1	Expedited	Mrs. Lisa Ezell	2307 AZAHAR CT			LEAGUE CITY	TX	77573-3323	US		Our deepest sympathies at this time.  I have the sweetest memories of Jim.  In tender, Christian love,  Shelley and Paul. From Paul Steigerwald	false		
113-7934840-1249021	00964016234882	2020-11-02T16:41:19+00:00	2020-11-02T08:41:19-08:00	2020-11-02T17:10:57+00:00	2020-11-05T07:59:59+00:00	-3	zd5ppr4qdrc2msb@marketplace.amazon.com	Carol Wardwell	+1 602-671-6610 ext. 53692	ABR001	Delivery by Tuesday | Arabella Bouquets 12 Stems of Fresh Cut Red Roses in a Free Designer Glass Vase	1	0	1	Expedited	Ellie Halobolzic	1556 W DOMINGO RD			FULLERTON	CA	92833-1929	US			false		
114-9993395-8803468	07186631900698	2020-11-02T16:52:31+00:00	2020-11-02T08:52:31-08:00	2020-11-02T17:21:26+00:00	2020-11-05T07:59:59+00:00	-3	bfcsqw082f1dqnb@marketplace.amazon.com	Yuliya Rabinovich	+1 480-618-5344 ext. 88424	ABR0055	Delivery by Tuesday | Arabella Farm Direct Bouquet of 12 Stems of Fresh Cut Hot Pink Roses in a Free Designer Glass Vase	1	0	1	Expedited	Zhanetta Shamyunova	6244 WOODHAVEN BLVD APT M55			REGO PARK	NY	11374-3714	US		Дорогая мамочка, С днём рождения тебя любимая! From Yuliya Rabinovich	false		
112-2187883-6681866	51037740236954	2020-11-02T16:53:00+00:00	2020-11-02T08:53:00-08:00	2020-11-02T17:22:40+00:00	2020-11-05T07:59:59+00:00	-3	pd59z7xy1zzwhbb@marketplace.amazon.com	Phillip Morales	+1 213-442-1463 ext. 69243	ABR001	Delivery by Tuesday | Arabella Bouquets 12 Stems of Fresh Cut Red Roses in a Free Designer Glass Vase	1	0	1	Expedited	Ms. Judy Ryerson	3121 DOWNING PL			LAS VEGAS	NV	89121-5628	US		Keep your chin up Judy! I'm praying for you both.  Pace  yourself, and make sure you get plenty of rest and take care of other activities.  Let the Docs and Nurses do what they know how to do best. From Phillip Morales	false		
111-4507274-2392257	61643287873162	2020-11-02T16:57:41+00:00	2020-11-02T08:57:41-08:00	2020-11-02T17:26:26+00:00	2020-11-05T07:59:59+00:00	-3	5m2lh8rccxckq8b@marketplace.amazon.com	Sarah Hackett	+1 415-851-9136 ext. 42801	ABM022	Delivery by Tuesday | Purple Extravagance Bouquet by Arabella Bouquets	1	0	1	Expedited	Sharon Desmond	10529 115TH AVE NE			LAKE STEVENS	WA	98258-8931	US		Happy Birthday, Mom. Enjoy the day. Love you. Sarah From Sarah Hackett	false		
113-0088935-6604248	02926833842602	2020-11-02T17:18:48+00:00	2020-11-02T09:18:48-08:00	2020-11-02T17:44:33+00:00	2020-11-05T07:59:59+00:00	-3	d5f6bgtw2l1x5jm@marketplace.amazon.com	Venkata R Atkuru	+1 602-671-6610 ext. 28166	ABM020	Delivery by Tuesday | The Sunset Bouquet by Arabella Bouquets	1	0	1	Expedited	Sirisha Koduri	109 S ELMWOOD AVE APT 29			OAK PARK	IL	60302-2975	US		Happy Birthday Siri!!! Hope you have a fantastic day and an awesome year ahead!! Let's make this year count!! :)  Love, Sharu, Nivi and Mamaiah From Sharada Atkuru	false		
114-1513461-0181803	29856694423162	2020-11-02T17:20:03+00:00	2020-11-02T09:20:03-08:00	2020-11-02T17:45:39+00:00	2020-11-05T07:59:59+00:00	-3	x4y02qv64zglc0q@marketplace.amazon.com	Phil Brittain	+1 619-854-2705 ext. 30526	ABR0055	Delivery by Tuesday | Arabella Farm Direct Bouquet of 12 Stems of Fresh Cut Hot Pink Roses in a Free Designer Glass Vase	1	0	1	Expedited	Nell Ruby	VILLAGE MANOR ASSISTED LIVING	1100 E TINKHAM AVE		LUDINGTON	MI	49431-2728	US		Happy Birthday Mom! From Phil and Judy	false		
112-6093436-2417865	02726252143010	2020-11-02T17:15:56+00:00	2020-11-02T09:15:56-08:00	2020-11-02T17:45:48+00:00	2020-11-05T07:59:59+00:00	-3	tdsp8ybths7dz2j@marketplace.amazon.com	Patricia Kapavik	+1 929-436-4790 ext. 12834	ABR0033	Delivery by Tuesday | Arabella Farm Direct Bouquet of 12 Fresh Cut Orange Roses with a Free Glass Vase	1	0	1	Expedited	Theresa Pesek	2294 E COMMON ST APT 420	RIO TERRA		NEW BRAUNFELS	TX	78130-3583	US			false		
111-9099456-8705846	67979424712106	2020-11-02T17:24:38+00:00	2020-11-02T09:24:38-08:00	2020-11-02T17:54:02+00:00	2020-11-05T07:59:59+00:00	-3	xk9gd1kb7zctj0z@marketplace.amazon.com	Michael Boles	+1 480-618-5344 ext. 06858	ABR0022	Delivery by Tuesday | Arabella Farm Direct Bouquet of 12 Fresh Cut Pink Roses with a Free Glass Vase	1	0	1	Expedited	Nicollette Gutzwiller	100 W CHESTNUT ST APT 506			CHICAGO	IL	60610-3298	US		I hope you have a wonderful birthday, I wish I was there to help celebrate :) From MB	false		
111-9284826-0665841	64977918721706	2020-11-02T17:32:44+00:00	2020-11-02T09:32:44-08:00	2020-11-02T18:02:17+00:00	2020-11-05T07:59:59+00:00	-3	92x35qqhx6s476z@marketplace.amazon.com	Trayc Sinzheimer	+1 602-671-6610 ext. 93841	ABR0055	Delivery by Tuesday | Arabella Farm Direct Bouquet of 12 Stems of Fresh Cut Hot Pink Roses in a Free Designer Glass Vase	1	0	1	Expedited	Jennifer Hansford	1401 NW 71ST CT			KANSAS CITY	MO	64118-9151	US		HAPPY BIRTHDAY!!!   WE LOVE YOU, MIKE & TRAYC From Trayc Sinzheimer	false		
111-0261064-7918631	53022630206386	2020-11-02T17:47:44+00:00	2020-11-02T09:47:44-08:00	2020-11-02T18:16:09+00:00	2020-11-05T07:59:59+00:00	-3	mdwhwxzp2mm5s0t@marketplace.amazon.com	w noonan	+1 619-854-2705 ext. 32558	ABM022	Delivery by Tuesday | Purple Extravagance Bouquet by Arabella Bouquets	1	0	1	Expedited	Robert noonan	433 PARKWOOD DR			SALISBURY	MD	21804-2803	US		Happy Anniversary. Thanks for all you do for all of us. Love William and Mari. From w noonan	false		
