order-id	order-item-id	purchase-date	payments-date	reporting-date	promise-date	days-past-promise	buyer-email	buyer-name	buyer-phone-number	sku	product-name	quantity-purchased	quantity-shipped	quantity-to-ship	ship-service-level	recipient-name	ship-address-1	ship-address-2	ship-address-3	ship-city	ship-state	ship-postal-code	ship-country	gift-wrap-type	gift-message-text	is-business-order	purchase-order-number	price-designation
114-0876245-4925852	03347262105002	2020-10-31T03:05:57+00:00	2020-10-30T20:05:57-07:00	2020-10-31T03:35:49+00:00	2020-11-04T07:59:59+00:00	-2	83w651cn1n11lky@marketplace.amazon.com	Ayesha Khan	+1 602-671-6610 ext. 60263	ABC004	Delivery by Wednesday | Arabella Bouquets 10 Stems of Purple Dendrobium Orchids in a Free Designer Glass Vase	2	1	1	Expedited	Syeda Muneeruddin	3019 BLUESTEM CT			NAPERVILLE	IL	60565-3556	US			false		
111-5609351-4792210	30514637910242	2020-10-31T13:15:24+00:00	2020-10-31T06:15:24-07:00	2020-10-31T13:40:45+00:00	2020-11-04T07:59:59+00:00	-2	ngdln322j02jwb6@marketplace.amazon.com	Dr. Saku W Gunasegaram	+1 619-854-2705 ext. 03428	ABR004	Delivery by Tuesday | Arabella Farm Direct Bouquet of 12 Fresh Cut Yellow Roses with a Free Glass Vase	3	2	1	Expedited	TO:EVERYONE WHO LOVED DICK CSAPLAR   NANCY CSAPLAR	WE CANNOT SEE YOU BUT YOU ARE IN THOUG HTS AND PRAYERS	76 YALE ST SINCEREST CONDOLENCES		WINCHESTER	MA	01890-2332	US		TO: EVERYONE WHO LOVED UNCLE DICK CSAPLAR C/O DAUGHTER-IN-LAW NANCY CSAPLAR IT IS ALWAYS A SHOCK EVEN WHEN IT'S BEEN ANTICIPATED FOR _YEARS_. SINCEREST CONDOLENCES. From Dr. Saku Gunasegaram+WILF	false		
111-4766603-8556246	39068717619978	2020-10-31T13:21:01+00:00	2020-10-31T06:21:01-07:00	2020-10-31T13:47:45+00:00	2020-11-04T07:59:59+00:00	-2	ngdln322j02jwb6@marketplace.amazon.com	Dr. Saku W Gunasegaram	+1 602-671-6610 ext. 24373	ABR004	Delivery by Tuesday | Arabella Farm Direct Bouquet of 12 Fresh Cut Yellow Roses with a Free Glass Vase	3	2	1	Expedited	WILL CSAPLAR (SENIOR) SINCEREST CONDOLENCES	101 BARRY RD UNIT 1352 THE	WILLOWS CSAPLAR		WORCESTER	MA	01609-1273	US		TO: WILL CSAPLAR (SENIOR) IT IS ALWAYS A SHOCK EVEN WHEN IT'S BEEN ANTICIPATED FOR _YEARS_. SINCEREST CONDOLENCES. From Dr. Saku Gunasegaram+WILF	false		
113-6095834-1701854	18737767593522	2020-10-31T15:35:17+00:00	2020-10-31T08:35:17-07:00	2020-10-31T15:59:43+00:00	2020-11-04T07:59:59+00:00	-2	mp7r9cn68gycyx1@marketplace.amazon.com	John Savageau	+1 480-618-5344 ext. 62158	ABR004	Delivery by Tuesday | Arabella Farm Direct Bouquet of 12 Fresh Cut Yellow Roses with a Free Glass Vase	1	0	1	Expedited	Alison Willing	434 DAY MOUNTAIN RD			TEMPLE	ME	04984-3604	US		Happy Birthday.  You are a special, caring person who is often unappreciated.  We know all you do and we love you very much.  Do something special for yourself today! From Ann & John	false		
111-2154546-5272231	35111888871794	2020-11-02T02:30:52+00:00	2020-11-01T18:30:52-08:00	2020-11-02T02:59:16+00:00	2020-11-04T07:59:59+00:00	-2	l74whp5dtng1mxw@marketplace.amazon.com	Krystal Dogolo	+1 929-436-4790 ext. 14843	ABM020	Delivery by Tuesday | The Sunset Bouquet by Arabella Bouquets	1	0	1	Expedited	Maryanne Bauknecht	86 HELLSTROM RD			EAST HAVEN	CT	06512-1320	US		Happy Birthday! From Krystal & Mike	false		
111-3272806-1090657	59827217188362	2020-11-02T10:35:41+00:00	2020-11-02T02:35:41-08:00	2020-11-02T11:04:42+00:00	2020-11-05T07:59:59+00:00	-3	mv7yfcsx0gyrn4z@marketplace.amazon.com	Patricia Warshell	+1 602-671-6610 ext. 24040	ABR0022	Delivery by Tuesday | Arabella Farm Direct Bouquet of 12 Fresh Cut Pink Roses with a Free Glass Vase	1	0	1	Expedited	Deanna Clark	11428 BLUFF CREEK DR			OKLAHOMA CITY	OK	73162-3725	US		Happy Birthday Deanna. XXX From Trish, Sean, Ashley and the girls Ella and Audrey	false		
111-4433663-7126631	70110734868626	2020-11-02T10:58:54+00:00	2020-11-02T02:58:54-08:00	2020-11-02T11:20:16+00:00	2020-11-05T07:59:59+00:00	-3	kxz9jklp3zkpgtx@marketplace.amazon.com	Maria Elena Merlo Martinez	+1 480-618-5344 ext. 66839	ABR0022	Delivery by Tuesday | Arabella Farm Direct Bouquet of 12 Fresh Cut Pink Roses with a Free Glass Vase	1	0	1	Expedited	DONNA O'CONNOR	102 OLSON ST			ABINGTON	MA	02351-2382	US		DEAR DONNA. HAVE A WONDERFUL DAY!. LOTS OF LOVE FROM ELENA From Maria Elena Merlo Martinez	false		
114-7321429-6260250	62510582197018	2020-11-02T11:46:18+00:00	2020-11-02T03:46:18-08:00	2020-11-02T12:15:27+00:00	2020-11-05T07:59:59+00:00	-3	k133wlhqcchn8yz@marketplace.amazon.com	Alyssa	+1 480-618-5344 ext. 26000	ABM020	Delivery by Tuesday | The Sunset Bouquet by Arabella Bouquets	1	0	1	Expedited	Elaine Woodall	4 JESSUP CT			CARMEL	NY	10512-4910	US		Elaine, Happy birthday! I hope your day is as wonderful as you. The puppies say they love and miss you From Love, Alyssa	false		
112-4229646-3951423	60360640243338	2020-11-02T12:48:13+00:00	2020-11-02T04:48:13-08:00	2020-11-02T13:12:35+00:00	2020-11-05T07:59:59+00:00	-3	j9d2cxyq551rnpz@marketplace.amazon.com	Elaine Radis	+1 619-854-2705 ext. 82925	ABM020	Delivery by Tuesday | The Sunset Bouquet by Arabella Bouquets	1	0	1	Expedited	Molly MacDonald & Mark Bedine	29 PETER PARLEY RD APT 3			JAMAICA PLAIN	MA	02130-4951	US		Sadie Macs flowers, the first of. many in her life  With love Great Grandma From Elaine Radis	false		
114-8822998-1040252	09372725535026	2020-11-02T12:53:50+00:00	2020-11-02T04:53:50-08:00	2020-11-02T13:23:43+00:00	2020-11-05T07:59:59+00:00	-3	jvt82k6ypsx474c@marketplace.amazon.com	Hector	+1 480-618-5344 ext. 27802	ABR0022	Delivery by Tuesday | Arabella Farm Direct Bouquet of 12 Fresh Cut Pink Roses with a Free Glass Vase	1	0	1	Expedited	Hector Perez	1003 PATTON AVE			READING	PA	19611-1729	US			false		
113-6118535-2569864	36979008213002	2020-11-02T13:02:02+00:00	2020-11-02T05:02:02-08:00	2020-11-02T13:32:30+00:00	2020-11-05T07:59:59+00:00	-3	ggy2dgprgjz1k8n@marketplace.amazon.com	Karen V. Johnson	+1 213-442-1463 ext. 15209	ABR0055	Delivery by Tuesday | Arabella Farm Direct Bouquet of 12 Stems of Fresh Cut Hot Pink Roses in a Free Designer Glass Vase	1	0	1	Expedited	Caty and Hans Otten	404 BOW LN			GILBERTSVILLE	PA	19525-9180	US			false		
112-4420456-8355462	28798590432098	2020-11-02T13:14:49+00:00	2020-11-02T05:14:49-08:00	2020-11-02T13:41:44+00:00	2020-11-05T07:59:59+00:00	-3	rcb8krqdz1hts2r@marketplace.amazon.com	Kelly K Bacon	+1 602-671-6610 ext. 84241	ABM010	Delivery by Tuesday | The Spring Fling Bouquet by Arabella Bouquets with a Free Designer Glass Vase	1	0	1	Expedited	Shelby Gorski	111 RICHLAND DR			WAKE FOREST	NC	27587-6624	US		Happy Birthday!! Love ya!  Kelly and Bruce From Kelly K Bacon	false		
112-6779652-2955457	56725478992946	2020-11-02T13:34:32+00:00	2020-11-02T05:34:32-08:00	2020-11-02T14:02:20+00:00	2020-11-05T07:59:59+00:00	-3	v8bzr35w9symqzl@marketplace.amazon.com	Colleen	+1 619-854-2705 ext. 08488	ABM020	Delivery by Tuesday | The Sunset Bouquet by Arabella Bouquets	1	0	1	Expedited	Jessica Johnson	12724 KILLDEER ST NW			COON RAPIDS	MN	55448-7052	US		Wishing you a speed recovery with love!!! From Your Freedom Family!!	false		
113-3190870-7538612	19164556225170	2020-11-02T13:40:24+00:00	2020-11-02T05:40:24-08:00	2020-11-02T14:06:56+00:00	2020-11-05T07:59:59+00:00	-3	dvzkzh4nk8sbpcm@marketplace.amazon.com	Jennifer Davis	+1 602-671-6610 ext. 96430	ABR0022	Delivery by Tuesday | Arabella Farm Direct Bouquet of 12 Fresh Cut Pink Roses with a Free Glass Vase	1	0	1	Expedited	Kristin Smith	420 PARK AVE			COOS BAY	OR	97420-2232	US		Happy 45th!! Wish I could be there! From Jennifer Davis	false		
114-9043089-2506638	63220377273658	2020-11-02T13:45:37+00:00	2020-11-02T05:45:37-08:00	2020-11-02T14:13:28+00:00	2020-11-05T07:59:59+00:00	-3	t7rq1w1sdv2hwy4@marketplace.amazon.com	Minami Imamura	+1 929-436-4790 ext. 42759	ABB011	Delivery by Thursday | Arabella Bouquets 24 Stems of Fresh Cut Hot Pink Roses in a Free Designer Glass Vase	1	0	1	Expedited	Mayra Romero	624 W 5TH ST APT 6			LONG BEACH	CA	90802-2123	US		I love you mi amor hermosa... Enjoy the gift! From Minami Imamura	false		
114-7300442-9489048	25530343031378	2020-11-02T13:51:48+00:00	2020-11-02T05:51:48-08:00	2020-11-02T14:28:09+00:00	2020-11-05T07:59:59+00:00	-3	rm38hq2knmy17sq@marketplace.amazon.com	willis m. king	+1 480-618-5344 ext. 07385	ABR0022	Delivery by Tuesday | Arabella Farm Direct Bouquet of 12 Fresh Cut Pink Roses with a Free Glass Vase	1	0	1	Expedited	willis maurice king	432 ELKINS LK 1672 GREEN BRIAR DR			HUNTSVILLE	TX	77340-7310	US		For Princess Daughter From willis m. king	false		
113-3875571-4627466	63925958176882	2020-11-02T14:19:16+00:00	2020-11-02T06:19:16-08:00	2020-11-02T14:44:43+00:00	2020-11-05T07:59:59+00:00	-3	048ycmj88f2y1rj@marketplace.amazon.com	Deborah L Hummel	+1 213-442-1463 ext. 09192	ABM022	Delivery by Tuesday | Purple Extravagance Bouquet by Arabella Bouquets	1	0	1	Expedited	Florence Jankowski	529 KIMBERLY CIR			WEST MELBOURNE	FL	32904-5728	US		Busha, We love you and wish you an incredible 93rd birthday! Bruce, Deb, Eric, Bryan, Dawn, Nici, Lucas, Cohen and Carter From You Hummel's	false		
111-3136085-4422652	47022719946154	2020-11-02T14:23:56+00:00	2020-11-02T06:23:56-08:00	2020-11-02T14:50:29+00:00	2020-11-05T07:59:59+00:00	-3	sm6w77d83zjwxzx@marketplace.amazon.com	Elizabeth A. Bracken	+1 619-854-2705 ext. 78108	ABR0033	Delivery by Tuesday | Arabella Farm Direct Bouquet of 12 Fresh Cut Orange Roses with a Free Glass Vase	1	0	1	Expedited	Amy Arblaster	6258 LUCIUSBORO RD			HOMER CITY	PA	15748-6404	US		Sending some November love this week since I forgot your October birthday!! Thank you for being YOU!! ♥️ Have a wonderful day my friend! Love, Beth From Elizabeth A. Bracken	false		
112-8949699-7837026	46761673294354	2020-11-02T14:21:36+00:00	2020-11-02T06:21:36-08:00	2020-11-02T14:52:09+00:00	2020-11-05T07:59:59+00:00	-3	bs6jlfngy3cn11f@marketplace.amazon.com	Cora Siegel	+1 602-671-6610 ext. 93066	ABM020	Delivery by Tuesday | The Sunset Bouquet by Arabella Bouquets	1	0	1	Expedited	Karen McKay	6253 BEARWALLOW MOUNTAIN RD			GERTON	NC	28735-9722	US			false		
113-5327626-5044256	64249143661050	2020-11-02T14:25:37+00:00	2020-11-02T06:25:37-08:00	2020-11-02T14:55:47+00:00	2020-11-05T07:59:59+00:00	-3	gcz043kg6tfz2mv@marketplace.amazon.com	Jan Steverlynck	+1 602-671-6610 ext. 37212	ABR0022	Delivery by Tuesday | Arabella Farm Direct Bouquet of 12 Fresh Cut Pink Roses with a Free Glass Vase	1	0	1	Expedited	JAN STEVERLYNCK	C/O MARIA LAURA STEVERLYNCK	3519 76TH ST APT 22		JACKSON HEIGHTS	NY	11372-4567	US			false		
113-5292255-8915467	42446415986850	2020-11-02T14:44:59+00:00	2020-11-02T06:44:59-08:00	2020-11-02T15:13:25+00:00	2020-11-05T07:59:59+00:00	-3	n0zmt695vmtptxl@marketplace.amazon.com	Genevieve Woods	+1 602-671-6610 ext. 48475	ABR0022	Delivery by Tuesday | Arabella Farm Direct Bouquet of 12 Fresh Cut Pink Roses with a Free Glass Vase	1	0	1	Expedited	Tabitha Parker	3500 TANGLE BRUSH DR APT 79			THE WOODLANDS	TX	77381-2938	US		Thinking of you and sending hugs. Love you bunches. From The Fam	false		
114-3640460-3181831	67802172901010	2020-11-02T14:52:52+00:00	2020-11-02T06:52:52-08:00	2020-11-02T15:21:11+00:00	2020-11-05T07:59:59+00:00	-3	k6sc8638rg0cwbc@marketplace.amazon.com	Jane Stutzman	+1 929-436-4790 ext. 06963	ABM023	Delivery by Thursday | The Morning Sun Bouquet by Arabella Bouquets	1	0	1	Expedited	Jen Rodriguez	52954 HOLLOW TRL			SOUTH BEND	IN	46628-7413	US			false		
114-0346255-3861850	19280501795274	2020-11-02T15:14:58+00:00	2020-11-02T07:14:58-08:00	2020-11-02T15:34:25+00:00	2020-11-05T07:59:59+00:00	-3	l471p3by8k8hq1x@marketplace.amazon.com	Kellien	+1 415-851-9136 ext. 03943	ABR0022	Delivery by Tuesday | Arabella Farm Direct Bouquet of 12 Fresh Cut Pink Roses with a Free Glass Vase	1	0	1	Expedited	Connie Shears	23331 VIA LINDA APT B			MISSION VIEJO	CA	92691-6859	US		Thinking of you!  Thank you for being such a beautiful inspiration!   You’re truly a blessing in my life!  Love you so much Connie! From Kellie	false		
112-0591714-0064218	55480424825138	2020-11-02T15:09:31+00:00	2020-11-02T07:09:31-08:00	2020-11-02T15:38:58+00:00	2020-11-05T07:59:59+00:00	-3	yvcftvhm4c1sg50@marketplace.amazon.com	Gary Pritchett	+1 415-851-9136 ext. 74814	ABR0022	Delivery by Tuesday | Arabella Farm Direct Bouquet of 12 Fresh Cut Pink Roses with a Free Glass Vase	1	0	1	Expedited	Kelly Coombs	5736 ROLLING CREEK PL			GLEN ALLEN	VA	23059-6989	US			false		
113-3360801-4797057	48817973448690	2020-11-02T15:28:37+00:00	2020-11-02T07:28:37-08:00	2020-11-02T15:58:40+00:00	2020-11-05T07:59:59+00:00	-3	z1yrttms9sws0rl@marketplace.amazon.com	Dawn Detamore	+1 602-671-6610 ext. 63524	ABM024	Delivery by Thursday | The Beauty of Color Bouquet by Arabella Bouquets	1	0	1	Expedited	Karen Pulliam	4430 DONCASTER DR			INDIAN HEAD	MD	20640-3544	US			false		
112-7849118-4102614	18231317493282	2020-11-02T15:29:18+00:00	2020-11-02T07:29:18-08:00	2020-11-02T16:04:14+00:00	2020-11-05T07:59:59+00:00	-3	8bn418f5vw1qq92@marketplace.amazon.com	Nancy L. Deuel	+1 480-618-5344 ext. 34535	ABM022	Delivery by Tuesday | Purple Extravagance Bouquet by Arabella Bouquets	1	0	1	Expedited	Kathleen Parker	359 N DIXIE DR			ST GEORGE	UT	84770-7039	US		Dear Kathleen, Wishing you a  very happy birthday with many more to come. Wish I was  there with you to celebrate your special day.  Love  always Nancy From Nancy L. Deuel	false		
114-0251791-4033843	63128118806506	2020-11-02T15:48:19+00:00	2020-11-02T07:48:19-08:00	2020-11-02T16:11:59+00:00	2020-11-05T07:59:59+00:00	-3	p9p0k7qwkypylrn@marketplace.amazon.com	Michelle Lockwood	+1 415-851-9136 ext. 63345	ABR0022	Delivery by Tuesday | Arabella Farm Direct Bouquet of 12 Fresh Cut Pink Roses with a Free Glass Vase	1	0	1	Expedited	Leigh Logan	6424 WIND SONG DR			MCKINNEY	TX	75071-7638	US		Thinking of you and sending so much love and strength.   Lots of love, Dan, Michelle & Miles From Dan, Michelle & Miles	false		
112-2866865-4516235	63564545171802	2020-11-02T15:48:48+00:00	2020-11-02T07:48:48-08:00	2020-11-02T16:18:42+00:00	2020-11-05T07:59:59+00:00	-3	jcrs3w3xc7bfcp1@marketplace.amazon.com	Joe Willmes	+1 480-618-5344 ext. 72037	ABR0022	Delivery by Tuesday | Arabella Farm Direct Bouquet of 12 Fresh Cut Pink Roses with a Free Glass Vase	1	0	1	Expedited	Blake Willmes	10001 E VIA DEL PASTO			TUCSON	AZ	85747-5204	US			false		
114-8210434-1576241	62595487078170	2020-11-02T15:52:40+00:00	2020-11-02T07:52:40-08:00	2020-11-02T16:20:02+00:00	2020-11-05T07:59:59+00:00	-3	fbfw0hskj6xp52g@marketplace.amazon.com	walter rudella	+1 929-436-4790 ext. 53712	ABM022	Delivery by Tuesday | Purple Extravagance Bouquet by Arabella Bouquets	1	0	1	Expedited	Carol Rennard	BRIGHTON GARDENS 5 BOROLINE RD			SADDLE RIVER	NJ	07458-2343	US		Carol,  We are all thinking of you! Good luck with rehab!  Hugs and love, Gail, Edith, and Joan!	false		
111-1364648-7856246	34474712961010	2020-11-02T16:08:58+00:00	2020-11-02T08:08:58-08:00	2020-11-02T16:35:17+00:00	2020-11-05T07:59:59+00:00	-3	4pkxmn6dc3tz09p@marketplace.amazon.com	Jane Davenport	+1 480-618-5344 ext. 05571	ABM023	Delivery by Thursday | The Morning Sun Bouquet by Arabella Bouquets	1	0	1	Expedited	Karen Crowe	9148 WATER HAZARD DR			HUDSON	FL	34667-8529	US		Dear Karen, This is to thank you for all the wonderful work you do, like enriching children's lives and supporting our democratic processes.  Now get some sleep! Love, Jane From Jane Davenport	false		
113-4767013-0197003	64405657855418	2020-11-02T16:06:21+00:00	2020-11-02T08:06:21-08:00	2020-11-02T16:35:25+00:00	2020-11-05T07:59:59+00:00	-3	l60rtkt1lf7jbbv@marketplace.amazon.com	Wallace or Marsha Fowler	+1 213-442-1463 ext. 35665	ABM010	Delivery by Tuesday | The Spring Fling Bouquet by Arabella Bouquets with a Free Designer Glass Vase	1	0	1	Expedited	Dr. Tracy Barrett	109 NORTHLAKE DR			MADISON	MS	39110-5003	US		Enjoy your gift!  Just 'cause!  We love you! From Wallace or Marsha Fowler	false		
114-5863720-4346637	26735409360938	2020-11-02T16:16:14+00:00	2020-11-02T08:16:14-08:00	2020-11-02T16:44:31+00:00	2020-11-05T07:59:59+00:00	-3	sm5kpxl6610wsbv@marketplace.amazon.com	Gail Hundley	+1 415-851-9136 ext. 50545	ABM031	Delivery by Thursday | The Harvest Moon Bouquet by Arabella Bouquets	1	0	1	Expedited	Cindy Kuehner % Johnson	1104 E 4TH ST COURT			COAL VALLEY	IL	61240-9417	US		Hope you have a quick recovery            Love Gail Mike Tammy & John	false		
111-5302453-3505001	04891574129554	2020-11-02T16:31:34+00:00	2020-11-02T08:31:34-08:00	2020-11-02T16:51:29+00:00	2020-11-05T07:59:59+00:00	-3	2x69ll4ddjxhjxm@marketplace.amazon.com	Kim	+1 213-442-1463 ext. 50948	ABM022	Delivery by Tuesday | Purple Extravagance Bouquet by Arabella Bouquets	1	0	1	Expedited	Theresa Wheaton	67 OLD STONE LN			ROCHESTER	NY	14615-1535	US		Happy Birthday! Wish we could be there to celebrate! Miss you! Love you! From Dave & Kim	false		
111-4842872-9627468	70157861503842	2020-11-02T16:34:24+00:00	2020-11-02T08:34:24-08:00	2020-11-02T17:01:43+00:00	2020-11-05T07:59:59+00:00	-3	42nqr0jdv3zshwg@marketplace.amazon.com	Paul Steigerwald	+1 415-851-9136 ext. 71942	ABR0022	Delivery by Tuesday | Arabella Farm Direct Bouquet of 12 Fresh Cut Pink Roses with a Free Glass Vase	1	0	1	Expedited	Mrs. Lisa Ezell	2307 AZAHAR CT			LEAGUE CITY	TX	77573-3323	US		Our deepest sympathies at this time.  I have the sweetest memories of Jim.  In tender, Christian love,  Shelley and Paul. From Paul Steigerwald	false		
114-9993395-8803468	07186631900698	2020-11-02T16:52:31+00:00	2020-11-02T08:52:31-08:00	2020-11-02T17:21:26+00:00	2020-11-05T07:59:59+00:00	-3	bfcsqw082f1dqnb@marketplace.amazon.com	Yuliya Rabinovich	+1 480-618-5344 ext. 88424	ABR0055	Delivery by Tuesday | Arabella Farm Direct Bouquet of 12 Stems of Fresh Cut Hot Pink Roses in a Free Designer Glass Vase	1	0	1	Expedited	Zhanetta Shamyunova	6244 WOODHAVEN BLVD APT M55			REGO PARK	NY	11374-3714	US		Дорогая мамочка, С днём рождения тебя любимая! From Yuliya Rabinovich	false		
111-4507274-2392257	61643287873162	2020-11-02T16:57:41+00:00	2020-11-02T08:57:41-08:00	2020-11-02T17:26:26+00:00	2020-11-05T07:59:59+00:00	-3	5m2lh8rccxckq8b@marketplace.amazon.com	Sarah Hackett	+1 415-851-9136 ext. 42801	ABM022	Delivery by Tuesday | Purple Extravagance Bouquet by Arabella Bouquets	1	0	1	Expedited	Sharon Desmond	10529 115TH AVE NE			LAKE STEVENS	WA	98258-8931	US		Happy Birthday, Mom. Enjoy the day. Love you. Sarah From Sarah Hackett	false		
114-1513461-0181803	29856694423162	2020-11-02T17:20:03+00:00	2020-11-02T09:20:03-08:00	2020-11-02T17:45:39+00:00	2020-11-05T07:59:59+00:00	-3	x4y02qv64zglc0q@marketplace.amazon.com	Phil Brittain	+1 619-854-2705 ext. 30526	ABR0055	Delivery by Tuesday | Arabella Farm Direct Bouquet of 12 Stems of Fresh Cut Hot Pink Roses in a Free Designer Glass Vase	1	0	1	Expedited	Nell Ruby	VILLAGE MANOR ASSISTED LIVING	1100 E TINKHAM AVE		LUDINGTON	MI	49431-2728	US		Happy Birthday Mom! From Phil and Judy	false		
112-6093436-2417865	02726252143010	2020-11-02T17:15:56+00:00	2020-11-02T09:15:56-08:00	2020-11-02T17:45:48+00:00	2020-11-05T07:59:59+00:00	-3	tdsp8ybths7dz2j@marketplace.amazon.com	Patricia Kapavik	+1 929-436-4790 ext. 12834	ABR0033	Delivery by Tuesday | Arabella Farm Direct Bouquet of 12 Fresh Cut Orange Roses with a Free Glass Vase	1	0	1	Expedited	Theresa Pesek	2294 E COMMON ST APT 420	RIO TERRA		NEW BRAUNFELS	TX	78130-3583	US			false		
111-9099456-8705846	67979424712106	2020-11-02T17:24:38+00:00	2020-11-02T09:24:38-08:00	2020-11-02T17:54:02+00:00	2020-11-05T07:59:59+00:00	-3	xk9gd1kb7zctj0z@marketplace.amazon.com	Michael Boles	+1 480-618-5344 ext. 06858	ABR0022	Delivery by Tuesday | Arabella Farm Direct Bouquet of 12 Fresh Cut Pink Roses with a Free Glass Vase	1	0	1	Expedited	Nicollette Gutzwiller	100 W CHESTNUT ST APT 506			CHICAGO	IL	60610-3298	US		I hope you have a wonderful birthday, I wish I was there to help celebrate :) From MB	false		
111-9284826-0665841	64977918721706	2020-11-02T17:32:44+00:00	2020-11-02T09:32:44-08:00	2020-11-02T18:02:17+00:00	2020-11-05T07:59:59+00:00	-3	92x35qqhx6s476z@marketplace.amazon.com	Trayc Sinzheimer	+1 602-671-6610 ext. 93841	ABR0055	Delivery by Tuesday | Arabella Farm Direct Bouquet of 12 Stems of Fresh Cut Hot Pink Roses in a Free Designer Glass Vase	1	0	1	Expedited	Jennifer Hansford	1401 NW 71ST CT			KANSAS CITY	MO	64118-9151	US		HAPPY BIRTHDAY!!!   WE LOVE YOU, MIKE & TRAYC From Trayc Sinzheimer	false		
111-0261064-7918631	53022630206386	2020-11-02T17:47:44+00:00	2020-11-02T09:47:44-08:00	2020-11-02T18:16:09+00:00	2020-11-05T07:59:59+00:00	-3	mdwhwxzp2mm5s0t@marketplace.amazon.com	w noonan	+1 619-854-2705 ext. 32558	ABM022	Delivery by Tuesday | Purple Extravagance Bouquet by Arabella Bouquets	1	0	1	Expedited	Robert noonan	433 PARKWOOD DR			SALISBURY	MD	21804-2803	US		Happy Anniversary. Thanks for all you do for all of us. Love William and Mari. From w noonan	false		
114-0546127-1301011	05433458815538	2020-11-02T18:01:51+00:00	2020-11-02T10:01:51-08:00	2020-11-02T18:18:00+00:00	2020-11-05T07:59:59+00:00	-3	7t3f51vqxkwv9z8@marketplace.amazon.com	Reba Reddish	+1 213-442-1463 ext. 53084	ABR0033	Delivery by Tuesday | Arabella Farm Direct Bouquet of 12 Fresh Cut Orange Roses with a Free Glass Vase	1	0	1	Expedited	Shirley West	19216 CIRCLE GATE DR APT 203			GERMANTOWN	MD	20874-5209	US		Special blessings sent your way.  Happy 90th Birthday cousin Shirley Love Greg and Reba From Reba Reddish	false		
112-5371170-4174668	36619852181458	2020-11-02T17:55:59+00:00	2020-11-02T09:55:59-08:00	2020-11-02T18:25:27+00:00	2020-11-05T07:59:59+00:00	-3	4cxchmdxt8tz45v@marketplace.amazon.com	Kim Campbell	816=294-6506	ABM0033	Delivery by Thursday | Arabella Farm Direct Bouquet of Fresh Cut White Hydrangea with a Free Glass Vase	1	0	1	Expedited	Nola Zeltwanger	1909 ASHLAND AVE			SAINT JOSEPH	MO	64506-2135	US		Happy birthday! We love you! Kim, Barry & Billy From Kim Campbell	false		
112-3072121-8924239	64205740121962	2020-11-02T17:57:28+00:00	2020-11-02T09:57:28-08:00	2020-11-02T18:27:18+00:00	2020-11-05T07:59:59+00:00	-3	kvccc3gx2j51c4m@marketplace.amazon.com	Heidi Bohrer	+1 602-671-6610 ext. 34278	ABR0022	Delivery by Tuesday | Arabella Farm Direct Bouquet of 12 Fresh Cut Pink Roses with a Free Glass Vase	1	0	1	Expedited	Premila Reddy	1 IRVING PL APT G27B			NEW YORK	NY	10003-9710	US		Happy new apartment!  Love, Pork From Heidi Bohrer	false		
111-7676415-8353800	00212549200050	2020-11-02T18:15:45+00:00	2020-11-02T10:15:45-08:00	2020-11-02T18:43:46+00:00	2020-11-05T07:59:59+00:00	-3	b147256tfp2z386@marketplace.amazon.com	Joanne Mashinski	+1 619-854-2705 ext. 50883	ABM010	Delivery by Tuesday | The Spring Fling Bouquet by Arabella Bouquets with a Free Designer Glass Vase	1	0	1	Expedited	Michelle Simoson	1206 FOREST HILLS DR			SOUTH LAKE	TX	76092-7802	US		Happy 60th Sista  Have a wonderful day ! Love Joanne	false		
112-6360525-1194648	36206847318338	2020-11-02T18:15:24+00:00	2020-11-02T10:15:24-08:00	2020-11-02T18:45:44+00:00	2020-11-05T07:59:59+00:00	-3	b7pl902xsvftqc1@marketplace.amazon.com	Valencia A de	+1 213-442-1463 ext. 95580	ABM0033	Delivery by Thursday | Arabella Farm Direct Bouquet of Fresh Cut White Hydrangea with a Free Glass Vase	1	0	1	Expedited	Carolyn Lloyd	1636 WALNUT BOTTOM RD			NEWVILLE	PA	17241-9520	US			false		
111-1443236-3040255	68551796821834	2020-11-02T18:20:14+00:00	2020-11-02T10:20:14-08:00	2020-11-02T18:49:05+00:00	2020-11-05T07:59:59+00:00	-3	b147256tfp2z386@marketplace.amazon.com	Joanne Mashinski	+1 929-436-4790 ext. 02908	ABM010	Delivery by Tuesday | The Spring Fling Bouquet by Arabella Bouquets with a Free Designer Glass Vase	1	0	1	Expedited	Terry Woydzick	1204 FRANKLIN ST			OLD FORGE	PA	18518-1225	US		Happy Birthday Dear Terry Have a wonderful day Love Joanne	false		
111-2306622-1401024	11857069350162	2020-11-02T18:23:58+00:00	2020-11-02T10:23:58-08:00	2020-11-02T18:54:07+00:00	2020-11-05T07:59:59+00:00	-3	472c1j5ktq48pg7@marketplace.amazon.com	Margie Elaine Britt	+1 415-851-9136 ext. 76928	ABR0022	Delivery by Tuesday | Arabella Farm Direct Bouquet of 12 Fresh Cut Pink Roses with a Free Glass Vase	1	0	1	Expedited	Susan Youmans	8928 CANOPY OAKS DR			JACKSONVILLE	FL	32256-4567	US			false		
111-0810827-2341856	16905882387930	2020-11-02T18:26:20+00:00	2020-11-02T10:26:20-08:00	2020-11-02T18:54:25+00:00	2020-11-05T07:59:59+00:00	-3	g86nmmgmq3lrr5y@marketplace.amazon.com	lily kanefield	+1 929-436-4790 ext. 52805	ABR001	Delivery by Tuesday | Arabella Bouquets 12 Stems of Fresh Cut Red Roses in a Free Designer Glass Vase	1	0	1	Expedited	Sandy Goldford	1520 WILLOWBROOKE MANORS CT			SAINT LOUIS	MO	63146-4883	US		Happy Birthday ❤️ We miss you  See you soon  xoxo Jeff and Renee From Reneé  kanefield	false		
113-9751902-0993008	55651450154874	2020-11-02T18:36:32+00:00	2020-11-02T10:36:32-08:00	2020-11-02T19:06:29+00:00	2020-11-05T07:59:59+00:00	-3	0lt434bbt5kyzzv@marketplace.amazon.com	Anthony Stark	+1 929-436-4790 ext. 37225	ABM022	Delivery by Tuesday | Purple Extravagance Bouquet by Arabella Bouquets	1	0	1	Expedited	Aunt Marge Avolio	11223 SE 182ND ST			RENTON	WA	98055-6514	US		Hope you feel better soon! Love Ya From Janet and Family	false		
114-5541154-7344251	45899190935730	2020-11-02T18:41:31+00:00	2020-11-02T10:41:31-08:00	2020-11-02T19:08:54+00:00	2020-11-05T07:59:59+00:00	-3	knz268ts3sjdbj0@marketplace.amazon.com	Cheryl Hague	+1 929-436-4790 ext. 93381	ABR0033	Delivery by Wednesday | Arabella Farm Direct Bouquet of 12 Fresh Cut Orange Roses with a Free Glass Vase	1	0	1	Expedited	Donna Moore	827 SPRUCE LN			SCHERERVILLE	IN	46375-1191	US		Dear Donna,  Happy 65 Birthday! From Mom and Cheryl Hague	false		
111-6923035-8285006	55311203336322	2020-11-02T18:46:45+00:00	2020-11-02T10:46:45-08:00	2020-11-02T19:14:43+00:00	2020-11-05T07:59:59+00:00	-3	bnr26yg2swm80r5@marketplace.amazon.com	Kelly	+1 602-671-6610 ext. 59794	ABM0033	Delivery by Thursday | Arabella Farm Direct Bouquet of Fresh Cut White Hydrangea with a Free Glass Vase	1	0	1	Expedited	Jane Kaserman	6323 SAINT ANDREWS CIR S			FORT MYERS	FL	33919-1719	US		Sending you birthday wishes! From Kelly, Dave Fallon & Eli From Kelly, Dave Fallon & Eli	false		
113-9612751-8450601	65089756857002	2020-11-02T19:00:19+00:00	2020-11-02T11:00:19-08:00	2020-11-02T19:25:21+00:00	2020-11-05T07:59:59+00:00	-3	kncw38t7s37hh9h@marketplace.amazon.com	Johanna Krause	+1 213-442-1463 ext. 16183	ABR0055	Delivery by Wednesday | Arabella Farm Direct Bouquet of 12 Stems of Fresh Cut Hot Pink Roses in a Free Designer Glass Vase	1	0	1	Expedited	Barbie Lutri-Gonzales	10430 APPALOOSA BAY			SAN ANTONIO	TX	78254-5862	US		Happy Birthday Barbie! Have a great year ahead.  We love and miss you, Johanna, Mathias, Pia From Johanna Krause	false		
112-4061117-8433002	22217385088866	2020-11-02T19:00:25+00:00	2020-11-02T11:00:25-08:00	2020-11-02T19:29:25+00:00	2020-11-05T07:59:59+00:00	-3	b7pl902xsvftqc1@marketplace.amazon.com	Valencia A de	+1 213-442-1463 ext. 78795	ABM022	Delivery by Tuesday | Purple Extravagance Bouquet by Arabella Bouquets	1	0	1	Expedited	Carolyn Lloyd	1636 WALNUT BOTTOM RD			NEWVILLE	PA	17241-9520	US		Dear Carolyn, Get Well Soon!!! Lotsa Love, Wayne & Valencia From Valencia A de	false		
114-6504460-5344239	63530408171170	2020-11-02T19:40:59+00:00	2020-11-02T11:40:59-08:00	2020-11-02T19:54:50+00:00	2020-11-05T07:59:59+00:00	-3	7pg3yybx7y13dh7@marketplace.amazon.com	b. l. black	+1 480-618-5344 ext. 49815	ABR014	Arabella Bouquets 18 Stems of Fresh Cut White Roses in a Free Designer Glass Vase	1	0	1	Standard	April Budetti	C/O WILSON 860 GALE DR			CAMPBELL	CA	95008-0903	US			false		
114-2357738-8409046	00288308377826	2020-11-02T19:30:26+00:00	2020-11-02T11:30:26-08:00	2020-11-02T20:00:28+00:00	2020-11-05T07:59:59+00:00	-3	nx14ffdfgt4mw2z@marketplace.amazon.com	Thomas Stevens	+1 619-854-2705 ext. 65338	ABR0055	Delivery by Wednesday | Arabella Farm Direct Bouquet of 12 Stems of Fresh Cut Hot Pink Roses in a Free Designer Glass Vase	1	0	1	Expedited	Thomas Stevens	1632 N CEDAR ST			FOLEY	AL	36535-1609	US			false		
113-2680123-6317845	26040328421986	2020-11-02T19:36:52+00:00	2020-11-02T11:36:52-08:00	2020-11-02T20:03:03+00:00	2020-11-05T07:59:59+00:00	-3	30630f36yhnynkl@marketplace.amazon.com	pamela swan	+1 619-854-2705 ext. 76619	ABM022	Delivery by Wednesday | Purple Extravagance Bouquet by Arabella Bouquets	1	0	1	Expedited	Roxy Hughes	842 S HEATHERSTONE ST			ORANGE	CA	92869-5327	US		Hugs and Love to you Roxy.  I am sorry for your loss. Bob was a wonderful man.  You are in my prayers. From pamela swan	false		
111-6858826-6035414	69918877920562	2020-11-02T19:58:00+00:00	2020-11-02T11:58:00-08:00	2020-11-02T20:27:51+00:00	2020-11-05T07:59:59+00:00	-3	frgqfs47s9mgdg6@marketplace.amazon.com	Victoria Wayne Bowley	+1 929-436-4790 ext. 54807	ABR0022	Delivery by Wednesday | Arabella Farm Direct Bouquet of 12 Fresh Cut Pink Roses with a Free Glass Vase	1	0	1	Expedited	Sabrina Labow	8569 WALNUT DR			LOS ANGELES	CA	90046-1949	US		Happy Birthday Sabrina!   Love you!! From Victoria Wayne Bowley	false		
114-9589440-8845049	34284854544122	2020-11-02T20:10:09+00:00	2020-11-02T12:10:09-08:00	2020-11-02T20:34:42+00:00	2020-11-05T07:59:59+00:00	-3	p2t9qld0d6xpmsf@marketplace.amazon.com	JENNIFER STREET	+1 929-436-4790 ext. 19901	ABM022	Delivery by Wednesday | Purple Extravagance Bouquet by Arabella Bouquets	1	0	1	Expedited	Kela Jones	3503 STAFFORD ST			HEPHZIBAH	GA	30815-6625	US		Thinking about you!  Love, ADP HRPRC team From JENNIFER STREET	false		
112-3540373-5281017	47021441419018	2020-11-02T20:25:54+00:00	2020-11-02T12:25:54-08:00	2020-11-02T20:54:29+00:00	2020-11-05T07:59:59+00:00	-3	25vbmdqsvrvd9qb@marketplace.amazon.com	Jeremy Weckwerth	+1 602-671-6610 ext. 06454	ABM022	Delivery by Wednesday | Purple Extravagance Bouquet by Arabella Bouquets	1	0	1	Expedited	Jeremy Weckwerth	1605 S 49TH ST			KANSAS CITY	KS	66106-2309	US			false		
114-2542998-4761810	34775817351970	2020-11-02T20:42:43+00:00	2020-11-02T12:42:43-08:00	2020-11-02T21:12:12+00:00	2020-11-05T07:59:59+00:00	-3	3qs43fjrbk070cv@marketplace.amazon.com	Martha Hammond	+1 602-671-6610 ext. 93532	ABM0044	Delivery by Thursday | Arabella Farm Direct Bouquet of Fresh Cut Blue Hydrangea with a Free Glass Vase	1	0	1	Expedited	Sharon Dicey	3506 Oakhorne			San Antonio	TX	78247	US		Happy Birthday Mom! From Martha, John and Benjamin	false		
113-8985209-5457843	43050612569658	2020-11-02T20:51:41+00:00	2020-11-02T12:51:41-08:00	2020-11-02T21:20:45+00:00	2020-11-05T07:59:59+00:00	-3	rwcfg0mtlfftgln@marketplace.amazon.com	Amy MOran	+1 480-618-5344 ext. 79284	ABM010	Delivery by Wednesday | The Spring Fling Bouquet by Arabella Bouquets with a Free Designer Glass Vase	1	0	1	Expedited	The Eakes Family	5816 HOWE DR			FAIRWAY	KS	66205-3440	US		Les, We are so sorry.  We all have very fond memories of your Dad.  We are thinking and praying for you all.  Love you lots. From Amy, Becca and Travis	false		
112-6805820-0619436	10610425309946	2020-11-02T20:53:01+00:00	2020-11-02T12:53:01-08:00	2020-11-02T21:22:39+00:00	2020-11-05T07:59:59+00:00	-3	sdklqytgjs3p5kw@marketplace.amazon.com	lery	+1 619-854-2705 ext. 71263	ABR0022	Delivery by Wednesday | Arabella Farm Direct Bouquet of 12 Fresh Cut Pink Roses with a Free Glass Vase	1	0	1	Expedited	jenny araujo	32 BURSEN CT APT4			ROCHESTER	NY	14609-1601	US			false		
113-5954894-3379441	34811160110458	2020-11-02T20:53:31+00:00	2020-11-02T12:53:31-08:00	2020-11-02T21:23:10+00:00	2020-11-05T07:59:59+00:00	-3	rwcfg0mtlfftgln@marketplace.amazon.com	Amy MOran	+1 415-851-9136 ext. 92461	ABM022	Delivery by Wednesday | Purple Extravagance Bouquet by Arabella Bouquets	1	0	1	Expedited	Jodi Capps	130 N MORSE AVE			LIBERTY	MO	64068-1545	US		Jodi, We are so sorry about Bob.  We all have such wonderful memories growing up.  We are thinking and praying for you all.  Love you lots. From Amy, Becca and Travis	false		
113-3922900-9145816	19034783701610	2020-11-02T21:04:34+00:00	2020-11-02T13:04:34-08:00	2020-11-02T21:28:58+00:00	2020-11-05T07:59:59+00:00	-3	0z4lh92yp8pn4hz@marketplace.amazon.com	Zapper	+1 602-671-6610 ext. 16405	ABM022	Delivery by Wednesday | Purple Extravagance Bouquet by Arabella Bouquets	1	0	1	Expedited	Joy Larson	788 DOGWOOD PL			ENUMCLAW	WA	98022-2959	US		We know you are going through a lot right now, but we appreciate all your hard work! We hope things calm down for you soon. You will also be receiving some Diet Coke between 11/9-11/12, Enjoy!!! From Cameron, Tiffany, and David	true		
114-8233662-9086666	68916329689506	2020-11-02T21:05:13+00:00	2020-11-02T13:05:13-08:00	2020-11-02T21:33:09+00:00	2020-11-05T07:59:59+00:00	-3	hry3062q9crzn2s@marketplace.amazon.com	Gina Byekova	+1 480-618-5344 ext. 82662	ABR0022	Delivery by Wednesday | Arabella Farm Direct Bouquet of 12 Fresh Cut Pink Roses with a Free Glass Vase	1	0	1	Expedited	Lola Sode	2920 CARLISLE ST # 1116 # 1116			DALLAS	TX	75204-1024	US		Congratulations beautiful momma and amazing double boarded doctor!!! Love you!  May God bless your family!!!!! From Gina Byekova	false		
112-7598044-5439423	53001049132578	2020-11-02T21:04:22+00:00	2020-11-02T13:04:22-08:00	2020-11-02T21:33:21+00:00	2020-11-05T07:59:59+00:00	-3	8150309bgvwmxy2@marketplace.amazon.com	Brandon Mario Pino	+1 929-436-4790 ext. 28514	ABM0044	Delivery by Thursday | Arabella Farm Direct Bouquet of Fresh Cut Blue Hydrangea with a Free Glass Vase	1	0	1	Expedited	Ruth Georgis	39 HOWLAND ST			BOSTON	MA	02121-1705	US			false		
112-2592004-4255465	43757356539154	2020-11-02T21:03:50+00:00	2020-11-02T13:03:50-08:00	2020-11-02T21:33:47+00:00	2020-11-05T07:59:59+00:00	-3	hj9pm70s72cvrm5@marketplace.amazon.com	Steve Whitworth	+1 480-618-5344 ext. 35282	ABR0022	Delivery by Wednesday | Arabella Farm Direct Bouquet of 12 Fresh Cut Pink Roses with a Free Glass Vase	1	0	1	Expedited	Ally  / Law Office of Steve Whitworth	2700 STOUGHTON WAY			SACRAMENTO	CA	95827-1071	US			true		
113-5190288-6089854	34108610999106	2020-11-02T21:25:44+00:00	2020-11-02T13:25:44-08:00	2020-11-02T21:52:28+00:00	2020-11-05T07:59:59+00:00	-3	14x3585636n5svn@marketplace.amazon.com	Richard P. Greene	+1 480-618-5344 ext. 93729	ABR0022	Delivery by Wednesday | Arabella Farm Direct Bouquet of 12 Fresh Cut Pink Roses with a Free Glass Vase	1	0	1	Expedited	Lauren Gabbe	39 PENNY LN			HAMPTON BAYS	NY	11946-3218	US		Baby,  9 years of you putting up with me.  You are a saint.  Love you very much! xoxox Ricky From Richard P. Greene	false		
112-5719181-5372210	31802275877858	2020-11-02T21:24:38+00:00	2020-11-02T13:24:38-08:00	2020-11-02T21:54:19+00:00	2020-11-05T07:59:59+00:00	-3	wtrllch2t6l5b9r@marketplace.amazon.com	Eric R. Murray	+1 929-436-4790 ext. 80696	ABM023	Delivery by Thursday | The Morning Sun Bouquet by Arabella Bouquets	1	0	1	Expedited	Barbara Murray	42 WILD ROSE AVE			SOUTH PORTLAND	ME	04106-6618	US		Happy Birthday, Mom! From Eric	false		
112-7422593-8640253	08733605413874	2020-11-02T21:31:01+00:00	2020-11-02T13:31:01-08:00	2020-11-02T21:54:37+00:00	2020-11-05T07:59:59+00:00	-3	5tdjr3jqzq8gn79@marketplace.amazon.com	Judy Buban	+1 619-854-2705 ext. 92738	ABM0033	Delivery by Thursday | Arabella Farm Direct Bouquet of Fresh Cut White Hydrangea with a Free Glass Vase	1	0	1	Expedited	Alan and Nancy Cook	917 S ILLINOIS ST			GENESEO	IL	61254-1813	US		Happy 50th Anniversary!   Love, Judy and Tony From Judy Buban	false		
112-0973337-5483438	01137041989434	2020-11-02T21:25:26+00:00	2020-11-02T13:25:26-08:00	2020-11-02T21:54:59+00:00	2020-11-05T07:59:59+00:00	-3	jylc66t0n042wy5@marketplace.amazon.com	Jake and Lora Kaasch	+1 213-442-1463 ext. 98009	ABR0033	Delivery by Wednesday | Arabella Farm Direct Bouquet of 12 Fresh Cut Orange Roses with a Free Glass Vase	1	0	1	Expedited	Roxanne Camden	13919 WOODTHORPE LN			HOUSTON	TX	77079-5820	US		Happy Birthday! From Love, Jake and Lora Kaasch	true		
111-1183991-2341044	09260039362482	2020-11-02T21:47:00+00:00	2020-11-02T13:47:00-08:00	2020-11-02T22:16:33+00:00	2020-11-05T07:59:59+00:00	-3	cf4v1rs4d1sfjz3@marketplace.amazon.com	Richard Griffith	+1 929-436-4790 ext. 09226	ABR0022	Delivery by Wednesday | Arabella Farm Direct Bouquet of 12 Fresh Cut Pink Roses with a Free Glass Vase	1	0	1	Expedited	Christine Griffith	RIVERSIDE ELEMENTARY SCHOOL	625 DIXIE GARDEN DR		SHREVEPORT	LA	71105-3807	US		Have a Great Day.  Love you. From Richie Griffith	false		
111-4860351-5522645	26324257348594	2020-11-02T22:04:15+00:00	2020-11-02T14:04:15-08:00	2020-11-02T22:34:18+00:00	2020-11-05T07:59:59+00:00	-3	xj90m1jk0jv8n9s@marketplace.amazon.com	Sarah and Matt	+1 415-851-9136 ext. 32960	ABM024	Delivery by Thursday | The Beauty of Color Bouquet by Arabella Bouquets	1	0	1	Expedited	JoAnn Hittie	1009 CARDINAL LN			CHERRY HILL	NJ	08003-2943	US		We hope you feel better JoAnn! From Matt, Sarah and Wyatt	false		
111-9084043-1747409	32427394678618	2020-11-02T22:09:32+00:00	2020-11-02T14:09:32-08:00	2020-11-02T22:39:49+00:00	2020-11-05T07:59:59+00:00	-3	zfq4ffsxc98k202@marketplace.amazon.com	Christine	+1 213-442-1463 ext. 66387	ABM031	Delivery by Thursday | The Harvest Moon Bouquet by Arabella Bouquets	1	0	1	Expedited	CHRISTINE PAPOLA	588 Main St.			NEW YORK MILLS	NY	13417	US			false		
111-9084043-1747409	66886824983794	2020-11-02T22:09:32+00:00	2020-11-02T14:09:32-08:00	2020-11-02T22:39:49+00:00	2020-11-05T07:59:59+00:00	-3	zfq4ffsxc98k202@marketplace.amazon.com	Christine	+1 213-442-1463 ext. 66387	ABM024	Delivery by Thursday | The Beauty of Color Bouquet by Arabella Bouquets	1	0	1	Expedited	CHRISTINE PAPOLA	588 Main St.			NEW YORK MILLS	NY	13417	US			false		
112-8779558-2474604	14656554000186	2020-11-02T22:12:44+00:00	2020-11-02T14:12:44-08:00	2020-11-02T22:42:01+00:00	2020-11-05T07:59:59+00:00	-3	bxc1c0c24fkvnjk@marketplace.amazon.com	Kelly	+1 619-854-2705 ext. 69375	ABM024	Delivery by Thursday | The Beauty of Color Bouquet by Arabella Bouquets	1	0	1	Expedited	NaVonne Bovino	5739 APACHE DR			MANTECA	CA	95336-2540	US		Happy Birthday Mom!  Love You From Kelly	false		
