order-id	order-item-id	purchase-date	payments-date	reporting-date	promise-date	days-past-promise	buyer-email	buyer-name	buyer-phone-number	sku	product-name	quantity-purchased	quantity-shipped	quantity-to-ship	ship-service-level	recipient-name	ship-address-1	ship-address-2	ship-address-3	ship-city	ship-state	ship-postal-code	ship-country	gift-wrap-type	gift-message-text	is-business-order	purchase-order-number	price-designation
113-6095834-1701854	18737767593522	2020-10-31T15:35:17+00:00	2020-10-31T08:35:17-07:00	2020-10-31T15:59:43+00:00	2020-11-04T07:59:59+00:00	-1	mp7r9cn68gycyx1@marketplace.amazon.com	John Savageau	+1 480-618-5344 ext. 62158	ABR004	Delivery by Tuesday | Arabella Farm Direct Bouquet of 12 Fresh Cut Yellow Roses with a Free Glass Vase	1	0	1	Expedited	Alison Willing	434 DAY MOUNTAIN RD			TEMPLE	ME	04984-3604	US		Happy Birthday.  You are a special, caring person who is often unappreciated.  We know all you do and we love you very much.  Do something special for yourself today! From Ann & John	false		
111-2154546-5272231	35111888871794	2020-11-02T02:30:52+00:00	2020-11-01T18:30:52-08:00	2020-11-02T02:59:16+00:00	2020-11-04T07:59:59+00:00	-1	l74whp5dtng1mxw@marketplace.amazon.com	Krystal Dogolo	+1 929-436-4790 ext. 14843	ABM020	Delivery by Tuesday | The Sunset Bouquet by Arabella Bouquets	1	0	1	Expedited	Maryanne Bauknecht	86 HELLSTROM RD			EAST HAVEN	CT	06512-1320	US		Happy Birthday! From Krystal & Mike	false		
111-3272806-1090657	59827217188362	2020-11-02T10:35:41+00:00	2020-11-02T02:35:41-08:00	2020-11-02T11:04:42+00:00	2020-11-05T07:59:59+00:00	-2	mv7yfcsx0gyrn4z@marketplace.amazon.com	Patricia Warshell	+1 602-671-6610 ext. 24040	ABR0022	Delivery by Tuesday | Arabella Farm Direct Bouquet of 12 Fresh Cut Pink Roses with a Free Glass Vase	1	0	1	Expedited	Deanna Clark	11428 BLUFF CREEK DR			OKLAHOMA CITY	OK	73162-3725	US		Happy Birthday Deanna. XXX From Trish, Sean, Ashley and the girls Ella and Audrey	false		
111-4433663-7126631	70110734868626	2020-11-02T10:58:54+00:00	2020-11-02T02:58:54-08:00	2020-11-02T11:20:16+00:00	2020-11-05T07:59:59+00:00	-2	kxz9jklp3zkpgtx@marketplace.amazon.com	Maria Elena Merlo Martinez	+1 480-618-5344 ext. 66839	ABR0022	Delivery by Tuesday | Arabella Farm Direct Bouquet of 12 Fresh Cut Pink Roses with a Free Glass Vase	1	0	1	Expedited	DONNA O'CONNOR	102 OLSON ST			ABINGTON	MA	02351-2382	US		DEAR DONNA. HAVE A WONDERFUL DAY!. LOTS OF LOVE FROM ELENA From Maria Elena Merlo Martinez	false		
114-7321429-6260250	62510582197018	2020-11-02T11:46:18+00:00	2020-11-02T03:46:18-08:00	2020-11-02T12:15:27+00:00	2020-11-05T07:59:59+00:00	-2	k133wlhqcchn8yz@marketplace.amazon.com	Alyssa	+1 480-618-5344 ext. 26000	ABM020	Delivery by Tuesday | The Sunset Bouquet by Arabella Bouquets	1	0	1	Expedited	Elaine Woodall	4 JESSUP CT			CARMEL	NY	10512-4910	US		Elaine, Happy birthday! I hope your day is as wonderful as you. The puppies say they love and miss you From Love, Alyssa	false		
112-4229646-3951423	60360640243338	2020-11-02T12:48:13+00:00	2020-11-02T04:48:13-08:00	2020-11-02T13:12:35+00:00	2020-11-05T07:59:59+00:00	-2	j9d2cxyq551rnpz@marketplace.amazon.com	Elaine Radis	+1 619-854-2705 ext. 82925	ABM020	Delivery by Tuesday | The Sunset Bouquet by Arabella Bouquets	1	0	1	Expedited	Molly MacDonald & Mark Bedine	29 PETER PARLEY RD APT 3			JAMAICA PLAIN	MA	02130-4951	US		Sadie Macs flowers, the first of. many in her life  With love Great Grandma From Elaine Radis	false		
114-8822998-1040252	09372725535026	2020-11-02T12:53:50+00:00	2020-11-02T04:53:50-08:00	2020-11-02T13:23:43+00:00	2020-11-05T07:59:59+00:00	-2	jvt82k6ypsx474c@marketplace.amazon.com	Hector	+1 480-618-5344 ext. 27802	ABR0022	Delivery by Tuesday | Arabella Farm Direct Bouquet of 12 Fresh Cut Pink Roses with a Free Glass Vase	1	0	1	Expedited	Hector Perez	1003 PATTON AVE			READING	PA	19611-1729	US			false		
113-6118535-2569864	36979008213002	2020-11-02T13:02:02+00:00	2020-11-02T05:02:02-08:00	2020-11-02T13:32:30+00:00	2020-11-05T07:59:59+00:00	-2	ggy2dgprgjz1k8n@marketplace.amazon.com	Karen V. Johnson	+1 213-442-1463 ext. 15209	ABR0055	Delivery by Tuesday | Arabella Farm Direct Bouquet of 12 Stems of Fresh Cut Hot Pink Roses in a Free Designer Glass Vase	1	0	1	Expedited	Caty and Hans Otten	404 BOW LN			GILBERTSVILLE	PA	19525-9180	US			false		
112-4420456-8355462	28798590432098	2020-11-02T13:14:49+00:00	2020-11-02T05:14:49-08:00	2020-11-02T13:41:44+00:00	2020-11-05T07:59:59+00:00	-2	rcb8krqdz1hts2r@marketplace.amazon.com	Kelly K Bacon	+1 602-671-6610 ext. 84241	ABM010	Delivery by Tuesday | The Spring Fling Bouquet by Arabella Bouquets with a Free Designer Glass Vase	1	0	1	Expedited	Shelby Gorski	111 RICHLAND DR			WAKE FOREST	NC	27587-6624	US		Happy Birthday!! Love ya!  Kelly and Bruce From Kelly K Bacon	false		
112-6779652-2955457	56725478992946	2020-11-02T13:34:32+00:00	2020-11-02T05:34:32-08:00	2020-11-02T14:02:20+00:00	2020-11-05T07:59:59+00:00	-2	v8bzr35w9symqzl@marketplace.amazon.com	Colleen	+1 619-854-2705 ext. 08488	ABM020	Delivery by Tuesday | The Sunset Bouquet by Arabella Bouquets	1	0	1	Expedited	Jessica Johnson	12724 KILLDEER ST NW			COON RAPIDS	MN	55448-7052	US		Wishing you a speed recovery with love!!! From Your Freedom Family!!	false		
113-3190870-7538612	19164556225170	2020-11-02T13:40:24+00:00	2020-11-02T05:40:24-08:00	2020-11-02T14:06:56+00:00	2020-11-05T07:59:59+00:00	-2	dvzkzh4nk8sbpcm@marketplace.amazon.com	Jennifer Davis	+1 602-671-6610 ext. 96430	ABR0022	Delivery by Tuesday | Arabella Farm Direct Bouquet of 12 Fresh Cut Pink Roses with a Free Glass Vase	1	0	1	Expedited	Kristin Smith	420 PARK AVE			COOS BAY	OR	97420-2232	US		Happy 45th!! Wish I could be there! From Jennifer Davis	false		
114-9043089-2506638	63220377273658	2020-11-02T13:45:37+00:00	2020-11-02T05:45:37-08:00	2020-11-02T14:13:28+00:00	2020-11-05T07:59:59+00:00	-2	t7rq1w1sdv2hwy4@marketplace.amazon.com	Minami Imamura	+1 929-436-4790 ext. 42759	ABB011	Delivery by Thursday | Arabella Bouquets 24 Stems of Fresh Cut Hot Pink Roses in a Free Designer Glass Vase	1	0	1	Expedited	Mayra Romero	624 W 5TH ST APT 6			LONG BEACH	CA	90802-2123	US		I love you mi amor hermosa... Enjoy the gift! From Minami Imamura	false		
114-7300442-9489048	25530343031378	2020-11-02T13:51:48+00:00	2020-11-02T05:51:48-08:00	2020-11-02T14:28:09+00:00	2020-11-05T07:59:59+00:00	-2	rm38hq2knmy17sq@marketplace.amazon.com	willis m. king	+1 480-618-5344 ext. 07385	ABR0022	Delivery by Tuesday | Arabella Farm Direct Bouquet of 12 Fresh Cut Pink Roses with a Free Glass Vase	1	0	1	Expedited	willis maurice king	432 ELKINS LK 1672 GREEN BRIAR DR			HUNTSVILLE	TX	77340-7310	US		For Princess Daughter From willis m. king	false		
113-3875571-4627466	63925958176882	2020-11-02T14:19:16+00:00	2020-11-02T06:19:16-08:00	2020-11-02T14:44:43+00:00	2020-11-05T07:59:59+00:00	-2	048ycmj88f2y1rj@marketplace.amazon.com	Deborah L Hummel	+1 213-442-1463 ext. 09192	ABM022	Delivery by Tuesday | Purple Extravagance Bouquet by Arabella Bouquets	1	0	1	Expedited	Florence Jankowski	529 KIMBERLY CIR			WEST MELBOURNE	FL	32904-5728	US		Busha, We love you and wish you an incredible 93rd birthday! Bruce, Deb, Eric, Bryan, Dawn, Nici, Lucas, Cohen and Carter From You Hummel's	false		
111-3136085-4422652	47022719946154	2020-11-02T14:23:56+00:00	2020-11-02T06:23:56-08:00	2020-11-02T14:50:29+00:00	2020-11-05T07:59:59+00:00	-2	sm6w77d83zjwxzx@marketplace.amazon.com	Elizabeth A. Bracken	+1 619-854-2705 ext. 78108	ABR0033	Delivery by Tuesday | Arabella Farm Direct Bouquet of 12 Fresh Cut Orange Roses with a Free Glass Vase	1	0	1	Expedited	Amy Arblaster	6258 LUCIUSBORO RD			HOMER CITY	PA	15748-6404	US		Sending some November love this week since I forgot your October birthday!! Thank you for being YOU!! ♥️ Have a wonderful day my friend! Love, Beth From Elizabeth A. Bracken	false		
112-8949699-7837026	46761673294354	2020-11-02T14:21:36+00:00	2020-11-02T06:21:36-08:00	2020-11-02T14:52:09+00:00	2020-11-05T07:59:59+00:00	-2	bs6jlfngy3cn11f@marketplace.amazon.com	Cora Siegel	+1 602-671-6610 ext. 93066	ABM020	Delivery by Tuesday | The Sunset Bouquet by Arabella Bouquets	1	0	1	Expedited	Karen McKay	6253 BEARWALLOW MOUNTAIN RD			GERTON	NC	28735-9722	US			false		
113-5327626-5044256	64249143661050	2020-11-02T14:25:37+00:00	2020-11-02T06:25:37-08:00	2020-11-02T14:55:47+00:00	2020-11-05T07:59:59+00:00	-2	gcz043kg6tfz2mv@marketplace.amazon.com	Jan Steverlynck	+1 602-671-6610 ext. 37212	ABR0022	Delivery by Tuesday | Arabella Farm Direct Bouquet of 12 Fresh Cut Pink Roses with a Free Glass Vase	1	0	1	Expedited	JAN STEVERLYNCK	C/O MARIA LAURA STEVERLYNCK	3519 76TH ST APT 22		JACKSON HEIGHTS	NY	11372-4567	US			false		
113-5292255-8915467	42446415986850	2020-11-02T14:44:59+00:00	2020-11-02T06:44:59-08:00	2020-11-02T15:13:25+00:00	2020-11-05T07:59:59+00:00	-2	n0zmt695vmtptxl@marketplace.amazon.com	Genevieve Woods	+1 602-671-6610 ext. 48475	ABR0022	Delivery by Tuesday | Arabella Farm Direct Bouquet of 12 Fresh Cut Pink Roses with a Free Glass Vase	1	0	1	Expedited	Tabitha Parker	3500 TANGLE BRUSH DR APT 79			THE WOODLANDS	TX	77381-2938	US		Thinking of you and sending hugs. Love you bunches. From The Fam	false		
114-3640460-3181831	67802172901010	2020-11-02T14:52:52+00:00	2020-11-02T06:52:52-08:00	2020-11-02T15:21:11+00:00	2020-11-05T07:59:59+00:00	-2	k6sc8638rg0cwbc@marketplace.amazon.com	Jane Stutzman	+1 929-436-4790 ext. 06963	ABM023	Delivery by Thursday | The Morning Sun Bouquet by Arabella Bouquets	1	0	1	Expedited	Jen Rodriguez	52954 HOLLOW TRL			SOUTH BEND	IN	46628-7413	US			false		
114-0346255-3861850	19280501795274	2020-11-02T15:14:58+00:00	2020-11-02T07:14:58-08:00	2020-11-02T15:34:25+00:00	2020-11-05T07:59:59+00:00	-2	l471p3by8k8hq1x@marketplace.amazon.com	Kellien	+1 415-851-9136 ext. 03943	ABR0022	Delivery by Tuesday | Arabella Farm Direct Bouquet of 12 Fresh Cut Pink Roses with a Free Glass Vase	1	0	1	Expedited	Connie Shears	23331 VIA LINDA APT B			MISSION VIEJO	CA	92691-6859	US		Thinking of you!  Thank you for being such a beautiful inspiration!   You’re truly a blessing in my life!  Love you so much Connie! From Kellie	false		
112-0591714-0064218	55480424825138	2020-11-02T15:09:31+00:00	2020-11-02T07:09:31-08:00	2020-11-02T15:38:58+00:00	2020-11-05T07:59:59+00:00	-2	yvcftvhm4c1sg50@marketplace.amazon.com	Gary Pritchett	+1 415-851-9136 ext. 74814	ABR0022	Delivery by Tuesday | Arabella Farm Direct Bouquet of 12 Fresh Cut Pink Roses with a Free Glass Vase	1	0	1	Expedited	Kelly Coombs	5736 ROLLING CREEK PL			GLEN ALLEN	VA	23059-6989	US			false		
113-3360801-4797057	48817973448690	2020-11-02T15:28:37+00:00	2020-11-02T07:28:37-08:00	2020-11-02T15:58:40+00:00	2020-11-05T07:59:59+00:00	-2	z1yrttms9sws0rl@marketplace.amazon.com	Dawn Detamore	+1 602-671-6610 ext. 63524	ABM024	Delivery by Thursday | The Beauty of Color Bouquet by Arabella Bouquets	1	0	1	Expedited	Karen Pulliam	4430 DONCASTER DR			INDIAN HEAD	MD	20640-3544	US			false		
112-7849118-4102614	18231317493282	2020-11-02T15:29:18+00:00	2020-11-02T07:29:18-08:00	2020-11-02T16:04:14+00:00	2020-11-05T07:59:59+00:00	-2	8bn418f5vw1qq92@marketplace.amazon.com	Nancy L. Deuel	+1 480-618-5344 ext. 34535	ABM022	Delivery by Tuesday | Purple Extravagance Bouquet by Arabella Bouquets	1	0	1	Expedited	Kathleen Parker	359 N DIXIE DR			ST GEORGE	UT	84770-7039	US		Dear Kathleen, Wishing you a  very happy birthday with many more to come. Wish I was  there with you to celebrate your special day.  Love  always Nancy From Nancy L. Deuel	false		
114-0251791-4033843	63128118806506	2020-11-02T15:48:19+00:00	2020-11-02T07:48:19-08:00	2020-11-02T16:11:59+00:00	2020-11-05T07:59:59+00:00	-2	p9p0k7qwkypylrn@marketplace.amazon.com	Michelle Lockwood	+1 415-851-9136 ext. 63345	ABR0022	Delivery by Tuesday | Arabella Farm Direct Bouquet of 12 Fresh Cut Pink Roses with a Free Glass Vase	1	0	1	Expedited	Leigh Logan	6424 WIND SONG DR			MCKINNEY	TX	75071-7638	US		Thinking of you and sending so much love and strength.   Lots of love, Dan, Michelle & Miles From Dan, Michelle & Miles	false		
112-2866865-4516235	63564545171802	2020-11-02T15:48:48+00:00	2020-11-02T07:48:48-08:00	2020-11-02T16:18:42+00:00	2020-11-05T07:59:59+00:00	-2	jcrs3w3xc7bfcp1@marketplace.amazon.com	Joe Willmes	+1 480-618-5344 ext. 72037	ABR0022	Delivery by Tuesday | Arabella Farm Direct Bouquet of 12 Fresh Cut Pink Roses with a Free Glass Vase	1	0	1	Expedited	Blake Willmes	10001 E VIA DEL PASTO			TUCSON	AZ	85747-5204	US			false		
114-8210434-1576241	62595487078170	2020-11-02T15:52:40+00:00	2020-11-02T07:52:40-08:00	2020-11-02T16:20:02+00:00	2020-11-05T07:59:59+00:00	-2	fbfw0hskj6xp52g@marketplace.amazon.com	walter rudella	+1 929-436-4790 ext. 53712	ABM022	Delivery by Tuesday | Purple Extravagance Bouquet by Arabella Bouquets	1	0	1	Expedited	Carol Rennard	BRIGHTON GARDENS 5 BOROLINE RD			SADDLE RIVER	NJ	07458-2343	US		Carol,  We are all thinking of you! Good luck with rehab!  Hugs and love, Gail, Edith, and Joan!	false		
111-1364648-7856246	34474712961010	2020-11-02T16:08:58+00:00	2020-11-02T08:08:58-08:00	2020-11-02T16:35:17+00:00	2020-11-05T07:59:59+00:00	-2	4pkxmn6dc3tz09p@marketplace.amazon.com	Jane Davenport	+1 480-618-5344 ext. 05571	ABM023	Delivery by Thursday | The Morning Sun Bouquet by Arabella Bouquets	1	0	1	Expedited	Karen Crowe	9148 WATER HAZARD DR			HUDSON	FL	34667-8529	US		Dear Karen, This is to thank you for all the wonderful work you do, like enriching children's lives and supporting our democratic processes.  Now get some sleep! Love, Jane From Jane Davenport	false		
113-4767013-0197003	64405657855418	2020-11-02T16:06:21+00:00	2020-11-02T08:06:21-08:00	2020-11-02T16:35:25+00:00	2020-11-05T07:59:59+00:00	-2	l60rtkt1lf7jbbv@marketplace.amazon.com	Wallace or Marsha Fowler	+1 213-442-1463 ext. 35665	ABM010	Delivery by Tuesday | The Spring Fling Bouquet by Arabella Bouquets with a Free Designer Glass Vase	1	0	1	Expedited	Dr. Tracy Barrett	109 NORTHLAKE DR			MADISON	MS	39110-5003	US		Enjoy your gift!  Just 'cause!  We love you! From Wallace or Marsha Fowler	false		
114-5863720-4346637	26735409360938	2020-11-02T16:16:14+00:00	2020-11-02T08:16:14-08:00	2020-11-02T16:44:31+00:00	2020-11-05T07:59:59+00:00	-2	sm5kpxl6610wsbv@marketplace.amazon.com	Gail Hundley	+1 415-851-9136 ext. 50545	ABM031	Delivery by Thursday | The Harvest Moon Bouquet by Arabella Bouquets	1	0	1	Expedited	Cindy Kuehner % Johnson	1104 E 4TH ST COURT			COAL VALLEY	IL	61240-9417	US		Hope you have a quick recovery            Love Gail Mike Tammy & John	false		
111-5302453-3505001	04891574129554	2020-11-02T16:31:34+00:00	2020-11-02T08:31:34-08:00	2020-11-02T16:51:29+00:00	2020-11-05T07:59:59+00:00	-2	2x69ll4ddjxhjxm@marketplace.amazon.com	Kim	+1 213-442-1463 ext. 50948	ABM022	Delivery by Tuesday | Purple Extravagance Bouquet by Arabella Bouquets	1	0	1	Expedited	Theresa Wheaton	67 OLD STONE LN			ROCHESTER	NY	14615-1535	US		Happy Birthday! Wish we could be there to celebrate! Miss you! Love you! From Dave & Kim	false		
111-4842872-9627468	70157861503842	2020-11-02T16:34:24+00:00	2020-11-02T08:34:24-08:00	2020-11-02T17:01:43+00:00	2020-11-05T07:59:59+00:00	-2	42nqr0jdv3zshwg@marketplace.amazon.com	Paul Steigerwald	+1 415-851-9136 ext. 71942	ABR0022	Delivery by Tuesday | Arabella Farm Direct Bouquet of 12 Fresh Cut Pink Roses with a Free Glass Vase	1	0	1	Expedited	Mrs. Lisa Ezell	2307 AZAHAR CT			LEAGUE CITY	TX	77573-3323	US		Our deepest sympathies at this time.  I have the sweetest memories of Jim.  In tender, Christian love,  Shelley and Paul. From Paul Steigerwald	false		
114-9993395-8803468	07186631900698	2020-11-02T16:52:31+00:00	2020-11-02T08:52:31-08:00	2020-11-02T17:21:26+00:00	2020-11-05T07:59:59+00:00	-2	bfcsqw082f1dqnb@marketplace.amazon.com	Yuliya Rabinovich	+1 480-618-5344 ext. 88424	ABR0055	Delivery by Tuesday | Arabella Farm Direct Bouquet of 12 Stems of Fresh Cut Hot Pink Roses in a Free Designer Glass Vase	1	0	1	Expedited	Zhanetta Shamyunova	6244 WOODHAVEN BLVD APT M55			REGO PARK	NY	11374-3714	US		Дорогая мамочка, С днём рождения тебя любимая! From Yuliya Rabinovich	false		
111-4507274-2392257	61643287873162	2020-11-02T16:57:41+00:00	2020-11-02T08:57:41-08:00	2020-11-02T17:26:26+00:00	2020-11-05T07:59:59+00:00	-2	5m2lh8rccxckq8b@marketplace.amazon.com	Sarah Hackett	+1 415-851-9136 ext. 42801	ABM022	Delivery by Tuesday | Purple Extravagance Bouquet by Arabella Bouquets	1	0	1	Expedited	Sharon Desmond	10529 115TH AVE NE			LAKE STEVENS	WA	98258-8931	US		Happy Birthday, Mom. Enjoy the day. Love you. Sarah From Sarah Hackett	false		
114-1513461-0181803	29856694423162	2020-11-02T17:20:03+00:00	2020-11-02T09:20:03-08:00	2020-11-02T17:45:39+00:00	2020-11-05T07:59:59+00:00	-2	x4y02qv64zglc0q@marketplace.amazon.com	Phil Brittain	+1 619-854-2705 ext. 30526	ABR0055	Delivery by Tuesday | Arabella Farm Direct Bouquet of 12 Stems of Fresh Cut Hot Pink Roses in a Free Designer Glass Vase	1	0	1	Expedited	Nell Ruby	VILLAGE MANOR ASSISTED LIVING	1100 E TINKHAM AVE		LUDINGTON	MI	49431-2728	US		Happy Birthday Mom! From Phil and Judy	false		
112-6093436-2417865	02726252143010	2020-11-02T17:15:56+00:00	2020-11-02T09:15:56-08:00	2020-11-02T17:45:48+00:00	2020-11-05T07:59:59+00:00	-2	tdsp8ybths7dz2j@marketplace.amazon.com	Patricia Kapavik	+1 929-436-4790 ext. 12834	ABR0033	Delivery by Tuesday | Arabella Farm Direct Bouquet of 12 Fresh Cut Orange Roses with a Free Glass Vase	1	0	1	Expedited	Theresa Pesek	2294 E COMMON ST APT 420	RIO TERRA		NEW BRAUNFELS	TX	78130-3583	US			false		
111-9099456-8705846	67979424712106	2020-11-02T17:24:38+00:00	2020-11-02T09:24:38-08:00	2020-11-02T17:54:02+00:00	2020-11-05T07:59:59+00:00	-2	xk9gd1kb7zctj0z@marketplace.amazon.com	Michael Boles	+1 480-618-5344 ext. 06858	ABR0022	Delivery by Tuesday | Arabella Farm Direct Bouquet of 12 Fresh Cut Pink Roses with a Free Glass Vase	1	0	1	Expedited	Nicollette Gutzwiller	100 W CHESTNUT ST APT 506			CHICAGO	IL	60610-3298	US		I hope you have a wonderful birthday, I wish I was there to help celebrate :) From MB	false		
111-9284826-0665841	64977918721706	2020-11-02T17:32:44+00:00	2020-11-02T09:32:44-08:00	2020-11-02T18:02:17+00:00	2020-11-05T07:59:59+00:00	-2	92x35qqhx6s476z@marketplace.amazon.com	Trayc Sinzheimer	+1 602-671-6610 ext. 93841	ABR0055	Delivery by Tuesday | Arabella Farm Direct Bouquet of 12 Stems of Fresh Cut Hot Pink Roses in a Free Designer Glass Vase	1	0	1	Expedited	Jennifer Hansford	1401 NW 71ST CT			KANSAS CITY	MO	64118-9151	US		HAPPY BIRTHDAY!!!   WE LOVE YOU, MIKE & TRAYC From Trayc Sinzheimer	false		
111-0261064-7918631	53022630206386	2020-11-02T17:47:44+00:00	2020-11-02T09:47:44-08:00	2020-11-02T18:16:09+00:00	2020-11-05T07:59:59+00:00	-2	mdwhwxzp2mm5s0t@marketplace.amazon.com	w noonan	+1 619-854-2705 ext. 32558	ABM022	Delivery by Tuesday | Purple Extravagance Bouquet by Arabella Bouquets	1	0	1	Expedited	Robert noonan	433 PARKWOOD DR			SALISBURY	MD	21804-2803	US		Happy Anniversary. Thanks for all you do for all of us. Love William and Mari. From w noonan	false		
114-0546127-1301011	05433458815538	2020-11-02T18:01:51+00:00	2020-11-02T10:01:51-08:00	2020-11-02T18:18:00+00:00	2020-11-05T07:59:59+00:00	-2	7t3f51vqxkwv9z8@marketplace.amazon.com	Reba Reddish	+1 213-442-1463 ext. 53084	ABR0033	Delivery by Tuesday | Arabella Farm Direct Bouquet of 12 Fresh Cut Orange Roses with a Free Glass Vase	1	0	1	Expedited	Shirley West	19216 CIRCLE GATE DR APT 203			GERMANTOWN	MD	20874-5209	US		Special blessings sent your way.  Happy 90th Birthday cousin Shirley Love Greg and Reba From Reba Reddish	false		
112-5371170-4174668	36619852181458	2020-11-02T17:55:59+00:00	2020-11-02T09:55:59-08:00	2020-11-02T18:25:27+00:00	2020-11-05T07:59:59+00:00	-2	4cxchmdxt8tz45v@marketplace.amazon.com	Kim Campbell	816=294-6506	ABM0033	Delivery by Thursday | Arabella Farm Direct Bouquet of Fresh Cut White Hydrangea with a Free Glass Vase	1	0	1	Expedited	Nola Zeltwanger	1909 ASHLAND AVE			SAINT JOSEPH	MO	64506-2135	US		Happy birthday! We love you! Kim, Barry & Billy From Kim Campbell	false		
112-3072121-8924239	64205740121962	2020-11-02T17:57:28+00:00	2020-11-02T09:57:28-08:00	2020-11-02T18:27:18+00:00	2020-11-05T07:59:59+00:00	-2	kvccc3gx2j51c4m@marketplace.amazon.com	Heidi Bohrer	+1 602-671-6610 ext. 34278	ABR0022	Delivery by Tuesday | Arabella Farm Direct Bouquet of 12 Fresh Cut Pink Roses with a Free Glass Vase	1	0	1	Expedited	Premila Reddy	1 IRVING PL APT G27B			NEW YORK	NY	10003-9710	US		Happy new apartment!  Love, Pork From Heidi Bohrer	false		
111-7676415-8353800	00212549200050	2020-11-02T18:15:45+00:00	2020-11-02T10:15:45-08:00	2020-11-02T18:43:46+00:00	2020-11-05T07:59:59+00:00	-2	b147256tfp2z386@marketplace.amazon.com	Joanne Mashinski	+1 619-854-2705 ext. 50883	ABM010	Delivery by Tuesday | The Spring Fling Bouquet by Arabella Bouquets with a Free Designer Glass Vase	1	0	1	Expedited	Michelle Simoson	1206 FOREST HILLS DR			SOUTH LAKE	TX	76092-7802	US		Happy 60th Sista  Have a wonderful day ! Love Joanne	false		
112-6360525-1194648	36206847318338	2020-11-02T18:15:24+00:00	2020-11-02T10:15:24-08:00	2020-11-02T18:45:44+00:00	2020-11-05T07:59:59+00:00	-2	b7pl902xsvftqc1@marketplace.amazon.com	Valencia A de	+1 213-442-1463 ext. 95580	ABM0033	Delivery by Thursday | Arabella Farm Direct Bouquet of Fresh Cut White Hydrangea with a Free Glass Vase	1	0	1	Expedited	Carolyn Lloyd	1636 WALNUT BOTTOM RD			NEWVILLE	PA	17241-9520	US			false		
111-1443236-3040255	68551796821834	2020-11-02T18:20:14+00:00	2020-11-02T10:20:14-08:00	2020-11-02T18:49:05+00:00	2020-11-05T07:59:59+00:00	-2	b147256tfp2z386@marketplace.amazon.com	Joanne Mashinski	+1 929-436-4790 ext. 02908	ABM010	Delivery by Tuesday | The Spring Fling Bouquet by Arabella Bouquets with a Free Designer Glass Vase	1	0	1	Expedited	Terry Woydzick	1204 FRANKLIN ST			OLD FORGE	PA	18518-1225	US		Happy Birthday Dear Terry Have a wonderful day Love Joanne	false		
111-2306622-1401024	11857069350162	2020-11-02T18:23:58+00:00	2020-11-02T10:23:58-08:00	2020-11-02T18:54:07+00:00	2020-11-05T07:59:59+00:00	-2	472c1j5ktq48pg7@marketplace.amazon.com	Margie Elaine Britt	+1 415-851-9136 ext. 76928	ABR0022	Delivery by Tuesday | Arabella Farm Direct Bouquet of 12 Fresh Cut Pink Roses with a Free Glass Vase	1	0	1	Expedited	Susan Youmans	8928 CANOPY OAKS DR			JACKSONVILLE	FL	32256-4567	US			false		
111-0810827-2341856	16905882387930	2020-11-02T18:26:20+00:00	2020-11-02T10:26:20-08:00	2020-11-02T18:54:25+00:00	2020-11-05T07:59:59+00:00	-2	g86nmmgmq3lrr5y@marketplace.amazon.com	lily kanefield	+1 929-436-4790 ext. 52805	ABR001	Delivery by Tuesday | Arabella Bouquets 12 Stems of Fresh Cut Red Roses in a Free Designer Glass Vase	1	0	1	Expedited	Sandy Goldford	1520 WILLOWBROOKE MANORS CT			SAINT LOUIS	MO	63146-4883	US		Happy Birthday ❤️ We miss you  See you soon  xoxo Jeff and Renee From Reneé  kanefield	false		
113-9751902-0993008	55651450154874	2020-11-02T18:36:32+00:00	2020-11-02T10:36:32-08:00	2020-11-02T19:06:29+00:00	2020-11-05T07:59:59+00:00	-2	0lt434bbt5kyzzv@marketplace.amazon.com	Anthony Stark	+1 929-436-4790 ext. 37225	ABM022	Delivery by Tuesday | Purple Extravagance Bouquet by Arabella Bouquets	1	0	1	Expedited	Aunt Marge Avolio	11223 SE 182ND ST			RENTON	WA	98055-6514	US		Hope you feel better soon! Love Ya From Janet and Family	false		
114-5541154-7344251	45899190935730	2020-11-02T18:41:31+00:00	2020-11-02T10:41:31-08:00	2020-11-02T19:08:54+00:00	2020-11-05T07:59:59+00:00	-2	knz268ts3sjdbj0@marketplace.amazon.com	Cheryl Hague	+1 929-436-4790 ext. 93381	ABR0033	Delivery by Wednesday | Arabella Farm Direct Bouquet of 12 Fresh Cut Orange Roses with a Free Glass Vase	1	0	1	Expedited	Donna Moore	827 SPRUCE LN			SCHERERVILLE	IN	46375-1191	US		Dear Donna,  Happy 65 Birthday! From Mom and Cheryl Hague	false		
111-6923035-8285006	55311203336322	2020-11-02T18:46:45+00:00	2020-11-02T10:46:45-08:00	2020-11-02T19:14:43+00:00	2020-11-05T07:59:59+00:00	-2	bnr26yg2swm80r5@marketplace.amazon.com	Kelly	+1 602-671-6610 ext. 59794	ABM0033	Delivery by Thursday | Arabella Farm Direct Bouquet of Fresh Cut White Hydrangea with a Free Glass Vase	1	0	1	Expedited	Jane Kaserman	6323 SAINT ANDREWS CIR S			FORT MYERS	FL	33919-1719	US		Sending you birthday wishes! From Kelly, Dave Fallon & Eli From Kelly, Dave Fallon & Eli	false		
113-9612751-8450601	65089756857002	2020-11-02T19:00:19+00:00	2020-11-02T11:00:19-08:00	2020-11-02T19:25:21+00:00	2020-11-05T07:59:59+00:00	-2	kncw38t7s37hh9h@marketplace.amazon.com	Johanna Krause	+1 213-442-1463 ext. 16183	ABR0055	Delivery by Wednesday | Arabella Farm Direct Bouquet of 12 Stems of Fresh Cut Hot Pink Roses in a Free Designer Glass Vase	1	0	1	Expedited	Barbie Lutri-Gonzales	10430 APPALOOSA BAY			SAN ANTONIO	TX	78254-5862	US		Happy Birthday Barbie! Have a great year ahead.  We love and miss you, Johanna, Mathias, Pia From Johanna Krause	false		
112-4061117-8433002	22217385088866	2020-11-02T19:00:25+00:00	2020-11-02T11:00:25-08:00	2020-11-02T19:29:25+00:00	2020-11-05T07:59:59+00:00	-2	b7pl902xsvftqc1@marketplace.amazon.com	Valencia A de	+1 213-442-1463 ext. 78795	ABM022	Delivery by Tuesday | Purple Extravagance Bouquet by Arabella Bouquets	1	0	1	Expedited	Carolyn Lloyd	1636 WALNUT BOTTOM RD			NEWVILLE	PA	17241-9520	US		Dear Carolyn, Get Well Soon!!! Lotsa Love, Wayne & Valencia From Valencia A de	false		
114-6504460-5344239	63530408171170	2020-11-02T19:40:59+00:00	2020-11-02T11:40:59-08:00	2020-11-02T19:54:50+00:00	2020-11-05T07:59:59+00:00	-2	7pg3yybx7y13dh7@marketplace.amazon.com	b. l. black	+1 480-618-5344 ext. 49815	ABR014	Arabella Bouquets 18 Stems of Fresh Cut White Roses in a Free Designer Glass Vase	1	0	1	Standard	April Budetti	C/O WILSON 860 GALE DR			CAMPBELL	CA	95008-0903	US			false		
114-2357738-8409046	00288308377826	2020-11-02T19:30:26+00:00	2020-11-02T11:30:26-08:00	2020-11-02T20:00:28+00:00	2020-11-05T07:59:59+00:00	-2	nx14ffdfgt4mw2z@marketplace.amazon.com	Thomas Stevens	+1 619-854-2705 ext. 65338	ABR0055	Delivery by Wednesday | Arabella Farm Direct Bouquet of 12 Stems of Fresh Cut Hot Pink Roses in a Free Designer Glass Vase	1	0	1	Expedited	Thomas Stevens	1632 N CEDAR ST			FOLEY	AL	36535-1609	US			false		
113-2680123-6317845	26040328421986	2020-11-02T19:36:52+00:00	2020-11-02T11:36:52-08:00	2020-11-02T20:03:03+00:00	2020-11-05T07:59:59+00:00	-2	30630f36yhnynkl@marketplace.amazon.com	pamela swan	+1 619-854-2705 ext. 76619	ABM022	Delivery by Wednesday | Purple Extravagance Bouquet by Arabella Bouquets	1	0	1	Expedited	Roxy Hughes	842 S HEATHERSTONE ST			ORANGE	CA	92869-5327	US		Hugs and Love to you Roxy.  I am sorry for your loss. Bob was a wonderful man.  You are in my prayers. From pamela swan	false		
111-6858826-6035414	69918877920562	2020-11-02T19:58:00+00:00	2020-11-02T11:58:00-08:00	2020-11-02T20:27:51+00:00	2020-11-05T07:59:59+00:00	-2	frgqfs47s9mgdg6@marketplace.amazon.com	Victoria Wayne Bowley	+1 929-436-4790 ext. 54807	ABR0022	Delivery by Wednesday | Arabella Farm Direct Bouquet of 12 Fresh Cut Pink Roses with a Free Glass Vase	1	0	1	Expedited	Sabrina Labow	8569 WALNUT DR			LOS ANGELES	CA	90046-1949	US		Happy Birthday Sabrina!   Love you!! From Victoria Wayne Bowley	false		
114-9589440-8845049	34284854544122	2020-11-02T20:10:09+00:00	2020-11-02T12:10:09-08:00	2020-11-02T20:34:42+00:00	2020-11-05T07:59:59+00:00	-2	p2t9qld0d6xpmsf@marketplace.amazon.com	JENNIFER STREET	+1 929-436-4790 ext. 19901	ABM022	Delivery by Wednesday | Purple Extravagance Bouquet by Arabella Bouquets	1	0	1	Expedited	Kela Jones	3503 STAFFORD ST			HEPHZIBAH	GA	30815-6625	US		Thinking about you!  Love, ADP HRPRC team From JENNIFER STREET	false		
112-3540373-5281017	47021441419018	2020-11-02T20:25:54+00:00	2020-11-02T12:25:54-08:00	2020-11-02T20:54:29+00:00	2020-11-05T07:59:59+00:00	-2	25vbmdqsvrvd9qb@marketplace.amazon.com	Jeremy Weckwerth	+1 602-671-6610 ext. 06454	ABM022	Delivery by Wednesday | Purple Extravagance Bouquet by Arabella Bouquets	1	0	1	Expedited	Jeremy Weckwerth	1605 S 49TH ST			KANSAS CITY	KS	66106-2309	US			false		
114-2542998-4761810	34775817351970	2020-11-02T20:42:43+00:00	2020-11-02T12:42:43-08:00	2020-11-02T21:12:12+00:00	2020-11-05T07:59:59+00:00	-2	3qs43fjrbk070cv@marketplace.amazon.com	Martha Hammond	+1 602-671-6610 ext. 93532	ABM0044	Delivery by Thursday | Arabella Farm Direct Bouquet of Fresh Cut Blue Hydrangea with a Free Glass Vase	1	0	1	Expedited	Sharon Dicey	3506 Oakhorne			San Antonio	TX	78247	US		Happy Birthday Mom! From Martha, John and Benjamin	false		
113-8985209-5457843	43050612569658	2020-11-02T20:51:41+00:00	2020-11-02T12:51:41-08:00	2020-11-02T21:20:45+00:00	2020-11-05T07:59:59+00:00	-2	rwcfg0mtlfftgln@marketplace.amazon.com	Amy MOran	+1 480-618-5344 ext. 79284	ABM010	Delivery by Wednesday | The Spring Fling Bouquet by Arabella Bouquets with a Free Designer Glass Vase	1	0	1	Expedited	The Eakes Family	5816 HOWE DR			FAIRWAY	KS	66205-3440	US		Les, We are so sorry.  We all have very fond memories of your Dad.  We are thinking and praying for you all.  Love you lots. From Amy, Becca and Travis	false		
112-6805820-0619436	10610425309946	2020-11-02T20:53:01+00:00	2020-11-02T12:53:01-08:00	2020-11-02T21:22:39+00:00	2020-11-05T07:59:59+00:00	-2	sdklqytgjs3p5kw@marketplace.amazon.com	lery	+1 619-854-2705 ext. 71263	ABR0022	Delivery by Wednesday | Arabella Farm Direct Bouquet of 12 Fresh Cut Pink Roses with a Free Glass Vase	1	0	1	Expedited	jenny araujo	32 BURSEN CT APT4			ROCHESTER	NY	14609-1601	US			false		
113-5954894-3379441	34811160110458	2020-11-02T20:53:31+00:00	2020-11-02T12:53:31-08:00	2020-11-02T21:23:10+00:00	2020-11-05T07:59:59+00:00	-2	rwcfg0mtlfftgln@marketplace.amazon.com	Amy MOran	+1 415-851-9136 ext. 92461	ABM022	Delivery by Wednesday | Purple Extravagance Bouquet by Arabella Bouquets	1	0	1	Expedited	Jodi Capps	130 N MORSE AVE			LIBERTY	MO	64068-1545	US		Jodi, We are so sorry about Bob.  We all have such wonderful memories growing up.  We are thinking and praying for you all.  Love you lots. From Amy, Becca and Travis	false		
113-3922900-9145816	19034783701610	2020-11-02T21:04:34+00:00	2020-11-02T13:04:34-08:00	2020-11-02T21:28:58+00:00	2020-11-05T07:59:59+00:00	-2	0z4lh92yp8pn4hz@marketplace.amazon.com	Zapper	+1 602-671-6610 ext. 16405	ABM022	Delivery by Wednesday | Purple Extravagance Bouquet by Arabella Bouquets	1	0	1	Expedited	Joy Larson	788 DOGWOOD PL			ENUMCLAW	WA	98022-2959	US		We know you are going through a lot right now, but we appreciate all your hard work! We hope things calm down for you soon. You will also be receiving some Diet Coke between 11/9-11/12, Enjoy!!! From Cameron, Tiffany, and David	true		
114-8233662-9086666	68916329689506	2020-11-02T21:05:13+00:00	2020-11-02T13:05:13-08:00	2020-11-02T21:33:09+00:00	2020-11-05T07:59:59+00:00	-2	hry3062q9crzn2s@marketplace.amazon.com	Gina Byekova	+1 480-618-5344 ext. 82662	ABR0022	Delivery by Wednesday | Arabella Farm Direct Bouquet of 12 Fresh Cut Pink Roses with a Free Glass Vase	1	0	1	Expedited	Lola Sode	2920 CARLISLE ST # 1116 # 1116			DALLAS	TX	75204-1024	US		Congratulations beautiful momma and amazing double boarded doctor!!! Love you!  May God bless your family!!!!! From Gina Byekova	false		
112-7598044-5439423	53001049132578	2020-11-02T21:04:22+00:00	2020-11-02T13:04:22-08:00	2020-11-02T21:33:21+00:00	2020-11-05T07:59:59+00:00	-2	8150309bgvwmxy2@marketplace.amazon.com	Brandon Mario Pino	+1 929-436-4790 ext. 28514	ABM0044	Delivery by Thursday | Arabella Farm Direct Bouquet of Fresh Cut Blue Hydrangea with a Free Glass Vase	1	0	1	Expedited	Ruth Georgis	39 HOWLAND ST			BOSTON	MA	02121-1705	US			false		
112-2592004-4255465	43757356539154	2020-11-02T21:03:50+00:00	2020-11-02T13:03:50-08:00	2020-11-02T21:33:47+00:00	2020-11-05T07:59:59+00:00	-2	hj9pm70s72cvrm5@marketplace.amazon.com	Steve Whitworth	+1 480-618-5344 ext. 35282	ABR0022	Delivery by Wednesday | Arabella Farm Direct Bouquet of 12 Fresh Cut Pink Roses with a Free Glass Vase	1	0	1	Expedited	Ally  / Law Office of Steve Whitworth	2700 STOUGHTON WAY			SACRAMENTO	CA	95827-1071	US			true		
113-5190288-6089854	34108610999106	2020-11-02T21:25:44+00:00	2020-11-02T13:25:44-08:00	2020-11-02T21:52:28+00:00	2020-11-05T07:59:59+00:00	-2	14x3585636n5svn@marketplace.amazon.com	Richard P. Greene	+1 480-618-5344 ext. 93729	ABR0022	Delivery by Wednesday | Arabella Farm Direct Bouquet of 12 Fresh Cut Pink Roses with a Free Glass Vase	1	0	1	Expedited	Lauren Gabbe	39 PENNY LN			HAMPTON BAYS	NY	11946-3218	US		Baby,  9 years of you putting up with me.  You are a saint.  Love you very much! xoxox Ricky From Richard P. Greene	false		
112-5719181-5372210	31802275877858	2020-11-02T21:24:38+00:00	2020-11-02T13:24:38-08:00	2020-11-02T21:54:19+00:00	2020-11-05T07:59:59+00:00	-2	wtrllch2t6l5b9r@marketplace.amazon.com	Eric R. Murray	+1 929-436-4790 ext. 80696	ABM023	Delivery by Thursday | The Morning Sun Bouquet by Arabella Bouquets	1	0	1	Expedited	Barbara Murray	42 WILD ROSE AVE			SOUTH PORTLAND	ME	04106-6618	US		Happy Birthday, Mom! From Eric	false		
112-7422593-8640253	08733605413874	2020-11-02T21:31:01+00:00	2020-11-02T13:31:01-08:00	2020-11-02T21:54:37+00:00	2020-11-05T07:59:59+00:00	-2	5tdjr3jqzq8gn79@marketplace.amazon.com	Judy Buban	+1 619-854-2705 ext. 92738	ABM0033	Delivery by Thursday | Arabella Farm Direct Bouquet of Fresh Cut White Hydrangea with a Free Glass Vase	1	0	1	Expedited	Alan and Nancy Cook	917 S ILLINOIS ST			GENESEO	IL	61254-1813	US		Happy 50th Anniversary!   Love, Judy and Tony From Judy Buban	false		
112-0973337-5483438	01137041989434	2020-11-02T21:25:26+00:00	2020-11-02T13:25:26-08:00	2020-11-02T21:54:59+00:00	2020-11-05T07:59:59+00:00	-2	jylc66t0n042wy5@marketplace.amazon.com	Jake and Lora Kaasch	+1 213-442-1463 ext. 98009	ABR0033	Delivery by Wednesday | Arabella Farm Direct Bouquet of 12 Fresh Cut Orange Roses with a Free Glass Vase	1	0	1	Expedited	Roxanne Camden	13919 WOODTHORPE LN			HOUSTON	TX	77079-5820	US		Happy Birthday! From Love, Jake and Lora Kaasch	true		
111-1183991-2341044	09260039362482	2020-11-02T21:47:00+00:00	2020-11-02T13:47:00-08:00	2020-11-02T22:16:33+00:00	2020-11-05T07:59:59+00:00	-2	cf4v1rs4d1sfjz3@marketplace.amazon.com	Richard Griffith	+1 929-436-4790 ext. 09226	ABR0022	Delivery by Wednesday | Arabella Farm Direct Bouquet of 12 Fresh Cut Pink Roses with a Free Glass Vase	1	0	1	Expedited	Christine Griffith	RIVERSIDE ELEMENTARY SCHOOL	625 DIXIE GARDEN DR		SHREVEPORT	LA	71105-3807	US		Have a Great Day.  Love you. From Richie Griffith	false		
111-4860351-5522645	26324257348594	2020-11-02T22:04:15+00:00	2020-11-02T14:04:15-08:00	2020-11-02T22:34:18+00:00	2020-11-05T07:59:59+00:00	-2	xj90m1jk0jv8n9s@marketplace.amazon.com	Sarah and Matt	+1 415-851-9136 ext. 32960	ABM024	Delivery by Thursday | The Beauty of Color Bouquet by Arabella Bouquets	1	0	1	Expedited	JoAnn Hittie	1009 CARDINAL LN			CHERRY HILL	NJ	08003-2943	US		We hope you feel better JoAnn! From Matt, Sarah and Wyatt	false		
111-9084043-1747409	32427394678618	2020-11-02T22:09:32+00:00	2020-11-02T14:09:32-08:00	2020-11-02T22:39:49+00:00	2020-11-05T07:59:59+00:00	-2	zfq4ffsxc98k202@marketplace.amazon.com	Christine	+1 213-442-1463 ext. 66387	ABM031	Delivery by Thursday | The Harvest Moon Bouquet by Arabella Bouquets	1	0	1	Expedited	CHRISTINE PAPOLA	588 Main St.			NEW YORK MILLS	NY	13417	US			false		
111-9084043-1747409	66886824983794	2020-11-02T22:09:32+00:00	2020-11-02T14:09:32-08:00	2020-11-02T22:39:49+00:00	2020-11-05T07:59:59+00:00	-2	zfq4ffsxc98k202@marketplace.amazon.com	Christine	+1 213-442-1463 ext. 66387	ABM024	Delivery by Thursday | The Beauty of Color Bouquet by Arabella Bouquets	1	0	1	Expedited	CHRISTINE PAPOLA	588 Main St.			NEW YORK MILLS	NY	13417	US			false		
112-8779558-2474604	14656554000186	2020-11-02T22:12:44+00:00	2020-11-02T14:12:44-08:00	2020-11-02T22:42:01+00:00	2020-11-05T07:59:59+00:00	-2	bxc1c0c24fkvnjk@marketplace.amazon.com	Kelly	+1 619-854-2705 ext. 69375	ABM024	Delivery by Thursday | The Beauty of Color Bouquet by Arabella Bouquets	1	0	1	Expedited	NaVonne Bovino	5739 APACHE DR			MANTECA	CA	95336-2540	US		Happy Birthday Mom!  Love You From Kelly	false		
113-6785684-4620256	45219750756650	2020-11-02T22:17:45+00:00	2020-11-02T14:17:45-08:00	2020-11-02T22:47:07+00:00	2020-11-05T07:59:59+00:00	-2	0qqr89kqnstr79f@marketplace.amazon.com	Madi Maloof	+1 619-854-2705 ext. 58501	ABR0022	Delivery by Wednesday | Arabella Farm Direct Bouquet of 12 Fresh Cut Pink Roses with a Free Glass Vase	1	0	1	Expedited	Carlyn Hannum	1755 MCNEIL CIR			DUPONT	WA	98327-8725	US		We love you and are thinking of you and your family. I have such good memories of your grandma and how chatty and loving she was. Sending you our love From Kathleen & Matt Gadus	false		
114-6963507-7620203	49633101075138	2020-11-02T22:21:40+00:00	2020-11-02T14:21:40-08:00	2020-11-02T22:49:51+00:00	2020-11-05T07:59:59+00:00	-2	8hwn097j2w6v7ql@marketplace.amazon.com	pat	+1 480-618-5344 ext. 46923	ABM010	Delivery by Wednesday | The Spring Fling Bouquet by Arabella Bouquets with a Free Designer Glass Vase	1	0	1	Expedited	DCLS Paige Buesgens	2301 BELLEVUE AVE			LOS ANGELES	CA	90026-4017	US		Happy Birthday Paige!  Have the best day ever!  Shine Bright!! xoxo From Mom & the Boys	false		
113-3614933-2144261	39297466130370	2020-11-02T22:26:44+00:00	2020-11-02T14:26:44-08:00	2020-11-02T22:54:54+00:00	2020-11-05T07:59:59+00:00	-2	0qqr89kqnstr79f@marketplace.amazon.com	Madi Maloof	+1 602-671-6610 ext. 25227	ABR0022	Delivery by Wednesday | Arabella Farm Direct Bouquet of 12 Fresh Cut Pink Roses with a Free Glass Vase	1	0	1	Expedited	Cary & Liz Harlow	2648 ARNOLD ST			DUPONT	WA	98327-8716	US		Sending so much love your way. I have the best memories of Grandma Johnson and loved how much personality she had. We will be praying for you all From Princess Kate	false		
114-8435880-9563433	36619519532746	2020-11-02T22:28:58+00:00	2020-11-02T14:28:58-08:00	2020-11-02T22:55:24+00:00	2020-11-05T07:59:59+00:00	-2	f8mrz4l7jzs7ly0@marketplace.amazon.com	Adam Attar	+1 213-442-1463 ext. 37379	ABR0022	Delivery by Wednesday | Arabella Farm Direct Bouquet of 12 Fresh Cut Pink Roses with a Free Glass Vase	1	0	1	Expedited	Diane Scannapieco	7134 LITTLE NECK PKWY			FLORAL PARK	NY	11004-1127	US		Diane,   We are so sorry for your loss. John was such a great guy and had a wonderful personality. We hope these roses cheer you up. From Adam and Allyson	false		
113-0813181-0411461	35155891312714	2020-11-02T22:43:03+00:00	2020-11-02T14:43:03-08:00	2020-11-02T23:09:42+00:00	2020-11-05T07:59:59+00:00	-2	68k48xv929t2nc1@marketplace.amazon.com	Lindsey Culver	+1 480-618-5344 ext. 72658	ABR0022	Delivery by Wednesday | Arabella Farm Direct Bouquet of 12 Fresh Cut Pink Roses with a Free Glass Vase	1	0	1	Expedited	Kathleen Thompson	20740 W NELSON PL			BUCKEYE	AZ	85396-1684	US		Hi Kathleen, Enjoy your gift and congrats on your closing!!  From Lindsey & Noah Culver	false		
113-6243888-5657849	31080658559810	2020-11-02T22:52:36+00:00	2020-11-02T14:52:36-08:00	2020-11-02T23:19:22+00:00	2020-11-05T07:59:59+00:00	-2	ysm8dpsw8lkc7fn@marketplace.amazon.com	Frank	+1 619-854-2705 ext. 53785	ABM022	Delivery by Wednesday | Purple Extravagance Bouquet by Arabella Bouquets	1	0	1	Expedited	Elizabeth von Haunalter	1175 E KENNEDY BLVD UNIT 347			TAMPA	FL	33602-3598	US		Just wanting to let you know that you are loved and missed by us!  Love, Mommy and William	false		
113-4232188-7311461	42673344844058	2020-11-02T23:03:14+00:00	2020-11-02T15:03:14-08:00	2020-11-02T23:30:18+00:00	2020-11-05T07:59:59+00:00	-2	yr3yph9wr51qcz1@marketplace.amazon.com	paul desautels	+1 480-618-5344 ext. 91555	ABM020	Delivery by Wednesday | The Sunset Bouquet by Arabella Bouquets	1	0	1	Expedited	Darlene W Smith	6519 W PLEASANT WAY			ROGERS	AR	72758-8427	US		Thinking of you! Wishing you a great day! From Mr. Can't wait to see ya! ;)	false		
113-6681933-0128212	55445053074082	2020-11-02T23:08:52+00:00	2020-11-02T15:08:52-08:00	2020-11-02T23:36:34+00:00	2020-11-05T07:59:59+00:00	-2	zj9llrw15wlz5h7@marketplace.amazon.com	s. rummani	+1 929-436-4790 ext. 52544	ABR0022	Delivery by Wednesday | Arabella Farm Direct Bouquet of 12 Fresh Cut Pink Roses with a Free Glass Vase	1	0	1	Expedited	Stephani e. Rummani	168 E 81ST ST APT 3A			NEW YORK	NY	10028-1877	US		Happy birthday dear Stephanie! I love you! Nonna xoxo From Nonna	false		
112-3712218-2569865	66949862699586	2020-11-02T23:18:26+00:00	2020-11-02T15:18:26-08:00	2020-11-02T23:42:50+00:00	2020-11-05T07:59:59+00:00	-2	9dk5rzv8jhl74gn@marketplace.amazon.com	Dwayne R  Dindyal	+1 619-854-2705 ext. 04893	ABR0022	Delivery by Wednesday | Arabella Farm Direct Bouquet of 12 Fresh Cut Pink Roses with a Free Glass Vase	1	0	1	Expedited	Angela  Gentle	229 S ADAMS ST			DAYTONA BEACH	FL	32114-4123	US		Happy Birthday,  Love your Sister   God Bless !! From Hazel Hyacinth	false		
114-1419832-4545830	25301626460218	2020-11-02T23:16:56+00:00	2020-11-02T15:16:56-08:00	2020-11-02T23:44:52+00:00	2020-11-05T07:59:59+00:00	-2	5sqjj3zh1lccp4c@marketplace.amazon.com	sheila haskins	+1 619-854-2705 ext. 72932	ABM024	Delivery by Thursday | The Beauty of Color Bouquet by Arabella Bouquets	1	0	1	Expedited	Mary Silvia	780 OLD WARREN RD			SWANSEA	MA	02777-4312	US		Mary, Hope you feel better soon.  Love you, Sheila & Jim From sheila haskins	false		
114-2889494-0212253	49663378174570	2020-11-02T23:42:17+00:00	2020-11-02T15:42:17-08:00	2020-11-02T23:46:42+00:00	2020-11-05T07:59:59+00:00	-2	8y247jf4bv9mmyf@marketplace.amazon.com	Jarred Enos	+1 619-854-2705 ext. 31236	ABR0022	Delivery by Wednesday | Arabella Farm Direct Bouquet of 12 Fresh Cut Pink Roses with a Free Glass Vase	1	0	1	Expedited	Sarah Zamenski	8150 E MICHIGAN AVE APT 3			GALESBURG	MI	49053-9769	US		Sarah- We're sorry to hear about the loss of Uncle Bill. Sending our love. From Josh, Jarred, and Alison	false		
112-1851565-3405039	16889722962034	2020-11-02T23:25:26+00:00	2020-11-02T15:25:26-08:00	2020-11-02T23:48:06+00:00	2020-11-05T07:59:59+00:00	-2	9173vsn4zch7z1v@marketplace.amazon.com	Carson C Lambeth	+1 213-442-1463 ext. 06177	ABM010	Delivery by Wednesday | The Spring Fling Bouquet by Arabella Bouquets with a Free Designer Glass Vase	1	0	1	Expedited	Gina Reed	628 W IMPERIAL AVE APT 203			EL SEGUNDO	CA	90245-2083	US		Gina, We are so sorry about the loss of your grandmother.  You and your family are in our thoughts.  Please let us know if there is anything we can do to help. From Best wishes,  Carson and John	false		
113-7848734-5319408	00853956545954	2020-11-02T23:26:38+00:00	2020-11-02T15:26:38-08:00	2020-11-02T23:54:25+00:00	2020-11-05T07:59:59+00:00	-2	zj9llrw15wlz5h7@marketplace.amazon.com	s. rummani	+1 213-442-1463 ext. 45842	ABR0066	Delivery by Wednesday | Arabella Bouquets 12 Stems of Fresh Cut White Roses in a Free Designer Glass Vase	1	0	1	Expedited	Stephanie. Rummani	168 E 81ST ST APT 3A			NEW YORK	NY	10028-1877	US			false		
114-6795976-6946613	60613873997154	2020-11-02T23:31:15+00:00	2020-11-02T15:31:15-08:00	2020-11-02T23:56:41+00:00	2020-11-05T07:59:59+00:00	-2	q9vtlrbp3bcf2h9@marketplace.amazon.com	Kimya Karshenas	+1 619-854-2705 ext. 48508	ABM010	Delivery by Wednesday | The Spring Fling Bouquet by Arabella Bouquets with a Free Designer Glass Vase	1	0	1	Expedited	Donna Hansen	COUNTRYVIEW CARE AND REHABILITATION	811 E 14TH ST		WAYNE	NE	68787-1216	US		Hope you enjoy the flowers, and feel better soon. Love you, grandma! ❤️ From Lindsey Hansen	false		
111-6014217-3288234	00538460335754	2020-11-02T23:50:32+00:00	2020-11-02T15:50:32-08:00	2020-11-03T00:17:15+00:00	2020-11-05T07:59:59+00:00	-2	1dl78v442m1ylqh@marketplace.amazon.com	Carlos	+1 213-442-1463 ext. 21351	ABR001	Delivery by Wednesday | Arabella Bouquets 12 Stems of Fresh Cut Red Roses in a Free Designer Glass Vase	1	0	1	Expedited	Juice Christie	APARTAMENTO307 87 SANFORD RD			WESTPORT	MA	02790-3600	US		¡Disfruta de tu regalo! De Carlos	false		
113-3936220-5830654	56641538364226	2020-11-03T00:07:20+00:00	2020-11-02T16:07:20-08:00	2020-11-03T00:31:26+00:00	2020-11-05T07:59:59+00:00	-2	j04k6fmsrrmjd8q@marketplace.amazon.com	Joe Burkard	+1 213-442-1463 ext. 15818	ABM024	Delivery by Thursday | The Beauty of Color Bouquet by Arabella Bouquets	1	0	1	Expedited	Terry West	866 N 1ST AVE			UPLAND	CA	91786-3901	US		Terry and Steve, we just wanted to thank you so much for always taking the time to be there for Mom. It’s hard being so far from her, but so much easier knowing you’re her neighbors and friends. From Joe and Rena Burkard	false		
113-3887689-9544219	00497212391602	2020-11-03T00:05:39+00:00	2020-11-02T16:05:39-08:00	2020-11-03T00:33:29+00:00	2020-11-05T07:59:59+00:00	-2	k04jlkrc4cn9drp@marketplace.amazon.com	Zachary Conley	+1 213-442-1463 ext. 23740	ABM022	Delivery by Wednesday | Purple Extravagance Bouquet by Arabella Bouquets	1	0	1	Expedited	Amy Corn	3405 SW LAKE SHORE DR			BLUE SPRINGS	MO	64014-5430	US		Happy Birthday Amy! From Aunt Pat and Zach	false		
111-2572380-9636213	49467315222074	2020-11-03T00:13:41+00:00	2020-11-02T16:13:41-08:00	2020-11-03T00:41:48+00:00	2020-11-05T07:59:59+00:00	-2	v2g7ycg8nrpf79g@marketplace.amazon.com	Stephanie J Richards	+1 480-618-5344 ext. 51588	ABM022	Delivery by Wednesday | Purple Extravagance Bouquet by Arabella Bouquets	1	0	1	Expedited	Jill Richards	3279 BRAIDWOOD DR			HILLIARD	OH	43026-2411	US		Happy birthday Mom! Love, From Stephanie, Elaine, and Alison	false		
114-7106687-2401049	56129643156970	2020-11-03T00:13:23+00:00	2020-11-02T16:13:23-08:00	2020-11-03T00:42:47+00:00	2020-11-05T07:59:59+00:00	-2	8y247jf4bv9mmyf@marketplace.amazon.com	Jarred Enos	+1 213-442-1463 ext. 96534	ABM002	Delivery by Thursday | Arabella Bouquets Fresh Cut White Calla Lilies in a Free Designer Glass Vase	1	0	1	Expedited	Adam and Katie Zamenski	2227 HICKORYWOOD DR			GAYLORD	MI	49735-8218	US		Adam and Katie- We're so sorry to hear about the loss of Uncle Bill. Thinking of you! From Josh Jarred and Alison	false		
114-9264415-7110630	37722337406162	2020-11-03T00:13:39+00:00	2020-11-02T16:13:39-08:00	2020-11-03T00:43:22+00:00	2020-11-05T07:59:59+00:00	-2	p01wwqq9ghxhgwj@marketplace.amazon.com	Christina Hale	+1 619-854-2705 ext. 21067	ABM010	Delivery by Wednesday | The Spring Fling Bouquet by Arabella Bouquets with a Free Designer Glass Vase	1	0	1	Expedited	Shari Pratt	158 1ST ST			WOODLAND	CA	95695-3265	US		Get lots of rest. I love you mom! From Christina Hale	false		
114-3789670-6593831	33727511854394	2020-11-03T00:23:10+00:00	2020-11-02T16:23:10-08:00	2020-11-03T00:49:53+00:00	2020-11-05T07:59:59+00:00	-2	qhvtk7w4w9whch0@marketplace.amazon.com	zuleika paniagua	+1 619-854-2705 ext. 92367	ABR0022	Delivery by Wednesday | Arabella Farm Direct Bouquet of 12 Fresh Cut Pink Roses with a Free Glass Vase	1	0	1	Expedited	Blanca Paniagua	313 ORANGE GROVE AVE			PLACENTIA	CA	92870-4809	US		Muchas gracias a los dos por todo lo que hacen por nosotros. Que Diosito me los cuide mucho y que siempre estén en buena salud. Los queremos mucho los Quenga. From Jesse, Zuleika, Alessandrita y Jagger	false		
113-3828483-4231414	20593641035042	2020-11-03T00:25:09+00:00	2020-11-02T16:25:09-08:00	2020-11-03T00:55:23+00:00	2020-11-05T07:59:59+00:00	-2	nhct27g3gmywszh@marketplace.amazon.com	Jessica Paz	+1 619-854-2705 ext. 83530	ABM0044	Delivery by Thursday | Arabella Farm Direct Bouquet of Fresh Cut Blue Hydrangea with a Free Glass Vase	1	0	1	Expedited	Zoila Paz	1116 CANYON MAPLE RD			PFLUGERVILLE	TX	78660-5808	US			false		
111-4938525-1015469	04554963407266	2020-11-03T00:28:50+00:00	2020-11-02T16:28:50-08:00	2020-11-03T00:57:18+00:00	2020-11-05T07:59:59+00:00	-2	3cg368nn8lkrw71@marketplace.amazon.com	Linda Cooks	+1 619-854-2705 ext. 16347	ABR0055	Delivery by Wednesday | Arabella Farm Direct Bouquet of 12 Stems of Fresh Cut Hot Pink Roses in a Free Designer Glass Vase	1	0	1	Expedited	Joy Johnson, Esq.	8616 LA TIJERA BLVD STE 502			LOS ANGELES	CA	90045-3950	US			false		
111-4774261-2500249	19855006102378	2020-11-03T00:31:57+00:00	2020-11-02T16:31:57-08:00	2020-11-03T00:58:48+00:00	2020-11-05T07:59:59+00:00	-2	xqf9jjy33gnjlx9@marketplace.amazon.com	Ernella Hopson	+1 213-442-1463 ext. 46113	ABR0022	Delivery by Wednesday | Arabella Farm Direct Bouquet of 12 Fresh Cut Pink Roses with a Free Glass Vase	1	0	1	Expedited	Amelita Cerdon	3273 SPRINGBROOK AVE			GRAND PRAIRIE	TX	75050-6779	US		Its never easy to see your children hurting. May Jehovah give you the strength you need to support Laly, Harley, and Zoie.       Enjoy your gift! From Zachery and Ernella Hopson	false		
112-7774374-6862611	02739527475122	2020-11-03T00:38:13+00:00	2020-11-02T16:38:13-08:00	2020-11-03T01:06:01+00:00	2020-11-05T07:59:59+00:00	-2	tl2nfhsk96sjlhf@marketplace.amazon.com	Jennifer	+1 213-442-1463 ext. 89510	ABM022	Delivery by Wednesday | Purple Extravagance Bouquet by Arabella Bouquets	1	0	1	Expedited	Tania Parra aka Wifey	1218 CORONEL AVE			VALLEJO	CA	94591-7917	US		HAPPY BIRTHDAY WIFEY!!!! You are just amazing!! I’m so lucky to have a friend like you. Sorry I’m not there to celebrate. We will 100% have to celebrate together! I love you so much!!!! Xoxo From Wifey	false		
113-3412047-7185866	32260878740482	2020-11-03T00:42:46+00:00	2020-11-02T16:42:46-08:00	2020-11-03T01:12:43+00:00	2020-11-05T07:59:59+00:00	-2	8v07y6kz28s3n68@marketplace.amazon.com	Trey Clark	+1 602-671-6610 ext. 37857	ABR0022	Delivery by Wednesday | Arabella Farm Direct Bouquet of 12 Fresh Cut Pink Roses with a Free Glass Vase	1	0	1	Expedited	Stephanie Brouse	1217 W DREW ST APT B			HOUSTON	TX	77006-1281	US			false		
111-5877349-8615400	38866289116330	2020-11-03T00:45:07+00:00	2020-11-02T16:45:07-08:00	2020-11-03T01:15:50+00:00	2020-11-05T07:59:59+00:00	-2	7wcx6cbcvw8815c@marketplace.amazon.com	james halvorson	+1 619-854-2705 ext. 74928	ABR0022	Delivery by Wednesday | Arabella Farm Direct Bouquet of 12 Fresh Cut Pink Roses with a Free Glass Vase	1	0	1	Expedited	james halvorson	7625 staples ave			iron river	wisconsin	54847	US			false		
113-3913414-9697851	49110445169242	2020-11-03T00:49:51+00:00	2020-11-02T16:49:51-08:00	2020-11-03T01:17:12+00:00	2020-11-05T07:59:59+00:00	-2	g7vsr5wmqn2v4sg@marketplace.amazon.com	James Gordon	+1 602-671-6610 ext. 82510	ABM010	Delivery by Wednesday | The Spring Fling Bouquet by Arabella Bouquets with a Free Designer Glass Vase	1	0	1	Expedited	Margaret Crossland	4160 COLD STREAM RD			AUBURN	CA	95602-9751	US		Here’s to better days ahead! We love you Margaret!❤️ From James Gordon	false		
114-1334388-5787413	23863776555194	2020-11-03T00:59:03+00:00	2020-11-02T16:59:03-08:00	2020-11-03T01:24:10+00:00	2020-11-05T07:59:59+00:00	-2	yk602bj86dw04rt@marketplace.amazon.com	Angelita	+1 480-618-5344 ext. 30115	ABM022	Delivery by Wednesday | Purple Extravagance Bouquet by Arabella Bouquets	1	0	1	Expedited	Carey Davis	1207 NORPOINT WAY NE			TACOMA	WA	98422-3134	US		Carey, Please accept our deepest condolences during this difficult time and know that you have our sincere thoughts and prayers. From All of us at Volt	false		
111-0914269-6003465	25203371744730	2020-11-03T01:09:44+00:00	2020-11-02T17:09:44-08:00	2020-11-03T01:38:57+00:00	2020-11-05T07:59:59+00:00	-2	vrqh1ws64k38g63@marketplace.amazon.com	pearline b. mcknight	+1 619-854-2705 ext. 16601	ABR0022	Delivery by Wednesday | Arabella Farm Direct Bouquet of 12 Fresh Cut Pink Roses with a Free Glass Vase	1	0	1	Standard	Victoria Flanigan	4848 E ROOSEVELT ST APT 1044			PHOENIX	AZ	85008-7331	US		Happy 1 year anniversary baby. Thank you for the best year i ever had and can’t wait for more years to come with you. LOVE YOU!!!’n From Damien McKnight	false		
111-9637864-7761868	22252952802906	2020-11-03T01:15:40+00:00	2020-11-02T17:15:40-08:00	2020-11-03T01:44:44+00:00	2020-11-05T07:59:59+00:00	-2	gg8svrbflbj53lf@marketplace.amazon.com	Adrian	+1 602-671-6610 ext. 33811	ABR0033	Delivery by Wednesday | Arabella Farm Direct Bouquet of 12 Fresh Cut Orange Roses with a Free Glass Vase	1	0	1	Expedited	Mirta Lopez	9320 SW 34TH ST			MIAMI	FL	33165-4112	US		Happy Birthday. Love,  Adriana, Adib, Sebastian, y Sabrina From Adrian	false		
111-7566962-4103401	56542915221554	2020-11-03T01:18:36+00:00	2020-11-02T17:18:36-08:00	2020-11-03T01:46:10+00:00	2020-11-05T07:59:59+00:00	-2	mv0sz2bg19q8knm@marketplace.amazon.com	Jiho Ro	+1 619-854-2705 ext. 64128	ABR0022	Delivery by Wednesday | Arabella Farm Direct Bouquet of 12 Fresh Cut Pink Roses with a Free Glass Vase	1	0	1	Expedited	Angela Park	4520 LOMA COLORADA CT			EL PASO	TX	79934-4131	US		Happy 1 year Angela! I am so lucky to have you and I enjoyed every moment that I got to spend with you. I wish I could've picked each and every flower for you but this is the best I can do for now. You deserve the world! From Jiho Ro	false		
111-9488867-7371407	18947940107466	2020-11-03T01:21:11+00:00	2020-11-02T17:21:11-08:00	2020-11-03T01:46:34+00:00	2020-11-05T07:59:59+00:00	-2	mfcgntc632tkbvx@marketplace.amazon.com	Anne Wieland	+1 415-851-9136 ext. 39449	ABR0033	Delivery by Wednesday | Arabella Farm Direct Bouquet of 12 Fresh Cut Orange Roses with a Free Glass Vase	1	0	1	Expedited	Jen Kirkland	801 COLLEGE DR			SAN JOSE	CA	95128-3204	US		Jennifer,  Roses are red, violets are blue...boy oh boy we sure miss you! Happy 50th Bday to the best sister, sister-in-law, Aunt, Godmother, & friend in the world. U deserve only the best life has to offer!! From Anne, Steve, & Matt	false		
112-0576715-5305024	60228361930546	2020-11-03T01:25:40+00:00	2020-11-02T17:25:40-08:00	2020-11-03T01:54:52+00:00	2020-11-05T07:59:59+00:00	-2	xhj4q9nb4nv390g@marketplace.amazon.com	Linda Coy	+1 480-618-5344 ext. 60589	ABM022	Delivery by Wednesday | Purple Extravagance Bouquet by Arabella Bouquets	1	0	1	Expedited	Mary Chalfant	204 EDGEWOOD DR			WEBSTER CITY	IA	50595-3130	US		Happy Birthday! We hope you have a good one! From Linda, Mike, Bella, and Stella	false		
112-4491547-8032218	47583135227562	2020-11-03T01:28:54+00:00	2020-11-02T17:28:54-08:00	2020-11-03T01:57:57+00:00	2020-11-05T07:59:59+00:00	-2	nxckzmdn1mx5sff@marketplace.amazon.com	Lori L. Canfield	+1 213-442-1463 ext. 73287	ABR0022	Delivery by Wednesday | Arabella Farm Direct Bouquet of 12 Fresh Cut Pink Roses with a Free Glass Vase	1	0	1	Expedited	Theresa Jackson	15 BRANDYWINE CIR			BROWNSBURG	IN	46112-1075	US		Just thinking of you! Hope you are feeling better! Love you both! From Lori L. Canfield	false		
111-2855346-9656266	02262530593578	2020-11-03T01:41:55+00:00	2020-11-02T17:41:55-08:00	2020-11-03T02:03:50+00:00	2020-11-05T07:59:59+00:00	-2	cky1c5zvl5bjvgy@marketplace.amazon.com	Mindy Blake	+1 619-854-2705 ext. 88687	ABM022	Delivery by Wednesday | Purple Extravagance Bouquet by Arabella Bouquets	1	0	1	Expedited	Jan Panka	117 HAMILTON LN			MC CORMICK	SC	29835-3126	US		Hi Jan/Mom/Grandma! Having you here the last couple months has meant the world to us.  We love you so much, and it was wonderful to have you in our home.  Lets do it again soon! Love always From Mindy, Andy, Lexa	false		
112-6220813-3955400	27037659914906	2020-11-03T01:51:10+00:00	2020-11-02T17:51:10-08:00	2020-11-03T02:19:52+00:00	2020-11-05T07:59:59+00:00	-2	bzjs2fs7k21j3y5@marketplace.amazon.com	Sally Gensel	+1 213-442-1463 ext. 04628	ABR0055	Delivery by Wednesday | Arabella Farm Direct Bouquet of 12 Stems of Fresh Cut Hot Pink Roses in a Free Designer Glass Vase	1	0	1	Expedited	Robert Gensel	6748 STONETRACE ST			LAS VEGAS	NV	89148-5094	US		For my beautiful wife, that I love so much. From Hub Bub	false		
114-1568319-6309827	04332900887930	2020-11-03T01:52:55+00:00	2020-11-02T17:52:55-08:00	2020-11-03T02:22:19+00:00	2020-11-05T07:59:59+00:00	-2	txt34smkm4n14tq@marketplace.amazon.com	Michael Garcia	+1 619-854-2705 ext. 61750	ABM010	Delivery by Wednesday | The Spring Fling Bouquet by Arabella Bouquets with a Free Designer Glass Vase	1	0	1	Expedited	Cindy Dong	4016 W BLOOMFIELD RD			PHOENIX	AZ	85029-2968	US		Happy birthday Aunt Cindy! Special people are born on November 4th! Love you! From Michael, Alana and AJ	false		
113-8847540-0528239	34459250313978	2020-11-03T02:03:21+00:00	2020-11-02T18:03:21-08:00	2020-11-03T02:28:59+00:00	2020-11-05T07:59:59+00:00	-2	89d4x2ynvkfdp4v@marketplace.amazon.com	Agustina Lima	+1 602-671-6610 ext. 36521	ABR0022	Delivery by Wednesday | Arabella Farm Direct Bouquet of 12 Fresh Cut Pink Roses with a Free Glass Vase	1	0	1	Expedited	Agustina Lima	553 LOGAN ST SALON			BROOKLYN	NY	11208-2527	US		Enjoy your  HappyBirthday dear friend love Jackie From Agustina Lima	false		
114-6957264-9772215	34798153180378	2020-11-03T02:10:44+00:00	2020-11-02T18:10:44-08:00	2020-11-03T02:39:50+00:00	2020-11-05T07:59:59+00:00	-2	xxqst9kj8lc0ylp@marketplace.amazon.com	Jose Castañon	+1 480-618-5344 ext. 76546	ABR001	Delivery by Wednesday | Arabella Bouquets 12 Stems of Fresh Cut Red Roses in a Free Designer Glass Vase	1	0	1	Expedited	Jessica Jimenez	2114 REYNOLDS ST			BRUNSWICK	GA	31520-5835	US			false		
112-8783536-8047463	69600680262690	2020-11-03T02:15:20+00:00	2020-11-02T18:15:20-08:00	2020-11-03T02:44:01+00:00	2020-11-05T07:59:59+00:00	-2	8hg9st40xnvf3fg@marketplace.amazon.com	Jon Fidler	+1 619-854-2705 ext. 97907	ABM022	Delivery by Wednesday | Purple Extravagance Bouquet by Arabella Bouquets	1	0	1	Expedited	Grandma Jean Brown	19717 N ORANGETREE CT			SURPRISE	AZ	85374-4957	US		Happy birthday Grandma! We love you! From Jon,Michele,Makena,Karsten&Doug	false		
114-6030713-7779427	46093193572754	2020-11-03T02:22:44+00:00	2020-11-02T18:22:44-08:00	2020-11-03T02:45:59+00:00	2020-11-05T07:59:59+00:00	-2	s2frv5t5xqb184l@marketplace.amazon.com	Rebekah C. Hanks	+1 602-671-6610 ext. 44060	ABM021	Delivery by Thursday | The Joyous Bouquet by Arabella Bouquets	1	0	1	Expedited	Zona Dahl	220 CONCORDIA DR			BELLA VISTA	AR	72715-8429	US			false		
113-4953539-7600223	02207108971698	2020-11-03T02:18:28+00:00	2020-11-02T18:18:28-08:00	2020-11-03T02:46:10+00:00	2020-11-05T07:59:59+00:00	-2	y79ztt2kr3ffpfp@marketplace.amazon.com	Christie Nelson	+1 619-854-2705 ext. 95862	ABM022	Delivery by Wednesday | Purple Extravagance Bouquet by Arabella Bouquets	1	0	1	Expedited	Alissa Bookwalter and Ken Greenfield	1210 C ST NE			WASHINGTON	DC	20002-6332	US		Alissa and Kenny, we love you guys and are so sorry for your loss. He was such a special cat. From Christie and Ben	false		
112-2833571-7999409	40611066362978	2020-11-03T02:19:02+00:00	2020-11-02T18:19:02-08:00	2020-11-03T02:47:41+00:00	2020-11-05T07:59:59+00:00	-2	94jcdyjzp7yzxww@marketplace.amazon.com	Kimberly Weum	+1 619-854-2705 ext. 81184	ABR0022	Delivery by Wednesday | Arabella Farm Direct Bouquet of 12 Fresh Cut Pink Roses with a Free Glass Vase	1	0	1	Expedited	Megan Jorgenson	3544 HUMBOLDT AVE S			MINNEAPOLIS	MN	55408-3316	US		Thinking of you! We loved playing with you at the pool and hope to see that great smile again! Miss you From Zara, Ava and Brooke Kelley	false		
112-4604925-5784233	34104659632946	2020-11-03T02:33:41+00:00	2020-11-02T18:33:41-08:00	2020-11-03T02:51:39+00:00	2020-11-05T07:59:59+00:00	-2	glzmkg6b28qnrct@marketplace.amazon.com	Jacqueline Paterno	+1 480-618-5344 ext. 60506	ABR013	Delivery by Thursday | Arabella Farm Direct Bouquet of 18 Fresh Cut Yellow Roses with a Free Glass Vase	1	0	1	Expedited	Dolores Kornely	359 N MAIN ST			SAYVILLE	NY	11782-2517	US		Happy 60th Birthday Dear Friend! Count your age by friends, not years.   Count your life by smiles, not tears.  Keep celebrating the journey of life! Love Suzanne & Brenda From Suzanne  Paterno	false		
113-3064817-1929849	36244808260282	2020-11-03T02:43:50+00:00	2020-11-02T18:43:50-08:00	2020-11-03T03:11:36+00:00	2020-11-05T07:59:59+00:00	-2	q4pm89k49v14rxp@marketplace.amazon.com	Marian R. Burns	+1 929-436-4790 ext. 66152	ABR0022	Delivery by Wednesday | Arabella Farm Direct Bouquet of 12 Fresh Cut Pink Roses with a Free Glass Vase	1	0	1	Expedited	Christina McHugh	9940 47TH AVE N APT 217C			ST PETERSBURG	FL	33708-3223	US		Make a wish Christina on every rose. Life got better for me when I turned 60. The same will happen for you this year. Happy Birthday From Marian	false		
113-2096434-6009004	17531741718674	2020-11-03T02:51:35+00:00	2020-11-02T18:51:35-08:00	2020-11-03T03:19:23+00:00	2020-11-05T07:59:59+00:00	-2	257cjfp63662xx0@marketplace.amazon.com	batool	+1 619-854-2705 ext. 71371	ABR0033	Delivery by Wednesday | Arabella Farm Direct Bouquet of 12 Fresh Cut Orange Roses with a Free Glass Vase	1	0	1	Expedited	Dr. Kassir Ramtin	799 PARK AVE			NEW YORK	NY	10021-3275	US		To Dr. Kassir and all the wonderful staff   Can’t wait :) From Batool Hasafa	false		
113-1392081-3872234	51905716591034	2020-11-03T02:57:57+00:00	2020-11-02T18:57:57-08:00	2020-11-03T03:21:10+00:00	2020-11-05T07:59:59+00:00	-2	43jkqy4fj958z12@marketplace.amazon.com	Thomas Yanger	+1 619-854-2705 ext. 22649	ABM022	Delivery by Wednesday | Purple Extravagance Bouquet by Arabella Bouquets	1	0	1	Expedited	Miriam Miller	32 E HARBOR DR			LAKE ZURICH	IL	60047-3076	US		Miriam, Please accept my sincerest condolences for the loss of your dad. You and your family will be in my thoughts.   Dr. Yanger	false		
113-7377540-9749867	55813796335386	2020-11-03T02:52:40+00:00	2020-11-02T18:52:40-08:00	2020-11-03T03:23:10+00:00	2020-11-05T07:59:59+00:00	-2	p4str4vmxxsmgt3@marketplace.amazon.com	Roxana Lara	+1 480-618-5344 ext. 36437	ABR0033	Delivery by Wednesday | Arabella Farm Direct Bouquet of 12 Fresh Cut Orange Roses with a Free Glass Vase	1	0	1	Expedited	Roxana Lara	5832 BALUSTRADE BLVD SE			LACEY	WA	98513-5076	US			false		
113-8517950-6782664	66085372033906	2020-11-03T03:04:32+00:00	2020-11-02T19:04:32-08:00	2020-11-03T03:30:37+00:00	2020-11-05T07:59:59+00:00	-2	0jbsl8pcm71xj93@marketplace.amazon.com	hilary scothorn	+1 619-854-2705 ext. 89926	ABM022	Delivery by Wednesday | Purple Extravagance Bouquet by Arabella Bouquets	1	0	1	Expedited	Ellen Sinatra	915 W 9TH ST APT 1			SAN PEDRO	CA	90731-7709	US		So sorry to hear you aren’t well!! I have been meaning to call as have missed you so much this year! Much love to you all! From Hilary & Carol & Dakota & Filipe	false		
111-8464015-5145844	32917301426986	2020-11-03T03:10:07+00:00	2020-11-02T19:10:07-08:00	2020-11-03T03:34:00+00:00	2020-11-05T07:59:59+00:00	-2	bc9ttcbycnv1c7z@marketplace.amazon.com	Kay Mirkin	+1 415-851-9136 ext. 57729	ABR0022	Delivery by Wednesday | Arabella Farm Direct Bouquet of 12 Fresh Cut Pink Roses with a Free Glass Vase	1	0	1	Expedited	Lene Mirkin	17337 WOODHURST RD			GRANGER	IN	46530-9558	US		Dear Lene, Holding you in our hearts for wellness and healing. Love, Kathy and Gilbert From K. Mirkin	false		
112-4783658-7021043	00977033706626	2020-11-03T03:11:33+00:00	2020-11-02T19:11:33-08:00	2020-11-03T03:37:38+00:00	2020-11-05T07:59:59+00:00	-2	8rqbzrvn1ncfs1y@marketplace.amazon.com	Janet M Mills	+1 619-854-2705 ext. 75558	ABM0044	Delivery by Thursday | Arabella Farm Direct Bouquet of Fresh Cut Blue Hydrangea with a Free Glass Vase	1	0	1	Expedited	Melody Appel	1318 OLD ABBEY PL			SAN JOSE	CA	95132-2527	US		Thank you for loving our son, being you and giving us our special granddaughter.   We love you Melody! From Janet and Jim	false		
113-7164420-3854609	23421846279402	2020-11-03T03:17:01+00:00	2020-11-02T19:17:01-08:00	2020-11-03T03:44:14+00:00	2020-11-05T07:59:59+00:00	-2	zk8zq9qgnm7bxgn@marketplace.amazon.com	Kerry conley	+1 602-671-6610 ext. 81805	ABM022	Delivery by Wednesday | Purple Extravagance Bouquet by Arabella Bouquets	1	0	1	Expedited	Debbie Wagschal	1015 FIGERT RD			OHIO	NY	13324-3030	US		I hope you feel better soon. Thinking about you and you are loved!! From The Conley family	false		
114-2444187-8917853	51213779095850	2020-11-03T03:20:50+00:00	2020-11-02T19:20:50-08:00	2020-11-03T03:50:20+00:00	2020-11-05T07:59:59+00:00	-2	38v0gyknfmkv0yq@marketplace.amazon.com	Aashis Thapa	+1 602-671-6610 ext. 36020	ABR0022	Delivery by Wednesday | Arabella Farm Direct Bouquet of 12 Fresh Cut Pink Roses with a Free Glass Vase	1	0	1	Expedited	Aashis Thapa	Highland Lake Apartments	10 Highland Lake Circle Unit 608		Decatur	Georgia	30033	US			false		
113-5171574-3467444	07028571338706	2020-11-03T03:23:14+00:00	2020-11-02T19:23:14-08:00	2020-11-03T03:50:52+00:00	2020-11-05T07:59:59+00:00	-2	wn624y42bcltmxk@marketplace.amazon.com	Rajeev Singh	+1 929-436-4790 ext. 73221	ABM020	Delivery by Wednesday | The Sunset Bouquet by Arabella Bouquets	1	0	1	Expedited	Shubhendu  Singh	6 treetop circle			Princeton	NJ	08540	US		Dear Anu and Shubhendu, Many congratulations and best wishes on 25th Anniversary. Lots of love, health and happiness always 🎉🎊🍾😍🤩 From Rajeev Reena and Saahil	false		
113-5130863-7069820	69986818940338	2020-11-03T03:35:26+00:00	2020-11-02T19:35:26-08:00	2020-11-03T04:04:33+00:00	2020-11-05T07:59:59+00:00	-2	21bx51zqznxn5g2@marketplace.amazon.com	kelly	+1 213-442-1463 ext. 06044	ABM010	Delivery by Wednesday | The Spring Fling Bouquet by Arabella Bouquets with a Free Designer Glass Vase	1	0	1	Expedited	Jill Biggane Zasly	344 STANCHION LN			FOSTER CITY	CA	94404-4612	US		Happy birthday 🎉 enjoy the day! We miss you xoxo From Janet & kids	false		
113-6017537-1657809	03553397206394	2020-11-03T03:40:21+00:00	2020-11-02T19:40:21-08:00	2020-11-03T04:07:40+00:00	2020-11-05T07:59:59+00:00	-2	16x424592ts0w4b@marketplace.amazon.com	Danielle Pegues	+1 213-442-1463 ext. 10048	ABR0022	Delivery by Wednesday | Arabella Farm Direct Bouquet of 12 Fresh Cut Pink Roses with a Free Glass Vase	1	0	1	Expedited	Denise Thurman	1503 OLD STAGE RD S			ERWIN	NC	28339-8957	US		Just showing you some love. I know times are not the best but I pray this puts a smile on your face. Love you From Danielle Pegues	false		
111-0188039-6193040	02363626371802	2020-11-03T03:47:32+00:00	2020-11-02T19:47:32-08:00	2020-11-03T04:11:59+00:00	2020-11-05T07:59:59+00:00	-2	lgc0f218zdxjqy2@marketplace.amazon.com	virginia wenzel	+1 929-436-4790 ext. 34434	ABR0055	Delivery by Wednesday | Arabella Farm Direct Bouquet of 12 Stems of Fresh Cut Hot Pink Roses in a Free Designer Glass Vase	1	0	1	Expedited	Danielle Wenzel	58 WELLINGTON RD			GARDEN CITY	NY	11530-4150	US		Thinking of you - thought that you would enjoy these roses after the big move. You deserve them. I love you. From Ginny	false		
111-3383883-3712209	25473670775962	2020-11-03T03:53:34+00:00	2020-11-02T19:53:34-08:00	2020-11-03T04:23:02+00:00	2020-11-05T07:59:59+00:00	-2	0stybfc2tmt7l0f@marketplace.amazon.com	vickie vandorn	+1 213-442-1463 ext. 56386	ABM022	Delivery by Wednesday | Purple Extravagance Bouquet by Arabella Bouquets	1	0	1	Expedited	Karina Conley	7334 BAUER LN			MENTOR	OH	44060-3491	US		Feel better soon. Thinking of you. Love you From Paul and Vickie	false		
114-6791477-5011450	10521843776946	2020-11-03T04:13:20+00:00	2020-11-02T20:13:20-08:00	2020-11-03T04:32:51+00:00	2020-11-05T07:59:59+00:00	-2	qbxxqwc2vndylfd@marketplace.amazon.com	Kathy	+1 602-671-6610 ext. 71467	ABR0022	Delivery by Wednesday | Arabella Farm Direct Bouquet of 12 Fresh Cut Pink Roses with a Free Glass Vase	1	0	1	Expedited	Melissa Ng	15407 GRANT AVE SW			LAKEWOOD	WA	98498-2020	US		Happy birthday Melissa! From Love, Mom and Tom	false		
112-0826407-4212203	48649732799722	2020-11-03T04:52:08+00:00	2020-11-02T20:52:08-08:00	2020-11-03T05:18:26+00:00	2020-11-05T07:59:59+00:00	-2	wk4tstts60r2zdm@marketplace.amazon.com	Yolanda Fortier	+1 213-442-1463 ext. 68681	ABM022	Delivery by Wednesday | Purple Extravagance Bouquet by Arabella Bouquets	1	0	1	Expedited	Nadine Ravago	15075 SPRING ST			FONTANA	CA	92335-7015	US		Dear Nadine & Roy, Happy 40th Anniversary! Wishing you many more happy healthy years to come!! XOXO From Your Maid of Honor❤️	false		
111-6223499-6409044	23492935794354	2020-11-03T04:57:53+00:00	2020-11-02T20:57:53-08:00	2020-11-03T05:23:44+00:00	2020-11-05T07:59:59+00:00	-2	1ffwsfkcvw4mbtl@marketplace.amazon.com	patricia robinson	+1 619-854-2705 ext. 40776	ABM022	Delivery by Wednesday | Purple Extravagance Bouquet by Arabella Bouquets	1	0	1	Expedited	Deborah Lee	6322 MOUNT AGUILAR DR			SAN DIEGO	CA	92111-3233	US		Deborah Just a small gift to thank you for being such a good friend. Thank you for everything you do. Love Patti and Matthew From patricia robinson	false		
111-9327256-1032242	45324429968218	2020-11-03T05:23:16+00:00	2020-11-02T21:23:16-08:00	2020-11-03T05:48:09+00:00	2020-11-05T07:59:59+00:00	-2	w0d2lwrxvpb5zby@marketplace.amazon.com	Iyce	+1 929-436-4790 ext. 10122	ABR001	Delivery by Wednesday | Arabella Bouquets 12 Stems of Fresh Cut Red Roses in a Free Designer Glass Vase	1	0	1	Expedited	Nancy Bond	20397 CODMAN DR ASHBURN VA 20147			ASHBURN	VA	20147-2539	US		You are the queen of my heart From Luka	false		
114-8513146-0087415	36874973567410	2020-11-03T05:24:14+00:00	2020-11-02T21:24:14-08:00	2020-11-03T05:50:13+00:00	2020-11-05T07:59:59+00:00	-2	rr5lxr46xh0xlxt@marketplace.amazon.com	Robyn Capio	+1 929-436-4790 ext. 27443	ABM010	Delivery by Wednesday | The Spring Fling Bouquet by Arabella Bouquets with a Free Designer Glass Vase	1	0	1	Expedited	Heather Hustead	3000 AUGUSTA ST APT 135			SAN LUIS OBISPO	CA	93401-5835	US		Happy Birthday my beautiful friend!  I hope these bright and colorful flowers will bring a smile to your face and remind you that you are loved! From Robyn Capio	false		
111-3429358-7780247	46879423089562	2020-11-03T05:44:44+00:00	2020-11-02T21:44:44-08:00	2020-11-03T06:11:04+00:00	2020-11-05T07:59:59+00:00	-2	njvwzqs0hx650w8@marketplace.amazon.com	Joyce Synnott	+1 602-671-6610 ext. 97918	ABR0033	Delivery by Wednesday | Arabella Farm Direct Bouquet of 12 Fresh Cut Orange Roses with a Free Glass Vase	1	0	1	Expedited	Carey Gansert	17779 AZUCAR WAY			SAN DIEGO	CA	92127-1053	US			false		
114-1121779-4089836	53613359720090	2020-11-03T06:10:03+00:00	2020-11-02T22:10:03-08:00	2020-11-03T06:38:04+00:00	2020-11-05T07:59:59+00:00	-2	b7l6szw6f15665m@marketplace.amazon.com	Michelle Miesko	+1 619-854-2705 ext. 09859	ABM022	Delivery by Wednesday | Purple Extravagance Bouquet by Arabella Bouquets	1	0	1	Expedited	Anne Miesko	715 CROWN AVE			SCRANTON	PA	18505-1917	US		Happy Birthday Mom! From Love, Shel	true		
111-4918137-5521057	66808567542354	2020-11-03T07:22:12+00:00	2020-11-02T23:22:12-08:00	2020-11-03T07:40:34+00:00	2020-11-05T07:59:59+00:00	-2	b08z6jm8wswb6f0@marketplace.amazon.com	Ben Blair	+1 929-436-4790 ext. 81231	ABM022	Delivery by Wednesday | Purple Extravagance Bouquet by Arabella Bouquets	1	0	1	Expedited	Joy Blair and Jane Greiner	10900 S BENZONIA TRL			EMPIRE	MI	49630-9477	US		Dear Joy and Jane,  Congratulations on your wedding!  We are so happy for you!  Love you! Ben and Cindy From Ben and Cindy	false		
113-1133488-9464206	64427163517546	2020-11-03T07:19:06+00:00	2020-11-02T23:19:06-08:00	2020-11-03T07:41:05+00:00	2020-11-05T07:59:59+00:00	-2	w2rjfkv9gcwyh4l@marketplace.amazon.com	Lisa Nagle	+1 602-671-6610 ext. 03523	ABM010	Delivery by Wednesday | The Spring Fling Bouquet by Arabella Bouquets with a Free Designer Glass Vase	1	0	1	Standard	Kevin Nagle	137 RED PINE RD			DANVILLE	CALIFORNIA	94506-4512	US		Dearest Aunt Barbara, we hope you have a wonderful birthday! We love you! From The Vacaville Nagles	false		
114-7695681-2834621	52959738779530	2020-11-03T08:48:00+00:00	2020-11-03T00:48:00-08:00	2020-11-03T09:18:28+00:00	2020-11-06T07:59:59+00:00	-3	n8fw5yrcgb2mfh8@marketplace.amazon.com	amadeo mora	+1 619-854-2705 ext. 03639	ABM020	Delivery by Wednesday | The Sunset Bouquet by Arabella Bouquets	1	0	1	Expedited	Amadeo Mora	2836 N MENARD AVE			CHICAGO	IL	60634-5239	US			false		
113-0464174-2464253	43142546109898	2020-11-03T09:43:40+00:00	2020-11-03T01:43:40-08:00	2020-11-03T10:13:03+00:00	2020-11-06T07:59:59+00:00	-3	22hs5tsyhwld846@marketplace.amazon.com	Brandon Vinson	+1 619-854-2705 ext. 65694	ABM022	Delivery by Wednesday | Purple Extravagance Bouquet by Arabella Bouquets	1	0	1	Expedited	Brandon Vinson	1105 HALSEY DR			COUPEVILLE	WA	98239-9783	US			false		
114-9088267-1357869	43762676037874	2020-11-03T10:09:59+00:00	2020-11-03T02:09:59-08:00	2020-11-03T10:36:35+00:00	2020-11-06T07:59:59+00:00	-3	f396kq502hq0q2s@marketplace.amazon.com	beena sudin	+1 619-854-2705 ext. 10598	ABM022	Delivery by Wednesday | Purple Extravagance Bouquet by Arabella Bouquets	1	0	1	Standard	Mala Iyer	2971 OLDFIELD WAY			SAN JOSE	CA	95135-1027	US		Mala and Sunil...Nikalta hua Suraj Dua de aapko, Khilta hua Phool khushboo de aapko, Hum to kuch dene ke kabil nahin, Khuda hazar khushiyan de aap dono  Happy Anniversart From Beena	false		
111-5116239-8026637	03478721212282	2020-11-03T10:13:28+00:00	2020-11-03T02:13:28-08:00	2020-11-03T10:43:44+00:00	2020-11-06T07:59:59+00:00	-3	49h21nkypgjl1bm@marketplace.amazon.com	Ziyue Mou	+1 602-671-6610 ext. 68736	ABM022	Delivery by Wednesday | Purple Extravagance Bouquet by Arabella Bouquets	1	0	1	Expedited	Jiahao Gu	725 KINGSLAND AVE APT 107			UNIVERSITY CITY	MO	63130-3152	US			false		
111-7972967-0257844	19825860439658	2020-11-03T10:29:49+00:00	2020-11-03T02:29:49-08:00	2020-11-03T10:57:08+00:00	2020-11-06T07:59:59+00:00	-3	9q9d8kllk3rqqvr@marketplace.amazon.com	May	+1 929-436-4790 ext. 66344	ABR0055	Delivery by Wednesday | Arabella Farm Direct Bouquet of 12 Stems of Fresh Cut Hot Pink Roses in a Free Designer Glass Vase	1	0	1	Expedited	Nancy Chao	2433 ALEX RYAN DR			CHARLOTTE	NC	28216-0273	US		Wishing you warm thoughts, pleasant memories, and all the happiness in the word today and always! Happy Birthday Ahh Zia!!! From May, Milli & Klay	false		
114-0175450-4857835	69821870371674	2020-11-03T10:34:09+00:00	2020-11-03T02:34:09-08:00	2020-11-03T11:02:00+00:00	2020-11-06T07:59:59+00:00	-3	392wgwclcnj8vd2@marketplace.amazon.com	Jason Bacchus	+1 929-436-4790 ext. 46535	ABM020	Delivery by Wednesday | The Sunset Bouquet by Arabella Bouquets	1	0	1	Expedited	Denise Bacchus	904 67TH AVE W			BRADENTON	FL	34207-5954	US		Happy Birthday, Love, Jason, Angela, Harrison, and Hayden. From Jason Bacchus	false		
111-1558226-5801858	38059230005834	2020-11-03T11:13:49+00:00	2020-11-03T03:13:49-08:00	2020-11-03T11:40:40+00:00	2020-11-06T07:59:59+00:00	-3	89cy2jjd5z0ttv0@marketplace.amazon.com	Haroon Rasheed	+1 213-442-1463 ext. 43015	ABR0022	Delivery by Wednesday | Arabella Farm Direct Bouquet of 12 Fresh Cut Pink Roses with a Free Glass Vase	1	0	1	Expedited	Nawal Rasheed	1206 CRICKET LN			WOODBRIDGE	NJ	07095-1529	US		Dear Naushee, Very Happy Anniversary-you have always been with me in all thick &  thin and I LOVE YOU. From Haroon Rasheed	false		
112-0131841-2135468	36660567384906	2020-11-03T11:16:08+00:00	2020-11-03T03:16:08-08:00	2020-11-03T11:41:45+00:00	2020-11-06T07:59:59+00:00	-3	5yp2h5ngd3j0g1r@marketplace.amazon.com	William L. Martin	+1 619-854-2705 ext. 85290	ABM020	Delivery by Wednesday | The Sunset Bouquet by Arabella Bouquets	1	0	1	Expedited	Krystan Martin	C/O TOM MARTIN 635 LEMONWOOD AVE			TULARE	CA	93274-8768	US		Happy Birthday.  Have a wonderful day and many more. From Dad and Jodie	false		
114-2630965-7029818	16021091090706	2020-11-03T12:13:43+00:00	2020-11-03T04:13:43-08:00	2020-11-03T12:42:30+00:00	2020-11-06T07:59:59+00:00	-3	81f2v3zv6gykc94@marketplace.amazon.com	Dana Keener	+1 213-442-1463 ext. 18559	ABR0022	Delivery by Wednesday | Arabella Farm Direct Bouquet of 12 Fresh Cut Pink Roses with a Free Glass Vase	1	0	1	Expedited	Dana Ruth Williams	1608 VERSAILLES RD	HOMESTEAD POST ACUTE ROOM 102 BED 2		LEXINGTON	KY	40504-2402	US			false		
114-4572251-6458669	29878677833282	2020-11-03T12:34:01+00:00	2020-11-03T04:34:01-08:00	2020-11-03T13:03:53+00:00	2020-11-06T07:59:59+00:00	-3	gl0s4kg2dlyybjx@marketplace.amazon.com	Eroica Boone	+1 480-618-5344 ext. 86672	ABM022	Delivery by Wednesday | Purple Extravagance Bouquet by Arabella Bouquets	1	0	1	Expedited	Abbie Annicella	45 NEVADA LN			CABOT	AR	72023-2870	US		Happy Birthday!! From Eroica Boone	false		
111-8918806-1930643	54446928281946	2020-11-03T12:37:37+00:00	2020-11-03T04:37:37-08:00	2020-11-03T13:06:51+00:00	2020-11-06T07:59:59+00:00	-3	9h1wxz7cngmk4np@marketplace.amazon.com	melinda	+1 619-854-2705 ext. 95804	ABR0033	Delivery by Wednesday | Arabella Farm Direct Bouquet of 12 Fresh Cut Orange Roses with a Free Glass Vase	1	0	1	Expedited	Mom logan	7263 32 MILE RD			ROMEO	MI	48065-4268	US		Happy birthday mom I love you I hope your day is great! From melinda	false		
111-8961151-2865015	22795271811114	2020-11-03T13:16:43+00:00	2020-11-03T05:16:43-08:00	2020-11-03T13:46:14+00:00	2020-11-06T07:59:59+00:00	-3	ftnkhxglwql40bs@marketplace.amazon.com	Monique Girodat	+1 213-442-1463 ext. 66251	ABM022	Delivery by Wednesday | Purple Extravagance Bouquet by Arabella Bouquets	1	0	1	Expedited	Aimee Faison	125 LAURA LN YORKTOWN VA 23692			YORKTOWN	VA	23692-3226	US		Hey Aimee - Extending our deepest sympathy to you during this time. Our thoughts are with you and your family during this difficult time. From Tom and the Jobber team	true		
114-3592309-3272221	31060070834186	2020-11-03T13:18:37+00:00	2020-11-03T05:18:37-08:00	2020-11-03T13:46:57+00:00	2020-11-06T07:59:59+00:00	-3	v1qr93zctt96t8v@marketplace.amazon.com	Caitlin Rush	+1 480-618-5344 ext. 36969	ABR0022	Delivery by Wednesday | Arabella Farm Direct Bouquet of 12 Fresh Cut Pink Roses with a Free Glass Vase	1	0	1	Expedited	Gunce Rush	10524 CARDERA DR			RIVERVIEW	FL	33578-4702	US		Happy Birthday Gunce! We hope your boys are spoiling you today!  Xoxoxo, Kev, Cait, Charlie and Maddie Rose From Caitlin Rush	false		
114-9152449-9163453	33367316759618	2020-11-03T13:29:27+00:00	2020-11-03T05:29:27-08:00	2020-11-03T13:57:31+00:00	2020-11-06T07:59:59+00:00	-3	nlgdz14v0d2ww30@marketplace.amazon.com	Debbie Hirsch	+1 213-442-1463 ext. 46284	ABR0055	Delivery by Wednesday | Arabella Farm Direct Bouquet of 12 Stems of Fresh Cut Hot Pink Roses in a Free Designer Glass Vase	1	0	1	Expedited	Jan Flaherty	612 OAKHURST TER			AUBURN	CA	95603-6061	US		Happy Happy Birthday.  I love you! From Debbie	false		
112-3983934-4587450	23365761134546	2020-11-03T13:34:34+00:00	2020-11-03T05:34:34-08:00	2020-11-03T14:04:03+00:00	2020-11-06T07:59:59+00:00	-3	btr4l530g7mgd23@marketplace.amazon.com	Kay Wagner	+1 602-671-6610 ext. 79815	ABR001	Delivery by Wednesday | Arabella Bouquets 12 Stems of Fresh Cut Red Roses in a Free Designer Glass Vase	1	0	1	Expedited	Brent Robbins	7730 ZANZIBAR LN N NO			MAPLE GROVE	MN	55311-3706	US			false		
113-6542019-0133808	21235208327274	2020-11-03T13:40:23+00:00	2020-11-03T05:40:23-08:00	2020-11-03T14:10:01+00:00	2020-11-06T07:59:59+00:00	-3	ylqbrfd0r3mwsl8@marketplace.amazon.com	Michelle kee	+1 619-854-2705 ext. 91588	ABR0055	Delivery by Wednesday | Arabella Farm Direct Bouquet of 12 Stems of Fresh Cut Hot Pink Roses in a Free Designer Glass Vase	1	0	1	Expedited	Liam and Elaine Callaghan	C/O BEST WESTERN PLUS KENDALL HOTEL & SUITES	8560 SW 124TH AVE		MIAMI	FL	33183-4622	US		Happy anniversary mum and dad.    Love Michelle, Mary and Annice xxx From Michelle kee	false		
111-2459179-0821007	35426435608202	2020-11-03T13:52:55+00:00	2020-11-03T05:52:55-08:00	2020-11-03T14:20:48+00:00	2020-11-06T07:59:59+00:00	-3	pf0d8jyy3r7dk7c@marketplace.amazon.com	Carl Zimmerman	+1 602-671-6610 ext. 30146	ABM022	Delivery by Wednesday | Purple Extravagance Bouquet by Arabella Bouquets	1	0	1	Expedited	Paola Febel	199 WB CHEEK DR			CHAPEL HILL	NC	27517-6608	US		Que su familia y seres queridos se reúnan con Dios From Carl & Antonia	false		
111-0041916-3703459	44274337013050	2020-11-03T14:18:08+00:00	2020-11-03T06:18:08-08:00	2020-11-03T14:44:36+00:00	2020-11-06T07:59:59+00:00	-3	50z37vq7sthhbrp@marketplace.amazon.com	Melody Schindler	+1 213-442-1463 ext. 85486	ABM024	Delivery by Thursday | The Beauty of Color Bouquet by Arabella Bouquets	1	0	1	Expedited	Dorsee Underwood	104 MAGNOLIA BLVD			NEW ORLEANS	LA	70123-5008	US		With deepest sympathy, thinking of you at this difficult time. Cherish the memories with grandma!!! Love, Melody, Lewis, Summer & Sailor From Melody Schindler	false		
112-6642672-8168220	09202624984674	2020-11-03T14:29:22+00:00	2020-11-03T06:29:22-08:00	2020-11-03T14:56:35+00:00	2020-11-06T07:59:59+00:00	-3	ch70wp5cc843gjy@marketplace.amazon.com	Nomi Janet Becker	+1 480-618-5344 ext. 69340	ABR0022	Delivery by Wednesday | Arabella Farm Direct Bouquet of 12 Fresh Cut Pink Roses with a Free Glass Vase	1	0	1	Expedited	Lillian Young	315 NE 57TH ST			SEATTLE	WA	98105-2710	US		Roses are red, the lotus can float, you now have enough soon shall I motorboat.  Love you baby, feel better! From Nomi Friday	false		
114-8487865-7985835	60523351062490	2020-11-03T14:40:30+00:00	2020-11-03T06:40:30-08:00	2020-11-03T15:06:39+00:00	2020-11-06T07:59:59+00:00	-3	yw92kjvzkvpmsmp@marketplace.amazon.com	Lisa Karo	+1 602-671-6610 ext. 08460	ABR0022	Delivery by Wednesday | Arabella Farm Direct Bouquet of 12 Fresh Cut Pink Roses with a Free Glass Vase	1	0	1	Expedited	Annamarie Mansueto	CHAMINADE HIGH SCHOOL	340 JACKSON AVE		MINEOLA	NY	11501-2441	US		Hi Annamarie! This is a little thank you from Christopher and myself for all your hard work and perseverance in getting his transcript to Columbia. We just found out he was accepted!! God bless you!!! From Lisa Karo and Christopher Keane	false		
112-7331622-4918606	15590455677386	2020-11-03T15:17:07+00:00	2020-11-03T07:17:07-08:00	2020-11-03T15:42:14+00:00	2020-11-06T07:59:59+00:00	-3	fl0nrgmjh159q9q@marketplace.amazon.com	Jennifer	+1 213-442-1463 ext. 78702	ABM022	Delivery by Wednesday | Purple Extravagance Bouquet by Arabella Bouquets	1	0	1	Expedited	Barbara Feldman	622 RICHMOND RD			EAST MEADOW	NY	11554-2233	US		Barbara,  Very sorry to hear of your loss sending our condolences and love & strength during these most difficult times.  Jennifer, Ted and Sema4 Team From Jennifer	false		
111-3698030-4478619	01505650354850	2020-11-03T15:18:32+00:00	2020-11-03T07:18:32-08:00	2020-11-03T15:47:21+00:00	2020-11-06T07:59:59+00:00	-3	xx16h8f5vghfw34@marketplace.amazon.com	Cheryl Pagenkop	+1 929-436-4790 ext. 06976	ABR0022	Delivery by Wednesday | Arabella Farm Direct Bouquet of 12 Fresh Cut Pink Roses with a Free Glass Vase	1	0	1	Expedited	Patricia Williams	507 DIAMOND RD			PLACENTIA	CA	92870-4802	US		Happy birthday to my beautiful sister! I miss you so much. I hope you have a wonderful birthday weekend. Hugs and kisses~ Cheryl From Cheryl Pagenkop	false		
113-2430770-0060213	38297882236898	2020-11-03T15:31:04+00:00	2020-11-03T07:31:04-08:00	2020-11-03T15:59:37+00:00	2020-11-06T07:59:59+00:00	-3	m6t5vwkjxmxlr0j@marketplace.amazon.com	Dori Hestand	+1 480-618-5344 ext. 60621	ABR0022	Delivery by Wednesday | Arabella Farm Direct Bouquet of 12 Fresh Cut Pink Roses with a Free Glass Vase	1	0	1	Expedited	Pat Hestand	9005 WINGSPREAD DR			OKLAHOMA CITY	OK	73159-6568	US		Happy #85 Birthday!! Enjoy your day Much love From Paul and Dori	false		
111-9667201-4841820	51681045021522	2020-11-03T15:33:23+00:00	2020-11-03T07:33:23-08:00	2020-11-03T16:00:53+00:00	2020-11-06T07:59:59+00:00	-3	w1jbz0mt8zn64j3@marketplace.amazon.com	Mehdi	+1 602-671-6610 ext. 08874	ABM010	Delivery by Wednesday | The Spring Fling Bouquet by Arabella Bouquets with a Free Designer Glass Vase	1	0	1	Expedited	Mehdi Sadeghpour	2250 TAPESTRY PARK DR APT 407			LAND O LAKES	FL	34639-1415	US			false		
111-8800143-9886618	65074105192346	2020-11-03T15:50:48+00:00	2020-11-03T07:50:48-08:00	2020-11-03T16:12:46+00:00	2020-11-06T07:59:59+00:00	-3	0hkx5v2f9w6g590@marketplace.amazon.com	Jenifer R Finlinson	+1 213-442-1463 ext. 09321	ABM010	Delivery by Wednesday | The Spring Fling Bouquet by Arabella Bouquets with a Free Designer Glass Vase	1	0	1	Expedited	Sharon Peterson	270 S 300 E			DELTA	UT	84624-9013	US		Sharon; Happy Retirement! You will be missed. You are not replaceable. Your absence leaves a void that can not be field. Thanks for investing in me. I am a better person because you have been part of my life. From Jenny Finlinson	false		
