order-id	order-item-id	purchase-date	payments-date	reporting-date	promise-date	days-past-promise	buyer-email	buyer-name	buyer-phone-number	sku	product-name	quantity-purchased	quantity-shipped	quantity-to-ship	ship-service-level	recipient-name	ship-address-1	ship-address-2	ship-address-3	ship-city	ship-state	ship-postal-code	ship-country	gift-wrap-type	gift-message-text	is-business-order	purchase-order-number	price-designation
113-1419994-8996248	10216634368906	2020-11-03T18:04:12+00:00	2020-11-03T10:04:12-08:00	2020-11-03T18:32:04+00:00	2020-11-06T07:59:59+00:00	-3	5l7j8b04b0jd0z3@marketplace.amazon.com	Peter Collinwood	07790 319683	ABM021	Delivery by Thursday | The Joyous Bouquet by Arabella Bouquets	1	0	1	Expedited	Joe Collinwood	8156 CAPITOLA AVE FAIR OAKS			FAIR OAKS	CA	95628-7602	US		To Sherrie A Very Happy Birthday Lots of Love Pete & Willow xxx From Peter Collinwood	false		
114-7229873-9725057	49315264364130	2020-11-03T18:02:53+00:00	2020-11-03T10:02:53-08:00	2020-11-03T18:32:15+00:00	2020-11-06T07:59:59+00:00	-3	qldlb4lq43nqf0d@marketplace.amazon.com	Brenda Marquis	+1 602-671-6610 ext. 62272	ABM010	Delivery by Wednesday | The Spring Fling Bouquet by Arabella Bouquets with a Free Designer Glass Vase	1	0	1	Expedited	Kathy Hartman	1951 SUNNY CREEK CT			GROVE CITY	OH	43123-8336	US		Happy Birthday!!! Love you very much. From Brenda Marquis	false		
112-7362819-7323404	14464574565458	2020-11-03T18:32:36+00:00	2020-11-03T10:32:36-08:00	2020-11-03T18:35:29+00:00	2020-11-06T07:59:59+00:00	-3	43kpc2j4g7893xp@marketplace.amazon.com	LINDA LEWIS	+1 602-671-6610 ext. 67953	ABM022	Delivery by Wednesday | Purple Extravagance Bouquet by Arabella Bouquets	1	0	1	Expedited	TARYN WATSON	1733 SELBY AVE APT 5			SAINT PAUL	MN	55104-6181	US		Congratulations on your new job!  We are so proud of your hard work.  Love Grandpa & Grandma From LINDA LEWIS	false		
114-0338968-0689852	63265657220962	2020-11-03T18:19:14+00:00	2020-11-03T10:19:14-08:00	2020-11-03T18:47:21+00:00	2020-11-06T07:59:59+00:00	-3	st996zy1vqchms1@marketplace.amazon.com	Kathy	+1 602-671-6610 ext. 89335	ABM022	Delivery by Wednesday | Purple Extravagance Bouquet by Arabella Bouquets	1	0	1	Expedited	Cheryl VonTress	535 WELCUM LN			JACKSONVILLE	OR	97530-0108	US		I have been out of touch, but you have been in my thoughts daily. I was out of town then so busy with buying this new house, and I wanted to let you know how much i love you and am so sorry about Fred. From I love you! Kathy	false		
111-8428561-8356246	61064101684482	2020-11-03T18:18:50+00:00	2020-11-03T10:18:50-08:00	2020-11-03T18:48:02+00:00	2020-11-06T07:59:59+00:00	-3	87ltbt6gxykcrhm@marketplace.amazon.com	Eric Herrmann	+1 480-618-5344 ext. 77620	ABM022	Delivery by Wednesday | Purple Extravagance Bouquet by Arabella Bouquets	1	0	1	Expedited	Lin Swanson	REGENCY WENATCHEE	1326 RED APPLE RD		WENATCHEE	WA	98801-3227	US		Wishing you well and a speedy recovery. From Wilson Class of '65 Reunion Committee	false		
113-4611139-0295431	30575773787258	2020-11-03T18:36:25+00:00	2020-11-03T10:36:25-08:00	2020-11-03T19:03:42+00:00	2020-11-06T07:59:59+00:00	-3	fwyzmbyh2crndc3@marketplace.amazon.com	shahinsharifi	+1 619-854-2705 ext. 16685	ABR004	Delivery by Thursday | Arabella Farm Direct Bouquet of 12 Fresh Cut Yellow Roses with a Free Glass Vase	1	0	1	Expedited	Amy Brown Sorensen	30 HAVENWOOD			IRVINE	CA	92614-5435	US			false		
114-5008932-9566603	18956158475074	2020-11-03T18:34:48+00:00	2020-11-03T10:34:48-08:00	2020-11-03T19:03:47+00:00	2020-11-06T07:59:59+00:00	-3	8qs0tcbqn6lpxc8@marketplace.amazon.com	Christian Mangun	+1 929-436-4790 ext. 88229	ABM022	Delivery by Wednesday | Purple Extravagance Bouquet by Arabella Bouquets	1	0	1	Expedited	VERED WEISS	1431 BLAKE ST			BERKELEY	CA	94702-2103	US		A little something to brighten your day considering you've brightened mine every day we've been together.  Love and kisses and hugs and smooshes. From Christian Mangun	false		
111-3006093-4058608	04444997893938	2020-11-03T18:45:18+00:00	2020-11-03T10:45:18-08:00	2020-11-03T19:13:48+00:00	2020-11-06T07:59:59+00:00	-3	k2h0qt9q1rq189y@marketplace.amazon.com	Susanne Warnock	+1 415-851-9136 ext. 46005	ABR0055	Delivery by Thursday | Arabella Farm Direct Bouquet of 12 Stems of Fresh Cut Hot Pink Roses in a Free Designer Glass Vase	1	0	1	Expedited	Nancy Bertoson	27846 N 130TH GLN			PEORIA	AZ	85383-7628	US		Thinking of you and sending our love From Sue and Marylee	false		
113-5287445-5391409	67404927534274	2020-11-03T18:54:51+00:00	2020-11-03T10:54:51-08:00	2020-11-03T19:20:10+00:00	2020-11-06T07:59:59+00:00	-3	zsrbs7ph703f53g@marketplace.amazon.com	Darrel Elmore	+7867022935	ABM022	Delivery by Wednesday | Purple Extravagance Bouquet by Arabella Bouquets	1	0	1	Expedited	Bryan Robert	19730 NE 11TH PL			MIAMI	FL	33179-3519	US		To the Robert family from the basketball brothers: we wish your family comfort during this difficult time. From Darrel Elmore	false		
111-1251347-3398613	34848871206762	2020-11-03T18:57:58+00:00	2020-11-03T10:57:58-08:00	2020-11-03T19:27:38+00:00	2020-11-06T07:59:59+00:00	-3	w65fdfw5nk1vn6q@marketplace.amazon.com	Marta	+1 213-442-1463 ext. 15028	ABB011	Delivery by Thursday | Arabella Bouquets 24 Stems of Fresh Cut Hot Pink Roses in a Free Designer Glass Vase	1	0	1	Expedited	Bob Dembinski	48725 MEDORA CT			SHELBY TOWNSHIP	MI	48315-4276	US		Happy Birthday, Daddy-o!!! From Love, Marta & Scotty	false		
114-9250705-9173865	12745152096138	2020-11-03T19:03:06+00:00	2020-11-03T11:03:06-08:00	2020-11-03T19:30:09+00:00	2020-11-06T07:59:59+00:00	-3	4f6wk2czg0tgnmw@marketplace.amazon.com	Brandy Lane	+1 213-442-1463 ext. 83528	ABM010	Delivery by Wednesday | The Spring Fling Bouquet by Arabella Bouquets with a Free Designer Glass Vase	1	0	1	Expedited	Debbie Shackelford	13005 W 2ND PL APT 109			LAKEWOOD	CO	80228-1315	US			false		
114-5605789-0404227	32970314979618	2020-11-03T19:07:51+00:00	2020-11-03T11:07:51-08:00	2020-11-03T19:36:46+00:00	2020-11-06T07:59:59+00:00	-3	s42nb91n2m8h0ph@marketplace.amazon.com	Arpad Solti	+1 929-436-4790 ext. 18744	ABR0055	Delivery by Thursday | Arabella Farm Direct Bouquet of 12 Stems of Fresh Cut Hot Pink Roses in a Free Designer Glass Vase	1	0	1	Expedited	Yaroslaba Garcia	9687 SPRINGLAKE CIR			ESTERO	FL	33928-6283	US		I would love to talk to you! From Arpi	false		
113-5252473-0936237	63699786808314	2020-11-03T19:22:26+00:00	2020-11-03T11:22:26-08:00	2020-11-03T19:47:11+00:00	2020-11-06T07:59:59+00:00	-3	rs8t8fh79s4hytk@marketplace.amazon.com	Nancy burroway	+2144939192	ABR0022	Delivery by Thursday | Arabella Farm Direct Bouquet of 12 Fresh Cut Pink Roses with a Free Glass Vase	1	0	1	Expedited	Barbara Foster	10607 MEADOW LAKE LN			HOUSTON	TX	77042-2812	US			false		
113-7805565-7954651	23541226303770	2020-11-03T19:24:06+00:00	2020-11-03T11:24:06-08:00	2020-11-03T19:48:18+00:00	2020-11-06T07:59:59+00:00	-3	vy5ycs21s5js2m1@marketplace.amazon.com	Melissa	+1 415-851-9136 ext. 09013	ABR0055	Delivery by Thursday | Arabella Farm Direct Bouquet of 12 Stems of Fresh Cut Hot Pink Roses in a Free Designer Glass Vase	1	0	1	Expedited	Rosanna & Bianca	4386 BROADWAY # 4			NEW YORK	NY	10040-4002	US		Bianca,  I am extremely grateful for everything you have done for me and my mom. Honestly cannot believe that it's been a year! From Melissa Romero	false		
113-7805565-7954651	58017828157106	2020-11-03T19:24:06+00:00	2020-11-03T11:24:06-08:00	2020-11-03T19:48:18+00:00	2020-11-06T07:59:59+00:00	-3	vy5ycs21s5js2m1@marketplace.amazon.com	Melissa	+1 415-851-9136 ext. 09013	ABR0022	Delivery by Thursday | Arabella Farm Direct Bouquet of 12 Fresh Cut Pink Roses with a Free Glass Vase	1	0	1	Expedited	Rosanna & Bianca	4386 BROADWAY # 4			NEW YORK	NY	10040-4002	US		Rosanna, It has been an incredible year and I'm glad that I made the right choice to come to you. Thank you for everything! And thank you for helping my mom as well, means a lot to me. From Melissa Romero	false		
112-1115499-1154602	08825672168698	2020-11-03T19:41:22+00:00	2020-11-03T11:41:22-08:00	2020-11-03T19:50:30+00:00	2020-11-06T07:59:59+00:00	-3	jmc3zjyy78fhb8w@marketplace.amazon.com	Lisa Polacci	+1 480-618-5344 ext. 96488	ABR0022	Delivery by Thursday | Arabella Farm Direct Bouquet of 12 Fresh Cut Pink Roses with a Free Glass Vase	1	0	1	Expedited	Ezelle Frees	5420 CAMPBELL RD			LOMPOC	CA	93436-9651	US		let's just say I may or may not have gotten scammed from about 3 flower places so I am resorting to this. i know they aren't sweet peas, but they're pretty damn close to bonica roses. happy birthday, my love. From paloma polacci	false		
113-9632683-4573003	01550535649906	2020-11-03T19:36:16+00:00	2020-11-03T11:36:16-08:00	2020-11-03T19:57:12+00:00	2020-11-06T07:59:59+00:00	-3	f1rrqp6qpltxnsl@marketplace.amazon.com	Brittney Headd	510290245	ABR0055	Delivery by Thursday | Arabella Farm Direct Bouquet of 12 Stems of Fresh Cut Hot Pink Roses in a Free Designer Glass Vase	1	0	1	Expedited	Larriah Jackson	3425 40TH ST			SACRAMENTO	CA	95817-3605	US		Happy Sweet 16 Larriah , Thank you for being such a bright light in a world with so much darkness. Remember Proverbs 18:16  "A man's gift makes room for him, and brings him before great men"  Love TT Brittney From Brittney Headd	false		
112-1426380-8816253	58603445588778	2020-11-03T19:32:55+00:00	2020-11-03T11:32:55-08:00	2020-11-03T19:59:15+00:00	2020-11-06T07:59:59+00:00	-3	xp4lqzsvxl0gn07@marketplace.amazon.com	lorna currier	+1 213-442-1463 ext. 08916	ABR0022	Delivery by Thursday | Arabella Farm Direct Bouquet of 12 Fresh Cut Pink Roses with a Free Glass Vase	1	0	1	Expedited	Meghna Kamble	21 PASTEUR ST			PROVIDENCE	RI	02908-2914	US		Dear Meghna, Congratulations on your 10 year Anniversary! Kindest Regards, From the S&C Team From Val Videva	false		
113-3180293-8453841	06586545595106	2020-11-03T19:38:23+00:00	2020-11-03T11:38:23-08:00	2020-11-03T20:08:16+00:00	2020-11-06T07:59:59+00:00	-3	5cyd4f5zmpkv8c5@marketplace.amazon.com	Shambhavi Barthwal	+1 213-442-1463 ext. 65678	ABR0022	Delivery by Thursday | Arabella Farm Direct Bouquet of 12 Fresh Cut Pink Roses with a Free Glass Vase	1	0	1	Expedited	Gangeyyo Bhattacharjee	430 8TH AVE N APT 617			SEATTLE	WA	98109-4793	US			false		
113-3294534-8463458	56225581092754	2020-11-03T19:39:54+00:00	2020-11-03T11:39:54-08:00	2020-11-03T20:09:22+00:00	2020-11-06T07:59:59+00:00	-3	mn968y8k90pyq40@marketplace.amazon.com	Marc Troiano	+1 602-671-6610 ext. 79048	ABR0022	Delivery by Thursday | Arabella Farm Direct Bouquet of 12 Fresh Cut Pink Roses with a Free Glass Vase	1	0	1	Expedited	Celeste Chapman	8667 BALBOA DR			STERLING HEIGHTS	MI	48313-4812	US		Happy birthday mom! From Marc Troiano	false		
114-3208029-1237045	25076913420218	2020-11-03T19:44:57+00:00	2020-11-03T11:44:57-08:00	2020-11-03T20:11:42+00:00	2020-11-06T07:59:59+00:00	-3	b8wshs9s97yv6q6@marketplace.amazon.com	Sally Brege	+1 213-442-1463 ext. 42848	ABR0022	Delivery by Thursday | Arabella Farm Direct Bouquet of 12 Fresh Cut Pink Roses with a Free Glass Vase	1	0	1	Expedited	Sally E Brege	834 Andover			DEWITT	MI	48820	US		Dear Aunt Bonnie & Uncle Rod,  Thinking of you with lots of love. From Lee & Sally Brege	false		
111-1563554-3564231	58792816546162	2020-11-03T19:51:01+00:00	2020-11-03T11:51:01-08:00	2020-11-03T20:17:52+00:00	2020-11-06T07:59:59+00:00	-3	8vfybvl1l2qn7cc@marketplace.amazon.com	Sluus	+1 602-671-6610 ext. 42068	ABM022	Delivery by Thursday | Purple Extravagance Bouquet by Arabella Bouquets	1	0	1	Expedited	Sullivan	2668 TREE MEADOW LOOP			APOPKA	FL	32712-6617	US		Happy Birthday Joye! From Love you, Mom and Dad	false		
112-3950257-6549854	11439156616506	2020-11-03T19:55:36+00:00	2020-11-03T11:55:36-08:00	2020-11-03T20:26:09+00:00	2020-11-06T07:59:59+00:00	-3	ztl2kgs911nhl6h@marketplace.amazon.com	Japinder	+1 929-436-4790 ext. 23190	ABM024	Delivery by Friday | The Beauty of Color Bouquet by Arabella Bouquets	1	0	1	Expedited	Valeria Benitez-Vera	145 FRONT ST UNIT 1340			WORCESTER	MA	01608-1459	US			false		
114-9772288-7030615	32078056305410	2020-11-03T20:06:14+00:00	2020-11-03T12:06:14-08:00	2020-11-03T20:33:39+00:00	2020-11-06T07:59:59+00:00	-3	h08ww1g1jyzy2fl@marketplace.amazon.com	Elizabeth A Gillan	+1 480-618-5344 ext. 70226	ABR0022	Delivery by Thursday | Arabella Farm Direct Bouquet of 12 Fresh Cut Pink Roses with a Free Glass Vase	1	0	1	Expedited	Jacquelyn Edmonds	60 S AMMONS ST			LAKEWOOD	CO	80226-1331	US		Happy Birthday Mom! Love, Betsy & the Girls From Elizabeth A Gillan	false		
114-8846514-6942641	44626473261682	2020-11-03T20:12:15+00:00	2020-11-03T12:12:15-08:00	2020-11-03T20:36:24+00:00	2020-11-06T07:59:59+00:00	-3	5b1mcl3slsqh8nj@marketplace.amazon.com	Silvia Xotta	+1 619-854-2705 ext. 58134	ABM022	Delivery by Thursday | Purple Extravagance Bouquet by Arabella Bouquets	1	0	1	Expedited	Emily Raic	2050 JAMIESON AVE APT 1306			ALEXANDRIA	VA	22314-6829	US		Happy Birthday Emily! Have a wonderful day! Love you!❤💐 From Mom XO	false		
112-9101142-3532241	51744107218738	2020-11-03T20:11:10+00:00	2020-11-03T12:11:10-08:00	2020-11-03T20:37:52+00:00	2020-11-06T07:59:59+00:00	-3	4d5skckft4ftjsb@marketplace.amazon.com	Pam Nunzio	+1 480-618-5344 ext. 48397	ABM022	Delivery by Thursday | Purple Extravagance Bouquet by Arabella Bouquets	1	0	1	Expedited	Denise Brown	3730 LAWSON RD			IJAMSVILLE	MD	21754-9116	US		Happy birthday From Pam Nunzio	false		
112-2909929-3941816	39531966451402	2020-11-03T20:15:05+00:00	2020-11-03T12:15:05-08:00	2020-11-03T20:45:09+00:00	2020-11-06T07:59:59+00:00	-3	859w7vb6g3024b1@marketplace.amazon.com	Kristopher Mark De La Hoya	+1 619-854-2705 ext. 69328	ABR0022	Delivery by Thursday | Arabella Farm Direct Bouquet of 12 Fresh Cut Pink Roses with a Free Glass Vase	1	0	1	Expedited	Alma De La Hoya	10453 FAIRHILL DR			SPRING VALLEY	CA	91977-5411	US			false		
112-6304231-1448209	34908364764242	2020-11-03T20:26:44+00:00	2020-11-03T12:26:44-08:00	2020-11-03T20:54:16+00:00	2020-11-06T07:59:59+00:00	-3	z697wrx0kl76wty@marketplace.amazon.com	J Manuel	+1 929-436-4790 ext. 20790	ABR0022	Delivery by Thursday | Arabella Farm Direct Bouquet of 12 Fresh Cut Pink Roses with a Free Glass Vase	1	0	1	Expedited	Maria Manuel	2029 Olympic Blvd.	Apt. 127		Santa Monica	California	90404-3966	US		Happy Birthday lovely Mika!  Wishing you a wonderful day and a much brighter year ahead. Here's to a future with lots of love, laughter, travel, adventure and good health.  Much love from - jenny, mike, milly & evie xxxx From J Manuel	false		
114-3042387-8269815	24153739880194	2020-11-03T20:28:29+00:00	2020-11-03T12:28:29-08:00	2020-11-03T20:55:06+00:00	2020-11-06T07:59:59+00:00	-3	z20wdphchd8z619@marketplace.amazon.com	bahman kaboli	+1 213-442-1463 ext. 31730	ABR012	Delivery by Friday | Arabella Farm Direct Bouquet of 18 Fresh Cut Pink Roses with a Free Glass Vase	1	0	1	Expedited	Parisa Kaboli	6 GRACE CIR			NATICK	MA	01760-5895	US			false		
112-4773705-3695439	53314440439714	2020-11-03T20:27:33+00:00	2020-11-03T12:27:33-08:00	2020-11-03T20:56:35+00:00	2020-11-06T07:59:59+00:00	-3	yvt5fxnxd8y1thw@marketplace.amazon.com	Keri Geier	+1 602-671-6610 ext. 95281	ABB013	Delivery by Friday | Arabella Bouquets | 24 Stems of Fresh Cut White Roses in a Free Designer Glass Vase	1	0	1	Expedited	Lori Turner	1681 SE MANSFIELD ST			PORT ST LUCIE	FL	34952-6545	US		Happy 60th! We love you! Lots of love,  Waylynn + Merritt From Waylynn + Merritt	false		
112-4172317-3469010	51722096318970	2020-11-03T20:34:43+00:00	2020-11-03T12:34:43-08:00	2020-11-03T21:03:42+00:00	2020-11-06T07:59:59+00:00	-3	k46drqyzfnkrs31@marketplace.amazon.com	maureen wallace	+1 415-851-9136 ext. 68306	ABR0022	Delivery by Thursday | Arabella Farm Direct Bouquet of 12 Fresh Cut Pink Roses with a Free Glass Vase	1	0	1	Expedited	Mary Pat Keegan	W437 COUNTY ROAD DW			THERESA	WI	53091-9777	US			false		
112-1622670-5025864	37377834546986	2020-11-03T20:52:55+00:00	2020-11-03T12:52:55-08:00	2020-11-03T21:19:10+00:00	2020-11-06T07:59:59+00:00	-3	l8wbkkyk6c35ddh@marketplace.amazon.com	Tammy Schultz	+1 213-442-1463 ext. 33171	ABM022	Delivery by Thursday | Purple Extravagance Bouquet by Arabella Bouquets	1	0	1	Expedited	Kevin and Jess Cunniff	9765 198TH ST W			LAKEVILLE	MN	55044-4785	US		Kevin, Jess and Boys - We are so sorry for your loss of Kevin's Grandma and Jess's Grandpa.  May the memories you have help you find peace.  Sending hugs to your family. From Stephen & Tammy Lang From Stephen and Tammy Lang & Boys	false		
111-9040536-6432268	23760141267026	2020-11-03T21:11:37+00:00	2020-11-03T13:11:37-08:00	2020-11-03T21:40:01+00:00	2020-11-06T07:59:59+00:00	-3	j9xpzr6bfl59d50@marketplace.amazon.com	carol mcclendon	+1 929-436-4790 ext. 45389	ABM022	Delivery by Thursday | Purple Extravagance Bouquet by Arabella Bouquets	1	0	1	Expedited	Kathy McClendon	6444 MOJAVE ST NW			ALBUQUERQUE	NM	87120-4826	US		So glad you were born! From carol mcclendon	false		
113-9762625-6577806	30984711317386	2020-11-03T21:13:19+00:00	2020-11-03T13:13:19-08:00	2020-11-03T21:43:32+00:00	2020-11-06T07:59:59+00:00	-3	fdczv4ld3v5v0q4@marketplace.amazon.com	Ramon Cabungcal	+1 480-618-5344 ext. 70478	ABM022	Delivery by Thursday | Purple Extravagance Bouquet by Arabella Bouquets	1	0	1	Expedited	Sandra F Agdipa	7595 WELLFLEET BAY AVE	LAS VEGAS NV 89179		LAS VEGAS	NV	89179-1443	US			false		
111-3999018-2043465	15496669729418	2020-11-03T21:16:41+00:00	2020-11-03T13:16:41-08:00	2020-11-03T21:46:16+00:00	2020-11-06T07:59:59+00:00	-3	z9899hb47s2g4xy@marketplace.amazon.com	Angela Coriale	+1 929-436-4790 ext. 96932	ABM010	Delivery by Thursday | The Spring Fling Bouquet by Arabella Bouquets with a Free Designer Glass Vase	1	0	1	Expedited	Christina Castaño	1710 MORGANS AVE			SAN MARCOS	CA	92078-1045	US		Sorry these are late. Happy birthday!! From Jeremy	false		
111-3999018-2043465	67473259968418	2020-11-03T21:16:41+00:00	2020-11-03T13:16:41-08:00	2020-11-03T21:46:16+00:00	2020-11-06T07:59:59+00:00	-3	z9899hb47s2g4xy@marketplace.amazon.com	Angela Coriale	+1 929-436-4790 ext. 96932	ABM010	Delivery by Thursday | The Spring Fling Bouquet by Arabella Bouquets with a Free Designer Glass Vase	1	0	1	Expedited	Christina Castaño	1710 MORGANS AVE			SAN MARCOS	CA	92078-1045	US		Enjoy your gift! From Angela Coriale	false		
112-3033999-6757046	18225779024658	2020-11-03T21:17:41+00:00	2020-11-03T13:17:41-08:00	2020-11-03T21:48:04+00:00	2020-11-06T07:59:59+00:00	-3	xs9gbwybtxgqpvy@marketplace.amazon.com	Hilda Montoya	+1 929-436-4790 ext. 04675	ABR0033	Delivery by Thursday | Arabella Farm Direct Bouquet of 12 Fresh Cut Orange Roses with a Free Glass Vase	1	0	1	Expedited	Irene Duarte	11816 S 207TH AVE			BUCKEYE	AZ	85326-1904	US			false		
114-4231531-1890622	70122269031922	2020-11-03T21:38:29+00:00	2020-11-03T13:38:29-08:00	2020-11-03T22:08:37+00:00	2020-11-06T07:59:59+00:00	-3	xn30gnjgv2bms0f@marketplace.amazon.com	mike dodson	+1 480-618-5344 ext. 98859	ABR0022	Delivery by Thursday | Arabella Farm Direct Bouquet of 12 Fresh Cut Pink Roses with a Free Glass Vase	1	0	1	Expedited	mike dodson	2543 HOPE DR			CONYERS	GA	30094-3382	US			false		
112-4689724-6680264	36971151685866	2020-11-03T21:45:17+00:00	2020-11-03T13:45:17-08:00	2020-11-03T22:13:13+00:00	2020-11-06T07:59:59+00:00	-3	gmjrh6k5q19pq24@marketplace.amazon.com	Dean S Anthony	+1 929-436-4790 ext. 53624	ABM022	Delivery by Thursday | Purple Extravagance Bouquet by Arabella Bouquets	1	0	1	Expedited	Elen Conniff	20328 IPAVA AVE			LAKEVILLE	MN	55044-4918	US		Happy Birthday!! From Dean S Anthony	false		
114-0638622-8085055	40302710445986	2020-11-03T21:46:35+00:00	2020-11-03T13:46:35-08:00	2020-11-03T22:14:16+00:00	2020-11-06T07:59:59+00:00	-3	8ywzch8wbwd2lyr@marketplace.amazon.com	bruce applebaum	+1 602-671-6610 ext. 28743	ABR0022	Delivery by Thursday | Arabella Farm Direct Bouquet of 12 Fresh Cut Pink Roses with a Free Glass Vase	1	0	1	Expedited	Mary Freeman	1685 DAILY DR			ERIE	CO	80516-7232	US		Get well soon, Mare  Love  Bruce & Alice From bruce applebaum	false		
111-7383616-5251400	65099907724754	2020-11-03T22:06:44+00:00	2020-11-03T14:06:44-08:00	2020-11-03T22:35:43+00:00	2020-11-06T07:59:59+00:00	-3	3k4t2f70ylbwf02@marketplace.amazon.com	william watkins	+1 929-436-4790 ext. 87280	ABM022	Delivery by Thursday | Purple Extravagance Bouquet by Arabella Bouquets	1	0	1	Expedited	Bonnie Witkowski	700 17TH AVE S			NORTH MYRTLE BEACH	SC	29582-4011	US		Happy Birthday Mom! I hope you have a great day! Love, Michelle, Wayne and Jordan From Michelle	false		
113-5501701-9981027	35190507650114	2020-11-03T22:17:03+00:00	2020-11-03T14:17:03-08:00	2020-11-03T22:47:14+00:00	2020-11-06T07:59:59+00:00	-3	ylnshgvg1fk2qbq@marketplace.amazon.com	elaine  buro	+1 929-436-4790 ext. 12875	ABM022	Delivery by Thursday | Purple Extravagance Bouquet by Arabella Bouquets	1	0	1	Expedited	Devon Fenimore Rob Hanratty	471 WELLESLEY AVE			MILL VALLEY	CA	94941-3540	US			false		
114-1984426-1253028	14628460670690	2020-11-03T22:17:14+00:00	2020-11-03T14:17:14-08:00	2020-11-03T22:47:15+00:00	2020-11-06T07:59:59+00:00	-3	9r55d2fwrrpqx53@marketplace.amazon.com	David Rossman	+1 480-618-5344 ext. 93398	ABM026	Delivery by Friday | The Amour Bouquet by Arabella Bouquets	1	0	1	Expedited	Shari Dudley	143 BANWELL LN			MOUNT LAUREL	NJ	08054-3341	US			false		
114-0987523-9697039	29760546164154	2020-11-03T23:30:31+00:00	2020-11-03T15:30:31-08:00	2020-11-03T23:32:44+00:00	2020-11-06T07:59:59+00:00	-3	dkqpnr2t7rrrblj@marketplace.amazon.com	Renee Roberts	+1 602-671-6610 ext. 15812	ABR0022	Delivery by Thursday | Arabella Farm Direct Bouquet of 12 Fresh Cut Pink Roses with a Free Glass Vase	1	0	1	Expedited	Jeanne Molina	1212 SHORE RD			LINWOOD	NJ	08221-2446	US			false		
111-4378092-7098653	50395718343690	2020-11-03T23:14:16+00:00	2020-11-03T15:14:16-08:00	2020-11-03T23:41:34+00:00	2020-11-06T07:59:59+00:00	-3	09zjmvsywzyngb6@marketplace.amazon.com	Jean-Pierre Dodel	+1 213-442-1463 ext. 07104	ABR001	Delivery by Thursday | Arabella Bouquets 12 Stems of Fresh Cut Red Roses in a Free Designer Glass Vase	1	0	1	Expedited	Jean Pierre Dodel	2333 N 58 ST			SEATTLE	WA	98103	US		Feliz aniversario baby!! Miss you and love you as always!! From Jean-Pierre Dodel	false		
114-2162610-0149013	01938196971738	2020-11-03T23:18:49+00:00	2020-11-03T15:18:49-08:00	2020-11-03T23:45:54+00:00	2020-11-06T07:59:59+00:00	-3	bbwp8n2l0nr8b44@marketplace.amazon.com	Annelen Juliani	+1 602-671-6610 ext. 71003	ABR0055	Delivery by Thursday | Arabella Farm Direct Bouquet of 12 Stems of Fresh Cut Hot Pink Roses in a Free Designer Glass Vase	1	0	1	Expedited	Louise Babyac Fay	12995 Township Road 220			Rushylvania	OHIO	43347	US		Dearest Louise, When you see these flowers, be reminded that your Arizona cousin loves you. May you have continued healthy days ahead. Enjoy! From Annelen Juliani	false		
114-1196401-0325030	10200875781290	2020-11-03T23:27:29+00:00	2020-11-03T15:27:29-08:00	2020-11-03T23:54:07+00:00	2020-11-06T07:59:59+00:00	-3	pnqk09szw8kkj4c@marketplace.amazon.com	jessica lindelow	+1 619-854-2705 ext. 55043	ABM022	Delivery by Thursday | Purple Extravagance Bouquet by Arabella Bouquets	1	0	1	Expedited	Kiersten Gallagher	545 RANCHO DEL MAR WAY			NORTH LAS VEGAS	NV	89031-2831	US		I’m so sorry for your loss.  I’m sending lots of love to you and your family.  Please let me know if you need anything. From Rebecca Lindelow	false		
114-6256765-6812221	11853613402178	2020-11-03T23:43:38+00:00	2020-11-03T15:43:38-08:00	2020-11-04T00:13:39+00:00	2020-11-06T07:59:59+00:00	-3	0jy45qgtny7gx4p@marketplace.amazon.com	Joe Lewandowski	+1 602-671-6610 ext. 54824	ABM022	Delivery by Thursday | Purple Extravagance Bouquet by Arabella Bouquets	1	0	1	Expedited	Serenades by Sonata West Orange	720 ROPER RD ATTN LINDA LAVIN	RM 107		WINTER GARDEN	FL	34787-5017	US			false		
113-1945196-5685826	65505077332658	2020-11-04T00:04:29+00:00	2020-11-03T16:04:29-08:00	2020-11-04T00:26:51+00:00	2020-11-06T07:59:59+00:00	-3	3slx8tvc469htc2@marketplace.amazon.com	Stephen Culbert	+1 480-618-5344 ext. 58010	ABB006	Delivery by Friday | Arabella Bouquets | Farm Direct 48 Fresh Cut Red Roses	1	0	1	Expedited	Jennifer Culbert	115 E ROUMFORT RD APT 24			PHILADELPHIA	PA	19119-1656	US			false		
113-0925931-9525043	64291978037970	2020-11-04T00:00:59+00:00	2020-11-03T16:00:59-08:00	2020-11-04T00:29:49+00:00	2020-11-06T07:59:59+00:00	-3	dqm7x51wnz6sxl5@marketplace.amazon.com	Amy	+1 213-442-1463 ext. 23529	ABR0033	Delivery by Thursday | Arabella Farm Direct Bouquet of 12 Fresh Cut Orange Roses with a Free Glass Vase	1	0	1	Expedited	Helen Godby	37632 WCR 37			Eaton	CO	80615	US		We hope you get to feeling better🧡 From Amy & Avalon	false		
111-0653603-8845851	06802099966170	2020-11-04T00:03:25+00:00	2020-11-03T16:03:25-08:00	2020-11-04T00:33:49+00:00	2020-11-06T07:59:59+00:00	-3	tzzlhcrprqrtzwy@marketplace.amazon.com	Patricia A. Henchy	+1 415-851-9136 ext. 53391	ABR0022	Delivery by Thursday | Arabella Farm Direct Bouquet of 12 Fresh Cut Pink Roses with a Free Glass Vase	1	0	1	Expedited	Patricia Henchy	1 Fernwood Court			Alexandria	KY	41001	US			false		
111-7826597-4125039	63032309827962	2020-11-04T00:20:07+00:00	2020-11-03T16:20:07-08:00	2020-11-04T00:47:48+00:00	2020-11-06T07:59:59+00:00	-3	mk9vcxj531tpwp7@marketplace.amazon.com	Kristan Walsh	+1 929-436-4790 ext. 93835	ABM010	Delivery by Thursday | The Spring Fling Bouquet by Arabella Bouquets with a Free Designer Glass Vase	1	0	1	Expedited	Carla Walsh	10 ELMCREST CIR			MELROSE	MA	02176-3401	US		Happy Birthday From Kris and Priscilla	false		
111-3919916-7190626	59146779131794	2020-11-04T00:23:19+00:00	2020-11-03T16:23:19-08:00	2020-11-04T00:49:12+00:00	2020-11-06T07:59:59+00:00	-3	6x0nghxbtrgtvkq@marketplace.amazon.com	Prudy Bair	+1 602-671-6610 ext. 88426	ABR0022	Delivery by Thursday | Arabella Farm Direct Bouquet of 12 Fresh Cut Pink Roses with a Free Glass Vase	1	0	1	Expedited	Robert  & Melba Cote	11330 COUNTRYWAY BLVD APT 318			TAMPA	FL	33626-2685	US		Bob and Melba, Thinking of you and miss you so much! Love, Prudy & Leslie From Prudy	false		
112-1344923-3067419	11221008548762	2020-11-04T00:25:42+00:00	2020-11-03T16:25:42-08:00	2020-11-04T00:56:15+00:00	2020-11-06T07:59:59+00:00	-3	yjwkcb022fmpdv0@marketplace.amazon.com	howard vivian	+1 602-671-6610 ext. 69970	ABR0022	Delivery by Thursday | Arabella Farm Direct Bouquet of 12 Fresh Cut Pink Roses with a Free Glass Vase	1	0	1	Expedited	Rena Vivian	55 McLallan Lane			Manson	Washington	98831	US			false		
111-2650929-1865041	63390620857546	2020-11-04T00:34:35+00:00	2020-11-03T16:34:35-08:00	2020-11-04T01:03:57+00:00	2020-11-06T07:59:59+00:00	-3	bfrjyptsnqfrb2d@marketplace.amazon.com	Doreen Zubia	+1 602-671-6610 ext. 05336	ABR0033	Delivery by Thursday | Arabella Farm Direct Bouquet of 12 Fresh Cut Orange Roses with a Free Glass Vase	1	0	1	Expedited	Stella Reyes	14147 LA RUE ST			SAN FERNANDO	CA	91340-3836	US		Get better! Enjoy your gift! From Doreen & Joey	false		
112-2514249-5321065	64093031485498	2020-11-04T00:32:07+00:00	2020-11-03T16:32:07-08:00	2020-11-04T01:08:31+00:00	2020-11-06T07:59:59+00:00	-3	wpfhwz638pjqkhf@marketplace.amazon.com	Lisa Earnhardt	+1 602-671-6610 ext. 33124	ABR0022	Delivery by Thursday | Arabella Farm Direct Bouquet of 12 Fresh Cut Pink Roses with a Free Glass Vase	1	0	1	Expedited	Amy Hopkins	9245 MARCH RD			AKRON	NY	14001-9007	US		Happy 60th Birthday Amy!!  We love ya!! From Lisa & The RU's	false		
114-2526799-7998628	13577080790546	2020-11-04T00:47:32+00:00	2020-11-03T16:47:32-08:00	2020-11-04T01:16:20+00:00	2020-11-06T07:59:59+00:00	-3	4xffwqpmbhp1ly2@marketplace.amazon.com	Brooke Cummings	+1 480-618-5344 ext. 54566	ABM022	Delivery by Thursday | Purple Extravagance Bouquet by Arabella Bouquets	1	0	1	Expedited	Jan Swope	38850 WYATT CHAPEL RD			HEMPSTEAD	TX	77445-8453	US		Jan, We have been thinking of you and hope these brighten your day. We love you.  Love, Anthony, Brooke, Cory, Coen and Cole From Brooke Cummings	false		
114-3714622-2211464	45519187785338	2020-11-04T00:57:21+00:00	2020-11-03T16:57:21-08:00	2020-11-04T01:26:03+00:00	2020-11-06T07:59:59+00:00	-3	j2bbltg2ck8txxs@marketplace.amazon.com	Susan Tyrrell	+1 929-436-4790 ext. 12696	ABM022	Delivery by Thursday | Purple Extravagance Bouquet by Arabella Bouquets	1	0	1	Expedited	Linda Chlipala	4011 SHELL AVE			DAYTON	OH	45415-1457	US		Happy Anniversary, Mom & Dad! We love you!! From Susan, Chris, Chris, Evan & Brian	false		
113-8128308-1190601	15757135536898	2020-11-02T23:43:12+00:00	2020-11-02T15:43:12-08:00	2020-11-04T01:29:28+00:00	2020-11-06T07:59:59+00:00	-3	s3czyrq29rdylx8@marketplace.amazon.com	Carlos Castro	+1 213-442-1463 ext. 54293	ABR0022	Delivery by Wednesday | Arabella Farm Direct Bouquet of 12 Fresh Cut Pink Roses with a Free Glass Vase	1	0	1	Expedited	Rebecca Young	904 Sam Street			Springtown	texas	76082	US			false		
113-2673374-3246605	40057352985930	2020-11-04T01:04:49+00:00	2020-11-03T17:04:49-08:00	2020-11-04T01:32:03+00:00	2020-11-06T07:59:59+00:00	-3	mr4wxt17khxcx5y@marketplace.amazon.com	Marcia Lyn Burroughs	+1 602-671-6610 ext. 26741	ABM024	Delivery by Friday | The Beauty of Color Bouquet by Arabella Bouquets	1	0	1	Expedited	Ms Stacey Watkins	2015 SHEELER OAKS DR			APOPKA	FL	32703-1568	US		Welcome to your post-Walmart life!!! I hope you enjoy it very much. You deserve it!! Much love, little sister! Marcia From Marcia Lyn Burroughs	false		
113-1018765-5201826	22948288607458	2020-11-04T01:05:18+00:00	2020-11-03T17:05:18-08:00	2020-11-04T01:35:42+00:00	2020-11-06T07:59:59+00:00	-3	m6mkn1mbw2lv4z9@marketplace.amazon.com	Eric Martin	+1 929-436-4790 ext. 48159	ABM024	Delivery by Friday | The Beauty of Color Bouquet by Arabella Bouquets	1	0	1	Expedited	Eric Martin	800 BAY DR APT 21			NICEVILLE	FL	32578-4151	US			false		
111-7811009-3065025	50835731502914	2020-11-04T01:14:24+00:00	2020-11-03T17:14:24-08:00	2020-11-04T01:37:42+00:00	2020-11-06T07:59:59+00:00	-3	448qzx1yng81cs1@marketplace.amazon.com	Quantella Bryant-Holmes	+1 213-442-1463 ext. 34587	ABM020	Delivery by Thursday | The Sunset Bouquet by Arabella Bouquets	1	0	1	Expedited	Mrs. Noreen Lee	326 WINDEMERE RD			NEWPORT NEWS	VA	23602-6100	US		Hello Deacon Noreen!! I'm so excited to finally celebrate you, I have been holding my Birthday surprise inside. Know that I could never forget such special person. I  love you! Enjoy your day!!!!! From Quantella Bryant-Holmes	false		
112-1735284-2437802	22753541536026	2020-11-04T01:09:57+00:00	2020-11-03T17:09:57-08:00	2020-11-04T01:39:02+00:00	2020-11-06T07:59:59+00:00	-3	bqfqd0kxxy4d8sd@marketplace.amazon.com	Melissa K White	+1 480-618-5344 ext. 51655	ABM022	Delivery by Thursday | Purple Extravagance Bouquet by Arabella Bouquets	1	0	1	Expedited	Judy Brown	156 CALLE NOGALES			WALNUT CREEK	CA	94597-2105	US		Hugs and meows for a speedy recovery! From Love Melissa & Clancy McGee	false		
113-0307093-1431467	31647049915242	2020-11-04T01:20:23+00:00	2020-11-03T17:20:23-08:00	2020-11-04T01:49:08+00:00	2020-11-06T07:59:59+00:00	-3	kl1hvvtqttmtxqk@marketplace.amazon.com	krista slye	+1 602-671-6610 ext. 92087	ABM010	Delivery by Thursday | The Spring Fling Bouquet by Arabella Bouquets with a Free Designer Glass Vase	1	0	1	Expedited	Ebony Williams	7020 SOUTHMOOR ST UNIT 2206			HANOVER	MD	21076-2148	US		Just a bouquet to brighten your day and remind you that you are loved! From Krista & Stacie	false		
114-0690499-5239412	15038347250410	2020-11-04T01:25:42+00:00	2020-11-03T17:25:42-08:00	2020-11-04T01:51:01+00:00	2020-11-06T07:59:59+00:00	-3	xcqy6jlrsxshyv9@marketplace.amazon.com	Zelma Branch	+1 602-671-6610 ext. 84603	ABR001	Delivery by Thursday | Arabella Bouquets 12 Stems of Fresh Cut Red Roses in a Free Designer Glass Vase	1	0	1	Expedited	Danielle Kingham	2710 HIDDEN LANDING DR			PEARLAND	TX	77584-8787	US		Hi Danielle, My prayer for you is a full and quick recovery. From Zelma Branch	false		
111-7699729-5199434	37985449389490	2020-11-04T01:23:25+00:00	2020-11-03T17:23:25-08:00	2020-11-04T01:53:01+00:00	2020-11-06T07:59:59+00:00	-3	jxmqd6y6l48k18t@marketplace.amazon.com	Monique Morales-Mason	+1 602-671-6610 ext. 36963	ABM010	Delivery by Thursday | The Spring Fling Bouquet by Arabella Bouquets with a Free Designer Glass Vase	1	0	1	Expedited	Margaret Morales	2 CARLE ST APT 21			WATERVILLE	ME	04901-5172	US			false		
114-9929346-2658609	02588194667234	2020-11-04T01:31:16+00:00	2020-11-03T17:31:16-08:00	2020-11-04T01:54:55+00:00	2020-11-06T07:59:59+00:00	-3	v2pbd2b7tdppjvh@marketplace.amazon.com	andrew valanda	+1 213-442-1463 ext. 35910	ABR001	Delivery by Thursday | Arabella Bouquets 12 Stems of Fresh Cut Red Roses in a Free Designer Glass Vase	1	0	1	Expedited	Elvira Velez	56 PROVIDENCE FORGE RD			ROYERSFORD	PA	19468-2932	US		I know I’m not the best with words. this is Because Every time you smile at me I feel like I’m in heaven. I hope this lets you know how Special and Amazing you really are. From andrew valanda	false		
114-9929346-2658609	41301536974922	2020-11-04T01:31:16+00:00	2020-11-03T17:31:16-08:00	2020-11-04T01:54:55+00:00	2020-11-06T07:59:59+00:00	-3	v2pbd2b7tdppjvh@marketplace.amazon.com	andrew valanda	+1 213-442-1463 ext. 35910	ABR001	Delivery by Thursday | Arabella Bouquets 12 Stems of Fresh Cut Red Roses in a Free Designer Glass Vase	4	0	4	Expedited	Elvira Velez	56 PROVIDENCE FORGE RD			ROYERSFORD	PA	19468-2932	US		Enjoy your gift! From andrew valanda	false		
111-1732307-8873026	39625560617914	2020-11-04T01:50:38+00:00	2020-11-03T17:50:38-08:00	2020-11-04T02:20:55+00:00	2020-11-06T07:59:59+00:00	-3	yhh6k7n3zqmx3xf@marketplace.amazon.com	Roxanne De Vries	+1 929-436-4790 ext. 52830	ABR0022	Delivery by Thursday | Arabella Farm Direct Bouquet of 12 Fresh Cut Pink Roses with a Free Glass Vase	1	0	1	Expedited	Joyce Baum	483 LAKE OF THE WOODS DR			VENICE	FL	34293-7218	US			false		
111-9146072-7892227	32069178058994	2020-11-04T02:26:44+00:00	2020-11-03T18:26:44-08:00	2020-11-04T02:31:24+00:00	2020-11-06T07:59:59+00:00	-3	g29zb6rmcj7zsyl@marketplace.amazon.com	Joanne ambrosino	+1 213-442-1463 ext. 56783	ABR0022	Delivery by Thursday | Arabella Farm Direct Bouquet of 12 Fresh Cut Pink Roses with a Free Glass Vase	1	0	1	Expedited	Connie Kenney	3851 E OLIVE AVE			GILBERT	AZ	85234-3205	US		Dear Connie - Happy 80th Birthday! I'm so happy we've reconnected and can share treasured childhood memories!!  Hope you're feeling better every day! You'll always be Chickie to me! xox From Much love,  JoAnne xox	false		
114-8375562-8605838	67678609925106	2020-11-04T02:08:16+00:00	2020-11-03T18:08:16-08:00	2020-11-04T02:37:08+00:00	2020-11-06T07:59:59+00:00	-3	j41gkhhxd05c3mn@marketplace.amazon.com	Jill Reese	+1 602-671-6610 ext. 16136	ABR0022	Delivery by Thursday | Arabella Farm Direct Bouquet of 12 Fresh Cut Pink Roses with a Free Glass Vase	1	0	1	Expedited	Joan Leugers	2462 QUEEN MARY LN			HAMILTON	OH	45013-4263	US		I'd rather send you flowers while you are alive. I'm sorry about Aunt Helen. I love you mom. From Jill Reese	false		
113-5178784-5286632	68796828289274	2020-11-04T02:13:21+00:00	2020-11-03T18:13:21-08:00	2020-11-04T02:42:45+00:00	2020-11-06T07:59:59+00:00	-3	wrkblbdgy57x51h@marketplace.amazon.com	David A Parandoosh	+1 619-854-2705 ext. 62312	ABR0066	Delivery by Thursday | Arabella Bouquets 12 Stems of Fresh Cut White Roses in a Free Designer Glass Vase	1	0	1	Expedited	Jacques Drazsnzak	1430 NARROW GAUGE WAY			ARROYO GRANDE	CA	93420-6921	US			false		
114-2501657-4857001	44873177506794	2020-11-04T02:55:47+00:00	2020-11-03T18:55:47-08:00	2020-11-04T03:17:53+00:00	2020-11-06T07:59:59+00:00	-3	jf8mpmnwdqm7n09@marketplace.amazon.com	Elaine Guglielmo	+1 929-436-4790 ext. 69517	ABB013	Delivery by Friday | Arabella Bouquets | 24 Stems of Fresh Cut White Roses in a Free Designer Glass Vase	1	0	1	Expedited	Anthony Cappa and Greg Baker	1403 MILLSTONE RD			SAG HARBOR	NY	11963-2209	US		Dear Anthony and Greg,  I was so happy to hear your special news.   I wish you all the best as you start this next part of your lives together.  My love to you both.  To the time when we can be together to REALLY celebrate!! From Elaine Guglielmo	false		
114-0327287-3848201	33836410269386	2020-11-04T03:26:27+00:00	2020-11-03T19:26:27-08:00	2020-11-04T03:55:31+00:00	2020-11-06T07:59:59+00:00	-3	j9hq7qmdkr39j86@marketplace.amazon.com	Maharukh Kravich	+1 480-618-5344 ext. 64566	ABR0022	Delivery by Thursday | Arabella Farm Direct Bouquet of 12 Fresh Cut Pink Roses with a Free Glass Vase	1	0	1	Expedited	Yasmin Kotval	220 CHATHAM TER			DANVILLE	CA	94506-6242	US		Happy Birthday Yasmin, Thinking of you! Maharukh	false		
114-5418452-4569867	12742731724858	2020-11-04T03:36:06+00:00	2020-11-03T19:36:06-08:00	2020-11-04T04:04:55+00:00	2020-11-06T07:59:59+00:00	-3	t6c09dqljpjnx9j@marketplace.amazon.com	stacy l cummings	+1 602-671-6610 ext. 22194	ABR0033	Delivery by Thursday | Arabella Farm Direct Bouquet of 12 Fresh Cut Orange Roses with a Free Glass Vase	1	0	1	Expedited	Mildred Pitts	413 SANDRA JEAN ST			NACOGDOCHES	TX	75964-6773	US		Happy Birthday Millie With our love, From Debbie and Stacy	false		
111-4634452-8135438	14230490279210	2020-11-04T03:40:38+00:00	2020-11-03T19:40:38-08:00	2020-11-04T04:10:37+00:00	2020-11-06T07:59:59+00:00	-3	gqlv55byqzbr59f@marketplace.amazon.com	melody villa	+1 213-442-1463 ext. 76076	ABR004	Delivery by Thursday | Arabella Farm Direct Bouquet of 12 Fresh Cut Yellow Roses with a Free Glass Vase	1	0	1	Expedited	Aunt Betty Milam	17143 133RD AVE NE APT 230			WOODINVILLE	WA	98072-3569	US			false		
113-4029201-8048244	00974403365170	2020-11-04T04:04:47+00:00	2020-11-03T20:04:47-08:00	2020-11-04T04:29:27+00:00	2020-11-06T07:59:59+00:00	-3	q2h8gdpmvzbqrw1@marketplace.amazon.com	Eileen	+1 602-671-6610 ext. 66011	ABM022	Delivery by Thursday | Purple Extravagance Bouquet by Arabella Bouquets	1	0	1	Expedited	Jennie Barrett	19230 FOREST PARK DR NE APT C210			LAKE FOREST PARK	WA	98155-2462	US		Happy Birthday From the McAlorums	false		
111-0309439-9775477	43628371573226	2020-11-04T04:05:22+00:00	2020-11-03T20:05:22-08:00	2020-11-04T04:34:19+00:00	2020-11-06T07:59:59+00:00	-3	r44ms6m6959fgtk@marketplace.amazon.com	Joseph A. Arlotti	+1 929-436-4790 ext. 13113	ABM022	Delivery by Thursday | Purple Extravagance Bouquet by Arabella Bouquets	1	0	1	Expedited	Irma Orozco	14228 DITTMAR DR			WHITTIER	CA	90605-2448	US		Hope you feel better soon. From Lucy and Joseph	false		
114-5460618-4633816	22720565018298	2020-11-04T04:28:01+00:00	2020-11-03T20:28:01-08:00	2020-11-04T04:53:13+00:00	2020-11-06T07:59:59+00:00	-3	spfslf2p9xp8vmc@marketplace.amazon.com	Neila Barnett	+1 213-442-1463 ext. 00107	ABM031	Delivery by Friday | The Harvest Moon Bouquet by Arabella Bouquets	1	0	1	Expedited	Suzi Davis	4431 E DRY CREEK RD			PHOENIX	AZ	85044-6028	US			false		
112-0470239-9193843	33725109897850	2020-11-04T04:27:27+00:00	2020-11-03T20:27:27-08:00	2020-11-04T04:56:12+00:00	2020-11-06T07:59:59+00:00	-3	0fqlrsfj47myblm@marketplace.amazon.com	Rosy Padilla	+1 929-436-4790 ext. 67408	ABR0022	Delivery by Thursday | Arabella Farm Direct Bouquet of 12 Fresh Cut Pink Roses with a Free Glass Vase	1	0	1	Expedited	Chachita Sanchez	1569 W SUMMIT ST			LONG BEACH	CA	90810-4038	US		Prima hermosa! Feliz Cumpleaños!  Que Dios te bendiga siempre con buena salud y muchos momentos de risas.  Te mandamos mucho abrazos! From Rosy Padilla y Familia	false		
114-3730882-6729825	48211208041362	2020-11-04T04:34:11+00:00	2020-11-03T20:34:11-08:00	2020-11-04T04:58:39+00:00	2020-11-06T07:59:59+00:00	-3	bm7c8h5vtqmby98@marketplace.amazon.com	Natalie Nowak	+1 929-436-4790 ext. 24274	ABM022	Delivery by Thursday | Purple Extravagance Bouquet by Arabella Bouquets	1	0	1	Expedited	Dorothy Nowak	15262 HAMLIN AVE			MIDLOTHIAN	IL	60445-3731	US		Aunt Dorothy, I hope you know that you are in our hearts and our thoughts. I pray that you are healthy and well but when I think of you, I am reminded of the strength and resilience you possess. We love you very much! From Natalie and Zach	false		
113-8041240-2512230	51405627082450	2020-11-04T05:16:14+00:00	2020-11-03T21:16:14-08:00	2020-11-04T05:40:43+00:00	2020-11-06T07:59:59+00:00	-3	6gh49z37qcq62kr@marketplace.amazon.com	Kathlynn D Barnett	+1 929-436-4790 ext. 21252	ABM025	Delivery by Friday | The Fell for You Bouquet by Arabella Bouquets	1	0	1	Expedited	mom kuehn	144 HOLM RD SPC 114			WATSONVILLE	CA	95076-2431	US			false		
114-9749780-0993028	64263222399202	2020-11-04T05:48:02+00:00	2020-11-03T21:48:02-08:00	2020-11-04T06:09:01+00:00	2020-11-06T07:59:59+00:00	-3	80920vqhf2rlkdr@marketplace.amazon.com	Dr. Bill Davis	+1 480-618-5344 ext. 25951	ABR004	Delivery by Thursday | Arabella Farm Direct Bouquet of 12 Fresh Cut Yellow Roses with a Free Glass Vase	1	0	1	Expedited	Tami Wilberding	3882 BLUEGRASS CT			LAKE HAVASU CITY	AZ	86406-4300	US		Tami, I am so thankful for all you did to take care of Gramms, I know she appreciated all you did for her. I’m sure you miss her and I am praying for you to feel God’s comfort and peace right now. I love you, we all love you. From Julie Davis	false		
113-9662722-3549031	03953902888266	2020-11-04T05:48:51+00:00	2020-11-03T21:48:51-08:00	2020-11-04T06:19:01+00:00	2020-11-06T07:59:59+00:00	-3	t81d27ntmd1jmly@marketplace.amazon.com	Meredith LaMela	+1 929-436-4790 ext. 62513	ABM022	Delivery by Thursday | Purple Extravagance Bouquet by Arabella Bouquets	1	0	1	Expedited	Erica LaMela	1105 FORT CLARKE BLVD APT 722			GAINESVILLE	FL	32606-7130	US			false		
113-8664559-9593861	04784740054002	2020-11-04T06:04:27+00:00	2020-11-03T22:04:27-08:00	2020-11-04T06:30:50+00:00	2020-11-06T07:59:59+00:00	-3	g00kn3ypchh4m0t@marketplace.amazon.com	Sergio FLorez	+1 480-618-5344 ext. 71992	ABM010	Delivery by Thursday | The Spring Fling Bouquet by Arabella Bouquets with a Free Designer Glass Vase	1	0	1	Expedited	Laura Florez	160 BIRDSALL ST APT 1440			HOUSTON	TX	77007-8193	US			false		
114-5746319-4382631	41889713830066	2020-11-04T06:07:01+00:00	2020-11-03T22:07:01-08:00	2020-11-04T06:36:40+00:00	2020-11-06T07:59:59+00:00	-3	hy6fpg2n2gq3bs1@marketplace.amazon.com	Deborah Johnson	+1 602-671-6610 ext. 34437	ABB007	Delivery by Friday | Arabella Farm Direct Bouquet of 24 Fresh Cut Pink Roses with a Free Glass Vase	1	0	1	Expedited	Alieta Mataele	106 LA LOMA LN			BURLINGAME	CA	94010-5918	US		Dear Auntie Alieta, Ditto everything my mom said in her long text.  :). We love you very much, God bless you and Eddy always, and know that we are here for you as much as you need. From Love, Debbie and Albert	false		
