order-id	order-item-id	purchase-date	payments-date	reporting-date	promise-date	days-past-promise	buyer-email	buyer-name	buyer-phone-number	sku	product-name	quantity-purchased	quantity-shipped	quantity-to-ship	ship-service-level	recipient-name	ship-address-1	ship-address-2	ship-address-3	ship-city	ship-state	ship-postal-code	ship-country	gift-wrap-type	gift-message-text	is-business-order	purchase-order-number	price-designation
113-1419994-8996248	10216634368906	2020-11-03T18:04:12+00:00	2020-11-03T10:04:12-08:00	2020-11-03T18:32:04+00:00	2020-11-06T07:59:59+00:00	-2	5l7j8b04b0jd0z3@marketplace.amazon.com	Peter Collinwood	07790 319683	ABM021	Delivery by Thursday | The Joyous Bouquet by Arabella Bouquets	1	0	1	Expedited	Joe Collinwood	8156 CAPITOLA AVE FAIR OAKS			FAIR OAKS	CA	95628-7602	US		To Sherrie A Very Happy Birthday Lots of Love Pete & Willow xxx From Peter Collinwood	false		
114-7229873-9725057	49315264364130	2020-11-03T18:02:53+00:00	2020-11-03T10:02:53-08:00	2020-11-03T18:32:15+00:00	2020-11-06T07:59:59+00:00	-2	qldlb4lq43nqf0d@marketplace.amazon.com	Brenda Marquis	+1 602-671-6610 ext. 62272	ABM010	Delivery by Wednesday | The Spring Fling Bouquet by Arabella Bouquets with a Free Designer Glass Vase	1	0	1	Expedited	Kathy Hartman	1951 SUNNY CREEK CT			GROVE CITY	OH	43123-8336	US		Happy Birthday!!! Love you very much. From Brenda Marquis	false		
112-7362819-7323404	14464574565458	2020-11-03T18:32:36+00:00	2020-11-03T10:32:36-08:00	2020-11-03T18:35:29+00:00	2020-11-06T07:59:59+00:00	-2	43kpc2j4g7893xp@marketplace.amazon.com	LINDA LEWIS	+1 602-671-6610 ext. 67953	ABM022	Delivery by Wednesday | Purple Extravagance Bouquet by Arabella Bouquets	1	0	1	Expedited	TARYN WATSON	1733 SELBY AVE APT 5			SAINT PAUL	MN	55104-6181	US		Congratulations on your new job!  We are so proud of your hard work.  Love Grandpa & Grandma From LINDA LEWIS	false		
114-0338968-0689852	63265657220962	2020-11-03T18:19:14+00:00	2020-11-03T10:19:14-08:00	2020-11-03T18:47:21+00:00	2020-11-06T07:59:59+00:00	-2	st996zy1vqchms1@marketplace.amazon.com	Kathy	+1 602-671-6610 ext. 89335	ABM022	Delivery by Wednesday | Purple Extravagance Bouquet by Arabella Bouquets	1	0	1	Expedited	Cheryl VonTress	535 WELCUM LN			JACKSONVILLE	OR	97530-0108	US		I have been out of touch, but you have been in my thoughts daily. I was out of town then so busy with buying this new house, and I wanted to let you know how much i love you and am so sorry about Fred. From I love you! Kathy	false		
111-8428561-8356246	61064101684482	2020-11-03T18:18:50+00:00	2020-11-03T10:18:50-08:00	2020-11-03T18:48:02+00:00	2020-11-06T07:59:59+00:00	-2	87ltbt6gxykcrhm@marketplace.amazon.com	Eric Herrmann	+1 480-618-5344 ext. 77620	ABM022	Delivery by Wednesday | Purple Extravagance Bouquet by Arabella Bouquets	1	0	1	Expedited	Lin Swanson	REGENCY WENATCHEE	1326 RED APPLE RD		WENATCHEE	WA	98801-3227	US		Wishing you well and a speedy recovery. From Wilson Class of '65 Reunion Committee	false		
113-4611139-0295431	30575773787258	2020-11-03T18:36:25+00:00	2020-11-03T10:36:25-08:00	2020-11-03T19:03:42+00:00	2020-11-06T07:59:59+00:00	-2	fwyzmbyh2crndc3@marketplace.amazon.com	shahinsharifi	+1 619-854-2705 ext. 16685	ABR004	Delivery by Thursday | Arabella Farm Direct Bouquet of 12 Fresh Cut Yellow Roses with a Free Glass Vase	1	0	1	Expedited	Amy Brown Sorensen	30 HAVENWOOD			IRVINE	CA	92614-5435	US			false		
114-5008932-9566603	18956158475074	2020-11-03T18:34:48+00:00	2020-11-03T10:34:48-08:00	2020-11-03T19:03:47+00:00	2020-11-06T07:59:59+00:00	-2	8qs0tcbqn6lpxc8@marketplace.amazon.com	Christian Mangun	+1 929-436-4790 ext. 88229	ABM022	Delivery by Wednesday | Purple Extravagance Bouquet by Arabella Bouquets	1	0	1	Expedited	VERED WEISS	1431 BLAKE ST			BERKELEY	CA	94702-2103	US		A little something to brighten your day considering you've brightened mine every day we've been together.  Love and kisses and hugs and smooshes. From Christian Mangun	false		
111-3006093-4058608	04444997893938	2020-11-03T18:45:18+00:00	2020-11-03T10:45:18-08:00	2020-11-03T19:13:48+00:00	2020-11-06T07:59:59+00:00	-2	k2h0qt9q1rq189y@marketplace.amazon.com	Susanne Warnock	+1 415-851-9136 ext. 46005	ABR0055	Delivery by Thursday | Arabella Farm Direct Bouquet of 12 Stems of Fresh Cut Hot Pink Roses in a Free Designer Glass Vase	1	0	1	Expedited	Nancy Bertoson	27846 N 130TH GLN			PEORIA	AZ	85383-7628	US		Thinking of you and sending our love From Sue and Marylee	false		
113-5287445-5391409	67404927534274	2020-11-03T18:54:51+00:00	2020-11-03T10:54:51-08:00	2020-11-03T19:20:10+00:00	2020-11-06T07:59:59+00:00	-2	zsrbs7ph703f53g@marketplace.amazon.com	Darrel Elmore	+7867022935	ABM022	Delivery by Wednesday | Purple Extravagance Bouquet by Arabella Bouquets	1	0	1	Expedited	Bryan Robert	19730 NE 11TH PL			MIAMI	FL	33179-3519	US		To the Robert family from the basketball brothers: we wish your family comfort during this difficult time. From Darrel Elmore	false		
111-1251347-3398613	34848871206762	2020-11-03T18:57:58+00:00	2020-11-03T10:57:58-08:00	2020-11-03T19:27:38+00:00	2020-11-06T07:59:59+00:00	-2	w65fdfw5nk1vn6q@marketplace.amazon.com	Marta	+1 213-442-1463 ext. 15028	ABB011	Delivery by Thursday | Arabella Bouquets 24 Stems of Fresh Cut Hot Pink Roses in a Free Designer Glass Vase	1	0	1	Expedited	Bob Dembinski	48725 MEDORA CT			SHELBY TOWNSHIP	MI	48315-4276	US		Happy Birthday, Daddy-o!!! From Love, Marta & Scotty	false		
114-9250705-9173865	12745152096138	2020-11-03T19:03:06+00:00	2020-11-03T11:03:06-08:00	2020-11-03T19:30:09+00:00	2020-11-06T07:59:59+00:00	-2	4f6wk2czg0tgnmw@marketplace.amazon.com	Brandy Lane	+1 213-442-1463 ext. 83528	ABM010	Delivery by Wednesday | The Spring Fling Bouquet by Arabella Bouquets with a Free Designer Glass Vase	1	0	1	Expedited	Debbie Shackelford	13005 W 2ND PL APT 109			LAKEWOOD	CO	80228-1315	US			false		
114-5605789-0404227	32970314979618	2020-11-03T19:07:51+00:00	2020-11-03T11:07:51-08:00	2020-11-03T19:36:46+00:00	2020-11-06T07:59:59+00:00	-2	s42nb91n2m8h0ph@marketplace.amazon.com	Arpad Solti	+1 929-436-4790 ext. 18744	ABR0055	Delivery by Thursday | Arabella Farm Direct Bouquet of 12 Stems of Fresh Cut Hot Pink Roses in a Free Designer Glass Vase	1	0	1	Expedited	Yaroslaba Garcia	9687 SPRINGLAKE CIR			ESTERO	FL	33928-6283	US		I would love to talk to you! From Arpi	false		
113-5252473-0936237	63699786808314	2020-11-03T19:22:26+00:00	2020-11-03T11:22:26-08:00	2020-11-03T19:47:11+00:00	2020-11-06T07:59:59+00:00	-2	rs8t8fh79s4hytk@marketplace.amazon.com	Nancy burroway	+2144939192	ABR0022	Delivery by Thursday | Arabella Farm Direct Bouquet of 12 Fresh Cut Pink Roses with a Free Glass Vase	1	0	1	Expedited	Barbara Foster	10607 MEADOW LAKE LN			HOUSTON	TX	77042-2812	US			false		
113-7805565-7954651	23541226303770	2020-11-03T19:24:06+00:00	2020-11-03T11:24:06-08:00	2020-11-03T19:48:18+00:00	2020-11-06T07:59:59+00:00	-2	vy5ycs21s5js2m1@marketplace.amazon.com	Melissa	+1 415-851-9136 ext. 09013	ABR0055	Delivery by Thursday | Arabella Farm Direct Bouquet of 12 Stems of Fresh Cut Hot Pink Roses in a Free Designer Glass Vase	1	0	1	Expedited	Rosanna & Bianca	4386 BROADWAY # 4			NEW YORK	NY	10040-4002	US		Bianca,  I am extremely grateful for everything you have done for me and my mom. Honestly cannot believe that it's been a year! From Melissa Romero	false		
113-7805565-7954651	58017828157106	2020-11-03T19:24:06+00:00	2020-11-03T11:24:06-08:00	2020-11-03T19:48:18+00:00	2020-11-06T07:59:59+00:00	-2	vy5ycs21s5js2m1@marketplace.amazon.com	Melissa	+1 415-851-9136 ext. 09013	ABR0022	Delivery by Thursday | Arabella Farm Direct Bouquet of 12 Fresh Cut Pink Roses with a Free Glass Vase	1	0	1	Expedited	Rosanna & Bianca	4386 BROADWAY # 4			NEW YORK	NY	10040-4002	US		Rosanna, It has been an incredible year and I'm glad that I made the right choice to come to you. Thank you for everything! And thank you for helping my mom as well, means a lot to me. From Melissa Romero	false		
112-1115499-1154602	08825672168698	2020-11-03T19:41:22+00:00	2020-11-03T11:41:22-08:00	2020-11-03T19:50:30+00:00	2020-11-06T07:59:59+00:00	-2	jmc3zjyy78fhb8w@marketplace.amazon.com	Lisa Polacci	+1 480-618-5344 ext. 96488	ABR0022	Delivery by Thursday | Arabella Farm Direct Bouquet of 12 Fresh Cut Pink Roses with a Free Glass Vase	1	0	1	Expedited	Ezelle Frees	5420 CAMPBELL RD			LOMPOC	CA	93436-9651	US		let's just say I may or may not have gotten scammed from about 3 flower places so I am resorting to this. i know they aren't sweet peas, but they're pretty damn close to bonica roses. happy birthday, my love. From paloma polacci	false		
113-9632683-4573003	01550535649906	2020-11-03T19:36:16+00:00	2020-11-03T11:36:16-08:00	2020-11-03T19:57:12+00:00	2020-11-06T07:59:59+00:00	-2	f1rrqp6qpltxnsl@marketplace.amazon.com	Brittney Headd	510290245	ABR0055	Delivery by Thursday | Arabella Farm Direct Bouquet of 12 Stems of Fresh Cut Hot Pink Roses in a Free Designer Glass Vase	1	0	1	Expedited	Larriah Jackson	3425 40TH ST			SACRAMENTO	CA	95817-3605	US		Happy Sweet 16 Larriah , Thank you for being such a bright light in a world with so much darkness. Remember Proverbs 18:16  "A man's gift makes room for him, and brings him before great men"  Love TT Brittney From Brittney Headd	false		
112-1426380-8816253	58603445588778	2020-11-03T19:32:55+00:00	2020-11-03T11:32:55-08:00	2020-11-03T19:59:15+00:00	2020-11-06T07:59:59+00:00	-2	xp4lqzsvxl0gn07@marketplace.amazon.com	lorna currier	+1 213-442-1463 ext. 08916	ABR0022	Delivery by Thursday | Arabella Farm Direct Bouquet of 12 Fresh Cut Pink Roses with a Free Glass Vase	1	0	1	Expedited	Meghna Kamble	21 PASTEUR ST			PROVIDENCE	RI	02908-2914	US		Dear Meghna, Congratulations on your 10 year Anniversary! Kindest Regards, From the S&C Team From Val Videva	false		
113-3180293-8453841	06586545595106	2020-11-03T19:38:23+00:00	2020-11-03T11:38:23-08:00	2020-11-03T20:08:16+00:00	2020-11-06T07:59:59+00:00	-2	5cyd4f5zmpkv8c5@marketplace.amazon.com	Shambhavi Barthwal	+1 213-442-1463 ext. 65678	ABR0022	Delivery by Thursday | Arabella Farm Direct Bouquet of 12 Fresh Cut Pink Roses with a Free Glass Vase	1	0	1	Expedited	Gangeyyo Bhattacharjee	430 8TH AVE N APT 617			SEATTLE	WA	98109-4793	US			false		
113-3294534-8463458	56225581092754	2020-11-03T19:39:54+00:00	2020-11-03T11:39:54-08:00	2020-11-03T20:09:22+00:00	2020-11-06T07:59:59+00:00	-2	mn968y8k90pyq40@marketplace.amazon.com	Marc Troiano	+1 602-671-6610 ext. 79048	ABR0022	Delivery by Thursday | Arabella Farm Direct Bouquet of 12 Fresh Cut Pink Roses with a Free Glass Vase	1	0	1	Expedited	Celeste Chapman	8667 BALBOA DR			STERLING HEIGHTS	MI	48313-4812	US		Happy birthday mom! From Marc Troiano	false		
114-3208029-1237045	25076913420218	2020-11-03T19:44:57+00:00	2020-11-03T11:44:57-08:00	2020-11-03T20:11:42+00:00	2020-11-06T07:59:59+00:00	-2	b8wshs9s97yv6q6@marketplace.amazon.com	Sally Brege	+1 213-442-1463 ext. 42848	ABR0022	Delivery by Thursday | Arabella Farm Direct Bouquet of 12 Fresh Cut Pink Roses with a Free Glass Vase	1	0	1	Expedited	Sally E Brege	834 Andover			DEWITT	MI	48820	US		Dear Aunt Bonnie & Uncle Rod,  Thinking of you with lots of love. From Lee & Sally Brege	false		
111-1563554-3564231	58792816546162	2020-11-03T19:51:01+00:00	2020-11-03T11:51:01-08:00	2020-11-03T20:17:52+00:00	2020-11-06T07:59:59+00:00	-2	8vfybvl1l2qn7cc@marketplace.amazon.com	Sluus	+1 602-671-6610 ext. 42068	ABM022	Delivery by Thursday | Purple Extravagance Bouquet by Arabella Bouquets	1	0	1	Expedited	Sullivan	2668 TREE MEADOW LOOP			APOPKA	FL	32712-6617	US		Happy Birthday Joye! From Love you, Mom and Dad	false		
112-3950257-6549854	11439156616506	2020-11-03T19:55:36+00:00	2020-11-03T11:55:36-08:00	2020-11-03T20:26:09+00:00	2020-11-06T07:59:59+00:00	-2	ztl2kgs911nhl6h@marketplace.amazon.com	Japinder	+1 929-436-4790 ext. 23190	ABM024	Delivery by Friday | The Beauty of Color Bouquet by Arabella Bouquets	1	0	1	Expedited	Valeria Benitez-Vera	145 FRONT ST UNIT 1340			WORCESTER	MA	01608-1459	US			false		
114-9772288-7030615	32078056305410	2020-11-03T20:06:14+00:00	2020-11-03T12:06:14-08:00	2020-11-03T20:33:39+00:00	2020-11-06T07:59:59+00:00	-2	h08ww1g1jyzy2fl@marketplace.amazon.com	Elizabeth A Gillan	+1 480-618-5344 ext. 70226	ABR0022	Delivery by Thursday | Arabella Farm Direct Bouquet of 12 Fresh Cut Pink Roses with a Free Glass Vase	1	0	1	Expedited	Jacquelyn Edmonds	60 S AMMONS ST			LAKEWOOD	CO	80226-1331	US		Happy Birthday Mom! Love, Betsy & the Girls From Elizabeth A Gillan	false		
114-8846514-6942641	44626473261682	2020-11-03T20:12:15+00:00	2020-11-03T12:12:15-08:00	2020-11-03T20:36:24+00:00	2020-11-06T07:59:59+00:00	-2	5b1mcl3slsqh8nj@marketplace.amazon.com	Silvia Xotta	+1 619-854-2705 ext. 58134	ABM022	Delivery by Thursday | Purple Extravagance Bouquet by Arabella Bouquets	1	0	1	Expedited	Emily Raic	2050 JAMIESON AVE APT 1306			ALEXANDRIA	VA	22314-6829	US		Happy Birthday Emily! Have a wonderful day! Love you!❤💐 From Mom XO	false		
112-9101142-3532241	51744107218738	2020-11-03T20:11:10+00:00	2020-11-03T12:11:10-08:00	2020-11-03T20:37:52+00:00	2020-11-06T07:59:59+00:00	-2	4d5skckft4ftjsb@marketplace.amazon.com	Pam Nunzio	+1 480-618-5344 ext. 48397	ABM022	Delivery by Thursday | Purple Extravagance Bouquet by Arabella Bouquets	1	0	1	Expedited	Denise Brown	3730 LAWSON RD			IJAMSVILLE	MD	21754-9116	US		Happy birthday From Pam Nunzio	false		
112-2909929-3941816	39531966451402	2020-11-03T20:15:05+00:00	2020-11-03T12:15:05-08:00	2020-11-03T20:45:09+00:00	2020-11-06T07:59:59+00:00	-2	859w7vb6g3024b1@marketplace.amazon.com	Kristopher Mark De La Hoya	+1 619-854-2705 ext. 69328	ABR0022	Delivery by Thursday | Arabella Farm Direct Bouquet of 12 Fresh Cut Pink Roses with a Free Glass Vase	1	0	1	Expedited	Alma De La Hoya	10453 FAIRHILL DR			SPRING VALLEY	CA	91977-5411	US			false		
112-6304231-1448209	34908364764242	2020-11-03T20:26:44+00:00	2020-11-03T12:26:44-08:00	2020-11-03T20:54:16+00:00	2020-11-06T07:59:59+00:00	-2	z697wrx0kl76wty@marketplace.amazon.com	J Manuel	+1 929-436-4790 ext. 20790	ABR0022	Delivery by Thursday | Arabella Farm Direct Bouquet of 12 Fresh Cut Pink Roses with a Free Glass Vase	1	0	1	Expedited	Maria Manuel	2029 Olympic Blvd.	Apt. 127		Santa Monica	California	90404-3966	US		Happy Birthday lovely Mika!  Wishing you a wonderful day and a much brighter year ahead. Here's to a future with lots of love, laughter, travel, adventure and good health.  Much love from - jenny, mike, milly & evie xxxx From J Manuel	false		
114-3042387-8269815	24153739880194	2020-11-03T20:28:29+00:00	2020-11-03T12:28:29-08:00	2020-11-03T20:55:06+00:00	2020-11-06T07:59:59+00:00	-2	z20wdphchd8z619@marketplace.amazon.com	bahman kaboli	+1 213-442-1463 ext. 31730	ABR012	Delivery by Friday | Arabella Farm Direct Bouquet of 18 Fresh Cut Pink Roses with a Free Glass Vase	1	0	1	Expedited	Parisa Kaboli	6 GRACE CIR			NATICK	MA	01760-5895	US			false		
112-4773705-3695439	53314440439714	2020-11-03T20:27:33+00:00	2020-11-03T12:27:33-08:00	2020-11-03T20:56:35+00:00	2020-11-06T07:59:59+00:00	-2	yvt5fxnxd8y1thw@marketplace.amazon.com	Keri Geier	+1 602-671-6610 ext. 95281	ABB013	Delivery by Friday | Arabella Bouquets | 24 Stems of Fresh Cut White Roses in a Free Designer Glass Vase	1	0	1	Expedited	Lori Turner	1681 SE MANSFIELD ST			PORT ST LUCIE	FL	34952-6545	US		Happy 60th! We love you! Lots of love,  Waylynn + Merritt From Waylynn + Merritt	false		
112-4172317-3469010	51722096318970	2020-11-03T20:34:43+00:00	2020-11-03T12:34:43-08:00	2020-11-03T21:03:42+00:00	2020-11-06T07:59:59+00:00	-2	k46drqyzfnkrs31@marketplace.amazon.com	maureen wallace	+1 415-851-9136 ext. 68306	ABR0022	Delivery by Thursday | Arabella Farm Direct Bouquet of 12 Fresh Cut Pink Roses with a Free Glass Vase	1	0	1	Expedited	Mary Pat Keegan	W437 COUNTY ROAD DW			THERESA	WI	53091-9777	US			false		
112-1622670-5025864	37377834546986	2020-11-03T20:52:55+00:00	2020-11-03T12:52:55-08:00	2020-11-03T21:19:10+00:00	2020-11-06T07:59:59+00:00	-2	l8wbkkyk6c35ddh@marketplace.amazon.com	Tammy Schultz	+1 213-442-1463 ext. 33171	ABM022	Delivery by Thursday | Purple Extravagance Bouquet by Arabella Bouquets	1	0	1	Expedited	Kevin and Jess Cunniff	9765 198TH ST W			LAKEVILLE	MN	55044-4785	US		Kevin, Jess and Boys - We are so sorry for your loss of Kevin's Grandma and Jess's Grandpa.  May the memories you have help you find peace.  Sending hugs to your family. From Stephen & Tammy Lang From Stephen and Tammy Lang & Boys	false		
111-9040536-6432268	23760141267026	2020-11-03T21:11:37+00:00	2020-11-03T13:11:37-08:00	2020-11-03T21:40:01+00:00	2020-11-06T07:59:59+00:00	-2	j9xpzr6bfl59d50@marketplace.amazon.com	carol mcclendon	+1 929-436-4790 ext. 45389	ABM022	Delivery by Thursday | Purple Extravagance Bouquet by Arabella Bouquets	1	0	1	Expedited	Kathy McClendon	6444 MOJAVE ST NW			ALBUQUERQUE	NM	87120-4826	US		So glad you were born! From carol mcclendon	false		
113-9762625-6577806	30984711317386	2020-11-03T21:13:19+00:00	2020-11-03T13:13:19-08:00	2020-11-03T21:43:32+00:00	2020-11-06T07:59:59+00:00	-2	fdczv4ld3v5v0q4@marketplace.amazon.com	Ramon Cabungcal	+1 480-618-5344 ext. 70478	ABM022	Delivery by Thursday | Purple Extravagance Bouquet by Arabella Bouquets	1	0	1	Expedited	Sandra F Agdipa	7595 WELLFLEET BAY AVE	LAS VEGAS NV 89179		LAS VEGAS	NV	89179-1443	US			false		
111-3999018-2043465	15496669729418	2020-11-03T21:16:41+00:00	2020-11-03T13:16:41-08:00	2020-11-03T21:46:16+00:00	2020-11-06T07:59:59+00:00	-2	z9899hb47s2g4xy@marketplace.amazon.com	Angela Coriale	+1 929-436-4790 ext. 96932	ABM010	Delivery by Thursday | The Spring Fling Bouquet by Arabella Bouquets with a Free Designer Glass Vase	1	0	1	Expedited	Christina Castaño	1710 MORGANS AVE			SAN MARCOS	CA	92078-1045	US		Sorry these are late. Happy birthday!! From Jeremy	false		
111-3999018-2043465	67473259968418	2020-11-03T21:16:41+00:00	2020-11-03T13:16:41-08:00	2020-11-03T21:46:16+00:00	2020-11-06T07:59:59+00:00	-2	z9899hb47s2g4xy@marketplace.amazon.com	Angela Coriale	+1 929-436-4790 ext. 96932	ABM010	Delivery by Thursday | The Spring Fling Bouquet by Arabella Bouquets with a Free Designer Glass Vase	1	0	1	Expedited	Christina Castaño	1710 MORGANS AVE			SAN MARCOS	CA	92078-1045	US		Enjoy your gift! From Angela Coriale	false		
112-3033999-6757046	18225779024658	2020-11-03T21:17:41+00:00	2020-11-03T13:17:41-08:00	2020-11-03T21:48:04+00:00	2020-11-06T07:59:59+00:00	-2	xs9gbwybtxgqpvy@marketplace.amazon.com	Hilda Montoya	+1 929-436-4790 ext. 04675	ABR0033	Delivery by Thursday | Arabella Farm Direct Bouquet of 12 Fresh Cut Orange Roses with a Free Glass Vase	1	0	1	Expedited	Irene Duarte	11816 S 207TH AVE			BUCKEYE	AZ	85326-1904	US			false		
114-4231531-1890622	70122269031922	2020-11-03T21:38:29+00:00	2020-11-03T13:38:29-08:00	2020-11-03T22:08:37+00:00	2020-11-06T07:59:59+00:00	-2	xn30gnjgv2bms0f@marketplace.amazon.com	mike dodson	+1 480-618-5344 ext. 98859	ABR0022	Delivery by Thursday | Arabella Farm Direct Bouquet of 12 Fresh Cut Pink Roses with a Free Glass Vase	1	0	1	Expedited	mike dodson	2543 HOPE DR			CONYERS	GA	30094-3382	US			false		
112-4689724-6680264	36971151685866	2020-11-03T21:45:17+00:00	2020-11-03T13:45:17-08:00	2020-11-03T22:13:13+00:00	2020-11-06T07:59:59+00:00	-2	gmjrh6k5q19pq24@marketplace.amazon.com	Dean S Anthony	+1 929-436-4790 ext. 53624	ABM022	Delivery by Thursday | Purple Extravagance Bouquet by Arabella Bouquets	1	0	1	Expedited	Elen Conniff	20328 IPAVA AVE			LAKEVILLE	MN	55044-4918	US		Happy Birthday!! From Dean S Anthony	false		
114-0638622-8085055	40302710445986	2020-11-03T21:46:35+00:00	2020-11-03T13:46:35-08:00	2020-11-03T22:14:16+00:00	2020-11-06T07:59:59+00:00	-2	8ywzch8wbwd2lyr@marketplace.amazon.com	bruce applebaum	+1 602-671-6610 ext. 28743	ABR0022	Delivery by Thursday | Arabella Farm Direct Bouquet of 12 Fresh Cut Pink Roses with a Free Glass Vase	1	0	1	Expedited	Mary Freeman	1685 DAILY DR			ERIE	CO	80516-7232	US		Get well soon, Mare  Love  Bruce & Alice From bruce applebaum	false		
111-7383616-5251400	65099907724754	2020-11-03T22:06:44+00:00	2020-11-03T14:06:44-08:00	2020-11-03T22:35:43+00:00	2020-11-06T07:59:59+00:00	-2	3k4t2f70ylbwf02@marketplace.amazon.com	william watkins	+1 929-436-4790 ext. 87280	ABM022	Delivery by Thursday | Purple Extravagance Bouquet by Arabella Bouquets	1	0	1	Expedited	Bonnie Witkowski	700 17TH AVE S			NORTH MYRTLE BEACH	SC	29582-4011	US		Happy Birthday Mom! I hope you have a great day! Love, Michelle, Wayne and Jordan From Michelle	false		
113-5501701-9981027	35190507650114	2020-11-03T22:17:03+00:00	2020-11-03T14:17:03-08:00	2020-11-03T22:47:14+00:00	2020-11-06T07:59:59+00:00	-2	ylnshgvg1fk2qbq@marketplace.amazon.com	elaine  buro	+1 929-436-4790 ext. 12875	ABM022	Delivery by Thursday | Purple Extravagance Bouquet by Arabella Bouquets	1	0	1	Expedited	Devon Fenimore Rob Hanratty	471 WELLESLEY AVE			MILL VALLEY	CA	94941-3540	US			false		
114-1984426-1253028	14628460670690	2020-11-03T22:17:14+00:00	2020-11-03T14:17:14-08:00	2020-11-03T22:47:15+00:00	2020-11-06T07:59:59+00:00	-2	9r55d2fwrrpqx53@marketplace.amazon.com	David Rossman	+1 480-618-5344 ext. 93398	ABM026	Delivery by Friday | The Amour Bouquet by Arabella Bouquets	1	0	1	Expedited	Shari Dudley	143 BANWELL LN			MOUNT LAUREL	NJ	08054-3341	US			false		
114-0987523-9697039	29760546164154	2020-11-03T23:30:31+00:00	2020-11-03T15:30:31-08:00	2020-11-03T23:32:44+00:00	2020-11-06T07:59:59+00:00	-2	dkqpnr2t7rrrblj@marketplace.amazon.com	Renee Roberts	+1 602-671-6610 ext. 15812	ABR0022	Delivery by Thursday | Arabella Farm Direct Bouquet of 12 Fresh Cut Pink Roses with a Free Glass Vase	1	0	1	Expedited	Jeanne Molina	1212 SHORE RD			LINWOOD	NJ	08221-2446	US			false		
111-4378092-7098653	50395718343690	2020-11-03T23:14:16+00:00	2020-11-03T15:14:16-08:00	2020-11-03T23:41:34+00:00	2020-11-06T07:59:59+00:00	-2	09zjmvsywzyngb6@marketplace.amazon.com	Jean-Pierre Dodel	+1 213-442-1463 ext. 07104	ABR001	Delivery by Thursday | Arabella Bouquets 12 Stems of Fresh Cut Red Roses in a Free Designer Glass Vase	1	0	1	Expedited	Jean Pierre Dodel	2333 N 58 ST			SEATTLE	WA	98103	US		Feliz aniversario baby!! Miss you and love you as always!! From Jean-Pierre Dodel	false		
114-2162610-0149013	01938196971738	2020-11-03T23:18:49+00:00	2020-11-03T15:18:49-08:00	2020-11-03T23:45:54+00:00	2020-11-06T07:59:59+00:00	-2	bbwp8n2l0nr8b44@marketplace.amazon.com	Annelen Juliani	+1 602-671-6610 ext. 71003	ABR0055	Delivery by Thursday | Arabella Farm Direct Bouquet of 12 Stems of Fresh Cut Hot Pink Roses in a Free Designer Glass Vase	1	0	1	Expedited	Louise Babyac Fay	12995 Township Road 220			Rushylvania	OHIO	43347	US		Dearest Louise, When you see these flowers, be reminded that your Arizona cousin loves you. May you have continued healthy days ahead. Enjoy! From Annelen Juliani	false		
114-1196401-0325030	10200875781290	2020-11-03T23:27:29+00:00	2020-11-03T15:27:29-08:00	2020-11-03T23:54:07+00:00	2020-11-06T07:59:59+00:00	-2	pnqk09szw8kkj4c@marketplace.amazon.com	jessica lindelow	+1 619-854-2705 ext. 55043	ABM022	Delivery by Thursday | Purple Extravagance Bouquet by Arabella Bouquets	1	0	1	Expedited	Kiersten Gallagher	545 RANCHO DEL MAR WAY			NORTH LAS VEGAS	NV	89031-2831	US		I’m so sorry for your loss.  I’m sending lots of love to you and your family.  Please let me know if you need anything. From Rebecca Lindelow	false		
114-6256765-6812221	11853613402178	2020-11-03T23:43:38+00:00	2020-11-03T15:43:38-08:00	2020-11-04T00:13:39+00:00	2020-11-06T07:59:59+00:00	-2	0jy45qgtny7gx4p@marketplace.amazon.com	Joe Lewandowski	+1 602-671-6610 ext. 54824	ABM022	Delivery by Thursday | Purple Extravagance Bouquet by Arabella Bouquets	1	0	1	Expedited	Serenades by Sonata West Orange	720 ROPER RD ATTN LINDA LAVIN	RM 107		WINTER GARDEN	FL	34787-5017	US			false		
113-1945196-5685826	65505077332658	2020-11-04T00:04:29+00:00	2020-11-03T16:04:29-08:00	2020-11-04T00:26:51+00:00	2020-11-06T07:59:59+00:00	-2	3slx8tvc469htc2@marketplace.amazon.com	Stephen Culbert	+1 480-618-5344 ext. 58010	ABB006	Delivery by Friday | Arabella Bouquets | Farm Direct 48 Fresh Cut Red Roses	1	0	1	Expedited	Jennifer Culbert	115 E ROUMFORT RD APT 24			PHILADELPHIA	PA	19119-1656	US			false		
113-0925931-9525043	64291978037970	2020-11-04T00:00:59+00:00	2020-11-03T16:00:59-08:00	2020-11-04T00:29:49+00:00	2020-11-06T07:59:59+00:00	-2	dqm7x51wnz6sxl5@marketplace.amazon.com	Amy	+1 213-442-1463 ext. 23529	ABR0033	Delivery by Thursday | Arabella Farm Direct Bouquet of 12 Fresh Cut Orange Roses with a Free Glass Vase	1	0	1	Expedited	Helen Godby	37632 WCR 37			Eaton	CO	80615	US		We hope you get to feeling better🧡 From Amy & Avalon	false		
111-0653603-8845851	06802099966170	2020-11-04T00:03:25+00:00	2020-11-03T16:03:25-08:00	2020-11-04T00:33:49+00:00	2020-11-06T07:59:59+00:00	-2	tzzlhcrprqrtzwy@marketplace.amazon.com	Patricia A. Henchy	+1 415-851-9136 ext. 53391	ABR0022	Delivery by Thursday | Arabella Farm Direct Bouquet of 12 Fresh Cut Pink Roses with a Free Glass Vase	1	0	1	Expedited	Patricia Henchy	1 Fernwood Court			Alexandria	KY	41001	US			false		
111-7826597-4125039	63032309827962	2020-11-04T00:20:07+00:00	2020-11-03T16:20:07-08:00	2020-11-04T00:47:48+00:00	2020-11-06T07:59:59+00:00	-2	mk9vcxj531tpwp7@marketplace.amazon.com	Kristan Walsh	+1 929-436-4790 ext. 93835	ABM010	Delivery by Thursday | The Spring Fling Bouquet by Arabella Bouquets with a Free Designer Glass Vase	1	0	1	Expedited	Carla Walsh	10 ELMCREST CIR			MELROSE	MA	02176-3401	US		Happy Birthday From Kris and Priscilla	false		
111-3919916-7190626	59146779131794	2020-11-04T00:23:19+00:00	2020-11-03T16:23:19-08:00	2020-11-04T00:49:12+00:00	2020-11-06T07:59:59+00:00	-2	6x0nghxbtrgtvkq@marketplace.amazon.com	Prudy Bair	+1 602-671-6610 ext. 88426	ABR0022	Delivery by Thursday | Arabella Farm Direct Bouquet of 12 Fresh Cut Pink Roses with a Free Glass Vase	1	0	1	Expedited	Robert  & Melba Cote	11330 COUNTRYWAY BLVD APT 318			TAMPA	FL	33626-2685	US		Bob and Melba, Thinking of you and miss you so much! Love, Prudy & Leslie From Prudy	false		
112-1344923-3067419	11221008548762	2020-11-04T00:25:42+00:00	2020-11-03T16:25:42-08:00	2020-11-04T00:56:15+00:00	2020-11-06T07:59:59+00:00	-2	yjwkcb022fmpdv0@marketplace.amazon.com	howard vivian	+1 602-671-6610 ext. 69970	ABR0022	Delivery by Thursday | Arabella Farm Direct Bouquet of 12 Fresh Cut Pink Roses with a Free Glass Vase	1	0	1	Expedited	Rena Vivian	55 McLallan Lane			Manson	Washington	98831	US			false		
111-2650929-1865041	63390620857546	2020-11-04T00:34:35+00:00	2020-11-03T16:34:35-08:00	2020-11-04T01:03:57+00:00	2020-11-06T07:59:59+00:00	-2	bfrjyptsnqfrb2d@marketplace.amazon.com	Doreen Zubia	+1 602-671-6610 ext. 05336	ABR0033	Delivery by Thursday | Arabella Farm Direct Bouquet of 12 Fresh Cut Orange Roses with a Free Glass Vase	1	0	1	Expedited	Stella Reyes	14147 LA RUE ST			SAN FERNANDO	CA	91340-3836	US		Get better! Enjoy your gift! From Doreen & Joey	false		
112-2514249-5321065	64093031485498	2020-11-04T00:32:07+00:00	2020-11-03T16:32:07-08:00	2020-11-04T01:08:31+00:00	2020-11-06T07:59:59+00:00	-2	wpfhwz638pjqkhf@marketplace.amazon.com	Lisa Earnhardt	+1 602-671-6610 ext. 33124	ABR0022	Delivery by Thursday | Arabella Farm Direct Bouquet of 12 Fresh Cut Pink Roses with a Free Glass Vase	1	0	1	Expedited	Amy Hopkins	9245 MARCH RD			AKRON	NY	14001-9007	US		Happy 60th Birthday Amy!!  We love ya!! From Lisa & The RU's	false		
114-2526799-7998628	13577080790546	2020-11-04T00:47:32+00:00	2020-11-03T16:47:32-08:00	2020-11-04T01:16:20+00:00	2020-11-06T07:59:59+00:00	-2	4xffwqpmbhp1ly2@marketplace.amazon.com	Brooke Cummings	+1 480-618-5344 ext. 54566	ABM022	Delivery by Thursday | Purple Extravagance Bouquet by Arabella Bouquets	1	0	1	Expedited	Jan Swope	38850 WYATT CHAPEL RD			HEMPSTEAD	TX	77445-8453	US		Jan, We have been thinking of you and hope these brighten your day. We love you.  Love, Anthony, Brooke, Cory, Coen and Cole From Brooke Cummings	false		
114-3714622-2211464	45519187785338	2020-11-04T00:57:21+00:00	2020-11-03T16:57:21-08:00	2020-11-04T01:26:03+00:00	2020-11-06T07:59:59+00:00	-2	j2bbltg2ck8txxs@marketplace.amazon.com	Susan Tyrrell	+1 929-436-4790 ext. 12696	ABM022	Delivery by Thursday | Purple Extravagance Bouquet by Arabella Bouquets	1	0	1	Expedited	Linda Chlipala	4011 SHELL AVE			DAYTON	OH	45415-1457	US		Happy Anniversary, Mom & Dad! We love you!! From Susan, Chris, Chris, Evan & Brian	false		
113-8128308-1190601	15757135536898	2020-11-02T23:43:12+00:00	2020-11-02T15:43:12-08:00	2020-11-04T01:29:28+00:00	2020-11-06T07:59:59+00:00	-2	s3czyrq29rdylx8@marketplace.amazon.com	Carlos Castro	+1 213-442-1463 ext. 54293	ABR0022	Delivery by Wednesday | Arabella Farm Direct Bouquet of 12 Fresh Cut Pink Roses with a Free Glass Vase	1	0	1	Expedited	Rebecca Young	904 Sam Street			Springtown	texas	76082	US			false		
113-2673374-3246605	40057352985930	2020-11-04T01:04:49+00:00	2020-11-03T17:04:49-08:00	2020-11-04T01:32:03+00:00	2020-11-06T07:59:59+00:00	-2	mr4wxt17khxcx5y@marketplace.amazon.com	Marcia Lyn Burroughs	+1 602-671-6610 ext. 26741	ABM024	Delivery by Friday | The Beauty of Color Bouquet by Arabella Bouquets	1	0	1	Expedited	Ms Stacey Watkins	2015 SHEELER OAKS DR			APOPKA	FL	32703-1568	US		Welcome to your post-Walmart life!!! I hope you enjoy it very much. You deserve it!! Much love, little sister! Marcia From Marcia Lyn Burroughs	false		
113-1018765-5201826	22948288607458	2020-11-04T01:05:18+00:00	2020-11-03T17:05:18-08:00	2020-11-04T01:35:42+00:00	2020-11-06T07:59:59+00:00	-2	m6mkn1mbw2lv4z9@marketplace.amazon.com	Eric Martin	+1 929-436-4790 ext. 48159	ABM024	Delivery by Friday | The Beauty of Color Bouquet by Arabella Bouquets	1	0	1	Expedited	Eric Martin	800 BAY DR APT 21			NICEVILLE	FL	32578-4151	US			false		
111-7811009-3065025	50835731502914	2020-11-04T01:14:24+00:00	2020-11-03T17:14:24-08:00	2020-11-04T01:37:42+00:00	2020-11-06T07:59:59+00:00	-2	448qzx1yng81cs1@marketplace.amazon.com	Quantella Bryant-Holmes	+1 213-442-1463 ext. 34587	ABM020	Delivery by Thursday | The Sunset Bouquet by Arabella Bouquets	1	0	1	Expedited	Mrs. Noreen Lee	326 WINDEMERE RD			NEWPORT NEWS	VA	23602-6100	US		Hello Deacon Noreen!! I'm so excited to finally celebrate you, I have been holding my Birthday surprise inside. Know that I could never forget such special person. I  love you! Enjoy your day!!!!! From Quantella Bryant-Holmes	false		
112-1735284-2437802	22753541536026	2020-11-04T01:09:57+00:00	2020-11-03T17:09:57-08:00	2020-11-04T01:39:02+00:00	2020-11-06T07:59:59+00:00	-2	bqfqd0kxxy4d8sd@marketplace.amazon.com	Melissa K White	+1 480-618-5344 ext. 51655	ABM022	Delivery by Thursday | Purple Extravagance Bouquet by Arabella Bouquets	1	0	1	Expedited	Judy Brown	156 CALLE NOGALES			WALNUT CREEK	CA	94597-2105	US		Hugs and meows for a speedy recovery! From Love Melissa & Clancy McGee	false		
113-0307093-1431467	31647049915242	2020-11-04T01:20:23+00:00	2020-11-03T17:20:23-08:00	2020-11-04T01:49:08+00:00	2020-11-06T07:59:59+00:00	-2	kl1hvvtqttmtxqk@marketplace.amazon.com	krista slye	+1 602-671-6610 ext. 92087	ABM010	Delivery by Thursday | The Spring Fling Bouquet by Arabella Bouquets with a Free Designer Glass Vase	1	0	1	Expedited	Ebony Williams	7020 SOUTHMOOR ST UNIT 2206			HANOVER	MD	21076-2148	US		Just a bouquet to brighten your day and remind you that you are loved! From Krista & Stacie	false		
114-0690499-5239412	15038347250410	2020-11-04T01:25:42+00:00	2020-11-03T17:25:42-08:00	2020-11-04T01:51:01+00:00	2020-11-06T07:59:59+00:00	-2	xcqy6jlrsxshyv9@marketplace.amazon.com	Zelma Branch	+1 602-671-6610 ext. 84603	ABR001	Delivery by Thursday | Arabella Bouquets 12 Stems of Fresh Cut Red Roses in a Free Designer Glass Vase	1	0	1	Expedited	Danielle Kingham	2710 HIDDEN LANDING DR			PEARLAND	TX	77584-8787	US		Hi Danielle, My prayer for you is a full and quick recovery. From Zelma Branch	false		
111-7699729-5199434	37985449389490	2020-11-04T01:23:25+00:00	2020-11-03T17:23:25-08:00	2020-11-04T01:53:01+00:00	2020-11-06T07:59:59+00:00	-2	jxmqd6y6l48k18t@marketplace.amazon.com	Monique Morales-Mason	+1 602-671-6610 ext. 36963	ABM010	Delivery by Thursday | The Spring Fling Bouquet by Arabella Bouquets with a Free Designer Glass Vase	1	0	1	Expedited	Margaret Morales	2 CARLE ST APT 21			WATERVILLE	ME	04901-5172	US			false		
114-9929346-2658609	02588194667234	2020-11-04T01:31:16+00:00	2020-11-03T17:31:16-08:00	2020-11-04T01:54:55+00:00	2020-11-06T07:59:59+00:00	-2	v2pbd2b7tdppjvh@marketplace.amazon.com	andrew valanda	+1 213-442-1463 ext. 35910	ABR001	Delivery by Thursday | Arabella Bouquets 12 Stems of Fresh Cut Red Roses in a Free Designer Glass Vase	1	0	1	Expedited	Elvira Velez	56 PROVIDENCE FORGE RD			ROYERSFORD	PA	19468-2932	US		I know I’m not the best with words. this is Because Every time you smile at me I feel like I’m in heaven. I hope this lets you know how Special and Amazing you really are. From andrew valanda	false		
114-9929346-2658609	41301536974922	2020-11-04T01:31:16+00:00	2020-11-03T17:31:16-08:00	2020-11-04T01:54:55+00:00	2020-11-06T07:59:59+00:00	-2	v2pbd2b7tdppjvh@marketplace.amazon.com	andrew valanda	+1 213-442-1463 ext. 35910	ABR001	Delivery by Thursday | Arabella Bouquets 12 Stems of Fresh Cut Red Roses in a Free Designer Glass Vase	4	0	4	Expedited	Elvira Velez	56 PROVIDENCE FORGE RD			ROYERSFORD	PA	19468-2932	US		Enjoy your gift! From andrew valanda	false		
111-1732307-8873026	39625560617914	2020-11-04T01:50:38+00:00	2020-11-03T17:50:38-08:00	2020-11-04T02:20:55+00:00	2020-11-06T07:59:59+00:00	-2	yhh6k7n3zqmx3xf@marketplace.amazon.com	Roxanne De Vries	+1 929-436-4790 ext. 52830	ABR0022	Delivery by Thursday | Arabella Farm Direct Bouquet of 12 Fresh Cut Pink Roses with a Free Glass Vase	1	0	1	Expedited	Joyce Baum	483 LAKE OF THE WOODS DR			VENICE	FL	34293-7218	US			false		
111-9146072-7892227	32069178058994	2020-11-04T02:26:44+00:00	2020-11-03T18:26:44-08:00	2020-11-04T02:31:24+00:00	2020-11-06T07:59:59+00:00	-2	g29zb6rmcj7zsyl@marketplace.amazon.com	Joanne ambrosino	+1 213-442-1463 ext. 56783	ABR0022	Delivery by Thursday | Arabella Farm Direct Bouquet of 12 Fresh Cut Pink Roses with a Free Glass Vase	1	0	1	Expedited	Connie Kenney	3851 E OLIVE AVE			GILBERT	AZ	85234-3205	US		Dear Connie - Happy 80th Birthday! I'm so happy we've reconnected and can share treasured childhood memories!!  Hope you're feeling better every day! You'll always be Chickie to me! xox From Much love,  JoAnne xox	false		
114-8375562-8605838	67678609925106	2020-11-04T02:08:16+00:00	2020-11-03T18:08:16-08:00	2020-11-04T02:37:08+00:00	2020-11-06T07:59:59+00:00	-2	j41gkhhxd05c3mn@marketplace.amazon.com	Jill Reese	+1 602-671-6610 ext. 16136	ABR0022	Delivery by Thursday | Arabella Farm Direct Bouquet of 12 Fresh Cut Pink Roses with a Free Glass Vase	1	0	1	Expedited	Joan Leugers	2462 QUEEN MARY LN			HAMILTON	OH	45013-4263	US		I'd rather send you flowers while you are alive. I'm sorry about Aunt Helen. I love you mom. From Jill Reese	false		
113-5178784-5286632	68796828289274	2020-11-04T02:13:21+00:00	2020-11-03T18:13:21-08:00	2020-11-04T02:42:45+00:00	2020-11-06T07:59:59+00:00	-2	wrkblbdgy57x51h@marketplace.amazon.com	David A Parandoosh	+1 619-854-2705 ext. 62312	ABR0066	Delivery by Thursday | Arabella Bouquets 12 Stems of Fresh Cut White Roses in a Free Designer Glass Vase	1	0	1	Expedited	Jacques Drazsnzak	1430 NARROW GAUGE WAY			ARROYO GRANDE	CA	93420-6921	US			false		
114-2501657-4857001	44873177506794	2020-11-04T02:55:47+00:00	2020-11-03T18:55:47-08:00	2020-11-04T03:17:53+00:00	2020-11-06T07:59:59+00:00	-2	jf8mpmnwdqm7n09@marketplace.amazon.com	Elaine Guglielmo	+1 929-436-4790 ext. 69517	ABB013	Delivery by Friday | Arabella Bouquets | 24 Stems of Fresh Cut White Roses in a Free Designer Glass Vase	1	0	1	Expedited	Anthony Cappa and Greg Baker	1403 MILLSTONE RD			SAG HARBOR	NY	11963-2209	US		Dear Anthony and Greg,  I was so happy to hear your special news.   I wish you all the best as you start this next part of your lives together.  My love to you both.  To the time when we can be together to REALLY celebrate!! From Elaine Guglielmo	false		
114-0327287-3848201	33836410269386	2020-11-04T03:26:27+00:00	2020-11-03T19:26:27-08:00	2020-11-04T03:55:31+00:00	2020-11-06T07:59:59+00:00	-2	j9hq7qmdkr39j86@marketplace.amazon.com	Maharukh Kravich	+1 480-618-5344 ext. 64566	ABR0022	Delivery by Thursday | Arabella Farm Direct Bouquet of 12 Fresh Cut Pink Roses with a Free Glass Vase	1	0	1	Expedited	Yasmin Kotval	220 CHATHAM TER			DANVILLE	CA	94506-6242	US		Happy Birthday Yasmin, Thinking of you! Maharukh	false		
114-5418452-4569867	12742731724858	2020-11-04T03:36:06+00:00	2020-11-03T19:36:06-08:00	2020-11-04T04:04:55+00:00	2020-11-06T07:59:59+00:00	-2	t6c09dqljpjnx9j@marketplace.amazon.com	stacy l cummings	+1 602-671-6610 ext. 22194	ABR0033	Delivery by Thursday | Arabella Farm Direct Bouquet of 12 Fresh Cut Orange Roses with a Free Glass Vase	1	0	1	Expedited	Mildred Pitts	413 SANDRA JEAN ST			NACOGDOCHES	TX	75964-6773	US		Happy Birthday Millie With our love, From Debbie and Stacy	false		
111-4634452-8135438	14230490279210	2020-11-04T03:40:38+00:00	2020-11-03T19:40:38-08:00	2020-11-04T04:10:37+00:00	2020-11-06T07:59:59+00:00	-2	gqlv55byqzbr59f@marketplace.amazon.com	melody villa	+1 213-442-1463 ext. 76076	ABR004	Delivery by Thursday | Arabella Farm Direct Bouquet of 12 Fresh Cut Yellow Roses with a Free Glass Vase	1	0	1	Expedited	Aunt Betty Milam	17143 133RD AVE NE APT 230			WOODINVILLE	WA	98072-3569	US			false		
113-4029201-8048244	00974403365170	2020-11-04T04:04:47+00:00	2020-11-03T20:04:47-08:00	2020-11-04T04:29:27+00:00	2020-11-06T07:59:59+00:00	-2	q2h8gdpmvzbqrw1@marketplace.amazon.com	Eileen	+1 602-671-6610 ext. 66011	ABM022	Delivery by Thursday | Purple Extravagance Bouquet by Arabella Bouquets	1	0	1	Expedited	Jennie Barrett	19230 FOREST PARK DR NE APT C210			LAKE FOREST PARK	WA	98155-2462	US		Happy Birthday From the McAlorums	false		
111-0309439-9775477	43628371573226	2020-11-04T04:05:22+00:00	2020-11-03T20:05:22-08:00	2020-11-04T04:34:19+00:00	2020-11-06T07:59:59+00:00	-2	r44ms6m6959fgtk@marketplace.amazon.com	Joseph A. Arlotti	+1 929-436-4790 ext. 13113	ABM022	Delivery by Thursday | Purple Extravagance Bouquet by Arabella Bouquets	1	0	1	Expedited	Irma Orozco	14228 DITTMAR DR			WHITTIER	CA	90605-2448	US		Hope you feel better soon. From Lucy and Joseph	false		
114-5460618-4633816	22720565018298	2020-11-04T04:28:01+00:00	2020-11-03T20:28:01-08:00	2020-11-04T04:53:13+00:00	2020-11-06T07:59:59+00:00	-2	spfslf2p9xp8vmc@marketplace.amazon.com	Neila Barnett	+1 213-442-1463 ext. 00107	ABM031	Delivery by Friday | The Harvest Moon Bouquet by Arabella Bouquets	1	0	1	Expedited	Suzi Davis	4431 E DRY CREEK RD			PHOENIX	AZ	85044-6028	US			false		
112-0470239-9193843	33725109897850	2020-11-04T04:27:27+00:00	2020-11-03T20:27:27-08:00	2020-11-04T04:56:12+00:00	2020-11-06T07:59:59+00:00	-2	0fqlrsfj47myblm@marketplace.amazon.com	Rosy Padilla	+1 929-436-4790 ext. 67408	ABR0022	Delivery by Thursday | Arabella Farm Direct Bouquet of 12 Fresh Cut Pink Roses with a Free Glass Vase	1	0	1	Expedited	Chachita Sanchez	1569 W SUMMIT ST			LONG BEACH	CA	90810-4038	US		Prima hermosa! Feliz Cumpleaños!  Que Dios te bendiga siempre con buena salud y muchos momentos de risas.  Te mandamos mucho abrazos! From Rosy Padilla y Familia	false		
114-3730882-6729825	48211208041362	2020-11-04T04:34:11+00:00	2020-11-03T20:34:11-08:00	2020-11-04T04:58:39+00:00	2020-11-06T07:59:59+00:00	-2	bm7c8h5vtqmby98@marketplace.amazon.com	Natalie Nowak	+1 929-436-4790 ext. 24274	ABM022	Delivery by Thursday | Purple Extravagance Bouquet by Arabella Bouquets	1	0	1	Expedited	Dorothy Nowak	15262 HAMLIN AVE			MIDLOTHIAN	IL	60445-3731	US		Aunt Dorothy, I hope you know that you are in our hearts and our thoughts. I pray that you are healthy and well but when I think of you, I am reminded of the strength and resilience you possess. We love you very much! From Natalie and Zach	false		
113-8041240-2512230	51405627082450	2020-11-04T05:16:14+00:00	2020-11-03T21:16:14-08:00	2020-11-04T05:40:43+00:00	2020-11-06T07:59:59+00:00	-2	6gh49z37qcq62kr@marketplace.amazon.com	Kathlynn D Barnett	+1 929-436-4790 ext. 21252	ABM025	Delivery by Friday | The Fell for You Bouquet by Arabella Bouquets	1	0	1	Expedited	mom kuehn	144 HOLM RD SPC 114			WATSONVILLE	CA	95076-2431	US			false		
114-9749780-0993028	64263222399202	2020-11-04T05:48:02+00:00	2020-11-03T21:48:02-08:00	2020-11-04T06:09:01+00:00	2020-11-06T07:59:59+00:00	-2	80920vqhf2rlkdr@marketplace.amazon.com	Dr. Bill Davis	+1 480-618-5344 ext. 25951	ABR004	Delivery by Thursday | Arabella Farm Direct Bouquet of 12 Fresh Cut Yellow Roses with a Free Glass Vase	1	0	1	Expedited	Tami Wilberding	3882 BLUEGRASS CT			LAKE HAVASU CITY	AZ	86406-4300	US		Tami, I am so thankful for all you did to take care of Gramms, I know she appreciated all you did for her. I’m sure you miss her and I am praying for you to feel God’s comfort and peace right now. I love you, we all love you. From Julie Davis	false		
113-9662722-3549031	03953902888266	2020-11-04T05:48:51+00:00	2020-11-03T21:48:51-08:00	2020-11-04T06:19:01+00:00	2020-11-06T07:59:59+00:00	-2	t81d27ntmd1jmly@marketplace.amazon.com	Meredith LaMela	+1 929-436-4790 ext. 62513	ABM022	Delivery by Thursday | Purple Extravagance Bouquet by Arabella Bouquets	1	0	1	Expedited	Erica LaMela	1105 FORT CLARKE BLVD APT 722			GAINESVILLE	FL	32606-7130	US			false		
113-8664559-9593861	04784740054002	2020-11-04T06:04:27+00:00	2020-11-03T22:04:27-08:00	2020-11-04T06:30:50+00:00	2020-11-06T07:59:59+00:00	-2	g00kn3ypchh4m0t@marketplace.amazon.com	Sergio FLorez	+1 480-618-5344 ext. 71992	ABM010	Delivery by Thursday | The Spring Fling Bouquet by Arabella Bouquets with a Free Designer Glass Vase	1	0	1	Expedited	Laura Florez	160 BIRDSALL ST APT 1440			HOUSTON	TX	77007-8193	US			false		
114-5746319-4382631	41889713830066	2020-11-04T06:07:01+00:00	2020-11-03T22:07:01-08:00	2020-11-04T06:36:40+00:00	2020-11-06T07:59:59+00:00	-2	hy6fpg2n2gq3bs1@marketplace.amazon.com	Deborah Johnson	+1 602-671-6610 ext. 34437	ABB007	Delivery by Friday | Arabella Farm Direct Bouquet of 24 Fresh Cut Pink Roses with a Free Glass Vase	1	0	1	Expedited	Alieta Mataele	106 LA LOMA LN			BURLINGAME	CA	94010-5918	US		Dear Auntie Alieta, Ditto everything my mom said in her long text.  :). We love you very much, God bless you and Eddy always, and know that we are here for you as much as you need. From Love, Debbie and Albert	false		
113-6339918-4317835	52389288026338	2020-11-04T08:29:11+00:00	2020-11-04T00:29:11-08:00	2020-11-04T08:59:46+00:00	2020-11-07T07:59:59+00:00	-3	nwrcgdm7w6y78gb@marketplace.amazon.com	MALFORD MILLIGAN	+1 929-436-4790 ext. 99870	ABR0066	Delivery by Thursday | Arabella Bouquets 12 Stems of Fresh Cut White Roses in a Free Designer Glass Vase	1	0	1	Expedited	MALFORD MILLIGAN	600 8TH ST STE 120			WICHITA FALLS	TX	76301-6550	US			false		
111-2876511-9494652	44762300023186	2020-11-04T08:34:03+00:00	2020-11-04T00:34:03-08:00	2020-11-04T09:03:20+00:00	2020-11-07T07:59:59+00:00	-3	3qhhs1nj6xbyplf@marketplace.amazon.com	Yasmeen	+1 929-436-4790 ext. 80376	ABR0022	Delivery by Thursday | Arabella Farm Direct Bouquet of 12 Fresh Cut Pink Roses with a Free Glass Vase	1	0	1	Expedited	Layla Gabertai	47 CIPRESSO			IRVINE	CA	92618-0105	US			false		
112-4173080-2417053	35090174357970	2020-11-04T10:35:27+00:00	2020-11-04T02:35:27-08:00	2020-11-04T11:06:04+00:00	2020-11-07T07:59:59+00:00	-3	s4kvlkjz5dr79qy@marketplace.amazon.com	Eileen Law	+1 929-436-4790 ext. 43394	ABR0022	Delivery by Thursday | Arabella Farm Direct Bouquet of 12 Fresh Cut Pink Roses with a Free Glass Vase	1	0	1	Expedited	Eileen Resto	807 S 9TH AVE			SCRANTON	PA	18504-3545	US			false		
114-8385068-0947426	05977647567106	2020-11-04T11:42:21+00:00	2020-11-04T03:42:21-08:00	2020-11-04T12:06:30+00:00	2020-11-07T07:59:59+00:00	-3	mfvrqtkygrrf9hg@marketplace.amazon.com	Erica Prescott	+1 602-671-6610 ext. 63636	ABM020	Delivery by Thursday | The Sunset Bouquet by Arabella Bouquets	1	0	1	Expedited	Jacquelyn Schnackel	5466 WINDSOR CT			SOUTH LEBANON	OH	45065-5004	US		Congratulations Baby Sis! We are so proud of all your hard work and cannot wait to hear about all the difference you make for others! Xoxo <3 From Love - Josh & Erica	false		
112-6313342-9470646	28065643793754	2020-11-04T09:45:07+00:00	2020-11-04T01:45:07-08:00	2020-11-04T12:32:23+00:00	2020-11-07T07:59:59+00:00	-3	5ckrxlv95xfyj88@marketplace.amazon.com	Rameshsinh Mohansinh Parmar	+1 213-442-1463 ext. 77405	ABR001	Delivery by Thursday | Arabella Bouquets 12 Stems of Fresh Cut Red Roses in a Free Designer Glass Vase	1	0	1	Expedited	Karishma Patel	4801 S SHIELDS BLVD			OKLAHOMA CITY	OK	73129-3211	US			false		
112-7358115-8123428	65730694238306	2020-11-04T12:05:03+00:00	2020-11-04T04:05:03-08:00	2020-11-04T12:33:15+00:00	2020-11-07T07:59:59+00:00	-3	82tj1qbbpfkxmbg@marketplace.amazon.com	Diana Roverts Tarczali	+1 415-851-9136 ext. 83219	ABM022	Delivery by Thursday | Purple Extravagance Bouquet by Arabella Bouquets	1	0	1	Expedited	Clare Danielewski	THE PRESERVE	14750 HOPE CENTER LOOP RM 2216		FORT MYERS	FL	33912-4700	US		We love you Mom!! xo Diana, Pete, Walt, Darlene, Deb, Enrique, Bill, Donna, and Matt plus all the grandchildren and great grandchild!! From Diana Roverts Tarczali	false		
114-8448217-2176221	38111263750746	2020-11-04T12:30:09+00:00	2020-11-04T04:30:09-08:00	2020-11-04T12:57:19+00:00	2020-11-07T07:59:59+00:00	-3	rd4z3bcjjkfnmqp@marketplace.amazon.com	Casey	+1 480-618-5344 ext. 17277	ABR0022	Delivery by Thursday | Arabella Farm Direct Bouquet of 12 Fresh Cut Pink Roses with a Free Glass Vase	1	0	1	Expedited	Jasmine Lincoln	831 WHITE PINE PASS			TOMAH	WI	54660-3255	US		Happy birthday! I don’t know if you will get these early but I wish I could see you. 😘 Have an amazing day From Casey	false		
113-8144348-3225816	20643932244418	2020-11-04T12:35:36+00:00	2020-11-04T04:35:36-08:00	2020-11-04T13:02:12+00:00	2020-11-07T07:59:59+00:00	-3	3h0f8f2nlzrc7yh@marketplace.amazon.com	David	+1 602-671-6610 ext. 92205	ABM024	Delivery by Friday | The Beauty of Color Bouquet by Arabella Bouquets	1	0	1	Expedited	Tricia Brody	61 KNOLLWOOD DR			RIDGEFIELD	CT	06877-2008	US		We always love you.  Your the best mom ever! From E H J xo	false		
114-7517573-9749800	60379242014354	2020-11-04T12:38:41+00:00	2020-11-04T04:38:41-08:00	2020-11-04T13:08:56+00:00	2020-11-07T07:59:59+00:00	-3	4p2b3bbs087c9w2@marketplace.amazon.com	Louise Maurer	+1 619-854-2705 ext. 26387	ABR004	Delivery by Thursday | Arabella Farm Direct Bouquet of 12 Fresh Cut Yellow Roses with a Free Glass Vase	1	0	1	Expedited	Warren Maurer	173 N. 4th Street			Hayden	Co	81639	US			false		
113-9911289-8277800	12164946475786	2020-11-04T12:50:49+00:00	2020-11-04T04:50:49-08:00	2020-11-04T13:20:40+00:00	2020-11-07T07:59:59+00:00	-3	2rrqpdh5t8vcmd6@marketplace.amazon.com	Elizabeth A Keeney	+1 619-854-2705 ext. 36796	ABR0066	Delivery by Thursday | Arabella Bouquets 12 Stems of Fresh Cut White Roses in a Free Designer Glass Vase	1	0	1	Expedited	Emily Keeney	4706 RICHLAND WOODS CT			ALTON	IL	62002-6965	US			false		
114-2957112-0392244	51261578832466	2020-11-04T13:00:10+00:00	2020-11-04T05:00:10-08:00	2020-11-04T13:27:45+00:00	2020-11-07T07:59:59+00:00	-3	zt6l1mdhmbdh96l@marketplace.amazon.com	Debi Shanks	+1 213-442-1463 ext. 31917	ABR0055	Delivery by Thursday | Arabella Farm Direct Bouquet of 12 Stems of Fresh Cut Hot Pink Roses in a Free Designer Glass Vase	1	0	1	Expedited	Angi Veach	46545 TEN DEUCE WAY	46545 TEN DEUCE WAY		BIG ARM	MT	59910-0117	US		Happy 40th my "baby"! I am so sorry you are not having the BIG celebration you deserve. Love you SO much. See you soon. From Debi Shanks	false		
111-7320265-6621021	57764253020506	2020-11-04T13:01:36+00:00	2020-11-04T05:01:36-08:00	2020-11-04T13:28:58+00:00	2020-11-07T07:59:59+00:00	-3	48ghh71jkk699gs@marketplace.amazon.com	Linda Augins	+1 415-851-9136 ext. 37607	ABR0055	Delivery by Thursday | Arabella Farm Direct Bouquet of 12 Stems of Fresh Cut Hot Pink Roses in a Free Designer Glass Vase	1	0	1	Expedited	THE SHAW FAMILY	919 TOLLEYS LN			LYNCHBURG	VA	24502-1528	US		Get well soon. We love and miss you From Linda Augins and Family	false		
111-7142530-2924253	16061212740738	2020-11-04T13:05:34+00:00	2020-11-04T05:05:34-08:00	2020-11-04T13:34:53+00:00	2020-11-07T07:59:59+00:00	-3	6s9507vz5gndkv8@marketplace.amazon.com	Angela Nicole	+1 602-671-6610 ext. 94344	ABR0055	Delivery by Thursday | Arabella Farm Direct Bouquet of 12 Stems of Fresh Cut Hot Pink Roses in a Free Designer Glass Vase	1	0	1	Expedited	Sera Tsioukas	755 BERGER RD			EASTON	PA	18042-9521	US		Happy birthday, Mom! Love Angela, Ryan, Noah, & Dolce From Angela & Ryan	false		
114-8924760-2737039	22592066156202	2020-11-04T13:20:13+00:00	2020-11-04T05:20:13-08:00	2020-11-04T13:49:35+00:00	2020-11-07T07:59:59+00:00	-3	155dbj2yb46blbs@marketplace.amazon.com	Smannix	+1 619-854-2705 ext. 52353	ABM024	Delivery by Friday | The Beauty of Color Bouquet by Arabella Bouquets	1	0	1	Expedited	Dana Grupenhoff	NOXON SCHOOL 300 NOXON AVE			NOXON	MT	59853-9762	US		Enjoy your gift! Happy birthday to the sunshine in my life. From Smannix	false		
112-0581231-5073017	30019633241842	2020-11-04T13:27:10+00:00	2020-11-04T05:27:10-08:00	2020-11-04T13:50:55+00:00	2020-11-07T07:59:59+00:00	-3	vdb80d01bhpq6f2@marketplace.amazon.com	Timothy H Green	+1 213-442-1463 ext. 39037	ABR0022	Delivery by Thursday | Arabella Farm Direct Bouquet of 12 Fresh Cut Pink Roses with a Free Glass Vase	1	0	1	Expedited	Maureen	THORNTON 5170 W DESERT CHICORY PL			MARANA	AZ	85658-4045	US		Happy Birthday my dear friend! Hope your day is amazing. Hugs and much love, Mrs. Green From Patricia Green	false		
112-4434386-5701027	32676006357106	2020-11-04T13:27:44+00:00	2020-11-04T05:27:44-08:00	2020-11-04T13:58:12+00:00	2020-11-07T07:59:59+00:00	-3	9k32xqp5z328v9r@marketplace.amazon.com	John Littleford	+1 602-671-6610 ext. 87347	ABM022	Delivery by Thursday | Purple Extravagance Bouquet by Arabella Bouquets	1	0	1	Expedited	Martha Miller	202 W ROSEMARY LN			FALLS CHURCH	VA	22046-3842	US			false		
114-6613649-8105008	67225483879554	2020-11-04T13:53:38+00:00	2020-11-04T05:53:38-08:00	2020-11-04T14:22:15+00:00	2020-11-07T07:59:59+00:00	-3	93zsrh7zy9w3yx2@marketplace.amazon.com	Laura Yasso	+1 213-442-1463 ext. 54400	ABR0055	Delivery by Thursday | Arabella Farm Direct Bouquet of 12 Stems of Fresh Cut Hot Pink Roses in a Free Designer Glass Vase	1	0	1	Expedited	Lindsay Rothstein	11903 THURLOE DR			LUTHERVILLE TIMONIUM	MD	21093-7443	US		Happy Birthday!!! Love you like crazy.  Hope you have a fabulous day! From Laura Yasso	false		
111-3121497-2475432	37085827716242	2020-11-04T14:09:56+00:00	2020-11-04T06:09:56-08:00	2020-11-04T14:36:27+00:00	2020-11-07T07:59:59+00:00	-3	wld5shbtrbdnlwd@marketplace.amazon.com	Teri	+1 480-618-5344 ext. 89962	ABM010	Delivery by Thursday | The Spring Fling Bouquet by Arabella Bouquets with a Free Designer Glass Vase	1	0	1	Expedited	Clay Family	9100 MEADOW PARK LN			FRANKSVILLE	WI	53126-9486	US		Just a little something to brighten your day.   Jett is in doggie heaven, there are no words that can express our sympathy for your loss. Your in our thoughts. From Teri & Scott Miller	false		
114-6023784-8947455	23532776365818	2020-11-04T14:18:51+00:00	2020-11-04T06:18:51-08:00	2020-11-04T14:44:37+00:00	2020-11-07T07:59:59+00:00	-3	5g5gszb0psv4c6z@marketplace.amazon.com	Mariel Hernandez	+1 480-618-5344 ext. 86528	ABR0022	Delivery by Thursday | Arabella Farm Direct Bouquet of 12 Fresh Cut Pink Roses with a Free Glass Vase	1	0	1	Expedited	Sharon Gardner	30723 DAWSON ST CITY MI 48135			GARDEN CITY	MI	48135-1920	US		Happy birthday! We are thankful to have you in our lives and for everything you do for us. Love you- From Brad, Mariel, Brady and Ariana Cauchi	false		
114-9804699-8398659	45373718006458	2020-11-04T14:23:57+00:00	2020-11-04T06:23:57-08:00	2020-11-04T14:52:34+00:00	2020-11-07T07:59:59+00:00	-3	1hrtkyr0jmxg4v8@marketplace.amazon.com	carrie.schoen@gmail.com	+1 213-442-1463 ext. 66533	ABM024	Delivery by Friday | The Beauty of Color Bouquet by Arabella Bouquets	1	0	1	Expedited	M. Margaret Roberds	15300 E 43RD ST S			INDEPENDENCE	MO	64055-5033	US			false		
113-6050763-1441017	26233281752122	2020-11-04T14:54:16+00:00	2020-11-04T06:54:16-08:00	2020-11-04T14:55:11+00:00	2020-11-07T07:59:59+00:00	-3	mghsczjtvkkl6q7@marketplace.amazon.com	Stacy Dexter	+1 929-436-4790 ext. 48329	ABM020	Delivery by Thursday | The Sunset Bouquet by Arabella Bouquets	1	0	1	Expedited	Janice Blackwell	412 TIM HILL RD			MARATHON	NY	13803-3501	US		Janice,   We are thinking of you and praying for you during this time of loss. Much love from SC and China,  Paulette Horne and Patricia Dexter (Oaks) From Stacy Dexter	false		
113-2135850-8666621	48227514464026	2020-11-04T14:27:59+00:00	2020-11-04T06:27:59-08:00	2020-11-04T14:57:09+00:00	2020-11-07T07:59:59+00:00	-3	kkf58lw882jp9c7@marketplace.amazon.com	angela	+1 602-671-6610 ext. 68468	ABM022	Delivery by Thursday | Purple Extravagance Bouquet by Arabella Bouquets	1	0	1	Expedited	Mr & Mrs Huber	225 LAKE WINYAH RD			ALPENA	MI	49707-8119	US		We are sorry to hear about your loss.  Our thoughts are with you during this time.    Angela, Jackie & Jim - Advent Home Medical From angela	false		
114-5008323-7716202	39140469602370	2020-11-04T14:31:45+00:00	2020-11-04T06:31:45-08:00	2020-11-04T15:01:56+00:00	2020-11-07T07:59:59+00:00	-3	wzltz54m96khskb@marketplace.amazon.com	lexie	+1 480-618-5344 ext. 40828	ABR014	Arabella Bouquets 18 Stems of Fresh Cut White Roses in a Free Designer Glass Vase	1	0	1	Standard	Ruthann wagner	810 MIDDLE ST			KNOXVILLE	IA	50138-1237	US			false		
113-5011467-6556230	25338216291786	2020-11-04T14:37:23+00:00	2020-11-04T06:37:23-08:00	2020-11-04T15:04:16+00:00	2020-11-07T07:59:59+00:00	-3	5z22jcr4jt4bl4w@marketplace.amazon.com	Paula McGivern	+1 213-442-1463 ext. 82558	ABM010	Delivery by Thursday | The Spring Fling Bouquet by Arabella Bouquets with a Free Designer Glass Vase	1	0	1	Expedited	Mason’s and Sons Funeral Home	1001 LINCOLN AVE			EVANSVILLE	IN	47714-1026	US		We hope this finds you surrounded by love, peace and compassion. From Will and Kelley	false		
113-2084866-3857055	15163887830818	2020-11-04T14:45:45+00:00	2020-11-04T06:45:45-08:00	2020-11-04T15:14:08+00:00	2020-11-07T07:59:59+00:00	-3	sgwv21qv0m12tx7@marketplace.amazon.com	Li-Ta Lien	+1 602-671-6610 ext. 33771	ABM0044	Delivery by Friday | Arabella Farm Direct Bouquet of Fresh Cut Blue Hydrangea with a Free Glass Vase	1	0	1	Expedited	Isabel Lien	873 NORTHWOOD BLVD			INCLINE VILLAGE	NV	89451-8213	US		Happy Birthday<3 Enjoy your gift! From Chia-Ling Lien	false		
113-1457590-9777038	29231521495194	2020-11-04T14:52:42+00:00	2020-11-04T06:52:42-08:00	2020-11-04T15:20:52+00:00	2020-11-07T07:59:59+00:00	-3	sgwv21qv0m12tx7@marketplace.amazon.com	Li-Ta Lien	+1 480-618-5344 ext. 44785	ABM0044	Delivery by Friday | Arabella Farm Direct Bouquet of Fresh Cut Blue Hydrangea with a Free Glass Vase	1	0	1	Expedited	Irene Lien	1101 DICKORY AVE APT A304			RIVER RIDGE	LA	70123-2197	US		Happy Birthday <3 Enjoy your gift! From Chia-Ling Lien	false		
111-7064754-2373057	30904484290434	2020-11-04T14:59:31+00:00	2020-11-04T06:59:31-08:00	2020-11-04T15:28:54+00:00	2020-11-07T07:59:59+00:00	-3	vj7y37psvnnbd90@marketplace.amazon.com	Diane M. Dickinson	+1 213-442-1463 ext. 22627	ABM021	Delivery by Friday | The Joyous Bouquet by Arabella Bouquets	1	0	1	Expedited	Kristen McGrory	2439 P ST NW			WASHINGTON	DC	20007-3021	US		Sending love and best wishes for your special birthday!!! From Mom	false		
111-4583509-9646636	40814484031218	2020-11-04T15:00:55+00:00	2020-11-04T07:00:55-08:00	2020-11-04T15:30:36+00:00	2020-11-07T07:59:59+00:00	-3	vj7y37psvnnbd90@marketplace.amazon.com	Diane M. Dickinson	+1 480-618-5344 ext. 39549	ABM021	Delivery by Friday | The Joyous Bouquet by Arabella Bouquets	1	0	1	Expedited	Holly McGrory	6405 AZALEA GARDEN DR			DUNWOODY	GA	30338-7935	US		Sending love and best wishes for your special birthday! From Mom	false		
112-5818706-4618607	03954919537042	2020-11-04T15:00:50+00:00	2020-11-04T07:00:50-08:00	2020-11-04T15:36:34+00:00	2020-11-07T07:59:59+00:00	-3	8t5nl1895zftyff@marketplace.amazon.com	Anna Roemer	+1 619-854-2705 ext. 35983	ABM010	Delivery by Thursday | The Spring Fling Bouquet by Arabella Bouquets with a Free Designer Glass Vase	1	0	1	Expedited	Ian Knapp	616 JOHN TYLER CIR APT 103			HARRISONBURG	VA	22801-2591	US		Boys sometimes like flowers too. I miss you lots & lots & love you even more. I hope these add a little color to your day & make you think of me. Can’t wait to marry you & be able to cuddle you all night long. Lots of love. From your Bun Bun	false		
111-2911045-8007405	27435189421010	2020-11-04T15:11:06+00:00	2020-11-04T07:11:06-08:00	2020-11-04T15:39:01+00:00	2020-11-07T07:59:59+00:00	-3	sj8c68bg7n3n901@marketplace.amazon.com	Susan Schultz	+1 619-854-2705 ext. 04584	ABR0033	Delivery by Thursday | Arabella Farm Direct Bouquet of 12 Fresh Cut Orange Roses with a Free Glass Vase	1	0	1	Expedited	Peggy Devine	227 GREENBRIAR LN			HAVERTOWN	PA	19083-2847	US		Peggy, Thinking of you and wishing you all good and happy things in your life. xo, Susan From Susan Schultz	false		
112-6961344-2970608	62306958457322	2020-11-04T15:16:05+00:00	2020-11-04T07:16:05-08:00	2020-11-04T15:46:40+00:00	2020-11-07T07:59:59+00:00	-3	4lmsygbvfm7253z@marketplace.amazon.com	richard nafzger	24050544465	ABR0022	Delivery by Thursday | Arabella Farm Direct Bouquet of 12 Fresh Cut Pink Roses with a Free Glass Vase	1	0	1	Expedited	Richard Nafzger	15428 BAILEYS LN			SILVER SPRING	MD	20906-1341	US			false		
113-7552919-5307419	14173003608826	2020-11-04T15:17:50+00:00	2020-11-04T07:17:50-08:00	2020-11-04T15:48:18+00:00	2020-11-07T07:59:59+00:00	-3	n4p5dmmghx9x3xp@marketplace.amazon.com	nick mueller	+1 929-436-4790 ext. 87168	ABR0022	Delivery by Thursday | Arabella Farm Direct Bouquet of 12 Fresh Cut Pink Roses with a Free Glass Vase	1	0	1	Expedited	Lillian Yamanaka	9441 GOLD MOUNTAIN DR			LAS VEGAS	NV	89134-7801	US			false		
114-9150171-0818659	36701430269978	2020-11-04T15:38:54+00:00	2020-11-04T07:38:54-08:00	2020-11-04T15:51:08+00:00	2020-11-07T07:59:59+00:00	-3	90xkr64xwf0xmpn@marketplace.amazon.com	Christy L. Henley	+1 213-442-1463 ext. 32788	ABM020	Delivery by Thursday | The Sunset Bouquet by Arabella Bouquets	1	0	1	Expedited	Cynthia Lasher c/o Mark Nelson	31423 COAST HWY APT 71			LAGUNA BEACH	CA	92651-6997	US		We hope these brighten your day!  We Love you!! From Christy, Drew, Ward & Lana From Christy, Drew, Ward & Lana	false		
113-4341377-3202644	07626919343826	2020-11-04T15:51:38+00:00	2020-11-04T07:51:38-08:00	2020-11-04T15:52:28+00:00	2020-11-07T07:59:59+00:00	-3	8z6v3b8kj0ggw9q@marketplace.amazon.com	Lauren Armstrong	+1 929-436-4790 ext. 06785	ABR0022	Delivery by Thursday | Arabella Farm Direct Bouquet of 12 Fresh Cut Pink Roses with a Free Glass Vase	1	0	1	Expedited	Jeff Armstrong	4942 N VALLE			TUCSON	AZ	85750-9700	US		I love you! Have a wonderful birthday!!!!!! From Big Sis	false		
114-4977064-7853849	50685349337290	2020-11-04T15:30:20+00:00	2020-11-04T07:30:20-08:00	2020-11-04T15:59:33+00:00	2020-11-07T07:59:59+00:00	-3	y0bsqp57x7cr373@marketplace.amazon.com	Matthew Dempsey	+1 480-618-5344 ext. 37339	ABR0022	Delivery by Thursday | Arabella Farm Direct Bouquet of 12 Fresh Cut Pink Roses with a Free Glass Vase	1	0	1	Expedited	Lauryn Werner	3108 Woodview Ridge Dr	Apt 303		Kansas City	KS	66103	US		We love you!!! Recover quick!! From Anne, Matt, Emma and Ethan	false		
114-3384764-6990626	59837894102834	2020-11-04T15:38:41+00:00	2020-11-04T07:38:41-08:00	2020-11-04T16:07:43+00:00	2020-11-07T07:59:59+00:00	-3	cl1h4jgdg3rmtrg@marketplace.amazon.com	Mary Kate McKenna	+1 602-671-6610 ext. 22835	ABM022	Delivery by Thursday | Purple Extravagance Bouquet by Arabella Bouquets	1	0	1	Expedited	Emily Nelson	225 LOS ANGELES BLVD			SAN ANSELMO	CA	94960-1608	US		Happy Birthday Sweetie! From Love Mom	false		
113-6951064-8623420	25246881747114	2020-11-04T15:47:52+00:00	2020-11-04T07:47:52-08:00	2020-11-04T16:14:26+00:00	2020-11-07T07:59:59+00:00	-3	9b6gxh0cbz3mnps@marketplace.amazon.com	Daniel Tobias	+1 213-442-1463 ext. 93000	ABM024	Delivery by Friday | The Beauty of Color Bouquet by Arabella Bouquets	1	0	1	Expedited	Tiana Rashada	5050 N SHERIDAN RD APT 1112			CHICAGO	IL	60640-3184	US		Welcome to the Jifiti family! From Daniel Tobias	true		
112-4530878-2469843	09198855320434	2020-11-04T15:51:39+00:00	2020-11-04T07:51:39-08:00	2020-11-04T16:20:54+00:00	2020-11-07T07:59:59+00:00	-3	xyd9d4t5zgs9l22@marketplace.amazon.com	Albert Pagitt	+1 602-671-6610 ext. 91065	ABR0022	Delivery by Thursday | Arabella Farm Direct Bouquet of 12 Fresh Cut Pink Roses with a Free Glass Vase	1	0	1	Expedited	Sharon Van Es	1201 FABER DR			PFLUGERVILLE	TX	78660-4929	US		Been praying for you and your family! From Your Secret Sister	false		
111-8797140-4868229	44905127491866	2020-11-04T16:03:36+00:00	2020-11-04T08:03:36-08:00	2020-11-04T16:29:32+00:00	2020-11-07T07:59:59+00:00	-3	q5vw1j3yg518rc4@marketplace.amazon.com	Theresa bernard	+1 929-436-4790 ext. 23068	ABR0022	Delivery by Thursday | Arabella Farm Direct Bouquet of 12 Fresh Cut Pink Roses with a Free Glass Vase	1	0	1	Expedited	The Dobos Residence	5001 QUERCUS LOOP			WINTER HAVEN	FL	33880-8809	US		HAPPY BIRTHDAY SISTA FAITH!!! From Theresa (Irene) and Jackie	false		
114-2978579-5864235	30348669262042	2020-11-04T16:03:37+00:00	2020-11-04T08:03:37-08:00	2020-11-04T16:31:40+00:00	2020-11-07T07:59:59+00:00	-3	zj4bv9y64n1hytw@marketplace.amazon.com	Beca Alt	+1 929-436-4790 ext. 35743	ABB008	Delivery by Friday | Arabella Farm Direct 48 Fresh Cut Pink Roses	1	0	1	Expedited	Sloane  Alt	2859 FOXWOOD CT			CLEARWATER	FL	33761-2819	US		Sloane Happy Sweet 16! May all your wishes come true. I love you. All my love , Your Mom From Beca Alt	false		
113-6535230-4800265	61541649136306	2020-11-04T16:06:27+00:00	2020-11-04T08:06:27-08:00	2020-11-04T16:32:04+00:00	2020-11-07T07:59:59+00:00	-3	s5vdwdhd8lr4s5b@marketplace.amazon.com	Stephany J. Rysenga	+1 929-436-4790 ext. 70716	ABM022	Delivery by Thursday | Purple Extravagance Bouquet by Arabella Bouquets	1	0	1	Expedited	Mr. & Mrs Jerry Irving and Daughter	6610 AURORA VIEW ST			LAS VEGAS	NV	89135-9107	US		Welcome Home!  Tim and Stephany From Stephany J. Rysenga	false		
112-4496393-6538638	34318398214922	2020-11-04T16:10:31+00:00	2020-11-04T08:10:31-08:00	2020-11-04T16:35:41+00:00	2020-11-07T07:59:59+00:00	-3	c11pzv0jj3y7gs1@marketplace.amazon.com	Stacey Czeck	+1 602-671-6610 ext. 54012	ABM0033	Delivery by Friday | Arabella Farm Direct Bouquet of Fresh Cut White Hydrangea with a Free Glass Vase	1	0	1	Expedited	Lisa Nelson	1750 CHARLESTON LN			WACONIA	MN	55387-4546	US		HI BFF!  I'm so sorry you are ill. Hoping these flowers will bring you some joy. Love you and miss you! Stace From Stacey Czeck	false		
113-9998619-7469810	11989975145586	2020-11-04T16:12:58+00:00	2020-11-04T08:12:58-08:00	2020-11-04T16:40:43+00:00	2020-11-07T07:59:59+00:00	-3	glyr5crtvyvklrh@marketplace.amazon.com	Scott McDonough	+1 480-618-5344 ext. 84895	ABR0022	Delivery by Thursday | Arabella Farm Direct Bouquet of 12 Fresh Cut Pink Roses with a Free Glass Vase	1	0	1	Expedited	The Wells	5920 ROSECROFT PL			HUGHESVILLE	MD	20637-2894	US		Wishing you peace and comfort during this difficult time. From Sara McDonough	false		
113-4792878-3936243	11851426063650	2020-11-04T16:18:39+00:00	2020-11-04T08:18:39-08:00	2020-11-04T16:48:29+00:00	2020-11-07T07:59:59+00:00	-3	3td6v0p6vd77vys@marketplace.amazon.com	Ann Kendall	+1 480-618-5344 ext. 99924	ABR0066	Delivery by Thursday | Arabella Bouquets 12 Stems of Fresh Cut White Roses in a Free Designer Glass Vase	1	0	1	Expedited	Nancy and Dave Oakes	14004 FLINT ROCK RD			ROCKVILLE	MD	20853-2651	US			false		
111-4059105-9025016	27508713123074	2020-11-04T16:26:32+00:00	2020-11-04T08:26:32-08:00	2020-11-04T16:54:34+00:00	2020-11-07T07:59:59+00:00	-3	qvzpgzrsprryyjn@marketplace.amazon.com	Sherry Conrad	+1 929-436-4790 ext. 91090	ABR0022	Delivery by Thursday | Arabella Farm Direct Bouquet of 12 Fresh Cut Pink Roses with a Free Glass Vase	1	0	1	Expedited	Joann Hawes	2232 MASONIC DR			SEWICKLEY	PA	15143-2430	US		Happy birthday, Mom!  I hope these bloom beautifully for you. Wish we could be there to celebrate.  Love, Sherry and Rick From Sherry Conrad	false		
112-5174501-2961038	02798076540146	2020-11-04T16:30:19+00:00	2020-11-04T08:30:19-08:00	2020-11-04T16:59:49+00:00	2020-11-07T07:59:59+00:00	-3	2xkvt1z2h90353c@marketplace.amazon.com	JULIE	+1 602-671-6610 ext. 49984	ABR0033	Delivery by Thursday | Arabella Farm Direct Bouquet of 12 Fresh Cut Orange Roses with a Free Glass Vase	1	0	1	Expedited	Mr and Mrs Dube	815 WAUWINET RD			BARRE	MA	01005-9132	US			false		
112-0365158-3244226	66372206333562	2020-11-04T16:30:47+00:00	2020-11-04T08:30:47-08:00	2020-11-04T16:59:59+00:00	2020-11-07T07:59:59+00:00	-3	4v3lq2btq82xpbd@marketplace.amazon.com	Sharen  Eidelberg-Spratt	+1 480-618-5344 ext. 79073	ABR0033	Delivery by Thursday | Arabella Farm Direct Bouquet of 12 Fresh Cut Orange Roses with a Free Glass Vase	1	0	1	Expedited	Marion Palmer	10812 S JASON DR			SANDY	UT	84094-5044	US		Dearest Aunt Marion, Thinking of you with so much love. Feel strong and better soon. Love, Sharen & Randy From Sharen  Eidelberg-Spratt	false		
113-5365050-5492217	33937302358770	2020-11-04T16:36:13+00:00	2020-11-04T08:36:13-08:00	2020-11-04T17:03:10+00:00	2020-11-07T07:59:59+00:00	-3	2s17sfnq6gbkg3r@marketplace.amazon.com	tammy moody	+1 602-671-6610 ext. 18674	ABM022	Delivery by Thursday | Purple Extravagance Bouquet by Arabella Bouquets	1	0	1	Expedited	Jean Olofson	RALEIGH ORTHOPEDIC PHYSICAL THEARPY	10880 DURANT RD STE 300		RALEIGH	NC	27614-6629	US		Dear Jean Thank you so much for working with me and my knee. Also for tolerating me being late and a couple of missed appointments. You are appreciated!  See you for the next knee From tammy moody	false		
113-8477616-0702646	06791084082130	2020-11-04T16:40:18+00:00	2020-11-04T08:40:18-08:00	2020-11-04T17:09:41+00:00	2020-11-07T07:59:59+00:00	-3	x8jgk8c9nj9l2gh@marketplace.amazon.com	Dan	+1 619-854-2705 ext. 95001	ABR0022	Delivery by Thursday | Arabella Farm Direct Bouquet of 12 Fresh Cut Pink Roses with a Free Glass Vase	1	0	1	Expedited	Silver Anderson	4779 S PACIFIC HWY			PHOENIX	OR	97535-6602	US			false		
114-2418861-8935456	46916220329978	2020-11-04T16:45:51+00:00	2020-11-04T08:45:51-08:00	2020-11-04T17:15:08+00:00	2020-11-07T07:59:59+00:00	-3	600hk27wx884ww4@marketplace.amazon.com	Jennifer Rass	+1 619-854-2705 ext. 17028	ABR0022	Delivery by Thursday | Arabella Farm Direct Bouquet of 12 Fresh Cut Pink Roses with a Free Glass Vase	1	0	1	Expedited	Laura Gronda	15143 W HIGHLAND AVE			GOODYEAR	AZ	85395-6363	US		Laura, Just wanted to brighten your day!  You are in my thoughts and prayers!  Thinking of you and your beautiful family!  Sigma Love and Mine, Jenn Maxwell Rass From Jennifer Rass	false		
113-1446633-5758601	46866872508794	2020-11-04T16:49:16+00:00	2020-11-04T08:49:16-08:00	2020-11-04T17:17:59+00:00	2020-11-07T07:59:59+00:00	-3	yj6p434gkdgzf3j@marketplace.amazon.com	Caitlin Beaghan	+1 213-442-1463 ext. 90555	ABM022	Delivery by Thursday | Purple Extravagance Bouquet by Arabella Bouquets	1	0	1	Expedited	Bernie KrausPOVISA	3022 GLENVUE DR			WESTMINSTER	MD	21157-7741	US		The Director and Staff at The Johns Hopkins University Applied Physics Laboratory extend best wishes for a speedy recovery! From JHUAPL	true	VISA	
114-2238816-1219446	08751792133274	2020-11-04T16:54:40+00:00	2020-11-04T08:54:40-08:00	2020-11-04T17:24:44+00:00	2020-11-07T07:59:59+00:00	-3	jks6qy2k6hzl9rg@marketplace.amazon.com	Kevin	+1 480-618-5344 ext. 04507	ABM010	Delivery by Thursday | The Spring Fling Bouquet by Arabella Bouquets with a Free Designer Glass Vase	1	0	1	Expedited	Kevin Tidwell	3907 VINECREST DR			SAN ANTONIO	TX	78219-1439	US			false		
114-2305570-0573857	35762527007666	2020-11-04T16:54:53+00:00	2020-11-04T08:54:53-08:00	2020-11-04T17:24:48+00:00	2020-11-07T07:59:59+00:00	-3	600hk27wx884ww4@marketplace.amazon.com	Jennifer Rass	+1 602-671-6610 ext. 59047	ABR0022	Delivery by Thursday | Arabella Farm Direct Bouquet of 12 Fresh Cut Pink Roses with a Free Glass Vase	1	0	1	Expedited	Lisa Maisano-Norman	15 W SOUTHFORK PINES CIR			THE WOODLANDS	TX	77381-2543	US		Lisa, Just a little something to brighten your week!  Love and miss you the most! xoxoxo Jenn From Jennifer Rass	false		
114-2201762-8613807	27108486593610	2020-11-04T17:00:48+00:00	2020-11-04T09:00:48-08:00	2020-11-04T17:26:49+00:00	2020-11-07T07:59:59+00:00	-3	yhpfhmbqmtjx6qn@marketplace.amazon.com	Ronda Jamieson	+1 602-671-6610 ext. 36869	ABR0022	Delivery by Thursday | Arabella Farm Direct Bouquet of 12 Fresh Cut Pink Roses with a Free Glass Vase	1	0	1	Expedited	Ronda Jamieson	213 N BROADWAY			WESTPORT	WA	98595-9623	US		Enjoy your gift! From Ronda Jamieson	false		
111-8633187-2171440	36403404366106	2020-11-04T16:59:14+00:00	2020-11-04T08:59:14-08:00	2020-11-04T17:29:12+00:00	2020-11-07T07:59:59+00:00	-3	k0zzgp2g2wx9z7s@marketplace.amazon.com	William Donatini	+1 619-854-2705 ext. 43384	ABR001	Delivery by Thursday | Arabella Bouquets 12 Stems of Fresh Cut Red Roses in a Free Designer Glass Vase	1	0	1	Expedited	william donatini	369 EDEN DR			ENGLEWOOD	FL	34223-1964	US			false		
114-9857692-1709063	30748734246282	2020-11-04T17:07:53+00:00	2020-11-04T09:07:53-08:00	2020-11-04T17:30:36+00:00	2020-11-07T07:59:59+00:00	-3	y0gbd20fs9stq8y@marketplace.amazon.com	kathy digiacomo	+1 602-671-6610 ext. 61360	ABR0022	Delivery by Thursday | Arabella Farm Direct Bouquet of 12 Fresh Cut Pink Roses with a Free Glass Vase	1	0	1	Expedited	Shirley Dempster	234 FIELDBROOK DR			CANONSBURG	PA	15317-9781	US		Thinking of you.... so sorry to hear about Betty From Your Cousin,  Kathy DiGiacomo	false		
113-5541711-9282631	27400332734314	2020-11-04T17:02:59+00:00	2020-11-04T09:02:59-08:00	2020-11-04T17:31:28+00:00	2020-11-07T07:59:59+00:00	-3	ld89z0654xxdv67@marketplace.amazon.com	Terry Reed	+1 602-671-6610 ext. 19493	ABM010	Delivery by Thursday | The Spring Fling Bouquet by Arabella Bouquets with a Free Designer Glass Vase	1	0	1	Expedited	Janice McFatter	4046 9TH ST			EAST MOLINE	IL	61244-4509	US		Happy Birthday Mom!  Love ya, From Terry Reed	false		
112-2977060-5671425	40995531729578	2020-11-04T17:15:58+00:00	2020-11-04T09:15:58-08:00	2020-11-04T17:46:18+00:00	2020-11-07T07:59:59+00:00	-3	7633jd9s8g6xjwd@marketplace.amazon.com	Ashley Avila	+1 929-436-4790 ext. 44392	ABR0022	Delivery by Thursday | Arabella Farm Direct Bouquet of 12 Fresh Cut Pink Roses with a Free Glass Vase	1	0	1	Expedited	Yaki	142 W 35TH ST			HIALEAH	FL	33012-5232	US			false		
112-8788411-8357012	25026506467306	2020-11-04T17:18:17+00:00	2020-11-04T09:18:17-08:00	2020-11-04T17:48:55+00:00	2020-11-07T07:59:59+00:00	-3	7633jd9s8g6xjwd@marketplace.amazon.com	Ashley Avila	+1 929-436-4790 ext. 48961	ABR0022	Delivery by Thursday | Arabella Farm Direct Bouquet of 12 Fresh Cut Pink Roses with a Free Glass Vase	1	0	1	Expedited	Ashley Avila	16352 SW 44TH WAY			MIAMI	FL	33185-5338	US			false		
113-5094985-2837820	33386292205906	2020-11-04T17:20:01+00:00	2020-11-04T09:20:01-08:00	2020-11-04T17:49:52+00:00	2020-11-07T07:59:59+00:00	-3	55hmjwh43q7sdmc@marketplace.amazon.com	Jack Burch	+1 619-854-2705 ext. 29431	ABM022	Delivery by Thursday | Purple Extravagance Bouquet by Arabella Bouquets	1	0	1	Expedited	Scott Polk	69 Burger Lane			Fredersburg	Texas	78624	US			false		
114-5529221-9539441	55693640509002	2020-11-04T17:28:54+00:00	2020-11-04T09:28:54-08:00	2020-11-04T17:50:35+00:00	2020-11-07T07:59:59+00:00	-3	93vgy9qn9qv8qvm@marketplace.amazon.com	susan peacock	+1 929-436-4790 ext. 94602	ABR0022	Delivery by Thursday | Arabella Farm Direct Bouquet of 12 Fresh Cut Pink Roses with a Free Glass Vase	1	0	1	Expedited	Robin zenick	1094 BRANCH LINE LN			APEX	NC	27502-2421	US		Enjoy your gift! Thank you for being so kind From susan peacock	false		
113-4099603-7174635	56988027853498	2020-11-04T17:27:39+00:00	2020-11-04T09:27:39-08:00	2020-11-04T17:53:02+00:00	2020-11-07T07:59:59+00:00	-3	55hmjwh43q7sdmc@marketplace.amazon.com	Jack Burch	+1 480-618-5344 ext. 42132	ABM022	Delivery by Thursday | Purple Extravagance Bouquet by Arabella Bouquets	1	0	1	Expedited	Scott Polk	69 Burger Lane			Fredersburg	Texas	78624	US		For Ray and Cathy Happy 70th Anniversary All our love & prayers, Jack and Bonnie From Jack Burch	false		
113-8714527-5080210	41003657409634	2020-11-04T17:47:06+00:00	2020-11-04T09:47:06-08:00	2020-11-04T17:56:40+00:00	2020-11-07T07:59:59+00:00	-3	nd7vbl8mjpvpdqr@marketplace.amazon.com	Liz* Needham	+1 480-618-5344 ext. 11145	ABR0022	Delivery by Thursday | Arabella Farm Direct Bouquet of 12 Fresh Cut Pink Roses with a Free Glass Vase	1	0	1	Expedited	Rose Tucker	2163 BAINS RD			HILLSBORO	TN	37342-3623	US		I have thanked God for giving me a Mom like you. Many can only wish to have one even close to as wonderful as you are. We hope you have a super special day. We Love You!! From Liz*, Clay, & Kiddos From Liz*, Clay, & Kiddos	false		
112-7133632-6397003	37126694727266	2020-11-04T17:29:04+00:00	2020-11-04T09:29:04-08:00	2020-11-04T17:59:00+00:00	2020-11-07T07:59:59+00:00	-3	080cmrk232jvdrm@marketplace.amazon.com	Donna Rizzo	+1 415-851-9136 ext. 61668	ABR0022	Delivery by Thursday | Arabella Farm Direct Bouquet of 12 Fresh Cut Pink Roses with a Free Glass Vase	1	0	1	Expedited	Donna Rizzo	18 LINDA AVE			BROCKTON	MA	02301-3130	US			false		
