order-id	order-item-id	purchase-date	payments-date	reporting-date	promise-date	days-past-promise	buyer-email	buyer-name	buyer-phone-number	sku	product-name	quantity-purchased	quantity-shipped	quantity-to-ship	ship-service-level	recipient-name	ship-address-1	ship-address-2	ship-address-3	ship-city	ship-state	ship-postal-code	ship-country	gift-wrap-type	gift-message-text	is-business-order	purchase-order-number	price-designation
111-7082794-0284220	15725736893970	2020-11-04T17:54:35+00:00	2020-11-04T09:54:35-08:00	2020-11-04T18:18:31+00:00	2020-11-07T07:59:59+00:00	-2	vfwx8yt455dwxpv@marketplace.amazon.com	Brad Juedes	+1 213-442-1463 ext. 38621	ABR0022	Delivery by Thursday | Arabella Farm Direct Bouquet of 12 Fresh Cut Pink Roses with a Free Glass Vase	1	0	1	Expedited	Danice Juedes 115B	2505 SW MARTIN HWY			PALM CITY	FL	34990-3149	US		Love you Mom From Brad and Natalie	false		
114-4209384-9277029	23693296451754	2020-11-04T18:06:53+00:00	2020-11-04T10:06:53-08:00	2020-11-04T18:35:59+00:00	2020-11-07T07:59:59+00:00	-2	scqm8lsfph7zlsv@marketplace.amazon.com	Patricia Kelley	+1 213-442-1463 ext. 34732	ABM025	Delivery by Monday | The Fell for You Bouquet by Arabella Bouquets	1	0	1	Expedited	Mary McEntee	33 BLOSSOM ST APT 514			BOSTON	MA	02114-2610	US		Happy Birthday, Mary!!!  With lots of love!!! From Pam & Warren	false		
112-7712402-2973049	13058478739722	2020-11-04T18:08:55+00:00	2020-11-04T10:08:55-08:00	2020-11-04T18:37:18+00:00	2020-11-07T07:59:59+00:00	-2	jl6237jqf44mmx1@marketplace.amazon.com	Hollie Free	+1 619-854-2705 ext. 34844	ABM022	Delivery by Friday | Purple Extravagance Bouquet by Arabella Bouquets	1	0	1	Expedited	Hilary S	6000 BENBASSET PL			BAKERSFIELD	CA	93306-9629	US		Dear Hilary,   I wish you joy and happiness today!   Much love, From Natasha L	false		
114-9573582-3012217	09025502022986	2020-11-04T18:38:29+00:00	2020-11-04T10:38:29-08:00	2020-11-04T18:57:52+00:00	2020-11-07T07:59:59+00:00	-2	mqg76sbx9fbv1sb@marketplace.amazon.com	Brandon Wynsma	+1 213-442-1463 ext. 74899	ABR0022	Delivery by Friday | Arabella Farm Direct Bouquet of 12 Fresh Cut Pink Roses with a Free Glass Vase	1	0	1	Expedited	KimJimCoco Guettler	15743 RANDALL LN			MINNETONKA	MN	55345-5521	US		KimJimCoco: Thank you all for such a great time in MN! I really enjoyed meeting you all, exploring the state, and the amazing food! I really appreciate everything.  Love, “Levi” From Brandon/Levi	false		
112-3461721-3924263	63509296834858	2020-11-04T18:50:25+00:00	2020-11-04T10:50:25-08:00	2020-11-04T19:19:15+00:00	2020-11-07T07:59:59+00:00	-2	wtt4lwg7m3vlvyz@marketplace.amazon.com	Jade Grey	+1 213-442-1463 ext. 40813	ABR0022	Delivery by Friday | Arabella Farm Direct Bouquet of 12 Fresh Cut Pink Roses with a Free Glass Vase	1	0	1	Expedited	Pat Osowski	9450 W CABELA DR APT 2232			GLENDALE	AZ	85305-1313	US		Happy 60th birthday!  Love, Jade, Steve, Kinley, and Cole From Jade Grey	false		
112-8017521-6301816	21515432029930	2020-11-04T18:54:45+00:00	2020-11-04T10:54:45-08:00	2020-11-04T19:19:24+00:00	2020-11-07T07:59:59+00:00	-2	4cxfv338m3njx59@marketplace.amazon.com	David Doseff	+1 619-854-2705 ext. 15939	ABM010	Delivery by Friday | The Spring Fling Bouquet by Arabella Bouquets with a Free Designer Glass Vase	1	0	1	Expedited	Cindy Kovacs	1789 WINDLASS RD			MONETA	VA	24121-2429	US		Thought these would add some cheer while you’re enjoying some R&R down at the lake.   Hope your time down there is truly a retreat that refreshes and restores. Love, Lisa From David Doseff	false		
111-7608029-8320266	49943765961626	2020-11-04T19:04:38+00:00	2020-11-04T11:04:38-08:00	2020-11-04T19:29:39+00:00	2020-11-07T07:59:59+00:00	-2	930lc97gv9yyf77@marketplace.amazon.com	Karen Delzell	+1 619-854-2705 ext. 69351	ABM022	Delivery by Friday | Purple Extravagance Bouquet by Arabella Bouquets	1	0	1	Expedited	Rosemary Brown	2606 AMHERST DR			WICHITA FALLS	TX	76308-5303	US		Happy Birthday, Rosemary. Wanted to make certain these arrived in time for your big day. Love Karen and Bill From Karen Delzell	false		
113-4453325-1414637	56961110519322	2020-11-04T19:11:56+00:00	2020-11-04T11:11:56-08:00	2020-11-04T19:36:59+00:00	2020-11-07T07:59:59+00:00	-2	6nwpvf38rfjtjl6@marketplace.amazon.com	Lynn Gu	+1 602-671-6610 ext. 91985	ABR0033	Delivery by Friday | Arabella Farm Direct Bouquet of 12 Fresh Cut Orange Roses with a Free Glass Vase	1	0	1	Expedited	Cindy Marois	63 GRANDVIEW DR			CUMBERLAND	RI	02864-6627	US		Dear Cindy and Bob,  It’s heart breaking to hear of the passing of Bogie. My thoughts and prayers are with you. Ginger will be there for Bogie!   Hugs! From Lynn Gu	false		
114-7812304-6644265	45790031640282	2020-11-04T19:07:37+00:00	2020-11-04T11:07:37-08:00	2020-11-04T19:37:04+00:00	2020-11-07T07:59:59+00:00	-2	fqf6w4t9yqqj64n@marketplace.amazon.com	Cassidy Garber	+1 619-854-2705 ext. 31794	ABR0033	Delivery by Friday | Arabella Farm Direct Bouquet of 12 Fresh Cut Orange Roses with a Free Glass Vase	1	0	1	Expedited	Madi Marshall	325 ADRAIN ST APT 1			EMMAUS	PA	18049-3948	US		Congratulations on your new home, Madi! Your Chick-fil-A Whitehall fam is cheering you on! From The Chick-fil-A Whitehall Team	false		
114-3153786-6532254	39800803419978	2020-11-04T19:09:18+00:00	2020-11-04T11:09:18-08:00	2020-11-04T19:37:43+00:00	2020-11-07T07:59:59+00:00	-2	ql6gjpnfynpxk1k@marketplace.amazon.com	susan nechanicky	+1 602-671-6610 ext. 52562	ABM025	Delivery by Monday | The Fell for You Bouquet by Arabella Bouquets	1	0	1	Expedited	Kathy Lee/Sue Nechanicky	610 WOODGLEN PL NE			OWATONNA	MN	55060-1972	US		A little sunshine for your day~ Always thinking of you and sending good karma your way- Much love!! From susan nechanicky	false		
113-6781399-1177010	35764874287346	2020-11-04T19:22:15+00:00	2020-11-04T11:22:15-08:00	2020-11-04T19:48:26+00:00	2020-11-07T07:59:59+00:00	-2	85y0rxtkppd3xw8@marketplace.amazon.com	nagam hanson	+1 602-671-6610 ext. 08507	ABR0033	Delivery by Saturday | Arabella Farm Direct Bouquet of 12 Fresh Cut Orange Roses with a Free Glass Vase	1	0	1	Expedited	Rawaa Abdulkadhim	826 OLIVE LN			HARKER HEIGHTS	TX	76548-8849	US		Rawaa, I'm sorry I'm not there to take care of you but Sending happy thoughts and positive energy your way! Get well soon my friend! Miss you!! Love you bestie!! From Logan, Kenne & ME	false		
112-0947418-5921837	38165979014842	2020-11-04T19:21:33+00:00	2020-11-04T11:21:33-08:00	2020-11-04T19:49:24+00:00	2020-11-07T07:59:59+00:00	-2	7g1y3gsf49rg9wf@marketplace.amazon.com	Jacqueline	+1 213-442-1463 ext. 37432	ABR0055	Delivery by Saturday | Arabella Farm Direct Bouquet of 12 Stems of Fresh Cut Hot Pink Roses in a Free Designer Glass Vase	1	0	1	Expedited	Anna Giovacchinni	4206 KNOTTY PINE PL			ROCKLIN	CA	95765-5732	US			false		
114-5147639-5148205	12962169914258	2020-11-04T19:38:44+00:00	2020-11-04T11:38:44-08:00	2020-11-04T19:51:25+00:00	2020-11-07T07:59:59+00:00	-2	q3bqt0gfscjv77q@marketplace.amazon.com	Larry Teich	+1 929-436-4790 ext. 18464	ABR0022	Delivery by Friday | Arabella Farm Direct Bouquet of 12 Fresh Cut Pink Roses with a Free Glass Vase	1	0	1	Expedited	Jill and Mark Teich	7 UPLAND CT			SOUTH SALEM	NY	10590-2604	US		happy anniversary. love MOM & DAD From Larry Teich	false		
113-8477419-2048268	51419843764570	2020-11-04T19:36:08+00:00	2020-11-04T11:36:08-08:00	2020-11-04T20:01:29+00:00	2020-11-07T07:59:59+00:00	-2	l5q1hjyr7w523yq@marketplace.amazon.com	Anne Mooney	+1 929-436-4790 ext. 73800	ABR0066	Delivery by Saturday | Arabella Bouquets 12 Stems of Fresh Cut White Roses in a Free Designer Glass Vase	1	0	1	Expedited	The Ernst Family Love, The Rubins	109 WOODLAND AVE			RAMSEY	NJ	07446-1721	US			false		
113-2168835-2037063	53454402736194	2020-11-04T19:33:45+00:00	2020-11-04T11:33:45-08:00	2020-11-04T20:04:07+00:00	2020-11-07T07:59:59+00:00	-2	c4yyshs99lrnw5q@marketplace.amazon.com	Vicki Grant	+1 619-854-2705 ext. 52020	ABM022	Delivery by Friday | Purple Extravagance Bouquet by Arabella Bouquets	1	0	1	Expedited	Mrs Shelia Dent	3915 LEGEND HILLS ST UNIT 104			LAS VEGAS	NV	89129-4552	US			false		
113-1081259-5147449	45658081549802	2020-11-04T19:41:04+00:00	2020-11-04T11:41:04-08:00	2020-11-04T20:10:48+00:00	2020-11-07T07:59:59+00:00	-2	dxfygdz0qg4j3y8@marketplace.amazon.com	Mary boucher	+1 480-618-5344 ext. 84628	ABM026	Delivery by Monday | The Amour Bouquet by Arabella Bouquets	1	0	1	Expedited	Bill and Elain Clelland	4 SIERRA CT			SANTA FE	NM	87506-9542	US		Happy 72nd Birthday, Bill and Elaine! From Mary	false		
113-7100545-9901008	00161907428370	2020-11-04T19:41:53+00:00	2020-11-04T11:41:53-08:00	2020-11-04T20:11:49+00:00	2020-11-07T07:59:59+00:00	-2	jm6fkms7r0g5f1d@marketplace.amazon.com	JoAnn B. Alfriend	+1 929-436-4790 ext. 26726	ABR0055	Delivery by Saturday | Arabella Farm Direct Bouquet of 12 Stems of Fresh Cut Hot Pink Roses in a Free Designer Glass Vase	1	0	1	Expedited	Caron Atiyeh	4054 Elizabeth Ln			Fairfax	Va	22032	US			false		
112-1433438-9931466	42023885648074	2020-11-04T19:44:05+00:00	2020-11-04T11:44:05-08:00	2020-11-04T20:13:28+00:00	2020-11-07T07:59:59+00:00	-2	h9g8wn6q80c8m4n@marketplace.amazon.com	James A. Onigkeit	+1 602-671-6610 ext. 87054	ABR0022	Delivery by Friday | Arabella Farm Direct Bouquet of 12 Fresh Cut Pink Roses with a Free Glass Vase	1	0	1	Standard	Jennifer Bruce	14507 NETTLE CREEK RD			TAMPA	FL	33624-2640	US		Congrats! You should be proud of all you have accomplished!  Love Wendy White and the rest of the Onigkeit family From Wendy White	false		
111-0092347-2186659	07666072162514	2020-11-04T19:57:47+00:00	2020-11-04T11:57:47-08:00	2020-11-04T20:23:46+00:00	2020-11-07T07:59:59+00:00	-2	b95vx2gqhwfh04s@marketplace.amazon.com	Iraida Becerra	+1 619-854-2705 ext. 54348	ABR0022	Delivery by Friday | Arabella Farm Direct Bouquet of 12 Fresh Cut Pink Roses with a Free Glass Vase	1	0	1	Expedited	Mireya Monroy	200 MAITLAND AVE APT 226			ALTAMONTE SPRINGS	FLORIDA	32701-5569	US		Mireya amiga un muy Feliz Cumpleaños y muy buenos deseos de mucha salud y alegrías. Muchos abrazos.  Irma e Iraida From Iraida Becerra	false		
112-3264089-2458650	59974926595626	2020-11-04T19:57:44+00:00	2020-11-04T11:57:44-08:00	2020-11-04T20:26:21+00:00	2020-11-07T07:59:59+00:00	-2	1k2kwjgjly78yp7@marketplace.amazon.com	Sondra Borne	+1 480-618-5344 ext. 96556	ABR0055	Delivery by Saturday | Arabella Farm Direct Bouquet of 12 Stems of Fresh Cut Hot Pink Roses in a Free Designer Glass Vase	1	0	1	Expedited	Nona Joseph	3021 YORKTOWNE DR			LA PLACE	LA	70068-2109	US		Hi Nona, Sorry I forgot your Birthday.  Happy Birthday!!! God Bless Sondra	false		
111-6448475-8302631	36120807803186	2020-11-04T20:02:54+00:00	2020-11-04T12:02:54-08:00	2020-11-04T20:31:55+00:00	2020-11-07T07:59:59+00:00	-2	d48c5mwhx7tstrj@marketplace.amazon.com	Bisrat	+1 480-618-5344 ext. 83299	ABR001	Delivery by Saturday | Arabella Bouquets 12 Stems of Fresh Cut Red Roses in a Free Designer Glass Vase	1	0	1	Standard	Biz	3839 BRIARGROVE LN APT 10206			DALLAS	TX	75287-6386	US		Thanks for being Awesome! From Bisrat	false		
113-9191915-1651410	61822091440506	2020-11-04T20:03:50+00:00	2020-11-04T12:03:50-08:00	2020-11-04T20:32:22+00:00	2020-11-07T07:59:59+00:00	-2	cfxj42mm7pqqbh7@marketplace.amazon.com	kathleen kazmerski	+1 602-671-6610 ext. 97897	ABR0022	Delivery by Friday | Arabella Farm Direct Bouquet of 12 Fresh Cut Pink Roses with a Free Glass Vase	1	0	1	Expedited	Jeanne Kazmerski	1215 CORTLAND LN			WAUCONDA	IL	60084-3700	US		Happy Happy Birthday Jeanne!!  We LOVE you! From The Colorado Kazs	false		
112-4215623-9909065	14206749385034	2020-11-04T20:00:31+00:00	2020-11-04T12:00:31-08:00	2020-11-04T20:35:33+00:00	2020-11-07T07:59:59+00:00	-2	bv6twj0lbgs33zb@marketplace.amazon.com	Stephen Rietzke	+1 213-442-1463 ext. 65345	ABR001	Delivery by Saturday | Arabella Bouquets 12 Stems of Fresh Cut Red Roses in a Free Designer Glass Vase	1	0	1	Expedited	Kathy Rietzke	338 EVERGREEN DR			NORTH WALES	PA	19454-2714	US		Because you are loved! From Stephen Rietzke	false		
114-1040054-4534627	69917181953258	2020-11-04T20:07:42+00:00	2020-11-04T12:07:42-08:00	2020-11-04T20:36:06+00:00	2020-11-07T07:59:59+00:00	-2	sr94jsc17nhz6fb@marketplace.amazon.com	David W. Phelps	+1 619-854-2705 ext. 15172	ABR0022	Delivery by Friday | Arabella Farm Direct Bouquet of 12 Fresh Cut Pink Roses with a Free Glass Vase	1	0	1	Expedited	Raul hernandez-Ibanez	3101 CHURCHILL PL APT 103			LOUISVILLE	KY	40220-7166	US		With deepest sympathy,  Michele and David From Michele Phelps	false		
114-6891223-4689049	43212247676370	2020-11-04T20:08:33+00:00	2020-11-04T12:08:33-08:00	2020-11-04T20:37:38+00:00	2020-11-07T07:59:59+00:00	-2	v71jkhyvt81grt4@marketplace.amazon.com	Jevon Carlyle Pinard	+1 929-436-4790 ext. 23203	ABR0055	Delivery by Saturday | Arabella Farm Direct Bouquet of 12 Stems of Fresh Cut Hot Pink Roses in a Free Designer Glass Vase	1	0	1	Expedited	Ms. Charlotte	205 E JOPPA RD APT 1507			TOWSON	MD	21286-3225	US		Happy birthday! From The Pinards	false		
113-0389928-8516234	20429098541978	2020-11-04T20:35:06+00:00	2020-11-04T12:35:06-08:00	2020-11-04T20:37:46+00:00	2020-11-07T07:59:59+00:00	-2	h3x1m8sl3z923k5@marketplace.amazon.com	Kathryn Zajchowski	+1 213-442-1463 ext. 08035	ABM010	The Spring Fling Bouquet by Arabella Bouquets with a Free Designer Glass Vase	1	0	1	Expedited	The Waligorski Family	178 W CUSTER RD			SANDUSKY	MI	48471-9152	US		Dear Sarah,  just thinking about you and the baby. I hope everyone is well. Sending you lots of love. XX-Kitty From Kathryn	false		
113-9026787-0610630	49237862252778	2020-11-04T20:17:13+00:00	2020-11-04T12:17:13-08:00	2020-11-04T20:45:45+00:00	2020-11-07T07:59:59+00:00	-2	1fb9btzxf8sgb3l@marketplace.amazon.com	Joan Wilder	+1 929-436-4790 ext. 87233	ABM020	Delivery by Saturday | The Sunset Bouquet by Arabella Bouquets	1	0	1	Expedited	Barbara Herman	1464 POPINJAY DR			RENO	NV	89509-3984	US		With sincerest condolences, Barb. Thinking about you. From Joan & Lucy	false		
112-3603367-9043412	19860804689874	2020-11-04T20:25:19+00:00	2020-11-04T12:25:19-08:00	2020-11-04T20:54:38+00:00	2020-11-07T07:59:59+00:00	-2	gvb13lls7xzqs0d@marketplace.amazon.com	Reuven Moshkovski	+1 602-671-6610 ext. 16739	ABM010	The Spring Fling Bouquet by Arabella Bouquets with a Free Designer Glass Vase	1	0	1	Expedited	Fran & Dror Moshkovski	9550 W SAHARA AVE APT 1099			LAS VEGAS	NV	89117-5379	US		Happy Birthday Grandma! Love, Reuven From Reuven Moshkovski	false		
113-4247087-7341831	20486703777962	2020-11-04T20:42:31+00:00	2020-11-04T12:42:31-08:00	2020-11-04T21:03:05+00:00	2020-11-07T07:59:59+00:00	-2	cn1b5xt3xgtvyc8@marketplace.amazon.com	Sandra Partridge	+1 480-618-5344 ext. 71487	ABM022	Delivery by Saturday | Purple Extravagance Bouquet by Arabella Bouquets	1	0	1	Expedited	Suzanne Lavanaway	5508 Claiborn			Orangevale	California	95662	US		We will miss Charlie a lot.  Our prayers are with you and your family.  Don't hesitate to call if you need my help.  Love you guys From Sandra and Jim Partridge	false		
112-2658962-2624269	47456942518810	2020-11-04T20:45:09+00:00	2020-11-04T12:45:09-08:00	2020-11-04T21:15:23+00:00	2020-11-07T07:59:59+00:00	-2	xrr47fpz639xj8p@marketplace.amazon.com	Ruby-Ann Costanza	+1 619-854-2705 ext. 08945	ABR001	Delivery by Saturday | Arabella Bouquets 12 Stems of Fresh Cut Red Roses in a Free Designer Glass Vase	1	0	1	Expedited	Patsy Costanza	1011 HAZEL AVE APT 1			AMBRIDGE	PA	15003-1521	US			false		
113-1739727-5377052	26842154267170	2020-11-04T21:07:41+00:00	2020-11-04T13:07:41-08:00	2020-11-04T21:48:26+00:00	2020-11-07T07:59:59+00:00	-2	0mlwlqtr69n0xwp@marketplace.amazon.com	gino	+1 213-442-1463 ext. 27115	ABR0055	Delivery by Saturday | Arabella Farm Direct Bouquet of 12 Stems of Fresh Cut Hot Pink Roses in a Free Designer Glass Vase	1	0	1	Expedited	Sandee Sanke	3911 JERSEY AVE N			MINNEAPOLIS	MN	55427-1450	US		Miss you! 😘 From gino	false		
113-7871088-8769820	48071642522898	2020-11-04T21:30:53+00:00	2020-11-04T13:30:53-08:00	2020-11-04T21:54:45+00:00	2020-11-07T07:59:59+00:00	-2	52y6bg3zlg58fvc@marketplace.amazon.com	Rhonda Brown	+1 480-618-5344 ext. 37333	ABM022	Delivery by Saturday | Purple Extravagance Bouquet by Arabella Bouquets	1	0	1	Expedited	Linda Burrell	1569 METROPOLITAN AVE APT 2 I			BRONX	NY	10462-6221	US		My Dear Sister,  I Pray that your Heart is Comforted with the Beauty of these Flowers. May God continue to Heal your Heart. From Rhonda Brown	false		
113-4217976-7842612	53010606933114	2020-11-04T21:32:56+00:00	2020-11-04T13:32:56-08:00	2020-11-04T21:59:47+00:00	2020-11-07T07:59:59+00:00	-2	r7qb19hs5f047sg@marketplace.amazon.com	kelseyding	+1 929-436-4790 ext. 80061	ABM022	Delivery by Saturday | Purple Extravagance Bouquet by Arabella Bouquets	1	0	1	Expedited	Chris Moag	3737 NAVAJO ST			DENVER	CO	80211-2643	US		Sending you all my best wishes and many prayers for a speedy recovery. Enjoy the flowers! From Kelsey	false		
113-0204260-6312252	03479012002930	2020-11-04T21:30:57+00:00	2020-11-04T13:30:57-08:00	2020-11-04T22:01:00+00:00	2020-11-07T07:59:59+00:00	-2	bwm1j3sbd3b010t@marketplace.amazon.com	Rebecca	+1 480-618-5344 ext. 04763	ABR0022	Delivery by Friday | Arabella Farm Direct Bouquet of 12 Fresh Cut Pink Roses with a Free Glass Vase	1	0	1	Expedited	Nelly Gonzalez	3034 GOLDEN HILLS LN			MISSOURI CITY	TX	77459-3226	US			false		
114-2884473-6652208	43975770220650	2020-11-04T21:39:09+00:00	2020-11-04T13:39:09-08:00	2020-11-04T22:08:15+00:00	2020-11-07T07:59:59+00:00	-2	ryj68plw546qbjz@marketplace.amazon.com	Caitlin Kelley	+1 213-442-1463 ext. 85064	ABR0022	Delivery by Friday | Arabella Farm Direct Bouquet of 12 Fresh Cut Pink Roses with a Free Glass Vase	1	0	1	Expedited	Katie Engelmann	12548 FALK TRL			NORTHFIELD	MN	55057-4690	US		We are praying for you Katie!! From Caitlin and Jason Kelley	false		
111-9061052-2204208	17615748119658	2020-11-04T21:44:49+00:00	2020-11-04T13:44:49-08:00	2020-11-04T22:13:06+00:00	2020-11-07T07:59:59+00:00	-2	cvx3v5szyfq9wb3@marketplace.amazon.com	Mikayla	+1 213-442-1463 ext. 55332	ABR0022	Delivery by Friday | Arabella Farm Direct Bouquet of 12 Fresh Cut Pink Roses with a Free Glass Vase	1	0	1	Expedited	Mikayla	5630 ATLANTIC AVE APT 201			DELRAY BEACH	FL	33484-8206	US		Kirst,  I am so sorry for your loss! I am here for you, always! From Mikayla	false		
114-9223909-9574648	49247640444354	2020-11-04T21:49:33+00:00	2020-11-04T13:49:33-08:00	2020-11-04T22:18:34+00:00	2020-11-07T07:59:59+00:00	-2	tcdc88sbq987yz4@marketplace.amazon.com	spaghetti	+1 619-854-2705 ext. 99723	ABR012	Delivery by Monday | Arabella Farm Direct Bouquet of 18 Fresh Cut Pink Roses with a Free Glass Vase	1	0	1	Expedited	Arthur Merlino	117 PACIFIC AVE			STATEN ISLAND	NY	10312-6211	US		Merry Christmas from Bussville From spaghetti	false		
112-0424853-6476249	04026407662194	2020-11-04T22:14:02+00:00	2020-11-04T14:14:02-08:00	2020-11-04T22:40:25+00:00	2020-11-07T07:59:59+00:00	-2	vg33ss4pg15bmjb@marketplace.amazon.com	Debra J. O'Meara	+1 602-671-6610 ext. 53075	ABM010	The Spring Fling Bouquet by Arabella Bouquets with a Free Designer Glass Vase	1	0	1	Expedited	Alejandra Diaz	7904 APPOMATTOX DR			AUSTIN	TX	78745-6902	US		Happy Birthday Alejandra! Best wishes always. From 💜Dennis and Deb	false		
113-3278002-7198666	06115775176826	2020-11-04T22:17:54+00:00	2020-11-04T14:17:54-08:00	2020-11-04T22:45:19+00:00	2020-11-07T07:59:59+00:00	-2	2qsty96fj2jz0kq@marketplace.amazon.com	Sharada Atkuru	+1 602-671-6610 ext. 70129	ABR0022	Delivery by Friday | Arabella Farm Direct Bouquet of 12 Fresh Cut Pink Roses with a Free Glass Vase	1	0	1	Expedited	Megan Govender	4416 ESHERWOOD LN			CHARLOTTE	NC	28270-2509	US		Thank you so much Euvy and Megan for organizing an amazing gender reveal party!!  Especially under the time crunch and with all your work! Appreciate it! Lots of love, Shar and Nivi and future baby :) From Sharada Atkuru	false		
112-8297075-1450624	48947251900858	2020-11-04T22:29:13+00:00	2020-11-04T14:29:13-08:00	2020-11-04T22:50:52+00:00	2020-11-07T07:59:59+00:00	-2	yd1xpf1y2yjvwll@marketplace.amazon.com	Kathy Kinner	+1 480-618-5344 ext. 41226	ABR0022	Delivery by Friday | Arabella Farm Direct Bouquet of 12 Fresh Cut Pink Roses with a Free Glass Vase	1	0	1	Expedited	Josiah and Marley Saxe	75 WINTER WHEAT PL			SPRING	TX	77381-4355	US		Congratulations and welcome baby Piper Blue!  Enjoy your beautiful family.      Love 💘 From Jim and Kathy Kinner	false		
111-9854390-8918661	01559316276842	2020-11-04T22:30:21+00:00	2020-11-04T14:30:21-08:00	2020-11-04T22:52:44+00:00	2020-11-07T07:59:59+00:00	-2	79wh3m6x4nxpqm7@marketplace.amazon.com	Nadine Jenkins	+1 602-671-6610 ext. 35982	ABM025	Delivery by Monday | The Fell for You Bouquet by Arabella Bouquets	1	0	1	Expedited	Jama Deal	2549 CENTENNIAL PL			ATLANTA	GA	30349-8632	US			false		
113-2252932-8265063	59121737232194	2020-11-04T22:27:50+00:00	2020-11-04T14:27:50-08:00	2020-11-04T22:54:59+00:00	2020-11-07T07:59:59+00:00	-2	v8cv9r3cmxz7bd7@marketplace.amazon.com	Debra scec	+1 602-671-6610 ext. 07869	ABM022	Delivery by Saturday | Purple Extravagance Bouquet by Arabella Bouquets	1	0	1	Expedited	Patricia O’Connell	93 BOTTOMLEY AVE			CHERRY VALLEY	MA	01611-3135	US		Patti we are all thinking of you . Get better soon . The Endoscopy gang From Your Endoscopy Friends	false		
111-5467362-1909808	68942306312426	2020-11-04T22:39:22+00:00	2020-11-04T14:39:22-08:00	2020-11-04T22:57:30+00:00	2020-11-07T07:59:59+00:00	-2	b8nr1sxcww737cp@marketplace.amazon.com	carlos ortiz	+1 480-618-5344 ext. 76404	ABR0022	Delivery by Friday | Arabella Farm Direct Bouquet of 12 Fresh Cut Pink Roses with a Free Glass Vase	1	0	1	Expedited	Eileen Covarrubias	3641 SAN JOSE LN			SANTA BARBARA	CA	93105-3216	US		Happy birthday Mandy , I love you mi chula . Let me take you out on a date . Let's go to San Diego next weekend. From Papi	false		
114-5409291-6921801	61911574622066	2020-11-04T22:41:40+00:00	2020-11-04T14:41:40-08:00	2020-11-04T23:04:46+00:00	2020-11-07T07:59:59+00:00	-2	5prbyxsqwwq3xsm@marketplace.amazon.com	A J Vincent	+1 480-618-5344 ext. 32796	ABR0022	Delivery by Friday | Arabella Farm Direct Bouquet of 12 Fresh Cut Pink Roses with a Free Glass Vase	1	0	1	Expedited	Jack Rich	77 7TH AVE APT 17A			NEW YORK	NY	10011-6636	US		Dear Jack, HAPPY BIRTHDAY! You brighten my days, put a smile on my face & let me know what it's like to have a true friend. I cherish you. Love From AJ	false		
112-6252157-3000252	28476207844178	2020-11-04T22:35:11+00:00	2020-11-04T14:35:11-08:00	2020-11-04T23:05:07+00:00	2020-11-07T07:59:59+00:00	-2	4gc6kmqj1hxrnd3@marketplace.amazon.com	Jaime Dunn	+1 602-671-6610 ext. 62904	ABR0055	Delivery by Saturday | Arabella Farm Direct Bouquet of 12 Stems of Fresh Cut Hot Pink Roses in a Free Designer Glass Vase	1	0	1	Standard	Heather Uzarski	40 EVANSTON CT			STAFFORD	VA	22556-6340	US			false		
111-1816187-5144239	31477637586338	2020-11-04T22:41:18+00:00	2020-11-04T14:41:18-08:00	2020-11-04T23:11:16+00:00	2020-11-07T07:59:59+00:00	-2	w3ycj8d98t56z4r@marketplace.amazon.com	EG	+1 213-442-1463 ext. 41134	ABM020	Delivery by Saturday | The Sunset Bouquet by Arabella Bouquets	1	0	1	Expedited	Grewal	3263 EL SUYO DR			SAN RAMON	CA	94583-3050	US		Keeping you in our thoughts and sending our deepest condolences, From Iqbal, Dhiraj, Eric, and Sarah Grewal	false		
113-8026531-5014632	11429006608042	2020-11-04T22:44:26+00:00	2020-11-04T14:44:26-08:00	2020-11-04T23:13:22+00:00	2020-11-07T07:59:59+00:00	-2	b913xl30br2k90v@marketplace.amazon.com	leonid zokovski	+1 480-618-5344 ext. 03794	ABR0022	Delivery by Friday | Arabella Farm Direct Bouquet of 12 Fresh Cut Pink Roses with a Free Glass Vase	1	0	1	Expedited	Natalia Garland	125 W MAIN ST			SNOWVILLE	UT	84336-4567	US			false		
113-4086098-5845833	10548406551210	2020-11-04T22:50:59+00:00	2020-11-04T14:50:59-08:00	2020-11-04T23:17:23+00:00	2020-11-07T07:59:59+00:00	-2	gp83hr7b9tj2sh3@marketplace.amazon.com	ajibola	+1 480-618-5344 ext. 26641	ABR012	Delivery by Monday | Arabella Farm Direct Bouquet of 18 Fresh Cut Pink Roses with a Free Glass Vase	1	0	1	Expedited	Foxy Olugbode	93 CARNEGIE AVE			EAST ORANGE	NJ	07018-2930	US		Mrs. O,  Thank you for your love and support. My Wifey & My Queen. You are gift & are truly appreciated. Thinking of you. I love you. From Tah	false		
113-8153860-7605004	55075705066002	2020-11-04T22:50:32+00:00	2020-11-04T14:50:32-08:00	2020-11-04T23:18:31+00:00	2020-11-07T07:59:59+00:00	-2	984fpydw89vx33r@marketplace.amazon.com	christopher rogers	+1 213-442-1463 ext. 30152	ABR0022	Delivery by Friday | Arabella Farm Direct Bouquet of 12 Fresh Cut Pink Roses with a Free Glass Vase	1	0	1	Expedited	Melody Alvarado	119 TOLCARNE DR			HUTTO	TX	78634-5563	US		Happy Birthday Nanny!! We love you and miss you!! From christopher rogers	false		
114-1186367-5775446	61528954145634	2020-11-04T23:06:40+00:00	2020-11-04T15:06:40-08:00	2020-11-04T23:32:47+00:00	2020-11-07T07:59:59+00:00	-2	wxgbrbrh040ft7n@marketplace.amazon.com	Jasmine James	+1 602-671-6610 ext. 06369	ABM0044	Delivery by Monday | Arabella Farm Direct Bouquet of Fresh Cut Blue Hydrangea with a Free Glass Vase	1	0	1	Expedited	Gabriella DeGray	3707 PAIGEWOOD DR			PEARLAND	TX	77584-9461	US		Congratulations sweetie From Jasmine James	false		
112-3868518-1281067	44334136022754	2020-11-04T23:05:23+00:00	2020-11-04T15:05:23-08:00	2020-11-04T23:44:54+00:00	2020-11-07T07:59:59+00:00	-2	4r5ptfsn7sd1xp4@marketplace.amazon.com	Patricia M. Nieto	+1 213-442-1463 ext. 59160	ABR004	Delivery by Saturday | Arabella Farm Direct Bouquet of 12 Fresh Cut Yellow Roses with a Free Glass Vase	1	0	1	Expedited	Chris Lara	1202 ARCADIA DR			HARLINGEN	TEXAS	78550-9006	US		Happy Birthday Mom! Hope these yellow roses bring you some sunshine on your Birthday :) Love Patty, Josh and the boys	false		
113-6291805-5399401	11587428993034	2020-11-04T23:25:08+00:00	2020-11-04T15:25:08-08:00	2020-11-04T23:50:02+00:00	2020-11-07T07:59:59+00:00	-2	25ydxyf5nrrtckp@marketplace.amazon.com	Peter Forras	+1 619-854-2705 ext. 12169	ABR0022	Delivery by Friday | Arabella Farm Direct Bouquet of 12 Fresh Cut Pink Roses with a Free Glass Vase	1	0	1	Expedited	Kevin Kelly	2920 WINDMILL LN			FARMERS BRANCH	TX	75234-2118	US		So thankful to get a glimpse in the beauty of your relationship this year. I'm excited for the baby on the way and to see you step into parenthood. I'm grateful for the time I've had with you. Happy anniversary Kevin & Grace! From Peter Varberg	false		
111-5768957-5781832	70193986795298	2020-11-04T23:33:48+00:00	2020-11-04T15:33:48-08:00	2020-11-05T00:04:10+00:00	2020-11-07T07:59:59+00:00	-2	w2c2w1z2b9fbmrt@marketplace.amazon.com	George Riddiford	+1 602-671-6610 ext. 17164	ABR001	Delivery by Saturday | Arabella Bouquets 12 Stems of Fresh Cut Red Roses in a Free Designer Glass Vase	1	0	1	Expedited	George Riddiford	350 S COLLIER BLVD UNIT 1105			MARCO ISLAND	FL	34145-4915	US			false		
112-7287534-6802657	35523142959034	2020-11-04T23:49:35+00:00	2020-11-04T15:49:35-08:00	2020-11-05T00:16:28+00:00	2020-11-07T07:59:59+00:00	-2	jk8wr3qtjmlsyhp@marketplace.amazon.com	Juan Reyes	+1 602-671-6610 ext. 95818	ABR0055	Delivery by Saturday | Arabella Farm Direct Bouquet of 12 Stems of Fresh Cut Hot Pink Roses in a Free Designer Glass Vase	1	0	1	Expedited	Angelita Everson	9809 KNOX DR			OVERLAND PARK	KS	66212-5227	US			false		
112-8840380-7921021	12536636692962	2020-11-04T23:54:30+00:00	2020-11-04T15:54:30-08:00	2020-11-05T00:23:33+00:00	2020-11-07T07:59:59+00:00	-2	nb7vn947fk92ms9@marketplace.amazon.com	James Casion	+1 213-442-1463 ext. 10463	ABR0022	Delivery by Friday | Arabella Farm Direct Bouquet of 12 Fresh Cut Pink Roses with a Free Glass Vase	1	0	1	Expedited	Deshauna Choates	5005 LOSEE RD APT 2037	LAS VEGAS NV		NORTH LAS VEGAS	NV	89081-2498	US			false		
112-7373397-8087446	68194508115314	2020-11-05T00:01:45+00:00	2020-11-04T16:01:45-08:00	2020-11-05T00:31:11+00:00	2020-11-07T07:59:59+00:00	-2	pcblj4g86nvlg2l@marketplace.amazon.com	C	+1 619-854-2705 ext. 91628	ABR0022	Delivery by Friday | Arabella Farm Direct Bouquet of 12 Fresh Cut Pink Roses with a Free Glass Vase	1	0	1	Expedited	Audreyann Herring	222 S EVERGREEN RD	ORCHARD CREST ORCHARD CREST APT 36		SPOKANE VALLEY	WA	99216-1868	US		Happy Birthday Mom! We hope you have a wonderful day! Love, Craig & Becky From Craig & Beccky	false		
112-6443262-0435467	35041452997338	2020-11-05T00:07:34+00:00	2020-11-04T16:07:34-08:00	2020-11-05T00:31:11+00:00	2020-11-07T07:59:59+00:00	-2	hgz80qvq2ppc4m1@marketplace.amazon.com	Rita Yakubik	+1 602-671-6610 ext. 91073	ABR0055	Delivery by Saturday | Arabella Farm Direct Bouquet of 12 Stems of Fresh Cut Hot Pink Roses in a Free Designer Glass Vase	1	0	1	Expedited	Tricia Bullard	1502 SADDLECREEK DR			HOUSTON	TX	77090-2136	US		Dear Tricia, hope these flowers will keep a smile on your beautiful face. So happy your surgery went well and praying for your complete recovery. All my love, Rita From Rita Yakubik	false		
111-3689150-5797006	11346521775482	2020-11-05T00:10:56+00:00	2020-11-04T16:10:56-08:00	2020-11-05T00:38:48+00:00	2020-11-07T07:59:59+00:00	-2	pg355w9v3ldrhz3@marketplace.amazon.com	George Onimus	+1 929-436-4790 ext. 04053	ABR0055	Delivery by Saturday | Arabella Farm Direct Bouquet of 12 Stems of Fresh Cut Hot Pink Roses in a Free Designer Glass Vase	1	0	1	Expedited	Lucy Crete	8 HARVEST WOODS LN			HIGGANUM	CT	06441-4463	US		Happy sweet 16 Lucy! From The Onimus Family	false		
111-2757173-7612202	29840486494690	2020-11-05T00:12:48+00:00	2020-11-04T16:12:48-08:00	2020-11-05T00:41:45+00:00	2020-11-07T07:59:59+00:00	-2	861jpm36jcqplcw@marketplace.amazon.com	herlinda Sanchez	+1 480-618-5344 ext. 66411	ABM010	The Spring Fling Bouquet by Arabella Bouquets with a Free Designer Glass Vase	1	0	1	Expedited	Memorial Medical Center	2450 S TELSHOR BLVD RM 409			LAS CRUCES	NM	88011-5069	US		Sister,  Praying for a speedy recovery.  Love Fred and Gloria	false		
113-3630827-2373846	63200602052858	2020-11-05T00:13:29+00:00	2020-11-04T16:13:29-08:00	2020-11-05T00:43:54+00:00	2020-11-07T07:59:59+00:00	-2	9mhhkbppv3t2mpk@marketplace.amazon.com	John G. Gurley	+1 415-851-9136 ext. 50237	ABR0055	Delivery by Saturday | Arabella Farm Direct Bouquet of 12 Stems of Fresh Cut Hot Pink Roses in a Free Designer Glass Vase	1	0	1	Expedited	John G. Gurley	620 SAND HILL RD APT 418-E			PALO ALTO	CA	94304-2079	US			false		
113-3630827-2373846	27308601024146	2020-11-05T00:13:29+00:00	2020-11-04T16:13:29-08:00	2020-11-05T00:43:54+00:00	2020-11-07T07:59:59+00:00	-2	9mhhkbppv3t2mpk@marketplace.amazon.com	John G. Gurley	+1 415-851-9136 ext. 50237	ABR0022	Delivery by Friday | Arabella Farm Direct Bouquet of 12 Fresh Cut Pink Roses with a Free Glass Vase	1	0	1	Expedited	John G. Gurley	620 SAND HILL RD APT 418-E			PALO ALTO	CA	94304-2079	US			false		
113-7981452-3249865	43668720061882	2020-11-05T00:17:42+00:00	2020-11-04T16:17:42-08:00	2020-11-05T00:44:48+00:00	2020-11-07T07:59:59+00:00	-2	vt1b2jcg8xj5611@marketplace.amazon.com	Amanda	+1 415-851-9136 ext. 39279	ABR0022	Delivery by Friday | Arabella Farm Direct Bouquet of 12 Fresh Cut Pink Roses with a Free Glass Vase	1	0	1	Expedited	Alice Bertholf	3855 SAILMAKER LN			DELAND	FL	32724-8252	US		Happy Birthday Grandma!!!!!! Mandy, Maddy, Sean & Bill From Amanda	false		
114-1252603-3685013	19139222083770	2020-11-05T00:31:07+00:00	2020-11-04T16:31:07-08:00	2020-11-05T00:54:27+00:00	2020-11-07T07:59:59+00:00	-2	v8xwrjp0xbc1bx9@marketplace.amazon.com	Andrea Hancock	+1 213-442-1463 ext. 30937	ABR0033	Delivery by Saturday | Arabella Farm Direct Bouquet of 12 Fresh Cut Orange Roses with a Free Glass Vase	1	0	1	Expedited	Karen Jones Carroll	1477 LOCHMOOR BLVD			GROSSE POINTE WOODS	MI	48236-1760	US		Happy Bday Karen! We hope you have a fabulous day! We thought these flowers would make you smile. Also cheez-its are good for you since they are orange like a carrot so we wanted to send you a healthy treat for your bday! From Love- Ya, JJ, H&C	false		
113-7033674-2265068	34313574760482	2020-11-05T00:45:28+00:00	2020-11-04T16:45:28-08:00	2020-11-05T00:57:18+00:00	2020-11-07T07:59:59+00:00	-2	nbv2zf53ztjs97n@marketplace.amazon.com	Aaron Duda	+1 213-442-1463 ext. 44640	ABR0022	Delivery by Friday | Arabella Farm Direct Bouquet of 12 Fresh Cut Pink Roses with a Free Glass Vase	1	0	1	Expedited	Stacy Musel	2050 BENJAMIN FRANKLIN DR UNIT 701A			SARASOTA	FL	34236-2385	US		Thanks for all the help last week! Love you! From Aaron	false		
111-4537408-5412219	02785529261498	2020-11-05T00:45:02+00:00	2020-11-04T16:45:02-08:00	2020-11-05T01:14:02+00:00	2020-11-07T07:59:59+00:00	-2	l34k4378mw1f5mj@marketplace.amazon.com	Mary Poe	+1 415-851-9136 ext. 93232	ABM022	Delivery by Saturday | Purple Extravagance Bouquet by Arabella Bouquets	1	0	1	Standard	Mrs Harold Huber	2752 HERITAGE RD			MAHASKA	KS	66955-9113	US		Happy Birthday. I love you. From Mary Poe	false		
113-2572102-5189841	69982041718346	2020-11-05T00:55:22+00:00	2020-11-04T16:55:22-08:00	2020-11-05T01:23:35+00:00	2020-11-07T07:59:59+00:00	-2	rqlr0vzgdhtmr54@marketplace.amazon.com	Jason Sproles	+1 480-618-5344 ext. 35671	ABR0022	Delivery by Friday | Arabella Farm Direct Bouquet of 12 Fresh Cut Pink Roses with a Free Glass Vase	1	0	1	Expedited	Jean McNamara	2074 CRESTVIEW CT			MIDDLEBURG	FL	32068-3687	US		Hi Jean, We love you and Miss you, We hope you had a wicked awesome Birthday!	false		
113-8561436-9174619	39096807573506	2020-11-05T01:01:23+00:00	2020-11-04T17:01:23-08:00	2020-11-05T01:27:53+00:00	2020-11-07T07:59:59+00:00	-2	yck0m4nm5xtf71v@marketplace.amazon.com	Leeminho	+1 602-671-6610 ext. 15945	ABR0022	Delivery by Friday | Arabella Farm Direct Bouquet of 12 Fresh Cut Pink Roses with a Free Glass Vase	1	0	1	Expedited	Carla Kathryn C. Tanaka	1515 MAIN ST APT 333			HOUSTON	TX	77002-7555	US		Happy birthday, Carla! You’re a blessing to all of us. Thank you for your love and care. We pray for your safety and happiness all the time. Stay healthy and driven. Proud of you always. We miss and love you so much! From Mama, Tin, Kim, Kenj	false		
113-0236308-2637865	04172114127978	2020-11-05T01:11:16+00:00	2020-11-04T17:11:16-08:00	2020-11-05T01:40:22+00:00	2020-11-07T07:59:59+00:00	-2	py7q1wvkx8vxx8j@marketplace.amazon.com	Gary	+1 480-618-5344 ext. 71721	ABM022	Delivery by Saturday | Purple Extravagance Bouquet by Arabella Bouquets	1	0	1	Expedited	Ned and Joy Walker	25919 ORCHARD KNOLL LN			KATY	TX	77494-1371	US			false		
113-4897249-0682619	28300917231906	2020-11-05T01:17:51+00:00	2020-11-04T17:17:51-08:00	2020-11-05T01:44:41+00:00	2020-11-07T07:59:59+00:00	-2	6bd4yqf2559lkj4@marketplace.amazon.com	Wolfram Schynoll	+1 619-854-2705 ext. 25887	ABR0033	Delivery by Saturday | Arabella Farm Direct Bouquet of 12 Fresh Cut Orange Roses with a Free Glass Vase	1	0	1	Expedited	John and Peg DeBates	23601 S DESERT STAR DR			CHANDLER	ARIZONA	85248-0811	US		Happy Birthday Mom! Enjoy your special day. Wishing you much fun with everyone. We love you, Nancy and Wolf From Wolfram Schynoll	false		
114-4060995-1858654	18921587941954	2020-11-05T01:26:57+00:00	2020-11-04T17:26:57-08:00	2020-11-05T01:55:41+00:00	2020-11-07T07:59:59+00:00	-2	9bhwlqkvhdymb98@marketplace.amazon.com	Jack Boudreaux	+1 602-671-6610 ext. 54255	ABM022	Delivery by Saturday | Purple Extravagance Bouquet by Arabella Bouquets	1	0	1	Expedited	Miller Peachey	250 W GLENN AVE APT 730			AUBURN	AL	36830-4744	US		Remember you are amazing and strong. Don't let anyone let you forget that, or that you aren't loved. From Jack Boudreaux	false		
114-5163487-3645812	05583982172770	2020-11-05T01:46:40+00:00	2020-11-04T17:46:40-08:00	2020-11-05T02:16:53+00:00	2020-11-07T07:59:59+00:00	-2	vjwb5qbzllc902s@marketplace.amazon.com	Max A Louis	+1 415-851-9136 ext. 81926	ABR0022	Delivery by Friday | Arabella Farm Direct Bouquet of 12 Fresh Cut Pink Roses with a Free Glass Vase	1	0	1	Expedited	Wilsa Rhuma	2525 NOSTRAND AVE APT 7K			BROOKLYN	NY	11210-4721	US			false		
112-0609222-9792254	44226507823522	2020-11-05T01:50:51+00:00	2020-11-04T17:50:51-08:00	2020-11-05T02:18:39+00:00	2020-11-07T07:59:59+00:00	-2	lsw1mdgrx7299tp@marketplace.amazon.com	Malthi Venkat	+1 602-671-6610 ext. 66936	ABR0055	Delivery by Saturday | Arabella Farm Direct Bouquet of 12 Stems of Fresh Cut Hot Pink Roses in a Free Designer Glass Vase	1	0	1	Expedited	Pavithra Venkat	25 REATA PL			OAKLAND	CA	94618-1937	US		Happy Anniversary!  Love Mom & Dad From Malthi & Mani Venkat	false		
114-5993836-8145050	64963157150138	2020-11-05T01:51:08+00:00	2020-11-04T17:51:08-08:00	2020-11-05T02:21:25+00:00	2020-11-07T07:59:59+00:00	-2	y5khskhgz6rjnhq@marketplace.amazon.com	yoo m seo	+1 602-671-6610 ext. 06916	ABR0022	Delivery by Friday | Arabella Farm Direct Bouquet of 12 Fresh Cut Pink Roses with a Free Glass Vase	1	0	1	Expedited	Amy Lister	23807 SEVENTH HEAVEN			KATY	TX	77494-0171	US			false		
113-5782933-5165047	23310780600778	2020-11-05T02:35:12+00:00	2020-11-04T18:35:12-08:00	2020-11-05T02:36:06+00:00	2020-11-07T07:59:59+00:00	-2	9t2hccwqj5pbxrj@marketplace.amazon.com	JUNZHENG YANG	+1 213-442-1463 ext. 03389	ABR0066	Delivery by Saturday | Arabella Bouquets 12 Stems of Fresh Cut White Roses in a Free Designer Glass Vase	1	0	1	Expedited	Ms. and Mr. McChesney	40 UPLAND RD			DEDHAM	MA	02026-6327	US		Dear Ms. McChesney and family,  Please accept our condolences, and know that our thoughts are with you during these challenging times. From The ASO Officers	false		
114-3408280-9554661	69313481013098	2020-11-05T02:09:27+00:00	2020-11-04T18:09:27-08:00	2020-11-05T02:37:58+00:00	2020-11-07T07:59:59+00:00	-2	ly09qf2g1rcgr42@marketplace.amazon.com	Joe Plubell	+1 213-442-1463 ext. 28333	ABM022	Delivery by Saturday | Purple Extravagance Bouquet by Arabella Bouquets	1	0	1	Expedited	Arlene Plubell	RTE 879 -- LONG DRIVEWAY ACROSS FROM USPS	5 FRENCHVILLE RD		FRENCHVILLE	PA	16836-8845	US		Happy Birthday Mom! Wish we could be there to celebrate but hope this will brighten up your day! From Love- Joe, Maria and Jess	false		
111-0723749-9550608	33968073606074	2020-11-05T02:12:53+00:00	2020-11-04T18:12:53-08:00	2020-11-05T02:40:55+00:00	2020-11-07T07:59:59+00:00	-2	1c0kmhmxgs44kcw@marketplace.amazon.com	Katherine Stauffer	+1 213-442-1463 ext. 55913	ABR0022	Delivery by Friday | Arabella Farm Direct Bouquet of 12 Fresh Cut Pink Roses with a Free Glass Vase	1	0	1	Expedited	Kelly Schneible	1198 LINFORD CIR			MAINEVILLE	OH	45039-7931	US		Get well soon so we can go for margaritas! From Joe and Suzie	false		
113-1384845-9821030	04603077949290	2020-11-05T02:21:28+00:00	2020-11-04T18:21:28-08:00	2020-11-05T02:44:13+00:00	2020-11-07T07:59:59+00:00	-2	jt1b54ltxb7yl42@marketplace.amazon.com	James Contizano	+1 415-851-9136 ext. 34004	ABR0022	Delivery by Friday | Arabella Farm Direct Bouquet of 12 Fresh Cut Pink Roses with a Free Glass Vase	1	0	1	Expedited	Ann Ward	802 SUNSHINE DR			MOUNTAIN GROVE	MO	65711-2955	US		We are praying for a quick recovery! Blessings from the Contizano family. From Jim & Jenny Contizano	false		
113-5215508-3347406	07269145687090	2020-11-05T02:14:29+00:00	2020-11-04T18:14:29-08:00	2020-11-05T02:45:06+00:00	2020-11-07T07:59:59+00:00	-2	zwhwqw94g1rw8rs@marketplace.amazon.com	Rodney Campbell	+1 213-442-1463 ext. 66989	ABR0022	Delivery by Friday | Arabella Farm Direct Bouquet of 12 Fresh Cut Pink Roses with a Free Glass Vase	1	0	1	Expedited	Rodney C Campbell	5416 156TH AVE SE			BELLEVUE	WA	98006-5112	US			false		
112-1214978-7572237	02235984127682	2020-11-05T02:19:03+00:00	2020-11-04T18:19:03-08:00	2020-11-05T02:47:41+00:00	2020-11-07T07:59:59+00:00	-2	32hvkcxn3hqzpy3@marketplace.amazon.com	marisol sanchez	+1 602-671-6610 ext. 53080	ABR0022	Delivery by Friday | Arabella Farm Direct Bouquet of 12 Fresh Cut Pink Roses with a Free Glass Vase	1	0	1	Expedited	Marina Duran	4481 HILLTOP DR			SAN DIEGO	CA	92102-3693	US		Feliz cumpleaños de tu familia de WA ❤️ From Sanchez Best y Maru	false		
114-8003773-2823466	46295878368642	2020-11-05T02:35:12+00:00	2020-11-04T18:35:12-08:00	2020-11-05T02:51:55+00:00	2020-11-07T07:59:59+00:00	-2	2kr4bmsl63vrgmv@marketplace.amazon.com	David Logan	+1 602-671-6610 ext. 70946	ABM020	Delivery by Saturday | The Sunset Bouquet by Arabella Bouquets	1	0	1	Standard	Mariana buentello	16626 SPERRY GARDENS DR			HOUSTON	TX	77095-5553	US		Mariana,    Even though we will be oceans apart, you are with me night and day. I can’t wait to see you in Egypt, when I come back, and everyday after babe! From David Logan	false		
111-6980621-9180203	39818865206122	2020-11-05T02:24:03+00:00	2020-11-04T18:24:03-08:00	2020-11-05T02:52:14+00:00	2020-11-07T07:59:59+00:00	-2	bkzz1l11r1n3vgh@marketplace.amazon.com	Laurie Topolski	+1 929-436-4790 ext. 06472	ABR0055	Delivery by Saturday | Arabella Farm Direct Bouquet of 12 Stems of Fresh Cut Hot Pink Roses in a Free Designer Glass Vase	1	0	1	Expedited	Anita Court	4 PINE CONE LN			SLEEPY HOLLOW	IL	60118-1710	US		God Bless and heal you quickly. Prayers and love being sent with these flowers.💞 From Laurie Topolski	false		
112-4545804-9730603	13392227542474	2020-11-05T02:24:06+00:00	2020-11-04T18:24:06-08:00	2020-11-05T02:53:47+00:00	2020-11-07T07:59:59+00:00	-2	s2z3wcwtf68wlx2@marketplace.amazon.com	John B Curry	+1 619-854-2705 ext. 55019	ABR0022	Delivery by Friday | Arabella Farm Direct Bouquet of 12 Fresh Cut Pink Roses with a Free Glass Vase	1	0	1	Expedited	Ashley Cutno	1303 MARTIN ST			JACKSON	TN	38301-4139	US		Love you Ashley. From John B Curry	false		
114-5663959-6614628	50232534132690	2020-11-05T02:46:23+00:00	2020-11-04T18:46:23-08:00	2020-11-05T03:03:03+00:00	2020-11-07T07:59:59+00:00	-2	ny5k38j8lwmz6m1@marketplace.amazon.com	Penny77	+1 602-671-6610 ext. 77381	ABR0022	Delivery by Friday | Arabella Farm Direct Bouquet of 12 Fresh Cut Pink Roses with a Free Glass Vase	1	0	1	Expedited	Lorena Gonzalez	1405 PRAIRIE POINTE DR			SOUTH ELGIN	IL	60177-1321	US		Lorena, We are so deeply sorry for your loss.  You are in our thoughts and prayers.  With love, Nuong Lam, Carol Jensen, and Region 10/Refi Team From Nuong Lam	false		
111-0593929-9012255	59773012644066	2020-11-05T02:43:23+00:00	2020-11-04T18:43:23-08:00	2020-11-05T03:11:04+00:00	2020-11-07T07:59:59+00:00	-2	42kfckfspmr0rt9@marketplace.amazon.com	Jeremy Peterson	+1 415-851-9136 ext. 07201	ABR0022	Delivery by Friday | Arabella Farm Direct Bouquet of 12 Fresh Cut Pink Roses with a Free Glass Vase	1	0	1	Expedited	Sue Peterson	3407 KINSEY AVE			DES MOINES	IA	50317-2713	US		Happy Birthday Mom!  We decided to get you flowers and a Wisconsin victory for Biden. Love you! From Jeremy, Meghan, and kids	false		
114-0040343-9730644	45710010757722	2020-11-05T02:43:52+00:00	2020-11-04T18:43:52-08:00	2020-11-05T03:13:01+00:00	2020-11-07T07:59:59+00:00	-2	vjfqs74l0m2nf8t@marketplace.amazon.com	Derek S. Anderson	+1 602-671-6610 ext. 41215	ABR0022	Delivery by Friday | Arabella Farm Direct Bouquet of 12 Fresh Cut Pink Roses with a Free Glass Vase	1	0	1	Expedited	Karen Carter	2251 W TARLETON ST APT 703			STEPHENVILLE	TX	76401-2804	US		Karen, I wish you a wonderful Birthday! From DS	false		
114-9393235-8568242	23408087362290	2020-11-05T02:47:42+00:00	2020-11-04T18:47:42-08:00	2020-11-05T03:13:16+00:00	2020-11-07T07:59:59+00:00	-2	150y1yycml848mg@marketplace.amazon.com	jonathan hildebrandt	+1 929-436-4790 ext. 34249	ABR0022	Delivery by Friday | Arabella Farm Direct Bouquet of 12 Fresh Cut Pink Roses with a Free Glass Vase	1	0	1	Expedited	Marlys Sinsel	426 N HUBBARD AVE			MINDEN	NE	68959-1748	US		Happy Birthday (Great) Grandma! Hope you have a wonderful day and great year ahead! We love you and miss you. From Heidi, Jonathan, and Preston Hildebrandt	false		
111-4032204-9633807	45083098529834	2020-11-05T02:45:09+00:00	2020-11-04T18:45:09-08:00	2020-11-05T03:14:04+00:00	2020-11-07T07:59:59+00:00	-2	66mc10d9bj88kys@marketplace.amazon.com	Montez Crump	+1 619-854-2705 ext. 63653	ABR0055	Delivery by Saturday | Arabella Farm Direct Bouquet of 12 Stems of Fresh Cut Hot Pink Roses in a Free Designer Glass Vase	1	0	1	Expedited	Montez Crump	1017 S 5TH ST			PHILADELPHIA	PA	19147-4108	US		I love you Mrs.Crump this is just the beginning of our Evolution❤️ From Montez Crump	false		
112-5660339-5836235	26103081484954	2020-11-05T02:47:11+00:00	2020-11-04T18:47:11-08:00	2020-11-05T03:14:25+00:00	2020-11-07T07:59:59+00:00	-2	svxlqpx61wdp43y@marketplace.amazon.com	Stephen Olson	+1 619-854-2705 ext. 22390	ABM022	Delivery by Saturday | Purple Extravagance Bouquet by Arabella Bouquets	1	0	1	Standard	Meyers Family	3648 LAFAYETTE AVE			OMAHA	NE	68131-1364	US		Ps 37:11 But the meek will possess the earth, And they will find exquisite delight in the abundance of peace. Looking forward to us all welcoming Nastasha back! Love you guys ;) From Stephen Olson	false		
114-0957377-5626647	55206979190530	2020-11-05T02:50:59+00:00	2020-11-04T18:50:59-08:00	2020-11-05T03:21:09+00:00	2020-11-07T07:59:59+00:00	-2	814f941041d208p@marketplace.amazon.com	Cathy Allen	+1 213-442-1463 ext. 68042	ABM0044	Delivery by Monday | Arabella Farm Direct Bouquet of Fresh Cut Blue Hydrangea with a Free Glass Vase	1	0	1	Expedited	Cathy Allen	8810 TR 239			Lakeview	Ohio	43331	US			false		
112-1336619-5133839	16446711576882	2020-11-05T02:59:20+00:00	2020-11-04T18:59:20-08:00	2020-11-05T03:22:08+00:00	2020-11-07T07:59:59+00:00	-2	708qts1yk4mzg0v@marketplace.amazon.com	Justin B Sears Motley	+1 602-671-6610 ext. 60389	ABR0022	Delivery by Friday | Arabella Farm Direct Bouquet of 12 Fresh Cut Pink Roses with a Free Glass Vase	1	0	1	Expedited	Victraya Snead	3322 ASH DR APT 11312			LAKE ORION	MI	48359-1070	US		Congrats on getting your lash order. Your business will soon be off the ground and you are knocking at the door of Success.  I miss you a lot and I love you through and through. Enjoy hope this keeps your day Bright. From J Mot	false		
114-8110820-3174661	28274447221818	2020-11-05T02:54:20+00:00	2020-11-04T18:54:20-08:00	2020-11-05T03:22:28+00:00	2020-11-07T07:59:59+00:00	-2	3prdbkh7gmqnnl8@marketplace.amazon.com	Bev Hicks	+1 602-671-6610 ext. 59062	ABR0022	Delivery by Friday | Arabella Farm Direct Bouquet of 12 Fresh Cut Pink Roses with a Free Glass Vase	1	0	1	Expedited	Gloria Brickman	4105 OLD MILL RD			WACO	TX	76710-1310	US			false		
114-9119225-7041841	42909796668290	2020-11-05T02:58:07+00:00	2020-11-04T18:58:07-08:00	2020-11-05T03:27:39+00:00	2020-11-07T07:59:59+00:00	-2	mr7fkfk8g9hm2yr@marketplace.amazon.com	Nathalie Peña	+1 602-671-6610 ext. 57389	ABR0022	Delivery by Friday | Arabella Farm Direct Bouquet of 12 Fresh Cut Pink Roses with a Free Glass Vase	1	0	1	Expedited	Ana de Peña	1201 TANGIER ST			CORAL GABLES	FL	33134-2484	US		Feliz Cumpleaños Nana!  Con cariño, Nathalie, Jonatan y Xavi From Nathalie Peña	false		
112-1853556-4383425	23464193910714	2020-11-05T03:07:51+00:00	2020-11-04T19:07:51-08:00	2020-11-05T03:30:02+00:00	2020-11-07T07:59:59+00:00	-2	h4yjqqrm75gycyl@marketplace.amazon.com	Ahmed Taha	+2174171789	ABR0022	Delivery by Friday | Arabella Farm Direct Bouquet of 12 Fresh Cut Pink Roses with a Free Glass Vase	1	0	1	Expedited	Tessneem Turkmani	3986 GRASSLAND WAY			EAST LANSING	MI	48823-6189	US		Tessneem, May Allah Swt reward you with blessings for the surgery and recovery you’ve undergone and ease your recovery and preserve your health and well being always! We love you and wish you all the best. From Taha family	false		
112-8777407-1801030	59944505402154	2020-11-05T03:04:59+00:00	2020-11-04T19:04:59-08:00	2020-11-05T03:33:11+00:00	2020-11-07T07:59:59+00:00	-2	dpnr6jpbmfjwk4x@marketplace.amazon.com	Marina	+1 480-618-5344 ext. 29023	ABR0022	Delivery by Friday | Arabella Farm Direct Bouquet of 12 Fresh Cut Pink Roses with a Free Glass Vase	1	0	1	Expedited	Daphne Eckard	3505 N 950 E			NORTH OGDEN	UT	84414-7573	US			false		
112-1047307-3876240	11762561724354	2020-11-05T03:11:53+00:00	2020-11-04T19:11:53-08:00	2020-11-05T03:41:04+00:00	2020-11-07T07:59:59+00:00	-2	s2wvws31n78sbdy@marketplace.amazon.com	Melanie Vernacchia	+1 619-854-2705 ext. 13671	ABR004	Delivery by Saturday | Arabella Farm Direct Bouquet of 12 Fresh Cut Yellow Roses with a Free Glass Vase	1	0	1	Expedited	Stephanie Kollet	4 BELMONT ST			HAMDEN	CT	06517-2809	US		Happy Birthday! We love you. 💕  enjoy your day. From Melanie, Antonio, Matteo & Luciano	true		
111-5837495-6369001	62894362864402	2020-11-05T03:40:37+00:00	2020-11-04T19:40:37-08:00	2020-11-05T03:41:26+00:00	2020-11-07T07:59:59+00:00	-2	zvhsc2hn36xr91p@marketplace.amazon.com	Robert E Macdonald	+1 415-851-9136 ext. 04335	ABM020	Delivery by Saturday | The Sunset Bouquet by Arabella Bouquets	1	0	1	Expedited	Ann-Kersti Lundberg	136 SE 2ND AVE			BOYNTON BEACH	FL	33435-4568	US			false		
114-3541375-4021014	51808391425282	2020-11-05T03:12:04+00:00	2020-11-04T19:12:04-08:00	2020-11-05T03:41:37+00:00	2020-11-07T07:59:59+00:00	-2	kpj8kk49kz3bzn0@marketplace.amazon.com	Courtney R. Donovan	+1 213-442-1463 ext. 84882	ABM022	Delivery by Saturday | Purple Extravagance Bouquet by Arabella Bouquets	1	0	1	Expedited	Larry Martens	206 CRAFTSMAN DR			NEW BERN	NC	28562-2307	US		Happy Veterans Day! Thank you for your service! We love you, love the Donovan’s! From Courtney R. Donovan	false		
112-1807135-3369852	18126155242954	2020-11-05T03:17:48+00:00	2020-11-04T19:17:48-08:00	2020-11-05T03:44:17+00:00	2020-11-07T07:59:59+00:00	-2	pdvqyx0jxptb587@marketplace.amazon.com	Katherine G Oddi	+1 480-618-5344 ext. 03443	ABM010	The Spring Fling Bouquet by Arabella Bouquets with a Free Designer Glass Vase	1	0	1	Expedited	Nicole Pizzaloto	7 LORRAINE ST			GLEN RIDGE	NJ	07028-2027	US		Happy Birthday Pizz!!!!  We love you!!! Celli, Mags, Alli, Sandy, Spina, Betsy, and Kate From Katherine G Oddi	false		
114-9693281-8709820	25910152912362	2020-11-05T03:23:30+00:00	2020-11-04T19:23:30-08:00	2020-11-05T03:52:36+00:00	2020-11-07T07:59:59+00:00	-2	19v5x6wtchj009t@marketplace.amazon.com	Joseph Rioux	+1 480-618-5344 ext. 58430	ABM022	Delivery by Saturday | Purple Extravagance Bouquet by Arabella Bouquets	1	0	1	Expedited	Peggy Descoteaux	2151 SUNNYSIDE AVE APT 127			CLOVIS	CA	93611-4045	US		Happy Birthday Grandma, thinking of you always. Love, Katie & Family. From Joseph Rioux	false		
112-9653705-0332203	35044512308450	2020-11-05T03:27:33+00:00	2020-11-04T19:27:33-08:00	2020-11-05T03:56:02+00:00	2020-11-07T07:59:59+00:00	-2	wpt7r0v27ndv7k3@marketplace.amazon.com	Aaron McElhattan	+1 602-671-6610 ext. 93216	ABM010	The Spring Fling Bouquet by Arabella Bouquets with a Free Designer Glass Vase	1	0	1	Expedited	Val and Adam McQueen	2833 E NICHOLS CIR			CENTENNIAL	CO	80122-3475	US			false		
114-6842715-0746603	27129326303098	2020-11-05T03:32:16+00:00	2020-11-04T19:32:16-08:00	2020-11-05T04:00:05+00:00	2020-11-07T07:59:59+00:00	-2	6prstpgcgj73gn8@marketplace.amazon.com	Rukome	+1 213-442-1463 ext. 42436	ABR001	Delivery by Saturday | Arabella Bouquets 12 Stems of Fresh Cut Red Roses in a Free Designer Glass Vase	1	0	1	Expedited	Maria Gemma Smith	9122 50TH AVE			ELMHURST	NY	11373-4000	US		I want to be the only one that sends you flowers, I want to be the only man in your life that makes you happy and smile. You are the only woman that completes me. I love you. From Sean	false		
112-6783962-0738648	26918735565922	2020-11-05T03:37:07+00:00	2020-11-04T19:37:07-08:00	2020-11-05T04:04:25+00:00	2020-11-07T07:59:59+00:00	-2	hbjm56hlnzx2h00@marketplace.amazon.com	Naomi Lee Bloom	+1 929-436-4790 ext. 88812	ABR013	Delivery by Monday | Arabella Farm Direct Bouquet of 18 Fresh Cut Yellow Roses with a Free Glass Vase	1	0	1	Expedited	Naomi Lee Bloom	DEVONWOOD ESTATES -- GATED DEVELOPMENT	6821 STONY RUN CT		FORT MYERS	FL	33908-7218	US		A gift just for me. From Naomi Lee Bloom	false		
113-3463803-6896213	24345291441410	2020-11-05T03:38:04+00:00	2020-11-04T19:38:04-08:00	2020-11-05T04:05:14+00:00	2020-11-07T07:59:59+00:00	-2	075f2rg158ry70y@marketplace.amazon.com	alak	+1 213-442-1463 ext. 61400	ABM022	Delivery by Saturday | Purple Extravagance Bouquet by Arabella Bouquets	1	0	1	Expedited	Sarah Alqaissi	14199 N INTERSTATE 35  APT8202			PFLUGERVILLE	TX	78660-3471	US		Happy Marriage to the most beautiful couple! From Your sis: Alak Alkailani	false		
114-7092796-9950642	58935105413578	2020-11-05T03:40:51+00:00	2020-11-04T19:40:51-08:00	2020-11-05T04:07:39+00:00	2020-11-07T07:59:59+00:00	-2	c7mg6wnwwvk44c2@marketplace.amazon.com	Nathalia	+1 602-671-6610 ext. 35387	ABM0033	Delivery by Monday | Arabella Farm Direct Bouquet of Fresh Cut White Hydrangea with a Free Glass Vase	1	0	1	Expedited	Gabriela Jimenez	2310 W MARSHALL AVE			PHOENIX	AZ	85015-2202	US		Te Quiero Mucho 💕 From Animo Equipo!	false		
111-5786943-5641034	25325491687602	2020-11-05T04:32:28+00:00	2020-11-04T20:32:28-08:00	2020-11-05T04:41:59+00:00	2020-11-07T07:59:59+00:00	-2	t1hzxy1n32h57tz@marketplace.amazon.com	Sierra M.	+1 480-618-5344 ext. 85217	ABM010	The Spring Fling Bouquet by Arabella Bouquets with a Free Designer Glass Vase	1	0	1	Expedited	Lane Franz	97652 OVERSEAS HWY	HARBOR HOUSE HH # 45		KEY LARGO	FL	33037-2215	US		Happy Birthday Mom!! We love and Miss you so much!! Enjoy your flowers! xoxoxo From Ayres, Mike, Lilise, Rett, Lyndsey and Kids	false		
114-4409819-2641854	70311775359874	2020-11-05T04:21:56+00:00	2020-11-04T20:21:56-08:00	2020-11-05T04:49:41+00:00	2020-11-07T07:59:59+00:00	-2	0ythnw9y3r9qv5p@marketplace.amazon.com	Karon Scott	+1 602-671-6610 ext. 00871	ABR0022	Delivery by Friday | Arabella Farm Direct Bouquet of 12 Fresh Cut Pink Roses with a Free Glass Vase	1	0	1	Expedited	Wendy Hicks	103 JACLYN DR			SUFFOLK	VA	23434-2361	US		So very sorry for your loss. Praying for you and your family From Karon Scott	false		
114-8969224-6080238	28497640296426	2020-11-05T04:33:15+00:00	2020-11-04T20:33:15-08:00	2020-11-05T05:01:27+00:00	2020-11-07T07:59:59+00:00	-2	7t3kx7hsk3ysy5k@marketplace.amazon.com	Magali Cook	+1 602-671-6610 ext. 58164	ABM022	Delivery by Saturday | Purple Extravagance Bouquet by Arabella Bouquets	1	0	1	Expedited	Patti Cook	11703 W 56TH CIR			ARVADA	CO	80002-1409	US			false		
114-2338081-7768210	63099917928986	2020-11-05T04:34:56+00:00	2020-11-04T20:34:56-08:00	2020-11-05T05:02:23+00:00	2020-11-07T07:59:59+00:00	-2	zzhnqbr64vtn240@marketplace.amazon.com	Lindsay Chamblee	+1 602-671-6610 ext. 42380	ABM022	Delivery by Saturday | Purple Extravagance Bouquet by Arabella Bouquets	1	0	1	Expedited	Susan chamblee	2502 W 8TH AVE			STILLWATER	OK	74074-1910	US		We are thinking of you & love you! From Dalton, Lindsay, Olivia, Wyatt, Gracie, & Lily	false		
111-4845229-8051415	40484083527994	2020-11-05T04:37:14+00:00	2020-11-04T20:37:14-08:00	2020-11-05T05:07:01+00:00	2020-11-07T07:59:59+00:00	-2	w7kwdcddlmthbfm@marketplace.amazon.com	Graeham Beezley	+1 480-618-5344 ext. 60400	ABR0055	Delivery by Saturday | Arabella Farm Direct Bouquet of 12 Stems of Fresh Cut Hot Pink Roses in a Free Designer Glass Vase	1	0	1	Expedited	Karly Sophia	8027 PROFIT RD SE			AMSTERDAM	OH	43903-9788	US		You have my heart in bloom. From Grae	false		
114-6214661-7164232	31621477343970	2020-11-05T04:39:09+00:00	2020-11-04T20:39:09-08:00	2020-11-05T05:08:32+00:00	2020-11-07T07:59:59+00:00	-2	tqgzg31zys8c94k@marketplace.amazon.com	Carol Rowe	+1 619-854-2705 ext. 53328	ABM031	Delivery by Monday | The Harvest Moon Bouquet by Arabella Bouquets	1	0	1	Expedited	Sue Rowe	153 SIERRA DR			BOZEMAN	MT	59718-7144	US		Happy Birthday Mom!  Blessings on you this year!    Love, Stephen, Carol, & the boys From Carol Rowe	false		
111-1167787-9887413	68972588476498	2020-11-05T04:44:19+00:00	2020-11-04T20:44:19-08:00	2020-11-05T05:13:54+00:00	2020-11-07T07:59:59+00:00	-2	mry7p6q84t2dnxq@marketplace.amazon.com	Kristin Breedlove	+1 619-854-2705 ext. 03023	ABM021	The Joyous Bouquet by Arabella Bouquets	1	0	1	Expedited	Katie James	20245 Crystal Lake Drive			Hammond	La	70403	US		Happy happy birthday Katie!!!! From Kristin Breedlove	false		
113-5948588-7596206	40768331420146	2020-11-05T04:43:53+00:00	2020-11-04T20:43:53-08:00	2020-11-05T05:14:27+00:00	2020-11-07T07:59:59+00:00	-2	dqwcy9tdpg3rx41@marketplace.amazon.com	Stacy Savage	+1 619-854-2705 ext. 52144	ABM002	Delivery by Monday | Arabella Bouquets Fresh Cut White Calla Lilies in a Free Designer Glass Vase	1	0	1	Expedited	Kim Hansen	27245 471ST AVE			HARRISBURG	SD	57032-8118	US			false		
112-8796545-9561838	27534764990786	2020-11-05T05:01:18+00:00	2020-11-04T21:01:18-08:00	2020-11-05T05:26:55+00:00	2020-11-07T07:59:59+00:00	-2	77g7rb8phjwlxx2@marketplace.amazon.com	Jude Gibson	+1 213-442-1463 ext. 85590	ABM022	Delivery by Saturday | Purple Extravagance Bouquet by Arabella Bouquets	1	0	1	Expedited	Mary Ellen McKay	1616 Trottingway Trail			Chesterfield	Missouri	63005	US		Hope these brighten your day and that you are healthy again real soon. From Jude and Lorri Gibson	false		
112-1031031-2113044	21548802898474	2020-11-05T05:00:24+00:00	2020-11-04T21:00:24-08:00	2020-11-05T05:30:53+00:00	2020-11-07T07:59:59+00:00	-2	7fc3l4rt5r55p2n@marketplace.amazon.com	Katie Petersen	+1 619-854-2705 ext. 33924	ABR0033	Delivery by Saturday | Arabella Farm Direct Bouquet of 12 Fresh Cut Orange Roses with a Free Glass Vase	1	0	1	Expedited	Katie Petersen	31053 North 44th Street			Cave Creek	AZ	85331	US			false		
112-6088281-4504220	57509617414202	2020-11-05T05:21:05+00:00	2020-11-04T21:21:05-08:00	2020-11-05T05:50:19+00:00	2020-11-07T07:59:59+00:00	-2	b6pcw96xfp4s38z@marketplace.amazon.com	nga tran	+1 213-442-1463 ext. 06318	ABR0022	Delivery by Friday | Arabella Farm Direct Bouquet of 12 Fresh Cut Pink Roses with a Free Glass Vase	1	0	1	Expedited	Lang Duong	21731 JOHNSTONE DR			LAKE FOREST	CA	92630-6523	US		Mom, Happy Birthday From nga tran	false		
112-2829298-4053849	43327922244306	2020-11-05T05:54:26+00:00	2020-11-04T21:54:26-08:00	2020-11-05T06:05:59+00:00	2020-11-07T07:59:59+00:00	-2	9bpsr5r9p1l2b21@marketplace.amazon.com	Roberta R. Van Hise	+1 602-671-6610 ext. 26358	ABR0022	Delivery by Friday | Arabella Farm Direct Bouquet of 12 Fresh Cut Pink Roses with a Free Glass Vase	1	0	1	Expedited	Jill Toll	2435 N RIVERSIDE DR			SANTA ANA	CA	92706-1614	US			false		
114-3784718-9031404	20588827464282	2020-11-05T05:55:02+00:00	2020-11-04T21:55:02-08:00	2020-11-05T06:10:07+00:00	2020-11-07T07:59:59+00:00	-2	s3k1f67l4cxvzj3@marketplace.amazon.com	Enrico S. Martin	+1 929-436-4790 ext. 08152	ABR0022	Delivery by Friday | Arabella Farm Direct Bouquet of 12 Fresh Cut Pink Roses with a Free Glass Vase	1	0	1	Expedited	Ms Lucy Galang	2982 MIRALOMA WAY			UNION CITY	CA	94587-1543	US		Happy Birthday, A Lucy! Enjoy your gift! Love, From Mil, Bong, Carmi, Ron & Elaine	false		
114-1341261-4656256	00829766173242	2020-11-05T05:49:19+00:00	2020-11-04T21:49:19-08:00	2020-11-05T06:14:45+00:00	2020-11-07T07:59:59+00:00	-2	kzfq0s777mg1qq0@marketplace.amazon.com	Lisa Borrego	+1 929-436-4790 ext. 00503	ABR0022	Delivery by Friday | Arabella Farm Direct Bouquet of 12 Fresh Cut Pink Roses with a Free Glass Vase	1	0	1	Expedited	Sara Borrego	6333 LAKE MELISSA DR			SAN DIEGO	CA	92119-3539	US		Enjoy your gift! From Lisa Roger Borrego	false		
114-1658851-1364211	51580030667034	2020-11-05T06:15:21+00:00	2020-11-04T22:15:21-08:00	2020-11-05T06:46:00+00:00	2020-11-07T07:59:59+00:00	-2	npy8yjrchm7bncv@marketplace.amazon.com	Michael E. Profenno	+1 480-618-5344 ext. 74560	ABR0055	Delivery by Saturday | Arabella Farm Direct Bouquet of 12 Stems of Fresh Cut Hot Pink Roses in a Free Designer Glass Vase	2	0	2	Expedited	Lt Col. Michael E Profenno; USA (R)	3079 BORASSUS DR			NEW SMYRNA BEACH	FL	32168-6374	US			false		
111-9450009-0996225	63574311196002	2020-11-05T07:27:21+00:00	2020-11-04T23:27:21-08:00	2020-11-05T07:49:32+00:00	2020-11-07T07:59:59+00:00	-2	w89q1ww608842dl@marketplace.amazon.com	JEANICE DE LA FUENTE	+1 929-436-4790 ext. 17264	ABM022	Delivery by Saturday | Purple Extravagance Bouquet by Arabella Bouquets	1	0	1	Expedited	LORETTA AND KEN RISEN	16495 W NORTON WAY			YARNELL	AZ	85362-1425	US		For ALL that you have done for us and baby Aivy. We can't thank you enough.  Love, Jeanice & Kenny Risen From Jeanice & Kenny Risen	false		
113-9030187-5701849	58833900035066	2020-11-05T08:27:54+00:00	2020-11-05T00:27:54-08:00	2020-11-05T08:56:55+00:00	2020-11-10T07:59:59+00:00	-5	syz19vpv3ckgv38@marketplace.amazon.com	Talia Stough	+1 602-671-6610 ext. 34388	ABR0033	Delivery by Saturday | Arabella Farm Direct Bouquet of 12 Fresh Cut Orange Roses with a Free Glass Vase	1	0	1	Expedited	June Stough	4401 W BALLAST POINT BLVD			TAMPA	FL	33611-5601	US		I wish I was with you Grandma. I love you so much. You have been everything to me. I hold you in my heart every day, you are always with me.  Love, your Talia From Talia Stough	false		
113-4236182-1700259	17955705760338	2020-11-05T08:34:10+00:00	2020-11-05T00:34:10-08:00	2020-11-05T09:00:46+00:00	2020-11-10T07:59:59+00:00	-5	4bnmzfkc76nc7pz@marketplace.amazon.com	Jenny M. Russell	+1 213-442-1463 ext. 28557	ABR0022	Delivery by Friday | Arabella Farm Direct Bouquet of 12 Fresh Cut Pink Roses with a Free Glass Vase	1	0	1	Expedited	Lauren Richards	1215 W HIGHWAY 101 TRLR 96			PORT ANGELES	WA	98363-9401	US		Thinking of you. I know how much you loved your dear Liam. From Jenny M. Russell	false		
114-0011881-7594626	62692551831242	2020-11-05T08:54:30+00:00	2020-11-05T00:54:30-08:00	2020-11-05T09:25:13+00:00	2020-11-10T07:59:59+00:00	-5	smcst20j24qr5rp@marketplace.amazon.com	Hipolito Santiago	+1 480-618-5344 ext. 68239	ABR004	Delivery by Saturday | Arabella Farm Direct Bouquet of 12 Fresh Cut Yellow Roses with a Free Glass Vase	1	0	1	Expedited	Nancy Jean Melendez	2914 N 9TH ST			TAMPA	FL	33605-2513	US			false		
111-9314579-7222658	41250059309730	2020-11-05T09:16:14+00:00	2020-11-05T01:16:14-08:00	2020-11-05T09:45:59+00:00	2020-11-10T07:59:59+00:00	-5	5vphk2bqsvx2fj4@marketplace.amazon.com	Dawn Lovell	+1 213-442-1463 ext. 22939	ABR0022	Delivery by Friday | Arabella Farm Direct Bouquet of 12 Fresh Cut Pink Roses with a Free Glass Vase	1	0	1	Expedited	Mrs. Carolyn Lee	3348 Ouachita 67			Louann	AR	71751	US		Hope this brightens your day a little! Love my beautiful mama! From Dawn	false		
114-7642015-4194620	70367041769834	2020-11-05T09:31:56+00:00	2020-11-05T01:31:56-08:00	2020-11-05T10:02:12+00:00	2020-11-10T07:59:59+00:00	-5	y892xc3c0d2bjbz@marketplace.amazon.com	Andrew Hobden	+1 619-854-2705 ext. 68185	ABM023	Delivery by Monday | The Morning Sun Bouquet by Arabella Bouquets	1	0	1	Expedited	Felicia Bennett	221 BOWLIN AVE NE			ORTING	WA	98360-8509	US			false		
113-2361700-4508201	34996750931946	2020-11-05T11:22:58+00:00	2020-11-05T03:22:58-08:00	2020-11-05T11:53:39+00:00	2020-11-10T07:59:59+00:00	-5	mftfb20mp93v58x@marketplace.amazon.com	Derrick	+1 929-436-4790 ext. 64586	ABR0022	Delivery by Friday | Arabella Farm Direct Bouquet of 12 Fresh Cut Pink Roses with a Free Glass Vase	1	0	1	Expedited	Derrick Moses	1816 VIRGINIAN COLONY AVE			LA PLACE	LA	70068-2842	US			false		
112-7324442-0124244	22364529996658	2020-11-05T12:06:45+00:00	2020-11-05T04:06:45-08:00	2020-11-05T12:36:35+00:00	2020-11-10T07:59:59+00:00	-5	lzb0mbqvbfhsmwd@marketplace.amazon.com	stan hallem	+1 929-436-4790 ext. 99135	ABR0022	Delivery by Friday | Arabella Farm Direct Bouquet of 12 Fresh Cut Pink Roses with a Free Glass Vase	1	0	1	Expedited	Stanford M Hallem	6983  Columbia Ct.			Margate	Florida	33063	US			false		
112-8852532-5705822	37725692083938	2020-11-05T12:10:10+00:00	2020-11-05T04:10:10-08:00	2020-11-05T12:40:15+00:00	2020-11-10T07:59:59+00:00	-5	lzb0mbqvbfhsmwd@marketplace.amazon.com	stan hallem	+1 929-436-4790 ext. 26094	ABR0066	Delivery by Saturday | Arabella Bouquets 12 Stems of Fresh Cut White Roses in a Free Designer Glass Vase	1	0	1	Expedited	Stanford M Hallem	6983  Columbia Ct.			Margate	Florida	33063	US			false		
111-9173939-4277808	26164531384242	2020-11-05T12:26:35+00:00	2020-11-05T04:26:35-08:00	2020-11-05T12:47:24+00:00	2020-11-10T07:59:59+00:00	-5	r4z618qrpzrh681@marketplace.amazon.com	Sondra Cernigliaro	+1 213-442-1463 ext. 09429	ABR0022	Delivery by Friday | Arabella Farm Direct Bouquet of 12 Fresh Cut Pink Roses with a Free Glass Vase	1	0	1	Expedited	Terri Trucello Miller	1845 KERRY ST			MINNEOLA	FL	34715-7800	US		Terri,  Congratulations on growing a little person inside your lady parts!  Sending you much love & laughter.  Love, Sondra From Sondra Cernigliaro	false		
111-5459520-5953800	44079661297194	2020-11-05T12:21:19+00:00	2020-11-05T04:21:19-08:00	2020-11-05T12:49:47+00:00	2020-11-10T07:59:59+00:00	-5	px6x3svrj9j2hxb@marketplace.amazon.com	Kim Knight	+1 929-436-4790 ext. 66723	ABM022	Delivery by Saturday | Purple Extravagance Bouquet by Arabella Bouquets	1	0	1	Expedited	Carolyn Knight	210 20TH PL			CLINTON	IA	52732-6156	US			false		
113-7095570-5344256	23950196914762	2020-11-05T12:34:43+00:00	2020-11-05T04:34:43-08:00	2020-11-05T13:04:28+00:00	2020-11-10T07:59:59+00:00	-5	9kz0rmkytgdvk24@marketplace.amazon.com	Debra Ertola	+1 619-854-2705 ext. 87986	ABM022	Delivery by Saturday | Purple Extravagance Bouquet by Arabella Bouquets	1	0	1	Expedited	Eugenie Breitenbach	5880 LIMESTONE RD			PENSACOLA	FLORIDA	32504-7750	US		Happy Birthday Mama, love you!  ♥️ From Debra	false		
113-9395460-1311468	44132296825818	2020-11-05T12:51:42+00:00	2020-11-05T04:51:42-08:00	2020-11-05T13:19:42+00:00	2020-11-10T07:59:59+00:00	-5	kq14n2t7h3txlvt@marketplace.amazon.com	Tracy Townson	+1 619-854-2705 ext. 89065	ABB011	Delivery by Monday | Arabella Bouquets 24 Stems of Fresh Cut Hot Pink Roses in a Free Designer Glass Vase	1	0	1	Expedited	Myrna Bennett	115 WILLOW ST			LAKE WALES	FL	33859-8733	US		Happy birthday Mom! See you soon! We love you! Tracy and Mike From Tracy Townson	false		
113-6524774-2851432	42329747084778	2020-11-05T13:13:11+00:00	2020-11-05T05:13:11-08:00	2020-11-05T13:36:26+00:00	2020-11-10T07:59:59+00:00	-5	ky671bj7js5lbhj@marketplace.amazon.com	davon	+1 929-436-4790 ext. 66626	ABR001	Delivery by Saturday | Arabella Bouquets 12 Stems of Fresh Cut Red Roses in a Free Designer Glass Vase	1	0	1	Standard	Monique	39 MADISON ST			ROCHESTER	NY	14608-1963	US		Each Rose's represents each month I knew you from the first time we met Queen From Davon/Reese	false		
113-0637987-7886620	02239481063082	2020-11-05T13:08:14+00:00	2020-11-05T05:08:14-08:00	2020-11-05T13:36:52+00:00	2020-11-10T07:59:59+00:00	-5	7hgz8r8ll0k4z1d@marketplace.amazon.com	Betty	+1 929-436-4790 ext. 98409	ABR0055	Delivery by Saturday | Arabella Farm Direct Bouquet of 12 Stems of Fresh Cut Hot Pink Roses in a Free Designer Glass Vase	1	0	1	Expedited	Nica Beauvoir	617 E 79TH ST			BROOKLYN	NY	11236-3309	US		Happy birthday NICA!!!!! WE LOVE YOU❤️❤️❤️💞💞 God bless you always 🎉🎉🎉 From Tati  Rene and family	false		
112-1388707-3962663	17143603794650	2020-11-05T13:08:24+00:00	2020-11-05T05:08:24-08:00	2020-11-05T13:37:17+00:00	2020-11-10T07:59:59+00:00	-5	7ty272tm14qrsq3@marketplace.amazon.com	Akberalikhan Pabani	+1 929-436-4790 ext. 29445	ABR0022	Delivery by Friday | Arabella Farm Direct Bouquet of 12 Fresh Cut Pink Roses with a Free Glass Vase	1	0	1	Expedited	Kelli Fofana	3338 N 18TH ST			PHILADELPHIA	PA	19140-4919	US		Thanks for all your help Kelli. Good luck ! From Your friends at Vanguard caps Dt96!	false		
113-7044985-9894664	63887488945642	2020-11-05T13:24:04+00:00	2020-11-05T05:24:04-08:00	2020-11-05T13:52:14+00:00	2020-11-10T07:59:59+00:00	-5	5t202y8rqwwcfb2@marketplace.amazon.com	Lisa Dunn	+1 619-854-2705 ext. 77991	ABR0033	Delivery by Saturday | Arabella Farm Direct Bouquet of 12 Fresh Cut Orange Roses with a Free Glass Vase	1	0	1	Expedited	Barbara Broom	20914 ACADEMY ST			CORNELIUS	NC	28031-9726	US		Happy Birthday Beautiful! I love you more!! From Leebee	false		
111-7413363-3645844	11896151627434	2020-11-05T13:36:17+00:00	2020-11-05T05:36:17-08:00	2020-11-05T14:03:13+00:00	2020-11-10T07:59:59+00:00	-5	81xjsdftzjzzmzp@marketplace.amazon.com	Sharon Reed	+1 213-442-1463 ext. 33729	ABM022	Delivery by Saturday | Purple Extravagance Bouquet by Arabella Bouquets	1	0	1	Expedited	Debbie and Dana Newport	251 SPRING RUN DR			EADS	TN	38028-6972	US		We hope everyone gets well soon. With Love, Dustin, Sharon and Payson. From Sharon Reed	false		
111-9970768-0378652	36357252596202	2020-11-05T13:34:12+00:00	2020-11-05T05:34:12-08:00	2020-11-05T14:03:42+00:00	2020-11-10T07:59:59+00:00	-5	f29ylsnmzq40syb@marketplace.amazon.com	Rachel Lattuca	+1 602-671-6610 ext. 27898	ABR0022	Delivery by Friday | Arabella Farm Direct Bouquet of 12 Fresh Cut Pink Roses with a Free Glass Vase	1	0	1	Expedited	Rachel Lattuca	8837 HARDESTY DR			YUCCA VALLEY	CA	92284-4193	US		Love you, miss you! From Mike	false		
113-1285130-2639462	00633609268042	2020-11-05T13:45:42+00:00	2020-11-05T05:45:42-08:00	2020-11-05T14:15:46+00:00	2020-11-10T07:59:59+00:00	-5	9zmh7pxr6qbxvb5@marketplace.amazon.com	Nicholas Mesagno II	+1 602-671-6610 ext. 82569	ABR0022	Delivery by Friday | Arabella Farm Direct Bouquet of 12 Fresh Cut Pink Roses with a Free Glass Vase	1	0	1	Expedited	Mara Lovely Orlova	4028 SW WEBSTER ST			SEATTLE	WA	98136-2129	US			false		
