order-id	order-item-id	purchase-date	payments-date	reporting-date	promise-date	days-past-promise	buyer-email	buyer-name	buyer-phone-number	sku	product-name	quantity-purchased	quantity-shipped	quantity-to-ship	ship-service-level	recipient-name	ship-address-1	ship-address-2	ship-address-3	ship-city	ship-state	ship-postal-code	ship-country	gift-wrap-type	gift-message-text	is-business-order	purchase-order-number	price-designation
111-7082794-0284220	15725736893970	2020-11-04T17:54:35+00:00	2020-11-04T09:54:35-08:00	2020-11-04T18:18:31+00:00	2020-11-07T07:59:59+00:00	-2	vfwx8yt455dwxpv@marketplace.amazon.com	Brad Juedes	+1 213-442-1463 ext. 38621	ABR0022	Delivery by Thursday | Arabella Farm Direct Bouquet of 12 Fresh Cut Pink Roses with a Free Glass Vase	1	0	1	Expedited	Danice Juedes 115B	2505 SW MARTIN HWY			PALM CITY	FL	34990-3149	US		Love you Mom From Brad and Natalie	false		
114-4209384-9277029	23693296451754	2020-11-04T18:06:53+00:00	2020-11-04T10:06:53-08:00	2020-11-04T18:35:59+00:00	2020-11-07T07:59:59+00:00	-2	scqm8lsfph7zlsv@marketplace.amazon.com	Patricia Kelley	+1 213-442-1463 ext. 34732	ABM025	Delivery by Monday | The Fell for You Bouquet by Arabella Bouquets	1	0	1	Expedited	Mary McEntee	33 BLOSSOM ST APT 514			BOSTON	MA	02114-2610	US		Happy Birthday, Mary!!!  With lots of love!!! From Pam & Warren	false		
112-7712402-2973049	13058478739722	2020-11-04T18:08:55+00:00	2020-11-04T10:08:55-08:00	2020-11-04T18:37:18+00:00	2020-11-07T07:59:59+00:00	-2	jl6237jqf44mmx1@marketplace.amazon.com	Hollie Free	+1 619-854-2705 ext. 34844	ABM022	Delivery by Friday | Purple Extravagance Bouquet by Arabella Bouquets	1	0	1	Expedited	Hilary S	6000 BENBASSET PL			BAKERSFIELD	CA	93306-9629	US		Dear Hilary,   I wish you joy and happiness today!   Much love, From Natasha L	false		
114-9573582-3012217	09025502022986	2020-11-04T18:38:29+00:00	2020-11-04T10:38:29-08:00	2020-11-04T18:57:52+00:00	2020-11-07T07:59:59+00:00	-2	mqg76sbx9fbv1sb@marketplace.amazon.com	Brandon Wynsma	+1 213-442-1463 ext. 74899	ABR0022	Delivery by Friday | Arabella Farm Direct Bouquet of 12 Fresh Cut Pink Roses with a Free Glass Vase	1	0	1	Expedited	KimJimCoco Guettler	15743 RANDALL LN			MINNETONKA	MN	55345-5521	US		KimJimCoco: Thank you all for such a great time in MN! I really enjoyed meeting you all, exploring the state, and the amazing food! I really appreciate everything.  Love, “Levi” From Brandon/Levi	false		
112-3461721-3924263	63509296834858	2020-11-04T18:50:25+00:00	2020-11-04T10:50:25-08:00	2020-11-04T19:19:15+00:00	2020-11-07T07:59:59+00:00	-2	wtt4lwg7m3vlvyz@marketplace.amazon.com	Jade Grey	+1 213-442-1463 ext. 40813	ABR0022	Delivery by Friday | Arabella Farm Direct Bouquet of 12 Fresh Cut Pink Roses with a Free Glass Vase	1	0	1	Expedited	Pat Osowski	9450 W CABELA DR APT 2232			GLENDALE	AZ	85305-1313	US		Happy 60th birthday!  Love, Jade, Steve, Kinley, and Cole From Jade Grey	false		
111-7608029-8320266	49943765961626	2020-11-04T19:04:38+00:00	2020-11-04T11:04:38-08:00	2020-11-04T19:29:39+00:00	2020-11-07T07:59:59+00:00	-2	930lc97gv9yyf77@marketplace.amazon.com	Karen Delzell	+1 619-854-2705 ext. 69351	ABM022	Delivery by Friday | Purple Extravagance Bouquet by Arabella Bouquets	1	0	1	Expedited	Rosemary Brown	2606 AMHERST DR			WICHITA FALLS	TX	76308-5303	US		Happy Birthday, Rosemary. Wanted to make certain these arrived in time for your big day. Love Karen and Bill From Karen Delzell	false		
114-3153786-6532254	39800803419978	2020-11-04T19:09:18+00:00	2020-11-04T11:09:18-08:00	2020-11-04T19:37:43+00:00	2020-11-07T07:59:59+00:00	-2	ql6gjpnfynpxk1k@marketplace.amazon.com	susan nechanicky	+1 602-671-6610 ext. 52562	ABM025	Delivery by Monday | The Fell for You Bouquet by Arabella Bouquets	1	0	1	Expedited	Kathy Lee/Sue Nechanicky	610 WOODGLEN PL NE			OWATONNA	MN	55060-1972	US		A little sunshine for your day~ Always thinking of you and sending good karma your way- Much love!! From susan nechanicky	false		
113-6781399-1177010	35764874287346	2020-11-04T19:22:15+00:00	2020-11-04T11:22:15-08:00	2020-11-04T19:48:26+00:00	2020-11-07T07:59:59+00:00	-2	85y0rxtkppd3xw8@marketplace.amazon.com	nagam hanson	+1 602-671-6610 ext. 08507	ABR0033	Delivery by Saturday | Arabella Farm Direct Bouquet of 12 Fresh Cut Orange Roses with a Free Glass Vase	1	0	1	Expedited	Rawaa Abdulkadhim	826 OLIVE LN			HARKER HEIGHTS	TX	76548-8849	US		Rawaa, I'm sorry I'm not there to take care of you but Sending happy thoughts and positive energy your way! Get well soon my friend! Miss you!! Love you bestie!! From Logan, Kenne & ME	false		
112-0947418-5921837	38165979014842	2020-11-04T19:21:33+00:00	2020-11-04T11:21:33-08:00	2020-11-04T19:49:24+00:00	2020-11-07T07:59:59+00:00	-2	7g1y3gsf49rg9wf@marketplace.amazon.com	Jacqueline	+1 213-442-1463 ext. 37432	ABR0055	Delivery by Saturday | Arabella Farm Direct Bouquet of 12 Stems of Fresh Cut Hot Pink Roses in a Free Designer Glass Vase	1	0	1	Expedited	Anna Giovacchinni	4206 KNOTTY PINE PL			ROCKLIN	CA	95765-5732	US			false		
113-8477419-2048268	51419843764570	2020-11-04T19:36:08+00:00	2020-11-04T11:36:08-08:00	2020-11-04T20:01:29+00:00	2020-11-07T07:59:59+00:00	-2	l5q1hjyr7w523yq@marketplace.amazon.com	Anne Mooney	+1 929-436-4790 ext. 73800	ABR0066	Delivery by Saturday | Arabella Bouquets 12 Stems of Fresh Cut White Roses in a Free Designer Glass Vase	1	0	1	Expedited	The Ernst Family Love, The Rubins	109 WOODLAND AVE			RAMSEY	NJ	07446-1721	US			false		
113-2168835-2037063	53454402736194	2020-11-04T19:33:45+00:00	2020-11-04T11:33:45-08:00	2020-11-04T20:04:07+00:00	2020-11-07T07:59:59+00:00	-2	c4yyshs99lrnw5q@marketplace.amazon.com	Vicki Grant	+1 619-854-2705 ext. 52020	ABM022	Delivery by Friday | Purple Extravagance Bouquet by Arabella Bouquets	1	0	1	Expedited	Mrs Shelia Dent	3915 LEGEND HILLS ST UNIT 104			LAS VEGAS	NV	89129-4552	US			false		
113-1081259-5147449	45658081549802	2020-11-04T19:41:04+00:00	2020-11-04T11:41:04-08:00	2020-11-04T20:10:48+00:00	2020-11-07T07:59:59+00:00	-2	dxfygdz0qg4j3y8@marketplace.amazon.com	Mary boucher	+1 480-618-5344 ext. 84628	ABM026	Delivery by Monday | The Amour Bouquet by Arabella Bouquets	1	0	1	Expedited	Bill and Elain Clelland	4 SIERRA CT			SANTA FE	NM	87506-9542	US		Happy 72nd Birthday, Bill and Elaine! From Mary	false		
113-7100545-9901008	00161907428370	2020-11-04T19:41:53+00:00	2020-11-04T11:41:53-08:00	2020-11-04T20:11:49+00:00	2020-11-07T07:59:59+00:00	-2	jm6fkms7r0g5f1d@marketplace.amazon.com	JoAnn B. Alfriend	+1 929-436-4790 ext. 26726	ABR0055	Delivery by Saturday | Arabella Farm Direct Bouquet of 12 Stems of Fresh Cut Hot Pink Roses in a Free Designer Glass Vase	1	0	1	Expedited	Caron Atiyeh	4054 Elizabeth Ln			Fairfax	Va	22032	US			false		
112-1433438-9931466	42023885648074	2020-11-04T19:44:05+00:00	2020-11-04T11:44:05-08:00	2020-11-04T20:13:28+00:00	2020-11-07T07:59:59+00:00	-2	h9g8wn6q80c8m4n@marketplace.amazon.com	James A. Onigkeit	+1 602-671-6610 ext. 87054	ABR0022	Delivery by Friday | Arabella Farm Direct Bouquet of 12 Fresh Cut Pink Roses with a Free Glass Vase	1	0	1	Standard	Jennifer Bruce	14507 NETTLE CREEK RD			TAMPA	FL	33624-2640	US		Congrats! You should be proud of all you have accomplished!  Love Wendy White and the rest of the Onigkeit family From Wendy White	false		
111-0092347-2186659	07666072162514	2020-11-04T19:57:47+00:00	2020-11-04T11:57:47-08:00	2020-11-04T20:23:46+00:00	2020-11-07T07:59:59+00:00	-2	b95vx2gqhwfh04s@marketplace.amazon.com	Iraida Becerra	+1 619-854-2705 ext. 54348	ABR0022	Delivery by Friday | Arabella Farm Direct Bouquet of 12 Fresh Cut Pink Roses with a Free Glass Vase	1	0	1	Expedited	Mireya Monroy	200 MAITLAND AVE APT 226			ALTAMONTE SPRINGS	FLORIDA	32701-5569	US		Mireya amiga un muy Feliz Cumpleaños y muy buenos deseos de mucha salud y alegrías. Muchos abrazos.  Irma e Iraida From Iraida Becerra	false		
112-3264089-2458650	59974926595626	2020-11-04T19:57:44+00:00	2020-11-04T11:57:44-08:00	2020-11-04T20:26:21+00:00	2020-11-07T07:59:59+00:00	-2	1k2kwjgjly78yp7@marketplace.amazon.com	Sondra Borne	+1 480-618-5344 ext. 96556	ABR0055	Delivery by Saturday | Arabella Farm Direct Bouquet of 12 Stems of Fresh Cut Hot Pink Roses in a Free Designer Glass Vase	1	0	1	Expedited	Nona Joseph	3021 YORKTOWNE DR			LA PLACE	LA	70068-2109	US		Hi Nona, Sorry I forgot your Birthday.  Happy Birthday!!! God Bless Sondra	false		
111-6448475-8302631	36120807803186	2020-11-04T20:02:54+00:00	2020-11-04T12:02:54-08:00	2020-11-04T20:31:55+00:00	2020-11-07T07:59:59+00:00	-2	d48c5mwhx7tstrj@marketplace.amazon.com	Bisrat	+1 480-618-5344 ext. 83299	ABR001	Delivery by Saturday | Arabella Bouquets 12 Stems of Fresh Cut Red Roses in a Free Designer Glass Vase	1	0	1	Standard	Biz	3839 BRIARGROVE LN APT 10206			DALLAS	TX	75287-6386	US		Thanks for being Awesome! From Bisrat	false		
112-4215623-9909065	14206749385034	2020-11-04T20:00:31+00:00	2020-11-04T12:00:31-08:00	2020-11-04T20:35:33+00:00	2020-11-07T07:59:59+00:00	-2	bv6twj0lbgs33zb@marketplace.amazon.com	Stephen Rietzke	+1 213-442-1463 ext. 65345	ABR001	Delivery by Saturday | Arabella Bouquets 12 Stems of Fresh Cut Red Roses in a Free Designer Glass Vase	1	0	1	Expedited	Kathy Rietzke	338 EVERGREEN DR			NORTH WALES	PA	19454-2714	US		Because you are loved! From Stephen Rietzke	false		
114-6891223-4689049	43212247676370	2020-11-04T20:08:33+00:00	2020-11-04T12:08:33-08:00	2020-11-04T20:37:38+00:00	2020-11-07T07:59:59+00:00	-2	v71jkhyvt81grt4@marketplace.amazon.com	Jevon Carlyle Pinard	+1 929-436-4790 ext. 23203	ABR0055	Delivery by Saturday | Arabella Farm Direct Bouquet of 12 Stems of Fresh Cut Hot Pink Roses in a Free Designer Glass Vase	1	0	1	Expedited	Ms. Charlotte	205 E JOPPA RD APT 1507			TOWSON	MD	21286-3225	US		Happy birthday! From The Pinards	false		
113-0389928-8516234	20429098541978	2020-11-04T20:35:06+00:00	2020-11-04T12:35:06-08:00	2020-11-04T20:37:46+00:00	2020-11-07T07:59:59+00:00	-2	h3x1m8sl3z923k5@marketplace.amazon.com	Kathryn Zajchowski	+1 213-442-1463 ext. 08035	ABM010	The Spring Fling Bouquet by Arabella Bouquets with a Free Designer Glass Vase	1	0	1	Expedited	The Waligorski Family	178 W CUSTER RD			SANDUSKY	MI	48471-9152	US		Dear Sarah,  just thinking about you and the baby. I hope everyone is well. Sending you lots of love. XX-Kitty From Kathryn	false		
113-9026787-0610630	49237862252778	2020-11-04T20:17:13+00:00	2020-11-04T12:17:13-08:00	2020-11-04T20:45:45+00:00	2020-11-07T07:59:59+00:00	-2	1fb9btzxf8sgb3l@marketplace.amazon.com	Joan Wilder	+1 929-436-4790 ext. 87233	ABM020	Delivery by Saturday | The Sunset Bouquet by Arabella Bouquets	1	0	1	Expedited	Barbara Herman	1464 POPINJAY DR			RENO	NV	89509-3984	US		With sincerest condolences, Barb. Thinking about you. From Joan & Lucy	false		
112-3603367-9043412	19860804689874	2020-11-04T20:25:19+00:00	2020-11-04T12:25:19-08:00	2020-11-04T20:54:38+00:00	2020-11-07T07:59:59+00:00	-2	gvb13lls7xzqs0d@marketplace.amazon.com	Reuven Moshkovski	+1 602-671-6610 ext. 16739	ABM010	The Spring Fling Bouquet by Arabella Bouquets with a Free Designer Glass Vase	1	0	1	Expedited	Fran & Dror Moshkovski	9550 W SAHARA AVE APT 1099			LAS VEGAS	NV	89117-5379	US		Happy Birthday Grandma! Love, Reuven From Reuven Moshkovski	false		
113-4247087-7341831	20486703777962	2020-11-04T20:42:31+00:00	2020-11-04T12:42:31-08:00	2020-11-04T21:03:05+00:00	2020-11-07T07:59:59+00:00	-2	cn1b5xt3xgtvyc8@marketplace.amazon.com	Sandra Partridge	+1 480-618-5344 ext. 71487	ABM022	Delivery by Saturday | Purple Extravagance Bouquet by Arabella Bouquets	1	0	1	Expedited	Suzanne Lavanaway	5508 Claiborn			Orangevale	California	95662	US		We will miss Charlie a lot.  Our prayers are with you and your family.  Don't hesitate to call if you need my help.  Love you guys From Sandra and Jim Partridge	false		
112-2658962-2624269	47456942518810	2020-11-04T20:45:09+00:00	2020-11-04T12:45:09-08:00	2020-11-04T21:15:23+00:00	2020-11-07T07:59:59+00:00	-2	xrr47fpz639xj8p@marketplace.amazon.com	Ruby-Ann Costanza	+1 619-854-2705 ext. 08945	ABR001	Delivery by Saturday | Arabella Bouquets 12 Stems of Fresh Cut Red Roses in a Free Designer Glass Vase	1	0	1	Expedited	Patsy Costanza	1011 HAZEL AVE APT 1			AMBRIDGE	PA	15003-1521	US			false		
113-1739727-5377052	26842154267170	2020-11-04T21:07:41+00:00	2020-11-04T13:07:41-08:00	2020-11-04T21:48:26+00:00	2020-11-07T07:59:59+00:00	-2	0mlwlqtr69n0xwp@marketplace.amazon.com	gino	+1 213-442-1463 ext. 27115	ABR0055	Delivery by Saturday | Arabella Farm Direct Bouquet of 12 Stems of Fresh Cut Hot Pink Roses in a Free Designer Glass Vase	1	0	1	Expedited	Sandee Sanke	3911 JERSEY AVE N			MINNEAPOLIS	MN	55427-1450	US		Miss you! 😘 From gino	false		
113-0204260-6312252	03479012002930	2020-11-04T21:30:57+00:00	2020-11-04T13:30:57-08:00	2020-11-04T22:01:00+00:00	2020-11-07T07:59:59+00:00	-2	bwm1j3sbd3b010t@marketplace.amazon.com	Rebecca	+1 480-618-5344 ext. 04763	ABR0022	Delivery by Friday | Arabella Farm Direct Bouquet of 12 Fresh Cut Pink Roses with a Free Glass Vase	1	0	1	Expedited	Nelly Gonzalez	3034 GOLDEN HILLS LN			MISSOURI CITY	TX	77459-3226	US			false		
114-2884473-6652208	43975770220650	2020-11-04T21:39:09+00:00	2020-11-04T13:39:09-08:00	2020-11-04T22:08:15+00:00	2020-11-07T07:59:59+00:00	-2	ryj68plw546qbjz@marketplace.amazon.com	Caitlin Kelley	+1 213-442-1463 ext. 85064	ABR0022	Delivery by Friday | Arabella Farm Direct Bouquet of 12 Fresh Cut Pink Roses with a Free Glass Vase	1	0	1	Expedited	Katie Engelmann	12548 FALK TRL			NORTHFIELD	MN	55057-4690	US		We are praying for you Katie!! From Caitlin and Jason Kelley	false		
111-9061052-2204208	17615748119658	2020-11-04T21:44:49+00:00	2020-11-04T13:44:49-08:00	2020-11-04T22:13:06+00:00	2020-11-07T07:59:59+00:00	-2	cvx3v5szyfq9wb3@marketplace.amazon.com	Mikayla	+1 213-442-1463 ext. 55332	ABR0022	Delivery by Friday | Arabella Farm Direct Bouquet of 12 Fresh Cut Pink Roses with a Free Glass Vase	1	0	1	Expedited	Mikayla	5630 ATLANTIC AVE APT 201			DELRAY BEACH	FL	33484-8206	US		Kirst,  I am so sorry for your loss! I am here for you, always! From Mikayla	false		
114-9223909-9574648	49247640444354	2020-11-04T21:49:33+00:00	2020-11-04T13:49:33-08:00	2020-11-04T22:18:34+00:00	2020-11-07T07:59:59+00:00	-2	tcdc88sbq987yz4@marketplace.amazon.com	spaghetti	+1 619-854-2705 ext. 99723	ABR012	Delivery by Monday | Arabella Farm Direct Bouquet of 18 Fresh Cut Pink Roses with a Free Glass Vase	1	0	1	Expedited	Arthur Merlino	117 PACIFIC AVE			STATEN ISLAND	NY	10312-6211	US		Merry Christmas from Bussville From spaghetti	false		
112-0424853-6476249	04026407662194	2020-11-04T22:14:02+00:00	2020-11-04T14:14:02-08:00	2020-11-04T22:40:25+00:00	2020-11-07T07:59:59+00:00	-2	vg33ss4pg15bmjb@marketplace.amazon.com	Debra J. O'Meara	+1 602-671-6610 ext. 53075	ABM010	The Spring Fling Bouquet by Arabella Bouquets with a Free Designer Glass Vase	1	0	1	Expedited	Alejandra Diaz	7904 APPOMATTOX DR			AUSTIN	TX	78745-6902	US		Happy Birthday Alejandra! Best wishes always. From 💜Dennis and Deb	false		
112-8297075-1450624	48947251900858	2020-11-04T22:29:13+00:00	2020-11-04T14:29:13-08:00	2020-11-04T22:50:52+00:00	2020-11-07T07:59:59+00:00	-2	yd1xpf1y2yjvwll@marketplace.amazon.com	Kathy Kinner	+1 480-618-5344 ext. 41226	ABR0022	Delivery by Friday | Arabella Farm Direct Bouquet of 12 Fresh Cut Pink Roses with a Free Glass Vase	1	0	1	Expedited	Josiah and Marley Saxe	75 WINTER WHEAT PL			SPRING	TX	77381-4355	US		Congratulations and welcome baby Piper Blue!  Enjoy your beautiful family.      Love 💘 From Jim and Kathy Kinner	false		
111-9854390-8918661	01559316276842	2020-11-04T22:30:21+00:00	2020-11-04T14:30:21-08:00	2020-11-04T22:52:44+00:00	2020-11-07T07:59:59+00:00	-2	79wh3m6x4nxpqm7@marketplace.amazon.com	Nadine Jenkins	+1 602-671-6610 ext. 35982	ABM025	Delivery by Monday | The Fell for You Bouquet by Arabella Bouquets	1	0	1	Expedited	Jama Deal	2549 CENTENNIAL PL			ATLANTA	GA	30349-8632	US			false		
111-5467362-1909808	68942306312426	2020-11-04T22:39:22+00:00	2020-11-04T14:39:22-08:00	2020-11-04T22:57:30+00:00	2020-11-07T07:59:59+00:00	-2	b8nr1sxcww737cp@marketplace.amazon.com	carlos ortiz	+1 480-618-5344 ext. 76404	ABR0022	Delivery by Friday | Arabella Farm Direct Bouquet of 12 Fresh Cut Pink Roses with a Free Glass Vase	1	0	1	Expedited	Eileen Covarrubias	3641 SAN JOSE LN			SANTA BARBARA	CA	93105-3216	US		Happy birthday Mandy , I love you mi chula . Let me take you out on a date . Let's go to San Diego next weekend. From Papi	false		
112-6252157-3000252	28476207844178	2020-11-04T22:35:11+00:00	2020-11-04T14:35:11-08:00	2020-11-04T23:05:07+00:00	2020-11-07T07:59:59+00:00	-2	4gc6kmqj1hxrnd3@marketplace.amazon.com	Jaime Dunn	+1 602-671-6610 ext. 62904	ABR0055	Delivery by Saturday | Arabella Farm Direct Bouquet of 12 Stems of Fresh Cut Hot Pink Roses in a Free Designer Glass Vase	1	0	1	Standard	Heather Uzarski	40 EVANSTON CT			STAFFORD	VA	22556-6340	US			false		
111-1816187-5144239	31477637586338	2020-11-04T22:41:18+00:00	2020-11-04T14:41:18-08:00	2020-11-04T23:11:16+00:00	2020-11-07T07:59:59+00:00	-2	w3ycj8d98t56z4r@marketplace.amazon.com	EG	+1 213-442-1463 ext. 41134	ABM020	Delivery by Saturday | The Sunset Bouquet by Arabella Bouquets	1	0	1	Expedited	Grewal	3263 EL SUYO DR			SAN RAMON	CA	94583-3050	US		Keeping you in our thoughts and sending our deepest condolences, From Iqbal, Dhiraj, Eric, and Sarah Grewal	false		
113-8026531-5014632	11429006608042	2020-11-04T22:44:26+00:00	2020-11-04T14:44:26-08:00	2020-11-04T23:13:22+00:00	2020-11-07T07:59:59+00:00	-2	b913xl30br2k90v@marketplace.amazon.com	leonid zokovski	+1 480-618-5344 ext. 03794	ABR0022	Delivery by Friday | Arabella Farm Direct Bouquet of 12 Fresh Cut Pink Roses with a Free Glass Vase	1	0	1	Expedited	Natalia Garland	125 W MAIN ST			SNOWVILLE	UT	84336-4567	US			false		
113-4086098-5845833	10548406551210	2020-11-04T22:50:59+00:00	2020-11-04T14:50:59-08:00	2020-11-04T23:17:23+00:00	2020-11-07T07:59:59+00:00	-2	gp83hr7b9tj2sh3@marketplace.amazon.com	ajibola	+1 480-618-5344 ext. 26641	ABR012	Delivery by Monday | Arabella Farm Direct Bouquet of 18 Fresh Cut Pink Roses with a Free Glass Vase	1	0	1	Expedited	Foxy Olugbode	93 CARNEGIE AVE			EAST ORANGE	NJ	07018-2930	US		Mrs. O,  Thank you for your love and support. My Wifey & My Queen. You are gift & are truly appreciated. Thinking of you. I love you. From Tah	false		
113-8153860-7605004	55075705066002	2020-11-04T22:50:32+00:00	2020-11-04T14:50:32-08:00	2020-11-04T23:18:31+00:00	2020-11-07T07:59:59+00:00	-2	984fpydw89vx33r@marketplace.amazon.com	christopher rogers	+1 213-442-1463 ext. 30152	ABR0022	Delivery by Friday | Arabella Farm Direct Bouquet of 12 Fresh Cut Pink Roses with a Free Glass Vase	1	0	1	Expedited	Melody Alvarado	119 TOLCARNE DR			HUTTO	TX	78634-5563	US		Happy Birthday Nanny!! We love you and miss you!! From christopher rogers	false		
114-1186367-5775446	61528954145634	2020-11-04T23:06:40+00:00	2020-11-04T15:06:40-08:00	2020-11-04T23:32:47+00:00	2020-11-07T07:59:59+00:00	-2	wxgbrbrh040ft7n@marketplace.amazon.com	Jasmine James	+1 602-671-6610 ext. 06369	ABM0044	Delivery by Monday | Arabella Farm Direct Bouquet of Fresh Cut Blue Hydrangea with a Free Glass Vase	1	0	1	Expedited	Gabriella DeGray	3707 PAIGEWOOD DR			PEARLAND	TX	77584-9461	US		Congratulations sweetie From Jasmine James	false		
112-3868518-1281067	44334136022754	2020-11-04T23:05:23+00:00	2020-11-04T15:05:23-08:00	2020-11-04T23:44:54+00:00	2020-11-07T07:59:59+00:00	-2	4r5ptfsn7sd1xp4@marketplace.amazon.com	Patricia M. Nieto	+1 213-442-1463 ext. 59160	ABR004	Delivery by Saturday | Arabella Farm Direct Bouquet of 12 Fresh Cut Yellow Roses with a Free Glass Vase	1	0	1	Expedited	Chris Lara	1202 ARCADIA DR			HARLINGEN	TEXAS	78550-9006	US		Happy Birthday Mom! Hope these yellow roses bring you some sunshine on your Birthday :) Love Patty, Josh and the boys	false		
113-6291805-5399401	11587428993034	2020-11-04T23:25:08+00:00	2020-11-04T15:25:08-08:00	2020-11-04T23:50:02+00:00	2020-11-07T07:59:59+00:00	-2	25ydxyf5nrrtckp@marketplace.amazon.com	Peter Forras	+1 619-854-2705 ext. 12169	ABR0022	Delivery by Friday | Arabella Farm Direct Bouquet of 12 Fresh Cut Pink Roses with a Free Glass Vase	1	0	1	Expedited	Kevin Kelly	2920 WINDMILL LN			FARMERS BRANCH	TX	75234-2118	US		So thankful to get a glimpse in the beauty of your relationship this year. I'm excited for the baby on the way and to see you step into parenthood. I'm grateful for the time I've had with you. Happy anniversary Kevin & Grace! From Peter Varberg	false		
111-5768957-5781832	70193986795298	2020-11-04T23:33:48+00:00	2020-11-04T15:33:48-08:00	2020-11-05T00:04:10+00:00	2020-11-07T07:59:59+00:00	-2	w2c2w1z2b9fbmrt@marketplace.amazon.com	George Riddiford	+1 602-671-6610 ext. 17164	ABR001	Delivery by Saturday | Arabella Bouquets 12 Stems of Fresh Cut Red Roses in a Free Designer Glass Vase	1	0	1	Expedited	George Riddiford	350 S COLLIER BLVD UNIT 1105			MARCO ISLAND	FL	34145-4915	US			false		
112-7287534-6802657	35523142959034	2020-11-04T23:49:35+00:00	2020-11-04T15:49:35-08:00	2020-11-05T00:16:28+00:00	2020-11-07T07:59:59+00:00	-2	jk8wr3qtjmlsyhp@marketplace.amazon.com	Juan Reyes	+1 602-671-6610 ext. 95818	ABR0055	Delivery by Saturday | Arabella Farm Direct Bouquet of 12 Stems of Fresh Cut Hot Pink Roses in a Free Designer Glass Vase	1	0	1	Expedited	Angelita Everson	9809 KNOX DR			OVERLAND PARK	KS	66212-5227	US			false		
112-8840380-7921021	12536636692962	2020-11-04T23:54:30+00:00	2020-11-04T15:54:30-08:00	2020-11-05T00:23:33+00:00	2020-11-07T07:59:59+00:00	-2	nb7vn947fk92ms9@marketplace.amazon.com	James Casion	+1 213-442-1463 ext. 10463	ABR0022	Delivery by Friday | Arabella Farm Direct Bouquet of 12 Fresh Cut Pink Roses with a Free Glass Vase	1	0	1	Expedited	Deshauna Choates	5005 LOSEE RD APT 2037	LAS VEGAS NV		NORTH LAS VEGAS	NV	89081-2498	US			false		
112-7373397-8087446	68194508115314	2020-11-05T00:01:45+00:00	2020-11-04T16:01:45-08:00	2020-11-05T00:31:11+00:00	2020-11-07T07:59:59+00:00	-2	pcblj4g86nvlg2l@marketplace.amazon.com	C	+1 619-854-2705 ext. 91628	ABR0022	Delivery by Friday | Arabella Farm Direct Bouquet of 12 Fresh Cut Pink Roses with a Free Glass Vase	1	0	1	Expedited	Audreyann Herring	222 S EVERGREEN RD	ORCHARD CREST ORCHARD CREST APT 36		SPOKANE VALLEY	WA	99216-1868	US		Happy Birthday Mom! We hope you have a wonderful day! Love, Craig & Becky From Craig & Beccky	false		
112-6443262-0435467	35041452997338	2020-11-05T00:07:34+00:00	2020-11-04T16:07:34-08:00	2020-11-05T00:31:11+00:00	2020-11-07T07:59:59+00:00	-2	hgz80qvq2ppc4m1@marketplace.amazon.com	Rita Yakubik	+1 602-671-6610 ext. 91073	ABR0055	Delivery by Saturday | Arabella Farm Direct Bouquet of 12 Stems of Fresh Cut Hot Pink Roses in a Free Designer Glass Vase	1	0	1	Expedited	Tricia Bullard	1502 SADDLECREEK DR			HOUSTON	TX	77090-2136	US		Dear Tricia, hope these flowers will keep a smile on your beautiful face. So happy your surgery went well and praying for your complete recovery. All my love, Rita From Rita Yakubik	false		
111-2757173-7612202	29840486494690	2020-11-05T00:12:48+00:00	2020-11-04T16:12:48-08:00	2020-11-05T00:41:45+00:00	2020-11-07T07:59:59+00:00	-2	861jpm36jcqplcw@marketplace.amazon.com	herlinda Sanchez	+1 480-618-5344 ext. 66411	ABM010	The Spring Fling Bouquet by Arabella Bouquets with a Free Designer Glass Vase	1	0	1	Expedited	Memorial Medical Center	2450 S TELSHOR BLVD RM 409			LAS CRUCES	NM	88011-5069	US		Sister,  Praying for a speedy recovery.  Love Fred and Gloria	false		
113-3630827-2373846	63200602052858	2020-11-05T00:13:29+00:00	2020-11-04T16:13:29-08:00	2020-11-05T00:43:54+00:00	2020-11-07T07:59:59+00:00	-2	9mhhkbppv3t2mpk@marketplace.amazon.com	John G. Gurley	+1 415-851-9136 ext. 50237	ABR0055	Delivery by Saturday | Arabella Farm Direct Bouquet of 12 Stems of Fresh Cut Hot Pink Roses in a Free Designer Glass Vase	1	0	1	Expedited	John G. Gurley	620 SAND HILL RD APT 418-E			PALO ALTO	CA	94304-2079	US			false		
113-3630827-2373846	27308601024146	2020-11-05T00:13:29+00:00	2020-11-04T16:13:29-08:00	2020-11-05T00:43:54+00:00	2020-11-07T07:59:59+00:00	-2	9mhhkbppv3t2mpk@marketplace.amazon.com	John G. Gurley	+1 415-851-9136 ext. 50237	ABR0022	Delivery by Friday | Arabella Farm Direct Bouquet of 12 Fresh Cut Pink Roses with a Free Glass Vase	1	0	1	Expedited	John G. Gurley	620 SAND HILL RD APT 418-E			PALO ALTO	CA	94304-2079	US			false		
113-7981452-3249865	43668720061882	2020-11-05T00:17:42+00:00	2020-11-04T16:17:42-08:00	2020-11-05T00:44:48+00:00	2020-11-07T07:59:59+00:00	-2	vt1b2jcg8xj5611@marketplace.amazon.com	Amanda	+1 415-851-9136 ext. 39279	ABR0022	Delivery by Friday | Arabella Farm Direct Bouquet of 12 Fresh Cut Pink Roses with a Free Glass Vase	1	0	1	Expedited	Alice Bertholf	3855 SAILMAKER LN			DELAND	FL	32724-8252	US		Happy Birthday Grandma!!!!!! Mandy, Maddy, Sean & Bill From Amanda	false		
113-7033674-2265068	34313574760482	2020-11-05T00:45:28+00:00	2020-11-04T16:45:28-08:00	2020-11-05T00:57:18+00:00	2020-11-07T07:59:59+00:00	-2	nbv2zf53ztjs97n@marketplace.amazon.com	Aaron Duda	+1 213-442-1463 ext. 44640	ABR0022	Delivery by Friday | Arabella Farm Direct Bouquet of 12 Fresh Cut Pink Roses with a Free Glass Vase	1	0	1	Expedited	Stacy Musel	2050 BENJAMIN FRANKLIN DR UNIT 701A			SARASOTA	FL	34236-2385	US		Thanks for all the help last week! Love you! From Aaron	false		
111-4537408-5412219	02785529261498	2020-11-05T00:45:02+00:00	2020-11-04T16:45:02-08:00	2020-11-05T01:14:02+00:00	2020-11-07T07:59:59+00:00	-2	l34k4378mw1f5mj@marketplace.amazon.com	Mary Poe	+1 415-851-9136 ext. 93232	ABM022	Delivery by Saturday | Purple Extravagance Bouquet by Arabella Bouquets	1	0	1	Standard	Mrs Harold Huber	2752 HERITAGE RD			MAHASKA	KS	66955-9113	US		Happy Birthday. I love you. From Mary Poe	false		
113-2572102-5189841	69982041718346	2020-11-05T00:55:22+00:00	2020-11-04T16:55:22-08:00	2020-11-05T01:23:35+00:00	2020-11-07T07:59:59+00:00	-2	rqlr0vzgdhtmr54@marketplace.amazon.com	Jason Sproles	+1 480-618-5344 ext. 35671	ABR0022	Delivery by Friday | Arabella Farm Direct Bouquet of 12 Fresh Cut Pink Roses with a Free Glass Vase	1	0	1	Expedited	Jean McNamara	2074 CRESTVIEW CT			MIDDLEBURG	FL	32068-3687	US		Hi Jean, We love you and Miss you, We hope you had a wicked awesome Birthday!	false		
113-8561436-9174619	39096807573506	2020-11-05T01:01:23+00:00	2020-11-04T17:01:23-08:00	2020-11-05T01:27:53+00:00	2020-11-07T07:59:59+00:00	-2	yck0m4nm5xtf71v@marketplace.amazon.com	Leeminho	+1 602-671-6610 ext. 15945	ABR0022	Delivery by Friday | Arabella Farm Direct Bouquet of 12 Fresh Cut Pink Roses with a Free Glass Vase	1	0	1	Expedited	Carla Kathryn C. Tanaka	1515 MAIN ST APT 333			HOUSTON	TX	77002-7555	US		Happy birthday, Carla! You’re a blessing to all of us. Thank you for your love and care. We pray for your safety and happiness all the time. Stay healthy and driven. Proud of you always. We miss and love you so much! From Mama, Tin, Kim, Kenj	false		
113-0236308-2637865	04172114127978	2020-11-05T01:11:16+00:00	2020-11-04T17:11:16-08:00	2020-11-05T01:40:22+00:00	2020-11-07T07:59:59+00:00	-2	py7q1wvkx8vxx8j@marketplace.amazon.com	Gary	+1 480-618-5344 ext. 71721	ABM022	Delivery by Saturday | Purple Extravagance Bouquet by Arabella Bouquets	1	0	1	Expedited	Ned and Joy Walker	25919 ORCHARD KNOLL LN			KATY	TX	77494-1371	US			false		
113-4897249-0682619	28300917231906	2020-11-05T01:17:51+00:00	2020-11-04T17:17:51-08:00	2020-11-05T01:44:41+00:00	2020-11-07T07:59:59+00:00	-2	6bd4yqf2559lkj4@marketplace.amazon.com	Wolfram Schynoll	+1 619-854-2705 ext. 25887	ABR0033	Delivery by Saturday | Arabella Farm Direct Bouquet of 12 Fresh Cut Orange Roses with a Free Glass Vase	1	0	1	Expedited	John and Peg DeBates	23601 S DESERT STAR DR			CHANDLER	ARIZONA	85248-0811	US		Happy Birthday Mom! Enjoy your special day. Wishing you much fun with everyone. We love you, Nancy and Wolf From Wolfram Schynoll	false		
114-4060995-1858654	18921587941954	2020-11-05T01:26:57+00:00	2020-11-04T17:26:57-08:00	2020-11-05T01:55:41+00:00	2020-11-07T07:59:59+00:00	-2	9bhwlqkvhdymb98@marketplace.amazon.com	Jack Boudreaux	+1 602-671-6610 ext. 54255	ABM022	Delivery by Saturday | Purple Extravagance Bouquet by Arabella Bouquets	1	0	1	Expedited	Miller Peachey	250 W GLENN AVE APT 730			AUBURN	AL	36830-4744	US		Remember you are amazing and strong. Don't let anyone let you forget that, or that you aren't loved. From Jack Boudreaux	false		
112-0609222-9792254	44226507823522	2020-11-05T01:50:51+00:00	2020-11-04T17:50:51-08:00	2020-11-05T02:18:39+00:00	2020-11-07T07:59:59+00:00	-2	lsw1mdgrx7299tp@marketplace.amazon.com	Malthi Venkat	+1 602-671-6610 ext. 66936	ABR0055	Delivery by Saturday | Arabella Farm Direct Bouquet of 12 Stems of Fresh Cut Hot Pink Roses in a Free Designer Glass Vase	1	0	1	Expedited	Pavithra Venkat	25 REATA PL			OAKLAND	CA	94618-1937	US		Happy Anniversary!  Love Mom & Dad From Malthi & Mani Venkat	false		
114-5993836-8145050	64963157150138	2020-11-05T01:51:08+00:00	2020-11-04T17:51:08-08:00	2020-11-05T02:21:25+00:00	2020-11-07T07:59:59+00:00	-2	y5khskhgz6rjnhq@marketplace.amazon.com	yoo m seo	+1 602-671-6610 ext. 06916	ABR0022	Delivery by Friday | Arabella Farm Direct Bouquet of 12 Fresh Cut Pink Roses with a Free Glass Vase	1	0	1	Expedited	Amy Lister	23807 SEVENTH HEAVEN			KATY	TX	77494-0171	US			false		
113-5782933-5165047	23310780600778	2020-11-05T02:35:12+00:00	2020-11-04T18:35:12-08:00	2020-11-05T02:36:06+00:00	2020-11-07T07:59:59+00:00	-2	9t2hccwqj5pbxrj@marketplace.amazon.com	JUNZHENG YANG	+1 213-442-1463 ext. 03389	ABR0066	Delivery by Saturday | Arabella Bouquets 12 Stems of Fresh Cut White Roses in a Free Designer Glass Vase	1	0	1	Expedited	Ms. and Mr. McChesney	40 UPLAND RD			DEDHAM	MA	02026-6327	US		Dear Ms. McChesney and family,  Please accept our condolences, and know that our thoughts are with you during these challenging times. From The ASO Officers	false		
114-3408280-9554661	69313481013098	2020-11-05T02:09:27+00:00	2020-11-04T18:09:27-08:00	2020-11-05T02:37:58+00:00	2020-11-07T07:59:59+00:00	-2	ly09qf2g1rcgr42@marketplace.amazon.com	Joe Plubell	+1 213-442-1463 ext. 28333	ABM022	Delivery by Saturday | Purple Extravagance Bouquet by Arabella Bouquets	1	0	1	Expedited	Arlene Plubell	RTE 879 -- LONG DRIVEWAY ACROSS FROM USPS	5 FRENCHVILLE RD		FRENCHVILLE	PA	16836-8845	US		Happy Birthday Mom! Wish we could be there to celebrate but hope this will brighten up your day! From Love- Joe, Maria and Jess	false		
113-1384845-9821030	04603077949290	2020-11-05T02:21:28+00:00	2020-11-04T18:21:28-08:00	2020-11-05T02:44:13+00:00	2020-11-07T07:59:59+00:00	-2	jt1b54ltxb7yl42@marketplace.amazon.com	James Contizano	+1 415-851-9136 ext. 34004	ABR0022	Delivery by Friday | Arabella Farm Direct Bouquet of 12 Fresh Cut Pink Roses with a Free Glass Vase	1	0	1	Expedited	Ann Ward	802 SUNSHINE DR			MOUNTAIN GROVE	MO	65711-2955	US		We are praying for a quick recovery! Blessings from the Contizano family. From Jim & Jenny Contizano	false		
113-5215508-3347406	07269145687090	2020-11-05T02:14:29+00:00	2020-11-04T18:14:29-08:00	2020-11-05T02:45:06+00:00	2020-11-07T07:59:59+00:00	-2	zwhwqw94g1rw8rs@marketplace.amazon.com	Rodney Campbell	+1 213-442-1463 ext. 66989	ABR0022	Delivery by Friday | Arabella Farm Direct Bouquet of 12 Fresh Cut Pink Roses with a Free Glass Vase	1	0	1	Expedited	Rodney C Campbell	5416 156TH AVE SE			BELLEVUE	WA	98006-5112	US			false		
112-1214978-7572237	02235984127682	2020-11-05T02:19:03+00:00	2020-11-04T18:19:03-08:00	2020-11-05T02:47:41+00:00	2020-11-07T07:59:59+00:00	-2	32hvkcxn3hqzpy3@marketplace.amazon.com	marisol sanchez	+1 602-671-6610 ext. 53080	ABR0022	Delivery by Friday | Arabella Farm Direct Bouquet of 12 Fresh Cut Pink Roses with a Free Glass Vase	1	0	1	Expedited	Marina Duran	4481 HILLTOP DR			SAN DIEGO	CA	92102-3693	US		Feliz cumpleaños de tu familia de WA ❤️ From Sanchez Best y Maru	false		
114-8003773-2823466	46295878368642	2020-11-05T02:35:12+00:00	2020-11-04T18:35:12-08:00	2020-11-05T02:51:55+00:00	2020-11-07T07:59:59+00:00	-2	2kr4bmsl63vrgmv@marketplace.amazon.com	David Logan	+1 602-671-6610 ext. 70946	ABM020	Delivery by Saturday | The Sunset Bouquet by Arabella Bouquets	1	0	1	Standard	Mariana buentello	16626 SPERRY GARDENS DR			HOUSTON	TX	77095-5553	US		Mariana,    Even though we will be oceans apart, you are with me night and day. I can’t wait to see you in Egypt, when I come back, and everyday after babe! From David Logan	false		
111-6980621-9180203	39818865206122	2020-11-05T02:24:03+00:00	2020-11-04T18:24:03-08:00	2020-11-05T02:52:14+00:00	2020-11-07T07:59:59+00:00	-2	bkzz1l11r1n3vgh@marketplace.amazon.com	Laurie Topolski	+1 929-436-4790 ext. 06472	ABR0055	Delivery by Saturday | Arabella Farm Direct Bouquet of 12 Stems of Fresh Cut Hot Pink Roses in a Free Designer Glass Vase	1	0	1	Expedited	Anita Court	4 PINE CONE LN			SLEEPY HOLLOW	IL	60118-1710	US		God Bless and heal you quickly. Prayers and love being sent with these flowers.💞 From Laurie Topolski	false		
111-0593929-9012255	59773012644066	2020-11-05T02:43:23+00:00	2020-11-04T18:43:23-08:00	2020-11-05T03:11:04+00:00	2020-11-07T07:59:59+00:00	-2	42kfckfspmr0rt9@marketplace.amazon.com	Jeremy Peterson	+1 415-851-9136 ext. 07201	ABR0022	Delivery by Friday | Arabella Farm Direct Bouquet of 12 Fresh Cut Pink Roses with a Free Glass Vase	1	0	1	Expedited	Sue Peterson	3407 KINSEY AVE			DES MOINES	IA	50317-2713	US		Happy Birthday Mom!  We decided to get you flowers and a Wisconsin victory for Biden. Love you! From Jeremy, Meghan, and kids	false		
114-0040343-9730644	45710010757722	2020-11-05T02:43:52+00:00	2020-11-04T18:43:52-08:00	2020-11-05T03:13:01+00:00	2020-11-07T07:59:59+00:00	-2	vjfqs74l0m2nf8t@marketplace.amazon.com	Derek S. Anderson	+1 602-671-6610 ext. 41215	ABR0022	Delivery by Friday | Arabella Farm Direct Bouquet of 12 Fresh Cut Pink Roses with a Free Glass Vase	1	0	1	Expedited	Karen Carter	2251 W TARLETON ST APT 703			STEPHENVILLE	TX	76401-2804	US		Karen, I wish you a wonderful Birthday! From DS	false		
114-9393235-8568242	23408087362290	2020-11-05T02:47:42+00:00	2020-11-04T18:47:42-08:00	2020-11-05T03:13:16+00:00	2020-11-07T07:59:59+00:00	-2	150y1yycml848mg@marketplace.amazon.com	jonathan hildebrandt	+1 929-436-4790 ext. 34249	ABR0022	Delivery by Friday | Arabella Farm Direct Bouquet of 12 Fresh Cut Pink Roses with a Free Glass Vase	1	0	1	Expedited	Marlys Sinsel	426 N HUBBARD AVE			MINDEN	NE	68959-1748	US		Happy Birthday (Great) Grandma! Hope you have a wonderful day and great year ahead! We love you and miss you. From Heidi, Jonathan, and Preston Hildebrandt	false		
112-5660339-5836235	26103081484954	2020-11-05T02:47:11+00:00	2020-11-04T18:47:11-08:00	2020-11-05T03:14:25+00:00	2020-11-07T07:59:59+00:00	-2	svxlqpx61wdp43y@marketplace.amazon.com	Stephen Olson	+1 619-854-2705 ext. 22390	ABM022	Delivery by Saturday | Purple Extravagance Bouquet by Arabella Bouquets	1	0	1	Standard	Meyers Family	3648 LAFAYETTE AVE			OMAHA	NE	68131-1364	US		Ps 37:11 But the meek will possess the earth, And they will find exquisite delight in the abundance of peace. Looking forward to us all welcoming Nastasha back! Love you guys ;) From Stephen Olson	false		
114-0957377-5626647	55206979190530	2020-11-05T02:50:59+00:00	2020-11-04T18:50:59-08:00	2020-11-05T03:21:09+00:00	2020-11-07T07:59:59+00:00	-2	814f941041d208p@marketplace.amazon.com	Cathy Allen	+1 213-442-1463 ext. 68042	ABM0044	Delivery by Monday | Arabella Farm Direct Bouquet of Fresh Cut Blue Hydrangea with a Free Glass Vase	1	0	1	Expedited	Cathy Allen	8810 TR 239			Lakeview	Ohio	43331	US			false		
112-1336619-5133839	16446711576882	2020-11-05T02:59:20+00:00	2020-11-04T18:59:20-08:00	2020-11-05T03:22:08+00:00	2020-11-07T07:59:59+00:00	-2	708qts1yk4mzg0v@marketplace.amazon.com	Justin B Sears Motley	+1 602-671-6610 ext. 60389	ABR0022	Delivery by Friday | Arabella Farm Direct Bouquet of 12 Fresh Cut Pink Roses with a Free Glass Vase	1	0	1	Expedited	Victraya Snead	3322 ASH DR APT 11312			LAKE ORION	MI	48359-1070	US		Congrats on getting your lash order. Your business will soon be off the ground and you are knocking at the door of Success.  I miss you a lot and I love you through and through. Enjoy hope this keeps your day Bright. From J Mot	false		
114-8110820-3174661	28274447221818	2020-11-05T02:54:20+00:00	2020-11-04T18:54:20-08:00	2020-11-05T03:22:28+00:00	2020-11-07T07:59:59+00:00	-2	3prdbkh7gmqnnl8@marketplace.amazon.com	Bev Hicks	+1 602-671-6610 ext. 59062	ABR0022	Delivery by Friday | Arabella Farm Direct Bouquet of 12 Fresh Cut Pink Roses with a Free Glass Vase	1	0	1	Expedited	Gloria Brickman	4105 OLD MILL RD			WACO	TX	76710-1310	US			false		
114-9119225-7041841	42909796668290	2020-11-05T02:58:07+00:00	2020-11-04T18:58:07-08:00	2020-11-05T03:27:39+00:00	2020-11-07T07:59:59+00:00	-2	mr7fkfk8g9hm2yr@marketplace.amazon.com	Nathalie Peña	+1 602-671-6610 ext. 57389	ABR0022	Delivery by Friday | Arabella Farm Direct Bouquet of 12 Fresh Cut Pink Roses with a Free Glass Vase	1	0	1	Expedited	Ana de Peña	1201 TANGIER ST			CORAL GABLES	FL	33134-2484	US		Feliz Cumpleaños Nana!  Con cariño, Nathalie, Jonatan y Xavi From Nathalie Peña	false		
112-1853556-4383425	23464193910714	2020-11-05T03:07:51+00:00	2020-11-04T19:07:51-08:00	2020-11-05T03:30:02+00:00	2020-11-07T07:59:59+00:00	-2	h4yjqqrm75gycyl@marketplace.amazon.com	Ahmed Taha	+2174171789	ABR0022	Delivery by Friday | Arabella Farm Direct Bouquet of 12 Fresh Cut Pink Roses with a Free Glass Vase	1	0	1	Expedited	Tessneem Turkmani	3986 GRASSLAND WAY			EAST LANSING	MI	48823-6189	US		Tessneem, May Allah Swt reward you with blessings for the surgery and recovery you’ve undergone and ease your recovery and preserve your health and well being always! We love you and wish you all the best. From Taha family	false		
112-8777407-1801030	59944505402154	2020-11-05T03:04:59+00:00	2020-11-04T19:04:59-08:00	2020-11-05T03:33:11+00:00	2020-11-07T07:59:59+00:00	-2	dpnr6jpbmfjwk4x@marketplace.amazon.com	Marina	+1 480-618-5344 ext. 29023	ABR0022	Delivery by Friday | Arabella Farm Direct Bouquet of 12 Fresh Cut Pink Roses with a Free Glass Vase	1	0	1	Expedited	Daphne Eckard	3505 N 950 E			NORTH OGDEN	UT	84414-7573	US			false		
111-5837495-6369001	62894362864402	2020-11-05T03:40:37+00:00	2020-11-04T19:40:37-08:00	2020-11-05T03:41:26+00:00	2020-11-07T07:59:59+00:00	-2	zvhsc2hn36xr91p@marketplace.amazon.com	Robert E Macdonald	+1 415-851-9136 ext. 04335	ABM020	Delivery by Saturday | The Sunset Bouquet by Arabella Bouquets	1	0	1	Expedited	Ann-Kersti Lundberg	136 SE 2ND AVE			BOYNTON BEACH	FL	33435-4568	US			false		
114-3541375-4021014	51808391425282	2020-11-05T03:12:04+00:00	2020-11-04T19:12:04-08:00	2020-11-05T03:41:37+00:00	2020-11-07T07:59:59+00:00	-2	kpj8kk49kz3bzn0@marketplace.amazon.com	Courtney R. Donovan	+1 213-442-1463 ext. 84882	ABM022	Delivery by Saturday | Purple Extravagance Bouquet by Arabella Bouquets	1	0	1	Expedited	Larry Martens	206 CRAFTSMAN DR			NEW BERN	NC	28562-2307	US		Happy Veterans Day! Thank you for your service! We love you, love the Donovan’s! From Courtney R. Donovan	false		
112-1807135-3369852	18126155242954	2020-11-05T03:17:48+00:00	2020-11-04T19:17:48-08:00	2020-11-05T03:44:17+00:00	2020-11-07T07:59:59+00:00	-2	pdvqyx0jxptb587@marketplace.amazon.com	Katherine G Oddi	+1 480-618-5344 ext. 03443	ABM010	The Spring Fling Bouquet by Arabella Bouquets with a Free Designer Glass Vase	1	0	1	Expedited	Nicole Pizzaloto	7 LORRAINE ST			GLEN RIDGE	NJ	07028-2027	US		Happy Birthday Pizz!!!!  We love you!!! Celli, Mags, Alli, Sandy, Spina, Betsy, and Kate From Katherine G Oddi	false		
114-9693281-8709820	25910152912362	2020-11-05T03:23:30+00:00	2020-11-04T19:23:30-08:00	2020-11-05T03:52:36+00:00	2020-11-07T07:59:59+00:00	-2	19v5x6wtchj009t@marketplace.amazon.com	Joseph Rioux	+1 480-618-5344 ext. 58430	ABM022	Delivery by Saturday | Purple Extravagance Bouquet by Arabella Bouquets	1	0	1	Expedited	Peggy Descoteaux	2151 SUNNYSIDE AVE APT 127			CLOVIS	CA	93611-4045	US		Happy Birthday Grandma, thinking of you always. Love, Katie & Family. From Joseph Rioux	false		
112-9653705-0332203	35044512308450	2020-11-05T03:27:33+00:00	2020-11-04T19:27:33-08:00	2020-11-05T03:56:02+00:00	2020-11-07T07:59:59+00:00	-2	wpt7r0v27ndv7k3@marketplace.amazon.com	Aaron McElhattan	+1 602-671-6610 ext. 93216	ABM010	The Spring Fling Bouquet by Arabella Bouquets with a Free Designer Glass Vase	1	0	1	Expedited	Val and Adam McQueen	2833 E NICHOLS CIR			CENTENNIAL	CO	80122-3475	US			false		
114-6842715-0746603	27129326303098	2020-11-05T03:32:16+00:00	2020-11-04T19:32:16-08:00	2020-11-05T04:00:05+00:00	2020-11-07T07:59:59+00:00	-2	6prstpgcgj73gn8@marketplace.amazon.com	Rukome	+1 213-442-1463 ext. 42436	ABR001	Delivery by Saturday | Arabella Bouquets 12 Stems of Fresh Cut Red Roses in a Free Designer Glass Vase	1	0	1	Expedited	Maria Gemma Smith	9122 50TH AVE			ELMHURST	NY	11373-4000	US		I want to be the only one that sends you flowers, I want to be the only man in your life that makes you happy and smile. You are the only woman that completes me. I love you. From Sean	false		
112-6783962-0738648	26918735565922	2020-11-05T03:37:07+00:00	2020-11-04T19:37:07-08:00	2020-11-05T04:04:25+00:00	2020-11-07T07:59:59+00:00	-2	hbjm56hlnzx2h00@marketplace.amazon.com	Naomi Lee Bloom	+1 929-436-4790 ext. 88812	ABR013	Delivery by Monday | Arabella Farm Direct Bouquet of 18 Fresh Cut Yellow Roses with a Free Glass Vase	1	0	1	Expedited	Naomi Lee Bloom	DEVONWOOD ESTATES -- GATED DEVELOPMENT	6821 STONY RUN CT		FORT MYERS	FL	33908-7218	US		A gift just for me. From Naomi Lee Bloom	false		
113-3463803-6896213	24345291441410	2020-11-05T03:38:04+00:00	2020-11-04T19:38:04-08:00	2020-11-05T04:05:14+00:00	2020-11-07T07:59:59+00:00	-2	075f2rg158ry70y@marketplace.amazon.com	alak	+1 213-442-1463 ext. 61400	ABM022	Delivery by Saturday | Purple Extravagance Bouquet by Arabella Bouquets	1	0	1	Expedited	Sarah Alqaissi	14199 N INTERSTATE 35  APT8202			PFLUGERVILLE	TX	78660-3471	US		Happy Marriage to the most beautiful couple! From Your sis: Alak Alkailani	false		
114-7092796-9950642	58935105413578	2020-11-05T03:40:51+00:00	2020-11-04T19:40:51-08:00	2020-11-05T04:07:39+00:00	2020-11-07T07:59:59+00:00	-2	c7mg6wnwwvk44c2@marketplace.amazon.com	Nathalia	+1 602-671-6610 ext. 35387	ABM0033	Delivery by Monday | Arabella Farm Direct Bouquet of Fresh Cut White Hydrangea with a Free Glass Vase	1	0	1	Expedited	Gabriela Jimenez	2310 W MARSHALL AVE			PHOENIX	AZ	85015-2202	US		Te Quiero Mucho 💕 From Animo Equipo!	false		
111-5786943-5641034	25325491687602	2020-11-05T04:32:28+00:00	2020-11-04T20:32:28-08:00	2020-11-05T04:41:59+00:00	2020-11-07T07:59:59+00:00	-2	t1hzxy1n32h57tz@marketplace.amazon.com	Sierra M.	+1 480-618-5344 ext. 85217	ABM010	The Spring Fling Bouquet by Arabella Bouquets with a Free Designer Glass Vase	1	0	1	Expedited	Lane Franz	97652 OVERSEAS HWY	HARBOR HOUSE HH # 45		KEY LARGO	FL	33037-2215	US		Happy Birthday Mom!! We love and Miss you so much!! Enjoy your flowers! xoxoxo From Ayres, Mike, Lilise, Rett, Lyndsey and Kids	false		
114-8969224-6080238	28497640296426	2020-11-05T04:33:15+00:00	2020-11-04T20:33:15-08:00	2020-11-05T05:01:27+00:00	2020-11-07T07:59:59+00:00	-2	7t3kx7hsk3ysy5k@marketplace.amazon.com	Magali Cook	+1 602-671-6610 ext. 58164	ABM022	Delivery by Saturday | Purple Extravagance Bouquet by Arabella Bouquets	1	0	1	Expedited	Patti Cook	11703 W 56TH CIR			ARVADA	CO	80002-1409	US			false		
114-2338081-7768210	63099917928986	2020-11-05T04:34:56+00:00	2020-11-04T20:34:56-08:00	2020-11-05T05:02:23+00:00	2020-11-07T07:59:59+00:00	-2	zzhnqbr64vtn240@marketplace.amazon.com	Lindsay Chamblee	+1 602-671-6610 ext. 42380	ABM022	Delivery by Saturday | Purple Extravagance Bouquet by Arabella Bouquets	1	0	1	Expedited	Susan chamblee	2502 W 8TH AVE			STILLWATER	OK	74074-1910	US		We are thinking of you & love you! From Dalton, Lindsay, Olivia, Wyatt, Gracie, & Lily	false		
114-6214661-7164232	31621477343970	2020-11-05T04:39:09+00:00	2020-11-04T20:39:09-08:00	2020-11-05T05:08:32+00:00	2020-11-07T07:59:59+00:00	-2	tqgzg31zys8c94k@marketplace.amazon.com	Carol Rowe	+1 619-854-2705 ext. 53328	ABM031	Delivery by Monday | The Harvest Moon Bouquet by Arabella Bouquets	1	0	1	Expedited	Sue Rowe	153 SIERRA DR			BOZEMAN	MT	59718-7144	US		Happy Birthday Mom!  Blessings on you this year!    Love, Stephen, Carol, & the boys From Carol Rowe	false		
111-1167787-9887413	68972588476498	2020-11-05T04:44:19+00:00	2020-11-04T20:44:19-08:00	2020-11-05T05:13:54+00:00	2020-11-07T07:59:59+00:00	-2	mry7p6q84t2dnxq@marketplace.amazon.com	Kristin Breedlove	+1 619-854-2705 ext. 03023	ABM021	The Joyous Bouquet by Arabella Bouquets	1	0	1	Expedited	Katie James	20245 Crystal Lake Drive			Hammond	La	70403	US		Happy happy birthday Katie!!!! From Kristin Breedlove	false		
113-5948588-7596206	40768331420146	2020-11-05T04:43:53+00:00	2020-11-04T20:43:53-08:00	2020-11-05T05:14:27+00:00	2020-11-07T07:59:59+00:00	-2	dqwcy9tdpg3rx41@marketplace.amazon.com	Stacy Savage	+1 619-854-2705 ext. 52144	ABM002	Delivery by Monday | Arabella Bouquets Fresh Cut White Calla Lilies in a Free Designer Glass Vase	1	0	1	Expedited	Kim Hansen	27245 471ST AVE			HARRISBURG	SD	57032-8118	US			false		
112-8796545-9561838	27534764990786	2020-11-05T05:01:18+00:00	2020-11-04T21:01:18-08:00	2020-11-05T05:26:55+00:00	2020-11-07T07:59:59+00:00	-2	77g7rb8phjwlxx2@marketplace.amazon.com	Jude Gibson	+1 213-442-1463 ext. 85590	ABM022	Delivery by Saturday | Purple Extravagance Bouquet by Arabella Bouquets	1	0	1	Expedited	Mary Ellen McKay	1616 Trottingway Trail			Chesterfield	Missouri	63005	US		Hope these brighten your day and that you are healthy again real soon. From Jude and Lorri Gibson	false		
112-1031031-2113044	21548802898474	2020-11-05T05:00:24+00:00	2020-11-04T21:00:24-08:00	2020-11-05T05:30:53+00:00	2020-11-07T07:59:59+00:00	-2	7fc3l4rt5r55p2n@marketplace.amazon.com	Katie Petersen	+1 619-854-2705 ext. 33924	ABR0033	Delivery by Saturday | Arabella Farm Direct Bouquet of 12 Fresh Cut Orange Roses with a Free Glass Vase	1	0	1	Expedited	Katie Petersen	31053 North 44th Street			Cave Creek	AZ	85331	US			false		
112-6088281-4504220	57509617414202	2020-11-05T05:21:05+00:00	2020-11-04T21:21:05-08:00	2020-11-05T05:50:19+00:00	2020-11-07T07:59:59+00:00	-2	b6pcw96xfp4s38z@marketplace.amazon.com	nga tran	+1 213-442-1463 ext. 06318	ABR0022	Delivery by Friday | Arabella Farm Direct Bouquet of 12 Fresh Cut Pink Roses with a Free Glass Vase	1	0	1	Expedited	Lang Duong	21731 JOHNSTONE DR			LAKE FOREST	CA	92630-6523	US		Mom, Happy Birthday From nga tran	false		
112-2829298-4053849	43327922244306	2020-11-05T05:54:26+00:00	2020-11-04T21:54:26-08:00	2020-11-05T06:05:59+00:00	2020-11-07T07:59:59+00:00	-2	9bpsr5r9p1l2b21@marketplace.amazon.com	Roberta R. Van Hise	+1 602-671-6610 ext. 26358	ABR0022	Delivery by Friday | Arabella Farm Direct Bouquet of 12 Fresh Cut Pink Roses with a Free Glass Vase	1	0	1	Expedited	Jill Toll	2435 N RIVERSIDE DR			SANTA ANA	CA	92706-1614	US			false		
114-3784718-9031404	20588827464282	2020-11-05T05:55:02+00:00	2020-11-04T21:55:02-08:00	2020-11-05T06:10:07+00:00	2020-11-07T07:59:59+00:00	-2	s3k1f67l4cxvzj3@marketplace.amazon.com	Enrico S. Martin	+1 929-436-4790 ext. 08152	ABR0022	Delivery by Friday | Arabella Farm Direct Bouquet of 12 Fresh Cut Pink Roses with a Free Glass Vase	1	0	1	Expedited	Ms Lucy Galang	2982 MIRALOMA WAY			UNION CITY	CA	94587-1543	US		Happy Birthday, A Lucy! Enjoy your gift! Love, From Mil, Bong, Carmi, Ron & Elaine	false		
114-1341261-4656256	00829766173242	2020-11-05T05:49:19+00:00	2020-11-04T21:49:19-08:00	2020-11-05T06:14:45+00:00	2020-11-07T07:59:59+00:00	-2	kzfq0s777mg1qq0@marketplace.amazon.com	Lisa Borrego	+1 929-436-4790 ext. 00503	ABR0022	Delivery by Friday | Arabella Farm Direct Bouquet of 12 Fresh Cut Pink Roses with a Free Glass Vase	1	0	1	Expedited	Sara Borrego	6333 LAKE MELISSA DR			SAN DIEGO	CA	92119-3539	US		Enjoy your gift! From Lisa Roger Borrego	false		
114-1658851-1364211	51580030667034	2020-11-05T06:15:21+00:00	2020-11-04T22:15:21-08:00	2020-11-05T06:46:00+00:00	2020-11-07T07:59:59+00:00	-2	npy8yjrchm7bncv@marketplace.amazon.com	Michael E. Profenno	+1 480-618-5344 ext. 74560	ABR0055	Delivery by Saturday | Arabella Farm Direct Bouquet of 12 Stems of Fresh Cut Hot Pink Roses in a Free Designer Glass Vase	2	0	2	Expedited	Lt Col. Michael E Profenno; USA (R)	3079 BORASSUS DR			NEW SMYRNA BEACH	FL	32168-6374	US			false		
111-9450009-0996225	63574311196002	2020-11-05T07:27:21+00:00	2020-11-04T23:27:21-08:00	2020-11-05T07:49:32+00:00	2020-11-07T07:59:59+00:00	-2	w89q1ww608842dl@marketplace.amazon.com	JEANICE DE LA FUENTE	+1 929-436-4790 ext. 17264	ABM022	Delivery by Saturday | Purple Extravagance Bouquet by Arabella Bouquets	1	0	1	Expedited	LORETTA AND KEN RISEN	16495 W NORTON WAY			YARNELL	AZ	85362-1425	US		For ALL that you have done for us and baby Aivy. We can't thank you enough.  Love, Jeanice & Kenny Risen From Jeanice & Kenny Risen	false		
113-4236182-1700259	17955705760338	2020-11-05T08:34:10+00:00	2020-11-05T00:34:10-08:00	2020-11-05T09:00:46+00:00	2020-11-10T07:59:59+00:00	-5	4bnmzfkc76nc7pz@marketplace.amazon.com	Jenny M. Russell	+1 213-442-1463 ext. 28557	ABR0022	Delivery by Friday | Arabella Farm Direct Bouquet of 12 Fresh Cut Pink Roses with a Free Glass Vase	1	0	1	Expedited	Lauren Richards	1215 W HIGHWAY 101 TRLR 96			PORT ANGELES	WA	98363-9401	US		Thinking of you. I know how much you loved your dear Liam. From Jenny M. Russell	false		
111-9314579-7222658	41250059309730	2020-11-05T09:16:14+00:00	2020-11-05T01:16:14-08:00	2020-11-05T09:45:59+00:00	2020-11-10T07:59:59+00:00	-5	5vphk2bqsvx2fj4@marketplace.amazon.com	Dawn Lovell	+1 213-442-1463 ext. 22939	ABR0022	Delivery by Friday | Arabella Farm Direct Bouquet of 12 Fresh Cut Pink Roses with a Free Glass Vase	1	0	1	Expedited	Mrs. Carolyn Lee	3348 Ouachita 67			Louann	AR	71751	US		Hope this brightens your day a little! Love my beautiful mama! From Dawn	false		
114-7642015-4194620	70367041769834	2020-11-05T09:31:56+00:00	2020-11-05T01:31:56-08:00	2020-11-05T10:02:12+00:00	2020-11-10T07:59:59+00:00	-5	y892xc3c0d2bjbz@marketplace.amazon.com	Andrew Hobden	+1 619-854-2705 ext. 68185	ABM023	Delivery by Monday | The Morning Sun Bouquet by Arabella Bouquets	1	0	1	Expedited	Felicia Bennett	221 BOWLIN AVE NE			ORTING	WA	98360-8509	US			false		
113-2361700-4508201	34996750931946	2020-11-05T11:22:58+00:00	2020-11-05T03:22:58-08:00	2020-11-05T11:53:39+00:00	2020-11-10T07:59:59+00:00	-5	mftfb20mp93v58x@marketplace.amazon.com	Derrick	+1 929-436-4790 ext. 64586	ABR0022	Delivery by Friday | Arabella Farm Direct Bouquet of 12 Fresh Cut Pink Roses with a Free Glass Vase	1	0	1	Expedited	Derrick Moses	1816 VIRGINIAN COLONY AVE			LA PLACE	LA	70068-2842	US			false		
112-8852532-5705822	37725692083938	2020-11-05T12:10:10+00:00	2020-11-05T04:10:10-08:00	2020-11-05T12:40:15+00:00	2020-11-10T07:59:59+00:00	-5	lzb0mbqvbfhsmwd@marketplace.amazon.com	stan hallem	+1 929-436-4790 ext. 26094	ABR0066	Delivery by Saturday | Arabella Bouquets 12 Stems of Fresh Cut White Roses in a Free Designer Glass Vase	1	0	1	Expedited	Stanford M Hallem	6983  Columbia Ct.			Margate	Florida	33063	US			false		
111-9173939-4277808	26164531384242	2020-11-05T12:26:35+00:00	2020-11-05T04:26:35-08:00	2020-11-05T12:47:24+00:00	2020-11-10T07:59:59+00:00	-5	r4z618qrpzrh681@marketplace.amazon.com	Sondra Cernigliaro	+1 213-442-1463 ext. 09429	ABR0022	Delivery by Friday | Arabella Farm Direct Bouquet of 12 Fresh Cut Pink Roses with a Free Glass Vase	1	0	1	Expedited	Terri Trucello Miller	1845 KERRY ST			MINNEOLA	FL	34715-7800	US		Terri,  Congratulations on growing a little person inside your lady parts!  Sending you much love & laughter.  Love, Sondra From Sondra Cernigliaro	false		
111-5459520-5953800	44079661297194	2020-11-05T12:21:19+00:00	2020-11-05T04:21:19-08:00	2020-11-05T12:49:47+00:00	2020-11-10T07:59:59+00:00	-5	px6x3svrj9j2hxb@marketplace.amazon.com	Kim Knight	+1 929-436-4790 ext. 66723	ABM022	Delivery by Saturday | Purple Extravagance Bouquet by Arabella Bouquets	1	0	1	Expedited	Carolyn Knight	210 20TH PL			CLINTON	IA	52732-6156	US			false		
113-7095570-5344256	23950196914762	2020-11-05T12:34:43+00:00	2020-11-05T04:34:43-08:00	2020-11-05T13:04:28+00:00	2020-11-10T07:59:59+00:00	-5	9kz0rmkytgdvk24@marketplace.amazon.com	Debra Ertola	+1 619-854-2705 ext. 87986	ABM022	Delivery by Saturday | Purple Extravagance Bouquet by Arabella Bouquets	1	0	1	Expedited	Eugenie Breitenbach	5880 LIMESTONE RD			PENSACOLA	FLORIDA	32504-7750	US		Happy Birthday Mama, love you!  ♥️ From Debra	false		
113-9395460-1311468	44132296825818	2020-11-05T12:51:42+00:00	2020-11-05T04:51:42-08:00	2020-11-05T13:19:42+00:00	2020-11-10T07:59:59+00:00	-5	kq14n2t7h3txlvt@marketplace.amazon.com	Tracy Townson	+1 619-854-2705 ext. 89065	ABB011	Delivery by Monday | Arabella Bouquets 24 Stems of Fresh Cut Hot Pink Roses in a Free Designer Glass Vase	1	0	1	Expedited	Myrna Bennett	115 WILLOW ST			LAKE WALES	FL	33859-8733	US		Happy birthday Mom! See you soon! We love you! Tracy and Mike From Tracy Townson	false		
113-6524774-2851432	42329747084778	2020-11-05T13:13:11+00:00	2020-11-05T05:13:11-08:00	2020-11-05T13:36:26+00:00	2020-11-10T07:59:59+00:00	-5	ky671bj7js5lbhj@marketplace.amazon.com	davon	+1 929-436-4790 ext. 66626	ABR001	Delivery by Saturday | Arabella Bouquets 12 Stems of Fresh Cut Red Roses in a Free Designer Glass Vase	1	0	1	Standard	Monique	39 MADISON ST			ROCHESTER	NY	14608-1963	US		Each Rose's represents each month I knew you from the first time we met Queen From Davon/Reese	false		
111-9970768-0378652	36357252596202	2020-11-05T13:34:12+00:00	2020-11-05T05:34:12-08:00	2020-11-05T14:03:42+00:00	2020-11-10T07:59:59+00:00	-5	f29ylsnmzq40syb@marketplace.amazon.com	Rachel Lattuca	+1 602-671-6610 ext. 27898	ABR0022	Delivery by Friday | Arabella Farm Direct Bouquet of 12 Fresh Cut Pink Roses with a Free Glass Vase	1	0	1	Expedited	Rachel Lattuca	8837 HARDESTY DR			YUCCA VALLEY	CA	92284-4193	US		Love you, miss you! From Mike	false		
113-1285130-2639462	00633609268042	2020-11-05T13:45:42+00:00	2020-11-05T05:45:42-08:00	2020-11-05T14:15:46+00:00	2020-11-10T07:59:59+00:00	-5	9zmh7pxr6qbxvb5@marketplace.amazon.com	Nicholas Mesagno II	+1 602-671-6610 ext. 82569	ABR0022	Delivery by Friday | Arabella Farm Direct Bouquet of 12 Fresh Cut Pink Roses with a Free Glass Vase	1	0	1	Expedited	Mara Lovely Orlova	4028 SW WEBSTER ST			SEATTLE	WA	98136-2129	US			false		
113-4253979-8594629	61634680074226	2020-11-05T13:50:31+00:00	2020-11-05T05:50:31-08:00	2020-11-05T14:18:53+00:00	2020-11-10T07:59:59+00:00	-5	r2qrktn7s8df6p8@marketplace.amazon.com	nicole snyder	+1 213-442-1463 ext. 95324	ABR0055	Delivery by Saturday | Arabella Farm Direct Bouquet of 12 Stems of Fresh Cut Hot Pink Roses in a Free Designer Glass Vase	1	0	1	Standard	Erin Gothard	541 AGATE ST			LAGUNA BEACH	CA	92651-3325	US		Dear Erin, Congrats on the new job, sister! I’m so excited for you, so much happiness all around! You’re going to crush it! From Love, Nikki	false		
114-8649585-0238665	51454016023362	2020-11-05T14:03:32+00:00	2020-11-05T06:03:32-08:00	2020-11-05T14:26:00+00:00	2020-11-10T07:59:59+00:00	-5	khhtq2n9tbgt9ss@marketplace.amazon.com	Fabiana Duarte	+1 415-851-9136 ext. 34046	ABM022	Delivery by Saturday | Purple Extravagance Bouquet by Arabella Bouquets	1	0	1	Expedited	Daisy Torrento del Cid	12903 HOLDRIDGE RD			SILVER SPRING	MD	20906-4035	US		Daisy y mama,  Muchas gracias por su cariño, apoyo y su oración. Dios las cuide y bendiga grandemente, son un ejemplo de como vivir la vida con Cristo como guia. Las quiero mucho! From Fabiana Duarte	false		
112-3571125-9271428	23390909899874	2020-11-05T14:09:16+00:00	2020-11-05T06:09:16-08:00	2020-11-05T14:36:40+00:00	2020-11-10T07:59:59+00:00	-5	z39d5xbwcb7nm52@marketplace.amazon.com	G A Knott	+1 602-671-6610 ext. 14280	ABR0066	Delivery by Saturday | Arabella Bouquets 12 Stems of Fresh Cut White Roses in a Free Designer Glass Vase	1	0	1	Expedited	Katrina and Eoin kenny	990 FOLIAGE LN			CHARLESTON	SC	29412-4261	US		With much love from Bob, Glynis and Tim x From G A Knott	false		
113-7534160-7891445	60309294323090	2020-11-05T14:22:58+00:00	2020-11-05T06:22:58-08:00	2020-11-05T14:52:59+00:00	2020-11-10T07:59:59+00:00	-5	9h861frd40qzrvv@marketplace.amazon.com	Bret A Nedrow	+1 213-442-1463 ext. 27187	ABM022	Delivery by Saturday | Purple Extravagance Bouquet by Arabella Bouquets	1	0	1	Expedited	Mary Nedrow	3280 E 1200 N			Ashton	ID	83420	US			false		
113-1249255-0842602	25338127356322	2020-11-05T14:39:08+00:00	2020-11-05T06:39:08-08:00	2020-11-05T15:05:29+00:00	2020-11-10T07:59:59+00:00	-5	7j58sy4txdjy13n@marketplace.amazon.com	Deborah Schneible	+1 929-436-4790 ext. 03667	ABR0022	Delivery by Friday | Arabella Farm Direct Bouquet of 12 Fresh Cut Pink Roses with a Free Glass Vase	1	0	1	Expedited	Abby Gibson	5235 STATE ROUTE 94 E			SEDALIA	KY	42079-9664	US		To the best new mom & dad,  Thank you for bringing the most beautiful Lil Nug into this world.   We love you! From Auntie Jess & Uncle Cal	false		
112-4322751-8781053	15682929938378	2020-11-05T14:47:07+00:00	2020-11-05T06:47:07-08:00	2020-11-05T15:10:32+00:00	2020-11-10T07:59:59+00:00	-5	fzkwjbbtyp1qlpx@marketplace.amazon.com	Haeli Frostman	+1 480-618-5344 ext. 31637	ABM022	Delivery by Saturday | Purple Extravagance Bouquet by Arabella Bouquets	1	0	1	Expedited	Chelsea Barnes	612 VAUGHN AVE			ASHLAND	WI	54806-3053	US		I hope these come in time! I wanted to send you something to brighten your day since you’ve been away from Carson for so long❤️ From Haeli	false		
111-0291599-8505861	28898952382946	2020-11-05T15:02:07+00:00	2020-11-05T07:02:07-08:00	2020-11-05T15:31:38+00:00	2020-11-10T07:59:59+00:00	-5	rjnqzd7k7kghd1n@marketplace.amazon.com	Michelle Goeser	+1 213-442-1463 ext. 62145	ABM022	Delivery by Saturday | Purple Extravagance Bouquet by Arabella Bouquets	1	0	1	Expedited	Joseph Goeser	150 STONEBRIDGE RD APT 315			PLATTEVILLE	WI	53818-2086	US		Happy healing and the best is yet to come! From Michelle, Pat, Megan & Hana	false		
114-7809330-9258627	08152495765042	2020-11-05T15:11:09+00:00	2020-11-05T07:11:09-08:00	2020-11-05T15:37:57+00:00	2020-11-10T07:59:59+00:00	-5	7hf8tvq38ygmtpd@marketplace.amazon.com	William Wilson	+1 619-854-2705 ext. 11301	ABR0066	Delivery by Saturday | Arabella Bouquets 12 Stems of Fresh Cut White Roses in a Free Designer Glass Vase	1	0	1	Expedited	Brenda Watkins	17 East Anna Street			Whitesboro	NJ	08252	US			false		
111-0914304-4297017	65578489367978	2020-10-28T22:38:21+00:00	2020-10-28T15:38:21-07:00	2020-11-05T15:58:59+00:00	2020-11-10T07:59:59+00:00	-5	4wfhjtcgcfh1wkq@marketplace.amazon.com	Suzanne Palumbo	+1 929-436-4790 ext. 39186	ABR0066	Delivery by Friday | Arabella Bouquets 12 Stems of Fresh Cut White Roses in a Free Designer Glass Vase	1	0	1	Expedited	Charles & Jenni	251 Trotters Drive			Maitland	FL	32751	US			false		
111-4594073-5593812	04349846349642	2020-11-05T15:35:19+00:00	2020-11-05T07:35:19-08:00	2020-11-05T16:04:00+00:00	2020-11-10T07:59:59+00:00	-5	m2lmgk8jq6nvrjh@marketplace.amazon.com	Nick Habibulla	+1 619-854-2705 ext. 50949	ABR0055	Delivery by Saturday | Arabella Farm Direct Bouquet of 12 Stems of Fresh Cut Hot Pink Roses in a Free Designer Glass Vase	1	0	1	Expedited	Erica Adam	102 BARCELONA DR			ROYAL PALM BEACH	FL	33411-1313	US		Happiest Birthday dear Erica, You are a beautiful, kindhearted person and we are thankful to have you in our family. Love always, Faria, Nick, Rayia and Janna From Nick Habibulla	false		
114-0746558-6721054	53698846122970	2020-11-05T15:40:40+00:00	2020-11-05T07:40:40-08:00	2020-11-05T16:09:05+00:00	2020-11-10T07:59:59+00:00	-5	92jxx4q5lrt8f5w@marketplace.amazon.com	Veronica	+1 602-671-6610 ext. 91103	ABM010	The Spring Fling Bouquet by Arabella Bouquets with a Free Designer Glass Vase	1	0	1	Expedited	Ashley Periera	59 Haywards Heath			West Henrietta	NY	14586	US		I missed your birthday but these are more than bday flowers. These are.. I think you are an amazing woman and happy you are my friend flowers. <3 From Veronica	false		
114-0249607-1570657	14243145902426	2020-11-05T15:48:02+00:00	2020-11-05T07:48:02-08:00	2020-11-05T16:15:31+00:00	2020-11-10T07:59:59+00:00	-5	ptfqxq02jn8yvb8@marketplace.amazon.com	TERRI ARCURI	+1 480-618-5344 ext. 19193	ABR001	Delivery by Saturday | Arabella Bouquets 12 Stems of Fresh Cut Red Roses in a Free Designer Glass Vase	1	0	1	Expedited	Ashley Guarcello	4423 W KENSINGTON AVE			TAMPA	FL	33629-8339	US		Congrats on passing your Real Estate exam Love Mom and Dad	false		
111-8005573-9602628	46321607207338	2020-11-05T15:55:04+00:00	2020-11-05T07:55:04-08:00	2020-11-05T16:24:25+00:00	2020-11-10T07:59:59+00:00	-5	jzg9zl5rhccq2zk@marketplace.amazon.com	Rachel E West	+1 929-436-4790 ext. 50230	ABR0033	Delivery by Saturday | Arabella Farm Direct Bouquet of 12 Fresh Cut Orange Roses with a Free Glass Vase	1	0	1	Expedited	Kayte Spillman	1300 Meade Dr			Midwest City	OK	73130	US		Crappy anniversary. Love you. From Rachel	false		
114-3383476-7637844	43142698010898	2020-11-05T16:05:00+00:00	2020-11-05T08:05:00-08:00	2020-11-05T16:26:57+00:00	2020-11-10T07:59:59+00:00	-5	tcdc88sbq987yz4@marketplace.amazon.com	spaghetti	+1 929-436-4790 ext. 17022	ABR012	Delivery by Monday | Arabella Farm Direct Bouquet of 18 Fresh Cut Pink Roses with a Free Glass Vase	1	0	1	Expedited	Patty Mc Glynn	355 HART AVE			STATEN ISLAND	NY	10310-3046	US		Dear Patty,  I want you to know how grateful I am to have a friend who is so thoughtful, warm, personable, and hospitable. You are one of life's blessings. Sent With Love to a very special person. From Jeanette Buss	false		
114-4889931-5351444	56027794263986	2020-11-05T16:01:49+00:00	2020-11-05T08:01:49-08:00	2020-11-05T16:31:38+00:00	2020-11-10T07:59:59+00:00	-5	w86778nxf7sy19h@marketplace.amazon.com	Anna	+1 213-442-1463 ext. 06409	ABM010	The Spring Fling Bouquet by Arabella Bouquets with a Free Designer Glass Vase	1	0	1	Expedited	Anna Lynch	7848 SWEET WATER RD			LONE TREE	CO	80124-3056	US		Anna,  Sending you lots of love and healing thoughts! You got this! From Elena	false		
114-3028805-5010618	30717638347466	2020-11-05T16:13:19+00:00	2020-11-05T08:13:19-08:00	2020-11-05T16:40:34+00:00	2020-11-10T07:59:59+00:00	-5	s7jn4rvpjhccldy@marketplace.amazon.com	Katharina	+1 929-436-4790 ext. 73296	ABR0066	Delivery by Saturday | Arabella Bouquets 12 Stems of Fresh Cut White Roses in a Free Designer Glass Vase	1	0	1	Expedited	Lillian McCall	4459 BATTLEVIEW PL			SMYRNA	GA	30082-4480	US		Dear Mom,  We were so sorry to hear about Martha Alderson, and John Plemmons. Our prayers are with you and their families.  We love you ! From Don & Katharina	false		
114-5276302-1911426	33142992864522	2020-11-05T16:16:55+00:00	2020-11-05T08:16:55-08:00	2020-11-05T16:42:37+00:00	2020-11-10T07:59:59+00:00	-5	gb7c7ph5f72s642@marketplace.amazon.com	Joel Grodensky	+1 213-442-1463 ext. 28706	ABM010	The Spring Fling Bouquet by Arabella Bouquets with a Free Designer Glass Vase	1	0	1	Expedited	Phyllis Grodensky	6347 BAY CLUB DR APT 1 UNIT 1			FT LAUDERDALE	FL	33308-1648	US		We are thinking of you and wish you a smooth recovery! We love you! From Joel, Catherine, Charlie & Jamie	false		
114-5891539-3745862	18871031231690	2020-11-05T16:14:06+00:00	2020-11-05T08:14:06-08:00	2020-11-05T16:44:04+00:00	2020-11-10T07:59:59+00:00	-5	9kdgs7b663n40xm@marketplace.amazon.com	Ann Huffman	+1 619-854-2705 ext. 53534	ABR0066	Delivery by Saturday | Arabella Bouquets 12 Stems of Fresh Cut White Roses in a Free Designer Glass Vase	1	0	1	Expedited	Ann Huffman	114 LEBEAU ST			NEW BERLIN	IL	62670-4440	US			false		
111-2914045-3235430	25836582521146	2020-11-05T16:19:09+00:00	2020-11-05T08:19:09-08:00	2020-11-05T16:48:25+00:00	2020-11-10T07:59:59+00:00	-5	50gjz8hd20g9xw4@marketplace.amazon.com	mark stucky	+1 213-442-1463 ext. 28035	ABR004	Delivery by Saturday | Arabella Farm Direct Bouquet of 12 Fresh Cut Yellow Roses with a Free Glass Vase	1	0	1	Expedited	Dellene Stucky	3249 ROAD 5 NW			EPHRATA	WA	98823-9743	US			false		
112-7283552-5937016	16053922430282	2020-11-05T16:31:45+00:00	2020-11-05T08:31:45-08:00	2020-11-05T17:01:27+00:00	2020-11-10T07:59:59+00:00	-5	y7khxnrlmbh45bn@marketplace.amazon.com	joanna hardy	+1 480-618-5344 ext. 38844	ABM022	Delivery by Saturday | Purple Extravagance Bouquet by Arabella Bouquets	1	0	1	Expedited	Bonnie Wood	980 BIG WINDFALL RD			LANSING	NC	28643-8905	US		Love you bunches From Xoxo	false		
113-3162812-4059458	48075648403066	2020-11-05T16:38:57+00:00	2020-11-05T08:38:57-08:00	2020-11-05T17:03:06+00:00	2020-11-10T07:59:59+00:00	-5	63cht0mfb6nj2b8@marketplace.amazon.com	Shane	+1 213-442-1463 ext. 72392	ABM010	The Spring Fling Bouquet by Arabella Bouquets with a Free Designer Glass Vase	1	0	1	Expedited	Gene Seeloff	36165 S CANYON BROOK DR			TUCSON	AZ	85739-1656	US		Enjoy your gift! From PA	false		
112-3549653-5766633	38961279093026	2020-11-05T16:38:01+00:00	2020-11-05T08:38:01-08:00	2020-11-05T17:06:22+00:00	2020-11-10T07:59:59+00:00	-5	rhvw5c3z0mb0jps@marketplace.amazon.com	Danae Head	+1 929-436-4790 ext. 69762	ABR0022	Delivery by Friday | Arabella Farm Direct Bouquet of 12 Fresh Cut Pink Roses with a Free Glass Vase	1	0	1	Expedited	Nell Jackson	3525 LYNNWOOD LN			CORPUS CHRISTI	TX	78415-3015	US		Nell, Happy Birthday. Enjoy your very special day. We love you very much. Don and Danae From Don and Danae	false		
112-3294658-9245818	60411150151338	2020-11-05T16:41:18+00:00	2020-11-05T08:41:18-08:00	2020-11-05T17:11:42+00:00	2020-11-10T07:59:59+00:00	-5	z0h7178m2g4dnzr@marketplace.amazon.com	catie condon	+1 480-618-5344 ext. 35624	ABM0033	Delivery by Monday | Arabella Farm Direct Bouquet of Fresh Cut White Hydrangea with a Free Glass Vase	1	0	1	Expedited	nell wachtel	2019 WOODMERE CIR			JACKSONVILLE	FL	32210-3319	US			false		
111-9013956-9260252	42260094069882	2020-11-05T16:47:20+00:00	2020-11-05T08:47:20-08:00	2020-11-05T17:13:31+00:00	2020-11-10T07:59:59+00:00	-5	4ckc93k4zrhftz7@marketplace.amazon.com	Carly yeckes	+1 929-436-4790 ext. 84622	ABR011	Delivery by Monday | Arabella Bouquets 18 Stems of Fresh Cut Red Roses in a Free Glass Vase	1	0	1	Expedited	Ronnie Cohen	833 MADEIRA BLVD			MELVILLE	NY	11747-5277	US		Wishes for a swift recovery and lots of love From Jackie & Mitch, Ellie & Bill, and Honey & Ron From Jackie & Mitch, Ellie & Bill, and Honey & Ron	false		
114-9553519-8762634	34814579134378	2020-11-05T16:47:33+00:00	2020-11-05T08:47:33-08:00	2020-11-05T17:15:04+00:00	2020-11-10T07:59:59+00:00	-5	lnjvbh91ln2xpq5@marketplace.amazon.com	Amelia Emerick	+1 602-671-6610 ext. 45484	ABM025	Delivery by Monday | The Fell for You Bouquet by Arabella Bouquets	1	0	1	Expedited	Jessica Wilson & family	2114 W COUNTY ROAD 1350 N			ROACHDALE	IN	46172-9257	US		So deeply sorry for the loss of your Dad. Praying for comfort for you, your mom, and family. From Amelia Gaerte	false		
111-3339963-8448240	52494673807586	2020-11-05T16:59:06+00:00	2020-11-05T08:59:06-08:00	2020-11-05T17:27:47+00:00	2020-11-10T07:59:59+00:00	-5	npr1g4bq3p58zdh@marketplace.amazon.com	abjamesson@yahoo.com	+1 619-854-2705 ext. 40873	ABM024	Delivery by Monday | The Beauty of Color Bouquet by Arabella Bouquets	1	0	1	Expedited	Bob and Marcia Murphy	2709 CHAPEL SPRINGS DR			HIGHLAND VILLAGE	TX	75077-3203	US		Dear Bob and Marcia, May the presence of our Lord give you peace and quiet rest. We are praying for your fast recovery. Get well soon, Ann and Bob From Bob and Ann Jamesson	false		
111-9932686-9173820	05085681572538	2020-11-05T17:04:48+00:00	2020-11-05T09:04:48-08:00	2020-11-05T17:35:09+00:00	2020-11-10T07:59:59+00:00	-5	2dn915bpl2td92f@marketplace.amazon.com	Sharon Tadmor	+1 619-854-2705 ext. 40979	ABM024	Delivery by Monday | The Beauty of Color Bouquet by Arabella Bouquets	1	0	1	Expedited	Jessica Wojick	1601 N RHODES ST APT 203			ARLINGTON	VA	22209-1362	US			false		
113-6480123-5741842	38301671785362	2020-11-05T17:21:29+00:00	2020-11-05T09:21:29-08:00	2020-11-05T17:48:24+00:00	2020-11-10T07:59:59+00:00	-5	01yddbnzlqbgvwh@marketplace.amazon.com	Douglas Walker	+1 480-618-5344 ext. 81572	ABM022	Delivery by Saturday | Purple Extravagance Bouquet by Arabella Bouquets	1	0	1	Expedited	Michael Woods	11300 MARLBORO RIDGE RD			UPPER MARLBORO	MD	20772-7996	US		May the memories of your father last eternity!  Your friend - Doug From Douglas Walker	false		
112-2375277-8979443	48009378089794	2020-11-05T18:02:31+00:00	2020-11-05T10:02:31-08:00	2020-11-05T18:03:29+00:00	2020-11-10T07:59:59+00:00	-5	3zg6jfgtmnp89dh@marketplace.amazon.com	Brianna Prebeck	+1 619-854-2705 ext. 94695	ABR0022	Delivery by Friday | Arabella Farm Direct Bouquet of 12 Fresh Cut Pink Roses with a Free Glass Vase	1	0	1	Standard	Long Family	4958 ANNA MARIA DR			COLUMBUS	IN	47203-8353	US		We love you so much! Hope you have a WONDERFUL birthday! From Brianna Prebeck	false		
111-5018012-1239408	34097648332890	2020-11-05T02:35:51+00:00	2020-11-04T18:35:51-08:00	2020-11-05T18:05:37+00:00	2020-11-10T07:59:59+00:00	-5	wr2wmmy37h70bhp@marketplace.amazon.com	Linda R. Boddye	+1 480-618-5344 ext. 71892	ABR0022	Delivery by Friday | Arabella Farm Direct Bouquet of 12 Fresh Cut Pink Roses with a Free Glass Vase	1	0	1	Expedited	Terri Gallagher	1807 MORRISON BLVD			CANTON	MICHIGAN	48187-3429	US			false		
112-9927562-3241821	21827452950826	2020-11-05T17:41:22+00:00	2020-11-05T09:41:22-08:00	2020-11-05T18:09:39+00:00	2020-11-10T07:59:59+00:00	-5	nxl6kdbpn6y6qck@marketplace.amazon.com	Shawn monahan	+1 929-436-4790 ext. 46923	ABR0022	Delivery by Friday | Arabella Farm Direct Bouquet of 12 Fresh Cut Pink Roses with a Free Glass Vase	1	0	1	Expedited	Joe Monahan	5744 DEER HOLLOW RD			AUBURN	IN	46706-1577	US		Happy Birthday Day, filled with birthday blessings to a very busy mama Love Nana & Poppy	false		
113-8532784-4389047	66576156230426	2020-11-05T17:42:16+00:00	2020-11-05T09:42:16-08:00	2020-11-05T18:12:32+00:00	2020-11-10T07:59:59+00:00	-5	79ywptrhzg6qwkp@marketplace.amazon.com	Mona al-Kazemi		ABM0033	Delivery by Monday | Arabella Farm Direct Bouquet of Fresh Cut White Hydrangea with a Free Glass Vase	1	0	1	Expedited	MONA AL KAZEMI	2 RIVER TER APT 21C			NEW YORK	NY	10282	US			false		
113-1604398-8078655	10071718001698	2020-11-05T17:56:00+00:00	2020-11-05T09:56:00-08:00	2020-11-05T18:20:12+00:00	2020-11-10T07:59:59+00:00	-5	km6qyq1dztx7tt8@marketplace.amazon.com	Debra Wallace	+1 619-854-2705 ext. 08894	ABR0022	Delivery by Friday | Arabella Farm Direct Bouquet of 12 Fresh Cut Pink Roses with a Free Glass Vase	1	0	1	Expedited	Theresa Harvey	WEDDING CHAPLE	3300 LAS VEGAS BLVD S		LAS VEGAS	NV	89109-8916	US			false		
113-0351592-7141821	32783388027794	2020-11-05T18:19:56+00:00	2020-11-05T10:19:56-08:00	2020-11-05T18:50:36+00:00	2020-11-10T07:59:59+00:00	-5	tjq08r05k93mrvk@marketplace.amazon.com	mary hance	+1 480-618-5344 ext. 87372	ABM022	Delivery by Saturday | Purple Extravagance Bouquet by Arabella Bouquets	1	0	1	Expedited	mary hance	4375 N Curry Dr			Traverse City	MI	49685-9321	US			false		
111-0207465-0666625	34329710251978	2020-11-05T18:31:10+00:00	2020-11-05T10:31:10-08:00	2020-11-05T19:00:38+00:00	2020-11-10T07:59:59+00:00	-5	4qwfz259ypv38ky@marketplace.amazon.com	JanF	+1 929-436-4790 ext. 76773	ABM010	The Spring Fling Bouquet by Arabella Bouquets with a Free Designer Glass Vase	1	0	1	Expedited	Caitlin Hamma	1329 FRONT AVE UNIT 320			COLUMBUS	GA	31901-6409	US		Dear Small Fries! Hope your birthday is the best! Love Dad and Jan From JanF	false		
111-3707976-0769019	28884890609338	2020-11-05T18:35:26+00:00	2020-11-05T10:35:26-08:00	2020-11-05T19:05:21+00:00	2020-11-10T07:59:59+00:00	-5	7xt5gktd776xqbp@marketplace.amazon.com	Mike Davis	+1 619-854-2705 ext. 58790	ABR0022	Delivery by Friday | Arabella Farm Direct Bouquet of 12 Fresh Cut Pink Roses with a Free Glass Vase	1	0	1	Expedited	Patty Schwab	5911 N FLEMING ST			SPOKANE	WA	99205-7472	US			false		
113-2117710-1833854	22965367342770	2020-11-05T18:41:04+00:00	2020-11-05T10:41:04-08:00	2020-11-05T19:10:59+00:00	2020-11-10T07:59:59+00:00	-5	4jbgmfv2vfznyk8@marketplace.amazon.com	Lisa Burraston	+1 602-671-6610 ext. 68028	ABM022	Delivery by Saturday | Purple Extravagance Bouquet by Arabella Bouquets	1	0	1	Expedited	Rachel palmer	593 E SLEIGH RIDE LN			GRANTSVILLE	UT	84029-5540	US			false		
111-2157766-0198648	36687442979698	2020-11-05T18:45:58+00:00	2020-11-05T10:45:58-08:00	2020-11-05T19:15:20+00:00	2020-11-10T07:59:59+00:00	-5	4qwfz259ypv38ky@marketplace.amazon.com	JanF	+1 480-618-5344 ext. 63487	ABM010	The Spring Fling Bouquet by Arabella Bouquets with a Free Designer Glass Vase	1	0	1	Expedited	Matt and Heidi Strocoby	6000 WRIGHT TER			CULVER CITY	CA	90232-3015	US		Dear Heidi. Wishing a wonderful birthday for an awesome daughter! Love, Mom and Lar From JanF	false		
112-4633662-2056225	39188712661002	2020-11-05T19:16:04+00:00	2020-11-05T11:16:04-08:00	2020-11-05T19:33:36+00:00	2020-11-10T07:59:59+00:00	-5	jj57m65gwk1snx3@marketplace.amazon.com	Paul Braatz	+1 929-436-4790 ext. 47425	ABR0022	Delivery by Saturday | Arabella Farm Direct Bouquet of 12 Fresh Cut Pink Roses with a Free Glass Vase	1	0	1	Expedited	Julianna Rose	216 E MOUNTAIN VIEW DRIVE			FLAGSTAFF	AZ	86011	US		Happy Birthday sweetie. You always make me so proud From Your Loving Dad	false		
111-0155766-0921816	13063843080434	2020-11-05T19:44:51+00:00	2020-11-05T11:44:51-08:00	2020-11-05T20:15:27+00:00	2020-11-10T07:59:59+00:00	-5	b8z3pxdn1dw4pd1@marketplace.amazon.com	simeon requidan	+1 480-618-5344 ext. 30770	ABR0022	Delivery by Saturday | Arabella Farm Direct Bouquet of 12 Fresh Cut Pink Roses with a Free Glass Vase	1	0	1	Expedited	Denise Miranda	1610 S HIGHLAND AVE APT E			FULLERTON	CA	92832-3334	US			false		
113-4973526-1421035	52066938235514	2020-11-05T19:45:54+00:00	2020-11-05T11:45:54-08:00	2020-11-05T20:16:32+00:00	2020-11-10T07:59:59+00:00	-5	ggdnt32t7mcx90c@marketplace.amazon.com	Merton Johnson	+1 929-436-4790 ext. 89000	ABR0022	Delivery by Saturday | Arabella Farm Direct Bouquet of 12 Fresh Cut Pink Roses with a Free Glass Vase	1	0	1	Expedited	merton o. johnson	1111 CHERRY HILLS DR			LAUREL	MT	59044-2162	US			false		
112-0245175-8227415	22870429151514	2020-11-05T20:01:59+00:00	2020-11-05T12:01:59-08:00	2020-11-05T20:30:00+00:00	2020-11-10T07:59:59+00:00	-5	skxtylb9ytt081f@marketplace.amazon.com	Riley Stouffer	+1 213-442-1463 ext. 06715	ABR0022	Delivery by Saturday | Arabella Farm Direct Bouquet of 12 Fresh Cut Pink Roses with a Free Glass Vase	1	0	1	Expedited	Lauren Fischer	12776 ROUNDUP RD			PARKER	CO	80138-8421	US		So sorry about Otto, we have been thinking about the Fischer family non stop. Love you all xoxox From Winnie, Roo, and Riley	false		
112-7328875-3871402	38097126642394	2020-11-05T20:05:45+00:00	2020-11-05T12:05:45-08:00	2020-11-05T20:36:19+00:00	2020-11-10T07:59:59+00:00	-5	fc62dw5r4tgz815@marketplace.amazon.com	Perry	+1 480-618-5344 ext. 69246	ABM022	Delivery by Saturday | Purple Extravagance Bouquet by Arabella Bouquets	1	0	1	Expedited	Pamela Wesenberg	17067 MARLIN DR			SUGARLOAF KEY	FL	33042-3638	US			false		
112-1840801-1285859	57776672688882	2020-11-05T20:25:49+00:00	2020-11-05T12:25:49-08:00	2020-11-05T20:51:26+00:00	2020-11-10T07:59:59+00:00	-5	fndvmxw8znkmcmk@marketplace.amazon.com	katharine coghlan	+1 415-851-9136 ext. 79760	ABR0022	Delivery by Saturday | Arabella Farm Direct Bouquet of 12 Fresh Cut Pink Roses with a Free Glass Vase	1	0	1	Expedited	Joan Lind	8 BOUWREY PL			WHITEHOUSE STATION	NJ	08889-3255	US		Sending love and good wishes! From Katharine	false		
114-1886094-1513865	17507606661138	2020-11-05T20:26:33+00:00	2020-11-05T12:26:33-08:00	2020-11-05T20:52:07+00:00	2020-11-10T07:59:59+00:00	-5	hbv7wrql9fcxc5k@marketplace.amazon.com	Stefan Volk	+1 415-851-9136 ext. 79173	ABM020	Delivery by Saturday | The Sunset Bouquet by Arabella Bouquets	1	0	1	Expedited	Kay Vickers	819 OKLAHOMA AVE			ARKOMA	OK	74901-3408	US		Happy birthday Nana. We love you from Jenny, Luca and Stefan From Stefan Volk	false		
114-4802818-7901012	07431587263138	2020-11-05T20:33:12+00:00	2020-11-05T12:33:12-08:00	2020-11-05T21:01:10+00:00	2020-11-10T07:59:59+00:00	-5	w9w6l0h3c7ldszy@marketplace.amazon.com	Eloise Steindl	+1 602-671-6610 ext. 47073	ABR0022	Delivery by Saturday | Arabella Farm Direct Bouquet of 12 Fresh Cut Pink Roses with a Free Glass Vase	1	0	1	Expedited	Monica Daniel	454 S BERKLEY AVE			ELMHURST	IL	60126-3749	US		Happy Birthday. Wishing you a beautiful, stress free day! From Eloise Steindl	false		
112-9908421-4044219	28788781758682	2020-11-05T20:36:12+00:00	2020-11-05T12:36:12-08:00	2020-11-05T21:06:38+00:00	2020-11-10T07:59:59+00:00	-5	jgy0lfmllsfrnjy@marketplace.amazon.com	Aubrey Barnes	+1 602-671-6610 ext. 23208	ABR001	Delivery by Saturday | Arabella Bouquets 12 Stems of Fresh Cut Red Roses in a Free Designer Glass Vase	1	0	1	Expedited	Aubrey Barnes	40042 CAMBRIDGE ST APT 103			CANTON	MI	48187-4540	US			false		
113-5744390-9400260	69999010506890	2020-11-05T20:44:07+00:00	2020-11-05T12:44:07-08:00	2020-11-05T21:12:30+00:00	2020-11-10T07:59:59+00:00	-5	lbndvs5wdhpqzk6@marketplace.amazon.com	Carissa	+1 929-436-4790 ext. 65382	ABR0022	Delivery by Saturday | Arabella Farm Direct Bouquet of 12 Fresh Cut Pink Roses with a Free Glass Vase	1	0	1	Expedited	Russell McLean	15 GRAPHIC BLVD			SPARTA	NJ	07871-3508	US		Our deepest condolences to you and your family. We are thinking of you during this difficult time. From Your Citco Family	false		
114-5292799-4707459	43910543412738	2020-11-05T20:52:45+00:00	2020-11-05T12:52:45-08:00	2020-11-05T21:16:03+00:00	2020-11-10T07:59:59+00:00	-5	tt3x12zg0zvn0wl@marketplace.amazon.com	Katherine J Sattelberg	+1 929-436-4790 ext. 46785	ABR0022	Delivery by Saturday | Arabella Farm Direct Bouquet of 12 Fresh Cut Pink Roses with a Free Glass Vase	1	0	1	Expedited	Connie Labarge	52 SHADY OAK CT			SAFETY HARBOR	FL	34695-4669	US		We just wanted to send you some joy. We love you and are praying for you every day! From Chuck and Katie	false		
111-1428595-9330624	04231288139946	2020-11-05T20:50:37+00:00	2020-11-05T12:50:37-08:00	2020-11-05T21:19:41+00:00	2020-11-10T07:59:59+00:00	-5	b8wshs9s97yv6q6@marketplace.amazon.com	Sally Brege	+1 213-442-1463 ext. 72842	ABR0022	Delivery by Saturday | Arabella Farm Direct Bouquet of 12 Fresh Cut Pink Roses with a Free Glass Vase	1	0	1	Expedited	Rodney Reed	555 CORONA DEL CAMPO LOOP			LAS CRUCES	NM	88011-4052	US		Aunt Bonnie and Uncle Rod, Thinking of you with lots of love! Sally & Lee Brege From Sally Brege	false		
113-2036586-3948239	67509385398482	2020-11-05T20:56:05+00:00	2020-11-05T12:56:05-08:00	2020-11-05T21:21:47+00:00	2020-11-10T07:59:59+00:00	-5	4chw9s68655h67k@marketplace.amazon.com	Seher	+1 602-671-6610 ext. 52994	ABR0022	Delivery by Saturday | Arabella Farm Direct Bouquet of 12 Fresh Cut Pink Roses with a Free Glass Vase	1	0	1	Expedited	Yvonne DelaCruz	2231 ALEXIS LN			TRACY	CA	95377-5631	US		Cheer up my friend, I hope you feel better soon! Remember, it takes 42 muscles to frown, but only 4 to kick someone in the nuts :-) From Seher	false		
111-6580701-4357813	64690045828162	2020-11-05T20:54:32+00:00	2020-11-05T12:54:32-08:00	2020-11-05T21:24:14+00:00	2020-11-10T07:59:59+00:00	-5	qf3d1s7xgd8qvfn@marketplace.amazon.com	Thomas Abbey	+1 602-671-6610 ext. 08699	ABR0022	Delivery by Saturday | Arabella Farm Direct Bouquet of 12 Fresh Cut Pink Roses with a Free Glass Vase	1	0	1	Expedited	Catherine Nguyen	6506 SE 85TH AVE			PORTLAND	OR	97266-5618	US			false		
111-0893837-6941830	46837641435954	2020-11-05T21:30:56+00:00	2020-11-05T13:30:56-08:00	2020-11-05T21:59:14+00:00	2020-11-10T07:59:59+00:00	-5	ph0fh3hjvh0sd4k@marketplace.amazon.com	Jolyn Johnson	+1 619-854-2705 ext. 94788	ABR0022	Delivery by Saturday | Arabella Farm Direct Bouquet of 12 Fresh Cut Pink Roses with a Free Glass Vase	1	0	1	Expedited	Jennifer Ring	705 CARLISLE RD			BATAVIA	IL	60510-3020	US		With all the love we can send you.  Jolyn & Dean From Your California Family	false		
113-9634805-4317032	53164225018426	2020-11-05T21:36:57+00:00	2020-11-05T13:36:57-08:00	2020-11-05T22:06:09+00:00	2020-11-10T07:59:59+00:00	-5	tz90bb2h8r57lm8@marketplace.amazon.com	Bryan Chance	+1 619-854-2705 ext. 70566	ABR0022	Delivery by Saturday | Arabella Farm Direct Bouquet of 12 Fresh Cut Pink Roses with a Free Glass Vase	1	0	1	Expedited	Billie Chance	8720 SANDHURST DR			KNOXVILLE	TN	37923-5546	US		Happy Birthday Billie! We hope you are having a great day! From Bryan, Stephanie, Lauren, Mallory, and Audrey Anna	false		
114-2749152-5387442	24169492281738	2020-11-05T21:55:21+00:00	2020-11-05T13:55:21-08:00	2020-11-05T22:17:00+00:00	2020-11-10T07:59:59+00:00	-5	lxkb4dfzymcr3ww@marketplace.amazon.com	Gail Berrier	+1 602-671-6610 ext. 28844	ABM020	Delivery by Saturday | The Sunset Bouquet by Arabella Bouquets	1	0	1	Expedited	Khalid Qazi	6706 N MAPLEWOOD AVE			CHICAGO	IL	60645-4620	US		Please accept our sincerest condolences. We are thinking of you & wishing you well during this difficult time. From Your Friends & Colleagues at National Able	false		
111-7208059-0264260	61368655638002	2020-11-05T21:52:06+00:00	2020-11-05T13:52:06-08:00	2020-11-05T22:20:14+00:00	2020-11-10T07:59:59+00:00	-5	91ptyb1p22plh1k@marketplace.amazon.com	stephanie	+1 213-442-1463 ext. 54728	ABM010	The Spring Fling Bouquet by Arabella Bouquets with a Free Designer Glass Vase	1	0	1	Expedited	Christie Ledesma	1613 LONE PINE DR			LITTLE ELM	TX	75068-3166	US		Congrats on your new boobies From Steph and Katie	false		
112-0233117-5654621	51580785702338	2020-11-05T22:27:09+00:00	2020-11-05T14:27:09-08:00	2020-11-05T22:46:42+00:00	2020-11-10T07:59:59+00:00	-5	vsj3cztfh3typkd@marketplace.amazon.com	Anne Kriechbaum	+1 619-854-2705 ext. 14257	ABR0022	Delivery by Saturday | Arabella Farm Direct Bouquet of 12 Fresh Cut Pink Roses with a Free Glass Vase	1	0	1	Expedited	Ruby  Ricardson	525 S ANAHEIM HILLS RD B 205			ANAHEIM	CA	92807-4721	US			false		
112-0212127-7930608	00265848367634	2020-11-05T22:19:20+00:00	2020-11-05T14:19:20-08:00	2020-11-05T22:47:42+00:00	2020-11-10T07:59:59+00:00	-5	nqdlfhs2cm9rsj1@marketplace.amazon.com	Chee gong	+1 602-671-6610 ext. 88432	ABR0055	Delivery by Saturday | Arabella Farm Direct Bouquet of 12 Stems of Fresh Cut Hot Pink Roses in a Free Designer Glass Vase	1	0	1	Expedited	Susan Byer	266 S GOULD RD			COLUMBUS	OH	43209-1931	US		Happy Belated 80th Birthday, Susan!  We are sending love and joy and lots of smiles your way. Love, Aunt Barbara and Cousin Jan From Janet Gong	false		
114-2592410-2509044	02939945134386	2020-11-05T22:29:31+00:00	2020-11-05T14:29:31-08:00	2020-11-05T22:59:56+00:00	2020-11-10T07:59:59+00:00	-5	jxt1bwtd5mz627q@marketplace.amazon.com	Samuel Ledwitz	+1 602-671-6610 ext. 29575	ABR0022	Delivery by Saturday | Arabella Farm Direct Bouquet of 12 Fresh Cut Pink Roses with a Free Glass Vase	1	0	1	Expedited	Pauline Riddle	2940 SPORTING CT			REDDING	CA	96001-3600	US			false		
114-0094752-6194635	37136423178650	2020-11-05T22:32:34+00:00	2020-11-05T14:32:34-08:00	2020-11-05T23:01:50+00:00	2020-11-10T07:59:59+00:00	-5	4vmdrv2bc0hnwv5@marketplace.amazon.com	Amber Jennings	+1 619-854-2705 ext. 02872	ABR0022	Delivery by Saturday | Arabella Farm Direct Bouquet of 12 Fresh Cut Pink Roses with a Free Glass Vase	1	0	1	Expedited	Birch Sarah Irwin - happy birthday	2119 VALERGA DR APT 13			BELMONT	CA	94002-3578	US			false		
113-5896879-3245831	34889269640466	2020-11-05T22:33:04+00:00	2020-11-05T14:33:04-08:00	2020-11-05T23:02:35+00:00	2020-11-10T07:59:59+00:00	-5	t7ds3wmzfkqm48x@marketplace.amazon.com	Malikah Abdullah	+1 619-854-2705 ext. 83891	ABR012	Delivery by Monday | Arabella Farm Direct Bouquet of 18 Fresh Cut Pink Roses with a Free Glass Vase	1	0	1	Expedited	Lynne Amori	407 ELLIOTT RD			ELKINS PARK	PA	19027-2005	US		HAPPY BIRTHDAY Lynne!!  I hope you enjoy these roses.  Please remember not do work at all on your bday and just enjoy :-) From Malikah Abdullah	false		
114-9910915-6220201	23558935347906	2020-11-05T22:35:07+00:00	2020-11-05T14:35:07-08:00	2020-11-05T23:04:10+00:00	2020-11-10T07:59:59+00:00	-5	8qg9c02wm55yjyf@marketplace.amazon.com	Janet Sun	+1 602-671-6610 ext. 27548	ABR0022	Delivery by Saturday | Arabella Farm Direct Bouquet of 12 Fresh Cut Pink Roses with a Free Glass Vase	1	0	1	Expedited	Suzy Beach	427 GARDEN LN			BRYN MAWR	PA	19010-3625	US		We love you and are thinking of you Zsuzsy, sending many hugs From Janet and Charlie	true		
112-6801398-2953031	25720768603922	2020-11-05T22:42:29+00:00	2020-11-05T14:42:29-08:00	2020-11-05T23:11:50+00:00	2020-11-10T07:59:59+00:00	-5	6xk24my4q53k3jf@marketplace.amazon.com	Debra J Malick	+1 929-436-4790 ext. 17197	ABM022	Delivery by Saturday | Purple Extravagance Bouquet by Arabella Bouquets	1	0	1	Expedited	Michelle Trahan	13811 58TH RD			FLUSHING	NY	11355-5239	US		Hoping you have a beautiful day. Sending you love from Florida. From Your sisters	false		
111-8023521-1175432	19392244809482	2020-11-05T22:46:18+00:00	2020-11-05T14:46:18-08:00	2020-11-05T23:16:17+00:00	2020-11-10T07:59:59+00:00	-5	lwfvyccw5fm2103@marketplace.amazon.com	Rob	+1 480-618-5344 ext. 96838	ABM022	Delivery by Saturday | Purple Extravagance Bouquet by Arabella Bouquets	1	0	1	Expedited	Rob Walker	508 SEABISCUIT LOOP W			MADISONVILLE	LA	70447-3512	US			false		
111-1529683-2940259	19974823996970	2020-11-05T22:49:31+00:00	2020-11-05T14:49:31-08:00	2020-11-05T23:17:17+00:00	2020-11-10T07:59:59+00:00	-5	chgzsyr45v7df6s@marketplace.amazon.com	Lori Geissler	+1 213-442-1463 ext. 40284	ABR0022	Delivery by Saturday | Arabella Farm Direct Bouquet of 12 Fresh Cut Pink Roses with a Free Glass Vase	1	0	1	Expedited	Mary Alice Raudenbush	217 N HIGHLAND AVE			OSSINING	NY	10562-2900	US		Hope the pink flowers complement your flamingo decor.  :-)  Thank you for your support & for believing in me!   Lori From Lori Geissler	false		
113-6905622-9201032	56584555406242	2020-11-05T23:23:18+00:00	2020-11-05T15:23:18-08:00	2020-11-05T23:53:03+00:00	2020-11-10T07:59:59+00:00	-5	vnnqqpjdnxgjt44@marketplace.amazon.com	Phillip Human	+1 213-442-1463 ext. 80106	ABR0022	Delivery by Saturday | Arabella Farm Direct Bouquet of 12 Fresh Cut Pink Roses with a Free Glass Vase	1	0	1	Expedited	Phillip Human	900 Pioneer Rd			Grimsley	Tennessee	38565	US			false		
111-1522398-7071429	62429231315378	2020-11-05T23:34:32+00:00	2020-11-05T15:34:32-08:00	2020-11-05T23:57:26+00:00	2020-11-10T07:59:59+00:00	-5	lvt9b9g8w44ft1m@marketplace.amazon.com	Alyssa Vollaro	+1 929-436-4790 ext. 36998	ABM020	Delivery by Saturday | The Sunset Bouquet by Arabella Bouquets	1	0	1	Expedited	Alyssa Vollaro	290 W BIG SPRINGS RD APT E			RIVERSIDE	CA	92507-4736	US		Happy anniversary! I hope you have a great day and I'm sorry I can't be there to spend it with you. From Alyssa Vollaro	false		
114-7827665-0834620	37918312738850	2020-11-05T23:31:45+00:00	2020-11-05T15:31:45-08:00	2020-11-06T00:00:49+00:00	2020-11-10T07:59:59+00:00	-5	7cq76t9sz2xwygb@marketplace.amazon.com	Bob DePalma	+1 480-618-5344 ext. 94650	ABR0022	Delivery by Saturday | Arabella Farm Direct Bouquet of 12 Fresh Cut Pink Roses with a Free Glass Vase	1	0	1	Expedited	Ms Christine Pettner	6032 TYNDALL DR			HUNTINGTON BEACH	CA	92647-2435	US			false		
114-2507226-4583417	50704181069274	2020-11-05T23:35:19+00:00	2020-11-05T15:35:19-08:00	2020-11-06T00:03:33+00:00	2020-11-10T07:59:59+00:00	-5	zkc3w08hrl3r90t@marketplace.amazon.com	Vincent J Vukela	+1 929-436-4790 ext. 96677	ABM022	Delivery by Saturday | Purple Extravagance Bouquet by Arabella Bouquets	1	0	1	Expedited	Nicole Vukela	217 LAKESIDE DR			MC KEES ROCKS	PA	15136-1230	US		Hi Nicole, Have a very Happy Birthday! Love, Grandpap and Grandma	false		
112-1405787-1809826	48119528784626	2020-11-05T23:58:01+00:00	2020-11-05T15:58:01-08:00	2020-11-06T00:26:27+00:00	2020-11-10T07:59:59+00:00	-5	4jl9rl94gltvvkp@marketplace.amazon.com	stephen bradley	+1 619-854-2705 ext. 75059	ABR0022	Delivery by Saturday | Arabella Farm Direct Bouquet of 12 Fresh Cut Pink Roses with a Free Glass Vase	1	0	1	Expedited	DURANGO SURGERY CENTER C/O Hannah, Rachel, Elleen	8530 W SUNSET RD STE 100			LAS VEGAS	NV	89113-2244	US		Can't thank you enough for the professional and kind treatment during my visit. Please give my thanks to the entire op room staff as well - absolutely phenomenal experience to ensure I was comfortable. Sincerely, From stephen bradley	false		
114-4456195-4818662	19373105413706	2020-11-06T00:02:55+00:00	2020-11-05T16:02:55-08:00	2020-11-06T00:31:48+00:00	2020-11-10T07:59:59+00:00	-5	x033hw0nv0zjkh9@marketplace.amazon.com	Angela D. Quick	+1 602-671-6610 ext. 62407	ABM022	Delivery by Saturday | Purple Extravagance Bouquet by Arabella Bouquets	1	0	1	Expedited	Gina Nakahara	8428 BAY CREST DR			LAS VEGAS	NV	89128-7184	US		Gina, We are so sorry about Ray; he will be greatly missed.  Please let us know if you need anything at all.  Sending peace to you. All of us at FIRST Nevada From Angela D. Quick	false		
111-8780235-3054650	43595693543546	2020-11-06T00:05:56+00:00	2020-11-05T16:05:56-08:00	2020-11-06T00:34:15+00:00	2020-11-10T07:59:59+00:00	-5	54fmqqgm61p8gkj@marketplace.amazon.com	Benoit Potvin	+1 480-618-5344 ext. 82350	ABM024	Delivery by Monday | The Beauty of Color Bouquet by Arabella Bouquets	1	0	1	Expedited	Cynthia Moyers	4542 DEER LODGE RD			NEW PORT RICHEY	FL	34655-7318	US		Get well soon beautiful! From Far far away	false		
114-8743630-4071444	07452341746546	2020-11-06T00:10:49+00:00	2020-11-05T16:10:49-08:00	2020-11-06T00:40:19+00:00	2020-11-10T07:59:59+00:00	-5	g8w0x7hpmf43b69@marketplace.amazon.com	Teresa Lybarger	+1 213-442-1463 ext. 26100	ABM010	The Spring Fling Bouquet by Arabella Bouquets with a Free Designer Glass Vase	1	0	1	Expedited	Ladell Lybarger	1221 BIRCH LN			DES MOINES	IA	50315-3019	US		Happy Birthday Grandma!  We miss you and can't wait to come to Iowa again.  Love, Olivia and Daniel From Teresa Lybarger	false		
113-3104892-3985812	24765228470290	2020-11-06T00:11:18+00:00	2020-11-05T16:11:18-08:00	2020-11-06T00:40:28+00:00	2020-11-10T07:59:59+00:00	-5	9991lv3ztwjt87m@marketplace.amazon.com	Kimberly McAuley	+1 929-436-4790 ext. 29556	ABM010	The Spring Fling Bouquet by Arabella Bouquets with a Free Designer Glass Vase	1	0	1	Standard	Emily Dika	3363 ROOSEVELT ST			DEARBORN	MI	48124-3625	US		Happy birthday Emily! I love you!  Love,  Aunt Kimmi From Kimberly McAuley	false		
111-3559139-9840259	38650602127098	2020-11-06T00:15:42+00:00	2020-11-05T16:15:42-08:00	2020-11-06T00:43:05+00:00	2020-11-10T07:59:59+00:00	-5	dwnvzvgwzzcczz4@marketplace.amazon.com	Nicolas Benedetti Melendez	+1 415-851-9136 ext. 86511	ABM022	Delivery by Saturday | Purple Extravagance Bouquet by Arabella Bouquets	1	0	1	Expedited	Isabel Margarita Perez	2701 GOLDEN GATE PARK			AUSTIN	TX	78732-2424	US		Congratulations on these huuuge news!!! Love! Bea y Nico From Nicolas Benedetti Melendez	false		
114-0418730-4530610	28045339408738	2020-11-06T00:07:18+00:00	2020-11-05T16:07:18-08:00	2020-11-06T00:44:05+00:00	2020-11-10T07:59:59+00:00	-5	91rdgbv1w1g4165@marketplace.amazon.com	eric kloth	+1 619-854-2705 ext. 67427	ABM022	Delivery by Saturday | Purple Extravagance Bouquet by Arabella Bouquets	1	0	1	Expedited	Eric kloth	405 DOGWOOD ST			WAKEFIELD	KS	67487-9015	US		Happy birthday love you	false		
111-7921810-5083465	24217804752770	2020-11-06T00:17:54+00:00	2020-11-05T16:17:54-08:00	2020-11-06T00:47:20+00:00	2020-11-10T07:59:59+00:00	-5	xqz52gs319xpx3t@marketplace.amazon.com	joseph reddington	+1 213-442-1463 ext. 05688	ABR0033	Delivery by Saturday | Arabella Farm Direct Bouquet of 12 Fresh Cut Orange Roses with a Free Glass Vase	1	0	1	Expedited	jeanne reddington	1010 MARGARITE DR APT D			PITTSBURGH	PA	15216-1065	US			false		
114-9272571-7737062	11655170176122	2020-11-06T00:26:52+00:00	2020-11-05T16:26:52-08:00	2020-11-06T00:53:36+00:00	2020-11-10T07:59:59+00:00	-5	w9nxtldnwlmx8fj@marketplace.amazon.com	Jon Ebright		ABM022	Delivery by Saturday | Purple Extravagance Bouquet by Arabella Bouquets	1	0	1	Expedited	Grandma Shalla	5622 NORTHCREST XING			CLARKSTON	MI	48346-2749	US		Happiest Birthday wishes to the best Mom and Grandma ever!! You make life beautiful!! We Love You!! Parker, Ella, Jon and Amy From Ebrights	false		
113-0052560-4286671	20760809643514	2020-11-06T00:32:29+00:00	2020-11-05T16:32:29-08:00	2020-11-06T01:02:17+00:00	2020-11-10T07:59:59+00:00	-5	bz9my7kg79zslt9@marketplace.amazon.com	BJ Honza	+1 602-671-6610 ext. 49935	ABR0055	Delivery by Saturday | Arabella Farm Direct Bouquet of 12 Stems of Fresh Cut Hot Pink Roses in a Free Designer Glass Vase	1	0	1	Expedited	Lillian Honza	1302 CAMELOT LN			ROWLETT	TX	75088-6029	US		Mom, Happy Birthday!  Wish we could be with you to celebrate!  We love you, WJ, BJ, and CJ From BJ Honza	false		
114-8491070-2619435	52891245087130	2020-11-06T00:47:34+00:00	2020-11-05T16:47:34-08:00	2020-11-06T01:14:55+00:00	2020-11-10T07:59:59+00:00	-5	vbg6hk7f629bb6q@marketplace.amazon.com	Doug Robbins	+1 480-618-5344 ext. 23702	ABR0033	Delivery by Saturday | Arabella Farm Direct Bouquet of 12 Fresh Cut Orange Roses with a Free Glass Vase	1	0	1	Expedited	Sara Robbins	4255 WESTSHORE WAY APT B 5			FORT COLLINS	CO	80525-3241	US		Sara, We love you and hope your feeling better. We are always here for you. Love Mom and Dad From Doug Robbins	false		
112-4479853-4326666	47394376039042	2020-11-06T00:49:34+00:00	2020-11-05T16:49:34-08:00	2020-11-06T01:18:27+00:00	2020-11-10T07:59:59+00:00	-5	j521brgg88l38hj@marketplace.amazon.com	Aqeel Haider	+1 213-442-1463 ext. 80738	ABR004	Delivery by Saturday | Arabella Farm Direct Bouquet of 12 Fresh Cut Yellow Roses with a Free Glass Vase	1	0	1	Expedited	Fatima S Rizvi	262 WOODBURY RD			HICKSVILLE	NY	11801-3021	US			false		
112-1001453-5235462	18359096978938	2020-11-06T00:52:45+00:00	2020-11-05T16:52:45-08:00	2020-11-06T01:22:57+00:00	2020-11-10T07:59:59+00:00	-5	j521brgg88l38hj@marketplace.amazon.com	Aqeel Haider	+1 602-671-6610 ext. 37615	ABR004	Delivery by Saturday | Arabella Farm Direct Bouquet of 12 Fresh Cut Yellow Roses with a Free Glass Vase	1	0	1	Expedited	Ghazala Haider	4401 SATINWOOD DR			LAS VEGAS	NV	89147-4907	US			false		
112-1300924-8661055	14250171424538	2020-11-06T00:53:57+00:00	2020-11-05T16:53:57-08:00	2020-11-06T01:24:31+00:00	2020-11-10T07:59:59+00:00	-5	18wjbc0j47ylkv9@marketplace.amazon.com	Borni	+1 415-851-9136 ext. 48750	ABR0022	Delivery by Saturday | Arabella Farm Direct Bouquet of 12 Fresh Cut Pink Roses with a Free Glass Vase	1	0	1	Expedited	Jennifer Miller	605 E COY DR			FORT COLLINS	CO	80521-3502	US			false		
113-2933185-6139433	32402743134650	2020-11-06T01:21:28+00:00	2020-11-05T17:21:28-08:00	2020-11-06T01:49:58+00:00	2020-11-10T07:59:59+00:00	-5	zdqtczn0x0nv45s@marketplace.amazon.com	beth wagoner	+1 480-618-5344 ext. 03070	ABR0033	Delivery by Saturday | Arabella Farm Direct Bouquet of 12 Fresh Cut Orange Roses with a Free Glass Vase	1	0	1	Expedited	Martha Marusic	1668 ALDER WOOD TRL			MESQUITE	NV	89027-2915	US		Happy Birthday MOM, Grandma and Nana From Me, Rob , Jacob and Caleb	false		
112-1976092-8187452	43317005859050	2020-11-06T01:29:56+00:00	2020-11-05T17:29:56-08:00	2020-11-06T01:51:02+00:00	2020-11-10T07:59:59+00:00	-5	cg601tfgy01wbxq@marketplace.amazon.com	Priscilla	+1 213-442-1463 ext. 58402	ABR0033	Delivery by Saturday | Arabella Farm Direct Bouquet of 12 Fresh Cut Orange Roses with a Free Glass Vase	1	0	1	Expedited	Dorothy MacLean (Magnolia Assisted Living)	5902 NORTH ST			NACOGDOCHES	TX	75965-1348	US		Enjoy your gift!  Happy Birthday Mother!  Love you 💜💜🎂🎉🎈 From Priscilla	false		
114-8726420-1139400	30526868812138	2020-11-06T01:31:49+00:00	2020-11-05T17:31:49-08:00	2020-11-06T02:02:29+00:00	2020-11-10T07:59:59+00:00	-5	092s6n3bd1ybx9y@marketplace.amazon.com	Stephen wilson	+1 480-618-5344 ext. 30860	ABR0022	Delivery by Saturday | Arabella Farm Direct Bouquet of 12 Fresh Cut Pink Roses with a Free Glass Vase	1	0	1	Expedited	Stephen Andrew wilson	285 FANCY FILLY CIR			MARTINSBURG	WV	25403-1856	US			false		
114-2913549-5213049	36373130034122	2020-11-06T01:32:59+00:00	2020-11-05T17:32:59-08:00	2020-11-06T02:03:36+00:00	2020-11-10T07:59:59+00:00	-5	092s6n3bd1ybx9y@marketplace.amazon.com	Stephen wilson	+1 480-618-5344 ext. 41780	ABR004	Delivery by Saturday | Arabella Farm Direct Bouquet of 12 Fresh Cut Yellow Roses with a Free Glass Vase	1	0	1	Expedited	Stephen Andrew wilson	285 FANCY FILLY CIR			MARTINSBURG	WV	25403-1856	US			false		
112-9070925-2919434	64275743980274	2020-11-06T01:47:22+00:00	2020-11-05T17:47:22-08:00	2020-11-06T02:08:43+00:00	2020-11-10T07:59:59+00:00	-5	fltdbkkvy4z7119@marketplace.amazon.com	Bethany	+1 929-436-4790 ext. 39314	ABM022	Delivery by Saturday | Purple Extravagance Bouquet by Arabella Bouquets	1	0	1	Expedited	Diane Hallenbeck	4640 MESSINA DR			LAKE MARY	FL	32746-2642	US		Mom, I'm sorry I can't be there to celebrate with you but I hope you have a very happy birthday. Here are some beautiful flowers for a beautiful lady. I love you very much, Tyler From Tyler	false		
