order-id	order-item-id	purchase-date	payments-date	reporting-date	promise-date	days-past-promise	buyer-email	buyer-name	buyer-phone-number	sku	product-name	quantity-purchased	quantity-shipped	quantity-to-ship	ship-service-level	recipient-name	ship-address-1	ship-address-2	ship-address-3	ship-city	ship-state	ship-postal-code	ship-country	gift-wrap-type	gift-message-text	is-business-order	purchase-order-number	price-designation
112-7712402-2973049	13058478739722	2020-11-04T18:08:55+00:00	2020-11-04T10:08:55-08:00	2020-11-04T18:37:18+00:00	2020-11-07T07:59:59+00:00	-1	jl6237jqf44mmx1@marketplace.amazon.com	Hollie Free	+1 619-854-2705 ext. 34844	ABM022	Delivery by Friday | Purple Extravagance Bouquet by Arabella Bouquets	1	0	1	Expedited	Hilary S	6000 BENBASSET PL			BAKERSFIELD	CA	93306-9629	US		Dear Hilary,   I wish you joy and happiness today!   Much love, From Natasha L	false		
112-3461721-3924263	63509296834858	2020-11-04T18:50:25+00:00	2020-11-04T10:50:25-08:00	2020-11-04T19:19:15+00:00	2020-11-07T07:59:59+00:00	-1	wtt4lwg7m3vlvyz@marketplace.amazon.com	Jade Grey	+1 213-442-1463 ext. 40813	ABR0022	Delivery by Friday | Arabella Farm Direct Bouquet of 12 Fresh Cut Pink Roses with a Free Glass Vase	1	0	1	Expedited	Pat Osowski	9450 W CABELA DR APT 2232			GLENDALE	AZ	85305-1313	US		Happy 60th birthday!  Love, Jade, Steve, Kinley, and Cole From Jade Grey	false		
113-2168835-2037063	53454402736194	2020-11-04T19:33:45+00:00	2020-11-04T11:33:45-08:00	2020-11-04T20:04:07+00:00	2020-11-07T07:59:59+00:00	-1	c4yyshs99lrnw5q@marketplace.amazon.com	Vicki Grant	+1 619-854-2705 ext. 52020	ABM022	Delivery by Friday | Purple Extravagance Bouquet by Arabella Bouquets	1	0	1	Expedited	Mrs Shelia Dent	3915 LEGEND HILLS ST UNIT 104			LAS VEGAS	NV	89129-4552	US			false		
112-1433438-9931466	42023885648074	2020-11-04T19:44:05+00:00	2020-11-04T11:44:05-08:00	2020-11-04T20:13:28+00:00	2020-11-07T07:59:59+00:00	-1	h9g8wn6q80c8m4n@marketplace.amazon.com	James A. Onigkeit	+1 602-671-6610 ext. 87054	ABR0022	Delivery by Friday | Arabella Farm Direct Bouquet of 12 Fresh Cut Pink Roses with a Free Glass Vase	1	0	1	Standard	Jennifer Bruce	14507 NETTLE CREEK RD			TAMPA	FL	33624-2640	US		Congrats! You should be proud of all you have accomplished!  Love Wendy White and the rest of the Onigkeit family From Wendy White	false		
111-0092347-2186659	07666072162514	2020-11-04T19:57:47+00:00	2020-11-04T11:57:47-08:00	2020-11-04T20:23:46+00:00	2020-11-07T07:59:59+00:00	-1	b95vx2gqhwfh04s@marketplace.amazon.com	Iraida Becerra	+1 619-854-2705 ext. 54348	ABR0022	Delivery by Friday | Arabella Farm Direct Bouquet of 12 Fresh Cut Pink Roses with a Free Glass Vase	1	0	1	Expedited	Mireya Monroy	200 MAITLAND AVE APT 226			ALTAMONTE SPRINGS	FLORIDA	32701-5569	US		Mireya amiga un muy Feliz Cumpleaños y muy buenos deseos de mucha salud y alegrías. Muchos abrazos.  Irma e Iraida From Iraida Becerra	false		
112-4215623-9909065	14206749385034	2020-11-04T20:00:31+00:00	2020-11-04T12:00:31-08:00	2020-11-04T20:35:33+00:00	2020-11-07T07:59:59+00:00	-1	bv6twj0lbgs33zb@marketplace.amazon.com	Stephen Rietzke	+1 213-442-1463 ext. 65345	ABR001	Delivery by Saturday | Arabella Bouquets 12 Stems of Fresh Cut Red Roses in a Free Designer Glass Vase	1	0	1	Expedited	Kathy Rietzke	338 EVERGREEN DR			NORTH WALES	PA	19454-2714	US		Because you are loved! From Stephen Rietzke	false		
112-3603367-9043412	19860804689874	2020-11-04T20:25:19+00:00	2020-11-04T12:25:19-08:00	2020-11-04T20:54:38+00:00	2020-11-07T07:59:59+00:00	-1	gvb13lls7xzqs0d@marketplace.amazon.com	Reuven Moshkovski	+1 602-671-6610 ext. 16739	ABM010	The Spring Fling Bouquet by Arabella Bouquets with a Free Designer Glass Vase	1	0	1	Expedited	Fran & Dror Moshkovski	9550 W SAHARA AVE APT 1099			LAS VEGAS	NV	89117-5379	US		Happy Birthday Grandma! Love, Reuven From Reuven Moshkovski	false		
111-9061052-2204208	17615748119658	2020-11-04T21:44:49+00:00	2020-11-04T13:44:49-08:00	2020-11-04T22:13:06+00:00	2020-11-07T07:59:59+00:00	-1	cvx3v5szyfq9wb3@marketplace.amazon.com	Mikayla	+1 213-442-1463 ext. 55332	ABR0022	Delivery by Friday | Arabella Farm Direct Bouquet of 12 Fresh Cut Pink Roses with a Free Glass Vase	1	0	1	Expedited	Mikayla	5630 ATLANTIC AVE APT 201			DELRAY BEACH	FL	33484-8206	US		Kirst,  I am so sorry for your loss! I am here for you, always! From Mikayla	false		
111-5467362-1909808	68942306312426	2020-11-04T22:39:22+00:00	2020-11-04T14:39:22-08:00	2020-11-04T22:57:30+00:00	2020-11-07T07:59:59+00:00	-1	b8nr1sxcww737cp@marketplace.amazon.com	carlos ortiz	+1 480-618-5344 ext. 76404	ABR0022	Delivery by Friday | Arabella Farm Direct Bouquet of 12 Fresh Cut Pink Roses with a Free Glass Vase	1	0	1	Expedited	Eileen Covarrubias	3641 SAN JOSE LN			SANTA BARBARA	CA	93105-3216	US		Happy birthday Mandy , I love you mi chula . Let me take you out on a date . Let's go to San Diego next weekend. From Papi	false		
111-5768957-5781832	70193986795298	2020-11-04T23:33:48+00:00	2020-11-04T15:33:48-08:00	2020-11-05T00:04:10+00:00	2020-11-07T07:59:59+00:00	-1	w2c2w1z2b9fbmrt@marketplace.amazon.com	George Riddiford	+1 602-671-6610 ext. 17164	ABR001	Delivery by Saturday | Arabella Bouquets 12 Stems of Fresh Cut Red Roses in a Free Designer Glass Vase	1	0	1	Expedited	George Riddiford	350 S COLLIER BLVD UNIT 1105			MARCO ISLAND	FL	34145-4915	US			false		
112-8840380-7921021	12536636692962	2020-11-04T23:54:30+00:00	2020-11-04T15:54:30-08:00	2020-11-05T00:23:33+00:00	2020-11-07T07:59:59+00:00	-1	nb7vn947fk92ms9@marketplace.amazon.com	James Casion	+1 213-442-1463 ext. 10463	ABR0022	Delivery by Friday | Arabella Farm Direct Bouquet of 12 Fresh Cut Pink Roses with a Free Glass Vase	1	0	1	Expedited	Deshauna Choates	5005 LOSEE RD APT 2037	LAS VEGAS NV		NORTH LAS VEGAS	NV	89081-2498	US			false		
113-3630827-2373846	63200602052858	2020-11-05T00:13:29+00:00	2020-11-04T16:13:29-08:00	2020-11-05T00:43:54+00:00	2020-11-07T07:59:59+00:00	-1	9mhhkbppv3t2mpk@marketplace.amazon.com	John G. Gurley	+1 415-851-9136 ext. 50237	ABR0055	Delivery by Saturday | Arabella Farm Direct Bouquet of 12 Stems of Fresh Cut Hot Pink Roses in a Free Designer Glass Vase	1	0	1	Expedited	John G. Gurley	620 SAND HILL RD APT 418-E			PALO ALTO	CA	94304-2079	US			false		
113-7981452-3249865	43668720061882	2020-11-05T00:17:42+00:00	2020-11-04T16:17:42-08:00	2020-11-05T00:44:48+00:00	2020-11-07T07:59:59+00:00	-1	vt1b2jcg8xj5611@marketplace.amazon.com	Amanda	+1 415-851-9136 ext. 39279	ABR0022	Delivery by Friday | Arabella Farm Direct Bouquet of 12 Fresh Cut Pink Roses with a Free Glass Vase	1	0	1	Expedited	Alice Bertholf	3855 SAILMAKER LN			DELAND	FL	32724-8252	US		Happy Birthday Grandma!!!!!! Mandy, Maddy, Sean & Bill From Amanda	false		
113-7033674-2265068	34313574760482	2020-11-05T00:45:28+00:00	2020-11-04T16:45:28-08:00	2020-11-05T00:57:18+00:00	2020-11-07T07:59:59+00:00	-1	nbv2zf53ztjs97n@marketplace.amazon.com	Aaron Duda	+1 213-442-1463 ext. 44640	ABR0022	Delivery by Friday | Arabella Farm Direct Bouquet of 12 Fresh Cut Pink Roses with a Free Glass Vase	1	0	1	Expedited	Stacy Musel	2050 BENJAMIN FRANKLIN DR UNIT 701A			SARASOTA	FL	34236-2385	US		Thanks for all the help last week! Love you! From Aaron	false		
113-2572102-5189841	69982041718346	2020-11-05T00:55:22+00:00	2020-11-04T16:55:22-08:00	2020-11-05T01:23:35+00:00	2020-11-07T07:59:59+00:00	-1	rqlr0vzgdhtmr54@marketplace.amazon.com	Jason Sproles	+1 480-618-5344 ext. 35671	ABR0022	Delivery by Friday | Arabella Farm Direct Bouquet of 12 Fresh Cut Pink Roses with a Free Glass Vase	1	0	1	Expedited	Jean McNamara	2074 CRESTVIEW CT			MIDDLEBURG	FL	32068-3687	US		Hi Jean, We love you and Miss you, We hope you had a wicked awesome Birthday!	false		
113-4897249-0682619	28300917231906	2020-11-05T01:17:51+00:00	2020-11-04T17:17:51-08:00	2020-11-05T01:44:41+00:00	2020-11-07T07:59:59+00:00	-1	6bd4yqf2559lkj4@marketplace.amazon.com	Wolfram Schynoll	+1 619-854-2705 ext. 25887	ABR0033	Delivery by Saturday | Arabella Farm Direct Bouquet of 12 Fresh Cut Orange Roses with a Free Glass Vase	1	0	1	Expedited	John and Peg DeBates	23601 S DESERT STAR DR			CHANDLER	ARIZONA	85248-0811	US		Happy Birthday Mom! Enjoy your special day. Wishing you much fun with everyone. We love you, Nancy and Wolf From Wolfram Schynoll	false		
112-0609222-9792254	44226507823522	2020-11-05T01:50:51+00:00	2020-11-04T17:50:51-08:00	2020-11-05T02:18:39+00:00	2020-11-07T07:59:59+00:00	-1	lsw1mdgrx7299tp@marketplace.amazon.com	Malthi Venkat	+1 602-671-6610 ext. 66936	ABR0055	Delivery by Saturday | Arabella Farm Direct Bouquet of 12 Stems of Fresh Cut Hot Pink Roses in a Free Designer Glass Vase	1	0	1	Expedited	Pavithra Venkat	25 REATA PL			OAKLAND	CA	94618-1937	US		Happy Anniversary!  Love Mom & Dad From Malthi & Mani Venkat	false		
113-5782933-5165047	23310780600778	2020-11-05T02:35:12+00:00	2020-11-04T18:35:12-08:00	2020-11-05T02:36:06+00:00	2020-11-07T07:59:59+00:00	-1	9t2hccwqj5pbxrj@marketplace.amazon.com	JUNZHENG YANG	+1 213-442-1463 ext. 03389	ABR0066	Delivery by Saturday | Arabella Bouquets 12 Stems of Fresh Cut White Roses in a Free Designer Glass Vase	1	0	1	Expedited	Ms. and Mr. McChesney	40 UPLAND RD			DEDHAM	MA	02026-6327	US		Dear Ms. McChesney and family,  Please accept our condolences, and know that our thoughts are with you during these challenging times. From The ASO Officers	false		
113-5215508-3347406	07269145687090	2020-11-05T02:14:29+00:00	2020-11-04T18:14:29-08:00	2020-11-05T02:45:06+00:00	2020-11-07T07:59:59+00:00	-1	zwhwqw94g1rw8rs@marketplace.amazon.com	Rodney Campbell	+1 213-442-1463 ext. 66989	ABR0022	Delivery by Friday | Arabella Farm Direct Bouquet of 12 Fresh Cut Pink Roses with a Free Glass Vase	1	0	1	Expedited	Rodney C Campbell	5416 156TH AVE SE			BELLEVUE	WA	98006-5112	US			false		
111-0593929-9012255	59773012644066	2020-11-05T02:43:23+00:00	2020-11-04T18:43:23-08:00	2020-11-05T03:11:04+00:00	2020-11-07T07:59:59+00:00	-1	42kfckfspmr0rt9@marketplace.amazon.com	Jeremy Peterson	+1 415-851-9136 ext. 07201	ABR0022	Delivery by Friday | Arabella Farm Direct Bouquet of 12 Fresh Cut Pink Roses with a Free Glass Vase	1	0	1	Expedited	Sue Peterson	3407 KINSEY AVE			DES MOINES	IA	50317-2713	US		Happy Birthday Mom!  We decided to get you flowers and a Wisconsin victory for Biden. Love you! From Jeremy, Meghan, and kids	false		
111-5837495-6369001	62894362864402	2020-11-05T03:40:37+00:00	2020-11-04T19:40:37-08:00	2020-11-05T03:41:26+00:00	2020-11-07T07:59:59+00:00	-1	zvhsc2hn36xr91p@marketplace.amazon.com	Robert E Macdonald	+1 415-851-9136 ext. 04335	ABM020	Delivery by Saturday | The Sunset Bouquet by Arabella Bouquets	1	0	1	Expedited	Ann-Kersti Lundberg	136 SE 2ND AVE			BOYNTON BEACH	FL	33435-4568	US			false		
112-1807135-3369852	18126155242954	2020-11-05T03:17:48+00:00	2020-11-04T19:17:48-08:00	2020-11-05T03:44:17+00:00	2020-11-07T07:59:59+00:00	-1	pdvqyx0jxptb587@marketplace.amazon.com	Katherine G Oddi	+1 480-618-5344 ext. 03443	ABM010	The Spring Fling Bouquet by Arabella Bouquets with a Free Designer Glass Vase	1	0	1	Expedited	Nicole Pizzaloto	7 LORRAINE ST			GLEN RIDGE	NJ	07028-2027	US		Happy Birthday Pizz!!!!  We love you!!! Celli, Mags, Alli, Sandy, Spina, Betsy, and Kate From Katherine G Oddi	false		
114-9693281-8709820	25910152912362	2020-11-05T03:23:30+00:00	2020-11-04T19:23:30-08:00	2020-11-05T03:52:36+00:00	2020-11-07T07:59:59+00:00	-1	19v5x6wtchj009t@marketplace.amazon.com	Joseph Rioux	+1 480-618-5344 ext. 58430	ABM022	Delivery by Saturday | Purple Extravagance Bouquet by Arabella Bouquets	1	0	1	Expedited	Peggy Descoteaux	2151 SUNNYSIDE AVE APT 127			CLOVIS	CA	93611-4045	US		Happy Birthday Grandma, thinking of you always. Love, Katie & Family. From Joseph Rioux	false		
114-6842715-0746603	27129326303098	2020-11-05T03:32:16+00:00	2020-11-04T19:32:16-08:00	2020-11-05T04:00:05+00:00	2020-11-07T07:59:59+00:00	-1	6prstpgcgj73gn8@marketplace.amazon.com	Rukome	+1 213-442-1463 ext. 42436	ABR001	Delivery by Saturday | Arabella Bouquets 12 Stems of Fresh Cut Red Roses in a Free Designer Glass Vase	1	0	1	Expedited	Maria Gemma Smith	9122 50TH AVE			ELMHURST	NY	11373-4000	US		I want to be the only one that sends you flowers, I want to be the only man in your life that makes you happy and smile. You are the only woman that completes me. I love you. From Sean	false		
114-8969224-6080238	28497640296426	2020-11-05T04:33:15+00:00	2020-11-04T20:33:15-08:00	2020-11-05T05:01:27+00:00	2020-11-07T07:59:59+00:00	-1	7t3kx7hsk3ysy5k@marketplace.amazon.com	Magali Cook	+1 602-671-6610 ext. 58164	ABM022	Delivery by Saturday | Purple Extravagance Bouquet by Arabella Bouquets	1	0	1	Expedited	Patti Cook	11703 W 56TH CIR			ARVADA	CO	80002-1409	US			false		
112-6088281-4504220	57509617414202	2020-11-05T05:21:05+00:00	2020-11-04T21:21:05-08:00	2020-11-05T05:50:19+00:00	2020-11-07T07:59:59+00:00	-1	b6pcw96xfp4s38z@marketplace.amazon.com	nga tran	+1 213-442-1463 ext. 06318	ABR0022	Delivery by Friday | Arabella Farm Direct Bouquet of 12 Fresh Cut Pink Roses with a Free Glass Vase	1	0	1	Expedited	Lang Duong	21731 JOHNSTONE DR			LAKE FOREST	CA	92630-6523	US		Mom, Happy Birthday From nga tran	false		
112-2829298-4053849	43327922244306	2020-11-05T05:54:26+00:00	2020-11-04T21:54:26-08:00	2020-11-05T06:05:59+00:00	2020-11-07T07:59:59+00:00	-1	9bpsr5r9p1l2b21@marketplace.amazon.com	Roberta R. Van Hise	+1 602-671-6610 ext. 26358	ABR0022	Delivery by Friday | Arabella Farm Direct Bouquet of 12 Fresh Cut Pink Roses with a Free Glass Vase	1	0	1	Expedited	Jill Toll	2435 N RIVERSIDE DR			SANTA ANA	CA	92706-1614	US			false		
114-1658851-1364211	51580030667034	2020-11-05T06:15:21+00:00	2020-11-04T22:15:21-08:00	2020-11-05T06:46:00+00:00	2020-11-07T07:59:59+00:00	-1	npy8yjrchm7bncv@marketplace.amazon.com	Michael E. Profenno	+1 480-618-5344 ext. 74560	ABR0055	Delivery by Saturday | Arabella Farm Direct Bouquet of 12 Stems of Fresh Cut Hot Pink Roses in a Free Designer Glass Vase	2	1	1	Expedited	Lt Col. Michael E Profenno; USA (R)	3079 BORASSUS DR			NEW SMYRNA BEACH	FL	32168-6374	US			false		
112-8852532-5705822	37725692083938	2020-11-05T12:10:10+00:00	2020-11-05T04:10:10-08:00	2020-11-05T12:40:15+00:00	2020-11-10T07:59:59+00:00	-4	lzb0mbqvbfhsmwd@marketplace.amazon.com	stan hallem	+1 929-436-4790 ext. 26094	ABR0066	Delivery by Saturday | Arabella Bouquets 12 Stems of Fresh Cut White Roses in a Free Designer Glass Vase	1	0	1	Expedited	Stanford M Hallem	6983  Columbia Ct.			Margate	Florida	33063	US			false		
111-9173939-4277808	26164531384242	2020-11-05T12:26:35+00:00	2020-11-05T04:26:35-08:00	2020-11-05T12:47:24+00:00	2020-11-10T07:59:59+00:00	-4	r4z618qrpzrh681@marketplace.amazon.com	Sondra Cernigliaro	+1 213-442-1463 ext. 09429	ABR0022	Delivery by Friday | Arabella Farm Direct Bouquet of 12 Fresh Cut Pink Roses with a Free Glass Vase	1	0	1	Expedited	Terri Trucello Miller	1845 KERRY ST			MINNEOLA	FL	34715-7800	US		Terri,  Congratulations on growing a little person inside your lady parts!  Sending you much love & laughter.  Love, Sondra From Sondra Cernigliaro	false		
113-1285130-2639462	00633609268042	2020-11-05T13:45:42+00:00	2020-11-05T05:45:42-08:00	2020-11-05T14:15:46+00:00	2020-11-10T07:59:59+00:00	-4	9zmh7pxr6qbxvb5@marketplace.amazon.com	Nicholas Mesagno II	+1 602-671-6610 ext. 82569	ABR0022	Delivery by Friday | Arabella Farm Direct Bouquet of 12 Fresh Cut Pink Roses with a Free Glass Vase	1	0	1	Expedited	Mara Lovely Orlova	4028 SW WEBSTER ST			SEATTLE	WA	98136-2129	US			false		
111-0914304-4297017	65578489367978	2020-10-28T22:38:21+00:00	2020-10-28T15:38:21-07:00	2020-11-05T15:58:59+00:00	2020-11-10T07:59:59+00:00	-4	4wfhjtcgcfh1wkq@marketplace.amazon.com	Suzanne Palumbo	+1 929-436-4790 ext. 39186	ABR0066	Delivery by Friday | Arabella Bouquets 12 Stems of Fresh Cut White Roses in a Free Designer Glass Vase	1	0	1	Expedited	Charles & Jenni	251 Trotters Drive			Maitland	FL	32751	US			false		
111-4594073-5593812	04349846349642	2020-11-05T15:35:19+00:00	2020-11-05T07:35:19-08:00	2020-11-05T16:04:00+00:00	2020-11-10T07:59:59+00:00	-4	m2lmgk8jq6nvrjh@marketplace.amazon.com	Nick Habibulla	+1 619-854-2705 ext. 50949	ABR0055	Delivery by Saturday | Arabella Farm Direct Bouquet of 12 Stems of Fresh Cut Hot Pink Roses in a Free Designer Glass Vase	1	0	1	Expedited	Erica Adam	102 BARCELONA DR			ROYAL PALM BEACH	FL	33411-1313	US		Happiest Birthday dear Erica, You are a beautiful, kindhearted person and we are thankful to have you in our family. Love always, Faria, Nick, Rayia and Janna From Nick Habibulla	false		
114-0249607-1570657	14243145902426	2020-11-05T15:48:02+00:00	2020-11-05T07:48:02-08:00	2020-11-05T16:15:31+00:00	2020-11-10T07:59:59+00:00	-4	ptfqxq02jn8yvb8@marketplace.amazon.com	TERRI ARCURI	+1 480-618-5344 ext. 19193	ABR001	Delivery by Saturday | Arabella Bouquets 12 Stems of Fresh Cut Red Roses in a Free Designer Glass Vase	1	0	1	Expedited	Ashley Guarcello	4423 W KENSINGTON AVE			TAMPA	FL	33629-8339	US		Congrats on passing your Real Estate exam Love Mom and Dad	false		
114-4889931-5351444	56027794263986	2020-11-05T16:01:49+00:00	2020-11-05T08:01:49-08:00	2020-11-05T16:31:38+00:00	2020-11-10T07:59:59+00:00	-4	w86778nxf7sy19h@marketplace.amazon.com	Anna	+1 213-442-1463 ext. 06409	ABM010	The Spring Fling Bouquet by Arabella Bouquets with a Free Designer Glass Vase	1	0	1	Expedited	Anna Lynch	7848 SWEET WATER RD			LONE TREE	CO	80124-3056	US		Anna,  Sending you lots of love and healing thoughts! You got this! From Elena	false		
114-5276302-1911426	33142992864522	2020-11-05T16:16:55+00:00	2020-11-05T08:16:55-08:00	2020-11-05T16:42:37+00:00	2020-11-10T07:59:59+00:00	-4	gb7c7ph5f72s642@marketplace.amazon.com	Joel Grodensky	+1 213-442-1463 ext. 28706	ABM010	The Spring Fling Bouquet by Arabella Bouquets with a Free Designer Glass Vase	1	0	1	Expedited	Phyllis Grodensky	6347 BAY CLUB DR APT 1 UNIT 1			FT LAUDERDALE	FL	33308-1648	US		We are thinking of you and wish you a smooth recovery! We love you! From Joel, Catherine, Charlie & Jamie	false		
113-3162812-4059458	48075648403066	2020-11-05T16:38:57+00:00	2020-11-05T08:38:57-08:00	2020-11-05T17:03:06+00:00	2020-11-10T07:59:59+00:00	-4	63cht0mfb6nj2b8@marketplace.amazon.com	Shane	+1 213-442-1463 ext. 72392	ABM010	The Spring Fling Bouquet by Arabella Bouquets with a Free Designer Glass Vase	1	0	1	Expedited	Gene Seeloff	36165 S CANYON BROOK DR			TUCSON	AZ	85739-1656	US		Enjoy your gift! From PA	false		
111-9932686-9173820	05085681572538	2020-11-05T17:04:48+00:00	2020-11-05T09:04:48-08:00	2020-11-05T17:35:09+00:00	2020-11-10T07:59:59+00:00	-4	2dn915bpl2td92f@marketplace.amazon.com	Sharon Tadmor	+1 619-854-2705 ext. 40979	ABM024	Delivery by Monday | The Beauty of Color Bouquet by Arabella Bouquets	1	0	1	Expedited	Jessica Wojick	1601 N RHODES ST APT 203			ARLINGTON	VA	22209-1362	US			false		
113-1604398-8078655	10071718001698	2020-11-05T17:56:00+00:00	2020-11-05T09:56:00-08:00	2020-11-05T18:20:12+00:00	2020-11-10T07:59:59+00:00	-4	km6qyq1dztx7tt8@marketplace.amazon.com	Debra Wallace	+1 619-854-2705 ext. 08894	ABR0022	Delivery by Friday | Arabella Farm Direct Bouquet of 12 Fresh Cut Pink Roses with a Free Glass Vase	1	0	1	Expedited	Theresa Harvey	WEDDING CHAPLE	3300 LAS VEGAS BLVD S		LAS VEGAS	NV	89109-8916	US			false		
113-0351592-7141821	32783388027794	2020-11-05T18:19:56+00:00	2020-11-05T10:19:56-08:00	2020-11-05T18:50:36+00:00	2020-11-10T07:59:59+00:00	-4	tjq08r05k93mrvk@marketplace.amazon.com	mary hance	+1 480-618-5344 ext. 87372	ABM022	Delivery by Saturday | Purple Extravagance Bouquet by Arabella Bouquets	1	0	1	Expedited	mary hance	4375 N Curry Dr			Traverse City	MI	49685-9321	US			false		
111-3707976-0769019	28884890609338	2020-11-05T18:35:26+00:00	2020-11-05T10:35:26-08:00	2020-11-05T19:05:21+00:00	2020-11-10T07:59:59+00:00	-4	7xt5gktd776xqbp@marketplace.amazon.com	Mike Davis	+1 619-854-2705 ext. 58790	ABR0022	Delivery by Friday | Arabella Farm Direct Bouquet of 12 Fresh Cut Pink Roses with a Free Glass Vase	1	0	1	Expedited	Patty Schwab	5911 N FLEMING ST			SPOKANE	WA	99205-7472	US			false		
113-2117710-1833854	22965367342770	2020-11-05T18:41:04+00:00	2020-11-05T10:41:04-08:00	2020-11-05T19:10:59+00:00	2020-11-10T07:59:59+00:00	-4	4jbgmfv2vfznyk8@marketplace.amazon.com	Lisa Burraston	+1 602-671-6610 ext. 68028	ABM022	Delivery by Saturday | Purple Extravagance Bouquet by Arabella Bouquets	1	0	1	Expedited	Rachel palmer	593 E SLEIGH RIDE LN			GRANTSVILLE	UT	84029-5540	US			false		
111-2157766-0198648	36687442979698	2020-11-05T18:45:58+00:00	2020-11-05T10:45:58-08:00	2020-11-05T19:15:20+00:00	2020-11-10T07:59:59+00:00	-4	4qwfz259ypv38ky@marketplace.amazon.com	JanF	+1 480-618-5344 ext. 63487	ABM010	The Spring Fling Bouquet by Arabella Bouquets with a Free Designer Glass Vase	1	0	1	Expedited	Matt and Heidi Strocoby	6000 WRIGHT TER			CULVER CITY	CA	90232-3015	US		Dear Heidi. Wishing a wonderful birthday for an awesome daughter! Love, Mom and Lar From JanF	false		
111-0155766-0921816	13063843080434	2020-11-05T19:44:51+00:00	2020-11-05T11:44:51-08:00	2020-11-05T20:15:27+00:00	2020-11-10T07:59:59+00:00	-4	b8z3pxdn1dw4pd1@marketplace.amazon.com	simeon requidan	+1 480-618-5344 ext. 30770	ABR0022	Delivery by Saturday | Arabella Farm Direct Bouquet of 12 Fresh Cut Pink Roses with a Free Glass Vase	1	0	1	Expedited	Denise Miranda	1610 S HIGHLAND AVE APT E			FULLERTON	CA	92832-3334	US			false		
113-4973526-1421035	52066938235514	2020-11-05T19:45:54+00:00	2020-11-05T11:45:54-08:00	2020-11-05T20:16:32+00:00	2020-11-10T07:59:59+00:00	-4	ggdnt32t7mcx90c@marketplace.amazon.com	Merton Johnson	+1 929-436-4790 ext. 89000	ABR0022	Delivery by Saturday | Arabella Farm Direct Bouquet of 12 Fresh Cut Pink Roses with a Free Glass Vase	1	0	1	Expedited	merton o. johnson	1111 CHERRY HILLS DR			LAUREL	MT	59044-2162	US			false		
112-0245175-8227415	22870429151514	2020-11-05T20:01:59+00:00	2020-11-05T12:01:59-08:00	2020-11-05T20:30:00+00:00	2020-11-10T07:59:59+00:00	-4	skxtylb9ytt081f@marketplace.amazon.com	Riley Stouffer	+1 213-442-1463 ext. 06715	ABR0022	Delivery by Saturday | Arabella Farm Direct Bouquet of 12 Fresh Cut Pink Roses with a Free Glass Vase	1	0	1	Expedited	Lauren Fischer	12776 ROUNDUP RD			PARKER	CO	80138-8421	US		So sorry about Otto, we have been thinking about the Fischer family non stop. Love you all xoxox From Winnie, Roo, and Riley	false		
112-1840801-1285859	57776672688882	2020-11-05T20:25:49+00:00	2020-11-05T12:25:49-08:00	2020-11-05T20:51:26+00:00	2020-11-10T07:59:59+00:00	-4	fndvmxw8znkmcmk@marketplace.amazon.com	katharine coghlan	+1 415-851-9136 ext. 79760	ABR0022	Delivery by Saturday | Arabella Farm Direct Bouquet of 12 Fresh Cut Pink Roses with a Free Glass Vase	1	0	1	Expedited	Joan Lind	8 BOUWREY PL			WHITEHOUSE STATION	NJ	08889-3255	US		Sending love and good wishes! From Katharine	false		
113-5744390-9400260	69999010506890	2020-11-05T20:44:07+00:00	2020-11-05T12:44:07-08:00	2020-11-05T21:12:30+00:00	2020-11-10T07:59:59+00:00	-4	lbndvs5wdhpqzk6@marketplace.amazon.com	Carissa	+1 929-436-4790 ext. 65382	ABR0022	Delivery by Saturday | Arabella Farm Direct Bouquet of 12 Fresh Cut Pink Roses with a Free Glass Vase	1	0	1	Expedited	Russell McLean	15 GRAPHIC BLVD			SPARTA	NJ	07871-3508	US		Our deepest condolences to you and your family. We are thinking of you during this difficult time. From Your Citco Family	false		
114-5292799-4707459	43910543412738	2020-11-05T20:52:45+00:00	2020-11-05T12:52:45-08:00	2020-11-05T21:16:03+00:00	2020-11-10T07:59:59+00:00	-4	tt3x12zg0zvn0wl@marketplace.amazon.com	Katherine J Sattelberg	+1 929-436-4790 ext. 46785	ABR0022	Delivery by Saturday | Arabella Farm Direct Bouquet of 12 Fresh Cut Pink Roses with a Free Glass Vase	1	0	1	Expedited	Connie Labarge	52 SHADY OAK CT			SAFETY HARBOR	FL	34695-4669	US		We just wanted to send you some joy. We love you and are praying for you every day! From Chuck and Katie	false		
111-1428595-9330624	04231288139946	2020-11-05T20:50:37+00:00	2020-11-05T12:50:37-08:00	2020-11-05T21:19:41+00:00	2020-11-10T07:59:59+00:00	-4	b8wshs9s97yv6q6@marketplace.amazon.com	Sally Brege	+1 213-442-1463 ext. 72842	ABR0022	Delivery by Saturday | Arabella Farm Direct Bouquet of 12 Fresh Cut Pink Roses with a Free Glass Vase	1	0	1	Expedited	Rodney Reed	555 CORONA DEL CAMPO LOOP			LAS CRUCES	NM	88011-4052	US		Aunt Bonnie and Uncle Rod, Thinking of you with lots of love! Sally & Lee Brege From Sally Brege	false		
113-2036586-3948239	67509385398482	2020-11-05T20:56:05+00:00	2020-11-05T12:56:05-08:00	2020-11-05T21:21:47+00:00	2020-11-10T07:59:59+00:00	-4	4chw9s68655h67k@marketplace.amazon.com	Seher	+1 602-671-6610 ext. 52994	ABR0022	Delivery by Saturday | Arabella Farm Direct Bouquet of 12 Fresh Cut Pink Roses with a Free Glass Vase	1	0	1	Expedited	Yvonne DelaCruz	2231 ALEXIS LN			TRACY	CA	95377-5631	US		Cheer up my friend, I hope you feel better soon! Remember, it takes 42 muscles to frown, but only 4 to kick someone in the nuts :-) From Seher	false		
111-6580701-4357813	64690045828162	2020-11-05T20:54:32+00:00	2020-11-05T12:54:32-08:00	2020-11-05T21:24:14+00:00	2020-11-10T07:59:59+00:00	-4	qf3d1s7xgd8qvfn@marketplace.amazon.com	Thomas Abbey	+1 602-671-6610 ext. 08699	ABR0022	Delivery by Saturday | Arabella Farm Direct Bouquet of 12 Fresh Cut Pink Roses with a Free Glass Vase	1	0	1	Expedited	Catherine Nguyen	6506 SE 85TH AVE			PORTLAND	OR	97266-5618	US			false		
111-0893837-6941830	46837641435954	2020-11-05T21:30:56+00:00	2020-11-05T13:30:56-08:00	2020-11-05T21:59:14+00:00	2020-11-10T07:59:59+00:00	-4	ph0fh3hjvh0sd4k@marketplace.amazon.com	Jolyn Johnson	+1 619-854-2705 ext. 94788	ABR0022	Delivery by Saturday | Arabella Farm Direct Bouquet of 12 Fresh Cut Pink Roses with a Free Glass Vase	1	0	1	Expedited	Jennifer Ring	705 CARLISLE RD			BATAVIA	IL	60510-3020	US		With all the love we can send you.  Jolyn & Dean From Your California Family	false		
112-0233117-5654621	51580785702338	2020-11-05T22:27:09+00:00	2020-11-05T14:27:09-08:00	2020-11-05T22:46:42+00:00	2020-11-10T07:59:59+00:00	-4	vsj3cztfh3typkd@marketplace.amazon.com	Anne Kriechbaum	+1 619-854-2705 ext. 14257	ABR0022	Delivery by Saturday | Arabella Farm Direct Bouquet of 12 Fresh Cut Pink Roses with a Free Glass Vase	1	0	1	Expedited	Ruby  Ricardson	525 S ANAHEIM HILLS RD B 205			ANAHEIM	CA	92807-4721	US			false		
114-2592410-2509044	02939945134386	2020-11-05T22:29:31+00:00	2020-11-05T14:29:31-08:00	2020-11-05T22:59:56+00:00	2020-11-10T07:59:59+00:00	-4	jxt1bwtd5mz627q@marketplace.amazon.com	Samuel Ledwitz	+1 602-671-6610 ext. 29575	ABR0022	Delivery by Saturday | Arabella Farm Direct Bouquet of 12 Fresh Cut Pink Roses with a Free Glass Vase	1	0	1	Expedited	Pauline Riddle	2940 SPORTING CT			REDDING	CA	96001-3600	US			false		
114-0094752-6194635	37136423178650	2020-11-05T22:32:34+00:00	2020-11-05T14:32:34-08:00	2020-11-05T23:01:50+00:00	2020-11-10T07:59:59+00:00	-4	4vmdrv2bc0hnwv5@marketplace.amazon.com	Amber Jennings	+1 619-854-2705 ext. 02872	ABR0022	Delivery by Saturday | Arabella Farm Direct Bouquet of 12 Fresh Cut Pink Roses with a Free Glass Vase	1	0	1	Expedited	Birch Sarah Irwin - happy birthday	2119 VALERGA DR APT 13			BELMONT	CA	94002-3578	US			false		
113-5896879-3245831	34889269640466	2020-11-05T22:33:04+00:00	2020-11-05T14:33:04-08:00	2020-11-05T23:02:35+00:00	2020-11-10T07:59:59+00:00	-4	t7ds3wmzfkqm48x@marketplace.amazon.com	Malikah Abdullah	+1 619-854-2705 ext. 83891	ABR012	Delivery by Monday | Arabella Farm Direct Bouquet of 18 Fresh Cut Pink Roses with a Free Glass Vase	1	0	1	Expedited	Lynne Amori	407 ELLIOTT RD			ELKINS PARK	PA	19027-2005	US		HAPPY BIRTHDAY Lynne!!  I hope you enjoy these roses.  Please remember not do work at all on your bday and just enjoy :-) From Malikah Abdullah	false		
114-9910915-6220201	23558935347906	2020-11-05T22:35:07+00:00	2020-11-05T14:35:07-08:00	2020-11-05T23:04:10+00:00	2020-11-10T07:59:59+00:00	-4	8qg9c02wm55yjyf@marketplace.amazon.com	Janet Sun	+1 602-671-6610 ext. 27548	ABR0022	Delivery by Saturday | Arabella Farm Direct Bouquet of 12 Fresh Cut Pink Roses with a Free Glass Vase	1	0	1	Expedited	Suzy Beach	427 GARDEN LN			BRYN MAWR	PA	19010-3625	US		We love you and are thinking of you Zsuzsy, sending many hugs From Janet and Charlie	true		
112-6801398-2953031	25720768603922	2020-11-05T22:42:29+00:00	2020-11-05T14:42:29-08:00	2020-11-05T23:11:50+00:00	2020-11-10T07:59:59+00:00	-4	6xk24my4q53k3jf@marketplace.amazon.com	Debra J Malick	+1 929-436-4790 ext. 17197	ABM022	Delivery by Saturday | Purple Extravagance Bouquet by Arabella Bouquets	1	0	1	Expedited	Michelle Trahan	13811 58TH RD			FLUSHING	NY	11355-5239	US		Hoping you have a beautiful day. Sending you love from Florida. From Your sisters	false		
111-8023521-1175432	19392244809482	2020-11-05T22:46:18+00:00	2020-11-05T14:46:18-08:00	2020-11-05T23:16:17+00:00	2020-11-10T07:59:59+00:00	-4	lwfvyccw5fm2103@marketplace.amazon.com	Rob	+1 480-618-5344 ext. 96838	ABM022	Delivery by Saturday | Purple Extravagance Bouquet by Arabella Bouquets	1	0	1	Expedited	Rob Walker	508 SEABISCUIT LOOP W			MADISONVILLE	LA	70447-3512	US			false		
111-1529683-2940259	19974823996970	2020-11-05T22:49:31+00:00	2020-11-05T14:49:31-08:00	2020-11-05T23:17:17+00:00	2020-11-10T07:59:59+00:00	-4	chgzsyr45v7df6s@marketplace.amazon.com	Lori Geissler	+1 213-442-1463 ext. 40284	ABR0022	Delivery by Saturday | Arabella Farm Direct Bouquet of 12 Fresh Cut Pink Roses with a Free Glass Vase	1	0	1	Expedited	Mary Alice Raudenbush	217 N HIGHLAND AVE			OSSINING	NY	10562-2900	US		Hope the pink flowers complement your flamingo decor.  :-)  Thank you for your support & for believing in me!   Lori From Lori Geissler	false		
111-1522398-7071429	62429231315378	2020-11-05T23:34:32+00:00	2020-11-05T15:34:32-08:00	2020-11-05T23:57:26+00:00	2020-11-10T07:59:59+00:00	-4	lvt9b9g8w44ft1m@marketplace.amazon.com	Alyssa Vollaro	+1 929-436-4790 ext. 36998	ABM020	Delivery by Saturday | The Sunset Bouquet by Arabella Bouquets	1	0	1	Expedited	Alyssa Vollaro	290 W BIG SPRINGS RD APT E			RIVERSIDE	CA	92507-4736	US		Happy anniversary! I hope you have a great day and I'm sorry I can't be there to spend it with you. From Alyssa Vollaro	false		
114-7827665-0834620	37918312738850	2020-11-05T23:31:45+00:00	2020-11-05T15:31:45-08:00	2020-11-06T00:00:49+00:00	2020-11-10T07:59:59+00:00	-4	7cq76t9sz2xwygb@marketplace.amazon.com	Bob DePalma	+1 480-618-5344 ext. 94650	ABR0022	Delivery by Saturday | Arabella Farm Direct Bouquet of 12 Fresh Cut Pink Roses with a Free Glass Vase	1	0	1	Expedited	Ms Christine Pettner	6032 TYNDALL DR			HUNTINGTON BEACH	CA	92647-2435	US			false		
112-1405787-1809826	48119528784626	2020-11-05T23:58:01+00:00	2020-11-05T15:58:01-08:00	2020-11-06T00:26:27+00:00	2020-11-10T07:59:59+00:00	-4	4jl9rl94gltvvkp@marketplace.amazon.com	stephen bradley	+1 619-854-2705 ext. 75059	ABR0022	Delivery by Saturday | Arabella Farm Direct Bouquet of 12 Fresh Cut Pink Roses with a Free Glass Vase	1	0	1	Expedited	DURANGO SURGERY CENTER C/O Hannah, Rachel, Elleen	8530 W SUNSET RD STE 100			LAS VEGAS	NV	89113-2244	US		Can't thank you enough for the professional and kind treatment during my visit. Please give my thanks to the entire op room staff as well - absolutely phenomenal experience to ensure I was comfortable. Sincerely, From stephen bradley	false		
114-4456195-4818662	19373105413706	2020-11-06T00:02:55+00:00	2020-11-05T16:02:55-08:00	2020-11-06T00:31:48+00:00	2020-11-10T07:59:59+00:00	-4	x033hw0nv0zjkh9@marketplace.amazon.com	Angela D. Quick	+1 602-671-6610 ext. 62407	ABM022	Delivery by Saturday | Purple Extravagance Bouquet by Arabella Bouquets	1	0	1	Expedited	Gina Nakahara	8428 BAY CREST DR			LAS VEGAS	NV	89128-7184	US		Gina, We are so sorry about Ray; he will be greatly missed.  Please let us know if you need anything at all.  Sending peace to you. All of us at FIRST Nevada From Angela D. Quick	false		
111-8780235-3054650	43595693543546	2020-11-06T00:05:56+00:00	2020-11-05T16:05:56-08:00	2020-11-06T00:34:15+00:00	2020-11-10T07:59:59+00:00	-4	54fmqqgm61p8gkj@marketplace.amazon.com	Benoit Potvin	+1 480-618-5344 ext. 82350	ABM024	Delivery by Monday | The Beauty of Color Bouquet by Arabella Bouquets	1	0	1	Expedited	Cynthia Moyers	4542 DEER LODGE RD			NEW PORT RICHEY	FL	34655-7318	US		Get well soon beautiful! From Far far away	false		
114-8743630-4071444	07452341746546	2020-11-06T00:10:49+00:00	2020-11-05T16:10:49-08:00	2020-11-06T00:40:19+00:00	2020-11-10T07:59:59+00:00	-4	g8w0x7hpmf43b69@marketplace.amazon.com	Teresa Lybarger	+1 213-442-1463 ext. 26100	ABM010	The Spring Fling Bouquet by Arabella Bouquets with a Free Designer Glass Vase	1	0	1	Expedited	Ladell Lybarger	1221 BIRCH LN			DES MOINES	IA	50315-3019	US		Happy Birthday Grandma!  We miss you and can't wait to come to Iowa again.  Love, Olivia and Daniel From Teresa Lybarger	false		
114-0418730-4530610	28045339408738	2020-11-06T00:07:18+00:00	2020-11-05T16:07:18-08:00	2020-11-06T00:44:05+00:00	2020-11-10T07:59:59+00:00	-4	91rdgbv1w1g4165@marketplace.amazon.com	eric kloth	+1 619-854-2705 ext. 67427	ABM022	Delivery by Saturday | Purple Extravagance Bouquet by Arabella Bouquets	1	0	1	Expedited	Eric kloth	405 DOGWOOD ST			WAKEFIELD	KS	67487-9015	US		Happy birthday love you	false		
113-0052560-4286671	20760809643514	2020-11-06T00:32:29+00:00	2020-11-05T16:32:29-08:00	2020-11-06T01:02:17+00:00	2020-11-10T07:59:59+00:00	-4	bz9my7kg79zslt9@marketplace.amazon.com	BJ Honza	+1 602-671-6610 ext. 49935	ABR0055	Delivery by Saturday | Arabella Farm Direct Bouquet of 12 Stems of Fresh Cut Hot Pink Roses in a Free Designer Glass Vase	1	0	1	Expedited	Lillian Honza	1302 CAMELOT LN			ROWLETT	TX	75088-6029	US		Mom, Happy Birthday!  Wish we could be with you to celebrate!  We love you, WJ, BJ, and CJ From BJ Honza	false		
112-4479853-4326666	47394376039042	2020-11-06T00:49:34+00:00	2020-11-05T16:49:34-08:00	2020-11-06T01:18:27+00:00	2020-11-10T07:59:59+00:00	-4	j521brgg88l38hj@marketplace.amazon.com	Aqeel Haider	+1 213-442-1463 ext. 80738	ABR004	Delivery by Saturday | Arabella Farm Direct Bouquet of 12 Fresh Cut Yellow Roses with a Free Glass Vase	1	0	1	Expedited	Fatima S Rizvi	262 WOODBURY RD			HICKSVILLE	NY	11801-3021	US			false		
112-1300924-8661055	14250171424538	2020-11-06T00:53:57+00:00	2020-11-05T16:53:57-08:00	2020-11-06T01:24:31+00:00	2020-11-10T07:59:59+00:00	-4	18wjbc0j47ylkv9@marketplace.amazon.com	Borni	+1 415-851-9136 ext. 48750	ABR0022	Delivery by Saturday | Arabella Farm Direct Bouquet of 12 Fresh Cut Pink Roses with a Free Glass Vase	1	0	1	Expedited	Jennifer Miller	605 E COY DR			FORT COLLINS	CO	80521-3502	US			false		
113-1925321-0653044	07820008391386	2020-11-06T02:04:21+00:00	2020-11-05T18:04:21-08:00	2020-11-06T02:24:08+00:00	2020-11-10T07:59:59+00:00	-4	kdgw2zs06chzwz9@marketplace.amazon.com	vincent d scala	+1 619-854-2705 ext. 64655	ABM020	Delivery by Saturday | The Sunset Bouquet by Arabella Bouquets	1	0	1	Expedited	Mrs Rita Oppedisano	105 LEE RD			GARDEN CITY	NY	11530-2519	US		Just wanted to say "thank you" for letting me create such wonderful relationships with your beautiful "boys"! It is a special blessing and I appreciate it...and YOU... every day.  Love & kisses always! From Teresa	false		
114-9543045-5837066	18880658864466	2020-11-06T02:10:13+00:00	2020-11-05T18:10:13-08:00	2020-11-06T02:36:30+00:00	2020-11-10T07:59:59+00:00	-4	855z9fw4jfvf43f@marketplace.amazon.com	Monica Hernandez	+1 213-442-1463 ext. 83364	ABR0022	Delivery by Saturday | Arabella Farm Direct Bouquet of 12 Fresh Cut Pink Roses with a Free Glass Vase	1	0	1	Expedited	Diane Giroux	1421 E DIANA AVE			ANAHEIM	CA	92805-5417	US			false		
113-4729968-1148204	03345076815010	2020-11-06T02:18:06+00:00	2020-11-05T18:18:06-08:00	2020-11-06T02:45:47+00:00	2020-11-10T07:59:59+00:00	-4	5d9g40jwlj4z4cy@marketplace.amazon.com	Kate Dale	+1 602-671-6610 ext. 18793	ABR012	Delivery by Monday | Arabella Farm Direct Bouquet of 18 Fresh Cut Pink Roses with a Free Glass Vase	1	0	1	Expedited	Nancy Barrett	3333 26TH AVE E # 1032 LOT 1032			BRADENTON	FL	34208-7201	US			false		
112-6165421-3862612	41519969665898	2020-11-06T02:19:17+00:00	2020-11-05T18:19:17-08:00	2020-11-06T02:48:10+00:00	2020-11-10T07:59:59+00:00	-4	ck5q7fg492cmnq7@marketplace.amazon.com	Robert Randolph	+1 619-854-2705 ext. 42654	ABM022	Delivery by Saturday | Purple Extravagance Bouquet by Arabella Bouquets	1	0	1	Expedited	Miranda Peralta	56 PEACHTREE HILL AVE			LAS VEGAS	NV	89183-5674	US		You're a good person From Robert Randolph	false		
114-8211947-0692227	68997424425906	2020-11-06T02:43:00+00:00	2020-11-05T18:43:00-08:00	2020-11-06T03:13:41+00:00	2020-11-10T07:59:59+00:00	-4	9n4v935cn16rn9h@marketplace.amazon.com	Arlin	+1 213-442-1463 ext. 25451	ABR012	Delivery by Monday | Arabella Farm Direct Bouquet of 18 Fresh Cut Pink Roses with a Free Glass Vase	1	0	1	Expedited	Arlin peight	1089 BULL RD			ROME	PA	18837-8666	US			false		
114-6651892-6558636	28680938576986	2020-11-06T03:04:06+00:00	2020-11-05T19:04:06-08:00	2020-11-06T03:31:02+00:00	2020-11-10T07:59:59+00:00	-4	27z5qs1jg4y5s9z@marketplace.amazon.com	Taylor peters	+1 619-854-2705 ext. 33038	ABR0022	Delivery by Saturday | Arabella Farm Direct Bouquet of 12 Fresh Cut Pink Roses with a Free Glass Vase	1	0	1	Expedited	Lindsey duben	5245 28TH AVE S APT 307			FARGO	ND	58104-9082	US		Lindsey I’m sorry for your loss I hope these brighten your day From Taylor peters	false		
112-7105361-1810611	25101764226490	2020-11-06T03:38:15+00:00	2020-11-05T19:38:15-08:00	2020-11-06T04:04:22+00:00	2020-11-10T07:59:59+00:00	-4	4nd78nshqsjkcbp@marketplace.amazon.com	Patricia Dunn	+1 213-442-1463 ext. 38214	ABM022	Delivery by Saturday | Purple Extravagance Bouquet by Arabella Bouquets	1	0	1	Expedited	Katheryne Barron	9505 CALLE CHAMISA NW			ALBUQUERQUE	NM	87114-2447	US		Happy Birthday Kathy 🎈 We love you. From Jim and Trish Dunn	false		
113-9101157-8841012	25161828833698	2020-11-06T04:04:30+00:00	2020-11-05T20:04:30-08:00	2020-11-06T04:31:56+00:00	2020-11-10T07:59:59+00:00	-4	gvts011gthkxn8s@marketplace.amazon.com	Jennifer Fortin	+1 602-671-6610 ext. 93359	ABR0033	Delivery by Saturday | Arabella Farm Direct Bouquet of 12 Fresh Cut Orange Roses with a Free Glass Vase	1	0	1	Expedited	Marcella Tortorici	15400 VINEYARD BLVD APT 314			MORGAN HILL	CA	95037-8004	US		I know what you’re going through isn’t easy. Sending hugs, good vibes, and positive thoughts. From Jenny	false		
113-0884795-9270648	69823444999754	2020-11-06T04:06:13+00:00	2020-11-05T20:06:13-08:00	2020-11-06T04:35:51+00:00	2020-11-10T07:59:59+00:00	-4	mj6myp8j452cmtg@marketplace.amazon.com	Mark Denney	+1 213-442-1463 ext. 23611	ABR0022	Delivery by Saturday | Arabella Farm Direct Bouquet of 12 Fresh Cut Pink Roses with a Free Glass Vase	1	0	1	Expedited	Connie Cerenzia	16010 E LONGFELLOW AVE			SPOKANE VALLEY	WA	99216-1587	US		Sorry this is late.  I hope you had an excellent birthday.  I hope this is a great year for you.  Much love. From Mark Denney	false		
113-8268225-8149836	38533353267266	2020-11-06T04:12:21+00:00	2020-11-05T20:12:21-08:00	2020-11-06T04:41:46+00:00	2020-11-10T07:59:59+00:00	-4	vkdklrbblspyl0l@marketplace.amazon.com	william	+1 619-854-2705 ext. 88489	ABR001	Delivery by Saturday | Arabella Bouquets 12 Stems of Fresh Cut Red Roses in a Free Designer Glass Vase	1	0	1	Expedited	CYNTHIA J. GAUTHREAUX	1333 W SIDNEY ST APT			GONZALES	LA	70737-4036	US		Hello Cynthia   When I tell you I love you, I don’t say it out of habit. I say it to remind you that you’re the best thing that ever happened to me From Carlos	false		
111-8629398-0997002	36335214223018	2020-11-06T04:15:27+00:00	2020-11-05T20:15:27-08:00	2020-11-06T04:44:36+00:00	2020-11-10T07:59:59+00:00	-4	46w098m82q2pl38@marketplace.amazon.com	marsia	+1 415-851-9136 ext. 47286	ABR0022	Delivery by Saturday | Arabella Farm Direct Bouquet of 12 Fresh Cut Pink Roses with a Free Glass Vase	1	0	1	Expedited	Linda Fergusson	10619 NE KINGSTON MEADOWS CIR			KINGSTON	WA	98346-9346	US			false		
111-1669470-4992215	38955372909506	2020-11-06T05:01:26+00:00	2020-11-05T21:01:26-08:00	2020-11-06T05:29:49+00:00	2020-11-10T07:59:59+00:00	-4	z6splf4zytmpxzb@marketplace.amazon.com	Victor Caron	+1 929-436-4790 ext. 86131	ABM022	Delivery by Saturday | Purple Extravagance Bouquet by Arabella Bouquets	1	0	1	Expedited	Lisa & Joe Decotis	1683 OLD LOUISQUISSET PIKE			LINCOLN	RI	02865-4505	US		Sorry for your family loss. Grandpa will be missed. Such a sweet and kind man! Love Cathy & Vic From Victor Caron	false		
114-2881403-5870663	13993352816034	2020-11-06T05:45:34+00:00	2020-11-05T21:45:34-08:00	2020-11-06T06:04:25+00:00	2020-11-10T07:59:59+00:00	-4	98my3kfz0cy9nbc@marketplace.amazon.com	Deborah Cendejas	+1 929-436-4790 ext. 03316	ABM022	Delivery by Saturday | Purple Extravagance Bouquet by Arabella Bouquets	1	0	1	Expedited	Deborah Cendejas/ Niki Sigala	8538 TODD CT			RIVERSIDE	CA	92508-2938	US		So sorry for your the loss of your mom.  Hope these flowers can bring you some smiles in this hard time. From Deborah Cendejas	false		
113-8278837-9701024	03455161991138	2020-11-06T05:58:28+00:00	2020-11-05T21:58:28-08:00	2020-11-06T06:06:12+00:00	2020-11-10T07:59:59+00:00	-4	qv9gvttfz0939zr@marketplace.amazon.com	Alexis Torre Santiago	+1 213-442-1463 ext. 15596	ABM022	Delivery by Saturday | Purple Extravagance Bouquet by Arabella Bouquets	1	0	1	Standard	Chelsea Taylor	6634 PHANTOM WAY			COLORADO SPRINGS	CO	80925-8430	US		To The Love Of My Life... The One I Choose Each Day And Night  The Woman I Will Cherish For The Rest Of My Life   I Love You and I Miss You From Alexis Torre Santiago	false		
111-7006777-0873813	24438301229026	2020-11-06T05:43:59+00:00	2020-11-05T21:43:59-08:00	2020-11-06T06:06:51+00:00	2020-11-10T07:59:59+00:00	-4	s573gr7f64b22b2@marketplace.amazon.com	Laura Furcinitti	+1 619-854-2705 ext. 42790	ABM022	Delivery by Saturday | Purple Extravagance Bouquet by Arabella Bouquets	1	0	1	Expedited	Cheryl Bouressa	5109 APPLETON CT			CARMICHAEL	CA	95608-3003	US		Cheryl, Thinking of you and your family: in deep prayer for you. May God bless you and keep you xo Laura From Laura Furcinitti	false		
114-0449474-9143441	13081841619506	2020-11-06T06:07:32+00:00	2020-11-05T22:07:32-08:00	2020-11-06T06:31:48+00:00	2020-11-10T07:59:59+00:00	-4	nt8vs754606nzlr@marketplace.amazon.com	Mike Fitzsimmons	+1 213-442-1463 ext. 19193	ABR0033	Delivery by Saturday | Arabella Farm Direct Bouquet of 12 Fresh Cut Orange Roses with a Free Glass Vase	1	0	1	Expedited	Kathleen Ramage	451 ALBERTO WAY UNIT D-250			LOS GATOS	CA	95032-5448	US		Get well soon Kathleen. Hang in there. We love you! From Tracy, Mike and Owen	false		
114-2256603-3482600	03883679164418	2020-11-06T06:11:30+00:00	2020-11-05T22:11:30-08:00	2020-11-06T06:41:20+00:00	2020-11-10T07:59:59+00:00	-4	v8659573h71gb62@marketplace.amazon.com	Yasuyo Nakao	+1 415-851-9136 ext. 18296	ABM022	Delivery by Saturday | Purple Extravagance Bouquet by Arabella Bouquets	1	0	1	Expedited	Saori Clemmons	6222 SE 2ND ST			RENTON	WA	98059-8586	US		Enjoy your gift! From Yasuyo Nakao	false		
112-9463400-6360247	53198015045706	2020-11-06T06:21:32+00:00	2020-11-05T22:21:32-08:00	2020-11-06T06:45:47+00:00	2020-11-10T07:59:59+00:00	-4	8yfwzg8d6kv4kbn@marketplace.amazon.com	Katie Hancock	+1 213-442-1463 ext. 96054	ABR0033	Delivery by Saturday | Arabella Farm Direct Bouquet of 12 Fresh Cut Orange Roses with a Free Glass Vase	1	0	1	Expedited	Cari Hill	2151 BEVERLY BEACH DR NW			OLYMPIA	WA	98502-3429	US		Dear Cari, we're thinking of you and wishing you and your family consolation. Your Dad sounds very special. With heartfelt wishes and prayers. From Dawn Talkers	false		
114-5585784-6786620	33010060079538	2020-11-06T06:45:29+00:00	2020-11-05T22:45:29-08:00	2020-11-06T07:15:52+00:00	2020-11-10T07:59:59+00:00	-4	v8659573h71gb62@marketplace.amazon.com	Yasuyo Nakao	+1 929-436-4790 ext. 63838	ABM022	Delivery by Saturday | Purple Extravagance Bouquet by Arabella Bouquets	1	0	1	Expedited	Saori Clemmons	6222 SE 2ND ST			RENTON	WA	98059-8586	US			false		
114-2830440-4026606	37026589908178	2020-11-06T06:52:06+00:00	2020-11-05T22:52:06-08:00	2020-11-06T07:20:38+00:00	2020-11-10T07:59:59+00:00	-4	766jsgz37dsp899@marketplace.amazon.com	Ben Cooper	+1 602-671-6610 ext. 71808	ABM022	Delivery by Saturday | Purple Extravagance Bouquet by Arabella Bouquets	1	0	1	Expedited	Bethany Swanson	2606 THOMASVILLE RD			TALLAHASSEE	FL	32308-0824	US		Congratulations Lee and Bethany on your engagement!!   Love Ben & Jen From Ben and Jen Cooper	false		
113-8074573-2130652	36469420152810	2020-11-06T07:04:16+00:00	2020-11-05T23:04:16-08:00	2020-11-06T07:25:50+00:00	2020-11-10T07:59:59+00:00	-4	lzhyngdqgchqb7d@marketplace.amazon.com	Janet Kunin	+1 619-854-2705 ext. 88823	ABM022	Delivery by Saturday | Purple Extravagance Bouquet by Arabella Bouquets	1	0	1	Expedited	Frances Applebaum	11 DARBY PT			MASHPEE	MA	02649-2297	US		To the most wonderful Mom in the world. Happy Birthday! All our love, Janet and Josh From Janet Kunin	false		
113-1539291-1004250	02575489312866	2020-11-06T07:09:29+00:00	2020-11-05T23:09:29-08:00	2020-11-06T07:38:45+00:00	2020-11-10T07:59:59+00:00	-4	fs12trwvqy2khf7@marketplace.amazon.com	Mary Poole	+1 480-618-5344 ext. 35186	ABR0033	Delivery by Saturday | Arabella Farm Direct Bouquet of 12 Fresh Cut Orange Roses with a Free Glass Vase	1	0	1	Expedited	Mary Poole	8 HARBOR POINT PL			SAFETY HARBOR	FL	34695-2817	US			false		
112-6915766-7713835	51044634480466	2020-11-06T12:21:39+00:00	2020-11-06T04:21:39-08:00	2020-11-06T12:50:29+00:00	2020-11-11T07:59:59+00:00	-5	54g84pn7v6954r9@marketplace.amazon.com	Mr C J Barker	+1 213-442-1463 ext. 24208	ABR0022	Delivery by Saturday | Arabella Farm Direct Bouquet of 12 Fresh Cut Pink Roses with a Free Glass Vase	1	0	1	Expedited	Christopher Barker	21562 AUDREY ST			DEARBORN	MI	48124-2909	US		Hi Zo We are thinking of you right now Love Daddy Xxxx	false		
111-7496738-7324268	48429276617922	2020-11-06T12:53:50+00:00	2020-11-06T04:53:50-08:00	2020-11-06T13:24:20+00:00	2020-11-11T07:59:59+00:00	-5	khzpn9dv7g2tltd@marketplace.amazon.com	Patti Young	+1 929-436-4790 ext. 53168	ABR0022	Delivery by Saturday | Arabella Farm Direct Bouquet of 12 Fresh Cut Pink Roses with a Free Glass Vase	1	0	1	Expedited	Peggy Young	10280 SHERIDAN BLVD			WESTMINSTER	CO	80020-3341	US			false		
112-0442810-7337863	67669182823066	2020-11-06T13:37:44+00:00	2020-11-06T05:37:44-08:00	2020-11-06T14:07:02+00:00	2020-11-11T07:59:59+00:00	-5	jl4mytb6m6y1wn5@marketplace.amazon.com	Miya Longwe	+1 480-618-5344 ext. 02288	ABR001	Delivery by Saturday | Arabella Bouquets 12 Stems of Fresh Cut Red Roses in a Free Designer Glass Vase	1	0	1	Expedited	Janet Kazembe	3403 M PL SE APT A			AUBURN	WA	98002-8720	US			false		
113-9865208-7896208	02941668151442	2020-11-06T13:54:34+00:00	2020-11-06T05:54:34-08:00	2020-11-06T14:20:11+00:00	2020-11-11T07:59:59+00:00	-5	8gxyyt80m0zzvfw@marketplace.amazon.com	Frank Pizzuto	+1 213-442-1463 ext. 69846	ABR0055	Delivery by Saturday | Arabella Farm Direct Bouquet of 12 Stems of Fresh Cut Hot Pink Roses in a Free Designer Glass Vase	1	0	1	Expedited	Carolyn Pizzuto	3811 GRAND FORKS DR			LAND O LAKES	FL	34639-9532	US			false		
113-5175717-3964211	12579152651282	2020-11-06T13:54:41+00:00	2020-11-06T05:54:41-08:00	2020-11-06T14:23:21+00:00	2020-11-11T07:59:59+00:00	-5	8ltzmt2g1r9mnm0@marketplace.amazon.com	Douglas E. Guffy	+1 929-436-4790 ext. 53603	ABM010	The Spring Fling Bouquet by Arabella Bouquets with a Free Designer Glass Vase	1	0	1	Expedited	The Soyka family	14009 PECOS CT			CARMEL	IN	46033-8398	US		Soyka women! Thank you for the beautiful shower you all gave to Sarah. Every detail was thoughtful and fun! (Aunt)Jane From Jane Guffy	false		
114-9676799-8537005	56661374455866	2020-11-06T13:56:13+00:00	2020-11-06T05:56:13-08:00	2020-11-06T14:24:24+00:00	2020-11-11T07:59:59+00:00	-5	m5kclvs66wvh33w@marketplace.amazon.com	Charlotte Sukhmani Benzinger	+1 929-436-4790 ext. 96379	ABR0022	Delivery by Saturday | Arabella Farm Direct Bouquet of 12 Fresh Cut Pink Roses with a Free Glass Vase	1	0	1	Expedited	Irene Ventura	WATER ON THE BAY 2900 BRAGG ST			BROOKLYN	NY	11235-1144	US			false		
114-5120197-2427408	38345869829194	2020-11-06T14:11:50+00:00	2020-11-06T06:11:50-08:00	2020-11-06T14:39:37+00:00	2020-11-11T07:59:59+00:00	-5	0gxlfn0ppx1ktx0@marketplace.amazon.com	Jasmine Gibson	+1 480-618-5344 ext. 82233	ABM022	Delivery by Saturday | Purple Extravagance Bouquet by Arabella Bouquets	1	0	1	Expedited	Gladine Gibson	2722 W Allegheney Ave			Philadelphia	Pennsylvania	19132	US		Happy Birthday, Mom Mom  Love,  Jasmine, John & Taylor From Jasmine Gibson	false		
113-0973918-1239429	64916320647698	2020-11-06T14:33:16+00:00	2020-11-06T06:33:16-08:00	2020-11-06T15:00:40+00:00	2020-11-11T07:59:59+00:00	-5	ggw4w0d5sklw8zj@marketplace.amazon.com	Ashley A. Darbo	+1 480-618-5344 ext. 97302	ABR0055	Delivery by Saturday | Arabella Farm Direct Bouquet of 12 Stems of Fresh Cut Hot Pink Roses in a Free Designer Glass Vase	1	0	1	Expedited	Shirley Darbo	12111 W BELOIT RD APT 4			GREENFIELD	WI	53228-1910	US		Something to brighten your place. Love you Mom and Dad. From Ashley A. Darbo	false		
111-7696263-2825838	28472068161706	2020-11-06T14:37:31+00:00	2020-11-06T06:37:31-08:00	2020-11-06T15:06:09+00:00	2020-11-11T07:59:59+00:00	-5	169lskd92046x3h@marketplace.amazon.com	Yvonne Carwell-Huggins	+1 480-618-5344 ext. 85903	ABM022	Delivery by Saturday | Purple Extravagance Bouquet by Arabella Bouquets	1	0	1	Expedited	Marilyn Davis	30 SCHOOLHOUSE DR UNIT 107			WEST HARTFORD	CT	06110-1433	US		Happy Birthday Nesi, we love you From BJ and Yvonne	false		
112-1259362-3758620	50372632833282	2020-11-06T15:04:38+00:00	2020-11-06T07:04:38-08:00	2020-11-06T15:33:02+00:00	2020-11-11T07:59:59+00:00	-5	4nqvpfg3f4vz9h8@marketplace.amazon.com	Rory G Canavan	00447961215770	ABM022	Delivery by Saturday | Purple Extravagance Bouquet by Arabella Bouquets	1	0	1	Expedited	Marci Kallick	1710 OAKWOOD TER APT 3D			PENN VALLEY	PA	19072-1044	US		M'lady,  A small token of my affection for you at this time.  As mentioned, you know where I am.  Sir Rors xxx From Rory G Canavan	false		
112-1818783-2338642	14936467808594	2020-11-06T15:07:28+00:00	2020-11-06T07:07:28-08:00	2020-11-06T15:35:02+00:00	2020-11-11T07:59:59+00:00	-5	8kd576j1tss8g69@marketplace.amazon.com	maribeth shell	+1 480-618-5344 ext. 22448	ABR0055	Delivery by Saturday | Arabella Farm Direct Bouquet of 12 Stems of Fresh Cut Hot Pink Roses in a Free Designer Glass Vase	1	0	1	Expedited	Rita Riccardi	636 RAHWAY AVE			WESTFIELD	NJ	07090-3353	US		Wanted to brighten your day.   Hope you feel better 😘! From maribeth shell	false		
114-6834651-7071437	36452669816738	2020-11-06T15:10:35+00:00	2020-11-06T07:10:35-08:00	2020-11-06T15:38:44+00:00	2020-11-11T07:59:59+00:00	-5	l5cll4tydb7pj93@marketplace.amazon.com	Mary Ann Fasanella	+1 480-618-5344 ext. 56055	ABM010	The Spring Fling Bouquet by Arabella Bouquets with a Free Designer Glass Vase	1	0	1	Expedited	Judy Moskal	1782 ROUTE 70			SOUTHAMPTON	NJ	08088-2829	US		Hi Sissy,  I hope these flowers make you smile! Wishing George a speedy recovery!  Please let me know if you need anything!! Love you! Mary Ann & Joe From Mary Ann Fasanella	false		
112-4182649-9184268	66985856525858	2020-11-06T15:14:43+00:00	2020-11-06T07:14:43-08:00	2020-11-06T15:42:01+00:00	2020-11-11T07:59:59+00:00	-5	7zhr1bpn20dnb09@marketplace.amazon.com	Robert W. Filler	+1 213-442-1463 ext. 25901	ABM010	The Spring Fling Bouquet by Arabella Bouquets with a Free Designer Glass Vase	1	0	1	Expedited	Nancy Casso	221 HARBORSIDE DR APT 236			SCHENECTADY	NY	12305-1074	US		Just sending some Fall cheer..love and miss you! Bob and Wendy From Robert W. Filler	false		
112-8633140-4757821	01094017075450	2020-11-06T15:17:05+00:00	2020-11-06T07:17:05-08:00	2020-11-06T15:46:14+00:00	2020-11-11T07:59:59+00:00	-5	7zhr1bpn20dnb09@marketplace.amazon.com	Robert W. Filler	+1 213-442-1463 ext. 37117	ABM010	The Spring Fling Bouquet by Arabella Bouquets with a Free Designer Glass Vase	1	0	1	Expedited	Bryan and Cathy Smith	20 BARTLETT PL			SCOTIA	NY	12302-2802	US		Just wanted to send some Fall Cheer...love and miss you guys!!! Bob and Wendy From Robert W. Filler	false		
112-9812901-1789022	19044601345426	2020-11-06T15:25:42+00:00	2020-11-06T07:25:42-08:00	2020-11-06T15:54:55+00:00	2020-11-11T07:59:59+00:00	-5	pyvgsgs5pvr7lm1@marketplace.amazon.com	John Champagne	+1 480-618-5344 ext. 75462	ABR0022	Delivery by Saturday | Arabella Farm Direct Bouquet of 12 Fresh Cut Pink Roses with a Free Glass Vase	1	0	1	Expedited	Lorraine Luisi	21 GRAY RD			ANDOVER	MA	01810-2234	US		Happy birthday grandma  Love Ethan From Ethan	false		
114-7542277-6668254	67339436547098	2020-11-06T16:22:49+00:00	2020-11-06T08:22:49-08:00	2020-11-06T16:40:58+00:00	2020-11-11T07:59:59+00:00	-5	ssbhv4yj7yyzm1t@marketplace.amazon.com	Hollee Tummond	+1 213-442-1463 ext. 43059	ABM022	Delivery by Saturday | Purple Extravagance Bouquet by Arabella Bouquets	1	0	1	Expedited	Cecelia Warden	SAINT FRANCIS HOSPITAL	333 LAIDLEY ST		CHARLESTON	WV	25301-1628	US		Dear Mrs. Warden, We are so sorry to hear of your loss. Your granddaughter, Alyssa, is our dear friend and we just wanted your family to know that you are in our prayers and thoughts. Sending love your way! From Kalyn & Taylor	false		
114-0633959-9293016	69517863998666	2020-11-06T16:22:38+00:00	2020-11-06T08:22:38-08:00	2020-11-06T16:51:41+00:00	2020-11-11T07:59:59+00:00	-5	dg1hq6b269rx0q9@marketplace.amazon.com	Cynthia W. Dillard	+1 602-671-6610 ext. 96241	ABR0022	Delivery by Saturday | Arabella Farm Direct Bouquet of 12 Fresh Cut Pink Roses with a Free Glass Vase	1	0	1	Expedited	Denise Hardin Banks	978 HARROGATE CT			CINCINNATI	OH	45240-1812	US			false		
113-6622134-9039462	54885053736674	2020-11-06T16:31:55+00:00	2020-11-06T08:31:55-08:00	2020-11-06T16:58:26+00:00	2020-11-11T07:59:59+00:00	-5	c3cmh4frpgp25zs@marketplace.amazon.com	Linda Cerino	+1 619-854-2705 ext. 42476	ABM022	Delivery by Saturday | Purple Extravagance Bouquet by Arabella Bouquets	1	0	1	Expedited	Marilyn Arnhols	314 N 10TH ST			SURF CITY	NJ	08008-5352	US		Happy Birthday Week! We hope you have a wonderful birthday. Looking forward to having some wine to celebrate with you at Thanksgiving. Love you! From Jamie & Joe	false		
112-4678539-9466611	42856057985914	2020-11-06T16:35:22+00:00	2020-11-06T08:35:22-08:00	2020-11-06T17:03:34+00:00	2020-11-11T07:59:59+00:00	-5	n5frf87qzzptwx1@marketplace.amazon.com	Lisa Ellison	+1 929-436-4790 ext. 89566	ABM010	The Spring Fling Bouquet by Arabella Bouquets with a Free Designer Glass Vase	1	0	1	Expedited	Teiko Kojima Ellison	2118 172ND ST E			SPANAWAY	WA	98387-7628	US			false		
112-1555918-5269846	02160552449506	2020-11-06T17:32:53+00:00	2020-11-06T09:32:53-08:00	2020-11-06T17:40:18+00:00	2020-11-11T07:59:59+00:00	-5	pbgl8dj2v99ymq3@marketplace.amazon.com	MICHAEL MELKOVIC	+1 602-671-6610 ext. 34541	ABM022	Delivery by Saturday | Purple Extravagance Bouquet by Arabella Bouquets	1	0	1	Expedited	JOAN NICOL	4 INDIGO RUN DR APT 1421			HILTON HEAD ISLAND	SC	29926-4114	US		Happy Happy Happiest of birthdays to you!!!!!   Only wish I were there to help celebrate!   You're an amazing giving and beautiful woman and I love you so so much.  Happy Birthday MOM!!!!       - Michael From MICHAEL MELKOVIC	false		
111-3440998-7739439	52920314117874	2020-11-06T17:41:01+00:00	2020-11-06T09:41:01-08:00	2020-11-06T18:08:06+00:00	2020-11-11T07:59:59+00:00	-5	dx75ylb5d4bvf4w@marketplace.amazon.com	enid	+1 213-442-1463 ext. 06175	ABR0022	Delivery by Saturday | Arabella Farm Direct Bouquet of 12 Fresh Cut Pink Roses with a Free Glass Vase	1	0	1	Expedited	Sehbaz Sabri	6277 THORNAPPLE VALLEY DR			HASTINGS	MI	49058-8285	US		Enjoy your gift! and hope you both are feeling better ,love Mom and Shiel. From enid	false		
112-5668045-8309818	28007716683098	2020-11-06T17:47:14+00:00	2020-11-06T09:47:14-08:00	2020-11-06T18:16:06+00:00	2020-11-11T07:59:59+00:00	-5	jvy0t8t4gck5j47@marketplace.amazon.com	Jeffrey Pike	+1 213-442-1463 ext. 88715	ABR0022	Delivery by Saturday | Arabella Farm Direct Bouquet of 12 Fresh Cut Pink Roses with a Free Glass Vase	1	0	1	Expedited	Sarah Pike	293 PINECREST BEACH DR			EAST FALMOUTH	MA	02536-4733	US		Happy Anniversary Congratulations my little sister  love jeffrey From Jeffrey Pike	false		
113-8640240-3706610	31024184472234	2020-11-06T18:05:45+00:00	2020-11-06T10:05:45-08:00	2020-11-06T18:34:13+00:00	2020-11-11T07:59:59+00:00	-5	k1sbq828zdp0rb5@marketplace.amazon.com	Carolyn Quinn	+1 213-442-1463 ext. 47501	ABR012	Delivery by Tuesday | Arabella Farm Direct Bouquet of 18 Fresh Cut Pink Roses with a Free Glass Vase	1	0	1	Expedited	Joan Christenson	5105 173RD PL NW			STANWOOD	WA	98292-6001	US			false		
114-8807366-6344221	45604998655474	2020-11-06T18:26:27+00:00	2020-11-06T10:26:27-08:00	2020-11-06T18:54:41+00:00	2020-11-11T07:59:59+00:00	-5	f5fj5c2qrwyybwq@marketplace.amazon.com	jerry l. epstein	+1 619-854-2705 ext. 56630	ABR012	Delivery by Tuesday | Arabella Farm Direct Bouquet of 18 Fresh Cut Pink Roses with a Free Glass Vase	1	0	1	Expedited	nancy dudak	8957 W HIGHLAND PARK AVE			FRANKLIN	WI	53132-8142	US		Enjoy your gift! We wish you many years of peace and joy in your new home. From jerry l. epstein, rosalie. joanne	false		
113-5637468-4388219	41271382777106	2020-11-06T18:32:34+00:00	2020-11-06T10:32:34-08:00	2020-11-06T18:58:58+00:00	2020-11-11T07:59:59+00:00	-5	8wc9kd1ptfnfwy2@marketplace.amazon.com	Urania Mylonas	+1 415-851-9136 ext. 15160	ABM022	Delivery by Tuesday | Purple Extravagance Bouquet by Arabella Bouquets	1	0	1	Expedited	Jacqueline Lerescu	1159 WHITEHEART CT MARCO ISLAND	FL 34145		MARCO ISLAND	FL	34145-5019	US		Dear Jacqueline and Christopher,  Congratulations on your wedding! So happy for you both!  Love, Urania From Urania Mylonas	false		
114-8327119-5600220	37911164087754	2020-11-06T18:49:59+00:00	2020-11-06T10:49:59-08:00	2020-11-06T19:12:30+00:00	2020-11-11T07:59:59+00:00	-5	1qy5nv7y2g1fy8x@marketplace.amazon.com	stephanie newman	+1 619-854-2705 ext. 47304	ABR0055	Delivery by Tuesday | Arabella Farm Direct Bouquet of 12 Stems of Fresh Cut Hot Pink Roses in a Free Designer Glass Vase	1	0	1	Expedited	Gwen Martin	3220 HOLLYGROVE ST			NEW ORLEANS	LA	70118-2442	US		Happy birthday Gwen. Love you , howard and stephanie , JoJo , Lilly , lani, gerald . From stephanie newman and howard	false		
111-4171199-2424230	19996721577754	2020-11-06T18:47:25+00:00	2020-11-06T10:47:25-08:00	2020-11-06T19:14:04+00:00	2020-11-11T07:59:59+00:00	-5	sj2g05mg0xqgrvq@marketplace.amazon.com	Carmelo Imbrogno	+1 213-442-1463 ext. 51016	ABM022	Delivery by Tuesday | Purple Extravagance Bouquet by Arabella Bouquets	1	0	1	Expedited	Barbara Oehlberg	33375 SOLON RD			SOLON	OH	44139	US		My sincere and deepest condolences to the entire Oehlberg family on the loss of your dear Husband and father From Carmen  Imbrogno	false		
113-1254970-1466601	40232863605242	2020-11-06T18:53:01+00:00	2020-11-06T10:53:01-08:00	2020-11-06T19:21:40+00:00	2020-11-11T07:59:59+00:00	-5	m5g4wvltdbgz0s4@marketplace.amazon.com	Elizabeth Andrews	+1 619-854-2705 ext. 07637	ABM022	Delivery by Tuesday | Purple Extravagance Bouquet by Arabella Bouquets	1	0	1	Expedited	Erica Andrews	17413 42ND AVE SE			BOTHELL	WA	98012-7630	US		Hope your recovery goes smoothly - we'll see you soon! Sending love and best wishes, Gramma and Papa From Elizabeth Andrews	false		
113-6783207-7779404	19537334627546	2020-11-06T19:04:17+00:00	2020-11-06T11:04:17-08:00	2020-11-06T19:32:40+00:00	2020-11-11T07:59:59+00:00	-5	2q8bszbz1gpd90k@marketplace.amazon.com	april g. pugh	+1 213-442-1463 ext. 34344	ABR0055	Delivery by Tuesday | Arabella Farm Direct Bouquet of 12 Stems of Fresh Cut Hot Pink Roses in a Free Designer Glass Vase	1	0	1	Expedited	Vean Thornton	421 NEW PITTSBURG AVE			BALTIMORE	MD	21222-6205	US		Get well soon Aunt Vean!  We LOVE you! From april g. pugh	false		
112-8022106-4515455	19597941465130	2020-11-06T19:04:54+00:00	2020-11-06T11:04:54-08:00	2020-11-06T19:34:36+00:00	2020-11-11T07:59:59+00:00	-5	d7b6jdz6w61mv5s@marketplace.amazon.com	Bita Mavaddat	+1 619-854-2705 ext. 11745	ABR0022	Delivery by Tuesday | Arabella Farm Direct Bouquet of 12 Fresh Cut Pink Roses with a Free Glass Vase	1	0	1	Expedited	Elizabeth Garofalo	11 GRANDVIEW DR			RIDGEFIELD	CT	06877-3013	US			false		
114-7657954-5233817	38126373788930	2020-11-06T19:30:54+00:00	2020-11-06T11:30:54-08:00	2020-11-06T19:56:28+00:00	2020-11-11T07:59:59+00:00	-5	9k8fvp4yn1jz18m@marketplace.amazon.com	Mary Call	+1 480-618-5344 ext. 56975	ABSR002	Delivery by Tuesday | Arabella Farm Direct Bouquet of Fresh Cut Pink Multicolor Spray Roses with a Free Glass Vase	1	0	1	Expedited	Tom & Claudia Hagen	803 E GATES ST			RICE LAKE	WI	54868-2554	US		Hope this brightens your day!  💕💕 From Call Family	false		
112-3842929-9050618	24771034021402	2020-11-06T19:31:59+00:00	2020-11-06T11:31:59-08:00	2020-11-06T19:59:35+00:00	2020-11-11T07:59:59+00:00	-5	wcx2lvn343gjby2@marketplace.amazon.com	Julie	+1 929-436-4790 ext. 05439	ABR0022	Delivery by Tuesday | Arabella Farm Direct Bouquet of 12 Fresh Cut Pink Roses with a Free Glass Vase	1	0	1	Expedited	Julie Knospe	16 Chicory Lane			Lancaster	NY	14086	US		Hi,  Emma,   Feel better soon! Love, Mina & Dzia	false		
111-6121351-2731412	52748866567562	2020-11-06T19:30:38+00:00	2020-11-06T11:30:38-08:00	2020-11-06T20:00:30+00:00	2020-11-11T07:59:59+00:00	-5	0p5c50wmz3j8jd8@marketplace.amazon.com	Jerry Edwards	+1 929-436-4790 ext. 52645	ABR0055	Delivery by Tuesday | Arabella Farm Direct Bouquet of 12 Stems of Fresh Cut Hot Pink Roses in a Free Designer Glass Vase	1	0	1	Expedited	Jerry Edwards	404 Punto Baho Drive			Greenwood	IN	46143	US			false		
111-2098112-7018602	14135521037562	2020-11-06T19:38:35+00:00	2020-11-06T11:38:35-08:00	2020-11-06T20:04:21+00:00	2020-11-11T07:59:59+00:00	-5	xxcbbsw2t8ml5tn@marketplace.amazon.com	Michael McMurdie	+1 415-851-9136 ext. 47657	ABR0033	Delivery by Tuesday | Arabella Farm Direct Bouquet of 12 Fresh Cut Orange Roses with a Free Glass Vase	1	0	1	Expedited	Dinah Watson	6360 COOLWELL DR			COLORADO SPRINGS	CO	80908-3324	US		HAPPY BIRTHDAY MOM!! From Love you, Michael, Linda and Alan	false		
114-8418194-3584220	05751774023794	2020-11-06T19:39:28+00:00	2020-11-06T11:39:28-08:00	2020-11-06T20:05:53+00:00	2020-11-11T07:59:59+00:00	-5	3m7vjpn12xs0fn2@marketplace.amazon.com	Michael Cook	+1 619-854-2705 ext. 60776	ABM010	Delivery by Tuesday | The Spring Fling Bouquet by Arabella Bouquets with a Free Designer Glass Vase	1	0	1	Expedited	Mrs. Calderia	60 SCHOOL ST APT 12D			SLATERSVILLE	RI	02876-1010	US		We hope you have a very happy birthday! We love you! From Maureen, Lynn and Mary (Regan)	false		
114-3865344-4289817	44905498740562	2020-11-06T19:40:51+00:00	2020-11-06T11:40:51-08:00	2020-11-06T20:06:42+00:00	2020-11-11T07:59:59+00:00	-5	8vl0mg7j615vn4k@marketplace.amazon.com	Carole  Neyman	+1 415-851-9136 ext. 79545	ABR0022	Delivery by Tuesday | Arabella Farm Direct Bouquet of 12 Fresh Cut Pink Roses with a Free Glass Vase	1	0	1	Expedited	Kathy & Frank Krawiecki	2429 DAY DR			THE VILLAGES	FL	32163-2179	US		Happy Anniversary Kathy and Frank Wishing you many more years of love and happiness together.  We love you both very much. From Carole  and John	false		
111-0838583-7973844	49245165334738	2020-11-06T19:47:14+00:00	2020-11-06T11:47:14-08:00	2020-11-06T20:17:55+00:00	2020-11-11T07:59:59+00:00	-5	7j9t00msjrq0m8y@marketplace.amazon.com	Don Hall	+1 480-618-5344 ext. 37838	ABR0022	Delivery by Tuesday | Arabella Farm Direct Bouquet of 12 Fresh Cut Pink Roses with a Free Glass Vase	1	0	1	Expedited	Virginia Palka	3 Llano Sendero			Placitas	NM	87043-8636	US			false		
112-2977626-6221857	09958679215714	2020-11-06T19:49:50+00:00	2020-11-06T11:49:50-08:00	2020-11-06T20:18:46+00:00	2020-11-11T07:59:59+00:00	-5	974f3r1jny8qf08@marketplace.amazon.com	Ranya	+1 213-442-1463 ext. 97740	ABR0022	Delivery by Tuesday | Arabella Farm Direct Bouquet of 12 Fresh Cut Pink Roses with a Free Glass Vase	1	0	1	Expedited	NANCY WALKER	2707 GREEN ST			MIDDLEBORO	MA	02346-7341	US		Enjoy your gift! Hoping for a speedy recovery! From Ranya	false		
113-9084823-1812269	16868671563890	2020-11-06T19:56:20+00:00	2020-11-06T11:56:20-08:00	2020-11-06T20:19:33+00:00	2020-11-11T07:59:59+00:00	-5	8q24mtpw8hlmd20@marketplace.amazon.com	christine grimstead	+1 619-854-2705 ext. 81383	ABM022	Delivery by Tuesday | Purple Extravagance Bouquet by Arabella Bouquets	1	0	1	Expedited	Rhonda Eddy	27118 48TH PL S APT P201			KENT	WA	98032-6280	US		Dear Rhonda,  We love you and hope that these flowers put a bright spot in your day! From Christine and Dan	false		
111-5773882-3074620	62757430576122	2020-11-06T19:52:21+00:00	2020-11-06T11:52:21-08:00	2020-11-06T20:21:25+00:00	2020-11-11T07:59:59+00:00	-5	tts1d6vpqdkhfsp@marketplace.amazon.com	thomas j flynn	+1 619-854-2705 ext. 08850	ABM010	Delivery by Tuesday | The Spring Fling Bouquet by Arabella Bouquets with a Free Designer Glass Vase	1	0	1	Expedited	thomas j flynn	8443 GOSLINE RD			MARLETTE	MI	48453-9124	US			false		
112-3831327-5807415	42814531020618	2020-11-06T19:56:01+00:00	2020-11-06T11:56:01-08:00	2020-11-06T20:23:50+00:00	2020-11-11T07:59:59+00:00	-5	hqrzb5xd2ctb97t@marketplace.amazon.com	brendah133	+1 480-618-5344 ext. 32879	ABR001	Delivery by Tuesday | Arabella Bouquets 12 Stems of Fresh Cut Red Roses in a Free Designer Glass Vase	1	0	1	Expedited	Paula Vasquez	716 N 24 st			Corsicana	Tx	75110	US		Paula and Joe we love you!! From Moses and Brenda	false		
112-4451171-5457858	45472015432754	2020-11-06T19:58:12+00:00	2020-11-06T11:58:12-08:00	2020-11-06T20:23:57+00:00	2020-11-11T07:59:59+00:00	-5	379b0ypl195k6hn@marketplace.amazon.com	Rebecca Robertson	+1 619-854-2705 ext. 80217	ABR013	Delivery by Tuesday | Arabella Farm Direct Bouquet of 18 Fresh Cut Yellow Roses with a Free Glass Vase	1	0	1	Expedited	Tamra Perez	6784 COUNTRYVIEW DR			KALAMAZOO	MI	49009-8841	US			false		
111-4730541-4612209	28387252835362	2020-11-06T20:00:33+00:00	2020-11-06T12:00:33-08:00	2020-11-06T20:26:05+00:00	2020-11-11T07:59:59+00:00	-5	xy27n662209ry4h@marketplace.amazon.com	Mel Martin	+1 213-442-1463 ext. 89173	ABR0022	Delivery by Tuesday | Arabella Farm Direct Bouquet of 12 Fresh Cut Pink Roses with a Free Glass Vase	1	0	1	Expedited	Deana Clark	5436 E 39TH ST			TULSA	OK	74135-5546	US		Deana,  Wanting to add some beautiful color to your day. You are in our thoughts and prayers. From Brenda and Mel Martin	false		
112-0305661-8700214	50151768952202	2020-11-06T20:03:00+00:00	2020-11-06T12:03:00-08:00	2020-11-06T20:31:59+00:00	2020-11-11T07:59:59+00:00	-5	l4tn8hksxq08279@marketplace.amazon.com	maureen connelly	+1 480-618-5344 ext. 99842	ABR004	Delivery by Tuesday | Arabella Farm Direct Bouquet of 12 Fresh Cut Yellow Roses with a Free Glass Vase	1	0	1	Expedited	Youmans/ LoGiudice	1212 TROUT CREEK CIR			LONGMONT	CO	80504-2298	US			false		
114-8790235-3723460	53187563759730	2020-11-06T20:17:39+00:00	2020-11-06T12:17:39-08:00	2020-11-06T20:46:24+00:00	2020-11-11T07:59:59+00:00	-5	l2vkw75yzwx4d3s@marketplace.amazon.com	Jennifer Roberts	+1 480-618-5344 ext. 56045	ABM022	Delivery by Tuesday | Purple Extravagance Bouquet by Arabella Bouquets	1	0	1	Expedited	Carolina Barry	15108 BULLBRIER RD			AUSTIN	TX	78724-7273	US		Carolina,  Hope you have a wonderful birthday!!!  We love and miss you!  Jen & Ian From Jennifer Roberts	false		
112-8610685-0549853	46874553952186	2020-11-06T20:24:33+00:00	2020-11-06T12:24:33-08:00	2020-11-06T20:54:25+00:00	2020-11-11T07:59:59+00:00	-5	x785jqm1ydb1cc5@marketplace.amazon.com	darius maroufkhani	+1 213-442-1463 ext. 67343	ABR004	Delivery by Tuesday | Arabella Farm Direct Bouquet of 12 Fresh Cut Yellow Roses with a Free Glass Vase	1	0	1	Expedited	darius maroufkhani	2645 FALLING OAK DR			RIVERSIDE	CA	92506-5015	US			false		
111-6968617-6090632	43736945066954	2020-11-06T20:39:37+00:00	2020-11-06T12:39:37-08:00	2020-11-06T21:06:31+00:00	2020-11-11T07:59:59+00:00	-5	5klz4kqqfwzj523@marketplace.amazon.com	John Yost	+1 480-618-5344 ext. 65884	ABM022	Delivery by Tuesday | Purple Extravagance Bouquet by Arabella Bouquets	1	0	1	Expedited	MaryJo Vonasek	20206 19TH DR SE APT C			BOTHELL	WA	98012-7167	US		Dearest MaryJo, We are so saddened to hear about the loss of your mother. We wish you peace during this very difficult time. From The WAVA Sunshine Committee	false		
111-8250258-3641020	02774252886138	2020-11-06T20:46:16+00:00	2020-11-06T12:46:16-08:00	2020-11-06T21:11:43+00:00	2020-11-11T07:59:59+00:00	-5	c3xgrt6dwy0q83x@marketplace.amazon.com	Tara S Astle	+1 602-671-6610 ext. 90361	ABM0033	Delivery by Tuesday | Arabella Farm Direct Bouquet of Fresh Cut White Hydrangea with a Free Glass Vase	1	0	1	Expedited	Ms Aimee Branca	1103 ALMOND DR			PHOENIXVILLE	PA	19460-3592	US		Wishing you lots of joy and happiness during this magical time. May it be the start of a wonderful and exciting life together. All my love From Tara	false		
111-2395779-1305056	67826156293938	2020-11-06T20:54:33+00:00	2020-11-06T12:54:33-08:00	2020-11-06T21:13:21+00:00	2020-11-11T07:59:59+00:00	-5	4wt8xr2smvc6s9t@marketplace.amazon.com	Mark Dickenson	+1 619-854-2705 ext. 26101	ABR0022	Delivery by Tuesday | Arabella Farm Direct Bouquet of 12 Fresh Cut Pink Roses with a Free Glass Vase	1	0	1	Expedited	Aaron & Clarisse Mebane	4095 Lawson's Ridge Dr.	Apt 507		Madison	AL	35757	US		Congratulations!!!I Love Ya'll Granddaddy Morris From Morris Mebane	false		
112-8604392-1091403	49761235174858	2020-11-06T20:52:13+00:00	2020-11-06T12:52:13-08:00	2020-11-06T21:21:46+00:00	2020-11-11T07:59:59+00:00	-5	6tqtdl7swbw2wgw@marketplace.amazon.com	TOJONIRINA RAMAROLAHY	+1 213-442-1463 ext. 24860	ABR001	Delivery by Tuesday | Arabella Bouquets 12 Stems of Fresh Cut Red Roses in a Free Designer Glass Vase	1	0	1	Expedited	NIRINIAVISOA Marceda	AVALON BAY POTOMAC YARD	731 SEATON AVE UNIT 508		ALEXANDRIA	VA	22305-3070	US			false		
113-1177185-6267446	33882084376322	2020-11-06T21:03:19+00:00	2020-11-06T13:03:19-08:00	2020-11-06T21:31:07+00:00	2020-11-11T07:59:59+00:00	-5	nyqrq14tbq13jry@marketplace.amazon.com	kat dewees	+1 619-854-2705 ext. 59353	ABR0033	Delivery by Tuesday | Arabella Farm Direct Bouquet of 12 Fresh Cut Orange Roses with a Free Glass Vase	1	0	1	Expedited	Joyce Hawkins	1300 S BORDER AVE APT 111 # 111			WESLACO	TX	78596-7420	US		Heal quickly! We love you! Dave and Kat From kat dewees	false		
111-7205543-5599442	04046699286282	2020-11-06T21:16:04+00:00	2020-11-06T13:16:04-08:00	2020-11-06T21:42:49+00:00	2020-11-11T07:59:59+00:00	-5	50jyycbbm05jvjp@marketplace.amazon.com	jlugo89	+1 480-618-5344 ext. 83237	ABR001	Delivery by Tuesday | Arabella Bouquets 12 Stems of Fresh Cut Red Roses in a Free Designer Glass Vase	1	0	1	Expedited	Maria I. Heal	1523 ELM TER			TITUSVILLE	FL	32780-4323	US		Muchas felicidades! Te amo mucho. From Tito	false		
111-8673923-4276238	57906032747482	2020-11-06T21:20:49+00:00	2020-11-06T13:20:49-08:00	2020-11-06T21:48:45+00:00	2020-11-11T07:59:59+00:00	-5	ky3l430w04v6tqh@marketplace.amazon.com	Daniel McLaughlin	+1 929-436-4790 ext. 85295	ABM002	Delivery by Tuesday | Arabella Bouquets Fresh Cut White Calla Lilies in a Free Designer Glass Vase	1	0	1	Expedited	Alaina Kappner	100 LACEY LOU			SALADO	TX	76571-5198	US		Just because!  With Love, D From Daniel McLaughlin	false		
113-6778568-9711443	31640190050842	2020-11-06T21:25:55+00:00	2020-11-06T13:25:55-08:00	2020-11-06T21:55:18+00:00	2020-11-11T07:59:59+00:00	-5	8dyb9yczsk7tsps@marketplace.amazon.com	merlyneminer	+1 619-854-2705 ext. 55925	ABM022	Delivery by Tuesday | Purple Extravagance Bouquet by Arabella Bouquets	1	0	1	Expedited	Sandy Mason	129 E TOBIANO TRL			BELGRADE	MT	59714-9737	US		Aunt Sandy,  We have been thinking of you and want you to know that you're in our thoughts and prayers. We love you! Mike, Merlyne, Calvin and Chris From merlyneminer	false		
113-3756095-9341003	59599182871570	2020-11-06T21:35:53+00:00	2020-11-06T13:35:53-08:00	2020-11-06T22:02:08+00:00	2020-11-11T07:59:59+00:00	-5	m0msc2571pqc14b@marketplace.amazon.com	Helen Miller	+1 213-442-1463 ext. 60666	ABM022	Delivery by Tuesday | Purple Extravagance Bouquet by Arabella Bouquets	1	0	1	Expedited	Judith Sikora	8904 GLENISTAR GATE AVE			LAS VEGAS	NV	89143-1377	US		Dear Jude,  We’re all thinking of you and sending Healing Energy, Love and Light for a speedy recovery. From Your IT WC team	false		
112-1413122-5946662	68384559695802	2020-11-06T21:39:11+00:00	2020-11-06T13:39:11-08:00	2020-11-06T22:08:55+00:00	2020-11-11T07:59:59+00:00	-5	xkp8hfnf1y4x0h5@marketplace.amazon.com	Jonny Brown	+1 480-618-5344 ext. 78957	ABM022	Delivery by Tuesday | Purple Extravagance Bouquet by Arabella Bouquets	1	0	1	Expedited	Andy Pillifant	1256 TIMBERBRANCH CT			CHARLOTTESVILLE	VA	22902-7207	US		We are all thinking of you and your family in this tough time. Keeping you in our thoughts and prayers. From WorldStrides Sports Family	false		
114-1356555-3484257	28940397693386	2020-11-06T22:32:38+00:00	2020-11-06T14:32:38-08:00	2020-11-06T23:00:38+00:00	2020-11-11T07:59:59+00:00	-5	b9yf9f3jfsh1dnc@marketplace.amazon.com	Linda	+1 602-671-6610 ext. 16695	ABR0022	Delivery by Tuesday | Arabella Farm Direct Bouquet of 12 Fresh Cut Pink Roses with a Free Glass Vase	1	0	1	Expedited	Linda Gutierrez	837 E BANBURY DR			STOCKTON	CA	95207-5907	US		Get well soon, we love you Mom and gammie! Hope to see you soon. Love you From Linda, David and Cheyenne	false		
111-4900458-2908214	10299061702122	2020-11-06T22:34:40+00:00	2020-11-06T14:34:40-08:00	2020-11-06T23:03:38+00:00	2020-11-11T07:59:59+00:00	-5	61gn81p5jgxtjct@marketplace.amazon.com	Kay L. Bemis	+1 602-671-6610 ext. 36124	ABM022	Delivery by Tuesday | Purple Extravagance Bouquet by Arabella Bouquets	1	0	1	Expedited	Kay l bemis	8753 MCCARTY RANCH DR			SAN JOSE	CA	95135-2158	US		Because our amazing Dad would want you to have flowers this week.  We love you to the moon and back! From Love Gwen and Debbie	false		
114-6972898-7977049	47345131441698	2020-11-06T22:39:59+00:00	2020-11-06T14:39:59-08:00	2020-11-06T23:06:52+00:00	2020-11-11T07:59:59+00:00	-5	0d1gbhn2sdv1s68@marketplace.amazon.com	Emily Baruch	+1 602-671-6610 ext. 03541	ABM022	Delivery by Tuesday | Purple Extravagance Bouquet by Arabella Bouquets	1	0	1	Expedited	Maddie Baruch	6734 COLTRANE MILL RD			GREENSBORO	NC	27406-8818	US		Mads, We are so proud of you as you near the end of such an amazing journey.  You don't need a formal event to celebrate your accomplishments.   Your fierce friends and Family will be with you.  Love 💘 From Em, Dad and Cand	false		
113-6828602-0497817	50821050482538	2020-11-06T22:58:36+00:00	2020-11-06T14:58:36-08:00	2020-11-06T23:15:03+00:00	2020-11-11T07:59:59+00:00	-5	0h2nf8fczs4b47v@marketplace.amazon.com	Beatriz A Benitez	+1 929-436-4790 ext. 19647	ABM010	Delivery by Tuesday | The Spring Fling Bouquet by Arabella Bouquets with a Free Designer Glass Vase	1	0	1	Expedited	Carla Thomas	803 SW FOXTAIL DR			GRAIN VALLEY	MO	64029-9723	US		We extend our deepest condolences on the loss of your father. We are praying for peace and comfort for you and your family. - Your Groth Sales Team From Beatriz, Jessica, Eugene, David and Sonya	false		
114-3867944-3145829	67793199844882	2020-11-06T22:47:06+00:00	2020-11-06T14:47:06-08:00	2020-11-06T23:16:53+00:00	2020-11-11T07:59:59+00:00	-5	qhrpjzkw1slt0pj@marketplace.amazon.com	Tracey Perkins	+1 619-854-2705 ext. 22897	ABR0022	Delivery by Tuesday | Arabella Farm Direct Bouquet of 12 Fresh Cut Pink Roses with a Free Glass Vase	1	0	1	Expedited	Tiffanii Harrison	12 C 719 N EUCALYPTUS AVE			INGLEWOOD	CA	90302-2247	US			false		
112-2621803-6748254	06769109025410	2020-11-06T22:58:33+00:00	2020-11-06T14:58:33-08:00	2020-11-06T23:26:31+00:00	2020-11-11T07:59:59+00:00	-5	pk959g0c5kk457y@marketplace.amazon.com	anna	+1 213-442-1463 ext. 73691	ABM010	Delivery by Tuesday | The Spring Fling Bouquet by Arabella Bouquets with a Free Designer Glass Vase	1	0	1	Expedited	Carmen Morales and Luis Morales	1954 ARCADIA CT			SALINAS	CA	93906-5415	US		Happy Birthday. Enjoy your gift! 🧁💐🌸🥀🌼🌻🤗😄👍 Love,  Anna,Tila and Jesse From anna	false		
111-0538342-7894651	28080588664658	2020-11-06T23:03:09+00:00	2020-11-06T15:03:09-08:00	2020-11-06T23:30:55+00:00	2020-11-11T07:59:59+00:00	-5	62ttqhttvtc6zsg@marketplace.amazon.com	Josh Henson	+1 213-442-1463 ext. 09109	ABR0022	Delivery by Tuesday | Arabella Farm Direct Bouquet of 12 Fresh Cut Pink Roses with a Free Glass Vase	1	0	1	Expedited	Josh Henson	1780 CR 721			Nacogdoches	Texas	75964	US		To my beautiful wife and mother of my child. These 4 years of marriage have been the happiest years of my life. I'm so lucky to get to spend the rest of my life with you! From Josh Henson	false		
114-2890807-7410636	46976747718466	2020-11-06T23:15:27+00:00	2020-11-06T15:15:27-08:00	2020-11-06T23:37:19+00:00	2020-11-11T07:59:59+00:00	-5	h0974hp38znrlgl@marketplace.amazon.com	Aleksander	+1 213-442-1463 ext. 08953	ABM022	Delivery by Tuesday | Purple Extravagance Bouquet by Arabella Bouquets	1	0	1	Expedited	Helena Marinaro	171 E BAY CEDAR CIR			JUPITER	FL	33458-7105	US		Happy birthday dear Helen!!! With love from Sasha, Karina, dad, Misha and Ilya! From Aleksander	false		
111-4555330-1207413	05215017140986	2020-11-06T23:20:56+00:00	2020-11-06T15:20:56-08:00	2020-11-06T23:46:58+00:00	2020-11-11T07:59:59+00:00	-5	9ppf4cw4z6skhj8@marketplace.amazon.com	jtatge@verizon.net	+1 619-854-2705 ext. 64241	ABR0022	Delivery by Tuesday | Arabella Farm Direct Bouquet of 12 Fresh Cut Pink Roses with a Free Glass Vase	1	0	1	Expedited	Teresa Sepulvda	840 E FOOTHILL BLVD SP 39			AZUSA	CA	91702-2636	US		Dear Teresa, Have a wonderful day!  love, john From john tatge	false		
113-3032655-7101024	14536849528362	2020-11-06T23:47:46+00:00	2020-11-06T15:47:46-08:00	2020-11-06T23:48:37+00:00	2020-11-11T07:59:59+00:00	-5	cfvdg6h10zy6pmw@marketplace.amazon.com	Christi Callaghan	+1 929-436-4790 ext. 83550	ABM022	Delivery by Tuesday | Purple Extravagance Bouquet by Arabella Bouquets	1	0	1	Expedited	Joan Callaghan	10630 - 230TH AVE CTE			BUCKLEY	WA	98321-8437	US		Joan, Mike and I are thinking of you, we are so sorry for your loss.  Sending you love and hugs during this difficult time.  Love, Mike, Christi & Christian From Christi Callaghan	false		
114-3857789-6909034	49465224919994	2020-11-06T23:49:45+00:00	2020-11-06T15:49:45-08:00	2020-11-07T00:07:01+00:00	2020-11-11T07:59:59+00:00	-5	x9521791gwfgdfc@marketplace.amazon.com	Jhenielle Brown	+1 415-851-9136 ext. 94910	ABM020	Delivery by Tuesday | The Sunset Bouquet by Arabella Bouquets	1	0	1	Expedited	Ashley Platte	317 GOODSON LN NW			ATLANTA	GA	30309-1904	US		We are very sorry for your loss Ashley. Sending your family lots of love, well wishes and prayers during this difficult time! From Your Home Depot TAMP Family	false		
114-6698185-0149859	18517703374842	2020-11-07T00:05:36+00:00	2020-11-06T16:05:36-08:00	2020-11-07T00:34:47+00:00	2020-11-11T07:59:59+00:00	-5	xqf8t2ssdm5vnv0@marketplace.amazon.com	Maria O'Brien	+1 480-618-5344 ext. 51236	ABM022	Delivery by Tuesday | Purple Extravagance Bouquet by Arabella Bouquets	1	0	1	Expedited	Jo-Anne Dennis	142 VALIER AVE			CHICOPEE	MA	01020-1056	US		Beautiful Flowers for the best Auntie Ever!! From Smooches and love. M and K	false		
111-4043068-0268213	49335330723586	2020-11-06T18:40:27+00:00	2020-11-06T10:40:27-08:00	2020-11-07T00:39:41+00:00	2020-11-11T07:59:59+00:00	-5	6gbjy70ykt4p906@marketplace.amazon.com	Amber Redden	+1 213-442-1463 ext. 30644	ABM022	Delivery by Tuesday | Purple Extravagance Bouquet by Arabella Bouquets	1	0	1	Expedited	Denise Asplund	53 MILTON ST			SAN FRANCISCO	CA	94112-1427	US			false		
