order-id	order-item-id	purchase-date	payments-date	reporting-date	promise-date	days-past-promise	buyer-email	buyer-name	buyer-phone-number	sku	product-name	quantity-purchased	quantity-shipped	quantity-to-ship	ship-service-level	recipient-name	ship-address-1	ship-address-2	ship-address-3	ship-city	ship-state	ship-postal-code	ship-country	gift-wrap-type	gift-message-text	is-business-order	purchase-order-number	price-designation
113-0351592-7141821	32783388027794	2020-11-05T18:19:56+00:00	2020-11-05T10:19:56-08:00	2020-11-05T18:50:36+00:00	2020-11-10T07:59:59+00:00	-3	tjq08r05k93mrvk@marketplace.amazon.com	mary hance	+1 480-618-5344 ext. 87372	ABM022	Delivery by Saturday | Purple Extravagance Bouquet by Arabella Bouquets	1	0	1	Expedited	mary hance	4375 N Curry Dr			Traverse City	MI	49685-9321	US			false		
113-2117710-1833854	22965367342770	2020-11-05T18:41:04+00:00	2020-11-05T10:41:04-08:00	2020-11-05T19:10:59+00:00	2020-11-10T07:59:59+00:00	-3	4jbgmfv2vfznyk8@marketplace.amazon.com	Lisa Burraston	+1 602-671-6610 ext. 68028	ABM022	Delivery by Saturday | Purple Extravagance Bouquet by Arabella Bouquets	1	0	1	Expedited	Rachel palmer	593 E SLEIGH RIDE LN			GRANTSVILLE	UT	84029-5540	US			false		
111-0155766-0921816	13063843080434	2020-11-05T19:44:51+00:00	2020-11-05T11:44:51-08:00	2020-11-05T20:15:27+00:00	2020-11-10T07:59:59+00:00	-3	b8z3pxdn1dw4pd1@marketplace.amazon.com	simeon requidan	+1 480-618-5344 ext. 30770	ABR0022	Delivery by Saturday | Arabella Farm Direct Bouquet of 12 Fresh Cut Pink Roses with a Free Glass Vase	1	0	1	Expedited	Denise Miranda	1610 S HIGHLAND AVE APT E			FULLERTON	CA	92832-3334	US			false		
113-4973526-1421035	52066938235514	2020-11-05T19:45:54+00:00	2020-11-05T11:45:54-08:00	2020-11-05T20:16:32+00:00	2020-11-10T07:59:59+00:00	-3	ggdnt32t7mcx90c@marketplace.amazon.com	Merton Johnson	+1 929-436-4790 ext. 89000	ABR0022	Delivery by Saturday | Arabella Farm Direct Bouquet of 12 Fresh Cut Pink Roses with a Free Glass Vase	1	0	1	Expedited	merton o. johnson	1111 CHERRY HILLS DR			LAUREL	MT	59044-2162	US			false		
111-1428595-9330624	04231288139946	2020-11-05T20:50:37+00:00	2020-11-05T12:50:37-08:00	2020-11-05T21:19:41+00:00	2020-11-10T07:59:59+00:00	-3	b8wshs9s97yv6q6@marketplace.amazon.com	Sally Brege	+1 213-442-1463 ext. 72842	ABR0022	Delivery by Saturday | Arabella Farm Direct Bouquet of 12 Fresh Cut Pink Roses with a Free Glass Vase	1	0	1	Expedited	Rodney Reed	555 CORONA DEL CAMPO LOOP			LAS CRUCES	NM	88011-4052	US		Aunt Bonnie and Uncle Rod, Thinking of you with lots of love! Sally & Lee Brege From Sally Brege	false		
113-2036586-3948239	67509385398482	2020-11-05T20:56:05+00:00	2020-11-05T12:56:05-08:00	2020-11-05T21:21:47+00:00	2020-11-10T07:59:59+00:00	-3	4chw9s68655h67k@marketplace.amazon.com	Seher	+1 602-671-6610 ext. 52994	ABR0022	Delivery by Saturday | Arabella Farm Direct Bouquet of 12 Fresh Cut Pink Roses with a Free Glass Vase	1	0	1	Expedited	Yvonne DelaCruz	2231 ALEXIS LN			TRACY	CA	95377-5631	US		Cheer up my friend, I hope you feel better soon! Remember, it takes 42 muscles to frown, but only 4 to kick someone in the nuts :-) From Seher	false		
114-2592410-2509044	02939945134386	2020-11-05T22:29:31+00:00	2020-11-05T14:29:31-08:00	2020-11-05T22:59:56+00:00	2020-11-10T07:59:59+00:00	-3	jxt1bwtd5mz627q@marketplace.amazon.com	Samuel Ledwitz	+1 602-671-6610 ext. 29575	ABR0022	Delivery by Saturday | Arabella Farm Direct Bouquet of 12 Fresh Cut Pink Roses with a Free Glass Vase	1	0	1	Expedited	Pauline Riddle	2940 SPORTING CT			REDDING	CA	96001-3600	US			false		
114-0094752-6194635	37136423178650	2020-11-05T22:32:34+00:00	2020-11-05T14:32:34-08:00	2020-11-05T23:01:50+00:00	2020-11-10T07:59:59+00:00	-3	4vmdrv2bc0hnwv5@marketplace.amazon.com	Amber Jennings	+1 619-854-2705 ext. 02872	ABR0022	Delivery by Saturday | Arabella Farm Direct Bouquet of 12 Fresh Cut Pink Roses with a Free Glass Vase	1	0	1	Expedited	Birch Sarah Irwin - happy birthday	2119 VALERGA DR APT 13			BELMONT	CA	94002-3578	US			false		
113-5896879-3245831	34889269640466	2020-11-05T22:33:04+00:00	2020-11-05T14:33:04-08:00	2020-11-05T23:02:35+00:00	2020-11-10T07:59:59+00:00	-3	t7ds3wmzfkqm48x@marketplace.amazon.com	Malikah Abdullah	+1 619-854-2705 ext. 83891	ABR012	Delivery by Monday | Arabella Farm Direct Bouquet of 18 Fresh Cut Pink Roses with a Free Glass Vase	1	0	1	Expedited	Lynne Amori	407 ELLIOTT RD			ELKINS PARK	PA	19027-2005	US		HAPPY BIRTHDAY Lynne!!  I hope you enjoy these roses.  Please remember not do work at all on your bday and just enjoy :-) From Malikah Abdullah	false		
111-8023521-1175432	19392244809482	2020-11-05T22:46:18+00:00	2020-11-05T14:46:18-08:00	2020-11-05T23:16:17+00:00	2020-11-10T07:59:59+00:00	-3	lwfvyccw5fm2103@marketplace.amazon.com	Rob	+1 480-618-5344 ext. 96838	ABM022	Delivery by Saturday | Purple Extravagance Bouquet by Arabella Bouquets	1	0	1	Expedited	Rob Walker	508 SEABISCUIT LOOP W			MADISONVILLE	LA	70447-3512	US			false		
111-8780235-3054650	43595693543546	2020-11-06T00:05:56+00:00	2020-11-05T16:05:56-08:00	2020-11-06T00:34:15+00:00	2020-11-10T07:59:59+00:00	-3	54fmqqgm61p8gkj@marketplace.amazon.com	Benoit Potvin	+1 480-618-5344 ext. 82350	ABM024	Delivery by Monday | The Beauty of Color Bouquet by Arabella Bouquets	1	0	1	Expedited	Cynthia Moyers	4542 DEER LODGE RD			NEW PORT RICHEY	FL	34655-7318	US		Get well soon beautiful! From Far far away	false		
114-0418730-4530610	28045339408738	2020-11-06T00:07:18+00:00	2020-11-05T16:07:18-08:00	2020-11-06T00:44:05+00:00	2020-11-10T07:59:59+00:00	-3	91rdgbv1w1g4165@marketplace.amazon.com	eric kloth	+1 619-854-2705 ext. 67427	ABM022	Delivery by Saturday | Purple Extravagance Bouquet by Arabella Bouquets	1	0	1	Expedited	Eric kloth	405 DOGWOOD ST			WAKEFIELD	KS	67487-9015	US		Happy birthday love you	false		
113-0052560-4286671	20760809643514	2020-11-06T00:32:29+00:00	2020-11-05T16:32:29-08:00	2020-11-06T01:02:17+00:00	2020-11-10T07:59:59+00:00	-3	bz9my7kg79zslt9@marketplace.amazon.com	BJ Honza	+1 602-671-6610 ext. 49935	ABR0055	Delivery by Saturday | Arabella Farm Direct Bouquet of 12 Stems of Fresh Cut Hot Pink Roses in a Free Designer Glass Vase	1	0	1	Expedited	Lillian Honza	1302 CAMELOT LN			ROWLETT	TX	75088-6029	US		Mom, Happy Birthday!  Wish we could be with you to celebrate!  We love you, WJ, BJ, and CJ From BJ Honza	false		
113-4729968-1148204	03345076815010	2020-11-06T02:18:06+00:00	2020-11-05T18:18:06-08:00	2020-11-06T02:45:47+00:00	2020-11-10T07:59:59+00:00	-3	5d9g40jwlj4z4cy@marketplace.amazon.com	Kate Dale	+1 602-671-6610 ext. 18793	ABR012	Delivery by Monday | Arabella Farm Direct Bouquet of 18 Fresh Cut Pink Roses with a Free Glass Vase	1	0	1	Expedited	Nancy Barrett	3333 26TH AVE E # 1032 LOT 1032			BRADENTON	FL	34208-7201	US			false		
114-8211947-0692227	68997424425906	2020-11-06T02:43:00+00:00	2020-11-05T18:43:00-08:00	2020-11-06T03:13:41+00:00	2020-11-10T07:59:59+00:00	-3	9n4v935cn16rn9h@marketplace.amazon.com	Arlin	+1 213-442-1463 ext. 25451	ABR012	Delivery by Monday | Arabella Farm Direct Bouquet of 18 Fresh Cut Pink Roses with a Free Glass Vase	1	0	1	Expedited	Arlin peight	1089 BULL RD			ROME	PA	18837-8666	US			false		
114-6651892-6558636	28680938576986	2020-11-06T03:04:06+00:00	2020-11-05T19:04:06-08:00	2020-11-06T03:31:02+00:00	2020-11-10T07:59:59+00:00	-3	27z5qs1jg4y5s9z@marketplace.amazon.com	Taylor peters	+1 619-854-2705 ext. 33038	ABR0022	Delivery by Saturday | Arabella Farm Direct Bouquet of 12 Fresh Cut Pink Roses with a Free Glass Vase	1	0	1	Expedited	Lindsey duben	5245 28TH AVE S APT 307			FARGO	ND	58104-9082	US		Lindsey I’m sorry for your loss I hope these brighten your day From Taylor peters	false		
112-7105361-1810611	25101764226490	2020-11-06T03:38:15+00:00	2020-11-05T19:38:15-08:00	2020-11-06T04:04:22+00:00	2020-11-10T07:59:59+00:00	-3	4nd78nshqsjkcbp@marketplace.amazon.com	Patricia Dunn	+1 213-442-1463 ext. 38214	ABM022	Delivery by Saturday | Purple Extravagance Bouquet by Arabella Bouquets	1	0	1	Expedited	Katheryne Barron	9505 CALLE CHAMISA NW			ALBUQUERQUE	NM	87114-2447	US		Happy Birthday Kathy 🎈 We love you. From Jim and Trish Dunn	false		
113-8268225-8149836	38533353267266	2020-11-06T04:12:21+00:00	2020-11-05T20:12:21-08:00	2020-11-06T04:41:46+00:00	2020-11-10T07:59:59+00:00	-3	vkdklrbblspyl0l@marketplace.amazon.com	william	+1 619-854-2705 ext. 88489	ABR001	Delivery by Saturday | Arabella Bouquets 12 Stems of Fresh Cut Red Roses in a Free Designer Glass Vase	1	0	1	Expedited	CYNTHIA J. GAUTHREAUX	1333 W SIDNEY ST APT			GONZALES	LA	70737-4036	US		Hello Cynthia   When I tell you I love you, I don’t say it out of habit. I say it to remind you that you’re the best thing that ever happened to me From Carlos	false		
114-7542277-6668254	67339436547098	2020-11-06T16:22:49+00:00	2020-11-06T08:22:49-08:00	2020-11-06T16:40:58+00:00	2020-11-11T07:59:59+00:00	-4	ssbhv4yj7yyzm1t@marketplace.amazon.com	Hollee Tummond	+1 213-442-1463 ext. 43059	ABM022	Delivery by Saturday | Purple Extravagance Bouquet by Arabella Bouquets	1	0	1	Expedited	Cecelia Warden	SAINT FRANCIS HOSPITAL	333 LAIDLEY ST		CHARLESTON	WV	25301-1628	US		Dear Mrs. Warden, We are so sorry to hear of your loss. Your granddaughter, Alyssa, is our dear friend and we just wanted your family to know that you are in our prayers and thoughts. Sending love your way! From Kalyn & Taylor	false		
112-1555918-5269846	02160552449506	2020-11-06T17:32:53+00:00	2020-11-06T09:32:53-08:00	2020-11-06T17:40:18+00:00	2020-11-11T07:59:59+00:00	-4	pbgl8dj2v99ymq3@marketplace.amazon.com	MICHAEL MELKOVIC	+1 602-671-6610 ext. 34541	ABM022	Delivery by Saturday | Purple Extravagance Bouquet by Arabella Bouquets	1	0	1	Expedited	JOAN NICOL	4 INDIGO RUN DR APT 1421			HILTON HEAD ISLAND	SC	29926-4114	US		Happy Happy Happiest of birthdays to you!!!!!   Only wish I were there to help celebrate!   You're an amazing giving and beautiful woman and I love you so so much.  Happy Birthday MOM!!!!       - Michael From MICHAEL MELKOVIC	false		
111-3440998-7739439	52920314117874	2020-11-06T17:41:01+00:00	2020-11-06T09:41:01-08:00	2020-11-06T18:08:06+00:00	2020-11-11T07:59:59+00:00	-4	dx75ylb5d4bvf4w@marketplace.amazon.com	enid	+1 213-442-1463 ext. 06175	ABR0022	Delivery by Saturday | Arabella Farm Direct Bouquet of 12 Fresh Cut Pink Roses with a Free Glass Vase	1	0	1	Expedited	Sehbaz Sabri	6277 THORNAPPLE VALLEY DR			HASTINGS	MI	49058-8285	US		Enjoy your gift! and hope you both are feeling better ,love Mom and Shiel. From enid	false		
113-8640240-3706610	31024184472234	2020-11-06T18:05:45+00:00	2020-11-06T10:05:45-08:00	2020-11-06T18:34:13+00:00	2020-11-11T07:59:59+00:00	-4	k1sbq828zdp0rb5@marketplace.amazon.com	Carolyn Quinn	+1 213-442-1463 ext. 47501	ABR012	Delivery by Tuesday | Arabella Farm Direct Bouquet of 18 Fresh Cut Pink Roses with a Free Glass Vase	1	0	1	Expedited	Joan Christenson	5105 173RD PL NW			STANWOOD	WA	98292-6001	US			false		
114-8807366-6344221	45604998655474	2020-11-06T18:26:27+00:00	2020-11-06T10:26:27-08:00	2020-11-06T18:54:41+00:00	2020-11-11T07:59:59+00:00	-4	f5fj5c2qrwyybwq@marketplace.amazon.com	jerry l. epstein	+1 619-854-2705 ext. 56630	ABR012	Delivery by Tuesday | Arabella Farm Direct Bouquet of 18 Fresh Cut Pink Roses with a Free Glass Vase	1	0	1	Expedited	nancy dudak	8957 W HIGHLAND PARK AVE			FRANKLIN	WI	53132-8142	US		Enjoy your gift! We wish you many years of peace and joy in your new home. From jerry l. epstein, rosalie. joanne	false		
113-5637468-4388219	41271382777106	2020-11-06T18:32:34+00:00	2020-11-06T10:32:34-08:00	2020-11-06T18:58:58+00:00	2020-11-11T07:59:59+00:00	-4	8wc9kd1ptfnfwy2@marketplace.amazon.com	Urania Mylonas	+1 415-851-9136 ext. 15160	ABM022	Delivery by Tuesday | Purple Extravagance Bouquet by Arabella Bouquets	1	0	1	Expedited	Jacqueline Lerescu	1159 WHITEHEART CT MARCO ISLAND	FL 34145		MARCO ISLAND	FL	34145-5019	US		Dear Jacqueline and Christopher,  Congratulations on your wedding! So happy for you both!  Love, Urania From Urania Mylonas	false		
114-8327119-5600220	37911164087754	2020-11-06T18:49:59+00:00	2020-11-06T10:49:59-08:00	2020-11-06T19:12:30+00:00	2020-11-11T07:59:59+00:00	-4	1qy5nv7y2g1fy8x@marketplace.amazon.com	stephanie newman	+1 619-854-2705 ext. 47304	ABR0055	Delivery by Tuesday | Arabella Farm Direct Bouquet of 12 Stems of Fresh Cut Hot Pink Roses in a Free Designer Glass Vase	1	0	1	Expedited	Gwen Martin	3220 HOLLYGROVE ST			NEW ORLEANS	LA	70118-2442	US		Happy birthday Gwen. Love you , howard and stephanie , JoJo , Lilly , lani, gerald . From stephanie newman and howard	false		
111-4171199-2424230	19996721577754	2020-11-06T18:47:25+00:00	2020-11-06T10:47:25-08:00	2020-11-06T19:14:04+00:00	2020-11-11T07:59:59+00:00	-4	sj2g05mg0xqgrvq@marketplace.amazon.com	Carmelo Imbrogno	+1 213-442-1463 ext. 51016	ABM022	Delivery by Tuesday | Purple Extravagance Bouquet by Arabella Bouquets	1	0	1	Expedited	Barbara Oehlberg	33375 SOLON RD			SOLON	OH	44139	US		My sincere and deepest condolences to the entire Oehlberg family on the loss of your dear Husband and father From Carmen  Imbrogno	false		
113-1254970-1466601	40232863605242	2020-11-06T18:53:01+00:00	2020-11-06T10:53:01-08:00	2020-11-06T19:21:40+00:00	2020-11-11T07:59:59+00:00	-4	m5g4wvltdbgz0s4@marketplace.amazon.com	Elizabeth Andrews	+1 619-854-2705 ext. 07637	ABM022	Delivery by Tuesday | Purple Extravagance Bouquet by Arabella Bouquets	1	0	1	Expedited	Erica Andrews	17413 42ND AVE SE			BOTHELL	WA	98012-7630	US		Hope your recovery goes smoothly - we'll see you soon! Sending love and best wishes, Gramma and Papa From Elizabeth Andrews	false		
113-6783207-7779404	19537334627546	2020-11-06T19:04:17+00:00	2020-11-06T11:04:17-08:00	2020-11-06T19:32:40+00:00	2020-11-11T07:59:59+00:00	-4	2q8bszbz1gpd90k@marketplace.amazon.com	april g. pugh	+1 213-442-1463 ext. 34344	ABR0055	Delivery by Tuesday | Arabella Farm Direct Bouquet of 12 Stems of Fresh Cut Hot Pink Roses in a Free Designer Glass Vase	1	0	1	Expedited	Vean Thornton	421 NEW PITTSBURG AVE			BALTIMORE	MD	21222-6205	US		Get well soon Aunt Vean!  We LOVE you! From april g. pugh	false		
112-8022106-4515455	19597941465130	2020-11-06T19:04:54+00:00	2020-11-06T11:04:54-08:00	2020-11-06T19:34:36+00:00	2020-11-11T07:59:59+00:00	-4	d7b6jdz6w61mv5s@marketplace.amazon.com	Bita Mavaddat	+1 619-854-2705 ext. 11745	ABR0022	Delivery by Tuesday | Arabella Farm Direct Bouquet of 12 Fresh Cut Pink Roses with a Free Glass Vase	1	0	1	Expedited	Elizabeth Garofalo	11 GRANDVIEW DR			RIDGEFIELD	CT	06877-3013	US			false		
114-7657954-5233817	38126373788930	2020-11-06T19:30:54+00:00	2020-11-06T11:30:54-08:00	2020-11-06T19:56:28+00:00	2020-11-11T07:59:59+00:00	-4	9k8fvp4yn1jz18m@marketplace.amazon.com	Mary Call	+1 480-618-5344 ext. 56975	ABSR002	Delivery by Tuesday | Arabella Farm Direct Bouquet of Fresh Cut Pink Multicolor Spray Roses with a Free Glass Vase	1	0	1	Expedited	Tom & Claudia Hagen	803 E GATES ST			RICE LAKE	WI	54868-2554	US		Hope this brightens your day!  💕💕 From Call Family	false		
112-3842929-9050618	24771034021402	2020-11-06T19:31:59+00:00	2020-11-06T11:31:59-08:00	2020-11-06T19:59:35+00:00	2020-11-11T07:59:59+00:00	-4	wcx2lvn343gjby2@marketplace.amazon.com	Julie	+1 929-436-4790 ext. 05439	ABR0022	Delivery by Tuesday | Arabella Farm Direct Bouquet of 12 Fresh Cut Pink Roses with a Free Glass Vase	1	0	1	Expedited	Julie Knospe	16 Chicory Lane			Lancaster	NY	14086	US		Hi,  Emma,   Feel better soon! Love, Mina & Dzia	false		
111-6121351-2731412	52748866567562	2020-11-06T19:30:38+00:00	2020-11-06T11:30:38-08:00	2020-11-06T20:00:30+00:00	2020-11-11T07:59:59+00:00	-4	0p5c50wmz3j8jd8@marketplace.amazon.com	Jerry Edwards	+1 929-436-4790 ext. 52645	ABR0055	Delivery by Tuesday | Arabella Farm Direct Bouquet of 12 Stems of Fresh Cut Hot Pink Roses in a Free Designer Glass Vase	1	0	1	Expedited	Jerry Edwards	404 Punto Baho Drive			Greenwood	IN	46143	US			false		
111-2098112-7018602	14135521037562	2020-11-06T19:38:35+00:00	2020-11-06T11:38:35-08:00	2020-11-06T20:04:21+00:00	2020-11-11T07:59:59+00:00	-4	xxcbbsw2t8ml5tn@marketplace.amazon.com	Michael McMurdie	+1 415-851-9136 ext. 47657	ABR0033	Delivery by Tuesday | Arabella Farm Direct Bouquet of 12 Fresh Cut Orange Roses with a Free Glass Vase	1	0	1	Expedited	Dinah Watson	6360 COOLWELL DR			COLORADO SPRINGS	CO	80908-3324	US		HAPPY BIRTHDAY MOM!! From Love you, Michael, Linda and Alan	false		
114-8418194-3584220	05751774023794	2020-11-06T19:39:28+00:00	2020-11-06T11:39:28-08:00	2020-11-06T20:05:53+00:00	2020-11-11T07:59:59+00:00	-4	3m7vjpn12xs0fn2@marketplace.amazon.com	Michael Cook	+1 619-854-2705 ext. 60776	ABM010	Delivery by Tuesday | The Spring Fling Bouquet by Arabella Bouquets with a Free Designer Glass Vase	1	0	1	Expedited	Mrs. Calderia	60 SCHOOL ST APT 12D			SLATERSVILLE	RI	02876-1010	US		We hope you have a very happy birthday! We love you! From Maureen, Lynn and Mary (Regan)	false		
114-3865344-4289817	44905498740562	2020-11-06T19:40:51+00:00	2020-11-06T11:40:51-08:00	2020-11-06T20:06:42+00:00	2020-11-11T07:59:59+00:00	-4	8vl0mg7j615vn4k@marketplace.amazon.com	Carole  Neyman	+1 415-851-9136 ext. 79545	ABR0022	Delivery by Tuesday | Arabella Farm Direct Bouquet of 12 Fresh Cut Pink Roses with a Free Glass Vase	1	0	1	Expedited	Kathy & Frank Krawiecki	2429 DAY DR			THE VILLAGES	FL	32163-2179	US		Happy Anniversary Kathy and Frank Wishing you many more years of love and happiness together.  We love you both very much. From Carole  and John	false		
111-0838583-7973844	49245165334738	2020-11-06T19:47:14+00:00	2020-11-06T11:47:14-08:00	2020-11-06T20:17:55+00:00	2020-11-11T07:59:59+00:00	-4	7j9t00msjrq0m8y@marketplace.amazon.com	Don Hall	+1 480-618-5344 ext. 37838	ABR0022	Delivery by Tuesday | Arabella Farm Direct Bouquet of 12 Fresh Cut Pink Roses with a Free Glass Vase	1	0	1	Expedited	Virginia Palka	3 Llano Sendero			Placitas	NM	87043-8636	US			false		
112-2977626-6221857	09958679215714	2020-11-06T19:49:50+00:00	2020-11-06T11:49:50-08:00	2020-11-06T20:18:46+00:00	2020-11-11T07:59:59+00:00	-4	974f3r1jny8qf08@marketplace.amazon.com	Ranya	+1 213-442-1463 ext. 97740	ABR0022	Delivery by Tuesday | Arabella Farm Direct Bouquet of 12 Fresh Cut Pink Roses with a Free Glass Vase	1	0	1	Expedited	NANCY WALKER	2707 GREEN ST			MIDDLEBORO	MA	02346-7341	US		Enjoy your gift! Hoping for a speedy recovery! From Ranya	false		
113-9084823-1812269	16868671563890	2020-11-06T19:56:20+00:00	2020-11-06T11:56:20-08:00	2020-11-06T20:19:33+00:00	2020-11-11T07:59:59+00:00	-4	8q24mtpw8hlmd20@marketplace.amazon.com	christine grimstead	+1 619-854-2705 ext. 81383	ABM022	Delivery by Tuesday | Purple Extravagance Bouquet by Arabella Bouquets	1	0	1	Expedited	Rhonda Eddy	27118 48TH PL S APT P201			KENT	WA	98032-6280	US		Dear Rhonda,  We love you and hope that these flowers put a bright spot in your day! From Christine and Dan	false		
111-5773882-3074620	62757430576122	2020-11-06T19:52:21+00:00	2020-11-06T11:52:21-08:00	2020-11-06T20:21:25+00:00	2020-11-11T07:59:59+00:00	-4	tts1d6vpqdkhfsp@marketplace.amazon.com	thomas j flynn	+1 619-854-2705 ext. 08850	ABM010	Delivery by Tuesday | The Spring Fling Bouquet by Arabella Bouquets with a Free Designer Glass Vase	1	0	1	Expedited	thomas j flynn	8443 GOSLINE RD			MARLETTE	MI	48453-9124	US			false		
112-3831327-5807415	42814531020618	2020-11-06T19:56:01+00:00	2020-11-06T11:56:01-08:00	2020-11-06T20:23:50+00:00	2020-11-11T07:59:59+00:00	-4	hqrzb5xd2ctb97t@marketplace.amazon.com	brendah133	+1 480-618-5344 ext. 32879	ABR001	Delivery by Tuesday | Arabella Bouquets 12 Stems of Fresh Cut Red Roses in a Free Designer Glass Vase	1	0	1	Expedited	Paula Vasquez	716 N 24 st			Corsicana	Tx	75110	US		Paula and Joe we love you!! From Moses and Brenda	false		
112-4451171-5457858	45472015432754	2020-11-06T19:58:12+00:00	2020-11-06T11:58:12-08:00	2020-11-06T20:23:57+00:00	2020-11-11T07:59:59+00:00	-4	379b0ypl195k6hn@marketplace.amazon.com	Rebecca Robertson	+1 619-854-2705 ext. 80217	ABR013	Delivery by Tuesday | Arabella Farm Direct Bouquet of 18 Fresh Cut Yellow Roses with a Free Glass Vase	1	0	1	Expedited	Tamra Perez	6784 COUNTRYVIEW DR			KALAMAZOO	MI	49009-8841	US			false		
111-4730541-4612209	28387252835362	2020-11-06T20:00:33+00:00	2020-11-06T12:00:33-08:00	2020-11-06T20:26:05+00:00	2020-11-11T07:59:59+00:00	-4	xy27n662209ry4h@marketplace.amazon.com	Mel Martin	+1 213-442-1463 ext. 89173	ABR0022	Delivery by Tuesday | Arabella Farm Direct Bouquet of 12 Fresh Cut Pink Roses with a Free Glass Vase	1	0	1	Expedited	Deana Clark	5436 E 39TH ST			TULSA	OK	74135-5546	US		Deana,  Wanting to add some beautiful color to your day. You are in our thoughts and prayers. From Brenda and Mel Martin	false		
112-0305661-8700214	50151768952202	2020-11-06T20:03:00+00:00	2020-11-06T12:03:00-08:00	2020-11-06T20:31:59+00:00	2020-11-11T07:59:59+00:00	-4	l4tn8hksxq08279@marketplace.amazon.com	maureen connelly	+1 480-618-5344 ext. 99842	ABR004	Delivery by Tuesday | Arabella Farm Direct Bouquet of 12 Fresh Cut Yellow Roses with a Free Glass Vase	1	0	1	Expedited	Youmans/ LoGiudice	1212 TROUT CREEK CIR			LONGMONT	CO	80504-2298	US			false		
114-8790235-3723460	53187563759730	2020-11-06T20:17:39+00:00	2020-11-06T12:17:39-08:00	2020-11-06T20:46:24+00:00	2020-11-11T07:59:59+00:00	-4	l2vkw75yzwx4d3s@marketplace.amazon.com	Jennifer Roberts	+1 480-618-5344 ext. 56045	ABM022	Delivery by Tuesday | Purple Extravagance Bouquet by Arabella Bouquets	1	0	1	Expedited	Carolina Barry	15108 BULLBRIER RD			AUSTIN	TX	78724-7273	US		Carolina,  Hope you have a wonderful birthday!!!  We love and miss you!  Jen & Ian From Jennifer Roberts	false		
112-8610685-0549853	46874553952186	2020-11-06T20:24:33+00:00	2020-11-06T12:24:33-08:00	2020-11-06T20:54:25+00:00	2020-11-11T07:59:59+00:00	-4	x785jqm1ydb1cc5@marketplace.amazon.com	darius maroufkhani	+1 213-442-1463 ext. 67343	ABR004	Delivery by Tuesday | Arabella Farm Direct Bouquet of 12 Fresh Cut Yellow Roses with a Free Glass Vase	1	0	1	Expedited	darius maroufkhani	2645 FALLING OAK DR			RIVERSIDE	CA	92506-5015	US			false		
111-6968617-6090632	43736945066954	2020-11-06T20:39:37+00:00	2020-11-06T12:39:37-08:00	2020-11-06T21:06:31+00:00	2020-11-11T07:59:59+00:00	-4	5klz4kqqfwzj523@marketplace.amazon.com	John Yost	+1 480-618-5344 ext. 65884	ABM022	Delivery by Tuesday | Purple Extravagance Bouquet by Arabella Bouquets	1	0	1	Expedited	MaryJo Vonasek	20206 19TH DR SE APT C			BOTHELL	WA	98012-7167	US		Dearest MaryJo, We are so saddened to hear about the loss of your mother. We wish you peace during this very difficult time. From The WAVA Sunshine Committee	false		
111-8250258-3641020	02774252886138	2020-11-06T20:46:16+00:00	2020-11-06T12:46:16-08:00	2020-11-06T21:11:43+00:00	2020-11-11T07:59:59+00:00	-4	c3xgrt6dwy0q83x@marketplace.amazon.com	Tara S Astle	+1 602-671-6610 ext. 90361	ABM0033	Delivery by Tuesday | Arabella Farm Direct Bouquet of Fresh Cut White Hydrangea with a Free Glass Vase	1	0	1	Expedited	Ms Aimee Branca	1103 ALMOND DR			PHOENIXVILLE	PA	19460-3592	US		Wishing you lots of joy and happiness during this magical time. May it be the start of a wonderful and exciting life together. All my love From Tara	false		
111-2395779-1305056	67826156293938	2020-11-06T20:54:33+00:00	2020-11-06T12:54:33-08:00	2020-11-06T21:13:21+00:00	2020-11-11T07:59:59+00:00	-4	4wt8xr2smvc6s9t@marketplace.amazon.com	Mark Dickenson	+1 619-854-2705 ext. 26101	ABR0022	Delivery by Tuesday | Arabella Farm Direct Bouquet of 12 Fresh Cut Pink Roses with a Free Glass Vase	1	0	1	Expedited	Aaron & Clarisse Mebane	4095 Lawson's Ridge Dr.	Apt 507		Madison	AL	35757	US		Congratulations!!!I Love Ya'll Granddaddy Morris From Morris Mebane	false		
112-8604392-1091403	49761235174858	2020-11-06T20:52:13+00:00	2020-11-06T12:52:13-08:00	2020-11-06T21:21:46+00:00	2020-11-11T07:59:59+00:00	-4	6tqtdl7swbw2wgw@marketplace.amazon.com	TOJONIRINA RAMAROLAHY	+1 213-442-1463 ext. 24860	ABR001	Delivery by Tuesday | Arabella Bouquets 12 Stems of Fresh Cut Red Roses in a Free Designer Glass Vase	1	0	1	Expedited	NIRINIAVISOA Marceda	AVALON BAY POTOMAC YARD	731 SEATON AVE UNIT 508		ALEXANDRIA	VA	22305-3070	US			false		
113-1177185-6267446	33882084376322	2020-11-06T21:03:19+00:00	2020-11-06T13:03:19-08:00	2020-11-06T21:31:07+00:00	2020-11-11T07:59:59+00:00	-4	nyqrq14tbq13jry@marketplace.amazon.com	kat dewees	+1 619-854-2705 ext. 59353	ABR0033	Delivery by Tuesday | Arabella Farm Direct Bouquet of 12 Fresh Cut Orange Roses with a Free Glass Vase	1	0	1	Expedited	Joyce Hawkins	1300 S BORDER AVE APT 111 # 111			WESLACO	TX	78596-7420	US		Heal quickly! We love you! Dave and Kat From kat dewees	false		
111-7205543-5599442	04046699286282	2020-11-06T21:16:04+00:00	2020-11-06T13:16:04-08:00	2020-11-06T21:42:49+00:00	2020-11-11T07:59:59+00:00	-4	50jyycbbm05jvjp@marketplace.amazon.com	jlugo89	+1 480-618-5344 ext. 83237	ABR001	Delivery by Tuesday | Arabella Bouquets 12 Stems of Fresh Cut Red Roses in a Free Designer Glass Vase	1	0	1	Expedited	Maria I. Heal	1523 ELM TER			TITUSVILLE	FL	32780-4323	US		Muchas felicidades! Te amo mucho. From Tito	false		
111-8673923-4276238	57906032747482	2020-11-06T21:20:49+00:00	2020-11-06T13:20:49-08:00	2020-11-06T21:48:45+00:00	2020-11-11T07:59:59+00:00	-4	ky3l430w04v6tqh@marketplace.amazon.com	Daniel McLaughlin	+1 929-436-4790 ext. 85295	ABM002	Delivery by Tuesday | Arabella Bouquets Fresh Cut White Calla Lilies in a Free Designer Glass Vase	1	0	1	Expedited	Alaina Kappner	100 LACEY LOU			SALADO	TX	76571-5198	US		Just because!  With Love, D From Daniel McLaughlin	false		
113-6778568-9711443	31640190050842	2020-11-06T21:25:55+00:00	2020-11-06T13:25:55-08:00	2020-11-06T21:55:18+00:00	2020-11-11T07:59:59+00:00	-4	8dyb9yczsk7tsps@marketplace.amazon.com	merlyneminer	+1 619-854-2705 ext. 55925	ABM022	Delivery by Tuesday | Purple Extravagance Bouquet by Arabella Bouquets	1	0	1	Expedited	Sandy Mason	129 E TOBIANO TRL			BELGRADE	MT	59714-9737	US		Aunt Sandy,  We have been thinking of you and want you to know that you're in our thoughts and prayers. We love you! Mike, Merlyne, Calvin and Chris From merlyneminer	false		
113-3756095-9341003	59599182871570	2020-11-06T21:35:53+00:00	2020-11-06T13:35:53-08:00	2020-11-06T22:02:08+00:00	2020-11-11T07:59:59+00:00	-4	m0msc2571pqc14b@marketplace.amazon.com	Helen Miller	+1 213-442-1463 ext. 60666	ABM022	Delivery by Tuesday | Purple Extravagance Bouquet by Arabella Bouquets	1	0	1	Expedited	Judith Sikora	8904 GLENISTAR GATE AVE			LAS VEGAS	NV	89143-1377	US		Dear Jude,  We’re all thinking of you and sending Healing Energy, Love and Light for a speedy recovery. From Your IT WC team	false		
112-1413122-5946662	68384559695802	2020-11-06T21:39:11+00:00	2020-11-06T13:39:11-08:00	2020-11-06T22:08:55+00:00	2020-11-11T07:59:59+00:00	-4	xkp8hfnf1y4x0h5@marketplace.amazon.com	Jonny Brown	+1 480-618-5344 ext. 78957	ABM022	Delivery by Tuesday | Purple Extravagance Bouquet by Arabella Bouquets	1	0	1	Expedited	Andy Pillifant	1256 TIMBERBRANCH CT			CHARLOTTESVILLE	VA	22902-7207	US		We are all thinking of you and your family in this tough time. Keeping you in our thoughts and prayers. From WorldStrides Sports Family	false		
114-1356555-3484257	28940397693386	2020-11-06T22:32:38+00:00	2020-11-06T14:32:38-08:00	2020-11-06T23:00:38+00:00	2020-11-11T07:59:59+00:00	-4	b9yf9f3jfsh1dnc@marketplace.amazon.com	Linda	+1 602-671-6610 ext. 16695	ABR0022	Delivery by Tuesday | Arabella Farm Direct Bouquet of 12 Fresh Cut Pink Roses with a Free Glass Vase	1	0	1	Expedited	Linda Gutierrez	837 E BANBURY DR			STOCKTON	CA	95207-5907	US		Get well soon, we love you Mom and gammie! Hope to see you soon. Love you From Linda, David and Cheyenne	false		
111-4900458-2908214	10299061702122	2020-11-06T22:34:40+00:00	2020-11-06T14:34:40-08:00	2020-11-06T23:03:38+00:00	2020-11-11T07:59:59+00:00	-4	61gn81p5jgxtjct@marketplace.amazon.com	Kay L. Bemis	+1 602-671-6610 ext. 36124	ABM022	Delivery by Tuesday | Purple Extravagance Bouquet by Arabella Bouquets	1	0	1	Expedited	Kay l bemis	8753 MCCARTY RANCH DR			SAN JOSE	CA	95135-2158	US		Because our amazing Dad would want you to have flowers this week.  We love you to the moon and back! From Love Gwen and Debbie	false		
114-6972898-7977049	47345131441698	2020-11-06T22:39:59+00:00	2020-11-06T14:39:59-08:00	2020-11-06T23:06:52+00:00	2020-11-11T07:59:59+00:00	-4	0d1gbhn2sdv1s68@marketplace.amazon.com	Emily Baruch	+1 602-671-6610 ext. 03541	ABM022	Delivery by Tuesday | Purple Extravagance Bouquet by Arabella Bouquets	1	0	1	Expedited	Maddie Baruch	6734 COLTRANE MILL RD			GREENSBORO	NC	27406-8818	US		Mads, We are so proud of you as you near the end of such an amazing journey.  You don't need a formal event to celebrate your accomplishments.   Your fierce friends and Family will be with you.  Love 💘 From Em, Dad and Cand	false		
113-6828602-0497817	50821050482538	2020-11-06T22:58:36+00:00	2020-11-06T14:58:36-08:00	2020-11-06T23:15:03+00:00	2020-11-11T07:59:59+00:00	-4	0h2nf8fczs4b47v@marketplace.amazon.com	Beatriz A Benitez	+1 929-436-4790 ext. 19647	ABM010	Delivery by Tuesday | The Spring Fling Bouquet by Arabella Bouquets with a Free Designer Glass Vase	1	0	1	Expedited	Carla Thomas	803 SW FOXTAIL DR			GRAIN VALLEY	MO	64029-9723	US		We extend our deepest condolences on the loss of your father. We are praying for peace and comfort for you and your family. - Your Groth Sales Team From Beatriz, Jessica, Eugene, David and Sonya	false		
114-3867944-3145829	67793199844882	2020-11-06T22:47:06+00:00	2020-11-06T14:47:06-08:00	2020-11-06T23:16:53+00:00	2020-11-11T07:59:59+00:00	-4	qhrpjzkw1slt0pj@marketplace.amazon.com	Tracey Perkins	+1 619-854-2705 ext. 22897	ABR0022	Delivery by Tuesday | Arabella Farm Direct Bouquet of 12 Fresh Cut Pink Roses with a Free Glass Vase	1	0	1	Expedited	Tiffanii Harrison	12 C 719 N EUCALYPTUS AVE			INGLEWOOD	CA	90302-2247	US			false		
112-2621803-6748254	06769109025410	2020-11-06T22:58:33+00:00	2020-11-06T14:58:33-08:00	2020-11-06T23:26:31+00:00	2020-11-11T07:59:59+00:00	-4	pk959g0c5kk457y@marketplace.amazon.com	anna	+1 213-442-1463 ext. 73691	ABM010	Delivery by Tuesday | The Spring Fling Bouquet by Arabella Bouquets with a Free Designer Glass Vase	1	0	1	Expedited	Carmen Morales and Luis Morales	1954 ARCADIA CT			SALINAS	CA	93906-5415	US		Happy Birthday. Enjoy your gift! 🧁💐🌸🥀🌼🌻🤗😄👍 Love,  Anna,Tila and Jesse From anna	false		
111-0538342-7894651	28080588664658	2020-11-06T23:03:09+00:00	2020-11-06T15:03:09-08:00	2020-11-06T23:30:55+00:00	2020-11-11T07:59:59+00:00	-4	62ttqhttvtc6zsg@marketplace.amazon.com	Josh Henson	+1 213-442-1463 ext. 09109	ABR0022	Delivery by Tuesday | Arabella Farm Direct Bouquet of 12 Fresh Cut Pink Roses with a Free Glass Vase	1	0	1	Expedited	Josh Henson	1780 CR 721			Nacogdoches	Texas	75964	US		To my beautiful wife and mother of my child. These 4 years of marriage have been the happiest years of my life. I'm so lucky to get to spend the rest of my life with you! From Josh Henson	false		
114-2890807-7410636	46976747718466	2020-11-06T23:15:27+00:00	2020-11-06T15:15:27-08:00	2020-11-06T23:37:19+00:00	2020-11-11T07:59:59+00:00	-4	h0974hp38znrlgl@marketplace.amazon.com	Aleksander	+1 213-442-1463 ext. 08953	ABM022	Delivery by Tuesday | Purple Extravagance Bouquet by Arabella Bouquets	1	0	1	Expedited	Helena Marinaro	171 E BAY CEDAR CIR			JUPITER	FL	33458-7105	US		Happy birthday dear Helen!!! With love from Sasha, Karina, dad, Misha and Ilya! From Aleksander	false		
111-4555330-1207413	05215017140986	2020-11-06T23:20:56+00:00	2020-11-06T15:20:56-08:00	2020-11-06T23:46:58+00:00	2020-11-11T07:59:59+00:00	-4	9ppf4cw4z6skhj8@marketplace.amazon.com	jtatge@verizon.net	+1 619-854-2705 ext. 64241	ABR0022	Delivery by Tuesday | Arabella Farm Direct Bouquet of 12 Fresh Cut Pink Roses with a Free Glass Vase	1	0	1	Expedited	Teresa Sepulvda	840 E FOOTHILL BLVD SP 39			AZUSA	CA	91702-2636	US		Dear Teresa, Have a wonderful day!  love, john From john tatge	false		
113-3032655-7101024	14536849528362	2020-11-06T23:47:46+00:00	2020-11-06T15:47:46-08:00	2020-11-06T23:48:37+00:00	2020-11-11T07:59:59+00:00	-4	cfvdg6h10zy6pmw@marketplace.amazon.com	Christi Callaghan	+1 929-436-4790 ext. 83550	ABM022	Delivery by Tuesday | Purple Extravagance Bouquet by Arabella Bouquets	1	0	1	Expedited	Joan Callaghan	10630 - 230TH AVE CTE			BUCKLEY	WA	98321-8437	US		Joan, Mike and I are thinking of you, we are so sorry for your loss.  Sending you love and hugs during this difficult time.  Love, Mike, Christi & Christian From Christi Callaghan	false		
114-3857789-6909034	49465224919994	2020-11-06T23:49:45+00:00	2020-11-06T15:49:45-08:00	2020-11-07T00:07:01+00:00	2020-11-11T07:59:59+00:00	-4	x9521791gwfgdfc@marketplace.amazon.com	Jhenielle Brown	+1 415-851-9136 ext. 94910	ABM020	Delivery by Tuesday | The Sunset Bouquet by Arabella Bouquets	1	0	1	Expedited	Ashley Platte	317 GOODSON LN NW			ATLANTA	GA	30309-1904	US		We are very sorry for your loss Ashley. Sending your family lots of love, well wishes and prayers during this difficult time! From Your Home Depot TAMP Family	false		
114-6698185-0149859	18517703374842	2020-11-07T00:05:36+00:00	2020-11-06T16:05:36-08:00	2020-11-07T00:34:47+00:00	2020-11-11T07:59:59+00:00	-4	xqf8t2ssdm5vnv0@marketplace.amazon.com	Maria O'Brien	+1 480-618-5344 ext. 51236	ABM022	Delivery by Tuesday | Purple Extravagance Bouquet by Arabella Bouquets	1	0	1	Expedited	Jo-Anne Dennis	142 VALIER AVE			CHICOPEE	MA	01020-1056	US		Beautiful Flowers for the best Auntie Ever!! From Smooches and love. M and K	false		
111-4043068-0268213	49335330723586	2020-11-06T18:40:27+00:00	2020-11-06T10:40:27-08:00	2020-11-07T00:39:41+00:00	2020-11-11T07:59:59+00:00	-4	6gbjy70ykt4p906@marketplace.amazon.com	Amber Redden	+1 213-442-1463 ext. 30644	ABM022	Delivery by Tuesday | Purple Extravagance Bouquet by Arabella Bouquets	1	0	1	Expedited	Denise Asplund	53 MILTON ST			SAN FRANCISCO	CA	94112-1427	US			false		
112-8451910-6497038	31409394382866	2020-11-07T00:17:05+00:00	2020-11-06T16:17:05-08:00	2020-11-07T00:46:33+00:00	2020-11-11T07:59:59+00:00	-4	r42qzlrp8m3hd9r@marketplace.amazon.com	Elizabeth E Johnson	+1 619-854-2705 ext. 85785	ABM021	Delivery by Tuesday | The Joyous Bouquet by Arabella Bouquets	1	0	1	Expedited	Elizabeth Johnson	7503 OLD BRIDGE CT			SUGAR LAND	TX	77479-6326	US			false		
113-3794193-9146625	38040511526858	2020-11-07T00:30:23+00:00	2020-11-06T16:30:23-08:00	2020-11-07T00:59:29+00:00	2020-11-11T07:59:59+00:00	-4	3js3d9vp20qmg07@marketplace.amazon.com	Robert Waloweek	+1 415-851-9136 ext. 50869	ABM022	Delivery by Tuesday | Purple Extravagance Bouquet by Arabella Bouquets	1	0	1	Expedited	Kathy Sudbrink	S93 W 35241 Westwind Drive route 3			Eagle	WI	53119	US		Get well, be well. We miss you dearly. Love Robert and Betty Jane. From Robert Waloweek	false		
113-6953202-6349008	51888084629618	2020-11-07T00:37:54+00:00	2020-11-06T16:37:54-08:00	2020-11-07T01:07:33+00:00	2020-11-11T07:59:59+00:00	-4	xkjjsvx6zrf0cqh@marketplace.amazon.com	Sarah Conquest	+1 213-442-1463 ext. 69557	ABM022	Delivery by Tuesday | Purple Extravagance Bouquet by Arabella Bouquets	1	0	1	Expedited	Martha Brogan	5522 PINE OAK CT			FORT WAYNE	IN	46835-4610	US		Happy birthday! Can’t wait to see you in a few weeks. Penny picked out these purple flowers just for you. We love you. From Sarah, Joe, Penny, Porter	false		
114-3071191-3691437	27189749233002	2020-11-07T00:52:58+00:00	2020-11-06T16:52:58-08:00	2020-11-07T01:17:47+00:00	2020-11-11T07:59:59+00:00	-4	nj34ztkg99rzx3l@marketplace.amazon.com	Jamie Cottle	+1 213-442-1463 ext. 53881	ABM020	Delivery by Tuesday | The Sunset Bouquet by Arabella Bouquets	1	0	1	Expedited	Nancy Frank	12835 MERIDIAN AVE N			SEATTLE	WA	98133-7858	US		Sorry to hear about Millie. Flowers can’t make up for a lifetime with her, but hopefully they bring you some joy. Thinking of you.   Love you From Lizzy & Jamie From Lizzy & Jamie	false		
111-2930258-5745863	19875213723642	2020-11-07T01:17:45+00:00	2020-11-06T17:17:45-08:00	2020-11-07T01:38:43+00:00	2020-11-11T07:59:59+00:00	-4	kc9m7rkmtbffh1z@marketplace.amazon.com	Kikumaru Baba	+1 480-618-5344 ext. 45794	ABR0022	Delivery by Tuesday | Arabella Farm Direct Bouquet of 12 Fresh Cut Pink Roses with a Free Glass Vase	1	0	1	Expedited	Matthew Morrison	4850 FOXCROFT DR			TROY	MI	48085-3531	US		Dear Mr. Morrison, Thank you for your kindness and support for Maui. Also, being dandy 😎♥️ Kico From Kikumaru Baba	false		
112-2014514-3803437	66751410227554	2020-11-07T01:20:32+00:00	2020-11-06T17:20:32-08:00	2020-11-07T01:44:43+00:00	2020-11-11T07:59:59+00:00	-4	hmpg8xksdqbwqqd@marketplace.amazon.com	melanie	+1 929-436-4790 ext. 57823	ABM010	Delivery by Tuesday | The Spring Fling Bouquet by Arabella Bouquets with a Free Designer Glass Vase	1	0	1	Expedited	Jenny Mae San Luis	13626 FAIRGATE DR			POWAY	CA	92064-5836	US		My love. We are in this together. I love you so much From Lanie	false		
111-1451934-5913058	04283500142426	2020-11-07T01:22:28+00:00	2020-11-06T17:22:28-08:00	2020-11-07T01:50:14+00:00	2020-11-11T07:59:59+00:00	-4	f0pm0tlg7qr9n4h@marketplace.amazon.com	JayQ Craft	+1 602-671-6610 ext. 94621	ABR0022	Delivery by Tuesday | Arabella Farm Direct Bouquet of 12 Fresh Cut Pink Roses with a Free Glass Vase	1	0	1	Expedited	Nyah Coulter	155 SUSAN LN			FAYETTEVILLE	GA	30215-2055	US		Hey, hit me when you get these. I hope you smiled. Miss ya From Q &#60;3	false		
113-4724194-3688224	39472431891274	2020-11-07T01:20:19+00:00	2020-11-06T17:20:19-08:00	2020-11-07T01:50:45+00:00	2020-11-11T07:59:59+00:00	-4	xhl7x7ybs6d2mhn@marketplace.amazon.com	N.Allen	+1 480-618-5344 ext. 36233	ABR0022	Delivery by Tuesday | Arabella Farm Direct Bouquet of 12 Fresh Cut Pink Roses with a Free Glass Vase	1	0	1	Expedited	Nicholas Hatch	5065 37th St NE			TACOMA	WA	98422	US			false		
112-5268033-1386619	30709979917082	2020-11-07T01:22:43+00:00	2020-11-06T17:22:43-08:00	2020-11-07T01:51:31+00:00	2020-11-11T07:59:59+00:00	-4	drv7t5rlcs4g7yq@marketplace.amazon.com	Linda	+1 602-671-6610 ext. 50040	ABR0033	Delivery by Tuesday | Arabella Farm Direct Bouquet of 12 Fresh Cut Orange Roses with a Free Glass Vase	1	0	1	Expedited	Diane See	4411 Paola Wy			San Diego	Ca	92117	US		We are so very sorry for your loss. We love you precious lady!! From Steve & Linda	false		
114-0626936-1377005	32881187752450	2020-11-07T01:40:31+00:00	2020-11-06T17:40:31-08:00	2020-11-07T02:02:03+00:00	2020-11-11T07:59:59+00:00	-4	q4phr8gw602c90w@marketplace.amazon.com	Gabe Berkowitz	+1 480-618-5344 ext. 51604	ABM022	Delivery by Tuesday | Purple Extravagance Bouquet by Arabella Bouquets	1	0	1	Expedited	Judy Caffentzis	16560 SAGAMORE BRIDGE WAY			DELRAY BEACH	FL	33446-9673	US		THANK YOU FOR EVERYTHING!  LOVE, ROBYN From ROBYN BERKOWITZ	false		
114-4634276-6321828	38794806855162	2020-11-07T01:50:07+00:00	2020-11-06T17:50:07-08:00	2020-11-07T02:15:56+00:00	2020-11-11T07:59:59+00:00	-4	67m2kkzxkp18j6m@marketplace.amazon.com	Jeff Ross	+1 929-436-4790 ext. 65407	ABM024	Delivery by Tuesday | The Beauty of Color Bouquet by Arabella Bouquets	1	0	1	Expedited	Ryan Haddorff	1828 RED FOX RD			EAGAN	MN	55122-1157	US		Hi Ryan, Beth and I are deeply saddened to hear about the passing of Jill recently. Our hearts break for you. We're praying for you and your family. From Jeff and Beth Ross	false		
113-8697775-6194628	68007493511954	2020-11-07T01:48:24+00:00	2020-11-06T17:48:24-08:00	2020-11-07T02:18:23+00:00	2020-11-11T07:59:59+00:00	-4	rpr7btz5dq7fs9n@marketplace.amazon.com	Christina Anne Davila	+1 602-671-6610 ext. 90836	ABR0022	Delivery by Tuesday | Arabella Farm Direct Bouquet of 12 Fresh Cut Pink Roses with a Free Glass Vase	1	0	1	Expedited	Jennifer poon	109 COLUMBIA AVE			METUCHEN	NJ	08840-1305	US		Happy birthday Jen! Love you!! Love Christina and family From Christina Anne Davila	false		
114-8921910-7655457	10596421237874	2020-11-07T02:01:01+00:00	2020-11-06T18:01:01-08:00	2020-11-07T02:27:58+00:00	2020-11-11T07:59:59+00:00	-4	q8cncd5wqnh2xrn@marketplace.amazon.com	Marianne Paulus	+1 480-618-5344 ext. 92687	ABR0022	Delivery by Tuesday | Arabella Farm Direct Bouquet of 12 Fresh Cut Pink Roses with a Free Glass Vase	1	0	1	Expedited	Dawn Firestine	4001 ASPEN LEAF WAY			VALRICO	FL	33596-7273	US		Dear Dawn, we hope these will cheer you and let you know how much we love you and are praying for you. Feel better soon! Lots of love, Bob & Marianne From Marianne Paulus	false		
112-9499056-7365838	38340227308778	2020-11-07T02:15:25+00:00	2020-11-06T18:15:25-08:00	2020-11-07T02:44:51+00:00	2020-11-11T07:59:59+00:00	-4	5szm1sknxfjg1v7@marketplace.amazon.com	RICHARD HARDY	+1 213-442-1463 ext. 63180	ABR012	Delivery by Tuesday | Arabella Farm Direct Bouquet of 18 Fresh Cut Pink Roses with a Free Glass Vase	1	0	1	Expedited	LENNY REID	638 HILL ST APT 1			INGLEWOOD	CA	90302-7281	US			false		
114-3922832-7761020	68716243118450	2020-11-07T02:43:47+00:00	2020-11-06T18:43:47-08:00	2020-11-07T03:09:47+00:00	2020-11-11T07:59:59+00:00	-4	gk9pzrmb1xzm6w4@marketplace.amazon.com	Jerry Massa	+1 602-671-6610 ext. 20552	ABM002	Delivery by Tuesday | Arabella Bouquets Fresh Cut White Calla Lilies in a Free Designer Glass Vase	1	0	1	Expedited	Dawn Joyce	6376 N VUELTA TAJO			TUCSON	AZ	85718-2244	US		HAPPY BIRTHDAY DAWN!!! Enjoy your day. Wish I was there celebrating with you on such a special birthday. Love you very much Lynda	false		
113-3505452-6869824	15615770615642	2020-11-07T03:01:54+00:00	2020-11-06T19:01:54-08:00	2020-11-07T03:29:43+00:00	2020-11-11T07:59:59+00:00	-4	p373qglmv4pvm3z@marketplace.amazon.com	Thaddeus	+1 929-436-4790 ext. 69866	ABR0022	Delivery by Tuesday | Arabella Farm Direct Bouquet of 12 Fresh Cut Pink Roses with a Free Glass Vase	1	0	1	Expedited	Beth Boyce	805 WASHINGTON ST			WILLIAMSTON	NC	27892-2649	US			false		
112-8419941-4480224	42295273608770	2020-11-07T02:58:34+00:00	2020-11-06T18:58:34-08:00	2020-11-07T03:30:39+00:00	2020-11-11T07:59:59+00:00	-4	0v2swkzzzll3j0w@marketplace.amazon.com	Kelly Clark	+1 602-671-6610 ext. 72327	ABM010	Delivery by Tuesday | The Spring Fling Bouquet by Arabella Bouquets with a Free Designer Glass Vase	1	0	1	Expedited	Diana Thurston	113 CAPOTE DR			HARVEST	AL	35749-8240	US		Enjoy this gift of sunshine! From Love James, Kelly, Josh, Elizabeth, and Willow too.	false		
114-4057834-9134626	35833826636594	2020-11-07T03:08:29+00:00	2020-11-06T19:08:29-08:00	2020-11-07T03:36:18+00:00	2020-11-11T07:59:59+00:00	-4	6bmslqqt0vtg4fl@marketplace.amazon.com	Crystal K. Carrigan	+1 619-854-2705 ext. 29254	ABM010	Delivery by Tuesday | The Spring Fling Bouquet by Arabella Bouquets with a Free Designer Glass Vase	1	0	1	Expedited	Sam Navarro	8019 173RD AVE E			SUMNER	WA	98390-2542	US		Thinking of you and your family during this difficult time. From Crystal	false		
111-7581358-7130606	07039277960458	2020-11-07T03:35:33+00:00	2020-11-06T19:35:33-08:00	2020-11-07T04:06:11+00:00	2020-11-11T07:59:59+00:00	-4	sb25d7w4912rwxs@marketplace.amazon.com	Diane L. Smith	+1 480-618-5344 ext. 08759	ABR0022	Delivery by Tuesday | Arabella Farm Direct Bouquet of 12 Fresh Cut Pink Roses with a Free Glass Vase	1	0	1	Expedited	Diane Smith	5443 Wooded Way			Columbia	MD	21044-5722	US			false		
112-4809255-6343401	66054730360570	2020-11-07T03:38:59+00:00	2020-11-06T19:38:59-08:00	2020-11-07T04:06:46+00:00	2020-11-11T07:59:59+00:00	-4	y0fy8bvt7q984zm@marketplace.amazon.com	Renee Kaye	+1 619-854-2705 ext. 31013	ABR0022	Delivery by Tuesday | Arabella Farm Direct Bouquet of 12 Fresh Cut Pink Roses with a Free Glass Vase	1	0	1	Expedited	Ellen Ringer	1053 E KENSINGTON AVE			SALT LAKE CITY	UT	84105-2403	US		Happy BDay.  Wish I was there to celebrate with  You. From Renee Kaye	false		
112-0493925-5424251	30407725682002	2020-11-07T03:45:40+00:00	2020-11-06T19:45:40-08:00	2020-11-07T04:13:55+00:00	2020-11-11T07:59:59+00:00	-4	fdn5vygb8vf2hqp@marketplace.amazon.com	C.Bollinger	+1 602-671-6610 ext. 12523	ABM020	Delivery by Tuesday | The Sunset Bouquet by Arabella Bouquets	1	0	1	Expedited	Tina Bollinger Brown	3030 INDIGO TRL			ROUND ROCK	TX	78665-6298	US		Feel better soon!💕❤️💕 From Bill and Coleen	false		
112-1376244-9337831	02997498302514	2020-11-07T04:07:01+00:00	2020-11-06T20:07:01-08:00	2020-11-07T04:34:43+00:00	2020-11-11T07:59:59+00:00	-4	h1xy27zs51g12wl@marketplace.amazon.com	Maria Senior	+1 602-671-6610 ext. 16768	ABR0022	Delivery by Tuesday | Arabella Farm Direct Bouquet of 12 Fresh Cut Pink Roses with a Free Glass Vase	1	0	1	Expedited	Heather  Senior	112 ROSEMARY LN			CENTEREACH	NY	11720-4411	US		Dear Heather, We hope you have a speedy recovery and are pain free! Love, Charlie and Maria From Charlie and Maria Senior	false		
112-0140955-3068237	00103127782450	2020-11-07T04:22:11+00:00	2020-11-06T20:22:11-08:00	2020-11-07T04:46:53+00:00	2020-11-11T07:59:59+00:00	-4	csw1qycwnr4z4dv@marketplace.amazon.com	David Mize	+1 602-671-6610 ext. 42101	ABR0066	Arabella Bouquets 12 Stems of Fresh Cut White Roses in a Free Designer Glass Vase	1	0	1	Expedited	Robert and Louise Salazar	10377 PEACH AVE			HESPERIA	CA	92345-5478	US		We are so proud of you two! Happy 5th.  Here's to many more! From The Mizes	false		
113-9836860-8290637	41467411137066	2020-11-07T04:22:14+00:00	2020-11-06T20:22:14-08:00	2020-11-07T04:49:54+00:00	2020-11-11T07:59:59+00:00	-4	z4tty609nhdr02q@marketplace.amazon.com	Lisa Hilke	+1 480-618-5344 ext. 72927	ABR0022	Delivery by Tuesday | Arabella Farm Direct Bouquet of 12 Fresh Cut Pink Roses with a Free Glass Vase	1	0	1	Expedited	Armando Ornelas	507 S Q ST			LIVERMORE	CA	94550-4219	US		We are so sorry for your loss. Zoey had the best life with all the love both of you have her. We love you both so much!! From Lisa and Mando	false		
111-0818903-3645009	03199411493642	2020-11-07T04:49:16+00:00	2020-11-06T20:49:16-08:00	2020-11-07T05:12:54+00:00	2020-11-11T07:59:59+00:00	-4	nq58fbw3y8mqcbr@marketplace.amazon.com	Pati M. Crofut	+1 213-442-1463 ext. 09415	ABM0044	Delivery by Tuesday | Arabella Farm Direct Bouquet of Fresh Cut Blue Hydrangea with a Free Glass Vase	1	0	1	Expedited	Lauren Hedge	11737 TAMMY WAY			GRASS VALLEY	CA	95949-6625	US		Happy Birthday and CONGRATULATIONS!!! I am so excited for you both. I wish you a lifetime of happiness, love, excitement, and adventure. Just a small "something blue" for both of your special days. Love you! From Q	false		
113-4087247-0122660	52823355119514	2020-11-07T05:25:10+00:00	2020-11-06T21:25:10-08:00	2020-11-07T05:38:44+00:00	2020-11-11T07:59:59+00:00	-4	y1ds2tdkjtd6ps7@marketplace.amazon.com	Pablo	+1 415-851-9136 ext. 84241	ABM020	Delivery by Tuesday | The Sunset Bouquet by Arabella Bouquets	1	0	1	Expedited	Rufina Ventura	4977 AVERY RD LOT 15 43016			DUBLIN	OH	43016-9671	US		Buenos Días , qué  tenga un hermoso e bello día !! Espero que pronto se sienta mejor! From Pablo	false		
113-4261082-4335419	41841718553898	2020-11-07T05:34:04+00:00	2020-11-06T21:34:04-08:00	2020-11-07T05:55:37+00:00	2020-11-11T07:59:59+00:00	-4	szb3p7br9k7d08f@marketplace.amazon.com	parrilla,luz	+1 602-671-6610 ext. 93749	ABR0022	Delivery by Tuesday | Arabella Farm Direct Bouquet of 12 Fresh Cut Pink Roses with a Free Glass Vase	1	0	1	Expedited	Louella Fernandez	12350 CHRISTENSEN RD SPC 116			SALINAS	CA	93907-1689	US		Hello Ta, Wishing you a long, happy and healthy life!!! Happy Birthday! May God bless you always!!! From parrilla,luz	false		
112-9723190-9311436	42605290591882	2020-11-07T05:33:51+00:00	2020-11-06T21:33:51-08:00	2020-11-07T06:04:22+00:00	2020-11-11T07:59:59+00:00	-4	gpv143kmrrtpmfd@marketplace.amazon.com	Gurminder singh	+1 619-854-2705 ext. 20197	ABR0022	Delivery by Tuesday | Arabella Farm Direct Bouquet of 12 Fresh Cut Pink Roses with a Free Glass Vase	1	0	1	Expedited	Roohipreet Gill	27 PICKWICK DR S			HICKSVILLE	NY	11801-1856	US			false		
111-7300079-4791445	58606317764210	2020-11-07T05:53:59+00:00	2020-11-06T21:53:59-08:00	2020-11-07T06:23:21+00:00	2020-11-11T07:59:59+00:00	-4	gnzl6k0jfzvy0j5@marketplace.amazon.com	Taiwan Ginn	+1 480-618-5344 ext. 06722	ABR0022	Delivery by Tuesday | Arabella Farm Direct Bouquet of 12 Fresh Cut Pink Roses with a Free Glass Vase	1	0	1	Expedited	Carla Rivas	8339 OAKDALE AVE			WINNETKA	CA	91306-1437	US		Happy birthday ! We love you ! Hope you have a great day ! From The Ginn’s 💙	false		
113-7867858-7096244	51409323982370	2020-11-07T06:31:36+00:00	2020-11-06T22:31:36-08:00	2020-11-07T06:58:58+00:00	2020-11-11T07:59:59+00:00	-4	qt6sd31p27h6d09@marketplace.amazon.com	Wilfredo	+1 480-618-5344 ext. 45112	ABR0022	Delivery by Tuesday | Arabella Farm Direct Bouquet of 12 Fresh Cut Pink Roses with a Free Glass Vase	1	0	1	Expedited	Brooke Taylor	1603 W WALNUT ST APT M-204			ROGERS	AR	72756-4011	US		Happy Anniversary mi amor! Te amo con todo mi corazon. You are as beautiful and charming as ever. Happy 2 years! From Wilfredo	false		
114-4030285-7704236	50229574947930	2020-11-07T07:01:50+00:00	2020-11-06T23:01:50-08:00	2020-11-07T07:22:57+00:00	2020-11-11T07:59:59+00:00	-4	pxqt7qt4ndz4ymh@marketplace.amazon.com	Liesbeth Ramsay-Rauwerda	+1 213-442-1463 ext. 49167	ABR0022	Delivery by Tuesday | Arabella Farm Direct Bouquet of 12 Fresh Cut Pink Roses with a Free Glass Vase	1	0	1	Expedited	Toosje Potts	19 GREENSPRINGS DR			LAKEWOOD	NJ	08701-7380	US		Lieve Toosje wishing you a Happy and Healthy 80th Birthday 🧡 Have a fabulous celebration as best as you can! We will for sure Proost 🥂  on you in KL Lots of Love en kusjes from all of us xxxx From Liesbeth Ramsay-Rauwerda	false		
113-2493684-9219452	12389164821610	2020-11-04T21:58:13+00:00	2020-11-04T13:58:13-08:00	2020-11-07T07:36:14+00:00	2020-11-11T07:59:59+00:00	-4	4bnmzfkc76nc7pz@marketplace.amazon.com	Jenny M. Russell	+1 480-618-5344 ext. 36959	ABR0022	Delivery by Friday | Arabella Farm Direct Bouquet of 12 Fresh Cut Pink Roses with a Free Glass Vase	1	0	1	Expedited	Lauren Richards	1215 W HIGHWAY 101 TRLR 96			PORT ANGELES	WA	98363-9401	US		Thinking of you. I know how much you loved and miss your Sweet Boy, Liam.  Love you. From Jenny M. Russell	false		
111-2018555-8841059	46236189564098	2020-11-07T07:21:42+00:00	2020-11-06T23:21:42-08:00	2020-11-07T07:49:55+00:00	2020-11-11T07:59:59+00:00	-4	nn71r08zw5pmf6m@marketplace.amazon.com	Jenny Lancaster	+1 619-854-2705 ext. 70209	ABR0022	Delivery by Tuesday | Arabella Farm Direct Bouquet of 12 Fresh Cut Pink Roses with a Free Glass Vase	1	0	1	Expedited	Lyn Walker	3131 CRESTBROOKE DR			ZEELAND	MI	49464-6829	US		Your music is an integral part of my faith walk.  It accompanies me and lifts me up.  Thank you for these songs so firmly in my heart.  - Jenny From Jenny Lancaster	false		
111-0082434-5013849	37953973698378	2020-11-07T08:56:59+00:00	2020-11-07T00:56:59-08:00	2020-11-07T09:19:04+00:00	2020-11-11T07:59:59+00:00	-4	mb6xj4rk83n6tc3@marketplace.amazon.com	Mahdi Tondar	+1 602-671-6610 ext. 03728	ABR001	Delivery by Tuesday | Arabella Bouquets 12 Stems of Fresh Cut Red Roses in a Free Designer Glass Vase	1	0	1	Expedited	Shadi Aghaghazvini	816 FOUNTAINHEAD			IRVINE	CA	92618-0809	US		شادی🥰😍😘 From آبتین	false		
112-8923506-3050669	26741486376970	2020-11-07T10:36:19+00:00	2020-11-07T02:36:19-08:00	2020-11-07T11:04:16+00:00	2020-11-11T07:59:59+00:00	-4	cw5pq2yz0zzgdjr@marketplace.amazon.com	Genevieve Frankford	+1 602-671-6610 ext. 13660	ABM0033	Delivery by Wednesday | Arabella Farm Direct Bouquet of Fresh Cut White Hydrangea with a Free Glass Vase	1	0	1	Expedited	Bradley Frankford	1000 VIEW DR UNIT 1313			WOODSTOCK	GA	30189-5306	US		I thought my snoot deserves to enjoy some flowers in his environment too, to snorf in passing. I love you, my husband <3  <3 <3 From Your Blackoon	false		
114-8848908-4705806	61520903408090	2020-11-07T11:41:49+00:00	2020-11-07T03:41:49-08:00	2020-11-07T12:12:20+00:00	2020-11-11T07:59:59+00:00	-4	j3r2pgshy97x8fy@marketplace.amazon.com	kevin jerome bland	+1 602-671-6610 ext. 35736	ABR004	Delivery by Wednesday | Arabella Farm Direct Bouquet of 12 Fresh Cut Yellow Roses with a Free Glass Vase	1	0	1	Expedited	kevin jerome bland	447 NORWICH WESTERLY RD			NORTH STONINGTON	CT	06359-1516	US			false		
114-4879572-1061044	11982502145010	2020-11-07T11:51:12+00:00	2020-11-07T03:51:12-08:00	2020-11-07T12:19:38+00:00	2020-11-11T07:59:59+00:00	-4	612fphbl6tvyyl5@marketplace.amazon.com	muzaffer hassan	07895926746	ABR001	Delivery by Tuesday | Arabella Bouquets 12 Stems of Fresh Cut Red Roses in a Free Designer Glass Vase	1	0	1	Expedited	Amy Restivo	278 S UNION ST			SPENCERPORT	NY	14559-1404	US		I love You Amy and I'm sorry. From muzaffer hassan	false		
113-1031975-7016217	14259637149874	2020-11-07T12:00:09+00:00	2020-11-07T04:00:09-08:00	2020-11-07T12:29:51+00:00	2020-11-11T07:59:59+00:00	-4	p6t187nqcxyqqsg@marketplace.amazon.com	Brandon Galeano	+1 480-618-5344 ext. 93237	ABR0022	Delivery by Tuesday | Arabella Farm Direct Bouquet of 12 Fresh Cut Pink Roses with a Free Glass Vase	1	0	1	Expedited	Alex Guillot	61 PRESSEY ST			HAMMONTON	NJ	08037-1423	US			false		
113-0333887-4688231	13289141415618	2020-11-07T12:47:29+00:00	2020-11-07T04:47:29-08:00	2020-11-07T13:13:19+00:00	2020-11-11T07:59:59+00:00	-4	xwnmpwqhpg4qg8k@marketplace.amazon.com	Rosie Rosario	+1 619-854-2705 ext. 13818	ABR0055	Delivery by Tuesday | Arabella Farm Direct Bouquet of 12 Stems of Fresh Cut Hot Pink Roses in a Free Designer Glass Vase	1	0	1	Expedited	Erica Rosario	HUDSON FLORIDA	16345 VINE CLIFF AVE		HUDSON	FL	34667-7526	US		Happy 32 birthday to My sister, My best friend ! The first birthday I can’t spend physically with you . The roses symbolize my presence near you at all times. I Love you !! Rose, Kyze, Mommy and Ethan💗 From Rosie Rosario	false		
113-4060989-1321846	36912389576018	2020-11-07T13:24:29+00:00	2020-11-07T05:24:29-08:00	2020-11-07T13:54:33+00:00	2020-11-11T07:59:59+00:00	-4	bnhprs19rxrl6f3@marketplace.amazon.com	Jill A Salzman	+1 929-436-4790 ext. 40330	ABM022	Delivery by Tuesday | Purple Extravagance Bouquet by Arabella Bouquets	1	0	1	Expedited	Dad #1 Salzman	5805 ROSE AVE			WAUSAU	WI	54401-7627	US		Dad, thinking of you...we’re so sorry that you had a tough day, thanks for calling us. You’ve taught us that life is a gift and to lift it up in joy, I hope this brings you just that. Love you, God Bless you. Jill and Lori From Jill A Salzman	false		
112-7895526-8823468	03332067134058	2020-11-07T13:41:43+00:00	2020-11-07T05:41:43-08:00	2020-11-07T14:05:38+00:00	2020-11-11T07:59:59+00:00	-4	hznwpmby97t0xj9@marketplace.amazon.com	Kerem	+1 213-442-1463 ext. 27560	ABR0022	Delivery by Tuesday | Arabella Farm Direct Bouquet of 12 Fresh Cut Pink Roses with a Free Glass Vase	1	0	1	Expedited	Olivia Morrison	5597 SEMINARY RD APT 2309S			FALLS CHURCH	VA	22041-2921	US		Emjoi the care package :) From K	false		
111-8016176-4389864	12629008769290	2020-11-07T13:45:06+00:00	2020-11-07T05:45:06-08:00	2020-11-07T14:08:36+00:00	2020-11-11T07:59:59+00:00	-4	8r7395mgh68xvj6@marketplace.amazon.com	mohammad	+1 213-442-1463 ext. 41318	ABR0066	Delivery by Wednesday | Arabella Bouquets 12 Stems of Fresh Cut White Roses in a Free Designer Glass Vase	1	0	1	Expedited	Hamid Behzad	311 W MAUDE AVE APT D			SUNNYVALE	CA	94085-4358	US		We are so sorry to hear about your father's passing. We hope that the love of family and friends will comfort and strengthen you in the days ahead From Masih family	false		
113-8484499-3970644	30472462862170	2020-11-07T13:58:45+00:00	2020-11-07T05:58:45-08:00	2020-11-07T14:28:05+00:00	2020-11-11T07:59:59+00:00	-4	g79011kdqt8l4md@marketplace.amazon.com	staner	+1 619-854-2705 ext. 99242	ABR0022	Delivery by Tuesday | Arabella Farm Direct Bouquet of 12 Fresh Cut Pink Roses with a Free Glass Vase	1	0	1	Expedited	THOMAS STANER	1183 GREYSTONE CRST			BIRMINGHAM	AL	35242-7006	US			false		
113-5349058-7194645	32247540832690	2020-11-07T13:59:08+00:00	2020-11-07T05:59:08-08:00	2020-11-07T14:29:09+00:00	2020-11-11T07:59:59+00:00	-4	gz9btm7w8x0766x@marketplace.amazon.com	Kathryn Ruppel	+1 619-854-2705 ext. 45788	ABR0066	Delivery by Wednesday | Arabella Bouquets 12 Stems of Fresh Cut White Roses in a Free Designer Glass Vase	1	0	1	Expedited	Doris Keeling	2560 S FEDERAL HWY APT 12			BOYNTON BEACH	FL	33435-7712	US			false		
111-8601502-0384239	45977361903314	2020-11-07T14:04:21+00:00	2020-11-07T06:04:21-08:00	2020-11-07T14:31:13+00:00	2020-11-11T07:59:59+00:00	-4	r1zr3hsqhsm4l6q@marketplace.amazon.com	Adriana Chaviano Albrecht	+1 602-671-6610 ext. 53993	ABR0033	Delivery by Tuesday | Arabella Farm Direct Bouquet of 12 Fresh Cut Orange Roses with a Free Glass Vase	1	0	1	Expedited	Kristi Marcelle	142 ARBOR DR			PIEDMONT	CA	94610-1012	US		Happy 50th Birthday! Big kisses on the lips. XOXO From Adriana	false		
