order-id	order-item-id	purchase-date	payments-date	reporting-date	promise-date	days-past-promise	buyer-email	buyer-name	buyer-phone-number	sku	product-name	quantity-purchased	quantity-shipped	quantity-to-ship	ship-service-level	recipient-name	ship-address-1	ship-address-2	ship-address-3	ship-city	ship-state	ship-postal-code	ship-country	gift-wrap-type	gift-message-text	is-business-order	purchase-order-number	price-designation
112-1555918-5269846	02160552449506	2020-11-06T17:32:53+00:00	2020-11-06T09:32:53-08:00	2020-11-06T17:40:18+00:00	2020-11-11T07:59:59+00:00	-2	pbgl8dj2v99ymq3@marketplace.amazon.com	MICHAEL MELKOVIC	+1 602-671-6610 ext. 34541	ABM022	Delivery by Saturday | Purple Extravagance Bouquet by Arabella Bouquets	1	0	1	Expedited	JOAN NICOL	4 INDIGO RUN DR APT 1421			HILTON HEAD ISLAND	SC	29926-4114	US		Happy Happy Happiest of birthdays to you!!!!!   Only wish I were there to help celebrate!   You're an amazing giving and beautiful woman and I love you so so much.  Happy Birthday MOM!!!!       - Michael From MICHAEL MELKOVIC	false		
111-3440998-7739439	52920314117874	2020-11-06T17:41:01+00:00	2020-11-06T09:41:01-08:00	2020-11-06T18:08:06+00:00	2020-11-11T07:59:59+00:00	-2	dx75ylb5d4bvf4w@marketplace.amazon.com	enid	+1 213-442-1463 ext. 06175	ABR0022	Delivery by Saturday | Arabella Farm Direct Bouquet of 12 Fresh Cut Pink Roses with a Free Glass Vase	1	0	1	Expedited	Sehbaz Sabri	6277 THORNAPPLE VALLEY DR			HASTINGS	MI	49058-8285	US		Enjoy your gift! and hope you both are feeling better ,love Mom and Shiel. From enid	false		
113-1254970-1466601	40232863605242	2020-11-06T18:53:01+00:00	2020-11-06T10:53:01-08:00	2020-11-06T19:21:40+00:00	2020-11-11T07:59:59+00:00	-2	m5g4wvltdbgz0s4@marketplace.amazon.com	Elizabeth Andrews	+1 619-854-2705 ext. 07637	ABM022	Delivery by Tuesday | Purple Extravagance Bouquet by Arabella Bouquets	1	0	1	Expedited	Erica Andrews	17413 42ND AVE SE			BOTHELL	WA	98012-7630	US		Hope your recovery goes smoothly - we'll see you soon! Sending love and best wishes, Gramma and Papa From Elizabeth Andrews	false		
112-0305661-8700214	50151768952202	2020-11-06T20:03:00+00:00	2020-11-06T12:03:00-08:00	2020-11-06T20:31:59+00:00	2020-11-11T07:59:59+00:00	-2	l4tn8hksxq08279@marketplace.amazon.com	maureen connelly	+1 480-618-5344 ext. 99842	ABR004	Delivery by Tuesday | Arabella Farm Direct Bouquet of 12 Fresh Cut Yellow Roses with a Free Glass Vase	1	0	1	Expedited	Youmans/ LoGiudice	1212 TROUT CREEK CIR			LONGMONT	CO	80504-2298	US			false		
111-4900458-2908214	10299061702122	2020-11-06T22:34:40+00:00	2020-11-06T14:34:40-08:00	2020-11-06T23:03:38+00:00	2020-11-11T07:59:59+00:00	-2	61gn81p5jgxtjct@marketplace.amazon.com	Kay L. Bemis	+1 602-671-6610 ext. 36124	ABM022	Delivery by Tuesday | Purple Extravagance Bouquet by Arabella Bouquets	1	0	1	Expedited	Kay l bemis	8753 MCCARTY RANCH DR			SAN JOSE	CA	95135-2158	US		Because our amazing Dad would want you to have flowers this week.  We love you to the moon and back! From Love Gwen and Debbie	false		
112-2621803-6748254	06769109025410	2020-11-06T22:58:33+00:00	2020-11-06T14:58:33-08:00	2020-11-06T23:26:31+00:00	2020-11-11T07:59:59+00:00	-2	pk959g0c5kk457y@marketplace.amazon.com	anna	+1 213-442-1463 ext. 73691	ABM010	Delivery by Tuesday | The Spring Fling Bouquet by Arabella Bouquets with a Free Designer Glass Vase	1	0	1	Expedited	Carmen Morales and Luis Morales	1954 ARCADIA CT			SALINAS	CA	93906-5415	US		Happy Birthday. Enjoy your gift! 🧁💐🌸🥀🌼🌻🤗😄👍 Love,  Anna,Tila and Jesse From anna	false		
111-4043068-0268213	49335330723586	2020-11-06T18:40:27+00:00	2020-11-06T10:40:27-08:00	2020-11-07T00:39:41+00:00	2020-11-11T07:59:59+00:00	-2	6gbjy70ykt4p906@marketplace.amazon.com	Amber Redden	+1 213-442-1463 ext. 30644	ABM022	Delivery by Tuesday | Purple Extravagance Bouquet by Arabella Bouquets	1	0	1	Expedited	Denise Asplund	53 MILTON ST			SAN FRANCISCO	CA	94112-1427	US			false		
113-6953202-6349008	51888084629618	2020-11-07T00:37:54+00:00	2020-11-06T16:37:54-08:00	2020-11-07T01:07:33+00:00	2020-11-11T07:59:59+00:00	-2	xkjjsvx6zrf0cqh@marketplace.amazon.com	Sarah Conquest	+1 213-442-1463 ext. 69557	ABM022	Delivery by Tuesday | Purple Extravagance Bouquet by Arabella Bouquets	1	0	1	Expedited	Martha Brogan	5522 PINE OAK CT			FORT WAYNE	IN	46835-4610	US		Happy birthday! Can’t wait to see you in a few weeks. Penny picked out these purple flowers just for you. We love you. From Sarah, Joe, Penny, Porter	false		
114-3071191-3691437	27189749233002	2020-11-07T00:52:58+00:00	2020-11-06T16:52:58-08:00	2020-11-07T01:17:47+00:00	2020-11-11T07:59:59+00:00	-2	nj34ztkg99rzx3l@marketplace.amazon.com	Jamie Cottle	+1 213-442-1463 ext. 53881	ABM020	Delivery by Tuesday | The Sunset Bouquet by Arabella Bouquets	1	0	1	Expedited	Nancy Frank	12835 MERIDIAN AVE N			SEATTLE	WA	98133-7858	US		Sorry to hear about Millie. Flowers can’t make up for a lifetime with her, but hopefully they bring you some joy. Thinking of you.   Love you From Lizzy & Jamie From Lizzy & Jamie	false		
111-1451934-5913058	04283500142426	2020-11-07T01:22:28+00:00	2020-11-06T17:22:28-08:00	2020-11-07T01:50:14+00:00	2020-11-11T07:59:59+00:00	-2	f0pm0tlg7qr9n4h@marketplace.amazon.com	JayQ Craft	+1 602-671-6610 ext. 94621	ABR0022	Delivery by Tuesday | Arabella Farm Direct Bouquet of 12 Fresh Cut Pink Roses with a Free Glass Vase	1	0	1	Expedited	Nyah Coulter	155 SUSAN LN			FAYETTEVILLE	GA	30215-2055	US		Hey, hit me when you get these. I hope you smiled. Miss ya From Q &#60;3	false		
113-3505452-6869824	15615770615642	2020-11-07T03:01:54+00:00	2020-11-06T19:01:54-08:00	2020-11-07T03:29:43+00:00	2020-11-11T07:59:59+00:00	-2	p373qglmv4pvm3z@marketplace.amazon.com	Thaddeus	+1 929-436-4790 ext. 69866	ABR0022	Delivery by Tuesday | Arabella Farm Direct Bouquet of 12 Fresh Cut Pink Roses with a Free Glass Vase	1	0	1	Expedited	Beth Boyce	805 WASHINGTON ST			WILLIAMSTON	NC	27892-2649	US			false		
112-8419941-4480224	42295273608770	2020-11-07T02:58:34+00:00	2020-11-06T18:58:34-08:00	2020-11-07T03:30:39+00:00	2020-11-11T07:59:59+00:00	-2	0v2swkzzzll3j0w@marketplace.amazon.com	Kelly Clark	+1 602-671-6610 ext. 72327	ABM010	Delivery by Tuesday | The Spring Fling Bouquet by Arabella Bouquets with a Free Designer Glass Vase	1	0	1	Expedited	Diana Thurston	113 CAPOTE DR			HARVEST	AL	35749-8240	US		Enjoy this gift of sunshine! From Love James, Kelly, Josh, Elizabeth, and Willow too.	false		
114-4057834-9134626	35833826636594	2020-11-07T03:08:29+00:00	2020-11-06T19:08:29-08:00	2020-11-07T03:36:18+00:00	2020-11-11T07:59:59+00:00	-2	6bmslqqt0vtg4fl@marketplace.amazon.com	Crystal K. Carrigan	+1 619-854-2705 ext. 29254	ABM010	Delivery by Tuesday | The Spring Fling Bouquet by Arabella Bouquets with a Free Designer Glass Vase	1	0	1	Expedited	Sam Navarro	8019 173RD AVE E			SUMNER	WA	98390-2542	US		Thinking of you and your family during this difficult time. From Crystal	false		
111-8016176-4389864	12629008769290	2020-11-07T13:45:06+00:00	2020-11-07T05:45:06-08:00	2020-11-07T14:08:36+00:00	2020-11-11T07:59:59+00:00	-2	8r7395mgh68xvj6@marketplace.amazon.com	mohammad	+1 213-442-1463 ext. 41318	ABR0066	Delivery by Wednesday | Arabella Bouquets 12 Stems of Fresh Cut White Roses in a Free Designer Glass Vase	1	0	1	Expedited	Hamid Behzad	311 W MAUDE AVE APT D			SUNNYVALE	CA	94085-4358	US		We are so sorry to hear about your father's passing. We hope that the love of family and friends will comfort and strengthen you in the days ahead From Masih family	false		
111-8601502-0384239	45977361903314	2020-11-07T14:04:21+00:00	2020-11-07T06:04:21-08:00	2020-11-07T14:31:13+00:00	2020-11-11T07:59:59+00:00	-2	r1zr3hsqhsm4l6q@marketplace.amazon.com	Adriana Chaviano Albrecht	+1 602-671-6610 ext. 53993	ABR0033	Delivery by Tuesday | Arabella Farm Direct Bouquet of 12 Fresh Cut Orange Roses with a Free Glass Vase	1	0	1	Expedited	Kristi Marcelle	142 ARBOR DR			PIEDMONT	CA	94610-1012	US		Happy 50th Birthday! Big kisses on the lips. XOXO From Adriana	false		
113-6358497-3182601	13756695660762	2020-11-07T14:56:38+00:00	2020-11-07T06:56:38-08:00	2020-11-07T15:24:48+00:00	2020-11-11T07:59:59+00:00	-2	yzc9spsjzwhqj0d@marketplace.amazon.com	Julane M. Hill	+1 480-618-5344 ext. 16810	ABM010	Delivery by Tuesday | The Spring Fling Bouquet by Arabella Bouquets with a Free Designer Glass Vase	2	1	1	Expedited	Pat Mohr	1133 ORLANDO DR			GREEN BAY	WI	54304-4324	US			false		
111-7022605-1063450	04198011974570	2020-11-07T15:45:50+00:00	2020-11-07T07:45:50-08:00	2020-11-07T16:11:31+00:00	2020-11-11T07:59:59+00:00	-2	slkqmjskjjgns66@marketplace.amazon.com	Michelle Veerasawmy-Dunbar	+1 415-851-9136 ext. 80070	ABM010	Delivery by Tuesday | The Spring Fling Bouquet by Arabella Bouquets with a Free Designer Glass Vase	1	0	1	Expedited	Simone Dunbar	1622 BOULDER WALK DR SE			ATLANTA	GA	30316-3984	US		Happy Birthday Sis! We love you!   Kris & Michelle From Michelle Veerasawmy-Dunbar	false		
112-9545686-5123415	11423910402858	2020-11-07T16:28:53+00:00	2020-11-07T08:28:53-08:00	2020-11-07T16:58:08+00:00	2020-11-11T07:59:59+00:00	-2	xmscndtqlzq76xx@marketplace.amazon.com	Morgan	+1 480-618-5344 ext. 67674	ABR0033	Delivery by Tuesday | Arabella Farm Direct Bouquet of 12 Fresh Cut Orange Roses with a Free Glass Vase	1	0	1	Expedited	Kala Clontz	1108 GUNTER AVE			GUNTERSVILLE	AL	35976-1524	US		Kala, We are thinking about you and pray that you get better very soon.  Hopefully these flowers bring you a little "happy" while you are recovering.   Love, Casey and Morgan From Casey Rigsby and family	false		
112-6064692-2918668	25235152557338	2020-11-07T17:30:01+00:00	2020-11-07T09:30:01-08:00	2020-11-07T17:56:08+00:00	2020-11-11T07:59:59+00:00	-2	1fklypq9hb95dpj@marketplace.amazon.com	Tom Lusk	+1 929-436-4790 ext. 21124	ABM022	Delivery by Tuesday | Purple Extravagance Bouquet by Arabella Bouquets	1	0	1	Expedited	John & Barbara Lusk	5560 E EUCLID AVE			CENTENNIAL	CO	80121-3574	US		Happy Birthday Mom!!   Love from Texas,  Tom, Janet, Diane and Jenna From Tom Lusk	false		
112-4056865-3758638	28234121484930	2020-11-07T17:52:19+00:00	2020-11-07T09:52:19-08:00	2020-11-07T18:20:01+00:00	2020-11-11T07:59:59+00:00	-2	6xj9ljqwr23xwnt@marketplace.amazon.com	Irmgard Rauchhaus	+1 415-851-9136 ext. 02989	ABM010	Delivery by Tuesday | The Spring Fling Bouquet by Arabella Bouquets with a Free Designer Glass Vase	1	0	1	Expedited	FRANCES GILLILAND	451 CANNON GREEN DR APT D			GOLETA	CA	93117-2849	US			false		
112-3632375-0442663	66218669471522	2020-11-07T17:56:47+00:00	2020-11-07T09:56:47-08:00	2020-11-07T18:23:40+00:00	2020-11-11T07:59:59+00:00	-2	ynjjg9rblqr5553@marketplace.amazon.com	John Mangusi	+1 929-436-4790 ext. 61175	ABM010	Delivery by Tuesday | The Spring Fling Bouquet by Arabella Bouquets with a Free Designer Glass Vase	1	0	1	Expedited	Joanne Mangusi	6 COLONY GLEN DR			PLEASANTVILLE	NY	10570-1714	US		Happy Birthday Mom!  Since we are on the flower theme, i wanted to go a little different than mothers day.  Enjoy!  love, John From John Mangusi	false		
111-7526501-8246667	59031358145146	2020-11-07T18:02:30+00:00	2020-11-07T10:02:30-08:00	2020-11-07T18:28:50+00:00	2020-11-11T07:59:59+00:00	-2	9gywly7q8thylb4@marketplace.amazon.com	Kristin McCarthy	+1 415-851-9136 ext. 66141	ABM022	Delivery by Tuesday | Purple Extravagance Bouquet by Arabella Bouquets	1	0	1	Expedited	T. C Lefever	1909 VILLA PALMS CT UNIT 207			LAS VEGAS	NV	89128-2789	US		Shelle, Enjoy your gift! From Siri Denise Kristin and all the families. Happy to hear you are going home. Many prayers for your recovery. From Kristin McCarthy	false		
112-0230016-2385825	45074732496266	2020-11-07T18:08:37+00:00	2020-11-07T10:08:37-08:00	2020-11-07T18:31:25+00:00	2020-11-11T07:59:59+00:00	-2	60s4k9nqdbcj4cn@marketplace.amazon.com	Erika Lynn Quock	+1 602-671-6610 ext. 01387	ABR0022	Delivery by Tuesday | Arabella Farm Direct Bouquet of 12 Fresh Cut Pink Roses with a Free Glass Vase	1	0	1	Expedited	Jean Yeung	230 W 24TH PL 1FL			CHICAGO	IL	60616-2228	US		Happy Birthday, Mom!   Wishing you good health and happiness always! With love, From Ray, Erika and Jonathan	false		
113-7219925-9193036	33845642698690	2020-11-07T18:45:13+00:00	2020-11-07T10:45:13-08:00	2020-11-07T19:09:14+00:00	2020-11-11T07:59:59+00:00	-2	5rb07m3wdnfvlby@marketplace.amazon.com	Nuvo Love	+1 602-671-6610 ext. 40614	ABR0022	Delivery by Tuesday | Arabella Farm Direct Bouquet of 12 Fresh Cut Pink Roses with a Free Glass Vase	1	0	1	Expedited	Sancara Fertil	914 WIDEWATERS PKWY			KNIGHTDALE	NC	27545-7322	US			false		
114-1240544-6431427	08905143107946	2020-11-07T18:46:10+00:00	2020-11-07T10:46:10-08:00	2020-11-07T19:15:34+00:00	2020-11-11T07:59:59+00:00	-2	j9wn3fp3jr5wwp1@marketplace.amazon.com	Hayle	+1 480-618-5344 ext. 90064	ABR0022	Delivery by Tuesday | Arabella Farm Direct Bouquet of 12 Fresh Cut Pink Roses with a Free Glass Vase	1	0	1	Expedited	Hayle	16 HORMAN ST			NORTH BILLERICA	MA	01862-2337	US		Enjoy your gift! From Hayle	false		
113-9886958-5305048	02990895728722	2020-11-07T19:21:04+00:00	2020-11-07T11:21:04-08:00	2020-11-07T19:50:10+00:00	2020-11-11T07:59:59+00:00	-2	cs02yr90zbjlbpt@marketplace.amazon.com	Harriet	+1 213-442-1463 ext. 44603	ABM022	Delivery by Tuesday | Purple Extravagance Bouquet by Arabella Bouquets	1	0	1	Expedited	Dan Stevenson	20 CAMP PARKMAN RD			PHENIX CITY	AL	36869-3214	US		Congratulations!!! Much Love, Tim, Harriet, Ben, Nanny, Amy & Kitty-Kitty	false		
111-0936097-5521016	59042539219962	2020-11-07T19:32:23+00:00	2020-11-07T11:32:23-08:00	2020-11-07T19:50:23+00:00	2020-11-11T07:59:59+00:00	-2	1bhts99ymt59pp5@marketplace.amazon.com	Mohsin Abbas	001-425-326-0790	ABR001	Delivery by Tuesday | Arabella Bouquets 12 Stems of Fresh Cut Red Roses in a Free Designer Glass Vase	1	0	1	Expedited	Sharf Naz Magsi	3053 169TH AVE NE			BELLEVUE	WA	98008-2034	US		Happy Birthday, love you, hope we will be together soon. From Mohsin, Sana, Abdullah & Ahmed	false		
113-6368814-6604219	69968342916794	2020-11-07T19:24:46+00:00	2020-11-07T11:24:46-08:00	2020-11-07T19:51:22+00:00	2020-11-11T07:59:59+00:00	-2	p3t17b903jtk18v@marketplace.amazon.com	Judith Shapiro	+1 619-854-2705 ext. 57654	ABR0022	Delivery by Tuesday | Arabella Farm Direct Bouquet of 12 Fresh Cut Pink Roses with a Free Glass Vase	1	0	1	Expedited	Linda Smaith	10 MCVICKERS LN			MENDHAM	NJ	07945-2936	US		Dearest Lin! Wishing you a joyous birthday. We send you Pink Love! From Judith Shapiro	false		
111-9451046-4106608	32350778497410	2020-11-07T19:58:15+00:00	2020-11-07T11:58:15-08:00	2020-11-07T20:22:15+00:00	2020-11-11T07:59:59+00:00	-2	z49dj5js0tdhvww@marketplace.amazon.com	Karen Lombardi	+1 602-671-6610 ext. 53039	ABM022	Delivery by Tuesday | Purple Extravagance Bouquet by Arabella Bouquets	1	0	1	Expedited	debbie himes	36 ANDOVER ST			PITTSFIELD	MA	01201-7302	US			false		
112-7640214-3241844	58336950145586	2020-11-07T20:08:33+00:00	2020-11-07T12:08:33-08:00	2020-11-07T20:37:11+00:00	2020-11-11T07:59:59+00:00	-2	dh3yhjt06cb1v3r@marketplace.amazon.com	Susan	+1 602-671-6610 ext. 08250	ABR0022	Delivery by Tuesday | Arabella Farm Direct Bouquet of 12 Fresh Cut Pink Roses with a Free Glass Vase	1	0	1	Expedited	Susan W. Schneid	5219 LAKE CREST CIR			HOOVER	AL	35226-5084	US		Bob,  Happy anniversary!  I love you always. ❤️  Love,   Susan	false		
111-2687799-3360232	53451496210154	2020-11-07T21:28:09+00:00	2020-11-07T13:28:09-08:00	2020-11-07T21:52:37+00:00	2020-11-11T07:59:59+00:00	-2	qrxrcr6h0mnq16s@marketplace.amazon.com	Bonnie Altman	+1 415-851-9136 ext. 31928	ABM010	Delivery by Tuesday | The Spring Fling Bouquet by Arabella Bouquets with a Free Designer Glass Vase	1	0	1	Expedited	Mrs. Iris Zweiman	16 PATRIOTS WAY			SOMERSET	NJ	08873-7426	US		Happy birthday Iris! Here's to happier, healthier birthdays ahead, with many celebratory lunches, dinners, drinks and trips!!!! From Bonnie and David	false		
114-9801366-6007425	26462760480378	2020-11-07T21:25:47+00:00	2020-11-07T13:25:47-08:00	2020-11-07T21:54:36+00:00	2020-11-11T07:59:59+00:00	-2	b3tmdlsgfn10djl@marketplace.amazon.com	Sherry Turner	+1 480-618-5344 ext. 77838	ABR0033	Delivery by Tuesday | Arabella Farm Direct Bouquet of 12 Fresh Cut Orange Roses with a Free Glass Vase	1	0	1	Expedited	Susan Alabaster	150 DAVENPORT RD			ASHEVILLE	NC	28806-2957	US			false		
113-0489075-2648217	15432964844898	2020-11-07T21:37:14+00:00	2020-11-07T13:37:14-08:00	2020-11-07T21:57:13+00:00	2020-11-11T07:59:59+00:00	-2	rs3yrk0gpfstks2@marketplace.amazon.com	Norman Silverman	+1 213-442-1463 ext. 60504	ABR0022	Delivery by Tuesday | Arabella Farm Direct Bouquet of 12 Fresh Cut Pink Roses with a Free Glass Vase	1	0	1	Expedited	Bonnie Malin	9 OAKLAND AVE			GILFORD	NH	03249-7449	US		Our deepest Sympathy to you and your family.  Your mom was such a lovely lady From Norman and Evelyn	false		
113-9450146-7660229	06635013500186	2020-11-07T21:32:04+00:00	2020-11-07T13:32:04-08:00	2020-11-07T22:01:16+00:00	2020-11-11T07:59:59+00:00	-2	h17tshzvlmtq436@marketplace.amazon.com	Mary Helen Ranieri	+1 619-854-2705 ext. 56925	ABR0022	Delivery by Tuesday | Arabella Farm Direct Bouquet of 12 Fresh Cut Pink Roses with a Free Glass Vase	1	0	1	Expedited	Carla DiPlacido	84 TIMBERCREST DR			SEWELL	NJ	08080-3780	US		Get Well Carla! From The Clidy Group	false		
112-2902576-9113028	09649478534098	2020-11-07T21:34:36+00:00	2020-11-07T13:34:36-08:00	2020-11-07T22:02:28+00:00	2020-11-11T07:59:59+00:00	-2	rqypccgmb92cvq1@marketplace.amazon.com	kristy willis	+1 480-618-5344 ext. 73049	ABR0033	Delivery by Tuesday | Arabella Farm Direct Bouquet of 12 Fresh Cut Orange Roses with a Free Glass Vase	1	0	1	Expedited	Ann Ratray	905 W END AVE APT 101			NEW YORK	NY	10025-3530	US		Welcome Home We All Love You Kristy, Dave, and the kids From kristy willis	false		
114-0707790-7098634	34682120982258	2020-11-07T23:15:12+00:00	2020-11-07T15:15:12-08:00	2020-11-07T23:32:14+00:00	2020-11-11T07:59:59+00:00	-2	ntx0297ghhzpjwh@marketplace.amazon.com	Kristina Goerke	+1 415-851-9136 ext. 95882	ABM010	Delivery by Tuesday | The Spring Fling Bouquet by Arabella Bouquets with a Free Designer Glass Vase	1	0	1	Expedited	Ed Swierk & Kristin Johnson	410 FARRELL ST APT 306			SOUTH BURLINGTON	VT	05403-4458	US		To Auntie Kri, we are so glad you are feeling better!  Thinking of you!  Luv, Tina & Scott, Mike & Tony, Kimberly & Steve, Joseph & Tess	false		
113-7287389-0109065	33741840006562	2020-11-08T01:03:15+00:00	2020-11-07T17:03:15-08:00	2020-11-08T01:32:11+00:00	2020-11-11T07:59:59+00:00	-2	jht59lnsrkk1f6m@marketplace.amazon.com	Lilian	+1 619-854-2705 ext. 16639	ABR0022	Delivery by Tuesday | Arabella Farm Direct Bouquet of 12 Fresh Cut Pink Roses with a Free Glass Vase	1	0	1	Expedited	Alfred Steiner	220 RIVERSIDE BLVD APT 44C			NEW YORK	NY	10069-1034	US		Querido Freddy  Feliz cumpleaños. Te extrañamos y queremos mucho . Many blessings to you . Con cariño From Mario, Lili and the kids	false		
111-2393228-9029828	56552128889410	2020-11-08T01:18:27+00:00	2020-11-07T17:18:27-08:00	2020-11-08T01:46:28+00:00	2020-11-11T07:59:59+00:00	-2	cdgqk2f81wth17m@marketplace.amazon.com	Jeffrey L Sansone	+1 415-851-9136 ext. 64199	ABR001	Delivery by Tuesday | Arabella Bouquets 12 Stems of Fresh Cut Red Roses in a Free Designer Glass Vase	1	0	1	Expedited	Jeffrey Sansone	605 14TH ST			ROCHELLE	IL	61068-1221	US			false		
112-7278764-5989021	52601782800266	2020-11-08T04:32:52+00:00	2020-11-07T20:32:52-08:00	2020-11-08T05:03:29+00:00	2020-11-11T07:59:59+00:00	-2	gntldfgt2dxjdsl@marketplace.amazon.com	Misty Phillips	+1 619-854-2705 ext. 82017	ABR001	Delivery by Tuesday | Arabella Bouquets 12 Stems of Fresh Cut Red Roses in a Free Designer Glass Vase	1	0	1	Expedited	Misty Phillips	2714 IDLEWOOD LN			STATESVILLE	NC	28625-4729	US			false		
111-2299667-0529845	30749704204274	2020-11-08T07:12:09+00:00	2020-11-07T23:12:09-08:00	2020-11-08T07:40:33+00:00	2020-11-11T07:59:59+00:00	-2	7lt71ssmj1gy9v5@marketplace.amazon.com	Obed	+1 619-854-2705 ext. 31576	ABM010	Delivery by Tuesday | The Spring Fling Bouquet by Arabella Bouquets with a Free Designer Glass Vase	1	0	1	Expedited	Felicia Adrian paque agustin	CASA 2729 BELAIRE CIR			ATLANTA	GA	30340-3213	US		Amor estas flores que seoa significa el amor hacia ti te amo y mi dios te bendiga  siempre😘😘😘😘❤❤❤❤💯💯💯espero un que  sea mi esposa primero dios De Obed	false		
112-4269972-4705852	57237981856162	2020-11-08T07:48:44+00:00	2020-11-07T23:48:44-08:00	2020-11-08T08:16:19+00:00	2020-11-11T07:59:59+00:00	-2	s0q8cwxg1bxlcq9@marketplace.amazon.com	Larraine Cox	+1 929-436-4790 ext. 71600	ABM022	Delivery by Tuesday | Purple Extravagance Bouquet by Arabella Bouquets	1	0	1	Expedited	Marion Marriott	18600 HIGHWOODS PRESERVE PKWY	UNIT 225		TAMPA	FL	33647-1786	US		Dear Marion, many happy returns of the day sweetie. Thinking of you today with love from Larraine & Jon xx From Larraine Cox	false		
111-8780178-4724202	01419151423434	2020-11-08T12:13:11+00:00	2020-11-08T04:13:11-08:00	2020-11-08T12:37:28+00:00	2020-11-11T07:59:59+00:00	-2	h7bkg7p4sgb98vq@marketplace.amazon.com	Ann Watson	+1 929-436-4790 ext. 92676	ABM022	Delivery by Tuesday | Purple Extravagance Bouquet by Arabella Bouquets	1	0	1	Expedited	Mary Munn	27 CRAFTS AVE			WEST LEBANON	NH	03784-1105	US		Enjoy your gift! From the  Watson and the Malone families	false		
111-2373911-3743463	31364757582538	2020-11-08T13:09:32+00:00	2020-11-08T05:09:32-08:00	2020-11-08T13:37:54+00:00	2020-11-11T07:59:59+00:00	-2	6dgwqlcc6hs6kx5@marketplace.amazon.com	Daniel W Wood	+1 213-442-1463 ext. 51483	ABR0033	Delivery by Tuesday | Arabella Farm Direct Bouquet of 12 Fresh Cut Orange Roses with a Free Glass Vase	1	0	1	Expedited	Evelyn Baker	176 BAY VIEW RD			SOUTH CHATHAM	MA	02659-1622	US		Heal Fast!  Eat Healthily. We Love You and are wishing you well From Marlene, Bridget and Kris	false		
112-9890617-9456204	26110626854450	2020-11-08T13:22:09+00:00	2020-11-08T05:22:09-08:00	2020-11-08T13:42:32+00:00	2020-11-11T07:59:59+00:00	-2	9fcmn4k22mh6kyw@marketplace.amazon.com	Regan Arnold	+1 602-671-6610 ext. 19809	ABM022	Delivery by Tuesday | Purple Extravagance Bouquet by Arabella Bouquets	1	0	1	Expedited	Regan Arnold	1041 E KNAPP ST APT 801			MILWAUKEE	WI	53202-2809	US		Wild flowers for a wild heart 💜   Get better soon Carly Bee 🐝   Xoxo From Regs	false		
111-0218491-4648200	16821112700658	2020-11-08T13:16:13+00:00	2020-11-08T05:16:13-08:00	2020-11-08T13:45:16+00:00	2020-11-11T07:59:59+00:00	-2	51kmhtybc6b02ww@marketplace.amazon.com	Rubeline Neiderland	+1 929-436-4790 ext. 76823	ABM022	Delivery by Tuesday | Purple Extravagance Bouquet by Arabella Bouquets	1	0	1	Expedited	Patricia Smith	3284 W RIDGE RUN ST			SPRINGFIELD	MO	65810-7510	US		Dearest Mom, bringing you flowers of joy to brighten your day! Happy birthday Mommy! We love you! From Brian and Lynne	false		
113-0213079-9465000	02069665389282	2020-11-08T13:27:30+00:00	2020-11-08T05:27:30-08:00	2020-11-08T13:53:16+00:00	2020-11-11T07:59:59+00:00	-2	t2mj1f4t450dpbv@marketplace.amazon.com	Li Fung Ling	+1 929-436-4790 ext. 92062	ABR0022	Delivery by Tuesday | Arabella Farm Direct Bouquet of 12 Fresh Cut Pink Roses with a Free Glass Vase	1	0	1	Expedited	Andrea Edinger	1364 W GREENLEAF AVE APT 3S			CHICAGO	IL	60626-6020	US		Happy birthday to you!  Hope you can receive by 11/14. We love you! From Mark and Alice	false		
113-5357469-6310644	20216724715778	2020-11-08T14:02:16+00:00	2020-11-08T06:02:16-08:00	2020-11-08T14:30:16+00:00	2020-11-11T07:59:59+00:00	-2	xm697mtlgbpgkqf@marketplace.amazon.com	Sherrie Dedic	+1 602-671-6610 ext. 27505	ABM022	Delivery by Tuesday | Purple Extravagance Bouquet by Arabella Bouquets	1	0	1	Expedited	Mary Apper	4875 N BACKER AVE UNIT 165			FRESNO	CA	93726-7503	US		MARY, WISHING YOU SUNSHINE RICK,CHUCK AND MOM SHERRIE	false		
112-9569026-1384222	55853571110162	2020-11-08T14:21:37+00:00	2020-11-08T06:21:37-08:00	2020-11-08T14:44:51+00:00	2020-11-11T07:59:59+00:00	-2	dnbxhnpq7vgwmkd@marketplace.amazon.com	robert gonzalez	+1 480-618-5344 ext. 70249	ABR0022	Delivery by Tuesday | Arabella Farm Direct Bouquet of 12 Fresh Cut Pink Roses with a Free Glass Vase	1	0	1	Expedited	Etherine King	3331 NC HIGHWAY 20 W			SAINT PAULS	NC	28384-9221	US		Happy Birthday mom!  Have a wonderful and blessed day!  Love you! From Robert and Pattie	false		
114-1927908-0472220	34792311074834	2020-11-08T14:28:01+00:00	2020-11-08T06:28:01-08:00	2020-11-08T14:56:14+00:00	2020-11-11T07:59:59+00:00	-2	7m6mt99rw6t7hbc@marketplace.amazon.com	Jean Carey	+1 213-442-1463 ext. 53484	ABR0022	Delivery by Tuesday | Arabella Farm Direct Bouquet of 12 Fresh Cut Pink Roses with a Free Glass Vase	1	0	1	Expedited	Barbara Carey	411 HILL ST			BOONTON	NJ	07005-1225	US		Happy birthday Mom! 🎉🎂 From Love, John and Jean	false		
111-3140951-9102629	16620486638682	2020-11-08T15:11:22+00:00	2020-11-08T07:11:22-08:00	2020-11-08T15:41:47+00:00	2020-11-11T07:59:59+00:00	-2	966pd3mwzg17mc8@marketplace.amazon.com	Patricia Marin	+1 619-854-2705 ext. 55737	ABM022	Delivery by Tuesday | Purple Extravagance Bouquet by Arabella Bouquets	1	0	1	Expedited	Bo Cichocki	233 CORTEZ CT			NAPERVILLE	IL	60563-1221	US			false		
113-1834881-2061805	21382943070162	2020-11-08T16:13:14+00:00	2020-11-08T08:13:14-08:00	2020-11-08T16:40:30+00:00	2020-11-11T07:59:59+00:00	-2	8pmszbgd98stxjc@marketplace.amazon.com	Elisa Pinares	+1 602-671-6610 ext. 12566	ABR001	Delivery by Tuesday | Arabella Bouquets 12 Stems of Fresh Cut Red Roses in a Free Designer Glass Vase	1	0	1	Expedited	Cary Machado	531 Admond rd			Galax	VA	24333	US		Enjoy your gift! HAPPY BIRTHDAY My beautiful and SPECIAL sister. Love u mucho From Elisa Pinares	false		
113-1834881-2061805	55155185882442	2020-11-08T16:13:14+00:00	2020-11-08T08:13:14-08:00	2020-11-08T16:40:30+00:00	2020-11-11T07:59:59+00:00	-2	8pmszbgd98stxjc@marketplace.amazon.com	Elisa Pinares	+1 602-671-6610 ext. 12566	ABR0033	Delivery by Tuesday | Arabella Farm Direct Bouquet of 12 Fresh Cut Orange Roses with a Free Glass Vase	1	0	1	Expedited	Cary Machado	531 Admond rd			Galax	VA	24333	US		Enjoy your gift! Tia Happy Birthday may your special day be as special as you. 😘😘😘 From Angelie, Bella and Analie	false		
114-0512172-9255469	51551455631234	2020-11-08T17:13:54+00:00	2020-11-08T09:13:54-08:00	2020-11-08T17:41:46+00:00	2020-11-11T07:59:59+00:00	-2	pl0k12rzksr4q9s@marketplace.amazon.com	Jennifer Perry	+1 213-442-1463 ext. 76276	ABR0022	Delivery by Tuesday | Arabella Farm Direct Bouquet of 12 Fresh Cut Pink Roses with a Free Glass Vase	1	0	1	Expedited	Josie Avila	355 PACIFIC DR			LAKE HAVASU CITY	AZ	86406-4463	US		Aunt Josie, We are so sorry for your loss. We love you. From Jennifer Perry and Bene (Tina) Simpson-Ruiz	false		
112-5220972-3439468	48456956001802	2020-11-08T17:37:53+00:00	2020-11-08T09:37:53-08:00	2020-11-08T18:01:54+00:00	2020-11-11T07:59:59+00:00	-2	fkpbzc8r6zwgdc8@marketplace.amazon.com	Harold Huggins	+1 929-436-4790 ext. 93811	ABR0033	Delivery by Tuesday | Arabella Farm Direct Bouquet of 12 Fresh Cut Orange Roses with a Free Glass Vase	1	0	1	Expedited	Karine Conte	1744 SLOCUM ST			HEWLETT	NY	11557-1618	US		Thinking of you my dear Karine. Happy belated birthday . Wishing you lots of health, peace and love From Yanick and Harold	false		
111-7494089-4438640	69058831744330	2020-11-08T17:50:18+00:00	2020-11-08T09:50:18-08:00	2020-11-08T18:19:16+00:00	2020-11-11T07:59:59+00:00	-2	ykdmfyxg4jl8qgh@marketplace.amazon.com	Anna Duffy	+1 213-442-1463 ext. 03677	ABR0022	Delivery by Tuesday | Arabella Farm Direct Bouquet of 12 Fresh Cut Pink Roses with a Free Glass Vase	1	0	1	Expedited	Wentworth Institute of Technology	550 HUNTINGTON AVE	MS 3156 ANNA DUFFY		BOSTON	MA	02115-5901	US		Happy Birthday week!!! We love you!! From Mom, Jake, P and Ringo	false		
114-0347233-4532223	51787982529602	2020-11-08T18:53:45+00:00	2020-11-08T10:53:45-08:00	2020-11-08T19:21:46+00:00	2020-11-11T07:59:59+00:00	-2	bqzrdkbblzdnhxr@marketplace.amazon.com	Gayle  K. Shanks	+1 619-854-2705 ext. 20931	ABR004	Delivery by Wednesday | Arabella Farm Direct Bouquet of 12 Fresh Cut Yellow Roses with a Free Glass Vase	1	0	1	Expedited	Chrystelle Azcona	484 GYMKHANA RD			SAN MATEO	CA	94403-1309	US		Chrystelle,  Hey sunshine! Hope you are on the mend...get well soon!  With love, From Carl & Gayle	false		
112-1607785-8567406	08824595334554	2020-11-08T19:06:15+00:00	2020-11-08T11:06:15-08:00	2020-11-08T19:35:35+00:00	2020-11-11T07:59:59+00:00	-2	1gwsfwtmtjmg07m@marketplace.amazon.com	Donna Launer	+1 213-442-1463 ext. 93608	ABR0033	Delivery by Tuesday | Arabella Farm Direct Bouquet of 12 Fresh Cut Orange Roses with a Free Glass Vase	1	0	1	Expedited	Georgean Minogue	75 ARBORRIDGE DR			FORKED RIVER	NJ	08731-1060	US		Hi Georgean Glad you are home Hugs, Donna and Lee Launer	false		
111-8078765-1841062	43905457839586	2020-11-08T20:24:21+00:00	2020-11-08T12:24:21-08:00	2020-11-08T20:50:49+00:00	2020-11-11T07:59:59+00:00	-2	y4074xt74w60986@marketplace.amazon.com	Victoria	+1 602-671-6610 ext. 68530	ABR0022	Delivery by Tuesday | Arabella Farm Direct Bouquet of 12 Fresh Cut Pink Roses with a Free Glass Vase	1	0	1	Expedited	Victoria	68601 OPEN FIELD DR			MONTROSE	CO	81401-7480	US		Happy anniversary mama love you! From Love Louis and Vicky	false		
113-1429276-5601836	50408333858762	2020-11-08T20:43:55+00:00	2020-11-08T12:43:55-08:00	2020-11-08T21:12:21+00:00	2020-11-11T07:59:59+00:00	-2	rw6vn23ly0kjjnr@marketplace.amazon.com	Marji Campbell	+1 602-671-6610 ext. 15425	ABR001	Delivery by Tuesday | Arabella Bouquets 12 Stems of Fresh Cut Red Roses in a Free Designer Glass Vase	1	0	1	Expedited	The Jeffers	330 CORDOVA ST UNIT 358			PASADENA	CA	91101-4661	US		Sorella Carol,   Happy happy 70th birthday!! You brought us luck, now celebrate and bask in the Glow! Love, Marji From Marji Campbell	false		
111-3474418-2263427	23214970226890	2020-11-08T21:31:14+00:00	2020-11-08T13:31:14-08:00	2020-11-08T21:55:28+00:00	2020-11-11T07:59:59+00:00	-2	6j7lvlmr63586gn@marketplace.amazon.com	Joey Masterson	+1 602-671-6610 ext. 84137	ABR0033	Delivery by Tuesday | Arabella Farm Direct Bouquet of 12 Fresh Cut Orange Roses with a Free Glass Vase	1	0	1	Expedited	Terri Hurlbut	2906 S 14TH ST			TACOMA	WA	98405-2407	US		Have the best beautiful birthday! We love you, love the Masterson’s From Masterson’s	false		
112-2647266-9158617	16260100224874	2020-11-08T21:45:02+00:00	2020-11-08T13:45:02-08:00	2020-11-08T22:13:57+00:00	2020-11-11T07:59:59+00:00	-2	wdwf6vmsm6bp3q7@marketplace.amazon.com	Lee Plenn	+1 213-442-1463 ext. 38610	ABR0055	Delivery by Tuesday | Arabella Farm Direct Bouquet of 12 Stems of Fresh Cut Hot Pink Roses in a Free Designer Glass Vase	1	0	1	Expedited	Lee and Meridith Plenn	29 WAVERLY RD			CHERRY HILL	NJ	08003-1326	US		Dear Kitten, Happy 12th Anniversary my love!  You are my Heart, and I will love you forever. From Love, Angel	false		
113-2793324-5785008	53501007586626	2020-11-08T23:17:14+00:00	2020-11-08T15:17:14-08:00	2020-11-08T23:39:22+00:00	2020-11-11T07:59:59+00:00	-2	pll8kht0vf6qzny@marketplace.amazon.com	Kathy Brouillette	+1 929-436-4790 ext. 81277	ABR004	Delivery by Wednesday | Arabella Farm Direct Bouquet of 12 Fresh Cut Yellow Roses with a Free Glass Vase	1	0	1	Expedited	Karen Tatlock	38E405 Lea Drive			Geneva	IL	60134	US		HAPPY BIRTHDAY, KAREN!!! From Love, Kathy	false		
114-6555965-1964244	22900915414242	2020-11-09T00:09:00+00:00	2020-11-08T16:09:00-08:00	2020-11-09T00:35:43+00:00	2020-11-11T07:59:59+00:00	-2	jt56nw00dbs05ym@marketplace.amazon.com	Cristina	+1 619-854-2705 ext. 74543	ABM010	Delivery by Tuesday | The Spring Fling Bouquet by Arabella Bouquets with a Free Designer Glass Vase	1	0	1	Expedited	Nimfa Gabriana	84 RIDGE DR			MONTVILLE	NJ	07045-9491	US		Hello sis, I hope this gets to you on time for your birthday. Happy, happy birthday 🎂.  We love you❤ Love, Cris, Seth, Harlen and Ryan From Cristina	false		
111-6602215-6617847	11305974947674	2020-11-09T00:07:47+00:00	2020-11-08T16:07:47-08:00	2020-11-09T00:37:01+00:00	2020-11-11T07:59:59+00:00	-2	f3dbzvxyznr0brc@marketplace.amazon.com	adelita quiroz	+1 602-671-6610 ext. 78468	ABR004	Delivery by Wednesday | Arabella Farm Direct Bouquet of 12 Fresh Cut Yellow Roses with a Free Glass Vase	1	0	1	Expedited	Kerry Barahona	8100 NE 104TH CIR APT 9 # 9			VANCOUVER	WA	98662-1464	US		Happy Birthday, We love you so much! We really hope you have a great day!!! From adelita quiroz	false		
112-9266900-3238660	20866587491578	2020-11-09T00:19:32+00:00	2020-11-08T16:19:32-08:00	2020-11-09T00:39:33+00:00	2020-11-11T07:59:59+00:00	-2	mw76y0xyc31sgs8@marketplace.amazon.com	Colleen Ferara	+973-466-6422	ABM010	Delivery by Tuesday | The Spring Fling Bouquet by Arabella Bouquets with a Free Designer Glass Vase	1	0	1	Expedited	Nancy Waltermire	17 OVERLOOK RD			WHITEHOUSE STATION	NJ	08889-3370	US		Nancy, Our deepest condolences to you and your family for the loss of your mom. She will truly be missed. We are thinking of you during this difficult time. From SFDV Board and Staff	false		
111-2380057-5605001	52935723839850	2020-11-09T00:17:17+00:00	2020-11-08T16:17:17-08:00	2020-11-09T00:45:45+00:00	2020-11-11T07:59:59+00:00	-2	cjd984rsltzpc5b@marketplace.amazon.com	Amy C. Biegler	+1 415-851-9136 ext. 57675	ABM024	Delivery by Wednesday | The Beauty of Color Bouquet by Arabella Bouquets	1	0	1	Expedited	Donna Neumann	9163 LINDA RIO DR			SACRAMENTO	CA	95826-2252	US		We are thinking of you this week!  Let the emotions process. It will all turn out okay.  A new chapter in your life! From Love Will & Amy	false		
113-5588072-7117869	04073624641890	2020-11-09T01:03:40+00:00	2020-11-08T17:03:40-08:00	2020-11-09T01:27:03+00:00	2020-11-11T07:59:59+00:00	-2	cnh0nktnqjjhskd@marketplace.amazon.com	Tyler & Karen	+1 213-442-1463 ext. 84154	ABR0055	Delivery by Tuesday | Arabella Farm Direct Bouquet of 12 Stems of Fresh Cut Hot Pink Roses in a Free Designer Glass Vase	1	0	1	Expedited	Bobby Carraway	4501 AIDA PL			WOODLAND HILLS	CA	91364-3840	US		We are blessed to have met Tere, thank you for sharing her with us.  Our deepest condolences to you and our family in Mecico.  Love Virgina Carraways From Tyler & Karen	false		
112-6943948-3427451	25327508668754	2020-11-09T00:58:19+00:00	2020-11-08T16:58:19-08:00	2020-11-09T01:28:21+00:00	2020-11-11T07:59:59+00:00	-2	n3shfk9t9tgt4vt@marketplace.amazon.com	james j tulino, jr	+1 480-618-5344 ext. 84222	ABR0055	Delivery by Tuesday | Arabella Farm Direct Bouquet of 12 Stems of Fresh Cut Hot Pink Roses in a Free Designer Glass Vase	1	0	1	Expedited	Nora Pulatani	60 HAMILTON AVE APT 7M			STATEN ISLAND	NY	10301-1850	US			false		
114-8451383-2665810	13635106557946	2020-11-09T02:06:52+00:00	2020-11-08T18:06:52-08:00	2020-11-09T02:24:52+00:00	2020-11-11T07:59:59+00:00	-2	q4wzm96hcyp90zr@marketplace.amazon.com	Scherie A. Nurbhai	+1 619-854-2705 ext. 93949	ABR0022	Delivery by Tuesday | Arabella Farm Direct Bouquet of 12 Fresh Cut Pink Roses with a Free Glass Vase	1	0	1	Expedited	Gail gellis	333 N STATE RD APT 21			BRIARCLIFF MANOR	NY	10510-1463	US		Dear Gail. Wishing you the Happiest of Birthdays!!!  And  a Great Year!! Love,  your friends Bobby and Scherie From Scherie and Bobby	false		
111-4517696-5062660	66088681538986	2020-11-09T02:34:45+00:00	2020-11-08T18:34:45-08:00	2020-11-09T03:04:11+00:00	2020-11-11T07:59:59+00:00	-2	68gv0dmzt6dc08q@marketplace.amazon.com	Brenda Rubash	+1 480-618-5344 ext. 10475	ABR0022	Delivery by Tuesday | Arabella Farm Direct Bouquet of 12 Fresh Cut Pink Roses with a Free Glass Vase	1	0	1	Expedited	Linda Cascio	152 SKYTOP DR			HENDERSON	NV	89015-5931	US			false		
111-6190733-4739459	35332840612098	2020-11-09T05:38:04+00:00	2020-11-08T21:38:04-08:00	2020-11-09T06:00:22+00:00	2020-11-11T07:59:59+00:00	-2	0t26h0d3nk6gwhd@marketplace.amazon.com	Steve Baldwin	+1 415-851-9136 ext. 52473	ABM022	Delivery by Tuesday | Purple Extravagance Bouquet by Arabella Bouquets	1	0	1	Expedited	Carolyn Zimmerman	9805 BLACK OAK CT			OAKDALE	CA	95361-9541	US		Happy Birthday dear friend and my much beloved sister in Christ. Love Sheryl From Sheryl	false		
113-5446332-9025830	06857043738354	2020-11-09T06:35:16+00:00	2020-11-08T22:35:16-08:00	2020-11-09T06:55:03+00:00	2020-11-11T07:59:59+00:00	-2	2kh9s5w9gj3k6lx@marketplace.amazon.com	Tim bruggman	+1 619-854-2705 ext. 95596	ABR0055	Delivery by Tuesday | Arabella Farm Direct Bouquet of 12 Stems of Fresh Cut Hot Pink Roses in a Free Designer Glass Vase	1	0	1	Expedited	Carolina	5501 240TH ST SW UNIT F			MOUNTLAKE TERRACE	WA	98043-5523	US		Smoken Hot !!!!   Enjoy From T	false		
112-5982124-5481820	48262276705442	2020-11-09T08:14:15+00:00	2020-11-09T00:14:15-08:00	2020-11-09T08:43:46+00:00	2020-11-13T07:59:59+00:00	-4	zwkm46dxtywg8sz@marketplace.amazon.com	Jillian	+1 480-618-5344 ext. 55817	ABR0055	Delivery by Tuesday | Arabella Farm Direct Bouquet of 12 Stems of Fresh Cut Hot Pink Roses in a Free Designer Glass Vase	1	0	1	Expedited	Jillian Blair Halliwell	13530 GARDEN BAR RD			GRASS VALLEY	CA	95949-8153	US			false		
114-0354791-2027440	25491425375178	2020-11-09T12:18:10+00:00	2020-11-09T04:18:10-08:00	2020-11-09T12:38:37+00:00	2020-11-13T07:59:59+00:00	-4	yqk9v2yd394kr01@marketplace.amazon.com	Mark Sing	+1 929-436-4790 ext. 35892	ABR0055	Delivery by Tuesday | Arabella Farm Direct Bouquet of 12 Stems of Fresh Cut Hot Pink Roses in a Free Designer Glass Vase	1	0	1	Expedited	Mark SIng	21229 SE 42ND PL			ISSAQUAH	WA	98029-9511	US		Dear Bev Wishing you a very happy birthday and all the very best for today and the future. Enjoy your special day. Lots of love Naai Naai and LoYee From Mark Sing	false		
114-7226992-8134669	50560166195378	2020-11-09T13:10:32+00:00	2020-11-09T05:10:32-08:00	2020-11-09T13:37:59+00:00	2020-11-13T07:59:59+00:00	-4	f3tmn5vb0608f2b@marketplace.amazon.com	santiago	+1 619-854-2705 ext. 51822	ABR0033	Delivery by Tuesday | Arabella Farm Direct Bouquet of 12 Fresh Cut Orange Roses with a Free Glass Vase	1	0	1	Expedited	Virginia	1008 OWENS ST			MADERA	CA	93638-1506	US			false		
112-9434272-0714628	03819259676066	2020-11-09T14:31:49+00:00	2020-11-09T06:31:49-08:00	2020-11-09T15:01:55+00:00	2020-11-13T07:59:59+00:00	-4	d6d3wwjzswhqhwb@marketplace.amazon.com	Virginia G. Leyen	+1 213-442-1463 ext. 01616	ABR001	Delivery by Wednesday | Arabella Bouquets 12 Stems of Fresh Cut Red Roses in a Free Designer Glass Vase	1	0	1	Expedited	Catherine Stende	1322 42ND ST			DES MOINES	IA	50311-2529	US			false		
112-6564313-1804266	60188090911138	2020-11-09T14:47:57+00:00	2020-11-09T06:47:57-08:00	2020-11-09T15:07:29+00:00	2020-11-13T07:59:59+00:00	-4	f5rzwvpl50vbs4x@marketplace.amazon.com	Kathy shaeffer	+1 480-618-5344 ext. 77763	ABM024	Delivery by Wednesday | The Beauty of Color Bouquet by Arabella Bouquets	1	0	1	Expedited	Floss Burkhardt	3716 KINGSTON WAY			BENSALEM	PA	19020-1424	US		Happy Birthday Floss! 🎂🎈🎉     Love, John and Kathy From John and Kathy Shaeffer	false		
113-0174151-2617815	50422069685202	2020-11-09T15:11:56+00:00	2020-11-09T07:11:56-08:00	2020-11-09T15:40:37+00:00	2020-11-13T07:59:59+00:00	-4	kc25m1fynm9jdtc@marketplace.amazon.com	mark	+1 213-442-1463 ext. 12098	ABR0055	Delivery by Wednesday | Arabella Farm Direct Bouquet of 12 Stems of Fresh Cut Hot Pink Roses in a Free Designer Glass Vase	1	0	1	Expedited	2 dogstrading company-mark collins	144 AUTUMN WOODS BLVD			MOUNT HOLLY	NC	28120-2442	US			false		
112-6428709-7210647	57569684792834	2020-11-09T15:25:24+00:00	2020-11-09T07:25:24-08:00	2020-11-09T15:50:38+00:00	2020-11-13T07:59:59+00:00	-4	mwv5pff0vg6mp88@marketplace.amazon.com	Daniel Bowman	+1 213-442-1463 ext. 65594	ABM022	Delivery by Wednesday | Purple Extravagance Bouquet by Arabella Bouquets	1	0	1	Expedited	Lynn Bowman	6767 DANCING WIND DR			COLORADO SPRINGS	CO	80923-4242	US		Mom, You are so incredibly strong - both physically and definitely mentally! We are so happy and proud of how well you took care of Dad this past weekend! Thank you for being you! We love you so much! From Mike, Dan, Mallory, Jacob, Ellie, Wesley	false		
114-8742402-5232224	04002735459930	2020-11-09T16:07:11+00:00	2020-11-09T08:07:11-08:00	2020-11-09T16:40:33+00:00	2020-11-13T07:59:59+00:00	-4	0dtgl9qnrb3g1lk@marketplace.amazon.com	Eric Scheib	+1 480-618-5344 ext. 55752	ABM010	Delivery by Wednesday | The Spring Fling Bouquet by Arabella Bouquets with a Free Designer Glass Vase	1	0	1	Expedited	Eric Scheib	1502 S SILVERBROOK DR			WEST BEND	WI	53095-4590	US			false		
113-0294164-5548220	21964693939266	2020-11-09T16:22:43+00:00	2020-11-09T08:22:43-08:00	2020-11-09T16:52:27+00:00	2020-11-13T07:59:59+00:00	-4	jqk4zdpl2ptqkrt@marketplace.amazon.com	Linda Cifani	+1 619-854-2705 ext. 98331	ABM010	Delivery by Wednesday | The Spring Fling Bouquet by Arabella Bouquets with a Free Designer Glass Vase	1	0	1	Expedited	Dorothy voce	350 N 190TH ST APT 523			SHORELINE	WA	98133-3868	US			false		
112-5016970-8786623	23885757099522	2020-11-09T17:41:12+00:00	2020-11-09T09:41:12-08:00	2020-11-09T18:10:45+00:00	2020-11-13T07:59:59+00:00	-4	jrm0cyls12gvs15@marketplace.amazon.com	Danielle Sadowski	+1 929-436-4790 ext. 25109	ABM022	Delivery by Wednesday | Purple Extravagance Bouquet by Arabella Bouquets	1	0	1	Expedited	Gina stumborg	1351 ROSE CT			WAUKESHA	WI	53186-4098	US		Happy Happy 50th Birthday...hope you have a fantastic day. From Danielle Sadowski	false		
111-4395412-4522607	32774929284482	2020-11-09T17:46:14+00:00	2020-11-09T09:46:14-08:00	2020-11-09T18:12:42+00:00	2020-11-13T07:59:59+00:00	-4	f40w9kbmmd1z6yv@marketplace.amazon.com	Eric Kunzler	+1 929-436-4790 ext. 86990	ABR0055	Delivery by Wednesday | Arabella Farm Direct Bouquet of 12 Stems of Fresh Cut Hot Pink Roses in a Free Designer Glass Vase	1	0	1	Expedited	Titus and Lydia Kunzler	2430 76TH AVE SE APT 521			MERCER ISLAND	WA	98040-3362	US		Happy Anniversary, Mom and Dad!  Love, Eric and family From Eric Kunzler	false		
112-2664942-2121035	08493257161658	2020-11-09T17:45:22+00:00	2020-11-09T09:45:22-08:00	2020-11-09T18:14:58+00:00	2020-11-13T07:59:59+00:00	-4	y0tdcqcjtmm243c@marketplace.amazon.com	Richard Overturf	+1 619-854-2705 ext. 35488	ABR0055	Delivery by Wednesday | Arabella Farm Direct Bouquet of 12 Stems of Fresh Cut Hot Pink Roses in a Free Designer Glass Vase	1	0	1	Expedited	Aftan Overturf	3457 LENNON LN			MARION	IA	52302-4779	US			false		
113-4062108-0824229	62349932740114	2020-11-09T18:11:11+00:00	2020-11-09T10:11:11-08:00	2020-11-09T18:40:02+00:00	2020-11-13T07:59:59+00:00	-4	cs7dljp7dghdfpg@marketplace.amazon.com	Shannon McClure	+1 602-671-6610 ext. 19687	ABM0044	Delivery by Thursday | Arabella Farm Direct Bouquet of Fresh Cut Blue Hydrangea with a Free Glass Vase	1	0	1	Expedited	Betty Mamaw McClure	402 STICKY RD			GURDON	AR	71743-2903	US		Happy Birthday! We love you- Michael, Shannon, Ethan, Benjamin, Abigail & Claire From The McClures	false		
114-0845089-8190608	15058179805394	2020-11-09T18:15:18+00:00	2020-11-09T10:15:18-08:00	2020-11-09T18:40:53+00:00	2020-11-13T07:59:59+00:00	-4	jzsbh2l51nhkpnh@marketplace.amazon.com	Trent Nguyen	+1 619-854-2705 ext. 19528	ABR0022	Delivery by Wednesday | Arabella Farm Direct Bouquet of 12 Fresh Cut Pink Roses with a Free Glass Vase	1	0	1	Standard	Mrs. Grasso	3206 GUILDERLAND AVE			SCHENECTADY	NY	12306-2622	US		Hope you get better soon.  Lucy, Trent, Jed From Lucy, Trent, Jed	false		
111-8866749-8761025	60657845663794	2020-11-09T18:19:02+00:00	2020-11-09T10:19:02-08:00	2020-11-09T18:42:47+00:00	2020-11-13T07:59:59+00:00	-4	lq1vn96m33pzqt8@marketplace.amazon.com	Victoria Maricle	+1 480-618-5344 ext. 48783	ABR0022	Delivery by Wednesday | Arabella Farm Direct Bouquet of 12 Fresh Cut Pink Roses with a Free Glass Vase	1	0	1	Expedited	Morine Ward	635 FIRST ST APT 302			ALEXANDRIA	VA	22314-1580	US		Dear Morine, we are so thankful you took the time to help us get our lost car keys back!    Warmly, Victoria and Tim From Victoria Maricle	false		
114-1479310-3429058	45615648951058	2020-11-09T18:22:37+00:00	2020-11-09T10:22:37-08:00	2020-11-09T18:47:17+00:00	2020-11-13T07:59:59+00:00	-4	fjpg9j6hmfnnfvh@marketplace.amazon.com	Lynne McClain	+1 619-854-2705 ext. 33140	ABR0022	Delivery by Wednesday | Arabella Farm Direct Bouquet of 12 Fresh Cut Pink Roses with a Free Glass Vase	1	0	1	Expedited	Kay Weber	4115 BOLD MDWS BLVD			OAKLAND TOWNSHIP	MI	48306-1489	US		Happy Birthday to my life long BFF. Wishing you love and blessings, now & always! XXX OOO From Lynne McClain	false		
114-9089496-3091422	22761540946578	2020-11-09T18:04:37+00:00	2020-11-09T10:04:37-08:00	2020-11-09T18:57:05+00:00	2020-11-13T07:59:59+00:00	-4	9x9dk7j5803wjm2@marketplace.amazon.com	Steve Broussard	+1 619-854-2705 ext. 14426	ABM026	Delivery by Thursday | The Amour Bouquet by Arabella Bouquets	1	0	1	Expedited	Amy Astrauskas	20 SUTTON CT	BOX 5		GOSHEN	CT	06756-1712	US		Happy Birthday Amy! We love you!! From Kathe & Steve Broussard	false		
112-4856762-4505801	04401166971434	2020-11-09T18:32:50+00:00	2020-11-09T10:32:50-08:00	2020-11-09T19:01:17+00:00	2020-11-13T07:59:59+00:00	-4	gj7wyy5ybdwf2qy@marketplace.amazon.com	felipe amezcua	+1 213-442-1463 ext. 74492	ABM010	Delivery by Wednesday | The Spring Fling Bouquet by Arabella Bouquets with a Free Designer Glass Vase	1	0	1	Expedited	Kelly Wallace	940 WESTERN AVE			FLOSSMOOR	IL	60422-1366	US		Happy Birthday =) From SB	false		
114-3860847-1868247	55667234890770	2020-11-09T18:57:01+00:00	2020-11-09T10:57:01-08:00	2020-11-09T19:23:12+00:00	2020-11-13T07:59:59+00:00	-4	c1l7j64ndclsxcd@marketplace.amazon.com	Austin Erwin	+1 602-671-6610 ext. 18789	ABR0055	Delivery by Wednesday | Arabella Farm Direct Bouquet of 12 Stems of Fresh Cut Hot Pink Roses in a Free Designer Glass Vase	1	0	1	Expedited	Betty Beach	402 PEARSON COVE DR			CLIMAX SPRINGS	MO	65324-2322	US		Grandma Betty,  Happy belated birthday! We love you so very much!  Love Bo & Joci & Gunner & Nash From Austin Erwin	false		
111-2153068-2033061	67571263596506	2020-11-09T19:09:51+00:00	2020-11-09T11:09:51-08:00	2020-11-09T19:29:24+00:00	2020-11-13T07:59:59+00:00	-4	591p7pmqtbbxk51@marketplace.amazon.com	carol ann notte	+1 929-436-4790 ext. 86859	ABM022	Delivery by Wednesday | Purple Extravagance Bouquet by Arabella Bouquets	1	0	1	Expedited	Sarah notte	430 PELICAN BAY DR			SANTA ROSA BEACH	FL	32459-3288	US		We hope you are feeling much better and well on your way to recovery From Love, aunt Carol, uncle Frank and Andrea	false		
111-3874087-9933053	12534823418698	2020-11-09T19:16:10+00:00	2020-11-09T11:16:10-08:00	2020-11-09T19:44:45+00:00	2020-11-13T07:59:59+00:00	-4	lmhpw7n3gwdbk2h@marketplace.amazon.com	amrit guliani	+1 929-436-4790 ext. 16622	ABM022	Delivery by Wednesday | Purple Extravagance Bouquet by Arabella Bouquets	1	0	1	Expedited	neema guliani	1825 7TH ST NW APT 712			WASHINGTON	DC	20001-5177	US		Enjoy your gift!HAPPY BIRTHDAY, AND MANY MORE HEALTHY ONES TO COME, MOM,DAD,SAMEER,JILL AND SANJ From amrit guliani	false		
111-3748754-0249856	55653767359618	2020-11-09T19:22:18+00:00	2020-11-09T11:22:18-08:00	2020-11-09T19:48:40+00:00	2020-11-13T07:59:59+00:00	-4	pf82bgnq4ww5ygs@marketplace.amazon.com	nima nassersharif	+1 929-436-4790 ext. 91315	ABM010	Delivery by Wednesday | The Spring Fling Bouquet by Arabella Bouquets with a Free Designer Glass Vase	1	0	1	Expedited	Laura Assink	131 KONNOWAC PASS RD			MOXEE	WA	98936-9508	US		Happy Birthday! I hope you have a wonderful day and I hope all your wishes come true! From Mohammad Moezzi	false		
112-4793062-9401022	25096471709058	2020-11-09T19:25:54+00:00	2020-11-09T11:25:54-08:00	2020-11-09T19:56:07+00:00	2020-11-13T07:59:59+00:00	-4	57m3xtb7wz4gm4c@marketplace.amazon.com	Jeanne E Cleek	+1 415-851-9136 ext. 92226	ABM010	Delivery by Wednesday | The Spring Fling Bouquet by Arabella Bouquets with a Free Designer Glass Vase	1	0	1	Expedited	Laura Fortin	CORRIDOR CROSSING -	136 36TH AVE SW RM # 12		CEDAR RAPIDS	IA	52404-4638	US			false		
114-6635806-2795406	67719921111986	2020-11-09T19:29:14+00:00	2020-11-09T11:29:14-08:00	2020-11-09T19:56:53+00:00	2020-11-13T07:59:59+00:00	-4	ljddkn9k0vg3lnz@marketplace.amazon.com	Ana	+1 213-442-1463 ext. 06284	ABM022	Delivery by Wednesday | Purple Extravagance Bouquet by Arabella Bouquets	1	0	1	Expedited	Kathy killoran	16 SEAGRAVE RD			CAMBRIDGE	MA	02140-1618	US		Thinking of you all! So happy to hear that the surgeries went well and you are both feeling better❤️ From Janine and Keo	false		
114-5565278-7532227	67172220899730	2020-11-09T19:28:43+00:00	2020-11-09T11:28:43-08:00	2020-11-09T19:59:10+00:00	2020-11-13T07:59:59+00:00	-4	fg7l9gkfv1vgd8p@marketplace.amazon.com	Michael Gallagher	+1 213-442-1463 ext. 95366	ABM022	Delivery by Wednesday | Purple Extravagance Bouquet by Arabella Bouquets	1	0	1	Expedited	Larry Gallagher	3716 GRAND MESA DR			MONTROSE	CO	81403-7114	US			false		
113-3525726-6100262	63858735018546	2020-11-09T19:44:37+00:00	2020-11-09T11:44:37-08:00	2020-11-09T20:04:28+00:00	2020-11-13T07:59:59+00:00	-4	kmj0ptrm064f0zj@marketplace.amazon.com	David Ramirez	+1 619-854-2705 ext. 26541	ABR0022	Delivery by Wednesday | Arabella Farm Direct Bouquet of 12 Fresh Cut Pink Roses with a Free Glass Vase	1	0	1	Expedited	Grace Ayers	103 DORSET CT			SAN RAMON	CA	94583-2521	US		We hope you are feeling better, Love From David and Norm	false		
114-7368038-9509065	48179145793698	2020-11-09T19:38:31+00:00	2020-11-09T11:38:31-08:00	2020-11-09T20:05:00+00:00	2020-11-13T07:59:59+00:00	-4	74q0gjbhsm9j0yy@marketplace.amazon.com	novel idea	+1 602-671-6610 ext. 65905	ABR0022	Delivery by Wednesday | Arabella Farm Direct Bouquet of 12 Fresh Cut Pink Roses with a Free Glass Vase	1	0	1	Expedited	Madrina Penny	576 E 56TH ST AVE D			BROOKLYN	NY	11203-6009	US		Happy Birthday my Dear Madrina! Love you forever! ❤️ From novel idea	false		
113-7488049-3444202	64230224632274	2020-11-09T19:38:37+00:00	2020-11-09T11:38:37-08:00	2020-11-09T20:05:05+00:00	2020-11-13T07:59:59+00:00	-4	3lrydyjtnj978z5@marketplace.amazon.com	anthony grasso	+1 602-671-6610 ext. 91908	ABR0022	Delivery by Wednesday | Arabella Farm Direct Bouquet of 12 Fresh Cut Pink Roses with a Free Glass Vase	1	0	1	Expedited	C smith	263 ROUTE 100			SOMERS	NY	10589-3203	US			false		
114-1393944-2998626	09763287439770	2020-11-09T19:42:07+00:00	2020-11-09T11:42:07-08:00	2020-11-09T20:09:24+00:00	2020-11-13T07:59:59+00:00	-4	fjsth58wpvkkzb0@marketplace.amazon.com	GayLynn T. Mann	+1 929-436-4790 ext. 46887	ABR001	Delivery by Wednesday | Arabella Bouquets 12 Stems of Fresh Cut Red Roses in a Free Designer Glass Vase	1	0	1	Expedited	Ardis McNames	901 14TH AVE NE	APT E 425 EDGEWOOD		WATERTOWN	SD	57201-6817	US		HAPPY BIRTHDAY!  Much love from Jon & Gaylynn From GayLynn T. Mann	false		
112-5807872-2298631	32518612940818	2020-11-09T19:52:32+00:00	2020-11-09T11:52:32-08:00	2020-11-09T20:19:19+00:00	2020-11-13T07:59:59+00:00	-4	fbvf0xfcy2r5llp@marketplace.amazon.com	Luella Kramer	+1 619-854-2705 ext. 34349	ABM031	Delivery by Thursday | The Harvest Moon Bouquet by Arabella Bouquets	1	0	1	Expedited	Judy Armstrong	7077 ALWARD RD			LAINGSBURG	MI	48848-8214	US		Thinking of you and hoping this will add some joy to your week. From Luella Kramer	false		
113-3319659-5995441	43038293804778	2020-11-09T19:58:38+00:00	2020-11-09T11:58:38-08:00	2020-11-09T20:20:56+00:00	2020-11-13T07:59:59+00:00	-4	dgvw7djr5zy84c2@marketplace.amazon.com	Hoyt Sumerel	+1 480-618-5344 ext. 25748	ABM022	Delivery by Wednesday | Purple Extravagance Bouquet by Arabella Bouquets	1	0	1	Expedited	James B. and Nancy D. Bishop	33685 VAN DUYN RD			EUGENE	OR	97408-9431	US		We are thinking of you and send condolences for Dorothy's passing. Lots of hugs to you and the family. love, Nancy & Hoyt From Hoyt & Nancy  Sumerel	false		
113-5772863-8593816	32343295177042	2020-11-09T19:56:13+00:00	2020-11-09T11:56:13-08:00	2020-11-09T20:23:59+00:00	2020-11-13T07:59:59+00:00	-4	wd1t5ppw0kk4j25@marketplace.amazon.com	Arlene Salzwedel	+1 213-442-1463 ext. 86318	ABM022	Delivery by Wednesday | Purple Extravagance Bouquet by Arabella Bouquets	1	0	1	Expedited	Arlene Salzwedel	4275 HARVEST CIR			ROCKLEDGE	FL	32955-4123	US		My beautiful DD Thank you for 7 wonderful years married to you. I love you! Your sweet Solly	false		
114-2794846-6508266	65949917684058	2020-11-09T19:59:44+00:00	2020-11-09T11:59:44-08:00	2020-11-09T20:27:50+00:00	2020-11-13T07:59:59+00:00	-4	b38dq9h9f605n67@marketplace.amazon.com	Ann Dean	+1 415-851-9136 ext. 75711	ABM022	Delivery by Wednesday | Purple Extravagance Bouquet by Arabella Bouquets	1	0	1	Expedited	Toni McArdle	7612 ROCKWOOD RD SW			ALBUQUERQUE	NM	87121-3526	US		Thank you for being a brave early adopter of PeerWell and for kindly sharing your insights. We hope to help many patients heal together in the future. From Grace and the PeerWell team	false		
114-1695062-3645016	68343368082226	2020-11-09T20:15:45+00:00	2020-11-09T12:15:45-08:00	2020-11-09T20:33:23+00:00	2020-11-13T07:59:59+00:00	-4	4l57n33b6bhkhg2@marketplace.amazon.com	Fred W Burry	+1 619-854-2705 ext. 68961	ABR0055	Delivery by Wednesday | Arabella Farm Direct Bouquet of 12 Stems of Fresh Cut Hot Pink Roses in a Free Designer Glass Vase	1	0	1	Expedited	Carolyn and Leigh McCuen	12485 PALOMINO LN			APPLE VALLEY	CA	92308-6775	US		Enjoy your gift! Have a blessed 50th wedding anniversary.      We love you dearly,  Fred & Tricia From Fred  & Tricia Burry	true		
113-3849942-6452232	17398793493514	2020-11-09T20:09:06+00:00	2020-11-09T12:09:06-08:00	2020-11-09T20:37:44+00:00	2020-11-13T07:59:59+00:00	-4	sdmvy21t40p0gbm@marketplace.amazon.com	Erin Brown	+1 213-442-1463 ext. 58071	ABR0022	Delivery by Wednesday | Arabella Farm Direct Bouquet of 12 Fresh Cut Pink Roses with a Free Glass Vase	1	0	1	Expedited	Marcia Brown	5702 Woodland Creek			Kingwood	TX	77345	US		Happy Anniversary to such wonderful parents. Hope it's another great year together! From Erin and Chris	false		
114-5355964-7823433	32021552604490	2020-11-09T20:09:29+00:00	2020-11-09T12:09:29-08:00	2020-11-09T20:38:24+00:00	2020-11-13T07:59:59+00:00	-4	s1rtdpmhgrc0b70@marketplace.amazon.com	Vickie Rusco	+1 619-854-2705 ext. 31485	ABR0022	Delivery by Wednesday | Arabella Farm Direct Bouquet of 12 Fresh Cut Pink Roses with a Free Glass Vase	1	0	1	Expedited	Mrs. Twila Rusco	7290 ROSEMOUNT CIR APT 314			TACOMA	WA	98465-1536	US			false		
114-3201342-3390625	16426096019850	2020-11-09T20:14:40+00:00	2020-11-09T12:14:40-08:00	2020-11-09T20:44:17+00:00	2020-11-13T07:59:59+00:00	-4	b671gmzxzjhmhlw@marketplace.amazon.com	Patrick J. Coleman	+1 213-442-1463 ext. 08862	ABR0022	Delivery by Wednesday | Arabella Farm Direct Bouquet of 12 Fresh Cut Pink Roses with a Free Glass Vase	1	0	1	Expedited	Kim Kline	919 ROCKDALE DR			SAN FRANCISCO	CA	94127-1724	US		Happy Birthday Kim! From Colleen, Patrick & Daniel	false		
113-7859369-1416234	41865221598594	2020-11-09T20:17:03+00:00	2020-11-09T12:17:03-08:00	2020-11-09T20:45:37+00:00	2020-11-13T07:59:59+00:00	-4	48x5v2q0gx13b32@marketplace.amazon.com	darlene montoya	+1 929-436-4790 ext. 70196	ABR0022	Delivery by Wednesday | Arabella Farm Direct Bouquet of 12 Fresh Cut Pink Roses with a Free Glass Vase	1	0	1	Expedited	Dru Tafoya	817 N FOCH ST			T OR C	NM	87901-1629	US		Wishing you a speedy recovery! We love very much! Love you! Darlene, Lawrence, Layna, Leo, Evan, and Owen From darlene montoya	false		
112-9869926-5102659	38934000928138	2020-11-09T20:22:52+00:00	2020-11-09T12:22:52-08:00	2020-11-09T20:52:14+00:00	2020-11-13T07:59:59+00:00	-4	ypbjr7srkp4b8px@marketplace.amazon.com	Craig M Pilecki	+1 213-442-1463 ext. 89731	ABR0022	Delivery by Wednesday | Arabella Farm Direct Bouquet of 12 Fresh Cut Pink Roses with a Free Glass Vase	1	0	1	Expedited	Pilecki	9022 PEARL ST			BOSTON	NY	14025-9673	US		Happy Birthday! From Craig	false		
112-4849560-6342668	29647449933898	2020-11-09T20:21:46+00:00	2020-11-09T12:21:46-08:00	2020-11-09T20:52:16+00:00	2020-11-13T07:59:59+00:00	-4	tkcxqy52px1m4sz@marketplace.amazon.com	Bob Crothers	+1 619-854-2705 ext. 85669	ABM022	Delivery by Wednesday | Purple Extravagance Bouquet by Arabella Bouquets	1	0	1	Expedited	Linda Stilley	4508 E 55TH ST			TULSA	OK	74135-4302	US			false		
111-9966017-6687404	49196716964098	2020-11-09T20:43:40+00:00	2020-11-09T12:43:40-08:00	2020-11-09T21:11:20+00:00	2020-11-13T07:59:59+00:00	-4	d0mr6rrpbrglfcz@marketplace.amazon.com	Melissa Embry	+1 213-442-1463 ext. 23823	ABR004	Delivery by Wednesday | Arabella Farm Direct Bouquet of 12 Fresh Cut Yellow Roses with a Free Glass Vase	1	0	1	Expedited	Karen Boudreaux	124 SYMPHONY PL			DUSON	LA	70529-3304	US		Happy Birthday and Happy Anniversary! We love you!  Love,  James, Melissa, Ethan, Colton, and Ella From Melissa Embry	false		
114-0079689-3397077	24655856157482	2020-11-09T20:47:27+00:00	2020-11-09T12:47:27-08:00	2020-11-09T21:16:14+00:00	2020-11-13T07:59:59+00:00	-4	jbl56m6kb28vjcm@marketplace.amazon.com	Dr. John C. Warden	+1 213-442-1463 ext. 95402	ABR0022	Delivery by Wednesday | Arabella Farm Direct Bouquet of 12 Fresh Cut Pink Roses with a Free Glass Vase	1	0	1	Expedited	The Warden Family	5920 S COUNTRY CLUB BLVD			LITTLE ROCK	AR	72207-4306	US		Taylor, we love you. From Mom and Dad	false		
113-3511923-3448228	02620464243418	2020-11-09T21:33:34+00:00	2020-11-09T13:33:34-08:00	2020-11-09T21:57:25+00:00	2020-11-13T07:59:59+00:00	-4	fcspfd09gqd8fk2@marketplace.amazon.com	LaBreea Walsh	+1 602-671-6610 ext. 74681	ABR0022	Delivery by Wednesday | Arabella Farm Direct Bouquet of 12 Fresh Cut Pink Roses with a Free Glass Vase	1	0	1	Expedited	Brianna Blue	1200 N DAIRY ASHFORD RD APT 205			HOUSTON	TX	77079-3040	US		Happy Birthday!! I love you to the moon and back.  -Breea From LaBreea Walsh	false		
113-9300131-4160261	27557640786818	2020-11-09T21:53:00+00:00	2020-11-09T13:53:00-08:00	2020-11-09T22:22:45+00:00	2020-11-13T07:59:59+00:00	-4	qspk59l9mxwv5ww@marketplace.amazon.com	Dennis R. Varney	+1 480-618-5344 ext. 56993	ABM022	Delivery by Wednesday | Purple Extravagance Bouquet by Arabella Bouquets	1	0	1	Expedited	Richard Peruggi	1808 FORBES BAY LN SE			BOLIVIA	NC	28422-8682	US			false		
114-3620871-3260240	62753111491338	2020-11-09T22:20:38+00:00	2020-11-09T14:20:38-08:00	2020-11-09T22:48:47+00:00	2020-11-13T07:59:59+00:00	-4	xybjkg3l78hrwtc@marketplace.amazon.com	Barbara Gilligan	+1 602-671-6610 ext. 92910	ABM022	Delivery by Wednesday | Purple Extravagance Bouquet by Arabella Bouquets	1	0	1	Expedited	Dr. Kristin Starosta	533 ELMHURST AVE			BETHLEHEM	PA	18017-3832	US		Dear Kristin - Congratulations! Another HELIX in the books! What an accomplishment! I appreciate you! Barb. From Barbara Gilligan	false		
113-1173702-3584266	23842103139970	2020-11-09T22:22:02+00:00	2020-11-09T14:22:02-08:00	2020-11-09T22:49:56+00:00	2020-11-13T07:59:59+00:00	-4	xn8rrmdx5nbv8br@marketplace.amazon.com	Holly Kopra	+1 929-436-4790 ext. 55900	ABR0022	Delivery by Wednesday | Arabella Farm Direct Bouquet of 12 Fresh Cut Pink Roses with a Free Glass Vase	1	0	1	Expedited	The Ballews	11706 10TH PL W			EVERETT	WA	98204-6013	US		Jason, Karla & Ari   Congratulations on your newest little star!  Best, Holly K (CPA) :) From Holly Kopra	false		
113-9112441-7955455	07508718334802	2020-11-09T22:32:43+00:00	2020-11-09T14:32:43-08:00	2020-11-09T22:52:30+00:00	2020-11-13T07:59:59+00:00	-4	v7502750fwgcdgn@marketplace.amazon.com	Maggie Connolly	+1 213-442-1463 ext. 59948	ABR0055	Delivery by Wednesday | Arabella Farm Direct Bouquet of 12 Stems of Fresh Cut Hot Pink Roses in a Free Designer Glass Vase	1	0	1	Expedited	Eileen Comiskey	10737 WHITE TAIL RUN			ORLAND PARK	IL	60467-8866	US		My dear friend, We hope you have a speedy recovery!  Take good care of yourself! Love you xoxo From Margaret & Jon Connolly	false		
113-1909335-0746630	61905420083586	2020-11-09T22:26:52+00:00	2020-11-09T14:26:52-08:00	2020-11-09T22:52:56+00:00	2020-11-13T07:59:59+00:00	-4	lt3ts54psfzn286@marketplace.amazon.com	Charles Vanderslice	+1 602-671-6610 ext. 76943	ABM022	Delivery by Wednesday | Purple Extravagance Bouquet by Arabella Bouquets	1	0	1	Expedited	Angela Vanderslice	76 HOLLIS ST			SHERBORN	MA	01770-1252	US		Enjoy your gift! Happy belated Birthday Angels. From Love,Dorcille and Charles Vanderslice	false		
111-7612825-8548211	20498576846634	2020-11-09T22:32:58+00:00	2020-11-09T14:32:58-08:00	2020-11-09T22:56:33+00:00	2020-11-13T07:59:59+00:00	-4	5mkdgwjp6bg7cmq@marketplace.amazon.com	Kim Morrissey	+1 213-442-1463 ext. 83416	ABR0022	Delivery by Wednesday | Arabella Farm Direct Bouquet of 12 Fresh Cut Pink Roses with a Free Glass Vase	1	0	1	Expedited	Mrs Ramona Wilday	21 BRIARFIELD DR			MARRERO	LA	70072-5067	US		Your in my thoughts and prayers at this difficult time. From Kim Morrissey	false		
114-8981607-9001058	27046275467130	2020-11-09T22:31:47+00:00	2020-11-09T14:31:47-08:00	2020-11-09T22:56:58+00:00	2020-11-13T07:59:59+00:00	-4	my96cynsjdmqd7p@marketplace.amazon.com	david cooper	+1 619-854-2705 ext. 68706	ABM022	Delivery by Wednesday | Purple Extravagance Bouquet by Arabella Bouquets	1	0	1	Expedited	Kim Dunn	245 FERNLY PARK DR			JOHNS CREEK	GA	30022-6365	US		Happy Birthday !!! From Cathi and David Cooper	false		
113-5505571-2645866	62936127518026	2020-11-09T22:28:51+00:00	2020-11-09T14:28:51-08:00	2020-11-09T22:57:27+00:00	2020-11-13T07:59:59+00:00	-4	grdh5gz3l7cmmmb@marketplace.amazon.com	Jill Taylor	+1 480-618-5344 ext. 45649	ABR0066	Delivery by Wednesday | Arabella Bouquets 12 Stems of Fresh Cut White Roses in a Free Designer Glass Vase	1	0	1	Expedited	Jane Townsend	49 BLUE SPRUCE LN			BALLSTON LAKE	NY	12019-1318	US		for all your doing now and into the furure Love you From Mark	false		
111-0192822-9483408	39286716258570	2020-11-09T22:35:42+00:00	2020-11-09T14:35:42-08:00	2020-11-09T22:59:24+00:00	2020-11-13T07:59:59+00:00	-4	r02p6gmwzn1pkxv@marketplace.amazon.com	Jeff Williams	+1 602-671-6610 ext. 79817	ABR0033	Delivery by Wednesday | Arabella Farm Direct Bouquet of 12 Fresh Cut Orange Roses with a Free Glass Vase	1	0	1	Expedited	Jackie Kirkpatrick c/o Nancy Cuccio	686 RODNEY DR			BATON ROUGE	LA	70808-5861	US		I am so sorry for your loss.  We are praying for all of you and love you!  May God give you the strength and comfort you need these days as you celebrate your mom's life and grieve her passing. From Amy and Jeff  Williams	false		
114-5066443-4449828	61519969498674	2020-11-09T22:34:57+00:00	2020-11-09T14:34:57-08:00	2020-11-09T23:04:15+00:00	2020-11-13T07:59:59+00:00	-4	6p937hf491nc542@marketplace.amazon.com	Jason Blitzstein	+1 480-618-5344 ext. 84487	ABM022	Delivery by Wednesday | Purple Extravagance Bouquet by Arabella Bouquets	1	0	1	Expedited	Arlene Garrod	12447 CRYSTAL POINTE DR UNIT 202			BOYNTON BEACH	FL	33437-7241	US		Happy Birthday Grandmom We love you and miss you so much! Reef, Brit and Jason From Jason Blitzstein	false		
114-3158352-8213829	37808620812578	2020-11-09T23:13:00+00:00	2020-11-09T15:13:00-08:00	2020-11-09T23:16:07+00:00	2020-11-13T07:59:59+00:00	-4	53qm4hytyr899dq@marketplace.amazon.com	Richard LaMotte	+1 415-851-9136 ext. 08501	ABR014	Arabella Bouquets 18 Stems of Fresh Cut White Roses in a Free Designer Glass Vase	1	0	1	Standard	Mrs Samantha McDonald	544 SADDLE VIS			CIBOLO	TX	78108-3658	US		Samantha, We are so sorry for your loss. Send all our love and thinking of you at this deeply sad time. Love always, Shell, Rich and Hudson. Xxx	false		
111-6585922-0765849	29713834049842	2020-11-09T22:58:36+00:00	2020-11-09T14:58:36-08:00	2020-11-09T23:19:27+00:00	2020-11-13T07:59:59+00:00	-4	w8rzr34btbkq6c8@marketplace.amazon.com	donnete taboada	+1 619-854-2705 ext. 13353	ABM020	Delivery by Thursday | The Sunset Bouquet by Arabella Bouquets	1	0	1	Expedited	Ms.Lea Davis	2360 SAND POINT CT			DISCOVERY BAY	CA	94505-9349	US		Happy Happy 40th  So sad we can't be there. Hope this gets to you on time.   All our love.   From Roy & Donnette, AKA Jelly Beans. LOL From Roy & Donnette	false		
112-8235961-3348217	19877905540610	2020-11-09T22:55:17+00:00	2020-11-09T14:55:17-08:00	2020-11-09T23:21:50+00:00	2020-11-13T07:59:59+00:00	-4	8pf968sr0jbyk21@marketplace.amazon.com	Michael Schneider	+1 213-442-1463 ext. 32353	ABR0033	Delivery by Wednesday | Arabella Farm Direct Bouquet of 12 Fresh Cut Orange Roses with a Free Glass Vase	1	0	1	Expedited	Kim Hensley	12923 SW WAHKEENA CT			PORTLAND	OR	97224-6135	US		Kim - Wishing you a wonderful Happy Birthday month and sweet birthday thoughts and wishes for you.  I hope the flowers smell as sweet as you are as a person and my lover. Happy Birthday Kim!!! From Michael Schneider	false		
112-8208757-2798663	29012144211658	2020-11-09T23:00:09+00:00	2020-11-09T15:00:09-08:00	2020-11-09T23:29:23+00:00	2020-11-13T07:59:59+00:00	-4	ntld3zg7549nqk4@marketplace.amazon.com	Mary-Lynn Musco	+1 480-618-5344 ext. 19847	ABM022	Delivery by Wednesday | Purple Extravagance Bouquet by Arabella Bouquets	1	0	1	Expedited	Marie Musco	121 SUNRISE HILL CIR			ORANGE	CT	06477-1132	US		Dear Marie Happy Birthday Love  Lynnie	false		
114-4396825-3020241	45832921130042	2020-11-09T21:56:44+00:00	2020-11-09T13:56:44-08:00	2020-11-09T23:32:01+00:00	2020-11-13T07:59:59+00:00	-4	p40kh36dll4jbn3@marketplace.amazon.com	Omni	+1 602-671-6610 ext. 48419	ABM022	Delivery by Wednesday | Purple Extravagance Bouquet by Arabella Bouquets	1	0	1	Expedited	Nikki Workman	1300 HOUSTON ST			FORT WORTH	TX	76102-6556	US		Nikki,   Thank you for all of your help with training! We appreciate your hard work and everything you do. From Kylie, Devin, Dan, Leo, Charles, Josh, Nora, Chef	false		
113-3408814-0301869	25073637943738	2020-11-09T23:01:57+00:00	2020-11-09T15:01:57-08:00	2020-11-09T23:32:04+00:00	2020-11-13T07:59:59+00:00	-4	lklpfw9861lpmq3@marketplace.amazon.com	Jeremy A. Walters	+1 213-442-1463 ext. 37947	ABR0022	Delivery by Wednesday | Arabella Farm Direct Bouquet of 12 Fresh Cut Pink Roses with a Free Glass Vase	1	0	1	Expedited	Marcia Walters	7215 RYEDALE CT			SARASOTA	FL	34241-2706	US		Enjoy your gift! Happy birthday Daddy From Jeremy A. Walters	false		
113-7081214-3150638	23220490238482	2020-11-09T23:11:34+00:00	2020-11-09T15:11:34-08:00	2020-11-09T23:41:08+00:00	2020-11-13T07:59:59+00:00	-4	n7pmyvqzx94c88y@marketplace.amazon.com	No One of Note	+1 415-851-9136 ext. 46044	ABM010	Delivery by Wednesday | The Spring Fling Bouquet by Arabella Bouquets with a Free Designer Glass Vase	1	0	1	Expedited	Naomi Penney & Alex Dagnino	228 SOUTHGATE BLVD			MELBOURNE	FL	32901-7022	US		Happy B-Day, Sis! We hope it's a wonderful one and the fam is doing well! Much Love! :-) From Myke, Ruth & Gabe	false		
112-2706933-6426659	30243120173722	2020-11-09T23:25:43+00:00	2020-11-09T15:25:43-08:00	2020-11-09T23:47:14+00:00	2020-11-13T07:59:59+00:00	-4	qxzk7f8qbg2mcss@marketplace.amazon.com	Cari Lynn Zwick	+1 929-436-4790 ext. 24950	ABR0055	Delivery by Wednesday | Arabella Farm Direct Bouquet of 12 Stems of Fresh Cut Hot Pink Roses in a Free Designer Glass Vase	1	0	1	Expedited	Encompass health rehab hospital Northwest Tucson	SAMMI WOOD 1921 W HOSPITAL DR			TUCSON	AZ	85704-7806	US		Sammi,  Thinking of you!  You got this girl. From Love, Cari	false		
111-4114495-4045026	58728742574930	2020-11-09T23:24:11+00:00	2020-11-09T15:24:11-08:00	2020-11-09T23:52:32+00:00	2020-11-13T07:59:59+00:00	-4	jyk0kl9g91jgnx7@marketplace.amazon.com	Paul Rogers	+1 929-436-4790 ext. 44951	ABR0022	Delivery by Wednesday | Arabella Farm Direct Bouquet of 12 Fresh Cut Pink Roses with a Free Glass Vase	1	0	1	Standard	Gaby Rose	3229 SAN ILDEFONSO LOOP NE			RIO RANCHO	NM	87144-5347	US		Much Love ❤️ From Paul Rogers	false		
114-4886047-9519443	27556109325242	2020-11-09T23:26:21+00:00	2020-11-09T15:26:21-08:00	2020-11-09T23:55:21+00:00	2020-11-13T07:59:59+00:00	-4	07389b19j7brqzp@marketplace.amazon.com	darshan gandhi	+1 602-671-6610 ext. 34984	ABM022	Delivery by Wednesday | Purple Extravagance Bouquet by Arabella Bouquets	1	0	1	Expedited	Vasu Moparty	2512 SILVER TABLE DR			LEWISVILLE	TX	75056-5685	US		Dear Vasu and family, Our most sincere condolences for your loss. God Bless. Darshan and Shyama From darshan gandhi	false		
113-6558656-9383457	13332905895378	2020-11-09T23:45:54+00:00	2020-11-09T15:45:54-08:00	2020-11-10T00:13:33+00:00	2020-11-13T07:59:59+00:00	-4	gvrl368lk1x0clb@marketplace.amazon.com	Jay Black	+1 415-851-9136 ext. 83460	ABM010	Delivery by Wednesday | The Spring Fling Bouquet by Arabella Bouquets with a Free Designer Glass Vase	1	0	1	Expedited	The DZ family	6204 STONEBRIDGE RD			WILMINGTON	NC	28409-9300	US		Thank you for allowing us to use your amazing lake house! We love you Tanya and Jay From Jay Black	false		
111-5896833-8073030	17918654771930	2020-11-09T23:59:13+00:00	2020-11-09T15:59:13-08:00	2020-11-10T00:29:29+00:00	2020-11-13T07:59:59+00:00	-4	gwrzcz13drg98b6@marketplace.amazon.com	Michael Arrigo	+1 602-671-6610 ext. 13206	ABM022	Delivery by Wednesday | Purple Extravagance Bouquet by Arabella Bouquets	1	0	1	Expedited	Michael Arrigo	1804 Drylie Ct			Virginia Beach	VA	23464-7507	US			true		
112-3322741-4854638	54038686504530	2020-11-10T00:19:40+00:00	2020-11-09T16:19:40-08:00	2020-11-10T00:37:47+00:00	2020-11-13T07:59:59+00:00	-4	5k4bj15v4zdvwww@marketplace.amazon.com	Rita Gray	+1 480-618-5344 ext. 81825	ABR0022	Delivery by Wednesday | Arabella Farm Direct Bouquet of 12 Fresh Cut Pink Roses with a Free Glass Vase	1	0	1	Expedited	Karen Culledge-Williams	1605 W BROWN DEER RD			RIVER HILLS	WI	53217-2139	US		You have my deepest Condolences.  I know Chloe loved the color "Pink".  Just wanted to remember her. Your family is in my prayers during this difficult time. From Rita Gray-Johnnie and Sebina Friend Ms. Gray	false		
111-3906193-6538646	56833719320154	2020-11-10T00:13:05+00:00	2020-11-09T16:13:05-08:00	2020-11-10T00:47:29+00:00	2020-11-13T07:59:59+00:00	-4	2yh0l0yttv4jbh7@marketplace.amazon.com	sharon bartruff	+1 602-671-6610 ext. 80831	ABM021	Delivery by Thursday | The Joyous Bouquet by Arabella Bouquets	1	0	1	Expedited	Ethan & Michelle Clayton	12504 NE TIFFANY DR			VANCOUVER	WA	98684-5868	US			false		
111-0483993-3139430	42129413124194	2020-11-10T00:29:23+00:00	2020-11-09T16:29:23-08:00	2020-11-10T01:00:01+00:00	2020-11-13T07:59:59+00:00	-4	th2y54s99jhlrx0@marketplace.amazon.com	Cheryl Mathews	+1 602-671-6610 ext. 45603	ABR0022	Delivery by Wednesday | Arabella Farm Direct Bouquet of 12 Fresh Cut Pink Roses with a Free Glass Vase	1	0	1	Expedited	Arielle Fentress	1609 HAZEL DR UNIT 305A			CLEVELAND	OH	44106-1744	US			false		
112-9259892-8855407	30990661931762	2020-11-10T00:34:40+00:00	2020-11-09T16:34:40-08:00	2020-11-10T01:03:15+00:00	2020-11-13T07:59:59+00:00	-4	1qvtj9rmyzh3vfd@marketplace.amazon.com	Richard Rotharmel	+1 213-442-1463 ext. 64247	ABM022	Delivery by Wednesday | Purple Extravagance Bouquet by Arabella Bouquets	1	0	1	Expedited	Lena Garza	529 NE 6TH AVE			CAMAS	WA	98607-2061	US			false		
114-3460556-6453047	35264333453666	2020-11-10T00:33:21+00:00	2020-11-09T16:33:21-08:00	2020-11-10T01:03:32+00:00	2020-11-13T07:59:59+00:00	-4	x4jrz768w54r2gh@marketplace.amazon.com	Paulette Hill	+1 602-671-6610 ext. 86159	ABR0022	Delivery by Wednesday | Arabella Farm Direct Bouquet of 12 Fresh Cut Pink Roses with a Free Glass Vase	1	0	1	Expedited	Paulette Hill	7172 SPRINGHOUSE LN			CHESTNUT HILL COVE	MD	21226-2200	US			false		
112-0246649-3441822	27270990440330	2020-11-10T00:49:45+00:00	2020-11-09T16:49:45-08:00	2020-11-10T01:12:39+00:00	2020-11-13T07:59:59+00:00	-4	714zb9yr59d39pz@marketplace.amazon.com	Ligaya abalos	+1 929-436-4790 ext. 51440	ABR0022	Delivery by Wednesday | Arabella Farm Direct Bouquet of 12 Fresh Cut Pink Roses with a Free Glass Vase	1	0	1	Standard	Reggie Abubo	12225 CANYON HILL AVE			SYLMAR	CA	91342-5495	US		Hi Reggie, Enjoy your gift! Belated happy birthday!! From: Tita Ligaya and Tito Joe	false		
112-5103265-0559444	22175118673082	2020-11-10T00:42:38+00:00	2020-11-09T16:42:38-08:00	2020-11-10T01:13:16+00:00	2020-11-13T07:59:59+00:00	-4	16fsmm365khkx37@marketplace.amazon.com	Steve	+1 213-442-1463 ext. 62099	ABR0022	Delivery by Wednesday | Arabella Farm Direct Bouquet of 12 Fresh Cut Pink Roses with a Free Glass Vase	1	0	1	Expedited	Steve	215 HIGHWAY 26			MITCHELL	OR	97750-9743	US			false		
112-0459908-1467459	41847762310354	2020-11-10T00:52:58+00:00	2020-11-09T16:52:58-08:00	2020-11-10T01:19:28+00:00	2020-11-13T07:59:59+00:00	-4	rvysx339t4r6mrl@marketplace.amazon.com	Tsedy Gebeyehu	+1 929-436-4790 ext. 28571	ABM022	Delivery by Wednesday | Purple Extravagance Bouquet by Arabella Bouquets	1	0	1	Expedited	Michelle Coppins	101 WESTMONT WAY			TYRONE	GA	30290-1570	US			false		
113-8961001-6766645	04438619970682	2020-11-10T00:53:07+00:00	2020-11-09T16:53:07-08:00	2020-11-10T01:19:47+00:00	2020-11-13T07:59:59+00:00	-4	fyj1q8zsn5nkpn4@marketplace.amazon.com	modell plummer	+1 602-671-6610 ext. 66406	ABR004	Delivery by Wednesday | Arabella Farm Direct Bouquet of 12 Fresh Cut Yellow Roses with a Free Glass Vase	1	0	1	Expedited	Barbara Rahrer	212 LINCOLN ST SE			HUNTSVILLE	AL	35801-4107	US			false		
111-2475192-8015449	14586825566642	2020-11-10T01:12:53+00:00	2020-11-09T17:12:53-08:00	2020-11-10T01:42:31+00:00	2020-11-13T07:59:59+00:00	-4	0wzvwqw4wx4ctp8@marketplace.amazon.com	Mary	+1 602-671-6610 ext. 16500	ABM010	Delivery by Wednesday | The Spring Fling Bouquet by Arabella Bouquets with a Free Designer Glass Vase	1	0	1	Expedited	Sarah Brashear	1001 SCHERTZ PKWY			SCHERTZ	TX	78154-1628	US			false		
111-7596339-8807418	69881736292162	2020-11-10T01:12:23+00:00	2020-11-09T17:12:23-08:00	2020-11-10T01:42:41+00:00	2020-11-13T07:59:59+00:00	-4	28pvpjgplhmsqcm@marketplace.amazon.com	Noel Bangs	+1 602-671-6610 ext. 10284	ABM010	Delivery by Wednesday | The Spring Fling Bouquet by Arabella Bouquets with a Free Designer Glass Vase	1	0	1	Expedited	Mari Bangs	1304 DIVISION ST			METAIRIE	LA	70001-3945	US			false		
111-4988014-0321813	68370115982194	2020-11-10T01:21:45+00:00	2020-11-09T17:21:45-08:00	2020-11-10T01:52:10+00:00	2020-11-13T07:59:59+00:00	-4	sj0ntbgvnq4802g@marketplace.amazon.com	Martin	+1 213-442-1463 ext. 15327	ABR0022	Delivery by Wednesday | Arabella Farm Direct Bouquet of 12 Fresh Cut Pink Roses with a Free Glass Vase	1	0	1	Expedited	Oliva Pantoja	805 MESA VISTA DR			FARMINGTON	NM	87401-2890	US			false		
111-7311618-4344264	14539550686906	2020-11-10T01:32:16+00:00	2020-11-09T17:32:16-08:00	2020-11-10T01:52:36+00:00	2020-11-13T07:59:59+00:00	-4	dgj14d2st11xt07@marketplace.amazon.com	Dharika	+1 619-854-2705 ext. 44880	ABM022	Delivery by Wednesday | Purple Extravagance Bouquet by Arabella Bouquets	1	0	1	Expedited	Fatme Chehab	6142 N GULLEY RD			DEARBORN HEIGHTS	MI	48127-3057	US		Sending love, prayers, strength & comfort to you & your family. I hope the journal helps you share all that you wanted to share with Bilal. Always here xoxo From Dharika, Micheal & our families!	false		
114-9377790-0632229	56287560144210	2020-11-10T01:24:27+00:00	2020-11-09T17:24:27-08:00	2020-11-10T01:54:31+00:00	2020-11-13T07:59:59+00:00	-4	b0qtq0t20vl6f3f@marketplace.amazon.com	Sanya Ramos	+1 415-851-9136 ext. 31763	ABM010	Delivery by Wednesday | The Spring Fling Bouquet by Arabella Bouquets with a Free Designer Glass Vase	1	0	1	Expedited	Rosanna	1615 GRANDON AVE APT 214			SAN MARCOS	CA	92078-3774	US			false		
114-3103266-4628212	33302675498746	2020-11-10T01:32:48+00:00	2020-11-09T17:32:48-08:00	2020-11-10T01:57:40+00:00	2020-11-13T07:59:59+00:00	-4	05g3nl1ygn7430q@marketplace.amazon.com	P martin	+1 213-442-1463 ext. 30052	ABM010	Delivery by Wednesday | The Spring Fling Bouquet by Arabella Bouquets with a Free Designer Glass Vase	1	0	1	Expedited	Mae Joyce Givens Hubbard	428 KIMMEL DR			CEDAR HILL	TX	75104-5019	US		Enjoy your flowers. Stay Well. HAPPY BIRTHDAY!! We love you. From Pamela and Selles	false		
113-3780946-2417863	01865878318650	2020-11-10T01:34:36+00:00	2020-11-09T17:34:36-08:00	2020-11-10T02:04:54+00:00	2020-11-13T07:59:59+00:00	-4	hjkgnfsy74dh1dx@marketplace.amazon.com	Brent Dillon		ABM022	Delivery by Wednesday | Purple Extravagance Bouquet by Arabella Bouquets	1	0	1	Expedited	Dillon Dist	4006 S Boyd Ct			Wichita	KS	67215	US			true		
113-9943972-2597867	23540236801282	2020-11-10T01:38:03+00:00	2020-11-09T17:38:03-08:00	2020-11-10T02:07:21+00:00	2020-11-13T07:59:59+00:00	-4	9rgyd3wml9d880b@marketplace.amazon.com	Abner Kovoor	+1 602-671-6610 ext. 49848	ABR001	Delivery by Wednesday | Arabella Bouquets 12 Stems of Fresh Cut Red Roses in a Free Designer Glass Vase	1	0	1	Expedited	Heather Myers	1113 ANDERSON DR			WEST PLAINS	MO	65775-3888	US		Hi Rose, Happy Birthday 🥳 ! From Ab-Ab	false		
112-7594952-2702635	14800630268002	2020-11-10T01:43:09+00:00	2020-11-09T17:43:09-08:00	2020-11-10T02:07:49+00:00	2020-11-13T07:59:59+00:00	-4	rbsrxbjc0gjvsfy@marketplace.amazon.com	Eric Sayers	+1 602-671-6610 ext. 02714	ABR0022	Delivery by Wednesday | Arabella Farm Direct Bouquet of 12 Fresh Cut Pink Roses with a Free Glass Vase	1	0	1	Expedited	Roxanne Davis-Cote	C/O BEAUFORT MEMORIAL HOSPITAL	955 RIBAUT RD		BEAUFORT	SC	29902-5441	US		Happy Birthday Roxanne! My Favorite Dietitian EVER! All my best for another fantastic ROX year! From Chef E	false		
113-4856778-4703405	20772636970658	2020-11-10T01:38:51+00:00	2020-11-09T17:38:51-08:00	2020-11-10T02:09:25+00:00	2020-11-13T07:59:59+00:00	-4	hjkgnfsy74dh1dx@marketplace.amazon.com	Brent Dillon		ABM010	Delivery by Wednesday | The Spring Fling Bouquet by Arabella Bouquets with a Free Designer Glass Vase	1	0	1	Expedited	Dillon Dist	4006 S Boyd Ct			Wichita	KS	67215	US			true		
111-6692679-0343406	46750720558074	2020-11-10T01:57:26+00:00	2020-11-09T17:57:26-08:00	2020-11-10T02:22:57+00:00	2020-11-13T07:59:59+00:00	-4	tqdzf5h7vt2sx07@marketplace.amazon.com	Mary E. LeRoy	+1 213-442-1463 ext. 57946	ABR0022	Delivery by Wednesday | Arabella Farm Direct Bouquet of 12 Fresh Cut Pink Roses with a Free Glass Vase	1	0	1	Expedited	Diana Reed	54 OAKWELL FARMS PKWY			SAN ANTONIO	TX	78218-1784	US		Happy belated Birthday!!  Love you bunches!!❤️ From Mary E. LeRoy	false		
114-3273165-4635465	15394975503122	2020-11-10T02:13:35+00:00	2020-11-09T18:13:35-08:00	2020-11-10T02:40:38+00:00	2020-11-13T07:59:59+00:00	-4	wtx0zmhnrgy31y1@marketplace.amazon.com	Pat Sulier	203-372-0313 office	ABR0022	Delivery by Wednesday | Arabella Farm Direct Bouquet of 12 Fresh Cut Pink Roses with a Free Glass Vase	1	0	1	Expedited	Mary Witkowski	2428 EASTON TPKE			FAIRFIELD	CT	06825-1122	US		Mary--Beautiful flowers for a beautiful woman. I miss seeing you so much! Take care, my sweet friend. Love Patty From Pat Sulier	false		
113-3875463-1432204	02437611037290	2020-11-10T02:13:13+00:00	2020-11-09T18:13:13-08:00	2020-11-10T02:43:42+00:00	2020-11-13T07:59:59+00:00	-4	brk9hm9sxfnmsz2@marketplace.amazon.com	Jessica Sukanen	+1 415-851-9136 ext. 58160	ABR0022	Delivery by Wednesday | Arabella Farm Direct Bouquet of 12 Fresh Cut Pink Roses with a Free Glass Vase	1	0	1	Expedited	Kelly Hieb	11618 E KNOLL RD			LAKE NEBAGAMON	WI	54849-4402	US			false		
113-1081790-3145846	36155267751194	2020-11-10T02:28:29+00:00	2020-11-09T18:28:29-08:00	2020-11-10T02:57:37+00:00	2020-11-13T07:59:59+00:00	-4	g040c9xyy1ctk54@marketplace.amazon.com	Erin Callanan	+1 213-442-1463 ext. 74449	ABR0033	Delivery by Wednesday | Arabella Farm Direct Bouquet of 12 Fresh Cut Orange Roses with a Free Glass Vase	1	0	1	Expedited	Tara Psencik	735 EAGLE LANDING DR			BELTON	TX	76513-5704	US		Happy Birthday Tara  Love and miss you! Erin From Erin Callanan	false		
111-0261355-6345043	03798335742850	2020-11-10T02:34:33+00:00	2020-11-09T18:34:33-08:00	2020-11-10T03:00:06+00:00	2020-11-13T07:59:59+00:00	-4	jxjdgdtntnt1477@marketplace.amazon.com	Dr Stella M Rosen	+1 619-854-2705 ext. 00578	ABR012	Delivery by Thursday | Arabella Farm Direct Bouquet of 18 Fresh Cut Pink Roses with a Free Glass Vase	1	0	1	Expedited	Dana Parks	2809 SE OAK ST			PORTLAND	OR	97214-1833	US		Dana, HAPPY BIRTHDAY!!! I hope this is one of the best ever.  I love you. Dad From Al Rosen	false		
114-4020787-7330662	09704499868194	2020-11-10T02:30:12+00:00	2020-11-09T18:30:12-08:00	2020-11-10T03:00:53+00:00	2020-11-13T07:59:59+00:00	-4	21z9k5ghg3smx5z@marketplace.amazon.com	Peg Woodworth	+1 213-442-1463 ext. 97312	ABM020	Delivery by Thursday | The Sunset Bouquet by Arabella Bouquets	1	0	1	Expedited	Alison DeSalvo	2177 ROSWELL DR			LEXINGTON	KY	40513-1811	US			false		
113-2188927-3452252	57957359754490	2020-11-10T02:37:11+00:00	2020-11-09T18:37:11-08:00	2020-11-10T03:02:46+00:00	2020-11-13T07:59:59+00:00	-4	dhjsl1hm46wsdwm@marketplace.amazon.com	Michael Hipwell	+1 602-671-6610 ext. 18504	ABR0055	Delivery by Wednesday | Arabella Farm Direct Bouquet of 12 Stems of Fresh Cut Hot Pink Roses in a Free Designer Glass Vase	1	0	1	Expedited	Barbara Hipwell	864 LEDGESTONE CT			FORT MILL	SC	29708-6517	US		Happy Birthday Mom!  We love and miss you very much. From Michael and Tom	false		
113-2942819-8999408	49579868946306	2020-11-10T02:52:32+00:00	2020-11-09T18:52:32-08:00	2020-11-10T03:22:15+00:00	2020-11-13T07:59:59+00:00	-4	5j95nln4dmjpr8k@marketplace.amazon.com	Flora Dufour	+1 929-436-4790 ext. 65699	ABM010	Delivery by Wednesday | The Spring Fling Bouquet by Arabella Bouquets with a Free Designer Glass Vase	1	0	1	Expedited	Leah Cottam	2558 76TH AVE SE APT 472			MERCER ISLAND	WA	98040-3795	US		Happy Housewarming and Birthday!! From Flora Dufour	false		
114-7024411-4923415	07467780041290	2020-11-10T03:00:05+00:00	2020-11-09T19:00:05-08:00	2020-11-10T03:27:12+00:00	2020-11-13T07:59:59+00:00	-4	0rwkxymk017n2fc@marketplace.amazon.com	Nina Saunders	+1 602-671-6610 ext. 27508	ABR0022	Delivery by Wednesday | Arabella Farm Direct Bouquet of 12 Fresh Cut Pink Roses with a Free Glass Vase	1	0	1	Expedited	Sandi Carson	1007 WANNAMAKER WAY			HENDERSON	NV	89015-2921	US		Dear Sandi, Happy Birthday Sis! Love, Nina and Jim	false		
111-8258768-8134646	21561295731226	2020-11-10T03:02:34+00:00	2020-11-09T19:02:34-08:00	2020-11-10T03:27:35+00:00	2020-11-13T07:59:59+00:00	-4	g6dctm9qc2r8nd5@marketplace.amazon.com	Kathy Sardina	+1 480-618-5344 ext. 67958	ABM022	Delivery by Wednesday | Purple Extravagance Bouquet by Arabella Bouquets	1	0	1	Expedited	Kara Schoenlein	589 LAKE ST			FRANKFORT	MI	49635-9738	US		Kara, Thinking about you and I’ll see you soon.  I love you and miss you. Love, Joey From Joey Sardina	false		
114-4795065-3899462	20640711646594	2020-11-10T03:00:59+00:00	2020-11-09T19:00:59-08:00	2020-11-10T03:29:55+00:00	2020-11-13T07:59:59+00:00	-4	cqs5q407z7n79lv@marketplace.amazon.com	Mary Narens	+1 929-436-4790 ext. 20792	ABR001	Delivery by Wednesday | Arabella Bouquets 12 Stems of Fresh Cut Red Roses in a Free Designer Glass Vase	1	0	1	Expedited	Irene Narens	26002 S CLOVERLAND DR			SUN LAKES	AZ	85248-7257	US		Happy Birthday Mom!  We love you so much!!! From Stephen, Mary, Devitt, and Collin	false		
113-0287612-5952239	18184596314962	2020-11-10T03:04:40+00:00	2020-11-09T19:04:40-08:00	2020-11-10T03:34:18+00:00	2020-11-13T07:59:59+00:00	-4	1m9ft4n2b0py0p9@marketplace.amazon.com	Xiao Luo	+1 415-851-9136 ext. 00740	ABM020	Delivery by Thursday | The Sunset Bouquet by Arabella Bouquets	1	0	1	Expedited	Wenjing Yang	920 DELAWARE ST SE			MINNEAPOLIS	MN	55414-3041	US		斯人若彩虹，遇上方知有 From Xiao Luo	false		
111-7014463-1364219	02758697177226	2020-11-10T03:08:53+00:00	2020-11-09T19:08:53-08:00	2020-11-10T03:37:23+00:00	2020-11-13T07:59:59+00:00	-4	y0z55rrk2pvjc73@marketplace.amazon.com	Miralda Gingrich	+1 602-671-6610 ext. 20224	ABR001	Delivery by Wednesday | Arabella Bouquets 12 Stems of Fresh Cut Red Roses in a Free Designer Glass Vase	1	0	1	Expedited	Polly Horn	155 WILDFLOWER DR			INEZ	KY	41224-8838	US		Thank you very much for inviting us to your beautiful home. Great times with beautiful friends. Love,  Mark and Miralda From Miralda Gingrich	false		
111-4722702-5058658	02768406109130	2020-11-10T03:20:32+00:00	2020-11-09T19:20:32-08:00	2020-11-10T03:42:30+00:00	2020-11-13T07:59:59+00:00	-4	y0z55rrk2pvjc73@marketplace.amazon.com	Miralda Gingrich	+1 619-854-2705 ext. 21677	ABR001	Delivery by Wednesday | Arabella Bouquets 12 Stems of Fresh Cut Red Roses in a Free Designer Glass Vase	1	0	1	Expedited	Gretchen and Carl Wray	9604 COUNTY ROAD 107 UNIT 1			PROCTORVILLE	OH	45669-8023	US		Thank you very much for inviting us to your beautiful home. We had a great time.  Mark and Miralda Gingrich From Miralda Gingrich	false		
114-3117447-8441049	01311769034338	2020-11-10T03:20:38+00:00	2020-11-09T19:20:38-08:00	2020-11-10T03:46:29+00:00	2020-11-13T07:59:59+00:00	-4	8tv94hzx7gyxm1j@marketplace.amazon.com	Lynette Bensen	+1 619-854-2705 ext. 12127	ABR0022	Delivery by Wednesday | Arabella Farm Direct Bouquet of 12 Fresh Cut Pink Roses with a Free Glass Vase	1	0	1	Expedited	Connie Bensen	2141 CARMELITA DR			SAN CARLOS	CA	94070-2926	US		Olivia good luck on your staring role in the Nutcracker wish we could be there. From Love Grandma Netz and Grandpa Tom	false		
113-3004851-7136223	00903823808770	2020-11-10T03:19:38+00:00	2020-11-09T19:19:38-08:00	2020-11-10T03:48:01+00:00	2020-11-13T07:59:59+00:00	-4	pk1dh7h3prncx9r@marketplace.amazon.com	Danielle Munn	+1 480-618-5344 ext. 21988	ABR0055	Delivery by Wednesday | Arabella Farm Direct Bouquet of 12 Stems of Fresh Cut Hot Pink Roses in a Free Designer Glass Vase	1	0	1	Expedited	Desiree Garza	7 HUMMING BIRD AVE			LAS VEGAS	NM	87701-9828	US		Enjoy your gift! Get well soon! Love Always, From Grandma Elsie Munn	false		
114-4861701-8372268	11523706628522	2020-11-10T03:22:21+00:00	2020-11-09T19:22:21-08:00	2020-11-10T03:50:23+00:00	2020-11-13T07:59:59+00:00	-4	brn1m04nnxv8pwd@marketplace.amazon.com	Una H. Wright	+1 480-618-5344 ext. 03509	ABR0055	Delivery by Wednesday | Arabella Farm Direct Bouquet of 12 Stems of Fresh Cut Hot Pink Roses in a Free Designer Glass Vase	1	0	1	Expedited	Brenda and Bill Witt	12024 cross country rd			Mineral	Va	23117	US			false		
111-0103769-3247422	18201131125914	2020-11-10T03:52:19+00:00	2020-11-09T19:52:19-08:00	2020-11-10T03:53:17+00:00	2020-11-13T07:59:59+00:00	-4	sl89vc69hd4fh9x@marketplace.amazon.com	Jennifer Trotter	+1 213-442-1463 ext. 63047	ABM020	Delivery by Thursday | The Sunset Bouquet by Arabella Bouquets	1	0	1	Expedited	Carrie James	5332 W MULBERRY LN			MONEE	IL	60449-8043	US		Happy 40th Birthday Bestie! I am forever grateful for our friendship! Here's to more great times ahead! Miss you & wish I could be there to celebrate with you! SMOOCHES!! Love you the mostest & miss you every day! From Jennifer Trotter	false		
111-0486565-3436217	56130400594882	2020-11-10T03:29:10+00:00	2020-11-09T19:29:10-08:00	2020-11-10T03:57:53+00:00	2020-11-13T07:59:59+00:00	-4	h2p4jhl2czr04xn@marketplace.amazon.com	Elisa	+1 929-436-4790 ext. 40513	ABR0055	Delivery by Wednesday | Arabella Farm Direct Bouquet of 12 Stems of Fresh Cut Hot Pink Roses in a Free Designer Glass Vase	1	0	1	Expedited	Sandie Early	12 Joliet Dr.			COTO DE CAZA	CA	92679-3629	US		Thank you for watching me doing school.  You were a great teacher.  I love you! From Norah	false		
111-7688781-2203442	15215544046874	2020-11-10T03:34:37+00:00	2020-11-09T19:34:37-08:00	2020-11-10T04:02:16+00:00	2020-11-13T07:59:59+00:00	-4	r7k56s6t9rs0y57@marketplace.amazon.com	Maria Borgen	+1 929-436-4790 ext. 69015	ABR0055	Delivery by Wednesday | Arabella Farm Direct Bouquet of 12 Stems of Fresh Cut Hot Pink Roses in a Free Designer Glass Vase	1	0	1	Expedited	Cathy Long	421 2ND ST W			KIRKLAND	WA	98033-5349	US		So sorry for your loss.  Let these flowers bring a little comfort and strength during this hard times. From love,  Maria	false		
112-6099823-5969845	08490154521250	2020-11-10T03:51:04+00:00	2020-11-09T19:51:04-08:00	2020-11-10T04:18:10+00:00	2020-11-13T07:59:59+00:00	-4	8y3x0x2z3k5pqq6@marketplace.amazon.com	Assunta Cisneros	+1 619-854-2705 ext. 34684	ABR012	Delivery by Thursday | Arabella Farm Direct Bouquet of 18 Fresh Cut Pink Roses with a Free Glass Vase	1	0	1	Expedited	Lynn Carty	315 East Stark StreetApt 319			Rockville	IN	47872	US		Celebrate you!!! Congratulations on being Cancer free!!! We are so happy to hear that you beat the “beast”. Love 💕 you Ru, Sue and family From Assunta Cisneros	false		
111-3539657-3206613	27961683006050	2020-11-10T03:59:24+00:00	2020-11-09T19:59:24-08:00	2020-11-10T04:19:36+00:00	2020-11-13T07:59:59+00:00	-4	4y34qs9cpzhzwby@marketplace.amazon.com	Laurie Cacioppo	+1 602-671-6610 ext. 07367	ABM022	Delivery by Wednesday | Purple Extravagance Bouquet by Arabella Bouquets	1	0	1	Expedited	Cristina Poole	22422 RUE CANYON CT			KATY	TX	77450-7683	US		It wasn't that we couldn't remember your birthday.  We just wanted to be the last to wish you HAPPY BIRTHDAY. This way you would remember us best.  WE LOVE YOU and all 38 fabulous years of you!!! From Laurie & Holly - xoxoxo	false		
111-5980114-3317021	04348086183562	2020-11-10T04:01:01+00:00	2020-11-09T20:01:01-08:00	2020-11-10T04:23:47+00:00	2020-11-13T07:59:59+00:00	-4	sl89vc69hd4fh9x@marketplace.amazon.com	Jennifer Trotter	+1 929-436-4790 ext. 48277	ABM010	Delivery by Wednesday | The Spring Fling Bouquet by Arabella Bouquets with a Free Designer Glass Vase	1	0	1	Expedited	Cathy Trotter	COMMUNITY HONDA 8340 W 159TH ST			ORLAND PARK	IL	60462-4941	US		Thank you so very much for coming down here & taking care of the kids! We are truly greatful! The kids, frankly-lol, loved getting to spend quality time with you! Thank you! Love & miss you! From Trotter Fam	false		
113-6422122-3953031	28218163144666	2020-11-10T03:57:53+00:00	2020-11-09T19:57:53-08:00	2020-11-10T04:25:29+00:00	2020-11-13T07:59:59+00:00	-4	j2qf34hwrpnv3sx@marketplace.amazon.com	Teri Worry	+1 602-671-6610 ext. 84343	ABR0066	Delivery by Wednesday | Arabella Bouquets 12 Stems of Fresh Cut White Roses in a Free Designer Glass Vase	2	0	2	Expedited	Teri Worry	965 Gulf Shores Drive			Crystal Beach	TX	77659	US			false		
113-6422122-3953031	28105102651146	2020-11-10T03:57:53+00:00	2020-11-09T19:57:53-08:00	2020-11-10T04:25:29+00:00	2020-11-13T07:59:59+00:00	-4	j2qf34hwrpnv3sx@marketplace.amazon.com	Teri Worry	+1 602-671-6610 ext. 84343	ABR0022	Delivery by Wednesday | Arabella Farm Direct Bouquet of 12 Fresh Cut Pink Roses with a Free Glass Vase	2	0	2	Expedited	Teri Worry	965 Gulf Shores Drive			Crystal Beach	TX	77659	US			false		
