order-id	order-item-id	purchase-date	payments-date	reporting-date	promise-date	days-past-promise	buyer-email	buyer-name	buyer-phone-number	sku	product-name	quantity-purchased	quantity-shipped	quantity-to-ship	ship-service-level	recipient-name	ship-address-1	ship-address-2	ship-address-3	ship-city	ship-state	ship-postal-code	ship-country	gift-wrap-type	gift-message-text	is-business-order	purchase-order-number	price-designation
113-6358497-3182601	13756695660762	2020-11-07T14:56:38+00:00	2020-11-07T06:56:38-08:00	2020-11-07T15:24:48+00:00	2020-11-11T07:59:59+00:00	-1	yzc9spsjzwhqj0d@marketplace.amazon.com	Julane M. Hill	+1 480-618-5344 ext. 16810	ABM010	Delivery by Tuesday | The Spring Fling Bouquet by Arabella Bouquets with a Free Designer Glass Vase	2	1	1	Expedited	Pat Mohr	1133 ORLANDO DR			GREEN BAY	WI	54304-4324	US			false		
112-4269972-4705852	57237981856162	2020-11-08T07:48:44+00:00	2020-11-07T23:48:44-08:00	2020-11-08T08:16:19+00:00	2020-11-11T07:59:59+00:00	-1	s0q8cwxg1bxlcq9@marketplace.amazon.com	Larraine Cox	+1 929-436-4790 ext. 71600	ABM022	Delivery by Tuesday | Purple Extravagance Bouquet by Arabella Bouquets	1	0	1	Expedited	Marion Marriott	18600 HIGHWOODS PRESERVE PKWY	UNIT 225		TAMPA	FL	33647-1786	US		Dear Marion, many happy returns of the day sweetie. Thinking of you today with love from Larraine & Jon xx From Larraine Cox	false		
111-4395412-4522607	32774929284482	2020-11-09T17:46:14+00:00	2020-11-09T09:46:14-08:00	2020-11-09T18:12:42+00:00	2020-11-13T07:59:59+00:00	-3	f40w9kbmmd1z6yv@marketplace.amazon.com	Eric Kunzler	+1 929-436-4790 ext. 86990	ABR0055	Delivery by Wednesday | Arabella Farm Direct Bouquet of 12 Stems of Fresh Cut Hot Pink Roses in a Free Designer Glass Vase	1	0	1	Expedited	Titus and Lydia Kunzler	2430 76TH AVE SE APT 521			MERCER ISLAND	WA	98040-3362	US		Happy Anniversary, Mom and Dad!  Love, Eric and family From Eric Kunzler	false		
112-2664942-2121035	08493257161658	2020-11-09T17:45:22+00:00	2020-11-09T09:45:22-08:00	2020-11-09T18:14:58+00:00	2020-11-13T07:59:59+00:00	-3	y0tdcqcjtmm243c@marketplace.amazon.com	Richard Overturf	+1 619-854-2705 ext. 35488	ABR0055	Delivery by Wednesday | Arabella Farm Direct Bouquet of 12 Stems of Fresh Cut Hot Pink Roses in a Free Designer Glass Vase	1	0	1	Expedited	Aftan Overturf	3457 LENNON LN			MARION	IA	52302-4779	US			false		
114-0845089-8190608	15058179805394	2020-11-09T18:15:18+00:00	2020-11-09T10:15:18-08:00	2020-11-09T18:40:53+00:00	2020-11-13T07:59:59+00:00	-3	jzsbh2l51nhkpnh@marketplace.amazon.com	Trent Nguyen	+1 619-854-2705 ext. 19528	ABR0022	Delivery by Wednesday | Arabella Farm Direct Bouquet of 12 Fresh Cut Pink Roses with a Free Glass Vase	1	0	1	Standard	Mrs. Grasso	3206 GUILDERLAND AVE			SCHENECTADY	NY	12306-2622	US		Hope you get better soon.  Lucy, Trent, Jed From Lucy, Trent, Jed	false		
111-8866749-8761025	60657845663794	2020-11-09T18:19:02+00:00	2020-11-09T10:19:02-08:00	2020-11-09T18:42:47+00:00	2020-11-13T07:59:59+00:00	-3	lq1vn96m33pzqt8@marketplace.amazon.com	Victoria Maricle	+1 480-618-5344 ext. 48783	ABR0022	Delivery by Wednesday | Arabella Farm Direct Bouquet of 12 Fresh Cut Pink Roses with a Free Glass Vase	1	0	1	Expedited	Morine Ward	635 FIRST ST APT 302			ALEXANDRIA	VA	22314-1580	US		Dear Morine, we are so thankful you took the time to help us get our lost car keys back!    Warmly, Victoria and Tim From Victoria Maricle	false		
114-1479310-3429058	45615648951058	2020-11-09T18:22:37+00:00	2020-11-09T10:22:37-08:00	2020-11-09T18:47:17+00:00	2020-11-13T07:59:59+00:00	-3	fjpg9j6hmfnnfvh@marketplace.amazon.com	Lynne McClain	+1 619-854-2705 ext. 33140	ABR0022	Delivery by Wednesday | Arabella Farm Direct Bouquet of 12 Fresh Cut Pink Roses with a Free Glass Vase	1	0	1	Expedited	Kay Weber	4115 BOLD MDWS BLVD			OAKLAND TOWNSHIP	MI	48306-1489	US		Happy Birthday to my life long BFF. Wishing you love and blessings, now & always! XXX OOO From Lynne McClain	false		
112-4856762-4505801	04401166971434	2020-11-09T18:32:50+00:00	2020-11-09T10:32:50-08:00	2020-11-09T19:01:17+00:00	2020-11-13T07:59:59+00:00	-3	gj7wyy5ybdwf2qy@marketplace.amazon.com	felipe amezcua	+1 213-442-1463 ext. 74492	ABM010	Delivery by Wednesday | The Spring Fling Bouquet by Arabella Bouquets with a Free Designer Glass Vase	1	0	1	Expedited	Kelly Wallace	940 WESTERN AVE			FLOSSMOOR	IL	60422-1366	US		Happy Birthday =) From SB	false		
111-3874087-9933053	12534823418698	2020-11-09T19:16:10+00:00	2020-11-09T11:16:10-08:00	2020-11-09T19:44:45+00:00	2020-11-13T07:59:59+00:00	-3	lmhpw7n3gwdbk2h@marketplace.amazon.com	amrit guliani	+1 929-436-4790 ext. 16622	ABM022	Delivery by Wednesday | Purple Extravagance Bouquet by Arabella Bouquets	1	0	1	Expedited	neema guliani	1825 7TH ST NW APT 712			WASHINGTON	DC	20001-5177	US		Enjoy your gift!HAPPY BIRTHDAY, AND MANY MORE HEALTHY ONES TO COME, MOM,DAD,SAMEER,JILL AND SANJ From amrit guliani	false		
111-3748754-0249856	55653767359618	2020-11-09T19:22:18+00:00	2020-11-09T11:22:18-08:00	2020-11-09T19:48:40+00:00	2020-11-13T07:59:59+00:00	-3	pf82bgnq4ww5ygs@marketplace.amazon.com	nima nassersharif	+1 929-436-4790 ext. 91315	ABM010	Delivery by Wednesday | The Spring Fling Bouquet by Arabella Bouquets with a Free Designer Glass Vase	1	0	1	Expedited	Laura Assink	131 KONNOWAC PASS RD			MOXEE	WA	98936-9508	US		Happy Birthday! I hope you have a wonderful day and I hope all your wishes come true! From Mohammad Moezzi	false		
112-4793062-9401022	25096471709058	2020-11-09T19:25:54+00:00	2020-11-09T11:25:54-08:00	2020-11-09T19:56:07+00:00	2020-11-13T07:59:59+00:00	-3	57m3xtb7wz4gm4c@marketplace.amazon.com	Jeanne E Cleek	+1 415-851-9136 ext. 92226	ABM010	Delivery by Wednesday | The Spring Fling Bouquet by Arabella Bouquets with a Free Designer Glass Vase	1	0	1	Expedited	Laura Fortin	CORRIDOR CROSSING -	136 36TH AVE SW RM # 12		CEDAR RAPIDS	IA	52404-4638	US			false		
114-6635806-2795406	67719921111986	2020-11-09T19:29:14+00:00	2020-11-09T11:29:14-08:00	2020-11-09T19:56:53+00:00	2020-11-13T07:59:59+00:00	-3	ljddkn9k0vg3lnz@marketplace.amazon.com	Ana	+1 213-442-1463 ext. 06284	ABM022	Delivery by Wednesday | Purple Extravagance Bouquet by Arabella Bouquets	1	0	1	Expedited	Kathy killoran	16 SEAGRAVE RD			CAMBRIDGE	MA	02140-1618	US		Thinking of you all! So happy to hear that the surgeries went well and you are both feeling better❤️ From Janine and Keo	false		
114-5565278-7532227	67172220899730	2020-11-09T19:28:43+00:00	2020-11-09T11:28:43-08:00	2020-11-09T19:59:10+00:00	2020-11-13T07:59:59+00:00	-3	fg7l9gkfv1vgd8p@marketplace.amazon.com	Michael Gallagher	+1 213-442-1463 ext. 95366	ABM022	Delivery by Wednesday | Purple Extravagance Bouquet by Arabella Bouquets	1	0	1	Expedited	Larry Gallagher	3716 GRAND MESA DR			MONTROSE	CO	81403-7114	US			false		
113-3525726-6100262	63858735018546	2020-11-09T19:44:37+00:00	2020-11-09T11:44:37-08:00	2020-11-09T20:04:28+00:00	2020-11-13T07:59:59+00:00	-3	kmj0ptrm064f0zj@marketplace.amazon.com	David Ramirez	+1 619-854-2705 ext. 26541	ABR0022	Delivery by Wednesday | Arabella Farm Direct Bouquet of 12 Fresh Cut Pink Roses with a Free Glass Vase	1	0	1	Expedited	Grace Ayers	103 DORSET CT			SAN RAMON	CA	94583-2521	US		We hope you are feeling better, Love From David and Norm	false		
114-7368038-9509065	48179145793698	2020-11-09T19:38:31+00:00	2020-11-09T11:38:31-08:00	2020-11-09T20:05:00+00:00	2020-11-13T07:59:59+00:00	-3	74q0gjbhsm9j0yy@marketplace.amazon.com	novel idea	+1 602-671-6610 ext. 65905	ABR0022	Delivery by Wednesday | Arabella Farm Direct Bouquet of 12 Fresh Cut Pink Roses with a Free Glass Vase	1	0	1	Expedited	Madrina Penny	576 E 56TH ST AVE D			BROOKLYN	NY	11203-6009	US		Happy Birthday my Dear Madrina! Love you forever! ❤️ From novel idea	false		
113-7488049-3444202	64230224632274	2020-11-09T19:38:37+00:00	2020-11-09T11:38:37-08:00	2020-11-09T20:05:05+00:00	2020-11-13T07:59:59+00:00	-3	3lrydyjtnj978z5@marketplace.amazon.com	anthony grasso	+1 602-671-6610 ext. 91908	ABR0022	Delivery by Wednesday | Arabella Farm Direct Bouquet of 12 Fresh Cut Pink Roses with a Free Glass Vase	1	0	1	Expedited	C smith	263 ROUTE 100			SOMERS	NY	10589-3203	US			false		
113-3319659-5995441	43038293804778	2020-11-09T19:58:38+00:00	2020-11-09T11:58:38-08:00	2020-11-09T20:20:56+00:00	2020-11-13T07:59:59+00:00	-3	dgvw7djr5zy84c2@marketplace.amazon.com	Hoyt Sumerel	+1 480-618-5344 ext. 25748	ABM022	Delivery by Wednesday | Purple Extravagance Bouquet by Arabella Bouquets	1	0	1	Expedited	James B. and Nancy D. Bishop	33685 VAN DUYN RD			EUGENE	OR	97408-9431	US		We are thinking of you and send condolences for Dorothy's passing. Lots of hugs to you and the family. love, Nancy & Hoyt From Hoyt & Nancy  Sumerel	false		
113-5772863-8593816	32343295177042	2020-11-09T19:56:13+00:00	2020-11-09T11:56:13-08:00	2020-11-09T20:23:59+00:00	2020-11-13T07:59:59+00:00	-3	wd1t5ppw0kk4j25@marketplace.amazon.com	Arlene Salzwedel	+1 213-442-1463 ext. 86318	ABM022	Delivery by Wednesday | Purple Extravagance Bouquet by Arabella Bouquets	1	0	1	Expedited	Arlene Salzwedel	4275 HARVEST CIR			ROCKLEDGE	FL	32955-4123	US		My beautiful DD Thank you for 7 wonderful years married to you. I love you! Your sweet Solly	false		
114-1695062-3645016	68343368082226	2020-11-09T20:15:45+00:00	2020-11-09T12:15:45-08:00	2020-11-09T20:33:23+00:00	2020-11-13T07:59:59+00:00	-3	4l57n33b6bhkhg2@marketplace.amazon.com	Fred W Burry	+1 619-854-2705 ext. 68961	ABR0055	Delivery by Wednesday | Arabella Farm Direct Bouquet of 12 Stems of Fresh Cut Hot Pink Roses in a Free Designer Glass Vase	1	0	1	Expedited	Carolyn and Leigh McCuen	12485 PALOMINO LN			APPLE VALLEY	CA	92308-6775	US		Enjoy your gift! Have a blessed 50th wedding anniversary.      We love you dearly,  Fred & Tricia From Fred  & Tricia Burry	true		
113-3849942-6452232	17398793493514	2020-11-09T20:09:06+00:00	2020-11-09T12:09:06-08:00	2020-11-09T20:37:44+00:00	2020-11-13T07:59:59+00:00	-3	sdmvy21t40p0gbm@marketplace.amazon.com	Erin Brown	+1 213-442-1463 ext. 58071	ABR0022	Delivery by Wednesday | Arabella Farm Direct Bouquet of 12 Fresh Cut Pink Roses with a Free Glass Vase	1	0	1	Expedited	Marcia Brown	5702 Woodland Creek			Kingwood	TX	77345	US		Happy Anniversary to such wonderful parents. Hope it's another great year together! From Erin and Chris	false		
114-5355964-7823433	32021552604490	2020-11-09T20:09:29+00:00	2020-11-09T12:09:29-08:00	2020-11-09T20:38:24+00:00	2020-11-13T07:59:59+00:00	-3	s1rtdpmhgrc0b70@marketplace.amazon.com	Vickie Rusco	+1 619-854-2705 ext. 31485	ABR0022	Delivery by Wednesday | Arabella Farm Direct Bouquet of 12 Fresh Cut Pink Roses with a Free Glass Vase	1	0	1	Expedited	Mrs. Twila Rusco	7290 ROSEMOUNT CIR APT 314			TACOMA	WA	98465-1536	US			false		
114-3201342-3390625	16426096019850	2020-11-09T20:14:40+00:00	2020-11-09T12:14:40-08:00	2020-11-09T20:44:17+00:00	2020-11-13T07:59:59+00:00	-3	b671gmzxzjhmhlw@marketplace.amazon.com	Patrick J. Coleman	+1 213-442-1463 ext. 08862	ABR0022	Delivery by Wednesday | Arabella Farm Direct Bouquet of 12 Fresh Cut Pink Roses with a Free Glass Vase	1	0	1	Expedited	Kim Kline	919 ROCKDALE DR			SAN FRANCISCO	CA	94127-1724	US		Happy Birthday Kim! From Colleen, Patrick & Daniel	false		
112-9869926-5102659	38934000928138	2020-11-09T20:22:52+00:00	2020-11-09T12:22:52-08:00	2020-11-09T20:52:14+00:00	2020-11-13T07:59:59+00:00	-3	ypbjr7srkp4b8px@marketplace.amazon.com	Craig M Pilecki	+1 213-442-1463 ext. 89731	ABR0022	Delivery by Wednesday | Arabella Farm Direct Bouquet of 12 Fresh Cut Pink Roses with a Free Glass Vase	1	0	1	Expedited	Pilecki	9022 PEARL ST			BOSTON	NY	14025-9673	US		Happy Birthday! From Craig	false		
112-4849560-6342668	29647449933898	2020-11-09T20:21:46+00:00	2020-11-09T12:21:46-08:00	2020-11-09T20:52:16+00:00	2020-11-13T07:59:59+00:00	-3	tkcxqy52px1m4sz@marketplace.amazon.com	Bob Crothers	+1 619-854-2705 ext. 85669	ABM022	Delivery by Wednesday | Purple Extravagance Bouquet by Arabella Bouquets	1	0	1	Expedited	Linda Stilley	4508 E 55TH ST			TULSA	OK	74135-4302	US			false		
114-0079689-3397077	24655856157482	2020-11-09T20:47:27+00:00	2020-11-09T12:47:27-08:00	2020-11-09T21:16:14+00:00	2020-11-13T07:59:59+00:00	-3	jbl56m6kb28vjcm@marketplace.amazon.com	Dr. John C. Warden	+1 213-442-1463 ext. 95402	ABR0022	Delivery by Wednesday | Arabella Farm Direct Bouquet of 12 Fresh Cut Pink Roses with a Free Glass Vase	1	0	1	Expedited	The Warden Family	5920 S COUNTRY CLUB BLVD			LITTLE ROCK	AR	72207-4306	US		Taylor, we love you. From Mom and Dad	false		
113-3511923-3448228	02620464243418	2020-11-09T21:33:34+00:00	2020-11-09T13:33:34-08:00	2020-11-09T21:57:25+00:00	2020-11-13T07:59:59+00:00	-3	fcspfd09gqd8fk2@marketplace.amazon.com	LaBreea Walsh	+1 602-671-6610 ext. 74681	ABR0022	Delivery by Wednesday | Arabella Farm Direct Bouquet of 12 Fresh Cut Pink Roses with a Free Glass Vase	1	0	1	Expedited	Brianna Blue	1200 N DAIRY ASHFORD RD APT 205			HOUSTON	TX	77079-3040	US		Happy Birthday!! I love you to the moon and back.  -Breea From LaBreea Walsh	false		
113-9300131-4160261	27557640786818	2020-11-09T21:53:00+00:00	2020-11-09T13:53:00-08:00	2020-11-09T22:22:45+00:00	2020-11-13T07:59:59+00:00	-3	qspk59l9mxwv5ww@marketplace.amazon.com	Dennis R. Varney	+1 480-618-5344 ext. 56993	ABM022	Delivery by Wednesday | Purple Extravagance Bouquet by Arabella Bouquets	1	0	1	Expedited	Richard Peruggi	1808 FORBES BAY LN SE			BOLIVIA	NC	28422-8682	US			false		
114-3620871-3260240	62753111491338	2020-11-09T22:20:38+00:00	2020-11-09T14:20:38-08:00	2020-11-09T22:48:47+00:00	2020-11-13T07:59:59+00:00	-3	xybjkg3l78hrwtc@marketplace.amazon.com	Barbara Gilligan	+1 602-671-6610 ext. 92910	ABM022	Delivery by Wednesday | Purple Extravagance Bouquet by Arabella Bouquets	1	0	1	Expedited	Dr. Kristin Starosta	533 ELMHURST AVE			BETHLEHEM	PA	18017-3832	US		Dear Kristin - Congratulations! Another HELIX in the books! What an accomplishment! I appreciate you! Barb. From Barbara Gilligan	false		
113-1173702-3584266	23842103139970	2020-11-09T22:22:02+00:00	2020-11-09T14:22:02-08:00	2020-11-09T22:49:56+00:00	2020-11-13T07:59:59+00:00	-3	xn8rrmdx5nbv8br@marketplace.amazon.com	Holly Kopra	+1 929-436-4790 ext. 55900	ABR0022	Delivery by Wednesday | Arabella Farm Direct Bouquet of 12 Fresh Cut Pink Roses with a Free Glass Vase	1	0	1	Expedited	The Ballews	11706 10TH PL W			EVERETT	WA	98204-6013	US		Jason, Karla & Ari   Congratulations on your newest little star!  Best, Holly K (CPA) :) From Holly Kopra	false		
113-9112441-7955455	07508718334802	2020-11-09T22:32:43+00:00	2020-11-09T14:32:43-08:00	2020-11-09T22:52:30+00:00	2020-11-13T07:59:59+00:00	-3	v7502750fwgcdgn@marketplace.amazon.com	Maggie Connolly	+1 213-442-1463 ext. 59948	ABR0055	Delivery by Wednesday | Arabella Farm Direct Bouquet of 12 Stems of Fresh Cut Hot Pink Roses in a Free Designer Glass Vase	1	0	1	Expedited	Eileen Comiskey	10737 WHITE TAIL RUN			ORLAND PARK	IL	60467-8866	US		My dear friend, We hope you have a speedy recovery!  Take good care of yourself! Love you xoxo From Margaret & Jon Connolly	false		
113-1909335-0746630	61905420083586	2020-11-09T22:26:52+00:00	2020-11-09T14:26:52-08:00	2020-11-09T22:52:56+00:00	2020-11-13T07:59:59+00:00	-3	lt3ts54psfzn286@marketplace.amazon.com	Charles Vanderslice	+1 602-671-6610 ext. 76943	ABM022	Delivery by Wednesday | Purple Extravagance Bouquet by Arabella Bouquets	1	0	1	Expedited	Angela Vanderslice	76 HOLLIS ST			SHERBORN	MA	01770-1252	US		Enjoy your gift! Happy belated Birthday Angels. From Love,Dorcille and Charles Vanderslice	false		
114-8981607-9001058	27046275467130	2020-11-09T22:31:47+00:00	2020-11-09T14:31:47-08:00	2020-11-09T22:56:58+00:00	2020-11-13T07:59:59+00:00	-3	my96cynsjdmqd7p@marketplace.amazon.com	david cooper	+1 619-854-2705 ext. 68706	ABM022	Delivery by Wednesday | Purple Extravagance Bouquet by Arabella Bouquets	1	0	1	Expedited	Kim Dunn	245 FERNLY PARK DR			JOHNS CREEK	GA	30022-6365	US		Happy Birthday !!! From Cathi and David Cooper	false		
114-5066443-4449828	61519969498674	2020-11-09T22:34:57+00:00	2020-11-09T14:34:57-08:00	2020-11-09T23:04:15+00:00	2020-11-13T07:59:59+00:00	-3	6p937hf491nc542@marketplace.amazon.com	Jason Blitzstein	+1 480-618-5344 ext. 84487	ABM022	Delivery by Wednesday | Purple Extravagance Bouquet by Arabella Bouquets	1	0	1	Expedited	Arlene Garrod	12447 CRYSTAL POINTE DR UNIT 202			BOYNTON BEACH	FL	33437-7241	US		Happy Birthday Grandmom We love you and miss you so much! Reef, Brit and Jason From Jason Blitzstein	false		
112-8235961-3348217	19877905540610	2020-11-09T22:55:17+00:00	2020-11-09T14:55:17-08:00	2020-11-09T23:21:50+00:00	2020-11-13T07:59:59+00:00	-3	8pf968sr0jbyk21@marketplace.amazon.com	Michael Schneider	+1 213-442-1463 ext. 32353	ABR0033	Delivery by Wednesday | Arabella Farm Direct Bouquet of 12 Fresh Cut Orange Roses with a Free Glass Vase	1	0	1	Expedited	Kim Hensley	12923 SW WAHKEENA CT			PORTLAND	OR	97224-6135	US		Kim - Wishing you a wonderful Happy Birthday month and sweet birthday thoughts and wishes for you.  I hope the flowers smell as sweet as you are as a person and my lover. Happy Birthday Kim!!! From Michael Schneider	false		
112-8208757-2798663	29012144211658	2020-11-09T23:00:09+00:00	2020-11-09T15:00:09-08:00	2020-11-09T23:29:23+00:00	2020-11-13T07:59:59+00:00	-3	ntld3zg7549nqk4@marketplace.amazon.com	Mary-Lynn Musco	+1 480-618-5344 ext. 19847	ABM022	Delivery by Wednesday | Purple Extravagance Bouquet by Arabella Bouquets	1	0	1	Expedited	Marie Musco	121 SUNRISE HILL CIR			ORANGE	CT	06477-1132	US		Dear Marie Happy Birthday Love  Lynnie	false		
114-4396825-3020241	45832921130042	2020-11-09T21:56:44+00:00	2020-11-09T13:56:44-08:00	2020-11-09T23:32:01+00:00	2020-11-13T07:59:59+00:00	-3	p40kh36dll4jbn3@marketplace.amazon.com	Omni	+1 602-671-6610 ext. 48419	ABM022	Delivery by Wednesday | Purple Extravagance Bouquet by Arabella Bouquets	1	0	1	Expedited	Nikki Workman	1300 HOUSTON ST			FORT WORTH	TX	76102-6556	US		Nikki,   Thank you for all of your help with training! We appreciate your hard work and everything you do. From Kylie, Devin, Dan, Leo, Charles, Josh, Nora, Chef	false		
113-3408814-0301869	25073637943738	2020-11-09T23:01:57+00:00	2020-11-09T15:01:57-08:00	2020-11-09T23:32:04+00:00	2020-11-13T07:59:59+00:00	-3	lklpfw9861lpmq3@marketplace.amazon.com	Jeremy A. Walters	+1 213-442-1463 ext. 37947	ABR0022	Delivery by Wednesday | Arabella Farm Direct Bouquet of 12 Fresh Cut Pink Roses with a Free Glass Vase	1	0	1	Expedited	Marcia Walters	7215 RYEDALE CT			SARASOTA	FL	34241-2706	US		Enjoy your gift! Happy birthday Daddy From Jeremy A. Walters	false		
113-7081214-3150638	23220490238482	2020-11-09T23:11:34+00:00	2020-11-09T15:11:34-08:00	2020-11-09T23:41:08+00:00	2020-11-13T07:59:59+00:00	-3	n7pmyvqzx94c88y@marketplace.amazon.com	No One of Note	+1 415-851-9136 ext. 46044	ABM010	Delivery by Wednesday | The Spring Fling Bouquet by Arabella Bouquets with a Free Designer Glass Vase	1	0	1	Expedited	Naomi Penney & Alex Dagnino	228 SOUTHGATE BLVD			MELBOURNE	FL	32901-7022	US		Happy B-Day, Sis! We hope it's a wonderful one and the fam is doing well! Much Love! :-) From Myke, Ruth & Gabe	false		
112-2706933-6426659	30243120173722	2020-11-09T23:25:43+00:00	2020-11-09T15:25:43-08:00	2020-11-09T23:47:14+00:00	2020-11-13T07:59:59+00:00	-3	qxzk7f8qbg2mcss@marketplace.amazon.com	Cari Lynn Zwick	+1 929-436-4790 ext. 24950	ABR0055	Delivery by Wednesday | Arabella Farm Direct Bouquet of 12 Stems of Fresh Cut Hot Pink Roses in a Free Designer Glass Vase	1	0	1	Expedited	Encompass health rehab hospital Northwest Tucson	SAMMI WOOD 1921 W HOSPITAL DR			TUCSON	AZ	85704-7806	US		Sammi,  Thinking of you!  You got this girl. From Love, Cari	false		
114-4886047-9519443	27556109325242	2020-11-09T23:26:21+00:00	2020-11-09T15:26:21-08:00	2020-11-09T23:55:21+00:00	2020-11-13T07:59:59+00:00	-3	07389b19j7brqzp@marketplace.amazon.com	darshan gandhi	+1 602-671-6610 ext. 34984	ABM022	Delivery by Wednesday | Purple Extravagance Bouquet by Arabella Bouquets	1	0	1	Expedited	Vasu Moparty	2512 SILVER TABLE DR			LEWISVILLE	TX	75056-5685	US		Dear Vasu and family, Our most sincere condolences for your loss. God Bless. Darshan and Shyama From darshan gandhi	false		
113-6558656-9383457	13332905895378	2020-11-09T23:45:54+00:00	2020-11-09T15:45:54-08:00	2020-11-10T00:13:33+00:00	2020-11-13T07:59:59+00:00	-3	gvrl368lk1x0clb@marketplace.amazon.com	Jay Black	+1 415-851-9136 ext. 83460	ABM010	Delivery by Wednesday | The Spring Fling Bouquet by Arabella Bouquets with a Free Designer Glass Vase	1	0	1	Expedited	The DZ family	6204 STONEBRIDGE RD			WILMINGTON	NC	28409-9300	US		Thank you for allowing us to use your amazing lake house! We love you Tanya and Jay From Jay Black	false		
111-5896833-8073030	17918654771930	2020-11-09T23:59:13+00:00	2020-11-09T15:59:13-08:00	2020-11-10T00:29:29+00:00	2020-11-13T07:59:59+00:00	-3	gwrzcz13drg98b6@marketplace.amazon.com	Michael Arrigo	+1 602-671-6610 ext. 13206	ABM022	Delivery by Wednesday | Purple Extravagance Bouquet by Arabella Bouquets	1	0	1	Expedited	Michael Arrigo	1804 Drylie Ct			Virginia Beach	VA	23464-7507	US			true		
112-3322741-4854638	54038686504530	2020-11-10T00:19:40+00:00	2020-11-09T16:19:40-08:00	2020-11-10T00:37:47+00:00	2020-11-13T07:59:59+00:00	-3	5k4bj15v4zdvwww@marketplace.amazon.com	Rita Gray	+1 480-618-5344 ext. 81825	ABR0022	Delivery by Wednesday | Arabella Farm Direct Bouquet of 12 Fresh Cut Pink Roses with a Free Glass Vase	1	0	1	Expedited	Karen Culledge-Williams	1605 W BROWN DEER RD			RIVER HILLS	WI	53217-2139	US		You have my deepest Condolences.  I know Chloe loved the color "Pink".  Just wanted to remember her. Your family is in my prayers during this difficult time. From Rita Gray-Johnnie and Sebina Friend Ms. Gray	false		
111-0483993-3139430	42129413124194	2020-11-10T00:29:23+00:00	2020-11-09T16:29:23-08:00	2020-11-10T01:00:01+00:00	2020-11-13T07:59:59+00:00	-3	th2y54s99jhlrx0@marketplace.amazon.com	Cheryl Mathews	+1 602-671-6610 ext. 45603	ABR0022	Delivery by Wednesday | Arabella Farm Direct Bouquet of 12 Fresh Cut Pink Roses with a Free Glass Vase	1	0	1	Expedited	Arielle Fentress	1609 HAZEL DR UNIT 305A			CLEVELAND	OH	44106-1744	US			false		
112-9259892-8855407	30990661931762	2020-11-10T00:34:40+00:00	2020-11-09T16:34:40-08:00	2020-11-10T01:03:15+00:00	2020-11-13T07:59:59+00:00	-3	1qvtj9rmyzh3vfd@marketplace.amazon.com	Richard Rotharmel	+1 213-442-1463 ext. 64247	ABM022	Delivery by Wednesday | Purple Extravagance Bouquet by Arabella Bouquets	1	0	1	Expedited	Lena Garza	529 NE 6TH AVE			CAMAS	WA	98607-2061	US			false		
114-3460556-6453047	35264333453666	2020-11-10T00:33:21+00:00	2020-11-09T16:33:21-08:00	2020-11-10T01:03:32+00:00	2020-11-13T07:59:59+00:00	-3	x4jrz768w54r2gh@marketplace.amazon.com	Paulette Hill	+1 602-671-6610 ext. 86159	ABR0022	Delivery by Wednesday | Arabella Farm Direct Bouquet of 12 Fresh Cut Pink Roses with a Free Glass Vase	1	0	1	Expedited	Paulette Hill	7172 SPRINGHOUSE LN			CHESTNUT HILL COVE	MD	21226-2200	US			false		
112-0246649-3441822	27270990440330	2020-11-10T00:49:45+00:00	2020-11-09T16:49:45-08:00	2020-11-10T01:12:39+00:00	2020-11-13T07:59:59+00:00	-3	714zb9yr59d39pz@marketplace.amazon.com	Ligaya abalos	+1 929-436-4790 ext. 51440	ABR0022	Delivery by Wednesday | Arabella Farm Direct Bouquet of 12 Fresh Cut Pink Roses with a Free Glass Vase	1	0	1	Standard	Reggie Abubo	12225 CANYON HILL AVE			SYLMAR	CA	91342-5495	US		Hi Reggie, Enjoy your gift! Belated happy birthday!! From: Tita Ligaya and Tito Joe	false		
112-0459908-1467459	41847762310354	2020-11-10T00:52:58+00:00	2020-11-09T16:52:58-08:00	2020-11-10T01:19:28+00:00	2020-11-13T07:59:59+00:00	-3	rvysx339t4r6mrl@marketplace.amazon.com	Tsedy Gebeyehu	+1 929-436-4790 ext. 28571	ABM022	Delivery by Wednesday | Purple Extravagance Bouquet by Arabella Bouquets	1	0	1	Expedited	Michelle Coppins	101 WESTMONT WAY			TYRONE	GA	30290-1570	US			false		
113-8961001-6766645	04438619970682	2020-11-10T00:53:07+00:00	2020-11-09T16:53:07-08:00	2020-11-10T01:19:47+00:00	2020-11-13T07:59:59+00:00	-3	fyj1q8zsn5nkpn4@marketplace.amazon.com	modell plummer	+1 602-671-6610 ext. 66406	ABR004	Delivery by Wednesday | Arabella Farm Direct Bouquet of 12 Fresh Cut Yellow Roses with a Free Glass Vase	1	0	1	Expedited	Barbara Rahrer	212 LINCOLN ST SE			HUNTSVILLE	AL	35801-4107	US			false		
111-2475192-8015449	14586825566642	2020-11-10T01:12:53+00:00	2020-11-09T17:12:53-08:00	2020-11-10T01:42:31+00:00	2020-11-13T07:59:59+00:00	-3	0wzvwqw4wx4ctp8@marketplace.amazon.com	Mary	+1 602-671-6610 ext. 16500	ABM010	Delivery by Wednesday | The Spring Fling Bouquet by Arabella Bouquets with a Free Designer Glass Vase	1	0	1	Expedited	Sarah Brashear	1001 SCHERTZ PKWY			SCHERTZ	TX	78154-1628	US			false		
111-7311618-4344264	14539550686906	2020-11-10T01:32:16+00:00	2020-11-09T17:32:16-08:00	2020-11-10T01:52:36+00:00	2020-11-13T07:59:59+00:00	-3	dgj14d2st11xt07@marketplace.amazon.com	Dharika	+1 619-854-2705 ext. 44880	ABM022	Delivery by Wednesday | Purple Extravagance Bouquet by Arabella Bouquets	1	0	1	Expedited	Fatme Chehab	6142 N GULLEY RD			DEARBORN HEIGHTS	MI	48127-3057	US		Sending love, prayers, strength & comfort to you & your family. I hope the journal helps you share all that you wanted to share with Bilal. Always here xoxo From Dharika, Micheal & our families!	false		
114-3103266-4628212	33302675498746	2020-11-10T01:32:48+00:00	2020-11-09T17:32:48-08:00	2020-11-10T01:57:40+00:00	2020-11-13T07:59:59+00:00	-3	05g3nl1ygn7430q@marketplace.amazon.com	P martin	+1 213-442-1463 ext. 30052	ABM010	Delivery by Wednesday | The Spring Fling Bouquet by Arabella Bouquets with a Free Designer Glass Vase	1	0	1	Expedited	Mae Joyce Givens Hubbard	428 KIMMEL DR			CEDAR HILL	TX	75104-5019	US		Enjoy your flowers. Stay Well. HAPPY BIRTHDAY!! We love you. From Pamela and Selles	false		
113-3780946-2417863	01865878318650	2020-11-10T01:34:36+00:00	2020-11-09T17:34:36-08:00	2020-11-10T02:04:54+00:00	2020-11-13T07:59:59+00:00	-3	hjkgnfsy74dh1dx@marketplace.amazon.com	Brent Dillon		ABM022	Delivery by Wednesday | Purple Extravagance Bouquet by Arabella Bouquets	1	0	1	Expedited	Dillon Dist	4006 S Boyd Ct			Wichita	KS	67215	US			true		
112-7594952-2702635	14800630268002	2020-11-10T01:43:09+00:00	2020-11-09T17:43:09-08:00	2020-11-10T02:07:49+00:00	2020-11-13T07:59:59+00:00	-3	rbsrxbjc0gjvsfy@marketplace.amazon.com	Eric Sayers	+1 602-671-6610 ext. 02714	ABR0022	Delivery by Wednesday | Arabella Farm Direct Bouquet of 12 Fresh Cut Pink Roses with a Free Glass Vase	1	0	1	Expedited	Roxanne Davis-Cote	C/O BEAUFORT MEMORIAL HOSPITAL	955 RIBAUT RD		BEAUFORT	SC	29902-5441	US		Happy Birthday Roxanne! My Favorite Dietitian EVER! All my best for another fantastic ROX year! From Chef E	false		
113-4856778-4703405	20772636970658	2020-11-10T01:38:51+00:00	2020-11-09T17:38:51-08:00	2020-11-10T02:09:25+00:00	2020-11-13T07:59:59+00:00	-3	hjkgnfsy74dh1dx@marketplace.amazon.com	Brent Dillon		ABM010	Delivery by Wednesday | The Spring Fling Bouquet by Arabella Bouquets with a Free Designer Glass Vase	1	0	1	Expedited	Dillon Dist	4006 S Boyd Ct			Wichita	KS	67215	US			true		
111-6692679-0343406	46750720558074	2020-11-10T01:57:26+00:00	2020-11-09T17:57:26-08:00	2020-11-10T02:22:57+00:00	2020-11-13T07:59:59+00:00	-3	tqdzf5h7vt2sx07@marketplace.amazon.com	Mary E. LeRoy	+1 213-442-1463 ext. 57946	ABR0022	Delivery by Wednesday | Arabella Farm Direct Bouquet of 12 Fresh Cut Pink Roses with a Free Glass Vase	1	0	1	Expedited	Diana Reed	54 OAKWELL FARMS PKWY			SAN ANTONIO	TX	78218-1784	US		Happy belated Birthday!!  Love you bunches!!❤️ From Mary E. LeRoy	false		
114-3273165-4635465	15394975503122	2020-11-10T02:13:35+00:00	2020-11-09T18:13:35-08:00	2020-11-10T02:40:38+00:00	2020-11-13T07:59:59+00:00	-3	wtx0zmhnrgy31y1@marketplace.amazon.com	Pat Sulier	203-372-0313 office	ABR0022	Delivery by Wednesday | Arabella Farm Direct Bouquet of 12 Fresh Cut Pink Roses with a Free Glass Vase	1	0	1	Expedited	Mary Witkowski	2428 EASTON TPKE			FAIRFIELD	CT	06825-1122	US		Mary--Beautiful flowers for a beautiful woman. I miss seeing you so much! Take care, my sweet friend. Love Patty From Pat Sulier	false		
113-1081790-3145846	36155267751194	2020-11-10T02:28:29+00:00	2020-11-09T18:28:29-08:00	2020-11-10T02:57:37+00:00	2020-11-13T07:59:59+00:00	-3	g040c9xyy1ctk54@marketplace.amazon.com	Erin Callanan	+1 213-442-1463 ext. 74449	ABR0033	Delivery by Wednesday | Arabella Farm Direct Bouquet of 12 Fresh Cut Orange Roses with a Free Glass Vase	1	0	1	Expedited	Tara Psencik	735 EAGLE LANDING DR			BELTON	TX	76513-5704	US		Happy Birthday Tara  Love and miss you! Erin From Erin Callanan	false		
113-2188927-3452252	57957359754490	2020-11-10T02:37:11+00:00	2020-11-09T18:37:11-08:00	2020-11-10T03:02:46+00:00	2020-11-13T07:59:59+00:00	-3	dhjsl1hm46wsdwm@marketplace.amazon.com	Michael Hipwell	+1 602-671-6610 ext. 18504	ABR0055	Delivery by Wednesday | Arabella Farm Direct Bouquet of 12 Stems of Fresh Cut Hot Pink Roses in a Free Designer Glass Vase	1	0	1	Expedited	Barbara Hipwell	864 LEDGESTONE CT			FORT MILL	SC	29708-6517	US		Happy Birthday Mom!  We love and miss you very much. From Michael and Tom	false		
113-2942819-8999408	49579868946306	2020-11-10T02:52:32+00:00	2020-11-09T18:52:32-08:00	2020-11-10T03:22:15+00:00	2020-11-13T07:59:59+00:00	-3	5j95nln4dmjpr8k@marketplace.amazon.com	Flora Dufour	+1 929-436-4790 ext. 65699	ABM010	Delivery by Wednesday | The Spring Fling Bouquet by Arabella Bouquets with a Free Designer Glass Vase	1	0	1	Expedited	Leah Cottam	2558 76TH AVE SE APT 472			MERCER ISLAND	WA	98040-3795	US		Happy Housewarming and Birthday!! From Flora Dufour	false		
114-7024411-4923415	07467780041290	2020-11-10T03:00:05+00:00	2020-11-09T19:00:05-08:00	2020-11-10T03:27:12+00:00	2020-11-13T07:59:59+00:00	-3	0rwkxymk017n2fc@marketplace.amazon.com	Nina Saunders	+1 602-671-6610 ext. 27508	ABR0022	Delivery by Wednesday | Arabella Farm Direct Bouquet of 12 Fresh Cut Pink Roses with a Free Glass Vase	1	0	1	Expedited	Sandi Carson	1007 WANNAMAKER WAY			HENDERSON	NV	89015-2921	US		Dear Sandi, Happy Birthday Sis! Love, Nina and Jim	false		
114-4795065-3899462	20640711646594	2020-11-10T03:00:59+00:00	2020-11-09T19:00:59-08:00	2020-11-10T03:29:55+00:00	2020-11-13T07:59:59+00:00	-3	cqs5q407z7n79lv@marketplace.amazon.com	Mary Narens	+1 929-436-4790 ext. 20792	ABR001	Delivery by Wednesday | Arabella Bouquets 12 Stems of Fresh Cut Red Roses in a Free Designer Glass Vase	1	0	1	Expedited	Irene Narens	26002 S CLOVERLAND DR			SUN LAKES	AZ	85248-7257	US		Happy Birthday Mom!  We love you so much!!! From Stephen, Mary, Devitt, and Collin	false		
114-3117447-8441049	01311769034338	2020-11-10T03:20:38+00:00	2020-11-09T19:20:38-08:00	2020-11-10T03:46:29+00:00	2020-11-13T07:59:59+00:00	-3	8tv94hzx7gyxm1j@marketplace.amazon.com	Lynette Bensen	+1 619-854-2705 ext. 12127	ABR0022	Delivery by Wednesday | Arabella Farm Direct Bouquet of 12 Fresh Cut Pink Roses with a Free Glass Vase	1	0	1	Expedited	Connie Bensen	2141 CARMELITA DR			SAN CARLOS	CA	94070-2926	US		Olivia good luck on your staring role in the Nutcracker wish we could be there. From Love Grandma Netz and Grandpa Tom	false		
111-0486565-3436217	56130400594882	2020-11-10T03:29:10+00:00	2020-11-09T19:29:10-08:00	2020-11-10T03:57:53+00:00	2020-11-13T07:59:59+00:00	-3	h2p4jhl2czr04xn@marketplace.amazon.com	Elisa	+1 929-436-4790 ext. 40513	ABR0055	Delivery by Wednesday | Arabella Farm Direct Bouquet of 12 Stems of Fresh Cut Hot Pink Roses in a Free Designer Glass Vase	1	0	1	Expedited	Sandie Early	12 Joliet Dr.			COTO DE CAZA	CA	92679-3629	US		Thank you for watching me doing school.  You were a great teacher.  I love you! From Norah	false		
111-7688781-2203442	15215544046874	2020-11-10T03:34:37+00:00	2020-11-09T19:34:37-08:00	2020-11-10T04:02:16+00:00	2020-11-13T07:59:59+00:00	-3	r7k56s6t9rs0y57@marketplace.amazon.com	Maria Borgen	+1 929-436-4790 ext. 69015	ABR0055	Delivery by Wednesday | Arabella Farm Direct Bouquet of 12 Stems of Fresh Cut Hot Pink Roses in a Free Designer Glass Vase	1	0	1	Expedited	Cathy Long	421 2ND ST W			KIRKLAND	WA	98033-5349	US		So sorry for your loss.  Let these flowers bring a little comfort and strength during this hard times. From love,  Maria	false		
111-3539657-3206613	27961683006050	2020-11-10T03:59:24+00:00	2020-11-09T19:59:24-08:00	2020-11-10T04:19:36+00:00	2020-11-13T07:59:59+00:00	-3	4y34qs9cpzhzwby@marketplace.amazon.com	Laurie Cacioppo	+1 602-671-6610 ext. 07367	ABM022	Delivery by Wednesday | Purple Extravagance Bouquet by Arabella Bouquets	1	0	1	Expedited	Cristina Poole	22422 RUE CANYON CT			KATY	TX	77450-7683	US		It wasn't that we couldn't remember your birthday.  We just wanted to be the last to wish you HAPPY BIRTHDAY. This way you would remember us best.  WE LOVE YOU and all 38 fabulous years of you!!! From Laurie & Holly - xoxoxo	false		
111-5980114-3317021	04348086183562	2020-11-10T04:01:01+00:00	2020-11-09T20:01:01-08:00	2020-11-10T04:23:47+00:00	2020-11-13T07:59:59+00:00	-3	sl89vc69hd4fh9x@marketplace.amazon.com	Jennifer Trotter	+1 929-436-4790 ext. 48277	ABM010	Delivery by Wednesday | The Spring Fling Bouquet by Arabella Bouquets with a Free Designer Glass Vase	1	0	1	Expedited	Cathy Trotter	COMMUNITY HONDA 8340 W 159TH ST			ORLAND PARK	IL	60462-4941	US		Thank you so very much for coming down here & taking care of the kids! We are truly greatful! The kids, frankly-lol, loved getting to spend quality time with you! Thank you! Love & miss you! From Trotter Fam	false		
113-6422122-3953031	28105102651146	2020-11-10T03:57:53+00:00	2020-11-09T19:57:53-08:00	2020-11-10T04:25:29+00:00	2020-11-13T07:59:59+00:00	-3	j2qf34hwrpnv3sx@marketplace.amazon.com	Teri Worry	+1 602-671-6610 ext. 84343	ABR0022	Delivery by Wednesday | Arabella Farm Direct Bouquet of 12 Fresh Cut Pink Roses with a Free Glass Vase	2	0	2	Expedited	Teri Worry	965 Gulf Shores Drive			Crystal Beach	TX	77659	US			false		
112-6986981-6460252	53459291568402	2020-11-10T04:32:58+00:00	2020-11-09T20:32:58-08:00	2020-11-10T04:59:06+00:00	2020-11-13T07:59:59+00:00	-3	c8bcq8b46jkxvrn@marketplace.amazon.com	Daniel	+1 602-671-6610 ext. 58054	ABM022	Delivery by Wednesday | Purple Extravagance Bouquet by Arabella Bouquets	1	0	1	Expedited	Kimberly Avila	14385 IRON HORSE WAY			HELOTES	TX	78023-3959	US		Happy birthday month Enjoy! I love you. From Dr. Mom	false		
114-5471716-5938606	41593335593402	2020-11-10T04:52:21+00:00	2020-11-09T20:52:21-08:00	2020-11-10T05:10:06+00:00	2020-11-13T07:59:59+00:00	-3	vs04w62vqnrq3gc@marketplace.amazon.com	Phil Brewer	+1 619-854-2705 ext. 13387	ABR0022	Delivery by Wednesday | Arabella Farm Direct Bouquet of 12 Fresh Cut Pink Roses with a Free Glass Vase	1	0	1	Expedited	Allison Brewer	7525 NW 26TH ST			BETHANY	OK	73008-4931	US		Happy Birthday to the best sister ever! We are truly blessed to have you in our lives! We love you so much and are so proud of the amazing woman you are and the amazing mommy that you're becoming. We love you. From Phil & Sonya Brewer	false		
113-1959876-1924233	23887068354898	2020-11-10T04:44:04+00:00	2020-11-09T20:44:04-08:00	2020-11-10T05:12:06+00:00	2020-11-13T07:59:59+00:00	-3	zzjqp1c5lh2nhhj@marketplace.amazon.com	Stacey Dyce	+1 213-442-1463 ext. 25285	ABR0022	Delivery by Wednesday | Arabella Farm Direct Bouquet of 12 Fresh Cut Pink Roses with a Free Glass Vase	1	0	1	Expedited	Taisha Cordero	10721 KEYS GATE DR			RIVERVIEW	FL	33579-4052	US		Happy birthday my beautiful sister may your day be filled with love and laughter. Enjoy your day!! From Stacey Dyce	false		
113-2242487-2188216	36346334017706	2020-11-10T04:51:48+00:00	2020-11-09T20:51:48-08:00	2020-11-10T05:14:30+00:00	2020-11-13T07:59:59+00:00	-3	k67r9wpw3mg6w78@marketplace.amazon.com	Lauren Blakely	+1 619-854-2705 ext. 69549	ABM010	Delivery by Wednesday | The Spring Fling Bouquet by Arabella Bouquets with a Free Designer Glass Vase	1	0	1	Expedited	Laura Barnes	3507 BACHELOR GULCH			LEANDER	TX	78641-3663	US		Dear Laura, Congrats on the beginning of four years of PTSD coming to an end! I remain forever grateful your support! Your TV boyfriend, Chris Hayes From Chris Hayes and LB :)	false		
112-8653463-3139431	48023961623354	2020-11-10T04:53:24+00:00	2020-11-09T20:53:24-08:00	2020-11-10T05:16:46+00:00	2020-11-13T07:59:59+00:00	-3	w3w1t4tdtpb2y6p@marketplace.amazon.com	edna campau	+1 929-436-4790 ext. 83352	ABR0022	Delivery by Wednesday | Arabella Farm Direct Bouquet of 12 Fresh Cut Pink Roses with a Free Glass Vase	1	0	1	Expedited	Sherry Steil	3691 MORNING GLORY DR			CASTLE ROCK	CO	80109-7510	US		1944 was a good year. Let's just say 2020 could have been better. Happy Birthday "old" girl!  Love, Ed From edna campau	false		
113-0519060-3985002	48244741577090	2020-11-10T04:56:22+00:00	2020-11-09T20:56:22-08:00	2020-11-10T05:23:52+00:00	2020-11-13T07:59:59+00:00	-3	ymnk1vrbfp83ppc@marketplace.amazon.com	Richard K. Young	+1 602-671-6610 ext. 12465	ABR0022	Delivery by Wednesday | Arabella Farm Direct Bouquet of 12 Fresh Cut Pink Roses with a Free Glass Vase	1	0	1	Expedited	RICHARD K YOUNG	13031 SILVER CREEK DR			TENINO	WA	98589-9460	US		Happy Birthday, Melissa!  I love you! From Rich	false		
113-5211085-6732211	14317051117906	2020-11-10T05:06:09+00:00	2020-11-09T21:06:09-08:00	2020-11-10T05:34:33+00:00	2020-11-13T07:59:59+00:00	-3	wh0lq0v5w6pw58k@marketplace.amazon.com	Adrienne Douglas	+1 602-671-6610 ext. 13298	ABR0055	Delivery by Wednesday | Arabella Farm Direct Bouquet of 12 Stems of Fresh Cut Hot Pink Roses in a Free Designer Glass Vase	1	0	1	Expedited	James & Waldine Walker	Legacy Oaks of South Austin	7501 US 290		Austin	Texas	78736	US			false		
113-6066453-0874646	10714510951818	2020-11-10T06:12:26+00:00	2020-11-09T22:12:26-08:00	2020-11-10T06:41:06+00:00	2020-11-13T07:59:59+00:00	-3	5hrw8v69vcqxw5x@marketplace.amazon.com	Laura K. Fulton	+1 602-671-6610 ext. 14789	ABM010	Delivery by Wednesday | The Spring Fling Bouquet by Arabella Bouquets with a Free Designer Glass Vase	1	0	1	Expedited	Amy White	14023 MANGO DR APT B			DEL MAR	CA	92014-2992	US		Dearest Amy- Wishing you the Happiest of Birthdays!! With so much love ~Laura xoxo From Laura K. Fulton	false		
111-8955001-6357854	05777257594042	2020-11-10T06:17:07+00:00	2020-11-09T22:17:07-08:00	2020-11-10T06:47:20+00:00	2020-11-13T07:59:59+00:00	-3	3qqmd83v43qtq9g@marketplace.amazon.com	Xiaozhuan Hu	+1 480-618-5344 ext. 74361	ABM022	Delivery by Wednesday | Purple Extravagance Bouquet by Arabella Bouquets	1	0	1	Expedited	Mr. Tung	13386 ARGONNE DR	SARATOGA CA 95070		SARATOGA	CA	95070-4956	US			false		
111-7094880-9627441	44480677128650	2020-11-10T07:00:56+00:00	2020-11-09T23:00:56-08:00	2020-11-10T07:19:37+00:00	2020-11-13T07:59:59+00:00	-3	f5r4lb0p39s3mb3@marketplace.amazon.com	Georgie	+1 213-442-1463 ext. 63907	ABR0022	Delivery by Wednesday | Arabella Farm Direct Bouquet of 12 Fresh Cut Pink Roses with a Free Glass Vase	1	0	1	Expedited	Janice Barnes	800 E ROUTE 66 APT 8			GLENDORA	CA	91740-3685	US			false		
114-7503032-3537038	41605369117306	2020-11-10T06:56:41+00:00	2020-11-09T22:56:41-08:00	2020-11-10T07:24:46+00:00	2020-11-13T07:59:59+00:00	-3	384jhwn7n726ry8@marketplace.amazon.com	Bian Xi	+1 602-671-6610 ext. 98788	ABM022	Delivery by Wednesday | Purple Extravagance Bouquet by Arabella Bouquets	1	0	1	Expedited	Lily Li	360 S MONROE ST APT 360			DENVER	CO	80209-3703	US			false		
112-1642638-5841010	34362606408354	2020-11-10T07:09:15+00:00	2020-11-09T23:09:15-08:00	2020-11-10T07:38:27+00:00	2020-11-13T07:59:59+00:00	-3	91nz9wxjt5g0vck@marketplace.amazon.com	Mike Thomas	+1 213-442-1463 ext. 55407	ABM022	Delivery by Wednesday | Purple Extravagance Bouquet by Arabella Bouquets	1	0	1	Expedited	Debbie Parker	749 W 100TH AVE			NORTHGLENN	CO	80260-6000	US		We are sorry for your loss. We love you guys.  Mike &  Lori	false		
114-1958968-6724229	27481952277706	2020-11-10T09:12:08+00:00	2020-11-10T01:12:08-08:00	2020-11-10T09:23:16+00:00	2020-11-14T07:59:59+00:00	-4	kbkn8bbhb2sktxg@marketplace.amazon.com	Michelle Pumarejo	+1 415-851-9136 ext. 19906	ABM010	Delivery by Wednesday | The Spring Fling Bouquet by Arabella Bouquets with a Free Designer Glass Vase	1	0	1	Expedited	Michelle Pumarejo	1885 BACKOWSKI AVE			CLOVIS	CA	93611-6173	US		You brighten my life babe! I love u! From Babycakes	false		
114-1973724-7973836	69872838760730	2020-11-10T01:48:34+00:00	2020-11-09T17:48:34-08:00	2020-11-10T09:29:44+00:00	2020-11-14T07:59:59+00:00	-4	cb00rmbmz6jx12b@marketplace.amazon.com	Elizabeth Mercado	+1 480-618-5344 ext. 63690	ABR001	Delivery by Wednesday | Arabella Bouquets 12 Stems of Fresh Cut Red Roses in a Free Designer Glass Vase	1	0	1	Expedited	Marilyn Diana Riske	300 E WOOD LN			BELVIDERE	IL	61008-7839	US		From the bottom of my heart I love you babe From Paul Stanley	false		
112-6714011-9301068	50562763281026	2020-11-10T09:50:37+00:00	2020-11-10T01:50:37-08:00	2020-11-10T10:19:02+00:00	2020-11-14T07:59:59+00:00	-4	r38gh5xn1lqx6h5@marketplace.amazon.com	thomas Ireland	+1 213-442-1463 ext. 96248	ABR001	Delivery by Wednesday | Arabella Bouquets 12 Stems of Fresh Cut Red Roses in a Free Designer Glass Vase	1	0	1	Expedited	Ina Fay Ireland	521 MOIR ST APT B			EDEN	NC	27288-6159	US		Happy Birthday Mom! I love you From Tom	false		
111-1460385-6879440	58118667201738	2020-11-10T10:31:36+00:00	2020-11-10T02:31:36-08:00	2020-11-10T11:01:39+00:00	2020-11-14T07:59:59+00:00	-4	j3n6k34g6rf76hc@marketplace.amazon.com	Sean	+1 619-854-2705 ext. 55557	ABR0022	Delivery by Wednesday | Arabella Farm Direct Bouquet of 12 Fresh Cut Pink Roses with a Free Glass Vase	1	0	1	Expedited	Brydget	44 JEFFERSON RD			WINTER HAVEN	FL	33884-2234	US			false		
113-6160318-8054657	54847008176482	2020-11-10T11:13:38+00:00	2020-11-10T03:13:38-08:00	2020-11-10T11:44:14+00:00	2020-11-14T07:59:59+00:00	-4	ddcvjnn1rvs0b45@marketplace.amazon.com	Rebecca kelly Zapata	+1 602-671-6610 ext. 88000	ABR0055	Delivery by Wednesday | Arabella Farm Direct Bouquet of 12 Stems of Fresh Cut Hot Pink Roses in a Free Designer Glass Vase	1	0	1	Expedited	REBECCA Zapata	3513 ASHLEY STATION DR SW			MARIETTA	GA	30008-6000	US			false		
111-8089050-6443438	18936685044002	2020-11-10T11:22:41+00:00	2020-11-10T03:22:41-08:00	2020-11-10T11:52:06+00:00	2020-11-14T07:59:59+00:00	-4	h5xl8f3f6l03rsm@marketplace.amazon.com	Janet M Lueck	+1 213-442-1463 ext. 91769	ABR0022	Delivery by Wednesday | Arabella Farm Direct Bouquet of 12 Fresh Cut Pink Roses with a Free Glass Vase	1	0	1	Expedited	Janet M Lueck	607 WATERFORD RD			ELGIN	IL	60124-4355	US			false		
114-9309547-9101855	07169658173274	2020-11-10T11:43:30+00:00	2020-11-10T03:43:30-08:00	2020-11-10T12:12:19+00:00	2020-11-14T07:59:59+00:00	-4	6dx6js30jfpqf3c@marketplace.amazon.com	Tameka	+1 619-854-2705 ext. 27110	ABR0022	Delivery by Wednesday | Arabella Farm Direct Bouquet of 12 Fresh Cut Pink Roses with a Free Glass Vase	1	0	1	Expedited	Earlene Lundy	4105 BEACHCRAFT CT			TEMPLE HILLS	MD	20748-4920	US			false		
112-7600660-7217844	09117108037034	2020-11-10T12:30:25+00:00	2020-11-10T04:30:25-08:00	2020-11-10T12:55:56+00:00	2020-11-14T07:59:59+00:00	-4	zjm1ctpxntqzs2x@marketplace.amazon.com	Trent luman	+1 929-436-4790 ext. 97458	ABR0022	Delivery by Wednesday | Arabella Farm Direct Bouquet of 12 Fresh Cut Pink Roses with a Free Glass Vase	1	0	1	Expedited	Trent Luman	4538 CAPITAL DOME DR			JACKSONVILLE	FL	32246-7457	US		Happy Birthday!!! I love you!! you mean the world to me From Trent luman	false		
112-3465824-7686652	23656887090538	2020-11-10T12:38:29+00:00	2020-11-10T04:38:29-08:00	2020-11-10T13:06:30+00:00	2020-11-14T07:59:59+00:00	-4	34y1nzbbwsk3gt6@marketplace.amazon.com	heather	+1 929-436-4790 ext. 54164	ABM010	Delivery by Wednesday | The Spring Fling Bouquet by Arabella Bouquets with a Free Designer Glass Vase	1	0	1	Expedited	Erica Hanson	3 HAYWARD RD			WARWICK	RI	02888-1807	US			false		
113-1697122-6173026	39886838878426	2020-11-10T13:18:12+00:00	2020-11-10T05:18:12-08:00	2020-11-10T13:46:27+00:00	2020-11-14T07:59:59+00:00	-4	lt13kddm0m7m6c3@marketplace.amazon.com	Dave Slobodien	+1 929-436-4790 ext. 79799	ABM022	Delivery by Wednesday | Purple Extravagance Bouquet by Arabella Bouquets	1	0	1	Expedited	Shannon Slobodien	3010 VISTAPOINT RD			MIDLOTHIAN	VA	23113-3927	US		Happy Happy Birthday Shannon we love and miss you! Bonnie and Dave	false		
112-6946367-4658646	14285549844002	2020-11-10T13:22:49+00:00	2020-11-10T05:22:49-08:00	2020-11-10T13:50:58+00:00	2020-11-14T07:59:59+00:00	-4	8wqbp2gh663ggqp@marketplace.amazon.com	Sophia Viola	+1 602-671-6610 ext. 21934	ABM022	Delivery by Wednesday | Purple Extravagance Bouquet by Arabella Bouquets	1	0	1	Expedited	Helen Alletto	8785 LAKE WORTH RD RM 259			LAKE WORTH	FL	33467-2433	US		Hope these brighten your day!! We love and miss you.  Your Favorite Son & Sophie From Phil & Sophie	false		
112-0658925-4489866	49973582317738	2020-11-10T14:16:44+00:00	2020-11-10T06:16:44-08:00	2020-11-10T14:42:52+00:00	2020-11-14T07:59:59+00:00	-4	6jh15d78mjrwxqj@marketplace.amazon.com	Cynthia Hungerford	+1 929-436-4790 ext. 02410	ABM010	Delivery by Wednesday | The Spring Fling Bouquet by Arabella Bouquets with a Free Designer Glass Vase	1	0	1	Expedited	Ruth Ondrusek	3815 GARRISON ST			WHEAT RIDGE	CO	80033-4212	US		We are so very sorry for your loss. Keeping you in our prayers with love, From The Joneses, The Linds, The Hungerfords and Grandma Betty	false		
112-5132748-2757858	54916685568354	2020-11-10T14:14:47+00:00	2020-11-10T06:14:47-08:00	2020-11-10T14:42:58+00:00	2020-11-14T07:59:59+00:00	-4	ht2cmrq2d3tjpn6@marketplace.amazon.com	Joseph Conrad	+1 619-854-2705 ext. 38301	ABM010	Delivery by Wednesday | The Spring Fling Bouquet by Arabella Bouquets with a Free Designer Glass Vase	1	0	1	Expedited	Jamie Laabs	745 N DRIES ST			SAUKVILLE	WI	53080-1664	US		Get well soon! From Jean & Joseph Conrad	false		
111-0217564-7931420	05858371091538	2020-11-10T14:27:30+00:00	2020-11-10T06:27:30-08:00	2020-11-10T14:53:00+00:00	2020-11-14T07:59:59+00:00	-4	r3627n1ts567gfq@marketplace.amazon.com	Pamela P Leary	+1 929-436-4790 ext. 38632	ABR0022	Delivery by Wednesday | Arabella Farm Direct Bouquet of 12 Fresh Cut Pink Roses with a Free Glass Vase	1	0	1	Expedited	Karen Leary	82 CONCORD AVE APT 1			SOMERVILLE	MA	02143-3908	US		Lots of Love! From Lots of love, Mom and Dad	false		
111-0217564-7931420	39802414744010	2020-11-10T14:27:30+00:00	2020-11-10T06:27:30-08:00	2020-11-10T14:53:00+00:00	2020-11-14T07:59:59+00:00	-4	r3627n1ts567gfq@marketplace.amazon.com	Pamela P Leary	+1 929-436-4790 ext. 38632	ABR0022	Delivery by Wednesday | Arabella Farm Direct Bouquet of 12 Fresh Cut Pink Roses with a Free Glass Vase	1	0	1	Expedited	Karen Leary	82 CONCORD AVE APT 1			SOMERVILLE	MA	02143-3908	US		Happy Birthday! From With Love, Mom and Dad	false		
111-0217564-7931420	38266826268930	2020-11-10T14:27:30+00:00	2020-11-10T06:27:30-08:00	2020-11-10T14:53:00+00:00	2020-11-14T07:59:59+00:00	-4	r3627n1ts567gfq@marketplace.amazon.com	Pamela P Leary	+1 929-436-4790 ext. 38632	ABR0022	Delivery by Wednesday | Arabella Farm Direct Bouquet of 12 Fresh Cut Pink Roses with a Free Glass Vase	1	0	1	Expedited	Karen Leary	82 CONCORD AVE APT 1			SOMERVILLE	MA	02143-3908	US		1 Dozen for every decade! ❤️ From We love you... Mom and Dad	false		
111-8343956-5889833	45863274772578	2020-11-10T14:27:22+00:00	2020-11-10T06:27:22-08:00	2020-11-10T14:56:42+00:00	2020-11-14T07:59:59+00:00	-4	ldngvxplq0r5fjb@marketplace.amazon.com	Karyn	+1 213-442-1463 ext. 63874	ABR0033	Delivery by Wednesday | Arabella Farm Direct Bouquet of 12 Fresh Cut Orange Roses with a Free Glass Vase	1	0	1	Expedited	Sharon Runyon	12670 AL HIGHWAY 191			MAPLESVILLE	AL	36750-3548	US		Love you From Karyn	false		
113-4651061-2482659	60677974956114	2020-11-10T14:47:47+00:00	2020-11-10T06:47:47-08:00	2020-11-10T15:13:42+00:00	2020-11-14T07:59:59+00:00	-4	cnsm0k3dyvzhbhc@marketplace.amazon.com	Robin	+1 619-854-2705 ext. 76384	ABM010	Delivery by Wednesday | The Spring Fling Bouquet by Arabella Bouquets with a Free Designer Glass Vase	1	0	1	Expedited	Sheryl Beecroft	1931 E SHANNON ST			GILBERT	AZ	85295-5129	US		Happy Birthday my dear friend! I love you, miss you and wish you a very happy birthday and an even more blessed year ahead. From Robin Miller	false		
112-6776281-8205001	34741332167034	2020-11-10T14:55:40+00:00	2020-11-10T06:55:40-08:00	2020-11-10T15:22:54+00:00	2020-11-14T07:59:59+00:00	-4	x8s4qflcz8vxl93@marketplace.amazon.com	princess davis	+1 602-671-6610 ext. 47716	ABR0055	Delivery by Wednesday | Arabella Farm Direct Bouquet of 12 Stems of Fresh Cut Hot Pink Roses in a Free Designer Glass Vase	1	0	1	Expedited	Rayda Diaz	201 CRESCENT AVE			LEONIA	NJ	07605-1906	US		Hi Rayda, I wish you a speedy recovery From princess davis	false		
113-5915603-2040250	27011805907538	2020-11-10T14:59:30+00:00	2020-11-10T06:59:30-08:00	2020-11-10T15:29:48+00:00	2020-11-14T07:59:59+00:00	-4	ndwtknvsrvkymvt@marketplace.amazon.com	Michelle	+1 619-854-2705 ext. 60571	ABR0033	Delivery by Wednesday | Arabella Farm Direct Bouquet of 12 Fresh Cut Orange Roses with a Free Glass Vase	1	0	1	Expedited	Gerilyn Wright	3426 NE 73RD AVE			PORTLAND	OR	97213-5826	US			false		
112-3290091-5565027	13516825616338	2020-11-10T15:11:19+00:00	2020-11-10T07:11:19-08:00	2020-11-10T15:38:35+00:00	2020-11-14T07:59:59+00:00	-4	9nrj19f6n7pwgjp@marketplace.amazon.com	PRISCILLA RAMOS COSTA	+1 213-442-1463 ext. 38532	ABM022	Delivery by Wednesday | Purple Extravagance Bouquet by Arabella Bouquets	1	0	1	Expedited	Johnssons	11641 POPLAR ST			LOMA LINDA	CA	92354-3544	US		To my bravest parents that fight the good battle and are blessed by God!  Wishing you healing and restful days ahead!  With love, From PRISCILLA	false		
112-3745592-2329825	35877492024634	2020-11-10T15:11:22+00:00	2020-11-10T07:11:22-08:00	2020-11-10T15:40:21+00:00	2020-11-14T07:59:59+00:00	-4	lpbjnvslmckg99f@marketplace.amazon.com	Cristiane costa	+1 213-442-1463 ext. 57460	ABR0055	Delivery by Wednesday | Arabella Farm Direct Bouquet of 12 Stems of Fresh Cut Hot Pink Roses in a Free Designer Glass Vase	1	0	1	Expedited	Daniele vargas	147 LINWOOD AVE 1			MELROSE	MA	02176-4723	US		Te amo. Muitooo me desculpa . I ll be a better friend, it is a promise. Love u. From Cristiane costa	false		
112-5023003-1501037	41351251347162	2020-11-10T15:33:17+00:00	2020-11-10T07:33:17-08:00	2020-11-10T16:00:53+00:00	2020-11-14T07:59:59+00:00	-4	lt7bnzsd2b05j6c@marketplace.amazon.com	elena	+1 929-436-4790 ext. 22599	ABR0022	Delivery by Wednesday | Arabella Farm Direct Bouquet of 12 Fresh Cut Pink Roses with a Free Glass Vase	1	0	1	Expedited	Lisa Leniashina	606 LOS PINOS AVE			MILPITAS	CA	95035-3923	US		Hi, Enjoy your gift! From elena	false		
114-9357043-5709042	20789976933770	2020-11-10T16:09:51+00:00	2020-11-10T08:09:51-08:00	2020-11-10T16:35:52+00:00	2020-11-14T07:59:59+00:00	-4	c6l427rs9d3tpbm@marketplace.amazon.com	Caryl A. Polk	+1 602-671-6610 ext. 32357	ABM022	Delivery by Wednesday | Purple Extravagance Bouquet by Arabella Bouquets	1	0	1	Expedited	Carole Black	14009 BRIARDALE LN			TAMPA	FL	33618-2209	US		Hi Carole, Such good news!!! Love, Janice and Caryl	false		
114-8745849-5341028	30204593135610	2020-11-10T16:20:36+00:00	2020-11-10T08:20:36-08:00	2020-11-10T16:47:54+00:00	2020-11-14T07:59:59+00:00	-4	k3xcz72jpjn4m20@marketplace.amazon.com	Darcy Goldfarb	+1 602-671-6610 ext. 88959	ABR0022	Delivery by Wednesday | Arabella Farm Direct Bouquet of 12 Fresh Cut Pink Roses with a Free Glass Vase	1	0	1	Expedited	Barbara Goldfarb	10474 E CORRINE DR			SCOTTSDALE	AZ	85259-2418	US		Dear Mom,  Happy Birthday! We hope you have a terrific day. We miss you very much and can't wait until this pandemic is over so we can come out and visit you!   Love, Darcy, Daniel, Emily & Mango From Darcy Goldfarb	false		
113-6792107-6004255	45341250622338	2020-11-10T16:21:10+00:00	2020-11-10T08:21:10-08:00	2020-11-10T16:49:52+00:00	2020-11-14T07:59:59+00:00	-4	8dgchjq36ym7rtd@marketplace.amazon.com	Jack bied	+1 415-851-9136 ext. 18422	ABR0033	Delivery by Wednesday | Arabella Farm Direct Bouquet of 12 Fresh Cut Orange Roses with a Free Glass Vase	1	0	1	Expedited	Allison Sperber	146 BERWICK DR			PAWLEYS ISLAND	SC	29585-6743	US			false		
112-2584331-0297049	26460931144386	2020-11-10T16:41:15+00:00	2020-11-10T08:41:15-08:00	2020-11-10T17:11:19+00:00	2020-11-14T07:59:59+00:00	-4	dn0s6w1w27m1dnb@marketplace.amazon.com	shauna massie	+1 213-442-1463 ext. 52830	ABM022	Delivery by Wednesday | Purple Extravagance Bouquet by Arabella Bouquets	1	0	1	Expedited	Nancy Morgan	7005 RANDALL ST			BAKERSFIELD	CA	93308-1984	US			false		
114-2982603-2564242	54805095954506	2020-11-10T16:52:27+00:00	2020-11-10T08:52:27-08:00	2020-11-10T17:19:11+00:00	2020-11-14T07:59:59+00:00	-4	vnscb1jcvqd2l52@marketplace.amazon.com	Kristine Weller	+1 602-671-6610 ext. 34459	ABM010	Delivery by Wednesday | The Spring Fling Bouquet by Arabella Bouquets with a Free Designer Glass Vase	1	0	1	Expedited	Cristy Weller	1035 JOANNA LN			CAMANO ISLAND	WA	98282-6628	US		Hi Cristy  Happy Birthday!  Love John, Kristine, Emily, and Colin From Kristine Weller	false		
113-8274263-3912221	63445855835042	2020-11-10T16:54:22+00:00	2020-11-10T08:54:22-08:00	2020-11-10T17:23:35+00:00	2020-11-14T07:59:59+00:00	-4	3gfsy30pk1bdff4@marketplace.amazon.com	Faiza Atique	+1 213-442-1463 ext. 77947	ABR0022	Delivery by Wednesday | Arabella Farm Direct Bouquet of 12 Fresh Cut Pink Roses with a Free Glass Vase	1	0	1	Expedited	Kiran Nazeer	98 WINTHROP AVE ALBANY NY 12203	UPPR LEVEL		ALBANY	NY	12203-1904	US		Enjoy your gift! From Faiza Atique	false		
112-1953142-2774634	28987073647386	2020-11-10T17:04:32+00:00	2020-11-10T09:04:32-08:00	2020-11-10T17:33:59+00:00	2020-11-14T07:59:59+00:00	-4	47v9lfp0bvp61mh@marketplace.amazon.com	Joseph Raykowski	+1 619-854-2705 ext. 67039	ABR0033	Delivery by Wednesday | Arabella Farm Direct Bouquet of 12 Fresh Cut Orange Roses with a Free Glass Vase	1	0	1	Expedited	Michele Lewis	320 CENTRAL AVE UNIT 446			SARASOTA	FL	34236-5135	US			false		
112-9500293-1693854	41138651388770	2020-11-10T17:22:08+00:00	2020-11-10T09:22:08-08:00	2020-11-10T17:41:46+00:00	2020-11-14T07:59:59+00:00	-4	dbqk5g0hpw1vp0y@marketplace.amazon.com	Shirin Amini	+1 602-671-6610 ext. 38913	ABR0022	Delivery by Wednesday | Arabella Farm Direct Bouquet of 12 Fresh Cut Pink Roses with a Free Glass Vase	1	0	1	Expedited	Jackie Cooper	4235 WESTLETON CT			COLUMBUS	OH	43221-4930	US		Thinking of you and wishing you a speedy recovery From Shirin and Homa	false		
114-3374515-4405005	17294096820442	2020-11-10T17:09:58+00:00	2020-11-10T09:09:58-08:00	2020-11-10T17:44:56+00:00	2020-11-14T07:59:59+00:00	-4	7mc02xgt5k4tf0n@marketplace.amazon.com	Tracie Reeves	483828282828	ABM022	Delivery by Wednesday | Purple Extravagance Bouquet by Arabella Bouquets	1	0	1	Expedited	Sue Finley	4214 CHERRY AVE			GRAYSVILLE	AL	35073-9602	US		Love you.-T From Tracie Reeves	true		
114-8516156-4837028	19610938619866	2020-11-10T17:34:25+00:00	2020-11-10T09:34:25-08:00	2020-11-10T18:03:33+00:00	2020-11-14T07:59:59+00:00	-4	zj4bv9y64n1hytw@marketplace.amazon.com	Beca Alt	+1 602-671-6610 ext. 70917	ABM022	Delivery by Wednesday | Purple Extravagance Bouquet by Arabella Bouquets	1	0	1	Expedited	Stephanie Voorhees	225 S KATHRYN ST			EASTON	PA	18045-2666	US		Happy Birthday ! Miss you. Hope you have a wonderful weekend. Love, Beca From Beca Alt	false		
113-4433509-8807409	26840968753418	2020-11-10T17:38:32+00:00	2020-11-10T09:38:32-08:00	2020-11-10T18:08:35+00:00	2020-11-14T07:59:59+00:00	-4	3y34rdn0s2wj6ts@marketplace.amazon.com	Sharon Hahn	+1 619-854-2705 ext. 67900	ABM022	Delivery by Wednesday | Purple Extravagance Bouquet by Arabella Bouquets	1	0	1	Expedited	Sharon Hahn	330 GIANNA WAY			SAINT AUGUSTINE	FLORIDA	32086-3857	US			false		
114-4118475-9020253	14515397951226	2020-11-10T17:54:16+00:00	2020-11-10T09:54:16-08:00	2020-11-10T18:17:23+00:00	2020-11-14T07:59:59+00:00	-4	tdqczqn4rj03qst@marketplace.amazon.com	Steve Hawkins	+1 619-854-2705 ext. 57889	ABR0055	Delivery by Wednesday | Arabella Farm Direct Bouquet of 12 Stems of Fresh Cut Hot Pink Roses in a Free Designer Glass Vase	1	0	1	Expedited	Carole Cotter	22 CHATEAU PL			ASHEVILLE	NC	28805-1713	US		Happy Birthday Carole!  We are a bit early but hoping you can enjoy these flowers as you approach your big day!! From Shari, Steve and Tripper	false		
114-2686653-3233001	30665948249186	2020-11-10T17:49:36+00:00	2020-11-10T09:49:36-08:00	2020-11-10T18:18:18+00:00	2020-11-14T07:59:59+00:00	-4	g124kbc99ls7rf5@marketplace.amazon.com	s kampinga	+1 213-442-1463 ext. 55616	ABR0022	Delivery by Wednesday | Arabella Farm Direct Bouquet of 12 Fresh Cut Pink Roses with a Free Glass Vase	1	0	1	Expedited	Charity Behrens	5774 N KENT AVE			WHITEFISH BAY	WI	53217-4724	US		Thought these flowers were as beautiful as you! I hope they smell amazing! Love you girl From Sherry	false		
113-6885349-9561868	00243605441610	2020-11-10T18:03:46+00:00	2020-11-10T10:03:46-08:00	2020-11-10T18:32:18+00:00	2020-11-14T07:59:59+00:00	-4	h9nyh2l48kv82v5@marketplace.amazon.com	/Sandra Rachwal	810417149	ABR0022	Delivery by Thursday | Arabella Farm Direct Bouquet of 12 Fresh Cut Pink Roses with a Free Glass Vase	1	0	1	Expedited	Briana Raasio	1221 DUNHAM ST SE			GRAND RAPIDS	MI	49506-2629	US		Just so you don’t forget about me, forever and ever baby 🌹 From Love Kyle	false		
112-3475338-8012228	40274174943938	2020-11-10T18:14:06+00:00	2020-11-10T10:14:06-08:00	2020-11-10T18:43:19+00:00	2020-11-14T07:59:59+00:00	-4	0dm1thrbpbdpbl6@marketplace.amazon.com	Marin Bach-Antonson	+1 213-442-1463 ext. 90440	ABM022	Delivery by Wednesday | Purple Extravagance Bouquet by Arabella Bouquets	1	0	1	Expedited	Tara Drake	887 VIOLET DR			MASSAPEQUA	NY	11758-2744	US		My beautiful friend, my heart is with you. I'm thinking of you and hoping the healing journey is swift and straight forward. I love you, M xoox From Marin Bach-Antonson	false		
111-9880648-0161843	19786950020594	2020-11-10T18:26:12+00:00	2020-11-10T10:26:12-08:00	2020-11-10T18:55:46+00:00	2020-11-14T07:59:59+00:00	-4	1pn7hdnjwvzvjjt@marketplace.amazon.com	Elizabeth Side	+1 929-436-4790 ext. 50214	ABM010	Delivery by Thursday | The Spring Fling Bouquet by Arabella Bouquets with a Free Designer Glass Vase	1	0	1	Expedited	Kelly Adamczyk	3683 PELHAM LN			CHARLOTTE	NC	28211-3721	US		Thank you again for being the hostess with the mostest! xoxo Ray From Elizabeth Side	false		
111-2063982-5064216	18540605132874	2020-11-10T18:31:23+00:00	2020-11-10T10:31:23-08:00	2020-11-10T18:55:58+00:00	2020-11-14T07:59:59+00:00	-4	2l2m3grsk9t4jk4@marketplace.amazon.com	Candace M. Hansen	+1 213-442-1463 ext. 03406	ABR0022	Delivery by Thursday | Arabella Farm Direct Bouquet of 12 Fresh Cut Pink Roses with a Free Glass Vase	1	0	1	Expedited	Linda DeFranco	9 SENTINEL CT			CHATHAM	NJ	07928-1769	US		Dear Linda, Hope this puts a little sunshine in you day. Wanda will be missed, hopefully she is meeting with Helen right now. From Love, Candy & Richard😘	false		
113-0705647-3090649	20338009061706	2020-11-10T18:29:40+00:00	2020-11-10T10:29:40-08:00	2020-11-10T18:57:58+00:00	2020-11-14T07:59:59+00:00	-4	97g4fqbn4m577dr@marketplace.amazon.com	Katie Allen	+1 480-618-5344 ext. 33199	ABM025	Delivery by Friday | The Fell for You Bouquet by Arabella Bouquets	1	0	1	Expedited	Cathy Harmon	221 SAILING CLUB DR			COLUMBIA	SC	29229-7207	US		Cathy-   We’re sorry you’re not feeling your best - sending you healing thoughts and hugs! From The Bitrise Support Team	false		
114-6227498-8453057	06172617787818	2020-11-10T18:27:58+00:00	2020-11-10T10:27:58-08:00	2020-11-10T18:58:06+00:00	2020-11-14T07:59:59+00:00	-4	xw4wtkhz63276gz@marketplace.amazon.com	Michael S. Berry	+1 213-442-1463 ext. 33565	ABM022	Delivery by Wednesday | Purple Extravagance Bouquet by Arabella Bouquets	1	0	1	Expedited	MICHAEL S BERRY	1420 GOEGLEIN GULCH			DURANGO	CO	81301-6861	US			false		
111-6211736-1019447	40165843225466	2020-11-10T18:29:37+00:00	2020-11-10T10:29:37-08:00	2020-11-10T18:58:41+00:00	2020-11-14T07:59:59+00:00	-4	30ng9py0lt2b9zj@marketplace.amazon.com	Cheryl Brown	+1 213-442-1463 ext. 28999	ABR0022	Delivery by Thursday | Arabella Farm Direct Bouquet of 12 Fresh Cut Pink Roses with a Free Glass Vase	1	0	1	Expedited	Jan Elswick	409 JEFFERSON AVE APT 306			ORANGE PARK	FL	32065-6785	US			false		
113-8361533-1061812	14510810948354	2020-11-10T18:32:12+00:00	2020-11-10T10:32:12-08:00	2020-11-10T18:59:02+00:00	2020-11-14T07:59:59+00:00	-4	08v083ymyy2j8pg@marketplace.amazon.com	Alex	+1 619-854-2705 ext. 21008	ABM010	Delivery by Thursday | The Spring Fling Bouquet by Arabella Bouquets with a Free Designer Glass Vase	1	0	1	Expedited	Denise Gunther	17420 W 54TH PL			GOLDEN	CO	80403-2036	US		Adding a little sunshine to your  special day!  Wish we were there to  help celebrate!  We love you very much! Happy Birthday!!!! From Tony & Robin	false		
113-3237547-1598639	29815584000026	2020-11-10T18:32:30+00:00	2020-11-10T10:32:30-08:00	2020-11-10T18:59:23+00:00	2020-11-14T07:59:59+00:00	-4	4gn38qjr489fjw0@marketplace.amazon.com	MRS SC BARRETT	+1 619-854-2705 ext. 39714	ABR0022	Delivery by Thursday | Arabella Farm Direct Bouquet of 12 Fresh Cut Pink Roses with a Free Glass Vase	1	0	1	Expedited	The Barrett Family	15931 GARDEN VIEW DR			APPLE VALLEY	MN	55124-7070	US		Dear Lisa, Jasen, James and John, We are so sorry to learn about the passing of your Dad and Grandfather. We send hugs, prayers and our deepest sympathies. Much love, From Sherry and Justin	false		
113-3125842-7777021	20644642007306	2020-11-10T18:36:01+00:00	2020-11-10T10:36:01-08:00	2020-11-10T19:01:12+00:00	2020-11-14T07:59:59+00:00	-4	y24f24hz0zqm37g@marketplace.amazon.com	cathy johnson	+1 213-442-1463 ext. 04395	ABR0022	Delivery by Thursday | Arabella Farm Direct Bouquet of 12 Fresh Cut Pink Roses with a Free Glass Vase	1	0	1	Expedited	Janice Johnson	8035 BENTFORD PARK ST			RICHMOND	TX	77406-4748	US		“Blessed are those who mourn, for they shall be comforted.” – Matthew 5:4. Aunt Janice we love you and we are all so sorry we couldn't be there. Love Cathy From Johnsons	false		
113-5003580-9235442	54060866993586	2020-11-10T18:36:03+00:00	2020-11-10T10:36:03-08:00	2020-11-10T19:01:39+00:00	2020-11-14T07:59:59+00:00	-4	g8pc1cs4rvvpx01@marketplace.amazon.com	donna king	+1 213-442-1463 ext. 64305	ABM010	Delivery by Thursday | The Spring Fling Bouquet by Arabella Bouquets with a Free Designer Glass Vase	1	0	1	Expedited	Rich and Emily Grandinetta	461 FRANKLIN ST			ALBURTIS	PA	18011-9543	US		Enjoy your new home! Miss you guys so much already! Hugs and kisses! D From donna king	false		
113-2027590-3246622	58565275583138	2020-11-10T18:35:17+00:00	2020-11-10T10:35:17-08:00	2020-11-10T19:04:45+00:00	2020-11-14T07:59:59+00:00	-4	0zvx48ly5mywt5j@marketplace.amazon.com	Lori Huckle	+1 929-436-4790 ext. 63073	ABR0022	Delivery by Thursday | Arabella Farm Direct Bouquet of 12 Fresh Cut Pink Roses with a Free Glass Vase	1	0	1	Expedited	Lori Huckle	4103 Cashell Glen			Eagan	Mn	55122	US		I hope these brighten your day and your feeling better soon, Love you Lori & Rick From Lori Huckle	false		
113-6976807-8264207	14944181474738	2020-11-10T18:42:51+00:00	2020-11-10T10:42:51-08:00	2020-11-10T19:10:14+00:00	2020-11-14T07:59:59+00:00	-4	g8pc1cs4rvvpx01@marketplace.amazon.com	donna king	+1 602-671-6610 ext. 96281	ABR0033	Delivery by Thursday | Arabella Farm Direct Bouquet of 12 Fresh Cut Orange Roses with a Free Glass Vase	1	0	1	Expedited	Sue King	5801 NICHOLSON LN APT 529			NORTH BETHESDA	MD	20852-5731	US		Just because you are loved!!!  Daughter D From donna king	false		
112-7085850-6918617	03149925701626	2020-11-10T18:44:14+00:00	2020-11-10T10:44:14-08:00	2020-11-10T19:10:44+00:00	2020-11-14T07:59:59+00:00	-4	2bx61hnt354qfsm@marketplace.amazon.com	Mary L. Carlson	+1 929-436-4790 ext. 03528	ABM022	Purple Extravagance Bouquet by Arabella Bouquets	1	0	1	Expedited	Kathryn Carlson	11245 109TH AVE NE			KIRKLAND	WA	98033-4503	US		Happy Birthday! We are SO glad you are our daughter-in-law!  With loads of love and blessings! From Dennis and Mary Lynn Carlson	false		
113-5676340-7212229	29528891518322	2020-11-10T18:58:07+00:00	2020-11-10T10:58:07-08:00	2020-11-10T19:19:09+00:00	2020-11-14T07:59:59+00:00	-4	b7h4wkbr70myq0n@marketplace.amazon.com	keith ruthenberg	+1 480-618-5344 ext. 83784	ABM022	Purple Extravagance Bouquet by Arabella Bouquets	1	0	1	Expedited	Angela Bowman	40 FALLON CT			ELMONT	NY	11003-3611	US		Get well soon!!! From Keith Ruthenberg and Amber Mizelle	false		
112-0974138-0641845	00026938503466	2020-11-10T18:51:49+00:00	2020-11-10T10:51:49-08:00	2020-11-10T19:22:04+00:00	2020-11-14T07:59:59+00:00	-4	js4p982fv8hk5bv@marketplace.amazon.com	joann egan	+1 602-671-6610 ext. 68959	ABR0033	Delivery by Thursday | Arabella Farm Direct Bouquet of 12 Fresh Cut Orange Roses with a Free Glass Vase	1	0	1	Expedited	Lisa Stanley	208 WINDSOR CT			NEW BRIGHTON	MN	55112-3367	US			false		
113-1527527-6747436	67247160231450	2020-11-10T19:09:06+00:00	2020-11-10T11:09:06-08:00	2020-11-10T19:34:50+00:00	2020-11-14T07:59:59+00:00	-4	sw2ltvz3gfzq429@marketplace.amazon.com	Mithil Shah	+1 480-618-5344 ext. 96995	ABR0022	Delivery by Thursday | Arabella Farm Direct Bouquet of 12 Fresh Cut Pink Roses with a Free Glass Vase	1	0	1	Expedited	May Matton	412 BENNACOTT LN			BURR RIDGE	IL	60527-6305	US		Happy belated birthday to my amazing neighbor! We are so lucky to know you! From Ashwin Karingada	false		
112-0593124-7640205	18293294882674	2020-11-10T19:14:58+00:00	2020-11-10T11:14:58-08:00	2020-11-10T19:41:42+00:00	2020-11-14T07:59:59+00:00	-4	nyqyrw59kwxk5vq@marketplace.amazon.com	Carol S. Harris	+1 619-854-2705 ext. 42495	ABM021	Delivery by Friday | The Joyous Bouquet by Arabella Bouquets	1	0	1	Expedited	Gloria Bargeron	1443 Highway 17 North			Millen	GA	30441	US		Happy belated birthday!! We love you! From Carol, Ernie and Calvin Harris	false		
112-7172917-9488253	19668489265090	2020-11-10T19:17:47+00:00	2020-11-10T11:17:47-08:00	2020-11-10T19:45:08+00:00	2020-11-14T07:59:59+00:00	-4	77vd7g8chs3x0mq@marketplace.amazon.com	kimberly a steakle	+1 619-854-2705 ext. 65961	ABM022	Delivery by Thursday | Purple Extravagance Bouquet by Arabella Bouquets	1	0	1	Expedited	Helen Podrebarac	7541 SWITZER ST # 2105B			OVERLAND PARK	KS	66214-1170	US		Helen, We all miss you at The Piper and can't wait for you to come home! We're thinking of you and hoping you get well soon. From The Piper Assisted Living & Memory Support	false		
113-0317928-1780234	10554759319474	2020-11-10T19:32:18+00:00	2020-11-10T11:32:18-08:00	2020-11-10T19:58:54+00:00	2020-11-14T07:59:59+00:00	-4	z4tty609nhdr02q@marketplace.amazon.com	Lisa Hilke	+1 415-851-9136 ext. 34126	ABR0022	Delivery by Thursday | Arabella Farm Direct Bouquet of 12 Fresh Cut Pink Roses with a Free Glass Vase	1	0	1	Expedited	Jenn and Dusty Mapson	2072 HERITAGE DR			ROSEVILLE	CA	95678-3401	US		Jenn and Dusty, We are so sorry for your loss. Zoey we blessed to be loved by both of you. We love you both so much! Love, The Ornelas Family From Ornelas Family	false		
114-0556102-0953844	17719575317802	2020-11-10T19:40:09+00:00	2020-11-10T11:40:09-08:00	2020-11-10T20:07:26+00:00	2020-11-14T07:59:59+00:00	-4	rm30tgx5pz0yg05@marketplace.amazon.com	James Trotta	+1 602-671-6610 ext. 33477	ABM020	Delivery by Friday | The Sunset Bouquet by Arabella Bouquets	1	0	1	Expedited	James Trotta	292 ROCKY RUN RD			GLEN GARDNER	NJ	08826-3270	US		To my very special wife on our very special day. May there be many more years to come. Love always Jim From  Jim	false		
111-6795302-7353010	57940264992338	2020-11-10T20:00:57+00:00	2020-11-10T12:00:57-08:00	2020-11-10T20:30:43+00:00	2020-11-14T07:59:59+00:00	-4	xsyyhtscjcm7sq0@marketplace.amazon.com	Rob Chomko	+1 213-442-1463 ext. 63661	ABM010	Delivery by Thursday | The Spring Fling Bouquet by Arabella Bouquets with a Free Designer Glass Vase	1	0	1	Expedited	Alix Aranza	5200 N OCEAN BLVD APT 215			LAUDERDALE BY THE SEA	FL	33308-3021	US		Good luck with surgery From Get well soon	false		
114-0553127-0224258	29107609398618	2020-11-10T20:18:48+00:00	2020-11-10T12:18:48-08:00	2020-11-10T20:46:12+00:00	2020-11-14T07:59:59+00:00	-4	bzxbnvld0dxsxkk@marketplace.amazon.com	Cathy Madden	+1 213-442-1463 ext. 82458	ABM022	Delivery by Thursday | Purple Extravagance Bouquet by Arabella Bouquets	1	0	1	Expedited	Belanger Family	406 HIBISCUS TRL			MELBOURNE	FL	32951-2028	US		Sending our thoughts and prayers to the family during this difficult time.  Love, Michael, Bobby Belanger & Cathy Madden From Belanger / Madden	false		
112-3281122-7037058	08224424864882	2020-11-10T20:36:52+00:00	2020-11-10T12:36:52-08:00	2020-11-10T20:50:51+00:00	2020-11-14T07:59:59+00:00	-4	81cjmfx8p6xb9vt@marketplace.amazon.com	Elaine R. Bryant	+1 619-854-2705 ext. 78608	ABR0022	Delivery by Thursday | Arabella Farm Direct Bouquet of 12 Fresh Cut Pink Roses with a Free Glass Vase	1	0	1	Expedited	Victoria and Melissa Bryant Berry	4251 GARY RD			ARNOLD	MO	63010-3643	US			false		
113-8635164-6417821	61096891612442	2020-11-10T20:25:04+00:00	2020-11-10T12:25:04-08:00	2020-11-10T20:51:23+00:00	2020-11-14T07:59:59+00:00	-4	lzz80rtmgzybjwc@marketplace.amazon.com	scott mcneal	+1 619-854-2705 ext. 26227	ABR0022	Delivery by Thursday | Arabella Farm Direct Bouquet of 12 Fresh Cut Pink Roses with a Free Glass Vase	1	0	1	Expedited	Aaron Shepherd	110 TRAIL RIDGE DR			HENDERSONVILLE	TN	37075-2161	US		Thank you for letting us borrow your Husband..... From The Team	false		
112-3263517-8787440	45249515026930	2020-11-10T20:27:44+00:00	2020-11-10T12:27:44-08:00	2020-11-10T20:55:01+00:00	2020-11-14T07:59:59+00:00	-4	c73nj0vk9ppzvx6@marketplace.amazon.com	Tiffany N Brenner	+1 602-671-6610 ext. 33493	ABM022	Delivery by Thursday | Purple Extravagance Bouquet by Arabella Bouquets	1	0	1	Expedited	Emi Brenner	5300 PONY CHASE			AUSTIN	TX	78727-6638	US		We are so proud of you! Mazel Tov! From Uncle Andrew, Aunt Tiff, and the June Bugs	false		
112-2583986-0336212	48150933910562	2020-11-10T20:41:11+00:00	2020-11-10T12:41:11-08:00	2020-11-10T20:59:48+00:00	2020-11-14T07:59:59+00:00	-4	m4c6tz2yx5d2d63@marketplace.amazon.com	Brad Williamson	+1 619-854-2705 ext. 44287	ABR0022	Delivery by Thursday | Arabella Farm Direct Bouquet of 12 Fresh Cut Pink Roses with a Free Glass Vase	1	0	1	Expedited	Amy Lee	DERMATOLOGY DEPARTMENT	1 PHIPPS LN		PARIS	IL	61944-2919	US		I love you more than words can describe.           Your husband From Brad Williamson	false		
