order-id	order-item-id	purchase-date	payments-date	reporting-date	promise-date	days-past-promise	buyer-email	buyer-name	buyer-phone-number	sku	product-name	quantity-purchased	quantity-shipped	quantity-to-ship	ship-service-level	recipient-name	ship-address-1	ship-address-2	ship-address-3	ship-city	ship-state	ship-postal-code	ship-country	gift-wrap-type	gift-message-text	is-business-order	purchase-order-number	price-designation
113-6358497-3182601	13756695660762	2020-11-07T14:56:38+00:00	2020-11-07T06:56:38-08:00	2020-11-07T15:24:48+00:00	2020-11-11T07:59:59+00:00	-1	yzc9spsjzwhqj0d@marketplace.amazon.com	Julane M. Hill	+1 480-618-5344 ext. 16810	ABM010	Delivery by Tuesday | The Spring Fling Bouquet by Arabella Bouquets with a Free Designer Glass Vase	2	1	1	Expedited	Pat Mohr	1133 ORLANDO DR			GREEN BAY	WI	54304-4324	US			false		
112-4269972-4705852	57237981856162	2020-11-08T07:48:44+00:00	2020-11-07T23:48:44-08:00	2020-11-08T08:16:19+00:00	2020-11-11T07:59:59+00:00	-1	s0q8cwxg1bxlcq9@marketplace.amazon.com	Larraine Cox	+1 929-436-4790 ext. 71600	ABM022	Delivery by Tuesday | Purple Extravagance Bouquet by Arabella Bouquets	1	0	1	Expedited	Marion Marriott	18600 HIGHWOODS PRESERVE PKWY	UNIT 225		TAMPA	FL	33647-1786	US		Dear Marion, many happy returns of the day sweetie. Thinking of you today with love from Larraine & Jon xx From Larraine Cox	false		
111-4395412-4522607	32774929284482	2020-11-09T17:46:14+00:00	2020-11-09T09:46:14-08:00	2020-11-09T18:12:42+00:00	2020-11-13T07:59:59+00:00	-3	f40w9kbmmd1z6yv@marketplace.amazon.com	Eric Kunzler	+1 929-436-4790 ext. 86990	ABR0055	Delivery by Wednesday | Arabella Farm Direct Bouquet of 12 Stems of Fresh Cut Hot Pink Roses in a Free Designer Glass Vase	1	0	1	Expedited	Titus and Lydia Kunzler	2430 76TH AVE SE APT 521			MERCER ISLAND	WA	98040-3362	US		Happy Anniversary, Mom and Dad!  Love, Eric and family From Eric Kunzler	false		
112-2664942-2121035	08493257161658	2020-11-09T17:45:22+00:00	2020-11-09T09:45:22-08:00	2020-11-09T18:14:58+00:00	2020-11-13T07:59:59+00:00	-3	y0tdcqcjtmm243c@marketplace.amazon.com	Richard Overturf	+1 619-854-2705 ext. 35488	ABR0055	Delivery by Wednesday | Arabella Farm Direct Bouquet of 12 Stems of Fresh Cut Hot Pink Roses in a Free Designer Glass Vase	1	0	1	Expedited	Aftan Overturf	3457 LENNON LN			MARION	IA	52302-4779	US			false		
111-3748754-0249856	55653767359618	2020-11-09T19:22:18+00:00	2020-11-09T11:22:18-08:00	2020-11-09T19:48:40+00:00	2020-11-13T07:59:59+00:00	-3	pf82bgnq4ww5ygs@marketplace.amazon.com	nima nassersharif	+1 929-436-4790 ext. 91315	ABM010	Delivery by Wednesday | The Spring Fling Bouquet by Arabella Bouquets with a Free Designer Glass Vase	1	0	1	Expedited	Laura Assink	131 KONNOWAC PASS RD			MOXEE	WA	98936-9508	US		Happy Birthday! I hope you have a wonderful day and I hope all your wishes come true! From Mohammad Moezzi	false		
112-4793062-9401022	25096471709058	2020-11-09T19:25:54+00:00	2020-11-09T11:25:54-08:00	2020-11-09T19:56:07+00:00	2020-11-13T07:59:59+00:00	-3	57m3xtb7wz4gm4c@marketplace.amazon.com	Jeanne E Cleek	+1 415-851-9136 ext. 92226	ABM010	Delivery by Wednesday | The Spring Fling Bouquet by Arabella Bouquets with a Free Designer Glass Vase	1	0	1	Expedited	Laura Fortin	CORRIDOR CROSSING -	136 36TH AVE SW RM # 12		CEDAR RAPIDS	IA	52404-4638	US			false		
114-5565278-7532227	67172220899730	2020-11-09T19:28:43+00:00	2020-11-09T11:28:43-08:00	2020-11-09T19:59:10+00:00	2020-11-13T07:59:59+00:00	-3	fg7l9gkfv1vgd8p@marketplace.amazon.com	Michael Gallagher	+1 213-442-1463 ext. 95366	ABM022	Delivery by Wednesday | Purple Extravagance Bouquet by Arabella Bouquets	1	0	1	Expedited	Larry Gallagher	3716 GRAND MESA DR			MONTROSE	CO	81403-7114	US			false		
113-3525726-6100262	63858735018546	2020-11-09T19:44:37+00:00	2020-11-09T11:44:37-08:00	2020-11-09T20:04:28+00:00	2020-11-13T07:59:59+00:00	-3	kmj0ptrm064f0zj@marketplace.amazon.com	David Ramirez	+1 619-854-2705 ext. 26541	ABR0022	Delivery by Wednesday | Arabella Farm Direct Bouquet of 12 Fresh Cut Pink Roses with a Free Glass Vase	1	0	1	Expedited	Grace Ayers	103 DORSET CT			SAN RAMON	CA	94583-2521	US		We hope you are feeling better, Love From David and Norm	false		
113-3319659-5995441	43038293804778	2020-11-09T19:58:38+00:00	2020-11-09T11:58:38-08:00	2020-11-09T20:20:56+00:00	2020-11-13T07:59:59+00:00	-3	dgvw7djr5zy84c2@marketplace.amazon.com	Hoyt Sumerel	+1 480-618-5344 ext. 25748	ABM022	Delivery by Wednesday | Purple Extravagance Bouquet by Arabella Bouquets	1	0	1	Expedited	James B. and Nancy D. Bishop	33685 VAN DUYN RD			EUGENE	OR	97408-9431	US		We are thinking of you and send condolences for Dorothy's passing. Lots of hugs to you and the family. love, Nancy & Hoyt From Hoyt & Nancy  Sumerel	false		
114-5355964-7823433	32021552604490	2020-11-09T20:09:29+00:00	2020-11-09T12:09:29-08:00	2020-11-09T20:38:24+00:00	2020-11-13T07:59:59+00:00	-3	s1rtdpmhgrc0b70@marketplace.amazon.com	Vickie Rusco	+1 619-854-2705 ext. 31485	ABR0022	Delivery by Wednesday | Arabella Farm Direct Bouquet of 12 Fresh Cut Pink Roses with a Free Glass Vase	1	0	1	Expedited	Mrs. Twila Rusco	7290 ROSEMOUNT CIR APT 314			TACOMA	WA	98465-1536	US			false		
114-3201342-3390625	16426096019850	2020-11-09T20:14:40+00:00	2020-11-09T12:14:40-08:00	2020-11-09T20:44:17+00:00	2020-11-13T07:59:59+00:00	-3	b671gmzxzjhmhlw@marketplace.amazon.com	Patrick J. Coleman	+1 213-442-1463 ext. 08862	ABR0022	Delivery by Wednesday | Arabella Farm Direct Bouquet of 12 Fresh Cut Pink Roses with a Free Glass Vase	1	0	1	Expedited	Kim Kline	919 ROCKDALE DR			SAN FRANCISCO	CA	94127-1724	US		Happy Birthday Kim! From Colleen, Patrick & Daniel	false		
113-1173702-3584266	23842103139970	2020-11-09T22:22:02+00:00	2020-11-09T14:22:02-08:00	2020-11-09T22:49:56+00:00	2020-11-13T07:59:59+00:00	-3	xn8rrmdx5nbv8br@marketplace.amazon.com	Holly Kopra	+1 929-436-4790 ext. 55900	ABR0022	Delivery by Wednesday | Arabella Farm Direct Bouquet of 12 Fresh Cut Pink Roses with a Free Glass Vase	1	0	1	Expedited	The Ballews	11706 10TH PL W			EVERETT	WA	98204-6013	US		Jason, Karla & Ari   Congratulations on your newest little star!  Best, Holly K (CPA) :) From Holly Kopra	false		
113-9112441-7955455	07508718334802	2020-11-09T22:32:43+00:00	2020-11-09T14:32:43-08:00	2020-11-09T22:52:30+00:00	2020-11-13T07:59:59+00:00	-3	v7502750fwgcdgn@marketplace.amazon.com	Maggie Connolly	+1 213-442-1463 ext. 59948	ABR0055	Delivery by Wednesday | Arabella Farm Direct Bouquet of 12 Stems of Fresh Cut Hot Pink Roses in a Free Designer Glass Vase	1	0	1	Expedited	Eileen Comiskey	10737 WHITE TAIL RUN			ORLAND PARK	IL	60467-8866	US		My dear friend, We hope you have a speedy recovery!  Take good care of yourself! Love you xoxo From Margaret & Jon Connolly	false		
114-8981607-9001058	27046275467130	2020-11-09T22:31:47+00:00	2020-11-09T14:31:47-08:00	2020-11-09T22:56:58+00:00	2020-11-13T07:59:59+00:00	-3	my96cynsjdmqd7p@marketplace.amazon.com	david cooper	+1 619-854-2705 ext. 68706	ABM022	Delivery by Wednesday | Purple Extravagance Bouquet by Arabella Bouquets	1	0	1	Expedited	Kim Dunn	245 FERNLY PARK DR			JOHNS CREEK	GA	30022-6365	US		Happy Birthday !!! From Cathi and David Cooper	false		
112-8235961-3348217	19877905540610	2020-11-09T22:55:17+00:00	2020-11-09T14:55:17-08:00	2020-11-09T23:21:50+00:00	2020-11-13T07:59:59+00:00	-3	8pf968sr0jbyk21@marketplace.amazon.com	Michael Schneider	+1 213-442-1463 ext. 32353	ABR0033	Delivery by Wednesday | Arabella Farm Direct Bouquet of 12 Fresh Cut Orange Roses with a Free Glass Vase	1	0	1	Expedited	Kim Hensley	12923 SW WAHKEENA CT			PORTLAND	OR	97224-6135	US		Kim - Wishing you a wonderful Happy Birthday month and sweet birthday thoughts and wishes for you.  I hope the flowers smell as sweet as you are as a person and my lover. Happy Birthday Kim!!! From Michael Schneider	false		
114-4396825-3020241	45832921130042	2020-11-09T21:56:44+00:00	2020-11-09T13:56:44-08:00	2020-11-09T23:32:01+00:00	2020-11-13T07:59:59+00:00	-3	p40kh36dll4jbn3@marketplace.amazon.com	Omni	+1 602-671-6610 ext. 48419	ABM022	Delivery by Wednesday | Purple Extravagance Bouquet by Arabella Bouquets	1	0	1	Expedited	Nikki Workman	1300 HOUSTON ST			FORT WORTH	TX	76102-6556	US		Nikki,   Thank you for all of your help with training! We appreciate your hard work and everything you do. From Kylie, Devin, Dan, Leo, Charles, Josh, Nora, Chef	false		
112-2706933-6426659	30243120173722	2020-11-09T23:25:43+00:00	2020-11-09T15:25:43-08:00	2020-11-09T23:47:14+00:00	2020-11-13T07:59:59+00:00	-3	qxzk7f8qbg2mcss@marketplace.amazon.com	Cari Lynn Zwick	+1 929-436-4790 ext. 24950	ABR0055	Delivery by Wednesday | Arabella Farm Direct Bouquet of 12 Stems of Fresh Cut Hot Pink Roses in a Free Designer Glass Vase	1	0	1	Expedited	Encompass health rehab hospital Northwest Tucson	SAMMI WOOD 1921 W HOSPITAL DR			TUCSON	AZ	85704-7806	US		Sammi,  Thinking of you!  You got this girl. From Love, Cari	false		
112-3322741-4854638	54038686504530	2020-11-10T00:19:40+00:00	2020-11-09T16:19:40-08:00	2020-11-10T00:37:47+00:00	2020-11-13T07:59:59+00:00	-3	5k4bj15v4zdvwww@marketplace.amazon.com	Rita Gray	+1 480-618-5344 ext. 81825	ABR0022	Delivery by Wednesday | Arabella Farm Direct Bouquet of 12 Fresh Cut Pink Roses with a Free Glass Vase	1	0	1	Expedited	Karen Culledge-Williams	1605 W BROWN DEER RD			RIVER HILLS	WI	53217-2139	US		You have my deepest Condolences.  I know Chloe loved the color "Pink".  Just wanted to remember her. Your family is in my prayers during this difficult time. From Rita Gray-Johnnie and Sebina Friend Ms. Gray	false		
112-9259892-8855407	30990661931762	2020-11-10T00:34:40+00:00	2020-11-09T16:34:40-08:00	2020-11-10T01:03:15+00:00	2020-11-13T07:59:59+00:00	-3	1qvtj9rmyzh3vfd@marketplace.amazon.com	Richard Rotharmel	+1 213-442-1463 ext. 64247	ABM022	Delivery by Wednesday | Purple Extravagance Bouquet by Arabella Bouquets	1	0	1	Expedited	Lena Garza	529 NE 6TH AVE			CAMAS	WA	98607-2061	US			false		
112-0459908-1467459	41847762310354	2020-11-10T00:52:58+00:00	2020-11-09T16:52:58-08:00	2020-11-10T01:19:28+00:00	2020-11-13T07:59:59+00:00	-3	rvysx339t4r6mrl@marketplace.amazon.com	Tsedy Gebeyehu	+1 929-436-4790 ext. 28571	ABM022	Delivery by Wednesday | Purple Extravagance Bouquet by Arabella Bouquets	1	0	1	Expedited	Michelle Coppins	101 WESTMONT WAY			TYRONE	GA	30290-1570	US			false		
113-8961001-6766645	04438619970682	2020-11-10T00:53:07+00:00	2020-11-09T16:53:07-08:00	2020-11-10T01:19:47+00:00	2020-11-13T07:59:59+00:00	-3	fyj1q8zsn5nkpn4@marketplace.amazon.com	modell plummer	+1 602-671-6610 ext. 66406	ABR004	Delivery by Wednesday | Arabella Farm Direct Bouquet of 12 Fresh Cut Yellow Roses with a Free Glass Vase	1	0	1	Expedited	Barbara Rahrer	212 LINCOLN ST SE			HUNTSVILLE	AL	35801-4107	US			false		
111-2475192-8015449	14586825566642	2020-11-10T01:12:53+00:00	2020-11-09T17:12:53-08:00	2020-11-10T01:42:31+00:00	2020-11-13T07:59:59+00:00	-3	0wzvwqw4wx4ctp8@marketplace.amazon.com	Mary	+1 602-671-6610 ext. 16500	ABM010	Delivery by Wednesday | The Spring Fling Bouquet by Arabella Bouquets with a Free Designer Glass Vase	1	0	1	Expedited	Sarah Brashear	1001 SCHERTZ PKWY			SCHERTZ	TX	78154-1628	US			false		
111-7311618-4344264	14539550686906	2020-11-10T01:32:16+00:00	2020-11-09T17:32:16-08:00	2020-11-10T01:52:36+00:00	2020-11-13T07:59:59+00:00	-3	dgj14d2st11xt07@marketplace.amazon.com	Dharika	+1 619-854-2705 ext. 44880	ABM022	Delivery by Wednesday | Purple Extravagance Bouquet by Arabella Bouquets	1	0	1	Expedited	Fatme Chehab	6142 N GULLEY RD			DEARBORN HEIGHTS	MI	48127-3057	US		Sending love, prayers, strength & comfort to you & your family. I hope the journal helps you share all that you wanted to share with Bilal. Always here xoxo From Dharika, Micheal & our families!	false		
112-7594952-2702635	14800630268002	2020-11-10T01:43:09+00:00	2020-11-09T17:43:09-08:00	2020-11-10T02:07:49+00:00	2020-11-13T07:59:59+00:00	-3	rbsrxbjc0gjvsfy@marketplace.amazon.com	Eric Sayers	+1 602-671-6610 ext. 02714	ABR0022	Delivery by Wednesday | Arabella Farm Direct Bouquet of 12 Fresh Cut Pink Roses with a Free Glass Vase	1	0	1	Expedited	Roxanne Davis-Cote	C/O BEAUFORT MEMORIAL HOSPITAL	955 RIBAUT RD		BEAUFORT	SC	29902-5441	US		Happy Birthday Roxanne! My Favorite Dietitian EVER! All my best for another fantastic ROX year! From Chef E	false		
113-1081790-3145846	36155267751194	2020-11-10T02:28:29+00:00	2020-11-09T18:28:29-08:00	2020-11-10T02:57:37+00:00	2020-11-13T07:59:59+00:00	-3	g040c9xyy1ctk54@marketplace.amazon.com	Erin Callanan	+1 213-442-1463 ext. 74449	ABR0033	Delivery by Wednesday | Arabella Farm Direct Bouquet of 12 Fresh Cut Orange Roses with a Free Glass Vase	1	0	1	Expedited	Tara Psencik	735 EAGLE LANDING DR			BELTON	TX	76513-5704	US		Happy Birthday Tara  Love and miss you! Erin From Erin Callanan	false		
113-2188927-3452252	57957359754490	2020-11-10T02:37:11+00:00	2020-11-09T18:37:11-08:00	2020-11-10T03:02:46+00:00	2020-11-13T07:59:59+00:00	-3	dhjsl1hm46wsdwm@marketplace.amazon.com	Michael Hipwell	+1 602-671-6610 ext. 18504	ABR0055	Delivery by Wednesday | Arabella Farm Direct Bouquet of 12 Stems of Fresh Cut Hot Pink Roses in a Free Designer Glass Vase	1	0	1	Expedited	Barbara Hipwell	864 LEDGESTONE CT			FORT MILL	SC	29708-6517	US		Happy Birthday Mom!  We love and miss you very much. From Michael and Tom	false		
113-2942819-8999408	49579868946306	2020-11-10T02:52:32+00:00	2020-11-09T18:52:32-08:00	2020-11-10T03:22:15+00:00	2020-11-13T07:59:59+00:00	-3	5j95nln4dmjpr8k@marketplace.amazon.com	Flora Dufour	+1 929-436-4790 ext. 65699	ABM010	Delivery by Wednesday | The Spring Fling Bouquet by Arabella Bouquets with a Free Designer Glass Vase	1	0	1	Expedited	Leah Cottam	2558 76TH AVE SE APT 472			MERCER ISLAND	WA	98040-3795	US		Happy Housewarming and Birthday!! From Flora Dufour	false		
114-7024411-4923415	07467780041290	2020-11-10T03:00:05+00:00	2020-11-09T19:00:05-08:00	2020-11-10T03:27:12+00:00	2020-11-13T07:59:59+00:00	-3	0rwkxymk017n2fc@marketplace.amazon.com	Nina Saunders	+1 602-671-6610 ext. 27508	ABR0022	Delivery by Wednesday | Arabella Farm Direct Bouquet of 12 Fresh Cut Pink Roses with a Free Glass Vase	1	0	1	Expedited	Sandi Carson	1007 WANNAMAKER WAY			HENDERSON	NV	89015-2921	US		Dear Sandi, Happy Birthday Sis! Love, Nina and Jim	false		
114-4795065-3899462	20640711646594	2020-11-10T03:00:59+00:00	2020-11-09T19:00:59-08:00	2020-11-10T03:29:55+00:00	2020-11-13T07:59:59+00:00	-3	cqs5q407z7n79lv@marketplace.amazon.com	Mary Narens	+1 929-436-4790 ext. 20792	ABR001	Delivery by Wednesday | Arabella Bouquets 12 Stems of Fresh Cut Red Roses in a Free Designer Glass Vase	1	0	1	Expedited	Irene Narens	26002 S CLOVERLAND DR			SUN LAKES	AZ	85248-7257	US		Happy Birthday Mom!  We love you so much!!! From Stephen, Mary, Devitt, and Collin	false		
114-3117447-8441049	01311769034338	2020-11-10T03:20:38+00:00	2020-11-09T19:20:38-08:00	2020-11-10T03:46:29+00:00	2020-11-13T07:59:59+00:00	-3	8tv94hzx7gyxm1j@marketplace.amazon.com	Lynette Bensen	+1 619-854-2705 ext. 12127	ABR0022	Delivery by Wednesday | Arabella Farm Direct Bouquet of 12 Fresh Cut Pink Roses with a Free Glass Vase	1	0	1	Expedited	Connie Bensen	2141 CARMELITA DR			SAN CARLOS	CA	94070-2926	US		Olivia good luck on your staring role in the Nutcracker wish we could be there. From Love Grandma Netz and Grandpa Tom	false		
111-0486565-3436217	56130400594882	2020-11-10T03:29:10+00:00	2020-11-09T19:29:10-08:00	2020-11-10T03:57:53+00:00	2020-11-13T07:59:59+00:00	-3	h2p4jhl2czr04xn@marketplace.amazon.com	Elisa	+1 929-436-4790 ext. 40513	ABR0055	Delivery by Wednesday | Arabella Farm Direct Bouquet of 12 Stems of Fresh Cut Hot Pink Roses in a Free Designer Glass Vase	1	0	1	Expedited	Sandie Early	12 Joliet Dr.			COTO DE CAZA	CA	92679-3629	US		Thank you for watching me doing school.  You were a great teacher.  I love you! From Norah	false		
111-7688781-2203442	15215544046874	2020-11-10T03:34:37+00:00	2020-11-09T19:34:37-08:00	2020-11-10T04:02:16+00:00	2020-11-13T07:59:59+00:00	-3	r7k56s6t9rs0y57@marketplace.amazon.com	Maria Borgen	+1 929-436-4790 ext. 69015	ABR0055	Delivery by Wednesday | Arabella Farm Direct Bouquet of 12 Stems of Fresh Cut Hot Pink Roses in a Free Designer Glass Vase	1	0	1	Expedited	Cathy Long	421 2ND ST W			KIRKLAND	WA	98033-5349	US		So sorry for your loss.  Let these flowers bring a little comfort and strength during this hard times. From love,  Maria	false		
111-5980114-3317021	04348086183562	2020-11-10T04:01:01+00:00	2020-11-09T20:01:01-08:00	2020-11-10T04:23:47+00:00	2020-11-13T07:59:59+00:00	-3	sl89vc69hd4fh9x@marketplace.amazon.com	Jennifer Trotter	+1 929-436-4790 ext. 48277	ABM010	Delivery by Wednesday | The Spring Fling Bouquet by Arabella Bouquets with a Free Designer Glass Vase	1	0	1	Expedited	Cathy Trotter	COMMUNITY HONDA 8340 W 159TH ST			ORLAND PARK	IL	60462-4941	US		Thank you so very much for coming down here & taking care of the kids! We are truly greatful! The kids, frankly-lol, loved getting to spend quality time with you! Thank you! Love & miss you! From Trotter Fam	false		
113-6422122-3953031	28105102651146	2020-11-10T03:57:53+00:00	2020-11-09T19:57:53-08:00	2020-11-10T04:25:29+00:00	2020-11-13T07:59:59+00:00	-3	j2qf34hwrpnv3sx@marketplace.amazon.com	Teri Worry	+1 602-671-6610 ext. 84343	ABR0022	Delivery by Wednesday | Arabella Farm Direct Bouquet of 12 Fresh Cut Pink Roses with a Free Glass Vase	2	1	1	Expedited	Teri Worry	965 Gulf Shores Drive			Crystal Beach	TX	77659	US			false		
112-6986981-6460252	53459291568402	2020-11-10T04:32:58+00:00	2020-11-09T20:32:58-08:00	2020-11-10T04:59:06+00:00	2020-11-13T07:59:59+00:00	-3	c8bcq8b46jkxvrn@marketplace.amazon.com	Daniel	+1 602-671-6610 ext. 58054	ABM022	Delivery by Wednesday | Purple Extravagance Bouquet by Arabella Bouquets	1	0	1	Expedited	Kimberly Avila	14385 IRON HORSE WAY			HELOTES	TX	78023-3959	US		Happy birthday month Enjoy! I love you. From Dr. Mom	false		
112-8653463-3139431	48023961623354	2020-11-10T04:53:24+00:00	2020-11-09T20:53:24-08:00	2020-11-10T05:16:46+00:00	2020-11-13T07:59:59+00:00	-3	w3w1t4tdtpb2y6p@marketplace.amazon.com	edna campau	+1 929-436-4790 ext. 83352	ABR0022	Delivery by Wednesday | Arabella Farm Direct Bouquet of 12 Fresh Cut Pink Roses with a Free Glass Vase	1	0	1	Expedited	Sherry Steil	3691 MORNING GLORY DR			CASTLE ROCK	CO	80109-7510	US		1944 was a good year. Let's just say 2020 could have been better. Happy Birthday "old" girl!  Love, Ed From edna campau	false		
113-0519060-3985002	48244741577090	2020-11-10T04:56:22+00:00	2020-11-09T20:56:22-08:00	2020-11-10T05:23:52+00:00	2020-11-13T07:59:59+00:00	-3	ymnk1vrbfp83ppc@marketplace.amazon.com	Richard K. Young	+1 602-671-6610 ext. 12465	ABR0022	Delivery by Wednesday | Arabella Farm Direct Bouquet of 12 Fresh Cut Pink Roses with a Free Glass Vase	1	0	1	Expedited	RICHARD K YOUNG	13031 SILVER CREEK DR			TENINO	WA	98589-9460	US		Happy Birthday, Melissa!  I love you! From Rich	false		
111-8955001-6357854	05777257594042	2020-11-10T06:17:07+00:00	2020-11-09T22:17:07-08:00	2020-11-10T06:47:20+00:00	2020-11-13T07:59:59+00:00	-3	3qqmd83v43qtq9g@marketplace.amazon.com	Xiaozhuan Hu	+1 480-618-5344 ext. 74361	ABM022	Delivery by Wednesday | Purple Extravagance Bouquet by Arabella Bouquets	1	0	1	Expedited	Mr. Tung	13386 ARGONNE DR	SARATOGA CA 95070		SARATOGA	CA	95070-4956	US			false		
114-7503032-3537038	41605369117306	2020-11-10T06:56:41+00:00	2020-11-09T22:56:41-08:00	2020-11-10T07:24:46+00:00	2020-11-13T07:59:59+00:00	-3	384jhwn7n726ry8@marketplace.amazon.com	Bian Xi	+1 602-671-6610 ext. 98788	ABM022	Delivery by Wednesday | Purple Extravagance Bouquet by Arabella Bouquets	1	0	1	Expedited	Lily Li	360 S MONROE ST APT 360			DENVER	CO	80209-3703	US			false		
112-1642638-5841010	34362606408354	2020-11-10T07:09:15+00:00	2020-11-09T23:09:15-08:00	2020-11-10T07:38:27+00:00	2020-11-13T07:59:59+00:00	-3	91nz9wxjt5g0vck@marketplace.amazon.com	Mike Thomas	+1 213-442-1463 ext. 55407	ABM022	Delivery by Wednesday | Purple Extravagance Bouquet by Arabella Bouquets	1	0	1	Expedited	Debbie Parker	749 W 100TH AVE			NORTHGLENN	CO	80260-6000	US		We are sorry for your loss. We love you guys.  Mike &  Lori	false		
114-1973724-7973836	69872838760730	2020-11-10T01:48:34+00:00	2020-11-09T17:48:34-08:00	2020-11-10T09:29:44+00:00	2020-11-14T07:59:59+00:00	-4	cb00rmbmz6jx12b@marketplace.amazon.com	Elizabeth Mercado	+1 480-618-5344 ext. 63690	ABR001	Delivery by Wednesday | Arabella Bouquets 12 Stems of Fresh Cut Red Roses in a Free Designer Glass Vase	1	0	1	Expedited	Marilyn Diana Riske	300 E WOOD LN			BELVIDERE	IL	61008-7839	US		From the bottom of my heart I love you babe From Paul Stanley	false		
112-6714011-9301068	50562763281026	2020-11-10T09:50:37+00:00	2020-11-10T01:50:37-08:00	2020-11-10T10:19:02+00:00	2020-11-14T07:59:59+00:00	-4	r38gh5xn1lqx6h5@marketplace.amazon.com	thomas Ireland	+1 213-442-1463 ext. 96248	ABR001	Delivery by Wednesday | Arabella Bouquets 12 Stems of Fresh Cut Red Roses in a Free Designer Glass Vase	1	0	1	Expedited	Ina Fay Ireland	521 MOIR ST APT B			EDEN	NC	27288-6159	US		Happy Birthday Mom! I love you From Tom	false		
112-0658925-4489866	49973582317738	2020-11-10T14:16:44+00:00	2020-11-10T06:16:44-08:00	2020-11-10T14:42:52+00:00	2020-11-14T07:59:59+00:00	-4	6jh15d78mjrwxqj@marketplace.amazon.com	Cynthia Hungerford	+1 929-436-4790 ext. 02410	ABM010	Delivery by Wednesday | The Spring Fling Bouquet by Arabella Bouquets with a Free Designer Glass Vase	1	0	1	Expedited	Ruth Ondrusek	3815 GARRISON ST			WHEAT RIDGE	CO	80033-4212	US		We are so very sorry for your loss. Keeping you in our prayers with love, From The Joneses, The Linds, The Hungerfords and Grandma Betty	false		
112-5132748-2757858	54916685568354	2020-11-10T14:14:47+00:00	2020-11-10T06:14:47-08:00	2020-11-10T14:42:58+00:00	2020-11-14T07:59:59+00:00	-4	ht2cmrq2d3tjpn6@marketplace.amazon.com	Joseph Conrad	+1 619-854-2705 ext. 38301	ABM010	Delivery by Wednesday | The Spring Fling Bouquet by Arabella Bouquets with a Free Designer Glass Vase	1	0	1	Expedited	Jamie Laabs	745 N DRIES ST			SAUKVILLE	WI	53080-1664	US		Get well soon! From Jean & Joseph Conrad	false		
111-0217564-7931420	39802414744010	2020-11-10T14:27:30+00:00	2020-11-10T06:27:30-08:00	2020-11-10T14:53:00+00:00	2020-11-14T07:59:59+00:00	-4	r3627n1ts567gfq@marketplace.amazon.com	Pamela P Leary	+1 929-436-4790 ext. 38632	ABR0022	Delivery by Wednesday | Arabella Farm Direct Bouquet of 12 Fresh Cut Pink Roses with a Free Glass Vase	1	0	1	Expedited	Karen Leary	82 CONCORD AVE APT 1			SOMERVILLE	MA	02143-3908	US		Happy Birthday! From With Love, Mom and Dad	false		
113-4651061-2482659	60677974956114	2020-11-10T14:47:47+00:00	2020-11-10T06:47:47-08:00	2020-11-10T15:13:42+00:00	2020-11-14T07:59:59+00:00	-4	cnsm0k3dyvzhbhc@marketplace.amazon.com	Robin	+1 619-854-2705 ext. 76384	ABM010	Delivery by Wednesday | The Spring Fling Bouquet by Arabella Bouquets with a Free Designer Glass Vase	1	0	1	Expedited	Sheryl Beecroft	1931 E SHANNON ST			GILBERT	AZ	85295-5129	US		Happy Birthday my dear friend! I love you, miss you and wish you a very happy birthday and an even more blessed year ahead. From Robin Miller	false		
113-5915603-2040250	27011805907538	2020-11-10T14:59:30+00:00	2020-11-10T06:59:30-08:00	2020-11-10T15:29:48+00:00	2020-11-14T07:59:59+00:00	-4	ndwtknvsrvkymvt@marketplace.amazon.com	Michelle	+1 619-854-2705 ext. 60571	ABR0033	Delivery by Wednesday | Arabella Farm Direct Bouquet of 12 Fresh Cut Orange Roses with a Free Glass Vase	1	0	1	Expedited	Gerilyn Wright	3426 NE 73RD AVE			PORTLAND	OR	97213-5826	US			false		
112-5023003-1501037	41351251347162	2020-11-10T15:33:17+00:00	2020-11-10T07:33:17-08:00	2020-11-10T16:00:53+00:00	2020-11-14T07:59:59+00:00	-4	lt7bnzsd2b05j6c@marketplace.amazon.com	elena	+1 929-436-4790 ext. 22599	ABR0022	Delivery by Wednesday | Arabella Farm Direct Bouquet of 12 Fresh Cut Pink Roses with a Free Glass Vase	1	0	1	Expedited	Lisa Leniashina	606 LOS PINOS AVE			MILPITAS	CA	95035-3923	US		Hi, Enjoy your gift! From elena	false		
114-8745849-5341028	30204593135610	2020-11-10T16:20:36+00:00	2020-11-10T08:20:36-08:00	2020-11-10T16:47:54+00:00	2020-11-14T07:59:59+00:00	-4	k3xcz72jpjn4m20@marketplace.amazon.com	Darcy Goldfarb	+1 602-671-6610 ext. 88959	ABR0022	Delivery by Wednesday | Arabella Farm Direct Bouquet of 12 Fresh Cut Pink Roses with a Free Glass Vase	1	0	1	Expedited	Barbara Goldfarb	10474 E CORRINE DR			SCOTTSDALE	AZ	85259-2418	US		Dear Mom,  Happy Birthday! We hope you have a terrific day. We miss you very much and can't wait until this pandemic is over so we can come out and visit you!   Love, Darcy, Daniel, Emily & Mango From Darcy Goldfarb	false		
114-2982603-2564242	54805095954506	2020-11-10T16:52:27+00:00	2020-11-10T08:52:27-08:00	2020-11-10T17:19:11+00:00	2020-11-14T07:59:59+00:00	-4	vnscb1jcvqd2l52@marketplace.amazon.com	Kristine Weller	+1 602-671-6610 ext. 34459	ABM010	Delivery by Wednesday | The Spring Fling Bouquet by Arabella Bouquets with a Free Designer Glass Vase	1	0	1	Expedited	Cristy Weller	1035 JOANNA LN			CAMANO ISLAND	WA	98282-6628	US		Hi Cristy  Happy Birthday!  Love John, Kristine, Emily, and Colin From Kristine Weller	false		
114-4118475-9020253	14515397951226	2020-11-10T17:54:16+00:00	2020-11-10T09:54:16-08:00	2020-11-10T18:17:23+00:00	2020-11-14T07:59:59+00:00	-4	tdqczqn4rj03qst@marketplace.amazon.com	Steve Hawkins	+1 619-854-2705 ext. 57889	ABR0055	Delivery by Wednesday | Arabella Farm Direct Bouquet of 12 Stems of Fresh Cut Hot Pink Roses in a Free Designer Glass Vase	1	0	1	Expedited	Carole Cotter	22 CHATEAU PL			ASHEVILLE	NC	28805-1713	US		Happy Birthday Carole!  We are a bit early but hoping you can enjoy these flowers as you approach your big day!! From Shari, Steve and Tripper	false		
114-2686653-3233001	30665948249186	2020-11-10T17:49:36+00:00	2020-11-10T09:49:36-08:00	2020-11-10T18:18:18+00:00	2020-11-14T07:59:59+00:00	-4	g124kbc99ls7rf5@marketplace.amazon.com	s kampinga	+1 213-442-1463 ext. 55616	ABR0022	Delivery by Wednesday | Arabella Farm Direct Bouquet of 12 Fresh Cut Pink Roses with a Free Glass Vase	1	0	1	Expedited	Charity Behrens	5774 N KENT AVE			WHITEFISH BAY	WI	53217-4724	US		Thought these flowers were as beautiful as you! I hope they smell amazing! Love you girl From Sherry	false		
111-9880648-0161843	19786950020594	2020-11-10T18:26:12+00:00	2020-11-10T10:26:12-08:00	2020-11-10T18:55:46+00:00	2020-11-14T07:59:59+00:00	-4	1pn7hdnjwvzvjjt@marketplace.amazon.com	Elizabeth Side	+1 929-436-4790 ext. 50214	ABM010	Delivery by Thursday | The Spring Fling Bouquet by Arabella Bouquets with a Free Designer Glass Vase	1	0	1	Expedited	Kelly Adamczyk	3683 PELHAM LN			CHARLOTTE	NC	28211-3721	US		Thank you again for being the hostess with the mostest! xoxo Ray From Elizabeth Side	false		
111-2063982-5064216	18540605132874	2020-11-10T18:31:23+00:00	2020-11-10T10:31:23-08:00	2020-11-10T18:55:58+00:00	2020-11-14T07:59:59+00:00	-4	2l2m3grsk9t4jk4@marketplace.amazon.com	Candace M. Hansen	+1 213-442-1463 ext. 03406	ABR0022	Delivery by Thursday | Arabella Farm Direct Bouquet of 12 Fresh Cut Pink Roses with a Free Glass Vase	1	0	1	Expedited	Linda DeFranco	9 SENTINEL CT			CHATHAM	NJ	07928-1769	US		Dear Linda, Hope this puts a little sunshine in you day. Wanda will be missed, hopefully she is meeting with Helen right now. From Love, Candy & Richard😘	false		
113-0705647-3090649	20338009061706	2020-11-10T18:29:40+00:00	2020-11-10T10:29:40-08:00	2020-11-10T18:57:58+00:00	2020-11-14T07:59:59+00:00	-4	97g4fqbn4m577dr@marketplace.amazon.com	Katie Allen	+1 480-618-5344 ext. 33199	ABM025	Delivery by Friday | The Fell for You Bouquet by Arabella Bouquets	1	0	1	Expedited	Cathy Harmon	221 SAILING CLUB DR			COLUMBIA	SC	29229-7207	US		Cathy-   We’re sorry you’re not feeling your best - sending you healing thoughts and hugs! From The Bitrise Support Team	false		
114-6227498-8453057	06172617787818	2020-11-10T18:27:58+00:00	2020-11-10T10:27:58-08:00	2020-11-10T18:58:06+00:00	2020-11-14T07:59:59+00:00	-4	xw4wtkhz63276gz@marketplace.amazon.com	Michael S. Berry	+1 213-442-1463 ext. 33565	ABM022	Delivery by Wednesday | Purple Extravagance Bouquet by Arabella Bouquets	1	0	1	Expedited	MICHAEL S BERRY	1420 GOEGLEIN GULCH			DURANGO	CO	81301-6861	US			false		
111-6211736-1019447	40165843225466	2020-11-10T18:29:37+00:00	2020-11-10T10:29:37-08:00	2020-11-10T18:58:41+00:00	2020-11-14T07:59:59+00:00	-4	30ng9py0lt2b9zj@marketplace.amazon.com	Cheryl Brown	+1 213-442-1463 ext. 28999	ABR0022	Delivery by Thursday | Arabella Farm Direct Bouquet of 12 Fresh Cut Pink Roses with a Free Glass Vase	1	0	1	Expedited	Jan Elswick	409 JEFFERSON AVE APT 306			ORANGE PARK	FL	32065-6785	US			false		
113-8361533-1061812	14510810948354	2020-11-10T18:32:12+00:00	2020-11-10T10:32:12-08:00	2020-11-10T18:59:02+00:00	2020-11-14T07:59:59+00:00	-4	08v083ymyy2j8pg@marketplace.amazon.com	Alex	+1 619-854-2705 ext. 21008	ABM010	Delivery by Thursday | The Spring Fling Bouquet by Arabella Bouquets with a Free Designer Glass Vase	1	0	1	Expedited	Denise Gunther	17420 W 54TH PL			GOLDEN	CO	80403-2036	US		Adding a little sunshine to your  special day!  Wish we were there to  help celebrate!  We love you very much! Happy Birthday!!!! From Tony & Robin	false		
113-3237547-1598639	29815584000026	2020-11-10T18:32:30+00:00	2020-11-10T10:32:30-08:00	2020-11-10T18:59:23+00:00	2020-11-14T07:59:59+00:00	-4	4gn38qjr489fjw0@marketplace.amazon.com	MRS SC BARRETT	+1 619-854-2705 ext. 39714	ABR0022	Delivery by Thursday | Arabella Farm Direct Bouquet of 12 Fresh Cut Pink Roses with a Free Glass Vase	1	0	1	Expedited	The Barrett Family	15931 GARDEN VIEW DR			APPLE VALLEY	MN	55124-7070	US		Dear Lisa, Jasen, James and John, We are so sorry to learn about the passing of your Dad and Grandfather. We send hugs, prayers and our deepest sympathies. Much love, From Sherry and Justin	false		
113-3125842-7777021	20644642007306	2020-11-10T18:36:01+00:00	2020-11-10T10:36:01-08:00	2020-11-10T19:01:12+00:00	2020-11-14T07:59:59+00:00	-4	y24f24hz0zqm37g@marketplace.amazon.com	cathy johnson	+1 213-442-1463 ext. 04395	ABR0022	Delivery by Thursday | Arabella Farm Direct Bouquet of 12 Fresh Cut Pink Roses with a Free Glass Vase	1	0	1	Expedited	Janice Johnson	8035 BENTFORD PARK ST			RICHMOND	TX	77406-4748	US		“Blessed are those who mourn, for they shall be comforted.” – Matthew 5:4. Aunt Janice we love you and we are all so sorry we couldn't be there. Love Cathy From Johnsons	false		
113-5003580-9235442	54060866993586	2020-11-10T18:36:03+00:00	2020-11-10T10:36:03-08:00	2020-11-10T19:01:39+00:00	2020-11-14T07:59:59+00:00	-4	g8pc1cs4rvvpx01@marketplace.amazon.com	donna king	+1 213-442-1463 ext. 64305	ABM010	Delivery by Thursday | The Spring Fling Bouquet by Arabella Bouquets with a Free Designer Glass Vase	1	0	1	Expedited	Rich and Emily Grandinetta	461 FRANKLIN ST			ALBURTIS	PA	18011-9543	US		Enjoy your new home! Miss you guys so much already! Hugs and kisses! D From donna king	false		
113-2027590-3246622	58565275583138	2020-11-10T18:35:17+00:00	2020-11-10T10:35:17-08:00	2020-11-10T19:04:45+00:00	2020-11-14T07:59:59+00:00	-4	0zvx48ly5mywt5j@marketplace.amazon.com	Lori Huckle	+1 929-436-4790 ext. 63073	ABR0022	Delivery by Thursday | Arabella Farm Direct Bouquet of 12 Fresh Cut Pink Roses with a Free Glass Vase	1	0	1	Expedited	Lori Huckle	4103 Cashell Glen			Eagan	Mn	55122	US		I hope these brighten your day and your feeling better soon, Love you Lori & Rick From Lori Huckle	false		
113-6976807-8264207	14944181474738	2020-11-10T18:42:51+00:00	2020-11-10T10:42:51-08:00	2020-11-10T19:10:14+00:00	2020-11-14T07:59:59+00:00	-4	g8pc1cs4rvvpx01@marketplace.amazon.com	donna king	+1 602-671-6610 ext. 96281	ABR0033	Delivery by Thursday | Arabella Farm Direct Bouquet of 12 Fresh Cut Orange Roses with a Free Glass Vase	1	0	1	Expedited	Sue King	5801 NICHOLSON LN APT 529			NORTH BETHESDA	MD	20852-5731	US		Just because you are loved!!!  Daughter D From donna king	false		
112-7085850-6918617	03149925701626	2020-11-10T18:44:14+00:00	2020-11-10T10:44:14-08:00	2020-11-10T19:10:44+00:00	2020-11-14T07:59:59+00:00	-4	2bx61hnt354qfsm@marketplace.amazon.com	Mary L. Carlson	+1 929-436-4790 ext. 03528	ABM022	Purple Extravagance Bouquet by Arabella Bouquets	1	0	1	Expedited	Kathryn Carlson	11245 109TH AVE NE			KIRKLAND	WA	98033-4503	US		Happy Birthday! We are SO glad you are our daughter-in-law!  With loads of love and blessings! From Dennis and Mary Lynn Carlson	false		
113-5676340-7212229	29528891518322	2020-11-10T18:58:07+00:00	2020-11-10T10:58:07-08:00	2020-11-10T19:19:09+00:00	2020-11-14T07:59:59+00:00	-4	b7h4wkbr70myq0n@marketplace.amazon.com	keith ruthenberg	+1 480-618-5344 ext. 83784	ABM022	Purple Extravagance Bouquet by Arabella Bouquets	1	0	1	Expedited	Angela Bowman	40 FALLON CT			ELMONT	NY	11003-3611	US		Get well soon!!! From Keith Ruthenberg and Amber Mizelle	false		
112-0974138-0641845	00026938503466	2020-11-10T18:51:49+00:00	2020-11-10T10:51:49-08:00	2020-11-10T19:22:04+00:00	2020-11-14T07:59:59+00:00	-4	js4p982fv8hk5bv@marketplace.amazon.com	joann egan	+1 602-671-6610 ext. 68959	ABR0033	Delivery by Thursday | Arabella Farm Direct Bouquet of 12 Fresh Cut Orange Roses with a Free Glass Vase	1	0	1	Expedited	Lisa Stanley	208 WINDSOR CT			NEW BRIGHTON	MN	55112-3367	US			false		
113-1527527-6747436	67247160231450	2020-11-10T19:09:06+00:00	2020-11-10T11:09:06-08:00	2020-11-10T19:34:50+00:00	2020-11-14T07:59:59+00:00	-4	sw2ltvz3gfzq429@marketplace.amazon.com	Mithil Shah	+1 480-618-5344 ext. 96995	ABR0022	Delivery by Thursday | Arabella Farm Direct Bouquet of 12 Fresh Cut Pink Roses with a Free Glass Vase	1	0	1	Expedited	May Matton	412 BENNACOTT LN			BURR RIDGE	IL	60527-6305	US		Happy belated birthday to my amazing neighbor! We are so lucky to know you! From Ashwin Karingada	false		
112-0593124-7640205	18293294882674	2020-11-10T19:14:58+00:00	2020-11-10T11:14:58-08:00	2020-11-10T19:41:42+00:00	2020-11-14T07:59:59+00:00	-4	nyqyrw59kwxk5vq@marketplace.amazon.com	Carol S. Harris	+1 619-854-2705 ext. 42495	ABM021	Delivery by Friday | The Joyous Bouquet by Arabella Bouquets	1	0	1	Expedited	Gloria Bargeron	1443 Highway 17 North			Millen	GA	30441	US		Happy belated birthday!! We love you! From Carol, Ernie and Calvin Harris	false		
112-7172917-9488253	19668489265090	2020-11-10T19:17:47+00:00	2020-11-10T11:17:47-08:00	2020-11-10T19:45:08+00:00	2020-11-14T07:59:59+00:00	-4	77vd7g8chs3x0mq@marketplace.amazon.com	kimberly a steakle	+1 619-854-2705 ext. 65961	ABM022	Delivery by Thursday | Purple Extravagance Bouquet by Arabella Bouquets	1	0	1	Expedited	Helen Podrebarac	7541 SWITZER ST # 2105B			OVERLAND PARK	KS	66214-1170	US		Helen, We all miss you at The Piper and can't wait for you to come home! We're thinking of you and hoping you get well soon. From The Piper Assisted Living & Memory Support	false		
113-0317928-1780234	10554759319474	2020-11-10T19:32:18+00:00	2020-11-10T11:32:18-08:00	2020-11-10T19:58:54+00:00	2020-11-14T07:59:59+00:00	-4	z4tty609nhdr02q@marketplace.amazon.com	Lisa Hilke	+1 415-851-9136 ext. 34126	ABR0022	Delivery by Thursday | Arabella Farm Direct Bouquet of 12 Fresh Cut Pink Roses with a Free Glass Vase	1	0	1	Expedited	Jenn and Dusty Mapson	2072 HERITAGE DR			ROSEVILLE	CA	95678-3401	US		Jenn and Dusty, We are so sorry for your loss. Zoey we blessed to be loved by both of you. We love you both so much! Love, The Ornelas Family From Ornelas Family	false		
114-0556102-0953844	17719575317802	2020-11-10T19:40:09+00:00	2020-11-10T11:40:09-08:00	2020-11-10T20:07:26+00:00	2020-11-14T07:59:59+00:00	-4	rm30tgx5pz0yg05@marketplace.amazon.com	James Trotta	+1 602-671-6610 ext. 33477	ABM020	Delivery by Friday | The Sunset Bouquet by Arabella Bouquets	1	0	1	Expedited	James Trotta	292 ROCKY RUN RD			GLEN GARDNER	NJ	08826-3270	US		To my very special wife on our very special day. May there be many more years to come. Love always Jim From  Jim	false		
111-6795302-7353010	57940264992338	2020-11-10T20:00:57+00:00	2020-11-10T12:00:57-08:00	2020-11-10T20:30:43+00:00	2020-11-14T07:59:59+00:00	-4	xsyyhtscjcm7sq0@marketplace.amazon.com	Rob Chomko	+1 213-442-1463 ext. 63661	ABM010	Delivery by Thursday | The Spring Fling Bouquet by Arabella Bouquets with a Free Designer Glass Vase	1	0	1	Expedited	Alix Aranza	5200 N OCEAN BLVD APT 215			LAUDERDALE BY THE SEA	FL	33308-3021	US		Good luck with surgery From Get well soon	false		
114-0553127-0224258	29107609398618	2020-11-10T20:18:48+00:00	2020-11-10T12:18:48-08:00	2020-11-10T20:46:12+00:00	2020-11-14T07:59:59+00:00	-4	bzxbnvld0dxsxkk@marketplace.amazon.com	Cathy Madden	+1 213-442-1463 ext. 82458	ABM022	Delivery by Thursday | Purple Extravagance Bouquet by Arabella Bouquets	1	0	1	Expedited	Belanger Family	406 HIBISCUS TRL			MELBOURNE	FL	32951-2028	US		Sending our thoughts and prayers to the family during this difficult time.  Love, Michael, Bobby Belanger & Cathy Madden From Belanger / Madden	false		
112-3281122-7037058	08224424864882	2020-11-10T20:36:52+00:00	2020-11-10T12:36:52-08:00	2020-11-10T20:50:51+00:00	2020-11-14T07:59:59+00:00	-4	81cjmfx8p6xb9vt@marketplace.amazon.com	Elaine R. Bryant	+1 619-854-2705 ext. 78608	ABR0022	Delivery by Thursday | Arabella Farm Direct Bouquet of 12 Fresh Cut Pink Roses with a Free Glass Vase	1	0	1	Expedited	Victoria and Melissa Bryant Berry	4251 GARY RD			ARNOLD	MO	63010-3643	US			false		
113-8635164-6417821	61096891612442	2020-11-10T20:25:04+00:00	2020-11-10T12:25:04-08:00	2020-11-10T20:51:23+00:00	2020-11-14T07:59:59+00:00	-4	lzz80rtmgzybjwc@marketplace.amazon.com	scott mcneal	+1 619-854-2705 ext. 26227	ABR0022	Delivery by Thursday | Arabella Farm Direct Bouquet of 12 Fresh Cut Pink Roses with a Free Glass Vase	1	0	1	Expedited	Aaron Shepherd	110 TRAIL RIDGE DR			HENDERSONVILLE	TN	37075-2161	US		Thank you for letting us borrow your Husband..... From The Team	false		
112-3263517-8787440	45249515026930	2020-11-10T20:27:44+00:00	2020-11-10T12:27:44-08:00	2020-11-10T20:55:01+00:00	2020-11-14T07:59:59+00:00	-4	c73nj0vk9ppzvx6@marketplace.amazon.com	Tiffany N Brenner	+1 602-671-6610 ext. 33493	ABM022	Delivery by Thursday | Purple Extravagance Bouquet by Arabella Bouquets	1	0	1	Expedited	Emi Brenner	5300 PONY CHASE			AUSTIN	TX	78727-6638	US		We are so proud of you! Mazel Tov! From Uncle Andrew, Aunt Tiff, and the June Bugs	false		
112-2583986-0336212	48150933910562	2020-11-10T20:41:11+00:00	2020-11-10T12:41:11-08:00	2020-11-10T20:59:48+00:00	2020-11-14T07:59:59+00:00	-4	m4c6tz2yx5d2d63@marketplace.amazon.com	Brad Williamson	+1 619-854-2705 ext. 44287	ABR0022	Delivery by Thursday | Arabella Farm Direct Bouquet of 12 Fresh Cut Pink Roses with a Free Glass Vase	1	0	1	Expedited	Amy Lee	DERMATOLOGY DEPARTMENT	1 PHIPPS LN		PARIS	IL	61944-2919	US		I love you more than words can describe.           Your husband From Brad Williamson	false		
111-0080240-4360201	02643225003730	2020-11-10T21:02:46+00:00	2020-11-10T13:02:46-08:00	2020-11-10T21:32:24+00:00	2020-11-14T07:59:59+00:00	-4	7vvx8wsnx4s8k6z@marketplace.amazon.com	Sue	+1 213-442-1463 ext. 17009	ABM010	Delivery by Thursday | The Spring Fling Bouquet by Arabella Bouquets with a Free Designer Glass Vase	1	0	1	Expedited	Lisa eschenberg	8744 BARNETT VALLEY RD			SEBASTOPOL	CA	95472-9245	US			false		
114-6168332-1017063	59979279132650	2020-11-10T21:25:24+00:00	2020-11-10T13:25:24-08:00	2020-11-10T21:53:59+00:00	2020-11-14T07:59:59+00:00	-4	g124kbc99ls7rf5@marketplace.amazon.com	s kampinga	+1 602-671-6610 ext. 56430	ABM022	Delivery by Thursday | Purple Extravagance Bouquet by Arabella Bouquets	1	0	1	Expedited	Michelle Kampinga	8028 HICKORY BRANCH DR			FRISCO	TX	75034-9479	US		Michelle, I hope these beautiful flowers make you smile! AJ and are so sorry to hear about your grandmother Joan, she was a very special person! From Love, AJ and Sherry	false		
112-2268559-4959423	00197305081330	2020-11-10T21:38:19+00:00	2020-11-10T13:38:19-08:00	2020-11-10T21:59:59+00:00	2020-11-14T07:59:59+00:00	-4	px7s3081fyc6b3t@marketplace.amazon.com	Genevieve Dame	+1 619-854-2705 ext. 36562	ABM022	Delivery by Thursday | Purple Extravagance Bouquet by Arabella Bouquets	1	0	1	Expedited	Rebekah Jones	706 HAMPTON TRACE LN			ALPHARETTA	GA	30004-3077	US		Thinking of you and wishing you moments of peace and comfort. From Genevieve	false		
114-4169717-6736222	69681512806298	2020-11-10T21:32:36+00:00	2020-11-10T13:32:36-08:00	2020-11-10T22:01:52+00:00	2020-11-14T07:59:59+00:00	-4	g124kbc99ls7rf5@marketplace.amazon.com	s kampinga	+1 480-618-5344 ext. 11662	ABM022	Delivery by Thursday | Purple Extravagance Bouquet by Arabella Bouquets	1	0	1	Expedited	Mike and Tehdra Misko	16601 JOHN SMITH RD			VANCLEAVE	MS	39565-6433	US		Mike and Tehdra, We are so sorry about your mother, and feel so blessed that we got to know a little at the wedding. Hope these flowers bring a smile to your faces! From Love AJ and Sherry	false		
114-4955402-0614600	46088890170194	2020-11-10T21:37:52+00:00	2020-11-10T13:37:52-08:00	2020-11-10T22:07:37+00:00	2020-11-14T07:59:59+00:00	-4	1hyqck2fwm4hqp2@marketplace.amazon.com	Nolan Lamb	+1 213-442-1463 ext. 67136	ABM022	Delivery by Thursday | Purple Extravagance Bouquet by Arabella Bouquets	1	0	1	Expedited	Darlene Lamb	3497 NAUTILUS TRL			AURORA	OH	44202-9048	US		Happy Birthday Mom!  Love,  Nolan From Nolan Lamb	false		
112-2592393-3091447	11794347735082	2020-11-10T21:43:57+00:00	2020-11-10T13:43:57-08:00	2020-11-10T22:12:35+00:00	2020-11-14T07:59:59+00:00	-4	10vsy43t9vpjkfy@marketplace.amazon.com	Robin Kasper	+1 480-618-5344 ext. 57958	ABM022	Delivery by Thursday | Purple Extravagance Bouquet by Arabella Bouquets	1	0	1	Expedited	Kristen Kasper	2241 COLLEGE ST			JACKSONVILLE	FL	32204-3609	US		Get well soon!!!  We love you!!! From Mom and Dad	false		
112-7120806-6903460	60871787447650	2020-11-10T21:45:52+00:00	2020-11-10T13:45:52-08:00	2020-11-10T22:14:39+00:00	2020-11-14T07:59:59+00:00	-4	3fltnvhcp1v59tf@marketplace.amazon.com	Deborah Kady	+1 480-618-5344 ext. 63195	ABR0022	Delivery by Thursday | Arabella Farm Direct Bouquet of 12 Fresh Cut Pink Roses with a Free Glass Vase	1	0	1	Expedited	Denise Keller	2842 SAYBROOKE BLVD			STOW	OH	44224-2896	US		Happy 50th Denise. Hope you have a day as beautiful as you.  Miss you, Deborah From Deborah Kady	false		
112-7108264-1733802	35647140667082	2020-11-10T21:49:36+00:00	2020-11-10T13:49:36-08:00	2020-11-10T22:18:42+00:00	2020-11-14T07:59:59+00:00	-4	7rhlms41z7mrn3t@marketplace.amazon.com	Teresa Clarke	+1 415-851-9136 ext. 41394	ABM022	Delivery by Thursday | Purple Extravagance Bouquet by Arabella Bouquets	1	0	1	Expedited	Mary Ryan	17036 SE SALMON ST			PORTLAND	OR	97233-4366	US		Happy Birthday To YOU, Happy Birthday To YOU, Happy Birthday Dear Grandma, Happy Birthday To YOU.  Love Tesa From Teresa Clarke	false		
114-9824244-4943429	26708422737930	2020-11-10T22:03:08+00:00	2020-11-10T14:03:08-08:00	2020-11-10T22:19:15+00:00	2020-11-14T07:59:59+00:00	-4	cgxp4wb4sw7b77m@marketplace.amazon.com	Rita Kelley	+1 929-436-4790 ext. 63537	ABM022	Delivery by Thursday | Purple Extravagance Bouquet by Arabella Bouquets	1	0	1	Expedited	Mary Ann Cash	937 W TRENTON AVE APT A-10			MORRISVILLE	PA	19067-3539	US			false		
113-6201017-5606633	20424612467394	2020-11-10T22:03:33+00:00	2020-11-10T14:03:33-08:00	2020-11-10T22:33:02+00:00	2020-11-14T07:59:59+00:00	-4	78xd4m1wg2y5090@marketplace.amazon.com	Lezlie E. Milson	+1 619-854-2705 ext. 64492	ABR0033	Delivery by Thursday | Arabella Farm Direct Bouquet of 12 Fresh Cut Orange Roses with a Free Glass Vase	1	0	1	Expedited	Elaine Milson	221 Rosemont Drive			Green Bay	WI	54301	US		HAPPY BIRTHDAY, MOM! I love you,  please stay safe, at least until we can see each other in person again, With Love, Your Daughter, Lezlie From Lezlie E. Milson	false		
111-1470064-1763442	58179854483050	2020-11-10T22:15:48+00:00	2020-11-10T14:15:48-08:00	2020-11-10T22:39:13+00:00	2020-11-14T07:59:59+00:00	-4	qjky9gndhwsp2kd@marketplace.amazon.com	Carol Nelson	+1 213-442-1463 ext. 49783	ABR0022	Delivery by Thursday | Arabella Farm Direct Bouquet of 12 Fresh Cut Pink Roses with a Free Glass Vase	1	0	1	Expedited	Mary Hannon	9560 PAWNEE AVE			STILLWATER	MN	55082-4291	US		Important milestones in your life! Both retirement and 60th Birthday. Wishing you healthy retirement and a Happy Birthday.  You are in my thoughts and prayers. I love you. From Mom	false		
113-0344797-7374625	49317169427066	2020-11-10T22:09:17+00:00	2020-11-10T14:09:17-08:00	2020-11-10T22:39:52+00:00	2020-11-14T07:59:59+00:00	-4	w6b8nsrbm23qwwy@marketplace.amazon.com	Dave Gisriel	+1 602-671-6610 ext. 90387	ABM022	Delivery by Thursday | Purple Extravagance Bouquet by Arabella Bouquets	1	0	1	Expedited	Danielle Stauffer	7929 FRYE LN			OKLAHOMA CITY	OK	73135-1118	US			false		
111-6359953-4029832	58297231484306	2020-11-10T22:14:43+00:00	2020-11-10T14:14:43-08:00	2020-11-10T22:44:23+00:00	2020-11-14T07:59:59+00:00	-4	sbzdgv1kssnjnrd@marketplace.amazon.com	maggie	+1 415-851-9136 ext. 16773	ABR0033	Delivery by Thursday | Arabella Farm Direct Bouquet of 12 Fresh Cut Orange Roses with a Free Glass Vase	1	0	1	Expedited	maggie larsen	313 CORTE RAYADO			ROHNERT PARK	CA	94928-2008	US			false		
112-0875868-2332237	13804380395698	2020-11-10T22:15:46+00:00	2020-11-10T14:15:46-08:00	2020-11-10T22:46:40+00:00	2020-11-14T07:59:59+00:00	-4	mfld550mzfbtqvp@marketplace.amazon.com	Jodi Glenewinkel	+1 619-854-2705 ext. 79966	ABR0022	Delivery by Thursday | Arabella Farm Direct Bouquet of 12 Fresh Cut Pink Roses with a Free Glass Vase	1	0	1	Expedited	Jenny Moran	550 SUMMER DR			HOLLISTER	CA	95023-3443	US		Congratulations on welcoming such a sweet little baby boy into this world. We love you all and are very excited for you. From Dustin, Jodi & Merit	false		
114-3271230-9096243	64820204192554	2020-11-10T22:22:50+00:00	2020-11-10T14:22:50-08:00	2020-11-10T22:48:31+00:00	2020-11-14T07:59:59+00:00	-4	rbsq2w80cdnz6nx@marketplace.amazon.com	gill	+1 929-436-4790 ext. 49680	ABM010	Delivery by Thursday | The Spring Fling Bouquet by Arabella Bouquets with a Free Designer Glass Vase	1	0	1	Expedited	Karen, Keith and Maive	118 NINIGRET RD			NARRAGANSETT	RI	02882-1243	US		Enjoy your gift! Lots of love from Uncle Jim From Jim via Gill!	false		
114-3271230-9096243	28945392599234	2020-11-10T22:22:50+00:00	2020-11-10T14:22:50-08:00	2020-11-10T22:48:31+00:00	2020-11-14T07:59:59+00:00	-4	rbsq2w80cdnz6nx@marketplace.amazon.com	gill	+1 929-436-4790 ext. 49680	ABM022	Delivery by Thursday | Purple Extravagance Bouquet by Arabella Bouquets	1	0	1	Expedited	Karen, Keith and Maive	118 NINIGRET RD			NARRAGANSETT	RI	02882-1243	US		Enjoy the flowers and so happy for you all.  lots of love, gillian From gill	false		
114-8248960-0400237	23516256028186	2020-11-10T22:45:28+00:00	2020-11-10T14:45:28-08:00	2020-11-10T23:01:22+00:00	2020-11-14T07:59:59+00:00	-4	v71b3sbwyvfy6lc@marketplace.amazon.com	Zaiba Butt	+1 602-671-6610 ext. 29834	ABR0055	Delivery by Thursday | Arabella Farm Direct Bouquet of 12 Stems of Fresh Cut Hot Pink Roses in a Free Designer Glass Vase	1	0	1	Expedited	Massaud Fathi	4619 NICOLE CIR			HOUSTON	TX	77084-2501	US		Dear Br. Massoud and family, Please accept our sincerest condolences.  With lots of prayers. From Br. Yemeen and the Everest family.	false		
111-7827847-8163427	25273078253746	2020-11-10T22:44:12+00:00	2020-11-10T14:44:12-08:00	2020-11-10T23:13:49+00:00	2020-11-14T07:59:59+00:00	-4	mlxy8ms1f2kp30d@marketplace.amazon.com	Catherine Edwards	+1 480-618-5344 ext. 69408	ABM022	Delivery by Thursday | Purple Extravagance Bouquet by Arabella Bouquets	1	0	1	Expedited	Carol Dornberger	16433 MADISON RD			RILEY	KS	66531-9656	US		Dear Mom,  Hope you're feeling more bright eyed than ever! Love, From Rick & Cathy	false		
114-5275587-5947457	46435484523970	2020-11-10T22:51:29+00:00	2020-11-10T14:51:29-08:00	2020-11-10T23:19:58+00:00	2020-11-14T07:59:59+00:00	-4	yvh1h8whxrm342x@marketplace.amazon.com	Connie S. Schubert	+1 213-442-1463 ext. 61695	ABR0022	Delivery by Thursday | Arabella Farm Direct Bouquet of 12 Fresh Cut Pink Roses with a Free Glass Vase	1	0	1	Expedited	Bobbie Shreiner	1514 E 81ST ST			INDIANAPOLIS	IN	46240-2716	US		Celebrating your 1 year anniversary! From Connie & Bob Schubert	false		
113-3982022-0429855	09696835364226	2020-11-10T22:28:50+00:00	2020-11-10T14:28:50-08:00	2020-11-10T23:35:56+00:00	2020-11-14T07:59:59+00:00	-4	lv0tszd489hd1km@marketplace.amazon.com	Gary	+1 619-854-2705 ext. 49028	ABM022	Delivery by Thursday | Purple Extravagance Bouquet by Arabella Bouquets	1	0	1	Expedited	Willo/Trevor	1146 WESTERN PARK DR			MEMPHIS	TN	38109-4930	US			false		
114-3804117-0012210	62341519996562	2020-11-10T23:16:39+00:00	2020-11-10T15:16:39-08:00	2020-11-10T23:44:48+00:00	2020-11-14T07:59:59+00:00	-4	hg719mlkvck6smf@marketplace.amazon.com	Akhil Gupta	+1 415-851-9136 ext. 54553	ABR0033	Delivery by Thursday | Arabella Farm Direct Bouquet of 12 Fresh Cut Orange Roses with a Free Glass Vase	1	0	1	Expedited	Rohini Morillo	312 W 87TH ST APT 2B			NEW YORK	NY	10024-2628	US		For the 1st and 60th of many more! Lots of love. From Beenu, Lalit, Devyani, and Akhil	false		
114-1593025-9577850	44741079536706	2020-11-10T23:20:12+00:00	2020-11-10T15:20:12-08:00	2020-11-10T23:50:48+00:00	2020-11-14T07:59:59+00:00	-4	qky29f3k2t9tkb4@marketplace.amazon.com	Ouida Boyd	+1 602-671-6610 ext. 61773	ABR0022	Delivery by Thursday | Arabella Farm Direct Bouquet of 12 Fresh Cut Pink Roses with a Free Glass Vase	1	0	1	Expedited	George Baldwin	5874 SHADES RUN LN			HOOVER	AL	35244-4110	US			false		
111-5181365-4475466	09241673450698	2020-11-10T23:25:52+00:00	2020-11-10T15:25:52-08:00	2020-11-10T23:55:54+00:00	2020-11-14T07:59:59+00:00	-4	fb4txcvt0jxkzl7@marketplace.amazon.com	Fred Chugg	+1 929-436-4790 ext. 63972	ABM010	Delivery by Thursday | The Spring Fling Bouquet by Arabella Bouquets with a Free Designer Glass Vase	1	0	1	Expedited	Fred Chugg	57441 Fir road			Christmas Valley	OR	97641	US			false		
114-5195381-0922665	20055049352578	2020-11-10T23:31:20+00:00	2020-11-10T15:31:20-08:00	2020-11-10T23:56:24+00:00	2020-11-14T07:59:59+00:00	-4	lwmjlhgmjgbhnyr@marketplace.amazon.com	Grant Jacobs	+1 602-671-6610 ext. 13660	ABM022	Delivery by Thursday | Purple Extravagance Bouquet by Arabella Bouquets	1	0	1	Expedited	Melissa Moylan	2561 STONEVIEW RD			ORLANDO	FL	32806-5077	US		Thinking of you, Sister. Everything will be ok! Love you! Xoxoxo From Nicole	false		
114-0663379-0093861	56782037265298	2020-11-10T23:35:30+00:00	2020-11-10T15:35:30-08:00	2020-11-11T00:05:18+00:00	2020-11-14T07:59:59+00:00	-4	q67hkyyztghzstp@marketplace.amazon.com	Wesley Moerschell	+1 213-442-1463 ext. 27713	ABR0022	Delivery by Thursday | Arabella Farm Direct Bouquet of 12 Fresh Cut Pink Roses with a Free Glass Vase	1	0	1	Expedited	Kathy Moerschell	HBD FROM TEXAS!	3028 NW CRAFTSMAN DR		BEND	OR	97703-8336	US		Get well soon Kathy! Love, Wes From Wesley Moerschell	false		
111-2673080-7984233	50125753419810	2020-11-10T23:40:51+00:00	2020-11-10T15:40:51-08:00	2020-11-11T00:09:25+00:00	2020-11-14T07:59:59+00:00	-4	9zjjpc2dkg95z4n@marketplace.amazon.com	Charlie Jones	+1 480-618-5344 ext. 05360	ABR001	Delivery by Thursday | Arabella Bouquets 12 Stems of Fresh Cut Red Roses in a Free Designer Glass Vase	1	0	1	Expedited	Jacki Johnson	301 MONTCLAIR ST			SAN ANTONIO	TX	78209-4653	US		hey Babe, Love,  Scout From Charlie Jones	false		
112-9531911-8578661	16234005651202	2020-11-11T00:17:53+00:00	2020-11-10T16:17:53-08:00	2020-11-11T00:24:26+00:00	2020-11-14T07:59:59+00:00	-4	rk50323wyrfmfyx@marketplace.amazon.com	Sondra Oneill	+1 415-851-9136 ext. 88528	ABM010	Delivery by Thursday | The Spring Fling Bouquet by Arabella Bouquets with a Free Designer Glass Vase	1	0	1	Expedited	Paulette Carter	7017 MISSION RD			EVERSON	WA	98247-9713	US		Dear Paulette,  Sending you loads of good wishes for a speedy recovery and good health. From Sunrise Services Behavioral Health Team	false		
113-0535181-7730615	48194397923330	2020-11-10T23:55:31+00:00	2020-11-10T15:55:31-08:00	2020-11-11T00:25:04+00:00	2020-11-14T07:59:59+00:00	-4	bhnbw730rss3829@marketplace.amazon.com	timothy thompson	+1 213-442-1463 ext. 33874	ABR0022	Delivery by Thursday | Arabella Farm Direct Bouquet of 12 Fresh Cut Pink Roses with a Free Glass Vase	1	0	1	Expedited	timothy thompson	761 renie mott rd.			chatom	al	36518	US			false		
114-2646948-1074614	59403161695138	2020-11-10T23:58:15+00:00	2020-11-10T15:58:15-08:00	2020-11-11T00:26:00+00:00	2020-11-14T07:59:59+00:00	-4	kwd91ssskxl30wl@marketplace.amazon.com	Shauna Walchko	+1 619-854-2705 ext. 55647	ABM010	Delivery by Thursday | The Spring Fling Bouquet by Arabella Bouquets with a Free Designer Glass Vase	1	0	1	Expedited	Vickie Dickerson	67 WHITLOW RD			CANON	GA	30520-1647	US		I love you Vickie. My prayers are with you during this time, I know your momma loved flowers and passed that love to you. I hope these bring some happiness to you. From Shauna Murray	false		
111-7800219-7151447	57614424509122	2020-11-11T00:03:56+00:00	2020-11-10T16:03:56-08:00	2020-11-11T00:28:35+00:00	2020-11-14T07:59:59+00:00	-4	bgmpxkkdd7vg0ym@marketplace.amazon.com	Kristle Marlow	509-218-549	ABM022	Delivery by Thursday | Purple Extravagance Bouquet by Arabella Bouquets	1	0	1	Expedited	Debbie Hood	946 E REED ST			HAYTI	MO	63851-1243	US		Congratulations on retirement!! You're going to be tremendously missed...exiting 2020 with a bang! Thanks for everything you have done for Kristle and HRG! From HRG	false		
111-6296074-3769806	42694922001666	2020-11-11T00:07:20+00:00	2020-11-10T16:07:20-08:00	2020-11-11T00:34:50+00:00	2020-11-14T07:59:59+00:00	-4	l9d90vql0456hzx@marketplace.amazon.com	Jennifer Wesolowski	+1 602-671-6610 ext. 20206	ABM022	Delivery by Thursday | Purple Extravagance Bouquet by Arabella Bouquets	1	0	1	Expedited	Sheila Cox	231 GREEN HARBOR RD UNIT 48			OLD HICKORY	TN	37138-1094	US		Thinking of you and praying for a quick recovery! We love you!! From Patrick & Jennifer Wesolowski	false		
114-0638513-7509047	06146797132314	2020-11-11T00:13:18+00:00	2020-11-10T16:13:18-08:00	2020-11-11T00:40:02+00:00	2020-11-14T07:59:59+00:00	-4	tzgtw156gpxfcw1@marketplace.amazon.com	Madeson McCaster	+1 213-442-1463 ext. 45492	ABR0055	Delivery by Thursday | Arabella Farm Direct Bouquet of 12 Stems of Fresh Cut Hot Pink Roses in a Free Designer Glass Vase	1	0	1	Expedited	Mamie White	260 LAMAR AVE			MARKS	MS	38646-1129	US			false		
113-1609294-6191424	28646952701898	2020-11-11T00:23:30+00:00	2020-11-10T16:23:30-08:00	2020-11-11T00:48:05+00:00	2020-11-14T07:59:59+00:00	-4	yy48k3szp7g6p3n@marketplace.amazon.com	Bryan Campbell	+1 213-442-1463 ext. 71642	ABR0022	Delivery by Thursday | Arabella Farm Direct Bouquet of 12 Fresh Cut Pink Roses with a Free Glass Vase	1	0	1	Expedited	Sue Cole	118 FANNIN AVE			LEVELLAND	TX	79336-8010	US		Just wanted to let you know we are thinking of you.  Bryan & Brenda From Bryan Campbell	false		
112-7850546-2277036	43933812516626	2020-11-11T00:23:40+00:00	2020-11-10T16:23:40-08:00	2020-11-11T00:51:15+00:00	2020-11-14T07:59:59+00:00	-4	4cd1ncz4dwhvrqk@marketplace.amazon.com	shari mosley	+1 619-854-2705 ext. 64501	ABR0033	Delivery by Thursday | Arabella Farm Direct Bouquet of 12 Fresh Cut Orange Roses with a Free Glass Vase	1	0	1	Expedited	Madison Tivis	206 W 3RD AVE			STILLWATER	OK	74074-3201	US			false		
112-0238111-4943465	63284349204210	2020-11-11T00:24:05+00:00	2020-11-10T16:24:05-08:00	2020-11-11T00:52:52+00:00	2020-11-14T07:59:59+00:00	-4	9v4k1pt0617prjg@marketplace.amazon.com	Suzanne Muncy	+1 602-671-6610 ext. 11974	ABM010	Delivery by Thursday | The Spring Fling Bouquet by Arabella Bouquets with a Free Designer Glass Vase	1	0	1	Expedited	Karen Evans	2101 TERRY RD			CHARLESTON	WEST VIRGINIA	25309-9724	US		Love you mama!  Hope you are not in too much pain.  Sending you love and healing prayers.  Xoxox We love u!  Dave, Suz and the girls. From Suzanne Muncy	false		
113-1051598-8619448	36760945705442	2020-11-11T00:27:28+00:00	2020-11-10T16:27:28-08:00	2020-11-11T00:53:53+00:00	2020-11-14T07:59:59+00:00	-4	75c7xf1mkncwp8h@marketplace.amazon.com	Katie McDaniel	+1 602-671-6610 ext. 94609	ABR0055	Delivery by Thursday | Arabella Farm Direct Bouquet of 12 Stems of Fresh Cut Hot Pink Roses in a Free Designer Glass Vase	1	0	1	Expedited	Marcie Moore	101 JAGUAR AVE			PISGAH	IA	51564-2016	US		Happy Birthday, Mom! We love you!!  Love, Katie and Kids!! From Katie McDaniel	false		
114-5428619-7153839	10109032884850	2020-11-11T00:29:15+00:00	2020-11-10T16:29:15-08:00	2020-11-11T00:55:08+00:00	2020-11-14T07:59:59+00:00	-4	jbtttf17j5kb76n@marketplace.amazon.com	Rupal A. Pai	+1 213-442-1463 ext. 14968	ABM025	Delivery by Friday | The Fell for You Bouquet by Arabella Bouquets	1	0	1	Expedited	Amy Yi Luoh	3897 NW 139TH PL			PORTLAND	OR	97229-4707	US		Dear Amy & Family, Congratulations on your new arrival!  We hope Mom, baby and family are all doing well. Best Wishes, ~ SI Team From SI Team	false		
112-3372436-6145052	55628611476826	2020-11-11T00:31:32+00:00	2020-11-10T16:31:32-08:00	2020-11-11T01:01:49+00:00	2020-11-14T07:59:59+00:00	-4	fnkk8qgqljt02wk@marketplace.amazon.com	Christopher J Soper	+1 929-436-4790 ext. 93074	ABM022	Delivery by Thursday | Purple Extravagance Bouquet by Arabella Bouquets	1	0	1	Expedited	Noelle Salmonsen	81 Mill Street			Hannibal	NY	13074	US			false		
113-2805935-1248211	26314369785354	2020-11-11T00:33:05+00:00	2020-11-10T16:33:05-08:00	2020-11-11T01:03:05+00:00	2020-11-14T07:59:59+00:00	-4	sn0qsp8q0s3wxjw@marketplace.amazon.com	Michael Schafbuch	+1 619-854-2705 ext. 80658	ABM022	Delivery by Thursday | Purple Extravagance Bouquet by Arabella Bouquets	1	0	1	Expedited	Chris Schafbuch	165 HUGUENOT ST APT 6D			NEW ROCHELLE	NY	10801-5257	US		Congratulations to an amazing man and son. Love, Dad From Dad	false		
111-6652898-2189842	09015320567210	2020-11-11T00:42:00+00:00	2020-11-10T16:42:00-08:00	2020-11-11T01:06:52+00:00	2020-11-14T07:59:59+00:00	-4	f204rjv9s4knzwy@marketplace.amazon.com	Keith Clayton	+1 480-618-5344 ext. 47923	ABM022	Delivery by Thursday | Purple Extravagance Bouquet by Arabella Bouquets	1	0	1	Expedited	Dorothy Riffel	VILLA ST FRANCIS 16600 W 126TH ST			OLATHE	KS	66062-1184	US		Happy Birthday and get well soon. Love, Kris and Keith From Kris Clayton	false		
114-2640870-7861034	31510732236730	2020-11-11T00:38:43+00:00	2020-11-10T16:38:43-08:00	2020-11-11T01:07:53+00:00	2020-11-14T07:59:59+00:00	-4	5h36h1bhjpqphlc@marketplace.amazon.com	Stephanie Spring	+1 480-618-5344 ext. 60440	ABR0022	Delivery by Thursday | Arabella Farm Direct Bouquet of 12 Fresh Cut Pink Roses with a Free Glass Vase	1	0	1	Expedited	Carrie Beth Coleman	2515 W 50TH TER			WESTWOOD	KS	66205-2041	US		Thanks for such a great weekend!  Can’t wait to see you again. ❤️ From me	false		
112-5844653-1741837	21112480251802	2020-11-11T01:06:30+00:00	2020-11-10T17:06:30-08:00	2020-11-11T01:30:53+00:00	2020-11-14T07:59:59+00:00	-4	bzmkrmz0nlffh3r@marketplace.amazon.com	Matthew K. Meisel	+1 602-671-6610 ext. 58036	ABR0022	Delivery by Thursday | Arabella Farm Direct Bouquet of 12 Fresh Cut Pink Roses with a Free Glass Vase	1	0	1	Expedited	Sarah Cole	2331 KNAPP FOREST CT NE			GRAND RAPIDS	MI	49525-9755	US		Sarah... You are one of the strongest people I know. I know how much your baby was loved and wanted. Sending you a big hug today. You, Ryan, and Jack are in my heart and my prayers. I’m here for you and thinking of you. From Alissa Meisel	false		
111-5837514-5103428	44729091468978	2020-11-11T01:02:00+00:00	2020-11-10T17:02:00-08:00	2020-11-11T01:31:09+00:00	2020-11-14T07:59:59+00:00	-4	3s702rrklnrlskv@marketplace.amazon.com	Alex Harvey	+1 929-436-4790 ext. 72173	ABR0055	Delivery by Thursday | Arabella Farm Direct Bouquet of 12 Stems of Fresh Cut Hot Pink Roses in a Free Designer Glass Vase	1	0	1	Standard	Alexander Harvey	4140 QUENTIN BLVD APT 208			COLUMBUS	OH	43230-8534	US		Happy Birthday Babes.  Love, Alex From Alex Harvey	false		
112-0283918-2106653	21124057179698	2020-11-11T01:32:23+00:00	2020-11-10T17:32:23-08:00	2020-11-11T01:33:25+00:00	2020-11-14T07:59:59+00:00	-4	53j2sr34fckvv7p@marketplace.amazon.com	wm holmen	+1 929-436-4790 ext. 69329	ABM020	Delivery by Friday | The Sunset Bouquet by Arabella Bouquets	1	0	1	Expedited	Nora & Skip Hirvella	6912 SHOREVIEW DR			MCKINNEY	TX	75072-5579	US		Nora & Skip, We are very sorry for your loss. We are thinking of you & all the love that our families share. We hope good memories of your dad will ease the passage of time. Love, Aunt Liz, Liz & Mark, Ed, Rocki & Bill From Holmens & Rays	false		
112-2343690-7060249	14269116378882	2020-11-11T01:11:39+00:00	2020-11-10T17:11:39-08:00	2020-11-11T01:39:25+00:00	2020-11-14T07:59:59+00:00	-4	d7n8h0q9bwclcnp@marketplace.amazon.com	Matt Pociask	+1 929-436-4790 ext. 91636	ABM022	Delivery by Thursday | Purple Extravagance Bouquet by Arabella Bouquets	1	0	1	Expedited	Jean Pociask	1303 BRUSH HILL CIR			NAPERVILLE	IL	60540-4007	US		Mom, we hope you have a speedy recovery from your surgery and will keep you in our prayers. From Matt, Natalie, Avery, Nolan and Lilah	false		
114-4837705-7615408	41053000101178	2020-11-11T01:23:06+00:00	2020-11-10T17:23:06-08:00	2020-11-11T01:50:55+00:00	2020-11-14T07:59:59+00:00	-4	c3x9bcz6nvt4zgf@marketplace.amazon.com	Bonnie Giarla	+1 929-436-4790 ext. 03211	ABM022	Delivery by Thursday | Purple Extravagance Bouquet by Arabella Bouquets	1	0	1	Expedited	Kristen Giarla	16100 POCAHONTAS TRL			MEADOWVIEW	VA	24361-2706	US		We love you! Thank you for Noah! ❤ From Bonnie Giarla	false		
114-5263027-7031402	27998434131162	2020-11-11T01:22:27+00:00	2020-11-10T17:22:27-08:00	2020-11-11T01:52:29+00:00	2020-11-14T07:59:59+00:00	-4	sytdztmvybjbr3y@marketplace.amazon.com	Frederick J Zicard3	+1 619-854-2705 ext. 57771	ABM022	Delivery by Thursday | Purple Extravagance Bouquet by Arabella Bouquets	1	0	1	Expedited	Rebecca Smith C/o Upper Cumberland Dev	1104 ENGLAND DR			COOKEVILLE	TN	38501-0924	US			false		
113-0705362-4895428	02031095208258	2020-11-11T01:43:17+00:00	2020-11-10T17:43:17-08:00	2020-11-11T02:08:40+00:00	2020-11-14T07:59:59+00:00	-4	cwjr5226tqcdx4t@marketplace.amazon.com	Eric Rosenthal	+1 619-854-2705 ext. 21136	ABR0022	Delivery by Thursday | Arabella Farm Direct Bouquet of 12 Fresh Cut Pink Roses with a Free Glass Vase	1	0	1	Expedited	Angela Garcia	12240 SHADETREE LN			LAUREL	MD	20708-2832	US		Angela - Congratulations on your 500th day.  We are so lucky to have you as our leader.  Thanks for all you do for the school and for our friendship. From Eric Rosenthal	false		
112-0102901-9563477	22472233463426	2020-11-11T01:52:03+00:00	2020-11-10T17:52:03-08:00	2020-11-11T02:17:47+00:00	2020-11-14T07:59:59+00:00	-4	11v4s1vlwc7ltrc@marketplace.amazon.com	scott mcguire	+1 480-618-5344 ext. 57414	ABM0044	Delivery by Friday | Arabella Farm Direct Bouquet of Fresh Cut Blue Hydrangea with a Free Glass Vase	1	0	1	Expedited	Chris mcguire	37 lawerance CR 221			Black rock	AR	72415	US		I love you sweetheart  I miss you From Chris your soulmate	false		
114-5465804-2481845	24814539050962	2020-11-11T01:59:43+00:00	2020-11-10T17:59:43-08:00	2020-11-11T02:26:40+00:00	2020-11-14T07:59:59+00:00	-4	95rg5lntwxc8qm7@marketplace.amazon.com	Syed Alvi	+1 213-442-1463 ext. 89909	ABR0022	Delivery by Thursday | Arabella Farm Direct Bouquet of 12 Fresh Cut Pink Roses with a Free Glass Vase	1	0	1	Expedited	Elaine	2428 KENT DR			IRVING	TX	75062-1770	US		Hi Elaine,  Welcome back! All of us have been praying for your speedy recovery. Get well soon.  From:  Farhana & Syed Alvi 2440 Kent Drive	false		
113-6223539-5145859	48591743989570	2020-11-11T02:02:10+00:00	2020-11-10T18:02:10-08:00	2020-11-11T02:28:55+00:00	2020-11-14T07:59:59+00:00	-4	dbhksz6twc9xb81@marketplace.amazon.com	megan	+3018479875	ABM022	Delivery by Thursday | Purple Extravagance Bouquet by Arabella Bouquets	1	0	1	Expedited	Cathy Vesper-Wilson	3005 S LEISURE WORLD BLVD APT 118			SILVER SPRING	MD	20906-8302	US		Dear Cathy Thinking of you at this time, hope you have a speedy recovery. All the best. From Lots of Love John, Megan, Addison, John and Donna	false		
111-9148118-2485859	61138902940994	2020-11-11T02:03:17+00:00	2020-11-10T18:03:17-08:00	2020-11-11T02:29:59+00:00	2020-11-14T07:59:59+00:00	-4	3fg0nhnyd3hkx3q@marketplace.amazon.com	Gregg M. Hall	+1 602-671-6610 ext. 76335	ABR0066	Delivery by Friday | Arabella Bouquets 12 Stems of Fresh Cut White Roses in a Free Designer Glass Vase	1	0	1	Expedited	Gary and Melinda Hall	217b E Santa Fe Ave.			Santa Fe	New Mexico	87505	US		Welcome Home!  Thinking of you both and sending our love, hugs and positive energy.....Gregg & Alana From Gregg & Alana	false		
112-5516501-2070651	65895873053690	2020-11-11T02:02:25+00:00	2020-11-10T18:02:25-08:00	2020-11-11T02:30:29+00:00	2020-11-14T07:59:59+00:00	-4	rbrvqj9hmnkk9m1@marketplace.amazon.com	Mark Namatevs	+1 415-851-9136 ext. 96475	ABR0055	Delivery by Thursday | Arabella Farm Direct Bouquet of 12 Stems of Fresh Cut Hot Pink Roses in a Free Designer Glass Vase	1	0	1	Expedited	Alex Namatevs	3342 W 35TH AVE			DENVER	CO	80211-2706	US		Alex, We want you to know how special you are! We Love You! From Mom & Dad	false		
113-9251398-9255460	09676109876082	2020-11-11T02:29:12+00:00	2020-11-10T18:29:12-08:00	2020-11-11T02:46:29+00:00	2020-11-14T07:59:59+00:00	-4	0t4q4ds8ylqnx9g@marketplace.amazon.com	Lori A Murphy	+1 602-671-6610 ext. 41489	ABR0055	Delivery by Thursday | Arabella Farm Direct Bouquet of 12 Stems of Fresh Cut Hot Pink Roses in a Free Designer Glass Vase	1	0	1	Expedited	Cheri Marks-McFarland	903 E KAPASI LN			SAN TAN VALLEY	AZ	85140-4252	US		Happy Birthday Cher!!!  Sexy and Sixty!!! Good Combo! Love Ya Bestie!! From Murf	false		
111-8112402-2121023	03406011170946	2020-11-11T02:27:03+00:00	2020-11-10T18:27:03-08:00	2020-11-11T02:54:32+00:00	2020-11-14T07:59:59+00:00	-4	5wwpxzdv2zlrl41@marketplace.amazon.com	Chris Bohannon	+1 619-854-2705 ext. 06393	ABR012	Delivery by Friday | Arabella Farm Direct Bouquet of 18 Fresh Cut Pink Roses with a Free Glass Vase	1	0	1	Expedited	Sandy Pruitt	4907 TUNIS RD			SACRAMENTO	CA	95835-1005	US		Wishing you a quick and easy recovery. From Claudette Bohannon and Family	false		
114-0465098-9848214	65723826171458	2020-11-11T02:34:40+00:00	2020-11-10T18:34:40-08:00	2020-11-11T03:03:30+00:00	2020-11-14T07:59:59+00:00	-4	8h53x49p6w3k96n@marketplace.amazon.com	Riyam Yaseen	+1 929-436-4790 ext. 70770	ABM010	Delivery by Thursday | The Spring Fling Bouquet by Arabella Bouquets with a Free Designer Glass Vase	1	0	1	Expedited	Muna Ali	5672 SABENA RD			JACKSONVILLE	FL	32207-7148	US		happy birthday to the best mom in the world! I love you so much! 💕💕💕💕 can’t wait to see you soon! From Riyam Yaseen	false		
111-4623344-8057801	61035845374106	2020-11-11T02:40:37+00:00	2020-11-10T18:40:37-08:00	2020-11-11T03:06:58+00:00	2020-11-14T07:59:59+00:00	-4	3c2dh21ghry4l0k@marketplace.amazon.com	Phillip D. Creighton	+1 602-671-6610 ext. 10118	ABB015	Arabella Farm Direct Bouquet of 24 Fresh Cut Orange Roses with a Free Glass Vase	1	0	1	Expedited	Gail Creighton	2624 INGLETON LN			SACRAMENTO	CA	95835-2178	US		Happy Birthday, Gail.  Love from Phil and Leigh	false		
111-0420618-3203449	32062283089786	2020-11-11T02:39:08+00:00	2020-11-10T18:39:08-08:00	2020-11-11T03:08:01+00:00	2020-11-14T07:59:59+00:00	-4	rc3pm9yln1fymhc@marketplace.amazon.com	Lori Cieszko	+1 619-854-2705 ext. 40340	ABR0022	Delivery by Thursday | Arabella Farm Direct Bouquet of 12 Fresh Cut Pink Roses with a Free Glass Vase	1	0	1	Expedited	Nikki Stewart	7615 213TH ST E			BRADENTON	FL	34202-8301	US		Happy Birthday Mom! I wanted to thank you for everything that you’ve done for me and let you know how much I love you and I’m thinking about you on your special day! From Lori Cieszko	false		
113-4672172-0425019	27459360214474	2020-11-11T02:40:18+00:00	2020-11-10T18:40:18-08:00	2020-11-11T03:09:42+00:00	2020-11-14T07:59:59+00:00	-4	9bg7fs51gpzstds@marketplace.amazon.com	Billie  Jo McGhee	+1 602-671-6610 ext. 71769	ABR0022	Delivery by Thursday | Arabella Farm Direct Bouquet of 12 Fresh Cut Pink Roses with a Free Glass Vase	1	0	1	Expedited	Pamela Lynn McGhee	2992 WOODRICH DR STE 3			TALLAHASSEE	FL	32301-8070	US			false		
113-1949672-0400242	07977731185250	2020-11-11T02:54:03+00:00	2020-11-10T18:54:03-08:00	2020-11-11T03:17:05+00:00	2020-11-14T07:59:59+00:00	-4	zhyqfr4zkt7x3zn@marketplace.amazon.com	cherie stutesman	+1 929-436-4790 ext. 71275	ABM022	Delivery by Thursday | Purple Extravagance Bouquet by Arabella Bouquets	1	0	1	Expedited	Jonothon amd Amber Stutesman	10293 E ORION AVE			YUMA	AZ	85367-3608	US		Happy 1 yr Anniversary Jonothon and Amber! In Covid years I am sure it is more like 5:yrs.  Love Mom and Dad	false		
