order-id	order-item-id	purchase-date	payments-date	reporting-date	promise-date	days-past-promise	buyer-email	buyer-name	buyer-phone-number	sku	product-name	quantity-purchased	quantity-shipped	quantity-to-ship	ship-service-level	recipient-name	ship-address-1	ship-address-2	ship-address-3	ship-city	ship-state	ship-postal-code	ship-country	gift-wrap-type	gift-message-text	is-business-order	purchase-order-number	price-designation
111-0217564-7931420	39802414744010	2020-11-10T14:27:30+00:00	2020-11-10T06:27:30-08:00	2020-11-10T14:53:00+00:00	2020-11-14T07:59:59+00:00	-3	r3627n1ts567gfq@marketplace.amazon.com	Pamela P Leary	+1 929-436-4790 ext. 38632	ABR0022	Delivery by Wednesday | Arabella Farm Direct Bouquet of 12 Fresh Cut Pink Roses with a Free Glass Vase	1	0	1	Expedited	Karen Leary	82 CONCORD AVE APT 1			SOMERVILLE	MA	02143-3908	US		Happy Birthday! From With Love, Mom and Dad	false		
111-9880648-0161843	19786950020594	2020-11-10T18:26:12+00:00	2020-11-10T10:26:12-08:00	2020-11-10T18:55:46+00:00	2020-11-14T07:59:59+00:00	-3	1pn7hdnjwvzvjjt@marketplace.amazon.com	Elizabeth Side	+1 929-436-4790 ext. 50214	ABM010	Delivery by Thursday | The Spring Fling Bouquet by Arabella Bouquets with a Free Designer Glass Vase	1	0	1	Expedited	Kelly Adamczyk	3683 PELHAM LN			CHARLOTTE	NC	28211-3721	US		Thank you again for being the hostess with the mostest! xoxo Ray From Elizabeth Side	false		
111-2063982-5064216	18540605132874	2020-11-10T18:31:23+00:00	2020-11-10T10:31:23-08:00	2020-11-10T18:55:58+00:00	2020-11-14T07:59:59+00:00	-3	2l2m3grsk9t4jk4@marketplace.amazon.com	Candace M. Hansen	+1 213-442-1463 ext. 03406	ABR0022	Delivery by Thursday | Arabella Farm Direct Bouquet of 12 Fresh Cut Pink Roses with a Free Glass Vase	1	0	1	Expedited	Linda DeFranco	9 SENTINEL CT			CHATHAM	NJ	07928-1769	US		Dear Linda, Hope this puts a little sunshine in you day. Wanda will be missed, hopefully she is meeting with Helen right now. From Love, Candy & Richard😘	false		
111-6211736-1019447	40165843225466	2020-11-10T18:29:37+00:00	2020-11-10T10:29:37-08:00	2020-11-10T18:58:41+00:00	2020-11-14T07:59:59+00:00	-3	30ng9py0lt2b9zj@marketplace.amazon.com	Cheryl Brown	+1 213-442-1463 ext. 28999	ABR0022	Delivery by Thursday | Arabella Farm Direct Bouquet of 12 Fresh Cut Pink Roses with a Free Glass Vase	1	0	1	Expedited	Jan Elswick	409 JEFFERSON AVE APT 306			ORANGE PARK	FL	32065-6785	US			false		
113-5003580-9235442	54060866993586	2020-11-10T18:36:03+00:00	2020-11-10T10:36:03-08:00	2020-11-10T19:01:39+00:00	2020-11-14T07:59:59+00:00	-3	g8pc1cs4rvvpx01@marketplace.amazon.com	donna king	+1 213-442-1463 ext. 64305	ABM010	Delivery by Thursday | The Spring Fling Bouquet by Arabella Bouquets with a Free Designer Glass Vase	1	0	1	Expedited	Rich and Emily Grandinetta	461 FRANKLIN ST			ALBURTIS	PA	18011-9543	US		Enjoy your new home! Miss you guys so much already! Hugs and kisses! D From donna king	false		
112-7085850-6918617	03149925701626	2020-11-10T18:44:14+00:00	2020-11-10T10:44:14-08:00	2020-11-10T19:10:44+00:00	2020-11-14T07:59:59+00:00	-3	2bx61hnt354qfsm@marketplace.amazon.com	Mary L. Carlson	+1 929-436-4790 ext. 03528	ABM022	Purple Extravagance Bouquet by Arabella Bouquets	1	0	1	Expedited	Kathryn Carlson	11245 109TH AVE NE			KIRKLAND	WA	98033-4503	US		Happy Birthday! We are SO glad you are our daughter-in-law!  With loads of love and blessings! From Dennis and Mary Lynn Carlson	false		
113-5676340-7212229	29528891518322	2020-11-10T18:58:07+00:00	2020-11-10T10:58:07-08:00	2020-11-10T19:19:09+00:00	2020-11-14T07:59:59+00:00	-3	b7h4wkbr70myq0n@marketplace.amazon.com	keith ruthenberg	+1 480-618-5344 ext. 83784	ABM022	Purple Extravagance Bouquet by Arabella Bouquets	1	0	1	Expedited	Angela Bowman	40 FALLON CT			ELMONT	NY	11003-3611	US		Get well soon!!! From Keith Ruthenberg and Amber Mizelle	false		
113-0317928-1780234	10554759319474	2020-11-10T19:32:18+00:00	2020-11-10T11:32:18-08:00	2020-11-10T19:58:54+00:00	2020-11-14T07:59:59+00:00	-3	z4tty609nhdr02q@marketplace.amazon.com	Lisa Hilke	+1 415-851-9136 ext. 34126	ABR0022	Delivery by Thursday | Arabella Farm Direct Bouquet of 12 Fresh Cut Pink Roses with a Free Glass Vase	1	0	1	Expedited	Jenn and Dusty Mapson	2072 HERITAGE DR			ROSEVILLE	CA	95678-3401	US		Jenn and Dusty, We are so sorry for your loss. Zoey we blessed to be loved by both of you. We love you both so much! Love, The Ornelas Family From Ornelas Family	false		
111-6795302-7353010	57940264992338	2020-11-10T20:00:57+00:00	2020-11-10T12:00:57-08:00	2020-11-10T20:30:43+00:00	2020-11-14T07:59:59+00:00	-3	xsyyhtscjcm7sq0@marketplace.amazon.com	Rob Chomko	+1 213-442-1463 ext. 63661	ABM010	Delivery by Thursday | The Spring Fling Bouquet by Arabella Bouquets with a Free Designer Glass Vase	1	0	1	Expedited	Alix Aranza	5200 N OCEAN BLVD APT 215			LAUDERDALE BY THE SEA	FL	33308-3021	US		Good luck with surgery From Get well soon	false		
114-0553127-0224258	29107609398618	2020-11-10T20:18:48+00:00	2020-11-10T12:18:48-08:00	2020-11-10T20:46:12+00:00	2020-11-14T07:59:59+00:00	-3	bzxbnvld0dxsxkk@marketplace.amazon.com	Cathy Madden	+1 213-442-1463 ext. 82458	ABM022	Delivery by Thursday | Purple Extravagance Bouquet by Arabella Bouquets	1	0	1	Expedited	Belanger Family	406 HIBISCUS TRL			MELBOURNE	FL	32951-2028	US		Sending our thoughts and prayers to the family during this difficult time.  Love, Michael, Bobby Belanger & Cathy Madden From Belanger / Madden	false		
112-3281122-7037058	08224424864882	2020-11-10T20:36:52+00:00	2020-11-10T12:36:52-08:00	2020-11-10T20:50:51+00:00	2020-11-14T07:59:59+00:00	-3	81cjmfx8p6xb9vt@marketplace.amazon.com	Elaine R. Bryant	+1 619-854-2705 ext. 78608	ABR0022	Delivery by Thursday | Arabella Farm Direct Bouquet of 12 Fresh Cut Pink Roses with a Free Glass Vase	1	0	1	Expedited	Victoria and Melissa Bryant Berry	4251 GARY RD			ARNOLD	MO	63010-3643	US			false		
111-0080240-4360201	02643225003730	2020-11-10T21:02:46+00:00	2020-11-10T13:02:46-08:00	2020-11-10T21:32:24+00:00	2020-11-14T07:59:59+00:00	-3	7vvx8wsnx4s8k6z@marketplace.amazon.com	Sue	+1 213-442-1463 ext. 17009	ABM010	Delivery by Thursday | The Spring Fling Bouquet by Arabella Bouquets with a Free Designer Glass Vase	1	0	1	Expedited	Lisa eschenberg	8744 BARNETT VALLEY RD			SEBASTOPOL	CA	95472-9245	US			false		
112-2592393-3091447	11794347735082	2020-11-10T21:43:57+00:00	2020-11-10T13:43:57-08:00	2020-11-10T22:12:35+00:00	2020-11-14T07:59:59+00:00	-3	10vsy43t9vpjkfy@marketplace.amazon.com	Robin Kasper	+1 480-618-5344 ext. 57958	ABM022	Delivery by Thursday | Purple Extravagance Bouquet by Arabella Bouquets	1	0	1	Expedited	Kristen Kasper	2241 COLLEGE ST			JACKSONVILLE	FL	32204-3609	US		Get well soon!!!  We love you!!! From Mom and Dad	false		
112-7108264-1733802	35647140667082	2020-11-10T21:49:36+00:00	2020-11-10T13:49:36-08:00	2020-11-10T22:18:42+00:00	2020-11-14T07:59:59+00:00	-3	7rhlms41z7mrn3t@marketplace.amazon.com	Teresa Clarke	+1 415-851-9136 ext. 41394	ABM022	Delivery by Thursday | Purple Extravagance Bouquet by Arabella Bouquets	1	0	1	Expedited	Mary Ryan	17036 SE SALMON ST			PORTLAND	OR	97233-4366	US		Happy Birthday To YOU, Happy Birthday To YOU, Happy Birthday Dear Grandma, Happy Birthday To YOU.  Love Tesa From Teresa Clarke	false		
114-9824244-4943429	26708422737930	2020-11-10T22:03:08+00:00	2020-11-10T14:03:08-08:00	2020-11-10T22:19:15+00:00	2020-11-14T07:59:59+00:00	-3	cgxp4wb4sw7b77m@marketplace.amazon.com	Rita Kelley	+1 929-436-4790 ext. 63537	ABM022	Delivery by Thursday | Purple Extravagance Bouquet by Arabella Bouquets	1	0	1	Expedited	Mary Ann Cash	937 W TRENTON AVE APT A-10			MORRISVILLE	PA	19067-3539	US			false		
113-6201017-5606633	20424612467394	2020-11-10T22:03:33+00:00	2020-11-10T14:03:33-08:00	2020-11-10T22:33:02+00:00	2020-11-14T07:59:59+00:00	-3	78xd4m1wg2y5090@marketplace.amazon.com	Lezlie E. Milson	+1 619-854-2705 ext. 64492	ABR0033	Delivery by Thursday | Arabella Farm Direct Bouquet of 12 Fresh Cut Orange Roses with a Free Glass Vase	1	0	1	Expedited	Elaine Milson	221 Rosemont Drive			Green Bay	WI	54301	US		HAPPY BIRTHDAY, MOM! I love you,  please stay safe, at least until we can see each other in person again, With Love, Your Daughter, Lezlie From Lezlie E. Milson	false		
111-6359953-4029832	58297231484306	2020-11-10T22:14:43+00:00	2020-11-10T14:14:43-08:00	2020-11-10T22:44:23+00:00	2020-11-14T07:59:59+00:00	-3	sbzdgv1kssnjnrd@marketplace.amazon.com	maggie	+1 415-851-9136 ext. 16773	ABR0033	Delivery by Thursday | Arabella Farm Direct Bouquet of 12 Fresh Cut Orange Roses with a Free Glass Vase	1	0	1	Expedited	maggie larsen	313 CORTE RAYADO			ROHNERT PARK	CA	94928-2008	US			false		
112-0875868-2332237	13804380395698	2020-11-10T22:15:46+00:00	2020-11-10T14:15:46-08:00	2020-11-10T22:46:40+00:00	2020-11-14T07:59:59+00:00	-3	mfld550mzfbtqvp@marketplace.amazon.com	Jodi Glenewinkel	+1 619-854-2705 ext. 79966	ABR0022	Delivery by Thursday | Arabella Farm Direct Bouquet of 12 Fresh Cut Pink Roses with a Free Glass Vase	1	0	1	Expedited	Jenny Moran	550 SUMMER DR			HOLLISTER	CA	95023-3443	US		Congratulations on welcoming such a sweet little baby boy into this world. We love you all and are very excited for you. From Dustin, Jodi & Merit	false		
114-3271230-9096243	64820204192554	2020-11-10T22:22:50+00:00	2020-11-10T14:22:50-08:00	2020-11-10T22:48:31+00:00	2020-11-14T07:59:59+00:00	-3	rbsq2w80cdnz6nx@marketplace.amazon.com	gill	+1 929-436-4790 ext. 49680	ABM010	Delivery by Thursday | The Spring Fling Bouquet by Arabella Bouquets with a Free Designer Glass Vase	1	0	1	Expedited	Karen, Keith and Maive	118 NINIGRET RD			NARRAGANSETT	RI	02882-1243	US		Enjoy your gift! Lots of love from Uncle Jim From Jim via Gill!	false		
114-3271230-9096243	28945392599234	2020-11-10T22:22:50+00:00	2020-11-10T14:22:50-08:00	2020-11-10T22:48:31+00:00	2020-11-14T07:59:59+00:00	-3	rbsq2w80cdnz6nx@marketplace.amazon.com	gill	+1 929-436-4790 ext. 49680	ABM022	Delivery by Thursday | Purple Extravagance Bouquet by Arabella Bouquets	1	0	1	Expedited	Karen, Keith and Maive	118 NINIGRET RD			NARRAGANSETT	RI	02882-1243	US		Enjoy the flowers and so happy for you all.  lots of love, gillian From gill	false		
114-5275587-5947457	46435484523970	2020-11-10T22:51:29+00:00	2020-11-10T14:51:29-08:00	2020-11-10T23:19:58+00:00	2020-11-14T07:59:59+00:00	-3	yvh1h8whxrm342x@marketplace.amazon.com	Connie S. Schubert	+1 213-442-1463 ext. 61695	ABR0022	Delivery by Thursday | Arabella Farm Direct Bouquet of 12 Fresh Cut Pink Roses with a Free Glass Vase	1	0	1	Expedited	Bobbie Shreiner	1514 E 81ST ST			INDIANAPOLIS	IN	46240-2716	US		Celebrating your 1 year anniversary! From Connie & Bob Schubert	false		
113-3982022-0429855	09696835364226	2020-11-10T22:28:50+00:00	2020-11-10T14:28:50-08:00	2020-11-10T23:35:56+00:00	2020-11-14T07:59:59+00:00	-3	lv0tszd489hd1km@marketplace.amazon.com	Gary	+1 619-854-2705 ext. 49028	ABM022	Delivery by Thursday | Purple Extravagance Bouquet by Arabella Bouquets	1	0	1	Expedited	Willo/Trevor	1146 WESTERN PARK DR			MEMPHIS	TN	38109-4930	US			false		
114-3804117-0012210	62341519996562	2020-11-10T23:16:39+00:00	2020-11-10T15:16:39-08:00	2020-11-10T23:44:48+00:00	2020-11-14T07:59:59+00:00	-3	hg719mlkvck6smf@marketplace.amazon.com	Akhil Gupta	+1 415-851-9136 ext. 54553	ABR0033	Delivery by Thursday | Arabella Farm Direct Bouquet of 12 Fresh Cut Orange Roses with a Free Glass Vase	1	0	1	Expedited	Rohini Morillo	312 W 87TH ST APT 2B			NEW YORK	NY	10024-2628	US		For the 1st and 60th of many more! Lots of love. From Beenu, Lalit, Devyani, and Akhil	false		
114-5195381-0922665	20055049352578	2020-11-10T23:31:20+00:00	2020-11-10T15:31:20-08:00	2020-11-10T23:56:24+00:00	2020-11-14T07:59:59+00:00	-3	lwmjlhgmjgbhnyr@marketplace.amazon.com	Grant Jacobs	+1 602-671-6610 ext. 13660	ABM022	Delivery by Thursday | Purple Extravagance Bouquet by Arabella Bouquets	1	0	1	Expedited	Melissa Moylan	2561 STONEVIEW RD			ORLANDO	FL	32806-5077	US		Thinking of you, Sister. Everything will be ok! Love you! Xoxoxo From Nicole	false		
114-0663379-0093861	56782037265298	2020-11-10T23:35:30+00:00	2020-11-10T15:35:30-08:00	2020-11-11T00:05:18+00:00	2020-11-14T07:59:59+00:00	-3	q67hkyyztghzstp@marketplace.amazon.com	Wesley Moerschell	+1 213-442-1463 ext. 27713	ABR0022	Delivery by Thursday | Arabella Farm Direct Bouquet of 12 Fresh Cut Pink Roses with a Free Glass Vase	1	0	1	Expedited	Kathy Moerschell	HBD FROM TEXAS!	3028 NW CRAFTSMAN DR		BEND	OR	97703-8336	US		Get well soon Kathy! Love, Wes From Wesley Moerschell	false		
112-9531911-8578661	16234005651202	2020-11-11T00:17:53+00:00	2020-11-10T16:17:53-08:00	2020-11-11T00:24:26+00:00	2020-11-14T07:59:59+00:00	-3	rk50323wyrfmfyx@marketplace.amazon.com	Sondra Oneill	+1 415-851-9136 ext. 88528	ABM010	Delivery by Thursday | The Spring Fling Bouquet by Arabella Bouquets with a Free Designer Glass Vase	1	0	1	Expedited	Paulette Carter	7017 MISSION RD			EVERSON	WA	98247-9713	US		Dear Paulette,  Sending you loads of good wishes for a speedy recovery and good health. From Sunrise Services Behavioral Health Team	false		
112-3372436-6145052	55628611476826	2020-11-11T00:31:32+00:00	2020-11-10T16:31:32-08:00	2020-11-11T01:01:49+00:00	2020-11-14T07:59:59+00:00	-3	fnkk8qgqljt02wk@marketplace.amazon.com	Christopher J Soper	+1 929-436-4790 ext. 93074	ABM022	Delivery by Thursday | Purple Extravagance Bouquet by Arabella Bouquets	1	0	1	Expedited	Noelle Salmonsen	81 Mill Street			Hannibal	NY	13074	US			false		
113-2805935-1248211	26314369785354	2020-11-11T00:33:05+00:00	2020-11-10T16:33:05-08:00	2020-11-11T01:03:05+00:00	2020-11-14T07:59:59+00:00	-3	sn0qsp8q0s3wxjw@marketplace.amazon.com	Michael Schafbuch	+1 619-854-2705 ext. 80658	ABM022	Delivery by Thursday | Purple Extravagance Bouquet by Arabella Bouquets	1	0	1	Expedited	Chris Schafbuch	165 HUGUENOT ST APT 6D			NEW ROCHELLE	NY	10801-5257	US		Congratulations to an amazing man and son. Love, Dad From Dad	false		
112-2343690-7060249	14269116378882	2020-11-11T01:11:39+00:00	2020-11-10T17:11:39-08:00	2020-11-11T01:39:25+00:00	2020-11-14T07:59:59+00:00	-3	d7n8h0q9bwclcnp@marketplace.amazon.com	Matt Pociask	+1 929-436-4790 ext. 91636	ABM022	Delivery by Thursday | Purple Extravagance Bouquet by Arabella Bouquets	1	0	1	Expedited	Jean Pociask	1303 BRUSH HILL CIR			NAPERVILLE	IL	60540-4007	US		Mom, we hope you have a speedy recovery from your surgery and will keep you in our prayers. From Matt, Natalie, Avery, Nolan and Lilah	false		
114-4837705-7615408	41053000101178	2020-11-11T01:23:06+00:00	2020-11-10T17:23:06-08:00	2020-11-11T01:50:55+00:00	2020-11-14T07:59:59+00:00	-3	c3x9bcz6nvt4zgf@marketplace.amazon.com	Bonnie Giarla	+1 929-436-4790 ext. 03211	ABM022	Delivery by Thursday | Purple Extravagance Bouquet by Arabella Bouquets	1	0	1	Expedited	Kristen Giarla	16100 POCAHONTAS TRL			MEADOWVIEW	VA	24361-2706	US		We love you! Thank you for Noah! ❤ From Bonnie Giarla	false		
114-5263027-7031402	27998434131162	2020-11-11T01:22:27+00:00	2020-11-10T17:22:27-08:00	2020-11-11T01:52:29+00:00	2020-11-14T07:59:59+00:00	-3	sytdztmvybjbr3y@marketplace.amazon.com	Frederick J Zicard3	+1 619-854-2705 ext. 57771	ABM022	Delivery by Thursday | Purple Extravagance Bouquet by Arabella Bouquets	1	0	1	Expedited	Rebecca Smith C/o Upper Cumberland Dev	1104 ENGLAND DR			COOKEVILLE	TN	38501-0924	US			false		
113-0705362-4895428	02031095208258	2020-11-11T01:43:17+00:00	2020-11-10T17:43:17-08:00	2020-11-11T02:08:40+00:00	2020-11-14T07:59:59+00:00	-3	cwjr5226tqcdx4t@marketplace.amazon.com	Eric Rosenthal	+1 619-854-2705 ext. 21136	ABR0022	Delivery by Thursday | Arabella Farm Direct Bouquet of 12 Fresh Cut Pink Roses with a Free Glass Vase	1	0	1	Expedited	Angela Garcia	12240 SHADETREE LN			LAUREL	MD	20708-2832	US		Angela - Congratulations on your 500th day.  We are so lucky to have you as our leader.  Thanks for all you do for the school and for our friendship. From Eric Rosenthal	false		
114-0465098-9848214	65723826171458	2020-11-11T02:34:40+00:00	2020-11-10T18:34:40-08:00	2020-11-11T03:03:30+00:00	2020-11-14T07:59:59+00:00	-3	8h53x49p6w3k96n@marketplace.amazon.com	Riyam Yaseen	+1 929-436-4790 ext. 70770	ABM010	Delivery by Thursday | The Spring Fling Bouquet by Arabella Bouquets with a Free Designer Glass Vase	1	0	1	Expedited	Muna Ali	5672 SABENA RD			JACKSONVILLE	FL	32207-7148	US		happy birthday to the best mom in the world! I love you so much! 💕💕💕💕 can’t wait to see you soon! From Riyam Yaseen	false		
111-0420618-3203449	32062283089786	2020-11-11T02:39:08+00:00	2020-11-10T18:39:08-08:00	2020-11-11T03:08:01+00:00	2020-11-14T07:59:59+00:00	-3	rc3pm9yln1fymhc@marketplace.amazon.com	Lori Cieszko	+1 619-854-2705 ext. 40340	ABR0022	Delivery by Thursday | Arabella Farm Direct Bouquet of 12 Fresh Cut Pink Roses with a Free Glass Vase	1	0	1	Expedited	Nikki Stewart	7615 213TH ST E			BRADENTON	FL	34202-8301	US		Happy Birthday Mom! I wanted to thank you for everything that you’ve done for me and let you know how much I love you and I’m thinking about you on your special day! From Lori Cieszko	false		
113-4672172-0425019	27459360214474	2020-11-11T02:40:18+00:00	2020-11-10T18:40:18-08:00	2020-11-11T03:09:42+00:00	2020-11-14T07:59:59+00:00	-3	9bg7fs51gpzstds@marketplace.amazon.com	Billie  Jo McGhee	+1 602-671-6610 ext. 71769	ABR0022	Delivery by Thursday | Arabella Farm Direct Bouquet of 12 Fresh Cut Pink Roses with a Free Glass Vase	1	0	1	Expedited	Pamela Lynn McGhee	2992 WOODRICH DR STE 3			TALLAHASSEE	FL	32301-8070	US			false		
113-1949672-0400242	07977731185250	2020-11-11T02:54:03+00:00	2020-11-10T18:54:03-08:00	2020-11-11T03:17:05+00:00	2020-11-14T07:59:59+00:00	-3	zhyqfr4zkt7x3zn@marketplace.amazon.com	cherie stutesman	+1 929-436-4790 ext. 71275	ABM022	Delivery by Thursday | Purple Extravagance Bouquet by Arabella Bouquets	1	0	1	Expedited	Jonothon amd Amber Stutesman	10293 E ORION AVE			YUMA	AZ	85367-3608	US		Happy 1 yr Anniversary Jonothon and Amber! In Covid years I am sure it is more like 5:yrs.  Love Mom and Dad	false		
113-1097825-9761021	05907222247098	2020-11-11T02:55:35+00:00	2020-11-10T18:55:35-08:00	2020-11-11T03:25:26+00:00	2020-11-14T07:59:59+00:00	-3	4hx2z1bssrwg7gc@marketplace.amazon.com	lorna j coody	+1 929-436-4790 ext. 04689	ABM022	Delivery by Thursday | Purple Extravagance Bouquet by Arabella Bouquets	1	0	1	Expedited	Rochelle Lehman	1740 E COOK RD			FORT WAYNE	IN	46825-3781	US			false		
111-7706032-8502615	06801391230706	2020-11-11T03:18:56+00:00	2020-11-10T19:18:56-08:00	2020-11-11T03:49:26+00:00	2020-11-14T07:59:59+00:00	-3	w8mhhl7kr7g4gg1@marketplace.amazon.com	Marc Pfefferle	+1 619-854-2705 ext. 67339	ABR0022	Delivery by Thursday | Arabella Farm Direct Bouquet of 12 Fresh Cut Pink Roses with a Free Glass Vase	1	0	1	Expedited	Alex Leighton	217 SAINT PAUL ST APT 1			BURLINGTON	VT	05401-5709	US			false		
112-9333150-9290638	52433704395106	2020-11-11T03:21:38+00:00	2020-11-10T19:21:38-08:00	2020-11-11T03:50:55+00:00	2020-11-14T07:59:59+00:00	-3	zpzvvsfvy11h8ys@marketplace.amazon.com	Sarah Gandy	+1 415-851-9136 ext. 05125	ABR0022	Delivery by Thursday | Arabella Farm Direct Bouquet of 12 Fresh Cut Pink Roses with a Free Glass Vase	1	0	1	Expedited	Peterson Family	968 GRAHAM LAKE TER			BATTLE CREEK	MI	49014-8309	US		We are so sorry for your loss! From The Piotrowski Family	false		
111-2492255-9253031	30237093820874	2020-11-11T04:03:36+00:00	2020-11-10T20:03:36-08:00	2020-11-11T04:30:29+00:00	2020-11-14T07:59:59+00:00	-3	d7bb4bqlzl2mznv@marketplace.amazon.com	Marcia Richards	+1 480-618-5344 ext. 01725	ABM022	Delivery by Thursday | Purple Extravagance Bouquet by Arabella Bouquets	1	0	1	Expedited	Aldith Gill	600 E 18TH ST APT 2J			BROOKLYN	NY	11226-7367	US		Enjoy your gift!  I hope you enjoy the best or birthdays.  Happy Birthday! From Miss and Sir!	false		
111-0594113-6999412	00318069565330	2020-11-11T04:15:14+00:00	2020-11-10T20:15:14-08:00	2020-11-11T04:44:30+00:00	2020-11-14T07:59:59+00:00	-3	knv2fjhpvlcnjlt@marketplace.amazon.com	Chelsea Wyatt	+1 929-436-4790 ext. 95697	ABM010	Delivery by Thursday | The Spring Fling Bouquet by Arabella Bouquets with a Free Designer Glass Vase	1	0	1	Expedited	Dorie Bash	906 Bramley Ct			Venice	FL	34293	US			false		
112-0147850-8745838	68264400377146	2020-11-11T04:21:31+00:00	2020-11-10T20:21:31-08:00	2020-11-11T04:47:50+00:00	2020-11-14T07:59:59+00:00	-3	05mwtgqfrmzpz47@marketplace.amazon.com	Anne Elizabeth Barnes	+1 480-618-5344 ext. 86933	ABM022	Delivery by Thursday | Purple Extravagance Bouquet by Arabella Bouquets	1	0	1	Expedited	Ms Debbie Malone	7470 WILDERCLIFF DR			SANDY SPRINGS	GA	30328-1144	US		Thinking of you and wishing you well! From Anne & Tom	false		
113-0194108-5171413	49895444101666	2020-11-11T04:49:42+00:00	2020-11-10T20:49:42-08:00	2020-11-11T05:09:22+00:00	2020-11-14T07:59:59+00:00	-3	xp0wg2pjps9p72l@marketplace.amazon.com	Kathy Allan	+1 213-442-1463 ext. 63364	ABM010	Delivery by Thursday | The Spring Fling Bouquet by Arabella Bouquets with a Free Designer Glass Vase	1	0	1	Expedited	Vicki Nishioka	11506 ROCHESTER CT			CERRITOS	CA	90703-1757	US		Hi Vicki, I hope these brighten your day! Kathy	false		
111-7662199-1539452	29918846804970	2020-11-11T05:25:25+00:00	2020-11-10T21:25:25-08:00	2020-11-11T05:48:01+00:00	2020-11-14T07:59:59+00:00	-3	r20djl326fkwhhz@marketplace.amazon.com	Ken & Diana	+1 602-671-6610 ext. 55494	ABM022	Delivery by Thursday | Purple Extravagance Bouquet by Arabella Bouquets	1	0	1	Expedited	Emma St. Onge	411 N DILLARD ST RM 505			WINTER GARDEN	FL	34787-2816	US		Enjoy the Flowers Mom! Hope they bring Joy to your Room! Love You, Ken & Diana From Ken & Diana	false		
111-1878525-3217858	19108798142730	2020-11-11T06:05:07+00:00	2020-11-10T22:05:07-08:00	2020-11-11T06:34:45+00:00	2020-11-14T07:59:59+00:00	-3	wvn73cjgny8np41@marketplace.amazon.com	Kathleen Hunt	+1 619-854-2705 ext. 17432	ABR0055	Delivery by Thursday | Arabella Farm Direct Bouquet of 12 Stems of Fresh Cut Hot Pink Roses in a Free Designer Glass Vase	1	0	1	Expedited	Maryann Foss	58 EDISON AVE			CHERRY HILL	NJ	08002-3533	US		Happy Birthday!!  Mom said not to mention how old you are.  🤣 From Kathy, Mike, and Erin	false		
114-5636149-5147404	68312415290218	2020-11-11T06:41:09+00:00	2020-11-10T22:41:09-08:00	2020-11-11T07:09:07+00:00	2020-11-14T07:59:59+00:00	-3	sz5ymt953yrrsdz@marketplace.amazon.com	Mary Beth Hamlin	+1 480-618-5344 ext. 78881	ABR0055	Delivery by Thursday | Arabella Farm Direct Bouquet of 12 Stems of Fresh Cut Hot Pink Roses in a Free Designer Glass Vase	1	0	1	Expedited	Kyleigh Helton	737 S BELLEVIEW PL			INDIANAPOLIS	IN	46221-1079	US		Happy Birthday!! I love you ❤!!!! From Clayton Hamlin	false		
113-5919188-7994620	20971029574330	2020-11-11T07:41:45+00:00	2020-11-10T23:41:45-08:00	2020-11-11T08:12:19+00:00	2020-11-14T07:59:59+00:00	-3	p9hl2ch5nd2ywb3@marketplace.amazon.com	Kylet Tarpley	+1 602-671-6610 ext. 24589	ABM022	Delivery by Thursday | Purple Extravagance Bouquet by Arabella Bouquets	1	0	1	Expedited	Karen Steen	71 SW VICTORIA ST			RENTON	WA	98057-5920	US			false		
111-1706430-9453066	27340224808122	2020-11-11T07:48:39+00:00	2020-11-10T23:48:39-08:00	2020-11-11T08:16:31+00:00	2020-11-14T07:59:59+00:00	-3	g26nrm412n59rn3@marketplace.amazon.com	bertie	+1 213-442-1463 ext. 19158	ABR0022	Delivery by Thursday | Arabella Farm Direct Bouquet of 12 Fresh Cut Pink Roses with a Free Glass Vase	1	0	1	Expedited	Anita Brick	3804 N Leavitt St			CHICAGO	IL	60618-3808	US		Dear Anita,   Thank you so much for helping me navigate my career! As winter encroaches, I wanted to add some more color to your day!   Best wishes, From Sriram Venkatachalam	false		
113-2042885-8017044	68707475859410	2020-11-11T09:56:47+00:00	2020-11-11T01:56:47-08:00	2020-11-11T10:23:21+00:00	2020-11-14T07:59:59+00:00	-3	y24f24hz0zqm37g@marketplace.amazon.com	cathy johnson	+1 619-854-2705 ext. 70376	ABR0022	Delivery by Thursday | Arabella Farm Direct Bouquet of 12 Fresh Cut Pink Roses with a Free Glass Vase	1	0	1	Expedited	Shirley Marshall-Crawley	275 MATCHAPONIX AVE			MONROE TOWNSHIP	NJ	08831-4080	US		“Blessed are those who mourn, for they shall be comforted.” – Matthew 5:4. From Johnsons	false		
112-4448702-4289015	18162406855986	2020-11-11T10:55:43+00:00	2020-11-11T02:55:43-08:00	2020-11-11T11:17:35+00:00	2020-11-14T07:59:59+00:00	-3	3bkvrgfks89d062@marketplace.amazon.com	wafaa	+1 480-618-5344 ext. 96273	ABR0022	Delivery by Thursday | Arabella Farm Direct Bouquet of 12 Fresh Cut Pink Roses with a Free Glass Vase	1	0	1	Expedited	Mira & George	4045 W LAKE SAMMAMISH PKWY SE			BELLEVUE	WA	98008-5939	US			false		
113-2094894-1673007	33208805070346	2020-11-11T11:23:28+00:00	2020-11-11T03:23:28-08:00	2020-11-11T11:52:43+00:00	2020-11-14T07:59:59+00:00	-3	g9g4y91fhkprw26@marketplace.amazon.com	Washington Marine	+1 480-618-5344 ext. 18154	ABM010	Delivery by Thursday | The Spring Fling Bouquet by Arabella Bouquets with a Free Designer Glass Vase	1	0	1	Expedited	Gloria Broadfoot	1906 MORRIS HILL RD			CHATTANOOGA	TN	37421-3344	US			false		
113-5976631-9076203	42450391534282	2020-11-11T11:53:41+00:00	2020-11-11T03:53:41-08:00	2020-11-11T12:23:24+00:00	2020-11-14T07:59:59+00:00	-3	hxbdstx9thqnqjj@marketplace.amazon.com	Julie Arthur	+1 213-442-1463 ext. 68776	ABM022	Delivery by Thursday | Purple Extravagance Bouquet by Arabella Bouquets	1	0	1	Expedited	Julie Borunda	5440 N ORMONDO WAY			LITCHFIELD PARK	AZ	85340-4163	US		Dear Julie, We love and support you during these difficult times. Love, Julie and Michael Arthur From Julie Arthur	false		
114-1587071-5713011	00187199747834	2020-11-11T12:46:09+00:00	2020-11-11T04:46:09-08:00	2020-11-11T13:09:08+00:00	2020-11-14T07:59:59+00:00	-3	njl1mc8scvynj1z@marketplace.amazon.com	Melynda Marshall	+1 415-851-9136 ext. 24015	ABM010	Delivery by Thursday | The Spring Fling Bouquet by Arabella Bouquets with a Free Designer Glass Vase	1	0	1	Expedited	Terry and Robin Olson	911 N SHINE AVE			ORLANDO	FL	32803-3329	US		We wish you comfort and peace of mind during this time of loss. Hoping you feel surrounded by much love. Orlando loves you! From Creative City Project	false		
113-2907673-4017012	03286524264394	2020-11-11T12:51:46+00:00	2020-11-11T04:51:46-08:00	2020-11-11T13:20:09+00:00	2020-11-14T07:59:59+00:00	-3	37k4ksm51bd39l1@marketplace.amazon.com	SoPretty3D	+1 929-436-4790 ext. 59548	ABM022	Delivery by Thursday | Purple Extravagance Bouquet by Arabella Bouquets	1	0	1	Standard	Michelle Lao	7210 DOMINION CIR			COMMERCE	CA	90040-3647	US			true		
112-0968721-2935410	67429797289714	2020-11-11T12:54:06+00:00	2020-11-11T04:54:06-08:00	2020-11-11T13:24:24+00:00	2020-11-14T07:59:59+00:00	-3	pw0t164973242hr@marketplace.amazon.com	Denise M. Thompson	+1 929-436-4790 ext. 19779	ABM010	Delivery by Thursday | The Spring Fling Bouquet by Arabella Bouquets with a Free Designer Glass Vase	1	0	1	Expedited	Zoe Thompson	215 W MCKINLEY ST			WATERMAN	IL	60556-9775	US			false		
112-4091224-0033860	49083017787906	2020-11-11T13:07:29+00:00	2020-11-11T05:07:29-08:00	2020-11-11T13:24:59+00:00	2020-11-14T07:59:59+00:00	-3	c5zhmqrrxnbl1pw@marketplace.amazon.com	Gary R. Grossman	+1 619-854-2705 ext. 06060	ABM022	Delivery by Thursday | Purple Extravagance Bouquet by Arabella Bouquets	1	0	1	Expedited	Ms. Samantha Grossman	106 COTHRON DR			LAFAYETTE	TN	37083-1805	US		Samantha, Happy Birthday! We love you very much!!  Mother & Father	false		
114-1441599-2523419	65141602938146	2020-11-11T12:58:04+00:00	2020-11-11T04:58:04-08:00	2020-11-11T13:25:34+00:00	2020-11-14T07:59:59+00:00	-3	qmmbfrw51kr9m4t@marketplace.amazon.com	Charles Powell	+1 480-618-5344 ext. 33734	ABR001	Delivery by Thursday | Arabella Bouquets 12 Stems of Fresh Cut Red Roses in a Free Designer Glass Vase	1	0	1	Expedited	Ms. Eddie Johnson	27 E DUNBAR RD			MEMPHIS	TN	38109-2801	US		Have a very beautiful birthday!!!! From Charles & Sherry Powell	false		
114-5821760-9202607	47133843024258	2020-11-11T12:58:38+00:00	2020-11-11T04:58:38-08:00	2020-11-11T13:28:58+00:00	2020-11-14T07:59:59+00:00	-3	nsb0zfh08fhwtff@marketplace.amazon.com	Michelle Johnson	+1 619-854-2705 ext. 53872	ABR0022	Delivery by Thursday | Arabella Farm Direct Bouquet of 12 Fresh Cut Pink Roses with a Free Glass Vase	1	0	1	Expedited	Susan K. Johnson	3901 E 33RD AVE			SPOKANE	WA	99223-5975	US			false		
113-9120387-5397026	55997406964522	2020-11-11T13:31:29+00:00	2020-11-11T05:31:29-08:00	2020-11-11T13:51:58+00:00	2020-11-14T07:59:59+00:00	-3	btxt2fq0bhxnk85@marketplace.amazon.com	Renata B Lemos	+1 602-671-6610 ext. 07170	ABM022	Delivery by Thursday | Purple Extravagance Bouquet by Arabella Bouquets	1	0	1	Expedited	Karla Jones	917 GREENLAND RD			PORTSMOUTH	NH	03801-4124	US		Querida Família Jones, parabéns pela chegada do Luca! Que vocês tenham sabedoria para guiá-lo nessa linda jornada que se inicia! Amamos vocês! From Família Lemos	false		
114-0114836-2807439	52055548028914	2020-11-11T13:22:43+00:00	2020-11-11T05:22:43-08:00	2020-11-11T13:52:08+00:00	2020-11-14T07:59:59+00:00	-3	9tdw6mmbsh3hv21@marketplace.amazon.com	Charlie	+1 619-854-2705 ext. 95615	ABR0022	Delivery by Thursday | Arabella Farm Direct Bouquet of 12 Fresh Cut Pink Roses with a Free Glass Vase	1	0	1	Expedited	Carol Winter	1095 SILVERCREST CIR APT 227			IOWA CITY	IA	52240-2968	US		Dear Mom,  Happy thanksgiving!  Love Kirsten From Charlie	false		
112-6658769-5199416	38950318997466	2020-11-11T14:10:16+00:00	2020-11-11T06:10:16-08:00	2020-11-11T14:38:11+00:00	2020-11-14T07:59:59+00:00	-3	ft1hr46zk9zw1c6@marketplace.amazon.com	Monica Collopy	+1 213-442-1463 ext. 74892	ABM022	Delivery by Thursday | Purple Extravagance Bouquet by Arabella Bouquets	1	0	1	Expedited	Juith Collopy	11258 CRIMSON			MIAMISBURG	OH	45342-4895	US		Happy 80th Birthday!! From Monica, Erika and Eric	false		
113-8809270-9330667	65044600034674	2020-11-11T14:23:21+00:00	2020-11-11T06:23:21-08:00	2020-11-11T14:51:10+00:00	2020-11-14T07:59:59+00:00	-3	qp4f9bmh7shyrc2@marketplace.amazon.com	Nikki	+1 602-671-6610 ext. 63875	ABM010	Delivery by Thursday | The Spring Fling Bouquet by Arabella Bouquets with a Free Designer Glass Vase	1	0	1	Expedited	Erin McHugh	6940 47TH WAY N			PINELLAS PARK	FL	33781-5237	US		Happy Birthday! We hope you enjoy the day! Miss you! From Nikki & Chris	false		
113-0318744-1214613	34816563740994	2020-11-11T14:55:23+00:00	2020-11-11T06:55:23-08:00	2020-11-11T15:25:46+00:00	2020-11-14T07:59:59+00:00	-3	yt0992tzjhwgjy8@marketplace.amazon.com	Alex	+1 929-436-4790 ext. 36048	ABR0022	Delivery by Thursday | Arabella Farm Direct Bouquet of 12 Fresh Cut Pink Roses with a Free Glass Vase	1	0	1	Expedited	Alexander Love	1432 WHITESTONE RD			SPRING VALLEY	CA	91977-5417	US			false		
111-7299272-1377809	38443412065922	2020-11-11T15:08:55+00:00	2020-11-11T07:08:55-08:00	2020-11-11T15:36:24+00:00	2020-11-14T07:59:59+00:00	-3	7wcclb7g3kclcdc@marketplace.amazon.com	Sarah Fernandez	+1 929-436-4790 ext. 88554	ABM010	Delivery by Thursday | The Spring Fling Bouquet by Arabella Bouquets with a Free Designer Glass Vase	1	0	1	Expedited	Betsy Godfrey	2509 ARLINGTON BLVD APT 102			ARLINGTON	VA	22201-1321	US		Happy Birthday Betsy!!! 🎉🎉🎉🎉 Love the Fernandez Family From Sarah Fernandez	false		
113-0775095-5384209	08921087120298	2020-11-11T15:11:23+00:00	2020-11-11T07:11:23-08:00	2020-11-11T15:40:59+00:00	2020-11-14T07:59:59+00:00	-3	8rnl1zvjcpj1d1x@marketplace.amazon.com	Craig Bockelken	+1 602-671-6610 ext. 73968	ABR0022	Delivery by Thursday | Arabella Farm Direct Bouquet of 12 Fresh Cut Pink Roses with a Free Glass Vase	1	0	1	Expedited	Marilyn Bell	18138 BELLEZZA DR			ORLANDO	FL	32820-1422	US		We hope you enjoy Florida, we miss you so much already! Can’t wait to come visit! From Jill, Craig and the boys. ❤️	false		
112-9630130-1280249	36788784220658	2020-11-11T15:15:40+00:00	2020-11-11T07:15:40-08:00	2020-11-11T15:44:22+00:00	2020-11-14T07:59:59+00:00	-3	h40wjzrjdpprbrr@marketplace.amazon.com	Michael D McLoughlin	+1 213-442-1463 ext. 68185	ABR0022	Delivery by Thursday | Arabella Farm Direct Bouquet of 12 Fresh Cut Pink Roses with a Free Glass Vase	1	0	1	Expedited	Catherine Walter	6407 W 5TH ST			LOS ANGELES	CA	90048-4709	US		Happy Birthday to my sweet granddaughter whom I love so much. I am so very proud of you! From Michael D McLoughlin	false		
111-8752233-5583417	02457017309714	2020-11-11T15:18:48+00:00	2020-11-11T07:18:48-08:00	2020-11-11T15:46:07+00:00	2020-11-14T07:59:59+00:00	-3	y26ct45v47zcy9t@marketplace.amazon.com	Ibtissam Tannis	+1 619-854-2705 ext. 36660	ABR0022	Delivery by Thursday | Arabella Farm Direct Bouquet of 12 Fresh Cut Pink Roses with a Free Glass Vase	1	0	1	Expedited	Andrea Tannis	1338 CHESTNUT ST UNIT 1607 11TH	GRIFFIN CENTRE CITY APARTMENTS		PHILADELPHIA	PA	19107-4559	US			false		
114-8709972-7549018	56882282754794	2020-11-11T15:23:50+00:00	2020-11-11T07:23:50-08:00	2020-11-11T15:52:51+00:00	2020-11-14T07:59:59+00:00	-3	43g86xcc2xjvvnv@marketplace.amazon.com	Robert Aleski	+1 213-442-1463 ext. 41678	ABM022	Delivery by Thursday | Purple Extravagance Bouquet by Arabella Bouquets	1	0	1	Expedited	Melissa Williamson	33 BERRY ROAD PARK			SAINT LOUIS	MO	63122-2010	US			false		
114-8208704-7624253	50520002480922	2020-11-11T15:42:05+00:00	2020-11-11T07:42:05-08:00	2020-11-11T16:06:54+00:00	2020-11-14T07:59:59+00:00	-3	hh8xhg0m9zt20gg@marketplace.amazon.com	Jean Boccuti	+1 929-436-4790 ext. 58926	ABM010	Delivery by Thursday | The Spring Fling Bouquet by Arabella Bouquets with a Free Designer Glass Vase	1	0	1	Expedited	The Merkel Family	51 PHEASANT RUN DR			SKILLMAN	NJ	08558-1721	US		She lives in our hearts, vibrant and beautiful. From Love, Grandma and Grandpa	false		
111-6855245-0788226	52400308710418	2020-11-11T15:51:03+00:00	2020-11-11T07:51:03-08:00	2020-11-11T16:20:17+00:00	2020-11-14T07:59:59+00:00	-3	3pwc2s9vd25m1c5@marketplace.amazon.com	Sharla Ryals	+1 619-854-2705 ext. 48068	ABR0033	Delivery by Thursday | Arabella Farm Direct Bouquet of 12 Fresh Cut Orange Roses with a Free Glass Vase	1	0	1	Expedited	Carleen Maasdam	13039 S 60TH AVE E			LYNNVILLE	IA	50153-8617	US		Happy Birthday!!!   Love from Florida! From Sharla & Randy	false		
114-6698500-4088226	23952010271586	2020-11-11T15:52:43+00:00	2020-11-11T07:52:43-08:00	2020-11-11T16:24:21+00:00	2020-11-14T07:59:59+00:00	-3	hh8xhg0m9zt20gg@marketplace.amazon.com	Jean Boccuti	+1 415-851-9136 ext. 30319	ABM010	Delivery by Thursday | The Spring Fling Bouquet by Arabella Bouquets with a Free Designer Glass Vase	1	0	1	Expedited	Anna Merkel	617 DeNaples Center, Univ. of Scranton	900 Mulberry St.		Scranton	PA	18510-2407	US		She lives in our hearts, vibrant and beautiful. From Love, Grandma and Grandpa	false		
112-4292003-3705053	60068277763626	2020-11-11T16:11:16+00:00	2020-11-11T08:11:16-08:00	2020-11-11T16:37:48+00:00	2020-11-14T07:59:59+00:00	-3	21fhhmj6ngh2pzh@marketplace.amazon.com	Marilyn G. Lattanzi	+1 929-436-4790 ext. 17347	ABR0022	Delivery by Thursday | Arabella Farm Direct Bouquet of 12 Fresh Cut Pink Roses with a Free Glass Vase	1	0	1	Expedited	Bella Lattanzi	24 CENTER ST			MONTAGUE	MA	01351-9563	US		Happy Birthday, Bella....you can now throw out your fake ID!!! 😍 Have a fantastic celebration!!!  XXX+ Nana From Marilyn G. Lattanzi	false		
111-4157197-3172228	42967135039178	2020-11-11T16:10:20+00:00	2020-11-11T08:10:20-08:00	2020-11-11T16:39:28+00:00	2020-11-14T07:59:59+00:00	-3	z729hzw5595hdp3@marketplace.amazon.com	Trina	+1 213-442-1463 ext. 62057	ABM022	Delivery by Thursday | Purple Extravagance Bouquet by Arabella Bouquets	1	0	1	Expedited	Cindy Moralez	1654 SANTANA RANCH DR			HOLLISTER	CA	95023-9765	US		Hope you start feeling better really soon!! We love you!! Ben & Trina From Trina	false		
111-8489509-8145061	61262236525890	2020-11-11T16:30:54+00:00	2020-11-11T08:30:54-08:00	2020-11-11T16:58:05+00:00	2020-11-14T07:59:59+00:00	-3	dxjl2d82f6k5vl2@marketplace.amazon.com	Kimberly	+1 619-854-2705 ext. 34988	ABM010	Delivery by Thursday | The Spring Fling Bouquet by Arabella Bouquets with a Free Designer Glass Vase	1	0	1	Expedited	Melissa West	37 WILLOW ST			WINTERPORT	ME	04496-3204	US		We are hoping you are feeling better! See you soon! From Your Hollywood Family!	false		
113-3285465-1806650	33527912021850	2020-11-11T16:29:02+00:00	2020-11-11T08:29:02-08:00	2020-11-11T16:59:31+00:00	2020-11-14T07:59:59+00:00	-3	fr0km8d95crj3r1@marketplace.amazon.com	Dena Louise Austin	+1 619-854-2705 ext. 86191	ABR0022	Delivery by Thursday | Arabella Farm Direct Bouquet of 12 Fresh Cut Pink Roses with a Free Glass Vase	1	0	1	Expedited	Valeon Waller	991 BURNS ST			DETROIT	MI	48214-2804	US			false		
113-1478785-3996260	49168609053858	2020-11-11T17:00:07+00:00	2020-11-11T09:00:07-08:00	2020-11-11T17:14:30+00:00	2020-11-14T07:59:59+00:00	-3	wk20cjb0yb8p8hj@marketplace.amazon.com	anne Fuller	+1 213-442-1463 ext. 77629	ABR0022	Delivery by Thursday | Arabella Farm Direct Bouquet of 12 Fresh Cut Pink Roses with a Free Glass Vase	1	0	1	Expedited	Jacqueline  Larsen	216 VALPARAISO AVE			ATHERTON	CA	94027-5545	US		Congratulations on getting your braces off. We are so happy for you.   Love  Nonna, Justin<,Holly., and John From Anne Fuller	false		
112-7955871-4910661	41024560404794	2020-11-11T16:48:52+00:00	2020-11-11T08:48:52-08:00	2020-11-11T17:15:12+00:00	2020-11-14T07:59:59+00:00	-3	xvp87yrqcd0rxhw@marketplace.amazon.com	Ryan Belanger	+1 213-442-1463 ext. 30760	ABR0055	Delivery by Thursday | Arabella Farm Direct Bouquet of 12 Stems of Fresh Cut Hot Pink Roses in a Free Designer Glass Vase	1	0	1	Expedited	Karen Russell	2 DONCASTER DR			NASHUA	NH	03062-2142	US		Sending you love for a Speedy recovery Love  Kristen Kelley and Cuzzy From Kristen Belanger	false		
112-6804521-0334648	50007618290906	2020-11-11T16:47:26+00:00	2020-11-11T08:47:26-08:00	2020-11-11T17:15:58+00:00	2020-11-14T07:59:59+00:00	-3	prrvk3318bjddyp@marketplace.amazon.com	Ramona Oppenheimer	+1 602-671-6610 ext. 43436	ABR0022	Delivery by Thursday | Arabella Farm Direct Bouquet of 12 Fresh Cut Pink Roses with a Free Glass Vase	1	0	1	Expedited	Clara cappas	27309 FALCON FEATHER WAY			LEESBURG	FL	34748-1607	US		To, Clara Happy birthday have a beautiful day  Love  Ramona,Stephen,Jonathan and Kimberly	false		
113-9764330-5553022	43495165142698	2020-11-11T16:51:28+00:00	2020-11-11T08:51:28-08:00	2020-11-11T17:18:06+00:00	2020-11-14T07:59:59+00:00	-3	8s642qlvwtzz61s@marketplace.amazon.com	Latha	+1 480-618-5344 ext. 74759	ABR001	Delivery by Thursday | Arabella Bouquets 12 Stems of Fresh Cut Red Roses in a Free Designer Glass Vase	1	0	1	Expedited	Ann Ittoop	2 BIRCHWOOD CT			EAST HANOVER	NJ	07936-3140	US		Happy Anniversary Ann&George From Mom&Dad	true		Business Price
114-0798303-7115421	56413242683026	2020-11-11T16:54:40+00:00	2020-11-11T08:54:40-08:00	2020-11-11T17:23:00+00:00	2020-11-14T07:59:59+00:00	-3	vlb6k5kvmvvyf6r@marketplace.amazon.com	GERALD BURKE	+1 602-671-6610 ext. 21517	ABR0022	Delivery by Thursday | Arabella Farm Direct Bouquet of 12 Fresh Cut Pink Roses with a Free Glass Vase	1	0	1	Expedited	GLADYS FERRUFINO	1565 RANDALL CT			WOODBRIDGE	VA	22191-3004	US			false		
112-0848123-8817025	11812898829586	2020-11-11T16:55:28+00:00	2020-11-11T08:55:28-08:00	2020-11-11T17:24:08+00:00	2020-11-14T07:59:59+00:00	-3	3l66h1w0hj68189@marketplace.amazon.com	Janet Tallos	+1 602-671-6610 ext. 38392	ABR0022	Delivery by Thursday | Arabella Farm Direct Bouquet of 12 Fresh Cut Pink Roses with a Free Glass Vase	1	0	1	Expedited	Janet Tallos/Josephine Tallos	8932 209TH ST			QUEENS VILLAGE	NY	11427-2223	US		Get Well Soon! From Janet and  Erica	false		
112-8524785-4092212	31490637541250	2020-11-11T16:57:01+00:00	2020-11-11T08:57:01-08:00	2020-11-11T17:26:34+00:00	2020-11-14T07:59:59+00:00	-3	rngntrgjm3wydfg@marketplace.amazon.com	kathy ellis	+1 602-671-6610 ext. 67161	ABR001	Delivery by Thursday | Arabella Bouquets 12 Stems of Fresh Cut Red Roses in a Free Designer Glass Vase	1	0	1	Expedited	Lindsay ellis	4249 RIPKEN CIR E			JACKSONVILLE	FL	32224-9677	US			false		
111-7362058-1129004	58836872482994	2020-11-11T17:22:03+00:00	2020-11-11T09:22:03-08:00	2020-11-11T17:41:15+00:00	2020-11-14T07:59:59+00:00	-3	n0p95tqgnk3lrzs@marketplace.amazon.com	frank murphy	+1 602-671-6610 ext. 23882	ABR001	Delivery by Thursday | Arabella Bouquets 12 Stems of Fresh Cut Red Roses in a Free Designer Glass Vase	1	0	1	Expedited	Sister Francis Virginia	555 PLANTATION ST			WORCESTER	MA	01605-2376	US		Love you Happy birthday     Frank and Nancy.     😍🤘👍🎃	false		
111-2231182-0049036	56638444241378	2020-11-11T17:18:55+00:00	2020-11-11T09:18:55-08:00	2020-11-11T17:46:27+00:00	2020-11-14T07:59:59+00:00	-3	tq1bv93f27r7lhq@marketplace.amazon.com	Antara Basu-Zych	+1 619-854-2705 ext. 57682	ABR0033	Delivery by Thursday | Arabella Farm Direct Bouquet of 12 Fresh Cut Orange Roses with a Free Glass Vase	1	0	1	Expedited	Shila Bhattacharya	613 MANHASSET CT			WALNUT CREEK	CA	94598-4016	US		Dear Shilamashi, Sujana, and Debika, My deep, deep condolences. Kaku will be greatly missed. Wishing you strength through your grief and healing. With love from all of us, Rinti and the Zychs. From Antara Basu-Zych	false		
111-7079062-2114602	29231269719658	2020-11-11T17:28:44+00:00	2020-11-11T09:28:44-08:00	2020-11-11T17:59:15+00:00	2020-11-14T07:59:59+00:00	-3	10fm9z3mzdn9ltm@marketplace.amazon.com	magda diman	+1 415-851-9136 ext. 14644	ABR0022	Delivery by Thursday | Arabella Farm Direct Bouquet of 12 Fresh Cut Pink Roses with a Free Glass Vase	1	0	1	Expedited	Magda L Diman	20 LINDA LN			PLATTSBURGH	NY	12901-5724	US			false		
111-6760665-8781846	64528311680530	2020-11-11T17:59:16+00:00	2020-11-11T09:59:16-08:00	2020-11-11T18:00:08+00:00	2020-11-14T07:59:59+00:00	-3	59038tsvpjw5w6q@marketplace.amazon.com	Joel Pelkey-Blum	+1 929-436-4790 ext. 26233	ABR0022	Delivery by Thursday | Arabella Farm Direct Bouquet of 12 Fresh Cut Pink Roses with a Free Glass Vase	1	0	1	Expedited	Brittany Gray	90 SYCAMORE ST APT # 3			PROVIDENCE	RI	02909-1930	US		Happy birthday, Brittany Really wanted something to arrive closer “the day” :) It’s going to be a fantastic and jolly good year for you! Everything will be coming up roses.. With love, Joel  From Joel Pelkey-Blum	false		
113-6796443-7189818	61943847480458	2020-11-11T17:54:39+00:00	2020-11-11T09:54:39-08:00	2020-11-11T18:23:27+00:00	2020-11-14T07:59:59+00:00	-3	bzvd707lgzhtk40@marketplace.amazon.com	Marilyn	+1 602-671-6610 ext. 37117	ABM022	Delivery by Thursday | Purple Extravagance Bouquet by Arabella Bouquets	1	0	1	Expedited	Victoria Moore	2255 WILDOAK WAY APT 109			CORONA	CA	92879-6546	US		Thank you for putting up with my shit. I love you. From Jon	false		
112-1748183-6573869	42120505350338	2020-11-11T17:58:16+00:00	2020-11-11T09:58:16-08:00	2020-11-11T18:23:50+00:00	2020-11-14T07:59:59+00:00	-3	yhjyxcdkl9pvssg@marketplace.amazon.com	Andrea L. Allen	+1 480-618-5344 ext. 93180	ABR0022	Delivery by Friday | Arabella Farm Direct Bouquet of 12 Fresh Cut Pink Roses with a Free Glass Vase	1	0	1	Expedited	Belinda Phares	4603 WILLOW POND CT			SUGAR LAND	TX	77479-3088	US		Much love and a Speedy Recovery, Belinda! Andie and Arnie From Andrea L. Allen	false		
111-5400834-9413034	25382435865218	2020-11-11T17:56:32+00:00	2020-11-11T09:56:32-08:00	2020-11-11T18:26:57+00:00	2020-11-14T07:59:59+00:00	-3	3l6068yp2hjry13@marketplace.amazon.com	Eric Lee Prandl	+1 213-442-1463 ext. 53883	ABR0022	Delivery by Friday | Arabella Farm Direct Bouquet of 12 Fresh Cut Pink Roses with a Free Glass Vase	1	0	1	Expedited	Courtney Burge	505 NE 30TH ST APT 301			MIAMI	FL	33137-4303	US			false		
112-1894662-0493036	56431943198458	2020-11-11T18:01:36+00:00	2020-11-11T10:01:36-08:00	2020-11-11T18:28:53+00:00	2020-11-14T07:59:59+00:00	-3	mqsnb6r31yys765@marketplace.amazon.com	KARLENE WRIGHT	+1 480-618-5344 ext. 41028	ABM010	Delivery by Friday | The Spring Fling Bouquet by Arabella Bouquets with a Free Designer Glass Vase	1	0	1	Expedited	Marsha Rocke	6869 CARAVAN CT STE 217			COLUMBIA	MD	21044-4073	US		Wishing you a very speedy recovery Marsha! Thank you for being you :) Your Friends at Aesthetic Family Dentistry of Columbia. Karlene, Lauren, Joanna, Shai, Shelby, Dahee, Alicia, Denise & Lori! From Dr. Wright's Office	false		
113-2937497-8874669	55497641510354	2020-11-11T18:05:51+00:00	2020-11-11T10:05:51-08:00	2020-11-11T18:29:35+00:00	2020-11-14T07:59:59+00:00	-3	xyjy80znqxdb2vf@marketplace.amazon.com	Dennis McMichael	+1 929-436-4790 ext. 26251	ABM022	Delivery by Thursday | Purple Extravagance Bouquet by Arabella Bouquets	1	0	1	Expedited	Amanda Snelgrove	3702 CHANEL RD			ANNANDALE	VA	22003-2023	US		Congratulations on the new addition!!! Hope you are doing well! From Dennis McMichael, CVP & the Shirlington Team From Dennis McMichael, CVP & the Shirlington Team	false		
111-4447836-1672207	15694217030186	2020-11-11T18:02:20+00:00	2020-11-11T10:02:20-08:00	2020-11-11T18:30:33+00:00	2020-11-14T07:59:59+00:00	-3	2j0w8qbfskyqjmb@marketplace.amazon.com	Nathan Latimer	+1 480-618-5344 ext. 79151	ABM010	Delivery by Friday | The Spring Fling Bouquet by Arabella Bouquets with a Free Designer Glass Vase	1	0	1	Expedited	Audrey Horvitz	30 PICKET FENCE			PLYMOUTH	MA	02360-6605	US		Congratulations on beginning your dental implant experience. We appreciate you as a patient!  Dr. Kissell & Dr. Latimer From Nathan Latimer	false		
111-5690180-3786608	15621865871170	2020-11-11T18:03:40+00:00	2020-11-11T10:03:40-08:00	2020-11-11T18:33:16+00:00	2020-11-14T07:59:59+00:00	-3	n9g843dhqmvvltx@marketplace.amazon.com	Marcie E Winitt	+1 619-854-2705 ext. 83795	ABR0033	Delivery by Friday | Arabella Farm Direct Bouquet of 12 Fresh Cut Orange Roses with a Free Glass Vase	1	0	1	Expedited	Rebecca Hull	2 SORREL CT			CLIFTON PARK	NY	12065-6786	US		I hope these brighten your day - I love you, sissy! From Marcie E Winitt	false		
111-5329469-4226621	62647499869298	2020-11-11T18:06:32+00:00	2020-11-11T10:06:32-08:00	2020-11-11T18:33:42+00:00	2020-11-14T07:59:59+00:00	-3	2j0w8qbfskyqjmb@marketplace.amazon.com	Nathan Latimer	+1 602-671-6610 ext. 43996	ABM010	Delivery by Friday | The Spring Fling Bouquet by Arabella Bouquets with a Free Designer Glass Vase	1	0	1	Expedited	Donna Lapsley	60 UNCLE BARNEYS RD			WEST DENNIS	MA	02670-2316	US		Congratulations on beginning your dental implant experience. We appreciate you as a patient!  Dr. Groom & Dr. Latimer From Nathan Latimer	false		
113-1405061-6973834	25365788309970	2020-11-11T18:09:04+00:00	2020-11-11T10:09:04-08:00	2020-11-11T18:34:18+00:00	2020-11-14T07:59:59+00:00	-3	s2flyf1m46lxp5v@marketplace.amazon.com	Janet M. Thompson	+1 213-442-1463 ext. 24699	ABM010	Delivery by Friday | The Spring Fling Bouquet by Arabella Bouquets with a Free Designer Glass Vase	1	0	1	Expedited	Liz Smith	62 PEWTER CIR			CHESTER	NY	10918-3135	US		Miss you! Hope we can be together soon. Love Janet & Eileen From Janet & Eileen	false		
113-3968186-1229850	23616692284922	2020-11-11T18:09:18+00:00	2020-11-11T10:09:18-08:00	2020-11-11T18:39:05+00:00	2020-11-14T07:59:59+00:00	-3	wmdpjb5cqdtnn57@marketplace.amazon.com	candice K. Fischer	+1 213-442-1463 ext. 24515	ABR0022	Delivery by Friday | Arabella Farm Direct Bouquet of 12 Fresh Cut Pink Roses with a Free Glass Vase	1	0	1	Expedited	Stephanie Fischer	327 EVANS AVE			OCEANSIDE	NY	11572-3803	US		Mazel Tov! So happy From Love Mom	false		
112-5062381-3161041	68987694345794	2020-11-11T18:13:51+00:00	2020-11-11T10:13:51-08:00	2020-11-11T18:43:29+00:00	2020-11-14T07:59:59+00:00	-3	nh6cpx75y831pjf@marketplace.amazon.com	Damion Matadin	+1 619-854-2705 ext. 61588	ABR001	Delivery by Friday | Arabella Bouquets 12 Stems of Fresh Cut Red Roses in a Free Designer Glass Vase	1	0	1	Expedited	LizAna Patrick	100 MARK LN UNIT E2			WATERBURY	CT	06704-2441	US			false		
112-0578049-9800204	59904509909298	2020-11-11T18:20:26+00:00	2020-11-11T10:20:26-08:00	2020-11-11T18:50:45+00:00	2020-11-14T07:59:59+00:00	-3	p99wdgr1b59336v@marketplace.amazon.com	Rhonda Gray	+1 602-671-6610 ext. 11442	ABR0066	Delivery by Monday | Arabella Bouquets 12 Stems of Fresh Cut White Roses in a Free Designer Glass Vase	1	0	1	Expedited	Tosha Ayo Alston	FROM RHONDA WITH LOVE AND LIGHT	17658 S GILBERT DR		LOCKPORT	IL	60441-1100	US			false		
113-2657951-1833018	21367585769818	2020-11-11T18:23:16+00:00	2020-11-11T10:23:16-08:00	2020-11-11T18:51:08+00:00	2020-11-14T07:59:59+00:00	-3	zpt5pw8qn6l4k2s@marketplace.amazon.com	Myrna Garron	+1 213-442-1463 ext. 77019	ABM010	Delivery by Friday | The Spring Fling Bouquet by Arabella Bouquets with a Free Designer Glass Vase	1	0	1	Expedited	Emily Zucal and Courtney Garron	160 S MIDDLE NECK RD APT 1A			GREAT NECK	NY	11021-4601	US		Dear Courtney, Happy birthday.  Enjoy your special day!  Love, Mom and Dad From Myrna Garron	false		
112-6736897-9352223	26283639537546	2020-11-11T18:52:21+00:00	2020-11-11T10:52:21-08:00	2020-11-11T18:53:33+00:00	2020-11-14T07:59:59+00:00	-3	q71r929ttx9xncx@marketplace.amazon.com	Sandra VerCrouse	+1 619-854-2705 ext. 82489	ABR004	Delivery by Monday | Arabella Farm Direct Bouquet of 12 Fresh Cut Yellow Roses with a Free Glass Vase	1	0	1	Expedited	A. Jean Tyre	300 BLAKE BLVD			PINEHURST	NC	28374-8474	US			false		
112-9353429-5406642	16637453015722	2020-11-11T18:24:51+00:00	2020-11-11T10:24:51-08:00	2020-11-11T18:54:24+00:00	2020-11-14T07:59:59+00:00	-3	5dzn5qrxc6tcq2f@marketplace.amazon.com	Susan	+1 619-854-2705 ext. 22044	ABR0022	Arabella Farm Direct Bouquet of 12 Fresh Cut Pink Roses with a Free Glass Vase	1	0	1	Expedited	Melanie Floyd	23535 PENINSULA PT			FRANKSTON	TX	75763-4813	US		Meanie! Happy Thanksgiving!  I am thankful for you! LLL!!! Susan From Susan	false		
112-6399411-2868217	66169357527562	2020-11-11T18:26:21+00:00	2020-11-11T10:26:21-08:00	2020-11-11T18:56:05+00:00	2020-11-14T07:59:59+00:00	-3	5dzn5qrxc6tcq2f@marketplace.amazon.com	Susan	+1 213-442-1463 ext. 48768	ABR0022	Arabella Farm Direct Bouquet of 12 Fresh Cut Pink Roses with a Free Glass Vase	1	0	1	Expedited	Margaret Magwire	15845 NE 156TH ST			WOODINVILLE	WA	98072-8960	US		Margaret! Happy Thanksgiving ... I am thankful for you! LLL!!! Susan From Susan	false		
114-5169028-0373055	38096530551154	2020-11-11T18:36:58+00:00	2020-11-11T10:36:58-08:00	2020-11-11T19:07:40+00:00	2020-11-14T07:59:59+00:00	-3	53syzdrbpbfjbvz@marketplace.amazon.com	Vladimir Kleynerman	+1 480-618-5344 ext. 18763	ABR001	Delivery by Friday | Arabella Bouquets 12 Stems of Fresh Cut Red Roses in a Free Designer Glass Vase	1	0	1	Expedited	Ella Kleynerman	21 WESTERVELT PL			WESTWOOD	NJ	07675-1921	US			false		
111-3880951-3337030	06247882018442	2020-11-11T18:43:37+00:00	2020-11-11T10:43:37-08:00	2020-11-11T19:10:55+00:00	2020-11-14T07:59:59+00:00	-3	2j0w8qbfskyqjmb@marketplace.amazon.com	Nathan Latimer	+1 619-854-2705 ext. 82319	ABM010	Delivery by Friday | The Spring Fling Bouquet by Arabella Bouquets with a Free Designer Glass Vase	1	0	1	Expedited	Dorothy Knope	803 TEATICKET HWY			EAST FALMOUTH	MA	02536-5847	US		Congratulations on beginning your dental implant experience. We appreciate you as a patient!  DR Latimer & Staff From Nathan Latimer	false		
111-2742802-9154601	63494680242130	2020-11-11T18:44:49+00:00	2020-11-11T10:44:49-08:00	2020-11-11T19:11:17+00:00	2020-11-14T07:59:59+00:00	-3	tj4wl4346r7kckf@marketplace.amazon.com	Roberta Miles	+1 619-854-2705 ext. 16682	ABR0022	Arabella Farm Direct Bouquet of 12 Fresh Cut Pink Roses with a Free Glass Vase	1	0	1	Expedited	Lucille Brunson Room 12	1352 WELLBROOK CIR NE	MORNINGSIDE OF CONYERS RM 12		CONYERS	GA	30012-3872	US			false		
114-4913853-8247463	58937878750066	2020-11-11T18:48:36+00:00	2020-11-11T10:48:36-08:00	2020-11-11T19:14:13+00:00	2020-11-14T07:59:59+00:00	-3	nlssjpl6ngv9dvd@marketplace.amazon.com	Abdo Naji	0013138768595	ABR001	Delivery by Friday | Arabella Bouquets 12 Stems of Fresh Cut Red Roses in a Free Designer Glass Vase	1	0	1	Expedited	Hager Mohamed Mothana	2390 DANFORTH ST			HAMTRAMCK	MI	48212-3654	US		I A S  I MISS YOU SO MUCH MY LOVE From Abdo Naji	false		
114-4654010-4161037	68654035421890	2020-11-11T18:51:15+00:00	2020-11-11T10:51:15-08:00	2020-11-11T19:19:35+00:00	2020-11-14T07:59:59+00:00	-3	0qlg8pm1g9vg92b@marketplace.amazon.com	Bonnie D Gordon Rabinowitz	+1 602-671-6610 ext. 73293	ABM022	Delivery by Friday | Purple Extravagance Bouquet by Arabella Bouquets	1	0	1	Expedited	Diane and Howard Gartner	2 SPRUCE CT			OWINGS MILLS	MD	21117-1423	US		Dear Diane and Howard, We miss you! Love, Bonnie and Marc From Bonnie D Gordon Rabinowitz	false		
111-4475749-1120238	42488396131490	2020-11-11T18:53:13+00:00	2020-11-11T10:53:13-08:00	2020-11-11T19:22:05+00:00	2020-11-14T07:59:59+00:00	-3	b58my00jt2btlz4@marketplace.amazon.com	Jayne  Godsey	+1 602-671-6610 ext. 73995	ABM022	Delivery by Friday | Purple Extravagance Bouquet by Arabella Bouquets	1	0	1	Expedited	Carrie Hyatt	7810 DAVINCI LN			CHARLOTTE	NC	28226-3929	US		Get well soon, Love, Bobby & Jayne From Bobby & Jayne	false		
114-2033243-0696254	31857546859090	2020-11-11T19:00:30+00:00	2020-11-11T11:00:30-08:00	2020-11-11T19:28:25+00:00	2020-11-14T07:59:59+00:00	-3	cnwx0p3jmtf8lmt@marketplace.amazon.com	Therese Thourot	+1 619-854-2705 ext. 40234	ABR004	Delivery by Monday | Arabella Farm Direct Bouquet of 12 Fresh Cut Yellow Roses with a Free Glass Vase	1	0	1	Expedited	Patricia Bercher	THE FRANCISCAN CENTER	4111 N HOLLAND SYLVANIA RD		TOLEDO	OH	43623-2503	US		Praying for your continued healing. With all of our love, Your family From Therese Thourot	false		
114-9599612-5379454	21764706015058	2020-11-11T19:06:10+00:00	2020-11-11T11:06:10-08:00	2020-11-11T19:33:54+00:00	2020-11-14T07:59:59+00:00	-3	ghjtcf1dz4cw9g1@marketplace.amazon.com	Kathryn Aberman	+1 415-851-9136 ext. 98580	ABR0055	Delivery by Friday | Arabella Farm Direct Bouquet of 12 Stems of Fresh Cut Hot Pink Roses in a Free Designer Glass Vase	1	0	1	Expedited	Kathryn Aberman	4 Sixth Place			Garden City	NY	11530	US			false		
114-9599612-5379454	55695722173642	2020-11-11T19:06:10+00:00	2020-11-11T11:06:10-08:00	2020-11-11T19:33:54+00:00	2020-11-14T07:59:59+00:00	-3	ghjtcf1dz4cw9g1@marketplace.amazon.com	Kathryn Aberman	+1 415-851-9136 ext. 98580	ABR0022	Arabella Farm Direct Bouquet of 12 Fresh Cut Pink Roses with a Free Glass Vase	1	0	1	Expedited	Kathryn Aberman	4 Sixth Place			Garden City	NY	11530	US			false		
111-0684220-5212262	42018499651738	2020-11-11T19:08:54+00:00	2020-11-11T11:08:54-08:00	2020-11-11T19:39:17+00:00	2020-11-14T07:59:59+00:00	-3	29463mv22knjnrt@marketplace.amazon.com	Nicole Jones	+1 602-671-6610 ext. 25422	ABR0022	Arabella Farm Direct Bouquet of 12 Fresh Cut Pink Roses with a Free Glass Vase	1	0	1	Expedited	Sherry Jones	1817 2ND TER			HATTIESBURG	MS	39401-7526	US			false		
114-8461544-2229862	17081031753042	2020-11-11T19:23:52+00:00	2020-11-11T11:23:52-08:00	2020-11-11T19:52:29+00:00	2020-11-14T07:59:59+00:00	-3	zh8j5ymcszcckwc@marketplace.amazon.com	Elaine Pierce	+1 415-851-9136 ext. 82133	ABM010	Delivery by Friday | The Spring Fling Bouquet by Arabella Bouquets with a Free Designer Glass Vase	1	0	1	Expedited	Mary Ann Crump	509 LUMBEE RD			SOUTHPORT	NORTH CAROLINA	28461-8999	US			false		
113-5078603-0217848	59548038843962	2020-11-11T19:28:04+00:00	2020-11-11T11:28:04-08:00	2020-11-11T19:55:25+00:00	2020-11-14T07:59:59+00:00	-3	5csngx46892cx00@marketplace.amazon.com	Eve	+1 929-436-4790 ext. 56437	ABM022	Delivery by Friday | Purple Extravagance Bouquet by Arabella Bouquets	1	0	1	Expedited	Carolyn King	4 EDGEMERE AVE			WARWICK	RI	02889-4008	US		Happy Birthday Mom!! Happy Birthday Grandma!!! From Scott, Eve, Scott, Josh and Juliana	false		
111-0735468-8215400	55821429611762	2020-11-11T19:26:13+00:00	2020-11-11T11:26:13-08:00	2020-11-11T19:55:35+00:00	2020-11-14T07:59:59+00:00	-3	2g4myv76x79pys3@marketplace.amazon.com	joe cassidy	+1 213-442-1463 ext. 76860	ABM022	Delivery by Friday | Purple Extravagance Bouquet by Arabella Bouquets	1	0	1	Expedited	Bethan Nowak	573 ROUTE 196			TOBYHANNA	PA	18466-8354	US		Love you Bunnie 💜💜💜 From Mama 🥰	false		
114-6179059-6213820	38613477344018	2020-11-11T19:32:00+00:00	2020-11-11T11:32:00-08:00	2020-11-11T20:00:38+00:00	2020-11-14T07:59:59+00:00	-3	dstwtqcw7gq5t8v@marketplace.amazon.com	Juanita Geiger	+1 619-854-2705 ext. 38069	ABM010	Delivery by Friday | The Spring Fling Bouquet by Arabella Bouquets with a Free Designer Glass Vase	1	0	1	Expedited	Jenny wakefield	3832 PLEASANT PLAINS RD			MATTHEWS	NC	28104-5958	US		Enjoy your gift! From Juanita Geiger	false		
111-3906354-6071440	31699725880706	2020-11-11T19:40:33+00:00	2020-11-11T11:40:33-08:00	2020-11-11T20:05:09+00:00	2020-11-14T07:59:59+00:00	-3	1wcvjqbc1mksby5@marketplace.amazon.com	nancy Dedenbach	+1 929-436-4790 ext. 62552	ABR0022	Arabella Farm Direct Bouquet of 12 Fresh Cut Pink Roses with a Free Glass Vase	1	0	1	Expedited	Tracy Parent	1632 NE 5TH CT			FORT LAUDERDALE	FL	33301-1330	US			false		
111-6764271-4970601	29959346174098	2020-11-11T20:06:18+00:00	2020-11-11T12:06:18-08:00	2020-11-11T20:07:11+00:00	2020-11-14T07:59:59+00:00	-3	2j0w8qbfskyqjmb@marketplace.amazon.com	Nathan Latimer	+1 602-671-6610 ext. 05504	ABM010	Delivery by Friday | The Spring Fling Bouquet by Arabella Bouquets with a Free Designer Glass Vase	1	0	1	Expedited	Joan Shemit	58 ANTHIERS WAY			EDGARTOWN	MA	02539-6713	US		Congratulations on beginning your dental implant experience. We appreciate you as a patient!  Dr. Herman & Dr. Latimer From Nathan Latimer	false		
111-7249270-5348217	08874050199994	2020-11-11T19:42:36+00:00	2020-11-11T11:42:36-08:00	2020-11-11T20:07:37+00:00	2020-11-14T07:59:59+00:00	-3	8h7hxgtypppr1df@marketplace.amazon.com	Joi Johnson	+1 619-854-2705 ext. 56618	ABR0022	Arabella Farm Direct Bouquet of 12 Fresh Cut Pink Roses with a Free Glass Vase	1	0	1	Expedited	LaTanya Brooks	10305 MEADOWLARK LN			SPOTSYLVANIA	VA	22553-7610	US		From Children’s Church. God Bless You. From Carrie Johnson	false		
112-9534256-3511466	01136714082034	2020-11-11T19:53:37+00:00	2020-11-11T11:53:37-08:00	2020-11-11T20:18:32+00:00	2020-11-14T07:59:59+00:00	-3	vzvzsfs25fsnxtc@marketplace.amazon.com	Deborah Stonestreet	+1 213-442-1463 ext. 98553	ABM022	Delivery by Friday | Purple Extravagance Bouquet by Arabella Bouquets	1	0	1	Expedited	Doris Stonestreet	4930 S REGENCY ST			SALT LAKE CITY	UT	84117-6324	US			false		
113-1150912-5983418	49007366829578	2020-11-11T20:01:08+00:00	2020-11-11T12:01:08-08:00	2020-11-11T20:23:54+00:00	2020-11-14T07:59:59+00:00	-3	kb1zhnstm3c2wqy@marketplace.amazon.com	Faldik Family	+1 619-854-2705 ext. 50271	ABR0033	Delivery by Friday | Arabella Farm Direct Bouquet of 12 Fresh Cut Orange Roses with a Free Glass Vase	1	0	1	Expedited	Carol Tolbert	40 GREENS SHADE			SAN ANTONIO	TX	78216-7814	US		Beautiful Carol, we love you. Lifting you and dear Amber up in prayer, so very sorry for the passing of your precious mom. We give thanks to our Heavenly Father for you praying during this Holiday Season. Psalm 139:17-18TPT From Love, Faldik Family	false		
113-8531734-7708252	08970880130778	2020-11-11T20:11:40+00:00	2020-11-11T12:11:40-08:00	2020-11-11T20:37:12+00:00	2020-11-14T07:59:59+00:00	-3	7d1h29rxdfnn07z@marketplace.amazon.com	Arthur Bell	+1 213-442-1463 ext. 30339	ABM022	Delivery by Friday | Purple Extravagance Bouquet by Arabella Bouquets	1	0	1	Expedited	Shirley Bell	176 GORDON WAY S			GRANTS PASS	OR	97527-4514	US		Dear Mom, Thinking of you, and I hope this brightens your day. From Love, Arthur jr and Glenda	false		
114-0996968-9377829	55332160101922	2020-11-11T20:24:44+00:00	2020-11-11T12:24:44-08:00	2020-11-11T20:48:28+00:00	2020-11-14T07:59:59+00:00	-3	h5500455s7dnv4h@marketplace.amazon.com	tom	+1 602-671-6610 ext. 44175	ABM022	Delivery by Friday | Purple Extravagance Bouquet by Arabella Bouquets	1	0	1	Expedited	Nancy Walls	1744 CASTILE ST NW			UNIONTOWN	OH	44685-7395	US		Happy Birthday we LOVE you From Tom & Lois	false		
113-8843627-7081058	47623786117594	2020-11-11T20:30:52+00:00	2020-11-11T12:30:52-08:00	2020-11-11T21:00:59+00:00	2020-11-14T07:59:59+00:00	-3	n2z2gjg5prpbtsk@marketplace.amazon.com	Pam Meehan	+1 213-442-1463 ext. 68866	ABR0033	Delivery by Friday | Arabella Farm Direct Bouquet of 12 Fresh Cut Orange Roses with a Free Glass Vase	1	0	1	Expedited	Ramona Meehan	12088 MADISON CIR			ROGERS	MN	55374-6514	US		We are so sorry KC passed away so young!  We are all here for you:  your human children, grandchildren, great grandson and furry grandchildren! From Pam and Nicole	false		
113-0745121-2140252	23190343681986	2020-11-11T20:34:27+00:00	2020-11-11T12:34:27-08:00	2020-11-11T21:03:36+00:00	2020-11-14T07:59:59+00:00	-3	t3952r9whwgn4r2@marketplace.amazon.com	Nancy L. Hershgold	+1 213-442-1463 ext. 11068	ABR0055	Delivery by Friday | Arabella Farm Direct Bouquet of 12 Stems of Fresh Cut Hot Pink Roses in a Free Designer Glass Vase	1	0	1	Expedited	Bubba Hershgold	1040 VALLEY RIM RD			MCCALL	ID	83638-4614	US		To my favorite Hershgold!  Happy birthday Bubba! From Nancy L. Nichols	false		
113-0801467-1461011	54122493051074	2020-11-11T20:45:29+00:00	2020-11-11T12:45:29-08:00	2020-11-11T21:12:38+00:00	2020-11-14T07:59:59+00:00	-3	1fgbwdjcl77n1x3@marketplace.amazon.com	mary reid	+1 480-618-5344 ext. 91772	ABR0022	Arabella Farm Direct Bouquet of 12 Fresh Cut Pink Roses with a Free Glass Vase	1	0	1	Expedited	Gail Todd	12 MOUNTAIN LAURELS DR APT 106			NASHUA	NH	03062-2229	US		Hi Gail, I wish I could have sent a lasagna but these pretty roses will have to do.  Best wishes for a full and speedy recovery!!!  Love ya’, Mary Reid	false		
111-7647974-9124266	36836596580290	2020-11-11T20:44:21+00:00	2020-11-11T12:44:21-08:00	2020-11-11T21:12:54+00:00	2020-11-14T07:59:59+00:00	-3	swwkw96m6x2vmd7@marketplace.amazon.com	Jennifer Thirtle	+1 619-854-2705 ext. 34696	ABM022	Delivery by Friday | Purple Extravagance Bouquet by Arabella Bouquets	1	0	1	Expedited	Yolanda Ramirez	8425 QUIETUD ST			EDINBURG	TX	78542-4748	US		feliz cumpleaños  Love Theodore From Theodore Ramirez	false		
113-0943619-9581051	20290561913970	2020-11-11T20:44:03+00:00	2020-11-11T12:44:03-08:00	2020-11-11T21:14:40+00:00	2020-11-14T07:59:59+00:00	-3	3yx55k6v7xz31tj@marketplace.amazon.com	GREGORIO LIRIANO	+1 929-436-4790 ext. 06570	ABR0055	Delivery by Friday | Arabella Farm Direct Bouquet of 12 Stems of Fresh Cut Hot Pink Roses in a Free Designer Glass Vase	1	0	1	Expedited	Ana Polanco	1012 N 6TH ST			READING	PA	19601-1812	US			false		
114-4744460-0592207	18662025635034	2020-11-11T20:46:20+00:00	2020-11-11T12:46:20-08:00	2020-11-11T21:14:55+00:00	2020-11-14T07:59:59+00:00	-3	jcbm65gczkwcccl@marketplace.amazon.com	Kelly	+1 480-618-5344 ext. 46980	ABR0022	Arabella Farm Direct Bouquet of 12 Fresh Cut Pink Roses with a Free Glass Vase	1	0	1	Expedited	Rhonda Babbitt	119 S DAVID CT			POST FALLS	ID	83854-9678	US		Happy Birthday Mom! I love you! From Kelly	false		
113-3802635-4497064	16246677140506	2020-11-11T20:59:56+00:00	2020-11-11T12:59:56-08:00	2020-11-11T21:28:14+00:00	2020-11-14T07:59:59+00:00	-3	5ml57b8k20jtxvq@marketplace.amazon.com	monica huerta	+1 929-436-4790 ext. 64536	ABM026	Delivery by Monday | The Amour Bouquet by Arabella Bouquets	1	0	1	Expedited	Alicia huerta	450 CARDINAL CT			KISSIMMEE	FL	34759-4423	US		Feliz cumpleaños abuela !!! Te amamos mucho y te extrañamos, que Dios te bendiga siempre y te cuide, pronto te volveremos a ver. Tus nietos Juandi y Paloma De monica huerta	false		
112-1954650-3139464	33066644488530	2020-11-11T20:59:52+00:00	2020-11-11T12:59:52-08:00	2020-11-11T21:28:42+00:00	2020-11-14T07:59:59+00:00	-3	0hltl77x0gmy9n3@marketplace.amazon.com	Peter Pero	+1 619-854-2705 ext. 08456	ABR0022	Arabella Farm Direct Bouquet of 12 Fresh Cut Pink Roses with a Free Glass Vase	1	0	1	Expedited	Lisa Wayne Falk	10863 BRANT RESERVATION RD			BRANT	NY	14027-0099	US		Happy Birthday to the most special Mom and Oma! Hope your day is as lovely and beautiful as you! We love and miss you so much! From Peter, Nicole, Peter Jr, and Kiera Pero	false		
112-5359441-9616213	62876191768338	2020-11-11T21:07:29+00:00	2020-11-11T13:07:29-08:00	2020-11-11T21:32:41+00:00	2020-11-14T07:59:59+00:00	-3	419b3p41ljt9tg7@marketplace.amazon.com	jeannette gutierrez	+1 602-671-6610 ext. 58478	ABM026	Delivery by Monday | The Amour Bouquet by Arabella Bouquets	1	0	1	Expedited	Josephine Gutierrez	11573 BAYLOR DR			NORWALK	CA	90650-6943	US		Happy Birthday Mom!!!  We hope you have a great day and are sending you lots of love!! Hope all your birthday wishes come true! From Jeannette and Malek	false		
113-0279974-9488221	18335465900538	2020-11-11T21:17:16+00:00	2020-11-11T13:17:16-08:00	2020-11-11T21:39:51+00:00	2020-11-14T07:59:59+00:00	-3	kdb2vk72dfppwv7@marketplace.amazon.com	Cindy Goldman	+1 619-854-2705 ext. 23305	ABR0022	Arabella Farm Direct Bouquet of 12 Fresh Cut Pink Roses with a Free Glass Vase	1	0	1	Expedited	Mrs. Joyce Suckerman	2184 SILENT ECHOES DR			HENDERSON	NV	89044-0182	US		Happy Birthday Joyce From Cindy and Michael	false		
113-5172590-1133840	23181660454474	2020-11-11T21:14:38+00:00	2020-11-11T13:14:38-08:00	2020-11-11T21:44:43+00:00	2020-11-14T07:59:59+00:00	-3	44ys9ds5h9254v0@marketplace.amazon.com	Mejlo	+1 602-671-6610 ext. 96746	ABR001	Delivery by Friday | Arabella Bouquets 12 Stems of Fresh Cut Red Roses in a Free Designer Glass Vase	1	0	1	Expedited	Erika Willey	703 E 3RD NORTH ST APT L6			SUMMERVILLE	SC	29485-7055	US			false		
113-2776151-2917843	22817028142474	2020-11-11T21:25:26+00:00	2020-11-11T13:25:26-08:00	2020-11-11T21:53:27+00:00	2020-11-14T07:59:59+00:00	-3	vb8vpxqy1tfjnds@marketplace.amazon.com	Darcy J Williams	+1 929-436-4790 ext. 90093	ABR0022	Arabella Farm Direct Bouquet of 12 Fresh Cut Pink Roses with a Free Glass Vase	1	0	1	Expedited	Amanda Keibler	8466 SLEE RD			ONSTED	MI	49265-9535	US		Amanda,   We appreciate you so very much!  You are not only our co-worker, but also our friend.  We love you! From Darcy and Kaite	false		
111-1007518-0744210	17738548393698	2020-11-11T21:33:02+00:00	2020-11-11T13:33:02-08:00	2020-11-11T22:03:15+00:00	2020-11-14T07:59:59+00:00	-3	8s2vd5y1dq3v1wc@marketplace.amazon.com	Hongliang Guo	+1 929-436-4790 ext. 49856	ABR0055	Delivery by Friday | Arabella Farm Direct Bouquet of 12 Stems of Fresh Cut Hot Pink Roses in a Free Designer Glass Vase	1	0	1	Expedited	Yadan Tang	2131 Creek Bank Dr			Columbus	in	47201	US		Happy Birthday! From Hongliang Guo	false		
113-2901758-4334633	30085046203458	2020-11-11T21:42:29+00:00	2020-11-11T13:42:29-08:00	2020-11-11T22:06:24+00:00	2020-11-14T07:59:59+00:00	-3	ws2srymgt6vdn5h@marketplace.amazon.com	Steve Heitmiller	+1 619-854-2705 ext. 49623	ABR0066	Delivery by Monday | Arabella Bouquets 12 Stems of Fresh Cut White Roses in a Free Designer Glass Vase	1	0	1	Expedited	Dawn Beck	7268 ACORN GLEN LOOP			ROSEVILLE	CA	95747-8155	US		Dawn, I am so sorry for your loss.  Sending you lots of love and hugs. Love, Nena From Nena Heitmiller	false		
113-3455862-4568213	29308380386602	2020-11-11T21:38:26+00:00	2020-11-11T13:38:26-08:00	2020-11-11T22:07:20+00:00	2020-11-14T07:59:59+00:00	-3	sq3qbhw08bwlbmk@marketplace.amazon.com	Rosemary Ybarra-Hernandez	+1 619-854-2705 ext. 24500	ABR0055	Delivery by Friday | Arabella Farm Direct Bouquet of 12 Stems of Fresh Cut Hot Pink Roses in a Free Designer Glass Vase	1	0	1	Expedited	Irene Diaz	921 W VERDE LN			PHOENIX	AZ	85013-4030	US		Happy Birthday Comadre - Even though - YOU are MY gift!  Thank you for always being there for me. Love you Mucho!!! From Rosemary Ybarra-Hernandez	false		
111-0161509-5821024	70142295748066	2020-11-11T21:48:08+00:00	2020-11-11T13:48:08-08:00	2020-11-11T22:10:52+00:00	2020-11-14T07:59:59+00:00	-3	c7nx3yb6gf0qsfn@marketplace.amazon.com	Jacob Odom	+1 213-442-1463 ext. 05337	ABR0022	Arabella Farm Direct Bouquet of 12 Fresh Cut Pink Roses with a Free Glass Vase	1	0	1	Expedited	Jacob Odom	3615 COUNTY ROAD 511			QUITMAN	MS	39355-8367	US		I know I don’t tell you near as much as I should but I appreciate every single thing you have done for me. Your the best mom anyone could ask for. I love you so, so much. Been missing you and home more than ever. From Your son	false		
112-1231130-4342642	19541275191346	2020-11-11T21:49:35+00:00	2020-11-11T13:49:35-08:00	2020-11-11T22:12:12+00:00	2020-11-14T07:59:59+00:00	-3	69d9sq842b3fv3n@marketplace.amazon.com	shannon e. sommers	+1 213-442-1463 ext. 71529	ABM022	Delivery by Friday | Purple Extravagance Bouquet by Arabella Bouquets	1	0	1	Expedited	OU Medical Center Room 760	700 NE 13TH ST			OKLAHOMA CITY	OK	73104-5004	US		Love you Misty!! We hope you get well soon!! Love, Pat, Paul & BC From shannon e. sommers	false		
112-4595545-3629824	62489064386130	2020-11-11T21:44:21+00:00	2020-11-11T13:44:21-08:00	2020-11-11T22:13:00+00:00	2020-11-14T07:59:59+00:00	-3	h0q30ntdsk1rnyt@marketplace.amazon.com	Rae Russell	+1 213-442-1463 ext. 25806	ABM022	Delivery by Friday | Purple Extravagance Bouquet by Arabella Bouquets	1	0	1	Expedited	Alice Grant	2290 INLAND DR APT 14			NORTH BEND	OR	97459-1240	US		Happy Flowers From Rae Russell	false		
113-5553793-4384254	25200616544018	2020-11-11T21:48:18+00:00	2020-11-11T13:48:18-08:00	2020-11-11T22:13:12+00:00	2020-11-14T07:59:59+00:00	-3	7rqqk4qpvcfjytl@marketplace.amazon.com	Linda Gray	+1 602-671-6610 ext. 77277	ABR0022	Arabella Farm Direct Bouquet of 12 Fresh Cut Pink Roses with a Free Glass Vase	1	0	1	Expedited	Cristal FitzGerald	197 FAIRFIELD DR			JEFFERSON	GA	30549-7412	US		We were so sorry to hear about your mom. Please let us know if there's anything we can do, Love Linda & Kenny Gray	false		
112-7934704-0573046	58124411804234	2020-11-11T21:50:30+00:00	2020-11-11T13:50:30-08:00	2020-11-11T22:20:22+00:00	2020-11-14T07:59:59+00:00	-3	g4wcshv4skbxmj3@marketplace.amazon.com	Robert Fogarty	+1 619-854-2705 ext. 66252	ABM020	Delivery by Saturday | The Sunset Bouquet by Arabella Bouquets	1	0	1	Expedited	Robert Fogarty	2806 Oak Point Drive			Middleborough	MA	02346	US			false		
113-6312719-1289817	05043327298842	2020-11-11T22:13:33+00:00	2020-11-11T14:13:33-08:00	2020-11-11T22:40:12+00:00	2020-11-14T07:59:59+00:00	-3	jfz2ftznc500wrx@marketplace.amazon.com	Debra D Mullowney	+1 213-442-1463 ext. 47280	ABM022	Delivery by Friday | Purple Extravagance Bouquet by Arabella Bouquets	1	0	1	Expedited	Oleta Olson	1000 FOUNTAIN TERRACE DR UNIT 311			LEWISTOWN	MT	59457-1974	US		Happy Birthday, Mom!  Love You,     Marc and Deb From Debra D Mullowney	false		
111-0769094-3577842	55661073602370	2020-11-11T22:19:53+00:00	2020-11-11T14:19:53-08:00	2020-11-11T22:47:38+00:00	2020-11-14T07:59:59+00:00	-3	fjqxf3f0k1qx34f@marketplace.amazon.com	Cynthia Fay	+1 602-671-6610 ext. 95789	ABR0055	Delivery by Friday | Arabella Farm Direct Bouquet of 12 Stems of Fresh Cut Hot Pink Roses in a Free Designer Glass Vase	1	0	1	Expedited	Alida Salazar	1225 FILBERT RD APT J-3			LYNNWOOD	WA	98036-4975	US		We miss seeing you both, and think of you often, have a wonderful holiday and stay safe!! From Cyndi & Harry	false		
111-0769094-3577842	20318696461562	2020-11-11T22:19:53+00:00	2020-11-11T14:19:53-08:00	2020-11-11T22:47:38+00:00	2020-11-14T07:59:59+00:00	-3	fjqxf3f0k1qx34f@marketplace.amazon.com	Cynthia Fay	+1 602-671-6610 ext. 95789	ABR0033	Delivery by Friday | Arabella Farm Direct Bouquet of 12 Fresh Cut Orange Roses with a Free Glass Vase	1	0	1	Expedited	Alida Salazar	1225 FILBERT RD APT J-3			LYNNWOOD	WA	98036-4975	US		We miss seeing you both, and think of you often, have a wonderful holiday and stay safe! From Cyndi & Harry	false		
113-3947405-2349054	24991480876514	2020-11-11T22:25:23+00:00	2020-11-11T14:25:23-08:00	2020-11-11T22:55:57+00:00	2020-11-14T07:59:59+00:00	-3	766w0nj44mbbhsf@marketplace.amazon.com	Beverly H. Little	+1 213-442-1463 ext. 23539	ABM022	Delivery by Friday | Purple Extravagance Bouquet by Arabella Bouquets	1	0	1	Expedited	Hyatt Humphrey	2484 LITTLE CYPRESS RD			CALVERT CITY	KY	42029-8937	US			false		
114-3667849-7733001	17868685604898	2020-11-11T22:27:23+00:00	2020-11-11T14:27:23-08:00	2020-11-11T22:57:56+00:00	2020-11-14T07:59:59+00:00	-3	lfkrl9cn00b2zsq@marketplace.amazon.com	kyle jones	+1 619-854-2705 ext. 30751	ABM022	Delivery by Friday | Purple Extravagance Bouquet by Arabella Bouquets	1	0	1	Expedited	kyle jones	28482 W state highway 28			gravelly	Arkansas	72838	US			false		
111-4950242-3394609	43316331036794	2020-11-11T22:29:58+00:00	2020-11-11T14:29:58-08:00	2020-11-11T23:00:12+00:00	2020-11-14T07:59:59+00:00	-3	zg0vrfk8cx050k7@marketplace.amazon.com	hanna marginean	+1 213-442-1463 ext. 33063	ABR0033	Delivery by Friday | Arabella Farm Direct Bouquet of 12 Fresh Cut Orange Roses with a Free Glass Vase	1	0	1	Expedited	Stella Goodson	4293 WOODS EDGE ST			SAGINAW	MI	48603-4243	US			false		
111-5281303-6603424	68339559214418	2020-11-11T22:39:37+00:00	2020-11-11T14:39:37-08:00	2020-11-11T23:04:49+00:00	2020-11-14T07:59:59+00:00	-3	b1yld368wj1zbws@marketplace.amazon.com	Teresa Bailey	+1 213-442-1463 ext. 44644	ABM020	Delivery by Saturday | The Sunset Bouquet by Arabella Bouquets	1	0	1	Expedited	Bea Bailey	BOYD COTTAGE 210 FAIRLANE DR			WAYNESBORO	TN	38485-2419	US			false		
114-5572206-9721008	42816174742250	2020-11-11T22:35:59+00:00	2020-11-11T14:35:59-08:00	2020-11-11T23:05:10+00:00	2020-11-14T07:59:59+00:00	-3	6fs34px23g1zywj@marketplace.amazon.com	W B Barrett	+1 619-854-2705 ext. 32035	ABB005	Delivery by Monday | Arabella Bouquets 24 Stems of Fresh Cut Red Roses in a Designer Glass Vase	1	0	1	Expedited	Allison A. Llyod	191 MEADOWVIEW DR			STATE COLLEGE	PA	16801-2569	US		Thinking of you... From B-Rad	false		
114-4618390-6224258	00566112170058	2020-11-11T22:44:36+00:00	2020-11-11T14:44:36-08:00	2020-11-11T23:11:19+00:00	2020-11-14T07:59:59+00:00	-3	b7rq3s4lg519hzt@marketplace.amazon.com	Jeremy Phillips	+1 929-436-4790 ext. 68828	ABM022	Delivery by Friday | Purple Extravagance Bouquet by Arabella Bouquets	1	0	1	Expedited	Shelley Drujak	19101 MYSTIC POINTE DR APT 1508			AVENTURA	FL	33180-4517	US		Dear Shelley Wishing you a speedy recovery. All our love, Sharon & Jeremy From Jeremy Phillips	false		
112-4815039-2009001	69234049152754	2020-11-11T22:47:37+00:00	2020-11-11T14:47:37-08:00	2020-11-11T23:17:17+00:00	2020-11-14T07:59:59+00:00	-3	13c0vx4jj081zht@marketplace.amazon.com	Cristina Toro	+1 213-442-1463 ext. 89908	ABM022	Delivery by Friday | Purple Extravagance Bouquet by Arabella Bouquets	1	0	1	Expedited	Dr. James Rhee	10027 ROYAL EAGLE LN			HIGHLANDS RANCH	CO	80129-5654	US		Sending well wishes and prayers to you and your family. Please accept my heartfelt condolences. From Bahri Bilir, Luke Evans, Steve Lawrence, Erik Springer & Your Arapahoe Family	true		
114-3477465-6767468	50436023598034	2020-11-11T22:49:34+00:00	2020-11-11T14:49:34-08:00	2020-11-11T23:18:35+00:00	2020-11-14T07:59:59+00:00	-3	ltn1072z6y5q9t0@marketplace.amazon.com	Joclyn Emery	+1 480-618-5344 ext. 17497	ABM022	Delivery by Friday | Purple Extravagance Bouquet by Arabella Bouquets	1	0	1	Expedited	Dana Smick (Mom)	3971 NE CAMPUS LN			BREMERTON	WA	98311-9424	US		Happy Birthday to the worlds best Mom and Nana. We love you and miss you!! Jason, Joclyn Ryan and Nolan From Joclyn Such	false		
