order-id	order-item-id	purchase-date	payments-date	reporting-date	promise-date	days-past-promise	buyer-email	buyer-name	buyer-phone-number	sku	product-name	quantity-purchased	quantity-shipped	quantity-to-ship	ship-service-level	recipient-name	ship-address-1	ship-address-2	ship-address-3	ship-city	ship-state	ship-postal-code	ship-country	gift-wrap-type	gift-message-text	is-business-order	purchase-order-number	price-designation
111-0217564-7931420	39802414744010	2020-11-10T14:27:30+00:00	2020-11-10T06:27:30-08:00	2020-11-10T14:53:00+00:00	2020-11-14T07:59:59+00:00	-3	r3627n1ts567gfq@marketplace.amazon.com	Pamela P Leary	+1 929-436-4790 ext. 38632	ABR0022	Delivery by Wednesday | Arabella Farm Direct Bouquet of 12 Fresh Cut Pink Roses with a Free Glass Vase	1	0	1	Expedited	Karen Leary	82 CONCORD AVE APT 1			SOMERVILLE	MA	02143-3908	US		Happy Birthday! From With Love, Mom and Dad	false		
114-4118475-9020253	14515397951226	2020-11-10T17:54:16+00:00	2020-11-10T09:54:16-08:00	2020-11-10T18:17:23+00:00	2020-11-14T07:59:59+00:00	-3	tdqczqn4rj03qst@marketplace.amazon.com	Steve Hawkins	+1 619-854-2705 ext. 57889	ABR0055	Delivery by Wednesday | Arabella Farm Direct Bouquet of 12 Stems of Fresh Cut Hot Pink Roses in a Free Designer Glass Vase	1	0	1	Expedited	Carole Cotter	22 CHATEAU PL			ASHEVILLE	NC	28805-1713	US		Happy Birthday Carole!  We are a bit early but hoping you can enjoy these flowers as you approach your big day!! From Shari, Steve and Tripper	false		
111-9880648-0161843	19786950020594	2020-11-10T18:26:12+00:00	2020-11-10T10:26:12-08:00	2020-11-10T18:55:46+00:00	2020-11-14T07:59:59+00:00	-3	1pn7hdnjwvzvjjt@marketplace.amazon.com	Elizabeth Side	+1 929-436-4790 ext. 50214	ABM010	Delivery by Thursday | The Spring Fling Bouquet by Arabella Bouquets with a Free Designer Glass Vase	1	0	1	Expedited	Kelly Adamczyk	3683 PELHAM LN			CHARLOTTE	NC	28211-3721	US		Thank you again for being the hostess with the mostest! xoxo Ray From Elizabeth Side	false		
111-2063982-5064216	18540605132874	2020-11-10T18:31:23+00:00	2020-11-10T10:31:23-08:00	2020-11-10T18:55:58+00:00	2020-11-14T07:59:59+00:00	-3	2l2m3grsk9t4jk4@marketplace.amazon.com	Candace M. Hansen	+1 213-442-1463 ext. 03406	ABR0022	Delivery by Thursday | Arabella Farm Direct Bouquet of 12 Fresh Cut Pink Roses with a Free Glass Vase	1	0	1	Expedited	Linda DeFranco	9 SENTINEL CT			CHATHAM	NJ	07928-1769	US		Dear Linda, Hope this puts a little sunshine in you day. Wanda will be missed, hopefully she is meeting with Helen right now. From Love, Candy & Richard😘	false		
113-0705647-3090649	20338009061706	2020-11-10T18:29:40+00:00	2020-11-10T10:29:40-08:00	2020-11-10T18:57:58+00:00	2020-11-14T07:59:59+00:00	-3	97g4fqbn4m577dr@marketplace.amazon.com	Katie Allen	+1 480-618-5344 ext. 33199	ABM025	Delivery by Friday | The Fell for You Bouquet by Arabella Bouquets	1	0	1	Expedited	Cathy Harmon	221 SAILING CLUB DR			COLUMBIA	SC	29229-7207	US		Cathy-   We’re sorry you’re not feeling your best - sending you healing thoughts and hugs! From The Bitrise Support Team	false		
114-6227498-8453057	06172617787818	2020-11-10T18:27:58+00:00	2020-11-10T10:27:58-08:00	2020-11-10T18:58:06+00:00	2020-11-14T07:59:59+00:00	-3	xw4wtkhz63276gz@marketplace.amazon.com	Michael S. Berry	+1 213-442-1463 ext. 33565	ABM022	Delivery by Wednesday | Purple Extravagance Bouquet by Arabella Bouquets	1	0	1	Expedited	MICHAEL S BERRY	1420 GOEGLEIN GULCH			DURANGO	CO	81301-6861	US			false		
111-6211736-1019447	40165843225466	2020-11-10T18:29:37+00:00	2020-11-10T10:29:37-08:00	2020-11-10T18:58:41+00:00	2020-11-14T07:59:59+00:00	-3	30ng9py0lt2b9zj@marketplace.amazon.com	Cheryl Brown	+1 213-442-1463 ext. 28999	ABR0022	Delivery by Thursday | Arabella Farm Direct Bouquet of 12 Fresh Cut Pink Roses with a Free Glass Vase	1	0	1	Expedited	Jan Elswick	409 JEFFERSON AVE APT 306			ORANGE PARK	FL	32065-6785	US			false		
113-8361533-1061812	14510810948354	2020-11-10T18:32:12+00:00	2020-11-10T10:32:12-08:00	2020-11-10T18:59:02+00:00	2020-11-14T07:59:59+00:00	-3	08v083ymyy2j8pg@marketplace.amazon.com	Alex	+1 619-854-2705 ext. 21008	ABM010	Delivery by Thursday | The Spring Fling Bouquet by Arabella Bouquets with a Free Designer Glass Vase	1	0	1	Expedited	Denise Gunther	17420 W 54TH PL			GOLDEN	CO	80403-2036	US		Adding a little sunshine to your  special day!  Wish we were there to  help celebrate!  We love you very much! Happy Birthday!!!! From Tony & Robin	false		
113-3237547-1598639	29815584000026	2020-11-10T18:32:30+00:00	2020-11-10T10:32:30-08:00	2020-11-10T18:59:23+00:00	2020-11-14T07:59:59+00:00	-3	4gn38qjr489fjw0@marketplace.amazon.com	MRS SC BARRETT	+1 619-854-2705 ext. 39714	ABR0022	Delivery by Thursday | Arabella Farm Direct Bouquet of 12 Fresh Cut Pink Roses with a Free Glass Vase	1	0	1	Expedited	The Barrett Family	15931 GARDEN VIEW DR			APPLE VALLEY	MN	55124-7070	US		Dear Lisa, Jasen, James and John, We are so sorry to learn about the passing of your Dad and Grandfather. We send hugs, prayers and our deepest sympathies. Much love, From Sherry and Justin	false		
113-3125842-7777021	20644642007306	2020-11-10T18:36:01+00:00	2020-11-10T10:36:01-08:00	2020-11-10T19:01:12+00:00	2020-11-14T07:59:59+00:00	-3	y24f24hz0zqm37g@marketplace.amazon.com	cathy johnson	+1 213-442-1463 ext. 04395	ABR0022	Delivery by Thursday | Arabella Farm Direct Bouquet of 12 Fresh Cut Pink Roses with a Free Glass Vase	1	0	1	Expedited	Janice Johnson	8035 BENTFORD PARK ST			RICHMOND	TX	77406-4748	US		“Blessed are those who mourn, for they shall be comforted.” – Matthew 5:4. Aunt Janice we love you and we are all so sorry we couldn't be there. Love Cathy From Johnsons	false		
113-5003580-9235442	54060866993586	2020-11-10T18:36:03+00:00	2020-11-10T10:36:03-08:00	2020-11-10T19:01:39+00:00	2020-11-14T07:59:59+00:00	-3	g8pc1cs4rvvpx01@marketplace.amazon.com	donna king	+1 213-442-1463 ext. 64305	ABM010	Delivery by Thursday | The Spring Fling Bouquet by Arabella Bouquets with a Free Designer Glass Vase	1	0	1	Expedited	Rich and Emily Grandinetta	461 FRANKLIN ST			ALBURTIS	PA	18011-9543	US		Enjoy your new home! Miss you guys so much already! Hugs and kisses! D From donna king	false		
113-2027590-3246622	58565275583138	2020-11-10T18:35:17+00:00	2020-11-10T10:35:17-08:00	2020-11-10T19:04:45+00:00	2020-11-14T07:59:59+00:00	-3	0zvx48ly5mywt5j@marketplace.amazon.com	Lori Huckle	+1 929-436-4790 ext. 63073	ABR0022	Delivery by Thursday | Arabella Farm Direct Bouquet of 12 Fresh Cut Pink Roses with a Free Glass Vase	1	0	1	Expedited	Lori Huckle	4103 Cashell Glen			Eagan	Mn	55122	US		I hope these brighten your day and your feeling better soon, Love you Lori & Rick From Lori Huckle	false		
113-6976807-8264207	14944181474738	2020-11-10T18:42:51+00:00	2020-11-10T10:42:51-08:00	2020-11-10T19:10:14+00:00	2020-11-14T07:59:59+00:00	-3	g8pc1cs4rvvpx01@marketplace.amazon.com	donna king	+1 602-671-6610 ext. 96281	ABR0033	Delivery by Thursday | Arabella Farm Direct Bouquet of 12 Fresh Cut Orange Roses with a Free Glass Vase	1	0	1	Expedited	Sue King	5801 NICHOLSON LN APT 529			NORTH BETHESDA	MD	20852-5731	US		Just because you are loved!!!  Daughter D From donna king	false		
112-7085850-6918617	03149925701626	2020-11-10T18:44:14+00:00	2020-11-10T10:44:14-08:00	2020-11-10T19:10:44+00:00	2020-11-14T07:59:59+00:00	-3	2bx61hnt354qfsm@marketplace.amazon.com	Mary L. Carlson	+1 929-436-4790 ext. 03528	ABM022	Purple Extravagance Bouquet by Arabella Bouquets	1	0	1	Expedited	Kathryn Carlson	11245 109TH AVE NE			KIRKLAND	WA	98033-4503	US		Happy Birthday! We are SO glad you are our daughter-in-law!  With loads of love and blessings! From Dennis and Mary Lynn Carlson	false		
113-5676340-7212229	29528891518322	2020-11-10T18:58:07+00:00	2020-11-10T10:58:07-08:00	2020-11-10T19:19:09+00:00	2020-11-14T07:59:59+00:00	-3	b7h4wkbr70myq0n@marketplace.amazon.com	keith ruthenberg	+1 480-618-5344 ext. 83784	ABM022	Purple Extravagance Bouquet by Arabella Bouquets	1	0	1	Expedited	Angela Bowman	40 FALLON CT			ELMONT	NY	11003-3611	US		Get well soon!!! From Keith Ruthenberg and Amber Mizelle	false		
112-0974138-0641845	00026938503466	2020-11-10T18:51:49+00:00	2020-11-10T10:51:49-08:00	2020-11-10T19:22:04+00:00	2020-11-14T07:59:59+00:00	-3	js4p982fv8hk5bv@marketplace.amazon.com	joann egan	+1 602-671-6610 ext. 68959	ABR0033	Delivery by Thursday | Arabella Farm Direct Bouquet of 12 Fresh Cut Orange Roses with a Free Glass Vase	1	0	1	Expedited	Lisa Stanley	208 WINDSOR CT			NEW BRIGHTON	MN	55112-3367	US			false		
113-1527527-6747436	67247160231450	2020-11-10T19:09:06+00:00	2020-11-10T11:09:06-08:00	2020-11-10T19:34:50+00:00	2020-11-14T07:59:59+00:00	-3	sw2ltvz3gfzq429@marketplace.amazon.com	Mithil Shah	+1 480-618-5344 ext. 96995	ABR0022	Delivery by Thursday | Arabella Farm Direct Bouquet of 12 Fresh Cut Pink Roses with a Free Glass Vase	1	0	1	Expedited	May Matton	412 BENNACOTT LN			BURR RIDGE	IL	60527-6305	US		Happy belated birthday to my amazing neighbor! We are so lucky to know you! From Ashwin Karingada	false		
112-0593124-7640205	18293294882674	2020-11-10T19:14:58+00:00	2020-11-10T11:14:58-08:00	2020-11-10T19:41:42+00:00	2020-11-14T07:59:59+00:00	-3	nyqyrw59kwxk5vq@marketplace.amazon.com	Carol S. Harris	+1 619-854-2705 ext. 42495	ABM021	Delivery by Friday | The Joyous Bouquet by Arabella Bouquets	1	0	1	Expedited	Gloria Bargeron	1443 Highway 17 North			Millen	GA	30441	US		Happy belated birthday!! We love you! From Carol, Ernie and Calvin Harris	false		
112-7172917-9488253	19668489265090	2020-11-10T19:17:47+00:00	2020-11-10T11:17:47-08:00	2020-11-10T19:45:08+00:00	2020-11-14T07:59:59+00:00	-3	77vd7g8chs3x0mq@marketplace.amazon.com	kimberly a steakle	+1 619-854-2705 ext. 65961	ABM022	Delivery by Thursday | Purple Extravagance Bouquet by Arabella Bouquets	1	0	1	Expedited	Helen Podrebarac	7541 SWITZER ST # 2105B			OVERLAND PARK	KS	66214-1170	US		Helen, We all miss you at The Piper and can't wait for you to come home! We're thinking of you and hoping you get well soon. From The Piper Assisted Living & Memory Support	false		
113-0317928-1780234	10554759319474	2020-11-10T19:32:18+00:00	2020-11-10T11:32:18-08:00	2020-11-10T19:58:54+00:00	2020-11-14T07:59:59+00:00	-3	z4tty609nhdr02q@marketplace.amazon.com	Lisa Hilke	+1 415-851-9136 ext. 34126	ABR0022	Delivery by Thursday | Arabella Farm Direct Bouquet of 12 Fresh Cut Pink Roses with a Free Glass Vase	1	0	1	Expedited	Jenn and Dusty Mapson	2072 HERITAGE DR			ROSEVILLE	CA	95678-3401	US		Jenn and Dusty, We are so sorry for your loss. Zoey we blessed to be loved by both of you. We love you both so much! Love, The Ornelas Family From Ornelas Family	false		
114-0556102-0953844	17719575317802	2020-11-10T19:40:09+00:00	2020-11-10T11:40:09-08:00	2020-11-10T20:07:26+00:00	2020-11-14T07:59:59+00:00	-3	rm30tgx5pz0yg05@marketplace.amazon.com	James Trotta	+1 602-671-6610 ext. 33477	ABM020	Delivery by Friday | The Sunset Bouquet by Arabella Bouquets	1	0	1	Expedited	James Trotta	292 ROCKY RUN RD			GLEN GARDNER	NJ	08826-3270	US		To my very special wife on our very special day. May there be many more years to come. Love always Jim From  Jim	false		
111-6795302-7353010	57940264992338	2020-11-10T20:00:57+00:00	2020-11-10T12:00:57-08:00	2020-11-10T20:30:43+00:00	2020-11-14T07:59:59+00:00	-3	xsyyhtscjcm7sq0@marketplace.amazon.com	Rob Chomko	+1 213-442-1463 ext. 63661	ABM010	Delivery by Thursday | The Spring Fling Bouquet by Arabella Bouquets with a Free Designer Glass Vase	1	0	1	Expedited	Alix Aranza	5200 N OCEAN BLVD APT 215			LAUDERDALE BY THE SEA	FL	33308-3021	US		Good luck with surgery From Get well soon	false		
114-0553127-0224258	29107609398618	2020-11-10T20:18:48+00:00	2020-11-10T12:18:48-08:00	2020-11-10T20:46:12+00:00	2020-11-14T07:59:59+00:00	-3	bzxbnvld0dxsxkk@marketplace.amazon.com	Cathy Madden	+1 213-442-1463 ext. 82458	ABM022	Delivery by Thursday | Purple Extravagance Bouquet by Arabella Bouquets	1	0	1	Expedited	Belanger Family	406 HIBISCUS TRL			MELBOURNE	FL	32951-2028	US		Sending our thoughts and prayers to the family during this difficult time.  Love, Michael, Bobby Belanger & Cathy Madden From Belanger / Madden	false		
112-3281122-7037058	08224424864882	2020-11-10T20:36:52+00:00	2020-11-10T12:36:52-08:00	2020-11-10T20:50:51+00:00	2020-11-14T07:59:59+00:00	-3	81cjmfx8p6xb9vt@marketplace.amazon.com	Elaine R. Bryant	+1 619-854-2705 ext. 78608	ABR0022	Delivery by Thursday | Arabella Farm Direct Bouquet of 12 Fresh Cut Pink Roses with a Free Glass Vase	1	0	1	Expedited	Victoria and Melissa Bryant Berry	4251 GARY RD			ARNOLD	MO	63010-3643	US			false		
113-8635164-6417821	61096891612442	2020-11-10T20:25:04+00:00	2020-11-10T12:25:04-08:00	2020-11-10T20:51:23+00:00	2020-11-14T07:59:59+00:00	-3	lzz80rtmgzybjwc@marketplace.amazon.com	scott mcneal	+1 619-854-2705 ext. 26227	ABR0022	Delivery by Thursday | Arabella Farm Direct Bouquet of 12 Fresh Cut Pink Roses with a Free Glass Vase	1	0	1	Expedited	Aaron Shepherd	110 TRAIL RIDGE DR			HENDERSONVILLE	TN	37075-2161	US		Thank you for letting us borrow your Husband..... From The Team	false		
112-3263517-8787440	45249515026930	2020-11-10T20:27:44+00:00	2020-11-10T12:27:44-08:00	2020-11-10T20:55:01+00:00	2020-11-14T07:59:59+00:00	-3	c73nj0vk9ppzvx6@marketplace.amazon.com	Tiffany N Brenner	+1 602-671-6610 ext. 33493	ABM022	Delivery by Thursday | Purple Extravagance Bouquet by Arabella Bouquets	1	0	1	Expedited	Emi Brenner	5300 PONY CHASE			AUSTIN	TX	78727-6638	US		We are so proud of you! Mazel Tov! From Uncle Andrew, Aunt Tiff, and the June Bugs	false		
112-2583986-0336212	48150933910562	2020-11-10T20:41:11+00:00	2020-11-10T12:41:11-08:00	2020-11-10T20:59:48+00:00	2020-11-14T07:59:59+00:00	-3	m4c6tz2yx5d2d63@marketplace.amazon.com	Brad Williamson	+1 619-854-2705 ext. 44287	ABR0022	Delivery by Thursday | Arabella Farm Direct Bouquet of 12 Fresh Cut Pink Roses with a Free Glass Vase	1	0	1	Expedited	Amy Lee	DERMATOLOGY DEPARTMENT	1 PHIPPS LN		PARIS	IL	61944-2919	US		I love you more than words can describe.           Your husband From Brad Williamson	false		
111-0080240-4360201	02643225003730	2020-11-10T21:02:46+00:00	2020-11-10T13:02:46-08:00	2020-11-10T21:32:24+00:00	2020-11-14T07:59:59+00:00	-3	7vvx8wsnx4s8k6z@marketplace.amazon.com	Sue	+1 213-442-1463 ext. 17009	ABM010	Delivery by Thursday | The Spring Fling Bouquet by Arabella Bouquets with a Free Designer Glass Vase	1	0	1	Expedited	Lisa eschenberg	8744 BARNETT VALLEY RD			SEBASTOPOL	CA	95472-9245	US			false		
114-6168332-1017063	59979279132650	2020-11-10T21:25:24+00:00	2020-11-10T13:25:24-08:00	2020-11-10T21:53:59+00:00	2020-11-14T07:59:59+00:00	-3	g124kbc99ls7rf5@marketplace.amazon.com	s kampinga	+1 602-671-6610 ext. 56430	ABM022	Delivery by Thursday | Purple Extravagance Bouquet by Arabella Bouquets	1	0	1	Expedited	Michelle Kampinga	8028 HICKORY BRANCH DR			FRISCO	TX	75034-9479	US		Michelle, I hope these beautiful flowers make you smile! AJ and are so sorry to hear about your grandmother Joan, she was a very special person! From Love, AJ and Sherry	false		
112-2268559-4959423	00197305081330	2020-11-10T21:38:19+00:00	2020-11-10T13:38:19-08:00	2020-11-10T21:59:59+00:00	2020-11-14T07:59:59+00:00	-3	px7s3081fyc6b3t@marketplace.amazon.com	Genevieve Dame	+1 619-854-2705 ext. 36562	ABM022	Delivery by Thursday | Purple Extravagance Bouquet by Arabella Bouquets	1	0	1	Expedited	Rebekah Jones	706 HAMPTON TRACE LN			ALPHARETTA	GA	30004-3077	US		Thinking of you and wishing you moments of peace and comfort. From Genevieve	false		
114-4169717-6736222	69681512806298	2020-11-10T21:32:36+00:00	2020-11-10T13:32:36-08:00	2020-11-10T22:01:52+00:00	2020-11-14T07:59:59+00:00	-3	g124kbc99ls7rf5@marketplace.amazon.com	s kampinga	+1 480-618-5344 ext. 11662	ABM022	Delivery by Thursday | Purple Extravagance Bouquet by Arabella Bouquets	1	0	1	Expedited	Mike and Tehdra Misko	16601 JOHN SMITH RD			VANCLEAVE	MS	39565-6433	US		Mike and Tehdra, We are so sorry about your mother, and feel so blessed that we got to know a little at the wedding. Hope these flowers bring a smile to your faces! From Love AJ and Sherry	false		
114-4955402-0614600	46088890170194	2020-11-10T21:37:52+00:00	2020-11-10T13:37:52-08:00	2020-11-10T22:07:37+00:00	2020-11-14T07:59:59+00:00	-3	1hyqck2fwm4hqp2@marketplace.amazon.com	Nolan Lamb	+1 213-442-1463 ext. 67136	ABM022	Delivery by Thursday | Purple Extravagance Bouquet by Arabella Bouquets	1	0	1	Expedited	Darlene Lamb	3497 NAUTILUS TRL			AURORA	OH	44202-9048	US		Happy Birthday Mom!  Love,  Nolan From Nolan Lamb	false		
112-2592393-3091447	11794347735082	2020-11-10T21:43:57+00:00	2020-11-10T13:43:57-08:00	2020-11-10T22:12:35+00:00	2020-11-14T07:59:59+00:00	-3	10vsy43t9vpjkfy@marketplace.amazon.com	Robin Kasper	+1 480-618-5344 ext. 57958	ABM022	Delivery by Thursday | Purple Extravagance Bouquet by Arabella Bouquets	1	0	1	Expedited	Kristen Kasper	2241 COLLEGE ST			JACKSONVILLE	FL	32204-3609	US		Get well soon!!!  We love you!!! From Mom and Dad	false		
112-7120806-6903460	60871787447650	2020-11-10T21:45:52+00:00	2020-11-10T13:45:52-08:00	2020-11-10T22:14:39+00:00	2020-11-14T07:59:59+00:00	-3	3fltnvhcp1v59tf@marketplace.amazon.com	Deborah Kady	+1 480-618-5344 ext. 63195	ABR0022	Delivery by Thursday | Arabella Farm Direct Bouquet of 12 Fresh Cut Pink Roses with a Free Glass Vase	1	0	1	Expedited	Denise Keller	2842 SAYBROOKE BLVD			STOW	OH	44224-2896	US		Happy 50th Denise. Hope you have a day as beautiful as you.  Miss you, Deborah From Deborah Kady	false		
112-7108264-1733802	35647140667082	2020-11-10T21:49:36+00:00	2020-11-10T13:49:36-08:00	2020-11-10T22:18:42+00:00	2020-11-14T07:59:59+00:00	-3	7rhlms41z7mrn3t@marketplace.amazon.com	Teresa Clarke	+1 415-851-9136 ext. 41394	ABM022	Delivery by Thursday | Purple Extravagance Bouquet by Arabella Bouquets	1	0	1	Expedited	Mary Ryan	17036 SE SALMON ST			PORTLAND	OR	97233-4366	US		Happy Birthday To YOU, Happy Birthday To YOU, Happy Birthday Dear Grandma, Happy Birthday To YOU.  Love Tesa From Teresa Clarke	false		
114-9824244-4943429	26708422737930	2020-11-10T22:03:08+00:00	2020-11-10T14:03:08-08:00	2020-11-10T22:19:15+00:00	2020-11-14T07:59:59+00:00	-3	cgxp4wb4sw7b77m@marketplace.amazon.com	Rita Kelley	+1 929-436-4790 ext. 63537	ABM022	Delivery by Thursday | Purple Extravagance Bouquet by Arabella Bouquets	1	0	1	Expedited	Mary Ann Cash	937 W TRENTON AVE APT A-10			MORRISVILLE	PA	19067-3539	US			false		
113-6201017-5606633	20424612467394	2020-11-10T22:03:33+00:00	2020-11-10T14:03:33-08:00	2020-11-10T22:33:02+00:00	2020-11-14T07:59:59+00:00	-3	78xd4m1wg2y5090@marketplace.amazon.com	Lezlie E. Milson	+1 619-854-2705 ext. 64492	ABR0033	Delivery by Thursday | Arabella Farm Direct Bouquet of 12 Fresh Cut Orange Roses with a Free Glass Vase	1	0	1	Expedited	Elaine Milson	221 Rosemont Drive			Green Bay	WI	54301	US		HAPPY BIRTHDAY, MOM! I love you,  please stay safe, at least until we can see each other in person again, With Love, Your Daughter, Lezlie From Lezlie E. Milson	false		
111-1470064-1763442	58179854483050	2020-11-10T22:15:48+00:00	2020-11-10T14:15:48-08:00	2020-11-10T22:39:13+00:00	2020-11-14T07:59:59+00:00	-3	qjky9gndhwsp2kd@marketplace.amazon.com	Carol Nelson	+1 213-442-1463 ext. 49783	ABR0022	Delivery by Thursday | Arabella Farm Direct Bouquet of 12 Fresh Cut Pink Roses with a Free Glass Vase	1	0	1	Expedited	Mary Hannon	9560 PAWNEE AVE			STILLWATER	MN	55082-4291	US		Important milestones in your life! Both retirement and 60th Birthday. Wishing you healthy retirement and a Happy Birthday.  You are in my thoughts and prayers. I love you. From Mom	false		
113-0344797-7374625	49317169427066	2020-11-10T22:09:17+00:00	2020-11-10T14:09:17-08:00	2020-11-10T22:39:52+00:00	2020-11-14T07:59:59+00:00	-3	w6b8nsrbm23qwwy@marketplace.amazon.com	Dave Gisriel	+1 602-671-6610 ext. 90387	ABM022	Delivery by Thursday | Purple Extravagance Bouquet by Arabella Bouquets	1	0	1	Expedited	Danielle Stauffer	7929 FRYE LN			OKLAHOMA CITY	OK	73135-1118	US			false		
111-6359953-4029832	58297231484306	2020-11-10T22:14:43+00:00	2020-11-10T14:14:43-08:00	2020-11-10T22:44:23+00:00	2020-11-14T07:59:59+00:00	-3	sbzdgv1kssnjnrd@marketplace.amazon.com	maggie	+1 415-851-9136 ext. 16773	ABR0033	Delivery by Thursday | Arabella Farm Direct Bouquet of 12 Fresh Cut Orange Roses with a Free Glass Vase	1	0	1	Expedited	maggie larsen	313 CORTE RAYADO			ROHNERT PARK	CA	94928-2008	US			false		
112-0875868-2332237	13804380395698	2020-11-10T22:15:46+00:00	2020-11-10T14:15:46-08:00	2020-11-10T22:46:40+00:00	2020-11-14T07:59:59+00:00	-3	mfld550mzfbtqvp@marketplace.amazon.com	Jodi Glenewinkel	+1 619-854-2705 ext. 79966	ABR0022	Delivery by Thursday | Arabella Farm Direct Bouquet of 12 Fresh Cut Pink Roses with a Free Glass Vase	1	0	1	Expedited	Jenny Moran	550 SUMMER DR			HOLLISTER	CA	95023-3443	US		Congratulations on welcoming such a sweet little baby boy into this world. We love you all and are very excited for you. From Dustin, Jodi & Merit	false		
114-3271230-9096243	64820204192554	2020-11-10T22:22:50+00:00	2020-11-10T14:22:50-08:00	2020-11-10T22:48:31+00:00	2020-11-14T07:59:59+00:00	-3	rbsq2w80cdnz6nx@marketplace.amazon.com	gill	+1 929-436-4790 ext. 49680	ABM010	Delivery by Thursday | The Spring Fling Bouquet by Arabella Bouquets with a Free Designer Glass Vase	1	0	1	Expedited	Karen, Keith and Maive	118 NINIGRET RD			NARRAGANSETT	RI	02882-1243	US		Enjoy your gift! Lots of love from Uncle Jim From Jim via Gill!	false		
114-3271230-9096243	28945392599234	2020-11-10T22:22:50+00:00	2020-11-10T14:22:50-08:00	2020-11-10T22:48:31+00:00	2020-11-14T07:59:59+00:00	-3	rbsq2w80cdnz6nx@marketplace.amazon.com	gill	+1 929-436-4790 ext. 49680	ABM022	Delivery by Thursday | Purple Extravagance Bouquet by Arabella Bouquets	1	0	1	Expedited	Karen, Keith and Maive	118 NINIGRET RD			NARRAGANSETT	RI	02882-1243	US		Enjoy the flowers and so happy for you all.  lots of love, gillian From gill	false		
114-8248960-0400237	23516256028186	2020-11-10T22:45:28+00:00	2020-11-10T14:45:28-08:00	2020-11-10T23:01:22+00:00	2020-11-14T07:59:59+00:00	-3	v71b3sbwyvfy6lc@marketplace.amazon.com	Zaiba Butt	+1 602-671-6610 ext. 29834	ABR0055	Delivery by Thursday | Arabella Farm Direct Bouquet of 12 Stems of Fresh Cut Hot Pink Roses in a Free Designer Glass Vase	1	0	1	Expedited	Massaud Fathi	4619 NICOLE CIR			HOUSTON	TX	77084-2501	US		Dear Br. Massoud and family, Please accept our sincerest condolences.  With lots of prayers. From Br. Yemeen and the Everest family.	false		
111-7827847-8163427	25273078253746	2020-11-10T22:44:12+00:00	2020-11-10T14:44:12-08:00	2020-11-10T23:13:49+00:00	2020-11-14T07:59:59+00:00	-3	mlxy8ms1f2kp30d@marketplace.amazon.com	Catherine Edwards	+1 480-618-5344 ext. 69408	ABM022	Delivery by Thursday | Purple Extravagance Bouquet by Arabella Bouquets	1	0	1	Expedited	Carol Dornberger	16433 MADISON RD			RILEY	KS	66531-9656	US		Dear Mom,  Hope you're feeling more bright eyed than ever! Love, From Rick & Cathy	false		
114-5275587-5947457	46435484523970	2020-11-10T22:51:29+00:00	2020-11-10T14:51:29-08:00	2020-11-10T23:19:58+00:00	2020-11-14T07:59:59+00:00	-3	yvh1h8whxrm342x@marketplace.amazon.com	Connie S. Schubert	+1 213-442-1463 ext. 61695	ABR0022	Delivery by Thursday | Arabella Farm Direct Bouquet of 12 Fresh Cut Pink Roses with a Free Glass Vase	1	0	1	Expedited	Bobbie Shreiner	1514 E 81ST ST			INDIANAPOLIS	IN	46240-2716	US		Celebrating your 1 year anniversary! From Connie & Bob Schubert	false		
113-3982022-0429855	09696835364226	2020-11-10T22:28:50+00:00	2020-11-10T14:28:50-08:00	2020-11-10T23:35:56+00:00	2020-11-14T07:59:59+00:00	-3	lv0tszd489hd1km@marketplace.amazon.com	Gary	+1 619-854-2705 ext. 49028	ABM022	Delivery by Thursday | Purple Extravagance Bouquet by Arabella Bouquets	1	0	1	Expedited	Willo/Trevor	1146 WESTERN PARK DR			MEMPHIS	TN	38109-4930	US			false		
114-3804117-0012210	62341519996562	2020-11-10T23:16:39+00:00	2020-11-10T15:16:39-08:00	2020-11-10T23:44:48+00:00	2020-11-14T07:59:59+00:00	-3	hg719mlkvck6smf@marketplace.amazon.com	Akhil Gupta	+1 415-851-9136 ext. 54553	ABR0033	Delivery by Thursday | Arabella Farm Direct Bouquet of 12 Fresh Cut Orange Roses with a Free Glass Vase	1	0	1	Expedited	Rohini Morillo	312 W 87TH ST APT 2B			NEW YORK	NY	10024-2628	US		For the 1st and 60th of many more! Lots of love. From Beenu, Lalit, Devyani, and Akhil	false		
114-1593025-9577850	44741079536706	2020-11-10T23:20:12+00:00	2020-11-10T15:20:12-08:00	2020-11-10T23:50:48+00:00	2020-11-14T07:59:59+00:00	-3	qky29f3k2t9tkb4@marketplace.amazon.com	Ouida Boyd	+1 602-671-6610 ext. 61773	ABR0022	Delivery by Thursday | Arabella Farm Direct Bouquet of 12 Fresh Cut Pink Roses with a Free Glass Vase	1	0	1	Expedited	George Baldwin	5874 SHADES RUN LN			HOOVER	AL	35244-4110	US			false		
111-5181365-4475466	09241673450698	2020-11-10T23:25:52+00:00	2020-11-10T15:25:52-08:00	2020-11-10T23:55:54+00:00	2020-11-14T07:59:59+00:00	-3	fb4txcvt0jxkzl7@marketplace.amazon.com	Fred Chugg	+1 929-436-4790 ext. 63972	ABM010	Delivery by Thursday | The Spring Fling Bouquet by Arabella Bouquets with a Free Designer Glass Vase	1	0	1	Expedited	Fred Chugg	57441 Fir road			Christmas Valley	OR	97641	US			false		
114-5195381-0922665	20055049352578	2020-11-10T23:31:20+00:00	2020-11-10T15:31:20-08:00	2020-11-10T23:56:24+00:00	2020-11-14T07:59:59+00:00	-3	lwmjlhgmjgbhnyr@marketplace.amazon.com	Grant Jacobs	+1 602-671-6610 ext. 13660	ABM022	Delivery by Thursday | Purple Extravagance Bouquet by Arabella Bouquets	1	0	1	Expedited	Melissa Moylan	2561 STONEVIEW RD			ORLANDO	FL	32806-5077	US		Thinking of you, Sister. Everything will be ok! Love you! Xoxoxo From Nicole	false		
114-0663379-0093861	56782037265298	2020-11-10T23:35:30+00:00	2020-11-10T15:35:30-08:00	2020-11-11T00:05:18+00:00	2020-11-14T07:59:59+00:00	-3	q67hkyyztghzstp@marketplace.amazon.com	Wesley Moerschell	+1 213-442-1463 ext. 27713	ABR0022	Delivery by Thursday | Arabella Farm Direct Bouquet of 12 Fresh Cut Pink Roses with a Free Glass Vase	1	0	1	Expedited	Kathy Moerschell	HBD FROM TEXAS!	3028 NW CRAFTSMAN DR		BEND	OR	97703-8336	US		Get well soon Kathy! Love, Wes From Wesley Moerschell	false		
111-2673080-7984233	50125753419810	2020-11-10T23:40:51+00:00	2020-11-10T15:40:51-08:00	2020-11-11T00:09:25+00:00	2020-11-14T07:59:59+00:00	-3	9zjjpc2dkg95z4n@marketplace.amazon.com	Charlie Jones	+1 480-618-5344 ext. 05360	ABR001	Delivery by Thursday | Arabella Bouquets 12 Stems of Fresh Cut Red Roses in a Free Designer Glass Vase	1	0	1	Expedited	Jacki Johnson	301 MONTCLAIR ST			SAN ANTONIO	TX	78209-4653	US		hey Babe, Love,  Scout From Charlie Jones	false		
112-9531911-8578661	16234005651202	2020-11-11T00:17:53+00:00	2020-11-10T16:17:53-08:00	2020-11-11T00:24:26+00:00	2020-11-14T07:59:59+00:00	-3	rk50323wyrfmfyx@marketplace.amazon.com	Sondra Oneill	+1 415-851-9136 ext. 88528	ABM010	Delivery by Thursday | The Spring Fling Bouquet by Arabella Bouquets with a Free Designer Glass Vase	1	0	1	Expedited	Paulette Carter	7017 MISSION RD			EVERSON	WA	98247-9713	US		Dear Paulette,  Sending you loads of good wishes for a speedy recovery and good health. From Sunrise Services Behavioral Health Team	false		
113-0535181-7730615	48194397923330	2020-11-10T23:55:31+00:00	2020-11-10T15:55:31-08:00	2020-11-11T00:25:04+00:00	2020-11-14T07:59:59+00:00	-3	bhnbw730rss3829@marketplace.amazon.com	timothy thompson	+1 213-442-1463 ext. 33874	ABR0022	Delivery by Thursday | Arabella Farm Direct Bouquet of 12 Fresh Cut Pink Roses with a Free Glass Vase	1	0	1	Expedited	timothy thompson	761 renie mott rd.			chatom	al	36518	US			false		
114-2646948-1074614	59403161695138	2020-11-10T23:58:15+00:00	2020-11-10T15:58:15-08:00	2020-11-11T00:26:00+00:00	2020-11-14T07:59:59+00:00	-3	kwd91ssskxl30wl@marketplace.amazon.com	Shauna Walchko	+1 619-854-2705 ext. 55647	ABM010	Delivery by Thursday | The Spring Fling Bouquet by Arabella Bouquets with a Free Designer Glass Vase	1	0	1	Expedited	Vickie Dickerson	67 WHITLOW RD			CANON	GA	30520-1647	US		I love you Vickie. My prayers are with you during this time, I know your momma loved flowers and passed that love to you. I hope these bring some happiness to you. From Shauna Murray	false		
111-7800219-7151447	57614424509122	2020-11-11T00:03:56+00:00	2020-11-10T16:03:56-08:00	2020-11-11T00:28:35+00:00	2020-11-14T07:59:59+00:00	-3	bgmpxkkdd7vg0ym@marketplace.amazon.com	Kristle Marlow	509-218-549	ABM022	Delivery by Thursday | Purple Extravagance Bouquet by Arabella Bouquets	1	0	1	Expedited	Debbie Hood	946 E REED ST			HAYTI	MO	63851-1243	US		Congratulations on retirement!! You're going to be tremendously missed...exiting 2020 with a bang! Thanks for everything you have done for Kristle and HRG! From HRG	false		
111-6296074-3769806	42694922001666	2020-11-11T00:07:20+00:00	2020-11-10T16:07:20-08:00	2020-11-11T00:34:50+00:00	2020-11-14T07:59:59+00:00	-3	l9d90vql0456hzx@marketplace.amazon.com	Jennifer Wesolowski	+1 602-671-6610 ext. 20206	ABM022	Delivery by Thursday | Purple Extravagance Bouquet by Arabella Bouquets	1	0	1	Expedited	Sheila Cox	231 GREEN HARBOR RD UNIT 48			OLD HICKORY	TN	37138-1094	US		Thinking of you and praying for a quick recovery! We love you!! From Patrick & Jennifer Wesolowski	false		
114-0638513-7509047	06146797132314	2020-11-11T00:13:18+00:00	2020-11-10T16:13:18-08:00	2020-11-11T00:40:02+00:00	2020-11-14T07:59:59+00:00	-3	tzgtw156gpxfcw1@marketplace.amazon.com	Madeson McCaster	+1 213-442-1463 ext. 45492	ABR0055	Delivery by Thursday | Arabella Farm Direct Bouquet of 12 Stems of Fresh Cut Hot Pink Roses in a Free Designer Glass Vase	1	0	1	Expedited	Mamie White	260 LAMAR AVE			MARKS	MS	38646-1129	US			false		
113-1609294-6191424	28646952701898	2020-11-11T00:23:30+00:00	2020-11-10T16:23:30-08:00	2020-11-11T00:48:05+00:00	2020-11-14T07:59:59+00:00	-3	yy48k3szp7g6p3n@marketplace.amazon.com	Bryan Campbell	+1 213-442-1463 ext. 71642	ABR0022	Delivery by Thursday | Arabella Farm Direct Bouquet of 12 Fresh Cut Pink Roses with a Free Glass Vase	1	0	1	Expedited	Sue Cole	118 FANNIN AVE			LEVELLAND	TX	79336-8010	US		Just wanted to let you know we are thinking of you.  Bryan & Brenda From Bryan Campbell	false		
112-7850546-2277036	43933812516626	2020-11-11T00:23:40+00:00	2020-11-10T16:23:40-08:00	2020-11-11T00:51:15+00:00	2020-11-14T07:59:59+00:00	-3	4cd1ncz4dwhvrqk@marketplace.amazon.com	shari mosley	+1 619-854-2705 ext. 64501	ABR0033	Delivery by Thursday | Arabella Farm Direct Bouquet of 12 Fresh Cut Orange Roses with a Free Glass Vase	1	0	1	Expedited	Madison Tivis	206 W 3RD AVE			STILLWATER	OK	74074-3201	US			false		
112-0238111-4943465	63284349204210	2020-11-11T00:24:05+00:00	2020-11-10T16:24:05-08:00	2020-11-11T00:52:52+00:00	2020-11-14T07:59:59+00:00	-3	9v4k1pt0617prjg@marketplace.amazon.com	Suzanne Muncy	+1 602-671-6610 ext. 11974	ABM010	Delivery by Thursday | The Spring Fling Bouquet by Arabella Bouquets with a Free Designer Glass Vase	1	0	1	Expedited	Karen Evans	2101 TERRY RD			CHARLESTON	WEST VIRGINIA	25309-9724	US		Love you mama!  Hope you are not in too much pain.  Sending you love and healing prayers.  Xoxox We love u!  Dave, Suz and the girls. From Suzanne Muncy	false		
113-1051598-8619448	36760945705442	2020-11-11T00:27:28+00:00	2020-11-10T16:27:28-08:00	2020-11-11T00:53:53+00:00	2020-11-14T07:59:59+00:00	-3	75c7xf1mkncwp8h@marketplace.amazon.com	Katie McDaniel	+1 602-671-6610 ext. 94609	ABR0055	Delivery by Thursday | Arabella Farm Direct Bouquet of 12 Stems of Fresh Cut Hot Pink Roses in a Free Designer Glass Vase	1	0	1	Expedited	Marcie Moore	101 JAGUAR AVE			PISGAH	IA	51564-2016	US		Happy Birthday, Mom! We love you!!  Love, Katie and Kids!! From Katie McDaniel	false		
114-5428619-7153839	10109032884850	2020-11-11T00:29:15+00:00	2020-11-10T16:29:15-08:00	2020-11-11T00:55:08+00:00	2020-11-14T07:59:59+00:00	-3	jbtttf17j5kb76n@marketplace.amazon.com	Rupal A. Pai	+1 213-442-1463 ext. 14968	ABM025	Delivery by Friday | The Fell for You Bouquet by Arabella Bouquets	1	0	1	Expedited	Amy Yi Luoh	3897 NW 139TH PL			PORTLAND	OR	97229-4707	US		Dear Amy & Family, Congratulations on your new arrival!  We hope Mom, baby and family are all doing well. Best Wishes, ~ SI Team From SI Team	false		
112-3372436-6145052	55628611476826	2020-11-11T00:31:32+00:00	2020-11-10T16:31:32-08:00	2020-11-11T01:01:49+00:00	2020-11-14T07:59:59+00:00	-3	fnkk8qgqljt02wk@marketplace.amazon.com	Christopher J Soper	+1 929-436-4790 ext. 93074	ABM022	Delivery by Thursday | Purple Extravagance Bouquet by Arabella Bouquets	1	0	1	Expedited	Noelle Salmonsen	81 Mill Street			Hannibal	NY	13074	US			false		
113-2805935-1248211	26314369785354	2020-11-11T00:33:05+00:00	2020-11-10T16:33:05-08:00	2020-11-11T01:03:05+00:00	2020-11-14T07:59:59+00:00	-3	sn0qsp8q0s3wxjw@marketplace.amazon.com	Michael Schafbuch	+1 619-854-2705 ext. 80658	ABM022	Delivery by Thursday | Purple Extravagance Bouquet by Arabella Bouquets	1	0	1	Expedited	Chris Schafbuch	165 HUGUENOT ST APT 6D			NEW ROCHELLE	NY	10801-5257	US		Congratulations to an amazing man and son. Love, Dad From Dad	false		
111-6652898-2189842	09015320567210	2020-11-11T00:42:00+00:00	2020-11-10T16:42:00-08:00	2020-11-11T01:06:52+00:00	2020-11-14T07:59:59+00:00	-3	f204rjv9s4knzwy@marketplace.amazon.com	Keith Clayton	+1 480-618-5344 ext. 47923	ABM022	Delivery by Thursday | Purple Extravagance Bouquet by Arabella Bouquets	1	0	1	Expedited	Dorothy Riffel	VILLA ST FRANCIS 16600 W 126TH ST			OLATHE	KS	66062-1184	US		Happy Birthday and get well soon. Love, Kris and Keith From Kris Clayton	false		
114-2640870-7861034	31510732236730	2020-11-11T00:38:43+00:00	2020-11-10T16:38:43-08:00	2020-11-11T01:07:53+00:00	2020-11-14T07:59:59+00:00	-3	5h36h1bhjpqphlc@marketplace.amazon.com	Stephanie Spring	+1 480-618-5344 ext. 60440	ABR0022	Delivery by Thursday | Arabella Farm Direct Bouquet of 12 Fresh Cut Pink Roses with a Free Glass Vase	1	0	1	Expedited	Carrie Beth Coleman	2515 W 50TH TER			WESTWOOD	KS	66205-2041	US		Thanks for such a great weekend!  Can’t wait to see you again. ❤️ From me	false		
112-5844653-1741837	21112480251802	2020-11-11T01:06:30+00:00	2020-11-10T17:06:30-08:00	2020-11-11T01:30:53+00:00	2020-11-14T07:59:59+00:00	-3	bzmkrmz0nlffh3r@marketplace.amazon.com	Matthew K. Meisel	+1 602-671-6610 ext. 58036	ABR0022	Delivery by Thursday | Arabella Farm Direct Bouquet of 12 Fresh Cut Pink Roses with a Free Glass Vase	1	0	1	Expedited	Sarah Cole	2331 KNAPP FOREST CT NE			GRAND RAPIDS	MI	49525-9755	US		Sarah... You are one of the strongest people I know. I know how much your baby was loved and wanted. Sending you a big hug today. You, Ryan, and Jack are in my heart and my prayers. I’m here for you and thinking of you. From Alissa Meisel	false		
111-5837514-5103428	44729091468978	2020-11-11T01:02:00+00:00	2020-11-10T17:02:00-08:00	2020-11-11T01:31:09+00:00	2020-11-14T07:59:59+00:00	-3	3s702rrklnrlskv@marketplace.amazon.com	Alex Harvey	+1 929-436-4790 ext. 72173	ABR0055	Delivery by Thursday | Arabella Farm Direct Bouquet of 12 Stems of Fresh Cut Hot Pink Roses in a Free Designer Glass Vase	1	0	1	Standard	Alexander Harvey	4140 QUENTIN BLVD APT 208			COLUMBUS	OH	43230-8534	US		Happy Birthday Babes.  Love, Alex From Alex Harvey	false		
112-0283918-2106653	21124057179698	2020-11-11T01:32:23+00:00	2020-11-10T17:32:23-08:00	2020-11-11T01:33:25+00:00	2020-11-14T07:59:59+00:00	-3	53j2sr34fckvv7p@marketplace.amazon.com	wm holmen	+1 929-436-4790 ext. 69329	ABM020	Delivery by Friday | The Sunset Bouquet by Arabella Bouquets	1	0	1	Expedited	Nora & Skip Hirvella	6912 SHOREVIEW DR			MCKINNEY	TX	75072-5579	US		Nora & Skip, We are very sorry for your loss. We are thinking of you & all the love that our families share. We hope good memories of your dad will ease the passage of time. Love, Aunt Liz, Liz & Mark, Ed, Rocki & Bill From Holmens & Rays	false		
112-2343690-7060249	14269116378882	2020-11-11T01:11:39+00:00	2020-11-10T17:11:39-08:00	2020-11-11T01:39:25+00:00	2020-11-14T07:59:59+00:00	-3	d7n8h0q9bwclcnp@marketplace.amazon.com	Matt Pociask	+1 929-436-4790 ext. 91636	ABM022	Delivery by Thursday | Purple Extravagance Bouquet by Arabella Bouquets	1	0	1	Expedited	Jean Pociask	1303 BRUSH HILL CIR			NAPERVILLE	IL	60540-4007	US		Mom, we hope you have a speedy recovery from your surgery and will keep you in our prayers. From Matt, Natalie, Avery, Nolan and Lilah	false		
114-4837705-7615408	41053000101178	2020-11-11T01:23:06+00:00	2020-11-10T17:23:06-08:00	2020-11-11T01:50:55+00:00	2020-11-14T07:59:59+00:00	-3	c3x9bcz6nvt4zgf@marketplace.amazon.com	Bonnie Giarla	+1 929-436-4790 ext. 03211	ABM022	Delivery by Thursday | Purple Extravagance Bouquet by Arabella Bouquets	1	0	1	Expedited	Kristen Giarla	16100 POCAHONTAS TRL			MEADOWVIEW	VA	24361-2706	US		We love you! Thank you for Noah! ❤ From Bonnie Giarla	false		
114-5263027-7031402	27998434131162	2020-11-11T01:22:27+00:00	2020-11-10T17:22:27-08:00	2020-11-11T01:52:29+00:00	2020-11-14T07:59:59+00:00	-3	sytdztmvybjbr3y@marketplace.amazon.com	Frederick J Zicard3	+1 619-854-2705 ext. 57771	ABM022	Delivery by Thursday | Purple Extravagance Bouquet by Arabella Bouquets	1	0	1	Expedited	Rebecca Smith C/o Upper Cumberland Dev	1104 ENGLAND DR			COOKEVILLE	TN	38501-0924	US			false		
113-0705362-4895428	02031095208258	2020-11-11T01:43:17+00:00	2020-11-10T17:43:17-08:00	2020-11-11T02:08:40+00:00	2020-11-14T07:59:59+00:00	-3	cwjr5226tqcdx4t@marketplace.amazon.com	Eric Rosenthal	+1 619-854-2705 ext. 21136	ABR0022	Delivery by Thursday | Arabella Farm Direct Bouquet of 12 Fresh Cut Pink Roses with a Free Glass Vase	1	0	1	Expedited	Angela Garcia	12240 SHADETREE LN			LAUREL	MD	20708-2832	US		Angela - Congratulations on your 500th day.  We are so lucky to have you as our leader.  Thanks for all you do for the school and for our friendship. From Eric Rosenthal	false		
112-0102901-9563477	22472233463426	2020-11-11T01:52:03+00:00	2020-11-10T17:52:03-08:00	2020-11-11T02:17:47+00:00	2020-11-14T07:59:59+00:00	-3	11v4s1vlwc7ltrc@marketplace.amazon.com	scott mcguire	+1 480-618-5344 ext. 57414	ABM0044	Delivery by Friday | Arabella Farm Direct Bouquet of Fresh Cut Blue Hydrangea with a Free Glass Vase	1	0	1	Expedited	Chris mcguire	37 lawerance CR 221			Black rock	AR	72415	US		I love you sweetheart  I miss you From Chris your soulmate	false		
114-5465804-2481845	24814539050962	2020-11-11T01:59:43+00:00	2020-11-10T17:59:43-08:00	2020-11-11T02:26:40+00:00	2020-11-14T07:59:59+00:00	-3	95rg5lntwxc8qm7@marketplace.amazon.com	Syed Alvi	+1 213-442-1463 ext. 89909	ABR0022	Delivery by Thursday | Arabella Farm Direct Bouquet of 12 Fresh Cut Pink Roses with a Free Glass Vase	1	0	1	Expedited	Elaine	2428 KENT DR			IRVING	TX	75062-1770	US		Hi Elaine,  Welcome back! All of us have been praying for your speedy recovery. Get well soon.  From:  Farhana & Syed Alvi 2440 Kent Drive	false		
113-6223539-5145859	48591743989570	2020-11-11T02:02:10+00:00	2020-11-10T18:02:10-08:00	2020-11-11T02:28:55+00:00	2020-11-14T07:59:59+00:00	-3	dbhksz6twc9xb81@marketplace.amazon.com	megan	+3018479875	ABM022	Delivery by Thursday | Purple Extravagance Bouquet by Arabella Bouquets	1	0	1	Expedited	Cathy Vesper-Wilson	3005 S LEISURE WORLD BLVD APT 118			SILVER SPRING	MD	20906-8302	US		Dear Cathy Thinking of you at this time, hope you have a speedy recovery. All the best. From Lots of Love John, Megan, Addison, John and Donna	false		
111-9148118-2485859	61138902940994	2020-11-11T02:03:17+00:00	2020-11-10T18:03:17-08:00	2020-11-11T02:29:59+00:00	2020-11-14T07:59:59+00:00	-3	3fg0nhnyd3hkx3q@marketplace.amazon.com	Gregg M. Hall	+1 602-671-6610 ext. 76335	ABR0066	Delivery by Friday | Arabella Bouquets 12 Stems of Fresh Cut White Roses in a Free Designer Glass Vase	1	0	1	Expedited	Gary and Melinda Hall	217b E Santa Fe Ave.			Santa Fe	New Mexico	87505	US		Welcome Home!  Thinking of you both and sending our love, hugs and positive energy.....Gregg & Alana From Gregg & Alana	false		
112-5516501-2070651	65895873053690	2020-11-11T02:02:25+00:00	2020-11-10T18:02:25-08:00	2020-11-11T02:30:29+00:00	2020-11-14T07:59:59+00:00	-3	rbrvqj9hmnkk9m1@marketplace.amazon.com	Mark Namatevs	+1 415-851-9136 ext. 96475	ABR0055	Delivery by Thursday | Arabella Farm Direct Bouquet of 12 Stems of Fresh Cut Hot Pink Roses in a Free Designer Glass Vase	1	0	1	Expedited	Alex Namatevs	3342 W 35TH AVE			DENVER	CO	80211-2706	US		Alex, We want you to know how special you are! We Love You! From Mom & Dad	false		
113-9251398-9255460	09676109876082	2020-11-11T02:29:12+00:00	2020-11-10T18:29:12-08:00	2020-11-11T02:46:29+00:00	2020-11-14T07:59:59+00:00	-3	0t4q4ds8ylqnx9g@marketplace.amazon.com	Lori A Murphy	+1 602-671-6610 ext. 41489	ABR0055	Delivery by Thursday | Arabella Farm Direct Bouquet of 12 Stems of Fresh Cut Hot Pink Roses in a Free Designer Glass Vase	1	0	1	Expedited	Cheri Marks-McFarland	903 E KAPASI LN			SAN TAN VALLEY	AZ	85140-4252	US		Happy Birthday Cher!!!  Sexy and Sixty!!! Good Combo! Love Ya Bestie!! From Murf	false		
111-8112402-2121023	03406011170946	2020-11-11T02:27:03+00:00	2020-11-10T18:27:03-08:00	2020-11-11T02:54:32+00:00	2020-11-14T07:59:59+00:00	-3	5wwpxzdv2zlrl41@marketplace.amazon.com	Chris Bohannon	+1 619-854-2705 ext. 06393	ABR012	Delivery by Friday | Arabella Farm Direct Bouquet of 18 Fresh Cut Pink Roses with a Free Glass Vase	1	0	1	Expedited	Sandy Pruitt	4907 TUNIS RD			SACRAMENTO	CA	95835-1005	US		Wishing you a quick and easy recovery. From Claudette Bohannon and Family	false		
114-0465098-9848214	65723826171458	2020-11-11T02:34:40+00:00	2020-11-10T18:34:40-08:00	2020-11-11T03:03:30+00:00	2020-11-14T07:59:59+00:00	-3	8h53x49p6w3k96n@marketplace.amazon.com	Riyam Yaseen	+1 929-436-4790 ext. 70770	ABM010	Delivery by Thursday | The Spring Fling Bouquet by Arabella Bouquets with a Free Designer Glass Vase	1	0	1	Expedited	Muna Ali	5672 SABENA RD			JACKSONVILLE	FL	32207-7148	US		happy birthday to the best mom in the world! I love you so much! 💕💕💕💕 can’t wait to see you soon! From Riyam Yaseen	false		
111-4623344-8057801	61035845374106	2020-11-11T02:40:37+00:00	2020-11-10T18:40:37-08:00	2020-11-11T03:06:58+00:00	2020-11-14T07:59:59+00:00	-3	3c2dh21ghry4l0k@marketplace.amazon.com	Phillip D. Creighton	+1 602-671-6610 ext. 10118	ABB015	Arabella Farm Direct Bouquet of 24 Fresh Cut Orange Roses with a Free Glass Vase	1	0	1	Expedited	Gail Creighton	2624 INGLETON LN			SACRAMENTO	CA	95835-2178	US		Happy Birthday, Gail.  Love from Phil and Leigh	false		
111-0420618-3203449	32062283089786	2020-11-11T02:39:08+00:00	2020-11-10T18:39:08-08:00	2020-11-11T03:08:01+00:00	2020-11-14T07:59:59+00:00	-3	rc3pm9yln1fymhc@marketplace.amazon.com	Lori Cieszko	+1 619-854-2705 ext. 40340	ABR0022	Delivery by Thursday | Arabella Farm Direct Bouquet of 12 Fresh Cut Pink Roses with a Free Glass Vase	1	0	1	Expedited	Nikki Stewart	7615 213TH ST E			BRADENTON	FL	34202-8301	US		Happy Birthday Mom! I wanted to thank you for everything that you’ve done for me and let you know how much I love you and I’m thinking about you on your special day! From Lori Cieszko	false		
113-4672172-0425019	27459360214474	2020-11-11T02:40:18+00:00	2020-11-10T18:40:18-08:00	2020-11-11T03:09:42+00:00	2020-11-14T07:59:59+00:00	-3	9bg7fs51gpzstds@marketplace.amazon.com	Billie  Jo McGhee	+1 602-671-6610 ext. 71769	ABR0022	Delivery by Thursday | Arabella Farm Direct Bouquet of 12 Fresh Cut Pink Roses with a Free Glass Vase	1	0	1	Expedited	Pamela Lynn McGhee	2992 WOODRICH DR STE 3			TALLAHASSEE	FL	32301-8070	US			false		
113-1949672-0400242	07977731185250	2020-11-11T02:54:03+00:00	2020-11-10T18:54:03-08:00	2020-11-11T03:17:05+00:00	2020-11-14T07:59:59+00:00	-3	zhyqfr4zkt7x3zn@marketplace.amazon.com	cherie stutesman	+1 929-436-4790 ext. 71275	ABM022	Delivery by Thursday | Purple Extravagance Bouquet by Arabella Bouquets	1	0	1	Expedited	Jonothon amd Amber Stutesman	10293 E ORION AVE			YUMA	AZ	85367-3608	US		Happy 1 yr Anniversary Jonothon and Amber! In Covid years I am sure it is more like 5:yrs.  Love Mom and Dad	false		
113-1097825-9761021	05907222247098	2020-11-11T02:55:35+00:00	2020-11-10T18:55:35-08:00	2020-11-11T03:25:26+00:00	2020-11-14T07:59:59+00:00	-3	4hx2z1bssrwg7gc@marketplace.amazon.com	lorna j coody	+1 929-436-4790 ext. 04689	ABM022	Delivery by Thursday | Purple Extravagance Bouquet by Arabella Bouquets	1	0	1	Expedited	Rochelle Lehman	1740 E COOK RD			FORT WAYNE	IN	46825-3781	US			false		
114-0411605-9547402	06341031735458	2020-11-11T03:02:58+00:00	2020-11-10T19:02:58-08:00	2020-11-11T03:26:43+00:00	2020-11-14T07:59:59+00:00	-3	942ddz4w43f8tbl@marketplace.amazon.com	Anthony Earl Wright JR	+1 619-854-2705 ext. 37560	ABR001	Delivery by Thursday | Arabella Bouquets 12 Stems of Fresh Cut Red Roses in a Free Designer Glass Vase	1	0	1	Expedited	Brookes Boone	546 ENGLISH RD			ROCKY MOUNT	NC	27804-9517	US		God himself, wished upon a shooting star the day you were born. From Your Little Secret	false		
114-1008486-0445833	48389303553378	2020-11-11T03:18:39+00:00	2020-11-10T19:18:39-08:00	2020-11-11T03:48:08+00:00	2020-11-14T07:59:59+00:00	-3	n0z6j2xqpfvhl7j@marketplace.amazon.com	Emily Muehr	+1 480-618-5344 ext. 89965	ABM022	Delivery by Thursday | Purple Extravagance Bouquet by Arabella Bouquets	1	0	1	Expedited	Debbie DePaul	21466 ARNSWORTH RD			MONTGOMERY	TX	77356-3225	US		Thinking of y'all today. I know it's not easy at all and it's really been weighing heavily on your hearts - but rest assured it'll be okay. Love y'all dearly  <3 From Em	false		
111-7706032-8502615	06801391230706	2020-11-11T03:18:56+00:00	2020-11-10T19:18:56-08:00	2020-11-11T03:49:26+00:00	2020-11-14T07:59:59+00:00	-3	w8mhhl7kr7g4gg1@marketplace.amazon.com	Marc Pfefferle	+1 619-854-2705 ext. 67339	ABR0022	Delivery by Thursday | Arabella Farm Direct Bouquet of 12 Fresh Cut Pink Roses with a Free Glass Vase	1	0	1	Expedited	Alex Leighton	217 SAINT PAUL ST APT 1			BURLINGTON	VT	05401-5709	US			false		
112-9333150-9290638	52433704395106	2020-11-11T03:21:38+00:00	2020-11-10T19:21:38-08:00	2020-11-11T03:50:55+00:00	2020-11-14T07:59:59+00:00	-3	zpzvvsfvy11h8ys@marketplace.amazon.com	Sarah Gandy	+1 415-851-9136 ext. 05125	ABR0022	Delivery by Thursday | Arabella Farm Direct Bouquet of 12 Fresh Cut Pink Roses with a Free Glass Vase	1	0	1	Expedited	Peterson Family	968 GRAHAM LAKE TER			BATTLE CREEK	MI	49014-8309	US		We are so sorry for your loss! From The Piotrowski Family	false		
112-0114764-0844252	24400855002458	2020-11-11T03:29:23+00:00	2020-11-10T19:29:23-08:00	2020-11-11T03:57:08+00:00	2020-11-14T07:59:59+00:00	-3	mh5wj55j3wvlq72@marketplace.amazon.com	Sherry Haviland	+1 480-618-5344 ext. 20958	ABM023	Delivery by Friday | The Morning Sun Bouquet by Arabella Bouquets	1	0	1	Expedited	Jackie Stenger	1707 N VASSAULT ST APT 7-1			TACOMA	WA	98406-2565	US		Happy birthday from your Altrusa Secret Sister. From Altrusa Secret Sister	false		
111-9948493-3412223	27298087287458	2020-11-10T22:58:09+00:00	2020-11-10T14:58:09-08:00	2020-11-11T04:22:03+00:00	2020-11-14T07:59:59+00:00	-3	xpgf8psxwpbb5sy@marketplace.amazon.com	Helen Roberts-Niemi	+1 602-671-6610 ext. 33172	ABM0033	Delivery by Friday | Arabella Farm Direct Bouquet of Fresh Cut White Hydrangea with a Free Glass Vase	1	0	1	Expedited	Helen Roberts-Niemi	2815 LAMPKINS RD			COTTAGE GROVE	TN	38224-5234	US			false		
111-2492255-9253031	30237093820874	2020-11-11T04:03:36+00:00	2020-11-10T20:03:36-08:00	2020-11-11T04:30:29+00:00	2020-11-14T07:59:59+00:00	-3	d7bb4bqlzl2mznv@marketplace.amazon.com	Marcia Richards	+1 480-618-5344 ext. 01725	ABM022	Delivery by Thursday | Purple Extravagance Bouquet by Arabella Bouquets	1	0	1	Expedited	Aldith Gill	600 E 18TH ST APT 2J			BROOKLYN	NY	11226-7367	US		Enjoy your gift!  I hope you enjoy the best or birthdays.  Happy Birthday! From Miss and Sir!	false		
111-9594072-3524202	50079422984970	2020-11-11T04:08:20+00:00	2020-11-10T20:08:20-08:00	2020-11-11T04:38:46+00:00	2020-11-14T07:59:59+00:00	-3	jbjs9wf4ml0kwxj@marketplace.amazon.com	David Jones	+1 213-442-1463 ext. 07453	ABM022	Delivery by Thursday | Purple Extravagance Bouquet by Arabella Bouquets	1	0	1	Expedited	Aleksandra Jones	15571 BRAMBLEWOOD CT			FOLEY	AL	36535-5357	US			false		
111-0594113-6999412	00318069565330	2020-11-11T04:15:14+00:00	2020-11-10T20:15:14-08:00	2020-11-11T04:44:30+00:00	2020-11-14T07:59:59+00:00	-3	knv2fjhpvlcnjlt@marketplace.amazon.com	Chelsea Wyatt	+1 929-436-4790 ext. 95697	ABM010	Delivery by Thursday | The Spring Fling Bouquet by Arabella Bouquets with a Free Designer Glass Vase	1	0	1	Expedited	Dorie Bash	906 Bramley Ct			Venice	FL	34293	US			false		
112-0147850-8745838	68264400377146	2020-11-11T04:21:31+00:00	2020-11-10T20:21:31-08:00	2020-11-11T04:47:50+00:00	2020-11-14T07:59:59+00:00	-3	05mwtgqfrmzpz47@marketplace.amazon.com	Anne Elizabeth Barnes	+1 480-618-5344 ext. 86933	ABM022	Delivery by Thursday | Purple Extravagance Bouquet by Arabella Bouquets	1	0	1	Expedited	Ms Debbie Malone	7470 WILDERCLIFF DR			SANDY SPRINGS	GA	30328-1144	US		Thinking of you and wishing you well! From Anne & Tom	false		
113-7766459-1353068	47241374875690	2020-11-11T04:27:07+00:00	2020-11-10T20:27:07-08:00	2020-11-11T04:54:05+00:00	2020-11-14T07:59:59+00:00	-3	vq4k0l7nz59318g@marketplace.amazon.com	Omar Merchant	+1 619-854-2705 ext. 62406	ABR001	Delivery by Thursday | Arabella Bouquets 12 Stems of Fresh Cut Red Roses in a Free Designer Glass Vase	1	0	1	Expedited	Amal Gani	4648 POLK ST NE			COLUMBIA HEIGHTS	MN	55421-2447	US		I miss you.  May Allah unite us soon :) Jummah Mubarak (I hope these arrive on jummah ...) From Omar Merchant	false		
113-0194108-5171413	49895444101666	2020-11-11T04:49:42+00:00	2020-11-10T20:49:42-08:00	2020-11-11T05:09:22+00:00	2020-11-14T07:59:59+00:00	-3	xp0wg2pjps9p72l@marketplace.amazon.com	Kathy Allan	+1 213-442-1463 ext. 63364	ABM010	Delivery by Thursday | The Spring Fling Bouquet by Arabella Bouquets with a Free Designer Glass Vase	1	0	1	Expedited	Vicki Nishioka	11506 ROCHESTER CT			CERRITOS	CA	90703-1757	US		Hi Vicki, I hope these brighten your day! Kathy	false		
113-7731635-7724266	48436371843602	2020-11-11T04:46:50+00:00	2020-11-10T20:46:50-08:00	2020-11-11T05:12:12+00:00	2020-11-14T07:59:59+00:00	-3	8488b1wq21qxg7z@marketplace.amazon.com	Ben Halldorsson	+1 213-442-1463 ext. 80338	ABM020	Delivery by Friday | The Sunset Bouquet by Arabella Bouquets	1	0	1	Expedited	Melissa Pleasants	80 WELCOME LN			CHARLESTON	WV	25306-6906	US		Beautiful flowers to brighten up your day as much as you brighten up my live Love you so much Melissa From Benjamin Halldorsson	false		
111-1089791-9535464	41967037212458	2020-11-11T04:47:31+00:00	2020-11-10T20:47:31-08:00	2020-11-11T05:18:10+00:00	2020-11-14T07:59:59+00:00	-3	mps6b7mchtm61t8@marketplace.amazon.com	Nathan M Welch	+1 619-854-2705 ext. 12024	ABR001	Delivery by Thursday | Arabella Bouquets 12 Stems of Fresh Cut Red Roses in a Free Designer Glass Vase	1	0	1	Expedited	Nathan M Welch	10 E LEE ST APT 1807			BALTIMORE	MD	21202-6021	US			false		
111-7662199-1539452	29918846804970	2020-11-11T05:25:25+00:00	2020-11-10T21:25:25-08:00	2020-11-11T05:48:01+00:00	2020-11-14T07:59:59+00:00	-3	r20djl326fkwhhz@marketplace.amazon.com	Ken & Diana	+1 602-671-6610 ext. 55494	ABM022	Delivery by Thursday | Purple Extravagance Bouquet by Arabella Bouquets	1	0	1	Expedited	Emma St. Onge	411 N DILLARD ST RM 505			WINTER GARDEN	FL	34787-2816	US		Enjoy the Flowers Mom! Hope they bring Joy to your Room! Love You, Ken & Diana From Ken & Diana	false		
111-1878525-3217858	19108798142730	2020-11-11T06:05:07+00:00	2020-11-10T22:05:07-08:00	2020-11-11T06:34:45+00:00	2020-11-14T07:59:59+00:00	-3	wvn73cjgny8np41@marketplace.amazon.com	Kathleen Hunt	+1 619-854-2705 ext. 17432	ABR0055	Delivery by Thursday | Arabella Farm Direct Bouquet of 12 Stems of Fresh Cut Hot Pink Roses in a Free Designer Glass Vase	1	0	1	Expedited	Maryann Foss	58 EDISON AVE			CHERRY HILL	NJ	08002-3533	US		Happy Birthday!!  Mom said not to mention how old you are.  🤣 From Kathy, Mike, and Erin	false		
112-1344460-2200220	28395201006402	2020-11-11T06:17:42+00:00	2020-11-10T22:17:42-08:00	2020-11-11T06:47:19+00:00	2020-11-14T07:59:59+00:00	-3	v4fyhvptf6l20yr@marketplace.amazon.com	Carl CPA Office	+1 602-671-6610 ext. 90107	ABR0022	Delivery by Thursday | Arabella Farm Direct Bouquet of 12 Fresh Cut Pink Roses with a Free Glass Vase	1	0	1	Expedited	Rosalie Hebeler	29623 COLONY CIRCLE DR			FARMINGTON HILLS	MI	48334-1917	US			false		
114-5636149-5147404	68312415290218	2020-11-11T06:41:09+00:00	2020-11-10T22:41:09-08:00	2020-11-11T07:09:07+00:00	2020-11-14T07:59:59+00:00	-3	sz5ymt953yrrsdz@marketplace.amazon.com	Mary Beth Hamlin	+1 480-618-5344 ext. 78881	ABR0055	Delivery by Thursday | Arabella Farm Direct Bouquet of 12 Stems of Fresh Cut Hot Pink Roses in a Free Designer Glass Vase	1	0	1	Expedited	Kyleigh Helton	737 S BELLEVIEW PL			INDIANAPOLIS	IN	46221-1079	US		Happy Birthday!! I love you ❤!!!! From Clayton Hamlin	false		
113-5919188-7994620	20971029574330	2020-11-11T07:41:45+00:00	2020-11-10T23:41:45-08:00	2020-11-11T08:12:19+00:00	2020-11-14T07:59:59+00:00	-3	p9hl2ch5nd2ywb3@marketplace.amazon.com	Kylet Tarpley	+1 602-671-6610 ext. 24589	ABM022	Delivery by Thursday | Purple Extravagance Bouquet by Arabella Bouquets	1	0	1	Expedited	Karen Steen	71 SW VICTORIA ST			RENTON	WA	98057-5920	US			false		
112-6115572-3888225	48448787722122	2020-11-11T08:07:57+00:00	2020-11-11T00:07:57-08:00	2020-11-11T08:13:19+00:00	2020-11-14T07:59:59+00:00	-3	gc6pq3fj768p7gf@marketplace.amazon.com	G. Ann Becker	+1 213-442-1463 ext. 55073	ABM022	Delivery by Thursday | Purple Extravagance Bouquet by Arabella Bouquets	1	0	1	Expedited	Mrs. Darlene Coyle.  Room#304	C/O CARE MANOR NURSING HOME	804 BURNETT DR		MOUNTAIN HOME	AR	72653-2939	US		We Love you to the Moon and beyond!!!      XOXOXO     We are  thinking of you every day & Praying that you continue to recieve  negative reports to the Covid testing!!!   Sissie & Ed & Bella   Hugs & Kisses	false		
111-1706430-9453066	27340224808122	2020-11-11T07:48:39+00:00	2020-11-10T23:48:39-08:00	2020-11-11T08:16:31+00:00	2020-11-14T07:59:59+00:00	-3	g26nrm412n59rn3@marketplace.amazon.com	bertie	+1 213-442-1463 ext. 19158	ABR0022	Delivery by Thursday | Arabella Farm Direct Bouquet of 12 Fresh Cut Pink Roses with a Free Glass Vase	1	0	1	Expedited	Anita Brick	3804 N Leavitt St			CHICAGO	IL	60618-3808	US		Dear Anita,   Thank you so much for helping me navigate my career! As winter encroaches, I wanted to add some more color to your day!   Best wishes, From Sriram Venkatachalam	false		
112-2309491-7131466	44147062068058	2020-11-11T08:16:11+00:00	2020-11-11T00:16:11-08:00	2020-11-11T08:44:01+00:00	2020-11-14T07:59:59+00:00	-3	xd0mwyyfc8kycwc@marketplace.amazon.com	Christopher Milks	+1 480-618-5344 ext. 79425	ABM022	Delivery by Thursday | Purple Extravagance Bouquet by Arabella Bouquets	1	0	1	Expedited	Nancy Handshoe	600 OAKDALE ST			WATERLOO	INDIANA	46793-9529	US		Happy Birthday From Christopher Milks	false		
113-2042885-8017044	68707475859410	2020-11-11T09:56:47+00:00	2020-11-11T01:56:47-08:00	2020-11-11T10:23:21+00:00	2020-11-14T07:59:59+00:00	-3	y24f24hz0zqm37g@marketplace.amazon.com	cathy johnson	+1 619-854-2705 ext. 70376	ABR0022	Delivery by Thursday | Arabella Farm Direct Bouquet of 12 Fresh Cut Pink Roses with a Free Glass Vase	1	0	1	Expedited	Shirley Marshall-Crawley	275 MATCHAPONIX AVE			MONROE TOWNSHIP	NJ	08831-4080	US		“Blessed are those who mourn, for they shall be comforted.” – Matthew 5:4. From Johnsons	false		
112-4448702-4289015	18162406855986	2020-11-11T10:55:43+00:00	2020-11-11T02:55:43-08:00	2020-11-11T11:17:35+00:00	2020-11-14T07:59:59+00:00	-3	3bkvrgfks89d062@marketplace.amazon.com	wafaa	+1 480-618-5344 ext. 96273	ABR0022	Delivery by Thursday | Arabella Farm Direct Bouquet of 12 Fresh Cut Pink Roses with a Free Glass Vase	1	0	1	Expedited	Mira & George	4045 W LAKE SAMMAMISH PKWY SE			BELLEVUE	WA	98008-5939	US			false		
113-2094894-1673007	33208805070346	2020-11-11T11:23:28+00:00	2020-11-11T03:23:28-08:00	2020-11-11T11:52:43+00:00	2020-11-14T07:59:59+00:00	-3	g9g4y91fhkprw26@marketplace.amazon.com	Washington Marine	+1 480-618-5344 ext. 18154	ABM010	Delivery by Thursday | The Spring Fling Bouquet by Arabella Bouquets with a Free Designer Glass Vase	1	0	1	Expedited	Gloria Broadfoot	1906 MORRIS HILL RD			CHATTANOOGA	TN	37421-3344	US			false		
112-6634691-9953050	52586265838658	2020-11-11T11:49:48+00:00	2020-11-11T03:49:48-08:00	2020-11-11T12:19:37+00:00	2020-11-14T07:59:59+00:00	-3	7q7ypj4nnbz3ymg@marketplace.amazon.com	ctscherp	+1 619-854-2705 ext. 25202	ABM010	Delivery by Thursday | The Spring Fling Bouquet by Arabella Bouquets with a Free Designer Glass Vase	1	0	1	Expedited	Rachelle Minter	8107 KYLEMORE WAY			ELLICOTT CITY	MD	21043-6884	US			false		
113-5976631-9076203	42450391534282	2020-11-11T11:53:41+00:00	2020-11-11T03:53:41-08:00	2020-11-11T12:23:24+00:00	2020-11-14T07:59:59+00:00	-3	hxbdstx9thqnqjj@marketplace.amazon.com	Julie Arthur	+1 213-442-1463 ext. 68776	ABM022	Delivery by Thursday | Purple Extravagance Bouquet by Arabella Bouquets	1	0	1	Expedited	Julie Borunda	5440 N ORMONDO WAY			LITCHFIELD PARK	AZ	85340-4163	US		Dear Julie, We love and support you during these difficult times. Love, Julie and Michael Arthur From Julie Arthur	false		
113-6041534-7957837	61021709035418	2020-11-11T12:14:26+00:00	2020-11-11T04:14:26-08:00	2020-11-11T12:44:05+00:00	2020-11-14T07:59:59+00:00	-3	ql2qn3vb870jrxq@marketplace.amazon.com	Jennifer  Tolley	+1 480-618-5344 ext. 09336	ABM022	Delivery by Thursday | Purple Extravagance Bouquet by Arabella Bouquets	1	0	1	Expedited	Milt Brostrom	1906 SUNRISE DR APT 204			SAINT PETER	MN	56082-5389	US		I am thankful for you! xoxo From Jenny	false		
114-1587071-5713011	00187199747834	2020-11-11T12:46:09+00:00	2020-11-11T04:46:09-08:00	2020-11-11T13:09:08+00:00	2020-11-14T07:59:59+00:00	-3	njl1mc8scvynj1z@marketplace.amazon.com	Melynda Marshall	+1 415-851-9136 ext. 24015	ABM010	Delivery by Thursday | The Spring Fling Bouquet by Arabella Bouquets with a Free Designer Glass Vase	1	0	1	Expedited	Terry and Robin Olson	911 N SHINE AVE			ORLANDO	FL	32803-3329	US		We wish you comfort and peace of mind during this time of loss. Hoping you feel surrounded by much love. Orlando loves you! From Creative City Project	false		
113-2907673-4017012	03286524264394	2020-11-11T12:51:46+00:00	2020-11-11T04:51:46-08:00	2020-11-11T13:20:09+00:00	2020-11-14T07:59:59+00:00	-3	37k4ksm51bd39l1@marketplace.amazon.com	SoPretty3D	+1 929-436-4790 ext. 59548	ABM022	Delivery by Thursday | Purple Extravagance Bouquet by Arabella Bouquets	1	0	1	Standard	Michelle Lao	7210 DOMINION CIR			COMMERCE	CA	90040-3647	US			true		
112-0968721-2935410	67429797289714	2020-11-11T12:54:06+00:00	2020-11-11T04:54:06-08:00	2020-11-11T13:24:24+00:00	2020-11-14T07:59:59+00:00	-3	pw0t164973242hr@marketplace.amazon.com	Denise M. Thompson	+1 929-436-4790 ext. 19779	ABM010	Delivery by Thursday | The Spring Fling Bouquet by Arabella Bouquets with a Free Designer Glass Vase	1	0	1	Expedited	Zoe Thompson	215 W MCKINLEY ST			WATERMAN	IL	60556-9775	US			false		
113-1075283-6445825	00422288698530	2020-11-11T12:55:40+00:00	2020-11-11T04:55:40-08:00	2020-11-11T13:24:33+00:00	2020-11-14T07:59:59+00:00	-3	m9m2sz7qn7vn0m7@marketplace.amazon.com	Gregory J Ternus	+1 415-851-9136 ext. 29725	ABM010	Delivery by Thursday | The Spring Fling Bouquet by Arabella Bouquets with a Free Designer Glass Vase	1	0	1	Expedited	Rene Benson	915 PARK LN			BRYAN	TX	77802-4358	US			false		
112-4091224-0033860	49083017787906	2020-11-11T13:07:29+00:00	2020-11-11T05:07:29-08:00	2020-11-11T13:24:59+00:00	2020-11-14T07:59:59+00:00	-3	c5zhmqrrxnbl1pw@marketplace.amazon.com	Gary R. Grossman	+1 619-854-2705 ext. 06060	ABM022	Delivery by Thursday | Purple Extravagance Bouquet by Arabella Bouquets	1	0	1	Expedited	Ms. Samantha Grossman	106 COTHRON DR			LAFAYETTE	TN	37083-1805	US		Samantha, Happy Birthday! We love you very much!!  Mother & Father	false		
114-1441599-2523419	65141602938146	2020-11-11T12:58:04+00:00	2020-11-11T04:58:04-08:00	2020-11-11T13:25:34+00:00	2020-11-14T07:59:59+00:00	-3	qmmbfrw51kr9m4t@marketplace.amazon.com	Charles Powell	+1 480-618-5344 ext. 33734	ABR001	Delivery by Thursday | Arabella Bouquets 12 Stems of Fresh Cut Red Roses in a Free Designer Glass Vase	1	0	1	Expedited	Ms. Eddie Johnson	27 E DUNBAR RD			MEMPHIS	TN	38109-2801	US		Have a very beautiful birthday!!!! From Charles & Sherry Powell	false		
114-0601608-8279454	27396134403202	2020-11-11T13:07:52+00:00	2020-11-11T05:07:52-08:00	2020-11-11T13:27:19+00:00	2020-11-14T07:59:59+00:00	-3	31sx91n1ypsfy0q@marketplace.amazon.com	Michael W. Platt	+1 415-851-9136 ext. 20486	ABR001	Delivery by Thursday | Arabella Bouquets 12 Stems of Fresh Cut Red Roses in a Free Designer Glass Vase	1	0	1	Expedited	Esther Cardenas	2605 N 10TH ST			EDINBURG	TX	78541-4256	US		Michael told me how much he really enjoyed seeing you this week and looks forward to seeing you again.  He definitely loves the way you smile, laugh, and joke with him.  I can tell you make him smile too. From -Your Umbrella	false		
114-5821760-9202607	47133843024258	2020-11-11T12:58:38+00:00	2020-11-11T04:58:38-08:00	2020-11-11T13:28:58+00:00	2020-11-14T07:59:59+00:00	-3	nsb0zfh08fhwtff@marketplace.amazon.com	Michelle Johnson	+1 619-854-2705 ext. 53872	ABR0022	Delivery by Thursday | Arabella Farm Direct Bouquet of 12 Fresh Cut Pink Roses with a Free Glass Vase	1	0	1	Expedited	Susan K. Johnson	3901 E 33RD AVE			SPOKANE	WA	99223-5975	US			false		
114-8812255-7371441	48799865003386	2020-11-11T13:15:10+00:00	2020-11-11T05:15:10-08:00	2020-11-11T13:38:58+00:00	2020-11-14T07:59:59+00:00	-3	y3qct0p9zmf4j9b@marketplace.amazon.com	Martha Stant	+1 929-436-4790 ext. 24119	ABR0055	Delivery by Thursday | Arabella Farm Direct Bouquet of 12 Stems of Fresh Cut Hot Pink Roses in a Free Designer Glass Vase	1	0	1	Expedited	Danielle Campbell	307 DIXON ST			CHARLOTTE	NC	28216-5312	US		Happy birthday to one of the best people I know! I hope you have the best day full of so much love and happiness! Thank you for always being such an encouraging, supportive friend. You’re such a blessing in my life! 💕 From Jaynie	false		
113-9120387-5397026	55997406964522	2020-11-11T13:31:29+00:00	2020-11-11T05:31:29-08:00	2020-11-11T13:51:58+00:00	2020-11-14T07:59:59+00:00	-3	btxt2fq0bhxnk85@marketplace.amazon.com	Renata B Lemos	+1 602-671-6610 ext. 07170	ABM022	Delivery by Thursday | Purple Extravagance Bouquet by Arabella Bouquets	1	0	1	Expedited	Karla Jones	917 GREENLAND RD			PORTSMOUTH	NH	03801-4124	US		Querida Família Jones, parabéns pela chegada do Luca! Que vocês tenham sabedoria para guiá-lo nessa linda jornada que se inicia! Amamos vocês! From Família Lemos	false		
114-0114836-2807439	52055548028914	2020-11-11T13:22:43+00:00	2020-11-11T05:22:43-08:00	2020-11-11T13:52:08+00:00	2020-11-14T07:59:59+00:00	-3	9tdw6mmbsh3hv21@marketplace.amazon.com	Charlie	+1 619-854-2705 ext. 95615	ABR0022	Delivery by Thursday | Arabella Farm Direct Bouquet of 12 Fresh Cut Pink Roses with a Free Glass Vase	1	0	1	Expedited	Carol Winter	1095 SILVERCREST CIR APT 227			IOWA CITY	IA	52240-2968	US		Dear Mom,  Happy thanksgiving!  Love Kirsten From Charlie	false		
112-8919727-3412206	15918608449130	2020-11-11T13:40:34+00:00	2020-11-11T05:40:34-08:00	2020-11-11T14:09:20+00:00	2020-11-14T07:59:59+00:00	-3	l78gz8fn0rhdfd6@marketplace.amazon.com	Kaitlin McCarthy	+1 619-854-2705 ext. 55565	ABM002	Delivery by Friday | Arabella Bouquets Fresh Cut White Calla Lilies in a Free Designer Glass Vase	1	0	1	Expedited	Sue Yang	1485 5TH AVE APT 6C			NEW YORK	NY	10035-2774	US		Happy Birthday!!! The calla lily was named after the Greek word for beautiful — calla. Can't think of a better way to describe you inside and out :) Hope you enjoy these and the other gift arriving from Amazon! From &#60;3 Kaity	false		
114-0459313-3944251	25084107732866	2020-11-11T13:53:22+00:00	2020-11-11T05:53:22-08:00	2020-11-11T14:15:04+00:00	2020-11-14T07:59:59+00:00	-3	hl5kvw29y8ymwzw@marketplace.amazon.com	aurora	+1 415-851-9136 ext. 24835	ABM022	Delivery by Thursday | Purple Extravagance Bouquet by Arabella Bouquets	1	0	1	Expedited	Ann Devitt	250 Plymouth Rd	Apartment 2103		Plymouth Meeting	PA	19462	US		Grandma/Mom, I hope you have a fantastic birthday. I am sorry we cannot be there to celebrate, but hope to see you again soon! Love you lots!! From Aurora & Laurie	false		
