order-id	order-item-id	purchase-date	payments-date	reporting-date	promise-date	days-past-promise	buyer-email	buyer-name	buyer-phone-number	sku	product-name	quantity-purchased	quantity-shipped	quantity-to-ship	ship-service-level	recipient-name	ship-address-1	ship-address-2	ship-address-3	ship-city	ship-state	ship-postal-code	ship-country	gift-wrap-type	gift-message-text	is-business-order	purchase-order-number	price-designation
111-0217564-7931420	39802414744010	2020-11-10T14:27:30+00:00	2020-11-10T06:27:30-08:00	2020-11-10T14:53:00+00:00	2020-11-14T07:59:59+00:00	-3	r3627n1ts567gfq@marketplace.amazon.com	Pamela P Leary	+1 929-436-4790 ext. 38632	ABR0022	Delivery by Wednesday | Arabella Farm Direct Bouquet of 12 Fresh Cut Pink Roses with a Free Glass Vase	1	0	1	Expedited	Karen Leary	82 CONCORD AVE APT 1			SOMERVILLE	MA	02143-3908	US		Happy Birthday! From With Love, Mom and Dad	false		
112-2343690-7060249	14269116378882	2020-11-11T01:11:39+00:00	2020-11-10T17:11:39-08:00	2020-11-11T01:39:25+00:00	2020-11-14T07:59:59+00:00	-3	d7n8h0q9bwclcnp@marketplace.amazon.com	Matt Pociask	+1 929-436-4790 ext. 91636	ABM022	Delivery by Thursday | Purple Extravagance Bouquet by Arabella Bouquets	1	0	1	Expedited	Jean Pociask	1303 BRUSH HILL CIR			NAPERVILLE	IL	60540-4007	US		Mom, we hope you have a speedy recovery from your surgery and will keep you in our prayers. From Matt, Natalie, Avery, Nolan and Lilah	false		
114-5263027-7031402	27998434131162	2020-11-11T01:22:27+00:00	2020-11-10T17:22:27-08:00	2020-11-11T01:52:29+00:00	2020-11-14T07:59:59+00:00	-3	sytdztmvybjbr3y@marketplace.amazon.com	Frederick J Zicard3	+1 619-854-2705 ext. 57771	ABM022	Delivery by Thursday | Purple Extravagance Bouquet by Arabella Bouquets	1	0	1	Expedited	Rebecca Smith C/o Upper Cumberland Dev	1104 ENGLAND DR			COOKEVILLE	TN	38501-0924	US			false		
113-5919188-7994620	20971029574330	2020-11-11T07:41:45+00:00	2020-11-10T23:41:45-08:00	2020-11-11T08:12:19+00:00	2020-11-14T07:59:59+00:00	-3	p9hl2ch5nd2ywb3@marketplace.amazon.com	Kylet Tarpley	+1 602-671-6610 ext. 24589	ABM022	Delivery by Thursday | Purple Extravagance Bouquet by Arabella Bouquets	1	0	1	Expedited	Karen Steen	71 SW VICTORIA ST			RENTON	WA	98057-5920	US			false		
111-1706430-9453066	27340224808122	2020-11-11T07:48:39+00:00	2020-11-10T23:48:39-08:00	2020-11-11T08:16:31+00:00	2020-11-14T07:59:59+00:00	-3	g26nrm412n59rn3@marketplace.amazon.com	bertie	+1 213-442-1463 ext. 19158	ABR0022	Delivery by Thursday | Arabella Farm Direct Bouquet of 12 Fresh Cut Pink Roses with a Free Glass Vase	1	0	1	Expedited	Anita Brick	3804 N Leavitt St			CHICAGO	IL	60618-3808	US		Dear Anita,   Thank you so much for helping me navigate my career! As winter encroaches, I wanted to add some more color to your day!   Best wishes, From Sriram Venkatachalam	false		
113-5976631-9076203	42450391534282	2020-11-11T11:53:41+00:00	2020-11-11T03:53:41-08:00	2020-11-11T12:23:24+00:00	2020-11-14T07:59:59+00:00	-3	hxbdstx9thqnqjj@marketplace.amazon.com	Julie Arthur	+1 213-442-1463 ext. 68776	ABM022	Delivery by Thursday | Purple Extravagance Bouquet by Arabella Bouquets	1	0	1	Expedited	Julie Borunda	5440 N ORMONDO WAY			LITCHFIELD PARK	AZ	85340-4163	US		Dear Julie, We love and support you during these difficult times. Love, Julie and Michael Arthur From Julie Arthur	false		
112-4091224-0033860	49083017787906	2020-11-11T13:07:29+00:00	2020-11-11T05:07:29-08:00	2020-11-11T13:24:59+00:00	2020-11-14T07:59:59+00:00	-3	c5zhmqrrxnbl1pw@marketplace.amazon.com	Gary R. Grossman	+1 619-854-2705 ext. 06060	ABM022	Delivery by Thursday | Purple Extravagance Bouquet by Arabella Bouquets	1	0	1	Expedited	Ms. Samantha Grossman	106 COTHRON DR			LAFAYETTE	TN	37083-1805	US		Samantha, Happy Birthday! We love you very much!!  Mother & Father	false		
112-6658769-5199416	38950318997466	2020-11-11T14:10:16+00:00	2020-11-11T06:10:16-08:00	2020-11-11T14:38:11+00:00	2020-11-14T07:59:59+00:00	-3	ft1hr46zk9zw1c6@marketplace.amazon.com	Monica Collopy	+1 213-442-1463 ext. 74892	ABM022	Delivery by Thursday | Purple Extravagance Bouquet by Arabella Bouquets	1	0	1	Expedited	Juith Collopy	11258 CRIMSON			MIAMISBURG	OH	45342-4895	US		Happy 80th Birthday!! From Monica, Erika and Eric	false		
114-8709972-7549018	56882282754794	2020-11-11T15:23:50+00:00	2020-11-11T07:23:50-08:00	2020-11-11T15:52:51+00:00	2020-11-14T07:59:59+00:00	-3	43g86xcc2xjvvnv@marketplace.amazon.com	Robert Aleski	+1 213-442-1463 ext. 41678	ABM022	Delivery by Thursday | Purple Extravagance Bouquet by Arabella Bouquets	1	0	1	Expedited	Melissa Williamson	33 BERRY ROAD PARK			SAINT LOUIS	MO	63122-2010	US			false		
113-2937497-8874669	55497641510354	2020-11-11T18:05:51+00:00	2020-11-11T10:05:51-08:00	2020-11-11T18:29:35+00:00	2020-11-14T07:59:59+00:00	-3	xyjy80znqxdb2vf@marketplace.amazon.com	Dennis McMichael	+1 929-436-4790 ext. 26251	ABM022	Delivery by Thursday | Purple Extravagance Bouquet by Arabella Bouquets	1	0	1	Expedited	Amanda Snelgrove	3702 CHANEL RD			ANNANDALE	VA	22003-2023	US		Congratulations on the new addition!!! Hope you are doing well! From Dennis McMichael, CVP & the Shirlington Team From Dennis McMichael, CVP & the Shirlington Team	false		
111-5690180-3786608	15621865871170	2020-11-11T18:03:40+00:00	2020-11-11T10:03:40-08:00	2020-11-11T18:33:16+00:00	2020-11-14T07:59:59+00:00	-3	n9g843dhqmvvltx@marketplace.amazon.com	Marcie E Winitt	+1 619-854-2705 ext. 83795	ABR0033	Delivery by Friday | Arabella Farm Direct Bouquet of 12 Fresh Cut Orange Roses with a Free Glass Vase	1	0	1	Expedited	Rebecca Hull	2 SORREL CT			CLIFTON PARK	NY	12065-6786	US		I hope these brighten your day - I love you, sissy! From Marcie E Winitt	false		
111-5329469-4226621	62647499869298	2020-11-11T18:06:32+00:00	2020-11-11T10:06:32-08:00	2020-11-11T18:33:42+00:00	2020-11-14T07:59:59+00:00	-3	2j0w8qbfskyqjmb@marketplace.amazon.com	Nathan Latimer	+1 602-671-6610 ext. 43996	ABM010	Delivery by Friday | The Spring Fling Bouquet by Arabella Bouquets with a Free Designer Glass Vase	1	0	1	Expedited	Donna Lapsley	60 UNCLE BARNEYS RD			WEST DENNIS	MA	02670-2316	US		Congratulations on beginning your dental implant experience. We appreciate you as a patient!  Dr. Groom & Dr. Latimer From Nathan Latimer	false		
113-1405061-6973834	25365788309970	2020-11-11T18:09:04+00:00	2020-11-11T10:09:04-08:00	2020-11-11T18:34:18+00:00	2020-11-14T07:59:59+00:00	-3	s2flyf1m46lxp5v@marketplace.amazon.com	Janet M. Thompson	+1 213-442-1463 ext. 24699	ABM010	Delivery by Friday | The Spring Fling Bouquet by Arabella Bouquets with a Free Designer Glass Vase	1	0	1	Expedited	Liz Smith	62 PEWTER CIR			CHESTER	NY	10918-3135	US		Miss you! Hope we can be together soon. Love Janet & Eileen From Janet & Eileen	false		
113-3968186-1229850	23616692284922	2020-11-11T18:09:18+00:00	2020-11-11T10:09:18-08:00	2020-11-11T18:39:05+00:00	2020-11-14T07:59:59+00:00	-3	wmdpjb5cqdtnn57@marketplace.amazon.com	candice K. Fischer	+1 213-442-1463 ext. 24515	ABR0022	Delivery by Friday | Arabella Farm Direct Bouquet of 12 Fresh Cut Pink Roses with a Free Glass Vase	1	0	1	Expedited	Stephanie Fischer	327 EVANS AVE			OCEANSIDE	NY	11572-3803	US		Mazel Tov! So happy From Love Mom	false		
112-5062381-3161041	68987694345794	2020-11-11T18:13:51+00:00	2020-11-11T10:13:51-08:00	2020-11-11T18:43:29+00:00	2020-11-14T07:59:59+00:00	-3	nh6cpx75y831pjf@marketplace.amazon.com	Damion Matadin	+1 619-854-2705 ext. 61588	ABR001	Delivery by Friday | Arabella Bouquets 12 Stems of Fresh Cut Red Roses in a Free Designer Glass Vase	1	0	1	Expedited	LizAna Patrick	100 MARK LN UNIT E2			WATERBURY	CT	06704-2441	US			false		
112-0578049-9800204	59904509909298	2020-11-11T18:20:26+00:00	2020-11-11T10:20:26-08:00	2020-11-11T18:50:45+00:00	2020-11-14T07:59:59+00:00	-3	p99wdgr1b59336v@marketplace.amazon.com	Rhonda Gray	+1 602-671-6610 ext. 11442	ABR0066	Delivery by Monday | Arabella Bouquets 12 Stems of Fresh Cut White Roses in a Free Designer Glass Vase	1	0	1	Expedited	Tosha Ayo Alston	FROM RHONDA WITH LOVE AND LIGHT	17658 S GILBERT DR		LOCKPORT	IL	60441-1100	US			false		
113-2657951-1833018	21367585769818	2020-11-11T18:23:16+00:00	2020-11-11T10:23:16-08:00	2020-11-11T18:51:08+00:00	2020-11-14T07:59:59+00:00	-3	zpt5pw8qn6l4k2s@marketplace.amazon.com	Myrna Garron	+1 213-442-1463 ext. 77019	ABM010	Delivery by Friday | The Spring Fling Bouquet by Arabella Bouquets with a Free Designer Glass Vase	1	0	1	Expedited	Emily Zucal and Courtney Garron	160 S MIDDLE NECK RD APT 1A			GREAT NECK	NY	11021-4601	US		Dear Courtney, Happy birthday.  Enjoy your special day!  Love, Mom and Dad From Myrna Garron	false		
112-6736897-9352223	26283639537546	2020-11-11T18:52:21+00:00	2020-11-11T10:52:21-08:00	2020-11-11T18:53:33+00:00	2020-11-14T07:59:59+00:00	-3	q71r929ttx9xncx@marketplace.amazon.com	Sandra VerCrouse	+1 619-854-2705 ext. 82489	ABR004	Delivery by Monday | Arabella Farm Direct Bouquet of 12 Fresh Cut Yellow Roses with a Free Glass Vase	1	0	1	Expedited	A. Jean Tyre	300 BLAKE BLVD			PINEHURST	NC	28374-8474	US			false		
112-9353429-5406642	16637453015722	2020-11-11T18:24:51+00:00	2020-11-11T10:24:51-08:00	2020-11-11T18:54:24+00:00	2020-11-14T07:59:59+00:00	-3	5dzn5qrxc6tcq2f@marketplace.amazon.com	Susan	+1 619-854-2705 ext. 22044	ABR0022	Arabella Farm Direct Bouquet of 12 Fresh Cut Pink Roses with a Free Glass Vase	1	0	1	Expedited	Melanie Floyd	23535 PENINSULA PT			FRANKSTON	TX	75763-4813	US		Meanie! Happy Thanksgiving!  I am thankful for you! LLL!!! Susan From Susan	false		
112-6399411-2868217	66169357527562	2020-11-11T18:26:21+00:00	2020-11-11T10:26:21-08:00	2020-11-11T18:56:05+00:00	2020-11-14T07:59:59+00:00	-3	5dzn5qrxc6tcq2f@marketplace.amazon.com	Susan	+1 213-442-1463 ext. 48768	ABR0022	Arabella Farm Direct Bouquet of 12 Fresh Cut Pink Roses with a Free Glass Vase	1	0	1	Expedited	Margaret Magwire	15845 NE 156TH ST			WOODINVILLE	WA	98072-8960	US		Margaret! Happy Thanksgiving ... I am thankful for you! LLL!!! Susan From Susan	false		
114-5169028-0373055	38096530551154	2020-11-11T18:36:58+00:00	2020-11-11T10:36:58-08:00	2020-11-11T19:07:40+00:00	2020-11-14T07:59:59+00:00	-3	53syzdrbpbfjbvz@marketplace.amazon.com	Vladimir Kleynerman	+1 480-618-5344 ext. 18763	ABR001	Delivery by Friday | Arabella Bouquets 12 Stems of Fresh Cut Red Roses in a Free Designer Glass Vase	1	0	1	Expedited	Ella Kleynerman	21 WESTERVELT PL			WESTWOOD	NJ	07675-1921	US			false		
111-3880951-3337030	06247882018442	2020-11-11T18:43:37+00:00	2020-11-11T10:43:37-08:00	2020-11-11T19:10:55+00:00	2020-11-14T07:59:59+00:00	-3	2j0w8qbfskyqjmb@marketplace.amazon.com	Nathan Latimer	+1 619-854-2705 ext. 82319	ABM010	Delivery by Friday | The Spring Fling Bouquet by Arabella Bouquets with a Free Designer Glass Vase	1	0	1	Expedited	Dorothy Knope	803 TEATICKET HWY			EAST FALMOUTH	MA	02536-5847	US		Congratulations on beginning your dental implant experience. We appreciate you as a patient!  DR Latimer & Staff From Nathan Latimer	false		
111-2742802-9154601	63494680242130	2020-11-11T18:44:49+00:00	2020-11-11T10:44:49-08:00	2020-11-11T19:11:17+00:00	2020-11-14T07:59:59+00:00	-3	tj4wl4346r7kckf@marketplace.amazon.com	Roberta Miles	+1 619-854-2705 ext. 16682	ABR0022	Arabella Farm Direct Bouquet of 12 Fresh Cut Pink Roses with a Free Glass Vase	1	0	1	Expedited	Lucille Brunson Room 12	1352 WELLBROOK CIR NE	MORNINGSIDE OF CONYERS RM 12		CONYERS	GA	30012-3872	US			false		
114-4913853-8247463	58937878750066	2020-11-11T18:48:36+00:00	2020-11-11T10:48:36-08:00	2020-11-11T19:14:13+00:00	2020-11-14T07:59:59+00:00	-3	nlssjpl6ngv9dvd@marketplace.amazon.com	Abdo Naji	0013138768595	ABR001	Delivery by Friday | Arabella Bouquets 12 Stems of Fresh Cut Red Roses in a Free Designer Glass Vase	1	0	1	Expedited	Hager Mohamed Mothana	2390 DANFORTH ST			HAMTRAMCK	MI	48212-3654	US		I A S  I MISS YOU SO MUCH MY LOVE From Abdo Naji	false		
114-4654010-4161037	68654035421890	2020-11-11T18:51:15+00:00	2020-11-11T10:51:15-08:00	2020-11-11T19:19:35+00:00	2020-11-14T07:59:59+00:00	-3	0qlg8pm1g9vg92b@marketplace.amazon.com	Bonnie D Gordon Rabinowitz	+1 602-671-6610 ext. 73293	ABM022	Delivery by Friday | Purple Extravagance Bouquet by Arabella Bouquets	1	0	1	Expedited	Diane and Howard Gartner	2 SPRUCE CT			OWINGS MILLS	MD	21117-1423	US		Dear Diane and Howard, We miss you! Love, Bonnie and Marc From Bonnie D Gordon Rabinowitz	false		
111-4475749-1120238	42488396131490	2020-11-11T18:53:13+00:00	2020-11-11T10:53:13-08:00	2020-11-11T19:22:05+00:00	2020-11-14T07:59:59+00:00	-3	b58my00jt2btlz4@marketplace.amazon.com	Jayne  Godsey	+1 602-671-6610 ext. 73995	ABM022	Delivery by Friday | Purple Extravagance Bouquet by Arabella Bouquets	1	0	1	Expedited	Carrie Hyatt	7810 DAVINCI LN			CHARLOTTE	NC	28226-3929	US		Get well soon, Love, Bobby & Jayne From Bobby & Jayne	false		
114-2033243-0696254	31857546859090	2020-11-11T19:00:30+00:00	2020-11-11T11:00:30-08:00	2020-11-11T19:28:25+00:00	2020-11-14T07:59:59+00:00	-3	cnwx0p3jmtf8lmt@marketplace.amazon.com	Therese Thourot	+1 619-854-2705 ext. 40234	ABR004	Delivery by Monday | Arabella Farm Direct Bouquet of 12 Fresh Cut Yellow Roses with a Free Glass Vase	1	0	1	Expedited	Patricia Bercher	THE FRANCISCAN CENTER	4111 N HOLLAND SYLVANIA RD		TOLEDO	OH	43623-2503	US		Praying for your continued healing. With all of our love, Your family From Therese Thourot	false		
114-9599612-5379454	21764706015058	2020-11-11T19:06:10+00:00	2020-11-11T11:06:10-08:00	2020-11-11T19:33:54+00:00	2020-11-14T07:59:59+00:00	-3	ghjtcf1dz4cw9g1@marketplace.amazon.com	Kathryn Aberman	+1 415-851-9136 ext. 98580	ABR0055	Delivery by Friday | Arabella Farm Direct Bouquet of 12 Stems of Fresh Cut Hot Pink Roses in a Free Designer Glass Vase	1	0	1	Expedited	Kathryn Aberman	4 Sixth Place			Garden City	NY	11530	US			false		
114-9599612-5379454	55695722173642	2020-11-11T19:06:10+00:00	2020-11-11T11:06:10-08:00	2020-11-11T19:33:54+00:00	2020-11-14T07:59:59+00:00	-3	ghjtcf1dz4cw9g1@marketplace.amazon.com	Kathryn Aberman	+1 415-851-9136 ext. 98580	ABR0022	Arabella Farm Direct Bouquet of 12 Fresh Cut Pink Roses with a Free Glass Vase	1	0	1	Expedited	Kathryn Aberman	4 Sixth Place			Garden City	NY	11530	US			false		
111-0684220-5212262	42018499651738	2020-11-11T19:08:54+00:00	2020-11-11T11:08:54-08:00	2020-11-11T19:39:17+00:00	2020-11-14T07:59:59+00:00	-3	29463mv22knjnrt@marketplace.amazon.com	Nicole Jones	+1 602-671-6610 ext. 25422	ABR0022	Arabella Farm Direct Bouquet of 12 Fresh Cut Pink Roses with a Free Glass Vase	1	0	1	Expedited	Sherry Jones	1817 2ND TER			HATTIESBURG	MS	39401-7526	US			false		
114-8461544-2229862	17081031753042	2020-11-11T19:23:52+00:00	2020-11-11T11:23:52-08:00	2020-11-11T19:52:29+00:00	2020-11-14T07:59:59+00:00	-3	zh8j5ymcszcckwc@marketplace.amazon.com	Elaine Pierce	+1 415-851-9136 ext. 82133	ABM010	Delivery by Friday | The Spring Fling Bouquet by Arabella Bouquets with a Free Designer Glass Vase	1	0	1	Expedited	Mary Ann Crump	509 LUMBEE RD			SOUTHPORT	NORTH CAROLINA	28461-8999	US			false		
113-5078603-0217848	59548038843962	2020-11-11T19:28:04+00:00	2020-11-11T11:28:04-08:00	2020-11-11T19:55:25+00:00	2020-11-14T07:59:59+00:00	-3	5csngx46892cx00@marketplace.amazon.com	Eve	+1 929-436-4790 ext. 56437	ABM022	Delivery by Friday | Purple Extravagance Bouquet by Arabella Bouquets	1	0	1	Expedited	Carolyn King	4 EDGEMERE AVE			WARWICK	RI	02889-4008	US		Happy Birthday Mom!! Happy Birthday Grandma!!! From Scott, Eve, Scott, Josh and Juliana	false		
111-0735468-8215400	55821429611762	2020-11-11T19:26:13+00:00	2020-11-11T11:26:13-08:00	2020-11-11T19:55:35+00:00	2020-11-14T07:59:59+00:00	-3	2g4myv76x79pys3@marketplace.amazon.com	joe cassidy	+1 213-442-1463 ext. 76860	ABM022	Delivery by Friday | Purple Extravagance Bouquet by Arabella Bouquets	1	0	1	Expedited	Bethan Nowak	573 ROUTE 196			TOBYHANNA	PA	18466-8354	US		Love you Bunnie 💜💜💜 From Mama 🥰	false		
114-6179059-6213820	38613477344018	2020-11-11T19:32:00+00:00	2020-11-11T11:32:00-08:00	2020-11-11T20:00:38+00:00	2020-11-14T07:59:59+00:00	-3	dstwtqcw7gq5t8v@marketplace.amazon.com	Juanita Geiger	+1 619-854-2705 ext. 38069	ABM010	Delivery by Friday | The Spring Fling Bouquet by Arabella Bouquets with a Free Designer Glass Vase	1	0	1	Expedited	Jenny wakefield	3832 PLEASANT PLAINS RD			MATTHEWS	NC	28104-5958	US		Enjoy your gift! From Juanita Geiger	false		
111-3906354-6071440	31699725880706	2020-11-11T19:40:33+00:00	2020-11-11T11:40:33-08:00	2020-11-11T20:05:09+00:00	2020-11-14T07:59:59+00:00	-3	1wcvjqbc1mksby5@marketplace.amazon.com	nancy Dedenbach	+1 929-436-4790 ext. 62552	ABR0022	Arabella Farm Direct Bouquet of 12 Fresh Cut Pink Roses with a Free Glass Vase	1	0	1	Expedited	Tracy Parent	1632 NE 5TH CT			FORT LAUDERDALE	FL	33301-1330	US			false		
111-6764271-4970601	29959346174098	2020-11-11T20:06:18+00:00	2020-11-11T12:06:18-08:00	2020-11-11T20:07:11+00:00	2020-11-14T07:59:59+00:00	-3	2j0w8qbfskyqjmb@marketplace.amazon.com	Nathan Latimer	+1 602-671-6610 ext. 05504	ABM010	Delivery by Friday | The Spring Fling Bouquet by Arabella Bouquets with a Free Designer Glass Vase	1	0	1	Expedited	Joan Shemit	58 ANTHIERS WAY			EDGARTOWN	MA	02539-6713	US		Congratulations on beginning your dental implant experience. We appreciate you as a patient!  Dr. Herman & Dr. Latimer From Nathan Latimer	false		
111-7249270-5348217	08874050199994	2020-11-11T19:42:36+00:00	2020-11-11T11:42:36-08:00	2020-11-11T20:07:37+00:00	2020-11-14T07:59:59+00:00	-3	8h7hxgtypppr1df@marketplace.amazon.com	Joi Johnson	+1 619-854-2705 ext. 56618	ABR0022	Arabella Farm Direct Bouquet of 12 Fresh Cut Pink Roses with a Free Glass Vase	1	0	1	Expedited	LaTanya Brooks	10305 MEADOWLARK LN			SPOTSYLVANIA	VA	22553-7610	US		From Children’s Church. God Bless You. From Carrie Johnson	false		
112-9534256-3511466	01136714082034	2020-11-11T19:53:37+00:00	2020-11-11T11:53:37-08:00	2020-11-11T20:18:32+00:00	2020-11-14T07:59:59+00:00	-3	vzvzsfs25fsnxtc@marketplace.amazon.com	Deborah Stonestreet	+1 213-442-1463 ext. 98553	ABM022	Delivery by Friday | Purple Extravagance Bouquet by Arabella Bouquets	1	0	1	Expedited	Doris Stonestreet	4930 S REGENCY ST			SALT LAKE CITY	UT	84117-6324	US			false		
113-1150912-5983418	49007366829578	2020-11-11T20:01:08+00:00	2020-11-11T12:01:08-08:00	2020-11-11T20:23:54+00:00	2020-11-14T07:59:59+00:00	-3	kb1zhnstm3c2wqy@marketplace.amazon.com	Faldik Family	+1 619-854-2705 ext. 50271	ABR0033	Delivery by Friday | Arabella Farm Direct Bouquet of 12 Fresh Cut Orange Roses with a Free Glass Vase	1	0	1	Expedited	Carol Tolbert	40 GREENS SHADE			SAN ANTONIO	TX	78216-7814	US		Beautiful Carol, we love you. Lifting you and dear Amber up in prayer, so very sorry for the passing of your precious mom. We give thanks to our Heavenly Father for you praying during this Holiday Season. Psalm 139:17-18TPT From Love, Faldik Family	false		
113-8531734-7708252	08970880130778	2020-11-11T20:11:40+00:00	2020-11-11T12:11:40-08:00	2020-11-11T20:37:12+00:00	2020-11-14T07:59:59+00:00	-3	7d1h29rxdfnn07z@marketplace.amazon.com	Arthur Bell	+1 213-442-1463 ext. 30339	ABM022	Delivery by Friday | Purple Extravagance Bouquet by Arabella Bouquets	1	0	1	Expedited	Shirley Bell	176 GORDON WAY S			GRANTS PASS	OR	97527-4514	US		Dear Mom, Thinking of you, and I hope this brightens your day. From Love, Arthur jr and Glenda	false		
114-0996968-9377829	55332160101922	2020-11-11T20:24:44+00:00	2020-11-11T12:24:44-08:00	2020-11-11T20:48:28+00:00	2020-11-14T07:59:59+00:00	-3	h5500455s7dnv4h@marketplace.amazon.com	tom	+1 602-671-6610 ext. 44175	ABM022	Delivery by Friday | Purple Extravagance Bouquet by Arabella Bouquets	1	0	1	Expedited	Nancy Walls	1744 CASTILE ST NW			UNIONTOWN	OH	44685-7395	US		Happy Birthday we LOVE you From Tom & Lois	false		
113-8843627-7081058	47623786117594	2020-11-11T20:30:52+00:00	2020-11-11T12:30:52-08:00	2020-11-11T21:00:59+00:00	2020-11-14T07:59:59+00:00	-3	n2z2gjg5prpbtsk@marketplace.amazon.com	Pam Meehan	+1 213-442-1463 ext. 68866	ABR0033	Delivery by Friday | Arabella Farm Direct Bouquet of 12 Fresh Cut Orange Roses with a Free Glass Vase	1	0	1	Expedited	Ramona Meehan	12088 MADISON CIR			ROGERS	MN	55374-6514	US		We are so sorry KC passed away so young!  We are all here for you:  your human children, grandchildren, great grandson and furry grandchildren! From Pam and Nicole	false		
113-0745121-2140252	23190343681986	2020-11-11T20:34:27+00:00	2020-11-11T12:34:27-08:00	2020-11-11T21:03:36+00:00	2020-11-14T07:59:59+00:00	-3	t3952r9whwgn4r2@marketplace.amazon.com	Nancy L. Hershgold	+1 213-442-1463 ext. 11068	ABR0055	Delivery by Friday | Arabella Farm Direct Bouquet of 12 Stems of Fresh Cut Hot Pink Roses in a Free Designer Glass Vase	1	0	1	Expedited	Bubba Hershgold	1040 VALLEY RIM RD			MCCALL	ID	83638-4614	US		To my favorite Hershgold!  Happy birthday Bubba! From Nancy L. Nichols	false		
113-0801467-1461011	54122493051074	2020-11-11T20:45:29+00:00	2020-11-11T12:45:29-08:00	2020-11-11T21:12:38+00:00	2020-11-14T07:59:59+00:00	-3	1fgbwdjcl77n1x3@marketplace.amazon.com	mary reid	+1 480-618-5344 ext. 91772	ABR0022	Arabella Farm Direct Bouquet of 12 Fresh Cut Pink Roses with a Free Glass Vase	1	0	1	Expedited	Gail Todd	12 MOUNTAIN LAURELS DR APT 106			NASHUA	NH	03062-2229	US		Hi Gail, I wish I could have sent a lasagna but these pretty roses will have to do.  Best wishes for a full and speedy recovery!!!  Love ya’, Mary Reid	false		
111-7647974-9124266	36836596580290	2020-11-11T20:44:21+00:00	2020-11-11T12:44:21-08:00	2020-11-11T21:12:54+00:00	2020-11-14T07:59:59+00:00	-3	swwkw96m6x2vmd7@marketplace.amazon.com	Jennifer Thirtle	+1 619-854-2705 ext. 34696	ABM022	Delivery by Friday | Purple Extravagance Bouquet by Arabella Bouquets	1	0	1	Expedited	Yolanda Ramirez	8425 QUIETUD ST			EDINBURG	TX	78542-4748	US		feliz cumpleaños  Love Theodore From Theodore Ramirez	false		
113-0943619-9581051	20290561913970	2020-11-11T20:44:03+00:00	2020-11-11T12:44:03-08:00	2020-11-11T21:14:40+00:00	2020-11-14T07:59:59+00:00	-3	3yx55k6v7xz31tj@marketplace.amazon.com	GREGORIO LIRIANO	+1 929-436-4790 ext. 06570	ABR0055	Delivery by Friday | Arabella Farm Direct Bouquet of 12 Stems of Fresh Cut Hot Pink Roses in a Free Designer Glass Vase	1	0	1	Expedited	Ana Polanco	1012 N 6TH ST			READING	PA	19601-1812	US			false		
114-4744460-0592207	18662025635034	2020-11-11T20:46:20+00:00	2020-11-11T12:46:20-08:00	2020-11-11T21:14:55+00:00	2020-11-14T07:59:59+00:00	-3	jcbm65gczkwcccl@marketplace.amazon.com	Kelly	+1 480-618-5344 ext. 46980	ABR0022	Arabella Farm Direct Bouquet of 12 Fresh Cut Pink Roses with a Free Glass Vase	1	0	1	Expedited	Rhonda Babbitt	119 S DAVID CT			POST FALLS	ID	83854-9678	US		Happy Birthday Mom! I love you! From Kelly	false		
113-3802635-4497064	16246677140506	2020-11-11T20:59:56+00:00	2020-11-11T12:59:56-08:00	2020-11-11T21:28:14+00:00	2020-11-14T07:59:59+00:00	-3	5ml57b8k20jtxvq@marketplace.amazon.com	monica huerta	+1 929-436-4790 ext. 64536	ABM026	Delivery by Monday | The Amour Bouquet by Arabella Bouquets	1	0	1	Expedited	Alicia huerta	450 CARDINAL CT			KISSIMMEE	FL	34759-4423	US		Feliz cumpleaños abuela !!! Te amamos mucho y te extrañamos, que Dios te bendiga siempre y te cuide, pronto te volveremos a ver. Tus nietos Juandi y Paloma De monica huerta	false		
112-1954650-3139464	33066644488530	2020-11-11T20:59:52+00:00	2020-11-11T12:59:52-08:00	2020-11-11T21:28:42+00:00	2020-11-14T07:59:59+00:00	-3	0hltl77x0gmy9n3@marketplace.amazon.com	Peter Pero	+1 619-854-2705 ext. 08456	ABR0022	Arabella Farm Direct Bouquet of 12 Fresh Cut Pink Roses with a Free Glass Vase	1	0	1	Expedited	Lisa Wayne Falk	10863 BRANT RESERVATION RD			BRANT	NY	14027-0099	US		Happy Birthday to the most special Mom and Oma! Hope your day is as lovely and beautiful as you! We love and miss you so much! From Peter, Nicole, Peter Jr, and Kiera Pero	false		
112-5359441-9616213	62876191768338	2020-11-11T21:07:29+00:00	2020-11-11T13:07:29-08:00	2020-11-11T21:32:41+00:00	2020-11-14T07:59:59+00:00	-3	419b3p41ljt9tg7@marketplace.amazon.com	jeannette gutierrez	+1 602-671-6610 ext. 58478	ABM026	Delivery by Monday | The Amour Bouquet by Arabella Bouquets	1	0	1	Expedited	Josephine Gutierrez	11573 BAYLOR DR			NORWALK	CA	90650-6943	US		Happy Birthday Mom!!!  We hope you have a great day and are sending you lots of love!! Hope all your birthday wishes come true! From Jeannette and Malek	false		
113-0279974-9488221	18335465900538	2020-11-11T21:17:16+00:00	2020-11-11T13:17:16-08:00	2020-11-11T21:39:51+00:00	2020-11-14T07:59:59+00:00	-3	kdb2vk72dfppwv7@marketplace.amazon.com	Cindy Goldman	+1 619-854-2705 ext. 23305	ABR0022	Arabella Farm Direct Bouquet of 12 Fresh Cut Pink Roses with a Free Glass Vase	1	0	1	Expedited	Mrs. Joyce Suckerman	2184 SILENT ECHOES DR			HENDERSON	NV	89044-0182	US		Happy Birthday Joyce From Cindy and Michael	false		
113-5172590-1133840	23181660454474	2020-11-11T21:14:38+00:00	2020-11-11T13:14:38-08:00	2020-11-11T21:44:43+00:00	2020-11-14T07:59:59+00:00	-3	44ys9ds5h9254v0@marketplace.amazon.com	Mejlo	+1 602-671-6610 ext. 96746	ABR001	Delivery by Friday | Arabella Bouquets 12 Stems of Fresh Cut Red Roses in a Free Designer Glass Vase	1	0	1	Expedited	Erika Willey	703 E 3RD NORTH ST APT L6			SUMMERVILLE	SC	29485-7055	US			false		
113-2776151-2917843	22817028142474	2020-11-11T21:25:26+00:00	2020-11-11T13:25:26-08:00	2020-11-11T21:53:27+00:00	2020-11-14T07:59:59+00:00	-3	vb8vpxqy1tfjnds@marketplace.amazon.com	Darcy J Williams	+1 929-436-4790 ext. 90093	ABR0022	Arabella Farm Direct Bouquet of 12 Fresh Cut Pink Roses with a Free Glass Vase	1	0	1	Expedited	Amanda Keibler	8466 SLEE RD			ONSTED	MI	49265-9535	US		Amanda,   We appreciate you so very much!  You are not only our co-worker, but also our friend.  We love you! From Darcy and Kaite	false		
111-1007518-0744210	17738548393698	2020-11-11T21:33:02+00:00	2020-11-11T13:33:02-08:00	2020-11-11T22:03:15+00:00	2020-11-14T07:59:59+00:00	-3	8s2vd5y1dq3v1wc@marketplace.amazon.com	Hongliang Guo	+1 929-436-4790 ext. 49856	ABR0055	Delivery by Friday | Arabella Farm Direct Bouquet of 12 Stems of Fresh Cut Hot Pink Roses in a Free Designer Glass Vase	1	0	1	Expedited	Yadan Tang	2131 Creek Bank Dr			Columbus	in	47201	US		Happy Birthday! From Hongliang Guo	false		
113-2901758-4334633	30085046203458	2020-11-11T21:42:29+00:00	2020-11-11T13:42:29-08:00	2020-11-11T22:06:24+00:00	2020-11-14T07:59:59+00:00	-3	ws2srymgt6vdn5h@marketplace.amazon.com	Steve Heitmiller	+1 619-854-2705 ext. 49623	ABR0066	Delivery by Monday | Arabella Bouquets 12 Stems of Fresh Cut White Roses in a Free Designer Glass Vase	1	0	1	Expedited	Dawn Beck	7268 ACORN GLEN LOOP			ROSEVILLE	CA	95747-8155	US		Dawn, I am so sorry for your loss.  Sending you lots of love and hugs. Love, Nena From Nena Heitmiller	false		
113-3455862-4568213	29308380386602	2020-11-11T21:38:26+00:00	2020-11-11T13:38:26-08:00	2020-11-11T22:07:20+00:00	2020-11-14T07:59:59+00:00	-3	sq3qbhw08bwlbmk@marketplace.amazon.com	Rosemary Ybarra-Hernandez	+1 619-854-2705 ext. 24500	ABR0055	Delivery by Friday | Arabella Farm Direct Bouquet of 12 Stems of Fresh Cut Hot Pink Roses in a Free Designer Glass Vase	1	0	1	Expedited	Irene Diaz	921 W VERDE LN			PHOENIX	AZ	85013-4030	US		Happy Birthday Comadre - Even though - YOU are MY gift!  Thank you for always being there for me. Love you Mucho!!! From Rosemary Ybarra-Hernandez	false		
111-0161509-5821024	70142295748066	2020-11-11T21:48:08+00:00	2020-11-11T13:48:08-08:00	2020-11-11T22:10:52+00:00	2020-11-14T07:59:59+00:00	-3	c7nx3yb6gf0qsfn@marketplace.amazon.com	Jacob Odom	+1 213-442-1463 ext. 05337	ABR0022	Arabella Farm Direct Bouquet of 12 Fresh Cut Pink Roses with a Free Glass Vase	1	0	1	Expedited	Jacob Odom	3615 COUNTY ROAD 511			QUITMAN	MS	39355-8367	US		I know I don’t tell you near as much as I should but I appreciate every single thing you have done for me. Your the best mom anyone could ask for. I love you so, so much. Been missing you and home more than ever. From Your son	false		
112-1231130-4342642	19541275191346	2020-11-11T21:49:35+00:00	2020-11-11T13:49:35-08:00	2020-11-11T22:12:12+00:00	2020-11-14T07:59:59+00:00	-3	69d9sq842b3fv3n@marketplace.amazon.com	shannon e. sommers	+1 213-442-1463 ext. 71529	ABM022	Delivery by Friday | Purple Extravagance Bouquet by Arabella Bouquets	1	0	1	Expedited	OU Medical Center Room 760	700 NE 13TH ST			OKLAHOMA CITY	OK	73104-5004	US		Love you Misty!! We hope you get well soon!! Love, Pat, Paul & BC From shannon e. sommers	false		
112-4595545-3629824	62489064386130	2020-11-11T21:44:21+00:00	2020-11-11T13:44:21-08:00	2020-11-11T22:13:00+00:00	2020-11-14T07:59:59+00:00	-3	h0q30ntdsk1rnyt@marketplace.amazon.com	Rae Russell	+1 213-442-1463 ext. 25806	ABM022	Delivery by Friday | Purple Extravagance Bouquet by Arabella Bouquets	1	0	1	Expedited	Alice Grant	2290 INLAND DR APT 14			NORTH BEND	OR	97459-1240	US		Happy Flowers From Rae Russell	false		
113-5553793-4384254	25200616544018	2020-11-11T21:48:18+00:00	2020-11-11T13:48:18-08:00	2020-11-11T22:13:12+00:00	2020-11-14T07:59:59+00:00	-3	7rqqk4qpvcfjytl@marketplace.amazon.com	Linda Gray	+1 602-671-6610 ext. 77277	ABR0022	Arabella Farm Direct Bouquet of 12 Fresh Cut Pink Roses with a Free Glass Vase	1	0	1	Expedited	Cristal FitzGerald	197 FAIRFIELD DR			JEFFERSON	GA	30549-7412	US		We were so sorry to hear about your mom. Please let us know if there's anything we can do, Love Linda & Kenny Gray	false		
112-7934704-0573046	58124411804234	2020-11-11T21:50:30+00:00	2020-11-11T13:50:30-08:00	2020-11-11T22:20:22+00:00	2020-11-14T07:59:59+00:00	-3	g4wcshv4skbxmj3@marketplace.amazon.com	Robert Fogarty	+1 619-854-2705 ext. 66252	ABM020	Delivery by Saturday | The Sunset Bouquet by Arabella Bouquets	1	0	1	Expedited	Robert Fogarty	2806 Oak Point Drive			Middleborough	MA	02346	US			false		
113-6312719-1289817	05043327298842	2020-11-11T22:13:33+00:00	2020-11-11T14:13:33-08:00	2020-11-11T22:40:12+00:00	2020-11-14T07:59:59+00:00	-3	jfz2ftznc500wrx@marketplace.amazon.com	Debra D Mullowney	+1 213-442-1463 ext. 47280	ABM022	Delivery by Friday | Purple Extravagance Bouquet by Arabella Bouquets	1	0	1	Expedited	Oleta Olson	1000 FOUNTAIN TERRACE DR UNIT 311			LEWISTOWN	MT	59457-1974	US		Happy Birthday, Mom!  Love You,     Marc and Deb From Debra D Mullowney	false		
111-0769094-3577842	55661073602370	2020-11-11T22:19:53+00:00	2020-11-11T14:19:53-08:00	2020-11-11T22:47:38+00:00	2020-11-14T07:59:59+00:00	-3	fjqxf3f0k1qx34f@marketplace.amazon.com	Cynthia Fay	+1 602-671-6610 ext. 95789	ABR0055	Delivery by Friday | Arabella Farm Direct Bouquet of 12 Stems of Fresh Cut Hot Pink Roses in a Free Designer Glass Vase	1	0	1	Expedited	Alida Salazar	1225 FILBERT RD APT J-3			LYNNWOOD	WA	98036-4975	US		We miss seeing you both, and think of you often, have a wonderful holiday and stay safe!! From Cyndi & Harry	false		
111-0769094-3577842	20318696461562	2020-11-11T22:19:53+00:00	2020-11-11T14:19:53-08:00	2020-11-11T22:47:38+00:00	2020-11-14T07:59:59+00:00	-3	fjqxf3f0k1qx34f@marketplace.amazon.com	Cynthia Fay	+1 602-671-6610 ext. 95789	ABR0033	Delivery by Friday | Arabella Farm Direct Bouquet of 12 Fresh Cut Orange Roses with a Free Glass Vase	1	0	1	Expedited	Alida Salazar	1225 FILBERT RD APT J-3			LYNNWOOD	WA	98036-4975	US		We miss seeing you both, and think of you often, have a wonderful holiday and stay safe! From Cyndi & Harry	false		
113-3947405-2349054	24991480876514	2020-11-11T22:25:23+00:00	2020-11-11T14:25:23-08:00	2020-11-11T22:55:57+00:00	2020-11-14T07:59:59+00:00	-3	766w0nj44mbbhsf@marketplace.amazon.com	Beverly H. Little	+1 213-442-1463 ext. 23539	ABM022	Delivery by Friday | Purple Extravagance Bouquet by Arabella Bouquets	1	0	1	Expedited	Hyatt Humphrey	2484 LITTLE CYPRESS RD			CALVERT CITY	KY	42029-8937	US			false		
114-3667849-7733001	17868685604898	2020-11-11T22:27:23+00:00	2020-11-11T14:27:23-08:00	2020-11-11T22:57:56+00:00	2020-11-14T07:59:59+00:00	-3	lfkrl9cn00b2zsq@marketplace.amazon.com	kyle jones	+1 619-854-2705 ext. 30751	ABM022	Delivery by Friday | Purple Extravagance Bouquet by Arabella Bouquets	1	0	1	Expedited	kyle jones	28482 W state highway 28			gravelly	Arkansas	72838	US			false		
111-4950242-3394609	43316331036794	2020-11-11T22:29:58+00:00	2020-11-11T14:29:58-08:00	2020-11-11T23:00:12+00:00	2020-11-14T07:59:59+00:00	-3	zg0vrfk8cx050k7@marketplace.amazon.com	hanna marginean	+1 213-442-1463 ext. 33063	ABR0033	Delivery by Friday | Arabella Farm Direct Bouquet of 12 Fresh Cut Orange Roses with a Free Glass Vase	1	0	1	Expedited	Stella Goodson	4293 WOODS EDGE ST			SAGINAW	MI	48603-4243	US			false		
111-5281303-6603424	68339559214418	2020-11-11T22:39:37+00:00	2020-11-11T14:39:37-08:00	2020-11-11T23:04:49+00:00	2020-11-14T07:59:59+00:00	-3	b1yld368wj1zbws@marketplace.amazon.com	Teresa Bailey	+1 213-442-1463 ext. 44644	ABM020	Delivery by Saturday | The Sunset Bouquet by Arabella Bouquets	1	0	1	Expedited	Bea Bailey	BOYD COTTAGE 210 FAIRLANE DR			WAYNESBORO	TN	38485-2419	US			false		
114-5572206-9721008	42816174742250	2020-11-11T22:35:59+00:00	2020-11-11T14:35:59-08:00	2020-11-11T23:05:10+00:00	2020-11-14T07:59:59+00:00	-3	6fs34px23g1zywj@marketplace.amazon.com	W B Barrett	+1 619-854-2705 ext. 32035	ABB005	Delivery by Monday | Arabella Bouquets 24 Stems of Fresh Cut Red Roses in a Designer Glass Vase	1	0	1	Expedited	Allison A. Llyod	191 MEADOWVIEW DR			STATE COLLEGE	PA	16801-2569	US		Thinking of you... From B-Rad	false		
114-4618390-6224258	00566112170058	2020-11-11T22:44:36+00:00	2020-11-11T14:44:36-08:00	2020-11-11T23:11:19+00:00	2020-11-14T07:59:59+00:00	-3	b7rq3s4lg519hzt@marketplace.amazon.com	Jeremy Phillips	+1 929-436-4790 ext. 68828	ABM022	Delivery by Friday | Purple Extravagance Bouquet by Arabella Bouquets	1	0	1	Expedited	Shelley Drujak	19101 MYSTIC POINTE DR APT 1508			AVENTURA	FL	33180-4517	US		Dear Shelley Wishing you a speedy recovery. All our love, Sharon & Jeremy From Jeremy Phillips	false		
112-4815039-2009001	69234049152754	2020-11-11T22:47:37+00:00	2020-11-11T14:47:37-08:00	2020-11-11T23:17:17+00:00	2020-11-14T07:59:59+00:00	-3	13c0vx4jj081zht@marketplace.amazon.com	Cristina Toro	+1 213-442-1463 ext. 89908	ABM022	Delivery by Friday | Purple Extravagance Bouquet by Arabella Bouquets	1	0	1	Expedited	Dr. James Rhee	10027 ROYAL EAGLE LN			HIGHLANDS RANCH	CO	80129-5654	US		Sending well wishes and prayers to you and your family. Please accept my heartfelt condolences. From Bahri Bilir, Luke Evans, Steve Lawrence, Erik Springer & Your Arapahoe Family	true		
114-3477465-6767468	50436023598034	2020-11-11T22:49:34+00:00	2020-11-11T14:49:34-08:00	2020-11-11T23:18:35+00:00	2020-11-14T07:59:59+00:00	-3	ltn1072z6y5q9t0@marketplace.amazon.com	Joclyn Emery	+1 480-618-5344 ext. 17497	ABM022	Delivery by Friday | Purple Extravagance Bouquet by Arabella Bouquets	1	0	1	Expedited	Dana Smick (Mom)	3971 NE CAMPUS LN			BREMERTON	WA	98311-9424	US		Happy Birthday to the worlds best Mom and Nana. We love you and miss you!! Jason, Joclyn Ryan and Nolan From Joclyn Such	false		
112-1760192-2657024	17483132651930	2020-11-11T23:02:50+00:00	2020-11-11T15:02:50-08:00	2020-11-11T23:31:39+00:00	2020-11-14T07:59:59+00:00	-3	q56h04yf08j1krp@marketplace.amazon.com	Antonio Cardenas	+1 415-851-9136 ext. 47036	ABM022	Delivery by Friday | Purple Extravagance Bouquet by Arabella Bouquets	1	0	1	Expedited	Michelle O’Rourke	100 MCGREGOR ST			MANCHESTER	NH	03102-3730	US			false		
112-9058479-1701004	44214009121730	2020-11-11T23:13:42+00:00	2020-11-11T15:13:42-08:00	2020-11-11T23:40:46+00:00	2020-11-14T07:59:59+00:00	-3	f6sptt0twh4xq2j@marketplace.amazon.com	Mark Babcock	+1 480-618-5344 ext. 66275	ABM022	Delivery by Friday | Purple Extravagance Bouquet by Arabella Bouquets	1	0	1	Expedited	Scott Melvin	1659 W CAMINO ACIERTO			SAHUARITA	AZ	85629-9115	US		Dear Scott and Shauna, May the peace that comes from the memories of wonderful times and love shared comfort you now and in the days ahead. Our blessed thoughts and prayers are with you. From Carole and the Babcock's	false		
112-8340478-6005030	19121981993666	2020-11-11T23:19:30+00:00	2020-11-11T15:19:30-08:00	2020-11-11T23:45:48+00:00	2020-11-14T07:59:59+00:00	-3	np06t7fdtvvxx7j@marketplace.amazon.com	Martha B. Neumeister	+1 619-854-2705 ext. 28495	ABM010	Delivery by Friday | The Spring Fling Bouquet by Arabella Bouquets with a Free Designer Glass Vase	1	0	1	Expedited	Annie DiMauro	581 MANOR RD			SEVERNA PARK	MD	21146-2643	US		Bravo! Congratulations! All of those children were so fortunate to be in your loving care. Just think, some of them are now in college. We love you! From Mom and Dad	false		
111-6204024-9824235	26483180888874	2020-11-11T23:28:34+00:00	2020-11-11T15:28:34-08:00	2020-11-11T23:59:11+00:00	2020-11-14T07:59:59+00:00	-3	w3lbf7hy964r21v@marketplace.amazon.com	Barbara Comerford	+1 602-671-6610 ext. 34195	ABR0055	Delivery by Friday | Arabella Farm Direct Bouquet of 12 Stems of Fresh Cut Hot Pink Roses in a Free Designer Glass Vase	1	0	1	Expedited	Barbara Comerford	796 E RIDGEWOOD AVE			RIDGEWOOD	NJ	07450-3924	US			false		
112-5228244-3047428	44729082413546	2020-11-11T23:30:22+00:00	2020-11-11T15:30:22-08:00	2020-11-12T00:01:03+00:00	2020-11-14T07:59:59+00:00	-3	8sqdkv9wcfsslzm@marketplace.amazon.com	jody	+1 602-671-6610 ext. 64967	ABR0022	Arabella Farm Direct Bouquet of 12 Fresh Cut Pink Roses with a Free Glass Vase	1	0	1	Expedited	Marsha Potter	7929 PERIDOT CIR			MURFREESBORO	TN	37127-2917	US			false		
113-3148008-8553025	55353610825498	2020-11-11T23:37:35+00:00	2020-11-11T15:37:35-08:00	2020-11-12T00:01:56+00:00	2020-11-14T07:59:59+00:00	-3	00y8t1p0w24hwb3@marketplace.amazon.com	Catherine Holland	+1 415-851-9136 ext. 09332	ABR004	Delivery by Monday | Arabella Farm Direct Bouquet of 12 Fresh Cut Yellow Roses with a Free Glass Vase	1	0	1	Expedited	Lisa Peacock	2201 OLD WESTMINSTER PIKE TRLR 23			FINKSBURG	MD	21048-1640	US		Hope these help cheer you up, my friend!! From Cass	false		
113-1649841-4165031	03022497156314	2020-11-11T23:48:45+00:00	2020-11-11T15:48:45-08:00	2020-11-12T00:15:02+00:00	2020-11-14T07:59:59+00:00	-3	tkj5txhd68z3nf5@marketplace.amazon.com	Plissonneau	+1 480-618-5344 ext. 28275	ABM022	Delivery by Friday | Purple Extravagance Bouquet by Arabella Bouquets	1	0	1	Expedited	Emilie Bernard	3211 JUBILEE TRL			DALLAS	TX	75229-3808	US		Toutes nos félicitations pour votre magnifique Joséphine. Nous avons tellement hâte de la rencontrer. On vous souhaite beaucoup de bonheur à 4. Maud, Antoine, Alice et Louis From Plissonneau Maud	false		
113-4024082-0077852	02684260742962	2020-11-11T23:46:24+00:00	2020-11-11T15:46:24-08:00	2020-11-12T00:15:23+00:00	2020-11-14T07:59:59+00:00	-3	ydkhypxpjys94cm@marketplace.amazon.com	Donna M. Bronson	+1 929-436-4790 ext. 91593	ABR0022	Arabella Farm Direct Bouquet of 12 Fresh Cut Pink Roses with a Free Glass Vase	1	0	1	Expedited	Melissa Carson	14515 ARROYO HONDO			SAN DIEGO	CA	92127-3640	US		So sorry for the belated Happiest Birthday Wishes to you Melissa! Hope you had a great day. From Love, Phil & Donna	true		
114-2863789-5292240	23737694865258	2020-11-11T23:51:36+00:00	2020-11-11T15:51:36-08:00	2020-11-12T00:21:43+00:00	2020-11-14T07:59:59+00:00	-3	8rghth4nwcqbdr5@marketplace.amazon.com	deb porter	+1 415-851-9136 ext. 76120	ABR0022	Arabella Farm Direct Bouquet of 12 Fresh Cut Pink Roses with a Free Glass Vase	1	0	1	Expedited	Gary Blackney	1611 SW PROSPERITY WAY			PALM CITY	FL	34990-2429	US			false		
111-2891831-9534666	61309423866610	2020-11-12T00:10:14+00:00	2020-11-11T16:10:14-08:00	2020-11-12T00:38:11+00:00	2020-11-14T07:59:59+00:00	-3	x13bcjyjmj1yzfj@marketplace.amazon.com	mary e eastman	+1 619-854-2705 ext. 15713	ABR0033	Delivery by Friday | Arabella Farm Direct Bouquet of 12 Fresh Cut Orange Roses with a Free Glass Vase	1	0	1	Expedited	NANCY MILAM	63 CLUBHOUSE RD			ROTONDA WEST	FL	33947-2009	US		HAPPY BIRTHDAY MOM!! ENJOY! LOVE BETH! From mary e eastman	false		
112-6731622-8707420	45506260261314	2020-11-12T00:17:47+00:00	2020-11-11T16:17:47-08:00	2020-11-12T00:39:51+00:00	2020-11-14T07:59:59+00:00	-3	l4gmk7wknhqb73t@marketplace.amazon.com	dai trang woznicki	+1 602-671-6610 ext. 50048	ABR015	Delivery by Monday | Arabella Farm Direct Bouquet of 18 Fresh Cut Orange Roses with a Free Glass Vase	1	0	1	Expedited	Dao Huynh	14362 BUSHARD ST SPC 51			WESTMINSTER	CA	92683-5158	US		Chi Dao, My heart felt condolences to you and your family. Please know that my thoughts and prayers are with you during this sad time. Em cua chi, MiMi From dai trang woznicki	false		
113-4242656-7978640	34054138911818	2020-11-12T00:10:50+00:00	2020-11-11T16:10:50-08:00	2020-11-12T00:40:34+00:00	2020-11-14T07:59:59+00:00	-3	ntd8llc5ctm5fp0@marketplace.amazon.com	Charles Newbeck	+1 619-854-2705 ext. 56794	ABM022	Delivery by Friday | Purple Extravagance Bouquet by Arabella Bouquets	1	0	1	Expedited	Charles Newbeck	957 LUKE ST			INDEPENDENCE	OR	97351-9407	US			false		
114-9567365-8886641	28447035584882	2020-11-12T00:15:46+00:00	2020-11-11T16:15:46-08:00	2020-11-12T00:45:05+00:00	2020-11-14T07:59:59+00:00	-3	pd4pvygrxd855cz@marketplace.amazon.com	joanne schultis	+1 480-618-5344 ext. 04738	ABM022	Delivery by Friday | Purple Extravagance Bouquet by Arabella Bouquets	1	0	1	Expedited	Lynette Lorensen	352 N PINE ST			DEWEY	OK	74029-2221	US			false		
111-7916200-5597801	39901128041362	2020-11-12T00:17:30+00:00	2020-11-11T16:17:30-08:00	2020-11-12T00:47:47+00:00	2020-11-14T07:59:59+00:00	-3	9yf6f4dg5dr20d4@marketplace.amazon.com	F.Rene Van de Carr MD.	+5043908990	ABM022	Delivery by Friday | Purple Extravagance Bouquet by Arabella Bouquets	1	0	1	Expedited	Kara Vandecarr	1649 JOSEPH ST			NEW ORLEANS	LA	70115-5034	US			false		
113-2388826-9721814	43277592636346	2020-11-12T00:32:34+00:00	2020-11-11T16:32:34-08:00	2020-11-12T00:49:33+00:00	2020-11-14T07:59:59+00:00	-3	xs54pn8zytflkkt@marketplace.amazon.com	Sara Bonilla	+1 213-442-1463 ext. 56041	ABM022	Delivery by Friday | Purple Extravagance Bouquet by Arabella Bouquets	1	0	1	Expedited	Ligia Odio	9656 LUBAO AVE			CHATSWORTH	CA	91311-5508	US		Happy Birthday, Ligia Have a happy and joyful day. See you on the 26th. From Sara Bonilla	false		
114-8682131-1134651	17013155264386	2020-11-12T00:33:13+00:00	2020-11-11T16:33:13-08:00	2020-11-12T00:57:52+00:00	2020-11-14T07:59:59+00:00	-3	hfr2pvxq0lg4d4d@marketplace.amazon.com	Neal Shusterman	+1 929-436-4790 ext. 13817	ABM022	Delivery by Friday | Purple Extravagance Bouquet by Arabella Bouquets	1	0	1	Expedited	Ruth Kleinman	189 FALMOUTH ST			BROOKLYN	NY	11235-3005	US		Ruth, Murray, and Emily Clara -- I can’t thank you enough for all your help with Millie’s apartment and for being such good friends.  No, not friends -- FAMILY. With love,  Neal From Neal Shusterman	false		
113-5173874-5141839	55626560682754	2020-11-12T01:04:57+00:00	2020-11-11T17:04:57-08:00	2020-11-12T01:30:09+00:00	2020-11-14T07:59:59+00:00	-3	6l3gylzcdl2yspx@marketplace.amazon.com	Michelle Conners	+1 602-671-6610 ext. 25913	ABR0022	Arabella Farm Direct Bouquet of 12 Fresh Cut Pink Roses with a Free Glass Vase	1	0	1	Expedited	Maureen Conners	C/O BARRY FLYNN	182 BOCA CIEGA POINT BLVD S		ST PETERSBURG	FL	33708-2728	US			false		
114-9127230-5083440	46959004982426	2020-11-12T01:14:13+00:00	2020-11-11T17:14:13-08:00	2020-11-12T01:37:18+00:00	2020-11-14T07:59:59+00:00	-3	2c7x0xr8fr2sycs@marketplace.amazon.com	PATRICIA SMIGELSKI	+1 213-442-1463 ext. 77245	ABM022	Delivery by Friday | Purple Extravagance Bouquet by Arabella Bouquets	1	0	1	Expedited	DEE WINNALS	2341 HOFFNAGLE ST			PHILADELPHIA	PA	19152-2513	US		We love you & sending our deepest Sympathy. Aunt Pat & Uncle Ed From PATRICIA SMIGELSKI	false		
112-9509412-4430636	35088105908074	2020-11-12T01:12:31+00:00	2020-11-11T17:12:31-08:00	2020-11-12T01:42:08+00:00	2020-11-14T07:59:59+00:00	-3	pm3bnkdzy3v7xg7@marketplace.amazon.com	Jayne M. Desing	+1 602-671-6610 ext. 69681	ABR0055	Delivery by Friday | Arabella Farm Direct Bouquet of 12 Stems of Fresh Cut Hot Pink Roses in a Free Designer Glass Vase	1	0	1	Expedited	Joan Coonan	3113 STATE ROAD 580	Unit 23		SAFETY HARBOR	FL	34695-5935	US		Hope this makes you smile. Love you so much! Jayne From Jayne M. Desing	false		
113-5461792-2254613	39758216635226	2020-11-12T01:28:09+00:00	2020-11-11T17:28:09-08:00	2020-11-12T01:57:14+00:00	2020-11-14T07:59:59+00:00	-3	vnrdks95tgn79c4@marketplace.amazon.com	terry labrum	+1 480-618-5344 ext. 71055	ABM022	Delivery by Friday | Purple Extravagance Bouquet by Arabella Bouquets	1	0	1	Expedited	Tyson Kelly	7506 GREEN MOUNTAIN WAY			WINTER GARDEN	FL	34787-5159	US			false		
114-0897226-8721829	19787763103418	2020-11-12T01:43:33+00:00	2020-11-11T17:43:33-08:00	2020-11-12T02:02:58+00:00	2020-11-14T07:59:59+00:00	-3	zfh7nv0yj2x49rv@marketplace.amazon.com	Lisa Berzins	+18605434046 or 8608	ABR0055	Delivery by Friday | Arabella Farm Direct Bouquet of 12 Stems of Fresh Cut Hot Pink Roses in a Free Designer Glass Vase	1	0	1	Expedited	Maria Rivera-Velez	67 GILBERT AVE			ROCKY HILL	CT	06067-1911	US		Dear Maria, I am so sorry about your loss. I hope that the love and caring from family and friends will bring you some comfort.  Best, Dr, B From Lisa Berzins	false		
114-3128560-2224259	49078893467658	2020-11-12T01:38:02+00:00	2020-11-11T17:38:02-08:00	2020-11-12T02:06:25+00:00	2020-11-14T07:59:59+00:00	-3	883w6l9wc4hnqlp@marketplace.amazon.com	Michael Hall	+1 602-671-6610 ext. 68328	ABM022	Delivery by Friday | Purple Extravagance Bouquet by Arabella Bouquets	1	0	1	Expedited	Michael Hall	5232 KRUEGER LN			AUSTIN	TX	78723-6033	US		We love you guys! We know it's been a tough year. Wanted to let you know that we're thinking of you and love you very much! From Michael & Lindsey From Michael, Lindsey, Max & Taylor	false		
113-3543278-5829814	06943724138722	2020-11-12T02:16:39+00:00	2020-11-11T18:16:39-08:00	2020-11-12T02:41:17+00:00	2020-11-14T07:59:59+00:00	-3	p2x0qrgbvfpkp1w@marketplace.amazon.com	nancy  McKee	+1 619-854-2705 ext. 89027	ABM022	Delivery by Friday | Purple Extravagance Bouquet by Arabella Bouquets	1	0	1	Expedited	Maria McKee	5700 BALTIMORE DR UNIT 230			LA MESA	CA	91942-1641	US			false		
113-6900143-2926605	21882542324394	2020-11-12T02:16:39+00:00	2020-11-11T18:16:39-08:00	2020-11-12T02:41:22+00:00	2020-11-14T07:59:59+00:00	-3	p2x0qrgbvfpkp1w@marketplace.amazon.com	nancy  McKee	+1 602-671-6610 ext. 59425	ABM022	Delivery by Friday | Purple Extravagance Bouquet by Arabella Bouquets	1	0	1	Expedited	Nicole Barr	298 SAVONA AVE			GOLETA	CA	93117-1202	US			false		
114-7469070-6137008	28874142488986	2020-11-12T02:19:10+00:00	2020-11-11T18:19:10-08:00	2020-11-12T02:48:02+00:00	2020-11-14T07:59:59+00:00	-3	zgczzwxny6xzhf0@marketplace.amazon.com	Olga Filatova	+1 619-854-2705 ext. 87852	ABR0022	Arabella Farm Direct Bouquet of 12 Fresh Cut Pink Roses with a Free Glass Vase	1	0	1	Expedited	Vladislav Taguirov	2751 WHISPERING OAKS DR			BUFFALO GROVE	IL	60089-6330	US		Dear Veronika, Happy birthday from the Barrs.  We love you! ❤️❤️❤️	false		
113-7241289-6541848	59421526510362	2020-11-12T02:20:29+00:00	2020-11-11T18:20:29-08:00	2020-11-12T02:48:28+00:00	2020-11-14T07:59:59+00:00	-3	5kz29fly39zc2vw@marketplace.amazon.com	alicia a owen	+1 213-442-1463 ext. 83919	ABM022	Delivery by Friday | Purple Extravagance Bouquet by Arabella Bouquets	1	0	1	Expedited	Michelle McAdams	4151 MICHAEL AVE			LOS ANGELES	CA	90066-5615	US			false		
114-5429731-4599466	36906327128602	2020-11-12T02:23:01+00:00	2020-11-11T18:23:01-08:00	2020-11-12T02:52:11+00:00	2020-11-14T07:59:59+00:00	-3	ql350kzdc31rnqd@marketplace.amazon.com	Ralph Menke Jr.	+1 602-671-6610 ext. 82963	ABR0033	Delivery by Friday | Arabella Farm Direct Bouquet of 12 Fresh Cut Orange Roses with a Free Glass Vase	1	0	1	Expedited	Patricia Menke	540 FARM DISTRICT RD			FERNLEY	NV	89408-8544	US		Happy Birthday Mom.   Love: Ralph Jr From Ralph Menke Jr.	false		
113-1670438-2829810	53834504993834	2020-11-12T02:25:19+00:00	2020-11-11T18:25:19-08:00	2020-11-12T02:54:11+00:00	2020-11-14T07:59:59+00:00	-3	gdvmqcmnb01k6q9@marketplace.amazon.com	Lisa Sturges	+1 213-442-1463 ext. 05812	ABR0022	Arabella Farm Direct Bouquet of 12 Fresh Cut Pink Roses with a Free Glass Vase	1	0	1	Expedited	Meredith Sturges	1605 LATITUDE CIR			ANACORTES	WA	98221-8735	US		Happy Anniversary Meredith! Wish Joe was there to celebrate with you! Love you and can hardly wait to see you two! From Lisa and Matt Sturges	false		
114-2188593-1645839	02967478379370	2020-11-12T02:29:38+00:00	2020-11-11T18:29:38-08:00	2020-11-12T02:58:46+00:00	2020-11-14T07:59:59+00:00	-3	f6v9xlzhtwylqd7@marketplace.amazon.com	Rick Bond	+1 602-671-6610 ext. 28858	ABM022	Delivery by Friday | Purple Extravagance Bouquet by Arabella Bouquets	1	0	1	Expedited	Jinhee Kang	2024 AQUAMARINE TER			SILVER SPRING	MD	20904-5362	US		I love you Jinhee! I am so grateful to have you in my life ! From Rick	false		
114-4767493-0372202	16198107932554	2020-11-12T02:47:26+00:00	2020-11-11T18:47:26-08:00	2020-11-12T03:09:00+00:00	2020-11-14T07:59:59+00:00	-3	4gtrnrx0p90qmn6@marketplace.amazon.com	Tarri B. Mundt	+1 619-854-2705 ext. 52597	ABM010	Delivery by Friday | The Spring Fling Bouquet by Arabella Bouquets with a Free Designer Glass Vase	1	0	1	Expedited	Jenny Calverly	4036 PELICAN CT			DISCOVERY BAY	CA	94505-1733	US		Very special Happy Birthday wishes sent your way ❣Hope your day is as special as you are! Continued happiness ❣💕 May all your fondest wishes come true! Much love always From Tarri and Chuck	false		
114-9791555-8197017	07604404810210	2020-11-12T02:55:50+00:00	2020-11-11T18:55:50-08:00	2020-11-12T03:16:23+00:00	2020-11-14T07:59:59+00:00	-3	61wmnvqzvvkzgwl@marketplace.amazon.com	Caterina Sicuranza	+1 929-436-4790 ext. 50010	ABR001	Delivery by Friday | Arabella Bouquets 12 Stems of Fresh Cut Red Roses in a Free Designer Glass Vase	1	0	1	Expedited	Raffaela Esposito	38 CODY AVE			GLEN HEAD	NY	11545-1211	US		Dear Raffaela & Family, Sorry to hear the loss of your brother-n-law.  Our thoughts and prayers are with you and your family. Love, Caterina, Patty, Rosa, Aurora, Maria & Suzanne From Caterina Sicuranza	false		
113-3799929-7607422	19000487986642	2020-11-12T02:53:12+00:00	2020-11-11T18:53:12-08:00	2020-11-12T03:19:14+00:00	2020-11-14T07:59:59+00:00	-3	rvzc6yz3x2x70sv@marketplace.amazon.com	cameron adler	+1 213-442-1463 ext. 21745	ABM020	Delivery by Saturday | The Sunset Bouquet by Arabella Bouquets	1	0	1	Standard	ali schneider	738 COLORADO AVE			STUART	FL	34994-3005	US			false		
112-4378262-2353831	26068895752618	2020-11-12T03:08:26+00:00	2020-11-11T19:08:26-08:00	2020-11-12T03:36:28+00:00	2020-11-14T07:59:59+00:00	-3	qjqtmytkh6cm4zk@marketplace.amazon.com	David Toomey	+1 619-854-2705 ext. 59439	ABR0022	Arabella Farm Direct Bouquet of 12 Fresh Cut Pink Roses with a Free Glass Vase	1	0	1	Expedited	Lisa Anderson	110 WOODLYNNE AVE			PITMAN	NJ	08071-2118	US			false		
113-8642444-0093815	32986920999090	2020-11-12T03:22:34+00:00	2020-11-11T19:22:34-08:00	2020-11-12T03:49:41+00:00	2020-11-14T07:59:59+00:00	-3	qz4pzbrgsplzy1v@marketplace.amazon.com	david c	+1 213-442-1463 ext. 89354	ABM022	Delivery by Friday | Purple Extravagance Bouquet by Arabella Bouquets	1	0	1	Expedited	Bertina P. Keesee	10375 Mountain Dew Cir			Reno	NV	89523	US		Happy Birthday Aunt Bertina! We Love You! From Frank, Linda, Steph, Miles & Dave	false		
114-5665695-7817008	56013243702378	2020-11-12T03:25:04+00:00	2020-11-11T19:25:04-08:00	2020-11-12T03:55:40+00:00	2020-11-14T07:59:59+00:00	-3	blzkr1k927ghj1m@marketplace.amazon.com	Cathleen Harter	+1 415-851-9136 ext. 27911	ABM022	Delivery by Friday | Purple Extravagance Bouquet by Arabella Bouquets	1	0	1	Expedited	The Vander Karrs	5743 CARLETON RD			MARIPOSA	CA	95338-9650	US			false		
112-7140023-0122668	00579545218578	2020-11-12T03:39:51+00:00	2020-11-11T19:39:51-08:00	2020-11-12T03:56:37+00:00	2020-11-14T07:59:59+00:00	-3	q5xdmwgd6969ryw@marketplace.amazon.com	Mariko Prigel	+1 602-671-6610 ext. 75006	ABM022	Delivery by Friday | Purple Extravagance Bouquet by Arabella Bouquets	1	0	1	Expedited	Peggy Cantril	19024 HIGHWAY HH			NEOSHO	MO	64850-6610	US		Happy belated birthday, Peggy!! It has been 18 years since we met.  I thank God for our special connection.  Please take care of yourself and stay in safe!  Love, From Mariko Prigel	false		
111-9485070-0097033	23566480809666	2020-11-12T03:38:29+00:00	2020-11-11T19:38:29-08:00	2020-11-12T04:04:40+00:00	2020-11-14T07:59:59+00:00	-3	shm5cwy7gcdwk47@marketplace.amazon.com	Ronda	+1 415-851-9136 ext. 79190	ABR0055	Delivery by Friday | Arabella Farm Direct Bouquet of 12 Stems of Fresh Cut Hot Pink Roses in a Free Designer Glass Vase	1	0	1	Expedited	Kathy Steinbach	9210 W BRIARWOOD CIR N			SUN CITY	AZ	85351-1324	US		CONGRATULATIONS ON YOUR RETIREMENT!! We are so excited for you as you enter the next chapter in life! Cheers !!! From Justin Ronda & Treyson	false		
111-1077243-2313010	52660220686730	2020-11-12T03:39:46+00:00	2020-11-11T19:39:46-08:00	2020-11-12T04:08:33+00:00	2020-11-14T07:59:59+00:00	-3	vvjr6q0yd3h01hn@marketplace.amazon.com	Amanda Chinyere Chilaka	+1 415-851-9136 ext. 50106	ABM022	Delivery by Friday | Purple Extravagance Bouquet by Arabella Bouquets	1	0	1	Expedited	Evelyn Nickerson	113 HEADWATERS RD			CENTERVILLE	MA	02632-3205	US		Get well soon! Love  you to the moon and back! From Amanda Chilaka	false		
113-1445039-4029062	36462998509922	2020-11-12T03:44:13+00:00	2020-11-11T19:44:13-08:00	2020-11-12T04:12:15+00:00	2020-11-14T07:59:59+00:00	-3	t10ddd8mhp8h9kt@marketplace.amazon.com	Wayne Williams	+1 213-442-1463 ext. 13770	ABR0033	Delivery by Friday | Arabella Farm Direct Bouquet of 12 Fresh Cut Orange Roses with a Free Glass Vase	1	0	1	Expedited	Patricia Williams	SUNRISE OF WESTFIELD	240 SPRINGFIELD AVE		WESTFIELD	NJ	07090-1023	US		You are the best thing that has ever happened to me. I'm always thinking of you. Love always  Wayne From Wayne Williams	false		
114-4919177-1040246	23901716477978	2020-11-12T04:16:02+00:00	2020-11-11T20:16:02-08:00	2020-11-12T04:17:05+00:00	2020-11-14T07:59:59+00:00	-3	blzkr1k927ghj1m@marketplace.amazon.com	Cathleen Harter	+1 929-436-4790 ext. 54071	ABM022	Delivery by Friday | Purple Extravagance Bouquet by Arabella Bouquets	1	0	1	Expedited	The Vander Karrs	5743 CARLETON RD			MARIPOSA	CA	95338-9650	US		Happy Happy Birthday Mom!!’ Wish we could have brought it in person... miss you so much  ! Love you From Cathi and Jim	false		
112-6943541-4164250	01401525616626	2020-11-12T03:54:45+00:00	2020-11-11T19:54:45-08:00	2020-11-12T04:24:58+00:00	2020-11-14T07:59:59+00:00	-3	yg9xj7dkjpxzlpv@marketplace.amazon.com	Karen Lindemann	+1 480-618-5344 ext. 00957	ABM022	Delivery by Friday | Purple Extravagance Bouquet by Arabella Bouquets	1	0	1	Expedited	Becky Gregory	1008 CAULKS HILL RD			SAINT CHARLES	MO	63304-2612	US			false		
113-3313588-6280230	50853729119570	2020-11-12T04:02:15+00:00	2020-11-11T20:02:15-08:00	2020-11-12T04:31:19+00:00	2020-11-14T07:59:59+00:00	-3	n0tk3q9btv49vfy@marketplace.amazon.com	Carl Calise	+1 480-618-5344 ext. 61571	ABR0022	Arabella Farm Direct Bouquet of 12 Fresh Cut Pink Roses with a Free Glass Vase	1	0	1	Expedited	Aileen Kurtz	2429 CRISFIELD ST			TOMS RIVER	NJ	08755-2508	US			false		
112-4256263-8052220	55358245818770	2020-11-12T04:06:20+00:00	2020-11-11T20:06:20-08:00	2020-11-12T04:34:23+00:00	2020-11-14T07:59:59+00:00	-3	vn2d9wtr1wslc0v@marketplace.amazon.com	Robb Burklin	+1 602-671-6610 ext. 09001	ABM022	Delivery by Friday | Purple Extravagance Bouquet by Arabella Bouquets	1	0	1	Expedited	Ralph mills	34150 STOWE RD			WINCHESTER	CA	92596-2694	US		Happy birthday sweetheart. I hope you have a good day my beautiful. We will be together very soon.  Love you From Robb Burklin	false		
111-3589903-9164206	12226869233098	2020-11-12T04:32:55+00:00	2020-11-11T20:32:55-08:00	2020-11-12T05:02:21+00:00	2020-11-14T07:59:59+00:00	-3	vyz780xshpndff6@marketplace.amazon.com	Tamara Graf	+1 619-854-2705 ext. 92714	ABR0055	Delivery by Friday | Arabella Farm Direct Bouquet of 12 Stems of Fresh Cut Hot Pink Roses in a Free Designer Glass Vase	1	0	1	Expedited	Lexy Merryman	12827 SE 301ST ST			AUBURN	WA	98092-2187	US		We hope you feel better. From Mike & Tamara Graf	false		
111-1575915-7209033	28392262577530	2020-11-12T04:33:46+00:00	2020-11-11T20:33:46-08:00	2020-11-12T05:04:30+00:00	2020-11-14T07:59:59+00:00	-3	fjvyxy8xyr2ll12@marketplace.amazon.com	Lee Brahin	+1 602-671-6610 ext. 99261	ABB006	Delivery by Monday | Arabella Bouquets | Farm Direct 48 Fresh Cut Red Roses	1	0	1	Expedited	Silver Cho Brahin	THE RITZ CARLTON RESIDENCES	1414 S PENN SQ UNIT 8-B		PHILADELPHIA	PA	19102-2545	US			false		
