order-id	order-item-id	purchase-date	payments-date	reporting-date	promise-date	days-past-promise	buyer-email	buyer-name	buyer-phone-number	sku	product-name	quantity-purchased	quantity-shipped	quantity-to-ship	ship-service-level	recipient-name	ship-address-1	ship-address-2	ship-address-3	ship-city	ship-state	ship-postal-code	ship-country	gift-wrap-type	gift-message-text	is-business-order	purchase-order-number	price-designation
113-2937497-8874669	55497641510354	2020-11-11T18:05:51+00:00	2020-11-11T10:05:51-08:00	2020-11-11T18:29:35+00:00	2020-11-14T07:59:59+00:00	-2	xyjy80znqxdb2vf@marketplace.amazon.com	Dennis McMichael	+1 929-436-4790 ext. 26251	ABM022	Delivery by Thursday | Purple Extravagance Bouquet by Arabella Bouquets	1	0	1	Expedited	Amanda Snelgrove	3702 CHANEL RD			ANNANDALE	VA	22003-2023	US		Congratulations on the new addition!!! Hope you are doing well! From Dennis McMichael, CVP & the Shirlington Team From Dennis McMichael, CVP & the Shirlington Team	false		
111-5690180-3786608	15621865871170	2020-11-11T18:03:40+00:00	2020-11-11T10:03:40-08:00	2020-11-11T18:33:16+00:00	2020-11-14T07:59:59+00:00	-2	n9g843dhqmvvltx@marketplace.amazon.com	Marcie E Winitt	+1 619-854-2705 ext. 83795	ABR0033	Delivery by Friday | Arabella Farm Direct Bouquet of 12 Fresh Cut Orange Roses with a Free Glass Vase	1	0	1	Expedited	Rebecca Hull	2 SORREL CT			CLIFTON PARK	NY	12065-6786	US		I hope these brighten your day - I love you, sissy! From Marcie E Winitt	false		
111-5329469-4226621	62647499869298	2020-11-11T18:06:32+00:00	2020-11-11T10:06:32-08:00	2020-11-11T18:33:42+00:00	2020-11-14T07:59:59+00:00	-2	2j0w8qbfskyqjmb@marketplace.amazon.com	Nathan Latimer	+1 602-671-6610 ext. 43996	ABM010	Delivery by Friday | The Spring Fling Bouquet by Arabella Bouquets with a Free Designer Glass Vase	1	0	1	Expedited	Donna Lapsley	60 UNCLE BARNEYS RD			WEST DENNIS	MA	02670-2316	US		Congratulations on beginning your dental implant experience. We appreciate you as a patient!  Dr. Groom & Dr. Latimer From Nathan Latimer	false		
113-1405061-6973834	25365788309970	2020-11-11T18:09:04+00:00	2020-11-11T10:09:04-08:00	2020-11-11T18:34:18+00:00	2020-11-14T07:59:59+00:00	-2	s2flyf1m46lxp5v@marketplace.amazon.com	Janet M. Thompson	+1 213-442-1463 ext. 24699	ABM010	Delivery by Friday | The Spring Fling Bouquet by Arabella Bouquets with a Free Designer Glass Vase	1	0	1	Expedited	Liz Smith	62 PEWTER CIR			CHESTER	NY	10918-3135	US		Miss you! Hope we can be together soon. Love Janet & Eileen From Janet & Eileen	false		
113-3968186-1229850	23616692284922	2020-11-11T18:09:18+00:00	2020-11-11T10:09:18-08:00	2020-11-11T18:39:05+00:00	2020-11-14T07:59:59+00:00	-2	wmdpjb5cqdtnn57@marketplace.amazon.com	candice K. Fischer	+1 213-442-1463 ext. 24515	ABR0022	Delivery by Friday | Arabella Farm Direct Bouquet of 12 Fresh Cut Pink Roses with a Free Glass Vase	1	0	1	Expedited	Stephanie Fischer	327 EVANS AVE			OCEANSIDE	NY	11572-3803	US		Mazel Tov! So happy From Love Mom	false		
112-5062381-3161041	68987694345794	2020-11-11T18:13:51+00:00	2020-11-11T10:13:51-08:00	2020-11-11T18:43:29+00:00	2020-11-14T07:59:59+00:00	-2	nh6cpx75y831pjf@marketplace.amazon.com	Damion Matadin	+1 619-854-2705 ext. 61588	ABR001	Delivery by Friday | Arabella Bouquets 12 Stems of Fresh Cut Red Roses in a Free Designer Glass Vase	1	0	1	Expedited	LizAna Patrick	100 MARK LN UNIT E2			WATERBURY	CT	06704-2441	US			false		
112-0578049-9800204	59904509909298	2020-11-11T18:20:26+00:00	2020-11-11T10:20:26-08:00	2020-11-11T18:50:45+00:00	2020-11-14T07:59:59+00:00	-2	p99wdgr1b59336v@marketplace.amazon.com	Rhonda Gray	+1 602-671-6610 ext. 11442	ABR0066	Delivery by Monday | Arabella Bouquets 12 Stems of Fresh Cut White Roses in a Free Designer Glass Vase	1	0	1	Expedited	Tosha Ayo Alston	FROM RHONDA WITH LOVE AND LIGHT	17658 S GILBERT DR		LOCKPORT	IL	60441-1100	US			false		
113-2657951-1833018	21367585769818	2020-11-11T18:23:16+00:00	2020-11-11T10:23:16-08:00	2020-11-11T18:51:08+00:00	2020-11-14T07:59:59+00:00	-2	zpt5pw8qn6l4k2s@marketplace.amazon.com	Myrna Garron	+1 213-442-1463 ext. 77019	ABM010	Delivery by Friday | The Spring Fling Bouquet by Arabella Bouquets with a Free Designer Glass Vase	1	0	1	Expedited	Emily Zucal and Courtney Garron	160 S MIDDLE NECK RD APT 1A			GREAT NECK	NY	11021-4601	US		Dear Courtney, Happy birthday.  Enjoy your special day!  Love, Mom and Dad From Myrna Garron	false		
112-6736897-9352223	26283639537546	2020-11-11T18:52:21+00:00	2020-11-11T10:52:21-08:00	2020-11-11T18:53:33+00:00	2020-11-14T07:59:59+00:00	-2	q71r929ttx9xncx@marketplace.amazon.com	Sandra VerCrouse	+1 619-854-2705 ext. 82489	ABR004	Delivery by Monday | Arabella Farm Direct Bouquet of 12 Fresh Cut Yellow Roses with a Free Glass Vase	1	0	1	Expedited	A. Jean Tyre	300 BLAKE BLVD			PINEHURST	NC	28374-8474	US			false		
112-9353429-5406642	16637453015722	2020-11-11T18:24:51+00:00	2020-11-11T10:24:51-08:00	2020-11-11T18:54:24+00:00	2020-11-14T07:59:59+00:00	-2	5dzn5qrxc6tcq2f@marketplace.amazon.com	Susan	+1 619-854-2705 ext. 22044	ABR0022	Arabella Farm Direct Bouquet of 12 Fresh Cut Pink Roses with a Free Glass Vase	1	0	1	Expedited	Melanie Floyd	23535 PENINSULA PT			FRANKSTON	TX	75763-4813	US		Meanie! Happy Thanksgiving!  I am thankful for you! LLL!!! Susan From Susan	false		
112-6399411-2868217	66169357527562	2020-11-11T18:26:21+00:00	2020-11-11T10:26:21-08:00	2020-11-11T18:56:05+00:00	2020-11-14T07:59:59+00:00	-2	5dzn5qrxc6tcq2f@marketplace.amazon.com	Susan	+1 213-442-1463 ext. 48768	ABR0022	Arabella Farm Direct Bouquet of 12 Fresh Cut Pink Roses with a Free Glass Vase	1	0	1	Expedited	Margaret Magwire	15845 NE 156TH ST			WOODINVILLE	WA	98072-8960	US		Margaret! Happy Thanksgiving ... I am thankful for you! LLL!!! Susan From Susan	false		
114-5169028-0373055	38096530551154	2020-11-11T18:36:58+00:00	2020-11-11T10:36:58-08:00	2020-11-11T19:07:40+00:00	2020-11-14T07:59:59+00:00	-2	53syzdrbpbfjbvz@marketplace.amazon.com	Vladimir Kleynerman	+1 480-618-5344 ext. 18763	ABR001	Delivery by Friday | Arabella Bouquets 12 Stems of Fresh Cut Red Roses in a Free Designer Glass Vase	1	0	1	Expedited	Ella Kleynerman	21 WESTERVELT PL			WESTWOOD	NJ	07675-1921	US			false		
111-3880951-3337030	06247882018442	2020-11-11T18:43:37+00:00	2020-11-11T10:43:37-08:00	2020-11-11T19:10:55+00:00	2020-11-14T07:59:59+00:00	-2	2j0w8qbfskyqjmb@marketplace.amazon.com	Nathan Latimer	+1 619-854-2705 ext. 82319	ABM010	Delivery by Friday | The Spring Fling Bouquet by Arabella Bouquets with a Free Designer Glass Vase	1	0	1	Expedited	Dorothy Knope	803 TEATICKET HWY			EAST FALMOUTH	MA	02536-5847	US		Congratulations on beginning your dental implant experience. We appreciate you as a patient!  DR Latimer & Staff From Nathan Latimer	false		
111-2742802-9154601	63494680242130	2020-11-11T18:44:49+00:00	2020-11-11T10:44:49-08:00	2020-11-11T19:11:17+00:00	2020-11-14T07:59:59+00:00	-2	tj4wl4346r7kckf@marketplace.amazon.com	Roberta Miles	+1 619-854-2705 ext. 16682	ABR0022	Arabella Farm Direct Bouquet of 12 Fresh Cut Pink Roses with a Free Glass Vase	1	0	1	Expedited	Lucille Brunson Room 12	1352 WELLBROOK CIR NE	MORNINGSIDE OF CONYERS RM 12		CONYERS	GA	30012-3872	US			false		
114-4913853-8247463	58937878750066	2020-11-11T18:48:36+00:00	2020-11-11T10:48:36-08:00	2020-11-11T19:14:13+00:00	2020-11-14T07:59:59+00:00	-2	nlssjpl6ngv9dvd@marketplace.amazon.com	Abdo Naji	0013138768595	ABR001	Delivery by Friday | Arabella Bouquets 12 Stems of Fresh Cut Red Roses in a Free Designer Glass Vase	1	0	1	Expedited	Hager Mohamed Mothana	2390 DANFORTH ST			HAMTRAMCK	MI	48212-3654	US		I A S  I MISS YOU SO MUCH MY LOVE From Abdo Naji	false		
114-4654010-4161037	68654035421890	2020-11-11T18:51:15+00:00	2020-11-11T10:51:15-08:00	2020-11-11T19:19:35+00:00	2020-11-14T07:59:59+00:00	-2	0qlg8pm1g9vg92b@marketplace.amazon.com	Bonnie D Gordon Rabinowitz	+1 602-671-6610 ext. 73293	ABM022	Delivery by Friday | Purple Extravagance Bouquet by Arabella Bouquets	1	0	1	Expedited	Diane and Howard Gartner	2 SPRUCE CT			OWINGS MILLS	MD	21117-1423	US		Dear Diane and Howard, We miss you! Love, Bonnie and Marc From Bonnie D Gordon Rabinowitz	false		
111-4475749-1120238	42488396131490	2020-11-11T18:53:13+00:00	2020-11-11T10:53:13-08:00	2020-11-11T19:22:05+00:00	2020-11-14T07:59:59+00:00	-2	b58my00jt2btlz4@marketplace.amazon.com	Jayne  Godsey	+1 602-671-6610 ext. 73995	ABM022	Delivery by Friday | Purple Extravagance Bouquet by Arabella Bouquets	1	0	1	Expedited	Carrie Hyatt	7810 DAVINCI LN			CHARLOTTE	NC	28226-3929	US		Get well soon, Love, Bobby & Jayne From Bobby & Jayne	false		
114-2033243-0696254	31857546859090	2020-11-11T19:00:30+00:00	2020-11-11T11:00:30-08:00	2020-11-11T19:28:25+00:00	2020-11-14T07:59:59+00:00	-2	cnwx0p3jmtf8lmt@marketplace.amazon.com	Therese Thourot	+1 619-854-2705 ext. 40234	ABR004	Delivery by Monday | Arabella Farm Direct Bouquet of 12 Fresh Cut Yellow Roses with a Free Glass Vase	1	0	1	Expedited	Patricia Bercher	THE FRANCISCAN CENTER	4111 N HOLLAND SYLVANIA RD		TOLEDO	OH	43623-2503	US		Praying for your continued healing. With all of our love, Your family From Therese Thourot	false		
114-9599612-5379454	21764706015058	2020-11-11T19:06:10+00:00	2020-11-11T11:06:10-08:00	2020-11-11T19:33:54+00:00	2020-11-14T07:59:59+00:00	-2	ghjtcf1dz4cw9g1@marketplace.amazon.com	Kathryn Aberman	+1 415-851-9136 ext. 98580	ABR0055	Delivery by Friday | Arabella Farm Direct Bouquet of 12 Stems of Fresh Cut Hot Pink Roses in a Free Designer Glass Vase	1	0	1	Expedited	Kathryn Aberman	4 Sixth Place			Garden City	NY	11530	US			false		
114-9599612-5379454	55695722173642	2020-11-11T19:06:10+00:00	2020-11-11T11:06:10-08:00	2020-11-11T19:33:54+00:00	2020-11-14T07:59:59+00:00	-2	ghjtcf1dz4cw9g1@marketplace.amazon.com	Kathryn Aberman	+1 415-851-9136 ext. 98580	ABR0022	Arabella Farm Direct Bouquet of 12 Fresh Cut Pink Roses with a Free Glass Vase	1	0	1	Expedited	Kathryn Aberman	4 Sixth Place			Garden City	NY	11530	US			false		
111-0684220-5212262	42018499651738	2020-11-11T19:08:54+00:00	2020-11-11T11:08:54-08:00	2020-11-11T19:39:17+00:00	2020-11-14T07:59:59+00:00	-2	29463mv22knjnrt@marketplace.amazon.com	Nicole Jones	+1 602-671-6610 ext. 25422	ABR0022	Arabella Farm Direct Bouquet of 12 Fresh Cut Pink Roses with a Free Glass Vase	1	0	1	Expedited	Sherry Jones	1817 2ND TER			HATTIESBURG	MS	39401-7526	US			false		
114-8461544-2229862	17081031753042	2020-11-11T19:23:52+00:00	2020-11-11T11:23:52-08:00	2020-11-11T19:52:29+00:00	2020-11-14T07:59:59+00:00	-2	zh8j5ymcszcckwc@marketplace.amazon.com	Elaine Pierce	+1 415-851-9136 ext. 82133	ABM010	Delivery by Friday | The Spring Fling Bouquet by Arabella Bouquets with a Free Designer Glass Vase	1	0	1	Expedited	Mary Ann Crump	509 LUMBEE RD			SOUTHPORT	NORTH CAROLINA	28461-8999	US			false		
113-5078603-0217848	59548038843962	2020-11-11T19:28:04+00:00	2020-11-11T11:28:04-08:00	2020-11-11T19:55:25+00:00	2020-11-14T07:59:59+00:00	-2	5csngx46892cx00@marketplace.amazon.com	Eve	+1 929-436-4790 ext. 56437	ABM022	Delivery by Friday | Purple Extravagance Bouquet by Arabella Bouquets	1	0	1	Expedited	Carolyn King	4 EDGEMERE AVE			WARWICK	RI	02889-4008	US		Happy Birthday Mom!! Happy Birthday Grandma!!! From Scott, Eve, Scott, Josh and Juliana	false		
111-0735468-8215400	55821429611762	2020-11-11T19:26:13+00:00	2020-11-11T11:26:13-08:00	2020-11-11T19:55:35+00:00	2020-11-14T07:59:59+00:00	-2	2g4myv76x79pys3@marketplace.amazon.com	joe cassidy	+1 213-442-1463 ext. 76860	ABM022	Delivery by Friday | Purple Extravagance Bouquet by Arabella Bouquets	1	0	1	Expedited	Bethan Nowak	573 ROUTE 196			TOBYHANNA	PA	18466-8354	US		Love you Bunnie 💜💜💜 From Mama 🥰	false		
114-6179059-6213820	38613477344018	2020-11-11T19:32:00+00:00	2020-11-11T11:32:00-08:00	2020-11-11T20:00:38+00:00	2020-11-14T07:59:59+00:00	-2	dstwtqcw7gq5t8v@marketplace.amazon.com	Juanita Geiger	+1 619-854-2705 ext. 38069	ABM010	Delivery by Friday | The Spring Fling Bouquet by Arabella Bouquets with a Free Designer Glass Vase	1	0	1	Expedited	Jenny wakefield	3832 PLEASANT PLAINS RD			MATTHEWS	NC	28104-5958	US		Enjoy your gift! From Juanita Geiger	false		
111-3906354-6071440	31699725880706	2020-11-11T19:40:33+00:00	2020-11-11T11:40:33-08:00	2020-11-11T20:05:09+00:00	2020-11-14T07:59:59+00:00	-2	1wcvjqbc1mksby5@marketplace.amazon.com	nancy Dedenbach	+1 929-436-4790 ext. 62552	ABR0022	Arabella Farm Direct Bouquet of 12 Fresh Cut Pink Roses with a Free Glass Vase	1	0	1	Expedited	Tracy Parent	1632 NE 5TH CT			FORT LAUDERDALE	FL	33301-1330	US			false		
111-6764271-4970601	29959346174098	2020-11-11T20:06:18+00:00	2020-11-11T12:06:18-08:00	2020-11-11T20:07:11+00:00	2020-11-14T07:59:59+00:00	-2	2j0w8qbfskyqjmb@marketplace.amazon.com	Nathan Latimer	+1 602-671-6610 ext. 05504	ABM010	Delivery by Friday | The Spring Fling Bouquet by Arabella Bouquets with a Free Designer Glass Vase	1	0	1	Expedited	Joan Shemit	58 ANTHIERS WAY			EDGARTOWN	MA	02539-6713	US		Congratulations on beginning your dental implant experience. We appreciate you as a patient!  Dr. Herman & Dr. Latimer From Nathan Latimer	false		
111-7249270-5348217	08874050199994	2020-11-11T19:42:36+00:00	2020-11-11T11:42:36-08:00	2020-11-11T20:07:37+00:00	2020-11-14T07:59:59+00:00	-2	8h7hxgtypppr1df@marketplace.amazon.com	Joi Johnson	+1 619-854-2705 ext. 56618	ABR0022	Arabella Farm Direct Bouquet of 12 Fresh Cut Pink Roses with a Free Glass Vase	1	0	1	Expedited	LaTanya Brooks	10305 MEADOWLARK LN			SPOTSYLVANIA	VA	22553-7610	US		From Children’s Church. God Bless You. From Carrie Johnson	false		
112-9534256-3511466	01136714082034	2020-11-11T19:53:37+00:00	2020-11-11T11:53:37-08:00	2020-11-11T20:18:32+00:00	2020-11-14T07:59:59+00:00	-2	vzvzsfs25fsnxtc@marketplace.amazon.com	Deborah Stonestreet	+1 213-442-1463 ext. 98553	ABM022	Delivery by Friday | Purple Extravagance Bouquet by Arabella Bouquets	1	0	1	Expedited	Doris Stonestreet	4930 S REGENCY ST			SALT LAKE CITY	UT	84117-6324	US			false		
113-1150912-5983418	49007366829578	2020-11-11T20:01:08+00:00	2020-11-11T12:01:08-08:00	2020-11-11T20:23:54+00:00	2020-11-14T07:59:59+00:00	-2	kb1zhnstm3c2wqy@marketplace.amazon.com	Faldik Family	+1 619-854-2705 ext. 50271	ABR0033	Delivery by Friday | Arabella Farm Direct Bouquet of 12 Fresh Cut Orange Roses with a Free Glass Vase	1	0	1	Expedited	Carol Tolbert	40 GREENS SHADE			SAN ANTONIO	TX	78216-7814	US		Beautiful Carol, we love you. Lifting you and dear Amber up in prayer, so very sorry for the passing of your precious mom. We give thanks to our Heavenly Father for you praying during this Holiday Season. Psalm 139:17-18TPT From Love, Faldik Family	false		
113-8531734-7708252	08970880130778	2020-11-11T20:11:40+00:00	2020-11-11T12:11:40-08:00	2020-11-11T20:37:12+00:00	2020-11-14T07:59:59+00:00	-2	7d1h29rxdfnn07z@marketplace.amazon.com	Arthur Bell	+1 213-442-1463 ext. 30339	ABM022	Delivery by Friday | Purple Extravagance Bouquet by Arabella Bouquets	1	0	1	Expedited	Shirley Bell	176 GORDON WAY S			GRANTS PASS	OR	97527-4514	US		Dear Mom, Thinking of you, and I hope this brightens your day. From Love, Arthur jr and Glenda	false		
114-0996968-9377829	55332160101922	2020-11-11T20:24:44+00:00	2020-11-11T12:24:44-08:00	2020-11-11T20:48:28+00:00	2020-11-14T07:59:59+00:00	-2	h5500455s7dnv4h@marketplace.amazon.com	tom	+1 602-671-6610 ext. 44175	ABM022	Delivery by Friday | Purple Extravagance Bouquet by Arabella Bouquets	1	0	1	Expedited	Nancy Walls	1744 CASTILE ST NW			UNIONTOWN	OH	44685-7395	US		Happy Birthday we LOVE you From Tom & Lois	false		
113-8843627-7081058	47623786117594	2020-11-11T20:30:52+00:00	2020-11-11T12:30:52-08:00	2020-11-11T21:00:59+00:00	2020-11-14T07:59:59+00:00	-2	n2z2gjg5prpbtsk@marketplace.amazon.com	Pam Meehan	+1 213-442-1463 ext. 68866	ABR0033	Delivery by Friday | Arabella Farm Direct Bouquet of 12 Fresh Cut Orange Roses with a Free Glass Vase	1	0	1	Expedited	Ramona Meehan	12088 MADISON CIR			ROGERS	MN	55374-6514	US		We are so sorry KC passed away so young!  We are all here for you:  your human children, grandchildren, great grandson and furry grandchildren! From Pam and Nicole	false		
113-0745121-2140252	23190343681986	2020-11-11T20:34:27+00:00	2020-11-11T12:34:27-08:00	2020-11-11T21:03:36+00:00	2020-11-14T07:59:59+00:00	-2	t3952r9whwgn4r2@marketplace.amazon.com	Nancy L. Hershgold	+1 213-442-1463 ext. 11068	ABR0055	Delivery by Friday | Arabella Farm Direct Bouquet of 12 Stems of Fresh Cut Hot Pink Roses in a Free Designer Glass Vase	1	0	1	Expedited	Bubba Hershgold	1040 VALLEY RIM RD			MCCALL	ID	83638-4614	US		To my favorite Hershgold!  Happy birthday Bubba! From Nancy L. Nichols	false		
113-0801467-1461011	54122493051074	2020-11-11T20:45:29+00:00	2020-11-11T12:45:29-08:00	2020-11-11T21:12:38+00:00	2020-11-14T07:59:59+00:00	-2	1fgbwdjcl77n1x3@marketplace.amazon.com	mary reid	+1 480-618-5344 ext. 91772	ABR0022	Arabella Farm Direct Bouquet of 12 Fresh Cut Pink Roses with a Free Glass Vase	1	0	1	Expedited	Gail Todd	12 MOUNTAIN LAURELS DR APT 106			NASHUA	NH	03062-2229	US		Hi Gail, I wish I could have sent a lasagna but these pretty roses will have to do.  Best wishes for a full and speedy recovery!!!  Love ya’, Mary Reid	false		
111-7647974-9124266	36836596580290	2020-11-11T20:44:21+00:00	2020-11-11T12:44:21-08:00	2020-11-11T21:12:54+00:00	2020-11-14T07:59:59+00:00	-2	swwkw96m6x2vmd7@marketplace.amazon.com	Jennifer Thirtle	+1 619-854-2705 ext. 34696	ABM022	Delivery by Friday | Purple Extravagance Bouquet by Arabella Bouquets	1	0	1	Expedited	Yolanda Ramirez	8425 QUIETUD ST			EDINBURG	TX	78542-4748	US		feliz cumpleaños  Love Theodore From Theodore Ramirez	false		
113-0943619-9581051	20290561913970	2020-11-11T20:44:03+00:00	2020-11-11T12:44:03-08:00	2020-11-11T21:14:40+00:00	2020-11-14T07:59:59+00:00	-2	3yx55k6v7xz31tj@marketplace.amazon.com	GREGORIO LIRIANO	+1 929-436-4790 ext. 06570	ABR0055	Delivery by Friday | Arabella Farm Direct Bouquet of 12 Stems of Fresh Cut Hot Pink Roses in a Free Designer Glass Vase	1	0	1	Expedited	Ana Polanco	1012 N 6TH ST			READING	PA	19601-1812	US			false		
114-4744460-0592207	18662025635034	2020-11-11T20:46:20+00:00	2020-11-11T12:46:20-08:00	2020-11-11T21:14:55+00:00	2020-11-14T07:59:59+00:00	-2	jcbm65gczkwcccl@marketplace.amazon.com	Kelly	+1 480-618-5344 ext. 46980	ABR0022	Arabella Farm Direct Bouquet of 12 Fresh Cut Pink Roses with a Free Glass Vase	1	0	1	Expedited	Rhonda Babbitt	119 S DAVID CT			POST FALLS	ID	83854-9678	US		Happy Birthday Mom! I love you! From Kelly	false		
113-3802635-4497064	16246677140506	2020-11-11T20:59:56+00:00	2020-11-11T12:59:56-08:00	2020-11-11T21:28:14+00:00	2020-11-14T07:59:59+00:00	-2	5ml57b8k20jtxvq@marketplace.amazon.com	monica huerta	+1 929-436-4790 ext. 64536	ABM026	Delivery by Monday | The Amour Bouquet by Arabella Bouquets	1	0	1	Expedited	Alicia huerta	450 CARDINAL CT			KISSIMMEE	FL	34759-4423	US		Feliz cumpleaños abuela !!! Te amamos mucho y te extrañamos, que Dios te bendiga siempre y te cuide, pronto te volveremos a ver. Tus nietos Juandi y Paloma De monica huerta	false		
112-1954650-3139464	33066644488530	2020-11-11T20:59:52+00:00	2020-11-11T12:59:52-08:00	2020-11-11T21:28:42+00:00	2020-11-14T07:59:59+00:00	-2	0hltl77x0gmy9n3@marketplace.amazon.com	Peter Pero	+1 619-854-2705 ext. 08456	ABR0022	Arabella Farm Direct Bouquet of 12 Fresh Cut Pink Roses with a Free Glass Vase	1	0	1	Expedited	Lisa Wayne Falk	10863 BRANT RESERVATION RD			BRANT	NY	14027-0099	US		Happy Birthday to the most special Mom and Oma! Hope your day is as lovely and beautiful as you! We love and miss you so much! From Peter, Nicole, Peter Jr, and Kiera Pero	false		
112-5359441-9616213	62876191768338	2020-11-11T21:07:29+00:00	2020-11-11T13:07:29-08:00	2020-11-11T21:32:41+00:00	2020-11-14T07:59:59+00:00	-2	419b3p41ljt9tg7@marketplace.amazon.com	jeannette gutierrez	+1 602-671-6610 ext. 58478	ABM026	Delivery by Monday | The Amour Bouquet by Arabella Bouquets	1	0	1	Expedited	Josephine Gutierrez	11573 BAYLOR DR			NORWALK	CA	90650-6943	US		Happy Birthday Mom!!!  We hope you have a great day and are sending you lots of love!! Hope all your birthday wishes come true! From Jeannette and Malek	false		
113-0279974-9488221	18335465900538	2020-11-11T21:17:16+00:00	2020-11-11T13:17:16-08:00	2020-11-11T21:39:51+00:00	2020-11-14T07:59:59+00:00	-2	kdb2vk72dfppwv7@marketplace.amazon.com	Cindy Goldman	+1 619-854-2705 ext. 23305	ABR0022	Arabella Farm Direct Bouquet of 12 Fresh Cut Pink Roses with a Free Glass Vase	1	0	1	Expedited	Mrs. Joyce Suckerman	2184 SILENT ECHOES DR			HENDERSON	NV	89044-0182	US		Happy Birthday Joyce From Cindy and Michael	false		
113-5172590-1133840	23181660454474	2020-11-11T21:14:38+00:00	2020-11-11T13:14:38-08:00	2020-11-11T21:44:43+00:00	2020-11-14T07:59:59+00:00	-2	44ys9ds5h9254v0@marketplace.amazon.com	Mejlo	+1 602-671-6610 ext. 96746	ABR001	Delivery by Friday | Arabella Bouquets 12 Stems of Fresh Cut Red Roses in a Free Designer Glass Vase	1	0	1	Expedited	Erika Willey	703 E 3RD NORTH ST APT L6			SUMMERVILLE	SC	29485-7055	US			false		
113-2776151-2917843	22817028142474	2020-11-11T21:25:26+00:00	2020-11-11T13:25:26-08:00	2020-11-11T21:53:27+00:00	2020-11-14T07:59:59+00:00	-2	vb8vpxqy1tfjnds@marketplace.amazon.com	Darcy J Williams	+1 929-436-4790 ext. 90093	ABR0022	Arabella Farm Direct Bouquet of 12 Fresh Cut Pink Roses with a Free Glass Vase	1	0	1	Expedited	Amanda Keibler	8466 SLEE RD			ONSTED	MI	49265-9535	US		Amanda,   We appreciate you so very much!  You are not only our co-worker, but also our friend.  We love you! From Darcy and Kaite	false		
111-1007518-0744210	17738548393698	2020-11-11T21:33:02+00:00	2020-11-11T13:33:02-08:00	2020-11-11T22:03:15+00:00	2020-11-14T07:59:59+00:00	-2	8s2vd5y1dq3v1wc@marketplace.amazon.com	Hongliang Guo	+1 929-436-4790 ext. 49856	ABR0055	Delivery by Friday | Arabella Farm Direct Bouquet of 12 Stems of Fresh Cut Hot Pink Roses in a Free Designer Glass Vase	1	0	1	Expedited	Yadan Tang	2131 Creek Bank Dr			Columbus	in	47201	US		Happy Birthday! From Hongliang Guo	false		
113-2901758-4334633	30085046203458	2020-11-11T21:42:29+00:00	2020-11-11T13:42:29-08:00	2020-11-11T22:06:24+00:00	2020-11-14T07:59:59+00:00	-2	ws2srymgt6vdn5h@marketplace.amazon.com	Steve Heitmiller	+1 619-854-2705 ext. 49623	ABR0066	Delivery by Monday | Arabella Bouquets 12 Stems of Fresh Cut White Roses in a Free Designer Glass Vase	1	0	1	Expedited	Dawn Beck	7268 ACORN GLEN LOOP			ROSEVILLE	CA	95747-8155	US		Dawn, I am so sorry for your loss.  Sending you lots of love and hugs. Love, Nena From Nena Heitmiller	false		
113-3455862-4568213	29308380386602	2020-11-11T21:38:26+00:00	2020-11-11T13:38:26-08:00	2020-11-11T22:07:20+00:00	2020-11-14T07:59:59+00:00	-2	sq3qbhw08bwlbmk@marketplace.amazon.com	Rosemary Ybarra-Hernandez	+1 619-854-2705 ext. 24500	ABR0055	Delivery by Friday | Arabella Farm Direct Bouquet of 12 Stems of Fresh Cut Hot Pink Roses in a Free Designer Glass Vase	1	0	1	Expedited	Irene Diaz	921 W VERDE LN			PHOENIX	AZ	85013-4030	US		Happy Birthday Comadre - Even though - YOU are MY gift!  Thank you for always being there for me. Love you Mucho!!! From Rosemary Ybarra-Hernandez	false		
111-0161509-5821024	70142295748066	2020-11-11T21:48:08+00:00	2020-11-11T13:48:08-08:00	2020-11-11T22:10:52+00:00	2020-11-14T07:59:59+00:00	-2	c7nx3yb6gf0qsfn@marketplace.amazon.com	Jacob Odom	+1 213-442-1463 ext. 05337	ABR0022	Arabella Farm Direct Bouquet of 12 Fresh Cut Pink Roses with a Free Glass Vase	1	0	1	Expedited	Jacob Odom	3615 COUNTY ROAD 511			QUITMAN	MS	39355-8367	US		I know I don’t tell you near as much as I should but I appreciate every single thing you have done for me. Your the best mom anyone could ask for. I love you so, so much. Been missing you and home more than ever. From Your son	false		
112-1231130-4342642	19541275191346	2020-11-11T21:49:35+00:00	2020-11-11T13:49:35-08:00	2020-11-11T22:12:12+00:00	2020-11-14T07:59:59+00:00	-2	69d9sq842b3fv3n@marketplace.amazon.com	shannon e. sommers	+1 213-442-1463 ext. 71529	ABM022	Delivery by Friday | Purple Extravagance Bouquet by Arabella Bouquets	1	0	1	Expedited	OU Medical Center Room 760	700 NE 13TH ST			OKLAHOMA CITY	OK	73104-5004	US		Love you Misty!! We hope you get well soon!! Love, Pat, Paul & BC From shannon e. sommers	false		
112-4595545-3629824	62489064386130	2020-11-11T21:44:21+00:00	2020-11-11T13:44:21-08:00	2020-11-11T22:13:00+00:00	2020-11-14T07:59:59+00:00	-2	h0q30ntdsk1rnyt@marketplace.amazon.com	Rae Russell	+1 213-442-1463 ext. 25806	ABM022	Delivery by Friday | Purple Extravagance Bouquet by Arabella Bouquets	1	0	1	Expedited	Alice Grant	2290 INLAND DR APT 14			NORTH BEND	OR	97459-1240	US		Happy Flowers From Rae Russell	false		
113-5553793-4384254	25200616544018	2020-11-11T21:48:18+00:00	2020-11-11T13:48:18-08:00	2020-11-11T22:13:12+00:00	2020-11-14T07:59:59+00:00	-2	7rqqk4qpvcfjytl@marketplace.amazon.com	Linda Gray	+1 602-671-6610 ext. 77277	ABR0022	Arabella Farm Direct Bouquet of 12 Fresh Cut Pink Roses with a Free Glass Vase	1	0	1	Expedited	Cristal FitzGerald	197 FAIRFIELD DR			JEFFERSON	GA	30549-7412	US		We were so sorry to hear about your mom. Please let us know if there's anything we can do, Love Linda & Kenny Gray	false		
112-7934704-0573046	58124411804234	2020-11-11T21:50:30+00:00	2020-11-11T13:50:30-08:00	2020-11-11T22:20:22+00:00	2020-11-14T07:59:59+00:00	-2	g4wcshv4skbxmj3@marketplace.amazon.com	Robert Fogarty	+1 619-854-2705 ext. 66252	ABM020	Delivery by Saturday | The Sunset Bouquet by Arabella Bouquets	1	0	1	Expedited	Robert Fogarty	2806 Oak Point Drive			Middleborough	MA	02346	US			false		
113-6312719-1289817	05043327298842	2020-11-11T22:13:33+00:00	2020-11-11T14:13:33-08:00	2020-11-11T22:40:12+00:00	2020-11-14T07:59:59+00:00	-2	jfz2ftznc500wrx@marketplace.amazon.com	Debra D Mullowney	+1 213-442-1463 ext. 47280	ABM022	Delivery by Friday | Purple Extravagance Bouquet by Arabella Bouquets	1	0	1	Expedited	Oleta Olson	1000 FOUNTAIN TERRACE DR UNIT 311			LEWISTOWN	MT	59457-1974	US		Happy Birthday, Mom!  Love You,     Marc and Deb From Debra D Mullowney	false		
111-0769094-3577842	55661073602370	2020-11-11T22:19:53+00:00	2020-11-11T14:19:53-08:00	2020-11-11T22:47:38+00:00	2020-11-14T07:59:59+00:00	-2	fjqxf3f0k1qx34f@marketplace.amazon.com	Cynthia Fay	+1 602-671-6610 ext. 95789	ABR0055	Delivery by Friday | Arabella Farm Direct Bouquet of 12 Stems of Fresh Cut Hot Pink Roses in a Free Designer Glass Vase	1	0	1	Expedited	Alida Salazar	1225 FILBERT RD APT J-3			LYNNWOOD	WA	98036-4975	US		We miss seeing you both, and think of you often, have a wonderful holiday and stay safe!! From Cyndi & Harry	false		
111-0769094-3577842	20318696461562	2020-11-11T22:19:53+00:00	2020-11-11T14:19:53-08:00	2020-11-11T22:47:38+00:00	2020-11-14T07:59:59+00:00	-2	fjqxf3f0k1qx34f@marketplace.amazon.com	Cynthia Fay	+1 602-671-6610 ext. 95789	ABR0033	Delivery by Friday | Arabella Farm Direct Bouquet of 12 Fresh Cut Orange Roses with a Free Glass Vase	1	0	1	Expedited	Alida Salazar	1225 FILBERT RD APT J-3			LYNNWOOD	WA	98036-4975	US		We miss seeing you both, and think of you often, have a wonderful holiday and stay safe! From Cyndi & Harry	false		
113-3947405-2349054	24991480876514	2020-11-11T22:25:23+00:00	2020-11-11T14:25:23-08:00	2020-11-11T22:55:57+00:00	2020-11-14T07:59:59+00:00	-2	766w0nj44mbbhsf@marketplace.amazon.com	Beverly H. Little	+1 213-442-1463 ext. 23539	ABM022	Delivery by Friday | Purple Extravagance Bouquet by Arabella Bouquets	1	0	1	Expedited	Hyatt Humphrey	2484 LITTLE CYPRESS RD			CALVERT CITY	KY	42029-8937	US			false		
114-3667849-7733001	17868685604898	2020-11-11T22:27:23+00:00	2020-11-11T14:27:23-08:00	2020-11-11T22:57:56+00:00	2020-11-14T07:59:59+00:00	-2	lfkrl9cn00b2zsq@marketplace.amazon.com	kyle jones	+1 619-854-2705 ext. 30751	ABM022	Delivery by Friday | Purple Extravagance Bouquet by Arabella Bouquets	1	0	1	Expedited	kyle jones	28482 W state highway 28			gravelly	Arkansas	72838	US			false		
111-4950242-3394609	43316331036794	2020-11-11T22:29:58+00:00	2020-11-11T14:29:58-08:00	2020-11-11T23:00:12+00:00	2020-11-14T07:59:59+00:00	-2	zg0vrfk8cx050k7@marketplace.amazon.com	hanna marginean	+1 213-442-1463 ext. 33063	ABR0033	Delivery by Friday | Arabella Farm Direct Bouquet of 12 Fresh Cut Orange Roses with a Free Glass Vase	1	0	1	Expedited	Stella Goodson	4293 WOODS EDGE ST			SAGINAW	MI	48603-4243	US			false		
111-5281303-6603424	68339559214418	2020-11-11T22:39:37+00:00	2020-11-11T14:39:37-08:00	2020-11-11T23:04:49+00:00	2020-11-14T07:59:59+00:00	-2	b1yld368wj1zbws@marketplace.amazon.com	Teresa Bailey	+1 213-442-1463 ext. 44644	ABM020	Delivery by Saturday | The Sunset Bouquet by Arabella Bouquets	1	0	1	Expedited	Bea Bailey	BOYD COTTAGE 210 FAIRLANE DR			WAYNESBORO	TN	38485-2419	US			false		
114-5572206-9721008	42816174742250	2020-11-11T22:35:59+00:00	2020-11-11T14:35:59-08:00	2020-11-11T23:05:10+00:00	2020-11-14T07:59:59+00:00	-2	6fs34px23g1zywj@marketplace.amazon.com	W B Barrett	+1 619-854-2705 ext. 32035	ABB005	Delivery by Monday | Arabella Bouquets 24 Stems of Fresh Cut Red Roses in a Designer Glass Vase	1	0	1	Expedited	Allison A. Llyod	191 MEADOWVIEW DR			STATE COLLEGE	PA	16801-2569	US		Thinking of you... From B-Rad	false		
114-4618390-6224258	00566112170058	2020-11-11T22:44:36+00:00	2020-11-11T14:44:36-08:00	2020-11-11T23:11:19+00:00	2020-11-14T07:59:59+00:00	-2	b7rq3s4lg519hzt@marketplace.amazon.com	Jeremy Phillips	+1 929-436-4790 ext. 68828	ABM022	Delivery by Friday | Purple Extravagance Bouquet by Arabella Bouquets	1	0	1	Expedited	Shelley Drujak	19101 MYSTIC POINTE DR APT 1508			AVENTURA	FL	33180-4517	US		Dear Shelley Wishing you a speedy recovery. All our love, Sharon & Jeremy From Jeremy Phillips	false		
112-4815039-2009001	69234049152754	2020-11-11T22:47:37+00:00	2020-11-11T14:47:37-08:00	2020-11-11T23:17:17+00:00	2020-11-14T07:59:59+00:00	-2	13c0vx4jj081zht@marketplace.amazon.com	Cristina Toro	+1 213-442-1463 ext. 89908	ABM022	Delivery by Friday | Purple Extravagance Bouquet by Arabella Bouquets	1	0	1	Expedited	Dr. James Rhee	10027 ROYAL EAGLE LN			HIGHLANDS RANCH	CO	80129-5654	US		Sending well wishes and prayers to you and your family. Please accept my heartfelt condolences. From Bahri Bilir, Luke Evans, Steve Lawrence, Erik Springer & Your Arapahoe Family	true		
114-3477465-6767468	50436023598034	2020-11-11T22:49:34+00:00	2020-11-11T14:49:34-08:00	2020-11-11T23:18:35+00:00	2020-11-14T07:59:59+00:00	-2	ltn1072z6y5q9t0@marketplace.amazon.com	Joclyn Emery	+1 480-618-5344 ext. 17497	ABM022	Delivery by Friday | Purple Extravagance Bouquet by Arabella Bouquets	1	0	1	Expedited	Dana Smick (Mom)	3971 NE CAMPUS LN			BREMERTON	WA	98311-9424	US		Happy Birthday to the worlds best Mom and Nana. We love you and miss you!! Jason, Joclyn Ryan and Nolan From Joclyn Such	false		
112-1760192-2657024	17483132651930	2020-11-11T23:02:50+00:00	2020-11-11T15:02:50-08:00	2020-11-11T23:31:39+00:00	2020-11-14T07:59:59+00:00	-2	q56h04yf08j1krp@marketplace.amazon.com	Antonio Cardenas	+1 415-851-9136 ext. 47036	ABM022	Delivery by Friday | Purple Extravagance Bouquet by Arabella Bouquets	1	0	1	Expedited	Michelle O’Rourke	100 MCGREGOR ST			MANCHESTER	NH	03102-3730	US			false		
112-9058479-1701004	44214009121730	2020-11-11T23:13:42+00:00	2020-11-11T15:13:42-08:00	2020-11-11T23:40:46+00:00	2020-11-14T07:59:59+00:00	-2	f6sptt0twh4xq2j@marketplace.amazon.com	Mark Babcock	+1 480-618-5344 ext. 66275	ABM022	Delivery by Friday | Purple Extravagance Bouquet by Arabella Bouquets	1	0	1	Expedited	Scott Melvin	1659 W CAMINO ACIERTO			SAHUARITA	AZ	85629-9115	US		Dear Scott and Shauna, May the peace that comes from the memories of wonderful times and love shared comfort you now and in the days ahead. Our blessed thoughts and prayers are with you. From Carole and the Babcock's	false		
112-8340478-6005030	19121981993666	2020-11-11T23:19:30+00:00	2020-11-11T15:19:30-08:00	2020-11-11T23:45:48+00:00	2020-11-14T07:59:59+00:00	-2	np06t7fdtvvxx7j@marketplace.amazon.com	Martha B. Neumeister	+1 619-854-2705 ext. 28495	ABM010	Delivery by Friday | The Spring Fling Bouquet by Arabella Bouquets with a Free Designer Glass Vase	1	0	1	Expedited	Annie DiMauro	581 MANOR RD			SEVERNA PARK	MD	21146-2643	US		Bravo! Congratulations! All of those children were so fortunate to be in your loving care. Just think, some of them are now in college. We love you! From Mom and Dad	false		
111-6204024-9824235	26483180888874	2020-11-11T23:28:34+00:00	2020-11-11T15:28:34-08:00	2020-11-11T23:59:11+00:00	2020-11-14T07:59:59+00:00	-2	w3lbf7hy964r21v@marketplace.amazon.com	Barbara Comerford	+1 602-671-6610 ext. 34195	ABR0055	Delivery by Friday | Arabella Farm Direct Bouquet of 12 Stems of Fresh Cut Hot Pink Roses in a Free Designer Glass Vase	1	0	1	Expedited	Barbara Comerford	796 E RIDGEWOOD AVE			RIDGEWOOD	NJ	07450-3924	US			false		
112-5228244-3047428	44729082413546	2020-11-11T23:30:22+00:00	2020-11-11T15:30:22-08:00	2020-11-12T00:01:03+00:00	2020-11-14T07:59:59+00:00	-2	8sqdkv9wcfsslzm@marketplace.amazon.com	jody	+1 602-671-6610 ext. 64967	ABR0022	Arabella Farm Direct Bouquet of 12 Fresh Cut Pink Roses with a Free Glass Vase	1	0	1	Expedited	Marsha Potter	7929 PERIDOT CIR			MURFREESBORO	TN	37127-2917	US			false		
113-3148008-8553025	55353610825498	2020-11-11T23:37:35+00:00	2020-11-11T15:37:35-08:00	2020-11-12T00:01:56+00:00	2020-11-14T07:59:59+00:00	-2	00y8t1p0w24hwb3@marketplace.amazon.com	Catherine Holland	+1 415-851-9136 ext. 09332	ABR004	Delivery by Monday | Arabella Farm Direct Bouquet of 12 Fresh Cut Yellow Roses with a Free Glass Vase	1	0	1	Expedited	Lisa Peacock	2201 OLD WESTMINSTER PIKE TRLR 23			FINKSBURG	MD	21048-1640	US		Hope these help cheer you up, my friend!! From Cass	false		
113-1649841-4165031	03022497156314	2020-11-11T23:48:45+00:00	2020-11-11T15:48:45-08:00	2020-11-12T00:15:02+00:00	2020-11-14T07:59:59+00:00	-2	tkj5txhd68z3nf5@marketplace.amazon.com	Plissonneau	+1 480-618-5344 ext. 28275	ABM022	Delivery by Friday | Purple Extravagance Bouquet by Arabella Bouquets	1	0	1	Expedited	Emilie Bernard	3211 JUBILEE TRL			DALLAS	TX	75229-3808	US		Toutes nos félicitations pour votre magnifique Joséphine. Nous avons tellement hâte de la rencontrer. On vous souhaite beaucoup de bonheur à 4. Maud, Antoine, Alice et Louis From Plissonneau Maud	false		
113-4024082-0077852	02684260742962	2020-11-11T23:46:24+00:00	2020-11-11T15:46:24-08:00	2020-11-12T00:15:23+00:00	2020-11-14T07:59:59+00:00	-2	ydkhypxpjys94cm@marketplace.amazon.com	Donna M. Bronson	+1 929-436-4790 ext. 91593	ABR0022	Arabella Farm Direct Bouquet of 12 Fresh Cut Pink Roses with a Free Glass Vase	1	0	1	Expedited	Melissa Carson	14515 ARROYO HONDO			SAN DIEGO	CA	92127-3640	US		So sorry for the belated Happiest Birthday Wishes to you Melissa! Hope you had a great day. From Love, Phil & Donna	true		
114-2863789-5292240	23737694865258	2020-11-11T23:51:36+00:00	2020-11-11T15:51:36-08:00	2020-11-12T00:21:43+00:00	2020-11-14T07:59:59+00:00	-2	8rghth4nwcqbdr5@marketplace.amazon.com	deb porter	+1 415-851-9136 ext. 76120	ABR0022	Arabella Farm Direct Bouquet of 12 Fresh Cut Pink Roses with a Free Glass Vase	1	0	1	Expedited	Gary Blackney	1611 SW PROSPERITY WAY			PALM CITY	FL	34990-2429	US			false		
111-2891831-9534666	61309423866610	2020-11-12T00:10:14+00:00	2020-11-11T16:10:14-08:00	2020-11-12T00:38:11+00:00	2020-11-14T07:59:59+00:00	-2	x13bcjyjmj1yzfj@marketplace.amazon.com	mary e eastman	+1 619-854-2705 ext. 15713	ABR0033	Delivery by Friday | Arabella Farm Direct Bouquet of 12 Fresh Cut Orange Roses with a Free Glass Vase	1	0	1	Expedited	NANCY MILAM	63 CLUBHOUSE RD			ROTONDA WEST	FL	33947-2009	US		HAPPY BIRTHDAY MOM!! ENJOY! LOVE BETH! From mary e eastman	false		
112-6731622-8707420	45506260261314	2020-11-12T00:17:47+00:00	2020-11-11T16:17:47-08:00	2020-11-12T00:39:51+00:00	2020-11-14T07:59:59+00:00	-2	l4gmk7wknhqb73t@marketplace.amazon.com	dai trang woznicki	+1 602-671-6610 ext. 50048	ABR015	Delivery by Monday | Arabella Farm Direct Bouquet of 18 Fresh Cut Orange Roses with a Free Glass Vase	1	0	1	Expedited	Dao Huynh	14362 BUSHARD ST SPC 51			WESTMINSTER	CA	92683-5158	US		Chi Dao, My heart felt condolences to you and your family. Please know that my thoughts and prayers are with you during this sad time. Em cua chi, MiMi From dai trang woznicki	false		
113-4242656-7978640	34054138911818	2020-11-12T00:10:50+00:00	2020-11-11T16:10:50-08:00	2020-11-12T00:40:34+00:00	2020-11-14T07:59:59+00:00	-2	ntd8llc5ctm5fp0@marketplace.amazon.com	Charles Newbeck	+1 619-854-2705 ext. 56794	ABM022	Delivery by Friday | Purple Extravagance Bouquet by Arabella Bouquets	1	0	1	Expedited	Charles Newbeck	957 LUKE ST			INDEPENDENCE	OR	97351-9407	US			false		
114-9567365-8886641	28447035584882	2020-11-12T00:15:46+00:00	2020-11-11T16:15:46-08:00	2020-11-12T00:45:05+00:00	2020-11-14T07:59:59+00:00	-2	pd4pvygrxd855cz@marketplace.amazon.com	joanne schultis	+1 480-618-5344 ext. 04738	ABM022	Delivery by Friday | Purple Extravagance Bouquet by Arabella Bouquets	1	0	1	Expedited	Lynette Lorensen	352 N PINE ST			DEWEY	OK	74029-2221	US			false		
111-7916200-5597801	39901128041362	2020-11-12T00:17:30+00:00	2020-11-11T16:17:30-08:00	2020-11-12T00:47:47+00:00	2020-11-14T07:59:59+00:00	-2	9yf6f4dg5dr20d4@marketplace.amazon.com	F.Rene Van de Carr MD.	+5043908990	ABM022	Delivery by Friday | Purple Extravagance Bouquet by Arabella Bouquets	1	0	1	Expedited	Kara Vandecarr	1649 JOSEPH ST			NEW ORLEANS	LA	70115-5034	US			false		
113-2388826-9721814	43277592636346	2020-11-12T00:32:34+00:00	2020-11-11T16:32:34-08:00	2020-11-12T00:49:33+00:00	2020-11-14T07:59:59+00:00	-2	xs54pn8zytflkkt@marketplace.amazon.com	Sara Bonilla	+1 213-442-1463 ext. 56041	ABM022	Delivery by Friday | Purple Extravagance Bouquet by Arabella Bouquets	1	0	1	Expedited	Ligia Odio	9656 LUBAO AVE			CHATSWORTH	CA	91311-5508	US		Happy Birthday, Ligia Have a happy and joyful day. See you on the 26th. From Sara Bonilla	false		
114-8682131-1134651	17013155264386	2020-11-12T00:33:13+00:00	2020-11-11T16:33:13-08:00	2020-11-12T00:57:52+00:00	2020-11-14T07:59:59+00:00	-2	hfr2pvxq0lg4d4d@marketplace.amazon.com	Neal Shusterman	+1 929-436-4790 ext. 13817	ABM022	Delivery by Friday | Purple Extravagance Bouquet by Arabella Bouquets	1	0	1	Expedited	Ruth Kleinman	189 FALMOUTH ST			BROOKLYN	NY	11235-3005	US		Ruth, Murray, and Emily Clara -- I can’t thank you enough for all your help with Millie’s apartment and for being such good friends.  No, not friends -- FAMILY. With love,  Neal From Neal Shusterman	false		
113-5173874-5141839	55626560682754	2020-11-12T01:04:57+00:00	2020-11-11T17:04:57-08:00	2020-11-12T01:30:09+00:00	2020-11-14T07:59:59+00:00	-2	6l3gylzcdl2yspx@marketplace.amazon.com	Michelle Conners	+1 602-671-6610 ext. 25913	ABR0022	Arabella Farm Direct Bouquet of 12 Fresh Cut Pink Roses with a Free Glass Vase	1	0	1	Expedited	Maureen Conners	C/O BARRY FLYNN	182 BOCA CIEGA POINT BLVD S		ST PETERSBURG	FL	33708-2728	US			false		
114-9127230-5083440	46959004982426	2020-11-12T01:14:13+00:00	2020-11-11T17:14:13-08:00	2020-11-12T01:37:18+00:00	2020-11-14T07:59:59+00:00	-2	2c7x0xr8fr2sycs@marketplace.amazon.com	PATRICIA SMIGELSKI	+1 213-442-1463 ext. 77245	ABM022	Delivery by Friday | Purple Extravagance Bouquet by Arabella Bouquets	1	0	1	Expedited	DEE WINNALS	2341 HOFFNAGLE ST			PHILADELPHIA	PA	19152-2513	US		We love you & sending our deepest Sympathy. Aunt Pat & Uncle Ed From PATRICIA SMIGELSKI	false		
112-9509412-4430636	35088105908074	2020-11-12T01:12:31+00:00	2020-11-11T17:12:31-08:00	2020-11-12T01:42:08+00:00	2020-11-14T07:59:59+00:00	-2	pm3bnkdzy3v7xg7@marketplace.amazon.com	Jayne M. Desing	+1 602-671-6610 ext. 69681	ABR0055	Delivery by Friday | Arabella Farm Direct Bouquet of 12 Stems of Fresh Cut Hot Pink Roses in a Free Designer Glass Vase	1	0	1	Expedited	Joan Coonan	3113 STATE ROAD 580	Unit 23		SAFETY HARBOR	FL	34695-5935	US		Hope this makes you smile. Love you so much! Jayne From Jayne M. Desing	false		
113-5461792-2254613	39758216635226	2020-11-12T01:28:09+00:00	2020-11-11T17:28:09-08:00	2020-11-12T01:57:14+00:00	2020-11-14T07:59:59+00:00	-2	vnrdks95tgn79c4@marketplace.amazon.com	terry labrum	+1 480-618-5344 ext. 71055	ABM022	Delivery by Friday | Purple Extravagance Bouquet by Arabella Bouquets	1	0	1	Expedited	Tyson Kelly	7506 GREEN MOUNTAIN WAY			WINTER GARDEN	FL	34787-5159	US			false		
114-0897226-8721829	19787763103418	2020-11-12T01:43:33+00:00	2020-11-11T17:43:33-08:00	2020-11-12T02:02:58+00:00	2020-11-14T07:59:59+00:00	-2	zfh7nv0yj2x49rv@marketplace.amazon.com	Lisa Berzins	+18605434046 or 8608	ABR0055	Delivery by Friday | Arabella Farm Direct Bouquet of 12 Stems of Fresh Cut Hot Pink Roses in a Free Designer Glass Vase	1	0	1	Expedited	Maria Rivera-Velez	67 GILBERT AVE			ROCKY HILL	CT	06067-1911	US		Dear Maria, I am so sorry about your loss. I hope that the love and caring from family and friends will bring you some comfort.  Best, Dr, B From Lisa Berzins	false		
114-3128560-2224259	49078893467658	2020-11-12T01:38:02+00:00	2020-11-11T17:38:02-08:00	2020-11-12T02:06:25+00:00	2020-11-14T07:59:59+00:00	-2	883w6l9wc4hnqlp@marketplace.amazon.com	Michael Hall	+1 602-671-6610 ext. 68328	ABM022	Delivery by Friday | Purple Extravagance Bouquet by Arabella Bouquets	1	0	1	Expedited	Michael Hall	5232 KRUEGER LN			AUSTIN	TX	78723-6033	US		We love you guys! We know it's been a tough year. Wanted to let you know that we're thinking of you and love you very much! From Michael & Lindsey From Michael, Lindsey, Max & Taylor	false		
113-3543278-5829814	06943724138722	2020-11-12T02:16:39+00:00	2020-11-11T18:16:39-08:00	2020-11-12T02:41:17+00:00	2020-11-14T07:59:59+00:00	-2	p2x0qrgbvfpkp1w@marketplace.amazon.com	nancy  McKee	+1 619-854-2705 ext. 89027	ABM022	Delivery by Friday | Purple Extravagance Bouquet by Arabella Bouquets	1	0	1	Expedited	Maria McKee	5700 BALTIMORE DR UNIT 230			LA MESA	CA	91942-1641	US			false		
113-6900143-2926605	21882542324394	2020-11-12T02:16:39+00:00	2020-11-11T18:16:39-08:00	2020-11-12T02:41:22+00:00	2020-11-14T07:59:59+00:00	-2	p2x0qrgbvfpkp1w@marketplace.amazon.com	nancy  McKee	+1 602-671-6610 ext. 59425	ABM022	Delivery by Friday | Purple Extravagance Bouquet by Arabella Bouquets	1	0	1	Expedited	Nicole Barr	298 SAVONA AVE			GOLETA	CA	93117-1202	US			false		
114-7469070-6137008	28874142488986	2020-11-12T02:19:10+00:00	2020-11-11T18:19:10-08:00	2020-11-12T02:48:02+00:00	2020-11-14T07:59:59+00:00	-2	zgczzwxny6xzhf0@marketplace.amazon.com	Olga Filatova	+1 619-854-2705 ext. 87852	ABR0022	Arabella Farm Direct Bouquet of 12 Fresh Cut Pink Roses with a Free Glass Vase	1	0	1	Expedited	Vladislav Taguirov	2751 WHISPERING OAKS DR			BUFFALO GROVE	IL	60089-6330	US		Dear Veronika, Happy birthday from the Barrs.  We love you! ❤️❤️❤️	false		
113-7241289-6541848	59421526510362	2020-11-12T02:20:29+00:00	2020-11-11T18:20:29-08:00	2020-11-12T02:48:28+00:00	2020-11-14T07:59:59+00:00	-2	5kz29fly39zc2vw@marketplace.amazon.com	alicia a owen	+1 213-442-1463 ext. 83919	ABM022	Delivery by Friday | Purple Extravagance Bouquet by Arabella Bouquets	1	0	1	Expedited	Michelle McAdams	4151 MICHAEL AVE			LOS ANGELES	CA	90066-5615	US			false		
114-5429731-4599466	36906327128602	2020-11-12T02:23:01+00:00	2020-11-11T18:23:01-08:00	2020-11-12T02:52:11+00:00	2020-11-14T07:59:59+00:00	-2	ql350kzdc31rnqd@marketplace.amazon.com	Ralph Menke Jr.	+1 602-671-6610 ext. 82963	ABR0033	Delivery by Friday | Arabella Farm Direct Bouquet of 12 Fresh Cut Orange Roses with a Free Glass Vase	1	0	1	Expedited	Patricia Menke	540 FARM DISTRICT RD			FERNLEY	NV	89408-8544	US		Happy Birthday Mom.   Love: Ralph Jr From Ralph Menke Jr.	false		
113-1670438-2829810	53834504993834	2020-11-12T02:25:19+00:00	2020-11-11T18:25:19-08:00	2020-11-12T02:54:11+00:00	2020-11-14T07:59:59+00:00	-2	gdvmqcmnb01k6q9@marketplace.amazon.com	Lisa Sturges	+1 213-442-1463 ext. 05812	ABR0022	Arabella Farm Direct Bouquet of 12 Fresh Cut Pink Roses with a Free Glass Vase	1	0	1	Expedited	Meredith Sturges	1605 LATITUDE CIR			ANACORTES	WA	98221-8735	US		Happy Anniversary Meredith! Wish Joe was there to celebrate with you! Love you and can hardly wait to see you two! From Lisa and Matt Sturges	false		
114-2188593-1645839	02967478379370	2020-11-12T02:29:38+00:00	2020-11-11T18:29:38-08:00	2020-11-12T02:58:46+00:00	2020-11-14T07:59:59+00:00	-2	f6v9xlzhtwylqd7@marketplace.amazon.com	Rick Bond	+1 602-671-6610 ext. 28858	ABM022	Delivery by Friday | Purple Extravagance Bouquet by Arabella Bouquets	1	0	1	Expedited	Jinhee Kang	2024 AQUAMARINE TER			SILVER SPRING	MD	20904-5362	US		I love you Jinhee! I am so grateful to have you in my life ! From Rick	false		
114-4767493-0372202	16198107932554	2020-11-12T02:47:26+00:00	2020-11-11T18:47:26-08:00	2020-11-12T03:09:00+00:00	2020-11-14T07:59:59+00:00	-2	4gtrnrx0p90qmn6@marketplace.amazon.com	Tarri B. Mundt	+1 619-854-2705 ext. 52597	ABM010	Delivery by Friday | The Spring Fling Bouquet by Arabella Bouquets with a Free Designer Glass Vase	1	0	1	Expedited	Jenny Calverly	4036 PELICAN CT			DISCOVERY BAY	CA	94505-1733	US		Very special Happy Birthday wishes sent your way ❣Hope your day is as special as you are! Continued happiness ❣💕 May all your fondest wishes come true! Much love always From Tarri and Chuck	false		
114-9791555-8197017	07604404810210	2020-11-12T02:55:50+00:00	2020-11-11T18:55:50-08:00	2020-11-12T03:16:23+00:00	2020-11-14T07:59:59+00:00	-2	61wmnvqzvvkzgwl@marketplace.amazon.com	Caterina Sicuranza	+1 929-436-4790 ext. 50010	ABR001	Delivery by Friday | Arabella Bouquets 12 Stems of Fresh Cut Red Roses in a Free Designer Glass Vase	1	0	1	Expedited	Raffaela Esposito	38 CODY AVE			GLEN HEAD	NY	11545-1211	US		Dear Raffaela & Family, Sorry to hear the loss of your brother-n-law.  Our thoughts and prayers are with you and your family. Love, Caterina, Patty, Rosa, Aurora, Maria & Suzanne From Caterina Sicuranza	false		
113-3799929-7607422	19000487986642	2020-11-12T02:53:12+00:00	2020-11-11T18:53:12-08:00	2020-11-12T03:19:14+00:00	2020-11-14T07:59:59+00:00	-2	rvzc6yz3x2x70sv@marketplace.amazon.com	cameron adler	+1 213-442-1463 ext. 21745	ABM020	Delivery by Saturday | The Sunset Bouquet by Arabella Bouquets	1	0	1	Standard	ali schneider	738 COLORADO AVE			STUART	FL	34994-3005	US			false		
112-4378262-2353831	26068895752618	2020-11-12T03:08:26+00:00	2020-11-11T19:08:26-08:00	2020-11-12T03:36:28+00:00	2020-11-14T07:59:59+00:00	-2	qjqtmytkh6cm4zk@marketplace.amazon.com	David Toomey	+1 619-854-2705 ext. 59439	ABR0022	Arabella Farm Direct Bouquet of 12 Fresh Cut Pink Roses with a Free Glass Vase	1	0	1	Expedited	Lisa Anderson	110 WOODLYNNE AVE			PITMAN	NJ	08071-2118	US			false		
113-8642444-0093815	32986920999090	2020-11-12T03:22:34+00:00	2020-11-11T19:22:34-08:00	2020-11-12T03:49:41+00:00	2020-11-14T07:59:59+00:00	-2	qz4pzbrgsplzy1v@marketplace.amazon.com	david c	+1 213-442-1463 ext. 89354	ABM022	Delivery by Friday | Purple Extravagance Bouquet by Arabella Bouquets	1	0	1	Expedited	Bertina P. Keesee	10375 Mountain Dew Cir			Reno	NV	89523	US		Happy Birthday Aunt Bertina! We Love You! From Frank, Linda, Steph, Miles & Dave	false		
114-5665695-7817008	56013243702378	2020-11-12T03:25:04+00:00	2020-11-11T19:25:04-08:00	2020-11-12T03:55:40+00:00	2020-11-14T07:59:59+00:00	-2	blzkr1k927ghj1m@marketplace.amazon.com	Cathleen Harter	+1 415-851-9136 ext. 27911	ABM022	Delivery by Friday | Purple Extravagance Bouquet by Arabella Bouquets	1	0	1	Expedited	The Vander Karrs	5743 CARLETON RD			MARIPOSA	CA	95338-9650	US			false		
112-7140023-0122668	00579545218578	2020-11-12T03:39:51+00:00	2020-11-11T19:39:51-08:00	2020-11-12T03:56:37+00:00	2020-11-14T07:59:59+00:00	-2	q5xdmwgd6969ryw@marketplace.amazon.com	Mariko Prigel	+1 602-671-6610 ext. 75006	ABM022	Delivery by Friday | Purple Extravagance Bouquet by Arabella Bouquets	1	0	1	Expedited	Peggy Cantril	19024 HIGHWAY HH			NEOSHO	MO	64850-6610	US		Happy belated birthday, Peggy!! It has been 18 years since we met.  I thank God for our special connection.  Please take care of yourself and stay in safe!  Love, From Mariko Prigel	false		
111-9485070-0097033	23566480809666	2020-11-12T03:38:29+00:00	2020-11-11T19:38:29-08:00	2020-11-12T04:04:40+00:00	2020-11-14T07:59:59+00:00	-2	shm5cwy7gcdwk47@marketplace.amazon.com	Ronda	+1 415-851-9136 ext. 79190	ABR0055	Delivery by Friday | Arabella Farm Direct Bouquet of 12 Stems of Fresh Cut Hot Pink Roses in a Free Designer Glass Vase	1	0	1	Expedited	Kathy Steinbach	9210 W BRIARWOOD CIR N			SUN CITY	AZ	85351-1324	US		CONGRATULATIONS ON YOUR RETIREMENT!! We are so excited for you as you enter the next chapter in life! Cheers !!! From Justin Ronda & Treyson	false		
111-1077243-2313010	52660220686730	2020-11-12T03:39:46+00:00	2020-11-11T19:39:46-08:00	2020-11-12T04:08:33+00:00	2020-11-14T07:59:59+00:00	-2	vvjr6q0yd3h01hn@marketplace.amazon.com	Amanda Chinyere Chilaka	+1 415-851-9136 ext. 50106	ABM022	Delivery by Friday | Purple Extravagance Bouquet by Arabella Bouquets	1	0	1	Expedited	Evelyn Nickerson	113 HEADWATERS RD			CENTERVILLE	MA	02632-3205	US		Get well soon! Love  you to the moon and back! From Amanda Chilaka	false		
113-1445039-4029062	36462998509922	2020-11-12T03:44:13+00:00	2020-11-11T19:44:13-08:00	2020-11-12T04:12:15+00:00	2020-11-14T07:59:59+00:00	-2	t10ddd8mhp8h9kt@marketplace.amazon.com	Wayne Williams	+1 213-442-1463 ext. 13770	ABR0033	Delivery by Friday | Arabella Farm Direct Bouquet of 12 Fresh Cut Orange Roses with a Free Glass Vase	1	0	1	Expedited	Patricia Williams	SUNRISE OF WESTFIELD	240 SPRINGFIELD AVE		WESTFIELD	NJ	07090-1023	US		You are the best thing that has ever happened to me. I'm always thinking of you. Love always  Wayne From Wayne Williams	false		
114-4919177-1040246	23901716477978	2020-11-12T04:16:02+00:00	2020-11-11T20:16:02-08:00	2020-11-12T04:17:05+00:00	2020-11-14T07:59:59+00:00	-2	blzkr1k927ghj1m@marketplace.amazon.com	Cathleen Harter	+1 929-436-4790 ext. 54071	ABM022	Delivery by Friday | Purple Extravagance Bouquet by Arabella Bouquets	1	0	1	Expedited	The Vander Karrs	5743 CARLETON RD			MARIPOSA	CA	95338-9650	US		Happy Happy Birthday Mom!!’ Wish we could have brought it in person... miss you so much  ! Love you From Cathi and Jim	false		
112-6943541-4164250	01401525616626	2020-11-12T03:54:45+00:00	2020-11-11T19:54:45-08:00	2020-11-12T04:24:58+00:00	2020-11-14T07:59:59+00:00	-2	yg9xj7dkjpxzlpv@marketplace.amazon.com	Karen Lindemann	+1 480-618-5344 ext. 00957	ABM022	Delivery by Friday | Purple Extravagance Bouquet by Arabella Bouquets	1	0	1	Expedited	Becky Gregory	1008 CAULKS HILL RD			SAINT CHARLES	MO	63304-2612	US			false		
113-3313588-6280230	50853729119570	2020-11-12T04:02:15+00:00	2020-11-11T20:02:15-08:00	2020-11-12T04:31:19+00:00	2020-11-14T07:59:59+00:00	-2	n0tk3q9btv49vfy@marketplace.amazon.com	Carl Calise	+1 480-618-5344 ext. 61571	ABR0022	Arabella Farm Direct Bouquet of 12 Fresh Cut Pink Roses with a Free Glass Vase	1	0	1	Expedited	Aileen Kurtz	2429 CRISFIELD ST			TOMS RIVER	NJ	08755-2508	US			false		
112-4256263-8052220	55358245818770	2020-11-12T04:06:20+00:00	2020-11-11T20:06:20-08:00	2020-11-12T04:34:23+00:00	2020-11-14T07:59:59+00:00	-2	vn2d9wtr1wslc0v@marketplace.amazon.com	Robb Burklin	+1 602-671-6610 ext. 09001	ABM022	Delivery by Friday | Purple Extravagance Bouquet by Arabella Bouquets	1	0	1	Expedited	Ralph mills	34150 STOWE RD			WINCHESTER	CA	92596-2694	US		Happy birthday sweetheart. I hope you have a good day my beautiful. We will be together very soon.  Love you From Robb Burklin	false		
111-3589903-9164206	12226869233098	2020-11-12T04:32:55+00:00	2020-11-11T20:32:55-08:00	2020-11-12T05:02:21+00:00	2020-11-14T07:59:59+00:00	-2	vyz780xshpndff6@marketplace.amazon.com	Tamara Graf	+1 619-854-2705 ext. 92714	ABR0055	Delivery by Friday | Arabella Farm Direct Bouquet of 12 Stems of Fresh Cut Hot Pink Roses in a Free Designer Glass Vase	1	0	1	Expedited	Lexy Merryman	12827 SE 301ST ST			AUBURN	WA	98092-2187	US		We hope you feel better. From Mike & Tamara Graf	false		
111-1575915-7209033	28392262577530	2020-11-12T04:33:46+00:00	2020-11-11T20:33:46-08:00	2020-11-12T05:04:30+00:00	2020-11-14T07:59:59+00:00	-2	fjvyxy8xyr2ll12@marketplace.amazon.com	Lee Brahin	+1 602-671-6610 ext. 99261	ABB006	Delivery by Monday | Arabella Bouquets | Farm Direct 48 Fresh Cut Red Roses	1	0	1	Expedited	Silver Cho Brahin	THE RITZ CARLTON RESIDENCES	1414 S PENN SQ UNIT 8-B		PHILADELPHIA	PA	19102-2545	US			false		
112-7024482-5681857	07878217640306	2020-11-12T05:10:03+00:00	2020-11-11T21:10:03-08:00	2020-11-12T05:32:22+00:00	2020-11-14T07:59:59+00:00	-2	s8lwfrdmmhrhx8p@marketplace.amazon.com	BlueShoeRoofing/RodFord	+1 602-671-6610 ext. 40057	ABR0022	Arabella Farm Direct Bouquet of 12 Fresh Cut Pink Roses with a Free Glass Vase	1	0	1	Expedited	Kelley Ford	2191 TUSTIN AVE			COSTA MESA	CA	92627-1864	US		We are so happy for our entire family. You are a gift to us an your lil one will be welcomed with lots of love💗 From BlueShoeRoofing/RodFord	false		
114-5643406-7052223	65127916091146	2020-11-12T05:04:22+00:00	2020-11-11T21:04:22-08:00	2020-11-12T05:33:20+00:00	2020-11-14T07:59:59+00:00	-2	rxm80jtlmtykn99@marketplace.amazon.com	Julie Gullett	+1 929-436-4790 ext. 34909	ABM010	Delivery by Friday | The Spring Fling Bouquet by Arabella Bouquets with a Free Designer Glass Vase	1	0	1	Expedited	Dennis & Lena Gullett	1500 JUANITA LN			ELK	WA	99009-9510	US		Dear FarMor, Happy birthday!  We hope you have a wonderful birthday!  We love you! From Adam & Julie, Ike, Nate & Ellie	false		
112-0268594-1556217	63273100985154	2020-11-12T05:15:39+00:00	2020-11-11T21:15:39-08:00	2020-11-12T05:43:46+00:00	2020-11-14T07:59:59+00:00	-2	f5fmm0hwk3zmp4z@marketplace.amazon.com	Mark D. Nichols	+1 480-618-5344 ext. 68188	ABM010	Delivery by Friday | The Spring Fling Bouquet by Arabella Bouquets with a Free Designer Glass Vase	1	0	1	Expedited	Don & Reddie Nichols	1 BALDWIN AVE CONDO 317			SAN MATEO	CA	94401-3864	US		Happy November! with love from Mark Paula Jessica Haley Jeffrey From Mark Nichols	false		
114-9615182-1331421	60254600029378	2020-11-12T05:20:17+00:00	2020-11-11T21:20:17-08:00	2020-11-12T05:44:35+00:00	2020-11-14T07:59:59+00:00	-2	ythblng0db9y1rn@marketplace.amazon.com	Kristin Robran	+1 480-618-5344 ext. 83783	ABM022	Delivery by Friday | Purple Extravagance Bouquet by Arabella Bouquets	1	0	1	Expedited	Danielle Reynders	5603 CHURCHWAY			GREENDALE	WI	53129-1821	US		Hope you feel better very soon! Xo Kristy From Kristin Robran	false		
114-7209591-3485037	04515372963634	2020-11-12T05:25:37+00:00	2020-11-11T21:25:37-08:00	2020-11-12T05:53:00+00:00	2020-11-14T07:59:59+00:00	-2	z3cvt33gn589lmn@marketplace.amazon.com	Diana Dubin	+1 213-442-1463 ext. 80887	ABR0022	Arabella Farm Direct Bouquet of 12 Fresh Cut Pink Roses with a Free Glass Vase	1	0	1	Expedited	Nancy Thompson	9431 GLEN ABBEY LN			SARASOTA	FL	34238-5806	US		Sending love and hugs From Diana Dubin	false		
112-4409981-2406639	14035058160410	2020-11-12T05:49:49+00:00	2020-11-11T21:49:49-08:00	2020-11-12T06:07:08+00:00	2020-11-14T07:59:59+00:00	-2	s8mm8gkwwrjhtb2@marketplace.amazon.com	carol kolls	+1 415-851-9136 ext. 04000	ABM031	Delivery by Monday | The Harvest Moon Bouquet by Arabella Bouquets	1	0	1	Expedited	Barb kolterjahn	1462 MAPLE HILLS DR			GREEN BAY	WI	54313-3953	US		I am so grateful for your help. Thank you! Love Carol From carol kolls	false		
113-7667821-8285856	18761925099706	2020-11-12T06:07:37+00:00	2020-11-11T22:07:37-08:00	2020-11-12T06:24:07+00:00	2020-11-14T07:59:59+00:00	-2	ls6d87lhwxhl5hc@marketplace.amazon.com	James Laposky	+1 213-442-1463 ext. 40230	ABR0022	Arabella Farm Direct Bouquet of 12 Fresh Cut Pink Roses with a Free Glass Vase	1	0	1	Expedited	Caitlyn Landry	178 DOVE LN			MIDDLETOWN	CT	06457-6230	US		Just wanted to let you know i'm thinking about you. I hope school is going well and that you and the doggos are doing well! I miss all 3 of you so much!!! -James From James Laposky	false		
112-4135645-1386616	23664457997978	2020-11-12T06:17:39+00:00	2020-11-11T22:17:39-08:00	2020-11-12T06:39:33+00:00	2020-11-14T07:59:59+00:00	-2	bxmx6yxmbg69bfs@marketplace.amazon.com	Tammy Johnson	+1 480-618-5344 ext. 75002	ABR004	Delivery by Monday | Arabella Farm Direct Bouquet of 12 Fresh Cut Yellow Roses with a Free Glass Vase	1	0	1	Expedited	Jonna Johnson	12610 251ST AVE SE			MONROE	WA	98272-8612	US		Thankyou for being such a Wonderful, Caring, Special Daughter!! You are a True Treasure!! I Love You So Very Much!!   Love You, Mama From Tammy Johnson	false		
114-2235603-7948207	15309030010418	2020-11-12T06:57:41+00:00	2020-11-11T22:57:41-08:00	2020-11-12T07:27:16+00:00	2020-11-14T07:59:59+00:00	-2	w31bby4894pzvcv@marketplace.amazon.com	Nita Kumar	+1 213-442-1463 ext. 98706	ABM022	Delivery by Friday | Purple Extravagance Bouquet by Arabella Bouquets	1	0	1	Expedited	Saraswati Nandini Majumdar	3410 DUVAL ST APT D			AUSTIN	TX	78705-1747	US		Happy birthday! Wish we were with you! From All of us	false		
114-2527107-3693845	06356545974922	2020-11-12T07:31:48+00:00	2020-11-11T23:31:48-08:00	2020-11-12T08:02:29+00:00	2020-11-14T07:59:59+00:00	-2	2g9t6mztzfkqyy5@marketplace.amazon.com	Polly Sesi	+1 213-442-1463 ext. 77806	ABM022	Delivery by Friday | Purple Extravagance Bouquet by Arabella Bouquets	1	0	1	Expedited	POLLY SESI	27898 N 71ST ST			SCOTTSDALE	AZ	85266-7512	US			false		
114-4850633-3969808	44666147737898	2020-11-12T07:42:32+00:00	2020-11-11T23:42:32-08:00	2020-11-12T08:13:09+00:00	2020-11-14T07:59:59+00:00	-2	2g9t6mztzfkqyy5@marketplace.amazon.com	Polly Sesi	+1 415-851-9136 ext. 39640	ABM010	Delivery by Friday | The Spring Fling Bouquet by Arabella Bouquets with a Free Designer Glass Vase	1	0	1	Expedited	POLLY SESI	27898 N 71ST ST			SCOTTSDALE	AZ	85266-7512	US			false		
111-3230315-4415427	69248053022746	2020-11-12T09:09:02+00:00	2020-11-12T01:09:02-08:00	2020-11-12T09:34:25+00:00	2020-11-17T07:59:59+00:00	-5	3wy96kcjzm5fh1y@marketplace.amazon.com	wil Fortier	+1 480-618-5344 ext. 10127	ABM022	Delivery by Friday | Purple Extravagance Bouquet by Arabella Bouquets	1	0	1	Expedited	Michele DeCamp	2313 N 164th			Seattle	WA	98133	US		Happy Birthday! From Dad & Karen	false		
113-5693972-6781068	25014997173946	2020-11-12T09:11:47+00:00	2020-11-12T01:11:47-08:00	2020-11-12T09:39:24+00:00	2020-11-17T07:59:59+00:00	-5	ccwmhk4q8r2h0mc@marketplace.amazon.com	John Simonis	+1 619-854-2705 ext. 12555	ABR0022	Arabella Farm Direct Bouquet of 12 Fresh Cut Pink Roses with a Free Glass Vase	1	0	1	Expedited	Vi Gagliardi	13327 MILITARY RD S			SEATTLE	WA	98168-3917	US		Auntie Vi... We are thinking of you and know this is a sad time for you. Loved spending the weekend with you! Thank you for all the yummy food! Love!! From Renee and Teresa	false		
112-2652333-0794654	45489462444882	2020-11-12T10:03:42+00:00	2020-11-12T02:03:42-08:00	2020-11-12T10:34:08+00:00	2020-11-17T07:59:59+00:00	-5	24zhdfj25gzwcp2@marketplace.amazon.com	Katherine Short	+1 480-618-5344 ext. 66198	ABM020	Delivery by Saturday | The Sunset Bouquet by Arabella Bouquets	1	0	1	Expedited	Katherine Hartley	2872 WESTSHIRE DR			LOS ANGELES	CA	90068-1932	US			false		
111-0505603-4051413	14657847421506	2020-11-12T10:44:12+00:00	2020-11-12T02:44:12-08:00	2020-11-12T11:02:51+00:00	2020-11-17T07:59:59+00:00	-5	m7m59phlsy6xmms@marketplace.amazon.com	Daisy van Slooten	+1 619-854-2705 ext. 56531	ABR004	Delivery by Monday | Arabella Farm Direct Bouquet of 12 Fresh Cut Yellow Roses with a Free Glass Vase	1	0	1	Expedited	Mr. A. Haspels	AMBASSADE VAN HET KONINKRIJK DER NEDERLANDEN	4200 LINNEAN AVE NW		WASHINGTON	DC	20008-3809	US		Beste Andre,  Bedankt voor jouw bijzondere bijdrage aan het Virtual DTF op 11 november jl.  Hartelijke groet, From Mando Vroling	false		
112-8870430-1269029	38379831984138	2020-11-12T11:16:17+00:00	2020-11-12T03:16:17-08:00	2020-11-12T11:43:22+00:00	2020-11-17T07:59:59+00:00	-5	vskqnkvktfd4rpd@marketplace.amazon.com	Batsuuri	+1 213-442-1463 ext. 50080	ABR0055	Delivery by Friday | Arabella Farm Direct Bouquet of 12 Stems of Fresh Cut Hot Pink Roses in a Free Designer Glass Vase	1	0	1	Expedited	Danelia Romero	12371 LOREZ DR			MORENO VALLEY	CA	92557-7409	US		Hello! I hope this flower makes smile on your face. I really like to see when you smile. Moreover, I enjoy your company. Your Sam...❤️ From Batsuuri	false		
111-4801148-5750620	45389633869266	2020-11-12T11:30:33+00:00	2020-11-12T03:30:33-08:00	2020-11-12T11:58:00+00:00	2020-11-17T07:59:59+00:00	-5	6m1hkh32pwxsdl0@marketplace.amazon.com	Rimarria	+1 602-671-6610 ext. 18447	ABM022	Delivery by Friday | Purple Extravagance Bouquet by Arabella Bouquets	1	0	1	Expedited	Diane Appling	448 POLLYANN TRL			HASLET	TX	76052-1177	US		We love you mom! Enjoy your flowers!!! From Rimarria + Dan	false		
111-1416311-3496222	35278941894002	2020-11-12T07:27:33+00:00	2020-11-11T23:27:33-08:00	2020-11-12T12:02:30+00:00	2020-11-14T07:59:59+00:00	-2	45z3991h3h2h443@marketplace.amazon.com	Marwa	+1 213-442-1463 ext. 58034	ABR0022	Arabella Farm Direct Bouquet of 12 Fresh Cut Pink Roses with a Free Glass Vase	1	0	1	Expedited	Marwa	3674 COLLECTOR LN			BETHPAGE	NY	11714-3812	US		♥️♥️ Miss u From MG	false		
112-8194529-3633028	55930292410274	2020-11-12T11:59:29+00:00	2020-11-12T03:59:29-08:00	2020-11-12T12:29:13+00:00	2020-11-17T07:59:59+00:00	-5	cpv5c7grrbrjrd9@marketplace.amazon.com	Dalton Clarke	02895008676	ABR0022	Arabella Farm Direct Bouquet of 12 Fresh Cut Pink Roses with a Free Glass Vase	1	0	1	Expedited	Anne Thatcher	1738 W WALNUT ST			KOKOMO	IN	46901-4210	US			false		
111-2827759-6600211	54087075211026	2020-11-12T12:12:44+00:00	2020-11-12T04:12:44-08:00	2020-11-12T12:42:20+00:00	2020-11-17T07:59:59+00:00	-5	4gybc61krgwph3j@marketplace.amazon.com	Matthew Brunner	+1 480-618-5344 ext. 86368	ABR004	Delivery by Monday | Arabella Farm Direct Bouquet of 12 Fresh Cut Yellow Roses with a Free Glass Vase	1	0	1	Expedited	Ellen Brunner	6015 LOCH HARBOR CT			ROSWELL	GA	30075-4774	US		Happy Birthday Ellen! From Love Matthew & Gene	false		
113-5137724-7573846	37067451866874	2020-11-12T12:19:04+00:00	2020-11-12T04:19:04-08:00	2020-11-12T12:48:55+00:00	2020-11-17T07:59:59+00:00	-5	7bbwkd5rm2s89v8@marketplace.amazon.com	Eric Maass	+1 480-618-5344 ext. 49363	ABM010	Delivery by Friday | The Spring Fling Bouquet by Arabella Bouquets with a Free Designer Glass Vase	1	0	1	Expedited	Eric A. Maass	1578 ANDERSON LN			BUFFALO GROVE	IL	60089-1207	US			false		
113-3735206-4181043	32168916216778	2020-11-12T12:29:03+00:00	2020-11-12T04:29:03-08:00	2020-11-12T12:56:26+00:00	2020-11-17T07:59:59+00:00	-5	xs90x2r53dsgbw3@marketplace.amazon.com	Claudia boynton	+1 619-854-2705 ext. 80275	ABM020	Delivery by Saturday | The Sunset Bouquet by Arabella Bouquets	1	0	1	Expedited	Castillo	310 W GRAY AVE			SAN DIEGO	TX	78384-2614	US			false		
112-3043971-6684206	38694825216450	2020-11-12T12:29:15+00:00	2020-11-12T04:29:15-08:00	2020-11-12T12:57:31+00:00	2020-11-17T07:59:59+00:00	-5	ft4pfcmtysrh8bh@marketplace.amazon.com	Billy clark	+1 619-854-2705 ext. 27755	ABM022	Delivery by Friday | Purple Extravagance Bouquet by Arabella Bouquets	1	0	1	Expedited	Dorothy poindexter	5861 ROCHE DR UNIT 219			COLUMBUS	OH	43229-3289	US			false		
114-0260875-8237878	15507803496914	2020-11-12T12:39:10+00:00	2020-11-12T04:39:10-08:00	2020-11-12T13:07:37+00:00	2020-11-17T07:59:59+00:00	-5	mw3cxtq2glm5btk@marketplace.amazon.com	debbe	+1 619-854-2705 ext. 91915	ABM022	Delivery by Friday | Purple Extravagance Bouquet by Arabella Bouquets	1	0	1	Expedited	Raynette Jervis	415 NEW JERSEY AVE NW NW 			WASHINGTON	DC	20001-2001	US		Feel Better soon from Shiloh, Charlie Bobbi and Debbe From debbe	false		
114-9148414-4889865	69701286812338	2020-11-12T12:49:12+00:00	2020-11-12T04:49:12-08:00	2020-11-12T13:18:27+00:00	2020-11-17T07:59:59+00:00	-5	5v0k2qs8ml1p3mv@marketplace.amazon.com	Dawn R Elliott	+1 619-854-2705 ext. 45947	ABM010	Delivery by Friday | The Spring Fling Bouquet by Arabella Bouquets with a Free Designer Glass Vase	1	0	1	Expedited	Vilma Bryan	1001 GEORGE ST			SEBASTIAN	FL	32958-5569	US		Enjoy your gift! From Dawn R Elliott	false		
111-7032850-0421061	39444112296058	2020-11-12T13:03:55+00:00	2020-11-12T05:03:55-08:00	2020-11-12T13:32:52+00:00	2020-11-17T07:59:59+00:00	-5	cx6p0zz168cnmyw@marketplace.amazon.com	Diana	+1 213-442-1463 ext. 47205	ABM022	Delivery by Friday | Purple Extravagance Bouquet by Arabella Bouquets	1	0	1	Expedited	Sherry Scheib	507 N 4TH AVE			MAYODAN	NC	27027-2309	US		Happy 90th Birthday Nanny!  Love, Carmen & Diana From Carmen & Diana	false		
111-6809932-2389811	23092945034338	2020-11-12T13:05:57+00:00	2020-11-12T05:05:57-08:00	2020-11-12T13:34:09+00:00	2020-11-17T07:59:59+00:00	-5	1b2x97bcfb36427@marketplace.amazon.com	Joe Young	+1 415-851-9136 ext. 80987	ABM022	Delivery by Friday | Purple Extravagance Bouquet by Arabella Bouquets	1	0	1	Expedited	Lindsay Silver	5445 VALLEYWOOD DR			KLAMATH FALLS	OR	97603-8549	US			false		
112-1125227-9438632	41324553395714	2020-11-12T13:10:42+00:00	2020-11-12T05:10:42-08:00	2020-11-12T13:41:06+00:00	2020-11-17T07:59:59+00:00	-5	xjr1mjv3w6j8gbv@marketplace.amazon.com	curtis shields	+1 929-436-4790 ext. 12244	ABR0055	Delivery by Friday | Arabella Farm Direct Bouquet of 12 Stems of Fresh Cut Hot Pink Roses in a Free Designer Glass Vase	1	0	1	Expedited	Brenda Shields	6700 150TH AVE N LOT 802			CLEARWATER	FL	33764-7706	US			false		
113-6316848-6432217	01467810831970	2020-11-12T13:27:40+00:00	2020-11-12T05:27:40-08:00	2020-11-12T13:51:53+00:00	2020-11-17T07:59:59+00:00	-5	zz0vgpc7t096cdr@marketplace.amazon.com	Jessica Dahl	+1 619-854-2705 ext. 14800	ABR0055	Delivery by Friday | Arabella Farm Direct Bouquet of 12 Stems of Fresh Cut Hot Pink Roses in a Free Designer Glass Vase	1	0	1	Expedited	Kelly Ottem	207 JEFFERSON ST			RIVER FALLS	WI	54022-3114	US		Erik, Kelly, Sadie, Ellery, Annie and Fin- we are so sorry for your loss. We know how special your grandma was. Hoping these bring a smile to your face. Sending hugs your way. From The Dahl’s (Jessica, Tony, Jack and Cole)	false		
113-2812251-2199417	65719292568634	2020-11-12T13:41:23+00:00	2020-11-12T05:41:23-08:00	2020-11-12T14:07:23+00:00	2020-11-17T07:59:59+00:00	-5	tf3vq2d0zs7sxls@marketplace.amazon.com	Laurine Cortez	+1 480-618-5344 ext. 20662	ABR0022	Arabella Farm Direct Bouquet of 12 Fresh Cut Pink Roses with a Free Glass Vase	1	0	1	Expedited	Carmen Chavarria	6267 DEERFIELD AVE			SAN GABRIEL	CA	91775-2511	US		Thinking of you. Love you, Laurine From Laurine Cortez	false		
