order-id	order-item-id	purchase-date	payments-date	reporting-date	promise-date	days-past-promise	buyer-email	buyer-name	buyer-phone-number	sku	product-name	quantity-purchased	quantity-shipped	quantity-to-ship	ship-service-level	recipient-name	ship-address-1	ship-address-2	ship-address-3	ship-city	ship-state	ship-postal-code	ship-country	gift-wrap-type	gift-message-text	is-business-order	purchase-order-number	price-designation
113-2937497-8874669	55497641510354	2020-11-11T18:05:51+00:00	2020-11-11T10:05:51-08:00	2020-11-11T18:29:35+00:00	2020-11-14T07:59:59+00:00	-1	xyjy80znqxdb2vf@marketplace.amazon.com	Dennis McMichael	+1 929-436-4790 ext. 26251	ABM022	Delivery by Thursday | Purple Extravagance Bouquet by Arabella Bouquets	1	0	1	Expedited	Amanda Snelgrove	3702 CHANEL RD			ANNANDALE	VA	22003-2023	US		Congratulations on the new addition!!! Hope you are doing well! From Dennis McMichael, CVP & the Shirlington Team From Dennis McMichael, CVP & the Shirlington Team	false		
113-2657951-1833018	21367585769818	2020-11-11T18:23:16+00:00	2020-11-11T10:23:16-08:00	2020-11-11T18:51:08+00:00	2020-11-14T07:59:59+00:00	-1	zpt5pw8qn6l4k2s@marketplace.amazon.com	Myrna Garron	+1 213-442-1463 ext. 77019	ABM010	Delivery by Friday | The Spring Fling Bouquet by Arabella Bouquets with a Free Designer Glass Vase	1	0	1	Expedited	Emily Zucal and Courtney Garron	160 S MIDDLE NECK RD APT 1A			GREAT NECK	NY	11021-4601	US		Dear Courtney, Happy birthday.  Enjoy your special day!  Love, Mom and Dad From Myrna Garron	false		
112-6399411-2868217	66169357527562	2020-11-11T18:26:21+00:00	2020-11-11T10:26:21-08:00	2020-11-11T18:56:05+00:00	2020-11-14T07:59:59+00:00	-1	5dzn5qrxc6tcq2f@marketplace.amazon.com	Susan	+1 213-442-1463 ext. 48768	ABR0022	Arabella Farm Direct Bouquet of 12 Fresh Cut Pink Roses with a Free Glass Vase	1	0	1	Expedited	Margaret Magwire	15845 NE 156TH ST			WOODINVILLE	WA	98072-8960	US		Margaret! Happy Thanksgiving ... I am thankful for you! LLL!!! Susan From Susan	false		
111-3880951-3337030	06247882018442	2020-11-11T18:43:37+00:00	2020-11-11T10:43:37-08:00	2020-11-11T19:10:55+00:00	2020-11-14T07:59:59+00:00	-1	2j0w8qbfskyqjmb@marketplace.amazon.com	Nathan Latimer	+1 619-854-2705 ext. 82319	ABM010	Delivery by Friday | The Spring Fling Bouquet by Arabella Bouquets with a Free Designer Glass Vase	1	0	1	Expedited	Dorothy Knope	803 TEATICKET HWY			EAST FALMOUTH	MA	02536-5847	US		Congratulations on beginning your dental implant experience. We appreciate you as a patient!  DR Latimer & Staff From Nathan Latimer	false		
114-4654010-4161037	68654035421890	2020-11-11T18:51:15+00:00	2020-11-11T10:51:15-08:00	2020-11-11T19:19:35+00:00	2020-11-14T07:59:59+00:00	-1	0qlg8pm1g9vg92b@marketplace.amazon.com	Bonnie D Gordon Rabinowitz	+1 602-671-6610 ext. 73293	ABM022	Delivery by Friday | Purple Extravagance Bouquet by Arabella Bouquets	1	0	1	Expedited	Diane and Howard Gartner	2 SPRUCE CT			OWINGS MILLS	MD	21117-1423	US		Dear Diane and Howard, We miss you! Love, Bonnie and Marc From Bonnie D Gordon Rabinowitz	false		
111-4475749-1120238	42488396131490	2020-11-11T18:53:13+00:00	2020-11-11T10:53:13-08:00	2020-11-11T19:22:05+00:00	2020-11-14T07:59:59+00:00	-1	b58my00jt2btlz4@marketplace.amazon.com	Jayne  Godsey	+1 602-671-6610 ext. 73995	ABM022	Delivery by Friday | Purple Extravagance Bouquet by Arabella Bouquets	1	0	1	Expedited	Carrie Hyatt	7810 DAVINCI LN			CHARLOTTE	NC	28226-3929	US		Get well soon, Love, Bobby & Jayne From Bobby & Jayne	false		
113-5078603-0217848	59548038843962	2020-11-11T19:28:04+00:00	2020-11-11T11:28:04-08:00	2020-11-11T19:55:25+00:00	2020-11-14T07:59:59+00:00	-1	5csngx46892cx00@marketplace.amazon.com	Eve	+1 929-436-4790 ext. 56437	ABM022	Delivery by Friday | Purple Extravagance Bouquet by Arabella Bouquets	1	0	1	Expedited	Carolyn King	4 EDGEMERE AVE			WARWICK	RI	02889-4008	US		Happy Birthday Mom!! Happy Birthday Grandma!!! From Scott, Eve, Scott, Josh and Juliana	false		
111-0735468-8215400	55821429611762	2020-11-11T19:26:13+00:00	2020-11-11T11:26:13-08:00	2020-11-11T19:55:35+00:00	2020-11-14T07:59:59+00:00	-1	2g4myv76x79pys3@marketplace.amazon.com	joe cassidy	+1 213-442-1463 ext. 76860	ABM022	Delivery by Friday | Purple Extravagance Bouquet by Arabella Bouquets	1	0	1	Expedited	Bethan Nowak	573 ROUTE 196			TOBYHANNA	PA	18466-8354	US		Love you Bunnie 💜💜💜 From Mama 🥰	false		
113-5172590-1133840	23181660454474	2020-11-11T21:14:38+00:00	2020-11-11T13:14:38-08:00	2020-11-11T21:44:43+00:00	2020-11-14T07:59:59+00:00	-1	44ys9ds5h9254v0@marketplace.amazon.com	Mejlo	+1 602-671-6610 ext. 96746	ABR001	Delivery by Friday | Arabella Bouquets 12 Stems of Fresh Cut Red Roses in a Free Designer Glass Vase	1	0	1	Expedited	Erika Willey	703 E 3RD NORTH ST APT L6			SUMMERVILLE	SC	29485-7055	US			false		
112-7934704-0573046	58124411804234	2020-11-11T21:50:30+00:00	2020-11-11T13:50:30-08:00	2020-11-11T22:20:22+00:00	2020-11-14T07:59:59+00:00	-1	g4wcshv4skbxmj3@marketplace.amazon.com	Robert Fogarty	+1 619-854-2705 ext. 66252	ABM020	Delivery by Saturday | The Sunset Bouquet by Arabella Bouquets	1	0	1	Expedited	Robert Fogarty	2806 Oak Point Drive			Middleborough	MA	02346	US			false		
111-0769094-3577842	55661073602370	2020-11-11T22:19:53+00:00	2020-11-11T14:19:53-08:00	2020-11-11T22:47:38+00:00	2020-11-14T07:59:59+00:00	-1	fjqxf3f0k1qx34f@marketplace.amazon.com	Cynthia Fay	+1 602-671-6610 ext. 95789	ABR0055	Delivery by Friday | Arabella Farm Direct Bouquet of 12 Stems of Fresh Cut Hot Pink Roses in a Free Designer Glass Vase	1	0	1	Expedited	Alida Salazar	1225 FILBERT RD APT J-3			LYNNWOOD	WA	98036-4975	US		We miss seeing you both, and think of you often, have a wonderful holiday and stay safe!! From Cyndi & Harry	false		
111-0769094-3577842	20318696461562	2020-11-11T22:19:53+00:00	2020-11-11T14:19:53-08:00	2020-11-11T22:47:38+00:00	2020-11-14T07:59:59+00:00	-1	fjqxf3f0k1qx34f@marketplace.amazon.com	Cynthia Fay	+1 602-671-6610 ext. 95789	ABR0033	Delivery by Friday | Arabella Farm Direct Bouquet of 12 Fresh Cut Orange Roses with a Free Glass Vase	1	0	1	Expedited	Alida Salazar	1225 FILBERT RD APT J-3			LYNNWOOD	WA	98036-4975	US		We miss seeing you both, and think of you often, have a wonderful holiday and stay safe! From Cyndi & Harry	false		
111-4950242-3394609	43316331036794	2020-11-11T22:29:58+00:00	2020-11-11T14:29:58-08:00	2020-11-11T23:00:12+00:00	2020-11-14T07:59:59+00:00	-1	zg0vrfk8cx050k7@marketplace.amazon.com	hanna marginean	+1 213-442-1463 ext. 33063	ABR0033	Delivery by Friday | Arabella Farm Direct Bouquet of 12 Fresh Cut Orange Roses with a Free Glass Vase	1	0	1	Expedited	Stella Goodson	4293 WOODS EDGE ST			SAGINAW	MI	48603-4243	US			false		
114-4618390-6224258	00566112170058	2020-11-11T22:44:36+00:00	2020-11-11T14:44:36-08:00	2020-11-11T23:11:19+00:00	2020-11-14T07:59:59+00:00	-1	b7rq3s4lg519hzt@marketplace.amazon.com	Jeremy Phillips	+1 929-436-4790 ext. 68828	ABM022	Delivery by Friday | Purple Extravagance Bouquet by Arabella Bouquets	1	0	1	Expedited	Shelley Drujak	19101 MYSTIC POINTE DR APT 1508			AVENTURA	FL	33180-4517	US		Dear Shelley Wishing you a speedy recovery. All our love, Sharon & Jeremy From Jeremy Phillips	false		
112-4815039-2009001	69234049152754	2020-11-11T22:47:37+00:00	2020-11-11T14:47:37-08:00	2020-11-11T23:17:17+00:00	2020-11-14T07:59:59+00:00	-1	13c0vx4jj081zht@marketplace.amazon.com	Cristina Toro	+1 213-442-1463 ext. 89908	ABM022	Delivery by Friday | Purple Extravagance Bouquet by Arabella Bouquets	1	0	1	Expedited	Dr. James Rhee	10027 ROYAL EAGLE LN			HIGHLANDS RANCH	CO	80129-5654	US		Sending well wishes and prayers to you and your family. Please accept my heartfelt condolences. From Bahri Bilir, Luke Evans, Steve Lawrence, Erik Springer & Your Arapahoe Family	true		
112-8340478-6005030	19121981993666	2020-11-11T23:19:30+00:00	2020-11-11T15:19:30-08:00	2020-11-11T23:45:48+00:00	2020-11-14T07:59:59+00:00	-1	np06t7fdtvvxx7j@marketplace.amazon.com	Martha B. Neumeister	+1 619-854-2705 ext. 28495	ABM010	Delivery by Friday | The Spring Fling Bouquet by Arabella Bouquets with a Free Designer Glass Vase	1	0	1	Expedited	Annie DiMauro	581 MANOR RD			SEVERNA PARK	MD	21146-2643	US		Bravo! Congratulations! All of those children were so fortunate to be in your loving care. Just think, some of them are now in college. We love you! From Mom and Dad	false		
114-2863789-5292240	23737694865258	2020-11-11T23:51:36+00:00	2020-11-11T15:51:36-08:00	2020-11-12T00:21:43+00:00	2020-11-14T07:59:59+00:00	-1	8rghth4nwcqbdr5@marketplace.amazon.com	deb porter	+1 415-851-9136 ext. 76120	ABR0022	Arabella Farm Direct Bouquet of 12 Fresh Cut Pink Roses with a Free Glass Vase	1	0	1	Expedited	Gary Blackney	1611 SW PROSPERITY WAY			PALM CITY	FL	34990-2429	US			false		
114-8682131-1134651	17013155264386	2020-11-12T00:33:13+00:00	2020-11-11T16:33:13-08:00	2020-11-12T00:57:52+00:00	2020-11-14T07:59:59+00:00	-1	hfr2pvxq0lg4d4d@marketplace.amazon.com	Neal Shusterman	+1 929-436-4790 ext. 13817	ABM022	Delivery by Friday | Purple Extravagance Bouquet by Arabella Bouquets	1	0	1	Expedited	Ruth Kleinman	189 FALMOUTH ST			BROOKLYN	NY	11235-3005	US		Ruth, Murray, and Emily Clara -- I can’t thank you enough for all your help with Millie’s apartment and for being such good friends.  No, not friends -- FAMILY. With love,  Neal From Neal Shusterman	false		
113-5173874-5141839	55626560682754	2020-11-12T01:04:57+00:00	2020-11-11T17:04:57-08:00	2020-11-12T01:30:09+00:00	2020-11-14T07:59:59+00:00	-1	6l3gylzcdl2yspx@marketplace.amazon.com	Michelle Conners	+1 602-671-6610 ext. 25913	ABR0022	Arabella Farm Direct Bouquet of 12 Fresh Cut Pink Roses with a Free Glass Vase	1	0	1	Expedited	Maureen Conners	C/O BARRY FLYNN	182 BOCA CIEGA POINT BLVD S		ST PETERSBURG	FL	33708-2728	US			false		
114-9127230-5083440	46959004982426	2020-11-12T01:14:13+00:00	2020-11-11T17:14:13-08:00	2020-11-12T01:37:18+00:00	2020-11-14T07:59:59+00:00	-1	2c7x0xr8fr2sycs@marketplace.amazon.com	PATRICIA SMIGELSKI	+1 213-442-1463 ext. 77245	ABM022	Delivery by Friday | Purple Extravagance Bouquet by Arabella Bouquets	1	0	1	Expedited	DEE WINNALS	2341 HOFFNAGLE ST			PHILADELPHIA	PA	19152-2513	US		We love you & sending our deepest Sympathy. Aunt Pat & Uncle Ed From PATRICIA SMIGELSKI	false		
113-5461792-2254613	39758216635226	2020-11-12T01:28:09+00:00	2020-11-11T17:28:09-08:00	2020-11-12T01:57:14+00:00	2020-11-14T07:59:59+00:00	-1	vnrdks95tgn79c4@marketplace.amazon.com	terry labrum	+1 480-618-5344 ext. 71055	ABM022	Delivery by Friday | Purple Extravagance Bouquet by Arabella Bouquets	1	0	1	Expedited	Tyson Kelly	7506 GREEN MOUNTAIN WAY			WINTER GARDEN	FL	34787-5159	US			false		
114-0897226-8721829	19787763103418	2020-11-12T01:43:33+00:00	2020-11-11T17:43:33-08:00	2020-11-12T02:02:58+00:00	2020-11-14T07:59:59+00:00	-1	zfh7nv0yj2x49rv@marketplace.amazon.com	Lisa Berzins	+18605434046 or 8608	ABR0055	Delivery by Friday | Arabella Farm Direct Bouquet of 12 Stems of Fresh Cut Hot Pink Roses in a Free Designer Glass Vase	1	0	1	Expedited	Maria Rivera-Velez	67 GILBERT AVE			ROCKY HILL	CT	06067-1911	US		Dear Maria, I am so sorry about your loss. I hope that the love and caring from family and friends will bring you some comfort.  Best, Dr, B From Lisa Berzins	false		
114-2188593-1645839	02967478379370	2020-11-12T02:29:38+00:00	2020-11-11T18:29:38-08:00	2020-11-12T02:58:46+00:00	2020-11-14T07:59:59+00:00	-1	f6v9xlzhtwylqd7@marketplace.amazon.com	Rick Bond	+1 602-671-6610 ext. 28858	ABM022	Delivery by Friday | Purple Extravagance Bouquet by Arabella Bouquets	1	0	1	Expedited	Jinhee Kang	2024 AQUAMARINE TER			SILVER SPRING	MD	20904-5362	US		I love you Jinhee! I am so grateful to have you in my life ! From Rick	false		
113-3799929-7607422	19000487986642	2020-11-12T02:53:12+00:00	2020-11-11T18:53:12-08:00	2020-11-12T03:19:14+00:00	2020-11-14T07:59:59+00:00	-1	rvzc6yz3x2x70sv@marketplace.amazon.com	cameron adler	+1 213-442-1463 ext. 21745	ABM020	Delivery by Saturday | The Sunset Bouquet by Arabella Bouquets	1	0	1	Standard	ali schneider	738 COLORADO AVE			STUART	FL	34994-3005	US			false		
111-1077243-2313010	52660220686730	2020-11-12T03:39:46+00:00	2020-11-11T19:39:46-08:00	2020-11-12T04:08:33+00:00	2020-11-14T07:59:59+00:00	-1	vvjr6q0yd3h01hn@marketplace.amazon.com	Amanda Chinyere Chilaka	+1 415-851-9136 ext. 50106	ABM022	Delivery by Friday | Purple Extravagance Bouquet by Arabella Bouquets	1	0	1	Expedited	Evelyn Nickerson	113 HEADWATERS RD			CENTERVILLE	MA	02632-3205	US		Get well soon! Love  you to the moon and back! From Amanda Chilaka	false		
111-3589903-9164206	12226869233098	2020-11-12T04:32:55+00:00	2020-11-11T20:32:55-08:00	2020-11-12T05:02:21+00:00	2020-11-14T07:59:59+00:00	-1	vyz780xshpndff6@marketplace.amazon.com	Tamara Graf	+1 619-854-2705 ext. 92714	ABR0055	Delivery by Friday | Arabella Farm Direct Bouquet of 12 Stems of Fresh Cut Hot Pink Roses in a Free Designer Glass Vase	1	0	1	Expedited	Lexy Merryman	12827 SE 301ST ST			AUBURN	WA	98092-2187	US		We hope you feel better. From Mike & Tamara Graf	false		
114-9615182-1331421	60254600029378	2020-11-12T05:20:17+00:00	2020-11-11T21:20:17-08:00	2020-11-12T05:44:35+00:00	2020-11-14T07:59:59+00:00	-1	ythblng0db9y1rn@marketplace.amazon.com	Kristin Robran	+1 480-618-5344 ext. 83783	ABM022	Delivery by Friday | Purple Extravagance Bouquet by Arabella Bouquets	1	0	1	Expedited	Danielle Reynders	5603 CHURCHWAY			GREENDALE	WI	53129-1821	US		Hope you feel better very soon! Xo Kristy From Kristin Robran	false		
111-3230315-4415427	69248053022746	2020-11-12T09:09:02+00:00	2020-11-12T01:09:02-08:00	2020-11-12T09:34:25+00:00	2020-11-17T07:59:59+00:00	-4	3wy96kcjzm5fh1y@marketplace.amazon.com	wil Fortier	+1 480-618-5344 ext. 10127	ABM022	Delivery by Friday | Purple Extravagance Bouquet by Arabella Bouquets	1	0	1	Expedited	Michele DeCamp	2313 N 164th			Seattle	WA	98133	US		Happy Birthday! From Dad & Karen	false		
112-8870430-1269029	38379831984138	2020-11-12T11:16:17+00:00	2020-11-12T03:16:17-08:00	2020-11-12T11:43:22+00:00	2020-11-17T07:59:59+00:00	-4	vskqnkvktfd4rpd@marketplace.amazon.com	Batsuuri	+1 213-442-1463 ext. 50080	ABR0055	Delivery by Friday | Arabella Farm Direct Bouquet of 12 Stems of Fresh Cut Hot Pink Roses in a Free Designer Glass Vase	1	0	1	Expedited	Danelia Romero	12371 LOREZ DR			MORENO VALLEY	CA	92557-7409	US		Hello! I hope this flower makes smile on your face. I really like to see when you smile. Moreover, I enjoy your company. Your Sam...❤️ From Batsuuri	false		
111-4801148-5750620	45389633869266	2020-11-12T11:30:33+00:00	2020-11-12T03:30:33-08:00	2020-11-12T11:58:00+00:00	2020-11-17T07:59:59+00:00	-4	6m1hkh32pwxsdl0@marketplace.amazon.com	Rimarria	+1 602-671-6610 ext. 18447	ABM022	Delivery by Friday | Purple Extravagance Bouquet by Arabella Bouquets	1	0	1	Expedited	Diane Appling	448 POLLYANN TRL			HASLET	TX	76052-1177	US		We love you mom! Enjoy your flowers!!! From Rimarria + Dan	false		
114-0260875-8237878	15507803496914	2020-11-12T12:39:10+00:00	2020-11-12T04:39:10-08:00	2020-11-12T13:07:37+00:00	2020-11-17T07:59:59+00:00	-4	mw3cxtq2glm5btk@marketplace.amazon.com	debbe	+1 619-854-2705 ext. 91915	ABM022	Delivery by Friday | Purple Extravagance Bouquet by Arabella Bouquets	1	0	1	Expedited	Raynette Jervis	415 NEW JERSEY AVE NW NW 			WASHINGTON	DC	20001-2001	US		Feel Better soon from Shiloh, Charlie Bobbi and Debbe From debbe	false		
114-9148414-4889865	69701286812338	2020-11-12T12:49:12+00:00	2020-11-12T04:49:12-08:00	2020-11-12T13:18:27+00:00	2020-11-17T07:59:59+00:00	-4	5v0k2qs8ml1p3mv@marketplace.amazon.com	Dawn R Elliott	+1 619-854-2705 ext. 45947	ABM010	Delivery by Friday | The Spring Fling Bouquet by Arabella Bouquets with a Free Designer Glass Vase	1	0	1	Expedited	Vilma Bryan	1001 GEORGE ST			SEBASTIAN	FL	32958-5569	US		Enjoy your gift! From Dawn R Elliott	false		
111-7032850-0421061	39444112296058	2020-11-12T13:03:55+00:00	2020-11-12T05:03:55-08:00	2020-11-12T13:32:52+00:00	2020-11-17T07:59:59+00:00	-4	cx6p0zz168cnmyw@marketplace.amazon.com	Diana	+1 213-442-1463 ext. 47205	ABM022	Delivery by Friday | Purple Extravagance Bouquet by Arabella Bouquets	1	0	1	Expedited	Sherry Scheib	507 N 4TH AVE			MAYODAN	NC	27027-2309	US		Happy 90th Birthday Nanny!  Love, Carmen & Diana From Carmen & Diana	false		
113-8744979-5539448	53389432590266	2020-11-12T13:52:55+00:00	2020-11-12T05:52:55-08:00	2020-11-12T14:23:30+00:00	2020-11-17T07:59:59+00:00	-4	hs22kv54q84b13b@marketplace.amazon.com	Brayden harden	+1 480-618-5344 ext. 63942	ABM022	Delivery by Friday | Purple Extravagance Bouquet by Arabella Bouquets	1	0	1	Expedited	Moriah hulva	246 S SMITH ST			FORSYTH	IL	62535-4038	US			false		
112-8261246-6231430	09465345712442	2020-11-12T14:18:25+00:00	2020-11-12T06:18:25-08:00	2020-11-12T14:44:07+00:00	2020-11-17T07:59:59+00:00	-4	ftp7c5bg0dx06cb@marketplace.amazon.com	Cynthia R Jonen	+1 602-671-6610 ext. 31038	ABM010	Delivery by Friday | The Spring Fling Bouquet by Arabella Bouquets with a Free Designer Glass Vase	1	0	1	Expedited	Carol Drake	RENAISSANCE ASSISTED LIVING	250 S 9TH ST APT 205		DE PERE	WI	54115-3921	US		Sending Love!!! 🥰🥰 From Cyndi & Brad	false		
114-4351521-9558656	41539364812354	2020-11-12T14:23:50+00:00	2020-11-12T06:23:50-08:00	2020-11-12T14:52:21+00:00	2020-11-17T07:59:59+00:00	-4	5rld4ts4dhcqlnw@marketplace.amazon.com	Shelby Forte	+1 619-854-2705 ext. 18355	ABR0055	Delivery by Friday | Arabella Farm Direct Bouquet of 12 Stems of Fresh Cut Hot Pink Roses in a Free Designer Glass Vase	1	0	1	Expedited	Beth Hurley	10836 VERAWOOD DR			RIVERVIEW	FL	33579-2134	US		Beth- we are all thinking of you and extend our deepest condolences during this time of losing Cruise. We love you! From DET Tax Team	false		
113-0679250-9208242	16724795287954	2020-11-12T14:26:14+00:00	2020-11-12T06:26:14-08:00	2020-11-12T14:54:22+00:00	2020-11-17T07:59:59+00:00	-4	9bhkzw0f0km28t8@marketplace.amazon.com	gerard r. marconi	+1 619-854-2705 ext. 32468	ABM022	Delivery by Friday | Purple Extravagance Bouquet by Arabella Bouquets	1	0	1	Expedited	Jean Nollmeyer	4621 BACHELORS POINT RD			OXFORD	MD	21654-1459	US		Hope your operation was a success and that we will soon see you in the library. The Oxford Library Volunteers From The Oxford Library Volunteers	false		
111-1340116-3866644	44262931689378	2020-11-12T15:16:02+00:00	2020-11-12T07:16:02-08:00	2020-11-12T15:46:30+00:00	2020-11-17T07:59:59+00:00	-4	y7m92j1079pxvyq@marketplace.amazon.com	Damian Starr's	+1 213-442-1463 ext. 07081	ABM010	Delivery by Friday | The Spring Fling Bouquet by Arabella Bouquets with a Free Designer Glass Vase	1	0	1	Expedited	Damian Starrs	1350 GLENSIDE RD			DOWNINGTOWN	PA	19335-3763	US			false		
112-7276842-6612248	26100644742242	2020-11-12T15:47:23+00:00	2020-11-12T07:47:23-08:00	2020-11-12T16:16:31+00:00	2020-11-17T07:59:59+00:00	-4	0tzl4pfc458j3xp@marketplace.amazon.com	Mary Gallagher	+1 602-671-6610 ext. 78099	ABR0055	Delivery by Friday | Arabella Farm Direct Bouquet of 12 Stems of Fresh Cut Hot Pink Roses in a Free Designer Glass Vase	1	0	1	Expedited	Joannie Dwire	4565 NW NESKOWIN AVE			PORTLAND	OR	97229-2875	US			false		
114-2635433-3030625	38409895489994	2020-11-12T16:00:49+00:00	2020-11-12T08:00:49-08:00	2020-11-12T16:31:24+00:00	2020-11-17T07:59:59+00:00	-4	ycb6d9tcv938tb2@marketplace.amazon.com	William Herbert	+1 480-618-5344 ext. 95550	ABM022	Delivery by Friday | Purple Extravagance Bouquet by Arabella Bouquets	1	0	1	Expedited	William E Herbert	2941 CRYSTAL SPRINGS RD W			TACOMA	WASHINGTON	98466-2732	US			false		
113-3252778-3633031	04229582193858	2020-11-12T16:42:09+00:00	2020-11-12T08:42:09-08:00	2020-11-12T17:11:39+00:00	2020-11-17T07:59:59+00:00	-4	t9w8lrcjj6xmfb6@marketplace.amazon.com	Mary L. Norris	+1 929-436-4790 ext. 41846	ABM022	Delivery by Friday | Purple Extravagance Bouquet by Arabella Bouquets	1	0	1	Expedited	Sue Carmichael	9306 MONTPELIER DR			LAUREL	MD	20708-2554	US		Thinking of you in a very special way.  Love you lots. From Honey	false		
114-2938464-8235446	14351560959898	2020-11-12T16:47:19+00:00	2020-11-12T08:47:19-08:00	2020-11-12T17:13:57+00:00	2020-11-17T07:59:59+00:00	-4	v15wdn25zmxb62s@marketplace.amazon.com	Asim SIddiqui	+1 415-851-9136 ext. 34348	ABR001	Delivery by Friday | Arabella Bouquets 12 Stems of Fresh Cut Red Roses in a Free Designer Glass Vase	1	0	1	Expedited	SOHAIB KHALIL	4560 MARSHALL RUN CIR APT 102			GLEN ALLEN	VA	23059-5870	US			false		
112-6705227-5814658	36487841484410	2020-11-12T16:48:29+00:00	2020-11-12T08:48:29-08:00	2020-11-12T17:16:54+00:00	2020-11-17T07:59:59+00:00	-4	06j7rnxyjw9nnjs@marketplace.amazon.com	Daniel P. Friel	+1 619-854-2705 ext. 45398	ABM010	Delivery by Friday | The Spring Fling Bouquet by Arabella Bouquets with a Free Designer Glass Vase	1	0	1	Expedited	Jodi Perry	31 LAUREL HAVEN DR			STAFFORD	VA	22554-5263	US		Lots of hugs and prayers coming your way!   Feel better soon Jodi💕💕 From Cheri and Dan	false		
114-4097205-9301845	43663682199602	2020-11-12T16:55:33+00:00	2020-11-12T08:55:33-08:00	2020-11-12T17:24:06+00:00	2020-11-17T07:59:59+00:00	-4	tfspzctk3vtk8kl@marketplace.amazon.com	Lauren Godshall	+1 480-618-5344 ext. 43495	ABM022	Delivery by Friday | Purple Extravagance Bouquet by Arabella Bouquets	1	0	1	Expedited	Susanna Robinson	1797 CHANDLER RD			LAWRENCEVILLE	GA	30045-6519	US		Happy 13th Birthday!  You are officially a teenager! I am very proud of the young lady you have become and am so blessed to have you as a cousin and friend! From Lauren	false		
111-5238392-6562665	24342390841234	2020-11-12T17:10:23+00:00	2020-11-12T09:10:23-08:00	2020-11-12T17:35:18+00:00	2020-11-17T07:59:59+00:00	-4	74gtzfykcgstrqf@marketplace.amazon.com	Debbie Grossman	+1 619-854-2705 ext. 08866	ABM010	Delivery by Friday | The Spring Fling Bouquet by Arabella Bouquets with a Free Designer Glass Vase	1	0	1	Expedited	Carla Uskoski	12618 NE 254TH ST			BATTLE GROUND	WA	98604-9750	US		Thinking of you! Love ya Bunches!! From Debbie Grossman	false		
114-2071552-2607449	58045857232194	2020-11-12T18:03:43+00:00	2020-11-12T10:03:43-08:00	2020-11-12T18:25:40+00:00	2020-11-17T07:59:59+00:00	-4	mrhl7402h1xzchb@marketplace.amazon.com	Vivek	+1 619-854-2705 ext. 08551	ABM022	Delivery by Friday | Purple Extravagance Bouquet by Arabella Bouquets	1	0	1	Expedited	Vidhya Sri	11 CREEKSIDE CT			SECAUCUS	NJ	07094-3750	US			false		
111-4731503-7693053	66357176272426	2020-11-12T18:31:06+00:00	2020-11-12T10:31:06-08:00	2020-11-12T18:59:26+00:00	2020-11-17T07:59:59+00:00	-4	jqbbzb51tjg9j5r@marketplace.amazon.com	VALERIE DELUCA	+1 929-436-4790 ext. 75076	ABR001	Delivery by Saturday | Arabella Bouquets 12 Stems of Fresh Cut Red Roses in a Free Designer Glass Vase	1	0	1	Expedited	Natalie Graham	1008 PORTOLA DR			DUARTE	CA	91010-3753	US			false		
112-9020725-9984227	53752411004306	2020-11-12T18:36:00+00:00	2020-11-12T10:36:00-08:00	2020-11-12T19:06:37+00:00	2020-11-17T07:59:59+00:00	-4	508y04x08nxgkvx@marketplace.amazon.com	dan watters	+1 480-618-5344 ext. 41353	ABR0022	Delivery by Saturday | Arabella Farm Direct Bouquet of 12 Fresh Cut Pink Roses with a Free Glass Vase	1	0	1	Expedited	Danny watters	11027 E CRESTLINE CIR			ENGLEWOOD	CO	80111-3859	US			false		
111-0437996-9218637	47307686413514	2020-11-12T19:23:54+00:00	2020-11-12T11:23:54-08:00	2020-11-12T19:52:24+00:00	2020-11-17T07:59:59+00:00	-4	9mc76wm5z0sk9g2@marketplace.amazon.com	Maria Hernandez	+1 415-851-9136 ext. 76210	ABM010	Delivery by Saturday | The Spring Fling Bouquet by Arabella Bouquets with a Free Designer Glass Vase	1	0	1	Expedited	Silvia Rubio	16649 LEWIS CIR			DELHI	CA	95315-9658	US		Gracias por todo su apoyo y amor! LA QUIERO MUCHO TIA LINDA Y QUERIDA!! From Maria Hernandez	false		
114-4360388-3377031	60852845297154	2020-11-12T19:22:39+00:00	2020-11-12T11:22:39-08:00	2020-11-12T19:52:37+00:00	2020-11-17T07:59:59+00:00	-4	061lpdb5txpfg7m@marketplace.amazon.com	Jim Ruffcorn	+1 213-442-1463 ext. 11385	ABM022	Delivery by Saturday | Purple Extravagance Bouquet by Arabella Bouquets	1	0	1	Standard	Michelle Chancey	10035 WYECLIFF DR			HIGHLANDS RANCH	CO	80126-4517	US			false		
114-9090182-7089807	36424488213290	2020-11-12T19:27:34+00:00	2020-11-12T11:27:34-08:00	2020-11-12T19:53:53+00:00	2020-11-17T07:59:59+00:00	-4	qs8c6yvp340knpp@marketplace.amazon.com	Joyce M. Roldan	+1 619-854-2705 ext. 78110	ABR0022	Delivery by Saturday | Arabella Farm Direct Bouquet of 12 Fresh Cut Pink Roses with a Free Glass Vase	1	0	1	Standard	Kaci Ross	11117 PUTMAN RD			THURMONT	MD	21788-2748	US		We wish you a speedy recovery!! Take this time to rest and relax. We miss you and appreciate all your hard work always. From Your SAO Family	false		
114-0141031-9567410	21139873294778	2020-11-12T19:31:09+00:00	2020-11-12T11:31:09-08:00	2020-11-12T19:55:43+00:00	2020-11-17T07:59:59+00:00	-4	7k219q2xcxrchk7@marketplace.amazon.com	Pratik Kamath	+1 415-851-9136 ext. 79024	ABR0022	Delivery by Saturday | Arabella Farm Direct Bouquet of 12 Fresh Cut Pink Roses with a Free Glass Vase	1	0	1	Expedited	Bhoomi Shah	60 DESCANSO DR UNIT 1308			SAN JOSE	CA	95134-1818	US		To the most beautiful girl in this world,    This is the first time I am giving you flowers, and surely not the last time. Can't wait to marry you and start sharing our home together! Will always always love you bebu From Pratik Kamath	false		
111-2549315-7734669	00410218854370	2020-11-12T19:40:39+00:00	2020-11-12T11:40:39-08:00	2020-11-12T20:05:43+00:00	2020-11-17T07:59:59+00:00	-4	56n4dqdzx8ynsyb@marketplace.amazon.com	Angela Widener	+1 929-436-4790 ext. 80177	ABM022	Delivery by Saturday | Purple Extravagance Bouquet by Arabella Bouquets	1	0	1	Expedited	Olga and Wiley Dixon	111 COUNSELLOR CT			GOOSE CREEK	SC	29445-3014	US		Thank you for being such great neighbors! You have been a blessing to our family.  Love Kay And Angie From Angela Widener	false		
114-3805382-4259445	64784689704634	2020-11-12T19:53:07+00:00	2020-11-12T11:53:07-08:00	2020-11-12T20:22:40+00:00	2020-11-17T07:59:59+00:00	-4	bmck1t3jv5btv9x@marketplace.amazon.com	anthony haydock	+1 619-854-2705 ext. 91233	ABM010	Delivery by Saturday | The Spring Fling Bouquet by Arabella Bouquets with a Free Designer Glass Vase	1	0	1	Expedited	anthony haydock	4947  spokane street n e			lacey	WA	98516	US			false		
113-9729819-3573002	30206158115586	2020-11-12T20:06:11+00:00	2020-11-12T12:06:11-08:00	2020-11-12T20:28:58+00:00	2020-11-17T07:59:59+00:00	-4	45zlwcvc3vxt7m3@marketplace.amazon.com	Rick Renaud	+1 602-671-6610 ext. 28718	ABM022	Delivery by Saturday | Purple Extravagance Bouquet by Arabella Bouquets	1	0	1	Expedited	Carol Renaud	413 AVALON DR			COHASSET	MA	02025-1179	US		Happy Birthday Momma!!! From Rick, Beth, Lucy and Emma	false		
111-7103996-4617035	39286206594698	2020-11-12T20:02:13+00:00	2020-11-12T12:02:13-08:00	2020-11-12T20:29:14+00:00	2020-11-17T07:59:59+00:00	-4	0rf9thkwwvz9qy6@marketplace.amazon.com	Stephan Wallace	+1 619-854-2705 ext. 13555	ABR0022	Delivery by Saturday | Arabella Farm Direct Bouquet of 12 Fresh Cut Pink Roses with a Free Glass Vase	1	0	1	Expedited	Donna Bower	6029 FAIRGROVE ST			KALAMAZOO	MI	49009-1864	US		I do hope that these find you well. I know that I haven't been keeping in contact like I should. But I just want you to know that I have been keeping you in my thoughts. From Stephan Wallace	false		
111-7103996-4617035	55903037185466	2020-11-12T20:02:13+00:00	2020-11-12T12:02:13-08:00	2020-11-12T20:29:14+00:00	2020-11-17T07:59:59+00:00	-4	0rf9thkwwvz9qy6@marketplace.amazon.com	Stephan Wallace	+1 619-854-2705 ext. 13555	ABR0022	Delivery by Saturday | Arabella Farm Direct Bouquet of 12 Fresh Cut Pink Roses with a Free Glass Vase	1	0	1	Expedited	Donna Bower	6029 FAIRGROVE ST			KALAMAZOO	MI	49009-1864	US		These flowers are to commemorate Isabel. I know it's been hard on you. But you're still in my thoughts and hope you're doing well.  PS... the second set are for Mike and Rach. From Stephan Wallace	false		
113-9948211-6044234	43091175146762	2020-11-12T20:12:59+00:00	2020-11-12T12:12:59-08:00	2020-11-12T20:42:30+00:00	2020-11-17T07:59:59+00:00	-4	6w1n5569zfc69nx@marketplace.amazon.com	Wendy	+1 602-671-6610 ext. 42299	ABM010	Delivery by Saturday | The Spring Fling Bouquet by Arabella Bouquets with a Free Designer Glass Vase	1	0	1	Expedited	barbara chamblee	1819 E LAKE DR			WEATHERFORD	TX	76087-5906	US		Just wanted to brighten your day since I don’t get to see you often From Wendy	false		
112-7125464-5177039	53847614780170	2020-11-12T20:16:04+00:00	2020-11-12T12:16:04-08:00	2020-11-12T20:43:31+00:00	2020-11-17T07:59:59+00:00	-4	0l6fgx8wrbm5h4m@marketplace.amazon.com	Dan Marden	+1 619-854-2705 ext. 93746	ABM010	Delivery by Saturday | The Spring Fling Bouquet by Arabella Bouquets with a Free Designer Glass Vase	1	0	1	Expedited	Maddie Schofield	3745 W LYNDALE ST			CHICAGO	IL	60647-2332	US		Maddie and Sam,  Sending you lots and lots of love <3<3<3 From Love, Claire and Dan	false		
114-0971656-7235408	31370592176898	2020-11-12T20:22:33+00:00	2020-11-12T12:22:33-08:00	2020-11-12T20:50:06+00:00	2020-11-17T07:59:59+00:00	-4	hnsjxl6mv3gmjv3@marketplace.amazon.com	Natasha Strauss	+1 619-854-2705 ext. 34479	ABM010	Delivery by Saturday | The Spring Fling Bouquet by Arabella Bouquets with a Free Designer Glass Vase	1	0	1	Expedited	Val Wheeler	4284 SPRINGDALE PATH			THE VILLAGES	FL	32163-4329	US		Wishing you a very happy birthday! From Love, Natasha, Justin, the girls, Collette and Pat	false		
114-9363017-4788217	30285233172754	2020-11-12T20:39:03+00:00	2020-11-12T12:39:03-08:00	2020-11-12T21:06:04+00:00	2020-11-17T07:59:59+00:00	-4	z8qpzkgqgsn38hr@marketplace.amazon.com	Kathleen Sandin	+1 929-436-4790 ext. 44030	ABM010	Delivery by Saturday | The Spring Fling Bouquet by Arabella Bouquets with a Free Designer Glass Vase	1	0	1	Expedited	John and Robin Sandin	216 E 4TH ST			SILER CITY	NC	27344-3150	US		Know that you are loved and cherished! From Kathy, Tom and Zack	false		
114-1396092-1316244	62101291049042	2020-11-12T20:39:54+00:00	2020-11-12T12:39:54-08:00	2020-11-12T21:08:43+00:00	2020-11-17T07:59:59+00:00	-4	zxgrjk3m63zc70z@marketplace.amazon.com	Christine DuBois	+1 619-854-2705 ext. 98952	ABR0022	Delivery by Saturday | Arabella Farm Direct Bouquet of 12 Fresh Cut Pink Roses with a Free Glass Vase	1	0	1	Expedited	Catherine Real	501 PORTOLA RD APT 9M			PORTOLA VALLEY	CA	94028-7604	US		Loving you Aunt Catherine  Enjoy your gift! ✝️Is with You  Love Christine DuBois	false		
114-2293542-6864258	07503815863082	2020-11-12T20:45:25+00:00	2020-11-12T12:45:25-08:00	2020-11-12T21:14:12+00:00	2020-11-17T07:59:59+00:00	-4	0t3v9m1sm0sfpm1@marketplace.amazon.com	Kathleen Bauer	+1 619-854-2705 ext. 76667	ABM022	Delivery by Saturday | Purple Extravagance Bouquet by Arabella Bouquets	1	0	1	Expedited	Christie & Marc Donaldson	3006 65TH AVE NW			GIG HARBOR	WA	98335-8450	US		You and your family are in our thoughts and prayers. With Deepest Sympathy From Don & Kathy Bauer	false		
111-2623297-9559437	05877836495498	2020-11-12T21:03:25+00:00	2020-11-12T13:03:25-08:00	2020-11-12T21:32:46+00:00	2020-11-17T07:59:59+00:00	-4	z48b44y4vf972pq@marketplace.amazon.com	Dan Grisham	+1 602-671-6610 ext. 15013	ABM022	Delivery by Saturday | Purple Extravagance Bouquet by Arabella Bouquets	1	0	1	Expedited	Dan Grisham	1810 Cortland ct			Grand Junction	Colorado	81506	US		Hi, Just because I love you.	false		
114-3634245-6157053	53717849210994	2020-11-12T21:11:34+00:00	2020-11-12T13:11:34-08:00	2020-11-12T21:40:58+00:00	2020-11-17T07:59:59+00:00	-4	pgz7qk3l7qr572r@marketplace.amazon.com	Juan Powe	+1 929-436-4790 ext. 34929	ABR0022	Delivery by Saturday | Arabella Farm Direct Bouquet of 12 Fresh Cut Pink Roses with a Free Glass Vase	1	0	1	Expedited	Juan Powe	404 HANCOCK CT APT 204			NORTHAMPTON	PA	18067-8221	US			false		
112-1172175-3495443	34925557091242	2020-11-12T21:34:06+00:00	2020-11-12T13:34:06-08:00	2020-11-12T21:55:16+00:00	2020-11-17T07:59:59+00:00	-4	4tlmry8qdrwtbfj@marketplace.amazon.com	Darlene Daniels	+1 619-854-2705 ext. 51463	ABR001	Delivery by Saturday | Arabella Bouquets 12 Stems of Fresh Cut Red Roses in a Free Designer Glass Vase	1	0	1	Expedited	Pat Porter	118 OVERLOOK DR			PICKENS	SC	29671-9720	US		Dear Pat, Hope you are feeling better. Love, Scott and Darlene From Darlene Daniels	false		
111-3750780-3435442	33341974125850	2020-11-12T21:28:36+00:00	2020-11-12T13:28:36-08:00	2020-11-12T21:55:28+00:00	2020-11-17T07:59:59+00:00	-4	pqljn55m68dy47m@marketplace.amazon.com	Armenag Dekmezian	+9087099495	ABR0022	Delivery by Saturday | Arabella Farm Direct Bouquet of 12 Fresh Cut Pink Roses with a Free Glass Vase	1	0	1	Expedited	May Kortbaoui	1591 SPRINGFIELD AVE			CRANFORD	NJ	07016-1533	US			false		
113-1546462-2527407	37740049836370	2020-11-12T21:30:56+00:00	2020-11-12T13:30:56-08:00	2020-11-12T21:59:36+00:00	2020-11-17T07:59:59+00:00	-4	mhfphjgfztd9qss@marketplace.amazon.com	Sebastian W	+1 213-442-1463 ext. 24101	ABR0022	Delivery by Saturday | Arabella Farm Direct Bouquet of 12 Fresh Cut Pink Roses with a Free Glass Vase	1	0	1	Expedited	Darlene Kowal	123 WILLIAM PENN AVE			PENNSVILLE	NJ	08070-1852	US		Happy Birthday! From Chris and Frank	false		
114-0405981-1608222	58949572090386	2020-11-12T21:35:13+00:00	2020-11-12T13:35:13-08:00	2020-11-12T22:02:51+00:00	2020-11-17T07:59:59+00:00	-4	zg0594q646qrmy4@marketplace.amazon.com	Georgi Matev	0	ABM022	Delivery by Saturday | Purple Extravagance Bouquet by Arabella Bouquets	1	0	1	Expedited	Georgi Matev	216 BEACH RD			WASHINGTON	MA	01223-9680	US		Happy birthday my love. Hope those flowers are like our love life - wild and smelly (hope you got the reference haha) I love you!! From Georgi Matev	false		
114-3036067-2491447	59837690165714	2020-11-12T21:41:21+00:00	2020-11-12T13:41:21-08:00	2020-11-12T22:03:19+00:00	2020-11-17T07:59:59+00:00	-4	z1bjvmbn1cjp12g@marketplace.amazon.com	Tucker Connelly	+1 929-436-4790 ext. 92566	ABM022	Delivery by Saturday | Purple Extravagance Bouquet by Arabella Bouquets	1	0	1	Standard	Sheena Connelly	19225 DAMSON RD UNIT G-1			LYNNWOOD	WA	98036-4956	US		Happy Birthday beautiful sister!! We love you so much, hope you have the most lovely birthday!  With love from Tucker & Alexandra Connelly From Tucker & Alexandra Connelly	false		
112-9409557-4332214	04027190039418	2020-11-12T21:47:49+00:00	2020-11-12T13:47:49-08:00	2020-11-12T22:07:11+00:00	2020-11-17T07:59:59+00:00	-4	8dl7w5zl3k370dm@marketplace.amazon.com	sherry agle	+1 213-442-1463 ext. 04001	ABR0055	Delivery by Saturday | Arabella Farm Direct Bouquet of 12 Stems of Fresh Cut Hot Pink Roses in a Free Designer Glass Vase	1	0	1	Expedited	JoAnne Spohn	202 HARRISON CIR			LOCUST GROVE	VA	22508-5316	US		Get better soon.  Love you.  With Love, Grace and family From Grace	false		
113-4847933-2313062	07620808346914	2020-11-12T21:45:50+00:00	2020-11-12T13:45:50-08:00	2020-11-12T22:09:13+00:00	2020-11-17T07:59:59+00:00	-4	2tf5zdlctm8sncl@marketplace.amazon.com	stephen mangusso	+1 619-854-2705 ext. 81601	ABM022	Delivery by Saturday | Purple Extravagance Bouquet by Arabella Bouquets	1	0	1	Expedited	Rose Orla	BELAIR CARE CENTER	2478 JERUSALEM AVE -		BELLMORE	NY	11710-1827	US		We hope you are feeling better real soon. From Diana & Donna Misuraca & Joanne Kowalchuk	false		
114-0254497-5766638	58284475210074	2020-11-12T21:43:30+00:00	2020-11-12T13:43:30-08:00	2020-11-12T22:09:40+00:00	2020-11-17T07:59:59+00:00	-4	ml7cnsx9gc7b5nq@marketplace.amazon.com	Grace Blatterfein	+1 213-442-1463 ext. 55100	ABM010	Delivery by Saturday | The Spring Fling Bouquet by Arabella Bouquets with a Free Designer Glass Vase	1	0	1	Expedited	Barbara Marrero	18007 SAILFISH DR APT D			LUTZ	FL	33558-7760	US		Happy 60th Birthday Barbara!! Love, Larry, Grace, and Family	false		
113-0645383-0285060	14471665053842	2020-11-12T21:40:05+00:00	2020-11-12T13:40:05-08:00	2020-11-12T22:10:36+00:00	2020-11-17T07:59:59+00:00	-4	yhjpcstp4njl3mm@marketplace.amazon.com	Sherry	+1 619-854-2705 ext. 60790	ABM020	Delivery by Saturday | The Sunset Bouquet by Arabella Bouquets	1	0	1	Expedited	Sherry Kasperson	6128 PALOMA RD			VALLEY SPRINGS	CA	95252-9605	US			false		
114-6286208-8637037	25017553532482	2020-11-12T21:51:29+00:00	2020-11-12T13:51:29-08:00	2020-11-12T22:19:44+00:00	2020-11-17T07:59:59+00:00	-4	ml7cnsx9gc7b5nq@marketplace.amazon.com	Grace Blatterfein	+1 929-436-4790 ext. 35560	ABM020	Delivery by Saturday | The Sunset Bouquet by Arabella Bouquets	1	0	1	Expedited	JoAnn Medina	6801 SUMMER COVE DR			RIVERVIEW	FL	33578-8953	US		Happy 60th Birthday JoAnn!! Love, Larry, Grace, and Family	false		
111-2965465-1477858	15934163005098	2020-11-12T22:09:10+00:00	2020-11-12T14:09:10-08:00	2020-11-12T22:37:14+00:00	2020-11-17T07:59:59+00:00	-4	wjfpm6x0hfgwscd@marketplace.amazon.com	Sonia Joyce	+1 602-671-6610 ext. 36515	ABR0022	Delivery by Saturday | Arabella Farm Direct Bouquet of 12 Fresh Cut Pink Roses with a Free Glass Vase	1	0	1	Expedited	Chloe Evans	2743 PINEBLOOM WAY			DULUTH	GA	30097-4094	US		A little something to say thank you for throwing me the most beautiful baby shower! You're the best sister ever! I'm so grateful for your amazing love and support! LOVE YOU! From Hollie McPharlin	false		
114-3380068-2731451	52585571799770	2020-11-12T22:51:16+00:00	2020-11-12T14:51:16-08:00	2020-11-12T23:20:09+00:00	2020-11-17T07:59:59+00:00	-4	k0qsjb3ttf6hxhx@marketplace.amazon.com	Spring wells	+1 929-436-4790 ext. 28370	ABM022	Delivery by Saturday | Purple Extravagance Bouquet by Arabella Bouquets	1	0	1	Expedited	Gail Rodriguez	10012 law schooling rd			Charlotte	Nc	28214	US		Hi Gail, Enjoy your gift! Mom happy birthday  From Spring wells	false		
114-9733489-4886650	55048395292706	2020-11-12T23:19:16+00:00	2020-11-12T15:19:16-08:00	2020-11-12T23:48:46+00:00	2020-11-17T07:59:59+00:00	-4	b81vnt85rf9qft7@marketplace.amazon.com	Carl J Spendiff	+1 619-854-2705 ext. 79131	ABM022	Delivery by Saturday | Purple Extravagance Bouquet by Arabella Bouquets	1	0	1	Expedited	Richard and Wendy Spendiff	47-340 Jefferson Street	#11		Indio	CA	92201	US		Hi Mum, hope you have a great birthday.  Love, Carl From Carl	false		
113-0909353-6176255	48202328526178	2020-11-12T23:25:55+00:00	2020-11-12T15:25:55-08:00	2020-11-12T23:50:02+00:00	2020-11-17T07:59:59+00:00	-4	jrnhfsntvy5cjqm@marketplace.amazon.com	Kevin Corcoran	+1 480-618-5344 ext. 84809	ABM022	Delivery by Saturday | Purple Extravagance Bouquet by Arabella Bouquets	1	0	1	Expedited	Samantha Ciaston	28 JOSHUAS LN			THORNTON	NH	03285-6328	US		Happy Birthday! Hope all is well. Love, Theodore, Courtney, Peter, Finn & Declan From Kevin Corcoran	false		
112-7233144-2802618	28661807143754	2020-11-12T23:34:30+00:00	2020-11-12T15:34:30-08:00	2020-11-13T00:03:47+00:00	2020-11-17T07:59:59+00:00	-4	bvd21yml2dpw5f9@marketplace.amazon.com	Toula Balestracci	+1 929-436-4790 ext. 92321	ABM022	Delivery by Saturday | Purple Extravagance Bouquet by Arabella Bouquets	1	0	1	Expedited	Toula Balestracci	26 cedar dr			NORTH STONINGTON	CT	06359	US		Thank you for your many years of service to the town. Enjoy all of your free time! From NSDTC	false		
113-0283793-5410646	38528506124946	2020-11-13T00:04:09+00:00	2020-11-12T16:04:09-08:00	2020-11-13T00:05:00+00:00	2020-11-17T07:59:59+00:00	-4	dk19nmd33mqff7x@marketplace.amazon.com	Lorraine Starr	+1 213-442-1463 ext. 67421	ABR0022	Delivery by Saturday | Arabella Farm Direct Bouquet of 12 Fresh Cut Pink Roses with a Free Glass Vase	1	0	1	Expedited	Matthew Simoneau	18 Overhill Drive			Trumbull	CT	06611	US		Thanks for such an amazing conversation! I really appreciated you opening up to me. Looking forward to seeing you again soon! From Noelle Star	false		
111-2855654-7989827	62006711800842	2020-11-12T23:40:39+00:00	2020-11-12T15:40:39-08:00	2020-11-13T00:10:10+00:00	2020-11-17T07:59:59+00:00	-4	9gzv96sjvsx28tn@marketplace.amazon.com	Jim	1+813-789-7055	ABR0066	Delivery by Monday | Arabella Bouquets 12 Stems of Fresh Cut White Roses in a Free Designer Glass Vase	1	0	1	Expedited	Marian Winters	719 SEDDON COVE WAY			TAMPA	FL	33602-5702	US			false		
113-3143874-3272225	64034308246610	2020-11-13T00:00:30+00:00	2020-11-12T16:00:30-08:00	2020-11-13T00:23:23+00:00	2020-11-17T07:59:59+00:00	-4	0pwrcjf7pdsjkpr@marketplace.amazon.com	Patricia Kathryn Beachy	+1 619-854-2705 ext. 12628	ABM010	Delivery by Saturday | The Spring Fling Bouquet by Arabella Bouquets with a Free Designer Glass Vase	1	0	1	Expedited	Mary Alice Beachy	1101 NEAL PICKETT DR			COLLEGE STATION	TX	77840-2610	US			false		
113-4056859-8021817	37198664676362	2020-11-12T23:56:50+00:00	2020-11-12T15:56:50-08:00	2020-11-13T00:25:37+00:00	2020-11-17T07:59:59+00:00	-4	51bf02pbmtt0wgf@marketplace.amazon.com	Donna Thaidigsman	+1 415-851-9136 ext. 31263	ABR0022	Delivery by Saturday | Arabella Farm Direct Bouquet of 12 Fresh Cut Pink Roses with a Free Glass Vase	1	0	1	Expedited	Paulie Thaidigsman	EMERALD HEIGHTS	10901 176TH CIR NE		REDMOND	WA	98052-7218	US		We love you! Get better soon.  Mark, Donna & Joey Thaidigsman From San Diego Thaidigsmans	false		
113-5877528-7542662	19281224996434	2020-11-13T00:21:25+00:00	2020-11-12T16:21:25-08:00	2020-11-13T00:35:28+00:00	2020-11-17T07:59:59+00:00	-4	rhwdz5qjlmfydn1@marketplace.amazon.com	Natalie Anderson	+1 929-436-4790 ext. 92488	ABM022	Delivery by Saturday | Purple Extravagance Bouquet by Arabella Bouquets	1	0	1	Expedited	Laurie Halperin	220 BAY ST APT 102			SANTA MONICA	CA	90405-1039	US			false		
114-4746917-1527427	51308780827986	2020-11-13T00:24:11+00:00	2020-11-12T16:24:11-08:00	2020-11-13T00:49:42+00:00	2020-11-17T07:59:59+00:00	-4	tpmqw39tt1yx2zn@marketplace.amazon.com	dawn	+1 602-671-6610 ext. 10933	ABR0066	Delivery by Monday | Arabella Bouquets 12 Stems of Fresh Cut White Roses in a Free Designer Glass Vase	1	0	1	Expedited	Mary Brown	1564 40TH ST			WEST PALM BEACH	FL	33407-3638	US		Dear Mary and Family,  Please accept our sincere condolences on the loss of your brother Ben. We are praying for peace and comfort. From Dawn, Randall and Richard, Jr.	false		
113-8698400-8866615	05920417840346	2020-11-13T00:31:05+00:00	2020-11-12T16:31:05-08:00	2020-11-13T01:00:32+00:00	2020-11-17T07:59:59+00:00	-4	hq9rc0pgpym8lmr@marketplace.amazon.com	mlp	+1 619-854-2705 ext. 74115	ABM010	Delivery by Saturday | The Spring Fling Bouquet by Arabella Bouquets with a Free Designer Glass Vase	1	0	1	Expedited	Sarah Posen	2180 BREWSTER DR UNIT 1023			MYRTLE BEACH	SC	29577-1778	US		Hope you are feeling better. Miss you! Love, Mom & Dad	false		
113-6536825-8103468	63201653328506	2020-11-13T01:04:15+00:00	2020-11-12T17:04:15-08:00	2020-11-13T01:20:23+00:00	2020-11-17T07:59:59+00:00	-4	w8wzyxw2y2ng6nx@marketplace.amazon.com	Lori Wenrich	+1 619-854-2705 ext. 13052	ABR0022	Delivery by Saturday | Arabella Farm Direct Bouquet of 12 Fresh Cut Pink Roses with a Free Glass Vase	1	0	1	Expedited	Stacy Herb	728 ICE HOUSE DR			MOUNTAIN TOP	PA	18707-9618	US		Enjoy your     Happy Birthday, Stacy! From Lori Wenrich	false		
112-0511235-4724241	32135026933914	2020-11-13T00:57:59+00:00	2020-11-12T16:57:59-08:00	2020-11-13T01:26:27+00:00	2020-11-17T07:59:59+00:00	-4	mbn8scl2bb1mk8h@marketplace.amazon.com	Jorge Hernández	+1 929-436-4790 ext. 88408	ABR001	Delivery by Saturday | Arabella Bouquets 12 Stems of Fresh Cut Red Roses in a Free Designer Glass Vase	1	0	1	Expedited	Alice Williams	45072 BISMARK RD			CALLAHAN	FL	32011-5038	US		This roses can tell how much you mean to me Alice, I love you!!! From Jorge Hernández	false		
113-1619411-4174643	28485511685930	2020-11-13T00:59:23+00:00	2020-11-12T16:59:23-08:00	2020-11-13T01:29:40+00:00	2020-11-17T07:59:59+00:00	-4	k5yk8gflv5grk67@marketplace.amazon.com	Michael Linton	+1 480-618-5344 ext. 21326	ABM022	Delivery by Saturday | Purple Extravagance Bouquet by Arabella Bouquets	1	0	1	Expedited	Mary Kate McKenna	325 E Laurel St.			For Bragg	CA	95437	US			false		
112-2107800-3982643	45380467037730	2020-11-13T01:05:26+00:00	2020-11-12T17:05:26-08:00	2020-11-13T01:35:46+00:00	2020-11-17T07:59:59+00:00	-4	5shzjwlkp7r9hmt@marketplace.amazon.com	Karen Dronzek	+1 619-854-2705 ext. 61364	ABR0055	Delivery by Saturday | Arabella Farm Direct Bouquet of 12 Stems of Fresh Cut Hot Pink Roses in a Free Designer Glass Vase	1	0	1	Expedited	Joan Dronzek	370 NE EDGEWATER DR APT 303			STUART	FL	34996-1642	US			false		
112-2160387-9469820	32156825911986	2020-11-13T01:13:30+00:00	2020-11-12T17:13:30-08:00	2020-11-13T01:38:46+00:00	2020-11-17T07:59:59+00:00	-4	911fcqll1q82lz3@marketplace.amazon.com	Robbynne Langford	+1 602-671-6610 ext. 91031	ABM022	Delivery by Saturday | Purple Extravagance Bouquet by Arabella Bouquets	1	0	1	Expedited	Parkside Nursing Home C/O Beverly Ullery	908 SYMMES RD			FAIRFIELD	OH	45014-1842	US			false		
113-3474746-2493821	51349538248466	2020-11-13T01:30:59+00:00	2020-11-12T17:30:59-08:00	2020-11-13T01:58:15+00:00	2020-11-17T07:59:59+00:00	-4	3y8rw34m7zjs3pq@marketplace.amazon.com	Karen Acker	+1 213-442-1463 ext. 13664	ABR0022	Delivery by Saturday | Arabella Farm Direct Bouquet of 12 Fresh Cut Pink Roses with a Free Glass Vase	1	0	1	Expedited	Amber Litchfield	2008 PALM DR			CHESTER	MD	21619-2359	US		Congratulations on your new home. From Karen Acker	false		
112-1042960-9165055	13824865892426	2020-11-13T02:05:21+00:00	2020-11-12T18:05:21-08:00	2020-11-13T02:33:05+00:00	2020-11-17T07:59:59+00:00	-4	t5xplffb45t5xwh@marketplace.amazon.com	Jane Patterson	+1 929-436-4790 ext. 79980	ABM020	Delivery by Saturday | The Sunset Bouquet by Arabella Bouquets	1	0	1	Expedited	Joan Patterson	5055 CENTER WAY			EUGENE	OR	97405-4662	US		Happy 91st birthday Mom!  I hope your day is just as special as you!  Much love, Jane From Jane Patterson	false		
111-3256540-1244239	66158780507602	2020-11-13T02:06:00+00:00	2020-11-12T18:06:00-08:00	2020-11-13T02:34:22+00:00	2020-11-17T07:59:59+00:00	-4	5ykx14vf6h9g2cc@marketplace.amazon.com	jamie gallo	+1 480-618-5344 ext. 24698	ABR0033	Delivery by Saturday | Arabella Farm Direct Bouquet of 12 Fresh Cut Orange Roses with a Free Glass Vase	1	0	1	Expedited	Nancy V Gallo	3 Fredonia Ct			Fredon	NJ	07860	US		Enjoy your gift! Happy Birthday!  We love you!  Jamie and gang From jamie gallo	false		
113-9058855-3469063	10675983925114	2020-11-13T02:10:12+00:00	2020-11-12T18:10:12-08:00	2020-11-13T02:38:00+00:00	2020-11-17T07:59:59+00:00	-4	3pr0qxmjpbdbzqn@marketplace.amazon.com	Lisa C Dezelan	+1 619-854-2705 ext. 02755	ABM010	Delivery by Saturday | The Spring Fling Bouquet by Arabella Bouquets with a Free Designer Glass Vase	1	0	1	Expedited	K. Karen Patrickus	1569 RIVER PINES DR			GREEN BAY	WI	54311-5647	US		We love and miss you K! Love, Lisa, Jeff, Charli, Aiden and Noah From Lisa C Dezelan	false		
114-7477389-4543431	69968805910786	2020-11-13T02:13:03+00:00	2020-11-12T18:13:03-08:00	2020-11-13T02:43:05+00:00	2020-11-17T07:59:59+00:00	-4	xyv3z3wcyw5zv5z@marketplace.amazon.com	victoria ray	+1 929-436-4790 ext. 44782	ABR0055	Delivery by Saturday | Arabella Farm Direct Bouquet of 12 Stems of Fresh Cut Hot Pink Roses in a Free Designer Glass Vase	1	0	1	Expedited	Victoria Ray	9463 cr 495			marquez	TX	77865	US			false		
112-6845027-6253819	40731680536186	2020-11-13T02:15:18+00:00	2020-11-12T18:15:18-08:00	2020-11-13T02:44:11+00:00	2020-11-17T07:59:59+00:00	-4	3k1mydw4x8pnh93@marketplace.amazon.com	Lauri Ostlund	+1 929-436-4790 ext. 01158	ABR0033	Delivery by Saturday | Arabella Farm Direct Bouquet of 12 Fresh Cut Orange Roses with a Free Glass Vase	1	0	1	Expedited	Jared and Nicole Larson	11912 67TH AVE E			PUYALLUP	WA	98373-4510	US			false		
114-2110173-6716269	55884450910122	2020-11-13T02:29:34+00:00	2020-11-12T18:29:34-08:00	2020-11-13T02:49:36+00:00	2020-11-17T07:59:59+00:00	-4	xhwpx93ymt159ym@marketplace.amazon.com	linda petrill	+1 213-442-1463 ext. 64058	ABR0022	Delivery by Saturday | Arabella Farm Direct Bouquet of 12 Fresh Cut Pink Roses with a Free Glass Vase	1	0	1	Expedited	Mrs Beth Seitz	1615 BOYNTON AVE			WESTFIELD	NJ	07090-1746	US		Happy 60th Birthday Beth!    Wishing you all the best on your special day and always. xoxox From With lots of Love, Lin & Kirk	false		
113-6267432-9049844	06093212050034	2020-11-13T01:29:30+00:00	2020-11-12T17:29:30-08:00	2020-11-13T02:51:02+00:00	2020-11-17T07:59:59+00:00	-4	hf5ng80w22zlkv1@marketplace.amazon.com	R B & Deana Scott	+1 213-442-1463 ext. 49036	ABM022	Delivery by Saturday | Purple Extravagance Bouquet by Arabella Bouquets	1	0	1	Expedited	Lynette O' Connell	1094 WILLJAY LN			LAS VEGAS	NV	89123-5951	US		Congratulations Lynette & Angela! We are thinking about you on your special celebration. Hugs, the Raving Team. From R B & Deana Scott	false		
111-5203399-2293854	14428925345090	2020-11-13T02:29:42+00:00	2020-11-12T18:29:42-08:00	2020-11-13T02:54:21+00:00	2020-11-17T07:59:59+00:00	-4	65drl6wy33c3jgs@marketplace.amazon.com	mark netti	+1 619-854-2705 ext. 10727	ABR0022	Delivery by Saturday | Arabella Farm Direct Bouquet of 12 Fresh Cut Pink Roses with a Free Glass Vase	1	0	1	Expedited	Karen Nickels	5840 KARNES RANCH AVE			LAS VEGAS	NV	89131-1804	US			false		
112-8421070-6170619	45443601146178	2020-11-13T02:37:19+00:00	2020-11-12T18:37:19-08:00	2020-11-13T03:05:29+00:00	2020-11-17T07:59:59+00:00	-4	79xckgk4z96p1kh@marketplace.amazon.com	candice	+1 602-671-6610 ext. 59021	ABR0022	Delivery by Saturday | Arabella Farm Direct Bouquet of 12 Fresh Cut Pink Roses with a Free Glass Vase	1	0	1	Expedited	Darlene Hipp	301 STALLINGS DR			MCDONOUGH	GA	30252-8914	US		Happy Birthday Mom!!!! From candice	false		
113-1277596-4565802	15261261687090	2020-11-13T02:40:50+00:00	2020-11-12T18:40:50-08:00	2020-11-13T03:07:40+00:00	2020-11-17T07:59:59+00:00	-4	6zgmyhmtzrt0yhc@marketplace.amazon.com	Gareth Hood	+1 929-436-4790 ext. 30546	ABR0033	Delivery by Saturday | Arabella Farm Direct Bouquet of 12 Fresh Cut Orange Roses with a Free Glass Vase	1	0	1	Expedited	Mrs. Seiko Kitagawa	10 BIRCH LN			MALDEN	MA	02148-1931	US		Wishing you a very happy birthday and best of luck with the cut ; ) From Chiharu Hood	false		
114-1828031-6877849	28118086357650	2020-11-13T02:38:59+00:00	2020-11-12T18:38:59-08:00	2020-11-13T03:18:51+00:00	2020-11-17T07:59:59+00:00	-4	qqhw6z2qcbhg79k@marketplace.amazon.com	Valerie McCampbell	+1 602-671-6610 ext. 39598	ABR0055	Delivery by Saturday | Arabella Farm Direct Bouquet of 12 Stems of Fresh Cut Hot Pink Roses in a Free Designer Glass Vase	1	0	1	Expedited	Pam Podorozny	4745 COSTA DR			ZEPHYRHILLS	FL	33541-2253	US		We love you!!! From Val & Craig	false		
111-7346789-9613052	17537271918706	2020-11-13T03:03:37+00:00	2020-11-12T19:03:37-08:00	2020-11-13T03:32:54+00:00	2020-11-17T07:59:59+00:00	-4	4qb7492rj0g8hgt@marketplace.amazon.com	Julie Rossi	+1 929-436-4790 ext. 36985	ABR0022	Delivery by Saturday | Arabella Farm Direct Bouquet of 12 Fresh Cut Pink Roses with a Free Glass Vase	1	0	1	Expedited	Anita Sangervasi	9786 MOUNT HOOD WAY			KELSEYVILLE	CA	95451-9530	US			false		
112-4382891-0677030	07396815221594	2020-11-13T03:05:11+00:00	2020-11-12T19:05:11-08:00	2020-11-13T03:35:41+00:00	2020-11-17T07:59:59+00:00	-4	xjtwx8pffl7qnlb@marketplace.amazon.com	Denise Hedges	+1 213-442-1463 ext. 21095	ABM022	Delivery by Saturday | Purple Extravagance Bouquet by Arabella Bouquets	1	0	1	Expedited	Tracie & Ken Amrhein	304 BARNSLEY DR			EVANS	GA	30809-8235	US			false		
114-8152235-8789817	29538498583330	2020-11-13T03:16:32+00:00	2020-11-12T19:16:32-08:00	2020-11-13T03:46:09+00:00	2020-11-17T07:59:59+00:00	-4	g73x92s7q4d0rwr@marketplace.amazon.com	Trever Bivona	+1 213-442-1463 ext. 19114	ABM022	Delivery by Saturday | Purple Extravagance Bouquet by Arabella Bouquets	1	0	1	Expedited	Tiffany Leal	9633 RIDGECREST CT			DAVIE	FL	33328-6924	US		Tiff, Happy Birthday!   Love, Trever (and Mr. B) From Trever Bivona	false		
112-3380880-3757843	26893810026202	2020-11-13T03:17:10+00:00	2020-11-12T19:17:10-08:00	2020-11-13T03:46:24+00:00	2020-11-17T07:59:59+00:00	-4	2rl04sf1145mq8k@marketplace.amazon.com	Craig T. Gill	+1 929-436-4790 ext. 39795	ABM022	Delivery by Saturday | Purple Extravagance Bouquet by Arabella Bouquets	1	0	1	Expedited	Errin Gill	3510 LAKE CENTER DR APT 24-202			MOUNT DORA	FL	32757-6531	US		Happy Birthday! From Love, Craig and Jen	false		
114-4830929-7501816	23320456108986	2020-11-13T03:18:17+00:00	2020-11-12T19:18:17-08:00	2020-11-13T03:47:04+00:00	2020-11-17T07:59:59+00:00	-4	lrxzl01d53h06hv@marketplace.amazon.com	Carly A Moore	+1 602-671-6610 ext. 02701	ABM022	Delivery by Saturday | Purple Extravagance Bouquet by Arabella Bouquets	1	0	1	Expedited	Rosanna Payne	13465 ADEN RD			NOKESVILLE	VA	20181-2819	US		Thinking of you and wishing I could be there to hug you.  Love you! From Carly A Moore	false		
112-8278504-3083437	43786726421186	2020-11-13T04:01:55+00:00	2020-11-12T20:01:55-08:00	2020-11-13T04:30:56+00:00	2020-11-17T07:59:59+00:00	-4	swl761qttjp83tv@marketplace.amazon.com	Lynn Rhoades	+1 480-618-5344 ext. 18629	ABR0022	Delivery by Saturday | Arabella Farm Direct Bouquet of 12 Fresh Cut Pink Roses with a Free Glass Vase	1	0	1	Expedited	Cassie  Bordelon	4973 97TH WAY N			SAINT PETERSBURG	FL	33708-3746	US		Happy Birthday From Mom	false		
113-0283663-8949035	24888379716834	2020-11-13T04:04:17+00:00	2020-11-12T20:04:17-08:00	2020-11-13T04:36:26+00:00	2020-11-17T07:59:59+00:00	-4	vdsqcscvkdmh4m2@marketplace.amazon.com	TONY BREWER	+1 213-442-1463 ext. 91417	ABR0022	Delivery by Saturday | Arabella Farm Direct Bouquet of 12 Fresh Cut Pink Roses with a Free Glass Vase	1	0	1	Expedited	Anatole Brewer	5930 W 126TH PL			ALSIP	ILLINOIS	60803-3520	US			false		
111-8259072-9591440	48544683202738	2020-11-13T04:11:17+00:00	2020-11-12T20:11:17-08:00	2020-11-13T04:39:59+00:00	2020-11-17T07:59:59+00:00	-4	xsyyhtscjcm7sq0@marketplace.amazon.com	Rob Chomko	+1 929-436-4790 ext. 50477	ABR0022	Delivery by Saturday | Arabella Farm Direct Bouquet of 12 Fresh Cut Pink Roses with a Free Glass Vase	1	0	1	Expedited	Alix Aranza	5200 N OCEAN BLVD APT 215			LAUDERDALE BY THE SEA	FL	33308-3021	US		Good luck with surgery From Please get well soon	false		
112-0222190-4290617	58765450574042	2020-11-13T04:24:00+00:00	2020-11-12T20:24:00-08:00	2020-11-13T04:54:34+00:00	2020-11-17T07:59:59+00:00	-4	hjm10rg49hjdhcf@marketplace.amazon.com	George J Mavrookas	+1 480-618-5344 ext. 52949	ABR0033	Delivery by Saturday | Arabella Farm Direct Bouquet of 12 Fresh Cut Orange Roses with a Free Glass Vase	1	0	1	Expedited	Matina Mavrookas	19 HOLLAND LN			COLTS NECK	NJ	07722-1632	US			false		
111-5520336-2351448	18413401023866	2020-11-13T04:40:24+00:00	2020-11-12T20:40:24-08:00	2020-11-13T05:06:29+00:00	2020-11-17T07:59:59+00:00	-4	j7yrm10dmgrdq70@marketplace.amazon.com	Francisco Chavarria	+1 415-851-9136 ext. 41562	ABR0055	Delivery by Saturday | Arabella Farm Direct Bouquet of 12 Stems of Fresh Cut Hot Pink Roses in a Free Designer Glass Vase	1	0	1	Expedited	Tia Lupe	2396 OLIVE AVE			ATWATER	CA	95301-3472	US		Feliz cumpleanos! La queremos mucho!! From Alex, Jessica y Panchito	false		
112-5065916-0303441	09615930045754	2020-11-13T04:37:37+00:00	2020-11-12T20:37:37-08:00	2020-11-13T05:07:15+00:00	2020-11-17T07:59:59+00:00	-4	4xysp5h3r5wgzz5@marketplace.amazon.com	Gary Hibner	+1 213-442-1463 ext. 39406	ABM022	Delivery by Saturday | Purple Extravagance Bouquet by Arabella Bouquets	1	0	1	Expedited	Gary Hibner	12979 MORENO BEACH DR APT 12205			MORENO VALLEY	CA	92555-4433	US		I love you.   You’re amazing From Gary Hibner	false		
112-6762183-8637045	00929354176234	2020-11-13T04:50:40+00:00	2020-11-12T20:50:40-08:00	2020-11-13T05:08:02+00:00	2020-11-17T07:59:59+00:00	-4	tf9zcg49cjm54lr@marketplace.amazon.com	cheryl gabriel	+1 415-851-9136 ext. 93008	ABR0022	Delivery by Saturday | Arabella Farm Direct Bouquet of 12 Fresh Cut Pink Roses with a Free Glass Vase	1	0	1	Expedited	Juliet Chookhachian	20 HIGHRIDGE RD			W HARRISON	NY	10604-2009	US		Dear Juliet, Our deepest sympathy for the loss of your loving brother. May your memories console you. Sending warm hugs and kisses. From Love, Cheryl, George, Aubrey and Ainya	false		
113-2451154-1969861	02712803823970	2020-11-13T05:11:44+00:00	2020-11-12T21:11:44-08:00	2020-11-13T05:41:18+00:00	2020-11-17T07:59:59+00:00	-4	68m7vyk03frpzk5@marketplace.amazon.com	Danielle Gregoire	+1 480-618-5344 ext. 29893	ABM022	Delivery by Saturday | Purple Extravagance Bouquet by Arabella Bouquets	1	0	1	Expedited	Lee-Ann Cammett	50 DOGTOWN RD			EXETER	NH	03833-4518	US		To brighten up your day! From Danielle Gregoire	false		
111-0988730-7443412	24754538446674	2020-11-13T05:55:53+00:00	2020-11-12T21:55:53-08:00	2020-11-13T06:23:43+00:00	2020-11-17T07:59:59+00:00	-4	tw0wmvym2rt3065@marketplace.amazon.com	Judy G. Hedges	+1 602-671-6610 ext. 58873	ABM022	Delivery by Saturday | Purple Extravagance Bouquet by Arabella Bouquets	1	0	1	Expedited	Jennifer Camp	1638 171ST AVE NE			BELLEVUE	WA	98008-2915	US			false		
113-1207430-0854618	15317720308578	2020-11-13T06:10:04+00:00	2020-11-12T22:10:04-08:00	2020-11-13T06:38:24+00:00	2020-11-17T07:59:59+00:00	-4	h71scy54swptw15@marketplace.amazon.com	Daniel A. Drumlake	+1 213-442-1463 ext. 47820	ABM022	Delivery by Saturday | Purple Extravagance Bouquet by Arabella Bouquets	1	0	1	Expedited	Seta Davison	9594 MALASANA CT			LAS VEGAS	NV	89147-8202	US		Love and Hugs.....  Beth and Daniel From Daniel A. Drumlake	false		
112-9614948-9533068	23138788743410	2020-11-13T06:40:24+00:00	2020-11-12T22:40:24-08:00	2020-11-13T07:08:27+00:00	2020-11-17T07:59:59+00:00	-4	r27r039jynk8bdw@marketplace.amazon.com	matt owens	+1 619-854-2705 ext. 28247	ABM022	Delivery by Saturday | Purple Extravagance Bouquet by Arabella Bouquets	1	0	1	Expedited	Betsy schultz	5617 E 37TH AVE			SPOKANE	WA	99223-1216	US		Betsy  Enjoy your new home!   We love you! Love Matt,Heather,Jack and Joey	false		
112-3452064-6564222	50300872892890	2020-11-13T07:21:14+00:00	2020-11-12T23:21:14-08:00	2020-11-13T07:50:26+00:00	2020-11-17T07:59:59+00:00	-4	xpxnf8dgkfwtnpn@marketplace.amazon.com	andrew tanner	+1 213-442-1463 ext. 81717	ABM022	Delivery by Saturday | Purple Extravagance Bouquet by Arabella Bouquets	1	0	1	Expedited	Ronda Simon	1440 HARDING PL APT 260			CHARLOTTE	NC	28204-0034	US		Thankful for you in my life!  Happy thanksgiving Ronda  Love,   Andrew From Andrew Tanner	false		
112-9360888-8557823	04812913220090	2020-11-13T09:14:04+00:00	2020-11-13T01:14:04-08:00	2020-11-13T09:42:44+00:00	2020-11-18T07:59:59+00:00	-5	79f51wd317gs6l2@marketplace.amazon.com	Rebecca Kaplan	+1 213-442-1463 ext. 35272	ABM022	Delivery by Saturday | Purple Extravagance Bouquet by Arabella Bouquets	1	0	1	Expedited	Ellen Weingold	51 Vardon Road			West Hartford	CT	06117	US		Happy birthday!  Love, Becky, Weike and Valentina From Rebecca Kaplan	false		
112-6296581-7262628	65785583604642	2020-11-13T09:35:32+00:00	2020-11-13T01:35:32-08:00	2020-11-13T10:02:06+00:00	2020-11-18T07:59:59+00:00	-5	6l20hl4yp20sxf1@marketplace.amazon.com	Louise Grant	+1 619-854-2705 ext. 09126	ABM010	Delivery by Saturday | The Spring Fling Bouquet by Arabella Bouquets with a Free Designer Glass Vase	1	0	1	Expedited	Sheryl Pratt	2009 VANDIVER WAY			APEX	NC	27523-6107	US		Hi Sheryl, Theresa and Chris, Thanks again for the time you spent with us last week.  We hope you enjoy the flowers! Bobby and Louise Grant	false		
111-7362556-6283431	23238253245314	2020-11-13T10:41:03+00:00	2020-11-13T02:41:03-08:00	2020-11-13T11:07:26+00:00	2020-11-18T07:59:59+00:00	-5	1q2x3p152wchvwt@marketplace.amazon.com	DAN	+1 213-442-1463 ext. 19566	ABR001	Delivery by Saturday | Arabella Bouquets 12 Stems of Fresh Cut Red Roses in a Free Designer Glass Vase	1	0	1	Expedited	Lorena Jimenez	2400 W HARRIS RD			ARLINGTON	TX	76001-6745	US		Thinking of you Mia on this November 17th. From Love Mio	false		
114-8946451-8724249	58464760243498	2020-11-13T11:05:17+00:00	2020-11-13T03:05:17-08:00	2020-11-13T11:30:30+00:00	2020-11-18T07:59:59+00:00	-5	55mcwct56tdmzp8@marketplace.amazon.com	angela diaz	+1 480-618-5344 ext. 04776	ABR001	Delivery by Saturday | Arabella Bouquets 12 Stems of Fresh Cut Red Roses in a Free Designer Glass Vase	1	0	1	Expedited	Kellie Robinson	5548 DONEGAL DR APT 203			VIRGINIA BEACH	VA	23455-2477	US		Kellie, Happy 9 months!   You have such a beautiful heart... thank you for sharing it with me. Love, Angela From angela diaz	false		
114-0539682-8203402	03428558785730	2020-11-13T11:04:46+00:00	2020-11-13T03:04:46-08:00	2020-11-13T11:35:10+00:00	2020-11-18T07:59:59+00:00	-5	vkpmqlt56qmv4c2@marketplace.amazon.com	Brian	+1 213-442-1463 ext. 03462	ABR0055	Delivery by Saturday | Arabella Farm Direct Bouquet of 12 Stems of Fresh Cut Hot Pink Roses in a Free Designer Glass Vase	1	0	1	Expedited	Brian P Canny	2505 GLADE MILL CT			FUQUAY VARINA	NC	27526-3526	US			false		
113-9212831-0008237	08017182253202	2020-11-13T11:54:25+00:00	2020-11-13T03:54:25-08:00	2020-11-13T12:37:23+00:00	2020-11-18T07:59:59+00:00	-5	nck8hptyjck4vmm@marketplace.amazon.com	Bonnie	+1 480-618-5344 ext. 83051	ABR0022	Delivery by Saturday | Arabella Farm Direct Bouquet of 12 Fresh Cut Pink Roses with a Free Glass Vase	1	0	1	Expedited	Sharon Flynn	109 WHITBY RD			ROCHESTER	NY	14609-3138	US			false		
111-0495130-9387466	39080173584298	2020-11-13T12:43:32+00:00	2020-11-13T04:43:32-08:00	2020-11-13T13:07:33+00:00	2020-11-18T07:59:59+00:00	-5	hvmlt7v1sql5x6y@marketplace.amazon.com	Randy Booth	+1 929-436-4790 ext. 49892	ABR0055	Delivery by Saturday | Arabella Farm Direct Bouquet of 12 Stems of Fresh Cut Hot Pink Roses in a Free Designer Glass Vase	1	0	1	Expedited	Julia Verbeten	6530 VIRGINIA PKWY APT 332			MCKINNEY	TX	75071-5522	US		Thank you, Julia and Hailey for being a part of our church family and for all the work you have done. You will be dearly missed and I wish I could make this whole situation different! From Angie Booth (and family :)	false		
113-4090334-9597801	30392319863610	2020-11-13T12:45:18+00:00	2020-11-13T04:45:18-08:00	2020-11-13T13:15:12+00:00	2020-11-18T07:59:59+00:00	-5	f00wm9ry7yw5dvf@marketplace.amazon.com	Katie Bennett	+1 619-854-2705 ext. 80098	ABM022	Delivery by Saturday | Purple Extravagance Bouquet by Arabella Bouquets	1	0	1	Expedited	Katie Bennett	3001 W MAIN ST APT 1635			CABOT	AR	72023-5162	US			false		
113-1147303-5661815	15727749441874	2020-11-13T12:53:03+00:00	2020-11-13T04:53:03-08:00	2020-11-13T13:22:12+00:00	2020-11-18T07:59:59+00:00	-5	rsklk5k3w9907kl@marketplace.amazon.com	robert s. batchelder	+1 602-671-6610 ext. 77676	ABR0022	Delivery by Saturday | Arabella Farm Direct Bouquet of 12 Fresh Cut Pink Roses with a Free Glass Vase	1	0	1	Expedited	Robert Batchelder Jr	43547 BARLEY CT			ASHBURN	VA	20147-5454	US		Happy Birthday From Scott	true		
114-1820374-8609044	48414801171570	2020-11-13T13:12:12+00:00	2020-11-13T05:12:12-08:00	2020-11-13T13:42:10+00:00	2020-11-18T07:59:59+00:00	-5	b5rrplm29fdyc1y@marketplace.amazon.com	Esther	+1 602-671-6610 ext. 93596	ABR0022	Delivery by Saturday | Arabella Farm Direct Bouquet of 12 Fresh Cut Pink Roses with a Free Glass Vase	1	0	1	Expedited	Maribeth Wheeler	194 PINEWOOD DR			PLYMOUTH	MI	48170-1982	US		From your boyfriend - it’s been too long :) Enjoy your gift! From Esther	false		
114-3863230-1273817	19862688961778	2020-11-13T13:40:19+00:00	2020-11-13T05:40:19-08:00	2020-11-13T14:08:27+00:00	2020-11-18T07:59:59+00:00	-5	0lkwswpl2gyhjxx@marketplace.amazon.com	Laurie Lake White	+1 619-854-2705 ext. 78476	ABR0022	Delivery by Saturday | Arabella Farm Direct Bouquet of 12 Fresh Cut Pink Roses with a Free Glass Vase	1	0	1	Expedited	Susan Kelly Nichols	3217 NORTHAMPTON ST			RALEIGH	NC	27609-6925	US		To Susan, Dick, Charlie, and Ralph--and family.  Our sincere sympathy in the loss of your mother.  Love, Lollie, Walter, Anne, and Ralph From Laurie Lake White	false		
112-4596997-1009040	31899701994546	2020-11-13T13:57:45+00:00	2020-11-13T05:57:45-08:00	2020-11-13T14:28:19+00:00	2020-11-18T07:59:59+00:00	-5	bz0vl5xr4grhjty@marketplace.amazon.com	sidney scott	+1 415-851-9136 ext. 63925	ABR001	Delivery by Saturday | Arabella Bouquets 12 Stems of Fresh Cut Red Roses in a Free Designer Glass Vase	1	0	1	Expedited	sidney scott	2857 Cloister St			North Fort Myers	Fl	33917	US			false		
113-0673290-6091403	16151388597522	2020-11-13T14:02:39+00:00	2020-11-13T06:02:39-08:00	2020-11-13T14:29:04+00:00	2020-11-18T07:59:59+00:00	-5	m7llxc907g57nv0@marketplace.amazon.com	Linda Rosenkrans	+1 480-618-5344 ext. 86658	ABM010	Delivery by Saturday | The Spring Fling Bouquet by Arabella Bouquets with a Free Designer Glass Vase	1	0	1	Expedited	Ginger Rosenkrans	2682 CASTILLO CIR			THOUSAND OAKS	CA	91360-1303	US			false		
113-3658367-9231458	35791350807802	2020-11-13T14:02:13+00:00	2020-11-13T06:02:13-08:00	2020-11-13T14:32:43+00:00	2020-11-18T07:59:59+00:00	-5	dn74cmf2p0n99ps@marketplace.amazon.com	Arthur Robinson	+1 602-671-6610 ext. 68137	ABR0022	Delivery by Saturday | Arabella Farm Direct Bouquet of 12 Fresh Cut Pink Roses with a Free Glass Vase	1	0	1	Expedited	Shanna Robinson	3322 WILLOUGHBY BEACH RD			EDGEWOOD	MD	21040-3500	US			false		
112-7840470-7211461	66312471877514	2020-11-13T14:22:42+00:00	2020-11-13T06:22:42-08:00	2020-11-13T14:52:55+00:00	2020-11-18T07:59:59+00:00	-5	q1c78n2996qmrtk@marketplace.amazon.com	Deborah L Stone	+1 619-854-2705 ext. 19809	ABR0022	Delivery by Saturday | Arabella Farm Direct Bouquet of 12 Fresh Cut Pink Roses with a Free Glass Vase	1	0	1	Expedited	Courtney Lipscomb	144 BLACKSNAKE RD			PICKENS	SC	29671-9057	US			false		
114-8991869-9081861	09206067055610	2020-11-13T14:43:25+00:00	2020-11-13T06:43:25-08:00	2020-11-13T15:12:56+00:00	2020-11-18T07:59:59+00:00	-5	23wqgy5klhxy9pc@marketplace.amazon.com	Christine Koch	+1 213-442-1463 ext. 29710	ABM022	Delivery by Saturday | Purple Extravagance Bouquet by Arabella Bouquets	1	0	1	Expedited	Christine L. Koch	4052 WOLF RD			WESTERN SPRINGS	IL	60558-1160	US			false		
112-5011782-9269860	34757768791450	2020-11-13T14:53:20+00:00	2020-11-13T06:53:20-08:00	2020-11-13T15:22:07+00:00	2020-11-18T07:59:59+00:00	-5	mmbr4ppyqcrv4lf@marketplace.amazon.com	diane hunt	+1 213-442-1463 ext. 52934	ABM022	Delivery by Saturday | Purple Extravagance Bouquet by Arabella Bouquets	1	0	1	Expedited	Kristen braff	6531 PALISADES DR			CENTREVILLE	VA	20121-3812	US		Wishing you sun shiney days ahead ! From Love Mom and Laura	false		
112-5969503-7803447	10250504519978	2020-11-13T15:28:52+00:00	2020-11-13T07:28:52-08:00	2020-11-13T15:54:18+00:00	2020-11-18T07:59:59+00:00	-5	80zr7vr2818w8k8@marketplace.amazon.com	Christopher J. Martin	+1 480-618-5344 ext. 64894	ABR0022	Delivery by Saturday | Arabella Farm Direct Bouquet of 12 Fresh Cut Pink Roses with a Free Glass Vase	1	0	1	Expedited	Donna Bunce	3129 S RENE DR			SANTA ANA	CA	92704-6730	US		Donna- I hope you get well soon❤️ I am thinking of you! You are one tough southern cookie!!! From Kristin Martin	false		
113-3605671-9429017	66343149076234	2020-11-13T15:33:22+00:00	2020-11-13T07:33:22-08:00	2020-11-13T16:01:32+00:00	2020-11-18T07:59:59+00:00	-5	0jtn6jq4vlx44x4@marketplace.amazon.com	Deb	+1 602-671-6610 ext. 47085	ABR001	Delivery by Saturday | Arabella Bouquets 12 Stems of Fresh Cut Red Roses in a Free Designer Glass Vase	1	0	1	Expedited	Karen Olearly	186 Copper Ridge Lane			Sullivan	MO	63080	US			false		
112-5692160-9815441	34819820650602	2020-11-13T15:36:31+00:00	2020-11-13T07:36:31-08:00	2020-11-13T16:05:16+00:00	2020-11-18T07:59:59+00:00	-5	b4fz55ywpvy9kjl@marketplace.amazon.com	Sally Trussell	+1 480-618-5344 ext. 38404	ABR0055	Delivery by Saturday | Arabella Farm Direct Bouquet of 12 Stems of Fresh Cut Hot Pink Roses in a Free Designer Glass Vase	1	0	1	Expedited	Adam Trussell & Lou DeMartino	485 E AVENIDA PALMERA			PALM SPRINGS	CA	92264-8456	US		Adam, Lou: Happy Anniversary!! Love, Mom/Sally From Sally Trussell	false		
113-0030146-9129078	42439425868354	2020-11-13T15:42:58+00:00	2020-11-13T07:42:58-08:00	2020-11-13T16:07:14+00:00	2020-11-18T07:59:59+00:00	-5	zvhrmjm74xp5gzy@marketplace.amazon.com	debra guillotte	+1 619-854-2705 ext. 54938	ABR0055	Delivery by Saturday | Arabella Farm Direct Bouquet of 12 Stems of Fresh Cut Hot Pink Roses in a Free Designer Glass Vase	1	0	1	Expedited	Janice Tuite	20 RURAL ST			NEW BEDFORD	MA	02740-2160	US		Thinking of you!!!! From Love, Debbie and Harry	false		
113-6851632-9663438	55077178127354	2020-11-13T15:49:30+00:00	2020-11-13T07:49:30-08:00	2020-11-13T16:17:06+00:00	2020-11-18T07:59:59+00:00	-5	z4py590y96jhq8d@marketplace.amazon.com	Buzz McArdle	+1 213-442-1463 ext. 78089	ABM010	Delivery by Saturday | The Spring Fling Bouquet by Arabella Bouquets with a Free Designer Glass Vase	1	0	1	Expedited	Gail Langley	28 CANDACE AVE			WALTHAM	MA	02453-6967	US			false		
111-3646288-3067411	28930018479466	2020-11-13T15:50:04+00:00	2020-11-13T07:50:04-08:00	2020-11-13T16:20:44+00:00	2020-11-18T07:59:59+00:00	-5	1mq2gn48dxy7vvj@marketplace.amazon.com	Michael Berigan	+1 602-671-6610 ext. 74473	ABM022	Delivery by Saturday | Purple Extravagance Bouquet by Arabella Bouquets	1	0	1	Expedited	Michael Berigan	1509 W MILWAUKEE ST			STOUGHTON	WI	53589-4630	US			false		
114-1002950-6954620	08568175505034	2020-11-13T15:56:15+00:00	2020-11-13T07:56:15-08:00	2020-11-13T16:26:31+00:00	2020-11-18T07:59:59+00:00	-5	r2d8gbm1rdw4jjl@marketplace.amazon.com	elder	+1 602-671-6610 ext. 19266	ABR0022	Delivery by Saturday | Arabella Farm Direct Bouquet of 12 Fresh Cut Pink Roses with a Free Glass Vase	1	0	1	Expedited	ETHLYNN	1482 SW MEDINA AVE			PORT ST LUCIE	FL	34953-4918	US			false		
114-1810535-8333838	62362235807322	2020-11-13T16:00:27+00:00	2020-11-13T08:00:27-08:00	2020-11-13T16:29:02+00:00	2020-11-18T07:59:59+00:00	-5	2ghj063kcz8d9g8@marketplace.amazon.com	ROBERT S SCROGGINS JR	+1 619-854-2705 ext. 46799	ABR0022	Delivery by Saturday | Arabella Farm Direct Bouquet of 12 Fresh Cut Pink Roses with a Free Glass Vase	1	0	1	Standard	Lora Delgado	516 MILL AVE S APT 7			RENTON	WA	98057-6062	US		Thinking of you on your special day! All of our love and best wishes for your birthday! From Bob and Dede	false		
111-2436606-0086607	09054574346634	2020-11-13T16:20:43+00:00	2020-11-13T08:20:43-08:00	2020-11-13T16:47:40+00:00	2020-11-18T07:59:59+00:00	-5	ppfgsnd0h16tytp@marketplace.amazon.com	Danielle Miller	+1 602-671-6610 ext. 12940	ABM022	Delivery by Saturday | Purple Extravagance Bouquet by Arabella Bouquets	1	0	1	Expedited	Shannon Bowman	101 EAGLES NEST DR			PORTLAND	TN	37148-2045	US		Shannon,  We are thinking of you and hoping for a continual improvement in your health every day! We hope you get well soon! Love,  Danielle and Ron Miller and the Kurras family From Danielle Miller	false		
113-8522755-1729804	00175763842282	2020-11-13T16:18:47+00:00	2020-11-13T08:18:47-08:00	2020-11-13T16:47:48+00:00	2020-11-18T07:59:59+00:00	-5	mlrzkbm9d57g4vk@marketplace.amazon.com	Sandra J. Lavelle	+1 415-851-9136 ext. 36724	ABR0022	Delivery by Saturday | Arabella Farm Direct Bouquet of 12 Fresh Cut Pink Roses with a Free Glass Vase	1	0	1	Expedited	Sandra Lavelle	1908 S BEAUMONT AVE			KANSASVILLE	WI	53139-9513	US		Darcy, Thinking of you! Get well soon! From Love, Sandy	false		
111-6795475-9483422	15798857164122	2020-11-13T16:20:02+00:00	2020-11-13T08:20:02-08:00	2020-11-13T16:48:32+00:00	2020-11-18T07:59:59+00:00	-5	ksgpwlvy6djb5p5@marketplace.amazon.com	Jonathan E Sayer	+1 415-851-9136 ext. 71843	ABR0033	Delivery by Saturday | Arabella Farm Direct Bouquet of 12 Fresh Cut Orange Roses with a Free Glass Vase	1	0	1	Expedited	Jonathan & Carol Sayer	539 NW CASHMERE BLVD APT 101			PORT ST LUCIE	FL	34986-1957	US		Happy Thanksgiving Dad and Carol!  Hope that Carol is feeling better and this adds some Autumn cheer to your home! From Love Jon and Lesa	false		
113-6431216-6633862	62076107928274	2020-11-13T16:34:54+00:00	2020-11-13T08:34:54-08:00	2020-11-13T17:04:38+00:00	2020-11-18T07:59:59+00:00	-5	0brbbpr6p6p87cd@marketplace.amazon.com	Phillip m. white	+1 619-854-2705 ext. 03140	ABR0055	Delivery by Saturday | Arabella Farm Direct Bouquet of 12 Stems of Fresh Cut Hot Pink Roses in a Free Designer Glass Vase	1	0	1	Expedited	Leota Golden	4634 ROCK CANYON LOOP			LAS CRUCES	NM	88011-0961	US		Happy Birthday, Leota!   Love, Phillip From Phillip m. white	false		
113-2780516-4422627	27715308957946	2020-11-13T16:40:39+00:00	2020-11-13T08:40:39-08:00	2020-11-13T17:06:46+00:00	2020-11-18T07:59:59+00:00	-5	swstgq1hgmq9w86@marketplace.amazon.com	Anton Diego	+1 602-671-6610 ext. 68831	ABM022	Delivery by Saturday | Purple Extravagance Bouquet by Arabella Bouquets	1	0	1	Expedited	Soledad Gimeno	7570 NW 176TH TER			HIALEAH	FL	33015-7157	US		Happiest (now belated) birthday! Hope you have a wonderful time celebrating with your family. From Ashley & Claudia	false		
112-1096921-2695406	32002820962466	2020-11-13T17:08:40+00:00	2020-11-13T09:08:40-08:00	2020-11-13T17:12:29+00:00	2020-11-18T07:59:59+00:00	-5	csmqmjlk8zl423s@marketplace.amazon.com	Dorothy Ford	+1 929-436-4790 ext. 55366	ABM010	Delivery by Saturday | The Spring Fling Bouquet by Arabella Bouquets with a Free Designer Glass Vase	1	0	1	Expedited	Rhonda Gillette	19 OVERLOOK RD			NARRAGANSETT	RI	02882-1245	US		For Ozzie! Lots and lots of love, Dorothy From Dorothy	false		
114-7095166-6241840	45515152224042	2020-11-13T16:51:34+00:00	2020-11-13T08:51:34-08:00	2020-11-13T17:14:42+00:00	2020-11-18T07:59:59+00:00	-5	h2tmtt6fyg0wt9v@marketplace.amazon.com	Carl Robert Turner	+1 602-671-6610 ext. 35201	ABR0022	Delivery by Saturday | Arabella Farm Direct Bouquet of 12 Fresh Cut Pink Roses with a Free Glass Vase	1	0	1	Expedited	Allison Turner	31405 HELEN LN			TOMBALL	TX	77375-2980	US		Congratulations. A dream come true!  We are so very proud of your work and dedication that brought you to this wonderful accomplishment. We love you! From Grandpa and Grandma	false		
111-1011794-8554656	35613017085210	2020-11-13T16:57:55+00:00	2020-11-13T08:57:55-08:00	2020-11-13T17:22:16+00:00	2020-11-18T07:59:59+00:00	-5	0dhm9bnrzr1tb66@marketplace.amazon.com	Nancy	+1 213-442-1463 ext. 10291	ABR0022	Delivery by Saturday | Arabella Farm Direct Bouquet of 12 Fresh Cut Pink Roses with a Free Glass Vase	1	0	1	Expedited	Stacey Hug	1 SANTA MARIA CT			NOVATO	CA	94947-3724	US		Hi Stacey, Enjoy your gift! From Nancy	false		
114-3903034-1669011	06982222763810	2020-11-13T16:58:27+00:00	2020-11-13T08:58:27-08:00	2020-11-13T17:25:54+00:00	2020-11-18T07:59:59+00:00	-5	ws1z32hq82wnf74@marketplace.amazon.com	tanima kazi	+1 602-671-6610 ext. 52395	ABM022	Delivery by Saturday | Purple Extravagance Bouquet by Arabella Bouquets	1	0	1	Expedited	Lyn Shatraw	3456 STATE ROUTE 37			CONSTABLE	NY	12926-2202	US		Happy Birthday Beautiful! Hope you have an amazing birthday. You are my absolute hero & warrior Queen! From Tanima Kazi	false		
111-6169305-1916246	03440176968442	2020-11-13T17:05:09+00:00	2020-11-13T09:05:09-08:00	2020-11-13T17:34:06+00:00	2020-11-18T07:59:59+00:00	-5	f2hnh2s6gzty487@marketplace.amazon.com	Allison B. Steyskal	+1 480-618-5344 ext. 93704	ABM022	Delivery by Saturday | Purple Extravagance Bouquet by Arabella Bouquets	1	0	1	Expedited	Mama Jodi Christensen	2545 EVANSVILLE AVE			HENDERSON	NV	89052-6555	US		Happy birthday Mama Jodi!!!  Thank you for being the BEST other-mom-in-law a girl could have! 😊 From Ali	false		
111-8830191-4911460	60656141542738	2020-11-13T16:45:21+00:00	2020-11-13T08:45:21-08:00	2020-11-13T17:36:09+00:00	2020-11-18T07:59:59+00:00	-5	0nhl135y7zdq19s@marketplace.amazon.com	victoria saulovich	+1 480-618-5344 ext. 96354	ABR0033	Delivery by Saturday | Arabella Farm Direct Bouquet of 12 Fresh Cut Orange Roses with a Free Glass Vase	1	0	1	Standard	Mrs Rosemary Peterson	14101 WINGATE CIR			MAGALIA	CA	95954-9473	US		Dearest Rosemary, Happy Thanksgiving.  Love you, Victoria From victoria saulovich	false		
111-5133901-5837843	24294113552258	2020-11-13T17:16:16+00:00	2020-11-13T09:16:16-08:00	2020-11-13T17:43:00+00:00	2020-11-18T07:59:59+00:00	-5	9fwmvh9zp3ksk65@marketplace.amazon.com	Rebecca Saracina	+1 480-618-5344 ext. 14308	ABM022	Delivery by Saturday | Purple Extravagance Bouquet by Arabella Bouquets	1	0	1	Expedited	Tracy Nocerino	642 BROOKEDGE TER			SEBASTIAN	FL	32958-6117	US		Enjoy your gift! Thank you for everything . I appreciate you 💝💝💝 From Love 💕 Becca	false		
112-1367845-4269833	63490667554346	2020-11-13T17:20:21+00:00	2020-11-13T09:20:21-08:00	2020-11-13T17:47:51+00:00	2020-11-18T07:59:59+00:00	-5	0wxyjvqrqjsfwk8@marketplace.amazon.com	Constance Simmons	+1 213-442-1463 ext. 87356	ABM022	Delivery by Saturday | Purple Extravagance Bouquet by Arabella Bouquets	1	0	1	Expedited	Emily Talbot	309 MARILYN AVE			SYRACUSE	NY	13212-3521	US		Emily, Happy Birthday - Hope you have a wonderful day! Love, Connie & Jack	false		
113-9649802-9909047	54053796454658	2020-11-13T17:58:41+00:00	2020-11-13T09:58:41-08:00	2020-11-13T18:19:37+00:00	2020-11-18T07:59:59+00:00	-5	gr3y3wppvnst1q0@marketplace.amazon.com	Sultan Camp	+1 619-854-2705 ext. 33584	ABM022	Delivery by Saturday | Purple Extravagance Bouquet by Arabella Bouquets	1	0	1	Expedited	Maude Eastman	10 ALLAN ST			WEST HAVEN	CT	06516-1529	US		Hi Aunty Maude, Please enjoy these beauties from all of us. We love you! The Camps. The Buckles. The Natts.	false		
112-8690154-7671432	50665486755674	2020-11-13T17:52:45+00:00	2020-11-13T09:52:45-08:00	2020-11-13T18:21:12+00:00	2020-11-18T07:59:59+00:00	-5	2mz19qtky9c5qsl@marketplace.amazon.com	Laura Gryczewski	+1 929-436-4790 ext. 30031	ABR0022	Delivery by Tuesday | Arabella Farm Direct Bouquet of 12 Fresh Cut Pink Roses with a Free Glass Vase	1	0	1	Expedited	Christine Beck	18049 W TECOMA RD			GOODYEAR	AZ	85338-7750	US		Happy Birthday! From Laura Gryczewski	false		
111-0170744-9669007	35270972166474	2020-11-13T18:17:02+00:00	2020-11-13T10:17:02-08:00	2020-11-13T18:43:59+00:00	2020-11-18T07:59:59+00:00	-5	g2vdrdmcvwym6mc@marketplace.amazon.com	Mandy Martin	+1 929-436-4790 ext. 15793	ABR0022	Delivery by Tuesday | Arabella Farm Direct Bouquet of 12 Fresh Cut Pink Roses with a Free Glass Vase	1	0	1	Expedited	Mary Beth Harrington	410 W 17TH ST			CROWLEY	LA	70526-2726	US		We hope these brighten your day!  Love, Mandy and Brother From Mandy Martin	false		
111-9353361-6469012	10431396975226	2020-11-13T18:17:12+00:00	2020-11-13T10:17:12-08:00	2020-11-13T18:44:28+00:00	2020-11-18T07:59:59+00:00	-5	s22ls8871xfcbb3@marketplace.amazon.com	Kenneth L. Nichols	+1 929-436-4790 ext. 05319	ABM022	Purple Extravagance Bouquet by Arabella Bouquets	1	0	1	Expedited	Marilyn Nichols	600 COTTAGEVIEW DR UNIT 141			TRAVERSE CITY	MI	49684-2630	US		Hi Marilyn, Happy Birthday  From Kenneth L. Nichols	false		
114-9720728-9366661	22331348774258	2020-11-13T18:19:44+00:00	2020-11-13T10:19:44-08:00	2020-11-13T18:47:12+00:00	2020-11-18T07:59:59+00:00	-5	n20xlmrkh6zm3lf@marketplace.amazon.com	michelle weaver	+1 602-671-6610 ext. 28911	ABM010	Delivery by Tuesday | The Spring Fling Bouquet by Arabella Bouquets with a Free Designer Glass Vase	1	0	1	Expedited	Salida Woods Assistant Living attn :Doris Weaver	7685 LAKE SHORE BLVD			MENTOR	OH	44060-3359	US		Happy Thanksgiving! From Chelly & Belinda	false		
111-6727989-9720239	41680206329258	2020-11-13T18:19:45+00:00	2020-11-13T10:19:45-08:00	2020-11-13T18:49:10+00:00	2020-11-18T07:59:59+00:00	-5	cln3k8h3b5hgwvw@marketplace.amazon.com	charlene	+1 619-854-2705 ext. 81538	ABR0055	Delivery by Tuesday | Arabella Farm Direct Bouquet of 12 Stems of Fresh Cut Hot Pink Roses in a Free Designer Glass Vase	1	0	1	Expedited	Charlene Tang	CHARLENE TANG 180 TUCKER AVE			SAN FRANCISCO	CA	94134-2215	US			false		
112-3999118-7300264	30183590099626	2020-11-13T18:30:53+00:00	2020-11-13T10:30:53-08:00	2020-11-13T18:57:03+00:00	2020-11-18T07:59:59+00:00	-5	hp1d3ld1hvzjjy6@marketplace.amazon.com	Dianne Neihengen	+1 602-671-6610 ext. 98499	ABR0033	Delivery by Tuesday | Arabella Farm Direct Bouquet of 12 Fresh Cut Orange Roses with a Free Glass Vase	1	0	1	Expedited	Gail and Bob Rittichier	367 MAYBORNE LN			GENEVA	IL	60134-4699	US		Happy Anniversary! From Love, Dianne and Bill	false		
112-0624864-5913818	51468444261674	2020-11-13T18:50:55+00:00	2020-11-13T10:50:55-08:00	2020-11-13T19:09:54+00:00	2020-11-18T07:59:59+00:00	-5	jwxw86qyy2bt129@marketplace.amazon.com	Charles Wheeler	+1 929-436-4790 ext. 77644	ABM022	Delivery by Tuesday | Purple Extravagance Bouquet by Arabella Bouquets	1	0	1	Expedited	Tzena treadway	1010 WASHINGTON ST APT 18			WATERTOWN	NY	13601-4392	US		Happy birthday! 21+49 From Linda wheeler and bob	false		
112-9256660-7643430	04710103774242	2020-11-13T19:11:49+00:00	2020-11-13T11:11:49-08:00	2020-11-13T19:23:57+00:00	2020-11-18T07:59:59+00:00	-5	84zzv30v8vvbyyp@marketplace.amazon.com	Marvin	+1 602-671-6610 ext. 61310	ABR001	Delivery by Tuesday | Arabella Bouquets 12 Stems of Fresh Cut Red Roses in a Free Designer Glass Vase	1	0	1	Expedited	Colleen Bernie	15300 PALM DR SPC 8			DESERT HOT SPRINGS	CA	92240-6927	US		I thought these might go good with your new furniture. Thinking of you! MD. From Marvin	false		
112-3837723-4336224	09501249095066	2020-11-13T19:05:31+00:00	2020-11-13T11:05:31-08:00	2020-11-13T19:30:07+00:00	2020-11-18T07:59:59+00:00	-5	91x4mmrf61zdz2t@marketplace.amazon.com	Laura Bacon Morgan	+1 929-436-4790 ext. 51774	ABM031	Delivery by Tuesday | The Harvest Moon Bouquet by Arabella Bouquets	1	0	1	Expedited	Debbie Bily	3701 COPPER RIDGE CT			AUSTIN	TX	78734-4367	US		Hope these flowers can help brighten your day. We love you! From Justin, Laura, Avery, Mike, TJ, and Nolin	false		
114-3956980-4959413	11861450657234	2020-11-13T19:03:41+00:00	2020-11-13T11:03:41-08:00	2020-11-13T19:33:18+00:00	2020-11-18T07:59:59+00:00	-5	3j7p0nbflhz91zl@marketplace.amazon.com	Jessica Huett	+1 213-442-1463 ext. 55761	ABM022	Delivery by Tuesday | Purple Extravagance Bouquet by Arabella Bouquets	1	0	1	Expedited	Sharon Feld	1058 BEARDSLEY ST			MONROE	IA	50170-7533	US		Happy Birthday!!! From The Bees!	false		
112-4686423-0820240	14903882227514	2020-11-13T19:21:21+00:00	2020-11-13T11:21:21-08:00	2020-11-13T19:46:10+00:00	2020-11-18T07:59:59+00:00	-5	l017hkm3qmjsnnl@marketplace.amazon.com	Micah	+1 480-618-5344 ext. 34195	ABM024	Delivery by Tuesday | The Beauty of Color Bouquet by Arabella Bouquets	1	0	1	Expedited	Christine Raabe	112 CHEYENNE AVE			EATON	CO	80615-3463	US		Happy Birthday Christine!!   We love you! Jules and Micah From Jukes & Micah	false		
114-2117138-1717850	39963080644394	2020-11-13T19:22:31+00:00	2020-11-13T11:22:31-08:00	2020-11-13T19:50:19+00:00	2020-11-18T07:59:59+00:00	-5	3k0q1gwy257x4sz@marketplace.amazon.com	Yizez Gebrehiwot	+1 480-618-5344 ext. 12135	ABM022	Delivery by Tuesday | Purple Extravagance Bouquet by Arabella Bouquets	1	0	1	Expedited	Lydia Simeane	4444 WESTHEIMER RD APT D525			HOUSTON	TX	77027-4800	US		May your day be as beautiful as those flowers !!!😘 From Yizez	false		
111-4573387-4937059	38711189969658	2020-11-13T19:27:02+00:00	2020-11-13T11:27:02-08:00	2020-11-13T19:56:12+00:00	2020-11-18T07:59:59+00:00	-5	ghqh4109syln419@marketplace.amazon.com	michelle Smith	+1 213-442-1463 ext. 01193	ABM022	Delivery by Tuesday | Purple Extravagance Bouquet by Arabella Bouquets	1	0	1	Expedited	Vandanna Prasad	5743 N DENVER AVE			PORTLAND	OR	97217-4320	US			false		
111-0873115-3693035	35903432717690	2020-11-13T19:33:37+00:00	2020-11-13T11:33:37-08:00	2020-11-13T19:56:46+00:00	2020-11-18T07:59:59+00:00	-5	4q79qn31wxrzysr@marketplace.amazon.com	Gary Zweig	+1 602-671-6610 ext. 84642	ABR0022	Delivery by Tuesday | Arabella Farm Direct Bouquet of 12 Fresh Cut Pink Roses with a Free Glass Vase	1	0	1	Expedited	Makenna Rosen	6713 RIVER TRAIL CT			BETHESDA	MD	20817-4326	US		Happy Birthday Love From Auntie Rickey and Uncle Gary	false		
112-0426977-4787411	21488022872130	2020-11-13T19:40:38+00:00	2020-11-13T11:40:38-08:00	2020-11-13T20:05:44+00:00	2020-11-18T07:59:59+00:00	-5	1mtzbd3kz5tky6b@marketplace.amazon.com	john tang	+1 602-671-6610 ext. 51914	ABR001	Delivery by Tuesday | Arabella Bouquets 12 Stems of Fresh Cut Red Roses in a Free Designer Glass Vase	1	0	1	Expedited	DONNA CHAN	256 EVERETT ST			QUINCY	MA	02170-3207	US		My world wouldn't be the same without you in it.  More good times & memories to come.  HAPPY BIRTHDAY MY LOVE!  I LOVE YOU, Jack From JW	false		
113-4014922-6153020	64777283230026	2020-11-13T20:15:30+00:00	2020-11-13T12:15:30-08:00	2020-11-13T20:42:40+00:00	2020-11-18T07:59:59+00:00	-5	j51pjl70sbvxp0f@marketplace.amazon.com	Spot & Tango	+1 602-671-6610 ext. 75243	ABR0022	Delivery by Tuesday | Arabella Farm Direct Bouquet of 12 Fresh Cut Pink Roses with a Free Glass Vase	1	0	1	Expedited	Ryan Ulfers	15060 ROSEWOOD DR			CLIVE	IA	50325-7861	US		Please accept our sincere condolences on the passing of Herkee. We are keeping you and your family in our thoughts during this difficult time. Love, Spot & Tango From Spot & Tango	false		
112-1988534-1444238	11293228433538	2020-11-13T20:13:25+00:00	2020-11-13T12:13:25-08:00	2020-11-13T20:42:53+00:00	2020-11-18T07:59:59+00:00	-5	bsb7c5d2y1wt8xd@marketplace.amazon.com	Gavin Frye	+1 619-854-2705 ext. 70737	ABR0022	Delivery by Tuesday | Arabella Farm Direct Bouquet of 12 Fresh Cut Pink Roses with a Free Glass Vase	1	0	1	Expedited	Holly Berkley	496 WESTSIDE RD			HEALDSBURG	CA	95448-9496	US		Looking forward to our time together, dear Holly! From Gavin Frye	false		
111-7019248-3669838	01022371911858	2020-11-13T20:20:09+00:00	2020-11-13T12:20:09-08:00	2020-11-13T20:48:49+00:00	2020-11-18T07:59:59+00:00	-5	5cpzzwclmtfzvxs@marketplace.amazon.com	angie constan	+1 619-854-2705 ext. 32375	ABR0055	Delivery by Tuesday | Arabella Farm Direct Bouquet of 12 Stems of Fresh Cut Hot Pink Roses in a Free Designer Glass Vase	1	0	1	Expedited	Laura Moreno	7032 FILKINS AVE			RANCHO CUCAMONGA	CA	91701-6005	US			false		
112-9307570-0869013	55211048081954	2020-11-13T20:27:00+00:00	2020-11-13T12:27:00-08:00	2020-11-13T20:55:09+00:00	2020-11-18T07:59:59+00:00	-5	4xv0k1swq9zvwb8@marketplace.amazon.com	paula friant	+1 929-436-4790 ext. 52568	ABM017	Delivery by Tuesday | Arabella Bouquets 10 Stems of Blue Dendrobium Orchids in a Free Designer Glass Vase	1	0	1	Expedited	Carol Young	3100 STONE ORCHARD PL			CHARLOTTE	NC	28209-1255	US			false		
113-0919344-8071423	25992521463346	2020-11-13T20:37:45+00:00	2020-11-13T12:37:45-08:00	2020-11-13T21:07:51+00:00	2020-11-18T07:59:59+00:00	-5	gf4h62fz9s9shgh@marketplace.amazon.com	Kevin J Elliott	+1 213-442-1463 ext. 43388	ABM022	Delivery by Tuesday | Purple Extravagance Bouquet by Arabella Bouquets	1	0	1	Expedited	Judy Elliott	11150 E SUNRISE RANCH PL			TUCSON	AZ	85749-8357	US			false		
112-0102931-4026675	45884210201666	2020-11-13T20:38:58+00:00	2020-11-13T12:38:58-08:00	2020-11-13T21:09:25+00:00	2020-11-18T07:59:59+00:00	-5	44bkg9l2lwtm47k@marketplace.amazon.com	Megan Evans	+1 415-851-9136 ext. 30626	ABM022	Delivery by Tuesday | Purple Extravagance Bouquet by Arabella Bouquets	1	0	1	Expedited	Andrew Polk	3260 CHING DAIRY RD			MOBILE	AL	36618-4420	US			false		
113-5749589-7690662	47272465191714	2020-11-13T20:42:42+00:00	2020-11-13T12:42:42-08:00	2020-11-13T21:13:04+00:00	2020-11-18T07:59:59+00:00	-5	52z2h09jrr0n2pg@marketplace.amazon.com	Hannah Fairbee	+1 480-618-5344 ext. 04167	ABM022	Delivery by Tuesday | Purple Extravagance Bouquet by Arabella Bouquets	1	0	1	Expedited	Charlotte DeRosa	1345 woodcrest lane			north port	florida	34286	US			false		
113-0182754-4323442	26906404768594	2020-11-13T20:55:47+00:00	2020-11-13T12:55:47-08:00	2020-11-13T21:18:33+00:00	2020-11-18T07:59:59+00:00	-5	10fhzdmbr7qc0w1@marketplace.amazon.com	Marie Nagasawa	+1 213-442-1463 ext. 53216	ABM010	Delivery by Tuesday | The Spring Fling Bouquet by Arabella Bouquets with a Free Designer Glass Vase	1	0	1	Expedited	Avianna Hwang	1585 BEACH PARK BLVD			FOSTER CITY	CA	94404-1437	US		Avianna,  Hope you have a speedy recovery!  We're all thinking of you!  I hope this brightens up your day! From The Domingo Family	false		
114-3473806-5813003	61948516376906	2020-11-13T20:54:22+00:00	2020-11-13T12:54:22-08:00	2020-11-13T21:19:33+00:00	2020-11-18T07:59:59+00:00	-5	310lmc98f5y6m39@marketplace.amazon.com	Janet Benson	+1 213-442-1463 ext. 02091	ABM022	Delivery by Tuesday | Purple Extravagance Bouquet by Arabella Bouquets	1	0	1	Expedited	Lindsey Van Dyken	2450 PANGBORN RD			LYNDEN	WA	98264-9233	US		Happy Birthday!!!! Love you! From Janet Benson	false		
114-8908422-8945009	24146546836754	2020-11-13T20:50:22+00:00	2020-11-13T12:50:22-08:00	2020-11-13T21:19:52+00:00	2020-11-18T07:59:59+00:00	-5	t0d363nd4vwq9jm@marketplace.amazon.com	Marcia	+1 929-436-4790 ext. 00201	ABM020	Delivery by Tuesday | The Sunset Bouquet by Arabella Bouquets	1	0	1	Expedited	Sabra Vigil	6698 JERRY BASS LN			PUEBLO	CO	81005-9617	US		Sabra, I am so sorry for your loss.  Please accept our deepest condolences and know that we are sending our love and prayers. From Marcia and Sydney	false		
111-0702383-3762667	49302642942994	2020-11-13T20:55:52+00:00	2020-11-13T12:55:52-08:00	2020-11-13T21:24:13+00:00	2020-11-18T07:59:59+00:00	-5	g40rsqz0k5nhv8b@marketplace.amazon.com	Joseph Richards	+1 929-436-4790 ext. 12828	ABR0022	Delivery by Tuesday | Arabella Farm Direct Bouquet of 12 Fresh Cut Pink Roses with a Free Glass Vase	1	0	1	Expedited	Pudz	6 THURMONT CT APT 2 B			NOTTINGHAM	MD	21236-3132	US			false		
113-4365550-7583439	42007681413226	2020-11-13T21:07:28+00:00	2020-11-13T13:07:28-08:00	2020-11-13T21:36:52+00:00	2020-11-18T07:59:59+00:00	-5	pm2pmz2wrdbxd30@marketplace.amazon.com	David Shelly	+1 213-442-1463 ext. 08328	ABM022	Delivery by Tuesday | Purple Extravagance Bouquet by Arabella Bouquets	1	0	1	Expedited	Jessica Renaud	12206 QUAIL CREEK DR			HOUSTON	TX	77070-2215	US		Just because From David	false		
114-2054976-3441862	46783261593458	2020-11-13T21:09:21+00:00	2020-11-13T13:09:21-08:00	2020-11-13T21:39:37+00:00	2020-11-18T07:59:59+00:00	-5	9v4z2hytt4f3j1y@marketplace.amazon.com	Vicki Boling	+1 480-618-5344 ext. 78016	ABR0022	Delivery by Tuesday | Arabella Farm Direct Bouquet of 12 Fresh Cut Pink Roses with a Free Glass Vase	1	0	1	Expedited	Lee Hannon	192 RIVERVIEW TER			CLOVER	SC	29710-8939	US			false		
111-5333380-7954630	34310501434826	2020-11-13T21:28:24+00:00	2020-11-13T13:28:24-08:00	2020-11-13T21:55:40+00:00	2020-11-18T07:59:59+00:00	-5	z0ls55131cqbb9b@marketplace.amazon.com	Beth Taylor	+1 213-442-1463 ext. 52884	ABM020	Delivery by Tuesday | The Sunset Bouquet by Arabella Bouquets	1	0	1	Expedited	Margaret Schuler	2714 NE 113TH ST			SEATTLE	WA	98125-6705	US		Dear Margaret & Mike -- We are so sorry for the loss of your wonderful Mom. Please know we are holding you in our hearts. From Love, Beth, Scott & Molly	false		
112-0609037-2982639	67833111317362	2020-11-13T21:41:19+00:00	2020-11-13T13:41:19-08:00	2020-11-13T22:03:03+00:00	2020-11-18T07:59:59+00:00	-5	jy9ygb8n5p7vzct@marketplace.amazon.com	Lois Austin	+1 480-618-5344 ext. 42031	ABR001	Delivery by Tuesday | Arabella Bouquets 12 Stems of Fresh Cut Red Roses in a Free Designer Glass Vase	1	0	1	Expedited	Marilyn Bryant	3225 COMMANCHE TRL			LAFAYETTE	IN	47909-3870	US		HAPPY 80th BIRTHDAY CUZ Love ya' LuLu	false		
112-4588985-0631455	41267932084162	2020-11-13T22:01:46+00:00	2020-11-13T14:01:46-08:00	2020-11-13T22:30:55+00:00	2020-11-18T07:59:59+00:00	-5	dyb7rvfvf4wwv3f@marketplace.amazon.com	MaryJo B. Haggerty	+1 415-851-9136 ext. 96047	ABR0022	Delivery by Tuesday | Arabella Farm Direct Bouquet of 12 Fresh Cut Pink Roses with a Free Glass Vase	1	0	1	Expedited	Cathy Jarvis	1668 TREESIDE DR			ROCHESTER HILLS	MI	48307-3474	US		Hope you enjoy your flowers and have a great birthday celebration, Cath! From MaryJo B. Haggerty	false		
114-8114832-1064262	66551647893186	2020-11-13T22:04:42+00:00	2020-11-13T14:04:42-08:00	2020-11-13T22:31:55+00:00	2020-11-18T07:59:59+00:00	-5	ps5qhdcchc2qzcc@marketplace.amazon.com	Lynn	+1 415-851-9136 ext. 90286	ABM022	Delivery by Tuesday | Purple Extravagance Bouquet by Arabella Bouquets	1	0	1	Expedited	Lee Darby	543 COMSTOCK DR			TIBURON	CA	94920-1309	US			false		
114-1330796-3917051	65468566400778	2020-11-13T22:10:09+00:00	2020-11-13T14:10:09-08:00	2020-11-13T22:38:54+00:00	2020-11-18T07:59:59+00:00	-5	1dn3jz14djyhtvh@marketplace.amazon.com	Jonathan	+1 602-671-6610 ext. 15447	ABM022	Delivery by Tuesday | Purple Extravagance Bouquet by Arabella Bouquets	1	0	1	Expedited	Carmen Yu	737 BRIDGE CREEK DR			SAN RAMON	CA	94582-5650	US		Wishing you a very happy birthday!! May your dearest wishes come true!! I feel extremely lucky to have crossed path with you and call you a friend. I hope your day is as beautiful and special as you! I love you! From Hany	false		
112-6246179-8365805	69638536325402	2020-11-13T22:22:04+00:00	2020-11-13T14:22:04-08:00	2020-11-13T22:49:32+00:00	2020-11-18T07:59:59+00:00	-5	82nkr2fd3g5xhqv@marketplace.amazon.com	J. Fung	+1 619-854-2705 ext. 06427	ABM022	Delivery by Tuesday | Purple Extravagance Bouquet by Arabella Bouquets	1	0	1	Expedited	Sheri Silsby	123 W SECOND ST			CARSON CITY	NV	89703-4225	US		Sheri,  We cant thank you enough for getting us in contact with Dave Moritz Heating to get our central heat up and running again! Enjoy your gift! From James, Jeannie and Jazmyn	false		
113-2298233-1302609	16203884868850	2020-11-13T22:31:03+00:00	2020-11-13T14:31:03-08:00	2020-11-13T22:57:36+00:00	2020-11-18T07:59:59+00:00	-5	rd8p3rgm2yljdb0@marketplace.amazon.com	Valerie A Adair	+1 480-618-5344 ext. 84299	ABM022	Delivery by Tuesday | Purple Extravagance Bouquet by Arabella Bouquets	1	0	1	Expedited	Shelley Hrna	1903 RED FOX LN			HIXSON	TN	37343-3586	US		Shelley  The Quilts are GORGEOUS!  You are our favorite artist. Blessings and love, Lee and Linda. Thank you so much! From Valerie A Adair	false		
