order-id	order-item-id	purchase-date	payments-date	reporting-date	promise-date	days-past-promise	buyer-email	buyer-name	buyer-phone-number	sku	product-name	quantity-purchased	quantity-shipped	quantity-to-ship	ship-service-level	recipient-name	ship-address-1	ship-address-2	ship-address-3	ship-city	ship-state	ship-postal-code	ship-country	gift-wrap-type	gift-message-text	is-business-order	purchase-order-number	price-designation
114-0260875-8237878	15507803496914	2020-11-12T12:39:10+00:00	2020-11-12T04:39:10-08:00	2020-11-12T13:07:37+00:00	2020-11-17T07:59:59+00:00	-3	mw3cxtq2glm5btk@marketplace.amazon.com	debbe	+1 619-854-2705 ext. 91915	ABM022	Delivery by Friday | Purple Extravagance Bouquet by Arabella Bouquets	1	0	1	Expedited	Raynette Jervis	415 NEW JERSEY AVE NW NW 			WASHINGTON	DC	20001-2001	US		Feel Better soon from Shiloh, Charlie Bobbi and Debbe From debbe	false		
113-0679250-9208242	16724795287954	2020-11-12T14:26:14+00:00	2020-11-12T06:26:14-08:00	2020-11-12T14:54:22+00:00	2020-11-17T07:59:59+00:00	-3	9bhkzw0f0km28t8@marketplace.amazon.com	gerard r. marconi	+1 619-854-2705 ext. 32468	ABM022	Delivery by Friday | Purple Extravagance Bouquet by Arabella Bouquets	1	0	1	Expedited	Jean Nollmeyer	4621 BACHELORS POINT RD			OXFORD	MD	21654-1459	US		Hope your operation was a success and that we will soon see you in the library. The Oxford Library Volunteers From The Oxford Library Volunteers	false		
113-3252778-3633031	04229582193858	2020-11-12T16:42:09+00:00	2020-11-12T08:42:09-08:00	2020-11-12T17:11:39+00:00	2020-11-17T07:59:59+00:00	-3	t9w8lrcjj6xmfb6@marketplace.amazon.com	Mary L. Norris	+1 929-436-4790 ext. 41846	ABM022	Delivery by Friday | Purple Extravagance Bouquet by Arabella Bouquets	1	0	1	Expedited	Sue Carmichael	9306 MONTPELIER DR			LAUREL	MD	20708-2554	US		Thinking of you in a very special way.  Love you lots. From Honey	false		
114-2938464-8235446	14351560959898	2020-11-12T16:47:19+00:00	2020-11-12T08:47:19-08:00	2020-11-12T17:13:57+00:00	2020-11-17T07:59:59+00:00	-3	v15wdn25zmxb62s@marketplace.amazon.com	Asim SIddiqui	+1 415-851-9136 ext. 34348	ABR001	Delivery by Friday | Arabella Bouquets 12 Stems of Fresh Cut Red Roses in a Free Designer Glass Vase	1	0	1	Expedited	SOHAIB KHALIL	4560 MARSHALL RUN CIR APT 102			GLEN ALLEN	VA	23059-5870	US			false		
112-6705227-5814658	36487841484410	2020-11-12T16:48:29+00:00	2020-11-12T08:48:29-08:00	2020-11-12T17:16:54+00:00	2020-11-17T07:59:59+00:00	-3	06j7rnxyjw9nnjs@marketplace.amazon.com	Daniel P. Friel	+1 619-854-2705 ext. 45398	ABM010	Delivery by Friday | The Spring Fling Bouquet by Arabella Bouquets with a Free Designer Glass Vase	1	0	1	Expedited	Jodi Perry	31 LAUREL HAVEN DR			STAFFORD	VA	22554-5263	US		Lots of hugs and prayers coming your way!   Feel better soon Jodi💕💕 From Cheri and Dan	false		
114-9090182-7089807	36424488213290	2020-11-12T19:27:34+00:00	2020-11-12T11:27:34-08:00	2020-11-12T19:53:53+00:00	2020-11-17T07:59:59+00:00	-3	qs8c6yvp340knpp@marketplace.amazon.com	Joyce M. Roldan	+1 619-854-2705 ext. 78110	ABR0022	Delivery by Saturday | Arabella Farm Direct Bouquet of 12 Fresh Cut Pink Roses with a Free Glass Vase	1	0	1	Standard	Kaci Ross	11117 PUTMAN RD			THURMONT	MD	21788-2748	US		We wish you a speedy recovery!! Take this time to rest and relax. We miss you and appreciate all your hard work always. From Your SAO Family	false		
112-9409557-4332214	04027190039418	2020-11-12T21:47:49+00:00	2020-11-12T13:47:49-08:00	2020-11-12T22:07:11+00:00	2020-11-17T07:59:59+00:00	-3	8dl7w5zl3k370dm@marketplace.amazon.com	sherry agle	+1 213-442-1463 ext. 04001	ABR0055	Delivery by Saturday | Arabella Farm Direct Bouquet of 12 Stems of Fresh Cut Hot Pink Roses in a Free Designer Glass Vase	1	0	1	Expedited	JoAnne Spohn	202 HARRISON CIR			LOCUST GROVE	VA	22508-5316	US		Get better soon.  Love you.  With Love, Grace and family From Grace	false		
114-6286208-8637037	25017553532482	2020-11-12T21:51:29+00:00	2020-11-12T13:51:29-08:00	2020-11-12T22:19:44+00:00	2020-11-17T07:59:59+00:00	-3	ml7cnsx9gc7b5nq@marketplace.amazon.com	Grace Blatterfein	+1 929-436-4790 ext. 35560	ABM020	Delivery by Saturday | The Sunset Bouquet by Arabella Bouquets	1	0	1	Expedited	JoAnn Medina	6801 SUMMER COVE DR			RIVERVIEW	FL	33578-8953	US		Happy 60th Birthday JoAnn!! Love, Larry, Grace, and Family	false		
114-3380068-2731451	52585571799770	2020-11-12T22:51:16+00:00	2020-11-12T14:51:16-08:00	2020-11-12T23:20:09+00:00	2020-11-17T07:59:59+00:00	-3	k0qsjb3ttf6hxhx@marketplace.amazon.com	Spring wells	+1 929-436-4790 ext. 28370	ABM022	Delivery by Saturday | Purple Extravagance Bouquet by Arabella Bouquets	1	0	1	Expedited	Gail Rodriguez	10012 law schooling rd			Charlotte	Nc	28214	US		Hi Gail, Enjoy your gift! Mom happy birthday  From Spring wells	false		
111-2855654-7989827	62006711800842	2020-11-12T23:40:39+00:00	2020-11-12T15:40:39-08:00	2020-11-13T00:10:10+00:00	2020-11-17T07:59:59+00:00	-3	9gzv96sjvsx28tn@marketplace.amazon.com	Jim	1+813-789-7055	ABR0066	Delivery by Monday | Arabella Bouquets 12 Stems of Fresh Cut White Roses in a Free Designer Glass Vase	1	0	1	Expedited	Marian Winters	719 SEDDON COVE WAY			TAMPA	FL	33602-5702	US			false		
114-4746917-1527427	51308780827986	2020-11-13T00:24:11+00:00	2020-11-12T16:24:11-08:00	2020-11-13T00:49:42+00:00	2020-11-17T07:59:59+00:00	-3	tpmqw39tt1yx2zn@marketplace.amazon.com	dawn	+1 602-671-6610 ext. 10933	ABR0066	Delivery by Monday | Arabella Bouquets 12 Stems of Fresh Cut White Roses in a Free Designer Glass Vase	1	0	1	Expedited	Mary Brown	1564 40TH ST			WEST PALM BEACH	FL	33407-3638	US		Dear Mary and Family,  Please accept our sincere condolences on the loss of your brother Ben. We are praying for peace and comfort. From Dawn, Randall and Richard, Jr.	false		
113-8698400-8866615	05920417840346	2020-11-13T00:31:05+00:00	2020-11-12T16:31:05-08:00	2020-11-13T01:00:32+00:00	2020-11-17T07:59:59+00:00	-3	hq9rc0pgpym8lmr@marketplace.amazon.com	mlp	+1 619-854-2705 ext. 74115	ABM010	Delivery by Saturday | The Spring Fling Bouquet by Arabella Bouquets with a Free Designer Glass Vase	1	0	1	Expedited	Sarah Posen	2180 BREWSTER DR UNIT 1023			MYRTLE BEACH	SC	29577-1778	US		Hope you are feeling better. Miss you! Love, Mom & Dad	false		
113-3474746-2493821	51349538248466	2020-11-13T01:30:59+00:00	2020-11-12T17:30:59-08:00	2020-11-13T01:58:15+00:00	2020-11-17T07:59:59+00:00	-3	3y8rw34m7zjs3pq@marketplace.amazon.com	Karen Acker	+1 213-442-1463 ext. 13664	ABR0022	Delivery by Saturday | Arabella Farm Direct Bouquet of 12 Fresh Cut Pink Roses with a Free Glass Vase	1	0	1	Expedited	Amber Litchfield	2008 PALM DR			CHESTER	MD	21619-2359	US		Congratulations on your new home. From Karen Acker	false		
113-6267432-9049844	06093212050034	2020-11-13T01:29:30+00:00	2020-11-12T17:29:30-08:00	2020-11-13T02:51:02+00:00	2020-11-17T07:59:59+00:00	-3	hf5ng80w22zlkv1@marketplace.amazon.com	R B & Deana Scott	+1 213-442-1463 ext. 49036	ABM022	Delivery by Saturday | Purple Extravagance Bouquet by Arabella Bouquets	1	0	1	Expedited	Lynette O' Connell	1094 WILLJAY LN			LAS VEGAS	NV	89123-5951	US		Congratulations Lynette & Angela! We are thinking about you on your special celebration. Hugs, the Raving Team. From R B & Deana Scott	false		
114-4830929-7501816	23320456108986	2020-11-13T03:18:17+00:00	2020-11-12T19:18:17-08:00	2020-11-13T03:47:04+00:00	2020-11-17T07:59:59+00:00	-3	lrxzl01d53h06hv@marketplace.amazon.com	Carly A Moore	+1 602-671-6610 ext. 02701	ABM022	Delivery by Saturday | Purple Extravagance Bouquet by Arabella Bouquets	1	0	1	Expedited	Rosanna Payne	13465 ADEN RD			NOKESVILLE	VA	20181-2819	US		Thinking of you and wishing I could be there to hug you.  Love you! From Carly A Moore	false		
112-3452064-6564222	50300872892890	2020-11-13T07:21:14+00:00	2020-11-12T23:21:14-08:00	2020-11-13T07:50:26+00:00	2020-11-17T07:59:59+00:00	-3	xpxnf8dgkfwtnpn@marketplace.amazon.com	andrew tanner	+1 213-442-1463 ext. 81717	ABM022	Delivery by Saturday | Purple Extravagance Bouquet by Arabella Bouquets	1	0	1	Expedited	Ronda Simon	1440 HARDING PL APT 260			CHARLOTTE	NC	28204-0034	US		Thankful for you in my life!  Happy thanksgiving Ronda  Love,   Andrew From Andrew Tanner	false		
114-8946451-8724249	58464760243498	2020-11-13T11:05:17+00:00	2020-11-13T03:05:17-08:00	2020-11-13T11:30:30+00:00	2020-11-18T07:59:59+00:00	-4	55mcwct56tdmzp8@marketplace.amazon.com	angela diaz	+1 480-618-5344 ext. 04776	ABR001	Delivery by Saturday | Arabella Bouquets 12 Stems of Fresh Cut Red Roses in a Free Designer Glass Vase	1	0	1	Expedited	Kellie Robinson	5548 DONEGAL DR APT 203			VIRGINIA BEACH	VA	23455-2477	US		Kellie, Happy 9 months!   You have such a beautiful heart... thank you for sharing it with me. Love, Angela From angela diaz	false		
114-0539682-8203402	03428558785730	2020-11-13T11:04:46+00:00	2020-11-13T03:04:46-08:00	2020-11-13T11:35:10+00:00	2020-11-18T07:59:59+00:00	-4	vkpmqlt56qmv4c2@marketplace.amazon.com	Brian	+1 213-442-1463 ext. 03462	ABR0055	Delivery by Saturday | Arabella Farm Direct Bouquet of 12 Stems of Fresh Cut Hot Pink Roses in a Free Designer Glass Vase	1	0	1	Expedited	Brian P Canny	2505 GLADE MILL CT			FUQUAY VARINA	NC	27526-3526	US			false		
113-1147303-5661815	15727749441874	2020-11-13T12:53:03+00:00	2020-11-13T04:53:03-08:00	2020-11-13T13:22:12+00:00	2020-11-18T07:59:59+00:00	-4	rsklk5k3w9907kl@marketplace.amazon.com	robert s. batchelder	+1 602-671-6610 ext. 77676	ABR0022	Delivery by Saturday | Arabella Farm Direct Bouquet of 12 Fresh Cut Pink Roses with a Free Glass Vase	1	0	1	Expedited	Robert Batchelder Jr	43547 BARLEY CT			ASHBURN	VA	20147-5454	US		Happy Birthday From Scott	true		
113-3658367-9231458	35791350807802	2020-11-13T14:02:13+00:00	2020-11-13T06:02:13-08:00	2020-11-13T14:32:43+00:00	2020-11-18T07:59:59+00:00	-4	dn74cmf2p0n99ps@marketplace.amazon.com	Arthur Robinson	+1 602-671-6610 ext. 68137	ABR0022	Delivery by Saturday | Arabella Farm Direct Bouquet of 12 Fresh Cut Pink Roses with a Free Glass Vase	1	0	1	Expedited	Shanna Robinson	3322 WILLOUGHBY BEACH RD			EDGEWOOD	MD	21040-3500	US			false		
112-5011782-9269860	34757768791450	2020-11-13T14:53:20+00:00	2020-11-13T06:53:20-08:00	2020-11-13T15:22:07+00:00	2020-11-18T07:59:59+00:00	-4	mmbr4ppyqcrv4lf@marketplace.amazon.com	diane hunt	+1 213-442-1463 ext. 52934	ABM022	Delivery by Saturday | Purple Extravagance Bouquet by Arabella Bouquets	1	0	1	Expedited	Kristen braff	6531 PALISADES DR			CENTREVILLE	VA	20121-3812	US		Wishing you sun shiney days ahead ! From Love Mom and Laura	false		
111-0170744-9669007	35270972166474	2020-11-13T18:17:02+00:00	2020-11-13T10:17:02-08:00	2020-11-13T18:43:59+00:00	2020-11-18T07:59:59+00:00	-4	g2vdrdmcvwym6mc@marketplace.amazon.com	Mandy Martin	+1 929-436-4790 ext. 15793	ABR0022	Delivery by Tuesday | Arabella Farm Direct Bouquet of 12 Fresh Cut Pink Roses with a Free Glass Vase	1	0	1	Expedited	Mary Beth Harrington	410 W 17TH ST			CROWLEY	LA	70526-2726	US		We hope these brighten your day!  Love, Mandy and Brother From Mandy Martin	false		
111-9353361-6469012	10431396975226	2020-11-13T18:17:12+00:00	2020-11-13T10:17:12-08:00	2020-11-13T18:44:28+00:00	2020-11-18T07:59:59+00:00	-4	s22ls8871xfcbb3@marketplace.amazon.com	Kenneth L. Nichols	+1 929-436-4790 ext. 05319	ABM022	Purple Extravagance Bouquet by Arabella Bouquets	1	0	1	Expedited	Marilyn Nichols	600 COTTAGEVIEW DR UNIT 141			TRAVERSE CITY	MI	49684-2630	US		Hi Marilyn, Happy Birthday  From Kenneth L. Nichols	false		
114-9720728-9366661	22331348774258	2020-11-13T18:19:44+00:00	2020-11-13T10:19:44-08:00	2020-11-13T18:47:12+00:00	2020-11-18T07:59:59+00:00	-4	n20xlmrkh6zm3lf@marketplace.amazon.com	michelle weaver	+1 602-671-6610 ext. 28911	ABM010	Delivery by Tuesday | The Spring Fling Bouquet by Arabella Bouquets with a Free Designer Glass Vase	1	0	1	Expedited	Salida Woods Assistant Living attn :Doris Weaver	7685 LAKE SHORE BLVD			MENTOR	OH	44060-3359	US		Happy Thanksgiving! From Chelly & Belinda	false		
111-6727989-9720239	41680206329258	2020-11-13T18:19:45+00:00	2020-11-13T10:19:45-08:00	2020-11-13T18:49:10+00:00	2020-11-18T07:59:59+00:00	-4	cln3k8h3b5hgwvw@marketplace.amazon.com	charlene	+1 619-854-2705 ext. 81538	ABR0055	Delivery by Tuesday | Arabella Farm Direct Bouquet of 12 Stems of Fresh Cut Hot Pink Roses in a Free Designer Glass Vase	1	0	1	Expedited	Charlene Tang	CHARLENE TANG 180 TUCKER AVE			SAN FRANCISCO	CA	94134-2215	US			false		
112-3999118-7300264	30183590099626	2020-11-13T18:30:53+00:00	2020-11-13T10:30:53-08:00	2020-11-13T18:57:03+00:00	2020-11-18T07:59:59+00:00	-4	hp1d3ld1hvzjjy6@marketplace.amazon.com	Dianne Neihengen	+1 602-671-6610 ext. 98499	ABR0033	Delivery by Tuesday | Arabella Farm Direct Bouquet of 12 Fresh Cut Orange Roses with a Free Glass Vase	1	0	1	Expedited	Gail and Bob Rittichier	367 MAYBORNE LN			GENEVA	IL	60134-4699	US		Happy Anniversary! From Love, Dianne and Bill	false		
112-0624864-5913818	51468444261674	2020-11-13T18:50:55+00:00	2020-11-13T10:50:55-08:00	2020-11-13T19:09:54+00:00	2020-11-18T07:59:59+00:00	-4	jwxw86qyy2bt129@marketplace.amazon.com	Charles Wheeler	+1 929-436-4790 ext. 77644	ABM022	Delivery by Tuesday | Purple Extravagance Bouquet by Arabella Bouquets	1	0	1	Expedited	Tzena treadway	1010 WASHINGTON ST APT 18			WATERTOWN	NY	13601-4392	US		Happy birthday! 21+49 From Linda wheeler and bob	false		
112-9256660-7643430	04710103774242	2020-11-13T19:11:49+00:00	2020-11-13T11:11:49-08:00	2020-11-13T19:23:57+00:00	2020-11-18T07:59:59+00:00	-4	84zzv30v8vvbyyp@marketplace.amazon.com	Marvin	+1 602-671-6610 ext. 61310	ABR001	Delivery by Tuesday | Arabella Bouquets 12 Stems of Fresh Cut Red Roses in a Free Designer Glass Vase	1	0	1	Expedited	Colleen Bernie	15300 PALM DR SPC 8			DESERT HOT SPRINGS	CA	92240-6927	US		I thought these might go good with your new furniture. Thinking of you! MD. From Marvin	false		
112-3837723-4336224	09501249095066	2020-11-13T19:05:31+00:00	2020-11-13T11:05:31-08:00	2020-11-13T19:30:07+00:00	2020-11-18T07:59:59+00:00	-4	91x4mmrf61zdz2t@marketplace.amazon.com	Laura Bacon Morgan	+1 929-436-4790 ext. 51774	ABM031	Delivery by Tuesday | The Harvest Moon Bouquet by Arabella Bouquets	1	0	1	Expedited	Debbie Bily	3701 COPPER RIDGE CT			AUSTIN	TX	78734-4367	US		Hope these flowers can help brighten your day. We love you! From Justin, Laura, Avery, Mike, TJ, and Nolin	false		
114-3956980-4959413	11861450657234	2020-11-13T19:03:41+00:00	2020-11-13T11:03:41-08:00	2020-11-13T19:33:18+00:00	2020-11-18T07:59:59+00:00	-4	3j7p0nbflhz91zl@marketplace.amazon.com	Jessica Huett	+1 213-442-1463 ext. 55761	ABM022	Delivery by Tuesday | Purple Extravagance Bouquet by Arabella Bouquets	1	0	1	Expedited	Sharon Feld	1058 BEARDSLEY ST			MONROE	IA	50170-7533	US		Happy Birthday!!! From The Bees!	false		
112-4686423-0820240	14903882227514	2020-11-13T19:21:21+00:00	2020-11-13T11:21:21-08:00	2020-11-13T19:46:10+00:00	2020-11-18T07:59:59+00:00	-4	l017hkm3qmjsnnl@marketplace.amazon.com	Micah	+1 480-618-5344 ext. 34195	ABM024	Delivery by Tuesday | The Beauty of Color Bouquet by Arabella Bouquets	1	0	1	Expedited	Christine Raabe	112 CHEYENNE AVE			EATON	CO	80615-3463	US		Happy Birthday Christine!!   We love you! Jules and Micah From Jukes & Micah	false		
114-2117138-1717850	39963080644394	2020-11-13T19:22:31+00:00	2020-11-13T11:22:31-08:00	2020-11-13T19:50:19+00:00	2020-11-18T07:59:59+00:00	-4	3k0q1gwy257x4sz@marketplace.amazon.com	Yizez Gebrehiwot	+1 480-618-5344 ext. 12135	ABM022	Delivery by Tuesday | Purple Extravagance Bouquet by Arabella Bouquets	1	0	1	Expedited	Lydia Simeane	4444 WESTHEIMER RD APT D525			HOUSTON	TX	77027-4800	US		May your day be as beautiful as those flowers !!!😘 From Yizez	false		
111-4573387-4937059	38711189969658	2020-11-13T19:27:02+00:00	2020-11-13T11:27:02-08:00	2020-11-13T19:56:12+00:00	2020-11-18T07:59:59+00:00	-4	ghqh4109syln419@marketplace.amazon.com	michelle Smith	+1 213-442-1463 ext. 01193	ABM022	Delivery by Tuesday | Purple Extravagance Bouquet by Arabella Bouquets	1	0	1	Expedited	Vandanna Prasad	5743 N DENVER AVE			PORTLAND	OR	97217-4320	US			false		
111-0873115-3693035	35903432717690	2020-11-13T19:33:37+00:00	2020-11-13T11:33:37-08:00	2020-11-13T19:56:46+00:00	2020-11-18T07:59:59+00:00	-4	4q79qn31wxrzysr@marketplace.amazon.com	Gary Zweig	+1 602-671-6610 ext. 84642	ABR0022	Delivery by Tuesday | Arabella Farm Direct Bouquet of 12 Fresh Cut Pink Roses with a Free Glass Vase	1	0	1	Expedited	Makenna Rosen	6713 RIVER TRAIL CT			BETHESDA	MD	20817-4326	US		Happy Birthday Love From Auntie Rickey and Uncle Gary	false		
112-0426977-4787411	21488022872130	2020-11-13T19:40:38+00:00	2020-11-13T11:40:38-08:00	2020-11-13T20:05:44+00:00	2020-11-18T07:59:59+00:00	-4	1mtzbd3kz5tky6b@marketplace.amazon.com	john tang	+1 602-671-6610 ext. 51914	ABR001	Delivery by Tuesday | Arabella Bouquets 12 Stems of Fresh Cut Red Roses in a Free Designer Glass Vase	1	0	1	Expedited	DONNA CHAN	256 EVERETT ST			QUINCY	MA	02170-3207	US		My world wouldn't be the same without you in it.  More good times & memories to come.  HAPPY BIRTHDAY MY LOVE!  I LOVE YOU, Jack From JW	false		
113-4014922-6153020	64777283230026	2020-11-13T20:15:30+00:00	2020-11-13T12:15:30-08:00	2020-11-13T20:42:40+00:00	2020-11-18T07:59:59+00:00	-4	j51pjl70sbvxp0f@marketplace.amazon.com	Spot & Tango	+1 602-671-6610 ext. 75243	ABR0022	Delivery by Tuesday | Arabella Farm Direct Bouquet of 12 Fresh Cut Pink Roses with a Free Glass Vase	1	0	1	Expedited	Ryan Ulfers	15060 ROSEWOOD DR			CLIVE	IA	50325-7861	US		Please accept our sincere condolences on the passing of Herkee. We are keeping you and your family in our thoughts during this difficult time. Love, Spot & Tango From Spot & Tango	false		
112-1988534-1444238	11293228433538	2020-11-13T20:13:25+00:00	2020-11-13T12:13:25-08:00	2020-11-13T20:42:53+00:00	2020-11-18T07:59:59+00:00	-4	bsb7c5d2y1wt8xd@marketplace.amazon.com	Gavin Frye	+1 619-854-2705 ext. 70737	ABR0022	Delivery by Tuesday | Arabella Farm Direct Bouquet of 12 Fresh Cut Pink Roses with a Free Glass Vase	1	0	1	Expedited	Holly Berkley	496 WESTSIDE RD			HEALDSBURG	CA	95448-9496	US		Looking forward to our time together, dear Holly! From Gavin Frye	false		
111-7019248-3669838	01022371911858	2020-11-13T20:20:09+00:00	2020-11-13T12:20:09-08:00	2020-11-13T20:48:49+00:00	2020-11-18T07:59:59+00:00	-4	5cpzzwclmtfzvxs@marketplace.amazon.com	angie constan	+1 619-854-2705 ext. 32375	ABR0055	Delivery by Tuesday | Arabella Farm Direct Bouquet of 12 Stems of Fresh Cut Hot Pink Roses in a Free Designer Glass Vase	1	0	1	Expedited	Laura Moreno	7032 FILKINS AVE			RANCHO CUCAMONGA	CA	91701-6005	US			false		
112-9307570-0869013	55211048081954	2020-11-13T20:27:00+00:00	2020-11-13T12:27:00-08:00	2020-11-13T20:55:09+00:00	2020-11-18T07:59:59+00:00	-4	4xv0k1swq9zvwb8@marketplace.amazon.com	paula friant	+1 929-436-4790 ext. 52568	ABM017	Delivery by Tuesday | Arabella Bouquets 10 Stems of Blue Dendrobium Orchids in a Free Designer Glass Vase	1	0	1	Expedited	Carol Young	3100 STONE ORCHARD PL			CHARLOTTE	NC	28209-1255	US			false		
113-0919344-8071423	25992521463346	2020-11-13T20:37:45+00:00	2020-11-13T12:37:45-08:00	2020-11-13T21:07:51+00:00	2020-11-18T07:59:59+00:00	-4	gf4h62fz9s9shgh@marketplace.amazon.com	Kevin J Elliott	+1 213-442-1463 ext. 43388	ABM022	Delivery by Tuesday | Purple Extravagance Bouquet by Arabella Bouquets	1	0	1	Expedited	Judy Elliott	11150 E SUNRISE RANCH PL			TUCSON	AZ	85749-8357	US			false		
112-0102931-4026675	45884210201666	2020-11-13T20:38:58+00:00	2020-11-13T12:38:58-08:00	2020-11-13T21:09:25+00:00	2020-11-18T07:59:59+00:00	-4	44bkg9l2lwtm47k@marketplace.amazon.com	Megan Evans	+1 415-851-9136 ext. 30626	ABM022	Delivery by Tuesday | Purple Extravagance Bouquet by Arabella Bouquets	1	0	1	Expedited	Andrew Polk	3260 CHING DAIRY RD			MOBILE	AL	36618-4420	US			false		
113-5749589-7690662	47272465191714	2020-11-13T20:42:42+00:00	2020-11-13T12:42:42-08:00	2020-11-13T21:13:04+00:00	2020-11-18T07:59:59+00:00	-4	52z2h09jrr0n2pg@marketplace.amazon.com	Hannah Fairbee	+1 480-618-5344 ext. 04167	ABM022	Delivery by Tuesday | Purple Extravagance Bouquet by Arabella Bouquets	1	0	1	Expedited	Charlotte DeRosa	1345 woodcrest lane			north port	florida	34286	US			false		
113-0182754-4323442	26906404768594	2020-11-13T20:55:47+00:00	2020-11-13T12:55:47-08:00	2020-11-13T21:18:33+00:00	2020-11-18T07:59:59+00:00	-4	10fhzdmbr7qc0w1@marketplace.amazon.com	Marie Nagasawa	+1 213-442-1463 ext. 53216	ABM010	Delivery by Tuesday | The Spring Fling Bouquet by Arabella Bouquets with a Free Designer Glass Vase	1	0	1	Expedited	Avianna Hwang	1585 BEACH PARK BLVD			FOSTER CITY	CA	94404-1437	US		Avianna,  Hope you have a speedy recovery!  We're all thinking of you!  I hope this brightens up your day! From The Domingo Family	false		
114-3473806-5813003	61948516376906	2020-11-13T20:54:22+00:00	2020-11-13T12:54:22-08:00	2020-11-13T21:19:33+00:00	2020-11-18T07:59:59+00:00	-4	310lmc98f5y6m39@marketplace.amazon.com	Janet Benson	+1 213-442-1463 ext. 02091	ABM022	Delivery by Tuesday | Purple Extravagance Bouquet by Arabella Bouquets	1	0	1	Expedited	Lindsey Van Dyken	2450 PANGBORN RD			LYNDEN	WA	98264-9233	US		Happy Birthday!!!! Love you! From Janet Benson	false		
114-8908422-8945009	24146546836754	2020-11-13T20:50:22+00:00	2020-11-13T12:50:22-08:00	2020-11-13T21:19:52+00:00	2020-11-18T07:59:59+00:00	-4	t0d363nd4vwq9jm@marketplace.amazon.com	Marcia	+1 929-436-4790 ext. 00201	ABM020	Delivery by Tuesday | The Sunset Bouquet by Arabella Bouquets	1	0	1	Expedited	Sabra Vigil	6698 JERRY BASS LN			PUEBLO	CO	81005-9617	US		Sabra, I am so sorry for your loss.  Please accept our deepest condolences and know that we are sending our love and prayers. From Marcia and Sydney	false		
111-0702383-3762667	49302642942994	2020-11-13T20:55:52+00:00	2020-11-13T12:55:52-08:00	2020-11-13T21:24:13+00:00	2020-11-18T07:59:59+00:00	-4	g40rsqz0k5nhv8b@marketplace.amazon.com	Joseph Richards	+1 929-436-4790 ext. 12828	ABR0022	Delivery by Tuesday | Arabella Farm Direct Bouquet of 12 Fresh Cut Pink Roses with a Free Glass Vase	1	0	1	Expedited	Pudz	6 THURMONT CT APT 2 B			NOTTINGHAM	MD	21236-3132	US			false		
113-4365550-7583439	42007681413226	2020-11-13T21:07:28+00:00	2020-11-13T13:07:28-08:00	2020-11-13T21:36:52+00:00	2020-11-18T07:59:59+00:00	-4	pm2pmz2wrdbxd30@marketplace.amazon.com	David Shelly	+1 213-442-1463 ext. 08328	ABM022	Delivery by Tuesday | Purple Extravagance Bouquet by Arabella Bouquets	1	0	1	Expedited	Jessica Renaud	12206 QUAIL CREEK DR			HOUSTON	TX	77070-2215	US		Just because From David	false		
114-2054976-3441862	46783261593458	2020-11-13T21:09:21+00:00	2020-11-13T13:09:21-08:00	2020-11-13T21:39:37+00:00	2020-11-18T07:59:59+00:00	-4	9v4z2hytt4f3j1y@marketplace.amazon.com	Vicki Boling	+1 480-618-5344 ext. 78016	ABR0022	Delivery by Tuesday | Arabella Farm Direct Bouquet of 12 Fresh Cut Pink Roses with a Free Glass Vase	1	0	1	Expedited	Lee Hannon	192 RIVERVIEW TER			CLOVER	SC	29710-8939	US			false		
111-5333380-7954630	34310501434826	2020-11-13T21:28:24+00:00	2020-11-13T13:28:24-08:00	2020-11-13T21:55:40+00:00	2020-11-18T07:59:59+00:00	-4	z0ls55131cqbb9b@marketplace.amazon.com	Beth Taylor	+1 213-442-1463 ext. 52884	ABM020	Delivery by Tuesday | The Sunset Bouquet by Arabella Bouquets	1	0	1	Expedited	Margaret Schuler	2714 NE 113TH ST			SEATTLE	WA	98125-6705	US		Dear Margaret & Mike -- We are so sorry for the loss of your wonderful Mom. Please know we are holding you in our hearts. From Love, Beth, Scott & Molly	false		
112-0609037-2982639	67833111317362	2020-11-13T21:41:19+00:00	2020-11-13T13:41:19-08:00	2020-11-13T22:03:03+00:00	2020-11-18T07:59:59+00:00	-4	jy9ygb8n5p7vzct@marketplace.amazon.com	Lois Austin	+1 480-618-5344 ext. 42031	ABR001	Delivery by Tuesday | Arabella Bouquets 12 Stems of Fresh Cut Red Roses in a Free Designer Glass Vase	1	0	1	Expedited	Marilyn Bryant	3225 COMMANCHE TRL			LAFAYETTE	IN	47909-3870	US		HAPPY 80th BIRTHDAY CUZ Love ya' LuLu	false		
112-4588985-0631455	41267932084162	2020-11-13T22:01:46+00:00	2020-11-13T14:01:46-08:00	2020-11-13T22:30:55+00:00	2020-11-18T07:59:59+00:00	-4	dyb7rvfvf4wwv3f@marketplace.amazon.com	MaryJo B. Haggerty	+1 415-851-9136 ext. 96047	ABR0022	Delivery by Tuesday | Arabella Farm Direct Bouquet of 12 Fresh Cut Pink Roses with a Free Glass Vase	1	0	1	Expedited	Cathy Jarvis	1668 TREESIDE DR			ROCHESTER HILLS	MI	48307-3474	US		Hope you enjoy your flowers and have a great birthday celebration, Cath! From MaryJo B. Haggerty	false		
114-8114832-1064262	66551647893186	2020-11-13T22:04:42+00:00	2020-11-13T14:04:42-08:00	2020-11-13T22:31:55+00:00	2020-11-18T07:59:59+00:00	-4	ps5qhdcchc2qzcc@marketplace.amazon.com	Lynn	+1 415-851-9136 ext. 90286	ABM022	Delivery by Tuesday | Purple Extravagance Bouquet by Arabella Bouquets	1	0	1	Expedited	Lee Darby	543 COMSTOCK DR			TIBURON	CA	94920-1309	US			false		
114-1330796-3917051	65468566400778	2020-11-13T22:10:09+00:00	2020-11-13T14:10:09-08:00	2020-11-13T22:38:54+00:00	2020-11-18T07:59:59+00:00	-4	1dn3jz14djyhtvh@marketplace.amazon.com	Jonathan	+1 602-671-6610 ext. 15447	ABM022	Delivery by Tuesday | Purple Extravagance Bouquet by Arabella Bouquets	1	0	1	Expedited	Carmen Yu	737 BRIDGE CREEK DR			SAN RAMON	CA	94582-5650	US		Wishing you a very happy birthday!! May your dearest wishes come true!! I feel extremely lucky to have crossed path with you and call you a friend. I hope your day is as beautiful and special as you! I love you! From Hany	false		
112-6246179-8365805	69638536325402	2020-11-13T22:22:04+00:00	2020-11-13T14:22:04-08:00	2020-11-13T22:49:32+00:00	2020-11-18T07:59:59+00:00	-4	82nkr2fd3g5xhqv@marketplace.amazon.com	J. Fung	+1 619-854-2705 ext. 06427	ABM022	Delivery by Tuesday | Purple Extravagance Bouquet by Arabella Bouquets	1	0	1	Expedited	Sheri Silsby	123 W SECOND ST			CARSON CITY	NV	89703-4225	US		Sheri,  We cant thank you enough for getting us in contact with Dave Moritz Heating to get our central heat up and running again! Enjoy your gift! From James, Jeannie and Jazmyn	false		
113-2298233-1302609	16203884868850	2020-11-13T22:31:03+00:00	2020-11-13T14:31:03-08:00	2020-11-13T22:57:36+00:00	2020-11-18T07:59:59+00:00	-4	rd8p3rgm2yljdb0@marketplace.amazon.com	Valerie A Adair	+1 480-618-5344 ext. 84299	ABM022	Delivery by Tuesday | Purple Extravagance Bouquet by Arabella Bouquets	1	0	1	Expedited	Shelley Hrna	1903 RED FOX LN			HIXSON	TN	37343-3586	US		Shelley  The Quilts are GORGEOUS!  You are our favorite artist. Blessings and love, Lee and Linda. Thank you so much! From Valerie A Adair	false		
113-9804514-2451447	29521800221402	2020-11-13T22:34:09+00:00	2020-11-13T14:34:09-08:00	2020-11-13T23:03:45+00:00	2020-11-18T07:59:59+00:00	-4	c837f521fbwjkl7@marketplace.amazon.com	Dennis P Stolle	+1 213-442-1463 ext. 29027	ABR004	Delivery by Monday | Arabella Farm Direct Bouquet of 12 Fresh Cut Yellow Roses with a Free Glass Vase	1	0	1	Expedited	Dorothy Hellweg	162 BELLINGTON LN			SAINT LOUIS	MO	63141-8117	US		Happy Birthday Mom. We love you. From Julia and Dennis	false		
113-9153660-3733027	11554057989618	2020-11-13T22:43:51+00:00	2020-11-13T14:43:51-08:00	2020-11-13T23:11:16+00:00	2020-11-18T07:59:59+00:00	-4	grx1lps4ykfgb5b@marketplace.amazon.com	Wade H Hicks IV	+1 213-442-1463 ext. 70424	ABM017	Delivery by Tuesday | Arabella Bouquets 10 Stems of Blue Dendrobium Orchids in a Free Designer Glass Vase	1	0	1	Expedited	Kim Dixon	1906 CONIFER CREEK TRL			KINGWOOD	TX	77345-2160	US		We are thinking of you!  Love you guys so much!  Love, LW, Nicole, Little Ninja, Creepy, Oreo, and LuLu From The Hicks & Little Ninja	false		
113-1759703-3796225	40881663706266	2020-11-13T22:57:56+00:00	2020-11-13T14:57:56-08:00	2020-11-13T23:24:29+00:00	2020-11-18T07:59:59+00:00	-4	dhkjt5l47mjbbzj@marketplace.amazon.com	Julie Hwayoung C Shepherd	+1 602-671-6610 ext. 70525	ABR0055	Delivery by Tuesday | Arabella Farm Direct Bouquet of 12 Stems of Fresh Cut Hot Pink Roses in a Free Designer Glass Vase	1	0	1	Expedited	Destiny Henkel	65 HORSE POND RD APT A			SALEM	CT	06420-4039	US		Destiny, We are very sad that you are leaving... However you will do an amazing job of giving people 'hope' and building 'resiliency'. Keep up the good work! From Julie and NEBH gang	false		
113-6844688-0705826	06664715617970	2020-11-13T22:57:59+00:00	2020-11-13T14:57:59-08:00	2020-11-13T23:24:35+00:00	2020-11-18T07:59:59+00:00	-4	jtyygcg87sln76b@marketplace.amazon.com	ddargavel	+1 619-854-2705 ext. 21916	ABM022	Delivery by Tuesday | Purple Extravagance Bouquet by Arabella Bouquets	1	0	1	Expedited	danielle dargavel	431 NW 100TH PL APT 316			SEATTLE	WA	98177-4954	US			false		
113-6957797-3145868	57049552558962	2020-11-13T23:01:59+00:00	2020-11-13T15:01:59-08:00	2020-11-13T23:26:12+00:00	2020-11-18T07:59:59+00:00	-4	21ztb91vsqqhk57@marketplace.amazon.com	Vicki S. Tolbert	+1 602-671-6610 ext. 42497	ABR0055	Delivery by Tuesday | Arabella Farm Direct Bouquet of 12 Stems of Fresh Cut Hot Pink Roses in a Free Designer Glass Vase	1	0	1	Expedited	Amanda Johnson	369 GOODWYN ST			MEMPHIS	TN	38111-3311	US		HAPPY BIRTHDAY, ANGEL!!  You are young in the prime of life ;-). Wish I were with you all 3 + dogs. I love you forever and ever and am sending big hugs and kisses!!! From Vicki	false		
113-7383208-6909061	19919269048602	2020-11-13T23:01:04+00:00	2020-11-13T15:01:04-08:00	2020-11-13T23:31:18+00:00	2020-11-18T07:59:59+00:00	-4	97d5g64z8w6f0xs@marketplace.amazon.com	Johanna Tarazona	+1 602-671-6610 ext. 74973	ABR0022	Delivery by Tuesday | Arabella Farm Direct Bouquet of 12 Fresh Cut Pink Roses with a Free Glass Vase	1	0	1	Expedited	Jennifer Blunda	11147 LAS CRUCES ST FRISCO			FRISCO	TX	75035-5120	US			false		
112-5655525-4209833	17227553394354	2020-11-13T23:03:15+00:00	2020-11-13T15:03:15-08:00	2020-11-13T23:31:48+00:00	2020-11-18T07:59:59+00:00	-4	kj9tktznp0dnbth@marketplace.amazon.com	Loraine Ann Vitelozzi	+1 602-671-6610 ext. 64778	ABM022	Delivery by Tuesday | Purple Extravagance Bouquet by Arabella Bouquets	1	0	1	Expedited	Norma Rowe	1008 HARBOR DR			ANNAPOLIS	MD	21403-4227	US		Dear  Norma,  We are thinking of you!  Love, Lori, Dick, boys and girls From Loraine Ann Vitelozzi	false		
111-7479237-1696200	07167976965154	2020-11-13T23:07:13+00:00	2020-11-13T15:07:13-08:00	2020-11-13T23:37:24+00:00	2020-11-18T07:59:59+00:00	-4	zkxnrbds7qq61hl@marketplace.amazon.com	Clover Sonoma	+1 415-851-9136 ext. 90202	ABR0022	Delivery by Tuesday | Arabella Farm Direct Bouquet of 12 Fresh Cut Pink Roses with a Free Glass Vase	1	0	1	Expedited	Clover Sonoma - Joanne	867 6TH ST			PETALUMA	CA	94952-4923	US			false		
112-6343313-1155413	12978415771938	2020-11-13T23:24:32+00:00	2020-11-13T15:24:32-08:00	2020-11-13T23:43:16+00:00	2020-11-18T07:59:59+00:00	-4	nsrbzmbg8cxz4dr@marketplace.amazon.com	John G Watson	+1 602-671-6610 ext. 56676	ABR0022	Delivery by Tuesday | Arabella Farm Direct Bouquet of 12 Fresh Cut Pink Roses with a Free Glass Vase	1	0	1	Expedited	Helen Watson	HEALTH CENTER 1596 BOYCE RD			PITTSBURGH	PA	15241-2903	US			false		
112-9913145-6823467	21761718982122	2020-11-13T23:33:29+00:00	2020-11-13T15:33:29-08:00	2020-11-14T00:01:45+00:00	2020-11-18T07:59:59+00:00	-4	jdb9brk2265tjrp@marketplace.amazon.com	Christina Foster	+1 619-854-2705 ext. 86538	ABM022	Delivery by Tuesday | Purple Extravagance Bouquet by Arabella Bouquets	1	0	1	Expedited	Bree Berlinguet	6016 W TWIN SPRINGS DR			BOISE	ID	83709-3166	US		Happy Anniversary!! 2 years (aka 24 in Paycom years! We love you Bree! From Seattle TSR fam	false		
113-9118015-3552217	29024979280378	2020-11-13T23:44:32+00:00	2020-11-13T15:44:32-08:00	2020-11-14T00:09:22+00:00	2020-11-18T07:59:59+00:00	-4	f8bpcbd5bs588z4@marketplace.amazon.com	christina curling	+1 929-436-4790 ext. 78742	ABM0033	Delivery by Tuesday | Arabella Farm Direct Bouquet of Fresh Cut White Hydrangea with a Free Glass Vase	1	0	1	Expedited	Missy Albertson	1408 10TH ST			BAY CITY	MI	48708-6629	US		Happy birthday, Missy Lots of love, Chris, Jim and the girls From christina curling	false		
113-1974009-7403449	01124943528498	2020-11-13T23:39:28+00:00	2020-11-13T15:39:28-08:00	2020-11-14T00:12:04+00:00	2020-11-18T07:59:59+00:00	-4	sxqk2d79djgv7kp@marketplace.amazon.com	Denise Lammers	+1 602-671-6610 ext. 27548	ABR0055	Delivery by Tuesday | Arabella Farm Direct Bouquet of 12 Stems of Fresh Cut Hot Pink Roses in a Free Designer Glass Vase	1	0	1	Expedited	Chloe Lammers	103 W OAKLAND AVE			COLUMBUS	OH	43201-1017	US		Happy 21st Birthday! You had us at “Hello”. From Love Mom and Dad	false		
111-0168174-3737044	46164979177706	2020-11-13T23:54:11+00:00	2020-11-13T15:54:11-08:00	2020-11-14T00:21:59+00:00	2020-11-18T07:59:59+00:00	-4	p9kqt3hk0wtp5g0@marketplace.amazon.com	Eugene Emerson	+1 619-854-2705 ext. 77617	ABR0022	Delivery by Tuesday | Arabella Farm Direct Bouquet of 12 Fresh Cut Pink Roses with a Free Glass Vase	1	0	1	Expedited	Eugene Emerson	6384 Landstone Drive			Clarence Center	NY	14032	US		I hope you feel better soon. I miss you so much!  All my love Joseph From Eugene Emerson	false		
113-9074250-5208220	19703072631330	2020-11-13T23:55:32+00:00	2020-11-13T15:55:32-08:00	2020-11-14T00:24:08+00:00	2020-11-18T07:59:59+00:00	-4	5q7ymtvttl5wkrq@marketplace.amazon.com	Katie Jones	+1 619-854-2705 ext. 53027	ABM017	Delivery by Tuesday | Arabella Bouquets 10 Stems of Blue Dendrobium Orchids in a Free Designer Glass Vase	1	0	1	Expedited	Kacey Cilimberg	605 BELLE TERRE CIR			VESTAVIA	AL	35226-2419	US		I'm sorry I couldn't celebrate baby Noah with you. Freaking COVID!!!! Love you From KATE	false		
112-3297903-1881836	21215194334410	2020-11-14T00:11:41+00:00	2020-11-13T16:11:41-08:00	2020-11-14T00:41:05+00:00	2020-11-18T07:59:59+00:00	-4	rpgnl7927cjttzn@marketplace.amazon.com	Vera	+1 619-854-2705 ext. 99843	ABC004	Delivery by Tuesday | Arabella Bouquets 10 Stems of Purple Dendrobium Orchids in a Free Designer Glass Vase	1	0	1	Expedited	Julie Karaman	6429 SAINT JAMES DR			CARMICHAEL	CA	95608-0961	US			false		
111-4398330-8509861	05170811883986	2020-11-14T00:21:17+00:00	2020-11-13T16:21:17-08:00	2020-11-14T00:49:24+00:00	2020-11-18T07:59:59+00:00	-4	73smk1hyxy8nrvq@marketplace.amazon.com	Ric Lwin	+1 213-442-1463 ext. 50138	ABM022	Delivery by Tuesday | Purple Extravagance Bouquet by Arabella Bouquets	1	0	1	Expedited	Alison Bo	3025 HASTINGS AVE			REDWOOD CITY	CA	94061-1944	US		Welcome to the world Baby Leia! We can't wait to meet you soon. From Viv + Ric + Everest + Nile	false		
111-4467820-8162667	08410573799722	2020-11-14T00:48:27+00:00	2020-11-13T16:48:27-08:00	2020-11-14T01:13:39+00:00	2020-11-18T07:59:59+00:00	-4	vx885n0qxfb65ql@marketplace.amazon.com	Jane Ferry	+1 213-442-1463 ext. 69904	ABR0022	Delivery by Tuesday | Arabella Farm Direct Bouquet of 12 Fresh Cut Pink Roses with a Free Glass Vase	1	0	1	Expedited	Eleanor Peacock	1140 COLUMBIA DR			LONGMONT	CO	80503-2174	US		My dearest dearest Gia, Here is wishing you the loveliest day imaginable.  Know how much you are cherished by all of us. Love, Mom	false		
112-0869227-3354622	54712152118842	2020-11-14T00:44:26+00:00	2020-11-13T16:44:26-08:00	2020-11-14T01:13:44+00:00	2020-11-18T07:59:59+00:00	-4	w6006nrzkgvbw0h@marketplace.amazon.com	paula	+1 619-854-2705 ext. 38361	ABR001	Delivery by Tuesday | Arabella Bouquets 12 Stems of Fresh Cut Red Roses in a Free Designer Glass Vase	1	0	1	Expedited	Rosemary Douglass	313 VISTA CT UNIT H			MINOOKA	IL	60447-9011	US		Happy Birthday Mom! Love You, Paula and Bentley From paula	false		
112-3902441-9701013	28876985372042	2020-11-14T01:06:20+00:00	2020-11-13T17:06:20-08:00	2020-11-14T01:33:05+00:00	2020-11-18T07:59:59+00:00	-4	3pc76kbn0fm2n7c@marketplace.amazon.com	Claire Conner	+1 619-854-2705 ext. 93882	ABM017	Delivery by Tuesday | Arabella Bouquets 10 Stems of Blue Dendrobium Orchids in a Free Designer Glass Vase	1	0	1	Expedited	Cynthia Conner	4539 W 56TH ST			EDINA	MN	55424-1556	US		Think of raspberries and how the nicest man in the world loved to whip your children off the tube and drive the malibu as fast as possible.  Love you From Lulu Conner	false		
111-6204127-5892267	36333413647386	2020-11-14T01:32:59+00:00	2020-11-13T17:32:59-08:00	2020-11-14T01:57:26+00:00	2020-11-18T07:59:59+00:00	-4	yrf1rvbdhghm5sz@marketplace.amazon.com	norma aggenstos	+1 619-854-2705 ext. 76215	ABM022	Delivery by Tuesday | Purple Extravagance Bouquet by Arabella Bouquets	1	0	1	Expedited	Cathi Mason	1154 S MASON ST			CARLTON	OR	97111-9603	US		Happy belated birthday!! From norma and brenda	false		
112-0644575-0403453	66949309489986	2020-11-14T01:35:51+00:00	2020-11-13T17:35:51-08:00	2020-11-14T02:05:57+00:00	2020-11-18T07:59:59+00:00	-4	hzx3r67k5rlnm88@marketplace.amazon.com	Rodney Douglas	+1 480-618-5344 ext. 21737	ABR001	Delivery by Tuesday | Arabella Bouquets 12 Stems of Fresh Cut Red Roses in a Free Designer Glass Vase	1	0	1	Expedited	Clare Esson	231 EMERY RD			ANDOVER	NH	03216-4120	US			false		
113-4236667-6465838	48506347083194	2020-11-14T01:52:02+00:00	2020-11-13T17:52:02-08:00	2020-11-14T02:16:10+00:00	2020-11-18T07:59:59+00:00	-4	z4zxjf7q3tvrsc4@marketplace.amazon.com	Carmeleen Velayo	+1 213-442-1463 ext. 84725	ABM0044	Delivery by Tuesday | Arabella Farm Direct Bouquet of Fresh Cut Blue Hydrangea with a Free Glass Vase	1	0	1	Expedited	Marilyn Dizon	14223 MINNEHAHA ST			MISSION HILLS	CALIFORNIA	91345-2315	US		Happy Birthday, Tita Lyn,   Wishing you many birthday blessings! Wish we could be there to celebrate with you. We miss you. We love you. Enjoy your day! From Boj, Milen & Mirei	false		
114-3474552-1061861	04694433514042	2020-11-14T02:04:16+00:00	2020-11-13T18:04:16-08:00	2020-11-14T02:28:33+00:00	2020-11-18T07:59:59+00:00	-4	lt1pq4k1t6pgh1k@marketplace.amazon.com	Iftikhar Anees	+1 480-618-5344 ext. 53717	ABR0022	Delivery by Tuesday | Arabella Farm Direct Bouquet of 12 Fresh Cut Pink Roses with a Free Glass Vase	1	0	1	Expedited	Hamza Viquar	7701 LOGAN DR			YORKTOWN	IN	47396-6851	US		Congratulations to Hamza and Zoya on the arrival of a beautiful baby girl Ayra. From Iftikhar, Yasmin, Safia and Nadia Anees	false		
114-4204280-5598632	09362965407762	2020-11-14T02:07:15+00:00	2020-11-13T18:07:15-08:00	2020-11-14T02:35:31+00:00	2020-11-18T07:59:59+00:00	-4	qyq9w9p47gwv5y0@marketplace.amazon.com	Vicki Miller	+1 602-671-6610 ext. 76086	ABR0022	Delivery by Tuesday | Arabella Farm Direct Bouquet of 12 Fresh Cut Pink Roses with a Free Glass Vase	1	0	1	Expedited	Amara Adams	2730 FERN DR			GREAT FALLS	MT	59404-3638	US		Enjoy your gift! Happy Birthday Amara        Rick And Vicki From Vicki Miller	false		
113-9099174-2276201	31512623118370	2020-11-14T02:11:14+00:00	2020-11-13T18:11:14-08:00	2020-11-14T02:39:04+00:00	2020-11-18T07:59:59+00:00	-4	8dgchjq36ym7rtd@marketplace.amazon.com	Jack bied	+1 602-671-6610 ext. 07748	ABR0033	Delivery by Tuesday | Arabella Farm Direct Bouquet of 12 Fresh Cut Orange Roses with a Free Glass Vase	1	0	1	Expedited	Julie Blain	2985 E. Saint James Ave			Hayden	ID	83835	US			false		
114-8428010-9057011	08623709077370	2020-11-14T02:14:03+00:00	2020-11-13T18:14:03-08:00	2020-11-14T02:40:44+00:00	2020-11-18T07:59:59+00:00	-4	0c47640nqbh2xfj@marketplace.amazon.com	katrina m poovey	+1 929-436-4790 ext. 57816	ABM020	Delivery by Tuesday | The Sunset Bouquet by Arabella Bouquets	1	0	1	Expedited	Ms. Patricia McLaughlin    (C/O Tisha Heyssel)	14518 MONTICELLO DR			COOKSVILLE	MD	21723-9622	US		Happy Birthday To You.  Happy Birthday To You.  Happy Birthday Dear Aunt Patty.  Happy Birthday To You !!!!  With love always, xoxoxoxo From Katrina and Carroll	false		
111-7229819-0735411	35399365351634	2020-11-14T02:24:00+00:00	2020-11-13T18:24:00-08:00	2020-11-14T02:51:08+00:00	2020-11-18T07:59:59+00:00	-4	pp8xwsc82jb5rjj@marketplace.amazon.com	Sarah Cermak	+1 929-436-4790 ext. 96338	ABM022	Delivery by Tuesday | Purple Extravagance Bouquet by Arabella Bouquets	1	0	1	Expedited	Uncle Lyn and Aunt Donna	454 AMELIA ROSE CT			FRUITA	CO	81521-2097	US		We love you both and our arms are wrapped around you.  You are constantly in our thoughts and prayers ❤️ From Josh, Sarah and Joshua Cermak	false		
111-6022959-3610639	51740638710346	2020-11-14T02:24:24+00:00	2020-11-13T18:24:24-08:00	2020-11-14T02:53:48+00:00	2020-11-18T07:59:59+00:00	-4	3xjwm71nn4xr9vk@marketplace.amazon.com	Garrett Jackson	+1 213-442-1463 ext. 47381	ABR0055	Delivery by Tuesday | Arabella Farm Direct Bouquet of 12 Stems of Fresh Cut Hot Pink Roses in a Free Designer Glass Vase	1	0	1	Expedited	Rick & Darcie Jackson	2961 NW BETH LN			POULSBO	WA	98370-7230	US		IT'S SAD YOUR DOG IS DEAD. -GARRETT From Garrett Jackson	false		
113-0668730-1694659	40397611378250	2020-11-14T02:31:46+00:00	2020-11-13T18:31:46-08:00	2020-11-14T03:00:12+00:00	2020-11-18T07:59:59+00:00	-4	bzcjhhnnf8fz89h@marketplace.amazon.com	Kevin McClure	+1 213-442-1463 ext. 90232	ABR001	Delivery by Tuesday | Arabella Bouquets 12 Stems of Fresh Cut Red Roses in a Free Designer Glass Vase	1	0	1	Expedited	Gary McClure	17658 W 778 RD			TAHLEQUAH	OK	74464-7384	US		Hope this brightens your day.  Get well soon. From Love Sarah & Kevin	false		
112-6006160-5353831	62196105159146	2020-11-14T02:56:46+00:00	2020-11-13T18:56:46-08:00	2020-11-14T03:02:23+00:00	2020-11-18T07:59:59+00:00	-4	hwl0p18jxhzk7wx@marketplace.amazon.com	Yardley Goldon	+1 619-854-2705 ext. 44429	ABM017	Delivery by Tuesday | Arabella Bouquets 10 Stems of Blue Dendrobium Orchids in a Free Designer Glass Vase	1	0	1	Expedited	Susan Rosenberg	387 GRAND ST APT  K1007			NEW YORK	NY	10002-3986	US		In case no one hasn't  told you.   YOU ARE A GREAT MOM!  I hope these flowers brighten up your day, I know these few months have been tough but you got it Susan ! From Yardley Goldon	false		
113-7319332-5487404	57942189804930	2020-11-14T02:34:51+00:00	2020-11-13T18:34:51-08:00	2020-11-14T03:05:32+00:00	2020-11-18T07:59:59+00:00	-4	33rwxzcbmxfky2f@marketplace.amazon.com	Travis	+1 480-618-5344 ext. 42692	ABR0055	Delivery by Tuesday | Arabella Farm Direct Bouquet of 12 Stems of Fresh Cut Hot Pink Roses in a Free Designer Glass Vase	1	0	1	Expedited	Travis Sanders	1902 LASSEN AVE			RICHLAND	WA	99354-2234	US			false		
114-4937266-9446644	48041438639554	2020-11-14T02:55:24+00:00	2020-11-13T18:55:24-08:00	2020-11-14T03:18:35+00:00	2020-11-18T07:59:59+00:00	-4	x94p7k7v1mynsk3@marketplace.amazon.com	Linda Halkias	+1 480-618-5344 ext. 04201	ABR001	Delivery by Tuesday | Arabella Bouquets 12 Stems of Fresh Cut Red Roses in a Free Designer Glass Vase	1	0	1	Expedited	Nicole Saxon	10931 CEDAR LN			HUNTERSVILLE	NC	28078-9724	US		Happy 6 months babe. I love you From Alex Halkias	false		
113-3922690-7804212	49198492765994	2020-11-14T02:52:07+00:00	2020-11-13T18:52:07-08:00	2020-11-14T03:20:19+00:00	2020-11-18T07:59:59+00:00	-4	m9m2sz7qn7vn0m7@marketplace.amazon.com	Gregory J Ternus	+1 480-618-5344 ext. 31171	ABR0033	Delivery by Tuesday | Arabella Farm Direct Bouquet of 12 Fresh Cut Orange Roses with a Free Glass Vase	1	0	1	Expedited	Tillie Benson	4205 LIVINGSTON AVE			DALLAS	TX	75205-2703	US		Congrats to you Tillie!  So proud of you! From Greg and Lynne	false		
113-0293023-8621873	29402349996394	2020-11-14T02:52:00+00:00	2020-11-13T18:52:00-08:00	2020-11-14T03:21:58+00:00	2020-11-18T07:59:59+00:00	-4	v5w6sbrvym1jcnw@marketplace.amazon.com	Karen Atkins	+1 619-854-2705 ext. 00267	ABM017	Delivery by Tuesday | Arabella Bouquets 10 Stems of Blue Dendrobium Orchids in a Free Designer Glass Vase	1	0	1	Expedited	Betty Overmyer	4630 VINEWOOD WAY			JOHNSTOWN	CO	80534-2403	US			false		
113-5945627-9969856	37058870001978	2020-11-14T03:06:33+00:00	2020-11-13T19:06:33-08:00	2020-11-14T03:34:31+00:00	2020-11-18T07:59:59+00:00	-4	9g653hx3wjx3y3b@marketplace.amazon.com	Stephanie Shaw	+1 480-618-5344 ext. 93640	ABR0022	Delivery by Tuesday | Arabella Farm Direct Bouquet of 12 Fresh Cut Pink Roses with a Free Glass Vase	1	0	1	Expedited	Donna Chartier	5502 W OLD FORT DR			SPOKANE	WA	99208-3892	US		Donna, Because you are an amazing woman!!! Love ya! From Steph	false		
111-6120901-4829842	67558823931562	2020-11-14T03:17:13+00:00	2020-11-13T19:17:13-08:00	2020-11-14T03:36:49+00:00	2020-11-18T07:59:59+00:00	-4	wpsjz7hj6fls4y1@marketplace.amazon.com	Sandy Yockey	+1 929-436-4790 ext. 11819	ABR0022	Delivery by Tuesday | Arabella Farm Direct Bouquet of 12 Fresh Cut Pink Roses with a Free Glass Vase	1	0	1	Expedited	Joyce Hochstatter	18549 COACHLIGHT LN			STERLING	IL	61081-9566	US		To have and to hold from this day forward, for better, for worse, for richer, for poorer, in sickness and in health, to love and to cherish, til death do us part - thanks for 57 faithful years! Love you always, From Brian	false		
112-7985165-9760261	22263032224738	2020-11-14T03:59:43+00:00	2020-11-13T19:59:43-08:00	2020-11-14T04:00:35+00:00	2020-11-18T07:59:59+00:00	-4	ls0cfch1bnm2tww@marketplace.amazon.com	adrian patrick o'reilly	+1 480-618-5344 ext. 59251	ABM020	Delivery by Tuesday | The Sunset Bouquet by Arabella Bouquets	1	0	1	Expedited	Casey O’Reilly	3413 ADMIRALTY LN			INDIANAPOLIS	IN	46240-3566	US			false		
111-1235528-3941805	60606317559098	2020-11-14T03:51:27+00:00	2020-11-13T19:51:27-08:00	2020-11-14T04:20:37+00:00	2020-11-18T07:59:59+00:00	-4	zrvbcq906c3z0wz@marketplace.amazon.com	Victoria	+1 619-854-2705 ext. 53542	ABB011	Delivery by Tuesday | Arabella Bouquets 24 Stems of Fresh Cut Hot Pink Roses in a Free Designer Glass Vase	1	0	1	Expedited	Marie Felix	550 GEORGIA AVE APT 1			BROOKLYN	NY	11207-6462	US		Happy Birthday Mom!!!! Thank you for being the light in my life, I don’t know where I would be without you! From Your Oldest Daughter	false		
111-5383995-6337830	42120115451402	2020-11-14T03:46:47+00:00	2020-11-13T19:46:47-08:00	2020-11-14T04:21:06+00:00	2020-11-18T07:59:59+00:00	-4	pwv8yj9xzjcfjbh@marketplace.amazon.com	Ainsley allen	+1 213-442-1463 ext. 43957	ABM002	Delivery by Tuesday | Arabella Bouquets Fresh Cut White Calla Lilies in a Free Designer Glass Vase	1	0	1	Expedited	Shalena Allen	878 TILLMAN RD			LA CROSSE	VA	23950-2131	US			false		
111-2016197-6653060	22432630194298	2020-11-14T03:57:42+00:00	2020-11-13T19:57:42-08:00	2020-11-14T04:21:43+00:00	2020-11-18T07:59:59+00:00	-4	mv50bt70kdljscz@marketplace.amazon.com	Corean Reynolds	+1 213-442-1463 ext. 99757	ABR0022	Delivery by Tuesday | Arabella Farm Direct Bouquet of 12 Fresh Cut Pink Roses with a Free Glass Vase	1	0	1	Expedited	Corean Reynolds	1905 HOTEL PLAZA BLVD			LAKE BUENA VISTA	FL	32830-8438	US			false		
114-3482091-1765013	02156516176314	2020-11-14T03:57:20+00:00	2020-11-13T19:57:20-08:00	2020-11-14T04:27:11+00:00	2020-11-18T07:59:59+00:00	-4	pd4pvygrxd855cz@marketplace.amazon.com	joanne schultis	+1 415-851-9136 ext. 31216	ABM022	Delivery by Tuesday | Purple Extravagance Bouquet by Arabella Bouquets	1	0	1	Expedited	Marie Lorensen	719 EUWANEE PL			NORFOLK	VA	23503-5326	US			false		
111-4307902-3313828	46957453807474	2020-11-14T04:11:19+00:00	2020-11-13T20:11:19-08:00	2020-11-14T04:39:39+00:00	2020-11-18T07:59:59+00:00	-4	37nwgq6rkw3961l@marketplace.amazon.com	Chris Calderwood	+1 213-442-1463 ext. 75417	ABM022	Delivery by Tuesday | Purple Extravagance Bouquet by Arabella Bouquets	1	0	1	Expedited	Sheila Doyschen	19127 N 94TH AVE			PEORIA	AZ	85382-3675	US		Thinking of you and wishing you a speedy recovery! From Chris & Maureen Calderwood	false		
113-4937559-0434613	11015812703570	2020-11-14T04:29:09+00:00	2020-11-13T20:29:09-08:00	2020-11-14T04:54:02+00:00	2020-11-18T07:59:59+00:00	-4	29qz0ypmqsxzjm4@marketplace.amazon.com	Jeremy Lambert	+1 213-442-1463 ext. 47197	ABR0022	Delivery by Tuesday | Arabella Farm Direct Bouquet of 12 Fresh Cut Pink Roses with a Free Glass Vase	1	0	1	Expedited	Sydney Adamson	2107 E VIRGINIA AVE			DENVER	CO	80209-2721	US		Miss you! Proud of you for everything you’re doing. You’re killin it! 💚  P.s- thought I would send you flowers too since I sent some to Carmen already. From Secret Admirer	false		
112-8123754-2068202	50027221189674	2020-11-14T04:34:05+00:00	2020-11-13T20:34:05-08:00	2020-11-14T05:04:19+00:00	2020-11-18T07:59:59+00:00	-4	gy3pxkthd6jnd5l@marketplace.amazon.com	james w myers jr	+1 929-436-4790 ext. 48057	ABM010	Delivery by Tuesday | The Spring Fling Bouquet by Arabella Bouquets with a Free Designer Glass Vase	1	0	1	Expedited	JIM AMD MARY K MYERS	8945 SW ASH MEADOWS CIR APT 125			WILSONVILLE	OR	97070-6231	US			false		
114-4453894-6992246	30533870560730	2020-11-14T04:41:12+00:00	2020-11-13T20:41:12-08:00	2020-11-14T05:10:04+00:00	2020-11-18T07:59:59+00:00	-4	ksn0z3r758ghwkr@marketplace.amazon.com	Nichole Lewis	+1 213-442-1463 ext. 45121	ABR004	Delivery by Monday | Arabella Farm Direct Bouquet of 12 Fresh Cut Yellow Roses with a Free Glass Vase	1	0	1	Expedited	Theresa Kawski	1900 CENTRE POINTE BLVD APT 34			TALLAHASSEE	FL	32308-4875	US		HAPPY HAPPY BIRTHDAY!!! We love you very much and hope that you enjoy your special day! Love, Nikki, Dylan, and Winston From Nichole Lewis	false		
111-2418356-5143430	00195252816794	2020-11-14T05:10:07+00:00	2020-11-13T21:10:07-08:00	2020-11-14T05:22:11+00:00	2020-11-18T07:59:59+00:00	-4	11x643hj8bbckmh@marketplace.amazon.com	Chris Joyner	901338861	ABM010	Delivery by Tuesday | The Spring Fling Bouquet by Arabella Bouquets with a Free Designer Glass Vase	1	0	1	Expedited	Angela dads place	24 MONFERRATO CT			BEAR	DE	19701-2546	US		If you just so happen to be feeling down. I hope this will cheer you up baby girl.... I Love U More Than Most From Chris baby yum yum	false		
113-2539529-5287400	33567677992034	2020-11-14T04:59:59+00:00	2020-11-13T20:59:59-08:00	2020-11-14T05:28:51+00:00	2020-11-18T07:59:59+00:00	-4	49k3y7mbpw8gvw6@marketplace.amazon.com	Rebecca Lavine	+1 929-436-4790 ext. 80284	ABM010	Delivery by Tuesday | The Spring Fling Bouquet by Arabella Bouquets with a Free Designer Glass Vase	1	0	1	Expedited	Nancy Shapir	35 WALDEN ST APT 3G			CAMBRIDGE	MA	02140-2030	US		You shouldn't have told me how much you like getting flowers.  Love you. A&E From Rebecca Lavine	false		
114-3514020-6132269	52803878568130	2020-11-14T05:09:11+00:00	2020-11-13T21:09:11-08:00	2020-11-14T05:39:24+00:00	2020-11-18T07:59:59+00:00	-4	0v1ztd75z4gf9m1@marketplace.amazon.com	Edith Becker	+1 602-671-6610 ext. 34635	ABR0022	Delivery by Tuesday | Arabella Farm Direct Bouquet of 12 Fresh Cut Pink Roses with a Free Glass Vase	1	0	1	Expedited	Edith Becker\billie parks	11806 PAYTON MANOR DR			BAKERSFIELD	CA	93312-5856	US			false		
113-9516894-6165845	20275707429706	2020-11-14T05:12:11+00:00	2020-11-13T21:12:11-08:00	2020-11-14T05:42:34+00:00	2020-11-18T07:59:59+00:00	-4	38kf28px9l4lbxg@marketplace.amazon.com	Lisa	+1 602-671-6610 ext. 98250	ABM022	Delivery by Tuesday | Purple Extravagance Bouquet by Arabella Bouquets	1	0	1	Expedited	Lisa	326 S CRAIG PL			LOMBARD	IL	60148-2710	US			false		
112-9045619-3325869	10397703148066	2020-11-14T05:22:42+00:00	2020-11-13T21:22:42-08:00	2020-11-14T05:50:52+00:00	2020-11-18T07:59:59+00:00	-4	6wby3s82tjcdqn1@marketplace.amazon.com	Nicholas Palsha	+1 602-671-6610 ext. 57471	ABR0055	Delivery by Tuesday | Arabella Farm Direct Bouquet of 12 Stems of Fresh Cut Hot Pink Roses in a Free Designer Glass Vase	1	0	1	Expedited	Katie Palsha	1053 W 1020 S			PROVO	UT	84601-5656	US		We are so proud of you and all the hard work you have put in. We love you so much! See you soon! From Daddy, piglet, bro and lu	false		
112-6860603-6867433	43455557904514	2020-11-14T05:37:27+00:00	2020-11-13T21:37:27-08:00	2020-11-14T06:04:22+00:00	2020-11-18T07:59:59+00:00	-4	xnztb81c3gtd0s3@marketplace.amazon.com	Stanley Templeman	+1 213-442-1463 ext. 57200	ABM022	Delivery by Tuesday | Purple Extravagance Bouquet by Arabella Bouquets	1	0	1	Expedited	Clara Carter	519 SWISS DR			MARION	OH	43302-6029	US			false		
113-5994335-2474606	59839710267194	2020-11-14T05:54:27+00:00	2020-11-13T21:54:27-08:00	2020-11-14T06:10:34+00:00	2020-11-18T07:59:59+00:00	-4	74wxyt5vqbbdlg0@marketplace.amazon.com	J.Moe	+1 213-442-1463 ext. 41829	ABM0033	Delivery by Tuesday | Arabella Farm Direct Bouquet of Fresh Cut White Hydrangea with a Free Glass Vase	1	0	1	Expedited	Jean Batthany & Family	241 PACIFIC ST			SANTA MONICA	CA	90405-2303	US		Jean,I believe nice people deserve nice surprises.You are one of the nicest, most selfless people I know, & very deserving of a 'surprise' hug.Congratulations on your new house! I hope there's an extra bedroom for me when I visit. xxoo Jackie Moe	false		
113-8149488-3488261	51744696207970	2020-11-14T06:39:26+00:00	2020-11-13T22:39:26-08:00	2020-11-14T07:07:26+00:00	2020-11-18T07:59:59+00:00	-4	f6tw4zs6w7wk0xz@marketplace.amazon.com	berlin matthews	+1 602-671-6610 ext. 09695	ABR0055	Delivery by Tuesday | Arabella Farm Direct Bouquet of 12 Stems of Fresh Cut Hot Pink Roses in a Free Designer Glass Vase	1	0	1	Expedited	Berlin Matthews	765 W STANDARD AVE			HERMISTON	OR	97838-1271	US		To Monica These are for the love of my life. From Your husband that you through water on while I was pooping.	false		
113-9107299-4995441	30462665016338	2020-11-14T06:38:50+00:00	2020-11-13T22:38:50-08:00	2020-11-14T07:09:12+00:00	2020-11-18T07:59:59+00:00	-4	nlby82r1443kf3l@marketplace.amazon.com	Erika A Lendy	+1 480-618-5344 ext. 88335	ABR0022	Delivery by Tuesday | Arabella Farm Direct Bouquet of 12 Fresh Cut Pink Roses with a Free Glass Vase	1	0	1	Expedited	ERIKA LENDY	422 FRANK MONSEN DR			SNOHOMISH	WA	98290-9524	US			false		
111-8217388-8003452	33207697722410	2020-11-14T06:56:37+00:00	2020-11-13T22:56:37-08:00	2020-11-14T07:23:16+00:00	2020-11-18T07:59:59+00:00	-4	qc3pf0bx4b38hby@marketplace.amazon.com	Janice voth	+1 602-671-6610 ext. 66099	ABM010	Delivery by Tuesday | The Spring Fling Bouquet by Arabella Bouquets with a Free Designer Glass Vase	1	0	1	Expedited	Teri Voth	307 ARABICA RD			WALLA WALLA	WA	99362-1768	US			false		
113-0680402-7187466	62006101085090	2020-11-14T07:07:16+00:00	2020-11-13T23:07:16-08:00	2020-11-14T07:30:28+00:00	2020-11-18T07:59:59+00:00	-4	4wyvbkldncgh2t8@marketplace.amazon.com	wendy	+1 929-436-4790 ext. 67163	ABR0022	Delivery by Tuesday | Arabella Farm Direct Bouquet of 12 Fresh Cut Pink Roses with a Free Glass Vase	1	0	1	Expedited	Mary Papini	9340 FM 2931			PILOT POINT	TX	76258-7613	US		HI MAR, HOME RECUPERATING WITH AVERY B! BROKEN FINGER, KNUCKLE & CAR ACCIDENT-STYLE BRUISES, BUT I'M HERE! SENDING GOOD THOUGHTS YOUR WAY!  From Love Avery & W From Love Avery & W	false		
114-8622669-2840211	60674502168882	2020-11-14T07:10:05+00:00	2020-11-13T23:10:05-08:00	2020-11-14T07:39:38+00:00	2020-11-18T07:59:59+00:00	-4	8chxsjdky1ftqkf@marketplace.amazon.com	Kristi Olson	+1 602-671-6610 ext. 60051	ABM010	Delivery by Tuesday | The Spring Fling Bouquet by Arabella Bouquets with a Free Designer Glass Vase	1	0	1	Expedited	Kristi Olson	802 EVERGREEN DR # 2702			MCCALL	ID	83638-3312	US			true		
113-5046030-6806651	15082546180186	2020-11-14T07:15:25+00:00	2020-11-13T23:15:25-08:00	2020-11-14T07:43:45+00:00	2020-11-18T07:59:59+00:00	-4	4wyvbkldncgh2t8@marketplace.amazon.com	wendy	+1 929-436-4790 ext. 09109	ABR0022	Delivery by Tuesday | Arabella Farm Direct Bouquet of 12 Fresh Cut Pink Roses with a Free Glass Vase	1	0	1	Expedited	Joanne WHITMAN	2385 HARMONY LN APT 104			NAPLES	FL	34109-0471	US		Love you more than words can say. Please take care of yourself until I get there. Love #3 From Love Wendy & Avie	false		
114-0321657-7453817	38953617107090	2020-11-14T08:19:46+00:00	2020-11-14T00:19:46-08:00	2020-11-14T08:37:07+00:00	2020-11-18T07:59:59+00:00	-4	cfchsg9gkc8xjf4@marketplace.amazon.com	baconcreepy	+1 602-671-6610 ext. 84811	ABR0022	Delivery by Tuesday | Arabella Farm Direct Bouquet of 12 Fresh Cut Pink Roses with a Free Glass Vase	1	0	1	Expedited	DeeDee Munson	32874 DEER LICK LN			RUNNING SPRINGS	CA	92382-7441	US		yo deedee!   Its adrian!    Sooooooooooo....  I miss you   you miss me? we should spend some time together From baconcreepy	false		
112-3183242-6432239	17245131028178	2020-11-14T09:05:02+00:00	2020-11-14T01:05:02-08:00	2020-11-14T09:33:53+00:00	2020-11-18T07:59:59+00:00	-4	0vngqjms6nsdh9k@marketplace.amazon.com	john hellem	+1 619-854-2705 ext. 07857	ABR001	Delivery by Tuesday | Arabella Bouquets 12 Stems of Fresh Cut Red Roses in a Free Designer Glass Vase	1	0	1	Expedited	john hellem	2838 SHEARWATER CV			VIRGINIA BEACH	VA	23454-1861	US		Always thinking about you manda panda From johnny	false		
114-7232809-2575432	36200473490362	2020-11-14T10:26:15+00:00	2020-11-14T02:26:15-08:00	2020-11-14T10:49:17+00:00	2020-11-18T07:59:59+00:00	-4	fng3z51g8vnw8t9@marketplace.amazon.com	Linda Batista	+1 602-671-6610 ext. 85437	ABM010	Delivery by Tuesday | The Spring Fling Bouquet by Arabella Bouquets with a Free Designer Glass Vase	1	0	1	Expedited	Joyce Beckius	320 N CRAWFORD ST			WILLOWS	CA	95988-2326	US			false		
112-5419820-8340236	29618156402722	2020-11-14T11:01:10+00:00	2020-11-14T03:01:10-08:00	2020-11-14T11:19:00+00:00	2020-11-18T07:59:59+00:00	-4	04ypd99rr0m4c83@marketplace.amazon.com	Susan R. Hudson	+1 602-671-6610 ext. 40362	ABM025	Delivery by Wednesday | The Fell for You Bouquet by Arabella Bouquets	1	0	1	Expedited	Anne and Evelyn Phelan	17 KINGSWEAR CIR			SOUTH DENNIS	MA	02660-2662	US		Anne, Sending hugs to you! From Susan R. Hudson	false		
112-5419820-8340236	46717272544602	2020-11-14T11:01:10+00:00	2020-11-14T03:01:10-08:00	2020-11-14T11:19:00+00:00	2020-11-18T07:59:59+00:00	-4	04ypd99rr0m4c83@marketplace.amazon.com	Susan R. Hudson	+1 602-671-6610 ext. 40362	ABM025	Delivery by Wednesday | The Fell for You Bouquet by Arabella Bouquets	1	0	1	Expedited	Anne and Evelyn Phelan	17 KINGSWEAR CIR			SOUTH DENNIS	MA	02660-2662	US		Evelyn, Sending hugs to you! From Susan R. Hudson	false		
112-0171431-6205060	09871302751938	2020-11-14T11:58:07+00:00	2020-11-14T03:58:07-08:00	2020-11-14T12:27:48+00:00	2020-11-18T07:59:59+00:00	-4	rfj3dmfb147ffwx@marketplace.amazon.com	Gregory A Snyder	+1 619-854-2705 ext. 59711	ABR0055	Delivery by Tuesday | Arabella Farm Direct Bouquet of 12 Stems of Fresh Cut Hot Pink Roses in a Free Designer Glass Vase	1	0	1	Expedited	Rebecca Pearman	135 DENISE DR			SPEEDWELL	TN	37870-7536	US			false		
113-4607419-4249060	62322061826698	2020-11-14T12:01:35+00:00	2020-11-14T04:01:35-08:00	2020-11-14T12:30:24+00:00	2020-11-18T07:59:59+00:00	-4	9rj899dh5spsltj@marketplace.amazon.com	ed	+1 602-671-6610 ext. 08885	ABR0022	Delivery by Tuesday | Arabella Farm Direct Bouquet of 12 Fresh Cut Pink Roses with a Free Glass Vase	1	0	1	Expedited	Edna Cannon	PACIFICA 1360 LINDA MAR BLVD			PACIFICA	CA	94044-4325	US			false		
112-3406074-8547426	14298192980474	2020-11-14T12:14:18+00:00	2020-11-14T04:14:18-08:00	2020-11-14T12:40:19+00:00	2020-11-18T07:59:59+00:00	-4	nfsqptl95w8f1zc@marketplace.amazon.com	Mary Pollock	+1 619-854-2705 ext. 24824	ABR011	Delivery by Wednesday | Arabella Bouquets 18 Stems of Fresh Cut Red Roses in a Free Glass Vase	1	0	1	Expedited	Virginia Stokes	120 ROTHERY RD PH			CHARLOTTESVILLE	VA	22903-1725	US			false		
112-6790815-4238653	46826067363706	2020-11-14T13:06:03+00:00	2020-11-14T05:06:03-08:00	2020-11-14T13:39:46+00:00	2020-11-18T07:59:59+00:00	-4	scptkdv9g15kt5k@marketplace.amazon.com	Jens	+1 415-851-9136 ext. 36008	ABC004	Delivery by Tuesday | Arabella Bouquets 10 Stems of Purple Dendrobium Orchids in a Free Designer Glass Vase	1	0	1	Expedited	Mallory Passuite	123 MELROSE ST APT 747			BROOKLYN	NY	11206-7881	US			false		
