order-id	order-item-id	purchase-date	payments-date	reporting-date	promise-date	days-past-promise	buyer-email	buyer-name	buyer-phone-number	sku	product-name	quantity-purchased	quantity-shipped	quantity-to-ship	ship-service-level	recipient-name	ship-address-1	ship-address-2	ship-address-3	ship-city	ship-state	ship-postal-code	ship-country	gift-wrap-type	gift-message-text	is-business-order	purchase-order-number	price-designation
114-8946451-8724249	58464760243498	2020-11-13T11:05:17+00:00	2020-11-13T03:05:17-08:00	2020-11-13T11:30:30+00:00	2020-11-18T07:59:59+00:00	-4	55mcwct56tdmzp8@marketplace.amazon.com	angela diaz	+1 480-618-5344 ext. 04776	ABR001	Delivery by Saturday | Arabella Bouquets 12 Stems of Fresh Cut Red Roses in a Free Designer Glass Vase	1	0	1	Expedited	Kellie Robinson	5548 DONEGAL DR APT 203			VIRGINIA BEACH	VA	23455-2477	US		Kellie, Happy 9 months!   You have such a beautiful heart... thank you for sharing it with me. Love, Angela From angela diaz	false		
114-9720728-9366661	22331348774258	2020-11-13T18:19:44+00:00	2020-11-13T10:19:44-08:00	2020-11-13T18:47:12+00:00	2020-11-18T07:59:59+00:00	-4	n20xlmrkh6zm3lf@marketplace.amazon.com	michelle weaver	+1 602-671-6610 ext. 28911	ABM010	Delivery by Tuesday | The Spring Fling Bouquet by Arabella Bouquets with a Free Designer Glass Vase	1	0	1	Expedited	Salida Woods Assistant Living attn :Doris Weaver	7685 LAKE SHORE BLVD			MENTOR	OH	44060-3359	US		Happy Thanksgiving! From Chelly & Belinda	false		
111-6727989-9720239	41680206329258	2020-11-13T18:19:45+00:00	2020-11-13T10:19:45-08:00	2020-11-13T18:49:10+00:00	2020-11-18T07:59:59+00:00	-4	cln3k8h3b5hgwvw@marketplace.amazon.com	charlene	+1 619-854-2705 ext. 81538	ABR0055	Delivery by Tuesday | Arabella Farm Direct Bouquet of 12 Stems of Fresh Cut Hot Pink Roses in a Free Designer Glass Vase	1	0	1	Expedited	Charlene Tang	CHARLENE TANG 180 TUCKER AVE			SAN FRANCISCO	CA	94134-2215	US			false		
112-3999118-7300264	30183590099626	2020-11-13T18:30:53+00:00	2020-11-13T10:30:53-08:00	2020-11-13T18:57:03+00:00	2020-11-18T07:59:59+00:00	-4	hp1d3ld1hvzjjy6@marketplace.amazon.com	Dianne Neihengen	+1 602-671-6610 ext. 98499	ABR0033	Delivery by Tuesday | Arabella Farm Direct Bouquet of 12 Fresh Cut Orange Roses with a Free Glass Vase	1	0	1	Expedited	Gail and Bob Rittichier	367 MAYBORNE LN			GENEVA	IL	60134-4699	US		Happy Anniversary! From Love, Dianne and Bill	false		
112-0624864-5913818	51468444261674	2020-11-13T18:50:55+00:00	2020-11-13T10:50:55-08:00	2020-11-13T19:09:54+00:00	2020-11-18T07:59:59+00:00	-4	jwxw86qyy2bt129@marketplace.amazon.com	Charles Wheeler	+1 929-436-4790 ext. 77644	ABM022	Delivery by Tuesday | Purple Extravagance Bouquet by Arabella Bouquets	1	0	1	Expedited	Tzena treadway	1010 WASHINGTON ST APT 18			WATERTOWN	NY	13601-4392	US		Happy birthday! 21+49 From Linda wheeler and bob	false		
112-9256660-7643430	04710103774242	2020-11-13T19:11:49+00:00	2020-11-13T11:11:49-08:00	2020-11-13T19:23:57+00:00	2020-11-18T07:59:59+00:00	-4	84zzv30v8vvbyyp@marketplace.amazon.com	Marvin	+1 602-671-6610 ext. 61310	ABR001	Delivery by Tuesday | Arabella Bouquets 12 Stems of Fresh Cut Red Roses in a Free Designer Glass Vase	1	0	1	Expedited	Colleen Bernie	15300 PALM DR SPC 8			DESERT HOT SPRINGS	CA	92240-6927	US		I thought these might go good with your new furniture. Thinking of you! MD. From Marvin	false		
114-3956980-4959413	11861450657234	2020-11-13T19:03:41+00:00	2020-11-13T11:03:41-08:00	2020-11-13T19:33:18+00:00	2020-11-18T07:59:59+00:00	-4	3j7p0nbflhz91zl@marketplace.amazon.com	Jessica Huett	+1 213-442-1463 ext. 55761	ABM022	Delivery by Tuesday | Purple Extravagance Bouquet by Arabella Bouquets	1	0	1	Expedited	Sharon Feld	1058 BEARDSLEY ST			MONROE	IA	50170-7533	US		Happy Birthday!!! From The Bees!	false		
114-2117138-1717850	39963080644394	2020-11-13T19:22:31+00:00	2020-11-13T11:22:31-08:00	2020-11-13T19:50:19+00:00	2020-11-18T07:59:59+00:00	-4	3k0q1gwy257x4sz@marketplace.amazon.com	Yizez Gebrehiwot	+1 480-618-5344 ext. 12135	ABM022	Delivery by Tuesday | Purple Extravagance Bouquet by Arabella Bouquets	1	0	1	Expedited	Lydia Simeane	4444 WESTHEIMER RD APT D525			HOUSTON	TX	77027-4800	US		May your day be as beautiful as those flowers !!!😘 From Yizez	false		
111-4573387-4937059	38711189969658	2020-11-13T19:27:02+00:00	2020-11-13T11:27:02-08:00	2020-11-13T19:56:12+00:00	2020-11-18T07:59:59+00:00	-4	ghqh4109syln419@marketplace.amazon.com	michelle Smith	+1 213-442-1463 ext. 01193	ABM022	Delivery by Tuesday | Purple Extravagance Bouquet by Arabella Bouquets	1	0	1	Expedited	Vandanna Prasad	5743 N DENVER AVE			PORTLAND	OR	97217-4320	US			false		
111-0873115-3693035	35903432717690	2020-11-13T19:33:37+00:00	2020-11-13T11:33:37-08:00	2020-11-13T19:56:46+00:00	2020-11-18T07:59:59+00:00	-4	4q79qn31wxrzysr@marketplace.amazon.com	Gary Zweig	+1 602-671-6610 ext. 84642	ABR0022	Delivery by Tuesday | Arabella Farm Direct Bouquet of 12 Fresh Cut Pink Roses with a Free Glass Vase	1	0	1	Expedited	Makenna Rosen	6713 RIVER TRAIL CT			BETHESDA	MD	20817-4326	US		Happy Birthday Love From Auntie Rickey and Uncle Gary	false		
112-0426977-4787411	21488022872130	2020-11-13T19:40:38+00:00	2020-11-13T11:40:38-08:00	2020-11-13T20:05:44+00:00	2020-11-18T07:59:59+00:00	-4	1mtzbd3kz5tky6b@marketplace.amazon.com	john tang	+1 602-671-6610 ext. 51914	ABR001	Delivery by Tuesday | Arabella Bouquets 12 Stems of Fresh Cut Red Roses in a Free Designer Glass Vase	1	0	1	Expedited	DONNA CHAN	256 EVERETT ST			QUINCY	MA	02170-3207	US		My world wouldn't be the same without you in it.  More good times & memories to come.  HAPPY BIRTHDAY MY LOVE!  I LOVE YOU, Jack From JW	false		
113-4014922-6153020	64777283230026	2020-11-13T20:15:30+00:00	2020-11-13T12:15:30-08:00	2020-11-13T20:42:40+00:00	2020-11-18T07:59:59+00:00	-4	j51pjl70sbvxp0f@marketplace.amazon.com	Spot & Tango	+1 602-671-6610 ext. 75243	ABR0022	Delivery by Tuesday | Arabella Farm Direct Bouquet of 12 Fresh Cut Pink Roses with a Free Glass Vase	1	0	1	Expedited	Ryan Ulfers	15060 ROSEWOOD DR			CLIVE	IA	50325-7861	US		Please accept our sincere condolences on the passing of Herkee. We are keeping you and your family in our thoughts during this difficult time. Love, Spot & Tango From Spot & Tango	false		
112-1988534-1444238	11293228433538	2020-11-13T20:13:25+00:00	2020-11-13T12:13:25-08:00	2020-11-13T20:42:53+00:00	2020-11-18T07:59:59+00:00	-4	bsb7c5d2y1wt8xd@marketplace.amazon.com	Gavin Frye	+1 619-854-2705 ext. 70737	ABR0022	Delivery by Tuesday | Arabella Farm Direct Bouquet of 12 Fresh Cut Pink Roses with a Free Glass Vase	1	0	1	Expedited	Holly Berkley	496 WESTSIDE RD			HEALDSBURG	CA	95448-9496	US		Looking forward to our time together, dear Holly! From Gavin Frye	false		
111-7019248-3669838	01022371911858	2020-11-13T20:20:09+00:00	2020-11-13T12:20:09-08:00	2020-11-13T20:48:49+00:00	2020-11-18T07:59:59+00:00	-4	5cpzzwclmtfzvxs@marketplace.amazon.com	angie constan	+1 619-854-2705 ext. 32375	ABR0055	Delivery by Tuesday | Arabella Farm Direct Bouquet of 12 Stems of Fresh Cut Hot Pink Roses in a Free Designer Glass Vase	1	0	1	Expedited	Laura Moreno	7032 FILKINS AVE			RANCHO CUCAMONGA	CA	91701-6005	US			false		
112-9307570-0869013	55211048081954	2020-11-13T20:27:00+00:00	2020-11-13T12:27:00-08:00	2020-11-13T20:55:09+00:00	2020-11-18T07:59:59+00:00	-4	4xv0k1swq9zvwb8@marketplace.amazon.com	paula friant	+1 929-436-4790 ext. 52568	ABM017	Delivery by Tuesday | Arabella Bouquets 10 Stems of Blue Dendrobium Orchids in a Free Designer Glass Vase	1	0	1	Expedited	Carol Young	3100 STONE ORCHARD PL			CHARLOTTE	NC	28209-1255	US			false		
113-0919344-8071423	25992521463346	2020-11-13T20:37:45+00:00	2020-11-13T12:37:45-08:00	2020-11-13T21:07:51+00:00	2020-11-18T07:59:59+00:00	-4	gf4h62fz9s9shgh@marketplace.amazon.com	Kevin J Elliott	+1 213-442-1463 ext. 43388	ABM022	Delivery by Tuesday | Purple Extravagance Bouquet by Arabella Bouquets	1	0	1	Expedited	Judy Elliott	11150 E SUNRISE RANCH PL			TUCSON	AZ	85749-8357	US			false		
113-5749589-7690662	47272465191714	2020-11-13T20:42:42+00:00	2020-11-13T12:42:42-08:00	2020-11-13T21:13:04+00:00	2020-11-18T07:59:59+00:00	-4	52z2h09jrr0n2pg@marketplace.amazon.com	Hannah Fairbee	+1 480-618-5344 ext. 04167	ABM022	Delivery by Tuesday | Purple Extravagance Bouquet by Arabella Bouquets	1	0	1	Expedited	Charlotte DeRosa	1345 woodcrest lane			north port	florida	34286	US			false		
113-0182754-4323442	26906404768594	2020-11-13T20:55:47+00:00	2020-11-13T12:55:47-08:00	2020-11-13T21:18:33+00:00	2020-11-18T07:59:59+00:00	-4	10fhzdmbr7qc0w1@marketplace.amazon.com	Marie Nagasawa	+1 213-442-1463 ext. 53216	ABM010	Delivery by Tuesday | The Spring Fling Bouquet by Arabella Bouquets with a Free Designer Glass Vase	1	0	1	Expedited	Avianna Hwang	1585 BEACH PARK BLVD			FOSTER CITY	CA	94404-1437	US		Avianna,  Hope you have a speedy recovery!  We're all thinking of you!  I hope this brightens up your day! From The Domingo Family	false		
114-3473806-5813003	61948516376906	2020-11-13T20:54:22+00:00	2020-11-13T12:54:22-08:00	2020-11-13T21:19:33+00:00	2020-11-18T07:59:59+00:00	-4	310lmc98f5y6m39@marketplace.amazon.com	Janet Benson	+1 213-442-1463 ext. 02091	ABM022	Delivery by Tuesday | Purple Extravagance Bouquet by Arabella Bouquets	1	0	1	Expedited	Lindsey Van Dyken	2450 PANGBORN RD			LYNDEN	WA	98264-9233	US		Happy Birthday!!!! Love you! From Janet Benson	false		
114-8908422-8945009	24146546836754	2020-11-13T20:50:22+00:00	2020-11-13T12:50:22-08:00	2020-11-13T21:19:52+00:00	2020-11-18T07:59:59+00:00	-4	t0d363nd4vwq9jm@marketplace.amazon.com	Marcia	+1 929-436-4790 ext. 00201	ABM020	Delivery by Tuesday | The Sunset Bouquet by Arabella Bouquets	1	0	1	Expedited	Sabra Vigil	6698 JERRY BASS LN			PUEBLO	CO	81005-9617	US		Sabra, I am so sorry for your loss.  Please accept our deepest condolences and know that we are sending our love and prayers. From Marcia and Sydney	false		
111-0702383-3762667	49302642942994	2020-11-13T20:55:52+00:00	2020-11-13T12:55:52-08:00	2020-11-13T21:24:13+00:00	2020-11-18T07:59:59+00:00	-4	g40rsqz0k5nhv8b@marketplace.amazon.com	Joseph Richards	+1 929-436-4790 ext. 12828	ABR0022	Delivery by Tuesday | Arabella Farm Direct Bouquet of 12 Fresh Cut Pink Roses with a Free Glass Vase	1	0	1	Expedited	Pudz	6 THURMONT CT APT 2 B			NOTTINGHAM	MD	21236-3132	US			false		
113-4365550-7583439	42007681413226	2020-11-13T21:07:28+00:00	2020-11-13T13:07:28-08:00	2020-11-13T21:36:52+00:00	2020-11-18T07:59:59+00:00	-4	pm2pmz2wrdbxd30@marketplace.amazon.com	David Shelly	+1 213-442-1463 ext. 08328	ABM022	Delivery by Tuesday | Purple Extravagance Bouquet by Arabella Bouquets	1	0	1	Expedited	Jessica Renaud	12206 QUAIL CREEK DR			HOUSTON	TX	77070-2215	US		Just because From David	false		
114-2054976-3441862	46783261593458	2020-11-13T21:09:21+00:00	2020-11-13T13:09:21-08:00	2020-11-13T21:39:37+00:00	2020-11-18T07:59:59+00:00	-4	9v4z2hytt4f3j1y@marketplace.amazon.com	Vicki Boling	+1 480-618-5344 ext. 78016	ABR0022	Delivery by Tuesday | Arabella Farm Direct Bouquet of 12 Fresh Cut Pink Roses with a Free Glass Vase	1	0	1	Expedited	Lee Hannon	192 RIVERVIEW TER			CLOVER	SC	29710-8939	US			false		
111-5333380-7954630	34310501434826	2020-11-13T21:28:24+00:00	2020-11-13T13:28:24-08:00	2020-11-13T21:55:40+00:00	2020-11-18T07:59:59+00:00	-4	z0ls55131cqbb9b@marketplace.amazon.com	Beth Taylor	+1 213-442-1463 ext. 52884	ABM020	Delivery by Tuesday | The Sunset Bouquet by Arabella Bouquets	1	0	1	Expedited	Margaret Schuler	2714 NE 113TH ST			SEATTLE	WA	98125-6705	US		Dear Margaret & Mike -- We are so sorry for the loss of your wonderful Mom. Please know we are holding you in our hearts. From Love, Beth, Scott & Molly	false		
112-0609037-2982639	67833111317362	2020-11-13T21:41:19+00:00	2020-11-13T13:41:19-08:00	2020-11-13T22:03:03+00:00	2020-11-18T07:59:59+00:00	-4	jy9ygb8n5p7vzct@marketplace.amazon.com	Lois Austin	+1 480-618-5344 ext. 42031	ABR001	Delivery by Tuesday | Arabella Bouquets 12 Stems of Fresh Cut Red Roses in a Free Designer Glass Vase	1	0	1	Expedited	Marilyn Bryant	3225 COMMANCHE TRL			LAFAYETTE	IN	47909-3870	US		HAPPY 80th BIRTHDAY CUZ Love ya' LuLu	false		
112-4588985-0631455	41267932084162	2020-11-13T22:01:46+00:00	2020-11-13T14:01:46-08:00	2020-11-13T22:30:55+00:00	2020-11-18T07:59:59+00:00	-4	dyb7rvfvf4wwv3f@marketplace.amazon.com	MaryJo B. Haggerty	+1 415-851-9136 ext. 96047	ABR0022	Delivery by Tuesday | Arabella Farm Direct Bouquet of 12 Fresh Cut Pink Roses with a Free Glass Vase	1	0	1	Expedited	Cathy Jarvis	1668 TREESIDE DR			ROCHESTER HILLS	MI	48307-3474	US		Hope you enjoy your flowers and have a great birthday celebration, Cath! From MaryJo B. Haggerty	false		
114-8114832-1064262	66551647893186	2020-11-13T22:04:42+00:00	2020-11-13T14:04:42-08:00	2020-11-13T22:31:55+00:00	2020-11-18T07:59:59+00:00	-4	ps5qhdcchc2qzcc@marketplace.amazon.com	Lynn	+1 415-851-9136 ext. 90286	ABM022	Delivery by Tuesday | Purple Extravagance Bouquet by Arabella Bouquets	1	0	1	Expedited	Lee Darby	543 COMSTOCK DR			TIBURON	CA	94920-1309	US			false		
114-1330796-3917051	65468566400778	2020-11-13T22:10:09+00:00	2020-11-13T14:10:09-08:00	2020-11-13T22:38:54+00:00	2020-11-18T07:59:59+00:00	-4	1dn3jz14djyhtvh@marketplace.amazon.com	Jonathan	+1 602-671-6610 ext. 15447	ABM022	Delivery by Tuesday | Purple Extravagance Bouquet by Arabella Bouquets	1	0	1	Expedited	Carmen Yu	737 BRIDGE CREEK DR			SAN RAMON	CA	94582-5650	US		Wishing you a very happy birthday!! May your dearest wishes come true!! I feel extremely lucky to have crossed path with you and call you a friend. I hope your day is as beautiful and special as you! I love you! From Hany	false		
113-2298233-1302609	16203884868850	2020-11-13T22:31:03+00:00	2020-11-13T14:31:03-08:00	2020-11-13T22:57:36+00:00	2020-11-18T07:59:59+00:00	-4	rd8p3rgm2yljdb0@marketplace.amazon.com	Valerie A Adair	+1 480-618-5344 ext. 84299	ABM022	Delivery by Tuesday | Purple Extravagance Bouquet by Arabella Bouquets	1	0	1	Expedited	Shelley Hrna	1903 RED FOX LN			HIXSON	TN	37343-3586	US		Shelley  The Quilts are GORGEOUS!  You are our favorite artist. Blessings and love, Lee and Linda. Thank you so much! From Valerie A Adair	false		
113-9153660-3733027	11554057989618	2020-11-13T22:43:51+00:00	2020-11-13T14:43:51-08:00	2020-11-13T23:11:16+00:00	2020-11-18T07:59:59+00:00	-4	grx1lps4ykfgb5b@marketplace.amazon.com	Wade H Hicks IV	+1 213-442-1463 ext. 70424	ABM017	Delivery by Tuesday | Arabella Bouquets 10 Stems of Blue Dendrobium Orchids in a Free Designer Glass Vase	1	0	1	Expedited	Kim Dixon	1906 CONIFER CREEK TRL			KINGWOOD	TX	77345-2160	US		We are thinking of you!  Love you guys so much!  Love, LW, Nicole, Little Ninja, Creepy, Oreo, and LuLu From The Hicks & Little Ninja	false		
113-1759703-3796225	40881663706266	2020-11-13T22:57:56+00:00	2020-11-13T14:57:56-08:00	2020-11-13T23:24:29+00:00	2020-11-18T07:59:59+00:00	-4	dhkjt5l47mjbbzj@marketplace.amazon.com	Julie Hwayoung C Shepherd	+1 602-671-6610 ext. 70525	ABR0055	Delivery by Tuesday | Arabella Farm Direct Bouquet of 12 Stems of Fresh Cut Hot Pink Roses in a Free Designer Glass Vase	1	0	1	Expedited	Destiny Henkel	65 HORSE POND RD APT A			SALEM	CT	06420-4039	US		Destiny, We are very sad that you are leaving... However you will do an amazing job of giving people 'hope' and building 'resiliency'. Keep up the good work! From Julie and NEBH gang	false		
113-7383208-6909061	19919269048602	2020-11-13T23:01:04+00:00	2020-11-13T15:01:04-08:00	2020-11-13T23:31:18+00:00	2020-11-18T07:59:59+00:00	-4	97d5g64z8w6f0xs@marketplace.amazon.com	Johanna Tarazona	+1 602-671-6610 ext. 74973	ABR0022	Delivery by Tuesday | Arabella Farm Direct Bouquet of 12 Fresh Cut Pink Roses with a Free Glass Vase	1	0	1	Expedited	Jennifer Blunda	11147 LAS CRUCES ST FRISCO			FRISCO	TX	75035-5120	US			false		
112-5655525-4209833	17227553394354	2020-11-13T23:03:15+00:00	2020-11-13T15:03:15-08:00	2020-11-13T23:31:48+00:00	2020-11-18T07:59:59+00:00	-4	kj9tktznp0dnbth@marketplace.amazon.com	Loraine Ann Vitelozzi	+1 602-671-6610 ext. 64778	ABM022	Delivery by Tuesday | Purple Extravagance Bouquet by Arabella Bouquets	1	0	1	Expedited	Norma Rowe	1008 HARBOR DR			ANNAPOLIS	MD	21403-4227	US		Dear  Norma,  We are thinking of you!  Love, Lori, Dick, boys and girls From Loraine Ann Vitelozzi	false		
111-7479237-1696200	07167976965154	2020-11-13T23:07:13+00:00	2020-11-13T15:07:13-08:00	2020-11-13T23:37:24+00:00	2020-11-18T07:59:59+00:00	-4	zkxnrbds7qq61hl@marketplace.amazon.com	Clover Sonoma	+1 415-851-9136 ext. 90202	ABR0022	Delivery by Tuesday | Arabella Farm Direct Bouquet of 12 Fresh Cut Pink Roses with a Free Glass Vase	1	0	1	Expedited	Clover Sonoma - Joanne	867 6TH ST			PETALUMA	CA	94952-4923	US			false		
112-6343313-1155413	12978415771938	2020-11-13T23:24:32+00:00	2020-11-13T15:24:32-08:00	2020-11-13T23:43:16+00:00	2020-11-18T07:59:59+00:00	-4	nsrbzmbg8cxz4dr@marketplace.amazon.com	John G Watson	+1 602-671-6610 ext. 56676	ABR0022	Delivery by Tuesday | Arabella Farm Direct Bouquet of 12 Fresh Cut Pink Roses with a Free Glass Vase	1	0	1	Expedited	Helen Watson	HEALTH CENTER 1596 BOYCE RD			PITTSBURGH	PA	15241-2903	US			false		
111-0168174-3737044	46164979177706	2020-11-13T23:54:11+00:00	2020-11-13T15:54:11-08:00	2020-11-14T00:21:59+00:00	2020-11-18T07:59:59+00:00	-4	p9kqt3hk0wtp5g0@marketplace.amazon.com	Eugene Emerson	+1 619-854-2705 ext. 77617	ABR0022	Delivery by Tuesday | Arabella Farm Direct Bouquet of 12 Fresh Cut Pink Roses with a Free Glass Vase	1	0	1	Expedited	Eugene Emerson	6384 Landstone Drive			Clarence Center	NY	14032	US		I hope you feel better soon. I miss you so much!  All my love Joseph From Eugene Emerson	false		
113-9074250-5208220	19703072631330	2020-11-13T23:55:32+00:00	2020-11-13T15:55:32-08:00	2020-11-14T00:24:08+00:00	2020-11-18T07:59:59+00:00	-4	5q7ymtvttl5wkrq@marketplace.amazon.com	Katie Jones	+1 619-854-2705 ext. 53027	ABM017	Delivery by Tuesday | Arabella Bouquets 10 Stems of Blue Dendrobium Orchids in a Free Designer Glass Vase	1	0	1	Expedited	Kacey Cilimberg	605 BELLE TERRE CIR			VESTAVIA	AL	35226-2419	US		I'm sorry I couldn't celebrate baby Noah with you. Freaking COVID!!!! Love you From KATE	false		
112-3297903-1881836	21215194334410	2020-11-14T00:11:41+00:00	2020-11-13T16:11:41-08:00	2020-11-14T00:41:05+00:00	2020-11-18T07:59:59+00:00	-4	rpgnl7927cjttzn@marketplace.amazon.com	Vera	+1 619-854-2705 ext. 99843	ABC004	Delivery by Tuesday | Arabella Bouquets 10 Stems of Purple Dendrobium Orchids in a Free Designer Glass Vase	1	0	1	Expedited	Julie Karaman	6429 SAINT JAMES DR			CARMICHAEL	CA	95608-0961	US			false		
111-4398330-8509861	05170811883986	2020-11-14T00:21:17+00:00	2020-11-13T16:21:17-08:00	2020-11-14T00:49:24+00:00	2020-11-18T07:59:59+00:00	-4	73smk1hyxy8nrvq@marketplace.amazon.com	Ric Lwin	+1 213-442-1463 ext. 50138	ABM022	Delivery by Tuesday | Purple Extravagance Bouquet by Arabella Bouquets	1	0	1	Expedited	Alison Bo	3025 HASTINGS AVE			REDWOOD CITY	CA	94061-1944	US		Welcome to the world Baby Leia! We can't wait to meet you soon. From Viv + Ric + Everest + Nile	false		
111-4467820-8162667	08410573799722	2020-11-14T00:48:27+00:00	2020-11-13T16:48:27-08:00	2020-11-14T01:13:39+00:00	2020-11-18T07:59:59+00:00	-4	vx885n0qxfb65ql@marketplace.amazon.com	Jane Ferry	+1 213-442-1463 ext. 69904	ABR0022	Delivery by Tuesday | Arabella Farm Direct Bouquet of 12 Fresh Cut Pink Roses with a Free Glass Vase	1	0	1	Expedited	Eleanor Peacock	1140 COLUMBIA DR			LONGMONT	CO	80503-2174	US		My dearest dearest Gia, Here is wishing you the loveliest day imaginable.  Know how much you are cherished by all of us. Love, Mom	false		
112-0869227-3354622	54712152118842	2020-11-14T00:44:26+00:00	2020-11-13T16:44:26-08:00	2020-11-14T01:13:44+00:00	2020-11-18T07:59:59+00:00	-4	w6006nrzkgvbw0h@marketplace.amazon.com	paula	+1 619-854-2705 ext. 38361	ABR001	Delivery by Tuesday | Arabella Bouquets 12 Stems of Fresh Cut Red Roses in a Free Designer Glass Vase	1	0	1	Expedited	Rosemary Douglass	313 VISTA CT UNIT H			MINOOKA	IL	60447-9011	US		Happy Birthday Mom! Love You, Paula and Bentley From paula	false		
112-3902441-9701013	28876985372042	2020-11-14T01:06:20+00:00	2020-11-13T17:06:20-08:00	2020-11-14T01:33:05+00:00	2020-11-18T07:59:59+00:00	-4	3pc76kbn0fm2n7c@marketplace.amazon.com	Claire Conner	+1 619-854-2705 ext. 93882	ABM017	Delivery by Tuesday | Arabella Bouquets 10 Stems of Blue Dendrobium Orchids in a Free Designer Glass Vase	1	0	1	Expedited	Cynthia Conner	4539 W 56TH ST			EDINA	MN	55424-1556	US		Think of raspberries and how the nicest man in the world loved to whip your children off the tube and drive the malibu as fast as possible.  Love you From Lulu Conner	false		
112-0644575-0403453	66949309489986	2020-11-14T01:35:51+00:00	2020-11-13T17:35:51-08:00	2020-11-14T02:05:57+00:00	2020-11-18T07:59:59+00:00	-4	hzx3r67k5rlnm88@marketplace.amazon.com	Rodney Douglas	+1 480-618-5344 ext. 21737	ABR001	Delivery by Tuesday | Arabella Bouquets 12 Stems of Fresh Cut Red Roses in a Free Designer Glass Vase	1	0	1	Expedited	Clare Esson	231 EMERY RD			ANDOVER	NH	03216-4120	US			false		
114-3474552-1061861	04694433514042	2020-11-14T02:04:16+00:00	2020-11-13T18:04:16-08:00	2020-11-14T02:28:33+00:00	2020-11-18T07:59:59+00:00	-4	lt1pq4k1t6pgh1k@marketplace.amazon.com	Iftikhar Anees	+1 480-618-5344 ext. 53717	ABR0022	Delivery by Tuesday | Arabella Farm Direct Bouquet of 12 Fresh Cut Pink Roses with a Free Glass Vase	1	0	1	Expedited	Hamza Viquar	7701 LOGAN DR			YORKTOWN	IN	47396-6851	US		Congratulations to Hamza and Zoya on the arrival of a beautiful baby girl Ayra. From Iftikhar, Yasmin, Safia and Nadia Anees	false		
113-9099174-2276201	31512623118370	2020-11-14T02:11:14+00:00	2020-11-13T18:11:14-08:00	2020-11-14T02:39:04+00:00	2020-11-18T07:59:59+00:00	-4	8dgchjq36ym7rtd@marketplace.amazon.com	Jack bied	+1 602-671-6610 ext. 07748	ABR0033	Delivery by Tuesday | Arabella Farm Direct Bouquet of 12 Fresh Cut Orange Roses with a Free Glass Vase	1	0	1	Expedited	Julie Blain	2985 E. Saint James Ave			Hayden	ID	83835	US			false		
114-8428010-9057011	08623709077370	2020-11-14T02:14:03+00:00	2020-11-13T18:14:03-08:00	2020-11-14T02:40:44+00:00	2020-11-18T07:59:59+00:00	-4	0c47640nqbh2xfj@marketplace.amazon.com	katrina m poovey	+1 929-436-4790 ext. 57816	ABM020	Delivery by Tuesday | The Sunset Bouquet by Arabella Bouquets	1	0	1	Expedited	Ms. Patricia McLaughlin    (C/O Tisha Heyssel)	14518 MONTICELLO DR			COOKSVILLE	MD	21723-9622	US		Happy Birthday To You.  Happy Birthday To You.  Happy Birthday Dear Aunt Patty.  Happy Birthday To You !!!!  With love always, xoxoxoxo From Katrina and Carroll	false		
113-0668730-1694659	40397611378250	2020-11-14T02:31:46+00:00	2020-11-13T18:31:46-08:00	2020-11-14T03:00:12+00:00	2020-11-18T07:59:59+00:00	-4	bzcjhhnnf8fz89h@marketplace.amazon.com	Kevin McClure	+1 213-442-1463 ext. 90232	ABR001	Delivery by Tuesday | Arabella Bouquets 12 Stems of Fresh Cut Red Roses in a Free Designer Glass Vase	1	0	1	Expedited	Gary McClure	17658 W 778 RD			TAHLEQUAH	OK	74464-7384	US		Hope this brightens your day.  Get well soon. From Love Sarah & Kevin	false		
112-6006160-5353831	62196105159146	2020-11-14T02:56:46+00:00	2020-11-13T18:56:46-08:00	2020-11-14T03:02:23+00:00	2020-11-18T07:59:59+00:00	-4	hwl0p18jxhzk7wx@marketplace.amazon.com	Yardley Goldon	+1 619-854-2705 ext. 44429	ABM017	Delivery by Tuesday | Arabella Bouquets 10 Stems of Blue Dendrobium Orchids in a Free Designer Glass Vase	1	0	1	Expedited	Susan Rosenberg	387 GRAND ST APT  K1007			NEW YORK	NY	10002-3986	US		In case no one hasn't  told you.   YOU ARE A GREAT MOM!  I hope these flowers brighten up your day, I know these few months have been tough but you got it Susan ! From Yardley Goldon	false		
114-4937266-9446644	48041438639554	2020-11-14T02:55:24+00:00	2020-11-13T18:55:24-08:00	2020-11-14T03:18:35+00:00	2020-11-18T07:59:59+00:00	-4	x94p7k7v1mynsk3@marketplace.amazon.com	Linda Halkias	+1 480-618-5344 ext. 04201	ABR001	Delivery by Tuesday | Arabella Bouquets 12 Stems of Fresh Cut Red Roses in a Free Designer Glass Vase	1	0	1	Expedited	Nicole Saxon	10931 CEDAR LN			HUNTERSVILLE	NC	28078-9724	US		Happy 6 months babe. I love you From Alex Halkias	false		
113-3922690-7804212	49198492765994	2020-11-14T02:52:07+00:00	2020-11-13T18:52:07-08:00	2020-11-14T03:20:19+00:00	2020-11-18T07:59:59+00:00	-4	m9m2sz7qn7vn0m7@marketplace.amazon.com	Gregory J Ternus	+1 480-618-5344 ext. 31171	ABR0033	Delivery by Tuesday | Arabella Farm Direct Bouquet of 12 Fresh Cut Orange Roses with a Free Glass Vase	1	0	1	Expedited	Tillie Benson	4205 LIVINGSTON AVE			DALLAS	TX	75205-2703	US		Congrats to you Tillie!  So proud of you! From Greg and Lynne	false		
113-0293023-8621873	29402349996394	2020-11-14T02:52:00+00:00	2020-11-13T18:52:00-08:00	2020-11-14T03:21:58+00:00	2020-11-18T07:59:59+00:00	-4	v5w6sbrvym1jcnw@marketplace.amazon.com	Karen Atkins	+1 619-854-2705 ext. 00267	ABM017	Delivery by Tuesday | Arabella Bouquets 10 Stems of Blue Dendrobium Orchids in a Free Designer Glass Vase	1	0	1	Expedited	Betty Overmyer	4630 VINEWOOD WAY			JOHNSTOWN	CO	80534-2403	US			false		
113-5945627-9969856	37058870001978	2020-11-14T03:06:33+00:00	2020-11-13T19:06:33-08:00	2020-11-14T03:34:31+00:00	2020-11-18T07:59:59+00:00	-4	9g653hx3wjx3y3b@marketplace.amazon.com	Stephanie Shaw	+1 480-618-5344 ext. 93640	ABR0022	Delivery by Tuesday | Arabella Farm Direct Bouquet of 12 Fresh Cut Pink Roses with a Free Glass Vase	1	0	1	Expedited	Donna Chartier	5502 W OLD FORT DR			SPOKANE	WA	99208-3892	US		Donna, Because you are an amazing woman!!! Love ya! From Steph	false		
111-6120901-4829842	67558823931562	2020-11-14T03:17:13+00:00	2020-11-13T19:17:13-08:00	2020-11-14T03:36:49+00:00	2020-11-18T07:59:59+00:00	-4	wpsjz7hj6fls4y1@marketplace.amazon.com	Sandy Yockey	+1 929-436-4790 ext. 11819	ABR0022	Delivery by Tuesday | Arabella Farm Direct Bouquet of 12 Fresh Cut Pink Roses with a Free Glass Vase	1	0	1	Expedited	Joyce Hochstatter	18549 COACHLIGHT LN			STERLING	IL	61081-9566	US		To have and to hold from this day forward, for better, for worse, for richer, for poorer, in sickness and in health, to love and to cherish, til death do us part - thanks for 57 faithful years! Love you always, From Brian	false		
112-7985165-9760261	22263032224738	2020-11-14T03:59:43+00:00	2020-11-13T19:59:43-08:00	2020-11-14T04:00:35+00:00	2020-11-18T07:59:59+00:00	-4	ls0cfch1bnm2tww@marketplace.amazon.com	adrian patrick o'reilly	+1 480-618-5344 ext. 59251	ABM020	Delivery by Tuesday | The Sunset Bouquet by Arabella Bouquets	1	0	1	Expedited	Casey O’Reilly	3413 ADMIRALTY LN			INDIANAPOLIS	IN	46240-3566	US			false		
111-2016197-6653060	22432630194298	2020-11-14T03:57:42+00:00	2020-11-13T19:57:42-08:00	2020-11-14T04:21:43+00:00	2020-11-18T07:59:59+00:00	-4	mv50bt70kdljscz@marketplace.amazon.com	Corean Reynolds	+1 213-442-1463 ext. 99757	ABR0022	Delivery by Tuesday | Arabella Farm Direct Bouquet of 12 Fresh Cut Pink Roses with a Free Glass Vase	1	0	1	Expedited	Corean Reynolds	1905 HOTEL PLAZA BLVD			LAKE BUENA VISTA	FL	32830-8438	US			false		
114-3482091-1765013	02156516176314	2020-11-14T03:57:20+00:00	2020-11-13T19:57:20-08:00	2020-11-14T04:27:11+00:00	2020-11-18T07:59:59+00:00	-4	pd4pvygrxd855cz@marketplace.amazon.com	joanne schultis	+1 415-851-9136 ext. 31216	ABM022	Delivery by Tuesday | Purple Extravagance Bouquet by Arabella Bouquets	1	0	1	Expedited	Marie Lorensen	719 EUWANEE PL			NORFOLK	VA	23503-5326	US			false		
111-4307902-3313828	46957453807474	2020-11-14T04:11:19+00:00	2020-11-13T20:11:19-08:00	2020-11-14T04:39:39+00:00	2020-11-18T07:59:59+00:00	-4	37nwgq6rkw3961l@marketplace.amazon.com	Chris Calderwood	+1 213-442-1463 ext. 75417	ABM022	Delivery by Tuesday | Purple Extravagance Bouquet by Arabella Bouquets	1	0	1	Expedited	Sheila Doyschen	19127 N 94TH AVE			PEORIA	AZ	85382-3675	US		Thinking of you and wishing you a speedy recovery! From Chris & Maureen Calderwood	false		
113-4937559-0434613	11015812703570	2020-11-14T04:29:09+00:00	2020-11-13T20:29:09-08:00	2020-11-14T04:54:02+00:00	2020-11-18T07:59:59+00:00	-4	29qz0ypmqsxzjm4@marketplace.amazon.com	Jeremy Lambert	+1 213-442-1463 ext. 47197	ABR0022	Delivery by Tuesday | Arabella Farm Direct Bouquet of 12 Fresh Cut Pink Roses with a Free Glass Vase	1	0	1	Expedited	Sydney Adamson	2107 E VIRGINIA AVE			DENVER	CO	80209-2721	US		Miss you! Proud of you for everything you’re doing. You’re killin it! 💚  P.s- thought I would send you flowers too since I sent some to Carmen already. From Secret Admirer	false		
112-8123754-2068202	50027221189674	2020-11-14T04:34:05+00:00	2020-11-13T20:34:05-08:00	2020-11-14T05:04:19+00:00	2020-11-18T07:59:59+00:00	-4	gy3pxkthd6jnd5l@marketplace.amazon.com	james w myers jr	+1 929-436-4790 ext. 48057	ABM010	Delivery by Tuesday | The Spring Fling Bouquet by Arabella Bouquets with a Free Designer Glass Vase	1	0	1	Expedited	JIM AMD MARY K MYERS	8945 SW ASH MEADOWS CIR APT 125			WILSONVILLE	OR	97070-6231	US			false		
111-2418356-5143430	00195252816794	2020-11-14T05:10:07+00:00	2020-11-13T21:10:07-08:00	2020-11-14T05:22:11+00:00	2020-11-18T07:59:59+00:00	-4	11x643hj8bbckmh@marketplace.amazon.com	Chris Joyner	901338861	ABM010	Delivery by Tuesday | The Spring Fling Bouquet by Arabella Bouquets with a Free Designer Glass Vase	1	0	1	Expedited	Angela dads place	24 MONFERRATO CT			BEAR	DE	19701-2546	US		If you just so happen to be feeling down. I hope this will cheer you up baby girl.... I Love U More Than Most From Chris baby yum yum	false		
113-2539529-5287400	33567677992034	2020-11-14T04:59:59+00:00	2020-11-13T20:59:59-08:00	2020-11-14T05:28:51+00:00	2020-11-18T07:59:59+00:00	-4	49k3y7mbpw8gvw6@marketplace.amazon.com	Rebecca Lavine	+1 929-436-4790 ext. 80284	ABM010	Delivery by Tuesday | The Spring Fling Bouquet by Arabella Bouquets with a Free Designer Glass Vase	1	0	1	Expedited	Nancy Shapir	35 WALDEN ST APT 3G			CAMBRIDGE	MA	02140-2030	US		You shouldn't have told me how much you like getting flowers.  Love you. A&E From Rebecca Lavine	false		
114-3514020-6132269	52803878568130	2020-11-14T05:09:11+00:00	2020-11-13T21:09:11-08:00	2020-11-14T05:39:24+00:00	2020-11-18T07:59:59+00:00	-4	0v1ztd75z4gf9m1@marketplace.amazon.com	Edith Becker	+1 602-671-6610 ext. 34635	ABR0022	Delivery by Tuesday | Arabella Farm Direct Bouquet of 12 Fresh Cut Pink Roses with a Free Glass Vase	1	0	1	Expedited	Edith Becker\billie parks	11806 PAYTON MANOR DR			BAKERSFIELD	CA	93312-5856	US			false		
113-9516894-6165845	20275707429706	2020-11-14T05:12:11+00:00	2020-11-13T21:12:11-08:00	2020-11-14T05:42:34+00:00	2020-11-18T07:59:59+00:00	-4	38kf28px9l4lbxg@marketplace.amazon.com	Lisa	+1 602-671-6610 ext. 98250	ABM022	Delivery by Tuesday | Purple Extravagance Bouquet by Arabella Bouquets	1	0	1	Expedited	Lisa	326 S CRAIG PL			LOMBARD	IL	60148-2710	US			false		
112-6860603-6867433	43455557904514	2020-11-14T05:37:27+00:00	2020-11-13T21:37:27-08:00	2020-11-14T06:04:22+00:00	2020-11-18T07:59:59+00:00	-4	xnztb81c3gtd0s3@marketplace.amazon.com	Stanley Templeman	+1 213-442-1463 ext. 57200	ABM022	Delivery by Tuesday | Purple Extravagance Bouquet by Arabella Bouquets	1	0	1	Expedited	Clara Carter	519 SWISS DR			MARION	OH	43302-6029	US			false		
113-9107299-4995441	30462665016338	2020-11-14T06:38:50+00:00	2020-11-13T22:38:50-08:00	2020-11-14T07:09:12+00:00	2020-11-18T07:59:59+00:00	-4	nlby82r1443kf3l@marketplace.amazon.com	Erika A Lendy	+1 480-618-5344 ext. 88335	ABR0022	Delivery by Tuesday | Arabella Farm Direct Bouquet of 12 Fresh Cut Pink Roses with a Free Glass Vase	1	0	1	Expedited	ERIKA LENDY	422 FRANK MONSEN DR			SNOHOMISH	WA	98290-9524	US			false		
111-8217388-8003452	33207697722410	2020-11-14T06:56:37+00:00	2020-11-13T22:56:37-08:00	2020-11-14T07:23:16+00:00	2020-11-18T07:59:59+00:00	-4	qc3pf0bx4b38hby@marketplace.amazon.com	Janice voth	+1 602-671-6610 ext. 66099	ABM010	Delivery by Tuesday | The Spring Fling Bouquet by Arabella Bouquets with a Free Designer Glass Vase	1	0	1	Expedited	Teri Voth	307 ARABICA RD			WALLA WALLA	WA	99362-1768	US			false		
113-0680402-7187466	62006101085090	2020-11-14T07:07:16+00:00	2020-11-13T23:07:16-08:00	2020-11-14T07:30:28+00:00	2020-11-18T07:59:59+00:00	-4	4wyvbkldncgh2t8@marketplace.amazon.com	wendy	+1 929-436-4790 ext. 67163	ABR0022	Delivery by Tuesday | Arabella Farm Direct Bouquet of 12 Fresh Cut Pink Roses with a Free Glass Vase	1	0	1	Expedited	Mary Papini	9340 FM 2931			PILOT POINT	TX	76258-7613	US		HI MAR, HOME RECUPERATING WITH AVERY B! BROKEN FINGER, KNUCKLE & CAR ACCIDENT-STYLE BRUISES, BUT I'M HERE! SENDING GOOD THOUGHTS YOUR WAY!  From Love Avery & W From Love Avery & W	false		
113-5046030-6806651	15082546180186	2020-11-14T07:15:25+00:00	2020-11-13T23:15:25-08:00	2020-11-14T07:43:45+00:00	2020-11-18T07:59:59+00:00	-4	4wyvbkldncgh2t8@marketplace.amazon.com	wendy	+1 929-436-4790 ext. 09109	ABR0022	Delivery by Tuesday | Arabella Farm Direct Bouquet of 12 Fresh Cut Pink Roses with a Free Glass Vase	1	0	1	Expedited	Joanne WHITMAN	2385 HARMONY LN APT 104			NAPLES	FL	34109-0471	US		Love you more than words can say. Please take care of yourself until I get there. Love #3 From Love Wendy & Avie	false		
114-0321657-7453817	38953617107090	2020-11-14T08:19:46+00:00	2020-11-14T00:19:46-08:00	2020-11-14T08:37:07+00:00	2020-11-18T07:59:59+00:00	-4	cfchsg9gkc8xjf4@marketplace.amazon.com	baconcreepy	+1 602-671-6610 ext. 84811	ABR0022	Delivery by Tuesday | Arabella Farm Direct Bouquet of 12 Fresh Cut Pink Roses with a Free Glass Vase	1	0	1	Expedited	DeeDee Munson	32874 DEER LICK LN			RUNNING SPRINGS	CA	92382-7441	US		yo deedee!   Its adrian!    Sooooooooooo....  I miss you   you miss me? we should spend some time together From baconcreepy	false		
112-3183242-6432239	17245131028178	2020-11-14T09:05:02+00:00	2020-11-14T01:05:02-08:00	2020-11-14T09:33:53+00:00	2020-11-18T07:59:59+00:00	-4	0vngqjms6nsdh9k@marketplace.amazon.com	john hellem	+1 619-854-2705 ext. 07857	ABR001	Delivery by Tuesday | Arabella Bouquets 12 Stems of Fresh Cut Red Roses in a Free Designer Glass Vase	1	0	1	Expedited	john hellem	2838 SHEARWATER CV			VIRGINIA BEACH	VA	23454-1861	US		Always thinking about you manda panda From johnny	false		
114-7232809-2575432	36200473490362	2020-11-14T10:26:15+00:00	2020-11-14T02:26:15-08:00	2020-11-14T10:49:17+00:00	2020-11-18T07:59:59+00:00	-4	fng3z51g8vnw8t9@marketplace.amazon.com	Linda Batista	+1 602-671-6610 ext. 85437	ABM010	Delivery by Tuesday | The Spring Fling Bouquet by Arabella Bouquets with a Free Designer Glass Vase	1	0	1	Expedited	Joyce Beckius	320 N CRAWFORD ST			WILLOWS	CA	95988-2326	US			false		
112-5419820-8340236	29618156402722	2020-11-14T11:01:10+00:00	2020-11-14T03:01:10-08:00	2020-11-14T11:19:00+00:00	2020-11-18T07:59:59+00:00	-4	04ypd99rr0m4c83@marketplace.amazon.com	Susan R. Hudson	+1 602-671-6610 ext. 40362	ABM025	Delivery by Wednesday | The Fell for You Bouquet by Arabella Bouquets	1	0	1	Expedited	Anne and Evelyn Phelan	17 KINGSWEAR CIR			SOUTH DENNIS	MA	02660-2662	US		Anne, Sending hugs to you! From Susan R. Hudson	false		
112-5419820-8340236	46717272544602	2020-11-14T11:01:10+00:00	2020-11-14T03:01:10-08:00	2020-11-14T11:19:00+00:00	2020-11-18T07:59:59+00:00	-4	04ypd99rr0m4c83@marketplace.amazon.com	Susan R. Hudson	+1 602-671-6610 ext. 40362	ABM025	Delivery by Wednesday | The Fell for You Bouquet by Arabella Bouquets	1	0	1	Expedited	Anne and Evelyn Phelan	17 KINGSWEAR CIR			SOUTH DENNIS	MA	02660-2662	US		Evelyn, Sending hugs to you! From Susan R. Hudson	false		
112-0171431-6205060	09871302751938	2020-11-14T11:58:07+00:00	2020-11-14T03:58:07-08:00	2020-11-14T12:27:48+00:00	2020-11-18T07:59:59+00:00	-4	rfj3dmfb147ffwx@marketplace.amazon.com	Gregory A Snyder	+1 619-854-2705 ext. 59711	ABR0055	Delivery by Tuesday | Arabella Farm Direct Bouquet of 12 Stems of Fresh Cut Hot Pink Roses in a Free Designer Glass Vase	1	0	1	Expedited	Rebecca Pearman	135 DENISE DR			SPEEDWELL	TN	37870-7536	US			false		
113-4607419-4249060	62322061826698	2020-11-14T12:01:35+00:00	2020-11-14T04:01:35-08:00	2020-11-14T12:30:24+00:00	2020-11-18T07:59:59+00:00	-4	9rj899dh5spsltj@marketplace.amazon.com	ed	+1 602-671-6610 ext. 08885	ABR0022	Delivery by Tuesday | Arabella Farm Direct Bouquet of 12 Fresh Cut Pink Roses with a Free Glass Vase	1	0	1	Expedited	Edna Cannon	PACIFICA 1360 LINDA MAR BLVD			PACIFICA	CA	94044-4325	US			false		
112-3406074-8547426	14298192980474	2020-11-14T12:14:18+00:00	2020-11-14T04:14:18-08:00	2020-11-14T12:40:19+00:00	2020-11-18T07:59:59+00:00	-4	nfsqptl95w8f1zc@marketplace.amazon.com	Mary Pollock	+1 619-854-2705 ext. 24824	ABR011	Delivery by Wednesday | Arabella Bouquets 18 Stems of Fresh Cut Red Roses in a Free Glass Vase	1	0	1	Expedited	Virginia Stokes	120 ROTHERY RD PH			CHARLOTTESVILLE	VA	22903-1725	US			false		
112-6790815-4238653	46826067363706	2020-11-14T13:06:03+00:00	2020-11-14T05:06:03-08:00	2020-11-14T13:39:46+00:00	2020-11-18T07:59:59+00:00	-4	scptkdv9g15kt5k@marketplace.amazon.com	Jens	+1 415-851-9136 ext. 36008	ABC004	Delivery by Tuesday | Arabella Bouquets 10 Stems of Purple Dendrobium Orchids in a Free Designer Glass Vase	1	0	1	Expedited	Mallory Passuite	123 MELROSE ST APT 747			BROOKLYN	NY	11206-7881	US			false		
111-9565635-8607466	22234434224354	2020-11-14T13:31:27+00:00	2020-11-14T05:31:27-08:00	2020-11-14T14:00:36+00:00	2020-11-18T07:59:59+00:00	-4	v27fnm3pbmc400w@marketplace.amazon.com	Liz Warrick	+1 480-618-5344 ext. 53886	ABM022	Delivery by Tuesday | Purple Extravagance Bouquet by Arabella Bouquets	1	0	1	Expedited	Beth McDonald	565 FORT WASHINGTON AVE APT B			NEW YORK	NY	10033-1903	US		Wishing you a speedy recovery! From Sarah Warrick	false		
111-0664138-5337819	23203861671610	2020-11-14T13:32:05+00:00	2020-11-14T05:32:05-08:00	2020-11-14T14:01:33+00:00	2020-11-18T07:59:59+00:00	-4	s4kz962lfbrdjjn@marketplace.amazon.com	Cody salyers	+1 415-851-9136 ext. 88314	ABR012	Delivery by Wednesday | Arabella Farm Direct Bouquet of 18 Fresh Cut Pink Roses with a Free Glass Vase	1	0	1	Expedited	Cody A Salyers	14017 WRANGLER WAY			HASLET	TX	76052-3358	US		I Love You!!  Quit stressing and Just Breathe! From Cody salyers	false		
113-1420148-8778660	32795877916874	2020-11-14T13:54:53+00:00	2020-11-14T05:54:53-08:00	2020-11-14T14:11:26+00:00	2020-11-18T07:59:59+00:00	-4	78xd4m1wg2y5090@marketplace.amazon.com	Lezlie E. Milson	+1 480-618-5344 ext. 55328	ABM022	Delivery by Tuesday | Purple Extravagance Bouquet by Arabella Bouquets	1	0	1	Expedited	Mr. & Mrs. Yoni Zonszein	230 MOTT ST APT 2			NEW YORK	NY	10012-4147	US		Wishing you Mazal Tov, all the happiness, joy and good health for the years to come.   Thinking of you with love,   Roni, Avigal, Yonatan, Yael, & Naomi From  Roni, Avigal, Yonatan, Yael, & Naomi	false		
114-7794613-0136264	37500033304522	2020-11-14T13:54:24+00:00	2020-11-14T05:54:24-08:00	2020-11-14T14:24:01+00:00	2020-11-18T07:59:59+00:00	-4	d9w4rjv142yyzmw@marketplace.amazon.com	EUGENE SHOULTS	+1 480-618-5344 ext. 26749	ABM022	Delivery by Tuesday | Purple Extravagance Bouquet by Arabella Bouquets	1	0	1	Expedited	Ronnie & Rachel Johnson	45 WALTON RD			HUNTINGTOWN	MD	20639-9413	US		Happy Birthday, Rachel! We love you! Enjoy the day! Love, Dad and Cathy From EUGENE SHOULTS	false		
112-2116144-0604206	64725012821882	2020-11-14T14:15:04+00:00	2020-11-14T06:15:04-08:00	2020-11-14T14:44:45+00:00	2020-11-18T07:59:59+00:00	-4	73h7r7428ndr98j@marketplace.amazon.com	Jan Ross	+716-467-7024	ABM022	Delivery by Tuesday | Purple Extravagance Bouquet by Arabella Bouquets	1	0	1	Expedited	Ashley Beardsley	1127 W BROOKS ST			NORMAN	OK	73069-4538	US			false		
114-4237962-5165834	18134336158194	2020-11-14T14:15:37+00:00	2020-11-14T06:15:37-08:00	2020-11-14T14:46:07+00:00	2020-11-18T07:59:59+00:00	-4	lfbr5y2sq0h5jmf@marketplace.amazon.com	Dean Bradley	+1 929-436-4790 ext. 13900	ABM022	Delivery by Tuesday | Purple Extravagance Bouquet by Arabella Bouquets	1	0	1	Expedited	Tina Theobald	1997 LAKE LANSING RD APT 1			HASLETT	MI	48840-9512	US			false		
113-7854248-9714638	27377906574234	2020-11-14T14:27:17+00:00	2020-11-14T06:27:17-08:00	2020-11-14T14:57:43+00:00	2020-11-18T07:59:59+00:00	-4	zn0p1htxz1fgrr7@marketplace.amazon.com	Debra M. Arab	+1 929-436-4790 ext. 58928	ABM022	Delivery by Tuesday | Purple Extravagance Bouquet by Arabella Bouquets	1	0	1	Expedited	Barry Ivers	282 CIRCULO SAN LUCAS			ROHNERT PARK	CA	94928-1946	US			false		
112-3294808-8964213	26464101456218	2020-11-14T14:37:17+00:00	2020-11-14T06:37:17-08:00	2020-11-14T15:03:45+00:00	2020-11-18T07:59:59+00:00	-4	djj3spfqnflnfn1@marketplace.amazon.com	Barry N. Bergman	+1 602-671-6610 ext. 41470	ABR0022	Delivery by Tuesday | Arabella Farm Direct Bouquet of 12 Fresh Cut Pink Roses with a Free Glass Vase	1	0	1	Expedited	Ajoy Roy	149 CEDAR HEIGHTS DR			JAMESVILLE	NY	13078-9485	US			false		
111-0440398-6359438	63747596346562	2020-11-14T14:52:27+00:00	2020-11-14T06:52:27-08:00	2020-11-14T15:11:59+00:00	2020-11-18T07:59:59+00:00	-4	1403pj8ct6yhyyv@marketplace.amazon.com	Jack Chiappe	+1 929-436-4790 ext. 32650	ABR0022	Delivery by Tuesday | Arabella Farm Direct Bouquet of 12 Fresh Cut Pink Roses with a Free Glass Vase	1	0	1	Expedited	Donna Petersen	807 S OAK CREEK DR			GENOA	IL	60135-8189	US		Happy Birthday Mom, Miss You! Love Jack From Jack Chiappe	false		
113-3026008-9901031	34107077385202	2020-11-14T14:49:55+00:00	2020-11-14T06:49:55-08:00	2020-11-14T15:12:48+00:00	2020-11-18T07:59:59+00:00	-4	g9hy66l95nc8sfw@marketplace.amazon.com	Pamela J Greer	+1 213-442-1463 ext. 31407	ABR0022	Delivery by Tuesday | Arabella Farm Direct Bouquet of 12 Fresh Cut Pink Roses with a Free Glass Vase	1	0	1	Expedited	Deryl Brown Archie	538 SW 335TH ST			FEDERAL WAY	WA	98023-6189	US		Celebrating a successful surgery and our love for you. Have a wonderful Thanksgiving.  Stay strong. From Pam and Nik	false		
114-2109004-2558647	02260917227394	2020-11-14T15:00:12+00:00	2020-11-14T07:00:12-08:00	2020-11-14T15:15:09+00:00	2020-11-18T07:59:59+00:00	-4	00y8t1p0w24hwb3@marketplace.amazon.com	Catherine Holland	+1 602-671-6610 ext. 96056	ABR004	Delivery by Monday | Arabella Farm Direct Bouquet of 12 Fresh Cut Yellow Roses with a Free Glass Vase	1	0	1	Expedited	Brenda Mooshian	2217 FRANKLIN CIR			LITTLE RIVER	SC	29566-9119	US		Happy belated Birthday, Brenda! 🎂 Happy loving thoughts are coming your way from Maryland... Sorry these flowers are late but I figure it's better to receive flowers late than not at all!! 😘🎂🎉❤😁🍧🎉🎊🎈🎁🌻🌼🌞🎂😘 From Chuck and Cass	false		
112-3440476-2644260	08462009196786	2020-11-14T14:51:24+00:00	2020-11-14T06:51:24-08:00	2020-11-14T15:21:13+00:00	2020-11-18T07:59:59+00:00	-4	gr38n6nw5k7938f@marketplace.amazon.com	Catrina Rhoten	+1 480-618-5344 ext. 47972	ABM022	Delivery by Tuesday | Purple Extravagance Bouquet by Arabella Bouquets	1	0	1	Expedited	Alta Ralls	745 NW 2ND ST			PRINEVILLE	OR	97754-1424	US		Happy Birthday Grandma! Love, Catrina, Scott,  Lily and Hudson From Catrina Rhoten	false		
112-2482256-6869051	48470130899474	2020-11-14T14:53:49+00:00	2020-11-14T06:53:49-08:00	2020-11-14T15:22:08+00:00	2020-11-18T07:59:59+00:00	-4	yd08mzb0rrpfs7j@marketplace.amazon.com	Jackie Merrow	0000	ABM020	Delivery by Tuesday | The Sunset Bouquet by Arabella Bouquets	1	0	1	Expedited	Phyllis Grady	1219 W WYNNEWOOD RD APT 606			WYNNEWOOD	PA	19096-2122	US			false		
111-2710649-2696231	41110724970066	2020-11-14T14:54:26+00:00	2020-11-14T06:54:26-08:00	2020-11-14T15:23:41+00:00	2020-11-18T07:59:59+00:00	-4	d66mk4w0sf6r3y3@marketplace.amazon.com	Jalal N Kia	+1 619-854-2705 ext. 08768	ABM022	Delivery by Tuesday | Purple Extravagance Bouquet by Arabella Bouquets	1	0	1	Expedited	Jalal N. Kia	638 STONEWOOD DR			LOS BANOS	CA	93635-9204	US			false		
111-8734499-5392245	12583747082338	2020-11-14T15:08:01+00:00	2020-11-14T07:08:01-08:00	2020-11-14T15:24:20+00:00	2020-11-18T07:59:59+00:00	-4	yg9npcgqqvds7hf@marketplace.amazon.com	Natalia Vorobyova	+1 929-436-4790 ext. 08705	ABM022	Delivery by Tuesday | Purple Extravagance Bouquet by Arabella Bouquets	1	0	1	Expedited	Svitlana Fontela	905 LAKE PARK DR APT 103			DAVIDSON	NC	28036-5544	US		Happy birthday, Svetochka! Be healthy and happy every day! We love you a lot! From mom, dad, N,S,N	false		
112-7967696-9735427	63234929822554	2020-11-14T14:55:50+00:00	2020-11-14T06:55:50-08:00	2020-11-14T15:25:48+00:00	2020-11-18T07:59:59+00:00	-4	2z4t1z7wc4dg905@marketplace.amazon.com	Richard Dec	+1 602-671-6610 ext. 72331	ABM022	Delivery by Tuesday | Purple Extravagance Bouquet by Arabella Bouquets	1	0	1	Expedited	Marilyn Weddleton	16 WILLOW ST UNIT 112			MELROSE	MA	02176-3884	US			false		
113-5751076-7010636	46297217243082	2020-11-14T15:04:26+00:00	2020-11-14T07:04:26-08:00	2020-11-14T15:28:52+00:00	2020-11-18T07:59:59+00:00	-4	v7p9dbw83cnn6b3@marketplace.amazon.com	Isabela	+1 929-436-4790 ext. 73090	ABM010	Delivery by Tuesday | The Spring Fling Bouquet by Arabella Bouquets with a Free Designer Glass Vase	1	0	1	Expedited	Family Williamsom	1418 NE 57TH PL			FORT LAUDERDALE	FL	33334-6120	US		With Love for Bill and Vania. Friends Forever. From Peter & Isabela	false		
112-7468285-0238647	10122689989138	2020-11-14T15:10:04+00:00	2020-11-14T07:10:04-08:00	2020-11-14T15:37:02+00:00	2020-11-18T07:59:59+00:00	-4	jjd7x12lv8z7193@marketplace.amazon.com	Yuriy Lopatynskyy	+1 929-436-4790 ext. 89480	ABM022	Delivery by Tuesday | Purple Extravagance Bouquet by Arabella Bouquets	1	0	1	Expedited	Marina Elwell	24 SPRINGLANE DR			BLACKWOOD	NJ	08012-4542	US		Happy Birthday Marina!  We love you and miss you. From Yura and fam	false		
112-9225320-6324225	09436639557498	2020-11-14T15:11:35+00:00	2020-11-14T07:11:35-08:00	2020-11-14T15:39:49+00:00	2020-11-18T07:59:59+00:00	-4	qbwk81zsrx7vbg5@marketplace.amazon.com	Todd	+1 415-851-9136 ext. 72952	ABR0022	Delivery by Tuesday | Arabella Farm Direct Bouquet of 12 Fresh Cut Pink Roses with a Free Glass Vase	1	0	1	Expedited	Agnes Ward	18 BARRY LN			SYOSSET	NY	11791-3834	US		Happy 84th Birthday!! Wishing you a wonderful day!! We miss you! Hope to see you soon! Love Gwen, Todd, Sarah, Courtney & Emma. From Gwen & Todd	false		
111-2347460-5000260	51353045812634	2020-11-14T15:12:41+00:00	2020-11-14T07:12:41-08:00	2020-11-14T15:43:04+00:00	2020-11-18T07:59:59+00:00	-4	r9grqfvpc1lxh5m@marketplace.amazon.com	Patrick J. Fanning	+1 213-442-1463 ext. 13713	ABM022	Delivery by Tuesday | Purple Extravagance Bouquet by Arabella Bouquets	1	0	1	Expedited	Rachel Barrientes	14627 Park Arbor Ct.			Cypress	Texas	77429	US		We love you From Patrick Brenda Rian and Andrew	false		
113-2148260-8789047	49757206830642	2020-11-14T15:26:51+00:00	2020-11-14T07:26:51-08:00	2020-11-14T15:50:47+00:00	2020-11-18T07:59:59+00:00	-4	b7z46rqvv9rmf0c@marketplace.amazon.com	Lynne S Baumann	+1 602-671-6610 ext. 43680	ABM010	Delivery by Tuesday | The Spring Fling Bouquet by Arabella Bouquets with a Free Designer Glass Vase	1	0	1	Expedited	Pam Perkins	1031 WHISTLING WINGS CT			SUAMICO	WI	54173-8180	US		Hi Pam- I know we don’t usually do lovey things, but I wanted to thank you for being a good friend; a frontline worker’ and to tell you I’m so sorry that you won’t see family over the holidays. Love Lynne	false		
113-0230060-3021078	37170066700154	2020-11-14T15:27:26+00:00	2020-11-14T07:27:26-08:00	2020-11-14T15:56:58+00:00	2020-11-18T07:59:59+00:00	-4	25kx8p82cw0hlhg@marketplace.amazon.com	Michael Gerleman	+1 480-618-5344 ext. 06517	ABM020	Delivery by Tuesday | The Sunset Bouquet by Arabella Bouquets	1	0	1	Expedited	Michael Gerleman	1111 COCONUT LN			BOWLING GREEN	FL	33834-5021	US			false		
114-1274296-7370639	62611215943850	2020-11-14T15:32:50+00:00	2020-11-14T07:32:50-08:00	2020-11-14T16:02:22+00:00	2020-11-18T07:59:59+00:00	-4	9jg78rwzl8thphc@marketplace.amazon.com	George Oliver	+1 619-854-2705 ext. 35591	ABM020	Delivery by Tuesday | The Sunset Bouquet by Arabella Bouquets	1	0	1	Expedited	Katie O'Connor	1913 PLYMOUTH ST			MIDLAND	MI	48642-6813	US		Sorry we did not get dinner together this time. Now you take care of yourself and get better fast! From George Oliver	false		
112-8291661-5177029	00989647742618	2020-11-14T15:52:41+00:00	2020-11-14T07:52:41-08:00	2020-11-14T16:21:13+00:00	2020-11-18T07:59:59+00:00	-4	cprcpy5d5nblgs2@marketplace.amazon.com	rosie walker	+1 929-436-4790 ext. 72760	ABM031	Delivery by Wednesday | The Harvest Moon Bouquet by Arabella Bouquets	1	0	1	Expedited	reta oberg	13822 E WHITEWOOD CT			WICHITA	KS	67230-9609	US		Happy Birthday Aunt Reta! Wish we could be with you! From Love Mike ,Rosie &Francesca	false		
114-0946799-5825015	46471891833050	2020-11-14T16:00:17+00:00	2020-11-14T08:00:17-08:00	2020-11-14T16:29:19+00:00	2020-11-18T07:59:59+00:00	-4	j9lq6bhx20md1x5@marketplace.amazon.com	Jireh Aki	+1 619-854-2705 ext. 36221	ABM010	Delivery by Tuesday | The Spring Fling Bouquet by Arabella Bouquets with a Free Designer Glass Vase	1	0	1	Expedited	Margot Scott	4706 SHARON RD			TEMPLE HILLS	MD	20748-3740	US		Hi Mom, Just thinking of you and hope these flowers brighten your day, since we have to remain socially distant. Love and Miss you! From Jireh Aki	false		
113-6471372-9415434	45386124354410	2020-11-14T16:08:10+00:00	2020-11-14T08:08:10-08:00	2020-11-14T16:37:12+00:00	2020-11-18T07:59:59+00:00	-4	4n9bg5cm2kdwgm1@marketplace.amazon.com	J Bowden	+1 213-442-1463 ext. 38099	ABR0022	Delivery by Tuesday | Arabella Farm Direct Bouquet of 12 Fresh Cut Pink Roses with a Free Glass Vase	1	0	1	Expedited	Jo Shea	407 S PALM AVE			MELBOURNE BEACH	FL	32951-2131	US		Happy Birthday Aunt Jo! We love you! From Jo and Craig	false		
114-5740117-4009029	34746070294202	2020-11-14T16:28:15+00:00	2020-11-14T08:28:15-08:00	2020-11-14T16:58:02+00:00	2020-11-18T07:59:59+00:00	-4	lkds476bd05dmd3@marketplace.amazon.com	HERBERT W TWINING ENTERPRISES INC.	+1 213-442-1463 ext. 77056	ABM010	Delivery by Tuesday | The Spring Fling Bouquet by Arabella Bouquets with a Free Designer Glass Vase	1	0	1	Expedited	Laura Collier	4989 HOBBITON LN			ANN ARBOR	MI	48103-9334	US		I Love You Laura! From Mom	false		
113-2226857-5500215	59431813646546	2020-11-14T16:29:12+00:00	2020-11-14T08:29:12-08:00	2020-11-14T16:59:18+00:00	2020-11-18T07:59:59+00:00	-4	g0xtv34b2v0pmhy@marketplace.amazon.com	Rhonda Andera	+1 929-436-4790 ext. 69259	ABR0033	Delivery by Tuesday | Arabella Farm Direct Bouquet of 12 Fresh Cut Orange Roses with a Free Glass Vase	1	0	1	Expedited	Ron Thompson	101 E LYNN WAY			QUEEN VALLEY	AZ	85118-9849	US			false		
112-3343367-6693054	24982027550258	2020-11-14T16:31:12+00:00	2020-11-14T08:31:12-08:00	2020-11-14T17:01:15+00:00	2020-11-18T07:59:59+00:00	-4	n3t9szc5fy55rqj@marketplace.amazon.com	angela Kimber	+1 619-854-2705 ext. 14649	ABR0022	Delivery by Tuesday | Arabella Farm Direct Bouquet of 12 Fresh Cut Pink Roses with a Free Glass Vase	1	0	1	Expedited	nadine Allen	2153 W NEDRO AVE			PHILADELPHIA	PA	19138-2934	US			false		
114-6891422-1061861	38279308309682	2020-11-14T16:34:04+00:00	2020-11-14T08:34:04-08:00	2020-11-14T17:02:45+00:00	2020-11-18T07:59:59+00:00	-4	zn45d8qg7fxy2gd@marketplace.amazon.com	asia	+1 480-618-5344 ext. 92471	ABR0022	Delivery by Tuesday | Arabella Farm Direct Bouquet of 12 Fresh Cut Pink Roses with a Free Glass Vase	1	0	1	Expedited	Alma Gant	145 COLONIAL CIR			MAGEE	MS	39111-5795	US		Happy Birthday Mama! I wish we were there to hug you!  Love, Asia, Bamm, & Kids From Asia, Bamm, & Kids	false		
112-3611504-5237065	25749408435786	2020-11-14T16:22:32+00:00	2020-11-14T08:22:32-08:00	2020-11-14T17:02:59+00:00	2020-11-18T07:59:59+00:00	-4	8gc7j23vd0tk2lf@marketplace.amazon.com	Gaynell L. Wadel	+1 619-854-2705 ext. 42990	ABR0022	Delivery by Tuesday | Arabella Farm Direct Bouquet of 12 Fresh Cut Pink Roses with a Free Glass Vase	1	0	1	Expedited	Gail Wadel	2545 BAY POINTE DR			SAINT JOSEPH	MI	49085-2848	US			false		
112-3528763-6993862	36859145455994	2020-11-14T16:45:37+00:00	2020-11-14T08:45:37-08:00	2020-11-14T17:14:22+00:00	2020-11-18T07:59:59+00:00	-4	sswbcnfyqnb392w@marketplace.amazon.com	Holly C Walker	+1 480-618-5344 ext. 15759	ABR0033	Delivery by Tuesday | Arabella Farm Direct Bouquet of 12 Fresh Cut Orange Roses with a Free Glass Vase	1	0	1	Expedited	The Ballingers	W2006 LYNDON LN			LYNDON STATION	WI	53944-9456	US		We are thinking about you.  Just wanted to send some sunshine your way.  Miss you!  Love you! From Holly, Lynn and the girls	false		
113-6852683-0265853	24595027224490	2020-11-14T16:47:15+00:00	2020-11-14T08:47:15-08:00	2020-11-14T17:16:52+00:00	2020-11-18T07:59:59+00:00	-4	1qw2j1l3mfvxqlx@marketplace.amazon.com	manas	+1 213-442-1463 ext. 88622	ABR0022	Delivery by Tuesday | Arabella Farm Direct Bouquet of 12 Fresh Cut Pink Roses with a Free Glass Vase	1	0	1	Expedited	Margaret Polinkovsky	2808 BISHOP BROOK CT			CARY	NC	27519-7722	US			false		
114-6890537-6404223	34378368243986	2020-11-14T16:52:00+00:00	2020-11-14T08:52:00-08:00	2020-11-14T17:21:14+00:00	2020-11-18T07:59:59+00:00	-4	9z74c0m2rwhm2h0@marketplace.amazon.com	Laurend Abrahim	+1 213-442-1463 ext. 44761	ABR0022	Delivery by Tuesday | Arabella Farm Direct Bouquet of 12 Fresh Cut Pink Roses with a Free Glass Vase	1	0	1	Expedited	Marcia Jacobson	4709 GREEN RIVER CT NE			MARIETTA	GA	30068-4869	US		Happy Birthday!  I hope it is a great day.  Love  Laurend, Michelle & the boys. From Laurend Abrahim	false		
112-8604831-4214651	64633899041154	2020-11-14T16:58:17+00:00	2020-11-14T08:58:17-08:00	2020-11-14T17:23:18+00:00	2020-11-18T07:59:59+00:00	-4	gnt1fjhkktj84vl@marketplace.amazon.com	Patrick A. Mannion	+1 602-671-6610 ext. 93052	ABR001	Delivery by Tuesday | Arabella Bouquets 12 Stems of Fresh Cut Red Roses in a Free Designer Glass Vase	1	0	1	Expedited	Karen A. Rattmann	15 EAGLE DR			ENDWELL	NY	13760-2568	US		Karen, we heard of your upcoming challenge and just wanted you to know we’re thinking of you.  You’re in our prayers.  You power through this, covid will go away, and we will get to see you again soon! From Gwyn & Pat Mannion	false		
112-5779750-6915448	44493992123794	2020-11-14T17:11:54+00:00	2020-11-14T09:11:54-08:00	2020-11-14T17:30:02+00:00	2020-11-18T07:59:59+00:00	-4	y72rtw17hxk97lx@marketplace.amazon.com	donald gergovich	+1 602-671-6610 ext. 97646	ABM0044	Delivery by Wednesday | Arabella Farm Direct Bouquet of Fresh Cut Blue Hydrangea with a Free Glass Vase	1	0	1	Expedited	Jack & Germaine Costello	2351 STEPHENS CIR			GAINESVILLE	GA	30506-1187	US		Happy Anniversary!! We love you too, too much!!🥂 ❤️❤️ From Don & Vicki 🥂	false		
114-2112978-7889825	00436064529122	2020-11-14T17:06:57+00:00	2020-11-14T09:06:57-08:00	2020-11-14T17:34:14+00:00	2020-11-18T07:59:59+00:00	-4	w37753066r2jzg4@marketplace.amazon.com	Eileen Sahagian	+1 602-671-6610 ext. 26886	ABM010	Delivery by Tuesday | The Spring Fling Bouquet by Arabella Bouquets with a Free Designer Glass Vase	1	0	1	Expedited	Joel and Donna Blumenthal	1213 ISLANDER WAY			VERO BEACH	FL	32963-3984	US		So glad you are together again! Stay healthy and happy! We will miss you! From Eileen and Dork	false		
113-3425651-6038664	02483017857386	2020-11-14T17:06:28+00:00	2020-11-14T09:06:28-08:00	2020-11-14T17:36:02+00:00	2020-11-18T07:59:59+00:00	-4	2ghj063kcz8d9g8@marketplace.amazon.com	ROBERT S SCROGGINS JR	+1 619-854-2705 ext. 39429	ABR0022	Delivery by Tuesday | Arabella Farm Direct Bouquet of 12 Fresh Cut Pink Roses with a Free Glass Vase	1	0	1	Expedited	Kimberly Nuber	9008 44TH AVE SW			SEATTLE	WA	98136-2423	US		Hi Kimberly, We sure love you and are thinking of you! Bob and Dede	false		
113-3867104-1536204	16244496110186	2020-11-14T17:16:09+00:00	2020-11-14T09:16:09-08:00	2020-11-14T17:43:28+00:00	2020-11-18T07:59:59+00:00	-4	bn8hnh94bgm6t93@marketplace.amazon.com	Jenny McCune	+1 213-442-1463 ext. 56121	ABR0033	Delivery by Tuesday | Arabella Farm Direct Bouquet of 12 Fresh Cut Orange Roses with a Free Glass Vase	1	0	1	Expedited	Sheila McCune	2518 N PECKHAM ST			WICHITA	KANSAS	67228-8006	US		Happy 70th Birthday!! Another milestone to celebrate, I remember your 60th and it doesn't seem that long ago! From Love, Jenny	false		
112-5088353-0209803	63234375516434	2020-11-14T17:22:22+00:00	2020-11-14T09:22:22-08:00	2020-11-14T17:52:05+00:00	2020-11-18T07:59:59+00:00	-4	c7zqqyp7gxccw5t@marketplace.amazon.com	Fatima Ashmore	+1 415-851-9136 ext. 41958	ABM010	Delivery by Tuesday | The Spring Fling Bouquet by Arabella Bouquets with a Free Designer Glass Vase	1	0	1	Expedited	Laura Ashmore	7161 E CANNON PLACE DR			ROCKFORD	MI	49341-7621	US			false		
113-8729656-5213003	01703806798858	2020-11-14T17:23:33+00:00	2020-11-14T09:23:33-08:00	2020-11-14T17:54:06+00:00	2020-11-18T07:59:59+00:00	-4	83tz10dqb8zx59f@marketplace.amazon.com	Joshua Danzy	+1 619-854-2705 ext. 63570	ABM022	Delivery by Tuesday | Purple Extravagance Bouquet by Arabella Bouquets	1	0	1	Expedited	Joshua  Danzy	14317 SHARP LN			PORT ALLEN	LA	70767-5438	US			false		
113-0278484-0637019	58653314861810	2020-11-14T17:28:30+00:00	2020-11-14T09:28:30-08:00	2020-11-14T17:55:33+00:00	2020-11-18T07:59:59+00:00	-4	wm3g9nsvlq2jqrj@marketplace.amazon.com	John Hanson	+1 619-854-2705 ext. 77748	ABR0022	Delivery by Tuesday | Arabella Farm Direct Bouquet of 12 Fresh Cut Pink Roses with a Free Glass Vase	1	0	1	Expedited	John Hanson	12829 CHAIN LAKE RD			SNOHOMISH	WA	98290-8635	US			false		
112-2266760-5986666	01524880070914	2020-11-14T17:34:50+00:00	2020-11-14T09:34:50-08:00	2020-11-14T18:02:36+00:00	2020-11-18T07:59:59+00:00	-4	rvmzfhdz37g8538@marketplace.amazon.com	Amber Price	+1 480-618-5344 ext. 49920	ABM0033	Delivery by Wednesday | Arabella Farm Direct Bouquet of Fresh Cut White Hydrangea with a Free Glass Vase	1	0	1	Expedited	Dockstader	515 Woolley Avenue			Colorado City	AZ	86021	US		Sorry for your loss- Wishing your family peace and comfort. From Jackson & Amber Hobbs	false		
114-2598789-4177050	49178292930522	2020-11-14T17:36:53+00:00	2020-11-14T09:36:53-08:00	2020-11-14T18:05:10+00:00	2020-11-18T07:59:59+00:00	-4	lvllsbrq40jzlk1@marketplace.amazon.com	Sandie Okoro-Hopkins	20205691657	ABR0022	Delivery by Tuesday | Arabella Farm Direct Bouquet of 12 Fresh Cut Pink Roses with a Free Glass Vase	1	0	1	Expedited	Francesca Daverio	4442 Q ST NW			WASHINGTON	DC	20007-2015	US		Dear Francie, Thank you. Thank you. Thank you! Your Unicorn From Sandie Okoro	false		
112-8987130-9724254	05196905034482	2020-11-14T17:48:43+00:00	2020-11-14T09:48:43-08:00	2020-11-14T18:14:32+00:00	2020-11-18T07:59:59+00:00	-4	pvhfvg1qs1k3nvl@marketplace.amazon.com	Rashada Allen	+1 213-442-1463 ext. 91503	ABR004	Delivery by Monday | Arabella Farm Direct Bouquet of 12 Fresh Cut Yellow Roses with a Free Glass Vase	1	0	1	Expedited	Sheryl Ray	10539 24TH AVE NE			SEATTLE	WA	98125-6610	US		“There will be tough days but one day there will come a time when everything will be alright.” From Rashada Allen	false		
112-5103846-6642640	32210972455258	2020-11-14T17:45:50+00:00	2020-11-14T09:45:50-08:00	2020-11-14T18:14:48+00:00	2020-11-18T07:59:59+00:00	-4	t8r97v6625hqv5g@marketplace.amazon.com	Krystal pidgeon	+1 602-671-6610 ext. 20843	ABR0022	Delivery by Tuesday | Arabella Farm Direct Bouquet of 12 Fresh Cut Pink Roses with a Free Glass Vase	1	0	1	Expedited	PJ Hooper	7905 PARHAM AVE			DENHAM SPRINGS	LA	70706-1951	US			false		
113-5811776-4164229	21261051392594	2020-11-14T17:53:35+00:00	2020-11-14T09:53:35-08:00	2020-11-14T18:21:54+00:00	2020-11-18T07:59:59+00:00	-4	0s8f5cmpz2n4jsl@marketplace.amazon.com	Rachel J Donaldson	+1 602-671-6610 ext. 47248	ABR0022	Delivery by Tuesday | Arabella Farm Direct Bouquet of 12 Fresh Cut Pink Roses with a Free Glass Vase	1	0	1	Expedited	Cousin Shana	11880 W BRONTE DR			BOISE	ID	83709-7754	US		Get well soon!  We love you. From The Donaldson’s (and Cora and Family)	false		
113-3621563-5195465	44882472101962	2020-11-14T17:55:04+00:00	2020-11-14T09:55:04-08:00	2020-11-14T18:24:54+00:00	2020-11-18T07:59:59+00:00	-4	qpdx707sxf6yr3v@marketplace.amazon.com	amy b drake	+1 619-854-2705 ext. 24986	ABR0033	Delivery by Tuesday | Arabella Farm Direct Bouquet of 12 Fresh Cut Orange Roses with a Free Glass Vase	1	0	1	Expedited	Delaney Drake	505 UNIVERSITY AVE APT 310			MADISON	WI	53703-4940	US			false		
111-0052930-4725028	01868612982818	2020-11-14T18:08:53+00:00	2020-11-14T10:08:53-08:00	2020-11-14T18:34:39+00:00	2020-11-18T07:59:59+00:00	-4	w7rjqb7whyqhc0r@marketplace.amazon.com	mary j. faletto	+1 929-436-4790 ext. 41419	ABR0022	Delivery by Tuesday | Arabella Farm Direct Bouquet of 12 Fresh Cut Pink Roses with a Free Glass Vase	1	0	1	Expedited	Jessica & Scott Sigman	49 FAWN HILL RD			HANOVER	PA	17331-8222	US		Who said Thanksgiving can't be PINK! Happy Belated Birthday and Happy Thanksgiving Jessie.  💘 Grandma From Mary J. Faletto	false		
111-1315004-8529810	20162414383698	2020-11-14T18:10:42+00:00	2020-11-14T10:10:42-08:00	2020-11-14T18:34:52+00:00	2020-11-18T07:59:59+00:00	-4	m8tkbscclpg17qd@marketplace.amazon.com	Christine lee	0019365243220	ABM010	Delivery by Tuesday | The Spring Fling Bouquet by Arabella Bouquets with a Free Designer Glass Vase	1	0	1	Expedited	Danielle Whalen	107 NOTLOC CT			MONTGOMERY	TX	77316-1692	US		To Dani,Trev & Jordan, CONGRATULATIONS on the safe arrival of baby Savannah Belle!We are all looking forward to meeting your baby girl & having cuddles!Hugs & kisses to you all love lots Mum,Jason,Nicola,Al,Theo & Christine From XXXXX	false		
113-0548201-9834659	50930689223682	2020-11-14T18:26:23+00:00	2020-11-14T10:26:23-08:00	2020-11-14T18:35:37+00:00	2020-11-18T07:59:59+00:00	-4	5rk1g7d7y29kg2y@marketplace.amazon.com	Earl D. Terry, Jr.	+1 415-851-9136 ext. 42886	ABM022	Delivery by Tuesday | Purple Extravagance Bouquet by Arabella Bouquets	1	0	1	Expedited	Earl D. Terry Jr.	4707 SHAWN DR			KILLEEN	TX	76542-8435	US		Happy "92" Birthday, to the best Aunt any nephew could wish for. May our Lord and Savior bless you with many more birthday blessings. Know that you're loved with all my heart. From Earl, Jr. (Texas Pete, Your Favorite Nephew).	false		
112-8470740-3877001	54457118389050	2020-11-14T18:13:36+00:00	2020-11-14T10:13:36-08:00	2020-11-14T18:35:37+00:00	2020-11-18T07:59:59+00:00	-4	gpb45ssf96fb02k@marketplace.amazon.com	Chris Jones	+1 480-618-5344 ext. 24663	ABM023	Delivery by Wednesday | The Morning Sun Bouquet by Arabella Bouquets	1	0	1	Expedited	Leah Baker	1328 SW BLAINE ST			MCMINNVILLE	OR	97128-6609	US		Leah: Thanks for taking such good care of Mom! From Chris and Mir Jones	false		
112-8470740-3877001	19119178887378	2020-11-14T18:13:36+00:00	2020-11-14T10:13:36-08:00	2020-11-14T18:35:37+00:00	2020-11-18T07:59:59+00:00	-4	gpb45ssf96fb02k@marketplace.amazon.com	Chris Jones	+1 480-618-5344 ext. 24663	ABM022	Delivery by Tuesday | Purple Extravagance Bouquet by Arabella Bouquets	1	0	1	Expedited	Leah Baker	1328 SW BLAINE ST			MCMINNVILLE	OR	97128-6609	US		Mom: We love you very much! From Chris and Mir Jones	false		
112-8470740-3877001	35523242988322	2020-11-14T18:13:36+00:00	2020-11-14T10:13:36-08:00	2020-11-14T18:35:37+00:00	2020-11-18T07:59:59+00:00	-4	gpb45ssf96fb02k@marketplace.amazon.com	Chris Jones	+1 480-618-5344 ext. 24663	ABM024	Delivery by Wednesday | The Beauty of Color Bouquet by Arabella Bouquets	1	0	1	Expedited	Leah Baker	1328 SW BLAINE ST			MCMINNVILLE	OR	97128-6609	US		Alyssa: Thank you for your self-sacrificing spirit! From Chris and Mir  Jones	false		
114-8514151-0325010	59221674478770	2020-11-14T18:15:57+00:00	2020-11-14T10:15:57-08:00	2020-11-14T18:44:53+00:00	2020-11-18T07:59:59+00:00	-4	821t5zwfvcw779b@marketplace.amazon.com	Debbie Beukema	+1 480-618-5344 ext. 85497	ABM017	Delivery by Tuesday | Arabella Bouquets 10 Stems of Blue Dendrobium Orchids in a Free Designer Glass Vase	1	0	1	Expedited	Missi Rogge	609 GILLEASE ST			CHEROKEE	IA	51012-1115	US		Dearest Shnoodles, Wishing you a speedy recovery. Love you like a hurricane sweet friend!!! From Debbie Beukema	false		
111-3573683-9977011	56122660196914	2020-11-14T18:19:33+00:00	2020-11-14T10:19:33-08:00	2020-11-14T18:48:53+00:00	2020-11-18T07:59:59+00:00	-4	mfftzsxng1fy286@marketplace.amazon.com	Donna Saucier	+1 213-442-1463 ext. 31102	ABR0055	Delivery by Tuesday | Arabella Farm Direct Bouquet of 12 Stems of Fresh Cut Hot Pink Roses in a Free Designer Glass Vase	1	0	1	Expedited	Lisa kass	5881 FLINT LOOP			THE VILLAGES	FL	32163-5403	US		To Lisa.  Love Fay, Sharyn, Tara, Tash and Donna From Donna Saucier	false		
111-6437750-9979463	05094505141466	2020-11-14T18:20:17+00:00	2020-11-14T10:20:17-08:00	2020-11-14T18:49:18+00:00	2020-11-18T07:59:59+00:00	-4	9z29t7wr7yw9fkm@marketplace.amazon.com	Jacque Bixby	+1 213-442-1463 ext. 38466	ABR0055	Delivery by Tuesday | Arabella Farm Direct Bouquet of 12 Stems of Fresh Cut Hot Pink Roses in a Free Designer Glass Vase	1	0	1	Expedited	Keely Black	4440 RIDGE POINT LN			PLANO	TX	75024-7038	US		Sending you love and happy birthday wishes.  Love, Jacque From Jacque Bixby	false		
114-6961782-0812254	45199045982138	2020-11-14T18:23:08+00:00	2020-11-14T10:23:08-08:00	2020-11-14T18:51:40+00:00	2020-11-18T07:59:59+00:00	-4	m7jvl0pv89msp7y@marketplace.amazon.com	Wayne	+1 213-442-1463 ext. 10051	ABM020	Delivery by Tuesday | The Sunset Bouquet by Arabella Bouquets	1	0	1	Expedited	Deniece Berryman	56557 EL DORADO DR			YUCCA VALLEY	CA	92284-4232	US		I love you so much mom! Have a wonderful birthday! From The Nolan’s	false		
112-5553840-5698649	35769289987178	2020-11-14T18:38:53+00:00	2020-11-14T10:38:53-08:00	2020-11-14T19:07:07+00:00	2020-11-18T07:59:59+00:00	-4	kswkw5z9cs8zmc9@marketplace.amazon.com	Christina Kocher	+1 480-618-5344 ext. 80553	ABM017	Delivery by Tuesday | Arabella Bouquets 10 Stems of Blue Dendrobium Orchids in a Free Designer Glass Vase	1	0	1	Expedited	Christina Kocher	3438 S Park Cir			Roanoke	VA	24018-2519	US		Dear Vicki,  Sending you love, light and strength with these harsh times of your life.   Hugs Chrissy Stephan Kocher From Chrissy Stephan Kocher	false		
114-2379335-9497060	49942211979770	2020-11-14T18:46:30+00:00	2020-11-14T10:46:30-08:00	2020-11-14T19:16:39+00:00	2020-11-18T07:59:59+00:00	-4	4rqsbhsr6kn9m66@marketplace.amazon.com	ERIC JOHNSON	+1 480-618-5344 ext. 04931	ABR0055	Delivery by Tuesday | Arabella Farm Direct Bouquet of 12 Stems of Fresh Cut Hot Pink Roses in a Free Designer Glass Vase	1	0	1	Expedited	Ms. Stacey D. Robinson	5465 ALVERN CIR			LOS ANGELES	CA	90045-1921	US			false		
114-9006757-7661845	12358640064074	2020-11-14T18:52:15+00:00	2020-11-14T10:52:15-08:00	2020-11-14T19:20:48+00:00	2020-11-18T07:59:59+00:00	-4	0mk9d7gz6ctsymz@marketplace.amazon.com	Stephanie	+1 213-442-1463 ext. 29743	ABM010	Delivery by Tuesday | The Spring Fling Bouquet by Arabella Bouquets with a Free Designer Glass Vase	1	0	1	Expedited	Sharon Begley	455 BEACON ST APT 6			BOSTON	MA	02115-1344	US		Hi Sharon --  Hope these blooms brighten your day. Thinking of you, always -- From Stephanie	false		
113-1205233-0185844	46074842391314	2020-11-14T19:04:47+00:00	2020-11-14T11:04:47-08:00	2020-11-14T19:29:32+00:00	2020-11-18T07:59:59+00:00	-4	1x3lgmw62zlgqqz@marketplace.amazon.com	Barb Bannon	+1 480-618-5344 ext. 99330	ABM022	Delivery by Tuesday | Purple Extravagance Bouquet by Arabella Bouquets	1	0	1	Standard	Jennifer Bannon	APT-D 2208 MONTANA AVE			SANTA MONICA	CA	90403-2153	US		Jenny, have a wonderful birthday!  As always, we'll be thinking of you.                                                     With much love,                                                    Dad & Barb From John & Barb Bannon	false		
112-8127037-1246659	25012715880426	2020-11-14T19:00:37+00:00	2020-11-14T11:00:37-08:00	2020-11-14T19:29:34+00:00	2020-11-18T07:59:59+00:00	-4	d9xnm1860x9s035@marketplace.amazon.com	mary ellen schremser	+1 480-618-5344 ext. 44438	ABM022	Delivery by Tuesday | Purple Extravagance Bouquet by Arabella Bouquets	1	0	1	Expedited	Nancy Miragliuolo	1202 BIRKDALE DR			WINNABOW	NC	28479-5695	US		Happy birthday Mimi! Love: Tom, Erin, Annie and Ava From The Miragliuolos	false		
111-5616659-3285051	26050884273594	2020-11-14T19:04:13+00:00	2020-11-14T11:04:13-08:00	2020-11-14T19:32:23+00:00	2020-11-18T07:59:59+00:00	-4	cywq9djzpfycz5s@marketplace.amazon.com	Lisa Anne Radcliffe	+1 619-854-2705 ext. 71724	ABR0055	Delivery by Tuesday | Arabella Farm Direct Bouquet of 12 Stems of Fresh Cut Hot Pink Roses in a Free Designer Glass Vase	1	0	1	Expedited	Ms. Jeannie LaVista	29 HENNING TER			DENVILLE	NJ	07834-3716	US		Dear Jeannie, Special Birthday Wishes and lots of Kisses Enjoy your gift! From Mr. Max Radcliffe	false		
112-4494558-9453800	36472806838106	2020-11-14T19:10:50+00:00	2020-11-14T11:10:50-08:00	2020-11-14T19:38:53+00:00	2020-11-18T07:59:59+00:00	-4	3c7ct98rjjxjkjg@marketplace.amazon.com	Vanessa Myers	+1 480-618-5344 ext. 81660	ABM010	Delivery by Tuesday | The Spring Fling Bouquet by Arabella Bouquets with a Free Designer Glass Vase	1	0	1	Expedited	Ashlee Sargolini	49 BIRCHWOOD DR			HAMDEN	CT	06518-1141	US		Ashlee and family, we are so sorry to hear of your grandmothers passing. Our thoughts and prayers are with you all, especially during these tough times. Love to all, From Vanessa and Ben Myers	false		
111-9912860-1486616	57794328695650	2020-11-14T19:17:37+00:00	2020-11-14T11:17:37-08:00	2020-11-14T19:46:30+00:00	2020-11-18T07:59:59+00:00	-4	nkgjhgrpv75t9mx@marketplace.amazon.com	Marla Kushner	+1 213-442-1463 ext. 99457	ABM022	Delivery by Tuesday | Purple Extravagance Bouquet by Arabella Bouquets	1	0	1	Expedited	Sam Sawyer	210 Mayflower			Vineyard Haven	MA	02568	US		Happy Birthday!  We love you and miss you, Robb, Marla , Jordan and Noah From Sawyers	false		
111-0899231-4384201	43528062173282	2020-11-14T19:21:14+00:00	2020-11-14T11:21:14-08:00	2020-11-14T19:51:42+00:00	2020-11-18T07:59:59+00:00	-4	0swv4ws3bsvzknw@marketplace.amazon.com	Trenten Joy	+1 929-436-4790 ext. 54843	ABR001	Delivery by Tuesday | Arabella Bouquets 12 Stems of Fresh Cut Red Roses in a Free Designer Glass Vase	1	0	1	Expedited	Anaya Huey	3409 PREMIER DR APT 322 PLANO			PLANO	TX	75023-7046	US			false		
114-1568372-7120224	12260248935786	2020-11-14T19:27:23+00:00	2020-11-14T11:27:23-08:00	2020-11-14T19:55:30+00:00	2020-11-18T07:59:59+00:00	-4	v3rc3vz8m0b57h8@marketplace.amazon.com	Charles Lanese	+1 213-442-1463 ext. 43067	ABM022	Delivery by Tuesday | Purple Extravagance Bouquet by Arabella Bouquets	1	0	1	Expedited	Charline Lanese	22 Davis Avenue			Randolph	NJ	07869	US		Mom and Dad, we all love you!  Love Charles, Natasha, Diana,  Laura, Ed, and the kids!! From Charles Lanese	false		
114-1110655-4499447	37266517631554	2020-11-14T19:26:48+00:00	2020-11-14T11:26:48-08:00	2020-11-14T19:55:51+00:00	2020-11-18T07:59:59+00:00	-4	5d0048hg6b73y33@marketplace.amazon.com	Catherine Zapata	+1 929-436-4790 ext. 84718	ABM010	Delivery by Tuesday | The Spring Fling Bouquet by Arabella Bouquets with a Free Designer Glass Vase	1	0	1	Expedited	Carolina Zapata	330 ZOELLER LN			BOERNE	TX	78006-7713	US		Happiest of birthdays Mom! We love you and appreciate all you do for the whole family. From Michael & Cathy Zapata	false		
112-1784545-2185028	43037303948418	2020-11-14T19:35:55+00:00	2020-11-14T11:35:55-08:00	2020-11-14T19:59:17+00:00	2020-11-18T07:59:59+00:00	-4	7y4xmc566k01wt1@marketplace.amazon.com	Judith Bilello	+1516650792563194260	ABM022	Delivery by Tuesday | Purple Extravagance Bouquet by Arabella Bouquets	1	0	1	Expedited	Janice White	1094 HENLEY DOWNS PL			HEATHROW	FL	32746-1972	US		Dear Janice, Wishing you a speedy recovery, With love and hugs, From Judy and Dad	false		
111-6738448-8084233	16360052390178	2020-11-14T19:45:44+00:00	2020-11-14T11:45:44-08:00	2020-11-14T20:14:18+00:00	2020-11-18T07:59:59+00:00	-4	36w3g8bsfh6zzzs@marketplace.amazon.com	Dennis Brown	+1 619-854-2705 ext. 25231	ABR001	Delivery by Tuesday | Arabella Bouquets 12 Stems of Fresh Cut Red Roses in a Free Designer Glass Vase	1	0	1	Expedited	John Becker	4815 KINGS COVE RD			RACINE	WI	53406-1005	US		Dear John, Best wishes for a speedy recovery! From Dennis and Janet Brown	false		
111-4433958-0320268	65496534370218	2020-11-14T19:48:06+00:00	2020-11-14T11:48:06-08:00	2020-11-14T20:16:56+00:00	2020-11-18T07:59:59+00:00	-4	36w3g8bsfh6zzzs@marketplace.amazon.com	Dennis Brown	+1 619-854-2705 ext. 81419	ABR001	Delivery by Tuesday | Arabella Bouquets 12 Stems of Fresh Cut Red Roses in a Free Designer Glass Vase	1	0	1	Expedited	Ken Doro	7402 W HOLLYANN LN			FRANKLIN	WI	53132-2713	US		Dear Ken, We are happy you're home and praying for your full recovery. Wishing you all of God's blessings. From Dennis and Janet Brown	false		
112-8447804-8007437	09578639980722	2020-11-14T19:54:56+00:00	2020-11-14T11:54:56-08:00	2020-11-14T20:21:08+00:00	2020-11-18T07:59:59+00:00	-4	z6m7xkrk1p5qv0j@marketplace.amazon.com	Olivia Casey	+1 602-671-6610 ext. 95300	ABM022	Delivery by Tuesday | Purple Extravagance Bouquet by Arabella Bouquets	1	0	1	Expedited	Martina Spitzer	7 SANDERS WAY			MEDFIELD	MA	02052-2659	US		Enjoy your last year in your 40's 😁 From Mam, Dad, Olivia xx	false		
112-5081231-7379409	54266582620890	2020-11-14T20:04:19+00:00	2020-11-14T12:04:19-08:00	2020-11-14T20:30:56+00:00	2020-11-18T07:59:59+00:00	-4	p3ljz84lgzc2b0b@marketplace.amazon.com	tiffany	+1 619-854-2705 ext. 89940	ABR0022	Delivery by Tuesday | Arabella Farm Direct Bouquet of 12 Fresh Cut Pink Roses with a Free Glass Vase	1	0	1	Expedited	Mr. and Mrs. Sirois	11 MORELL ST			WEYMOUTH	MA	02191-1008	US		Dave + Ashley,    Thinking of both of you <3 From Tiffany + Matt	false		
113-2584575-5655422	44086711327882	2020-11-14T20:08:28+00:00	2020-11-14T12:08:28-08:00	2020-11-14T20:36:51+00:00	2020-11-18T07:59:59+00:00	-4	x9dpc4dvxlkdlsy@marketplace.amazon.com	vickie blanchard		ABR0022	Delivery by Tuesday | Arabella Farm Direct Bouquet of 12 Fresh Cut Pink Roses with a Free Glass Vase	1	0	1	Expedited	VICKIE A BLANCHARD	109 BANKERS COURT			PIERRE PART	LA	70339	US		Happy Birthday!!! Love you!! From Vickie and Nunie	false		
112-9958319-8952210	42450472669842	2020-11-14T20:12:35+00:00	2020-11-14T12:12:35-08:00	2020-11-14T20:42:49+00:00	2020-11-18T07:59:59+00:00	-4	lnwyrwg402n9984@marketplace.amazon.com	Robin Greenberg	+1 480-618-5344 ext. 69400	ABR0022	Delivery by Tuesday | Arabella Farm Direct Bouquet of 12 Fresh Cut Pink Roses with a Free Glass Vase	1	0	1	Expedited	Shirlee Dickson %Elmcroft Cottonwood	3002 ElmcroftCottonwood #14			Temple	TX	76502	US			false		
111-3651697-6765008	06870068298522	2020-11-14T20:21:21+00:00	2020-11-14T12:21:21-08:00	2020-11-14T20:49:43+00:00	2020-11-18T07:59:59+00:00	-4	3gfhmfcc51n1jng@marketplace.amazon.com	MILTON SPEARS	+1 619-854-2705 ext. 86616	ABR0033	Delivery by Tuesday | Arabella Farm Direct Bouquet of 12 Fresh Cut Orange Roses with a Free Glass Vase	1	0	1	Expedited	Sheree Delaney	1316 N HORSEMANS PARK DR			DAMMERON VALLEY	UT	84783-5119	US			false		
113-1451610-4141851	46914238248970	2020-11-14T20:27:25+00:00	2020-11-14T12:27:25-08:00	2020-11-14T20:56:28+00:00	2020-11-18T07:59:59+00:00	-4	pxr9mmbft0dpbnh@marketplace.amazon.com	Sawyer Fitzgerald	+1 602-671-6610 ext. 97420	ABR0066	Delivery by Wednesday | Arabella Bouquets 12 Stems of Fresh Cut White Roses in a Free Designer Glass Vase	1	0	1	Standard	Sipe Family	1145 25TH AVE SW			ALBANY	OR	97321-7541	US		Steph and family- We are so sorry for your loss. We are thinking about you all. From Morgan & Holly	false		
113-9010452-1779455	63166764015834	2020-11-14T20:30:03+00:00	2020-11-14T12:30:03-08:00	2020-11-14T21:00:23+00:00	2020-11-18T07:59:59+00:00	-4	l8x0cr1yrklp0lf@marketplace.amazon.com	happy j morgan	+1 619-854-2705 ext. 87423	ABR0033	Delivery by Tuesday | Arabella Farm Direct Bouquet of 12 Fresh Cut Orange Roses with a Free Glass Vase	1	0	1	Expedited	Happy Morgan	361 E PUEBLO CT			MOAB	UTAH	84532-2612	US			false		
112-3587281-7669025	24133355401698	2020-11-14T20:49:21+00:00	2020-11-14T12:49:21-08:00	2020-11-14T21:13:16+00:00	2020-11-18T07:59:59+00:00	-4	48c0pv9f7jd2d8d@marketplace.amazon.com	De3borah Anzalone	+1 213-442-1463 ext. 38515	ABM017	Delivery by Tuesday | Arabella Bouquets 10 Stems of Blue Dendrobium Orchids in a Free Designer Glass Vase	1	0	1	Expedited	Mrs. Janice Hay	1323 S  Avenues Conlea			Tucson	AZ	85748	US		Happy birthday to a wonderful friend!!!  Hope you have a great day! With love and friendship 🎂 From Deborah Anzalone	false		
113-1112037-4583404	25052548330890	2020-11-14T20:55:29+00:00	2020-11-14T12:55:29-08:00	2020-11-14T21:22:11+00:00	2020-11-18T07:59:59+00:00	-4	y8kpmj1nhvv68wc@marketplace.amazon.com	Scott Pearse	+1 480-618-5344 ext. 85469	ABM017	Delivery by Tuesday | Arabella Bouquets 10 Stems of Blue Dendrobium Orchids in a Free Designer Glass Vase	1	0	1	Expedited	Louis Welt	536 ATWOOD ST			LONGMONT	CO	80501-5541	US		Our deepest sympathies go out to you during this difficult time. You are in our thoughts and we're sending lots of love. From Scott, Joslyn, Patrick, & Penny Pearse	false		
113-5146429-3482637	33843292272402	2020-11-14T20:59:15+00:00	2020-11-14T12:59:15-08:00	2020-11-14T21:27:59+00:00	2020-11-18T07:59:59+00:00	-4	wkffxnzzyhn621y@marketplace.amazon.com	pandora	+1 619-854-2705 ext. 39323	ABR0022	Delivery by Tuesday | Arabella Farm Direct Bouquet of 12 Fresh Cut Pink Roses with a Free Glass Vase	1	0	1	Expedited	Tom Robbins	801 GRANT ST 301			DENVER	COLORADO	80203-2933	US		Happy birthday Poppy!!! We love you!  Live Izzy, Panda, and Derek From pandora, Izzy and derek	false		
114-2623998-5653063	04309767375114	2020-11-14T21:01:19+00:00	2020-11-14T13:01:19-08:00	2020-11-14T21:30:43+00:00	2020-11-18T07:59:59+00:00	-4	2s31hzl0rcf34pw@marketplace.amazon.com	Clay Skougard	94946340845	ABM022	Delivery by Tuesday | Purple Extravagance Bouquet by Arabella Bouquets	1	0	1	Expedited	Susan Skougard	307 PLYMOUTH DR			CHARLOTTE	MI	48813-2151	US		I love you and enjoy your week From CS	false		
111-0482423-2931461	36104608495202	2020-11-14T21:15:43+00:00	2020-11-14T13:15:43-08:00	2020-11-14T21:34:41+00:00	2020-11-18T07:59:59+00:00	-4	tdqczqn4rj03qst@marketplace.amazon.com	Steve Hawkins	+1 213-442-1463 ext. 51492	ABR0022	Delivery by Tuesday | Arabella Farm Direct Bouquet of 12 Fresh Cut Pink Roses with a Free Glass Vase	1	0	1	Expedited	Linda Orewiler	8960 WHISPERINGHILL DR			CINCINNATI	OH	45242-4667	US		Linda - Wishing you a very Happy Thanksgiving! From All the best, Shari and Steve Hawkins	false		
114-9196678-4870642	65457296614450	2020-11-14T21:10:05+00:00	2020-11-14T13:10:05-08:00	2020-11-14T21:35:35+00:00	2020-11-18T07:59:59+00:00	-4	g9mqtwb7g7zxpvm@marketplace.amazon.com	Joel J Reinfeld	+1 929-436-4790 ext. 42743	ABR0066	Delivery by Wednesday | Arabella Bouquets 12 Stems of Fresh Cut White Roses in a Free Designer Glass Vase	1	0	1	Expedited	Debra Johnston	3399 CENTRAL GARDENS CIR APT 318			PALM BEACH GARDENS	FL	33418-8715	US		Wishing you a very happy birthday! From Stephanie & joel	false		
111-4770618-5968254	05770745998442	2020-11-14T21:18:41+00:00	2020-11-14T13:18:41-08:00	2020-11-14T21:49:24+00:00	2020-11-18T07:59:59+00:00	-4	9w8kpvmdjjpc5w0@marketplace.amazon.com	Anthony J Krupinski	+1 480-618-5344 ext. 85807	ABM010	Delivery by Tuesday | The Spring Fling Bouquet by Arabella Bouquets with a Free Designer Glass Vase	1	0	1	Expedited	KAREN JONES	1695 CAMFIELD LN			MOUNT PLEASANT	SC	29466-8095	US			false		
111-9923223-0737009	16289093645922	2020-11-14T21:30:12+00:00	2020-11-14T13:30:12-08:00	2020-11-14T21:59:06+00:00	2020-11-18T07:59:59+00:00	-4	kz3hqdyy458txcs@marketplace.amazon.com	Kadian Callahan	+1 213-442-1463 ext. 30354	ABR0033	Delivery by Tuesday | Arabella Farm Direct Bouquet of 12 Fresh Cut Orange Roses with a Free Glass Vase	1	0	1	Expedited	Shelly Ann Bridgen Brown	2622 MORNINGSIDE TRL NW			KENNESAW	GA	30144-6086	US		Celebrating 44 - Happy Birthday! Who says you can't connect with your girlfriends in a pandemic 😉! From Kadian	false		
112-1045383-7191443	13137010651226	2020-11-14T21:31:31+00:00	2020-11-14T13:31:31-08:00	2020-11-14T22:01:27+00:00	2020-11-18T07:59:59+00:00	-4	fm35scg1w5nj0l1@marketplace.amazon.com	Michelle	+1 415-851-9136 ext. 48743	ABR0033	Delivery by Tuesday | Arabella Farm Direct Bouquet of 12 Fresh Cut Orange Roses with a Free Glass Vase	1	0	1	Expedited	Janet Roth	1208 BETTS ST NE			ALBUQUERQUE	NM	87112-5418	US			false		
111-3639699-5326606	41957108146978	2020-11-14T21:36:25+00:00	2020-11-14T13:36:25-08:00	2020-11-14T22:04:18+00:00	2020-11-18T07:59:59+00:00	-4	l52wlj48z4cftq3@marketplace.amazon.com	Adrienne Oliveros	+1 619-854-2705 ext. 68355	ABR0033	Delivery by Tuesday | Arabella Farm Direct Bouquet of 12 Fresh Cut Orange Roses with a Free Glass Vase	1	0	1	Expedited	Ivy Oliveros	3325 Tanager Ct.			Cumming	GA	30041	US		Happy birthday Mom and Kathy! We hope that you have a wonderful day and that we can see you soon! Here's to a happy and healthy year. Miss and love you! From Paul, Adrienne, Camilla, Caroline & Calvin	false		
114-6527289-3514611	26979781150354	2020-11-14T21:55:50+00:00	2020-11-14T13:55:50-08:00	2020-11-14T22:26:32+00:00	2020-11-18T07:59:59+00:00	-4	sh5wjnmltyjy95k@marketplace.amazon.com	Kimberly Baran	+1 929-436-4790 ext. 59077	ABM022	Delivery by Tuesday | Purple Extravagance Bouquet by Arabella Bouquets	1	0	1	Expedited	Bobby Gleiser	871 LAS LOMAS DR UNIT 39 C			LA HABRA	CA	90631-2230	US			false		
113-9600217-6630633	13971980417434	2020-11-14T22:01:03+00:00	2020-11-14T14:01:03-08:00	2020-11-14T22:29:57+00:00	2020-11-18T07:59:59+00:00	-4	n0rtpnq2z512vk3@marketplace.amazon.com	satya garg	+1 213-442-1463 ext. 07642	ABM010	Delivery by Tuesday | The Spring Fling Bouquet by Arabella Bouquets with a Free Designer Glass Vase	1	0	1	Expedited	Sarika garg schwab	820 MISSION ST UNIT 307			SOUTH PASADENA	CA	91030-3462	US			false		
114-8233663-6663423	04647532572490	2020-11-14T22:23:21+00:00	2020-11-14T14:23:21-08:00	2020-11-14T22:48:22+00:00	2020-11-18T07:59:59+00:00	-4	t0gb8zqct5t0r0j@marketplace.amazon.com	nivi	+1 619-854-2705 ext. 59132	ABR0022	Delivery by Tuesday | Arabella Farm Direct Bouquet of 12 Fresh Cut Pink Roses with a Free Glass Vase	1	0	1	Expedited	Sambhu Prasad Tanikella	210 WATERFORD LNDG			MCDONOUGH	GA	30253-7707	US		Dear Sambhu and Subhash,  Happy Diwali and Happy Thanksgiving. It has been quite a roller coaster 2020. I hope you take time to smell the roses and enjoy it in your home. From Nivi	false		
111-8752382-7925802	22761123392994	2020-11-14T22:21:49+00:00	2020-11-14T14:21:49-08:00	2020-11-14T22:51:01+00:00	2020-11-18T07:59:59+00:00	-4	8mppl139rk328nm@marketplace.amazon.com	David Thompson	+1 213-442-1463 ext. 88103	ABR0066	Delivery by Wednesday | Arabella Bouquets 12 Stems of Fresh Cut White Roses in a Free Designer Glass Vase	1	0	1	Expedited	Andrea Christensen	127 25TH AVE E # B			SEATTLE	WA	98112-5405	US		We are so sorry for the loss of your beloved Wazi, sister. From David & Steph	false		
114-2104012-8941006	64941307056818	2020-11-14T22:35:45+00:00	2020-11-14T14:35:45-08:00	2020-11-14T23:04:49+00:00	2020-11-18T07:59:59+00:00	-4	pls2zc2tdzrhpz3@marketplace.amazon.com	Denise M. Pitchford	+1 213-442-1463 ext. 33664	ABM025	Delivery by Wednesday | The Fell for You Bouquet by Arabella Bouquets	1	0	1	Expedited	Kathy Nelson	637 WALNUT ST			ROYERSFORD	PA	19468-2411	US			false		
112-9580989-2329814	32678474660258	2020-11-14T22:38:44+00:00	2020-11-14T14:38:44-08:00	2020-11-14T23:08:06+00:00	2020-11-18T07:59:59+00:00	-4	9c0ff8d20y6qnpc@marketplace.amazon.com	Stacy	+1 213-442-1463 ext. 87382	ABR0066	Delivery by Wednesday | Arabella Bouquets 12 Stems of Fresh Cut White Roses in a Free Designer Glass Vase	1	0	1	Expedited	Paty Soares	305 BEAUMONT RD			DEVON	PA	19333-1703	US			false		
