order-id	order-item-id	purchase-date	payments-date	reporting-date	promise-date	days-past-promise	buyer-email	buyer-name	buyer-phone-number	sku	product-name	quantity-purchased	quantity-shipped	quantity-to-ship	ship-service-level	recipient-name	ship-address-1	ship-address-2	ship-address-3	ship-city	ship-state	ship-postal-code	ship-country	gift-wrap-type	gift-message-text	is-business-order	purchase-order-number	price-designation
114-8396931-4305004	07553668093290	2020-11-16T15:04:38+00:00	2020-11-16T07:04:38-08:00	2020-11-16T15:32:56+00:00	2020-11-19T07:59:59+00:00	-1	2rln9l01p8tq8z9@marketplace.amazon.com	Miguel Villarejos	+1 480-618-5344 ext. 07257	ABM022	Delivery by Tuesday | Purple Extravagance Bouquet by Arabella Bouquets	1	0	1	Expedited	Miguel Villarejos	1512 Cohasset Court			Cincinnati	OH	45255	US			false		
112-1233818-1659445	65226560959594	2020-11-16T16:05:05+00:00	2020-11-16T08:05:05-08:00	2020-11-16T16:32:33+00:00	2020-11-19T07:59:59+00:00	-1	lmgg594b24m05hx@marketplace.amazon.com	Ileana Sorina Deac Cauacean	+1 213-442-1463 ext. 71525	ABR001	Delivery by Tuesday | Arabella Bouquets 12 Stems of Fresh Cut Red Roses in a Free Designer Glass Vase	1	0	1	Expedited	Ileana Sorina Deac Cauacean	8475 AVENIDA ANGULIA UNIT 25			SPRING VALLEY	CA	91977-6232	US		Feliz 30 cumpleaños caracola De Ileana Sorina Deac Cauacean	false		
113-6422514-8514626	24470157437450	2020-11-16T17:41:21+00:00	2020-11-16T09:41:21-08:00	2020-11-16T18:03:42+00:00	2020-11-19T07:59:59+00:00	-1	rhgqtlfmyn0pwy0@marketplace.amazon.com	Ed McCool	+1 602-671-6610 ext. 69784	ABM017	Delivery by Tuesday | Arabella Bouquets 10 Stems of Blue Dendrobium Orchids in a Free Designer Glass Vase	1	0	1	Expedited	Jen McCool	190 E 72ND ST UNIT 21C			NEW YORK	NY	10021-4370	US		Dear Jen, A heartfelt expression of condolences and the best of all results and happenings in your new position.  I am deeply proud of you for all your are.  You blessed your Mom and she knows.  Much Love Dad From Ed McCool	false		
112-2595675-3484212	59991318166338	2020-11-16T19:52:30+00:00	2020-11-16T11:52:30-08:00	2020-11-16T20:19:59+00:00	2020-11-19T07:59:59+00:00	-1	r4zkvf40fkr5ytd@marketplace.amazon.com	Jen.L	+1 619-854-2705 ext. 21240	ABR0033	Delivery by Wednesday | Arabella Farm Direct Bouquet of 12 Fresh Cut Orange Roses with a Free Glass Vase	1	0	1	Expedited	John Brennan	425 DIVISADERO ST STE 305			SAN FRANCISCO	CA	94117-2242	US		Happy birthday John!! Wish you and family a wonderful Thanksgiving & happy holidays!!  -Jennifer From Numbrstudio Financial Group	false		
114-6522056-6164267	60512089241978	2020-11-16T21:02:53+00:00	2020-11-16T13:02:53-08:00	2020-11-16T21:29:14+00:00	2020-11-19T07:59:59+00:00	-1	qnctd0hbkhmqp2s@marketplace.amazon.com	sunny	+1 480-618-5344 ext. 63647	ABM017	Delivery by Thursday | Arabella Bouquets 10 Stems of Blue Dendrobium Orchids in a Free Designer Glass Vase	1	0	1	Expedited	marge mclaren	162 AMEREN WAY APT 722			BALLWIN	MO	63021-3316	US		We love you very much! Wish we could be there to celebrate with you! Love Scott, Sunny, Brinnah, Raegan and Delaney! From sunny	false		
113-0751471-1196203	68003790825546	2020-11-16T23:13:41+00:00	2020-11-16T15:13:41-08:00	2020-11-16T23:36:42+00:00	2020-11-19T07:59:59+00:00	-1	yy6rpwkdp0wvw51@marketplace.amazon.com	Donna Whitham	+1 213-442-1463 ext. 85844	ABM022	Delivery by Wednesday | Purple Extravagance Bouquet by Arabella Bouquets	1	0	1	Expedited	Oxana Whitham	10834 ROSE AVE APT 19			LOS ANGELES	CA	90034-5315	US		Oxana, we are so proud of you and how hard you've worked to become a nurse. We know you will be a beautiful, kind, and caring person to all of the people you meet in your new profession. We love you! From Love, Donna and Larry	false		
113-0904823-5142669	55750908366394	2020-11-17T00:03:59+00:00	2020-11-16T16:03:59-08:00	2020-11-17T00:26:57+00:00	2020-11-19T07:59:59+00:00	-1	nwtw1kbkp9yx0hr@marketplace.amazon.com	Yolanda Davis	+1 602-671-6610 ext. 85806	ABR0055	Delivery by Wednesday | Arabella Farm Direct Bouquet of 12 Stems of Fresh Cut Hot Pink Roses in a Free Designer Glass Vase	1	0	1	Expedited	Sandra Schefris	2216 VALENCIA DR			NORTHBROOK	IL	60062-7019	US		Happy Birthday Sandra, God Blessings on many more to come ! With Love.... From Yolanda	false		
111-8080741-4089044	64924764350018	2020-11-17T00:21:50+00:00	2020-11-16T16:21:50-08:00	2020-11-17T00:51:20+00:00	2020-11-19T07:59:59+00:00	-1	b4f7k8pn8y4l6s7@marketplace.amazon.com	Raul G	+1 480-618-5344 ext. 58012	ABR0022	Delivery by Wednesday | Arabella Farm Direct Bouquet of 12 Fresh Cut Pink Roses with a Free Glass Vase	1	0	1	Expedited	Jenn Camp	1021 MAYWOOD LN APT 318			MARTINEZ	CA	94553-6569	US		We are sorry to hear about your father From CIM Team	false		
112-3145285-6384217	20937325603474	2020-11-17T01:19:58+00:00	2020-11-16T17:19:58-08:00	2020-11-17T01:48:16+00:00	2020-11-19T07:59:59+00:00	-1	cy01z7d2jbcc7x2@marketplace.amazon.com	Marti Hampton	+1 602-671-6610 ext. 14790	ABM022	Delivery by Wednesday | Purple Extravagance Bouquet by Arabella Bouquets	1	0	1	Expedited	Shirley Campbell	1632 Benita Marie Crest			Redlands	CA	92373-7001	US		Happy Birthday Nonie!! I love you and wish I could be there to celebrate with you! From Jillian	false		
112-5627388-1384239	39432297757378	2020-11-17T03:52:31+00:00	2020-11-16T19:52:31-08:00	2020-11-17T04:20:45+00:00	2020-11-19T07:59:59+00:00	-1	pkp6m85jnnh16wp@marketplace.amazon.com	Farrukh Mushtaq	+1 929-436-4790 ext. 20265	ABM022	Delivery by Wednesday | Purple Extravagance Bouquet by Arabella Bouquets	1	0	1	Expedited	Charity Sills	205 POTRERO ST APT 1			SANTA CRUZ	CA	95060-2746	US			false		
114-6611743-9759413	37828244076282	2020-11-17T04:06:23+00:00	2020-11-16T20:06:23-08:00	2020-11-17T04:27:08+00:00	2020-11-19T07:59:59+00:00	-1	f4spvy9hltr63tp@marketplace.amazon.com	Adrian Sandru	+1 619-854-2705 ext. 84081	ABM010	Delivery by Wednesday | The Spring Fling Bouquet by Arabella Bouquets with a Free Designer Glass Vase	1	0	1	Expedited	Liliana Stefan	896 CORTE DE BLANCO			SAN JOSE	CA	95136-2620	US		Dear Lili, these flowers were meant as a late Birthday gift! Enjoy them to help you go over your father’s loss a bit easier. Love and lots of hugs, Mari and the family From Marilena Sandru	false		
112-4225356-8642646	13723094029714	2020-11-17T15:23:47+00:00	2020-11-17T07:23:47-08:00	2020-11-17T15:53:12+00:00	2020-11-20T07:59:59+00:00	-2	fl204lv4f06zk5l@marketplace.amazon.com	Danny	+1 602-671-6610 ext. 34352	ABM022	Delivery by Wednesday | Purple Extravagance Bouquet by Arabella Bouquets	1	0	1	Expedited	Theresa Monterroso	910 CLINTON ST			REDWOOD CITY	CA	94061-1767	US		Happy Birthday Theresa! Love Danny and Kristen From Danny & Kristen	false		
112-2235389-3685834	34979790024634	2020-11-17T15:37:06+00:00	2020-11-17T07:37:06-08:00	2020-11-17T16:07:24+00:00	2020-11-20T07:59:59+00:00	-2	mfsyjt50yj4tjdv@marketplace.amazon.com	Nina Basu	+1 415-851-9136 ext. 34838	ABM017	Delivery by Thursday | Arabella Bouquets 10 Stems of Blue Dendrobium Orchids in a Free Designer Glass Vase	1	0	1	Expedited	Graham Cruickshank	7120 LASTING LIGHT WAY			COLUMBIA	MD	21045-5122	US			false		
111-5651435-3826654	36390387716370	2020-11-17T17:52:07+00:00	2020-11-17T09:52:07-08:00	2020-11-17T18:20:48+00:00	2020-11-20T07:59:59+00:00	-2	vx3glms3l7q1349@marketplace.amazon.com	Corey Mortimer	+1 480-618-5344 ext. 91789	ABR0033	Delivery by Wednesday | Arabella Farm Direct Bouquet of 12 Fresh Cut Orange Roses with a Free Glass Vase	1	0	1	Expedited	Bridget Ebert	14013 WIND MOUNTAIN RD NE			ALBUQUERQUE	NM	87112-6562	US			false		
112-7338437-1712248	60618162261154	2020-11-17T17:54:41+00:00	2020-11-17T09:54:41-08:00	2020-11-17T18:24:38+00:00	2020-11-20T07:59:59+00:00	-2	h372v4vglz4g86c@marketplace.amazon.com	Mike Coleman	+1 213-442-1463 ext. 50179	ABM010	Delivery by Wednesday | The Spring Fling Bouquet by Arabella Bouquets with a Free Designer Glass Vase	1	0	1	Expedited	Amber Brown	726 DEMARET DR APT 1			COLUMBIA	MO	65202-3055	US		Congrats on the new job - I'm so excited for you!! From D	false		
113-2834915-5301832	06639120246226	2020-11-17T17:58:59+00:00	2020-11-17T09:58:59-08:00	2020-11-17T18:28:15+00:00	2020-11-20T07:59:59+00:00	-2	2crr5sd34q79173@marketplace.amazon.com	Kevin	+1 480-618-5344 ext. 86277	ABM021	Delivery by Thursday | The Joyous Bouquet by Arabella Bouquets	1	0	1	Expedited	Barbara Nutter	712 SILVERBOW AVE			BELGRADE	MT	59714-4217	US		Happy 60th Birthday Mom! Wish we could be there to celebrate with you! Love you bunches!!! From Tera, Kevin, Austin and Kate	false		
114-0871603-8857810	36104251699954	2020-11-17T18:45:31+00:00	2020-11-17T10:45:31-08:00	2020-11-17T19:03:53+00:00	2020-11-20T07:59:59+00:00	-2	d24wh2mtqjsglfs@marketplace.amazon.com	Tye	+7872929117	ABM022	Delivery by Wednesday | Purple Extravagance Bouquet by Arabella Bouquets	1	0	1	Expedited	Annexys Cacho	321 NORTHLAKE BLVD APT 2141			ALTAMONTE SPRINGS	FL	32701-5257	US		Happy Thanksgiving! May you and yours enjoy the many blessings of the season, Love, Tye, Titi Norma, and Gregory From Tye, Titi Norma, and Greg	false		
113-0103330-0013005	07935416367170	2020-11-17T18:46:15+00:00	2020-11-17T10:46:15-08:00	2020-11-17T19:16:36+00:00	2020-11-20T07:59:59+00:00	-2	1xh32rdvxlw8nfz@marketplace.amazon.com	Jodi Setzer	+1 602-671-6610 ext. 68899	ABR0022	Delivery by Wednesday | Arabella Farm Direct Bouquet of 12 Fresh Cut Pink Roses with a Free Glass Vase	1	0	1	Expedited	Janie Sexton	91523 DOLPHIN RD			WARRENTON	OR	97146-9413	US			false		
114-0570786-4708212	08981646319322	2020-11-17T18:46:08+00:00	2020-11-17T10:46:08-08:00	2020-11-17T19:16:45+00:00	2020-11-20T07:59:59+00:00	-2	dkm5hbf2f5w7j9d@marketplace.amazon.com	Dorothy Baker	+1 602-671-6610 ext. 41632	ABR013	Delivery by Thursday | Arabella Farm Direct Bouquet of 18 Fresh Cut Yellow Roses with a Free Glass Vase	1	0	1	Expedited	Dorothy  Baker	12 Racine Ct			Monticello	New York	12701	US			false		
114-5734126-9605000	37774229394970	2020-11-17T18:52:39+00:00	2020-11-17T10:52:39-08:00	2020-11-17T19:16:46+00:00	2020-11-20T07:59:59+00:00	-2	1mbvy1xmfqqwz85@marketplace.amazon.com	Barbara J. Mesney	+1 480-618-5344 ext. 63894	ABR0033	Delivery by Wednesday | Arabella Farm Direct Bouquet of 12 Fresh Cut Orange Roses with a Free Glass Vase	1	0	1	Standard	Audie Manes	3512 BEVERLY GLEN BLVD			SHERMAN OAKS	CA	91423-4437	US		Dear Audie, Thinking of you and sending you love and blessings this Thanksgiving, and always Barbara, Patti, Looki Louise and Beasley From Mims	false		
112-6201656-4282644	02647590012594	2020-11-17T18:56:17+00:00	2020-11-17T10:56:17-08:00	2020-11-17T19:22:04+00:00	2020-11-20T07:59:59+00:00	-2	9w6269qlyykh1t0@marketplace.amazon.com	Nichole Ossa	+1 480-618-5344 ext. 53719	ABR0055	Delivery by Wednesday | Arabella Farm Direct Bouquet of 12 Stems of Fresh Cut Hot Pink Roses in a Free Designer Glass Vase	1	0	1	Expedited	Management office: Amy and Rachel	5001 COLLEGE ST SE			LACEY	WA	98503-5943	US		From the Ossa family: thank you for your support during Solomon’s mental health crisis. Your interactions were kind and helped us get him medical care. From Nichole Ossa	false		
114-3650721-2017025	51830572318450	2020-11-17T18:58:42+00:00	2020-11-17T10:58:42-08:00	2020-11-17T19:27:46+00:00	2020-11-20T07:59:59+00:00	-2	0kwb2c986yfd710@marketplace.amazon.com	Donna Ambriano	+1 602-671-6610 ext. 52040	ABM022	Delivery by Wednesday | Purple Extravagance Bouquet by Arabella Bouquets	1	0	1	Expedited	The Dvoretskys	66 OCEAN ST			OGUNQUIT	ME	03907-3017	US		Happy birthday...hope to see you soon!  Much love From Donna, Joe, Flapjack, and Finn	false		
114-8253080-0545829	59893592498506	2020-11-17T19:04:27+00:00	2020-11-17T11:04:27-08:00	2020-11-17T19:29:54+00:00	2020-11-20T07:59:59+00:00	-2	77cz96tfdh19rvs@marketplace.amazon.com	Terri Dove	+1 619-854-2705 ext. 91218	ABR0022	Delivery by Wednesday | Arabella Farm Direct Bouquet of 12 Fresh Cut Pink Roses with a Free Glass Vase	1	0	1	Expedited	Avante at Leesburg/Beverly Loeschke	2000 EDGEWOOD AVE # 5516			LEESBURG	FL	34748-5516	US		Happy Birthday mom! Love Terri and Rob From Terri Dove	false		
113-0017485-3003433	31369165884698	2020-11-17T19:08:42+00:00	2020-11-17T11:08:42-08:00	2020-11-17T19:31:15+00:00	2020-11-20T07:59:59+00:00	-2	nkkc6jybfzd610x@marketplace.amazon.com	Liz Jones	+1 602-671-6610 ext. 10512	ABM021	Delivery by Thursday | The Joyous Bouquet by Arabella Bouquets	1	0	1	Expedited	Jill Burkhart	985 S THREE SPRINGS RANCH RD			MARYSVALE	UT	84750-7718	US		Jill & Dan, We are grateful for your trust in selling your home. We wish you the best. Happy Holiday's and Congratulations! From Liz and Team	false		
111-4395681-0081009	55741843098954	2020-11-17T19:31:29+00:00	2020-11-17T11:31:29-08:00	2020-11-17T19:32:23+00:00	2020-11-20T07:59:59+00:00	-2	l0n17xg74s3dlkv@marketplace.amazon.com	Arichica Prescott	+1 619-854-2705 ext. 55990	ABM022	Delivery by Wednesday | Purple Extravagance Bouquet by Arabella Bouquets	1	0	1	Expedited	Cindy Becker	717 WHITEHALL DR			MADISON	WI	53714-3449	US		Enjoy your gift! Happy Birthday Sweet Friend!  Love and miss you.  Arichica From Arichica Prescott	false		
112-8520208-2441032	45799662804978	2020-11-17T19:04:27+00:00	2020-11-17T11:04:27-08:00	2020-11-17T19:33:25+00:00	2020-11-20T07:59:59+00:00	-2	r401clb4qymq41f@marketplace.amazon.com	LINDA HEITKAMP	+1 619-854-2705 ext. 55730	ABM010	Delivery by Wednesday | The Spring Fling Bouquet by Arabella Bouquets with a Free Designer Glass Vase	1	0	1	Expedited	BRIGETTE UHRICH	151 HEYN AVE			SAGINAW	MI	48602-3112	US		Rest and recharge your batteries my friend! Love, Linda From LINDA HEITKAMP	false		
111-1231799-2897020	02230674207682	2020-11-17T19:08:00+00:00	2020-11-17T11:08:00-08:00	2020-11-17T19:36:53+00:00	2020-11-20T07:59:59+00:00	-2	gcxw6l2wvwxg9lt@marketplace.amazon.com	beverley coorough	+1 619-854-2705 ext. 32673	ABR0022	Delivery by Thursday| Arabella Farm Direct Bouquet of 12 Fresh Cut Pink Roses with a Free Glass Vase	1	0	1	Expedited	Aubray Coorough	1545 IRONWOOD LN			NORTH LIBERTY	IA	52317-4749	US		Hope you feeling okay From Bev and Ray xx	false		
112-7460504-3897855	10174398301058	2020-11-17T19:29:08+00:00	2020-11-17T11:29:08-08:00	2020-11-17T19:43:48+00:00	2020-11-20T07:59:59+00:00	-2	9k2z9rxvjbfzxvn@marketplace.amazon.com	Tait Wasser	+1 480-618-5344 ext. 60003	ABM010	Delivery by Thursday| The Spring Fling Bouquet by Arabella Bouquets with a Free Designer Glass Vase	1	0	1	Expedited	Mrs. Stahlman	701 S DRYDEN PL			ARLINGTON HEIGHTS	IL	60005-2763	US		Dear Mrs. Stahlman,  Thank you very much for the birthday party and cupcakes after champs, I was very touched by your sweet surprise From Adrijana	false		
113-3906779-5642649	22663788692842	2020-11-17T19:16:17+00:00	2020-11-17T11:16:17-08:00	2020-11-17T19:45:28+00:00	2020-11-20T07:59:59+00:00	-2	7tqd3q54cf6yk27@marketplace.amazon.com	Lonnie Nasatir	+1 415-851-9136 ext. 32044	ABR0022	Delivery by Thursday| Arabella Farm Direct Bouquet of 12 Fresh Cut Pink Roses with a Free Glass Vase	1	0	1	Expedited	Carolyn Rosenberg	4643 BOCAIRE BLVD			BOCA RATON	FL	33487-1145	US		Happy birthday! Enjoy your special day and we love you! From Lonnie, Risa, Rach, and Lex	false		
111-8920049-1321050	24840302610562	2020-11-17T19:19:49+00:00	2020-11-17T11:19:49-08:00	2020-11-17T19:47:10+00:00	2020-11-20T07:59:59+00:00	-2	x4r8brbydnr8zcj@marketplace.amazon.com	Jaime Holt	+1 929-436-4790 ext. 28436	ABR0033	Delivery by Thursday| Arabella Farm Direct Bouquet of 12 Fresh Cut Orange Roses with a Free Glass Vase	1	0	1	Expedited	Ariane Schrah	9138 SADDLE HORN CT			PROSPER	TX	75078-8829	US			false		
114-5912081-2750632	37055036834098	2020-11-17T19:25:37+00:00	2020-11-17T11:25:37-08:00	2020-11-17T19:51:16+00:00	2020-11-20T07:59:59+00:00	-2	nq6qqbl7blj4ks6@marketplace.amazon.com	MISS PENNY FARRINGTON	+1 929-436-4790 ext. 61624	ABR0022	Delivery by Thursday| Arabella Farm Direct Bouquet of 12 Fresh Cut Pink Roses with a Free Glass Vase	1	0	1	Expedited	cynthia dandrett	11 EXETER FALLS DR			EXETER	NH	03833-4710	US		Sandy wishing you a speedy recovery  hope you feel better soon penny & ray x From MISS PENNY FARRINGTON	false		
113-2513016-0052209	53079488107778	2020-11-17T19:42:30+00:00	2020-11-17T11:42:30-08:00	2020-11-17T19:53:34+00:00	2020-11-20T07:59:59+00:00	-2	7jyhvmcvkz91xzz@marketplace.amazon.com	Marilyn J Tunnicliffe	+1 602-671-6610 ext. 12531	ABM010	Delivery by Thursday| The Spring Fling Bouquet by Arabella Bouquets with a Free Designer Glass Vase	1	0	1	Expedited	shireen bonner	15 AVENIDA CASA DEL ORO			SANTA FE	NM	87508-6553	US		Jai Baba To Dearest Shireen and Jay  In memory of your wonderful and very special Mum/ Franey.  With all our love in Beloved Baba, Marilyn, Clive and Luke From Marilyn J Tunnicliffe	false		
111-2701300-0536261	38341539840890	2020-11-17T19:42:50+00:00	2020-11-17T11:42:50-08:00	2020-11-17T19:59:20+00:00	2020-11-20T07:59:59+00:00	-2	dxhlp4npjkylqqr@marketplace.amazon.com	Wesley Derbyshire	+1 602-671-6610 ext. 80984	ABR0022	Delivery by Thursday| Arabella Farm Direct Bouquet of 12 Fresh Cut Pink Roses with a Free Glass Vase	1	0	1	Expedited	Melissa Akers	1018 S GOLDENWEED WAY			TUCSON	AZ	85748-7873	US		Wishing you an awesome Birthday!  Just think of these roses dancing for you.  Peace & Love,  Wesley From Wesley Derbyshire	false		
113-3629612-7623401	49625732111762	2020-11-17T19:37:09+00:00	2020-11-17T11:37:09-08:00	2020-11-17T20:00:36+00:00	2020-11-20T07:59:59+00:00	-2	5cj1ltp65nqhbsh@marketplace.amazon.com	Linda Brian	+1 602-671-6610 ext. 13039	ABR0055	Delivery by Thursday| Arabella Farm Direct Bouquet of 12 Stems of Fresh Cut Hot Pink Roses in a Free Designer Glass Vase	1	0	1	Expedited	Bella	873 N EATON AVE			DINUBA	CA	93618-3224	US		Bella We are so sorry about the baby and all that you’ve had to endure through the whole process. We send our love and pray that you heal quickly. From  Perry, Linda , Gio and Michael	false		
114-4190374-0209812	37879666087794	2020-11-17T19:39:45+00:00	2020-11-17T11:39:45-08:00	2020-11-17T20:05:13+00:00	2020-11-20T07:59:59+00:00	-2	zxpfvtj4rm46shf@marketplace.amazon.com	Chrispen	+1 213-442-1463 ext. 96954	ABR0022	Delivery by Thursday| Arabella Farm Direct Bouquet of 12 Fresh Cut Pink Roses with a Free Glass Vase	1	0	1	Expedited	Bailey McNamara	42 GRIST MILL RD			GILL	MA	01354-7605	US		Congratulations on your last final day of college!!! You did it! We are so proud of you and even though we couldn't be there in person, we are shouting at the rooftops for you! Sending big hugs love<3 From Chrispen and Megan :)	false		
112-5960383-0656228	47574003471770	2020-11-17T19:40:28+00:00	2020-11-17T11:40:28-08:00	2020-11-17T20:07:22+00:00	2020-11-20T07:59:59+00:00	-2	7bf01dhzr4628tg@marketplace.amazon.com	Jim Adams	+1 619-854-2705 ext. 59966	ABM022	Delivery by Thursday| Purple Extravagance Bouquet by Arabella Bouquets	1	0	1	Expedited	Chung Hee Adams	4708 SUNDIAL WAY			SANTA FE	NM	87507-2784	US		Happy Birthday Mom! Hope you have a wonderful day! I love you!❤️ Jim From Jim Adams	false		
112-1584068-5756203	39354563478778	2020-11-17T20:00:45+00:00	2020-11-17T12:00:45-08:00	2020-11-17T20:17:43+00:00	2020-11-20T07:59:59+00:00	-2	v070lpg94t2yld5@marketplace.amazon.com	Andrea Diaz	+1 602-671-6610 ext. 77073	ABM022	Delivery by Thursday| Purple Extravagance Bouquet by Arabella Bouquets	1	0	1	Expedited	Rosio R George	2629 WATER LILY CT			VIRGINIA BEACH	VA	23456-1695	US		This is to appreciate the little things God gives us... Is the beauty of this world that makes us smile. From Andrea Diaz	false		
114-4290635-6075440	58485275169442	2020-11-17T19:55:14+00:00	2020-11-17T11:55:14-08:00	2020-11-17T20:22:06+00:00	2020-11-20T07:59:59+00:00	-2	p80bvkph943y4qw@marketplace.amazon.com	Kathleen Roberts	+1 480-618-5344 ext. 26732	ABR0055	Delivery by Thursday| Arabella Farm Direct Bouquet of 12 Stems of Fresh Cut Hot Pink Roses in a Free Designer Glass Vase	1	0	1	Expedited	Alison Nash	2823 BOSTON RD			WILBRAHAM	MA	01095-1857	US		Happy Birthday Ali Love Kathy & Seth  Because your Dad would want you to have flowers today. From Kathleen Roberts	false		
114-7522972-3198608	68192328566410	2020-11-17T19:53:25+00:00	2020-11-17T11:53:25-08:00	2020-11-17T20:22:52+00:00	2020-11-20T07:59:59+00:00	-2	64zy05dwgwjl0sz@marketplace.amazon.com	Erin Stieler	+1 929-436-4790 ext. 02270	ABM022	Delivery by Thursday| Purple Extravagance Bouquet by Arabella Bouquets	1	0	1	Expedited	Myrna Weaver	1222 S CHARLTON PARK RD			HASTINGS	MI	49058-9199	US		Happy Birthday Mommy!  We love and miss you so much!!!   Love, Ken, Erin and Caleb From Erin Stieler	false		
111-2075129-8113017	31194525766866	2020-11-17T19:54:04+00:00	2020-11-17T11:54:04-08:00	2020-11-17T20:22:53+00:00	2020-11-20T07:59:59+00:00	-2	4brl3fpm7px89nh@marketplace.amazon.com	Sheila	+1 602-671-6610 ext. 93848	ABR0033	Delivery by Thursday| Arabella Farm Direct Bouquet of 12 Fresh Cut Orange Roses with a Free Glass Vase	1	0	1	Expedited	Barbara Holliday	6968 ATTICA LN			ORLANDO	FL	32822-3918	US		Happy Thanksgiving Aunt Barbara and Uncle Richard.  I love you so much Aunt Barbie, call me soon!! From Sheila	false		
114-4679460-7894645	41390806614722	2020-11-17T19:58:08+00:00	2020-11-17T11:58:08-08:00	2020-11-17T20:22:56+00:00	2020-11-20T07:59:59+00:00	-2	5f3p9mg0sc0rm4q@marketplace.amazon.com	zach vogt	+1 480-618-5344 ext. 51219	ABR0022	Delivery by Thursday| Arabella Farm Direct Bouquet of 12 Fresh Cut Pink Roses with a Free Glass Vase	1	0	1	Expedited	Lexie Dean	20826 FOXWOOD GLEN LN			HUMBLE	TX	77338-6732	US		Hope these flowers bring a little joy to your day! From zach vogt	false		
113-5152654-2781067	24860272037354	2020-11-17T19:56:13+00:00	2020-11-17T11:56:13-08:00	2020-11-17T20:24:50+00:00	2020-11-20T07:59:59+00:00	-2	zgm254zrwcprp6g@marketplace.amazon.com	Jeff Raulston	+1 480-618-5344 ext. 20574	ABM022	Delivery by Thursday| Purple Extravagance Bouquet by Arabella Bouquets	1	0	1	Expedited	Jill Bartoletti	23207 NE 142ND PL			WOODINVILLE	WA	98077-5874	US		Just because . . . missing Jill! From JR	false		
114-2178834-4353859	59086497268882	2020-11-17T19:57:12+00:00	2020-11-17T11:57:12-08:00	2020-11-17T20:27:24+00:00	2020-11-20T07:59:59+00:00	-2	fnjr236mqn489b3@marketplace.amazon.com	Doris Freed	+1 480-618-5344 ext. 38475	ABR0066	Delivery by Thursday | Arabella Bouquets 12 Stems of Fresh Cut White Roses in a Free Designer Glass Vase	1	0	1	Expedited	Doris freed	4715 COMLY ST			PHILA	PA	19135-4139	US			false		
112-2225056-4291407	50878115255962	2020-11-17T19:57:52+00:00	2020-11-17T11:57:52-08:00	2020-11-17T20:27:36+00:00	2020-11-20T07:59:59+00:00	-2	ybk16hydry9dffs@marketplace.amazon.com	Ted m jackson	+1 480-618-5344 ext. 01035	ABM020	Delivery by Friday | The Sunset Bouquet by Arabella Bouquets	1	0	1	Expedited	Sandy Bessner	8639 NE 141ST ST			KIRKLAND	WA	98034-5328	US			false		
112-0571783-8629851	58912229776162	2020-11-17T19:59:33+00:00	2020-11-17T11:59:33-08:00	2020-11-17T20:29:55+00:00	2020-11-20T07:59:59+00:00	-2	ybk16hydry9dffs@marketplace.amazon.com	Ted m jackson	+1 480-618-5344 ext. 16532	ABM022	Delivery by Thursday| Purple Extravagance Bouquet by Arabella Bouquets	1	0	1	Expedited	Sandy Bessner	8639 NE 141ST ST			KIRKLAND	WA	98034-5328	US			false		
112-8857259-2991406	23641859115914	2020-11-17T20:06:01+00:00	2020-11-17T12:06:01-08:00	2020-11-17T20:30:24+00:00	2020-11-20T07:59:59+00:00	-2	s908h3ntk3hwt2m@marketplace.amazon.com	lori b. krain	+1 929-436-4790 ext. 09932	ABR004	Delivery by Thursday | Arabella Farm Direct Bouquet of 12 Fresh Cut Yellow Roses with a Free Glass Vase	1	0	1	Expedited	Jodi Whitten	111 RYE RD			CHERRY HILL	NJ	08003-1308	US		Hope you have a speedy recovery!  The gaygels and their guys send you healing vibes! Love Lori and Doreen From lori b. krain	false		
113-3783622-4017065	68016725861570	2020-11-17T20:10:07+00:00	2020-11-17T12:10:07-08:00	2020-11-17T20:39:59+00:00	2020-11-20T07:59:59+00:00	-2	7yk1n180930jvhy@marketplace.amazon.com	gary bloomberg	+1 602-671-6610 ext. 69910	ABM022	Delivery by Thursday| Purple Extravagance Bouquet by Arabella Bouquets	1	0	1	Expedited	gene bloomberg	469 HARMONY WAY			MONROE TOWNSHIP	NJ	08831-3775	US		Happy Anniversary!!  Dont eat the flowers - they are real From gary bloomberg	false		
112-2511054-0889010	56853225833018	2020-11-17T20:22:02+00:00	2020-11-17T12:22:02-08:00	2020-11-17T20:42:28+00:00	2020-11-20T07:59:59+00:00	-2	2pfb645p8gvwzgf@marketplace.amazon.com	Don Lautenschleger	+1 213-442-1463 ext. 46566	ABR0022	Delivery by Thursday| Arabella Farm Direct Bouquet of 12 Fresh Cut Pink Roses with a Free Glass Vase	1	0	1	Expedited	G. D. Lautenschleger	3473 HENREDON WAY			MEDFORD	OR	97504-9644	US			false		
113-1049457-7457815	23724572636338	2020-11-17T20:12:59+00:00	2020-11-17T12:12:59-08:00	2020-11-17T20:42:38+00:00	2020-11-20T07:59:59+00:00	-2	9sgsbrycsfttsyq@marketplace.amazon.com	REBECCA SCHEFFLER	+1 929-436-4790 ext. 01883	ABM010	Delivery by Thursday| The Spring Fling Bouquet by Arabella Bouquets with a Free Designer Glass Vase	1	0	1	Expedited	Amanda Jacobs	12764 Mount Oxford Place			Peyton	co	80831	US			false		
111-7790012-8615435	19046727070954	2020-11-17T20:24:29+00:00	2020-11-17T12:24:29-08:00	2020-11-17T20:48:30+00:00	2020-11-20T07:59:59+00:00	-2	d42xdvnszpdrq6y@marketplace.amazon.com	diane ocononnor	+1 213-442-1463 ext. 18044	ABR0033	Delivery by Thursday| Arabella Farm Direct Bouquet of 12 Fresh Cut Orange Roses with a Free Glass Vase	1	0	1	Expedited	Mrs. Theresa Bishop	1220 RICHMOND RD APT 1C			STATEN ISLAND	NY	10304-2440	US		Thinking of you & hoping you have a very Happy Thanksgiving! xoxo With lots of love, Kevin, Diane, Allison & Brian From O’Connor From O’Connor	false		
113-0658203-7131459	58291603219218	2020-11-17T20:23:03+00:00	2020-11-17T12:23:03-08:00	2020-11-17T20:49:37+00:00	2020-11-20T07:59:59+00:00	-2	x3bqbztpkgwv0gk@marketplace.amazon.com	SHERI	+1 480-618-5344 ext. 75266	ABM022	Delivery by Thursday| Purple Extravagance Bouquet by Arabella Bouquets	1	0	1	Expedited	Chelsea Titievskiy	2908 NW LOOP 410			SAN ANTONIO	TX	78230-5136	US			false		
111-9378452-5439439	16188369028850	2020-11-17T20:32:38+00:00	2020-11-17T12:32:38-08:00	2020-11-17T20:57:45+00:00	2020-11-20T07:59:59+00:00	-2	lnb7384p27gmspr@marketplace.amazon.com	Matthew Kafara	+1 480-618-5344 ext. 30346	ABR0066	Delivery by Thursday | Arabella Bouquets 12 Stems of Fresh Cut White Roses in a Free Designer Glass Vase	1	0	1	Expedited	Auntie Gail and Uncle Skip	645 JOYCE ST			GOLDEN	CO	80401-4027	US		I just wanted to let you and uncle skip know that I'm thinking of you and keeping you both in my prayers.  I will always remember and cherish the summers we spent at 11mile lake and the times we went fishing and hunting. From Your Nephew Matthew	false		
111-6665361-6657030	07466523464434	2020-11-17T20:34:27+00:00	2020-11-17T12:34:27-08:00	2020-11-17T21:00:32+00:00	2020-11-20T07:59:59+00:00	-2	synwfkwdyjxw6qd@marketplace.amazon.com	stephanie Maddock	+1 480-618-5344 ext. 30436	ABR012	Delivery by Friday | Arabella Farm Direct Bouquet of 18 Fresh Cut Pink Roses with a Free Glass Vase	1	0	1	Expedited	Judy Tight	4300 N OCEAN BLVD APT 15A			FORT LAUDERDALE	FL	33308-5912	US		We're so happy you are feeling better.  Thank you for being so brave.  We love you like crazy & need you safe & healthy.  Happy Thanksgiving! We are so very thankful for YOU! Bud you!  love,Andrew, Steph, Jimmy, Ellie & Buddy From stephanie Maddock	false		
112-0821673-9359439	68952031871450	2020-11-17T20:35:00+00:00	2020-11-17T12:35:00-08:00	2020-11-17T21:05:32+00:00	2020-11-20T07:59:59+00:00	-2	cyddpjkckgz4gtd@marketplace.amazon.com	Gray	+1 415-851-9136 ext. 88032	ABR0033	Delivery by Thursday| Arabella Farm Direct Bouquet of 12 Fresh Cut Orange Roses with a Free Glass Vase	1	0	1	Expedited	DL Gray	320 EUCLID AVE	APT 304		OAKLAND	CA	94610-3262	US			false		
114-2077508-5458624	28684286401922	2020-11-17T20:50:57+00:00	2020-11-17T12:50:57-08:00	2020-11-17T21:16:44+00:00	2020-11-20T07:59:59+00:00	-2	m4cldty2jm2v7wp@marketplace.amazon.com	Deanna Jenkins	+1 480-618-5344 ext. 30089	ABM022	Delivery by Thursday| Purple Extravagance Bouquet by Arabella Bouquets	1	0	1	Expedited	Mary Como	6160 POPES CREEK PL			HAYMARKET	VA	20169-5434	US		Mary, Just wanted you to know we were thinking of you and hoping for a speedy recovery! From The Jenkins'	false		
114-6014250-5882629	38604741750066	2020-11-17T21:05:52+00:00	2020-11-17T13:05:52-08:00	2020-11-17T21:36:27+00:00	2020-11-20T07:59:59+00:00	-2	kx4dyvszbjkxdp3@marketplace.amazon.com	Judith Siskind	+1 213-442-1463 ext. 05327	ABR0033	Delivery by Thursday| Arabella Farm Direct Bouquet of 12 Fresh Cut Orange Roses with a Free Glass Vase	1	0	1	Expedited	Judith Siskind	3910 HARLANO ST			CORAL GABLES	FL	33134-7165	US			false		
113-9192268-5708214	37929886393282	2020-11-17T21:10:01+00:00	2020-11-17T13:10:01-08:00	2020-11-17T21:36:37+00:00	2020-11-20T07:59:59+00:00	-2	8xcq5q5vh2rfhnb@marketplace.amazon.com	birgit novak	+1 929-436-4790 ext. 32128	ABR0022	Delivery by Thursday| Arabella Farm Direct Bouquet of 12 Fresh Cut Pink Roses with a Free Glass Vase	1	0	1	Expedited	lizie Pedersen	7292 SW 168TH PL			BEAVERTON	OR	97007-4861	US		Hi Diane A little cheer to move you along. Love Sister	false		
111-6821601-7769062	08414470618754	2020-11-17T21:16:17+00:00	2020-11-17T13:16:17-08:00	2020-11-17T21:40:13+00:00	2020-11-20T07:59:59+00:00	-2	bkr43s9t08g4blt@marketplace.amazon.com	LEO ROBINSON	+1 929-436-4790 ext. 95133	ABR0055	Delivery by Thursday| Arabella Farm Direct Bouquet of 12 Stems of Fresh Cut Hot Pink Roses in a Free Designer Glass Vase	1	0	1	Expedited	Leo Robinson	174 S BETHLEHEM PIKE APT B-11			AMBLER	PA	19002-5826	US			false		
112-4319879-9104200	35950347424202	2020-11-17T21:26:33+00:00	2020-11-17T13:26:33-08:00	2020-11-17T21:48:05+00:00	2020-11-20T07:59:59+00:00	-2	q65fm99kfpl8871@marketplace.amazon.com	cbrost	+1 213-442-1463 ext. 96019	ABR0033	Delivery by Thursday| Arabella Farm Direct Bouquet of 12 Fresh Cut Orange Roses with a Free Glass Vase	1	0	1	Expedited	Teresa Hill	125 W WATER ST			BEAVER DAM	WI	53916-1423	US		Our thoughts and prayers are with you and your family, we love you. xoxo From Cindy, Mom and Amy	false		
114-1822565-9706622	25063701646322	2020-11-17T21:21:21+00:00	2020-11-17T13:21:21-08:00	2020-11-17T21:51:58+00:00	2020-11-20T07:59:59+00:00	-2	mcp8j46ylpbl859@marketplace.amazon.com	Jeremy Geisinger	+1 602-671-6610 ext. 68121	ABM022	Delivery by Thursday| Purple Extravagance Bouquet by Arabella Bouquets	1	0	1	Expedited	Jeremy Geisinger	142 FORT ST			FORTY FORT	PA	18704-5045	US			false		
113-1592460-2350630	22233760402802	2020-11-17T21:27:56+00:00	2020-11-17T13:27:56-08:00	2020-11-17T21:57:02+00:00	2020-11-20T07:59:59+00:00	-2	w50fsd4ht237k18@marketplace.amazon.com	jackey walker	+1 929-436-4790 ext. 03022	ABM022	Delivery by Thursday| Purple Extravagance Bouquet by Arabella Bouquets	1	0	1	Expedited	Coree Rogers: CO/ State Farm	6770 S SHERIDAN RD			TULSA	OK	74133-1755	US		Baby Baby. Hope these brighten your day. Love you From Jackey	false		
111-2568651-9025818	47718149842866	2020-11-17T21:29:02+00:00	2020-11-17T13:29:02-08:00	2020-11-17T21:57:37+00:00	2020-11-20T07:59:59+00:00	-2	0x90003frhcrdj6@marketplace.amazon.com	AKG	+1 213-442-1463 ext. 45972	ABR0066	Delivery by Thursday | Arabella Bouquets 12 Stems of Fresh Cut White Roses in a Free Designer Glass Vase	1	0	1	Expedited	Carolyn & Jim Bruckmann	5782 BELMONT AVE			CINCINNATI	OH	45224-2902	US		Carolyn and Jim, Our sincere condolences to you both on the untimely passing of Jamie. You are in our thoughts and hearts.  Love, The Spackmans From Spackman Family	false		
114-3835713-4594649	64813467374386	2020-11-17T21:31:29+00:00	2020-11-17T13:31:29-08:00	2020-11-17T21:59:05+00:00	2020-11-20T07:59:59+00:00	-2	y2j64mw8fqyq0cs@marketplace.amazon.com	Adam	+1 929-436-4790 ext. 53914	ABR0022	Delivery by Thursday| Arabella Farm Direct Bouquet of 12 Fresh Cut Pink Roses with a Free Glass Vase	1	0	1	Expedited	Amy Difilippo	1659 YELLOW SPRINGS RD			CHESTER SPRINGS	PA	19425-1406	US		So much love to you from Adam and Sophie. Thanks for being amazing 😘❤️ From Adam and Soph	false		
111-9915285-6019426	52080640933090	2020-11-17T21:33:58+00:00	2020-11-17T13:33:58-08:00	2020-11-17T21:59:57+00:00	2020-11-20T07:59:59+00:00	-2	0x90003frhcrdj6@marketplace.amazon.com	AKG	+1 480-618-5344 ext. 99970	ABR0066	Delivery by Thursday | Arabella Bouquets 12 Stems of Fresh Cut White Roses in a Free Designer Glass Vase	1	0	1	Expedited	Peggy & Tom Pierce	14017 N COUNTY ROAD 1000 E			SUNMAN	IN	47041-7966	US		Peggy and Tom, Our sincere condolences to you both on the untimely passing of Frankie.  You are in our thoughts and hearts. With Love, Amy (Gorman) Spackman & Family. From Amy Gorman Spackman	false		
111-9577221-5578632	51074758275474	2020-11-17T21:37:35+00:00	2020-11-17T13:37:35-08:00	2020-11-17T22:04:03+00:00	2020-11-20T07:59:59+00:00	-2	dlybgw1h0rvnkbb@marketplace.amazon.com	Bayramian	+1 415-851-9136 ext. 18620	ABM022	Delivery by Thursday| Purple Extravagance Bouquet by Arabella Bouquets	1	0	1	Expedited	Bayramian	55 MYSTERY FARMS DR			CRANSTON	RI	02921-2913	US			false		
112-0760792-3997055	70359218217050	2020-11-17T21:44:26+00:00	2020-11-17T13:44:26-08:00	2020-11-17T22:06:40+00:00	2020-11-20T07:59:59+00:00	-2	c3d1fgg4krbr8gz@marketplace.amazon.com	Nancy Koski	+1 602-671-6610 ext. 76714	ABM010	Delivery by Thursday| The Spring Fling Bouquet by Arabella Bouquets with a Free Designer Glass Vase	1	0	1	Expedited	Donna Sunley	655 AVIONICS AVE			OZARK	MO	65721-5167	US		So sorry for your family's loss. He was a special person. We hope your memories can give you strength at this time. Our thoughts and prayers are with you all. From Tom and Nancy Koski	false		
113-7449013-3440225	06461463070506	2020-11-17T21:39:47+00:00	2020-11-17T13:39:47-08:00	2020-11-17T22:08:01+00:00	2020-11-20T07:59:59+00:00	-2	0ggx94thvxcw0mf@marketplace.amazon.com	Julie	+1 480-618-5344 ext. 94730	ABM0033	Delivery by Friday | Arabella Farm Direct Bouquet of Fresh Cut White Hydrangea with a Free Glass Vase	1	0	1	Expedited	John bigelbach	4425 149TH ST			MIDLOTHIAN	IL	60445-3206	US		John, very sorry for the loss of your mom. Our prayers are with you and your family xoxoxo From Julie	false		
111-5623092-7153035	35311840675858	2020-11-17T21:38:02+00:00	2020-11-17T13:38:02-08:00	2020-11-17T22:08:26+00:00	2020-11-20T07:59:59+00:00	-2	0l04y69ytfhnb99@marketplace.amazon.com	RuthAnne R. Clickner	+1 929-436-4790 ext. 67168	ABR0022	Delivery by Thursday| Arabella Farm Direct Bouquet of 12 Fresh Cut Pink Roses with a Free Glass Vase	1	0	1	Expedited	Cindy Herk	2881 GANDER DR			WILLOW RIVER	MN	55795-3291	US			false		
113-9347727-5999438	28374328504002	2020-11-17T21:43:30+00:00	2020-11-17T13:43:30-08:00	2020-11-17T22:10:39+00:00	2020-11-20T07:59:59+00:00	-2	dht6pbq3ltrcmh9@marketplace.amazon.com	Brenda Thomas	+1 929-436-4790 ext. 42895	ABR0022	Delivery by Thursday| Arabella Farm Direct Bouquet of 12 Fresh Cut Pink Roses with a Free Glass Vase	1	0	1	Expedited	Anne Nelson	430 REDWING DR			WOODSTOCK	IL	60098-8210	US		Happy Birthday Dear Annie!  We hope you have a celebration as spectacular as you are!  Love, Aunt B, Uncle Joe, Ben, Abby and Grandma Billy From Brenda Thomas	false		
111-1167324-6020205	44584104374530	2020-11-17T21:52:55+00:00	2020-11-17T13:52:55-08:00	2020-11-17T22:16:57+00:00	2020-11-20T07:59:59+00:00	-2	d08ghmfy5wqrs2f@marketplace.amazon.com	Diana Hanks	+1 213-442-1463 ext. 62815	ABM022	Delivery by Thursday| Purple Extravagance Bouquet by Arabella Bouquets	1	0	1	Expedited	Marlene Szalkiewcz	34266 ZIMMER DR			STERLING HTS	MI	48310-6063	US		Marlene - Thank you!   Don't know what I would have done without you. From Diana	false		
113-9430044-4082646	16546252175298	2020-11-17T22:00:06+00:00	2020-11-17T14:00:06-08:00	2020-11-17T22:19:52+00:00	2020-11-20T07:59:59+00:00	-2	hqmd5xb0rp7h3lk@marketplace.amazon.com	Isaias Miranda	+1 602-671-6610 ext. 03926	ABM024	Delivery by Friday| The Beauty of Color Bouquet by Arabella Bouquets	1	0	1	Expedited	Treya Brown	222 J D RANDOLPH ST			HATTIESBURG	MS	39401-2051	US		Sending my condolences and sending my love to you all.  -Symone From Symone Holmes	false		
114-1964840-2297052	22568434196242	2020-11-17T21:53:40+00:00	2020-11-17T13:53:40-08:00	2020-11-17T22:20:27+00:00	2020-11-20T07:59:59+00:00	-2	klywlrg3p3rbl88@marketplace.amazon.com	Ann Warnock	+1 213-442-1463 ext. 29462	ABR0022	Delivery by Thursday| Arabella Farm Direct Bouquet of 12 Fresh Cut Pink Roses with a Free Glass Vase	1	0	1	Expedited	Mr. and Mrs.  Kevin Warnock	101 WEST RD			CANTON	CT	06019-3742	US			false		
112-5832234-7778635	40694281258882	2020-11-17T22:04:54+00:00	2020-11-17T14:04:54-08:00	2020-11-17T22:30:52+00:00	2020-11-20T07:59:59+00:00	-2	0kknqg4gjzfwpvn@marketplace.amazon.com	Barbara Jerman	+1 480-618-5344 ext. 54227	ABM022	Delivery by Thursday| Purple Extravagance Bouquet by Arabella Bouquets	1	0	1	Expedited	Dawn Roberts	11075 N GEMMA AVE			ORO VALLEY	AZ	85742-8476	US			false		
111-9333243-6107462	13270548427522	2020-11-17T22:08:39+00:00	2020-11-17T14:08:39-08:00	2020-11-17T22:35:40+00:00	2020-11-20T07:59:59+00:00	-2	6r696109y5rsp6z@marketplace.amazon.com	Samantha Diss	+1 602-671-6610 ext. 70062	ABR0022	Delivery by Thursday| Arabella Farm Direct Bouquet of 12 Fresh Cut Pink Roses with a Free Glass Vase	1	0	1	Expedited	Savannah Graye	11634 PLAZA DR			CLIO	MI	48420-2122	US		We love you Savannah!  We're so sorry to hear about the loss of your beloved Grandma Diane!   Prayers for you right now.   Love you, Tom, Sam, Karolen, and Kristina and Grandma Judy too From Samantha Diss	false		
111-6214323-9136267	46563792050818	2020-11-17T22:11:30+00:00	2020-11-17T14:11:30-08:00	2020-11-17T22:40:05+00:00	2020-11-20T07:59:59+00:00	-2	9drj27zvb8ytn8s@marketplace.amazon.com	Boris Karaman	+1 480-618-5344 ext. 67493	ABR0022	Delivery by Thursday| Arabella Farm Direct Bouquet of 12 Fresh Cut Pink Roses with a Free Glass Vase	1	0	1	Standard	Alla	10231 JULIANA WAY			SACRAMENTO	CA	95827-3068	US		Dear Alla,  I’m so sorry about your loss. You are in my thought and prayers ❤️  God bless you 🙏 From Yuliya  Karaman	false		
111-0795452-5796225	18408441291482	2020-11-17T22:11:05+00:00	2020-11-17T14:11:05-08:00	2020-11-17T22:40:27+00:00	2020-11-20T07:59:59+00:00	-2	7t44xmt9zdnrl31@marketplace.amazon.com	TrishaC	+1 929-436-4790 ext. 90719	ABR0022	Delivery by Thursday| Arabella Farm Direct Bouquet of 12 Fresh Cut Pink Roses with a Free Glass Vase	1	0	1	Expedited	Sheri Falke	3050 RUE DORLEANS UNIT 492			SAN DIEGO	CA	92110-5931	US		Happy birthday Sheri! Love Trish From TrishaC	false		
111-9167542-6793831	42399775490490	2020-11-17T22:29:12+00:00	2020-11-17T14:29:12-08:00	2020-11-17T22:55:39+00:00	2020-11-20T07:59:59+00:00	-2	s5yjldsqbw7ys3m@marketplace.amazon.com	Minnette Rodden	+1 602-671-6610 ext. 90466	ABR012	Delivery by Friday | Arabella Farm Direct Bouquet of 18 Fresh Cut Pink Roses with a Free Glass Vase	1	0	1	Expedited	Maureen Madden	778 BELVIDERE AVE FL 2ND			PLAINFIELD	NJ	07062-2058	US		Congratulations Dr. Madden!!! I am thrilled for you! Well done Moe! From Mindy Rodden	false		
113-2821172-9769022	04135135878874	2020-11-17T22:35:18+00:00	2020-11-17T14:35:18-08:00	2020-11-17T23:03:04+00:00	2020-11-20T07:59:59+00:00	-2	g3k3vj1ltl39tx5@marketplace.amazon.com	Mark Kavit	+1 929-436-4790 ext. 61701	ABM0033	Delivery by Friday | Arabella Farm Direct Bouquet of Fresh Cut White Hydrangea with a Free Glass Vase	1	0	1	Expedited	Stacey Dim	29709 ZUMA BAY WAY			MALIBU	CA	90265-4149	US			false		
114-6935013-6655408	54801300176754	2020-11-17T22:45:19+00:00	2020-11-17T14:45:19-08:00	2020-11-17T23:09:47+00:00	2020-11-20T07:59:59+00:00	-2	cm3s46q40n732qc@marketplace.amazon.com	Julia	+1 619-854-2705 ext. 48098	ABR004	Delivery by Thursday | Arabella Farm Direct Bouquet of 12 Fresh Cut Yellow Roses with a Free Glass Vase	1	0	1	Expedited	Maryanne Josefchuk	167 ELEANOR LN			SOMONAUK	IL	60552-9623	US		Happy Healing Maryanne! Sending lots of hugs and kisses. Wish we could be there to help. Love you! Julia and Anthony From Julia	false		
112-0293563-2854633	07723651146970	2020-11-14T15:34:11+00:00	2020-11-14T07:34:11-08:00	2020-11-17T23:16:53+00:00	2020-11-20T07:59:59+00:00	-2	9rx4wvskdh620c9@marketplace.amazon.com	Michael M. Ocampo	+1 480-618-5344 ext. 48281	ABM022	Delivery by Tuesday | Purple Extravagance Bouquet by Arabella Bouquets	1	0	1	Expedited	Wendy and Rick Heater	69 DAVID DR			NEWTOWN	PA	18940-2243	US		Hi Wendy, Get well soon!   Keeping you in our thoughts and prayers,  Candice and Michael Ocampo	false		
113-4739287-2981859	45895941310602	2020-11-17T22:49:49+00:00	2020-11-17T14:49:49-08:00	2020-11-17T23:17:21+00:00	2020-11-20T07:59:59+00:00	-2	v7vqzsf6shvmv9z@marketplace.amazon.com	erdogan ozturgut	+1 929-436-4790 ext. 19042	ABR0055	Delivery by Thursday| Arabella Farm Direct Bouquet of 12 Stems of Fresh Cut Hot Pink Roses in a Free Designer Glass Vase	1	0	1	Expedited	erdogan ozturgut	15761 111TH AVE NE			BOTHELL	WA	98011-6212	US			false		
111-5792361-3734649	61580920799490	2020-11-17T22:53:20+00:00	2020-11-17T14:53:20-08:00	2020-11-17T23:21:51+00:00	2020-11-20T07:59:59+00:00	-2	7mcs2x15c6vkm40@marketplace.amazon.com	Nancy Simmons	+1 619-854-2705 ext. 72655	ABM020	Delivery by Friday | The Sunset Bouquet by Arabella Bouquets	1	0	1	Expedited	Brian & Candi Wyatt	1185 E VICTORIA VIEW ST			QUEEN VALLEY	AZ	85118-9033	US		Happy 50th Candi!  We love you very much and hope your day is extra special.  Love, Mom and Dad From Mom and Dad	false		
114-7737783-7042626	10915242363874	2020-11-17T22:58:31+00:00	2020-11-17T14:58:31-08:00	2020-11-17T23:24:12+00:00	2020-11-20T07:59:59+00:00	-2	3456kqjgwmv9sc4@marketplace.amazon.com	Aly	+1 929-436-4790 ext. 69605	ABR0055	Delivery by Thursday| Arabella Farm Direct Bouquet of 12 Stems of Fresh Cut Hot Pink Roses in a Free Designer Glass Vase	1	0	1	Expedited	Aly	14164 DAVENTRY ST			ARLETA	CA	91331-4419	US		lets hope this actually come new or however flowers works and not dead butttt ily and hopes happy birthday my loves :) From Aly	false		
111-6561280-5349834	02941218913882	2020-11-17T23:05:27+00:00	2020-11-17T15:05:27-08:00	2020-11-17T23:31:56+00:00	2020-11-20T07:59:59+00:00	-2	skf2r8cv48kh29l@marketplace.amazon.com	Jill Gerhardt	+1 602-671-6610 ext. 09550	ABM022	Delivery by Thursday| Purple Extravagance Bouquet by Arabella Bouquets	1	0	1	Standard	Robin and Shawn Deveney	1177 CONCORD DR			HADDONFIELD	NJ	08033-3502	US		Dear Robin and Shawn, I am thankful for the two of you. Happy Thanksgiving! Love Grandma.  AKA Mom From Jill Gerhardt	false		
112-2550066-8003446	11168358645066	2020-11-17T23:11:53+00:00	2020-11-17T15:11:53-08:00	2020-11-17T23:40:29+00:00	2020-11-20T07:59:59+00:00	-2	n67pqb3qjq1ympm@marketplace.amazon.com	Lindsay	+1 929-436-4790 ext. 12814	ABM025	Delivery by Friday| The Fell for You Bouquet by Arabella Bouquets	1	0	1	Standard	Jackie B	78 BELL AVE			SACRAMENTO	CA	95838-2145	US		Wishing you a very Happy Thanksgiving! We are thinking of you and celebrating with you from afar <3 From Lindsay and Alex	false		
111-0051408-2154642	13504824262218	2020-11-17T23:13:48+00:00	2020-11-17T15:13:48-08:00	2020-11-17T23:43:01+00:00	2020-11-20T07:59:59+00:00	-2	1xyzsz35q312nsf@marketplace.amazon.com	maureen	+1 480-618-5344 ext. 81221	ABM022	Delivery by Thursday| Purple Extravagance Bouquet by Arabella Bouquets	1	0	1	Expedited	Pat Morgan	29 WOOD ST			HAMDEN	CT	06517-2326	US		Love you a million! Reen From maureen	false		
111-5047117-3257063	61469966431642	2020-11-17T23:21:12+00:00	2020-11-17T15:21:12-08:00	2020-11-17T23:47:02+00:00	2020-11-20T07:59:59+00:00	-2	9s7rs3mw6tct1w9@marketplace.amazon.com	Randoll Doon	+1 929-436-4790 ext. 79830	ABR0022	Delivery by Thursday| Arabella Farm Direct Bouquet of 12 Fresh Cut Pink Roses with a Free Glass Vase	1	0	1	Expedited	Giovanna Santana	11201 OLYMPIA DR APT 2803			HOUSTON	TX	77042-2749	US		hope these can bring a smile to your face and light up those brown eyes xoxo From Randoll Doon	false		
112-4349989-9509026	39731026062986	2020-11-17T23:24:53+00:00	2020-11-17T15:24:53-08:00	2020-11-17T23:53:56+00:00	2020-11-20T07:59:59+00:00	-2	1ty1xqlq4d1d8bg@marketplace.amazon.com	Mary Heather	+1 480-618-5344 ext. 99351	ABR0022	Delivery by Thursday| Arabella Farm Direct Bouquet of 12 Fresh Cut Pink Roses with a Free Glass Vase	1	0	1	Expedited	Paula Gardillo	18562 MOUNTAIN LN			CASTRO VALLEY	CA	94552-1834	US		You are in our thoughts  The Hogerheide & Dean Family From Mary Heather	false		
113-7209846-5625864	46013912395306	2020-11-17T23:25:07+00:00	2020-11-17T15:25:07-08:00	2020-11-17T23:54:04+00:00	2020-11-20T07:59:59+00:00	-2	cph8prwfftyxbcm@marketplace.amazon.com	Sonia Di Fiore	+1 213-442-1463 ext. 05568	ABR0066	Delivery by Thursday | Arabella Bouquets 12 Stems of Fresh Cut White Roses in a Free Designer Glass Vase	1	0	1	Expedited	Jettie Watts	77 CHARLES PARISH DR			POQUOSON	VA	23662-1573	US		Dear Jettie & Cam, I know you deeply cared for Suzanne through it all. She was so lucky to have you both. As her spirit journeys onward, may your hearts be light, and full of happiness, as you reflect on many years of love. From Sonia Di Fiore	false		
111-6790344-3781059	24629162920882	2020-11-17T23:35:12+00:00	2020-11-17T15:35:12-08:00	2020-11-18T00:03:47+00:00	2020-11-20T07:59:59+00:00	-2	fbrs585n2m3vb10@marketplace.amazon.com	Hawon K Kim	+1 619-854-2705 ext. 84345	ABR0022	Delivery by Thursday| Arabella Farm Direct Bouquet of 12 Fresh Cut Pink Roses with a Free Glass Vase	1	0	1	Expedited	Allison H. Kim	8100 ANDERSON MILL RD APT 13305			AUSTIN	TX	78729-4776	US		Love, mom From Hawon K Kim	false		
111-1579199-4949058	31889808757994	2020-11-17T23:41:09+00:00	2020-11-17T15:41:09-08:00	2020-11-18T00:11:33+00:00	2020-11-20T07:59:59+00:00	-2	z77v5p0ns3gwklf@marketplace.amazon.com	Kelli Barton	+1 415-851-9136 ext. 46833	ABR004	Delivery by Thursday | Arabella Farm Direct Bouquet of 12 Fresh Cut Yellow Roses with a Free Glass Vase	1	0	1	Expedited	Natalie Barton	817 NW PAWN WAY			GRANTS PASS	OR	97526-1372	US			false		
112-1969440-4333055	65549142603850	2020-11-17T23:48:32+00:00	2020-11-17T15:48:32-08:00	2020-11-18T00:18:25+00:00	2020-11-20T07:59:59+00:00	-2	brbdzw4p9sz36sm@marketplace.amazon.com	Susan Davis	+1 602-671-6610 ext. 49762	ABR0033	Delivery by Thursday| Arabella Farm Direct Bouquet of 12 Fresh Cut Orange Roses with a Free Glass Vase	1	0	1	Expedited	Susan Davis	3302 HIGHWAY DD			CUBA	MO	65453-8032	US			false		
112-3010421-9022600	36652009457690	2020-11-17T23:57:03+00:00	2020-11-17T15:57:03-08:00	2020-11-18T00:22:05+00:00	2020-11-20T07:59:59+00:00	-2	3545v9r60fr4k26@marketplace.amazon.com	Aaron Martinez	+1 480-618-5344 ext. 16871	ABR0055	Delivery by Thursday| Arabella Farm Direct Bouquet of 12 Stems of Fresh Cut Hot Pink Roses in a Free Designer Glass Vase	1	0	1	Expedited	Amanda Kay Wineinger	10435 STARTRAIL CT			HIGHLANDS RANCH	CO	80126-5706	US		Thinking of you! Hope you’re having a good day... xoxo From Aaron Martinez	false		
111-5373885-2591430	13984241008618	2020-11-18T00:14:10+00:00	2020-11-17T16:14:10-08:00	2020-11-18T00:43:34+00:00	2020-11-20T07:59:59+00:00	-2	90b0sg1szm7h4b9@marketplace.amazon.com	Eamonn McDonough	+1 602-671-6610 ext. 90121	ABM022	Delivery by Thursday| Purple Extravagance Bouquet by Arabella Bouquets	1	0	1	Expedited	Rebecca A McDonough	6418B WINTERHAVEN DR			FORT DRUM	NY	13603-2063	US		I’m smelly out in the field and these smell nice from the field! I love you! From Eamonn McDonough	false		
111-9429346-9375465	23055180650530	2020-11-18T00:36:54+00:00	2020-11-17T16:36:54-08:00	2020-11-18T01:01:01+00:00	2020-11-20T07:59:59+00:00	-2	hc9xxm6f0t38z78@marketplace.amazon.com	Alex	+1 213-442-1463 ext. 88046	ABR0055	Delivery by Thursday| Arabella Farm Direct Bouquet of 12 Stems of Fresh Cut Hot Pink Roses in a Free Designer Glass Vase	1	0	1	Expedited	Amber Goode	45 ODELL SCHOOL RD STE A			CONCORD	NC	28027-9712	US		Sweetness From ASE	false		
112-5408119-1206611	05780122398442	2020-11-18T00:33:23+00:00	2020-11-17T16:33:23-08:00	2020-11-18T01:01:04+00:00	2020-11-20T07:59:59+00:00	-2	h3bqgqypsbn3bjn@marketplace.amazon.com	Penny Pavelko	+1 929-436-4790 ext. 42743	ABM022	Delivery by Thursday| Purple Extravagance Bouquet by Arabella Bouquets	1	0	1	Expedited	Stacey Pavelko	1128 RANCH VISTA DR			IRVING	TX	75063-9399	US		Hi Stacey, Hope you are feeling much better soon.  Sending hugs, love and lots of positive thoughts.  +++++++ Love, Penny From Penny	false		
113-3287867-8806602	08584113530530	2020-11-18T00:36:44+00:00	2020-11-17T16:36:44-08:00	2020-11-18T01:05:50+00:00	2020-11-20T07:59:59+00:00	-2	kjnx328kkz660w5@marketplace.amazon.com	Emily E. Ranch	+1 480-618-5344 ext. 49295	ABR0022	Delivery by Thursday| Arabella Farm Direct Bouquet of 12 Fresh Cut Pink Roses with a Free Glass Vase	1	0	1	Expedited	The Foley Family	42994 DEMERRIT ST			CHANTILLY	VA	20152-2039	US		Mel!!!! HAPPY BIRTHDAY! This year has been so insane, I’m so incredibly grateful I have had you in my life during all of it. I hope your birthday was amazing! We love you! Love, Em, Chase, Dean & Richard From Em	false		
111-4565453-6653000	36258634959314	2020-11-18T00:45:48+00:00	2020-11-17T16:45:48-08:00	2020-11-18T01:15:48+00:00	2020-11-20T07:59:59+00:00	-2	8zpzfpz5myj12k7@marketplace.amazon.com	Danielle Hartman	+1 619-854-2705 ext. 83088	ABM022	Delivery by Thursday| Purple Extravagance Bouquet by Arabella Bouquets	1	0	1	Expedited	Noreen Acee	22503 BUCKTROUT LN			KATY	TX	77449-5116	US			false		
113-5487771-4225034	57761166703122	2020-11-18T00:52:09+00:00	2020-11-17T16:52:09-08:00	2020-11-18T01:16:34+00:00	2020-11-20T07:59:59+00:00	-2	nw90w1lfngl06z9@marketplace.amazon.com	Lisa A Madson	+1 415-851-9136 ext. 92175	ABR0022	Delivery by Thursday| Arabella Farm Direct Bouquet of 12 Fresh Cut Pink Roses with a Free Glass Vase	1	0	1	Expedited	Marisa Hall	275 TANGLEWOOD DR			SOUTHERN PINES	NC	28387-4323	US			false		
111-9488825-8093810	69485931452282	2020-11-18T01:09:59+00:00	2020-11-17T17:09:59-08:00	2020-11-18T01:36:34+00:00	2020-11-20T07:59:59+00:00	-2	9bg889b39wfdfzb@marketplace.amazon.com	jana gisler	+1 602-671-6610 ext. 25251	ABR0033	Delivery by Thursday| Arabella Farm Direct Bouquet of 12 Fresh Cut Orange Roses with a Free Glass Vase	1	0	1	Expedited	Chandy Cowley	439756 E 230 Rd			Vinita	OK	74301	US		Happy birthday From Gisler Family	false		
112-0480489-7788240	09712110485554	2020-11-18T01:27:00+00:00	2020-11-17T17:27:00-08:00	2020-11-18T01:54:42+00:00	2020-11-20T07:59:59+00:00	-2	3pwd2trv50w32zp@marketplace.amazon.com	Dana Levin	+1 415-851-9136 ext. 95301	ABR0022	Delivery by Thursday| Arabella Farm Direct Bouquet of 12 Fresh Cut Pink Roses with a Free Glass Vase	1	0	1	Expedited	Jeanne Rose	103 JEFFERSON DR			HENDERSONVILLE	TN	37075-4308	US		We love you and are thinking about you! We are so sorry for your loss and are here if you need anything! From Love: Dana, Jeff, James, BoBo, and Molly	false		
113-1593345-8133869	63040065665858	2020-11-18T01:33:48+00:00	2020-11-17T17:33:48-08:00	2020-11-18T01:55:30+00:00	2020-11-20T07:59:59+00:00	-2	5fg311r2h1w982j@marketplace.amazon.com	Felix Romero Cruz	+1 480-618-5344 ext. 70662	ABR001	Delivery by Thursday| Arabella Bouquets 12 Stems of Fresh Cut Red Roses in a Free Designer Glass Vase	1	0	1	Expedited	Felix Romero Cruz	29 CHANCES TRAILER PARK	5712 1 AV 0 383		STATESBORO	GA	30461-7494	US		Felicidades 🎉 si Algundia te acuerdas de mi sabe donde encontrar y no lo tomes a mal sabe q eres la mujer de mi vida De Felix Romero Cruz	false		
112-6917017-3728231	66879130160746	2020-11-18T01:31:22+00:00	2020-11-17T17:31:22-08:00	2020-11-18T02:00:04+00:00	2020-11-20T07:59:59+00:00	-2	btrqf8kmlcct9v6@marketplace.amazon.com	Misty Grubbs	+1 415-851-9136 ext. 35163	ABM022	Delivery by Thursday| Purple Extravagance Bouquet by Arabella Bouquets	1	0	1	Standard	Marsha Grubbs	219 S 11TH ST			NEW CASTLE	IN	47362-4616	US		Happy Birthday!!!!!  We love you! From Jim, Misty, Clay, and Sophia	false		
112-1861466-0583465	35378677999074	2020-11-18T01:31:24+00:00	2020-11-17T17:31:24-08:00	2020-11-18T02:01:23+00:00	2020-11-20T07:59:59+00:00	-2	q751h06j5p2cvfn@marketplace.amazon.com	Paul J Hannaway	+1 415-851-9136 ext. 58853	ABM022	Delivery by Thursday| Purple Extravagance Bouquet by Arabella Bouquets	1	0	1	Expedited	Janice Hannaway	20 RAYMOND ST			LINCOLN	RI	02865-2220	US		We miss and love you! ❤️ From Paul J Hannaway	false		
114-5026880-7176255	11435061723274	2020-11-18T01:38:59+00:00	2020-11-17T17:38:59-08:00	2020-11-18T02:07:51+00:00	2020-11-20T07:59:59+00:00	-2	w66cgb69m8xrb7r@marketplace.amazon.com	Carla Dunn	+1 602-671-6610 ext. 70104	ABM010	Delivery by Thursday| The Spring Fling Bouquet by Arabella Bouquets with a Free Designer Glass Vase	1	0	1	Expedited	Diane Spooner	1 ABBY GLEN WAY			GURLEY	AL	35748-8035	US		Diane, Get well soon! We hope these brighten your day! We love you! Love,Carla, Brian, Piggy, and Izzy From Carla Dunn	false		
113-2656184-2361867	67139815145386	2020-11-18T01:40:53+00:00	2020-11-17T17:40:53-08:00	2020-11-18T02:07:54+00:00	2020-11-20T07:59:59+00:00	-2	hwjqkjqxcgbwtkb@marketplace.amazon.com	Darlene Sumner	+1 619-854-2705 ext. 58522	ABR0022	Delivery by Thursday| Arabella Farm Direct Bouquet of 12 Fresh Cut Pink Roses with a Free Glass Vase	1	0	1	Expedited	Mary Waggoner/Diane	100 SHARON DR			MORRIS	IL	60450-3325	US			false		
112-3210624-5804219	55850471179418	2020-11-18T01:40:38+00:00	2020-11-17T17:40:38-08:00	2020-11-18T02:10:44+00:00	2020-11-20T07:59:59+00:00	-2	3r4dv7b931ssnvn@marketplace.amazon.com	QihanShen	+1 929-436-4790 ext. 40112	ABR0022	Delivery by Thursday| Arabella Farm Direct Bouquet of 12 Fresh Cut Pink Roses with a Free Glass Vase	1	0	1	Expedited	Meihan Hu	520 W FRANKLIN ST APT 709			RICHMOND	VA	23220-4917	US			false		
113-7177015-8480237	10766596423266	2020-11-18T01:40:30+00:00	2020-11-17T17:40:30-08:00	2020-11-18T02:11:00+00:00	2020-11-20T07:59:59+00:00	-2	nfkvw63zq55s1bk@marketplace.amazon.com	kelly forest	+1 602-671-6610 ext. 01946	ABM022	Delivery by Thursday| Purple Extravagance Bouquet by Arabella Bouquets	1	0	1	Expedited	Corissa jones	121 N ADAMS ST			CLARKSVILLE	IA	50619-7701	US			false		
112-5505467-0314614	01802265883922	2020-11-18T01:46:37+00:00	2020-11-17T17:46:37-08:00	2020-11-18T02:14:28+00:00	2020-11-20T07:59:59+00:00	-2	6wdphvnh1dsgwkr@marketplace.amazon.com	amy porter	+1 213-442-1463 ext. 41535	ABM022	Delivery by Thursday| Purple Extravagance Bouquet by Arabella Bouquets	1	0	1	Expedited	Wendy Munson	808 E ANGIE AVE			MEDICAL LAKE	WA	99022-5004	US		Wendy and Carl,  Much love to you. Amy From amy porter	false		
112-5254018-0471441	10482913707114	2020-11-18T02:02:29+00:00	2020-11-17T18:02:29-08:00	2020-11-18T02:30:01+00:00	2020-11-20T07:59:59+00:00	-2	m54qkt7mf38lk0x@marketplace.amazon.com	Kim Saunders Ward	+1 619-854-2705 ext. 82362	ABM022	Delivery by Thursday| Purple Extravagance Bouquet by Arabella Bouquets	1	0	1	Expedited	Paula Arsenov	2444 CHAUNCY PL			RIVERSIDE	CA	92506-4564	US		My Deepest Sympathy From Kim Saunders Ward	false		
113-0726285-4640248	07520874120962	2020-11-18T02:19:55+00:00	2020-11-17T18:19:55-08:00	2020-11-18T02:44:07+00:00	2020-11-20T07:59:59+00:00	-2	c08xnp8w0j0509n@marketplace.amazon.com	chris bajgrowicz	+1 602-671-6610 ext. 90387	ABR0022	Delivery by Thursday| Arabella Farm Direct Bouquet of 12 Fresh Cut Pink Roses with a Free Glass Vase	1	0	1	Expedited	Ana Winger	651 CLOVER DR			ALGONQUIN	IL	60102-6518	US		Get well soon Ana. Thinking of you. From The Bajgrowicz’s	false		
112-8727996-6638630	15896636745970	2020-11-18T02:32:44+00:00	2020-11-17T18:32:44-08:00	2020-11-18T02:44:13+00:00	2020-11-20T07:59:59+00:00	-2	h71tmq81zpskq2n@marketplace.amazon.com	Vivian Berger	+1 619-854-2705 ext. 40830	ABM022	Delivery by Thursday| Purple Extravagance Bouquet by Arabella Bouquets	1	0	1	Expedited	Vivian Berger	24507 SE 37th St			Issaquah	WA	98029-7585	US		Enjoy your gift! Love Dad From Dad	false		
113-4819199-2318616	49865095756498	2020-11-18T02:19:59+00:00	2020-11-17T18:19:59-08:00	2020-11-18T02:47:58+00:00	2020-11-20T07:59:59+00:00	-2	4npbbnv64wxjn9r@marketplace.amazon.com	Roxie Powers	+1 415-851-9136 ext. 56984	ABM022	Delivery by Thursday| Purple Extravagance Bouquet by Arabella Bouquets	1	0	1	Expedited	Violet Smith	6621 SUNTREE RD			WISE	VA	24293-6524	US		Sissy,  You are my sister for life. Love you always and forever.  God Bless You.  Love, Sue From Roxie Powers	false		
114-6217313-3146639	63002494045066	2020-11-18T02:24:51+00:00	2020-11-17T18:24:51-08:00	2020-11-18T02:54:40+00:00	2020-11-20T07:59:59+00:00	-2	myzfdqyyp8qc5b1@marketplace.amazon.com	Nancy Gralla	+1 929-436-4790 ext. 86076	ABR0022	Delivery by Thursday| Arabella Farm Direct Bouquet of 12 Fresh Cut Pink Roses with a Free Glass Vase	1	0	1	Expedited	Joan Gralla	225 E 74TH ST APT 5A			NEW YORK	NY	10021-3360	US			false		
111-0965454-9153855	65199122232986	2020-11-18T02:34:04+00:00	2020-11-17T18:34:04-08:00	2020-11-18T03:03:05+00:00	2020-11-20T07:59:59+00:00	-2	ywrhjj2vc3207v0@marketplace.amazon.com	Wendell Hill	+1 619-854-2705 ext. 13655	ABM010	Delivery by Thursday| The Spring Fling Bouquet by Arabella Bouquets with a Free Designer Glass Vase	1	0	1	Expedited	Jeannine Lefevbre	4345 DUNKIRK WAY			DENVER	CO	80249-6543	US		Get Well Fast and Stay Strong! Love: Pops and Wendell & Lisa From Wendell Hill	false		
114-6467028-3322633	11235729791930	2020-11-18T02:34:19+00:00	2020-11-17T18:34:19-08:00	2020-11-18T03:04:35+00:00	2020-11-20T07:59:59+00:00	-2	blydy8z7w7c2kbj@marketplace.amazon.com	Vicky Applebee	+1 619-854-2705 ext. 53135	ABM022	Delivery by Thursday| Purple Extravagance Bouquet by Arabella Bouquets	1	0	1	Expedited	Barbara Applebee	15 3RD AVE			WESTFIELD	MA	01085-1169	US			false		
114-5622548-0462644	39915472173794	2020-11-18T02:40:47+00:00	2020-11-17T18:40:47-08:00	2020-11-18T03:06:37+00:00	2020-11-20T07:59:59+00:00	-2	blydy8z7w7c2kbj@marketplace.amazon.com	Vicky Applebee	+1 415-851-9136 ext. 20805	ABM022	Delivery by Thursday| Purple Extravagance Bouquet by Arabella Bouquets	1	0	1	Expedited	Helen Connell	6 GOSHEN RD			WILLIAMSBURG	MA	01096-9709	US		Happy Thanksgiving!! Love, Vicky, Tyler, Sarah, Dan, Nick & Char xoxo From Love you!!	false		
114-2646854-7249809	07066105916346	2020-11-18T02:42:17+00:00	2020-11-17T18:42:17-08:00	2020-11-18T03:09:57+00:00	2020-11-20T07:59:59+00:00	-2	wn7cmyh1p4nk2zr@marketplace.amazon.com	Adeola Paul	+1 929-436-4790 ext. 49090	ABR0022	Delivery by Thursday| Arabella Farm Direct Bouquet of 12 Fresh Cut Pink Roses with a Free Glass Vase	1	0	1	Expedited	Sherelle Ramsaroop	6789 BOEING DR HAWTHORNE SUITES	RM 424		EL PASO	TX	79925-1103	US		Get better soon Ms Elly :) I’m so sorry you’re sick :( From Adeola Paul	false		
114-4621414-6876207	12595360515938	2020-11-18T02:41:37+00:00	2020-11-17T18:41:37-08:00	2020-11-18T03:12:12+00:00	2020-11-20T07:59:59+00:00	-2	lhxjrg65f3tlzpw@marketplace.amazon.com	Steven McDevitt	+1 602-671-6610 ext. 92380	ABR0022	Delivery by Thursday| Arabella Farm Direct Bouquet of 12 Fresh Cut Pink Roses with a Free Glass Vase	1	0	1	Expedited	Steven McDevitt	2356 SWIFT DR			LAKE HAVASU CITY	AZ	86404-2037	US			false		
111-3112613-4197050	00886212322562	2020-11-18T02:49:55+00:00	2020-11-17T18:49:55-08:00	2020-11-18T03:18:41+00:00	2020-11-20T07:59:59+00:00	-2	gthzffyrmjgbnyn@marketplace.amazon.com	Alexis Wakefield	+1 619-854-2705 ext. 28397	ABM021	Delivery by Friday | The Joyous Bouquet by Arabella Bouquets	1	0	1	Expedited	Carrie Wakefield	522 PAYSON ST			KEWANEE	IL	61443-3615	US		Happy birthday Mom. I love you and wish I could be there! From Alexis Wakefield	false		
113-8407448-9901855	28974423939666	2020-11-18T02:56:33+00:00	2020-11-17T18:56:33-08:00	2020-11-18T03:22:44+00:00	2020-11-20T07:59:59+00:00	-2	rwbq4bvj5t5db7b@marketplace.amazon.com	Mary Lou Szatkiewicz	+1 619-854-2705 ext. 12258	ABR0033	Delivery by Thursday| Arabella Farm Direct Bouquet of 12 Fresh Cut Orange Roses with a Free Glass Vase	1	0	1	Expedited	Linda Ladwig	1208 TROTWOOD BLVD			WINTER SPRINGS	FL	32708-3731	US		Happy Birthday to my Sweet Baby Sister!  Love You! From Mary Lou Szatkiewicz	false		
112-8104373-2659438	43865995073538	2020-11-18T03:01:42+00:00	2020-11-17T19:01:42-08:00	2020-11-18T03:24:12+00:00	2020-11-20T07:59:59+00:00	-2	xcj5vxwbqr0xt4x@marketplace.amazon.com	Heather M Gardo	+1 619-854-2705 ext. 68351	ABM017	Delivery by Friday | Arabella Bouquets 10 Stems of Blue Dendrobium Orchids in a Free Designer Glass Vase	1	0	1	Expedited	Sammie & Dan Blevins	207 W GRANT AVE			NEW CASTLE	DE	19720-2524	US		I hope this brings you a smile! I pray these are not the ugliest flowers on the planet.. here’s to hoping they actually do look like the picture! Remember, you are strong! I am here for you always! From Heather & Andrew Gardo	false		
113-5145788-8481834	09415375197218	2020-11-18T02:56:02+00:00	2020-11-17T18:56:02-08:00	2020-11-18T03:24:44+00:00	2020-11-20T07:59:59+00:00	-2	vlf6c4nphxrd1dw@marketplace.amazon.com	Michele Strauss	+1 213-442-1463 ext. 62698	ABM020	Delivery by Friday | The Sunset Bouquet by Arabella Bouquets	1	0	1	Expedited	Charlene  Kershon	177A Amberly Drive			Manalapan	NJ	07726	US		Happy Birthday Mom! From Love, Michele&David	false		
113-3692259-3958613	59672253438322	2020-11-18T02:58:04+00:00	2020-11-17T18:58:04-08:00	2020-11-18T03:25:20+00:00	2020-11-20T07:59:59+00:00	-2	wwzsllnxjr4xkcn@marketplace.amazon.com	kateandkissy@yahoo.com	+1 619-854-2705 ext. 56683	ABM022	Delivery by Thursday| Purple Extravagance Bouquet by Arabella Bouquets	1	0	1	Expedited	Catherine Reith	9991 W NORTH AVE APT 203			WAUWATOSA	WI	53226-2506	US		HAPPY BIRTHDAY TO MY MOST SPECIAL AUNTIE!!!   LOVE, KATHY From KATHY	false		
113-1863826-6641837	29954675173914	2020-11-18T03:04:58+00:00	2020-11-17T19:04:58-08:00	2020-11-18T03:26:10+00:00	2020-11-20T07:59:59+00:00	-2	z6g8ygbgjlqvz8d@marketplace.amazon.com	Raymond Moss	+1 602-671-6610 ext. 28360	ABR0055	Delivery by Thursday| Arabella Farm Direct Bouquet of 12 Stems of Fresh Cut Hot Pink Roses in a Free Designer Glass Vase	1	0	1	Expedited	Jazmyne Moss	3923 ELLINGTON RD			PHILADELPHIA	PA	19131-2806	US		From the bottom of your lip to the tip of your clit, I hope that you enjoy these as I adore everything and everywhere in between. From Raymond	false		
111-0224689-4591464	45781353030586	2020-11-18T03:02:43+00:00	2020-11-17T19:02:43-08:00	2020-11-18T03:32:56+00:00	2020-11-20T07:59:59+00:00	-2	00rvjgjb7cnw7yg@marketplace.amazon.com	Kathleen kenny	+1 619-854-2705 ext. 66092	ABR0022	Delivery by Thursday| Arabella Farm Direct Bouquet of 12 Fresh Cut Pink Roses with a Free Glass Vase	1	0	1	Expedited	Regina Lombardo	484 COLUMBIA BLVD			WOOD RIDGE	NJ	07075-1613	US			false		
114-5863991-1550641	14437817942514	2020-11-18T03:04:51+00:00	2020-11-17T19:04:51-08:00	2020-11-18T03:33:31+00:00	2020-11-20T07:59:59+00:00	-2	lmn4fbb35v9f94h@marketplace.amazon.com	Richard Goode	+1 619-854-2705 ext. 87052	ABR0033	Delivery by Thursday| Arabella Farm Direct Bouquet of 12 Fresh Cut Orange Roses with a Free Glass Vase	1	0	1	Expedited	Rita Montez	5600 S ORIOLE AVE			TUCSON	AZ	85746-3036	US		My dearest Grandmother... I love and m iss you. Hearts and minds. From Your boys	false		
112-0473330-2072252	27599395170730	2020-11-18T03:16:52+00:00	2020-11-17T19:16:52-08:00	2020-11-18T03:43:29+00:00	2020-11-20T07:59:59+00:00	-2	fyzmhfrmr33rb2t@marketplace.amazon.com	Harrison	+1 602-671-6610 ext. 88188	ABR001	Delivery by Thursday| Arabella Bouquets 12 Stems of Fresh Cut Red Roses in a Free Designer Glass Vase	1	0	1	Expedited	Rosa Morales	712 CONTINENTAL DR APT 3			BROWNSVILLE	TX	78520-8879	US		Cariño, así como la Rosa llena el aire con su fragancia, has llenado mi vida de Amor y Alegría.  Te envié estas Rosas como símbolo de mi Amor sin fin por ti. From Harrison	false		
111-9081432-0221029	30934816389114	2020-11-17T01:03:44+00:00	2020-11-16T17:03:44-08:00	2020-11-18T03:44:12+00:00	2020-11-20T07:59:59+00:00	-2	ppk4zzpw0l58jjd@marketplace.amazon.com	Marcello Shayeghi	+1 415-851-9136 ext. 99589	ABR001	Delivery by Wednesday | Arabella Bouquets 12 Stems of Fresh Cut Red Roses in a Free Designer Glass Vase	1	0	1	Expedited	Madison McQuiston	1000 DIAMOND ST UNIT 513 B			PHILADELPHIA	PA	19122-1253	US		Enjoy your flowers! I love you so much! From Marcello Shayeghi	false		
112-3255466-0745026	06056732476426	2020-11-18T03:18:36+00:00	2020-11-17T19:18:36-08:00	2020-11-18T03:45:51+00:00	2020-11-20T07:59:59+00:00	-2	5jqkbcylkdw6fdt@marketplace.amazon.com	MARK W BROWN	+1 619-854-2705 ext. 09470	ABR0055	Delivery by Thursday| Arabella Farm Direct Bouquet of 12 Stems of Fresh Cut Hot Pink Roses in a Free Designer Glass Vase	1	0	1	Expedited	Virginia Brown	8685 COUNTY ROAD 14			IONIA	NY	14475-9703	US		Hi Mom, I hope these cheer you up post-election! I tried to find something with a flash of color for a bright mood. Thank you for always being a peaceful and loving mother for your children, and happy birthday! Love, From MARK	false		
113-9221451-4286639	31257233238602	2020-11-18T03:26:46+00:00	2020-11-17T19:26:46-08:00	2020-11-18T03:54:22+00:00	2020-11-20T07:59:59+00:00	-2	mc7qctsc4zmn5p6@marketplace.amazon.com	Pamela Long	+1 929-436-4790 ext. 47116	ABR0055	Delivery by Thursday| Arabella Farm Direct Bouquet of 12 Stems of Fresh Cut Hot Pink Roses in a Free Designer Glass Vase	1	0	1	Expedited	Lauren Toppin	50 OLIVER ST			HARTFORD	CT	06106-4044	US			false		
112-2541419-9985056	53704798363450	2020-11-18T03:30:43+00:00	2020-11-17T19:30:43-08:00	2020-11-18T04:00:03+00:00	2020-11-20T07:59:59+00:00	-2	2hp4b66lb5gy4zr@marketplace.amazon.com	Julie Simeone	330373299	ABM010	Delivery by Thursday| The Spring Fling Bouquet by Arabella Bouquets with a Free Designer Glass Vase	1	0	1	Expedited	Linda Simeone	504 HARTZELL AVE			NILES	OH	44446-5222	US		Feel better. Love you so much, and can't wait to see you next month. From Julie	false		
112-3174155-6867423	13312019991890	2020-11-18T03:34:02+00:00	2020-11-17T19:34:02-08:00	2020-11-18T04:01:08+00:00	2020-11-20T07:59:59+00:00	-2	51xsr3kqnp603p3@marketplace.amazon.com	Tommy	+1 602-671-6610 ext. 01359	ABR0066	Delivery by Thursday | Arabella Bouquets 12 Stems of Fresh Cut White Roses in a Free Designer Glass Vase	1	0	1	Expedited	Noreen Gima	1357 S JACKSON ST			DENVER	CO	80210-2535	US		Dear Noreen, so so sorry for your loss. From Tommy Kubitsky	false		
112-5408154-8127468	68196357135154	2020-11-18T03:42:11+00:00	2020-11-17T19:42:11-08:00	2020-11-18T04:11:17+00:00	2020-11-20T07:59:59+00:00	-2	bv2cl9v1xddxj9t@marketplace.amazon.com	Richard Scott McCabe	+1 619-854-2705 ext. 56723	ABM010	Delivery by Thursday| The Spring Fling Bouquet by Arabella Bouquets with a Free Designer Glass Vase	1	0	1	Expedited	Maura McCabe	2528 ELLERBE CIR			MYRTLE BEACH	SC	29588-5436	US		Momma,  Love ya. Hang in there. From Richard Scott McCabe	false		
112-3637405-1389008	45845539142906	2020-11-18T03:59:19+00:00	2020-11-17T19:59:19-08:00	2020-11-18T04:28:12+00:00	2020-11-20T07:59:59+00:00	-2	yxnkrj4s8bfwtbk@marketplace.amazon.com	Dennis R Urban	+1 213-442-1463 ext. 48126	ABM022	Delivery by Thursday| Purple Extravagance Bouquet by Arabella Bouquets	1	0	1	Expedited	Kathy Urban	2092 ARGENTUM AVE			INDIAN LAND	SC	29707-7483	US		Get well soon Mom, here's to a quick recovery.  love, Dennis From Dennis	false		
112-1261510-2042661	08905030810970	2020-11-18T03:59:17+00:00	2020-11-17T19:59:17-08:00	2020-11-18T04:28:56+00:00	2020-11-20T07:59:59+00:00	-2	y57lsbt66rl2gtv@marketplace.amazon.com	micky bingham	+1 619-854-2705 ext. 44675	ABM022	Delivery by Thursday| Purple Extravagance Bouquet by Arabella Bouquets	1	0	1	Expedited	Stacay shade	16 BENWAY CT			UNCASVILLE	CT	06382-1610	US		Im so sorry for your loss Sending you lots of strength and love! From Your undercover angel	false		
112-8744380-0174642	04380221072842	2020-11-18T04:04:04+00:00	2020-11-17T20:04:04-08:00	2020-11-18T04:30:13+00:00	2020-11-20T07:59:59+00:00	-2	jb3dx6c9p2n4tqt@marketplace.amazon.com	Eric Peterson	+1 619-854-2705 ext. 36957	ABM010	Delivery by Thursday| The Spring Fling Bouquet by Arabella Bouquets with a Free Designer Glass Vase	1	0	1	Expedited	Sheila Peterson	1559 SUMMIT SHORES VIS			BURNSVILLE	MN	55306-5813	US		Enjoy your gift! Happy Thanksgiving.  Miss you and wish we could be together.  Love Eric, Kristy,  and Carly. From Eric Peterson	true		
114-1917477-3452243	35892308590938	2020-11-18T04:03:01+00:00	2020-11-17T20:03:01-08:00	2020-11-18T04:31:01+00:00	2020-11-20T07:59:59+00:00	-2	06ndn9bxjhw0fdr@marketplace.amazon.com	Cynthia Goodberry	+1 929-436-4790 ext. 94486	ABR0033	Delivery by Thursday| Arabella Farm Direct Bouquet of 12 Fresh Cut Orange Roses with a Free Glass Vase	1	0	1	Expedited	Pat Gagliardo	544 82nd St			Niagara Falls	NY	14304-2306	US		Happy retirement!  You should be so proud. From Jim, Cyndi, Nadine, Natalie and Jimmy	false		
114-4062876-9566639	62660966256242	2020-11-18T04:07:43+00:00	2020-11-17T20:07:43-08:00	2020-11-18T04:36:32+00:00	2020-11-20T07:59:59+00:00	-2	kmtf4f291f80bb7@marketplace.amazon.com	Kimberly Elder	+1 602-671-6610 ext. 00893	ABR015	Delivery by Friday | Arabella Farm Direct Bouquet of 18 Fresh Cut Orange Roses with a Free Glass Vase	1	0	1	Expedited	Clara Elder	328 HOMBERG RD			GOLCONDA	IL	62938-4349	US		Happy Thanksgiving, Mom.  We love you and miss you so much.  Love, From Dan, Kim, Logan and Adrienne	false		
114-3061361-8588242	51039966941490	2020-11-18T04:09:46+00:00	2020-11-17T20:09:46-08:00	2020-11-18T04:40:13+00:00	2020-11-20T07:59:59+00:00	-2	y7fz7rcwb1448ps@marketplace.amazon.com	Leslie Badilla	+1 213-442-1463 ext. 37589	ABM022	Delivery by Thursday| Purple Extravagance Bouquet by Arabella Bouquets	1	0	1	Expedited	Leslie Badilla	5320 W 4 RD			BUCKLEY	MI	49620-9518	US			false		
111-0719560-6450651	68633819479986	2020-11-18T04:24:58+00:00	2020-11-17T20:24:58-08:00	2020-11-18T04:43:32+00:00	2020-11-20T07:59:59+00:00	-2	nnd3h9ht8cd11k8@marketplace.amazon.com	Priscilla	+1 619-854-2705 ext. 36117	ABM020	Delivery by Friday | The Sunset Bouquet by Arabella Bouquets	1	0	1	Standard	Jerry and Winnie Chattman	3111 BREMERTON RD			CLEVELAND	OH	44124-5344	US		Letting you know during this holiday season that we care about and appreciate you. Love, Kailash and Priscilla Satyamurthy From Kailasam & Priscilla Satyamurthy	false		
114-5985943-5127422	17806952345162	2020-11-18T04:16:13+00:00	2020-11-17T20:16:13-08:00	2020-11-18T04:44:41+00:00	2020-11-20T07:59:59+00:00	-2	sqfn867f3rsgcvc@marketplace.amazon.com	Abhishek C. Nair	+1 480-618-5344 ext. 97290	ABM022	Delivery by Thursday| Purple Extravagance Bouquet by Arabella Bouquets	1	0	1	Expedited	Indira Atluri	903 BURR OAK CT			OAK BROOK	IL	60523-1514	US		Happy Birthday Pedamma.  Lots of love, abhi, keerthi, aarya and aavya From Abhishek C. Nair	false		
114-2162090-1437844	22917231173546	2020-11-18T04:17:39+00:00	2020-11-17T20:17:39-08:00	2020-11-18T04:46:27+00:00	2020-11-20T07:59:59+00:00	-2	c66chjscqwpb7vb@marketplace.amazon.com	Julie L. Demarest	+1 602-671-6610 ext. 76337	ABM022	Delivery by Thursday| Purple Extravagance Bouquet by Arabella Bouquets	1	0	1	Expedited	Jean Andrews	2542 N DELAWARE DR			MOUNT BETHEL	PENNSYLVANIA	18343-5300	US		Hope you are feeling better Mom. Wishing you a speedy and complete recovery. We love you very much! From Chris and Julie	false		
112-9419280-9057829	61790368995210	2020-11-18T04:30:03+00:00	2020-11-17T20:30:03-08:00	2020-11-18T04:58:27+00:00	2020-11-20T07:59:59+00:00	-2	123ytkzcmcy7vrn@marketplace.amazon.com	David M. Zeter	+1 929-436-4790 ext. 01585	ABR0033	Delivery by Thursday| Arabella Farm Direct Bouquet of 12 Fresh Cut Orange Roses with a Free Glass Vase	1	0	1	Expedited	Alice D. Zeter	495 Mapleport Way	Unit F		Cincinnati	Ohio	45255	US		Happy Birthday, Mom!  I hope and pray that it's a good one. From David and Susan	false		
111-2058360-5510621	61309082941714	2020-11-18T04:56:14+00:00	2020-11-17T20:56:14-08:00	2020-11-18T05:18:09+00:00	2020-11-20T07:59:59+00:00	-2	yq0bx00667v5yqy@marketplace.amazon.com	Jose Anguiano	+1 213-442-1463 ext. 96882	ABC004	Delivery by Friday | Arabella Bouquets 10 Stems of Purple Dendrobium Orchids in a Free Designer Glass Vase	1	0	1	Expedited	Brenda Prince	13565 MILWAUKEE CT			THORNTON	CO	80241-1325	US			false		
113-8197337-7933847	48115480821162	2020-11-18T04:53:05+00:00	2020-11-17T20:53:05-08:00	2020-11-18T05:20:30+00:00	2020-11-20T07:59:59+00:00	-2	1h2dzdd8356cycy@marketplace.amazon.com	Betty Jean Toby	+1 602-671-6610 ext. 07274	ABM010	Delivery by Thursday| The Spring Fling Bouquet by Arabella Bouquets with a Free Designer Glass Vase	1	0	1	Expedited	Erin Leyden & Jon Hart	11 TERRACE PL APT 1F			BROOKLYN	NY	11218-1078	US		Enjoy your gift! Happy birthday! From Betty Jean Toby	false		
112-7071394-5000218	04218561340882	2020-11-18T05:08:29+00:00	2020-11-17T21:08:29-08:00	2020-11-18T05:32:45+00:00	2020-11-20T07:59:59+00:00	-2	phbpxwjps0btcly@marketplace.amazon.com	Ana Ma. Burger	+1 602-671-6610 ext. 40751	ABM022	Delivery by Thursday| Purple Extravagance Bouquet by Arabella Bouquets	1	0	1	Expedited	Linda Johans	1953 WEDGEWOOD DR ASBURY			DUBUQUE	IA	52002-9370	US			false		
111-6044290-8450637	49914478165450	2020-11-18T05:08:42+00:00	2020-11-17T21:08:42-08:00	2020-11-18T05:36:28+00:00	2020-11-20T07:59:59+00:00	-2	k3tnckpq4v262dz@marketplace.amazon.com	Clement Grinstead	+1 619-854-2705 ext. 69192	ABM022	Delivery by Thursday| Purple Extravagance Bouquet by Arabella Bouquets	1	0	1	Expedited	Mama Grinstead	217 SUNSET DR			NEW LONDON	IA	52645-1422	US		Happy anniversary!! A day late but always in our thoughts and prayers. Lots of love and hugs from all of us!! Miss you, love always Clem, Abby, Jack and Paul From Clement Grinstead	false		
112-7798749-2489818	39793255026490	2020-11-18T05:13:14+00:00	2020-11-17T21:13:14-08:00	2020-11-18T05:40:16+00:00	2020-11-20T07:59:59+00:00	-2	2x31jhx5scrmg5j@marketplace.amazon.com	Joanna Vogia	+1 415-851-9136 ext. 59389	ABR0022	Delivery by Thursday| Arabella Farm Direct Bouquet of 12 Fresh Cut Pink Roses with a Free Glass Vase	1	0	1	Expedited	Lorena Sanchez	668 MILLER DR			OAKLEY	CA	94561-4230	US		Get well soon! I picked roses because they are safe for humans and animals! Xoxo feel better! From Joanna Yakubovich	false		
112-3423252-3980252	57879211481474	2020-11-18T05:26:01+00:00	2020-11-17T21:26:01-08:00	2020-11-18T05:41:34+00:00	2020-11-20T07:59:59+00:00	-2	y9hz921twd4n9tm@marketplace.amazon.com	Myra Graboski	+1 480-618-5344 ext. 26540	ABR0022	Delivery by Thursday| Arabella Farm Direct Bouquet of 12 Fresh Cut Pink Roses with a Free Glass Vase	1	0	1	Expedited	Angela Grow	8534 GLENEAGLE WAY VADERBUILT CC			NAPLES	FL	34120-1683	US		Happy Birthday Mom!!😚 We love you and appreciate you so much!  Love, From Scott, Myra, grandbaby, & Bailey	false		
111-5407720-5138609	60752247443458	2020-11-18T05:42:47+00:00	2020-11-17T21:42:47-08:00	2020-11-18T06:06:37+00:00	2020-11-20T07:59:59+00:00	-2	5rznp87pn0zq128@marketplace.amazon.com	Marlene Woytonik	+1 929-436-4790 ext. 03874	ABR0022	Delivery by Thursday| Arabella Farm Direct Bouquet of 12 Fresh Cut Pink Roses with a Free Glass Vase	1	0	1	Expedited	Stacey Chernoff	1095 REDWOOD AVE			BOULDER	CO	80304-1103	US		Happy Happy Birthday From Marlene	false		
114-5727195-5883428	32605778690954	2020-11-18T05:49:23+00:00	2020-11-17T21:49:23-08:00	2020-11-18T06:12:22+00:00	2020-11-20T07:59:59+00:00	-2	wgbwxnj69mx803l@marketplace.amazon.com	Antoinette Cheek	+1 929-436-4790 ext. 13490	ABM022	Delivery by Thursday| Purple Extravagance Bouquet by Arabella Bouquets	1	0	1	Expedited	Shawna CuanPO12	15 E KENSINGTON AVE APT L			SALT LAKE CITY	UT	84115-1695	US		Shawna, You are so nice we had to gift you with flowers TWICE! From THE CHL FAM	true	12	
114-5727195-5883428	31855831992026	2020-11-18T05:49:23+00:00	2020-11-17T21:49:23-08:00	2020-11-18T06:12:22+00:00	2020-11-20T07:59:59+00:00	-2	wgbwxnj69mx803l@marketplace.amazon.com	Antoinette Cheek	+1 929-436-4790 ext. 13490	ABM010	Delivery by Thursday| The Spring Fling Bouquet by Arabella Bouquets with a Free Designer Glass Vase	1	0	1	Expedited	Shawna CuanPO12	15 E KENSINGTON AVE APT L			SALT LAKE CITY	UT	84115-1695	US		Shawna, You are so nice we had to gift you with flowers TWICE! From THE CHL FAM	true	12	
111-5545513-8389055	39466222053522	2020-11-18T06:06:35+00:00	2020-11-17T22:06:35-08:00	2020-11-18T06:34:48+00:00	2020-11-20T07:59:59+00:00	-2	kv5x9d771dxqvvc@marketplace.amazon.com	Blake	+1 929-436-4790 ext. 33704	ABR0022	Delivery by Thursday| Arabella Farm Direct Bouquet of 12 Fresh Cut Pink Roses with a Free Glass Vase	1	0	1	Expedited	Sofia Richards	171 E COOKE RD			COLUMBUS	OH	43214-3113	US		Enjoy your gift! From Blake	false		
113-7495541-2833044	52255943679594	2020-11-18T06:20:22+00:00	2020-11-17T22:20:22-08:00	2020-11-18T06:48:44+00:00	2020-11-20T07:59:59+00:00	-2	j1cvtm595lxs8qr@marketplace.amazon.com	Larry W. Liby	+1 929-436-4790 ext. 55188	ABR001	Delivery by Thursday| Arabella Bouquets 12 Stems of Fresh Cut Red Roses in a Free Designer Glass Vase	1	0	1	Expedited	Mary Liby	1226 E. Kirwin Ave	Apt C-4		Salina	Kansas	67401	US		Happy Birthday, Mom. From Larry and Margaret	false		
113-6925804-5170625	05873052643714	2020-11-18T06:21:59+00:00	2020-11-17T22:21:59-08:00	2020-11-18T06:50:19+00:00	2020-11-20T07:59:59+00:00	-2	s0zkn0995b0rjll@marketplace.amazon.com	Ana	+1 213-442-1463 ext. 38093	ABM022	Delivery by Thursday| Purple Extravagance Bouquet by Arabella Bouquets	1	0	1	Expedited	Goran Klisara	3002 N 70TH ST UNIT 246			SCOTTSDALE	AZ	85251-6341	US		Mama! Sretan Rodjendan! Volim te puno i zelim ti sve najbolje za tvoj Rodjendan. Hvala sto se uvjek brines za mene I pomazes meni. Volim te!!! From Ana	false		
113-3959337-4125849	58165121207146	2020-11-18T06:27:01+00:00	2020-11-17T22:27:01-08:00	2020-11-18T06:55:12+00:00	2020-11-20T07:59:59+00:00	-2	syp8nf9wtpcyhd8@marketplace.amazon.com	Erica Hashiba	+1 213-442-1463 ext. 68119	ABM022	Delivery by Thursday| Purple Extravagance Bouquet by Arabella Bouquets	1	0	1	Expedited	Ana Topete	1609 PIAZZA DR			SALINAS	CA	93905-2256	US		Ana and Timothy, CONGRATULATIONS! FELICIDADES! FELICITATIONS! OMEDETOU! With love, EAHS Global Languages Dept From EAHS Global Languages Department	false		
111-7564205-9422614	23174637676098	2020-11-18T06:29:32+00:00	2020-11-17T22:29:32-08:00	2020-11-18T06:56:25+00:00	2020-11-20T07:59:59+00:00	-2	mtqyy101z9sl67q@marketplace.amazon.com	rich korach	+1 213-442-1463 ext. 84343	ABR0055	Delivery by Thursday| Arabella Farm Direct Bouquet of 12 Stems of Fresh Cut Hot Pink Roses in a Free Designer Glass Vase	1	0	1	Expedited	Connie Korach	2165 MARKRIDGE LOOP			THE VILLAGES	FL	32162-3197	US		Happy Birthday Mom!  Hope you enjoy the flowers and have a wonderful day!  Love you ❤️ From Rich	false		
114-5754316-6321003	67355503617210	2020-11-18T06:34:54+00:00	2020-11-17T22:34:54-08:00	2020-11-18T07:00:58+00:00	2020-11-20T07:59:59+00:00	-2	yz41vvxjm8r3wp7@marketplace.amazon.com	P. Xie	+1 213-442-1463 ext. 56542	ABR0066	Delivery by Thursday | Arabella Bouquets 12 Stems of Fresh Cut White Roses in a Free Designer Glass Vase	1	0	1	Expedited	Ms. Khin Aye Tint	4937 TEN MILLS RD			COLUMBIA	MD	21044-1540	US		Dear Mom, Our condolences. She will be remembered. Our hearts are with you and family. From Selena, Derek, Yufei and Pengfei Xie	false		
112-1629696-3753815	32158184938370	2020-11-18T07:30:25+00:00	2020-11-17T23:30:25-08:00	2020-11-18T07:56:36+00:00	2020-11-20T07:59:59+00:00	-2	fnz92sbsv0k7bxf@marketplace.amazon.com	AMY WILLIAMS	+1 480-618-5344 ext. 88627	ABR0022	Delivery by Thursday| Arabella Farm Direct Bouquet of 12 Fresh Cut Pink Roses with a Free Glass Vase	1	0	1	Expedited	Dena Johnson	120 COLWICK DR			SOMERS POINT	NJ	08244-1314	US		You are loved and prayed for!  Isaiah 40:29 He gives strength to the weary and power to the weak. From Your ACS family	false		
112-3331767-3848204	39320805180282	2020-11-18T07:32:16+00:00	2020-11-17T23:32:16-08:00	2020-11-18T08:01:50+00:00	2020-11-20T07:59:59+00:00	-2	4vf44jgm44qf8xx@marketplace.amazon.com	Brad	+1 929-436-4790 ext. 35927	ABR0022	Delivery by Thursday| Arabella Farm Direct Bouquet of 12 Fresh Cut Pink Roses with a Free Glass Vase	1	0	1	Expedited	Rachael Hall	108 S 10TH ST			PETERSBURG	IL	62675-1516	US			false		
