order-id	order-item-id	purchase-date	payments-date	reporting-date	promise-date	days-past-promise	buyer-email	buyer-name	buyer-phone-number	sku	product-name	quantity-purchased	quantity-shipped	quantity-to-ship	ship-service-level	recipient-name	ship-address-1	ship-address-2	ship-address-3	ship-city	ship-state	ship-postal-code	ship-country	gift-wrap-type	gift-message-text	is-business-order	purchase-order-number	price-designation
113-0103330-0013005	07935416367170	2020-11-17T18:46:15+00:00	2020-11-17T10:46:15-08:00	2020-11-17T19:16:36+00:00	2020-11-20T07:59:59+00:00	-2	1xh32rdvxlw8nfz@marketplace.amazon.com	Jodi Setzer	+1 602-671-6610 ext. 68899	ABR0022	Delivery by Wednesday | Arabella Farm Direct Bouquet of 12 Fresh Cut Pink Roses with a Free Glass Vase	1	0	1	Expedited	Janie Sexton	91523 DOLPHIN RD			WARRENTON	OR	97146-9413	US			false		
112-6201656-4282644	02647590012594	2020-11-17T18:56:17+00:00	2020-11-17T10:56:17-08:00	2020-11-17T19:22:04+00:00	2020-11-20T07:59:59+00:00	-2	9w6269qlyykh1t0@marketplace.amazon.com	Nichole Ossa	+1 480-618-5344 ext. 53719	ABR0055	Delivery by Wednesday | Arabella Farm Direct Bouquet of 12 Stems of Fresh Cut Hot Pink Roses in a Free Designer Glass Vase	1	0	1	Expedited	Management office: Amy and Rachel	5001 COLLEGE ST SE			LACEY	WA	98503-5943	US		From the Ossa family: thank you for your support during Solomon’s mental health crisis. Your interactions were kind and helped us get him medical care. From Nichole Ossa	false		
111-4395681-0081009	55741843098954	2020-11-17T19:31:29+00:00	2020-11-17T11:31:29-08:00	2020-11-17T19:32:23+00:00	2020-11-20T07:59:59+00:00	-2	l0n17xg74s3dlkv@marketplace.amazon.com	Arichica Prescott	+1 619-854-2705 ext. 55990	ABM022	Delivery by Wednesday | Purple Extravagance Bouquet by Arabella Bouquets	1	0	1	Expedited	Cindy Becker	717 WHITEHALL DR			MADISON	WI	53714-3449	US		Enjoy your gift! Happy Birthday Sweet Friend!  Love and miss you.  Arichica From Arichica Prescott	false		
111-1231799-2897020	02230674207682	2020-11-17T19:08:00+00:00	2020-11-17T11:08:00-08:00	2020-11-17T19:36:53+00:00	2020-11-20T07:59:59+00:00	-2	gcxw6l2wvwxg9lt@marketplace.amazon.com	beverley coorough	+1 619-854-2705 ext. 32673	ABR0022	Delivery by Thursday| Arabella Farm Direct Bouquet of 12 Fresh Cut Pink Roses with a Free Glass Vase	1	0	1	Expedited	Aubray Coorough	1545 IRONWOOD LN			NORTH LIBERTY	IA	52317-4749	US		Hope you feeling okay From Bev and Ray xx	false		
112-7460504-3897855	10174398301058	2020-11-17T19:29:08+00:00	2020-11-17T11:29:08-08:00	2020-11-17T19:43:48+00:00	2020-11-20T07:59:59+00:00	-2	9k2z9rxvjbfzxvn@marketplace.amazon.com	Tait Wasser	+1 480-618-5344 ext. 60003	ABM010	Delivery by Thursday| The Spring Fling Bouquet by Arabella Bouquets with a Free Designer Glass Vase	1	0	1	Expedited	Mrs. Stahlman	701 S DRYDEN PL			ARLINGTON HEIGHTS	IL	60005-2763	US		Dear Mrs. Stahlman,  Thank you very much for the birthday party and cupcakes after champs, I was very touched by your sweet surprise From Adrijana	false		
114-5912081-2750632	37055036834098	2020-11-17T19:25:37+00:00	2020-11-17T11:25:37-08:00	2020-11-17T19:51:16+00:00	2020-11-20T07:59:59+00:00	-2	nq6qqbl7blj4ks6@marketplace.amazon.com	MISS PENNY FARRINGTON	+1 929-436-4790 ext. 61624	ABR0022	Delivery by Thursday| Arabella Farm Direct Bouquet of 12 Fresh Cut Pink Roses with a Free Glass Vase	1	0	1	Expedited	cynthia dandrett	11 EXETER FALLS DR			EXETER	NH	03833-4710	US		Sandy wishing you a speedy recovery  hope you feel better soon penny & ray x From MISS PENNY FARRINGTON	false		
111-2701300-0536261	38341539840890	2020-11-17T19:42:50+00:00	2020-11-17T11:42:50-08:00	2020-11-17T19:59:20+00:00	2020-11-20T07:59:59+00:00	-2	dxhlp4npjkylqqr@marketplace.amazon.com	Wesley Derbyshire	+1 602-671-6610 ext. 80984	ABR0022	Delivery by Thursday| Arabella Farm Direct Bouquet of 12 Fresh Cut Pink Roses with a Free Glass Vase	1	0	1	Expedited	Melissa Akers	1018 S GOLDENWEED WAY			TUCSON	AZ	85748-7873	US		Wishing you an awesome Birthday!  Just think of these roses dancing for you.  Peace & Love,  Wesley From Wesley Derbyshire	false		
113-3629612-7623401	49625732111762	2020-11-17T19:37:09+00:00	2020-11-17T11:37:09-08:00	2020-11-17T20:00:36+00:00	2020-11-20T07:59:59+00:00	-2	5cj1ltp65nqhbsh@marketplace.amazon.com	Linda Brian	+1 602-671-6610 ext. 13039	ABR0055	Delivery by Thursday| Arabella Farm Direct Bouquet of 12 Stems of Fresh Cut Hot Pink Roses in a Free Designer Glass Vase	1	0	1	Expedited	Bella	873 N EATON AVE			DINUBA	CA	93618-3224	US		Bella We are so sorry about the baby and all that you’ve had to endure through the whole process. We send our love and pray that you heal quickly. From  Perry, Linda , Gio and Michael	false		
114-4190374-0209812	37879666087794	2020-11-17T19:39:45+00:00	2020-11-17T11:39:45-08:00	2020-11-17T20:05:13+00:00	2020-11-20T07:59:59+00:00	-2	zxpfvtj4rm46shf@marketplace.amazon.com	Chrispen	+1 213-442-1463 ext. 96954	ABR0022	Delivery by Thursday| Arabella Farm Direct Bouquet of 12 Fresh Cut Pink Roses with a Free Glass Vase	1	0	1	Expedited	Bailey McNamara	42 GRIST MILL RD			GILL	MA	01354-7605	US		Congratulations on your last final day of college!!! You did it! We are so proud of you and even though we couldn't be there in person, we are shouting at the rooftops for you! Sending big hugs love<3 From Chrispen and Megan :)	false		
114-4290635-6075440	58485275169442	2020-11-17T19:55:14+00:00	2020-11-17T11:55:14-08:00	2020-11-17T20:22:06+00:00	2020-11-20T07:59:59+00:00	-2	p80bvkph943y4qw@marketplace.amazon.com	Kathleen Roberts	+1 480-618-5344 ext. 26732	ABR0055	Delivery by Thursday| Arabella Farm Direct Bouquet of 12 Stems of Fresh Cut Hot Pink Roses in a Free Designer Glass Vase	1	0	1	Expedited	Alison Nash	2823 BOSTON RD			WILBRAHAM	MA	01095-1857	US		Happy Birthday Ali Love Kathy & Seth  Because your Dad would want you to have flowers today. From Kathleen Roberts	false		
114-7522972-3198608	68192328566410	2020-11-17T19:53:25+00:00	2020-11-17T11:53:25-08:00	2020-11-17T20:22:52+00:00	2020-11-20T07:59:59+00:00	-2	64zy05dwgwjl0sz@marketplace.amazon.com	Erin Stieler	+1 929-436-4790 ext. 02270	ABM022	Delivery by Thursday| Purple Extravagance Bouquet by Arabella Bouquets	1	0	1	Expedited	Myrna Weaver	1222 S CHARLTON PARK RD			HASTINGS	MI	49058-9199	US		Happy Birthday Mommy!  We love and miss you so much!!!   Love, Ken, Erin and Caleb From Erin Stieler	false		
113-3783622-4017065	68016725861570	2020-11-17T20:10:07+00:00	2020-11-17T12:10:07-08:00	2020-11-17T20:39:59+00:00	2020-11-20T07:59:59+00:00	-2	7yk1n180930jvhy@marketplace.amazon.com	gary bloomberg	+1 602-671-6610 ext. 69910	ABM022	Delivery by Thursday| Purple Extravagance Bouquet by Arabella Bouquets	1	0	1	Expedited	gene bloomberg	469 HARMONY WAY			MONROE TOWNSHIP	NJ	08831-3775	US		Happy Anniversary!!  Dont eat the flowers - they are real From gary bloomberg	false		
113-1049457-7457815	23724572636338	2020-11-17T20:12:59+00:00	2020-11-17T12:12:59-08:00	2020-11-17T20:42:38+00:00	2020-11-20T07:59:59+00:00	-2	9sgsbrycsfttsyq@marketplace.amazon.com	REBECCA SCHEFFLER	+1 929-436-4790 ext. 01883	ABM010	Delivery by Thursday| The Spring Fling Bouquet by Arabella Bouquets with a Free Designer Glass Vase	1	0	1	Expedited	Amanda Jacobs	12764 Mount Oxford Place			Peyton	co	80831	US			false		
111-7790012-8615435	19046727070954	2020-11-17T20:24:29+00:00	2020-11-17T12:24:29-08:00	2020-11-17T20:48:30+00:00	2020-11-20T07:59:59+00:00	-2	d42xdvnszpdrq6y@marketplace.amazon.com	diane ocononnor	+1 213-442-1463 ext. 18044	ABR0033	Delivery by Thursday| Arabella Farm Direct Bouquet of 12 Fresh Cut Orange Roses with a Free Glass Vase	1	0	1	Expedited	Mrs. Theresa Bishop	1220 RICHMOND RD APT 1C			STATEN ISLAND	NY	10304-2440	US		Thinking of you & hoping you have a very Happy Thanksgiving! xoxo With lots of love, Kevin, Diane, Allison & Brian From O’Connor From O’Connor	false		
112-0821673-9359439	68952031871450	2020-11-17T20:35:00+00:00	2020-11-17T12:35:00-08:00	2020-11-17T21:05:32+00:00	2020-11-20T07:59:59+00:00	-2	cyddpjkckgz4gtd@marketplace.amazon.com	Gray	+1 415-851-9136 ext. 88032	ABR0033	Delivery by Thursday| Arabella Farm Direct Bouquet of 12 Fresh Cut Orange Roses with a Free Glass Vase	1	0	1	Expedited	DL Gray	320 EUCLID AVE	APT 304		OAKLAND	CA	94610-3262	US			false		
113-9192268-5708214	37929886393282	2020-11-17T21:10:01+00:00	2020-11-17T13:10:01-08:00	2020-11-17T21:36:37+00:00	2020-11-20T07:59:59+00:00	-2	8xcq5q5vh2rfhnb@marketplace.amazon.com	birgit novak	+1 929-436-4790 ext. 32128	ABR0022	Delivery by Thursday| Arabella Farm Direct Bouquet of 12 Fresh Cut Pink Roses with a Free Glass Vase	1	0	1	Expedited	lizie Pedersen	7292 SW 168TH PL			BEAVERTON	OR	97007-4861	US		Hi Diane A little cheer to move you along. Love Sister	false		
111-6821601-7769062	08414470618754	2020-11-17T21:16:17+00:00	2020-11-17T13:16:17-08:00	2020-11-17T21:40:13+00:00	2020-11-20T07:59:59+00:00	-2	bkr43s9t08g4blt@marketplace.amazon.com	LEO ROBINSON	+1 929-436-4790 ext. 95133	ABR0055	Delivery by Thursday| Arabella Farm Direct Bouquet of 12 Stems of Fresh Cut Hot Pink Roses in a Free Designer Glass Vase	1	0	1	Expedited	Leo Robinson	174 S BETHLEHEM PIKE APT B-11			AMBLER	PA	19002-5826	US			false		
112-4319879-9104200	35950347424202	2020-11-17T21:26:33+00:00	2020-11-17T13:26:33-08:00	2020-11-17T21:48:05+00:00	2020-11-20T07:59:59+00:00	-2	q65fm99kfpl8871@marketplace.amazon.com	cbrost	+1 213-442-1463 ext. 96019	ABR0033	Delivery by Thursday| Arabella Farm Direct Bouquet of 12 Fresh Cut Orange Roses with a Free Glass Vase	1	0	1	Expedited	Teresa Hill	125 W WATER ST			BEAVER DAM	WI	53916-1423	US		Our thoughts and prayers are with you and your family, we love you. xoxo From Cindy, Mom and Amy	false		
114-1822565-9706622	25063701646322	2020-11-17T21:21:21+00:00	2020-11-17T13:21:21-08:00	2020-11-17T21:51:58+00:00	2020-11-20T07:59:59+00:00	-2	mcp8j46ylpbl859@marketplace.amazon.com	Jeremy Geisinger	+1 602-671-6610 ext. 68121	ABM022	Delivery by Thursday| Purple Extravagance Bouquet by Arabella Bouquets	1	0	1	Expedited	Jeremy Geisinger	142 FORT ST			FORTY FORT	PA	18704-5045	US			false		
114-3835713-4594649	64813467374386	2020-11-17T21:31:29+00:00	2020-11-17T13:31:29-08:00	2020-11-17T21:59:05+00:00	2020-11-20T07:59:59+00:00	-2	y2j64mw8fqyq0cs@marketplace.amazon.com	Adam	+1 929-436-4790 ext. 53914	ABR0022	Delivery by Thursday| Arabella Farm Direct Bouquet of 12 Fresh Cut Pink Roses with a Free Glass Vase	1	0	1	Expedited	Amy Difilippo	1659 YELLOW SPRINGS RD			CHESTER SPRINGS	PA	19425-1406	US		So much love to you from Adam and Sophie. Thanks for being amazing 😘❤️ From Adam and Soph	false		
111-9577221-5578632	51074758275474	2020-11-17T21:37:35+00:00	2020-11-17T13:37:35-08:00	2020-11-17T22:04:03+00:00	2020-11-20T07:59:59+00:00	-2	dlybgw1h0rvnkbb@marketplace.amazon.com	Bayramian	+1 415-851-9136 ext. 18620	ABM022	Delivery by Thursday| Purple Extravagance Bouquet by Arabella Bouquets	1	0	1	Expedited	Bayramian	55 MYSTERY FARMS DR			CRANSTON	RI	02921-2913	US			false		
113-9347727-5999438	28374328504002	2020-11-17T21:43:30+00:00	2020-11-17T13:43:30-08:00	2020-11-17T22:10:39+00:00	2020-11-20T07:59:59+00:00	-2	dht6pbq3ltrcmh9@marketplace.amazon.com	Brenda Thomas	+1 929-436-4790 ext. 42895	ABR0022	Delivery by Thursday| Arabella Farm Direct Bouquet of 12 Fresh Cut Pink Roses with a Free Glass Vase	1	0	1	Expedited	Anne Nelson	430 REDWING DR			WOODSTOCK	IL	60098-8210	US		Happy Birthday Dear Annie!  We hope you have a celebration as spectacular as you are!  Love, Aunt B, Uncle Joe, Ben, Abby and Grandma Billy From Brenda Thomas	false		
114-1964840-2297052	22568434196242	2020-11-17T21:53:40+00:00	2020-11-17T13:53:40-08:00	2020-11-17T22:20:27+00:00	2020-11-20T07:59:59+00:00	-2	klywlrg3p3rbl88@marketplace.amazon.com	Ann Warnock	+1 213-442-1463 ext. 29462	ABR0022	Delivery by Thursday| Arabella Farm Direct Bouquet of 12 Fresh Cut Pink Roses with a Free Glass Vase	1	0	1	Expedited	Mr. and Mrs.  Kevin Warnock	101 WEST RD			CANTON	CT	06019-3742	US			false		
112-5832234-7778635	40694281258882	2020-11-17T22:04:54+00:00	2020-11-17T14:04:54-08:00	2020-11-17T22:30:52+00:00	2020-11-20T07:59:59+00:00	-2	0kknqg4gjzfwpvn@marketplace.amazon.com	Barbara Jerman	+1 480-618-5344 ext. 54227	ABM022	Delivery by Thursday| Purple Extravagance Bouquet by Arabella Bouquets	1	0	1	Expedited	Dawn Roberts	11075 N GEMMA AVE			ORO VALLEY	AZ	85742-8476	US			false		
111-9333243-6107462	13270548427522	2020-11-17T22:08:39+00:00	2020-11-17T14:08:39-08:00	2020-11-17T22:35:40+00:00	2020-11-20T07:59:59+00:00	-2	6r696109y5rsp6z@marketplace.amazon.com	Samantha Diss	+1 602-671-6610 ext. 70062	ABR0022	Delivery by Thursday| Arabella Farm Direct Bouquet of 12 Fresh Cut Pink Roses with a Free Glass Vase	1	0	1	Expedited	Savannah Graye	11634 PLAZA DR			CLIO	MI	48420-2122	US		We love you Savannah!  We're so sorry to hear about the loss of your beloved Grandma Diane!   Prayers for you right now.   Love you, Tom, Sam, Karolen, and Kristina and Grandma Judy too From Samantha Diss	false		
111-6214323-9136267	46563792050818	2020-11-17T22:11:30+00:00	2020-11-17T14:11:30-08:00	2020-11-17T22:40:05+00:00	2020-11-20T07:59:59+00:00	-2	9drj27zvb8ytn8s@marketplace.amazon.com	Boris Karaman	+1 480-618-5344 ext. 67493	ABR0022	Delivery by Thursday| Arabella Farm Direct Bouquet of 12 Fresh Cut Pink Roses with a Free Glass Vase	1	0	1	Standard	Alla	10231 JULIANA WAY			SACRAMENTO	CA	95827-3068	US		Dear Alla,  I’m so sorry about your loss. You are in my thought and prayers ❤️  God bless you 🙏 From Yuliya  Karaman	false		
111-0795452-5796225	18408441291482	2020-11-17T22:11:05+00:00	2020-11-17T14:11:05-08:00	2020-11-17T22:40:27+00:00	2020-11-20T07:59:59+00:00	-2	7t44xmt9zdnrl31@marketplace.amazon.com	TrishaC	+1 929-436-4790 ext. 90719	ABR0022	Delivery by Thursday| Arabella Farm Direct Bouquet of 12 Fresh Cut Pink Roses with a Free Glass Vase	1	0	1	Expedited	Sheri Falke	3050 RUE DORLEANS UNIT 492			SAN DIEGO	CA	92110-5931	US		Happy birthday Sheri! Love Trish From TrishaC	false		
113-4739287-2981859	45895941310602	2020-11-17T22:49:49+00:00	2020-11-17T14:49:49-08:00	2020-11-17T23:17:21+00:00	2020-11-20T07:59:59+00:00	-2	v7vqzsf6shvmv9z@marketplace.amazon.com	erdogan ozturgut	+1 929-436-4790 ext. 19042	ABR0055	Delivery by Thursday| Arabella Farm Direct Bouquet of 12 Stems of Fresh Cut Hot Pink Roses in a Free Designer Glass Vase	1	0	1	Expedited	erdogan ozturgut	15761 111TH AVE NE			BOTHELL	WA	98011-6212	US			false		
111-0051408-2154642	13504824262218	2020-11-17T23:13:48+00:00	2020-11-17T15:13:48-08:00	2020-11-17T23:43:01+00:00	2020-11-20T07:59:59+00:00	-2	1xyzsz35q312nsf@marketplace.amazon.com	maureen	+1 480-618-5344 ext. 81221	ABM022	Delivery by Thursday| Purple Extravagance Bouquet by Arabella Bouquets	1	0	1	Expedited	Pat Morgan	29 WOOD ST			HAMDEN	CT	06517-2326	US		Love you a million! Reen From maureen	false		
112-4349989-9509026	39731026062986	2020-11-17T23:24:53+00:00	2020-11-17T15:24:53-08:00	2020-11-17T23:53:56+00:00	2020-11-20T07:59:59+00:00	-2	1ty1xqlq4d1d8bg@marketplace.amazon.com	Mary Heather	+1 480-618-5344 ext. 99351	ABR0022	Delivery by Thursday| Arabella Farm Direct Bouquet of 12 Fresh Cut Pink Roses with a Free Glass Vase	1	0	1	Expedited	Paula Gardillo	18562 MOUNTAIN LN			CASTRO VALLEY	CA	94552-1834	US		You are in our thoughts  The Hogerheide & Dean Family From Mary Heather	false		
112-3010421-9022600	36652009457690	2020-11-17T23:57:03+00:00	2020-11-17T15:57:03-08:00	2020-11-18T00:22:05+00:00	2020-11-20T07:59:59+00:00	-2	3545v9r60fr4k26@marketplace.amazon.com	Aaron Martinez	+1 480-618-5344 ext. 16871	ABR0055	Delivery by Thursday| Arabella Farm Direct Bouquet of 12 Stems of Fresh Cut Hot Pink Roses in a Free Designer Glass Vase	1	0	1	Expedited	Amanda Kay Wineinger	10435 STARTRAIL CT			HIGHLANDS RANCH	CO	80126-5706	US		Thinking of you! Hope you’re having a good day... xoxo From Aaron Martinez	false		
112-0480489-7788240	09712110485554	2020-11-18T01:27:00+00:00	2020-11-17T17:27:00-08:00	2020-11-18T01:54:42+00:00	2020-11-20T07:59:59+00:00	-2	3pwd2trv50w32zp@marketplace.amazon.com	Dana Levin	+1 415-851-9136 ext. 95301	ABR0022	Delivery by Thursday| Arabella Farm Direct Bouquet of 12 Fresh Cut Pink Roses with a Free Glass Vase	1	0	1	Expedited	Jeanne Rose	103 JEFFERSON DR			HENDERSONVILLE	TN	37075-4308	US		We love you and are thinking about you! We are so sorry for your loss and are here if you need anything! From Love: Dana, Jeff, James, BoBo, and Molly	false		
113-2656184-2361867	67139815145386	2020-11-18T01:40:53+00:00	2020-11-17T17:40:53-08:00	2020-11-18T02:07:54+00:00	2020-11-20T07:59:59+00:00	-2	hwjqkjqxcgbwtkb@marketplace.amazon.com	Darlene Sumner	+1 619-854-2705 ext. 58522	ABR0022	Delivery by Thursday| Arabella Farm Direct Bouquet of 12 Fresh Cut Pink Roses with a Free Glass Vase	1	0	1	Expedited	Mary Waggoner/Diane	100 SHARON DR			MORRIS	IL	60450-3325	US			false		
112-5254018-0471441	10482913707114	2020-11-18T02:02:29+00:00	2020-11-17T18:02:29-08:00	2020-11-18T02:30:01+00:00	2020-11-20T07:59:59+00:00	-2	m54qkt7mf38lk0x@marketplace.amazon.com	Kim Saunders Ward	+1 619-854-2705 ext. 82362	ABM022	Delivery by Thursday| Purple Extravagance Bouquet by Arabella Bouquets	1	0	1	Expedited	Paula Arsenov	2444 CHAUNCY PL			RIVERSIDE	CA	92506-4564	US		My Deepest Sympathy From Kim Saunders Ward	false		
113-0726285-4640248	07520874120962	2020-11-18T02:19:55+00:00	2020-11-17T18:19:55-08:00	2020-11-18T02:44:07+00:00	2020-11-20T07:59:59+00:00	-2	c08xnp8w0j0509n@marketplace.amazon.com	chris bajgrowicz	+1 602-671-6610 ext. 90387	ABR0022	Delivery by Thursday| Arabella Farm Direct Bouquet of 12 Fresh Cut Pink Roses with a Free Glass Vase	1	0	1	Expedited	Ana Winger	651 CLOVER DR			ALGONQUIN	IL	60102-6518	US		Get well soon Ana. Thinking of you. From The Bajgrowicz’s	false		
114-6217313-3146639	63002494045066	2020-11-18T02:24:51+00:00	2020-11-17T18:24:51-08:00	2020-11-18T02:54:40+00:00	2020-11-20T07:59:59+00:00	-2	myzfdqyyp8qc5b1@marketplace.amazon.com	Nancy Gralla	+1 929-436-4790 ext. 86076	ABR0022	Delivery by Thursday| Arabella Farm Direct Bouquet of 12 Fresh Cut Pink Roses with a Free Glass Vase	1	0	1	Expedited	Joan Gralla	225 E 74TH ST APT 5A			NEW YORK	NY	10021-3360	US			false		
111-0965454-9153855	65199122232986	2020-11-18T02:34:04+00:00	2020-11-17T18:34:04-08:00	2020-11-18T03:03:05+00:00	2020-11-20T07:59:59+00:00	-2	ywrhjj2vc3207v0@marketplace.amazon.com	Wendell Hill	+1 619-854-2705 ext. 13655	ABM010	Delivery by Thursday| The Spring Fling Bouquet by Arabella Bouquets with a Free Designer Glass Vase	1	0	1	Expedited	Jeannine Lefevbre	4345 DUNKIRK WAY			DENVER	CO	80249-6543	US		Get Well Fast and Stay Strong! Love: Pops and Wendell & Lisa From Wendell Hill	false		
114-4621414-6876207	12595360515938	2020-11-18T02:41:37+00:00	2020-11-17T18:41:37-08:00	2020-11-18T03:12:12+00:00	2020-11-20T07:59:59+00:00	-2	lhxjrg65f3tlzpw@marketplace.amazon.com	Steven McDevitt	+1 602-671-6610 ext. 92380	ABR0022	Delivery by Thursday| Arabella Farm Direct Bouquet of 12 Fresh Cut Pink Roses with a Free Glass Vase	1	0	1	Expedited	Steven McDevitt	2356 SWIFT DR			LAKE HAVASU CITY	AZ	86404-2037	US			false		
112-8104373-2659438	43865995073538	2020-11-18T03:01:42+00:00	2020-11-17T19:01:42-08:00	2020-11-18T03:24:12+00:00	2020-11-20T07:59:59+00:00	-2	xcj5vxwbqr0xt4x@marketplace.amazon.com	Heather M Gardo	+1 619-854-2705 ext. 68351	ABM017	Delivery by Friday | Arabella Bouquets 10 Stems of Blue Dendrobium Orchids in a Free Designer Glass Vase	1	0	1	Expedited	Sammie & Dan Blevins	207 W GRANT AVE			NEW CASTLE	DE	19720-2524	US		I hope this brings you a smile! I pray these are not the ugliest flowers on the planet.. here’s to hoping they actually do look like the picture! Remember, you are strong! I am here for you always! From Heather & Andrew Gardo	false		
113-1863826-6641837	29954675173914	2020-11-18T03:04:58+00:00	2020-11-17T19:04:58-08:00	2020-11-18T03:26:10+00:00	2020-11-20T07:59:59+00:00	-2	z6g8ygbgjlqvz8d@marketplace.amazon.com	Raymond Moss	+1 602-671-6610 ext. 28360	ABR0055	Delivery by Thursday| Arabella Farm Direct Bouquet of 12 Stems of Fresh Cut Hot Pink Roses in a Free Designer Glass Vase	1	0	1	Expedited	Jazmyne Moss	3923 ELLINGTON RD			PHILADELPHIA	PA	19131-2806	US		From the bottom of your lip to the tip of your clit, I hope that you enjoy these as I adore everything and everywhere in between. From Raymond	false		
111-0224689-4591464	45781353030586	2020-11-18T03:02:43+00:00	2020-11-17T19:02:43-08:00	2020-11-18T03:32:56+00:00	2020-11-20T07:59:59+00:00	-2	00rvjgjb7cnw7yg@marketplace.amazon.com	Kathleen kenny	+1 619-854-2705 ext. 66092	ABR0022	Delivery by Thursday| Arabella Farm Direct Bouquet of 12 Fresh Cut Pink Roses with a Free Glass Vase	1	0	1	Expedited	Regina Lombardo	484 COLUMBIA BLVD			WOOD RIDGE	NJ	07075-1613	US			false		
114-5863991-1550641	14437817942514	2020-11-18T03:04:51+00:00	2020-11-17T19:04:51-08:00	2020-11-18T03:33:31+00:00	2020-11-20T07:59:59+00:00	-2	lmn4fbb35v9f94h@marketplace.amazon.com	Richard Goode	+1 619-854-2705 ext. 87052	ABR0033	Delivery by Thursday| Arabella Farm Direct Bouquet of 12 Fresh Cut Orange Roses with a Free Glass Vase	1	0	1	Expedited	Rita Montez	5600 S ORIOLE AVE			TUCSON	AZ	85746-3036	US		My dearest Grandmother... I love and m iss you. Hearts and minds. From Your boys	false		
112-3255466-0745026	06056732476426	2020-11-18T03:18:36+00:00	2020-11-17T19:18:36-08:00	2020-11-18T03:45:51+00:00	2020-11-20T07:59:59+00:00	-2	5jqkbcylkdw6fdt@marketplace.amazon.com	MARK W BROWN	+1 619-854-2705 ext. 09470	ABR0055	Delivery by Thursday| Arabella Farm Direct Bouquet of 12 Stems of Fresh Cut Hot Pink Roses in a Free Designer Glass Vase	1	0	1	Expedited	Virginia Brown	8685 COUNTY ROAD 14			IONIA	NY	14475-9703	US		Hi Mom, I hope these cheer you up post-election! I tried to find something with a flash of color for a bright mood. Thank you for always being a peaceful and loving mother for your children, and happy birthday! Love, From MARK	false		
113-9221451-4286639	31257233238602	2020-11-18T03:26:46+00:00	2020-11-17T19:26:46-08:00	2020-11-18T03:54:22+00:00	2020-11-20T07:59:59+00:00	-2	mc7qctsc4zmn5p6@marketplace.amazon.com	Pamela Long	+1 929-436-4790 ext. 47116	ABR0055	Delivery by Thursday| Arabella Farm Direct Bouquet of 12 Stems of Fresh Cut Hot Pink Roses in a Free Designer Glass Vase	1	0	1	Expedited	Lauren Toppin	50 OLIVER ST			HARTFORD	CT	06106-4044	US			false		
114-1917477-3452243	35892308590938	2020-11-18T04:03:01+00:00	2020-11-17T20:03:01-08:00	2020-11-18T04:31:01+00:00	2020-11-20T07:59:59+00:00	-2	06ndn9bxjhw0fdr@marketplace.amazon.com	Cynthia Goodberry	+1 929-436-4790 ext. 94486	ABR0033	Delivery by Thursday| Arabella Farm Direct Bouquet of 12 Fresh Cut Orange Roses with a Free Glass Vase	1	0	1	Expedited	Pat Gagliardo	544 82nd St			Niagara Falls	NY	14304-2306	US		Happy retirement!  You should be so proud. From Jim, Cyndi, Nadine, Natalie and Jimmy	false		
111-2058360-5510621	61309082941714	2020-11-18T04:56:14+00:00	2020-11-17T20:56:14-08:00	2020-11-18T05:18:09+00:00	2020-11-20T07:59:59+00:00	-2	yq0bx00667v5yqy@marketplace.amazon.com	Jose Anguiano	+1 213-442-1463 ext. 96882	ABC004	Delivery by Friday | Arabella Bouquets 10 Stems of Purple Dendrobium Orchids in a Free Designer Glass Vase	1	0	1	Expedited	Brenda Prince	13565 MILWAUKEE CT			THORNTON	CO	80241-1325	US			false		
113-8197337-7933847	48115480821162	2020-11-18T04:53:05+00:00	2020-11-17T20:53:05-08:00	2020-11-18T05:20:30+00:00	2020-11-20T07:59:59+00:00	-2	1h2dzdd8356cycy@marketplace.amazon.com	Betty Jean Toby	+1 602-671-6610 ext. 07274	ABM010	Delivery by Thursday| The Spring Fling Bouquet by Arabella Bouquets with a Free Designer Glass Vase	1	0	1	Expedited	Erin Leyden & Jon Hart	11 TERRACE PL APT 1F			BROOKLYN	NY	11218-1078	US		Enjoy your gift! Happy birthday! From Betty Jean Toby	false		
112-7798749-2489818	39793255026490	2020-11-18T05:13:14+00:00	2020-11-17T21:13:14-08:00	2020-11-18T05:40:16+00:00	2020-11-20T07:59:59+00:00	-2	2x31jhx5scrmg5j@marketplace.amazon.com	Joanna Vogia	+1 415-851-9136 ext. 59389	ABR0022	Delivery by Thursday| Arabella Farm Direct Bouquet of 12 Fresh Cut Pink Roses with a Free Glass Vase	1	0	1	Expedited	Lorena Sanchez	668 MILLER DR			OAKLEY	CA	94561-4230	US		Get well soon! I picked roses because they are safe for humans and animals! Xoxo feel better! From Joanna Yakubovich	false		
111-5545513-8389055	39466222053522	2020-11-18T06:06:35+00:00	2020-11-17T22:06:35-08:00	2020-11-18T06:34:48+00:00	2020-11-20T07:59:59+00:00	-2	kv5x9d771dxqvvc@marketplace.amazon.com	Blake	+1 929-436-4790 ext. 33704	ABR0022	Delivery by Thursday| Arabella Farm Direct Bouquet of 12 Fresh Cut Pink Roses with a Free Glass Vase	1	0	1	Expedited	Sofia Richards	171 E COOKE RD			COLUMBUS	OH	43214-3113	US		Enjoy your gift! From Blake	false		
113-6925804-5170625	05873052643714	2020-11-18T06:21:59+00:00	2020-11-17T22:21:59-08:00	2020-11-18T06:50:19+00:00	2020-11-20T07:59:59+00:00	-2	s0zkn0995b0rjll@marketplace.amazon.com	Ana	+1 213-442-1463 ext. 38093	ABM022	Delivery by Thursday| Purple Extravagance Bouquet by Arabella Bouquets	1	0	1	Expedited	Goran Klisara	3002 N 70TH ST UNIT 246			SCOTTSDALE	AZ	85251-6341	US		Mama! Sretan Rodjendan! Volim te puno i zelim ti sve najbolje za tvoj Rodjendan. Hvala sto se uvjek brines za mene I pomazes meni. Volim te!!! From Ana	false		
113-3959337-4125849	58165121207146	2020-11-18T06:27:01+00:00	2020-11-17T22:27:01-08:00	2020-11-18T06:55:12+00:00	2020-11-20T07:59:59+00:00	-2	syp8nf9wtpcyhd8@marketplace.amazon.com	Erica Hashiba	+1 213-442-1463 ext. 68119	ABM022	Delivery by Thursday| Purple Extravagance Bouquet by Arabella Bouquets	1	0	1	Expedited	Ana Topete	1609 PIAZZA DR			SALINAS	CA	93905-2256	US		Ana and Timothy, CONGRATULATIONS! FELICIDADES! FELICITATIONS! OMEDETOU! With love, EAHS Global Languages Dept From EAHS Global Languages Department	false		
112-1629696-3753815	32158184938370	2020-11-18T07:30:25+00:00	2020-11-17T23:30:25-08:00	2020-11-18T07:56:36+00:00	2020-11-20T07:59:59+00:00	-2	fnz92sbsv0k7bxf@marketplace.amazon.com	AMY WILLIAMS	+1 480-618-5344 ext. 88627	ABR0022	Delivery by Thursday| Arabella Farm Direct Bouquet of 12 Fresh Cut Pink Roses with a Free Glass Vase	1	0	1	Expedited	Dena Johnson	120 COLWICK DR			SOMERS POINT	NJ	08244-1314	US		You are loved and prayed for!  Isaiah 40:29 He gives strength to the weary and power to the weak. From Your ACS family	false		
112-3331767-3848204	39320805180282	2020-11-18T07:32:16+00:00	2020-11-17T23:32:16-08:00	2020-11-18T08:01:50+00:00	2020-11-20T07:59:59+00:00	-2	4vf44jgm44qf8xx@marketplace.amazon.com	Brad	+1 929-436-4790 ext. 35927	ABR0022	Delivery by Thursday| Arabella Farm Direct Bouquet of 12 Fresh Cut Pink Roses with a Free Glass Vase	1	0	1	Expedited	Rachael Hall	108 S 10TH ST			PETERSBURG	IL	62675-1516	US			false		
113-6991089-2050634	46474944635626	2020-11-18T09:14:06+00:00	2020-11-18T01:14:06-08:00	2020-11-18T09:43:23+00:00	2020-11-21T07:59:59+00:00	-3	tkfxjfm922r8z4k@marketplace.amazon.com	daniela ortner	+1 213-442-1463 ext. 84770	ABM022	Delivery by Thursday| Purple Extravagance Bouquet by Arabella Bouquets	1	0	1	Expedited	Krista Trappl-Kimmons	16 SUNFISH			IRVINE	CA	92604-3327	US		Happy birthday Hasenpatschi. We love you!! From daniela ortner-tobider	false		
113-5731876-5603440	06342215935378	2020-11-18T10:51:45+00:00	2020-11-18T02:51:45-08:00	2020-11-18T11:21:42+00:00	2020-11-21T07:59:59+00:00	-3	nlrm2np0klzfbdp@marketplace.amazon.com	Yi-Hsuan Tsai	+1 213-442-1463 ext. 53290	ABR0022	Delivery by Thursday| Arabella Farm Direct Bouquet of 12 Fresh Cut Pink Roses with a Free Glass Vase	1	0	1	Expedited	Yi-Hsuan Tsai	2145 3RD ST			SANTA CLARA	CA	95054-2591	US			false		
112-6553113-6599405	31398233094402	2020-11-17T21:59:20+00:00	2020-11-17T13:59:20-08:00	2020-11-18T11:36:26+00:00	2020-11-21T07:59:59+00:00	-3	1zk0v5bc4rz992g@marketplace.amazon.com	Irina Shapiro	+1 619-854-2705 ext. 53979	ABR0022	Delivery by Thursday| Arabella Farm Direct Bouquet of 12 Fresh Cut Pink Roses with a Free Glass Vase	1	0	1	Expedited	Olga Karapetova	30 BAY 29TH ST APT 5E			BROOKLYN	NY	11214-4021	US			false		
113-7306004-3744263	12735204114450	2020-11-18T12:34:57+00:00	2020-11-18T04:34:57-08:00	2020-11-18T13:04:00+00:00	2020-11-21T07:59:59+00:00	-3	nh485dfxdb6pst3@marketplace.amazon.com	Barbara McCann	+1 480-618-5344 ext. 32614	ABR0022	Delivery by Thursday| Arabella Farm Direct Bouquet of 12 Fresh Cut Pink Roses with a Free Glass Vase	1	0	1	Expedited	Patty	615 CARY WOODS CIR			CARY	IL	60013-2075	US		My sincere sympathy for your loss. From Barbara McCann	false		
113-5036136-2919412	24388751780010	2020-11-18T12:54:31+00:00	2020-11-18T04:54:31-08:00	2020-11-18T13:22:34+00:00	2020-11-21T07:59:59+00:00	-3	lhq2yrllbs8nrpv@marketplace.amazon.com	Jerry O'Farrell	+1 619-854-2705 ext. 11845	ABR0022	Delivery by Thursday| Arabella Farm Direct Bouquet of 12 Fresh Cut Pink Roses with a Free Glass Vase	1	0	1	Expedited	ELIZABETH VEGA	2342 E HAZZARD ST			PHILADELPHIA	PA	19125-3132	US		Happy 80th Birthday Mom!!! We love you and will see you soon. From Debbie & Jerry  O'Farrell	false		
114-8748184-4273813	22845006337890	2020-11-18T14:18:54+00:00	2020-11-18T06:18:54-08:00	2020-11-18T14:45:09+00:00	2020-11-21T07:59:59+00:00	-3	30l112d9v7jnysh@marketplace.amazon.com	Ernestine Boyd	+1 480-618-5344 ext. 97301	ABM010	Delivery by Thursday| The Spring Fling Bouquet by Arabella Bouquets with a Free Designer Glass Vase	1	0	1	Expedited	Marie Underhill	163 CALLE MAYOR			REDONDO BEACH	CA	90277-6509	US		Enjoy your gift! From Ernestine Boyd	false		
114-4394813-5331434	13111362434026	2020-11-18T14:44:35+00:00	2020-11-18T06:44:35-08:00	2020-11-18T15:08:51+00:00	2020-11-21T07:59:59+00:00	-3	52cky6g57jmcyh9@marketplace.amazon.com	Rhea Matute	+1 619-854-2705 ext. 78941	ABM017	Delivery by Friday | Arabella Bouquets 10 Stems of Blue Dendrobium Orchids in a Free Designer Glass Vase	1	0	1	Expedited	Rosalinda Llamas	1515 N ALAFAYA TRL APT 329			ORLANDO	FL	32828-5963	US		Love you, Lola! We miss you! From Rhea, Miggy, Q and Miq	false		
111-1179382-1109825	63881291042274	2020-11-18T14:46:28+00:00	2020-11-18T06:46:28-08:00	2020-11-18T15:26:47+00:00	2020-11-21T07:59:59+00:00	-3	jq1g1kc7nzlmzkt@marketplace.amazon.com	Brian Leonard	+1 602-671-6610 ext. 32744	ABM020	Delivery by Friday | The Sunset Bouquet by Arabella Bouquets	1	0	1	Expedited	Brian Leonard	2037 CHETWOOD DR			PETALUMA	CA	94952-5207	US		Happy Birthday Olivia!  Love,  Dad From Brian Leonard	false		
112-5102030-0040259	41054294460514	2020-11-18T15:00:28+00:00	2020-11-18T07:00:28-08:00	2020-11-18T15:28:04+00:00	2020-11-21T07:59:59+00:00	-3	h2dxzl0jmhlrvbk@marketplace.amazon.com	TONY RISHA	+1 213-442-1463 ext. 56166	ABR0022	Delivery by Thursday| Arabella Farm Direct Bouquet of 12 Fresh Cut Pink Roses with a Free Glass Vase	1	0	1	Expedited	Barbara May	9825 DIVISION RD			CASCO	MI	48064-1103	US			false		
111-7368536-6652206	64986205842538	2020-11-18T15:43:29+00:00	2020-11-18T07:43:29-08:00	2020-11-18T16:10:47+00:00	2020-11-21T07:59:59+00:00	-3	yqf5bxgpp9mqw1d@marketplace.amazon.com	mike sager	+1 213-442-1463 ext. 81044	ABM022	Delivery by Thursday| Purple Extravagance Bouquet by Arabella Bouquets	1	0	1	Expedited	Mike Sager	714 E GRAND AVE			TOWER CITY	PA	17980-1216	US		Happy birthday!!! We love you, Michael and Ronnie From Mike Sager	false		
113-1952429-3258659	46413051618962	2020-11-18T15:42:16+00:00	2020-11-18T07:42:16-08:00	2020-11-18T16:11:07+00:00	2020-11-21T07:59:59+00:00	-3	rxfkl7c7xgfgbjz@marketplace.amazon.com	Linda Nejak	+1 602-671-6610 ext. 61385	ABM022	Delivery by Thursday| Purple Extravagance Bouquet by Arabella Bouquets	1	0	1	Expedited	Nancy Flaherty	114 8TH AVE			SUPERIOR	CO	80027-9620	US		Happy Birthday, Sis Enjoy Your Day! From Linda & Karl	false		
113-2240402-2853054	21822587974322	2020-11-18T15:59:33+00:00	2020-11-18T07:59:33-08:00	2020-11-18T16:14:28+00:00	2020-11-21T07:59:59+00:00	-3	5djc7hkv6nq2x0c@marketplace.amazon.com	Ruth Helm	+1 415-851-9136 ext. 14725	ABR0022	Delivery by Thursday| Arabella Farm Direct Bouquet of 12 Fresh Cut Pink Roses with a Free Glass Vase	1	0	1	Expedited	Diana Johns	608 ELMWOOD DR			MARSHALLTOWN	IA	50158-3886	US			false		
112-9756879-8906643	26510218794594	2020-11-18T15:48:53+00:00	2020-11-18T07:48:53-08:00	2020-11-18T16:16:23+00:00	2020-11-21T07:59:59+00:00	-3	8w2rqz8dpjfqjn8@marketplace.amazon.com	Sue Mckane	+1 480-618-5344 ext. 55852	ABM010	Delivery by Thursday| The Spring Fling Bouquet by Arabella Bouquets with a Free Designer Glass Vase	1	0	1	Standard	Sondra Dannenberg	BROOKDALE GARDENS TARZANA	18700 BURBANK BLVD		TARZANA	CA	91356-3367	US		HAPPY THANKSGIVING. WE MISS YOU.  WISH WE COULD ALL BE TOGETHER. LOVE, SUE, SAL, SARI, MILES, TRAVIS AND ELAINE From Sue Mckane	false		
111-8355770-6805859	58577061172506	2020-11-18T15:58:48+00:00	2020-11-18T07:58:48-08:00	2020-11-18T16:27:40+00:00	2020-11-21T07:59:59+00:00	-3	0mbblh69w54sh5d@marketplace.amazon.com	Wendy Beckemeyer	+1 619-854-2705 ext. 53924	ABR0022	Delivery by Thursday| Arabella Farm Direct Bouquet of 12 Fresh Cut Pink Roses with a Free Glass Vase	1	0	1	Expedited	Gwen Schimek-Tischler	512 3RD AVE NW			MOUNT VERNON	IA	52314-1327	US		Gwen, Hope these flowers brighten your day!  Thanks for all you do for our students!  They are lucky to have you as their leader of student life and we are all grateful to have you as our colleague. From Wendy Beckemeyer	false		
114-0952834-6983419	39213375331066	2020-11-18T16:03:54+00:00	2020-11-18T08:03:54-08:00	2020-11-18T16:30:24+00:00	2020-11-21T07:59:59+00:00	-3	x1ysnjfxzc78bwl@marketplace.amazon.com	letty bass	+1 619-854-2705 ext. 07524	ABM010	Delivery by Thursday| The Spring Fling Bouquet by Arabella Bouquets with a Free Designer Glass Vase	1	0	1	Expedited	the bass family	415 BLUMONT ST			LAGUNA BEACH	CA	92651-2342	US		To the whole crew,  Wishing you lots of love, good health, and a happy Thanksgiving... wish we could be together. Much love from Mom, Dad, Nana and Gramp From letty bass	false		
114-5737317-5761837	63276627113250	2020-11-18T16:13:17+00:00	2020-11-18T08:13:17-08:00	2020-11-18T16:32:12+00:00	2020-11-21T07:59:59+00:00	-3	0k7d3g905qz82k9@marketplace.amazon.com	John Allen	001(914)433-3383	ABM022	Delivery by Thursday| Purple Extravagance Bouquet by Arabella Bouquets	1	0	1	Expedited	Hannah Allen	58 MOUNTAIN RD			IRVINGTON	NY	10533-1406	US			false		
112-8018904-0871457	33359869783362	2020-11-18T16:04:23+00:00	2020-11-18T08:04:23-08:00	2020-11-18T16:33:33+00:00	2020-11-21T07:59:59+00:00	-3	7c0dw9rcxxb6x21@marketplace.amazon.com	Jennifer	+1 213-442-1463 ext. 93318	ABR0022	Delivery by Thursday| Arabella Farm Direct Bouquet of 12 Fresh Cut Pink Roses with a Free Glass Vase	1	0	1	Expedited	Susan Merkner	28081 W MEADOW LANE RD			MCHENRY	IL	60051-7278	US		Welcome home! We love you! From Jen, Dean, Abby, Braden, and Boomie	false		
111-6514925-2307435	61473374006290	2020-11-18T16:19:30+00:00	2020-11-18T08:19:30-08:00	2020-11-18T16:35:26+00:00	2020-11-21T07:59:59+00:00	-3	l0f99gfmrh19rvv@marketplace.amazon.com	Smekhov	+1 619-854-2705 ext. 25160	ABR0055	Delivery by Thursday| Arabella Farm Direct Bouquet of 12 Stems of Fresh Cut Hot Pink Roses in a Free Designer Glass Vase	1	0	1	Expedited	Makovskaya Stella	2475 E 11TH ST APT 6G			BROOKLYN	NY	11235-5039	US			false		
113-0728895-1944231	05628494331138	2020-11-18T16:48:39+00:00	2020-11-18T08:48:39-08:00	2020-11-18T17:28:18+00:00	2020-11-21T07:59:59+00:00	-3	3sz4m696gpd2v0c@marketplace.amazon.com	Roseann Castrillon	+1 602-671-6610 ext. 74603	ABR0022	Delivery by Thursday| Arabella Farm Direct Bouquet of 12 Fresh Cut Pink Roses with a Free Glass Vase	1	0	1	Expedited	Elizabeth Martin	611 REDBUD TER			CANTON	GA	30115-5103	US		Dear Liz,  Thinking of you during this difficult time.  Love Always, Roseann From Roseann Castrillon	false		
112-4078307-8264261	05064807097842	2020-11-18T17:02:19+00:00	2020-11-18T09:02:19-08:00	2020-11-18T17:32:03+00:00	2020-11-21T07:59:59+00:00	-3	pz5p18bn1v1gsn0@marketplace.amazon.com	Matthew Mootz	+1 619-854-2705 ext. 03918	ABR0022	Delivery by Thursday| Arabella Farm Direct Bouquet of 12 Fresh Cut Pink Roses with a Free Glass Vase	1	0	1	Expedited	Cheryl Karl	15044 SE 44TH PL			BELLEVUE	WA	98006-2424	US		Happy birthday Mom. Love you. From Matthew Mootz	false		
111-1837566-1105067	59912054642490	2020-11-18T17:24:02+00:00	2020-11-18T09:24:02-08:00	2020-11-18T17:50:30+00:00	2020-11-21T07:59:59+00:00	-3	bd0bmkh3snfxl6c@marketplace.amazon.com	John Madden	+1 602-671-6610 ext. 40250	ABR0022	Delivery by Thursday| Arabella Farm Direct Bouquet of 12 Fresh Cut Pink Roses with a Free Glass Vase	1	0	1	Expedited	Isabel Madden	312 HARBOR LGTS			TINTON FALLS	NJ	07753-7721	US		Mom, happy Thanksgiving! Love, John, Sean & Emily Enjoy your gift! From John Madden	false		
114-3824520-0397808	30646447550578	2020-11-18T17:21:17+00:00	2020-11-18T09:21:17-08:00	2020-11-18T17:51:18+00:00	2020-11-21T07:59:59+00:00	-3	xpyg3scy2n3clvw@marketplace.amazon.com	Roger Rochat	+1 213-442-1463 ext. 21893	ABR001	Delivery by Thursday| Arabella Bouquets 12 Stems of Fresh Cut Red Roses in a Free Designer Glass Vase	1	0	1	Expedited	Sherrill Morris	1630 GREENBRIAR DR			METAMORA	IL	61548-9566	US			true		Business Price
113-7210744-2537059	24305540310890	2020-11-18T17:32:47+00:00	2020-11-18T09:32:47-08:00	2020-11-18T18:01:28+00:00	2020-11-21T07:59:59+00:00	-3	mpyb3mnrbq6lxbm@marketplace.amazon.com	Samantha Mancuso	+1 480-618-5344 ext. 69663	ABM022	Delivery by Thursday| Purple Extravagance Bouquet by Arabella Bouquets	1	0	1	Expedited	Anastasia Mancuso	137 INVERNESS RD			SEVERNA PARK	MD	21146-1320	US		Happy Birthday mom! From Samantha Mancuso	false		
111-5508881-2433862	68900893598690	2020-11-18T17:46:59+00:00	2020-11-18T09:46:59-08:00	2020-11-18T18:14:56+00:00	2020-11-21T07:59:59+00:00	-3	vc2hjy6p39jlzzn@marketplace.amazon.com	MASHAL	+1 213-442-1463 ext. 55091	ABR0055	Delivery by Thursday| Arabella Farm Direct Bouquet of 12 Stems of Fresh Cut Hot Pink Roses in a Free Designer Glass Vase	1	0	1	Expedited	Munnazah Saher	2307 SUNSET TRL			SUGAR LAND	TX	77478-4160	US		A little something to brighten up your room. Hope you get better soon iA!! From MASHAL	false		
114-0778559-6405022	26431938675266	2020-11-18T17:55:22+00:00	2020-11-18T09:55:22-08:00	2020-11-18T18:24:09+00:00	2020-11-21T07:59:59+00:00	-3	zdfvc5lm3bzbczd@marketplace.amazon.com	Liz Henington	+1 602-671-6610 ext. 75625	ABR0022	Delivery by Thursday| Arabella Farm Direct Bouquet of 12 Fresh Cut Pink Roses with a Free Glass Vase	1	0	1	Expedited	Misela Pejic	57 ORRINGTON CT			SCHAUMBURG	IL	60173-2116	US		Thinking about you ❤️ From Liz Henington	false		
114-4864256-6997037	44192259228602	2020-11-18T17:58:23+00:00	2020-11-18T09:58:23-08:00	2020-11-18T18:26:30+00:00	2020-11-21T07:59:59+00:00	-3	cvxjzk5c2r0px7p@marketplace.amazon.com	ALIKI GIANNOULA	0016462230971	ABM022	Delivery by Thursday| Purple Extravagance Bouquet by Arabella Bouquets	1	0	1	Standard	KATHRYN STERGIOPOULOS	3 EXETER CT			PRINCETON	NJ	08540-7000	US		Enjoy your gift! From ALIKI GIANNOULA	false		
113-5523648-7426653	33110167022698	2020-11-18T17:59:33+00:00	2020-11-18T09:59:33-08:00	2020-11-18T18:27:07+00:00	2020-11-21T07:59:59+00:00	-3	1nm803t5dttbwqt@marketplace.amazon.com	Cynthia M. Paul	+1 480-618-5344 ext. 64450	ABM022	Delivery by Thursday| Purple Extravagance Bouquet by Arabella Bouquets	1	0	1	Expedited	Hannah Herrera	2228 N FREDERIC ST			BURBANK	CA	91504-3325	US		Happy Birthday, Hannah! 'Hope your special day is everything you'd like it to be! Big Smooches from Up North! Steve and Cyndi From Steve and Cyndi	false		
112-0397738-9386647	52836455450042	2020-11-18T18:02:36+00:00	2020-11-18T10:02:36-08:00	2020-11-18T18:28:44+00:00	2020-11-21T07:59:59+00:00	-3	0df10jvqprsq96s@marketplace.amazon.com	Erin Kelly	+1 480-618-5344 ext. 62660	ABM002	Delivery by Friday | Arabella Bouquets Fresh Cut White Calla Lilies in a Free Designer Glass Vase	1	0	1	Expedited	Jacque-O	1889 JACOBSEN RD			NEENAH	WI	54956-1885	US		Happy happy Jacque-O, Love you muchisimo!  Can you believe almost 30 years! Xoxo, nire & chunks From Erin Kelly	false		
112-1150345-8282633	65863556458458	2020-11-18T18:19:32+00:00	2020-11-18T10:19:32-08:00	2020-11-18T18:40:29+00:00	2020-11-21T07:59:59+00:00	-3	bjynk4mv0g78thm@marketplace.amazon.com	deena chase	+1 602-671-6610 ext. 64235	ABM010	Delivery by Thursday | The Everlasting Fling Bouquet by Arabella Bouquets with a Free Designer Glass Vase	1	0	1	Expedited	Traci Felton and Judy Davidson	7053 LINDSAY AVE SE # 1-102			AUBURN	WA	98092-8280	US		We are thinking of you and sending many hugs💕 From Mary, Carol , Nancy and Deena	false		
111-0743535-2250621	37907995375042	2020-11-18T18:13:36+00:00	2020-11-18T10:13:36-08:00	2020-11-18T18:44:05+00:00	2020-11-21T07:59:59+00:00	-3	77ddkfmgqyjsplm@marketplace.amazon.com	Ben Johnson	+1 619-854-2705 ext. 93293	ABR0022	Delivery by Thursday| Arabella Farm Direct Bouquet of 12 Fresh Cut Pink Roses with a Free Glass Vase	1	0	1	Expedited	Kay Johnson	3101 COUNTRY WOOD DR			BURNSVILLE	MN	55337-3439	US			false		
112-8068389-6981030	08653345031826	2020-11-18T18:17:28+00:00	2020-11-18T10:17:28-08:00	2020-11-18T18:46:07+00:00	2020-11-21T07:59:59+00:00	-3	2yj3166hq66ld2f@marketplace.amazon.com	Stephanie A. Pisaris	+1 480-618-5344 ext. 16156	ABR0033	Delivery by Thursday| Arabella Farm Direct Bouquet of 12 Fresh Cut Orange Roses with a Free Glass Vase	1	0	1	Expedited	Diana Pisaris	12481 VERANDAH BLVD			FORT MYERS	FL	33905-6200	US		Dad and Diana, HAPPY THANKSGIVING!!!! Love, Stef From Stephanie A. Pisaris	false		
111-8441566-7705829	61972350550562	2020-11-18T18:24:32+00:00	2020-11-18T10:24:32-08:00	2020-11-18T18:51:46+00:00	2020-11-21T07:59:59+00:00	-3	jk2grvdm7t57jh1@marketplace.amazon.com	Barbara Taylor	+1 619-854-2705 ext. 58775	ABR0022	Delivery by Thursday| Arabella Farm Direct Bouquet of 12 Fresh Cut Pink Roses with a Free Glass Vase	1	0	1	Expedited	Sue Carlson	10511 NW 28TH CT			VANCOUVER	WA	98685-4703	US		To lift your spirits and remind you life will get better.  Know you are loved! From Mom	false		
112-9208604-4686642	33687535966314	2020-11-18T18:28:04+00:00	2020-11-18T10:28:04-08:00	2020-11-18T18:56:25+00:00	2020-11-21T07:59:59+00:00	-3	5jbk341vnlhgmv0@marketplace.amazon.com	Dave Hebert	+1 619-854-2705 ext. 08006	ABM022	Delivery by Thursday| Purple Extravagance Bouquet by Arabella Bouquets	2	0	2	Expedited	Nancy Hebert	712 SIBOLD CANYON RD			TENMILE	OR	97481-9741	US			false		
113-9416687-3560210	46507773205938	2020-11-18T18:33:36+00:00	2020-11-18T10:33:36-08:00	2020-11-18T19:01:49+00:00	2020-11-21T07:59:59+00:00	-3	st0tp5mq4026txr@marketplace.amazon.com	jeffrey fulford	+1 415-851-9136 ext. 25938	ABM025	Delivery by Friday| The Fell for You Bouquet by Arabella Bouquets	1	0	1	Standard	Frances Fulford	12261 ROUNDWOOD RD			TIMONIUM	MD	21093-3815	US		Happy Thanksgiving! We miss you very much, Love, Scott, Russell, Max, and T From jeffrey fulford	false		
112-4201958-6597835	23923477101938	2020-11-18T18:55:19+00:00	2020-11-18T10:55:19-08:00	2020-11-18T19:02:55+00:00	2020-11-21T07:59:59+00:00	-3	g2t7j6nd1jgtsk6@marketplace.amazon.com	Debbie Boyette	+1 619-854-2705 ext. 34084	ABR0055	Delivery by Saturday | Arabella Farm Direct Bouquet of 12 Stems of Fresh Cut Hot Pink Roses in a Free Designer Glass Vase	1	0	1	Expedited	Mrs Yevette Cipielewski	21 CHELTENHAM WAY			SAN JOSE	CA	95139-1261	US		God has taken Eli “home” no more tears, no more pain! Stay strong in the word of God and He will carry you! We love you Yvette and are here for you at any time! From Uncle Steve and Aunt Debbie	false		
112-7886519-0667400	58584873834450	2020-11-18T18:37:58+00:00	2020-11-18T10:37:58-08:00	2020-11-18T19:06:30+00:00	2020-11-21T07:59:59+00:00	-3	q86kbk4h1qn9gtk@marketplace.amazon.com	Todd Thomas	+1 929-436-4790 ext. 72764	ABM026	Delivery by Friday| The Amour Bouquet by Arabella Bouquets	1	0	1	Expedited	Megan Davis	2915 DUNNES SHOP RD			RUCKERSVILLE	VA	22968-2725	US		Love you! From Laurie Thomas and family	false		
111-8771686-5290643	16783788762242	2020-11-18T18:38:34+00:00	2020-11-18T10:38:34-08:00	2020-11-18T19:07:32+00:00	2020-11-21T07:59:59+00:00	-3	rnjyw4jzslfyr51@marketplace.amazon.com	Andrea Lissette	+1 602-671-6610 ext. 05894	ABR0022	Delivery by Thursday| Arabella Farm Direct Bouquet of 12 Fresh Cut Pink Roses with a Free Glass Vase	1	0	1	Expedited	Lissette, hannah	129 BANKS PL			SOUTHPORT	CT	06890-1404	US		Hope you have a wonderful birthday, Hannah.  Love, mom L From Andrea Lissette	false		
112-5960632-2248215	68289745012058	2020-11-18T18:49:26+00:00	2020-11-18T10:49:26-08:00	2020-11-18T19:19:40+00:00	2020-11-21T07:59:59+00:00	-3	41xghhc24n7m00w@marketplace.amazon.com	Sara Barstow	+1 213-442-1463 ext. 93599	ABB006	Delivery by Friday | Arabella Bouquets | Farm Direct 48 Fresh Cut Red Roses	1	0	1	Expedited	Mary & Rob Morby	2034 E SMITH RD			BELLINGHAM	WA	98226-9512	US			false		
114-8275361-1273867	08848284402946	2020-11-18T18:55:45+00:00	2020-11-18T10:55:45-08:00	2020-11-18T19:23:03+00:00	2020-11-21T07:59:59+00:00	-3	q76zsjwlgt7hprh@marketplace.amazon.com	Donna Quallen	+1 602-671-6610 ext. 28768	ABR0022	Delivery by Friday | Arabella Farm Direct Bouquet of 12 Fresh Cut Pink Roses with a Free Glass Vase	1	0	1	Expedited	Sheri Molineaux	221 CLOVERDALE ST			PITTSFIELD	MA	01201-8526	US		Happy Birthday Sheri,  Love Donna and John	false		
112-2579445-5505060	58911093051490	2020-11-18T18:56:13+00:00	2020-11-18T10:56:13-08:00	2020-11-18T19:23:26+00:00	2020-11-21T07:59:59+00:00	-3	fxyks9t0ws5bjg3@marketplace.amazon.com	Abbas azhar	+1 602-671-6610 ext. 77624	ABR0033	Delivery by Saturday | Arabella Farm Direct Bouquet of 12 Fresh Cut Orange Roses with a Free Glass Vase	1	0	1	Expedited	Farhana Arastu	12201 FAIRFIELD HOUSE DR APT 601			FAIRFAX	VA	22033-3913	US		Happy Birthday  Farhani,  hope you have a wonderful day! From Abbas azhar	false		
113-2909196-6345863	46788047388090	2020-11-18T18:56:06+00:00	2020-11-18T10:56:06-08:00	2020-11-18T19:25:35+00:00	2020-11-21T07:59:59+00:00	-3	bd7dttrwtzv3d81@marketplace.amazon.com	Nicole Coffey	+1 602-671-6610 ext. 03383	ABM022	Delivery by Saturday | Purple Extravagance Bouquet by Arabella Bouquets	1	0	1	Expedited	Shelley Jackson	1095 EDDIE DR			AUBURN	MI	48611-9422	US		Happy Birthday mother dearest!! We love you and can't wait to see you soon! From Nicole, Ty, and Marjorie &#60;3	false		
113-5204401-2196260	10662636413834	2020-11-18T18:58:47+00:00	2020-11-18T10:58:47-08:00	2020-11-18T19:28:28+00:00	2020-11-21T07:59:59+00:00	-3	82lhcfj9hldpk9s@marketplace.amazon.com	Sam	+1 929-436-4790 ext. 30776	ABR0022	Delivery by Friday | Arabella Farm Direct Bouquet of 12 Fresh Cut Pink Roses with a Free Glass Vase	1	0	1	Expedited	MaryJane Lorenzo	25 MARIGOLD LN			BRICK	NJ	08724-2786	US		Happy birthday Jane Jane! We love and miss you! From Sam and Jake :)	false		
114-2332066-4069861	48596664984250	2020-11-18T19:09:53+00:00	2020-11-18T11:09:53-08:00	2020-11-18T19:39:03+00:00	2020-11-21T07:59:59+00:00	-3	yzwt9vyhwb1jz42@marketplace.amazon.com	curtis jones	+1 415-851-9136 ext. 80127	ABM022	Delivery by Saturday | Purple Extravagance Bouquet by Arabella Bouquets	1	0	1	Expedited	elizabeth trombatore	3937 TAVAREZ ST			ROUND ROCK	TX	78681-2044	US			false		
113-1448037-3165839	51533387641506	2020-11-18T19:20:40+00:00	2020-11-18T11:20:40-08:00	2020-11-18T19:44:22+00:00	2020-11-21T07:59:59+00:00	-3	ngdln322j02jwb6@marketplace.amazon.com	Dr. Saku W Gunasegaram	+1 619-854-2705 ext. 67661	ABR004	Delivery by Monday | Arabella Farm Direct Bouquet of 12 Fresh Cut Yellow Roses with a Free Glass Vase	3	0	3	Expedited	STACI STAY SPRY THANKSGIVING 2020 FROM DR SAKU	953 NATIONAL ROAD CHRISTMAS IN JULY 2020	THANKFUL FOR STACI SPRY SHIPPER PAR EXCELLENCE FOREVER		WHEELING	WV	26003	US		TO:  STACI SPRY FROM  :DR SAKU  _THIS_ THANKSGIVING DAY CALENDAR YEAR 2020 AND _ALL_ THROUGHOUT _EVERY_ YEAR FOR DECADES :) I [DR SAKU] _REMAIN_ FTHANKFUL FOR _YOU_ THE _BEST_+MOST TRUSTWORTHY SHIPPER _EVER_! ON PLANET EARTH! From Dr. Saku Gunasegaram	false		
112-5636964-9765869	28144290954602	2020-11-18T19:19:05+00:00	2020-11-18T11:19:05-08:00	2020-11-18T19:47:51+00:00	2020-11-21T07:59:59+00:00	-3	ycfm93t3hchb2xc@marketplace.amazon.com	Joyce Schmidt	+1 602-671-6610 ext. 86571	ABM0033	Delivery by Monday | Arabella Farm Direct Bouquet of Fresh Cut White Hydrangea with a Free Glass Vase	1	0	1	Expedited	Jennifer Schmidt	3813 RED BUD DR			IMPERIAL	MO	63052-1182	US		Love you more every day From Thomas R Schmidt	false		
111-0548001-9032268	54059445308386	2020-11-18T19:29:27+00:00	2020-11-18T11:29:27-08:00	2020-11-18T19:49:33+00:00	2020-11-21T07:59:59+00:00	-3	g4sx3ktv1ps7jfl@marketplace.amazon.com	David	+1 213-442-1463 ext. 28525	ABR0022	Delivery by Friday | Arabella Farm Direct Bouquet of 12 Fresh Cut Pink Roses with a Free Glass Vase	1	0	1	Expedited	Nichole Christner	656 STATE ROUTE 981			SMITHTON	PA	15479-1566	US		Dear Nichole and Gracie: We just wanted to let you know you are loved, you are in our thoughts and prayers. Love, From Your Sherman’s Bandanas family.	false		
113-8296724-4057051	55441460251634	2020-11-18T19:27:35+00:00	2020-11-18T11:27:35-08:00	2020-11-18T19:53:40+00:00	2020-11-21T07:59:59+00:00	-3	dv7g1rvyx3cckc6@marketplace.amazon.com	Frances R. Clark	+1 619-854-2705 ext. 46188	ABM010	Delivery by Friday | The Everlasting Fling Bouquet by Arabella Bouquets with a Free Designer Glass Vase	1	0	1	Expedited	Tom and Mary Chronowski	11 W SCHUBERT AVE			GLENDALE HEIGHTS	IL	60139-2405	US		Sorry we cannot be together for Thanksgiving. From Frances R. Clark	false		
112-0735602-7561802	35531732020402	2020-11-18T19:24:36+00:00	2020-11-18T11:24:36-08:00	2020-11-18T19:53:40+00:00	2020-11-21T07:59:59+00:00	-3	22k6fcz85dpg1rz@marketplace.amazon.com	Romika	+1 929-436-4790 ext. 10267	ABR0022	Delivery by Friday | Arabella Farm Direct Bouquet of 12 Fresh Cut Pink Roses with a Free Glass Vase	1	0	1	Expedited	Grace Kaur	1106 DAFFODIL AVE NE			ORTING	WA	98360-7439	US		So sorry for your loss , jiji. Thinking of you. Sending you love and hugs. From Romika	false		
111-8532074-2261866	02147405389778	2020-11-18T19:27:33+00:00	2020-11-18T11:27:33-08:00	2020-11-18T19:56:14+00:00	2020-11-21T07:59:59+00:00	-3	h005dkyj3lgq2ht@marketplace.amazon.com	Gabriella Gentile	+1 213-442-1463 ext. 27924	ABR0033	Delivery by Saturday | Arabella Farm Direct Bouquet of 12 Fresh Cut Orange Roses with a Free Glass Vase	1	0	1	Expedited	Joe Gentile	226 3RD ST			OAKMONT	PA	15139-2172	US		Happy Birthday, Leslie! We hope Joe gives you the princess day you deserve! From Gabriella, Sean, Patrice, Ryan, Amanda, Steve (+ Emma!)	false		
113-0044085-6457850	67882593164058	2020-11-18T19:28:13+00:00	2020-11-18T11:28:13-08:00	2020-11-18T19:56:25+00:00	2020-11-21T07:59:59+00:00	-3	w56xplg4gfk7fbc@marketplace.amazon.com	Channsomaly	+1 929-436-4790 ext. 04413	ABR0022	Delivery by Friday | Arabella Farm Direct Bouquet of 12 Fresh Cut Pink Roses with a Free Glass Vase	1	0	1	Expedited	Amy Esquibel	7036 DEL CAMINO CT			LONGMONT	CO	80504-9401	US			false		
111-1961394-2785860	06623098190714	2020-11-18T19:36:22+00:00	2020-11-18T11:36:22-08:00	2020-11-18T20:02:28+00:00	2020-11-21T07:59:59+00:00	-3	cgc7kbl5q0tly7q@marketplace.amazon.com	Richard Bruno	+1 929-436-4790 ext. 43580	ABM022	Delivery by Saturday | Purple Extravagance Bouquet by Arabella Bouquets	1	0	1	Expedited	Linda Tripodi	13 PHEASANT RUN RD			PLEASANTVILLE	NY	10570-2512	US		Mom, Happy 96th Bitrthday Love Bruno, Tripodi,Arellano, Siwiak and Valentine Families From Your Family	false		
111-0608887-0166627	09748329207994	2020-11-18T19:34:08+00:00	2020-11-18T11:34:08-08:00	2020-11-18T20:03:11+00:00	2020-11-21T07:59:59+00:00	-3	3x9kw9v20fnrhx9@marketplace.amazon.com	Wey Lundquist	+1 619-854-2705 ext. 58530	ABB013	Delivery by Monday | Arabella Bouquets | 24 Stems of Fresh Cut White Roses in a Free Designer Glass Vase	1	0	1	Expedited	sharon tsao	1805 DIANA AVE			MORGAN HILL	CA	95037-3348	US		I love you Sharon From Wey Lundquist	false		
114-7075220-4523425	48611601092314	2020-11-18T19:40:44+00:00	2020-11-18T11:40:44-08:00	2020-11-18T20:07:26+00:00	2020-11-21T07:59:59+00:00	-3	h6t748wp28rv0q8@marketplace.amazon.com	Scott Duff	+1 602-671-6610 ext. 09152	ABM022	Delivery by Saturday | Purple Extravagance Bouquet by Arabella Bouquets	1	0	1	Expedited	RUTH BIRKELBACH	2214 RADIUS WAY			NEWPORT NEWS	VA	23602-9087	US			false		
114-1073827-7359424	01704224172170	2020-11-18T19:43:01+00:00	2020-11-18T11:43:01-08:00	2020-11-18T20:07:54+00:00	2020-11-21T07:59:59+00:00	-3	gnvkxjjtpd5cj03@marketplace.amazon.com	Michael Bonkowske	+1 619-854-2705 ext. 97074	ABR001	Delivery by Saturday | Arabella Bouquets 12 Stems of Fresh Cut Red Roses in a Free Designer Glass Vase	1	0	1	Standard	Michael C Bonkowske	426 JUNIPER PL			CORTEZ	CO	81321-4073	US		Enjoy your gift! From Michael Bonkowske	false		
111-7210727-2936224	26119452163802	2020-11-18T19:45:38+00:00	2020-11-18T11:45:38-08:00	2020-11-18T20:14:04+00:00	2020-11-21T07:59:59+00:00	-3	y860tm5n58vpmrw@marketplace.amazon.com	Pat Price	+1 619-854-2705 ext. 44561	ABR0066	Delivery by Monday | Arabella Bouquets 12 Stems of Fresh Cut White Roses in a Free Designer Glass Vase	1	0	1	Expedited	Judy Price	19025 N 69TH AVE			GLENDALE	AZ	85308-5765	US		Mom Happy Birthday. Miss you! Love you! From Pat Price	false		
114-0962716-8630606	20415541852162	2020-11-18T19:47:40+00:00	2020-11-18T11:47:40-08:00	2020-11-18T20:16:25+00:00	2020-11-21T07:59:59+00:00	-3	nd96x6b80xltl8r@marketplace.amazon.com	Robert Pierce	+1 213-442-1463 ext. 40094	ABM022	Delivery by Saturday | Purple Extravagance Bouquet by Arabella Bouquets	1	0	1	Expedited	Mrs Ginger Holder	956 BERNHARDT RD			ELLIJAY	GA	30536-6241	US		Hope this will brighten your day  Love Bob and Janet Pierce	false		
111-2319357-6964228	55025509503282	2020-11-18T20:05:24+00:00	2020-11-18T12:05:24-08:00	2020-11-18T20:35:56+00:00	2020-11-21T07:59:59+00:00	-3	qyd1l4jv0420jj9@marketplace.amazon.com	Stewart Rubin	+1 602-671-6610 ext. 89596	ABR001	Delivery by Saturday | Arabella Bouquets 12 Stems of Fresh Cut Red Roses in a Free Designer Glass Vase	1	0	1	Expedited	Stewart Rubin	31-06 hillside ter			fair lawn	NJ	07410	US			false		
112-0305448-9293061	07275099397130	2020-11-18T20:12:16+00:00	2020-11-18T12:12:16-08:00	2020-11-18T20:39:24+00:00	2020-11-21T07:59:59+00:00	-3	q6p293lktf8942m@marketplace.amazon.com	Charles Hendricksen	+1 415-851-9136 ext. 28541	ABR0033	Delivery by Saturday | Arabella Farm Direct Bouquet of 12 Fresh Cut Orange Roses with a Free Glass Vase	1	0	1	Standard	Joan Hendricksen	24 PRADO CT			TOMS RIVER	NJ	08757-6451	US		Mom and Diane, Thankful to have you both in our lives. Love  Charles and Rob From Charles and Rob	false		
112-9496132-5173042	45866358227514	2020-11-18T20:09:26+00:00	2020-11-18T12:09:26-08:00	2020-11-18T20:39:55+00:00	2020-11-21T07:59:59+00:00	-3	42vq8glg3zlw1v3@marketplace.amazon.com	sbartonbaugh	+1 213-442-1463 ext. 13881	ABR0022	Delivery by Friday | Arabella Farm Direct Bouquet of 12 Fresh Cut Pink Roses with a Free Glass Vase	1	0	1	Expedited	Tricia Luckey	4440 SUNBONNET RD			CUMMING	GA	30028-3488	US			false		
111-1193941-0961037	05707972582770	2020-11-18T20:26:30+00:00	2020-11-18T12:26:30-08:00	2020-11-18T20:48:56+00:00	2020-11-21T07:59:59+00:00	-3	f8t08q9md3266dl@marketplace.amazon.com	Cheryl	+1 929-436-4790 ext. 03034	ABM010	Delivery by Friday | The Everlasting Fling Bouquet by Arabella Bouquets with a Free Designer Glass Vase	1	0	1	Expedited	Jenna Stokes	1255 HUHTA RD			TWO HARBORS	MN	55616-3021	US		Happy 21st Birthday !! Love you so much !!! From Grandma Cheri	false		
112-6032191-6295424	17294930693866	2020-11-18T20:22:45+00:00	2020-11-18T12:22:45-08:00	2020-11-18T20:51:44+00:00	2020-11-21T07:59:59+00:00	-3	mbwbl2v47sk268j@marketplace.amazon.com	rzetelny,marycatherine	+1 213-442-1463 ext. 68197	ABM022	Delivery by Saturday | Purple Extravagance Bouquet by Arabella Bouquets	1	0	1	Expedited	phyllis cmar	3545 NICHOLS RD			MEDINA	OH	44256-9261	US		Dear Phyllis & family, Happy Blessed Thanksgiving!  :) Peace & joy. Mary From rzetelny,marycatherine	false		
111-9784799-6056229	04289270195986	2020-11-18T20:33:33+00:00	2020-11-18T12:33:33-08:00	2020-11-18T21:00:54+00:00	2020-11-21T07:59:59+00:00	-3	dq01gjzhhtlg4wx@marketplace.amazon.com	Krystin Troy	+1 619-854-2705 ext. 46429	ABR0022	Delivery by Friday | Arabella Farm Direct Bouquet of 12 Fresh Cut Pink Roses with a Free Glass Vase	1	0	1	Expedited	Kimberly Mazzo	19801 BUSTLE RD			CORNELIUS	NC	28031-7569	US		Dear Kimberly, I am so sorry for your loss! And on top of it, being sick. Love you and hope your feeling better soon💜 From Radha	false		
112-0187043-3176237	21525260136210	2020-11-18T20:59:32+00:00	2020-11-18T12:59:32-08:00	2020-11-18T21:26:38+00:00	2020-11-21T07:59:59+00:00	-3	ppscpym2n1cc1vy@marketplace.amazon.com	Annabel Amir	+1 619-854-2705 ext. 47665	ABM022	Delivery by Saturday | Purple Extravagance Bouquet by Arabella Bouquets	1	0	1	Expedited	Dawn Castle	2922 W CARSON RD			PHOENIX	AZ	85041-6339	US		Dear Grandma Dawn,  Happy Birthday! We love you. Today is a joyous occasion because a wonderful person like you was born. God bless today and you. Lots of love and hugs! From Annabel, Ayde, Alexia and Adam Amir	false		
111-3465622-2736260	09864353841202	2020-11-18T21:05:21+00:00	2020-11-18T13:05:21-08:00	2020-11-18T21:28:42+00:00	2020-11-21T07:59:59+00:00	-3	f4s3w6r1byfy8kw@marketplace.amazon.com	Cesar Umanzor	+1 480-618-5344 ext. 55471	ABM020	Delivery by Monday | The Sunset Bouquet by Arabella Bouquets	1	0	1	Expedited	Veronica Herrera	41 SILVERSMITH LN			LEVITTOWN	NY	11756-5223	US		Amor mio, feliz 1er aniversario de boda!!, gracias por hacerme tan feliz y darme la dicha de poder decir que sos mi esposa Te amo demasiado!! From Cesar Umanzor	false		
113-3765239-3193821	02115124907026	2020-11-18T21:25:33+00:00	2020-11-18T13:25:33-08:00	2020-11-18T21:38:09+00:00	2020-11-21T07:59:59+00:00	-3	50g4h1f9x6xxfgt@marketplace.amazon.com	Naomi Hartman	+1 619-854-2705 ext. 41482	ABR012	Delivery by Friday | Arabella Farm Direct Bouquet of 18 Fresh Cut Pink Roses with a Free Glass Vase	1	0	1	Standard	Rachel Hartman	11040 SW 38TH DR			DAVIE	FL	33328-1325	US			false		
114-6330142-7705015	45230077197778	2020-11-18T21:15:53+00:00	2020-11-18T13:15:53-08:00	2020-11-18T21:38:46+00:00	2020-11-21T07:59:59+00:00	-3	z6z0mmh5fpr8gbx@marketplace.amazon.com	Arnold Powell	+1 619-854-2705 ext. 85069	ABR0022	Delivery by Friday | Arabella Farm Direct Bouquet of 12 Fresh Cut Pink Roses with a Free Glass Vase	1	0	1	Expedited	Virginia Cooper	4747 LAMBS RD APT 13			CHARLESTON	SC	29418-3560	US		Wishing you a very happy belated birthday. I wish you many, many more. From Arnold Powell	false		
111-8224552-3322632	53286867098850	2020-11-18T21:19:31+00:00	2020-11-18T13:19:31-08:00	2020-11-18T21:41:46+00:00	2020-11-21T07:59:59+00:00	-3	qtd7j1sf652lc85@marketplace.amazon.com	shannon barnes	+1 415-851-9136 ext. 68490	ABR0055	Delivery by Saturday | Arabella Farm Direct Bouquet of 12 Stems of Fresh Cut Hot Pink Roses in a Free Designer Glass Vase	1	0	1	Standard	Dottie Higdon	5913 MAPLE TER			LAUREL	MD	20707-5419	US		Happy Birthday Aunt Dottie!! Love, Dean & Shannon Barnes From Love, Dean & Shannon Barnes	false		
111-3637275-8078652	56389914169634	2020-11-18T21:31:09+00:00	2020-11-18T13:31:09-08:00	2020-11-18T21:59:27+00:00	2020-11-21T07:59:59+00:00	-3	977kpkclsjftqts@marketplace.amazon.com	P Laracuente	+1 929-436-4790 ext. 46864	ABR0022	Delivery by Friday | Arabella Farm Direct Bouquet of 12 Fresh Cut Pink Roses with a Free Glass Vase	1	0	1	Expedited	Stephanie Brown	369 BALL FARM RD			NEWPORT	NC	28570-6125	US		Hope you have a wonderful birthday!  We love you.   Patsi, Dallas and Kitty  Ps ... Kitty picked these out for you. From P Laracuente	false		
114-8679114-1437807	17382909799522	2020-11-18T21:59:41+00:00	2020-11-18T13:59:41-08:00	2020-11-18T22:07:09+00:00	2020-11-21T07:59:59+00:00	-3	jp5jtt6zb24c9cm@marketplace.amazon.com	Linda O'Neill	+1 602-671-6610 ext. 11532	ABM021	Delivery by Monday | The Joyous Bouquet by Arabella Bouquets	1	0	1	Expedited	Mrs Clare Ralston	2611 MANOR CT			OWINGS	MD	20736-9145	US		Congratulations Clare and Mike . Thank you for giving me another beautiful granddaughter. Love and cherish her as much as you do with Emily as I am sure she will love you in return. From Linda O'Neill	false		
114-4479260-1187421	65445379669842	2020-11-18T21:49:07+00:00	2020-11-18T13:49:07-08:00	2020-11-18T22:13:36+00:00	2020-11-21T07:59:59+00:00	-3	n6t35qk11ybxlhx@marketplace.amazon.com	carrie Breckner	+1 602-671-6610 ext. 30511	ABR0055	Delivery by Saturday | Arabella Farm Direct Bouquet of 12 Stems of Fresh Cut Hot Pink Roses in a Free Designer Glass Vase	1	0	1	Expedited	Gretchen Hsu	190 WEXFORD DR UNIT 201			ANDERSON	SC	29621-1756	US			false		
114-6283993-9467430	53740745297826	2020-11-18T21:53:32+00:00	2020-11-18T13:53:32-08:00	2020-11-18T22:22:14+00:00	2020-11-21T07:59:59+00:00	-3	fjwj9xr6z8m0586@marketplace.amazon.com	Rachael	+1 213-442-1463 ext. 29214	ABM017	Delivery by Monday | Arabella Bouquets 10 Stems of Blue Dendrobium Orchids in a Free Designer Glass Vase	1	0	1	Standard	Luci Cockrell	1207 JACKSON KELLER RD			SAN ANTONIO	TX	78213-3210	US			false		
114-8249056-1170628	65942117989202	2020-11-18T22:31:10+00:00	2020-11-18T14:31:10-08:00	2020-11-18T22:32:03+00:00	2020-11-21T07:59:59+00:00	-3	xylwfhs34nmz2xn@marketplace.amazon.com	SUSAN CRAW	+1 929-436-4790 ext. 12348	ABR014	Arabella Bouquets 18 Stems of Fresh Cut White Roses in a Free Designer Glass Vase	1	0	1	Standard	Rachael Hubbs	1517 51ST ST W			BRADENTON	FL	34209-5025	US		Dear Rachael, We are grateful for our friendship with You and Dave. Our love and support, Brian and Susan From SUSAN CRAW	false		
114-5354727-4470607	26730757126506	2020-11-18T22:07:12+00:00	2020-11-18T14:07:12-08:00	2020-11-18T22:34:52+00:00	2020-11-21T07:59:59+00:00	-3	n7c2mhxxxr1wpn5@marketplace.amazon.com	Tim LaFleur	+1 619-854-2705 ext. 55848	ABR0033	Delivery by Saturday | Arabella Farm Direct Bouquet of 12 Fresh Cut Orange Roses with a Free Glass Vase	1	0	1	Expedited	Inge Roberts	3640 HOLMES VIEW DR			LANGLEY	WA	98260-9678	US		Inge! So sorry about your neck! Please heal up fast! We miss you and we love you! From Naomi, Tim & Summer	false		
113-9388707-2683447	67404944844290	2020-11-18T22:07:58+00:00	2020-11-18T14:07:58-08:00	2020-11-18T22:36:44+00:00	2020-11-21T07:59:59+00:00	-3	c80mwy6jj4nrsc5@marketplace.amazon.com	Sharon M Millican	+1 602-671-6610 ext. 27142	ABM022	Delivery by Saturday | Purple Extravagance Bouquet by Arabella Bouquets	1	0	1	Expedited	Lois Millican	3390 FLOWER ST			WHEAT RIDGE	CO	80033-5869	US			false		
114-4136495-5847406	24971883525770	2020-11-18T22:14:15+00:00	2020-11-18T14:14:15-08:00	2020-11-18T22:41:28+00:00	2020-11-21T07:59:59+00:00	-3	7t82fb76rcwmyd3@marketplace.amazon.com	Susan Chennell	+1 602-671-6610 ext. 82770	ABM020	Delivery by Monday | The Sunset Bouquet by Arabella Bouquets	1	0	1	Expedited	Carilyn & Mike Stewart	2155 WOOLNER AVE			FAIRFIELD	CA	94533-5800	US		Carilyn,  Thinking of you on your Dad’s birthday.  Love ya, From Bob & Sue	false		
114-3992465-0472202	57537653033538	2020-11-18T22:20:47+00:00	2020-11-18T14:20:47-08:00	2020-11-18T22:41:30+00:00	2020-11-21T07:59:59+00:00	-3	qt6br4v8h4xhh33@marketplace.amazon.com	Virgil Ledesma	+1 929-436-4790 ext. 54722	ABM020	Delivery by Monday | The Sunset Bouquet by Arabella Bouquets	1	0	1	Expedited	Mike Ledesma	2601 W CARY ST			RICHMOND	VA	23220-5118	US			false		
112-4042247-4688215	33380581226450	2020-11-18T22:24:41+00:00	2020-11-18T14:24:41-08:00	2020-11-18T22:49:21+00:00	2020-11-21T07:59:59+00:00	-3	h9sw2mykg468ps1@marketplace.amazon.com	Paula Wirachowsky	+1 619-854-2705 ext. 08350	ABR0022	Delivery by Friday | Arabella Farm Direct Bouquet of 12 Fresh Cut Pink Roses with a Free Glass Vase	1	0	1	Expedited	Paula Wirachowsky	378 STATE HIGHWAY 17 N			MOSES LAKE	WA	98837-9718	US			false		
113-4224926-2777829	14733034624914	2020-11-18T22:25:52+00:00	2020-11-18T14:25:52-08:00	2020-11-18T22:51:47+00:00	2020-11-21T07:59:59+00:00	-3	6lsjw1v1pzcy9xv@marketplace.amazon.com	Michael DeCrescenzo	+1 415-851-9136 ext. 74543	ABR001	Delivery by Saturday | Arabella Bouquets 12 Stems of Fresh Cut Red Roses in a Free Designer Glass Vase	1	0	1	Expedited	Thomas DeCrescenzo	8508 CLARK MILLS RD			WHITESBORO	NY	13492-2700	US		Dad - Thinking of you and Grampa Dick  on his 36th anniversary.  Wishing you much peace. From Love, Mary Ann, Rick, Mike and Gee	false		
112-4513969-2840242	20435587664394	2020-11-18T22:24:41+00:00	2020-11-18T14:24:41-08:00	2020-11-18T22:52:26+00:00	2020-11-21T07:59:59+00:00	-3	3gw8t19vfbc3kwp@marketplace.amazon.com	Mark Powell	+1 213-442-1463 ext. 39798	ABM010	Delivery by Friday | The Everlasting Fling Bouquet by Arabella Bouquets with a Free Designer Glass Vase	1	0	1	Expedited	Melissa Helmes	8202 JORDAN RIDGE DR			CLEVES	OH	45002-9100	US		Thinking about you all week.   Love you, From  Powell’s Up North	false		
113-1140098-7673000	59490247511554	2020-11-18T22:31:06+00:00	2020-11-18T14:31:06-08:00	2020-11-18T23:00:18+00:00	2020-11-21T07:59:59+00:00	-3	8mjcscj15xxkz8d@marketplace.amazon.com	David Ferris	+1 213-442-1463 ext. 75745	ABM020	Delivery by Monday | The Sunset Bouquet by Arabella Bouquets	1	0	1	Expedited	Tanya Ferris	90 RIDGEWOOD LN APT 19			GARDNER	MA	01440-2056	US		Happy Thanksgiving, Tanya and Larry! From David Ferris	false		
113-2798802-0933800	56180574119098	2020-11-18T22:37:40+00:00	2020-11-18T14:37:40-08:00	2020-11-18T23:06:43+00:00	2020-11-21T07:59:59+00:00	-3	zr02nwdpm379qdz@marketplace.amazon.com	Kathryn Willoughby	+1 602-671-6610 ext. 96384	ABR0022	Delivery by Friday | Arabella Farm Direct Bouquet of 12 Fresh Cut Pink Roses with a Free Glass Vase	1	0	1	Expedited	Jennifer Tarbell	13222 SANFORD AVE APT 4R			FLUSHING	NY	11355-4349	US		Happy birthday, Gabrielle! From Kathryn Willoughby	false		
112-9985487-4860203	59544420781722	2020-11-18T22:48:38+00:00	2020-11-18T14:48:38-08:00	2020-11-18T23:07:26+00:00	2020-11-21T07:59:59+00:00	-3	qkjmjjxk46c51kf@marketplace.amazon.com	Fred Tomazinis	+1 415-851-9136 ext. 82837	ABR001	Delivery by Saturday | Arabella Bouquets 12 Stems of Fresh Cut Red Roses in a Free Designer Glass Vase	1	0	1	Expedited	Trish Evers	186 SURFSIDE AVE			SAINT AUGUSTINE	FL	32084-2233	US		You are very special to me! From Fred Tomazinis	false		
113-8269587-2813065	22214461169202	2020-11-18T22:38:29+00:00	2020-11-18T14:38:29-08:00	2020-11-18T23:07:43+00:00	2020-11-21T07:59:59+00:00	-3	rd7576rs0jkmqx2@marketplace.amazon.com	Jeff Edwards	+1 619-854-2705 ext. 45389	ABR0033	Delivery by Saturday | Arabella Farm Direct Bouquet of 12 Fresh Cut Orange Roses with a Free Glass Vase	1	0	1	Expedited	Bob & Jo Fitzsimmons	15410 HORSESHOE AVE SW			PORT ORCHARD	WA	98367-7132	US		Happy Thanksgiving! From Jeff and Nancy	false		
113-5955715-5912244	56573141256658	2020-11-18T22:42:07+00:00	2020-11-18T14:42:07-08:00	2020-11-18T23:08:11+00:00	2020-11-21T07:59:59+00:00	-3	k7w17vww9jdnh69@marketplace.amazon.com	Nikki M White	+1 619-854-2705 ext. 30259	ABM010	Delivery by Friday | The Everlasting Fling Bouquet by Arabella Bouquets with a Free Designer Glass Vase	1	0	1	Expedited	Anna Bell	4400 NE 399TH ST			LA CENTER	WA	98629-4628	US		I hope you enjoy these flowers. It was a pleasure helping you sell the house that Michael loved. I really enjoyed getting to know you. Please keep in touch! Happy holidays! From Nikki M White	false		
