order-id	order-item-id	purchase-date	payments-date	reporting-date	promise-date	days-past-promise	buyer-email	buyer-name	buyer-phone-number	sku	product-name	quantity-purchased	quantity-shipped	quantity-to-ship	ship-service-level	recipient-name	ship-address-1	ship-address-2	ship-address-3	ship-city	ship-state	ship-postal-code	ship-country	gift-wrap-type	gift-message-text	is-business-order	purchase-order-number	price-designation
111-7368536-6652206	64986205842538	2020-11-18T15:43:29+00:00	2020-11-18T07:43:29-08:00	2020-11-18T16:10:47+00:00	2020-11-21T07:59:59+00:00	-2	yqf5bxgpp9mqw1d@marketplace.amazon.com	mike sager	+1 213-442-1463 ext. 81044	ABM022	Delivery by Thursday| Purple Extravagance Bouquet by Arabella Bouquets	1	0	1	Expedited	Mike Sager	714 E GRAND AVE			TOWER CITY	PA	17980-1216	US		Happy birthday!!! We love you, Michael and Ronnie From Mike Sager	false		
114-5737317-5761837	63276627113250	2020-11-18T16:13:17+00:00	2020-11-18T08:13:17-08:00	2020-11-18T16:32:12+00:00	2020-11-21T07:59:59+00:00	-2	0k7d3g905qz82k9@marketplace.amazon.com	John Allen	001(914)433-3383	ABM022	Delivery by Thursday| Purple Extravagance Bouquet by Arabella Bouquets	1	0	1	Expedited	Hannah Allen	58 MOUNTAIN RD			IRVINGTON	NY	10533-1406	US			false		
113-7210744-2537059	24305540310890	2020-11-18T17:32:47+00:00	2020-11-18T09:32:47-08:00	2020-11-18T18:01:28+00:00	2020-11-21T07:59:59+00:00	-2	mpyb3mnrbq6lxbm@marketplace.amazon.com	Samantha Mancuso	+1 480-618-5344 ext. 69663	ABM022	Delivery by Thursday| Purple Extravagance Bouquet by Arabella Bouquets	1	0	1	Expedited	Anastasia Mancuso	137 INVERNESS RD			SEVERNA PARK	MD	21146-1320	US		Happy Birthday mom! From Samantha Mancuso	false		
114-0778559-6405022	26431938675266	2020-11-18T17:55:22+00:00	2020-11-18T09:55:22-08:00	2020-11-18T18:24:09+00:00	2020-11-21T07:59:59+00:00	-2	zdfvc5lm3bzbczd@marketplace.amazon.com	Liz Henington	+1 602-671-6610 ext. 75625	ABR0022	Delivery by Thursday| Arabella Farm Direct Bouquet of 12 Fresh Cut Pink Roses with a Free Glass Vase	1	0	1	Expedited	Misela Pejic	57 ORRINGTON CT			SCHAUMBURG	IL	60173-2116	US		Thinking about you ❤️ From Liz Henington	false		
114-4864256-6997037	44192259228602	2020-11-18T17:58:23+00:00	2020-11-18T09:58:23-08:00	2020-11-18T18:26:30+00:00	2020-11-21T07:59:59+00:00	-2	cvxjzk5c2r0px7p@marketplace.amazon.com	ALIKI GIANNOULA	0016462230971	ABM022	Delivery by Thursday| Purple Extravagance Bouquet by Arabella Bouquets	1	0	1	Standard	KATHRYN STERGIOPOULOS	3 EXETER CT			PRINCETON	NJ	08540-7000	US		Enjoy your gift! From ALIKI GIANNOULA	false		
112-0397738-9386647	52836455450042	2020-11-18T18:02:36+00:00	2020-11-18T10:02:36-08:00	2020-11-18T18:28:44+00:00	2020-11-21T07:59:59+00:00	-2	0df10jvqprsq96s@marketplace.amazon.com	Erin Kelly	+1 480-618-5344 ext. 62660	ABM002	Delivery by Friday | Arabella Bouquets Fresh Cut White Calla Lilies in a Free Designer Glass Vase	1	0	1	Expedited	Jacque-O	1889 JACOBSEN RD			NEENAH	WI	54956-1885	US		Happy happy Jacque-O, Love you muchisimo!  Can you believe almost 30 years! Xoxo, nire & chunks From Erin Kelly	false		
111-0743535-2250621	37907995375042	2020-11-18T18:13:36+00:00	2020-11-18T10:13:36-08:00	2020-11-18T18:44:05+00:00	2020-11-21T07:59:59+00:00	-2	77ddkfmgqyjsplm@marketplace.amazon.com	Ben Johnson	+1 619-854-2705 ext. 93293	ABR0022	Delivery by Thursday| Arabella Farm Direct Bouquet of 12 Fresh Cut Pink Roses with a Free Glass Vase	1	0	1	Expedited	Kay Johnson	3101 COUNTRY WOOD DR			BURNSVILLE	MN	55337-3439	US			false		
112-8068389-6981030	08653345031826	2020-11-18T18:17:28+00:00	2020-11-18T10:17:28-08:00	2020-11-18T18:46:07+00:00	2020-11-21T07:59:59+00:00	-2	2yj3166hq66ld2f@marketplace.amazon.com	Stephanie A. Pisaris	+1 480-618-5344 ext. 16156	ABR0033	Delivery by Thursday| Arabella Farm Direct Bouquet of 12 Fresh Cut Orange Roses with a Free Glass Vase	1	0	1	Expedited	Diana Pisaris	12481 VERANDAH BLVD			FORT MYERS	FL	33905-6200	US		Dad and Diana, HAPPY THANKSGIVING!!!! Love, Stef From Stephanie A. Pisaris	false		
112-9208604-4686642	33687535966314	2020-11-18T18:28:04+00:00	2020-11-18T10:28:04-08:00	2020-11-18T18:56:25+00:00	2020-11-21T07:59:59+00:00	-2	5jbk341vnlhgmv0@marketplace.amazon.com	Dave Hebert	+1 619-854-2705 ext. 08006	ABM022	Delivery by Thursday| Purple Extravagance Bouquet by Arabella Bouquets	2	0	2	Expedited	Nancy Hebert	712 SIBOLD CANYON RD			TENMILE	OR	97481-9741	US			false		
113-9416687-3560210	46507773205938	2020-11-18T18:33:36+00:00	2020-11-18T10:33:36-08:00	2020-11-18T19:01:49+00:00	2020-11-21T07:59:59+00:00	-2	st0tp5mq4026txr@marketplace.amazon.com	jeffrey fulford	+1 415-851-9136 ext. 25938	ABM025	Delivery by Friday| The Fell for You Bouquet by Arabella Bouquets	1	0	1	Standard	Frances Fulford	12261 ROUNDWOOD RD			TIMONIUM	MD	21093-3815	US		Happy Thanksgiving! We miss you very much, Love, Scott, Russell, Max, and T From jeffrey fulford	false		
112-4201958-6597835	23923477101938	2020-11-18T18:55:19+00:00	2020-11-18T10:55:19-08:00	2020-11-18T19:02:55+00:00	2020-11-21T07:59:59+00:00	-2	g2t7j6nd1jgtsk6@marketplace.amazon.com	Debbie Boyette	+1 619-854-2705 ext. 34084	ABR0055	Delivery by Saturday | Arabella Farm Direct Bouquet of 12 Stems of Fresh Cut Hot Pink Roses in a Free Designer Glass Vase	1	0	1	Expedited	Mrs Yevette Cipielewski	21 CHELTENHAM WAY			SAN JOSE	CA	95139-1261	US		God has taken Eli “home” no more tears, no more pain! Stay strong in the word of God and He will carry you! We love you Yvette and are here for you at any time! From Uncle Steve and Aunt Debbie	false		
112-7886519-0667400	58584873834450	2020-11-18T18:37:58+00:00	2020-11-18T10:37:58-08:00	2020-11-18T19:06:30+00:00	2020-11-21T07:59:59+00:00	-2	q86kbk4h1qn9gtk@marketplace.amazon.com	Todd Thomas	+1 929-436-4790 ext. 72764	ABM026	Delivery by Friday| The Amour Bouquet by Arabella Bouquets	1	0	1	Expedited	Megan Davis	2915 DUNNES SHOP RD			RUCKERSVILLE	VA	22968-2725	US		Love you! From Laurie Thomas and family	false		
111-8771686-5290643	16783788762242	2020-11-18T18:38:34+00:00	2020-11-18T10:38:34-08:00	2020-11-18T19:07:32+00:00	2020-11-21T07:59:59+00:00	-2	rnjyw4jzslfyr51@marketplace.amazon.com	Andrea Lissette	+1 602-671-6610 ext. 05894	ABR0022	Delivery by Thursday| Arabella Farm Direct Bouquet of 12 Fresh Cut Pink Roses with a Free Glass Vase	1	0	1	Expedited	Lissette, hannah	129 BANKS PL			SOUTHPORT	CT	06890-1404	US		Hope you have a wonderful birthday, Hannah.  Love, mom L From Andrea Lissette	false		
112-5960632-2248215	68289745012058	2020-11-18T18:49:26+00:00	2020-11-18T10:49:26-08:00	2020-11-18T19:19:40+00:00	2020-11-21T07:59:59+00:00	-2	41xghhc24n7m00w@marketplace.amazon.com	Sara Barstow	+1 213-442-1463 ext. 93599	ABB006	Delivery by Friday | Arabella Bouquets | Farm Direct 48 Fresh Cut Red Roses	1	0	1	Expedited	Mary & Rob Morby	2034 E SMITH RD			BELLINGHAM	WA	98226-9512	US			false		
114-8275361-1273867	08848284402946	2020-11-18T18:55:45+00:00	2020-11-18T10:55:45-08:00	2020-11-18T19:23:03+00:00	2020-11-21T07:59:59+00:00	-2	q76zsjwlgt7hprh@marketplace.amazon.com	Donna Quallen	+1 602-671-6610 ext. 28768	ABR0022	Delivery by Friday | Arabella Farm Direct Bouquet of 12 Fresh Cut Pink Roses with a Free Glass Vase	1	0	1	Expedited	Sheri Molineaux	221 CLOVERDALE ST			PITTSFIELD	MA	01201-8526	US		Happy Birthday Sheri,  Love Donna and John	false		
112-2579445-5505060	58911093051490	2020-11-18T18:56:13+00:00	2020-11-18T10:56:13-08:00	2020-11-18T19:23:26+00:00	2020-11-21T07:59:59+00:00	-2	fxyks9t0ws5bjg3@marketplace.amazon.com	Abbas azhar	+1 602-671-6610 ext. 77624	ABR0033	Delivery by Saturday | Arabella Farm Direct Bouquet of 12 Fresh Cut Orange Roses with a Free Glass Vase	1	0	1	Expedited	Farhana Arastu	12201 FAIRFIELD HOUSE DR APT 601			FAIRFAX	VA	22033-3913	US		Happy Birthday  Farhani,  hope you have a wonderful day! From Abbas azhar	false		
113-2909196-6345863	46788047388090	2020-11-18T18:56:06+00:00	2020-11-18T10:56:06-08:00	2020-11-18T19:25:35+00:00	2020-11-21T07:59:59+00:00	-2	bd7dttrwtzv3d81@marketplace.amazon.com	Nicole Coffey	+1 602-671-6610 ext. 03383	ABM022	Delivery by Saturday | Purple Extravagance Bouquet by Arabella Bouquets	1	0	1	Expedited	Shelley Jackson	1095 EDDIE DR			AUBURN	MI	48611-9422	US		Happy Birthday mother dearest!! We love you and can't wait to see you soon! From Nicole, Ty, and Marjorie &#60;3	false		
113-5204401-2196260	10662636413834	2020-11-18T18:58:47+00:00	2020-11-18T10:58:47-08:00	2020-11-18T19:28:28+00:00	2020-11-21T07:59:59+00:00	-2	82lhcfj9hldpk9s@marketplace.amazon.com	Sam	+1 929-436-4790 ext. 30776	ABR0022	Delivery by Friday | Arabella Farm Direct Bouquet of 12 Fresh Cut Pink Roses with a Free Glass Vase	1	0	1	Expedited	MaryJane Lorenzo	25 MARIGOLD LN			BRICK	NJ	08724-2786	US		Happy birthday Jane Jane! We love and miss you! From Sam and Jake :)	false		
113-1448037-3165839	51533387641506	2020-11-18T19:20:40+00:00	2020-11-18T11:20:40-08:00	2020-11-18T19:44:22+00:00	2020-11-21T07:59:59+00:00	-2	ngdln322j02jwb6@marketplace.amazon.com	Dr. Saku W Gunasegaram	+1 619-854-2705 ext. 67661	ABR004	Delivery by Monday | Arabella Farm Direct Bouquet of 12 Fresh Cut Yellow Roses with a Free Glass Vase	3	0	3	Expedited	STACI STAY SPRY THANKSGIVING 2020 FROM DR SAKU	953 NATIONAL ROAD CHRISTMAS IN JULY 2020	THANKFUL FOR STACI SPRY SHIPPER PAR EXCELLENCE FOREVER		WHEELING	WV	26003	US		TO:  STACI SPRY FROM  :DR SAKU  _THIS_ THANKSGIVING DAY CALENDAR YEAR 2020 AND _ALL_ THROUGHOUT _EVERY_ YEAR FOR DECADES :) I [DR SAKU] _REMAIN_ FTHANKFUL FOR _YOU_ THE _BEST_+MOST TRUSTWORTHY SHIPPER _EVER_! ON PLANET EARTH! From Dr. Saku Gunasegaram	false		
112-5636964-9765869	28144290954602	2020-11-18T19:19:05+00:00	2020-11-18T11:19:05-08:00	2020-11-18T19:47:51+00:00	2020-11-21T07:59:59+00:00	-2	ycfm93t3hchb2xc@marketplace.amazon.com	Joyce Schmidt	+1 602-671-6610 ext. 86571	ABM0033	Delivery by Monday | Arabella Farm Direct Bouquet of Fresh Cut White Hydrangea with a Free Glass Vase	1	0	1	Expedited	Jennifer Schmidt	3813 RED BUD DR			IMPERIAL	MO	63052-1182	US		Love you more every day From Thomas R Schmidt	false		
111-0548001-9032268	54059445308386	2020-11-18T19:29:27+00:00	2020-11-18T11:29:27-08:00	2020-11-18T19:49:33+00:00	2020-11-21T07:59:59+00:00	-2	g4sx3ktv1ps7jfl@marketplace.amazon.com	David	+1 213-442-1463 ext. 28525	ABR0022	Delivery by Friday | Arabella Farm Direct Bouquet of 12 Fresh Cut Pink Roses with a Free Glass Vase	1	0	1	Expedited	Nichole Christner	656 STATE ROUTE 981			SMITHTON	PA	15479-1566	US		Dear Nichole and Gracie: We just wanted to let you know you are loved, you are in our thoughts and prayers. Love, From Your Sherman’s Bandanas family.	false		
113-8296724-4057051	55441460251634	2020-11-18T19:27:35+00:00	2020-11-18T11:27:35-08:00	2020-11-18T19:53:40+00:00	2020-11-21T07:59:59+00:00	-2	dv7g1rvyx3cckc6@marketplace.amazon.com	Frances R. Clark	+1 619-854-2705 ext. 46188	ABM010	Delivery by Friday | The Everlasting Fling Bouquet by Arabella Bouquets with a Free Designer Glass Vase	1	0	1	Expedited	Tom and Mary Chronowski	11 W SCHUBERT AVE			GLENDALE HEIGHTS	IL	60139-2405	US		Sorry we cannot be together for Thanksgiving. From Frances R. Clark	false		
112-0735602-7561802	35531732020402	2020-11-18T19:24:36+00:00	2020-11-18T11:24:36-08:00	2020-11-18T19:53:40+00:00	2020-11-21T07:59:59+00:00	-2	22k6fcz85dpg1rz@marketplace.amazon.com	Romika	+1 929-436-4790 ext. 10267	ABR0022	Delivery by Friday | Arabella Farm Direct Bouquet of 12 Fresh Cut Pink Roses with a Free Glass Vase	1	0	1	Expedited	Grace Kaur	1106 DAFFODIL AVE NE			ORTING	WA	98360-7439	US		So sorry for your loss , jiji. Thinking of you. Sending you love and hugs. From Romika	false		
111-8532074-2261866	02147405389778	2020-11-18T19:27:33+00:00	2020-11-18T11:27:33-08:00	2020-11-18T19:56:14+00:00	2020-11-21T07:59:59+00:00	-2	h005dkyj3lgq2ht@marketplace.amazon.com	Gabriella Gentile	+1 213-442-1463 ext. 27924	ABR0033	Delivery by Saturday | Arabella Farm Direct Bouquet of 12 Fresh Cut Orange Roses with a Free Glass Vase	1	0	1	Expedited	Joe Gentile	226 3RD ST			OAKMONT	PA	15139-2172	US		Happy Birthday, Leslie! We hope Joe gives you the princess day you deserve! From Gabriella, Sean, Patrice, Ryan, Amanda, Steve (+ Emma!)	false		
113-0044085-6457850	67882593164058	2020-11-18T19:28:13+00:00	2020-11-18T11:28:13-08:00	2020-11-18T19:56:25+00:00	2020-11-21T07:59:59+00:00	-2	w56xplg4gfk7fbc@marketplace.amazon.com	Channsomaly	+1 929-436-4790 ext. 04413	ABR0022	Delivery by Friday | Arabella Farm Direct Bouquet of 12 Fresh Cut Pink Roses with a Free Glass Vase	1	0	1	Expedited	Amy Esquibel	7036 DEL CAMINO CT			LONGMONT	CO	80504-9401	US			false		
111-1961394-2785860	06623098190714	2020-11-18T19:36:22+00:00	2020-11-18T11:36:22-08:00	2020-11-18T20:02:28+00:00	2020-11-21T07:59:59+00:00	-2	cgc7kbl5q0tly7q@marketplace.amazon.com	Richard Bruno	+1 929-436-4790 ext. 43580	ABM022	Delivery by Saturday | Purple Extravagance Bouquet by Arabella Bouquets	1	0	1	Expedited	Linda Tripodi	13 PHEASANT RUN RD			PLEASANTVILLE	NY	10570-2512	US		Mom, Happy 96th Bitrthday Love Bruno, Tripodi,Arellano, Siwiak and Valentine Families From Your Family	false		
111-0608887-0166627	09748329207994	2020-11-18T19:34:08+00:00	2020-11-18T11:34:08-08:00	2020-11-18T20:03:11+00:00	2020-11-21T07:59:59+00:00	-2	3x9kw9v20fnrhx9@marketplace.amazon.com	Wey Lundquist	+1 619-854-2705 ext. 58530	ABB013	Delivery by Monday | Arabella Bouquets | 24 Stems of Fresh Cut White Roses in a Free Designer Glass Vase	1	0	1	Expedited	sharon tsao	1805 DIANA AVE			MORGAN HILL	CA	95037-3348	US		I love you Sharon From Wey Lundquist	false		
114-7075220-4523425	48611601092314	2020-11-18T19:40:44+00:00	2020-11-18T11:40:44-08:00	2020-11-18T20:07:26+00:00	2020-11-21T07:59:59+00:00	-2	h6t748wp28rv0q8@marketplace.amazon.com	Scott Duff	+1 602-671-6610 ext. 09152	ABM022	Delivery by Saturday | Purple Extravagance Bouquet by Arabella Bouquets	1	0	1	Expedited	RUTH BIRKELBACH	2214 RADIUS WAY			NEWPORT NEWS	VA	23602-9087	US			false		
114-1073827-7359424	01704224172170	2020-11-18T19:43:01+00:00	2020-11-18T11:43:01-08:00	2020-11-18T20:07:54+00:00	2020-11-21T07:59:59+00:00	-2	gnvkxjjtpd5cj03@marketplace.amazon.com	Michael Bonkowske	+1 619-854-2705 ext. 97074	ABR001	Delivery by Saturday | Arabella Bouquets 12 Stems of Fresh Cut Red Roses in a Free Designer Glass Vase	1	0	1	Standard	Michael C Bonkowske	426 JUNIPER PL			CORTEZ	CO	81321-4073	US		Enjoy your gift! From Michael Bonkowske	false		
111-7210727-2936224	26119452163802	2020-11-18T19:45:38+00:00	2020-11-18T11:45:38-08:00	2020-11-18T20:14:04+00:00	2020-11-21T07:59:59+00:00	-2	y860tm5n58vpmrw@marketplace.amazon.com	Pat Price	+1 619-854-2705 ext. 44561	ABR0066	Delivery by Monday | Arabella Bouquets 12 Stems of Fresh Cut White Roses in a Free Designer Glass Vase	1	0	1	Expedited	Judy Price	19025 N 69TH AVE			GLENDALE	AZ	85308-5765	US		Mom Happy Birthday. Miss you! Love you! From Pat Price	false		
114-0962716-8630606	20415541852162	2020-11-18T19:47:40+00:00	2020-11-18T11:47:40-08:00	2020-11-18T20:16:25+00:00	2020-11-21T07:59:59+00:00	-2	nd96x6b80xltl8r@marketplace.amazon.com	Robert Pierce	+1 213-442-1463 ext. 40094	ABM022	Delivery by Saturday | Purple Extravagance Bouquet by Arabella Bouquets	1	0	1	Expedited	Mrs Ginger Holder	956 BERNHARDT RD			ELLIJAY	GA	30536-6241	US		Hope this will brighten your day  Love Bob and Janet Pierce	false		
111-2319357-6964228	55025509503282	2020-11-18T20:05:24+00:00	2020-11-18T12:05:24-08:00	2020-11-18T20:35:56+00:00	2020-11-21T07:59:59+00:00	-2	qyd1l4jv0420jj9@marketplace.amazon.com	Stewart Rubin	+1 602-671-6610 ext. 89596	ABR001	Delivery by Saturday | Arabella Bouquets 12 Stems of Fresh Cut Red Roses in a Free Designer Glass Vase	1	0	1	Expedited	Stewart Rubin	31-06 hillside ter			fair lawn	NJ	07410	US			false		
112-0305448-9293061	07275099397130	2020-11-18T20:12:16+00:00	2020-11-18T12:12:16-08:00	2020-11-18T20:39:24+00:00	2020-11-21T07:59:59+00:00	-2	q6p293lktf8942m@marketplace.amazon.com	Charles Hendricksen	+1 415-851-9136 ext. 28541	ABR0033	Delivery by Saturday | Arabella Farm Direct Bouquet of 12 Fresh Cut Orange Roses with a Free Glass Vase	1	0	1	Standard	Joan Hendricksen	24 PRADO CT			TOMS RIVER	NJ	08757-6451	US		Mom and Diane, Thankful to have you both in our lives. Love  Charles and Rob From Charles and Rob	false		
112-9496132-5173042	45866358227514	2020-11-18T20:09:26+00:00	2020-11-18T12:09:26-08:00	2020-11-18T20:39:55+00:00	2020-11-21T07:59:59+00:00	-2	42vq8glg3zlw1v3@marketplace.amazon.com	sbartonbaugh	+1 213-442-1463 ext. 13881	ABR0022	Delivery by Friday | Arabella Farm Direct Bouquet of 12 Fresh Cut Pink Roses with a Free Glass Vase	1	0	1	Expedited	Tricia Luckey	4440 SUNBONNET RD			CUMMING	GA	30028-3488	US			false		
111-1193941-0961037	05707972582770	2020-11-18T20:26:30+00:00	2020-11-18T12:26:30-08:00	2020-11-18T20:48:56+00:00	2020-11-21T07:59:59+00:00	-2	f8t08q9md3266dl@marketplace.amazon.com	Cheryl	+1 929-436-4790 ext. 03034	ABM010	Delivery by Friday | The Everlasting Fling Bouquet by Arabella Bouquets with a Free Designer Glass Vase	1	0	1	Expedited	Jenna Stokes	1255 HUHTA RD			TWO HARBORS	MN	55616-3021	US		Happy 21st Birthday !! Love you so much !!! From Grandma Cheri	false		
112-6032191-6295424	17294930693866	2020-11-18T20:22:45+00:00	2020-11-18T12:22:45-08:00	2020-11-18T20:51:44+00:00	2020-11-21T07:59:59+00:00	-2	mbwbl2v47sk268j@marketplace.amazon.com	rzetelny,marycatherine	+1 213-442-1463 ext. 68197	ABM022	Delivery by Saturday | Purple Extravagance Bouquet by Arabella Bouquets	1	0	1	Expedited	phyllis cmar	3545 NICHOLS RD			MEDINA	OH	44256-9261	US		Dear Phyllis & family, Happy Blessed Thanksgiving!  :) Peace & joy. Mary From rzetelny,marycatherine	false		
111-9784799-6056229	04289270195986	2020-11-18T20:33:33+00:00	2020-11-18T12:33:33-08:00	2020-11-18T21:00:54+00:00	2020-11-21T07:59:59+00:00	-2	dq01gjzhhtlg4wx@marketplace.amazon.com	Krystin Troy	+1 619-854-2705 ext. 46429	ABR0022	Delivery by Friday | Arabella Farm Direct Bouquet of 12 Fresh Cut Pink Roses with a Free Glass Vase	1	0	1	Expedited	Kimberly Mazzo	19801 BUSTLE RD			CORNELIUS	NC	28031-7569	US		Dear Kimberly, I am so sorry for your loss! And on top of it, being sick. Love you and hope your feeling better soon💜 From Radha	false		
112-0187043-3176237	21525260136210	2020-11-18T20:59:32+00:00	2020-11-18T12:59:32-08:00	2020-11-18T21:26:38+00:00	2020-11-21T07:59:59+00:00	-2	ppscpym2n1cc1vy@marketplace.amazon.com	Annabel Amir	+1 619-854-2705 ext. 47665	ABM022	Delivery by Saturday | Purple Extravagance Bouquet by Arabella Bouquets	1	0	1	Expedited	Dawn Castle	2922 W CARSON RD			PHOENIX	AZ	85041-6339	US		Dear Grandma Dawn,  Happy Birthday! We love you. Today is a joyous occasion because a wonderful person like you was born. God bless today and you. Lots of love and hugs! From Annabel, Ayde, Alexia and Adam Amir	false		
111-3465622-2736260	09864353841202	2020-11-18T21:05:21+00:00	2020-11-18T13:05:21-08:00	2020-11-18T21:28:42+00:00	2020-11-21T07:59:59+00:00	-2	f4s3w6r1byfy8kw@marketplace.amazon.com	Cesar Umanzor	+1 480-618-5344 ext. 55471	ABM020	Delivery by Monday | The Sunset Bouquet by Arabella Bouquets	1	0	1	Expedited	Veronica Herrera	41 SILVERSMITH LN			LEVITTOWN	NY	11756-5223	US		Amor mio, feliz 1er aniversario de boda!!, gracias por hacerme tan feliz y darme la dicha de poder decir que sos mi esposa Te amo demasiado!! From Cesar Umanzor	false		
113-3765239-3193821	02115124907026	2020-11-18T21:25:33+00:00	2020-11-18T13:25:33-08:00	2020-11-18T21:38:09+00:00	2020-11-21T07:59:59+00:00	-2	50g4h1f9x6xxfgt@marketplace.amazon.com	Naomi Hartman	+1 619-854-2705 ext. 41482	ABR012	Delivery by Friday | Arabella Farm Direct Bouquet of 18 Fresh Cut Pink Roses with a Free Glass Vase	1	0	1	Standard	Rachel Hartman	11040 SW 38TH DR			DAVIE	FL	33328-1325	US			false		
114-6330142-7705015	45230077197778	2020-11-18T21:15:53+00:00	2020-11-18T13:15:53-08:00	2020-11-18T21:38:46+00:00	2020-11-21T07:59:59+00:00	-2	z6z0mmh5fpr8gbx@marketplace.amazon.com	Arnold Powell	+1 619-854-2705 ext. 85069	ABR0022	Delivery by Friday | Arabella Farm Direct Bouquet of 12 Fresh Cut Pink Roses with a Free Glass Vase	1	0	1	Expedited	Virginia Cooper	4747 LAMBS RD APT 13			CHARLESTON	SC	29418-3560	US		Wishing you a very happy belated birthday. I wish you many, many more. From Arnold Powell	false		
111-8224552-3322632	53286867098850	2020-11-18T21:19:31+00:00	2020-11-18T13:19:31-08:00	2020-11-18T21:41:46+00:00	2020-11-21T07:59:59+00:00	-2	qtd7j1sf652lc85@marketplace.amazon.com	shannon barnes	+1 415-851-9136 ext. 68490	ABR0055	Delivery by Saturday | Arabella Farm Direct Bouquet of 12 Stems of Fresh Cut Hot Pink Roses in a Free Designer Glass Vase	1	0	1	Standard	Dottie Higdon	5913 MAPLE TER			LAUREL	MD	20707-5419	US		Happy Birthday Aunt Dottie!! Love, Dean & Shannon Barnes From Love, Dean & Shannon Barnes	false		
111-3637275-8078652	56389914169634	2020-11-18T21:31:09+00:00	2020-11-18T13:31:09-08:00	2020-11-18T21:59:27+00:00	2020-11-21T07:59:59+00:00	-2	977kpkclsjftqts@marketplace.amazon.com	P Laracuente	+1 929-436-4790 ext. 46864	ABR0022	Delivery by Friday | Arabella Farm Direct Bouquet of 12 Fresh Cut Pink Roses with a Free Glass Vase	1	0	1	Expedited	Stephanie Brown	369 BALL FARM RD			NEWPORT	NC	28570-6125	US		Hope you have a wonderful birthday!  We love you.   Patsi, Dallas and Kitty  Ps ... Kitty picked these out for you. From P Laracuente	false		
114-8679114-1437807	17382909799522	2020-11-18T21:59:41+00:00	2020-11-18T13:59:41-08:00	2020-11-18T22:07:09+00:00	2020-11-21T07:59:59+00:00	-2	jp5jtt6zb24c9cm@marketplace.amazon.com	Linda O'Neill	+1 602-671-6610 ext. 11532	ABM021	Delivery by Monday | The Joyous Bouquet by Arabella Bouquets	1	0	1	Expedited	Mrs Clare Ralston	2611 MANOR CT			OWINGS	MD	20736-9145	US		Congratulations Clare and Mike . Thank you for giving me another beautiful granddaughter. Love and cherish her as much as you do with Emily as I am sure she will love you in return. From Linda O'Neill	false		
114-4479260-1187421	65445379669842	2020-11-18T21:49:07+00:00	2020-11-18T13:49:07-08:00	2020-11-18T22:13:36+00:00	2020-11-21T07:59:59+00:00	-2	n6t35qk11ybxlhx@marketplace.amazon.com	carrie Breckner	+1 602-671-6610 ext. 30511	ABR0055	Delivery by Saturday | Arabella Farm Direct Bouquet of 12 Stems of Fresh Cut Hot Pink Roses in a Free Designer Glass Vase	1	0	1	Expedited	Gretchen Hsu	190 WEXFORD DR UNIT 201			ANDERSON	SC	29621-1756	US			false		
114-6283993-9467430	53740745297826	2020-11-18T21:53:32+00:00	2020-11-18T13:53:32-08:00	2020-11-18T22:22:14+00:00	2020-11-21T07:59:59+00:00	-2	fjwj9xr6z8m0586@marketplace.amazon.com	Rachael	+1 213-442-1463 ext. 29214	ABM017	Delivery by Monday | Arabella Bouquets 10 Stems of Blue Dendrobium Orchids in a Free Designer Glass Vase	1	0	1	Standard	Luci Cockrell	1207 JACKSON KELLER RD			SAN ANTONIO	TX	78213-3210	US			false		
114-8249056-1170628	65942117989202	2020-11-18T22:31:10+00:00	2020-11-18T14:31:10-08:00	2020-11-18T22:32:03+00:00	2020-11-21T07:59:59+00:00	-2	xylwfhs34nmz2xn@marketplace.amazon.com	SUSAN CRAW	+1 929-436-4790 ext. 12348	ABR014	Arabella Bouquets 18 Stems of Fresh Cut White Roses in a Free Designer Glass Vase	1	0	1	Standard	Rachael Hubbs	1517 51ST ST W			BRADENTON	FL	34209-5025	US		Dear Rachael, We are grateful for our friendship with You and Dave. Our love and support, Brian and Susan From SUSAN CRAW	false		
114-5354727-4470607	26730757126506	2020-11-18T22:07:12+00:00	2020-11-18T14:07:12-08:00	2020-11-18T22:34:52+00:00	2020-11-21T07:59:59+00:00	-2	n7c2mhxxxr1wpn5@marketplace.amazon.com	Tim LaFleur	+1 619-854-2705 ext. 55848	ABR0033	Delivery by Saturday | Arabella Farm Direct Bouquet of 12 Fresh Cut Orange Roses with a Free Glass Vase	1	0	1	Expedited	Inge Roberts	3640 HOLMES VIEW DR			LANGLEY	WA	98260-9678	US		Inge! So sorry about your neck! Please heal up fast! We miss you and we love you! From Naomi, Tim & Summer	false		
113-9388707-2683447	67404944844290	2020-11-18T22:07:58+00:00	2020-11-18T14:07:58-08:00	2020-11-18T22:36:44+00:00	2020-11-21T07:59:59+00:00	-2	c80mwy6jj4nrsc5@marketplace.amazon.com	Sharon M Millican	+1 602-671-6610 ext. 27142	ABM022	Delivery by Saturday | Purple Extravagance Bouquet by Arabella Bouquets	1	0	1	Expedited	Lois Millican	3390 FLOWER ST			WHEAT RIDGE	CO	80033-5869	US			false		
114-4136495-5847406	24971883525770	2020-11-18T22:14:15+00:00	2020-11-18T14:14:15-08:00	2020-11-18T22:41:28+00:00	2020-11-21T07:59:59+00:00	-2	7t82fb76rcwmyd3@marketplace.amazon.com	Susan Chennell	+1 602-671-6610 ext. 82770	ABM020	Delivery by Monday | The Sunset Bouquet by Arabella Bouquets	1	0	1	Expedited	Carilyn & Mike Stewart	2155 WOOLNER AVE			FAIRFIELD	CA	94533-5800	US		Carilyn,  Thinking of you on your Dad’s birthday.  Love ya, From Bob & Sue	false		
114-3992465-0472202	57537653033538	2020-11-18T22:20:47+00:00	2020-11-18T14:20:47-08:00	2020-11-18T22:41:30+00:00	2020-11-21T07:59:59+00:00	-2	qt6br4v8h4xhh33@marketplace.amazon.com	Virgil Ledesma	+1 929-436-4790 ext. 54722	ABM020	Delivery by Monday | The Sunset Bouquet by Arabella Bouquets	1	0	1	Expedited	Mike Ledesma	2601 W CARY ST			RICHMOND	VA	23220-5118	US			false		
112-4042247-4688215	33380581226450	2020-11-18T22:24:41+00:00	2020-11-18T14:24:41-08:00	2020-11-18T22:49:21+00:00	2020-11-21T07:59:59+00:00	-2	h9sw2mykg468ps1@marketplace.amazon.com	Paula Wirachowsky	+1 619-854-2705 ext. 08350	ABR0022	Delivery by Friday | Arabella Farm Direct Bouquet of 12 Fresh Cut Pink Roses with a Free Glass Vase	1	0	1	Expedited	Paula Wirachowsky	378 STATE HIGHWAY 17 N			MOSES LAKE	WA	98837-9718	US			false		
113-4224926-2777829	14733034624914	2020-11-18T22:25:52+00:00	2020-11-18T14:25:52-08:00	2020-11-18T22:51:47+00:00	2020-11-21T07:59:59+00:00	-2	6lsjw1v1pzcy9xv@marketplace.amazon.com	Michael DeCrescenzo	+1 415-851-9136 ext. 74543	ABR001	Delivery by Saturday | Arabella Bouquets 12 Stems of Fresh Cut Red Roses in a Free Designer Glass Vase	1	0	1	Expedited	Thomas DeCrescenzo	8508 CLARK MILLS RD			WHITESBORO	NY	13492-2700	US		Dad - Thinking of you and Grampa Dick  on his 36th anniversary.  Wishing you much peace. From Love, Mary Ann, Rick, Mike and Gee	false		
112-4513969-2840242	20435587664394	2020-11-18T22:24:41+00:00	2020-11-18T14:24:41-08:00	2020-11-18T22:52:26+00:00	2020-11-21T07:59:59+00:00	-2	3gw8t19vfbc3kwp@marketplace.amazon.com	Mark Powell	+1 213-442-1463 ext. 39798	ABM010	Delivery by Friday | The Everlasting Fling Bouquet by Arabella Bouquets with a Free Designer Glass Vase	1	0	1	Expedited	Melissa Helmes	8202 JORDAN RIDGE DR			CLEVES	OH	45002-9100	US		Thinking about you all week.   Love you, From  Powell’s Up North	false		
113-1140098-7673000	59490247511554	2020-11-18T22:31:06+00:00	2020-11-18T14:31:06-08:00	2020-11-18T23:00:18+00:00	2020-11-21T07:59:59+00:00	-2	8mjcscj15xxkz8d@marketplace.amazon.com	David Ferris	+1 213-442-1463 ext. 75745	ABM020	Delivery by Monday | The Sunset Bouquet by Arabella Bouquets	1	0	1	Expedited	Tanya Ferris	90 RIDGEWOOD LN APT 19			GARDNER	MA	01440-2056	US		Happy Thanksgiving, Tanya and Larry! From David Ferris	false		
113-2798802-0933800	56180574119098	2020-11-18T22:37:40+00:00	2020-11-18T14:37:40-08:00	2020-11-18T23:06:43+00:00	2020-11-21T07:59:59+00:00	-2	zr02nwdpm379qdz@marketplace.amazon.com	Kathryn Willoughby	+1 602-671-6610 ext. 96384	ABR0022	Delivery by Friday | Arabella Farm Direct Bouquet of 12 Fresh Cut Pink Roses with a Free Glass Vase	1	0	1	Expedited	Jennifer Tarbell	13222 SANFORD AVE APT 4R			FLUSHING	NY	11355-4349	US		Happy birthday, Gabrielle! From Kathryn Willoughby	false		
112-9985487-4860203	59544420781722	2020-11-18T22:48:38+00:00	2020-11-18T14:48:38-08:00	2020-11-18T23:07:26+00:00	2020-11-21T07:59:59+00:00	-2	qkjmjjxk46c51kf@marketplace.amazon.com	Fred Tomazinis	+1 415-851-9136 ext. 82837	ABR001	Delivery by Saturday | Arabella Bouquets 12 Stems of Fresh Cut Red Roses in a Free Designer Glass Vase	1	0	1	Expedited	Trish Evers	186 SURFSIDE AVE			SAINT AUGUSTINE	FL	32084-2233	US		You are very special to me! From Fred Tomazinis	false		
113-8269587-2813065	22214461169202	2020-11-18T22:38:29+00:00	2020-11-18T14:38:29-08:00	2020-11-18T23:07:43+00:00	2020-11-21T07:59:59+00:00	-2	rd7576rs0jkmqx2@marketplace.amazon.com	Jeff Edwards	+1 619-854-2705 ext. 45389	ABR0033	Delivery by Saturday | Arabella Farm Direct Bouquet of 12 Fresh Cut Orange Roses with a Free Glass Vase	1	0	1	Expedited	Bob & Jo Fitzsimmons	15410 HORSESHOE AVE SW			PORT ORCHARD	WA	98367-7132	US		Happy Thanksgiving! From Jeff and Nancy	false		
113-5955715-5912244	56573141256658	2020-11-18T22:42:07+00:00	2020-11-18T14:42:07-08:00	2020-11-18T23:08:11+00:00	2020-11-21T07:59:59+00:00	-2	k7w17vww9jdnh69@marketplace.amazon.com	Nikki M White	+1 619-854-2705 ext. 30259	ABM010	Delivery by Friday | The Everlasting Fling Bouquet by Arabella Bouquets with a Free Designer Glass Vase	1	0	1	Expedited	Anna Bell	4400 NE 399TH ST			LA CENTER	WA	98629-4628	US		I hope you enjoy these flowers. It was a pleasure helping you sell the house that Michael loved. I really enjoyed getting to know you. Please keep in touch! Happy holidays! From Nikki M White	false		
114-9940398-3121050	08078881344162	2020-11-18T22:48:28+00:00	2020-11-18T14:48:28-08:00	2020-11-18T23:17:12+00:00	2020-11-21T07:59:59+00:00	-2	qtwmy4yhljg0pzp@marketplace.amazon.com	Susan roth	+1 929-436-4790 ext. 58086	ABM022	Delivery by Saturday | Purple Extravagance Bouquet by Arabella Bouquets	1	0	1	Expedited	Eileen Stamataky	3024 CLOVERMERE RD			WANTAGH	NY	11793-2532	US		Wishing you my wonderful friend the very Happiest of Birthdays! Love you!!  Love Susan & Mike From Susan roth	false		
111-7128032-5820225	60502415527282	2020-11-18T23:00:00+00:00	2020-11-18T15:00:00-08:00	2020-11-18T23:17:30+00:00	2020-11-21T07:59:59+00:00	-2	jsc4c5ybhn84q9t@marketplace.amazon.com	raphael jabon	+1 415-851-9136 ext. 72366	ABM022	Delivery by Saturday | Purple Extravagance Bouquet by Arabella Bouquets	1	0	1	Expedited	Melanie Hanson	15724 169TH AVE SE			MONROE	WA	98272-2821	US			false		
111-5459899-6637063	46022471296642	2020-11-18T22:48:46+00:00	2020-11-18T14:48:46-08:00	2020-11-18T23:17:38+00:00	2020-11-21T07:59:59+00:00	-2	v1k3bpzlj31fs2v@marketplace.amazon.com	Kelli Allaway	+1 602-671-6610 ext. 33287	ABM021	Delivery by Monday | The Joyous Bouquet by Arabella Bouquets	1	0	1	Expedited	Andrea Santamauro	4 BAILEY DR			WEST HAVEN	CT	06516-6203	US		Andrea & Benny, Wishing you a wonderful Thanksgiving filled with Joy & Love! From Matthew & Kelli Allaway	false		
111-1597356-9233821	10590505131666	2020-11-18T22:26:55+00:00	2020-11-18T14:26:55-08:00	2020-11-18T23:18:50+00:00	2020-11-21T07:59:59+00:00	-2	v1k3bpzlj31fs2v@marketplace.amazon.com	Kelli Allaway	+1 619-854-2705 ext. 17441	ABM010	Delivery by Friday | The Everlasting Fling Bouquet by Arabella Bouquets with a Free Designer Glass Vase	1	0	1	Expedited	The Allaways	735 CRESCENT BLVD			GLEN ELLYN	IL	60137-4259	US		Lynn, Congratulations on your extraordinary accomplishment. The board is so lucky to have you!   Sending love, Matthew & Kelli From Kelli Allaway	false		
113-4686867-5782610	62325246857530	2020-11-18T22:51:13+00:00	2020-11-18T14:51:13-08:00	2020-11-18T23:19:27+00:00	2020-11-21T07:59:59+00:00	-2	zr02nwdpm379qdz@marketplace.amazon.com	Kathryn Willoughby	+1 929-436-4790 ext. 30537	ABM021	Delivery by Monday | The Joyous Bouquet by Arabella Bouquets	1	0	1	Standard	Barbara Lecakes	30 UPPER WEDGEWOOD LN			VOORHEESVILLE	NEW YORK	12186-9329	US		Happy Thanksgiving! Love and hugs from Bob and Kate From Kathryn Willoughby	false		
112-1661732-9187416	19396608719306	2020-11-18T22:54:56+00:00	2020-11-18T14:54:56-08:00	2020-11-18T23:23:35+00:00	2020-11-21T07:59:59+00:00	-2	l8pxj94f6179wk5@marketplace.amazon.com	sherry Croll	+1 602-671-6610 ext. 29810	ABR0022	Delivery by Friday | Arabella Farm Direct Bouquet of 12 Fresh Cut Pink Roses with a Free Glass Vase	1	0	1	Expedited	Donna Hemmerle	SUMMIT RIDGE APARTMENTS	220 E SUMMIT AVE APT E47		TELFORD	PA	18969-3108	US		We hope you feel and get better soon!! From sherry and rick Croll	false		
113-1284462-0402625	69716454594866	2020-11-18T23:01:54+00:00	2020-11-18T15:01:54-08:00	2020-11-18T23:29:57+00:00	2020-11-21T07:59:59+00:00	-2	r0kj6vxrzlrwtj4@marketplace.amazon.com	Gamaliel Batalla	+1 480-618-5344 ext. 92116	ABR004	Delivery by Monday | Arabella Farm Direct Bouquet of 12 Fresh Cut Yellow Roses with a Free Glass Vase	1	0	1	Expedited	Edrenalinda Bagon	4253 CHESWICK LN			VIRGINIA BEACH	VA	23455-6532	US		Happy Birthday Tita Edna From Love, Miel and Jobert	false		
114-5665471-6753832	69411369799834	2020-11-18T23:02:57+00:00	2020-11-18T15:02:57-08:00	2020-11-18T23:32:53+00:00	2020-11-21T07:59:59+00:00	-2	f1m8797qy8110cv@marketplace.amazon.com	Daniel Lenk	+1 415-851-9136 ext. 79017	ABM024	Delivery by Monday | The Beauty of Color Bouquet by Arabella Bouquets	1	0	1	Expedited	Carrie Lenk	4700 N MONTICELLO AVE APT 303			CHICAGO	IL	60625-6430	US			false		
111-2970814-5729022	53395587813234	2020-11-18T23:12:27+00:00	2020-11-18T15:12:27-08:00	2020-11-18T23:38:24+00:00	2020-11-21T07:59:59+00:00	-2	y492qkrcm10vly4@marketplace.amazon.com	DAVID PAUTZ	+1 619-854-2705 ext. 34696	ABM010	Delivery by Friday | The Everlasting Fling Bouquet by Arabella Bouquets with a Free Designer Glass Vase	1	0	1	Expedited	James Olson Family	6957 LYDIA BAY			SAINT PAUL	MN	55125-6701	US		Jamie, Andrea, Macy, Henry and Peter  Thankful for knowing you! From Leslie and Dave	false		
111-8873430-8421035	28754686222786	2020-11-18T23:09:43+00:00	2020-11-18T15:09:43-08:00	2020-11-18T23:38:57+00:00	2020-11-21T07:59:59+00:00	-2	9n7k5mdz0c2skfy@marketplace.amazon.com	Monsiri Jintasawang	+1 480-618-5344 ext. 55826	ABR0055	Delivery by Saturday | Arabella Farm Direct Bouquet of 12 Stems of Fresh Cut Hot Pink Roses in a Free Designer Glass Vase	1	0	1	Expedited	Patricia Howard	11233 TIERRASANTA BLVD UNIT 47			SAN DIEGO	CA	92124-2887	US		Hi PAH. Happy birthday.  Love you.  Pom & Troy	false		
113-1843708-1816230	55005753857506	2020-11-18T23:13:37+00:00	2020-11-18T15:13:37-08:00	2020-11-18T23:43:09+00:00	2020-11-21T07:59:59+00:00	-2	mss4ykpj2jxdpz7@marketplace.amazon.com	Stephanie Horowitz	+1 602-671-6610 ext. 64538	ABM022	Delivery by Saturday | Purple Extravagance Bouquet by Arabella Bouquets	1	0	1	Expedited	Mrs. Bernice Horowitz	2001 GRANADA DR APT F3 WYNMOOR			COCONUT CREEK	FL	33066-1161	US		Happy Birthday, Mom! Enjoy these beautiful flowers! Much love, Bob & Stephanie	false		
112-7712047-0555438	66682067610754	2020-11-18T23:27:19+00:00	2020-11-18T15:27:19-08:00	2020-11-18T23:56:02+00:00	2020-11-21T07:59:59+00:00	-2	h8hqdlnv0r0x0bn@marketplace.amazon.com	Robert K Osborn	+1 213-442-1463 ext. 25385	ABM020	Delivery by Monday | The Sunset Bouquet by Arabella Bouquets	1	0	1	Standard	Debbie Osborn	7514 YELLOW BONNET PL			COLUMBIA	MD	21046-2445	US		Happy Birthday!  We love you! From Rob, Rin, Silvie, and Beau	false		
111-8222899-4258607	54367378171858	2020-11-18T23:28:01+00:00	2020-11-18T15:28:01-08:00	2020-11-18T23:57:44+00:00	2020-11-21T07:59:59+00:00	-2	kndvml8wkd3rwyz@marketplace.amazon.com	Deirdre Kennedy	+1 480-618-5344 ext. 55738	ABR0022	Delivery by Friday | Arabella Farm Direct Bouquet of 12 Fresh Cut Pink Roses with a Free Glass Vase	1	0	1	Expedited	Roberta Batson	6971 DEATON HENRY RD			FLOWERY BRANCH	GA	30542-5521	US			false		
114-8716286-1849836	32610074358282	2020-11-18T23:53:59+00:00	2020-11-18T15:53:59-08:00	2020-11-19T00:12:58+00:00	2020-11-21T07:59:59+00:00	-2	83bfcm25qvbjwjy@marketplace.amazon.com	Andrew J Segerstrom	+1 929-436-4790 ext. 64150	ABR012	Delivery by Friday | Arabella Farm Direct Bouquet of 18 Fresh Cut Pink Roses with a Free Glass Vase	1	0	1	Expedited	Mike Bakke	1296 SHERIDAN RD			CROWNSVILLE	MD	21032-1408	US			false		
114-6420529-8833005	17440884827322	2020-11-19T00:04:17+00:00	2020-11-18T16:04:17-08:00	2020-11-19T00:34:36+00:00	2020-11-21T07:59:59+00:00	-2	lwhp2bk1b2bt477@marketplace.amazon.com	Laurie Morton	+1 602-671-6610 ext. 91891	ABB001	Delivery by Monday | Arabella Farm Direct Fresh Cut White Hydrangea	1	0	1	Standard	Laurie Morton	5925 E SOLCITO LN			PARADISE VALLEY	AZ	85253-4228	US			false		
113-8997560-1061020	03669324280530	2020-11-19T00:05:31+00:00	2020-11-18T16:05:31-08:00	2020-11-19T00:34:52+00:00	2020-11-21T07:59:59+00:00	-2	cmpg67v9dzj9hn5@marketplace.amazon.com	Marg Leonard	+1 929-436-4790 ext. 01209	ABR012	Delivery by Friday | Arabella Farm Direct Bouquet of 18 Fresh Cut Pink Roses with a Free Glass Vase	1	0	1	Expedited	Lois Bobnock	1971 COLONY CT			BELOIT	WI	53511-1801	US		Love you, little cousin!!! From Marg and Pat	false		
112-8784660-5239430	33394414790194	2020-11-19T00:10:11+00:00	2020-11-18T16:10:11-08:00	2020-11-19T00:35:57+00:00	2020-11-21T07:59:59+00:00	-2	5f20fctkn20jsk6@marketplace.amazon.com	Carmen W. Camacho	+1 213-442-1463 ext. 07626	ABR0022	Delivery by Friday | Arabella Farm Direct Bouquet of 12 Fresh Cut Pink Roses with a Free Glass Vase	1	0	1	Expedited	Teri Stewart	10788 TIBERT CT			BEALETON	VA	22712-5626	US		My dear Teri, get well soon. Wishing you a speedy recovery.  My Mom and I will continue praying for your health.    Enjoy your gift!  Love, Carmen From Carmen W. Camacho	false		
112-6343635-0762606	65284230744186	2020-11-19T00:12:45+00:00	2020-11-18T16:12:45-08:00	2020-11-19T00:38:47+00:00	2020-11-21T07:59:59+00:00	-2	4y5lyn7vr7fz99s@marketplace.amazon.com	jane robinson	+1 415-851-9136 ext. 57487	ABR0022	Delivery by Friday | Arabella Farm Direct Bouquet of 12 Fresh Cut Pink Roses with a Free Glass Vase	1	0	1	Expedited	Jackie Robinson	2035 CARMEL DR			JAMISON	PA	18929-1438	US			false		
114-6543388-6166641	37725822249426	2020-11-19T00:24:36+00:00	2020-11-18T16:24:36-08:00	2020-11-19T00:45:13+00:00	2020-11-21T07:59:59+00:00	-2	scvfnb0njl69j4s@marketplace.amazon.com	Natalie Christine Lopez	+1 213-442-1463 ext. 56246	ABR0033	Delivery by Saturday | Arabella Farm Direct Bouquet of 12 Fresh Cut Orange Roses with a Free Glass Vase	1	0	1	Expedited	Norlene Mooney	2317 VISTA DEL MAR			SAN MATEO	CA	94404-2490	US			false		
114-8742780-1959415	08064191380650	2020-11-19T00:28:39+00:00	2020-11-18T16:28:39-08:00	2020-11-19T00:57:42+00:00	2020-11-21T07:59:59+00:00	-2	tx8zdzpqtcz8w4c@marketplace.amazon.com	Birgit A Dietz-Johnson	+1 602-671-6610 ext. 46323	ABM010	Delivery by Friday | The Everlasting Fling Bouquet by Arabella Bouquets with a Free Designer Glass Vase	1	0	1	Expedited	Rose Johnson	146 DOWNES ST			WATERBURY	CT	06704-1001	US		Mom, sorry Corona is interfering another time with our get together. we miss you. Love Kenny & Birgit with Beau	false		
113-0962791-7709022	12475490492362	2020-11-19T00:39:46+00:00	2020-11-18T16:39:46-08:00	2020-11-19T01:03:51+00:00	2020-11-21T07:59:59+00:00	-2	v9g93z03cppm78w@marketplace.amazon.com	David A Beaton	+1 602-671-6610 ext. 06153	ABM010	Delivery by Friday | The Everlasting Fling Bouquet by Arabella Bouquets with a Free Designer Glass Vase	1	0	1	Expedited	Jeff and Gwen Adcock	61 SUMAC DR			MADISON	MS	39110-9264	US		Wishing you a speedy recovery and a Happy Birthday much love from Anita and Dave From David A Beaton	false		
111-5840474-5036214	38261743770626	2020-11-19T00:43:19+00:00	2020-11-18T16:43:19-08:00	2020-11-19T01:08:34+00:00	2020-11-21T07:59:59+00:00	-2	sf1p2r7zzkdzlx6@marketplace.amazon.com	Grace Nolan	+1 619-854-2705 ext. 71665	ABM025	Delivery by Monday | The Fell for You Bouquet by Arabella Bouquets	1	0	1	Expedited	Mary Alice Cutler	595 CRYSTAL LAKE RD			GILMANTON IRON WORKS	NH	03837-4622	US		Happy Thanksgiving! I hope all is well, and hope I can visit soon. Stay healthy and enjoy the pretty autumn up there :) From Grace	false		
113-8127561-9993866	16576889418450	2020-11-19T00:53:03+00:00	2020-11-18T16:53:03-08:00	2020-11-19T01:21:53+00:00	2020-11-21T07:59:59+00:00	-2	wnm5v27416lmr8v@marketplace.amazon.com	William Keenan	+1 213-442-1463 ext. 37403	ABM022	Delivery by Saturday | Purple Extravagance Bouquet by Arabella Bouquets	1	0	1	Expedited	Maryellen & Paul Bielat	1220 WILLOWGATE LN			ST CHARLES	IL	60174-4144	US			false		
111-9213071-1994659	62218247227314	2020-11-19T01:02:43+00:00	2020-11-18T17:02:43-08:00	2020-11-19T01:29:56+00:00	2020-11-21T07:59:59+00:00	-2	6w5jbs34rxt6sh6@marketplace.amazon.com	Benjamin Ervin	+1 602-671-6610 ext. 49551	ABM022	Delivery by Saturday | Purple Extravagance Bouquet by Arabella Bouquets	1	0	1	Expedited	Laura Hickman	520 SPORTSMAN PARK DR			SEFFNER	FL	33584-4152	US		Love you always From Ben and Julianna	false		
114-1884153-1521825	00737837618162	2020-11-19T01:06:05+00:00	2020-11-18T17:06:05-08:00	2020-11-19T01:33:47+00:00	2020-11-21T07:59:59+00:00	-2	p1wg0xj3dkf1y2d@marketplace.amazon.com	Steve Ross	+1 929-436-4790 ext. 27317	ABR0055	Delivery by Saturday | Arabella Farm Direct Bouquet of 12 Stems of Fresh Cut Hot Pink Roses in a Free Designer Glass Vase	1	0	1	Expedited	Linda Rogers	13231 GILBERT ST			GARDEN GROVE	CA	92844-2149	US		Wishing you a speedy recovery and lots of lovely walks. 🥰 From Steve Ross	false		
111-8619062-5873846	21094258486338	2020-11-19T01:05:26+00:00	2020-11-18T17:05:26-08:00	2020-11-19T01:35:59+00:00	2020-11-21T07:59:59+00:00	-2	k4sww27bk9d53h7@marketplace.amazon.com	Emily Clark	+1 619-854-2705 ext. 70125	ABR001	Delivery by Saturday | Arabella Bouquets 12 Stems of Fresh Cut Red Roses in a Free Designer Glass Vase	1	0	1	Expedited	Emily Clark c/o Anne Clark	500 AVENIDA LORENZO			NEWPORT BEACH	CA	92660-4019	US			false		
111-4786228-0015414	38876899262762	2020-11-19T01:08:07+00:00	2020-11-18T17:08:07-08:00	2020-11-19T01:37:20+00:00	2020-11-21T07:59:59+00:00	-2	4wbjc1scb8h93m8@marketplace.amazon.com	Danny Bilson	+1 415-851-9136 ext. 84571	ABR015	Delivery by Saturday | Arabella Farm Direct Bouquet of 18 Fresh Cut Orange Roses with a Free Glass Vase	1	0	1	Standard	Nancy Medway	112 YACHT CLUB DR APT # 1			NORTH PALM BEACH	FL	33408-3853	US			false		
113-8797325-7477819	59481484200426	2020-11-19T01:11:26+00:00	2020-11-18T17:11:26-08:00	2020-11-19T01:38:03+00:00	2020-11-21T07:59:59+00:00	-2	gwg2vb2gwfrkg3g@marketplace.amazon.com	Ashley N Briggs	+1 602-671-6610 ext. 55307	ABM022	Delivery by Saturday | Purple Extravagance Bouquet by Arabella Bouquets	1	0	1	Expedited	Kristin Rizzo	506 CROUSE MILL RD			QUEEN ANNE	MD	21657-1852	US		Sending positive thoughts and support. We're here if you need anything. Hugs and kisses! From The Brizzo Family	false		
113-4933572-7305010	16949227016130	2020-11-19T01:00:16+00:00	2020-11-18T17:00:16-08:00	2020-11-19T01:41:55+00:00	2020-11-21T07:59:59+00:00	-2	wnm5v27416lmr8v@marketplace.amazon.com	William Keenan	+1 929-436-4790 ext. 42419	ABM022	Delivery by Saturday | Purple Extravagance Bouquet by Arabella Bouquets	1	0	1	Expedited	Beth and Joe  Ryan	1429 W 114th Street			Chicago	IL	60655	US			false		
114-9027050-4690616	61703392713402	2020-11-19T01:31:05+00:00	2020-11-18T17:31:05-08:00	2020-11-19T01:58:17+00:00	2020-11-21T07:59:59+00:00	-2	211f95z99mdh2zz@marketplace.amazon.com	Bob Shipp	+1 602-671-6610 ext. 87164	ABR0033	Delivery by Saturday | Arabella Farm Direct Bouquet of 12 Fresh Cut Orange Roses with a Free Glass Vase	1	0	1	Expedited	Bobby B. Shipp	690 Island Way	Apt. 1002		Clearwater	FL	33767	US			false		
113-6903102-0132233	35651361696378	2020-11-19T01:37:16+00:00	2020-11-18T17:37:16-08:00	2020-11-19T02:01:08+00:00	2020-11-21T07:59:59+00:00	-2	vcd21mkjjz8mv5t@marketplace.amazon.com	Matt cameron	+1 415-851-9136 ext. 58849	ABR0055	Delivery by Saturday | Arabella Farm Direct Bouquet of 12 Stems of Fresh Cut Hot Pink Roses in a Free Designer Glass Vase	1	0	1	Expedited	Casey Caron	1211 NE 27TH TER			POMPANO BEACH	FL	33062-3814	US		Happy Birthday Casey! Love Matt & Rod 😘 From Matthew 🥳😎	false		
113-1312035-1523419	27533370828970	2020-11-19T01:41:13+00:00	2020-11-18T17:41:13-08:00	2020-11-19T02:02:42+00:00	2020-11-21T07:59:59+00:00	-2	mw4prbcy3lz80d3@marketplace.amazon.com	Amir Ansari	+1 619-854-2705 ext. 25085	ABR0022	Delivery by Friday | Arabella Farm Direct Bouquet of 12 Fresh Cut Pink Roses with a Free Glass Vase	1	0	1	Expedited	Peyguy Marra	15441 DOVER CT			DAVIE	FL	33331-2580	US			false		
111-7807029-7230633	51626722202914	2020-11-19T01:41:06+00:00	2020-11-18T17:41:06-08:00	2020-11-19T02:10:24+00:00	2020-11-21T07:59:59+00:00	-2	3cqskq00tt3y0cs@marketplace.amazon.com	Richard Robie	+1 929-436-4790 ext. 41918	ABM022	Delivery by Saturday | Purple Extravagance Bouquet by Arabella Bouquets	1	0	1	Expedited	June Goss	126 WILSON HILL RD			NEW BOSTON	NH	03070-4908	US		Dear June and Cliff, We are thinking of you. Love, Rick and Kathy From Richard Robie & Dr. Kathleen Upton	false		
114-4339720-0845818	50823829306642	2020-11-19T01:40:47+00:00	2020-11-18T17:40:47-08:00	2020-11-19T02:10:52+00:00	2020-11-21T07:59:59+00:00	-2	r3j4zh87gqpp8k8@marketplace.amazon.com	Bobbi M Rogers	+1 929-436-4790 ext. 42297	ABM020	Delivery by Monday | The Sunset Bouquet by Arabella Bouquets	1	0	1	Expedited	Mary Ann Mead	15823 73RD CIR N			MAPLE GROVE	MN	55311-2643	US			false		
113-2220218-8218631	45606530139418	2020-11-19T01:46:12+00:00	2020-11-18T17:46:12-08:00	2020-11-19T02:14:45+00:00	2020-11-21T07:59:59+00:00	-2	q6tdch6d1gphb1f@marketplace.amazon.com	Zuzana Bic	+1 602-671-6610 ext. 40212	ABR013	Delivery by Monday | Arabella Farm Direct Bouquet of 18 Fresh Cut Yellow Roses with a Free Glass Vase	1	0	1	Expedited	Alexander and Tori Bic	645 W CAMINO TUNERA			SAHUARITA	AZ	85629-8267	US		Dear Alex and Tori: Happy Thanksgiving - with love Maminka and Zuzanka From Zuzana Bic	false		
113-0073572-2340270	24106324215674	2020-11-19T02:01:41+00:00	2020-11-18T18:01:41-08:00	2020-11-19T02:23:38+00:00	2020-11-21T07:59:59+00:00	-2	6lsjw1v1pzcy9xv@marketplace.amazon.com	Michael DeCrescenzo	+1 602-671-6610 ext. 50191	ABR001	Delivery by Saturday | Arabella Bouquets 12 Stems of Fresh Cut Red Roses in a Free Designer Glass Vase	1	0	1	Expedited	Steve Parson	204 Moulton St			Hamilton	MA	01936	US		Dear Uncle Steve - Thinking of you.  We were so sorry to hear that Lea passed away.   Wishing you much peace during this difficult time. From Love your favorite God Son and Michael	false		
113-0564998-9329861	27102966057282	2020-11-19T02:05:00+00:00	2020-11-18T18:05:00-08:00	2020-11-19T02:24:12+00:00	2020-11-21T07:59:59+00:00	-2	s7f4qldccvhsp4s@marketplace.amazon.com	Tracy Barnes	+1 619-854-2705 ext. 38703	ABM022	Delivery by Saturday | Purple Extravagance Bouquet by Arabella Bouquets	1	0	1	Expedited	Bette Ryan	803 HILLSIDE AVE			LAKE WALES	FL	33853-3451	US		Enjoy your gift!  Happy Birthday to the most FABULOUS MOM IN THE WORLD🎉🍾💋 From Tracy Barnes	false		
112-5799928-8837030	14349884530514	2020-11-19T02:01:27+00:00	2020-11-18T18:01:27-08:00	2020-11-19T02:25:19+00:00	2020-11-21T07:59:59+00:00	-2	p9vmg5b18wwrmsy@marketplace.amazon.com	virginia karl	+1 480-618-5344 ext. 75071	ABR012	Delivery by Friday | Arabella Farm Direct Bouquet of 18 Fresh Cut Pink Roses with a Free Glass Vase	1	0	1	Expedited	Keri Gallo	189 N PARK DR			NEW MILFORD	NJ	07646-2817	US		My thoughts and prayers remain w you...dear cousin and special friend....Love, Ginger From virginia karl	false		
114-9335667-8840255	19054963984970	2020-11-19T02:03:33+00:00	2020-11-18T18:03:33-08:00	2020-11-19T02:27:56+00:00	2020-11-21T07:59:59+00:00	-2	q809d38jr8c06sb@marketplace.amazon.com	Douglas Gibson	+1 213-442-1463 ext. 08414	ABM010	Delivery by Friday | The Everlasting Fling Bouquet by Arabella Bouquets with a Free Designer Glass Vase	1	0	1	Standard	Eileen Abruzzese	6 CHERRY ST			MEDFORD	MA	02155-2701	US		Thinking of you, Mom  Love Trish and Doug From Douglas and Trish Gibson	false		
114-0728835-6127410	23087565235882	2020-11-19T02:07:50+00:00	2020-11-18T18:07:50-08:00	2020-11-19T02:33:39+00:00	2020-11-21T07:59:59+00:00	-2	b91z7brbvl0ptbr@marketplace.amazon.com	John Connelly	+1 480-618-5344 ext. 42494	ABR0055	Delivery by Saturday | Arabella Farm Direct Bouquet of 12 Stems of Fresh Cut Hot Pink Roses in a Free Designer Glass Vase	1	0	1	Expedited	Debbie Wheeler	13 WHISKEY RD			CORAM	NY	11727-2712	US		Get well soon! From Love John, Ginger, Matthew, Lena & Mary	false		
111-7256593-8244204	09968521402346	2020-11-19T02:05:24+00:00	2020-11-18T18:05:24-08:00	2020-11-19T02:35:10+00:00	2020-11-21T07:59:59+00:00	-2	jf6pr4g2sdjkn9m@marketplace.amazon.com	Caitlin Galliker	+1 929-436-4790 ext. 58324	ABM022	Delivery by Saturday | Purple Extravagance Bouquet by Arabella Bouquets	1	0	1	Expedited	Polly Galliker/Mom	22003 BRIDGE RUN CT			ESTERO	FL	33928-1913	US			false		
113-1413507-0189804	23170333498506	2020-11-19T02:07:12+00:00	2020-11-18T18:07:12-08:00	2020-11-19T02:35:38+00:00	2020-11-21T07:59:59+00:00	-2	7cxqsvmj88n4yx8@marketplace.amazon.com	Christina	+1 480-618-5344 ext. 10583	ABM020	Delivery by Monday | The Sunset Bouquet by Arabella Bouquets	1	0	1	Expedited	Recho Nalutaaya	3330 GUNTHER AVE			BRONX	NY	10469-2728	US		Happy belated birthday aunt Racheal. ☺️Out of sight isn’t out of mind. From Chris	false		
113-1234004-5857032	05393933534530	2020-11-19T02:20:19+00:00	2020-11-18T18:20:19-08:00	2020-11-19T02:46:52+00:00	2020-11-21T07:59:59+00:00	-2	tn13sbl9gw7zzmk@marketplace.amazon.com	Kelly	+1 602-671-6610 ext. 71129	ABR0033	Delivery by Saturday | Arabella Farm Direct Bouquet of 12 Fresh Cut Orange Roses with a Free Glass Vase	1	0	1	Expedited	Shirley Hewitt- Lewis	7121 MINNA RD			BALTIMORE	MD	21207-4460	US		Happy 70 th BIRTHDAY mom! I love you and when you see these beautiful Rose's think of me being right there with you! From Kelly	false		
111-7547546-9405849	45890623719898	2020-11-19T02:17:52+00:00	2020-11-18T18:17:52-08:00	2020-11-19T02:47:29+00:00	2020-11-21T07:59:59+00:00	-2	68nlktvx3g5g7jq@marketplace.amazon.com	Emmanuel Garza	+1 619-854-2705 ext. 82013	ABM022	Delivery by Saturday | Purple Extravagance Bouquet by Arabella Bouquets	1	0	1	Expedited	Emmanuel Garza	413 York Rd			Schererville	Indiana	46375	US			false		
114-0496060-7786647	45720952702898	2020-11-19T02:22:39+00:00	2020-11-18T18:22:39-08:00	2020-11-19T02:52:26+00:00	2020-11-21T07:59:59+00:00	-2	tym5sm6bzmwmgqk@marketplace.amazon.com	Alyse Bartlemay	+1 415-851-9136 ext. 05600	ABM022	Delivery by Saturday | Purple Extravagance Bouquet by Arabella Bouquets	1	0	1	Expedited	Nancy Witt	1949 STIGLEMAN RD			RICHMOND	IN	47374-9450	US		Happy 60th! I love and miss you so much. From Alyse Bartlemay	false		
114-9286888-5905853	60559149370506	2020-11-19T02:25:31+00:00	2020-11-18T18:25:31-08:00	2020-11-19T02:54:09+00:00	2020-11-21T07:59:59+00:00	-2	ll1vjqn57rgdyqh@marketplace.amazon.com	Delisa Adams	+1 213-442-1463 ext. 68682	ABR0055	Delivery by Saturday | Arabella Farm Direct Bouquet of 12 Stems of Fresh Cut Hot Pink Roses in a Free Designer Glass Vase	1	0	1	Expedited	Camia Parker	123 WHITE CAP LN			GARNER	NC	27529-3978	US		Something to brighten your day! From Delisa Lawson	false		
114-0911676-1230651	66101999075570	2020-11-19T02:25:18+00:00	2020-11-18T18:25:18-08:00	2020-11-19T02:54:53+00:00	2020-11-21T07:59:59+00:00	-2	z5q610qgz38k21f@marketplace.amazon.com	Mr. Robert White	+1 480-618-5344 ext. 61017	ABR001	Delivery by Saturday | Arabella Bouquets 12 Stems of Fresh Cut Red Roses in a Free Designer Glass Vase	1	0	1	Expedited	Robert White	7505 Eagle Drive			Santee	CA	92071-7521	US		Dear Jane, congratulations on your exciting 6 month milestone! From Love Robert	false		
113-0608211-7586631	00812565344042	2020-11-19T02:34:06+00:00	2020-11-18T18:34:06-08:00	2020-11-19T03:03:34+00:00	2020-11-21T07:59:59+00:00	-2	bgdvngxyfngwvks@marketplace.amazon.com	Emily Bursch	+1 619-854-2705 ext. 09723	ABR0022	Delivery by Friday | Arabella Farm Direct Bouquet of 12 Fresh Cut Pink Roses with a Free Glass Vase	1	0	1	Expedited	Katie Goodthunder	206 GALLAGER ST			MORGAN	MN	56266-1470	US		Happy birthday, Katie! I’m sorry they’re late this year. Can I use the campaign as an excuse?? I love you bunches! I hope your day was special! From Emily Bursch	false		
114-9386137-1852266	56520117849138	2020-11-19T02:38:30+00:00	2020-11-18T18:38:30-08:00	2020-11-19T03:08:38+00:00	2020-11-21T07:59:59+00:00	-2	v63h6qtld0f8m4q@marketplace.amazon.com	AJ Thompson	+1 602-671-6610 ext. 32848	ABR0055	Delivery by Saturday | Arabella Farm Direct Bouquet of 12 Stems of Fresh Cut Hot Pink Roses in a Free Designer Glass Vase	1	0	1	Expedited	Sharon Brookhart	226 TREASURE DR			HOUSTON	TX	77076-2509	US			false		
111-8425743-4068243	41851444013194	2020-11-19T02:42:38+00:00	2020-11-18T18:42:38-08:00	2020-11-19T03:12:29+00:00	2020-11-21T07:59:59+00:00	-2	9sl3hftjkhx5rk9@marketplace.amazon.com	cesar vanegas	+1 213-442-1463 ext. 34381	ABR001	Delivery by Saturday | Arabella Bouquets 12 Stems of Fresh Cut Red Roses in a Free Designer Glass Vase	1	0	1	Expedited	Alexis and Logan	519 5th St west			Hastings	MN	55033	US			false		
112-6939532-8029805	14273702657106	2020-11-19T02:44:36+00:00	2020-11-18T18:44:36-08:00	2020-11-19T03:14:47+00:00	2020-11-21T07:59:59+00:00	-2	6vb3n8rdhb4whtm@marketplace.amazon.com	gerardo	+1 619-854-2705 ext. 56312	ABR0055	Delivery by Saturday | Arabella Farm Direct Bouquet of 12 Stems of Fresh Cut Hot Pink Roses in a Free Designer Glass Vase	1	0	1	Expedited	Victoria	3600 EISENHOWER AVE			BAKERSFIELD	CA	93309-6162	US			false		
114-3730932-4158638	56274011593818	2020-11-19T02:55:56+00:00	2020-11-18T18:55:56-08:00	2020-11-19T03:21:25+00:00	2020-11-21T07:59:59+00:00	-2	rwtn57dgn44hmqh@marketplace.amazon.com	Jane Farrell	+1 619-854-2705 ext. 44070	ABR0033	Delivery by Saturday | Arabella Farm Direct Bouquet of 12 Fresh Cut Orange Roses with a Free Glass Vase	1	0	1	Expedited	Ann Roemer	97 MARINDALE AVE			LOGAN	UT	84321-4443	US		Happy Birthday, mi amiga.  Enjoy!  Love, Jane From Jane	false		
111-3969916-0324239	38422450736498	2020-11-19T02:58:20+00:00	2020-11-18T18:58:20-08:00	2020-11-19T03:25:19+00:00	2020-11-21T07:59:59+00:00	-2	msj65p01yplt5kt@marketplace.amazon.com	susan conforti	+1 213-442-1463 ext. 68574	ABR0055	Delivery by Saturday | Arabella Farm Direct Bouquet of 12 Stems of Fresh Cut Hot Pink Roses in a Free Designer Glass Vase	1	0	1	Expedited	Lucy tang	54 SQUIRREL LN			LEVITTOWN	NY	11756-3613	US		Enjoy your gift! From susan conforti michael guzman	false		
114-9914675-5892230	42068500209218	2020-11-19T03:00:42+00:00	2020-11-18T19:00:42-08:00	2020-11-19T03:25:26+00:00	2020-11-21T07:59:59+00:00	-2	hvvp6c283qs1kjt@marketplace.amazon.com	Olivia Spicer	+7034704706	ABR0055	Delivery by Saturday | Arabella Farm Direct Bouquet of 12 Stems of Fresh Cut Hot Pink Roses in a Free Designer Glass Vase	1	0	1	Expedited	JD Thorpe	602 MAYFAIR LN			SAN ANGELO	TX	76901-5134	US		In Honor of Sweet Elizabeth. Congratulations! From Paul & Olivia Spicer	false		
114-3441739-4062652	47294698263426	2020-11-19T03:13:41+00:00	2020-11-18T19:13:41-08:00	2020-11-19T03:42:04+00:00	2020-11-21T07:59:59+00:00	-2	2jtg16vnz5yvqkg@marketplace.amazon.com	Erin Cousins	+1 602-671-6610 ext. 88624	ABM020	Delivery by Monday | The Sunset Bouquet by Arabella Bouquets	1	0	1	Expedited	David & Reeni Dowd	117 LOVERS LOOP RD			ASHEVILLE	NC	28803-8522	US		Sending these flowers, with red roses in honor of Rae Elle, wishing we could be there to wrap our arms around each of you. We love you guys so much! From Erin, Curtis, Rylie, & Jackson	false		
111-5153109-0626653	58829799202698	2020-11-19T03:16:35+00:00	2020-11-18T19:16:35-08:00	2020-11-19T03:46:56+00:00	2020-11-21T07:59:59+00:00	-2	22791qgg8zlgkcn@marketplace.amazon.com	mark lambert	+1 619-854-2705 ext. 48453	ABM021	Delivery by Monday | The Joyous Bouquet by Arabella Bouquets	1	0	1	Expedited	Mary Lee Lambert	36297 REGINAULT ST			WILLARDS	MD	21874-1109	US			false		
114-0936937-2559425	41549411239418	2020-11-19T03:24:19+00:00	2020-11-18T19:24:19-08:00	2020-11-19T03:48:14+00:00	2020-11-21T07:59:59+00:00	-2	yngk0j0200n3x42@marketplace.amazon.com	Terri Mackie	+1 929-436-4790 ext. 11695	ABR0033	Delivery by Saturday | Arabella Farm Direct Bouquet of 12 Fresh Cut Orange Roses with a Free Glass Vase	1	0	1	Expedited	Ashley Mottu-Lambaria	3523 SABLECHASE DR			HOUSTON	TX	77014-2807	US		Happy Birthday Song.  (Singing to you).  You deserve so much.  Have the best day ever.  Love you From Mom and Boomer	false		
111-7432092-3741869	60813456385594	2020-11-19T03:18:15+00:00	2020-11-18T19:18:15-08:00	2020-11-19T03:48:53+00:00	2020-11-21T07:59:59+00:00	-2	22791qgg8zlgkcn@marketplace.amazon.com	mark lambert	+1 929-436-4790 ext. 96564	ABM021	Delivery by Monday | The Joyous Bouquet by Arabella Bouquets	1	0	1	Expedited	Diane B Lambert	7654 GREEN LEWIS RD			WILLARDS	MD	21874-1264	US			false		
112-8939501-0163449	50651592744570	2020-11-19T03:49:30+00:00	2020-11-18T19:49:30-08:00	2020-11-19T03:50:28+00:00	2020-11-21T07:59:59+00:00	-2	lsnckwhy0305twv@marketplace.amazon.com	Jewell Watkins	+1 602-671-6610 ext. 23386	ABR0055	Delivery by Saturday | Arabella Farm Direct Bouquet of 12 Stems of Fresh Cut Hot Pink Roses in a Free Designer Glass Vase	1	0	1	Expedited	Teresa Hrabski	750 N DEARBORN ST APT 2704			CHICAGO	IL	60654-5383	US		Enjoy your gift! From Mom	false		
113-7077803-9030652	60314270033610	2020-11-19T03:27:16+00:00	2020-11-18T19:27:16-08:00	2020-11-19T03:51:56+00:00	2020-11-21T07:59:59+00:00	-2	xclvl5gmxwt327t@marketplace.amazon.com	Air Link	+1 619-854-2705 ext. 49818	ABR0055	Delivery by Saturday | Arabella Farm Direct Bouquet of 12 Stems of Fresh Cut Hot Pink Roses in a Free Designer Glass Vase	1	0	1	Expedited	Moms	13331 KUYKENDAHL RD			HOUSTON	TX	77090-6427	US		Have a Blessed Day and May Lord Shiva Continue to Bless you with positivity, strength and good health From Lakshmi Singh	false		
114-7217948-3288240	31832517931762	2020-11-19T03:24:58+00:00	2020-11-18T19:24:58-08:00	2020-11-19T03:53:27+00:00	2020-11-21T07:59:59+00:00	-2	4yyxcjhscnnjptb@marketplace.amazon.com	tammy	+1 213-442-1463 ext. 77486	ABM022	Delivery by Saturday | Purple Extravagance Bouquet by Arabella Bouquets	1	0	1	Expedited	Barbara Bradford	944 Providence Pl			Redlands	CA	92373	US		Happy birthday   Love always From tammy	false		
114-7352116-0958659	54393889299466	2020-11-19T03:28:22+00:00	2020-11-18T19:28:22-08:00	2020-11-19T03:56:54+00:00	2020-11-21T07:59:59+00:00	-2	2jtg16vnz5yvqkg@marketplace.amazon.com	Erin Cousins	+1 480-618-5344 ext. 42693	ABM022	Delivery by Saturday | Purple Extravagance Bouquet by Arabella Bouquets	1	0	1	Expedited	David and Sarah Dowd	3434 FOREST GLEN DR			CHARLESTON	SC	29414-7540	US		We wanted you to know we were thinking about you! We love you two so much! From Curtis, Erin, Jackson, & Rylie	false		
114-0894432-3607435	46825001756362	2020-11-19T03:27:46+00:00	2020-11-18T19:27:46-08:00	2020-11-19T03:58:20+00:00	2020-11-21T07:59:59+00:00	-2	vcp74d20q973sgn@marketplace.amazon.com	Mohamed said Abdelnaby	+1 415-851-9136 ext. 73223	ABR0055	Delivery by Saturday | Arabella Farm Direct Bouquet of 12 Stems of Fresh Cut Hot Pink Roses in a Free Designer Glass Vase	1	0	1	Expedited	Mohamed Abdelnaby	2 WASHBURN PL APT 204			CALDWELL	NJ	07006-5628	US			false		
114-0555487-2985812	20587944315426	2020-11-19T03:29:30+00:00	2020-11-18T19:29:30-08:00	2020-11-19T03:58:52+00:00	2020-11-21T07:59:59+00:00	-2	pqzw2g8bvf9705y@marketplace.amazon.com	Traci Schweikert	+1 480-618-5344 ext. 12342	ABM020	Delivery by Monday | The Sunset Bouquet by Arabella Bouquets	1	0	1	Expedited	Mary Schweikert	79 CUMBERLAND AVE			VERONA	NJ	07044-2106	US		Happy Birthday! We love you! Beau, Traci, Jaeger and Hayden From Traci Schweikert	false		
112-9379010-5489840	17170305329282	2020-11-19T03:38:46+00:00	2020-11-18T19:38:46-08:00	2020-11-19T04:08:38+00:00	2020-11-21T07:59:59+00:00	-2	9s051fnvb1716nt@marketplace.amazon.com	Debbie Sisson	+1 213-442-1463 ext. 67775	ABR001	Delivery by Saturday | Arabella Bouquets 12 Stems of Fresh Cut Red Roses in a Free Designer Glass Vase	1	0	1	Expedited	Delores Caspers	8301 PALOMAS AVE NE UNIT 232	PALOMA		ALBUQUERQUE	NM	87109-5252	US		Happy birthday Aunt Dolly Love Debbie Macie and Wesley From Debbie Sisson	false		
113-6800320-0679437	15874905337714	2020-11-19T03:40:23+00:00	2020-11-18T19:40:23-08:00	2020-11-19T04:09:06+00:00	2020-11-21T07:59:59+00:00	-2	sk5qcldrzjw3bff@marketplace.amazon.com	Earleteya M Cottrell	+1 602-671-6610 ext. 42931	ABR0055	Delivery by Saturday | Arabella Farm Direct Bouquet of 12 Stems of Fresh Cut Hot Pink Roses in a Free Designer Glass Vase	1	0	1	Expedited	Pamela Ware	831 WESTMINSTER DR			ORANGE PARK	FL	32073-5062	US		Happy birthday Pam! ❤ Love, Kenya, Ed, Xavier, Trista, & Joshua From The Cottrell's	false		
114-3762354-9753055	45379439661658	2020-11-19T03:47:00+00:00	2020-11-18T19:47:00-08:00	2020-11-19T04:15:43+00:00	2020-11-21T07:59:59+00:00	-2	qvrwsn8qdhbh1qg@marketplace.amazon.com	jason berman	+1 619-854-2705 ext. 58570	ABM022	Delivery by Saturday | Purple Extravagance Bouquet by Arabella Bouquets	1	0	1	Expedited	Celine Berman	4480 LAKE RD			MIAMI	FL	33137-3338	US		Happy Birthday! From Jason and Family!	false		
112-4569905-3057849	47832989784002	2020-11-19T03:59:08+00:00	2020-11-18T19:59:08-08:00	2020-11-19T04:26:06+00:00	2020-11-21T07:59:59+00:00	-2	rknkrzzx01k9pw8@marketplace.amazon.com	Michelle Mark Krebs	+1 602-671-6610 ext. 11722	ABR0033	Delivery by Saturday | Arabella Farm Direct Bouquet of 12 Fresh Cut Orange Roses with a Free Glass Vase	1	0	1	Expedited	Lorin and Susan Spak	1100 S COLLIER BLVD PH			MARCO ISLAND	FL	34145-6433	US		Wishing you a blessed Thanksgiving! From Love, Michelle & Alison (& Family) From Love, Michelle & Alison (& Family)	false		
112-9623424-9954611	21206006312450	2020-11-19T03:57:00+00:00	2020-11-18T19:57:00-08:00	2020-11-19T04:26:10+00:00	2020-11-21T07:59:59+00:00	-2	19jnkpr9b648mxf@marketplace.amazon.com	heidi	92284862176	ABR004	Delivery by Monday | Arabella Farm Direct Bouquet of 12 Fresh Cut Yellow Roses with a Free Glass Vase	1	0	1	Expedited	Emily Forsyth	1228 MAUMEE AVE			ALLENTOWN	PA	18103-4228	US		Happy Birthday to the most beautiful, resilient, and wonderful woman on earth. I love you so incredibly much and wish I could celebrate with you in person, on your special day. Happy Birthday Aunty Emmy!! From Heidi Ho	false		
112-9471153-5153062	70171891821522	2020-11-19T03:57:46+00:00	2020-11-18T19:57:46-08:00	2020-11-19T04:26:25+00:00	2020-11-21T07:59:59+00:00	-2	qhr5nth7nt3vq87@marketplace.amazon.com	Samira Clarke	+1 619-854-2705 ext. 28566	ABR0033	Delivery by Saturday | Arabella Farm Direct Bouquet of 12 Fresh Cut Orange Roses with a Free Glass Vase	1	0	1	Standard	Linda Spalding	14 OVERHILL RD			FOREST HILLS	NY	11375-6022	US			false		
112-1426933-9102643	62401229329850	2020-11-19T04:01:49+00:00	2020-11-18T20:01:49-08:00	2020-11-19T04:28:17+00:00	2020-11-21T07:59:59+00:00	-2	1nh754cljxkcvgc@marketplace.amazon.com	Dylan	+1 602-671-6610 ext. 05916	ABR001	Delivery by Saturday | Arabella Bouquets 12 Stems of Fresh Cut Red Roses in a Free Designer Glass Vase	1	0	1	Expedited	Dylan Reich	400 LONGHORN CT			LUSBY	MD	20657-3297	US		You're the light in my world that shines through all of life's darkest times you are my partner in crime and ill always be here for you From Your husband	false		
111-5692523-0893820	33720004583226	2020-11-19T04:09:26+00:00	2020-11-18T20:09:26-08:00	2020-11-19T04:32:26+00:00	2020-11-21T07:59:59+00:00	-2	yjhnlmgvhb0n3g8@marketplace.amazon.com	Christina Pelachyk	+1 602-671-6610 ext. 55016	ABM010	Delivery by Friday | The Everlasting Fling Bouquet by Arabella Bouquets with a Free Designer Glass Vase	1	0	1	Expedited	The Hoffman Family	233 N MAIN ST			CRYSTAL LAKE	IL	60014-4434	US		We’re thankful to have shared memories with Papa. Sending love. From Christina & Scott	false		
112-7979705-1588211	66118130498386	2020-11-19T04:06:43+00:00	2020-11-18T20:06:43-08:00	2020-11-19T04:36:42+00:00	2020-11-21T07:59:59+00:00	-2	84dv2p96wg0ltbh@marketplace.amazon.com	eva sandfort	+1 619-854-2705 ext. 47552	ABM010	Delivery by Friday | The Everlasting Fling Bouquet by Arabella Bouquets with a Free Designer Glass Vase	1	0	1	Expedited	Judy McCravy	134 LOMOND LN			SPARTANBURG	SC	29307-3819	US		Dear Judy, We send our deepest sympathy with the passing of Hearon. You are in our hearts and prayers. Much love, Eva and John From Eva and John Sandfort	false		
114-1203526-2594626	21244018847514	2020-11-19T04:16:40+00:00	2020-11-18T20:16:40-08:00	2020-11-19T04:40:57+00:00	2020-11-21T07:59:59+00:00	-2	v7z0wl3hjxjm5p4@marketplace.amazon.com	Judy Kelly	+1 929-436-4790 ext. 44495	ABR0055	Delivery by Saturday | Arabella Farm Direct Bouquet of 12 Stems of Fresh Cut Hot Pink Roses in a Free Designer Glass Vase	1	0	1	Standard	Gloria Sverchek	188 BRET HARTE RD			SAN RAFAEL	CA	94901-5249	US			false		
113-2312530-6149019	69256051350234	2020-11-19T04:23:36+00:00	2020-11-18T20:23:36-08:00	2020-11-19T04:51:05+00:00	2020-11-21T07:59:59+00:00	-2	l43mdqns4dsrxsm@marketplace.amazon.com	Kent Hooper	+1 929-436-4790 ext. 08704	ABR0022	Delivery by Friday | Arabella Farm Direct Bouquet of 12 Fresh Cut Pink Roses with a Free Glass Vase	1	0	1	Expedited	Suzanne Roberts	4259 COLUMBIA PIKE			FRANKLIN	TN	37064-9607	US		Suzanne, you are an incredible friend that I'm grateful for. Thank you for the delicious meal and treats. You have no idea how much that meant to us! Love, The Hoopers. Enjoy the pink!! :) From Kent Hooper	false		
114-0396762-4508205	15289035480738	2020-11-19T04:32:58+00:00	2020-11-18T20:32:58-08:00	2020-11-19T05:00:42+00:00	2020-11-21T07:59:59+00:00	-2	v7z0wl3hjxjm5p4@marketplace.amazon.com	Judy Kelly	+1 619-854-2705 ext. 96337	ABR0033	Delivery by Saturday | Arabella Farm Direct Bouquet of 12 Fresh Cut Orange Roses with a Free Glass Vase	1	0	1	Standard	Lynn Keat	5206 S MEAD ST			SEATTLE	WA	98118-2937	US		Lynn and Rick, Thank you for sharing many chapters of your great adventure with us and loving us. From Judy & Bill	false		
113-6373364-3796227	53469407450002	2020-11-19T04:32:19+00:00	2020-11-18T20:32:19-08:00	2020-11-19T05:01:41+00:00	2020-11-21T07:59:59+00:00	-2	fwtf0rl3njfq6xr@marketplace.amazon.com	dilip bachoo	+1 213-442-1463 ext. 89414	ABR0055	Delivery by Saturday | Arabella Farm Direct Bouquet of 12 Stems of Fresh Cut Hot Pink Roses in a Free Designer Glass Vase	1	0	1	Expedited	dilip bachoo	3451 32ND AVE N			SAINT PETERSBURG	FL	33713-2415	US			false		
112-1754961-3825815	07154893501482	2020-11-19T04:51:49+00:00	2020-11-18T20:51:49-08:00	2020-11-19T05:21:32+00:00	2020-11-21T07:59:59+00:00	-2	vrqlq9j373s6whh@marketplace.amazon.com	David Simmen	+1 929-436-4790 ext. 90328	ABM010	Delivery by Friday | The Everlasting Fling Bouquet by Arabella Bouquets with a Free Designer Glass Vase	1	0	1	Expedited	Martha Simmen	1464 Highland Villa Dr			Pittsburgh	PA	15234	US		Love you mom. Hang in there. From David Simmen	false		
114-7828888-7349806	20444743872058	2020-11-19T05:01:55+00:00	2020-11-18T21:01:55-08:00	2020-11-19T05:31:22+00:00	2020-11-21T07:59:59+00:00	-2	wyh66tnpwwhyqfx@marketplace.amazon.com	Cheryl Heuett	+1 213-442-1463 ext. 26266	ABM010	Delivery by Friday | The Everlasting Fling Bouquet by Arabella Bouquets with a Free Designer Glass Vase	1	0	1	Expedited	Patty Arnzen	381 GREENCREEK RD			COTTONWOOD	ID	83522-5033	US			false		
111-9391176-7106665	15219454869618	2020-11-19T05:10:04+00:00	2020-11-18T21:10:04-08:00	2020-11-19T05:36:38+00:00	2020-11-21T07:59:59+00:00	-2	x79ccr6tz46bw0p@marketplace.amazon.com	Tyler Ross	+1 602-671-6610 ext. 01635	ABR014	Arabella Bouquets 18 Stems of Fresh Cut White Roses in a Free Designer Glass Vase	1	0	1	Standard	Ms. Phyllis Newman	117 LONG SANDS RD UNIT D 306			YORK	ME	03909-1154	US		Dear Phyllis,  We are thinking of you and Pop. We love and miss you.   Sincerely, Tyler, Becky, Layla & Rayna From Tyler Ross	false		
111-7598727-6139461	45169429323194	2020-11-19T05:25:54+00:00	2020-11-18T21:25:54-08:00	2020-11-19T05:54:03+00:00	2020-11-21T07:59:59+00:00	-2	092z7w3b02stq50@marketplace.amazon.com	Kristen Dill	+1 480-618-5344 ext. 39284	ABM025	Delivery by Monday | The Fell for You Bouquet by Arabella Bouquets	1	0	1	Expedited	Sandy Young	810 TOWNE SQUARE DR			FREMONT	NE	68025-7000	US		Happy Birthday.  Love you, and Miss you. Kristen, JM, Lucas, Max, Giovanni and Siena From Kristen Dill	false		
114-1139427-9395405	59885853032210	2020-11-19T05:32:59+00:00	2020-11-18T21:32:59-08:00	2020-11-19T06:03:20+00:00	2020-11-21T07:59:59+00:00	-2	gm7ql2thyyzpzx0@marketplace.amazon.com	Roseanne Silva	+1 213-442-1463 ext. 89246	ABR001	Delivery by Saturday | Arabella Bouquets 12 Stems of Fresh Cut Red Roses in a Free Designer Glass Vase	1	0	1	Expedited	Roseanne Silva	228 W. Swissvale Ave.			PITTSBURGH	PA	15218	US			false		
111-0927914-8680235	67042361148722	2020-11-19T05:38:04+00:00	2020-11-18T21:38:04-08:00	2020-11-19T06:07:02+00:00	2020-11-21T07:59:59+00:00	-2	17wq0w9f79zsg2c@marketplace.amazon.com	Sheila Walker	+1 602-671-6610 ext. 77233	ABR0022	Delivery by Friday | Arabella Farm Direct Bouquet of 12 Fresh Cut Pink Roses with a Free Glass Vase	1	0	1	Expedited	KATHRYN TIPLICK	14563 TWIN OAKS DR			CARMEL	IN	46032-9727	US		Thank you for the candy. It is all gone. I look forward to Thanksgiving with you. From Aunt Sheila	true		Business Price
114-6405173-0808227	32943025095402	2020-11-19T05:36:39+00:00	2020-11-18T21:36:39-08:00	2020-11-19T06:07:33+00:00	2020-11-21T07:59:59+00:00	-2	ltvp0j3d3gc7r7r@marketplace.amazon.com	ross witter	+1 213-442-1463 ext. 17709	ABM022	Delivery by Saturday | Purple Extravagance Bouquet by Arabella Bouquets	1	0	1	Expedited	ross witter	10658 OAKTON RIDGE CT			OAKTON	VA	22124-1642	US			false		
113-7301765-4008204	54274812172386	2020-11-19T05:44:32+00:00	2020-11-18T21:44:32-08:00	2020-11-19T06:15:05+00:00	2020-11-21T07:59:59+00:00	-2	4m2bb4dhjjsx8z9@marketplace.amazon.com	Kathleen M. Burke	+1 415-851-9136 ext. 74627	ABR013	Delivery by Monday | Arabella Farm Direct Bouquet of 18 Fresh Cut Yellow Roses with a Free Glass Vase	1	0	1	Expedited	Kathleen M. Burke	2317 Valley Dr			Alexandria	VA	22302-3223	US			false		
113-1563281-9066666	61622448854578	2020-11-19T06:38:01+00:00	2020-11-18T22:38:01-08:00	2020-11-19T07:03:55+00:00	2020-11-21T07:59:59+00:00	-2	8hjsgls2wh0sh56@marketplace.amazon.com	Jirafe	+1 929-436-4790 ext. 69111	ABR001	Delivery by Saturday | Arabella Bouquets 12 Stems of Fresh Cut Red Roses in a Free Designer Glass Vase	1	0	1	Expedited	Cassandra Smith	1502 HARVARD ST APT 7			BANDON	OR	97411-9142	US		The only limit to our realization of tomorrow will be our doubts of today.   XO From M.	false		
111-9231191-6832225	51336829139514	2020-11-19T07:42:40+00:00	2020-11-18T23:42:40-08:00	2020-11-19T08:09:47+00:00	2020-11-21T07:59:59+00:00	-2	ntxk636c9pb0jb4@marketplace.amazon.com	Kingsley Smith	+1 213-442-1463 ext. 98211	ABR0022	Delivery by Friday | Arabella Farm Direct Bouquet of 12 Fresh Cut Pink Roses with a Free Glass Vase	1	0	1	Expedited	Kingsley Smith	72625 HEDGEHOG ST			PALM DESERT	CA	92260-3409	US			false		
114-1089530-4305862	48360751228146	2020-11-19T08:40:41+00:00	2020-11-19T00:40:41-08:00	2020-11-19T09:10:38+00:00	2020-11-24T07:59:59+00:00	-5	71pn7004sygywj5@marketplace.amazon.com	Brent d Robinett	+1 602-671-6610 ext. 18656	ABM022	Delivery by Saturday | Purple Extravagance Bouquet by Arabella Bouquets	1	0	1	Expedited	Sharon Robinett	5611 122ND AVE SE			SNOHOMISH	WA	98290-5518	US			false		
