order-id	order-item-id	purchase-date	payments-date	reporting-date	promise-date	days-past-promise	buyer-email	buyer-name	buyer-phone-number	sku	product-name	quantity-purchased	quantity-shipped	quantity-to-ship	ship-service-level	recipient-name	ship-address-1	ship-address-2	ship-address-3	ship-city	ship-state	ship-postal-code	ship-country	gift-wrap-type	gift-message-text	is-business-order	purchase-order-number	price-designation
112-9208604-4686642	33687535966314	2020-11-18T18:28:04+00:00	2020-11-18T10:28:04-08:00	2020-11-18T18:56:25+00:00	2020-11-21T07:59:59+00:00	-1	5jbk341vnlhgmv0@marketplace.amazon.com	Dave Hebert	+1 619-854-2705 ext. 08006	ABM022	Delivery by Thursday| Purple Extravagance Bouquet by Arabella Bouquets	2	0	2	Expedited	Nancy Hebert	712 SIBOLD CANYON RD			TENMILE	OR	97481-9741	US			false		
113-2909196-6345863	46788047388090	2020-11-18T18:56:06+00:00	2020-11-18T10:56:06-08:00	2020-11-18T19:25:35+00:00	2020-11-21T07:59:59+00:00	-1	bd7dttrwtzv3d81@marketplace.amazon.com	Nicole Coffey	+1 602-671-6610 ext. 03383	ABM022	Delivery by Saturday | Purple Extravagance Bouquet by Arabella Bouquets	1	0	1	Expedited	Shelley Jackson	1095 EDDIE DR			AUBURN	MI	48611-9422	US		Happy Birthday mother dearest!! We love you and can't wait to see you soon! From Nicole, Ty, and Marjorie &#60;3	false		
113-1448037-3165839	51533387641506	2020-11-18T19:20:40+00:00	2020-11-18T11:20:40-08:00	2020-11-18T19:44:22+00:00	2020-11-21T07:59:59+00:00	-1	ngdln322j02jwb6@marketplace.amazon.com	Dr. Saku W Gunasegaram	+1 619-854-2705 ext. 67661	ABR004	Delivery by Monday | Arabella Farm Direct Bouquet of 12 Fresh Cut Yellow Roses with a Free Glass Vase	3	2	1	Expedited	STACI STAY SPRY THANKSGIVING 2020 FROM DR SAKU	953 NATIONAL ROAD CHRISTMAS IN JULY 2020	THANKFUL FOR STACI SPRY SHIPPER PAR EXCELLENCE FOREVER		WHEELING	WV	26003	US		TO:  STACI SPRY FROM  :DR SAKU  _THIS_ THANKSGIVING DAY CALENDAR YEAR 2020 AND _ALL_ THROUGHOUT _EVERY_ YEAR FOR DECADES :) I [DR SAKU] _REMAIN_ FTHANKFUL FOR _YOU_ THE _BEST_+MOST TRUSTWORTHY SHIPPER _EVER_! ON PLANET EARTH! From Dr. Saku Gunasegaram	false		
113-0044085-6457850	67882593164058	2020-11-18T19:28:13+00:00	2020-11-18T11:28:13-08:00	2020-11-18T19:56:25+00:00	2020-11-21T07:59:59+00:00	-1	w56xplg4gfk7fbc@marketplace.amazon.com	Channsomaly	+1 929-436-4790 ext. 04413	ABR0022	Delivery by Friday | Arabella Farm Direct Bouquet of 12 Fresh Cut Pink Roses with a Free Glass Vase	1	0	1	Expedited	Amy Esquibel	7036 DEL CAMINO CT			LONGMONT	CO	80504-9401	US			false		
112-0187043-3176237	21525260136210	2020-11-18T20:59:32+00:00	2020-11-18T12:59:32-08:00	2020-11-18T21:26:38+00:00	2020-11-21T07:59:59+00:00	-1	ppscpym2n1cc1vy@marketplace.amazon.com	Annabel Amir	+1 619-854-2705 ext. 47665	ABM022	Delivery by Saturday | Purple Extravagance Bouquet by Arabella Bouquets	1	0	1	Expedited	Dawn Castle	2922 W CARSON RD			PHOENIX	AZ	85041-6339	US		Dear Grandma Dawn,  Happy Birthday! We love you. Today is a joyous occasion because a wonderful person like you was born. God bless today and you. Lots of love and hugs! From Annabel, Ayde, Alexia and Adam Amir	false		
111-7128032-5820225	60502415527282	2020-11-18T23:00:00+00:00	2020-11-18T15:00:00-08:00	2020-11-18T23:17:30+00:00	2020-11-21T07:59:59+00:00	-1	jsc4c5ybhn84q9t@marketplace.amazon.com	raphael jabon	+1 415-851-9136 ext. 72366	ABM022	Delivery by Saturday | Purple Extravagance Bouquet by Arabella Bouquets	1	0	1	Expedited	Melanie Hanson	15724 169TH AVE SE			MONROE	WA	98272-2821	US			false		
111-8222899-4258607	54367378171858	2020-11-18T23:28:01+00:00	2020-11-18T15:28:01-08:00	2020-11-18T23:57:44+00:00	2020-11-21T07:59:59+00:00	-1	kndvml8wkd3rwyz@marketplace.amazon.com	Deirdre Kennedy	+1 480-618-5344 ext. 55738	ABR0022	Delivery by Friday | Arabella Farm Direct Bouquet of 12 Fresh Cut Pink Roses with a Free Glass Vase	1	0	1	Expedited	Roberta Batson	6971 DEATON HENRY RD			FLOWERY BRANCH	GA	30542-5521	US			false		
111-8619062-5873846	21094258486338	2020-11-19T01:05:26+00:00	2020-11-18T17:05:26-08:00	2020-11-19T01:35:59+00:00	2020-11-21T07:59:59+00:00	-1	k4sww27bk9d53h7@marketplace.amazon.com	Emily Clark	+1 619-854-2705 ext. 70125	ABR001	Delivery by Saturday | Arabella Bouquets 12 Stems of Fresh Cut Red Roses in a Free Designer Glass Vase	1	0	1	Expedited	Emily Clark c/o Anne Clark	500 AVENIDA LORENZO			NEWPORT BEACH	CA	92660-4019	US			false		
114-0396762-4508205	15289035480738	2020-11-19T04:32:58+00:00	2020-11-18T20:32:58-08:00	2020-11-19T05:00:42+00:00	2020-11-21T07:59:59+00:00	-1	v7z0wl3hjxjm5p4@marketplace.amazon.com	Judy Kelly	+1 619-854-2705 ext. 96337	ABR0033	Delivery by Saturday | Arabella Farm Direct Bouquet of 12 Fresh Cut Orange Roses with a Free Glass Vase	1	0	1	Standard	Lynn Keat	5206 S MEAD ST			SEATTLE	WA	98118-2937	US		Lynn and Rick, Thank you for sharing many chapters of your great adventure with us and loving us. From Judy & Bill	false		
114-1089530-4305862	48360751228146	2020-11-19T08:40:41+00:00	2020-11-19T00:40:41-08:00	2020-11-19T09:10:38+00:00	2020-11-24T07:59:59+00:00	-4	71pn7004sygywj5@marketplace.amazon.com	Brent d Robinett	+1 602-671-6610 ext. 18656	ABM022	Delivery by Saturday | Purple Extravagance Bouquet by Arabella Bouquets	1	0	1	Expedited	Sharon Robinett	5611 122ND AVE SE			SNOHOMISH	WA	98290-5518	US			false		
112-7703030-2832217	27544663166338	2020-11-19T13:31:35+00:00	2020-11-19T05:31:35-08:00	2020-11-19T13:59:52+00:00	2020-11-24T07:59:59+00:00	-4	dqrf9vb39rtvpj4@marketplace.amazon.com	vicki logan	+1 480-618-5344 ext. 17165	ABM022	Delivery by Saturday | Purple Extravagance Bouquet by Arabella Bouquets	1	0	1	Expedited	Rebecca Ray	2376 S DOWNING ST			SEASIDE	OR	97138-5018	US		Hope this brightens up your day! Love you always & forever Bec! From vicki logan	false		
111-0748205-1849829	23214398954538	2020-11-19T17:11:24+00:00	2020-11-19T09:11:24-08:00	2020-11-19T18:45:41+00:00	2020-11-24T07:59:59+00:00	-4	5jc9xgm37hfs8rt@marketplace.amazon.com	Wanda Kupersmith	+1 480-618-5344 ext. 72898	ABM022	Delivery by Saturday | Purple Extravagance Bouquet by Arabella Bouquets	1	0	1	Expedited	Jan and Jim Smith	870 SANDS LN			CAMANO ISLAND	WA	98282-7580	US		So very sorry for your loss. From Wanda Kupersmith	false		
111-5090668-1561060	56386119275802	2020-11-19T18:35:33+00:00	2020-11-19T10:35:33-08:00	2020-11-19T18:48:51+00:00	2020-11-24T07:59:59+00:00	-4	wxqyxg8ym10xb2m@marketplace.amazon.com	Linda Wagner	+1 480-618-5344 ext. 06658	ABM017	Delivery by Monday | Arabella Bouquets 10 Stems of Blue Dendrobium Orchids in a Free Designer Glass Vase	1	0	1	Expedited	Sharon Leighty	60594 SPRINGTREE CT			BEND	OR	97702-9444	US		Thinking of you.  We will all miss Sam.  He was a great friend and companion to you. From Linda, Mom, Brandi and Cream	false		
111-6740185-1216209	06236514580490	2020-11-19T16:59:37+00:00	2020-11-19T08:59:37-08:00	2020-11-19T19:02:08+00:00	2020-11-24T07:59:59+00:00	-4	xp8kvgkz1nqkhjb@marketplace.amazon.com	pat loftus		ABR0022	Delivery by Friday | Arabella Farm Direct Bouquet of 12 Fresh Cut Pink Roses with a Free Glass Vase	1	0	1	Expedited	patrick loftus	w148 n10332 windsong cir e.			germantown	wi	53022	US			false		
111-8813626-1789858	25144519463642	2020-11-19T16:04:07+00:00	2020-11-19T08:04:07-08:00	2020-11-19T19:09:17+00:00	2020-11-24T07:59:59+00:00	-4	xd89kt2gcbg2w7l@marketplace.amazon.com	Bianca Mora	+1 619-854-2705 ext. 12010	ABR0055	Delivery by Saturday | Arabella Farm Direct Bouquet of 12 Stems of Fresh Cut Hot Pink Roses in a Free Designer Glass Vase	1	0	1	Expedited	Janelle Seibert	15252 Road 23	93637 Madera		Madera	CALIFORNIA	93637	US		I love you.  Have a great day. From Bianca Mora	false		
114-0608521-8805015	53158939233346	2020-11-19T18:00:24+00:00	2020-11-19T10:00:24-08:00	2020-11-19T19:09:54+00:00	2020-11-24T07:59:59+00:00	-4	181l95zpxm4s7b0@marketplace.amazon.com	Jerry R Eagle	+1 929-436-4790 ext. 98003	ABR001	Delivery by Saturday | Arabella Bouquets 12 Stems of Fresh Cut Red Roses in a Free Designer Glass Vase	1	0	1	Expedited	Jenny Krout	5313 MERCURY DR			RAPID CITY	SD	57703-6725	US		I want to be with you. From Jerry R Eagle	false		
114-2967494-3016262	32042629916834	2020-11-19T17:15:38+00:00	2020-11-19T09:15:38-08:00	2020-11-19T19:10:17+00:00	2020-11-24T07:59:59+00:00	-4	wpplg9dyhz0xk59@marketplace.amazon.com	Joy Moniz	+1 213-442-1463 ext. 79806	ABR0055	Delivery by Saturday | Arabella Farm Direct Bouquet of 12 Stems of Fresh Cut Hot Pink Roses in a Free Designer Glass Vase	1	0	1	Expedited	Carol Dodson	1260 E NORTH WAY			DINUBA	CA	93618-1864	US		Hey Mom! I EXIST! Been sick. getting better.  Sure is slow! I'll call T-Day. Love and kisses, Joy	false		
114-9415828-4470667	34161042170346	2020-11-19T16:48:06+00:00	2020-11-19T08:48:06-08:00	2020-11-19T19:10:21+00:00	2020-11-24T07:59:59+00:00	-4	jpzrytrnms0pd11@marketplace.amazon.com	Hiromi Kusano	+1 929-436-4790 ext. 79084	ABR0022	Delivery by Friday | Arabella Farm Direct Bouquet of 12 Fresh Cut Pink Roses with a Free Glass Vase	1	0	1	Expedited	Jean and George Marousek	2155 Gribble Dr			Covington	KY	41017-9201	US		Happy birthday mom and happy anniversary mom and dad! Please stay healthy and happy. Lots of love from Tokyo From Hiromi Kusano	false		
112-6081289-4045836	48011080573482	2020-11-19T18:54:32+00:00	2020-11-19T10:54:32-08:00	2020-11-19T19:24:29+00:00	2020-11-24T07:59:59+00:00	-4	mlr6k8btgj2m43g@marketplace.amazon.com	Ronald C. Sohn	+1 929-436-4790 ext. 92916	ABM022	Delivery by Saturday | Purple Extravagance Bouquet by Arabella Bouquets	1	0	1	Expedited	Michelle Sohn	1804 40TH ST			BELLINGHAM	WA	98229-4936	US		Happy Birthday! From Ronald C. Sohn	false		
111-7071140-4766628	54226087094746	2020-11-19T18:57:50+00:00	2020-11-19T10:57:50-08:00	2020-11-19T19:25:41+00:00	2020-11-24T07:59:59+00:00	-4	ntnb9x315lt0316@marketplace.amazon.com	Jeannette	+1 602-671-6610 ext. 61236	ABM017	Delivery by Monday | Arabella Bouquets 10 Stems of Blue Dendrobium Orchids in a Free Designer Glass Vase	1	0	1	Expedited	Peggye Johnson	1027 FLEETWOOD CIR SW			ATLANTA	GA	30311-2535	US		To our Favorite Aunt Sissy: We love and miss you tons.  Happy Thanksgiving. Love Bevan & Jeannette From Jeannette	false		
112-8857285-2073008	00474789727210	2020-11-19T19:00:22+00:00	2020-11-19T11:00:22-08:00	2020-11-19T19:30:13+00:00	2020-11-24T07:59:59+00:00	-4	c3vtb85dtl468hq@marketplace.amazon.com	Shelly roalson	+1 213-442-1463 ext. 06536	ABR0055	Delivery by Saturday | Arabella Farm Direct Bouquet of 12 Stems of Fresh Cut Hot Pink Roses in a Free Designer Glass Vase	1	0	1	Expedited	Jhade Tolman	10520 20th S.E.			Lake Stevens	Wa	98258	US			false		
112-5596312-0298652	65671476581466	2020-11-19T19:21:58+00:00	2020-11-19T11:21:58-08:00	2020-11-19T19:52:22+00:00	2020-11-24T07:59:59+00:00	-4	xs9gbwybtxgqpvy@marketplace.amazon.com	Hilda Montoya	+1 602-671-6610 ext. 51938	ABR0022	Delivery by Saturday | Arabella Farm Direct Bouquet of 12 Fresh Cut Pink Roses with a Free Glass Vase	1	0	1	Expedited	Irene Duarte	11816 S 207TH AVE			BUCKEYE	AZ	85326-1904	US			false		
112-3990138-7092211	35897345997498	2020-11-19T19:42:48+00:00	2020-11-19T11:42:48-08:00	2020-11-19T20:12:40+00:00	2020-11-24T07:59:59+00:00	-4	y6p09h0921b1c0g@marketplace.amazon.com	Shay Balman	+1 415-851-9136 ext. 05904	ABM022	Delivery by Saturday | Purple Extravagance Bouquet by Arabella Bouquets	1	0	1	Expedited	CARSON BALMAN	1605 COUNTY LINE RD APT E312			LONGMONT	CO	80504-8567	US		LOVE YOU! DAD From DAD	false		
111-8298870-0189803	13074249762114	2020-11-19T20:16:35+00:00	2020-11-19T12:16:35-08:00	2020-11-19T20:46:23+00:00	2020-11-24T07:59:59+00:00	-4	7ptb8y30qt97m7q@marketplace.amazon.com	Laura Latham	+1 480-618-5344 ext. 18222	ABM022	Delivery by Saturday | Purple Extravagance Bouquet by Arabella Bouquets	1	0	1	Expedited	Audri Goronson	303 N 19TH ST			CANON CITY	CO	81212-2424	US		Enjoy your gift!  Feel better soon! From Love, Laura and Jim	false		
111-4390696-1161827	34933046413122	2020-11-19T20:41:36+00:00	2020-11-19T12:41:36-08:00	2020-11-19T21:09:25+00:00	2020-11-24T07:59:59+00:00	-4	k7w17vww9jdnh69@marketplace.amazon.com	Nikki M White	+1 929-436-4790 ext. 58567	ABM010	Delivery by Saturday | The Everlasting Fling Bouquet by Arabella Bouquets with a Free Designer Glass Vase	1	0	1	Expedited	Jim Pauley	8404 NE MASON CREEK RD			BATTLE GROUND	WA	98604-7612	US		I hope you enjoy these! It was so nice meeting you and being able to help you sell the family home. Stay healthy and happy! Enjoy this holiday season. Take Care! From Nikki M White	false		
113-1700104-6000269	43614136888882	2020-11-19T20:53:39+00:00	2020-11-19T12:53:39-08:00	2020-11-19T21:21:36+00:00	2020-11-24T07:59:59+00:00	-4	d9zvd8fcfxl7v9k@marketplace.amazon.com	Sherryl Feliciani	+1 929-436-4790 ext. 71787	ABM010	Delivery by Saturday | The Everlasting Fling Bouquet by Arabella Bouquets with a Free Designer Glass Vase	1	0	1	Expedited	Krista Feliciani/Dom Siriani	206 MARLBROOK LN			LANSDALE	PA	19446-5324	US		Dear Krista and Dom, We wanted to let you both know we are thinking of you and love you both. Love, Mom and Dad From Sherryl & Nick Feliciani	false		
114-0488135-4899419	18043188289690	2020-11-19T21:09:58+00:00	2020-11-19T13:09:58-08:00	2020-11-19T21:40:24+00:00	2020-11-24T07:59:59+00:00	-4	tv2rtv12y1ctrqd@marketplace.amazon.com	Steven Breffle	+1 602-671-6610 ext. 36107	ABM022	Delivery by Saturday | Purple Extravagance Bouquet by Arabella Bouquets	1	0	1	Expedited	Wilma Thomas	1001 ALTAVITA CT APT B35			LONGMONT	CO	80503-3673	US			false		
111-9173251-8280220	65419921867042	2020-11-19T21:25:10+00:00	2020-11-19T13:25:10-08:00	2020-11-19T21:55:35+00:00	2020-11-24T07:59:59+00:00	-4	cm2rcqjb1p8sc03@marketplace.amazon.com	Dr Ashraf Maher MD,DDS,PhD	+1 480-618-5344 ext. 20773	ABR0055	Delivery by Saturday | Arabella Farm Direct Bouquet of 12 Stems of Fresh Cut Hot Pink Roses in a Free Designer Glass Vase	1	0	1	Expedited	Mr Stuart Somershoe	40711 N ROBINSON DR			ANTHEM	AZ	85086-2504	US			false		
111-5099380-0937850	02506770049626	2020-11-19T21:45:06+00:00	2020-11-19T13:45:06-08:00	2020-11-19T22:14:12+00:00	2020-11-24T07:59:59+00:00	-4	h9n1564bvh8m5qy@marketplace.amazon.com	Katie	+1 213-442-1463 ext. 63973	ABM010	Delivery by Saturday | The Everlasting Fling Bouquet by Arabella Bouquets with a Free Designer Glass Vase	1	0	1	Expedited	Janet James	901 143RD ST S			TACOMA	WA	98444-3327	US		Hi Janet - just a little something to let you know I'm thinking about you! I hope you have a wonderful day! From Katie	false		
112-0896723-4869029	68708319398922	2020-11-19T21:45:46+00:00	2020-11-19T13:45:46-08:00	2020-11-19T22:15:32+00:00	2020-11-24T07:59:59+00:00	-4	jdxg2dc9hrqwwqx@marketplace.amazon.com	coco	+1 602-671-6610 ext. 59848	ABM022	Delivery by Saturday | Purple Extravagance Bouquet by Arabella Bouquets	1	0	1	Expedited	Jodi Dumas	4226 TAYLOR HBR W W3			MOUNT PLEASANT	WI	53403-9480	US			false		
114-5577490-0198603	46758749852674	2020-11-19T22:00:21+00:00	2020-11-19T14:00:21-08:00	2020-11-19T22:29:17+00:00	2020-11-24T07:59:59+00:00	-4	fwwyjb2ffskv350@marketplace.amazon.com	Mary Kees	+1 602-671-6610 ext. 78336	ABM020	Delivery by Monday | The Sunset Bouquet by Arabella Bouquets	1	0	1	Expedited	Clare Caban	118 Third Avenue			Edwardsville	IL	62025	US		Happy Thanksgiving. Let’s get our states’ COVID numbers down so we can come visit!!! From Love, Jim and Mary	false		
114-1160064-2853044	34518021218250	2020-11-19T22:14:04+00:00	2020-11-19T14:14:04-08:00	2020-11-19T22:42:35+00:00	2020-11-24T07:59:59+00:00	-4	pb00v9mmrd5t5z1@marketplace.amazon.com	Margaret E Chumbley	+1 213-442-1463 ext. 77049	ABR0033	Delivery by Saturday | Arabella Farm Direct Bouquet of 12 Fresh Cut Orange Roses with a Free Glass Vase	1	0	1	Expedited	Pam Chumbley	12643 W RAMPART DR			SUN CITY WEST	AZ	85375-4605	US		Happy Thanksgiving! From Maggie	false		
112-5782002-5432220	25294751594442	2020-11-19T23:10:54+00:00	2020-11-19T15:10:54-08:00	2020-11-19T23:40:01+00:00	2020-11-24T07:59:59+00:00	-4	w7592w66zpmd839@marketplace.amazon.com	Lloyd H Wood	+1 213-442-1463 ext. 31727	ABM010	Delivery by Saturday | The Everlasting Fling Bouquet by Arabella Bouquets with a Free Designer Glass Vase	1	0	1	Expedited	Emma Caylor	4943 JEFFERSON WALK RD			HOPE MILLS	NC	28348-2642	US		Dear Mom and Karen Sue, Happy Thanksgiving. We love you. Wish we were there to enjoy some homemade noodles and just time with you. May God bless your day! From Cindy and Lloyd	false		
114-6863594-7579411	23039078931186	2020-11-19T23:20:09+00:00	2020-11-19T15:20:09-08:00	2020-11-19T23:46:11+00:00	2020-11-24T07:59:59+00:00	-4	s9n3gt4ppb25d2x@marketplace.amazon.com	Pamela Silberberg	+1 480-618-5344 ext. 09781	ABR0022	Delivery by Saturday | Arabella Farm Direct Bouquet of 12 Fresh Cut Pink Roses with a Free Glass Vase	1	0	1	Expedited	Danielle Stroppel	18029 EMILIA DR			PARKER	CO	80134-7793	US		Please let these bring you a little joy! Sending our thoughts, From Pamela Silberberg and Joshua Miller	false		
111-2771317-5857804	11829218104258	2020-11-19T23:26:00+00:00	2020-11-19T15:26:00-08:00	2020-11-19T23:46:21+00:00	2020-11-24T07:59:59+00:00	-4	wvgw81mmcrnby5j@marketplace.amazon.com	ellie malone	+1 929-436-4790 ext. 81280	ABM022	Delivery by Saturday | Purple Extravagance Bouquet by Arabella Bouquets	1	0	1	Standard	Ressa Johnson	2724 HOPE FOREST DR			LAS VEGAS	NV	89134-7322	US		Happy Birthday, Ressa! Have a great day! From Travis Fling, Kelly Willmer & Ellie Malone	false		
113-7712430-3065827	53621268635186	2020-11-19T23:25:34+00:00	2020-11-19T15:25:34-08:00	2020-11-19T23:51:06+00:00	2020-11-24T07:59:59+00:00	-4	ddx0tjjnfvp3290@marketplace.amazon.com	Lee, chong Im	+1 480-618-5344 ext. 44786	ABM010	Delivery by Saturday | The Everlasting Fling Bouquet by Arabella Bouquets with a Free Designer Glass Vase	1	0	1	Expedited	Mrs. Linda Johnson	1865 DELTA MEADOWS WAY			OAKLEY	CA	94561-3054	US		My Dear. Linda Happy Birthday!! Love you.. From Lee, chong Im	false		
112-0319016-7924214	17332089437706	2020-11-19T23:22:34+00:00	2020-11-19T15:22:34-08:00	2020-11-19T23:51:25+00:00	2020-11-24T07:59:59+00:00	-4	hj4v73hcnwcnq40@marketplace.amazon.com	Carolyn Lewis	+1 415-851-9136 ext. 59068	ABM010	Delivery by Saturday | The Everlasting Fling Bouquet by Arabella Bouquets with a Free Designer Glass Vase	1	0	1	Expedited	Julie & Kevin Chappell	15215 W EUREKA TRL			SURPRISE	AZ	85374-4475	US			false		
113-9370509-6869813	10097667607346	2020-11-19T23:35:50+00:00	2020-11-19T15:35:50-08:00	2020-11-20T00:04:52+00:00	2020-11-24T07:59:59+00:00	-4	87ymprx0cm4x5z9@marketplace.amazon.com	John Dwyer	+1 213-442-1463 ext. 64767	ABR0022	Delivery by Saturday | Arabella Farm Direct Bouquet of 12 Fresh Cut Pink Roses with a Free Glass Vase	1	0	1	Expedited	Larry and Kathleen Mast	549 S WYNBROOKE RD			ROMEOVILLE	IL	60446-5321	US		Happy happy birthday to the hardest working woman we know! We love and appreciate you. LOVE and HUGS from the Dwyers;  John, Kimm, Jack and Jesse From The Dwyer family	false		
113-0309962-0996205	14163582909034	2020-11-19T23:38:40+00:00	2020-11-19T15:38:40-08:00	2020-11-20T00:07:14+00:00	2020-11-24T07:59:59+00:00	-4	87ymprx0cm4x5z9@marketplace.amazon.com	John Dwyer	+1 602-671-6610 ext. 93519	ABR0022	Delivery by Saturday | Arabella Farm Direct Bouquet of 12 Fresh Cut Pink Roses with a Free Glass Vase	1	0	1	Expedited	Erin Dwyer	1 Intervale Rd			Dedham	MA	02026-6334	US		Happy happy amazing 20th birthday sweet Erin! We love you so much and are so proud of you! LOVE and HUGS, the Texas Dwyers:  Uncle John, Aunt Kimm, Jack and Jesse From The Dwyer family	false		
112-0031049-8525012	45668162876754	2020-11-19T23:40:03+00:00	2020-11-19T15:40:03-08:00	2020-11-20T00:09:29+00:00	2020-11-24T07:59:59+00:00	-4	8z3tw8pf23p2gly@marketplace.amazon.com	Jeff Nixon	+1 480-618-5344 ext. 94218	ABR0022	Delivery by Saturday | Arabella Farm Direct Bouquet of 12 Fresh Cut Pink Roses with a Free Glass Vase	1	0	1	Expedited	Allison Nixon	124 EASTERN AVE APT 303			MANCHESTER	NH	03104-6637	US			false		
112-1906932-1577822	40223949769194	2020-11-19T23:51:25+00:00	2020-11-19T15:51:25-08:00	2020-11-20T00:21:53+00:00	2020-11-24T07:59:59+00:00	-4	twl2nnznvfk4l3c@marketplace.amazon.com	tylee fleming	+1 213-442-1463 ext. 83823	ABR0022	Delivery by Saturday | Arabella Farm Direct Bouquet of 12 Fresh Cut Pink Roses with a Free Glass Vase	1	0	1	Expedited	Tylee Fleming	1807 KRISTEN LN			EFFINGHAM	SC	29541-4457	US			false		
112-6778384-2609861	06304572387546	2020-11-19T23:55:57+00:00	2020-11-19T15:55:57-08:00	2020-11-20T00:22:43+00:00	2020-11-24T07:59:59+00:00	-4	n34w656tsw2wq40@marketplace.amazon.com	lindsey.carlson323@gmail.com	+1 929-436-4790 ext. 48515	ABR0022	Delivery by Saturday | Arabella Farm Direct Bouquet of 12 Fresh Cut Pink Roses with a Free Glass Vase	1	0	1	Expedited	Brittany Bandstra	167 MERRITT DR			LA VERGNE	TN	37086-3708	US		May God bring you comfort and may these make you smile! Blessings! From Carrie & Sarah Drumheller	false		
114-3900282-8973026	32707782170722	2020-11-20T00:14:08+00:00	2020-11-19T16:14:08-08:00	2020-11-20T00:37:05+00:00	2020-11-24T07:59:59+00:00	-4	jsvxb7slyddfb8h@marketplace.amazon.com	David Fiscus	+1 619-854-2705 ext. 85185	ABM022	Delivery by Saturday | Purple Extravagance Bouquet by Arabella Bouquets	1	0	1	Expedited	Yolanda Schleuder	15725 VIA ESMOND			SAN LORENZO	CA	94580-1325	US			false		
111-3725088-7063462	15612699131730	2020-11-20T00:14:01+00:00	2020-11-19T16:14:01-08:00	2020-11-20T00:40:18+00:00	2020-11-24T07:59:59+00:00	-4	pcb0ybn0g3j7y91@marketplace.amazon.com	Kymberlee Cocchiarella	+1 480-618-5344 ext. 17900	ABM022	Delivery by Saturday | Purple Extravagance Bouquet by Arabella Bouquets	1	0	1	Expedited	Cindy Richard	8652 N SPOKANE ST			POST FALLS	ID	83854-4776	US		Get better soon From Kymberlee Cocchiarella	false		
112-9243663-5702662	27980031771138	2020-11-20T00:35:28+00:00	2020-11-19T16:35:28-08:00	2020-11-20T01:02:20+00:00	2020-11-24T07:59:59+00:00	-4	w7592w66zpmd839@marketplace.amazon.com	Lloyd H Wood	+1 602-671-6610 ext. 21346	ABM010	Delivery by Saturday | The Everlasting Fling Bouquet by Arabella Bouquets with a Free Designer Glass Vase	1	0	1	Expedited	Roberta Iverson	1514 RIVERSIDE DR APT B216			SALISBURY	MD	21801-6758	US		Wishing you a very Happy and Blessed Thanksgiving, Roberta!  Enjoy some of God's amazing creative flowers. From Cindy and Lloyd Wood	false		
111-9714300-6605852	55789633193746	2020-11-20T00:36:21+00:00	2020-11-19T16:36:21-08:00	2020-11-20T01:06:43+00:00	2020-11-24T07:59:59+00:00	-4	fshz3ydlycbn6mp@marketplace.amazon.com	Myra Pelowski	+1 415-851-9136 ext. 82237	ABR001	Delivery by Saturday | Arabella Bouquets 12 Stems of Fresh Cut Red Roses in a Free Designer Glass Vase	1	0	1	Expedited	Lois Pelowski	2219 FALCON CT			ATWATER	CA	95301-2105	US			false		
114-9741043-1474656	30844468795490	2020-11-20T00:47:32+00:00	2020-11-19T16:47:32-08:00	2020-11-20T01:12:47+00:00	2020-11-24T07:59:59+00:00	-4	lrgb94f21dvfsdb@marketplace.amazon.com	Elizabeth Ann Casani	+1 480-618-5344 ext. 77196	ABM010	Delivery by Saturday | The Everlasting Fling Bouquet by Arabella Bouquets with a Free Designer Glass Vase	1	0	1	Expedited	Mrs Sarah Neve	1133 BLACK ROCK RD			PHOENIXVILLE	PA	19460-1038	US		Dear Mom, Happy Thanksgiving!! Wishing we were spending it together. With all our love, Joe & Liz From Joseph Neve	false		
113-3030242-9409839	06837265297410	2020-11-20T01:00:20+00:00	2020-11-19T17:00:20-08:00	2020-11-20T01:30:31+00:00	2020-11-24T07:59:59+00:00	-4	mfvn0ln86306kw3@marketplace.amazon.com	miho sakagami	+1 213-442-1463 ext. 62703	ABR0022	Delivery by Saturday | Arabella Farm Direct Bouquet of 12 Fresh Cut Pink Roses with a Free Glass Vase	1	0	1	Expedited	Betty Jones	1873 NE 108TH AVE			PORTLAND	OR	97220-3031	US			false		
113-1095836-5601866	31676251976034	2020-11-20T01:09:16+00:00	2020-11-19T17:09:16-08:00	2020-11-20T01:39:13+00:00	2020-11-24T07:59:59+00:00	-4	6hvjxvr084ygp5g@marketplace.amazon.com	michael orlando	+1 480-618-5344 ext. 75394	ABR0022	Delivery by Saturday | Arabella Farm Direct Bouquet of 12 Fresh Cut Pink Roses with a Free Glass Vase	1	0	1	Expedited	Camille Colin	8725 STAHLEY RD			EAST AMHERST	NY	14051-1586	US		Happy birthday!! From michael orlando	false		
111-4977638-4577866	47799043566386	2020-11-20T01:37:22+00:00	2020-11-19T17:37:22-08:00	2020-11-20T02:02:31+00:00	2020-11-24T07:59:59+00:00	-4	58nr4405lplr0b4@marketplace.amazon.com	Lolita	+1 415-851-9136 ext. 41702	ABM022	Delivery by Saturday | Purple Extravagance Bouquet by Arabella Bouquets	1	0	1	Expedited	Augusto ribadeneyra	16 HORSESHOE DR			CHICOPEE	MA	01022-1116	US			false		
114-7707895-6875457	40286189965634	2020-11-20T01:49:33+00:00	2020-11-19T17:49:33-08:00	2020-11-20T02:19:35+00:00	2020-11-24T07:59:59+00:00	-4	8c0p9ldszqbf2p2@marketplace.amazon.com	Jason M. Jansen	+1 619-854-2705 ext. 67070	ABR0033	Delivery by Saturday | Arabella Farm Direct Bouquet of 12 Fresh Cut Orange Roses with a Free Glass Vase	1	0	1	Expedited	JoAnn Jansen	2004 Attenborough Ct			Springfield	IL	62704-5538	US		Enjoy your gift!  Happy Thanksgiving! From Jason M. Jansen	false		
113-6363180-3597030	17315559205978	2020-11-20T02:01:45+00:00	2020-11-19T18:01:45-08:00	2020-11-20T02:28:44+00:00	2020-11-24T07:59:59+00:00	-4	59dg05chy1dss1x@marketplace.amazon.com	Victoria Richel	+1 619-854-2705 ext. 39367	ABM022	Delivery by Saturday | Purple Extravagance Bouquet by Arabella Bouquets	1	0	1	Expedited	Carolyn Richel	10726 E KNOWLES AVE			MESA	AZ	85209-1573	US		Happy Bday!! We love and miss you!! xoxoxoxox From Marc Melissa Victoria & Sebastian	false		
112-3326740-8661066	55509204540930	2020-11-20T02:03:51+00:00	2020-11-19T18:03:51-08:00	2020-11-20T02:31:37+00:00	2020-11-24T07:59:59+00:00	-4	htfnndhlz3929vp@marketplace.amazon.com	chung song	+1 602-671-6610 ext. 41256	ABM022	Delivery by Saturday | Purple Extravagance Bouquet by Arabella Bouquets	1	0	1	Expedited	Helen Strom	472 RAQUEL LN			LOS ALTOS	CA	94022-2138	US		Helen, Happy Birthday !!!! From Oppa & Unni	false		
114-0483443-9465823	05784753808610	2020-11-20T02:13:25+00:00	2020-11-19T18:13:25-08:00	2020-11-20T02:38:28+00:00	2020-11-24T07:59:59+00:00	-4	61q1q78vtt0brv2@marketplace.amazon.com	Harold Rosenbloom	+1 213-442-1463 ext. 49309	ABR0022	Delivery by Saturday | Arabella Farm Direct Bouquet of 12 Fresh Cut Pink Roses with a Free Glass Vase	1	0	1	Expedited	Stephanie Rosenbloom	25 S BEDFORD RD			POUND RIDGE	NY	10576-2015	US			false		
111-4108212-4592241	40219397730706	2020-11-20T02:17:07+00:00	2020-11-19T18:17:07-08:00	2020-11-20T02:47:15+00:00	2020-11-24T07:59:59+00:00	-4	rkgfccfdtqf6ngl@marketplace.amazon.com	Mary Avallone	+1 602-671-6610 ext. 25745	ABR0022	Delivery by Saturday | Arabella Farm Direct Bouquet of 12 Fresh Cut Pink Roses with a Free Glass Vase	1	0	1	Expedited	Antoinette frees c/o reformed church home	1990 STATE ROUTE 18			OLD BRIDGE	NJ	08857-3771	US			false		
113-2856760-2622644	37353540957914	2020-11-20T02:26:35+00:00	2020-11-19T18:26:35-08:00	2020-11-20T02:56:44+00:00	2020-11-24T07:59:59+00:00	-4	0hn5x4c394dn2mn@marketplace.amazon.com	Justin	+1 415-851-9136 ext. 46769	ABM022	Delivery by Saturday | Purple Extravagance Bouquet by Arabella Bouquets	1	0	1	Expedited	Clara Evans	285 HERITAGE HLS DRIVE 285B			SOMERS	NY	10589-1202	US			false		
113-0219504-8889872	46777682149442	2020-11-20T02:34:59+00:00	2020-11-19T18:34:59-08:00	2020-11-20T03:03:29+00:00	2020-11-24T07:59:59+00:00	-4	3wrwdn9nx66gd4m@marketplace.amazon.com	Jennifer Cabral	+1 602-671-6610 ext. 64251	ABR0022	Delivery by Saturday | Arabella Farm Direct Bouquet of 12 Fresh Cut Pink Roses with a Free Glass Vase	1	0	1	Expedited	Jennifer Cabral	2340 PRINCETON PIKE			LAWRENCEVILLE	NJ	08648-3912	US			false		
113-3437678-5722651	32966532937386	2020-11-20T02:36:35+00:00	2020-11-19T18:36:35-08:00	2020-11-20T03:06:16+00:00	2020-11-24T07:59:59+00:00	-4	5km9fnhtjcv369p@marketplace.amazon.com	Raymond A Minardi	+1 213-442-1463 ext. 27569	ABR0022	Delivery by Saturday | Arabella Farm Direct Bouquet of 12 Fresh Cut Pink Roses with a Free Glass Vase	1	0	1	Expedited	Gail Robertson	1370 FRONT ST APT 33			MANCHESTER	NH	03102-8959	US		Dear Gail, I just wanted to let you know that I am thinking of you and praying for you. (I thank my God every time I remember you. Phil. 1:3.) From Ray Minardi	false		
111-4459670-8333055	42894167204434	2020-11-20T02:48:00+00:00	2020-11-19T18:48:00-08:00	2020-11-20T03:21:35+00:00	2020-11-24T07:59:59+00:00	-4	v6z66rm744dq0tn@marketplace.amazon.com	Drew Aizpurua	+1 929-436-4790 ext. 79425	ABR0033	Delivery by Saturday | Arabella Farm Direct Bouquet of 12 Fresh Cut Orange Roses with a Free Glass Vase	1	0	1	Expedited	Drew Aizpurua	4132 SAINT CHARLES AVE APT D5			NEW ORLEANS	LA	70115-4748	US			false		
113-0321518-8367426	38839681828306	2020-11-20T02:47:40+00:00	2020-11-19T18:47:40-08:00	2020-11-20T03:22:10+00:00	2020-11-24T07:59:59+00:00	-4	s80wms2t2fbmyxk@marketplace.amazon.com	judith ellis	+1 480-618-5344 ext. 72673	ABM022	Delivery by Saturday | Purple Extravagance Bouquet by Arabella Bouquets	1	0	1	Expedited	Claudette Drouin	8010 ELDORA BLVD			COMMERCE TOWNSHIP	MI	48382-4616	US			false		
113-7540390-0358611	09049444348906	2020-11-20T02:53:15+00:00	2020-11-19T18:53:15-08:00	2020-11-20T03:25:40+00:00	2020-11-24T07:59:59+00:00	-4	f6dy22bqfjct7tb@marketplace.amazon.com	Nancy McCabe	+1 929-436-4790 ext. 90305	ABM020	Delivery by Monday | The Sunset Bouquet by Arabella Bouquets	1	0	1	Expedited	Barbara Lorantas	601 ARLINGHAM RD			FLOURTOWN	PA	19031-1701	US		Happy Birthday Nana!  Stay safe and have a wonderful Thanksgiving.  We miss you.  Sending hugs!  XOXO Love, Nancy, Lia & Xavier From Nancy McCabe	false		
112-1791963-0799459	60648793515962	2020-11-20T03:09:12+00:00	2020-11-19T19:09:12-08:00	2020-11-20T03:47:15+00:00	2020-11-24T07:59:59+00:00	-4	qqd1y53jycsv3f5@marketplace.amazon.com	Jennifer Sheffler	+1 480-618-5344 ext. 01581	ABM010	Delivery by Saturday | The Everlasting Fling Bouquet by Arabella Bouquets with a Free Designer Glass Vase	1	0	1	Expedited	Clara Dennings	4227 WAGNER RD			KETTERING	OH	45440-1428	US		Mrs. Dennings, I’m sorry to hear you were under the weather. Praying that you feel better soon and for a speedy recovery! From Jennifer Sheffler	false		
114-2381203-8960223	63687208693794	2020-11-20T03:16:34+00:00	2020-11-19T19:16:34-08:00	2020-11-20T03:51:18+00:00	2020-11-24T07:59:59+00:00	-4	l820xtbscx0kzvy@marketplace.amazon.com	Bessie	+1 619-854-2705 ext. 09198	ABR0033	Delivery by Saturday | Arabella Farm Direct Bouquet of 12 Fresh Cut Orange Roses with a Free Glass Vase	1	0	1	Expedited	Hattie Allen	5151 THOMPSON RD UNIT 2308			FAIRBURN	GA	30213-8608	US			false		
112-8296507-7097818	35028394984178	2020-11-20T03:31:47+00:00	2020-11-19T19:31:47-08:00	2020-11-20T03:52:32+00:00	2020-11-24T07:59:59+00:00	-4	fkqhlkb9679klkg@marketplace.amazon.com	Osborn Leroy	+1 602-671-6610 ext. 46282	ABR0022	Delivery by Saturday | Arabella Farm Direct Bouquet of 12 Fresh Cut Pink Roses with a Free Glass Vase	1	0	1	Expedited	Betty Taylor	1526 AURORA AVE N APT C			SEATTLE	WA	98109-3041	US			false		
114-4522420-8233000	19557998641354	2020-11-20T03:27:22+00:00	2020-11-19T19:27:22-08:00	2020-11-20T03:53:05+00:00	2020-11-24T07:59:59+00:00	-4	ph9w0l5nmfb2x49@marketplace.amazon.com	JACK LOVEJOY	41408378	ABM027	Delivery by Monday | The Changing Seasons Bouquet by Arabella Bouquets	1	0	1	Expedited	Mary Johnson	S89W35010 EAGLE TER			EAGLE	WI	53119-2301	US		We hope you have a better week!  We know how hard you work and even though you don’t hear it enough, you are doing a wonderful job!  Dad and Gayle From JACK LOVEJOY	false		
114-7378646-1652246	03377799899314	2020-11-20T03:32:12+00:00	2020-11-19T19:32:12-08:00	2020-11-20T04:02:19+00:00	2020-11-24T07:59:59+00:00	-4	8k5tlltkth3czkt@marketplace.amazon.com	Delanakbrown	+1 480-618-5344 ext. 98504	ABM020	Delivery by Monday | The Sunset Bouquet by Arabella Bouquets	1	0	1	Expedited	Rita Jones	1870 WINDWARD DR			MEDFORD	OR	97501-3873	US			false		
114-8011691-3453056	34301840588162	2020-11-20T03:32:07+00:00	2020-11-19T19:32:07-08:00	2020-11-20T04:03:51+00:00	2020-11-24T07:59:59+00:00	-4	zm6dv3fc8snspdf@marketplace.amazon.com	lan2	+1 415-851-9136 ext. 49939	ABR0022	Delivery by Saturday | Arabella Farm Direct Bouquet of 12 Fresh Cut Pink Roses with a Free Glass Vase	1	0	1	Expedited	Carrie Ramoz	20880 SE Westview Dr.			Bend	Oregon	97702	US		Hi Carrie,   Warm wishes for you and Eric and Todd and Hank. A big THANK YOU! From Jessie and Ian and Claire in Shanghai :D	false		
111-4015012-0597850	37096126948970	2020-11-20T04:17:06+00:00	2020-11-19T20:17:06-08:00	2020-11-20T05:00:31+00:00	2020-11-24T07:59:59+00:00	-4	yd6dzz8b8mmqcvh@marketplace.amazon.com	Maria Fallica	+1 480-618-5344 ext. 51878	ABM010	Delivery by Saturday | The Everlasting Fling Bouquet by Arabella Bouquets with a Free Designer Glass Vase	1	0	1	Expedited	Kristen Fallica	4302 N ASHLAND AVE APT 2E			CHICAGO	IL	60613-7390	US		Dear Kristen, Happy Birthday!  Enjoy your very special day! Love you! Mom From Maria Fallica	false		
113-8430966-4570648	44314285362290	2020-11-20T04:47:04+00:00	2020-11-19T20:47:04-08:00	2020-11-20T05:14:30+00:00	2020-11-24T07:59:59+00:00	-4	2qsykqbqxkdqpp5@marketplace.amazon.com	Chris Maki	+1 929-436-4790 ext. 94728	ABR0022	Delivery by Saturday | Arabella Farm Direct Bouquet of 12 Fresh Cut Pink Roses with a Free Glass Vase	1	0	1	Expedited	Chris Maki	6453 NE Chestnut St			Hillsboro	OR	97124	US		To the love of my life, I hope these flowers brighten your day, just like you brighten my day! Love Chris From Chris Maki	false		
114-3805254-3595461	26415515183026	2020-11-20T04:07:16+00:00	2020-11-19T20:07:16-08:00	2020-11-20T05:23:51+00:00	2020-11-24T07:59:59+00:00	-4	11m348ndgfjvctn@marketplace.amazon.com	Romy Quiambao	+1 213-442-1463 ext. 99227	ABR0055	Delivery by Saturday | Arabella Farm Direct Bouquet of 12 Stems of Fresh Cut Hot Pink Roses in a Free Designer Glass Vase	1	0	1	Standard	May Bulaon	1239 E SHALENE ST			WEST COVINA	CA	91792-1335	US		HAPPY BIRTHDAY LOVE!! May this enlighten and cheer up your day. May today bring you as much happiness as you bring to everyone else, each and everyday. Wishing you peace, joy and blessings throughout the year. Love always. From Romy Quiambao	false		
112-8038151-3663410	35891367155530	2020-11-20T05:03:03+00:00	2020-11-19T21:03:03-08:00	2020-11-20T05:32:01+00:00	2020-11-24T07:59:59+00:00	-4	32hvkcxn3hqzpy3@marketplace.amazon.com	marisol sanchez	+1 213-442-1463 ext. 99040	ABR0033	Delivery by Saturday | Arabella Farm Direct Bouquet of 12 Fresh Cut Orange Roses with a Free Glass Vase	1	0	1	Expedited	Marina Duran	4481 HILLTOP DR			SAN DIEGO	CA	92102-3693	US		Elenita, Happy birthday! From Familia Best y Maru	false		
114-8078950-0153849	48135010800954	2020-11-20T05:12:51+00:00	2020-11-19T21:12:51-08:00	2020-11-20T05:42:37+00:00	2020-11-24T07:59:59+00:00	-4	5dp3hc9wddt8t59@marketplace.amazon.com	Rehan	+1 480-618-5344 ext. 68405	ABM022	Delivery by Saturday | Purple Extravagance Bouquet by Arabella Bouquets	1	0	1	Expedited	Mahwish Sajid	5702 HAMPSHIRE LN			YPSILANTI	MI	48197-3203	US			false		
113-7825387-0502651	38983852535754	2020-11-20T05:20:07+00:00	2020-11-19T21:20:07-08:00	2020-11-20T05:50:27+00:00	2020-11-24T07:59:59+00:00	-4	0840b4mz4qtjw8p@marketplace.amazon.com	Charles Taylor	+1 602-671-6610 ext. 63052	ABR0022	Delivery by Saturday | Arabella Farm Direct Bouquet of 12 Fresh Cut Pink Roses with a Free Glass Vase	1	0	1	Expedited	Charles Taylor	14734 Harmony Estates Road			Nevada city	California	95959	US			false		
113-3474781-7069065	38882347700458	2020-11-20T05:25:18+00:00	2020-11-19T21:25:18-08:00	2020-11-20T05:54:12+00:00	2020-11-24T07:59:59+00:00	-4	16yqtjb8d95g3xs@marketplace.amazon.com	Jodi gann	+1 619-854-2705 ext. 19021	ABM010	Delivery by Saturday | The Everlasting Fling Bouquet by Arabella Bouquets with a Free Designer Glass Vase	1	0	1	Expedited	Nell and Jerry Hibbetts	1345 S CEDAR ST			EAGAR	AZ	85925-9737	US		Happy Thanksgiving Mom and Dad!! I love you very much! From Jodi gann	false		
111-0069821-2712231	12334657716202	2020-11-20T05:38:20+00:00	2020-11-19T21:38:20-08:00	2020-11-20T06:07:00+00:00	2020-11-24T07:59:59+00:00	-4	3b99l9vncljc3f4@marketplace.amazon.com	ebenezer jegede	+1 929-436-4790 ext. 63380	ABR0022	Delivery by Saturday | Arabella Farm Direct Bouquet of 12 Fresh Cut Pink Roses with a Free Glass Vase	1	0	1	Expedited	Kerena Bonner	310 FORBES AVE			NEW HAVEN	CT	06512-1638	US		You brought love, joy and meaning to my life. Thank you, Love you From Tijani hammed ademola	false		
112-9716112-9349058	55040867630154	2020-11-20T05:43:38+00:00	2020-11-19T21:43:38-08:00	2020-11-20T06:11:32+00:00	2020-11-24T07:59:59+00:00	-4	ydgn90znzb3n66f@marketplace.amazon.com	Wendy Chen	+1 480-618-5344 ext. 67762	ABR001	Delivery by Saturday | Arabella Bouquets 12 Stems of Fresh Cut Red Roses in a Free Designer Glass Vase	1	0	1	Expedited	James LO/ Wendy C.	611 WILMINGTON DR			CHULA VISTA	CA	91914-4206	US		Dear Ming， Happy Birthday！ and be good :-) From Cici	false		
113-6226028-7689048	17254860663730	2020-11-20T05:55:47+00:00	2020-11-19T21:55:47-08:00	2020-11-20T06:18:07+00:00	2020-11-24T07:59:59+00:00	-4	prb4kfy30nk6c8z@marketplace.amazon.com	Sharon Pearson-Ford	+1 619-854-2705 ext. 30558	ABR0055	Delivery by Saturday | Arabella Farm Direct Bouquet of 12 Stems of Fresh Cut Hot Pink Roses in a Free Designer Glass Vase	1	0	1	Expedited	Celeste Bafford	1126 WEATHERVANE HILL DR			ROCKY MOUNT	NC	27803-9139	US		I Love You! From Baby Sis, Sharon	false		
113-1182305-3858652	04491631309210	2020-11-20T05:53:26+00:00	2020-11-19T21:53:26-08:00	2020-11-20T06:22:02+00:00	2020-11-24T07:59:59+00:00	-4	gswdmz3wcvkz172@marketplace.amazon.com	Kaelene Berger	+1 602-671-6610 ext. 02562	ABM022	Delivery by Saturday | Purple Extravagance Bouquet by Arabella Bouquets	1	0	1	Expedited	Barb Bannister	117 POPPY RD			MILL CREEK	WA	98012-9206	US		Happy Birthday Barb! From Kathy	false		
112-9073794-4478624	02113794281386	2020-11-20T10:45:20+00:00	2020-11-20T02:45:20-08:00	2020-11-20T11:13:09+00:00	2020-11-25T07:59:59+00:00	-5	l7y64b7kgh98r2p@marketplace.amazon.com	Donna	+1 619-854-2705 ext. 83290	ABM010	Delivery by Saturday | The Everlasting Fling Bouquet by Arabella Bouquets with a Free Designer Glass Vase	1	0	1	Standard	Florence Sawyer	3111 HOPE AVE			COLUMBIA	SC	29205-3922	US		Happy Birthday Grandma! Love you❤️ From Donna	false		
114-7904358-5149814	57106639401674	2020-11-20T12:15:12+00:00	2020-11-20T04:15:12-08:00	2020-11-20T12:45:49+00:00	2020-11-25T07:59:59+00:00	-5	4cjksgg80d10pqw@marketplace.amazon.com	James Nicoll	+1 480-618-5344 ext. 41093	ABB005	Delivery by Saturday | Arabella Bouquets 24 Stems of Fresh Cut Red Roses in a Designer Glass Vase	2	1	1	Expedited	James Nicoll	389 23RD ST GATE CODE # 1379			NEWPORT BEACH	CA	92660-3608	US			false		
112-9457039-5755428	16600644816290	2020-11-20T12:25:21+00:00	2020-11-20T04:25:21-08:00	2020-11-20T12:53:58+00:00	2020-11-25T07:59:59+00:00	-5	y90j94zhyxjp3rm@marketplace.amazon.com	Tim Coulter	+1 602-671-6610 ext. 40494	ABM022	Delivery by Saturday | Purple Extravagance Bouquet by Arabella Bouquets	1	0	1	Expedited	Carie Doering	2606 E 147TH AVE			THORNTON	CO	80602-7324	US		Hi Carie, Happy birthday From Your brother	false		
114-2577487-2542632	21279551894290	2020-11-20T12:28:41+00:00	2020-11-20T04:28:41-08:00	2020-11-20T12:55:28+00:00	2020-11-25T07:59:59+00:00	-5	ysykklctx3k2qns@marketplace.amazon.com	Bill Donoughue	+1 619-854-2705 ext. 00525	ABM022	Delivery by Saturday | Purple Extravagance Bouquet by Arabella Bouquets	1	0	1	Expedited	ISABELLA PIZARRO	303 MERRICK RD			LYNBROOK	NY	11563-2501	US		Congratulations, Best of Luck  Brenda	false		
111-3716405-6578616	10735157172082	2020-11-20T12:55:00+00:00	2020-11-20T04:55:00-08:00	2020-11-20T13:21:49+00:00	2020-11-25T07:59:59+00:00	-5	2zpwg63p1yk439n@marketplace.amazon.com	Joe Williams Jr	+1 619-854-2705 ext. 25556	ABM022	Delivery by Saturday | Purple Extravagance Bouquet by Arabella Bouquets	1	0	1	Expedited	Katrena Williams	2716 PARKLAWN AVE SW			BIRMINGHAM	AL	35211-5122	US		Happy birthday, I love you very much From Joe Williams Jr	false		
112-3153035-4950664	55693490157002	2020-11-20T12:53:05+00:00	2020-11-20T04:53:05-08:00	2020-11-20T13:22:40+00:00	2020-11-25T07:59:59+00:00	-5	pgx02m8ss8fhtqh@marketplace.amazon.com	Wes Wooten	+1 602-671-6610 ext. 77514	ABM010	Delivery by Saturday | The Everlasting Fling Bouquet by Arabella Bouquets with a Free Designer Glass Vase	1	0	1	Expedited	Beverly Whitt	678 BALFOUR RD			WINSTON SALEM	NC	27104-3069	US			false		
114-6386158-5598604	40853691028994	2020-11-20T13:57:22+00:00	2020-11-20T05:57:22-08:00	2020-11-20T14:25:18+00:00	2020-11-25T07:59:59+00:00	-5	wk9tkrc9v8y5qd6@marketplace.amazon.com	Caitlin Kelly	+1 213-442-1463 ext. 52555	ABM022	Delivery by Saturday | Purple Extravagance Bouquet by Arabella Bouquets	1	0	1	Expedited	Brenda Portillo	3732 AMBER MEADOWS DR			CHARLOTTE	NC	28269-3026	US		We are sorry for your loss and are thinking of your during this time From Matt Alfero & the team at Yoh	true		
113-8496692-5213052	22345997912042	2020-11-20T14:04:07+00:00	2020-11-20T06:04:07-08:00	2020-11-20T14:29:32+00:00	2020-11-25T07:59:59+00:00	-5	31zn447vhgz7br8@marketplace.amazon.com	Simon Owens	+1 213-442-1463 ext. 49872	ABR0022	Delivery by Saturday | Arabella Farm Direct Bouquet of 12 Fresh Cut Pink Roses with a Free Glass Vase	1	0	1	Expedited	Zoe Stewart - The Tile Store	1200 ROCKY RUN PKWY			WILMINGTON	DE	19803-1456	US		Happy Birthday Babe! I hope you have a great day!!! From Simon Owens	false		
111-1258663-3129050	40772949392330	2020-11-20T14:54:42+00:00	2020-11-20T06:54:42-08:00	2020-11-20T15:12:28+00:00	2020-11-25T07:59:59+00:00	-5	x5t6y49dlqq7dl7@marketplace.amazon.com	Candace Springer	+1 480-618-5344 ext. 60852	ABR0033	Delivery by Saturday | Arabella Farm Direct Bouquet of 12 Fresh Cut Orange Roses with a Free Glass Vase	1	0	1	Expedited	Caitlin Springer	GREAT CLIPS	3538 MURFREESBORO PIKE STE 304		ANTIOCH	TN	37013-2580	US		Best Wishes on a successful opening day to you and your staff. Love, Mother and Daddy From Candace Springer	false		
112-7256124-4647443	19140155702986	2020-11-20T14:52:33+00:00	2020-11-20T06:52:33-08:00	2020-11-20T15:22:02+00:00	2020-11-25T07:59:59+00:00	-5	ht8qp8ny8mtm9zt@marketplace.amazon.com	Satish Malik	+1 929-436-4790 ext. 27624	ABR001	Delivery by Saturday | Arabella Bouquets 12 Stems of Fresh Cut Red Roses in a Free Designer Glass Vase	1	0	1	Expedited	Sreenivasa Pavan Kuppili	10630 CASTINE AVE			CUPERTINO	CA	95014-1313	US			false		
111-9384674-7869014	17899703712474	2020-11-20T15:51:48+00:00	2020-11-20T07:51:48-08:00	2020-11-20T16:19:45+00:00	2020-11-25T07:59:59+00:00	-5	1m8c7x2ym724k0m@marketplace.amazon.com	Daniel Sheridan	+1 213-442-1463 ext. 36492	ABM020	Delivery by Monday | The Sunset Bouquet by Arabella Bouquets	1	0	1	Expedited	Denise Snell	1930 CASSANDRA LN APT 4			MYRTLE BEACH	SC	29577-4776	US			false		
112-1782748-4691449	21312444510546	2020-11-20T16:09:07+00:00	2020-11-20T08:09:07-08:00	2020-11-20T16:39:39+00:00	2020-11-25T07:59:59+00:00	-5	jrfczy4n71jc8q1@marketplace.amazon.com	Ann L. Robinson	+1 213-442-1463 ext. 58876	ABR0033	Delivery by Saturday | Arabella Farm Direct Bouquet of 12 Fresh Cut Orange Roses with a Free Glass Vase	1	0	1	Expedited	Ann Robinson	108 ASHLEY CT			GREENVILLE	DE	19807-2259	US			false		
114-4349536-1339461	39889009508938	2020-11-20T16:17:26+00:00	2020-11-20T08:17:26-08:00	2020-11-20T16:46:42+00:00	2020-11-25T07:59:59+00:00	-5	whmmmt1gtlqxbfp@marketplace.amazon.com	Michelle Cleveland	+1 213-442-1463 ext. 07572	ABR0033	Delivery by Saturday | Arabella Farm Direct Bouquet of 12 Fresh Cut Orange Roses with a Free Glass Vase	1	0	1	Expedited	Christy Bassett	231 GREEN HARBOR RD UNIT 97			OLD HICKORY	TN	37138-1095	US		Happy belated birthday hope these brighten your day! From Shelly, Dennis, Eric & Lindsey	false		
113-5670115-1167419	22310420102890	2020-11-20T16:18:54+00:00	2020-11-20T08:18:54-08:00	2020-11-20T16:47:01+00:00	2020-11-25T07:59:59+00:00	-5	q321m3xpwsmgwyb@marketplace.amazon.com	robert harrison	+1 602-671-6610 ext. 84476	ABM022	Delivery by Saturday | Purple Extravagance Bouquet by Arabella Bouquets	1	0	1	Standard	Cheryl Elmore	512 W HARRISON AVE			CLARKSVILLE	IN	47129-2636	US		Enjoy your gift!  Happy Thanksgiving.  Stay safe, feel better! Love, From Rick and Chris	false		
111-1960448-4853807	66924917982210	2020-11-20T16:37:48+00:00	2020-11-20T08:37:48-08:00	2020-11-20T17:04:11+00:00	2020-11-25T07:59:59+00:00	-5	z63xvykldk1gv6b@marketplace.amazon.com	Frances	+1 929-436-4790 ext. 90844	ABM022	Delivery by Saturday | Purple Extravagance Bouquet by Arabella Bouquets	1	0	1	Expedited	Nejme Ata	13130 N HIGH HAWK DR			MARANA	AZ	85658-4250	US		Hamdella 3a salemtik tante Nejme! Neshkor Allah 2tou3 w mara2 3a kher. Ntenhe 3a halik!  Menhebik ktir ..  From Simon & Frances Sarraf From Simon & Frances Sarraf	false		
111-1016289-5058638	69527417335242	2020-11-20T16:41:00+00:00	2020-11-20T08:41:00-08:00	2020-11-20T17:04:57+00:00	2020-11-25T07:59:59+00:00	-5	g6qfbjxw3q4bxx0@marketplace.amazon.com	Karen Hughse	+1 602-671-6610 ext. 38158	ABM020	Delivery by Monday | The Sunset Bouquet by Arabella Bouquets	1	0	1	Standard	Mrs. Bettie J. Smith	5101 KINGSPARK DR			TYLER	TX	75703-3923	US		love you! From Karen Hughes	false		
113-5289147-5246636	25876663703882	2020-11-20T17:20:27+00:00	2020-11-20T09:20:27-08:00	2020-11-20T17:47:59+00:00	2020-11-25T07:59:59+00:00	-5	dq3v2vgybn8pnrj@marketplace.amazon.com	Scott Curry	+1 619-854-2705 ext. 57222	ABR0022	Delivery by Saturday | Arabella Farm Direct Bouquet of 12 Fresh Cut Pink Roses with a Free Glass Vase	1	0	1	Expedited	Valerie Carey	3430 VIEW POINT CIR NE			TACOMA	WA	98422-4521	US		Dear Val, Happiest of birthdays to you! 😘🥰 From Love, Laura and Scotty Dog	false		
114-2795320-9893807	63467336546906	2020-11-20T17:30:29+00:00	2020-11-20T09:30:29-08:00	2020-11-20T17:56:50+00:00	2020-11-25T07:59:59+00:00	-5	7kfqxtp382bdjh6@marketplace.amazon.com	Sharon Manthei	+1 602-671-6610 ext. 93716	ABR0033	Delivery by Saturday | Arabella Farm Direct Bouquet of 12 Fresh Cut Orange Roses with a Free Glass Vase	1	0	1	Expedited	Annemarie Pledger	221 BEECHWOOD CT			CONWAY	SC	29526-8981	US		Annemarie, Ralph & Grace  Happy Thanksgiving!  Love,  Shari & Mark From SKM	false		
112-3264308-1495457	44125922979706	2020-11-20T17:45:45+00:00	2020-11-20T09:45:45-08:00	2020-11-20T18:02:06+00:00	2020-11-25T07:59:59+00:00	-5	rtybvs5drnt3xnn@marketplace.amazon.com	Julianna Woodson	+1 602-671-6610 ext. 46850	ABR0022	Delivery by Saturday | Arabella Farm Direct Bouquet of 12 Fresh Cut Pink Roses with a Free Glass Vase	1	0	1	Expedited	Thelma Shepard	939 BRIDGES DR			ARLINGTON	TX	76012-2048	US		Thinking of you and wishing you a wonderful Birthday!  Love - Darlene From Darlene Lux	false		
112-2868864-2091430	44744857126898	2020-11-20T17:46:57+00:00	2020-11-20T09:46:57-08:00	2020-11-20T18:02:16+00:00	2020-11-25T07:59:59+00:00	-5	j9b8lrjs8f99gv1@marketplace.amazon.com	Pat Stephens	+1 602-671-6610 ext. 34127	ABM010	Delivery by Saturday | The Everlasting Fling Bouquet by Arabella Bouquets with a Free Designer Glass Vase	1	0	1	Expedited	Barbara & Gerald Miller	8400 COUNTY ROAD 1016A			BURLESON	TX	76028-7748	US		Enjoy your gift! Happy Thanksgiving From Jim & Pat Stephens	false		
114-4903471-8105030	42851549808978	2020-11-20T18:02:10+00:00	2020-11-20T10:02:10-08:00	2020-11-20T18:29:28+00:00	2020-11-25T07:59:59+00:00	-5	q0jhwm67bp3prgf@marketplace.amazon.com	Donnamarie	+1 213-442-1463 ext. 06682	ABM026	Delivery by Thanksgiving | The Amour Bouquet by Arabella Bouquets	1	0	1	Expedited	Kathy Evans	2647 STATE ROUTE 492			NEW MILFORD	PA	18834-7777	US			false		
113-0257871-3368243	34450477664618	2020-11-20T18:03:20+00:00	2020-11-20T10:03:20-08:00	2020-11-20T18:32:31+00:00	2020-11-25T07:59:59+00:00	-5	fyxvn7qq1sthmgy@marketplace.amazon.com	Isabella Cacoilo	+1 213-442-1463 ext. 87229	ABR0022	Delivery by Tuesday | Arabella Farm Direct Bouquet of 12 Fresh Cut Pink Roses with a Free Glass Vase	1	0	1	Expedited	Kaylah Ebanks	1780 UNION AVE			UNION	NJ	07083-5521	US		We hope you are feeling better. We love and miss you! From Bella, Nelize, Kayla, and Liz	false		
113-0194905-1670663	20944678011410	2020-11-20T18:16:33+00:00	2020-11-20T10:16:33-08:00	2020-11-20T18:39:47+00:00	2020-11-25T07:59:59+00:00	-5	0mcwcpfymqjwqyw@marketplace.amazon.com	Jennifer Damiano	+1 602-671-6610 ext. 93396	ABM010	Delivery by Tuesday | The Everlasting Fling Bouquet by Arabella Bouquets with a Free Designer Glass Vase	1	0	1	Expedited	Anita & Tony Damiano	2160 LUCY LN			YORK	PA	17404-6630	US		Happy birthday!   Enjoy your day!  Love you! From Jennifer Damiano	false		
111-8343331-5326616	39912699021994	2020-11-20T18:30:37+00:00	2020-11-20T10:30:37-08:00	2020-11-20T18:57:55+00:00	2020-11-25T07:59:59+00:00	-5	n944djvmt4y772l@marketplace.amazon.com	sandi perry	+1 619-854-2705 ext. 92881	ABM026	Delivery by Thanksgiving | The Amour Bouquet by Arabella Bouquets	1	0	1	Expedited	Steve Rosa	78795 - TANGERINE CT			PALM DESERT	CA	92211-2116	US		Happy Thanksgiving! We all are thinking of you both! Mom, Don, Sandi, FP, Bailey & Hailey From All of us in Texas!	false		
112-0738304-9571445	55168964136546	2020-11-20T18:32:51+00:00	2020-11-20T10:32:51-08:00	2020-11-20T18:59:48+00:00	2020-11-25T07:59:59+00:00	-5	6tqtdl7swbw2wgw@marketplace.amazon.com	TOJONIRINA RAMAROLAHY	+1 602-671-6610 ext. 96446	ABR001	Delivery by Tuesday | Arabella Bouquets 12 Stems of Fresh Cut Red Roses in a Free Designer Glass Vase	1	0	1	Expedited	NIRINIAVISOA Marceda	AVALON BAY POTOMAC YARD	731 SEATON AVE UNIT 508		ALEXANDRIA	VA	22305-3070	US			false		
111-5090967-1667459	36126633474330	2020-11-20T18:47:47+00:00	2020-11-20T10:47:47-08:00	2020-11-20T19:02:38+00:00	2020-11-25T07:59:59+00:00	-5	b0n1c8zrs5rqyvb@marketplace.amazon.com	Roger Abfall	+1 213-442-1463 ext. 49642	ABM0033	Delivery by Tuesday | Arabella Farm Direct Bouquet of Fresh Cut White Hydrangea with a Free Glass Vase	1	0	1	Expedited	Mrs. Judee Purdy	1246 RIVER PARK CIR E			MUKWONAGO	WI	53149-1024	US		Dear Aunt Judee, Sorry for the passing of Uncle Fred. God bless, comfort and keep you. We love you From The Abfalls	false		
112-3662691-3581028	31614774025810	2020-11-20T18:47:09+00:00	2020-11-20T10:47:09-08:00	2020-11-20T19:15:20+00:00	2020-11-25T07:59:59+00:00	-5	3hnwstf7c2hcvws@marketplace.amazon.com	Robert Bikel	+1 619-854-2705 ext. 07193	ABM010	Delivery by Tuesday | The Everlasting Fling Bouquet by Arabella Bouquets with a Free Designer Glass Vase	1	0	1	Expedited	Sophia Rayo	264 E BROADWAY APT C1503			NEW YORK	NY	10002-2084	US		Sophia,  Thank you so much for the workspace! You're a lifesaver.  Best, From Robert Bikel	false		
113-3863401-7142645	59236552539626	2020-11-20T18:55:49+00:00	2020-11-20T10:55:49-08:00	2020-11-20T19:23:49+00:00	2020-11-25T07:59:59+00:00	-5	6kpqjm7stqvnj77@marketplace.amazon.com	lou	+1 415-851-9136 ext. 86225	ABM010	Delivery by Tuesday | The Everlasting Fling Bouquet by Arabella Bouquets with a Free Designer Glass Vase	1	0	1	Expedited	Abby Ferreira	20626 Newby			Orlando	FL	32833	US		Our hearts are so heavy, words are inadequate. All our love ❤️ From TNT	false		
114-2125994-3505806	07115192679074	2020-11-20T19:20:42+00:00	2020-11-20T11:20:42-08:00	2020-11-20T19:26:26+00:00	2020-11-25T07:59:59+00:00	-5	vpcyczxmnrvgrtt@marketplace.amazon.com	Irene Sartini	+1 929-436-4790 ext. 45058	ABM025	Delivery by Thanksgiving | The Fell for You Bouquet by Arabella Bouquets	1	0	1	Expedited	Tom and Diana gregory	326 BRAYTON RD			TIVERTON	RI	02878-3339	US		Hi Tom, and Diane Happy Thanksgiving Enjoy your gift! From Irene And Roger	false		
111-0772185-0051411	66439393686450	2020-11-20T18:58:46+00:00	2020-11-20T10:58:46-08:00	2020-11-20T19:27:15+00:00	2020-11-25T07:59:59+00:00	-5	4v2w64gyp40bmbt@marketplace.amazon.com	Sue Martin	+1 213-442-1463 ext. 98839	ABM020	Delivery by Tuesday | The Sunset Bouquet by Arabella Bouquets	1	0	1	Expedited	Joyce Gardner	54 ANGELL BROOK DR			WEST BOYLSTON	MA	01583-2119	US		Joyce,  Thank you so much for letting Sarah use the house! From Jack, Sue & Sarah	false		
111-2800662-5637001	48446029766082	2020-11-20T19:00:01+00:00	2020-11-20T11:00:01-08:00	2020-11-20T19:27:26+00:00	2020-11-25T07:59:59+00:00	-5	k4dxllhqqdjy6n2@marketplace.amazon.com	Eva Vallejo	+1 213-442-1463 ext. 71876	ABR0022	Delivery by Tuesday | Arabella Farm Direct Bouquet of 12 Fresh Cut Pink Roses with a Free Glass Vase	1	0	1	Expedited	Worthen Family	685 MALAT DR			NEWBURY PARK	CA	91320-2025	US		Have a happy, safe and healthy Thanksgiving...Love you From Eva Vallejo	false		
112-9640681-9696253	02937989657018	2020-11-20T19:01:36+00:00	2020-11-20T11:01:36-08:00	2020-11-20T19:28:40+00:00	2020-11-25T07:59:59+00:00	-5	005dw97sf4l7g1g@marketplace.amazon.com	Clede W ONeal	+1 213-442-1463 ext. 72089	ABR012	Delivery by Tuesday | Arabella Farm Direct Bouquet of 18 Fresh Cut Pink Roses with a Free Glass Vase	1	0	1	Expedited	Susie Boshoff	2 LOOKOUT PT			RIDGEFIELD	CT	06877-1914	US		Susie- Congratulations on the Corporate Secretary’s Best ESG Reporting award! Thank you for all your hard work and contributions to the team and to the report that helped PEP earn this award. Glad to have you on the team. From Anna Palazij	false		
114-0881334-7557807	25795272154810	2020-11-20T19:01:16+00:00	2020-11-20T11:01:16-08:00	2020-11-20T19:29:14+00:00	2020-11-25T07:59:59+00:00	-5	qd1nk0ck10q5w5r@marketplace.amazon.com	Jan Ray	+1 213-442-1463 ext. 27603	ABR013	Delivery by Tuesday | Arabella Farm Direct Bouquet of 18 Fresh Cut Yellow Roses with a Free Glass Vase	1	0	1	Expedited	Lisa Donley	5948 W MAPLE AVE			BERKELEY	IL	60163-1453	US			false		
111-8169363-8325828	70145952756202	2020-11-20T19:03:57+00:00	2020-11-20T11:03:57-08:00	2020-11-20T19:32:31+00:00	2020-11-25T07:59:59+00:00	-5	01zfpxmpn6mwdj8@marketplace.amazon.com	Kirsten	+1 480-618-5344 ext. 99908	ABR0066	Delivery by Tuesday | Arabella Bouquets 12 Stems of Fresh Cut White Roses in a Free Designer Glass Vase	1	0	1	Expedited	Pam Duke	6210 WHITLOW CREEK DR			BISHOP	GA	30621-6508	US		Have a Happy Birthday to my dearest long distance friend.  Your friendship has gotten me through the toughest times.  You are such a special woman.  Massive Hugs, Kirsten From Kirsten	false		
112-3879009-6574610	50049037533466	2020-11-20T19:05:33+00:00	2020-11-20T11:05:33-08:00	2020-11-20T19:32:58+00:00	2020-11-25T07:59:59+00:00	-5	005dw97sf4l7g1g@marketplace.amazon.com	Clede W ONeal	+1 480-618-5344 ext. 07816	ABR012	Delivery by Tuesday | Arabella Farm Direct Bouquet of 18 Fresh Cut Pink Roses with a Free Glass Vase	1	0	1	Expedited	Jennifer Gaskins	101 BRUSHY HILL RD			NEWTOWN	CT	06470-2513	US		Jennifer- Congratulations on Corporate Sec’s Best ESG Reporting award! Thank you for all your hard work & contributions to the team & to our reporting agenda that helped PEP earn this award. Glad to have you on the team!. From Anna Palazij	false		
112-9341386-2785057	62518930524058	2020-11-20T19:04:59+00:00	2020-11-20T11:04:59-08:00	2020-11-20T19:33:46+00:00	2020-11-25T07:59:59+00:00	-5	t1t1mzkjwx7rcv4@marketplace.amazon.com	John Jacobsen	+1 602-671-6610 ext. 65322	ABR0055	Delivery by Tuesday | Arabella Farm Direct Bouquet of 12 Stems of Fresh Cut Hot Pink Roses in a Free Designer Glass Vase	1	0	1	Expedited	Linda Jacobsen	1622 DENISE DR APT B			FOREST HILL	MD	21050-2990	US		Have a Happy Birthday From John & Deneen	false		
114-8497059-8613016	17077203755866	2020-11-20T19:20:42+00:00	2020-11-20T11:20:42-08:00	2020-11-20T19:35:49+00:00	2020-11-25T07:59:59+00:00	-5	vpcyczxmnrvgrtt@marketplace.amazon.com	Irene Sartini	508-51160	ABM010	Delivery by Tuesday | The Everlasting Fling Bouquet by Arabella Bouquets with a Free Designer Glass Vase	1	0	1	Expedited	Cathy Sartini	15 WINWARD ST			FALL RIVER	MA	02724-1435	US		Hi Cathy, and Gene Happy Thanksgiving Enjoy your gift! From Roger and Sis	false		
112-7159477-1759463	68770386877362	2020-11-20T19:12:01+00:00	2020-11-20T11:12:01-08:00	2020-11-20T19:39:36+00:00	2020-11-25T07:59:59+00:00	-5	dfj2h2b5ykpgn21@marketplace.amazon.com	Cristina Williams	+1 619-854-2705 ext. 48221	ABM025	Delivery by Thanksgiving | The Fell for You Bouquet by Arabella Bouquets	1	0	1	Expedited	Ana B. Mubarak	14880 AMOROSE ST			LAKE ELSINORE	CA	92530-7414	US		Dearest Ana, 💐 God is always with you 👼🏼🙏🏼👼🏼✝️🌈❤️ Happy Thanksgiving 🦃🍁🍽 with your family and friends! The miracle of hope is your gift! From Tom and Cristina Williams	false		
113-3540614-2401018	64135080949250	2020-11-20T19:19:57+00:00	2020-11-20T11:19:57-08:00	2020-11-20T19:45:14+00:00	2020-11-25T07:59:59+00:00	-5	1x45bp4swqlwjjh@marketplace.amazon.com	Heather Moster	+1 213-442-1463 ext. 46602	ABR0022	Delivery by Tuesday | Arabella Farm Direct Bouquet of 12 Fresh Cut Pink Roses with a Free Glass Vase	1	0	1	Expedited	Michelle Spitler	966 ANDREWS AVE NW			PORT CHARLOTTE	FL	33948-2055	US		Love, Aunt Pam + Aunt Bridget From Heather Moster	false		
112-9161272-5633045	34776938567690	2020-11-20T19:24:01+00:00	2020-11-20T11:24:01-08:00	2020-11-20T19:49:01+00:00	2020-11-25T07:59:59+00:00	-5	37dk37xf8wnhqvv@marketplace.amazon.com	Susan Ellis	+1 602-671-6610 ext. 11376	ABM031	Delivery by Thanksgiving | The Harvest Moon Bouquet by Arabella Bouquets	1	0	1	Expedited	Neely Family	952 WYNDSOR DR			HIXSON	TN	37343-2210	US		My thoughts and prayers are with you.  Father Ryan Athletic Department and Ann Mullins Head Volleyball Coach From Ann Mullins	false		
113-6300518-0953864	65516756782362	2020-11-20T20:03:14+00:00	2020-11-20T12:03:14-08:00	2020-11-20T20:30:17+00:00	2020-11-25T07:59:59+00:00	-5	70fzjv9fhwbzjfk@marketplace.amazon.com	lori	+1 619-854-2705 ext. 89767	ABM027	Delivery by Tuesday | The Changing Seasons Bouquet by Arabella Bouquets	1	0	1	Expedited	Mary Elliot	1465 WHITE BEAR RD			BIRDSBORO	PA	19508-8133	US		Mary,      Thinking of you, your are in our thoughts and prayers.  (We made sure to not send lillies! :)) From Love, Edwards, Varacallis and Ambrogis	false		
111-3335864-0129046	43366921681002	2020-11-20T20:03:23+00:00	2020-11-20T12:03:23-08:00	2020-11-20T20:32:54+00:00	2020-11-25T07:59:59+00:00	-5	5f4tmk38d443lm4@marketplace.amazon.com	Drew Zuehlke	+1 929-436-4790 ext. 13089	ABM021	Delivery by Tuesday | The Joyous Bouquet by Arabella Bouquets	1	0	1	Expedited	Joyce Bahrke	5323 PANORAMA TER			PANORA	IA	50216-8605	US		We're so thankful for our family. Love you! Miss you! From DKZZ	false		
111-8784006-2289064	67885802234290	2020-11-20T20:04:32+00:00	2020-11-20T12:04:32-08:00	2020-11-20T20:34:21+00:00	2020-11-25T07:59:59+00:00	-5	5f4tmk38d443lm4@marketplace.amazon.com	Drew Zuehlke	+1 602-671-6610 ext. 85246	ABM021	Delivery by Tuesday | The Joyous Bouquet by Arabella Bouquets	1	0	1	Expedited	Grandma Barbie Zuehlke	531 RUTH DR			JEFFERSON	WI	53549-1893	US		We're thankful for our family. Love you guys. From DKZZ	false		
111-1667300-7509069	67259975554242	2020-11-20T20:06:32+00:00	2020-11-20T12:06:32-08:00	2020-11-20T20:37:03+00:00	2020-11-25T07:59:59+00:00	-5	zzf0msxlrd0z32k@marketplace.amazon.com	Cindy Rogers	+1 602-671-6610 ext. 92226	ABR0022	Delivery by Tuesday | Arabella Farm Direct Bouquet of 12 Fresh Cut Pink Roses with a Free Glass Vase	1	0	1	Expedited	Mr. & Mrs. Richard Musser	1824 E AGUA VIEW RD			MOHAVE VALLEY	AZ	86440-9681	US			false		
111-9825076-1846641	14885156621194	2020-11-20T20:13:21+00:00	2020-11-20T12:13:21-08:00	2020-11-20T20:37:47+00:00	2020-11-25T07:59:59+00:00	-5	0f16xl2byh7jc38@marketplace.amazon.com	Sai	51599184	ABM020	Delivery by Tuesday | The Sunset Bouquet by Arabella Bouquets	1	0	1	Expedited	Kham Thongvanh	333 DESMOND DR			SCHAUMBURG	IL	60193-2858	US		Happy birthday Kham, Sorry we can’t make it to your place.  It’ll be one birthday you’ll never forget.  Wishing you the best!  Love, The Fam From The Big Fam	false		
112-6810586-4705859	60088208081322	2020-11-20T20:25:42+00:00	2020-11-20T12:25:42-08:00	2020-11-20T20:51:54+00:00	2020-11-25T07:59:59+00:00	-5	613n8ft8vgg6wcx@marketplace.amazon.com	Madelyn Kozub	+1 602-671-6610 ext. 27691	ABM025	Delivery by Thanksgiving | The Fell for You Bouquet by Arabella Bouquets	1	0	1	Expedited	Linda and Joe Mills	5367 PENROSE LN			KALAMAZOO	MI	49009-1282	US		Dear Linda & Joe, Heal up soon Linda and A Blessed Thanksgiving to both of you! From Aunt Mary Ann, Madelyn & Nick From Aunt Mary Ann, Madelyn & Nick	false		
112-5714191-9199437	39672578760810	2020-11-20T20:37:22+00:00	2020-11-20T12:37:22-08:00	2020-11-20T21:03:29+00:00	2020-11-25T07:59:59+00:00	-5	t5s4867ny1nbl6f@marketplace.amazon.com	lynda j schmidt	+1 415-851-9136 ext. 98986	ABR0033	Delivery by Tuesday | Arabella Farm Direct Bouquet of 12 Fresh Cut Orange Roses with a Free Glass Vase	1	0	1	Standard	Beck Wesner	9049 BLUEBAY LN			PENSACOLA	FL	32506-9557	US		Happy birthday my awesome twin!  Love you, Lyn From lynda j schmidt	false		
112-8013348-5858661	38151045565746	2020-11-20T20:37:06+00:00	2020-11-20T12:37:06-08:00	2020-11-20T21:06:39+00:00	2020-11-25T07:59:59+00:00	-5	xqt426jq1rnwlpc@marketplace.amazon.com	Mason Wrenn	+1 602-671-6610 ext. 19614	ABM022	Delivery by Tuesday | Purple Extravagance Bouquet by Arabella Bouquets	1	0	1	Expedited	Shayla wrenn	1304 CHARLESTON AVE			MATTOON	IL	61938-4016	US			false		
114-4486438-7015424	18190551010042	2020-11-20T20:46:44+00:00	2020-11-20T12:46:44-08:00	2020-11-20T21:16:46+00:00	2020-11-25T07:59:59+00:00	-5	cskbplv3m7fcl1j@marketplace.amazon.com	Gretchen Jorbin	+1 480-618-5344 ext. 83766	ABM025	Delivery by Thanksgiving | The Fell for You Bouquet by Arabella Bouquets	1	0	1	Expedited	Dana Kotler	694 WILLOW TREE LN			GLENCOE	IL	60022-1039	US			false		
114-0407083-4866616	45417613594762	2020-11-20T20:48:50+00:00	2020-11-20T12:48:50-08:00	2020-11-20T21:18:46+00:00	2020-11-25T07:59:59+00:00	-5	cskbplv3m7fcl1j@marketplace.amazon.com	Gretchen Jorbin	+1 929-436-4790 ext. 88293	ABM025	Delivery by Thanksgiving | The Fell for You Bouquet by Arabella Bouquets	1	0	1	Expedited	Keith Schultz	258 LAKEWOOD DR			ANTIOCH	IL	60002-1641	US			false		
112-8505410-0909020	10469891089930	2020-11-20T20:57:46+00:00	2020-11-20T12:57:46-08:00	2020-11-20T21:26:46+00:00	2020-11-25T07:59:59+00:00	-5	6tfwyqw6cjt3lln@marketplace.amazon.com	Jennifer Lambert	+1 929-436-4790 ext. 53596	ABM025	Delivery by Thanksgiving | The Fell for You Bouquet by Arabella Bouquets	1	0	1	Expedited	Don and Ruth Lambert	2659 BROAD ST			BEAUFORT	SC	29902-6350	US		Missing you this Thanksgiving but sending our love! From Jen and Michael	false		
111-2699339-2326648	01217167911154	2020-11-20T21:04:12+00:00	2020-11-20T13:04:12-08:00	2020-11-20T21:29:45+00:00	2020-11-25T07:59:59+00:00	-5	ttr8p2spd3c3vkv@marketplace.amazon.com	alexablck10	+1 480-618-5344 ext. 12806	ABR0066	Delivery by Tuesday | Arabella Bouquets 12 Stems of Fresh Cut White Roses in a Free Designer Glass Vase	1	0	1	Expedited	Kelsi White	505 CLIFF BULLOCK DR			STERLINGTON	LA	71280-3403	US		Kelsi & Mark, Our deepest condolences to you & your family during this time. We are holding you close in our hearts, & hoping that you can find moments of peace in the days ahead.  We love you- Alexa, Allie, Rachel, and Mallory	false		
111-4625362-7037808	38584013547114	2020-11-20T21:04:20+00:00	2020-11-20T13:04:20-08:00	2020-11-20T21:34:26+00:00	2020-11-25T07:59:59+00:00	-5	zvsdc7flxfkys61@marketplace.amazon.com	Irma	+1 619-854-2705 ext. 98505	ABB003	Delivery by Tuesday | Arabella Farm Direct Fresh Cut Blue Hydrangea	1	0	1	Expedited	Irma	9 LINDSEY TER NW			ROME	GA	30165-1215	US			false		
111-8388124-3536226	66537261410674	2020-11-20T21:08:07+00:00	2020-11-20T13:08:07-08:00	2020-11-20T21:35:56+00:00	2020-11-25T07:59:59+00:00	-5	vbgtc4kn48swxks@marketplace.amazon.com	Lakshmy Natarajan	+1 480-618-5344 ext. 78471	ABM022	Delivery by Tuesday | Purple Extravagance Bouquet by Arabella Bouquets	1	0	1	Expedited	Shoba Srinivasan	9011 CORRAL DR			IRVING	TX	75063-4420	US		Best wishes and Happy Anniversary. Lots of Love. From Periamma and Periappa	false		
114-3806534-8798648	01535830574090	2020-11-20T21:16:55+00:00	2020-11-20T13:16:55-08:00	2020-11-20T21:43:12+00:00	2020-11-25T07:59:59+00:00	-5	sfg87jpn1qbgd3b@marketplace.amazon.com	Gini Sommer	+1 602-671-6610 ext. 21104	ABR0033	Delivery by Tuesday | Arabella Farm Direct Bouquet of 12 Fresh Cut Orange Roses with a Free Glass Vase	1	0	1	Expedited	Tiffany Lemmon	1409 S STEVENS ST			TACOMA	WA	98405-1127	US		Wishing you peace during this time of loss. We are here for you. From Your friends and co-workers at Tacoma Arts Live	false		
111-7583124-3120237	24761093617626	2020-11-20T21:23:43+00:00	2020-11-20T13:23:43-08:00	2020-11-20T21:50:46+00:00	2020-11-25T07:59:59+00:00	-5	t2xrydqbgs5y00t@marketplace.amazon.com	Dawn Bracken	+1 480-618-5344 ext. 83368	ABR0022	Delivery by Tuesday | Arabella Farm Direct Bouquet of 12 Fresh Cut Pink Roses with a Free Glass Vase	1	0	1	Expedited	Alanie	14560 COREY WAY			VICTORVILLE	CA	92394-0836	US		Hi Babe , Miss you, love  you! Get better  ! Hope to see you soon . Smell the roses From Gerald Walton	false		
111-4488822-9048244	03215167951154	2020-11-20T21:27:27+00:00	2020-11-20T13:27:27-08:00	2020-11-20T21:54:50+00:00	2020-11-25T07:59:59+00:00	-5	ktltfdpm8h93y2j@marketplace.amazon.com	Tracey Bastic	+1 415-851-9136 ext. 39470	ABR012	Delivery by Tuesday | Arabella Farm Direct Bouquet of 18 Fresh Cut Pink Roses with a Free Glass Vase	1	0	1	Expedited	Juanita Wagers	4521 REDWOOD ST			WINTER HAVEN	FL	33880-1634	US		Love you Grandma! I guess we'll all be celebrating the holidays in our own way alone this year. As always, I'll be thinking of you! I'll see you in 2021!!! From Tracey Bastic	false		
113-1136911-9836259	68142270046866	2020-11-20T21:26:07+00:00	2020-11-20T13:26:07-08:00	2020-11-20T21:55:27+00:00	2020-11-25T07:59:59+00:00	-5	khpt1xmrz755lrj@marketplace.amazon.com	Cailey Bromer	+1 480-618-5344 ext. 32792	ABR0022	Delivery by Tuesday | Arabella Farm Direct Bouquet of 12 Fresh Cut Pink Roses with a Free Glass Vase	1	0	1	Expedited	Catherine Galvin	2101 POPLAR ST			GARNET VALLEY	PA	19060-6703	US		Happy birthday (great) Grandmom!! We miss you so much! You are an inspiration <3 Love you!! Charlie, Cailey, Luke, Orion From Cailey Bromer	false		
113-7353951-6993052	51845206444994	2020-11-20T21:49:29+00:00	2020-11-20T13:49:29-08:00	2020-11-20T22:17:23+00:00	2020-11-25T07:59:59+00:00	-5	3zsc0yklr1fmcd5@marketplace.amazon.com	Nancy Sturtecky	+1 619-854-2705 ext. 50482	ABM010	Delivery by Tuesday | The Everlasting Fling Bouquet by Arabella Bouquets with a Free Designer Glass Vase	1	0	1	Expedited	Ruth Gage Burns	3908 CHEROKEE AVE			FLINT	MI	48507-2876	US		Happy Thanksgiving! We love & miss you!  Love, Nancy & Susy From Nancy Sturtecky	false		
113-8828107-5020250	23030217615434	2020-11-20T21:56:57+00:00	2020-11-20T13:56:57-08:00	2020-11-20T22:24:46+00:00	2020-11-25T07:59:59+00:00	-5	53gl5fkhksy6dqj@marketplace.amazon.com	saroja mallik md	+1 619-854-2705 ext. 07727	ABM026	Delivery by Thanksgiving | The Amour Bouquet by Arabella Bouquets	1	0	1	Expedited	Dr. sara Narayan	2000 EASTRIDGE RD			LUTHERVILLE	MD	21093-4331	US		Happy Birthday to sarasu many happy returns From saroja mallik md	false		
111-7576546-8296210	60545252452138	2020-11-20T22:01:45+00:00	2020-11-20T14:01:45-08:00	2020-11-20T22:27:55+00:00	2020-11-25T07:59:59+00:00	-5	ftqptw1tzszzg7h@marketplace.amazon.com	Jeanie Dale-Joecks	+1 480-618-5344 ext. 24639	ABM022	Delivery by Tuesday | Purple Extravagance Bouquet by Arabella Bouquets	1	0	1	Expedited	Dannise Parker	2117 Via Visalia			Santa Marie,	CA	93458-8246	US		Happy Anniversary. From Jeanie & Mark	false		
111-3976907-0036225	10437786412338	2020-11-20T22:06:49+00:00	2020-11-20T14:06:49-08:00	2020-11-20T22:34:06+00:00	2020-11-25T07:59:59+00:00	-5	bgmrb33tfss2qd6@marketplace.amazon.com	Marlene smith	+1 619-854-2705 ext. 08736	ABM010	Delivery by Tuesday | The Everlasting Fling Bouquet by Arabella Bouquets with a Free Designer Glass Vase	1	0	1	Expedited	Jen Mac	17 HUNTERS RIDGE DR			PENNINGTON	NJ	08534-3910	US		We are glad you are better! Have a nice day! From Your Princeton CCU family	false		
112-0715288-5779402	60850671219010	2020-11-20T22:15:06+00:00	2020-11-20T14:15:06-08:00	2020-11-20T22:36:41+00:00	2020-11-25T07:59:59+00:00	-5	bh4r5hx0r2tf2pw@marketplace.amazon.com	Kathy Macchione	+1 213-442-1463 ext. 10211	ABR0022	Delivery by Tuesday | Arabella Farm Direct Bouquet of 12 Fresh Cut Pink Roses with a Free Glass Vase	1	0	1	Expedited	Lidia Jeffers	18 SPRING ST			COHASSET	MA	02025-1724	US		Lidia, My mom, Nanny, always sent a dozen roses to all her granddaughters on their 16th Birthday.  I wanted to continue the tradition for my first granddaughter! Love you have a very Happy Sweet 16 Birthday! From Grandma	false		
112-1336012-8411432	57125522311698	2020-11-20T22:07:39+00:00	2020-11-20T14:07:39-08:00	2020-11-20T22:38:14+00:00	2020-11-25T07:59:59+00:00	-5	kzrzz2ldw3d3m4c@marketplace.amazon.com	Sheri Munn	+1 619-854-2705 ext. 36698	ABR0055	Delivery by Tuesday | Arabella Farm Direct Bouquet of 12 Stems of Fresh Cut Hot Pink Roses in a Free Designer Glass Vase	1	0	1	Expedited	Mary Layton	741 CANOE TRL			VERO BEACH	FL	32963-3922	US			false		
111-6506803-9725821	29160679952434	2020-11-20T22:20:33+00:00	2020-11-20T14:20:33-08:00	2020-11-20T22:47:15+00:00	2020-11-25T07:59:59+00:00	-5	vtg7jnfvh5qcv8m@marketplace.amazon.com	Lisa Frame	+1 619-854-2705 ext. 36849	ABR0022	Delivery by Tuesday | Arabella Farm Direct Bouquet of 12 Fresh Cut Pink Roses with a Free Glass Vase	1	0	1	Expedited	Nancy Schleicher	2362 ERICKSON DR			TROY	MI	48085-6718	US		Dear Nancy,  I'm so sorry for your loss. Charlie was the sweetest boy and I know how much he meant to you. Thinking of you. Love you so much! From Lisa Frame	false		
114-1045077-0686619	21728865836546	2020-11-20T22:40:07+00:00	2020-11-20T14:40:07-08:00	2020-11-20T23:08:15+00:00	2020-11-25T07:59:59+00:00	-5	k7vpw211wbbt0zr@marketplace.amazon.com	Susan R. Hupper	+1 929-436-4790 ext. 59436	ABM010	Delivery by Tuesday | The Everlasting Fling Bouquet by Arabella Bouquets with a Free Designer Glass Vase	1	0	1	Expedited	Mrs. Joyce Hupper	360 MOUNT AUBURN ST APT 212			CAMBRIDGE	MA	02138-5596	US		To Joyce, Happy Thanksgiving! Wish we could all be together... Love, Craig, Susan, Sarah and Elizabeth	false		
114-0920943-8086646	05953838849362	2020-11-20T22:46:29+00:00	2020-11-20T14:46:29-08:00	2020-11-20T23:14:37+00:00	2020-11-25T07:59:59+00:00	-5	k7vpw211wbbt0zr@marketplace.amazon.com	Susan R. Hupper	+1 929-436-4790 ext. 13453	ABM010	Delivery by Tuesday | The Everlasting Fling Bouquet by Arabella Bouquets with a Free Designer Glass Vase	1	0	1	Expedited	Mr. and Mrs. Kenneth H. Rose	7101 BAY FRONT DR APT 115			ANNAPOLIS	MD	21403-3628	US		Happy Thanksgiving!  We are so sorry not to be there this year...  Love, Susan, Craig, Sarah and Elizabeth	false		
114-8979755-6083406	61832531662066	2020-11-20T22:52:58+00:00	2020-11-20T14:52:58-08:00	2020-11-20T23:22:49+00:00	2020-11-25T07:59:59+00:00	-5	lcg1hm1h1vpzz4d@marketplace.amazon.com	maria espinoza	+1 213-442-1463 ext. 27874	ABR0066	Delivery by Tuesday | Arabella Bouquets 12 Stems of Fresh Cut White Roses in a Free Designer Glass Vase	1	0	1	Expedited	Stephanie Espinoza-Levy	9900 SUNSHINE MESA DR NW			ALBUQUERQUE	NM	87114-1687	US			false		
113-7864857-4378638	06335472429178	2020-11-20T22:54:38+00:00	2020-11-20T14:54:38-08:00	2020-11-20T23:22:54+00:00	2020-11-25T07:59:59+00:00	-5	z62b1k4tzt4tjh6@marketplace.amazon.com	Joyce Lawson	+1 480-618-5344 ext. 52665	ABM026	Delivery by Thanksgiving | The Amour Bouquet by Arabella Bouquets	1	0	1	Expedited	Col. and Mrs. Richard  Scibeck	4105 SOUND DR			MOREHEAD CITY	NC	28557-2859	US		Thinking of you all and sending lots of love your way!!!!  God's blessings, Love Joyce, Rick & family From Joyce & Rick From Joyce & Rick	false		
111-5264335-1020223	05565018495370	2020-11-20T23:07:40+00:00	2020-11-20T15:07:40-08:00	2020-11-20T23:38:03+00:00	2020-11-25T07:59:59+00:00	-5	61gn81p5jgxtjct@marketplace.amazon.com	Kay L. Bemis	+1 619-854-2705 ext. 60136	ABM010	Delivery by Tuesday | The Everlasting Fling Bouquet by Arabella Bouquets with a Free Designer Glass Vase	1	0	1	Expedited	Kay l bemis	8753 MCCARTY RANCH DR			SAN JOSE	CA	95135-2158	US			false		
114-8750583-7285839	39630554962690	2020-11-20T23:12:35+00:00	2020-11-20T15:12:35-08:00	2020-11-20T23:42:33+00:00	2020-11-25T07:59:59+00:00	-5	f6dk8rvlk1zq5z0@marketplace.amazon.com	Michou F Kokodoko	+1 213-442-1463 ext. 85380	ABR0055	Delivery by Tuesday | Arabella Farm Direct Bouquet of 12 Stems of Fresh Cut Hot Pink Roses in a Free Designer Glass Vase	1	0	1	Expedited	Michou Kokodoko	1445 HILLSBORO AVE S			ST LOUIS PARK	MN	55426-1826	US			false		
114-2032147-1543410	50851656056514	2020-11-20T23:16:50+00:00	2020-11-20T15:16:50-08:00	2020-11-20T23:44:12+00:00	2020-11-25T07:59:59+00:00	-5	4279z4wtgdvzg72@marketplace.amazon.com	andres aportela	+1 619-854-2705 ext. 49646	ABM025	Delivery by Thanksgiving | The Fell for You Bouquet by Arabella Bouquets	1	0	1	Expedited	Andres aportela	38 LANCE RD			LEBANON	NJ	08833-5005	US			false		
113-8182056-1875411	58612637029514	2020-11-20T23:17:02+00:00	2020-11-20T15:17:02-08:00	2020-11-20T23:44:38+00:00	2020-11-25T07:59:59+00:00	-5	m9jdv6vbyt76893@marketplace.amazon.com	Holly Conklin	+1 619-854-2705 ext. 77761	ABM022	Delivery by Tuesday | Purple Extravagance Bouquet by Arabella Bouquets	1	0	1	Expedited	SYLVIA WEAVER	153 DEAN RD			HUDSON FALLS	NY	12839-3903	US		HAPPY BIRTHDAY GRANDMA!  Love , Landen From Landen	false		
113-0325281-8221851	58917376341698	2020-11-20T23:24:42+00:00	2020-11-20T15:24:42-08:00	2020-11-20T23:51:14+00:00	2020-11-25T07:59:59+00:00	-5	39bwx0b5dyngt4g@marketplace.amazon.com	Melissa Frey	+1 619-854-2705 ext. 68064	ABM022	Delivery by Tuesday | Purple Extravagance Bouquet by Arabella Bouquets	1	0	1	Expedited	Renee Raisanen	5542 OTTER VIEW TRL			SAINT PAUL	MN	55110-2223	US		Happy Birthday! I hope you have a wonderful day. <3 From Melissa Frey	false		
113-0176128-8935468	28735074948010	2020-11-20T23:27:56+00:00	2020-11-20T15:27:56-08:00	2020-11-20T23:54:52+00:00	2020-11-25T07:59:59+00:00	-5	bc1nl3jrztxs3rg@marketplace.amazon.com	PAULA G TOWNSEND	+1 415-851-9136 ext. 36697	ABM023	Delivery by Tuesday | The Morning Sun Bouquet by Arabella Bouquets	1	0	1	Expedited	The Lindgren Family	19936 RAVENWOOD RD SE			MONROE	WA	98272-8322	US		I was soooo looking forward to spending Thanksgiving with you. But we'll be together on FaceTime. With love and thanksgiving for having such an awesome family! From Grandma and Honey	false		
114-1166036-1366627	12485477395954	2020-11-20T23:33:10+00:00	2020-11-20T15:33:10-08:00	2020-11-20T23:58:48+00:00	2020-11-25T07:59:59+00:00	-5	cy7hlsh3gxwlhq9@marketplace.amazon.com	Mike Mays	+1 415-851-9136 ext. 50005	ABM022	Delivery by Tuesday | Purple Extravagance Bouquet by Arabella Bouquets	1	0	1	Expedited	June Mays	W3197 ORCHARD AVE			GREEN LAKE	WI	54941-9697	US		Get well Soon!  Love, Mike From Mike Mays	false		
112-0572837-6659406	55317613017706	2020-11-20T23:30:51+00:00	2020-11-20T15:30:51-08:00	2020-11-20T23:59:46+00:00	2020-11-25T07:59:59+00:00	-5	smcrwtnfqy9n7qk@marketplace.amazon.com	Jeanette Money	+1 619-854-2705 ext. 41317	ABR0033	Delivery by Tuesday | Arabella Farm Direct Bouquet of 12 Fresh Cut Orange Roses with a Free Glass Vase	1	0	1	Expedited	Maria Gryn	24340 MIAMI FOLEY RD			NEHALEM	OR	97131-9539	US		Happy Birthday Sister ❤️ Have a wonderful day. Love you From Net	false		
112-8659387-8723447	55950024182138	2020-11-20T23:48:28+00:00	2020-11-20T15:48:28-08:00	2020-11-21T00:18:20+00:00	2020-11-25T07:59:59+00:00	-5	7r4l03vzvyz5crm@marketplace.amazon.com	James rotter	+1 929-436-4790 ext. 82321	ABR001	Delivery by Tuesday | Arabella Bouquets 12 Stems of Fresh Cut Red Roses in a Free Designer Glass Vase	1	0	1	Expedited	JAMES ROTTER	3715 E RIMROCK DR			RIMROCK	AZ	86335-5253	US			false		
114-9795737-9572263	02065603108994	2020-11-20T23:52:28+00:00	2020-11-20T15:52:28-08:00	2020-11-21T00:18:48+00:00	2020-11-25T07:59:59+00:00	-5	b23h6cfy9jsr5mq@marketplace.amazon.com	Miguel Lopez	+1 415-851-9136 ext. 08960	ABR0055	Delivery by Tuesday | Arabella Farm Direct Bouquet of 12 Stems of Fresh Cut Hot Pink Roses in a Free Designer Glass Vase	1	0	1	Expedited	Mrs. Rachel Lopez	4687 KELLYKRIS DR			SAINT CHARLES	MO	63304-3412	US		Happy Birthday Rachel From Love Miguel, Lucy and Familia 🌷🎂	false		
111-6879629-6032221	67979228574634	2020-11-20T23:51:59+00:00	2020-11-20T15:51:59-08:00	2020-11-21T00:21:42+00:00	2020-11-25T07:59:59+00:00	-5	glttng9lkvfvr8g@marketplace.amazon.com	Jennifer Celusniak	+1 602-671-6610 ext. 96904	ABR0022	Delivery by Tuesday | Arabella Farm Direct Bouquet of 12 Fresh Cut Pink Roses with a Free Glass Vase	1	0	1	Expedited	The Shahs	615 8TH ST			CARLSTADT	NJ	07072-1701	US		Dear Ajita, Wishing you well and a positive recovery.  We’re thinking about you and keeping you in our prayers.  Love, The Hulls: Jen, Justin, Avery & Chase From The Hulls	false		
111-6412992-8131418	66707413820626	2020-11-20T23:57:33+00:00	2020-11-20T15:57:33-08:00	2020-11-21T00:23:21+00:00	2020-11-25T07:59:59+00:00	-5	cmy5gynjctz5fr6@marketplace.amazon.com	RALITSA VASSILEVA	+1 929-436-4790 ext. 40707	ABR0055	Delivery by Tuesday | Arabella Farm Direct Bouquet of 12 Stems of Fresh Cut Hot Pink Roses in a Free Designer Glass Vase	1	0	1	Expedited	Sheila Tschinkel	1699 FRIAR TUCK RD NE			ATLANTA	GA	30309-2660	US		Dear S, Have a wonderful Birthday! Never forget to "smell the roses"! Be happy and well. Love, R From RALITSA VASSILEVA	false		
113-0371671-3393819	15669823711138	2020-11-21T00:00:28+00:00	2020-11-20T16:00:28-08:00	2020-11-21T00:27:55+00:00	2020-11-25T07:59:59+00:00	-5	7z107tpvdnd2wm2@marketplace.amazon.com	Joyce	+1 602-671-6610 ext. 64783	ABR0055	Delivery by Tuesday | Arabella Farm Direct Bouquet of 12 Stems of Fresh Cut Hot Pink Roses in a Free Designer Glass Vase	1	0	1	Expedited	Melissa Mahan	255 PARK ST			HONEY BROOK	PA	19344-8775	US			false		
111-8450020-2576212	56465750481922	2020-11-21T00:06:51+00:00	2020-11-20T16:06:51-08:00	2020-11-21T00:35:36+00:00	2020-11-25T07:59:59+00:00	-5	lsqplgdbs12w8n1@marketplace.amazon.com	edward cullinan	+1 480-618-5344 ext. 54121	ABR0033	Delivery by Tuesday | Arabella Farm Direct Bouquet of 12 Fresh Cut Orange Roses with a Free Glass Vase	1	0	1	Expedited	Lynn Downey	1770 KENILWORTH DR			CLEARWATER	FL	33756-1330	US			false		
111-0711660-2774648	48183407979506	2020-11-21T00:12:11+00:00	2020-11-20T16:12:11-08:00	2020-11-21T00:42:20+00:00	2020-11-25T07:59:59+00:00	-5	ml9lx333nsdhx1v@marketplace.amazon.com	georgeBullock	+1 929-436-4790 ext. 96373	ABR0022	Delivery by Tuesday | Arabella Farm Direct Bouquet of 12 Fresh Cut Pink Roses with a Free Glass Vase	1	0	1	Expedited	malou mariano	140 LINDEN AVE APT 856			LONG BEACH	CA	90802-4935	US			false		
113-2302097-5697826	26155635455874	2020-11-21T00:23:07+00:00	2020-11-20T16:23:07-08:00	2020-11-21T00:49:27+00:00	2020-11-25T07:59:59+00:00	-5	z4f81dlwdgtqmcl@marketplace.amazon.com	Raenette Rojas	+1 619-854-2705 ext. 57274	ABM022	Delivery by Tuesday | Purple Extravagance Bouquet by Arabella Bouquets	1	0	1	Expedited	Josie Gutierrez	5185 RAVENSTONE DR			HEMET	CA	92545-2159	US		Enjoy your gift! HAPPY BIRTHDAY TO YOU MY FRIEND.  I LOVE YOU TOO MUCH GOD BLESS YOU WITH MANY MORE From The Rojas family	false		
111-3086870-8461828	12446289930778	2020-11-21T00:29:50+00:00	2020-11-20T16:29:50-08:00	2020-11-21T00:52:37+00:00	2020-11-25T07:59:59+00:00	-5	dhw3f2hm3rkxbnh@marketplace.amazon.com	Gary Mullen	+1 213-442-1463 ext. 92500	ABR001	Delivery by Tuesday | Arabella Bouquets 12 Stems of Fresh Cut Red Roses in a Free Designer Glass Vase	1	0	1	Standard	MELINDA-management	CHERRY CARSON RV STORAGE	4160 CHERRY AVE		LONG BEACH	CA	90807-3049	US			false		
111-3086870-8461828	46231554027442	2020-11-21T00:29:50+00:00	2020-11-20T16:29:50-08:00	2020-11-21T00:52:37+00:00	2020-11-25T07:59:59+00:00	-5	dhw3f2hm3rkxbnh@marketplace.amazon.com	Gary Mullen	+1 213-442-1463 ext. 92500	ABR0066	Delivery by Tuesday | Arabella Bouquets 12 Stems of Fresh Cut White Roses in a Free Designer Glass Vase	1	0	1	Standard	MELINDA-management	CHERRY CARSON RV STORAGE	4160 CHERRY AVE		LONG BEACH	CA	90807-3049	US			false		
111-9147027-1929864	49151166997554	2020-11-21T00:22:33+00:00	2020-11-20T16:22:33-08:00	2020-11-21T00:52:59+00:00	2020-11-25T07:59:59+00:00	-5	10n1r2xy6k9704l@marketplace.amazon.com	Teena lowe	+1 602-671-6610 ext. 44940	ABR0055	Delivery by Tuesday | Arabella Farm Direct Bouquet of 12 Stems of Fresh Cut Hot Pink Roses in a Free Designer Glass Vase	1	0	1	Expedited	MOMA WHALEN	8012 RUTHWOOD WAY			ORANGEVALE	CA	95662-2921	US			false		
111-5697208-0592212	62367163116946	2020-11-20T23:52:15+00:00	2020-11-20T15:52:15-08:00	2020-11-21T00:59:45+00:00	2020-11-25T07:59:59+00:00	-5	c1214j7v5bfl8lt@marketplace.amazon.com	Marsha Bellsey	+1 619-854-2705 ext. 69904	ABR0055	Delivery by Tuesday | Arabella Farm Direct Bouquet of 12 Stems of Fresh Cut Hot Pink Roses in a Free Designer Glass Vase	1	0	1	Expedited	Deb Carp	10120 240TH PL SW			EDMONDS	WA	98020-5739	US			false		
114-6010738-6593827	48939067439274	2020-11-21T00:21:49+00:00	2020-11-20T16:21:49-08:00	2020-11-21T01:03:37+00:00	2020-11-25T07:59:59+00:00	-5	vfsczhrm5g8m7rr@marketplace.amazon.com	Kyle Simmons	+1 929-436-4790 ext. 95307	ABR0055	Delivery by Tuesday | Arabella Farm Direct Bouquet of 12 Stems of Fresh Cut Hot Pink Roses in a Free Designer Glass Vase	1	0	1	Expedited	Cynthia Williams	329 SUSANN CT			BELLEVILLE	IL	62226-5334	US		Happy thanksgiving! May these bring you the joy we would have brought with us for the Thanksgiving holiday. See you both very soon. We love you tons!!! We look forward to seeing you and having dinner. From Patry y Kyle	false		
113-7944493-0412245	22108751893018	2020-11-21T00:48:59+00:00	2020-11-20T16:48:59-08:00	2020-11-21T01:11:40+00:00	2020-11-25T07:59:59+00:00	-5	rd2t501ftbzlppw@marketplace.amazon.com	Linda Todd	+1 602-671-6610 ext. 97379	ABR0055	Delivery by Tuesday | Arabella Farm Direct Bouquet of 12 Stems of Fresh Cut Hot Pink Roses in a Free Designer Glass Vase	1	0	1	Expedited	Rita Richards (C/O Adam Richards)	4553 PRESTON FOREST DR			BLACKSBURG	VA	24060-8662	US		Happy Birthday Ra!  Wishing you love, joy, and peace. Love, Nini From Linda Todd	false		
111-4780655-3109803	21071587535266	2020-11-21T00:46:30+00:00	2020-11-20T16:46:30-08:00	2020-11-21T01:15:15+00:00	2020-11-25T07:59:59+00:00	-5	10rxskvm7pgrr4t@marketplace.amazon.com	Ryan Bridges	+1 929-436-4790 ext. 00411	ABR0033	Delivery by Tuesday | Arabella Farm Direct Bouquet of 12 Fresh Cut Orange Roses with a Free Glass Vase	1	0	1	Expedited	Alheli Bridges (Shining Smiles Dentistry)	210 N BOLINGBROOK DR			BOLINGBROOK	IL	60440-2386	US		Happy Birthday Mama!! From Ryan, Vincent and Mia	false		
113-8080290-7433857	41917068443754	2020-11-21T00:52:53+00:00	2020-11-20T16:52:53-08:00	2020-11-21T01:23:08+00:00	2020-11-25T07:59:59+00:00	-5	mtvr6rjwbq1bs91@marketplace.amazon.com	Tyler Long	+1 480-618-5344 ext. 88864	ABM022	Delivery by Tuesday | Purple Extravagance Bouquet by Arabella Bouquets	1	0	1	Expedited	Denise Long	3059 SMOKEY RD UNIT 21-H			PRESCOTT	AZ	86301-4696	US		Happy Birthday From Tyler Long	false		
113-8361745-2149843	46477930720738	2020-11-19T00:42:26+00:00	2020-11-18T16:42:26-08:00	2020-11-21T01:23:49+00:00	2020-11-25T07:59:59+00:00	-5	p9yb6qhrckwr5s6@marketplace.amazon.com	Paislee Butler	+1 213-442-1463 ext. 91550	ABR0022	Delivery by Friday | Arabella Farm Direct Bouquet of 12 Fresh Cut Pink Roses with a Free Glass Vase	1	0	1	Expedited	Mechelle Hudnall	2603 EDGEWOOD DR			MERIDIAN	MS	39307-4040	US			false		
112-8917647-5251420	67432964576546	2020-11-21T00:57:29+00:00	2020-11-20T16:57:29-08:00	2020-11-21T01:27:20+00:00	2020-11-25T07:59:59+00:00	-5	cd4d3wmjjl3mvnj@marketplace.amazon.com	Corinne O'Brien	+1 602-671-6610 ext. 22051	ABR0066	Delivery by Tuesday | Arabella Bouquets 12 Stems of Fresh Cut White Roses in a Free Designer Glass Vase	1	0	1	Expedited	Ginn Krier	16615 LAWSON VALLEY RD			JAMUL	CA	91935-2417	US		Happy Anniversary good mamas and papas From Corinne O'Brien	false		
112-0733437-3792233	68354025795562	2020-11-21T01:14:17+00:00	2020-11-20T17:14:17-08:00	2020-11-21T01:35:49+00:00	2020-11-25T07:59:59+00:00	-5	whmrch52rhrjc3l@marketplace.amazon.com	Glenn Wright	+1 619-854-2705 ext. 20950	ABM010	Delivery by Tuesday | The Everlasting Fling Bouquet by Arabella Bouquets with a Free Designer Glass Vase	1	0	1	Expedited	lauri Fields	955 Milford St			Cary	IL	60013	US		To my dear friend Lauri, I am so sorry for your loss. I hope you are feeling better. Thinking of you and your family. Love, Marita xoxo From Marita DeSimone	false		
111-8583083-4971403	54216354492650	2020-11-21T01:06:58+00:00	2020-11-20T17:06:58-08:00	2020-11-21T01:37:21+00:00	2020-11-25T07:59:59+00:00	-5	hv8l620yw4d0bwf@marketplace.amazon.com	Kobe Culpitt	+1 213-442-1463 ext. 29384	ABR0033	Delivery by Tuesday | Arabella Farm Direct Bouquet of 12 Fresh Cut Orange Roses with a Free Glass Vase	1	0	1	Expedited	Kobe culpitt	1124 DESERT OAK PL			SIERRA VISTA	AZ	85635-1220	US			false		
112-9932255-2375437	25585033808810	2020-11-21T01:22:08+00:00	2020-11-20T17:22:08-08:00	2020-11-21T01:52:06+00:00	2020-11-25T07:59:59+00:00	-5	cpsn3ddqlrw2y8h@marketplace.amazon.com	Cheryl Jindeel	+1 480-618-5344 ext. 56071	ABM022	Delivery by Tuesday | Purple Extravagance Bouquet by Arabella Bouquets	1	0	1	Expedited	Shirley George	5209 PLANK RD			GLADWIN	MI	48624-9424	US		Happy Birthday! From Cheryl and Jay	false		
114-3711501-7809800	48861439261338	2020-11-21T01:35:46+00:00	2020-11-20T17:35:46-08:00	2020-11-21T01:56:56+00:00	2020-11-25T07:59:59+00:00	-5	lkdzmxjxd8cnd0m@marketplace.amazon.com	Chaudhary Ahmad Ali	+1 619-854-2705 ext. 58307	ABR0022	Delivery by Tuesday | Arabella Farm Direct Bouquet of 12 Fresh Cut Pink Roses with a Free Glass Vase	1	0	1	Expedited	M Saqib Naru	2741 TREASURE COVE DR			THE COLONY	TX	75056-4303	US		Heartiest Congratulations on being nikkahfied !! Love  Fareeha and Family	false		
114-5474479-3053043	37398965174130	2020-11-21T01:40:34+00:00	2020-11-20T17:40:34-08:00	2020-11-21T02:09:37+00:00	2020-11-25T07:59:59+00:00	-5	cf8lv02y4845t3l@marketplace.amazon.com	Andrea Boyette	+1 213-442-1463 ext. 18218	ABM022	Delivery by Tuesday | Purple Extravagance Bouquet by Arabella Bouquets	1	0	1	Expedited	Keturah Russell	325 QUAIL RIDGE DR			APEX	NC	27523-6055	US		Happiest of Happy Birthday wishes my Baby-Girl. Sorry this didn't arrive on your 50th but I was sending you tons  of love From Andrea Boyette	false		
111-4230218-2719418	58587613969522	2020-11-21T01:40:35+00:00	2020-11-20T17:40:35-08:00	2020-11-21T02:10:16+00:00	2020-11-25T07:59:59+00:00	-5	78l33wy3k47jnwm@marketplace.amazon.com	Matt	+1 213-442-1463 ext. 22383	ABR014	Arabella Bouquets 18 Stems of Fresh Cut White Roses in a Free Designer Glass Vase	1	0	1	Standard	Keiko Yamanoi (Chloe )	628 E 26TH ST			BROOKLYN	NY	11210-2148	US			false		
114-6994670-9825000	66117232662474	2020-11-21T01:50:20+00:00	2020-11-20T17:50:20-08:00	2020-11-21T02:18:38+00:00	2020-11-25T07:59:59+00:00	-5	f2pyz3l4n3rs79m@marketplace.amazon.com	NOLEEN NELSON	+1 480-618-5344 ext. 56400	ABR004	Delivery by Tuesday | Arabella Farm Direct Bouquet of 12 Fresh Cut Yellow Roses with a Free Glass Vase	1	0	1	Expedited	Jean Merz	406 Park Barrington Dr			Barrington	IL	60010	US		So sorry we cannot be together this holiday. Wishing you love and best wishes xxx From NOLEEN	false		
114-4583312-7330626	42683488900322	2020-11-21T02:03:44+00:00	2020-11-20T18:03:44-08:00	2020-11-21T02:31:32+00:00	2020-11-25T07:59:59+00:00	-5	6b07zvgdzjxbpt5@marketplace.amazon.com	Mary Schade	+1 480-618-5344 ext. 06725	ABM025	Delivery by Thanksgiving | The Fell for You Bouquet by Arabella Bouquets	1	0	1	Expedited	The Schades	822 MORNING COVE CIR SE			PALM BAY	FL	32909-6878	US		Happy Thanksgiving Enjoy your special TURKEY! Love, mom and dad	false		
112-2362691-4911454	12873051709770	2020-11-21T02:05:08+00:00	2020-11-20T18:05:08-08:00	2020-11-21T02:33:23+00:00	2020-11-25T07:59:59+00:00	-5	n3bbcvpnwglgf7z@marketplace.amazon.com	Carolyn F Horan	+1 213-442-1463 ext. 71803	ABM010	Delivery by Tuesday | The Everlasting Fling Bouquet by Arabella Bouquets with a Free Designer Glass Vase	1	0	1	Expedited	Bajha Habboosh	16 WADSWORTH LN			SOUTH DARTMOUTH	MA	02748-1032	US		Enjoy your gift! Love you! Feel better soon. From Carolyn F Horan	false		
112-2635441-3725021	32829712283258	2020-11-21T02:20:15+00:00	2020-11-20T18:20:15-08:00	2020-11-21T02:45:01+00:00	2020-11-25T07:59:59+00:00	-5	zh3lw49k19jvmjh@marketplace.amazon.com	Justin Lloyd	+1 602-671-6610 ext. 68241	ABR0022	Delivery by Tuesday | Arabella Farm Direct Bouquet of 12 Fresh Cut Pink Roses with a Free Glass Vase	1	0	1	Expedited	Joanne J. Norris	2704 SEVIER ST			SHREVEPORT	LA	71104-3704	US		Thank nees so much for the birthday card. It means the world to me. Love you Granonny From Justin Lloyd	false		
111-9487089-4423452	68997843518202	2020-11-21T02:38:36+00:00	2020-11-20T18:38:36-08:00	2020-11-21T03:00:04+00:00	2020-11-25T07:59:59+00:00	-5	zmhsq2tmcps61ng@marketplace.amazon.com	Rosemary Winkler	+561 628 1671	ABR012	Delivery by Tuesday | Arabella Farm Direct Bouquet of 18 Fresh Cut Pink Roses with a Free Glass Vase	1	0	1	Expedited	Ms Maureen Bosco	30 VIA VERONA			PALM BEACH GARDENS	FL	33418-3720	US			false		
111-8699436-4843430	49509770692250	2020-11-21T02:29:58+00:00	2020-11-20T18:29:58-08:00	2020-11-21T03:00:06+00:00	2020-11-25T07:59:59+00:00	-5	7bfkgxzp3km3jxp@marketplace.amazon.com	sheryl	+1 213-442-1463 ext. 45089	ABR0022	Delivery by Tuesday | Arabella Farm Direct Bouquet of 12 Fresh Cut Pink Roses with a Free Glass Vase	1	0	1	Expedited	Dee Lippincott	307 N PINEVIEW ST			STANBERRY	MO	64489-1509	US			false		
114-8813894-5892261	36410959411210	2020-11-21T02:52:53+00:00	2020-11-20T18:52:53-08:00	2020-11-21T03:21:17+00:00	2020-11-25T07:59:59+00:00	-5	fvt9n7vjqxfqrlx@marketplace.amazon.com	Kathryn Snyder	+1 929-436-4790 ext. 61202	ABR0033	Delivery by Tuesday | Arabella Farm Direct Bouquet of 12 Fresh Cut Orange Roses with a Free Glass Vase	1	0	1	Expedited	Lee Proffitt	3022 AULD TATTY DR			SPRING HILL	TN	37174-7455	US		Happy Birthday, Mom! Lots of love, From Katie	false		
114-8121447-1885833	64146960079882	2020-11-21T02:56:33+00:00	2020-11-20T18:56:33-08:00	2020-11-21T03:26:53+00:00	2020-11-25T07:59:59+00:00	-5	6rpkdbbh6dgkfrx@marketplace.amazon.com	Kevin A. Kauer	+1 602-671-6610 ext. 58390	ABM0033	Delivery by Tuesday | Arabella Farm Direct Bouquet of Fresh Cut White Hydrangea with a Free Glass Vase	1	0	1	Expedited	Beverly Krautler	217 THOMAS WELBORN RD			ANDERSON	SC	29625-6401	US			false		
