order-id	order-item-id	purchase-date	payments-date	reporting-date	promise-date	days-past-promise	buyer-email	buyer-name	buyer-phone-number	sku	product-name	quantity-purchased	quantity-shipped	quantity-to-ship	ship-service-level	recipient-name	ship-address-1	ship-address-2	ship-address-3	ship-city	ship-state	ship-postal-code	ship-country	gift-wrap-type	gift-message-text	is-business-order	purchase-order-number	price-designation
111-5090668-1561060	56386119275802	2020-11-19T18:35:33+00:00	2020-11-19T10:35:33-08:00	2020-11-19T18:48:51+00:00	2020-11-24T07:59:59+00:00	-3	wxqyxg8ym10xb2m@marketplace.amazon.com	Linda Wagner	+1 480-618-5344 ext. 06658	ABM017	Delivery by Monday | Arabella Bouquets 10 Stems of Blue Dendrobium Orchids in a Free Designer Glass Vase	1	0	1	Expedited	Sharon Leighty	60594 SPRINGTREE CT			BEND	OR	97702-9444	US		Thinking of you.  We will all miss Sam.  He was a great friend and companion to you. From Linda, Mom, Brandi and Cream	false		
111-7071140-4766628	54226087094746	2020-11-19T18:57:50+00:00	2020-11-19T10:57:50-08:00	2020-11-19T19:25:41+00:00	2020-11-24T07:59:59+00:00	-3	ntnb9x315lt0316@marketplace.amazon.com	Jeannette	+1 602-671-6610 ext. 61236	ABM017	Delivery by Monday | Arabella Bouquets 10 Stems of Blue Dendrobium Orchids in a Free Designer Glass Vase	1	0	1	Expedited	Peggye Johnson	1027 FLEETWOOD CIR SW			ATLANTA	GA	30311-2535	US		To our Favorite Aunt Sissy: We love and miss you tons.  Happy Thanksgiving. Love Bevan & Jeannette From Jeannette	false		
112-5596312-0298652	65671476581466	2020-11-19T19:21:58+00:00	2020-11-19T11:21:58-08:00	2020-11-19T19:52:22+00:00	2020-11-24T07:59:59+00:00	-3	xs9gbwybtxgqpvy@marketplace.amazon.com	Hilda Montoya	+1 602-671-6610 ext. 51938	ABR0022	Delivery by Saturday | Arabella Farm Direct Bouquet of 12 Fresh Cut Pink Roses with a Free Glass Vase	1	0	1	Expedited	Irene Duarte	11816 S 207TH AVE			BUCKEYE	AZ	85326-1904	US			false		
112-3990138-7092211	35897345997498	2020-11-19T19:42:48+00:00	2020-11-19T11:42:48-08:00	2020-11-19T20:12:40+00:00	2020-11-24T07:59:59+00:00	-3	y6p09h0921b1c0g@marketplace.amazon.com	Shay Balman	+1 415-851-9136 ext. 05904	ABM022	Delivery by Saturday | Purple Extravagance Bouquet by Arabella Bouquets	1	0	1	Expedited	CARSON BALMAN	1605 COUNTY LINE RD APT E312			LONGMONT	CO	80504-8567	US		LOVE YOU! DAD From DAD	false		
111-9173251-8280220	65419921867042	2020-11-19T21:25:10+00:00	2020-11-19T13:25:10-08:00	2020-11-19T21:55:35+00:00	2020-11-24T07:59:59+00:00	-3	cm2rcqjb1p8sc03@marketplace.amazon.com	Dr Ashraf Maher MD,DDS,PhD	+1 480-618-5344 ext. 20773	ABR0055	Delivery by Saturday | Arabella Farm Direct Bouquet of 12 Stems of Fresh Cut Hot Pink Roses in a Free Designer Glass Vase	1	0	1	Expedited	Mr Stuart Somershoe	40711 N ROBINSON DR			ANTHEM	AZ	85086-2504	US			false		
114-1160064-2853044	34518021218250	2020-11-19T22:14:04+00:00	2020-11-19T14:14:04-08:00	2020-11-19T22:42:35+00:00	2020-11-24T07:59:59+00:00	-3	pb00v9mmrd5t5z1@marketplace.amazon.com	Margaret E Chumbley	+1 213-442-1463 ext. 77049	ABR0033	Delivery by Saturday | Arabella Farm Direct Bouquet of 12 Fresh Cut Orange Roses with a Free Glass Vase	1	0	1	Expedited	Pam Chumbley	12643 W RAMPART DR			SUN CITY WEST	AZ	85375-4605	US		Happy Thanksgiving! From Maggie	false		
112-0319016-7924214	17332089437706	2020-11-19T23:22:34+00:00	2020-11-19T15:22:34-08:00	2020-11-19T23:51:25+00:00	2020-11-24T07:59:59+00:00	-3	hj4v73hcnwcnq40@marketplace.amazon.com	Carolyn Lewis	+1 415-851-9136 ext. 59068	ABM010	Delivery by Saturday | The Everlasting Fling Bouquet by Arabella Bouquets with a Free Designer Glass Vase	1	0	1	Expedited	Julie & Kevin Chappell	15215 W EUREKA TRL			SURPRISE	AZ	85374-4475	US			false		
113-6363180-3597030	17315559205978	2020-11-20T02:01:45+00:00	2020-11-19T18:01:45-08:00	2020-11-20T02:28:44+00:00	2020-11-24T07:59:59+00:00	-3	59dg05chy1dss1x@marketplace.amazon.com	Victoria Richel	+1 619-854-2705 ext. 39367	ABM022	Delivery by Saturday | Purple Extravagance Bouquet by Arabella Bouquets	1	0	1	Expedited	Carolyn Richel	10726 E KNOWLES AVE			MESA	AZ	85209-1573	US		Happy Bday!! We love and miss you!! xoxoxoxox From Marc Melissa Victoria & Sebastian	false		
112-1791963-0799459	60648793515962	2020-11-20T03:09:12+00:00	2020-11-19T19:09:12-08:00	2020-11-20T03:47:15+00:00	2020-11-24T07:59:59+00:00	-3	qqd1y53jycsv3f5@marketplace.amazon.com	Jennifer Sheffler	+1 480-618-5344 ext. 01581	ABM010	Delivery by Saturday | The Everlasting Fling Bouquet by Arabella Bouquets with a Free Designer Glass Vase	1	0	1	Expedited	Clara Dennings	4227 WAGNER RD			KETTERING	OH	45440-1428	US		Mrs. Dennings, I’m sorry to hear you were under the weather. Praying that you feel better soon and for a speedy recovery! From Jennifer Sheffler	false		
112-8296507-7097818	35028394984178	2020-11-20T03:31:47+00:00	2020-11-19T19:31:47-08:00	2020-11-20T03:52:32+00:00	2020-11-24T07:59:59+00:00	-3	fkqhlkb9679klkg@marketplace.amazon.com	Osborn Leroy	+1 602-671-6610 ext. 46282	ABR0022	Delivery by Saturday | Arabella Farm Direct Bouquet of 12 Fresh Cut Pink Roses with a Free Glass Vase	1	0	1	Expedited	Betty Taylor	1526 AURORA AVE N APT C			SEATTLE	WA	98109-3041	US			false		
114-8011691-3453056	34301840588162	2020-11-20T03:32:07+00:00	2020-11-19T19:32:07-08:00	2020-11-20T04:03:51+00:00	2020-11-24T07:59:59+00:00	-3	zm6dv3fc8snspdf@marketplace.amazon.com	lan2	+1 415-851-9136 ext. 49939	ABR0022	Delivery by Saturday | Arabella Farm Direct Bouquet of 12 Fresh Cut Pink Roses with a Free Glass Vase	1	0	1	Expedited	Carrie Ramoz	20880 SE Westview Dr.			Bend	Oregon	97702	US		Hi Carrie,   Warm wishes for you and Eric and Todd and Hank. A big THANK YOU! From Jessie and Ian and Claire in Shanghai :D	false		
113-3474781-7069065	38882347700458	2020-11-20T05:25:18+00:00	2020-11-19T21:25:18-08:00	2020-11-20T05:54:12+00:00	2020-11-24T07:59:59+00:00	-3	16yqtjb8d95g3xs@marketplace.amazon.com	Jodi gann	+1 619-854-2705 ext. 19021	ABM010	Delivery by Saturday | The Everlasting Fling Bouquet by Arabella Bouquets with a Free Designer Glass Vase	1	0	1	Expedited	Nell and Jerry Hibbetts	1345 S CEDAR ST			EAGAR	AZ	85925-9737	US		Happy Thanksgiving Mom and Dad!! I love you very much! From Jodi gann	false		
114-7904358-5149814	57106639401674	2020-11-20T12:15:12+00:00	2020-11-20T04:15:12-08:00	2020-11-20T12:45:49+00:00	2020-11-25T07:59:59+00:00	-4	4cjksgg80d10pqw@marketplace.amazon.com	James Nicoll	+1 480-618-5344 ext. 41093	ABB005	Delivery by Saturday | Arabella Bouquets 24 Stems of Fresh Cut Red Roses in a Designer Glass Vase	2	1	1	Expedited	James Nicoll	389 23RD ST GATE CODE # 1379			NEWPORT BEACH	CA	92660-3608	US			false		
112-1782748-4691449	21312444510546	2020-11-20T16:09:07+00:00	2020-11-20T08:09:07-08:00	2020-11-20T16:39:39+00:00	2020-11-25T07:59:59+00:00	-4	jrfczy4n71jc8q1@marketplace.amazon.com	Ann L. Robinson	+1 213-442-1463 ext. 58876	ABR0033	Delivery by Saturday | Arabella Farm Direct Bouquet of 12 Fresh Cut Orange Roses with a Free Glass Vase	1	0	1	Expedited	Ann Robinson	108 ASHLEY CT			GREENVILLE	DE	19807-2259	US			false		
111-1960448-4853807	66924917982210	2020-11-20T16:37:48+00:00	2020-11-20T08:37:48-08:00	2020-11-20T17:04:11+00:00	2020-11-25T07:59:59+00:00	-4	z63xvykldk1gv6b@marketplace.amazon.com	Frances	+1 929-436-4790 ext. 90844	ABM022	Delivery by Saturday | Purple Extravagance Bouquet by Arabella Bouquets	1	0	1	Expedited	Nejme Ata	13130 N HIGH HAWK DR			MARANA	AZ	85658-4250	US		Hamdella 3a salemtik tante Nejme! Neshkor Allah 2tou3 w mara2 3a kher. Ntenhe 3a halik!  Menhebik ktir ..  From Simon & Frances Sarraf From Simon & Frances Sarraf	false		
114-4903471-8105030	42851549808978	2020-11-20T18:02:10+00:00	2020-11-20T10:02:10-08:00	2020-11-20T18:29:28+00:00	2020-11-25T07:59:59+00:00	-4	q0jhwm67bp3prgf@marketplace.amazon.com	Donnamarie	+1 213-442-1463 ext. 06682	ABM026	Delivery by Thanksgiving | The Amour Bouquet by Arabella Bouquets	1	0	1	Expedited	Kathy Evans	2647 STATE ROUTE 492			NEW MILFORD	PA	18834-7777	US			false		
111-8343331-5326616	39912699021994	2020-11-20T18:30:37+00:00	2020-11-20T10:30:37-08:00	2020-11-20T18:57:55+00:00	2020-11-25T07:59:59+00:00	-4	n944djvmt4y772l@marketplace.amazon.com	sandi perry	+1 619-854-2705 ext. 92881	ABM026	Delivery by Thanksgiving | The Amour Bouquet by Arabella Bouquets	1	0	1	Expedited	Steve Rosa	78795 - TANGERINE CT			PALM DESERT	CA	92211-2116	US		Happy Thanksgiving! We all are thinking of you both! Mom, Don, Sandi, FP, Bailey & Hailey From All of us in Texas!	false		
112-0738304-9571445	55168964136546	2020-11-20T18:32:51+00:00	2020-11-20T10:32:51-08:00	2020-11-20T18:59:48+00:00	2020-11-25T07:59:59+00:00	-4	6tqtdl7swbw2wgw@marketplace.amazon.com	TOJONIRINA RAMAROLAHY	+1 602-671-6610 ext. 96446	ABR001	Delivery by Tuesday | Arabella Bouquets 12 Stems of Fresh Cut Red Roses in a Free Designer Glass Vase	1	0	1	Expedited	NIRINIAVISOA Marceda	AVALON BAY POTOMAC YARD	731 SEATON AVE UNIT 508		ALEXANDRIA	VA	22305-3070	US			false		
111-5090967-1667459	36126633474330	2020-11-20T18:47:47+00:00	2020-11-20T10:47:47-08:00	2020-11-20T19:02:38+00:00	2020-11-25T07:59:59+00:00	-4	b0n1c8zrs5rqyvb@marketplace.amazon.com	Roger Abfall	+1 213-442-1463 ext. 49642	ABM0033	Delivery by Tuesday | Arabella Farm Direct Bouquet of Fresh Cut White Hydrangea with a Free Glass Vase	1	0	1	Expedited	Mrs. Judee Purdy	1246 RIVER PARK CIR E			MUKWONAGO	WI	53149-1024	US		Dear Aunt Judee, Sorry for the passing of Uncle Fred. God bless, comfort and keep you. We love you From The Abfalls	false		
112-3662691-3581028	31614774025810	2020-11-20T18:47:09+00:00	2020-11-20T10:47:09-08:00	2020-11-20T19:15:20+00:00	2020-11-25T07:59:59+00:00	-4	3hnwstf7c2hcvws@marketplace.amazon.com	Robert Bikel	+1 619-854-2705 ext. 07193	ABM010	Delivery by Tuesday | The Everlasting Fling Bouquet by Arabella Bouquets with a Free Designer Glass Vase	1	0	1	Expedited	Sophia Rayo	264 E BROADWAY APT C1503			NEW YORK	NY	10002-2084	US		Sophia,  Thank you so much for the workspace! You're a lifesaver.  Best, From Robert Bikel	false		
113-3863401-7142645	59236552539626	2020-11-20T18:55:49+00:00	2020-11-20T10:55:49-08:00	2020-11-20T19:23:49+00:00	2020-11-25T07:59:59+00:00	-4	6kpqjm7stqvnj77@marketplace.amazon.com	lou	+1 415-851-9136 ext. 86225	ABM010	Delivery by Tuesday | The Everlasting Fling Bouquet by Arabella Bouquets with a Free Designer Glass Vase	1	0	1	Expedited	Abby Ferreira	20626 Newby			Orlando	FL	32833	US		Our hearts are so heavy, words are inadequate. All our love ❤️ From TNT	false		
114-2125994-3505806	07115192679074	2020-11-20T19:20:42+00:00	2020-11-20T11:20:42-08:00	2020-11-20T19:26:26+00:00	2020-11-25T07:59:59+00:00	-4	vpcyczxmnrvgrtt@marketplace.amazon.com	Irene Sartini	+1 929-436-4790 ext. 45058	ABM025	Delivery by Thanksgiving | The Fell for You Bouquet by Arabella Bouquets	1	0	1	Expedited	Tom and Diana gregory	326 BRAYTON RD			TIVERTON	RI	02878-3339	US		Hi Tom, and Diane Happy Thanksgiving Enjoy your gift! From Irene And Roger	false		
111-0772185-0051411	66439393686450	2020-11-20T18:58:46+00:00	2020-11-20T10:58:46-08:00	2020-11-20T19:27:15+00:00	2020-11-25T07:59:59+00:00	-4	4v2w64gyp40bmbt@marketplace.amazon.com	Sue Martin	+1 213-442-1463 ext. 98839	ABM020	Delivery by Tuesday | The Sunset Bouquet by Arabella Bouquets	1	0	1	Expedited	Joyce Gardner	54 ANGELL BROOK DR			WEST BOYLSTON	MA	01583-2119	US		Joyce,  Thank you so much for letting Sarah use the house! From Jack, Sue & Sarah	false		
111-2800662-5637001	48446029766082	2020-11-20T19:00:01+00:00	2020-11-20T11:00:01-08:00	2020-11-20T19:27:26+00:00	2020-11-25T07:59:59+00:00	-4	k4dxllhqqdjy6n2@marketplace.amazon.com	Eva Vallejo	+1 213-442-1463 ext. 71876	ABR0022	Delivery by Tuesday | Arabella Farm Direct Bouquet of 12 Fresh Cut Pink Roses with a Free Glass Vase	1	0	1	Expedited	Worthen Family	685 MALAT DR			NEWBURY PARK	CA	91320-2025	US		Have a happy, safe and healthy Thanksgiving...Love you From Eva Vallejo	false		
112-9640681-9696253	02937989657018	2020-11-20T19:01:36+00:00	2020-11-20T11:01:36-08:00	2020-11-20T19:28:40+00:00	2020-11-25T07:59:59+00:00	-4	005dw97sf4l7g1g@marketplace.amazon.com	Clede W ONeal	+1 213-442-1463 ext. 72089	ABR012	Delivery by Tuesday | Arabella Farm Direct Bouquet of 18 Fresh Cut Pink Roses with a Free Glass Vase	1	0	1	Expedited	Susie Boshoff	2 LOOKOUT PT			RIDGEFIELD	CT	06877-1914	US		Susie- Congratulations on the Corporate Secretary’s Best ESG Reporting award! Thank you for all your hard work and contributions to the team and to the report that helped PEP earn this award. Glad to have you on the team. From Anna Palazij	false		
114-0881334-7557807	25795272154810	2020-11-20T19:01:16+00:00	2020-11-20T11:01:16-08:00	2020-11-20T19:29:14+00:00	2020-11-25T07:59:59+00:00	-4	qd1nk0ck10q5w5r@marketplace.amazon.com	Jan Ray	+1 213-442-1463 ext. 27603	ABR013	Delivery by Tuesday | Arabella Farm Direct Bouquet of 18 Fresh Cut Yellow Roses with a Free Glass Vase	1	0	1	Expedited	Lisa Donley	5948 W MAPLE AVE			BERKELEY	IL	60163-1453	US			false		
111-8169363-8325828	70145952756202	2020-11-20T19:03:57+00:00	2020-11-20T11:03:57-08:00	2020-11-20T19:32:31+00:00	2020-11-25T07:59:59+00:00	-4	01zfpxmpn6mwdj8@marketplace.amazon.com	Kirsten	+1 480-618-5344 ext. 99908	ABR0066	Delivery by Tuesday | Arabella Bouquets 12 Stems of Fresh Cut White Roses in a Free Designer Glass Vase	1	0	1	Expedited	Pam Duke	6210 WHITLOW CREEK DR			BISHOP	GA	30621-6508	US		Have a Happy Birthday to my dearest long distance friend.  Your friendship has gotten me through the toughest times.  You are such a special woman.  Massive Hugs, Kirsten From Kirsten	false		
112-3879009-6574610	50049037533466	2020-11-20T19:05:33+00:00	2020-11-20T11:05:33-08:00	2020-11-20T19:32:58+00:00	2020-11-25T07:59:59+00:00	-4	005dw97sf4l7g1g@marketplace.amazon.com	Clede W ONeal	+1 480-618-5344 ext. 07816	ABR012	Delivery by Tuesday | Arabella Farm Direct Bouquet of 18 Fresh Cut Pink Roses with a Free Glass Vase	1	0	1	Expedited	Jennifer Gaskins	101 BRUSHY HILL RD			NEWTOWN	CT	06470-2513	US		Jennifer- Congratulations on Corporate Sec’s Best ESG Reporting award! Thank you for all your hard work & contributions to the team & to our reporting agenda that helped PEP earn this award. Glad to have you on the team!. From Anna Palazij	false		
112-9341386-2785057	62518930524058	2020-11-20T19:04:59+00:00	2020-11-20T11:04:59-08:00	2020-11-20T19:33:46+00:00	2020-11-25T07:59:59+00:00	-4	t1t1mzkjwx7rcv4@marketplace.amazon.com	John Jacobsen	+1 602-671-6610 ext. 65322	ABR0055	Delivery by Tuesday | Arabella Farm Direct Bouquet of 12 Stems of Fresh Cut Hot Pink Roses in a Free Designer Glass Vase	1	0	1	Expedited	Linda Jacobsen	1622 DENISE DR APT B			FOREST HILL	MD	21050-2990	US		Have a Happy Birthday From John & Deneen	false		
114-8497059-8613016	17077203755866	2020-11-20T19:20:42+00:00	2020-11-20T11:20:42-08:00	2020-11-20T19:35:49+00:00	2020-11-25T07:59:59+00:00	-4	vpcyczxmnrvgrtt@marketplace.amazon.com	Irene Sartini	508-51160	ABM010	Delivery by Tuesday | The Everlasting Fling Bouquet by Arabella Bouquets with a Free Designer Glass Vase	1	0	1	Expedited	Cathy Sartini	15 WINWARD ST			FALL RIVER	MA	02724-1435	US		Hi Cathy, and Gene Happy Thanksgiving Enjoy your gift! From Roger and Sis	false		
112-7159477-1759463	68770386877362	2020-11-20T19:12:01+00:00	2020-11-20T11:12:01-08:00	2020-11-20T19:39:36+00:00	2020-11-25T07:59:59+00:00	-4	dfj2h2b5ykpgn21@marketplace.amazon.com	Cristina Williams	+1 619-854-2705 ext. 48221	ABM025	Delivery by Thanksgiving | The Fell for You Bouquet by Arabella Bouquets	1	0	1	Expedited	Ana B. Mubarak	14880 AMOROSE ST			LAKE ELSINORE	CA	92530-7414	US		Dearest Ana, 💐 God is always with you 👼🏼🙏🏼👼🏼✝️🌈❤️ Happy Thanksgiving 🦃🍁🍽 with your family and friends! The miracle of hope is your gift! From Tom and Cristina Williams	false		
113-3540614-2401018	64135080949250	2020-11-20T19:19:57+00:00	2020-11-20T11:19:57-08:00	2020-11-20T19:45:14+00:00	2020-11-25T07:59:59+00:00	-4	1x45bp4swqlwjjh@marketplace.amazon.com	Heather Moster	+1 213-442-1463 ext. 46602	ABR0022	Delivery by Tuesday | Arabella Farm Direct Bouquet of 12 Fresh Cut Pink Roses with a Free Glass Vase	1	0	1	Expedited	Michelle Spitler	966 ANDREWS AVE NW			PORT CHARLOTTE	FL	33948-2055	US		Love, Aunt Pam + Aunt Bridget From Heather Moster	false		
112-9161272-5633045	34776938567690	2020-11-20T19:24:01+00:00	2020-11-20T11:24:01-08:00	2020-11-20T19:49:01+00:00	2020-11-25T07:59:59+00:00	-4	37dk37xf8wnhqvv@marketplace.amazon.com	Susan Ellis	+1 602-671-6610 ext. 11376	ABM031	Delivery by Thanksgiving | The Harvest Moon Bouquet by Arabella Bouquets	1	0	1	Expedited	Neely Family	952 WYNDSOR DR			HIXSON	TN	37343-2210	US		My thoughts and prayers are with you.  Father Ryan Athletic Department and Ann Mullins Head Volleyball Coach From Ann Mullins	false		
113-6300518-0953864	65516756782362	2020-11-20T20:03:14+00:00	2020-11-20T12:03:14-08:00	2020-11-20T20:30:17+00:00	2020-11-25T07:59:59+00:00	-4	70fzjv9fhwbzjfk@marketplace.amazon.com	lori	+1 619-854-2705 ext. 89767	ABM027	Delivery by Tuesday | The Changing Seasons Bouquet by Arabella Bouquets	1	0	1	Expedited	Mary Elliot	1465 WHITE BEAR RD			BIRDSBORO	PA	19508-8133	US		Mary,      Thinking of you, your are in our thoughts and prayers.  (We made sure to not send lillies! :)) From Love, Edwards, Varacallis and Ambrogis	false		
111-3335864-0129046	43366921681002	2020-11-20T20:03:23+00:00	2020-11-20T12:03:23-08:00	2020-11-20T20:32:54+00:00	2020-11-25T07:59:59+00:00	-4	5f4tmk38d443lm4@marketplace.amazon.com	Drew Zuehlke	+1 929-436-4790 ext. 13089	ABM021	Delivery by Tuesday | The Joyous Bouquet by Arabella Bouquets	1	0	1	Expedited	Joyce Bahrke	5323 PANORAMA TER			PANORA	IA	50216-8605	US		We're so thankful for our family. Love you! Miss you! From DKZZ	false		
111-8784006-2289064	67885802234290	2020-11-20T20:04:32+00:00	2020-11-20T12:04:32-08:00	2020-11-20T20:34:21+00:00	2020-11-25T07:59:59+00:00	-4	5f4tmk38d443lm4@marketplace.amazon.com	Drew Zuehlke	+1 602-671-6610 ext. 85246	ABM021	Delivery by Tuesday | The Joyous Bouquet by Arabella Bouquets	1	0	1	Expedited	Grandma Barbie Zuehlke	531 RUTH DR			JEFFERSON	WI	53549-1893	US		We're thankful for our family. Love you guys. From DKZZ	false		
111-1667300-7509069	67259975554242	2020-11-20T20:06:32+00:00	2020-11-20T12:06:32-08:00	2020-11-20T20:37:03+00:00	2020-11-25T07:59:59+00:00	-4	zzf0msxlrd0z32k@marketplace.amazon.com	Cindy Rogers	+1 602-671-6610 ext. 92226	ABR0022	Delivery by Tuesday | Arabella Farm Direct Bouquet of 12 Fresh Cut Pink Roses with a Free Glass Vase	1	0	1	Expedited	Mr. & Mrs. Richard Musser	1824 E AGUA VIEW RD			MOHAVE VALLEY	AZ	86440-9681	US			false		
111-9825076-1846641	14885156621194	2020-11-20T20:13:21+00:00	2020-11-20T12:13:21-08:00	2020-11-20T20:37:47+00:00	2020-11-25T07:59:59+00:00	-4	0f16xl2byh7jc38@marketplace.amazon.com	Sai	51599184	ABM020	Delivery by Tuesday | The Sunset Bouquet by Arabella Bouquets	1	0	1	Expedited	Kham Thongvanh	333 DESMOND DR			SCHAUMBURG	IL	60193-2858	US		Happy birthday Kham, Sorry we can’t make it to your place.  It’ll be one birthday you’ll never forget.  Wishing you the best!  Love, The Fam From The Big Fam	false		
112-6810586-4705859	60088208081322	2020-11-20T20:25:42+00:00	2020-11-20T12:25:42-08:00	2020-11-20T20:51:54+00:00	2020-11-25T07:59:59+00:00	-4	613n8ft8vgg6wcx@marketplace.amazon.com	Madelyn Kozub	+1 602-671-6610 ext. 27691	ABM025	Delivery by Thanksgiving | The Fell for You Bouquet by Arabella Bouquets	1	0	1	Expedited	Linda and Joe Mills	5367 PENROSE LN			KALAMAZOO	MI	49009-1282	US		Dear Linda & Joe, Heal up soon Linda and A Blessed Thanksgiving to both of you! From Aunt Mary Ann, Madelyn & Nick From Aunt Mary Ann, Madelyn & Nick	false		
112-5714191-9199437	39672578760810	2020-11-20T20:37:22+00:00	2020-11-20T12:37:22-08:00	2020-11-20T21:03:29+00:00	2020-11-25T07:59:59+00:00	-4	t5s4867ny1nbl6f@marketplace.amazon.com	lynda j schmidt	+1 415-851-9136 ext. 98986	ABR0033	Delivery by Tuesday | Arabella Farm Direct Bouquet of 12 Fresh Cut Orange Roses with a Free Glass Vase	1	0	1	Standard	Beck Wesner	9049 BLUEBAY LN			PENSACOLA	FL	32506-9557	US		Happy birthday my awesome twin!  Love you, Lyn From lynda j schmidt	false		
112-8013348-5858661	38151045565746	2020-11-20T20:37:06+00:00	2020-11-20T12:37:06-08:00	2020-11-20T21:06:39+00:00	2020-11-25T07:59:59+00:00	-4	xqt426jq1rnwlpc@marketplace.amazon.com	Mason Wrenn	+1 602-671-6610 ext. 19614	ABM022	Delivery by Tuesday | Purple Extravagance Bouquet by Arabella Bouquets	1	0	1	Expedited	Shayla wrenn	1304 CHARLESTON AVE			MATTOON	IL	61938-4016	US			false		
114-4486438-7015424	18190551010042	2020-11-20T20:46:44+00:00	2020-11-20T12:46:44-08:00	2020-11-20T21:16:46+00:00	2020-11-25T07:59:59+00:00	-4	cskbplv3m7fcl1j@marketplace.amazon.com	Gretchen Jorbin	+1 480-618-5344 ext. 83766	ABM025	Delivery by Thanksgiving | The Fell for You Bouquet by Arabella Bouquets	1	0	1	Expedited	Dana Kotler	694 WILLOW TREE LN			GLENCOE	IL	60022-1039	US			false		
114-0407083-4866616	45417613594762	2020-11-20T20:48:50+00:00	2020-11-20T12:48:50-08:00	2020-11-20T21:18:46+00:00	2020-11-25T07:59:59+00:00	-4	cskbplv3m7fcl1j@marketplace.amazon.com	Gretchen Jorbin	+1 929-436-4790 ext. 88293	ABM025	Delivery by Thanksgiving | The Fell for You Bouquet by Arabella Bouquets	1	0	1	Expedited	Keith Schultz	258 LAKEWOOD DR			ANTIOCH	IL	60002-1641	US			false		
112-8505410-0909020	10469891089930	2020-11-20T20:57:46+00:00	2020-11-20T12:57:46-08:00	2020-11-20T21:26:46+00:00	2020-11-25T07:59:59+00:00	-4	6tfwyqw6cjt3lln@marketplace.amazon.com	Jennifer Lambert	+1 929-436-4790 ext. 53596	ABM025	Delivery by Thanksgiving | The Fell for You Bouquet by Arabella Bouquets	1	0	1	Expedited	Don and Ruth Lambert	2659 BROAD ST			BEAUFORT	SC	29902-6350	US		Missing you this Thanksgiving but sending our love! From Jen and Michael	false		
111-2699339-2326648	01217167911154	2020-11-20T21:04:12+00:00	2020-11-20T13:04:12-08:00	2020-11-20T21:29:45+00:00	2020-11-25T07:59:59+00:00	-4	ttr8p2spd3c3vkv@marketplace.amazon.com	alexablck10	+1 480-618-5344 ext. 12806	ABR0066	Delivery by Tuesday | Arabella Bouquets 12 Stems of Fresh Cut White Roses in a Free Designer Glass Vase	1	0	1	Expedited	Kelsi White	505 CLIFF BULLOCK DR			STERLINGTON	LA	71280-3403	US		Kelsi & Mark, Our deepest condolences to you & your family during this time. We are holding you close in our hearts, & hoping that you can find moments of peace in the days ahead.  We love you- Alexa, Allie, Rachel, and Mallory	false		
111-4625362-7037808	38584013547114	2020-11-20T21:04:20+00:00	2020-11-20T13:04:20-08:00	2020-11-20T21:34:26+00:00	2020-11-25T07:59:59+00:00	-4	zvsdc7flxfkys61@marketplace.amazon.com	Irma	+1 619-854-2705 ext. 98505	ABB003	Delivery by Tuesday | Arabella Farm Direct Fresh Cut Blue Hydrangea	1	0	1	Expedited	Irma	9 LINDSEY TER NW			ROME	GA	30165-1215	US			false		
111-8388124-3536226	66537261410674	2020-11-20T21:08:07+00:00	2020-11-20T13:08:07-08:00	2020-11-20T21:35:56+00:00	2020-11-25T07:59:59+00:00	-4	vbgtc4kn48swxks@marketplace.amazon.com	Lakshmy Natarajan	+1 480-618-5344 ext. 78471	ABM022	Delivery by Tuesday | Purple Extravagance Bouquet by Arabella Bouquets	1	0	1	Expedited	Shoba Srinivasan	9011 CORRAL DR			IRVING	TX	75063-4420	US		Best wishes and Happy Anniversary. Lots of Love. From Periamma and Periappa	false		
114-3806534-8798648	01535830574090	2020-11-20T21:16:55+00:00	2020-11-20T13:16:55-08:00	2020-11-20T21:43:12+00:00	2020-11-25T07:59:59+00:00	-4	sfg87jpn1qbgd3b@marketplace.amazon.com	Gini Sommer	+1 602-671-6610 ext. 21104	ABR0033	Delivery by Tuesday | Arabella Farm Direct Bouquet of 12 Fresh Cut Orange Roses with a Free Glass Vase	1	0	1	Expedited	Tiffany Lemmon	1409 S STEVENS ST			TACOMA	WA	98405-1127	US		Wishing you peace during this time of loss. We are here for you. From Your friends and co-workers at Tacoma Arts Live	false		
111-7583124-3120237	24761093617626	2020-11-20T21:23:43+00:00	2020-11-20T13:23:43-08:00	2020-11-20T21:50:46+00:00	2020-11-25T07:59:59+00:00	-4	t2xrydqbgs5y00t@marketplace.amazon.com	Dawn Bracken	+1 480-618-5344 ext. 83368	ABR0022	Delivery by Tuesday | Arabella Farm Direct Bouquet of 12 Fresh Cut Pink Roses with a Free Glass Vase	1	0	1	Expedited	Alanie	14560 COREY WAY			VICTORVILLE	CA	92394-0836	US		Hi Babe , Miss you, love  you! Get better  ! Hope to see you soon . Smell the roses From Gerald Walton	false		
111-4488822-9048244	03215167951154	2020-11-20T21:27:27+00:00	2020-11-20T13:27:27-08:00	2020-11-20T21:54:50+00:00	2020-11-25T07:59:59+00:00	-4	ktltfdpm8h93y2j@marketplace.amazon.com	Tracey Bastic	+1 415-851-9136 ext. 39470	ABR012	Delivery by Tuesday | Arabella Farm Direct Bouquet of 18 Fresh Cut Pink Roses with a Free Glass Vase	1	0	1	Expedited	Juanita Wagers	4521 REDWOOD ST			WINTER HAVEN	FL	33880-1634	US		Love you Grandma! I guess we'll all be celebrating the holidays in our own way alone this year. As always, I'll be thinking of you! I'll see you in 2021!!! From Tracey Bastic	false		
113-1136911-9836259	68142270046866	2020-11-20T21:26:07+00:00	2020-11-20T13:26:07-08:00	2020-11-20T21:55:27+00:00	2020-11-25T07:59:59+00:00	-4	khpt1xmrz755lrj@marketplace.amazon.com	Cailey Bromer	+1 480-618-5344 ext. 32792	ABR0022	Delivery by Tuesday | Arabella Farm Direct Bouquet of 12 Fresh Cut Pink Roses with a Free Glass Vase	1	0	1	Expedited	Catherine Galvin	2101 POPLAR ST			GARNET VALLEY	PA	19060-6703	US		Happy birthday (great) Grandmom!! We miss you so much! You are an inspiration <3 Love you!! Charlie, Cailey, Luke, Orion From Cailey Bromer	false		
113-7353951-6993052	51845206444994	2020-11-20T21:49:29+00:00	2020-11-20T13:49:29-08:00	2020-11-20T22:17:23+00:00	2020-11-25T07:59:59+00:00	-4	3zsc0yklr1fmcd5@marketplace.amazon.com	Nancy Sturtecky	+1 619-854-2705 ext. 50482	ABM010	Delivery by Tuesday | The Everlasting Fling Bouquet by Arabella Bouquets with a Free Designer Glass Vase	1	0	1	Expedited	Ruth Gage Burns	3908 CHEROKEE AVE			FLINT	MI	48507-2876	US		Happy Thanksgiving! We love & miss you!  Love, Nancy & Susy From Nancy Sturtecky	false		
113-8828107-5020250	23030217615434	2020-11-20T21:56:57+00:00	2020-11-20T13:56:57-08:00	2020-11-20T22:24:46+00:00	2020-11-25T07:59:59+00:00	-4	53gl5fkhksy6dqj@marketplace.amazon.com	saroja mallik md	+1 619-854-2705 ext. 07727	ABM026	Delivery by Thanksgiving | The Amour Bouquet by Arabella Bouquets	1	0	1	Expedited	Dr. sara Narayan	2000 EASTRIDGE RD			LUTHERVILLE	MD	21093-4331	US		Happy Birthday to sarasu many happy returns From saroja mallik md	false		
111-7576546-8296210	60545252452138	2020-11-20T22:01:45+00:00	2020-11-20T14:01:45-08:00	2020-11-20T22:27:55+00:00	2020-11-25T07:59:59+00:00	-4	ftqptw1tzszzg7h@marketplace.amazon.com	Jeanie Dale-Joecks	+1 480-618-5344 ext. 24639	ABM022	Delivery by Tuesday | Purple Extravagance Bouquet by Arabella Bouquets	1	0	1	Expedited	Dannise Parker	2117 Via Visalia			Santa Marie,	CA	93458-8246	US		Happy Anniversary. From Jeanie & Mark	false		
111-3976907-0036225	10437786412338	2020-11-20T22:06:49+00:00	2020-11-20T14:06:49-08:00	2020-11-20T22:34:06+00:00	2020-11-25T07:59:59+00:00	-4	bgmrb33tfss2qd6@marketplace.amazon.com	Marlene smith	+1 619-854-2705 ext. 08736	ABM010	Delivery by Tuesday | The Everlasting Fling Bouquet by Arabella Bouquets with a Free Designer Glass Vase	1	0	1	Expedited	Jen Mac	17 HUNTERS RIDGE DR			PENNINGTON	NJ	08534-3910	US		We are glad you are better! Have a nice day! From Your Princeton CCU family	false		
112-0715288-5779402	60850671219010	2020-11-20T22:15:06+00:00	2020-11-20T14:15:06-08:00	2020-11-20T22:36:41+00:00	2020-11-25T07:59:59+00:00	-4	bh4r5hx0r2tf2pw@marketplace.amazon.com	Kathy Macchione	+1 213-442-1463 ext. 10211	ABR0022	Delivery by Tuesday | Arabella Farm Direct Bouquet of 12 Fresh Cut Pink Roses with a Free Glass Vase	1	0	1	Expedited	Lidia Jeffers	18 SPRING ST			COHASSET	MA	02025-1724	US		Lidia, My mom, Nanny, always sent a dozen roses to all her granddaughters on their 16th Birthday.  I wanted to continue the tradition for my first granddaughter! Love you have a very Happy Sweet 16 Birthday! From Grandma	false		
112-1336012-8411432	57125522311698	2020-11-20T22:07:39+00:00	2020-11-20T14:07:39-08:00	2020-11-20T22:38:14+00:00	2020-11-25T07:59:59+00:00	-4	kzrzz2ldw3d3m4c@marketplace.amazon.com	Sheri Munn	+1 619-854-2705 ext. 36698	ABR0055	Delivery by Tuesday | Arabella Farm Direct Bouquet of 12 Stems of Fresh Cut Hot Pink Roses in a Free Designer Glass Vase	1	0	1	Expedited	Mary Layton	741 CANOE TRL			VERO BEACH	FL	32963-3922	US			false		
111-6506803-9725821	29160679952434	2020-11-20T22:20:33+00:00	2020-11-20T14:20:33-08:00	2020-11-20T22:47:15+00:00	2020-11-25T07:59:59+00:00	-4	vtg7jnfvh5qcv8m@marketplace.amazon.com	Lisa Frame	+1 619-854-2705 ext. 36849	ABR0022	Delivery by Tuesday | Arabella Farm Direct Bouquet of 12 Fresh Cut Pink Roses with a Free Glass Vase	1	0	1	Expedited	Nancy Schleicher	2362 ERICKSON DR			TROY	MI	48085-6718	US		Dear Nancy,  I'm so sorry for your loss. Charlie was the sweetest boy and I know how much he meant to you. Thinking of you. Love you so much! From Lisa Frame	false		
114-1045077-0686619	21728865836546	2020-11-20T22:40:07+00:00	2020-11-20T14:40:07-08:00	2020-11-20T23:08:15+00:00	2020-11-25T07:59:59+00:00	-4	k7vpw211wbbt0zr@marketplace.amazon.com	Susan R. Hupper	+1 929-436-4790 ext. 59436	ABM010	Delivery by Tuesday | The Everlasting Fling Bouquet by Arabella Bouquets with a Free Designer Glass Vase	1	0	1	Expedited	Mrs. Joyce Hupper	360 MOUNT AUBURN ST APT 212			CAMBRIDGE	MA	02138-5596	US		To Joyce, Happy Thanksgiving! Wish we could all be together... Love, Craig, Susan, Sarah and Elizabeth	false		
114-0920943-8086646	05953838849362	2020-11-20T22:46:29+00:00	2020-11-20T14:46:29-08:00	2020-11-20T23:14:37+00:00	2020-11-25T07:59:59+00:00	-4	k7vpw211wbbt0zr@marketplace.amazon.com	Susan R. Hupper	+1 929-436-4790 ext. 13453	ABM010	Delivery by Tuesday | The Everlasting Fling Bouquet by Arabella Bouquets with a Free Designer Glass Vase	1	0	1	Expedited	Mr. and Mrs. Kenneth H. Rose	7101 BAY FRONT DR APT 115			ANNAPOLIS	MD	21403-3628	US		Happy Thanksgiving!  We are so sorry not to be there this year...  Love, Susan, Craig, Sarah and Elizabeth	false		
114-8979755-6083406	61832531662066	2020-11-20T22:52:58+00:00	2020-11-20T14:52:58-08:00	2020-11-20T23:22:49+00:00	2020-11-25T07:59:59+00:00	-4	lcg1hm1h1vpzz4d@marketplace.amazon.com	maria espinoza	+1 213-442-1463 ext. 27874	ABR0066	Delivery by Tuesday | Arabella Bouquets 12 Stems of Fresh Cut White Roses in a Free Designer Glass Vase	1	0	1	Expedited	Stephanie Espinoza-Levy	9900 SUNSHINE MESA DR NW			ALBUQUERQUE	NM	87114-1687	US			false		
113-7864857-4378638	06335472429178	2020-11-20T22:54:38+00:00	2020-11-20T14:54:38-08:00	2020-11-20T23:22:54+00:00	2020-11-25T07:59:59+00:00	-4	z62b1k4tzt4tjh6@marketplace.amazon.com	Joyce Lawson	+1 480-618-5344 ext. 52665	ABM026	Delivery by Thanksgiving | The Amour Bouquet by Arabella Bouquets	1	0	1	Expedited	Col. and Mrs. Richard  Scibeck	4105 SOUND DR			MOREHEAD CITY	NC	28557-2859	US		Thinking of you all and sending lots of love your way!!!!  God's blessings, Love Joyce, Rick & family From Joyce & Rick From Joyce & Rick	false		
111-5264335-1020223	05565018495370	2020-11-20T23:07:40+00:00	2020-11-20T15:07:40-08:00	2020-11-20T23:38:03+00:00	2020-11-25T07:59:59+00:00	-4	61gn81p5jgxtjct@marketplace.amazon.com	Kay L. Bemis	+1 619-854-2705 ext. 60136	ABM010	Delivery by Tuesday | The Everlasting Fling Bouquet by Arabella Bouquets with a Free Designer Glass Vase	1	0	1	Expedited	Kay l bemis	8753 MCCARTY RANCH DR			SAN JOSE	CA	95135-2158	US			false		
114-8750583-7285839	39630554962690	2020-11-20T23:12:35+00:00	2020-11-20T15:12:35-08:00	2020-11-20T23:42:33+00:00	2020-11-25T07:59:59+00:00	-4	f6dk8rvlk1zq5z0@marketplace.amazon.com	Michou F Kokodoko	+1 213-442-1463 ext. 85380	ABR0055	Delivery by Tuesday | Arabella Farm Direct Bouquet of 12 Stems of Fresh Cut Hot Pink Roses in a Free Designer Glass Vase	1	0	1	Expedited	Michou Kokodoko	1445 HILLSBORO AVE S			ST LOUIS PARK	MN	55426-1826	US			false		
114-2032147-1543410	50851656056514	2020-11-20T23:16:50+00:00	2020-11-20T15:16:50-08:00	2020-11-20T23:44:12+00:00	2020-11-25T07:59:59+00:00	-4	4279z4wtgdvzg72@marketplace.amazon.com	andres aportela	+1 619-854-2705 ext. 49646	ABM025	Delivery by Thanksgiving | The Fell for You Bouquet by Arabella Bouquets	1	0	1	Expedited	Andres aportela	38 LANCE RD			LEBANON	NJ	08833-5005	US			false		
113-8182056-1875411	58612637029514	2020-11-20T23:17:02+00:00	2020-11-20T15:17:02-08:00	2020-11-20T23:44:38+00:00	2020-11-25T07:59:59+00:00	-4	m9jdv6vbyt76893@marketplace.amazon.com	Holly Conklin	+1 619-854-2705 ext. 77761	ABM022	Delivery by Tuesday | Purple Extravagance Bouquet by Arabella Bouquets	1	0	1	Expedited	SYLVIA WEAVER	153 DEAN RD			HUDSON FALLS	NY	12839-3903	US		HAPPY BIRTHDAY GRANDMA!  Love , Landen From Landen	false		
113-0325281-8221851	58917376341698	2020-11-20T23:24:42+00:00	2020-11-20T15:24:42-08:00	2020-11-20T23:51:14+00:00	2020-11-25T07:59:59+00:00	-4	39bwx0b5dyngt4g@marketplace.amazon.com	Melissa Frey	+1 619-854-2705 ext. 68064	ABM022	Delivery by Tuesday | Purple Extravagance Bouquet by Arabella Bouquets	1	0	1	Expedited	Renee Raisanen	5542 OTTER VIEW TRL			SAINT PAUL	MN	55110-2223	US		Happy Birthday! I hope you have a wonderful day. <3 From Melissa Frey	false		
113-0176128-8935468	28735074948010	2020-11-20T23:27:56+00:00	2020-11-20T15:27:56-08:00	2020-11-20T23:54:52+00:00	2020-11-25T07:59:59+00:00	-4	bc1nl3jrztxs3rg@marketplace.amazon.com	PAULA G TOWNSEND	+1 415-851-9136 ext. 36697	ABM023	Delivery by Tuesday | The Morning Sun Bouquet by Arabella Bouquets	1	0	1	Expedited	The Lindgren Family	19936 RAVENWOOD RD SE			MONROE	WA	98272-8322	US		I was soooo looking forward to spending Thanksgiving with you. But we'll be together on FaceTime. With love and thanksgiving for having such an awesome family! From Grandma and Honey	false		
114-1166036-1366627	12485477395954	2020-11-20T23:33:10+00:00	2020-11-20T15:33:10-08:00	2020-11-20T23:58:48+00:00	2020-11-25T07:59:59+00:00	-4	cy7hlsh3gxwlhq9@marketplace.amazon.com	Mike Mays	+1 415-851-9136 ext. 50005	ABM022	Delivery by Tuesday | Purple Extravagance Bouquet by Arabella Bouquets	1	0	1	Expedited	June Mays	W3197 ORCHARD AVE			GREEN LAKE	WI	54941-9697	US		Get well Soon!  Love, Mike From Mike Mays	false		
112-0572837-6659406	55317613017706	2020-11-20T23:30:51+00:00	2020-11-20T15:30:51-08:00	2020-11-20T23:59:46+00:00	2020-11-25T07:59:59+00:00	-4	smcrwtnfqy9n7qk@marketplace.amazon.com	Jeanette Money	+1 619-854-2705 ext. 41317	ABR0033	Delivery by Tuesday | Arabella Farm Direct Bouquet of 12 Fresh Cut Orange Roses with a Free Glass Vase	1	0	1	Expedited	Maria Gryn	24340 MIAMI FOLEY RD			NEHALEM	OR	97131-9539	US		Happy Birthday Sister ❤️ Have a wonderful day. Love you From Net	false		
112-8659387-8723447	55950024182138	2020-11-20T23:48:28+00:00	2020-11-20T15:48:28-08:00	2020-11-21T00:18:20+00:00	2020-11-25T07:59:59+00:00	-4	7r4l03vzvyz5crm@marketplace.amazon.com	James rotter	+1 929-436-4790 ext. 82321	ABR001	Delivery by Tuesday | Arabella Bouquets 12 Stems of Fresh Cut Red Roses in a Free Designer Glass Vase	1	0	1	Expedited	JAMES ROTTER	3715 E RIMROCK DR			RIMROCK	AZ	86335-5253	US			false		
114-9795737-9572263	02065603108994	2020-11-20T23:52:28+00:00	2020-11-20T15:52:28-08:00	2020-11-21T00:18:48+00:00	2020-11-25T07:59:59+00:00	-4	b23h6cfy9jsr5mq@marketplace.amazon.com	Miguel Lopez	+1 415-851-9136 ext. 08960	ABR0055	Delivery by Tuesday | Arabella Farm Direct Bouquet of 12 Stems of Fresh Cut Hot Pink Roses in a Free Designer Glass Vase	1	0	1	Expedited	Mrs. Rachel Lopez	4687 KELLYKRIS DR			SAINT CHARLES	MO	63304-3412	US		Happy Birthday Rachel From Love Miguel, Lucy and Familia 🌷🎂	false		
111-6879629-6032221	67979228574634	2020-11-20T23:51:59+00:00	2020-11-20T15:51:59-08:00	2020-11-21T00:21:42+00:00	2020-11-25T07:59:59+00:00	-4	glttng9lkvfvr8g@marketplace.amazon.com	Jennifer Celusniak	+1 602-671-6610 ext. 96904	ABR0022	Delivery by Tuesday | Arabella Farm Direct Bouquet of 12 Fresh Cut Pink Roses with a Free Glass Vase	1	0	1	Expedited	The Shahs	615 8TH ST			CARLSTADT	NJ	07072-1701	US		Dear Ajita, Wishing you well and a positive recovery.  We’re thinking about you and keeping you in our prayers.  Love, The Hulls: Jen, Justin, Avery & Chase From The Hulls	false		
111-6412992-8131418	66707413820626	2020-11-20T23:57:33+00:00	2020-11-20T15:57:33-08:00	2020-11-21T00:23:21+00:00	2020-11-25T07:59:59+00:00	-4	cmy5gynjctz5fr6@marketplace.amazon.com	RALITSA VASSILEVA	+1 929-436-4790 ext. 40707	ABR0055	Delivery by Tuesday | Arabella Farm Direct Bouquet of 12 Stems of Fresh Cut Hot Pink Roses in a Free Designer Glass Vase	1	0	1	Expedited	Sheila Tschinkel	1699 FRIAR TUCK RD NE			ATLANTA	GA	30309-2660	US		Dear S, Have a wonderful Birthday! Never forget to "smell the roses"! Be happy and well. Love, R From RALITSA VASSILEVA	false		
113-0371671-3393819	15669823711138	2020-11-21T00:00:28+00:00	2020-11-20T16:00:28-08:00	2020-11-21T00:27:55+00:00	2020-11-25T07:59:59+00:00	-4	7z107tpvdnd2wm2@marketplace.amazon.com	Joyce	+1 602-671-6610 ext. 64783	ABR0055	Delivery by Tuesday | Arabella Farm Direct Bouquet of 12 Stems of Fresh Cut Hot Pink Roses in a Free Designer Glass Vase	1	0	1	Expedited	Melissa Mahan	255 PARK ST			HONEY BROOK	PA	19344-8775	US			false		
111-8450020-2576212	56465750481922	2020-11-21T00:06:51+00:00	2020-11-20T16:06:51-08:00	2020-11-21T00:35:36+00:00	2020-11-25T07:59:59+00:00	-4	lsqplgdbs12w8n1@marketplace.amazon.com	edward cullinan	+1 480-618-5344 ext. 54121	ABR0033	Delivery by Tuesday | Arabella Farm Direct Bouquet of 12 Fresh Cut Orange Roses with a Free Glass Vase	1	0	1	Expedited	Lynn Downey	1770 KENILWORTH DR			CLEARWATER	FL	33756-1330	US			false		
111-0711660-2774648	48183407979506	2020-11-21T00:12:11+00:00	2020-11-20T16:12:11-08:00	2020-11-21T00:42:20+00:00	2020-11-25T07:59:59+00:00	-4	ml9lx333nsdhx1v@marketplace.amazon.com	georgeBullock	+1 929-436-4790 ext. 96373	ABR0022	Delivery by Tuesday | Arabella Farm Direct Bouquet of 12 Fresh Cut Pink Roses with a Free Glass Vase	1	0	1	Expedited	malou mariano	140 LINDEN AVE APT 856			LONG BEACH	CA	90802-4935	US			false		
113-2302097-5697826	26155635455874	2020-11-21T00:23:07+00:00	2020-11-20T16:23:07-08:00	2020-11-21T00:49:27+00:00	2020-11-25T07:59:59+00:00	-4	z4f81dlwdgtqmcl@marketplace.amazon.com	Raenette Rojas	+1 619-854-2705 ext. 57274	ABM022	Delivery by Tuesday | Purple Extravagance Bouquet by Arabella Bouquets	1	0	1	Expedited	Josie Gutierrez	5185 RAVENSTONE DR			HEMET	CA	92545-2159	US		Enjoy your gift! HAPPY BIRTHDAY TO YOU MY FRIEND.  I LOVE YOU TOO MUCH GOD BLESS YOU WITH MANY MORE From The Rojas family	false		
111-3086870-8461828	12446289930778	2020-11-21T00:29:50+00:00	2020-11-20T16:29:50-08:00	2020-11-21T00:52:37+00:00	2020-11-25T07:59:59+00:00	-4	dhw3f2hm3rkxbnh@marketplace.amazon.com	Gary Mullen	+1 213-442-1463 ext. 92500	ABR001	Delivery by Tuesday | Arabella Bouquets 12 Stems of Fresh Cut Red Roses in a Free Designer Glass Vase	1	0	1	Standard	MELINDA-management	CHERRY CARSON RV STORAGE	4160 CHERRY AVE		LONG BEACH	CA	90807-3049	US			false		
111-3086870-8461828	46231554027442	2020-11-21T00:29:50+00:00	2020-11-20T16:29:50-08:00	2020-11-21T00:52:37+00:00	2020-11-25T07:59:59+00:00	-4	dhw3f2hm3rkxbnh@marketplace.amazon.com	Gary Mullen	+1 213-442-1463 ext. 92500	ABR0066	Delivery by Tuesday | Arabella Bouquets 12 Stems of Fresh Cut White Roses in a Free Designer Glass Vase	1	0	1	Standard	MELINDA-management	CHERRY CARSON RV STORAGE	4160 CHERRY AVE		LONG BEACH	CA	90807-3049	US			false		
111-9147027-1929864	49151166997554	2020-11-21T00:22:33+00:00	2020-11-20T16:22:33-08:00	2020-11-21T00:52:59+00:00	2020-11-25T07:59:59+00:00	-4	10n1r2xy6k9704l@marketplace.amazon.com	Teena lowe	+1 602-671-6610 ext. 44940	ABR0055	Delivery by Tuesday | Arabella Farm Direct Bouquet of 12 Stems of Fresh Cut Hot Pink Roses in a Free Designer Glass Vase	1	0	1	Expedited	MOMA WHALEN	8012 RUTHWOOD WAY			ORANGEVALE	CA	95662-2921	US			false		
111-5697208-0592212	62367163116946	2020-11-20T23:52:15+00:00	2020-11-20T15:52:15-08:00	2020-11-21T00:59:45+00:00	2020-11-25T07:59:59+00:00	-4	c1214j7v5bfl8lt@marketplace.amazon.com	Marsha Bellsey	+1 619-854-2705 ext. 69904	ABR0055	Delivery by Tuesday | Arabella Farm Direct Bouquet of 12 Stems of Fresh Cut Hot Pink Roses in a Free Designer Glass Vase	1	0	1	Expedited	Deb Carp	10120 240TH PL SW			EDMONDS	WA	98020-5739	US			false		
114-6010738-6593827	48939067439274	2020-11-21T00:21:49+00:00	2020-11-20T16:21:49-08:00	2020-11-21T01:03:37+00:00	2020-11-25T07:59:59+00:00	-4	vfsczhrm5g8m7rr@marketplace.amazon.com	Kyle Simmons	+1 929-436-4790 ext. 95307	ABR0055	Delivery by Tuesday | Arabella Farm Direct Bouquet of 12 Stems of Fresh Cut Hot Pink Roses in a Free Designer Glass Vase	1	0	1	Expedited	Cynthia Williams	329 SUSANN CT			BELLEVILLE	IL	62226-5334	US		Happy thanksgiving! May these bring you the joy we would have brought with us for the Thanksgiving holiday. See you both very soon. We love you tons!!! We look forward to seeing you and having dinner. From Patry y Kyle	false		
113-7944493-0412245	22108751893018	2020-11-21T00:48:59+00:00	2020-11-20T16:48:59-08:00	2020-11-21T01:11:40+00:00	2020-11-25T07:59:59+00:00	-4	rd2t501ftbzlppw@marketplace.amazon.com	Linda Todd	+1 602-671-6610 ext. 97379	ABR0055	Delivery by Tuesday | Arabella Farm Direct Bouquet of 12 Stems of Fresh Cut Hot Pink Roses in a Free Designer Glass Vase	1	0	1	Expedited	Rita Richards (C/O Adam Richards)	4553 PRESTON FOREST DR			BLACKSBURG	VA	24060-8662	US		Happy Birthday Ra!  Wishing you love, joy, and peace. Love, Nini From Linda Todd	false		
111-4780655-3109803	21071587535266	2020-11-21T00:46:30+00:00	2020-11-20T16:46:30-08:00	2020-11-21T01:15:15+00:00	2020-11-25T07:59:59+00:00	-4	10rxskvm7pgrr4t@marketplace.amazon.com	Ryan Bridges	+1 929-436-4790 ext. 00411	ABR0033	Delivery by Tuesday | Arabella Farm Direct Bouquet of 12 Fresh Cut Orange Roses with a Free Glass Vase	1	0	1	Expedited	Alheli Bridges (Shining Smiles Dentistry)	210 N BOLINGBROOK DR			BOLINGBROOK	IL	60440-2386	US		Happy Birthday Mama!! From Ryan, Vincent and Mia	false		
113-8080290-7433857	41917068443754	2020-11-21T00:52:53+00:00	2020-11-20T16:52:53-08:00	2020-11-21T01:23:08+00:00	2020-11-25T07:59:59+00:00	-4	mtvr6rjwbq1bs91@marketplace.amazon.com	Tyler Long	+1 480-618-5344 ext. 88864	ABM022	Delivery by Tuesday | Purple Extravagance Bouquet by Arabella Bouquets	1	0	1	Expedited	Denise Long	3059 SMOKEY RD UNIT 21-H			PRESCOTT	AZ	86301-4696	US		Happy Birthday From Tyler Long	false		
113-8361745-2149843	46477930720738	2020-11-19T00:42:26+00:00	2020-11-18T16:42:26-08:00	2020-11-21T01:23:49+00:00	2020-11-25T07:59:59+00:00	-4	p9yb6qhrckwr5s6@marketplace.amazon.com	Paislee Butler	+1 213-442-1463 ext. 91550	ABR0022	Delivery by Friday | Arabella Farm Direct Bouquet of 12 Fresh Cut Pink Roses with a Free Glass Vase	1	0	1	Expedited	Mechelle Hudnall	2603 EDGEWOOD DR			MERIDIAN	MS	39307-4040	US			false		
112-8917647-5251420	67432964576546	2020-11-21T00:57:29+00:00	2020-11-20T16:57:29-08:00	2020-11-21T01:27:20+00:00	2020-11-25T07:59:59+00:00	-4	cd4d3wmjjl3mvnj@marketplace.amazon.com	Corinne O'Brien	+1 602-671-6610 ext. 22051	ABR0066	Delivery by Tuesday | Arabella Bouquets 12 Stems of Fresh Cut White Roses in a Free Designer Glass Vase	1	0	1	Expedited	Ginn Krier	16615 LAWSON VALLEY RD			JAMUL	CA	91935-2417	US		Happy Anniversary good mamas and papas From Corinne O'Brien	false		
112-0733437-3792233	68354025795562	2020-11-21T01:14:17+00:00	2020-11-20T17:14:17-08:00	2020-11-21T01:35:49+00:00	2020-11-25T07:59:59+00:00	-4	whmrch52rhrjc3l@marketplace.amazon.com	Glenn Wright	+1 619-854-2705 ext. 20950	ABM010	Delivery by Tuesday | The Everlasting Fling Bouquet by Arabella Bouquets with a Free Designer Glass Vase	1	0	1	Expedited	lauri Fields	955 Milford St			Cary	IL	60013	US		To my dear friend Lauri, I am so sorry for your loss. I hope you are feeling better. Thinking of you and your family. Love, Marita xoxo From Marita DeSimone	false		
111-8583083-4971403	54216354492650	2020-11-21T01:06:58+00:00	2020-11-20T17:06:58-08:00	2020-11-21T01:37:21+00:00	2020-11-25T07:59:59+00:00	-4	hv8l620yw4d0bwf@marketplace.amazon.com	Kobe Culpitt	+1 213-442-1463 ext. 29384	ABR0033	Delivery by Tuesday | Arabella Farm Direct Bouquet of 12 Fresh Cut Orange Roses with a Free Glass Vase	1	0	1	Expedited	Kobe culpitt	1124 DESERT OAK PL			SIERRA VISTA	AZ	85635-1220	US			false		
112-9932255-2375437	25585033808810	2020-11-21T01:22:08+00:00	2020-11-20T17:22:08-08:00	2020-11-21T01:52:06+00:00	2020-11-25T07:59:59+00:00	-4	cpsn3ddqlrw2y8h@marketplace.amazon.com	Cheryl Jindeel	+1 480-618-5344 ext. 56071	ABM022	Delivery by Tuesday | Purple Extravagance Bouquet by Arabella Bouquets	1	0	1	Expedited	Shirley George	5209 PLANK RD			GLADWIN	MI	48624-9424	US		Happy Birthday! From Cheryl and Jay	false		
114-3711501-7809800	48861439261338	2020-11-21T01:35:46+00:00	2020-11-20T17:35:46-08:00	2020-11-21T01:56:56+00:00	2020-11-25T07:59:59+00:00	-4	lkdzmxjxd8cnd0m@marketplace.amazon.com	Chaudhary Ahmad Ali	+1 619-854-2705 ext. 58307	ABR0022	Delivery by Tuesday | Arabella Farm Direct Bouquet of 12 Fresh Cut Pink Roses with a Free Glass Vase	1	0	1	Expedited	M Saqib Naru	2741 TREASURE COVE DR			THE COLONY	TX	75056-4303	US		Heartiest Congratulations on being nikkahfied !! Love  Fareeha and Family	false		
114-5474479-3053043	37398965174130	2020-11-21T01:40:34+00:00	2020-11-20T17:40:34-08:00	2020-11-21T02:09:37+00:00	2020-11-25T07:59:59+00:00	-4	cf8lv02y4845t3l@marketplace.amazon.com	Andrea Boyette	+1 213-442-1463 ext. 18218	ABM022	Delivery by Tuesday | Purple Extravagance Bouquet by Arabella Bouquets	1	0	1	Expedited	Keturah Russell	325 QUAIL RIDGE DR			APEX	NC	27523-6055	US		Happiest of Happy Birthday wishes my Baby-Girl. Sorry this didn't arrive on your 50th but I was sending you tons  of love From Andrea Boyette	false		
111-4230218-2719418	58587613969522	2020-11-21T01:40:35+00:00	2020-11-20T17:40:35-08:00	2020-11-21T02:10:16+00:00	2020-11-25T07:59:59+00:00	-4	78l33wy3k47jnwm@marketplace.amazon.com	Matt	+1 213-442-1463 ext. 22383	ABR014	Arabella Bouquets 18 Stems of Fresh Cut White Roses in a Free Designer Glass Vase	1	0	1	Standard	Keiko Yamanoi (Chloe )	628 E 26TH ST			BROOKLYN	NY	11210-2148	US			false		
114-6994670-9825000	66117232662474	2020-11-21T01:50:20+00:00	2020-11-20T17:50:20-08:00	2020-11-21T02:18:38+00:00	2020-11-25T07:59:59+00:00	-4	f2pyz3l4n3rs79m@marketplace.amazon.com	NOLEEN NELSON	+1 480-618-5344 ext. 56400	ABR004	Delivery by Tuesday | Arabella Farm Direct Bouquet of 12 Fresh Cut Yellow Roses with a Free Glass Vase	1	0	1	Expedited	Jean Merz	406 Park Barrington Dr			Barrington	IL	60010	US		So sorry we cannot be together this holiday. Wishing you love and best wishes xxx From NOLEEN	false		
114-4583312-7330626	42683488900322	2020-11-21T02:03:44+00:00	2020-11-20T18:03:44-08:00	2020-11-21T02:31:32+00:00	2020-11-25T07:59:59+00:00	-4	6b07zvgdzjxbpt5@marketplace.amazon.com	Mary Schade	+1 480-618-5344 ext. 06725	ABM025	Delivery by Thanksgiving | The Fell for You Bouquet by Arabella Bouquets	1	0	1	Expedited	The Schades	822 MORNING COVE CIR SE			PALM BAY	FL	32909-6878	US		Happy Thanksgiving Enjoy your special TURKEY! Love, mom and dad	false		
112-2362691-4911454	12873051709770	2020-11-21T02:05:08+00:00	2020-11-20T18:05:08-08:00	2020-11-21T02:33:23+00:00	2020-11-25T07:59:59+00:00	-4	n3bbcvpnwglgf7z@marketplace.amazon.com	Carolyn F Horan	+1 213-442-1463 ext. 71803	ABM010	Delivery by Tuesday | The Everlasting Fling Bouquet by Arabella Bouquets with a Free Designer Glass Vase	1	0	1	Expedited	Bajha Habboosh	16 WADSWORTH LN			SOUTH DARTMOUTH	MA	02748-1032	US		Enjoy your gift! Love you! Feel better soon. From Carolyn F Horan	false		
112-2635441-3725021	32829712283258	2020-11-21T02:20:15+00:00	2020-11-20T18:20:15-08:00	2020-11-21T02:45:01+00:00	2020-11-25T07:59:59+00:00	-4	zh3lw49k19jvmjh@marketplace.amazon.com	Justin Lloyd	+1 602-671-6610 ext. 68241	ABR0022	Delivery by Tuesday | Arabella Farm Direct Bouquet of 12 Fresh Cut Pink Roses with a Free Glass Vase	1	0	1	Expedited	Joanne J. Norris	2704 SEVIER ST			SHREVEPORT	LA	71104-3704	US		Thank nees so much for the birthday card. It means the world to me. Love you Granonny From Justin Lloyd	false		
111-9487089-4423452	68997843518202	2020-11-21T02:38:36+00:00	2020-11-20T18:38:36-08:00	2020-11-21T03:00:04+00:00	2020-11-25T07:59:59+00:00	-4	zmhsq2tmcps61ng@marketplace.amazon.com	Rosemary Winkler	+561 628 1671	ABR012	Delivery by Tuesday | Arabella Farm Direct Bouquet of 18 Fresh Cut Pink Roses with a Free Glass Vase	1	0	1	Expedited	Ms Maureen Bosco	30 VIA VERONA			PALM BEACH GARDENS	FL	33418-3720	US			false		
111-8699436-4843430	49509770692250	2020-11-21T02:29:58+00:00	2020-11-20T18:29:58-08:00	2020-11-21T03:00:06+00:00	2020-11-25T07:59:59+00:00	-4	7bfkgxzp3km3jxp@marketplace.amazon.com	sheryl	+1 213-442-1463 ext. 45089	ABR0022	Delivery by Tuesday | Arabella Farm Direct Bouquet of 12 Fresh Cut Pink Roses with a Free Glass Vase	1	0	1	Expedited	Dee Lippincott	307 N PINEVIEW ST			STANBERRY	MO	64489-1509	US			false		
114-8813894-5892261	36410959411210	2020-11-21T02:52:53+00:00	2020-11-20T18:52:53-08:00	2020-11-21T03:21:17+00:00	2020-11-25T07:59:59+00:00	-4	fvt9n7vjqxfqrlx@marketplace.amazon.com	Kathryn Snyder	+1 929-436-4790 ext. 61202	ABR0033	Delivery by Tuesday | Arabella Farm Direct Bouquet of 12 Fresh Cut Orange Roses with a Free Glass Vase	1	0	1	Expedited	Lee Proffitt	3022 AULD TATTY DR			SPRING HILL	TN	37174-7455	US		Happy Birthday, Mom! Lots of love, From Katie	false		
114-8121447-1885833	64146960079882	2020-11-21T02:56:33+00:00	2020-11-20T18:56:33-08:00	2020-11-21T03:26:53+00:00	2020-11-25T07:59:59+00:00	-4	6rpkdbbh6dgkfrx@marketplace.amazon.com	Kevin A. Kauer	+1 602-671-6610 ext. 58390	ABM0033	Delivery by Tuesday | Arabella Farm Direct Bouquet of Fresh Cut White Hydrangea with a Free Glass Vase	1	0	1	Expedited	Beverly Krautler	217 THOMAS WELBORN RD			ANDERSON	SC	29625-6401	US			false		
112-0006087-3976220	30736218963106	2020-11-21T04:16:17+00:00	2020-11-20T20:16:17-08:00	2020-11-21T04:43:11+00:00	2020-11-25T07:59:59+00:00	-4	zmfxfzg9q51jq09@marketplace.amazon.com	Adam N Patten	+1 619-854-2705 ext. 54508	ABR0033	Delivery by Tuesday | Arabella Farm Direct Bouquet of 12 Fresh Cut Orange Roses with a Free Glass Vase	1	0	1	Expedited	Sid Tarpinian	1045 CEDAR AVE			LONG BEACH	CA	90813-3009	US		Happy Thanksgiving Sid! Thank you for everything you have done for us. We love you and wish you the happiest of holidays! From Tara, Adam, Nico & Mia	false		
113-0200998-0873836	45426137174626	2020-11-21T04:16:05+00:00	2020-11-20T20:16:05-08:00	2020-11-21T04:44:41+00:00	2020-11-25T07:59:59+00:00	-4	p12fcnjc7f7962z@marketplace.amazon.com	Jennifer Harrison	+1 213-442-1463 ext. 70097	ABM022	Delivery by Tuesday | Purple Extravagance Bouquet by Arabella Bouquets	1	0	1	Expedited	Jennifer Harrison	38165 S MOUNTAIN SITE DR			TUCSON	AZ	85739-3020	US			false		
111-3943233-9377053	20722850705074	2020-11-21T04:26:58+00:00	2020-11-20T20:26:58-08:00	2020-11-21T04:48:20+00:00	2020-11-25T07:59:59+00:00	-4	j232rrmbk5l8mx8@marketplace.amazon.com	Beth U.	+1 602-671-6610 ext. 44987	ABR0022	Delivery by Tuesday | Arabella Farm Direct Bouquet of 12 Fresh Cut Pink Roses with a Free Glass Vase	1	0	1	Expedited	Trinity Dental Care	1124 MISSION RD			SOUTH SAN FRANCISCO	CA	94080-1301	US		Happy and Blessed Thanksgiving to all! This serves as my presence for the celebration. Best regards. Doc B From Beth U.	false		
111-1446214-3997842	47835782028818	2020-11-21T04:24:38+00:00	2020-11-20T20:24:38-08:00	2020-11-21T04:53:03+00:00	2020-11-25T07:59:59+00:00	-4	19cty94d67jkxx0@marketplace.amazon.com	n	+1 619-854-2705 ext. 76053	ABB013	Delivery by Tuesday | Arabella Bouquets | 24 Stems of Fresh Cut White Roses in a Free Designer Glass Vase	1	0	1	Expedited	Mrs Hamida Waqar	2206 N NOTTINGHAM ST			ARLINGTON	VA	22205-3339	US		Saddened by the loss of our beloved uncle From Nayyera	false		
114-2891562-1577842	01719321292770	2020-11-21T04:57:28+00:00	2020-11-20T20:57:28-08:00	2020-11-21T04:58:24+00:00	2020-11-25T07:59:59+00:00	-4	0cdzv7cm36p4zw7@marketplace.amazon.com	Jennifer Lin	+1 480-618-5344 ext. 27491	ABR0022	Delivery by Tuesday | Arabella Farm Direct Bouquet of 12 Fresh Cut Pink Roses with a Free Glass Vase	1	0	1	Expedited	Kristin Waller	2862 N ROSEMONT AVE			TUCSON	AZ	85712-1326	US			false		
114-3647859-3657017	61619714964634	2020-11-21T04:43:40+00:00	2020-11-20T20:43:40-08:00	2020-11-21T05:13:16+00:00	2020-11-25T07:59:59+00:00	-4	rnr3xj74b7sch0w@marketplace.amazon.com	nancy berkheiser	+1 480-618-5344 ext. 53157	ABR0022	Delivery by Tuesday | Arabella Farm Direct Bouquet of 12 Fresh Cut Pink Roses with a Free Glass Vase	1	0	1	Expedited	theresa crecelius	16038 16th  SW Ave.			Burien	WA	98166	US		Hi theresa, Get well soon 💗💗💗 From nancy berkheiser	false		
112-2251614-0715444	11519271967466	2020-11-21T05:01:37+00:00	2020-11-20T21:01:37-08:00	2020-11-21T05:14:08+00:00	2020-11-25T07:59:59+00:00	-4	7xys6b0ds98hkf5@marketplace.amazon.com	Levi	+1 619-854-2705 ext. 72615	ABR0033	Delivery by Tuesday | Arabella Farm Direct Bouquet of 12 Fresh Cut Orange Roses with a Free Glass Vase	1	0	1	Expedited	Hannah Ringer	3509 Dayton St			Hephzibah	GA	30815	US		Just because we love you, Mom and Dad	false		
112-7633020-0593822	46757530634450	2020-11-21T04:47:31+00:00	2020-11-20T20:47:31-08:00	2020-11-21T05:16:28+00:00	2020-11-25T07:59:59+00:00	-4	l67g1n25yk5cj1z@marketplace.amazon.com	Niki Kidd	+1 929-436-4790 ext. 03558	ABR0022	Delivery by Tuesday | Arabella Farm Direct Bouquet of 12 Fresh Cut Pink Roses with a Free Glass Vase	1	0	1	Expedited	Patsy Ward	7825 HIGH MARKET ST UNIT 1			SUNSET BEACH	NC	28468-4588	US		We love you and miss you so much. Happy Birthday! Matt, Niki, Layton, and Calder From The Wards	false		
114-0612343-0761057	43394806708690	2020-11-21T04:56:54+00:00	2020-11-20T20:56:54-08:00	2020-11-21T05:26:22+00:00	2020-11-25T07:59:59+00:00	-4	4pxrqjffyhprv8d@marketplace.amazon.com	Evguenia Joukova	+1 602-671-6610 ext. 47810	ABR0033	Delivery by Tuesday | Arabella Farm Direct Bouquet of 12 Fresh Cut Orange Roses with a Free Glass Vase	1	0	1	Expedited	Stella Grach	19084 E PINEWOOD DR			AURORA	CO	80016-3833	US		Get well soon!  Love, From Evguenia Joukova	false		
113-8025492-4755432	00945099225058	2020-11-21T05:11:09+00:00	2020-11-20T21:11:09-08:00	2020-11-21T05:37:04+00:00	2020-11-25T07:59:59+00:00	-4	sjvj130c1f54yfs@marketplace.amazon.com	Eric	+1 480-618-5344 ext. 69105	ABR0033	Delivery by Tuesday | Arabella Farm Direct Bouquet of 12 Fresh Cut Orange Roses with a Free Glass Vase	1	0	1	Expedited	Shannon Chittick	14989 NOKOMIS RD			APPLE VALLEY	CA	92307-4808	US		Shannon you are AWESOME!! Thank you so much for putting up with me and all my requests with my team. You make such a huge difference in how my business runs and I appreciate you more than you know. Happy Thanksgiving!! From Eric Hemati	false		
111-8663742-5768245	04749113404842	2020-11-21T05:30:56+00:00	2020-11-20T21:30:56-08:00	2020-11-21T06:01:33+00:00	2020-11-25T07:59:59+00:00	-4	2nxnhw7gr1mkz1q@marketplace.amazon.com	Mario	+1 415-851-9136 ext. 84213	ABR001	Delivery by Tuesday | Arabella Bouquets 12 Stems of Fresh Cut Red Roses in a Free Designer Glass Vase	1	0	1	Expedited	Michelle Marie	721 BOURBON ST APT 2			PAHRUMP	NV	89048-5646	US			false		
111-7633697-2781008	35168106157538	2020-11-21T06:37:02+00:00	2020-11-20T22:37:02-08:00	2020-11-21T06:59:51+00:00	2020-11-25T07:59:59+00:00	-4	kkvvtrsbgn8mqyr@marketplace.amazon.com	Annie-Marie Ferrer	+1 213-442-1463 ext. 43069	ABR0066	Delivery by Tuesday | Arabella Bouquets 12 Stems of Fresh Cut White Roses in a Free Designer Glass Vase	1	0	1	Expedited	Lorna Hilario	972 MIRA LAGO WAY			SAN MARCOS	CA	92078-7426	US		To Ateh Lorna and family,  Sending healing prayers and comforting hugs. I am so sorry for your loss. From Annie-Marie Ferrer	false		
112-6849019-7968255	20200791159426	2020-11-21T06:55:39+00:00	2020-11-20T22:55:39-08:00	2020-11-21T07:21:44+00:00	2020-11-25T07:59:59+00:00	-4	00qfgpjlkm7v3mt@marketplace.amazon.com	Cassia	+1 213-442-1463 ext. 24213	ABR012	Delivery by Tuesday | Arabella Farm Direct Bouquet of 18 Fresh Cut Pink Roses with a Free Glass Vase	1	0	1	Expedited	Lexy Garcia	1669 HAYLOFT PL			SAN JACINTO	CA	92582-2224	US		Happy Birthday my beautiful sister, you deserve these flowers and so much more! I love you.   Cassia From Cassia	false		
113-8777471-8579451	48400735576618	2020-11-21T07:03:51+00:00	2020-11-20T23:03:51-08:00	2020-11-21T07:32:10+00:00	2020-11-25T07:59:59+00:00	-4	pw8545wwcm495v5@marketplace.amazon.com	J L Craghead	+1 213-442-1463 ext. 88828	ABR0055	Delivery by Tuesday | Arabella Farm Direct Bouquet of 12 Stems of Fresh Cut Hot Pink Roses in a Free Designer Glass Vase	1	0	1	Expedited	Alice Craghead	246 OURAY AVE			GRAND JUNCTION	CO	81501-2324	US		Happy Birthday Alice. Love, Jerry From J L Craghead	false		
112-2089689-7883465	48694021719618	2020-11-21T07:14:58+00:00	2020-11-20T23:14:58-08:00	2020-11-21T07:43:39+00:00	2020-11-25T07:59:59+00:00	-4	yg6h40m1tb3p18n@marketplace.amazon.com	Dimple Bhuta	+1 213-442-1463 ext. 18985	ABM022	Delivery by Tuesday | Purple Extravagance Bouquet by Arabella Bouquets	1	0	1	Expedited	Shyam Mehta	111 DEKOVEN DR APT 909			MIDDLETOWN	CT	06457-3464	US		Congratulations to the Shah and Mehta family. Can not wait to meet Viraat and Vansh. Wish you all the happiness in the world. - JDB & Family From Dimple Bhuta	false		
111-9253072-0682603	24157635685730	2020-11-21T07:41:43+00:00	2020-11-20T23:41:43-08:00	2020-11-21T07:57:41+00:00	2020-11-25T07:59:59+00:00	-4	bcf65g1qb25h4pv@marketplace.amazon.com	Michael Gross	+1 415-851-9136 ext. 57303	ABR0022	Delivery by Tuesday | Arabella Farm Direct Bouquet of 12 Fresh Cut Pink Roses with a Free Glass Vase	1	0	1	Expedited	Heidi Hill	2230 DORADO AVE			DAVIE	FL	33324-6317	US		I hope these flowers brighten your day. Your birth is a great gift to me. Know you may be out of sight, but not out of my mind. I think of you with loving thoughts often. Stay healthy! Happy birthday Love, Dad From Michael Gross	false		
113-4813189-0841839	01902950005290	2020-11-21T07:28:52+00:00	2020-11-20T23:28:52-08:00	2020-11-21T07:57:46+00:00	2020-11-25T07:59:59+00:00	-4	8qfgwjm8h8tj0z9@marketplace.amazon.com	Sarah Tasnim Shehabuddin	+1 929-436-4790 ext. 06184	ABR0033	Delivery by Tuesday | Arabella Farm Direct Bouquet of 12 Fresh Cut Orange Roses with a Free Glass Vase	1	0	1	Expedited	Elora Shehabuddin	2239 GOLDSMITH ST			HOUSTON	TX	77030-1118	US		Dear Elobabu and Ussama, Happy 25th Anniversary! Love,  Ammu, Farah, Tushu, and Tunu From Sarah Tasnim Shehabuddin	false		
113-8125692-1765052	47583230287378	2020-11-21T07:30:19+00:00	2020-11-20T23:30:19-08:00	2020-11-21T07:59:58+00:00	2020-11-25T07:59:59+00:00	-4	jmy3ql5xgwy90yg@marketplace.amazon.com	Tracy Niday	+1 480-618-5344 ext. 45746	ABM010	Delivery by Tuesday | The Everlasting Fling Bouquet by Arabella Bouquets with a Free Designer Glass Vase	1	0	1	Expedited	Tracy Niday	820 FOXCROFT CT APT 158			LINCOLN	NE	68510-5101	US			false		
111-3476459-4629862	25956066845602	2020-11-21T07:31:04+00:00	2020-11-20T23:31:04-08:00	2020-11-21T08:00:12+00:00	2020-11-25T07:59:59+00:00	-4	h4gbkz8n14s8v6z@marketplace.amazon.com	Ace Vu	+1 602-671-6610 ext. 65588	ABSR005	Delivery by Tuesday | Arabella Bouquets Fresh Cut Orange Spray Roses in a Free Designer Glass Vase	1	0	1	Expedited	Ethan Giang	2137 RIO GUACIMAL CT			SAN JOSE	CA	95116-1583	US			false		
112-8662684-9909037	47144701854090	2020-11-21T08:53:20+00:00	2020-11-21T00:53:20-08:00	2020-11-21T09:23:54+00:00	2020-11-25T07:59:59+00:00	-4	q5wgx7c95zshkn8@marketplace.amazon.com	Patricia Hecht	+1 602-671-6610 ext. 80092	ABM025	Delivery by Thanksgiving | The Fell for You Bouquet by Arabella Bouquets	1	0	1	Expedited	Patricia Hecht	229 BRANNAN ST UNIT 11J			SAN FRANCISCO	CA	94107-4056	US			false		
112-1497170-3649036	22236238551450	2020-11-21T08:56:17+00:00	2020-11-21T00:56:17-08:00	2020-11-21T09:26:53+00:00	2020-11-25T07:59:59+00:00	-4	q5wgx7c95zshkn8@marketplace.amazon.com	Patricia Hecht	+1 602-671-6610 ext. 77185	ABR0022	Delivery by Tuesday | Arabella Farm Direct Bouquet of 12 Fresh Cut Pink Roses with a Free Glass Vase	1	0	1	Expedited	Patricia Hecht	229 BRANNAN ST UNIT 11J			SAN FRANCISCO	CA	94107-4056	US			false		
113-0805619-1531461	58683597445306	2020-11-21T09:08:43+00:00	2020-11-21T01:08:43-08:00	2020-11-21T09:36:45+00:00	2020-11-25T07:59:59+00:00	-4	2l9fvhmp9nwlx8p@marketplace.amazon.com	Jessica Morehouse	+1 619-854-2705 ext. 05842	ABM0033	Delivery by Tuesday | Arabella Farm Direct Bouquet of Fresh Cut White Hydrangea with a Free Glass Vase	1	0	1	Expedited	Nikki White Farid	1162 SE 2ND AVE			DEERFIELD BEACH	FL	33441-6804	US		Congratulations, you two! So very happy for you both! Love Always, The Morehouse's From Jessica Morehouse	false		
114-3963631-8103463	52997555467882	2020-11-21T09:11:54+00:00	2020-11-21T01:11:54-08:00	2020-11-21T09:41:24+00:00	2020-11-25T07:59:59+00:00	-4	frv47gwmggj2gr9@marketplace.amazon.com	beth blik	0019174416927	ABR012	Delivery by Tuesday | Arabella Farm Direct Bouquet of 18 Fresh Cut Pink Roses with a Free Glass Vase	1	0	1	Expedited	Cornelia Blik	320 W 87TH ST PH APT			NEW YORK	NY	10024-2626	US		HAPPY BIRTHDAY with much love MUM xxxxxx From beth blik	false		
