order-id	order-item-id	purchase-date	payments-date	reporting-date	promise-date	days-past-promise	buyer-email	buyer-name	buyer-phone-number	sku	product-name	quantity-purchased	quantity-shipped	quantity-to-ship	ship-service-level	recipient-name	ship-address-1	ship-address-2	ship-address-3	ship-city	ship-state	ship-postal-code	ship-country	gift-wrap-type	gift-message-text	is-business-order	purchase-order-number	price-designation
111-5090668-1561060	56386119275802	2020-11-19T18:35:33+00:00	2020-11-19T10:35:33-08:00	2020-11-19T18:48:51+00:00	2020-11-24T07:59:59+00:00	-3	wxqyxg8ym10xb2m@marketplace.amazon.com	Linda Wagner	+1 480-618-5344 ext. 06658	ABM017	Delivery by Monday | Arabella Bouquets 10 Stems of Blue Dendrobium Orchids in a Free Designer Glass Vase	1	0	1	Expedited	Sharon Leighty	60594 SPRINGTREE CT			BEND	OR	97702-9444	US		Thinking of you.  We will all miss Sam.  He was a great friend and companion to you. From Linda, Mom, Brandi and Cream	false		
111-7071140-4766628	54226087094746	2020-11-19T18:57:50+00:00	2020-11-19T10:57:50-08:00	2020-11-19T19:25:41+00:00	2020-11-24T07:59:59+00:00	-3	ntnb9x315lt0316@marketplace.amazon.com	Jeannette	+1 602-671-6610 ext. 61236	ABM017	Delivery by Monday | Arabella Bouquets 10 Stems of Blue Dendrobium Orchids in a Free Designer Glass Vase	1	0	1	Expedited	Peggye Johnson	1027 FLEETWOOD CIR SW			ATLANTA	GA	30311-2535	US		To our Favorite Aunt Sissy: We love and miss you tons.  Happy Thanksgiving. Love Bevan & Jeannette From Jeannette	false		
114-7904358-5149814	57106639401674	2020-11-20T12:15:12+00:00	2020-11-20T04:15:12-08:00	2020-11-20T12:45:49+00:00	2020-11-25T07:59:59+00:00	-4	4cjksgg80d10pqw@marketplace.amazon.com	James Nicoll	+1 480-618-5344 ext. 41093	ABB005	Delivery by Saturday | Arabella Bouquets 24 Stems of Fresh Cut Red Roses in a Designer Glass Vase	2	1	1	Expedited	James Nicoll	389 23RD ST GATE CODE # 1379			NEWPORT BEACH	CA	92660-3608	US			false		
112-0738304-9571445	55168964136546	2020-11-20T18:32:51+00:00	2020-11-20T10:32:51-08:00	2020-11-20T18:59:48+00:00	2020-11-25T07:59:59+00:00	-4	6tqtdl7swbw2wgw@marketplace.amazon.com	TOJONIRINA RAMAROLAHY	+1 602-671-6610 ext. 96446	ABR001	Delivery by Tuesday | Arabella Bouquets 12 Stems of Fresh Cut Red Roses in a Free Designer Glass Vase	1	0	1	Expedited	NIRINIAVISOA Marceda	AVALON BAY POTOMAC YARD	731 SEATON AVE UNIT 508		ALEXANDRIA	VA	22305-3070	US			false		
112-3662691-3581028	31614774025810	2020-11-20T18:47:09+00:00	2020-11-20T10:47:09-08:00	2020-11-20T19:15:20+00:00	2020-11-25T07:59:59+00:00	-4	3hnwstf7c2hcvws@marketplace.amazon.com	Robert Bikel	+1 619-854-2705 ext. 07193	ABM010	Delivery by Tuesday | The Everlasting Fling Bouquet by Arabella Bouquets with a Free Designer Glass Vase	1	0	1	Expedited	Sophia Rayo	264 E BROADWAY APT C1503			NEW YORK	NY	10002-2084	US		Sophia,  Thank you so much for the workspace! You're a lifesaver.  Best, From Robert Bikel	false		
113-3863401-7142645	59236552539626	2020-11-20T18:55:49+00:00	2020-11-20T10:55:49-08:00	2020-11-20T19:23:49+00:00	2020-11-25T07:59:59+00:00	-4	6kpqjm7stqvnj77@marketplace.amazon.com	lou	+1 415-851-9136 ext. 86225	ABM010	Delivery by Tuesday | The Everlasting Fling Bouquet by Arabella Bouquets with a Free Designer Glass Vase	1	0	1	Expedited	Abby Ferreira	20626 Newby			Orlando	FL	32833	US		Our hearts are so heavy, words are inadequate. All our love ❤️ From TNT	false		
111-2800662-5637001	48446029766082	2020-11-20T19:00:01+00:00	2020-11-20T11:00:01-08:00	2020-11-20T19:27:26+00:00	2020-11-25T07:59:59+00:00	-4	k4dxllhqqdjy6n2@marketplace.amazon.com	Eva Vallejo	+1 213-442-1463 ext. 71876	ABR0022	Delivery by Tuesday | Arabella Farm Direct Bouquet of 12 Fresh Cut Pink Roses with a Free Glass Vase	1	0	1	Expedited	Worthen Family	685 MALAT DR			NEWBURY PARK	CA	91320-2025	US		Have a happy, safe and healthy Thanksgiving...Love you From Eva Vallejo	false		
112-9341386-2785057	62518930524058	2020-11-20T19:04:59+00:00	2020-11-20T11:04:59-08:00	2020-11-20T19:33:46+00:00	2020-11-25T07:59:59+00:00	-4	t1t1mzkjwx7rcv4@marketplace.amazon.com	John Jacobsen	+1 602-671-6610 ext. 65322	ABR0055	Delivery by Tuesday | Arabella Farm Direct Bouquet of 12 Stems of Fresh Cut Hot Pink Roses in a Free Designer Glass Vase	1	0	1	Expedited	Linda Jacobsen	1622 DENISE DR APT B			FOREST HILL	MD	21050-2990	US		Have a Happy Birthday From John & Deneen	false		
114-8497059-8613016	17077203755866	2020-11-20T19:20:42+00:00	2020-11-20T11:20:42-08:00	2020-11-20T19:35:49+00:00	2020-11-25T07:59:59+00:00	-4	vpcyczxmnrvgrtt@marketplace.amazon.com	Irene Sartini	508-51160	ABM010	Delivery by Tuesday | The Everlasting Fling Bouquet by Arabella Bouquets with a Free Designer Glass Vase	1	0	1	Expedited	Cathy Sartini	15 WINWARD ST			FALL RIVER	MA	02724-1435	US		Hi Cathy, and Gene Happy Thanksgiving Enjoy your gift! From Roger and Sis	false		
113-3540614-2401018	64135080949250	2020-11-20T19:19:57+00:00	2020-11-20T11:19:57-08:00	2020-11-20T19:45:14+00:00	2020-11-25T07:59:59+00:00	-4	1x45bp4swqlwjjh@marketplace.amazon.com	Heather Moster	+1 213-442-1463 ext. 46602	ABR0022	Delivery by Tuesday | Arabella Farm Direct Bouquet of 12 Fresh Cut Pink Roses with a Free Glass Vase	1	0	1	Expedited	Michelle Spitler	966 ANDREWS AVE NW			PORT CHARLOTTE	FL	33948-2055	US		Love, Aunt Pam + Aunt Bridget From Heather Moster	false		
111-1667300-7509069	67259975554242	2020-11-20T20:06:32+00:00	2020-11-20T12:06:32-08:00	2020-11-20T20:37:03+00:00	2020-11-25T07:59:59+00:00	-4	zzf0msxlrd0z32k@marketplace.amazon.com	Cindy Rogers	+1 602-671-6610 ext. 92226	ABR0022	Delivery by Tuesday | Arabella Farm Direct Bouquet of 12 Fresh Cut Pink Roses with a Free Glass Vase	1	0	1	Expedited	Mr. & Mrs. Richard Musser	1824 E AGUA VIEW RD			MOHAVE VALLEY	AZ	86440-9681	US			false		
111-9825076-1846641	14885156621194	2020-11-20T20:13:21+00:00	2020-11-20T12:13:21-08:00	2020-11-20T20:37:47+00:00	2020-11-25T07:59:59+00:00	-4	0f16xl2byh7jc38@marketplace.amazon.com	Sai	51599184	ABM020	Delivery by Tuesday | The Sunset Bouquet by Arabella Bouquets	1	0	1	Expedited	Kham Thongvanh	333 DESMOND DR			SCHAUMBURG	IL	60193-2858	US		Happy birthday Kham, Sorry we can’t make it to your place.  It’ll be one birthday you’ll never forget.  Wishing you the best!  Love, The Fam From The Big Fam	false		
112-8013348-5858661	38151045565746	2020-11-20T20:37:06+00:00	2020-11-20T12:37:06-08:00	2020-11-20T21:06:39+00:00	2020-11-25T07:59:59+00:00	-4	xqt426jq1rnwlpc@marketplace.amazon.com	Mason Wrenn	+1 602-671-6610 ext. 19614	ABM022	Delivery by Tuesday | Purple Extravagance Bouquet by Arabella Bouquets	1	0	1	Expedited	Shayla wrenn	1304 CHARLESTON AVE			MATTOON	IL	61938-4016	US			false		
111-8388124-3536226	66537261410674	2020-11-20T21:08:07+00:00	2020-11-20T13:08:07-08:00	2020-11-20T21:35:56+00:00	2020-11-25T07:59:59+00:00	-4	vbgtc4kn48swxks@marketplace.amazon.com	Lakshmy Natarajan	+1 480-618-5344 ext. 78471	ABM022	Delivery by Tuesday | Purple Extravagance Bouquet by Arabella Bouquets	1	0	1	Expedited	Shoba Srinivasan	9011 CORRAL DR			IRVING	TX	75063-4420	US		Best wishes and Happy Anniversary. Lots of Love. From Periamma and Periappa	false		
111-7583124-3120237	24761093617626	2020-11-20T21:23:43+00:00	2020-11-20T13:23:43-08:00	2020-11-20T21:50:46+00:00	2020-11-25T07:59:59+00:00	-4	t2xrydqbgs5y00t@marketplace.amazon.com	Dawn Bracken	+1 480-618-5344 ext. 83368	ABR0022	Delivery by Tuesday | Arabella Farm Direct Bouquet of 12 Fresh Cut Pink Roses with a Free Glass Vase	1	0	1	Expedited	Alanie	14560 COREY WAY			VICTORVILLE	CA	92394-0836	US		Hi Babe , Miss you, love  you! Get better  ! Hope to see you soon . Smell the roses From Gerald Walton	false		
113-1136911-9836259	68142270046866	2020-11-20T21:26:07+00:00	2020-11-20T13:26:07-08:00	2020-11-20T21:55:27+00:00	2020-11-25T07:59:59+00:00	-4	khpt1xmrz755lrj@marketplace.amazon.com	Cailey Bromer	+1 480-618-5344 ext. 32792	ABR0022	Delivery by Tuesday | Arabella Farm Direct Bouquet of 12 Fresh Cut Pink Roses with a Free Glass Vase	1	0	1	Expedited	Catherine Galvin	2101 POPLAR ST			GARNET VALLEY	PA	19060-6703	US		Happy birthday (great) Grandmom!! We miss you so much! You are an inspiration <3 Love you!! Charlie, Cailey, Luke, Orion From Cailey Bromer	false		
113-7353951-6993052	51845206444994	2020-11-20T21:49:29+00:00	2020-11-20T13:49:29-08:00	2020-11-20T22:17:23+00:00	2020-11-25T07:59:59+00:00	-4	3zsc0yklr1fmcd5@marketplace.amazon.com	Nancy Sturtecky	+1 619-854-2705 ext. 50482	ABM010	Delivery by Tuesday | The Everlasting Fling Bouquet by Arabella Bouquets with a Free Designer Glass Vase	1	0	1	Expedited	Ruth Gage Burns	3908 CHEROKEE AVE			FLINT	MI	48507-2876	US		Happy Thanksgiving! We love & miss you!  Love, Nancy & Susy From Nancy Sturtecky	false		
111-7576546-8296210	60545252452138	2020-11-20T22:01:45+00:00	2020-11-20T14:01:45-08:00	2020-11-20T22:27:55+00:00	2020-11-25T07:59:59+00:00	-4	ftqptw1tzszzg7h@marketplace.amazon.com	Jeanie Dale-Joecks	+1 480-618-5344 ext. 24639	ABM022	Delivery by Tuesday | Purple Extravagance Bouquet by Arabella Bouquets	1	0	1	Expedited	Dannise Parker	2117 Via Visalia			Santa Marie,	CA	93458-8246	US		Happy Anniversary. From Jeanie & Mark	false		
111-3976907-0036225	10437786412338	2020-11-20T22:06:49+00:00	2020-11-20T14:06:49-08:00	2020-11-20T22:34:06+00:00	2020-11-25T07:59:59+00:00	-4	bgmrb33tfss2qd6@marketplace.amazon.com	Marlene smith	+1 619-854-2705 ext. 08736	ABM010	Delivery by Tuesday | The Everlasting Fling Bouquet by Arabella Bouquets with a Free Designer Glass Vase	1	0	1	Expedited	Jen Mac	17 HUNTERS RIDGE DR			PENNINGTON	NJ	08534-3910	US		We are glad you are better! Have a nice day! From Your Princeton CCU family	false		
112-0715288-5779402	60850671219010	2020-11-20T22:15:06+00:00	2020-11-20T14:15:06-08:00	2020-11-20T22:36:41+00:00	2020-11-25T07:59:59+00:00	-4	bh4r5hx0r2tf2pw@marketplace.amazon.com	Kathy Macchione	+1 213-442-1463 ext. 10211	ABR0022	Delivery by Tuesday | Arabella Farm Direct Bouquet of 12 Fresh Cut Pink Roses with a Free Glass Vase	1	0	1	Expedited	Lidia Jeffers	18 SPRING ST			COHASSET	MA	02025-1724	US		Lidia, My mom, Nanny, always sent a dozen roses to all her granddaughters on their 16th Birthday.  I wanted to continue the tradition for my first granddaughter! Love you have a very Happy Sweet 16 Birthday! From Grandma	false		
111-6506803-9725821	29160679952434	2020-11-20T22:20:33+00:00	2020-11-20T14:20:33-08:00	2020-11-20T22:47:15+00:00	2020-11-25T07:59:59+00:00	-4	vtg7jnfvh5qcv8m@marketplace.amazon.com	Lisa Frame	+1 619-854-2705 ext. 36849	ABR0022	Delivery by Tuesday | Arabella Farm Direct Bouquet of 12 Fresh Cut Pink Roses with a Free Glass Vase	1	0	1	Expedited	Nancy Schleicher	2362 ERICKSON DR			TROY	MI	48085-6718	US		Dear Nancy,  I'm so sorry for your loss. Charlie was the sweetest boy and I know how much he meant to you. Thinking of you. Love you so much! From Lisa Frame	false		
114-1045077-0686619	21728865836546	2020-11-20T22:40:07+00:00	2020-11-20T14:40:07-08:00	2020-11-20T23:08:15+00:00	2020-11-25T07:59:59+00:00	-4	k7vpw211wbbt0zr@marketplace.amazon.com	Susan R. Hupper	+1 929-436-4790 ext. 59436	ABM010	Delivery by Tuesday | The Everlasting Fling Bouquet by Arabella Bouquets with a Free Designer Glass Vase	1	0	1	Expedited	Mrs. Joyce Hupper	360 MOUNT AUBURN ST APT 212			CAMBRIDGE	MA	02138-5596	US		To Joyce, Happy Thanksgiving! Wish we could all be together... Love, Craig, Susan, Sarah and Elizabeth	false		
114-0920943-8086646	05953838849362	2020-11-20T22:46:29+00:00	2020-11-20T14:46:29-08:00	2020-11-20T23:14:37+00:00	2020-11-25T07:59:59+00:00	-4	k7vpw211wbbt0zr@marketplace.amazon.com	Susan R. Hupper	+1 929-436-4790 ext. 13453	ABM010	Delivery by Tuesday | The Everlasting Fling Bouquet by Arabella Bouquets with a Free Designer Glass Vase	1	0	1	Expedited	Mr. and Mrs. Kenneth H. Rose	7101 BAY FRONT DR APT 115			ANNAPOLIS	MD	21403-3628	US		Happy Thanksgiving!  We are so sorry not to be there this year...  Love, Susan, Craig, Sarah and Elizabeth	false		
111-5264335-1020223	05565018495370	2020-11-20T23:07:40+00:00	2020-11-20T15:07:40-08:00	2020-11-20T23:38:03+00:00	2020-11-25T07:59:59+00:00	-4	61gn81p5jgxtjct@marketplace.amazon.com	Kay L. Bemis	+1 619-854-2705 ext. 60136	ABM010	Delivery by Tuesday | The Everlasting Fling Bouquet by Arabella Bouquets with a Free Designer Glass Vase	1	0	1	Expedited	Kay l bemis	8753 MCCARTY RANCH DR			SAN JOSE	CA	95135-2158	US			false		
113-8182056-1875411	58612637029514	2020-11-20T23:17:02+00:00	2020-11-20T15:17:02-08:00	2020-11-20T23:44:38+00:00	2020-11-25T07:59:59+00:00	-4	m9jdv6vbyt76893@marketplace.amazon.com	Holly Conklin	+1 619-854-2705 ext. 77761	ABM022	Delivery by Tuesday | Purple Extravagance Bouquet by Arabella Bouquets	1	0	1	Expedited	SYLVIA WEAVER	153 DEAN RD			HUDSON FALLS	NY	12839-3903	US		HAPPY BIRTHDAY GRANDMA!  Love , Landen From Landen	false		
114-1166036-1366627	12485477395954	2020-11-20T23:33:10+00:00	2020-11-20T15:33:10-08:00	2020-11-20T23:58:48+00:00	2020-11-25T07:59:59+00:00	-4	cy7hlsh3gxwlhq9@marketplace.amazon.com	Mike Mays	+1 415-851-9136 ext. 50005	ABM022	Delivery by Tuesday | Purple Extravagance Bouquet by Arabella Bouquets	1	0	1	Expedited	June Mays	W3197 ORCHARD AVE			GREEN LAKE	WI	54941-9697	US		Get well Soon!  Love, Mike From Mike Mays	false		
112-8659387-8723447	55950024182138	2020-11-20T23:48:28+00:00	2020-11-20T15:48:28-08:00	2020-11-21T00:18:20+00:00	2020-11-25T07:59:59+00:00	-4	7r4l03vzvyz5crm@marketplace.amazon.com	James rotter	+1 929-436-4790 ext. 82321	ABR001	Delivery by Tuesday | Arabella Bouquets 12 Stems of Fresh Cut Red Roses in a Free Designer Glass Vase	1	0	1	Expedited	JAMES ROTTER	3715 E RIMROCK DR			RIMROCK	AZ	86335-5253	US			false		
114-9795737-9572263	02065603108994	2020-11-20T23:52:28+00:00	2020-11-20T15:52:28-08:00	2020-11-21T00:18:48+00:00	2020-11-25T07:59:59+00:00	-4	b23h6cfy9jsr5mq@marketplace.amazon.com	Miguel Lopez	+1 415-851-9136 ext. 08960	ABR0055	Delivery by Tuesday | Arabella Farm Direct Bouquet of 12 Stems of Fresh Cut Hot Pink Roses in a Free Designer Glass Vase	1	0	1	Expedited	Mrs. Rachel Lopez	4687 KELLYKRIS DR			SAINT CHARLES	MO	63304-3412	US		Happy Birthday Rachel From Love Miguel, Lucy and Familia 🌷🎂	false		
111-6879629-6032221	67979228574634	2020-11-20T23:51:59+00:00	2020-11-20T15:51:59-08:00	2020-11-21T00:21:42+00:00	2020-11-25T07:59:59+00:00	-4	glttng9lkvfvr8g@marketplace.amazon.com	Jennifer Celusniak	+1 602-671-6610 ext. 96904	ABR0022	Delivery by Tuesday | Arabella Farm Direct Bouquet of 12 Fresh Cut Pink Roses with a Free Glass Vase	1	0	1	Expedited	The Shahs	615 8TH ST			CARLSTADT	NJ	07072-1701	US		Dear Ajita, Wishing you well and a positive recovery.  We’re thinking about you and keeping you in our prayers.  Love, The Hulls: Jen, Justin, Avery & Chase From The Hulls	false		
113-0371671-3393819	15669823711138	2020-11-21T00:00:28+00:00	2020-11-20T16:00:28-08:00	2020-11-21T00:27:55+00:00	2020-11-25T07:59:59+00:00	-4	7z107tpvdnd2wm2@marketplace.amazon.com	Joyce	+1 602-671-6610 ext. 64783	ABR0055	Delivery by Tuesday | Arabella Farm Direct Bouquet of 12 Stems of Fresh Cut Hot Pink Roses in a Free Designer Glass Vase	1	0	1	Expedited	Melissa Mahan	255 PARK ST			HONEY BROOK	PA	19344-8775	US			false		
111-0711660-2774648	48183407979506	2020-11-21T00:12:11+00:00	2020-11-20T16:12:11-08:00	2020-11-21T00:42:20+00:00	2020-11-25T07:59:59+00:00	-4	ml9lx333nsdhx1v@marketplace.amazon.com	georgeBullock	+1 929-436-4790 ext. 96373	ABR0022	Delivery by Tuesday | Arabella Farm Direct Bouquet of 12 Fresh Cut Pink Roses with a Free Glass Vase	1	0	1	Expedited	malou mariano	140 LINDEN AVE APT 856			LONG BEACH	CA	90802-4935	US			false		
113-2302097-5697826	26155635455874	2020-11-21T00:23:07+00:00	2020-11-20T16:23:07-08:00	2020-11-21T00:49:27+00:00	2020-11-25T07:59:59+00:00	-4	z4f81dlwdgtqmcl@marketplace.amazon.com	Raenette Rojas	+1 619-854-2705 ext. 57274	ABM022	Delivery by Tuesday | Purple Extravagance Bouquet by Arabella Bouquets	1	0	1	Expedited	Josie Gutierrez	5185 RAVENSTONE DR			HEMET	CA	92545-2159	US		Enjoy your gift! HAPPY BIRTHDAY TO YOU MY FRIEND.  I LOVE YOU TOO MUCH GOD BLESS YOU WITH MANY MORE From The Rojas family	false		
111-9147027-1929864	49151166997554	2020-11-21T00:22:33+00:00	2020-11-20T16:22:33-08:00	2020-11-21T00:52:59+00:00	2020-11-25T07:59:59+00:00	-4	10n1r2xy6k9704l@marketplace.amazon.com	Teena lowe	+1 602-671-6610 ext. 44940	ABR0055	Delivery by Tuesday | Arabella Farm Direct Bouquet of 12 Stems of Fresh Cut Hot Pink Roses in a Free Designer Glass Vase	1	0	1	Expedited	MOMA WHALEN	8012 RUTHWOOD WAY			ORANGEVALE	CA	95662-2921	US			false		
111-5697208-0592212	62367163116946	2020-11-20T23:52:15+00:00	2020-11-20T15:52:15-08:00	2020-11-21T00:59:45+00:00	2020-11-25T07:59:59+00:00	-4	c1214j7v5bfl8lt@marketplace.amazon.com	Marsha Bellsey	+1 619-854-2705 ext. 69904	ABR0055	Delivery by Tuesday | Arabella Farm Direct Bouquet of 12 Stems of Fresh Cut Hot Pink Roses in a Free Designer Glass Vase	1	0	1	Expedited	Deb Carp	10120 240TH PL SW			EDMONDS	WA	98020-5739	US			false		
114-6010738-6593827	48939067439274	2020-11-21T00:21:49+00:00	2020-11-20T16:21:49-08:00	2020-11-21T01:03:37+00:00	2020-11-25T07:59:59+00:00	-4	vfsczhrm5g8m7rr@marketplace.amazon.com	Kyle Simmons	+1 929-436-4790 ext. 95307	ABR0055	Delivery by Tuesday | Arabella Farm Direct Bouquet of 12 Stems of Fresh Cut Hot Pink Roses in a Free Designer Glass Vase	1	0	1	Expedited	Cynthia Williams	329 SUSANN CT			BELLEVILLE	IL	62226-5334	US		Happy thanksgiving! May these bring you the joy we would have brought with us for the Thanksgiving holiday. See you both very soon. We love you tons!!! We look forward to seeing you and having dinner. From Patry y Kyle	false		
111-4780655-3109803	21071587535266	2020-11-21T00:46:30+00:00	2020-11-20T16:46:30-08:00	2020-11-21T01:15:15+00:00	2020-11-25T07:59:59+00:00	-4	10rxskvm7pgrr4t@marketplace.amazon.com	Ryan Bridges	+1 929-436-4790 ext. 00411	ABR0033	Delivery by Tuesday | Arabella Farm Direct Bouquet of 12 Fresh Cut Orange Roses with a Free Glass Vase	1	0	1	Expedited	Alheli Bridges (Shining Smiles Dentistry)	210 N BOLINGBROOK DR			BOLINGBROOK	IL	60440-2386	US		Happy Birthday Mama!! From Ryan, Vincent and Mia	false		
113-8080290-7433857	41917068443754	2020-11-21T00:52:53+00:00	2020-11-20T16:52:53-08:00	2020-11-21T01:23:08+00:00	2020-11-25T07:59:59+00:00	-4	mtvr6rjwbq1bs91@marketplace.amazon.com	Tyler Long	+1 480-618-5344 ext. 88864	ABM022	Delivery by Tuesday | Purple Extravagance Bouquet by Arabella Bouquets	1	0	1	Expedited	Denise Long	3059 SMOKEY RD UNIT 21-H			PRESCOTT	AZ	86301-4696	US		Happy Birthday From Tyler Long	false		
112-0733437-3792233	68354025795562	2020-11-21T01:14:17+00:00	2020-11-20T17:14:17-08:00	2020-11-21T01:35:49+00:00	2020-11-25T07:59:59+00:00	-4	whmrch52rhrjc3l@marketplace.amazon.com	Glenn Wright	+1 619-854-2705 ext. 20950	ABM010	Delivery by Tuesday | The Everlasting Fling Bouquet by Arabella Bouquets with a Free Designer Glass Vase	1	0	1	Expedited	lauri Fields	955 Milford St			Cary	IL	60013	US		To my dear friend Lauri, I am so sorry for your loss. I hope you are feeling better. Thinking of you and your family. Love, Marita xoxo From Marita DeSimone	false		
114-3711501-7809800	48861439261338	2020-11-21T01:35:46+00:00	2020-11-20T17:35:46-08:00	2020-11-21T01:56:56+00:00	2020-11-25T07:59:59+00:00	-4	lkdzmxjxd8cnd0m@marketplace.amazon.com	Chaudhary Ahmad Ali	+1 619-854-2705 ext. 58307	ABR0022	Delivery by Tuesday | Arabella Farm Direct Bouquet of 12 Fresh Cut Pink Roses with a Free Glass Vase	1	0	1	Expedited	M Saqib Naru	2741 TREASURE COVE DR			THE COLONY	TX	75056-4303	US		Heartiest Congratulations on being nikkahfied !! Love  Fareeha and Family	false		
114-5474479-3053043	37398965174130	2020-11-21T01:40:34+00:00	2020-11-20T17:40:34-08:00	2020-11-21T02:09:37+00:00	2020-11-25T07:59:59+00:00	-4	cf8lv02y4845t3l@marketplace.amazon.com	Andrea Boyette	+1 213-442-1463 ext. 18218	ABM022	Delivery by Tuesday | Purple Extravagance Bouquet by Arabella Bouquets	1	0	1	Expedited	Keturah Russell	325 QUAIL RIDGE DR			APEX	NC	27523-6055	US		Happiest of Happy Birthday wishes my Baby-Girl. Sorry this didn't arrive on your 50th but I was sending you tons  of love From Andrea Boyette	false		
112-2362691-4911454	12873051709770	2020-11-21T02:05:08+00:00	2020-11-20T18:05:08-08:00	2020-11-21T02:33:23+00:00	2020-11-25T07:59:59+00:00	-4	n3bbcvpnwglgf7z@marketplace.amazon.com	Carolyn F Horan	+1 213-442-1463 ext. 71803	ABM010	Delivery by Tuesday | The Everlasting Fling Bouquet by Arabella Bouquets with a Free Designer Glass Vase	1	0	1	Expedited	Bajha Habboosh	16 WADSWORTH LN			SOUTH DARTMOUTH	MA	02748-1032	US		Enjoy your gift! Love you! Feel better soon. From Carolyn F Horan	false		
112-2635441-3725021	32829712283258	2020-11-21T02:20:15+00:00	2020-11-20T18:20:15-08:00	2020-11-21T02:45:01+00:00	2020-11-25T07:59:59+00:00	-4	zh3lw49k19jvmjh@marketplace.amazon.com	Justin Lloyd	+1 602-671-6610 ext. 68241	ABR0022	Delivery by Tuesday | Arabella Farm Direct Bouquet of 12 Fresh Cut Pink Roses with a Free Glass Vase	1	0	1	Expedited	Joanne J. Norris	2704 SEVIER ST			SHREVEPORT	LA	71104-3704	US		Thank nees so much for the birthday card. It means the world to me. Love you Granonny From Justin Lloyd	false		
114-8813894-5892261	36410959411210	2020-11-21T02:52:53+00:00	2020-11-20T18:52:53-08:00	2020-11-21T03:21:17+00:00	2020-11-25T07:59:59+00:00	-4	fvt9n7vjqxfqrlx@marketplace.amazon.com	Kathryn Snyder	+1 929-436-4790 ext. 61202	ABR0033	Delivery by Tuesday | Arabella Farm Direct Bouquet of 12 Fresh Cut Orange Roses with a Free Glass Vase	1	0	1	Expedited	Lee Proffitt	3022 AULD TATTY DR			SPRING HILL	TN	37174-7455	US		Happy Birthday, Mom! Lots of love, From Katie	false		
113-0200998-0873836	45426137174626	2020-11-21T04:16:05+00:00	2020-11-20T20:16:05-08:00	2020-11-21T04:44:41+00:00	2020-11-25T07:59:59+00:00	-4	p12fcnjc7f7962z@marketplace.amazon.com	Jennifer Harrison	+1 213-442-1463 ext. 70097	ABM022	Delivery by Tuesday | Purple Extravagance Bouquet by Arabella Bouquets	1	0	1	Expedited	Jennifer Harrison	38165 S MOUNTAIN SITE DR			TUCSON	AZ	85739-3020	US			false		
111-3943233-9377053	20722850705074	2020-11-21T04:26:58+00:00	2020-11-20T20:26:58-08:00	2020-11-21T04:48:20+00:00	2020-11-25T07:59:59+00:00	-4	j232rrmbk5l8mx8@marketplace.amazon.com	Beth U.	+1 602-671-6610 ext. 44987	ABR0022	Delivery by Tuesday | Arabella Farm Direct Bouquet of 12 Fresh Cut Pink Roses with a Free Glass Vase	1	0	1	Expedited	Trinity Dental Care	1124 MISSION RD			SOUTH SAN FRANCISCO	CA	94080-1301	US		Happy and Blessed Thanksgiving to all! This serves as my presence for the celebration. Best regards. Doc B From Beth U.	false		
114-2891562-1577842	01719321292770	2020-11-21T04:57:28+00:00	2020-11-20T20:57:28-08:00	2020-11-21T04:58:24+00:00	2020-11-25T07:59:59+00:00	-4	0cdzv7cm36p4zw7@marketplace.amazon.com	Jennifer Lin	+1 480-618-5344 ext. 27491	ABR0022	Delivery by Tuesday | Arabella Farm Direct Bouquet of 12 Fresh Cut Pink Roses with a Free Glass Vase	1	0	1	Expedited	Kristin Waller	2862 N ROSEMONT AVE			TUCSON	AZ	85712-1326	US			false		
114-3647859-3657017	61619714964634	2020-11-21T04:43:40+00:00	2020-11-20T20:43:40-08:00	2020-11-21T05:13:16+00:00	2020-11-25T07:59:59+00:00	-4	rnr3xj74b7sch0w@marketplace.amazon.com	nancy berkheiser	+1 480-618-5344 ext. 53157	ABR0022	Delivery by Tuesday | Arabella Farm Direct Bouquet of 12 Fresh Cut Pink Roses with a Free Glass Vase	1	0	1	Expedited	theresa crecelius	16038 16th  SW Ave.			Burien	WA	98166	US		Hi theresa, Get well soon 💗💗💗 From nancy berkheiser	false		
112-2251614-0715444	11519271967466	2020-11-21T05:01:37+00:00	2020-11-20T21:01:37-08:00	2020-11-21T05:14:08+00:00	2020-11-25T07:59:59+00:00	-4	7xys6b0ds98hkf5@marketplace.amazon.com	Levi	+1 619-854-2705 ext. 72615	ABR0033	Delivery by Tuesday | Arabella Farm Direct Bouquet of 12 Fresh Cut Orange Roses with a Free Glass Vase	1	0	1	Expedited	Hannah Ringer	3509 Dayton St			Hephzibah	GA	30815	US		Just because we love you, Mom and Dad	false		
112-7633020-0593822	46757530634450	2020-11-21T04:47:31+00:00	2020-11-20T20:47:31-08:00	2020-11-21T05:16:28+00:00	2020-11-25T07:59:59+00:00	-4	l67g1n25yk5cj1z@marketplace.amazon.com	Niki Kidd	+1 929-436-4790 ext. 03558	ABR0022	Delivery by Tuesday | Arabella Farm Direct Bouquet of 12 Fresh Cut Pink Roses with a Free Glass Vase	1	0	1	Expedited	Patsy Ward	7825 HIGH MARKET ST UNIT 1			SUNSET BEACH	NC	28468-4588	US		We love you and miss you so much. Happy Birthday! Matt, Niki, Layton, and Calder From The Wards	false		
114-0612343-0761057	43394806708690	2020-11-21T04:56:54+00:00	2020-11-20T20:56:54-08:00	2020-11-21T05:26:22+00:00	2020-11-25T07:59:59+00:00	-4	4pxrqjffyhprv8d@marketplace.amazon.com	Evguenia Joukova	+1 602-671-6610 ext. 47810	ABR0033	Delivery by Tuesday | Arabella Farm Direct Bouquet of 12 Fresh Cut Orange Roses with a Free Glass Vase	1	0	1	Expedited	Stella Grach	19084 E PINEWOOD DR			AURORA	CO	80016-3833	US		Get well soon!  Love, From Evguenia Joukova	false		
113-8777471-8579451	48400735576618	2020-11-21T07:03:51+00:00	2020-11-20T23:03:51-08:00	2020-11-21T07:32:10+00:00	2020-11-25T07:59:59+00:00	-4	pw8545wwcm495v5@marketplace.amazon.com	J L Craghead	+1 213-442-1463 ext. 88828	ABR0055	Delivery by Tuesday | Arabella Farm Direct Bouquet of 12 Stems of Fresh Cut Hot Pink Roses in a Free Designer Glass Vase	1	0	1	Expedited	Alice Craghead	246 OURAY AVE			GRAND JUNCTION	CO	81501-2324	US		Happy Birthday Alice. Love, Jerry From J L Craghead	false		
112-2089689-7883465	48694021719618	2020-11-21T07:14:58+00:00	2020-11-20T23:14:58-08:00	2020-11-21T07:43:39+00:00	2020-11-25T07:59:59+00:00	-4	yg6h40m1tb3p18n@marketplace.amazon.com	Dimple Bhuta	+1 213-442-1463 ext. 18985	ABM022	Delivery by Tuesday | Purple Extravagance Bouquet by Arabella Bouquets	1	0	1	Expedited	Shyam Mehta	111 DEKOVEN DR APT 909			MIDDLETOWN	CT	06457-3464	US		Congratulations to the Shah and Mehta family. Can not wait to meet Viraat and Vansh. Wish you all the happiness in the world. - JDB & Family From Dimple Bhuta	false		
111-9253072-0682603	24157635685730	2020-11-21T07:41:43+00:00	2020-11-20T23:41:43-08:00	2020-11-21T07:57:41+00:00	2020-11-25T07:59:59+00:00	-4	bcf65g1qb25h4pv@marketplace.amazon.com	Michael Gross	+1 415-851-9136 ext. 57303	ABR0022	Delivery by Tuesday | Arabella Farm Direct Bouquet of 12 Fresh Cut Pink Roses with a Free Glass Vase	1	0	1	Expedited	Heidi Hill	2230 DORADO AVE			DAVIE	FL	33324-6317	US		I hope these flowers brighten your day. Your birth is a great gift to me. Know you may be out of sight, but not out of my mind. I think of you with loving thoughts often. Stay healthy! Happy birthday Love, Dad From Michael Gross	false		
112-1497170-3649036	22236238551450	2020-11-21T08:56:17+00:00	2020-11-21T00:56:17-08:00	2020-11-21T09:26:53+00:00	2020-11-25T07:59:59+00:00	-4	q5wgx7c95zshkn8@marketplace.amazon.com	Patricia Hecht	+1 602-671-6610 ext. 77185	ABR0022	Delivery by Tuesday | Arabella Farm Direct Bouquet of 12 Fresh Cut Pink Roses with a Free Glass Vase	1	0	1	Expedited	Patricia Hecht	229 BRANNAN ST UNIT 11J			SAN FRANCISCO	CA	94107-4056	US			false		
114-3809244-0966664	19262045176162	2020-11-21T10:54:13+00:00	2020-11-21T02:54:13-08:00	2020-11-21T11:22:54+00:00	2020-11-25T07:59:59+00:00	-4	bpf1cqyhrj236zd@marketplace.amazon.com	Karla Torosian	+1 415-851-9136 ext. 23557	ABM010	Delivery by Tuesday | The Everlasting Fling Bouquet by Arabella Bouquets with a Free Designer Glass Vase	1	0	1	Expedited	Sylvia Perez	517 E MOUNTAIN SKY AVE			PHOENIX	AZ	85048-1880	US		Happy Thanksgiving! We love you From Karla, Tonya, and Carter	false		
114-3035073-0153062	26517088037538	2020-11-21T10:59:54+00:00	2020-11-21T02:59:54-08:00	2020-11-21T11:28:38+00:00	2020-11-25T07:59:59+00:00	-4	xq466jqbrrwlnp2@marketplace.amazon.com	Kari	+1 602-671-6610 ext. 80319	ABM025	Delivery by Thanksgiving | The Fell for You Bouquet by Arabella Bouquets	1	0	1	Expedited	Joline Bowles	431 S CARNEGIE ST			CARNEGIE	OK	73015-9695	US		Wish we could be there to celebrate Thanksgiving with you!   Stay safe!  Love you, Kari and Craig From Kari	false		
114-2269345-2999414	08399807159226	2020-11-21T11:00:30+00:00	2020-11-21T03:00:30-08:00	2020-11-21T11:28:57+00:00	2020-11-25T07:59:59+00:00	-4	bpf1cqyhrj236zd@marketplace.amazon.com	Karla Torosian	+1 480-618-5344 ext. 79680	ABM010	Delivery by Tuesday | The Everlasting Fling Bouquet by Arabella Bouquets with a Free Designer Glass Vase	1	0	1	Expedited	Una Torosian	10360 E. Ranch Gate Rd			Scottsdale	AZ	85255	US		Happy Thanksgiving! We love you From Karla, Tonya, and Carter	false		
114-5002110-1893068	68807205345874	2020-11-21T11:15:08+00:00	2020-11-21T03:15:08-08:00	2020-11-21T11:39:25+00:00	2020-11-25T07:59:59+00:00	-4	fl63brmhxv487n6@marketplace.amazon.com	Aubrey McFarren	+1 602-671-6610 ext. 94199	ABM025	Delivery by Thanksgiving | The Fell for You Bouquet by Arabella Bouquets	1	0	1	Expedited	Joyce Halley	8513 E HAVERHILL LN			TUCSON	AZ	85715-4490	US		Dear Joyce,       Thinking of you and all your family.  Sending my love and thanksgiving for our close  friendship.  ❤️  Aubrey From Aubrey McFarren	false		
111-6912845-4560245	13313082263730	2020-11-21T12:18:48+00:00	2020-11-21T04:18:48-08:00	2020-11-21T12:49:24+00:00	2020-11-25T07:59:59+00:00	-4	fk070525t5kr180@marketplace.amazon.com	Kathleen Mcconnell	+1 213-442-1463 ext. 41026	ABM022	Delivery by Tuesday | Purple Extravagance Bouquet by Arabella Bouquets	1	0	1	Expedited	Kathleen Mcconnell	5401 W DAILEY ST APT 2007			GLENDALE	AZ	85306-4766	US			false		
111-9460606-8213064	22574345875602	2020-11-21T12:22:58+00:00	2020-11-21T04:22:58-08:00	2020-11-21T12:49:48+00:00	2020-11-25T07:59:59+00:00	-4	fk070525t5kr180@marketplace.amazon.com	Kathleen Mcconnell	+1 213-442-1463 ext. 55132	ABM022	Delivery by Tuesday | Purple Extravagance Bouquet by Arabella Bouquets	1	0	1	Expedited	Derrick kipp	5401 W DAILEY ST APT 306			GLENDALE	AZ	85306-4790	US			false		
113-8561854-4844213	00939698342058	2020-11-21T12:30:46+00:00	2020-11-21T04:30:46-08:00	2020-11-21T12:54:16+00:00	2020-11-25T07:59:59+00:00	-4	j2ww1h09jv95pgy@marketplace.amazon.com	Dana Lunderville	+1 602-671-6610 ext. 42864	ABM022	Delivery by Tuesday | Purple Extravagance Bouquet by Arabella Bouquets	1	0	1	Expedited	Debra Burgman	372 HANBURY MANOR LN			LAS VEGAS	NV	89145-8715	US		Hi Debra, Happy Birthday to my favorite Twin. Love and miss you  Love Darlene and Dan	false		
113-3662671-7460244	01312503394218	2020-11-21T12:28:42+00:00	2020-11-21T04:28:42-08:00	2020-11-21T12:57:14+00:00	2020-11-25T07:59:59+00:00	-4	psc5860sy4qfynz@marketplace.amazon.com	alyson lebow	95228866388	ABR0022	Delivery by Tuesday | Arabella Farm Direct Bouquet of 12 Fresh Cut Pink Roses with a Free Glass Vase	1	0	1	Expedited	Barbara Smith	500 COUNTY ROAD B W	UNIT 106 VILLA PARK CONDOMINIUM RESIDENCE NOT A BUSINESS		ROSEVILLE	MN	55113-6665	US		Happy Birthday!  We love you very much  The lLebows	false		
112-6359113-4549863	64814126403194	2020-11-21T12:43:21+00:00	2020-11-21T04:43:21-08:00	2020-11-21T13:12:17+00:00	2020-11-25T07:59:59+00:00	-4	cbmh15shy8tgz2r@marketplace.amazon.com	Lyn E Mahony	+1 619-854-2705 ext. 95675	ABM025	Delivery by Thanksgiving | The Fell for You Bouquet by Arabella Bouquets	1	0	1	Expedited	Cate Carley	101 ROCKVIEW AVE			NORTH PLAINFIELD	NJ	07060-4542	US		Thinking of you and hoping for a speedy recovery.  Happy Thanksgiving to our dear friend.  Love - Lyn and Mike From Lyn E Mahony	false		
114-7508762-7551426	52640709005650	2020-11-21T12:59:58+00:00	2020-11-21T04:59:58-08:00	2020-11-21T13:30:20+00:00	2020-11-25T07:59:59+00:00	-4	4xjhjr0bnkrfgzn@marketplace.amazon.com	Zhonghong Li	+1 619-854-2705 ext. 18117	ABM025	Delivery by Thanksgiving | The Fell for You Bouquet by Arabella Bouquets	1	0	1	Expedited	Bingyu Wu	THE COURTYARDS APARTMENTS	1780 BROADWAY ST		ANN ARBOR	MI	48105-3317	US			false		
112-0302407-0291421	07757057072186	2020-11-21T13:14:00+00:00	2020-11-21T05:14:00-08:00	2020-11-21T13:43:24+00:00	2020-11-25T07:59:59+00:00	-4	qgp6rm450gckzqg@marketplace.amazon.com	Christopher P Henry	+1 480-618-5344 ext. 05533	ABR011	Delivery by Wednesday | Arabella Bouquets 18 Stems of Fresh Cut Red Roses in a Free Glass Vase	1	0	1	Expedited	Lauren Demos	4001 FRANKLIN CT			CHESTER SPRINGS	PA	19425-8752	US		I love you dearly.  So very proud of you baby. You are my everything From Christopher P Henry	false		
111-3105215-1291415	48303684746890	2020-11-21T13:17:03+00:00	2020-11-21T05:17:03-08:00	2020-11-21T13:44:53+00:00	2020-11-25T07:59:59+00:00	-4	nj6ff6t3m3s5byw@marketplace.amazon.com	Leutrell  Osborne II	+1 929-436-4790 ext. 68224	ABR0066	Delivery by Wednesday | Arabella Bouquets 12 Stems of Fresh Cut White Roses in a Free Designer Glass Vase	1	0	1	Expedited	Leutrell Osborne c/o Mary Hastie	6816 W 84TH CIR UNIT 42			ARVADA	CO	80003-1139	US		In Loving Memory of Sheri Moore.  And Happy Thanksgiving! From Leutrell  Osborne II	false		
113-4940572-9379421	04752699872546	2020-11-21T13:22:53+00:00	2020-11-21T05:22:53-08:00	2020-11-21T13:51:11+00:00	2020-11-25T07:59:59+00:00	-4	syp241gplt9ntkh@marketplace.amazon.com	John M. Wolf	+1 929-436-4790 ext. 39256	ABM031	Delivery by Thanksgiving | The Harvest Moon Bouquet by Arabella Bouquets	1	0	1	Expedited	Barb Steuber	41 DIRLETON DR			BELLA VISTA	AR	72715-6011	US		Happy Thanksgiving to you all! From John And Jane	false		
113-3110691-7209823	61437668379946	2020-11-21T13:27:57+00:00	2020-11-21T05:27:57-08:00	2020-11-21T13:53:09+00:00	2020-11-25T07:59:59+00:00	-4	30z0dhzf50vmr1f@marketplace.amazon.com	Paula Moors	+1 213-442-1463 ext. 43056	ABM010	Delivery by Tuesday | The Everlasting Fling Bouquet by Arabella Bouquets with a Free Designer Glass Vase	1	0	1	Expedited	Mary, Doug, Ally, and Rae Moors	9121 HENDERSON RD			GOODRICH	MI	48438-9779	US		Remembering Dozer.  Twenty two out of this world years with the best kid, and Goodrich’s favorite son! From Love Paula	false		
113-0208852-3170608	68930052722346	2020-11-21T13:25:56+00:00	2020-11-21T05:25:56-08:00	2020-11-21T13:54:33+00:00	2020-11-25T07:59:59+00:00	-4	9mcb1s6lxgjjzq1@marketplace.amazon.com	Donna M. Tague	+1 929-436-4790 ext. 72831	ABR0022	Delivery by Tuesday | Arabella Farm Direct Bouquet of 12 Fresh Cut Pink Roses with a Free Glass Vase	1	0	1	Expedited	Mary & Daniel Cerullo	30 Colony Road			Ortley Beach	New Jersey	08751	US			false		
112-6770517-1880248	68272180944218	2020-11-21T13:33:34+00:00	2020-11-21T05:33:34-08:00	2020-11-21T13:59:32+00:00	2020-11-25T07:59:59+00:00	-4	nxjnlgpnwht0zsx@marketplace.amazon.com	Julianna	+1 619-854-2705 ext. 41103	ABM025	Delivery by Thanksgiving | The Fell for You Bouquet by Arabella Bouquets	1	0	1	Expedited	Susan Sawyer	127 FLEETWOOD AVE			ALBANY	NY	12209-1107	US		Happy Thanksgiving Susan and David! I apologize for being so terrible at keeping in touch! I think of you both often. I miss you! Thankful for prayer warriors like you! Much Love, Julianna, Ryan, and Elijah From Julianna	false		
111-4674976-2632241	19152938174346	2020-11-21T13:49:12+00:00	2020-11-21T05:49:12-08:00	2020-11-21T14:15:51+00:00	2020-11-25T07:59:59+00:00	-4	t7c41y6tvh5dmgc@marketplace.amazon.com	Mike	+1 213-442-1463 ext. 18412	ABM010	Delivery by Tuesday | The Everlasting Fling Bouquet by Arabella Bouquets with a Free Designer Glass Vase	1	0	1	Expedited	Peggy Chen	8655 BROADWAY APT 603			ELMHURST	NY	11373-5872	US		Dear Girl Babs,  Thank you for always being so caring and loving. I appreciate you very much. You are the best Bab in the babity world. From Boy Babs	false		
111-4235072-7609836	03719779376026	2020-11-21T13:57:54+00:00	2020-11-21T05:57:54-08:00	2020-11-21T14:26:29+00:00	2020-11-25T07:59:59+00:00	-4	wxcjb2n8bfkdx5c@marketplace.amazon.com	Mary A. Schweitzer	+1 619-854-2705 ext. 43325	ABM010	Delivery by Tuesday | The Everlasting Fling Bouquet by Arabella Bouquets with a Free Designer Glass Vase	1	0	1	Expedited	R.M. Wolfe	5608 MANTACHIE CT			RALEIGH	NC	27610-3260	US			false		
111-8126564-4616212	46956711568698	2020-11-21T14:06:12+00:00	2020-11-21T06:06:12-08:00	2020-11-21T14:30:33+00:00	2020-11-25T07:59:59+00:00	-4	4q2lnfh8tjb4nmz@marketplace.amazon.com	Carly flagg	+1 415-851-9136 ext. 97268	ABM010	Delivery by Tuesday | The Everlasting Fling Bouquet by Arabella Bouquets with a Free Designer Glass Vase	1	0	1	Expedited	Taylor Breault	10 ROSEBERRY DR			BOYLSTON	MA	01505-2024	US		Tay, I’ve been thinking about you and your family, and I love you so much! Always here for you, no matter what. I know this is a hard time, but you’re a tough chicky. Xoxox From Carly	false		
113-0229887-6168225	67517565861002	2020-11-21T14:00:41+00:00	2020-11-21T06:00:41-08:00	2020-11-21T14:31:07+00:00	2020-11-25T07:59:59+00:00	-4	p1ts7nt28g51v1x@marketplace.amazon.com	Howard Birlew	+1 602-671-6610 ext. 52771	ABR0022	Delivery by Tuesday | Arabella Farm Direct Bouquet of 12 Fresh Cut Pink Roses with a Free Glass Vase	1	0	1	Expedited	Sharyn Downdnd	13111 BARRETT HILL CIR			SANTA ANA	CA	92705-6301	US			false		
112-7877040-5461005	26453105225066	2020-11-21T14:08:13+00:00	2020-11-21T06:08:13-08:00	2020-11-21T14:32:00+00:00	2020-11-25T07:59:59+00:00	-4	trl2ftj3m5v10ty@marketplace.amazon.com	Joanne Gamba	+1 602-671-6610 ext. 82006	ABR0066	Delivery by Wednesday | Arabella Bouquets 12 Stems of Fresh Cut White Roses in a Free Designer Glass Vase	1	0	1	Expedited	Debra Boyer	707 NORTHSIDE DR			FREDERICK	MD	21701-6235	US		Enjoy your gift! Congrats on the opening of your new salon. Love from Joanne and children From Joanne Gamba	false		
114-5720757-9339456	13537238406794	2020-11-21T14:19:43+00:00	2020-11-21T06:19:43-08:00	2020-11-21T14:49:26+00:00	2020-11-25T07:59:59+00:00	-4	b5trny50s0h46zl@marketplace.amazon.com	Katherine Buck	+1 619-854-2705 ext. 04617	ABM031	Delivery by Thanksgiving | The Harvest Moon Bouquet by Arabella Bouquets	1	0	1	Expedited	Marilyn Buck	114 HAYES MILL RD APT C313			ATCO	NJ	08004-2464	US		Happy Thanksgiving! Love, kathy From Katherine Buck	false		
113-8007398-9637052	00657463712890	2020-11-21T14:23:14+00:00	2020-11-21T06:23:14-08:00	2020-11-21T14:53:16+00:00	2020-11-25T07:59:59+00:00	-4	cxrc7rq92wn20vp@marketplace.amazon.com	N.Ganesh	+1 602-671-6610 ext. 10271	ABR0055	Delivery by Tuesday | Arabella Farm Direct Bouquet of 12 Stems of Fresh Cut Hot Pink Roses in a Free Designer Glass Vase	1	0	1	Standard	Leah ratner	4 LONGFELLOW PL APT 802			BOSTON	MA	02114-2806	US		Enjoy your gift! From N.Ganesh	false		
112-3111204-1341057	54466827477930	2020-11-21T14:52:14+00:00	2020-11-21T06:52:14-08:00	2020-11-21T14:57:52+00:00	2020-11-25T07:59:59+00:00	-4	jcpzxl5mv385tt0@marketplace.amazon.com	Rodselyn Latoya Gaines	+1 480-618-5344 ext. 68637	ABSR002	Delivery by Wednesday | Arabella Farm Direct Bouquet of Fresh Cut Pink Multicolor Spray Roses with a Free Glass Vase	1	0	1	Expedited	Bettie leito	2350 VILLAGE GREEN DR			FAIRBURN	GA	30213-5108	US		Sending my love and condolences From Rodselyn Latoya Gaines	false		
114-7560207-1860249	41467001914930	2020-11-21T14:42:19+00:00	2020-11-21T06:42:19-08:00	2020-11-21T15:11:03+00:00	2020-11-25T07:59:59+00:00	-4	d8r6trnr3c3jm5v@marketplace.amazon.com	Gaye Cronin	+1 480-618-5344 ext. 44100	ABR0033	Delivery by Tuesday | Arabella Farm Direct Bouquet of 12 Fresh Cut Orange Roses with a Free Glass Vase	1	0	1	Expedited	Susan Tepper	200 RIVER VISTA DR UNIT 620			ATLANTA	GA	30339-7621	US			false		
113-0948725-5077814	61486836512946	2020-11-21T14:46:12+00:00	2020-11-21T06:46:12-08:00	2020-11-21T15:13:51+00:00	2020-11-25T07:59:59+00:00	-4	czx2h773z8pslrv@marketplace.amazon.com	Raghu R Turebylu	+1 415-851-9136 ext. 29196	ABR0022	Delivery by Tuesday | Arabella Farm Direct Bouquet of 12 Fresh Cut Pink Roses with a Free Glass Vase	1	0	1	Expedited	Vivek Halappa	360 E MARKET ST APT 2112			INDIANAPOLIS	IN	46204-2962	US		Happy Anniversary! From Turebylu family	false		
113-2672227-4763433	34702612648498	2020-11-21T14:47:27+00:00	2020-11-21T06:47:27-08:00	2020-11-21T15:14:26+00:00	2020-11-25T07:59:59+00:00	-4	81gfwrxg2hdrgsm@marketplace.amazon.com	Mary Gibbons Gardiner	+1 213-442-1463 ext. 43761	ABR0022	Delivery by Tuesday | Arabella Farm Direct Bouquet of 12 Fresh Cut Pink Roses with a Free Glass Vase	1	0	1	Expedited	Janet Silverman	117 OLD FARM RD S			PLEASANTVILLE	NY	10570-1507	US		Wishing you a great birthday.  Hope it is a great one! Much love! From Mary and Lisa and crew	false		
112-4478911-7380263	61830635210970	2020-11-21T14:54:47+00:00	2020-11-21T06:54:47-08:00	2020-11-21T15:22:39+00:00	2020-11-25T07:59:59+00:00	-4	26r9xlr419jcmtb@marketplace.amazon.com	nicole mcdonald	+1 480-618-5344 ext. 63831	ABR0055	Delivery by Tuesday | Arabella Farm Direct Bouquet of 12 Stems of Fresh Cut Hot Pink Roses in a Free Designer Glass Vase	1	0	1	Expedited	Sydney Emery	110 WOODCLIFF DR			BLOOMINGDALE	OH	43910-7710	US		Happy Birthday Sydney! Love, Bobby From Bobby McDonald	false		
113-7050341-0164267	50984329597002	2020-11-21T15:04:30+00:00	2020-11-21T07:04:30-08:00	2020-11-21T15:30:22+00:00	2020-11-25T07:59:59+00:00	-4	w0743m42bhncbmc@marketplace.amazon.com	Amalia  Crooks	+1 480-618-5344 ext. 10211	ABR0066	Delivery by Wednesday | Arabella Bouquets 12 Stems of Fresh Cut White Roses in a Free Designer Glass Vase	1	0	1	Expedited	Nikki Crooks	6603 JUNIPER CREEK DR			JACKSONVILLE	FL	32244-6850	US		Hi mommy Crooks, Know I am praying and thinking about you. Wish I could be there with you. Love and hugs! From Amy	false		
114-7624776-3781031	56978622529954	2020-11-21T15:03:29+00:00	2020-11-21T07:03:29-08:00	2020-11-21T15:32:19+00:00	2020-11-25T07:59:59+00:00	-4	w6gg7wz174m0n95@marketplace.amazon.com	Karen M. Kopka	+1 619-854-2705 ext. 81150	ABR004	Delivery by Wednesday | Arabella Farm Direct Bouquet of 12 Fresh Cut Yellow Roses with a Free Glass Vase	1	0	1	Expedited	Carole Kotewa	665 W BORTON RD			ESSEXVILLE	MI	48732-9653	US		I love you From Karen M. Kopka	false		
113-2007701-4969865	39495409528074	2020-11-21T15:10:44+00:00	2020-11-21T07:10:44-08:00	2020-11-21T15:33:20+00:00	2020-11-25T07:59:59+00:00	-4	7xwzryqtc3vhtb2@marketplace.amazon.com	JoAnne	+1 929-436-4790 ext. 43954	ABR0066	Delivery by Wednesday | Arabella Bouquets 12 Stems of Fresh Cut White Roses in a Free Designer Glass Vase	1	0	1	Expedited	Milissa Long	100 HUTTON ST			GAITHERSBURG	MD	20877-2058	US		Annie, we hope these flowers will brighten your day as you heal!! We love you!! From JoAnne and Andy Easton	false		
113-9484461-5905035	04126083775466	2020-11-21T15:08:28+00:00	2020-11-21T07:08:28-08:00	2020-11-21T15:39:00+00:00	2020-11-25T07:59:59+00:00	-4	vwylxvlzyd84jbc@marketplace.amazon.com	Marcia Bodden	+1 929-436-4790 ext. 26756	ABM026	Delivery by Thanksgiving | The Amour Bouquet by Arabella Bouquets	1	0	1	Expedited	Claudia Guevarra	104 LADYSHIRE LN APT C103			ROCKVILLE	MD	20850-6480	US			false		
114-5674138-9347442	68468705206882	2020-11-21T15:09:55+00:00	2020-11-21T07:09:55-08:00	2020-11-21T15:39:29+00:00	2020-11-25T07:59:59+00:00	-4	89z0j0bd6zzwv2r@marketplace.amazon.com	Kathryn Poszywak		ABM010	Delivery by Tuesday | The Everlasting Fling Bouquet by Arabella Bouquets with a Free Designer Glass Vase	1	0	1	Expedited	BECKY A POSZYWAK	3375 KENMORE RD			SHAKER HEIGHTS	OH	44122	US			false		
114-7180647-2396211	32822742135714	2020-11-21T15:22:25+00:00	2020-11-21T07:22:25-08:00	2020-11-21T15:43:57+00:00	2020-11-25T07:59:59+00:00	-4	wl078sttv1r4p71@marketplace.amazon.com	Henry Dufner	+1 929-436-4790 ext. 33962	ABR0055	Delivery by Tuesday | Arabella Farm Direct Bouquet of 12 Stems of Fresh Cut Hot Pink Roses in a Free Designer Glass Vase	1	0	1	Expedited	Joyce Dufner	75D HUDSON PKWY			WHITING	NJ	08759-6306	US		Enjoy your gift! From Henry Dufner	false		
111-8122768-0075414	57212755482482	2020-11-21T15:16:55+00:00	2020-11-21T07:16:55-08:00	2020-11-21T15:47:43+00:00	2020-11-25T07:59:59+00:00	-4	r3t1gfv23d00n9c@marketplace.amazon.com	Trevor Ellington	+1 213-442-1463 ext. 59918	ABM010	Delivery by Tuesday | The Everlasting Fling Bouquet by Arabella Bouquets with a Free Designer Glass Vase	1	0	1	Expedited	Joyce Wittmann	W3041 PINECREST CT			APPLETON	WI	54915-8197	US		Hi Aunt Joyce,  Happy Thanksgiving! We miss you! Love, Trevor, Sarah, Sammie and Olivia	false		
112-2729491-9958661	43969095984266	2020-11-21T15:26:16+00:00	2020-11-21T07:26:16-08:00	2020-11-21T15:56:40+00:00	2020-11-25T07:59:59+00:00	-4	1b2dyfh5y52mx0n@marketplace.amazon.com	Zachary Cofone	+1 213-442-1463 ext. 64334	ABM010	Delivery by Tuesday | The Everlasting Fling Bouquet by Arabella Bouquets with a Free Designer Glass Vase	1	0	1	Expedited	Evalyn keller	13654 REMUDA RANCH DR			SAN ANTONIO	TX	78254-1747	US			false		
113-5199645-4521011	32412116170306	2020-11-21T15:27:10+00:00	2020-11-21T07:27:10-08:00	2020-11-21T15:56:50+00:00	2020-11-25T07:59:59+00:00	-4	2kwdtp2lf21z7kt@marketplace.amazon.com	Ed and Anne Antz	+1 602-671-6610 ext. 05335	ABM026	Delivery by Thanksgiving | The Amour Bouquet by Arabella Bouquets	1	0	1	Expedited	Germaine Calawa Hill	601 GREENLEAF MDWS APT B			ROCHESTER	NY	14612-4446	US		Happy Thanksgiving! From Love, Ed and Anne Antz	false		
113-5368460-0528248	36446833119098	2020-11-21T15:28:43+00:00	2020-11-21T07:28:43-08:00	2020-11-21T15:58:42+00:00	2020-11-25T07:59:59+00:00	-4	2kwdtp2lf21z7kt@marketplace.amazon.com	Ed and Anne Antz	+1 213-442-1463 ext. 51610	ABM025	Delivery by Thanksgiving | The Fell for You Bouquet by Arabella Bouquets	1	0	1	Expedited	Trish Novack	1610 NE 1ST ST APT 3			FORT LAUDERDALE	FL	33301-3800	US		Happy Anniversary! From Love, Ed and Anne Antz	false		
112-0346308-1419421	04930043671730	2020-11-21T15:45:38+00:00	2020-11-21T07:45:38-08:00	2020-11-21T16:15:47+00:00	2020-11-25T07:59:59+00:00	-4	v89whz4f7l836j0@marketplace.amazon.com	Robert latus	+1 415-851-9136 ext. 89496	ABR001	Delivery by Tuesday | Arabella Bouquets 12 Stems of Fresh Cut Red Roses in a Free Designer Glass Vase	1	0	1	Expedited	Kathryn Nuzum	529 LINDLY ST			GRAND PRAIRIE	TX	75052-3415	US			false		
111-7741516-7825863	61774408718850	2020-11-21T15:48:24+00:00	2020-11-21T07:48:24-08:00	2020-11-21T16:18:25+00:00	2020-11-25T07:59:59+00:00	-4	vvc9z3rnsy8xkhf@marketplace.amazon.com	Brian A. Browne	+1 213-442-1463 ext. 14562	ABR0022	Delivery by Tuesday | Arabella Farm Direct Bouquet of 12 Fresh Cut Pink Roses with a Free Glass Vase	1	0	1	Expedited	Brian Browne	724 NOTTINGHAM RD			BALTIMORE	MD	21229-1324	US			false		
113-6440569-3396200	21084050468186	2020-11-21T15:57:13+00:00	2020-11-21T07:57:13-08:00	2020-11-21T16:24:49+00:00	2020-11-25T07:59:59+00:00	-4	rzkd91jyx8ptwnx@marketplace.amazon.com	Paula lindsay	+1 929-436-4790 ext. 32287	ABM031	Delivery by Thanksgiving | The Harvest Moon Bouquet by Arabella Bouquets	1	0	1	Expedited	Audrey Pilafian	9940 SW 60TH ST			MIAMI	FL	33173-1425	US		Happy Thanksgiving Audrey and Kathy.  We are thankful for your friendship.   Our hearts are with you. Love, Paula and Gary From Paula lindsay	false		
113-7480569-2037007	40998532705610	2020-11-21T15:57:03+00:00	2020-11-21T07:57:03-08:00	2020-11-21T16:25:43+00:00	2020-11-25T07:59:59+00:00	-4	651z9wgmst9pwhj@marketplace.amazon.com	eliu abisai diaz vasquez	+1 602-671-6610 ext. 97794	ABR0022	Delivery by Tuesday | Arabella Farm Direct Bouquet of 12 Fresh Cut Pink Roses with a Free Glass Vase	1	0	1	Expedited	Eliu Diaz	1001 W SUMMERLAND AVE APT 1			SAN PEDRO	CA	90732-2661	US		Te bendecimos y te amamos en el nombre de Jesus, gracias querida hermana por tu ayuda con las cosas de Esther, bendigo tambien a mis sobrinos que con amor nos ayudaron! De Alejandra y Eliu	false		
112-8239556-2094631	34542500760714	2020-11-21T15:59:37+00:00	2020-11-21T07:59:37-08:00	2020-11-21T16:27:42+00:00	2020-11-25T07:59:59+00:00	-4	dv62pw0cn513twz@marketplace.amazon.com	meredith siegmann	+1 480-618-5344 ext. 12709	ABM026	Delivery by Thanksgiving | The Amour Bouquet by Arabella Bouquets	1	0	1	Expedited	Amie Moore	3 MARINA RD			YARMOUTH	ME	04096-6783	US		Happy wonderful thankful Thanksgiving Love, Mom and Dad From meredith siegmann	false		
112-9106400-6056242	34883182416178	2020-11-21T16:00:52+00:00	2020-11-21T08:00:52-08:00	2020-11-21T16:29:57+00:00	2020-11-25T07:59:59+00:00	-4	3f1z61r5bcnjrbc@marketplace.amazon.com	Seal	+1 480-618-5344 ext. 66284	ABR0022	Delivery by Tuesday | Arabella Farm Direct Bouquet of 12 Fresh Cut Pink Roses with a Free Glass Vase	1	0	1	Expedited	Mom	9356 VILLA ENTRADA			NEW PORT RICHEY	FL	34655-5714	US			false		
113-0751323-4469831	53771823359290	2020-11-21T16:08:24+00:00	2020-11-21T08:08:24-08:00	2020-11-21T16:35:19+00:00	2020-11-25T07:59:59+00:00	-4	2cx0kqqqg5tl0t0@marketplace.amazon.com	Philip M Morris	+1 602-671-6610 ext. 86809	ABM022	Delivery by Tuesday | Purple Extravagance Bouquet by Arabella Bouquets	1	0	1	Expedited	Mary and Robert Steinberger	230 MUEGEL RD			EAST AMHERST	NY	14051-1612	US		I guess ,despite everything we are thankfull nevertheless, Happy Thanksgiving, Mary & B0b, Love Michael From Philip M Morris	false		
113-9021575-6103430	44647649226586	2020-11-18T16:51:12+00:00	2020-11-18T08:51:12-08:00	2020-11-21T16:40:51+00:00	2020-11-25T07:59:59+00:00	-4	vbxsyz9pvskp630@marketplace.amazon.com	Teresa Houghton	+1 602-671-6610 ext. 43143	ABR0022	Delivery by Thursday| Arabella Farm Direct Bouquet of 12 Fresh Cut Pink Roses with a Free Glass Vase	1	0	1	Expedited	Gail Kornafel	9817 E ARCHERY AVE			SPOKANE	WA	99206-3548	US		Happy Thanksgiving!!!  I am so thankful for you!!! Thank you again for your gift of love and kindness!  God bless you!! xoxo From Teresa Houghton	false		
112-2957495-9172269	50333127084162	2020-11-21T16:15:35+00:00	2020-11-21T08:15:35-08:00	2020-11-21T16:42:49+00:00	2020-11-25T07:59:59+00:00	-4	rvkjhhjzvkb3f7t@marketplace.amazon.com	Debbie Vance	+1 213-442-1463 ext. 98198	ABM025	Delivery by Thanksgiving | The Fell for You Bouquet by Arabella Bouquets	1	0	1	Expedited	Jan Vance	1515 WHITETAIL DR			CASTLE ROCK	CO	80104-2807	US		Hi - you have not been forgotten, have a beautiful week!!! XOXO From Gary and Debbie	false		
112-8587395-6367450	32515110751682	2020-11-21T16:24:57+00:00	2020-11-21T08:24:57-08:00	2020-11-21T16:52:57+00:00	2020-11-25T07:59:59+00:00	-4	zsqyd9rsj6n82l1@marketplace.amazon.com	Vanessa Varela	+1 480-618-5344 ext. 74426	ABM010	Delivery by Tuesday | The Everlasting Fling Bouquet by Arabella Bouquets with a Free Designer Glass Vase	1	0	1	Expedited	Jen Spaw	12179 NW 72ND ST			PARKLAND	FL	33076-4611	US		Thank you for being the best teacher! Happy Thanksgiving From Olivia Geloso	false		
114-4038045-5930666	37787452770714	2020-11-21T16:24:30+00:00	2020-11-21T08:24:30-08:00	2020-11-21T16:54:08+00:00	2020-11-25T07:59:59+00:00	-4	wj9qr9smp90l80v@marketplace.amazon.com	carol mitchell	+1 480-618-5344 ext. 74020	ABR0022	Delivery by Tuesday | Arabella Farm Direct Bouquet of 12 Fresh Cut Pink Roses with a Free Glass Vase	1	0	1	Expedited	Sheilah Boothby	2408 SIERRA HOUSE TRL			SOUTH LAKE TAHOE	CA	96150-6868	US			false		
111-4733659-1853840	69809660614018	2020-11-21T16:34:35+00:00	2020-11-21T08:34:35-08:00	2020-11-21T16:55:18+00:00	2020-11-25T07:59:59+00:00	-4	660x37b1bqx25fp@marketplace.amazon.com	tom hartig	+1 929-436-4790 ext. 97171	ABM031	Delivery by Thanksgiving | The Harvest Moon Bouquet by Arabella Bouquets	1	0	1	Expedited	Norma Saville	168 COUNTY ROUTE 36			HUDSON FALLS	NY	12839-4110	US		Happy Thanksgiving to our very special Sis and Brother-in-Law!    God Bless You as you celebrate this time of year of Thankfulness!   We Love You!  And  are THANKFUL for You!   Prayers and Love sent your way! From Marion  and Tom	false		
113-6393252-1582623	12829781287266	2020-11-21T16:27:30+00:00	2020-11-21T08:27:30-08:00	2020-11-21T16:55:45+00:00	2020-11-25T07:59:59+00:00	-4	m1l420g1c9nxyw2@marketplace.amazon.com	Mersida	+1 602-671-6610 ext. 35257	ABM010	Delivery by Tuesday | The Everlasting Fling Bouquet by Arabella Bouquets with a Free Designer Glass Vase	1	0	1	Expedited	Larisa Suydam	4800 COWSLIP CT			OXON HILL	MD	20745-3405	US		Hey Sis, Herzlichen Glückwunsch zum Geburtstag! Želimo ti sve najbolje. Volimo i ljubimo te. Lilly, Tiana, Nato und Matze From Nato	false		
114-1891995-6674627	12505060278602	2020-11-21T16:36:02+00:00	2020-11-21T08:36:02-08:00	2020-11-21T16:59:31+00:00	2020-11-25T07:59:59+00:00	-4	pxtf0hlh631n64l@marketplace.amazon.com	Quosa	+1 602-671-6610 ext. 38475	ABR0066	Delivery by Wednesday | Arabella Bouquets 12 Stems of Fresh Cut White Roses in a Free Designer Glass Vase	1	0	1	Expedited	Rachel & The Jones Family	799 N TREZEVANT ST			MEMPHIS	TN	38112-1722	US		Sending our love and prayers to you all.   -From Chelsea & Terance From Quosa	false		
112-4174161-4451413	60070022226546	2020-11-21T16:34:38+00:00	2020-11-21T08:34:38-08:00	2020-11-21T17:03:18+00:00	2020-11-25T07:59:59+00:00	-4	kvvj3251hrlptc5@marketplace.amazon.com	David E. Smith	+1 619-854-2705 ext. 97039	ABM020	Delivery by Tuesday | The Sunset Bouquet by Arabella Bouquets	1	0	1	Expedited	Jean Smith	3402 E DESERT TRUMPET RD			PHOENIX	AZ	85044-7030	US		Happy 80th Birthday!!!! We love you and miss you. Love, Dave, Kris, Kyle & Kory From Dave & Kris	false		
112-2212034-7305048	01639881187706	2020-11-21T16:51:12+00:00	2020-11-21T08:51:12-08:00	2020-11-21T17:17:49+00:00	2020-11-25T07:59:59+00:00	-4	0swhq8r0kxjqp8t@marketplace.amazon.com	sandra sabrio	+1 929-436-4790 ext. 67892	ABM0033	Delivery by Wednesday | Arabella Farm Direct Bouquet of Fresh Cut White Hydrangea with a Free Glass Vase	1	0	1	Expedited	Laura Sabrio	7550 RED CRAVAT CT			COLUMBIA	MD	21046-2436	US		Hope you feel better soon!! Happy Thanksgiving! From sandra sabrio	false		
113-7245564-3600220	64155487334162	2020-11-21T16:50:21+00:00	2020-11-21T08:50:21-08:00	2020-11-21T17:19:32+00:00	2020-11-25T07:59:59+00:00	-4	97dythzvm26ykyb@marketplace.amazon.com	Blake E. Smith	+1 929-436-4790 ext. 82244	ABR0033	Delivery by Tuesday | Arabella Farm Direct Bouquet of 12 Fresh Cut Orange Roses with a Free Glass Vase	1	0	1	Expedited	Keith Smith	2412 W 105TH ST			LEAWOOD	KS	66206-2616	US		We wish we could be with you, hope to see you soon!  Happy Thanksgiving From Blake E. Smith	false		
114-9603011-5259461	62585641652178	2020-11-21T17:01:02+00:00	2020-11-21T09:01:02-08:00	2020-11-21T17:21:45+00:00	2020-11-25T07:59:59+00:00	-4	f010fd3bvg6nxq5@marketplace.amazon.com	Nan Goldwasser	+1 619-854-2705 ext. 03449	ABR0022	Delivery by Tuesday | Arabella Farm Direct Bouquet of 12 Fresh Cut Pink Roses with a Free Glass Vase	1	0	1	Expedited	Linda Rosen	493 KINGSFORD RD			FAYETTEVILLE	NC	28314-2621	US		Love, Nannie From Nan Goldwasser	false		
113-9338703-2012264	53798303391970	2020-11-21T17:04:50+00:00	2020-11-21T09:04:50-08:00	2020-11-21T17:28:39+00:00	2020-11-25T07:59:59+00:00	-4	97dythzvm26ykyb@marketplace.amazon.com	Blake E. Smith	+1 213-442-1463 ext. 21761	ABR0033	Delivery by Tuesday | Arabella Farm Direct Bouquet of 12 Fresh Cut Orange Roses with a Free Glass Vase	1	0	1	Expedited	Courtney Smith	1621 BLACK CANYON RD			RAMONA	CA	92065-1204	US		Wish we could spend Thanksgiving with you, maybe we'll see each other soon.  Happy Thanksgiving! From Blake and Annette	false		
113-8359033-4969801	49094907362002	2020-11-21T17:01:03+00:00	2020-11-21T09:01:03-08:00	2020-11-21T17:30:47+00:00	2020-11-25T07:59:59+00:00	-4	63rrjgqk9t70w77@marketplace.amazon.com	John	+1 602-671-6610 ext. 44294	ABM020	Delivery by Tuesday | The Sunset Bouquet by Arabella Bouquets	1	0	1	Expedited	Eliza Quill	2013 S DOWNING ST			OLATHE	KS	66062-2985	US			false		
112-3443337-7195463	49825560744082	2020-11-21T17:05:22+00:00	2020-11-21T09:05:22-08:00	2020-11-21T17:34:58+00:00	2020-11-25T07:59:59+00:00	-4	r2fw0yld8hr7060@marketplace.amazon.com	Brian J Price	+1 619-854-2705 ext. 13384	ABR0022	Delivery by Tuesday | Arabella Farm Direct Bouquet of 12 Fresh Cut Pink Roses with a Free Glass Vase	1	0	1	Expedited	Alex Ponticello	66 SUMMIT DR			ROCHESTER	NY	14620-3130	US		Happy 50th Birthday.  Thanks for all you support.  We love you and wish you a wonderful day. From Love, Brian, RoseAnn, Scott, Mickey and Liam	false		
112-2475636-2540205	56305424134282	2020-11-21T17:09:17+00:00	2020-11-21T09:09:17-08:00	2020-11-21T17:38:06+00:00	2020-11-25T07:59:59+00:00	-4	5tx2cycqmbb0flv@marketplace.amazon.com	Christine C. Harding	+1 619-854-2705 ext. 92353	ABM023	Delivery by Wednesday | The Morning Sun Bouquet by Arabella Bouquets	1	0	1	Expedited	Karen Carere	6458 WATERSCAPE RDG			GAINESVILLE	GA	30506-6925	US		Happy Thanksgiving you two! Love you very much! From Christine & Family	false		
113-6350329-9473808	64498192731082	2020-11-21T17:09:25+00:00	2020-11-21T09:09:25-08:00	2020-11-21T17:39:19+00:00	2020-11-25T07:59:59+00:00	-4	97dythzvm26ykyb@marketplace.amazon.com	Blake E. Smith	+1 602-671-6610 ext. 49901	ABR0033	Delivery by Tuesday | Arabella Farm Direct Bouquet of 12 Fresh Cut Orange Roses with a Free Glass Vase	1	0	1	Expedited	Lynne Smith	15102 NATURAL SPRING WAY			AUSTIN	TX	78728-4531	US		Happy Thanksgiving!  Hope to see you soon! From Blake and Annette	false		
114-3336244-6340245	00884119046890	2020-11-21T17:15:23+00:00	2020-11-21T09:15:23-08:00	2020-11-21T17:39:41+00:00	2020-11-25T07:59:59+00:00	-4	lr8y5vx7t6brf66@marketplace.amazon.com	HANS VANWIKLE	+1 480-618-5344 ext. 79642	ABM025	Delivery by Thanksgiving | The Fell for You Bouquet by Arabella Bouquets	1	0	1	Expedited	Fran Streck	15 DRURY LN			HIGHLAND FALLS	NEW YORK	10928-4308	US		Dear Mom, Granny, Grandma, ”Ganny”, and Fran, Happy Thanksgiving and wish we could be together for the holidays.Hopefully 2020 will end with a safe vaccine and the promise of a better year ahead.Enjoy your dinner, safely! Love, your family	false		
112-4110805-1033007	53249409123218	2020-11-21T17:11:06+00:00	2020-11-21T09:11:06-08:00	2020-11-21T17:40:05+00:00	2020-11-25T07:59:59+00:00	-4	7bwb29380y1vkwc@marketplace.amazon.com	Linda V Marino	+1 929-436-4790 ext. 57980	ABM010	Delivery by Tuesday | The Everlasting Fling Bouquet by Arabella Bouquets with a Free Designer Glass Vase	1	0	1	Expedited	C Marino	4950 BRENMAN PARK DR APT 409			ALEXANDRIA	VA	22304-8210	US		Happy Thanksgiving! I love you, From Mom	false		
113-0260455-9773829	44037431382714	2020-11-21T17:11:16+00:00	2020-11-21T09:11:16-08:00	2020-11-21T17:40:44+00:00	2020-11-25T07:59:59+00:00	-4	97dythzvm26ykyb@marketplace.amazon.com	Blake E. Smith	+1 480-618-5344 ext. 89313	ABR0033	Delivery by Tuesday | Arabella Farm Direct Bouquet of 12 Fresh Cut Orange Roses with a Free Glass Vase	1	0	1	Expedited	Robert Wooten	3404 NW HAROLD CT			TOPEKA	KS	66618-1450	US		We wish we could be with you, but we do hope to see you soon.  Happy Thanksgiving! From Annette and Blake	false		
113-8164270-5153833	56112337838930	2020-11-21T17:13:06+00:00	2020-11-21T09:13:06-08:00	2020-11-21T17:42:32+00:00	2020-11-25T07:59:59+00:00	-4	97dythzvm26ykyb@marketplace.amazon.com	Blake E. Smith	+1 619-854-2705 ext. 64510	ABR0033	Delivery by Tuesday | Arabella Farm Direct Bouquet of 12 Fresh Cut Orange Roses with a Free Glass Vase	1	0	1	Expedited	Taylor Smith	1043 E NORTHVIEW AVE			PHOENIX	AZ	85020-5053	US		We can't wait to see you THREE, it will be so much fun.  Happy Thanksgiving! From Annette and Blake	false		
113-0985400-1692226	19708817434258	2020-11-21T17:20:41+00:00	2020-11-21T09:20:41-08:00	2020-11-21T17:49:50+00:00	2020-11-25T07:59:59+00:00	-4	t286d3k77vtss7n@marketplace.amazon.com	Nina Wolf	+1 602-671-6610 ext. 76114	ABM025	Delivery by Thanksgiving | The Fell for You Bouquet by Arabella Bouquets	1	0	1	Expedited	Derin Wolf	16356 118TH CT NE # 34-1			BOTHELL	WA	98011-9421	US		Happy Thanksgiving in your new home!  Sorry you don't get to go to Mimi and Grandpa's house. Love, Oma and Opa From Andreas & Nina Wolf	false		
114-3334392-8336201	51694960686922	2020-11-21T17:28:47+00:00	2020-11-21T09:28:47-08:00	2020-11-21T17:55:32+00:00	2020-11-25T07:59:59+00:00	-4	hbkpyj379ygk7z5@marketplace.amazon.com	Meg Flynn	314-5401-1918	ABM025	Delivery by Thanksgiving | The Fell for You Bouquet by Arabella Bouquets	1	0	1	Expedited	Linda Gamache	18406 W 114TH TER			OLATHE	KS	66061-9366	US		Happy Thanksgiving!! Sending love and gratitude to you. Enjoy your time together and special kisses to sweet baby Olivia on her first Turkey Day!! From Meg & John	false		
112-8054189-0385835	63400005692042	2020-11-21T17:29:10+00:00	2020-11-21T09:29:10-08:00	2020-11-21T17:57:58+00:00	2020-11-25T07:59:59+00:00	-4	1rfsmxnxk6k2zw9@marketplace.amazon.com	Raju Jacob Pulikkotil	+1 929-436-4790 ext. 88370	ABM031	Delivery by Thanksgiving | The Harvest Moon Bouquet by Arabella Bouquets	1	0	1	Expedited	Shetal and Stefan Schubert	420 E OHIO ST APT 31D			CHICAGO	IL	60611-4665	US		Praying for you both during this difficult time. Stay strong and you’ll both get through this! We love you both and are always here anytime! Hugs & kisses! Love, Raju & Sani From Raju & Sani	false		
113-5042378-4049012	14425491249706	2020-11-21T17:30:20+00:00	2020-11-21T09:30:20-08:00	2020-11-21T17:59:24+00:00	2020-11-25T07:59:59+00:00	-4	97dythzvm26ykyb@marketplace.amazon.com	Blake E. Smith	+1 619-854-2705 ext. 30483	ABR0033	Delivery by Tuesday | Arabella Farm Direct Bouquet of 12 Fresh Cut Orange Roses with a Free Glass Vase	1	0	1	Expedited	Erin and Renji Thobias	214 W ROOSEVELT ST UNIT 404C			PHOENIX	AZ	85003-1499	US		We are so excited to see the both of you, we can't wait!  It will be a very happy Thanksgiving! From Annette and Blake	false		
112-8799741-5891414	50908122162098	2020-11-21T17:42:55+00:00	2020-11-21T09:42:55-08:00	2020-11-21T18:09:37+00:00	2020-11-25T07:59:59+00:00	-4	pfn3vtqy3k25tfj@marketplace.amazon.com	Kelly Ommundsen	+1 602-671-6610 ext. 81586	ABM022	Delivery by Tuesday | Purple Extravagance Bouquet by Arabella Bouquets	1	0	1	Expedited	Peggy Hare	3284 THEODORE E			WIXOM	MI	48393-2084	US		In loving memory of Uncle Mike. Thank you for being such a supportive and generous partner to him. We will miss him dearly From Kelly & Thorodd	false		
111-5968572-4657051	33995280646386	2020-11-21T17:53:46+00:00	2020-11-21T09:53:46-08:00	2020-11-21T18:12:45+00:00	2020-11-25T07:59:59+00:00	-4	yj8x4z4fn4rzzb4@marketplace.amazon.com	Aneta Cummings	+1 415-851-9136 ext. 03172	ABM010	Delivery by Tuesday | The Everlasting Fling Bouquet by Arabella Bouquets with a Free Designer Glass Vase	1	0	1	Expedited	Chantal Whittaker	1526 KENNEDY AVE			SCHERERVILLE	IN	46375-1347	US		Congratulations on the arrival of the newest member of your family. Canaan's arrival  is sure to fill our lives with many sunny, bright, and colorful days! Love always, #Mommy/Nanna From Aneta Cummings	false		
112-0292027-1916200	64944905504802	2020-11-21T17:48:55+00:00	2020-11-21T09:48:55-08:00	2020-11-21T18:15:58+00:00	2020-11-25T07:59:59+00:00	-4	n9rp2h59f706n6c@marketplace.amazon.com	Astrid Ellis	+1 213-442-1463 ext. 14041	ABM031	Delivery by Thanksgiving | The Harvest Moon Bouquet by Arabella Bouquets	1	0	1	Expedited	Christine Leas	1549 DENNING RD			CLARYVILLE	NY	12725-5230	US			false		
113-2572173-7294613	63069792948434	2020-11-21T17:49:10+00:00	2020-11-21T09:49:10-08:00	2020-11-21T18:17:16+00:00	2020-11-25T07:59:59+00:00	-4	ngcvg0dwf5vk6qm@marketplace.amazon.com	AJ CASCIANI	+1 602-671-6610 ext. 34893	ABR0033	Delivery by Tuesday | Arabella Farm Direct Bouquet of 12 Fresh Cut Orange Roses with a Free Glass Vase	1	0	1	Expedited	Cookie	59 REQUA ST			ROCHESTER	NY	14621-2114	US		Love you guys Miss you guys  Forever family  Happy turkey day From AJ CASCIANI	false		
114-3766754-3527402	34502643497354	2020-11-21T17:53:43+00:00	2020-11-21T09:53:43-08:00	2020-11-21T18:19:25+00:00	2020-11-25T07:59:59+00:00	-4	hy6fpg2n2gq3bs1@marketplace.amazon.com	Deborah Johnson	+720-878-1994	ABM031	Delivery by Thanksgiving | The Harvest Moon Bouquet by Arabella Bouquets	1	0	1	Expedited	Hannah Sendel	2525 WEWATTA WAY APT 459			DENVER	CO	80216-3771	US		Dear Hannah, Happy Thanksgiving! Thanks for being a great counselee, an even better team member, and a fantastic friend, and I appreciate everything you do.  Hoping this brightens your WFH view, if only a couple of days. 😊Best, Deb	false		
112-6073578-9122655	24833655424242	2020-11-21T17:50:42+00:00	2020-11-21T09:50:42-08:00	2020-11-21T18:19:49+00:00	2020-11-25T07:59:59+00:00	-4	pfn3vtqy3k25tfj@marketplace.amazon.com	Kelly Ommundsen	+1 213-442-1463 ext. 16083	ABM0033	Delivery by Wednesday | Arabella Farm Direct Bouquet of Fresh Cut White Hydrangea with a Free Glass Vase	1	0	1	Expedited	Donald Payton	4269 STILL MEADOW LN			WEST BLOOMFIELD	MI	48323-2845	US		In loving memory of Uncle Mike. We will all miss him From Kelly & Thorodd	false		
114-6347072-3524242	66427383603362	2020-11-21T17:54:10+00:00	2020-11-21T09:54:10-08:00	2020-11-21T18:20:43+00:00	2020-11-25T07:59:59+00:00	-4	w13kldd3bscp246@marketplace.amazon.com	Janna Thornsby	+1 602-671-6610 ext. 28905	ABM025	Delivery by Thanksgiving | The Fell for You Bouquet by Arabella Bouquets	1	0	1	Expedited	Norman Thornsby	1508 EATON ST			BRUSH	CO	80723-2304	US		Happy Thanksgiving, Mom and Dad! I am so thankful for you!   Love you! From Janna Thornsby	false		
114-2699713-7613013	14824931324450	2020-11-21T17:53:43+00:00	2020-11-21T09:53:43-08:00	2020-11-21T18:22:25+00:00	2020-11-25T07:59:59+00:00	-4	hy6fpg2n2gq3bs1@marketplace.amazon.com	Deborah Johnson	+1 213-442-1463 ext. 07614	ABM023	Delivery by Wednesday | The Morning Sun Bouquet by Arabella Bouquets	1	0	1	Expedited	Olivia Harrington	3311 TOUCHSTONE ST			AUSTIN	TX	78723-6015	US		Dear Olivia, Happy Thanksgiving! Thanks for being a great counselee and friend - even when data days get dull, your positive optimism always brightens my day when I get to chat or talk with you.  I appreciate everything that you do. 😊 Best, Deb	false		
114-1885792-5364256	30240217648874	2020-11-21T17:57:35+00:00	2020-11-21T09:57:35-08:00	2020-11-21T18:25:01+00:00	2020-11-25T07:59:59+00:00	-4	hy6fpg2n2gq3bs1@marketplace.amazon.com	Deborah Johnson	+1 480-618-5344 ext. 43558	ABM029	Delivery by Wednesday | The Day Dream Bouquet by Arabella Bouquets	1	0	1	Expedited	Tanika Desai	1422 FORESTERRA LN			TUSTIN	CA	92780-5712	US		Dear Tanika, Happy Thanksgiving! Thank you being a great counselee, for always having a positive outlook, rolling with the punches, and taking on new challenges this past year. Keep going, onward and upwards! 😊 Best, Deb From Deborah Johnson	false		
114-5465191-9595408	00825957477794	2020-11-21T18:05:37+00:00	2020-11-21T10:05:37-08:00	2020-11-21T18:27:18+00:00	2020-11-25T07:59:59+00:00	-4	8qvrr265zpcvsdf@marketplace.amazon.com	Kay Hines	+1 415-851-9136 ext. 69800	ABR0033	Delivery by Tuesday | Arabella Farm Direct Bouquet of 12 Fresh Cut Orange Roses with a Free Glass Vase	1	0	1	Expedited	Gaby Lefer	55 E 87TH ST			NEW YORK	NY	10128-1043	US		Dear Gaby, Thank you so for writing the announcements in your beautiful handwriting, and being so unfailing in your friendship to Anne. From Kay Hines	false		
111-3691175-5991456	56473525532490	2020-11-21T18:04:20+00:00	2020-11-21T10:04:20-08:00	2020-11-21T18:28:34+00:00	2020-11-25T07:59:59+00:00	-4	c5p4lyzgr3s9xjh@marketplace.amazon.com	Faye Sessoms	+1 415-851-9136 ext. 80217	ABR0033	Delivery by Tuesday | Arabella Farm Direct Bouquet of 12 Fresh Cut Orange Roses with a Free Glass Vase	1	0	1	Expedited	Mrs. Kristina Gray	1535 GILLASPIE DR			BOULDER	CO	80305-7027	US		Dear Kristy, Bill, Lilly, and Robin, Happy 15th Anniversary to Kristy & Bill and Happy Thanksgiving to all the Gray family. From Faye and Larry	false		
114-4150366-0745033	25391334799850	2020-11-21T18:02:12+00:00	2020-11-21T10:02:12-08:00	2020-11-21T18:31:32+00:00	2020-11-25T07:59:59+00:00	-4	g9rbldh5g4zlx1s@marketplace.amazon.com	T. Green	+1 602-671-6610 ext. 05744	ABR0022	Delivery by Tuesday | Arabella Farm Direct Bouquet of 12 Fresh Cut Pink Roses with a Free Glass Vase	1	0	1	Expedited	MRS MARGO GALE	123 W CHESAPEAKE AVE			CRISFIELD	MD	21817-1430	US			false		
114-0971064-2817823	11789133076802	2020-11-21T18:04:10+00:00	2020-11-21T10:04:10-08:00	2020-11-21T18:31:39+00:00	2020-11-25T07:59:59+00:00	-4	qdzgb1mft8qvj5c@marketplace.amazon.com	Annamelia	+1 415-851-9136 ext. 21231	ABM025	Delivery by Thanksgiving | The Fell for You Bouquet by Arabella Bouquets	1	0	1	Expedited	Mrs. Helen C. James.	510 CHARLES ST			FLORENCE	SC	29506-3116	US		HAPPY THANKSGIVING MOM & DAD! I LOVE YOU! From Andrea	false		
111-1195882-0855430	38626816281674	2020-11-21T18:15:01+00:00	2020-11-21T10:15:01-08:00	2020-11-21T18:37:59+00:00	2020-11-25T07:59:59+00:00	-4	yqxkxjj60289762@marketplace.amazon.com	Louise Donovan	+1 602-671-6610 ext. 09055	ABR0066	Delivery by Wednesday | Arabella Bouquets 12 Stems of Fresh Cut White Roses in a Free Designer Glass Vase	1	0	1	Expedited	The Wicklow Family	1906 HARBOURSIDE DR UNIT 306			LONGBOAT KEY	FL	34228-4206	US		Dear Family, We wish we could be with you celebrating in your new home!  Have a very Happy. Thanksgiving!  Love, Grandma & Papop From Louise Donovan	false		
114-9809415-1456204	54850674531482	2020-11-21T18:16:44+00:00	2020-11-21T10:16:44-08:00	2020-11-21T18:42:23+00:00	2020-11-25T07:59:59+00:00	-4	n3rn9bn0zc9hvm4@marketplace.amazon.com	wendyarawson	+1 480-618-5344 ext. 50820	ABR0066	Delivery by Wednesday | Arabella Bouquets 12 Stems of Fresh Cut White Roses in a Free Designer Glass Vase	1	0	1	Standard	M & B Feller Bassano	382 S 33RD ST			ALLENTOWN	PA	18104-5953	US		Happy Birthday Dear Barbara,    Love,  Wendy and Simon From wendyarawson	false		
112-2043215-8634660	44018614560650	2020-11-21T18:19:47+00:00	2020-11-21T10:19:47-08:00	2020-11-21T18:46:31+00:00	2020-11-25T07:59:59+00:00	-4	dzxblyfgkdc35yj@marketplace.amazon.com	EC Hexum	+1 929-436-4790 ext. 30310	ABR0033	Delivery by Tuesday | Arabella Farm Direct Bouquet of 12 Fresh Cut Orange Roses with a Free Glass Vase	1	0	1	Expedited	Mychal Hexum	923 N UNION AVE			FERGUS FALLS	MN	56537-1212	US		Happy Thanksgiving! M, K, G & EK! Even though we are apart you are in our hearts and WE LOVE YOU SO MUCH and we are so THANKFUL for you 4! Love you & Miss you LOTS! From Grammie & Papa	false		
113-2806654-2229867	04077385649674	2020-11-21T18:20:14+00:00	2020-11-21T10:20:14-08:00	2020-11-21T18:48:49+00:00	2020-11-25T07:59:59+00:00	-4	gwm1mtdkwktsml0@marketplace.amazon.com	Michele Tock	+1 929-436-4790 ext. 67988	ABM022	Delivery by Tuesday | Purple Extravagance Bouquet by Arabella Bouquets	1	0	1	Expedited	Fran Tock	1221 Will-o-wood Dr			Hubbard	Ohio	44425	US		We love you! So sorry for your loss. From Ken, Shel, Meg & Ian Michael	false		
112-6452567-3518621	10684007065658	2020-11-21T18:22:11+00:00	2020-11-21T10:22:11-08:00	2020-11-21T18:51:00+00:00	2020-11-25T07:59:59+00:00	-4	1j515f6vf4m07zj@marketplace.amazon.com	Cynthia P Giles	+1 619-854-2705 ext. 80623	ABM010	Delivery by Tuesday | The Everlasting Fling Bouquet by Arabella Bouquets with a Free Designer Glass Vase	1	0	1	Expedited	Pam Wells & Nat Teply	44 CISAR RD			WILLINGTON	CT	06279-1912	US		Mom and Nat Happy Thanksgiving! We love you bunches! From Hal and Cindy	true		
112-2083243-9764226	46813031337370	2020-11-21T18:26:58+00:00	2020-11-21T10:26:58-08:00	2020-11-21T18:51:47+00:00	2020-11-25T07:59:59+00:00	-4	dzxblyfgkdc35yj@marketplace.amazon.com	EC Hexum	+1 619-854-2705 ext. 82343	ABR0033	Delivery by Tuesday | Arabella Farm Direct Bouquet of 12 Fresh Cut Orange Roses with a Free Glass Vase	1	0	1	Expedited	Linnea Offerman	15 KLEMISH CIR			CENTER POINT	IA	52213-9776	US		Happy Thanksgiving Linnea, Travis, TJ & Millie! Even though we are apart you are in our hearts and WE LOVE YOU SO MUCH and we are so THANKFUL for you 4! From Grammie & Papa	false		
113-5071345-3354649	16059780434330	2020-11-21T18:25:00+00:00	2020-11-21T10:25:00-08:00	2020-11-21T18:53:41+00:00	2020-11-25T07:59:59+00:00	-4	6b68qdkz57ss6c5@marketplace.amazon.com	Cheryl L. Kent	+1 480-618-5344 ext. 96755	ABM031	Delivery by Thanksgiving | The Harvest Moon Bouquet by Arabella Bouquets	1	0	1	Expedited	Christina Murawski	6234 GUADALUPE AVE			LAS VEGAS	NV	89108-3353	US			false		
111-8696669-5060226	38525101787954	2020-11-21T18:27:37+00:00	2020-11-21T10:27:37-08:00	2020-11-21T18:57:57+00:00	2020-11-25T07:59:59+00:00	-4	6bckrv6kb3w43f4@marketplace.amazon.com	Clyde Peters	+1 602-671-6610 ext. 31156	ABR0022	Delivery by Tuesday | Arabella Farm Direct Bouquet of 12 Fresh Cut Pink Roses with a Free Glass Vase	1	0	1	Expedited	B Rathburn	203 E JONES AVE STE 104			SAN ANTONIO	TX	78215-1355	US		Enjoy your gift! From Clyde Peters	false		
112-8789588-9179451	13561760910506	2020-11-21T18:36:13+00:00	2020-11-21T10:36:13-08:00	2020-11-21T18:58:31+00:00	2020-11-25T07:59:59+00:00	-4	4xfbxbh61ycs3kg@marketplace.amazon.com	JoAnn	+1 480-618-5344 ext. 12642	ABM025	Delivery by Thanksgiving | The Fell for You Bouquet by Arabella Bouquets	1	0	1	Expedited	Sherry Krushe	12520 W SYLVAN DR SW			PILLAGER	MN	56473-2347	US		Dad & Mom, Happy Thanksgiving!🦃 We wish we could celebrate it more traditionally. 2020 has shown us to be more thankful! We are so thankful to have you both in our lives! We love you both with all our hearts!❤️ From JoAnn & Jeremy	false		
113-4140087-7127409	20067644432930	2020-11-21T18:30:57+00:00	2020-11-21T10:30:57-08:00	2020-11-21T19:01:10+00:00	2020-11-25T07:59:59+00:00	-4	6b68qdkz57ss6c5@marketplace.amazon.com	Cheryl L. Kent	+1 480-618-5344 ext. 96133	ABM020	Delivery by Tuesday | The Sunset Bouquet by Arabella Bouquets	1	0	1	Expedited	Samantha Moll	228 W CHICAGO AVE			WESTMONT	IL	60559-1406	US			false		
111-5312075-8205848	21070147162970	2020-11-21T18:38:52+00:00	2020-11-21T10:38:52-08:00	2020-11-21T19:03:24+00:00	2020-11-25T07:59:59+00:00	-4	46600j7sgpc70ws@marketplace.amazon.com	shoppingforstuff	+1 480-618-5344 ext. 67706	ABM010	Delivery by Tuesday | The Everlasting Fling Bouquet by Arabella Bouquets with a Free Designer Glass Vase	1	0	1	Expedited	Grandma and Pop-Pop Lemm	50 DORAL LOOP			OAKLAND	TN	38060-2501	US		Happy Thanksgiving! Hope these brighten your day! Love you so much  John, Sue, Tate and Jace From The VA Lemms	false		
113-6166312-2273018	17053742316402	2020-11-21T18:39:15+00:00	2020-11-21T10:39:15-08:00	2020-11-21T19:09:51+00:00	2020-11-25T07:59:59+00:00	-4	493m2n2rzyc3m47@marketplace.amazon.com	Gregory A. Wait	+1 929-436-4790 ext. 89097	ABM010	Delivery by Tuesday | The Everlasting Fling Bouquet by Arabella Bouquets with a Free Designer Glass Vase	1	0	1	Expedited	Tim Wait and Laura Rapp	1403 MAIN ST			BETHLEHEM	PA	18018-2344	US			false		
112-8151770-9917848	11753868906690	2020-11-21T18:44:15+00:00	2020-11-21T10:44:15-08:00	2020-11-21T19:13:37+00:00	2020-11-25T07:59:59+00:00	-4	kl6jxfv50ndtw5x@marketplace.amazon.com	kim crouch	+1 415-851-9136 ext. 74007	ABM022	Delivery by Tuesday | Purple Extravagance Bouquet by Arabella Bouquets	1	0	1	Expedited	Christie Middleton	225 W LAKE DR			HICKORY CREEK	TX	75065-3082	US		Enjoy your gift! From kim crouch	false		
112-4986805-1000210	69363570161890	2020-11-21T18:50:43+00:00	2020-11-21T10:50:43-08:00	2020-11-21T19:14:16+00:00	2020-11-25T07:59:59+00:00	-4	k5ny0lmcgbzf0pz@marketplace.amazon.com	megan hall	+1 602-671-6610 ext. 78395	ABR0033	Delivery by Tuesday | Arabella Farm Direct Bouquet of 12 Fresh Cut Orange Roses with a Free Glass Vase	1	0	1	Expedited	Robin Bianchini	1429 MONTANA PL			ROHNERT PARK	CA	94928-8102	US		Robin.... We are grateful and Thankful for all you did for us in this next chapter of our lives. Happy Thanksgiving to you and your family.✨ With love, Megan and John From megan hall	false		
114-9594382-5607442	36359660600042	2020-11-21T18:58:42+00:00	2020-11-21T10:58:42-08:00	2020-11-21T19:24:11+00:00	2020-11-25T07:59:59+00:00	-4	j9337p4s6p67m0q@marketplace.amazon.com	karen billyeald	+1 213-442-1463 ext. 67604	ABM031	Delivery by Thanksgiving | The Harvest Moon Bouquet by Arabella Bouquets	1	0	1	Expedited	Gemma Manino	1700 CONRADS FERRY DR			POINT OF ROCKS	MD	21777-2034	US		To Gemma, hope these cheer you up a little and let you know that we're thinking of you, love from Karen and Anya xx From karen billyeald	false		
111-9819219-8714615	41458692863130	2020-11-21T18:57:12+00:00	2020-11-21T10:57:12-08:00	2020-11-21T19:25:04+00:00	2020-11-25T07:59:59+00:00	-4	wtn7y6tkvxkzn3r@marketplace.amazon.com	Melody Robinson	+1 480-618-5344 ext. 08612	ABM031	Delivery by Thanksgiving | The Harvest Moon Bouquet by Arabella Bouquets	1	0	1	Expedited	Robyn Kelton	820 MANCHESTER CRSE			GENEVA	IL	60134-3407	US		May these flowers bring you some of the joy and happiness you give to others 🙂💕 From Melody and Diann G.	true		
114-3829119-1830624	54434792717138	2020-11-21T19:18:55+00:00	2020-11-21T11:18:55-08:00	2020-11-21T19:45:51+00:00	2020-11-25T07:59:59+00:00	-4	hy6fpg2n2gq3bs1@marketplace.amazon.com	Deborah Johnson	+1 213-442-1463 ext. 13549	ABM025	Delivery by Thanksgiving | The Fell for You Bouquet by Arabella Bouquets	1	0	1	Expedited	Alexandra Butt	20758 WOOD QUAY DR			DULLES	VA	20166-8995	US		Dear Alex, Happy Thanksgiving! Thank you for being a great counselee and a great friend that is always optimistic yet realistic - my day is brighter after our calls, and I appreciate all that you do.  Best, Deb From Deborah Johnson	false		
111-1796265-6712214	13457091101706	2020-11-21T19:27:09+00:00	2020-11-21T11:27:09-08:00	2020-11-21T19:55:48+00:00	2020-11-25T07:59:59+00:00	-4	n830c9gmrjk1790@marketplace.amazon.com	ann petrie	+1 619-854-2705 ext. 64976	ABM010	Delivery by Tuesday | The Everlasting Fling Bouquet by Arabella Bouquets with a Free Designer Glass Vase	1	0	1	Standard	Faye and Angel  Merino	863 N 5TH ST			PHILADELPHIA	PA	19123-2118	US			false		
114-7130980-1929030	48063355591346	2020-11-21T19:27:46+00:00	2020-11-21T11:27:46-08:00	2020-11-21T19:56:20+00:00	2020-11-25T07:59:59+00:00	-4	7xc9ykgyw51vjyj@marketplace.amazon.com	Michael Bower	+1 602-671-6610 ext. 62058	ABM010	Delivery by Tuesday | The Everlasting Fling Bouquet by Arabella Bouquets with a Free Designer Glass Vase	1	0	1	Expedited	Gail Hustedde and Dane Spencer	1410 NW KEARNEY ST APT 1027			PORTLAND	OR	97209-2773	US		Happy Anniversary (25th?) Enjoy the flowers From Michael and Ruth Bower	false		
111-1802504-2921035	05359772287002	2020-11-21T19:33:14+00:00	2020-11-21T11:33:14-08:00	2020-11-21T20:02:56+00:00	2020-11-25T07:59:59+00:00	-4	ct2my0hwt9xzb3n@marketplace.amazon.com	Greg Landry	+1 619-854-2705 ext. 70120	ABM0044	Delivery by Wednesday | Arabella Farm Direct Bouquet of Fresh Cut Blue Hydrangea with a Free Glass Vase	1	0	1	Expedited	Gerry Landry	AMBER TERRACE 8585 SUMMA AVE	APT 105		BATON ROUGE	LA	70809-0611	US			false		
113-7328732-7133822	34129994839402	2020-11-21T19:37:12+00:00	2020-11-21T11:37:12-08:00	2020-11-21T20:03:18+00:00	2020-11-25T07:59:59+00:00	-4	5k1l0ch7y8sh1n3@marketplace.amazon.com	Tina Winkler	+1 213-442-1463 ext. 21823	ABR0055	Delivery by Tuesday | Arabella Farm Direct Bouquet of 12 Stems of Fresh Cut Hot Pink Roses in a Free Designer Glass Vase	1	0	1	Expedited	Sallie Ricken	4204 EMORY RD			EL PASO	TX	79922-1236	US		Enjoy your gift! From Tina Winkler	false		
111-8175313-0323424	19297168272610	2020-11-21T19:54:10+00:00	2020-11-21T11:54:10-08:00	2020-11-21T20:07:57+00:00	2020-11-25T07:59:59+00:00	-4	nfgnxv5vl9q5ylt@marketplace.amazon.com	frank evans	+1 929-436-4790 ext. 33199	ABR0022	Delivery by Tuesday | Arabella Farm Direct Bouquet of 12 Fresh Cut Pink Roses with a Free Glass Vase	1	0	1	Expedited	Pam Yaremko \ Well North Fulton Hospital	INPATIENT REHABILITATION Unit	3000 HOSPITAL BLVD RM 163		ROSWELL	GA	30076-4915	US		Hi Pam, Thinking of you ! Take care... Love,   Frank and Kathy Evans	false		
111-4153909-8180267	66557718246970	2020-11-21T19:41:00+00:00	2020-11-21T11:41:00-08:00	2020-11-21T20:10:01+00:00	2020-11-25T07:59:59+00:00	-4	kzbhk2rcv6tss6y@marketplace.amazon.com	Deborah McCoy	+1 602-671-6610 ext. 30390	ABM031	Delivery by Thanksgiving | The Harvest Moon Bouquet by Arabella Bouquets	1	0	1	Expedited	Sarah Staton	1600 PENNSYLVANIA AVE SE APT 502			WASHINGTON	DC	20003-3247	US		Thinking about you! From Rebecca and Deborah	false		
112-7632865-2113008	52856543478850	2020-11-21T19:48:02+00:00	2020-11-21T11:48:02-08:00	2020-11-21T20:18:15+00:00	2020-11-25T07:59:59+00:00	-4	trkyg34y6by2m4z@marketplace.amazon.com	Michelle Martyr	+1 213-442-1463 ext. 20349	ABR0022	Delivery by Tuesday | Arabella Farm Direct Bouquet of 12 Fresh Cut Pink Roses with a Free Glass Vase	1	0	1	Expedited	Arlene Worrell	19925 N DENARO DR			GLENDALE	AZ	85308-5648	US			false		
114-1055708-6598647	11071190714226	2020-11-21T20:02:33+00:00	2020-11-21T12:02:33-08:00	2020-11-21T20:25:06+00:00	2020-11-25T07:59:59+00:00	-4	qlk22l84fv5xz7n@marketplace.amazon.com	Cate McNamee	+1 213-442-1463 ext. 48184	ABM0033	Delivery by Wednesday | Arabella Farm Direct Bouquet of Fresh Cut White Hydrangea with a Free Glass Vase	1	0	1	Expedited	Jennifer Siani	2145 SE 135TH AVE			PORTLAND	OR	97233-2000	US		Sending all my love. Digo was a beautiful and amazing dog. You gave him such a great life and treated him like the prince he was. Giving you lots of hugs and here anytime you want to talk. From Cate McNamee	false		
112-2003876-5358613	22504160851738	2020-11-21T20:01:34+00:00	2020-11-21T12:01:34-08:00	2020-11-21T20:29:32+00:00	2020-11-25T07:59:59+00:00	-4	6s2b91nc9pc1v1t@marketplace.amazon.com	William G Oates Jr	+1 619-854-2705 ext. 59875	ABM022	Delivery by Tuesday | Purple Extravagance Bouquet by Arabella Bouquets	1	0	1	Expedited	Pastor Donald Price	35 DETWILER AVE			MOUNT JOY	PA	17552-1412	US			false		
114-6872436-5964227	48347607081978	2020-11-21T20:14:09+00:00	2020-11-21T12:14:09-08:00	2020-11-21T20:29:47+00:00	2020-11-25T07:59:59+00:00	-4	7wx9p6wf2tlwvyx@marketplace.amazon.com	CAROL YAGER	+1 929-436-4790 ext. 25154	ABM022	Delivery by Tuesday | Purple Extravagance Bouquet by Arabella Bouquets	1	0	1	Expedited	Janice Trasatti	160 DANIEL WEBSTER HWY APT 225			NASHUA	NH	03060-5246	US			false		
112-1847841-4540268	63692016039722	2020-11-21T20:05:18+00:00	2020-11-21T12:05:18-08:00	2020-11-21T20:32:28+00:00	2020-11-25T07:59:59+00:00	-4	07ssyrby0jsgzqp@marketplace.amazon.com	Tom Knight	+1 213-442-1463 ext. 40716	ABM025	Delivery by Thanksgiving | The Fell for You Bouquet by Arabella Bouquets	1	0	1	Expedited	Kimberly Anderson	1712 41ST ST			SACRAMENTO	CA	95819-4047	US		Mike, Kimberly, Jack and Ira,  Happy Thanksgiving from Seattle  Love and Hugs, Grandpa and Grandma From Tom Knight	false		
114-5563718-1990634	32263221387242	2020-11-21T20:05:54+00:00	2020-11-21T12:05:54-08:00	2020-11-21T20:35:41+00:00	2020-11-25T07:59:59+00:00	-4	3jbxjs9rbqs7dxg@marketplace.amazon.com	Kimberly Kuchman	+1 480-618-5344 ext. 33210	ABM031	Delivery by Thanksgiving | The Harvest Moon Bouquet by Arabella Bouquets	1	0	1	Expedited	Arleen Kuchman	22 MILLER DR			HOPEWELL JUNCTION	NY	12533-5139	US			false		
112-3986271-5361007	43448301415042	2020-11-21T14:54:43+00:00	2020-11-21T06:54:43-08:00	2020-11-21T20:42:22+00:00	2020-11-25T07:59:59+00:00	-4	0g4y1gjjhwb2zdw@marketplace.amazon.com	thomas	+1 213-442-1463 ext. 01186	ABR0022	Delivery by Tuesday | Arabella Farm Direct Bouquet of 12 Fresh Cut Pink Roses with a Free Glass Vase	1	0	1	Expedited	thomas	2800 Ellington court			avon	ohio	44011	US		Thanks for making the Holidays so nice for all of us!  You are the best! Love, Tom From thomas	false		
114-1384398-8513007	24405331102258	2020-11-21T20:23:53+00:00	2020-11-21T12:23:53-08:00	2020-11-21T20:51:49+00:00	2020-11-25T07:59:59+00:00	-4	69cf24rfz2227qn@marketplace.amazon.com	Lucy Mathiak	+1 213-442-1463 ext. 92253	ABR004	Delivery by Wednesday | Arabella Farm Direct Bouquet of 12 Fresh Cut Yellow Roses with a Free Glass Vase	1	0	1	Expedited	Elaine Kuenzel	1707 EDEN DR			WEST BEND	WI	53095-5515	US		Sending this with love on Thanksgiving Day and throughout the year. From Lucy Mathiak	false		
111-1183782-5673804	65979647991290	2020-11-21T20:24:07+00:00	2020-11-21T12:24:07-08:00	2020-11-21T20:53:23+00:00	2020-11-25T07:59:59+00:00	-4	zst9n52txd8np9c@marketplace.amazon.com	Ivy Anastasiadis	+1 929-436-4790 ext. 45569	ABM010	Delivery by Tuesday | The Everlasting Fling Bouquet by Arabella Bouquets with a Free Designer Glass Vase	1	0	1	Expedited	Cher Ware	229 GREEN FERN CIR			BOONSBORO	MD	21713-2066	US			false		
114-7277623-8192260	27939022677706	2020-11-21T20:29:21+00:00	2020-11-21T12:29:21-08:00	2020-11-21T20:57:28+00:00	2020-11-25T07:59:59+00:00	-4	69cf24rfz2227qn@marketplace.amazon.com	Lucy Mathiak	+1 480-618-5344 ext. 81654	ABR004	Delivery by Wednesday | Arabella Farm Direct Bouquet of 12 Fresh Cut Yellow Roses with a Free Glass Vase	1	0	1	Expedited	Jean and John Walker	409 LEXINGTON CT			WATERTOWN	WI	53098-1134	US		Missing you and sending love on Thanksgiving. From Lucy and Pete	false		
113-6378102-2042633	59586708017418	2020-11-21T20:56:01+00:00	2020-11-21T12:56:01-08:00	2020-11-21T20:59:10+00:00	2020-11-25T07:59:59+00:00	-4	ntp1mnz2qx9hn4m@marketplace.amazon.com	Dana Haven Crisp	+1 619-854-2705 ext. 33331	ABM010	Delivery by Tuesday | The Everlasting Fling Bouquet by Arabella Bouquets with a Free Designer Glass Vase	1	0	1	Expedited	Haven McElhanon	700 BEVERLY HILLS RD APT 818			HATTIESBURG	MS	39401-4554	US		We love & miss you! Sorry we couldn’t be with you Thanksgiving! From Mom & Jason	false		
112-8780323-3180234	60247581677074	2020-11-21T20:31:00+00:00	2020-11-21T12:31:00-08:00	2020-11-21T21:00:42+00:00	2020-11-25T07:59:59+00:00	-4	xqy8zd96gxsnxvj@marketplace.amazon.com	Jenny Bitchatcho	+1 619-854-2705 ext. 82887	ABM022	Delivery by Tuesday | Purple Extravagance Bouquet by Arabella Bouquets	1	0	1	Expedited	Gila Bitchatcho	13043 HAMPTON LAKES CIR			BOYNTON BEACH	FL	33436-8206	US			false		
