order-id	order-item-id	purchase-date	payments-date	reporting-date	promise-date	days-past-promise	buyer-email	buyer-name	buyer-phone-number	sku	product-name	quantity-purchased	quantity-shipped	quantity-to-ship	ship-service-level	recipient-name	ship-address-1	ship-address-2	ship-address-3	ship-city	ship-state	ship-postal-code	ship-country	gift-wrap-type	gift-message-text	is-business-order	purchase-order-number	price-designation
111-4312574-1657047	22678138939194	2020-11-25T13:42:43+00:00	2020-11-25T05:42:43-08:00	2020-11-25T15:10:10+00:00	2020-12-01T07:59:59+00:00	-4	g4w6jrdvfpgjltj@marketplace.amazon.com	Jennifer Krukow	+1 480-618-5344 ext. 71594	ABR0022	Delivery by Friday | Arabella Farm Direct Bouquet of 12 Fresh Cut Pink Roses with a Free Glass Vase	1	0	1	Expedited	Amanda Reno	399 E 8TH ST APT 3C			NEW YORK	NY	10009-5454	US		Just because we miss you! Love, Jen and Mike From Jennifer Krukow	false		
111-0124335-3312267	37006898322498	2020-11-25T20:27:16+00:00	2020-11-25T12:27:16-08:00	2020-11-25T21:11:57+00:00	2020-12-01T07:59:59+00:00	-4	0djp8t613flpcks@marketplace.amazon.com	Kimberly Lee	+1 480-618-5344 ext. 81247	ABR0022	Delivery by Friday | Arabella Farm Direct Bouquet of 12 Fresh Cut Pink Roses with a Free Glass Vase	1	0	1	Expedited	Gina Lee	877 S DEPEW ST			LAKEWOOD	CO	80226-4823	US		Happy 33rd Birthday, Gina with Big HUG!! Love mom From Kimberly Lee	false		
112-1778863-9681009	22491832013978	2020-11-25T18:39:40+00:00	2020-11-25T10:39:40-08:00	2020-11-25T21:28:21+00:00	2020-12-01T07:59:59+00:00	-4	4nvvnsyx7hpx9vs@marketplace.amazon.com	Andrea Chappetta	+1 929-436-4790 ext. 36436	ABR0022	Delivery by Friday | Arabella Farm Direct Bouquet of 12 Fresh Cut Pink Roses with a Free Glass Vase	1	0	1	Expedited	Wendy Chaite	30 WASHINGTON AVE			GLEN HEAD	NY	11545-1543	US			false		
113-6127075-6709801	37993048771962	2020-11-25T21:17:51+00:00	2020-11-25T13:17:51-08:00	2020-11-25T21:57:23+00:00	2020-12-01T07:59:59+00:00	-4	80qlw1qfz4tdbh2@marketplace.amazon.com	Tina Allen	+1 619-854-2705 ext. 34283	ABR0022	Delivery by Friday | Arabella Farm Direct Bouquet of 12 Fresh Cut Pink Roses with a Free Glass Vase	1	0	1	Expedited	Summer Wells	2403 LEGACY OAKS PL			ASHEVILLE	NC	28803-4590	US		Happy birthday, love u From Dad	true		Business Price
112-4294791-1797019	43284614422810	2020-11-25T20:00:00+00:00	2020-11-25T12:00:00-08:00	2020-11-25T22:06:24+00:00	2020-12-01T07:59:59+00:00	-4	c3sjk7z7qsn6jyk@marketplace.amazon.com	CFBlade	+1 619-854-2705 ext. 01560	ABR0022	Delivery by Friday | Arabella Farm Direct Bouquet of 12 Fresh Cut Pink Roses with a Free Glass Vase	1	0	1	Expedited	HonorHealth Scottsdale Shea	9003 E SHEA BLVD			SCOTTSDALE	AZ	85260-6709	US		Thinking of you, Alyssa! From the staff at CrossFit Blade. From CFBlade	false		
112-6348430-4039443	42618266820378	2020-11-25T20:47:42+00:00	2020-11-25T12:47:42-08:00	2020-11-25T22:12:48+00:00	2020-12-01T07:59:59+00:00	-4	91znryfq6hklrlz@marketplace.amazon.com	Allison Geer	+1 415-851-9136 ext. 81492	ABR0033	Delivery by Friday | Arabella Farm Direct Bouquet of 12 Fresh Cut Orange Roses with a Free Glass Vase	1	0	1	Expedited	Deborah Atwill	23 TRELLIS DR			WEST WARWICK	RI	02893-2164	US			false		
113-8680456-9008206	48343480992818	2020-11-25T21:45:43+00:00	2020-11-25T13:45:43-08:00	2020-11-25T22:36:28+00:00	2020-12-01T07:59:59+00:00	-4	mhvfqt2ybb7m343@marketplace.amazon.com	JEFFREY HALL	+1 619-854-2705 ext. 96515	ABR0022	Delivery by Friday | Arabella Farm Direct Bouquet of 12 Fresh Cut Pink Roses with a Free Glass Vase	1	0	1	Expedited	Jill Hall	245 W SIERRA MADRE BLVD			SIERRA MADRE	CA	91024-2355	US		I love you, Mom!  Happy Birthday! From JEFFREY HALL	false		
111-0927463-0535429	18132942742010	2020-11-25T22:07:44+00:00	2020-11-25T14:07:44-08:00	2020-11-25T22:37:21+00:00	2020-12-01T07:59:59+00:00	-4	xhfbrw8x4z7s5qj@marketplace.amazon.com	Donna Jordan	+1 619-854-2705 ext. 03052	ABR0066	Delivery by Friday | Arabella Bouquets 12 Stems of Fresh Cut White Roses in a Free Designer Glass Vase	1	0	1	Expedited	Rose Atkinson	211 REID ST E			WILSON	NC	27893-5427	US			false		
112-7669196-3605869	13712183437978	2020-11-25T17:12:37+00:00	2020-11-25T09:12:37-08:00	2020-11-25T22:48:24+00:00	2020-12-01T07:59:59+00:00	-4	x7wwg1t5836hb47@marketplace.amazon.com	DOUGLAS LOWE	+1 210-728-4548 ext. 97458	ABR0022	Delivery by Friday | Arabella Farm Direct Bouquet of 12 Fresh Cut Pink Roses with a Free Glass Vase	1	0	1	Expedited	Douglas R. Lowe	3008 E THUNDERHILL PL			PHOENIX	AZ	85048-8774	US			false		
112-3833547-7537867	35334109478914	2020-11-25T22:21:07+00:00	2020-11-25T14:21:07-08:00	2020-11-25T22:50:43+00:00	2020-12-01T07:59:59+00:00	-4	kcdx8v29jb4j878@marketplace.amazon.com	Tony Scopelliti	+1 763-225-9463 ext. 88668	ABR0066	Delivery by Friday | Arabella Bouquets 12 Stems of Fresh Cut White Roses in a Free Designer Glass Vase	1	0	1	Standard	Ludivina Salinas	1682 E 55TH ST			LONG BEACH	CA	90805-5555	US		Merry Christmas Amore. From Anthony Scopelliti	false		
111-9830344-2268223	68264794970154	2020-11-25T21:51:48+00:00	2020-11-25T13:51:48-08:00	2020-11-25T22:52:37+00:00	2020-12-01T07:59:59+00:00	-4	4pnsfnhkcv9dd4h@marketplace.amazon.com	carolyn pillow	+1 619-854-2705 ext. 47114	ABB001	Delivery by Monday | Arabella Farm Direct Fresh Cut White Hydrangea	1	0	1	Expedited	William Pillow	2033 Stonybrook Cove			tupelo	ms	38804	US			false		
114-6997399-1859427	06379422612554	2020-11-25T22:12:46+00:00	2020-11-25T14:12:46-08:00	2020-11-25T23:10:11+00:00	2020-12-01T07:59:59+00:00	-4	z9r1fnvlxszk9cf@marketplace.amazon.com	Vivek Bhatia	+1 415-851-9136 ext. 46996	ABM022	Delivery by Monday | Purple Extravagance Bouquet by Arabella Bouquets	1	0	1	Expedited	Amit Bhatia	5927 AMBASSADOR WAY			ALEXANDRIA	VA	22310-1746	US		Happy Anniversary! Wishing you the best years ahead. Lots of love and hugs. ❤️ From Vivek Bhatia	false		
111-4571331-0588255	08253834642618	2020-11-25T22:40:31+00:00	2020-11-25T14:40:31-08:00	2020-11-25T23:10:59+00:00	2020-12-01T07:59:59+00:00	-4	m80g49ksfk57r0l@marketplace.amazon.com	Cynthia R. Greene	+1 213-442-1463 ext. 39965	ABR001	Delivery by Friday | Arabella Bouquets 12 Stems of Fresh Cut Red Roses in a Free Designer Glass Vase	1	0	1	Expedited	Cynthia R. Greene	3310 N LEISURE WORLD BLVD APT 407			SILVER SPRING	MD	20906-5662	US			false		
112-7271916-4285054	46567152671762	2020-11-25T17:40:28+00:00	2020-11-25T09:40:28-08:00	2020-11-25T23:14:30+00:00	2020-12-01T07:59:59+00:00	-4	r0q8hphjn1tx8c6@marketplace.amazon.com	Dayle	781 777 3230 gift	ABR001	Delivery by Friday | Arabella Bouquets 12 Stems of Fresh Cut Red Roses in a Free Designer Glass Vase	1	0	1	Standard	Bright View senior Living	C/o Evelyn Harman	50 Endicott streer		Danvers	Ma	01923	US		Hi Bright, Enjoy your gift! From Dayle	false		
114-3189009-4389825	32897729685138	2020-11-25T18:06:30+00:00	2020-11-25T10:06:30-08:00	2020-11-25T23:30:11+00:00	2020-12-01T07:59:59+00:00	-4	cb82xbvrgsywkby@marketplace.amazon.com	Tammee Goldenberg	+1 602-671-6610 ext. 89296	ABR004	Delivery by Friday | Arabella Farm Direct Bouquet of 12 Fresh Cut Yellow Roses with a Free Glass Vase	1	0	1	Expedited	Pamela Russell	7001 29TH PL			BERWYN	IL	60402-2941	US		Happy birthday! I love and miss you so much!  Love Tammee From Tammee Goldenberg	false		
112-8061167-3192251	58544796034498	2020-11-25T22:10:38+00:00	2020-11-25T14:10:38-08:00	2020-11-25T23:34:23+00:00	2020-12-01T07:59:59+00:00	-4	wrtmt05z0z07qz1@marketplace.amazon.com	Donna Powell	+1 480-618-5344 ext. 13353	ABM026	Delivery by Monday | The Amour Bouquet by Arabella Bouquets	1	0	1	Expedited	Jackie Booker	2013 MUIRFIELD VILLAGE WAY			RALEIGH	NC	27604-5892	US		Enjoy your gift! From Donna & Daina	false		
114-6584793-1730636	48814887538242	2020-11-25T22:47:25+00:00	2020-11-25T14:47:25-08:00	2020-11-25T23:34:39+00:00	2020-12-01T07:59:59+00:00	-4	hgx3gpc0hjgqg0q@marketplace.amazon.com	Percy Ramsey	+1 415-851-9136 ext. 76016	ABR0022	Delivery by Friday | Arabella Farm Direct Bouquet of 12 Fresh Cut Pink Roses with a Free Glass Vase	1	0	1	Expedited	Teilor Duncan	28723 W KALONG CIR			SOUTHFIELD	MI	48034-5664	US			false		
113-5150336-7362622	06275830851834	2020-11-25T19:17:32+00:00	2020-11-25T11:17:32-08:00	2020-11-25T23:34:43+00:00	2020-12-01T07:59:59+00:00	-4	trnwq3wdwd6vyx2@marketplace.amazon.com	Maria	+1 619-854-2705 ext. 13075	ABM010	Delivery by Monday | The Everlasting Fling Bouquet by Arabella Bouquets with a Free Designer Glass Vase	1	0	1	Standard	Victoria Chandler	13500 BILLIE RD			VANCLEAVE	MS	39565-6674	US		Happy Belated Birthday - hope you enjoyed a great week!! From Hugs, Maria & Danielle	false		
111-5734281-9881816	65610583182186	2020-11-25T23:10:29+00:00	2020-11-25T15:10:29-08:00	2020-11-25T23:37:47+00:00	2020-12-01T07:59:59+00:00	-4	vtgdp95c62hz96r@marketplace.amazon.com	Krysta	+1 346-307-9643 ext. 19112	ABM022	Delivery by Monday | Purple Extravagance Bouquet by Arabella Bouquets	1	0	1	Expedited	Sara Green	2502 RYAN CT			DIAMOND SPRINGS	CA	95619-9502	US		Sara, Get well soon! We love you and hope you heal quickly. From Becky, Krysta and Emily	false		
113-3594403-1942657	44020576747794	2020-11-25T20:16:08+00:00	2020-11-25T12:16:08-08:00	2020-11-25T23:41:34+00:00	2020-12-01T07:59:59+00:00	-4	pc0tv8fnxwdqr6z@marketplace.amazon.com	RENETTE HORTON	+1 213-442-1463 ext. 20945	ABR0055	Delivery by Friday | Arabella Farm Direct Bouquet of 12 Stems of Fresh Cut Hot Pink Roses in a Free Designer Glass Vase	1	0	1	Expedited	Renette Horton	3209 BAKERS MILL POND RD			BETHUNE	SC	29009-9565	US		Happy Birthday, old man! From Blair	false		
113-4468299-7579452	62319291259394	2020-11-25T19:19:43+00:00	2020-11-25T11:19:43-08:00	2020-11-25T23:42:12+00:00	2020-12-01T07:59:59+00:00	-4	t3whkhxhqf1r0mr@marketplace.amazon.com	Coco Crabs	+1 619-854-2705 ext. 27501	ABM010	Delivery by Monday | The Everlasting Fling Bouquet by Arabella Bouquets with a Free Designer Glass Vase	1	0	1	Expedited	Sharon Miller	1150 MILL ST			SPRINGFIELD	OR	97477-3740	US			false		
113-9990488-0301829	01458100730594	2020-11-25T22:18:22+00:00	2020-11-25T14:18:22-08:00	2020-11-25T23:43:49+00:00	2020-12-01T07:59:59+00:00	-4	8h5mx3swh52r87h@marketplace.amazon.com	Estella Munoz	+1 602-671-6610 ext. 51404	ABR0022	Delivery by Friday | Arabella Farm Direct Bouquet of 12 Fresh Cut Pink Roses with a Free Glass Vase	1	0	1	Expedited	Ramon Munoz	6016 COLONY CLUB CT			ARLINGTON	TX	76016-2623	US			false		
113-6262817-8876262	56410067721546	2020-11-25T20:39:42+00:00	2020-11-25T12:39:42-08:00	2020-11-25T23:44:19+00:00	2020-12-01T07:59:59+00:00	-4	rbsh22zsmpxnbp7@marketplace.amazon.com	Malinda McComber		ABM022	Delivery by Monday | Purple Extravagance Bouquet by Arabella Bouquets	1	0	1	Expedited	Jay RitcheyPOC11914	7526 Daisy Circle			Macungie	PA	18062	US		Hi Brielle, Sending you Get Well wishes! From Kevin Wright, Doug Reinhert, Ron Secchiutti and the NFI Team!	true	C11914	
113-1150983-7738650	67113007125690	2020-11-25T23:21:10+00:00	2020-11-25T15:21:10-08:00	2020-11-25T23:52:25+00:00	2020-12-01T07:59:59+00:00	-4	swqv0gcfgmmw4xc@marketplace.amazon.com	Caroline Toennis	+1 480-618-5344 ext. 75289	ABM022	Delivery by Monday | Purple Extravagance Bouquet by Arabella Bouquets	1	0	1	Expedited	Nancy Purcell	9656 KENRICK RD			DAYTON	OH	45458-5312	US		You are in our thoughts and prayers Aunt Nancy  - Ron, Melissa, Katie, Alex and Cara From Caroline Toennis	false		
112-2843047-8386630	52054103536962	2020-11-25T21:14:31+00:00	2020-11-25T13:14:31-08:00	2020-11-25T23:54:53+00:00	2020-12-01T07:59:59+00:00	-4	2hs0vgz0zmv3vpg@marketplace.amazon.com	Cassandra Weatherford	+1 415-851-9136 ext. 87649	ABM0033	Delivery by Monday | Arabella Farm Direct Bouquet of Fresh Cut White Hydrangea with a Free Glass Vase	1	0	1	Expedited	Whitney Popchoke	612 CONESTOGA DR			YUKON	OK	73099-6864	US		Whitney we are all so sorry to hear about your Nanaws passing. She was an amazing person and helped you become the amazing person your are. Thinking of you and love you lots! From Your forever soul friends	false		
113-1183647-2591427	67522961215482	2020-11-25T14:57:03+00:00	2020-11-25T06:57:03-08:00	2020-11-26T00:01:39+00:00	2020-12-01T07:59:59+00:00	-4	6x4w843rk76s28c@marketplace.amazon.com	Fawaz Elmalki	+1 929-436-4790 ext. 39366	ABR0022	Delivery by Friday | Arabella Farm Direct Bouquet of 12 Fresh Cut Pink Roses with a Free Glass Vase	1	0	1	Expedited	Sue Rubone	39630 FAIRWAY DR APT 320			PALMDALE	CA	93551-7573	US			false		
112-7812024-1701863	57957901412274	2020-11-25T18:29:48+00:00	2020-11-25T10:29:48-08:00	2020-11-26T00:03:08+00:00	2020-12-01T07:59:59+00:00	-4	c7wmbgc3ccjlpvk@marketplace.amazon.com	Joe Fornadel	+1 602-671-6610 ext. 85021	ABR001	Delivery by Friday | Arabella Bouquets 12 Stems of Fresh Cut Red Roses in a Free Designer Glass Vase	1	0	1	Expedited	Jillian Hop	17001 BAY POINTE DR			ORLANDO	FL	32820-2784	US			false		
111-2441555-3227431	67981949836202	2020-11-25T18:35:11+00:00	2020-11-25T10:35:11-08:00	2020-11-26T00:03:29+00:00	2020-12-01T07:59:59+00:00	-4	npktx6ds0hsgl7d@marketplace.amazon.com	Onya	+1 763-225-9463 ext. 77565	ABM010	Delivery by Monday | The Everlasting Fling Bouquet by Arabella Bouquets with a Free Designer Glass Vase	1	0	1	Expedited	Mrs. Janice Pendleton	1396 S 238TH LN			BUCKEYE	AZ	85326-3600	US		Sister Pendleton  I'm glad your surgery went well. Wish I was there to personally deliver these to you! Thank you so much for your love, support and encouragement. Love you and Uncle Bill🧡❤ From Onya Jones	false		
111-3360670-7173054	57581964625938	2020-11-25T19:45:31+00:00	2020-11-25T11:45:31-08:00	2020-11-26T00:07:13+00:00	2020-12-01T07:59:59+00:00	-4	p1myqfxf7d6k35j@marketplace.amazon.com	Meagan Tomasso	+1 602-671-6610 ext. 65107	ABM022	Delivery by Monday | Purple Extravagance Bouquet by Arabella Bouquets	1	0	1	Expedited	Cathy Quinn	9 STEPHEN LN			HICKSVILLE	NY	11801-6516	US		Dear Cathy Get well soon From Your loving mom	false		
113-4318221-7118664	03951958791322	2020-11-25T18:41:54+00:00	2020-11-25T10:41:54-08:00	2020-11-26T00:16:27+00:00	2020-12-01T07:59:59+00:00	-4	sv2p858sw9n7b2g@marketplace.amazon.com	Mydrede Dormelus	+1 619-854-2705 ext. 02987	ABM021	Delivery by Monday | The Joyous Bouquet by Arabella Bouquets	1	0	1	Expedited	Jean Adam	9 GORDON AVE			WEST BABYLON	NY	11704-2303	US		Papi Doudou - I hope you had a wonderful birthday.  May God bless you always.  I love you and miss  you.  Midou From Mydrede Dormelus	false		
111-7813492-2633853	19008622799170	2020-11-25T18:53:26+00:00	2020-11-25T10:53:26-08:00	2020-11-26T00:20:23+00:00	2020-12-01T07:59:59+00:00	-4	cs4v5tvb8j6vv8t@marketplace.amazon.com	Robert J Berry	+1 213-442-1463 ext. 66296	ABR0022	Delivery by Friday | Arabella Farm Direct Bouquet of 12 Fresh Cut Pink Roses with a Free Glass Vase	1	0	1	Expedited	Cindy Hane	224 42ND AVE NE			SAINT PETERSBURG	FL	33703-5806	US		Happy Birthday, Love Always, Mom and Dad From Robert J Berry	false		
111-0869713-6933057	03279616213090	2020-11-25T23:54:01+00:00	2020-11-25T15:54:01-08:00	2020-11-26T00:24:25+00:00	2020-12-01T07:59:59+00:00	-4	1f84t6wfm0lc9vm@marketplace.amazon.com	Jose Grimaldo	+1 602-671-6610 ext. 91823	ABM022	Delivery by Monday | Purple Extravagance Bouquet by Arabella Bouquets	1	0	1	Expedited	Ana Ramirez	44215 LIVELY AVE			LANCASTER	CA	93536-5944	US			false		
113-6326714-7565044	01990692143538	2020-11-25T20:06:06+00:00	2020-11-25T12:06:06-08:00	2020-11-26T00:27:49+00:00	2020-12-01T07:59:59+00:00	-4	dbmwm3qkdhscbcw@marketplace.amazon.com	David Kessel	+1 480-618-5344 ext. 23281	ABR0033	Delivery by Friday | Arabella Farm Direct Bouquet of 12 Fresh Cut Orange Roses with a Free Glass Vase	1	0	1	Expedited	Cornelia Pokrzywa	3553 NORMANDY DR			ROCHESTER	MI	48306-4741	US		Guaranteed to be free from viruses & other bad stuff From Elizabeth, David & Willow	false		
114-4219594-0463418	07341880124506	2020-11-25T21:41:46+00:00	2020-11-25T13:41:46-08:00	2020-11-26T00:28:21+00:00	2020-12-01T07:59:59+00:00	-4	sr6tslbv76ftk51@marketplace.amazon.com	Marie Velazco	+1 415-419-8616 ext. 22917	ABR004	Delivery by Friday | Arabella Farm Direct Bouquet of 12 Fresh Cut Yellow Roses with a Free Glass Vase	1	0	1	Expedited	MARIE VELAZCO	1826 OAK ST			SOUTH PASADENA	CA	91030	US			false		
113-8730693-5425064	25305339603522	2020-11-25T21:05:29+00:00	2020-11-25T13:05:29-08:00	2020-11-26T00:31:42+00:00	2020-12-01T07:59:59+00:00	-4	5fbb8tzk9lyv949@marketplace.amazon.com	Irene Given	+1 346-307-9643 ext. 37413	ABR012	Delivery by Friday | Arabella Farm Direct Bouquet of 18 Fresh Cut Pink Roses with a Free Glass Vase	1	0	1	Expedited	Anke Ranniger	BLACK CAT ISLAND 30 TIGER TRL			MOULTONBOROUGH	NH	03254-7505	US		Happy Birthday!  We hope these flowers cheer you up now that you are also "old". From T&D	false		
113-7514683-1211457	27067716161018	2020-11-25T15:29:38+00:00	2020-11-25T07:29:38-08:00	2020-11-26T00:45:13+00:00	2020-12-01T07:59:59+00:00	-4	qkjtqy7lm7wv0dy@marketplace.amazon.com	funmilola	+1 213-442-1463 ext. 96398	ABM031	Delivery by Monday | The Harvest Moon Bouquet by Arabella Bouquets	1	0	1	Expedited	Asmitachu	701 N INDIANA AVE			LUBBOCK	TX	79415-1559	US		I know you’ve been going through some challenging times right now but like a lotus flower I know you’ll bloom beautifully. I wish I was there to hand this to you personally, so I hope you’ll forgive me. Happy thanksgiving! 🖤 From Enock	false		
113-4138454-7384223	18025701945594	2020-11-26T00:22:36+00:00	2020-11-25T16:22:36-08:00	2020-11-26T00:46:25+00:00	2020-12-01T07:59:59+00:00	-4	m7ygzj9rp93ynk3@marketplace.amazon.com	patti mctaggart	+1 619-854-2705 ext. 70063	ABM020	Delivery by Monday | The Sunset Bouquet by Arabella Bouquets	1	0	1	Expedited	Irma Jean Reeves	411 CRESTVIEW AVE			OTTUMWA	IA	52501-1229	US		I hope these flowers brighten your day, Irma Jean, because YOU  brighten MANY lives.  Love sent to you as well! From Patti McTaggart	false		
114-0040153-6910622	48651709498634	2020-11-25T15:37:30+00:00	2020-11-25T07:37:30-08:00	2020-11-26T00:46:26+00:00	2020-12-01T07:59:59+00:00	-4	kqp5yrh0knpyksl@marketplace.amazon.com	michelle teigue	+1 602-671-6610 ext. 58298	ABR004	Delivery by Friday | Arabella Farm Direct Bouquet of 12 Fresh Cut Yellow Roses with a Free Glass Vase	1	0	1	Expedited	Susan Teigue	113 STANLEY DR			CENTEREACH	NY	11720-2233	US		Get Well Soon we love you From michelle, brian, aiden and austin	false		
112-8348850-0497836	69545855504962	2020-11-25T15:33:27+00:00	2020-11-25T07:33:27-08:00	2020-11-26T00:46:40+00:00	2020-12-01T07:59:59+00:00	-4	6hqv787bt6t1zjv@marketplace.amazon.com	Stuart Wolf	+1 602-671-6610 ext. 51548	ABM021	Delivery by Monday | The Joyous Bouquet by Arabella Bouquets	1	0	1	Expedited	Stuart Wolf	13303 KATRINKA DR			BOWIE	MD	20720-4734	US			false		
114-7676827-2209841	39350763012250	2020-11-25T15:43:08+00:00	2020-11-25T07:43:08-08:00	2020-11-26T00:47:10+00:00	2020-12-01T07:59:59+00:00	-4	bgqk0bnyhmc8mpn@marketplace.amazon.com	Megan C McCombs	+1 602-671-6610 ext. 79576	ABM022	Delivery by Monday | Purple Extravagance Bouquet by Arabella Bouquets	1	0	1	Expedited	Mrs. Rose Mays	12053 STERN DR			INDIANAPOLIS	IN	46256-9442	US		Rose- Our deepest sympathies go out to you and your family. May God give you the comfort and peace that you seek and may the soul of your sister rest in peace. From Your UEAAA family	false		
114-2846712-2219443	47915700016394	2020-11-25T22:23:16+00:00	2020-11-25T14:23:16-08:00	2020-11-26T00:48:46+00:00	2020-12-01T07:59:59+00:00	-4	sr6tslbv76ftk51@marketplace.amazon.com	Marie Velazco	+1 602-671-6610 ext. 34653	ABR004	Delivery by Friday | Arabella Farm Direct Bouquet of 12 Fresh Cut Yellow Roses with a Free Glass Vase	1	0	1	Expedited	Mrs. Joelle Strickler	11256 DOWNING DR			NORTHGLENN	CO	80233-3113	US			false		
114-1026029-7737040	26222773493114	2020-11-26T00:09:58+00:00	2020-11-25T16:09:58-08:00	2020-11-26T00:49:16+00:00	2020-12-01T07:59:59+00:00	-4	tjh4x91zmp8qm9n@marketplace.amazon.com	Lori A Dunlap	570332922	ABM031	Delivery by Monday | The Harvest Moon Bouquet by Arabella Bouquets	1	0	1	Expedited	Jeannie Schappert	661 PINE ST			KULPMONT	PA	17834-1320	US		With our deepest Sympathy  Love,  Lori, Clark and John Francis From Lori A Dunlap	false		
112-8688616-5889809	45544278361746	2020-11-25T19:19:35+00:00	2020-11-25T11:19:35-08:00	2020-11-26T00:50:08+00:00	2020-12-01T07:59:59+00:00	-4	7gtczc72twg48pj@marketplace.amazon.com	Cheryl Magee	307	ABR0055	Delivery by Friday | Arabella Farm Direct Bouquet of 12 Stems of Fresh Cut Hot Pink Roses in a Free Designer Glass Vase	1	0	1	Expedited	Stephanie Magee	1324 GRAYSON VALLEY PKWY			BIRMINGHAM	AL	35235-3360	US		You are a warrior  Love, Cheryl and marge From Cheryl Magee	false		
111-4269390-3841029	36231577706786	2020-11-25T13:22:22+00:00	2020-11-25T05:22:22-08:00	2020-11-26T00:58:57+00:00	2020-12-01T07:59:59+00:00	-4	gtxjrkxj2p5xwjr@marketplace.amazon.com	Lori Shulman	+1 619-854-2705 ext. 96305	ABR0055	Delivery by Friday | Arabella Farm Direct Bouquet of 12 Stems of Fresh Cut Hot Pink Roses in a Free Designer Glass Vase	1	0	1	Expedited	Mary Ann Wolff	8802 Neff St			Houston	TX	77036	US		Happy Birthday!!! From Lori & Jim	false		
113-2626888-4688269	54867585691106	2020-11-25T22:51:55+00:00	2020-11-25T14:51:55-08:00	2020-11-26T01:00:19+00:00	2020-12-01T07:59:59+00:00	-4	glblwkx4r0d5kxl@marketplace.amazon.com	R Dupo	+1 619-854-2705 ext. 74225	ABR0055	Delivery by Friday | Arabella Farm Direct Bouquet of 12 Stems of Fresh Cut Hot Pink Roses in a Free Designer Glass Vase	1	0	1	Expedited	Jeannette Barnell	40730 581ST AVE			NEW ULM	MN	56073-4312	US		Mom, Grandma, Happy Thanksgiving!  We miss you and will see you soon!  Hi to brother Dan!  Love you! Kathy, Ron, Ashlee, Dan Chris, Jasmine Nick, Kristina	false		
112-5621908-6964233	07205008196882	2020-11-25T19:30:09+00:00	2020-11-25T11:30:09-08:00	2020-11-26T01:01:49+00:00	2020-12-01T07:59:59+00:00	-4	4nvvnsyx7hpx9vs@marketplace.amazon.com	Andrea Chappetta	+1 619-854-2705 ext. 20352	ABR0022	Delivery by Friday | Arabella Farm Direct Bouquet of 12 Fresh Cut Pink Roses with a Free Glass Vase	1	0	1	Expedited	Janice Nicholas	377 MAIN ST APT 10			NEW CANAAN	CT	06840-5937	US		Thinking of you - Warm thoughts and love, De From Andrea Chappetta	false		
114-7610573-3518611	09683597142026	2020-11-25T17:54:55+00:00	2020-11-25T09:54:55-08:00	2020-11-26T01:02:09+00:00	2020-12-01T07:59:59+00:00	-4	6dgcd6yz4s6g123@marketplace.amazon.com	Vicki	+1 213-442-1463 ext. 46953	ABM010	Delivery by Monday | The Everlasting Fling Bouquet by Arabella Bouquets with a Free Designer Glass Vase	1	0	1	Expedited	Alli Brennan	514 S 12TH ST			LIVINGSTON	MT	59047-3723	US			false		
112-6466351-0654619	39706669009778	2020-11-25T16:02:35+00:00	2020-11-25T08:02:35-08:00	2020-11-26T01:03:59+00:00	2020-12-01T07:59:59+00:00	-4	5dzn5qrxc6tcq2f@marketplace.amazon.com	Susan	+1 929-436-4790 ext. 48803	ABR0022	Delivery by Friday | Arabella Farm Direct Bouquet of 12 Fresh Cut Pink Roses with a Free Glass Vase	1	0	1	Expedited	Linda Joy Sommerville	C/O GORDON CURTIS	15322 W SENTINEL DR		SUN CITY WEST	AZ	85375-6634	US		HappyHappyHappy Birthday dear Linda Joy!  We miss you but love seeing you healthy down there in the Arizona sun! Much love! Susan From Susan	false		
114-4172302-6039430	05378184094402	2020-11-26T00:40:49+00:00	2020-11-25T16:40:49-08:00	2020-11-26T01:10:37+00:00	2020-12-01T07:59:59+00:00	-4	ss4ywg8lhwg9qvp@marketplace.amazon.com	Denise Dorismond	+1 602-671-6610 ext. 84356	ABR001	Delivery by Friday | Arabella Bouquets 12 Stems of Fresh Cut Red Roses in a Free Designer Glass Vase	1	0	1	Expedited	Ana Benitez Vasquez	11922 BARRETT BRAE DR			HOUSTON	TX	77072-4004	US		Hi Ana, Enjoy your gift! From Denise & Levelt Dorismond Happy Birthday dear Ana ! Best wishes on your special Day! God bless and protects you always❤️🌺	false		
112-8777394-6431435	03184330169626	2020-11-25T19:44:26+00:00	2020-11-25T11:44:26-08:00	2020-11-26T01:15:36+00:00	2020-12-01T07:59:59+00:00	-4	c6672dp4f5vmqwb@marketplace.amazon.com	blake zika	+1 602-671-6610 ext. 66500	ABM022	Delivery by Monday | Purple Extravagance Bouquet by Arabella Bouquets	1	0	1	Expedited	Angie Fincher	921 MATADOR DR SE			ALBUQUERQUE	NM	87123-4220	US		Happiest Birthday Aunt Angie!! Thinking of you ! From Chrissie (Lepak) zika and Stacey (Lepak) Cicero	false		
112-5018354-9589048	06351654657546	2020-11-25T19:57:24+00:00	2020-11-25T11:57:24-08:00	2020-11-26T01:16:17+00:00	2020-12-01T07:59:59+00:00	-4	klw67hkcrvjzsh4@marketplace.amazon.com	Michele Davies	+1 929-436-4790 ext. 98505	ABM022	Delivery by Monday | Purple Extravagance Bouquet by Arabella Bouquets	1	0	1	Standard	Roni Rae C/O Toast	6550 LONGLEY LN STE 145			RENO	NV	89511-3043	US		Our thoughts are with you at this time!  - Express Reno From Michele Davies	false		
113-9739771-9723462	48832972489690	2020-11-26T00:50:56+00:00	2020-11-25T16:50:56-08:00	2020-11-26T01:17:40+00:00	2020-12-01T07:59:59+00:00	-4	hnb5sk65ctljht1@marketplace.amazon.com	William Adkins	+1 415-419-8616 ext. 64988	ABM022	Delivery by Monday | Purple Extravagance Bouquet by Arabella Bouquets	1	0	1	Expedited	Suann Marzec	668 Bluebird lane			Bolingbrook	Illinois	60440	US		Happy Birthday Suann have a wonderful Day . Love you much hugs & kisses    Kerri Bill & Gillian From Kerri Adkins	false		
113-2122542-6541010	17184368974946	2020-11-26T00:41:53+00:00	2020-11-25T16:41:53-08:00	2020-11-26T01:18:43+00:00	2020-12-01T07:59:59+00:00	-4	60401j4t8lnqwtp@marketplace.amazon.com	Charles R Eastman	+1 346-307-9643 ext. 32599	ABR0022	Delivery by Friday | Arabella Farm Direct Bouquet of 12 Fresh Cut Pink Roses with a Free Glass Vase	1	0	1	Expedited	Susan Holden	1971 LERNER LN			NORTH TUSTIN	CA	92705-3310	US		Our Dear Friend Susan, Sending our thoughts and prayers as you recover from your surgery. We love you and are looking forward to getting together with you and Uli as soon as you are up to it. From Brooke, Teri and Dottie	false		
112-3594767-7847432	18470350632962	2020-11-25T16:17:19+00:00	2020-11-25T08:17:19-08:00	2020-11-26T01:19:58+00:00	2020-12-01T07:59:59+00:00	-4	62fhdmb24pgj018@marketplace.amazon.com	Anna Swor	+1 619-854-2705 ext. 40650	ABR0022	Delivery by Friday | Arabella Farm Direct Bouquet of 12 Fresh Cut Pink Roses with a Free Glass Vase	1	0	1	Expedited	Troy and Charis Holmes	4811 CATHERINE TER			JACKSONVILLE	FL	32205-7101	US			false		
113-4898944-0457820	48856172110698	2020-11-25T19:54:31+00:00	2020-11-25T11:54:31-08:00	2020-11-26T01:31:09+00:00	2020-12-01T07:59:59+00:00	-4	vm56h7jnxlrk5ys@marketplace.amazon.com	stacey crandall	+1 602-671-6610 ext. 42930	ABM026	Delivery by Monday | The Amour Bouquet by Arabella Bouquets	1	0	1	Expedited	Tom and Jenn Gregg	12 JULIA ROSE CT			GLENMONT	NY	12077-3427	US		Much love and happiness in your new home! Thank you so much for your business and patience..happy holidays! From stacey crandall	false		
114-6219908-1137841	11032559054082	2020-11-25T23:21:34+00:00	2020-11-25T15:21:34-08:00	2020-11-26T01:32:05+00:00	2020-12-01T07:59:59+00:00	-4	8726whtd20jn2n2@marketplace.amazon.com	Diane Griffin	+1 929-436-4790 ext. 63230	ABR0022	Delivery by Friday | Arabella Farm Direct Bouquet of 12 Fresh Cut Pink Roses with a Free Glass Vase	1	0	1	Expedited	Melanie Brown	10123 CHESTERTON DR			DALLAS	TX	75238-2101	US		Wishing you a speedy recovery. From Don & Diane Griffin	false		
112-8705564-9001853	57487687068074	2020-11-25T18:28:21+00:00	2020-11-25T10:28:21-08:00	2020-11-26T01:32:29+00:00	2020-12-01T07:59:59+00:00	-4	pd59z7xy1zzwhbb@marketplace.amazon.com	Phillip Morales	+1 619-854-2705 ext. 75231	ABM010	Delivery by Monday | The Everlasting Fling Bouquet by Arabella Bouquets with a Free Designer Glass Vase	1	0	1	Expedited	MRS. REINHOLD P. MUELLER	32968 LYNX HOLLOW RD			CRESWELL	OR	97426-9350	US		You were wonderful!  A gift to him.  Phil Jr. From Phillip Morales	false		
112-9264221-4999414	61711418683874	2020-11-26T01:02:19+00:00	2020-11-25T17:02:19-08:00	2020-11-26T01:33:03+00:00	2020-12-01T07:59:59+00:00	-4	pc24tbsxhh8rtll@marketplace.amazon.com	amanda Smaracheck	+1 346-307-9643 ext. 76062	ABM020	Delivery by Monday | The Sunset Bouquet by Arabella Bouquets	1	0	1	Expedited	Karen Johnson	6056 EAGLES CREST DR			CHESTERFIELD	VA	23832-6510	US		Happy Birthday, Grandma!!  Enjoy your gift! We MISS and LOVE YOU. The Crew From Smaracheck Family	false		
113-2212531-1109021	18300033441202	2020-11-25T16:35:20+00:00	2020-11-25T08:35:20-08:00	2020-11-26T01:33:07+00:00	2020-12-01T07:59:59+00:00	-4	3nsbh3ddgh68n4s@marketplace.amazon.com	Leslie Taylor	+1 213-442-1463 ext. 79635	ABR0066	Delivery by Friday | Arabella Bouquets 12 Stems of Fresh Cut White Roses in a Free Designer Glass Vase	1	0	1	Expedited	Sandi Compton	32 HATTERAS ST			BERLIN	MD	21811-3812	US		Dear BFF I am grateful for our friendship  Love Leslie From Ray and Leslie	false		
112-3282310-1401026	00884972852442	2020-11-25T18:52:49+00:00	2020-11-25T10:52:49-08:00	2020-11-26T01:33:30+00:00	2020-12-01T07:59:59+00:00	-4	ps5t8p3lgvfqv66@marketplace.amazon.com	Angeles Fuentes Freixanet	+1 602-671-6610 ext. 70495	ABR0022	Delivery by Friday | Arabella Farm Direct Bouquet of 12 Fresh Cut Pink Roses with a Free Glass Vase	1	0	1	Expedited	Roberto & Tiffany Braun	3111 CAMINO DEL RIO N STE 412			SAN DIEGO	CA	92108-5720	US		Queridos  Roberto & Tiffany Felicidades por su "baby girl " que viene a enriquecer y alegrar sus vidas.Compartimos su alegria. Les mandamos un abrazo con mucho cariño De Alejandro y Geli Carbajal	false		
114-4303185-1371451	07221465812874	2020-11-26T01:08:11+00:00	2020-11-25T17:08:11-08:00	2020-11-26T01:34:54+00:00	2020-12-01T07:59:59+00:00	-4	ss4ywg8lhwg9qvp@marketplace.amazon.com	Denise Dorismond	+1 619-854-2705 ext. 11257	ABR011	Delivery by Monday | Arabella Bouquets 18 Stems of Fresh Cut Red Roses in a Free Glass Vase	1	0	1	Expedited	Mrs Clairette Lebrun	216-41-113 Drive			Queens village	NY	11429	US		Hi Clairette, Enjoy your gift! From Denise &Levelt Dorismond Happy Birthday Clairette! Best wishes and many Blessings❤️🙏🏽	false		
112-7033007-4657026	37642216346914	2020-11-25T16:31:02+00:00	2020-11-25T08:31:02-08:00	2020-11-26T01:37:13+00:00	2020-12-01T07:59:59+00:00	-4	kwrgj0clwbps1gj@marketplace.amazon.com	Curt Hitchens	+1 213-442-1463 ext. 54723	ABR001	Delivery by Friday | Arabella Bouquets 12 Stems of Fresh Cut Red Roses in a Free Designer Glass Vase	1	0	1	Expedited	Casi Hitchens	1800 KIMBERLY PARK DR			DALTON	GA	30720-7058	US			false		
114-2802185-3471409	42038527278378	2020-11-25T21:15:23+00:00	2020-11-25T13:15:23-08:00	2020-11-26T01:37:35+00:00	2020-12-01T07:59:59+00:00	-4	94bxxqhzdf45xq2@marketplace.amazon.com	Stephanie Van Denburg	+1 213-442-1463 ext. 35234	ABR0022	Delivery by Friday | Arabella Farm Direct Bouquet of 12 Fresh Cut Pink Roses with a Free Glass Vase	1	0	1	Expedited	Betty Spector	50 ARUNDEL PL			CLAYTON	MO	63105-2278	US			false		
112-9083871-4352248	62067839121586	2020-11-26T01:21:34+00:00	2020-11-25T17:21:34-08:00	2020-11-26T01:40:28+00:00	2020-12-01T07:59:59+00:00	-4	bfrtj6lqsznqhq8@marketplace.amazon.com	clement leos	+1 619-854-2705 ext. 82364	ABM022	Delivery by Monday | Purple Extravagance Bouquet by Arabella Bouquets	1	0	1	Expedited	Martha Yocum	3234 TITANIC DR			STAFFORD	VA	22554-2627	US		We Love you. From Maria/CP	false		
112-1475445-3006637	35503439028130	2020-11-25T16:41:48+00:00	2020-11-25T08:41:48-08:00	2020-11-26T01:42:54+00:00	2020-12-01T07:59:59+00:00	-4	ymrnhlxzm8w3krh@marketplace.amazon.com	Colleen Moore	+1 480-618-5344 ext. 37320	ABR0022	Delivery by Friday | Arabella Farm Direct Bouquet of 12 Fresh Cut Pink Roses with a Free Glass Vase	1	0	1	Expedited	Laura Bejot	6 E WASHINGTON AVE			ELMWOOD PARK	NJ	07407-2804	US		Sending our deepest condolences to you and your family on the loss of your loved one. From CTC Sunshine Committee	false		
112-4816096-6216250	16421660234306	2020-11-26T01:11:26+00:00	2020-11-25T17:11:26-08:00	2020-11-26T01:44:07+00:00	2020-12-01T07:59:59+00:00	-4	7b30vm17c2rcstr@marketplace.amazon.com	Linda	+1 415-851-9136 ext. 46455	ABR0033	Delivery by Monday | Arabella Farm Direct Bouquet of 12 Fresh Cut Orange Roses with a Free Glass Vase	1	0	1	Expedited	stefani jensen	2425 LINE CREEK RD			MORGAN	UT	84050-9864	US			false		
112-9725524-8981837	40067482309474	2020-11-25T16:46:40+00:00	2020-11-25T08:46:40-08:00	2020-11-26T01:48:28+00:00	2020-12-01T07:59:59+00:00	-4	mmdr2b2mkh6nv6t@marketplace.amazon.com	TAMARA YOUNGS	+1 602-671-6610 ext. 69693	ABR0022	Delivery by Friday | Arabella Farm Direct Bouquet of 12 Fresh Cut Pink Roses with a Free Glass Vase	1	0	1	Expedited	Chris German	12327 4 Mile			Lowell	MI	49331	US			false		
111-0320670-8040250	60657317216386	2020-11-25T17:04:40+00:00	2020-11-25T09:04:40-08:00	2020-11-26T02:02:01+00:00	2020-12-01T07:59:59+00:00	-4	bdb7gg9gv9mkpl4@marketplace.amazon.com	Andrea Rauch	+1 602-671-6610 ext. 50040	ABR0033	Delivery by Friday | Arabella Farm Direct Bouquet of 12 Fresh Cut Orange Roses with a Free Glass Vase	1	0	1	Expedited	Laurie Stoner	5648 Country Lakes Dr			Sarasota	FL	34243	US		Hi Mom, just a little something to brighten your day! Cheers!	false		
111-2108253-3431460	67609441451186	2020-11-25T16:57:59+00:00	2020-11-25T08:57:59-08:00	2020-11-26T02:03:12+00:00	2020-12-01T07:59:59+00:00	-4	rd7rlzlzzh76yqm@marketplace.amazon.com	Kyan	+1 763-225-9463 ext. 76113	ABR0022	Delivery by Friday | Arabella Farm Direct Bouquet of 12 Fresh Cut Pink Roses with a Free Glass Vase	1	0	1	Expedited	Kailee Benedetti	4334 E CULLUMBER ST			GILBERT	AZ	85234-0723	US			false		
111-7528286-2313846	32329501737890	2020-11-25T17:01:38+00:00	2020-11-25T09:01:38-08:00	2020-11-26T02:04:56+00:00	2020-12-01T07:59:59+00:00	-4	02yy22yj83r4n7m@marketplace.amazon.com	Heidi S Smith	+1 619-854-2705 ext. 35193	ABM022	Delivery by Monday | Purple Extravagance Bouquet by Arabella Bouquets	1	0	1	Expedited	Gwen Allen	8781 LARIAT CIR			KELLER	TX	76244-7997	US		Our thoughts and prayers are with you. From The Smith Family	false		
111-7498811-9362605	47584495134466	2020-11-25T20:54:54+00:00	2020-11-25T12:54:54-08:00	2020-11-26T02:07:58+00:00	2020-12-01T07:59:59+00:00	-4	wshqsm43lvvt3c9@marketplace.amazon.com	richard shelling	+1 619-854-2705 ext. 95959	ABR0022	Delivery by Friday | Arabella Farm Direct Bouquet of 12 Fresh Cut Pink Roses with a Free Glass Vase	1	0	1	Expedited	Shaniya Graham	277 W 118TH ST APT 3B			NEW YORK	NY	10026-1626	US		You're such an amazing woman. Your voice is so lovely, yet so strong. Your smile is so beautiful that I'm sometimes lost for words. You've made me happy since the day we met. I need to do the same for you. From Hope the color cool.	false		
114-8708440-9533010	22021893743106	2020-11-25T14:29:25+00:00	2020-11-25T06:29:25-08:00	2020-11-26T02:11:21+00:00	2020-12-01T07:59:59+00:00	-4	gm8r9fs3x0n4jb2@marketplace.amazon.com	William	+1 213-442-1463 ext. 95732	ABR001	Delivery by Friday | Arabella Bouquets 12 Stems of Fresh Cut Red Roses in a Free Designer Glass Vase	1	0	1	Expedited	Rita Tramontozzi	97 HIGHLAND AVE			WATERTOWN	MA	02472-1765	US			false		
114-8708440-9533010	61450610452410	2020-11-25T14:29:25+00:00	2020-11-25T06:29:25-08:00	2020-11-26T02:11:21+00:00	2020-12-01T07:59:59+00:00	-4	gm8r9fs3x0n4jb2@marketplace.amazon.com	William	+1 213-442-1463 ext. 95732	ABR0022	Delivery by Friday | Arabella Farm Direct Bouquet of 12 Fresh Cut Pink Roses with a Free Glass Vase	1	0	1	Expedited	Rita Tramontozzi	97 HIGHLAND AVE			WATERTOWN	MA	02472-1765	US			false		
114-8708440-9533010	25695781184850	2020-11-25T14:29:25+00:00	2020-11-25T06:29:25-08:00	2020-11-26T02:11:21+00:00	2020-12-01T07:59:59+00:00	-4	gm8r9fs3x0n4jb2@marketplace.amazon.com	William	+1 213-442-1463 ext. 95732	ABR0066	Delivery by Friday | Arabella Bouquets 12 Stems of Fresh Cut White Roses in a Free Designer Glass Vase	1	0	1	Expedited	Rita Tramontozzi	97 HIGHLAND AVE			WATERTOWN	MA	02472-1765	US			false		
114-8708440-9533010	59605454564042	2020-11-25T14:29:25+00:00	2020-11-25T06:29:25-08:00	2020-11-26T02:11:21+00:00	2020-12-01T07:59:59+00:00	-4	gm8r9fs3x0n4jb2@marketplace.amazon.com	William	+1 213-442-1463 ext. 95732	ABR0033	Delivery by Friday | Arabella Farm Direct Bouquet of 12 Fresh Cut Orange Roses with a Free Glass Vase	1	0	1	Expedited	Rita Tramontozzi	97 HIGHLAND AVE			WATERTOWN	MA	02472-1765	US			false		
111-7752553-3259439	32797290243050	2020-11-26T01:42:42+00:00	2020-11-25T17:42:42-08:00	2020-11-26T02:13:18+00:00	2020-12-01T07:59:59+00:00	-4	85wcs8gpmg490k7@marketplace.amazon.com	Katherine Roth	+1 619-854-2705 ext. 22162	ABR0033	Delivery by Monday | Arabella Farm Direct Bouquet of 12 Fresh Cut Orange Roses with a Free Glass Vase	1	0	1	Expedited	Katherine Roth	5909 WAR ADMIRAL DR			WESLEY CHAPEL	FL	33544-5542	US			false		
111-2114356-1801824	67020819588330	2020-11-26T01:53:28+00:00	2020-11-25T17:53:28-08:00	2020-11-26T02:19:03+00:00	2020-12-01T07:59:59+00:00	-4	px6x3svrj9j2hxb@marketplace.amazon.com	Kim Knight	+1 346-307-9643 ext. 07043	ABSR006	Delivery by Monday | Arabella Bouquets Fresh Cut Hot Pink Spray Roses in a Free Designer Glass Vase	1	0	1	Expedited	Karen Wagner	2002 N 6TH ST			CLINTON	IA	52732-2745	US		You can beat this! From Cary & Kim Knight	false		
112-9712557-1989809	17364721617634	2020-11-25T19:18:04+00:00	2020-11-25T11:18:04-08:00	2020-11-26T02:24:17+00:00	2020-12-01T07:59:59+00:00	-4	d7qx9zfkr9yt15h@marketplace.amazon.com	daniel r dixon	+1 415-851-9136 ext. 81999	ABR0033	Delivery by Friday | Arabella Farm Direct Bouquet of 12 Fresh Cut Orange Roses with a Free Glass Vase	1	0	1	Expedited	Daniel Dixon	219 SOUTHWOOD DR			MOCKSVILLE	NC	27028-4337	US			false		
112-1858753-9178636	54343695030970	2020-11-26T01:51:31+00:00	2020-11-25T17:51:31-08:00	2020-11-26T02:24:53+00:00	2020-12-01T07:59:59+00:00	-4	t8m6cb06251w9zf@marketplace.amazon.com	steve malenchak	+1 213-442-1463 ext. 96983	ABM022	Delivery by Monday | Purple Extravagance Bouquet by Arabella Bouquets	1	0	1	Expedited	Emily Malenchak	23140 GONZALES DR			WOODLAND HILLS	CA	91367-6114	US			false		
113-4924271-8254635	25545892291850	2020-11-26T02:00:19+00:00	2020-11-25T18:00:19-08:00	2020-11-26T02:27:26+00:00	2020-12-01T07:59:59+00:00	-4	421qdkbsrbtk8c6@marketplace.amazon.com	Gudrun Napp	+1 415-419-8616 ext. 15025	ABM010	Delivery by Monday | The Everlasting Fling Bouquet by Arabella Bouquets with a Free Designer Glass Vase	1	0	1	Expedited	Helenita Jacobs	555 S NEVADA AVE			EAST WENATCHEE	WA	98802-9157	US			false		
114-7074884-6574636	20661855275450	2020-11-26T01:58:48+00:00	2020-11-25T17:58:48-08:00	2020-11-26T02:27:43+00:00	2020-12-01T07:59:59+00:00	-4	7lx9j55hbyf2679@marketplace.amazon.com	Christopher A. Limoli	+1 213-442-1463 ext. 29873	ABR0022	Delivery by Monday | Arabella Farm Direct Bouquet of 12 Fresh Cut Pink Roses with a Free Glass Vase	1	0	1	Expedited	Mary Ann Profera	2335 WOODLAND AVE			WANTAGH	NY	11793-4419	US		Happy Birthday!  We Love You! From Heather, Hunter & Chris	false		
111-4891856-3067425	46723386726602	2020-11-25T14:53:07+00:00	2020-11-25T06:53:07-08:00	2020-11-26T02:33:39+00:00	2020-12-01T07:59:59+00:00	-4	5x0pnc2vj9py6d2@marketplace.amazon.com	linda	+1 480-618-5344 ext. 39658	ABM022	Delivery by Monday | Purple Extravagance Bouquet by Arabella Bouquets	1	0	1	Expedited	Mrs Donna Yatkin	5 HILLCREST			SOUTH WINDSOR	CT	06074-3105	US		Donna, Happy thanksgiving ! Love Linda Evans xxx	false		
113-9764938-9793812	01455106167634	2020-11-25T17:37:10+00:00	2020-11-25T09:37:10-08:00	2020-11-26T02:38:34+00:00	2020-12-01T07:59:59+00:00	-4	g5st1t184438369@marketplace.amazon.com	Jordan	+1 213-442-1463 ext. 27991	ABR0022	Delivery by Friday | Arabella Farm Direct Bouquet of 12 Fresh Cut Pink Roses with a Free Glass Vase	1	0	1	Expedited	Leah laurenti	9 BARBERA RD			COMMACK	NY	11725-1791	US			false		
113-4028334-1187400	34562302903970	2020-11-25T17:35:42+00:00	2020-11-25T09:35:42-08:00	2020-11-26T02:39:29+00:00	2020-12-01T07:59:59+00:00	-4	1r2nbyjxv5vb78g@marketplace.amazon.com	Natalie A Sylvester	+1 619-854-2705 ext. 56781	ABM022	Delivery by Monday | Purple Extravagance Bouquet by Arabella Bouquets	1	0	1	Expedited	Jennifer Dobbins	812 N CALHOUN ST			PERRY	FL	32347-1903	US		A very Happy Birthday to you my dear friend!  I love you always From Natalie A Sylvester	false		
112-4743772-0701014	03725771953866	2020-11-25T15:07:08+00:00	2020-11-25T07:07:08-08:00	2020-11-26T02:41:09+00:00	2020-12-01T07:59:59+00:00	-4	jfndrp4zgjhn9tr@marketplace.amazon.com	Mary Lynn Sickinger	+1 929-436-4790 ext. 55670	ABR0022	Delivery by Friday | Arabella Farm Direct Bouquet of 12 Fresh Cut Pink Roses with a Free Glass Vase	1	0	1	Expedited	Mrs Mary Gunnison	5 LANGFORD LN			LADERA RANCH	CA	92694-0816	US		Happy Birthday Gorgeous!! Thanks for all you do We love you very much!! Enjoy your day!!! From  Love aunt Meme xxoo	false		
113-5327435-4793054	21936515481514	2020-11-25T15:09:08+00:00	2020-11-25T07:09:08-08:00	2020-11-26T02:44:36+00:00	2020-12-01T07:59:59+00:00	-4	2xc00k06q3cdh12@marketplace.amazon.com	John Levesque	+1 213-442-1463 ext. 75278	ABM022	Delivery by Monday | Purple Extravagance Bouquet by Arabella Bouquets	1	0	1	Expedited	Cinthya Garcia	15208 N FISHING CREEK AVE			NAMPA	ID	83651-3009	US		Congratulations on your new little addition, Garcia Family! From Levesque Law PLLC	false		
111-3182819-4568247	62613939549202	2020-11-25T15:15:15+00:00	2020-11-25T07:15:15-08:00	2020-11-26T02:53:26+00:00	2020-12-01T07:59:59+00:00	-4	tx3cr8dr1qlf3g3@marketplace.amazon.com	Melissa Locke	+1 213-442-1463 ext. 31322	ABM020	Delivery by Monday | The Sunset Bouquet by Arabella Bouquets	1	0	1	Expedited	Erica Tricarico	89A TIERNEY DR			CEDAR GROVE	NJ	07009-1954	US		Happy Birthday, Erica! We love you! From: Melissa & Terrel From Melissa & Terrel	false		
111-8446072-7645844	44912321617738	2020-11-25T15:18:27+00:00	2020-11-25T07:18:27-08:00	2020-11-26T02:56:28+00:00	2020-12-01T07:59:59+00:00	-4	hq7fq0q2p99dkqm@marketplace.amazon.com	Marvin Dozier	+1 480-618-5344 ext. 68573	ABR001	Delivery by Friday | Arabella Bouquets 12 Stems of Fresh Cut Red Roses in a Free Designer Glass Vase	1	0	1	Expedited	Celia Dozier	72 MARION ST			CARTERET	NJ	07008-1935	US			false		
113-7981602-2566619	11626746279066	2020-11-26T02:34:01+00:00	2020-11-25T18:34:01-08:00	2020-11-26T03:03:58+00:00	2020-12-01T07:59:59+00:00	-4	4p4g0rddckjb01v@marketplace.amazon.com	Elizabeth  Dinardo	+1 763-225-9463 ext. 96035	ABR0033	Delivery by Monday | Arabella Farm Direct Bouquet of 12 Fresh Cut Orange Roses with a Free Glass Vase	1	0	1	Expedited	Carolyn Niles	2064 ARKANSAS AVE			ENGLEWOOD	FL	34224-5629	US			false		
114-3881681-2212260	46170941069482	2020-11-26T02:35:51+00:00	2020-11-25T18:35:51-08:00	2020-11-26T03:04:06+00:00	2020-12-01T07:59:59+00:00	-4	m7s8wszhmvj0g5m@marketplace.amazon.com	alan addis	+1 619-854-2705 ext. 22558	ABR001	Delivery by Monday | Arabella Bouquets 12 Stems of Fresh Cut Red Roses in a Free Designer Glass Vase	1	0	1	Expedited	Alan addis	3235 PARK MEADOWS DR UNIT A			BAKERSFIELD	CA	93308-9852	US			false		
113-7346123-5377018	68280762118770	2020-11-25T18:09:19+00:00	2020-11-25T10:09:19-08:00	2020-11-26T03:10:09+00:00	2020-12-01T07:59:59+00:00	-4	t92pxn5yr4zvdn3@marketplace.amazon.com	Jacob E. Platt	+1 415-419-8616 ext. 62555	ABM0033	Delivery by Monday | Arabella Farm Direct Bouquet of Fresh Cut White Hydrangea with a Free Glass Vase	1	0	1	Expedited	Julia Platt	312 HILLANDALE AVE			OCEAN SPRINGS	MS	39564-4523	US		Happy Birthday!!!! From Jacob & Sara XOXO	false		
113-7670658-2579435	16684636779914	2020-11-25T18:06:52+00:00	2020-11-25T10:06:52-08:00	2020-11-26T03:11:02+00:00	2020-12-01T07:59:59+00:00	-4	f8q818w078sdfvr@marketplace.amazon.com	Marilyn A Hayes	+1 213-442-1463 ext. 55348	ABM022	Delivery by Monday | Purple Extravagance Bouquet by Arabella Bouquets	1	0	1	Expedited	Maureen Hayes	952 Brookfield Ln			Rochester Hills	Michigan	48309	US		Happy 91! And many more.. Love, Mike &Marzi From Marilyn A Hayes	false		
112-5942156-4693059	15266924247074	2020-11-25T20:08:44+00:00	2020-11-25T12:08:44-08:00	2020-11-26T03:15:32+00:00	2020-12-01T07:59:59+00:00	-4	hzz98h91k7rn26w@marketplace.amazon.com	Marlene Bocinsky	+1 213-442-1463 ext. 98952	ABM010	Delivery by Monday | The Everlasting Fling Bouquet by Arabella Bouquets with a Free Designer Glass Vase	1	0	1	Expedited	Marlene Bocinsky	32724 LAPLANT RD			GRAND RAPIDS	MN	55744-5953	US			false		
111-8890114-5261028	32734963917298	2020-11-26T02:51:49+00:00	2020-11-25T18:51:49-08:00	2020-11-26T03:18:05+00:00	2020-12-01T07:59:59+00:00	-4	w1grsdmc8z8ytzp@marketplace.amazon.com	Michael N Arntzen	+1 415-851-9136 ext. 51257	ABR0022	Delivery by Monday | Arabella Farm Direct Bouquet of 12 Fresh Cut Pink Roses with a Free Glass Vase	1	0	1	Expedited	Diane Schumann	4760 ORANGE BLOSSOM LN			CHINO	CA	91710-1744	US		Get Well and Happy Birthday! From The Arntzen Family	false		
112-1971538-9865003	24036526938442	2020-11-25T15:51:54+00:00	2020-11-25T07:51:54-08:00	2020-11-26T03:28:59+00:00	2020-12-01T07:59:59+00:00	-4	1xkf0fbdzy1hrpc@marketplace.amazon.com	Allison Stewart Barasz	+1 619-854-2705 ext. 84438	ABR0022	Delivery by Friday | Arabella Farm Direct Bouquet of 12 Fresh Cut Pink Roses with a Free Glass Vase	1	0	1	Expedited	David Stewart	1762 GERARD CIR			ZANESVILLE	OH	43701-7235	US		Amy and David,  Wishing you strength and healing. We hope you both have a full and speedy recovery. We love you so much! From Allison, Jonah, Toyba, Zippy & Zeva	false		
113-0958489-0911407	35035887469354	2020-11-25T15:50:33+00:00	2020-11-25T07:50:33-08:00	2020-11-26T03:29:22+00:00	2020-12-01T07:59:59+00:00	-4	5xg87cmlvfttst1@marketplace.amazon.com	even steven	+1 602-671-6610 ext. 08900	ABR0022	Delivery by Friday | Arabella Farm Direct Bouquet of 12 Fresh Cut Pink Roses with a Free Glass Vase	1	0	1	Expedited	stephen m moore	39 crestview drive			orinda	ca	94563	US			false		
111-2218181-1958619	57060788990882	2020-11-25T15:47:42+00:00	2020-11-25T07:47:42-08:00	2020-11-26T03:31:32+00:00	2020-12-01T07:59:59+00:00	-4	c66jqm9tmm9h61s@marketplace.amazon.com	Maureen Murray	+1 213-442-1463 ext. 91015	ABR0022	Delivery by Friday | Arabella Farm Direct Bouquet of 12 Fresh Cut Pink Roses with a Free Glass Vase	1	0	1	Expedited	Laura Murray	5934 OAKLAND PARK DR			BURKE	VA	22015-2441	US		Happy 70th birthday Mom! I love you! From Maureen Murray	false		
112-7648239-5420207	03020938100698	2020-11-25T16:03:59+00:00	2020-11-25T08:03:59-08:00	2020-11-26T03:39:19+00:00	2020-12-01T07:59:59+00:00	-4	byzgp7tqt31t76l@marketplace.amazon.com	Angeline Long	+1 929-436-4790 ext. 65103	ABR0022	Delivery by Friday | Arabella Farm Direct Bouquet of 12 Fresh Cut Pink Roses with a Free Glass Vase	1	0	1	Expedited	Shirley Spencer	9661 S AMELIA AVE	17281 POOR HOUSE RD		AMELIA COURT HOUSE	VA	23002-5038	US		Happy Thanksgiving!  I hope you have had a safe holiday.  Wedding pictures were great!  Talk to you soon From Love Angie	false		
111-7715926-5636208	67097415539746	2020-11-25T20:37:52+00:00	2020-11-25T12:37:52-08:00	2020-11-26T03:41:56+00:00	2020-12-01T07:59:59+00:00	-4	sjyl95krgrtyx5g@marketplace.amazon.com	Pushpa	+1 213-442-1463 ext. 78721	ABM022	Delivery by Monday | Purple Extravagance Bouquet by Arabella Bouquets	1	0	1	Expedited	Pushpa	6375 MARLOW DR			CUMMING	GA	30041-6169	US			false		
111-3889633-6131459	59240311653418	2020-11-25T16:28:25+00:00	2020-11-25T08:28:25-08:00	2020-11-26T03:52:52+00:00	2020-12-01T07:59:59+00:00	-4	jl17lg18zdkhvq0@marketplace.amazon.com	Ken Hobbs	+1 480-618-5344 ext. 68275	ABR0022	Delivery by Friday | Arabella Farm Direct Bouquet of 12 Fresh Cut Pink Roses with a Free Glass Vase	1	0	1	Expedited	Glen and Diana Brown	7027 AMBER SPRINGS DR SW			BYRON CENTER	MI	49315-9742	US		Dear Glen and Diana,  Congratulations on finally getting married. ❤ You're together in Jesus!!! Yay. Love you soooo much!  Kenny and Kimberly From Ken Hobbs	false		
111-0251528-4833825	67332151859730	2020-11-25T17:30:56+00:00	2020-11-25T09:30:56-08:00	2020-11-26T04:11:27+00:00	2020-12-01T07:59:59+00:00	-4	jplt4chyg8g40xz@marketplace.amazon.com	Barbara Bowman	+1 213-442-1463 ext. 08894	ABR0022	Delivery by Friday | Arabella Farm Direct Bouquet of 12 Fresh Cut Pink Roses with a Free Glass Vase	1	0	1	Expedited	Kami Greene	8331 MARKETREE CIR			MONTGOMERY VILLAGE	MD	20886-4920	US		Happy Birthday Kami.    A birthday you will remember.   We have much to celebrate when this is all over. From Love Barbara	false		
111-0764451-8423461	18153044789962	2020-11-25T13:41:01+00:00	2020-11-25T05:41:01-08:00	2020-11-26T04:15:38+00:00	2020-12-01T07:59:59+00:00	-4	p5wxb8nc2c7tqgs@marketplace.amazon.com	Susan Collins	+1 213-442-1463 ext. 99966	ABM021	Delivery by Monday | The Joyous Bouquet by Arabella Bouquets	1	0	1	Expedited	Fran Sorrentino	111 SHERWOOD DR			LENOX	MA	01240-2370	US		Happy Thanksgiving!  So grateful for the sisterhood!!! Love ya! From Susan Collins	false		
111-9042453-7344244	65820555428690	2020-11-26T04:07:46+00:00	2020-11-25T20:07:46-08:00	2020-11-26T04:36:42+00:00	2020-12-01T07:59:59+00:00	-4	5sl204cpj9bnz32@marketplace.amazon.com	Jeni Ponce	+1 619-854-2705 ext. 29424	ABR0022	Delivery by Monday | Arabella Farm Direct Bouquet of 12 Fresh Cut Pink Roses with a Free Glass Vase	1	0	1	Expedited	Maria Carrillo	4800 DELTA AVE			ROSEMEAD	CA	91770-1127	US		Mamasita te quiero mucho  From Jeni Ponce	false		
113-2955114-7489064	63199167516082	2020-11-25T22:38:49+00:00	2020-11-25T14:38:49-08:00	2020-11-26T05:21:58+00:00	2020-12-01T07:59:59+00:00	-4	ypq19cz00hp7397@marketplace.amazon.com	Marion Diego	+1 213-442-1463 ext. 89018	ABM010	Delivery by Monday | The Everlasting Fling Bouquet by Arabella Bouquets with a Free Designer Glass Vase	1	0	1	Expedited	Ayanna Diego	282 BEACH 17TH ST			FAR ROCKAWAY	NY	11691-4435	US		Hi Ayanna,I wanted to send flowers since forever (: Hope you like these. Love,Mar. From Marion Diego	false		
114-0572033-3857020	33658613429658	2020-11-26T04:59:09+00:00	2020-11-25T20:59:09-08:00	2020-11-26T05:23:10+00:00	2020-12-01T07:59:59+00:00	-4	rnr3xj74b7sch0w@marketplace.amazon.com	nancy berkheiser	+1 619-854-2705 ext. 44948	ABR001	Delivery by Monday | Arabella Bouquets 12 Stems of Fresh Cut Red Roses in a Free Designer Glass Vase	1	0	1	Expedited	Wajma Safi	7548 SW CEDARCREST ST			PORTLAND	OR	97223-1048	US		Dear Wajma, I am so sorry you are sick.  Please get well soon💗  From nancy berkheiser, mother of Theresa	false		
112-7593604-2919427	04201256336746	2020-11-26T05:00:10+00:00	2020-11-25T21:00:10-08:00	2020-11-26T05:25:36+00:00	2020-12-01T07:59:59+00:00	-4	ryy57lfhb8jdr8t@marketplace.amazon.com	David Hickman	+1 346-307-9643 ext. 06486	ABM022	Delivery by Monday | Purple Extravagance Bouquet by Arabella Bouquets	1	0	1	Expedited	Amy K Pennel	147 MORRISON ST			STRUTHERS	OH	44471-1706	US		Well, Thanks to Covid and the holiday these will Probably be late, but Happy Birthday! We love & miss you! From Jim & Mel.	false		
113-7652413-6084228	38655254350674	2020-11-26T05:31:54+00:00	2020-11-25T21:31:54-08:00	2020-11-26T05:59:17+00:00	2020-12-01T07:59:59+00:00	-4	yds6lnwftbmtmv2@marketplace.amazon.com	Gretchyn Edwards	+1 346-307-9643 ext. 58872	ABR0022	Delivery by Monday | Arabella Farm Direct Bouquet of 12 Fresh Cut Pink Roses with a Free Glass Vase	1	0	1	Expedited	Glenna Ehrlich	1017 NW 79TH CIR			VANCOUVER	WA	98665-6998	US		Congratulations on your very last immunotherapy treatment!!! We're so proud of you and we love you bunches. Can't wait to be living just up the road from you guys. See you SOON and WAY TO GO, GOMMIE!!! From Gretch, Jim, Julian	false		
111-9879283-9229844	66531763482634	2020-11-25T19:16:12+00:00	2020-11-25T11:16:12-08:00	2020-11-26T06:04:37+00:00	2020-12-01T07:59:59+00:00	-4	ckgnj8mxch2t8wc@marketplace.amazon.com	greg gavin	+1 346-307-9643 ext. 75493	ABR0055	Delivery by Friday | Arabella Farm Direct Bouquet of 12 Stems of Fresh Cut Hot Pink Roses in a Free Designer Glass Vase	1	0	1	Expedited	debbie marcum	3860 ROJO TIERRA RD			LA MESA	CA	91941-7925	US		Thinking of you!! From greg gavin	false		
113-7128731-8410613	52953217060618	2020-11-26T07:42:14+00:00	2020-11-25T23:42:14-08:00	2020-11-26T08:12:39+00:00	2020-12-01T07:59:59+00:00	-4	t90qd4qkghxg82r@marketplace.amazon.com	william decker	+1 415-419-8616 ext. 07125	ABM022	Delivery by Monday | Purple Extravagance Bouquet by Arabella Bouquets	1	0	1	Expedited	eRedy cahill	1216 ALLAIRE RD APT D			SPRING LAKE	NJ	07762-2458	US			false		
111-3676721-4421027	30280487986794	2020-11-26T08:17:50+00:00	2020-11-26T00:17:50-08:00	2020-11-26T08:24:21+00:00	2020-12-01T07:59:59+00:00	-4	07d79sldfq958n2@marketplace.amazon.com	Randi Schmidling	+1 480-618-5344 ext. 85220	ABR012	Delivery by Monday | Arabella Farm Direct Bouquet of 18 Fresh Cut Pink Roses with a Free Glass Vase	1	0	1	Expedited	Randi Schmidling	221 LETHA LN			SEQUIM	WA	98382-9486	US		Hi aunt Sunny I hope you are feeling better I know it’s not going to be easy I know the feeling I know it hurts but I promise it will get better just know that you are surrounded by people they love you sooo much we love. From Sammy, Miyah & Randi	false		
113-9591569-5300230	54118145830746	2020-11-26T08:49:29+00:00	2020-11-26T00:49:29-08:00	2020-11-26T09:19:15+00:00	2020-12-01T07:59:59+00:00	-4	fz41h0t83wv2tg0@marketplace.amazon.com	Echeverrias	+1 763-225-9463 ext. 08257	ABR0055	Delivery by Monday | Arabella Farm Direct Bouquet of 12 Stems of Fresh Cut Hot Pink Roses in a Free Designer Glass Vase	1	0	1	Expedited	Korbin	4758 HIGHWAY 4 E			COLUMBIA	LA	71418-3514	US			false		
112-3013987-8318609	07373986213074	2020-11-26T09:13:56+00:00	2020-11-26T01:13:56-08:00	2020-11-26T09:33:11+00:00	2020-12-01T07:59:59+00:00	-4	y7p6sh29hk9qd9v@marketplace.amazon.com	shoshi	+1 415-851-9136 ext. 21410	ABR0066	Delivery by Monday | Arabella Bouquets 12 Stems of Fresh Cut White Roses in a Free Designer Glass Vase	1	0	1	Expedited	ANAT & EYAL AXELROD	6907 152ND AVE NE			REDMOND	WA	98052-4733	US		Dear Anat and Eyal, Many blessings for your 25th wedding anniversary. We wish you many more happy years together and with  the children  love and kisses  mother and father. From Mom and Dad	false		
114-8803370-9543426	36383940541010	2020-11-25T23:19:09+00:00	2020-11-25T15:19:09-08:00	2020-11-26T10:39:52+00:00	2020-12-01T07:59:59+00:00	-4	xkxh1xy4k16p5ky@marketplace.amazon.com	Johnny Victory	+1 213-442-1463 ext. 77821	ABR001	Delivery by Friday | Arabella Bouquets 12 Stems of Fresh Cut Red Roses in a Free Designer Glass Vase	1	0	1	Expedited	Lois J.Platner	314 Londen road	Lot 74		Saratoga springs	New York	12866	US			false		
111-8902067-8432226	24192079562746	2020-11-26T10:29:18+00:00	2020-11-26T02:29:18-08:00	2020-11-26T10:48:25+00:00	2020-12-01T07:59:59+00:00	-4	cjqxm1ftst789l3@marketplace.amazon.com	Luke levasseur	+1 480-618-5344 ext. 86496	ABR001	Delivery by Monday | Arabella Bouquets 12 Stems of Fresh Cut Red Roses in a Free Designer Glass Vase	1	0	1	Expedited	Samantha ozburn	4484 SW BOWSPRIT DR			LEES SUMMIT	MO	64082-4714	US		Samantha will you accept this rose or shall I say roses . You deserve gifts , I might have not showed effort with gifts while together but there always is time to start now , build up one at a time.I care about you a lot! From Luke	false		
112-5173188-6389834	01066492157930	2020-11-26T10:40:28+00:00	2020-11-26T02:40:28-08:00	2020-11-26T10:48:31+00:00	2020-12-01T07:59:59+00:00	-4	dj0cyt9gv461ygd@marketplace.amazon.com	asor	+1 619-854-2705 ext. 41159	ABM022	Delivery by Monday | Purple Extravagance Bouquet by Arabella Bouquets	1	0	1	Expedited	Susan M. Miller	1314 OAKDALE ST			HOUSTON	TEXAS	77004-5816	US		My dearest Susan, Happy Birthday! May you have a new year of your life full of travels and positive emotions! Love you so much, Nata From Nata	false		
112-3399094-9497831	51691667567746	2020-11-26T11:38:57+00:00	2020-11-26T03:38:57-08:00	2020-11-26T12:06:25+00:00	2020-12-01T07:59:59+00:00	-4	b5kpx56fpm79mjc@marketplace.amazon.com	David Halloway	+1 213-442-1463 ext. 09736	ABR012	Delivery by Monday | Arabella Farm Direct Bouquet of 18 Fresh Cut Pink Roses with a Free Glass Vase	1	0	1	Expedited	Anna Reichenberg	120 W 86TH ST APT 10B			NEW YORK	NY	10024-4011	US		Thinking of you lots Precious.  So much love xxxx From Mama and David	false		
113-6399962-2159449	12230188311386	2020-11-26T12:47:03+00:00	2020-11-26T04:47:03-08:00	2020-11-26T13:08:27+00:00	2020-12-01T07:59:59+00:00	-4	nq2l4ggtzd3xj9r@marketplace.amazon.com	Raymond Bantle	+1 213-442-1463 ext. 61597	ABM010	Delivery by Monday | The Everlasting Fling Bouquet by Arabella Bouquets with a Free Designer Glass Vase	1	0	1	Expedited	Liz Furman	1414 BENSCH DR			TOLEDO	OH	43614-2503	US		Have a Platinum Day! From Love, Ray & Marge	false		
112-0426227-6751429	68430848290162	2020-11-26T13:07:02+00:00	2020-11-26T05:07:02-08:00	2020-11-26T13:33:41+00:00	2020-12-01T07:59:59+00:00	-4	7m39lnvxlhksq0g@marketplace.amazon.com	Tracy Serra	+1 346-307-9643 ext. 23592	ABM0044	Delivery by Monday | Arabella Farm Direct Bouquet of Fresh Cut Blue Hydrangea with a Free Glass Vase	1	0	1	Expedited	Joni Chambers	12 CYPRESS LN			DOWNINGTOWN	PA	19335-3458	US		Happy 60th Birthday Joni! You go girl! We love you! Wishing you a beautiful day. :) Love, Tracy and Brooke From Tracy Serra	false		
111-7492268-1792200	49213330651658	2020-11-26T13:09:01+00:00	2020-11-26T05:09:01-08:00	2020-11-26T13:35:58+00:00	2020-12-01T07:59:59+00:00	-4	kwf90xb7136h416@marketplace.amazon.com	Lisa Yin	+1 213-442-1463 ext. 71762	ABM022	Delivery by Monday | Purple Extravagance Bouquet by Arabella Bouquets	1	0	1	Expedited	Kathi Masters	4115 BIG HORN BND			SAN ANTONIO	TX	78253-5480	US		Happy Birthday Grandma! From Love, Eric Lisa Zoey Aria Turtle Gunner	false		
113-3929634-0284202	12594908064762	2020-11-26T13:25:07+00:00	2020-11-26T05:25:07-08:00	2020-11-26T13:49:55+00:00	2020-12-01T07:59:59+00:00	-4	3yg20f5wzkqrxzl@marketplace.amazon.com	Jeffrey Archer	+1 415-419-8616 ext. 98329	ABR0022	Delivery by Monday | Arabella Farm Direct Bouquet of 12 Fresh Cut Pink Roses with a Free Glass Vase	1	0	1	Expedited	Kay Frantz	9994 LA MESA DR			FRISCO	TX	75033-8309	US		Kay Thank you very much for your help last week with Mom and Dad. We appreciate your help and thank you so much!  Love Jeffrey and Leslie From Jeffrey Archer	false		
112-2775865-5227459	02089543872818	2020-11-26T13:42:46+00:00	2020-11-26T05:42:46-08:00	2020-11-26T14:12:23+00:00	2020-12-01T07:59:59+00:00	-4	59dv7yr51xcgbt0@marketplace.amazon.com	jessica plumley	+1 415-419-8616 ext. 15804	ABR0022	Delivery by Monday | Arabella Farm Direct Bouquet of 12 Fresh Cut Pink Roses with a Free Glass Vase	1	0	1	Expedited	Jessica Plumley	1409 2ND ST			PORTSMOUTH	OH	45662-4604	US			false		
112-1798813-9796200	47592389650794	2020-11-26T14:10:21+00:00	2020-11-26T06:10:21-08:00	2020-11-26T14:28:11+00:00	2020-12-01T07:59:59+00:00	-4	m49sqf7kqm57bl0@marketplace.amazon.com	amazon kennedy	+1 346-307-9643 ext. 78254	ABR0022	Delivery by Monday | Arabella Farm Direct Bouquet of 12 Fresh Cut Pink Roses with a Free Glass Vase	1	0	1	Expedited	Jacqueline kennedy	4800 BUSHLAND BLVD			AMARILLO	TX	79106-5534	US		Happy birthday Jacqueline, Enjoy your gift! From mom and dad	false		
112-9671391-9635444	19518218447362	2020-11-26T14:10:00+00:00	2020-11-26T06:10:00-08:00	2020-11-26T14:40:36+00:00	2020-12-01T07:59:59+00:00	-4	145qc35hpy910y9@marketplace.amazon.com	Jade Wolfe	+1 929-436-4790 ext. 38263	ABR0022	Delivery by Monday | Arabella Farm Direct Bouquet of 12 Fresh Cut Pink Roses with a Free Glass Vase	1	0	1	Expedited	Jade Wolfe	1 TAFT ST			ESSEX JUNCTION	VT	05452-3150	US			false		
113-5554346-5780239	41633649654442	2020-11-26T14:59:45+00:00	2020-11-26T06:59:45-08:00	2020-11-26T15:27:52+00:00	2020-12-01T07:59:59+00:00	-4	x3d66fmlykfv3y7@marketplace.amazon.com	Chris P. Meloy	+1 346-307-9643 ext. 30291	ABM022	Delivery by Monday | Purple Extravagance Bouquet by Arabella Bouquets	1	0	1	Expedited	Ramona Parker	6535 AUTUMN RIDGE WAY			HOSCHTON	GA	30548-8603	US		Enjoy your gift! Happy Birthday mom. 🎂🎉❤️ Love you. From Chris P. Meloy	false		
114-7537070-8063421	38499690069058	2020-11-26T14:58:54+00:00	2020-11-26T06:58:54-08:00	2020-11-26T15:28:13+00:00	2020-12-01T07:59:59+00:00	-4	b4v5lbhmvnfwpg7@marketplace.amazon.com	Mike Rhodes	+1 602-671-6610 ext. 51620	ABR0022	Delivery by Monday | Arabella Farm Direct Bouquet of 12 Fresh Cut Pink Roses with a Free Glass Vase	1	0	1	Expedited	Carrie & Garrett Strawn	108 INVERNESS RD			ATHENS	GA	30606-1302	US			false		
112-4644681-2003439	32837759555994	2020-11-26T15:23:36+00:00	2020-11-26T07:23:36-08:00	2020-11-26T15:49:54+00:00	2020-12-01T07:59:59+00:00	-4	vgmwqnz5jfk3f5s@marketplace.amazon.com	Caitlyn	+1 619-854-2705 ext. 86377	ABR0033	Delivery by Monday | Arabella Farm Direct Bouquet of 12 Fresh Cut Orange Roses with a Free Glass Vase	1	0	1	Expedited	Momma (Patricia Smith)	3715 ROCKY HILL RD			URIAH	AL	36480-3144	US		HAPPY BIRTHDAY! Love you  🥳🎂 From Caitlyn	false		
112-0434020-2126617	18664712022010	2020-11-26T15:24:37+00:00	2020-11-26T07:24:37-08:00	2020-11-26T15:53:49+00:00	2020-12-01T07:59:59+00:00	-4	qfq01vbphcntr3n@marketplace.amazon.com	Jake Heather	+1 763-225-9463 ext. 00719	ABM010	Delivery by Monday | The Everlasting Fling Bouquet by Arabella Bouquets with a Free Designer Glass Vase	1	0	1	Expedited	Jennie Bustamante	4329 MALAGA ST			LAS CRUCES	NM	88011-4341	US		Prayers for a speedy recovery! XOXO From Jake And Clayton	false		
112-6898263-0989047	41107762023130	2020-11-26T15:26:28+00:00	2020-11-26T07:26:28-08:00	2020-11-26T15:56:28+00:00	2020-12-01T07:59:59+00:00	-4	r0fmyqxsp6851tk@marketplace.amazon.com	Donald Goodwin	+1 763-225-9463 ext. 80133	ABM022	Delivery by Monday | Purple Extravagance Bouquet by Arabella Bouquets	1	0	1	Expedited	Alicia Leverett	140 WATSON DR			ATHENS	GA	30605-3738	US			false		
114-4685038-1413023	45284844436466	2020-11-26T15:31:38+00:00	2020-11-26T07:31:38-08:00	2020-11-26T16:02:07+00:00	2020-12-01T07:59:59+00:00	-4	2xvyvlq5lyzfyyz@marketplace.amazon.com	Darlene Drake	+1 415-419-8616 ext. 89316	ABR0022	Delivery by Monday | Arabella Farm Direct Bouquet of 12 Fresh Cut Pink Roses with a Free Glass Vase	1	0	1	Expedited	Darlene Drake	420 WILTON AVE			YOUNGSTOWN	OH	44505-3545	US		To Donna with love. Darlene & Saraya	false		
113-8166889-4800252	68168709689890	2020-11-26T15:48:47+00:00	2020-11-26T07:48:47-08:00	2020-11-26T16:13:59+00:00	2020-12-01T07:59:59+00:00	-4	5c3gpzw6y98nvqh@marketplace.amazon.com	Marivic	+1 602-671-6610 ext. 65981	ABR0022	Delivery by Monday | Arabella Farm Direct Bouquet of 12 Fresh Cut Pink Roses with a Free Glass Vase	1	0	1	Standard	VICKY Athukorala	10308 HUXLEY CROSS LN			LAS VEGAS	NV	89144-1363	US		Happy birthday!! ❤️ From Marivic	false		
111-9149622-9709041	44654582294330	2020-11-26T16:16:18+00:00	2020-11-26T08:16:18-08:00	2020-11-26T16:41:01+00:00	2020-12-01T07:59:59+00:00	-4	zw349p2hrtnqmmc@marketplace.amazon.com	Casey Stevens	+1 415-851-9136 ext. 41105	ABM020	Delivery by Monday | The Sunset Bouquet by Arabella Bouquets	1	0	1	Expedited	Vilma Stevens	34111 KENTUCKY DERBY PL			DADE CITY	FL	33525-8635	US			false		
113-9803954-3321061	27996073617426	2020-11-26T16:32:39+00:00	2020-11-26T08:32:39-08:00	2020-11-26T16:59:30+00:00	2020-12-01T07:59:59+00:00	-4	vhxtv42jjnmt46t@marketplace.amazon.com	Silvana Kaliane	+1 602-671-6610 ext. 09933	ABM010	Delivery by Monday | The Everlasting Fling Bouquet by Arabella Bouquets with a Free Designer Glass Vase	1	0	1	Expedited	Avery Beeson	404 MILLS AVE			SPARTANBURG	SC	29302-2745	US		Happy Birthday, Ms. Beeson!! 🥳 We love you and miss you!!!! 💝 XOXO Bê F., Leti, Valentina A. and Valentina R. From Silvana Kaliane	false		
114-2446175-4534646	06209991019034	2020-11-26T16:40:05+00:00	2020-11-26T08:40:05-08:00	2020-11-26T17:06:52+00:00	2020-12-01T07:59:59+00:00	-4	j61mrq9653tbndt@marketplace.amazon.com	Tiffanie Kimball	+1 480-618-5344 ext. 79823	ABR0033	Delivery by Monday | Arabella Farm Direct Bouquet of 12 Fresh Cut Orange Roses with a Free Glass Vase	1	0	1	Expedited	Susan Henry	14820 N WESTERN AVE			GARDENDALE	TX	79758-4034	US		Susan, I'm so sorry that you lost your mother at this time of year.  I am grateful she was a wonderful mother to you, and I know that through the power of the Savior you will be reunited one day. Prayers, From Tiffanie Kimball	false		
113-5991521-2065850	40276671724378	2020-11-26T16:39:20+00:00	2020-11-26T08:39:20-08:00	2020-11-26T17:07:02+00:00	2020-12-01T07:59:59+00:00	-4	ykylwl485rfj1v1@marketplace.amazon.com	Jennifer	+1 763-225-9463 ext. 17612	ABM020	Delivery by Monday | The Sunset Bouquet by Arabella Bouquets	1	0	1	Expedited	Margaret Hasskamp	2615 COUNTY ROAD 4106			KAUFMAN	TX	75142-6139	US		Happy retirement! Love, Jenn and Esther From Jennifer and Esther	false		
112-1985342-5633021	30181598626210	2020-11-26T16:58:26+00:00	2020-11-26T08:58:26-08:00	2020-11-26T17:23:22+00:00	2020-12-01T07:59:59+00:00	-4	ftz68wjp5jdpyt3@marketplace.amazon.com	Marylou R. Lewis	+1736990959	ABR0033	Delivery by Monday | Arabella Farm Direct Bouquet of 12 Fresh Cut Orange Roses with a Free Glass Vase	1	0	1	Expedited	Cheryl Scriven	952 LINCOLN AVE			PISCATAWAY	NJ	08854-5058	US		EnDear Cheryl, We started out as team members but grew to become dear friends. Congratulations on your retirement. Enjoy every new day! Love, Marylou and Noel From Marylou R. Lewis	false		
111-3416140-3673861	41911347485090	2020-11-26T17:09:57+00:00	2020-11-26T09:09:57-08:00	2020-11-26T17:34:21+00:00	2020-12-01T07:59:59+00:00	-4	3tk3bsv0cf3mz0s@marketplace.amazon.com	Kwami Jones	+1 415-851-9136 ext. 36914	ABR001	Delivery by Monday | Arabella Bouquets 12 Stems of Fresh Cut Red Roses in a Free Designer Glass Vase	1	0	1	Expedited	Kirby Coutinho	2355 CLYDES DALE LN			MISSOULA	MT	59804-9783	US		Hi Kirby,  Happy one year! I hope you enjoy these beautiful roses. From Kwami	false		
113-8489885-9445815	41226437255074	2020-11-26T17:21:18+00:00	2020-11-26T09:21:18-08:00	2020-11-26T17:50:19+00:00	2020-12-01T07:59:59+00:00	-4	y5dbb0cp0kckwys@marketplace.amazon.com	Valerie Yager	+1 415-851-9136 ext. 85362	ABM025	Delivery by Monday | The Fell for You Bouquet by Arabella Bouquets	1	0	1	Expedited	Susan Miller	879 COUNTY HIGHWAY 106			AMSTERDAM	NY	12010-6543	US		Happy Birthday!   Love, Mike & Valerie From Mike and Valerie	false		
112-7331327-2213002	27625679440002	2020-11-26T17:45:28+00:00	2020-11-26T09:45:28-08:00	2020-11-26T18:11:07+00:00	2020-12-01T07:59:59+00:00	-4	b95pw7vjndwvx0h@marketplace.amazon.com	Alice Jordan	+1 619-854-2705 ext. 53607	ABR0066	Delivery by Monday | Arabella Bouquets 12 Stems of Fresh Cut White Roses in a Free Designer Glass Vase	1	0	1	Expedited	Millie Jordan	13 Blue Spruce Way			Elkton	MD	21921	US		We’re thinking of you, and missing Mike during this time. From Love, Bob and Alice	false		
111-2910368-5900241	25761003689978	2020-11-26T17:45:56+00:00	2020-11-26T09:45:56-08:00	2020-11-26T18:16:12+00:00	2020-12-01T07:59:59+00:00	-4	nt5zgvdbcrknj50@marketplace.amazon.com	Thomas Neeson	+1 763-225-9463 ext. 71666	ABR012	Delivery by Monday | Arabella Farm Direct Bouquet of 18 Fresh Cut Pink Roses with a Free Glass Vase	1	0	1	Expedited	Thomas Neeson	2154 36TH AVE			SAN FRANCISCO	CA	94116-1645	US			false		
113-4744015-7747411	64601974680682	2020-11-26T17:51:00+00:00	2020-11-26T09:51:00-08:00	2020-11-26T18:16:20+00:00	2020-12-01T07:59:59+00:00	-4	70cdp71sw8pt8tf@marketplace.amazon.com	bill cooke	+1 213-442-1463 ext. 24605	ABR0022	Delivery by Monday | Arabella Farm Direct Bouquet of 12 Fresh Cut Pink Roses with a Free Glass Vase	1	0	1	Expedited	Dr Lili Sacks	SWEDISH FIRST HILL PRIMARY CARE	515 MINOR AVE STE 300		SEATTLE	WA	98104-2133	US			false		
113-5916941-2236257	62659422471362	2020-11-26T17:51:11+00:00	2020-11-26T09:51:11-08:00	2020-11-26T18:20:47+00:00	2020-12-01T07:59:59+00:00	-4	4kpfk47s74l5dm5@marketplace.amazon.com	Pamela Goodman	+1 602-671-6610 ext. 90402	ABR0022	Delivery by Monday | Arabella Farm Direct Bouquet of 12 Fresh Cut Pink Roses with a Free Glass Vase	1	0	1	Expedited	Shawn & Roberta Needleman	1001 CITY AVE EC 901			WYNNEWOOD	PA	19096-3902	US		DEAR SHAWN AND ROBERTA, I WAS SO SORRY TO HEAR ABOUT AUNT BEV. I KNOW WHAT A WONDERFUL WOMAN SHE WAS AND HOW CLOSE YOU WERE TO HER. I WILL KEEP YOU IN MY PRAYERS. WITH MUCH LOVE, PAM From Pamela Goodman	false		
114-3278405-5636224	08893914124786	2020-11-26T18:04:49+00:00	2020-11-26T10:04:49-08:00	2020-11-26T18:25:05+00:00	2020-12-01T07:59:59+00:00	-4	p1wjgv4f2l2hz1b@marketplace.amazon.com	misty arnold	+1 213-442-1463 ext. 96258	ABR0033	Delivery by Monday | Arabella Farm Direct Bouquet of 12 Fresh Cut Orange Roses with a Free Glass Vase	1	0	1	Expedited	Gma Duck	5750 N FRESNO ST APT 116			FRESNO	CA	93710-6014	US		I hope u like these bday flowers I picked out for u! I know u think that u'll never have a relationship w me bc of mom but u will. She loves u as much as u love her, she's just going thru it :(  We love you mama/gma Duck From Lucky & Baby Duck	false		
113-3062085-2264229	62651708463498	2020-11-26T18:26:29+00:00	2020-11-26T10:26:29-08:00	2020-11-26T18:27:24+00:00	2020-12-01T07:59:59+00:00	-4	vys5sv50nfs6kvd@marketplace.amazon.com	Shubhabrata Mukhopadhyay	+1 619-854-2705 ext. 00505	ABSR004	Delivery by Monday | Arabella Farm Direct Bouquet of Fresh Cut White Spray Roses with a Free Glass Vase	1	0	1	Standard	Robert Patterson	COGNOSOS INC 1100 SPRING ST NW	STE 300 A		ATLANTA	GA	30309-2825	US		Dear Robert,  Sorry about everything.. Please no hard feelings.. Sincere Apologies!   Best, Shreya From S Mukhopadhyay 770 330 3843, 404 793 0560	false		
113-2221095-6435409	33216769065354	2020-11-26T18:11:40+00:00	2020-11-26T10:11:40-08:00	2020-11-26T18:38:13+00:00	2020-12-01T07:59:59+00:00	-4	x06z52mq8hd52qp@marketplace.amazon.com	Lisa Osterman	+1 763-225-9463 ext. 61841	ABM0033	Delivery by Monday | Arabella Farm Direct Bouquet of Fresh Cut White Hydrangea with a Free Glass Vase	1	0	1	Expedited	Mrs. Don Van Schenck, MD	2950 HERITAGE OAK WAY			LODI	CA	95242-2057	US		HAPPY BIRTHDAY! WE LOVE YOU!!!! From LISA&RUSS NINA&ALEX	false		
111-6147692-3389850	57398724870258	2020-11-26T18:16:19+00:00	2020-11-26T10:16:19-08:00	2020-11-26T18:46:46+00:00	2020-12-01T07:59:59+00:00	-4	3vpcrbfqz9g8hx6@marketplace.amazon.com	Jerry L Cagle	+1 415-851-9136 ext. 34937	ABR004	Delivery by Monday | Arabella Farm Direct Bouquet of 12 Fresh Cut Yellow Roses with a Free Glass Vase	1	0	1	Expedited	Margaret Gillespie	2004 Aspen Dr			Alamogordo	NM	88310-4826	US			false		
112-8226662-2050622	11324600192586	2020-11-26T18:26:48+00:00	2020-11-26T10:26:48-08:00	2020-11-26T18:54:26+00:00	2020-12-01T07:59:59+00:00	-4	wszrxghvpj7n0kk@marketplace.amazon.com	Loretta Destefano	+1 415-851-9136 ext. 94781	ABM010	Delivery by Monday | The Everlasting Fling Bouquet by Arabella Bouquets with a Free Designer Glass Vase	1	0	1	Expedited	Jose Leandro IV	1603 BELVEDERE BLVD			SILVER SPRING	MD	20902-3901	US		Happy birthday Leslie! Love you.  Love, Mom	false		
113-1862179-7634652	59132429514546	2020-11-26T18:31:41+00:00	2020-11-26T10:31:41-08:00	2020-11-26T18:57:17+00:00	2020-12-01T07:59:59+00:00	-4	0xf6bvw8dztct19@marketplace.amazon.com	Chris Aley	+1 619-854-2705 ext. 29284	ABM010	Delivery by Monday | The Everlasting Fling Bouquet by Arabella Bouquets with a Free Designer Glass Vase	1	0	1	Expedited	Sunday Ferris	240 A STREET N			BUCKLEY	wA	98321	US			false		
111-8039675-4223464	07130200912842	2020-11-26T19:19:57+00:00	2020-11-26T11:19:57-08:00	2020-11-26T19:50:03+00:00	2020-12-01T07:59:59+00:00	-4	401qpf0zq6tw8ll@marketplace.amazon.com	Robert Wallwork	+1 929-436-4790 ext. 00723	ABM022	Delivery by Monday | Purple Extravagance Bouquet by Arabella Bouquets	1	0	1	Expedited	donna Wellington	1257 SE BIANCA ST # 2			HILLSBORO	OR	97123-5198	US			false		
112-9595210-8119403	59332809780802	2020-11-26T19:23:39+00:00	2020-11-26T11:23:39-08:00	2020-11-26T19:52:10+00:00	2020-12-01T07:59:59+00:00	-4	26p3tyx66jp91mr@marketplace.amazon.com	john s clarke	+1 602-671-6610 ext. 06021	ABM010	Delivery by Monday | The Everlasting Fling Bouquet by Arabella Bouquets with a Free Designer Glass Vase	1	0	1	Expedited	john f golden	31279 QUARTER HORSE RD			EVERGREEN	CO	80439-7948	US		Thank you for Thanksgiving!  John and Nancy From john s clarke	false		
114-5886266-9440242	32071503844402	2020-11-26T19:58:48+00:00	2020-11-26T11:58:48-08:00	2020-11-26T20:27:35+00:00	2020-12-01T07:59:59+00:00	-4	xfhxs9t7s5hblq2@marketplace.amazon.com	louise robertson	0015402399291	ABM022	Delivery by Monday | Purple Extravagance Bouquet by Arabella Bouquets	1	0	1	Standard	Carol Dickerson	202 E.Walter Raleigh Dr.	Kill Devil Hills		Kill Devil Hills	NC	27948	US			false		
113-1879190-4492267	15557789014330	2020-11-26T19:59:28+00:00	2020-11-26T11:59:28-08:00	2020-11-26T20:29:13+00:00	2020-12-01T07:59:59+00:00	-4	2pqdgvl2w34kc9p@marketplace.amazon.com	Victoria Martin	+1 619-854-2705 ext. 24742	ABR0033	Delivery by Monday | Arabella Farm Direct Bouquet of 12 Fresh Cut Orange Roses with a Free Glass Vase	1	0	1	Expedited	Victoria Martin	8301 MISSION GORGE RD SPC 227			SANTEE	CA	92071-3591	US			false		
113-8612254-4497066	17968969183698	2020-11-26T20:14:30+00:00	2020-11-26T12:14:30-08:00	2020-11-26T20:40:11+00:00	2020-12-01T07:59:59+00:00	-4	syc4ty5s5smj3p7@marketplace.amazon.com	Riei McCann	+1 619-854-2705 ext. 37332	ABR0022	Delivery by Monday | Arabella Farm Direct Bouquet of 12 Fresh Cut Pink Roses with a Free Glass Vase	1	0	1	Expedited	Yoshiko Wada	4366 MILLER CT			PALO ALTO	CA	94306-4412	US		Happy Birthday, Wada-san! God Bless, Mark, Riei, Hikari, Chishio & Yuhi McCann From Riei McCann	false		
111-7130551-0881004	44714622077186	2020-11-26T20:13:58+00:00	2020-11-26T12:13:58-08:00	2020-11-26T20:40:21+00:00	2020-12-01T07:59:59+00:00	-4	cgywkt019v6b6tg@marketplace.amazon.com	Erika Johnson	+1 415-419-8616 ext. 23784	ABM025	Delivery by Monday | The Fell for You Bouquet by Arabella Bouquets	1	0	1	Expedited	Aunt Hazel	4222 Stalling Dr			Houston	Tx	77088	US		I hope these brighten your day, thinking of you!  xoxoxox Erika, Leah's friend from high school with the boisterous laugh! From Erika Johnson	false		
111-2662472-0826660	50867764309010	2020-11-26T20:15:22+00:00	2020-11-26T12:15:22-08:00	2020-11-26T20:43:28+00:00	2020-12-01T07:59:59+00:00	-4	l451905cfn76hn8@marketplace.amazon.com	diane mcnall	+1 213-442-1463 ext. 11160	ABR0022	Delivery by Monday | Arabella Farm Direct Bouquet of 12 Fresh Cut Pink Roses with a Free Glass Vase	1	0	1	Expedited	Jessica Walsh	74 JAMES ST			FAIRFIELD	CT	06824-6420	US		Enjoy your gift! Happy Birthday Jess! Love, Di From diane mcnall	false		
112-0548173-0538647	62424317094498	2020-11-26T20:50:47+00:00	2020-11-26T12:50:47-08:00	2020-11-26T21:16:28+00:00	2020-12-01T07:59:59+00:00	-4	t8dt34tmbl705qp@marketplace.amazon.com	Frank Summers	+1 346-307-9643 ext. 71011	ABR0022	Delivery by Monday | Arabella Farm Direct Bouquet of 12 Fresh Cut Pink Roses with a Free Glass Vase	1	0	1	Expedited	Ann Chalem	108 BROOKLINE ST			MORAGA	CA	94556-1017	US			false		
113-8889390-7592242	25305383083234	2020-11-26T21:04:08+00:00	2020-11-26T13:04:08-08:00	2020-11-26T21:33:57+00:00	2020-12-01T07:59:59+00:00	-4	gj12vg43j32vwjl@marketplace.amazon.com	patrick j. drumm	+1 602-671-6610 ext. 66788	ABM010	Delivery by Monday | The Everlasting Fling Bouquet by Arabella Bouquets with a Free Designer Glass Vase	1	0	1	Expedited	Brenda mcgroarty	111 HAMPDEN RD			UPPER DARBY	PA	19082-3109	US			false		
113-0506390-7412249	20529513595474	2020-11-26T21:16:39+00:00	2020-11-26T13:16:39-08:00	2020-11-26T21:46:58+00:00	2020-12-01T07:59:59+00:00	-4	jhgkhw866sy6ht7@marketplace.amazon.com	Dawn Sabatello	+1 213-442-1463 ext. 41601	ABR0055	Delivery by Monday | Arabella Farm Direct Bouquet of 12 Stems of Fresh Cut Hot Pink Roses in a Free Designer Glass Vase	1	0	1	Expedited	Dawn Sabatello	5002 WHISPERING HOLW			PALM BEACH GARDENS	FL	33418-3536	US			false		
113-4439186-4917818	61550780391386	2020-11-26T21:59:55+00:00	2020-11-26T13:59:55-08:00	2020-11-26T22:25:20+00:00	2020-12-01T07:59:59+00:00	-4	h1200zhrg93pg4c@marketplace.amazon.com	lauren vaughn	+1 619-854-2705 ext. 12763	ABR0033	Delivery by Monday | Arabella Farm Direct Bouquet of 12 Fresh Cut Orange Roses with a Free Glass Vase	1	0	1	Expedited	Erin Brooks-Vaughn	4 CONSTITUTION WAY			BASKING RIDGE	NJ	07920-2955	US		Happy first Thanksgiving as a family 3!! Love you guys! From Auntie Lauren	false		
113-2944674-1254631	56252686809706	2020-11-26T22:14:51+00:00	2020-11-26T14:14:51-08:00	2020-11-26T22:32:41+00:00	2020-12-01T07:59:59+00:00	-4	xlv637q8hz23jhg@marketplace.amazon.com	Tyran	+1 480-618-5344 ext. 99253	ABR0022	Delivery by Monday | Arabella Farm Direct Bouquet of 12 Fresh Cut Pink Roses with a Free Glass Vase	1	0	1	Expedited	Telicia Blunt	2825 S MAIN ST NW APT 549			KENNESAW	GA	30144-2952	US		Happy Bday Beautiful! Made it another year and still as beautiful as ever! Love you and hope you enjoy YOUR Day! From Hubby	false		
112-1877088-2824230	18170005177474	2020-11-26T22:16:20+00:00	2020-11-26T14:16:20-08:00	2020-11-26T22:41:56+00:00	2020-12-01T07:59:59+00:00	-4	wpdp6wzfflq9t1h@marketplace.amazon.com	Connie Romano	+1 602-671-6610 ext. 77865	ABM022	Delivery by Monday | Purple Extravagance Bouquet by Arabella Bouquets	1	0	1	Expedited	Amanda Cee	2807 S 47TH ST			MILWAUKEE	WI	53219-3431	US		Congrats to you and AJ!   Love Sad and Connie From Connie Romano	false		
111-8069466-8062664	37709094896298	2020-11-25T17:16:20+00:00	2020-11-25T09:16:20-08:00	2020-11-26T23:19:44+00:00	2020-12-01T07:59:59+00:00	-4	9vcgqdnjz3kdnb3@marketplace.amazon.com	Barbara Eddings	+1 602-671-6610 ext. 83145	ABM022	Delivery by Monday | Purple Extravagance Bouquet by Arabella Bouquets	1	0	1	Expedited	Karen Beelow	29300 North Hwy 83			Mundelein	Illinois	60060	US			false		
113-5462300-4557055	09030855227082	2020-11-26T22:57:49+00:00	2020-11-26T14:57:49-08:00	2020-11-26T23:22:06+00:00	2020-12-01T07:59:59+00:00	-4	xyn6sklqm0cl8fr@marketplace.amazon.com	Konner	+1 619-854-2705 ext. 08391	ABM0044	Delivery by Monday | Arabella Farm Direct Bouquet of Fresh Cut Blue Hydrangea with a Free Glass Vase	1	0	1	Expedited	Marlee	113 JEFFERSON TRL			HOPATCONG	NJ	07843-1517	US		I’m so blessed and honored to be yours ......... Every day I’m so thankful for you From Love Konner	false		
113-5462300-4557055	12404345698842	2020-11-26T22:57:49+00:00	2020-11-26T14:57:49-08:00	2020-11-26T23:22:06+00:00	2020-12-01T07:59:59+00:00	-4	xyn6sklqm0cl8fr@marketplace.amazon.com	Konner	+1 619-854-2705 ext. 08391	ABM010	Delivery by Monday | The Everlasting Fling Bouquet by Arabella Bouquets with a Free Designer Glass Vase	1	0	1	Expedited	Marlee	113 JEFFERSON TRL			HOPATCONG	NJ	07843-1517	US		Thinking of you....... Wanted you to get before  Your surgery so you can put them where and how you want them From Love Konner	false		
111-2655290-7845843	08265964914290	2020-11-26T23:16:03+00:00	2020-11-26T15:16:03-08:00	2020-11-26T23:45:53+00:00	2020-12-01T07:59:59+00:00	-4	x9lpx69v0pd6b3q@marketplace.amazon.com	Michael Hattaway	+1 602-671-6610 ext. 90088	ABM022	Delivery by Monday | Purple Extravagance Bouquet by Arabella Bouquets	1	0	1	Expedited	Shirley Hattaway	552 BELVEDERE RD NW			PALM BAY	FL	32907-2811	US			false		
114-5843212-5509034	63435203371410	2020-11-26T23:44:27+00:00	2020-11-26T15:44:27-08:00	2020-11-27T00:13:35+00:00	2020-12-01T07:59:59+00:00	-4	rt35vxkwfj8xgtp@marketplace.amazon.com	Donna Leahy	+1 346-307-9643 ext. 42236	ABR0033	Delivery by Monday | Arabella Farm Direct Bouquet of 12 Fresh Cut Orange Roses with a Free Glass Vase	1	0	1	Expedited	Joan Leahy	7330 CHARLES RD			ROME	NY	13440-0505	US		HaPpY BiRtHdAy Mom! From Love, Donna	false		
114-0395040-4422608	18941442204370	2020-11-26T23:55:53+00:00	2020-11-26T15:55:53-08:00	2020-11-27T00:23:07+00:00	2020-12-01T07:59:59+00:00	-4	vg5mb0kbyqkr6cx@marketplace.amazon.com	Alex Lee	+1 213-442-1463 ext. 35456	ABR0022	Delivery by Monday | Arabella Farm Direct Bouquet of 12 Fresh Cut Pink Roses with a Free Glass Vase	1	0	1	Expedited	Scott Pifer	900 RED MILLS RD F-4			WALLKILL	NY	12589-5200	US		Congratulations for your 29th wedding anniversary! From Class 149	false		
111-0121823-1944270	45600859165458	2020-11-27T00:27:33+00:00	2020-11-26T16:27:33-08:00	2020-11-27T00:52:13+00:00	2020-12-01T07:59:59+00:00	-4	y6h1gtwbk67j3lc@marketplace.amazon.com	Marvine Patrick	+1 415-419-8616 ext. 87480	ABR0022	Delivery by Monday | Arabella Farm Direct Bouquet of 12 Fresh Cut Pink Roses with a Free Glass Vase	1	0	1	Expedited	Bonnie Arnstead	2312 KENILWORTH PL			EVERETT	WA	98203-1573	US		Feel better soon, with love, Marty and Ron From Marvine Patrick	false		
113-3377502-1593019	13371675206778	2020-11-27T00:29:03+00:00	2020-11-26T16:29:03-08:00	2020-11-27T00:59:07+00:00	2020-12-01T07:59:59+00:00	-4	c4pnkg1cqmz147r@marketplace.amazon.com	Greg Schenck	+1 480-618-5344 ext. 41202	ABR0022	Delivery by Monday | Arabella Farm Direct Bouquet of 12 Fresh Cut Pink Roses with a Free Glass Vase	1	0	1	Expedited	Cisely Beard	3211 HAWTHORNE BLVD			ALTON	IL	62002-4311	US			false		
112-9334354-5137001	60424641036658	2020-11-27T00:44:47+00:00	2020-11-26T16:44:47-08:00	2020-11-27T01:14:02+00:00	2020-12-01T07:59:59+00:00	-4	fm5lyy5hcz4j8ps@marketplace.amazon.com	Kenneth C. Burkhardt Jr.	+1 480-618-5344 ext. 08455	ABR0022	Delivery by Monday | Arabella Farm Direct Bouquet of 12 Fresh Cut Pink Roses with a Free Glass Vase	1	0	1	Expedited	Kenneth C . Burkhardt Jr.	423 2ND AVE W			EAST NORTHPORT	NY	11731-3403	US		Dear Nicole, Happy anniversary! I love you so much! From Ken	false		
113-8712217-0435449	11643886030602	2020-11-27T01:26:23+00:00	2020-11-26T17:26:23-08:00	2020-11-27T01:55:16+00:00	2020-12-01T07:59:59+00:00	-4	hbr7dm13yndxg47@marketplace.amazon.com	constance smith	+1 763-225-9463 ext. 88216	ABM025	Delivery by Monday | The Fell for You Bouquet by Arabella Bouquets	1	0	1	Expedited	Fannie Patterson	4472 HALLTOWN RD			HARTLY	DE	19953-2604	US		Love you, Connie	false		
114-1368768-9797029	60608975302474	2020-11-27T02:15:53+00:00	2020-11-26T18:15:53-08:00	2020-11-27T02:44:59+00:00	2020-12-01T07:59:59+00:00	-4	2prhfc134kxt4cy@marketplace.amazon.com	Chad Menville	+1 213-442-1463 ext. 45213	ABM010	Delivery by Monday | The Everlasting Fling Bouquet by Arabella Bouquets with a Free Designer Glass Vase	1	0	1	Expedited	Jane Menville	119 HALLMARK AVE			LAFAYETTE	LA	70508-8043	US		Happy Birthday, Aunt Jane. I love you! From Chad Menville	false		
112-5987602-0121008	36950829650706	2020-11-27T02:31:43+00:00	2020-11-26T18:31:43-08:00	2020-11-27T02:58:44+00:00	2020-12-01T07:59:59+00:00	-4	ql67rb8d7c60kgm@marketplace.amazon.com	Kids Kindle	+1 619-854-2705 ext. 14244	ABR001	Delivery by Monday | Arabella Bouquets 12 Stems of Fresh Cut Red Roses in a Free Designer Glass Vase	1	0	1	Expedited	Riley	8230 N VIRGINIA AVE 64118			KANSAS CITY	MO	64118-1377	US		Enjoy!! ❤️ From Daniel!!	false		
111-1891680-3001828	24383291029554	2020-11-27T03:42:18+00:00	2020-11-26T19:42:18-08:00	2020-11-27T04:11:25+00:00	2020-12-01T07:59:59+00:00	-4	x6853wlbzk6pv83@marketplace.amazon.com	Karina Quiroz	+1 415-419-8616 ext. 77729	ABR0022	Delivery by Monday | Arabella Farm Direct Bouquet of 12 Fresh Cut Pink Roses with a Free Glass Vase	1	0	1	Expedited	Karina Quiroz	12410 Iroquois rd			Apple Valley	California	92308	US		Te queremos Mucho! Feliz Cumpleaños mami! From Karina, Justin, y baby Jace	false		
113-4616226-1824268	24787097092706	2020-11-27T03:42:19+00:00	2020-11-26T19:42:19-08:00	2020-11-27T04:12:14+00:00	2020-12-01T07:59:59+00:00	-4	1kzlhqt5qq99gb3@marketplace.amazon.com	Maikao Grare	+1 213-442-1463 ext. 30117	ABR0066	Delivery by Monday | Arabella Bouquets 12 Stems of Fresh Cut White Roses in a Free Designer Glass Vase	1	0	1	Expedited	Maikao Grare	5809 BROADWAY			OAKLAND	CA	94618-1524	US			false		
113-1066889-2625812	55039288933210	2020-11-27T04:24:24+00:00	2020-11-26T20:24:24-08:00	2020-11-27T04:51:28+00:00	2020-12-01T07:59:59+00:00	-4	5gmlpc6vvbtdrw7@marketplace.amazon.com	Charlotte	+1 415-851-9136 ext. 09894	ABM017	Delivery by Tuesday | Arabella Bouquets 10 Stems of Blue Dendrobium Orchids in a Free Designer Glass Vase	1	0	1	Expedited	Karen Pomer	52586 Idyllmont Road			Idyllwild	Ca	92549	US		Toda!  Muchicimas! Danke! Merci! Thank you! I am humbled From Charlotte	false		
114-5001481-9038606	65443229262394	2020-11-27T04:25:58+00:00	2020-11-26T20:25:58-08:00	2020-11-27T04:54:05+00:00	2020-12-01T07:59:59+00:00	-4	cwhtkk1ffbk8zms@marketplace.amazon.com	john bailey	+1 763-225-9463 ext. 63317	ABM020	Delivery by Monday | The Sunset Bouquet by Arabella Bouquets	1	0	1	Expedited	Rebecca Bailey	3413 STREET DR			JOHNSON CITY	TN	37604-2709	US			false		
112-0969940-3180219	31868865280474	2020-11-27T04:42:14+00:00	2020-11-26T20:42:14-08:00	2020-11-27T05:03:48+00:00	2020-12-01T07:59:59+00:00	-4	l6v3nd755qw993w@marketplace.amazon.com	Jonathan	+1 602-671-6610 ext. 42236	ABB006	Delivery by Monday | Arabella Bouquets | Farm Direct 48 Fresh Cut Red Roses	1	0	1	Expedited	Robyn  Biles	6414 WINDWOOD DR			COLLEGE STATION	TX	77845-3809	US		HAPPY BIRTHDAY..ROBYN From CHRISTY	false		
114-9655805-7426645	15988500351194	2020-11-27T04:51:38+00:00	2020-11-26T20:51:38-08:00	2020-11-27T05:18:29+00:00	2020-12-01T07:59:59+00:00	-4	qp2g3fgwgqjy6rl@marketplace.amazon.com	Art	+1 602-671-6610 ext. 76581	ABM010	Delivery by Monday | The Everlasting Fling Bouquet by Arabella Bouquets with a Free Designer Glass Vase	1	0	1	Expedited	Terri Graper	12355 ROUNDUP RD			PARKER	CO	80138-8432	US		Happy Birthday Terri! We hope your birthday is as special as you! Love, Art, Wendi, Kylee & Kaden From Grapera	false		
111-8344031-3527460	18515435619114	2020-11-27T04:59:06+00:00	2020-11-26T20:59:06-08:00	2020-11-27T05:27:44+00:00	2020-12-01T07:59:59+00:00	-4	3wrzly6wxx9lz6c@marketplace.amazon.com	bj porter	+1 619-854-2705 ext. 80744	ABM010	Delivery by Monday | The Everlasting Fling Bouquet by Arabella Bouquets with a Free Designer Glass Vase	1	0	1	Expedited	Brittany Livingston	14720 4TH ST APT 220			LAUREL	MD	20707-3759	US		Welcoming Baby Tyson with lots of love!  Auntie Ziky From Ziky Ababiya	false		
114-8822946-4765864	31019457975170	2020-11-27T05:02:10+00:00	2020-11-26T21:02:10-08:00	2020-11-27T05:31:28+00:00	2020-12-01T07:59:59+00:00	-4	rk744kmdf3q5677@marketplace.amazon.com	wayne bergeron	+1 415-851-9136 ext. 06113	ABR0033	Delivery by Monday | Arabella Farm Direct Bouquet of 12 Fresh Cut Orange Roses with a Free Glass Vase	1	0	1	Expedited	jessica carlson	91 LAUREL CREEK DR			ASHEVILLE	NC	28803-9557	US		Have a great start to your week From You know who	false		
114-6095169-0166605	50378522079858	2020-11-27T05:03:06+00:00	2020-11-26T21:03:06-08:00	2020-11-27T05:33:06+00:00	2020-12-01T07:59:59+00:00	-4	rk744kmdf3q5677@marketplace.amazon.com	wayne bergeron	+1 602-671-6610 ext. 25114	ABR0022	Delivery by Monday | Arabella Farm Direct Bouquet of 12 Fresh Cut Pink Roses with a Free Glass Vase	1	0	1	Expedited	Cynthia A Denton	46551 Schimmel			Utica	Mi	48317	US		Feel better Mom From wayne bergeron	false		
114-0957605-8821857	09675680498218	2020-11-27T05:19:27+00:00	2020-11-26T21:19:27-08:00	2020-11-27T05:39:49+00:00	2020-12-01T07:59:59+00:00	-4	ffh0bg6g59f5pld@marketplace.amazon.com	jamila seede	+1 346-307-9643 ext. 88951	ABM022	Delivery by Monday | Purple Extravagance Bouquet by Arabella Bouquets	1	0	1	Expedited	Dr Ehsan Youness	1405 E MOUNTAIN ST			GLENDALE	CA	91207-1223	US		Happy Thanksgiving! Wishing you a beautiful celebration! May God grant you peace, love and good health From Lena	false		
111-6879693-9689023	66001559860762	2020-11-27T05:25:33+00:00	2020-11-26T21:25:33-08:00	2020-11-27T05:50:11+00:00	2020-12-01T07:59:59+00:00	-4	lx475j4fd612f09@marketplace.amazon.com	Chris Vargas	+1 415-419-8616 ext. 32480	ABM010	Delivery by Monday | The Everlasting Fling Bouquet by Arabella Bouquets with a Free Designer Glass Vase	1	0	1	Expedited	Liz Bandera	1091 S WEST AVE			WAUKEGAN	IL	60085-8612	US		I love you! Stay strong. From Gustavo Ocampo	false		
114-7079100-2907429	32595583550546	2020-11-27T05:39:22+00:00	2020-11-26T21:39:22-08:00	2020-11-27T06:08:51+00:00	2020-12-01T07:59:59+00:00	-4	y068h8drdt6t3tr@marketplace.amazon.com	Viviana Jaramillo	+1 602-671-6610 ext. 17398	ABR001	Delivery by Monday | Arabella Bouquets 12 Stems of Fresh Cut Red Roses in a Free Designer Glass Vase	1	0	1	Expedited	Elen Gallego	145 AVOCADO CRST			ESCONDIDO	CA	92025-6601	US		Happy Birthday:  Love, Andy, Viviana, Paul and Veronica. From Viviana Jaramillo	false		
113-2357243-9190611	22353360498842	2020-11-27T05:43:46+00:00	2020-11-26T21:43:46-08:00	2020-11-27T06:11:02+00:00	2020-12-01T07:59:59+00:00	-4	yq57w2g42x4lzvq@marketplace.amazon.com	Owen Mooney	+1 480-618-5344 ext. 74428	ABR012	Delivery by Monday | Arabella Farm Direct Bouquet of 18 Fresh Cut Pink Roses with a Free Glass Vase	1	0	1	Expedited	Owen & Renee Hammasi Mooney	3413 HILLVIEW RD			AUSTIN	TX	78703-1130	US		Congratulations. Owen From Owen Mooney	false		
113-2357243-9190611	60695305975346	2020-11-27T05:43:46+00:00	2020-11-26T21:43:46-08:00	2020-11-27T06:11:02+00:00	2020-12-01T07:59:59+00:00	-4	yq57w2g42x4lzvq@marketplace.amazon.com	Owen Mooney	+1 480-618-5344 ext. 74428	ABR0066	Delivery by Monday | Arabella Bouquets 12 Stems of Fresh Cut White Roses in a Free Designer Glass Vase	1	0	1	Expedited	Owen & Renee Hammasi Mooney	3413 HILLVIEW RD			AUSTIN	TX	78703-1130	US		Enjoy. Owen From Owen Mooney	false		
112-8064137-4088242	23029487512890	2020-11-27T05:47:22+00:00	2020-11-26T21:47:22-08:00	2020-11-27T06:17:12+00:00	2020-12-01T07:59:59+00:00	-4	qcgv5xx5zx5lwjb@marketplace.amazon.com	Vanessa Guerra		ABM020	Delivery by Monday | The Sunset Bouquet by Arabella Bouquets	1	0	1	Expedited	VANESSA GUERRA	2712 RICHARD AVE			CONCORD	CA	94520	US		Feliz Cumpleanos! From Vanessa y Carrie	false		
114-1098676-8546654	57541870282482	2020-11-27T06:05:11+00:00	2020-11-26T22:05:11-08:00	2020-11-27T06:34:01+00:00	2020-12-01T07:59:59+00:00	-4	3p00g9qz44hwjl4@marketplace.amazon.com	Kathy Kestin	+1 213-442-1463 ext. 36047	ABM020	Delivery by Monday | The Sunset Bouquet by Arabella Bouquets	1	0	1	Expedited	Jackie Falconer	1070 BELLA VISTA BLVD APT 122			ST AUGUSTINE	FL	32084-1294	US		Happy Birthday Jax!  Hoping to celebrate with you sometime soon.  We love and miss you. From Kat, Rob and Julz	false		
113-0592597-6857865	43843358334506	2020-11-27T06:44:06+00:00	2020-11-26T22:44:06-08:00	2020-11-27T07:07:11+00:00	2020-12-01T07:59:59+00:00	-4	lbn1nwrqyphzvk9@marketplace.amazon.com	Mateo Tilley	+1 346-307-9643 ext. 00411	ABR0022	Delivery by Monday | Arabella Farm Direct Bouquet of 12 Fresh Cut Pink Roses with a Free Glass Vase	1	0	1	Expedited	Mathew Tilley	2918 W 1ST ST			SIOUX CITY	IA	51103-3910	US		To love of my life. Thank you for your kindness, your gracious heart, your faith in God and your love for me. I am truly honored and blessed.	false		
113-4354907-5743434	12674985761226	2020-11-27T07:29:32+00:00	2020-11-26T23:29:32-08:00	2020-11-27T07:59:47+00:00	2020-12-01T07:59:59+00:00	-4	wp2kgfh276zy9qc@marketplace.amazon.com	steve april	+1 619-854-2705 ext. 87186	ABR0022	Delivery by Monday | Arabella Farm Direct Bouquet of 12 Fresh Cut Pink Roses with a Free Glass Vase	1	0	1	Expedited	Maxine Cohen	670 NORTHERN AVE			MILL VALLEY	CA	94941-3934	US			false		
113-2006015-0555438	53315132480906	2020-11-27T07:34:18+00:00	2020-11-26T23:34:18-08:00	2020-11-27T08:04:29+00:00	2020-12-01T07:59:59+00:00	-4	b1cx42qnmmx6xl8@marketplace.amazon.com	Frederick Taylor	+1 480-618-5344 ext. 58350	ABM010	Delivery by Monday | The Everlasting Fling Bouquet by Arabella Bouquets with a Free Designer Glass Vase	1	0	1	Expedited	Holly Taylor	20434 KENNETH LAINER DR			MONUMENT	CO	80132-8300	US			false		
111-7906577-9223417	35523492698114	2020-11-27T08:01:07+00:00	2020-11-27T00:01:07-08:00	2020-11-27T08:27:25+00:00	2020-12-01T07:59:59+00:00	-4	fr19tzr7m15nycz@marketplace.amazon.com	Blake M Steele	+1 480-618-5344 ext. 04391	ABR001	Delivery by Monday | Arabella Bouquets 12 Stems of Fresh Cut Red Roses in a Free Designer Glass Vase	1	0	1	Expedited	Christine Horsager	900 N SHORELINE BLVD RM 1039			CORPUS CHRISTI	TX	78401-2009	US			false		
112-1127492-7439466	23994614395794	2020-11-27T11:26:11+00:00	2020-11-27T03:26:11-08:00	2020-11-27T11:48:51+00:00	2020-12-02T07:59:59+00:00	-5	nk395bs6hlgrlcn@marketplace.amazon.com	Stephanie S Vining	+1 213-442-1463 ext. 63795	ABR0033	Delivery by Monday | Arabella Farm Direct Bouquet of 12 Fresh Cut Orange Roses with a Free Glass Vase	1	0	1	Expedited	Audrey Gastmeyer	3520 BRIDGETON PARK DR			RALEIGH	NC	27612-4151	US		Thank you for EVERYTHING Audrey. You are an 😇 to Jason, myself, & my parents! I  enjoyed talking to you and thanks for letting me cry. Hope these 💐  remind you how much you mean to us and we are so very thankful FOR YOU! From Stephanie & Jason	true		
112-2111851-5971402	53210632542706	2020-11-27T11:26:58+00:00	2020-11-27T03:26:58-08:00	2020-11-27T11:56:32+00:00	2020-12-02T07:59:59+00:00	-5	t5f3mpzpxdx7019@marketplace.amazon.com	Francesca	+1 619-854-2705 ext. 41559	ABR0055	Delivery by Monday | Arabella Farm Direct Bouquet of 12 Stems of Fresh Cut Hot Pink Roses in a Free Designer Glass Vase	1	0	1	Expedited	Francesca E. Adonis	14017 157TH ST APT # 1			JAMAICA	NY	11434-4319	US			false		
112-2111851-5971402	21716678156138	2020-11-27T11:26:58+00:00	2020-11-27T03:26:58-08:00	2020-11-27T11:56:32+00:00	2020-12-02T07:59:59+00:00	-5	t5f3mpzpxdx7019@marketplace.amazon.com	Francesca	+1 619-854-2705 ext. 41559	ABB011	Delivery by Monday | Arabella Bouquets 24 Stems of Fresh Cut Hot Pink Roses in a Free Designer Glass Vase	1	0	1	Expedited	Francesca E. Adonis	14017 157TH ST APT # 1			JAMAICA	NY	11434-4319	US			false		
112-2111851-5971402	19910169682618	2020-11-27T11:26:58+00:00	2020-11-27T03:26:58-08:00	2020-11-27T11:56:32+00:00	2020-12-02T07:59:59+00:00	-5	t5f3mpzpxdx7019@marketplace.amazon.com	Francesca	+1 619-854-2705 ext. 41559	ABB013	Delivery by Monday | Arabella Bouquets | 24 Stems of Fresh Cut White Roses in a Free Designer Glass Vase	1	0	1	Expedited	Francesca E. Adonis	14017 157TH ST APT # 1			JAMAICA	NY	11434-4319	US			false		
113-3870192-5799456	61584906002106	2020-11-27T11:35:11+00:00	2020-11-27T03:35:11-08:00	2020-11-27T12:01:10+00:00	2020-12-02T07:59:59+00:00	-5	3jsmnzhq3lklclh@marketplace.amazon.com	Jonathan	+1 415-419-8616 ext. 51128	ABR0022	Delivery by Monday | Arabella Farm Direct Bouquet of 12 Fresh Cut Pink Roses with a Free Glass Vase	1	0	1	Expedited	Simone Walton	8738 NIGHT WIND LN			KELLER	TX	76244-4991	US		Enjoy your gift! From Jonathan Ynoa	false		
114-3736302-3590613	53104363688954	2020-11-27T11:51:27+00:00	2020-11-27T03:51:27-08:00	2020-11-27T12:19:18+00:00	2020-12-02T07:59:59+00:00	-5	wml1sqzwgnlpwvc@marketplace.amazon.com	Thomas Morgan	+1 415-419-8616 ext. 43519	ABM022	Delivery by Monday | Purple Extravagance Bouquet by Arabella Bouquets	1	0	1	Expedited	Mrs. Joan Morgan	309 PALMER LN			MC CORMICK	SC	29835-3215	US		Wishing you a wonderful Birthday!!  Love you, Tom & Chris	false		
111-6093749-9217060	68488578136618	2020-11-27T12:16:43+00:00	2020-11-27T04:16:43-08:00	2020-11-27T12:44:50+00:00	2020-12-02T07:59:59+00:00	-5	9dnrvd7rxswf6tn@marketplace.amazon.com	Chrystal		ABC001	Delivery by Monday | The Seasons Greetings Bouquet by Arabella Bouquets	1	0	1	Expedited	Sandra Hauser	8770 REVERE RUN			WEST CHESTER	OH	45069-3630	US		Happy Birthday Mom!!! You're beautiful and wonderful and I love you so much. See you this weekend. Hope you have a great day today..If they didnt listen to my request on what day to deliver, then happy early birthday :) From Chrystal-Sunshine	false		
111-5800092-5105043	45954346759746	2020-11-27T12:34:32+00:00	2020-11-27T04:34:32-08:00	2020-11-27T13:04:17+00:00	2020-12-02T07:59:59+00:00	-5	hh21mz9wmww8gsd@marketplace.amazon.com	Michele	+1 415-851-9136 ext. 42576	ABM031	Delivery by Monday | The Harvest Moon Bouquet by Arabella Bouquets	1	0	1	Expedited	Carole Jernigan	7014 HOMESTEAD AVE S SO			COTTAGE GROVE	MN	55016-1965	US		Happy Birthday! From Michele	false		
113-7624135-4800228	07095784054034	2020-11-27T13:18:01+00:00	2020-11-27T05:18:01-08:00	2020-11-27T13:44:05+00:00	2020-12-02T07:59:59+00:00	-5	0m94xfnwd7l2x48@marketplace.amazon.com	Omar	+1 415-851-9136 ext. 17156	ABR0022	Delivery by Monday | Arabella Farm Direct Bouquet of 12 Fresh Cut Pink Roses with a Free Glass Vase	1	0	1	Expedited	Dina	8446 SNOWDEN OAKS PL	LAUREL MD 20708 8446		LAUREL	MD	20708-2302	US		Que mi Dios me la bendiga.         Espero que le guste mi humilde detalle en gratitud de su trato hacia mi persona From Omar Salazar	false		
111-8773650-0934623	09903646674202	2020-11-27T13:15:37+00:00	2020-11-27T05:15:37-08:00	2020-11-27T13:46:05+00:00	2020-12-02T07:59:59+00:00	-5	tlrwtw8w8c22t36@marketplace.amazon.com	Mary Swiggum	+1 213-442-1463 ext. 56010	ABR001	Delivery by Monday | Arabella Bouquets 12 Stems of Fresh Cut Red Roses in a Free Designer Glass Vase	1	0	1	Expedited	Anne Scott	208 WINDWATCH DR			HAUPPAUGE	NY	11788-3356	US			false		
