order-id	order-item-id	purchase-date	payments-date	reporting-date	promise-date	days-past-promise	buyer-email	buyer-name	buyer-phone-number	sku	product-name	quantity-purchased	quantity-shipped	quantity-to-ship	ship-service-level	recipient-name	ship-address-1	ship-address-2	ship-address-3	ship-city	ship-state	ship-postal-code	ship-country	gift-wrap-type	gift-message-text	is-business-order	purchase-order-number	price-designation
111-4571331-0588255	08253834642618	2020-11-25T22:40:31+00:00	2020-11-25T14:40:31-08:00	2020-11-25T23:10:59+00:00	2020-12-01T07:59:59+00:00	-4	m80g49ksfk57r0l@marketplace.amazon.com	Cynthia R. Greene	+1 213-442-1463 ext. 39965	ABR001	Delivery by Friday | Arabella Bouquets 12 Stems of Fresh Cut Red Roses in a Free Designer Glass Vase	1	0	1	Expedited	Cynthia R. Greene	3310 N LEISURE WORLD BLVD APT 407			SILVER SPRING	MD	20906-5662	US			false		
113-3594403-1942657	44020576747794	2020-11-25T20:16:08+00:00	2020-11-25T12:16:08-08:00	2020-11-25T23:41:34+00:00	2020-12-01T07:59:59+00:00	-4	pc0tv8fnxwdqr6z@marketplace.amazon.com	RENETTE HORTON	+1 213-442-1463 ext. 20945	ABR0055	Delivery by Friday | Arabella Farm Direct Bouquet of 12 Stems of Fresh Cut Hot Pink Roses in a Free Designer Glass Vase	1	0	1	Expedited	Renette Horton	3209 BAKERS MILL POND RD			BETHUNE	SC	29009-9565	US		Happy Birthday, old man! From Blair	false		
113-4468299-7579452	62319291259394	2020-11-25T19:19:43+00:00	2020-11-25T11:19:43-08:00	2020-11-25T23:42:12+00:00	2020-12-01T07:59:59+00:00	-4	t3whkhxhqf1r0mr@marketplace.amazon.com	Coco Crabs	+1 619-854-2705 ext. 27501	ABM010	Delivery by Monday | The Everlasting Fling Bouquet by Arabella Bouquets with a Free Designer Glass Vase	1	0	1	Expedited	Sharon Miller	1150 MILL ST			SPRINGFIELD	OR	97477-3740	US			false		
112-8688616-5889809	45544278361746	2020-11-25T19:19:35+00:00	2020-11-25T11:19:35-08:00	2020-11-26T00:50:08+00:00	2020-12-01T07:59:59+00:00	-4	7gtczc72twg48pj@marketplace.amazon.com	Cheryl Magee	307	ABR0055	Delivery by Friday | Arabella Farm Direct Bouquet of 12 Stems of Fresh Cut Hot Pink Roses in a Free Designer Glass Vase	1	0	1	Expedited	Stephanie Magee	1324 GRAYSON VALLEY PKWY			BIRMINGHAM	AL	35235-3360	US		You are a warrior  Love, Cheryl and marge From Cheryl Magee	false		
112-3594767-7847432	18470350632962	2020-11-25T16:17:19+00:00	2020-11-25T08:17:19-08:00	2020-11-26T01:19:58+00:00	2020-12-01T07:59:59+00:00	-4	62fhdmb24pgj018@marketplace.amazon.com	Anna Swor	+1 619-854-2705 ext. 40650	ABR0022	Delivery by Friday | Arabella Farm Direct Bouquet of 12 Fresh Cut Pink Roses with a Free Glass Vase	1	0	1	Expedited	Troy and Charis Holmes	4811 CATHERINE TER			JACKSONVILLE	FL	32205-7101	US			false		
112-8705564-9001853	57487687068074	2020-11-25T18:28:21+00:00	2020-11-25T10:28:21-08:00	2020-11-26T01:32:29+00:00	2020-12-01T07:59:59+00:00	-4	pd59z7xy1zzwhbb@marketplace.amazon.com	Phillip Morales	+1 619-854-2705 ext. 75231	ABM010	Delivery by Monday | The Everlasting Fling Bouquet by Arabella Bouquets with a Free Designer Glass Vase	1	0	1	Expedited	MRS. REINHOLD P. MUELLER	32968 LYNX HOLLOW RD			CRESWELL	OR	97426-9350	US		You were wonderful!  A gift to him.  Phil Jr. From Phillip Morales	false		
114-2802185-3471409	42038527278378	2020-11-25T21:15:23+00:00	2020-11-25T13:15:23-08:00	2020-11-26T01:37:35+00:00	2020-12-01T07:59:59+00:00	-4	94bxxqhzdf45xq2@marketplace.amazon.com	Stephanie Van Denburg	+1 213-442-1463 ext. 35234	ABR0022	Delivery by Friday | Arabella Farm Direct Bouquet of 12 Fresh Cut Pink Roses with a Free Glass Vase	1	0	1	Expedited	Betty Spector	50 ARUNDEL PL			CLAYTON	MO	63105-2278	US			false		
112-9712557-1989809	17364721617634	2020-11-25T19:18:04+00:00	2020-11-25T11:18:04-08:00	2020-11-26T02:24:17+00:00	2020-12-01T07:59:59+00:00	-4	d7qx9zfkr9yt15h@marketplace.amazon.com	daniel r dixon	+1 415-851-9136 ext. 81999	ABR0033	Delivery by Friday | Arabella Farm Direct Bouquet of 12 Fresh Cut Orange Roses with a Free Glass Vase	1	0	1	Expedited	Daniel Dixon	219 SOUTHWOOD DR			MOCKSVILLE	NC	27028-4337	US			false		
113-4924271-8254635	25545892291850	2020-11-26T02:00:19+00:00	2020-11-25T18:00:19-08:00	2020-11-26T02:27:26+00:00	2020-12-01T07:59:59+00:00	-4	421qdkbsrbtk8c6@marketplace.amazon.com	Gudrun Napp	+1 415-419-8616 ext. 15025	ABM010	Delivery by Monday | The Everlasting Fling Bouquet by Arabella Bouquets with a Free Designer Glass Vase	1	0	1	Expedited	Helenita Jacobs	555 S NEVADA AVE			EAST WENATCHEE	WA	98802-9157	US			false		
114-3881681-2212260	46170941069482	2020-11-26T02:35:51+00:00	2020-11-25T18:35:51-08:00	2020-11-26T03:04:06+00:00	2020-12-01T07:59:59+00:00	-4	m7s8wszhmvj0g5m@marketplace.amazon.com	alan addis	+1 619-854-2705 ext. 22558	ABR001	Delivery by Monday | Arabella Bouquets 12 Stems of Fresh Cut Red Roses in a Free Designer Glass Vase	1	0	1	Expedited	Alan addis	3235 PARK MEADOWS DR UNIT A			BAKERSFIELD	CA	93308-9852	US			false		
113-0958489-0911407	35035887469354	2020-11-25T15:50:33+00:00	2020-11-25T07:50:33-08:00	2020-11-26T03:29:22+00:00	2020-12-01T07:59:59+00:00	-4	5xg87cmlvfttst1@marketplace.amazon.com	even steven	+1 602-671-6610 ext. 08900	ABR0022	Delivery by Friday | Arabella Farm Direct Bouquet of 12 Fresh Cut Pink Roses with a Free Glass Vase	1	0	1	Expedited	stephen m moore	39 crestview drive			orinda	ca	94563	US			false		
111-7715926-5636208	67097415539746	2020-11-25T20:37:52+00:00	2020-11-25T12:37:52-08:00	2020-11-26T03:41:56+00:00	2020-12-01T07:59:59+00:00	-4	sjyl95krgrtyx5g@marketplace.amazon.com	Pushpa	+1 213-442-1463 ext. 78721	ABM022	Delivery by Monday | Purple Extravagance Bouquet by Arabella Bouquets	1	0	1	Expedited	Pushpa	6375 MARLOW DR			CUMMING	GA	30041-6169	US			false		
114-0572033-3857020	33658613429658	2020-11-26T04:59:09+00:00	2020-11-25T20:59:09-08:00	2020-11-26T05:23:10+00:00	2020-12-01T07:59:59+00:00	-4	rnr3xj74b7sch0w@marketplace.amazon.com	nancy berkheiser	+1 619-854-2705 ext. 44948	ABR001	Delivery by Monday | Arabella Bouquets 12 Stems of Fresh Cut Red Roses in a Free Designer Glass Vase	1	0	1	Expedited	Wajma Safi	7548 SW CEDARCREST ST			PORTLAND	OR	97223-1048	US		Dear Wajma, I am so sorry you are sick.  Please get well soon💗  From nancy berkheiser, mother of Theresa	false		
113-7652413-6084228	38655254350674	2020-11-26T05:31:54+00:00	2020-11-25T21:31:54-08:00	2020-11-26T05:59:17+00:00	2020-12-01T07:59:59+00:00	-4	yds6lnwftbmtmv2@marketplace.amazon.com	Gretchyn Edwards	+1 346-307-9643 ext. 58872	ABR0022	Delivery by Monday | Arabella Farm Direct Bouquet of 12 Fresh Cut Pink Roses with a Free Glass Vase	1	0	1	Expedited	Glenna Ehrlich	1017 NW 79TH CIR			VANCOUVER	WA	98665-6998	US		Congratulations on your very last immunotherapy treatment!!! We're so proud of you and we love you bunches. Can't wait to be living just up the road from you guys. See you SOON and WAY TO GO, GOMMIE!!! From Gretch, Jim, Julian	false		
113-4744015-7747411	64601974680682	2020-11-26T17:51:00+00:00	2020-11-26T09:51:00-08:00	2020-11-26T18:16:20+00:00	2020-12-01T07:59:59+00:00	-4	70cdp71sw8pt8tf@marketplace.amazon.com	bill cooke	+1 213-442-1463 ext. 24605	ABR0022	Delivery by Monday | Arabella Farm Direct Bouquet of 12 Fresh Cut Pink Roses with a Free Glass Vase	1	0	1	Expedited	Dr Lili Sacks	SWEDISH FIRST HILL PRIMARY CARE	515 MINOR AVE STE 300		SEATTLE	WA	98104-2133	US			false		
114-3278405-5636224	08893914124786	2020-11-26T18:04:49+00:00	2020-11-26T10:04:49-08:00	2020-11-26T18:25:05+00:00	2020-12-01T07:59:59+00:00	-4	p1wjgv4f2l2hz1b@marketplace.amazon.com	misty arnold	+1 213-442-1463 ext. 96258	ABR0033	Delivery by Monday | Arabella Farm Direct Bouquet of 12 Fresh Cut Orange Roses with a Free Glass Vase	1	0	1	Expedited	Gma Duck	5750 N FRESNO ST APT 116			FRESNO	CA	93710-6014	US		I hope u like these bday flowers I picked out for u! I know u think that u'll never have a relationship w me bc of mom but u will. She loves u as much as u love her, she's just going thru it :(  We love you mama/gma Duck From Lucky & Baby Duck	false		
113-1862179-7634652	59132429514546	2020-11-26T18:31:41+00:00	2020-11-26T10:31:41-08:00	2020-11-26T18:57:17+00:00	2020-12-01T07:59:59+00:00	-4	0xf6bvw8dztct19@marketplace.amazon.com	Chris Aley	+1 619-854-2705 ext. 29284	ABM010	Delivery by Monday | The Everlasting Fling Bouquet by Arabella Bouquets with a Free Designer Glass Vase	1	0	1	Expedited	Sunday Ferris	240 A STREET N			BUCKLEY	wA	98321	US			false		
111-8039675-4223464	07130200912842	2020-11-26T19:19:57+00:00	2020-11-26T11:19:57-08:00	2020-11-26T19:50:03+00:00	2020-12-01T07:59:59+00:00	-4	401qpf0zq6tw8ll@marketplace.amazon.com	Robert Wallwork	+1 929-436-4790 ext. 00723	ABM022	Delivery by Monday | Purple Extravagance Bouquet by Arabella Bouquets	1	0	1	Expedited	donna Wellington	1257 SE BIANCA ST # 2			HILLSBORO	OR	97123-5198	US			false		
112-9595210-8119403	59332809780802	2020-11-26T19:23:39+00:00	2020-11-26T11:23:39-08:00	2020-11-26T19:52:10+00:00	2020-12-01T07:59:59+00:00	-4	26p3tyx66jp91mr@marketplace.amazon.com	john s clarke	+1 602-671-6610 ext. 06021	ABM010	Delivery by Monday | The Everlasting Fling Bouquet by Arabella Bouquets with a Free Designer Glass Vase	1	0	1	Expedited	john f golden	31279 QUARTER HORSE RD			EVERGREEN	CO	80439-7948	US		Thank you for Thanksgiving!  John and Nancy From john s clarke	false		
113-8612254-4497066	17968969183698	2020-11-26T20:14:30+00:00	2020-11-26T12:14:30-08:00	2020-11-26T20:40:11+00:00	2020-12-01T07:59:59+00:00	-4	syc4ty5s5smj3p7@marketplace.amazon.com	Riei McCann	+1 619-854-2705 ext. 37332	ABR0022	Delivery by Monday | Arabella Farm Direct Bouquet of 12 Fresh Cut Pink Roses with a Free Glass Vase	1	0	1	Expedited	Yoshiko Wada	4366 MILLER CT			PALO ALTO	CA	94306-4412	US		Happy Birthday, Wada-san! God Bless, Mark, Riei, Hikari, Chishio & Yuhi McCann From Riei McCann	false		
112-0548173-0538647	62424317094498	2020-11-26T20:50:47+00:00	2020-11-26T12:50:47-08:00	2020-11-26T21:16:28+00:00	2020-12-01T07:59:59+00:00	-4	t8dt34tmbl705qp@marketplace.amazon.com	Frank Summers	+1 346-307-9643 ext. 71011	ABR0022	Delivery by Monday | Arabella Farm Direct Bouquet of 12 Fresh Cut Pink Roses with a Free Glass Vase	1	0	1	Expedited	Ann Chalem	108 BROOKLINE ST			MORAGA	CA	94556-1017	US			false		
112-1877088-2824230	18170005177474	2020-11-26T22:16:20+00:00	2020-11-26T14:16:20-08:00	2020-11-26T22:41:56+00:00	2020-12-01T07:59:59+00:00	-4	wpdp6wzfflq9t1h@marketplace.amazon.com	Connie Romano	+1 602-671-6610 ext. 77865	ABM022	Delivery by Monday | Purple Extravagance Bouquet by Arabella Bouquets	1	0	1	Expedited	Amanda Cee	2807 S 47TH ST			MILWAUKEE	WI	53219-3431	US		Congrats to you and AJ!   Love Sad and Connie From Connie Romano	false		
111-8069466-8062664	37709094896298	2020-11-25T17:16:20+00:00	2020-11-25T09:16:20-08:00	2020-11-26T23:19:44+00:00	2020-12-01T07:59:59+00:00	-4	9vcgqdnjz3kdnb3@marketplace.amazon.com	Barbara Eddings	+1 602-671-6610 ext. 83145	ABM022	Delivery by Monday | Purple Extravagance Bouquet by Arabella Bouquets	1	0	1	Expedited	Karen Beelow	29300 North Hwy 83			Mundelein	Illinois	60060	US			false		
111-0121823-1944270	45600859165458	2020-11-27T00:27:33+00:00	2020-11-26T16:27:33-08:00	2020-11-27T00:52:13+00:00	2020-12-01T07:59:59+00:00	-4	y6h1gtwbk67j3lc@marketplace.amazon.com	Marvine Patrick	+1 415-419-8616 ext. 87480	ABR0022	Delivery by Monday | Arabella Farm Direct Bouquet of 12 Fresh Cut Pink Roses with a Free Glass Vase	1	0	1	Expedited	Bonnie Arnstead	2312 KENILWORTH PL			EVERETT	WA	98203-1573	US		Feel better soon, with love, Marty and Ron From Marvine Patrick	false		
113-3377502-1593019	13371675206778	2020-11-27T00:29:03+00:00	2020-11-26T16:29:03-08:00	2020-11-27T00:59:07+00:00	2020-12-01T07:59:59+00:00	-4	c4pnkg1cqmz147r@marketplace.amazon.com	Greg Schenck	+1 480-618-5344 ext. 41202	ABR0022	Delivery by Monday | Arabella Farm Direct Bouquet of 12 Fresh Cut Pink Roses with a Free Glass Vase	1	0	1	Expedited	Cisely Beard	3211 HAWTHORNE BLVD			ALTON	IL	62002-4311	US			false		
112-9334354-5137001	60424641036658	2020-11-27T00:44:47+00:00	2020-11-26T16:44:47-08:00	2020-11-27T01:14:02+00:00	2020-12-01T07:59:59+00:00	-4	fm5lyy5hcz4j8ps@marketplace.amazon.com	Kenneth C. Burkhardt Jr.	+1 480-618-5344 ext. 08455	ABR0022	Delivery by Monday | Arabella Farm Direct Bouquet of 12 Fresh Cut Pink Roses with a Free Glass Vase	1	0	1	Expedited	Kenneth C . Burkhardt Jr.	423 2ND AVE W			EAST NORTHPORT	NY	11731-3403	US		Dear Nicole, Happy anniversary! I love you so much! From Ken	false		
111-1891680-3001828	24383291029554	2020-11-27T03:42:18+00:00	2020-11-26T19:42:18-08:00	2020-11-27T04:11:25+00:00	2020-12-01T07:59:59+00:00	-4	x6853wlbzk6pv83@marketplace.amazon.com	Karina Quiroz	+1 415-419-8616 ext. 77729	ABR0022	Delivery by Monday | Arabella Farm Direct Bouquet of 12 Fresh Cut Pink Roses with a Free Glass Vase	1	0	1	Expedited	Karina Quiroz	12410 Iroquois rd			Apple Valley	California	92308	US		Te queremos Mucho! Feliz Cumpleaños mami! From Karina, Justin, y baby Jace	false		
113-1066889-2625812	55039288933210	2020-11-27T04:24:24+00:00	2020-11-26T20:24:24-08:00	2020-11-27T04:51:28+00:00	2020-12-01T07:59:59+00:00	-4	5gmlpc6vvbtdrw7@marketplace.amazon.com	Charlotte	+1 415-851-9136 ext. 09894	ABM017	Delivery by Tuesday | Arabella Bouquets 10 Stems of Blue Dendrobium Orchids in a Free Designer Glass Vase	1	0	1	Expedited	Karen Pomer	52586 Idyllmont Road			Idyllwild	Ca	92549	US		Toda!  Muchicimas! Danke! Merci! Thank you! I am humbled From Charlotte	false		
114-5001481-9038606	65443229262394	2020-11-27T04:25:58+00:00	2020-11-26T20:25:58-08:00	2020-11-27T04:54:05+00:00	2020-12-01T07:59:59+00:00	-4	cwhtkk1ffbk8zms@marketplace.amazon.com	john bailey	+1 763-225-9463 ext. 63317	ABM020	Delivery by Monday | The Sunset Bouquet by Arabella Bouquets	1	0	1	Expedited	Rebecca Bailey	3413 STREET DR			JOHNSON CITY	TN	37604-2709	US			false		
112-8064137-4088242	23029487512890	2020-11-27T05:47:22+00:00	2020-11-26T21:47:22-08:00	2020-11-27T06:17:12+00:00	2020-12-01T07:59:59+00:00	-4	qcgv5xx5zx5lwjb@marketplace.amazon.com	Vanessa Guerra		ABM020	Delivery by Monday | The Sunset Bouquet by Arabella Bouquets	1	0	1	Expedited	VANESSA GUERRA	2712 RICHARD AVE			CONCORD	CA	94520	US		Feliz Cumpleanos! From Vanessa y Carrie	false		
113-4354907-5743434	12674985761226	2020-11-27T07:29:32+00:00	2020-11-26T23:29:32-08:00	2020-11-27T07:59:47+00:00	2020-12-01T07:59:59+00:00	-4	wp2kgfh276zy9qc@marketplace.amazon.com	steve april	+1 619-854-2705 ext. 87186	ABR0022	Delivery by Monday | Arabella Farm Direct Bouquet of 12 Fresh Cut Pink Roses with a Free Glass Vase	1	0	1	Expedited	Maxine Cohen	670 NORTHERN AVE			MILL VALLEY	CA	94941-3934	US			false		
111-6093749-9217060	68488578136618	2020-11-27T12:16:43+00:00	2020-11-27T04:16:43-08:00	2020-11-27T12:44:50+00:00	2020-12-02T07:59:59+00:00	-5	9dnrvd7rxswf6tn@marketplace.amazon.com	Chrystal		ABC001	Delivery by Monday | The Seasons Greetings Bouquet by Arabella Bouquets	1	0	1	Expedited	Sandra Hauser	8770 REVERE RUN			WEST CHESTER	OH	45069-3630	US		Happy Birthday Mom!!! You're beautiful and wonderful and I love you so much. See you this weekend. Hope you have a great day today..If they didnt listen to my request on what day to deliver, then happy early birthday :) From Chrystal-Sunshine	false		
112-7878220-9593054	33455658179530	2020-11-27T14:03:50+00:00	2020-11-27T06:03:50-08:00	2020-11-27T14:23:30+00:00	2020-12-02T07:59:59+00:00	-5	qzz15zgc1pptyr8@marketplace.amazon.com	Ben H. Carroll	+1 619-854-2705 ext. 73341	ABR001	Delivery by Monday | Arabella Bouquets 12 Stems of Fresh Cut Red Roses in a Free Designer Glass Vase	1	0	1	Expedited	Mrs. Jackie Clark	3551 DEEP LANDING RD			HUNTINGTOWN	MD	20639-9544	US			false		
114-6751960-8821841	58734256643338	2020-11-27T14:38:09+00:00	2020-11-27T06:38:09-08:00	2020-11-27T15:05:55+00:00	2020-12-02T07:59:59+00:00	-5	5bs8kqnflxbf8jg@marketplace.amazon.com	donna M Santoro	+1 415-851-9136 ext. 16447	ABM022	Delivery by Monday | Purple Extravagance Bouquet by Arabella Bouquets	1	0	1	Expedited	Pat Fisher	3601B ROCKEFELLER AVE			EVERETT	WA	98201-4729	US		Ginger, Happy Birthday Love you Mavis	false		
112-7198000-3388267	52711983665474	2020-11-25T15:08:59+00:00	2020-11-25T07:08:59-08:00	2020-11-27T15:59:02+00:00	2020-12-02T07:59:59+00:00	-5	045bchp4lnrqf46@marketplace.amazon.com	Bobby Hernandez	+1 480-618-5344 ext. 54558	ABR0033	Delivery by Friday | Arabella Farm Direct Bouquet of 12 Fresh Cut Orange Roses with a Free Glass Vase	1	0	1	Expedited	Robert C. Hernandez	224 SOUTHWIND DR			VASS	NC	28394-9484	US			false		
113-3151503-6147447	59721707937642	2020-11-27T15:39:18+00:00	2020-11-27T07:39:18-08:00	2020-11-27T16:01:12+00:00	2020-12-02T07:59:59+00:00	-5	3sy2w4wvw3sq2yn@marketplace.amazon.com	timothy donnelly	+1 929-436-4790 ext. 90345	ABM010	Delivery by Monday | The Everlasting Fling Bouquet by Arabella Bouquets with a Free Designer Glass Vase	1	0	1	Expedited	Nancy Donnelly Lewis	767 ARABIAN CIR			VACAVILLE	CA	95687-4148	US		Happy Birthday Nancy Love Tim, Tina & Hugh From timothy donnelly	false		
112-8546020-0091414	03512032851442	2020-11-27T17:38:29+00:00	2020-11-27T09:38:29-08:00	2020-11-27T18:06:36+00:00	2020-12-02T07:59:59+00:00	-5	cvtf8symlxbc02k@marketplace.amazon.com	Clinton Watkins	+1 415-851-9136 ext. 78824	ABR0022	Delivery by Tuesday | Arabella Farm Direct Bouquet of 12 Fresh Cut Pink Roses with a Free Glass Vase	1	0	1	Expedited	Tiarra	7550 ST PATRICK WAY APT 134			DUBLIN	CA	94568-4872	US		Hopefully this cheers you up and gives you a reason to smile, I know you've had a rough few weeks. Hope this helps <3 From Clinton Watkins	false		
112-8377876-6890656	56103090921914	2020-11-27T18:04:31+00:00	2020-11-27T10:04:31-08:00	2020-11-27T18:29:39+00:00	2020-12-02T07:59:59+00:00	-5	kr6g5sf35h6s5qf@marketplace.amazon.com	Katelyn Kane	+1 763-225-9463 ext. 15953	ABC002	Delivery by Tuesday | The Warm Wishes Bouquet by Arabella Bouquets	1	0	1	Expedited	The Kinnarney Family	31 HIGH MEADOWS DR			MULLICA HILL	NJ	08062-9462	US		We are so sorry for your loss! Thinking of your family and keeping you in our prayers. We love you! From Katelyn, Liz and Cera	false		
111-0360352-3458659	01137843416034	2020-11-27T18:15:31+00:00	2020-11-27T10:15:31-08:00	2020-11-27T18:30:13+00:00	2020-12-02T07:59:59+00:00	-5	wyzslbk2zwpls2q@marketplace.amazon.com	Silver Vargas	+1 346-307-9643 ext. 76379	ABM022	Delivery by Tuesday | Purple Extravagance Bouquet by Arabella Bouquets	1	0	1	Expedited	RoseMary Londono	160 PHILLIP RD			WOODSIDE	CA	94062-2625	US		Mami. Disfruta tu dia, tu vida. Vinimos al mundo a ser felices y tu mereces serlo. Happy Birthday. Con cariño tu hija y nietos.... De Elsa Mayor	false		
114-3228558-4732233	00589435832642	2020-11-27T18:04:14+00:00	2020-11-27T10:04:14-08:00	2020-11-27T18:30:21+00:00	2020-12-02T07:59:59+00:00	-5	22d82070lhh08wc@marketplace.amazon.com	Jonatan Mejia	+1 602-671-6610 ext. 63153	ABM022	Delivery by Tuesday | Purple Extravagance Bouquet by Arabella Bouquets	1	0	1	Expedited	Francinny	732 LEADING LN			ALLEN	TX	75002-3126	US		I love you with all my heart happy late birthday  I wish I could tell you how I feel in person From Anonymous	false		
114-5684693-4109009	04061673776786	2020-11-27T18:16:22+00:00	2020-11-27T10:16:22-08:00	2020-11-27T18:45:59+00:00	2020-12-02T07:59:59+00:00	-5	ytdsv5hskbdycbh@marketplace.amazon.com	Clint Davis	+1 619-854-2705 ext. 33176	ABR0022	Delivery by Tuesday | Arabella Farm Direct Bouquet of 12 Fresh Cut Pink Roses with a Free Glass Vase	1	0	1	Expedited	Alice Willis	10300 S 195TH WEST PL			SAPULPA	OK	74066-8086	US		Happy Birthday Grandma!!  We love you. Clint, Christina, Ross, and Noah From Clint Davis	false		
112-5474716-6860250	46479739415578	2020-11-27T18:19:06+00:00	2020-11-27T10:19:06-08:00	2020-11-27T18:46:56+00:00	2020-12-02T07:59:59+00:00	-5	z5ctdjsvqt8w8y3@marketplace.amazon.com	madalyn rosen	+1 480-618-5344 ext. 38313	ABM022	Delivery by Tuesday | Purple Extravagance Bouquet by Arabella Bouquets	1	0	1	Expedited	Lynn Mace	2701 SAPLING CIR			WILMINGTON	NC	28411-6192	US			false		
111-2753483-1852221	60590028176330	2020-11-27T18:28:35+00:00	2020-11-27T10:28:35-08:00	2020-11-27T18:53:52+00:00	2020-12-02T07:59:59+00:00	-5	fcjd0sf72zk36zv@marketplace.amazon.com	Ashley Lenne	+1 602-671-6610 ext. 68412	ABM022	Delivery by Tuesday | Purple Extravagance Bouquet by Arabella Bouquets	1	0	1	Expedited	Jan Hajek	1440 RIVERDALE MANOR DR			O FALLON	MO	63366-1506	US		Happy 60th Birthday, Mom! I wish I could be there to celebrate with you. I hope that you have a great day and that these flowers help make it a little more special! From Samantha	false		
112-7073280-7892264	37582209610482	2020-11-27T18:37:06+00:00	2020-11-27T10:37:06-08:00	2020-11-27T19:05:58+00:00	2020-12-02T07:59:59+00:00	-5	ybq0900j2szmlmy@marketplace.amazon.com	Shane	+1 213-442-1463 ext. 57962	ABM031	Delivery by Tuesday | The Harvest Moon Bouquet by Arabella Bouquets	1	0	1	Expedited	Moira Block	2103 CRESTLINE DR			COEUR D ALENE	ID	83814-6066	US		Happy Birthday, Moira.  Enjoy your Day! From Jim & Jenny	false		
114-5897550-4675444	43302181169266	2020-11-27T18:46:33+00:00	2020-11-27T10:46:33-08:00	2020-11-27T19:14:03+00:00	2020-12-02T07:59:59+00:00	-5	zb1r75stgf7nzgd@marketplace.amazon.com	Elizabeth Tsang	+1 602-671-6610 ext. 73467	ABM022	Delivery by Tuesday | Purple Extravagance Bouquet by Arabella Bouquets	1	0	1	Expedited	Izumi Miller	195 MEADOW VW			ANTIOCH	IL	60002-2469	US		Thinking of you and praying you are filled with God's peace. From Elizabeth Tsang	false		
113-1274859-1765046	41724721750266	2020-11-27T19:15:48+00:00	2020-11-27T11:15:48-08:00	2020-11-27T19:44:29+00:00	2020-12-02T07:59:59+00:00	-5	f9d4nl4q7c6p7xd@marketplace.amazon.com	Sher Beard	+1 346-307-9643 ext. 43015	ABR0022	Delivery by Tuesday | Arabella Farm Direct Bouquet of 12 Fresh Cut Pink Roses with a Free Glass Vase	1	0	1	Expedited	Cindy Greer	33529 SJ AND E RD			AUBERRY	CA	93602-9548	US			false		
112-4093716-9414610	30798756975826	2020-11-27T19:22:48+00:00	2020-11-27T11:22:48-08:00	2020-11-27T19:53:10+00:00	2020-12-02T07:59:59+00:00	-5	1dfm634kxjyv5dt@marketplace.amazon.com	April Young	+1 602-671-6610 ext. 18569	ABR001	Delivery by Tuesday | Arabella Bouquets 12 Stems of Fresh Cut Red Roses in a Free Designer Glass Vase	1	0	1	Expedited	Wedbush Securities attn: Michelle Messere	150 Radnor-Chester Rd	Suite E155		Radnor	PA	19087	US			false		
113-4159386-3037008	41004671946506	2020-11-27T19:38:02+00:00	2020-11-27T11:38:02-08:00	2020-11-27T20:01:40+00:00	2020-12-02T07:59:59+00:00	-5	xscyfq1yhm1y94d@marketplace.amazon.com	Gina Ross	+1 415-851-9136 ext. 54488	ABM022	Delivery by Tuesday | Purple Extravagance Bouquet by Arabella Bouquets	1	0	1	Expedited	Jeanne McClure	19945 SW BOONES FERRY RD 126			TUALATIN	OR	97062-7272	US		Enjoy your gift! Love you Mom! From Gina Ross	false		
114-5481643-2079404	28297788571674	2020-11-27T19:36:07+00:00	2020-11-27T11:36:07-08:00	2020-11-27T20:02:08+00:00	2020-12-02T07:59:59+00:00	-5	x9521791gwfgdfc@marketplace.amazon.com	Jhenielle Brown	+1 213-442-1463 ext. 97113	ABR0055	Delivery by Tuesday | Arabella Farm Direct Bouquet of 12 Stems of Fresh Cut Hot Pink Roses in a Free Designer Glass Vase	1	0	1	Expedited	Jodie-Ann Hill	4301 DUPONT LN APT 4301			TUCKER	GA	30084-3740	US		Happy Golden Birthday Sissy! I hope God continues to cover, bless and keep you this year and every year. Enjoy your day. Love you! From Jhenielle Brown	false		
112-9302683-0873046	15916167712930	2020-11-27T19:42:42+00:00	2020-11-27T11:42:42-08:00	2020-11-27T20:06:17+00:00	2020-12-02T07:59:59+00:00	-5	1dfm634kxjyv5dt@marketplace.amazon.com	April Young	+1 213-442-1463 ext. 86928	ABR001	Delivery by Tuesday | Arabella Bouquets 12 Stems of Fresh Cut Red Roses in a Free Designer Glass Vase	1	0	1	Expedited	Debbie Bluestein	1557 BRIAR HILL RD			GLADWYNE	PA	19035-1249	US		Debbie, We know the decision to transition requires the support of many. Welcome to the Wedbush family! From Frank & April, Wedbush Securities	false		
114-5328800-7690644	01454314214298	2020-11-27T19:36:22+00:00	2020-11-27T11:36:22-08:00	2020-11-27T20:06:59+00:00	2020-12-02T07:59:59+00:00	-5	088l7zbp1t667d8@marketplace.amazon.com	Dr. Ruth Shen	+1 415-419-8616 ext. 90749	ABM010	Delivery by Tuesday | The Everlasting Fling Bouquet by Arabella Bouquets with a Free Designer Glass Vase	1	0	1	Expedited	Dr. T. Y. Shen	501 Via Casitas	Apt 304		Greenbrae	CA	94904	US			false		
113-5106647-7414628	41364045677298	2020-11-27T19:52:41+00:00	2020-11-27T11:52:41-08:00	2020-11-27T20:24:41+00:00	2020-12-02T07:59:59+00:00	-5	2bjqrtrsh0nh7r7@marketplace.amazon.com	James Brooks	+1 619-854-2705 ext. 40591	ABR001	Delivery by Tuesday | Arabella Bouquets 12 Stems of Fresh Cut Red Roses in a Free Designer Glass Vase	1	0	1	Expedited	James Brooks	508 branding iron ln			Holly lake ranch	Tx	75765	US			false		
113-3169297-3027447	33652145340730	2020-11-27T20:05:20+00:00	2020-11-27T12:05:20-08:00	2020-11-27T20:35:28+00:00	2020-12-02T07:59:59+00:00	-5	bz1fmn8v5bj552d@marketplace.amazon.com	Mike meyer	+1 346-307-9643 ext. 89715	ABR0022	Delivery by Tuesday | Arabella Farm Direct Bouquet of 12 Fresh Cut Pink Roses with a Free Glass Vase	1	0	1	Expedited	Karen Bush	141 WALOSI WAY			LOUDON	TN	37774-2504	US			false		
113-8690176-1737860	66858980954690	2020-11-27T20:03:51+00:00	2020-11-27T12:03:51-08:00	2020-11-27T20:37:38+00:00	2020-12-02T07:59:59+00:00	-5	0n8q07yqc4z6ztx@marketplace.amazon.com	Dave Hoskins	+1 213-442-1463 ext. 66654	ABR0022	Delivery by Tuesday | Arabella Farm Direct Bouquet of 12 Fresh Cut Pink Roses with a Free Glass Vase	1	0	1	Expedited	Brenda Shipman	50 TUCKER LN			BATESVILLE	AR	72501-9579	US		Happy Birthday Aunt Brenda! Lots of love and hugs! From Rhonda Hoskins	false		
114-0054856-6001026	21589692911874	2020-11-27T20:12:40+00:00	2020-11-27T12:12:40-08:00	2020-11-27T20:42:21+00:00	2020-12-02T07:59:59+00:00	-5	3qbnt0j8k0c6qy9@marketplace.amazon.com	Chin Hua Kong	+1 619-854-2705 ext. 78865	ABR001	Delivery by Tuesday | Arabella Bouquets 12 Stems of Fresh Cut Red Roses in a Free Designer Glass Vase	1	0	1	Expedited	Menuk	560 SCOTT ST APT C			MONTEREY	CA	93940-2329	US		We miss you From Yuke senjaya	false		
112-7612939-2436237	66269945305842	2020-11-27T20:46:20+00:00	2020-11-27T12:46:20-08:00	2020-11-27T21:12:59+00:00	2020-12-02T07:59:59+00:00	-5	pgh4n7r1pp3c5rv@marketplace.amazon.com	Kubach Arlette	+1 415-851-9136 ext. 61781	ABR001	Delivery by Tuesday | Arabella Bouquets 12 Stems of Fresh Cut Red Roses in a Free Designer Glass Vase	1	0	1	Expedited	Sophie KUBACH	908 Middle avenue appart N			MENLO PARK	CALIFORNIA	94025-5142	US		Pounet se joint à moi pour te souhaiter un très joyeux anniversaire.  Bises à vous trois Pounet et Mounette From Kubach Arlette & Christian	false		
111-0471894-6989848	06201289560266	2020-11-27T20:51:25+00:00	2020-11-27T12:51:25-08:00	2020-11-27T21:16:22+00:00	2020-12-02T07:59:59+00:00	-5	pxz1hr7fch0gsr0@marketplace.amazon.com	Steven Parisi	+1 763-225-9463 ext. 42667	ABR0055	Delivery by Tuesday | Arabella Farm Direct Bouquet of 12 Stems of Fresh Cut Hot Pink Roses in a Free Designer Glass Vase	1	0	1	Expedited	Mrs. Mary Farrell	47 ARDMORE AVE			STATEN ISLAND	NY	10314-4425	US		Happy 90th Birthday! From Steven,Donna,Nick,Jenn&James Parisi	false		
112-8348661-3968209	39562315161186	2020-11-27T21:17:01+00:00	2020-11-27T13:17:01-08:00	2020-11-27T21:40:51+00:00	2020-12-02T07:59:59+00:00	-5	96kmmtq9j6gqnq2@marketplace.amazon.com	SeattleReader	+1 346-307-9643 ext. 80463	ABR0022	Delivery by Tuesday | Arabella Farm Direct Bouquet of 12 Fresh Cut Pink Roses with a Free Glass Vase	1	0	1	Expedited	Elyse Rademacher	8516 215TH ST SW			EDMONDS	WA	98026-7319	US		Congratulations! You are a wonderful Mama!!!! From We Love you...Mom and Pops	false		
112-7937272-4868249	08472892129418	2020-11-27T21:33:25+00:00	2020-11-27T13:33:25-08:00	2020-11-27T22:01:55+00:00	2020-12-02T07:59:59+00:00	-5	9163zklmzzw1k3m@marketplace.amazon.com	michael cowart	+1 480-618-5344 ext. 98058	ABR0022	Delivery by Tuesday | Arabella Farm Direct Bouquet of 12 Fresh Cut Pink Roses with a Free Glass Vase	1	0	1	Expedited	Erin myers	3974 GARNET PL			HIGHLANDS RANCH	CO	80126-5045	US		Have a good day snookums, I love you baby cakes and miss you ALOT. I can’t wait to see you and pinch your ass From michael cowart	false		
112-4762142-6977807	41294021320234	2020-11-27T21:38:21+00:00	2020-11-27T13:38:21-08:00	2020-11-27T22:05:46+00:00	2020-12-02T07:59:59+00:00	-5	2lqrs6ltmxl9h0z@marketplace.amazon.com	Debbie Lennon	+1 213-442-1463 ext. 68377	ABR0022	Delivery by Tuesday | Arabella Farm Direct Bouquet of 12 Fresh Cut Pink Roses with a Free Glass Vase	1	0	1	Expedited	Jil Boskovich	33192 OCEAN RDG			DANA POINT	CA	92629-6010	US			false		
113-6358896-4277840	35650105097722	2020-11-27T21:51:11+00:00	2020-11-27T13:51:11-08:00	2020-11-27T22:12:05+00:00	2020-12-02T07:59:59+00:00	-5	fhkwp4xxbbnrtwb@marketplace.amazon.com	Paul Galonsky	+1 213-442-1463 ext. 49392	ABR001	Delivery by Tuesday | Arabella Bouquets 12 Stems of Fresh Cut Red Roses in a Free Designer Glass Vase	1	0	1	Expedited	Annette Lustig	8501 RAINTREE LN			CHARLOTTE	NC	28277-7806	US		Dear Annette,  Happy and healthy 80th birthday and many more!  Love,  Marsha and Larry From Marsha Bertucelli	false		
114-6331700-5243456	05406804073530	2020-11-27T21:49:27+00:00	2020-11-27T13:49:27-08:00	2020-11-27T22:13:20+00:00	2020-12-02T07:59:59+00:00	-5	lvb1yy695gb3q6b@marketplace.amazon.com	Dean Fitzgerald	+1 480-618-5344 ext. 83291	ABM022	Delivery by Tuesday | Purple Extravagance Bouquet by Arabella Bouquets	1	0	1	Expedited	Luanne Work	11664 DUGGAN RD			CENTRAL POINT	OR	97502-9305	US		Feel like better soon PLEASE!  Think of this as the universe telling you to watch more TV.” From Dean Fitzgerald	false		
111-3238383-3778629	13658306868946	2020-11-27T21:42:40+00:00	2020-11-27T13:42:40-08:00	2020-11-27T22:13:23+00:00	2020-12-02T07:59:59+00:00	-5	d21313mrpk8hdfb@marketplace.amazon.com	Ailis	+1 602-671-6610 ext. 52708	ABM022	Delivery by Tuesday | Purple Extravagance Bouquet by Arabella Bouquets	1	0	1	Expedited	Ailis	3915 LANDOVER LN			RALEIGH	NC	27616-9044	US			false		
111-2324343-2354625	33524968139506	2020-11-27T21:47:17+00:00	2020-11-27T13:47:17-08:00	2020-11-27T22:16:30+00:00	2020-12-02T07:59:59+00:00	-5	ftnc4w91h0bjdmn@marketplace.amazon.com	Gerri L.  Duke	+1 602-671-6610 ext. 52506	ABR0055	Delivery by Tuesday | Arabella Farm Direct Bouquet of 12 Stems of Fresh Cut Hot Pink Roses in a Free Designer Glass Vase	1	0	1	Expedited	Pamela Blank	13045 HIDDEN BEACH WAY			CLERMONT	FL	34711-5914	US		HAPPY BIRTHDAY PAMELA! From llOVE, Pa & Sis	false		
112-5120490-8045820	33366087671626	2020-11-27T22:01:23+00:00	2020-11-27T14:01:23-08:00	2020-11-27T22:27:27+00:00	2020-12-02T07:59:59+00:00	-5	5gcx52mwtsb8tjc@marketplace.amazon.com	Ana	+1 415-851-9136 ext. 66273	ABM026	Delivery by Tuesday | The Amour Bouquet by Arabella Bouquets	1	0	1	Expedited	Saad Jamil	19227 BURNT BRIDGE DR			LEESBURG	VA	20176-1265	US		Happy Birthday Saad! I wish you a very happy, healthy, successful and prosperous life ahead!  Thank you for being who you are:) From Maria	false		
111-3148061-2103408	08031711606242	2020-11-27T22:17:38+00:00	2020-11-27T14:17:38-08:00	2020-11-27T22:44:19+00:00	2020-12-02T07:59:59+00:00	-5	pj6b39v7dmdnxxy@marketplace.amazon.com	Donna Clayton	+1 346-307-9643 ext. 72133	ABR0022	Delivery by Tuesday | Arabella Farm Direct Bouquet of 12 Fresh Cut Pink Roses with a Free Glass Vase	1	0	1	Expedited	Tara Malone	574 CHATHAM DR			CHAPEL HILL	NC	27516-8093	US		Heal rapidly!  Sorry I can't be with you.  Love, Mom From Donna Clayton	false		
111-6600197-9119405	63043696803266	2020-11-27T22:29:51+00:00	2020-11-27T14:29:51-08:00	2020-11-27T22:58:20+00:00	2020-12-02T07:59:59+00:00	-5	68y7ph75z5r2b00@marketplace.amazon.com	sammy	+1 346-307-9643 ext. 97499	ABR001	Delivery by Tuesday | Arabella Bouquets 12 Stems of Fresh Cut Red Roses in a Free Designer Glass Vase	1	0	1	Expedited	Rinku desai	6 LEGACY CROSSING CT			SAINT CHARLES	MO	63303-1747	US		You are special! 😘 😘😘😘😘 With lots of love From sanju	false		
111-3325171-3429813	63047147236330	2020-11-27T22:34:58+00:00	2020-11-27T14:34:58-08:00	2020-11-27T23:04:13+00:00	2020-12-02T07:59:59+00:00	-5	h24fdj1mz33yvx1@marketplace.amazon.com	michael sonnenberg	+1 480-618-5344 ext. 51761	ABR0055	Delivery by Tuesday | Arabella Farm Direct Bouquet of 12 Stems of Fresh Cut Hot Pink Roses in a Free Designer Glass Vase	1	0	1	Expedited	Michael Sonnenberg	1290 MUIR TRL			GULF BREEZE	FL	32563-8139	US		Happy Anniversary! I love you! Looking forward to the next chapter! From michael sonnenberg	false		
112-1763990-5433830	20551788344194	2020-11-27T22:52:59+00:00	2020-11-27T14:52:59-08:00	2020-11-27T23:18:04+00:00	2020-12-02T07:59:59+00:00	-5	1qtjtflmclndltz@marketplace.amazon.com	Devona Beaver	+1 346-307-9643 ext. 42166	ABM010	Delivery by Tuesday | The Everlasting Fling Bouquet by Arabella Bouquets with a Free Designer Glass Vase	1	0	1	Expedited	Mary Jane Duty	995 STATE ROUTE 37 N			BUNCOMBE	IL	62912-2205	US		WISHING YOU A HAPPY BIRTHDAY AND GET WELL SOON WISH.  THINKING OF YOU!    ALL OUR LOVE,  DEE, JOE, GIZMO AND ROMO From JOE AND DEE BEAVER	false		
111-9811204-2833053	69205704569258	2020-11-27T22:53:58+00:00	2020-11-27T14:53:58-08:00	2020-11-27T23:20:30+00:00	2020-12-02T07:59:59+00:00	-5	5vb8zrm6z8hgnvs@marketplace.amazon.com	barb	+1 213-442-1463 ext. 77020	ABM002	Delivery by Tuesday | Arabella Bouquets Fresh Cut White Calla Lilies in a Free Designer Glass Vase	1	0	1	Expedited	Becky Greeley	3242 GIRARD AVE S APT 205			MINNEAPOLIS	MN	55408-3479	US		HAPPY BIRTHDAY BECKY!!🎈🎈🎂 From I Love You.  Barb💕	false		
112-0197027-1212271	40341948098114	2020-11-27T22:57:26+00:00	2020-11-27T14:57:26-08:00	2020-11-27T23:21:00+00:00	2020-12-02T07:59:59+00:00	-5	zcfb0tx5jyvj9y4@marketplace.amazon.com	Denise Ruttman	+1 602-671-6610 ext. 90620	ABM022	Delivery by Tuesday | Purple Extravagance Bouquet by Arabella Bouquets	1	0	1	Expedited	LaRay Reed	5846 ROSWELL ST			SAN DIEGO	CA	92114-1211	US			false		
113-7432463-8017059	69872095421266	2020-11-27T22:55:41+00:00	2020-11-27T14:55:41-08:00	2020-11-27T23:22:06+00:00	2020-12-02T07:59:59+00:00	-5	8tnrvdhc31rrx7n@marketplace.amazon.com	George Gibson	+1 415-851-9136 ext. 14383	ABR0055	Delivery by Tuesday | Arabella Farm Direct Bouquet of 12 Stems of Fresh Cut Hot Pink Roses in a Free Designer Glass Vase	1	0	1	Expedited	Pam Shirley	2501 BRIARWOOD AVE SW APT F44			FORT PAYNE	AL	35967-8434	US		Love and miss you darling!   Enjoy! From George Gibson	false		
113-6789103-4534630	65707764334114	2020-11-27T23:08:23+00:00	2020-11-27T15:08:23-08:00	2020-11-27T23:26:56+00:00	2020-12-02T07:59:59+00:00	-5	bkcv2tb9y09stvg@marketplace.amazon.com	Marcel  Moline iii	+1 415-419-8616 ext. 25325	ABR0022	Delivery by Tuesday | Arabella Farm Direct Bouquet of 12 Fresh Cut Pink Roses with a Free Glass Vase	1	0	1	Expedited	carol Norman	6600 LANDS END CT			FORT WORTH	TX	76116-2100	US		Enjoy your gift!! We love you! From Marcel and Sandra	false		
113-1691393-3293847	65985276514322	2020-11-27T22:56:56+00:00	2020-11-27T14:56:56-08:00	2020-11-27T23:27:28+00:00	2020-12-02T07:59:59+00:00	-5	547v9gz8fcmvvk7@marketplace.amazon.com	Chase	+1 213-442-1463 ext. 91780	ABR0022	Delivery by Tuesday | Arabella Farm Direct Bouquet of 12 Fresh Cut Pink Roses with a Free Glass Vase	1	0	1	Expedited	Chase Hendricks	909 SKYLARK HILL LN			PFLUGERVILLE	TX	78660-8019	US			false		
112-5311437-8156260	31288000668562	2020-11-27T23:08:09+00:00	2020-11-27T15:08:09-08:00	2020-11-27T23:32:54+00:00	2020-12-02T07:59:59+00:00	-5	s7r712rjmvz3sfx@marketplace.amazon.com	Marinella Davis	+1 480-618-5344 ext. 13112	ABR004	Delivery by Tuesday | Arabella Farm Direct Bouquet of 12 Fresh Cut Yellow Roses with a Free Glass Vase	1	0	1	Standard	Linda Parish and family	1628 SPANISH MOSS WAY			SAVANNAH	TX	76227-7714	US		Thinking of you and yours during the holidays and ALWAYS. We love and miss you! Hugs to Amy and John From Your forever friends: Marinella + Kyp	false		
114-1568217-8233023	38188113479954	2020-11-27T23:04:20+00:00	2020-11-27T15:04:20-08:00	2020-11-27T23:33:44+00:00	2020-12-02T07:59:59+00:00	-5	5137n26gnb3n1vn@marketplace.amazon.com	Shanna	+1 415-851-9136 ext. 17167	ABR0066	Delivery by Tuesday | Arabella Bouquets 12 Stems of Fresh Cut White Roses in a Free Designer Glass Vase	1	0	1	Expedited	Katie Koch	100 BARCLAY ST APT 11E			NEW YORK	NY	10007-0108	US		Congrats Aunt Katie! Love, Annabel and Meredith From Shanna	false		
112-7929417-7567437	70276711538666	2020-11-27T23:05:16+00:00	2020-11-27T15:05:16-08:00	2020-11-27T23:35:47+00:00	2020-12-02T07:59:59+00:00	-5	d4ncpnj68922t9z@marketplace.amazon.com	Raul deltoro jr	+1 602-671-6610 ext. 51856	ABM010	Delivery by Tuesday | The Everlasting Fling Bouquet by Arabella Bouquets with a Free Designer Glass Vase	1	0	1	Expedited	Jasmine jaimes	1600 SANTAVY ST APT 3309			BAYTOWN	TX	77521-2469	US			false		
113-3377797-9345814	39414705516090	2020-11-27T23:36:05+00:00	2020-11-27T15:36:05-08:00	2020-11-28T00:12:01+00:00	2020-12-02T07:59:59+00:00	-5	9c99grv8416y4t1@marketplace.amazon.com	COL M.W. Menser	+1 763-225-9463 ext. 67950	ABR004	Delivery by Tuesday | Arabella Farm Direct Bouquet of 12 Fresh Cut Yellow Roses with a Free Glass Vase	1	0	1	Expedited	COL M.W. Menser	8967 Cobble Crest Lane			Sandy	UT	84093	US			false		
114-4740055-4587465	49336699028986	2020-11-27T23:41:11+00:00	2020-11-27T15:41:11-08:00	2020-11-28T00:23:18+00:00	2020-12-02T07:59:59+00:00	-5	68ysq07bd4l3kjr@marketplace.amazon.com	Laurence Pesdan	+1 346-307-9643 ext. 12143	ABM022	Delivery by Tuesday | Purple Extravagance Bouquet by Arabella Bouquets	1	0	1	Expedited	Laurence Pesdan	2000 S ROGERS CT			NEW BERLIN	WI	53146-1812	US			false		
113-8674387-5964262	50071385413498	2020-11-28T00:06:25+00:00	2020-11-27T16:06:25-08:00	2020-11-28T00:27:09+00:00	2020-12-02T07:59:59+00:00	-5	j157yxt3fsl9gst@marketplace.amazon.com	Jennifer Gantt	+1 619-854-2705 ext. 99864	ABB011	Delivery by Tuesday | Arabella Bouquets 24 Stems of Fresh Cut Hot Pink Roses in a Free Designer Glass Vase	1	0	1	Expedited	Jennifer Gantt	5236 W PEORIA AVE APT 110			GLENDALE	AZ	85302-1622	US		Happy Birthday, Brittany! Your AH crew loves you:) From Jennifer Gantt	false		
114-3653469-1024246	20232003689266	2020-11-28T00:03:54+00:00	2020-11-27T16:03:54-08:00	2020-11-28T00:33:04+00:00	2020-12-02T07:59:59+00:00	-5	b8q30tqrdt4ll0d@marketplace.amazon.com	James delaney	+1 602-671-6610 ext. 16600	ABR0022	Delivery by Tuesday | Arabella Farm Direct Bouquet of 12 Fresh Cut Pink Roses with a Free Glass Vase	2	0	2	Expedited	James delaney	3856 KINDLE LN			NORMAN	OK	73072-9110	US			false		
113-5247007-3677014	23394560189690	2020-11-28T00:16:57+00:00	2020-11-27T16:16:57-08:00	2020-11-28T00:43:29+00:00	2020-12-02T07:59:59+00:00	-5	14nxd2gtyntvmcn@marketplace.amazon.com	Elizabeth Harding Laramee	+1 415-851-9136 ext. 97145	ABR0022	Delivery by Tuesday | Arabella Farm Direct Bouquet of 12 Fresh Cut Pink Roses with a Free Glass Vase	1	0	1	Expedited	Mary Campolo	13628 BEAUREGARD PL			ORLANDO	FL	32837-7670	US		Mary, These flowers are for you in memory of Paul.  We love you, Elizabeth and Richard From Elizabeth Harding Laramee	false		
112-4514618-0841067	10260490794714	2020-11-28T00:25:36+00:00	2020-11-27T16:25:36-08:00	2020-11-28T00:52:57+00:00	2020-12-02T07:59:59+00:00	-5	pf4bg3lbbvzh2y7@marketplace.amazon.com	julie	+1 763-225-9463 ext. 16518	ABM010	Delivery by Tuesday | The Everlasting Fling Bouquet by Arabella Bouquets with a Free Designer Glass Vase	1	0	1	Expedited	Jala Von	4026 Winding Waters Terrace			Upper Marlboro	Md	20772	US		One day at a time Ja and one Prayer at a a time. So Thankful you are coming along! Trust God...... Love you From Aunt julie	false		
113-4638225-7740233	31166508737322	2020-11-28T00:24:08+00:00	2020-11-27T16:24:08-08:00	2020-11-28T00:53:34+00:00	2020-12-02T07:59:59+00:00	-5	64ssh4f1cqsphqc@marketplace.amazon.com	Sarah Olsen	+1 619-854-2705 ext. 09586	ABR0066	Delivery by Tuesday | Arabella Bouquets 12 Stems of Fresh Cut White Roses in a Free Designer Glass Vase	1	0	1	Expedited	Liz O’Shea	3711 GLENN ST			PHILADELPHIA	PA	19114-1706	US		Keeping you guys in our thoughts. Love, Sarah and Ben From Sarah Olsen	false		
112-6860459-5523457	54492222098562	2020-11-28T00:26:18+00:00	2020-11-27T16:26:18-08:00	2020-11-28T00:55:47+00:00	2020-12-02T07:59:59+00:00	-5	2mwdrvcf5pgqgy9@marketplace.amazon.com	David P. Miles	+1 480-618-5344 ext. 80212	ABR001	Delivery by Tuesday | Arabella Bouquets 12 Stems of Fresh Cut Red Roses in a Free Designer Glass Vase	1	0	1	Expedited	Mamasita Linda	2195 GULF DR			MT PLEASANT	SC	29466-8894	US		Feliz cumpleaños, Mamasita Linda! From Familia Miles	false		
114-0519671-7645841	44331412267066	2020-11-28T01:11:03+00:00	2020-11-27T17:11:03-08:00	2020-11-28T01:12:02+00:00	2020-12-02T07:59:59+00:00	-5	l0wmw6r6zt44hlj@marketplace.amazon.com	crystal	+1 763-225-9463 ext. 03544	ABR0022	Delivery by Tuesday | Arabella Farm Direct Bouquet of 12 Fresh Cut Pink Roses with a Free Glass Vase	1	0	1	Expedited	Ryheem Robinson	207 CHARLOTTE			LINDEN	TX	75563-5944	US		Something beautiful for my Queen but nothing is as beautiful as u From Your Husband	false		
112-4180661-1301042	31090349388842	2020-11-28T00:42:15+00:00	2020-11-27T16:42:15-08:00	2020-11-28T01:12:35+00:00	2020-12-02T07:59:59+00:00	-5	jjm7b4fyzsgwy0c@marketplace.amazon.com	Alex Gross	+1 415-419-8616 ext. 96165	ABC001	Delivery by Tuesday | The Seasons Greetings Bouquet by Arabella Bouquets	1	0	1	Expedited	Alex N Gross	528 RIGHTER ST			PHILADELPHIA	PA	19128-3738	US			false		
114-5372972-7142655	40072826783994	2020-11-28T00:43:50+00:00	2020-11-27T16:43:50-08:00	2020-11-28T01:13:34+00:00	2020-12-02T07:59:59+00:00	-5	b279j4tg1gkfx7w@marketplace.amazon.com	Michelle Lee	+1 763-225-9463 ext. 65571	ABR001	Delivery by Tuesday | Arabella Bouquets 12 Stems of Fresh Cut Red Roses in a Free Designer Glass Vase	1	0	1	Expedited	Cindy Hong	1451 CALLE GRANDE			FULLERTON	CA	92835-2811	US		Happy Birthday Cindy!! Thank you so much for helping me this year, love ya bestieee From Michelle Lee	false		
114-0602548-4881809	05833085583722	2020-11-28T00:53:40+00:00	2020-11-27T16:53:40-08:00	2020-11-28T01:16:49+00:00	2020-12-02T07:59:59+00:00	-5	qghvjk7l09jc5xq@marketplace.amazon.com	Kendall Bryan	+1 763-225-9463 ext. 44528	ABR0022	Delivery by Tuesday | Arabella Farm Direct Bouquet of 12 Fresh Cut Pink Roses with a Free Glass Vase	1	0	1	Expedited	Sharita Bryan	8717 POLISHED PEBBLE WAY			LAUREL	MD	20723-5910	US		Congratulations Bre'! We are so proud of you!!! Please Enjoy your gift! Grandma Jackie Grandpa Bryan Uncle Kendall From Kendall Bryan	true		Business Price
114-5739985-0273032	04547043316138	2020-11-28T00:52:17+00:00	2020-11-27T16:52:17-08:00	2020-11-28T01:20:48+00:00	2020-12-02T07:59:59+00:00	-5	4zkzc7bj7nsv2zn@marketplace.amazon.com	John Porten	+1 619-854-2705 ext. 05598	ABR001	Delivery by Tuesday | Arabella Bouquets 12 Stems of Fresh Cut Red Roses in a Free Designer Glass Vase	1	0	1	Expedited	Nicole Porten	1111 N DEARBORN ST APT 1405			CHICAGO	IL	60610-2762	US		Happy 25th! We love you! From Mom & Dad	false		
113-7637495-7437832	55001751933178	2020-11-28T01:17:31+00:00	2020-11-27T17:17:31-08:00	2020-11-28T01:46:07+00:00	2020-12-02T07:59:59+00:00	-5	4v9vg5v1rv7wn8p@marketplace.amazon.com	Tristan Rodewald	+1 346-307-9643 ext. 96420	ABR0022	Delivery by Tuesday | Arabella Farm Direct Bouquet of 12 Fresh Cut Pink Roses with a Free Glass Vase	1	0	1	Expedited	Tabatha Merrick	5405 VISTA SIERRA			CYPRESS	CA	90630-3024	US			false		
111-4302596-5316228	13211792401522	2020-11-28T01:25:17+00:00	2020-11-27T17:25:17-08:00	2020-11-28T01:52:50+00:00	2020-12-02T07:59:59+00:00	-5	7lt71ssmj1gy9v5@marketplace.amazon.com	Obed	+1 213-442-1463 ext. 08601	ABM020	Delivery by Tuesday | The Sunset Bouquet by Arabella Bouquets	1	0	1	Expedited	Felicia Adrian paque agustin	CASA 2729 BELAIRE CIR			ATLANTA	GA	30340-3213	US		Hola mi amor soy  yo tu latoso solo kiere desierte lo importante que eres mi vida que te amo gracias  por existir  en la vida eres sjper.mujer super madre y super hija y super hermana sabe dios te amo 💖 😘😍 De Obed	false		
114-8973577-8253851	27804990780082	2020-11-28T01:34:32+00:00	2020-11-27T17:34:32-08:00	2020-11-28T02:00:52+00:00	2020-12-02T07:59:59+00:00	-5	9z85sp27qxwt7bj@marketplace.amazon.com	Mary Lou Wadolowski	+1 619-854-2705 ext. 83717	ABC002	Delivery by Tuesday | The Warm Wishes Bouquet by Arabella Bouquets	1	0	1	Expedited	Dolores Morrison	203 MEADOW BROOK LN			MILFORD	DE	19963-3018	US		Dear Dolores, Happy Birthday! We love you, Mary Lou, Tom, Kathy & Michelle From Mary Lou Wadolowski	false		
111-1950647-1984235	34301391252458	2020-11-28T01:49:04+00:00	2020-11-27T17:49:04-08:00	2020-11-28T02:08:15+00:00	2020-12-02T07:59:59+00:00	-5	sz4drg8vmsjt4v3@marketplace.amazon.com	jozef okruhlansky	+1 415-851-9136 ext. 19513	ABM022	Delivery by Tuesday | Purple Extravagance Bouquet by Arabella Bouquets	1	0	1	Expedited	Guifang wang	3605 CHAIN BRIDGE RD STE B			FAIRFAX	VA	22030-3245	US			false		
113-6960092-7058634	04710699002578	2020-11-28T01:59:05+00:00	2020-11-27T17:59:05-08:00	2020-11-28T02:12:24+00:00	2020-12-02T07:59:59+00:00	-5	rqpjwk6bf1lpq6b@marketplace.amazon.com	paula mcguinness	+1 480-618-5344 ext. 69499	ABM010	Delivery by Tuesday | The Everlasting Fling Bouquet by Arabella Bouquets with a Free Designer Glass Vase	1	0	1	Expedited	Pauline Larkin	674 HAVENVIEW LN			OKATIE	SC	29909-2018	US			false		
114-9911406-7533032	31777660505906	2020-11-28T02:02:32+00:00	2020-11-27T18:02:32-08:00	2020-11-28T02:28:06+00:00	2020-12-02T07:59:59+00:00	-5	hp86xz4tr8plh2d@marketplace.amazon.com	Guest	+1 415-419-8616 ext. 07314	ABM010	Delivery by Tuesday | The Everlasting Fling Bouquet by Arabella Bouquets with a Free Designer Glass Vase	1	0	1	Expedited	ABBI P.B.	225 NE 10TH RD			LAMAR	MO	64759-7115	US		Have a Wonderful Day! From Just for You	false		
113-4490957-1105803	38057653958058	2020-11-28T02:12:59+00:00	2020-11-27T18:12:59-08:00	2020-11-28T02:35:32+00:00	2020-12-02T07:59:59+00:00	-5	bw779sd3nzmpnbm@marketplace.amazon.com	monique hillers	+1 213-442-1463 ext. 92424	ABR0022	Delivery by Tuesday | Arabella Farm Direct Bouquet of 12 Fresh Cut Pink Roses with a Free Glass Vase	1	0	1	Expedited	Bianca Hoffman	11869 BLACKSMITH CT			PARKER	CO	80134-3060	US		Congratulations with your beautiful daughter. Love mom, dad, Jacklyn and Sofia.	false		
111-9641057-9660251	67354213673682	2020-11-28T02:11:15+00:00	2020-11-27T18:11:15-08:00	2020-11-28T02:40:57+00:00	2020-12-02T07:59:59+00:00	-5	g6rtvr8j1z6g8f5@marketplace.amazon.com	Margaret Bartlette	+1 415-851-9136 ext. 01000	ABR001	Delivery by Tuesday | Arabella Bouquets 12 Stems of Fresh Cut Red Roses in a Free Designer Glass Vase	1	0	1	Expedited	Sue Eldridge	430 RIVER RD			BOWDOINHAM	ME	04008-4614	US			false		
112-0920443-3077815	03341847363298	2020-11-28T02:14:49+00:00	2020-11-27T18:14:49-08:00	2020-11-28T02:41:21+00:00	2020-12-02T07:59:59+00:00	-5	f7lc0tr5jjhd1bt@marketplace.amazon.com	Carol McKeag	+1 415-419-8616 ext. 07342	ABM020	Delivery by Tuesday | The Sunset Bouquet by Arabella Bouquets	1	0	1	Expedited	Diane Pasquini	6841 GORDON CT			STOCKTON	CA	95219-3512	US		Enjoy your gift! From Carol McKeag	false		
112-2090604-1741845	69431243568058	2020-11-28T02:19:30+00:00	2020-11-27T18:19:30-08:00	2020-11-28T02:48:18+00:00	2020-12-02T07:59:59+00:00	-5	l4qgs1ptc31ny0x@marketplace.amazon.com	Warren Anderson	+1 619-854-2705 ext. 72552	ABR001	Delivery by Tuesday | Arabella Bouquets 12 Stems of Fresh Cut Red Roses in a Free Designer Glass Vase	1	0	1	Expedited	Edyth Butt	100 SOMERBY DR APT 1175			ALPHARETTA	GA	30009-8784	US			false		
114-2070297-8978658	28296887100874	2020-11-28T02:39:05+00:00	2020-11-27T18:39:05-08:00	2020-11-28T03:04:50+00:00	2020-12-02T07:59:59+00:00	-5	4qf3n6hsr5k7wtr@marketplace.amazon.com	xianfun	+1 213-442-1463 ext. 06995	ABM010	Delivery by Tuesday | The Everlasting Fling Bouquet by Arabella Bouquets with a Free Designer Glass Vase	1	0	1	Expedited	Palden	9706 FLINT HILL CT			VIENNA	VA	22181-5467	US		Ms. Palden,  May time help you heal and bring you peace. Our sincere condolences, we are so sorry for your loss. From Evelyn with parents	false		
114-5143261-5129007	08454920285770	2020-11-28T02:48:41+00:00	2020-11-27T18:48:41-08:00	2020-11-28T03:15:43+00:00	2020-12-02T07:59:59+00:00	-5	q1bnm83v6ynbytb@marketplace.amazon.com	john v. ziemke	+1 619-854-2705 ext. 64901	ABR0022	Delivery by Tuesday | Arabella Farm Direct Bouquet of 12 Fresh Cut Pink Roses with a Free Glass Vase	1	0	1	Expedited	Susan Strauch	1480 DEERFIELD CIR			ROSEVILLE	CA	95747-7438	US			false		
114-1324512-8802651	25191305960906	2020-11-28T02:50:18+00:00	2020-11-27T18:50:18-08:00	2020-11-28T03:17:13+00:00	2020-12-02T07:59:59+00:00	-5	sdp0k50sjt5h5t8@marketplace.amazon.com	Valerie Nankervis	+1 415-419-8616 ext. 09335	ABM010	Delivery by Tuesday | The Everlasting Fling Bouquet by Arabella Bouquets with a Free Designer Glass Vase	1	0	1	Expedited	Bev Schultz	6544 HOLLY DR			VIRGINIA	MN	55792-8009	US		Happy Birthday Bev!  We love you!  Robert, Valerie, Parker & Quaid From Valerie Nankervis	false		
114-4759558-8805837	43556652853490	2020-11-28T02:27:44+00:00	2020-11-27T18:27:44-08:00	2020-11-28T03:21:13+00:00	2020-12-02T07:59:59+00:00	-5	z3nfphnlxpz0f06@marketplace.amazon.com	Toby Noe	+1 415-851-9136 ext. 12031	ABR0022	Delivery by Tuesday | Arabella Farm Direct Bouquet of 12 Fresh Cut Pink Roses with a Free Glass Vase	1	0	1	Expedited	Linda Blair	3115 S ATLANTIC AVE APT 1004			DAYTONA BEACH	FL	32118-6252	US			false		
111-6986360-1861813	04120226484826	2020-11-28T02:53:57+00:00	2020-11-27T18:53:57-08:00	2020-11-28T03:24:27+00:00	2020-12-02T07:59:59+00:00	-5	44l592t7n91tb8p@marketplace.amazon.com	Derick Senter	+1 415-419-8616 ext. 62623	ABM022	Delivery by Tuesday | Purple Extravagance Bouquet by Arabella Bouquets	1	0	1	Expedited	Derick Senter	11306 W 115th ST			OVERLAND PARK	KS	66210	US			false		
111-6537224-3281830	29419220621282	2020-11-28T03:00:55+00:00	2020-11-27T19:00:55-08:00	2020-11-28T03:25:25+00:00	2020-12-02T07:59:59+00:00	-5	w4n455kz3nrg2h4@marketplace.amazon.com	Ronald Wallace	+1 619-854-2705 ext. 06016	ABM022	Delivery by Tuesday | Purple Extravagance Bouquet by Arabella Bouquets	1	0	1	Expedited	Carolyn Wallace	27722 200 E ST			TAMPICO	IL	61283-9027	US		Happy Birthday! From Ron, Polly, Avery & Drew From Ron, Polly, Avery & Drew	false		
114-3433076-7448247	20261424911346	2020-11-28T02:57:07+00:00	2020-11-27T18:57:07-08:00	2020-11-28T03:26:20+00:00	2020-12-02T07:59:59+00:00	-5	0sfj5j57m04tzqg@marketplace.amazon.com	Tina Bauman	+1 619-854-2705 ext. 69309	ABM0033	Delivery by Tuesday | Arabella Farm Direct Bouquet of Fresh Cut White Hydrangea with a Free Glass Vase	1	0	1	Expedited	Nancy Huls	1540 MEADOWLANE DR			BALDWIN	WI	54002-5553	US		Happy 50th birthday! Wish we could celebrate in person! Hope you have a wonderful day! From Tina Bauman	false		
112-8373394-0525035	69164046902066	2020-11-28T02:59:56+00:00	2020-11-27T18:59:56-08:00	2020-11-28T03:30:34+00:00	2020-12-02T07:59:59+00:00	-5	qfyy1wv8pd2dwcw@marketplace.amazon.com	Rashid	+1 415-419-8616 ext. 19965	ABB006	Delivery by Tuesday | Arabella Bouquets | Farm Direct 48 Fresh Cut Red Roses	1	0	1	Expedited	Miss. Janyl Tokoeva	27908 BRISTOL BAY PL APT 207			WESLEY CHAPEL	FL	33544-8813	US			false		
112-1269616-2774628	09860929540178	2020-11-28T03:13:52+00:00	2020-11-27T19:13:52-08:00	2020-11-28T03:39:38+00:00	2020-12-02T07:59:59+00:00	-5	jtxr0b6qvystvk6@marketplace.amazon.com	Shanna Snyder	+1 480-618-5344 ext. 41556	ABR001	Delivery by Tuesday | Arabella Bouquets 12 Stems of Fresh Cut Red Roses in a Free Designer Glass Vase	1	0	1	Expedited	Shanna Snyder	4720 S 180TH EAST AVE			TULSA	OK	74134-7424	US			false		
114-3519968-7118605	08435726423074	2020-11-28T03:31:51+00:00	2020-11-27T19:31:51-08:00	2020-11-28T03:59:58+00:00	2020-12-02T07:59:59+00:00	-5	ptkh4krxhxptwmv@marketplace.amazon.com	Mrs. Alex Berlan	+1 346-307-9643 ext. 33568	ABSR004	Delivery by Tuesday | Arabella Farm Direct Bouquet of Fresh Cut White Spray Roses with a Free Glass Vase	1	0	1	Expedited	Kirsten Berlan	3622 WAYNOKA DR			CARROLLTON	TX	75007-2792	US		We’re thinking of you and are so sorry about Ajax. Sending hugs & kisses to you all! Miss & love you.   Love, Rob, Alex, Isabella & Lucas From Mrs. Alex Berlan	false		
113-8010742-0596233	27718767535322	2020-11-28T03:46:30+00:00	2020-11-27T19:46:30-08:00	2020-11-28T04:15:48+00:00	2020-12-02T07:59:59+00:00	-5	1gk7zcyynkqbvtn@marketplace.amazon.com	kelly	+1 415-851-9136 ext. 67797	ABR013	Delivery by Tuesday | Arabella Farm Direct Bouquet of 18 Fresh Cut Yellow Roses with a Free Glass Vase	1	0	1	Expedited	Shatha zegar	16231 KINGSPORT RD			ORLAND PARK	IL	60467-5396	US		Enjoy your gift! Happy belated birthday beautiful From kelly	false		
113-1119800-1200202	31781783205122	2020-11-28T04:01:38+00:00	2020-11-27T20:01:38-08:00	2020-11-28T04:30:16+00:00	2020-12-02T07:59:59+00:00	-5	1hmc8lt6mjp25lg@marketplace.amazon.com	Tina L. Beasley	+1 415-419-8616 ext. 71151	ABR0022	Delivery by Tuesday | Arabella Farm Direct Bouquet of 12 Fresh Cut Pink Roses with a Free Glass Vase	1	0	1	Expedited	Penney Beasley	78510 VIA MELODIA			LA QUINTA	CA	92253-2418	US		Hi Penney, Enjoy your gift! Happy Birthday! From Tina & Dennis	false		
