order-id	order-item-id	purchase-date	payments-date	reporting-date	promise-date	days-past-promise	buyer-email	buyer-name	buyer-phone-number	sku	product-name	quantity-purchased	quantity-shipped	quantity-to-ship	ship-service-level	recipient-name	ship-address-1	ship-address-2	ship-address-3	ship-city	ship-state	ship-postal-code	ship-country	gift-wrap-type	gift-message-text	is-business-order	purchase-order-number	price-designation
113-1066889-2625812	55039288933210	2020-11-27T04:24:24+00:00	2020-11-26T20:24:24-08:00	2020-11-27T04:51:28+00:00	2020-12-01T07:59:59+00:00	-3	5gmlpc6vvbtdrw7@marketplace.amazon.com	Charlotte	+1 415-851-9136 ext. 09894	ABM017	Delivery by Tuesday | Arabella Bouquets 10 Stems of Blue Dendrobium Orchids in a Free Designer Glass Vase	1	0	1	Expedited	Karen Pomer	52586 Idyllmont Road			Idyllwild	Ca	92549	US		Toda!  Muchicimas! Danke! Merci! Thank you! I am humbled From Charlotte	false		
111-6093749-9217060	68488578136618	2020-11-27T12:16:43+00:00	2020-11-27T04:16:43-08:00	2020-11-27T12:44:50+00:00	2020-12-02T07:59:59+00:00	-4	9dnrvd7rxswf6tn@marketplace.amazon.com	Chrystal		ABC001	Delivery by Monday | The Seasons Greetings Bouquet by Arabella Bouquets	1	0	1	Expedited	Sandra Hauser	8770 REVERE RUN			WEST CHESTER	OH	45069-3630	US		Happy Birthday Mom!!! You're beautiful and wonderful and I love you so much. See you this weekend. Hope you have a great day today..If they didnt listen to my request on what day to deliver, then happy early birthday :) From Chrystal-Sunshine	false		
112-8546020-0091414	03512032851442	2020-11-27T17:38:29+00:00	2020-11-27T09:38:29-08:00	2020-11-27T18:06:36+00:00	2020-12-02T07:59:59+00:00	-4	cvtf8symlxbc02k@marketplace.amazon.com	Clinton Watkins	+1 415-851-9136 ext. 78824	ABR0022	Delivery by Tuesday | Arabella Farm Direct Bouquet of 12 Fresh Cut Pink Roses with a Free Glass Vase	1	0	1	Expedited	Tiarra	7550 ST PATRICK WAY APT 134			DUBLIN	CA	94568-4872	US		Hopefully this cheers you up and gives you a reason to smile, I know you've had a rough few weeks. Hope this helps <3 From Clinton Watkins	false		
112-5474716-6860250	46479739415578	2020-11-27T18:19:06+00:00	2020-11-27T10:19:06-08:00	2020-11-27T18:46:56+00:00	2020-12-02T07:59:59+00:00	-4	z5ctdjsvqt8w8y3@marketplace.amazon.com	madalyn rosen	+1 480-618-5344 ext. 38313	ABM022	Delivery by Tuesday | Purple Extravagance Bouquet by Arabella Bouquets	1	0	1	Expedited	Lynn Mace	2701 SAPLING CIR			WILMINGTON	NC	28411-6192	US			false		
111-2753483-1852221	60590028176330	2020-11-27T18:28:35+00:00	2020-11-27T10:28:35-08:00	2020-11-27T18:53:52+00:00	2020-12-02T07:59:59+00:00	-4	fcjd0sf72zk36zv@marketplace.amazon.com	Ashley Lenne	+1 602-671-6610 ext. 68412	ABM022	Delivery by Tuesday | Purple Extravagance Bouquet by Arabella Bouquets	1	0	1	Expedited	Jan Hajek	1440 RIVERDALE MANOR DR			O FALLON	MO	63366-1506	US		Happy 60th Birthday, Mom! I wish I could be there to celebrate with you. I hope that you have a great day and that these flowers help make it a little more special! From Samantha	false		
114-5897550-4675444	43302181169266	2020-11-27T18:46:33+00:00	2020-11-27T10:46:33-08:00	2020-11-27T19:14:03+00:00	2020-12-02T07:59:59+00:00	-4	zb1r75stgf7nzgd@marketplace.amazon.com	Elizabeth Tsang	+1 602-671-6610 ext. 73467	ABM022	Delivery by Tuesday | Purple Extravagance Bouquet by Arabella Bouquets	1	0	1	Expedited	Izumi Miller	195 MEADOW VW			ANTIOCH	IL	60002-2469	US		Thinking of you and praying you are filled with God's peace. From Elizabeth Tsang	false		
113-1274859-1765046	41724721750266	2020-11-27T19:15:48+00:00	2020-11-27T11:15:48-08:00	2020-11-27T19:44:29+00:00	2020-12-02T07:59:59+00:00	-4	f9d4nl4q7c6p7xd@marketplace.amazon.com	Sher Beard	+1 346-307-9643 ext. 43015	ABR0022	Delivery by Tuesday | Arabella Farm Direct Bouquet of 12 Fresh Cut Pink Roses with a Free Glass Vase	1	0	1	Expedited	Cindy Greer	33529 SJ AND E RD			AUBERRY	CA	93602-9548	US			false		
112-4093716-9414610	30798756975826	2020-11-27T19:22:48+00:00	2020-11-27T11:22:48-08:00	2020-11-27T19:53:10+00:00	2020-12-02T07:59:59+00:00	-4	1dfm634kxjyv5dt@marketplace.amazon.com	April Young	+1 602-671-6610 ext. 18569	ABR001	Delivery by Tuesday | Arabella Bouquets 12 Stems of Fresh Cut Red Roses in a Free Designer Glass Vase	1	0	1	Expedited	Wedbush Securities attn: Michelle Messere	150 Radnor-Chester Rd	Suite E155		Radnor	PA	19087	US			false		
113-4159386-3037008	41004671946506	2020-11-27T19:38:02+00:00	2020-11-27T11:38:02-08:00	2020-11-27T20:01:40+00:00	2020-12-02T07:59:59+00:00	-4	xscyfq1yhm1y94d@marketplace.amazon.com	Gina Ross	+1 415-851-9136 ext. 54488	ABM022	Delivery by Tuesday | Purple Extravagance Bouquet by Arabella Bouquets	1	0	1	Expedited	Jeanne McClure	19945 SW BOONES FERRY RD 126			TUALATIN	OR	97062-7272	US		Enjoy your gift! Love you Mom! From Gina Ross	false		
114-5481643-2079404	28297788571674	2020-11-27T19:36:07+00:00	2020-11-27T11:36:07-08:00	2020-11-27T20:02:08+00:00	2020-12-02T07:59:59+00:00	-4	x9521791gwfgdfc@marketplace.amazon.com	Jhenielle Brown	+1 213-442-1463 ext. 97113	ABR0055	Delivery by Tuesday | Arabella Farm Direct Bouquet of 12 Stems of Fresh Cut Hot Pink Roses in a Free Designer Glass Vase	1	0	1	Expedited	Jodie-Ann Hill	4301 DUPONT LN APT 4301			TUCKER	GA	30084-3740	US		Happy Golden Birthday Sissy! I hope God continues to cover, bless and keep you this year and every year. Enjoy your day. Love you! From Jhenielle Brown	false		
112-9302683-0873046	15916167712930	2020-11-27T19:42:42+00:00	2020-11-27T11:42:42-08:00	2020-11-27T20:06:17+00:00	2020-12-02T07:59:59+00:00	-4	1dfm634kxjyv5dt@marketplace.amazon.com	April Young	+1 213-442-1463 ext. 86928	ABR001	Delivery by Tuesday | Arabella Bouquets 12 Stems of Fresh Cut Red Roses in a Free Designer Glass Vase	1	0	1	Expedited	Debbie Bluestein	1557 BRIAR HILL RD			GLADWYNE	PA	19035-1249	US		Debbie, We know the decision to transition requires the support of many. Welcome to the Wedbush family! From Frank & April, Wedbush Securities	false		
114-5328800-7690644	01454314214298	2020-11-27T19:36:22+00:00	2020-11-27T11:36:22-08:00	2020-11-27T20:06:59+00:00	2020-12-02T07:59:59+00:00	-4	088l7zbp1t667d8@marketplace.amazon.com	Dr. Ruth Shen	+1 415-419-8616 ext. 90749	ABM010	Delivery by Tuesday | The Everlasting Fling Bouquet by Arabella Bouquets with a Free Designer Glass Vase	1	0	1	Expedited	Dr. T. Y. Shen	501 Via Casitas	Apt 304		Greenbrae	CA	94904	US			false		
113-5106647-7414628	41364045677298	2020-11-27T19:52:41+00:00	2020-11-27T11:52:41-08:00	2020-11-27T20:24:41+00:00	2020-12-02T07:59:59+00:00	-4	2bjqrtrsh0nh7r7@marketplace.amazon.com	James Brooks	+1 619-854-2705 ext. 40591	ABR001	Delivery by Tuesday | Arabella Bouquets 12 Stems of Fresh Cut Red Roses in a Free Designer Glass Vase	1	0	1	Expedited	James Brooks	508 branding iron ln			Holly lake ranch	Tx	75765	US			false		
113-3169297-3027447	33652145340730	2020-11-27T20:05:20+00:00	2020-11-27T12:05:20-08:00	2020-11-27T20:35:28+00:00	2020-12-02T07:59:59+00:00	-4	bz1fmn8v5bj552d@marketplace.amazon.com	Mike meyer	+1 346-307-9643 ext. 89715	ABR0022	Delivery by Tuesday | Arabella Farm Direct Bouquet of 12 Fresh Cut Pink Roses with a Free Glass Vase	1	0	1	Expedited	Karen Bush	141 WALOSI WAY			LOUDON	TN	37774-2504	US			false		
114-0054856-6001026	21589692911874	2020-11-27T20:12:40+00:00	2020-11-27T12:12:40-08:00	2020-11-27T20:42:21+00:00	2020-12-02T07:59:59+00:00	-4	3qbnt0j8k0c6qy9@marketplace.amazon.com	Chin Hua Kong	+1 619-854-2705 ext. 78865	ABR001	Delivery by Tuesday | Arabella Bouquets 12 Stems of Fresh Cut Red Roses in a Free Designer Glass Vase	1	0	1	Expedited	Menuk	560 SCOTT ST APT C			MONTEREY	CA	93940-2329	US		We miss you From Yuke senjaya	false		
112-7612939-2436237	66269945305842	2020-11-27T20:46:20+00:00	2020-11-27T12:46:20-08:00	2020-11-27T21:12:59+00:00	2020-12-02T07:59:59+00:00	-4	pgh4n7r1pp3c5rv@marketplace.amazon.com	Kubach Arlette	+1 415-851-9136 ext. 61781	ABR001	Delivery by Tuesday | Arabella Bouquets 12 Stems of Fresh Cut Red Roses in a Free Designer Glass Vase	1	0	1	Expedited	Sophie KUBACH	908 Middle avenue appart N			MENLO PARK	CALIFORNIA	94025-5142	US		Pounet se joint à moi pour te souhaiter un très joyeux anniversaire.  Bises à vous trois Pounet et Mounette From Kubach Arlette & Christian	false		
111-0471894-6989848	06201289560266	2020-11-27T20:51:25+00:00	2020-11-27T12:51:25-08:00	2020-11-27T21:16:22+00:00	2020-12-02T07:59:59+00:00	-4	pxz1hr7fch0gsr0@marketplace.amazon.com	Steven Parisi	+1 763-225-9463 ext. 42667	ABR0055	Delivery by Tuesday | Arabella Farm Direct Bouquet of 12 Stems of Fresh Cut Hot Pink Roses in a Free Designer Glass Vase	1	0	1	Expedited	Mrs. Mary Farrell	47 ARDMORE AVE			STATEN ISLAND	NY	10314-4425	US		Happy 90th Birthday! From Steven,Donna,Nick,Jenn&James Parisi	false		
112-8348661-3968209	39562315161186	2020-11-27T21:17:01+00:00	2020-11-27T13:17:01-08:00	2020-11-27T21:40:51+00:00	2020-12-02T07:59:59+00:00	-4	96kmmtq9j6gqnq2@marketplace.amazon.com	SeattleReader	+1 346-307-9643 ext. 80463	ABR0022	Delivery by Tuesday | Arabella Farm Direct Bouquet of 12 Fresh Cut Pink Roses with a Free Glass Vase	1	0	1	Expedited	Elyse Rademacher	8516 215TH ST SW			EDMONDS	WA	98026-7319	US		Congratulations! You are a wonderful Mama!!!! From We Love you...Mom and Pops	false		
112-7937272-4868249	08472892129418	2020-11-27T21:33:25+00:00	2020-11-27T13:33:25-08:00	2020-11-27T22:01:55+00:00	2020-12-02T07:59:59+00:00	-4	9163zklmzzw1k3m@marketplace.amazon.com	michael cowart	+1 480-618-5344 ext. 98058	ABR0022	Delivery by Tuesday | Arabella Farm Direct Bouquet of 12 Fresh Cut Pink Roses with a Free Glass Vase	1	0	1	Expedited	Erin myers	3974 GARNET PL			HIGHLANDS RANCH	CO	80126-5045	US		Have a good day snookums, I love you baby cakes and miss you ALOT. I can’t wait to see you and pinch your ass From michael cowart	false		
112-4762142-6977807	41294021320234	2020-11-27T21:38:21+00:00	2020-11-27T13:38:21-08:00	2020-11-27T22:05:46+00:00	2020-12-02T07:59:59+00:00	-4	2lqrs6ltmxl9h0z@marketplace.amazon.com	Debbie Lennon	+1 213-442-1463 ext. 68377	ABR0022	Delivery by Tuesday | Arabella Farm Direct Bouquet of 12 Fresh Cut Pink Roses with a Free Glass Vase	1	0	1	Expedited	Jil Boskovich	33192 OCEAN RDG			DANA POINT	CA	92629-6010	US			false		
113-6358896-4277840	35650105097722	2020-11-27T21:51:11+00:00	2020-11-27T13:51:11-08:00	2020-11-27T22:12:05+00:00	2020-12-02T07:59:59+00:00	-4	fhkwp4xxbbnrtwb@marketplace.amazon.com	Paul Galonsky	+1 213-442-1463 ext. 49392	ABR001	Delivery by Tuesday | Arabella Bouquets 12 Stems of Fresh Cut Red Roses in a Free Designer Glass Vase	1	0	1	Expedited	Annette Lustig	8501 RAINTREE LN			CHARLOTTE	NC	28277-7806	US		Dear Annette,  Happy and healthy 80th birthday and many more!  Love,  Marsha and Larry From Marsha Bertucelli	false		
111-3238383-3778629	13658306868946	2020-11-27T21:42:40+00:00	2020-11-27T13:42:40-08:00	2020-11-27T22:13:23+00:00	2020-12-02T07:59:59+00:00	-4	d21313mrpk8hdfb@marketplace.amazon.com	Ailis	+1 602-671-6610 ext. 52708	ABM022	Delivery by Tuesday | Purple Extravagance Bouquet by Arabella Bouquets	1	0	1	Expedited	Ailis	3915 LANDOVER LN			RALEIGH	NC	27616-9044	US			false		
111-2324343-2354625	33524968139506	2020-11-27T21:47:17+00:00	2020-11-27T13:47:17-08:00	2020-11-27T22:16:30+00:00	2020-12-02T07:59:59+00:00	-4	ftnc4w91h0bjdmn@marketplace.amazon.com	Gerri L.  Duke	+1 602-671-6610 ext. 52506	ABR0055	Delivery by Tuesday | Arabella Farm Direct Bouquet of 12 Stems of Fresh Cut Hot Pink Roses in a Free Designer Glass Vase	1	0	1	Expedited	Pamela Blank	13045 HIDDEN BEACH WAY			CLERMONT	FL	34711-5914	US		HAPPY BIRTHDAY PAMELA! From llOVE, Pa & Sis	false		
111-3148061-2103408	08031711606242	2020-11-27T22:17:38+00:00	2020-11-27T14:17:38-08:00	2020-11-27T22:44:19+00:00	2020-12-02T07:59:59+00:00	-4	pj6b39v7dmdnxxy@marketplace.amazon.com	Donna Clayton	+1 346-307-9643 ext. 72133	ABR0022	Delivery by Tuesday | Arabella Farm Direct Bouquet of 12 Fresh Cut Pink Roses with a Free Glass Vase	1	0	1	Expedited	Tara Malone	574 CHATHAM DR			CHAPEL HILL	NC	27516-8093	US		Heal rapidly!  Sorry I can't be with you.  Love, Mom From Donna Clayton	false		
111-6600197-9119405	63043696803266	2020-11-27T22:29:51+00:00	2020-11-27T14:29:51-08:00	2020-11-27T22:58:20+00:00	2020-12-02T07:59:59+00:00	-4	68y7ph75z5r2b00@marketplace.amazon.com	sammy	+1 346-307-9643 ext. 97499	ABR001	Delivery by Tuesday | Arabella Bouquets 12 Stems of Fresh Cut Red Roses in a Free Designer Glass Vase	1	0	1	Expedited	Rinku desai	6 LEGACY CROSSING CT			SAINT CHARLES	MO	63303-1747	US		You are special! 😘 😘😘😘😘 With lots of love From sanju	false		
112-1763990-5433830	20551788344194	2020-11-27T22:52:59+00:00	2020-11-27T14:52:59-08:00	2020-11-27T23:18:04+00:00	2020-12-02T07:59:59+00:00	-4	1qtjtflmclndltz@marketplace.amazon.com	Devona Beaver	+1 346-307-9643 ext. 42166	ABM010	Delivery by Tuesday | The Everlasting Fling Bouquet by Arabella Bouquets with a Free Designer Glass Vase	1	0	1	Expedited	Mary Jane Duty	995 STATE ROUTE 37 N			BUNCOMBE	IL	62912-2205	US		WISHING YOU A HAPPY BIRTHDAY AND GET WELL SOON WISH.  THINKING OF YOU!    ALL OUR LOVE,  DEE, JOE, GIZMO AND ROMO From JOE AND DEE BEAVER	false		
112-0197027-1212271	40341948098114	2020-11-27T22:57:26+00:00	2020-11-27T14:57:26-08:00	2020-11-27T23:21:00+00:00	2020-12-02T07:59:59+00:00	-4	zcfb0tx5jyvj9y4@marketplace.amazon.com	Denise Ruttman	+1 602-671-6610 ext. 90620	ABM022	Delivery by Tuesday | Purple Extravagance Bouquet by Arabella Bouquets	1	0	1	Expedited	LaRay Reed	5846 ROSWELL ST			SAN DIEGO	CA	92114-1211	US			false		
113-7432463-8017059	69872095421266	2020-11-27T22:55:41+00:00	2020-11-27T14:55:41-08:00	2020-11-27T23:22:06+00:00	2020-12-02T07:59:59+00:00	-4	8tnrvdhc31rrx7n@marketplace.amazon.com	George Gibson	+1 415-851-9136 ext. 14383	ABR0055	Delivery by Tuesday | Arabella Farm Direct Bouquet of 12 Stems of Fresh Cut Hot Pink Roses in a Free Designer Glass Vase	1	0	1	Expedited	Pam Shirley	2501 BRIARWOOD AVE SW APT F44			FORT PAYNE	AL	35967-8434	US		Love and miss you darling!   Enjoy! From George Gibson	false		
113-6789103-4534630	65707764334114	2020-11-27T23:08:23+00:00	2020-11-27T15:08:23-08:00	2020-11-27T23:26:56+00:00	2020-12-02T07:59:59+00:00	-4	bkcv2tb9y09stvg@marketplace.amazon.com	Marcel  Moline iii	+1 415-419-8616 ext. 25325	ABR0022	Delivery by Tuesday | Arabella Farm Direct Bouquet of 12 Fresh Cut Pink Roses with a Free Glass Vase	1	0	1	Expedited	carol Norman	6600 LANDS END CT			FORT WORTH	TX	76116-2100	US		Enjoy your gift!! We love you! From Marcel and Sandra	false		
113-1691393-3293847	65985276514322	2020-11-27T22:56:56+00:00	2020-11-27T14:56:56-08:00	2020-11-27T23:27:28+00:00	2020-12-02T07:59:59+00:00	-4	547v9gz8fcmvvk7@marketplace.amazon.com	Chase	+1 213-442-1463 ext. 91780	ABR0022	Delivery by Tuesday | Arabella Farm Direct Bouquet of 12 Fresh Cut Pink Roses with a Free Glass Vase	1	0	1	Expedited	Chase Hendricks	909 SKYLARK HILL LN			PFLUGERVILLE	TX	78660-8019	US			false		
112-7929417-7567437	70276711538666	2020-11-27T23:05:16+00:00	2020-11-27T15:05:16-08:00	2020-11-27T23:35:47+00:00	2020-12-02T07:59:59+00:00	-4	d4ncpnj68922t9z@marketplace.amazon.com	Raul deltoro jr	+1 602-671-6610 ext. 51856	ABM010	Delivery by Tuesday | The Everlasting Fling Bouquet by Arabella Bouquets with a Free Designer Glass Vase	1	0	1	Expedited	Jasmine jaimes	1600 SANTAVY ST APT 3309			BAYTOWN	TX	77521-2469	US			false		
114-4740055-4587465	49336699028986	2020-11-27T23:41:11+00:00	2020-11-27T15:41:11-08:00	2020-11-28T00:23:18+00:00	2020-12-02T07:59:59+00:00	-4	68ysq07bd4l3kjr@marketplace.amazon.com	Laurence Pesdan	+1 346-307-9643 ext. 12143	ABM022	Delivery by Tuesday | Purple Extravagance Bouquet by Arabella Bouquets	1	0	1	Expedited	Laurence Pesdan	2000 S ROGERS CT			NEW BERLIN	WI	53146-1812	US			false		
114-3653469-1024246	20232003689266	2020-11-28T00:03:54+00:00	2020-11-27T16:03:54-08:00	2020-11-28T00:33:04+00:00	2020-12-02T07:59:59+00:00	-4	b8q30tqrdt4ll0d@marketplace.amazon.com	James delaney	+1 602-671-6610 ext. 16600	ABR0022	Delivery by Tuesday | Arabella Farm Direct Bouquet of 12 Fresh Cut Pink Roses with a Free Glass Vase	2	0	2	Expedited	James delaney	3856 KINDLE LN			NORMAN	OK	73072-9110	US			false		
113-5247007-3677014	23394560189690	2020-11-28T00:16:57+00:00	2020-11-27T16:16:57-08:00	2020-11-28T00:43:29+00:00	2020-12-02T07:59:59+00:00	-4	14nxd2gtyntvmcn@marketplace.amazon.com	Elizabeth Harding Laramee	+1 415-851-9136 ext. 97145	ABR0022	Delivery by Tuesday | Arabella Farm Direct Bouquet of 12 Fresh Cut Pink Roses with a Free Glass Vase	1	0	1	Expedited	Mary Campolo	13628 BEAUREGARD PL			ORLANDO	FL	32837-7670	US		Mary, These flowers are for you in memory of Paul.  We love you, Elizabeth and Richard From Elizabeth Harding Laramee	false		
112-6860459-5523457	54492222098562	2020-11-28T00:26:18+00:00	2020-11-27T16:26:18-08:00	2020-11-28T00:55:47+00:00	2020-12-02T07:59:59+00:00	-4	2mwdrvcf5pgqgy9@marketplace.amazon.com	David P. Miles	+1 480-618-5344 ext. 80212	ABR001	Delivery by Tuesday | Arabella Bouquets 12 Stems of Fresh Cut Red Roses in a Free Designer Glass Vase	1	0	1	Expedited	Mamasita Linda	2195 GULF DR			MT PLEASANT	SC	29466-8894	US		Feliz cumpleaños, Mamasita Linda! From Familia Miles	false		
114-0519671-7645841	44331412267066	2020-11-28T01:11:03+00:00	2020-11-27T17:11:03-08:00	2020-11-28T01:12:02+00:00	2020-12-02T07:59:59+00:00	-4	l0wmw6r6zt44hlj@marketplace.amazon.com	crystal	+1 763-225-9463 ext. 03544	ABR0022	Delivery by Tuesday | Arabella Farm Direct Bouquet of 12 Fresh Cut Pink Roses with a Free Glass Vase	1	0	1	Expedited	Ryheem Robinson	207 CHARLOTTE			LINDEN	TX	75563-5944	US		Something beautiful for my Queen but nothing is as beautiful as u From Your Husband	false		
114-5372972-7142655	40072826783994	2020-11-28T00:43:50+00:00	2020-11-27T16:43:50-08:00	2020-11-28T01:13:34+00:00	2020-12-02T07:59:59+00:00	-4	b279j4tg1gkfx7w@marketplace.amazon.com	Michelle Lee	+1 763-225-9463 ext. 65571	ABR001	Delivery by Tuesday | Arabella Bouquets 12 Stems of Fresh Cut Red Roses in a Free Designer Glass Vase	1	0	1	Expedited	Cindy Hong	1451 CALLE GRANDE			FULLERTON	CA	92835-2811	US		Happy Birthday Cindy!! Thank you so much for helping me this year, love ya bestieee From Michelle Lee	false		
114-0602548-4881809	05833085583722	2020-11-28T00:53:40+00:00	2020-11-27T16:53:40-08:00	2020-11-28T01:16:49+00:00	2020-12-02T07:59:59+00:00	-4	qghvjk7l09jc5xq@marketplace.amazon.com	Kendall Bryan	+1 763-225-9463 ext. 44528	ABR0022	Delivery by Tuesday | Arabella Farm Direct Bouquet of 12 Fresh Cut Pink Roses with a Free Glass Vase	1	0	1	Expedited	Sharita Bryan	8717 POLISHED PEBBLE WAY			LAUREL	MD	20723-5910	US		Congratulations Bre'! We are so proud of you!!! Please Enjoy your gift! Grandma Jackie Grandpa Bryan Uncle Kendall From Kendall Bryan	true		Business Price
114-5739985-0273032	04547043316138	2020-11-28T00:52:17+00:00	2020-11-27T16:52:17-08:00	2020-11-28T01:20:48+00:00	2020-12-02T07:59:59+00:00	-4	4zkzc7bj7nsv2zn@marketplace.amazon.com	John Porten	+1 619-854-2705 ext. 05598	ABR001	Delivery by Tuesday | Arabella Bouquets 12 Stems of Fresh Cut Red Roses in a Free Designer Glass Vase	1	0	1	Expedited	Nicole Porten	1111 N DEARBORN ST APT 1405			CHICAGO	IL	60610-2762	US		Happy 25th! We love you! From Mom & Dad	false		
113-7637495-7437832	55001751933178	2020-11-28T01:17:31+00:00	2020-11-27T17:17:31-08:00	2020-11-28T01:46:07+00:00	2020-12-02T07:59:59+00:00	-4	4v9vg5v1rv7wn8p@marketplace.amazon.com	Tristan Rodewald	+1 346-307-9643 ext. 96420	ABR0022	Delivery by Tuesday | Arabella Farm Direct Bouquet of 12 Fresh Cut Pink Roses with a Free Glass Vase	1	0	1	Expedited	Tabatha Merrick	5405 VISTA SIERRA			CYPRESS	CA	90630-3024	US			false		
111-4302596-5316228	13211792401522	2020-11-28T01:25:17+00:00	2020-11-27T17:25:17-08:00	2020-11-28T01:52:50+00:00	2020-12-02T07:59:59+00:00	-4	7lt71ssmj1gy9v5@marketplace.amazon.com	Obed	+1 213-442-1463 ext. 08601	ABM020	Delivery by Tuesday | The Sunset Bouquet by Arabella Bouquets	1	0	1	Expedited	Felicia Adrian paque agustin	CASA 2729 BELAIRE CIR			ATLANTA	GA	30340-3213	US		Hola mi amor soy  yo tu latoso solo kiere desierte lo importante que eres mi vida que te amo gracias  por existir  en la vida eres sjper.mujer super madre y super hija y super hermana sabe dios te amo 💖 😘😍 De Obed	false		
113-6960092-7058634	04710699002578	2020-11-28T01:59:05+00:00	2020-11-27T17:59:05-08:00	2020-11-28T02:12:24+00:00	2020-12-02T07:59:59+00:00	-4	rqpjwk6bf1lpq6b@marketplace.amazon.com	paula mcguinness	+1 480-618-5344 ext. 69499	ABM010	Delivery by Tuesday | The Everlasting Fling Bouquet by Arabella Bouquets with a Free Designer Glass Vase	1	0	1	Expedited	Pauline Larkin	674 HAVENVIEW LN			OKATIE	SC	29909-2018	US			false		
113-4490957-1105803	38057653958058	2020-11-28T02:12:59+00:00	2020-11-27T18:12:59-08:00	2020-11-28T02:35:32+00:00	2020-12-02T07:59:59+00:00	-4	bw779sd3nzmpnbm@marketplace.amazon.com	monique hillers	+1 213-442-1463 ext. 92424	ABR0022	Delivery by Tuesday | Arabella Farm Direct Bouquet of 12 Fresh Cut Pink Roses with a Free Glass Vase	1	0	1	Expedited	Bianca Hoffman	11869 BLACKSMITH CT			PARKER	CO	80134-3060	US		Congratulations with your beautiful daughter. Love mom, dad, Jacklyn and Sofia.	false		
111-9641057-9660251	67354213673682	2020-11-28T02:11:15+00:00	2020-11-27T18:11:15-08:00	2020-11-28T02:40:57+00:00	2020-12-02T07:59:59+00:00	-4	g6rtvr8j1z6g8f5@marketplace.amazon.com	Margaret Bartlette	+1 415-851-9136 ext. 01000	ABR001	Delivery by Tuesday | Arabella Bouquets 12 Stems of Fresh Cut Red Roses in a Free Designer Glass Vase	1	0	1	Expedited	Sue Eldridge	430 RIVER RD			BOWDOINHAM	ME	04008-4614	US			false		
112-2090604-1741845	69431243568058	2020-11-28T02:19:30+00:00	2020-11-27T18:19:30-08:00	2020-11-28T02:48:18+00:00	2020-12-02T07:59:59+00:00	-4	l4qgs1ptc31ny0x@marketplace.amazon.com	Warren Anderson	+1 619-854-2705 ext. 72552	ABR001	Delivery by Tuesday | Arabella Bouquets 12 Stems of Fresh Cut Red Roses in a Free Designer Glass Vase	1	0	1	Expedited	Edyth Butt	100 SOMERBY DR APT 1175			ALPHARETTA	GA	30009-8784	US			false		
114-5143261-5129007	08454920285770	2020-11-28T02:48:41+00:00	2020-11-27T18:48:41-08:00	2020-11-28T03:15:43+00:00	2020-12-02T07:59:59+00:00	-4	q1bnm83v6ynbytb@marketplace.amazon.com	john v. ziemke	+1 619-854-2705 ext. 64901	ABR0022	Delivery by Tuesday | Arabella Farm Direct Bouquet of 12 Fresh Cut Pink Roses with a Free Glass Vase	1	0	1	Expedited	Susan Strauch	1480 DEERFIELD CIR			ROSEVILLE	CA	95747-7438	US			false		
114-4759558-8805837	43556652853490	2020-11-28T02:27:44+00:00	2020-11-27T18:27:44-08:00	2020-11-28T03:21:13+00:00	2020-12-02T07:59:59+00:00	-4	z3nfphnlxpz0f06@marketplace.amazon.com	Toby Noe	+1 415-851-9136 ext. 12031	ABR0022	Delivery by Tuesday | Arabella Farm Direct Bouquet of 12 Fresh Cut Pink Roses with a Free Glass Vase	1	0	1	Expedited	Linda Blair	3115 S ATLANTIC AVE APT 1004			DAYTONA BEACH	FL	32118-6252	US			false		
111-6537224-3281830	29419220621282	2020-11-28T03:00:55+00:00	2020-11-27T19:00:55-08:00	2020-11-28T03:25:25+00:00	2020-12-02T07:59:59+00:00	-4	w4n455kz3nrg2h4@marketplace.amazon.com	Ronald Wallace	+1 619-854-2705 ext. 06016	ABM022	Delivery by Tuesday | Purple Extravagance Bouquet by Arabella Bouquets	1	0	1	Expedited	Carolyn Wallace	27722 200 E ST			TAMPICO	IL	61283-9027	US		Happy Birthday! From Ron, Polly, Avery & Drew From Ron, Polly, Avery & Drew	false		
112-1269616-2774628	09860929540178	2020-11-28T03:13:52+00:00	2020-11-27T19:13:52-08:00	2020-11-28T03:39:38+00:00	2020-12-02T07:59:59+00:00	-4	jtxr0b6qvystvk6@marketplace.amazon.com	Shanna Snyder	+1 480-618-5344 ext. 41556	ABR001	Delivery by Tuesday | Arabella Bouquets 12 Stems of Fresh Cut Red Roses in a Free Designer Glass Vase	1	0	1	Expedited	Shanna Snyder	4720 S 180TH EAST AVE			TULSA	OK	74134-7424	US			false		
113-1119800-1200202	31781783205122	2020-11-28T04:01:38+00:00	2020-11-27T20:01:38-08:00	2020-11-28T04:30:16+00:00	2020-12-02T07:59:59+00:00	-4	1hmc8lt6mjp25lg@marketplace.amazon.com	Tina L. Beasley	+1 415-419-8616 ext. 71151	ABR0022	Delivery by Tuesday | Arabella Farm Direct Bouquet of 12 Fresh Cut Pink Roses with a Free Glass Vase	1	0	1	Expedited	Penney Beasley	78510 VIA MELODIA			LA QUINTA	CA	92253-2418	US		Hi Penney, Enjoy your gift! Happy Birthday! From Tina & Dennis	false		
111-9903572-5896204	61208043654034	2020-11-28T04:09:02+00:00	2020-11-27T20:09:02-08:00	2020-11-28T04:38:25+00:00	2020-12-02T07:59:59+00:00	-4	hpsvg1tc6b5k1sg@marketplace.amazon.com	Sarina Wilder	+1 346-307-9643 ext. 09466	ABM022	Delivery by Tuesday | Purple Extravagance Bouquet by Arabella Bouquets	1	0	1	Expedited	Pamela Champney	1850 BARNETT RD			MURPHY	NC	28906-3616	US			false		
111-9456920-0517031	06973355977338	2020-11-28T04:27:04+00:00	2020-11-27T20:27:04-08:00	2020-11-28T04:55:06+00:00	2020-12-02T07:59:59+00:00	-4	jnnvnwnk48c9wzj@marketplace.amazon.com	Todd A Pearce	+1 619-854-2705 ext. 97897	ABM022	Delivery by Tuesday | Purple Extravagance Bouquet by Arabella Bouquets	1	0	1	Expedited	Donna Pearce	14785 S 182ND DR			GOODYEAR	AZ	85338-7701	US		Happy Birthday Mom!!! We love you so much and hope you have a great day. Thanks for all you’ve done for us and our family over the years. 🥰🥰🥰 From Todd & Ryan and families	false		
111-5854580-4008266	16816001169498	2020-11-28T04:43:48+00:00	2020-11-27T20:43:48-08:00	2020-11-28T05:09:47+00:00	2020-12-02T07:59:59+00:00	-4	ly6nv3z3zpfqymq@marketplace.amazon.com	Karthik Sainathan	+1 619-854-2705 ext. 85846	ABR001	Delivery by Tuesday | Arabella Bouquets 12 Stems of Fresh Cut Red Roses in a Free Designer Glass Vase	1	0	1	Expedited	Ishaani Priyadarshini	510 HAMLET WAY UNIT 101			NEWARK	DE	19711-3666	US		I love you! From Karthik Sainathan	false		
111-3575465-5453860	06288944727386	2020-11-28T04:43:59+00:00	2020-11-27T20:43:59-08:00	2020-11-28T05:14:39+00:00	2020-12-02T07:59:59+00:00	-4	18kf2k0vhtxf8wh@marketplace.amazon.com	Ira Hochman	+1 602-671-6610 ext. 19049	ABM022	Delivery by Tuesday | Purple Extravagance Bouquet by Arabella Bouquets	1	0	1	Expedited	Elizabeth Hochman Mak	45 IVY WAY			PORT WASHINGTON	NY	11050-3803	US			false		
112-6773962-0566667	49312668680178	2020-11-28T04:55:42+00:00	2020-11-27T20:55:42-08:00	2020-11-28T05:25:28+00:00	2020-12-02T07:59:59+00:00	-4	s00md0bgcb5tkz1@marketplace.amazon.com	Margarita	+1 346-307-9643 ext. 44799	ABR0022	Delivery by Tuesday | Arabella Farm Direct Bouquet of 12 Fresh Cut Pink Roses with a Free Glass Vase	1	0	1	Expedited	María Francisca Martinez Murphy	5 church twrs apt 8F			Hoboken	New Jersey	07030-2759	US			false		
114-3798886-4056236	18920308470786	2020-11-28T06:28:46+00:00	2020-11-27T22:28:46-08:00	2020-11-28T06:56:27+00:00	2020-12-02T07:59:59+00:00	-4	m742yf2612c5lvb@marketplace.amazon.com	Tahira Jamal	+1 480-618-5344 ext. 42263	ABR0022	Delivery by Tuesday | Arabella Farm Direct Bouquet of 12 Fresh Cut Pink Roses with a Free Glass Vase	1	0	1	Expedited	Ambreen Javed	10703 CAMERON GLEN DR			FAIRFAX	VA	22030-3828	US		A small token of appreciation for everything. Happy Thanksgiving From Shaista aunty, Tahira and family.	false		
111-6239398-6429802	51938617223506	2020-11-28T06:41:54+00:00	2020-11-27T22:41:54-08:00	2020-11-28T07:03:51+00:00	2020-12-02T07:59:59+00:00	-4	vp1v9xfs55v1gw1@marketplace.amazon.com	Kim M. Miller	+1 619-854-2705 ext. 94822	ABR0022	Delivery by Tuesday | Arabella Farm Direct Bouquet of 12 Fresh Cut Pink Roses with a Free Glass Vase	1	0	1	Expedited	Sarah Mickiewicz	1363 MILL CREEK RD			MANAHAWKIN	NJ	08050-5314	US			false		
111-8104919-8994622	57848197224234	2020-11-28T07:02:12+00:00	2020-11-27T23:02:12-08:00	2020-11-28T07:29:16+00:00	2020-12-02T07:59:59+00:00	-4	0ckn9wjh0vjlwb6@marketplace.amazon.com	ANDREW STRICKLER	+1 213-442-1463 ext. 53382	ABM022	Delivery by Tuesday | Purple Extravagance Bouquet by Arabella Bouquets	1	0	1	Expedited	Ashleigh Strickler	361 CASPIAN TERN DR			MYRTLE BEACH	SC	29588-7294	US		Just want you to know that I absolutely love you very very much baby. Two Hearts One Rhythm. I love you Ash always-n - forever. Love AJ From ANDREW STRICKLER	false		
113-5835827-0566621	36693107868850	2020-11-28T13:03:55+00:00	2020-11-28T05:03:55-08:00	2020-11-28T13:21:26+00:00	2020-12-02T07:59:59+00:00	-4	99778z8lvnp42xt@marketplace.amazon.com	samantha weiland	+1 480-618-5344 ext. 62174	ABM010	Delivery by Tuesday | The Everlasting Fling Bouquet by Arabella Bouquets with a Free Designer Glass Vase	1	0	1	Expedited	Linda Perry	515 20TH ST APT A			SACRAMENTO	CA	95811-1158	US		Your last text made me cry.  These are a small attempt to apologize to you for hurting you while I spun out of control. I think of you daily, happy memories and crushing guilt. I love you, always have always will From samantha weiland	false		
114-1586767-0448230	52729843380194	2020-11-28T13:06:19+00:00	2020-11-28T05:06:19-08:00	2020-11-28T13:35:37+00:00	2020-12-02T07:59:59+00:00	-4	jtrjjwdgdytcd6p@marketplace.amazon.com	Mary Raughley	+1 346-307-9643 ext. 74625	ABM017	Delivery by Wednesday | Arabella Bouquets 10 Stems of Blue Dendrobium Orchids in a Free Designer Glass Vase	1	0	1	Expedited	Nicole Carty	1033 LEATHERSTONE LN			FUQUAY VARINA	NC	27526-3750	US		Congratulations on your new bundle of joy!! From Mary, Brian & Teagan	false		
114-9667758-6301853	62631808933450	2020-11-28T13:05:20+00:00	2020-11-28T05:05:20-08:00	2020-11-28T13:35:45+00:00	2020-12-02T07:59:59+00:00	-4	p13khy4y5p7bthf@marketplace.amazon.com	Peter M. Andersen	+1 619-854-2705 ext. 06425	ABR0022	Delivery by Tuesday | Arabella Farm Direct Bouquet of 12 Fresh Cut Pink Roses with a Free Glass Vase	1	0	1	Expedited	Peter M Andersen	16 E OXFORD ST			VALHALLA	NY	10595-1816	US			false		
112-1208481-8968203	38983579546442	2020-11-28T13:24:17+00:00	2020-11-28T05:24:17-08:00	2020-11-28T13:42:57+00:00	2020-12-02T07:59:59+00:00	-4	jwwr2qk8tbrs48s@marketplace.amazon.com	Allan J Neumann	+1 415-851-9136 ext. 57549	ABR0022	Delivery by Tuesday | Arabella Farm Direct Bouquet of 12 Fresh Cut Pink Roses with a Free Glass Vase	1	0	1	Expedited	Colleen Fitchner	3409 13TH ST SW			MINOT	ND	58701-7215	US		Happy 85th birthday!  Wish we could be together on this special day.  Luv u From Allan and Tina	false		
111-3524005-7474633	68760772324066	2020-11-28T13:23:32+00:00	2020-11-28T05:23:32-08:00	2020-11-28T13:50:01+00:00	2020-12-02T07:59:59+00:00	-4	bj70665kl2h8fxx@marketplace.amazon.com	Linda L James	+1 415-851-9136 ext. 81613	ABR001	Delivery by Tuesday | Arabella Bouquets 12 Stems of Fresh Cut Red Roses in a Free Designer Glass Vase	1	0	1	Expedited	Charles James	GOLDEN LIVING CENTER-WOODLANDS	4088 FRAME RD		NEWBURGH	IN	47630-2258	US		Happy 95th Birthday Dad! From Linda and Jerry	false		
114-9131189-7917825	58511821032018	2020-11-28T13:25:00+00:00	2020-11-28T05:25:00-08:00	2020-11-28T13:53:02+00:00	2020-12-02T07:59:59+00:00	-4	g9mqtwb7g7zxpvm@marketplace.amazon.com	Joel J Reinfeld	+1 346-307-9643 ext. 92714	ABR0066	Delivery by Wednesday | Arabella Bouquets 12 Stems of Fresh Cut White Roses in a Free Designer Glass Vase	1	0	1	Expedited	Brittany Heyer	631 CAMELIA LN			VERO BEACH	FL	32963-1841	US		Hope everything went well!  Wishing you a quick recovery! From Stephanie & Joel	false		
113-7482637-2489860	70041822454522	2020-11-28T13:29:08+00:00	2020-11-28T05:29:08-08:00	2020-11-28T13:59:49+00:00	2020-12-02T07:59:59+00:00	-4	038gb1hcbcyt082@marketplace.amazon.com	Sarah Bennett	+1 346-307-9643 ext. 46087	ABM010	Delivery by Tuesday | The Everlasting Fling Bouquet by Arabella Bouquets with a Free Designer Glass Vase	1	0	1	Expedited	Nancy F Bennett	5100 60th Street East Lot M-8			Bradenton	FL	34203	US			false		
114-3793570-2841834	45240603991714	2020-11-28T13:39:08+00:00	2020-11-28T05:39:08-08:00	2020-11-28T14:08:46+00:00	2020-12-02T07:59:59+00:00	-4	smcxz83j0xm1qzh@marketplace.amazon.com	Jax Clouse	+1 763-225-9463 ext. 41446	ABR001	Delivery by Tuesday | Arabella Bouquets 12 Stems of Fresh Cut Red Roses in a Free Designer Glass Vase	1	0	1	Expedited	Gaby Bustamante	11891 TWO TOWERS DR			EL PASO	TX	79936-2659	US			false		
114-5729622-7396225	08512612426258	2020-11-28T13:47:39+00:00	2020-11-28T05:47:39-08:00	2020-11-28T14:13:45+00:00	2020-12-02T07:59:59+00:00	-4	ym7brmbdpv39skg@marketplace.amazon.com	francesca	+1 346-307-9643 ext. 33473	ABM017	Delivery by Wednesday | Arabella Bouquets 10 Stems of Blue Dendrobium Orchids in a Free Designer Glass Vase	1	0	1	Expedited	Madeleine Boies	46840 MORNINGSIDE LN APT 201			LEXINGTON PARK	MD	20653-2253	US		HAPPY BIRTHDAY TO YOU, HAPPY BIRTHAY TO YOU, HAPPY BIRTHDAY DEAR MADAWIN, HAPPY BIRTHDAY TO YOU...CHA CHA CHA! WE LOVE YOU 🤗❤ From Love Mom, Dad, Robert, Olli & the Mish	false		
112-4198599-1610643	20642026263810	2020-11-28T14:42:25+00:00	2020-11-28T06:42:25-08:00	2020-11-28T15:06:21+00:00	2020-12-02T07:59:59+00:00	-4	klvhz0v0l9lgkwj@marketplace.amazon.com	Alice Moss	+1 415-851-9136 ext. 82684	ABM020	Delivery by Wednesday | The Sunset Bouquet by Arabella Bouquets	1	0	1	Expedited	Peg Harbor	1347 DORCHESTER RD			BIRMINGHAM	MI	48009-5996	US		Our Deepest Sympathy to you and your family. From Alice And Chuck Moss	false		
112-9020148-9997820	13331432421994	2020-11-28T14:41:13+00:00	2020-11-28T06:41:13-08:00	2020-11-28T15:11:42+00:00	2020-12-02T07:59:59+00:00	-4	vfvt2pd05s0bn99@marketplace.amazon.com	Evan Douglas Malady	+1 602-671-6610 ext. 86953	ABR0022	Delivery by Tuesday | Arabella Farm Direct Bouquet of 12 Fresh Cut Pink Roses with a Free Glass Vase	1	0	1	Expedited	Sadie Erickson	639 BAYBERRY POINTE DR NW APT E			GRAND RAPIDS	MI	49534-4625	US			false		
112-7368915-6956237	39018958995626	2020-11-28T14:46:06+00:00	2020-11-28T06:46:06-08:00	2020-11-28T15:13:41+00:00	2020-12-02T07:59:59+00:00	-4	js5mxjmw910sk8f@marketplace.amazon.com	Scott Breen	+1 480-618-5344 ext. 38819	ABR0022	Delivery by Tuesday | Arabella Farm Direct Bouquet of 12 Fresh Cut Pink Roses with a Free Glass Vase	1	0	1	Expedited	Shirley Schmitt	7205 W QUINCY AVE UNIT 1-526			DENVER	CO	80235-3136	US		Just thinking about you on GuGu’s birthday.   Love ya,  Scott From Scott Breen	false		
112-8830840-5344208	41868280736842	2020-11-28T14:47:46+00:00	2020-11-28T06:47:46-08:00	2020-11-28T15:17:32+00:00	2020-12-02T07:59:59+00:00	-4	js5mxjmw910sk8f@marketplace.amazon.com	Scott Breen	+1 213-442-1463 ext. 77538	ABR0033	Delivery by Tuesday | Arabella Farm Direct Bouquet of 12 Fresh Cut Orange Roses with a Free Glass Vase	1	0	1	Expedited	Jan Balatore Elder	2872 W 7525 S			WEST JORDAN	UT	84084-3742	US		Thinking about you on GuGu’s birthday!  Love ya Scott From Scott Breen	false		
114-3187652-5338659	19943985188850	2020-11-28T14:48:57+00:00	2020-11-28T06:48:57-08:00	2020-11-28T15:18:02+00:00	2020-12-02T07:59:59+00:00	-4	lmlylqtlxzx3yyg@marketplace.amazon.com	Debora Collins	+1 346-307-9643 ext. 18130	ABM017	Delivery by Wednesday | Arabella Bouquets 10 Stems of Blue Dendrobium Orchids in a Free Designer Glass Vase	1	0	1	Expedited	Melissa Frank	1714 OAKFIELD AVE			ESSEX	MD	21221-3046	US		Enjoy your gift! From Debora Collins	false		
114-4546482-2111449	51955995979074	2020-11-28T14:55:40+00:00	2020-11-28T06:55:40-08:00	2020-11-28T15:20:20+00:00	2020-12-02T07:59:59+00:00	-4	wm0l4mw2gccz823@marketplace.amazon.com	HELEN	+1 602-671-6610 ext. 31966	ABR0022	Delivery by Tuesday | Arabella Farm Direct Bouquet of 12 Fresh Cut Pink Roses with a Free Glass Vase	1	0	1	Expedited	Rajesh Sehgal	1614 SIX POINT CT			WORTHINGTON	OH	43085-1553	US			false		
113-0465348-1654644	38709687809146	2020-11-28T15:03:28+00:00	2020-11-28T07:03:28-08:00	2020-11-28T15:24:42+00:00	2020-12-02T07:59:59+00:00	-4	kj8dk5v770nxfyt@marketplace.amazon.com	Steve Hatfield	+1 763-225-9463 ext. 65892	ABR001	Delivery by Tuesday | Arabella Bouquets 12 Stems of Fresh Cut Red Roses in a Free Designer Glass Vase	1	0	1	Expedited	Bridget Feehan Diorio	1105 E PROSPECT AVE			NORTH WALES	PA	19454-2403	US		Have a beautiful day, Bridget! From Steve Hatfield	false		
114-4761079-6918612	34733101645714	2020-11-28T15:17:54+00:00	2020-11-28T07:17:54-08:00	2020-11-28T15:34:57+00:00	2020-12-02T07:59:59+00:00	-4	ky65grpshfdrh9q@marketplace.amazon.com	tim morrison	+1 763-225-9463 ext. 35723	ABR0022	Delivery by Tuesday | Arabella Farm Direct Bouquet of 12 Fresh Cut Pink Roses with a Free Glass Vase	1	0	1	Expedited	Bertie Lee Marvel	460 ARROWHEAD PATH			TWIN FALLS	ID	83301-4979	US		Mom, Thank you for being an amazing mother to me all these years, Love, Becky	false		
113-3207046-2633004	30455331094738	2020-11-28T15:08:00+00:00	2020-11-28T07:08:00-08:00	2020-11-28T15:36:49+00:00	2020-12-02T07:59:59+00:00	-4	kgwt2t5gjd0cksx@marketplace.amazon.com	Angel  Angelov	+1 619-854-2705 ext. 76361	ABR0022	Delivery by Tuesday | Arabella Farm Direct Bouquet of 12 Fresh Cut Pink Roses with a Free Glass Vase	1	0	1	Expedited	Angel  Angelov	27 POST RUN			NEWTOWN SQUARE	PA	19073-3014	US			false		
111-6780017-0858617	54642904604858	2020-11-28T15:12:30+00:00	2020-11-28T07:12:30-08:00	2020-11-28T15:42:05+00:00	2020-12-02T07:59:59+00:00	-4	2bk3nfzw5y304cl@marketplace.amazon.com	Amritpal Singh	+1 602-671-6610 ext. 67606	ABR0055	Delivery by Tuesday | Arabella Farm Direct Bouquet of 12 Stems of Fresh Cut Hot Pink Roses in a Free Designer Glass Vase	1	0	1	Expedited	Purnima Satsankhar	APT- D 296 SUSAN LN			ROCHESTER	NY	14616-4939	US			false		
114-4923940-8589053	24068597191746	2020-11-28T15:25:41+00:00	2020-11-28T07:25:41-08:00	2020-11-28T15:56:00+00:00	2020-12-02T07:59:59+00:00	-4	d4cz5ydcy780f6g@marketplace.amazon.com	Joseph Spiegel	+1 415-419-8616 ext. 18851	ABM022	Delivery by Tuesday | Purple Extravagance Bouquet by Arabella Bouquets	1	0	1	Expedited	Frances Spiegel	95 ROSE BAY CT			ROYAL PALM BEACH	FL	33411-1649	US			false		
114-3796864-4837003	30618031764362	2020-11-28T15:45:23+00:00	2020-11-28T07:45:23-08:00	2020-11-28T16:10:07+00:00	2020-12-02T07:59:59+00:00	-4	02swgbb4d1t10ls@marketplace.amazon.com	jking521	+1 763-225-9463 ext. 08585	ABM010	Delivery by Tuesday | The Everlasting Fling Bouquet by Arabella Bouquets with a Free Designer Glass Vase	1	0	1	Expedited	Rachel Steipp	5018 25TH PL N			ARLINGTON	VA	22207-2601	US		Happy Birthday!!!  (maybe next year we'll be celebrating in some stylish spa hotel..!) Lots of love from Jenny xxx From Jenny Bronder	false		
112-8853191-7259424	13970047448650	2020-11-28T15:52:53+00:00	2020-11-28T07:52:53-08:00	2020-11-28T16:18:29+00:00	2020-12-02T07:59:59+00:00	-4	grmz91f1wwxk6lr@marketplace.amazon.com	Ming Bowie	+1 415-419-8616 ext. 45223	ABR0066	Delivery by Wednesday | Arabella Bouquets 12 Stems of Fresh Cut White Roses in a Free Designer Glass Vase	1	0	1	Expedited	Tyler	2900 MAIN LINE BLVD APT 648			ALEXANDRIA	VA	22301-2930	US		Tyler,   Thank you so much for helping me launch Umore. I’m extremely thankful for the amount of time & effort you put into Umore. I wouldn’t be here without your hard work! From Ming	false		
113-4916653-2866627	49865824868378	2020-11-28T16:00:30+00:00	2020-11-28T08:00:30-08:00	2020-11-28T16:26:06+00:00	2020-12-02T07:59:59+00:00	-4	yn7z0zn9946bwjn@marketplace.amazon.com	Patti Bottomy	+1 619-854-2705 ext. 30244	ABR015	Delivery by Wednesday | Arabella Farm Direct Bouquet of 18 Fresh Cut Orange Roses with a Free Glass Vase	1	0	1	Expedited	Paula Lovell	913 CANTRELL AVE			NASHVILLE	TN	37215-1052	US		Paula, you are in our thoughts with sympathy and love,  Patti and Mike From Patti and Mike Bottomy	false		
112-2242319-7752247	30837341366674	2020-11-28T16:03:21+00:00	2020-11-28T08:03:21-08:00	2020-11-28T16:29:28+00:00	2020-12-02T07:59:59+00:00	-4	grmz91f1wwxk6lr@marketplace.amazon.com	Ming Bowie	+1 415-851-9136 ext. 76249	ABR0022	Delivery by Tuesday | Arabella Farm Direct Bouquet of 12 Fresh Cut Pink Roses with a Free Glass Vase	1	0	1	Expedited	Brielle M.	5080 CAMINO DEL ARROYO APT 246			SAN DIEGO	CA	92108-3162	US		Brielle,   Thank you so much for being my ghost writer lol! But in all seriousness your writing is amazing. You were able to capture the words I was unable to. Love ya! From Ming	false		
112-2220862-5336216	28305795208298	2020-11-28T16:10:56+00:00	2020-11-28T08:10:56-08:00	2020-11-28T16:36:51+00:00	2020-12-02T07:59:59+00:00	-4	grmz91f1wwxk6lr@marketplace.amazon.com	Ming Bowie	+1 619-854-2705 ext. 13842	ABR0055	Delivery by Tuesday | Arabella Farm Direct Bouquet of 12 Stems of Fresh Cut Hot Pink Roses in a Free Designer Glass Vase	1	0	1	Expedited	Chelsy G.	999 S HARWOOD ST APT 231			DALLAS	TX	75201-6168	US		Chelsy!  I love you girl. Thank you for helping make Umore possible. I needed your persistence and encouragement. You really pushed me to get this thing up and running. Thank you! From Ming	false		
112-4553547-1094655	67298484661362	2020-11-28T16:08:05+00:00	2020-11-28T08:08:05-08:00	2020-11-28T16:37:48+00:00	2020-12-02T07:59:59+00:00	-4	dz0pcx87l52y391@marketplace.amazon.com	Lalitha	+1 415-851-9136 ext. 38603	ABR0022	Delivery by Tuesday | Arabella Farm Direct Bouquet of 12 Fresh Cut Pink Roses with a Free Glass Vase	1	0	1	Expedited	Priya Kanumuri	2784 REGISTER RD SE			WINTER HAVEN	FL	33884-2232	US			false		
113-5581575-9233000	66399079165242	2020-11-28T16:14:26+00:00	2020-11-28T08:14:26-08:00	2020-11-28T16:44:43+00:00	2020-12-02T07:59:59+00:00	-4	zy0g17hm7zb09zp@marketplace.amazon.com	stacy woods	+1 415-851-9136 ext. 16655	ABR0022	Delivery by Tuesday | Arabella Farm Direct Bouquet of 12 Fresh Cut Pink Roses with a Free Glass Vase	1	0	1	Expedited	stacy woods	878 SHINE AVE			MYRTLE BEACH	SC	29577-1523	US			false		
111-4469248-2139411	03596401958154	2020-11-28T16:22:28+00:00	2020-11-28T08:22:28-08:00	2020-11-28T16:50:58+00:00	2020-12-02T07:59:59+00:00	-4	2p23sh4zr1zx6rd@marketplace.amazon.com	Katie Vandiver	+1 346-307-9643 ext. 28135	ABR0022	Delivery by Tuesday | Arabella Farm Direct Bouquet of 12 Fresh Cut Pink Roses with a Free Glass Vase	1	0	1	Expedited	Dale Parker	4015 CAMP TAHKODAH RD			FLORAL	AR	72534-9716	US		Enjoy your gift! Love you, Mom. Feel better soon! From Katie and Rick DeGregorio	false		
113-3550294-2182668	19148090913490	2020-11-28T16:33:30+00:00	2020-11-28T08:33:30-08:00	2020-11-28T16:56:56+00:00	2020-12-02T07:59:59+00:00	-4	szp0pdsdflqmp2x@marketplace.amazon.com	STEVAN R. CLARK	+1 213-442-1463 ext. 57146	ABR0022	Delivery by Tuesday | Arabella Farm Direct Bouquet of 12 Fresh Cut Pink Roses with a Free Glass Vase	1	0	1	Expedited	Amber Clark	2772 CARNATION LN			HENDERSON	NV	89074-2412	US		Get well soon From STEVAN R. CLARK	false		
112-1822741-0473010	12190244266674	2020-11-28T16:35:34+00:00	2020-11-28T08:35:34-08:00	2020-11-28T17:01:07+00:00	2020-12-02T07:59:59+00:00	-4	zn2rqgbxbl30zcl@marketplace.amazon.com	Tulla Stocker	+1 619-854-2705 ext. 26519	ABM022	Delivery by Tuesday | Purple Extravagance Bouquet by Arabella Bouquets	1	0	1	Expedited	Marie McNeaney	8 GROFF ST			CLAYTON	NJ	08312-2447	US		We love you marie!    You can do this.   Know you have good friends and family to lean on From Tulla juanita and dawn	true		
114-5649251-3033030	69064348497290	2020-11-28T16:36:02+00:00	2020-11-28T08:36:02-08:00	2020-11-28T17:02:25+00:00	2020-12-02T07:59:59+00:00	-4	2rtvgddn4sdtqj4@marketplace.amazon.com	Sonya N. Burke	+1 480-618-5344 ext. 52686	ABR0022	Delivery by Tuesday | Arabella Farm Direct Bouquet of 12 Fresh Cut Pink Roses with a Free Glass Vase	1	0	1	Expedited	Heidi Berkowitz	906 ROCKBORN ST			GAITHERSBURG	MD	20878-2198	US		Loved seeing you last Friday! Hope you are having a beautiful week! ❤️ From Sonya N. Burke	false		
112-0490731-2712241	27860849133850	2020-11-28T16:41:24+00:00	2020-11-28T08:41:24-08:00	2020-11-28T17:07:41+00:00	2020-12-02T07:59:59+00:00	-4	m1zfd0q2lfyv5qr@marketplace.amazon.com	Suzanne Hollander	+1 415-419-8616 ext. 06957	ABR0022	Delivery by Tuesday | Arabella Farm Direct Bouquet of 12 Fresh Cut Pink Roses with a Free Glass Vase	1	0	1	Expedited	Mrs. Barbara Cerwin	333 W 86TH ST APT 404			NEW YORK	NY	10024-3143	US		Sending our love and good wishes for your recovery.  Joan and Flora	false		
111-8135758-8486639	45062383149194	2020-11-28T16:51:08+00:00	2020-11-28T08:51:08-08:00	2020-11-28T17:18:21+00:00	2020-12-02T07:59:59+00:00	-4	j8dscw3j7cmztkd@marketplace.amazon.com	Karla J Krueger	+1 346-307-9643 ext. 88007	ABR0022	Delivery by Tuesday | Arabella Farm Direct Bouquet of 12 Fresh Cut Pink Roses with a Free Glass Vase	1	0	1	Expedited	Karla Krueger	904 N OSBORNE AVE			JANESVILLE	WI	53548-2348	US		Love you mom,just a little sunshine from Arizona! Hope this makes you smile. From Karla and Karen	false		
113-3826239-4383441	21224366853146	2020-11-28T16:49:44+00:00	2020-11-28T08:49:44-08:00	2020-11-28T17:19:14+00:00	2020-12-02T07:59:59+00:00	-4	y50nfg19np2p52n@marketplace.amazon.com	alexander leonov	+1 619-854-2705 ext. 47867	ABM022	Delivery by Tuesday | Purple Extravagance Bouquet by Arabella Bouquets	1	0	1	Expedited	Raquel	2547 PETALUMA AVE			LONG BEACH	CA	90815-2427	US			false		
113-2147048-6281811	37935689047682	2020-11-28T17:19:25+00:00	2020-11-28T09:19:25-08:00	2020-11-28T17:21:11+00:00	2020-12-02T07:59:59+00:00	-4	sr1842yv67fjdhl@marketplace.amazon.com	Victoria	+1 346-307-9643 ext. 29871	ABR001	Delivery by Tuesday | Arabella Bouquets 12 Stems of Fresh Cut Red Roses in a Free Designer Glass Vase	1	0	1	Expedited	Eulalia Diloné	39 S 10TH ST			READING	PA	19602-1237	US		La distancia no es excusa para no celebrar la vida de una persona tan especial como usted. Estaré eternamente agradecida.  Qué la mayor fiesta en nuestra vida sea la del corazón y el alma. From Shantal Polanco	false		
112-2663775-9953858	04077209330578	2020-11-28T16:51:08+00:00	2020-11-28T08:51:08-08:00	2020-11-28T17:21:31+00:00	2020-12-02T07:59:59+00:00	-4	k9klsnnzj11zglz@marketplace.amazon.com	Douglas Lawson	+1 415-419-8616 ext. 26118	ABR0055	Delivery by Tuesday | Arabella Farm Direct Bouquet of 12 Stems of Fresh Cut Hot Pink Roses in a Free Designer Glass Vase	1	0	1	Expedited	Brian and Jan McDonough	776 MARSHALLTON THORNDALE RD			WEST CHESTER	PA	19380-1506	US			false		
111-8184337-3727400	39716489230714	2020-11-28T16:55:03+00:00	2020-11-28T08:55:03-08:00	2020-11-28T17:25:29+00:00	2020-12-02T07:59:59+00:00	-4	j8dscw3j7cmztkd@marketplace.amazon.com	Karla J Krueger	+1 619-854-2705 ext. 06168	ABR0022	Delivery by Tuesday | Arabella Farm Direct Bouquet of 12 Fresh Cut Pink Roses with a Free Glass Vase	1	0	1	Expedited	Karla J Krueger	200 E SOUTHERN AVE # 92			APACHE JUNCTION	AZ	85119-3739	US			false		
114-3487498-0074637	67120256423706	2020-11-28T17:01:57+00:00	2020-11-28T09:01:57-08:00	2020-11-28T17:30:02+00:00	2020-12-02T07:59:59+00:00	-4	jt7mbj4ph1qg04v@marketplace.amazon.com	KAREN GAFFNEY	+1 763-225-9463 ext. 07565	ABM022	Delivery by Tuesday | Purple Extravagance Bouquet by Arabella Bouquets	1	0	1	Expedited	Karen M Gaffney	28 FOX BROOK LN			THORNTON	PA	19373-1129	US		Thinking of you and wishing you peace and comfort as you remember your father. From Love, Bob and Karen Gaffney	false		
111-2181801-8813060	56256676659298	2020-11-28T17:14:47+00:00	2020-11-28T09:14:47-08:00	2020-11-28T17:45:02+00:00	2020-12-02T07:59:59+00:00	-4	vvxtkng90zy4p7p@marketplace.amazon.com	Celia Carroll Jones	+1 619-854-2705 ext. 84441	ABR0022	Delivery by Tuesday | Arabella Farm Direct Bouquet of 12 Fresh Cut Pink Roses with a Free Glass Vase	1	0	1	Expedited	Eva Jones	60 RG JONES LN			BETHEL SPRINGS	TN	38315-4248	US			false		
113-9041632-0073826	65933832802378	2020-11-28T17:28:56+00:00	2020-11-28T09:28:56-08:00	2020-11-28T17:52:09+00:00	2020-12-02T07:59:59+00:00	-4	5mmzzbv5rhbp0kw@marketplace.amazon.com	rose harris	+1 213-442-1463 ext. 53022	ABM010	Delivery by Tuesday | The Everlasting Fling Bouquet by Arabella Bouquets with a Free Designer Glass Vase	1	0	1	Expedited	Phil Allen	440 KELLEYTOWN RD			MCDONOUGH	GA	30252-3910	US		Enjoy your gift!   HAPPY BIRTHDAY  Phil From rose harris	false		
112-3728925-2753805	43358523813730	2020-11-28T17:33:56+00:00	2020-11-28T09:33:56-08:00	2020-11-28T18:03:08+00:00	2020-12-02T07:59:59+00:00	-4	7g8ssv8dw9znthd@marketplace.amazon.com	angelina pearce	+1 346-307-9643 ext. 79148	ABR0055	Delivery by Tuesday | Arabella Farm Direct Bouquet of 12 Stems of Fresh Cut Hot Pink Roses in a Free Designer Glass Vase	1	0	1	Expedited	Jackie Kraml	1805 STONEHENGE AVE NE			WARREN	OH	44483-2947	US		Enjoy your gift! We love you guys! From angelina pearce	false		
113-3849159-8767463	49571138238098	2020-11-28T17:39:01+00:00	2020-11-28T09:39:01-08:00	2020-11-28T18:07:40+00:00	2020-12-02T07:59:59+00:00	-4	z0pnmvs2s2sv80f@marketplace.amazon.com	eliot c guernsey	+1 929-436-4790 ext. 88181	ABR001	Delivery by Tuesday | Arabella Bouquets 12 Stems of Fresh Cut Red Roses in a Free Designer Glass Vase	1	0	1	Expedited	Barbara and Richard Drechsler	6010 RUNNYMEADE AVE			CLINTON	MD	20735-1342	US		Happy Birthday, and Happy Anniversary!! Hugs, Eliot, Katy, John, Paul, and Joel Guernsey From Eliot & Katy	false		
111-8803092-4623459	11662300331282	2020-11-28T17:49:22+00:00	2020-11-28T09:49:22-08:00	2020-11-28T18:16:36+00:00	2020-12-02T07:59:59+00:00	-4	hy935317y9yqs5t@marketplace.amazon.com	Tamika	+1 415-419-8616 ext. 46625	ABM022	Delivery by Tuesday | Purple Extravagance Bouquet by Arabella Bouquets	1	0	1	Expedited	Laydail Burleson	12640 NEWBROOK DR			HOUSTON	TX	77072-3970	US		We love you and are praying for Gods comfort during this time. Kisha was more than a friend she was our sister. Love Thr two Jersey Tamika’s “Twins mom” “Ethans mom” From Tamika	false		
113-9690038-4373041	28714839844154	2020-11-28T17:56:19+00:00	2020-11-28T09:56:19-08:00	2020-11-28T18:22:10+00:00	2020-12-02T07:59:59+00:00	-4	53kl6fdm40v87ts@marketplace.amazon.com	Diana Kersh	+1 415-851-9136 ext. 18833	ABM010	Delivery by Tuesday | The Everlasting Fling Bouquet by Arabella Bouquets with a Free Designer Glass Vase	1	0	1	Expedited	Shelly Cherner	2435 FLAT STONE DR			CUMMING	GA	30041-7874	US		Happy Birthday Beautiful! From Diana Kersh	false		
114-0255968-9443443	39217601475850	2020-11-28T18:37:01+00:00	2020-11-28T10:37:01-08:00	2020-11-28T19:06:18+00:00	2020-12-02T07:59:59+00:00	-4	vfzmqymmmf6rz6l@marketplace.amazon.com	aisha muta	+1 415-851-9136 ext. 88629	ABM022	Delivery by Tuesday | Purple Extravagance Bouquet by Arabella Bouquets	1	0	1	Expedited	Shahidah Muta	2140 TREADWELL ST			WESTLAND	MI	48186-3917	US		Love you to the moon and back. Hopefully these gifts will make you smile. From aisha muta	false		
112-9957160-0797017	23908171117482	2020-11-28T18:39:49+00:00	2020-11-28T10:39:49-08:00	2020-11-28T19:08:19+00:00	2020-12-02T07:59:59+00:00	-4	jcfgxv0x514mhf4@marketplace.amazon.com	Lisa burdick	+1 602-671-6610 ext. 01979	ABM022	Delivery by Tuesday | Purple Extravagance Bouquet by Arabella Bouquets	1	0	1	Expedited	Shanna Driessen	W2732 AUTUMN BLAZE TRL			SEYMOUR	WI	54165-8894	US		Just wanted to brighten your day. Feel better soon! From Lisa burdick	false		
111-8299745-4660268	59951383822834	2020-11-28T19:11:25+00:00	2020-11-28T11:11:25-08:00	2020-11-28T19:27:29+00:00	2020-12-02T07:59:59+00:00	-4	fnmgmnb152mtpgt@marketplace.amazon.com	carlinda	+1 480-618-5344 ext. 23173	ABR001	Delivery by Tuesday | Arabella Bouquets 12 Stems of Fresh Cut Red Roses in a Free Designer Glass Vase	1	0	1	Expedited	Mr.V Parker	3639 SUNSET OAK DR			ORANGE PARK	FL	32065-4280	US		Enjoy your gift! I LOVE YOU  !!  U came into my life RIGHT TIME HAPPY BELATED LOVE YOU MY DUDE !! BEST FRIEND EVER 💙💙💙💙 From carlinda	false		
112-6461661-9601064	30164810171210	2020-11-28T18:59:12+00:00	2020-11-28T10:59:12-08:00	2020-11-28T19:28:13+00:00	2020-12-02T07:59:59+00:00	-4	vvhmdpttzzjdysw@marketplace.amazon.com	Pamela St. Clair	+1 213-442-1463 ext. 42134	ABR0022	Delivery by Tuesday | Arabella Farm Direct Bouquet of 12 Fresh Cut Pink Roses with a Free Glass Vase	1	0	1	Expedited	Dale Bergen	3521 LINDENRIDGE DR			BUFORD	GA	30519-7279	US		Happy Birthday Marcia. You are loved. Have a wonderful day. Hope the roses are as lovely as you. From Pamela St. Clair and the Dogs.	false		
114-6681370-7861047	35196281009794	2020-11-28T19:06:45+00:00	2020-11-28T11:06:45-08:00	2020-11-28T19:34:02+00:00	2020-12-02T07:59:59+00:00	-4	sc4jl7kq7h9wptd@marketplace.amazon.com	Brenton Bulrice	+1 619-854-2705 ext. 68312	ABR0022	Delivery by Tuesday | Arabella Farm Direct Bouquet of 12 Fresh Cut Pink Roses with a Free Glass Vase	1	0	1	Expedited	Ulda Revollo	1030 LA SALLE CIR			CORONA	CA	92879-7728	US		Ulda  Thank you very much for what you gave to our family. It means a lot to us and we appreciate you very much. From The Barbosa & Bulrice family	false		
111-6451166-7823440	31604747832194	2020-11-28T19:06:03+00:00	2020-11-28T11:06:03-08:00	2020-11-28T19:36:09+00:00	2020-12-02T07:59:59+00:00	-4	0ct9dhfx82f8b6q@marketplace.amazon.com	RENEE BEHINFAR	+1 619-854-2705 ext. 77971	ABR0055	Delivery by Tuesday | Arabella Farm Direct Bouquet of 12 Stems of Fresh Cut Hot Pink Roses in a Free Designer Glass Vase	1	0	1	Expedited	Chandra Bonfiglio	7650 E WILLIAMS DR UNIT 1054			SCOTTSDALE	AZ	85255-4886	US		So grateful for your friendship! From RENEE BEHINFAR	false		
113-4203677-5758620	36811255893874	2020-11-28T19:15:46+00:00	2020-11-28T11:15:46-08:00	2020-11-28T19:38:41+00:00	2020-12-02T07:59:59+00:00	-4	qn3xsckpnyk8y6t@marketplace.amazon.com	Maureen Tschiegg	+1 213-442-1463 ext. 74167	ABR0022	Delivery by Tuesday | Arabella Farm Direct Bouquet of 12 Fresh Cut Pink Roses with a Free Glass Vase	1	0	1	Expedited	Margie and Steve Lakatos	421Sherman Ave			Frederick	MD	21701	US		Happy Anniversary! We love you both dearly!! From June Wirth	false		
112-8623258-3017024	67034945917474	2020-11-28T19:19:41+00:00	2020-11-28T11:19:41-08:00	2020-11-28T19:44:11+00:00	2020-12-02T07:59:59+00:00	-4	w15yvrmsfg6d13w@marketplace.amazon.com	Shiv Batra	+1 602-671-6610 ext. 68383	ABR0066	Delivery by Wednesday | Arabella Bouquets 12 Stems of Fresh Cut White Roses in a Free Designer Glass Vase	1	0	1	Expedited	Sona Batheja	9906 ESSEX DR			OMAHA	NE	68114-3873	US		Hi Sonaji With condolences and lots of love to the whole family❤️🕉 Shiv and Kamlesh	false		
113-8874348-3441804	21233006375050	2020-11-28T19:30:22+00:00	2020-11-28T11:30:22-08:00	2020-11-28T19:47:15+00:00	2020-12-02T07:59:59+00:00	-4	0j682y27q524dpp@marketplace.amazon.com	Kyle	+1 213-442-1463 ext. 74935	ABR0055	Delivery by Tuesday | Arabella Farm Direct Bouquet of 12 Stems of Fresh Cut Hot Pink Roses in a Free Designer Glass Vase	1	0	1	Expedited	Kellie Meehan	709 ANCHOR CHAIN RD			OCEAN CITY	MD	21842-5605	US		Happy 40th Kellie on this very special Birthday. I’m so proud of the young woman you have become and the wonderful mother you are to Brantley and Everly. Have a fantastic day and will see you at Christmas. Love you OXOXOXOX From Aunt Kyle	false		
114-6150848-9090655	35303310172162	2020-11-28T19:28:30+00:00	2020-11-28T11:28:30-08:00	2020-11-28T19:54:24+00:00	2020-12-02T07:59:59+00:00	-4	l0136nl6p7fc4y1@marketplace.amazon.com	Brittany Fahey	+1 415-419-8616 ext. 76988	ABM017	Delivery by Wednesday | Arabella Bouquets 10 Stems of Blue Dendrobium Orchids in a Free Designer Glass Vase	1	0	1	Expedited	Donna Harding	912 CAROLYN JEAN DR			O FALLON	MO	63366-2140	US		Hi Mom, We are so sorry we can't be with you on your birthday, but we wanted to hopefully make you smile with these beautiful flowers! We love you so much! Love, Rob & Britt From Brittany Fahey	false		
111-7772297-4943407	43557514629530	2020-11-28T19:33:48+00:00	2020-11-28T11:33:48-08:00	2020-11-28T19:55:12+00:00	2020-12-02T07:59:59+00:00	-4	gh1bjyqv1b879k6@marketplace.amazon.com	sousan	+1 763-225-9463 ext. 53405	ABR014	Arabella Bouquets 18 Stems of Fresh Cut White Roses in a Free Designer Glass Vase	1	0	1	Standard	Soudabeh Kargar	1 LANGDON ST APT 304			MADISON	WI	53703-1310	US		Soudabeh joon, Congrats on your new job and path to citizenship. Return safe and have a great trip. Hugs, Aghdas & Sousan From sousan	false		
112-8004195-3270632	52534391734578	2020-11-28T19:29:45+00:00	2020-11-28T11:29:45-08:00	2020-11-28T19:57:47+00:00	2020-12-02T07:59:59+00:00	-4	mz9fjv21b0w4g09@marketplace.amazon.com	Jane A Treptow	+1 763-225-9463 ext. 48804	ABR0022	Delivery by Tuesday | Arabella Farm Direct Bouquet of 12 Fresh Cut Pink Roses with a Free Glass Vase	1	0	1	Expedited	Mimi Wilson	173 Spring Grove Road			Pittsburgh	PA	15235	US		My thoughts are with you and your family  Love Jane From Jane A Treptow	false		
111-4444013-6837837	10402419719618	2020-11-28T19:35:04+00:00	2020-11-28T11:35:04-08:00	2020-11-28T20:05:01+00:00	2020-12-02T07:59:59+00:00	-4	2zt1phjk07t5zph@marketplace.amazon.com	monica brewer	+1 619-854-2705 ext. 42803	ABR0022	Delivery by Tuesday | Arabella Farm Direct Bouquet of 12 Fresh Cut Pink Roses with a Free Glass Vase	1	0	1	Expedited	Doris J Hopper	1800 BEACH DR UNIT 67			GULFPORT	MS	39507-1555	US			false		
111-8781427-2215437	19837512279074	2020-11-28T19:39:39+00:00	2020-11-28T11:39:39-08:00	2020-11-28T20:10:04+00:00	2020-12-02T07:59:59+00:00	-4	njl69klc0lr98dt@marketplace.amazon.com	Carl E. Kierney	+1 213-442-1463 ext. 10651	ABR0022	Delivery by Tuesday | Arabella Farm Direct Bouquet of 12 Fresh Cut Pink Roses with a Free Glass Vase	1	0	1	Expedited	Lynn Anne Garcia	5006 KINROSS RD			CARMICHAEL	CA	95608-3526	US			false		
114-0017391-0256239	51406068380282	2020-11-28T19:50:14+00:00	2020-11-28T11:50:14-08:00	2020-11-28T20:12:46+00:00	2020-12-02T07:59:59+00:00	-4	vcf0bppx6qq7f55@marketplace.amazon.com	Sandy Jacobs	+1 415-419-8616 ext. 10028	ABM022	Delivery by Tuesday | Purple Extravagance Bouquet by Arabella Bouquets	1	0	1	Expedited	Karen Rudman	2771 BRECKENRIDGE DR			EAST WENATCHEE	WA	98802-9370	US			false		
114-0998834-0113831	62033403434498	2020-11-28T19:50:03+00:00	2020-11-28T11:50:03-08:00	2020-11-28T20:16:08+00:00	2020-12-02T07:59:59+00:00	-4	zscypgvvp2f2999@marketplace.amazon.com	Carol Schofield	+8018254209	ABM023	Delivery by Wednesday | The Morning Sun Bouquet by Arabella Bouquets	1	0	1	Expedited	Paul Combe	1364 W 2325 S			SYRACUSE	UT	84075-8629	US		Hi Gayla, Hope you getting back on your toes quickly! Love, Carol, Lexie, Dennis and Bear	false		
114-0360116-6691410	54607711258570	2020-11-28T19:53:48+00:00	2020-11-28T11:53:48-08:00	2020-11-28T20:23:18+00:00	2020-12-02T07:59:59+00:00	-4	cqkbxpzkhtysnmx@marketplace.amazon.com	Jared Terrible	+1 602-671-6610 ext. 46256	ABR0022	Delivery by Tuesday | Arabella Farm Direct Bouquet of 12 Fresh Cut Pink Roses with a Free Glass Vase	1	0	1	Standard	Carissa Hargrove	301 1ST ST SW APT 402			ROANOKE	VA	24011-0005	US			false		
111-6925304-2477831	51655039188698	2020-11-28T20:09:34+00:00	2020-11-28T12:09:34-08:00	2020-11-28T20:28:41+00:00	2020-12-02T07:59:59+00:00	-4	wr8pxq7xwd6d05y@marketplace.amazon.com	Ricky	+1 213-442-1463 ext. 77575	ABR0022	Delivery by Tuesday | Arabella Farm Direct Bouquet of 12 Fresh Cut Pink Roses with a Free Glass Vase	1	0	1	Expedited	Ricky Peridore	6888 HIGHWAY 18	BOX 600		LAKE CITY	AR	72437-8958	US		Sara, HAPPY BIRTHDAY !! We love you more than words can describe You are SO AWESOME!!!!!!!!!! From Ricky & Brogan	false		
112-3094335-5081038	28714584828434	2020-11-28T20:02:42+00:00	2020-11-28T12:02:42-08:00	2020-11-28T20:30:28+00:00	2020-12-02T07:59:59+00:00	-4	nlz5z2wmw1dwfjv@marketplace.amazon.com	Roxanne	+1 619-854-2705 ext. 28895	ABM017	Delivery by Wednesday | Arabella Bouquets 10 Stems of Blue Dendrobium Orchids in a Free Designer Glass Vase	1	0	1	Expedited	Susan Meadows	414 WAYSIDE LN			HENDERSONVILLE	NC	28792-5747	US		We may not be able to be there physically, but we will always be there in spirit. We love you so very much! Love Bryan & Roxanne From Bryan & Roxanne	false		
112-5887598-4217800	09367995509258	2020-11-28T20:06:41+00:00	2020-11-28T12:06:41-08:00	2020-11-28T20:31:41+00:00	2020-12-02T07:59:59+00:00	-4	hgz80qvq2ppc4m1@marketplace.amazon.com	Rita Yakubik	+1 763-225-9463 ext. 32320	ABR0022	Delivery by Tuesday | Arabella Farm Direct Bouquet of 12 Fresh Cut Pink Roses with a Free Glass Vase	1	0	1	Expedited	Barbara Abernathy	1289 AVENIDA SEVILLA APT 2A			WALNUT CREEK	CA	94595-4108	US		Congrats on your successful surgery! Enjoy these get well soon flowers!💕 From Rita Yakubik	false		
114-3740897-1766616	12462894577090	2020-11-28T20:08:32+00:00	2020-11-28T12:08:32-08:00	2020-11-28T20:39:01+00:00	2020-12-02T07:59:59+00:00	-4	b00qpzhvl9tm9y9@marketplace.amazon.com	Barron Roper	+1 619-854-2705 ext. 57186	ABR0022	Delivery by Tuesday | Arabella Farm Direct Bouquet of 12 Fresh Cut Pink Roses with a Free Glass Vase	1	0	1	Expedited	MR. BARRON M. ROPER	23678 JM GOUGH CT			LEONARDTOWN	MD	20650-3786	US			false		
111-7585828-9639457	28715958184130	2020-11-28T20:22:29+00:00	2020-11-28T12:22:29-08:00	2020-11-28T20:51:00+00:00	2020-12-02T07:59:59+00:00	-4	nljj1kgpc8bcjzj@marketplace.amazon.com	Sheila	+1 619-854-2705 ext. 52002	ABM022	Delivery by Tuesday | Purple Extravagance Bouquet by Arabella Bouquets	1	0	1	Expedited	Sonja Scott	23323 ROULETTE RD			WAYNESVILLE	MO	65583-2922	US		Happy Birthday, Mom. I hope everything about today reminds you how loved and cherished you are. From Love - Sheila, Paul, Mark, Brock, Chase, Cali & Strings	false		
113-8137782-5658603	67729532888666	2020-11-28T20:32:08+00:00	2020-11-28T12:32:08-08:00	2020-11-28T21:02:05+00:00	2020-12-02T07:59:59+00:00	-4	g3d71nptfqbg4gp@marketplace.amazon.com	Jesse	+1 415-851-9136 ext. 72211	ABR0022	Delivery by Tuesday | Arabella Farm Direct Bouquet of 12 Fresh Cut Pink Roses with a Free Glass Vase	1	0	1	Expedited	Josh Erickson	10715 KILLDEER ST NW			MINNEAPOLIS	MN	55433-4236	US			false		
112-2434088-9633064	55843577271322	2020-11-28T20:42:21+00:00	2020-11-28T12:42:21-08:00	2020-11-28T21:05:25+00:00	2020-12-02T07:59:59+00:00	-4	fzcvymkh0kkbnnl@marketplace.amazon.com	Carole Traks	+1 415-851-9136 ext. 45116	ABR0022	Delivery by Tuesday | Arabella Farm Direct Bouquet of 12 Fresh Cut Pink Roses with a Free Glass Vase	1	0	1	Expedited	Mary Jean Flees	1576 PAUL PL			TRAVERSE CITY	MI	49686-4941	US		Happy, happy birthday! From Mike & Carole	false		
112-7657670-6528218	38292582683394	2020-11-28T21:04:21+00:00	2020-11-28T13:04:21-08:00	2020-11-28T21:07:00+00:00	2020-12-02T07:59:59+00:00	-4	l3ghx5y9btpp7s0@marketplace.amazon.com	Sarah	+1 602-671-6610 ext. 19715	ABSR004	Delivery by Wednesday | Arabella Farm Direct Bouquet of Fresh Cut White Spray Roses with a Free Glass Vase	1	0	1	Expedited	Monica Opris	1371 DIVINITY DR			PRESCOTT	AZ	86301-7406	US		La Multi Ani From Mami Si Tati	false		
112-9307894-9088246	10911213825818	2020-11-28T20:41:45+00:00	2020-11-28T12:41:45-08:00	2020-11-28T21:09:06+00:00	2020-12-02T07:59:59+00:00	-4	s6fpf17n44hrt4h@marketplace.amazon.com	Aruna	+1 480-618-5344 ext. 02277	ABR004	Delivery by Wednesday | Arabella Farm Direct Bouquet of 12 Fresh Cut Yellow Roses with a Free Glass Vase	1	0	1	Expedited	Nagendra Prasadu Shantharajappa	1032 BRANHAM LN			SAN JOSE	CA	95136-1603	US		Hi Nagendra, Enjoy your gift! From Aruna	false		
114-5450101-2430614	60727870435266	2020-11-28T20:44:21+00:00	2020-11-28T12:44:21-08:00	2020-11-28T21:13:01+00:00	2020-12-02T07:59:59+00:00	-4	9bnvtccvvcrjp45@marketplace.amazon.com	jenny corridori	+1 619-854-2705 ext. 22578	ABR001	Delivery by Tuesday | Arabella Bouquets 12 Stems of Fresh Cut Red Roses in a Free Designer Glass Vase	1	0	1	Expedited	Jenny Corridori	6018 RUTLAND DR APT 135			CARMICHAEL	CA	95608-0539	US		To my dodiesue for 25 beautiful years together! From Steve	false		
112-2256977-2301010	15423036921178	2020-11-28T20:59:13+00:00	2020-11-28T12:59:13-08:00	2020-11-28T21:23:56+00:00	2020-12-02T07:59:59+00:00	-4	mvj01qqpl50t6mz@marketplace.amazon.com	ROBERT SAVELICH	+1 602-671-6610 ext. 51063	ABM010	Delivery by Tuesday | The Everlasting Fling Bouquet by Arabella Bouquets with a Free Designer Glass Vase	1	0	1	Expedited	Lance Giammanco	173 SALISHAN DR			GLENEDEN BEACH	OR	97388-2001	US		Dear Mary and Lance, I am both saddened and relieved to hear of Jim's passing.  My prayers are with you as is my love. Buckskin From ROBERT SAVELICH	false		
111-6252300-0248260	49552940262546	2020-11-28T20:58:45+00:00	2020-11-28T12:58:45-08:00	2020-11-28T21:24:53+00:00	2020-12-02T07:59:59+00:00	-4	v81x7k2fccbkhgw@marketplace.amazon.com	Rashid M Osmani	+1 929-436-4790 ext. 72981	ABR0066	Delivery by Wednesday | Arabella Bouquets 12 Stems of Fresh Cut White Roses in a Free Designer Glass Vase	1	0	1	Expedited	Sophia Osmani	323 S DOHENY DR APT 102			LOS ANGELES	CA	90048-3777	US		To our lovely Daughter Sophia!!! HAPPY BIRTHDAY!!!!! May you always be blessed with health and happiness. From ever-loving parents Mom & Dad From Sameena & Rashid	false		
114-4891049-0173813	18233229817162	2020-11-28T21:13:13+00:00	2020-11-28T13:13:13-08:00	2020-11-28T21:33:07+00:00	2020-12-02T07:59:59+00:00	-4	ryh12p4dpsmtkyr@marketplace.amazon.com	Stella mary	+1 415-851-9136 ext. 11807	ABM022	Delivery by Tuesday | Purple Extravagance Bouquet by Arabella Bouquets	1	0	1	Expedited	Carol sue Nagy	1887 Kingsley ave	Suite 1800 medical plaza #4		Orange park	Florida	32073	US		Hi Carol, Enjoy your gift! From Sister Sharon💕	false		
112-4385371-2963440	67900496311290	2020-11-28T21:15:11+00:00	2020-11-28T13:15:11-08:00	2020-11-28T21:43:39+00:00	2020-12-02T07:59:59+00:00	-4	n88pqtm8412lbq2@marketplace.amazon.com	Kim Anderson	+1 619-854-2705 ext. 89442	ABR0033	Delivery by Tuesday | Arabella Farm Direct Bouquet of 12 Fresh Cut Orange Roses with a Free Glass Vase	1	0	1	Expedited	Fred Mentesana	6 LLOYD DR			BRENTWOOD	NY	11717-7413	US			false		
114-4695572-7529809	68364257365818	2020-11-28T21:21:15+00:00	2020-11-28T13:21:15-08:00	2020-11-28T21:48:48+00:00	2020-12-02T07:59:59+00:00	-4	wt210zxc738bm7l@marketplace.amazon.com	Allison C. Bradshaw	+1 415-851-9136 ext. 73841	ABM031	Delivery by Wednesday | The Harvest Moon Bouquet by Arabella Bouquets	1	0	1	Expedited	Elke Dege	78865 CHAMPAGNE LN			PALM DESERT	CA	92211-1572	US		Elke- Our deepest sympathies on your loss. Love,  Allison, Andre, Gloria, Stevie and Harvey From Allison C. Bradshaw	false		
113-8381807-6849044	64026732669090	2020-11-28T21:22:27+00:00	2020-11-28T13:22:27-08:00	2020-11-28T21:51:14+00:00	2020-12-02T07:59:59+00:00	-4	fyb7x3n5drk3k6r@marketplace.amazon.com	Pat Matthews	+1 346-307-9643 ext. 11395	ABM024	Delivery by Wednesday | The Beauty of Color Bouquet by Arabella Bouquets	1	0	1	Expedited	Marcia Damato	15325 BOCA RIO DR			OAK FOREST	IL	60452-1815	US		Happy birthday, Marcia! Sending you much love— Pat	false		
112-5157117-0030667	58280880379362	2020-11-28T21:24:43+00:00	2020-11-28T13:24:43-08:00	2020-11-28T21:55:18+00:00	2020-12-02T07:59:59+00:00	-4	5n6z6d3cmckcxrv@marketplace.amazon.com	Theresa Towle	+1 929-436-4790 ext. 57473	ABM022	Delivery by Tuesday | Purple Extravagance Bouquet by Arabella Bouquets	1	0	1	Expedited	THERESA TOWLE	W656 KIEL RD			NEW HOLSTEIN	WI	53061-9412	US			false		
114-1148781-3421816	38587424387698	2020-11-28T21:24:57+00:00	2020-11-28T13:24:57-08:00	2020-11-28T21:55:40+00:00	2020-12-02T07:59:59+00:00	-4	gn7c05806svv014@marketplace.amazon.com	Ana F Ratcliffe	+1 415-419-8616 ext. 80341	ABR001	Delivery by Tuesday | Arabella Bouquets 12 Stems of Fresh Cut Red Roses in a Free Designer Glass Vase	1	0	1	Expedited	Ana F. Ratcliffe	1229 Carpers Farm Way			Vienna	VA	22182	US			false		
114-2607569-2817814	59762094795922	2020-11-28T21:40:33+00:00	2020-11-28T13:40:33-08:00	2020-11-28T22:09:05+00:00	2020-12-02T07:59:59+00:00	-4	fcndgh7y4019jfz@marketplace.amazon.com	Rachel Ritchie	+1 415-851-9136 ext. 95461	ABM022	Delivery by Tuesday | Purple Extravagance Bouquet by Arabella Bouquets	1	0	1	Expedited	Josephine Phillips	4331 W SANDWICH RD			SANDWICH	IL	60548-4120	US		I am so sorry for your loss, Mom. I love you and please know that I am here for you. From Love Rachie	false		
114-5575887-9950602	43856876369362	2020-11-28T21:47:20+00:00	2020-11-28T13:47:20-08:00	2020-11-28T22:14:58+00:00	2020-12-02T07:59:59+00:00	-4	y0ty7p95vpnn1t6@marketplace.amazon.com	David Doyle	+1 213-442-1463 ext. 19947	ABR0022	Delivery by Tuesday | Arabella Farm Direct Bouquet of 12 Fresh Cut Pink Roses with a Free Glass Vase	1	0	1	Expedited	Mrs. Bert Harrott	36 LA FLECHA LN			SANTA BARBARA	CA	93105-2530	US		Noelle, so sorry for the rushed exit! Best to Bert, David & Adrianne From David Doyle	false		
112-6926911-3177026	52110319918314	2020-11-28T21:52:21+00:00	2020-11-28T13:52:21-08:00	2020-11-28T22:19:31+00:00	2020-12-02T07:59:59+00:00	-4	cqbv8sy6rglctpt@marketplace.amazon.com	Sean	+1 415-851-9136 ext. 01192	ABR0022	Delivery by Tuesday | Arabella Farm Direct Bouquet of 12 Fresh Cut Pink Roses with a Free Glass Vase	1	0	1	Expedited	May Chu	15996 LOS GATOS ALMADEN RD			LOS GATOS	CA	95032-3740	US		May, I hope you enjoy a speedy recovery from surgery, much needed rest, and time over the holidays with your family.  Take care! From Sam	false		
113-9008527-5546623	03842179284274	2020-11-28T21:50:54+00:00	2020-11-28T13:50:54-08:00	2020-11-28T22:24:09+00:00	2020-12-02T07:59:59+00:00	-4	n4f5zyszpzflxlq@marketplace.amazon.com	robert westerman	+1 619-854-2705 ext. 21428	ABM010	Delivery by Tuesday | The Everlasting Fling Bouquet by Arabella Bouquets with a Free Designer Glass Vase	1	0	1	Expedited	robert westerman	1099 MAIN AVE # 404			DURANGO	CO	81301-5166	US			false		
112-8488945-4109867	10969745465210	2020-11-28T21:56:10+00:00	2020-11-28T13:56:10-08:00	2020-11-28T22:24:44+00:00	2020-12-02T07:59:59+00:00	-4	2zdm9ysfdnkhs5f@marketplace.amazon.com	william fletcher	+1 619-854-2705 ext. 43545	ABM022	Delivery by Tuesday | Purple Extravagance Bouquet by Arabella Bouquets	1	0	1	Expedited	Lynn Massa	46621 GOODPASTURE RD			VIDA	OR	97488-9724	US		Hi Lynne, Happiest of birthdays to you my dear friend! Wish I was there to deliver these in person... With love,  Jules	false		
113-9180902-2185844	43240033319074	2020-11-28T21:55:43+00:00	2020-11-28T13:55:43-08:00	2020-11-28T22:25:17+00:00	2020-12-02T07:59:59+00:00	-4	kfjbfx43p4rhks1@marketplace.amazon.com	Liam D. Hayden	+1 619-854-2705 ext. 78979	ABM025	Delivery by Wednesday | The Fell for You Bouquet by Arabella Bouquets	1	0	1	Expedited	Jeanine Hayden	6512 CHESTERFIELD AVE			MCLEAN	VA	22101-5229	US		Happy birthday Mom! Hope you had a wonderful day! Wishing this year to be filled with joy and love and light. From Jessica, Liam and the kids	false		
114-1355997-8171437	13731711426354	2020-11-28T22:04:23+00:00	2020-11-28T14:04:23-08:00	2020-11-28T22:34:25+00:00	2020-12-02T07:59:59+00:00	-4	d8n9w2hzt033x00@marketplace.amazon.com	Glenn Wilfert	+1 602-671-6610 ext. 63828	ABM022	Delivery by Tuesday | Purple Extravagance Bouquet by Arabella Bouquets	1	0	1	Expedited	Dolores Kan	272 CARLISLE WAY			BENICIA	CA	94510-1529	US			false		
111-9908589-0573867	49479020098226	2020-11-28T22:16:03+00:00	2020-11-28T14:16:03-08:00	2020-11-28T22:39:53+00:00	2020-12-02T07:59:59+00:00	-4	xr6pj1yyt3qv24y@marketplace.amazon.com	Lorraine Wantland	+1 763-225-9463 ext. 88515	ABR004	Delivery by Wednesday | Arabella Farm Direct Bouquet of 12 Fresh Cut Yellow Roses with a Free Glass Vase	1	0	1	Expedited	Kat Cioca	58235 ROAD 225			NORTH FORK	CA	93643-9428	US		Kat, I’m so sorry to hear that you had a partial hysterectomy, it’s such a crappy surgery to have. Our thoughts are with you during this time. Praying that you feel better soon! From Paul, Lorraine & Ariel Wantland	false		
111-2093610-6325812	60590690342042	2020-11-28T22:25:09+00:00	2020-11-28T14:25:09-08:00	2020-11-28T22:52:05+00:00	2020-12-02T07:59:59+00:00	-4	bq9wlk2rp9ywq6x@marketplace.amazon.com	Steven J. Anderson	+1 213-442-1463 ext. 56222	ABR0022	Delivery by Tuesday | Arabella Farm Direct Bouquet of 12 Fresh Cut Pink Roses with a Free Glass Vase	1	0	1	Expedited	Maggie and Matt Koury	9 FAIRE WINDS			LAGUNA NIGUEL	CA	92677-4262	US		Happy 43rd Birthday Sweet Pea.  I will be thinking of you all day and hope these flowers brighten your day.  Love always - Dad From Steven J. Anderson	false		
112-3688951-0978645	40982120520658	2020-11-28T22:23:56+00:00	2020-11-28T14:23:56-08:00	2020-11-28T22:52:29+00:00	2020-12-02T07:59:59+00:00	-4	pxgk1nvncjcsnr0@marketplace.amazon.com	Ann Rhodes	+1 213-442-1463 ext. 35168	ABM010	Delivery by Tuesday | The Everlasting Fling Bouquet by Arabella Bouquets with a Free Designer Glass Vase	1	0	1	Expedited	Helen Raulston	2226 WILLISTON ST			PAMPA	TX	79065-3637	US			false		
