order-id	order-item-id	purchase-date	payments-date	reporting-date	promise-date	days-past-promise	buyer-email	buyer-name	buyer-phone-number	sku	product-name	quantity-purchased	quantity-shipped	quantity-to-ship	ship-service-level	recipient-name	ship-address-1	ship-address-2	ship-address-3	ship-city	ship-state	ship-postal-code	ship-country	gift-wrap-type	gift-message-text	is-business-order	purchase-order-number	price-designation
114-1050326-2916235	05317334713866	2020-12-04T18:26:44+00:00	2020-12-04T10:26:44-08:00	2020-12-04T18:47:15+00:00	2020-12-09T07:59:59+00:00	-4	l2zv2ndrq3csw2w@marketplace.amazon.com	John l. Cocking	+1 415-851-9136 ext. 08493	ABR0022	Delivery by Tuesday | Arabella Farm Direct Bouquet of 12 Fresh Cut Pink Roses with a Free Glass Vase	1	0	1	Expedited	Diane Harrington	441 west 11th Ave.			Oshkosh	Wisconsin	54901	US		Are prayers are with you.  Love you Mary and Jack From John l. Cocking	false		
112-7584985-8303461	07877843057754	2020-12-04T18:23:26+00:00	2020-12-04T10:23:26-08:00	2020-12-04T18:53:57+00:00	2020-12-09T07:59:59+00:00	-4	w1f3zfny907lgxf@marketplace.amazon.com	matt	+1 602-671-6610 ext. 86010	ABR0022	Delivery by Tuesday | Arabella Farm Direct Bouquet of 12 Fresh Cut Pink Roses with a Free Glass Vase	1	0	1	Expedited	matt and erin kent	5952 VALENTINO WAY			LAKELAND	FL	33812-5235	US			false		
113-4550523-6667453	43595554509522	2020-12-04T18:27:17+00:00	2020-12-04T10:27:17-08:00	2020-12-04T18:56:20+00:00	2020-12-09T07:59:59+00:00	-4	3ng3pt7bh0br0fd@marketplace.amazon.com	Phil Romero	+1 480-618-5344 ext. 77434	ABM022	Delivery by Tuesday | Purple Extravagance Bouquet by Arabella Bouquets	1	0	1	Expedited	Victoria Haley	1108 DUNAWAY DR			MCLEAN	VA	22101-2206	US			false		
112-9533923-8379468	54849796374554	2020-12-04T18:34:10+00:00	2020-12-04T10:34:10-08:00	2020-12-04T19:01:06+00:00	2020-12-09T07:59:59+00:00	-4	br66z1m9pmhv1yf@marketplace.amazon.com	Ingrid McIntosh	+1 480-618-5344 ext. 06435	ABR0022	Delivery by Tuesday | Arabella Farm Direct Bouquet of 12 Fresh Cut Pink Roses with a Free Glass Vase	1	0	1	Expedited	Mary Anderson Hill	2000 E WEST CONNECTOR APT 211			AUSTELL	GA	30106-8132	US		Happy Birthday my dear mother!❤ Love, Ingrid From Ingrid McIntosh	false		
114-0934305-4525849	56161299104210	2020-12-04T18:41:02+00:00	2020-12-04T10:41:02-08:00	2020-12-04T19:09:13+00:00	2020-12-09T07:59:59+00:00	-4	cgprcwsdc3ccqsm@marketplace.amazon.com	Lucas Siegfried	+1 619-854-2705 ext. 37386	ABM002	Delivery by Tuesday | Arabella Bouquets Fresh Cut White Calla Lilies in a Free Designer Glass Vase	1	0	1	Expedited	Amy Meyer	12 APPLE RIDGE DR			NATICK	MA	01760-5658	US		Dear Amy and Jonathan,  We are so sorry for the loss of your father. We love and miss you guys and are thinking of you during this difficult time. From Kat, Luke and John	false		
114-4661455-5857816	15832535077570	2020-12-04T18:45:54+00:00	2020-12-04T10:45:54-08:00	2020-12-04T19:11:33+00:00	2020-12-09T07:59:59+00:00	-4	3f6k5v3dc0yscb6@marketplace.amazon.com	Leslie Brauman	+1 415-851-9136 ext. 40345	ABR0055	Delivery by Tuesday | Arabella Farm Direct Bouquet of 12 Stems of Fresh Cut Hot Pink Roses in a Free Designer Glass Vase	1	0	1	Expedited	Dudley Del Balso	130 LAUREL GROVE AVE			ROSS	CA	94957-9665	US		Dear Dudley and Michael, Thank you!!!   From your TPL family in NYC! Carter, Mary Alice and Leslie From Leslie Brauman	false		
111-4200327-1801003	05602429247410	2020-12-04T18:45:40+00:00	2020-12-04T10:45:40-08:00	2020-12-04T19:11:49+00:00	2020-12-09T07:59:59+00:00	-4	c12vnz1tbdqxv64@marketplace.amazon.com	Christine A Arnold	+1 346-307-9643 ext. 89101	ABM010	Delivery by Tuesday | The Everlasting Fling Bouquet by Arabella Bouquets with a Free Designer Glass Vase	1	0	1	Expedited	Loretta Ranalli	4480 MOUNT ROYAL BLVD APT 340			ALLISON PARK	PA	15101-2682	US		Miss you and pray you enjoy your flowers. Love, Christine From Christine A Arnold	false		
114-6608649-2957867	32989091554546	2020-12-04T18:43:34+00:00	2020-12-04T10:43:34-08:00	2020-12-04T19:12:45+00:00	2020-12-09T07:59:59+00:00	-4	l2zv2ndrq3csw2w@marketplace.amazon.com	John l. Cocking	+1 763-225-9463 ext. 11953	ABR0022	Delivery by Tuesday | Arabella Farm Direct Bouquet of 12 Fresh Cut Pink Roses with a Free Glass Vase	1	0	1	Expedited	John L. Cocking	7749 S QUINCY AVE			OAK CREEK	WI	53154-2350	US			false		
113-6915942-7785029	53483947816834	2020-12-04T18:43:27+00:00	2020-12-04T10:43:27-08:00	2020-12-04T19:13:02+00:00	2020-12-09T07:59:59+00:00	-4	th7jcv9cszgdz03@marketplace.amazon.com	Martha DeSisto	+1 602-671-6610 ext. 96269	ABR0022	Delivery by Tuesday | Arabella Farm Direct Bouquet of 12 Fresh Cut Pink Roses with a Free Glass Vase	1	0	1	Expedited	Maya DeSistio	34 THORNTON RD			NEEDHAM	MA	02492-4330	US			false		
112-8123455-5552232	18788457757450	2020-12-04T18:51:15+00:00	2020-12-04T10:51:15-08:00	2020-12-04T19:21:04+00:00	2020-12-09T07:59:59+00:00	-4	njy02znxpp42cy7@marketplace.amazon.com	Sandy	+1 480-618-5344 ext. 89451	ABR0022	Delivery by Tuesday | Arabella Farm Direct Bouquet of 12 Fresh Cut Pink Roses with a Free Glass Vase	1	0	1	Expedited	Josephine Johnson	3535 KIRBY RD APT B408			MEMPHIS	TN	38115-7723	US		Aunt Josie,  thinking of you.  Enjoy your gift! From Love,  Sandy	false		
112-9066989-8988259	48239860596434	2020-12-04T18:54:52+00:00	2020-12-04T10:54:52-08:00	2020-12-04T19:21:17+00:00	2020-12-09T07:59:59+00:00	-4	0pvkmx00jrf1xgt@marketplace.amazon.com	audrey cohn	+1 480-618-5344 ext. 30573	ABM010	Delivery by Tuesday | The Everlasting Fling Bouquet by Arabella Bouquets with a Free Designer Glass Vase	1	0	1	Expedited	Audrey Cohn	212 TREEHAVEN DR			EAST AURORA	NY	14052-1355	US			false		
112-9066989-8988259	11797971827786	2020-12-04T18:54:52+00:00	2020-12-04T10:54:52-08:00	2020-12-04T19:21:17+00:00	2020-12-09T07:59:59+00:00	-4	0pvkmx00jrf1xgt@marketplace.amazon.com	audrey cohn	+1 480-618-5344 ext. 30573	ABM022	Delivery by Tuesday | Purple Extravagance Bouquet by Arabella Bouquets	1	0	1	Expedited	Audrey Cohn	212 TREEHAVEN DR			EAST AURORA	NY	14052-1355	US			false		
113-8122143-0278605	27722192729578	2020-12-04T18:54:58+00:00	2020-12-04T10:54:58-08:00	2020-12-04T19:24:46+00:00	2020-12-09T07:59:59+00:00	-4	9y98p4d74mq45sc@marketplace.amazon.com	Mo Hishmeh	+1 213-442-1463 ext. 62243	ABR0022	Delivery by Tuesday | Arabella Farm Direct Bouquet of 12 Fresh Cut Pink Roses with a Free Glass Vase	1	0	1	Standard	Judy Kazumura	9934 WILSON AVE			SCHILLER PARK	IL	60176-1440	US		Wishing you Love, Peace and Joy in this crazy world. Miss you From Mo Hishmeh	true		Business Price
114-5171040-0449848	58142729299746	2020-12-04T18:49:30+00:00	2020-12-04T10:49:30-08:00	2020-12-04T19:28:19+00:00	2020-12-09T07:59:59+00:00	-4	zpmjpqkgt43gzgg@marketplace.amazon.com	Artem Zakharchenko	+1 415-419-8616 ext. 09696	ABR0055	Delivery by Tuesday | Arabella Farm Direct Bouquet of 12 Stems of Fresh Cut Hot Pink Roses in a Free Designer Glass Vase	1	0	1	Expedited	Tatyana Zakharchenko	2415 NE 123RD CT			VANCOUVER	WA	98684-5561	US		Happy Birthday!!!! We Love You!!! Mady & Artem From Artem Zakharchenko	false		
113-7640004-7309827	29987112033226	2020-12-04T19:11:01+00:00	2020-12-04T11:11:01-08:00	2020-12-04T19:40:27+00:00	2020-12-09T07:59:59+00:00	-4	93wk3sysqnqk15q@marketplace.amazon.com	Martin G. Murray	+1 602-671-6610 ext. 74597	ABR0022	Delivery by Tuesday | Arabella Farm Direct Bouquet of 12 Fresh Cut Pink Roses with a Free Glass Vase	1	0	1	Standard	Jennifer Schwolow	7 SUTPHIN RD			FLEMINGTON	NJ	08822-3153	US		Happy Birthday, Jenn! Love, Kurt and Martin From Martin G. Murray	false		
113-0102757-9880206	24185711188162	2020-12-04T14:02:39+00:00	2020-12-04T06:02:39-08:00	2020-12-04T19:43:48+00:00	2020-12-09T07:59:59+00:00	-4	yld2kysk6kkhp0h@marketplace.amazon.com	Rick Dunavant	+1 480-618-5344 ext. 28485	ABR0022	Delivery by Saturday | Arabella Farm Direct Bouquet of 12 Fresh Cut Pink Roses with a Free Glass Vase	1	0	1	Expedited	Darlene Dunavant	12312 E FRANKLIN RD			NORMAN	OK	73026-8429	US		Merry Christmas Mom Wishing we could be there. Hope you have a great Christmas time Love and Miss you much From Rick & Alex	false		
112-7244968-6033069	62382089582498	2020-12-04T19:18:36+00:00	2020-12-04T11:18:36-08:00	2020-12-04T19:45:05+00:00	2020-12-09T07:59:59+00:00	-4	qtgmjwg488c5y20@marketplace.amazon.com	Aundrea	+1 415-851-9136 ext. 42943	ABR0022	Delivery by Tuesday | Arabella Farm Direct Bouquet of 12 Fresh Cut Pink Roses with a Free Glass Vase	1	0	1	Expedited	Judy Rhatigan	2909 CONE MANOR LN			RALEIGH	NC	27613-6611	US		Judy- we hope this finds you having a safe and smooth recovery. With love, From Aundrea and Mike	false		
113-4459980-9971451	07716230012194	2020-12-04T19:23:39+00:00	2020-12-04T11:23:39-08:00	2020-12-04T19:52:15+00:00	2020-12-09T07:59:59+00:00	-4	cc17zb3k889ntxm@marketplace.amazon.com	Sherell Stone	+1 415-419-8616 ext. 76942	ABM010	Delivery by Tuesday | The Everlasting Fling Bouquet by Arabella Bouquets with a Free Designer Glass Vase	1	0	1	Expedited	Lori Highsmith	115 PERCHERON DR			YORK	PA	17406-7576	US		Happy birthday to you, my BF!!!! I hope your day and year are as amazing as you!! Love, Sherell From Sherell Stone	false		
114-1469219-0229835	66532394808474	2020-12-04T19:30:21+00:00	2020-12-04T11:30:21-08:00	2020-12-04T19:58:42+00:00	2020-12-09T07:59:59+00:00	-4	hmk45yktgk2gnjy@marketplace.amazon.com	Martha M Miller	+1 415-851-9136 ext. 18107	ABR0066	Delivery by Tuesday | Arabella Bouquets 12 Stems of Fresh Cut White Roses in a Free Designer Glass Vase	1	0	1	Expedited	Terry Miller	2883 CONDIT ST			SAINT PAUL	MN	55117-1009	US		In sympathy and love, we are thinking of you. Miller family From Martha M Miller	false		
113-5752586-7765042	41277995901050	2020-12-04T19:31:15+00:00	2020-12-04T11:31:15-08:00	2020-12-04T20:00:59+00:00	2020-12-08T07:59:59+00:00	-3	8dgchjq36ym7rtd@marketplace.amazon.com	Jack bied	+1 619-854-2705 ext. 09393	ABR0033	Delivery by Tuesday | Arabella Farm Direct Bouquet of 12 Fresh Cut Orange Roses with a Free Glass Vase	1	0	1	SecondDay	Jack biedebach	32162 CAMINO NUNEZ			TEMECULA	CA	92592-6357	US			false		
114-0413547-9459441	55308946027730	2020-12-04T20:01:04+00:00	2020-12-04T12:01:04-08:00	2020-12-04T20:02:05+00:00	2020-12-09T07:59:59+00:00	-4	7r2p0pfw2wwg7b1@marketplace.amazon.com	Elizabeth Samuel	+1 602-671-6610 ext. 43456	ABR0022	Delivery by Tuesday | Arabella Farm Direct Bouquet of 12 Fresh Cut Pink Roses with a Free Glass Vase	1	0	1	Expedited	Anne-Marie, Daryn, Caitlin, and Jaclyn Johnson, Ne	1203 LINDA DR SE			CLEVELAND	TN	37323-0666	US		Dear Anne-Marie, Jacklyn, Caitlyn, &Darren Johnson, I loved Madeline, Anne-Marie, Jacklyn, and Caitlyn, and the rest of the Johnson and Newsome family dearly.  May God comfort you extravagantly. From Elizabeth Samuel	false		
113-0111902-1168278	09445388355234	2020-12-04T19:32:27+00:00	2020-12-04T11:32:27-08:00	2020-12-04T20:02:08+00:00	2020-12-08T07:59:59+00:00	-3	c59kmxgs70yqsds@marketplace.amazon.com	Mark B. Garrett	+1 929-436-4790 ext. 81869	ABR0022	Delivery by Tuesday | Arabella Farm Direct Bouquet of 12 Fresh Cut Pink Roses with a Free Glass Vase	1	0	1	SecondDay	Naomi Curry	350 N CRESCENT DR PH 2			BEVERLY HILLS	CA	90210-6806	US		My condolences. From Mark	false		
113-8332339-1365060	67961816116314	2020-12-04T19:34:22+00:00	2020-12-04T11:34:22-08:00	2020-12-04T20:03:29+00:00	2020-12-08T07:59:59+00:00	-3	8dgchjq36ym7rtd@marketplace.amazon.com	Jack bied	+1 415-851-9136 ext. 75793	ABR0033	Delivery by Tuesday | Arabella Farm Direct Bouquet of 12 Fresh Cut Orange Roses with a Free Glass Vase	1	0	1	SecondDay	Lorna Perez	6309 MITCHELL AVE			RIVERSIDE	CA	92505-2292	US			false		
111-6407554-3370609	04138094343506	2020-12-04T20:04:14+00:00	2020-12-04T12:04:14-08:00	2020-12-04T20:05:58+00:00	2020-12-09T07:59:59+00:00	-4	1k4w5r77lfqpgf4@marketplace.amazon.com	Cheryl	+1 415-851-9136 ext. 87896	ABR0022	Delivery by Tuesday | Arabella Farm Direct Bouquet of 12 Fresh Cut Pink Roses with a Free Glass Vase	1	0	1	Expedited	Rita Turlo	93 WARD ST UNIT 104			REVERE	MA	02151-1336	US		Enjoy your gift! From Cheryl	false		
112-4898385-6982667	69825147665242	2020-12-04T20:05:44+00:00	2020-12-04T12:05:44-08:00	2020-12-04T20:06:42+00:00	2020-12-09T07:59:59+00:00	-4	9pt6279sb0n3x5n@marketplace.amazon.com	Kim Gentile	+1 213-442-1463 ext. 34471	ABR004	Delivery by Tuesday | Arabella Farm Direct Bouquet of 12 Fresh Cut Yellow Roses with a Free Glass Vase	1	0	1	Expedited	Mr. And Mrs. Noviskis	285 E ARMY TRAIL RD UNIT 509			BLOOMINGDALE	IL	60108-2129	US		So sorry for your loss. You are in our thoughts and prayers. Love, Ron, Kim, Jeremy, and Abby From Gentile Family	false		
111-7686736-7021835	49745440020154	2020-12-04T19:42:43+00:00	2020-12-04T11:42:43-08:00	2020-12-04T20:10:49+00:00	2020-12-08T07:59:59+00:00	-3	fx2j2kczswdklxp@marketplace.amazon.com	Steven Santamaria	+1 346-307-9643 ext. 31156	ABR0022	Delivery by Tuesday | Arabella Farm Direct Bouquet of 12 Fresh Cut Pink Roses with a Free Glass Vase	1	0	1	SecondDay	Papa Joe Santamaria	19280 ASPENLEAF DR			PERRIS	CA	92570-6571	US		Happy birthday Grandma Honey!!!! We love you and hope you have a wonderful day! Xoxo, Steve, Lisa, and Chance From Steven Santamaria	false		
112-7256846-4114604	39710054687130	2020-12-04T19:45:34+00:00	2020-12-04T11:45:34-08:00	2020-12-04T20:11:48+00:00	2020-12-09T07:59:59+00:00	-4	tl38wlgvfg48fz1@marketplace.amazon.com	Lauren Raeder	+1 415-851-9136 ext. 05788	ABM010	Delivery by Tuesday | The Everlasting Fling Bouquet by Arabella Bouquets with a Free Designer Glass Vase	1	0	1	Expedited	Summer Jaussi	8043 AVANTI DR			EL DORADO HILLS	CA	95762-6707	US		Summer,  I love you. We love you. From Lauren, Raf, William, Raven, Autumn	false		
114-7853021-9545055	26189626687546	2020-12-04T19:43:21+00:00	2020-12-04T11:43:21-08:00	2020-12-04T20:13:45+00:00	2020-12-09T07:59:59+00:00	-4	522c6xxgbhyhmys@marketplace.amazon.com	Kenneth A. Kovacic	+1 619-854-2705 ext. 47848	ABR0022	Delivery by Tuesday | Arabella Farm Direct Bouquet of 12 Fresh Cut Pink Roses with a Free Glass Vase	1	0	1	Expedited	Peggy Kovacic	601 S ANDERSON ST			URBANA	IL	61801-4334	US			false		
112-1275922-9147417	28914785390002	2020-12-04T19:51:45+00:00	2020-12-04T11:51:45-08:00	2020-12-04T20:19:41+00:00	2020-12-09T07:59:59+00:00	-4	nrphfycqmg1s8fd@marketplace.amazon.com	Stephanie Terada	+1 415-851-9136 ext. 42215	ABM022	Delivery by Tuesday | Purple Extravagance Bouquet by Arabella Bouquets	1	0	1	Expedited	Jenny Scheer	4705 CAPITOL CT			BROOMFIELD	CO	80023-4086	US		Thinking of you and your family.  I'm so sorry for your loss.  I know how much she meant to you. From Steph Scelza	false		
111-6884554-5609850	57370385873690	2020-12-03T15:06:26+00:00	2020-12-03T07:06:26-08:00	2020-12-04T20:23:01+00:00	2020-12-09T07:59:59+00:00	-4	tz25hspx2mc9vkc@marketplace.amazon.com	Sheila Clemente	+1 619-854-2705 ext. 46461	ABM022	Delivery by Saturday| Purple Extravagance Bouquet by Arabella Bouquets	1	0	1	Expedited	Guadalupe Flores	9 WILLOWCREST LN			POMONA	CA	91766-6683	US		Enjoy your gift!    Hi Guadalupe,  I hope your surgery went well!!  Rest up and I hope you get well soon!! From Sheila Clemente	true		
114-1211415-8517867	19059676553554	2020-12-03T14:43:11+00:00	2020-12-03T06:43:11-08:00	2020-12-04T20:30:44+00:00	2020-12-09T07:59:59+00:00	-4	cm4vcb8hqdx1r74@marketplace.amazon.com	Weston Adams	+1 346-307-9643 ext. 95778	ABM022	Delivery by Saturday| Purple Extravagance Bouquet by Arabella Bouquets	1	0	1	Expedited	Cheri Rau	50 GLENLAKE PKWY STE 600			ATLANTA	GA	30328-3491	US		Sorry for your loss, Cher. You're in our thoughts and prayers. From Weston Adams - Rocket Pro TPO	true		
112-2366728-4417852	34600634940482	2020-12-04T20:08:06+00:00	2020-12-04T12:08:06-08:00	2020-12-04T20:36:32+00:00	2020-12-09T07:59:59+00:00	-4	n8b5m4yhb3vh43c@marketplace.amazon.com	Barbara Terrell	+1 480-618-5344 ext. 09922	ABM026	Delivery by Tuesday | The Amour Bouquet by Arabella Bouquets	1	0	1	Expedited	Ruby Johnson	8887 S LEWIS AVE APT 504			TULSA	OK	74137-3221	US		Merry Christmas, Barbara and family From Barbara Terrell	false		
112-9186051-4962645	46145762969706	2020-12-04T20:12:35+00:00	2020-12-04T12:12:35-08:00	2020-12-04T20:40:14+00:00	2020-12-09T07:59:59+00:00	-4	n8b5m4yhb3vh43c@marketplace.amazon.com	Barbara Terrell	+1 619-854-2705 ext. 65068	ABM010	Delivery by Tuesday | The Everlasting Fling Bouquet by Arabella Bouquets with a Free Designer Glass Vase	1	0	1	Expedited	Nancy Crouch	OAKWOOD ASSISTD LIVING	2306 W LINGLEVILLE RD		STEPHENVILLE	TX	76401-6000	US		Merry Christmas Nancy,  Barbara and family From Barbara Terrell	false		
111-3533711-5726612	12770456833042	2020-12-04T20:18:13+00:00	2020-12-04T12:18:13-08:00	2020-12-04T20:44:50+00:00	2020-12-08T07:59:59+00:00	-3	t598jlbhpvvgv9g@marketplace.amazon.com	GRIGOR	+1 480-618-5344 ext. 07972	ABM021	Delivery by Tuesday | The Joyous Bouquet by Arabella Bouquets	1	0	1	SecondDay	Careyann Zivich	1445 ROMANE DR			NORTHFIELD	OH	44067-1665	US		Congrats on an amazing month with Modere! We are so happy to have you and thanks for trusting me and trying these amazing products!  Much love and peace From Roxy	false		
112-5256253-0956222	27929577558282	2020-12-04T20:25:56+00:00	2020-12-04T12:25:56-08:00	2020-12-04T20:52:40+00:00	2020-12-08T07:59:59+00:00	-3	99hkmw1fnvc44tt@marketplace.amazon.com	sarah Adams	+1 415-851-9136 ext. 31852	ABM010	Delivery by Tuesday | The Everlasting Fling Bouquet by Arabella Bouquets with a Free Designer Glass Vase	1	0	1	SecondDay	Lacey Klimeck	3837 RIDGEWAY AVE			MADISON	WI	53704-3644	US		Happy Birthday Beautiful Friend! From Love and Hugs, Sarah	false		
113-6646058-5158668	04198230721154	2020-12-04T20:32:06+00:00	2020-12-04T12:32:06-08:00	2020-12-04T20:55:02+00:00	2020-12-08T07:59:59+00:00	-3	vhnhsgfcfzs2bfs@marketplace.amazon.com	Daniel Barboza	+1 415-851-9136 ext. 42591	ABR0022	Delivery by Tuesday | Arabella Farm Direct Bouquet of 12 Fresh Cut Pink Roses with a Free Glass Vase	1	0	1	SecondDay	Gioia Bruno	32 PLEASANT ST			HAWORTH	NJ	07641-1929	US		Hi our beautiful Sister we wanted to send you these flowers on behalf of Nono. We love you more than words can say. We can't wait to see you. You are one of our greatest blessings! All our love From Daniel & Dean	false		
114-8220638-2242624	05924913134394	2020-12-04T20:32:27+00:00	2020-12-04T12:32:27-08:00	2020-12-04T20:59:40+00:00	2020-12-09T07:59:59+00:00	-4	v654yqg6gtk3n2t@marketplace.amazon.com	Yvonne	+1 213-442-1463 ext. 25278	ABM0033	Delivery by Tuesday | Arabella Farm Direct Bouquet of Fresh Cut White Hydrangea with a Free Glass Vase	1	0	1	Expedited	Charlotte Lipson	3808 MONDALE LOOP			LAS CRUCES	NM	88005-1000	US			false		
112-8464786-0804231	32380646040794	2020-12-04T20:35:54+00:00	2020-12-04T12:35:54-08:00	2020-12-04T21:02:54+00:00	2020-12-09T07:59:59+00:00	-4	ggx804dhsr0hq51@marketplace.amazon.com	tina gruenstern	+1 619-854-2705 ext. 40510	ABR0055	Delivery by Tuesday | Arabella Farm Direct Bouquet of 12 Stems of Fresh Cut Hot Pink Roses in a Free Designer Glass Vase	1	0	1	Standard	Jessica Bell	105 EARLS CT			LYNCHBURG	VA	24503-2150	US		Jessica, I am so excited to work with you! We are going to have a lot of fun together. Cheers,  Tina- From tina gruenstern	false		
111-0217603-4873879	34812330170746	2020-12-04T20:38:59+00:00	2020-12-04T12:38:59-08:00	2020-12-04T21:07:50+00:00	2020-12-09T07:59:59+00:00	-4	04zcsx15z8mxf76@marketplace.amazon.com	Richard F. Mattern	+1 213-442-1463 ext. 80717	ABR014	Arabella Bouquets 18 Stems of Fresh Cut White Roses in a Free Designer Glass Vase	1	0	1	Expedited	McGee Family	465 N WILTON RD			NEW CANAAN	CT	06840-2321	US		Remembering Lukey. From Love from Mom and Dad	false		
113-9898525-9102600	33495782242890	2020-12-04T20:43:37+00:00	2020-12-04T12:43:37-08:00	2020-12-04T21:09:51+00:00	2020-12-09T07:59:59+00:00	-4	zlw2g93wkbhyf7j@marketplace.amazon.com	Marlene Kirmer	+1 415-419-8616 ext. 34828	ABM022	Delivery by Tuesday | Purple Extravagance Bouquet by Arabella Bouquets	1	0	1	Expedited	May Kirmer	451 E TRAVELERS TRL BLDG 5			BURNSVILLE	MN	55337-2891	US		Happy Birthday Mom We love you From ROY and Marlene	false		
113-4545050-8415459	37590833728418	2020-12-04T20:53:26+00:00	2020-12-04T12:53:26-08:00	2020-12-04T21:22:00+00:00	2020-12-09T07:59:59+00:00	-4	m6q6c40cprlrgv2@marketplace.amazon.com	banyon boyd	+1 480-618-5344 ext. 23030	ABR0022	Delivery by Tuesday | Arabella Farm Direct Bouquet of 12 Fresh Cut Pink Roses with a Free Glass Vase	1	0	1	Expedited	Susan Moore	70 TALLULAH RDG			HATTIESBURG	MS	39402-7648	US		Happy Belated Birthday! Meant to send these earlier...hope you have a beautiful day today. We love you so much! From Melissa, Banyon, Owen, & Jackson	false		
113-5580092-3789854	68385894732306	2020-12-04T20:58:40+00:00	2020-12-04T12:58:40-08:00	2020-12-04T21:25:13+00:00	2020-12-09T07:59:59+00:00	-4	v14x5h1vqxzj0t0@marketplace.amazon.com	Antoinette Tobia	+1 415-851-9136 ext. 16232	ABR0022	Delivery by Tuesday | Arabella Farm Direct Bouquet of 12 Fresh Cut Pink Roses with a Free Glass Vase	1	0	1	Expedited	Donna Smith	1015 FLORENCE LN			MENLO PARK	CA	94025-4903	US		Dear Duckie, Much love to my dear friend on her birthday!    Miss you.    Xoxo From Anto	false		
112-5649237-7035449	03777359617530	2020-12-04T20:59:16+00:00	2020-12-04T12:59:16-08:00	2020-12-04T21:29:28+00:00	2020-12-09T07:59:59+00:00	-4	6x7ldwdndjxtwty@marketplace.amazon.com	Steve Fogle	+1 480-618-5344 ext. 80898	ABM010	Delivery by Tuesday | The Everlasting Fling Bouquet by Arabella Bouquets with a Free Designer Glass Vase	1	0	1	Expedited	Brenda Beeler	ROOM J-504 C/O KING S DAUGHTER HOSPITAL	2201 LEXINGTON AVE		ASHLAND	KY	41101-2843	US		Brenda-Wishing you a speedy recovery and sending prayers!  Love, Steve and Jill	false		
111-3652481-3781813	07287738524274	2020-12-04T21:05:33+00:00	2020-12-04T13:05:33-08:00	2020-12-04T21:34:34+00:00	2020-12-09T07:59:59+00:00	-4	j22rv3y2x458hjd@marketplace.amazon.com	Cristen Wheland	+1 619-854-2705 ext. 17441	ABR0066	Delivery by Tuesday | Arabella Bouquets 12 Stems of Fresh Cut White Roses in a Free Designer Glass Vase	1	0	1	Expedited	Tiarra wise	124 DENN PL			WILMINGTON	DE	19804-3506	US		I’m Sending all my love. From CAW	false		
113-9470362-8890613	50750580878818	2020-12-04T21:11:13+00:00	2020-12-04T13:11:13-08:00	2020-12-04T21:41:36+00:00	2020-12-08T07:59:59+00:00	-3	kdtzf7rbjrd5fvj@marketplace.amazon.com	Susan Duncan	+1 213-442-1463 ext. 50318	ABM0044	Delivery by Tuesday | Arabella Farm Direct Bouquet of Fresh Cut Blue Hydrangea with a Free Glass Vase	1	0	1	SecondDay	Susan Duncan	42734 51st St West			Lancaster	Ca	93536	US			false		
111-4054412-5060262	49378403526282	2020-12-04T21:22:51+00:00	2020-12-04T13:22:51-08:00	2020-12-04T21:46:50+00:00	2020-12-09T07:59:59+00:00	-4	t179nmzm42833xg@marketplace.amazon.com	Bill Stratton	+1 415-419-8616 ext. 79581	ABM010	Delivery by Tuesday | The Everlasting Fling Bouquet by Arabella Bouquets with a Free Designer Glass Vase	1	0	1	Expedited	Dr. Thom Rogers	11701 HOBBITON TRL			AUSTIN	TX	78739-5622	US		Dear Dr. Rogers and Gretchen, Thank you for all your loving assistance and healing.  Love you, Bill From Bill Stratton	false		
114-9433349-5623441	05717192347866	2020-12-04T21:41:23+00:00	2020-12-04T13:41:23-08:00	2020-12-04T22:10:03+00:00	2020-12-09T07:59:59+00:00	-4	hcrkm8v522jy0pr@marketplace.amazon.com	Maria L Krogh	+1 213-442-1463 ext. 28500	ABM0033	Delivery by Tuesday | Arabella Farm Direct Bouquet of Fresh Cut White Hydrangea with a Free Glass Vase	1	0	1	Expedited	MAGGIE MAY	5615 FILLMORE DR			PASCO	WA	99301-8432	US		SWEET 16 FOR THE MOST AMAZING GIRL I KNOW! LOVE YOU SO SO SO MUCH!! From LINA, ALEXIA AND FAMILY XOXOXO	false		
112-0076856-4472216	46415634644162	2020-12-04T21:54:41+00:00	2020-12-04T13:54:41-08:00	2020-12-04T22:22:37+00:00	2020-12-09T07:59:59+00:00	-4	cg0vdmzmnbrb7xs@marketplace.amazon.com	cindy marks	+1 619-854-2705 ext. 89021	ABR0022	Delivery by Tuesday | Arabella Farm Direct Bouquet of 12 Fresh Cut Pink Roses with a Free Glass Vase	1	0	1	Expedited	Jessica Fulton	3132 NW 45TH ST			OKLAHOMA CITY	OK	73112-5917	US		Thank you for all you have done . You are always there when I need you.  I am truly grateful for all you have done for my son.    LOVE MOMMA CINDY From cindy marks	false		
114-9456454-4113015	39951914667338	2020-12-04T22:08:10+00:00	2020-12-04T14:08:10-08:00	2020-12-04T22:28:10+00:00	2020-12-09T07:59:59+00:00	-4	bf2777yyp079xhr@marketplace.amazon.com	Janice Chisholm	+1 213-442-1463 ext. 87307	ABR0022	Delivery by Tuesday | Arabella Farm Direct Bouquet of 12 Fresh Cut Pink Roses with a Free Glass Vase	1	0	1	Standard	Gail Donnelly	639 TAMARACK LN			MAIDSTONE	VT	05905-4403	US		Gail and Jack, Hope these flowers bring some joy your way toward the holidays... Merry Christmas From Jan and Dan Chisholm	false		
111-3074753-3238617	51734594156290	2020-12-04T22:03:08+00:00	2020-12-04T14:03:08-08:00	2020-12-04T22:28:41+00:00	2020-12-09T07:59:59+00:00	-4	j7hznr3rymvyhtm@marketplace.amazon.com	Jamie Hawkins	+1 415-419-8616 ext. 92235	ABR0022	Delivery by Tuesday | Arabella Farm Direct Bouquet of 12 Fresh Cut Pink Roses with a Free Glass Vase	1	0	1	Expedited	Crystal Howell	608 RIVER STRAND			CHESAPEAKE	VA	23320-3403	US		To my dear friends. I hope these flowers find you both in good spirits. My deepest condolences for the loss of your father Mack. I never met him, but I am sure he is proud of the man you have become! From Jamie	false		
113-1727616-7135421	50354520390170	2020-12-04T22:04:24+00:00	2020-12-04T14:04:24-08:00	2020-12-04T22:34:49+00:00	2020-12-09T07:59:59+00:00	-4	fjk3n5zvf579wgb@marketplace.amazon.com	Margaret McDowell	+1 213-442-1463 ext. 41979	ABM022	Delivery by Tuesday | Purple Extravagance Bouquet by Arabella Bouquets	1	0	1	Expedited	Margaret E. McDowell	33725 STEADMAN RD			NEW BOSTON	MI	48164-9417	US		Enjoy your gift! We Love you Mom! From Margie & Buddy McDowell	false		
111-9267494-2470630	30808651719674	2020-12-04T22:17:59+00:00	2020-12-04T14:17:59-08:00	2020-12-04T22:43:10+00:00	2020-12-09T07:59:59+00:00	-4	rjpw1jpl8ypcrd8@marketplace.amazon.com	LaVonne B March	+1 346-307-9643 ext. 01024	ABR001	Delivery by Tuesday | Arabella Bouquets 12 Stems of Fresh Cut Red Roses in a Free Designer Glass Vase	1	0	1	Expedited	Linda Gurr	8901 HENSON RD			NORTH CHESTERFIELD	VA	23236-2112	US		Happy Birthday, Linda! Hope your day is as beautiful as you! From John Brooks	false		
114-4397584-0938652	53017715000562	2020-12-04T22:15:27+00:00	2020-12-04T14:15:27-08:00	2020-12-04T22:44:44+00:00	2020-12-09T07:59:59+00:00	-4	cskbplv3m7fcl1j@marketplace.amazon.com	Gretchen Jorbin	+1 415-851-9136 ext. 48575	ABM022	Delivery by Tuesday | Purple Extravagance Bouquet by Arabella Bouquets	1	0	1	Expedited	Jessica Cranford	8035 BROOXIE CV			GERMANTOWN	TN	38138-8102	US		Just a little way for us to send you some sunshine.   We love you! From Spring 2018 Momma Tribe	false		
114-9065918-2802627	01844188373202	2020-12-04T22:17:50+00:00	2020-12-04T14:17:50-08:00	2020-12-04T22:48:19+00:00	2020-12-09T07:59:59+00:00	-4	gfxr8jhn7gg5cgs@marketplace.amazon.com	Jaime	+1 480-618-5344 ext. 30345	ABR012	Delivery by Tuesday | Arabella Farm Direct Bouquet of 18 Fresh Cut Pink Roses with a Free Glass Vase	1	0	1	Expedited	Jaime lucero	28 Maywood Ct			CALDWELL	NJ	07006	US			false		
114-9065918-2802627	36325102757450	2020-12-04T22:17:50+00:00	2020-12-04T14:17:50-08:00	2020-12-04T22:48:19+00:00	2020-12-09T07:59:59+00:00	-4	gfxr8jhn7gg5cgs@marketplace.amazon.com	Jaime	+1 480-618-5344 ext. 30345	ABM022	Delivery by Tuesday | Purple Extravagance Bouquet by Arabella Bouquets	1	0	1	Expedited	Jaime lucero	28 Maywood Ct			CALDWELL	NJ	07006	US			false		
111-6511055-7409028	68393077787234	2020-12-04T22:19:55+00:00	2020-12-04T14:19:55-08:00	2020-12-04T22:50:35+00:00	2020-12-09T07:59:59+00:00	-4	rmhx7lmmn08h9cy@marketplace.amazon.com	Kay Rockwell	+1 602-671-6610 ext. 16799	ABR001	Delivery by Tuesday | Arabella Bouquets 12 Stems of Fresh Cut Red Roses in a Free Designer Glass Vase	1	0	1	Expedited	Kay Rockwell	252 Berthoud Way			Golden	COLORADO	80401	US			false		
113-3144793-6982606	45710919717082	2020-12-04T22:25:48+00:00	2020-12-04T14:25:48-08:00	2020-12-04T22:56:23+00:00	2020-12-09T07:59:59+00:00	-4	78cjv4l92s20xbx@marketplace.amazon.com	victor p vescova	+1 619-854-2705 ext. 85423	ABC002	Delivery by Tuesday | The Warm Wishes Bouquet by Arabella Bouquets	1	0	1	Expedited	Victor Vescova	505 Jupiter Street			Mission	TX	78572-6317	US			false		
114-7696790-4224248	48704466193658	2020-12-04T22:31:19+00:00	2020-12-04T14:31:19-08:00	2020-12-04T22:59:45+00:00	2020-12-09T07:59:59+00:00	-4	9lw3vnppgvp9fk6@marketplace.amazon.com	Eileen andriassian	+1 415-851-9136 ext. 83289	ABC001	Delivery by Tuesday | The Seasons Greetings Bouquet by Arabella Bouquets	1	0	1	Expedited	Farah Begian	5680 CALMOR CT APT 1			SAN JOSE	CA	95123-5748	US		Happy Birthday! Wishing you a lifetime of health, happiness and love! Love you ❤️ From Helen Andriassian	false		
113-7086648-2745834	38574523969938	2020-12-04T22:39:50+00:00	2020-12-04T14:39:50-08:00	2020-12-04T23:10:13+00:00	2020-12-09T07:59:59+00:00	-4	x5c4x8lj55kmm5r@marketplace.amazon.com	Penny tillman	+1 602-671-6610 ext. 45875	ABM026	Delivery by Tuesday | The Amour Bouquet by Arabella Bouquets	1	0	1	Expedited	Bebe Barbella	20 CHERRY LN			SYOSSET	NY	11791-1810	US			false		
111-9618139-6198627	40341970789410	2020-12-04T22:53:03+00:00	2020-12-04T14:53:03-08:00	2020-12-04T23:19:00+00:00	2020-12-09T07:59:59+00:00	-4	y545hwk456rn250@marketplace.amazon.com	Stephanie Brusett	+1 346-307-9643 ext. 55657	ABC001	Delivery by Tuesday | The Seasons Greetings Bouquet by Arabella Bouquets	1	0	1	Expedited	Chuck & Murleen Robertson	3775 PROSPECT CHURCH RD			OOLTEWAH	TN	37363-8447	US		Merry Christmas! Celebrating your good news with you. God is good! Thank you for making our Christmas so special too. With Much Love, From Brent & Stephanie	false		
111-0573007-6078612	09049446291186	2020-12-04T23:03:40+00:00	2020-12-04T15:03:40-08:00	2020-12-04T23:33:17+00:00	2020-12-08T07:59:59+00:00	-3	lhcm6r8sdtj3w31@marketplace.amazon.com	Abigail	+1 346-307-9643 ext. 62386	ABM024	Delivery by Tuesday | The Beauty of Color Bouquet by Arabella Bouquets	1	0	1	SecondDay	Abigail Thomas	14540 123RD AVE			JAMAICA	NY	11436-1621	US			false		
114-2459357-4146658	48196796103298	2020-12-04T23:08:21+00:00	2020-12-04T15:08:21-08:00	2020-12-04T23:35:34+00:00	2020-12-09T07:59:59+00:00	-4	nxx31gdlz3n4r1h@marketplace.amazon.com	Ashli Gore	+1 619-854-2705 ext. 66753	ABR001	Delivery by Tuesday | Arabella Bouquets 12 Stems of Fresh Cut Red Roses in a Free Designer Glass Vase	1	0	1	Expedited	Debbie Wilkerson	7109 SHIMANO WAY			PANAMA CITY	FL	32404-6294	US		Dearest BB, Crystal, and family, we love you much! Russ, Ashli, Colby & Brady Mark Larry & Jeanette From Ashli Gore	false		
111-2814723-2501803	42901762955202	2020-12-04T23:28:00+00:00	2020-12-04T15:28:00-08:00	2020-12-04T23:41:42+00:00	2020-12-09T07:59:59+00:00	-4	pyxhcpm3fp0vt1s@marketplace.amazon.com	Scott D Collins	+1 415-851-9136 ext. 18430	ABR0022	Delivery by Tuesday | Arabella Farm Direct Bouquet of 12 Fresh Cut Pink Roses with a Free Glass Vase	1	0	1	Expedited	Scott D Collins	116 Chestnut Dr.			Wayne	NJ	07470	US		Dear Aunt Claire, Wishing you much happiness, peace, good health and excellent adventures in your new home! From With lots of love, Jean, Pat and Rose	false		
112-8818085-1085821	22706937936770	2020-12-04T23:27:09+00:00	2020-12-04T15:27:09-08:00	2020-12-04T23:51:21+00:00	2020-12-09T07:59:59+00:00	-4	hq9qg2f92l4ggnh@marketplace.amazon.com	RACHEL BALL	+1 619-854-2705 ext. 04369	ABR0055	Delivery by Tuesday | Arabella Farm Direct Bouquet of 12 Stems of Fresh Cut Hot Pink Roses in a Free Designer Glass Vase	1	0	1	Expedited	Mary Langendorfer	215 S MAPLE # 360			WATERTOWN	SD	57201-4316	US		So sorry for your loss.  Wish we could be there with you.  Miss you and love you very much. From Matt and Rachel Ball	false		
114-1423025-3491402	16515941850962	2020-12-04T23:28:13+00:00	2020-12-04T15:28:13-08:00	2020-12-04T23:58:41+00:00	2020-12-09T07:59:59+00:00	-4	wdwcpb4n2lfvzfh@marketplace.amazon.com	Linda Wu	91210788	ABR0055	Delivery by Tuesday | Arabella Farm Direct Bouquet of 12 Stems of Fresh Cut Hot Pink Roses in a Free Designer Glass Vase	1	0	1	Expedited	Linda Wu	81 EAGAN AVE			STATEN ISLAND	NY	10312-4103	US			false		
114-5311302-4528215	35032501204802	2020-12-04T23:36:08+00:00	2020-12-04T15:36:08-08:00	2020-12-05T00:05:55+00:00	2020-12-09T07:59:59+00:00	-4	9xhmgrzzqlpnhy7@marketplace.amazon.com	Cathy Hackett	+1 480-618-5344 ext. 76420	ABR0022	Delivery by Tuesday | Arabella Farm Direct Bouquet of 12 Fresh Cut Pink Roses with a Free Glass Vase	1	0	1	Expedited	Mary Chapman	100 E 6TH ST			LOWRY CITY	MO	64763-8500	US			false		
114-4133717-4409055	17068697137402	2020-12-04T23:37:56+00:00	2020-12-04T15:37:56-08:00	2020-12-05T00:07:11+00:00	2020-12-09T07:59:59+00:00	-4	31vrkhs9ksx3c8j@marketplace.amazon.com	jesse	+1 346-307-9643 ext. 74903	ABM022	Delivery by Tuesday | Purple Extravagance Bouquet by Arabella Bouquets	1	0	1	Expedited	Dorothy DeWispelare	260 S 10TH ST			DAVID CITY	NE	68632-2032	US		Enjoy your flowers! Love and miss you ❤️❤️❤️❤️ From Jessie and Jesse	false		
112-2716370-8759466	68283470339546	2020-12-04T23:40:56+00:00	2020-12-04T15:40:56-08:00	2020-12-05T00:11:26+00:00	2020-12-09T07:59:59+00:00	-4	zrvpfrz7sdgx5ls@marketplace.amazon.com	Brandon	+1 415-419-8616 ext. 11268	ABR0022	Delivery by Tuesday | Arabella Farm Direct Bouquet of 12 Fresh Cut Pink Roses with a Free Glass Vase	1	0	1	Expedited	Sheila Peterson	616 TARRYTOWN CT			WALNUT CREEK	CA	94598-4022	US			false		
113-8051556-0527432	10692448101578	2020-12-05T00:06:54+00:00	2020-12-04T16:06:54-08:00	2020-12-05T00:30:41+00:00	2020-12-09T07:59:59+00:00	-4	gm1lrrwyx9l5bnc@marketplace.amazon.com	Barbara Roland	+1 602-671-6610 ext. 00576	ABM022	Delivery by Tuesday | Purple Extravagance Bouquet by Arabella Bouquets	1	0	1	Expedited	Patti Green	14260 SW HARGIS RD			BEAVERTON	OR	97008-7417	US		Patti: We love you! From All of us at ENW	false		
112-9358359-2001820	26251265211010	2020-12-05T00:23:07+00:00	2020-12-04T16:23:07-08:00	2020-12-05T00:50:15+00:00	2020-12-08T07:59:59+00:00	-3	gdwyvz7pjwlswmy@marketplace.amazon.com	Meghan W. Bradford	+1 602-671-6610 ext. 56019	ABM022	Delivery by Tuesday | Purple Extravagance Bouquet by Arabella Bouquets	1	0	1	SecondDay	Susan Wolfgang	7862 W 155TH TER			OVERLAND PARK	KS	66223-3082	US		Happy Birthday, Grandma! We love you!! From Liam, Gronk & Mommy	false		
111-6400012-9599455	18239887540386	2020-12-05T00:23:35+00:00	2020-12-04T16:23:35-08:00	2020-12-05T00:50:29+00:00	2020-12-08T07:59:59+00:00	-3	qfnf18gz3s9wppd@marketplace.amazon.com	Miguel	+1 763-225-9463 ext. 87086	ABM022	Delivery by Tuesday | Purple Extravagance Bouquet by Arabella Bouquets	1	0	1	SecondDay	Maddie Adkins	85067 CHRISTIAN WAY APT 1013			YULEE	FL	32097-3434	US		I love you with all my heart i cant explain how happy i am that you are in my life. I hope this makes even even the slightest bit as happy as you make me baby. I cant wait to spend our birthdays together<3 From Miguel	false		
113-7214585-3217817	12293692024146	2020-12-05T00:26:49+00:00	2020-12-04T16:26:49-08:00	2020-12-05T00:53:01+00:00	2020-12-09T07:59:59+00:00	-4	lhd3tc8xr8tyfn0@marketplace.amazon.com	Howard Lott	+1 346-307-9643 ext. 42209	ABR0022	Delivery by Tuesday | Arabella Farm Direct Bouquet of 12 Fresh Cut Pink Roses with a Free Glass Vase	1	0	1	Expedited	Randy & Becky Donithan	12922 W GEORGIA AVE			LITCHFIELD PARK	AZ	85340-3012	US		Our deepest sympathy in the loss of your mother Becky. From Monique & Jeff	false		
111-1918305-1569022	26714108725274	2020-12-05T00:26:12+00:00	2020-12-04T16:26:12-08:00	2020-12-05T00:55:45+00:00	2020-12-09T07:59:59+00:00	-4	qgy31fwgsg6crqy@marketplace.amazon.com	Courtney Ruppert	+1 415-419-8616 ext. 46905	ABM010	Delivery by Tuesday | The Everlasting Fling Bouquet by Arabella Bouquets with a Free Designer Glass Vase	1	0	1	Expedited	Courtney Ruppert	2505 UNIVERSITY AVE			WILLISTON	ND	58801-6243	US		Love you. Have a wonderful Christmas and a happy New Year. From Courtney Ruppert	false		
112-9162980-1468242	08350180792026	2020-12-05T00:48:56+00:00	2020-12-04T16:48:56-08:00	2020-12-05T01:14:15+00:00	2020-12-08T07:59:59+00:00	-3	7nw88mj86sw9jkk@marketplace.amazon.com	BERTIL NILSSON	+1 602-671-6610 ext. 78337	ABR0022	Delivery by Tuesday | Arabella Farm Direct Bouquet of 12 Fresh Cut Pink Roses with a Free Glass Vase	1	0	1	SecondDay	June Cull	16236 DURAND RD			DURAND	IL	61024-9541	US		Hi June, Enjoy your gift Merry Christmas gift! From BERTIL NILSSON	false		
111-4811739-9375447	44918784774466	2020-12-05T00:56:12+00:00	2020-12-04T16:56:12-08:00	2020-12-05T01:25:10+00:00	2020-12-08T07:59:59+00:00	-3	4n6l4x67krs3g4y@marketplace.amazon.com	yuriko	+1 480-618-5344 ext. 77967	ABM0044	Delivery by Tuesday | Arabella Farm Direct Bouquet of Fresh Cut Blue Hydrangea with a Free Glass Vase	1	0	1	SecondDay	Yuriko Fukuoka	935 NE 199TH ST APT 202			MIAMI	FL	33179-3034	US		Flowers for my Jellyfish and Monkey From Buta	false		
113-0999164-5221069	03594323031290	2020-12-05T00:59:16+00:00	2020-12-04T16:59:16-08:00	2020-12-05T01:26:35+00:00	2020-12-09T07:59:59+00:00	-4	0l1jm21tfhhc8s3@marketplace.amazon.com	Jenny Loyd	80163573	ABM010	Delivery by Tuesday | The Everlasting Fling Bouquet by Arabella Bouquets with a Free Designer Glass Vase	1	0	1	Expedited	Mary Eilber	2401 E QUAIL HOLLOW DR			SANDY	UT	84093-2735	US		We are so sorry to hear about the passing of your mother. Our thoughts are with you and your family during this difficult time. Love, Your MNBC Family From The Sunshine Committee	false		
111-4541681-1816248	13952790168330	2020-12-05T01:02:47+00:00	2020-12-04T17:02:47-08:00	2020-12-05T01:29:11+00:00	2020-12-09T07:59:59+00:00	-4	gr59lj8f5xng0pz@marketplace.amazon.com	Ming Yao	+1 415-419-8616 ext. 60359	ABR0022	Delivery by Tuesday | Arabella Farm Direct Bouquet of 12 Fresh Cut Pink Roses with a Free Glass Vase	1	0	1	Standard	Susan Hardy	1914 cedar Ln			Charleston	SC	29414	US		To my best daughter in the world, Timgting Happy birthday! From Mom and Dad	false		
113-0307997-7123473	30883257046746	2020-12-05T01:08:17+00:00	2020-12-04T17:08:17-08:00	2020-12-05T01:34:24+00:00	2020-12-09T07:59:59+00:00	-4	0l1jm21tfhhc8s3@marketplace.amazon.com	Jenny Loyd	+1 480-618-5344 ext. 75090	ABM031	Delivery by Tuesday | The Harvest Moon Bouquet by Arabella Bouquets	1	0	1	Expedited	Cathy Zomerdyke	5420 S WAYMAN LN			HOLLADAY	UT	84117-7830	US		Swift/Zomerdyke/Winkle Family- We are thinking of you during this difficult time. We love you all very much and will miss Jeanne. May Jehovah comfort you and bring you peace. From Zac & Jenny Loyd	false		
112-0656265-2586633	52614994135938	2020-12-05T01:16:44+00:00	2020-12-04T17:16:44-08:00	2020-12-05T01:39:50+00:00	2020-12-09T07:59:59+00:00	-4	l86h95xgtycjrq0@marketplace.amazon.com	Kathleen A. Lambert	+1 619-854-2705 ext. 38522	ABM0033	Delivery by Tuesday | Arabella Farm Direct Bouquet of Fresh Cut White Hydrangea with a Free Glass Vase	1	0	1	Standard	Nancy Olander	3640 SMUGGLER WAY			BOULDER	CO	80305-7224	US		Merry Christmas! From Susie, Katie, Mike, Izzie, Addie, Frankie & Bill	false		
112-1276652-6094622	67739678358378	2020-12-05T01:41:14+00:00	2020-12-04T17:41:14-08:00	2020-12-05T02:08:38+00:00	2020-12-09T07:59:59+00:00	-4	26flzs6rmszqcnr@marketplace.amazon.com	T.frierdich	+1 415-419-8616 ext. 09614	ABR0022	Delivery by Tuesday | Arabella Farm Direct Bouquet of 12 Fresh Cut Pink Roses with a Free Glass Vase	1	0	1	Expedited	Lisa Franczak	7724 58TH PL N			CRYSTAL	MN	55428-3233	US		Hey Lisa just thinking of you and family during this tough time. From T.frierdich	false		
113-4632285-7965846	37975687262946	2020-12-05T01:44:49+00:00	2020-12-04T17:44:49-08:00	2020-12-05T02:14:47+00:00	2020-12-09T07:59:59+00:00	-4	7c5302km2sqt024@marketplace.amazon.com	Luis A Tapiadominguez	+1 213-442-1463 ext. 40093	ABR001	Delivery by Tuesday | Arabella Bouquets 12 Stems of Fresh Cut Red Roses in a Free Designer Glass Vase	1	0	1	Expedited	LUIS ANGEL TAPIADOMINGUEZ	9402 KLINEDALE AVE			DOWNEY	CA	90240-2521	US			false		
114-4450951-4475424	17259166228914	2020-12-05T01:50:22+00:00	2020-12-04T17:50:22-08:00	2020-12-05T02:18:59+00:00	2020-12-08T07:59:59+00:00	-3	p7r463886kgy067@marketplace.amazon.com	Stephanie N Davi	+1 346-307-9643 ext. 94831	ABR0022	Delivery by Tuesday | Arabella Farm Direct Bouquet of 12 Fresh Cut Pink Roses with a Free Glass Vase	1	0	1	SecondDay	Ellie Davi	1864 Eagle Peak Avenue			CLAYTON	CA	94517-1802	US		Happy Birthday Ma!!! Love, Steph, Dan, Tyler, and Haley From Stephanie N Davi	false		
114-5847241-3017853	46039702821642	2020-12-05T02:16:12+00:00	2020-12-04T18:16:12-08:00	2020-12-05T02:46:52+00:00	2020-12-08T07:59:59+00:00	-3	g1x35mr8h1mcrp4@marketplace.amazon.com	randy rickert	+1 480-618-5344 ext. 53461	ABR0055	Delivery by Tuesday | Arabella Farm Direct Bouquet of 12 Stems of Fresh Cut Hot Pink Roses in a Free Designer Glass Vase	1	0	1	SecondDay	Pam Dacunha	MAP OF 2 CHRISTY HTS RD			OLD SAYBROOK	CT	06475-1217	US			false		
113-1606548-1369864	16642412223626	2020-12-05T02:34:37+00:00	2020-12-04T18:34:37-08:00	2020-12-05T02:59:03+00:00	2020-12-09T07:59:59+00:00	-4	00rgk3gjm2pnvvx@marketplace.amazon.com	Hubert Sarfo	+1 346-307-9643 ext. 43314	ABR0022	Delivery by Tuesday | Arabella Farm Direct Bouquet of 12 Fresh Cut Pink Roses with a Free Glass Vase	1	0	1	Expedited	Ms Kebbay	70 GREENWAY SQ APT APT D34			DOVER	DE	19904-2606	US			false		
113-3987474-2649825	14986698284146	2020-12-05T02:34:53+00:00	2020-12-04T18:34:53-08:00	2020-12-05T03:00:28+00:00	2020-12-09T07:59:59+00:00	-4	qdvcphj4md1hkjc@marketplace.amazon.com	Mike Fiedor	+1 480-618-5344 ext. 05679	ABM022	Delivery by Tuesday | Purple Extravagance Bouquet by Arabella Bouquets	1	0	1	Expedited	Michele Martinez	1785 SATTLER DR			CONCORD	CA	94519-1422	US		Get Well Soon❤️ From Lots of Love, Mike and Suzie	false		
111-0621116-5226608	03853808658658	2020-12-05T02:37:21+00:00	2020-12-04T18:37:21-08:00	2020-12-05T03:04:32+00:00	2020-12-08T07:59:59+00:00	-3	nf7wdkhm52nzltb@marketplace.amazon.com	samantha pauling	+1 213-442-1463 ext. 05183	ABR0022	Delivery by Tuesday | Arabella Farm Direct Bouquet of 12 Fresh Cut Pink Roses with a Free Glass Vase	1	0	1	SecondDay	Katie Winkler	28259 CAMINO DEL RIO			SAN JUAN CAPISTRANO	CA	92675-6338	US		Happy Birthday Katie! We are thinking of you today. Hope you have a fabulous birthday. I love you. <3 From Sam and Todd	false		
114-1760710-2160234	29269969937050	2020-12-05T02:47:36+00:00	2020-12-04T18:47:36-08:00	2020-12-05T03:06:09+00:00	2020-12-09T07:59:59+00:00	-4	l7xgr6k98tft7v7@marketplace.amazon.com	Marie Matakis	+1 346-307-9643 ext. 80844	ABR0055	Delivery by Tuesday | Arabella Farm Direct Bouquet of 12 Stems of Fresh Cut Hot Pink Roses in a Free Designer Glass Vase	1	0	1	Expedited	Cynthia Hoffmann	764 HOFFMAN RD			PRESCOTT	WA	99348-9670	US		Cynthia, We want to wish you a very "HAPPY BIRTHDAY"!!!!! You mean the  world to us & we love you very much!  Have a Wonderful Birthday!!! Lots of Love, Always, From Donna & Marie	false		
112-4238806-2990612	40276880855026	2020-12-05T02:49:45+00:00	2020-12-04T18:49:45-08:00	2020-12-05T03:12:25+00:00	2020-12-09T07:59:59+00:00	-4	6wl4z985st395jz@marketplace.amazon.com	Colette WArning	+1 602-671-6610 ext. 63411	ABM010	Delivery by Tuesday | The Everlasting Fling Bouquet by Arabella Bouquets with a Free Designer Glass Vase	1	0	1	Expedited	Erin Fitzgerald	123 N DESPLAINES ST APT 1008			CHICAGO	IL	60661-2305	US		Congratulations on your new job! We know you will be great! From Colette And Tom❤️	false		
112-3820525-9443432	40868232170162	2020-12-05T02:52:06+00:00	2020-12-04T18:52:06-08:00	2020-12-05T03:17:34+00:00	2020-12-09T07:59:59+00:00	-4	rfcykmjj2n5znpx@marketplace.amazon.com	lawrence s. kalban	+1 619-854-2705 ext. 65021	ABR0022	Delivery by Tuesday | Arabella Farm Direct Bouquet of 12 Fresh Cut Pink Roses with a Free Glass Vase	1	0	1	Expedited	Krista Caldwell	8167 S EMERSON WAY			LITTLETON	CO	80122-4306	US		Missing you From Your not so secret admirer	false		
114-1188382-0492235	20361904154498	2020-12-05T02:54:01+00:00	2020-12-04T18:54:01-08:00	2020-12-05T03:20:24+00:00	2020-12-08T07:59:59+00:00	-3	1jpvzqqcy94195x@marketplace.amazon.com	Narissa	+1 480-618-5344 ext. 23088	ABM020	Delivery by Tuesday | The Sunset Bouquet by Arabella Bouquets	1	0	1	SecondDay	Joy Walfall	39 VOORHEES ST			TEANECK	NJ	07666-6215	US		Love you Mom. Happy birthday. From Gaius & Narissa	false		
112-7165368-3218652	09854119240362	2020-12-05T02:56:45+00:00	2020-12-04T18:56:45-08:00	2020-12-05T03:27:13+00:00	2020-12-09T07:59:59+00:00	-4	nqcfk3hdkbqr37b@marketplace.amazon.com	Rajiv Boodhoo	+1 619-854-2705 ext. 36877	ABM020	Delivery by Tuesday | The Sunset Bouquet by Arabella Bouquets	1	0	1	Expedited	Carolina Reyes	320 49TH ST APT 4L			BROOKLYN	NY	11220-1838	US			false		
114-2728473-3166617	08607507903890	2020-12-05T03:02:07+00:00	2020-12-04T19:02:07-08:00	2020-12-05T03:30:21+00:00	2020-12-09T07:59:59+00:00	-4	nkxfhrkyfz7nlt6@marketplace.amazon.com	Jacqueline A Mazzella	+1 213-442-1463 ext. 66984	ABR0066	Delivery by Tuesday | Arabella Bouquets 12 Stems of Fresh Cut White Roses in a Free Designer Glass Vase	1	0	1	Expedited	Christina Fitterman	4 BEDFORD CT			RIDGE	NY	11961-2049	US		Happy Birthday Al ❤️ We miss you.  Love, Jackie & Mike From Jacqueline A Mazzella	false		
111-1554281-7209029	28607019002266	2020-12-05T03:07:52+00:00	2020-12-04T19:07:52-08:00	2020-12-05T03:34:23+00:00	2020-12-08T07:59:59+00:00	-3	md6j96ykl10k59p@marketplace.amazon.com	Jennifer Basco	+1 602-671-6610 ext. 86889	ABM022	Delivery by Tuesday | Purple Extravagance Bouquet by Arabella Bouquets	1	0	1	SecondDay	Thelma Palma	13621 DICKY ST			WHITTIER	CA	90605-2950	US		Happy birthday, Auntie Thelma!!!! I’m sure Toto Ralph would want me to send you this. From Jennifer Basco	false		
111-4854210-7926608	45793285437474	2020-12-05T03:12:22+00:00	2020-12-04T19:12:22-08:00	2020-12-05T03:38:36+00:00	2020-12-09T07:59:59+00:00	-4	s9vv41jczmzfklm@marketplace.amazon.com	Kristen Razvillas	+1 602-671-6610 ext. 19283	ABR0022	Delivery by Tuesday | Arabella Farm Direct Bouquet of 12 Fresh Cut Pink Roses with a Free Glass Vase	1	0	1	Expedited	Kristyna Perrin	3101 GARST CABIN DR			ROANOKE	VA	24018-2633	US			false		
111-3280726-0617861	11872482592602	2020-12-05T03:20:32+00:00	2020-12-04T19:20:32-08:00	2020-12-05T03:41:42+00:00	2020-12-09T07:59:59+00:00	-4	9l6vx1k1flk5vyq@marketplace.amazon.com	Taylor Pirro	+1 346-307-9643 ext. 61987	ABR0022	Delivery by Tuesday | Arabella Farm Direct Bouquet of 12 Fresh Cut Pink Roses with a Free Glass Vase	1	0	1	Expedited	Kristen Parkins	114 NAVESINK AVE			HIGHLANDS	NJ	07732-1801	US		Kristen, Congrats on graduating! I am so proud of you and I know you are going to make such a difference in the lives you touch wherever you choose to go, and I can't wait to see all that you accomplish! From Tay, AOT	false		
111-8059694-9465810	04783106167298	2020-12-05T03:35:06+00:00	2020-12-04T19:35:06-08:00	2020-12-05T03:50:26+00:00	2020-12-08T07:59:59+00:00	-3	lmgf245cts61pg5@marketplace.amazon.com	Andre Vadrevu	+1 213-442-1463 ext. 98753	ABR0022	Delivery by Tuesday | Arabella Farm Direct Bouquet of 12 Fresh Cut Pink Roses with a Free Glass Vase	1	0	1	SecondDay	Sarah Beckman	324 W BRODERICK DR MERIDI			MERIDIAN	ID	83646-0007	US		You are loved and missed! Come visit and I’ll buy you a flight! From Chris Vadrevu	false		
112-7668960-2822614	06757622466578	2020-12-05T03:44:29+00:00	2020-12-04T19:44:29-08:00	2020-12-05T04:07:48+00:00	2020-12-09T07:59:59+00:00	-4	w7k1lkc6z5cnfvf@marketplace.amazon.com	john stephenson	+1 602-671-6610 ext. 12001	ABR0022	Delivery by Tuesday | Arabella Farm Direct Bouquet of 12 Fresh Cut Pink Roses with a Free Glass Vase	1	0	1	Expedited	Jodi Cruce	3245 MCCULLERS DR			LOGANVILLE	GA	30052-3216	US		Happy Birthday Mom I love you  Madi From Madison	false		
114-9733415-3617024	69120450195290	2020-12-05T03:45:47+00:00	2020-12-04T19:45:47-08:00	2020-12-05T04:14:31+00:00	2020-12-09T07:59:59+00:00	-4	kxw3ls7ny6xfx6d@marketplace.amazon.com	Kevin Yue Chen	+1 480-618-5344 ext. 69194	ABR0022	Delivery by Tuesday | Arabella Farm Direct Bouquet of 12 Fresh Cut Pink Roses with a Free Glass Vase	1	0	1	Expedited	Kevin Yue Chen	426 15TH AVE E APT B			SEATTLE	WA	98112-4797	US			false		
114-9043529-1651461	33206241544954	2020-12-05T04:12:47+00:00	2020-12-04T20:12:47-08:00	2020-12-05T04:19:35+00:00	2020-12-09T07:59:59+00:00	-4	tp27jfj4lkkd190@marketplace.amazon.com	Myra Smith	+1 602-671-6610 ext. 98293	ABR0022	Delivery by Tuesday | Arabella Farm Direct Bouquet of 12 Fresh Cut Pink Roses with a Free Glass Vase	1	0	1	Expedited	Fannie DeCator	3402 ERDMAN AVE			BALTIMORE	MD	21213-1912	US		Hi Fannie, Enjoy your gift! Happy Birthday Love ya From Myra Smith	false		
114-6421797-6666637	13413003961042	2020-12-05T03:50:37+00:00	2020-12-04T19:50:37-08:00	2020-12-05T04:20:16+00:00	2020-12-09T07:59:59+00:00	-4	ssc58q88jm5ql14@marketplace.amazon.com	sapna	+1 213-442-1463 ext. 80211	ABM020	Delivery by Tuesday | The Sunset Bouquet by Arabella Bouquets	1	0	1	Expedited	sarojini nair	80 RIVERDALE AVE APT 10D			YONKERS	NY	10701-3655	US		Dearest Aunty Have a lovely Birthday. God bless you and keep you in good health and cheer always. From sapu, unni, adi and arya	false		
113-5499240-0239436	44978214653282	2020-12-05T04:00:04+00:00	2020-12-04T20:00:04-08:00	2020-12-05T04:28:14+00:00	2020-12-09T07:59:59+00:00	-4	d6291yyms1brx0v@marketplace.amazon.com	Megan Canales	+1 415-419-8616 ext. 52082	ABR0022	Delivery by Tuesday | Arabella Farm Direct Bouquet of 12 Fresh Cut Pink Roses with a Free Glass Vase	1	0	1	Expedited	Dr. Appelbaum	22 FEIERTAG RD			MIDDLETOWN	NY	10941-3323	US		Wishing you a wonderful birthday! From Megan & Edward	false		
113-1595873-6694610	54625498778658	2020-12-05T04:08:29+00:00	2020-12-04T20:08:29-08:00	2020-12-05T04:33:24+00:00	2020-12-09T07:59:59+00:00	-4	bdck1ys0cmv26v2@marketplace.amazon.com	Debra Wright Carlsen	+1 346-307-9643 ext. 68146	ABR0033	Delivery by Tuesday | Arabella Farm Direct Bouquet of 12 Fresh Cut Orange Roses with a Free Glass Vase	1	0	1	Expedited	Sandy Corrales	6343 CANDLEWOOD DR			WESLEY CHAPEL	FL	33544-5836	US		Merry Christmas Honey We Love You Debbie and Nala From Debra Wright Carlsen	false		
113-1235895-4769848	58230912534970	2020-12-05T04:16:15+00:00	2020-12-04T20:16:15-08:00	2020-12-05T04:45:12+00:00	2020-12-09T07:59:59+00:00	-4	hvhsb0fbkqz1vpt@marketplace.amazon.com	Wendie Hill	+1 480-618-5344 ext. 94074	ABC002	Delivery by Tuesday | The Warm Wishes Bouquet by Arabella Bouquets	1	0	1	Expedited	MaryAnn Hawkins	4525 S 14TH ST			SAINT JOSEPH	MO	64504-1217	US		So proud of you! Can’t wait until we can celebrate in person. You did it my friend.  You’re amazing! Love you! From Wendie Hill	false		
114-5937939-3427447	59971936658922	2020-12-05T04:51:46+00:00	2020-12-04T20:51:46-08:00	2020-12-05T05:21:31+00:00	2020-12-09T07:59:59+00:00	-4	gcbw66td9xjlv6j@marketplace.amazon.com	Krista	+1 619-854-2705 ext. 30932	ABM022	Delivery by Tuesday | Purple Extravagance Bouquet by Arabella Bouquets	1	0	1	Expedited	Aunt  Connie Savage	665 PARKSIDE DR			AVON LAKE	OH	44012-4007	US			false		
113-4888055-1491433	62699560647458	2020-12-05T04:56:16+00:00	2020-12-04T20:56:16-08:00	2020-12-05T05:25:57+00:00	2020-12-09T07:59:59+00:00	-4	fk67dk3hsgdd2zc@marketplace.amazon.com	Ginger Jacobson	+1 213-442-1463 ext. 22743	ABR0033	Delivery by Tuesday | Arabella Farm Direct Bouquet of 12 Fresh Cut Orange Roses with a Free Glass Vase	1	0	1	Expedited	Penelope Hon	533 W PASO FINO DR			BOISE	ID	83702-5146	US			false		
111-7462597-5412235	60276613027098	2020-12-05T05:17:07+00:00	2020-12-04T21:17:07-08:00	2020-12-05T05:27:53+00:00	2020-12-09T07:59:59+00:00	-4	l70ddqjy80xd1c9@marketplace.amazon.com	Diane Pittman	+1 415-419-8616 ext. 43266	ABM022	Delivery by Tuesday | Purple Extravagance Bouquet by Arabella Bouquets	1	0	1	Expedited	Mary  Fish c/o Martha's manor	408 N 5TH ST			STEUBENVILLE	OH	43952-2018	US		Hello Mother,   I miss you and our conversations ! Think of you always ! Just a little reminder that I LOVE you ! Merry Christmas , Your son, Ringo Fish	false		
114-7095326-8970610	54288627157298	2020-12-05T05:08:55+00:00	2020-12-04T21:08:55-08:00	2020-12-05T05:34:44+00:00	2020-12-09T07:59:59+00:00	-4	xczrq8cbxhgrmwg@marketplace.amazon.com	Mike McClure	+1 346-307-9643 ext. 83394	ABR001	Delivery by Tuesday | Arabella Bouquets 12 Stems of Fresh Cut Red Roses in a Free Designer Glass Vase	1	0	1	Expedited	Marti Daubenmire	445 LEISURE LN			MEDINA	OH	44256-1677	US		Marti, Merry Christmas!  I thought this would be nice and the earlier the better so you can enjoy them now. From Mike McClure	false		
112-6982709-6482666	49302806327994	2020-12-05T05:26:42+00:00	2020-12-04T21:26:42-08:00	2020-12-05T05:49:30+00:00	2020-12-08T07:59:59+00:00	-3	2jt18kgsbh4pb1z@marketplace.amazon.com	judith friedlander	+1 213-442-1463 ext. 80241	ABM022	Delivery by Tuesday | Purple Extravagance Bouquet by Arabella Bouquets	1	0	1	SecondDay	Dr. Melanie Friedllander	1236 SYLVANER AVE			SAINT HELENA	CA	94574-2336	US		Melanie -  Relax and enjoy!  Love,  Mom From judith friedlander	false		
114-7053439-5204242	31060976965266	2020-12-05T05:30:15+00:00	2020-12-04T21:30:15-08:00	2020-12-05T05:58:28+00:00	2020-12-09T07:59:59+00:00	-4	gq1ddr4v1p4047p@marketplace.amazon.com	Diane F. Dillon	+1 415-851-9136 ext. 20046	ABR0022	Delivery by Tuesday | Arabella Farm Direct Bouquet of 12 Fresh Cut Pink Roses with a Free Glass Vase	1	0	1	Expedited	Ms. Terry Moerler	301 CHERRY HILLS CT			THOUSAND OAKS	CA	91320-4173	US		You will both soon be in the PINK! \\ Di From Diane F. Dillon	false		
112-0116410-9953840	42494927349426	2020-12-05T05:35:01+00:00	2020-12-04T21:35:01-08:00	2020-12-05T06:03:32+00:00	2020-12-09T07:59:59+00:00	-4	kyqy7hf51m84wpn@marketplace.amazon.com	JOANNE GIBA	+1 415-851-9136 ext. 56586	ABR0066	Delivery by Tuesday | Arabella Bouquets 12 Stems of Fresh Cut White Roses in a Free Designer Glass Vase	1	0	1	Expedited	Debbie Vai	73 KINGSWOOD LN			WOLCOTT	CT	06716-2211	US		Deb, All my thoughts, love, and prayers to you and Eddie today. Auntie From JOANNE GIBA	false		
112-3618905-8661804	67124577733930	2020-12-05T06:12:32+00:00	2020-12-04T22:12:32-08:00	2020-12-05T06:41:55+00:00	2020-12-08T07:59:59+00:00	-3	k34l4257dh5pzv9@marketplace.amazon.com	Lauren Mullinix	+1 619-854-2705 ext. 53672	ABM0033	Delivery by Tuesday | Arabella Farm Direct Bouquet of Fresh Cut White Hydrangea with a Free Glass Vase	1	0	1	SecondDay	Marissa Kanners	305 E 86TH ST APT 4MW			NEW YORK	NY	10028-4703	US		Sending you good vibes and big hugs! From Lauren & Penny	false		
112-2383350-4078624	20673813017282	2020-12-05T06:16:38+00:00	2020-12-04T22:16:38-08:00	2020-12-05T06:43:16+00:00	2020-12-09T07:59:59+00:00	-4	t7qsbm3tc2w7lf4@marketplace.amazon.com	Aaron Christensen	+1 480-618-5344 ext. 65603	ABM026	Delivery by Tuesday | The Amour Bouquet by Arabella Bouquets	1	0	1	Expedited	Makayla stott	1823 W 1600 S			LEHI	UT	84043-4438	US		Love you friend!! You’re in our prayers every night! From Christy Christensen	false		
111-4863619-7313011	03660027083202	2020-12-05T07:25:26+00:00	2020-12-04T23:25:26-08:00	2020-12-05T07:51:09+00:00	2020-12-09T07:59:59+00:00	-4	j74ny7n84jw0dzp@marketplace.amazon.com	Nona Sidlo	+1 619-854-2705 ext. 65838	ABR0066	Delivery by Tuesday | Arabella Bouquets 12 Stems of Fresh Cut White Roses in a Free Designer Glass Vase	1	0	1	Expedited	Tom and Diane Tolliver	1223 3RD ST E			ASHLAND	WI	54806-2109	US		Hi, Sad to miss our Christmas    Happy Holidays Love Nona   Of course the ornament is for Tom.	false		
114-3132297-9207419	00142038061874	2020-12-05T07:33:18+00:00	2020-12-04T23:33:18-08:00	2020-12-05T07:52:00+00:00	2020-12-09T07:59:59+00:00	-4	rykxfmcqrk4k3p3@marketplace.amazon.com	spencer m. sherrod	+1 346-307-9643 ext. 29730	ABM020	Delivery by Tuesday | The Sunset Bouquet by Arabella Bouquets	1	0	1	Expedited	Artri B.  Spratling	9704 DUNN CT			CLINTON	MD	20735-2981	US		Get Well and Kick back at the same. Love, Pops From spencer m. sherrod	false		
113-5369721-3841858	35906943187266	2020-12-05T07:26:42+00:00	2020-12-04T23:26:42-08:00	2020-12-05T07:52:24+00:00	2020-12-09T07:59:59+00:00	-4	d0vq5jh91520nwj@marketplace.amazon.com	Susan Brighouse	+1 619-854-2705 ext. 74785	ABM022	Delivery by Tuesday | Purple Extravagance Bouquet by Arabella Bouquets	1	0	1	Expedited	Trina Farrell	5469 NE VOYAGE AVE			LINCOLN CITY	OR	97367-9684	US		Get well soon From Tracy & Susan Brighouse	false		
112-1944249-6350627	39737017911490	2020-12-05T07:44:10+00:00	2020-12-04T23:44:10-08:00	2020-12-05T08:10:11+00:00	2020-12-09T07:59:59+00:00	-4	m3vypvcgs8fnzht@marketplace.amazon.com	Clayton	+1 763-225-9463 ext. 60481	ABR001	Delivery by Tuesday | Arabella Bouquets 12 Stems of Fresh Cut Red Roses in a Free Designer Glass Vase	1	0	1	Expedited	Alexa Hidy	250 W 50TH ST APT 19F			NEW YORK	NY	10019-6722	US		Happy Anniversary! 2 years flew by and you have become very important to me. We will get to exchange more gifts in person :).  I love you. From Clayton	false		
111-2308884-0408245	30190715798042	2020-12-05T07:56:52+00:00	2020-12-04T23:56:52-08:00	2020-12-05T08:10:20+00:00	2020-12-09T07:59:59+00:00	-4	7qdz44z4z0s0g88@marketplace.amazon.com	Lora Rhoads	+1 929-436-4790 ext. 50331	ABM022	Delivery by Tuesday | Purple Extravagance Bouquet by Arabella Bouquets	1	0	1	Expedited	Mrs Hattie Sutton	5104 N CARLISLE ST			PHILADELPHIA	PA	19141-1630	US			false		
113-8759305-3649061	39797352536874	2020-12-05T07:48:09+00:00	2020-12-04T23:48:09-08:00	2020-12-05T08:16:18+00:00	2020-12-08T07:59:59+00:00	-3	x5cc0dcxgjpzxhr@marketplace.amazon.com	Steven	+1 346-307-9643 ext. 98185	ABR0033	Delivery by Tuesday | Arabella Farm Direct Bouquet of 12 Fresh Cut Orange Roses with a Free Glass Vase	1	0	1	SecondDay	Melissa Sosa	1801 RIMROCK RD APT P20			BARSTOW	CA	92311-5794	US			false		
114-1670250-8213825	14729022719746	2020-12-05T09:38:25+00:00	2020-12-05T01:38:25-08:00	2020-12-05T10:07:34+00:00	2020-12-09T07:59:59+00:00	-4	4hqp0whg800tlm8@marketplace.amazon.com	M. Hill	+1 415-419-8616 ext. 88975	ABR001	Delivery by Tuesday | Arabella Bouquets 12 Stems of Fresh Cut Red Roses in a Free Designer Glass Vase	1	0	1	Expedited	Marian C. Hill	1541 PIERMAJ LN			LUTZ	FL	33549-5731	US			false		
112-3291208-8182650	13484792849698	2020-12-05T10:03:15+00:00	2020-12-05T02:03:15-08:00	2020-12-05T10:30:53+00:00	2020-12-09T07:59:59+00:00	-4	nzbjsy5gm06c1f0@marketplace.amazon.com	Carol Winwood	+1 415-851-9136 ext. 06945	ABM031	Delivery by Wednesday | The Harvest Moon Bouquet by Arabella Bouquets	1	0	1	Expedited	Susan Zak	813 GEORGE ST			THROOP	PA	18512-1015	US			false		
113-7016001-0248229	35222743685578	2020-12-05T10:29:14+00:00	2020-12-05T02:29:14-08:00	2020-12-05T10:59:19+00:00	2020-12-08T07:59:59+00:00	-3	05bymccw8bkh7zz@marketplace.amazon.com	charles field	+1 346-307-9643 ext. 82219	ABR0022	Delivery by Tuesday | Arabella Farm Direct Bouquet of 12 Fresh Cut Pink Roses with a Free Glass Vase	1	0	1	SecondDay	charles field	2451 OLYMPIC DR			OAK HARBOR	WA	98277-8018	US			false		
112-2567283-9748218	09489655690970	2020-12-05T11:52:42+00:00	2020-12-05T03:52:42-08:00	2020-12-05T12:13:52+00:00	2020-12-09T07:59:59+00:00	-4	yltk74hm7d77k46@marketplace.amazon.com	Colin Davis	+1 480-618-5344 ext. 22439	ABC002	Delivery by Wednesday | The Warm Wishes Bouquet by Arabella Bouquets	1	0	1	Standard	Shirley Libby Davis	4 HIGH ST			HARRISON	ME	04040-3542	US		Dear Grandma! Wishing you and Katie a joyful and happy Christmas.  Love, Colin and Stephanie From Colin Davis	false		
114-5332447-7101001	66795286559074	2020-12-05T12:03:52+00:00	2020-12-05T04:03:52-08:00	2020-12-05T12:31:48+00:00	2020-12-09T07:59:59+00:00	-4	ry7mb7pwwt22cw6@marketplace.amazon.com	Larrie Ellen Randall	+1 213-442-1463 ext. 02542	ABM022	Delivery by Tuesday | Purple Extravagance Bouquet by Arabella Bouquets	1	0	1	Expedited	Paul Feldman	1934 N DANIEL ST			ARLINGTON	VA	22201-4110	US		We hope this will add some cheer to your life during this very difficult time! From Larrie Ellen Randall and Catherine Falk	false		
