order-id	order-item-id	purchase-date	payments-date	reporting-date	promise-date	days-past-promise	buyer-email	buyer-name	buyer-phone-number	sku	product-name	quantity-purchased	quantity-shipped	quantity-to-ship	ship-service-level	recipient-name	ship-address-1	ship-address-2	ship-address-3	ship-city	ship-state	ship-postal-code	ship-country	gift-wrap-type	gift-message-text	is-business-order	purchase-order-number	price-designation
114-1050326-2916235	05317334713866	2020-12-04T18:26:44+00:00	2020-12-04T10:26:44-08:00	2020-12-04T18:47:15+00:00	2020-12-09T07:59:59+00:00	-4	l2zv2ndrq3csw2w@marketplace.amazon.com	John l. Cocking	+1 415-851-9136 ext. 08493	ABR0022	Delivery by Tuesday | Arabella Farm Direct Bouquet of 12 Fresh Cut Pink Roses with a Free Glass Vase	1	0	1	Expedited	Diane Harrington	441 west 11th Ave.			Oshkosh	Wisconsin	54901	US		Are prayers are with you.  Love you Mary and Jack From John l. Cocking	false		
112-7584985-8303461	07877843057754	2020-12-04T18:23:26+00:00	2020-12-04T10:23:26-08:00	2020-12-04T18:53:57+00:00	2020-12-09T07:59:59+00:00	-4	w1f3zfny907lgxf@marketplace.amazon.com	matt	+1 602-671-6610 ext. 86010	ABR0022	Delivery by Tuesday | Arabella Farm Direct Bouquet of 12 Fresh Cut Pink Roses with a Free Glass Vase	1	0	1	Expedited	matt and erin kent	5952 VALENTINO WAY			LAKELAND	FL	33812-5235	US			false		
112-9533923-8379468	54849796374554	2020-12-04T18:34:10+00:00	2020-12-04T10:34:10-08:00	2020-12-04T19:01:06+00:00	2020-12-09T07:59:59+00:00	-4	br66z1m9pmhv1yf@marketplace.amazon.com	Ingrid McIntosh	+1 480-618-5344 ext. 06435	ABR0022	Delivery by Tuesday | Arabella Farm Direct Bouquet of 12 Fresh Cut Pink Roses with a Free Glass Vase	1	0	1	Expedited	Mary Anderson Hill	2000 E WEST CONNECTOR APT 211			AUSTELL	GA	30106-8132	US		Happy Birthday my dear mother!❤ Love, Ingrid From Ingrid McIntosh	false		
114-4661455-5857816	15832535077570	2020-12-04T18:45:54+00:00	2020-12-04T10:45:54-08:00	2020-12-04T19:11:33+00:00	2020-12-09T07:59:59+00:00	-4	3f6k5v3dc0yscb6@marketplace.amazon.com	Leslie Brauman	+1 415-851-9136 ext. 40345	ABR0055	Delivery by Tuesday | Arabella Farm Direct Bouquet of 12 Stems of Fresh Cut Hot Pink Roses in a Free Designer Glass Vase	1	0	1	Expedited	Dudley Del Balso	130 LAUREL GROVE AVE			ROSS	CA	94957-9665	US		Dear Dudley and Michael, Thank you!!!   From your TPL family in NYC! Carter, Mary Alice and Leslie From Leslie Brauman	false		
111-4200327-1801003	05602429247410	2020-12-04T18:45:40+00:00	2020-12-04T10:45:40-08:00	2020-12-04T19:11:49+00:00	2020-12-09T07:59:59+00:00	-4	c12vnz1tbdqxv64@marketplace.amazon.com	Christine A Arnold	+1 346-307-9643 ext. 89101	ABM010	Delivery by Tuesday | The Everlasting Fling Bouquet by Arabella Bouquets with a Free Designer Glass Vase	1	0	1	Expedited	Loretta Ranalli	4480 MOUNT ROYAL BLVD APT 340			ALLISON PARK	PA	15101-2682	US		Miss you and pray you enjoy your flowers. Love, Christine From Christine A Arnold	false		
112-9066989-8988259	11797971827786	2020-12-04T18:54:52+00:00	2020-12-04T10:54:52-08:00	2020-12-04T19:21:17+00:00	2020-12-09T07:59:59+00:00	-4	0pvkmx00jrf1xgt@marketplace.amazon.com	audrey cohn	+1 480-618-5344 ext. 30573	ABM022	Delivery by Tuesday | Purple Extravagance Bouquet by Arabella Bouquets	1	0	1	Expedited	Audrey Cohn	212 TREEHAVEN DR			EAST AURORA	NY	14052-1355	US			false		
113-8122143-0278605	27722192729578	2020-12-04T18:54:58+00:00	2020-12-04T10:54:58-08:00	2020-12-04T19:24:46+00:00	2020-12-09T07:59:59+00:00	-4	9y98p4d74mq45sc@marketplace.amazon.com	Mo Hishmeh	+1 213-442-1463 ext. 62243	ABR0022	Delivery by Tuesday | Arabella Farm Direct Bouquet of 12 Fresh Cut Pink Roses with a Free Glass Vase	1	0	1	Standard	Judy Kazumura	9934 WILSON AVE			SCHILLER PARK	IL	60176-1440	US		Wishing you Love, Peace and Joy in this crazy world. Miss you From Mo Hishmeh	true		Business Price
112-7244968-6033069	62382089582498	2020-12-04T19:18:36+00:00	2020-12-04T11:18:36-08:00	2020-12-04T19:45:05+00:00	2020-12-09T07:59:59+00:00	-4	qtgmjwg488c5y20@marketplace.amazon.com	Aundrea	+1 415-851-9136 ext. 42943	ABR0022	Delivery by Tuesday | Arabella Farm Direct Bouquet of 12 Fresh Cut Pink Roses with a Free Glass Vase	1	0	1	Expedited	Judy Rhatigan	2909 CONE MANOR LN			RALEIGH	NC	27613-6611	US		Judy- we hope this finds you having a safe and smooth recovery. With love, From Aundrea and Mike	false		
113-4459980-9971451	07716230012194	2020-12-04T19:23:39+00:00	2020-12-04T11:23:39-08:00	2020-12-04T19:52:15+00:00	2020-12-09T07:59:59+00:00	-4	cc17zb3k889ntxm@marketplace.amazon.com	Sherell Stone	+1 415-419-8616 ext. 76942	ABM010	Delivery by Tuesday | The Everlasting Fling Bouquet by Arabella Bouquets with a Free Designer Glass Vase	1	0	1	Expedited	Lori Highsmith	115 PERCHERON DR			YORK	PA	17406-7576	US		Happy birthday to you, my BF!!!! I hope your day and year are as amazing as you!! Love, Sherell From Sherell Stone	false		
113-5752586-7765042	41277995901050	2020-12-04T19:31:15+00:00	2020-12-04T11:31:15-08:00	2020-12-04T20:00:59+00:00	2020-12-08T07:59:59+00:00	-3	8dgchjq36ym7rtd@marketplace.amazon.com	Jack bied	+1 619-854-2705 ext. 09393	ABR0033	Delivery by Tuesday | Arabella Farm Direct Bouquet of 12 Fresh Cut Orange Roses with a Free Glass Vase	1	0	1	SecondDay	Jack biedebach	32162 CAMINO NUNEZ			TEMECULA	CA	92592-6357	US			false		
114-0413547-9459441	55308946027730	2020-12-04T20:01:04+00:00	2020-12-04T12:01:04-08:00	2020-12-04T20:02:05+00:00	2020-12-09T07:59:59+00:00	-4	7r2p0pfw2wwg7b1@marketplace.amazon.com	Elizabeth Samuel	+1 602-671-6610 ext. 43456	ABR0022	Delivery by Tuesday | Arabella Farm Direct Bouquet of 12 Fresh Cut Pink Roses with a Free Glass Vase	1	0	1	Expedited	Anne-Marie, Daryn, Caitlin, and Jaclyn Johnson, Ne	1203 LINDA DR SE			CLEVELAND	TN	37323-0666	US		Dear Anne-Marie, Jacklyn, Caitlyn, &Darren Johnson, I loved Madeline, Anne-Marie, Jacklyn, and Caitlyn, and the rest of the Johnson and Newsome family dearly.  May God comfort you extravagantly. From Elizabeth Samuel	false		
113-0111902-1168278	09445388355234	2020-12-04T19:32:27+00:00	2020-12-04T11:32:27-08:00	2020-12-04T20:02:08+00:00	2020-12-08T07:59:59+00:00	-3	c59kmxgs70yqsds@marketplace.amazon.com	Mark B. Garrett	+1 929-436-4790 ext. 81869	ABR0022	Delivery by Tuesday | Arabella Farm Direct Bouquet of 12 Fresh Cut Pink Roses with a Free Glass Vase	1	0	1	SecondDay	Naomi Curry	350 N CRESCENT DR PH 2			BEVERLY HILLS	CA	90210-6806	US		My condolences. From Mark	false		
113-8332339-1365060	67961816116314	2020-12-04T19:34:22+00:00	2020-12-04T11:34:22-08:00	2020-12-04T20:03:29+00:00	2020-12-08T07:59:59+00:00	-3	8dgchjq36ym7rtd@marketplace.amazon.com	Jack bied	+1 415-851-9136 ext. 75793	ABR0033	Delivery by Tuesday | Arabella Farm Direct Bouquet of 12 Fresh Cut Orange Roses with a Free Glass Vase	1	0	1	SecondDay	Lorna Perez	6309 MITCHELL AVE			RIVERSIDE	CA	92505-2292	US			false		
111-7686736-7021835	49745440020154	2020-12-04T19:42:43+00:00	2020-12-04T11:42:43-08:00	2020-12-04T20:10:49+00:00	2020-12-08T07:59:59+00:00	-3	fx2j2kczswdklxp@marketplace.amazon.com	Steven Santamaria	+1 346-307-9643 ext. 31156	ABR0022	Delivery by Tuesday | Arabella Farm Direct Bouquet of 12 Fresh Cut Pink Roses with a Free Glass Vase	1	0	1	SecondDay	Papa Joe Santamaria	19280 ASPENLEAF DR			PERRIS	CA	92570-6571	US		Happy birthday Grandma Honey!!!! We love you and hope you have a wonderful day! Xoxo, Steve, Lisa, and Chance From Steven Santamaria	false		
112-7256846-4114604	39710054687130	2020-12-04T19:45:34+00:00	2020-12-04T11:45:34-08:00	2020-12-04T20:11:48+00:00	2020-12-09T07:59:59+00:00	-4	tl38wlgvfg48fz1@marketplace.amazon.com	Lauren Raeder	+1 415-851-9136 ext. 05788	ABM010	Delivery by Tuesday | The Everlasting Fling Bouquet by Arabella Bouquets with a Free Designer Glass Vase	1	0	1	Expedited	Summer Jaussi	8043 AVANTI DR			EL DORADO HILLS	CA	95762-6707	US		Summer,  I love you. We love you. From Lauren, Raf, William, Raven, Autumn	false		
114-7853021-9545055	26189626687546	2020-12-04T19:43:21+00:00	2020-12-04T11:43:21-08:00	2020-12-04T20:13:45+00:00	2020-12-09T07:59:59+00:00	-4	522c6xxgbhyhmys@marketplace.amazon.com	Kenneth A. Kovacic	+1 619-854-2705 ext. 47848	ABR0022	Delivery by Tuesday | Arabella Farm Direct Bouquet of 12 Fresh Cut Pink Roses with a Free Glass Vase	1	0	1	Expedited	Peggy Kovacic	601 S ANDERSON ST			URBANA	IL	61801-4334	US			false		
112-1275922-9147417	28914785390002	2020-12-04T19:51:45+00:00	2020-12-04T11:51:45-08:00	2020-12-04T20:19:41+00:00	2020-12-09T07:59:59+00:00	-4	nrphfycqmg1s8fd@marketplace.amazon.com	Stephanie Terada	+1 415-851-9136 ext. 42215	ABM022	Delivery by Tuesday | Purple Extravagance Bouquet by Arabella Bouquets	1	0	1	Expedited	Jenny Scheer	4705 CAPITOL CT			BROOMFIELD	CO	80023-4086	US		Thinking of you and your family.  I'm so sorry for your loss.  I know how much she meant to you. From Steph Scelza	false		
111-6884554-5609850	57370385873690	2020-12-03T15:06:26+00:00	2020-12-03T07:06:26-08:00	2020-12-04T20:23:01+00:00	2020-12-09T07:59:59+00:00	-4	tz25hspx2mc9vkc@marketplace.amazon.com	Sheila Clemente	+1 619-854-2705 ext. 46461	ABM022	Delivery by Saturday| Purple Extravagance Bouquet by Arabella Bouquets	1	0	1	Expedited	Guadalupe Flores	9 WILLOWCREST LN			POMONA	CA	91766-6683	US		Enjoy your gift!    Hi Guadalupe,  I hope your surgery went well!!  Rest up and I hope you get well soon!! From Sheila Clemente	true		
114-1211415-8517867	19059676553554	2020-12-03T14:43:11+00:00	2020-12-03T06:43:11-08:00	2020-12-04T20:30:44+00:00	2020-12-09T07:59:59+00:00	-4	cm4vcb8hqdx1r74@marketplace.amazon.com	Weston Adams	+1 346-307-9643 ext. 95778	ABM022	Delivery by Saturday| Purple Extravagance Bouquet by Arabella Bouquets	1	0	1	Expedited	Cheri Rau	50 GLENLAKE PKWY STE 600			ATLANTA	GA	30328-3491	US		Sorry for your loss, Cher. You're in our thoughts and prayers. From Weston Adams - Rocket Pro TPO	true		
112-9186051-4962645	46145762969706	2020-12-04T20:12:35+00:00	2020-12-04T12:12:35-08:00	2020-12-04T20:40:14+00:00	2020-12-09T07:59:59+00:00	-4	n8b5m4yhb3vh43c@marketplace.amazon.com	Barbara Terrell	+1 619-854-2705 ext. 65068	ABM010	Delivery by Tuesday | The Everlasting Fling Bouquet by Arabella Bouquets with a Free Designer Glass Vase	1	0	1	Expedited	Nancy Crouch	OAKWOOD ASSISTD LIVING	2306 W LINGLEVILLE RD		STEPHENVILLE	TX	76401-6000	US		Merry Christmas Nancy,  Barbara and family From Barbara Terrell	false		
112-5256253-0956222	27929577558282	2020-12-04T20:25:56+00:00	2020-12-04T12:25:56-08:00	2020-12-04T20:52:40+00:00	2020-12-08T07:59:59+00:00	-3	99hkmw1fnvc44tt@marketplace.amazon.com	sarah Adams	+1 415-851-9136 ext. 31852	ABM010	Delivery by Tuesday | The Everlasting Fling Bouquet by Arabella Bouquets with a Free Designer Glass Vase	1	0	1	SecondDay	Lacey Klimeck	3837 RIDGEWAY AVE			MADISON	WI	53704-3644	US		Happy Birthday Beautiful Friend! From Love and Hugs, Sarah	false		
112-8464786-0804231	32380646040794	2020-12-04T20:35:54+00:00	2020-12-04T12:35:54-08:00	2020-12-04T21:02:54+00:00	2020-12-09T07:59:59+00:00	-4	ggx804dhsr0hq51@marketplace.amazon.com	tina gruenstern	+1 619-854-2705 ext. 40510	ABR0055	Delivery by Tuesday | Arabella Farm Direct Bouquet of 12 Stems of Fresh Cut Hot Pink Roses in a Free Designer Glass Vase	1	0	1	Standard	Jessica Bell	105 EARLS CT			LYNCHBURG	VA	24503-2150	US		Jessica, I am so excited to work with you! We are going to have a lot of fun together. Cheers,  Tina- From tina gruenstern	false		
113-5580092-3789854	68385894732306	2020-12-04T20:58:40+00:00	2020-12-04T12:58:40-08:00	2020-12-04T21:25:13+00:00	2020-12-09T07:59:59+00:00	-4	v14x5h1vqxzj0t0@marketplace.amazon.com	Antoinette Tobia	+1 415-851-9136 ext. 16232	ABR0022	Delivery by Tuesday | Arabella Farm Direct Bouquet of 12 Fresh Cut Pink Roses with a Free Glass Vase	1	0	1	Expedited	Donna Smith	1015 FLORENCE LN			MENLO PARK	CA	94025-4903	US		Dear Duckie, Much love to my dear friend on her birthday!    Miss you.    Xoxo From Anto	false		
112-5649237-7035449	03777359617530	2020-12-04T20:59:16+00:00	2020-12-04T12:59:16-08:00	2020-12-04T21:29:28+00:00	2020-12-09T07:59:59+00:00	-4	6x7ldwdndjxtwty@marketplace.amazon.com	Steve Fogle	+1 480-618-5344 ext. 80898	ABM010	Delivery by Tuesday | The Everlasting Fling Bouquet by Arabella Bouquets with a Free Designer Glass Vase	1	0	1	Expedited	Brenda Beeler	ROOM J-504 C/O KING S DAUGHTER HOSPITAL	2201 LEXINGTON AVE		ASHLAND	KY	41101-2843	US		Brenda-Wishing you a speedy recovery and sending prayers!  Love, Steve and Jill	false		
113-1727616-7135421	50354520390170	2020-12-04T22:04:24+00:00	2020-12-04T14:04:24-08:00	2020-12-04T22:34:49+00:00	2020-12-09T07:59:59+00:00	-4	fjk3n5zvf579wgb@marketplace.amazon.com	Margaret McDowell	+1 213-442-1463 ext. 41979	ABM022	Delivery by Tuesday | Purple Extravagance Bouquet by Arabella Bouquets	1	0	1	Expedited	Margaret E. McDowell	33725 STEADMAN RD			NEW BOSTON	MI	48164-9417	US		Enjoy your gift! We Love you Mom! From Margie & Buddy McDowell	false		
111-9267494-2470630	30808651719674	2020-12-04T22:17:59+00:00	2020-12-04T14:17:59-08:00	2020-12-04T22:43:10+00:00	2020-12-09T07:59:59+00:00	-4	rjpw1jpl8ypcrd8@marketplace.amazon.com	LaVonne B March	+1 346-307-9643 ext. 01024	ABR001	Delivery by Tuesday | Arabella Bouquets 12 Stems of Fresh Cut Red Roses in a Free Designer Glass Vase	1	0	1	Expedited	Linda Gurr	8901 HENSON RD			NORTH CHESTERFIELD	VA	23236-2112	US		Happy Birthday, Linda! Hope your day is as beautiful as you! From John Brooks	false		
114-4397584-0938652	53017715000562	2020-12-04T22:15:27+00:00	2020-12-04T14:15:27-08:00	2020-12-04T22:44:44+00:00	2020-12-09T07:59:59+00:00	-4	cskbplv3m7fcl1j@marketplace.amazon.com	Gretchen Jorbin	+1 415-851-9136 ext. 48575	ABM022	Delivery by Tuesday | Purple Extravagance Bouquet by Arabella Bouquets	1	0	1	Expedited	Jessica Cranford	8035 BROOXIE CV			GERMANTOWN	TN	38138-8102	US		Just a little way for us to send you some sunshine.   We love you! From Spring 2018 Momma Tribe	false		
114-9065918-2802627	36325102757450	2020-12-04T22:17:50+00:00	2020-12-04T14:17:50-08:00	2020-12-04T22:48:19+00:00	2020-12-09T07:59:59+00:00	-4	gfxr8jhn7gg5cgs@marketplace.amazon.com	Jaime	+1 480-618-5344 ext. 30345	ABM022	Delivery by Tuesday | Purple Extravagance Bouquet by Arabella Bouquets	1	0	1	Expedited	Jaime lucero	28 Maywood Ct			CALDWELL	NJ	07006	US			false		
111-6511055-7409028	68393077787234	2020-12-04T22:19:55+00:00	2020-12-04T14:19:55-08:00	2020-12-04T22:50:35+00:00	2020-12-09T07:59:59+00:00	-4	rmhx7lmmn08h9cy@marketplace.amazon.com	Kay Rockwell	+1 602-671-6610 ext. 16799	ABR001	Delivery by Tuesday | Arabella Bouquets 12 Stems of Fresh Cut Red Roses in a Free Designer Glass Vase	1	0	1	Expedited	Kay Rockwell	252 Berthoud Way			Golden	COLORADO	80401	US			false		
114-1423025-3491402	16515941850962	2020-12-04T23:28:13+00:00	2020-12-04T15:28:13-08:00	2020-12-04T23:58:41+00:00	2020-12-09T07:59:59+00:00	-4	wdwcpb4n2lfvzfh@marketplace.amazon.com	Linda Wu	91210788	ABR0055	Delivery by Tuesday | Arabella Farm Direct Bouquet of 12 Stems of Fresh Cut Hot Pink Roses in a Free Designer Glass Vase	1	0	1	Expedited	Linda Wu	81 EAGAN AVE			STATEN ISLAND	NY	10312-4103	US			false		
112-2716370-8759466	68283470339546	2020-12-04T23:40:56+00:00	2020-12-04T15:40:56-08:00	2020-12-05T00:11:26+00:00	2020-12-09T07:59:59+00:00	-4	zrvpfrz7sdgx5ls@marketplace.amazon.com	Brandon	+1 415-419-8616 ext. 11268	ABR0022	Delivery by Tuesday | Arabella Farm Direct Bouquet of 12 Fresh Cut Pink Roses with a Free Glass Vase	1	0	1	Expedited	Sheila Peterson	616 TARRYTOWN CT			WALNUT CREEK	CA	94598-4022	US			false		
111-6400012-9599455	18239887540386	2020-12-05T00:23:35+00:00	2020-12-04T16:23:35-08:00	2020-12-05T00:50:29+00:00	2020-12-08T07:59:59+00:00	-3	qfnf18gz3s9wppd@marketplace.amazon.com	Miguel	+1 763-225-9463 ext. 87086	ABM022	Delivery by Tuesday | Purple Extravagance Bouquet by Arabella Bouquets	1	0	1	SecondDay	Maddie Adkins	85067 CHRISTIAN WAY APT 1013			YULEE	FL	32097-3434	US		I love you with all my heart i cant explain how happy i am that you are in my life. I hope this makes even even the slightest bit as happy as you make me baby. I cant wait to spend our birthdays together<3 From Miguel	false		
113-4632285-7965846	37975687262946	2020-12-05T01:44:49+00:00	2020-12-04T17:44:49-08:00	2020-12-05T02:14:47+00:00	2020-12-09T07:59:59+00:00	-4	7c5302km2sqt024@marketplace.amazon.com	Luis A Tapiadominguez	+1 213-442-1463 ext. 40093	ABR001	Delivery by Tuesday | Arabella Bouquets 12 Stems of Fresh Cut Red Roses in a Free Designer Glass Vase	1	0	1	Expedited	LUIS ANGEL TAPIADOMINGUEZ	9402 KLINEDALE AVE			DOWNEY	CA	90240-2521	US			false		
114-5847241-3017853	46039702821642	2020-12-05T02:16:12+00:00	2020-12-04T18:16:12-08:00	2020-12-05T02:46:52+00:00	2020-12-08T07:59:59+00:00	-3	g1x35mr8h1mcrp4@marketplace.amazon.com	randy rickert	+1 480-618-5344 ext. 53461	ABR0055	Delivery by Tuesday | Arabella Farm Direct Bouquet of 12 Stems of Fresh Cut Hot Pink Roses in a Free Designer Glass Vase	1	0	1	SecondDay	Pam Dacunha	MAP OF 2 CHRISTY HTS RD			OLD SAYBROOK	CT	06475-1217	US			false		
113-3987474-2649825	14986698284146	2020-12-05T02:34:53+00:00	2020-12-04T18:34:53-08:00	2020-12-05T03:00:28+00:00	2020-12-09T07:59:59+00:00	-4	qdvcphj4md1hkjc@marketplace.amazon.com	Mike Fiedor	+1 480-618-5344 ext. 05679	ABM022	Delivery by Tuesday | Purple Extravagance Bouquet by Arabella Bouquets	1	0	1	Expedited	Michele Martinez	1785 SATTLER DR			CONCORD	CA	94519-1422	US		Get Well Soon❤️ From Lots of Love, Mike and Suzie	false		
111-0621116-5226608	03853808658658	2020-12-05T02:37:21+00:00	2020-12-04T18:37:21-08:00	2020-12-05T03:04:32+00:00	2020-12-08T07:59:59+00:00	-3	nf7wdkhm52nzltb@marketplace.amazon.com	samantha pauling	+1 213-442-1463 ext. 05183	ABR0022	Delivery by Tuesday | Arabella Farm Direct Bouquet of 12 Fresh Cut Pink Roses with a Free Glass Vase	1	0	1	SecondDay	Katie Winkler	28259 CAMINO DEL RIO			SAN JUAN CAPISTRANO	CA	92675-6338	US		Happy Birthday Katie! We are thinking of you today. Hope you have a fabulous birthday. I love you. <3 From Sam and Todd	false		
112-4238806-2990612	40276880855026	2020-12-05T02:49:45+00:00	2020-12-04T18:49:45-08:00	2020-12-05T03:12:25+00:00	2020-12-09T07:59:59+00:00	-4	6wl4z985st395jz@marketplace.amazon.com	Colette WArning	+1 602-671-6610 ext. 63411	ABM010	Delivery by Tuesday | The Everlasting Fling Bouquet by Arabella Bouquets with a Free Designer Glass Vase	1	0	1	Expedited	Erin Fitzgerald	123 N DESPLAINES ST APT 1008			CHICAGO	IL	60661-2305	US		Congratulations on your new job! We know you will be great! From Colette And Tom❤️	false		
112-3820525-9443432	40868232170162	2020-12-05T02:52:06+00:00	2020-12-04T18:52:06-08:00	2020-12-05T03:17:34+00:00	2020-12-09T07:59:59+00:00	-4	rfcykmjj2n5znpx@marketplace.amazon.com	lawrence s. kalban	+1 619-854-2705 ext. 65021	ABR0022	Delivery by Tuesday | Arabella Farm Direct Bouquet of 12 Fresh Cut Pink Roses with a Free Glass Vase	1	0	1	Expedited	Krista Caldwell	8167 S EMERSON WAY			LITTLETON	CO	80122-4306	US		Missing you From Your not so secret admirer	false		
114-1188382-0492235	20361904154498	2020-12-05T02:54:01+00:00	2020-12-04T18:54:01-08:00	2020-12-05T03:20:24+00:00	2020-12-08T07:59:59+00:00	-3	1jpvzqqcy94195x@marketplace.amazon.com	Narissa	+1 480-618-5344 ext. 23088	ABM020	Delivery by Tuesday | The Sunset Bouquet by Arabella Bouquets	1	0	1	SecondDay	Joy Walfall	39 VOORHEES ST			TEANECK	NJ	07666-6215	US		Love you Mom. Happy birthday. From Gaius & Narissa	false		
112-7165368-3218652	09854119240362	2020-12-05T02:56:45+00:00	2020-12-04T18:56:45-08:00	2020-12-05T03:27:13+00:00	2020-12-09T07:59:59+00:00	-4	nqcfk3hdkbqr37b@marketplace.amazon.com	Rajiv Boodhoo	+1 619-854-2705 ext. 36877	ABM020	Delivery by Tuesday | The Sunset Bouquet by Arabella Bouquets	1	0	1	Expedited	Carolina Reyes	320 49TH ST APT 4L			BROOKLYN	NY	11220-1838	US			false		
113-1595873-6694610	54625498778658	2020-12-05T04:08:29+00:00	2020-12-04T20:08:29-08:00	2020-12-05T04:33:24+00:00	2020-12-09T07:59:59+00:00	-4	bdck1ys0cmv26v2@marketplace.amazon.com	Debra Wright Carlsen	+1 346-307-9643 ext. 68146	ABR0033	Delivery by Tuesday | Arabella Farm Direct Bouquet of 12 Fresh Cut Orange Roses with a Free Glass Vase	1	0	1	Expedited	Sandy Corrales	6343 CANDLEWOOD DR			WESLEY CHAPEL	FL	33544-5836	US		Merry Christmas Honey We Love You Debbie and Nala From Debra Wright Carlsen	false		
114-5937939-3427447	59971936658922	2020-12-05T04:51:46+00:00	2020-12-04T20:51:46-08:00	2020-12-05T05:21:31+00:00	2020-12-09T07:59:59+00:00	-4	gcbw66td9xjlv6j@marketplace.amazon.com	Krista	+1 619-854-2705 ext. 30932	ABM022	Delivery by Tuesday | Purple Extravagance Bouquet by Arabella Bouquets	1	0	1	Expedited	Aunt  Connie Savage	665 PARKSIDE DR			AVON LAKE	OH	44012-4007	US			false		
111-7462597-5412235	60276613027098	2020-12-05T05:17:07+00:00	2020-12-04T21:17:07-08:00	2020-12-05T05:27:53+00:00	2020-12-09T07:59:59+00:00	-4	l70ddqjy80xd1c9@marketplace.amazon.com	Diane Pittman	+1 415-419-8616 ext. 43266	ABM022	Delivery by Tuesday | Purple Extravagance Bouquet by Arabella Bouquets	1	0	1	Expedited	Mary  Fish c/o Martha's manor	408 N 5TH ST			STEUBENVILLE	OH	43952-2018	US		Hello Mother,   I miss you and our conversations ! Think of you always ! Just a little reminder that I LOVE you ! Merry Christmas , Your son, Ringo Fish	false		
114-7095326-8970610	54288627157298	2020-12-05T05:08:55+00:00	2020-12-04T21:08:55-08:00	2020-12-05T05:34:44+00:00	2020-12-09T07:59:59+00:00	-4	xczrq8cbxhgrmwg@marketplace.amazon.com	Mike McClure	+1 346-307-9643 ext. 83394	ABR001	Delivery by Tuesday | Arabella Bouquets 12 Stems of Fresh Cut Red Roses in a Free Designer Glass Vase	1	0	1	Expedited	Marti Daubenmire	445 LEISURE LN			MEDINA	OH	44256-1677	US		Marti, Merry Christmas!  I thought this would be nice and the earlier the better so you can enjoy them now. From Mike McClure	false		
112-6982709-6482666	49302806327994	2020-12-05T05:26:42+00:00	2020-12-04T21:26:42-08:00	2020-12-05T05:49:30+00:00	2020-12-08T07:59:59+00:00	-3	2jt18kgsbh4pb1z@marketplace.amazon.com	judith friedlander	+1 213-442-1463 ext. 80241	ABM022	Delivery by Tuesday | Purple Extravagance Bouquet by Arabella Bouquets	1	0	1	SecondDay	Dr. Melanie Friedllander	1236 SYLVANER AVE			SAINT HELENA	CA	94574-2336	US		Melanie -  Relax and enjoy!  Love,  Mom From judith friedlander	false		
114-3132297-9207419	00142038061874	2020-12-05T07:33:18+00:00	2020-12-04T23:33:18-08:00	2020-12-05T07:52:00+00:00	2020-12-09T07:59:59+00:00	-4	rykxfmcqrk4k3p3@marketplace.amazon.com	spencer m. sherrod	+1 346-307-9643 ext. 29730	ABM020	Delivery by Tuesday | The Sunset Bouquet by Arabella Bouquets	1	0	1	Expedited	Artri B.  Spratling	9704 DUNN CT			CLINTON	MD	20735-2981	US		Get Well and Kick back at the same. Love, Pops From spencer m. sherrod	false		
112-1944249-6350627	39737017911490	2020-12-05T07:44:10+00:00	2020-12-04T23:44:10-08:00	2020-12-05T08:10:11+00:00	2020-12-09T07:59:59+00:00	-4	m3vypvcgs8fnzht@marketplace.amazon.com	Clayton	+1 763-225-9463 ext. 60481	ABR001	Delivery by Tuesday | Arabella Bouquets 12 Stems of Fresh Cut Red Roses in a Free Designer Glass Vase	1	0	1	Expedited	Alexa Hidy	250 W 50TH ST APT 19F			NEW YORK	NY	10019-6722	US		Happy Anniversary! 2 years flew by and you have become very important to me. We will get to exchange more gifts in person :).  I love you. From Clayton	false		
111-2308884-0408245	30190715798042	2020-12-05T07:56:52+00:00	2020-12-04T23:56:52-08:00	2020-12-05T08:10:20+00:00	2020-12-09T07:59:59+00:00	-4	7qdz44z4z0s0g88@marketplace.amazon.com	Lora Rhoads	+1 929-436-4790 ext. 50331	ABM022	Delivery by Tuesday | Purple Extravagance Bouquet by Arabella Bouquets	1	0	1	Expedited	Mrs Hattie Sutton	5104 N CARLISLE ST			PHILADELPHIA	PA	19141-1630	US			false		
113-8759305-3649061	39797352536874	2020-12-05T07:48:09+00:00	2020-12-04T23:48:09-08:00	2020-12-05T08:16:18+00:00	2020-12-08T07:59:59+00:00	-3	x5cc0dcxgjpzxhr@marketplace.amazon.com	Steven	+1 346-307-9643 ext. 98185	ABR0033	Delivery by Tuesday | Arabella Farm Direct Bouquet of 12 Fresh Cut Orange Roses with a Free Glass Vase	1	0	1	SecondDay	Melissa Sosa	1801 RIMROCK RD APT P20			BARSTOW	CA	92311-5794	US			false		
114-1670250-8213825	14729022719746	2020-12-05T09:38:25+00:00	2020-12-05T01:38:25-08:00	2020-12-05T10:07:34+00:00	2020-12-09T07:59:59+00:00	-4	4hqp0whg800tlm8@marketplace.amazon.com	M. Hill	+1 415-419-8616 ext. 88975	ABR001	Delivery by Tuesday | Arabella Bouquets 12 Stems of Fresh Cut Red Roses in a Free Designer Glass Vase	1	0	1	Expedited	Marian C. Hill	1541 PIERMAJ LN			LUTZ	FL	33549-5731	US			false		
112-3291208-8182650	13484792849698	2020-12-05T10:03:15+00:00	2020-12-05T02:03:15-08:00	2020-12-05T10:30:53+00:00	2020-12-09T07:59:59+00:00	-4	nzbjsy5gm06c1f0@marketplace.amazon.com	Carol Winwood	+1 415-851-9136 ext. 06945	ABM031	Delivery by Wednesday | The Harvest Moon Bouquet by Arabella Bouquets	1	0	1	Expedited	Susan Zak	813 GEORGE ST			THROOP	PA	18512-1015	US			false		
113-7016001-0248229	35222743685578	2020-12-05T10:29:14+00:00	2020-12-05T02:29:14-08:00	2020-12-05T10:59:19+00:00	2020-12-08T07:59:59+00:00	-3	05bymccw8bkh7zz@marketplace.amazon.com	charles field	+1 346-307-9643 ext. 82219	ABR0022	Delivery by Tuesday | Arabella Farm Direct Bouquet of 12 Fresh Cut Pink Roses with a Free Glass Vase	1	0	1	SecondDay	charles field	2451 OLYMPIC DR			OAK HARBOR	WA	98277-8018	US			false		
112-2567283-9748218	09489655690970	2020-12-05T11:52:42+00:00	2020-12-05T03:52:42-08:00	2020-12-05T12:13:52+00:00	2020-12-09T07:59:59+00:00	-4	yltk74hm7d77k46@marketplace.amazon.com	Colin Davis	+1 480-618-5344 ext. 22439	ABC002	Delivery by Wednesday | The Warm Wishes Bouquet by Arabella Bouquets	1	0	1	Standard	Shirley Libby Davis	4 HIGH ST			HARRISON	ME	04040-3542	US		Dear Grandma! Wishing you and Katie a joyful and happy Christmas.  Love, Colin and Stephanie From Colin Davis	false		
114-5332447-7101001	66795286559074	2020-12-05T12:03:52+00:00	2020-12-05T04:03:52-08:00	2020-12-05T12:31:48+00:00	2020-12-09T07:59:59+00:00	-4	ry7mb7pwwt22cw6@marketplace.amazon.com	Larrie Ellen Randall	+1 213-442-1463 ext. 02542	ABM022	Delivery by Tuesday | Purple Extravagance Bouquet by Arabella Bouquets	1	0	1	Expedited	Paul Feldman	1934 N DANIEL ST			ARLINGTON	VA	22201-4110	US		We hope this will add some cheer to your life during this very difficult time! From Larrie Ellen Randall and Catherine Falk	false		
111-5414989-5845861	41765790816994	2020-12-05T12:38:16+00:00	2020-12-05T04:38:16-08:00	2020-12-05T13:03:51+00:00	2020-12-09T07:59:59+00:00	-4	49shnrzqfgss4t8@marketplace.amazon.com	Shannon Wilson	+1 619-854-2705 ext. 44002	ABR0022	Delivery by Tuesday | Arabella Farm Direct Bouquet of 12 Fresh Cut Pink Roses with a Free Glass Vase	1	0	1	Expedited	Karen Ames	35 LITTLE BROOK RD			PEMBROKE	MA	02359-3603	US		Karen Big hugs- you brave, gorgeous girl! With love From Shannon Wilson	false		
113-7104892-9114609	14402564711922	2020-12-05T12:39:44+00:00	2020-12-05T04:39:44-08:00	2020-12-05T13:04:11+00:00	2020-12-09T07:59:59+00:00	-4	lt7bnzsd2b05j6c@marketplace.amazon.com	elena	+1 415-419-8616 ext. 57189	ABR001	Delivery by Tuesday | Arabella Bouquets 12 Stems of Fresh Cut Red Roses in a Free Designer Glass Vase	1	0	1	Expedited	Leonid Leniashin	732 BARLETA CT			LIVERMORE	CA	94550-7073	US		Happy birthday!  We wish you happiness in your new home, health, and longevity.   From VI and EH From elena	false		
114-2433607-5795433	19135189785130	2020-12-05T13:13:18+00:00	2020-12-05T05:13:18-08:00	2020-12-05T13:35:55+00:00	2020-12-09T07:59:59+00:00	-4	36ylpr57p86my4q@marketplace.amazon.com	G	+1 602-671-6610 ext. 73178	ABM023	Delivery by Wednesday | The Morning Sun Bouquet by Arabella Bouquets	1	0	1	Expedited	Lisa Ryan Bacht and Family	13476 WATERPORT CARLTON RD			WATERPORT	NY	14571-9761	US			false		
112-4764419-6206656	47013062261530	2020-12-05T13:52:32+00:00	2020-12-05T05:52:32-08:00	2020-12-05T14:21:54+00:00	2020-12-09T07:59:59+00:00	-4	dx4z1sts7p7s8cz@marketplace.amazon.com	Erin Harp	+1 415-419-8616 ext. 10816	ABR0055	Delivery by Tuesday | Arabella Farm Direct Bouquet of 12 Stems of Fresh Cut Hot Pink Roses in a Free Designer Glass Vase	1	0	1	Expedited	Bailey Tatakis	1188 SW DEREK LN			GRANTS PASS	OR	97527-4260	US		Happy Birthday BoBo! Love and miss you sunshine! From TT	false		
112-5654742-8514626	30149771508066	2020-12-05T13:52:53+00:00	2020-12-05T05:52:53-08:00	2020-12-05T14:22:27+00:00	2020-12-08T07:59:59+00:00	-3	pvwdq6l1gm2fdyd@marketplace.amazon.com	Daniel Manitsky	+1 480-618-5344 ext. 89628	ABM022	Delivery by Tuesday | Purple Extravagance Bouquet by Arabella Bouquets	1	0	1	SecondDay	Daniel Keith Manitsky	205 Colinwood Cv			Paris	TN	38242	US		Merry Christmas! Love you From Daniel Manitsky	false		
111-5290527-6805023	50850391090794	2020-12-05T14:20:44+00:00	2020-12-05T06:20:44-08:00	2020-12-05T14:44:35+00:00	2020-12-09T07:59:59+00:00	-4	dlmx57g5n021d0f@marketplace.amazon.com	Michael D. Epperson	+1 213-442-1463 ext. 12899	ABR0022	Delivery by Tuesday | Arabella Farm Direct Bouquet of 12 Fresh Cut Pink Roses with a Free Glass Vase	1	0	1	Expedited	Betty Willis	707 WOODBINE RD SE			HUNTSVILLE	AL	35802-3635	US		Thinking of you! Feel better soon. From Love, Linda and Mike	false		
111-1824522-4078617	57953260583306	2020-12-05T14:26:05+00:00	2020-12-05T06:26:05-08:00	2020-12-05T14:45:09+00:00	2020-12-09T07:59:59+00:00	-4	7x5j80bmsdlzhsf@marketplace.amazon.com	Kimberly Carter	+1 346-307-9643 ext. 86418	ABM022	Delivery by Tuesday | Purple Extravagance Bouquet by Arabella Bouquets	1	0	1	Expedited	Jennifer White-Wilcox	113 JOHN DUGGAN RD			TIVERTON	RI	02878-1554	US		Our thoughts and love are with you now and always. So sorry for your loss. From Rachel, Kim, Madison, Abby, & Jonathan From Rachel, Kim, Madison, Abby, & Jonathan	false		
113-4654170-3805849	47430662529818	2020-12-05T14:27:03+00:00	2020-12-05T06:27:03-08:00	2020-12-05T14:55:03+00:00	2020-12-08T07:59:59+00:00	-3	bqb5dhrtsbdlx3b@marketplace.amazon.com	Georgia Horton	+1 763-225-9463 ext. 86288	ABR0022	Delivery by Tuesday | Arabella Farm Direct Bouquet of 12 Fresh Cut Pink Roses with a Free Glass Vase	1	0	1	SecondDay	Julie Mokdessi	1500 SHERIDAN RD UNIT 3E			WILMETTE	IL	60091-1845	US		Hi Julie -  We hope you have a healthy and speedy recovery. Sending you love from Boston and New Orleans. Get well soon! From Georgia Horton & Jenna Canavan	false		
112-2702216-7922620	68589481407834	2020-12-05T14:51:14+00:00	2020-12-05T06:51:14-08:00	2020-12-05T15:18:10+00:00	2020-12-09T07:59:59+00:00	-4	jqf26vwhf2v2pq8@marketplace.amazon.com	mary lehane	+1 415-851-9136 ext. 92371	ABR0022	Delivery by Tuesday | Arabella Farm Direct Bouquet of 12 Fresh Cut Pink Roses with a Free Glass Vase	1	0	1	Expedited	Erin Lehane	809 46TH ST			SACRAMENTO	CA	95819-3428	US		So sorry you are not well - thinking of you and sending love and hugs. Love, Mom From mary lehane	false		
111-3905087-4729846	57588703857274	2020-12-05T15:13:04+00:00	2020-12-05T07:13:04-08:00	2020-12-05T15:28:10+00:00	2020-12-08T07:59:59+00:00	-3	585yb3nbjjjt8rq@marketplace.amazon.com	Ruben	+1 763-225-9463 ext. 11886	ABR004	Delivery by Wednesday | Arabella Farm Direct Bouquet of 12 Fresh Cut Yellow Roses with a Free Glass Vase	1	0	1	SecondDay	Stephanie Fragoso	12 PORACH ST YONKERS NY 10701			YONKERS	NY	10701-6006	US		I hope you like these flowers :) I love you ! From Ruben	false		
114-3740636-3157060	37837849547282	2020-12-05T15:09:32+00:00	2020-12-05T07:09:32-08:00	2020-12-05T15:29:06+00:00	2020-12-09T07:59:59+00:00	-4	tfjwxm0sm3s47tp@marketplace.amazon.com	Kathy Castleman	+1 213-442-1463 ext. 54895	ABR0022	Delivery by Tuesday | Arabella Farm Direct Bouquet of 12 Fresh Cut Pink Roses with a Free Glass Vase	1	0	1	Expedited	Mom c/o MRS SUE ZITNICK	2020 BREMER RD			DOVER	PA	17315-2087	US		HAPPY BIRTHDAY MOM, MAY GOD BLESS YOU TODAY AND EVERYDAY AND SHOWER YOU WITH HIS BLESSINGS, Love ,John, Kathy, and Oscar Maye From John and Kathy	false		
114-1910165-7691402	29748461600898	2020-12-05T15:09:07+00:00	2020-12-05T07:09:07-08:00	2020-12-05T15:38:53+00:00	2020-12-09T07:59:59+00:00	-4	qq0djv46fx8p2rc@marketplace.amazon.com	Leanne P Morse	+1 619-854-2705 ext. 17818	ABR0033	Delivery by Tuesday | Arabella Farm Direct Bouquet of 12 Fresh Cut Orange Roses with a Free Glass Vase	1	0	1	Expedited	Annie Dampier	25 CHESTERBROOK CT			IRMO	SC	29063-7791	US		Happy happy birthday Annie! We can’t wait to see you! From Love, Leanne & Dan	false		
112-1464897-9038646	48895849531642	2020-12-05T15:18:10+00:00	2020-12-05T07:18:10-08:00	2020-12-05T15:48:27+00:00	2020-12-09T07:59:59+00:00	-4	2g7nqqh79x329ls@marketplace.amazon.com	Craig Carter	+1 763-225-9463 ext. 74391	ABR001	Delivery by Tuesday | Arabella Bouquets 12 Stems of Fresh Cut Red Roses in a Free Designer Glass Vase	1	0	1	Expedited	Wanda Vivieca ~ Business Development Coordinator	CONSULATE HEALTH CARE OF KISSIMMEE	2511 N JOHN YOUNG PKWY		KISSIMMEE	FL	34741-1653	US			false		
111-6811407-9106620	20570071033986	2020-12-05T15:34:03+00:00	2020-12-05T07:34:03-08:00	2020-12-05T16:03:47+00:00	2020-12-09T07:59:59+00:00	-4	y4pf1ydrc0tk4h7@marketplace.amazon.com	Jacob Ness	+1 415-851-9136 ext. 24334	ABM022	Delivery by Tuesday | Purple Extravagance Bouquet by Arabella Bouquets	1	0	1	Standard	Debi Dowd	875 BROKAW RD			CAMANO ISLAND	WA	98282-7304	US		Happy birthday From Jake & Melissa	false		
111-2671231-0735411	14476310228506	2020-12-05T15:45:30+00:00	2020-12-05T07:45:30-08:00	2020-12-05T16:09:29+00:00	2020-12-09T07:59:59+00:00	-4	zms8zpkzc53sxdt@marketplace.amazon.com	Terry Messer	+1 415-851-9136 ext. 39647	ABM022	Delivery by Tuesday | Purple Extravagance Bouquet by Arabella Bouquets	1	0	1	Expedited	Karen and Dan Krupovage	966 CANEADEA LOOP			ALAMOGORDO	NM	88310-8507	US		So very sorry  Wreatha Senier From Wreatha Senier	false		
111-8914737-7982656	07977180216410	2020-12-05T15:44:18+00:00	2020-12-05T07:44:18-08:00	2020-12-05T16:12:59+00:00	2020-12-09T07:59:59+00:00	-4	ymxw9jlk7rphx72@marketplace.amazon.com	John A Davis	+1 213-442-1463 ext. 06129	ABR0033	Delivery by Tuesday | Arabella Farm Direct Bouquet of 12 Fresh Cut Orange Roses with a Free Glass Vase	1	0	1	Expedited	John A Davis	886 WEBSTER AVE			NEW ROCHELLE	NY	10804-3525	US		Enjoy your gift! From John A Davis	false		
114-7528797-6979435	59422496047322	2020-12-05T15:45:38+00:00	2020-12-05T07:45:38-08:00	2020-12-05T16:13:08+00:00	2020-12-09T07:59:59+00:00	-4	tj215nzyh6zw1v9@marketplace.amazon.com	Wendy J Balcom	+1 619-854-2705 ext. 29361	ABM022	Delivery by Tuesday | Purple Extravagance Bouquet by Arabella Bouquets	1	0	1	Expedited	Patricia Balcom	53 PARK LN			WELLSVILLE	NY	14895-1027	US		Happy Birthday Grandma! From Jordan, Ryan and Madison	false		
111-2774735-7136257	56257980802322	2020-12-05T16:00:59+00:00	2020-12-05T08:00:59-08:00	2020-12-05T16:26:51+00:00	2020-12-08T07:59:59+00:00	-3	c24mtplw8rbvdns@marketplace.amazon.com	Kimberly Harvell	+1 619-854-2705 ext. 71932	ABR0022	Delivery by Tuesday | Arabella Farm Direct Bouquet of 12 Fresh Cut Pink Roses with a Free Glass Vase	1	0	1	SecondDay	Sarah Hill Lowe	1055 CHEVRON CT			PASADENA	CA	91103-1010	US		Happy Birthday Sarah!🌺 (Miss Scarlett)😀 Wishing you much love on your special day! 60 years young! So looking forward to new adventures with you! Love you! ❤ Kim (Miss Mellie) From Kimberly Harvell	false		
113-1260075-0953060	01131994555834	2020-12-05T16:10:38+00:00	2020-12-05T08:10:38-08:00	2020-12-05T16:30:12+00:00	2020-12-08T07:59:59+00:00	-3	7mdrjfty140qqdr@marketplace.amazon.com	Namuuk	+1 415-419-8616 ext. 68773	ABM010	Delivery by Tuesday | The Everlasting Fling Bouquet by Arabella Bouquets with a Free Designer Glass Vase	1	0	1	SecondDay	Altantuya Dillon	3531 WINDING WAY RD SW			ROANOKE	VA	24015-4527	US		Хайрт ээждээ бас эмээдээ төрсөн өдрийн мэнд хүргэе. Та минь миний мэдэх хамгийн зоригтой, цоглог, амьдралыг илүү адал явдалтай, дурсамжтай болгодог эмэгтэй шүү. Охин нь таниас сурах юм зөндөө байна. Хайртай шүү, үнсий. From Bid 3aas ni	false		
112-8558010-7636203	22638960741802	2020-12-05T16:13:36+00:00	2020-12-05T08:13:36-08:00	2020-12-05T16:37:14+00:00	2020-12-08T07:59:59+00:00	-3	rbmgvdrqfl8n2k4@marketplace.amazon.com	Madelyn Dagostino	+1 415-419-8616 ext. 48711	ABR001	Delivery by Tuesday | Arabella Bouquets 12 Stems of Fresh Cut Red Roses in a Free Designer Glass Vase	1	0	1	SecondDay	Linda Manino & family	33 CLIFTWOOD DR			HUNTINGTON	NY	11743-2102	US		With our deepest condolences, Madelyn & Tony From Madelyn Dagostino	false		
111-7572376-0258647	58522162591714	2020-12-04T16:50:52+00:00	2020-12-04T08:50:52-08:00	2020-12-05T16:37:54+00:00	2020-12-09T07:59:59+00:00	-4	2qw4blb8d5nf4p7@marketplace.amazon.com	co font	+1 602-671-6610 ext. 41642	ABM022	Delivery by Saturday| Purple Extravagance Bouquet by Arabella Bouquets	1	0	1	Expedited	Leslie Fontenot	222 ANGELINA CT			AZLE	TX	76020-1691	US			false		
113-2012568-4349009	34018629912378	2020-12-05T16:15:37+00:00	2020-12-05T08:15:37-08:00	2020-12-05T16:40:17+00:00	2020-12-08T07:59:59+00:00	-3	swzhqyl1kc19ypm@marketplace.amazon.com	Tim Schorn	+1 213-442-1463 ext. 28727	ABR0066	Delivery by Wednesday | Arabella Bouquets 12 Stems of Fresh Cut White Roses in a Free Designer Glass Vase	1	0	1	SecondDay	Barbara Mc Knight	618 RAVEN LN			COPPELL	TX	75019-3447	US		All our love, Tim & Sharon From Tim Schorn	false		
114-8227069-6945044	61977323707994	2020-12-05T16:18:53+00:00	2020-12-05T08:18:53-08:00	2020-12-05T16:49:06+00:00	2020-12-09T07:59:59+00:00	-4	f1m8797qy8110cv@marketplace.amazon.com	Daniel Lenk	+1 480-618-5344 ext. 35631	ABM024	Delivery by Wednesday | The Beauty of Color Bouquet by Arabella Bouquets	1	0	1	Expedited	Daniel Lenk	4700 N MONTICELLO AVE APT 303			CHICAGO	IL	60625-6430	US			false		
111-1477297-9281836	35925186663858	2020-12-05T16:23:07+00:00	2020-12-05T08:23:07-08:00	2020-12-05T16:51:47+00:00	2020-12-09T07:59:59+00:00	-4	n18r3q6fbt2qyyr@marketplace.amazon.com	Sonia cummings	+1 480-618-5344 ext. 51901	ABM026	Delivery by Wednesday | The Amour Bouquet by Arabella Bouquets	1	0	1	Expedited	Jai Tedeschi	6711 S SHERBOURNE DR			LOS ANGELES	CA	90056-2125	US			false		
111-3192155-1518616	56529125993034	2020-12-05T16:31:31+00:00	2020-12-05T08:31:31-08:00	2020-12-05T16:56:44+00:00	2020-12-08T07:59:59+00:00	-3	v210n45tmxh0dm3@marketplace.amazon.com	mrs elizabeth j gannon	+1 602-671-6610 ext. 67066	ABR0033	Delivery by Tuesday | Arabella Farm Direct Bouquet of 12 Fresh Cut Orange Roses with a Free Glass Vase	1	0	1	SecondDay	Iris Burnett	6824 STERLING GREENS PL APT 405			NAPLES	FL	34104-5777	US		Happy 80th Birthday  Hope you have a lovely day  All our love  Lawrence, Liz, Luke & Erin  xxxx From mrs elizabeth j gannon	false		
111-4245175-1979445	13294134414778	2020-12-05T16:27:08+00:00	2020-12-05T08:27:08-08:00	2020-12-05T16:57:05+00:00	2020-12-09T07:59:59+00:00	-4	mpv61d2kdgwqysx@marketplace.amazon.com	Britt Jesperson	+1 602-671-6610 ext. 85512	ABM022	Delivery by Tuesday | Purple Extravagance Bouquet by Arabella Bouquets	1	0	1	Expedited	Tom Viehe	2362 BELLEVUE TER			HOOVER	AL	35226-6248	US			false		
112-9109024-2721066	39505326861330	2020-12-05T16:35:58+00:00	2020-12-05T08:35:58-08:00	2020-12-05T17:04:11+00:00	2020-12-09T07:59:59+00:00	-4	45jmp0zfft9n430@marketplace.amazon.com	karen	+1 602-671-6610 ext. 84530	ABR0055	Delivery by Tuesday | Arabella Farm Direct Bouquet of 12 Stems of Fresh Cut Hot Pink Roses in a Free Designer Glass Vase	1	0	1	Expedited	Donna Kessler	2823 GLEN CULLEN LN			PEARLAND	TX	77584-4958	US		Happy Birthday Donna!!!!  We love you! Jim, Karen, and Noah From karen	false		
114-5653589-1669864	47170503447306	2020-12-05T16:41:41+00:00	2020-12-05T08:41:41-08:00	2020-12-05T17:07:37+00:00	2020-12-08T07:59:59+00:00	-3	9mtt84mf5lmp351@marketplace.amazon.com	Sallie Foley, MSW	+1 480-618-5344 ext. 29571	ABR0022	Delivery by Tuesday | Arabella Farm Direct Bouquet of 12 Fresh Cut Pink Roses with a Free Glass Vase	1	0	1	SecondDay	Renée Burwell	665 NETHERLANDS DR			HERMITAGE	TN	37076-2314	US		Dear Renée I hope you feel better soon. I am sending virtual hugs, warm soup and hot tea. Love, Sallie From Sallie Foley, MSW	false		
113-7496491-3838603	12768430640034	2020-12-05T16:42:23+00:00	2020-12-05T08:42:23-08:00	2020-12-05T17:11:23+00:00	2020-12-09T07:59:59+00:00	-4	n2325h6gmnh5dqw@marketplace.amazon.com	Liz	+1 763-225-9463 ext. 10777	ABM022	Delivery by Tuesday | Purple Extravagance Bouquet by Arabella Bouquets	1	0	1	Expedited	Betty Wright	1064 HEATHER GATE CT			LEXINGTON	KY	40511-2304	US		Happy happy birthday Nan!! We love you!! From Liz, Ben, Raleigh, Grace & Lily	false		
113-0022555-0718671	29669801071970	2020-12-05T16:44:18+00:00	2020-12-05T08:44:18-08:00	2020-12-05T17:11:41+00:00	2020-12-09T07:59:59+00:00	-4	1nqd18ht22yktpx@marketplace.amazon.com	Raymond D.Roberts	+1 346-307-9643 ext. 60444	ABM022	Delivery by Tuesday | Purple Extravagance Bouquet by Arabella Bouquets	1	0	1	Expedited	Dianna Cinchetta	55 AUDUBON TRL			SALT POINT	NY	12578-3110	US			false		
114-4574221-0985039	01313628735698	2020-12-05T16:46:46+00:00	2020-12-05T08:46:46-08:00	2020-12-05T17:12:54+00:00	2020-12-08T07:59:59+00:00	-3	9mtt84mf5lmp351@marketplace.amazon.com	Sallie Foley, MSW	+1 929-436-4790 ext. 49127	ABR0033	Delivery by Tuesday | Arabella Farm Direct Bouquet of 12 Fresh Cut Orange Roses with a Free Glass Vase	1	0	1	SecondDay	Anne Segall	2200 WASHTENAW AVE			ANN ARBOR	MI	48104-4513	US		Dear Anne,  Hoping you are feeling stronger each day and that you and Tom will soon be up and at it. We are sending virtual hugs, warm soup, and hot tea. Love, Sallie and Steve From Sallie Foley	false		
113-8457382-7092217	69499929662682	2020-12-05T16:46:53+00:00	2020-12-05T08:46:53-08:00	2020-12-05T17:15:05+00:00	2020-12-08T07:59:59+00:00	-3	w9d5jz5w5wrqlns@marketplace.amazon.com	Naman Agarwal	+1 213-442-1463 ext. 23316	ABM022	Delivery by Tuesday | Purple Extravagance Bouquet by Arabella Bouquets	1	0	1	SecondDay	Carolyn Wang	150 W 95TH ST APT 5D			NEW YORK	NY	10025-6667	US		Happy Birthday From Naman Agarwal	false		
112-6236798-1887464	67576794566234	2020-12-05T16:54:56+00:00	2020-12-05T08:54:56-08:00	2020-12-05T17:20:17+00:00	2020-12-09T07:59:59+00:00	-4	0rj7nqg8t7d1lsc@marketplace.amazon.com	Dan Millen	+1 415-851-9136 ext. 23087	ABR0022	Delivery by Tuesday | Arabella Farm Direct Bouquet of 12 Fresh Cut Pink Roses with a Free Glass Vase	1	0	1	Expedited	Karen Lindguist	149 MAGNOLIA RD			STERLING	VA	20164-5307	US			false		
112-6020373-5315402	63428484470442	2020-12-05T16:54:31+00:00	2020-12-05T08:54:31-08:00	2020-12-05T17:23:09+00:00	2020-12-08T07:59:59+00:00	-3	vnmj0psk4z79yl8@marketplace.amazon.com	Angie UyHam	+1 619-854-2705 ext. 24957	ABR0022	Delivery by Tuesday | Arabella Farm Direct Bouquet of 12 Fresh Cut Pink Roses with a Free Glass Vase	1	0	1	SecondDay	Rudy UyHam	1772 WILLIAMSPORT ST			HENDERSON	NEVADA	89052-6829	US		Happy Birthday Mom!  We love you so much! From Angie, Chuck, Ben + Leo	false		
111-4448188-6056201	34017115971026	2020-12-05T17:03:18+00:00	2020-12-05T09:03:18-08:00	2020-12-05T17:32:28+00:00	2020-12-09T07:59:59+00:00	-4	t69tf53kcgzgqy3@marketplace.amazon.com	Kim Schenck	+1 763-225-9463 ext. 93902	ABR0033	Delivery by Tuesday | Arabella Farm Direct Bouquet of 12 Fresh Cut Orange Roses with a Free Glass Vase	1	0	1	Expedited	Pat Kelly	12434 W BLUESTEM DR			SUN CITY WEST	AZ	85375-1928	US		Happy Birthday!  Love, Dave  Kim  Emma <3 From Kim Schenck	false		
111-7834942-9519463	25605204936386	2020-12-05T17:08:16+00:00	2020-12-05T09:08:16-08:00	2020-12-05T17:36:50+00:00	2020-12-09T07:59:59+00:00	-4	mdldfn7lk9psdnd@marketplace.amazon.com	Stacey Herebic	+1 619-854-2705 ext. 75878	ABM0033	Delivery by Wednesday | Arabella Farm Direct Bouquet of Fresh Cut White Hydrangea with a Free Glass Vase	1	0	1	Expedited	Mr. and Mrs. Weed	609 CANOE HILL RD			NEW CANAAN	CT	06840-3717	US		Danny & Richelle, We can't thank you enough for the use of your fabulous condo and the amazing meal on Thanksgiving. What a huge blessing it was.  Hope you are well and can enjoy Christmas with family! From Doug&Stacey Herebic	false		
112-9949735-6183422	43263195760146	2020-12-05T17:07:28+00:00	2020-12-05T09:07:28-08:00	2020-12-05T17:37:43+00:00	2020-12-08T07:59:59+00:00	-3	ccnptmhjfj85ct3@marketplace.amazon.com	Carl Irwin	+1 415-851-9136 ext. 32177	ABR001	Delivery by Tuesday | Arabella Bouquets 12 Stems of Fresh Cut Red Roses in a Free Designer Glass Vase	1	0	1	SecondDay	Carl Irwin	1006 7TH ST			WHITEHALL	PA	18052-5216	US			false		
114-8816205-0685819	61705902594730	2020-12-05T17:16:02+00:00	2020-12-05T09:16:02-08:00	2020-12-05T17:42:21+00:00	2020-12-09T07:59:59+00:00	-4	875ybh4s0bfd4tj@marketplace.amazon.com	Larry Lawrence	+1 602-671-6610 ext. 24993	ABM022	Delivery by Tuesday | Purple Extravagance Bouquet by Arabella Bouquets	1	0	1	Expedited	Carol Allyn	8701 S KOLB RD # 16-199			TUCSON	AZ	85756-9607	US		Hope you had a great birthday, with good bike ride. You are a good friend Larry From Larry Lawrence	false		
112-4975212-9897865	49284133894338	2020-12-05T17:16:19+00:00	2020-12-05T09:16:19-08:00	2020-12-05T17:43:41+00:00	2020-12-08T07:59:59+00:00	-3	2tqjpyn325s5002@marketplace.amazon.com	ab	+1 929-436-4790 ext. 52108	ABR001	Delivery by Tuesday | Arabella Bouquets 12 Stems of Fresh Cut Red Roses in a Free Designer Glass Vase	1	0	1	SecondDay	Kai Bowe	5818 S CHARITON AVE			LOS ANGELES	CA	90056-1504	US		Happy Birthday, Kai, Love, Dad and A From ab	false		
113-4479485-7089865	13138550802162	2020-12-05T17:14:04+00:00	2020-12-05T09:14:04-08:00	2020-12-05T17:44:27+00:00	2020-12-09T07:59:59+00:00	-4	p0rw82xy4d1vqq9@marketplace.amazon.com	Paul	+1 480-618-5344 ext. 64965	ABR0022	Delivery by Tuesday | Arabella Farm Direct Bouquet of 12 Fresh Cut Pink Roses with a Free Glass Vase	1	0	1	Expedited	PAUL CHAVES	77 WALNUT AVE			ROCKVILLE CENTRE	NY	11570-2914	US			false		
112-3410044-5673811	55373329977234	2020-12-05T17:17:35+00:00	2020-12-05T09:17:35-08:00	2020-12-05T17:46:36+00:00	2020-12-09T07:59:59+00:00	-4	4kbkndcb2fh2qll@marketplace.amazon.com	Joe Greff	+1 619-854-2705 ext. 34935	ABM022	Delivery by Tuesday | Purple Extravagance Bouquet by Arabella Bouquets	1	0	1	Expedited	Ambra gargantua	1508 TAPADERO CT			AUSTIN	TX	78727-4595	US		Soorry for pissin the bed From Joe Greff	false		
112-1367824-0925860	37236395041498	2020-12-05T17:42:15+00:00	2020-12-05T09:42:15-08:00	2020-12-05T17:55:47+00:00	2020-12-08T07:59:59+00:00	-3	mygl0d8q16r59yg@marketplace.amazon.com	andria	+1 213-442-1463 ext. 41107	ABR0066	Delivery by Wednesday | Arabella Bouquets 12 Stems of Fresh Cut White Roses in a Free Designer Glass Vase	1	0	1	SecondDay	Jessica Rusk	1333 LONGFELLOW CIR			ROSEVILLE	CA	95747-6889	US		For Glammy! Thank you for how incredibly welcoming you have already been to our little love :) Cant wait for you to meet her! From andria & tay	false		
113-3868602-0245838	18958940783042	2020-12-05T17:11:41+00:00	2020-12-05T09:11:41-08:00	2020-12-05T17:55:49+00:00	2020-12-09T07:59:59+00:00	-4	mcg0yzlds6c3hfw@marketplace.amazon.com	Nancy A Peterson	+1 763-225-9463 ext. 41414	ABM022	Delivery by Tuesday | Purple Extravagance Bouquet by Arabella Bouquets	1	0	1	Expedited	Eileen Holahan	90 Duhane Road			Pearl River	NY	10965	US		Happy Birthday dear friend. I’ll stick with you Love Mona From Nancy A Peterson	false		
113-6313738-3045831	34369457068106	2020-12-05T17:40:50+00:00	2020-12-05T09:40:50-08:00	2020-12-05T18:10:27+00:00	2020-12-09T07:59:59+00:00	-4	7mmy43xp7fdm7yz@marketplace.amazon.com	Callie Belo	+1 619-854-2705 ext. 77995	ABR0033	Delivery by Tuesday | Arabella Farm Direct Bouquet of 12 Fresh Cut Orange Roses with a Free Glass Vase	1	0	1	Expedited	Melissa Sisneros	3177 GENEVA CT			DENVER	CO	80238-3348	US		I love you always in all ways! From Callie Belo	false		
113-7416696-9402614	56538417969650	2020-12-05T17:39:54+00:00	2020-12-05T09:39:54-08:00	2020-12-05T18:10:32+00:00	2020-12-09T07:59:59+00:00	-4	3q6j32sqpsc49y7@marketplace.amazon.com	Jonathan S. Gordon	+1 415-851-9136 ext. 81693	ABR0066	Delivery by Wednesday | Arabella Bouquets 12 Stems of Fresh Cut White Roses in a Free Designer Glass Vase	1	0	1	Expedited	Jonathan Gordon	2328 Valley St			Berkeley	CA	94702-2134	US			false		
114-8650313-4615442	09110503591730	2020-12-05T17:53:59+00:00	2020-12-05T09:53:59-08:00	2020-12-05T18:20:19+00:00	2020-12-09T07:59:59+00:00	-4	2c5091vwfnkzzsn@marketplace.amazon.com	Madeline	+1 602-671-6610 ext. 14153	ABM022	Delivery by Tuesday | Purple Extravagance Bouquet by Arabella Bouquets	1	0	1	Expedited	Jake and Melissa Simonson	1140 MOUNT WHITNEY WAY			SANTA MARIA	CA	93454-2660	US		We are so sorry for your loss From Bob and Marianne	false		
114-9326144-0096248	40058501329570	2020-12-05T17:53:17+00:00	2020-12-05T09:53:17-08:00	2020-12-05T18:20:52+00:00	2020-12-08T07:59:59+00:00	-3	2lz6gsj08jd3yd8@marketplace.amazon.com	Brendan Smith	+1 415-851-9136 ext. 92306	ABR0033	Delivery by Tuesday | Arabella Farm Direct Bouquet of 12 Fresh Cut Orange Roses with a Free Glass Vase	1	0	1	SecondDay	Francine O'Connor	2147 SENECA RIDGE DR			MYRTLE BEACH	SC	29579-4178	US		Just a little something to cheer you up. Thinking of you.  Annmarie   and Brendan because annmarie cant use the internet my little dreidel. From Brendan Smith	false		
113-4900441-6122604	18676203671674	2020-12-05T18:07:28+00:00	2020-12-05T10:07:28-08:00	2020-12-05T18:28:11+00:00	2020-12-09T07:59:59+00:00	-4	nn0ccts0dml5h22@marketplace.amazon.com	Steve	+1 415-851-9136 ext. 99634	ABR0033	Delivery by Tuesday | Arabella Farm Direct Bouquet of 12 Fresh Cut Orange Roses with a Free Glass Vase	1	0	1	Expedited	Ms. Adrianne Toomer	4432 WILDER AVE			BRONX	NY	10466-1113	US		Happy Happy Birthday Ms. T.  Lots of love From Steve and Rita	false		
114-5400588-4846610	63439148760346	2020-12-05T18:03:54+00:00	2020-12-05T10:03:54-08:00	2020-12-05T18:29:01+00:00	2020-12-09T07:59:59+00:00	-4	srtv7cmzvnxvnyx@marketplace.amazon.com	Emily	+1 602-671-6610 ext. 62569	ABR0033	Delivery by Tuesday | Arabella Farm Direct Bouquet of 12 Fresh Cut Orange Roses with a Free Glass Vase	1	0	1	Expedited	Jody Goodman	5112 LOGANBERRY DR			SAGINAW	MI	48603-1135	US		We are so sorry for your loss.  Our hearts are with you. From The Callejo Family	false		
112-1736131-0540222	51886795449746	2020-12-05T18:15:44+00:00	2020-12-05T10:15:44-08:00	2020-12-05T18:43:51+00:00	2020-12-08T07:59:59+00:00	-3	jzz9hv9j9lvth6t@marketplace.amazon.com	Noorulain Aqeel	+1 619-854-2705 ext. 56503	ABM026	Delivery by Wednesday | The Amour Bouquet by Arabella Bouquets	1	0	1	SecondDay	Nuzhat Sultana	168 SAN MARCO WAY			AMERICAN CANYON	CA	94503-1151	US		Happy Birthday Mama Wishing you the best of Health and Happiness always. We Love you and iA hope to see you very soon From your bacha party, A & A From Ammar and Amal	false		
112-3698036-9693067	02517044322906	2020-12-05T18:18:58+00:00	2020-12-05T10:18:58-08:00	2020-12-05T18:49:08+00:00	2020-12-09T07:59:59+00:00	-4	1391x25jjvddvn0@marketplace.amazon.com	Ambica  Sogal	+1 480-618-5344 ext. 66902	ABR0022	Delivery by Tuesday | Arabella Farm Direct Bouquet of 12 Fresh Cut Pink Roses with a Free Glass Vase	1	0	1	Expedited	Surabhi Rao	12815 SHADOW OAK LN			FAIRFAX	VA	22033-1617	US			false		
111-4741192-5170618	47619290836178	2020-12-05T18:49:51+00:00	2020-12-05T10:49:51-08:00	2020-12-05T19:14:11+00:00	2020-12-09T07:59:59+00:00	-4	86p94gmfjldf7gd@marketplace.amazon.com	Becky	+1 619-854-2705 ext. 55758	ABM020	Delivery by Tuesday | The Sunset Bouquet by Arabella Bouquets	1	0	1	Expedited	Lynne Lindmeier	9313 NORTHTOWN ST			BRAINERD	MN	56401-6202	US		Dear Mom, I hope you enjoy this BDAY bouquet. They came all the way from Colombia where they are known for having the freshest and most beautiful flowersI hope you have a wonderful day! I love you! ♥️ Love, Becky From Becky	false		
112-8593013-0645054	40417448908314	2020-12-05T19:01:50+00:00	2020-12-05T11:01:50-08:00	2020-12-05T19:19:41+00:00	2020-12-09T07:59:59+00:00	-4	5jtk7pg9b0rnw1z@marketplace.amazon.com	Neil Cleveland	+1 619-854-2705 ext. 51078	ABC001	Delivery by Wednesday | The Seasons Greetings Bouquet by Arabella Bouquets	1	0	1	Expedited	Angela Williams	255 GEORGE HILL RD			WARTRACE	TN	37183-3706	US		Angela & Steve,  Merry Christmas !  We love you and hope you will consider contact with us?  What can we do?  Hearts hurts:( From Mother & Daddy From Mother & Daddy	false		
111-1194711-4295414	67391191378514	2020-12-05T18:59:30+00:00	2020-12-05T10:59:30-08:00	2020-12-05T19:26:52+00:00	2020-12-09T07:59:59+00:00	-4	btkghx7l6771r9k@marketplace.amazon.com	Louise Cohen	+1 415-419-8616 ext. 83405	ABR014	Arabella Bouquets 18 Stems of Fresh Cut White Roses in a Free Designer Glass Vase	1	0	1	Expedited	Thea Cohen	SANDY SPRINGS 205 MORGAN FARM DR			ATLANTA	GA	30342-2461	US			false		
113-2599356-3944265	10024445791834	2020-12-05T18:47:20+00:00	2020-12-05T10:47:20-08:00	2020-12-05T19:29:25+00:00	2020-12-09T07:59:59+00:00	-4	6qlnjbg887qcx23@marketplace.amazon.com	Matthew Maier	+1 415-851-9136 ext. 68424	ABM022	Delivery by Tuesday | Purple Extravagance Bouquet by Arabella Bouquets	1	0	1	Expedited	Mary C. Rouzer	2611 QUAIL AVE			ALTOONA	PA	16602-4423	US			false		
113-7210864-6800268	19712253317154	2020-12-05T19:18:25+00:00	2020-12-05T11:18:25-08:00	2020-12-05T19:48:00+00:00	2020-12-09T07:59:59+00:00	-4	fc9n5khd46z9mql@marketplace.amazon.com	Kelly Millham	+1 213-442-1463 ext. 47164	ABM022	Delivery by Tuesday | Purple Extravagance Bouquet by Arabella Bouquets	1	0	1	Expedited	Jessica Navarrete	4196 BERRY CIR			MILTON	FL	32571-6362	US		Get better faster.  Love you From Kelly	false		
114-8343379-0537011	67270473526162	2020-12-05T19:21:21+00:00	2020-12-05T11:21:21-08:00	2020-12-05T19:50:42+00:00	2020-12-09T07:59:59+00:00	-4	rhcp9g0b7p304j9@marketplace.amazon.com	Malisa Rust	+1 346-307-9643 ext. 38897	ABR0066	Delivery by Wednesday | Arabella Bouquets 12 Stems of Fresh Cut White Roses in a Free Designer Glass Vase	1	0	1	Expedited	Marcy Sookne	4802 HOLLOW CORNER RD UNIT 118			CULVER CITY	CA	90230-8548	US		I’m so sorry for your loss. Sending my condolences. From Malisa	false		
111-8044283-0891413	49706531144714	2020-12-05T19:40:03+00:00	2020-12-05T11:40:03-08:00	2020-12-05T20:04:52+00:00	2020-12-08T07:59:59+00:00	-3	rqzmdzxnbmsvrlw@marketplace.amazon.com	Sherry	+1 602-671-6610 ext. 75306	ABR0022	Delivery by Tuesday | Arabella Farm Direct Bouquet of 12 Fresh Cut Pink Roses with a Free Glass Vase	1	0	1	SecondDay	M. Ginny Hill	11683 TARRYNOT LN			CARMEL	IN	46033-9689	US		Happy Birthday!  Enjoy the flowers. From Love, Sherry, Terry and Brittany	false		
114-4905204-6325844	08912395597986	2020-12-05T19:40:10+00:00	2020-12-05T11:40:10-08:00	2020-12-05T20:06:04+00:00	2020-12-09T07:59:59+00:00	-4	61lxqqp1scrjlcw@marketplace.amazon.com	Sergio Lopez	+1 763-225-9463 ext. 04806	ABR0066	Delivery by Wednesday | Arabella Bouquets 12 Stems of Fresh Cut White Roses in a Free Designer Glass Vase	1	0	1	Expedited	Carla	1618 ORO VISTA RD UNIT 216			SAN DIEGO	CA	92154-4030	US		Happy Birthday Carla 😉 From Sergio	false		
112-8412463-6512229	68966534375802	2020-12-05T19:43:08+00:00	2020-12-05T11:43:08-08:00	2020-12-05T20:12:21+00:00	2020-12-09T07:59:59+00:00	-4	8f94xp1smls6803@marketplace.amazon.com	PAUL SLATER	+1 602-671-6610 ext. 98054	ABR0055	Delivery by Tuesday | Arabella Farm Direct Bouquet of 12 Stems of Fresh Cut Hot Pink Roses in a Free Designer Glass Vase	1	0	1	Expedited	Ann Mummert	3062 TWIN RIDGE DR			NEW RICHMOND	OH	45157-9169	US			false		
114-3573789-4212248	43252735651874	2020-12-05T19:50:19+00:00	2020-12-05T11:50:19-08:00	2020-12-05T20:16:34+00:00	2020-12-09T07:59:59+00:00	-4	8qdzyypvq9khc84@marketplace.amazon.com	KENT IRWIN	+1 480-618-5344 ext. 99540	ABR0022	Delivery by Tuesday | Arabella Farm Direct Bouquet of 12 Fresh Cut Pink Roses with a Free Glass Vase	1	0	1	Expedited	Hallie Latasa	14930 W WIGWAM BLVD APT 336			GOODYEAR	AZ	85395-7669	US		Merry Christmas, from Dianne and Kent, I still have the bow and arrow you gave me for my 16th birthday. From KENT IRWIN	false		
111-4977899-3725046	19427222896018	2020-12-05T19:52:20+00:00	2020-12-05T11:52:20-08:00	2020-12-05T20:18:54+00:00	2020-12-09T07:59:59+00:00	-4	2g0jcnhx18qfjpw@marketplace.amazon.com	Brian Johnson	+1 346-307-9643 ext. 28687	ABR0022	Delivery by Tuesday | Arabella Farm Direct Bouquet of 12 Fresh Cut Pink Roses with a Free Glass Vase	1	0	1	Expedited	Marcia Stokes	1123 HARVARD RD			WALDORF	MD	20602-3409	US		We hope this makes you a bit happier. Best to you, Brian and Susan From Brian Johnson	false		
114-9947840-2285856	43446297929066	2020-12-05T20:15:19+00:00	2020-12-05T12:15:19-08:00	2020-12-05T20:36:07+00:00	2020-12-09T07:59:59+00:00	-4	6h3fpxkrsbh28h1@marketplace.amazon.com	Tuba Urlu	+1 213-442-1463 ext. 50417	ABR014	Arabella Bouquets 18 Stems of Fresh Cut White Roses in a Free Designer Glass Vase	1	0	1	Expedited	Tuba Urlu	23 RUSSELL AVE APT 3	EDGEWATER NJ 07020		EDGEWATER	NJ	07020-1892	US			false		
112-3564156-5609859	22070960562274	2020-12-05T20:06:02+00:00	2020-12-05T12:06:02-08:00	2020-12-05T20:36:14+00:00	2020-12-09T07:59:59+00:00	-4	ly1spvdtkzfm060@marketplace.amazon.com	Nadine Topp	+1 763-225-9463 ext. 74599	ABM025	Delivery by Tuesday | The Fell for You Bouquet by Arabella Bouquets	1	0	1	Expedited	Adam Sparks	23 MERCER AVE			WILMINGTON	NC	28403-0728	US			false		
111-1413647-6797864	01408412789858	2020-12-05T20:22:53+00:00	2020-12-05T12:22:53-08:00	2020-12-05T20:45:20+00:00	2020-12-09T07:59:59+00:00	-4	ymjrrvs930vxlml@marketplace.amazon.com	Maggie Seymour	+1 213-442-1463 ext. 80759	ABR015	Delivery by Wednesday | Arabella Farm Direct Bouquet of 18 Fresh Cut Orange Roses with a Free Glass Vase	1	0	1	Standard	Judy Blankinship	8008 MAPLE POINT DR			CLINTON	WA	98236-9249	US		Happy Birthday Judy, Big hugs, love & blessings From Maggie & Mike From Maggie & Mike	false		
111-1452583-1644201	22719852349994	2020-12-05T20:29:03+00:00	2020-12-05T12:29:03-08:00	2020-12-05T20:55:28+00:00	2020-12-09T07:59:59+00:00	-4	ymjrrvs930vxlml@marketplace.amazon.com	Maggie Seymour	+1 763-225-9463 ext. 22414	ABR0022	Delivery by Tuesday | Arabella Farm Direct Bouquet of 12 Fresh Cut Pink Roses with a Free Glass Vase	1	0	1	Standard	Mary Stavik	1465 SW ROBERTSON DR			OAK HARBOR	WA	98277-5842	US		Dear Mary, Happy Birthday and lots of love! Maggie & Mike From Maggie Seymour	false		
113-5365889-3514628	41775176445114	2020-12-05T20:35:31+00:00	2020-12-05T12:35:31-08:00	2020-12-05T21:03:57+00:00	2020-12-09T07:59:59+00:00	-4	5jw6wnypc7pggdn@marketplace.amazon.com	George P. Lutjen	+1 480-618-5344 ext. 14410	ABR0022	Delivery by Tuesday | Arabella Farm Direct Bouquet of 12 Fresh Cut Pink Roses with a Free Glass Vase	1	0	1	Standard	Heather Duran	9 TANAGER CIR			TARIFFVILLE	CT	06081-9647	US		Happy 50th!!!!! From Love Aunt Frances and Uncle Skip	false		
113-7583947-2586625	15125666377490	2020-12-05T20:48:35+00:00	2020-12-05T12:48:35-08:00	2020-12-05T21:07:32+00:00	2020-12-08T07:59:59+00:00	-3	psjhx9fd0ht5969@marketplace.amazon.com	Bryan J Kelly	+1 213-442-1463 ext. 10925	ABR0033	Delivery by Tuesday | Arabella Farm Direct Bouquet of 12 Fresh Cut Orange Roses with a Free Glass Vase	1	0	1	SecondDay	Brooklyn Babcock	18233 N 66TH WAY			PHOENIX	AZ	85054-6709	US		Happy 19th Birthday, Brookie!  Wish I could be there to celebrate with you... Have an amazing day! Lots of love from Emily From Emily Kelly	false		
111-5037385-0264208	25450018510002	2020-12-05T20:45:12+00:00	2020-12-05T12:45:12-08:00	2020-12-05T21:15:32+00:00	2020-12-09T07:59:59+00:00	-4	vb3pk0zf2s038nl@marketplace.amazon.com	Alexis Adler	+1 480-618-5344 ext. 16496	ABM022	Delivery by Tuesday | Purple Extravagance Bouquet by Arabella Bouquets	1	0	1	Expedited	Edith Adler	1200 UNIVERSITY ST APT 501			SEATTLE	WA	98101-4237	US			false		
112-1653756-1913022	65402029646026	2020-12-05T21:25:23+00:00	2020-12-05T13:25:23-08:00	2020-12-05T21:56:01+00:00	2020-12-09T07:59:59+00:00	-4	qcnzmdr2fvb943s@marketplace.amazon.com	Benjamin Gorton	+1 346-307-9643 ext. 55626	ABM022	Delivery by Tuesday | Purple Extravagance Bouquet by Arabella Bouquets	1	0	1	Expedited	Benjamin Gorton	6117 DURBIN RD			BETHESDA	MD	20817-6106	US			false		
112-9185818-0524235	54097172565946	2020-12-05T21:38:26+00:00	2020-12-05T13:38:26-08:00	2020-12-05T22:02:21+00:00	2020-12-09T07:59:59+00:00	-4	1ts9ykmjpjfq5xm@marketplace.amazon.com	April Bourdlaies	+1 929-436-4790 ext. 15335	ABR0033	Delivery by Tuesday | Arabella Farm Direct Bouquet of 12 Fresh Cut Orange Roses with a Free Glass Vase	1	0	1	Standard	Gina Dunsmore	10201 ALHAMBRA AVE			CUPERTINO	CA	95014-1203	US		Happy Birthday Gina! I'm sorry you have to work on your birthday but we will make up for it next year. Love you, April From April Bourdlaies	false		
114-8056653-0921067	35791303113010	2020-12-05T21:33:32+00:00	2020-12-05T13:33:32-08:00	2020-12-05T22:04:13+00:00	2020-12-09T07:59:59+00:00	-4	n819rh9hlf5zjs5@marketplace.amazon.com	mahamed rashim	+1 929-436-4790 ext. 96321	ABR001	Delivery by Tuesday | Arabella Bouquets 12 Stems of Fresh Cut Red Roses in a Free Designer Glass Vase	1	0	1	Expedited	Mahamed rashim	9652 GISBORN DR			LAS VEGAS	NV	89147-8215	US			false		
112-2978585-4261848	48026403775514	2020-12-05T21:44:41+00:00	2020-12-05T13:44:41-08:00	2020-12-05T22:09:18+00:00	2020-12-09T07:59:59+00:00	-4	w4fswyd8hmygl10@marketplace.amazon.com	beth	+1 415-419-8616 ext. 55364	ABR0022	Delivery by Tuesday | Arabella Farm Direct Bouquet of 12 Fresh Cut Pink Roses with a Free Glass Vase	1	0	1	Expedited	KJ and Debbie DiPrinzio-Romano	111 INIS WAY			MALVERN	PA	19355-2158	US		So proud of you both for working on quitting. I want you around for a long, long time! From Love, Beth	false		
114-6602118-1041847	01643178202490	2020-12-05T22:08:21+00:00	2020-12-05T14:08:21-08:00	2020-12-05T22:36:54+00:00	2020-12-08T07:59:59+00:00	-3	79b2600xqw409cd@marketplace.amazon.com	Carol Adler	+1 415-851-9136 ext. 34550	ABM022	Delivery by Tuesday | Purple Extravagance Bouquet by Arabella Bouquets	1	0	1	SecondDay	Rebecca Cohen	130 KING ST			BLACKSTONE	MA	01504-2042	US		Enjoy your gift! From Carol Adler	false		
113-4295818-9421051	36702872416362	2020-12-05T22:49:17+00:00	2020-12-05T14:49:17-08:00	2020-12-05T23:11:56+00:00	2020-12-09T07:59:59+00:00	-4	0qq8rp98th27ln8@marketplace.amazon.com	thomas la sala	+1 415-419-8616 ext. 09952	ABM022	Delivery by Tuesday | Purple Extravagance Bouquet by Arabella Bouquets	1	0	1	Expedited	rosemary  rutland	PRIVATE HOUSE	10030 VIA SAN MARCO LOOP		FORT MYERS	FL	33905-5411	US			false		
112-9004796-9513830	11298463175514	2020-12-05T22:57:12+00:00	2020-12-05T14:57:12-08:00	2020-12-05T23:25:38+00:00	2020-12-09T07:59:59+00:00	-4	gqjzy1mfg2f0fh8@marketplace.amazon.com	DENISE J MCKROW	+1 415-851-9136 ext. 48935	ABR0033	Delivery by Tuesday | Arabella Farm Direct Bouquet of 12 Fresh Cut Orange Roses with a Free Glass Vase	1	0	1	Expedited	Donna Ross at The Pines	8111 S STATE RD			GOODRICH	MI	48438-8946	US		Happy Birthday Donna  Love and miss you  Jim From James Brazelton	false		
114-0259836-8521839	14082774336074	2020-12-05T23:02:42+00:00	2020-12-05T15:02:42-08:00	2020-12-05T23:30:20+00:00	2020-12-08T07:59:59+00:00	-3	hyl41x56pb5dcx4@marketplace.amazon.com	Carol Stacy	+1 480-618-5344 ext. 75746	ABC002	Delivery by Wednesday | The Warm Wishes Bouquet by Arabella Bouquets	1	0	1	SecondDay	Justine Stacy	3900 LOMALAND DR			SAN DIEGO	CA	92106-2810	US		Congratulations on completing your masters!!! So proud of you and your dedication to your future From Love Mommy, Daddy, Bubba	false		
114-7326452-2303404	18478708006498	2020-12-05T23:00:20+00:00	2020-12-05T15:00:20-08:00	2020-12-05T23:30:53+00:00	2020-12-09T07:59:59+00:00	-4	4c0fw4s4vyp051q@marketplace.amazon.com	bill harris	+1 415-419-8616 ext. 02303	ABM022	Delivery by Tuesday | Purple Extravagance Bouquet by Arabella Bouquets	1	0	1	Expedited	Barb Williams	14809 W FARMINGTON RD			HANNA CITY	IL	61536-9594	US			false		
112-3506342-7300215	12117524548650	2020-12-05T23:14:52+00:00	2020-12-05T15:14:52-08:00	2020-12-05T23:35:15+00:00	2020-12-09T07:59:59+00:00	-4	j9jg98trvd6xj44@marketplace.amazon.com	roberta sorenson	+1 929-436-4790 ext. 90678	ABR0033	Delivery by Tuesday | Arabella Farm Direct Bouquet of 12 Fresh Cut Orange Roses with a Free Glass Vase	1	0	1	Expedited	Alicia Sorenson	3788 NE 4TH ST APT J101			RENTON	WA	98056-8481	US		Take care of yourself...we love and miss you ❤️Grandma and grandpa From roberta sorenson	false		
112-2238395-8704230	47313479004050	2020-12-05T23:14:18+00:00	2020-12-05T15:14:18-08:00	2020-12-05T23:38:46+00:00	2020-12-09T07:59:59+00:00	-4	8y3qj0d38jb7jrc@marketplace.amazon.com	Lillian Nader	+1 415-419-8616 ext. 28785	ABM022	Delivery by Tuesday | Purple Extravagance Bouquet by Arabella Bouquets	1	0	1	Expedited	Lillian Fadal	THE DELANEY AT LAKE WACO	2121 W STATE HIGHWAY 6 APT 4105		WACO	TX	76710-4026	US		To Lil from Lil with love and in extra special loving memory of our beloved Jeanette. From Lillian Nader	false		
112-3159487-3052266	12140488388122	2020-12-05T23:20:39+00:00	2020-12-05T15:20:39-08:00	2020-12-05T23:44:03+00:00	2020-12-09T07:59:59+00:00	-4	35zdqx7zttkdl63@marketplace.amazon.com	ROSE STROM	+1 763-225-9463 ext. 88113	ABM022	Delivery by Tuesday | Purple Extravagance Bouquet by Arabella Bouquets	1	0	1	Expedited	Robin Unzicker	11905 ECHO POINT PL			CLARKSBURG	MD	20871-5335	US			false		
112-1243266-2515401	27297482376554	2020-12-05T23:24:33+00:00	2020-12-05T15:24:33-08:00	2020-12-05T23:44:25+00:00	2020-12-09T07:59:59+00:00	-4	bwzyj0mhkhd7ctp@marketplace.amazon.com	Al	+1 213-442-1463 ext. 09359	ABM022	Delivery by Tuesday | Purple Extravagance Bouquet by Arabella Bouquets	1	0	1	Expedited	Elise Szeker	3198 ROUTE 206			COLUMBUS	NJ	08022-2037	US		Elise, I am so sorry to hear of your mom, she was someone I admired and loved. I know these flowers don’t do much to make you feel any better but I wanted you to know that I care. Alan	false		
112-0095555-7144269	21716161436946	2020-12-05T23:24:50+00:00	2020-12-05T15:24:50-08:00	2020-12-05T23:53:10+00:00	2020-12-09T07:59:59+00:00	-4	8qg9c02wm55yjyf@marketplace.amazon.com	Janet Sun	+1 415-419-8616 ext. 44384	ABR0033	Delivery by Tuesday | Arabella Farm Direct Bouquet of 12 Fresh Cut Orange Roses with a Free Glass Vase	1	0	1	Expedited	Suzy Beach	427 GARDEN LN			BRYN MAWR	PA	19010-3625	US		Dear Zsuzsy,  We love you and are thinking of you! Thank you so much for the amazing Charlie clothes it is incredibly generous and we love them so much. Sending many hugs From Janet + 2 Charlie's	true		
113-1556733-0195456	08624000721946	2020-12-05T23:28:38+00:00	2020-12-05T15:28:38-08:00	2020-12-05T23:58:09+00:00	2020-12-08T07:59:59+00:00	-3	vv2751tvwghc90y@marketplace.amazon.com	Colleen	+1 346-307-9643 ext. 06278	ABM010	Delivery by Tuesday | The Everlasting Fling Bouquet by Arabella Bouquets with a Free Designer Glass Vase	1	0	1	SecondDay	Kara Prifti	13143 KINGS CROSSING DR			GIBSONTON	FL	33534-3953	US		Happy Birthday Kara and congrats on your promotion!! From Love Colleen & Mags	false		
113-7881778-0669058	39031067892186	2020-12-06T00:13:16+00:00	2020-12-05T16:13:16-08:00	2020-12-06T00:14:10+00:00	2020-12-08T07:59:59+00:00	-3	c7lwhmh1q215srq@marketplace.amazon.com	Delaine Bailey	+1 415-851-9136 ext. 28107	ABR0022	Delivery by Tuesday | Arabella Farm Direct Bouquet of 12 Fresh Cut Pink Roses with a Free Glass Vase	1	0	1	SecondDay	Alyssa Sultze	727 CLANCY DR			DALZELL	IL	61320-9758	US		Sweet Alyssa, Thought some pink roses might lift your spirits.  Know you are dearly loved and prayed for.  Psalms 16:8; 33:11; and 61:2 NLT will bring you encouragement from the Lord.   Love you! From Mother and Daddy	false		
111-7937792-5964258	05644569368034	2020-12-05T23:59:56+00:00	2020-12-05T15:59:56-08:00	2020-12-06T00:25:24+00:00	2020-12-09T07:59:59+00:00	-4	1b7jhxg6rccfbd6@marketplace.amazon.com	Karno Sarkar	+1 415-851-9136 ext. 47927	ABR0055	Delivery by Tuesday | Arabella Farm Direct Bouquet of 12 Stems of Fresh Cut Hot Pink Roses in a Free Designer Glass Vase	1	0	1	Expedited	Mrs Indira/Sudh/Ramamurthy	6102 BRAEMORE CT	CANTON MI 48187 UNITED STATES		CANTON	MI	48187-3187	US		Dear Aunty(Patti) Hope these flowers brighten your day and help ease your pain, Give your strength and Endurance as your make a fast recovery. With warm wishes and Pranali’s From Karno/Arjun/Susanto/Debjani	false		
113-4785937-0596223	39558194365786	2020-12-06T00:03:28+00:00	2020-12-05T16:03:28-08:00	2020-12-06T00:32:34+00:00	2020-12-09T07:59:59+00:00	-4	6782hdsh8ym9njy@marketplace.amazon.com	Suzanne Harman	+1 346-307-9643 ext. 82398	ABR0022	Delivery by Tuesday | Arabella Farm Direct Bouquet of 12 Fresh Cut Pink Roses with a Free Glass Vase	1	0	1	Expedited	Christine Jellis	2590 FAIRMOUNT BLVD			CLEVELAND HEIGHTS	OH	44106-3240	US		Just to make you smile!! Thinking of you in this stressful time. Love you. Zan From Suzanne Harman	false		
113-7183298-7890641	06503711907266	2020-12-06T00:19:36+00:00	2020-12-05T16:19:36-08:00	2020-12-06T00:50:02+00:00	2020-12-09T07:59:59+00:00	-4	brk9hm9sxfnmsz2@marketplace.amazon.com	Jessica Sukanen	+1 480-618-5344 ext. 80700	ABR001	Delivery by Tuesday | Arabella Bouquets 12 Stems of Fresh Cut Red Roses in a Free Designer Glass Vase	1	0	1	Expedited	DAD & SHEILA SUKANEN	11018 N STATE HIGHWAY 122			UPSON	WI	54565-9204	US			false		
113-0550720-4716223	19183201751738	2020-12-06T00:20:40+00:00	2020-12-05T16:20:40-08:00	2020-12-06T00:51:09+00:00	2020-12-09T07:59:59+00:00	-4	brk9hm9sxfnmsz2@marketplace.amazon.com	Jessica Sukanen	+1 415-851-9136 ext. 61490	ABR001	Delivery by Tuesday | Arabella Bouquets 12 Stems of Fresh Cut Red Roses in a Free Designer Glass Vase	1	0	1	Expedited	Kelly Hieb	11618 E KNOLL RD			LAKE NEBAGAMON	WI	54849-4402	US			false		
111-8670757-9904264	56871837697386	2020-12-06T00:30:42+00:00	2020-12-05T16:30:42-08:00	2020-12-06T00:51:36+00:00	2020-12-09T07:59:59+00:00	-4	rds1xpr7vtz13p7@marketplace.amazon.com	Parth	+1 213-442-1463 ext. 81306	ABR0022	Delivery by Tuesday | Arabella Farm Direct Bouquet of 12 Fresh Cut Pink Roses with a Free Glass Vase	1	0	1	Expedited	Emily Garcia	1728 CREEK CROSSING RD			VIENNA	VA	22182-2126	US		Happy 3 months emu. “There is simply the rose; it is perfect in every moment of its existence.” – Ralph Waldo Emerson. IDK why I am putting a quote here but this captures you in every sense babes. Can't wait to see you soon<3 From Your Bear	false		
112-9155334-9025862	03663234364914	2020-12-06T00:24:05+00:00	2020-12-05T16:24:05-08:00	2020-12-06T00:52:50+00:00	2020-12-09T07:59:59+00:00	-4	gsfz8rprl7q9rzp@marketplace.amazon.com	Kim Seevers	+1 346-307-9643 ext. 04337	ABR0033	Delivery by Tuesday | Arabella Farm Direct Bouquet of 12 Fresh Cut Orange Roses with a Free Glass Vase	1	0	1	Expedited	Deanna Stepp	C/O BROOKDALE SENIOR LIVING	10790 OLD SAINT AUGUSTINE RD APT 107		JACKSONVILLE	FL	32257-1065	US		Happy Birthday Momma!  Love you always. From Kim Seevers	false		
114-7388054-0605829	12808149974490	2020-12-06T00:29:30+00:00	2020-12-05T16:29:30-08:00	2020-12-06T00:55:24+00:00	2020-12-09T07:59:59+00:00	-4	639t85g514hn9dn@marketplace.amazon.com	Ralph Johnson	+1 415-419-8616 ext. 83147	ABR001	Delivery by Tuesday | Arabella Bouquets 12 Stems of Fresh Cut Red Roses in a Free Designer Glass Vase	1	0	1	Expedited	Aunt LaVergne Balacky	401 SWAN DR			DYER	IN	46311-1072	US			false		
111-2748813-9010601	30445616886898	2020-12-06T00:31:22+00:00	2020-12-05T16:31:22-08:00	2020-12-06T00:56:43+00:00	2020-12-09T07:59:59+00:00	-4	qj51dg8xssmljqp@marketplace.amazon.com	Joy Marcon	+1 602-671-6610 ext. 13918	ABR0022	Delivery by Tuesday | Arabella Farm Direct Bouquet of 12 Fresh Cut Pink Roses with a Free Glass Vase	1	0	1	Expedited	Angelina Toth	6541 COLD WATER DR			WACO	TX	76712-6670	US			false		
111-0191433-1401840	55036324825570	2020-12-06T00:38:33+00:00	2020-12-05T16:38:33-08:00	2020-12-06T01:06:03+00:00	2020-12-09T07:59:59+00:00	-4	qw7wywrc835btwh@marketplace.amazon.com	ryan mshaw	+1 763-225-9463 ext. 72420	ABR0066	Delivery by Wednesday | Arabella Bouquets 12 Stems of Fresh Cut White Roses in a Free Designer Glass Vase	1	0	1	Expedited	Erin Shaw	4768 RED LEAF CIR			BIRMINGHAM	AL	35226-4212	US		Erin -  Thank you for supporting Mom & Dad, and for all that you do. Thinking of you over these next few weeks and sending healing vibes. Sending Lots of love, Ryan and Jason x From ryan mshaw	false		
113-7645581-9173836	58289691920850	2020-12-06T00:39:40+00:00	2020-12-05T16:39:40-08:00	2020-12-06T01:09:52+00:00	2020-12-09T07:59:59+00:00	-4	79ywptrhzg6qwkp@marketplace.amazon.com	Mona al-Kazemi		ABR0022	Delivery by Tuesday | Arabella Farm Direct Bouquet of 12 Fresh Cut Pink Roses with a Free Glass Vase	1	0	1	Standard	MONA AL KAZEMI	2 RIVER TER APT 21C			NEW YORK	NY	10282	US			false		
112-3414358-7649044	32554858280546	2020-12-06T00:50:16+00:00	2020-12-05T16:50:16-08:00	2020-12-06T01:15:33+00:00	2020-12-09T07:59:59+00:00	-4	92wqwwl3lp8yrwb@marketplace.amazon.com	smparks27	+1 415-851-9136 ext. 93842	ABM022	Delivery by Tuesday | Purple Extravagance Bouquet by Arabella Bouquets	1	0	1	Expedited	Lofsky Family	715 BROOMSEDGE TER			WILMINGTON	NC	28412-1048	US		Sending love and strength to your family. Cherish your memories, they will be with be with you forever and get you through difficult times. Much love! From Stacey Parks	false		
113-1445542-0661005	04888734129426	2020-12-06T01:07:05+00:00	2020-12-05T17:07:05-08:00	2020-12-06T01:35:25+00:00	2020-12-08T07:59:59+00:00	-3	q0b4p94j0smnpf3@marketplace.amazon.com	tiffany augustus	+1 763-225-9463 ext. 68360	ABM031	Delivery by Wednesday | The Harvest Moon Bouquet by Arabella Bouquets	1	0	1	SecondDay	Melissa Augustus	188 CHRISTY DR			BEULAVILLE	NC	28518-7711	US		Happy Birthday!!!! I hope your day is as special as you!! We love you! From Daughter	false		
112-3268141-9072205	14337113102842	2020-12-06T01:27:14+00:00	2020-12-05T17:27:14-08:00	2020-12-06T01:56:50+00:00	2020-12-08T07:59:59+00:00	-3	d52t46c9y4wqdpm@marketplace.amazon.com	L. T. MacKenzie	+1 346-307-9643 ext. 49520	ABR0055	Delivery by Tuesday | Arabella Farm Direct Bouquet of 12 Stems of Fresh Cut Hot Pink Roses in a Free Designer Glass Vase	1	0	1	SecondDay	Shirley McKenzie	7048 MIDDLESBURY RIDGE CIR			WEST HILLS	CA	91307-1813	US			false		
114-6748239-6231451	23756348179506	2020-12-06T01:27:59+00:00	2020-12-05T17:27:59-08:00	2020-12-06T02:05:10+00:00	2020-12-09T07:59:59+00:00	-4	fj0j5vw4s6wghgy@marketplace.amazon.com	Daniel	+1 602-671-6610 ext. 98636	ABM020	Delivery by Tuesday | The Sunset Bouquet by Arabella Bouquets	1	0	1	Expedited	Joann Swartz	716 CASTALIA ST			BELLEVUE	OHIO	44811-1121	US		Get Well Soon!  We are praying for you! From Daniel, Kathy, Joshua, Kevin, Katie, David, Ruth and Marianne	false		
112-6693869-8349832	23781635211058	2020-12-06T01:37:10+00:00	2020-12-05T17:37:10-08:00	2020-12-06T02:06:18+00:00	2020-12-08T07:59:59+00:00	-3	g579mglbtcxxsjf@marketplace.amazon.com	ELIZABETH GRANT	+1 415-419-8616 ext. 17313	ABR0066	Delivery by Wednesday | Arabella Bouquets 12 Stems of Fresh Cut White Roses in a Free Designer Glass Vase	1	0	1	SecondDay	ELYSE GRANT	1331 ORCHARD HEIGHTS RD NW	APT 2068		SALEM	OR	97304-2572	US		HAPPY BIRTHDAY SWEETIE! LOVE YOU, MOM From ELIZABETH GRANT	false		
113-9307332-6973853	24596865780658	2020-12-06T01:40:30+00:00	2020-12-05T17:40:30-08:00	2020-12-06T02:07:54+00:00	2020-12-08T07:59:59+00:00	-3	mdpm0dz7fjvz598@marketplace.amazon.com	Pawan Singal	+1 602-671-6610 ext. 15021	ABM022	Delivery by Tuesday | Purple Extravagance Bouquet by Arabella Bouquets	1	0	1	SecondDay	Shruti Singal	2022 CARLOTTA CT			ATLANTA	GA	30345-7607	US			false		
113-1967688-5575409	09019504420978	2020-12-06T01:46:11+00:00	2020-12-05T17:46:11-08:00	2020-12-06T02:13:05+00:00	2020-12-09T07:59:59+00:00	-4	06dnyrp7lr7khrp@marketplace.amazon.com	Brian Oakley	+1 213-442-1463 ext. 81457	ABR001	Delivery by Tuesday | Arabella Bouquets 12 Stems of Fresh Cut Red Roses in a Free Designer Glass Vase	1	0	1	Expedited	Dana, Norman, & Valerie	3612 S CIRCLE DR APT 8			KALAMAZOO	MI	49004-7681	US		Congrats on the new place, Aunt Dana, Grandma and Grandpa! From Jessie and Beau	false		
112-3790596-2746651	15243977912418	2020-12-06T02:14:52+00:00	2020-12-05T18:14:52-08:00	2020-12-06T02:44:44+00:00	2020-12-09T07:59:59+00:00	-4	dt2lmtnx4fr7v3m@marketplace.amazon.com	Max Johnson	+1 619-854-2705 ext. 89064	ABM0044	Delivery by Wednesday | Arabella Farm Direct Bouquet of Fresh Cut Blue Hydrangea with a Free Glass Vase	1	0	1	Expedited	Katharine Ebert	6010 SE EARP RD			BELLEVIEW	FL	34420-3331	US			false		
112-7472292-4524262	35231415514578	2020-12-06T02:28:39+00:00	2020-12-05T18:28:39-08:00	2020-12-06T02:58:18+00:00	2020-12-09T07:59:59+00:00	-4	76bd8j79v31fwx7@marketplace.amazon.com	Kaila	+1 346-307-9643 ext. 04952	ABM022	Delivery by Tuesday | Purple Extravagance Bouquet by Arabella Bouquets	1	0	1	Expedited	Jody Flanagan	18 OLD SAN ANTONIO RD APT 17			BOERNE	TX	78006-3423	US		Love you Grandma! Have a great day From Kaila	false		
112-1170822-0332234	03217297364778	2020-12-06T02:31:15+00:00	2020-12-05T18:31:15-08:00	2020-12-06T02:58:52+00:00	2020-12-09T07:59:59+00:00	-4	6b8zzr0n8sdhthf@marketplace.amazon.com	Ralph Fitch	+1 415-419-8616 ext. 41936	ABR0022	Delivery by Tuesday | Arabella Farm Direct Bouquet of 12 Fresh Cut Pink Roses with a Free Glass Vase	1	0	1	Expedited	Julie Heath	3233 JEFFERSON AVE			WELLINGTON	CO	80549-3265	US		Hi Charli, So sorry to hear your news. Hope these brighten your day! Lots and Lots of love from Grandma Luce and Grandpa	false		
114-8230453-3861818	48479968274914	2020-12-06T02:30:38+00:00	2020-12-05T18:30:38-08:00	2020-12-06T03:00:21+00:00	2020-12-09T07:59:59+00:00	-4	w52q6m7t6trgqfb@marketplace.amazon.com	Brooke Leigh	+1 602-671-6610 ext. 34001	ABM022	Delivery by Tuesday | Purple Extravagance Bouquet by Arabella Bouquets	1	0	1	Expedited	Michelle Ward	409 LAWSON RD			WASHINGTON	NC	27889-3152	US		Happy Birthday Mom! I love you so much and wish I could celebrate YOU! I’m so glad you’re here and what a year! 59 and feeling fine From Brooke Leigh	false		
111-3951219-3740211	58990602207786	2020-12-06T03:12:56+00:00	2020-12-05T19:12:56-08:00	2020-12-06T03:15:16+00:00	2020-12-09T07:59:59+00:00	-4	19ktmc7v8zt7pvd@marketplace.amazon.com	Laura Weiss	+1 213-442-1463 ext. 19569	ABR0022	Delivery by Tuesday | Arabella Farm Direct Bouquet of 12 Fresh Cut Pink Roses with a Free Glass Vase	1	0	1	Expedited	Michelle Flowers	243 S PARK VIEW ST APT 6			LOS ANGELES	CA	90057-2034	US		A little pick me up during stormy times. I love you. You are strong and powerful!  Love, Lau From Laura Weiss	false		
114-2892441-3872235	63328746713250	2020-12-06T03:13:39+00:00	2020-12-05T19:13:39-08:00	2020-12-06T03:37:12+00:00	2020-12-09T07:59:59+00:00	-4	r065rmnfnt0bfqg@marketplace.amazon.com	Linda Fuller	+1 213-442-1463 ext. 71027	ABM010	Delivery by Tuesday | The Everlasting Fling Bouquet by Arabella Bouquets with a Free Designer Glass Vase	1	0	1	Expedited	Kim Horning	27470 NUTCRACKER LN			CORVALLIS	OR	97333-9344	US		Thank you for all the time you spent taking care of Mom. I appreciate you! From Love, Todd	false		
112-0012396-5468233	64421608058554	2020-12-06T03:26:02+00:00	2020-12-05T19:26:02-08:00	2020-12-06T03:53:36+00:00	2020-12-08T07:59:59+00:00	-3	gzlxd5wpd6391hs@marketplace.amazon.com	pradeep chowdhury	+1 602-671-6610 ext. 31354	ABR0022	Delivery by Tuesday | Arabella Farm Direct Bouquet of 12 Fresh Cut Pink Roses with a Free Glass Vase	1	0	1	SecondDay	Pradeep Chowdhury	2378 Cantalise Drive			Dublin	CA	94568	US		Happy Anniversary From pradeep chowdhury	false		
114-1369673-2541831	09370699212666	2020-12-06T03:33:14+00:00	2020-12-05T19:33:14-08:00	2020-12-06T04:02:36+00:00	2020-12-09T07:59:59+00:00	-4	w7s8tnybvs2b16x@marketplace.amazon.com	david whitehead	+1 346-307-9643 ext. 32426	ABR0022	Delivery by Tuesday | Arabella Farm Direct Bouquet of 12 Fresh Cut Pink Roses with a Free Glass Vase	1	0	1	Expedited	Eleanor Burritt	17427 VIA CARMEN			SAN LORENZO	CA	94580-2615	US			false		
112-0389798-2770648	10737005464346	2020-12-06T03:39:19+00:00	2020-12-05T19:39:19-08:00	2020-12-06T04:05:45+00:00	2020-12-09T07:59:59+00:00	-4	h3ljgbckx36w5l6@marketplace.amazon.com	Joshua G Maxwell	+1 415-851-9136 ext. 70434	ABM022	Delivery by Tuesday | Purple Extravagance Bouquet by Arabella Bouquets	1	0	1	Expedited	Karyn E Maxwell	110 E CANYON VIEW RD			BELFAIR	WA	98528-9596	US			false		
112-7522242-5989803	54564624304490	2020-12-06T03:44:49+00:00	2020-12-05T19:44:49-08:00	2020-12-06T04:13:47+00:00	2020-12-09T07:59:59+00:00	-4	q6p4f2z88chmpjf@marketplace.amazon.com	stewart bailey	+1 619-854-2705 ext. 40764	ABR0022	Delivery by Tuesday | Arabella Farm Direct Bouquet of 12 Fresh Cut Pink Roses with a Free Glass Vase	1	0	1	Expedited	Floyd Bolen	120 BLUESKY CT			GHENT	WV	25843-9335	US		Happy Birthday Mom!  Love you! From stewart bailey	false		
113-1554221-0342651	28503617075850	2020-12-06T03:58:45+00:00	2020-12-05T19:58:45-08:00	2020-12-06T04:24:43+00:00	2020-12-09T07:59:59+00:00	-4	z3k9dnvzzfcyl9x@marketplace.amazon.com	Irshad Khan	+1 346-307-9643 ext. 12063	ABM022	Delivery by Tuesday | Purple Extravagance Bouquet by Arabella Bouquets	1	0	1	Expedited	Noushaba Khan	701 S PERALTA HILLS DR			ANAHEIM	CA	92807-3621	US			false		
114-4622590-5868228	65752004039706	2020-12-06T04:03:25+00:00	2020-12-05T20:03:25-08:00	2020-12-06T04:30:07+00:00	2020-12-08T07:59:59+00:00	-3	7wqh81v5xv9q9xx@marketplace.amazon.com	Rosemarie Remigio	+1 346-307-9643 ext. 51044	ABR0022	Delivery by Tuesday | Arabella Farm Direct Bouquet of 12 Fresh Cut Pink Roses with a Free Glass Vase	1	0	1	SecondDay	Kathleen Nebrida	5106 MERRILL ST			TORRANCE	CA	90503-6862	US		Happy birthday my dear friend, Kathleen! May the Lord continually bless you with protection, excellent health, and happiness. 🥰Marie From Rosemarie Remigio	false		
111-3867834-0650664	69359347374514	2020-12-06T04:04:39+00:00	2020-12-05T20:04:39-08:00	2020-12-06T04:32:50+00:00	2020-12-09T07:59:59+00:00	-4	ys6ddyy664rl9z9@marketplace.amazon.com	bhuvana bala	+1 619-854-2705 ext. 09600	ABR0033	Delivery by Tuesday | Arabella Farm Direct Bouquet of 12 Fresh Cut Orange Roses with a Free Glass Vase	1	0	1	Expedited	Jagbir Singh	1093 KRAFTILE RD			FREMONT	CA	94536-7617	US		Our Dear Sister Jagbir  May gods bless you and fill yourself with divine loving lights. Love ❤️. Bala and Booni From bhuvana bala	false		
111-9516895-0954665	42596734069418	2020-12-06T04:07:38+00:00	2020-12-05T20:07:38-08:00	2020-12-06T04:36:13+00:00	2020-12-08T07:59:59+00:00	-3	pf7k442c6739zw9@marketplace.amazon.com	Joe Belli	+1 619-854-2705 ext. 96106	ABR0022	Delivery by Tuesday | Arabella Farm Direct Bouquet of 12 Fresh Cut Pink Roses with a Free Glass Vase	1	0	1	SecondDay	Dorothy Moorman	BERKELEY EAST CONVALESCENT HOSPITAL	2021 ARIZONA AVE		SANTA MONICA	CA	90404-1335	US		Dear Dorothy, We hope you feel better each day! From Love, Joe & Dianne Belli	false		
114-2145125-3537868	29192732743146	2020-12-06T04:16:11+00:00	2020-12-05T20:16:11-08:00	2020-12-06T04:43:54+00:00	2020-12-09T07:59:59+00:00	-4	gq5k4rsj9dztszt@marketplace.amazon.com	Susan M Wiechert	+1 480-618-5344 ext. 87651	ABM022	Delivery by Tuesday | Purple Extravagance Bouquet by Arabella Bouquets	1	0	1	Expedited	Jennifer Rhyne	5447 RIVER BAY DR			PUNTA GORDA	FL	33950-8734	US			false		
114-6966269-4233814	39054590514922	2020-12-06T04:19:29+00:00	2020-12-05T20:19:29-08:00	2020-12-06T04:45:40+00:00	2020-12-09T07:59:59+00:00	-4	mtqws2c2qjfp3vh@marketplace.amazon.com	Jeff	+1 213-442-1463 ext. 74611	ABM010	Delivery by Tuesday | The Everlasting Fling Bouquet by Arabella Bouquets with a Free Designer Glass Vase	1	0	1	Expedited	Patty Bogh	10601 SW YOUNGBERG HILL RD			MCMINNVILLE	OR	97128-8560	US		Patty, So sorry for your loss.  I have fond memories of Ron and am so glad to have met him!! Thinking of you! From Love, Sherry	false		
113-7936906-5233837	39384000978722	2020-12-06T04:25:34+00:00	2020-12-05T20:25:34-08:00	2020-12-06T04:47:08+00:00	2020-12-09T07:59:59+00:00	-4	qn8rq9ssptmkml9@marketplace.amazon.com	Rev. Cheryl Myhand	+1 619-854-2705 ext. 41864	ABR015	Delivery by Wednesday | Arabella Farm Direct Bouquet of 18 Fresh Cut Orange Roses with a Free Glass Vase	1	0	1	Expedited	Kenyana Williams	220 Springtree DR	Apt 520		Columbia	SC	29223	US		Happy Blessed Birthday!   Peace, Prosperity, and Victory!  Bishop Myhand From Rev. Cheryl Myhand	false		
112-8990141-3065064	43680963417570	2020-12-06T04:19:55+00:00	2020-12-05T20:19:55-08:00	2020-12-06T04:48:40+00:00	2020-12-08T07:59:59+00:00	-3	0nlj3qhww4tfzjf@marketplace.amazon.com	Dara Seegopaul	+1 415-851-9136 ext. 70260	ABR0022	Delivery by Tuesday | Arabella Farm Direct Bouquet of 12 Fresh Cut Pink Roses with a Free Glass Vase	1	0	1	SecondDay	Kelli Seegopaul	829 BRONX RIVER RD APT 4C			BRONXVILLE	NY	10708-8004	US			false		
113-1714902-6583400	28822493555498	2020-12-06T04:36:58+00:00	2020-12-05T20:36:58-08:00	2020-12-06T05:00:13+00:00	2020-12-09T07:59:59+00:00	-4	ylr1f0hwmc95zpp@marketplace.amazon.com	Gordon Hines	+1 763-225-9463 ext. 89998	ABR0022	Delivery by Tuesday | Arabella Farm Direct Bouquet of 12 Fresh Cut Pink Roses with a Free Glass Vase	1	0	1	Expedited	Andrea and Bobby Litke	600 INDEPENDENCE PKWY UNIT 3214			PLANO	TX	75075-8025	US		Happy Birthday, dear Andrea!  We hope you enjoy your flowers bringing joy to your birthday!  We wish we were there with you and Bobby as we miss you very much!  With all our love, Gordon & Carmela From Gordon & Carmela	false		
112-3630028-6072269	08568200860546	2020-12-06T04:32:34+00:00	2020-12-05T20:32:34-08:00	2020-12-06T05:01:29+00:00	2020-12-08T07:59:59+00:00	-3	0nlj3qhww4tfzjf@marketplace.amazon.com	Dara Seegopaul	+1 415-419-8616 ext. 00747	ABR0055	Delivery by Tuesday | Arabella Farm Direct Bouquet of 12 Stems of Fresh Cut Hot Pink Roses in a Free Designer Glass Vase	1	0	1	SecondDay	Kimberly Seegopaul	24570 STEWART ST APT 21			LOMA LINDA	CA	92354-2727	US			false		
111-5140039-7612262	40302897090114	2020-12-06T04:32:58+00:00	2020-12-05T20:32:58-08:00	2020-12-06T05:01:48+00:00	2020-12-09T07:59:59+00:00	-4	bf1c09mzb1kltq7@marketplace.amazon.com	Eduardo Perez	+1 415-419-8616 ext. 88109	ABM022	Delivery by Tuesday | Purple Extravagance Bouquet by Arabella Bouquets	1	0	1	Expedited	Maria Perez	681 7TH ST			PLAINWELL	MI	49080-9504	US		Mom - we want to wish you a very happy birthday! We love you and we are grateful for you & happy you visited us. Lots of hugs. From Wowwy, Rosa & the kids	false		
112-4557362-4077865	00523605582106	2020-12-06T04:34:48+00:00	2020-12-05T20:34:48-08:00	2020-12-06T05:05:15+00:00	2020-12-09T07:59:59+00:00	-4	g3v220p86jmzcwv@marketplace.amazon.com	JEAN GANTHIER	+1 415-419-8616 ext. 71358	ABR0022	Delivery by Tuesday | Arabella Farm Direct Bouquet of 12 Fresh Cut Pink Roses with a Free Glass Vase	1	0	1	Expedited	Carlita Lamarr	2718 RAINTREE CIR			TALLAHASSEE	FL	32308-3828	US			false		
112-5085028-5243457	23913755982178	2020-12-06T04:50:30+00:00	2020-12-05T20:50:30-08:00	2020-12-06T05:15:39+00:00	2020-12-09T07:59:59+00:00	-4	v2y3ls51468xf2q@marketplace.amazon.com	alan ross	+1 619-854-2705 ext. 38896	ABM010	Delivery by Tuesday | The Everlasting Fling Bouquet by Arabella Bouquets with a Free Designer Glass Vase	1	0	1	Expedited	Janice Dompke	142 BRAY RD			SHELBURNE FALLS	MA	01370-9679	US		Because you're always on my mind... From Love, Alan	false		
113-9253935-8901825	29508916375378	2020-12-06T05:00:19+00:00	2020-12-05T21:00:19-08:00	2020-12-06T05:17:39+00:00	2020-12-09T07:59:59+00:00	-4	qn8rq9ssptmkml9@marketplace.amazon.com	Rev. Cheryl Myhand	+1 415-419-8616 ext. 98777	ABR0022	Delivery by Tuesday | Arabella Farm Direct Bouquet of 12 Fresh Cut Pink Roses with a Free Glass Vase	1	0	1	Expedited	Bernadette Williams	4621 S COOPER ST APT 654			ARLINGTON	TX	76017-5866	US		Happy Belated Blessed Birthday!  Peace and Blessing, From Bishop Cheryl Myhand	false		
113-6317277-6389052	49662877895746	2020-12-06T04:55:41+00:00	2020-12-05T20:55:41-08:00	2020-12-06T05:24:35+00:00	2020-12-09T07:59:59+00:00	-4	jwsfnw1bghgyc07@marketplace.amazon.com	Steve	+1 415-419-8616 ext. 01787	ABR0022	Delivery by Tuesday | Arabella Farm Direct Bouquet of 12 Fresh Cut Pink Roses with a Free Glass Vase	1	0	1	Expedited	Pauline Faso	10 MEADOWVIEW DR			WOODSTOWN	NJ	08098-2546	US		Happy birthday mom! From Steven, Becca, Aubrey and Merlin!	false		
111-3855775-2745040	09004990743106	2020-12-06T04:55:39+00:00	2020-12-05T20:55:39-08:00	2020-12-06T05:25:18+00:00	2020-12-08T07:59:59+00:00	-3	zjs2z8y9gw5m50s@marketplace.amazon.com	royarahimian	+1 415-851-9136 ext. 13563	ABR001	Delivery by Tuesday | Arabella Bouquets 12 Stems of Fresh Cut Red Roses in a Free Designer Glass Vase	1	0	1	SecondDay	Roya Rahimian	751 BALBOA AVE			LAGUNA BEACH	CA	92651-4105	US			false		
111-9536326-0346636	15770622613618	2020-12-06T04:56:13+00:00	2020-12-05T20:56:13-08:00	2020-12-06T05:25:59+00:00	2020-12-09T07:59:59+00:00	-4	2dtmwkrf0qrht4j@marketplace.amazon.com	khadija Ndiaye	+1 763-225-9463 ext. 95622	ABR0055	Delivery by Tuesday | Arabella Farm Direct Bouquet of 12 Stems of Fresh Cut Hot Pink Roses in a Free Designer Glass Vase	1	0	1	Expedited	khady Ndiaye	3909 23RD PKWY APT 21			TEMPLE HILLS	MD	20748-6643	US			false		
113-3925898-0724201	67671517466234	2020-12-06T05:06:37+00:00	2020-12-05T21:06:37-08:00	2020-12-06T05:33:47+00:00	2020-12-09T07:59:59+00:00	-4	vbf5w12g0pxtl8m@marketplace.amazon.com	Misty	+1 619-854-2705 ext. 85968	ABR0033	Delivery by Tuesday | Arabella Farm Direct Bouquet of 12 Fresh Cut Orange Roses with a Free Glass Vase	1	0	1	Expedited	Mary Forrest	3163 PINEY MOUNTAIN RD			WALDRON	AR	72958-9145	US		Happy birthday. We love you tons. Hope you have a great day. From Misty, Dusty, and the kids	false		
113-5645776-9595435	34270159672570	2020-12-06T05:14:46+00:00	2020-12-05T21:14:46-08:00	2020-12-06T05:33:50+00:00	2020-12-09T07:59:59+00:00	-4	n158k78kj97j56w@marketplace.amazon.com	frida	+1 415-851-9136 ext. 34635	ABM022	Delivery by Tuesday | Purple Extravagance Bouquet by Arabella Bouquets	1	0	1	Expedited	Monique Husbands	9709 LONGVIEW DR			ELLICOTT CITY	MD	21042-2335	US		Monique our thoughts and prayers are with you during this very though time. Your Chase Brexton family is here for you, please reach out if you need us for anything. From CC providers	false		
