order-id	order-item-id	purchase-date	payments-date	reporting-date	promise-date	days-past-promise	buyer-email	buyer-name	buyer-phone-number	sku	product-name	quantity-purchased	quantity-shipped	quantity-to-ship	ship-service-level	recipient-name	ship-address-1	ship-address-2	ship-address-3	ship-city	ship-state	ship-postal-code	ship-country	gift-wrap-type	gift-message-text	is-business-order	purchase-order-number	price-designation
113-8972228-1496254	09024794286434	2020-12-10T03:10:54+00:00	2020-12-09T19:10:54-08:00	2020-12-10T03:38:36+00:00	2020-12-12T07:59:59+00:00	-1	tn3bcbjkxd5hgq3@marketplace.amazon.com	Jodi Sisson	+1 346-307-9643 ext. 95788	ABM017	Delivery by Monday, Dec 14 Arabella Bouquets 10 Stems of Blue Dendrobium Orchids in a Free Designer Glass Vase	1	0	1	Expedited	Anne Dan Dobson	6 PARKER RD			BROOKLINE	VT	05345-9792	US			false		
114-5685826-9795437	07559489434762	2020-12-10T20:12:30+00:00	2020-12-10T12:12:30-08:00	2020-12-10T20:40:18+00:00	2020-12-15T07:59:59+00:00	-4	k0dp6hgx54zr93c@marketplace.amazon.com	Albert P. Kulfan	+1 346-307-9643 ext. 16799	ABR0022	Delivery by Saturday, December 12 Dozen Pink Roses with a Free Glass Vase by Arabella Bouquets	1	0	1	Expedited	Myriam McGovern	4160 RIDGEBROOK BND			CUMMING	GA	30028-8183	US		Dear Myriam, Miss you! Happy Holiday! Stay Safe! From Cathy & Al	false		
112-9738225-4213818	28194221074410	2020-12-11T07:59:26+00:00	2020-12-10T23:59:26-08:00	2020-12-11T08:25:14+00:00	2020-12-15T07:59:59+00:00	-4	l9gty4kyc5434b4@marketplace.amazon.com	mark kaliss	+1 619-854-2705 ext. 89566	ABM020	Delivery by Monday, Dec 14 Sunset Bouquet by Arabella Bouquets	2	1	1	Expedited	Steve snd Ida Strang	6 RUSSELL ST			SARATOGA SPRINGS	NY	12866-1314	US			false		
112-4518692-7871457	27038256032586	2020-12-11T16:02:37+00:00	2020-12-11T08:02:37-08:00	2020-12-11T16:03:36+00:00	2020-12-16T07:59:59+00:00	-5	hlz52b0d9hkkf2k@marketplace.amazon.com	Tamerra Rodriguez	+1 213-442-1463 ext. 11130	ABR0022	Delivery by Monday, December 14 Dozen Pink Roses with a Free Vase by Arabella Bouquets	1	0	1	Expedited	Glenda Hale	128 BRIARWOOD DR			KENNEDALE	TX	76060-3801	US		Happy happy birthday mom!!!! I love you so much! Sorry I can’t be there to celebrate, but I’ll see you in a couple days! From Tam, Jules, Olivia, & Milo	false		
111-0607242-7215446	03599334986066	2020-12-11T16:57:10+00:00	2020-12-11T08:57:10-08:00	2020-12-11T17:25:52+00:00	2020-12-16T07:59:59+00:00	-5	6rhrd0r54s7k0tv@marketplace.amazon.com	Jim Newell	+1 602-671-6610 ext. 04867	ABR0033	Delivery by Wednesday, December 15 Dozen Orange Roses in a Free Vase by Arabella Bouquets	1	0	1	Expedited	Julia Young	5116 HIGHPOINT DR			TOLEDO	OHIO	43615-1174	US		Merry Christmas from Jamie and Jance From Jamie	true		
112-8309536-1762626	52258603720962	2020-12-11T18:00:32+00:00	2020-12-11T10:00:32-08:00	2020-12-11T18:23:17+00:00	2020-12-16T07:59:59+00:00	-5	ykbj1hx1mb9xhrx@marketplace.amazon.com	Theresa Howell	+1 346-307-9643 ext. 99349	ABC001	Delivery by Tuesday, Dec 15 Seasons Greetings Bouquet by Arabella Bouquets	1	0	1	Expedited	Evelyn Elzie	903 EASON PL			MONROE	LA	71201-2614	US		Miss you very much, get well. Have a Blessed Christmas.  Much Love! From Theresa Howell	false		
113-9390305-6105003	48572873839658	2020-12-11T17:56:13+00:00	2020-12-11T09:56:13-08:00	2020-12-11T18:25:04+00:00	2020-12-16T07:59:59+00:00	-5	nc54dlfyt7j9ycv@marketplace.amazon.com	debra swank	+1 619-854-2705 ext. 17253	ABR0022	Delivery by Monday, December 14 Dozen Pink Roses with a Free Vase by Arabella Bouquets	1	0	1	Expedited	Sylvia Larson	3474 LOLLAR BRANCH RD			SULLIVAN	MO	63080-4056	US		Merry Christmas! From Debbie and Pat	false		
111-4803765-8248258	57917943415714	2020-12-11T18:08:05+00:00	2020-12-11T10:08:05-08:00	2020-12-11T18:37:46+00:00	2020-12-16T07:59:59+00:00	-5	ftxb0ssb1clc1zf@marketplace.amazon.com	Armin I Feldman	+1 415-851-9136 ext. 13456	ABM022	Delivery by Saturday, Dec 12, Purple Extravagance Bouquet by Arabella Bouquets	1	0	1	Expedited	Amy Carpenter	4525 SNAIL LAKE BLVD			SHOREVIEW	MN	55126-1920	US		Happy Birthday From Holly and Armin I Feldman	false		
113-1258854-4857067	61384402863850	2020-12-11T18:13:07+00:00	2020-12-11T10:13:07-08:00	2020-12-11T18:40:41+00:00	2020-12-16T07:59:59+00:00	-5	sjy1jr6wqyv5nr3@marketplace.amazon.com	Kristen Fry	+1 619-854-2705 ext. 92164	ABR0022	Delivery by Monday, December 14 Dozen Pink Roses with a Free Vase by Arabella Bouquets	2	0	2	Expedited	Cyndi & Kayla	CITY WIDE 1200 WOODRUFF RD	STE G12		GREENVILLE	SC	29607-5791	US			false		
114-0589943-1024264	65813573210898	2020-12-11T18:21:46+00:00	2020-12-11T10:21:46-08:00	2020-12-11T18:49:33+00:00	2020-12-16T07:59:59+00:00	-5	bqxjsddl5rs8b9r@marketplace.amazon.com	Jane M, Maczuzak	+1 602-671-6610 ext. 25959	ABR0055	Delivery by Saturday, December 12 Dozen Hot Pink Roses in a Free Vase by Arabella Bouquets	1	0	1	Expedited	Dr. Susan Sour	Rockledge Farm	Box 68 Fern Hollow Road		Sewickley	PA	15143	US		Happy Birthday Princess! Have an absolutely fabulous day! From Jane M, Maczuzak	false		
113-4961432-3135452	34700346210338	2020-12-11T18:23:13+00:00	2020-12-11T10:23:13-08:00	2020-12-11T18:52:04+00:00	2020-12-16T07:59:59+00:00	-5	p4tb8yh347qpq0k@marketplace.amazon.com	Eric Lee Olesen	+1 346-307-9643 ext. 65499	ABR0022	Delivery by Monday, December 14 Dozen Pink Roses with a Free Vase by Arabella Bouquets	1	0	1	Expedited	Barbara Olesen	116 KETCHAM RD			HACKETTSTOWN	NJ	07840-4917	US			false		
113-2265093-6513848	44537711343794	2020-12-11T18:27:30+00:00	2020-12-11T10:27:30-08:00	2020-12-11T18:52:21+00:00	2020-12-16T07:59:59+00:00	-5	0qmnbwfvc22jqm8@marketplace.amazon.com	Patricia King	+1 929-436-4790 ext. 06311	ABM022	Delivery by Saturday, Dec 12, Purple Extravagance Bouquet by Arabella Bouquets	1	0	1	Expedited	Bette Van Winkle	1308 YORKSHIRE LN			WOODSTOCK	GA	30188-6339	US		Happy 75th!! Much love as I celebrate you and our friendship for so many years.  Continued blessings on your birthday and always! From Patricia King	false		
114-2755521-5077854	38940317810394	2020-12-11T18:26:25+00:00	2020-12-11T10:26:25-08:00	2020-12-11T18:56:42+00:00	2020-12-16T07:59:59+00:00	-5	r2p2pd47dh4n1gb@marketplace.amazon.com	James Breen	+1 619-854-2705 ext. 73117	ABR0022	Delivery by Monday, December 14 Dozen Pink Roses with a Free Vase by Arabella Bouquets	1	0	1	Expedited	JAMES BREEN	200 THE ESPLANADE N APT A10			VENICE	FLORIDA	34285-1512	US			false		
114-6897551-6964218	65814791543202	2020-12-11T18:34:30+00:00	2020-12-11T10:34:30-08:00	2020-12-11T19:02:31+00:00	2020-12-16T07:59:59+00:00	-5	srvkymp9wmnc8lw@marketplace.amazon.com	Joanne Ring	+1 213-442-1463 ext. 52282	ABM010	Delivery by Saturday, Dec 12 Everlasting Fling with a Free Glass Vase by Arabella Bouquets	1	0	1	Expedited	Tracy Ring	100 ASPEN CIR			SHELBURNE	VT	05482-4422	US		Happy Birthday, enjoy your day. Love Mom and Dad xxoo From Mon and Dad	false		
111-7716829-0103407	14846614080226	2020-12-11T18:39:37+00:00	2020-12-11T10:39:37-08:00	2020-12-11T19:08:48+00:00	2020-12-16T07:59:59+00:00	-5	06yq3mrsvq051ds@marketplace.amazon.com	Mary Jo Hanrahan	+1 619-854-2705 ext. 50169	ABM025	Delivery by Tuesday, Dec 15 Fell for You Bouquet by Arabella Bouquets	1	0	1	Expedited	Katie Schwab	7384 BURTON DR			MIDDLETOWN	OH	45044-8996	US			false		
112-5514643-8894629	46193995886570	2020-12-11T18:42:18+00:00	2020-12-11T10:42:18-08:00	2020-12-11T19:11:32+00:00	2020-12-16T07:59:59+00:00	-5	y3961d0rs9rsj2l@marketplace.amazon.com	shannon	+1 763-225-9463 ext. 66215	ABR0033	Delivery by Tuesday, December 15, December 15 Dozen Orange Roses in a Free Vase by Arabella Bouquets	1	0	1	Expedited	Jackie Pfister	400 STONYBROOK DR			MISSOULA	MT	59804-8505	US		Jackie! Happy Holidays! I’m so proud of you! From Love, shannon	false		
111-3541207-3929041	35633310153986	2020-12-11T18:46:28+00:00	2020-12-11T10:46:28-08:00	2020-12-11T19:12:14+00:00	2020-12-16T07:59:59+00:00	-5	76c7gqlnwlclkx6@marketplace.amazon.com	JACKSON BOSWELL	+1 346-307-9643 ext. 67073	ABR0022	Delivery by Tuesday, December 15 Dozen Pink Roses with a Free Vase by Arabella Bouquets	1	0	1	Expedited	Mrs. Michael N. Castle	2001 KENTMERE PL			WILMINGTON	DE	19806-2115	US			false		
112-6155973-5662608	01537905141938	2020-12-11T18:54:24+00:00	2020-12-11T10:54:24-08:00	2020-12-11T19:13:17+00:00	2020-12-16T07:59:59+00:00	-5	s232z6vq9s467r7@marketplace.amazon.com	Stacy Young	+1 619-854-2705 ext. 32383	ABB005	Delivery by Tuesday, Dec 15 Arabella Bouquets 24 Stems of Fresh Cut Red Roses in a Designer Glass Vase	1	0	1	Expedited	stacy young	1717 n. lemon street			mesa	az	85205	US		Merry Christmas Grandma! We hope you continue to feel well! We are praying for your continued good health and happiness! We are so grateful for you! We love you so much! Merry Christmas! From Stacy, Tom and family	false		
111-7170645-1769000	47220643033690	2020-12-11T18:47:16+00:00	2020-12-11T10:47:16-08:00	2020-12-11T19:17:16+00:00	2020-12-16T07:59:59+00:00	-5	j6qsln4rk41gkxn@marketplace.amazon.com	Alexa D. MacDonald	+1 619-854-2705 ext. 08068	ABM010	Delivery by Saturday, Dec 12 Everlasting Fling with a Free Glass Vase by Arabella Bouquets	1	0	1	Expedited	Maria Williams	58 PIN OAK LN			WILTON	CT	06897-1329	US		On behalf of the IBM HR Team we are wishing you a speedy recovery and are looking forward to your return to work soon.  For now focus on your rest and recovery! From Alexa D. MacDonald	false		
111-7984433-2210647	15303405190570	2020-12-11T18:50:51+00:00	2020-12-11T10:50:51-08:00	2020-12-11T19:17:40+00:00	2020-12-16T07:59:59+00:00	-5	76c7gqlnwlclkx6@marketplace.amazon.com	JACKSON BOSWELL	+1 763-225-9463 ext. 21420	ABR0022	Delivery by Tuesday, December 15 Dozen Pink Roses with a Free Vase by Arabella Bouquets	1	0	1	Expedited	Joe Molin & Alex Sigillo	6937 BRISTOL DR			BERKELEY	CA	94705-1704	US			false		
112-2675784-9451463	60741926114858	2020-12-11T19:07:41+00:00	2020-12-11T11:07:41-08:00	2020-12-11T19:25:43+00:00	2020-12-16T07:59:59+00:00	-5	6cgfjhx7ptcxzcn@marketplace.amazon.com	Barry Pontolillo	+1 213-442-1463 ext. 33471	ABR0022	Delivery by Tuesday, December 15 Dozen Pink Roses with a Free Vase by Arabella Bouquets	1	0	1	Expedited	Rosemarie Dubiel	18  Sass Drive			Manchester	CT	06040	US		Wishing you blessings this Christmas. Wish we were closer and times were safer. You are in my prayers for continued comfort.  Much love, Patti From Barry Pontolillo	false		
111-9916641-6720243	41432518480730	2020-12-11T18:58:47+00:00	2020-12-11T10:58:47-08:00	2020-12-11T19:27:54+00:00	2020-12-16T07:59:59+00:00	-5	jtny22d5836ky4x@marketplace.amazon.com	Donna Rowe	+1 415-851-9136 ext. 00112	ABR001	Delivery by Tuesday, December 15 Dozen Red Roses in a Free Vase by Arabella Bouquets	1	0	1	Expedited	Ann Rowe	94 MULLER RD			BURLINGTON	MA	01803-5127	US		Enjoy your gift! From Mike & Donna Rowe	false		
111-9597505-4797800	06349220324802	2020-12-11T19:00:37+00:00	2020-12-11T11:00:37-08:00	2020-12-11T19:30:51+00:00	2020-12-16T07:59:59+00:00	-5	gcgm5jd0w3qtvw6@marketplace.amazon.com	Gail Gillham	+1 480-618-5344 ext. 83536	ABC001	Delivery by Wednesday, Dec 16 Seasons Greetings Bouquet by Arabella Bouquets	1	0	1	Expedited	Carole Schumacher	25 CALVIN CIR			EVANSTON	IL	60201-1911	US			false		
111-9339185-9577000	12625038327138	2020-12-11T19:04:54+00:00	2020-12-11T11:04:54-08:00	2020-12-11T19:33:20+00:00	2020-12-16T07:59:59+00:00	-5	gz7zkgb3r7kgkst@marketplace.amazon.com	Julian	+1 213-442-1463 ext. 51845	ABM010	Delivery by Tuesday, Dec 15 Everlasting Fling with a Free Glass Vase by Arabella Bouquets	1	0	1	Expedited	Julian	1009 YELLOWSTONE DR			ODESSA	TX	79765-2050	US			false		
113-0453243-5150630	33738311582306	2020-12-11T19:07:55+00:00	2020-12-11T11:07:55-08:00	2020-12-11T19:34:39+00:00	2020-12-16T07:59:59+00:00	-5	n2hfl10xvtkdnqs@marketplace.amazon.com	jaimee hartley	+1 763-225-9463 ext. 54569	ABR0022	Delivery by Tuesday, December 15 Dozen Pink Roses with a Free Vase by Arabella Bouquets	1	0	1	Expedited	Gary and Mayra Wiggins	2010 CENTERVIEW			MIDLAND	TX	79707-9760	US		God bless you on this special day From Becky and Kendra	false		
114-9186241-2560223	66062078116162	2020-12-11T19:11:35+00:00	2020-12-11T11:11:35-08:00	2020-12-11T19:40:08+00:00	2020-12-16T07:59:59+00:00	-5	dcgtq7bv6gt1bk6@marketplace.amazon.com	Doug Deutsch	+1 602-671-6610 ext. 02997	ABM017	Delivery by Monday, Dec 14 Blue Dendrobium Orchids 10 Stems in a Free Designer Glass Vase by Arabella Bouquets	1	0	1	Expedited	Jeff Deutsch	145 HOL MAR TRL			MCDONOUGH	GA	30253-5502	US		Margot and Jeff, Have a beautiful holiday season.  Have a C'happy Channukah!  I love you both. From Doug Deutsch	false		
114-7989918-1596238	15034125695242	2020-12-11T19:15:10+00:00	2020-12-11T11:15:10-08:00	2020-12-11T19:43:16+00:00	2020-12-16T07:59:59+00:00	-5	dcgtq7bv6gt1bk6@marketplace.amazon.com	Doug Deutsch	+1 602-671-6610 ext. 00828	ABM017	Delivery by Monday, Dec 14 Blue Dendrobium Orchids 10 Stems in a Free Designer Glass Vase by Arabella Bouquets	1	0	1	Expedited	Sharon Mann	3307 PARK PL			SPRINGFIELD	NJ	07081-3523	US		Sharon (my awesome sister), Eric and Jared Have a wonderful holiday together.  C'happy Channukah.  I love you all.   Eric and Jared you guys are OK too. :) From Doug Deutsch	false		
112-7503763-6972204	23027842977394	2020-12-11T19:14:30+00:00	2020-12-11T11:14:30-08:00	2020-12-11T19:43:20+00:00	2020-12-16T07:59:59+00:00	-5	8sb29yfmx76n0v2@marketplace.amazon.com	david hubert	+1 213-442-1463 ext. 46777	ABR0055	Delivery by Tuesday, December 15 Dozen Hot Pink Roses in a Free Vase by Arabella Bouquets	1	0	1	Expedited	David Hubert	691 WILD FLOWER ST			MERRITT ISLAND	FL	32953-8058	US			false		
114-5034233-8291404	11057738236034	2020-12-11T19:30:04+00:00	2020-12-11T11:30:04-08:00	2020-12-11T19:44:14+00:00	2020-12-16T07:59:59+00:00	-5	qrrcksb0yrqtflr@marketplace.amazon.com	mary Grady	+1 602-671-6610 ext. 80288	ABR0022	Delivery by Tuesday, December 15 Dozen Pink Roses with a Free Vase by Arabella Bouquets	1	0	1	Expedited	Courtney Schaeffer	15 W HOOKER ST			NEW LONDON	OH	44851-1008	US		Dear Courtney, We are so sorry that your photo was left out of the pinning video. Just wanted to send you flowers and say best wishes. From Dr. Grady&LCCC Nursing Faculty From Dr. Grady&LCCC Nursing Faculty	false		
113-5890910-2076243	07654430733418	2020-12-11T19:18:51+00:00	2020-12-11T11:18:51-08:00	2020-12-11T19:44:46+00:00	2020-12-16T07:59:59+00:00	-5	r139jwpw939kxv6@marketplace.amazon.com	Carrie Calloway	+1 415-851-9136 ext. 35501	ABR0022	Delivery by Tuesday, December 15 Dozen Pink Roses with a Free Vase by Arabella Bouquets	1	0	1	Expedited	Deborah Raczka	3540 TAMARIND DR			NORTHBROOK	IL	60062-2235	US		Congratulations and Best Wishes from the Kettering HR Team! From DRiV-Tenneco	false		
112-8130541-5243410	17332969518610	2020-12-11T19:19:03+00:00	2020-12-11T11:19:03-08:00	2020-12-11T19:48:11+00:00	2020-12-16T07:59:59+00:00	-5	d0p0tzjrwqcd518@marketplace.amazon.com	Karen Van Antwerp	+1 619-854-2705 ext. 09834	ABR0022	Delivery by Tuesday, December 15 Dozen Pink Roses with a Free Vase by Arabella Bouquets	1	0	1	Standard	Karen Van Antwerp	2626 PORTOBELLO DR			TROY	MI	48083-2495	US		Enjoy your gift! Merry Christmas and a very Happy New Year Mom, Dad, Agnes, Cammie and Lola. Love karen and michael From Karen Van Antwerp	false		
113-6418347-6529028	00127159059410	2020-12-11T19:28:50+00:00	2020-12-11T11:28:50-08:00	2020-12-11T19:59:19+00:00	2020-12-16T07:59:59+00:00	-5	lbmm84v8jj8z49c@marketplace.amazon.com	larry bruestle	+1 619-854-2705 ext. 54080	ABR0022	Delivery by Tuesday, December 15 Dozen Pink Roses with a Free Vase by Arabella Bouquets	1	0	1	Expedited	larry bruestle	8221 Ozark Dr			San Marcos	Texas	78666	US			false		
111-6654947-7481827	57032974890042	2020-12-11T19:29:44+00:00	2020-12-11T11:29:44-08:00	2020-12-11T19:59:32+00:00	2020-12-16T07:59:59+00:00	-5	nhtp9qg3562mdcj@marketplace.amazon.com	Ratnesh Sharma	+1 602-671-6610 ext. 41059	ABR0022	Delivery by Tuesday, December 15 Dozen Pink Roses with a Free Vase by Arabella Bouquets	1	0	1	Expedited	Venkat Veluchamy	1110 BRUNSWICK			ROCHESTER HILLS	MI	48309-3759	US		Happy Birthday Mom! Love,   Arjun, Aliyana, Krithika, and Ratnesh From Ratnesh Sharma	false		
112-2401085-2213043	58743682048970	2020-12-11T19:30:17+00:00	2020-12-11T11:30:17-08:00	2020-12-11T19:59:46+00:00	2020-12-16T07:59:59+00:00	-5	jxg25n2wrdjwpnv@marketplace.amazon.com	Robert Kelsey	+1 763-225-9463 ext. 87693	ABR0022	Delivery by Tuesday, December 15 Dozen Pink Roses with a Free Vase by Arabella Bouquets	1	0	1	Expedited	Cheryl Draney	2387 E 800 S			PRESTON	ID	83263-5430	US			false		
111-0007571-6309806	46749986173250	2020-12-11T19:32:14+00:00	2020-12-11T11:32:14-08:00	2020-12-11T20:00:48+00:00	2020-12-16T07:59:59+00:00	-5	n36r95nx1stzf5k@marketplace.amazon.com	Ping chow	+1 346-307-9643 ext. 85576	ABR0022	Delivery by Tuesday, December 15 Dozen Pink Roses with a Free Vase by Arabella Bouquets	1	0	1	Expedited	Lingling chen	1151 GREENWOOD AVE			PALO ALTO	CA	94301-3411	US		Hi Lingling,  Have a merry Christmas and a happy New year! Enjoy your gift! From Ping chow	false		
112-6475269-0818620	17041099005466	2020-12-11T19:33:30+00:00	2020-12-11T11:33:30-08:00	2020-12-11T20:00:59+00:00	2020-12-16T07:59:59+00:00	-5	vjkbypv12r5xrzl@marketplace.amazon.com	Aisha Bowen	+1 346-307-9643 ext. 37366	ABR0022	Delivery by Tuesday, December 15 Dozen Pink Roses with a Free Vase by Arabella Bouquets	1	0	1	Expedited	Anisah Boldon	6562 SILK TREE POINTE			BRASELTON	GA	30517-6243	US			false		
114-4599516-1470603	11522781891074	2020-12-11T19:35:41+00:00	2020-12-11T11:35:41-08:00	2020-12-11T20:05:54+00:00	2020-12-16T07:59:59+00:00	-5	mtrcgq29jzq36vh@marketplace.amazon.com	Heather Striplin	+1 619-854-2705 ext. 64111	ABM031	Delivery by Tuesday, Dec 15 The Harvest Moon Bouquet by Arabella Bouquets	1	0	1	Expedited	Pam and woodie striplin	2604 BAREFOOT CREEK CIR			NAVARRE	FL	32566-8771	US			false		
113-7852058-3167431	35736645791754	2020-12-11T19:39:42+00:00	2020-12-11T11:39:42-08:00	2020-12-11T20:07:14+00:00	2020-12-16T07:59:59+00:00	-5	3klk4vq3y017cnn@marketplace.amazon.com	Zac Rubart	+1 619-854-2705 ext. 05434	ABM017	Delivery by Monday, Dec 14 Blue Dendrobium Orchids 10 Stems in a Free Designer Glass Vase by Arabella Bouquets	1	0	1	Expedited	Elizabeth Blake	4541 BAUER FARM DR APT E13			LAWRENCE	KS	66049-9116	US			false		
113-4620101-2893845	66736590242490	2020-12-11T19:45:15+00:00	2020-12-11T11:45:15-08:00	2020-12-11T20:13:57+00:00	2020-12-16T07:59:59+00:00	-5	wnt49r330gxf3fd@marketplace.amazon.com	Ole J Nordhavn	+1 602-671-6610 ext. 21642	ABR0055	Delivery by Tuesday, December 15 Dozen Hot Pink Roses in a Free Vase by Arabella Bouquets	1	0	1	Expedited	Julie Shipp	4851 SHORELINE WAY			OXNARD	CA	93035-2838	US		Wishing you a speedy recovery! We love you! From Auntie Chris and Uncle Ole	false		
112-0909742-4405831	39176474672162	2020-12-11T19:57:43+00:00	2020-12-11T11:57:43-08:00	2020-12-11T20:23:42+00:00	2020-12-16T07:59:59+00:00	-5	j2fg3t226cs495s@marketplace.amazon.com	Melinda Harriman	+1 763-225-9463 ext. 47140	ABC002	Delivery by Wednesday, Dec 16 Warm Wishes Bouquet by Arabella Bouquets	1	0	1	Expedited	Charles Harriman and Judy	2447 BREAKWATER WAY UNIT 8-102			NAPLES	FL	34112-5984	US			false		
112-7193106-0689043	09568004314290	2020-12-11T19:58:56+00:00	2020-12-11T11:58:56-08:00	2020-12-11T20:27:28+00:00	2020-12-16T07:59:59+00:00	-5	jvn5mlky2fxj3wv@marketplace.amazon.com	Jana Schnellman	+1 415-419-8616 ext. 65304	ABR001	Delivery by Tuesday, December 15 Dozen Red Roses in a Free Vase by Arabella Bouquets	1	0	1	Expedited	Sandra Schnellman	1640 155TH LN NW APT 234			ANDOVER	MN	55304-2655	US		Merry Christmas!  We love you! From Jana and John	false		
112-3080817-4813064	06578738496658	2020-12-11T20:02:57+00:00	2020-12-11T12:02:57-08:00	2020-12-11T20:31:30+00:00	2020-12-16T07:59:59+00:00	-5	433qfz6mdt49l6s@marketplace.amazon.com	lena Sue Gott	+1 213-442-1463 ext. 83654	ABR001	Delivery by Tuesday, December 15 Dozen Red Roses in a Free Vase by Arabella Bouquets	1	0	1	Expedited	Linda Faries	102 COTTONWOOD ST			COMANCHE	TX	76442-2029	US		Merry Christmas, my friend.  Sue From lena Sue Gott	false		
112-6095826-4941025	64632805061626	2020-12-11T20:08:41+00:00	2020-12-11T12:08:41-08:00	2020-12-11T20:38:04+00:00	2020-12-16T07:59:59+00:00	-5	fpr01q3wf4b8j51@marketplace.amazon.com	Janice M Hounsel	+1 415-419-8616 ext. 66212	ABR0066	Delivery by Wednesday, December 15 Dozen White Roses in a Free Vase by Arabella Bouquets	1	0	1	Expedited	Janice M Hounsel	4205 S 253rd st			Kent	WA	98032	US		Thinking of you and your family during this difficult time. Our thoughts and prayers are with you. From St. Francis PACU staff	false		
112-8627140-8347469	50276773647322	2020-12-11T20:10:28+00:00	2020-12-11T12:10:28-08:00	2020-12-11T20:40:05+00:00	2020-12-16T07:59:59+00:00	-5	fb3ksxpxnhl3hsg@marketplace.amazon.com	Mrs Rhonda Fleming	+1 619-854-2705 ext. 14628	ABC001	Delivery by Wednesday, Dec 16 Seasons Greetings Bouquet by Arabella Bouquets	1	0	1	Standard	Mrs Marilyn Markey	421 S CLARK ST ORCHARD VIEW	APT 213		CARROLL	IA	51401-3032	US			false		
111-4201567-7838667	48798170230186	2020-12-11T20:14:20+00:00	2020-12-11T12:14:20-08:00	2020-12-11T20:41:35+00:00	2020-12-16T07:59:59+00:00	-5	37ljqzkndt0zr8g@marketplace.amazon.com	Dr.Carolee A. DeVito	+1 619-854-2705 ext. 36344	ABR0022	Delivery by Tuesday, December 15 Dozen Pink Roses with a Free Vase by Arabella Bouquets	1	0	1	Expedited	Carolee Zubkoff	780 QUINIBECK RD			FAIRLEE	VT	05045-9645	US		Happiest Birthday dear Kailey! Love, Bill, Carolee, Kylie, Dottie snd Mews From Dr.Carolee A. DeVito	false		
112-3458221-8255419	37562548291074	2020-12-11T20:16:18+00:00	2020-12-11T12:16:18-08:00	2020-12-11T20:42:39+00:00	2020-12-16T07:59:59+00:00	-5	f3z28g9qg85n87g@marketplace.amazon.com	Linda F Rubio	+1 480-618-5344 ext. 94454	ABM0033	Delivery by Tuesday, Dec 15 White Hydrangea 5 Stems with a Free Glass Vase by Arabella Bouquets	1	0	1	Expedited	Bethany Merz	107 EARL ST			WALBRIDGE	OH	43465-1111	US		For your bday and beyond, I hope. The blooms should thrive even while you’re away at the lake.  Fingers crossed. From Tía	false		
111-0214482-9034657	64097306336394	2020-12-11T20:19:36+00:00	2020-12-11T12:19:36-08:00	2020-12-11T20:47:27+00:00	2020-12-16T07:59:59+00:00	-5	rw5ytv1jlmg5r78@marketplace.amazon.com	Ruth Escher	+1 213-442-1463 ext. 41011	ABR0022	Delivery by Tuesday, December 15 Dozen Pink Roses with a Free Vase by Arabella Bouquets	1	0	1	Expedited	MRS. JOAN ESCHER	care of Good Shepherd Health Center	302 2nd Street		MASON CITY	IA	50401	US		HAPPY BIRTHDAY JOAN!! with LOTS of LOVE From Steve, Ruth, Anna and Will	false		
112-2165501-6856201	00002981601282	2020-12-11T20:23:53+00:00	2020-12-11T12:23:53-08:00	2020-12-11T20:49:58+00:00	2020-12-16T07:59:59+00:00	-5	ypv82vkr05mfkxh@marketplace.amazon.com	Carolyn Paredes	+1 415-851-9136 ext. 24029	ABR0022	Delivery by Tuesday, December 15 Dozen Pink Roses with a Free Vase by Arabella Bouquets	1	0	1	Expedited	Linda Anderson	14 W 500 S			MONA	UT	84645-7808	US		We’re praying for you, Love, John & Carolyn	false		
111-1336726-3398640	63227366716442	2020-12-11T20:25:11+00:00	2020-12-11T12:25:11-08:00	2020-12-11T20:54:08+00:00	2020-12-16T07:59:59+00:00	-5	5wwbc968fvk0m69@marketplace.amazon.com	Christi etie	+1 213-442-1463 ext. 61425	ABR0022	Delivery by Tuesday, December 15 Dozen Pink Roses with a Free Vase by Arabella Bouquets	1	0	1	Expedited	Patricia walker	14311 SE 15TH ST			VANCOUVER	WA	98683-7537	US		Merry Xmas mother..ilove you...christi From Christi etie	false		
113-9531169-4524244	04498890606194	2020-12-11T20:26:33+00:00	2020-12-11T12:26:33-08:00	2020-12-11T20:54:37+00:00	2020-12-16T07:59:59+00:00	-5	jdprt6ztc7mx7qn@marketplace.amazon.com	Mary Jean Traill	+1 763-225-9463 ext. 74170	ABC001	Delivery by Wednesday, Dec 16 Seasons Greetings Bouquet by Arabella Bouquets	1	0	1	Standard	Kathleen Kaminsky	98 ALHAMBRA DR			OCEANSIDE	NY	11572-5425	US		Happy Birthday to our forever friend!  We love you and hope you enjoy your day!!! From The Comis & The Traills From The Comis & The Traills	false		
114-4828729-8690644	36272323750546	2020-12-11T20:28:24+00:00	2020-12-11T12:28:24-08:00	2020-12-11T20:58:33+00:00	2020-12-16T07:59:59+00:00	-5	ltrv16jbmlpf24q@marketplace.amazon.com	Mindy	+1 619-854-2705 ext. 11072	ABR0022	Delivery by Tuesday, December 15 Dozen Pink Roses with a Free Vase by Arabella Bouquets	1	0	1	Expedited	Mary Elizabeth Bergum, almost RN	5037 Shimerville Rd			Clarence	NY	14031	US			false		
112-9859619-7033859	61492974854442	2020-12-11T20:43:41+00:00	2020-12-11T12:43:41-08:00	2020-12-11T21:08:51+00:00	2020-12-16T07:59:59+00:00	-5	xwg29tzhfqxnl0l@marketplace.amazon.com	Gabriel Garduno	+1 619-854-2705 ext. 79362	ABR0033	Delivery by Tuesday, December 15, December 15 Dozen Orange Roses in a Free Vase by Arabella Bouquets	1	0	1	Expedited	Peg Crawford	905 FAULKWOOD CT			SARASOTA	FL	34232-2549	US		Happy Birthday Peg!  Love 💜💜💜 Gabriel, Claire & Lori From The Gardunos	false		
112-6443866-6873033	34874995011930	2020-12-10T18:47:18+00:00	2020-12-10T10:47:18-08:00	2020-12-11T21:11:19+00:00	2020-12-16T07:59:59+00:00	-5	v76d66gs2pnthzx@marketplace.amazon.com	Andrew	+1 213-442-1463 ext. 65654	ABR001	Delivery by Saturday, December 12 Dozen Red Roses in a Free Glass Vase by Arabella Bouquets	1	0	1	Expedited	Kate Centola	1 UNIVERSITY AVE	MONTCLAIR STATE UNIVERSITY RUSS HALL RM 217B		UPPER MONTCLAIR	NJ	07043-1624	US		Miss you touching me already.  Can’t wait till your home again and we can be alone.   Yours foreva From Bae	false		
112-3942827-7312212	55927482103210	2020-12-11T20:49:15+00:00	2020-12-11T12:49:15-08:00	2020-12-11T21:15:52+00:00	2020-12-16T07:59:59+00:00	-5	gyn2ytbv5ll7yjg@marketplace.amazon.com	Vivian Johnson	+1 619-854-2705 ext. 14093	ABR0033	Delivery by Tuesday, December 15, December 15 Dozen Orange Roses in a Free Vase by Arabella Bouquets	1	0	1	Expedited	Monica Readus	4570 S HIGHWAY A1A			MELBOURNE BEACH	FL	32951-3613	US		Have a beautiful day! Thanks for being my friend. From Vivian Johnson	false		
113-1038334-3891427	29375321759722	2020-12-11T20:45:49+00:00	2020-12-11T12:45:49-08:00	2020-12-11T21:16:07+00:00	2020-12-16T07:59:59+00:00	-5	5spnft195q34m89@marketplace.amazon.com	Derek Abakanowicz	+1 213-442-1463 ext. 05613	ABM026	Delivery by Tuesday, Dec 15 Amour Bouquet by Arabella Bouquets	1	0	1	Standard	Derek M Abakanowicz	4242 N CAPISTRANO DR APT 124			DALLAS	TX	75287-4035	US			false		
112-8265277-9805831	25903915746058	2020-12-11T20:54:36+00:00	2020-12-11T12:54:36-08:00	2020-12-11T21:18:11+00:00	2020-12-16T07:59:59+00:00	-5	fpr01q3wf4b8j51@marketplace.amazon.com	Janice M Hounsel	+1 415-851-9136 ext. 83878	ABR0066	Delivery by Wednesday, December 15 Dozen White Roses in a Free Vase by Arabella Bouquets	1	0	1	Expedited	Liliya Borsuk	10929 SE 324TH LN			AUBURN	WA	98092-4770	US		Our deepest condolences to you and your family Lily. Our thoughts and prayers are with you. From St. Francis PACU staff	false		
112-0539136-9569814	10103821582282	2020-12-11T20:51:34+00:00	2020-12-11T12:51:34-08:00	2020-12-11T21:19:06+00:00	2020-12-16T07:59:59+00:00	-5	h91qbd23rjs6clc@marketplace.amazon.com	myriah junes	+1 619-854-2705 ext. 89070	ABR0066	Delivery by Wednesday, December 15 Dozen White Roses in a Free Vase by Arabella Bouquets	1	0	1	Standard	Tammy Garland	7150 PARSONS BLVD APT 3N			FLUSHING	NY	11365-4104	US		Merry Christmas!  Sending love all the way from Oregon. From The Junes Family	false		
112-6931491-2924213	24853455265418	2020-12-11T20:52:04+00:00	2020-12-11T12:52:04-08:00	2020-12-11T21:22:20+00:00	2020-12-16T07:59:59+00:00	-5	jzpgtnzvvwz2y7m@marketplace.amazon.com	dan w pascoe	+1 213-442-1463 ext. 30479	ABR0022	Delivery by Tuesday, December 15 Dozen Pink Roses with a Free Vase by Arabella Bouquets	1	0	1	Expedited	dan w pascoe	137 N DENVER AVE			KANSAS CITY	MO	64123-1333	US			false		
113-8238217-7912201	48138586141970	2020-12-11T20:52:25+00:00	2020-12-11T12:52:25-08:00	2020-12-11T21:22:47+00:00	2020-12-16T07:59:59+00:00	-5	1kzlhqt5qq99gb3@marketplace.amazon.com	Maikao Grare	+1 213-442-1463 ext. 55949	ABR015	Delivery by Tuesday, Dec 15 Arabella Farm Direct Bouquet of 18 Fresh Cut Orange Roses with a Free Glass Vase	1	0	1	Expedited	Maikao Grare	5809 BROADWAY			OAKLAND	CA	94618-1524	US			false		
111-6310862-4275434	52261398657522	2020-12-11T21:06:23+00:00	2020-12-11T13:06:23-08:00	2020-12-11T21:33:20+00:00	2020-12-16T07:59:59+00:00	-5	n452x7g1ppq5zb9@marketplace.amazon.com	Brad Taylor	+1 415-419-8616 ext. 32789	ABR0022	Delivery by Tuesday, December 15 Dozen Pink Roses with a Free Vase by Arabella Bouquets	1	0	1	Expedited	Linda Lowther	19616 MIDLAND DR			REDDING	CA	96003-8014	US		Happy Birthday! From Love Brad, Lisa, Sloan, Joey and Jake	false		
112-6245844-2805839	22821736436770	2020-12-11T21:14:31+00:00	2020-12-11T13:14:31-08:00	2020-12-11T21:45:17+00:00	2020-12-16T07:59:59+00:00	-5	yfm2q4pphh5swx9@marketplace.amazon.com	Amberly Sohm	+1 415-851-9136 ext. 96627	ABR0022	Delivery by Tuesday, December 15 Dozen Pink Roses with a Free Vase by Arabella Bouquets	1	0	1	Expedited	Amberly Sohm	522 15TH ST APT B			HUNTINGTON BEACH	CA	92648-4093	US			false		
113-6869049-8416248	30833673089178	2020-12-11T21:17:34+00:00	2020-12-11T13:17:34-08:00	2020-12-11T21:46:06+00:00	2020-12-16T07:59:59+00:00	-5	yt237xq1wq696x7@marketplace.amazon.com	Robert	+1 415-851-9136 ext. 80370	ABR0022	Delivery by Tuesday, December 15 Dozen Pink Roses with a Free Vase by Arabella Bouquets	1	0	1	Expedited	Bonnie Abrams	3282 HURRICANE DR			LAKE WORTH	FL	33462-3628	US		Enjoy your gift! Merry Christmas we love you From Robert and Amber	false		
112-1871549-6756254	29770648797098	2020-12-11T21:20:02+00:00	2020-12-11T13:20:02-08:00	2020-12-11T21:50:02+00:00	2020-12-16T07:59:59+00:00	-5	2224ccjwynzmny6@marketplace.amazon.com	James Bonner	+1 602-671-6610 ext. 85898	ABM022	Delivery by Tuesday, Dec 15, Purple Extravagance Bouquet by Arabella Bouquets	1	0	1	Standard	James Bonner	6057 gordonsville road			KESWICK	VA	22947	US		Merry Christmas! From James Bonner	false		
114-6935918-0902618	38241095429906	2020-12-11T21:24:13+00:00	2020-12-11T13:24:13-08:00	2020-12-11T21:52:16+00:00	2020-12-16T07:59:59+00:00	-5	10rlx11cszj3vxv@marketplace.amazon.com	Shakita Calhoun	+1 346-307-9643 ext. 81110	ABR0022	Delivery by Tuesday, December 15 Dozen Pink Roses with a Free Vase by Arabella Bouquets	1	0	1	Expedited	Zelphia calhoun	71 AMBOY ST			BROOKLYN	NY	11212-5024	US		Happy Birthday mommy love kita! From Shakita Calhoun	false		
111-7139203-3729065	65400031952770	2020-12-11T21:30:23+00:00	2020-12-11T13:30:23-08:00	2020-12-11T21:53:04+00:00	2020-12-16T07:59:59+00:00	-5	bv1j5jbjjprrvq1@marketplace.amazon.com	Mark Leslie	+1 415-851-9136 ext. 78197	ABM020	Delivery by Tuesday, Dec 15 Sunset Bouquet by Arabella Bouquets	1	0	1	Expedited	Aida Cabrera	11511 NW 22ND ST			PEMBROKE PINES	FL	33026-2005	US		Dear Aida, Thinking of you and keeping you in our prayers.  Love, Ann and Mark From Mark Leslie	false		
112-0303762-7037074	16810069423514	2020-12-11T21:23:15+00:00	2020-12-11T13:23:15-08:00	2020-12-11T21:53:50+00:00	2020-12-16T07:59:59+00:00	-5	yfm2q4pphh5swx9@marketplace.amazon.com	Amberly Sohm	+1 763-225-9463 ext. 36902	ABR0022	Delivery by Tuesday, December 15 Dozen Pink Roses with a Free Vase by Arabella Bouquets	1	0	1	Expedited	Amberly Sohm	522 15TH ST APT B			HUNTINGTON BEACH	CA	92648-4093	US			false		
111-2035706-4044221	60190955963090	2020-12-11T21:36:45+00:00	2020-12-11T13:36:45-08:00	2020-12-11T22:04:04+00:00	2020-12-16T07:59:59+00:00	-5	0k2p1hqk9wgpvg1@marketplace.amazon.com	Lydia Swearinger	+1 213-442-1463 ext. 41582	ABC001	Delivery by Wednesday, Dec 16 Seasons Greetings Bouquet by Arabella Bouquets	1	0	1	Expedited	Pat Backer	2295 37TH ST			MANDAN	ND	58554-8236	US		Our Deepest Sympathy From LaVerne, Lori, Greg, Lydia	false		
113-8336727-2909020	42337224172730	2020-12-11T21:40:34+00:00	2020-12-11T13:40:34-08:00	2020-12-11T22:09:43+00:00	2020-12-16T07:59:59+00:00	-5	r85h2635zkgfgs1@marketplace.amazon.com	Eric Lippincott	+1 415-851-9136 ext. 84113	ABB014	Delivery by Wednesday, Dec 16 Arabella Bouquets Farm Direct 48 Fresh Cut White Roses	1	0	1	Standard	Eric Lippincott	304 Garden Trail			Michigan City	IN	46360-2710	US			false		
111-3694667-3513818	56482983309314	2020-12-11T13:28:10+00:00	2020-12-11T05:28:10-08:00	2020-12-11T22:10:40+00:00	2020-12-16T07:59:59+00:00	-5	tmzbxd03cfj7gg0@marketplace.amazon.com	Talhia Remy	+1 346-307-9643 ext. 75706	ABM002	Delivery by Tuesday, Dec 15 White Calla Lilies in a Free Designer Glass Vase by Arabella Bouquets	1	0	1	Expedited	Talhia Remy	2 lake drive south			Valley Stream	NY	11580	US		Congratulations  So proud of you Keep shining  Love you From Talhia Remy	false		
113-6915880-1465039	17646251325434	2020-12-11T21:38:37+00:00	2020-12-11T13:38:37-08:00	2020-12-11T22:13:05+00:00	2020-12-16T07:59:59+00:00	-5	kvpdrrtcqydjf5l@marketplace.amazon.com	angela estevez	+1 602-671-6610 ext. 33420	ABR0066	Delivery by Wednesday, December 15 Dozen White Roses in a Free Vase by Arabella Bouquets	1	0	1	Expedited	Suzie Brunk	8372 ENCHANTED WAY SE SPC 207			TURNER	OR	97392-9334	US			false		
114-5792120-7245842	43906369150754	2020-12-11T21:46:58+00:00	2020-12-11T13:46:58-08:00	2020-12-11T22:15:28+00:00	2020-12-16T07:59:59+00:00	-5	wsn3wzpcgfrrzmh@marketplace.amazon.com	Fox Property Management	+1 480-618-5344 ext. 80278	ABM022	Delivery by Tuesday, Dec 15, Purple Extravagance Bouquet by Arabella Bouquets	1	0	1	Expedited	Claire Marie	2855 ROCK CREEK CIR UNIT 201			SUPERIOR	CO	80027-4618	US		Claire, THANK YOU for another great year of working together and all you do for us all! Happy Work Anniversary from your Fox Family! From Fox Property Management	false		
114-7431450-3185041	08044262433722	2020-12-11T21:46:16+00:00	2020-12-11T13:46:16-08:00	2020-12-11T22:18:51+00:00	2020-12-16T07:59:59+00:00	-5	7s8k2bvh218jh4g@marketplace.amazon.com	Suzanne P Stenger	+1 346-307-9643 ext. 22469	ABR0022	Delivery by Tuesday, December 15 Dozen Pink Roses with a Free Vase by Arabella Bouquets	1	0	1	Standard	Jill F Darby	3304 PARK HAVEN BLVD			DANVILLE	IL	61832-1201	US		Happy birthday Jill! I hope you enjoy your day! Your 40 and fabulous!! Love, Suzanne From Suzanne Muskovich	false		
112-0086448-3218662	41429281132730	2020-12-11T22:01:41+00:00	2020-12-11T14:01:41-08:00	2020-12-11T22:29:40+00:00	2020-12-16T07:59:59+00:00	-5	myd3b4vsbcm6k59@marketplace.amazon.com	DALE W. Armstrong, Sr.	+1 763-225-9463 ext. 35273	ABM020	Delivery by Tuesday, Dec 15 Sunset Bouquet by Arabella Bouquets	1	0	1	Expedited	Michelle Hass	10632 FOXBERRY PARK DR			RENO	NV	89521-8380	US		Feel better soon From Mom Dad and Cody xox	false		
114-2652297-5108241	16346298561234	2020-12-11T22:04:51+00:00	2020-12-11T14:04:51-08:00	2020-12-11T22:35:30+00:00	2020-12-16T07:59:59+00:00	-5	0087xjs1bxy0rf6@marketplace.amazon.com	James Hall	+1 213-442-1463 ext. 37695	ABR0033	Delivery by Tuesday, December 15, December 15 Dozen Orange Roses in a Free Vase by Arabella Bouquets	1	0	1	Expedited	James Hall	6415 STUEBNER AIRLINE RD			HOUSTON	TX	77091-3321	US			false		
114-5471483-4170660	03617917176842	2020-12-11T22:06:56+00:00	2020-12-11T14:06:56-08:00	2020-12-11T22:35:48+00:00	2020-12-16T07:59:59+00:00	-5	qj6f1k0dydlb6fh@marketplace.amazon.com	melissa moore	+1 415-419-8616 ext. 79892	ABM017	Delivery by Monday, Dec 14 Blue Dendrobium Orchids 10 Stems in a Free Designer Glass Vase by Arabella Bouquets	1	0	1	Expedited	Maureen moore	520 ZION RD			EGG HARBOR TOWNSHIP	NJ	08234-5925	US		Happy Birthday!!! From Melissa and Billy	false		
114-8027964-4830656	55751333797914	2020-12-11T22:06:16+00:00	2020-12-11T14:06:16-08:00	2020-12-11T22:36:46+00:00	2020-12-16T07:59:59+00:00	-5	0g1bk2fq117c5y5@marketplace.amazon.com	maria reyes	+1 480-618-5344 ext. 34081	ABR0033	Delivery by Tuesday, December 15, December 15 Dozen Orange Roses in a Free Vase by Arabella Bouquets	1	0	1	Expedited	Tomasita Coronado	2631 S 25TH AVE			YUMA	AZ	85364-6829	US			false		
111-7116630-8658666	37517387955522	2020-12-11T22:07:50+00:00	2020-12-11T14:07:50-08:00	2020-12-11T22:37:31+00:00	2020-12-16T07:59:59+00:00	-5	lk5gg4w9k688s11@marketplace.amazon.com	Jennifer Izzo	+1 415-851-9136 ext. 72081	ABM022	Delivery by Tuesday, Dec 15, Purple Extravagance Bouquet by Arabella Bouquets	1	0	1	Expedited	Tracy Belton	118 4TH ST			GARDEN CITY	NY	11530-5934	US		Happy Birthday Tracy!! Love, Joe, Jen, Skye, Jade, & T-Bone From Jennifer Romano	false		
114-9894725-1477838	57803050906490	2020-12-11T22:11:50+00:00	2020-12-11T14:11:50-08:00	2020-12-11T22:39:36+00:00	2020-12-16T07:59:59+00:00	-5	cq47w6fmpjzrtyd@marketplace.amazon.com	Kathy	+1 602-671-6610 ext. 00107	ABR004	Delivery by Tuesday, December 15 Dozen Yellow Roses in a Free Vase by Arabella Bouquets	1	0	1	Expedited	Jenny Wade	5200 FM 715			MIDLAND	TX	79706-6540	US		Happy birthday I love you very much! Kathy and family From Kathy	false		
113-9705238-0833046	46646019318482	2020-12-11T22:10:30+00:00	2020-12-11T14:10:30-08:00	2020-12-11T22:39:39+00:00	2020-12-16T07:59:59+00:00	-5	fd1r1t3mzdbvmph@marketplace.amazon.com	Tracy Bush	+1 415-851-9136 ext. 59849	ABC001	Delivery by Wednesday, Dec 16 Seasons Greetings Bouquet by Arabella Bouquets	1	0	1	Expedited	Sarah Peace	1848 KETCH PL			OAK HARBOR	WA	98277-8512	US		Thank you for all you do for me. You have been so great to work with! Have a Merry Christmas! From Tracy Bush (CAD of Puget Sound)	false		
113-1949085-8966631	34876570678770	2020-12-11T22:10:17+00:00	2020-12-11T14:10:17-08:00	2020-12-11T22:39:43+00:00	2020-12-16T07:59:59+00:00	-5	nxqcl4wyykt2bx5@marketplace.amazon.com	Jason Kalafarski	+1 415-419-8616 ext. 94388	ABM022	Delivery by Tuesday, Dec 15, Purple Extravagance Bouquet by Arabella Bouquets	1	0	1	Expedited	Malgorzata  Kubaska	7 COTTAGE ST			WARE	MA	01082-1105	US		Merry Christmas!!! Miss you very much  Love Jason and Rebecca From Jason Kalafarski	false		
112-4917273-6429014	57548260055466	2020-12-11T21:40:03+00:00	2020-12-11T13:40:03-08:00	2020-12-11T22:42:01+00:00	2020-12-16T07:59:59+00:00	-5	ds5f69q8fb6hcn2@marketplace.amazon.com	Patrik Stjernquist	+1 213-442-1463 ext. 82538	ABM017	Delivery by Monday, Dec 14 Blue Dendrobium Orchids 10 Stems in a Free Designer Glass Vase by Arabella Bouquets	1	0	1	Expedited	Barbro Stjernquist	592 Starfish Drive			Port Isabel	texas	78578	US		Thank you for everything you do for my family. May this little gift show you how much you mean to us. Love you. Merry Christmas Mom From Tammy	false		
114-6757020-7211411	05898735421498	2020-12-11T22:13:44+00:00	2020-12-11T14:13:44-08:00	2020-12-11T22:43:00+00:00	2020-12-16T07:59:59+00:00	-5	cfb1d4xlvwnvh2y@marketplace.amazon.com	Lynda Morales	+1 619-854-2705 ext. 53108	ABM017	Delivery by Monday, Dec 14 Blue Dendrobium Orchids 10 Stems in a Free Designer Glass Vase by Arabella Bouquets	1	0	1	Expedited	Gladys Sexton	1955 COAL CITY RD			COAL CITY	WV	25823-9627	US		Enjoy your gift! Merry Christmas!! We love you so much! Wishing we could be together! From Lynda Morales	false		
111-9460261-8529841	61914452276458	2020-12-11T22:15:29+00:00	2020-12-11T14:15:29-08:00	2020-12-11T22:43:18+00:00	2020-12-16T07:59:59+00:00	-5	f0t9vr60669t26g@marketplace.amazon.com	Alexander A Dwivedi	+1 415-851-9136 ext. 46174	ABM017	Delivery by Monday, Dec 14 Blue Dendrobium Orchids 10 Stems in a Free Designer Glass Vase by Arabella Bouquets	1	0	1	Expedited	Gita Verma	41962 GREENLOOK LN			ASHBURN	VA	20148-4884	US		Thank you for all your support. Happy Holidays! From Rachel Dwivedi	false		
112-9447077-4026663	42407285926314	2020-12-11T22:21:05+00:00	2020-12-11T14:21:05-08:00	2020-12-11T22:44:03+00:00	2020-12-16T07:59:59+00:00	-5	wylp5n6yc6l4lk2@marketplace.amazon.com	Florence Speers	+1 213-442-1463 ext. 95657	ABM020	Delivery by Tuesday, Dec 15 Sunset Bouquet by Arabella Bouquets	1	0	1	Expedited	SPEERS	8401 WOODBRANCH CT			McLean	VA	22102-1755	US		HAPPY BIRTHDAY SUSIE!!!!!!! Love, Ron and Flo From Florence Speers	false		
113-5324510-2267415	25848307080770	2020-12-11T22:47:52+00:00	2020-12-11T14:47:52-08:00	2020-12-11T22:48:59+00:00	2020-12-16T07:59:59+00:00	-5	t922dvw2vxb80pw@marketplace.amazon.com	Maria Gervasio	+1 415-851-9136 ext. 56921	ABR004	Delivery by Tuesday, December 15 Dozen Yellow Roses in a Free Vase by Arabella Bouquets	1	0	1	Expedited	JoAnn Munfield	2828 PONKAN PINES DR			APOPKA	FL	32712-5624	US		Dearest JoAnn, Have a happy, safe, healthy, and pain-free holiday season!  Take care always. Love, Pie From Maria Gervasio	false		
114-0865878-6351437	29254666799178	2020-12-11T22:24:43+00:00	2020-12-11T14:24:43-08:00	2020-12-11T22:51:34+00:00	2020-12-16T07:59:59+00:00	-5	ykcxrn0hf5ff2dj@marketplace.amazon.com	Patrick A Kosecki	+1 415-851-9136 ext. 25465	ABR0022	Delivery by Tuesday, December 15 Dozen Pink Roses with a Free Vase by Arabella Bouquets	1	0	1	Expedited	Dr. Daniel Morgan	3618 WASHOE ST			DAVIS	CA	95618-5087	US		Sending our love to all of you From Patrick, Sharon and Alex Kosecki	false		
112-6107402-4609863	42743321487770	2020-12-11T22:23:13+00:00	2020-12-11T14:23:13-08:00	2020-12-11T22:53:16+00:00	2020-12-16T07:59:59+00:00	-5	8pfp2jn611t0pgq@marketplace.amazon.com	John Vasky		ABR0022	Delivery by Tuesday, December 15 Dozen Pink Roses with a Free Vase by Arabella Bouquets	1	0	1	Expedited	JOHN M VASKY	15028 AVENIDA COMPADRES			CHINO HILLS	CA	91709	US			false		
113-4660852-8011406	17591648489738	2020-12-11T22:24:08+00:00	2020-12-11T14:24:08-08:00	2020-12-11T22:54:24+00:00	2020-12-16T07:59:59+00:00	-5	6b3x33wvct2jw16@marketplace.amazon.com	ROBERT HUTTER	+1 619-854-2705 ext. 15318	ABM022	Delivery by Tuesday, Dec 15, Purple Extravagance Bouquet by Arabella Bouquets	1	0	1	Expedited	ANN GAEBEL	337 DEER PARK AVE			DIX HILLS	NY	11746	US			false		
112-6413751-6600223	60466263557546	2020-12-11T22:25:09+00:00	2020-12-11T14:25:09-08:00	2020-12-11T22:54:37+00:00	2020-12-16T07:59:59+00:00	-5	7lhql8bbrncn622@marketplace.amazon.com	Eric Byers	+1 763-225-9463 ext. 83638	ABR001	Delivery by Tuesday, December 15 Dozen Red Roses in a Free Vase by Arabella Bouquets	1	0	1	Expedited	Eric R Byers	2706 OLD BETHEL RD			IUKA	IL	62849-2254	US		I love you <3 From Eric Byers	false		
112-4930170-2680258	03040317232914	2020-12-11T22:31:47+00:00	2020-12-11T14:31:47-08:00	2020-12-11T22:59:16+00:00	2020-12-16T07:59:59+00:00	-5	sdxnzdp31fj0vkb@marketplace.amazon.com	Charlynne Whittock	+1 480-618-5344 ext. 71276	ABM025	Delivery by Tuesday, Dec 15 Fell for You Bouquet by Arabella Bouquets	1	0	1	Standard	Kristine Baker	3810 ADAMS ST			CARLSBAD	CA	92008-3403	US		Happy Birthday beautiful daughter, some flowers to send my love and wishing you all the best. Love, Mom From Charlynne Whittock	false		
113-2230715-8794612	37361089826738	2020-12-11T22:44:35+00:00	2020-12-11T14:44:35-08:00	2020-12-11T23:11:12+00:00	2020-12-16T07:59:59+00:00	-5	c8r5hw9mt7pg736@marketplace.amazon.com	Arpi Mekhjian	+1 213-442-1463 ext. 47623	ABR012	Delivery by Tuesday, Dec 15 Arabella Farm Direct Bouquet of 18 Fresh Cut Pink Roses with a Free Glass Vase	1	0	1	Expedited	Salpi Mekhjian	255 E 55TH ST APT 38A			NEW YORK	NY	10022-4001	US		Dear Salp,  Happy Birthday! Have great day on your special day and let's hope to celebrate in person next year. Sending you lots of hugs (even tho you don’t like them ;-) Arp From Arpi Mekhjian	false		
112-1818635-2488210	39467208058890	2020-12-11T22:48:58+00:00	2020-12-11T14:48:58-08:00	2020-12-11T23:12:28+00:00	2020-12-16T07:59:59+00:00	-5	d1hf8pr2rx2clb1@marketplace.amazon.com	Matthew Hickingbotham	+1 763-225-9463 ext. 65653	ABR001	Delivery by Tuesday, December 15 Dozen Red Roses in a Free Vase by Arabella Bouquets	1	0	1	Expedited	Cristina Ratley	288 WALLER SCHOOL RD			STURGIS	KY	42459-6472	US		Happy Birthday Babe. You are absolutely amazing and never fail to keep making me more and more proud of you. You make me feel so lucky to call such an absolutely gorgeous woman mine. I love you and miss you so much. From Matthew	false		
111-3738960-5581059	22604721049362	2020-12-11T22:50:07+00:00	2020-12-11T14:50:07-08:00	2020-12-11T23:18:24+00:00	2020-12-16T07:59:59+00:00	-5	ygl3qbq206nnqd0@marketplace.amazon.com	Mary Lee Thrasher	301461265	ABR0022	Delivery by Tuesday, December 15 Dozen Pink Roses with a Free Vase by Arabella Bouquets	1	0	1	Expedited	Kathy and Frank Cicirello	100 MILLSTONE LN			PITTSBURGH	PA	15238-1624	US		Dear Kathy and Frank, Happy Holidays to you and the family!  We look forward to being together with you in August and wish you a happy and healthy new year. From Mary and Jim	false		
111-8843990-1749819	11135780827554	2020-12-11T22:54:42+00:00	2020-12-11T14:54:42-08:00	2020-12-11T23:22:15+00:00	2020-12-16T07:59:59+00:00	-5	3r6611yknckgzpb@marketplace.amazon.com	Tanya K. Rublaitus	+1 415-851-9136 ext. 32587	ABM010	Delivery by Tuesday, Dec 15 Everlasting Fling with a Free Glass Vase by Arabella Bouquets	1	0	1	Expedited	Carrie Heins	2501 COOK AVE			PORT TOWNSEND	WA	98368-1015	US		We are sending you lots of love and light during this difficult time.  LIPEO, Your IZ sisters From Tanya K. Rublaitus	false		
111-6769086-3880258	55743813751146	2020-12-11T23:10:09+00:00	2020-12-11T15:10:09-08:00	2020-12-11T23:29:41+00:00	2020-12-16T07:59:59+00:00	-5	w4t013b6l0029m8@marketplace.amazon.com	Teal Furnholm	+1 763-225-9463 ext. 43955	ABM031	Delivery by Tuesday, Dec 15 The Harvest Moon Bouquet by Arabella Bouquets	1	0	1	Expedited	Rhonda Jersild	6087 PILLORY DR			INDIANAPOLIS	IN	46254-5042	US		Merry Christmas Rhonda! From Teal Furnholm	false		
111-8640541-2590656	38295504538266	2020-12-11T23:03:06+00:00	2020-12-11T15:03:06-08:00	2020-12-11T23:30:27+00:00	2020-12-16T07:59:59+00:00	-5	vh993jkyvkxyb03@marketplace.amazon.com	MaryPat Davitz	+1 415-851-9136 ext. 86305	ABM021	Delivery by Tuesday, Dec 15 Joyous Bouquet by Arabella Bouquets	1	0	1	Expedited	Caty Beilsmith	20 CADES CV			SAINT CHARLES	MO	63301-8727	US		Hope this brightens your day and reminds you to focus on joys of family. Take care of yourself. Congratulations! From MaryPat Davitz	false		
111-1086330-0844226	40460158437874	2020-12-11T23:00:46+00:00	2020-12-11T15:00:46-08:00	2020-12-11T23:31:17+00:00	2020-12-16T07:59:59+00:00	-5	yl9gwv5tnbx85cg@marketplace.amazon.com	christopher j. bond	+1 415-851-9136 ext. 05854	ABR004	Delivery by Tuesday, December 15 Dozen Yellow Roses in a Free Vase by Arabella Bouquets	1	0	1	Expedited	Tracy Wellens	5618 SW ADMIRAL WAY			SEATTLE	WA	98116-3111	US			false		
112-7611361-9322654	70002273440786	2020-12-11T23:08:31+00:00	2020-12-11T15:08:31-08:00	2020-12-11T23:36:24+00:00	2020-12-16T07:59:59+00:00	-5	z9d63120hgvlf5f@marketplace.amazon.com	Cassandra Herrera	+1 213-442-1463 ext. 93417	ABR0033	Delivery by Tuesday, December 15, December 15 Dozen Orange Roses in a Free Vase by Arabella Bouquets	1	0	1	Expedited	Billie Villagas	2004 STANFORD ST			LAS CRUCES	NM	88005-6501	US			false		
113-4047817-4808204	65522456967642	2020-12-11T23:14:36+00:00	2020-12-11T15:14:36-08:00	2020-12-11T23:43:52+00:00	2020-12-16T07:59:59+00:00	-5	ky7d7b7d7ybqnhv@marketplace.amazon.com	Lauren Prepchuk	+1 346-307-9643 ext. 18798	ABR001	Delivery by Tuesday, December 15 Dozen Red Roses in a Free Vase by Arabella Bouquets	1	0	1	Expedited	Grammy and Mike Kerins	102 ROCK GLEN RD			WYNNEWOOD	PA	19096-3806	US		Happy holidays Grammy!  We love you. From Max and Wyatt	false		
111-4787904-0833017	69681471274026	2020-12-11T23:14:02+00:00	2020-12-11T15:14:02-08:00	2020-12-11T23:52:35+00:00	2020-12-16T07:59:59+00:00	-5	0n1v1q317xvm5vb@marketplace.amazon.com	Lindsay Espenship	+1 480-618-5344 ext. 12035	ABR0022	Delivery by Tuesday, December 15 Dozen Pink Roses with a Free Vase by Arabella Bouquets	1	0	1	Expedited	GG'ma Bolton	34 BUSTETTER DR			FLORENCE	KY	41042-2140	US		Merry Christmas! Hope these smell as sweet as you! From Edric	false		
113-3632343-8513867	45360741289170	2020-12-11T23:27:21+00:00	2020-12-11T15:27:21-08:00	2020-12-11T23:54:10+00:00	2020-12-16T07:59:59+00:00	-5	tb2chvt165m1hqr@marketplace.amazon.com	Emersen Lorenz	+1 415-419-8616 ext. 83149	ABM022	Delivery by Tuesday, Dec 15, Purple Extravagance Bouquet by Arabella Bouquets	1	0	1	Expedited	Emersen Lorenz	1133 PINE VISTA LN			MEADOW VISTA	CA	95722-9611	US			false		
113-3893861-3818668	30580916980266	2020-12-11T23:37:48+00:00	2020-12-11T15:37:48-08:00	2020-12-12T00:04:47+00:00	2020-12-16T07:59:59+00:00	-5	sxstqg4w0kxbnjk@marketplace.amazon.com	Maia van Tol	+1 619-854-2705 ext. 90308	ABC002	Delivery by Wednesday, Dec 16 Warm Wishes Bouquet by Arabella Bouquets	1	0	1	Expedited	Adrienne Harkin	190 INDEPENDENCE LN UNIT 202			MAITLAND	FL	32751-5656	US		Happy birthday Adrienne! From Mom, Dad and Maia	false		
114-8173845-1733812	13599732159490	2020-12-11T23:35:15+00:00	2020-12-11T15:35:15-08:00	2020-12-12T00:05:15+00:00	2020-12-16T07:59:59+00:00	-5	qcmnbz5w05p3klf@marketplace.amazon.com	Chris t terranova	+1 619-854-2705 ext. 89372	ABR0022	Delivery by Tuesday, December 15 Dozen Pink Roses with a Free Vase by Arabella Bouquets	1	0	1	Expedited	Kelley blondin	161 EAST ST  32W			WARE	MA	01082-9370	US			false		
111-3776197-3220246	01639973529330	2020-12-11T23:46:49+00:00	2020-12-11T15:46:49-08:00	2020-12-12T00:14:33+00:00	2020-12-16T07:59:59+00:00	-5	2m6d2t998h0lm4z@marketplace.amazon.com	Ela Tenpenny	+1 415-419-8616 ext. 27611	ABR0022	Delivery by Tuesday, December 15 Dozen Pink Roses with a Free Vase by Arabella Bouquets	1	0	1	Expedited	Jennie Scillieri	19 MARIN LN			MANAHAWKIN	NJ	08050-5309	US		Enjoy your gift! Happy Birthday and Merry Christmas! From Ela Tenpenny	false		
114-0077340-5469006	62338932662658	2020-12-11T23:55:16+00:00	2020-12-11T15:55:16-08:00	2020-12-12T00:18:24+00:00	2020-12-16T07:59:59+00:00	-5	883vnm9z0xv6hkz@marketplace.amazon.com	Christian Wilson	+1 415-851-9136 ext. 70801	ABM010	Delivery by Tuesday, Dec 15 Everlasting Fling with a Free Glass Vase by Arabella Bouquets	1	0	1	Expedited	Azsha Ray	PINE MANOR COLLEGE 400 HEATH ST			CHESTNUT HILL	MA	02467-2332	US			false		
112-2455027-0753025	54199858325578	2020-12-11T23:56:30+00:00	2020-12-11T15:56:30-08:00	2020-12-12T00:20:24+00:00	2020-12-16T07:59:59+00:00	-5	nmvjl771dv4wf87@marketplace.amazon.com	gayle armstrong	+1 480-618-5344 ext. 51463	ABR0022	Delivery by Tuesday, December 15 Dozen Pink Roses with a Free Vase by Arabella Bouquets	1	0	1	Expedited	Laurel Land, Mary Ann Hundley Family	7100 CROWLEY RD			FORT WORTH	TX	76134-3347	US		Our family is so thankful for the good memories we have of Aunt Mary and your precious family. We live you. We’re praying for you all. From The Levell Children	false		
113-3193255-6733040	61754958873546	2020-12-11T23:52:23+00:00	2020-12-11T15:52:23-08:00	2020-12-12T00:21:04+00:00	2020-12-16T07:59:59+00:00	-5	psvbyktn8g7ww7g@marketplace.amazon.com	Lonnie Whisker	+1 213-442-1463 ext. 96553	ABR001	Delivery by Tuesday, December 15 Dozen Red Roses in a Free Vase by Arabella Bouquets	1	0	1	Expedited	Arthur Simmons	401 WALTERS ST			COLTON	CA	92324-1046	US		Happy Birthday and Merry Christmas, Mom! I love you! From Lonnie - Your 2nd Son	false		
111-1727379-9013847	53298619783362	2020-12-11T23:54:24+00:00	2020-12-11T15:54:24-08:00	2020-12-12T00:23:04+00:00	2020-12-16T07:59:59+00:00	-5	7kkw3gc4vnhfr9p@marketplace.amazon.com	Elizabeth J. Pucci	+1 346-307-9643 ext. 49768	ABR0066	Delivery by Wednesday, December 15 Dozen White Roses in a Free Vase by Arabella Bouquets	1	0	1	Expedited	Rhonda Maddelina	78985 DEL MONTE CT			LA QUINTA	CA	92253-2873	US		For a speedy recovery from your surgery.   Love, Dad & Liz From Elizabeth J. Pucci	false		
113-7268580-0453846	46955656569034	2020-12-11T23:55:10+00:00	2020-12-11T15:55:10-08:00	2020-12-12T00:23:49+00:00	2020-12-16T07:59:59+00:00	-5	hgfxzmyv9s793bv@marketplace.amazon.com	Karen Lopez	+1 602-671-6610 ext. 84120	ABC002	Delivery by Wednesday, Dec 16 Warm Wishes Bouquet by Arabella Bouquets	1	0	1	Expedited	Aubrey Stevens	1776 E SILKTASSEL TRL			SAN TAN VALLEY	AZ	85143-4463	US		Not in time for your birthday but maybe you will be able to smell them by now From Love you! Mom	false		
112-3777824-5157012	64759051882154	2020-12-11T23:57:07+00:00	2020-12-11T15:57:07-08:00	2020-12-12T00:26:26+00:00	2020-12-16T07:59:59+00:00	-5	k03fnrz1myc2njf@marketplace.amazon.com	Sondra Wojkowski	+1 602-671-6610 ext. 37382	ABR004	Delivery by Tuesday, December 15 Dozen Yellow Roses in a Free Vase by Arabella Bouquets	1	0	1	Expedited	judith camper	4138 HOMESTEAD DR			LAKELAND	FL	33810-1938	US		merry christmas sherry I love you! SAndie From Sondra Wojkowski	false		
114-2413260-0989057	65523366980306	2020-12-12T00:09:09+00:00	2020-12-11T16:09:09-08:00	2020-12-12T00:38:11+00:00	2020-12-16T07:59:59+00:00	-5	9qvz7552w44f3qg@marketplace.amazon.com	moises	+1 602-671-6610 ext. 90275	ABR001	Delivery by Tuesday, December 15 Dozen Red Roses in a Free Vase by Arabella Bouquets	1	0	1	Expedited	moises	155 CASTOR ST			TURLOCK	CA	95380-5322	US		¡Disfruta de tu regalo! Mi vidad te amo y quieres casarte conmigo te amo viridiana O De moises	false		
114-3615970-0515454	47178491465586	2020-12-12T00:09:57+00:00	2020-12-11T16:09:57-08:00	2020-12-12T00:38:34+00:00	2020-12-16T07:59:59+00:00	-5	lx2j7c0323n2rly@marketplace.amazon.com	Stacie	+1 602-671-6610 ext. 74483	ABR0022	Delivery by Tuesday, December 15 Dozen Pink Roses with a Free Vase by Arabella Bouquets	1	0	1	Expedited	Brooke Paige	4302 MARQUIS PL			WOODBRIDGE	VA	22192-6602	US		Happy Birthday Brooke! I hope you are feeling better! From Stacie and Jimmy xoxo	false		
114-4184924-3929025	33990968305730	2020-12-12T00:14:03+00:00	2020-12-11T16:14:03-08:00	2020-12-12T00:41:21+00:00	2020-12-16T07:59:59+00:00	-5	st8yx2n9jdl7slf@marketplace.amazon.com	Johnathan Poloka	+1 763-225-9463 ext. 01612	ABR0022	Delivery by Tuesday, December 15 Dozen Pink Roses with a Free Vase by Arabella Bouquets	1	0	1	Expedited	Johnathan Poloka	316 4TH ST			ELLWOOD CITY	PA	16117-1969	US		Enjoy your gift! From Johnathan Poloka	false		
111-1319924-9034620	39546313105418	2020-12-12T00:17:04+00:00	2020-12-11T16:17:04-08:00	2020-12-12T00:42:12+00:00	2020-12-16T07:59:59+00:00	-5	7nkm02c8vwj5r3x@marketplace.amazon.com	Jessica Welsh	+1 602-671-6610 ext. 20474	ABR014	Arabella Bouquets 18 Stems of Fresh Cut White Roses in a Free Designer Glass Vase	1	0	1	Expedited	Chuck and Susan Pedone	702 DONDALE CIR			AUSTIN	TX	78746-5114	US		Chuck & Susan,  Sorry to hear about your father, we wish you both the best! From Jeff, Michelle, Jessie, Trevor, Joe & MaryAnn	false		
114-4480066-8409034	43175716064370	2020-12-12T00:19:38+00:00	2020-12-11T16:19:38-08:00	2020-12-12T00:49:40+00:00	2020-12-16T07:59:59+00:00	-5	nkfj95ngws2yn08@marketplace.amazon.com	Chris Glaser	+1 415-419-8616 ext. 32471	ABR0022	Delivery by Tuesday, December 15 Dozen Pink Roses with a Free Vase by Arabella Bouquets	1	0	1	Expedited	Martha Moore	6405 LIME PLANT RD			GLOUCESTER	VA	23061-4259	US			false		
111-8322110-7581024	45180130060674	2020-12-12T00:31:48+00:00	2020-12-11T16:31:48-08:00	2020-12-12T00:59:27+00:00	2020-12-16T07:59:59+00:00	-5	df7mvm0m8r2f6lp@marketplace.amazon.com	C. M. Venkatachalam	+1 213-442-1463 ext. 60391	ABR0033	Delivery by Tuesday, December 15, December 15 Dozen Orange Roses in a Free Vase by Arabella Bouquets	1	0	1	Expedited	Steve Barraco	10109 Auction Oak Dr			Austin	TX	78748	US		Mom, Welcome to Austin! Best wishes to Steve, Betty, Stephany, Steve Jr and family Happy New Year - Your neighbor Vankats From C. M. Venkatachalam	false		
114-2000122-6293037	05658570002946	2020-12-12T00:34:26+00:00	2020-12-11T16:34:26-08:00	2020-12-12T01:01:31+00:00	2020-12-16T07:59:59+00:00	-5	8gjzmqs0z9hbrsw@marketplace.amazon.com	Steven Bernstein	+1 602-671-6610 ext. 40986	ABSR003	Delivery by Tuesday, Dec 15 Yellow Spray Roses in a Free Designer Glass Vase by Arabella Bouquets	1	0	1	Expedited	Anna Guistino	311 SUNSHINE CT			ENGLISHTOWN	NJ	07726-4731	US		Hi Anna, Happy Birthday and Holidays  Love  Steven and Renee	true		
114-5453184-0593067	37719600581738	2020-12-12T00:34:26+00:00	2020-12-11T16:34:26-08:00	2020-12-12T01:06:23+00:00	2020-12-16T07:59:59+00:00	-5	8gjzmqs0z9hbrsw@marketplace.amazon.com	Steven Bernstein	+1 619-854-2705 ext. 98568	ABSR003	Delivery by Tuesday, Dec 15 Yellow Spray Roses in a Free Designer Glass Vase by Arabella Bouquets	1	0	1	Expedited	Dr. Joel and Nancy Bernstein	10810 THOMAS LAKE MNR			BOYNTON BEACH	FL	33473-4930	US		Hi Mom Happy Holidays  Love always Steven and Renee	true		
114-2513122-4761803	04232964015186	2020-12-12T00:34:26+00:00	2020-12-11T16:34:26-08:00	2020-12-12T01:11:04+00:00	2020-12-16T07:59:59+00:00	-5	8gjzmqs0z9hbrsw@marketplace.amazon.com	Steven Bernstein	+1 415-851-9136 ext. 99792	ABSR003	Delivery by Tuesday, Dec 15 Yellow Spray Roses in a Free Designer Glass Vase by Arabella Bouquets	1	0	1	Expedited	Olympia Giudice	22 RIPPLEWOOD DR			UPPER SADDLE RIVER	NJ	07458-1410	US		Hi Olympia, Happy Holidays  Love Steven and Renee	true		
113-7085926-2383422	30656645112178	2020-12-12T00:46:18+00:00	2020-12-11T16:46:18-08:00	2020-12-12T01:14:20+00:00	2020-12-16T07:59:59+00:00	-5	4jqsx11ygmqfqyf@marketplace.amazon.com	robyn brooks	+1 415-419-8616 ext. 86241	ABR0066	Delivery by Wednesday, December 15 Dozen White Roses in a Free Vase by Arabella Bouquets	1	0	1	Expedited	vandalyn  Crayton	6887 CAITLIN ST			SAN BERNARDINO	CA	92407-1931	US		Thinking of you From robyn brooks & Roz Barbee	false		
113-9026171-2093058	64228038930930	2020-12-12T00:48:30+00:00	2020-12-11T16:48:30-08:00	2020-12-12T01:16:40+00:00	2020-12-16T07:59:59+00:00	-5	4fvr23279cpttt0@marketplace.amazon.com	ardrenna dean	+1 763-225-9463 ext. 96516	ABR0022	Delivery by Tuesday, December 15 Dozen Pink Roses with a Free Vase by Arabella Bouquets	1	0	1	Expedited	Claudia Curtis	4946 WOODWARD AVE			DOWNERS GROVE	IL	60515-3331	US		Sincere condolences on the loss of your mother. May you find comfort in God's loving embrace during this time. Sending our love! From Ardrenna McNear Dean & Family	false		
114-3197206-7020246	54296937362394	2020-12-12T00:55:55+00:00	2020-12-11T16:55:55-08:00	2020-12-12T01:17:53+00:00	2020-12-16T07:59:59+00:00	-5	mkxv53c92tcvglm@marketplace.amazon.com	Renolda	+1 763-225-9463 ext. 54047	ABC002	Delivery by Wednesday, Dec 16 Warm Wishes Bouquet by Arabella Bouquets	1	0	1	Expedited	Troy Groves	8823 RED SPRUCE WAY			JESSUP	MD	20794-4902	US		You are in our prayers and thoughts! God bless you From Your Tacoma Family - Grant, Barker and Travis families	false		
114-6751851-1400216	66512627170090	2020-12-12T01:09:08+00:00	2020-12-11T17:09:08-08:00	2020-12-12T01:39:36+00:00	2020-12-16T07:59:59+00:00	-5	0npkv1ct8xgvft9@marketplace.amazon.com	Marissa Laub	+1 602-671-6610 ext. 81164	ABR0066	Delivery by Wednesday, December 15 Dozen White Roses in a Free Vase by Arabella Bouquets	1	0	1	Expedited	Marissa Laub	1550 Buck Hill Lane			Breinigsville	PA	18031	US			false		
112-1187743-7842658	64691025774642	2020-12-12T01:14:38+00:00	2020-12-11T17:14:38-08:00	2020-12-12T01:39:55+00:00	2020-12-16T07:59:59+00:00	-5	cdcnvkbdsnkfk9c@marketplace.amazon.com	Tamara Bixler Zalesinsky	+1 346-307-9643 ext. 79727	ABR0022	Delivery by Tuesday, December 15 Dozen Pink Roses with a Free Vase by Arabella Bouquets	1	0	1	Expedited	Nancy Bixler	721 27TH ST NE			MASSILLON	OH	44646-2987	US		Happy Birthday, Nancy From Jay Zalesinsky	false		
111-4635835-1439434	51692446613794	2020-12-12T01:16:15+00:00	2020-12-11T17:16:15-08:00	2020-12-12T01:46:02+00:00	2020-12-16T07:59:59+00:00	-5	1f8p4cgr2gs96l4@marketplace.amazon.com	Colin	+1 346-307-9643 ext. 92556	ABR0033	Delivery by Tuesday, December 15, December 15 Dozen Orange Roses in a Free Vase by Arabella Bouquets	1	0	1	Expedited	Rachel Mulvaney	1713 SYMPHONY LN			TOMS RIVER	NJ	08755-2233	US			false		
112-1075273-0404231	00260883191066	2020-12-12T01:27:22+00:00	2020-12-11T17:27:22-08:00	2020-12-12T01:56:45+00:00	2020-12-16T07:59:59+00:00	-5	1mmzxj4nvnngdbp@marketplace.amazon.com	Thomas M. Lind	+1 346-307-9643 ext. 79351	ABM0033	Delivery by Tuesday, Dec 15 White Hydrangea 5 Stems with a Free Glass Vase by Arabella Bouquets	1	0	1	Expedited	Jo Ann Isaac	9821 E RIMROCK DR			PRESCOTT VALLEY	AZ	86314-7130	US			false		
112-2137309-9870636	57852347453778	2020-12-12T01:28:33+00:00	2020-12-11T17:28:33-08:00	2020-12-12T01:57:12+00:00	2020-12-16T07:59:59+00:00	-5	05cbk2m2fwt62l8@marketplace.amazon.com	Grace	+1 619-854-2705 ext. 40106	ABR0033	Delivery by Tuesday, December 15, December 15 Dozen Orange Roses in a Free Vase by Arabella Bouquets	1	0	1	Expedited	Mamaw	1325 HEARTLAND DR			MARYVILLE	TN	37801-8922	US		We love you! From The Carringer’s	false		
112-5453285-9847403	07609447085874	2020-12-12T01:32:15+00:00	2020-12-11T17:32:15-08:00	2020-12-12T01:58:16+00:00	2020-12-16T07:59:59+00:00	-5	4yrtlf36hjr6dbb@marketplace.amazon.com	Bibi Rahaman	+1 619-854-2705 ext. 27601	ABR004	Delivery by Tuesday, December 15 Dozen Yellow Roses in a Free Vase by Arabella Bouquets	1	0	1	Expedited	Antonia Reeder	700 W CAVALCADE ST APT 2306			HOUSTON	TX	77009-3007	US		To the woman who changed my life forever. Thank you does not even to begin to express how grateful I am not only to have met you but to gain you as a true friend. With a humble heart, THANK YOU for all that you do for me!!! From Bibi Rahaman	false		
113-5953946-7241050	20941478069266	2020-12-12T01:31:35+00:00	2020-12-11T17:31:35-08:00	2020-12-12T02:00:35+00:00	2020-12-16T07:59:59+00:00	-5	nts1flzf06sg105@marketplace.amazon.com	Donna	+1 763-225-9463 ext. 22886	ABR0033	Delivery by Tuesday, December 15, December 15 Dozen Orange Roses in a Free Vase by Arabella Bouquets	1	0	1	Expedited	Thomas Garguilo	5115 EUROPA DR APT K			BOYNTON BEACH	FL	33437-2199	US		Merry Christmas Dear brother. Enjoy your gift! From Love Donna	false		
112-1794165-2684209	68143038857514	2020-12-12T01:32:30+00:00	2020-12-11T17:32:30-08:00	2020-12-12T02:02:28+00:00	2020-12-16T07:59:59+00:00	-5	mxsgtnl3b6gsq4f@marketplace.amazon.com	falerjk@comcast.net	+1 619-854-2705 ext. 15535	ABR0022	Delivery by Tuesday, December 15 Dozen Pink Roses with a Free Vase by Arabella Bouquets	1	0	1	Expedited	Katia Bucaeff	439 GRAND BLVD			SAN MATEO	CA	94401-1711	US			false		
112-6559635-5029857	06872774775866	2020-12-12T01:49:27+00:00	2020-12-11T17:49:27-08:00	2020-12-12T02:17:36+00:00	2020-12-16T07:59:59+00:00	-5	4fwr504y6tntx6h@marketplace.amazon.com	Andrew Wilks	+1 346-307-9643 ext. 38254	ABR0022	Delivery by Tuesday, December 15 Dozen Pink Roses with a Free Vase by Arabella Bouquets	1	0	1	Expedited	Mandy Hart	6310 TULSA LN			BETHESDA	MD	20817-2337	US		Happy Hanukkah!!!!  Thinking of you....Health and Happiness :) From Andy	false		
112-8183829-1316210	08611604363442	2020-12-12T01:57:44+00:00	2020-12-11T17:57:44-08:00	2020-12-12T02:20:36+00:00	2020-12-16T07:59:59+00:00	-5	yxb0mvmcn0tysr8@marketplace.amazon.com	Andrew Zivitz	+1 415-419-8616 ext. 31106	ABC002	Delivery by Wednesday, Dec 16 Warm Wishes Bouquet by Arabella Bouquets	1	0	1	Expedited	jackie zivitz	602 LORINE LN			PLYMOUTH MEETING	PA	19462-1260	US		Jackie, Andy, Sami, and Gavin,              Enjoy these Hanukah flowers.  We love you. From Bubbie and Pop Pop	false		
113-1060145-6797006	03932006087362	2020-12-12T01:57:35+00:00	2020-12-11T17:57:35-08:00	2020-12-12T02:20:39+00:00	2020-12-16T07:59:59+00:00	-5	w52wdbs2q165dz9@marketplace.amazon.com	Jennifer K Summers	+1 213-442-1463 ext. 20291	ABR0022	Delivery by Tuesday, December 15 Dozen Pink Roses with a Free Vase by Arabella Bouquets	1	0	1	Expedited	Danielle Kramer	1806 MONROE CT			GLENVIEW	IL	60025-1486	US		HAPPY BIRTHDAY Sweet Danielle!  We all love you so much XOXO   Love from Jeff, Jennifer, Kendall, Julia (and the kittens - Alfie & Eddy) From Jennifer K Summers	false		
112-0849263-5023404	35897611504322	2020-12-12T01:51:28+00:00	2020-12-11T17:51:28-08:00	2020-12-12T02:20:44+00:00	2020-12-16T07:59:59+00:00	-5	7gm2j9dsdptwxw1@marketplace.amazon.com	Steve Diaz	+1 415-851-9136 ext. 75557	ABR001	Delivery by Tuesday, December 15 Dozen Red Roses in a Free Vase by Arabella Bouquets	1	0	1	Expedited	Morton Goldblum	208 CROWN IMPERIAL ST			HENDERSON	NV	89074-5602	US			false		
112-0163952-5755438	62656419849434	2020-12-11T21:30:49+00:00	2020-12-11T13:30:49-08:00	2020-12-12T02:24:48+00:00	2020-12-16T07:59:59+00:00	-5	kdwwybcsy59dgv9@marketplace.amazon.com	Angela Horn	803438466	ABC001	Delivery by Wednesday, Dec 16 Seasons Greetings Bouquet by Arabella Bouquets	1	0	1	Expedited	Mary Tate	226 SMITHFIELD CIR			ELGIN	SC	29045-9781	US		Happy Birthday Maw! We love you! From Angie, Jeremy and kids	false		
114-6632022-4528206	49899272531826	2020-12-12T01:59:39+00:00	2020-12-11T17:59:39-08:00	2020-12-12T02:27:22+00:00	2020-12-16T07:59:59+00:00	-5	4np9w2pv09qp9dj@marketplace.amazon.com	Krystal S Lewis	+1 415-419-8616 ext. 87023	ABR0022	Delivery by Tuesday, December 15 Dozen Pink Roses with a Free Vase by Arabella Bouquets	1	0	1	Expedited	Stephanie Pinkett	6304 FIVE OAKS WAY			TUCKER	GA	30084-8175	US		Sending my prayers & sympathy for your loss of Mama Rosa🙏🏽  Love Krystal #SIB From Krystal S Lewis	false		
114-8907786-2333807	63955835381906	2020-12-12T02:06:30+00:00	2020-12-11T18:06:30-08:00	2020-12-12T02:32:43+00:00	2020-12-16T07:59:59+00:00	-5	7vvxv4fhxnzpk1x@marketplace.amazon.com	Jose monroy	+1 602-671-6610 ext. 14135	ABR0022	Delivery by Tuesday, December 15 Dozen Pink Roses with a Free Vase by Arabella Bouquets	1	0	1	Expedited	Abuela Nicha	15 MOUNT PLEASANT AVE			WEST ORANGE	NJ	07052-4975	US		Feliz cumpleaños MAMÁ From Jose monroy	false		
113-2795715-6265811	34535948225658	2020-12-12T02:09:21+00:00	2020-12-11T18:09:21-08:00	2020-12-12T02:37:33+00:00	2020-12-16T07:59:59+00:00	-5	43mbbb5lvrh4p2s@marketplace.amazon.com	Egon Earl	+1 415-419-8616 ext. 01802	ABR015	Delivery by Tuesday, Dec 15 Arabella Farm Direct Bouquet of 18 Fresh Cut Orange Roses with a Free Glass Vase	1	0	1	Expedited	Sabrina Touch	3897 WOODOATS CIR			BUFORD	GA	30519-7252	US			false		
114-1568868-8077014	67913344222738	2020-12-12T02:13:04+00:00	2020-12-11T18:13:04-08:00	2020-12-12T02:37:50+00:00	2020-12-16T07:59:59+00:00	-5	21y8qd7thnr1702@marketplace.amazon.com	Laura Bailey	+1 346-307-9643 ext. 04340	ABR013	Delivery by Tuesday, Dec 15 Arabella Farm Direct Bouquet of 18 Fresh Cut Yellow Roses with a Free Glass Vase	1	0	1	Expedited	Molly Wright	3787 MIRA LOMA DR			CAMERON PARK	CA	95682-7682	US		Molly, Yellow is the color of hope and that is our prayer for you. Love you so much From Lauri and Bruce	false		
113-7371772-6636253	07967190912938	2020-12-12T02:20:58+00:00	2020-12-11T18:20:58-08:00	2020-12-12T02:38:15+00:00	2020-12-16T07:59:59+00:00	-5	fcq7p1g227pd21t@marketplace.amazon.com	Steven W. Hall	+1 213-442-1463 ext. 41738	ABM026	Delivery by Tuesday, Dec 15 Amour Bouquet by Arabella Bouquets	1	0	1	Expedited	Mr & mrs Larry Pribyl	33085 MEADOW WOOD ST			TANGENT	OR	97389-9818	US			false		
112-3018760-4833825	33892783464274	2020-12-12T02:11:14+00:00	2020-12-11T18:11:14-08:00	2020-12-12T02:40:46+00:00	2020-12-16T07:59:59+00:00	-5	p3g3slkmzdxw859@marketplace.amazon.com	Kendyl	+1 602-671-6610 ext. 62315	ABR0022	Delivery by Tuesday, December 15 Dozen Pink Roses with a Free Vase by Arabella Bouquets	1	0	1	Expedited	Marissa Irene	3441 WINCHELL LN			BILLINGS	MT	59102-4445	US		Happy birthday gorgeous!! I hope you have a wonderful birthday! From KB	false		
113-2409618-7260268	42239969634642	2020-12-12T02:20:13+00:00	2020-12-11T18:20:13-08:00	2020-12-12T02:50:13+00:00	2020-12-16T07:59:59+00:00	-5	ffbxn21j7klbnyd@marketplace.amazon.com	Andrew Ward	+1 415-419-8616 ext. 19717	ABR0022	Delivery by Tuesday, December 15 Dozen Pink Roses with a Free Vase by Arabella Bouquets	1	0	1	Expedited	Laura McLaughlin	2119 LAKEVIEW RD			CLEARWATER	FL	33764-3749	US		Lauraaaaaaa Happy Birthday!! From Drew	false		
114-9687649-6429028	43740999833218	2020-12-12T02:25:55+00:00	2020-12-11T18:25:55-08:00	2020-12-12T02:55:56+00:00	2020-12-16T07:59:59+00:00	-5	pzpfq943dzj449f@marketplace.amazon.com	Tasha	+1 602-671-6610 ext. 10446	ABR0033	Delivery by Tuesday, December 15, December 15 Dozen Orange Roses in a Free Vase by Arabella Bouquets	1	0	1	Expedited	Latasha Johnson	6930 Corrydale Drive			Pensacola	Fl	32506	US			false		
112-5104422-1727450	17345234566666	2020-12-12T02:33:46+00:00	2020-12-11T18:33:46-08:00	2020-12-12T02:58:45+00:00	2020-12-16T07:59:59+00:00	-5	lyh0l93z5s5g4lp@marketplace.amazon.com	Christa	+1 213-442-1463 ext. 64760	ABR0066	Delivery by Wednesday, December 15 Dozen White Roses in a Free Vase by Arabella Bouquets	1	0	1	Expedited	Jules Mangin	4 E GEORGIANNA DR			RICHBORO	PA	18954-1314	US		Congratulations Jules! I’m so proud of you for working so hard. The world is so lucky to gain such a caring and wonderful nurse! I know you will do great in everything that you do. Love and miss you honey! From Christa	false		
111-9649278-8622644	37554714172282	2020-12-12T02:33:08+00:00	2020-12-11T18:33:08-08:00	2020-12-12T03:01:54+00:00	2020-12-16T07:59:59+00:00	-5	9thcyylstfg1yrm@marketplace.amazon.com	Jackie Fruck	+1 346-307-9643 ext. 09244	ABM020	Delivery by Tuesday, Dec 15 Sunset Bouquet by Arabella Bouquets	1	0	1	Expedited	Mary Ann Stone	1600 DERBY DR			HENDERSON	NV	89002-8726	US		Welcome home Mary Ann!! Wishing you a bright 2021!!  Love, Jackie From Jackie Fruck	false		
114-9343184-2194622	61439177428122	2020-12-12T02:56:48+00:00	2020-12-11T18:56:48-08:00	2020-12-12T03:24:00+00:00	2020-12-16T07:59:59+00:00	-5	ds46kyb53cq5qnw@marketplace.amazon.com	cathy gassert	+1 480-618-5344 ext. 12986	ABM022	Delivery by Tuesday, Dec 15, Purple Extravagance Bouquet by Arabella Bouquets	1	0	1	Standard	Ruby Brown	6805 PECANHILL DR			BARTLETT	TN	38135-1666	US		Mom, I hope you have a nice 91st. birthday! Enjoy your birthday flowers. I love you, Cathy Your favorite daughter :-) From cathy gassert	false		
112-7064964-7723408	24738562130458	2020-12-12T03:01:59+00:00	2020-12-11T19:01:59-08:00	2020-12-12T03:31:51+00:00	2020-12-16T07:59:59+00:00	-5	7dn2g0cnprqmwf7@marketplace.amazon.com	Jennifer Bryson	+1 415-851-9136 ext. 88363	ABR0033	Delivery by Tuesday, December 15, December 15 Dozen Orange Roses in a Free Vase by Arabella Bouquets	1	0	1	Standard	Michelle Silvius	20702 EL TORO RD APT 378			LAKE FOREST	CA	92630-6132	US		Merry Christmas friend!!! So thankful for you! Love Jennifer From Jennifer Bryson	false		
