order-id	order-item-id	purchase-date	payments-date	reporting-date	promise-date	days-past-promise	buyer-email	buyer-name	buyer-phone-number	sku	product-name	quantity-purchased	quantity-shipped	quantity-to-ship	ship-service-level	recipient-name	ship-address-1	ship-address-2	ship-address-3	ship-city	ship-state	ship-postal-code	ship-country	gift-wrap-type	gift-message-text	is-business-order	purchase-order-number	price-designation
112-8309536-1762626	52258603720962	2020-12-11T18:00:32+00:00	2020-12-11T10:00:32-08:00	2020-12-11T18:23:17+00:00	2020-12-16T07:59:59+00:00	-4	ykbj1hx1mb9xhrx@marketplace.amazon.com	Theresa Howell	+1 346-307-9643 ext. 99349	ABC001	Delivery by Tuesday, Dec 15 Seasons Greetings Bouquet by Arabella Bouquets	1	0	1	Expedited	Evelyn Elzie	903 EASON PL			MONROE	LA	71201-2614	US		Miss you very much, get well. Have a Blessed Christmas.  Much Love! From Theresa Howell	false		
111-4803765-8248258	57917943415714	2020-12-11T18:08:05+00:00	2020-12-11T10:08:05-08:00	2020-12-11T18:37:46+00:00	2020-12-16T07:59:59+00:00	-4	ftxb0ssb1clc1zf@marketplace.amazon.com	Armin I Feldman	+1 415-851-9136 ext. 13456	ABM022	Delivery by Saturday, Dec 12, Purple Extravagance Bouquet by Arabella Bouquets	1	0	1	Expedited	Amy Carpenter	4525 SNAIL LAKE BLVD			SHOREVIEW	MN	55126-1920	US		Happy Birthday From Holly and Armin I Feldman	false		
113-2265093-6513848	44537711343794	2020-12-11T18:27:30+00:00	2020-12-11T10:27:30-08:00	2020-12-11T18:52:21+00:00	2020-12-16T07:59:59+00:00	-4	0qmnbwfvc22jqm8@marketplace.amazon.com	Patricia King	+1 929-436-4790 ext. 06311	ABM022	Delivery by Saturday, Dec 12, Purple Extravagance Bouquet by Arabella Bouquets	1	0	1	Expedited	Bette Van Winkle	1308 YORKSHIRE LN			WOODSTOCK	GA	30188-6339	US		Happy 75th!! Much love as I celebrate you and our friendship for so many years.  Continued blessings on your birthday and always! From Patricia King	false		
114-6897551-6964218	65814791543202	2020-12-11T18:34:30+00:00	2020-12-11T10:34:30-08:00	2020-12-11T19:02:31+00:00	2020-12-16T07:59:59+00:00	-4	srvkymp9wmnc8lw@marketplace.amazon.com	Joanne Ring	+1 213-442-1463 ext. 52282	ABM010	Delivery by Saturday, Dec 12 Everlasting Fling with a Free Glass Vase by Arabella Bouquets	1	0	1	Expedited	Tracy Ring	100 ASPEN CIR			SHELBURNE	VT	05482-4422	US		Happy Birthday, enjoy your day. Love Mom and Dad xxoo From Mon and Dad	false		
111-7716829-0103407	14846614080226	2020-12-11T18:39:37+00:00	2020-12-11T10:39:37-08:00	2020-12-11T19:08:48+00:00	2020-12-16T07:59:59+00:00	-4	06yq3mrsvq051ds@marketplace.amazon.com	Mary Jo Hanrahan	+1 619-854-2705 ext. 50169	ABM025	Delivery by Tuesday, Dec 15 Fell for You Bouquet by Arabella Bouquets	1	0	1	Expedited	Katie Schwab	7384 BURTON DR			MIDDLETOWN	OH	45044-8996	US			false		
111-7170645-1769000	47220643033690	2020-12-11T18:47:16+00:00	2020-12-11T10:47:16-08:00	2020-12-11T19:17:16+00:00	2020-12-16T07:59:59+00:00	-4	j6qsln4rk41gkxn@marketplace.amazon.com	Alexa D. MacDonald	+1 619-854-2705 ext. 08068	ABM010	Delivery by Saturday, Dec 12 Everlasting Fling with a Free Glass Vase by Arabella Bouquets	1	0	1	Expedited	Maria Williams	58 PIN OAK LN			WILTON	CT	06897-1329	US		On behalf of the IBM HR Team we are wishing you a speedy recovery and are looking forward to your return to work soon.  For now focus on your rest and recovery! From Alexa D. MacDonald	false		
111-7984433-2210647	15303405190570	2020-12-11T18:50:51+00:00	2020-12-11T10:50:51-08:00	2020-12-11T19:17:40+00:00	2020-12-16T07:59:59+00:00	-4	76c7gqlnwlclkx6@marketplace.amazon.com	JACKSON BOSWELL	+1 763-225-9463 ext. 21420	ABR0022	Delivery by Tuesday, December 15 Dozen Pink Roses with a Free Vase by Arabella Bouquets	1	0	1	Expedited	Joe Molin & Alex Sigillo	6937 BRISTOL DR			BERKELEY	CA	94705-1704	US			false		
111-9916641-6720243	41432518480730	2020-12-11T18:58:47+00:00	2020-12-11T10:58:47-08:00	2020-12-11T19:27:54+00:00	2020-12-16T07:59:59+00:00	-4	jtny22d5836ky4x@marketplace.amazon.com	Donna Rowe	+1 415-851-9136 ext. 00112	ABR001	Delivery by Tuesday, December 15 Dozen Red Roses in a Free Vase by Arabella Bouquets	1	0	1	Expedited	Ann Rowe	94 MULLER RD			BURLINGTON	MA	01803-5127	US		Enjoy your gift! From Mike & Donna Rowe	false		
111-9597505-4797800	06349220324802	2020-12-11T19:00:37+00:00	2020-12-11T11:00:37-08:00	2020-12-11T19:30:51+00:00	2020-12-16T07:59:59+00:00	-4	gcgm5jd0w3qtvw6@marketplace.amazon.com	Gail Gillham	+1 480-618-5344 ext. 83536	ABC001	Delivery by Wednesday, Dec 16 Seasons Greetings Bouquet by Arabella Bouquets	1	0	1	Expedited	Carole Schumacher	25 CALVIN CIR			EVANSTON	IL	60201-1911	US			false		
111-9339185-9577000	12625038327138	2020-12-11T19:04:54+00:00	2020-12-11T11:04:54-08:00	2020-12-11T19:33:20+00:00	2020-12-16T07:59:59+00:00	-4	gz7zkgb3r7kgkst@marketplace.amazon.com	Julian	+1 213-442-1463 ext. 51845	ABM010	Delivery by Tuesday, Dec 15 Everlasting Fling with a Free Glass Vase by Arabella Bouquets	1	0	1	Expedited	Julian	1009 YELLOWSTONE DR			ODESSA	TX	79765-2050	US			false		
113-0453243-5150630	33738311582306	2020-12-11T19:07:55+00:00	2020-12-11T11:07:55-08:00	2020-12-11T19:34:39+00:00	2020-12-16T07:59:59+00:00	-4	n2hfl10xvtkdnqs@marketplace.amazon.com	jaimee hartley	+1 763-225-9463 ext. 54569	ABR0022	Delivery by Tuesday, December 15 Dozen Pink Roses with a Free Vase by Arabella Bouquets	1	0	1	Expedited	Gary and Mayra Wiggins	2010 CENTERVIEW			MIDLAND	TX	79707-9760	US		God bless you on this special day From Becky and Kendra	false		
114-9186241-2560223	66062078116162	2020-12-11T19:11:35+00:00	2020-12-11T11:11:35-08:00	2020-12-11T19:40:08+00:00	2020-12-16T07:59:59+00:00	-4	dcgtq7bv6gt1bk6@marketplace.amazon.com	Doug Deutsch	+1 602-671-6610 ext. 02997	ABM017	Delivery by Monday, Dec 14 Blue Dendrobium Orchids 10 Stems in a Free Designer Glass Vase by Arabella Bouquets	1	0	1	Expedited	Jeff Deutsch	145 HOL MAR TRL			MCDONOUGH	GA	30253-5502	US		Margot and Jeff, Have a beautiful holiday season.  Have a C'happy Channukah!  I love you both. From Doug Deutsch	false		
114-7989918-1596238	15034125695242	2020-12-11T19:15:10+00:00	2020-12-11T11:15:10-08:00	2020-12-11T19:43:16+00:00	2020-12-16T07:59:59+00:00	-4	dcgtq7bv6gt1bk6@marketplace.amazon.com	Doug Deutsch	+1 602-671-6610 ext. 00828	ABM017	Delivery by Monday, Dec 14 Blue Dendrobium Orchids 10 Stems in a Free Designer Glass Vase by Arabella Bouquets	1	0	1	Expedited	Sharon Mann	3307 PARK PL			SPRINGFIELD	NJ	07081-3523	US		Sharon (my awesome sister), Eric and Jared Have a wonderful holiday together.  C'happy Channukah.  I love you all.   Eric and Jared you guys are OK too. :) From Doug Deutsch	false		
112-7503763-6972204	23027842977394	2020-12-11T19:14:30+00:00	2020-12-11T11:14:30-08:00	2020-12-11T19:43:20+00:00	2020-12-16T07:59:59+00:00	-4	8sb29yfmx76n0v2@marketplace.amazon.com	david hubert	+1 213-442-1463 ext. 46777	ABR0055	Delivery by Tuesday, December 15 Dozen Hot Pink Roses in a Free Vase by Arabella Bouquets	1	0	1	Expedited	David Hubert	691 WILD FLOWER ST			MERRITT ISLAND	FL	32953-8058	US			false		
114-5034233-8291404	11057738236034	2020-12-11T19:30:04+00:00	2020-12-11T11:30:04-08:00	2020-12-11T19:44:14+00:00	2020-12-16T07:59:59+00:00	-4	qrrcksb0yrqtflr@marketplace.amazon.com	mary Grady	+1 602-671-6610 ext. 80288	ABR0022	Delivery by Tuesday, December 15 Dozen Pink Roses with a Free Vase by Arabella Bouquets	1	0	1	Expedited	Courtney Schaeffer	15 W HOOKER ST			NEW LONDON	OH	44851-1008	US		Dear Courtney, We are so sorry that your photo was left out of the pinning video. Just wanted to send you flowers and say best wishes. From Dr. Grady&LCCC Nursing Faculty From Dr. Grady&LCCC Nursing Faculty	false		
113-5890910-2076243	07654430733418	2020-12-11T19:18:51+00:00	2020-12-11T11:18:51-08:00	2020-12-11T19:44:46+00:00	2020-12-16T07:59:59+00:00	-4	r139jwpw939kxv6@marketplace.amazon.com	Carrie Calloway	+1 415-851-9136 ext. 35501	ABR0022	Delivery by Tuesday, December 15 Dozen Pink Roses with a Free Vase by Arabella Bouquets	1	0	1	Expedited	Deborah Raczka	3540 TAMARIND DR			NORTHBROOK	IL	60062-2235	US		Congratulations and Best Wishes from the Kettering HR Team! From DRiV-Tenneco	false		
113-6418347-6529028	00127159059410	2020-12-11T19:28:50+00:00	2020-12-11T11:28:50-08:00	2020-12-11T19:59:19+00:00	2020-12-16T07:59:59+00:00	-4	lbmm84v8jj8z49c@marketplace.amazon.com	larry bruestle	+1 619-854-2705 ext. 54080	ABR0022	Delivery by Tuesday, December 15 Dozen Pink Roses with a Free Vase by Arabella Bouquets	1	0	1	Expedited	larry bruestle	8221 Ozark Dr			San Marcos	Texas	78666	US			false		
111-0007571-6309806	46749986173250	2020-12-11T19:32:14+00:00	2020-12-11T11:32:14-08:00	2020-12-11T20:00:48+00:00	2020-12-16T07:59:59+00:00	-4	n36r95nx1stzf5k@marketplace.amazon.com	Ping chow	+1 346-307-9643 ext. 85576	ABR0022	Delivery by Tuesday, December 15 Dozen Pink Roses with a Free Vase by Arabella Bouquets	1	0	1	Expedited	Lingling chen	1151 GREENWOOD AVE			PALO ALTO	CA	94301-3411	US		Hi Lingling,  Have a merry Christmas and a happy New year! Enjoy your gift! From Ping chow	false		
112-6475269-0818620	17041099005466	2020-12-11T19:33:30+00:00	2020-12-11T11:33:30-08:00	2020-12-11T20:00:59+00:00	2020-12-16T07:59:59+00:00	-4	vjkbypv12r5xrzl@marketplace.amazon.com	Aisha Bowen	+1 346-307-9643 ext. 37366	ABR0022	Delivery by Tuesday, December 15 Dozen Pink Roses with a Free Vase by Arabella Bouquets	1	0	1	Expedited	Anisah Boldon	6562 SILK TREE POINTE			BRASELTON	GA	30517-6243	US			false		
114-4599516-1470603	11522781891074	2020-12-11T19:35:41+00:00	2020-12-11T11:35:41-08:00	2020-12-11T20:05:54+00:00	2020-12-16T07:59:59+00:00	-4	mtrcgq29jzq36vh@marketplace.amazon.com	Heather Striplin	+1 619-854-2705 ext. 64111	ABM031	Delivery by Tuesday, Dec 15 The Harvest Moon Bouquet by Arabella Bouquets	1	0	1	Expedited	Pam and woodie striplin	2604 BAREFOOT CREEK CIR			NAVARRE	FL	32566-8771	US			false		
113-7852058-3167431	35736645791754	2020-12-11T19:39:42+00:00	2020-12-11T11:39:42-08:00	2020-12-11T20:07:14+00:00	2020-12-16T07:59:59+00:00	-4	3klk4vq3y017cnn@marketplace.amazon.com	Zac Rubart	+1 619-854-2705 ext. 05434	ABM017	Delivery by Monday, Dec 14 Blue Dendrobium Orchids 10 Stems in a Free Designer Glass Vase by Arabella Bouquets	1	0	1	Expedited	Elizabeth Blake	4541 BAUER FARM DR APT E13			LAWRENCE	KS	66049-9116	US			false		
112-0909742-4405831	39176474672162	2020-12-11T19:57:43+00:00	2020-12-11T11:57:43-08:00	2020-12-11T20:23:42+00:00	2020-12-16T07:59:59+00:00	-4	j2fg3t226cs495s@marketplace.amazon.com	Melinda Harriman	+1 763-225-9463 ext. 47140	ABC002	Delivery by Wednesday, Dec 16 Warm Wishes Bouquet by Arabella Bouquets	1	0	1	Expedited	Charles Harriman and Judy	2447 BREAKWATER WAY UNIT 8-102			NAPLES	FL	34112-5984	US			false		
112-8627140-8347469	50276773647322	2020-12-11T20:10:28+00:00	2020-12-11T12:10:28-08:00	2020-12-11T20:40:05+00:00	2020-12-16T07:59:59+00:00	-4	fb3ksxpxnhl3hsg@marketplace.amazon.com	Mrs Rhonda Fleming	+1 619-854-2705 ext. 14628	ABC001	Delivery by Wednesday, Dec 16 Seasons Greetings Bouquet by Arabella Bouquets	1	0	1	Standard	Mrs Marilyn Markey	421 S CLARK ST ORCHARD VIEW	APT 213		CARROLL	IA	51401-3032	US			false		
112-3458221-8255419	37562548291074	2020-12-11T20:16:18+00:00	2020-12-11T12:16:18-08:00	2020-12-11T20:42:39+00:00	2020-12-16T07:59:59+00:00	-4	f3z28g9qg85n87g@marketplace.amazon.com	Linda F Rubio	+1 480-618-5344 ext. 94454	ABM0033	Delivery by Tuesday, Dec 15 White Hydrangea 5 Stems with a Free Glass Vase by Arabella Bouquets	1	0	1	Expedited	Bethany Merz	107 EARL ST			WALBRIDGE	OH	43465-1111	US		For your bday and beyond, I hope. The blooms should thrive even while you’re away at the lake.  Fingers crossed. From Tía	false		
113-9531169-4524244	04498890606194	2020-12-11T20:26:33+00:00	2020-12-11T12:26:33-08:00	2020-12-11T20:54:37+00:00	2020-12-16T07:59:59+00:00	-4	jdprt6ztc7mx7qn@marketplace.amazon.com	Mary Jean Traill	+1 763-225-9463 ext. 74170	ABC001	Delivery by Wednesday, Dec 16 Seasons Greetings Bouquet by Arabella Bouquets	1	0	1	Standard	Kathleen Kaminsky	98 ALHAMBRA DR			OCEANSIDE	NY	11572-5425	US		Happy Birthday to our forever friend!  We love you and hope you enjoy your day!!! From The Comis & The Traills From The Comis & The Traills	false		
112-6443866-6873033	34874995011930	2020-12-10T18:47:18+00:00	2020-12-10T10:47:18-08:00	2020-12-11T21:11:19+00:00	2020-12-16T07:59:59+00:00	-4	v76d66gs2pnthzx@marketplace.amazon.com	Andrew	+1 213-442-1463 ext. 65654	ABR001	Delivery by Saturday, December 12 Dozen Red Roses in a Free Glass Vase by Arabella Bouquets	1	0	1	Expedited	Kate Centola	1 UNIVERSITY AVE	MONTCLAIR STATE UNIVERSITY RUSS HALL RM 217B		UPPER MONTCLAIR	NJ	07043-1624	US		Miss you touching me already.  Can’t wait till your home again and we can be alone.   Yours foreva From Bae	false		
113-1038334-3891427	29375321759722	2020-12-11T20:45:49+00:00	2020-12-11T12:45:49-08:00	2020-12-11T21:16:07+00:00	2020-12-16T07:59:59+00:00	-4	5spnft195q34m89@marketplace.amazon.com	Derek Abakanowicz	+1 213-442-1463 ext. 05613	ABM026	Delivery by Tuesday, Dec 15 Amour Bouquet by Arabella Bouquets	1	0	1	Standard	Derek M Abakanowicz	4242 N CAPISTRANO DR APT 124			DALLAS	TX	75287-4035	US			false		
112-6245844-2805839	22821736436770	2020-12-11T21:14:31+00:00	2020-12-11T13:14:31-08:00	2020-12-11T21:45:17+00:00	2020-12-16T07:59:59+00:00	-4	yfm2q4pphh5swx9@marketplace.amazon.com	Amberly Sohm	+1 415-851-9136 ext. 96627	ABR0022	Delivery by Tuesday, December 15 Dozen Pink Roses with a Free Vase by Arabella Bouquets	1	0	1	Expedited	Amberly Sohm	522 15TH ST APT B			HUNTINGTON BEACH	CA	92648-4093	US			false		
112-1871549-6756254	29770648797098	2020-12-11T21:20:02+00:00	2020-12-11T13:20:02-08:00	2020-12-11T21:50:02+00:00	2020-12-16T07:59:59+00:00	-4	2224ccjwynzmny6@marketplace.amazon.com	James Bonner	+1 602-671-6610 ext. 85898	ABM022	Delivery by Tuesday, Dec 15, Purple Extravagance Bouquet by Arabella Bouquets	1	0	1	Standard	James Bonner	6057 gordonsville road			KESWICK	VA	22947	US		Merry Christmas! From James Bonner	false		
111-7139203-3729065	65400031952770	2020-12-11T21:30:23+00:00	2020-12-11T13:30:23-08:00	2020-12-11T21:53:04+00:00	2020-12-16T07:59:59+00:00	-4	bv1j5jbjjprrvq1@marketplace.amazon.com	Mark Leslie	+1 415-851-9136 ext. 78197	ABM020	Delivery by Tuesday, Dec 15 Sunset Bouquet by Arabella Bouquets	1	0	1	Expedited	Aida Cabrera	11511 NW 22ND ST			PEMBROKE PINES	FL	33026-2005	US		Dear Aida, Thinking of you and keeping you in our prayers.  Love, Ann and Mark From Mark Leslie	false		
112-0303762-7037074	16810069423514	2020-12-11T21:23:15+00:00	2020-12-11T13:23:15-08:00	2020-12-11T21:53:50+00:00	2020-12-16T07:59:59+00:00	-4	yfm2q4pphh5swx9@marketplace.amazon.com	Amberly Sohm	+1 763-225-9463 ext. 36902	ABR0022	Delivery by Tuesday, December 15 Dozen Pink Roses with a Free Vase by Arabella Bouquets	1	0	1	Expedited	Amberly Sohm	522 15TH ST APT B			HUNTINGTON BEACH	CA	92648-4093	US			false		
111-2035706-4044221	60190955963090	2020-12-11T21:36:45+00:00	2020-12-11T13:36:45-08:00	2020-12-11T22:04:04+00:00	2020-12-16T07:59:59+00:00	-4	0k2p1hqk9wgpvg1@marketplace.amazon.com	Lydia Swearinger	+1 213-442-1463 ext. 41582	ABC001	Delivery by Wednesday, Dec 16 Seasons Greetings Bouquet by Arabella Bouquets	1	0	1	Expedited	Pat Backer	2295 37TH ST			MANDAN	ND	58554-8236	US		Our Deepest Sympathy From LaVerne, Lori, Greg, Lydia	false		
111-3694667-3513818	56482983309314	2020-12-11T13:28:10+00:00	2020-12-11T05:28:10-08:00	2020-12-11T22:10:40+00:00	2020-12-16T07:59:59+00:00	-4	tmzbxd03cfj7gg0@marketplace.amazon.com	Talhia Remy	+1 346-307-9643 ext. 75706	ABM002	Delivery by Tuesday, Dec 15 White Calla Lilies in a Free Designer Glass Vase by Arabella Bouquets	1	0	1	Expedited	Talhia Remy	2 lake drive south			Valley Stream	NY	11580	US		Congratulations  So proud of you Keep shining  Love you From Talhia Remy	false		
114-5792120-7245842	43906369150754	2020-12-11T21:46:58+00:00	2020-12-11T13:46:58-08:00	2020-12-11T22:15:28+00:00	2020-12-16T07:59:59+00:00	-4	wsn3wzpcgfrrzmh@marketplace.amazon.com	Fox Property Management	+1 480-618-5344 ext. 80278	ABM022	Delivery by Tuesday, Dec 15, Purple Extravagance Bouquet by Arabella Bouquets	1	0	1	Expedited	Claire Marie	2855 ROCK CREEK CIR UNIT 201			SUPERIOR	CO	80027-4618	US		Claire, THANK YOU for another great year of working together and all you do for us all! Happy Work Anniversary from your Fox Family! From Fox Property Management	false		
112-0086448-3218662	41429281132730	2020-12-11T22:01:41+00:00	2020-12-11T14:01:41-08:00	2020-12-11T22:29:40+00:00	2020-12-16T07:59:59+00:00	-4	myd3b4vsbcm6k59@marketplace.amazon.com	DALE W. Armstrong, Sr.	+1 763-225-9463 ext. 35273	ABM020	Delivery by Tuesday, Dec 15 Sunset Bouquet by Arabella Bouquets	1	0	1	Expedited	Michelle Hass	10632 FOXBERRY PARK DR			RENO	NV	89521-8380	US		Feel better soon From Mom Dad and Cody xox	false		
114-5471483-4170660	03617917176842	2020-12-11T22:06:56+00:00	2020-12-11T14:06:56-08:00	2020-12-11T22:35:48+00:00	2020-12-16T07:59:59+00:00	-4	qj6f1k0dydlb6fh@marketplace.amazon.com	melissa moore	+1 415-419-8616 ext. 79892	ABM017	Delivery by Monday, Dec 14 Blue Dendrobium Orchids 10 Stems in a Free Designer Glass Vase by Arabella Bouquets	1	0	1	Expedited	Maureen moore	520 ZION RD			EGG HARBOR TOWNSHIP	NJ	08234-5925	US		Happy Birthday!!! From Melissa and Billy	false		
114-8027964-4830656	55751333797914	2020-12-11T22:06:16+00:00	2020-12-11T14:06:16-08:00	2020-12-11T22:36:46+00:00	2020-12-16T07:59:59+00:00	-4	0g1bk2fq117c5y5@marketplace.amazon.com	maria reyes	+1 480-618-5344 ext. 34081	ABR0033	Delivery by Tuesday, December 15, December 15 Dozen Orange Roses in a Free Vase by Arabella Bouquets	1	0	1	Expedited	Tomasita Coronado	2631 S 25TH AVE			YUMA	AZ	85364-6829	US			false		
111-7116630-8658666	37517387955522	2020-12-11T22:07:50+00:00	2020-12-11T14:07:50-08:00	2020-12-11T22:37:31+00:00	2020-12-16T07:59:59+00:00	-4	lk5gg4w9k688s11@marketplace.amazon.com	Jennifer Izzo	+1 415-851-9136 ext. 72081	ABM022	Delivery by Tuesday, Dec 15, Purple Extravagance Bouquet by Arabella Bouquets	1	0	1	Expedited	Tracy Belton	118 4TH ST			GARDEN CITY	NY	11530-5934	US		Happy Birthday Tracy!! Love, Joe, Jen, Skye, Jade, & T-Bone From Jennifer Romano	false		
114-9894725-1477838	57803050906490	2020-12-11T22:11:50+00:00	2020-12-11T14:11:50-08:00	2020-12-11T22:39:36+00:00	2020-12-16T07:59:59+00:00	-4	cq47w6fmpjzrtyd@marketplace.amazon.com	Kathy	+1 602-671-6610 ext. 00107	ABR004	Delivery by Tuesday, December 15 Dozen Yellow Roses in a Free Vase by Arabella Bouquets	1	0	1	Expedited	Jenny Wade	5200 FM 715			MIDLAND	TX	79706-6540	US		Happy birthday I love you very much! Kathy and family From Kathy	false		
113-9705238-0833046	46646019318482	2020-12-11T22:10:30+00:00	2020-12-11T14:10:30-08:00	2020-12-11T22:39:39+00:00	2020-12-16T07:59:59+00:00	-4	fd1r1t3mzdbvmph@marketplace.amazon.com	Tracy Bush	+1 415-851-9136 ext. 59849	ABC001	Delivery by Wednesday, Dec 16 Seasons Greetings Bouquet by Arabella Bouquets	1	0	1	Expedited	Sarah Peace	1848 KETCH PL			OAK HARBOR	WA	98277-8512	US		Thank you for all you do for me. You have been so great to work with! Have a Merry Christmas! From Tracy Bush (CAD of Puget Sound)	false		
113-1949085-8966631	34876570678770	2020-12-11T22:10:17+00:00	2020-12-11T14:10:17-08:00	2020-12-11T22:39:43+00:00	2020-12-16T07:59:59+00:00	-4	nxqcl4wyykt2bx5@marketplace.amazon.com	Jason Kalafarski	+1 415-419-8616 ext. 94388	ABM022	Delivery by Tuesday, Dec 15, Purple Extravagance Bouquet by Arabella Bouquets	1	0	1	Expedited	Malgorzata  Kubaska	7 COTTAGE ST			WARE	MA	01082-1105	US		Merry Christmas!!! Miss you very much  Love Jason and Rebecca From Jason Kalafarski	false		
112-4917273-6429014	57548260055466	2020-12-11T21:40:03+00:00	2020-12-11T13:40:03-08:00	2020-12-11T22:42:01+00:00	2020-12-16T07:59:59+00:00	-4	ds5f69q8fb6hcn2@marketplace.amazon.com	Patrik Stjernquist	+1 213-442-1463 ext. 82538	ABM017	Delivery by Monday, Dec 14 Blue Dendrobium Orchids 10 Stems in a Free Designer Glass Vase by Arabella Bouquets	1	0	1	Expedited	Barbro Stjernquist	592 Starfish Drive			Port Isabel	texas	78578	US		Thank you for everything you do for my family. May this little gift show you how much you mean to us. Love you. Merry Christmas Mom From Tammy	false		
114-6757020-7211411	05898735421498	2020-12-11T22:13:44+00:00	2020-12-11T14:13:44-08:00	2020-12-11T22:43:00+00:00	2020-12-16T07:59:59+00:00	-4	cfb1d4xlvwnvh2y@marketplace.amazon.com	Lynda Morales	+1 619-854-2705 ext. 53108	ABM017	Delivery by Monday, Dec 14 Blue Dendrobium Orchids 10 Stems in a Free Designer Glass Vase by Arabella Bouquets	1	0	1	Expedited	Gladys Sexton	1955 COAL CITY RD			COAL CITY	WV	25823-9627	US		Enjoy your gift! Merry Christmas!! We love you so much! Wishing we could be together! From Lynda Morales	false		
111-9460261-8529841	61914452276458	2020-12-11T22:15:29+00:00	2020-12-11T14:15:29-08:00	2020-12-11T22:43:18+00:00	2020-12-16T07:59:59+00:00	-4	f0t9vr60669t26g@marketplace.amazon.com	Alexander A Dwivedi	+1 415-851-9136 ext. 46174	ABM017	Delivery by Monday, Dec 14 Blue Dendrobium Orchids 10 Stems in a Free Designer Glass Vase by Arabella Bouquets	1	0	1	Expedited	Gita Verma	41962 GREENLOOK LN			ASHBURN	VA	20148-4884	US		Thank you for all your support. Happy Holidays! From Rachel Dwivedi	false		
112-9447077-4026663	42407285926314	2020-12-11T22:21:05+00:00	2020-12-11T14:21:05-08:00	2020-12-11T22:44:03+00:00	2020-12-16T07:59:59+00:00	-4	wylp5n6yc6l4lk2@marketplace.amazon.com	Florence Speers	+1 213-442-1463 ext. 95657	ABM020	Delivery by Tuesday, Dec 15 Sunset Bouquet by Arabella Bouquets	1	0	1	Expedited	SPEERS	8401 WOODBRANCH CT			McLean	VA	22102-1755	US		HAPPY BIRTHDAY SUSIE!!!!!!! Love, Ron and Flo From Florence Speers	false		
114-0865878-6351437	29254666799178	2020-12-11T22:24:43+00:00	2020-12-11T14:24:43-08:00	2020-12-11T22:51:34+00:00	2020-12-16T07:59:59+00:00	-4	ykcxrn0hf5ff2dj@marketplace.amazon.com	Patrick A Kosecki	+1 415-851-9136 ext. 25465	ABR0022	Delivery by Tuesday, December 15 Dozen Pink Roses with a Free Vase by Arabella Bouquets	1	0	1	Expedited	Dr. Daniel Morgan	3618 WASHOE ST			DAVIS	CA	95618-5087	US		Sending our love to all of you From Patrick, Sharon and Alex Kosecki	false		
113-4660852-8011406	17591648489738	2020-12-11T22:24:08+00:00	2020-12-11T14:24:08-08:00	2020-12-11T22:54:24+00:00	2020-12-16T07:59:59+00:00	-4	6b3x33wvct2jw16@marketplace.amazon.com	ROBERT HUTTER	+1 619-854-2705 ext. 15318	ABM022	Delivery by Tuesday, Dec 15, Purple Extravagance Bouquet by Arabella Bouquets	1	0	1	Expedited	ANN GAEBEL	337 DEER PARK AVE			DIX HILLS	NY	11746	US			false		
112-4930170-2680258	03040317232914	2020-12-11T22:31:47+00:00	2020-12-11T14:31:47-08:00	2020-12-11T22:59:16+00:00	2020-12-16T07:59:59+00:00	-4	sdxnzdp31fj0vkb@marketplace.amazon.com	Charlynne Whittock	+1 480-618-5344 ext. 71276	ABM025	Delivery by Tuesday, Dec 15 Fell for You Bouquet by Arabella Bouquets	1	0	1	Standard	Kristine Baker	3810 ADAMS ST			CARLSBAD	CA	92008-3403	US		Happy Birthday beautiful daughter, some flowers to send my love and wishing you all the best. Love, Mom From Charlynne Whittock	false		
111-8843990-1749819	11135780827554	2020-12-11T22:54:42+00:00	2020-12-11T14:54:42-08:00	2020-12-11T23:22:15+00:00	2020-12-16T07:59:59+00:00	-4	3r6611yknckgzpb@marketplace.amazon.com	Tanya K. Rublaitus	+1 415-851-9136 ext. 32587	ABM010	Delivery by Tuesday, Dec 15 Everlasting Fling with a Free Glass Vase by Arabella Bouquets	1	0	1	Expedited	Carrie Heins	2501 COOK AVE			PORT TOWNSEND	WA	98368-1015	US		We are sending you lots of love and light during this difficult time.  LIPEO, Your IZ sisters From Tanya K. Rublaitus	false		
111-6769086-3880258	55743813751146	2020-12-11T23:10:09+00:00	2020-12-11T15:10:09-08:00	2020-12-11T23:29:41+00:00	2020-12-16T07:59:59+00:00	-4	w4t013b6l0029m8@marketplace.amazon.com	Teal Furnholm	+1 763-225-9463 ext. 43955	ABM031	Delivery by Tuesday, Dec 15 The Harvest Moon Bouquet by Arabella Bouquets	1	0	1	Expedited	Rhonda Jersild	6087 PILLORY DR			INDIANAPOLIS	IN	46254-5042	US		Merry Christmas Rhonda! From Teal Furnholm	false		
111-8640541-2590656	38295504538266	2020-12-11T23:03:06+00:00	2020-12-11T15:03:06-08:00	2020-12-11T23:30:27+00:00	2020-12-16T07:59:59+00:00	-4	vh993jkyvkxyb03@marketplace.amazon.com	MaryPat Davitz	+1 415-851-9136 ext. 86305	ABM021	Delivery by Tuesday, Dec 15 Joyous Bouquet by Arabella Bouquets	1	0	1	Expedited	Caty Beilsmith	20 CADES CV			SAINT CHARLES	MO	63301-8727	US		Hope this brightens your day and reminds you to focus on joys of family. Take care of yourself. Congratulations! From MaryPat Davitz	false		
113-4047817-4808204	65522456967642	2020-12-11T23:14:36+00:00	2020-12-11T15:14:36-08:00	2020-12-11T23:43:52+00:00	2020-12-16T07:59:59+00:00	-4	ky7d7b7d7ybqnhv@marketplace.amazon.com	Lauren Prepchuk	+1 346-307-9643 ext. 18798	ABR001	Delivery by Tuesday, December 15 Dozen Red Roses in a Free Vase by Arabella Bouquets	1	0	1	Expedited	Grammy and Mike Kerins	102 ROCK GLEN RD			WYNNEWOOD	PA	19096-3806	US		Happy holidays Grammy!  We love you. From Max and Wyatt	false		
113-3632343-8513867	45360741289170	2020-12-11T23:27:21+00:00	2020-12-11T15:27:21-08:00	2020-12-11T23:54:10+00:00	2020-12-16T07:59:59+00:00	-4	tb2chvt165m1hqr@marketplace.amazon.com	Emersen Lorenz	+1 415-419-8616 ext. 83149	ABM022	Delivery by Tuesday, Dec 15, Purple Extravagance Bouquet by Arabella Bouquets	1	0	1	Expedited	Emersen Lorenz	1133 PINE VISTA LN			MEADOW VISTA	CA	95722-9611	US			false		
113-3893861-3818668	30580916980266	2020-12-11T23:37:48+00:00	2020-12-11T15:37:48-08:00	2020-12-12T00:04:47+00:00	2020-12-16T07:59:59+00:00	-4	sxstqg4w0kxbnjk@marketplace.amazon.com	Maia van Tol	+1 619-854-2705 ext. 90308	ABC002	Delivery by Wednesday, Dec 16 Warm Wishes Bouquet by Arabella Bouquets	1	0	1	Expedited	Adrienne Harkin	190 INDEPENDENCE LN UNIT 202			MAITLAND	FL	32751-5656	US		Happy birthday Adrienne! From Mom, Dad and Maia	false		
114-0077340-5469006	62338932662658	2020-12-11T23:55:16+00:00	2020-12-11T15:55:16-08:00	2020-12-12T00:18:24+00:00	2020-12-16T07:59:59+00:00	-4	883vnm9z0xv6hkz@marketplace.amazon.com	Christian Wilson	+1 415-851-9136 ext. 70801	ABM010	Delivery by Tuesday, Dec 15 Everlasting Fling with a Free Glass Vase by Arabella Bouquets	1	0	1	Expedited	Azsha Ray	PINE MANOR COLLEGE 400 HEATH ST			CHESTNUT HILL	MA	02467-2332	US			false		
113-3193255-6733040	61754958873546	2020-12-11T23:52:23+00:00	2020-12-11T15:52:23-08:00	2020-12-12T00:21:04+00:00	2020-12-16T07:59:59+00:00	-4	psvbyktn8g7ww7g@marketplace.amazon.com	Lonnie Whisker	+1 213-442-1463 ext. 96553	ABR001	Delivery by Tuesday, December 15 Dozen Red Roses in a Free Vase by Arabella Bouquets	1	0	1	Expedited	Arthur Simmons	401 WALTERS ST			COLTON	CA	92324-1046	US		Happy Birthday and Merry Christmas, Mom! I love you! From Lonnie - Your 2nd Son	false		
113-7268580-0453846	46955656569034	2020-12-11T23:55:10+00:00	2020-12-11T15:55:10-08:00	2020-12-12T00:23:49+00:00	2020-12-16T07:59:59+00:00	-4	hgfxzmyv9s793bv@marketplace.amazon.com	Karen Lopez	+1 602-671-6610 ext. 84120	ABC002	Delivery by Wednesday, Dec 16 Warm Wishes Bouquet by Arabella Bouquets	1	0	1	Expedited	Aubrey Stevens	1776 E SILKTASSEL TRL			SAN TAN VALLEY	AZ	85143-4463	US		Not in time for your birthday but maybe you will be able to smell them by now From Love you! Mom	false		
114-2413260-0989057	65523366980306	2020-12-12T00:09:09+00:00	2020-12-11T16:09:09-08:00	2020-12-12T00:38:11+00:00	2020-12-16T07:59:59+00:00	-4	9qvz7552w44f3qg@marketplace.amazon.com	moises	+1 602-671-6610 ext. 90275	ABR001	Delivery by Tuesday, December 15 Dozen Red Roses in a Free Vase by Arabella Bouquets	1	0	1	Expedited	moises	155 CASTOR ST			TURLOCK	CA	95380-5322	US		¡Disfruta de tu regalo! Mi vidad te amo y quieres casarte conmigo te amo viridiana O De moises	false		
114-2513122-4761803	04232964015186	2020-12-12T00:34:26+00:00	2020-12-11T16:34:26-08:00	2020-12-12T01:11:04+00:00	2020-12-16T07:59:59+00:00	-4	8gjzmqs0z9hbrsw@marketplace.amazon.com	Steven Bernstein	+1 415-851-9136 ext. 99792	ABSR003	Delivery by Tuesday, Dec 15 Yellow Spray Roses in a Free Designer Glass Vase by Arabella Bouquets	1	0	1	Expedited	Olympia Giudice	22 RIPPLEWOOD DR			UPPER SADDLE RIVER	NJ	07458-1410	US		Hi Olympia, Happy Holidays  Love Steven and Renee	true		
114-3197206-7020246	54296937362394	2020-12-12T00:55:55+00:00	2020-12-11T16:55:55-08:00	2020-12-12T01:17:53+00:00	2020-12-16T07:59:59+00:00	-4	mkxv53c92tcvglm@marketplace.amazon.com	Renolda	+1 763-225-9463 ext. 54047	ABC002	Delivery by Wednesday, Dec 16 Warm Wishes Bouquet by Arabella Bouquets	1	0	1	Expedited	Troy Groves	8823 RED SPRUCE WAY			JESSUP	MD	20794-4902	US		You are in our prayers and thoughts! God bless you From Your Tacoma Family - Grant, Barker and Travis families	false		
112-1075273-0404231	00260883191066	2020-12-12T01:27:22+00:00	2020-12-11T17:27:22-08:00	2020-12-12T01:56:45+00:00	2020-12-16T07:59:59+00:00	-4	1mmzxj4nvnngdbp@marketplace.amazon.com	Thomas M. Lind	+1 346-307-9643 ext. 79351	ABM0033	Delivery by Tuesday, Dec 15 White Hydrangea 5 Stems with a Free Glass Vase by Arabella Bouquets	1	0	1	Expedited	Jo Ann Isaac	9821 E RIMROCK DR			PRESCOTT VALLEY	AZ	86314-7130	US			false		
112-2137309-9870636	57852347453778	2020-12-12T01:28:33+00:00	2020-12-11T17:28:33-08:00	2020-12-12T01:57:12+00:00	2020-12-16T07:59:59+00:00	-4	05cbk2m2fwt62l8@marketplace.amazon.com	Grace	+1 619-854-2705 ext. 40106	ABR0033	Delivery by Tuesday, December 15, December 15 Dozen Orange Roses in a Free Vase by Arabella Bouquets	1	0	1	Expedited	Mamaw	1325 HEARTLAND DR			MARYVILLE	TN	37801-8922	US		We love you! From The Carringer’s	false		
112-1794165-2684209	68143038857514	2020-12-12T01:32:30+00:00	2020-12-11T17:32:30-08:00	2020-12-12T02:02:28+00:00	2020-12-16T07:59:59+00:00	-4	mxsgtnl3b6gsq4f@marketplace.amazon.com	falerjk@comcast.net	+1 619-854-2705 ext. 15535	ABR0022	Delivery by Tuesday, December 15 Dozen Pink Roses with a Free Vase by Arabella Bouquets	1	0	1	Expedited	Katia Bucaeff	439 GRAND BLVD			SAN MATEO	CA	94401-1711	US			false		
112-8183829-1316210	08611604363442	2020-12-12T01:57:44+00:00	2020-12-11T17:57:44-08:00	2020-12-12T02:20:36+00:00	2020-12-16T07:59:59+00:00	-4	yxb0mvmcn0tysr8@marketplace.amazon.com	Andrew Zivitz	+1 415-419-8616 ext. 31106	ABC002	Delivery by Wednesday, Dec 16 Warm Wishes Bouquet by Arabella Bouquets	1	0	1	Expedited	jackie zivitz	602 LORINE LN			PLYMOUTH MEETING	PA	19462-1260	US		Jackie, Andy, Sami, and Gavin,              Enjoy these Hanukah flowers.  We love you. From Bubbie and Pop Pop	false		
112-0849263-5023404	35897611504322	2020-12-12T01:51:28+00:00	2020-12-11T17:51:28-08:00	2020-12-12T02:20:44+00:00	2020-12-16T07:59:59+00:00	-4	7gm2j9dsdptwxw1@marketplace.amazon.com	Steve Diaz	+1 415-851-9136 ext. 75557	ABR001	Delivery by Tuesday, December 15 Dozen Red Roses in a Free Vase by Arabella Bouquets	1	0	1	Expedited	Morton Goldblum	208 CROWN IMPERIAL ST			HENDERSON	NV	89074-5602	US			false		
112-0163952-5755438	62656419849434	2020-12-11T21:30:49+00:00	2020-12-11T13:30:49-08:00	2020-12-12T02:24:48+00:00	2020-12-16T07:59:59+00:00	-4	kdwwybcsy59dgv9@marketplace.amazon.com	Angela Horn	803438466	ABC001	Delivery by Wednesday, Dec 16 Seasons Greetings Bouquet by Arabella Bouquets	1	0	1	Expedited	Mary Tate	226 SMITHFIELD CIR			ELGIN	SC	29045-9781	US		Happy Birthday Maw! We love you! From Angie, Jeremy and kids	false		
114-6632022-4528206	49899272531826	2020-12-12T01:59:39+00:00	2020-12-11T17:59:39-08:00	2020-12-12T02:27:22+00:00	2020-12-16T07:59:59+00:00	-4	4np9w2pv09qp9dj@marketplace.amazon.com	Krystal S Lewis	+1 415-419-8616 ext. 87023	ABR0022	Delivery by Tuesday, December 15 Dozen Pink Roses with a Free Vase by Arabella Bouquets	1	0	1	Expedited	Stephanie Pinkett	6304 FIVE OAKS WAY			TUCKER	GA	30084-8175	US		Sending my prayers & sympathy for your loss of Mama Rosa🙏🏽  Love Krystal #SIB From Krystal S Lewis	false		
113-7371772-6636253	07967190912938	2020-12-12T02:20:58+00:00	2020-12-11T18:20:58-08:00	2020-12-12T02:38:15+00:00	2020-12-16T07:59:59+00:00	-4	fcq7p1g227pd21t@marketplace.amazon.com	Steven W. Hall	+1 213-442-1463 ext. 41738	ABM026	Delivery by Tuesday, Dec 15 Amour Bouquet by Arabella Bouquets	1	0	1	Expedited	Mr & mrs Larry Pribyl	33085 MEADOW WOOD ST			TANGENT	OR	97389-9818	US			false		
111-9649278-8622644	37554714172282	2020-12-12T02:33:08+00:00	2020-12-11T18:33:08-08:00	2020-12-12T03:01:54+00:00	2020-12-16T07:59:59+00:00	-4	9thcyylstfg1yrm@marketplace.amazon.com	Jackie Fruck	+1 346-307-9643 ext. 09244	ABM020	Delivery by Tuesday, Dec 15 Sunset Bouquet by Arabella Bouquets	1	0	1	Expedited	Mary Ann Stone	1600 DERBY DR			HENDERSON	NV	89002-8726	US		Welcome home Mary Ann!! Wishing you a bright 2021!!  Love, Jackie From Jackie Fruck	false		
114-9343184-2194622	61439177428122	2020-12-12T02:56:48+00:00	2020-12-11T18:56:48-08:00	2020-12-12T03:24:00+00:00	2020-12-16T07:59:59+00:00	-4	ds46kyb53cq5qnw@marketplace.amazon.com	cathy gassert	+1 480-618-5344 ext. 12986	ABM022	Delivery by Tuesday, Dec 15, Purple Extravagance Bouquet by Arabella Bouquets	1	0	1	Standard	Ruby Brown	6805 PECANHILL DR			BARTLETT	TN	38135-1666	US		Mom, I hope you have a nice 91st. birthday! Enjoy your birthday flowers. I love you, Cathy Your favorite daughter :-) From cathy gassert	false		
113-1110819-6133031	28367629139634	2020-12-12T03:14:15+00:00	2020-12-11T19:14:15-08:00	2020-12-12T03:32:23+00:00	2020-12-16T07:59:59+00:00	-4	96l4104ztxzs1rp@marketplace.amazon.com	Paramita Sarma	+1 213-442-1463 ext. 02945	ABR0022	Delivery by Tuesday, December 15 Dozen Pink Roses with a Free Vase by Arabella Bouquets	1	0	1	Expedited	Ritika Arora	2280 WESTGATE AVE			SAN JOSE	CA	95125-4035	US		Congratulations! So happy for you two — love, Mama & Mani From Paramita Sarma	false		
114-9399930-1668236	34410639877186	2020-12-12T03:15:02+00:00	2020-12-11T19:15:02-08:00	2020-12-12T03:44:14+00:00	2020-12-16T07:59:59+00:00	-4	766jsgz37dsp899@marketplace.amazon.com	Ben Cooper	+1 619-854-2705 ext. 10263	ABM024	Delivery by Tuesday, Dec 15 Beauty of Color Bouquet by Arabella Bouquets	1	0	1	Expedited	Benjamin Cooper	9606 S TRACE RD			MILTON	FL	32583-9273	US		Love you, see you soon(ish) From Ben Cooper	false		
113-9178844-5075468	42746699150010	2020-12-12T03:32:12+00:00	2020-12-11T19:32:12-08:00	2020-12-12T03:55:35+00:00	2020-12-16T07:59:59+00:00	-4	y2j922f6bc62x8n@marketplace.amazon.com	Jill Lundegard	+1 415-851-9136 ext. 27832	ABM010	Delivery by Tuesday, Dec 15 Everlasting Fling with a Free Glass Vase by Arabella Bouquets	1	0	1	Expedited	The Whitakers	36037 ROYAL SAGE CT			PALM DESERT	CA	92211-2719	US			false		
111-4669717-4299461	21669216548994	2020-12-12T03:38:52+00:00	2020-12-11T19:38:52-08:00	2020-12-12T04:00:24+00:00	2020-12-16T07:59:59+00:00	-4	j5b3dhydsx5kmm0@marketplace.amazon.com	Airis Thomas	+8327440285	ABR001	Delivery by Tuesday, December 15 Dozen Red Roses in a Free Vase by Arabella Bouquets	1	0	1	Expedited	Patricia Bethea	19403 HORDEN CREEK DR			TOMBALL	TX	77375-7750	US		Dutch, Get well soon. Well love you and Merry Christmas! From Shawn & girls	false		
111-9908851-0206627	06297531708746	2020-12-12T03:27:05+00:00	2020-12-11T19:27:05-08:00	2020-12-12T04:02:00+00:00	2020-12-16T07:59:59+00:00	-4	mrs6jjjxmqrsszl@marketplace.amazon.com	Blake Smith	+1 213-442-1463 ext. 27772	ABR0022	Delivery by Tuesday, December 15 Dozen Pink Roses with a Free Vase by Arabella Bouquets	1	0	1	Expedited	Bailey Brooke	10791 NW 18TH DR			PLANTATION	FL	33322-6472	US		Enjoy your gift! From Blake Smith	false		
113-3351187-1093046	01831624013458	2020-12-12T03:59:43+00:00	2020-12-11T19:59:43-08:00	2020-12-12T04:26:19+00:00	2020-12-16T07:59:59+00:00	-4	901s71drb3x21h5@marketplace.amazon.com	Philip	+1 415-419-8616 ext. 81518	ABR0022	Delivery by Tuesday, December 15 Dozen Pink Roses with a Free Vase by Arabella Bouquets	1	0	1	Expedited	Gerald Joanne Morford	5900 S GILBERT RD APT 109			CHANDLER	AZ	85249-5634	US		Happy Birthday Mom! From Phil	false		
111-5807040-9598620	44800670498954	2020-12-12T04:01:45+00:00	2020-12-11T20:01:45-08:00	2020-12-12T04:29:40+00:00	2020-12-16T07:59:59+00:00	-4	dxvhxrpvms2h1nv@marketplace.amazon.com	Hasan	+1 415-419-8616 ext. 07195	ABR001	Delivery by Tuesday, December 15 Dozen Red Roses in a Free Vase by Arabella Bouquets	1	0	1	Expedited	Hasan	901 ENGLEWOOD PKWY APT M109			ENGLEWOOD	CO	80110-2364	US		I just want you to be happy, and I’m sorry. I can’t stand it that we don’t talk talk to each other. I miss u. From Hasan	false		
113-7272668-9720226	22898664972146	2020-12-12T04:45:30+00:00	2020-12-11T20:45:30-08:00	2020-12-12T05:02:06+00:00	2020-12-16T07:59:59+00:00	-4	2299p6g8tckdc8h@marketplace.amazon.com	John Scott	+1 346-307-9643 ext. 08127	ABM022	Delivery by Tuesday, Dec 15, Purple Extravagance Bouquet by Arabella Bouquets	1	0	1	Expedited	Mone Da Body	1502 STONE RD			DURHAM	NC	27703-6528	US		Dear Mone,  Thank you for being the best agent of tobacco to our lives since the Marlboro man. Many blessings on this new journey, we'll be praying for ya! From Jack and Bob's Moving	false		
113-2633197-5037054	39983562190866	2020-12-12T04:52:11+00:00	2020-12-11T20:52:11-08:00	2020-12-12T05:22:40+00:00	2020-12-16T07:59:59+00:00	-4	cjc93bq90z1r9sv@marketplace.amazon.com	Lisa Macias	+1 763-225-9463 ext. 73094	ABM022	Delivery by Tuesday, Dec 15, Purple Extravagance Bouquet by Arabella Bouquets	1	0	1	Expedited	Joan Hubbard	549 DODSON VIEW RD			ROSEBURG	OR	97471-9312	US			false		
113-3914771-8688232	64069247349930	2020-12-12T04:59:38+00:00	2020-12-11T20:59:38-08:00	2020-12-12T05:29:45+00:00	2020-12-16T07:59:59+00:00	-4	dlqg9ccb5z32g1p@marketplace.amazon.com	Susan C. Freeman	+1 415-851-9136 ext. 90533	ABC002	Delivery by Wednesday, Dec 16 Warm Wishes Bouquet by Arabella Bouquets	1	0	1	Expedited	Deirdre Breakenridge	36 STEEPLECHASE DR			MARLBORO	NJ	07746-1914	US			false		
113-4867006-2485807	31962828135730	2020-12-12T05:16:29+00:00	2020-12-11T21:16:29-08:00	2020-12-12T05:31:54+00:00	2020-12-16T07:59:59+00:00	-4	5231br5qt3rbgjv@marketplace.amazon.com	Juan Rodriguez	+1 763-225-9463 ext. 37802	ABR001	Delivery by Tuesday, December 15 Dozen Red Roses in a Free Vase by Arabella Bouquets	1	0	1	Expedited	Juan Rodriguez	25 CURTIN AVE FIRST FL BACK DOOR	PLEASE		NEW BRITAIN	CT	06053-2934	US		Enjoy your gift! From Juan Rodriguez	false		
112-0424192-6738649	21266786338794	2020-12-12T05:07:21+00:00	2020-12-11T21:07:21-08:00	2020-12-12T05:36:41+00:00	2020-12-16T07:59:59+00:00	-4	k2s29ynxv3rhzqk@marketplace.amazon.com	Anandhi Bumstead	+1 346-307-9643 ext. 51505	ABR001	Delivery by Tuesday, December 15 Dozen Red Roses in a Free Vase by Arabella Bouquets	1	0	1	Expedited	Kathy Wessel	4530 SW FRONTENAC ST			SEATTLE	WA	98136-1772	US		Hi Kathy, Happy Holidays! Hope your arm feels better soon, take care... Anandhi	false		
114-0325419-8068210	48181976865474	2020-12-12T05:08:09+00:00	2020-12-11T21:08:09-08:00	2020-12-12T05:37:13+00:00	2020-12-16T07:59:59+00:00	-4	r3t17x4f5wvm4gz@marketplace.amazon.com	Allia McCrank	+1 415-419-8616 ext. 80029	ABM010	Delivery by Tuesday, Dec 15 Everlasting Fling with a Free Glass Vase by Arabella Bouquets	1	0	1	Expedited	Margie Lee	2650 16TH AVE			SAN FRANCISCO	CA	94116-3052	US		Happy Holidays Auntie Margie and Uncle Al! We miss you!  Love, Scott, Allia and Jimmy From Allia McCrank	false		
113-1793440-0324215	20321656979074	2020-12-12T05:08:47+00:00	2020-12-11T21:08:47-08:00	2020-12-12T05:37:17+00:00	2020-12-16T07:59:59+00:00	-4	yg9f09bh8nnmmb0@marketplace.amazon.com	Lisa Bailey	+1 602-671-6610 ext. 33479	ABM022	Delivery by Tuesday, Dec 15, Purple Extravagance Bouquet by Arabella Bouquets	1	0	1	Standard	Valerie Davis-Bailey	10421 SW AZZIA WAY			PORT SAINT LUCIE	FL	34987-2336	US		Happy Birthday Mom,   We hope you have a safe and joyous day! From Love Lisa & Kyle	false		
111-5902104-6982647	00541629219002	2020-12-12T05:56:10+00:00	2020-12-11T21:56:10-08:00	2020-12-12T06:23:44+00:00	2020-12-16T07:59:59+00:00	-4	w43crb5lf4n3wtb@marketplace.amazon.com	Adrienne Casas	+1 619-854-2705 ext. 43689	ABR0055	Delivery by Tuesday, December 15 Dozen Hot Pink Roses in a Free Vase by Arabella Bouquets	1	0	1	Expedited	Dottie Lechtenberg	275 W PHILLIPS RD			WATSONVILLE	CA	95076-0721	US		Merry Christmas Grandma Dottie, we love you and hope we will all be together again soon! Love,  Adrienne, Victor, Christian, and Sophia From Adrienne Casas	false		
112-0075773-4669834	36894512138410	2020-12-12T06:50:57+00:00	2020-12-11T22:50:57-08:00	2020-12-12T07:18:03+00:00	2020-12-16T07:59:59+00:00	-4	pwf14v6nch5hvs3@marketplace.amazon.com	Sydney Hamid	+1 213-442-1463 ext. 83442	ABM0033	Delivery by Tuesday, Dec 15 White Hydrangea 5 Stems with a Free Glass Vase by Arabella Bouquets	1	0	1	Standard	Mama	16810 COWLEY RD			GRAFTON	OH	44044-9213	US		Merry Christmas! Love you ~ From Syd	false		
111-9458809-8729830	67680126941130	2020-12-12T06:58:50+00:00	2020-12-11T22:58:50-08:00	2020-12-12T07:28:02+00:00	2020-12-16T07:59:59+00:00	-4	xmc4xq4q48h0vbg@marketplace.amazon.com	Umaid Akhtar	+1 602-671-6610 ext. 30435	ABR0055	Delivery by Tuesday, December 15 Dozen Hot Pink Roses in a Free Vase by Arabella Bouquets	1	0	1	Expedited	JaKyah Beatty	300 PRETTYMAN DR APT 12101			ROCKVILLE	MD	20850-7715	US		I love you habibi. I'm sorry I wasn't able to give you the time you deserve this weekend. Please take these flowers as a token of my unrelenting love. I adore you habibi 😘 From Umaid Akhtar	false		
112-9392029-1698665	63990813300106	2020-12-12T07:01:39+00:00	2020-12-11T23:01:39-08:00	2020-12-12T07:28:57+00:00	2020-12-16T07:59:59+00:00	-4	pv7mpvv98swf9z4@marketplace.amazon.com	Rachael  Garza	+1 213-442-1463 ext. 66709	ABM031	Delivery by Tuesday, Dec 15 The Harvest Moon Bouquet by Arabella Bouquets	1	0	1	Expedited	Linda Garza	3707 W 4TH ST			FORT WORTH	TX	76107-2008	US		Hope you feel better soon! xoxo   Love Rachael From Rachael	false		
113-4028810-3310653	11323687475618	2020-12-12T08:27:23+00:00	2020-12-12T00:27:23-08:00	2020-12-12T08:50:07+00:00	2020-12-16T07:59:59+00:00	-4	jcsp5hy432jvh4n@marketplace.amazon.com	Evangeline Tenorio	+1 415-851-9136 ext. 32460	ABM010	Delivery by Tuesday, Dec 15 Everlasting Fling with a Free Glass Vase by Arabella Bouquets	1	0	1	Expedited	Greta Andrews	9011 E JEWELL CIR			DENVER	CO	80231-5715	US		Happy Birthday Greta! We love you! Vangie & Jay	false		
111-5940782-8661063	34234338321346	2020-12-12T08:30:01+00:00	2020-12-12T00:30:01-08:00	2020-12-12T08:54:13+00:00	2020-12-16T07:59:59+00:00	-4	ssc7gypdsm8m1d2@marketplace.amazon.com	kathydewitt	+1 602-671-6610 ext. 66194	ABM010	Delivery by Tuesday, Dec 15 Everlasting Fling with a Free Glass Vase by Arabella Bouquets	1	0	1	Expedited	Margaret Tsow	1971 RODNEY DR APT 307			LOS ANGELES	CA	90027-3130	US		Dear Margaret & Bert, Merry Christmas & Happy New Year!! Love from Kathy, Jon, Gisele, Michael, Jessika  ❤️❤️❤️❤️❤️ From kathydewitt	false		
111-2008022-6414618	19234585601354	2020-12-12T09:40:06+00:00	2020-12-12T01:40:06-08:00	2020-12-12T10:10:32+00:00	2020-12-16T07:59:59+00:00	-4	6g5t85r2b3qsj5l@marketplace.amazon.com	maurice king Jr	+1 213-442-1463 ext. 88422	ABR0022	Delivery by Tuesday, December 15 Dozen Pink Roses with a Free Vase by Arabella Bouquets	1	0	1	Expedited	Annita pace	28656 PARKWOOD ST			INKSTER	MI	48141-3907	US			false		
113-1017085-6666652	25962257789658	2020-12-12T11:29:49+00:00	2020-12-12T03:29:49-08:00	2020-12-12T11:58:49+00:00	2020-12-16T07:59:59+00:00	-4	51f83z2xgfw4j58@marketplace.amazon.com	Jerry Raynard Armstrong	+1 480-618-5344 ext. 33596	ABR0055	Delivery by Tuesday, December 15 Dozen Hot Pink Roses in a Free Vase by Arabella Bouquets	1	0	1	Expedited	Aunt Deloris Armstrong	5952 DAKOTA BAY ST			NORTH LAS VEGAS	NV	89081-6831	US		Have a wonderful Birthday auntie!! From Jerry and Liz	false		
113-0316525-7435443	63777765957610	2020-12-12T11:41:36+00:00	2020-12-12T03:41:36-08:00	2020-12-12T12:09:27+00:00	2020-12-16T07:59:59+00:00	-4	6d8yhtwrxb1py47@marketplace.amazon.com	maria ali	+1 346-307-9643 ext. 71561	ABR0022	Delivery by Wednesday, December 16 Dozen Pink Roses with a Free Vase by Arabella Bouquets	1	0	1	Expedited	maria ali	2005 E STIRLING CT			HENDERSONVILLE	TN	37075-9415	US		Dearest Cuckoo Baji, Sending our heartfelt condolences and keeping you all in our thoughts and prayers. Lots of love, From maria ali	false		
114-5551272-7482633	46804085345218	2020-12-12T12:41:40+00:00	2020-12-12T04:41:40-08:00	2020-12-12T13:01:39+00:00	2020-12-16T07:59:59+00:00	-4	rcm4v2qsv18qdm0@marketplace.amazon.com	JAMES MAYO	+1 480-618-5344 ext. 05917	ABM020	Delivery by Wednesday, December 16 Sunset Bouquet by Arabella Bouquets	1	0	1	Expedited	JENNIFER BOON	105 KIPLING DR			MILL VALLEY	CA	94941-1514	US		Dearest Jennifer FerFer, Sending our love to you & family now, take best care, Auntie Catherine & James From HK Mayos X	false		
112-5453281-2095431	24450843727106	2020-12-12T13:13:11+00:00	2020-12-12T05:13:11-08:00	2020-12-12T13:41:56+00:00	2020-12-16T07:59:59+00:00	-4	pgv0z6q5h40jpxs@marketplace.amazon.com	Susan Ashton	+1 415-419-8616 ext. 76963	ABR0033	Delivery by Wednesday, December 16 Dozen Orange Roses in a Free Vase by Arabella Bouquets	1	0	1	Expedited	Natalie Higgins-Birch	23 STONE SCHOOLHOUSE RD			LAKE GEORGE	NY	12845-7433	US		Happy Birthday Natalie. Love A Sue & Uncle Rich xxxxx From Susan Ashton	false		
111-3390612-2239435	43789284846314	2020-12-12T13:30:26+00:00	2020-12-12T05:30:26-08:00	2020-12-12T13:55:13+00:00	2020-12-16T07:59:59+00:00	-4	y0kskk9d312ydz8@marketplace.amazon.com	Kyle Hageman	+1 763-225-9463 ext. 17603	ABM022	Delivery by Tuesday, Dec 15, Purple Extravagance Bouquet by Arabella Bouquets	1	0	1	Expedited	Margot Hageman	401 PILOT AVE			FAYETTEVILLE	NC	28303-6824	US		HAPPY BIRTHDAY!!!!! I WISH I WAS THERE WITH YOU  I LOVE YOU! From DAD	false		
113-3125221-9176211	31533822090410	2020-12-12T13:34:58+00:00	2020-12-12T05:34:58-08:00	2020-12-12T13:57:06+00:00	2020-12-16T07:59:59+00:00	-4	n3pdkldhmvzvc83@marketplace.amazon.com	rebecca fortier	+1 213-442-1463 ext. 06785	ABM025	Delivery by Wednesday, Dec 16 Fell for You Bouquet by Arabella Bouquets	1	0	1	Expedited	Elise Vansant	22 CALVIN CT			ORINDA	CA	94563-3604	US		Happy birthday, Lissie Lou! E=elegant l=lovable I=intelligent s=sensitive e=everything nice! Love you bunches! From Grandma Becky	false		
112-0840909-7461821	34920719769114	2020-12-12T13:28:44+00:00	2020-12-12T05:28:44-08:00	2020-12-12T13:59:23+00:00	2020-12-16T07:59:59+00:00	-4	jwh26ylhwq0v4fx@marketplace.amazon.com	Lyle kirkpatrick	+1 602-671-6610 ext. 78917	ABR001	Delivery by Wednesday, December 16 Dozen Red Roses in a Free Vase by Arabella Bouquets	1	0	1	Expedited	Pam and Jim Austin	347 CASTNER FALLS RD			CASCADE	MT	59421-8105	US			false		
112-3554871-0315466	58459291565010	2020-12-12T13:29:51+00:00	2020-12-12T05:29:51-08:00	2020-12-12T14:00:30+00:00	2020-12-16T07:59:59+00:00	-4	jwh26ylhwq0v4fx@marketplace.amazon.com	Lyle kirkpatrick	+1 619-854-2705 ext. 51266	ABR001	Delivery by Wednesday, December 16 Dozen Red Roses in a Free Vase by Arabella Bouquets	1	0	1	Expedited	E.F. Barrow	162 SPENCER DR			SILVERTON	OR	97381-1975	US			false		
112-0208754-9161860	67921676595826	2020-12-12T13:30:35+00:00	2020-12-12T05:30:35-08:00	2020-12-12T14:01:18+00:00	2020-12-16T07:59:59+00:00	-4	jwh26ylhwq0v4fx@marketplace.amazon.com	Lyle kirkpatrick	+1 213-442-1463 ext. 66502	ABR001	Delivery by Wednesday, December 16 Dozen Red Roses in a Free Vase by Arabella Bouquets	1	0	1	Expedited	Carole paske	3628 3RD AVE S			GREAT FALLS	MONTANA	59405-3522	US			false		
113-9215199-0306643	07447704920418	2020-12-12T13:45:40+00:00	2020-12-12T05:45:40-08:00	2020-12-12T14:12:10+00:00	2020-12-16T07:59:59+00:00	-4	gzxq3w0c8d6x5zv@marketplace.amazon.com	Jerrod Yeager	+1 929-436-4790 ext. 18721	ABM010	Delivery by Wednesday, Dec 16 Everlasting Fling with a Free Glass Vase by Arabella Bouquets	1	0	1	Expedited	Darlene Yeager	10738 822ND AVE			GRANITE FALLS	MN	56241-4010	US		Happy Birthday Mom!   We wish we could be there.  Hope you have a wonderful day. We love you, Jerrod, Stefanie & Maddie From Jerrod, Stef & Maddie	false		
112-9668408-1883411	38502218310866	2020-12-12T13:53:11+00:00	2020-12-12T05:53:11-08:00	2020-12-12T14:22:53+00:00	2020-12-16T07:59:59+00:00	-4	8v5bc4z03l7dms6@marketplace.amazon.com	Richard Shane	+1 480-618-5344 ext. 85925	ABR001	Delivery by Wednesday, December 16 Dozen Red Roses in a Free Vase by Arabella Bouquets	1	0	1	Expedited	Richard M Shane	4530 RED CEDAR CV SW			LILBURN	GA	30047-4296	US			false		
112-3705148-9142639	22340005642090	2020-12-12T14:05:40+00:00	2020-12-12T06:05:40-08:00	2020-12-12T14:36:05+00:00	2020-12-16T07:59:59+00:00	-4	35w9cd1lf7ftq9f@marketplace.amazon.com	Rebecca	+1 415-851-9136 ext. 68874	ABR0022	Delivery by Wednesday, December 16 Dozen Pink Roses with a Free Vase by Arabella Bouquets	1	0	1	Expedited	Robert Tompkins	1529 S BLOUNT ST NCDOT WAREHOUSE			RALEIGH	NC	27603-2507	US			false		
114-9822482-8937830	52472493012906	2020-12-12T14:11:30+00:00	2020-12-12T06:11:30-08:00	2020-12-12T14:40:57+00:00	2020-12-16T07:59:59+00:00	-4	15wy40r3d5nph47@marketplace.amazon.com	J.D. Mosley-Matchett	+1 415-851-9136 ext. 78589	ABR0033	Delivery by Wednesday, December 16 Dozen Orange Roses in a Free Vase by Arabella Bouquets	1	0	1	Expedited	A.J. Howell	C/O PEMBROOK PLACE II	1623 ROBINHOOD LN		CLEARWATER	FL	33764-6447	US		Happy Birthday, Mom! I love you more each year. Enjoy your special day. From J.D. Mosley-Matchett	false		
111-5529794-3601847	16948795308402	2020-12-12T14:16:05+00:00	2020-12-12T06:16:05-08:00	2020-12-12T14:42:03+00:00	2020-12-16T07:59:59+00:00	-4	277ns3xy2x5m1ds@marketplace.amazon.com	Jenifer Marrone	+1 619-854-2705 ext. 10045	ABR0022	Delivery by Wednesday, December 16 Dozen Pink Roses with a Free Vase by Arabella Bouquets	1	0	1	Expedited	JOAN CARROLL	22 SYLVAN CIR			KENNEBUNK	ME	04043-6918	US		HAPPY BIRTHDAY BEAUTIFUL AUNT JOAN  WE LOVE YOU, Joe and Jenifer From Jenifer Marrone	false		
112-8896110-9768212	13948572490714	2020-12-12T14:15:02+00:00	2020-12-12T06:15:02-08:00	2020-12-12T14:45:35+00:00	2020-12-16T07:59:59+00:00	-4	w3vyh05rx16hd4s@marketplace.amazon.com	Paul Kostenko	+1 213-442-1463 ext. 77813	ABR0033	Delivery by Wednesday, December 16 Dozen Orange Roses in a Free Vase by Arabella Bouquets	1	0	1	Expedited	Nadezhda Kostenko	5088 SAMS VALLEY RD			GOLD HILL	OR	97525-9624	US			false		
114-0881527-4435454	19540695115274	2020-12-12T14:21:20+00:00	2020-12-12T06:21:20-08:00	2020-12-12T14:48:20+00:00	2020-12-16T07:59:59+00:00	-4	zs1vg3whtvfr20f@marketplace.amazon.com	Alisha Frees	+1 619-854-2705 ext. 37077	ABB003	Delivery by Wednesday, Dec 16 Blue Hydrangea 12 Stems by Arabella Bouquets	1	0	1	Expedited	Tim and Mary Ann Frees	4177 HOLLIS AVE			PORT CHARLOTTE	FL	33953-5747	US		Here’s a little bit of us while you recover. You’re in our prayers and we love you. From Your kids in Seattle.	false		
111-5924044-3649811	45000187015170	2020-12-12T14:52:11+00:00	2020-12-12T06:52:11-08:00	2020-12-12T15:15:43+00:00	2020-12-16T07:59:59+00:00	-4	mc7sgsy15fr9wds@marketplace.amazon.com	Elaine S Hyman	+1 619-854-2705 ext. 67283	ABR0022	Delivery by Wednesday, December 16 Dozen Pink Roses with a Free Vase by Arabella Bouquets	1	0	1	Expedited	Gaby Alvarez	285 CAMPINAS ST			PUNTA GORDA	FL	33983-5567	US		Gaby, Happy 16th Birthday, Hope you have a wonderful day! We love you so much!! Love Granny and Pa From Elaine S Hyman	false		
111-5717528-3860232	26277062140298	2020-12-12T14:58:27+00:00	2020-12-12T06:58:27-08:00	2020-12-12T15:18:47+00:00	2020-12-16T07:59:59+00:00	-4	tm1fyzd91tyz7k3@marketplace.amazon.com	Mary Ellen Malloy	+1 480-618-5344 ext. 53709	ABR0066	Delivery by Wednesday, December 16 Dozen White Roses in a Free Vase by Arabella Bouquets	1	0	1	Expedited	Mr.and Mrs James Malloy	142 Old Westboro Rd			North Grafton	MA	01536	US		Merry Christmas with lots of Love..... From Mary Ellen Malloy	false		
112-9970548-2093869	24433608261730	2020-12-12T14:57:03+00:00	2020-12-12T06:57:03-08:00	2020-12-12T15:27:01+00:00	2020-12-16T07:59:59+00:00	-4	0k7snj2nmmxj8hj@marketplace.amazon.com	jennifer	+1 415-419-8616 ext. 63351	ABR0033	Delivery by Wednesday, December 16 Dozen Orange Roses in a Free Vase by Arabella Bouquets	1	0	1	Standard	Holly Rittenberry	1730 HUNTINGTON CT			NEWCASTLE	OK	73065-5110	US		Happy birthday to the bestie that doesn’t believe she’s my bestie!  Love you! From Jenn	false		
112-3364326-0345815	29645914638082	2020-12-12T15:15:38+00:00	2020-12-12T07:15:38-08:00	2020-12-12T15:42:07+00:00	2020-12-16T07:59:59+00:00	-4	79fq2dk14wvmk00@marketplace.amazon.com	HOWARD ROSE	+1 415-419-8616 ext. 06049	ABM022	Delivery by Tuesday, Dec 15, Purple Extravagance Bouquet by Arabella Bouquets	1	0	1	Expedited	ELLIOT &ELLIZABETH ROSE	1524 BAY POINT DR			SARASOTA	FL	34236-8408	US			false		
114-6054200-2111420	57885321695962	2020-12-12T15:17:46+00:00	2020-12-12T07:17:46-08:00	2020-12-12T15:42:47+00:00	2020-12-16T07:59:59+00:00	-4	lzdcjflxzg0stlv@marketplace.amazon.com	Kay F Brown-Gary	+1 346-307-9643 ext. 62153	ABM0033	Delivery by Wednesday, Dec 16 White Hydrangea 5 Stems with a Free Glass Vase by Arabella Bouquets	1	0	1	Expedited	Robin Kittinger	171 WYNDHAM LOOK			ORMOND BEACH	FL	32174-6601	US		Always thinking of you.  Hope this helps brighten up your holiday. From Kay & Bob	false		
112-5675697-4842611	45556628844658	2020-12-12T15:12:40+00:00	2020-12-12T07:12:40-08:00	2020-12-12T15:42:59+00:00	2020-12-16T07:59:59+00:00	-4	h3k75g3sqbd9s60@marketplace.amazon.com	Sarah Hunter	+1 480-618-5344 ext. 21834	ABR0033	Delivery by Wednesday, December 16 Dozen Orange Roses in a Free Vase by Arabella Bouquets	1	0	1	Expedited	Jeanette Hamlin	1301 NEW STINE RD UNIT 510			BAKERSFIELD	CA	93309-3503	US			false		
114-7967438-5230613	58688331153282	2020-12-12T15:16:11+00:00	2020-12-12T07:16:11-08:00	2020-12-12T15:46:06+00:00	2020-12-16T07:59:59+00:00	-4	w99j48xtz843fhp@marketplace.amazon.com	Trey Zoeller	+1 213-442-1463 ext. 24340	ABM022	Delivery by Tuesday, Dec 15, Purple Extravagance Bouquet by Arabella Bouquets	1	0	1	Expedited	Kathryn Foreman	16506 BRISTON AVON LN			LOUISVILLE	KY	40245-4280	US			false		
113-6491964-5053006	13227458770106	2020-12-12T15:48:26+00:00	2020-12-12T07:48:26-08:00	2020-12-12T16:16:07+00:00	2020-12-16T07:59:59+00:00	-4	83wv3rvzq4kx2v0@marketplace.amazon.com	Simon Mach	+1 480-618-5344 ext. 10325	ABM025	Delivery by Wednesday, Dec 16 Fell for You Bouquet by Arabella Bouquets	1	0	1	Expedited	Kimberly Taylor	20545 JAY CARROLL DR			SANTA CLARITA	CA	91350-1984	US		Happy Birthday!! From Danie	false		
111-5497097-0097024	46929087703330	2020-12-12T15:47:25+00:00	2020-12-12T07:47:25-08:00	2020-12-12T16:16:30+00:00	2020-12-16T07:59:59+00:00	-4	6thtpzxsh4ksdk2@marketplace.amazon.com	liz	+1 415-419-8616 ext. 93093	ABR0022	Delivery by Wednesday, December 16 Dozen Pink Roses with a Free Vase by Arabella Bouquets	1	0	1	Expedited	Michelle Sirju	1500 LEXINGTON AVE APT 12 K			NEW YORK	NY	10029-7369	US		Happy happy happy happy happy birthday darling Miche :) we love you! From Lizzie, Norbie and the kiddos	false		
111-2515523-1263437	67348011767162	2020-12-12T15:50:17+00:00	2020-12-12T07:50:17-08:00	2020-12-12T16:18:57+00:00	2020-12-16T07:59:59+00:00	-4	5txk74xs6qv7t4k@marketplace.amazon.com	robert	+1 619-854-2705 ext. 96107	ABM022	Delivery by Tuesday, Dec 15, Purple Extravagance Bouquet by Arabella Bouquets	1	0	1	Expedited	Katherine MadJack	103 KENSINGTON DR			CLEVELAND	GA	30528-1320	US		Happy birthday beautiful. Have a good day.  Love you forever ❤️❤️❤️ From Bob	false		
114-9698781-2489006	68528393883410	2020-12-12T15:53:21+00:00	2020-12-12T07:53:21-08:00	2020-12-12T16:19:51+00:00	2020-12-16T07:59:59+00:00	-4	vyg2y03k9gl92tm@marketplace.amazon.com	Futura Artistry + Design	+1 619-854-2705 ext. 34988	ABM022	Delivery by Tuesday, Dec 15, Purple Extravagance Bouquet by Arabella Bouquets	1	0	1	Expedited	Flores	5201 N TIMOTHY WAY			MUNCIE	IN	47304-6129	US		Leo, With much love we send our heartfelt condolences on the loss of your grandfather. From GraceRiver Staff	false		
112-5547163-7191448	01574659269490	2020-12-12T15:52:45+00:00	2020-12-12T07:52:45-08:00	2020-12-12T16:20:12+00:00	2020-12-16T07:59:59+00:00	-4	tvvb1tz4vwlykp1@marketplace.amazon.com	Robin K. Linkhart	+1 213-442-1463 ext. 43845	ABR001	Delivery by Wednesday, December 16 Dozen Red Roses in a Free Vase by Arabella Bouquets	1	0	1	Expedited	Penny Young	1157 E 1850 S			BOUNTIFUL	UT	84010-2228	US		Merry Christmas to my dear friend and sister of the heart, the one and only Penny. All my love, From Robin	false		
111-2847552-3157060	38429558216634	2020-12-12T16:02:17+00:00	2020-12-12T08:02:17-08:00	2020-12-12T16:30:46+00:00	2020-12-16T07:59:59+00:00	-4	lmg9hwv7y83l9f3@marketplace.amazon.com	R M Dunbar	+1 415-851-9136 ext. 69202	ABM022	Delivery by Tuesday, Dec 15, Purple Extravagance Bouquet by Arabella Bouquets	1	0	1	Expedited	James Dunbar	1021 WESTMINSTER LN			MUNSTER	IN	46321-2836	US		Happy 10th Wedding Anniversary Love from Pat & Rob / Mumsie & Pops XXX From R M Dunbar	false		
114-1878929-3583404	24617616228090	2020-12-12T16:08:27+00:00	2020-12-12T08:08:27-08:00	2020-12-12T16:35:50+00:00	2020-12-16T07:59:59+00:00	-4	gp4xfr25gxcb14g@marketplace.amazon.com	Barbara Lantz	+1 602-671-6610 ext. 23056	ABM010	Delivery by Wednesday, Dec 16 Everlasting Fling with a Free Glass Vase by Arabella Bouquets	1	0	1	Expedited	Lori Hermansen	7209 27TH AVE NE			SEATTLE	WA	98115-5821	US		Merry Christmas! From Barbara Lantz	false		
111-6237060-0116206	24348067420562	2020-12-12T16:13:28+00:00	2020-12-12T08:13:28-08:00	2020-12-12T16:37:08+00:00	2020-12-16T07:59:59+00:00	-4	1m6n4jvgkm6jm9k@marketplace.amazon.com	Mike Walsh	+1 213-442-1463 ext. 47106	ABR0022	Delivery by Wednesday, December 16 Dozen Pink Roses with a Free Vase by Arabella Bouquets	1	0	1	Expedited	Daniel Walsh	10143 BESSBOROUGH DR			RALEIGH	NC	27617-6709	US		To Dan & Cathy Merry Christmas to you both. From Mike &Jan	false		
113-9944770-0601005	30245920595490	2020-12-12T16:12:07+00:00	2020-12-12T08:12:07-08:00	2020-12-12T16:41:22+00:00	2020-12-16T07:59:59+00:00	-4	t2nlsb90wt2f1mf@marketplace.amazon.com	Aimee Mattera	+1 415-419-8616 ext. 26949	ABR0022	Delivery by Wednesday, December 16 Dozen Pink Roses with a Free Vase by Arabella Bouquets	1	0	1	Expedited	Emme Jones Herbert	6170 FIRE TOWER RD			WELCOME	MD	20693-3136	US		Happy Birthday Mom!   Love you! From Aimee	false		
113-1508721-7339435	57938864018098	2020-12-12T15:52:04+00:00	2020-12-12T07:52:04-08:00	2020-12-12T16:43:31+00:00	2020-12-16T07:59:59+00:00	-4	tm0lnsl2rpp078s@marketplace.amazon.com	Mike	+1 213-442-1463 ext. 64445	ABR001	Delivery by Wednesday, December 16 Dozen Red Roses in a Free Vase by Arabella Bouquets	1	0	1	Expedited	Flo Jodoin	17 WALNUT ST			PLYMOUTH	MA	02360-5677	US		Happy Everything Auntie. Thinking of you and LOVE you   XOXOXOXO From Katie	false		
111-0287406-0815442	08311156099442	2020-12-12T16:30:37+00:00	2020-12-12T08:30:37-08:00	2020-12-12T16:58:59+00:00	2020-12-16T07:59:59+00:00	-4	ppmclgmx0tjl476@marketplace.amazon.com	Katy L Mason	+1 763-225-9463 ext. 63219	ABM020	Delivery by Wednesday, December 16 Sunset Bouquet by Arabella Bouquets	1	0	1	Standard	Janet F. Davis	3007 PICKETT RD APT 204			DURHAM	NC	27705-6014	US		Dear Grandma, We hope you have a wonderful birthday! Wish we could be together, hope to see you soon. Lots of Love, Katy, Dave, Anna and Jonathan From Katy Goodell	false		
112-8988687-3179430	11101177848434	2020-12-12T16:35:16+00:00	2020-12-12T08:35:16-08:00	2020-12-12T17:01:36+00:00	2020-12-16T07:59:59+00:00	-4	4zf0bjyz5dhz4pf@marketplace.amazon.com	stanleen michaud	+1 602-671-6610 ext. 41005	ABR0022	Delivery by Wednesday, December 16 Dozen Pink Roses with a Free Vase by Arabella Bouquets	1	0	1	Standard	Maryline Destin	10 DELORENZO DR			RANDOLPH	MA	02368-2706	US		Sending you healing thoughts and a little sunshine to brighten your day! From stanleen michaud	false		
112-5648445-4097004	12802583561338	2020-12-12T16:51:48+00:00	2020-12-12T08:51:48-08:00	2020-12-12T17:13:56+00:00	2020-12-16T07:59:59+00:00	-4	hh4xwjqpq870hhy@marketplace.amazon.com	Bijoy Khandheria	+1 602-671-6610 ext. 91111	ABR001	Delivery by Wednesday, December 16 Dozen Red Roses in a Free Vase by Arabella Bouquets	1	0	1	Expedited	Rebecca Debono	2037 BERYL ST			SAN DIEGO	CA	92109-3404	US		Dear Becca,   I could not have survived this past week without you. I am so grateful for you and our friendship.   <3 Trishi From Trishala Khandheria	false		
112-6591749-1757846	02912994104554	2020-12-12T16:47:42+00:00	2020-12-12T08:47:42-08:00	2020-12-12T17:15:42+00:00	2020-12-16T07:59:59+00:00	-4	6wq4h4nnj2vq2wt@marketplace.amazon.com	Kristi Wlodarchak	+1 763-225-9463 ext. 47865	ABM026	Delivery by Wednesday, Dec 16 Amour Bouquet by Arabella Bouquets	1	0	1	Expedited	Mary Wlodarchak	45 WILDBERRY CT			QUILCENE	WA	98376-9694	US			false		
113-9281618-4066652	18022469429418	2020-12-12T17:13:07+00:00	2020-12-12T09:13:07-08:00	2020-12-12T17:19:50+00:00	2020-12-16T07:59:59+00:00	-4	lb4dzkd2gzl0j07@marketplace.amazon.com	sherry cauley	+1 346-307-9643 ext. 82426	ABM010	Delivery by Wednesday, Dec 16 Everlasting Fling with a Free Glass Vase by Arabella Bouquets	1	0	1	Standard	Diane Keil	31 OYSTER COVE LN			BLUE POINT	NY	11715-1243	US		Happy Birthday my beautiful friend, thank you for always being there for me. Love you, Sherry From sherry cauley	false		
112-8908971-9948257	34381293896290	2020-12-12T16:55:47+00:00	2020-12-12T08:55:47-08:00	2020-12-12T17:19:57+00:00	2020-12-16T07:59:59+00:00	-4	xbrqpvnhydttkpm@marketplace.amazon.com	Delmy Koval	+1 602-671-6610 ext. 39733	ABM031	Delivery by Wednesday, Dec 16 The Harvest Moon Bouquet by Arabella Bouquets	1	0	1	Expedited	Shirley Russell	3688 ALLENHURST DR			NORCROSS	GA	30092-2424	US		Happy Birthday Mom From Gene and Karina and Yoshi	false		
113-6479239-4489007	05571264311474	2020-12-12T16:53:50+00:00	2020-12-12T08:53:50-08:00	2020-12-12T17:23:41+00:00	2020-12-16T07:59:59+00:00	-4	00l38rgybkjv2bj@marketplace.amazon.com	Roger Edens	+1 763-225-9463 ext. 97900	ABR0022	Delivery by Wednesday, December 16 Dozen Pink Roses with a Free Vase by Arabella Bouquets	1	0	1	Expedited	Dwight Edens	704 PUMPKINTOWN RD			MARIETTA	SC	29661-9528	US			false		
114-2737295-7604242	51883662934946	2020-12-12T16:58:26+00:00	2020-12-12T08:58:26-08:00	2020-12-12T17:27:22+00:00	2020-12-16T07:59:59+00:00	-4	nzqv5cgwt7gv079@marketplace.amazon.com	Timothy Dillon	+1 415-419-8616 ext. 04776	ABR0022	Delivery by Wednesday, December 16 Dozen Pink Roses with a Free Vase by Arabella Bouquets	1	0	1	Expedited	Sara Blas	610 OSAGE DR			O FALLON	ILLINOIS	62269-3304	US		Merry Christmas Sara from your baby sister. From Timothy Dillon	false		
112-0600595-9892254	11188289667506	2020-12-12T16:58:28+00:00	2020-12-12T08:58:28-08:00	2020-12-12T17:35:44+00:00	2020-12-16T07:59:59+00:00	-4	hh4xwjqpq870hhy@marketplace.amazon.com	Bijoy Khandheria	+1 602-671-6610 ext. 27121	ABR001	Delivery by Wednesday, December 16 Dozen Red Roses in a Free Vase by Arabella Bouquets	1	0	1	Expedited	Molly Renehan	96 BISHOP ST			NEW HAVEN	CT	06511-3932	US		Dear Molly,   I could not have survived this past week without you. I am so grateful for you and our friendship.   Love,  Trishi From Trishala Khandheria	false		
112-9173258-2953817	69718045861530	2020-12-12T17:06:38+00:00	2020-12-12T09:06:38-08:00	2020-12-12T17:35:54+00:00	2020-12-16T07:59:59+00:00	-4	hh4xwjqpq870hhy@marketplace.amazon.com	Bijoy Khandheria	+1 213-442-1463 ext. 70460	ABR001	Delivery by Wednesday, Dec 16 Dozen Red Roses in a Free Vase by Arabella Bouquets	1	0	1	Expedited	Anuj Jenveja	3732 7TH AVE UNIT A			SAN DIEGO	CA	92103-4347	US		Dear AJ and Orie,  I could not have survived this past week without you. I am so grateful for the two of you and our friendship.   Love,  Trish From Trishala Khandheria	false		
112-5260326-3671455	40912665082114	2020-12-12T17:11:03+00:00	2020-12-12T09:11:03-08:00	2020-12-12T17:41:12+00:00	2020-12-16T07:59:59+00:00	-4	hh4xwjqpq870hhy@marketplace.amazon.com	Bijoy Khandheria	+1 480-618-5344 ext. 20083	ABR001	Delivery by Wednesday, Dec 16 Dozen Red Roses in a Free Vase by Arabella Bouquets	1	0	1	Expedited	Selena Vigue	1569 HOOKER ST			DENVER	CO	80204-1961	US		Dear Selena,   I could not have survived this past week without you. I am so grateful for you and our friendship.   Love,  Trish From Trishala Khandheria	false		
111-6174002-7741803	07132109509522	2020-12-12T17:37:12+00:00	2020-12-12T09:37:12-08:00	2020-12-12T17:59:53+00:00	2020-12-16T07:59:59+00:00	-4	9kx3bt5b7js6vfr@marketplace.amazon.com	Larry Buras	+1 480-618-5344 ext. 20621	ABR0022	Delivery by Wednesday, Dec 16 Dozen Pink Roses with a Free Vase by Arabella Bouquets	1	0	1	Expedited	Kindra Buras	2082 E SUMMIT WAY			EAGLE MOUNTAIN	UT	84005-2089	US			false		
112-9607427-6285845	42842454062714	2020-12-12T17:31:29+00:00	2020-12-12T09:31:29-08:00	2020-12-12T18:00:57+00:00	2020-12-16T07:59:59+00:00	-4	hh4xwjqpq870hhy@marketplace.amazon.com	Bijoy Khandheria	+1 415-851-9136 ext. 31607	ABR001	Delivery by Wednesday, Dec 16 Dozen Red Roses in a Free Vase by Arabella Bouquets	1	0	1	Expedited	Kristina Enersen	20 GROVE ST			CLOSTER	NJ	07624-2401	US		Dear Kristina & Tripp,  Vishal and I could not be more grateful for you both. Thank you for being by our side in both the best and worst of times this year.  Love,  Trishi and Vishal From Trishala Khandheria	false		
111-0348635-4985849	10262093382418	2020-12-12T17:48:49+00:00	2020-12-12T09:48:49-08:00	2020-12-12T18:14:01+00:00	2020-12-16T07:59:59+00:00	-4	pmky62w2pynd481@marketplace.amazon.com	Karen Ghormley	+1 480-618-5344 ext. 52985	ABM010	Delivery by Wednesday, Dec 16 Everlasting Fling with a Free Glass Vase by Arabella Bouquets	1	0	1	Expedited	The Griffees	3210 NW KIDD PL			BEND	OR	97703-8678	US		Happy Christmas in your new home.  enjoy  Love, Karen From Karen Ghormley	false		
