order-id	order-item-id	purchase-date	payments-date	reporting-date	promise-date	days-past-promise	buyer-email	buyer-name	buyer-phone-number	sku	product-name	quantity-purchased	quantity-shipped	quantity-to-ship	ship-service-level	recipient-name	ship-address-1	ship-address-2	ship-address-3	ship-city	ship-state	ship-postal-code	ship-country	gift-wrap-type	gift-message-text	is-business-order	purchase-order-number	price-designation
112-6291853-7102602	11336341093994	2020-12-17T17:31:28+00:00	2020-12-17T09:31:28-08:00	2020-12-17T17:59:41+00:00	2020-12-22T07:59:59+00:00	0	0fpkv3btf46wqhl@marketplace.amazon.com	Karen B. Peters	+804  921 6352	ABR001	Delivery by Monday, Dec 21 Dozen Red Roses in a Free Vase by Arabella Bouquets	1	0	1	Standard	Amanda Breeding Swenk	9716 DOVE HOLLOW LN			GLEN ALLEN	VA	23060-3256	US		Merry Christmas? May 2021 be Rosy! Love, Aunt Karen From Karen B. Peters	false		
113-2963159-0058623	29458242443890	2020-12-19T20:22:10+00:00	2020-12-19T12:22:10-08:00	2020-12-19T20:46:50+00:00	2020-12-23T07:59:59+00:00	-1	gk1vb1bcz76k8fn@marketplace.amazon.com	xavier comeaux	+1 602-671-6610 ext. 68904	ABM022	Delivery by Wednesday, Dec 23, Purple Extravagance Bouquet by Arabella Bouquets	2	1	1	Expedited	Lula Lyles	11306 APPLEWOOD DR			KANSAS CITY	MO	64134-3121	US			false		
114-1816735-2381069	23784768455186	2020-12-20T23:35:12+00:00	2020-12-20T15:35:12-08:00	2020-12-21T00:04:04+00:00	2020-12-23T07:59:59+00:00	-1	56rnj5s9wjh7jyw@marketplace.amazon.com	Michael Pickett	+1 415-419-8616 ext. 85972	ABR0033	Delivery by Thursday, Dec 24 Dozen Orange Roses in a Free Vase by Arabella Bouquets	1	0	1	Expedited	JoAnne Muelker	105 BURR OAK ST			SEGUIN	TX	78155-7433	US		Enjoy your gift! From Michael Pickett	true		
111-2098668-9029031	26314065887626	2020-12-21T00:17:34+00:00	2020-12-20T16:17:34-08:00	2020-12-21T00:47:44+00:00	2020-12-23T07:59:59+00:00	-1	2skcwycm4qy4c69@marketplace.amazon.com	chris stewart	+1 619-854-2705 ext. 94014	ABM022	Delivery by Thursday, Dec 24, Purple Extravagance Bouquet by Arabella Bouquets	2	1	1	Expedited	chris stewart	26542 LANSE CREUSE ST			HARRISON TOWNSHIP	MI	48045-2580	US			false		
114-9660857-0469865	10920390075866	2020-12-21T16:00:56+00:00	2020-12-21T08:00:56-08:00	2020-12-21T16:31:20+00:00	2020-12-24T07:59:59+00:00	-2	3k4cbl0xh5nn8wx@marketplace.amazon.com	Alice Beimer	+1 415-851-9136 ext. 68510	ABR0022	Delivery by Tuesday, Dec 22 Dozen Pink Roses with a Free Vase by Arabella Bouquets	1	0	1	Expedited	Evelyn Bentley	2481 GREENBOUGH LN			SOUTHLAKE	TX	76092-5529	US			false		
111-8830208-1053061	16374380395882	2020-12-21T18:22:33+00:00	2020-12-21T10:22:33-08:00	2020-12-21T18:48:00+00:00	2020-12-24T07:59:59+00:00	-2	gfpqvsl5ys293qz@marketplace.amazon.com	Gigi Fontanilla	+1 619-854-2705 ext. 88861	ABR0022	Delivery by Tuesday, Dec 22 Dozen Pink Roses with a Free Vase by Arabella Bouquets	1	0	1	Expedited	Ashley Witherow	6008 SPADE DR			SPRING HILL	TN	37174-1730	US			false		
112-2527322-9305059	32803225654778	2020-12-21T18:20:44+00:00	2020-12-21T10:20:44-08:00	2020-12-21T18:50:26+00:00	2020-12-24T07:59:59+00:00	-2	c9nxg20m2vnwrth@marketplace.amazon.com	Greg	+1 602-671-6610 ext. 87970	ABR0022	Delivery by Tuesday, Dec 22 Dozen Pink Roses with a Free Vase by Arabella Bouquets	1	0	1	Expedited	Carol Hoff	2687 GRAY MILL WAY			LOGANVILLE	GA	30052-7870	US		Happy Holidays from The Hoff's From Greg	false		
114-8797316-9003403	52569657457114	2020-12-21T18:28:10+00:00	2020-12-21T10:28:10-08:00	2020-12-21T18:57:12+00:00	2020-12-24T07:59:59+00:00	-2	hz67f3r9h1jc775@marketplace.amazon.com	Brian Sheldon	+1 415-851-9136 ext. 85084	ABR0055	Delivery by Wednesday, Dec 23 Dozen Hot Pink Roses in a Free Vase by Arabella Bouquets	1	0	1	Expedited	Eileen Sheldon	2148 WINDEMERE DR			IMPERIAL	MO	63052-1405	US		Merry Christmas From Brian and Diana	false		
114-3330531-0617054	21647895833378	2020-12-21T18:30:59+00:00	2020-12-21T10:30:59-08:00	2020-12-21T19:00:14+00:00	2020-12-24T07:59:59+00:00	-2	hz67f3r9h1jc775@marketplace.amazon.com	Brian Sheldon	+1 480-618-5344 ext. 02460	ABR0022	Delivery by Tuesday, Dec 22 Dozen Pink Roses with a Free Vase by Arabella Bouquets	1	0	1	Expedited	Jennifer Sheldon	3317 WOODLAND TRL			IMPERIAL	MO	63052-1059	US		Merry Christmas From Brian and Diana	false		
113-4889702-2929040	11452748657594	2020-12-21T18:30:24+00:00	2020-12-21T10:30:24-08:00	2020-12-21T19:00:41+00:00	2020-12-24T07:59:59+00:00	-2	zv2s5n2kk232yp4@marketplace.amazon.com	Ervin tan	+1 929-436-4790 ext. 64091	ABR0022	Delivery by Wednesday, Dec 23 Dozen Pink Roses with a Free Vase by Arabella Bouquets	1	0	1	Expedited	Wendy Yew	16901 arcata avenue			Pflugerville	TX	78660	US			false		
113-6614822-1355425	15683561516634	2020-12-21T18:37:43+00:00	2020-12-21T10:37:43-08:00	2020-12-21T19:08:10+00:00	2020-12-24T07:59:59+00:00	-2	zd8y33s7yfsq2yn@marketplace.amazon.com	Dennis M Wall	+1 602-671-6610 ext. 49538	ABR0022	Delivery by Wednesday, Dec 23 Dozen Pink Roses with a Free Vase by Arabella Bouquets	1	0	1	Expedited	Irene Olds	THE WOODMARK AT SUN CITY	17207 N BOSWELL BLVD		SUN CITY	AZ	85373-2094	US			false		
113-0196392-1008235	40347893466778	2020-12-21T18:48:56+00:00	2020-12-21T10:48:56-08:00	2020-12-21T19:18:02+00:00	2020-12-24T07:59:59+00:00	-2	962qm4m4d1jcc9p@marketplace.amazon.com	Greg Callahan	+1 415-419-8616 ext. 49435	ABR0022	Delivery by Wednesday, Dec 23 Dozen Pink Roses with a Free Vase by Arabella Bouquets	1	0	1	Expedited	Patricia Bowers	20 MEETINGHOUSE TER			NEW MILFORD	CT	06776-5118	US		Patty and Girls,              MERRY CHRISTMAS!                             Love, Greg From Greg Callahan	false		
112-9863694-8820242	56563193337330	2020-12-21T19:07:50+00:00	2020-12-21T11:07:50-08:00	2020-12-21T19:36:03+00:00	2020-12-24T07:59:59+00:00	-2	qw9x2tlk0jb9l4f@marketplace.amazon.com	Rebekah Astor	+1 213-442-1463 ext. 03376	ABR0022	Delivery by Wednesday, Dec 23 Dozen Pink Roses with a Free Vase by Arabella Bouquets	1	0	1	Expedited	Jenny Gibson	2572 PARKVIEW DR APT 318			GRANITE CITY	IL	62040-6213	US		Jenny, Thank you for all your support.  We love you!  Merry Christmas & Happy New Year! From Craig & Ruth Astor	false		
111-2203944-2197851	05931279625810	2020-12-21T19:09:28+00:00	2020-12-21T11:09:28-08:00	2020-12-21T19:39:51+00:00	2020-12-24T07:59:59+00:00	-2	b5hjgr356pzndvk@marketplace.amazon.com	John	+1 415-851-9136 ext. 45609	ABR0022	Delivery by Wednesday, Dec 23 Dozen Pink Roses with a Free Vase by Arabella Bouquets	1	0	1	Expedited	GC	3409 WILLOWOOD DR			BARTLESVILLE	OK	74006-4433	US			false		
113-9401502-1949821	62879656617962	2020-12-21T19:11:37+00:00	2020-12-21T11:11:37-08:00	2020-12-21T19:40:20+00:00	2020-12-24T07:59:59+00:00	-2	2792yrh30g4ll69@marketplace.amazon.com	Chuck donahue	+1 619-854-2705 ext. 78595	ABR0022	Delivery by Wednesday, Dec 23 Dozen Pink Roses with a Free Vase by Arabella Bouquets	1	0	1	Expedited	Charles Donahue	4308 HALSEY CT			ORLANDO	FL	32839-1431	US		Merry Christmas Mom. From Chuck	false		
114-2483565-0471408	42912032000058	2020-12-21T19:16:06+00:00	2020-12-21T11:16:06-08:00	2020-12-21T19:43:49+00:00	2020-12-24T07:59:59+00:00	-2	6j5087wm7phb8dw@marketplace.amazon.com	Ri Lunde	+1 213-442-1463 ext. 69945	ABR0022	Delivery by Wednesday, Dec 23 Dozen Pink Roses with a Free Vase by Arabella Bouquets	1	0	1	Expedited	Chrissa  Watson	1205 Live Oak Drive			Edmond	OK	73034	US		Thank you for your generous Christmas gift. Have a wonderful Christmas and a Happy New Year too! From Mom	false		
111-6163892-8965836	65668168084458	2020-12-21T19:20:46+00:00	2020-12-21T11:20:46-08:00	2020-12-21T19:48:55+00:00	2020-12-24T07:59:59+00:00	-2	dhdv4bp5t95h5mj@marketplace.amazon.com	George Schwartz	+1 213-442-1463 ext. 90138	ABR0022	Delivery by Wednesday, Dec 23 Dozen Pink Roses with a Free Vase by Arabella Bouquets	1	0	1	Expedited	George Schwartz	4450 NW 28TH AVE			BOCA RATON	FL	33434-5839	US		Happy Anniversary! I love you! From George Schwartz	false		
112-8518191-4059463	15348578110914	2020-12-21T19:25:20+00:00	2020-12-21T11:25:20-08:00	2020-12-21T19:49:47+00:00	2020-12-24T07:59:59+00:00	-2	g9k6tq7hy9kddxb@marketplace.amazon.com	Raj K. Malhotra	+1 415-419-8616 ext. 19645	ABR0022	Delivery by Wednesday, Dec 23 Dozen Pink Roses with a Free Vase by Arabella Bouquets	1	0	1	Expedited	Reema Mehra	3509 S FOUR MILE RUN DR			ARLINGTON	VA	22206-2311	US		We wish you a very happy birthday Reema.  Take care and stay healthy.  Mom and Dad From Raj K. Malhotra	true		Business Price
114-9729129-4579408	64227645290186	2020-12-21T19:23:24+00:00	2020-12-21T11:23:24-08:00	2020-12-21T19:53:59+00:00	2020-12-24T07:59:59+00:00	-2	9tkr6y5fk3r8zz3@marketplace.amazon.com	Andrew	+1 346-307-9643 ext. 18339	ABR0022	Delivery by Wednesday, Dec 23 Dozen Pink Roses with a Free Vase by Arabella Bouquets	1	0	1	Expedited	Lorenza Perelli	325 S OAK PARK AVE			OAK PARK	IL	60302-3571	US			false		
111-1275458-8439434	18766959653114	2020-12-21T19:33:36+00:00	2020-12-21T11:33:36-08:00	2020-12-21T19:55:20+00:00	2020-12-24T07:59:59+00:00	-2	knl9c0vv0bx35yl@marketplace.amazon.com	Angie Okeefe	+1 619-854-2705 ext. 79035	ABR0022	Delivery by Wednesday, Dec 23 Dozen Pink Roses with a Free Vase by Arabella Bouquets	1	0	1	Expedited	Jean Dutton	302 SILVER AVE K UNIT ROOM 602			SAN FRANCISCO	CA	94112-1510	US		Enjoy your gift! From Angie Okeefe Richard and Jaime	false		
111-9084910-3515411	25122440258826	2020-12-21T19:39:31+00:00	2020-12-21T11:39:31-08:00	2020-12-21T19:59:42+00:00	2020-12-24T07:59:59+00:00	-2	d7hz42h94wkjs9k@marketplace.amazon.com	Gigi	+1 213-442-1463 ext. 80688	ABR0022	Delivery by Wednesday, Dec 23 Dozen Pink Roses with a Free Vase by Arabella Bouquets	1	0	1	Expedited	Jerry Bozeman	349 COUNTY ROAD 13 S			ST AUGUSTINE	FL	32092-9605	US			false		
114-6252355-2921836	66906497629114	2020-12-20T20:35:27+00:00	2020-12-20T12:35:27-08:00	2020-12-21T20:04:54+00:00	2020-12-24T07:59:59+00:00	-2	v4qwf801jw62f6z@marketplace.amazon.com	Belenchu	+1 213-442-1463 ext. 45415	ABR0022	Delivery by Tuesday, Dec 22 Dozen Pink Roses with a Free Vase by Arabella Bouquets	1	0	1	Standard	Linda Purdy	1141 DOULTON CIR			LYNCHBURG	VA	24503-3801	US		HAPPY BIRTHDAY TO MY WONDERFUL AMERICAN MOM WITH LOTS OF LOVE BELEN From BELEN	false		
113-1121745-7745036	13941458863010	2020-12-21T19:40:02+00:00	2020-12-21T11:40:02-08:00	2020-12-21T20:07:08+00:00	2020-12-24T07:59:59+00:00	-2	z1h77380795mjl1@marketplace.amazon.com	Christopher Brown	+1 480-618-5344 ext. 94669	ABR0022	Delivery by Wednesday, Dec 23 Dozen Pink Roses with a Free Vase by Arabella Bouquets	1	0	1	Expedited	Taya Reimer	16390 PROVINCE CT			FORTVILLE	IN	46040-0050	US		Hate that I missed you this trip, but just a token of my appreciation for your time and efforts you to this point. Hope these make you smile. From Christopher Brown	false		
111-4467121-0454647	42523131032722	2020-12-21T19:44:53+00:00	2020-12-21T11:44:53-08:00	2020-12-21T20:09:48+00:00	2020-12-24T07:59:59+00:00	-2	r157r2cljvctmgp@marketplace.amazon.com	Christina	+1 602-671-6610 ext. 58611	ABR0022	Delivery by Wednesday, Dec 23 Dozen Pink Roses with a Free Vase by Arabella Bouquets	1	0	1	Expedited	Minh Tran	3350 BRIAROAKS DR			GARLAND	TX	75044-7359	US		I'm so sorry for your loss. May your parents rest in peace together. I hope the flowers brighten up your day in this difficult time and if they're still fresh, they can be placed at the funeral. From Christina	false		
111-2215117-5305834	25389793126058	2020-12-21T19:53:02+00:00	2020-12-21T11:53:02-08:00	2020-12-21T20:22:14+00:00	2020-12-24T07:59:59+00:00	-2	d7hz42h94wkjs9k@marketplace.amazon.com	Gigi	+1 619-854-2705 ext. 13286	ABR0022	Delivery by Wednesday, Dec 23 Dozen Pink Roses with a Free Vase by Arabella Bouquets	1	0	1	Expedited	Denise and Darryl Fleming	1035 BARNEY JENKINS RD			FELTON	DE	19943-5762	US			false		
111-2760567-5146626	28499485275330	2020-12-21T19:59:28+00:00	2020-12-21T11:59:28-08:00	2020-12-21T20:28:48+00:00	2020-12-24T07:59:59+00:00	-2	5h95vd6990rmpwn@marketplace.amazon.com	Elaine Riggs	+1 213-442-1463 ext. 08064	ABR0022	Delivery by Wednesday, Dec 23 Dozen Pink Roses with a Free Vase by Arabella Bouquets	1	0	1	Expedited	Alisha Archibeck	11315 E CARIBBEAN LN			SCOTTSDALE	AZ	85255-8943	US			false		
113-0763985-9739420	24628619586378	2020-12-21T20:06:47+00:00	2020-12-21T12:06:47-08:00	2020-12-21T20:31:38+00:00	2020-12-24T07:59:59+00:00	-2	l6g1ghgxb15h61x@marketplace.amazon.com	Beverley H. Johns	+1 213-442-1463 ext. 44036	ABR0022	Delivery by Wednesday, Dec 23 Dozen Pink Roses with a Free Vase by Arabella Bouquets	1	0	1	Expedited	Lynn Rochkes	2148 E 350 NORTH RD			PANA	IL	62557-6810	US		Keeping you in my thoughts and prayers.  May wonderful memories of your Mother give you strength during this time.   Bev From Beverley H. Johns	false		
111-1959902-6424212	33701305662418	2020-12-21T20:06:46+00:00	2020-12-21T12:06:46-08:00	2020-12-21T20:37:25+00:00	2020-12-24T07:59:59+00:00	-2	bfyq65b4dblm22k@marketplace.amazon.com	Leo Goldstein	+1 602-671-6610 ext. 15774	ABR0022	Delivery by Wednesday, Dec 23 Dozen Pink Roses with a Free Vase by Arabella Bouquets	1	0	1	Expedited	Lily Goldstein	1616 SAN MIGUEL LN			MODESTO	CA	95355-2150	US			false		
113-1743290-0139413	26526735718882	2020-12-21T20:23:40+00:00	2020-12-21T12:23:40-08:00	2020-12-21T20:52:51+00:00	2020-12-24T07:59:59+00:00	-2	l6g1ghgxb15h61x@marketplace.amazon.com	Beverley H. Johns	+1 213-442-1463 ext. 63979	ABR0022	Delivery by Wednesday, Dec 23 Dozen Pink Roses with a Free Vase by Arabella Bouquets	1	0	1	Expedited	Debbie LeBlanc	111 39TH ST			DOWNERS GROVE	IL	60515-1611	US		We are deeply saddened by the death of your Father.  Keeping you in our thoughts and prayers. DKG Illinois sisters From Your Delta Kappa Gamma, Illinois, sisters	false		
113-9717355-8835421	53050835537418	2020-12-21T20:31:12+00:00	2020-12-21T12:31:12-08:00	2020-12-21T21:01:36+00:00	2020-12-24T07:59:59+00:00	-2	qkggyncp7phm0c8@marketplace.amazon.com	Geneva Scott	+1 619-854-2705 ext. 44457	ABR0022	Delivery by Wednesday, Dec 23 Dozen Pink Roses with a Free Vase by Arabella Bouquets	1	0	1	Expedited	Laurie L berti	9500 COSUMNES RD			WILTON	CA	95693-9700	US			false		
113-5710143-5675432	60447630074394	2020-12-21T20:42:29+00:00	2020-12-21T12:42:29-08:00	2020-12-21T21:05:41+00:00	2020-12-24T07:59:59+00:00	-2	tltgqk6v3wlq5wl@marketplace.amazon.com	Janaya	+1 213-442-1463 ext. 08317	ABR0022	Delivery by Wednesday, Dec 23 Dozen Pink Roses with a Free Vase by Arabella Bouquets	1	0	1	Expedited	Linda Bridges	8800 OLD HARFORD RD	MORNING SIDE SATYR HILL APT 108		PARKVILLE	MD	21234-2855	US		Happy Birthday Mommy! Happy Birthday Grandmommy Linda! We love you! From Jay, Dorothy, Jacob, Psalm, Jekota & Janaya	false		
111-9633117-9610619	06911537875698	2020-12-21T20:44:13+00:00	2020-12-21T12:44:13-08:00	2020-12-21T21:13:15+00:00	2020-12-24T07:59:59+00:00	-2	xt1szjp4rwb1b2q@marketplace.amazon.com	Joseph	+1 415-851-9136 ext. 07979	ABR0022	Delivery by Wednesday, Dec 23 Dozen Pink Roses with a Free Vase by Arabella Bouquets	1	0	1	Expedited	Joseph arnold	7 HOPE ST			LINCOLN	RI	02865-1916	US			false		
111-8343113-3577033	26935948716818	2020-12-21T21:28:11+00:00	2020-12-21T13:28:11-08:00	2020-12-21T21:54:34+00:00	2020-12-24T07:59:59+00:00	-2	5shfl81hm45cs9b@marketplace.amazon.com	Matthew	+1 619-854-2705 ext. 43566	ABR0022	Delivery by Wednesday, Dec 23 Dozen Pink Roses with a Free Vase by Arabella Bouquets	1	0	1	Expedited	Barbara Dwyer	7300 CEDAR POST RD APT G7			LIVERPOOL	NY	13088-3823	US		Merry Christmas Mom! From Love, Matt	false		
111-7236974-7720229	23207623504274	2020-12-21T21:25:27+00:00	2020-12-21T13:25:27-08:00	2020-12-21T21:54:38+00:00	2020-12-24T07:59:59+00:00	-2	g1xvdbz8mdzmrd4@marketplace.amazon.com	Evan Meyer	+1 619-854-2705 ext. 76543	ABR0022	Delivery by Wednesday, Dec 23 Dozen Pink Roses with a Free Vase by Arabella Bouquets	1	0	1	Expedited	Evelyn Menges	7676 RIO GRANDE BLVD APT 327			WILDWOOD	FL	34785-4261	US		Merry Christmas Grandma! Love you! From Evan	false		
113-6183372-9975428	36632628905050	2020-12-21T21:28:11+00:00	2020-12-21T13:28:11-08:00	2020-12-21T21:58:46+00:00	2020-12-24T07:59:59+00:00	-2	vq225tkl3lvz2wq@marketplace.amazon.com	irvin hunt	+1 213-442-1463 ext. 28990	ABR0022	Delivery by Wednesday, Dec 23 Dozen Pink Roses with a Free Vase by Arabella Bouquets	1	0	1	Expedited	Anna Henke	1602 HALIFAX RD			CHAPEL HILL	NC	27514-2731	US			false		
112-4956930-7273854	52509273371786	2020-12-21T21:31:04+00:00	2020-12-21T13:31:04-08:00	2020-12-21T22:00:33+00:00	2020-12-24T07:59:59+00:00	-2	b9mlc54cc83ls1p@marketplace.amazon.com	Stephen M Pollock	+1 213-442-1463 ext. 46119	ABR0022	Delivery by Wednesday, Dec 23 Dozen Pink Roses with a Free Vase by Arabella Bouquets	1	0	1	Expedited	Rose Marie Pollock/Memory Care resident	MARY ANN MORSE AT HERITAGE	747 WATER ST		FRAMINGHAM	MA	01701-3208	US			false		
112-3873607-2647441	22845245932338	2020-12-21T21:32:19+00:00	2020-12-21T13:32:19-08:00	2020-12-21T22:01:02+00:00	2020-12-24T07:59:59+00:00	-2	8y3qj0d38jb7jrc@marketplace.amazon.com	Lillian Nader	+1 213-442-1463 ext. 18842	ABR0022	Delivery by Wednesday, Dec 23 Dozen Pink Roses with a Free Vase by Arabella Bouquets	1	0	1	Expedited	Virginia Nader	2830 Mary Mack Dr.			Marshall	Texas	75672	US		Merry Christmas to my sister! I listened to the See's salesperson and got flowers instead of candy for Christmas. I hope you enjoy them with love from me. From Lillian Nader	false		
112-2032906-8460215	41694965981330	2020-12-21T21:34:11+00:00	2020-12-21T13:34:11-08:00	2020-12-21T22:04:25+00:00	2020-12-24T07:59:59+00:00	-2	1f5d61jszd7lcf4@marketplace.amazon.com	Nathaniel Wagner	+1 415-419-8616 ext. 65572	ABR0022	Delivery by Wednesday, Dec 23 Dozen Pink Roses with a Free Vase by Arabella Bouquets	1	0	1	Expedited	Nathaniel Wagner	435 CHERRY TREE LN			HAVELOCK	NC	28532-2139	US			false		
111-3575140-3710652	09455360052722	2020-12-21T21:54:42+00:00	2020-12-21T13:54:42-08:00	2020-12-21T22:20:03+00:00	2020-12-24T07:59:59+00:00	-2	h9tlxbv0fdpy4ns@marketplace.amazon.com	Vada Oliver	+1 619-854-2705 ext. 58856	ABR0022	Delivery by Wednesday, Dec 23 Dozen Pink Roses with a Free Vase by Arabella Bouquets	1	0	1	Expedited	Gloria Oliver Parham	3231 HOLLAND DR			PETERSBURG	VA	23805-9664	US		Happy Birthday Gloria!!! Love Blessings and Favor Enjoy your gift! From Vada & Chrissy ❤️	false		
112-4246231-1993013	62419295852082	2020-12-21T22:09:42+00:00	2020-12-21T14:09:42-08:00	2020-12-21T22:23:07+00:00	2020-12-24T07:59:59+00:00	-2	rkpqs1qh990pd3m@marketplace.amazon.com	Julia Samoylenko	+1 415-851-9136 ext. 23992	ABR0022	Delivery by Wednesday, Dec 23 Dozen Pink Roses with a Free Vase by Arabella Bouquets	1	0	1	FreeEconomy	Lilia Bakhvala	1085 TASMAN DR SPC 192			SUNNYVALE	CA	94089-5291	US		Благодарю тебя за чудесную съемку! Было очень здорово с тобой работать. From Julia Samoylenko	false		
112-8353670-3461868	34689381124362	2020-12-21T22:08:28+00:00	2020-12-21T14:08:28-08:00	2020-12-21T22:34:24+00:00	2020-12-24T07:59:59+00:00	-2	4r74s7r98jvnp5j@marketplace.amazon.com	Inshirah Farhoud	+1 213-442-1463 ext. 68529	ABR0022	Delivery by Wednesday, Dec 23 Dozen Pink Roses with a Free Vase by Arabella Bouquets	1	0	1	FreeEconomy	Halimeh Saadeh	753 CONNESTEE RD			WEST PALM BEACH	FL	33413-1141	US			false		
113-7434105-1557805	42069042948002	2020-12-21T21:57:05+00:00	2020-12-21T13:57:05-08:00	2020-12-21T22:36:01+00:00	2020-12-24T07:59:59+00:00	-2	7jl435mxr99rvqh@marketplace.amazon.com	evabradford	+1 415-851-9136 ext. 79255	ABR0022	Delivery by Wednesday, Dec 23 Dozen Pink Roses with a Free Vase by Arabella Bouquets	1	0	1	FreeEconomy	Eva Bradford	9917 COMPASS ROSE CT			OAK POINT	TX	75068-0678	US		Enjoy your gift! From evabradford	false		
111-6739362-6651453	03113147520050	2020-12-21T22:35:26+00:00	2020-12-21T14:35:26-08:00	2020-12-21T23:05:15+00:00	2020-12-24T07:59:59+00:00	-2	0cv2wn86w0ffvqf@marketplace.amazon.com	Michele S. Moe	+1 619-854-2705 ext. 50653	ABR0022	Delivery by Wednesday, Dec 23 Dozen Pink Roses with a Free Vase by Arabella Bouquets	1	0	1	FreeEconomy	Ashley Moe	1249 SILVER BEACH WAY			RALEIGH	NC	27606-4889	US		Happy Birthday!  We hope you have an amazing day! From Love, Mom and Dad	false		
112-5426443-3783444	59192993932562	2020-12-21T22:48:28+00:00	2020-12-21T14:48:28-08:00	2020-12-21T23:13:44+00:00	2020-12-24T07:59:59+00:00	-2	dg4pqh7k90zjvcm@marketplace.amazon.com	Matthew A Custard	+1 619-854-2705 ext. 03663	ABR0022	Delivery by Wednesday, Dec 23 Dozen Pink Roses with a Free Vase by Arabella Bouquets	1	0	1	FreeEconomy	Elizabeth Custard	1025 PARK PL APT 136 DR			MISHAWAKA	IN	46545-3537	US		Merry Christmas! From Santa	false		
113-2635061-7407439	33130862515874	2020-12-21T23:04:11+00:00	2020-12-21T15:04:11-08:00	2020-12-21T23:30:44+00:00	2020-12-24T07:59:59+00:00	-2	9vdlwkbj4nhlkxs@marketplace.amazon.com	Christina Katzenbach	+1 480-618-5344 ext. 57209	ABR0022	Delivery by Wednesday, Dec 23 Dozen Pink Roses with a Free Vase by Arabella Bouquets	1	0	1	FreeEconomy	Gladys Burkhardt	503 N MAIZE RD APT # 16			WICHITA	KS	67212-4655	US		Merry Christmas Mom. Hope to be able to visit soon.  Love, Tom and Chris	false		
113-8811270-9089039	51118708039202	2020-12-21T23:21:47+00:00	2020-12-21T15:21:47-08:00	2020-12-21T23:44:20+00:00	2020-12-24T07:59:59+00:00	-2	5bqq0kb9sy25jrx@marketplace.amazon.com	Daniela Nunez	+1 213-442-1463 ext. 54016	ABR0055	Delivery by Wednesday, Dec 23 Dozen Hot Pink Roses in a Free Vase by Arabella Bouquets	1	0	1	Expedited	Mary Lou Fernandes	965 CENTER RD A-3			WEST SENECA	NY	14224-2331	US		Merry Christmas 🎄🎁.   Thinking of you and wishing you the best💕Love Daniela, Lucia, Eric and Sergio From Daniela Nunez	false		
111-3769302-5627449	60184534050762	2020-12-21T23:20:55+00:00	2020-12-21T15:20:55-08:00	2020-12-21T23:46:00+00:00	2020-12-24T07:59:59+00:00	-2	7svgs2vzb49rtq0@marketplace.amazon.com	BILL KROLL	+1 415-851-9136 ext. 24916	ABR0022	Delivery by Wednesday, Dec 23 Dozen Pink Roses with a Free Vase by Arabella Bouquets	1	0	1	FreeEconomy	Don and Maria Weed	208 ADA LN			CLEMMONS	NC	27012-7385	US		Merry Christmas! From BILL and Camille Kroll	false		
114-1576745-5306651	52843798051634	2020-12-21T23:29:31+00:00	2020-12-21T15:29:31-08:00	2020-12-21T23:58:16+00:00	2020-12-24T07:59:59+00:00	-2	3jbxjs9rbqs7dxg@marketplace.amazon.com	Kimberly Kuchman	+1 415-419-8616 ext. 27655	ABR0055	Delivery by Wednesday, Dec 23 Dozen Hot Pink Roses in a Free Vase by Arabella Bouquets	1	0	1	Expedited	Arleen Kuchman	22 MILLER DR			HOPEWELL JUNCTION	NY	12533-5139	US			false		
113-1324165-0953821	27840437519146	2020-12-21T23:43:47+00:00	2020-12-21T15:43:47-08:00	2020-12-22T00:12:33+00:00	2020-12-24T07:59:59+00:00	-2	glgn4lk42lntjgj@marketplace.amazon.com	BARBARA A. ROGERS	+1 602-671-6610 ext. 83953	ABR0022	Delivery by Wednesday, Dec 23 Dozen Pink Roses with a Free Vase by Arabella Bouquets	1	0	1	FreeEconomy	Mamie P. Green	3607 W POLK ST APT 102			CHICAGO	IL	60624-4431	US		Merry Christmas! Mamie Green. Love you much. From BARBARA	false		
111-8043938-4026624	58953899587626	2020-12-22T00:12:39+00:00	2020-12-21T16:12:39-08:00	2020-12-22T00:42:46+00:00	2020-12-24T07:59:59+00:00	-2	n7x7mw63fqzlc8t@marketplace.amazon.com	Megan	+1 619-854-2705 ext. 22998	ABC001	Delivery by Thursday, Dec 24 Seasons Greetings Bouquet by Arabella Bouquets	1	0	1	Expedited	Nancy Karasick	930 TROPICAL BAY CT			NAPLES	FL	34120-2913	US			false		
111-9336421-6012253	69628418724202	2020-12-22T00:17:22+00:00	2020-12-21T16:17:22-08:00	2020-12-22T00:45:58+00:00	2020-12-24T07:59:59+00:00	-2	7nfssyb35ywt4y8@marketplace.amazon.com	Maude	+1 602-671-6610 ext. 75720	ABM020	Delivery by Thursday, Dec 24 Sunset Bouquet by Arabella Bouquets	1	0	1	Expedited	Mary Tyler	2805 HAWTHORNE AVE			RICHMOND	VA	23222-3522	US			false		
114-7318102-0341046	53028834388738	2020-12-22T00:20:54+00:00	2020-12-21T16:20:54-08:00	2020-12-22T00:49:27+00:00	2020-12-24T07:59:59+00:00	-2	j9ck2bfnr30t35c@marketplace.amazon.com	Cathy Schwarzkopf	+1 619-854-2705 ext. 93856	ABR0022	Delivery by Wednesday, Dec 23 Dozen Pink Roses with a Free Vase by Arabella Bouquets	1	0	1	FreeEconomy	Mary Jane Smith	4012 DAVIT DR			NEW PORT RICHEY	FL	34652-5819	US		Mom- Happy Birthday! Can’t wait to celebrate with you. Love From Cathy & Chuck	false		
113-1498682-0937065	47426367811202	2020-12-22T00:35:03+00:00	2020-12-21T16:35:03-08:00	2020-12-22T01:05:18+00:00	2020-12-24T07:59:59+00:00	-2	29z6glmsr9ymn8k@marketplace.amazon.com	JAMES RICHTER	+1 480-618-5344 ext. 47655	ABR0022	Delivery by Wednesday, Dec 23 Dozen Pink Roses with a Free Vase by Arabella Bouquets	1	0	1	FreeEconomy	Stephanie Beer	858 TURTLE MOUND DR			CASSELBERRY	FL	32707-2626	US			false		
112-5966858-1049824	36982275434794	2020-12-22T00:51:56+00:00	2020-12-21T16:51:56-08:00	2020-12-22T01:22:22+00:00	2020-12-24T07:59:59+00:00	-2	qcnzmdr2fvb943s@marketplace.amazon.com	Benjamin Gorton	+1 602-671-6610 ext. 77674	ABR0022	Delivery by Wednesday, Dec 23 Dozen Pink Roses with a Free Vase by Arabella Bouquets	1	0	1	FreeEconomy	Ruth Gorton	1299 N TAMIAMI TRL APT 223			SARASOTA	FL	34236-2465	US			false		
113-5002243-0955452	19787825990122	2020-12-22T00:54:55+00:00	2020-12-21T16:54:55-08:00	2020-12-22T01:23:55+00:00	2020-12-24T07:59:59+00:00	-2	7qk88t5kxdm42nd@marketplace.amazon.com	Zaid Sheikh	+1 213-442-1463 ext. 96792	ABR0055	Delivery by Wednesday, Dec 23 Dozen Hot Pink Roses in a Free Vase by Arabella Bouquets	1	0	1	Expedited	Huda Parvez	69 ALLISON RD			EAST WINDSOR	NJ	08520-2629	US			false		
113-7274156-7297033	19060592947610	2020-12-22T01:12:18+00:00	2020-12-21T17:12:18-08:00	2020-12-22T01:40:34+00:00	2020-12-24T07:59:59+00:00	-2	gs76rfrd1rb23yj@marketplace.amazon.com	karen ledbetter	+1 213-442-1463 ext. 82052	ABR0022	Delivery by Wednesday, Dec 23 Dozen Pink Roses with a Free Vase by Arabella Bouquets	1	0	1	Standard	Pauline Ledbetter	1775 MANZANITA DR			OAKLAND	CA	94611-1141	US			false		
111-6634828-3515415	49312643231978	2020-12-22T01:23:48+00:00	2020-12-21T17:23:48-08:00	2020-12-22T01:50:08+00:00	2020-12-24T07:59:59+00:00	-2	m0tpn4ys054yf3z@marketplace.amazon.com	Abby Lievense	+1 415-419-8616 ext. 35526	ABR0022	Delivery by Wednesday, Dec 23 Dozen Pink Roses with a Free Vase by Arabella Bouquets	1	0	1	FreeEconomy	Greg & Bev Thayer	15 LEAH ST			DILLSBURG	PA	17019-9337	US		Dearest Bev & Greg, Merry Xmas!  Thank you so much for raising such an incredible daughter!  2020 has been a tough year for many, but we've been hit xtra hard.  Your Annie has been an amazing friend!  Thank YOU! From Love, Abby & Darus	false		
114-1296529-5262634	65255481714442	2020-12-22T01:28:23+00:00	2020-12-21T17:28:23-08:00	2020-12-22T01:53:11+00:00	2020-12-24T07:59:59+00:00	-2	fhbgmrm58q2yzdp@marketplace.amazon.com	Cindy Euler	+1 619-854-2705 ext. 30715	ABR0033	Delivery by Thursday, Dec 24 Dozen Orange Roses in a Free Vase by Arabella Bouquets	1	0	1	Expedited	Ollie Euler	6725 LONICERA ST			CARLSBAD	CA	92011-3426	US		Enjoy your gift! Merry Christmas and Happy New Year! From David and Cindy	false		
111-4553034-0691422	19489371210626	2020-12-22T01:37:35+00:00	2020-12-21T17:37:35-08:00	2020-12-22T01:58:40+00:00	2020-12-24T07:59:59+00:00	-2	m0tpn4ys054yf3z@marketplace.amazon.com	Abby Lievense	+1 415-851-9136 ext. 00015	ABM022	Delivery by Thursday, Dec 24, Purple Extravagance Bouquet by Arabella Bouquets	1	0	1	Expedited	Chris & Rich Peterson	5513 DIVERSEY DR			RANCHO PALOS VERDES	CA	90275-1728	US		Dearest Chris & Rich, Merry Xmas!  Thank you so much for raising such an incredible daughter!  2020 has been a tough year for many, but we've been hit xtra hard.  Your Caroline has been a beyond amazing friend!  Thank YOU! From Love, Abby & Darus	false		
112-1796334-7096261	00278959051098	2020-12-22T02:00:42+00:00	2020-12-21T18:00:42-08:00	2020-12-22T02:26:13+00:00	2020-12-24T07:59:59+00:00	-2	tbshvv97qv5b5m8@marketplace.amazon.com	Venkateswari	+1 213-442-1463 ext. 91962	ABR0022	Delivery by Wednesday, Dec 23 Dozen Pink Roses with a Free Vase by Arabella Bouquets	1	0	1	FreeEconomy	Derrick E Stevens	79 ALMOND LN			PETERSBURG	IL	62675-9777	US		Derrick we are so sorry for your loss!! Our deepest condolences to you and your family!! From Shree,Anusha and Akhil	false		
113-3909429-3000237	14609389173586	2020-12-22T02:06:49+00:00	2020-12-21T18:06:49-08:00	2020-12-22T02:45:39+00:00	2020-12-24T07:59:59+00:00	-2	8kczc3zxfk6p89g@marketplace.amazon.com	evany	+1 213-442-1463 ext. 85020	ABR0055	Delivery by Wednesday, Dec 23 Dozen Hot Pink Roses in a Free Vase by Arabella Bouquets	1	0	1	Expedited	Beverley D'Urso	67 CLUBHOUSE RD UNIT 03			WELLS	ME	04090-7362	US			false		
114-9638513-6238635	38019418743482	2020-12-22T02:25:34+00:00	2020-12-21T18:25:34-08:00	2020-12-22T02:52:35+00:00	2020-12-24T07:59:59+00:00	-2	4tc1tfx3mtp7rhf@marketplace.amazon.com	alison vredenburgh	+1 415-851-9136 ext. 08944	ABR0022	Delivery by Wednesday, Dec 23 Dozen Pink Roses with a Free Vase by Arabella Bouquets	1	0	1	FreeEconomy	Hillary and Randy Cohen	77212 CALLE FLORA			LA QUINTA	CA	92253-2563	US		Thinking of you during this difficult time. We share your loss. Love, Alison and Joe, Aly and Mikey Vredenburgh From alison vredenburgh	false		
114-1734282-9195440	18342312807394	2020-12-22T02:30:09+00:00	2020-12-21T18:30:09-08:00	2020-12-22T02:54:36+00:00	2020-12-24T07:59:59+00:00	-2	fs3hfltkfq6k76w@marketplace.amazon.com	Rania P. Lizas	+1 415-419-8616 ext. 74962	ABM020	Delivery by Thursday, Dec 24 Sunset Bouquet by Arabella Bouquets	1	0	1	Expedited	Leslie Sfakiyanudis	2813 DURMONT CT			ANNAPOLIS	MD	21401-7825	US		Wishing you a Merry Christmas and a Happy New Year! Love, Rania, Ernie, Thomas and Marianna From Rafailides Family	false		
113-4301756-0823460	66874174027322	2020-12-22T02:37:07+00:00	2020-12-21T18:37:07-08:00	2020-12-22T02:59:14+00:00	2020-12-24T07:59:59+00:00	-2	hsj87x93bz0lvpm@marketplace.amazon.com	Raja Krishnan	+1 415-419-8616 ext. 48332	ABR0055	Delivery by Wednesday, Dec 23 Dozen Hot Pink Roses in a Free Vase by Arabella Bouquets	1	0	1	Standard	Padmini Balakrishnan	42 JILL CT			MONMOUTH JUNCTION	NJ	08852-2623	US			false		
113-7567776-5223439	04460042202658	2020-12-22T02:47:10+00:00	2020-12-21T18:47:10-08:00	2020-12-22T03:17:07+00:00	2020-12-24T07:59:59+00:00	-2	7b6v7yd3jwxtv65@marketplace.amazon.com	Breanna Schad	+1 346-307-9643 ext. 55683	ABR0022	Delivery by Wednesday, Dec 23 Dozen Pink Roses with a Free Vase by Arabella Bouquets	1	0	1	FreeEconomy	Lola and Lolo	3 CEDAR AVE			ORANGEBURG	NY	10962-2803	US			false		
112-1267143-5533803	50647283316314	2020-12-22T02:49:38+00:00	2020-12-21T18:49:38-08:00	2020-12-22T03:18:42+00:00	2020-12-24T07:59:59+00:00	-2	vs17f4wg4dmtv2f@marketplace.amazon.com	Noam J. Gundle	+1 213-442-1463 ext. 32072	ABR0022	Delivery by Wednesday, Dec 23 Dozen Pink Roses with a Free Vase by Arabella Bouquets	1	0	1	FreeEconomy	Sarah Gundle	505 COURT ST APT 7F			BROOKLYN	NY	11231-3950	US		Sarah, Dahlia and Yael-  Happy Chanukah, Solstice and New Year!  I love you so much and am thinking of you. From Uncle Noam	false		
113-6642772-7896210	70346739192650	2020-12-22T02:56:22+00:00	2020-12-21T18:56:22-08:00	2020-12-22T03:26:52+00:00	2020-12-24T07:59:59+00:00	-2	02kz88zr9yy9trs@marketplace.amazon.com	Milo	+1 602-671-6610 ext. 46871	ABR0022	Delivery by Wednesday, Dec 23 Dozen Pink Roses with a Free Vase by Arabella Bouquets	1	0	1	FreeEconomy	Joey Sandak	1016 RUSSELL ST			NASHVILLE	TN	37206-2955	US			false		
112-8558034-0238605	07734360165178	2020-12-22T03:18:21+00:00	2020-12-21T19:18:21-08:00	2020-12-22T03:43:59+00:00	2020-12-24T07:59:59+00:00	-2	5pxndblqt6b563x@marketplace.amazon.com	Hiroko Daeschler	+1 763-225-9463 ext. 37557	ABR0022	Delivery by Wednesday, Dec 23 Dozen Pink Roses with a Free Vase by Arabella Bouquets	1	0	1	FreeEconomy	Laura Daeschler	1606 WILLOW RD			TWIN LAKES	WI	53181-9737	US		Happy Birthday! From Jim, Hiroko and Takumi	false		
114-9666188-1203436	57547473194738	2020-12-22T03:14:55+00:00	2020-12-21T19:14:55-08:00	2020-12-22T03:44:12+00:00	2020-12-24T07:59:59+00:00	-2	fs3hfltkfq6k76w@marketplace.amazon.com	Rania P. Lizas	+1 619-854-2705 ext. 60212	ABR0022	Delivery by Wednesday, Dec 23 Dozen Pink Roses with a Free Vase by Arabella Bouquets	1	0	1	FreeEconomy	Joann Olsen (Resident)	C/O ARDEN COURTS 4301 KNOWLES AVE			KENSINGTON	MD	20895-2410	US		Sending you love during the holidays! The Peter Lizas Family From Lizas Family	false		
113-5721311-3030661	16478503150218	2020-12-22T03:32:34+00:00	2020-12-21T19:32:34-08:00	2020-12-22T03:58:05+00:00	2020-12-24T07:59:59+00:00	-2	7b6v7yd3jwxtv65@marketplace.amazon.com	Breanna Schad	+1 619-854-2705 ext. 31559	ABR0022	Delivery by Wednesday, Dec 23 Dozen Pink Roses with a Free Vase by Arabella Bouquets	1	0	1	FreeEconomy	Grandma Kathy	150 OLD LIVERPOOL RD APT 137			LIVERPOOL	NY	13088-6391	US		Merry Christmas! We love you! From Breanna, Alex, Bianca	false		
112-1827761-2219408	16483415792450	2020-12-22T03:50:23+00:00	2020-12-21T19:50:23-08:00	2020-12-22T04:16:50+00:00	2020-12-24T07:59:59+00:00	-2	vn8ybph2rjglssx@marketplace.amazon.com	Caitlin Creagan	+1 213-442-1463 ext. 67744	ABR0022	Delivery by Wednesday, Dec 23 Dozen Pink Roses with a Free Vase by Arabella Bouquets	1	0	1	Standard	Marisa and Clint Wallace	2270 ELLISON CIR			LANCASTER	SC	29720-9048	US		Marisa and Clint, I am so sorry for your loss You're in my thoughts and prayers. Caitlin From Caitlin Creagan	false		
113-2614215-4457041	14398323849898	2020-12-22T04:05:36+00:00	2020-12-21T20:05:36-08:00	2020-12-22T04:26:05+00:00	2020-12-24T07:59:59+00:00	-2	7b6v7yd3jwxtv65@marketplace.amazon.com	Breanna Schad	+1 602-671-6610 ext. 00734	ABR0022	Dozen Pink Roses with a Free Vase by Arabella Bouquets	1	0	1	Standard	Uncle Kevin and Aunt Jill	7011 SUMMIT AVE			CINCINNATI	OH	45243-2515	US			false		
111-2980020-3723463	29010953823522	2020-12-22T05:25:14+00:00	2020-12-21T21:25:14-08:00	2020-12-22T05:50:45+00:00	2020-12-24T07:59:59+00:00	-2	vbc8jmf9929q9dn@marketplace.amazon.com	Deb Dzikowski	+1 602-671-6610 ext. 01077	ABR0022	Dozen Pink Roses with a Free Vase by Arabella Bouquets	1	0	1	Standard	Susan Sellner	1426 CENTRAL AVE			BELOIT	WI	53511-3849	US		Hey Susan, I'm SO SORRY you've been ill.  All the bad things happen to the best, nicest people, like you.  Hope you feel better real soon! From Deb Dzikowski and Riley Dog	false		
113-2397314-7201014	60323605535698	2020-12-22T11:39:28+00:00	2020-12-22T03:39:28-08:00	2020-12-22T12:04:27+00:00	2020-12-25T07:59:59+00:00	-3	tj7c11w49ggbcn1@marketplace.amazon.com	susan c loin	+1 602-671-6610 ext. 61879	ABR0022	Dozen Pink Roses with a Free Vase by Arabella Bouquets	1	0	1	Standard	Suzanne Mitoraj	43 SEA GREEN DR			BERLIN	CT	06037-4087	US		SUE, STEVE WOULD HAVE WANTED YOU TO HAVE THESE TO CELEBRATE THE NEW YEAR  From susan c loin	false		
112-7033232-4076262	17818397277658	2020-12-22T13:53:38+00:00	2020-12-22T05:53:38-08:00	2020-12-22T14:16:55+00:00	2020-12-25T07:59:59+00:00	-3	x7h3l6d7htc3qqw@marketplace.amazon.com	Sarah Anderson	+1 415-851-9136 ext. 77425	ABR0022	Delivery by Thursday, Dec 24 Dozen Pink Roses with a Free Vase by Arabella Bouquets	1	0	1	Expedited	Nana and Pop-Pop Lang	2102 GREEN RIDGE DR			WARRINGTON	PA	18976-1555	US		Merry Christmas Nana and Pop-Pop!!   Love, Edward, Alex & Nickey From Edward Lang	false		
112-5252289-4449001	20945048709698	2020-12-22T13:47:55+00:00	2020-12-22T05:47:55-08:00	2020-12-22T14:17:29+00:00	2020-12-25T07:59:59+00:00	-3	hwxrpgg54s1j4vx@marketplace.amazon.com	Eleni Linaradkis	+1 415-851-9136 ext. 16712	ABR0022	Delivery by Thursday, Dec 24 Dozen Pink Roses with a Free Vase by Arabella Bouquets	1	0	1	Expedited	Juliana	14498 RUSTLING LEAVES LN			CENTREVILLE	VA	20121-2232	US		Congratulations on your podcast! Know that your drive is contagious Lots of love From Eleni Linaradkis	false		
111-0218374-3593813	45702337002170	2020-12-22T13:57:03+00:00	2020-12-22T05:57:03-08:00	2020-12-22T14:25:45+00:00	2020-12-25T07:59:59+00:00	-3	dyyc095gnd1ky2l@marketplace.amazon.com	Leslie D. Frazier	+1 415-419-8616 ext. 36437	ABR0022	Delivery by Thursday, Dec 24 Dozen Pink Roses with a Free Vase by Arabella Bouquets	1	0	1	Expedited	Elena Garcia Frazier	44 FALLS RD			SUNDERLAND	MA	01375-9584	US		Hope you feel better soon! Lots of love, Leslie, Bennett and Sarina From Leslie D. Frazier	false		
113-3364709-9806642	32615731632178	2020-12-22T14:06:47+00:00	2020-12-22T06:06:47-08:00	2020-12-22T14:37:24+00:00	2020-12-25T07:59:59+00:00	-3	915srnxty09yvbh@marketplace.amazon.com	ben dellorto	+1 480-618-5344 ext. 84181	ABR0022	Delivery by Thursday, Dec 24 Dozen Pink Roses with a Free Vase by Arabella Bouquets	1	0	1	Expedited	ben dellorto	7 CHERRY LN			SCARSDALE	NY	10583-3117	US			false		
113-9476094-9822630	61541729799818	2020-12-22T14:14:34+00:00	2020-12-22T06:14:34-08:00	2020-12-22T14:44:29+00:00	2020-12-25T07:59:59+00:00	-3	45t20whsgnvbd28@marketplace.amazon.com	Kriss Chaggar	+1 415-419-8616 ext. 27802	ABR0022	Delivery by Thursday, Dec 24 Dozen Pink Roses with a Free Vase by Arabella Bouquets	1	0	1	Expedited	Jessica A  Zygmaniak	78 WAYSIDE DR KEYPORT			KEYPORT	NJ	07735-5315	US			false		
113-1535486-3273030	30759391610450	2020-12-22T14:26:27+00:00	2020-12-22T06:26:27-08:00	2020-12-22T14:54:46+00:00	2020-12-25T07:59:59+00:00	-3	gl9jbchn3336fx2@marketplace.amazon.com	J W Groah	+1 602-671-6610 ext. 83429	ABR0022	Delivery by Thursday, Dec 24 Dozen Pink Roses with a Free Vase by Arabella Bouquets	1	0	1	Expedited	Melodie Marie Jackson	106 BUXAHATCHEE PL			NEW MARKET	AL	35761-7815	US			false		
114-5012387-9030620	64761200029522	2020-12-22T20:15:38+00:00	2020-12-22T12:15:38-08:00	2020-12-22T20:41:43+00:00	2020-12-25T07:59:59+00:00	-3	n3blmsdp63jtj8y@marketplace.amazon.com	stephen farmer	+1 415-851-9136 ext. 41753	ABC001	Delivery by Tuesday, Dec 29 Seasons Greetings Bouquet by Arabella Bouquets	1	0	1	Expedited	Navarros	7113 KATHLEEN AVE NE			ALBUQUERQUE	NM	87110-1440	US		Merry Christmas and a very Happy New Year.  We love you all! From Stephen, Heidi, and girls	false		
