order-id	order-item-id	purchase-date	payments-date	reporting-date	promise-date	days-past-promise	buyer-email	buyer-name	buyer-phone-number	sku	product-name	quantity-purchased	quantity-shipped	quantity-to-ship	ship-service-level	recipient-name	ship-address-1	ship-address-2	ship-address-3	ship-city	ship-state	ship-postal-code	ship-country	gift-wrap-type	gift-message-text	is-business-order	purchase-order-number	price-designation
112-6291853-7102602	11336341093994	2020-12-17T17:31:28+00:00	2020-12-17T09:31:28-08:00	2020-12-17T17:59:41+00:00	2020-12-22T07:59:59+00:00	0	0fpkv3btf46wqhl@marketplace.amazon.com	Karen B. Peters	+804  921 6352	ABR001	Delivery by Monday, Dec 21 Dozen Red Roses in a Free Vase by Arabella Bouquets	1	0	1	Standard	Amanda Breeding Swenk	9716 DOVE HOLLOW LN			GLEN ALLEN	VA	23060-3256	US		Merry Christmas? May 2021 be Rosy! Love, Aunt Karen From Karen B. Peters	false		
114-5012387-9030620	64761200029522	2020-12-22T20:15:38+00:00	2020-12-22T12:15:38-08:00	2020-12-22T20:41:43+00:00	2020-12-25T07:59:59+00:00	-3	n3blmsdp63jtj8y@marketplace.amazon.com	stephen farmer	+1 415-851-9136 ext. 41753	ABC001	Delivery by Tuesday, Dec 29 Seasons Greetings Bouquet by Arabella Bouquets	1	0	1	Expedited	Navarros	7113 KATHLEEN AVE NE			ALBUQUERQUE	NM	87110-1440	US		Merry Christmas and a very Happy New Year.  We love you all! From Stephen, Heidi, and girls	false		
113-8462275-8054610	17945280342546	2020-12-22T20:29:26+00:00	2020-12-22T12:29:26-08:00	2020-12-22T20:47:35+00:00	2020-12-25T07:59:59+00:00	-3	9nhl4rtyb2nz1g4@marketplace.amazon.com	Michael Kirby	+1 213-442-1463 ext. 02683	ABR0022	Delivery by Wednesday, Dec 30 Dozen Pink Roses with a Free Vase by Arabella Bouquets	1	0	1	Standard	Kelly  Chapman	135 GILBERT ST			WARWICK	RI	02886-4434	US		Happy Birthday our beautiful princess Love you to the moon and back From Pop Pop and Granma	false		
112-8119476-5124204	30741833521786	2020-12-22T20:35:24+00:00	2020-12-22T12:35:24-08:00	2020-12-22T20:55:58+00:00	2020-12-25T07:59:59+00:00	-3	tn8d2mtytn5tjjp@marketplace.amazon.com	AZAT A USMANOV	+1 619-854-2705 ext. 37583	ABR0022	Delivery by Wednesday, Dec 30 Dozen Pink Roses with a Free Vase by Arabella Bouquets	1	0	1	Expedited	Usmanov Azat Anvarovich	2650 WOLF RUN			HIAWATHA	IOWA	52233-7930	US		Happy Birthday Angelica!  Hope your day will be brighter with this small bouquet! Enjoy your day! Have fun!  Happy Holidays! From AZAT	false		
112-5066799-8669819	19444607403946	2020-12-22T20:29:47+00:00	2020-12-22T12:29:47-08:00	2020-12-22T20:58:51+00:00	2020-12-25T07:59:59+00:00	-3	77jwz1cn0qv9kn4@marketplace.amazon.com	Tyler Crozier	+1 602-671-6610 ext. 36571	ABM022	Delivery by Tuesday, Dec 29 Purple Extravagance Bouquet by Arabella Bouquets	1	0	1	Expedited	Tyler M Crozier	1704 PHEASANT RUN			MONMOUTH JUNCTION	NJ	08852-1941	US			false		
114-4877030-6825869	70133494917890	2020-12-22T20:35:40+00:00	2020-12-22T12:35:40-08:00	2020-12-22T20:59:12+00:00	2020-12-25T07:59:59+00:00	-3	sgz1p43yyq97s62@marketplace.amazon.com	M	+1 602-671-6610 ext. 26781	ABR0022	Delivery by Wednesday, Dec 30 Dozen Pink Roses with a Free Vase by Arabella Bouquets	1	0	1	Expedited	Pat Van Note	24 TENEYCK ST			STONY POINT	NY	10980-1537	US			false		
112-7331699-2383431	70141802272690	2020-12-22T20:45:05+00:00	2020-12-22T12:45:05-08:00	2020-12-22T21:08:51+00:00	2020-12-25T07:59:59+00:00	-3	x7lkwjvppn7g28h@marketplace.amazon.com	Bea P. Clement	+1 213-442-1463 ext. 81581	ABR001	Delivery by Wednesday, Dec 30 Dozen Red Roses in a Free Vase by Arabella Bouquets	1	0	1	Expedited	Alice Boone	305 SLEEPY HOLLOW RD			HENRICO	VA	23229-7127	US		Merry Christmas and Happy New Year.  I sent you flowers on Dec. 15 to the wrong address.  Sorry. Love,  Clem From Clem	false		
112-7265396-2917000	18684709424962	2020-12-22T20:40:27+00:00	2020-12-22T12:40:27-08:00	2020-12-22T21:10:59+00:00	2020-12-25T07:59:59+00:00	-3	22ddmkhgy60pprm@marketplace.amazon.com	Nicholas Perdigao	+1 213-442-1463 ext. 41408	ABR0022	Delivery by Wednesday, Dec 30 Dozen Pink Roses with a Free Vase by Arabella Bouquets	1	0	1	Expedited	Grandma	4647 PITTENGER DR LOT 2511			SARASOTA	FL	34234-5036	US			false		
113-7819920-3508231	35109906715770	2020-12-22T20:43:17+00:00	2020-12-22T12:43:17-08:00	2020-12-22T21:11:02+00:00	2020-12-25T07:59:59+00:00	-3	0zfkvv6w53wq9qw@marketplace.amazon.com	sara flores	+1 619-854-2705 ext. 58928	ABM010	Delivery by Tuesday, Dec 29 Everlasting Fling with a Free Glass Vase by Arabella Bouquets	1	0	1	Expedited	Ana Rodas	1846 W CULVER AVE APT 1			ORANGE	CA	92868-4123	US		Para la mujer más especial que je conocido ! Con mucho amor. De Abel Amaya	false		
112-4427801-4845847	50698435869018	2020-12-22T20:44:29+00:00	2020-12-22T12:44:29-08:00	2020-12-22T21:12:14+00:00	2020-12-25T07:59:59+00:00	-3	2s52d7x4jmbd8d3@marketplace.amazon.com	Marianna Colucci	+1 619-854-2705 ext. 99683	ABC001	Delivery by Tuesday, Dec 29 Seasons Greetings Bouquet by Arabella Bouquets	1	0	1	Expedited	LoriAnn Juliano	160 CREPE MYRTLE DR			GROVELAND	FL	34736-3604	US			false		
113-5787545-6906646	32378653286074	2020-12-22T20:44:57+00:00	2020-12-22T12:44:57-08:00	2020-12-22T21:12:25+00:00	2020-12-25T07:59:59+00:00	-3	bf6g34nlqh3ylj7@marketplace.amazon.com	Royden K. Ogden	+1 619-854-2705 ext. 15173	ABM020	Delivery by Tuesday, Dec 29 Sunset Bouquet by Arabella Bouquets	1	0	1	Expedited	Frieda Lampa	1601 PENNSYLVANIA AVE			BRAINERD	MN	56401-4331	US		Happy holidays, Frieda! Hope to see you in 2021! From Chris and Keith	false		
111-7917254-9949047	60796032655938	2020-12-22T20:50:56+00:00	2020-12-22T12:50:56-08:00	2020-12-22T21:20:22+00:00	2020-12-25T07:59:59+00:00	-3	py3p4ggj9gfc94h@marketplace.amazon.com	Ryan T Cook	+1 619-854-2705 ext. 35278	ABR0022	Delivery by Wednesday, Dec 30 Dozen Pink Roses with a Free Vase by Arabella Bouquets	1	0	1	Expedited	Janice Cook	900 WILIAMETTE CT			TRACY	CA	95377-6013	US			false		
111-7621732-1869044	47512921981554	2020-12-22T20:57:20+00:00	2020-12-22T12:57:20-08:00	2020-12-22T21:21:40+00:00	2020-12-25T07:59:59+00:00	-3	7kkxppp4n9977fz@marketplace.amazon.com	Beth Cannon	+1 415-419-8616 ext. 75471	ABR0022	Delivery by Thursday, Dec 24 Dozen Pink Roses with a Free Vase by Arabella Bouquets	1	0	1	Expedited	Gillian and Andrew Cannon Gow	197 CARTER RD			PRINCETON	NJ	08540-2105	US		Happy holidays! Love the Cannons xxx From Beth Cannon	false		
112-8102359-8789009	68736944565834	2020-12-22T20:53:33+00:00	2020-12-22T12:53:33-08:00	2020-12-22T21:22:56+00:00	2020-12-25T07:59:59+00:00	-3	xh6519y2jrwnxcb@marketplace.amazon.com	Sheila Hartley Downs	+1 602-671-6610 ext. 89482	ABR0022	Delivery by Thursday, Dec 24 Dozen Pink Roses with a Free Vase by Arabella Bouquets	1	0	1	Expedited	Jan Murphy	105 CHERRY HILL DR APT 302			BEVERLY	MA	01915-1074	US		Jan, Wishing you a very happy holiday! XO, From Sheila, Travis & Dave	false		
111-7873835-6565062	18879654808554	2020-12-22T20:54:37+00:00	2020-12-22T12:54:37-08:00	2020-12-22T21:23:50+00:00	2020-12-25T07:59:59+00:00	-3	z7sdl7tvhcc6k4f@marketplace.amazon.com	mike Gale	+1 619-854-2705 ext. 85218	ABR0022	Delivery by Thursday, Dec 24 Dozen Pink Roses with a Free Vase by Arabella Bouquets	1	0	1	Expedited	marcia mullins	1943 RODNEY DR APT 304			LOS ANGELES	CA	90027-3141	US			false		
112-0347089-8677010	45239732278610	2020-12-22T20:56:19+00:00	2020-12-22T12:56:19-08:00	2020-12-22T21:23:51+00:00	2020-12-25T07:59:59+00:00	-3	k6pr3ghb4g1ngrp@marketplace.amazon.com	E-Spencer	+1 415-851-9136 ext. 59786	ABM020	Delivery by Tuesday, Dec 29 Sunset Bouquet by Arabella Bouquets	1	0	1	Expedited	Monica Spencer	4086 GERMAINDER WAY			IRVINE	CA	92612-2106	US			false		
112-8559508-0139432	65075814377162	2020-12-22T20:59:06+00:00	2020-12-22T12:59:06-08:00	2020-12-22T21:25:35+00:00	2020-12-25T07:59:59+00:00	-3	xh6519y2jrwnxcb@marketplace.amazon.com	Sheila Hartley Downs	+1 619-854-2705 ext. 16921	ABC001	Delivery by Tuesday, Dec 29 Seasons Greetings Bouquet by Arabella Bouquets	1	0	1	Expedited	Fran Richards	231 LINEBROOK RD			IPSWICH	MA	01938-1148	US		Fran, Wishing you a very happy holiday! XO, From Sheila, Travis & Dave	false		
111-1613245-5301859	16310562822482	2020-12-22T21:01:05+00:00	2020-12-22T13:01:05-08:00	2020-12-22T21:29:44+00:00	2020-12-25T07:59:59+00:00	-3	65p272pcbfpbsv4@marketplace.amazon.com	Lawrence Agor	+1 619-854-2705 ext. 42399	ABR0022	Delivery by Thursday, Dec 24 Dozen Pink Roses with a Free Vase by Arabella Bouquets	1	0	1	Expedited	Carol ramirez	6441 NW 42ND RD			GAINESVILLE	FL	32606-4280	US			false		
113-3377219-0980249	68066928750178	2020-12-22T21:03:09+00:00	2020-12-22T13:03:09-08:00	2020-12-22T21:29:47+00:00	2020-12-25T07:59:59+00:00	-3	5jdt6pq0tfllwhw@marketplace.amazon.com	Barbara DuPree	+1 480-618-5344 ext. 51201	ABR0033	Delivery by Wednesday, Dec 30 Dozen Orange Roses in a Free Vase by Arabella Bouquets	1	0	1	Expedited	Catherine Dremann	208 NICARAGUA ST			BEAUFORT	SC	29902-7515	US		Because you are not a delicate fucking flower.  YOU ARE A BADASS BITCH.  I love you so much.    B From Barbara DuPree	false		
114-1163315-8732209	43056526463066	2020-12-22T21:04:43+00:00	2020-12-22T13:04:43-08:00	2020-12-22T21:34:05+00:00	2020-12-25T07:59:59+00:00	-3	zq3dtjj3w9jjdgd@marketplace.amazon.com	VIJAY HUDOCK	+1 619-854-2705 ext. 17812	ABR001	Delivery by Thursday, Dec 24 Dozen Red Roses in a Free Vase by Arabella Bouquets	1	0	1	Expedited	Smruthi and Sriram	1507 REDWOOD DR			CARMEL	IN	46032-8556	US			false		
113-6511135-2482655	29423084359010	2020-12-22T21:07:12+00:00	2020-12-22T13:07:12-08:00	2020-12-22T21:34:15+00:00	2020-12-25T07:59:59+00:00	-3	9263d5t0njlyvh9@marketplace.amazon.com	Janice LIBBY	+1 213-442-1463 ext. 19490	ABR001	Delivery by Thursday, Dec 24 Dozen Red Roses in a Free Vase by Arabella Bouquets	1	0	1	Expedited	Heritage Rehab ---- attn Shirley Kenney	457 OLD LEWISTON RD			WINTHROP	ME	04364-4111	US		Merry Christmas Mom! I love you and miss you! Love Janice From Janice LIBBY	false		
112-4219810-6001053	10193111599186	2020-12-17T20:45:48+00:00	2020-12-17T12:45:48-08:00	2020-12-22T21:34:20+00:00	2020-12-25T07:59:59+00:00	-3	kp0sgpssx4j66nh@marketplace.amazon.com	Shawna Apple	+1 213-442-1463 ext. 59167	ABM020	Delivery by Monday, Dec 21 Sunset Bouquet by Arabella Bouquets	1	0	1	Expedited	Kim Fremed	6142 MAPLE CT			SIMI VALLEY	CA	93063-7407	US		Heartfelt thoughts go out to you and your family during this time. From Shawna Apple	true		
114-5089032-6536264	43714694317506	2020-12-22T21:07:46+00:00	2020-12-22T13:07:46-08:00	2020-12-22T21:36:36+00:00	2020-12-25T07:59:59+00:00	-3	zq3dtjj3w9jjdgd@marketplace.amazon.com	VIJAY HUDOCK	+1 346-307-9643 ext. 69839	ABR001	Delivery by Thursday, Dec 24 Dozen Red Roses in a Free Vase by Arabella Bouquets	1	0	1	Expedited	Mr. and Mrs. James Estep	3391 OTTOBINE RD			DAYTON	VA	22821-2818	US		MERRY CHRISTMAS! WITH LOVE FROM  TIM, VIJAY & ANGELA! From VIJAY HUDOCK	false		
114-1290030-3381867	09133510107682	2020-12-22T21:13:26+00:00	2020-12-22T13:13:26-08:00	2020-12-22T21:38:04+00:00	2020-12-25T07:59:59+00:00	-3	3kzpgg6pm6ddv3n@marketplace.amazon.com	Carol Warburton	+1 415-419-8616 ext. 92487	ABR001	Delivery by Thursday, Dec 24 Dozen Red Roses in a Free Vase by Arabella Bouquets	1	0	1	Expedited	Dorothy Marchesano	CARRIAGE GREEN AT MILFORD	77 PLAINS RD APT 209		MILFORD	CT	06461-2588	US		Enjoy your gift! Love From Carol Warburton and Morey	false		
114-2224086-3028207	68147262235034	2020-12-22T21:13:46+00:00	2020-12-22T13:13:46-08:00	2020-12-22T21:38:18+00:00	2020-12-25T07:59:59+00:00	-3	brst5gmfrnqrtjx@marketplace.amazon.com	Samuel Velzeboer	+1 415-419-8616 ext. 29176	ABR0022	Delivery by Thursday, Dec 24 Dozen Pink Roses with a Free Vase by Arabella Bouquets	1	0	1	Expedited	Abigail Velzeboer	430 CANTOR			IRVINE	CA	92620-3840	US		Merry Christmas Mom, love you! Best wishes from Seattle. From Samuel Velzeboer and Olivia	false		
111-3412102-5132239	52891730205330	2020-12-22T21:12:38+00:00	2020-12-22T13:12:38-08:00	2020-12-22T21:40:58+00:00	2020-12-25T07:59:59+00:00	-3	ygzndlp94glg7v6@marketplace.amazon.com	Mohinder	+1 602-671-6610 ext. 91663	ABR0055	Delivery by Wednesday, Dec 30 Dozen Hot Pink Roses in a Free Vase by Arabella Bouquets	1	0	1	Standard	Rinkoo Chadha	3341 SAN PABLO CT			UNION CITY	CA	94587-2747	US		Happy and blessed birthday  Dear Rinkoo. Love chacha & Chachi ji and  Tanu From Mohinder	false		
111-5197544-4244244	31922513586426	2020-12-22T21:17:46+00:00	2020-12-22T13:17:46-08:00	2020-12-22T21:46:34+00:00	2020-12-25T07:59:59+00:00	-3	lbjtnxdjflchszg@marketplace.amazon.com	Joe Baszner	+1 619-854-2705 ext. 83063	ABR001	Delivery by Thursday, Dec 24 Dozen Red Roses in a Free Vase by Arabella Bouquets	1	0	1	Expedited	Lori Giordano	65 W JIMMIE LEEDS RD RM # 432	BED B		ABSECON	NJ	08205-9403	US			false		
111-8315374-7670666	41053420059794	2020-12-22T21:24:18+00:00	2020-12-22T13:24:18-08:00	2020-12-22T21:50:33+00:00	2020-12-25T07:59:59+00:00	-3	fndxvzdh4s2z9q4@marketplace.amazon.com	Nanci Poulen	+1 619-854-2705 ext. 54126	ABR001	Delivery by Thursday, Dec 24 Dozen Red Roses in a Free Vase by Arabella Bouquets	1	0	1	Expedited	Martha & Hector Giannetti	8 ORANGE VIA			ANAHEIM	CA	92801-1037	US		Merry Christmas & Happy New Year Martha and Hector! Love from Us! From Greg & Nanci	false		
111-3206834-3645844	69642182278450	2020-12-22T21:20:14+00:00	2020-12-22T13:20:14-08:00	2020-12-22T21:50:37+00:00	2020-12-25T07:59:59+00:00	-3	d1hkyt0z8gmmlq5@marketplace.amazon.com	John Dietrich	+1 602-671-6610 ext. 81093	ABR0022	Delivery by Thursday, Dec 24 Dozen Pink Roses with a Free Vase by Arabella Bouquets	1	0	1	Expedited	Tamanna Shah	855 UNIVERSITY VLG BLOCK 800			SALT LAKE CITY	UT	84108-3439	US			false		
114-2989748-9950652	20141762438314	2020-12-22T21:25:35+00:00	2020-12-22T13:25:35-08:00	2020-12-22T21:54:35+00:00	2020-12-25T07:59:59+00:00	-3	dptskm8hdys8dk8@marketplace.amazon.com	rambod jamshidian	+1 415-851-9136 ext. 15230	ABR001	Delivery by Thursday, Dec 24 Dozen Red Roses in a Free Vase by Arabella Bouquets	1	0	1	Expedited	Cindy & Jack Heyl	6006 MOSS CREEK RD			MIDLOTHIAN	VA	23112-2425	US			false		
112-4851160-7657033	43708564523666	2020-12-22T21:26:42+00:00	2020-12-22T13:26:42-08:00	2020-12-22T21:55:15+00:00	2020-12-25T07:59:59+00:00	-3	7m71yq0xm1qzxlf@marketplace.amazon.com	Mr David HAGGERTY	+1 415-851-9136 ext. 99229	ABR0022	Delivery by Thursday, Dec 24 Dozen Pink Roses with a Free Vase by Arabella Bouquets	1	0	1	Expedited	Mrs Sandy Andersen	17148 NE 5th Street			Bellevue	WA	98008	US			false		
114-6795280-3483453	36126152543386	2020-12-22T21:36:57+00:00	2020-12-22T13:36:57-08:00	2020-12-22T22:00:55+00:00	2020-12-25T07:59:59+00:00	-3	7tcl4cj6smzzkyn@marketplace.amazon.com	Robert J. Fuentes	+1 619-854-2705 ext. 25379	ABR0022	Delivery by Thursday, Dec 24 Dozen Pink Roses with a Free Vase by Arabella Bouquets	1	0	1	Expedited	Janet Fuentes	2145 N SHORE RD			HADLEY	NY	12835-2909	US			false		
112-9834292-0822626	16327443121474	2020-12-22T21:32:30+00:00	2020-12-22T13:32:30-08:00	2020-12-22T22:02:08+00:00	2020-12-25T07:59:59+00:00	-3	6cfwhgv72vq6dvc@marketplace.amazon.com	Lee Allie	+1 619-854-2705 ext. 90707	ABR001	Delivery by Thursday, Dec 24 Dozen Red Roses in a Free Vase by Arabella Bouquets	1	0	1	Expedited	Debby Johanson	17306 NE 45TH ST APT 109			REDMOND	WA	98052-5647	US			false		
114-4144632-6885021	09753706929994	2020-12-22T21:39:12+00:00	2020-12-22T13:39:12-08:00	2020-12-22T22:02:10+00:00	2020-12-25T07:59:59+00:00	-3	4v6d5xy8y08h9vt@marketplace.amazon.com	Barbara Mueller	+1 619-854-2705 ext. 41947	ABR001	Delivery by Thursday, Dec 24 Dozen Red Roses in a Free Vase by Arabella Bouquets	1	0	1	Expedited	Preetha Peiris	4785 WESTWOOD ST			SIMI VALLEY	CA	93063-0224	US		Merry Christmas for my friend who I miss From Barbara Mueller	false		
114-0456363-3150627	50293908788130	2020-12-22T21:37:36+00:00	2020-12-22T13:37:36-08:00	2020-12-22T22:07:12+00:00	2020-12-25T07:59:59+00:00	-3	wj1493hx9j1fcsd@marketplace.amazon.com	anna	+1 619-854-2705 ext. 33745	ABR001	Delivery by Thursday, Dec 24 Dozen Red Roses in a Free Vase by Arabella Bouquets	1	0	1	Expedited	Gina!!!!!	8532 E ILIFF DR			DENVER	CO	80231-3807	US			false		
111-3340975-3236248	22595120679338	2020-12-22T22:13:06+00:00	2020-12-22T14:13:06-08:00	2020-12-22T22:39:39+00:00	2020-12-25T07:59:59+00:00	-3	fbjcdn6rz8gpl5l@marketplace.amazon.com	Sarah Wilson Sasen	+1 415-419-8616 ext. 26174	ABM010	Delivery by Tuesday, Dec 29 Everlasting Fling with a Free Glass Vase by Arabella Bouquets	1	0	1	Standard	Laurel O'Neil	8137 SABLE WOODS DR N			JACKSONVILLE	FL	32244-6809	US		Dear Laurel, I am so sorry to hear you have been unwell. We love you,  Sarah and Percy From Sarah Monaco	false		
111-0656468-6061807	53798433729106	2020-12-22T22:31:15+00:00	2020-12-22T14:31:15-08:00	2020-12-22T22:50:23+00:00	2020-12-25T07:59:59+00:00	-3	0wjc630lyw4plhd@marketplace.amazon.com	Luiz Guilherme Andrade Figueira Mazzilli	+1 213-442-1463 ext. 57877	ABM010	Delivery by Tuesday, Dec 29 Everlasting Fling with a Free Glass Vase by Arabella Bouquets	1	0	1	Standard	Ana Noschese	275 CENTRAL PARK W APT 7B			NEW YORK	NY	10024-3039	US		Chi, Marcelo, Juju e Fre! Desejo a vocês um natal com muita alegria, snowman e muito mais! Estou com uma saudades imensa, Beijos, Ucha From Ana Figueira	false		
112-0637852-4616232	40087996687722	2020-12-22T22:37:43+00:00	2020-12-22T14:37:43-08:00	2020-12-22T23:06:16+00:00	2020-12-25T07:59:59+00:00	-3	rlzjhj51tmt1cnh@marketplace.amazon.com	Norma	+1 929-436-4790 ext. 83557	ABC001	Delivery by Tuesday, Dec 29 Seasons Greetings Bouquet by Arabella Bouquets	1	0	1	Standard	Mr. & Mrs. Richard Brady	6-3 TUCK FARM RD			AUBURN	MA	01501-2463	US			false		
114-6819665-2553816	20080539663322	2020-12-22T23:26:28+00:00	2020-12-22T15:26:28-08:00	2020-12-22T23:56:57+00:00	2020-12-25T07:59:59+00:00	-3	znt9b29c3h5xnys@marketplace.amazon.com	Rhea	+1 602-671-6610 ext. 79102	ABM022	Delivery by Tuesday, Dec 29 Purple Extravagance Bouquet by Arabella Bouquets	1	0	1	Standard	Amy Ienni	903 SOLANO DR NE			ALBUQUERQUE	NM	87110-7742	US			false		
113-1852584-2259404	43973204123522	2020-12-22T23:47:42+00:00	2020-12-22T15:47:42-08:00	2020-12-23T00:13:25+00:00	2020-12-25T07:59:59+00:00	-3	22zp82vq6x3gk1n@marketplace.amazon.com	John Renwick	+1 213-442-1463 ext. 93223	ABM010	Delivery by Tuesday, Dec 29 Everlasting Fling with a Free Glass Vase by Arabella Bouquets	1	0	1	Standard	Douglas and Marge Renwick	3205 ORCHID WAY			PRESCOTT	AZ	86305-6703	US		Happy Birthday Mom From John Renwick	false		
