order-id	order-item-id	purchase-date	payments-date	reporting-date	promise-date	days-past-promise	buyer-email	buyer-name	buyer-phone-number	sku	product-name	quantity-purchased	quantity-shipped	quantity-to-ship	ship-service-level	recipient-name	ship-address-1	ship-address-2	ship-address-3	ship-city	ship-state	ship-postal-code	ship-country	gift-wrap-type	gift-message-text	is-business-order	purchase-order-number	price-designation
112-6291853-7102602	11336341093994	2020-12-17T17:31:28+00:00	2020-12-17T09:31:28-08:00	2020-12-17T17:59:41+00:00	2020-12-22T07:59:59+00:00	1	0fpkv3btf46wqhl@marketplace.amazon.com	Karen B. Peters	+804  921 6352	ABR001	Delivery by Monday, Dec 21 Dozen Red Roses in a Free Vase by Arabella Bouquets	1	0	1	Standard	Amanda Breeding Swenk	9716 DOVE HOLLOW LN			GLEN ALLEN	VA	23060-3256	US		Merry Christmas? May 2021 be Rosy! Love, Aunt Karen From Karen B. Peters	false		
114-5012387-9030620	64761200029522	2020-12-22T20:15:38+00:00	2020-12-22T12:15:38-08:00	2020-12-22T20:41:43+00:00	2020-12-25T07:59:59+00:00	-2	n3blmsdp63jtj8y@marketplace.amazon.com	stephen farmer	+1 415-851-9136 ext. 41753	ABC001	Delivery by Tuesday, Dec 29 Seasons Greetings Bouquet by Arabella Bouquets	1	0	1	Expedited	Navarros	7113 KATHLEEN AVE NE			ALBUQUERQUE	NM	87110-1440	US		Merry Christmas and a very Happy New Year.  We love you all! From Stephen, Heidi, and girls	false		
113-8462275-8054610	17945280342546	2020-12-22T20:29:26+00:00	2020-12-22T12:29:26-08:00	2020-12-22T20:47:35+00:00	2020-12-25T07:59:59+00:00	-2	9nhl4rtyb2nz1g4@marketplace.amazon.com	Michael Kirby	+1 213-442-1463 ext. 02683	ABR0022	Delivery by Wednesday, Dec 30 Dozen Pink Roses with a Free Vase by Arabella Bouquets	1	0	1	Standard	Kelly  Chapman	135 GILBERT ST			WARWICK	RI	02886-4434	US		Happy Birthday our beautiful princess Love you to the moon and back From Pop Pop and Granma	false		
112-8119476-5124204	30741833521786	2020-12-22T20:35:24+00:00	2020-12-22T12:35:24-08:00	2020-12-22T20:55:58+00:00	2020-12-25T07:59:59+00:00	-2	tn8d2mtytn5tjjp@marketplace.amazon.com	AZAT A USMANOV	+1 619-854-2705 ext. 37583	ABR0022	Delivery by Wednesday, Dec 30 Dozen Pink Roses with a Free Vase by Arabella Bouquets	1	0	1	Expedited	Usmanov Azat Anvarovich	2650 WOLF RUN			HIAWATHA	IOWA	52233-7930	US		Happy Birthday Angelica!  Hope your day will be brighter with this small bouquet! Enjoy your day! Have fun!  Happy Holidays! From AZAT	false		
112-5066799-8669819	19444607403946	2020-12-22T20:29:47+00:00	2020-12-22T12:29:47-08:00	2020-12-22T20:58:51+00:00	2020-12-25T07:59:59+00:00	-2	77jwz1cn0qv9kn4@marketplace.amazon.com	Tyler Crozier	+1 602-671-6610 ext. 36571	ABM022	Delivery by Tuesday, Dec 29 Purple Extravagance Bouquet by Arabella Bouquets	1	0	1	Expedited	Tyler M Crozier	1704 PHEASANT RUN			MONMOUTH JUNCTION	NJ	08852-1941	US			false		
114-4877030-6825869	70133494917890	2020-12-22T20:35:40+00:00	2020-12-22T12:35:40-08:00	2020-12-22T20:59:12+00:00	2020-12-25T07:59:59+00:00	-2	sgz1p43yyq97s62@marketplace.amazon.com	M	+1 602-671-6610 ext. 26781	ABR0022	Delivery by Wednesday, Dec 30 Dozen Pink Roses with a Free Vase by Arabella Bouquets	1	0	1	Expedited	Pat Van Note	24 TENEYCK ST			STONY POINT	NY	10980-1537	US			false		
112-7331699-2383431	70141802272690	2020-12-22T20:45:05+00:00	2020-12-22T12:45:05-08:00	2020-12-22T21:08:51+00:00	2020-12-25T07:59:59+00:00	-2	x7lkwjvppn7g28h@marketplace.amazon.com	Bea P. Clement	+1 213-442-1463 ext. 81581	ABR001	Delivery by Wednesday, Dec 30 Dozen Red Roses in a Free Vase by Arabella Bouquets	1	0	1	Expedited	Alice Boone	305 SLEEPY HOLLOW RD			HENRICO	VA	23229-7127	US		Merry Christmas and Happy New Year.  I sent you flowers on Dec. 15 to the wrong address.  Sorry. Love,  Clem From Clem	false		
112-7265396-2917000	18684709424962	2020-12-22T20:40:27+00:00	2020-12-22T12:40:27-08:00	2020-12-22T21:10:59+00:00	2020-12-25T07:59:59+00:00	-2	22ddmkhgy60pprm@marketplace.amazon.com	Nicholas Perdigao	+1 213-442-1463 ext. 41408	ABR0022	Delivery by Wednesday, Dec 30 Dozen Pink Roses with a Free Vase by Arabella Bouquets	1	0	1	Expedited	Grandma	4647 PITTENGER DR LOT 2511			SARASOTA	FL	34234-5036	US			false		
113-7819920-3508231	35109906715770	2020-12-22T20:43:17+00:00	2020-12-22T12:43:17-08:00	2020-12-22T21:11:02+00:00	2020-12-25T07:59:59+00:00	-2	0zfkvv6w53wq9qw@marketplace.amazon.com	sara flores	+1 619-854-2705 ext. 58928	ABM010	Delivery by Tuesday, Dec 29 Everlasting Fling with a Free Glass Vase by Arabella Bouquets	1	0	1	Expedited	Ana Rodas	1846 W CULVER AVE APT 1			ORANGE	CA	92868-4123	US		Para la mujer más especial que je conocido ! Con mucho amor. De Abel Amaya	false		
112-4427801-4845847	50698435869018	2020-12-22T20:44:29+00:00	2020-12-22T12:44:29-08:00	2020-12-22T21:12:14+00:00	2020-12-25T07:59:59+00:00	-2	2s52d7x4jmbd8d3@marketplace.amazon.com	Marianna Colucci	+1 619-854-2705 ext. 99683	ABC001	Delivery by Tuesday, Dec 29 Seasons Greetings Bouquet by Arabella Bouquets	1	0	1	Expedited	LoriAnn Juliano	160 CREPE MYRTLE DR			GROVELAND	FL	34736-3604	US			false		
113-5787545-6906646	32378653286074	2020-12-22T20:44:57+00:00	2020-12-22T12:44:57-08:00	2020-12-22T21:12:25+00:00	2020-12-25T07:59:59+00:00	-2	bf6g34nlqh3ylj7@marketplace.amazon.com	Royden K. Ogden	+1 619-854-2705 ext. 15173	ABM020	Delivery by Tuesday, Dec 29 Sunset Bouquet by Arabella Bouquets	1	0	1	Expedited	Frieda Lampa	1601 PENNSYLVANIA AVE			BRAINERD	MN	56401-4331	US		Happy holidays, Frieda! Hope to see you in 2021! From Chris and Keith	false		
111-7917254-9949047	60796032655938	2020-12-22T20:50:56+00:00	2020-12-22T12:50:56-08:00	2020-12-22T21:20:22+00:00	2020-12-25T07:59:59+00:00	-2	py3p4ggj9gfc94h@marketplace.amazon.com	Ryan T Cook	+1 619-854-2705 ext. 35278	ABR0022	Delivery by Wednesday, Dec 30 Dozen Pink Roses with a Free Vase by Arabella Bouquets	1	0	1	Expedited	Janice Cook	900 WILIAMETTE CT			TRACY	CA	95377-6013	US			false		
111-7621732-1869044	47512921981554	2020-12-22T20:57:20+00:00	2020-12-22T12:57:20-08:00	2020-12-22T21:21:40+00:00	2020-12-25T07:59:59+00:00	-2	7kkxppp4n9977fz@marketplace.amazon.com	Beth Cannon	+1 415-419-8616 ext. 75471	ABR0022	Delivery by Thursday, Dec 24 Dozen Pink Roses with a Free Vase by Arabella Bouquets	1	0	1	Expedited	Gillian and Andrew Cannon Gow	197 CARTER RD			PRINCETON	NJ	08540-2105	US		Happy holidays! Love the Cannons xxx From Beth Cannon	false		
112-8102359-8789009	68736944565834	2020-12-22T20:53:33+00:00	2020-12-22T12:53:33-08:00	2020-12-22T21:22:56+00:00	2020-12-25T07:59:59+00:00	-2	xh6519y2jrwnxcb@marketplace.amazon.com	Sheila Hartley Downs	+1 602-671-6610 ext. 89482	ABR0022	Delivery by Thursday, Dec 24 Dozen Pink Roses with a Free Vase by Arabella Bouquets	1	0	1	Expedited	Jan Murphy	105 CHERRY HILL DR APT 302			BEVERLY	MA	01915-1074	US		Jan, Wishing you a very happy holiday! XO, From Sheila, Travis & Dave	false		
111-7873835-6565062	18879654808554	2020-12-22T20:54:37+00:00	2020-12-22T12:54:37-08:00	2020-12-22T21:23:50+00:00	2020-12-25T07:59:59+00:00	-2	z7sdl7tvhcc6k4f@marketplace.amazon.com	mike Gale	+1 619-854-2705 ext. 85218	ABR0022	Delivery by Thursday, Dec 24 Dozen Pink Roses with a Free Vase by Arabella Bouquets	1	0	1	Expedited	marcia mullins	1943 RODNEY DR APT 304			LOS ANGELES	CA	90027-3141	US			false		
112-0347089-8677010	45239732278610	2020-12-22T20:56:19+00:00	2020-12-22T12:56:19-08:00	2020-12-22T21:23:51+00:00	2020-12-25T07:59:59+00:00	-2	k6pr3ghb4g1ngrp@marketplace.amazon.com	E-Spencer	+1 415-851-9136 ext. 59786	ABM020	Delivery by Tuesday, Dec 29 Sunset Bouquet by Arabella Bouquets	1	0	1	Expedited	Monica Spencer	4086 GERMAINDER WAY			IRVINE	CA	92612-2106	US			false		
112-8559508-0139432	65075814377162	2020-12-22T20:59:06+00:00	2020-12-22T12:59:06-08:00	2020-12-22T21:25:35+00:00	2020-12-25T07:59:59+00:00	-2	xh6519y2jrwnxcb@marketplace.amazon.com	Sheila Hartley Downs	+1 619-854-2705 ext. 16921	ABC001	Delivery by Tuesday, Dec 29 Seasons Greetings Bouquet by Arabella Bouquets	1	0	1	Expedited	Fran Richards	231 LINEBROOK RD			IPSWICH	MA	01938-1148	US		Fran, Wishing you a very happy holiday! XO, From Sheila, Travis & Dave	false		
111-1613245-5301859	16310562822482	2020-12-22T21:01:05+00:00	2020-12-22T13:01:05-08:00	2020-12-22T21:29:44+00:00	2020-12-25T07:59:59+00:00	-2	65p272pcbfpbsv4@marketplace.amazon.com	Lawrence Agor	+1 619-854-2705 ext. 42399	ABR0022	Delivery by Thursday, Dec 24 Dozen Pink Roses with a Free Vase by Arabella Bouquets	1	0	1	Expedited	Carol ramirez	6441 NW 42ND RD			GAINESVILLE	FL	32606-4280	US			false		
113-3377219-0980249	68066928750178	2020-12-22T21:03:09+00:00	2020-12-22T13:03:09-08:00	2020-12-22T21:29:47+00:00	2020-12-25T07:59:59+00:00	-2	5jdt6pq0tfllwhw@marketplace.amazon.com	Barbara DuPree	+1 480-618-5344 ext. 51201	ABR0033	Delivery by Wednesday, Dec 30 Dozen Orange Roses in a Free Vase by Arabella Bouquets	1	0	1	Expedited	Catherine Dremann	208 NICARAGUA ST			BEAUFORT	SC	29902-7515	US		Because you are not a delicate fucking flower.  YOU ARE A BADASS BITCH.  I love you so much.    B From Barbara DuPree	false		
114-1163315-8732209	43056526463066	2020-12-22T21:04:43+00:00	2020-12-22T13:04:43-08:00	2020-12-22T21:34:05+00:00	2020-12-25T07:59:59+00:00	-2	zq3dtjj3w9jjdgd@marketplace.amazon.com	VIJAY HUDOCK	+1 619-854-2705 ext. 17812	ABR001	Delivery by Thursday, Dec 24 Dozen Red Roses in a Free Vase by Arabella Bouquets	1	0	1	Expedited	Smruthi and Sriram	1507 REDWOOD DR			CARMEL	IN	46032-8556	US			false		
113-6511135-2482655	29423084359010	2020-12-22T21:07:12+00:00	2020-12-22T13:07:12-08:00	2020-12-22T21:34:15+00:00	2020-12-25T07:59:59+00:00	-2	9263d5t0njlyvh9@marketplace.amazon.com	Janice LIBBY	+1 213-442-1463 ext. 19490	ABR001	Delivery by Thursday, Dec 24 Dozen Red Roses in a Free Vase by Arabella Bouquets	1	0	1	Expedited	Heritage Rehab ---- attn Shirley Kenney	457 OLD LEWISTON RD			WINTHROP	ME	04364-4111	US		Merry Christmas Mom! I love you and miss you! Love Janice From Janice LIBBY	false		
112-4219810-6001053	10193111599186	2020-12-17T20:45:48+00:00	2020-12-17T12:45:48-08:00	2020-12-22T21:34:20+00:00	2020-12-25T07:59:59+00:00	-2	kp0sgpssx4j66nh@marketplace.amazon.com	Shawna Apple	+1 213-442-1463 ext. 59167	ABM020	Delivery by Monday, Dec 21 Sunset Bouquet by Arabella Bouquets	1	0	1	Expedited	Kim Fremed	6142 MAPLE CT			SIMI VALLEY	CA	93063-7407	US		Heartfelt thoughts go out to you and your family during this time. From Shawna Apple	true		
114-5089032-6536264	43714694317506	2020-12-22T21:07:46+00:00	2020-12-22T13:07:46-08:00	2020-12-22T21:36:36+00:00	2020-12-25T07:59:59+00:00	-2	zq3dtjj3w9jjdgd@marketplace.amazon.com	VIJAY HUDOCK	+1 346-307-9643 ext. 69839	ABR001	Delivery by Thursday, Dec 24 Dozen Red Roses in a Free Vase by Arabella Bouquets	1	0	1	Expedited	Mr. and Mrs. James Estep	3391 OTTOBINE RD			DAYTON	VA	22821-2818	US		MERRY CHRISTMAS! WITH LOVE FROM  TIM, VIJAY & ANGELA! From VIJAY HUDOCK	false		
114-1290030-3381867	09133510107682	2020-12-22T21:13:26+00:00	2020-12-22T13:13:26-08:00	2020-12-22T21:38:04+00:00	2020-12-25T07:59:59+00:00	-2	3kzpgg6pm6ddv3n@marketplace.amazon.com	Carol Warburton	+1 415-419-8616 ext. 92487	ABR001	Delivery by Thursday, Dec 24 Dozen Red Roses in a Free Vase by Arabella Bouquets	1	0	1	Expedited	Dorothy Marchesano	CARRIAGE GREEN AT MILFORD	77 PLAINS RD APT 209		MILFORD	CT	06461-2588	US		Enjoy your gift! Love From Carol Warburton and Morey	false		
114-2224086-3028207	68147262235034	2020-12-22T21:13:46+00:00	2020-12-22T13:13:46-08:00	2020-12-22T21:38:18+00:00	2020-12-25T07:59:59+00:00	-2	brst5gmfrnqrtjx@marketplace.amazon.com	Samuel Velzeboer	+1 415-419-8616 ext. 29176	ABR0022	Delivery by Thursday, Dec 24 Dozen Pink Roses with a Free Vase by Arabella Bouquets	1	0	1	Expedited	Abigail Velzeboer	430 CANTOR			IRVINE	CA	92620-3840	US		Merry Christmas Mom, love you! Best wishes from Seattle. From Samuel Velzeboer and Olivia	false		
111-3412102-5132239	52891730205330	2020-12-22T21:12:38+00:00	2020-12-22T13:12:38-08:00	2020-12-22T21:40:58+00:00	2020-12-25T07:59:59+00:00	-2	ygzndlp94glg7v6@marketplace.amazon.com	Mohinder	+1 602-671-6610 ext. 91663	ABR0055	Delivery by Wednesday, Dec 30 Dozen Hot Pink Roses in a Free Vase by Arabella Bouquets	1	0	1	Standard	Rinkoo Chadha	3341 SAN PABLO CT			UNION CITY	CA	94587-2747	US		Happy and blessed birthday  Dear Rinkoo. Love chacha & Chachi ji and  Tanu From Mohinder	false		
111-5197544-4244244	31922513586426	2020-12-22T21:17:46+00:00	2020-12-22T13:17:46-08:00	2020-12-22T21:46:34+00:00	2020-12-25T07:59:59+00:00	-2	lbjtnxdjflchszg@marketplace.amazon.com	Joe Baszner	+1 619-854-2705 ext. 83063	ABR001	Delivery by Thursday, Dec 24 Dozen Red Roses in a Free Vase by Arabella Bouquets	1	0	1	Expedited	Lori Giordano	65 W JIMMIE LEEDS RD RM # 432	BED B		ABSECON	NJ	08205-9403	US			false		
111-8315374-7670666	41053420059794	2020-12-22T21:24:18+00:00	2020-12-22T13:24:18-08:00	2020-12-22T21:50:33+00:00	2020-12-25T07:59:59+00:00	-2	fndxvzdh4s2z9q4@marketplace.amazon.com	Nanci Poulen	+1 619-854-2705 ext. 54126	ABR001	Delivery by Thursday, Dec 24 Dozen Red Roses in a Free Vase by Arabella Bouquets	1	0	1	Expedited	Martha & Hector Giannetti	8 ORANGE VIA			ANAHEIM	CA	92801-1037	US		Merry Christmas & Happy New Year Martha and Hector! Love from Us! From Greg & Nanci	false		
111-3206834-3645844	69642182278450	2020-12-22T21:20:14+00:00	2020-12-22T13:20:14-08:00	2020-12-22T21:50:37+00:00	2020-12-25T07:59:59+00:00	-2	d1hkyt0z8gmmlq5@marketplace.amazon.com	John Dietrich	+1 602-671-6610 ext. 81093	ABR0022	Delivery by Thursday, Dec 24 Dozen Pink Roses with a Free Vase by Arabella Bouquets	1	0	1	Expedited	Tamanna Shah	855 UNIVERSITY VLG BLOCK 800			SALT LAKE CITY	UT	84108-3439	US			false		
114-2989748-9950652	20141762438314	2020-12-22T21:25:35+00:00	2020-12-22T13:25:35-08:00	2020-12-22T21:54:35+00:00	2020-12-25T07:59:59+00:00	-2	dptskm8hdys8dk8@marketplace.amazon.com	rambod jamshidian	+1 415-851-9136 ext. 15230	ABR001	Delivery by Thursday, Dec 24 Dozen Red Roses in a Free Vase by Arabella Bouquets	1	0	1	Expedited	Cindy & Jack Heyl	6006 MOSS CREEK RD			MIDLOTHIAN	VA	23112-2425	US			false		
112-4851160-7657033	43708564523666	2020-12-22T21:26:42+00:00	2020-12-22T13:26:42-08:00	2020-12-22T21:55:15+00:00	2020-12-25T07:59:59+00:00	-2	7m71yq0xm1qzxlf@marketplace.amazon.com	Mr David HAGGERTY	+1 415-851-9136 ext. 99229	ABR0022	Delivery by Thursday, Dec 24 Dozen Pink Roses with a Free Vase by Arabella Bouquets	1	0	1	Expedited	Mrs Sandy Andersen	17148 NE 5th Street			Bellevue	WA	98008	US			false		
114-6795280-3483453	36126152543386	2020-12-22T21:36:57+00:00	2020-12-22T13:36:57-08:00	2020-12-22T22:00:55+00:00	2020-12-25T07:59:59+00:00	-2	7tcl4cj6smzzkyn@marketplace.amazon.com	Robert J. Fuentes	+1 619-854-2705 ext. 25379	ABR0022	Delivery by Thursday, Dec 24 Dozen Pink Roses with a Free Vase by Arabella Bouquets	1	0	1	Expedited	Janet Fuentes	2145 N SHORE RD			HADLEY	NY	12835-2909	US			false		
112-9834292-0822626	16327443121474	2020-12-22T21:32:30+00:00	2020-12-22T13:32:30-08:00	2020-12-22T22:02:08+00:00	2020-12-25T07:59:59+00:00	-2	6cfwhgv72vq6dvc@marketplace.amazon.com	Lee Allie	+1 619-854-2705 ext. 90707	ABR001	Delivery by Thursday, Dec 24 Dozen Red Roses in a Free Vase by Arabella Bouquets	1	0	1	Expedited	Debby Johanson	17306 NE 45TH ST APT 109			REDMOND	WA	98052-5647	US			false		
114-4144632-6885021	09753706929994	2020-12-22T21:39:12+00:00	2020-12-22T13:39:12-08:00	2020-12-22T22:02:10+00:00	2020-12-25T07:59:59+00:00	-2	4v6d5xy8y08h9vt@marketplace.amazon.com	Barbara Mueller	+1 619-854-2705 ext. 41947	ABR001	Delivery by Thursday, Dec 24 Dozen Red Roses in a Free Vase by Arabella Bouquets	1	0	1	Expedited	Preetha Peiris	4785 WESTWOOD ST			SIMI VALLEY	CA	93063-0224	US		Merry Christmas for my friend who I miss From Barbara Mueller	false		
114-0456363-3150627	50293908788130	2020-12-22T21:37:36+00:00	2020-12-22T13:37:36-08:00	2020-12-22T22:07:12+00:00	2020-12-25T07:59:59+00:00	-2	wj1493hx9j1fcsd@marketplace.amazon.com	anna	+1 619-854-2705 ext. 33745	ABR001	Delivery by Thursday, Dec 24 Dozen Red Roses in a Free Vase by Arabella Bouquets	1	0	1	Expedited	Gina!!!!!	8532 E ILIFF DR			DENVER	CO	80231-3807	US			false		
111-3340975-3236248	22595120679338	2020-12-22T22:13:06+00:00	2020-12-22T14:13:06-08:00	2020-12-22T22:39:39+00:00	2020-12-25T07:59:59+00:00	-2	fbjcdn6rz8gpl5l@marketplace.amazon.com	Sarah Wilson Sasen	+1 415-419-8616 ext. 26174	ABM010	Delivery by Tuesday, Dec 29 Everlasting Fling with a Free Glass Vase by Arabella Bouquets	1	0	1	Standard	Laurel O'Neil	8137 SABLE WOODS DR N			JACKSONVILLE	FL	32244-6809	US		Dear Laurel, I am so sorry to hear you have been unwell. We love you,  Sarah and Percy From Sarah Monaco	false		
111-0656468-6061807	53798433729106	2020-12-22T22:31:15+00:00	2020-12-22T14:31:15-08:00	2020-12-22T22:50:23+00:00	2020-12-25T07:59:59+00:00	-2	0wjc630lyw4plhd@marketplace.amazon.com	Luiz Guilherme Andrade Figueira Mazzilli	+1 213-442-1463 ext. 57877	ABM010	Delivery by Tuesday, Dec 29 Everlasting Fling with a Free Glass Vase by Arabella Bouquets	1	0	1	Standard	Ana Noschese	275 CENTRAL PARK W APT 7B			NEW YORK	NY	10024-3039	US		Chi, Marcelo, Juju e Fre! Desejo a vocês um natal com muita alegria, snowman e muito mais! Estou com uma saudades imensa, Beijos, Ucha From Ana Figueira	false		
112-0637852-4616232	40087996687722	2020-12-22T22:37:43+00:00	2020-12-22T14:37:43-08:00	2020-12-22T23:06:16+00:00	2020-12-25T07:59:59+00:00	-2	rlzjhj51tmt1cnh@marketplace.amazon.com	Norma	+1 929-436-4790 ext. 83557	ABC001	Delivery by Tuesday, Dec 29 Seasons Greetings Bouquet by Arabella Bouquets	1	0	1	Standard	Mr. & Mrs. Richard Brady	6-3 TUCK FARM RD			AUBURN	MA	01501-2463	US			false		
114-6819665-2553816	20080539663322	2020-12-22T23:26:28+00:00	2020-12-22T15:26:28-08:00	2020-12-22T23:56:57+00:00	2020-12-25T07:59:59+00:00	-2	znt9b29c3h5xnys@marketplace.amazon.com	Rhea	+1 602-671-6610 ext. 79102	ABM022	Delivery by Tuesday, Dec 29 Purple Extravagance Bouquet by Arabella Bouquets	1	0	1	Standard	Amy Ienni	903 SOLANO DR NE			ALBUQUERQUE	NM	87110-7742	US			false		
113-1852584-2259404	43973204123522	2020-12-22T23:47:42+00:00	2020-12-22T15:47:42-08:00	2020-12-23T00:13:25+00:00	2020-12-25T07:59:59+00:00	-2	22zp82vq6x3gk1n@marketplace.amazon.com	John Renwick	+1 213-442-1463 ext. 93223	ABM010	Delivery by Tuesday, Dec 29 Everlasting Fling with a Free Glass Vase by Arabella Bouquets	1	0	1	Standard	Douglas and Marge Renwick	3205 ORCHID WAY			PRESCOTT	AZ	86305-6703	US		Happy Birthday Mom From John Renwick	false		
113-1175399-6829048	26405934273610	2020-12-23T09:57:03+00:00	2020-12-23T01:57:03-08:00	2020-12-23T10:14:09+00:00	2020-12-29T07:59:59+00:00	-6	5zk2b1nrm9qnppf@marketplace.amazon.com	Ethan Jennings	+1 602-671-6610 ext. 68001	ABR0022	Delivery by Wednesday, Dec 30 Dozen Pink Roses with a Free Vase by Arabella Bouquets	1	0	1	Standard	Ethan Jennings	41 frederick way			KIRKWOOD	PA	17536	US		Happy Birthday! Thank you for always supporting us. We wish you the best of health from Japan and hope you have a year full of wonder and happiness. Love you, and we hope to see you in either America or Japan soon! From Ethan and Kana	false		
112-7713491-8608227	47070371830154	2020-12-23T10:56:28+00:00	2020-12-23T02:56:28-08:00	2020-12-23T11:25:58+00:00	2020-12-29T07:59:59+00:00	-6	yv15850yngwpr84@marketplace.amazon.com	Thelma Ugo	+1 619-854-2705 ext. 82164	ABC001	Delivery by Tuesday, Dec 29 Seasons Greetings Bouquet by Arabella Bouquets	1	0	1	Expedited	Debbie Wileford	418 BENNINGTON RD			WILMINGTON	DE	19804-3013	US		Merry Christmas Deb! Get well soon! From Love, Thelma	false		
112-0690838-4989867	29177053720274	2020-12-23T12:10:15+00:00	2020-12-23T04:10:15-08:00	2020-12-23T12:38:02+00:00	2020-12-29T07:59:59+00:00	-6	k3lwh58qk6wtrj7@marketplace.amazon.com	Marla Pollack	+1 415-851-9136 ext. 93663	ABR0055	Delivery by Wednesday, Dec 30 Dozen Hot Pink Roses in a Free Vase by Arabella Bouquets	1	0	1	Expedited	Pat Allen	1977 ROBINA AVE			BERKLEY	MI	48072-1253	US		We love you! Hope this brings you joy! From Craig and Marla	false		
113-8397406-6925056	39497340088042	2020-12-23T12:17:07+00:00	2020-12-23T04:17:07-08:00	2020-12-23T12:44:46+00:00	2020-12-29T07:59:59+00:00	-6	xzth6wgcrq812z5@marketplace.amazon.com	Susan Ramsey	+1 602-671-6610 ext. 74344	ABR0033	Delivery by Wednesday, Dec 30 Dozen Orange Roses in a Free Vase by Arabella Bouquets	1	0	1	Expedited	Frances Ramsey	200 DOMINICAN DR UNIT 5314			MADISON	MS	39110-8630	US		Dear Frances  I know this Christmas season is hard for you. I hope this arrangement will bring a smile as you remember your and dad’s anniversary From Love Susan	false		
114-5128692-8901006	05260880527850	2020-12-23T13:13:22+00:00	2020-12-23T05:13:22-08:00	2020-12-23T13:43:18+00:00	2020-12-29T07:59:59+00:00	-6	yg99flwdv1hv40n@marketplace.amazon.com	Gerrard Khan	+1 415-851-9136 ext. 48167	ABM022	Delivery by Tuesday, Dec 29 Purple Extravagance Bouquet by Arabella Bouquets	1	0	1	Expedited	Suzanne Chung	1317S Country Glen Way			Anaheim	California	92808	US		Dear aunty Susy: I hope you like the flowers that I am giving you for Christmas .Hugs and kisses form Louanna . From Louanna Khan From Louanna Khan	false		
112-8876497-5701822	18315120631554	2020-12-23T13:29:56+00:00	2020-12-23T05:29:56-08:00	2020-12-23T13:49:07+00:00	2020-12-29T07:59:59+00:00	-6	9ykjnyk7ph6x66d@marketplace.amazon.com	rose m dietz	+1 480-618-5344 ext. 48437	ABR0022	Delivery by Wednesday, Dec 30 Dozen Pink Roses with a Free Vase by Arabella Bouquets	1	0	1	Expedited	Consuelo Vazquez	8912 SW 142ND AVE APT 423			MIAMI	FL	33186-1225	US			false		
111-3685368-9588213	18117507973018	2020-12-23T13:35:40+00:00	2020-12-23T05:35:40-08:00	2020-12-23T14:04:00+00:00	2020-12-29T07:59:59+00:00	-6	d57ndmnprmk5v0k@marketplace.amazon.com	Nathan Weaver	+1304237972	ABC002	Delivery by Tuesday, Dec 29 Warm Wishes Bouquet by Arabella Bouquets	1	0	1	Expedited	Nancy Peck	12 S DELAWARE ST			SMYRNA	DE	19977-1464	US		Warm Winter Wishes to You and Sadie!! From The  Weaver  Family	false		
112-2758237-1286630	11601231602194	2020-12-23T14:05:33+00:00	2020-12-23T06:05:33-08:00	2020-12-23T14:35:12+00:00	2020-12-29T07:59:59+00:00	-6	vn6qzbg3sn5ks24@marketplace.amazon.com	tora newcomer	+1 213-442-1463 ext. 33546	ABR0066	Delivery by Wednesday, Dec 30 Dozen White Roses in a Free Vase by Arabella Bouquets	1	0	1	Expedited	sue king	2036 5TH AVE UNIT A			SAN RAFAEL	CA	94901-1714	US		Hi Sue, welcome to your new place! Much love to you and family. I am sorry you can't be with your mom this holiday season and I am sending all my love love Tora From tora newcomer	false		
112-8449862-3109869	62082602075890	2020-12-23T14:42:07+00:00	2020-12-23T06:42:07-08:00	2020-12-23T15:00:34+00:00	2020-12-29T07:59:59+00:00	-6	lynq2lhgp48r710@marketplace.amazon.com	Lori Ollig	+1 619-854-2705 ext. 80533	ABR0022	Delivery by Wednesday, Dec 30 Dozen Pink Roses with a Free Vase by Arabella Bouquets	1	0	1	Expedited	Melissa Pulju	2490 27TH ST			RICE LAKE	WI	54868-9094	US		Happy 50th birthday! Hope these can bring a little joy after this depressing year we have had and bring a better year to come! Sorry if they did not arrive on your Birthday but I had some issues with another company. From Your Friend, Lori	false		
114-4487011-7643403	17991835381530	2020-12-23T14:32:32+00:00	2020-12-23T06:32:32-08:00	2020-12-23T15:01:57+00:00	2020-12-29T07:59:59+00:00	-6	ljgfr1mlxkyzwb7@marketplace.amazon.com	Isaac	+1 415-419-8616 ext. 52906	ABM010	Delivery by Tuesday, Dec 29 Everlasting Fling with a Free Glass Vase by Arabella Bouquets	1	0	1	Expedited	Heidi venturino	HOUSE 21733 MIMS WAY			LUTZ	FL	33549-8751	US		Hi, Enjoy your gift! From Isaac	false		
114-6830568-5568204	50786050290818	2020-12-23T14:44:29+00:00	2020-12-23T06:44:29-08:00	2020-12-23T15:10:48+00:00	2020-12-29T07:59:59+00:00	-6	dt5mdzbmtp9w3nz@marketplace.amazon.com	Michelle Crosbie	+1 602-671-6610 ext. 93134	ABC001	Delivery by Tuesday, Dec 29 Seasons Greetings Bouquet by Arabella Bouquets	1	0	1	Expedited	Yolanda Hales	MARK 70 FRONTAGE RD 1002			CHERRY HILL	NJ	08034-1424	US		Dear Yo,  Happy Birthday!!  Love,  John and Michelle From Michelle Crosbie	false		
113-7361192-8130602	15449242472866	2020-12-23T14:48:04+00:00	2020-12-23T06:48:04-08:00	2020-12-23T15:15:10+00:00	2020-12-29T07:59:59+00:00	-6	gdj1xs0m273hgt1@marketplace.amazon.com	Connie Bishop	+1 415-851-9136 ext. 42242	ABM022	Delivery by Tuesday, Dec 29 Purple Extravagance Bouquet by Arabella Bouquets	1	0	1	Expedited	Carylon Seger	2016 WENTWORTH VILLAGE DR			BELLBROOK	OH	45305-2738	US			false		
111-1928366-5188219	02672852085314	2020-12-23T15:11:44+00:00	2020-12-23T07:11:44-08:00	2020-12-23T15:33:56+00:00	2020-12-29T07:59:59+00:00	-6	pv9rnf53sm3xw4m@marketplace.amazon.com	Kenneth B Lally	+1 480-618-5344 ext. 80248	ABM022	Delivery by Tuesday, Dec 29 Purple Extravagance Bouquet by Arabella Bouquets	1	0	1	Expedited	Sarah Eberly	101 WILSON LN			NEW BLOOMFIELD	PA	17068-9017	US			false		
113-8793305-1740211	32468490431618	2020-12-23T15:19:39+00:00	2020-12-23T07:19:39-08:00	2020-12-23T15:45:16+00:00	2020-12-29T07:59:59+00:00	-6	gpqbmhxp0vlj2ks@marketplace.amazon.com	Ed Wu	+1 213-442-1463 ext. 99157	ABC001	Delivery by Tuesday, Dec 29 Seasons Greetings Bouquet by Arabella Bouquets	1	0	1	Expedited	Dr. Christina Hoven	HAPPY NEW YORK 2021! FROM FLORANCE CELINE AND ED	36 BROOKSIDE CIR		BRONXVILLE	NY	10708-5637	US			false		
112-6432532-6408220	11369656364634	2020-12-23T15:21:11+00:00	2020-12-23T07:21:11-08:00	2020-12-23T15:49:28+00:00	2020-12-29T07:59:59+00:00	-6	rc8ddyqlg3vr68r@marketplace.amazon.com	carol-ann farren	+1 415-419-8616 ext. 85966	ABC001	Delivery by Tuesday, Dec 29 Seasons Greetings Bouquet by Arabella Bouquets	1	0	1	Expedited	Darcie Klassen	405 SE 53RD AVE			PORTLAND	OR	97215-1209	US		Happy Birthday Darcie. Love Mom and Dan ❤️	false		
114-6782360-7809027	50963818325002	2020-12-23T15:21:33+00:00	2020-12-23T07:21:33-08:00	2020-12-23T15:50:12+00:00	2020-12-29T07:59:59+00:00	-6	zf6z4jsvq3mds88@marketplace.amazon.com	Jennifer Boyle	+1 602-671-6610 ext. 48317	ABM010	Delivery by Tuesday, Dec 29 Everlasting Fling with a Free Glass Vase by Arabella Bouquets	1	0	1	Expedited	Ethan Powsner	1931 DUNLIN CT NE			GRAND RAPIDS	MI	49505-7151	US		Cynthia and Ethan, Cheer’s to the new year ahead, thank you for being the best of friends and amazing role model!  We love you! Love, Jen, Mike, Liam, Cormac, and Declan From Jennifer Boyle	false		
113-3238541-9577027	27367380076258	2020-12-23T15:20:32+00:00	2020-12-23T07:20:32-08:00	2020-12-23T15:50:52+00:00	2020-12-29T07:59:59+00:00	-6	r3q7qm1mw04xqdm@marketplace.amazon.com	Jacob	+1 619-854-2705 ext. 15591	ABR0022	Delivery by Wednesday, Dec 30 Dozen Pink Roses with a Free Vase by Arabella Bouquets	1	0	1	Expedited	Carina	120 GARFIELD PL APT 105			CINCINNATI	OH	45202-1987	US			false		
113-9151304-4596210	07561743462218	2020-12-23T15:28:01+00:00	2020-12-23T07:28:01-08:00	2020-12-23T15:51:54+00:00	2020-12-29T07:59:59+00:00	-6	tyhycqpl617rrm1@marketplace.amazon.com	Jindrus	+1 213-442-1463 ext. 03832	ABC002	Delivery by Tuesday, Dec 29 Warm Wishes Bouquet by Arabella Bouquets	1	0	1	Expedited	Riddles	919 PLEASANT AVE			WATERFORD	CA	95386-9730	US		With love and prayers -Jindrus and Brian Stewart	false		
113-5839578-3597008	60819193683882	2020-12-23T15:25:16+00:00	2020-12-23T07:25:16-08:00	2020-12-23T15:53:21+00:00	2020-12-29T07:59:59+00:00	-6	rfld4w8lgp1zlsj@marketplace.amazon.com	susan	+1 213-442-1463 ext. 06931	ABC002	Delivery by Tuesday, Dec 29 Warm Wishes Bouquet by Arabella Bouquets	1	0	1	Standard	susan Greenwell	180 E BROWN RD			SANTA CLAUS	INDIANA	47579-9729	US		Merry Christmas and Happy  New Year!!! From susan and Mike	false		
113-9340715-7980209	56966075076658	2020-12-23T15:28:26+00:00	2020-12-23T07:28:26-08:00	2020-12-23T15:57:49+00:00	2020-12-29T07:59:59+00:00	-6	gpqbmhxp0vlj2ks@marketplace.amazon.com	Ed Wu	+1 602-671-6610 ext. 84556	ABC002	Delivery by Tuesday, Dec 29 Warm Wishes Bouquet by Arabella Bouquets	1	0	1	Expedited	Susan Lin	1600 PARKER AVE APT 11A			FORT LEE	NJ	07024-7005	US			false		
113-8867608-6640202	21977381997362	2020-12-23T15:36:30+00:00	2020-12-23T07:36:30-08:00	2020-12-23T16:05:50+00:00	2020-12-29T07:59:59+00:00	-6	gpqbmhxp0vlj2ks@marketplace.amazon.com	Ed Wu	+1 619-854-2705 ext. 26097	ABC001	Delivery by Tuesday, Dec 29 Seasons Greetings Bouquet by Arabella Bouquets	1	0	1	Expedited	Susan Lin	1600 PARKER AVE APT 11A			FORT LEE	NJ	07024-7005	US			false		
111-4634294-3322609	34707192235042	2020-12-23T15:52:11+00:00	2020-12-23T07:52:11-08:00	2020-12-23T16:08:15+00:00	2020-12-29T07:59:59+00:00	-6	zrcw1n14bdxr74d@marketplace.amazon.com	Daniel	+1 415-851-9136 ext. 26114	ABR0022	Delivery by Wednesday, Dec 30 Dozen Pink Roses with a Free Vase by Arabella Bouquets	1	0	1	Expedited	Alyssa	17318 E SUMMER ROSE CT			CYPRESS	TX	77429-6723	US		For my Alyssa bear From Daniel	false		
114-6938041-4211450	62264558054418	2020-12-23T15:42:25+00:00	2020-12-23T07:42:25-08:00	2020-12-23T16:13:09+00:00	2020-12-29T07:59:59+00:00	-6	fqvj8fq577g5qyf@marketplace.amazon.com	Jason Fortier	+1 213-442-1463 ext. 94695	ABR001	Delivery by Wednesday, Dec 30 Dozen Red Roses in a Free Vase by Arabella Bouquets	1	0	1	Expedited	Kay Moore	575 AUBURN RD			GROTON	NY	13073-9754	US			false		
113-2382728-8219438	37896193217690	2020-12-23T15:48:39+00:00	2020-12-23T07:48:39-08:00	2020-12-23T16:13:41+00:00	2020-12-29T07:59:59+00:00	-6	t3xlpq0bk4ymq25@marketplace.amazon.com	Angela Maietta	+1 213-442-1463 ext. 88963	ABM010	Delivery by Tuesday, Dec 29 Everlasting Fling with a Free Glass Vase by Arabella Bouquets	1	0	1	Expedited	Victoria Duchman	157 HARVEST ST			LINDEN	PA	17744-9047	US		We are so sorry for your loss. Our thoughts and prayers are with you during this difficult time. With love and sympathy,  Phil & Angie From Angela Maietta	false		
111-1074773-7286667	23299972147170	2020-12-23T15:54:27+00:00	2020-12-23T07:54:27-08:00	2020-12-23T16:23:30+00:00	2020-12-29T07:59:59+00:00	-6	jtz20cqbsjfmj9z@marketplace.amazon.com	Jason Robey	+1 619-854-2705 ext. 44149	ABR0022	Delivery by Wednesday, Dec 30 Dozen Pink Roses with a Free Vase by Arabella Bouquets	1	0	1	Expedited	Joanna Mosteller	4605 36TH ST N			ARLINGTON	VA	22207-4358	US		Welcome Baby Alice! We love you and can't wait to meet you. From Jason Robey	false		
114-1772998-7374660	30149685395906	2020-12-23T16:01:42+00:00	2020-12-23T08:01:42-08:00	2020-12-23T16:27:04+00:00	2020-12-29T07:59:59+00:00	-6	blyvjgd0b6xj9j3@marketplace.amazon.com	Mary Spear	+1 415-851-9136 ext. 16776	ABM010	Delivery by Tuesday, Dec 29 Everlasting Fling with a Free Glass Vase by Arabella Bouquets	1	0	1	Expedited	Laurie Southard	2400 BRASILENO DR			VIRGINIA BEACH	VA	23456-6436	US		Laurie, We hope you feel better soon! Our thoughts and prayers are with you. All our love, From John, Mary, Sarah, John, Ashley, Ariana, Luke and Kaitlin	false		
112-0287141-2129874	24946752244082	2020-12-23T16:00:57+00:00	2020-12-23T08:00:57-08:00	2020-12-23T16:28:25+00:00	2020-12-29T07:59:59+00:00	-6	nd17qnz9qfbxb2y@marketplace.amazon.com	jpbmass	+1 415-851-9136 ext. 62516	ABM026	Delivery by Tuesday, Dec 29 Amour Bouquet by Arabella Bouquets	1	0	1	Standard	Cheryl Baker	1411 SIERRA SAGE LN			ESTES PARK	CO	80517-9162	US		Happy Birthday to our daughter!   Love ya',    Mom and Dad From jpbmass	false		
114-6060504-6155435	43976075436850	2020-12-23T16:11:22+00:00	2020-12-23T08:11:22-08:00	2020-12-23T16:40:50+00:00	2020-12-29T07:59:59+00:00	-6	gp15l73t7mxntmb@marketplace.amazon.com	William Quigley	+1 415-419-8616 ext. 03307	ABM010	Delivery by Tuesday, Dec 29 Everlasting Fling with a Free Glass Vase by Arabella Bouquets	1	0	1	Expedited	Ramona Fernandez	1941 HARVARD AVE			GRETNA	LA	70056-4303	US		You are the best Ramona, thank you for everything.  Love Bill From William Quigley	false		
112-4668610-9985819	66337869144978	2020-12-23T16:16:04+00:00	2020-12-23T08:16:04-08:00	2020-12-23T16:42:41+00:00	2020-12-29T07:59:59+00:00	-6	2kpssg2y1rcw9sd@marketplace.amazon.com	Jeffrey D. Estes	+1 415-851-9136 ext. 56227	ABR0022	Delivery by Wednesday, Dec 30 Dozen Pink Roses with a Free Vase by Arabella Bouquets	1	0	1	Expedited	Polly Byrnes	3747 CORALBERRY WAY			DACULA	GA	30019-7222	US		Happy Birthday to my dear friend. Have a wonderful and blessed day. You are a blessing to me.  The heartfelt counsel of a friend is as sweet as perfume and incense. Proverbs 27:9  Much love, Kathy From Kathy Estes	false		
112-0166776-7445048	47756005196842	2020-12-23T16:29:33+00:00	2020-12-23T08:29:33-08:00	2020-12-23T16:51:01+00:00	2020-12-29T07:59:59+00:00	-6	q5ms8rlcfgcb24n@marketplace.amazon.com	Hope Harriott	+1 213-442-1463 ext. 38065	ABR0055	Delivery by Wednesday, Dec 30 Dozen Hot Pink Roses in a Free Vase by Arabella Bouquets	1	0	1	Expedited	Carol Young	52 MYRTLE AVE			HEMPSTEAD	NY	11550-2921	US		Enjoy! Wishing you a Merry Christmas and all the best in 2021! Love you! From Chris, Erica, Shaun and Camryn!	false		
114-5378656-4681824	41823621050834	2020-12-23T16:34:23+00:00	2020-12-23T08:34:23-08:00	2020-12-23T17:04:36+00:00	2020-12-29T07:59:59+00:00	-6	vcrq3nghz84j5hx@marketplace.amazon.com	Barton G Zerfas	+1 213-442-1463 ext. 86767	ABM020	Delivery by Tuesday, Dec 29 Sunset Bouquet by Arabella Bouquets	1	0	1	Expedited	Susan Snow	105 CHESTNUT RDG			FAIRHOPE	AL	36532-6307	US			false		
112-5237892-4469031	24361616292106	2020-12-23T16:36:14+00:00	2020-12-23T08:36:14-08:00	2020-12-23T17:05:44+00:00	2020-12-29T07:59:59+00:00	-6	gspp8yqzzl4nhcl@marketplace.amazon.com	Scott K. Johnson	+1 619-854-2705 ext. 43417	ABR0022	Delivery by Wednesday, Dec 30 Dozen Pink Roses with a Free Vase by Arabella Bouquets	1	0	1	Expedited	Marilyn Stark	4034 PONCA RD			OMAHA	NE	68112-1122	US		Merry Christmas and Happy New Year Mom.  Love Scott and Family	false		
112-7161434-2002648	70075583791770	2020-12-23T16:40:17+00:00	2020-12-23T08:40:17-08:00	2020-12-23T17:07:36+00:00	2020-12-29T07:59:59+00:00	-6	x4s1bzxl80kfskb@marketplace.amazon.com	Lih Ko	+1 619-854-2705 ext. 39037	ABR0022	Delivery by Wednesday, Dec 30 Dozen Pink Roses with a Free Vase by Arabella Bouquets	1	0	1	Expedited	Suk Ko	323 OLD MILL RD			SAINT JAMES	NY	11780-4206	US		Happy Birthday Suk!  Wishing you have a day filled with love and happiness. From Mom, Chen, Lih and Dale	false		
114-2245168-5012229	12911118024346	2020-12-23T16:58:50+00:00	2020-12-23T08:58:50-08:00	2020-12-23T17:17:34+00:00	2020-12-29T07:59:59+00:00	-6	svdwmm7609prp96@marketplace.amazon.com	Daniel Archer	+1 602-671-6610 ext. 20367	ABM010	Delivery by Tuesday, Dec 29 Everlasting Fling with a Free Glass Vase by Arabella Bouquets	1	0	1	Expedited	Glenna Heinz	200 Masonic Home Dr, Apt 111			Masonic Home	KY	40041	US		Hi Grandma - Merry Xmas! Miss you, talk to you soon. Happy New Year.  With love, Danny	false		
111-0059517-1887442	25594273907018	2020-12-23T17:00:23+00:00	2020-12-23T09:00:23-08:00	2020-12-23T17:23:52+00:00	2020-12-29T07:59:59+00:00	-6	lrvkjfxdxwq1tq4@marketplace.amazon.com	Jennifer Nadelson	+1 480-618-5344 ext. 96311	ABM010	Delivery by Tuesday, Dec 29 Everlasting Fling with a Free Glass Vase by Arabella Bouquets	1	0	1	Expedited	Laura Saldana	1801 W ADDISON ST APT 2E			CHICAGO	IL	60613-4283	US		Laura and family,  With deepest condolences for the loss of your grandmother.   With love from the Expert Marketing Team From Jennifer Nadelson	false		
112-5961039-2598636	45478566341154	2020-12-23T17:00:10+00:00	2020-12-23T09:00:10-08:00	2020-12-23T17:29:04+00:00	2020-12-29T07:59:59+00:00	-6	y4ktrvq13hzc46x@marketplace.amazon.com	jbautz@ford.com	+1 415-419-8616 ext. 64881	ABR0066	Delivery by Wednesday, Dec 30 Dozen White Roses in a Free Vase by Arabella Bouquets	1	0	1	Expedited	Dona Bautz	900 LINCOLN CLUB DR APT 120			PITTSBURGH	PA	15237-5092	US		Happy New Year Love Jeff and Heather From Jeff Bautz	false		
111-3614492-8761816	45523380228490	2020-12-23T17:11:46+00:00	2020-12-23T09:11:46-08:00	2020-12-23T17:38:31+00:00	2020-12-29T07:59:59+00:00	-6	tz7qbkv1qv6fc13@marketplace.amazon.com	Rodney A Mayo	+1 602-671-6610 ext. 05164	ABR001	Delivery by Wednesday, Dec 30 Dozen Red Roses in a Free Vase by Arabella Bouquets	1	0	1	Expedited	Vera Mauk	33 SHAW ST			PALMER	MA	01069-1313	US		Merry Christmas and Happy New Year   I love you!!! From Chris	false		
113-5855943-5340233	69039912625074	2020-12-23T17:18:57+00:00	2020-12-23T09:18:57-08:00	2020-12-23T17:44:04+00:00	2020-12-29T07:59:59+00:00	-6	6l2m1nfgftm7xpr@marketplace.amazon.com	Alexander Bolozdynya	+1 415-419-8616 ext. 03856	ABR0022	Delivery by Wednesday, Dec 30 Dozen Pink Roses with a Free Vase by Arabella Bouquets	1	0	1	Expedited	INNA GOGOUA	392 LAKE FOREST DR			BAY VILLAGE	OH	44140-2507	US			false		
113-5489832-7845864	37721852879298	2020-12-23T17:15:37+00:00	2020-12-23T09:15:37-08:00	2020-12-23T17:45:24+00:00	2020-12-29T07:59:59+00:00	-6	fjkyg23rh5rgnl0@marketplace.amazon.com	RICHARD AMOS	+1 602-671-6610 ext. 83165	ABSR003	Delivery by Wednesday, Dec 30 Yellow Spray Roses in a Free Designer Glass Vase by Arabella Bouquets	1	0	1	Expedited	RICHARD E AMOS	170 VINKAYA DR			MORGANTOWN	IN	46160-9113	US			false		
114-3399116-3929811	17676550893210	2020-12-23T17:17:04+00:00	2020-12-23T09:17:04-08:00	2020-12-23T17:45:28+00:00	2020-12-29T07:59:59+00:00	-6	1mmszqmxm7gv83b@marketplace.amazon.com	Denise T. Tracey	+1 480-618-5344 ext. 06662	ABM010	Delivery by Tuesday, Dec 29 Everlasting Fling with a Free Glass Vase by Arabella Bouquets	1	0	1	Expedited	Vickie Barrineau	3416 CHAMPAIGN ST			CHARLOTTE	NC	28210-6326	US		Dear Vickie, Happy Birthday Week! Wishing you many blessings in the year ahead. Love Denise From Denise T. Tracey	false		
114-5800996-5692245	70034117264866	2020-12-23T17:26:58+00:00	2020-12-23T09:26:58-08:00	2020-12-23T17:50:33+00:00	2020-12-29T07:59:59+00:00	-6	2432354fy7jst6g@marketplace.amazon.com	carol peltier	+1 213-442-1463 ext. 48876	ABR004	Delivery by Wednesday, Dec 30 Dozen Yellow Roses in a Free Vase by Arabella Bouquets	1	0	1	Expedited	Archie Peltier	2648 34TH AVE S			MINNEAPOLIS	MN	55406-1736	US		Archie,  Thank you for being my wonderful brother. I wouldn't have gotten through my childhood without you. I'm so glad we still have each other. From carol peltier	false		
112-8283192-4296248	07047876708586	2020-12-23T17:24:14+00:00	2020-12-23T09:24:14-08:00	2020-12-23T17:51:29+00:00	2020-12-29T07:59:59+00:00	-6	rm7l0lns7g0slb4@marketplace.amazon.com	Brian Clark	+1 415-419-8616 ext. 69243	ABM022	Delivery by Tuesday, Dec 29 Purple Extravagance Bouquet by Arabella Bouquets	1	0	1	Expedited	Carol Hartley	3540 LINDBERG ST			KLAMATH FALLS	OR	97601-1035	US		Merry Christmas Grandma.  Cant waite to see you again and I know deacon will be excited.  Love Deacon, Tiffany and Brian. De Brian Clark	false		
112-0946735-8033044	58417332552610	2020-12-23T17:27:21+00:00	2020-12-23T09:27:21-08:00	2020-12-23T17:56:15+00:00	2020-12-29T07:59:59+00:00	-6	ct11zfc03yhw3bk@marketplace.amazon.com	Beth	+1 619-854-2705 ext. 40581	ABM010	Delivery by Tuesday, Dec 29 Everlasting Fling with a Free Glass Vase by Arabella Bouquets	1	0	1	Expedited	Kim & Casey Property Management - Richard Kim	3055 WILSHIRE BLVD			LOS ANGELES	CA	90010-1108	US		Hello Richard, We hope you and your family are doing well. We wish your wife a speedy recovery. Happy new year From Beth, Greg, Jarred, David, and Janelle	false		
113-6903936-9209038	49379791954498	2020-12-23T17:27:36+00:00	2020-12-23T09:27:36-08:00	2020-12-23T17:57:42+00:00	2020-12-29T07:59:59+00:00	-6	kdwpj9z4v7xjnnw@marketplace.amazon.com	Debra K. Bement	+1 415-419-8616 ext. 82995	ABC001	Delivery by Tuesday, Dec 29 Seasons Greetings Bouquet by Arabella Bouquets	1	0	1	Expedited	Lydia Barrett	2604 S SEABISCUIT DR			VERADALE	WA	99037-5118	US			false		
111-7843571-4788225	44253117914306	2020-12-23T17:29:13+00:00	2020-12-23T09:29:13-08:00	2020-12-23T17:59:18+00:00	2020-12-29T07:59:59+00:00	-6	yczhpfp6kqyl0g4@marketplace.amazon.com	Vince Punteney	+1 602-671-6610 ext. 92654	ABM026	Delivery by Tuesday, Dec 29 Amour Bouquet by Arabella Bouquets	1	0	1	Expedited	Debbie Hann	3624 121ST ST NE			MARYSVILLE	WA	98271-8409	US		Love you Sista! From Vince Punteney	false		
112-9802350-2152202	41460371593242	2020-12-23T18:01:28+00:00	2020-12-23T10:01:28-08:00	2020-12-23T18:09:48+00:00	2020-12-29T07:59:59+00:00	-6	95hsk9xhkdb0393@marketplace.amazon.com	Michael Albert Terrazas	+1 213-442-1463 ext. 07493	ABC001	Delivery by Tuesday, Dec 29 Seasons Greetings Bouquet by Arabella Bouquets	1	0	1	Expedited	Helen Jenkins	6445 PINE HILL CT			NINE MILE FALLS	WA	99026-9575	US		Enjoy your gift! From Michael Terrazas	false		
112-2242937-2058663	27240017494690	2020-12-23T17:43:47+00:00	2020-12-23T09:43:47-08:00	2020-12-23T18:13:23+00:00	2020-12-29T07:59:59+00:00	-6	4qk15xlk7pkpxkh@marketplace.amazon.com	Mary Conlon	+1 763-225-9463 ext. 33976	ABM010	Delivery by Tuesday, Dec 29 Everlasting Fling with a Free Glass Vase by Arabella Bouquets	1	0	1	Expedited	Ms. Karline K. Tierney	721 MAIDEN CHOICE LN APT CW222			CATONSVILLE	MD	21228-6298	US			false		
111-0814756-0612226	43250591392986	2020-12-23T17:49:47+00:00	2020-12-23T09:49:47-08:00	2020-12-23T18:15:09+00:00	2020-12-29T07:59:59+00:00	-6	1f199hffj7l6npl@marketplace.amazon.com	Joyce a tucker	+1 602-671-6610 ext. 52512	ABR012	Delivery by Wednesday, Dec 30 Arabella Farm Direct Bouquet of 18 Fresh Cut Pink Roses with a Free Glass Vase	1	0	1	Expedited	Barbara Jordan	98 NORTH ST			STONEHAM	MA	02180-3919	US		Enjoy your gift! Happy New Year to my sweet friend.  Wishing you great health and happiness abound in 2021. Love, Love, Love Joyce! From Joyce a tucker	false		
112-5978782-3780262	63351683359666	2020-12-23T17:58:10+00:00	2020-12-23T09:58:10-08:00	2020-12-23T18:19:08+00:00	2020-12-29T07:59:59+00:00	-6	5qzkcy180t5m85l@marketplace.amazon.com	Nicole Morris	+1 619-854-2705 ext. 79208	ABC001	Delivery by Tuesday, Dec 29 Seasons Greetings Bouquet by Arabella Bouquets	1	0	1	Expedited	Curtis & Jacqueline Walker	135 HAILEYS RUN			MONTGOMERY	TX	77316-1468	US		From Love, Nicole.	false		
113-9604168-8218615	42193059024618	2020-12-23T17:50:35+00:00	2020-12-23T09:50:35-08:00	2020-12-23T18:20:55+00:00	2020-12-29T07:59:59+00:00	-6	r78mfqx99yfglv7@marketplace.amazon.com	Carol Hansen	+1 619-854-2705 ext. 25600	ABR0022	Delivery by Wednesday, Dec 30 Dozen Pink Roses with a Free Vase by Arabella Bouquets	1	0	1	Expedited	Steve and Nancy Garrett	4811 S LANDINGS DR APT 103			FORT MYERS	FL	33919-4687	US			false		
111-2536521-1421845	43192151952826	2020-12-23T18:04:30+00:00	2020-12-23T10:04:30-08:00	2020-12-23T18:33:59+00:00	2020-12-29T07:59:59+00:00	-6	338qmf9rqt7s4fm@marketplace.amazon.com	Susan Delehanty	+1 213-442-1463 ext. 67738	ABM010	Delivery by Tuesday, Dec 29 Everlasting Fling with a Free Glass Vase by Arabella Bouquets	1	0	1	Expedited	Annette Katz	11 CEDAR LN			POUGHKEEPSIE	NY	12601-1146	US		Happy birthday! From Susan	false		
112-9475833-3392236	13534553941042	2020-12-23T18:15:24+00:00	2020-12-23T10:15:24-08:00	2020-12-23T18:35:28+00:00	2020-12-29T07:59:59+00:00	-6	8gyps39t22cxbm1@marketplace.amazon.com	Michele Moriarty	+1 415-851-9136 ext. 43163	ABR001	Delivery by Wednesday, Dec 30 Dozen Red Roses in a Free Vase by Arabella Bouquets	1	0	1	Expedited	LEE Moriarty	2032 CASTRO WAY			SACRAMENTO	CA	95818-3133	US		Merry Christmas  and Happy New Year!!!! Wish we were in Mexico now but happy to have so many fun memories!!! We love you so much! Michele and Dave From Michele Moriarty	false		
113-0532268-7082614	47091089158586	2020-12-23T18:14:50+00:00	2020-12-23T10:14:50-08:00	2020-12-23T18:41:26+00:00	2020-12-29T07:59:59+00:00	-6	6r4pskfj0p14hwl@marketplace.amazon.com	Angie	+1 415-419-8616 ext. 26549	ABM010	Delivery by Tuesday, Dec 29 Everlasting Fling with a Free Glass Vase by Arabella Bouquets	1	0	1	Expedited	Tony Root	111 SAXON DR			EATON	OH	45320-2765	US		Our deepest sympathies, your friends at Dayton Progress. From Dayton Progress	false		
112-0507309-3176267	58544860968618	2020-12-23T18:17:45+00:00	2020-12-23T10:17:45-08:00	2020-12-23T18:45:36+00:00	2020-12-29T07:59:59+00:00	-6	cvgsb12m0h2m2h4@marketplace.amazon.com	Laura Fitzgerald	+1 602-671-6610 ext. 46007	ABC002	Delivery by Tuesday, Dec 29 Warm Wishes Bouquet by Arabella Bouquets	1	0	1	Expedited	Maude Bigford	9991 W WINGLETON RD			BRANCH	MI	49402-9480	US		Maude and Paul, Merry Christmas, and have a blessed New Year!!! From All my love, laura	false		
113-3392186-5161801	49156261604458	2020-12-23T18:17:52+00:00	2020-12-23T10:17:52-08:00	2020-12-23T18:46:37+00:00	2020-12-29T07:59:59+00:00	-6	5cmmw0gskwmsx83@marketplace.amazon.com	Sandra Ehrhorn	+1 602-671-6610 ext. 71551	ABR013	Delivery by Wednesday, Dec 30 Arabella Farm Direct Bouquet of 18 Fresh Cut Yellow Roses with a Free Glass Vase	1	0	1	Expedited	Mary Niccolai	740 YOUTH CAMP RD			GROVELAND	FL	34736-9663	US		Dear Mary:  Happy Birthday to our wonderful daughter in law.   We love you. From Sandy and Bob	false		
114-9822230-0763460	32821138893698	2020-12-23T18:33:36+00:00	2020-12-23T10:33:36-08:00	2020-12-23T19:01:03+00:00	2020-12-29T07:59:59+00:00	-6	4h9mdd5hthfp5x9@marketplace.amazon.com	Fei Yuan	+1 213-442-1463 ext. 31029	ABR0022	Delivery by Wednesday, Dec 30 Dozen Pink Roses with a Free Vase by Arabella Bouquets	1	0	1	Expedited	Meng Yu	12600 WINTER WREN CT			HERNDON	VA	20171-1830	US		Dear Yu, Meng & Li, Feng, We sincerely wish both of you will like this rose flowers!  Happy New Year to both of you! From Fei Yuan & Dr. Cai	false		
111-8047400-1261840	55817459151146	2020-12-23T18:32:34+00:00	2020-12-23T10:32:34-08:00	2020-12-23T19:01:32+00:00	2020-12-29T07:59:59+00:00	-6	kgc1683xycz955d@marketplace.amazon.com	Nicole Dutcher	+1 415-851-9136 ext. 10816	ABM025	Delivery by Tuesday, Dec 29 Fell for You Bouquet by Arabella Bouquets	1	0	1	Expedited	Barbara Hoffman	1761 COLAVITA WAY			RENO	NV	89521-3010	US		Happy Birthday Mom/Grandma! We hope you have the best day! We miss you and love you! From Nicole, Jason, Paige and Charlie	false		
112-1825450-0695413	57431925801618	2020-12-23T18:33:49+00:00	2020-12-23T10:33:49-08:00	2020-12-23T19:01:53+00:00	2020-12-29T07:59:59+00:00	-6	kw68mr50y2wt308@marketplace.amazon.com	Nancy Gray	+1 602-671-6610 ext. 64937	ABR0033	Delivery by Wednesday, Dec 30 Dozen Orange Roses in a Free Vase by Arabella Bouquets	1	0	1	Standard	Victor & Brenda Smyth	4255 N 101ST AVE			PHOENIX	AZ	85037-5642	US		Victor & Brenda, May the New Year bring you joy and health. From Tommy & Nancy	false		
112-4816878-6248267	54045134811170	2020-12-23T18:38:28+00:00	2020-12-23T10:38:28-08:00	2020-12-23T19:05:15+00:00	2020-12-29T07:59:59+00:00	-6	3n6lv3xvxt7m20j@marketplace.amazon.com	Heike Kleine	+1 415-419-8616 ext. 15287	ABR0022	Delivery by Wednesday, Dec 30 Dozen Pink Roses with a Free Vase by Arabella Bouquets	1	0	1	Expedited	Janna Maxon	1326 MONTFORT DR			HARRISBURG	PA	17110-3013	US		JANNA,  GET WELL SOON.                                   LOVE & PRAYERS, From ERNIE,HEIKE & FAMILY	false		
113-5061002-1093850	05001465193210	2020-12-23T18:37:14+00:00	2020-12-23T10:37:14-08:00	2020-12-23T19:05:43+00:00	2020-12-29T07:59:59+00:00	-6	n0gwxm12dx3cbvg@marketplace.amazon.com	Christie	+1 602-671-6610 ext. 49737	ABM020	Delivery by Tuesday, Dec 29 Sunset Bouquet by Arabella Bouquets	1	0	1	Expedited	Eric & Nicole Sievers	1540 EL CAMINO DEL TEATRO			LA JOLLA	CA	92037-6333	US		Here's to a fabulous 2021!  Wishing you all good health and fortune in the new year! Love, Sandy, Christie, Kelsey & Connor From Christie	false		
112-0452153-8276238	69578448781690	2020-12-23T18:39:18+00:00	2020-12-23T10:39:18-08:00	2020-12-23T19:07:09+00:00	2020-12-29T07:59:59+00:00	-6	wyxmtl5pbxh5cyy@marketplace.amazon.com	Kevin Garduno	+1 415-419-8616 ext. 66546	ABM010	Delivery by Tuesday, Dec 29 Everlasting Fling with a Free Glass Vase by Arabella Bouquets	1	0	1	Expedited	Emily Cloward	820 W WALNUT AVE APT 4			MONROVIA	CA	91016-3138	US		Thinking of you :)  Sending a big all the way from Clearfield!    Love you forever!  Amy From Amy Garduno	false		
114-2340074-0365048	44043727315970	2020-12-23T18:48:34+00:00	2020-12-23T10:48:34-08:00	2020-12-23T19:10:55+00:00	2020-12-29T07:59:59+00:00	-6	6xb98jw7h7v40t7@marketplace.amazon.com	carmen ayala	+1 619-854-2705 ext. 72347	ABR001	Delivery by Wednesday, Dec 30 Dozen Red Roses in a Free Vase by Arabella Bouquets	1	0	1	Expedited	Yoselin castro	1732 JUDIE LN APT G			LANCASTER	PA	17603-6759	US		Enjoy your gift! From carmen ayala	false		
112-5878153-8466651	46497062823522	2020-12-23T18:43:32+00:00	2020-12-23T10:43:32-08:00	2020-12-23T19:12:15+00:00	2020-12-29T07:59:59+00:00	-6	989lb1yy5j3rx4z@marketplace.amazon.com	Annabella	+1 602-671-6610 ext. 75076	ABM010	Delivery by Tuesday, Dec 29 Everlasting Fling with a Free Glass Vase by Arabella Bouquets	1	0	1	Expedited	Tammi Hilkins	44426 N 20TH ST			NEW RIVER	AZ	85087-7522	US		Merry Christmas! We love and miss you! From Kevin and Tammi	false		
111-1150070-9400246	33475744020274	2020-12-23T18:52:04+00:00	2020-12-23T10:52:04-08:00	2020-12-23T19:12:23+00:00	2020-12-29T07:59:59+00:00	-6	9f6gp1c9kh8xf9w@marketplace.amazon.com	Patricia Druetzler	+1 602-671-6610 ext. 00134	ABC001	Delivery by Tuesday, Dec 29 Seasons Greetings Bouquet by Arabella Bouquets	1	0	1	Expedited	Laneira Fearnside	4333 24TH AVE LOT 1			FORT GRATIOT	MI	48059-3844	US			false		
111-6425359-9985850	46354029723194	2020-12-23T18:49:48+00:00	2020-12-23T10:49:48-08:00	2020-12-23T19:19:22+00:00	2020-12-29T07:59:59+00:00	-6	6ddqprzs9q1clk7@marketplace.amazon.com	eric messmer	+1 213-442-1463 ext. 03783	ABC001	Delivery by Tuesday, Dec 29 Seasons Greetings Bouquet by Arabella Bouquets	1	0	1	Expedited	MARIA CAROLINA CONTRERAS	4833 CYPRESS WOODS DR APT 4309	FLOOR 3RD		ORLANDO	FL	32811-3552	US			false		
114-7182150-8861001	01689686629226	2020-12-23T18:58:42+00:00	2020-12-23T10:58:42-08:00	2020-12-23T19:19:34+00:00	2020-12-29T07:59:59+00:00	-6	6w3zmh54flw043s@marketplace.amazon.com	Arpeet Ravalji	+1 480-618-5344 ext. 78015	ABR0066	Delivery by Wednesday, Dec 30 Dozen White Roses in a Free Vase by Arabella Bouquets	1	0	1	Expedited	Sunit Tailor	1469 E STONINGTON DR			DOWNINGTOWN	PA	19335-6501	US		Our thoughts and prayers are with you and your family. From CRM Team	false		
112-2022790-8959458	37429666220258	2020-12-23T18:52:48+00:00	2020-12-23T10:52:48-08:00	2020-12-23T19:21:02+00:00	2020-12-29T07:59:59+00:00	-6	hz71ybsfcvg4ljl@marketplace.amazon.com	Olivia Ile	+1 480-618-5344 ext. 58712	ABR0066	Delivery by Wednesday, Dec 30 Dozen White Roses in a Free Vase by Arabella Bouquets	1	0	1	Expedited	Shonna Ely	5 HIGHLAND AVE			MANCHESTER	PA	17345-9715	US			false		
112-7545434-2045804	47621070809482	2020-12-23T19:14:02+00:00	2020-12-23T11:14:02-08:00	2020-12-23T19:41:14+00:00	2020-12-29T07:59:59+00:00	-6	wgj6bcrq5rd0ddt@marketplace.amazon.com	Crystal Crowley	+1 346-307-9643 ext. 22152	ABC001	Delivery by Tuesday, Dec 29 Seasons Greetings Bouquet by Arabella Bouquets	1	0	1	Expedited	Christine Lobengilo	C/O EASTERN STAR HOME	923 EASTERN STAR CT		LOUISVILLE	KY	40204-2334	US		Merry Christmas! Love and Miss You Aunt Christine! We hope to be able to visit soon. From BJ, Crystal, Maesie & Evan Crowley	false		
112-4510284-3581853	09857080812818	2020-12-23T19:16:05+00:00	2020-12-23T11:16:05-08:00	2020-12-23T19:42:27+00:00	2020-12-29T07:59:59+00:00	-6	bklfdfj2ct1rq82@marketplace.amazon.com	Arica	+1 415-851-9136 ext. 15441	ABR0022	Delivery by Wednesday, Dec 30 Dozen Pink Roses with a Free Vase by Arabella Bouquets	1	0	1	Expedited	BARBARA MAIORANO & JOEY	4 CORAL PL			LONG BRANCH	NJ	07740-6344	US		It’s still your birth month!! ;) I’m still celebrating you both! Just a little something to say I LOVE YOU. Best wishes for happy, healthy New Year. Love, Arica From Arica	false		
111-7927903-0801052	37529994755746	2020-12-23T19:14:37+00:00	2020-12-23T11:14:37-08:00	2020-12-23T19:43:57+00:00	2020-12-29T07:59:59+00:00	-6	svr4l6sxppknjzr@marketplace.amazon.com	Tamara Wruskyj	+1 415-419-8616 ext. 94878	ABC001	Delivery by Tuesday, Dec 29 Seasons Greetings Bouquet by Arabella Bouquets	1	0	1	Expedited	Lori-Ann Wruskyj	167 S BELMONT AVE			ELGIN	IL	60123-5833	US		Merry Christmas Mama! Love & miss you so much! xoxo From Tamara Wruskyj	false		
