order-id	order-item-id	purchase-date	payments-date	reporting-date	promise-date	days-past-promise	buyer-email	buyer-name	buyer-phone-number	sku	product-name	quantity-purchased	quantity-shipped	quantity-to-ship	ship-service-level	recipient-name	ship-address-1	ship-address-2	ship-address-3	ship-city	ship-state	ship-postal-code	ship-country	gift-wrap-type	gift-message-text	is-business-order	purchase-order-number	price-designation
114-5012387-9030620	64761200029522	2020-12-22T20:15:38+00:00	2020-12-22T12:15:38-08:00	2020-12-22T20:41:43+00:00	2020-12-25T07:59:59+00:00	-2	n3blmsdp63jtj8y@marketplace.amazon.com	stephen farmer	+1 415-851-9136 ext. 41753	ABC001	Delivery by Tuesday, Dec 29 Seasons Greetings Bouquet by Arabella Bouquets	1	0	1	Expedited	Navarros	7113 KATHLEEN AVE NE			ALBUQUERQUE	NM	87110-1440	US		Merry Christmas and a very Happy New Year.  We love you all! From Stephen, Heidi, and girls	false		
112-8119476-5124204	30741833521786	2020-12-22T20:35:24+00:00	2020-12-22T12:35:24-08:00	2020-12-22T20:55:58+00:00	2020-12-25T07:59:59+00:00	-2	tn8d2mtytn5tjjp@marketplace.amazon.com	AZAT A USMANOV	+1 619-854-2705 ext. 37583	ABR0022	Delivery by Wednesday, Dec 30 Dozen Pink Roses with a Free Vase by Arabella Bouquets	1	0	1	Expedited	Usmanov Azat Anvarovich	2650 WOLF RUN			HIAWATHA	IOWA	52233-7930	US		Happy Birthday Angelica!  Hope your day will be brighter with this small bouquet! Enjoy your day! Have fun!  Happy Holidays! From AZAT	false		
112-5066799-8669819	19444607403946	2020-12-22T20:29:47+00:00	2020-12-22T12:29:47-08:00	2020-12-22T20:58:51+00:00	2020-12-25T07:59:59+00:00	-2	77jwz1cn0qv9kn4@marketplace.amazon.com	Tyler Crozier	+1 602-671-6610 ext. 36571	ABM022	Delivery by Tuesday, Dec 29 Purple Extravagance Bouquet by Arabella Bouquets	1	0	1	Expedited	Tyler M Crozier	1704 PHEASANT RUN			MONMOUTH JUNCTION	NJ	08852-1941	US			false		
112-7265396-2917000	18684709424962	2020-12-22T20:40:27+00:00	2020-12-22T12:40:27-08:00	2020-12-22T21:10:59+00:00	2020-12-25T07:59:59+00:00	-2	22ddmkhgy60pprm@marketplace.amazon.com	Nicholas Perdigao	+1 213-442-1463 ext. 41408	ABR0022	Delivery by Wednesday, Dec 30 Dozen Pink Roses with a Free Vase by Arabella Bouquets	1	0	1	Expedited	Grandma	4647 PITTENGER DR LOT 2511			SARASOTA	FL	34234-5036	US			false		
113-7819920-3508231	35109906715770	2020-12-22T20:43:17+00:00	2020-12-22T12:43:17-08:00	2020-12-22T21:11:02+00:00	2020-12-25T07:59:59+00:00	-2	0zfkvv6w53wq9qw@marketplace.amazon.com	sara flores	+1 619-854-2705 ext. 58928	ABM010	Delivery by Tuesday, Dec 29 Everlasting Fling with a Free Glass Vase by Arabella Bouquets	1	0	1	Expedited	Ana Rodas	1846 W CULVER AVE APT 1			ORANGE	CA	92868-4123	US		Para la mujer más especial que je conocido ! Con mucho amor. De Abel Amaya	false		
112-4427801-4845847	50698435869018	2020-12-22T20:44:29+00:00	2020-12-22T12:44:29-08:00	2020-12-22T21:12:14+00:00	2020-12-25T07:59:59+00:00	-2	2s52d7x4jmbd8d3@marketplace.amazon.com	Marianna Colucci	+1 619-854-2705 ext. 99683	ABC001	Delivery by Tuesday, Dec 29 Seasons Greetings Bouquet by Arabella Bouquets	1	0	1	Expedited	LoriAnn Juliano	160 CREPE MYRTLE DR			GROVELAND	FL	34736-3604	US			false		
113-5787545-6906646	32378653286074	2020-12-22T20:44:57+00:00	2020-12-22T12:44:57-08:00	2020-12-22T21:12:25+00:00	2020-12-25T07:59:59+00:00	-2	bf6g34nlqh3ylj7@marketplace.amazon.com	Royden K. Ogden	+1 619-854-2705 ext. 15173	ABM020	Delivery by Tuesday, Dec 29 Sunset Bouquet by Arabella Bouquets	1	0	1	Expedited	Frieda Lampa	1601 PENNSYLVANIA AVE			BRAINERD	MN	56401-4331	US		Happy holidays, Frieda! Hope to see you in 2021! From Chris and Keith	false		
111-7917254-9949047	60796032655938	2020-12-22T20:50:56+00:00	2020-12-22T12:50:56-08:00	2020-12-22T21:20:22+00:00	2020-12-25T07:59:59+00:00	-2	py3p4ggj9gfc94h@marketplace.amazon.com	Ryan T Cook	+1 619-854-2705 ext. 35278	ABR0022	Delivery by Wednesday, Dec 30 Dozen Pink Roses with a Free Vase by Arabella Bouquets	1	0	1	Expedited	Janice Cook	900 WILIAMETTE CT			TRACY	CA	95377-6013	US			false		
112-0347089-8677010	45239732278610	2020-12-22T20:56:19+00:00	2020-12-22T12:56:19-08:00	2020-12-22T21:23:51+00:00	2020-12-25T07:59:59+00:00	-2	k6pr3ghb4g1ngrp@marketplace.amazon.com	E-Spencer	+1 415-851-9136 ext. 59786	ABM020	Delivery by Tuesday, Dec 29 Sunset Bouquet by Arabella Bouquets	1	0	1	Expedited	Monica Spencer	4086 GERMAINDER WAY			IRVINE	CA	92612-2106	US			false		
112-8559508-0139432	65075814377162	2020-12-22T20:59:06+00:00	2020-12-22T12:59:06-08:00	2020-12-22T21:25:35+00:00	2020-12-25T07:59:59+00:00	-2	xh6519y2jrwnxcb@marketplace.amazon.com	Sheila Hartley Downs	+1 619-854-2705 ext. 16921	ABC001	Delivery by Tuesday, Dec 29 Seasons Greetings Bouquet by Arabella Bouquets	1	0	1	Expedited	Fran Richards	231 LINEBROOK RD			IPSWICH	MA	01938-1148	US		Fran, Wishing you a very happy holiday! XO, From Sheila, Travis & Dave	false		
113-3377219-0980249	68066928750178	2020-12-22T21:03:09+00:00	2020-12-22T13:03:09-08:00	2020-12-22T21:29:47+00:00	2020-12-25T07:59:59+00:00	-2	5jdt6pq0tfllwhw@marketplace.amazon.com	Barbara DuPree	+1 480-618-5344 ext. 51201	ABR0033	Delivery by Wednesday, Dec 30 Dozen Orange Roses in a Free Vase by Arabella Bouquets	1	0	1	Expedited	Catherine Dremann	208 NICARAGUA ST			BEAUFORT	SC	29902-7515	US		Because you are not a delicate fucking flower.  YOU ARE A BADASS BITCH.  I love you so much.    B From Barbara DuPree	false		
114-1163315-8732209	43056526463066	2020-12-22T21:04:43+00:00	2020-12-22T13:04:43-08:00	2020-12-22T21:34:05+00:00	2020-12-25T07:59:59+00:00	-2	zq3dtjj3w9jjdgd@marketplace.amazon.com	VIJAY HUDOCK	+1 619-854-2705 ext. 17812	ABR001	Delivery by Thursday, Dec 24 Dozen Red Roses in a Free Vase by Arabella Bouquets	1	0	1	Expedited	Smruthi and Sriram	1507 REDWOOD DR			CARMEL	IN	46032-8556	US			false		
111-3412102-5132239	52891730205330	2020-12-22T21:12:38+00:00	2020-12-22T13:12:38-08:00	2020-12-22T21:40:58+00:00	2020-12-25T07:59:59+00:00	-2	ygzndlp94glg7v6@marketplace.amazon.com	Mohinder	+1 602-671-6610 ext. 91663	ABR0055	Delivery by Wednesday, Dec 30 Dozen Hot Pink Roses in a Free Vase by Arabella Bouquets	1	0	1	Standard	Rinkoo Chadha	3341 SAN PABLO CT			UNION CITY	CA	94587-2747	US		Happy and blessed birthday  Dear Rinkoo. Love chacha & Chachi ji and  Tanu From Mohinder	false		
114-4144632-6885021	09753706929994	2020-12-22T21:39:12+00:00	2020-12-22T13:39:12-08:00	2020-12-22T22:02:10+00:00	2020-12-25T07:59:59+00:00	-2	4v6d5xy8y08h9vt@marketplace.amazon.com	Barbara Mueller	+1 619-854-2705 ext. 41947	ABR001	Delivery by Thursday, Dec 24 Dozen Red Roses in a Free Vase by Arabella Bouquets	1	0	1	Expedited	Preetha Peiris	4785 WESTWOOD ST			SIMI VALLEY	CA	93063-0224	US		Merry Christmas for my friend who I miss From Barbara Mueller	false		
111-3340975-3236248	22595120679338	2020-12-22T22:13:06+00:00	2020-12-22T14:13:06-08:00	2020-12-22T22:39:39+00:00	2020-12-25T07:59:59+00:00	-2	fbjcdn6rz8gpl5l@marketplace.amazon.com	Sarah Wilson Sasen	+1 415-419-8616 ext. 26174	ABM010	Delivery by Tuesday, Dec 29 Everlasting Fling with a Free Glass Vase by Arabella Bouquets	1	0	1	Standard	Laurel O'Neil	8137 SABLE WOODS DR N			JACKSONVILLE	FL	32244-6809	US		Dear Laurel, I am so sorry to hear you have been unwell. We love you,  Sarah and Percy From Sarah Monaco	false		
111-0656468-6061807	53798433729106	2020-12-22T22:31:15+00:00	2020-12-22T14:31:15-08:00	2020-12-22T22:50:23+00:00	2020-12-25T07:59:59+00:00	-2	0wjc630lyw4plhd@marketplace.amazon.com	Luiz Guilherme Andrade Figueira Mazzilli	+1 213-442-1463 ext. 57877	ABM010	Delivery by Tuesday, Dec 29 Everlasting Fling with a Free Glass Vase by Arabella Bouquets	1	0	1	Standard	Ana Noschese	275 CENTRAL PARK W APT 7B			NEW YORK	NY	10024-3039	US		Chi, Marcelo, Juju e Fre! Desejo a vocês um natal com muita alegria, snowman e muito mais! Estou com uma saudades imensa, Beijos, Ucha From Ana Figueira	false		
112-0637852-4616232	40087996687722	2020-12-22T22:37:43+00:00	2020-12-22T14:37:43-08:00	2020-12-22T23:06:16+00:00	2020-12-25T07:59:59+00:00	-2	rlzjhj51tmt1cnh@marketplace.amazon.com	Norma	+1 929-436-4790 ext. 83557	ABC001	Delivery by Tuesday, Dec 29 Seasons Greetings Bouquet by Arabella Bouquets	1	0	1	Standard	Mr. & Mrs. Richard Brady	6-3 TUCK FARM RD			AUBURN	MA	01501-2463	US			false		
114-6819665-2553816	20080539663322	2020-12-22T23:26:28+00:00	2020-12-22T15:26:28-08:00	2020-12-22T23:56:57+00:00	2020-12-25T07:59:59+00:00	-2	znt9b29c3h5xnys@marketplace.amazon.com	Rhea	+1 602-671-6610 ext. 79102	ABM022	Delivery by Tuesday, Dec 29 Purple Extravagance Bouquet by Arabella Bouquets	1	0	1	Standard	Amy Ienni	903 SOLANO DR NE			ALBUQUERQUE	NM	87110-7742	US			false		
113-1852584-2259404	43973204123522	2020-12-22T23:47:42+00:00	2020-12-22T15:47:42-08:00	2020-12-23T00:13:25+00:00	2020-12-25T07:59:59+00:00	-2	22zp82vq6x3gk1n@marketplace.amazon.com	John Renwick	+1 213-442-1463 ext. 93223	ABM010	Delivery by Tuesday, Dec 29 Everlasting Fling with a Free Glass Vase by Arabella Bouquets	1	0	1	Standard	Douglas and Marge Renwick	3205 ORCHID WAY			PRESCOTT	AZ	86305-6703	US		Happy Birthday Mom From John Renwick	false		
113-1175399-6829048	26405934273610	2020-12-23T09:57:03+00:00	2020-12-23T01:57:03-08:00	2020-12-23T10:14:09+00:00	2020-12-29T07:59:59+00:00	-6	5zk2b1nrm9qnppf@marketplace.amazon.com	Ethan Jennings	+1 602-671-6610 ext. 68001	ABR0022	Delivery by Wednesday, Dec 30 Dozen Pink Roses with a Free Vase by Arabella Bouquets	1	0	1	Standard	Ethan Jennings	41 frederick way			KIRKWOOD	PA	17536	US		Happy Birthday! Thank you for always supporting us. We wish you the best of health from Japan and hope you have a year full of wonder and happiness. Love you, and we hope to see you in either America or Japan soon! From Ethan and Kana	false		
112-7713491-8608227	47070371830154	2020-12-23T10:56:28+00:00	2020-12-23T02:56:28-08:00	2020-12-23T11:25:58+00:00	2020-12-29T07:59:59+00:00	-6	yv15850yngwpr84@marketplace.amazon.com	Thelma Ugo	+1 619-854-2705 ext. 82164	ABC001	Delivery by Tuesday, Dec 29 Seasons Greetings Bouquet by Arabella Bouquets	1	0	1	Expedited	Debbie Wileford	418 BENNINGTON RD			WILMINGTON	DE	19804-3013	US		Merry Christmas Deb! Get well soon! From Love, Thelma	false		
112-0690838-4989867	29177053720274	2020-12-23T12:10:15+00:00	2020-12-23T04:10:15-08:00	2020-12-23T12:38:02+00:00	2020-12-29T07:59:59+00:00	-6	k3lwh58qk6wtrj7@marketplace.amazon.com	Marla Pollack	+1 415-851-9136 ext. 93663	ABR0055	Delivery by Wednesday, Dec 30 Dozen Hot Pink Roses in a Free Vase by Arabella Bouquets	1	0	1	Expedited	Pat Allen	1977 ROBINA AVE			BERKLEY	MI	48072-1253	US		We love you! Hope this brings you joy! From Craig and Marla	false		
113-8397406-6925056	39497340088042	2020-12-23T12:17:07+00:00	2020-12-23T04:17:07-08:00	2020-12-23T12:44:46+00:00	2020-12-29T07:59:59+00:00	-6	xzth6wgcrq812z5@marketplace.amazon.com	Susan Ramsey	+1 602-671-6610 ext. 74344	ABR0033	Delivery by Wednesday, Dec 30 Dozen Orange Roses in a Free Vase by Arabella Bouquets	1	0	1	Expedited	Frances Ramsey	200 DOMINICAN DR UNIT 5314			MADISON	MS	39110-8630	US		Dear Frances  I know this Christmas season is hard for you. I hope this arrangement will bring a smile as you remember your and dad’s anniversary From Love Susan	false		
114-5128692-8901006	05260880527850	2020-12-23T13:13:22+00:00	2020-12-23T05:13:22-08:00	2020-12-23T13:43:18+00:00	2020-12-29T07:59:59+00:00	-6	yg99flwdv1hv40n@marketplace.amazon.com	Gerrard Khan	+1 415-851-9136 ext. 48167	ABM022	Delivery by Tuesday, Dec 29 Purple Extravagance Bouquet by Arabella Bouquets	1	0	1	Expedited	Suzanne Chung	1317S Country Glen Way			Anaheim	California	92808	US		Dear aunty Susy: I hope you like the flowers that I am giving you for Christmas .Hugs and kisses form Louanna . From Louanna Khan From Louanna Khan	false		
112-8876497-5701822	18315120631554	2020-12-23T13:29:56+00:00	2020-12-23T05:29:56-08:00	2020-12-23T13:49:07+00:00	2020-12-29T07:59:59+00:00	-6	9ykjnyk7ph6x66d@marketplace.amazon.com	rose m dietz	+1 480-618-5344 ext. 48437	ABR0022	Delivery by Wednesday, Dec 30 Dozen Pink Roses with a Free Vase by Arabella Bouquets	1	0	1	Expedited	Consuelo Vazquez	8912 SW 142ND AVE APT 423			MIAMI	FL	33186-1225	US			false		
111-3685368-9588213	18117507973018	2020-12-23T13:35:40+00:00	2020-12-23T05:35:40-08:00	2020-12-23T14:04:00+00:00	2020-12-29T07:59:59+00:00	-6	d57ndmnprmk5v0k@marketplace.amazon.com	Nathan Weaver	+1304237972	ABC002	Delivery by Tuesday, Dec 29 Warm Wishes Bouquet by Arabella Bouquets	1	0	1	Expedited	Nancy Peck	12 S DELAWARE ST			SMYRNA	DE	19977-1464	US		Warm Winter Wishes to You and Sadie!! From The  Weaver  Family	false		
112-8449862-3109869	62082602075890	2020-12-23T14:42:07+00:00	2020-12-23T06:42:07-08:00	2020-12-23T15:00:34+00:00	2020-12-29T07:59:59+00:00	-6	lynq2lhgp48r710@marketplace.amazon.com	Lori Ollig	+1 619-854-2705 ext. 80533	ABR0022	Delivery by Wednesday, Dec 30 Dozen Pink Roses with a Free Vase by Arabella Bouquets	1	0	1	Expedited	Melissa Pulju	2490 27TH ST			RICE LAKE	WI	54868-9094	US		Happy 50th birthday! Hope these can bring a little joy after this depressing year we have had and bring a better year to come! Sorry if they did not arrive on your Birthday but I had some issues with another company. From Your Friend, Lori	false		
114-4487011-7643403	17991835381530	2020-12-23T14:32:32+00:00	2020-12-23T06:32:32-08:00	2020-12-23T15:01:57+00:00	2020-12-29T07:59:59+00:00	-6	ljgfr1mlxkyzwb7@marketplace.amazon.com	Isaac	+1 415-419-8616 ext. 52906	ABM010	Delivery by Tuesday, Dec 29 Everlasting Fling with a Free Glass Vase by Arabella Bouquets	1	0	1	Expedited	Heidi venturino	HOUSE 21733 MIMS WAY			LUTZ	FL	33549-8751	US		Hi, Enjoy your gift! From Isaac	false		
114-6830568-5568204	50786050290818	2020-12-23T14:44:29+00:00	2020-12-23T06:44:29-08:00	2020-12-23T15:10:48+00:00	2020-12-29T07:59:59+00:00	-6	dt5mdzbmtp9w3nz@marketplace.amazon.com	Michelle Crosbie	+1 602-671-6610 ext. 93134	ABC001	Delivery by Tuesday, Dec 29 Seasons Greetings Bouquet by Arabella Bouquets	1	0	1	Expedited	Yolanda Hales	MARK 70 FRONTAGE RD 1002			CHERRY HILL	NJ	08034-1424	US		Dear Yo,  Happy Birthday!!  Love,  John and Michelle From Michelle Crosbie	false		
111-1928366-5188219	02672852085314	2020-12-23T15:11:44+00:00	2020-12-23T07:11:44-08:00	2020-12-23T15:33:56+00:00	2020-12-29T07:59:59+00:00	-6	pv9rnf53sm3xw4m@marketplace.amazon.com	Kenneth B Lally	+1 480-618-5344 ext. 80248	ABM022	Delivery by Tuesday, Dec 29 Purple Extravagance Bouquet by Arabella Bouquets	1	0	1	Expedited	Sarah Eberly	101 WILSON LN			NEW BLOOMFIELD	PA	17068-9017	US			false		
113-8793305-1740211	32468490431618	2020-12-23T15:19:39+00:00	2020-12-23T07:19:39-08:00	2020-12-23T15:45:16+00:00	2020-12-29T07:59:59+00:00	-6	gpqbmhxp0vlj2ks@marketplace.amazon.com	Ed Wu	+1 213-442-1463 ext. 99157	ABC001	Delivery by Tuesday, Dec 29 Seasons Greetings Bouquet by Arabella Bouquets	1	0	1	Expedited	Dr. Christina Hoven	HAPPY NEW YORK 2021! FROM FLORANCE CELINE AND ED	36 BROOKSIDE CIR		BRONXVILLE	NY	10708-5637	US			false		
112-6432532-6408220	11369656364634	2020-12-23T15:21:11+00:00	2020-12-23T07:21:11-08:00	2020-12-23T15:49:28+00:00	2020-12-29T07:59:59+00:00	-6	rc8ddyqlg3vr68r@marketplace.amazon.com	carol-ann farren	+1 415-419-8616 ext. 85966	ABC001	Delivery by Tuesday, Dec 29 Seasons Greetings Bouquet by Arabella Bouquets	1	0	1	Expedited	Darcie Klassen	405 SE 53RD AVE			PORTLAND	OR	97215-1209	US		Happy Birthday Darcie. Love Mom and Dan ❤️	false		
113-3238541-9577027	27367380076258	2020-12-23T15:20:32+00:00	2020-12-23T07:20:32-08:00	2020-12-23T15:50:52+00:00	2020-12-29T07:59:59+00:00	-6	r3q7qm1mw04xqdm@marketplace.amazon.com	Jacob	+1 619-854-2705 ext. 15591	ABR0022	Delivery by Wednesday, Dec 30 Dozen Pink Roses with a Free Vase by Arabella Bouquets	1	0	1	Expedited	Carina	120 GARFIELD PL APT 105			CINCINNATI	OH	45202-1987	US			false		
113-9151304-4596210	07561743462218	2020-12-23T15:28:01+00:00	2020-12-23T07:28:01-08:00	2020-12-23T15:51:54+00:00	2020-12-29T07:59:59+00:00	-6	tyhycqpl617rrm1@marketplace.amazon.com	Jindrus	+1 213-442-1463 ext. 03832	ABC002	Delivery by Tuesday, Dec 29 Warm Wishes Bouquet by Arabella Bouquets	1	0	1	Expedited	Riddles	919 PLEASANT AVE			WATERFORD	CA	95386-9730	US		With love and prayers -Jindrus and Brian Stewart	false		
113-5839578-3597008	60819193683882	2020-12-23T15:25:16+00:00	2020-12-23T07:25:16-08:00	2020-12-23T15:53:21+00:00	2020-12-29T07:59:59+00:00	-6	rfld4w8lgp1zlsj@marketplace.amazon.com	susan	+1 213-442-1463 ext. 06931	ABC002	Delivery by Tuesday, Dec 29 Warm Wishes Bouquet by Arabella Bouquets	1	0	1	Standard	susan Greenwell	180 E BROWN RD			SANTA CLAUS	INDIANA	47579-9729	US		Merry Christmas and Happy  New Year!!! From susan and Mike	false		
113-9340715-7980209	56966075076658	2020-12-23T15:28:26+00:00	2020-12-23T07:28:26-08:00	2020-12-23T15:57:49+00:00	2020-12-29T07:59:59+00:00	-6	gpqbmhxp0vlj2ks@marketplace.amazon.com	Ed Wu	+1 602-671-6610 ext. 84556	ABC002	Delivery by Tuesday, Dec 29 Warm Wishes Bouquet by Arabella Bouquets	1	0	1	Expedited	Susan Lin	1600 PARKER AVE APT 11A			FORT LEE	NJ	07024-7005	US			false		
113-8867608-6640202	21977381997362	2020-12-23T15:36:30+00:00	2020-12-23T07:36:30-08:00	2020-12-23T16:05:50+00:00	2020-12-29T07:59:59+00:00	-6	gpqbmhxp0vlj2ks@marketplace.amazon.com	Ed Wu	+1 619-854-2705 ext. 26097	ABC001	Delivery by Tuesday, Dec 29 Seasons Greetings Bouquet by Arabella Bouquets	1	0	1	Expedited	Susan Lin	1600 PARKER AVE APT 11A			FORT LEE	NJ	07024-7005	US			false		
114-6938041-4211450	62264558054418	2020-12-23T15:42:25+00:00	2020-12-23T07:42:25-08:00	2020-12-23T16:13:09+00:00	2020-12-29T07:59:59+00:00	-6	fqvj8fq577g5qyf@marketplace.amazon.com	Jason Fortier	+1 213-442-1463 ext. 94695	ABR001	Delivery by Wednesday, Dec 30 Dozen Red Roses in a Free Vase by Arabella Bouquets	1	0	1	Expedited	Kay Moore	575 AUBURN RD			GROTON	NY	13073-9754	US			false		
113-2382728-8219438	37896193217690	2020-12-23T15:48:39+00:00	2020-12-23T07:48:39-08:00	2020-12-23T16:13:41+00:00	2020-12-29T07:59:59+00:00	-6	t3xlpq0bk4ymq25@marketplace.amazon.com	Angela Maietta	+1 213-442-1463 ext. 88963	ABM010	Delivery by Tuesday, Dec 29 Everlasting Fling with a Free Glass Vase by Arabella Bouquets	1	0	1	Expedited	Victoria Duchman	157 HARVEST ST			LINDEN	PA	17744-9047	US		We are so sorry for your loss. Our thoughts and prayers are with you during this difficult time. With love and sympathy,  Phil & Angie From Angela Maietta	false		
111-1074773-7286667	23299972147170	2020-12-23T15:54:27+00:00	2020-12-23T07:54:27-08:00	2020-12-23T16:23:30+00:00	2020-12-29T07:59:59+00:00	-6	jtz20cqbsjfmj9z@marketplace.amazon.com	Jason Robey	+1 619-854-2705 ext. 44149	ABR0022	Delivery by Wednesday, Dec 30 Dozen Pink Roses with a Free Vase by Arabella Bouquets	1	0	1	Expedited	Joanna Mosteller	4605 36TH ST N			ARLINGTON	VA	22207-4358	US		Welcome Baby Alice! We love you and can't wait to meet you. From Jason Robey	false		
114-1772998-7374660	30149685395906	2020-12-23T16:01:42+00:00	2020-12-23T08:01:42-08:00	2020-12-23T16:27:04+00:00	2020-12-29T07:59:59+00:00	-6	blyvjgd0b6xj9j3@marketplace.amazon.com	Mary Spear	+1 415-851-9136 ext. 16776	ABM010	Delivery by Tuesday, Dec 29 Everlasting Fling with a Free Glass Vase by Arabella Bouquets	1	0	1	Expedited	Laurie Southard	2400 BRASILENO DR			VIRGINIA BEACH	VA	23456-6436	US		Laurie, We hope you feel better soon! Our thoughts and prayers are with you. All our love, From John, Mary, Sarah, John, Ashley, Ariana, Luke and Kaitlin	false		
112-0287141-2129874	24946752244082	2020-12-23T16:00:57+00:00	2020-12-23T08:00:57-08:00	2020-12-23T16:28:25+00:00	2020-12-29T07:59:59+00:00	-6	nd17qnz9qfbxb2y@marketplace.amazon.com	jpbmass	+1 415-851-9136 ext. 62516	ABM026	Delivery by Tuesday, Dec 29 Amour Bouquet by Arabella Bouquets	1	0	1	Standard	Cheryl Baker	1411 SIERRA SAGE LN			ESTES PARK	CO	80517-9162	US		Happy Birthday to our daughter!   Love ya',    Mom and Dad From jpbmass	false		
114-6060504-6155435	43976075436850	2020-12-23T16:11:22+00:00	2020-12-23T08:11:22-08:00	2020-12-23T16:40:50+00:00	2020-12-29T07:59:59+00:00	-6	gp15l73t7mxntmb@marketplace.amazon.com	William Quigley	+1 415-419-8616 ext. 03307	ABM010	Delivery by Tuesday, Dec 29 Everlasting Fling with a Free Glass Vase by Arabella Bouquets	1	0	1	Expedited	Ramona Fernandez	1941 HARVARD AVE			GRETNA	LA	70056-4303	US		You are the best Ramona, thank you for everything.  Love Bill From William Quigley	false		
112-0166776-7445048	47756005196842	2020-12-23T16:29:33+00:00	2020-12-23T08:29:33-08:00	2020-12-23T16:51:01+00:00	2020-12-29T07:59:59+00:00	-6	q5ms8rlcfgcb24n@marketplace.amazon.com	Hope Harriott	+1 213-442-1463 ext. 38065	ABR0055	Delivery by Wednesday, Dec 30 Dozen Hot Pink Roses in a Free Vase by Arabella Bouquets	1	0	1	Expedited	Carol Young	52 MYRTLE AVE			HEMPSTEAD	NY	11550-2921	US		Enjoy! Wishing you a Merry Christmas and all the best in 2021! Love you! From Chris, Erica, Shaun and Camryn!	false		
114-5378656-4681824	41823621050834	2020-12-23T16:34:23+00:00	2020-12-23T08:34:23-08:00	2020-12-23T17:04:36+00:00	2020-12-29T07:59:59+00:00	-6	vcrq3nghz84j5hx@marketplace.amazon.com	Barton G Zerfas	+1 213-442-1463 ext. 86767	ABM020	Delivery by Tuesday, Dec 29 Sunset Bouquet by Arabella Bouquets	1	0	1	Expedited	Susan Snow	105 CHESTNUT RDG			FAIRHOPE	AL	36532-6307	US			false		
112-5237892-4469031	24361616292106	2020-12-23T16:36:14+00:00	2020-12-23T08:36:14-08:00	2020-12-23T17:05:44+00:00	2020-12-29T07:59:59+00:00	-6	gspp8yqzzl4nhcl@marketplace.amazon.com	Scott K. Johnson	+1 619-854-2705 ext. 43417	ABR0022	Delivery by Wednesday, Dec 30 Dozen Pink Roses with a Free Vase by Arabella Bouquets	1	0	1	Expedited	Marilyn Stark	4034 PONCA RD			OMAHA	NE	68112-1122	US		Merry Christmas and Happy New Year Mom.  Love Scott and Family	false		
111-0059517-1887442	25594273907018	2020-12-23T17:00:23+00:00	2020-12-23T09:00:23-08:00	2020-12-23T17:23:52+00:00	2020-12-29T07:59:59+00:00	-6	lrvkjfxdxwq1tq4@marketplace.amazon.com	Jennifer Nadelson	+1 480-618-5344 ext. 96311	ABM010	Delivery by Tuesday, Dec 29 Everlasting Fling with a Free Glass Vase by Arabella Bouquets	1	0	1	Expedited	Laura Saldana	1801 W ADDISON ST APT 2E			CHICAGO	IL	60613-4283	US		Laura and family,  With deepest condolences for the loss of your grandmother.   With love from the Expert Marketing Team From Jennifer Nadelson	false		
112-5961039-2598636	45478566341154	2020-12-23T17:00:10+00:00	2020-12-23T09:00:10-08:00	2020-12-23T17:29:04+00:00	2020-12-29T07:59:59+00:00	-6	y4ktrvq13hzc46x@marketplace.amazon.com	jbautz@ford.com	+1 415-419-8616 ext. 64881	ABR0066	Delivery by Wednesday, Dec 30 Dozen White Roses in a Free Vase by Arabella Bouquets	1	0	1	Expedited	Dona Bautz	900 LINCOLN CLUB DR APT 120			PITTSBURGH	PA	15237-5092	US		Happy New Year Love Jeff and Heather From Jeff Bautz	false		
111-3614492-8761816	45523380228490	2020-12-23T17:11:46+00:00	2020-12-23T09:11:46-08:00	2020-12-23T17:38:31+00:00	2020-12-29T07:59:59+00:00	-6	tz7qbkv1qv6fc13@marketplace.amazon.com	Rodney A Mayo	+1 602-671-6610 ext. 05164	ABR001	Delivery by Wednesday, Dec 30 Dozen Red Roses in a Free Vase by Arabella Bouquets	1	0	1	Expedited	Vera Mauk	33 SHAW ST			PALMER	MA	01069-1313	US		Merry Christmas and Happy New Year   I love you!!! From Chris	false		
113-5855943-5340233	69039912625074	2020-12-23T17:18:57+00:00	2020-12-23T09:18:57-08:00	2020-12-23T17:44:04+00:00	2020-12-29T07:59:59+00:00	-6	6l2m1nfgftm7xpr@marketplace.amazon.com	Alexander Bolozdynya	+1 415-419-8616 ext. 03856	ABR0022	Delivery by Wednesday, Dec 30 Dozen Pink Roses with a Free Vase by Arabella Bouquets	1	0	1	Expedited	INNA GOGOUA	392 LAKE FOREST DR			BAY VILLAGE	OH	44140-2507	US			false		
113-5489832-7845864	37721852879298	2020-12-23T17:15:37+00:00	2020-12-23T09:15:37-08:00	2020-12-23T17:45:24+00:00	2020-12-29T07:59:59+00:00	-6	fjkyg23rh5rgnl0@marketplace.amazon.com	RICHARD AMOS	+1 602-671-6610 ext. 83165	ABSR003	Delivery by Wednesday, Dec 30 Yellow Spray Roses in a Free Designer Glass Vase by Arabella Bouquets	1	0	1	Expedited	RICHARD E AMOS	170 VINKAYA DR			MORGANTOWN	IN	46160-9113	US			false		
114-3399116-3929811	17676550893210	2020-12-23T17:17:04+00:00	2020-12-23T09:17:04-08:00	2020-12-23T17:45:28+00:00	2020-12-29T07:59:59+00:00	-6	1mmszqmxm7gv83b@marketplace.amazon.com	Denise T. Tracey	+1 480-618-5344 ext. 06662	ABM010	Delivery by Tuesday, Dec 29 Everlasting Fling with a Free Glass Vase by Arabella Bouquets	1	0	1	Expedited	Vickie Barrineau	3416 CHAMPAIGN ST			CHARLOTTE	NC	28210-6326	US		Dear Vickie, Happy Birthday Week! Wishing you many blessings in the year ahead. Love Denise From Denise T. Tracey	false		
114-5800996-5692245	70034117264866	2020-12-23T17:26:58+00:00	2020-12-23T09:26:58-08:00	2020-12-23T17:50:33+00:00	2020-12-29T07:59:59+00:00	-6	2432354fy7jst6g@marketplace.amazon.com	carol peltier	+1 213-442-1463 ext. 48876	ABR004	Delivery by Wednesday, Dec 30 Dozen Yellow Roses in a Free Vase by Arabella Bouquets	1	0	1	Expedited	Archie Peltier	2648 34TH AVE S			MINNEAPOLIS	MN	55406-1736	US		Archie,  Thank you for being my wonderful brother. I wouldn't have gotten through my childhood without you. I'm so glad we still have each other. From carol peltier	false		
112-8283192-4296248	07047876708586	2020-12-23T17:24:14+00:00	2020-12-23T09:24:14-08:00	2020-12-23T17:51:29+00:00	2020-12-29T07:59:59+00:00	-6	rm7l0lns7g0slb4@marketplace.amazon.com	Brian Clark	+1 415-419-8616 ext. 69243	ABM022	Delivery by Tuesday, Dec 29 Purple Extravagance Bouquet by Arabella Bouquets	1	0	1	Expedited	Carol Hartley	3540 LINDBERG ST			KLAMATH FALLS	OR	97601-1035	US		Merry Christmas Grandma.  Cant waite to see you again and I know deacon will be excited.  Love Deacon, Tiffany and Brian. De Brian Clark	false		
112-0946735-8033044	58417332552610	2020-12-23T17:27:21+00:00	2020-12-23T09:27:21-08:00	2020-12-23T17:56:15+00:00	2020-12-29T07:59:59+00:00	-6	ct11zfc03yhw3bk@marketplace.amazon.com	Beth	+1 619-854-2705 ext. 40581	ABM010	Delivery by Tuesday, Dec 29 Everlasting Fling with a Free Glass Vase by Arabella Bouquets	1	0	1	Expedited	Kim & Casey Property Management - Richard Kim	3055 WILSHIRE BLVD			LOS ANGELES	CA	90010-1108	US		Hello Richard, We hope you and your family are doing well. We wish your wife a speedy recovery. Happy new year From Beth, Greg, Jarred, David, and Janelle	false		
113-6903936-9209038	49379791954498	2020-12-23T17:27:36+00:00	2020-12-23T09:27:36-08:00	2020-12-23T17:57:42+00:00	2020-12-29T07:59:59+00:00	-6	kdwpj9z4v7xjnnw@marketplace.amazon.com	Debra K. Bement	+1 415-419-8616 ext. 82995	ABC001	Delivery by Tuesday, Dec 29 Seasons Greetings Bouquet by Arabella Bouquets	1	0	1	Expedited	Lydia Barrett	2604 S SEABISCUIT DR			VERADALE	WA	99037-5118	US			false		
111-7843571-4788225	44253117914306	2020-12-23T17:29:13+00:00	2020-12-23T09:29:13-08:00	2020-12-23T17:59:18+00:00	2020-12-29T07:59:59+00:00	-6	yczhpfp6kqyl0g4@marketplace.amazon.com	Vince Punteney	+1 602-671-6610 ext. 92654	ABM026	Delivery by Tuesday, Dec 29 Amour Bouquet by Arabella Bouquets	1	0	1	Expedited	Debbie Hann	3624 121ST ST NE			MARYSVILLE	WA	98271-8409	US		Love you Sista! From Vince Punteney	false		
112-9802350-2152202	41460371593242	2020-12-23T18:01:28+00:00	2020-12-23T10:01:28-08:00	2020-12-23T18:09:48+00:00	2020-12-29T07:59:59+00:00	-6	95hsk9xhkdb0393@marketplace.amazon.com	Michael Albert Terrazas	+1 213-442-1463 ext. 07493	ABC001	Delivery by Tuesday, Dec 29 Seasons Greetings Bouquet by Arabella Bouquets	1	0	1	Expedited	Helen Jenkins	6445 PINE HILL CT			NINE MILE FALLS	WA	99026-9575	US		Enjoy your gift! From Michael Terrazas	false		
112-2242937-2058663	27240017494690	2020-12-23T17:43:47+00:00	2020-12-23T09:43:47-08:00	2020-12-23T18:13:23+00:00	2020-12-29T07:59:59+00:00	-6	4qk15xlk7pkpxkh@marketplace.amazon.com	Mary Conlon	+1 763-225-9463 ext. 33976	ABM010	Delivery by Tuesday, Dec 29 Everlasting Fling with a Free Glass Vase by Arabella Bouquets	1	0	1	Expedited	Ms. Karline K. Tierney	721 MAIDEN CHOICE LN APT CW222			CATONSVILLE	MD	21228-6298	US			false		
111-0814756-0612226	43250591392986	2020-12-23T17:49:47+00:00	2020-12-23T09:49:47-08:00	2020-12-23T18:15:09+00:00	2020-12-29T07:59:59+00:00	-6	1f199hffj7l6npl@marketplace.amazon.com	Joyce a tucker	+1 602-671-6610 ext. 52512	ABR012	Delivery by Wednesday, Dec 30 Arabella Farm Direct Bouquet of 18 Fresh Cut Pink Roses with a Free Glass Vase	1	0	1	Expedited	Barbara Jordan	98 NORTH ST			STONEHAM	MA	02180-3919	US		Enjoy your gift! Happy New Year to my sweet friend.  Wishing you great health and happiness abound in 2021. Love, Love, Love Joyce! From Joyce a tucker	false		
112-5978782-3780262	63351683359666	2020-12-23T17:58:10+00:00	2020-12-23T09:58:10-08:00	2020-12-23T18:19:08+00:00	2020-12-29T07:59:59+00:00	-6	5qzkcy180t5m85l@marketplace.amazon.com	Nicole Morris	+1 619-854-2705 ext. 79208	ABC001	Delivery by Tuesday, Dec 29 Seasons Greetings Bouquet by Arabella Bouquets	1	0	1	Expedited	Curtis & Jacqueline Walker	135 HAILEYS RUN			MONTGOMERY	TX	77316-1468	US		From Love, Nicole.	false		
113-9604168-8218615	42193059024618	2020-12-23T17:50:35+00:00	2020-12-23T09:50:35-08:00	2020-12-23T18:20:55+00:00	2020-12-29T07:59:59+00:00	-6	r78mfqx99yfglv7@marketplace.amazon.com	Carol Hansen	+1 619-854-2705 ext. 25600	ABR0022	Delivery by Wednesday, Dec 30 Dozen Pink Roses with a Free Vase by Arabella Bouquets	1	0	1	Expedited	Steve and Nancy Garrett	4811 S LANDINGS DR APT 103			FORT MYERS	FL	33919-4687	US			false		
111-2536521-1421845	43192151952826	2020-12-23T18:04:30+00:00	2020-12-23T10:04:30-08:00	2020-12-23T18:33:59+00:00	2020-12-29T07:59:59+00:00	-6	338qmf9rqt7s4fm@marketplace.amazon.com	Susan Delehanty	+1 213-442-1463 ext. 67738	ABM010	Delivery by Tuesday, Dec 29 Everlasting Fling with a Free Glass Vase by Arabella Bouquets	1	0	1	Expedited	Annette Katz	11 CEDAR LN			POUGHKEEPSIE	NY	12601-1146	US		Happy birthday! From Susan	false		
113-0532268-7082614	47091089158586	2020-12-23T18:14:50+00:00	2020-12-23T10:14:50-08:00	2020-12-23T18:41:26+00:00	2020-12-29T07:59:59+00:00	-6	6r4pskfj0p14hwl@marketplace.amazon.com	Angie	+1 415-419-8616 ext. 26549	ABM010	Delivery by Tuesday, Dec 29 Everlasting Fling with a Free Glass Vase by Arabella Bouquets	1	0	1	Expedited	Tony Root	111 SAXON DR			EATON	OH	45320-2765	US		Our deepest sympathies, your friends at Dayton Progress. From Dayton Progress	false		
112-0507309-3176267	58544860968618	2020-12-23T18:17:45+00:00	2020-12-23T10:17:45-08:00	2020-12-23T18:45:36+00:00	2020-12-29T07:59:59+00:00	-6	cvgsb12m0h2m2h4@marketplace.amazon.com	Laura Fitzgerald	+1 602-671-6610 ext. 46007	ABC002	Delivery by Tuesday, Dec 29 Warm Wishes Bouquet by Arabella Bouquets	1	0	1	Expedited	Maude Bigford	9991 W WINGLETON RD			BRANCH	MI	49402-9480	US		Maude and Paul, Merry Christmas, and have a blessed New Year!!! From All my love, laura	false		
113-3392186-5161801	49156261604458	2020-12-23T18:17:52+00:00	2020-12-23T10:17:52-08:00	2020-12-23T18:46:37+00:00	2020-12-29T07:59:59+00:00	-6	5cmmw0gskwmsx83@marketplace.amazon.com	Sandra Ehrhorn	+1 602-671-6610 ext. 71551	ABR013	Delivery by Wednesday, Dec 30 Arabella Farm Direct Bouquet of 18 Fresh Cut Yellow Roses with a Free Glass Vase	1	0	1	Expedited	Mary Niccolai	740 YOUTH CAMP RD			GROVELAND	FL	34736-9663	US		Dear Mary:  Happy Birthday to our wonderful daughter in law.   We love you. From Sandy and Bob	false		
114-9822230-0763460	32821138893698	2020-12-23T18:33:36+00:00	2020-12-23T10:33:36-08:00	2020-12-23T19:01:03+00:00	2020-12-29T07:59:59+00:00	-6	4h9mdd5hthfp5x9@marketplace.amazon.com	Fei Yuan	+1 213-442-1463 ext. 31029	ABR0022	Delivery by Wednesday, Dec 30 Dozen Pink Roses with a Free Vase by Arabella Bouquets	1	0	1	Expedited	Meng Yu	12600 WINTER WREN CT			HERNDON	VA	20171-1830	US		Dear Yu, Meng & Li, Feng, We sincerely wish both of you will like this rose flowers!  Happy New Year to both of you! From Fei Yuan & Dr. Cai	false		
111-8047400-1261840	55817459151146	2020-12-23T18:32:34+00:00	2020-12-23T10:32:34-08:00	2020-12-23T19:01:32+00:00	2020-12-29T07:59:59+00:00	-6	kgc1683xycz955d@marketplace.amazon.com	Nicole Dutcher	+1 415-851-9136 ext. 10816	ABM025	Delivery by Tuesday, Dec 29 Fell for You Bouquet by Arabella Bouquets	1	0	1	Expedited	Barbara Hoffman	1761 COLAVITA WAY			RENO	NV	89521-3010	US		Happy Birthday Mom/Grandma! We hope you have the best day! We miss you and love you! From Nicole, Jason, Paige and Charlie	false		
112-1825450-0695413	57431925801618	2020-12-23T18:33:49+00:00	2020-12-23T10:33:49-08:00	2020-12-23T19:01:53+00:00	2020-12-29T07:59:59+00:00	-6	kw68mr50y2wt308@marketplace.amazon.com	Nancy Gray	+1 602-671-6610 ext. 64937	ABR0033	Delivery by Wednesday, Dec 30 Dozen Orange Roses in a Free Vase by Arabella Bouquets	1	0	1	Standard	Victor & Brenda Smyth	4255 N 101ST AVE			PHOENIX	AZ	85037-5642	US		Victor & Brenda, May the New Year bring you joy and health. From Tommy & Nancy	false		
112-4816878-6248267	54045134811170	2020-12-23T18:38:28+00:00	2020-12-23T10:38:28-08:00	2020-12-23T19:05:15+00:00	2020-12-29T07:59:59+00:00	-6	3n6lv3xvxt7m20j@marketplace.amazon.com	Heike Kleine	+1 415-419-8616 ext. 15287	ABR0022	Delivery by Wednesday, Dec 30 Dozen Pink Roses with a Free Vase by Arabella Bouquets	1	0	1	Expedited	Janna Maxon	1326 MONTFORT DR			HARRISBURG	PA	17110-3013	US		JANNA,  GET WELL SOON.                                   LOVE & PRAYERS, From ERNIE,HEIKE & FAMILY	false		
113-5061002-1093850	05001465193210	2020-12-23T18:37:14+00:00	2020-12-23T10:37:14-08:00	2020-12-23T19:05:43+00:00	2020-12-29T07:59:59+00:00	-6	n0gwxm12dx3cbvg@marketplace.amazon.com	Christie	+1 602-671-6610 ext. 49737	ABM020	Delivery by Tuesday, Dec 29 Sunset Bouquet by Arabella Bouquets	1	0	1	Expedited	Eric & Nicole Sievers	1540 EL CAMINO DEL TEATRO			LA JOLLA	CA	92037-6333	US		Here's to a fabulous 2021!  Wishing you all good health and fortune in the new year! Love, Sandy, Christie, Kelsey & Connor From Christie	false		
112-0452153-8276238	69578448781690	2020-12-23T18:39:18+00:00	2020-12-23T10:39:18-08:00	2020-12-23T19:07:09+00:00	2020-12-29T07:59:59+00:00	-6	wyxmtl5pbxh5cyy@marketplace.amazon.com	Kevin Garduno	+1 415-419-8616 ext. 66546	ABM010	Delivery by Tuesday, Dec 29 Everlasting Fling with a Free Glass Vase by Arabella Bouquets	1	0	1	Expedited	Emily Cloward	820 W WALNUT AVE APT 4			MONROVIA	CA	91016-3138	US		Thinking of you :)  Sending a big all the way from Clearfield!    Love you forever!  Amy From Amy Garduno	false		
114-2340074-0365048	44043727315970	2020-12-23T18:48:34+00:00	2020-12-23T10:48:34-08:00	2020-12-23T19:10:55+00:00	2020-12-29T07:59:59+00:00	-6	6xb98jw7h7v40t7@marketplace.amazon.com	carmen ayala	+1 619-854-2705 ext. 72347	ABR001	Delivery by Wednesday, Dec 30 Dozen Red Roses in a Free Vase by Arabella Bouquets	1	0	1	Expedited	Yoselin castro	1732 JUDIE LN APT G			LANCASTER	PA	17603-6759	US		Enjoy your gift! From carmen ayala	false		
112-5878153-8466651	46497062823522	2020-12-23T18:43:32+00:00	2020-12-23T10:43:32-08:00	2020-12-23T19:12:15+00:00	2020-12-29T07:59:59+00:00	-6	989lb1yy5j3rx4z@marketplace.amazon.com	Annabella	+1 602-671-6610 ext. 75076	ABM010	Delivery by Tuesday, Dec 29 Everlasting Fling with a Free Glass Vase by Arabella Bouquets	1	0	1	Expedited	Tammi Hilkins	44426 N 20TH ST			NEW RIVER	AZ	85087-7522	US		Merry Christmas! We love and miss you! From Kevin and Tammi	false		
111-1150070-9400246	33475744020274	2020-12-23T18:52:04+00:00	2020-12-23T10:52:04-08:00	2020-12-23T19:12:23+00:00	2020-12-29T07:59:59+00:00	-6	9f6gp1c9kh8xf9w@marketplace.amazon.com	Patricia Druetzler	+1 602-671-6610 ext. 00134	ABC001	Delivery by Tuesday, Dec 29 Seasons Greetings Bouquet by Arabella Bouquets	1	0	1	Expedited	Laneira Fearnside	4333 24TH AVE LOT 1			FORT GRATIOT	MI	48059-3844	US			false		
111-6425359-9985850	46354029723194	2020-12-23T18:49:48+00:00	2020-12-23T10:49:48-08:00	2020-12-23T19:19:22+00:00	2020-12-29T07:59:59+00:00	-6	6ddqprzs9q1clk7@marketplace.amazon.com	eric messmer	+1 213-442-1463 ext. 03783	ABC001	Delivery by Tuesday, Dec 29 Seasons Greetings Bouquet by Arabella Bouquets	1	0	1	Expedited	MARIA CAROLINA CONTRERAS	4833 CYPRESS WOODS DR APT 4309	FLOOR 3RD		ORLANDO	FL	32811-3552	US			false		
114-7182150-8861001	01689686629226	2020-12-23T18:58:42+00:00	2020-12-23T10:58:42-08:00	2020-12-23T19:19:34+00:00	2020-12-29T07:59:59+00:00	-6	6w3zmh54flw043s@marketplace.amazon.com	Arpeet Ravalji	+1 480-618-5344 ext. 78015	ABR0066	Delivery by Wednesday, Dec 30 Dozen White Roses in a Free Vase by Arabella Bouquets	1	0	1	Expedited	Sunit Tailor	1469 E STONINGTON DR			DOWNINGTOWN	PA	19335-6501	US		Our thoughts and prayers are with you and your family. From CRM Team	false		
112-2022790-8959458	37429666220258	2020-12-23T18:52:48+00:00	2020-12-23T10:52:48-08:00	2020-12-23T19:21:02+00:00	2020-12-29T07:59:59+00:00	-6	hz71ybsfcvg4ljl@marketplace.amazon.com	Olivia Ile	+1 480-618-5344 ext. 58712	ABR0066	Delivery by Wednesday, Dec 30 Dozen White Roses in a Free Vase by Arabella Bouquets	1	0	1	Expedited	Shonna Ely	5 HIGHLAND AVE			MANCHESTER	PA	17345-9715	US			false		
112-7545434-2045804	47621070809482	2020-12-23T19:14:02+00:00	2020-12-23T11:14:02-08:00	2020-12-23T19:41:14+00:00	2020-12-29T07:59:59+00:00	-6	wgj6bcrq5rd0ddt@marketplace.amazon.com	Crystal Crowley	+1 346-307-9643 ext. 22152	ABC001	Delivery by Tuesday, Dec 29 Seasons Greetings Bouquet by Arabella Bouquets	1	0	1	Expedited	Christine Lobengilo	C/O EASTERN STAR HOME	923 EASTERN STAR CT		LOUISVILLE	KY	40204-2334	US		Merry Christmas! Love and Miss You Aunt Christine! We hope to be able to visit soon. From BJ, Crystal, Maesie & Evan Crowley	false		
112-4510284-3581853	09857080812818	2020-12-23T19:16:05+00:00	2020-12-23T11:16:05-08:00	2020-12-23T19:42:27+00:00	2020-12-29T07:59:59+00:00	-6	bklfdfj2ct1rq82@marketplace.amazon.com	Arica	+1 415-851-9136 ext. 15441	ABR0022	Delivery by Wednesday, Dec 30 Dozen Pink Roses with a Free Vase by Arabella Bouquets	1	0	1	Expedited	BARBARA MAIORANO & JOEY	4 CORAL PL			LONG BRANCH	NJ	07740-6344	US		It’s still your birth month!! ;) I’m still celebrating you both! Just a little something to say I LOVE YOU. Best wishes for happy, healthy New Year. Love, Arica From Arica	false		
111-7927903-0801052	37529994755746	2020-12-23T19:14:37+00:00	2020-12-23T11:14:37-08:00	2020-12-23T19:43:57+00:00	2020-12-29T07:59:59+00:00	-6	svr4l6sxppknjzr@marketplace.amazon.com	Tamara Wruskyj	+1 415-419-8616 ext. 94878	ABC001	Delivery by Tuesday, Dec 29 Seasons Greetings Bouquet by Arabella Bouquets	1	0	1	Expedited	Lori-Ann Wruskyj	167 S BELMONT AVE			ELGIN	IL	60123-5833	US		Merry Christmas Mama! Love & miss you so much! xoxo From Tamara Wruskyj	false		
114-1312549-0116226	22394551292210	2020-12-23T19:17:16+00:00	2020-12-23T11:17:16-08:00	2020-12-23T19:47:42+00:00	2020-12-29T07:59:59+00:00	-6	g1x7wq3bqsdz7tq@marketplace.amazon.com	Mingzheng Jia	+1 415-851-9136 ext. 06339	ABR0022	Delivery by Wednesday, Dec 30 Dozen Pink Roses with a Free Vase by Arabella Bouquets	1	0	1	Expedited	Simiao Zhang	1202 BAYLEY CT			BRIDGEWATER	NJ	08807-3547	US			false		
112-2980056-0192267	08817409911890	2020-12-23T19:24:12+00:00	2020-12-23T11:24:12-08:00	2020-12-23T19:51:33+00:00	2020-12-29T07:59:59+00:00	-6	gf1n63vvflm45jn@marketplace.amazon.com	Meagan Hisert	+1 415-419-8616 ext. 99032	ABR0022	Delivery by Wednesday, Dec 30 Dozen Pink Roses with a Free Vase by Arabella Bouquets	1	0	1	Expedited	Andrea Milano	5720 S GLENDALE AVE			GLOBE	AZ	85501-4351	US		Our thoughts and prayers are with you and your family at this time.  Wish we could be there, much love and God Bless. From Joe, Sandy and Family	false		
113-0121086-3418639	67268615145234	2020-12-23T19:31:05+00:00	2020-12-23T11:31:05-08:00	2020-12-23T19:59:58+00:00	2020-12-29T07:59:59+00:00	-6	zglfv2kqfdfxxp7@marketplace.amazon.com	Mazen Khoury	+1 213-442-1463 ext. 73476	ABC002	Delivery by Tuesday, Dec 29 Warm Wishes Bouquet by Arabella Bouquets	1	0	1	Expedited	Joumana lamak	2615 GARDEN DR S APT 201			LAKE WORTH	FL	33461-6286	US		No red ones . Love you. From Mazen Khoury	false		
112-1146245-1287469	15969903555650	2020-12-23T19:33:35+00:00	2020-12-23T11:33:35-08:00	2020-12-23T20:02:56+00:00	2020-12-29T07:59:59+00:00	-6	9lmtqpptlrjcbwc@marketplace.amazon.com	Lisa Davis	+1 213-442-1463 ext. 63422	ABC002	Delivery by Tuesday, Dec 29 Warm Wishes Bouquet by Arabella Bouquets	1	0	1	Expedited	Linda D Davis	1010 MAPLE AVE UNIT 603			DOWNERS GROVE	IL	60515-5097	US		Linda, Wishing you a brighter New Year. We hope to see you soon! From Love, Lisa, Carly and Jake	false		
113-9722117-8541817	53021089208522	2020-12-23T19:37:25+00:00	2020-12-23T11:37:25-08:00	2020-12-23T20:03:40+00:00	2020-12-29T07:59:59+00:00	-6	4lqm3jm7tv294r8@marketplace.amazon.com	Sally O. Foster	+1 213-442-1463 ext. 29735	ABC001	Delivery by Tuesday, Dec 29 Seasons Greetings Bouquet by Arabella Bouquets	1	0	1	Expedited	David and Judy Foster	26 TRAVIS CORNERS RD			GARRISON	NY	10524-3912	US		Missed seeing all of you, love from Sally and Ken From Sally O. Foster	false		
112-6976637-5913047	04814110953562	2020-12-23T19:36:11+00:00	2020-12-23T11:36:11-08:00	2020-12-23T20:05:14+00:00	2020-12-29T07:59:59+00:00	-6	9lmtqpptlrjcbwc@marketplace.amazon.com	Lisa Davis	+1 213-442-1463 ext. 92689	ABC002	Delivery by Tuesday, Dec 29 Warm Wishes Bouquet by Arabella Bouquets	1	0	1	Expedited	Jennilyn Davis	1124 North Center St.			Joliet	IL	60435	US		Jennilyn and Kevin, Wishing you a brighter New Year! Hope to see you soon! From Love, Lisa, Carly and Jake	false		
112-2987180-2202627	55376080365698	2020-12-23T19:38:28+00:00	2020-12-23T11:38:28-08:00	2020-12-23T20:07:57+00:00	2020-12-29T07:59:59+00:00	-6	9lmtqpptlrjcbwc@marketplace.amazon.com	Lisa Davis	+1 619-854-2705 ext. 66035	ABC002	Delivery by Tuesday, Dec 29 Warm Wishes Bouquet by Arabella Bouquets	1	0	1	Expedited	Kimmie [CK] Neace	22 Elmwood Drive			Oswego	IL	60543	US		Kim and Virgil, Wishing you a brighter New Year! Hope to see you soon! From Love, Lisa, Carly and Jake	false		
114-7471275-1382639	11798064140570	2020-12-23T19:51:56+00:00	2020-12-23T11:51:56-08:00	2020-12-23T20:17:32+00:00	2020-12-29T07:59:59+00:00	-6	d5jp59261brbff3@marketplace.amazon.com	Heather Self	+1 619-854-2705 ext. 05980	ABR0033	Delivery by Wednesday, Dec 30 Dozen Orange Roses in a Free Vase by Arabella Bouquets	1	0	1	Expedited	Leslie shoonerwoerd	23045 7250 RD			MONTROSE	CO	81403-7160	US		A Rose for a Rose ❤️ I hope you enjoy this gift!  Love Always,  Heather From Heather Self	false		
112-1167797-6079402	18447911898810	2020-12-23T19:56:10+00:00	2020-12-23T11:56:10-08:00	2020-12-23T20:21:26+00:00	2020-12-29T07:59:59+00:00	-6	1z1frqsv52hfwhc@marketplace.amazon.com	Frank Ingram	+1 213-442-1463 ext. 30859	ABR0022	Delivery by Wednesday, Dec 30 Dozen Pink Roses with a Free Vase by Arabella Bouquets	1	0	1	Expedited	Linda Page	25164 Via Teralina			Laguna Nigel	California	92677	US		Enjoy your gift! Happy New Year! Love, Karen and Frank From Frank Ingram	false		
112-0477863-7154662	21193668936538	2020-12-23T19:59:50+00:00	2020-12-23T11:59:50-08:00	2020-12-23T20:25:42+00:00	2020-12-29T07:59:59+00:00	-6	rs9nnr0nfzmkvws@marketplace.amazon.com	John Little	+1 480-618-5344 ext. 29532	ABR0066	Delivery by Wednesday, Dec 30 Dozen White Roses in a Free Vase by Arabella Bouquets	1	0	1	Expedited	Jacqueline Marie Little	18018 - 15th Ave NE	Apt. 203		Seattle	WA	98155	US		Enjoy your gift!  Happy Birthday Little sweetie ! enjoy your special day.  Love you always, Dad From John Little	false		
111-8677453-9227424	68544233753906	2020-12-23T20:02:53+00:00	2020-12-23T12:02:53-08:00	2020-12-23T20:30:54+00:00	2020-12-29T07:59:59+00:00	-6	7zt1sgn5xx0l2mp@marketplace.amazon.com	Joyce A Lord	+1 415-419-8616 ext. 55975	ABR0066	Delivery by Wednesday, Dec 30 Dozen White Roses in a Free Vase by Arabella Bouquets	1	0	1	Expedited	Mary Cay & Rick	20 OHIO DR			BRISTOL	CT	06010-2849	US			false		
113-3713501-0048235	26672901372746	2020-12-23T20:06:36+00:00	2020-12-23T12:06:36-08:00	2020-12-23T20:33:19+00:00	2020-12-29T07:59:59+00:00	-6	jzxxf1l66ljjptg@marketplace.amazon.com	Pamela Perkins	+1 480-618-5344 ext. 33964	ABM010	Delivery by Tuesday, Dec 29 Everlasting Fling with a Free Glass Vase by Arabella Bouquets	1	0	1	Expedited	Tracy Perkins	7430 HEATHERFIELD LN			ALEXANDRIA	VA	22315-5290	US		Happy 50th Birthday!  Hope the your gift arrives by yourBirthday!  Love From Dad and Pam	false		
111-1857240-6159469	11126371591266	2020-12-23T20:04:01+00:00	2020-12-23T12:04:01-08:00	2020-12-23T20:34:08+00:00	2020-12-29T07:59:59+00:00	-6	7zt1sgn5xx0l2mp@marketplace.amazon.com	Joyce A Lord	+1 480-618-5344 ext. 25046	ABR0066	Delivery by Wednesday, Dec 30 Dozen White Roses in a Free Vase by Arabella Bouquets	1	0	1	Expedited	Sophia & Ben Lord	1 PHEASANT LN			PORTSMOUTH	NH	03801-5897	US			false		
114-3046599-7817049	43919931017602	2020-12-23T20:13:25+00:00	2020-12-23T12:13:25-08:00	2020-12-23T20:43:17+00:00	2020-12-29T07:59:59+00:00	-6	3krqd4w9b4yp1fw@marketplace.amazon.com	Susan Schubert	+1 346-307-9643 ext. 25197	ABR0022	Delivery by Wednesday, Dec 30 Dozen Pink Roses with a Free Vase by Arabella Bouquets	1	0	1	Expedited	Teri Barker-Fox	15905 DELANO DR			REDDING	CA	96001-9750	US			false		
112-1320997-5455456	26362297133314	2020-12-23T20:17:03+00:00	2020-12-23T12:17:03-08:00	2020-12-23T20:46:05+00:00	2020-12-29T07:59:59+00:00	-6	zwdm8b8fv63x72t@marketplace.amazon.com	Marc Richardson	+1 213-442-1463 ext. 89269	ABM022	Delivery by Tuesday, Dec 29 Purple Extravagance Bouquet by Arabella Bouquets	1	0	1	Expedited	The Lamberts	9106 S KACHINA DR			TEMPE	AZ	85284-3440	US		Sorry for your loss. From Marc, Diana, Cole, Evan, Lucas, Lindsay	false		
112-4592770-7823450	24303268793730	2020-12-23T20:19:49+00:00	2020-12-23T12:19:49-08:00	2020-12-23T20:49:25+00:00	2020-12-29T07:59:59+00:00	-6	hx89q73wxy2l4h0@marketplace.amazon.com	David Williams	+1 213-442-1463 ext. 19454	ABM022	Delivery by Tuesday, Dec 29 Purple Extravagance Bouquet by Arabella Bouquets	1	0	1	Expedited	David A Williams	164 NORTHFORK DR			BERRYVILLE	AR	72616-9781	US		Happy 54th Anniversary  1-4-3 From David Williams	false		
111-1766135-5372260	32566873068170	2020-12-23T20:42:41+00:00	2020-12-23T12:42:41-08:00	2020-12-23T21:02:35+00:00	2020-12-29T07:59:59+00:00	-6	rv9x67646n9bfn3@marketplace.amazon.com	Farhad Behroozi	+1 213-442-1463 ext. 76919	ABR001	Delivery by Wednesday, Dec 30 Dozen Red Roses in a Free Vase by Arabella Bouquets	1	0	1	Expedited	Martha Jennens	2951 SATURN ST			BREA	CA	92821-6206	US		Merry Christmas!! I Love You Honey, Don't work too hard.  Come home fast. I have a beautiful roast duck waiting.  Don't forget Elliott. From Farhad Behroozi	false		
113-0699367-9987424	54010648056138	2020-12-23T20:32:01+00:00	2020-12-23T12:32:01-08:00	2020-12-23T21:02:37+00:00	2020-12-29T07:59:59+00:00	-6	grv0fxwptdyd6q3@marketplace.amazon.com	susan browne	+1 415-851-9136 ext. 65788	ABC001	Delivery by Tuesday, Dec 29 Seasons Greetings Bouquet by Arabella Bouquets	1	0	1	Expedited	Jackson Family	15416 MARSHFIELD RD			HICKORY CORNERS	MI	49060-9537	US			false		
114-7900539-6193863	38120758169746	2020-12-23T20:45:02+00:00	2020-12-23T12:45:02-08:00	2020-12-23T21:10:37+00:00	2020-12-29T07:59:59+00:00	-6	byh0887cs641cz1@marketplace.amazon.com	Phyllis Solomon	+1 602-671-6610 ext. 93542	ABR001	Delivery by Wednesday, Dec 30 Dozen Red Roses in a Free Vase by Arabella Bouquets	1	0	1	Expedited	Mrs. Carly Salemme	3808 VILLAS DEL SOL CT	GATE # 1118		TAMPA	FL	33609-4440	US		Happy 30th Birthday Dearest Carly We will continue this celebration in January! Wishing  you : Good and Hearty Health, Unlimited Happiness, Tons of Giggles, and Eternal Love. From Love, Meme	false		
113-9756417-7766621	28472333713874	2020-12-23T20:40:45+00:00	2020-12-23T12:40:45-08:00	2020-12-23T21:11:23+00:00	2020-12-29T07:59:59+00:00	-6	p2vm5k7z173gt8s@marketplace.amazon.com	heather babbitt	+1 415-419-8616 ext. 59359	ABR0022	Delivery by Wednesday, Dec 30 Dozen Pink Roses with a Free Vase by Arabella Bouquets	1	0	1	Expedited	Elizabeth Babbitt	451 BOQ RD UNIT A102			PENSACOLA	FL	32508-7052	US			false		
112-2518084-1593817	35549597556434	2020-12-23T20:43:43+00:00	2020-12-23T12:43:43-08:00	2020-12-23T21:14:13+00:00	2020-12-29T07:59:59+00:00	-6	9t4ldbk5h3xhf30@marketplace.amazon.com	Patrick Hess	+1 480-618-5344 ext. 58966	ABM022	Delivery by Tuesday, Dec 29 Purple Extravagance Bouquet by Arabella Bouquets	1	0	1	Expedited	Patrick Hess	6N085 KNOLLWOOD DR			ST CHARLES	IL	60175-8346	US			false		
112-9516903-0401848	25945184739506	2020-12-23T20:46:52+00:00	2020-12-23T12:46:52-08:00	2020-12-23T21:14:52+00:00	2020-12-29T07:59:59+00:00	-6	pbrykyt4svw87qh@marketplace.amazon.com	Chris	+1 602-671-6610 ext. 16762	ABM010	Delivery by Tuesday, Dec 29 Everlasting Fling with a Free Glass Vase by Arabella Bouquets	1	0	1	Expedited	Chris	957 ALLA AVE			CONCORD	CA	94518-3010	US		Enjoy your flowers, sorry they came late! From Bob	false		
112-9803919-1835424	35154353229738	2020-12-23T20:49:20+00:00	2020-12-23T12:49:20-08:00	2020-12-23T21:17:09+00:00	2020-12-29T07:59:59+00:00	-6	5m1h6nprlxyv7md@marketplace.amazon.com	Tony Seiwert	+1 415-851-9136 ext. 59387	ABC001	Delivery by Tuesday, Dec 29 Seasons Greetings Bouquet by Arabella Bouquets	1	0	1	Expedited	T J Seiwert	2237 EDGEWOOD DR			KALAMAZOO	MI	49008-2764	US			false		
112-2867439-0274668	59998725079282	2020-12-23T20:54:08+00:00	2020-12-23T12:54:08-08:00	2020-12-23T21:23:07+00:00	2020-12-29T07:59:59+00:00	-6	38jgksc04lb1ysm@marketplace.amazon.com	Annie Burns	+1 602-671-6610 ext. 88652	ABM010	Delivery by Tuesday, Dec 29 Everlasting Fling with a Free Glass Vase by Arabella Bouquets	1	0	1	Expedited	Alana Abbott	105 SMOKETREE LN			BEAUFORT	SC	29907-2386	US			false		
114-9919335-1124217	31243865023090	2020-12-23T20:55:21+00:00	2020-12-23T12:55:21-08:00	2020-12-23T21:24:19+00:00	2020-12-29T07:59:59+00:00	-6	yqgkv11d22bnfx8@marketplace.amazon.com	Peggy R Smith	+1 763-225-9463 ext. 10401	ABC001	Delivery by Tuesday, Dec 29 Seasons Greetings Bouquet by Arabella Bouquets	1	0	1	Expedited	Dawn Karns	1208 TAMARA DR			PENSACOLA	FL	32504-6622	US		Merry Christmas! From Love Peggy	false		
111-3518933-4096220	24383433218522	2020-12-23T21:08:24+00:00	2020-12-23T13:08:24-08:00	2020-12-23T21:27:48+00:00	2020-12-29T07:59:59+00:00	-6	txk1s8snblt183h@marketplace.amazon.com	Carl and Bonnie Larreau	+1 929-436-4790 ext. 78588	ABM010	Delivery by Tuesday, Dec 29 Everlasting Fling with a Free Glass Vase by Arabella Bouquets	1	0	1	Expedited	Carl & Bonnie Larreau	37204 MAGNOLIA AVE			DADE CITY	FL	33523-3219	US			false		
111-7879309-8938650	39964175463922	2020-12-23T21:16:48+00:00	2020-12-23T13:16:48-08:00	2020-12-23T21:33:18+00:00	2020-12-29T07:59:59+00:00	-6	6dlgqpq9sfzq1x6@marketplace.amazon.com	Carmen R. Lopez	+1 213-442-1463 ext. 92221	ABR0022	Delivery by Wednesday, Dec 30 Dozen Pink Roses with a Free Vase by Arabella Bouquets	1	0	1	Expedited	Miriam Caceres	1955 W 64TH ST			HIALEAH	FL	33012-6020	US		Enjoy your gift dearest friend.  Happy 80th. May you always be this happy. Lots of love. From Carmen Rosa and wilfredo	false		
112-4990673-0917060	59753279892594	2020-12-23T21:07:47+00:00	2020-12-23T13:07:47-08:00	2020-12-23T21:37:12+00:00	2020-12-29T07:59:59+00:00	-6	m0thwyqj3wmpmwl@marketplace.amazon.com	Eric olsen	+1 619-854-2705 ext. 80858	ABM022	Delivery by Tuesday, Dec 29 Purple Extravagance Bouquet by Arabella Bouquets	1	0	1	Expedited	Gisela Olsen	2661 TALLANT RD APT E-908			SANTA BARBARA	CA	93105-4839	US		Happy Birthday.  Hope you have a good day.  Love You. From Eric Fallon and Turner	false		
112-3094530-3228252	37236285644274	2020-12-23T21:17:43+00:00	2020-12-23T13:17:43-08:00	2020-12-23T21:43:50+00:00	2020-12-29T07:59:59+00:00	-6	m5dqqw148p9w4yb@marketplace.amazon.com	Margaret Badger	+1 415-419-8616 ext. 05098	ABR0022	Delivery by Wednesday, Dec 30 Dozen Pink Roses with a Free Vase by Arabella Bouquets	1	0	1	Expedited	Erika and Craig Wilson	109 COUNTRY CLUB DR			NEWARK	DE	19711-2736	US		Wishing you a warm and cosy holiday season, with good memories of your Boxing Day Tea; hope these arrive to bring you joy a couple of days later!  Love from Margaret From Margaret Badger	false		
113-8273859-3501837	20004174492914	2020-12-23T21:25:56+00:00	2020-12-23T13:25:56-08:00	2020-12-23T21:55:08+00:00	2020-12-29T07:59:59+00:00	-6	3gg80ygdmhbm5cd@marketplace.amazon.com	Don Miller	+1 619-854-2705 ext. 56640	ABC002	Delivery by Tuesday, Dec 29 Warm Wishes Bouquet by Arabella Bouquets	1	0	1	Expedited	Molly & Mason Allen	422 219TH PL SW			BOTHELL	WA	98021-8134	US		Allen’s,  I’m so sorry for your loss.  The bad times don’t last forever.  I love you.  DMil From Donny Miller	false		
111-1210847-6557054	53892992645914	2020-12-23T21:43:22+00:00	2020-12-23T13:43:22-08:00	2020-12-23T22:14:48+00:00	2020-12-29T07:59:59+00:00	-6	fl375hpmvfh0ylm@marketplace.amazon.com	Daniel Gomez	+1 602-671-6610 ext. 36045	ABR001	Delivery by Wednesday, Dec 30 Dozen Red Roses in a Free Vase by Arabella Bouquets	1	0	1	Expedited	Daniel Gomez	2660 CACTUS RD			SAN DIEGO	CA	92154-8022	US		I know this is a difficult situation your going  I'm here for you and love you so much From Daniel Gomez	false		
114-4967227-3372252	14811243622970	2020-12-23T21:51:48+00:00	2020-12-23T13:51:48-08:00	2020-12-23T22:19:51+00:00	2020-12-29T07:59:59+00:00	-6	nsw5103pvdp0ymb@marketplace.amazon.com	Stellar Shark	+1 619-854-2705 ext. 24486	ABC001	Delivery by Tuesday, Dec 29 Seasons Greetings Bouquet by Arabella Bouquets	1	0	1	Expedited	Kathy Duggan	1228 ALMONDWOOD DR			NEW PORT RICHEY	FL	34655-7001	US			false		
114-7111933-8933058	24935883541866	2020-12-23T21:57:23+00:00	2020-12-23T13:57:23-08:00	2020-12-23T22:27:47+00:00	2020-12-29T07:59:59+00:00	-6	jjf7vncg866kcl6@marketplace.amazon.com	Jon'Tae Essex	+1 619-854-2705 ext. 97613	ABR0066	Delivery by Wednesday, Dec 30 Dozen White Roses in a Free Vase by Arabella Bouquets	1	0	1	Expedited	Dorothy Essex	1030 ELMDALE DR			SAGINAW	MI	48602-2923	US			false		
113-1246437-1511469	70078451785442	2020-12-23T22:01:46+00:00	2020-12-23T14:01:46-08:00	2020-12-23T22:42:18+00:00	2020-12-29T07:59:59+00:00	-6	nm4hb8f4466jws7@marketplace.amazon.com	Jennifer Viertel	+1 619-854-2705 ext. 51384	ABR0066	Delivery by Wednesday, Dec 30 Dozen White Roses in a Free Vase by Arabella Bouquets	1	0	1	Expedited	Boone	308 GLENMONT AVE			COLUMBUS	OH	43214-3208	US			false		
111-2159128-3945867	55536925583354	2020-12-23T22:27:18+00:00	2020-12-23T14:27:18-08:00	2020-12-23T22:52:25+00:00	2020-12-29T07:59:59+00:00	-6	2pvx8r443nbfvbl@marketplace.amazon.com	Liz Eminue	+1 415-851-9136 ext. 18936	ABC001	Delivery by Tuesday, Dec 29 Seasons Greetings Bouquet by Arabella Bouquets	1	0	1	Expedited	Ibok Offiong	3324 PROVIDER WAY			GERMANTOWN	MD	20874-7213	US		Merry Christmas darling Sister of mine. I love you soooo much From Liz Eminue	false		
112-8624471-2861040	29130660911826	2020-12-23T22:38:04+00:00	2020-12-23T14:38:04-08:00	2020-12-23T23:03:38+00:00	2020-12-29T07:59:59+00:00	-6	sgcqxfbrz34n1xp@marketplace.amazon.com	sarah D. ash	+1 213-442-1463 ext. 35449	ABR0022	Delivery by Wednesday, Dec 30 Dozen Pink Roses with a Free Vase by Arabella Bouquets	1	0	1	Expedited	Kay Goff	10050 EAGLE DR APT 21	THE OAKS AT ASTON HILLS		COVINGTON	GA	30014-3804	US			false		
114-4205810-8204209	15075441876170	2020-12-23T22:43:38+00:00	2020-12-23T14:43:38-08:00	2020-12-23T23:11:14+00:00	2020-12-29T07:59:59+00:00	-6	x1l6trsndf5wntm@marketplace.amazon.com	Kirsten Chapman	+1 415-851-9136 ext. 60541	ABR0022	Delivery by Wednesday, Dec 30 Dozen Pink Roses with a Free Vase by Arabella Bouquets	1	0	1	Expedited	Susan VanDyke	4000 North Highway A-1-A	Visions 501		North Hutchinson Island	FL	34949	US		To Dearest Sue! Thinking of you!!!  And remembering Don with a flood of memories!!!  Love you both!!! Kirsten & Chip From Kirsten Chapman	false		
111-7072251-0570603	13645732962826	2020-12-23T22:48:49+00:00	2020-12-23T14:48:49-08:00	2020-12-23T23:12:00+00:00	2020-12-29T07:59:59+00:00	-6	tkhm51zd967g4tk@marketplace.amazon.com	Hans Alexander Röhrig	+1 619-854-2705 ext. 64374	ABR0022	Delivery by Wednesday, Dec 30 Dozen Pink Roses with a Free Vase by Arabella Bouquets	1	0	1	Expedited	Betty Keegan	1135 E HARRY ST			TEMPE	AZ	85281-1803	US		Happy 80th Birthday Grandma! We wish that we could be there to celebrate with you. We love you lots and wish you a fun and healthy next trip around the sun. All our love for your big day! From Amanda, Alex & Enzo	false		
111-4342183-1877805	12268078558066	2020-12-23T22:46:19+00:00	2020-12-23T14:46:19-08:00	2020-12-23T23:14:08+00:00	2020-12-29T07:59:59+00:00	-6	t8ybpx64blh7xr8@marketplace.amazon.com	robert morrison	+1 213-442-1463 ext. 14604	ABM026	Delivery by Tuesday, Dec 29 Amour Bouquet by Arabella Bouquets	1	0	1	Standard	Theresa Schrader	1417 LEGENDS CIR			LAWRENCE	KS	66049-5813	US		Missed you at Christmas!    Love, Barbie From Barbara Morrison	false		
112-5990158-2907441	32375060740658	2020-12-23T22:54:41+00:00	2020-12-23T14:54:41-08:00	2020-12-23T23:23:56+00:00	2020-12-29T07:59:59+00:00	-6	zs597dy8k7rklh0@marketplace.amazon.com	Christopher	+1 619-854-2705 ext. 79510	ABC001	Delivery by Tuesday, Dec 29 Seasons Greetings Bouquet by Arabella Bouquets	1	0	1	Expedited	Jenn Comeaux	4412 CANAL ST			SLIDELL	LA	70461-1604	US		Jenn, I am always here for you. I am praying for your son’s recovery.  From Christopher From Christopher	false		
111-4852932-0935418	05650890483098	2020-12-23T23:01:26+00:00	2020-12-23T15:01:26-08:00	2020-12-23T23:25:44+00:00	2020-12-29T07:59:59+00:00	-6	t8ybpx64blh7xr8@marketplace.amazon.com	robert morrison	+1 415-851-9136 ext. 32051	ABM022	Delivery by Tuesday, Dec 29 Purple Extravagance Bouquet by Arabella Bouquets	1	0	1	Standard	Karin Dickey	110 N BURNETT DR			BAYTOWN	TX	77520-1104	US		Missed being with you at Christmas.  Enjoy!  Love, Barbie From Barbara  morrison	false		
114-2783989-8661066	61312506849474	2020-12-23T22:59:52+00:00	2020-12-23T14:59:52-08:00	2020-12-23T23:28:41+00:00	2020-12-29T07:59:59+00:00	-6	nftn994m9wgfqkp@marketplace.amazon.com	Joseph Wright	+1 213-442-1463 ext. 27476	ABM010	Delivery by Tuesday, Dec 29 Everlasting Fling with a Free Glass Vase by Arabella Bouquets	1	0	1	Expedited	Bonnie Wright	1700 GEM CT			FERNLEY	NV	89408-5666	US		Love you Mom! Merry Christmas and Happy New Year. From Joseph Wright	false		
114-3445947-0127426	22133640060666	2020-12-23T23:01:49+00:00	2020-12-23T15:01:49-08:00	2020-12-23T23:31:24+00:00	2020-12-29T07:59:59+00:00	-6	nftn994m9wgfqkp@marketplace.amazon.com	Joseph Wright	+1 213-442-1463 ext. 99604	ABM010	Delivery by Tuesday, Dec 29 Everlasting Fling with a Free Glass Vase by Arabella Bouquets	1	0	1	Expedited	Maureen Olson	1508 MERRILL AVE APT 415			WAUSAU	WI	54401-3435	US		Merry Christmas and Happy New Year Mom! From Leslie Wright	false		
114-0091339-7664209	41278126111258	2020-12-23T23:14:05+00:00	2020-12-23T15:14:05-08:00	2020-12-23T23:42:36+00:00	2020-12-29T07:59:59+00:00	-6	6m994zdz2sl7scy@marketplace.amazon.com	Joe	+1 929-436-4790 ext. 27870	ABR0022	Delivery by Wednesday, Dec 30 Dozen Pink Roses with a Free Vase by Arabella Bouquets	1	0	1	Expedited	Calixta Landin	325 MORSE DR			NORTHLAKE	IL	60164-2624	US		Calixta, I hope you feel better. From Joe	false		
112-7996224-2621010	38599449828234	2020-12-23T23:14:18+00:00	2020-12-23T15:14:18-08:00	2020-12-23T23:42:55+00:00	2020-12-29T07:59:59+00:00	-6	klpkxlprh26sn8b@marketplace.amazon.com	Frank Ventura	+1 602-671-6610 ext. 60476	ABC001	Delivery by Tuesday, Dec 29 Seasons Greetings Bouquet by Arabella Bouquets	1	0	1	Expedited	Ellen Dorgan	25 SHADY LN			SCITUATE	MA	02066-3813	US		Happy Holidays!!! From Nina & Frank	false		
113-4979801-8123419	44134882835866	2020-12-23T23:21:31+00:00	2020-12-23T15:21:31-08:00	2020-12-23T23:47:27+00:00	2020-12-29T07:59:59+00:00	-6	br5wlrs0h0zyn9t@marketplace.amazon.com	Jiji Kikhia	+1 415-851-9136 ext. 17062	ABR0022	Delivery by Wednesday, Dec 30 Dozen Pink Roses with a Free Vase by Arabella Bouquets	1	0	1	Expedited	Julie Pennini	1734 LICK FORK CREEK RD			RUFFIN	NC	27326-9152	US		To the Pennini family. Our condolences and love From The Kikhia Family	false		
111-3594819-2409828	10532600678562	2020-12-23T23:40:24+00:00	2020-12-23T15:40:24-08:00	2020-12-23T23:55:33+00:00	2020-12-29T07:59:59+00:00	-6	fczmp5wywj2v6yh@marketplace.amazon.com	Girma Mergia	+1 480-618-5344 ext. 20568	ABR001	Delivery by Wednesday, Dec 30 Dozen Red Roses in a Free Vase by Arabella Bouquets	1	0	1	Expedited	Menen  Tessema	1500 S FERN ST APT 212			ARLINGTON	VA	22202-2813	US		Happy holidays Eteye! We love you  Mimi and family From Girma Mergia	false		
114-6010285-8329847	37524430764546	2020-12-23T23:56:58+00:00	2020-12-23T15:56:58-08:00	2020-12-23T23:58:39+00:00	2020-12-29T07:59:59+00:00	-6	bwylfl9ydxhq47h@marketplace.amazon.com	Mickenzie	+1 213-442-1463 ext. 51744	ABM022	Delivery by Tuesday, Dec 29 Purple Extravagance Bouquet by Arabella Bouquets	1	0	1	Expedited	Sis Balistreri	37 ANNIE GLADE DR			BOZEMAN	MT	59718-9149	US		Happy Happy Happy Birthday 🎉 I hope you have an amazing day filled with happiness. I wish I was there to celebrate with you but I'm sending you my love. Love you lots sissy (hopefully they got there ok, reviews were great🤞) From Kiss	false		
112-1729029-8829838	46673050426058	2020-12-23T23:30:17+00:00	2020-12-23T15:30:17-08:00	2020-12-24T00:00:01+00:00	2020-12-29T07:59:59+00:00	-6	wrx3lk6vz417x3w@marketplace.amazon.com	Lili Hosca	+1 619-854-2705 ext. 12690	ABR0022	Delivery by Wednesday, Dec 30 Dozen Pink Roses with a Free Vase by Arabella Bouquets	1	0	1	Expedited	Ellen Ticzon	10800 VIKING AVE			NORTHRIDGE	CA	91326-2761	US		Happy birthday Ellen, love you!! Enjoy your gift! From Lili Hosca	false		
113-3339403-8056209	41158897696978	2020-12-23T23:40:11+00:00	2020-12-23T15:40:11-08:00	2020-12-24T00:06:17+00:00	2020-12-29T07:59:59+00:00	-6	qjdb898ftkdhqhy@marketplace.amazon.com	Isioma	+1 415-419-8616 ext. 05411	ABR0022	Delivery by Wednesday, Dec 30 Dozen Pink Roses with a Free Vase by Arabella Bouquets	1	0	1	Expedited	Nathalie Diasuka	121 WARD PKWY APT 407			KANSAS CITY	MO	64112-2118	US		Just thinking of you, I still will after these die From Miracle	false		
114-7310227-0956220	26377794817202	2020-12-23T23:49:12+00:00	2020-12-23T15:49:12-08:00	2020-12-24T00:18:33+00:00	2020-12-29T07:59:59+00:00	-6	9mv61pks1bxzsbc@marketplace.amazon.com	Dean Kaiser	+1 619-854-2705 ext. 21646	ABC001	Delivery by Tuesday, Dec 29 Seasons Greetings Bouquet by Arabella Bouquets	1	0	1	Expedited	Dean Kaiser	104 E CHASON AVE			ELLENSBURG	WA	98926-0001	US			false		
112-7580101-7816234	17240608187522	2020-12-23T23:58:03+00:00	2020-12-23T15:58:03-08:00	2020-12-24T00:18:50+00:00	2020-12-29T07:59:59+00:00	-6	16kkbn3h0bfx6t5@marketplace.amazon.com	Tara LeBlanc	+1 415-419-8616 ext. 50395	ABR0033	Delivery by Wednesday, Dec 30 Dozen Orange Roses in a Free Vase by Arabella Bouquets	1	0	1	Expedited	Sarah DeHay	6209 CAPE CORAL DR			AUSTIN	TX	78746-7214	US		Dear Sarah, Thinking of you and your family. God bless your amazing mother, C.C. You told me once that she was the spiritual leader of your family growing up. That is the greatest gift. From Tara LeBlanc	false		
114-7606557-2161014	60308035614522	2020-12-23T23:49:21+00:00	2020-12-23T15:49:21-08:00	2020-12-24T00:19:48+00:00	2020-12-29T07:59:59+00:00	-6	rl9w89xd9j1l6xd@marketplace.amazon.com	bridgid mullen	+1 213-442-1463 ext. 18046	ABR0033	Delivery by Wednesday, Dec 30 Dozen Orange Roses in a Free Vase by Arabella Bouquets	1	0	1	Expedited	Kim Erhardt	4458 W TUCKER LN			WAUKEGAN	IL	60085-8607	US			false		
113-5524740-2125020	38709560146458	2020-12-23T23:56:36+00:00	2020-12-23T15:56:36-08:00	2020-12-24T00:23:11+00:00	2020-12-29T07:59:59+00:00	-6	4npk429knqslhnx@marketplace.amazon.com	Maxie!!	+1 619-854-2705 ext. 10145	ABM022	Delivery by Tuesday, Dec 29 Purple Extravagance Bouquet by Arabella Bouquets	1	0	1	Expedited	Brandye Schmidt	5060 SHOSHONE DR			PENSACOLA	FL	32507-8708	US		Sincerest condolences. Peace be with y'all during this difficult time.  Brandye, Maxie, Sarah, Don From Brandye, Maxie, Sarah, Don	false		
111-8182695-2305811	36555495709682	2020-12-23T23:58:26+00:00	2020-12-23T15:58:26-08:00	2020-12-24T00:28:22+00:00	2020-12-29T07:59:59+00:00	-6	chhnvv6dgm0m6ks@marketplace.amazon.com	Claudia Wertin	+1 929-436-4790 ext. 79577	ABC001	Delivery by Tuesday, Dec 29 Seasons Greetings Bouquet by Arabella Bouquets	1	0	1	Expedited	Kristian Swank and Theresa Wertin	802 S 28TH CT			RENTON	WA	98055-5027	US			false		
113-1008238-0045049	61389047613346	2020-12-24T00:10:26+00:00	2020-12-23T16:10:26-08:00	2020-12-24T00:36:47+00:00	2020-12-29T07:59:59+00:00	-6	5vkqv6789bv1h9f@marketplace.amazon.com	Christine Szutar	+1 602-671-6610 ext. 28167	ABC001	Delivery by Tuesday, Dec 29 Seasons Greetings Bouquet by Arabella Bouquets	1	0	1	Expedited	SANDRA GOODLING	522 THORNWOOD LN			CARLISLE	PA	17013-4263	US			false		
114-4137625-1738650	70076683685538	2020-12-24T00:07:49+00:00	2020-12-23T16:07:49-08:00	2020-12-24T00:38:18+00:00	2020-12-29T07:59:59+00:00	-6	wqm73zbkcr5nwlq@marketplace.amazon.com	cathy t. infante	+1 619-854-2705 ext. 27534	ABM022	Delivery by Tuesday, Dec 29 Purple Extravagance Bouquet by Arabella Bouquets	1	0	1	Expedited	Angela Quiett	104 MACKEY RD			DANVILLE	IN	46122-1520	US			false		
114-4136478-8274664	54104036599498	2020-12-24T00:09:12+00:00	2020-12-23T16:09:12-08:00	2020-12-24T00:38:27+00:00	2020-12-29T07:59:59+00:00	-6	w19gdzdpynr54x4@marketplace.amazon.com	Daivi	+1 346-307-9643 ext. 78430	ABR0022	Delivery by Wednesday, Dec 30 Dozen Pink Roses with a Free Vase by Arabella Bouquets	1	0	1	Expedited	Teng Vang	801 CALEB DR			WINDER	GA	30680-2886	US			false		
111-5065908-6325011	61295116338194	2020-12-24T00:19:23+00:00	2020-12-23T16:19:23-08:00	2020-12-24T00:46:18+00:00	2020-12-29T07:59:59+00:00	-6	2w2tzpxv7j22s1z@marketplace.amazon.com	Kyle cinque	+1 619-854-2705 ext. 34502	ABR0022	Delivery by Wednesday, Dec 30 Dozen Pink Roses with a Free Vase by Arabella Bouquets	1	0	1	Expedited	Kaiti Owens	903 SHROYER RD			DAYTON	OH	45419-3633	US		I know it’s a little late, but merry Christmas! I hope you like them :) From Kyle cinque	false		
114-8858056-6601865	18015737635034	2020-12-24T00:32:33+00:00	2020-12-23T16:32:33-08:00	2020-12-24T00:56:14+00:00	2020-12-29T07:59:59+00:00	-6	t16hyfthfv8k5tw@marketplace.amazon.com	abdyllatif alqahtani	+1 602-671-6610 ext. 64381	ABR0022	Delivery by Wednesday, Dec 30 Dozen Pink Roses with a Free Vase by Arabella Bouquets	1	0	1	Expedited	abdullatif  alqahtani	29 COTTAGE PARK AVE			CAMBRIDGE	MA	02140-1605	US		My love for you is never going to fade. It will get stronger with time. Warm New Year wishes to the woman who is my life. Thanks for being there for me always and thanks for brightening my life. From abdullatif alqahtani	false		
114-0557378-4732248	02316532509442	2020-12-24T00:45:59+00:00	2020-12-23T16:45:59-08:00	2020-12-24T01:13:54+00:00	2020-12-29T07:59:59+00:00	-6	pvlgl3gfwnsjx6v@marketplace.amazon.com	Robert Payne	+1 619-854-2705 ext. 33477	ABC001	Delivery by Tuesday, Dec 29 Seasons Greetings Bouquet by Arabella Bouquets	1	0	1	Expedited	Carolyn Gavin	434 SAILFISH DR E			ATLANTIC BEACH	FL	32233-4133	US		Hi Carolyn, Enjoy your gift!  Love you, girl, Leanna	false		
114-8344779-3403404	30841773717482	2020-12-24T00:53:07+00:00	2020-12-23T16:53:07-08:00	2020-12-24T01:19:25+00:00	2020-12-29T07:59:59+00:00	-6	gc9dq49317yp4j4@marketplace.amazon.com	carol Fite	424174259715	ABR004	Delivery by Wednesday, Dec 30 Dozen Yellow Roses in a Free Vase by Arabella Bouquets	1	0	1	Expedited	Jacquetta Carol Fite	673 E GALLUP HILL RD			NIXA	MO	65714-8590	US			false		
111-4962841-8118620	09797227756298	2020-12-24T00:55:26+00:00	2020-12-23T16:55:26-08:00	2020-12-24T01:20:27+00:00	2020-12-29T07:59:59+00:00	-6	dzx1gk2bmn1d0ln@marketplace.amazon.com	Mark	+1 213-442-1463 ext. 27853	ABC002	Delivery by Tuesday, Dec 29 Warm Wishes Bouquet by Arabella Bouquets	1	0	1	Expedited	Rev William and Marilyn Thiele	14 MORGAN RD			FLEMINGTON	NJ	08822-1901	US		Happy Holidays From Mark,Maria	false		
114-9685538-5540228	67438187933266	2020-12-24T01:01:23+00:00	2020-12-23T17:01:23-08:00	2020-12-24T01:23:08+00:00	2020-12-29T07:59:59+00:00	-6	wp469ydtgsbkl5t@marketplace.amazon.com	Christian M Flores	+1 602-671-6610 ext. 71131	ABR0022	Delivery by Wednesday, Dec 30 Dozen Pink Roses with a Free Vase by Arabella Bouquets	1	0	1	Expedited	Carla Andrews	38 ROBIN HOOD DR			TROY	MO	63379-2390	US		I love you so much!!! Mom... From Phyllis Jackson	false		
114-8118856-2273003	39242596784466	2020-12-24T01:05:34+00:00	2020-12-23T17:05:34-08:00	2020-12-24T01:32:52+00:00	2020-12-29T07:59:59+00:00	-6	5bf1gr6z5clgt3j@marketplace.amazon.com	Angela Gonzalez	+1 602-671-6610 ext. 30219	ABR0066	Delivery by Wednesday, Dec 30 Dozen White Roses in a Free Vase by Arabella Bouquets	1	0	1	Expedited	Antonia Basty	21 LAKE VISTA TRL APT 102			PORT SAINT LUCIE	FL	34952-6348	US		Toni, Here's to 2021!   Sorry I missed seeing you.  Have a happy new year. Love, Angela	false		
112-4706737-5471437	17927130747010	2020-12-24T01:04:51+00:00	2020-12-23T17:04:51-08:00	2020-12-24T01:35:30+00:00	2020-12-29T07:59:59+00:00	-6	00b3t74m0f3kq62@marketplace.amazon.com	Kim Merritt	+1 415-419-8616 ext. 47211	ABR001	Delivery by Wednesday, Dec 30 Dozen Red Roses in a Free Vase by Arabella Bouquets	1	0	1	Expedited	Kim Merritt	28 WOODLYN EST			MILLSBORO	DE	19966-9018	US			false		
114-6196859-4701845	21826226315554	2020-12-24T01:08:51+00:00	2020-12-23T17:08:51-08:00	2020-12-24T01:36:19+00:00	2020-12-29T07:59:59+00:00	-6	ppbk28j9mb5dnzq@marketplace.amazon.com	Nicholas Wood	+1 415-419-8616 ext. 28516	ABM022	Delivery by Tuesday, Dec 29 Purple Extravagance Bouquet by Arabella Bouquets	1	0	1	Expedited	Betty Clausen	420 N PINE ST			WATERMAN	IL	60556-9774	US		Sorry they are late!  Merry Christmas!  We love you!! From Nick, Heather, Lincoln, and Griffin	false		
111-5226684-9562661	22081476031594	2020-12-24T01:12:27+00:00	2020-12-23T17:12:27-08:00	2020-12-24T01:43:01+00:00	2020-12-29T07:59:59+00:00	-6	4jdksnglpv8ryy9@marketplace.amazon.com	Tino	+1 415-419-8616 ext. 51883	ABR014	Arabella Bouquets 18 Stems of Fresh Cut White Roses in a Free Designer Glass Vase	1	0	1	Expedited	Jacqueline	14932 COLBY PL			FONTANA	CA	92337-3418	US			false		
112-3273441-4609064	61496437486058	2020-12-24T01:25:22+00:00	2020-12-23T17:25:22-08:00	2020-12-24T01:53:33+00:00	2020-12-29T07:59:59+00:00	-6	1tzw3kb2t93jllr@marketplace.amazon.com	Heather	+1 929-436-4790 ext. 11516	ABM010	Delivery by Tuesday, Dec 29 Everlasting Fling with a Free Glass Vase by Arabella Bouquets	1	0	1	Expedited	Raquel La Luz	1145 SANTA ANA ST			SEASIDE	CA	93955-5921	US		We love you and miss you Nana! Just a little something to brighten your day. We are so sorry we couldn’t see you for christmas. We’ll see you soon From Heather, larry n bell	false		
112-9917035-8701843	28612765226074	2020-12-24T02:04:31+00:00	2020-12-23T18:04:31-08:00	2020-12-24T02:31:12+00:00	2020-12-29T07:59:59+00:00	-6	j0q8lyckfzmjc0s@marketplace.amazon.com	Ltecson	+1 346-307-9643 ext. 59303	ABR0022	Delivery by Wednesday, Dec 30 Dozen Pink Roses with a Free Vase by Arabella Bouquets	1	0	1	Expedited	Carrie Phung	9710 RIO HONDO PKWY			EL MONTE	CA	91733-1242	US		Happy holidays! Hope you get well soon ;) From Linda and Dino	false		
112-2111997-3341039	22489146439250	2020-12-24T02:10:06+00:00	2020-12-23T18:10:06-08:00	2020-12-24T02:38:16+00:00	2020-12-29T07:59:59+00:00	-6	dhcy3jwp1j5s212@marketplace.amazon.com	Matthew C. Howard	+1 415-851-9136 ext. 17259	ABR001	Delivery by Wednesday, Dec 30 Dozen Red Roses in a Free Vase by Arabella Bouquets	1	0	1	Expedited	Rachel Claus	820 CLARK WAY			PALO ALTO	CA	94304-2355	US		Hi mom and Ric! Merry Christmas (and Happy New Year)! Sorry it is arriving a little late. Wasn't sure what to get but hope you enjoy these flowers :) Love and miss you! Love, Matt From Matthew C. Howard	false		
114-0890233-7717000	25845052427882	2020-12-24T02:12:06+00:00	2020-12-23T18:12:06-08:00	2020-12-24T02:42:08+00:00	2020-12-29T07:59:59+00:00	-6	qks6wttdt4h6n0k@marketplace.amazon.com	patricia bannon	+1 415-419-8616 ext. 83713	ABR001	Delivery by Wednesday, Dec 30 Dozen Red Roses in a Free Vase by Arabella Bouquets	1	0	1	Expedited	Gloria Morrissette	76 BEAULIEU ST			LOWELL	MA	01850-1806	US			false		
113-8847868-7948255	61308009000506	2020-12-24T02:17:06+00:00	2020-12-23T18:17:06-08:00	2020-12-24T02:45:15+00:00	2020-12-29T07:59:59+00:00	-6	pnqd7ywbl7l09fm@marketplace.amazon.com	Stephanie W.	+1 213-442-1463 ext. 62649	ABM025	Delivery by Tuesday, Dec 29 Fell for You Bouquet by Arabella Bouquets	1	0	1	Expedited	Future Mr.. & Mrs. Wendt	7405 MIZNER RESERVE CT			LAKEWOOD RANCH	FL	34202-2428	US		Congrats on your Engagement!   Love, Steph & Jos From Steph & Jos	false		
114-5799859-0425058	61278850734762	2020-12-24T02:19:31+00:00	2020-12-23T18:19:31-08:00	2020-12-24T02:49:25+00:00	2020-12-29T07:59:59+00:00	-6	w1hb71spxhr440b@marketplace.amazon.com	Rod Neiman	+1 619-854-2705 ext. 94744	ABM010	Delivery by Tuesday, Dec 29 Everlasting Fling with a Free Glass Vase by Arabella Bouquets	1	0	1	Expedited	Donna Neiman	12788 SCOTT RD			FREELAND	MI	48623-9533	US		Happy Birthday Mom! From Your favorite son	false		
114-3729098-4409826	17114163054274	2020-12-24T02:40:51+00:00	2020-12-23T18:40:51-08:00	2020-12-24T03:06:27+00:00	2020-12-29T07:59:59+00:00	-6	8t0wfxq3fkqq01x@marketplace.amazon.com	Kadena Tate	+1 213-442-1463 ext. 33360	ABR001	Delivery by Wednesday, Dec 30 Dozen Red Roses in a Free Vase by Arabella Bouquets	1	0	1	Expedited	Brenda & Gordon Daly	602 CRANFIELD CT			KATY	TX	77450-1933	US		My deepest sympathy. Words cannot express the how deeply sorry I am to hear about  Ann Marie. From Kadena Tate - British Airways	false		
114-6568209-0541828	46234158198282	2020-12-24T02:43:56+00:00	2020-12-23T18:43:56-08:00	2020-12-24T03:12:58+00:00	2020-12-29T07:59:59+00:00	-6	zmgcyj6zkjm54sn@marketplace.amazon.com	Calvin Mortier	+1 619-854-2705 ext. 29744	ABR0022	Delivery by Wednesday, Dec 30 Dozen Pink Roses with a Free Vase by Arabella Bouquets	1	0	1	Expedited	Tahlia Pigsley	624 COX DR UNIT 2			GROVE	OK	74344-3496	US			false		
114-6080626-8101815	46332035700290	2020-12-24T02:50:09+00:00	2020-12-23T18:50:09-08:00	2020-12-24T03:18:21+00:00	2020-12-29T07:59:59+00:00	-6	wntdpjjqytt939n@marketplace.amazon.com	shpet dauti	+1 213-442-1463 ext. 48589	ABR0022	Delivery by Wednesday, Dec 30 Dozen Pink Roses with a Free Vase by Arabella Bouquets	1	0	1	Expedited	Bjonda zuta	7354 CARMONA TER APT 201			BOCA RATON	FL	33433-4859	US			false		
114-2857906-4308218	21156745944714	2020-12-24T03:20:21+00:00	2020-12-23T19:20:21-08:00	2020-12-24T03:24:30+00:00	2020-12-29T07:59:59+00:00	-6	yqtwyxzk7f7gh2c@marketplace.amazon.com	Barbara	+1 602-671-6610 ext. 64997	ABM022	Delivery by Tuesday, Dec 29 Purple Extravagance Bouquet by Arabella Bouquets	1	0	1	Expedited	Jake & Amber Layer and Family	4770 CLOUDCREST DR			MEDFORD	OR	97504-9278	US		Amber & Jake and Family,  I am so sorry for your loss. Buena is one of the sweetest people I have ever known. She will be greatly missed by all. From Love, Barbara and Family	false		
113-3234578-5491454	39804476655682	2020-12-24T03:00:15+00:00	2020-12-23T19:00:15-08:00	2020-12-24T03:29:31+00:00	2020-12-29T07:59:59+00:00	-6	r1mz3zj9fvvxdzq@marketplace.amazon.com	Sandra	+1 213-442-1463 ext. 77257	ABR0022	Delivery by Wednesday, Dec 30 Dozen Pink Roses with a Free Vase by Arabella Bouquets	1	0	1	Expedited	Maryann Hills	1301 W MAITLAND BLVD			MAITLAND	FL	32751-4338	US		Happy New Year!!!  We love you and miss you!!! From Larry, Sandra &Cori	false		
114-8388912-2067459	19705049745954	2020-12-24T03:20:25+00:00	2020-12-23T19:20:25-08:00	2020-12-24T03:41:40+00:00	2020-12-29T07:59:59+00:00	-6	gyz4bv5k6wp5dx8@marketplace.amazon.com	Tyler	+1 602-671-6610 ext. 65296	ABR0022	Delivery by Wednesday, Dec 30 Dozen Pink Roses with a Free Vase by Arabella Bouquets	1	0	1	Expedited	Katalina Perry	4051 LAZY ACRES RD			MIDDLEBURG	FL	32068-4911	US		Enjoy your gift! From Tyler	false		
111-3535570-8467449	29714084868818	2020-12-24T03:19:20+00:00	2020-12-23T19:19:20-08:00	2020-12-24T03:46:20+00:00	2020-12-29T07:59:59+00:00	-6	dlyt3kxw6k2j04k@marketplace.amazon.com	cybermgm23	+1 213-442-1463 ext. 07471	ABC001	Delivery by Tuesday, Dec 29 Seasons Greetings Bouquet by Arabella Bouquets	1	0	1	Expedited	Malea Miller	3691 MIDDLE URBANA RD APT 101			SPRINGFIELD	OH	45502-7886	US		Happy Birthday Malea!  With Love, Matthew From Matthew	false		
114-4185832-3423412	00384513815906	2020-12-24T03:10:49+00:00	2020-12-23T19:10:49-08:00	2020-12-24T03:47:34+00:00	2020-12-29T07:59:59+00:00	-6	8c5036lpf8cvssd@marketplace.amazon.com	angela matt	+1 602-671-6610 ext. 94879	ABM022	Delivery by Tuesday, Dec 29 Purple Extravagance Bouquet by Arabella Bouquets	1	0	1	Expedited	Heidi matt	2741 MCCOY RD			AMITE	LA	70422-7190	US		We love and miss you!  I hope this brings a smile to your face. From MATT/WALTER FAMILY	false		
113-6788636-5701843	39876427609434	2020-12-24T03:26:03+00:00	2020-12-23T19:26:03-08:00	2020-12-24T03:54:21+00:00	2020-12-29T07:59:59+00:00	-6	0h9jh465fx29984@marketplace.amazon.com	boshra muftari	+1 415-851-9136 ext. 46057	ABR0066	Delivery by Wednesday, Dec 30 Dozen White Roses in a Free Vase by Arabella Bouquets	1	0	1	Expedited	Mona khater	5320 CAPRI DR			TROY	MI	48098-2416	US		We would like to wish you the best of luck at your new office.  Also best wishes for the holidays. From Kasem and Boshra	false		
113-5054149-7556251	04536528475674	2020-12-24T03:34:44+00:00	2020-12-23T19:34:44-08:00	2020-12-24T04:04:18+00:00	2020-12-29T07:59:59+00:00	-6	k1sbq828zdp0rb5@marketplace.amazon.com	Carolyn Quinn	+1 602-671-6610 ext. 69103	ABM022	Delivery by Tuesday, Dec 29 Purple Extravagance Bouquet by Arabella Bouquets	1	0	1	Expedited	Cheryl Igo	17520 LINDEN AVE N APT A106	APT # A106		SHORELINE	WA	98133-4828	US			false		
111-2054458-6989047	17158372512282	2020-12-24T03:46:28+00:00	2020-12-23T19:46:28-08:00	2020-12-24T04:09:04+00:00	2020-12-29T07:59:59+00:00	-6	mtd7wxhwnxzj2dv@marketplace.amazon.com	gurpreet s bajaj	+1 602-671-6610 ext. 39972	ABM022	Delivery by Tuesday, Dec 29 Purple Extravagance Bouquet by Arabella Bouquets	1	0	1	Expedited	Amber Jamal	2000 SHADY OAKS DR			SOUTHLAKE	TX	76092-3510	US		Dear Amber, Thinking about you and wishing you the best of health!   Sending good, healthy vibes your way.  Love and prayers, From Gurpreet and Simran	false		
114-9007348-3549000	21417118676018	2020-12-24T03:55:31+00:00	2020-12-23T19:55:31-08:00	2020-12-24T04:18:25+00:00	2020-12-29T07:59:59+00:00	-6	f48wt0rcmcdrd6d@marketplace.amazon.com	Daryl Jessee	+210-313-2364	ABC002	Delivery by Tuesday, Dec 29 Warm Wishes Bouquet by Arabella Bouquets	1	0	1	Expedited	Mrs Charlotte Riley	2600 HUNTER RD APT 2302			SAN MARCOS	TX	78666-5194	US		Merry Christmas From with love Nini	false		
111-2897082-3634634	17582735341082	2020-12-24T04:12:42+00:00	2020-12-23T20:12:42-08:00	2020-12-24T04:40:44+00:00	2020-12-29T07:59:59+00:00	-6	qqz5pg60cgsjg19@marketplace.amazon.com	carol shegog	+1 480-618-5344 ext. 44632	ABR0022	Delivery by Wednesday, Dec 30 Dozen Pink Roses with a Free Vase by Arabella Bouquets	1	0	1	Expedited	Myna Shegog	4427 W QUILL LN			WAUKEGAN	IL	60085-8620	US		Hi Myna, MERRY CHRISTMAS  MIKEY	false		
113-9283391-9189850	43108430079618	2020-12-24T04:22:04+00:00	2020-12-23T20:22:04-08:00	2020-12-24T04:43:37+00:00	2020-12-29T07:59:59+00:00	-6	gtg7zkdx3j4hyps@marketplace.amazon.com	Carole Balala	+1 619-854-2705 ext. 14552	ABC002	Delivery by Tuesday, Dec 29 Warm Wishes Bouquet by Arabella Bouquets	1	0	1	Expedited	Bill Moore	159 WALTER HAYS DR			PALO ALTO	CA	94303-2924	US		Thank you Bill for all your help this year. You are a saint in our book! Here's to a wonderful 2021! From Love, Bruce, Aaron, Jack and Carole Balala	false		
113-5651173-2813065	62587013756266	2020-12-24T04:17:36+00:00	2020-12-23T20:17:36-08:00	2020-12-24T04:45:23+00:00	2020-12-29T07:59:59+00:00	-6	h8f4l7y3tfnptt0@marketplace.amazon.com	Jenifer Ledezma	+1 415-419-8616 ext. 16807	ABR0033	Delivery by Wednesday, Dec 30 Dozen Orange Roses in a Free Vase by Arabella Bouquets	1	0	1	Expedited	Cathy Mc Carthy	1051 WALLACE AVE			APTOS	CA	95003-4124	US		To a Happier New Year! From The Ledezmas	false		
111-8301099-2018627	32394488594890	2020-12-24T04:25:46+00:00	2020-12-23T20:25:46-08:00	2020-12-24T04:55:43+00:00	2020-12-29T07:59:59+00:00	-6	srms427qxyf3mlz@marketplace.amazon.com	Sangwoaaah	+1 480-618-5344 ext. 77676	ABR0022	Delivery by Wednesday, Dec 30 Dozen Pink Roses with a Free Vase by Arabella Bouquets	1	0	1	Expedited	jimmie lee wade	5663 CALMAR DR APT N			MONTGOMERY	AL	36116-1757	US			false		
111-0889064-5380224	11928910061610	2020-12-24T04:27:11+00:00	2020-12-23T20:27:11-08:00	2020-12-24T04:57:38+00:00	2020-12-29T07:59:59+00:00	-6	srms427qxyf3mlz@marketplace.amazon.com	Sangwoaaah	+1 415-419-8616 ext. 05448	ABR0022	Delivery by Wednesday, Dec 30 Dozen Pink Roses with a Free Vase by Arabella Bouquets	1	0	1	Expedited	victoria wade	729 KINGSBURY RD			CLARKSVILLE	TN	37040-4431	US			false		
111-7397625-8239431	19632659212042	2020-12-24T04:27:46+00:00	2020-12-23T20:27:46-08:00	2020-12-24T04:58:20+00:00	2020-12-29T07:59:59+00:00	-6	srms427qxyf3mlz@marketplace.amazon.com	Sangwoaaah	+1 213-442-1463 ext. 02590	ABR0022	Delivery by Wednesday, Dec 30 Dozen Pink Roses with a Free Vase by Arabella Bouquets	1	0	1	Expedited	Terina Davis	2295 E VERNOR HWY	REGENCY AT CHENE RM 611		DETROIT	MI	48207-3308	US			false		
113-4459250-3607440	22470359515770	2020-12-24T04:41:53+00:00	2020-12-23T20:41:53-08:00	2020-12-24T05:06:44+00:00	2020-12-29T07:59:59+00:00	-6	nr62qgsd136nqsp@marketplace.amazon.com	Bryan Jackson	+1 415-419-8616 ext. 20016	ABC001	Delivery by Tuesday, Dec 29 Seasons Greetings Bouquet by Arabella Bouquets	1	0	1	Expedited	Lorri Jackson	7000 SARANAC ST UNIT 47			LA MESA	CA	91942-8917	US		Merry Christmas!  Love, Sam, Bryan, & Monster From Bryan Jackson	false		
111-2200338-3997000	51834500870138	2020-12-24T04:53:42+00:00	2020-12-23T20:53:42-08:00	2020-12-24T05:19:35+00:00	2020-12-29T07:59:59+00:00	-6	vyxp6m8t8y71xvl@marketplace.amazon.com	Sonja Sax	+1 602-671-6610 ext. 48786	ABM020	Delivery by Tuesday, Dec 29 Sunset Bouquet by Arabella Bouquets	1	0	1	Expedited	Vanessa Matthews	6915 E CARLISLE AVE			SPOKANE VALLEY	WA	99212-1407	US		Happy Birthday ad your personal new year!!!!!     I love you and I’m grateful for you!!!! From Sonja Sax	false		
111-6400056-4025002	13721943324994	2020-12-24T04:50:56+00:00	2020-12-23T20:50:56-08:00	2020-12-24T05:21:19+00:00	2020-12-29T07:59:59+00:00	-6	zjgp429nhbkn8ws@marketplace.amazon.com	Peter campiglio	+1 602-671-6610 ext. 22351	ABM022	Delivery by Tuesday, Dec 29 Purple Extravagance Bouquet by Arabella Bouquets	1	0	1	Expedited	Peter Campiglio	1215 ANCHORS WAY DR SPC 138			VENTURA	CA	93001-0275	US			false		
111-5874954-6288223	07566413532826	2020-12-24T05:04:24+00:00	2020-12-23T21:04:24-08:00	2020-12-24T05:31:38+00:00	2020-12-29T07:59:59+00:00	-6	70zdj952f1n9ysm@marketplace.amazon.com	Asako A. Uemura	+1 602-671-6610 ext. 37636	ABR0022	Delivery by Wednesday, Dec 30 Dozen Pink Roses with a Free Vase by Arabella Bouquets	1	0	1	Expedited	The Valery Family	23952 PASEO DEL CAMPO			LAGUNA NIGUEL	CA	92677-2405	US		Our best wishes to your family for health and happiness in the coming year!! Stay safely, hope see you soon! From Hiro & Asako	false		
114-4268251-9188256	11068601454682	2020-12-24T05:02:33+00:00	2020-12-23T21:02:33-08:00	2020-12-24T05:32:09+00:00	2020-12-29T07:59:59+00:00	-6	z75rrylss2qnx6t@marketplace.amazon.com	Munish Sehgal	+1 619-854-2705 ext. 52878	ABR0022	Delivery by Wednesday, Dec 30 Dozen Pink Roses with a Free Vase by Arabella Bouquets	1	0	1	Expedited	Navdeep Bhulli	225 RIVER ST	APT 2302, W hotel		HOBOKEN	New Jersey	07030-4780	US		Enjoy your gift! From Munish Sehgal	false		
