order-id	order-item-id	purchase-date	payments-date	reporting-date	promise-date	days-past-promise	buyer-email	buyer-name	buyer-phone-number	sku	product-name	quantity-purchased	quantity-shipped	quantity-to-ship	ship-service-level	recipient-name	ship-address-1	ship-address-2	ship-address-3	ship-city	ship-state	ship-postal-code	ship-country	gift-wrap-type	gift-message-text	is-business-order	purchase-order-number	price-designation
114-9746714-0158609	63635629239250	2020-12-28T18:06:39+00:00	2020-12-28T10:06:39-08:00	2020-12-28T18:32:34+00:00	2020-12-31T07:59:59+00:00	-2	7fc2g80rs31y9k8@marketplace.amazon.com	adamtchevalier@hotmail.com	+1 415-851-9136 ext. 45277	ABR0066	Delivery by Wednesday, Dec 30 Dozen White Roses in a Free Vase by Arabella Bouquets	1	0	1	Expedited	Jen Johanson and Family	73 HAWTHORNE ST			LYNN	MA	01902-3775	US		Jen and family. We are so sorry for your loss and cry/pray with you during this difficult time. We know the sting of loss this year too. Your mom/gram was wonderful. She is dancing in heaven today! From Adam, Kelly, and Kids	false		
113-1906763-3869804	08187254724586	2020-12-29T17:46:23+00:00	2020-12-29T09:46:23-08:00	2020-12-29T18:09:58+00:00	2021-01-01T07:59:59+00:00	-3	0fgym5hfn84078w@marketplace.amazon.com	svetlana v hart	+1 346-307-9643 ext. 04639	ABM010	Delivery by Thursday, Dec 31 Everlasting Fling with a Free Glass Vase by Arabella Bouquets	1	0	1	Expedited	Janet Stewart	216 PLEASANT POINTE DR			LEXINGTON	KY	40517-4474	US		Dear Janet, We are so sorry for your loss. We hope you feel surrounded by much love. May this new 2021 year bring you comfort and peace. With love, Craig, Svetlana and Sonya Hart From Hart family	false		
114-2936026-7489021	12549137395474	2020-12-29T17:45:11+00:00	2020-12-29T09:45:11-08:00	2020-12-29T18:14:48+00:00	2021-01-01T07:59:59+00:00	-3	c96zmc3vz0b89wv@marketplace.amazon.com	Julie A. Hoover	+1 213-442-1463 ext. 92289	ABC001	Delivery by Thursday, Dec 31 Seasons Greetings Bouquet by Arabella Bouquets	1	0	1	Expedited	Phyllis Rader	2341 W NORVELL BRYANT HWY			LECANTO	FL	34461-9438	US		We hope you had a wonderful Christmas and a Happy New Year! Love you. From Julie and Casey Sears	false		
111-0370879-3145864	60840486252962	2020-12-29T17:47:35+00:00	2020-12-29T09:47:35-08:00	2020-12-29T18:16:58+00:00	2021-01-01T07:59:59+00:00	-3	9xyqr5rb7hnzcp1@marketplace.amazon.com	elisebreed	+1 415-419-8616 ext. 26402	ABC002	Delivery by Thursday, Dec 31 Warm Wishes Bouquet by Arabella Bouquets	1	0	1	Expedited	Lisa Sherman	6410 HOFFMAN LN			COOPERSBURG	PA	18036-3027	US			false		
