order-id	order-item-id	purchase-date	payments-date	reporting-date	promise-date	days-past-promise	buyer-email	buyer-name	buyer-phone-number	sku	product-name	quantity-purchased	quantity-shipped	quantity-to-ship	ship-service-level	recipient-name	ship-address-1	ship-address-2	ship-address-3	ship-city	ship-state	ship-postal-code	ship-country	gift-wrap-type	gift-message-text	is-business-order	purchase-order-number	price-designation
114-9746714-0158609	63635629239250	2020-12-28T18:06:39+00:00	2020-12-28T10:06:39-08:00	2020-12-28T18:32:34+00:00	2020-12-31T07:59:59+00:00	-1	7fc2g80rs31y9k8@marketplace.amazon.com	adamtchevalier@hotmail.com	+1 415-851-9136 ext. 45277	ABR0066	Delivery by Wednesday, Dec 30 Dozen White Roses in a Free Vase by Arabella Bouquets	1	0	1	Expedited	Jen Johanson and Family	73 HAWTHORNE ST			LYNN	MA	01902-3775	US		Jen and family. We are so sorry for your loss and cry/pray with you during this difficult time. We know the sting of loss this year too. Your mom/gram was wonderful. She is dancing in heaven today! From Adam, Kelly, and Kids	false		
113-1906763-3869804	08187254724586	2020-12-29T17:46:23+00:00	2020-12-29T09:46:23-08:00	2020-12-29T18:09:58+00:00	2021-01-01T07:59:59+00:00	-2	0fgym5hfn84078w@marketplace.amazon.com	svetlana v hart	+1 346-307-9643 ext. 04639	ABM010	Delivery by Thursday, Dec 31 Everlasting Fling with a Free Glass Vase by Arabella Bouquets	1	0	1	Expedited	Janet Stewart	216 PLEASANT POINTE DR			LEXINGTON	KY	40517-4474	US		Dear Janet, We are so sorry for your loss. We hope you feel surrounded by much love. May this new 2021 year bring you comfort and peace. With love, Craig, Svetlana and Sonya Hart From Hart family	false		
114-2936026-7489021	12549137395474	2020-12-29T17:45:11+00:00	2020-12-29T09:45:11-08:00	2020-12-29T18:14:48+00:00	2021-01-01T07:59:59+00:00	-2	c96zmc3vz0b89wv@marketplace.amazon.com	Julie A. Hoover	+1 213-442-1463 ext. 92289	ABC001	Delivery by Thursday, Dec 31 Seasons Greetings Bouquet by Arabella Bouquets	1	0	1	Expedited	Phyllis Rader	2341 W NORVELL BRYANT HWY			LECANTO	FL	34461-9438	US		We hope you had a wonderful Christmas and a Happy New Year! Love you. From Julie and Casey Sears	false		
111-0370879-3145864	60840486252962	2020-12-29T17:47:35+00:00	2020-12-29T09:47:35-08:00	2020-12-29T18:16:58+00:00	2021-01-01T07:59:59+00:00	-2	9xyqr5rb7hnzcp1@marketplace.amazon.com	elisebreed	+1 415-419-8616 ext. 26402	ABC002	Delivery by Thursday, Dec 31 Warm Wishes Bouquet by Arabella Bouquets	1	0	1	Expedited	Lisa Sherman	6410 HOFFMAN LN			COOPERSBURG	PA	18036-3027	US			false		
111-7710422-6397828	25773207457634	2020-12-30T07:49:39+00:00	2020-12-29T23:49:39-08:00	2020-12-30T08:20:14+00:00	2021-01-01T07:59:59+00:00	-2	wc5bx7289ccrx9t@marketplace.amazon.com	Elaine Borja	+1 619-854-2705 ext. 90534	ABR0022	Delivery by Tuesday, Jan 5 Dozen Pink Roses with a Free Vase by Arabella Bouquets	1	0	1	Expedited	Elaine Borja	900 W HEATHER AVE			LA HABRA	CA	90631-4521	US			false		
114-9214991-7883432	15320977594066	2020-12-30T08:21:35+00:00	2020-12-30T00:21:35-08:00	2020-12-30T08:50:08+00:00	2021-01-05T07:59:59+00:00	-6	2dsks87czhg8rwn@marketplace.amazon.com	Andrew Maybrook	+1 619-854-2705 ext. 00883	ABR0055	Delivery by Tuesday, Jan 5 Dozen Hot Pink Roses in a Free Vase by Arabella Bouquets	1	0	1	Expedited	Sally Maybrook	2000 BURR OAK LN			HIGHLAND PARK	IL	60035-4202	US		Lots of love from Ian, Xhoi and Dori!  Happy Holidays, Sweet Aunt Sally  :-) From Ian Xhoi Dori	false		
112-8133563-3718612	03866725303162	2020-12-30T09:29:24+00:00	2020-12-30T01:29:24-08:00	2020-12-30T09:37:51+00:00	2021-01-05T07:59:59+00:00	-6	kvmtkjtzn604dnl@marketplace.amazon.com	diana jones	+1 602-671-6610 ext. 37608	ABR0066	Delivery by Tuesday, Jan 5 Dozen White Roses in a Free Vase by Arabella Bouquets	1	0	1	Expedited	Mrs. Lisa Kelly	3 YOSEMITE CIR			BOHEMIA	NY	11716-4118	US		As my aunt/godmother u always make me (and my boys!) feel very special. It always puts a big smile on my face! So I wanted to send u these to thank u and hopefully make u smile and tell u how very special u r to me too! ❤️ From Diana Jones	false		
114-3304608-5604219	48792503020634	2020-12-30T09:32:21+00:00	2020-12-30T01:32:21-08:00	2020-12-30T10:01:41+00:00	2021-01-05T07:59:59+00:00	-6	sdhfs761lc60cld@marketplace.amazon.com	Kathrine Vogt	+1 619-854-2705 ext. 04150	ABR0022	Delivery by Tuesday, Jan 5 Dozen Pink Roses with a Free Vase by Arabella Bouquets	1	0	1	Expedited	Kathrine Vogt-Rardin	5304-28 th Avenue South			Minneapolis	MN	55417	US		You can do this! From Your friend	false		
111-1750773-6635421	33842279424946	2020-12-30T10:07:10+00:00	2020-12-30T02:07:10-08:00	2020-12-30T10:35:59+00:00	2021-01-05T07:59:59+00:00	-6	8w8zcjwn88b7fnq@marketplace.amazon.com	Christine Parks	+1 480-618-5344 ext. 07652	ABR0055	Delivery by Tuesday, Jan 5 Dozen Hot Pink Roses in a Free Vase by Arabella Bouquets	1	0	1	Expedited	Adele Martinez	15824 Catalpa			Southfield	MI	48076	US		Happy birthday mom. From Christine Parks	false		
111-4231645-8241064	67011037860370	2020-12-30T11:03:58+00:00	2020-12-30T03:03:58-08:00	2020-12-30T11:32:38+00:00	2021-01-05T07:59:59+00:00	-6	bkjd1wdby40gl6t@marketplace.amazon.com	V S Rhodes	447766443584	ABM0033	Delivery by Tuesday, Jan 5 White Hydrangea 5 Stems with a Free Glass Vase by Arabella Bouquets	1	0	1	Expedited	Bev Morton	85 ROBSART RD			KENILWORTH	IL	60043-1210	US		Bev, Hope you have a wonderful birthday! Love from Verity, David, Josh and Sam x x From V S Rhodes	false		
114-7450428-7701862	08045469161546	2020-12-30T11:22:42+00:00	2020-12-30T03:22:42-08:00	2020-12-30T11:51:50+00:00	2021-01-05T07:59:59+00:00	-6	wm3rrqfbbmvbkfd@marketplace.amazon.com	Michelle Forman	+1 415-851-9136 ext. 94829	ABC001	Delivery by Tuesday, Jan 5 Seasons Greetings Bouquet by Arabella Bouquets	1	0	1	Expedited	Peggy Fluman	2330 MAPLE RD APT 172			WILLIAMSVILLE	NY	14221-4056	US		Happy Birthday Mom! From Michelle Forman	false		
114-9063029-2215428	35362895750570	2020-12-30T11:34:50+00:00	2020-12-30T03:34:50-08:00	2020-12-30T12:05:28+00:00	2021-01-05T07:59:59+00:00	-6	hbhw9rwpk11dn2b@marketplace.amazon.com	Kelly Hutcheson	+1 602-671-6610 ext. 29167	ABR0022	Delivery by Tuesday, Jan 5 Dozen Pink Roses with a Free Vase by Arabella Bouquets	1	0	1	Expedited	Kelly Hutch	5 RENAISSANCE SQ APT 26 E			WHITE PLAINS	NY	10601-3048	US			false		
112-8434366-3641013	40527839447722	2020-12-30T12:09:25+00:00	2020-12-30T04:09:25-08:00	2020-12-30T12:40:08+00:00	2021-01-05T07:59:59+00:00	-6	l3m3b3wvq8r9l09@marketplace.amazon.com	Jeffrey B Thomassen	+1 480-618-5344 ext. 18583	ABR0022	Delivery by Tuesday, Jan 5 Dozen Pink Roses with a Free Vase by Arabella Bouquets	1	0	1	Expedited	Jeff Thomassen	45 Wyckham Rd			Tinton Falls	New Jersey	07724	US			false		
111-5457085-7377821	45934469947530	2020-12-30T12:17:00+00:00	2020-12-30T04:17:00-08:00	2020-12-30T12:46:12+00:00	2021-01-05T07:59:59+00:00	-6	h9sww39cqdy32sj@marketplace.amazon.com	l. lew	+1 602-671-6610 ext. 72032	ABR0022	Delivery by Tuesday, Jan 5 Dozen Pink Roses with a Free Vase by Arabella Bouquets	1	0	1	Expedited	Camille Reddick	2819 MILL ISLAND PKWY			FREDERICK	MD	21701-6620	US		Enjoy your birthday gift! From Linda	false		
113-5479402-6290663	68081962192922	2020-12-30T12:38:05+00:00	2020-12-30T04:38:05-08:00	2020-12-30T13:07:01+00:00	2021-01-05T07:59:59+00:00	-6	3yn1kmhntccfjvq@marketplace.amazon.com	Jason Stiltner	+1 415-851-9136 ext. 73056	ABR0022	Delivery by Tuesday, Jan 5 Dozen Pink Roses with a Free Vase by Arabella Bouquets	1	0	1	Expedited	Sandra Chmiel	6047 N LATSON RD			HOWELL	MI	48855-7278	US		Sandy, So sorry for your loss. May good things happen for you in 2021.  Lots of love from your friend, Jason From Jason Stiltner	false		
112-9480172-4845805	21436657281306	2020-12-30T12:49:25+00:00	2020-12-30T04:49:25-08:00	2020-12-30T13:18:38+00:00	2021-01-05T07:59:59+00:00	-6	nrqd2xr3h5cc0ly@marketplace.amazon.com	Paul-and-Krista	+1 213-442-1463 ext. 82238	ABM025	Delivery by Tuesday, Jan 5 Fell for You Bouquet by Arabella Bouquets	1	0	1	Expedited	Zora Coleman	335 SE LAKEVIEW DR			KEYSTONE HEIGHTS	FL	32656-9206	US		We are thinking of you and hope you're feeling better soon. Much love, Pablo and Krista From Paul-and-Krista	false		
111-3467433-3169040	16969325784626	2020-12-30T13:09:12+00:00	2020-12-30T05:09:12-08:00	2020-12-30T13:39:12+00:00	2021-01-05T07:59:59+00:00	-6	8bncqfg1c450fm1@marketplace.amazon.com	carrie jacobson	+1 619-854-2705 ext. 88450	ABC001	Delivery by Tuesday, Jan 5 Seasons Greetings Bouquet by Arabella Bouquets	1	0	1	Expedited	Kathy owen	11259 PRESWICK BLVD			EDEN PRAIRIE	MN	55344-4417	US			false		
113-3897786-9940218	14672536150474	2020-12-30T13:22:01+00:00	2020-12-30T05:22:01-08:00	2020-12-30T13:48:48+00:00	2021-01-05T07:59:59+00:00	-6	y46qc4lj7pknz93@marketplace.amazon.com	Tina All	+1 213-442-1463 ext. 87847	ABR0033	Delivery by Tuesday, Jan 5 Dozen Orange Roses in a Free Vase by Arabella Bouquets	1	0	1	Expedited	Joan Johnson	2225 KNOCKTREE DR			INDIAN TRAIL	NC	28079-5005	US		Hoping these flowers brighten your day!!  Relax and soak up this time with your family! From CCSS Physicians and Staff	true		
112-7920764-9307406	56515573561562	2020-12-30T13:28:15+00:00	2020-12-30T05:28:15-08:00	2020-12-30T13:57:01+00:00	2021-01-05T07:59:59+00:00	-6	nkxsnp880c0bkt9@marketplace.amazon.com	Danielle Kiefer	+1 213-442-1463 ext. 05787	ABM022	Delivery by Tuesday, Jan 5, Dec 30 Purple Extravagance Bouquet by Arabella Bouquets	1	0	1	Expedited	Cindy Wetterman	993 APPLE VALLEY DR			BARTLETT	IL	60103-5601	US		Thinking of you From Patrice	false		
112-5233034-1777033	00798271511674	2020-12-30T13:28:01+00:00	2020-12-30T05:28:01-08:00	2020-12-30T13:58:01+00:00	2021-01-05T07:59:59+00:00	-6	129ppv1wz35v0wj@marketplace.amazon.com	Frederick Polk	+1 602-671-6610 ext. 39824	ABR0022	Delivery by Tuesday, Jan 5 Dozen Pink Roses with a Free Vase by Arabella Bouquets	1	0	1	Expedited	Tammye Taylor Polk	312 SUMMER PL			JOHNSON CITY	TN	37601-1357	US			false		
111-1003564-2815445	69567600240906	2020-12-30T13:35:19+00:00	2020-12-30T05:35:19-08:00	2020-12-30T14:03:16+00:00	2021-01-05T07:59:59+00:00	-6	9lbn3hqwlqdspzb@marketplace.amazon.com	Heather	+1 929-436-4790 ext. 81905	ABR0033	Delivery by Tuesday, Jan 5 Dozen Orange Roses in a Free Vase by Arabella Bouquets	1	0	1	Expedited	Julie LoGiudice	10550 W ALEXANDER RD UNIT 1069			LAS VEGAS	NV	89129-3504	US		Wishing you a very happy birthday! We love you lots! From Joe, Heather, Ari, Gav & Abi	false		
114-7499769-5517017	53171272527514	2020-12-30T13:52:41+00:00	2020-12-30T05:52:41-08:00	2020-12-30T14:21:55+00:00	2021-01-05T07:59:59+00:00	-6	cdf1ymvwvh6zntx@marketplace.amazon.com	HAL W Pearce	+1 619-854-2705 ext. 45380	ABR0033	Delivery by Tuesday, Jan 5 Dozen Orange Roses in a Free Vase by Arabella Bouquets	1	0	1	Expedited	Cheryl Slatton	418 OAKDALE CHURCH RD			JUDSONIA	AR	72081-9145	US		Hope you get feeling better soon. From Love Hal & Julie	false		
112-5307751-5130637	56566700337602	2020-12-30T14:17:49+00:00	2020-12-30T06:17:49-08:00	2020-12-30T14:45:49+00:00	2021-01-05T07:59:59+00:00	-6	t2z7g0t5k5n98w8@marketplace.amazon.com	Jennifer Carter	+1 480-618-5344 ext. 13402	ABM022	Delivery by Tuesday, Jan 5 Purple Extravagance Bouquet by Arabella Bouquets	1	0	1	Expedited	Ms. Verna	3317 BELLE AVE			BALTIMORE	MD	21215-6136	US		A mother is with us always, first in her lifetime, then forever in our memory. From With Sympathy, I’Keisha Reid	false		
114-2059327-0113826	07630580185242	2020-12-30T14:30:00+00:00	2020-12-30T06:30:00-08:00	2020-12-30T15:00:30+00:00	2021-01-05T07:59:59+00:00	-6	pm3sm95h9zv2vjp@marketplace.amazon.com	Mary Yotopoulos	+1 602-671-6610 ext. 68415	ABR0055	Delivery by Tuesday, Jan 5 Dozen Hot Pink Roses in a Free Vase by Arabella Bouquets	1	0	1	Expedited	Mary Yotopoulos	315 HOMER AVE UNIT 101			PALO ALTO	CA	94301-2761	US			false		
114-8214030-9154603	64983197988338	2020-12-30T15:04:38+00:00	2020-12-30T07:04:38-08:00	2020-12-30T15:32:12+00:00	2021-01-05T07:59:59+00:00	-6	wnll6qtj0nmqr2y@marketplace.amazon.com	Nancy Skalinski	+1 415-851-9136 ext. 49104	ABR0055	Delivery by Tuesday, Jan 5 Dozen Hot Pink Roses in a Free Vase by Arabella Bouquets	1	0	1	Expedited	Beth and Jack Didie	627 CHRISTOPHER DR			CLAYTON	NC	27520-5585	US			false		
114-6736786-9896230	28668142714970	2020-12-30T15:04:54+00:00	2020-12-30T07:04:54-08:00	2020-12-30T15:34:05+00:00	2021-01-05T07:59:59+00:00	-6	6vfl391r5tqfkbq@marketplace.amazon.com	Atsushi Narita	+1 415-419-8616 ext. 50251	ABM022	Delivery by Tuesday, January 5 Purple Extravagance Bouquet by Arabella Bouquets	1	0	1	Expedited	Keiko Ishida c/o IACE Travel	535 8TH AVE STE 801			NEW YORK	NY	10018-4305	US		Happy Birthday Kaicho! From Staffs from IACE NYC	false		
114-8825674-6947412	58337790180394	2020-12-30T15:11:49+00:00	2020-12-30T07:11:49-08:00	2020-12-30T15:42:13+00:00	2021-01-05T07:59:59+00:00	-6	m1jbc7xr30r77f5@marketplace.amazon.com	Ziad Haider	+1 602-671-6610 ext. 58652	ABR0022	Delivery by Tuesday, Jan 5 Dozen Pink Roses with a Free Vase by Arabella Bouquets	1	0	1	Expedited	Allen Feliz	22 White Street Place	Unit 3		Sommerville	MA	02144	US			false		
112-7291714-9011444	61501551690778	2020-12-30T15:16:17+00:00	2020-12-30T07:16:17-08:00	2020-12-30T15:44:06+00:00	2021-01-05T07:59:59+00:00	-6	wgbr1pzqz6tt55b@marketplace.amazon.com	Jesnaliz Gipson	+1 619-854-2705 ext. 82132	ABM010	Delivery by Tuesday, Jan 5 Everlasting Fling with a Free Glass Vase by Arabella Bouquets	1	0	1	Expedited	Jessie and Mary Gipson	803 E POPLAR ST			ATMORE	AL	36502-3146	US		Happy Anniversary! We love y’all so much! Thank y’all for everything y’all do for us! We hope to one day reach as many years as y’all. We love y’all! From Your son + Daughter	false		
111-2516574-0725869	31503056590578	2020-12-30T15:15:43+00:00	2020-12-30T07:15:43-08:00	2020-12-30T15:46:21+00:00	2021-01-05T07:59:59+00:00	-6	7h1rj15qfhvppnw@marketplace.amazon.com	Frank Valentich	+1 602-671-6610 ext. 13483	ABC001	Delivery by Tuesday, Jan 5 Seasons Greetings Bouquet by Arabella Bouquets	1	0	1	Expedited	Frank Valentich	270 AMERICAN RIVER CANYON DR			FOLSOM	CA	95630-7147	US			false		
112-9292763-9377015	05376605034706	2020-12-30T15:17:21+00:00	2020-12-30T07:17:21-08:00	2020-12-30T15:48:37+00:00	2021-01-05T07:59:59+00:00	-6	966mz42r9g9zm1n@marketplace.amazon.com	Janice Brabaw	+1 415-851-9136 ext. 49976	ABR0022	Delivery by Tuesday, Jan 5 Dozen Pink Roses with a Free Vase by Arabella Bouquets	1	0	1	Expedited	Gina Brabaw	1700 COUNTY ROUTE 19			RICHVILLE	NY	13681-3125	US		Everyone needs a little cheer during the winter xoxo  Love,  Janice	false		
114-1355636-5672231	45869487001234	2020-12-30T15:19:38+00:00	2020-12-30T07:19:38-08:00	2020-12-30T15:49:03+00:00	2021-01-05T07:59:59+00:00	-6	19j4x06yf7zqbkw@marketplace.amazon.com	Ashley Bauers	+1 415-851-9136 ext. 17397	ABR004	Dozen Yellow Rose	1	0	1	Expedited	Kim Gardner	4400 COBALT DR			HARWOOD	MD	20776-9621	US		Hi Aunt Kim,  We wish you a speedy recovery from your surgery. We love you!   -John, Ashley & Lindsey	false		
112-0596708-6761006	34368250046578	2020-12-30T15:17:21+00:00	2020-12-30T07:17:21-08:00	2020-12-30T15:52:34+00:00	2021-01-05T07:59:59+00:00	-6	966mz42r9g9zm1n@marketplace.amazon.com	Janice Brabaw	+1 415-851-9136 ext. 10236	ABR0033	Delivery by Tuesday, Jan 5 Dozen Orange Roses in a Free Vase by Arabella Bouquets	1	0	1	Expedited	Noreen Stickney	208 WERKLEY RD			TONAWANDA	NY	14150-9221	US		Hi Noreen,  Thank you for thinking of me at Christmas!  Your gifts were lovely. Hope you enjoy the flowers!  Janice	false		
114-5739816-5861007	17082065963882	2020-12-30T15:27:20+00:00	2020-12-30T07:27:20-08:00	2020-12-30T15:55:06+00:00	2021-01-05T07:59:59+00:00	-6	9fry7rzdr4l73yv@marketplace.amazon.com	Alicia Leonard-Stacker	+1 602-671-6610 ext. 92986	ABC001	Delivery by Tuesday, Jan 5 Seasons Greetings Bouquet by Arabella Bouquets	1	0	1	Expedited	Karin Mitchell-Parker	804 E CARL AVE			BALDWIN	NY	11510-1901	US		Happy Birthday Spec!!  Love ya for life.  Enjoy your special day.  xoxo From Alicia Leonard-Stacker	false		
114-1923845-1071437	22741414597978	2020-12-30T15:32:18+00:00	2020-12-30T07:32:18-08:00	2020-12-30T15:59:52+00:00	2021-01-05T07:59:59+00:00	-6	gt3zhc63105kr4y@marketplace.amazon.com	David Holm	+1 619-854-2705 ext. 92270	ABR001	Delivery by Tuesday, Janaury 5<br>DozenRed Roses in a Free Vase b<br> Arabella Bouquets	1	0	1	Expedited	Glendyne Holm	618 CEDAR ST NW			DEMOTTE	IN	46310-9515	US		Happy Birthday Mom Love, David & Mary	false		
112-5956291-7941821	09742462713074	2020-12-30T15:44:17+00:00	2020-12-30T07:44:17-08:00	2020-12-30T16:11:36+00:00	2021-01-05T07:59:59+00:00	-6	nrzvls3yt5vqz7m@marketplace.amazon.com	Karen Hartnagel	+1 602-671-6610 ext. 76283	ABM022	Delivery by Tuesday, January 5 Purple Extravagance Bouquet by Arabella Bouquets	1	0	1	Expedited	Florence Wade	HERITAGE CREEKSIDE	1471 SUNGATE DR APT 1101		KISSIMMEE	FL	34746-8809	US		Keep smiling Aunt Florrie!  We love you! Love Karen, Billy, Diane, Jimmy, Julie and Harold From Karen Hartnagel	false		
111-0918058-6789056	26655927355050	2020-12-30T15:42:57+00:00	2020-12-30T07:42:57-08:00	2020-12-30T16:11:38+00:00	2021-01-05T07:59:59+00:00	-6	dbcdf22x2jxqwm8@marketplace.amazon.com	Emily Comstock	+1 415-851-9136 ext. 35774	ABR0066	Delivery by Tuesday, Jan 5 Dozen White Roses in a Free Vase by Arabella Bouquets	1	0	1	Expedited	jane comstock	120 OLD CLAREMONT RD			CHARLESTOWN	NH	03603-4333	US		Happy 60th and Happy New Year! Love you more than anything! From XO, Emily and Chris	false		
111-4323541-7631451	23829703427962	2020-12-30T15:49:30+00:00	2020-12-30T07:49:30-08:00	2020-12-30T16:18:56+00:00	2021-01-05T07:59:59+00:00	-6	0w0my55kgztwbmr@marketplace.amazon.com	Justin H. Dion	+1 415-419-8616 ext. 77794	ABR001	Delivery by Tuesday, Janaury 5 Dozen Red Roses in a Free Vase by Arabella Bouquets	1	0	1	Expedited	Susan Dion	158 CHESTNUT ST			WILLIMANTIC	CT	06226-2436	US		Happy 25th Birthday!  We love and miss you. From Justin H. Dion	false		
111-2530258-0764208	00033659627530	2020-12-30T15:50:51+00:00	2020-12-30T07:50:51-08:00	2020-12-30T16:20:43+00:00	2021-01-05T07:59:59+00:00	-6	0w0my55kgztwbmr@marketplace.amazon.com	Justin H. Dion	+1 213-442-1463 ext. 79489	ABR001	Delivery by Tuesday, Janaury 5 Dozen Red Roses in a Free Vase by Arabella Bouquets	1	0	1	Expedited	Bonnie Dion	2868 S GREENSIDE PL			GREEN VALLEY	AZ	85614-1145	US		Happy 25th Birthday!   We love and miss you guys! From Justin H. Dion	false		
112-4295588-9141065	14337435628834	2020-12-30T16:04:51+00:00	2020-12-30T08:04:51-08:00	2020-12-30T16:26:51+00:00	2021-01-05T07:59:59+00:00	-6	7h4r42jfwph4v9w@marketplace.amazon.com	Ryan theis	+1 415-851-9136 ext. 19076	ABM020	Delivery by Tuesday, Jan 5 Sunset Bouquet by Arabella Bouquets	1	0	1	Expedited	Anne Bulik	GRANITE FARMS	1343 W BALTIMORE PIKE APT B 414		MEDIA	PA	19063-5561	US		Happy Birthday ❤️ From Jim, Colleen,Ryan & Kira	false		
113-9258624-3285034	61679926191786	2020-12-30T16:06:48+00:00	2020-12-30T08:06:48-08:00	2020-12-30T16:36:19+00:00	2021-01-05T07:59:59+00:00	-6	v90f5vhwcq3xscb@marketplace.amazon.com	Kathryn A Godby	+1 213-442-1463 ext. 13547	ABR0066	Delivery by Tuesday, January 5 Dozen White Roses in a Free Vase by Arabella Bouquets	1	0	1	Expedited	Jan Godby	2909 WOODLAND AVE APT 614			DES MOINES	IA	50312-3873	US		We love you and miss you  Kate, Andy, Amy, Clint, Joshua and Chelsea From Kathryn A Godby	false		
111-1914622-9773856	56144967690106	2020-12-30T16:22:38+00:00	2020-12-30T08:22:38-08:00	2020-12-30T16:51:34+00:00	2021-01-05T07:59:59+00:00	-6	r2yjsql9b51jz60@marketplace.amazon.com	nicole Johnson Phillips	+1 602-671-6610 ext. 90870	ABR0033	Delivery by Tuesday, January 5 Dozen Orange Roses in a Free Vase by Arabella Bouquets	1	0	1	Expedited	Janice Booze	3710 LANDER LN			COLORADO SPRINGS	CO	80909-1523	US			false		
111-6595263-8455427	43654901519306	2020-12-30T16:28:36+00:00	2020-12-30T08:28:36-08:00	2020-12-30T16:58:13+00:00	2021-01-05T07:59:59+00:00	-6	zlkmn0xx3f0px9t@marketplace.amazon.com	Benjamin Budhu	+1 213-442-1463 ext. 61988	ABM026	Delivery by Tuesday, January 5 Amour Bouquet by Arabella Bouquets	1	0	1	Expedited	Dennis and Alana Veges	11911 SE 60TH ST			WHITEWATER	KS	67154-8859	US		Love you guys!! From The Budhu Family	true		
114-1344440-4877011	25285623167122	2020-12-30T16:35:30+00:00	2020-12-30T08:35:30-08:00	2020-12-30T17:03:29+00:00	2021-01-05T07:59:59+00:00	-6	rphtkmsp9kl7rcn@marketplace.amazon.com	Marge H. Sudol	+1 415-419-8616 ext. 99727	ABR0055	Delivery by Tuesday, January 5 Dozen Hot Pink Roses in a Free Vase by Arabella Bouquets	1	0	1	Expedited	John and Genevieve Sudol	35 RIVER LANDING DR			PALM COAST	FL	32137-1531	US		Dear Mom, Wishing you a wonderful birthday! Love you, John & Marge💞	false		
111-1518654-0501068	55548824511354	2020-12-30T16:37:10+00:00	2020-12-30T08:37:10-08:00	2020-12-30T17:05:01+00:00	2021-01-05T07:59:59+00:00	-6	pssy14yrwlkf274@marketplace.amazon.com	Garrett	+1 415-419-8616 ext. 24634	ABR001	Delivery by Tuesday, Janaury 5 Dozen Red Roses in a Free Vase by Arabella Bouquets	1	0	1	Expedited	Arlyn Hixon	214 FREEMAN DR			BILOXI	MS	39531-3212	US		Words cant describe how amazing you are. I love you to the stars and back. ❤ From Garrett	false		
111-9055164-9143419	21457030885018	2020-12-30T16:42:33+00:00	2020-12-30T08:42:33-08:00	2020-12-30T17:12:09+00:00	2021-01-05T07:59:59+00:00	-6	jpzdy8dyxn6fdfx@marketplace.amazon.com	Michael Beck	+1 213-442-1463 ext. 70409	ABR0022	Delivery by Tuesday, January 5 Dozen Pink Roses with a Free Vase by Arabella Bouquets	1	0	1	Expedited	Livia Beck	1110 CEDAR DR W			NEW HYDE PARK	NY	11040-1206	US			false		
113-8189865-4357068	55862233350178	2020-12-30T16:52:29+00:00	2020-12-30T08:52:29-08:00	2020-12-30T17:17:28+00:00	2021-01-05T07:59:59+00:00	-6	04dhv2g14pt5hk3@marketplace.amazon.com	Gloria J. Louris	+1 415-419-8616 ext. 33848	ABR0022	Delivery by Tuesday, January 5 Dozen Pink Roses with a Free Vase by Arabella Bouquets	1	0	1	Expedited	Melanie Bianchi-Rossi	11868 EVERGREEN CIR NW			COON RAPIDS	MN	55448-2475	US		Hi Melanie, I’m sorry for your loss ,  Now he will be with Bella, can you just imagine what trouble they will get in together. You can talk to me any time.🤗😘 Love Mom From Gloria J. Louris	false		
113-9659218-4404260	23793939167882	2020-12-30T16:53:14+00:00	2020-12-30T08:53:14-08:00	2020-12-30T17:20:15+00:00	2021-01-05T07:59:59+00:00	-6	dhq9cht5b2db75v@marketplace.amazon.com	Patricia Crouch	+1 602-671-6610 ext. 84852	ABM010	Delivery by Tuesday, Jan 5 Everlasting Fling with a Free Glass Vase by Arabella Bouquets	1	0	1	Expedited	Maria Litvinova	1146 W. Rangeview Circle			Bloomington	IN	47403	US		With our deepest sympathies on your recent loss. From Dean David Allison & Your School of Public Health Family	true		
113-6664593-4838616	32648069694074	2020-12-30T16:57:29+00:00	2020-12-30T08:57:29-08:00	2020-12-30T17:23:48+00:00	2021-01-05T07:59:59+00:00	-6	c8h6wv0xp2k4v3b@marketplace.amazon.com	Aaron	+1 480-618-5344 ext. 49093	ABR0022	Delivery by Tuesday, January 5 Dozen Pink Roses with a Free Vase by Arabella Bouquets	1	0	1	Expedited	Andie Harclerode	2914 BRINGHURST ST			HOUSTON	TX	77026-5633	US		Congratulations Andie! We can't wait to meet the baby. We love you <3 From Alyssa, Sarah, and Sam	false		
112-0705987-0685803	33763238406194	2020-12-30T16:59:18+00:00	2020-12-30T08:59:18-08:00	2020-12-30T17:24:10+00:00	2021-01-05T07:59:59+00:00	-6	k5p0zycghfpx69n@marketplace.amazon.com	Chandrika Trivedi	+1 415-419-8616 ext. 40994	ABM010	Delivery by Tuesday, Jan 5 Everlasting Fling with a Free Glass Vase by Arabella Bouquets	1	0	1	Expedited	Lisa Westlake	6526 Old Brick Rd suite 102-316			Windermere	FL	34786	US		Dear Lisa, I wish you a very happy birthday. Enjoy your day. From CT	false		
111-8601550-8499434	34418999733946	2020-12-30T17:03:34+00:00	2020-12-30T09:03:34-08:00	2020-12-30T17:31:21+00:00	2021-01-05T07:59:59+00:00	-6	t7xb3ykczlwd7b7@marketplace.amazon.com	Philonda Short	+1 213-442-1463 ext. 83357	ABR0022	Delivery by Tuesday, January 5 Dozen Pink Roses with a Free Vase by Arabella Bouquets	1	0	1	Expedited	Mary Scott	2536 MELLVILLE AVE APT 1111			DECATUR	GA	30032-4178	US			false		
111-0486036-6888222	51573130206474	2020-12-30T17:07:19+00:00	2020-12-30T09:07:19-08:00	2020-12-30T17:34:51+00:00	2021-01-05T07:59:59+00:00	-6	6f10s3d5w3ppn9m@marketplace.amazon.com	Daniel Barreros	+1 213-442-1463 ext. 14428	ABM020	Delivery by Tuesday, January 5 Sunset Bouquet by Arabella Bouquets	1	0	1	Expedited	Gloria Barreros	7423 HOWARD CT			FALLS CHURCH	VA	22043-1338	US		Happy birthday, mom! Wishing you health and happiness on this day and everyday. We love you! From Giannino and Lottie	false		
111-5725018-1583437	53396860509354	2020-12-30T17:05:50+00:00	2020-12-30T09:05:50-08:00	2020-12-30T17:35:05+00:00	2021-01-05T07:59:59+00:00	-6	rs92xr19tgw3786@marketplace.amazon.com	Xavier Olave	+1 213-442-1463 ext. 92675	ABC001	Delivery by Tuesday, January 5 Seasons Greetings Bouquet by Arabella Bouquets	1	0	1	Expedited	Tatyana Werner	323 E 93RD ST APT 2E			NEW YORK	NY	10128-5533	US		Wishing you a very special and happy New Year, Tatyana. Let's leave 2020 behind and have a great 2021. Yours truly and much love,  Xavier From Xavier Olave	false		
111-5074871-9801056	23185515826138	2020-12-30T17:18:17+00:00	2020-12-30T09:18:17-08:00	2020-12-30T17:47:05+00:00	2021-01-05T07:59:59+00:00	-6	f3h96lx1187kmx4@marketplace.amazon.com	Ellen	+1 415-851-9136 ext. 24753	ABM026	Delivery by Tuesday, January 5 Amour Bouquet by Arabella Bouquets	1	0	1	Expedited	David & Nicole Bronson	76 AL HENDERSON BLVD UNIT E-5			SAVANNAH	GA	31419-0004	US		Happy Birthday! From,Ellen,Michael,Tom and the whole Bronson/Pollitt clan. From Ellen	false		
112-6179912-4301012	36193609926722	2020-12-30T17:25:46+00:00	2020-12-30T09:25:46-08:00	2020-12-30T17:47:54+00:00	2021-01-05T07:59:59+00:00	-6	qsbwm3hl9r9166r@marketplace.amazon.com	Gevik Derhovanesian	+1 619-854-2705 ext. 65495	ABR0022	Delivery by Tuesday, January 5 Dozen Pink Roses with a Free Vase by Arabella Bouquets	1	0	1	Expedited	Hanriet babaian	8539 CALLIE AVE UNIT 2			MORTON GROVE	IL	60053-2802	US		HANRIET JAN,  WE WISH YOU HEALTH AND HAPPINESS ON YOUR BIRTHDAY AND FOREVER! LOVE FRANK & GEVIK From Gevik Derhovanesian	false		
111-3639520-6326633	05272886452978	2020-12-30T17:31:40+00:00	2020-12-30T09:31:40-08:00	2020-12-30T17:57:28+00:00	2021-01-05T07:59:59+00:00	-6	c1dkk28q3cvzhz1@marketplace.amazon.com	Nancy Lucero	+1 213-442-1463 ext. 98796	ABR0022	Delivery by Tuesday, January 5 Dozen Pink Roses with a Free Vase by Arabella Bouquets	1	0	1	Expedited	Maria Estela Reyes	980 W HERMISTON AVE APT F-12			HERMISTON	OR	97838-1589	US		Feliz año Nuevo, mamí! Que Dios la bendiga en este nuevo año! La queremos mucho! ~Sus hijos, Nancy, Michael, Lenora y Natalia From Nancy Lucero	false		
113-7898438-7012235	60590534308538	2020-12-30T17:32:29+00:00	2020-12-30T09:32:29-08:00	2020-12-30T17:58:48+00:00	2021-01-05T07:59:59+00:00	-6	rq40njdcd1mfm1v@marketplace.amazon.com	Paul Johnson	+1 415-419-8616 ext. 94138	ABR0022	Delivery by Tuesday, January 5 Dozen Pink Roses with a Free Vase by Arabella Bouquets	1	0	1	Expedited	Sadea Quist	511 E 17TH ST			CHEYENNE	WY	82001-4611	US		Dear Sades, I'm so sorry to hear of the loss of your cat, but I hope your new kitty brings you lots of joy and these flowers brighten your day. I'm sending you lots of love and a million hugs! Xoxo From Desirae Johnson	false		
114-2436023-7790657	28292175255354	2020-12-30T17:40:54+00:00	2020-12-30T09:40:54-08:00	2020-12-30T18:10:04+00:00	2021-01-05T07:59:59+00:00	-6	5v0k2qs8ml1p3mv@marketplace.amazon.com	Dawn R Elliott	+1 415-851-9136 ext. 24478	ABM020	Delivery by Tuesday, January 5 Sunset Bouquet by Arabella Bouquets	1	0	1	Expedited	Vilma Bryan	1001 GEORGE ST			SEBASTIAN	FL	32958-5569	US		Congratulations on your retirement! Could not have come at a better time. From Dawn and Peter Elliott	false		
113-0162117-2317871	44543442541298	2020-12-30T17:44:25+00:00	2020-12-30T09:44:25-08:00	2020-12-30T18:13:18+00:00	2021-01-05T07:59:59+00:00	-6	wcqkqjm3yttgtzk@marketplace.amazon.com	Hannah Collins	0019168774027	ABM026	Delivery by Tuesday, January 5 Amour Bouquet by Arabella Bouquets	1	0	1	Expedited	Richard Collins	26228 114TH LN SE			KENT	WA	98030-8483	US		Welcome to your new home. Lots of love Mum and Rich Xxx From Hannah Collins	false		
111-0241992-1993852	53531459906642	2020-12-30T17:08:44+00:00	2020-12-30T09:08:44-08:00	2020-12-30T18:13:59+00:00	2021-01-05T07:59:59+00:00	-6	kw1j72xghdtv3jx@marketplace.amazon.com	Lauren Toner		ABM022	Delivery by Tuesday, January 5 Purple Extravagance Bouquet by Arabella Bouquets	1	0	1	Expedited	Khan FamilyPOC14720	381 Las Colinas Blvd	Apartment 3002		Irving	TX	75039	US		Congratulations on your new baby girl from your NFI family From NFI	true	C14720	
111-3022285-5522607	01506334718186	2020-12-30T18:03:34+00:00	2020-12-30T10:03:34-08:00	2020-12-30T18:18:01+00:00	2021-01-05T07:59:59+00:00	-6	l73y27xdm6c7krb@marketplace.amazon.com	Matthew Oliverio	+1 213-442-1463 ext. 03524	ABR0022	Delivery by Tuesday, January 5 Dozen Pink Roses with a Free Vase by Arabella Bouquets	1	0	1	Expedited	Dr. Rebecca Merrill	5124 DUXBURY DR			COPLEY	OH	44321-1005	US		Dr. Merrill, You are an extremely caring person and the most supportive program director ever. Sam and I are beyond grateful for your unyielding support and kindness.Thank you so much! From Matt Oliverio	false		
114-0897680-4262652	07853533630850	2020-12-30T17:54:01+00:00	2020-12-30T09:54:01-08:00	2020-12-30T18:22:46+00:00	2021-01-05T07:59:59+00:00	-6	xkyhd5n8w574j2m@marketplace.amazon.com	Mathew McKenna	+1 602-671-6610 ext. 43636	ABR0022	Delivery by Tuesday, January 5 Dozen Pink Roses with a Free Vase by Arabella Bouquets	1	0	1	Expedited	Tom McKenna	403 N 3RD ST			MUSCODA	WI	53573-9297	US		Happy Birthday Mom, miss you and love you.  Your girls in Texas can’t wait to give you hugs. From Mathew McKenna	false		
111-5071791-1474655	59251574043130	2020-12-30T17:59:52+00:00	2020-12-30T09:59:52-08:00	2020-12-30T18:27:40+00:00	2021-01-05T07:59:59+00:00	-6	qs9xmjvbd435lfq@marketplace.amazon.com	Tom Morrissey	+1 415-851-9136 ext. 14689	ABM022	Delivery by Tuesday, January 5 Purple Extravagance Bouquet by Arabella Bouquets	1	0	1	Expedited	Thomas Morrissey	1025 W 20TH ST			SANTA ANA	CA	92706-3523	US		Hi Mom, Enjoy these beautiful flowers on your special day.   Happy Birthday- Much Love, Tom, Karen, Joseph. From Tom Morrissey	false		
114-8286908-8864217	13482890065650	2020-12-30T18:08:26+00:00	2020-12-30T10:08:26-08:00	2020-12-30T18:32:12+00:00	2021-01-05T07:59:59+00:00	-6	y1bcjmvlnkvnylj@marketplace.amazon.com	Richard Gordon	+1 213-442-1463 ext. 62277	ABM020	Delivery by Tuesday, January 5 Sunset Bouquet by Arabella Bouquets	1	0	1	Expedited	Carolyn Anglin	4583 REDFISH POINT RD			MATLACHA	FL	33993-9617	US		Happy Birthday Carolyn,  What a wonderful day to celebrate our 32 years of friendship. What a gift you have been to me. Enjoy your day and the year ahead. From Connie and Rick	false		
