order-id	order-item-id	purchase-date	payments-date	reporting-date	promise-date	days-past-promise	buyer-email	buyer-name	buyer-phone-number	sku	product-name	quantity-purchased	quantity-shipped	quantity-to-ship	ship-service-level	recipient-name	ship-address-1	ship-address-2	ship-address-3	ship-city	ship-state	ship-postal-code	ship-country	gift-wrap-type	gift-message-text	is-business-order	purchase-order-number	price-designation
114-9746714-0158609	63635629239250	2020-12-28T18:06:39+00:00	2020-12-28T10:06:39-08:00	2020-12-28T18:32:34+00:00	2020-12-31T07:59:59+00:00	0	7fc2g80rs31y9k8@marketplace.amazon.com	adamtchevalier@hotmail.com	+1 415-851-9136 ext. 45277	ABR0066	Delivery by Wednesday, Dec 30 Dozen White Roses in a Free Vase by Arabella Bouquets	1	0	1	Expedited	Jen Johanson and Family	73 HAWTHORNE ST			LYNN	MA	01902-3775	US		Jen and family. We are so sorry for your loss and cry/pray with you during this difficult time. We know the sting of loss this year too. Your mom/gram was wonderful. She is dancing in heaven today! From Adam, Kelly, and Kids	false		
113-1906763-3869804	08187254724586	2020-12-29T17:46:23+00:00	2020-12-29T09:46:23-08:00	2020-12-29T18:09:58+00:00	2021-01-01T07:59:59+00:00	-1	0fgym5hfn84078w@marketplace.amazon.com	svetlana v hart	+1 346-307-9643 ext. 04639	ABM010	Delivery by Thursday, Dec 31 Everlasting Fling with a Free Glass Vase by Arabella Bouquets	1	0	1	Expedited	Janet Stewart	216 PLEASANT POINTE DR			LEXINGTON	KY	40517-4474	US		Dear Janet, We are so sorry for your loss. We hope you feel surrounded by much love. May this new 2021 year bring you comfort and peace. With love, Craig, Svetlana and Sonya Hart From Hart family	false		
114-2936026-7489021	12549137395474	2020-12-29T17:45:11+00:00	2020-12-29T09:45:11-08:00	2020-12-29T18:14:48+00:00	2021-01-01T07:59:59+00:00	-1	c96zmc3vz0b89wv@marketplace.amazon.com	Julie A. Hoover	+1 213-442-1463 ext. 92289	ABC001	Delivery by Thursday, Dec 31 Seasons Greetings Bouquet by Arabella Bouquets	1	0	1	Expedited	Phyllis Rader	2341 W NORVELL BRYANT HWY			LECANTO	FL	34461-9438	US		We hope you had a wonderful Christmas and a Happy New Year! Love you. From Julie and Casey Sears	false		
111-0370879-3145864	60840486252962	2020-12-29T17:47:35+00:00	2020-12-29T09:47:35-08:00	2020-12-29T18:16:58+00:00	2021-01-01T07:59:59+00:00	-1	9xyqr5rb7hnzcp1@marketplace.amazon.com	elisebreed	+1 415-419-8616 ext. 26402	ABC002	Delivery by Thursday, Dec 31 Warm Wishes Bouquet by Arabella Bouquets	1	0	1	Expedited	Lisa Sherman	6410 HOFFMAN LN			COOPERSBURG	PA	18036-3027	US			false		
111-7710422-6397828	25773207457634	2020-12-30T07:49:39+00:00	2020-12-29T23:49:39-08:00	2020-12-30T08:20:14+00:00	2021-01-01T07:59:59+00:00	-1	wc5bx7289ccrx9t@marketplace.amazon.com	Elaine Borja	+1 619-854-2705 ext. 90534	ABR0022	Delivery by Tuesday, Jan 5 Dozen Pink Roses with a Free Vase by Arabella Bouquets	1	0	1	Expedited	Elaine Borja	900 W HEATHER AVE			LA HABRA	CA	90631-4521	US			false		
114-9214991-7883432	15320977594066	2020-12-30T08:21:35+00:00	2020-12-30T00:21:35-08:00	2020-12-30T08:50:08+00:00	2021-01-05T07:59:59+00:00	-5	2dsks87czhg8rwn@marketplace.amazon.com	Andrew Maybrook	+1 619-854-2705 ext. 00883	ABR0055	Delivery by Tuesday, Jan 5 Dozen Hot Pink Roses in a Free Vase by Arabella Bouquets	1	0	1	Expedited	Sally Maybrook	2000 BURR OAK LN			HIGHLAND PARK	IL	60035-4202	US		Lots of love from Ian, Xhoi and Dori!  Happy Holidays, Sweet Aunt Sally  :-) From Ian Xhoi Dori	false		
112-8133563-3718612	03866725303162	2020-12-30T09:29:24+00:00	2020-12-30T01:29:24-08:00	2020-12-30T09:37:51+00:00	2021-01-05T07:59:59+00:00	-5	kvmtkjtzn604dnl@marketplace.amazon.com	diana jones	+1 602-671-6610 ext. 37608	ABR0066	Delivery by Tuesday, Jan 5 Dozen White Roses in a Free Vase by Arabella Bouquets	1	0	1	Expedited	Mrs. Lisa Kelly	3 YOSEMITE CIR			BOHEMIA	NY	11716-4118	US		As my aunt/godmother u always make me (and my boys!) feel very special. It always puts a big smile on my face! So I wanted to send u these to thank u and hopefully make u smile and tell u how very special u r to me too! ❤️ From Diana Jones	false		
114-3304608-5604219	48792503020634	2020-12-30T09:32:21+00:00	2020-12-30T01:32:21-08:00	2020-12-30T10:01:41+00:00	2021-01-05T07:59:59+00:00	-5	sdhfs761lc60cld@marketplace.amazon.com	Kathrine Vogt	+1 619-854-2705 ext. 04150	ABR0022	Delivery by Tuesday, Jan 5 Dozen Pink Roses with a Free Vase by Arabella Bouquets	1	0	1	Expedited	Kathrine Vogt-Rardin	5304-28 th Avenue South			Minneapolis	MN	55417	US		You can do this! From Your friend	false		
111-1750773-6635421	33842279424946	2020-12-30T10:07:10+00:00	2020-12-30T02:07:10-08:00	2020-12-30T10:35:59+00:00	2021-01-05T07:59:59+00:00	-5	8w8zcjwn88b7fnq@marketplace.amazon.com	Christine Parks	+1 480-618-5344 ext. 07652	ABR0055	Delivery by Tuesday, Jan 5 Dozen Hot Pink Roses in a Free Vase by Arabella Bouquets	1	0	1	Expedited	Adele Martinez	15824 Catalpa			Southfield	MI	48076	US		Happy birthday mom. From Christine Parks	false		
111-4231645-8241064	67011037860370	2020-12-30T11:03:58+00:00	2020-12-30T03:03:58-08:00	2020-12-30T11:32:38+00:00	2021-01-05T07:59:59+00:00	-5	bkjd1wdby40gl6t@marketplace.amazon.com	V S Rhodes	447766443584	ABM0033	Delivery by Tuesday, Jan 5 White Hydrangea 5 Stems with a Free Glass Vase by Arabella Bouquets	1	0	1	Expedited	Bev Morton	85 ROBSART RD			KENILWORTH	IL	60043-1210	US		Bev, Hope you have a wonderful birthday! Love from Verity, David, Josh and Sam x x From V S Rhodes	false		
114-7450428-7701862	08045469161546	2020-12-30T11:22:42+00:00	2020-12-30T03:22:42-08:00	2020-12-30T11:51:50+00:00	2021-01-05T07:59:59+00:00	-5	wm3rrqfbbmvbkfd@marketplace.amazon.com	Michelle Forman	+1 415-851-9136 ext. 94829	ABC001	Delivery by Tuesday, Jan 5 Seasons Greetings Bouquet by Arabella Bouquets	1	0	1	Expedited	Peggy Fluman	2330 MAPLE RD APT 172			WILLIAMSVILLE	NY	14221-4056	US		Happy Birthday Mom! From Michelle Forman	false		
114-9063029-2215428	35362895750570	2020-12-30T11:34:50+00:00	2020-12-30T03:34:50-08:00	2020-12-30T12:05:28+00:00	2021-01-05T07:59:59+00:00	-5	hbhw9rwpk11dn2b@marketplace.amazon.com	Kelly Hutcheson	+1 602-671-6610 ext. 29167	ABR0022	Delivery by Tuesday, Jan 5 Dozen Pink Roses with a Free Vase by Arabella Bouquets	1	0	1	Expedited	Kelly Hutch	5 RENAISSANCE SQ APT 26 E			WHITE PLAINS	NY	10601-3048	US			false		
112-8434366-3641013	40527839447722	2020-12-30T12:09:25+00:00	2020-12-30T04:09:25-08:00	2020-12-30T12:40:08+00:00	2021-01-05T07:59:59+00:00	-5	l3m3b3wvq8r9l09@marketplace.amazon.com	Jeffrey B Thomassen	+1 480-618-5344 ext. 18583	ABR0022	Delivery by Tuesday, Jan 5 Dozen Pink Roses with a Free Vase by Arabella Bouquets	1	0	1	Expedited	Jeff Thomassen	45 Wyckham Rd			Tinton Falls	New Jersey	07724	US			false		
111-5457085-7377821	45934469947530	2020-12-30T12:17:00+00:00	2020-12-30T04:17:00-08:00	2020-12-30T12:46:12+00:00	2021-01-05T07:59:59+00:00	-5	h9sww39cqdy32sj@marketplace.amazon.com	l. lew	+1 602-671-6610 ext. 72032	ABR0022	Delivery by Tuesday, Jan 5 Dozen Pink Roses with a Free Vase by Arabella Bouquets	1	0	1	Expedited	Camille Reddick	2819 MILL ISLAND PKWY			FREDERICK	MD	21701-6620	US		Enjoy your birthday gift! From Linda	false		
113-5479402-6290663	68081962192922	2020-12-30T12:38:05+00:00	2020-12-30T04:38:05-08:00	2020-12-30T13:07:01+00:00	2021-01-05T07:59:59+00:00	-5	3yn1kmhntccfjvq@marketplace.amazon.com	Jason Stiltner	+1 415-851-9136 ext. 73056	ABR0022	Delivery by Tuesday, Jan 5 Dozen Pink Roses with a Free Vase by Arabella Bouquets	1	0	1	Expedited	Sandra Chmiel	6047 N LATSON RD			HOWELL	MI	48855-7278	US		Sandy, So sorry for your loss. May good things happen for you in 2021.  Lots of love from your friend, Jason From Jason Stiltner	false		
112-9480172-4845805	21436657281306	2020-12-30T12:49:25+00:00	2020-12-30T04:49:25-08:00	2020-12-30T13:18:38+00:00	2021-01-05T07:59:59+00:00	-5	nrqd2xr3h5cc0ly@marketplace.amazon.com	Paul-and-Krista	+1 213-442-1463 ext. 82238	ABM025	Delivery by Tuesday, Jan 5 Fell for You Bouquet by Arabella Bouquets	1	0	1	Expedited	Zora Coleman	335 SE LAKEVIEW DR			KEYSTONE HEIGHTS	FL	32656-9206	US		We are thinking of you and hope you're feeling better soon. Much love, Pablo and Krista From Paul-and-Krista	false		
111-3467433-3169040	16969325784626	2020-12-30T13:09:12+00:00	2020-12-30T05:09:12-08:00	2020-12-30T13:39:12+00:00	2021-01-05T07:59:59+00:00	-5	8bncqfg1c450fm1@marketplace.amazon.com	carrie jacobson	+1 619-854-2705 ext. 88450	ABC001	Delivery by Tuesday, Jan 5 Seasons Greetings Bouquet by Arabella Bouquets	1	0	1	Expedited	Kathy owen	11259 PRESWICK BLVD			EDEN PRAIRIE	MN	55344-4417	US			false		
113-3897786-9940218	14672536150474	2020-12-30T13:22:01+00:00	2020-12-30T05:22:01-08:00	2020-12-30T13:48:48+00:00	2021-01-05T07:59:59+00:00	-5	y46qc4lj7pknz93@marketplace.amazon.com	Tina All	+1 213-442-1463 ext. 87847	ABR0033	Delivery by Tuesday, Jan 5 Dozen Orange Roses in a Free Vase by Arabella Bouquets	1	0	1	Expedited	Joan Johnson	2225 KNOCKTREE DR			INDIAN TRAIL	NC	28079-5005	US		Hoping these flowers brighten your day!!  Relax and soak up this time with your family! From CCSS Physicians and Staff	true		
112-7920764-9307406	56515573561562	2020-12-30T13:28:15+00:00	2020-12-30T05:28:15-08:00	2020-12-30T13:57:01+00:00	2021-01-05T07:59:59+00:00	-5	nkxsnp880c0bkt9@marketplace.amazon.com	Danielle Kiefer	+1 213-442-1463 ext. 05787	ABM022	Delivery by Tuesday, Jan 5, Dec 30 Purple Extravagance Bouquet by Arabella Bouquets	1	0	1	Expedited	Cindy Wetterman	993 APPLE VALLEY DR			BARTLETT	IL	60103-5601	US		Thinking of you From Patrice	false		
112-5233034-1777033	00798271511674	2020-12-30T13:28:01+00:00	2020-12-30T05:28:01-08:00	2020-12-30T13:58:01+00:00	2021-01-05T07:59:59+00:00	-5	129ppv1wz35v0wj@marketplace.amazon.com	Frederick Polk	+1 602-671-6610 ext. 39824	ABR0022	Delivery by Tuesday, Jan 5 Dozen Pink Roses with a Free Vase by Arabella Bouquets	1	0	1	Expedited	Tammye Taylor Polk	312 SUMMER PL			JOHNSON CITY	TN	37601-1357	US			false		
111-1003564-2815445	69567600240906	2020-12-30T13:35:19+00:00	2020-12-30T05:35:19-08:00	2020-12-30T14:03:16+00:00	2021-01-05T07:59:59+00:00	-5	9lbn3hqwlqdspzb@marketplace.amazon.com	Heather	+1 929-436-4790 ext. 81905	ABR0033	Delivery by Tuesday, Jan 5 Dozen Orange Roses in a Free Vase by Arabella Bouquets	1	0	1	Expedited	Julie LoGiudice	10550 W ALEXANDER RD UNIT 1069			LAS VEGAS	NV	89129-3504	US		Wishing you a very happy birthday! We love you lots! From Joe, Heather, Ari, Gav & Abi	false		
114-7499769-5517017	53171272527514	2020-12-30T13:52:41+00:00	2020-12-30T05:52:41-08:00	2020-12-30T14:21:55+00:00	2021-01-05T07:59:59+00:00	-5	cdf1ymvwvh6zntx@marketplace.amazon.com	HAL W Pearce	+1 619-854-2705 ext. 45380	ABR0033	Delivery by Tuesday, Jan 5 Dozen Orange Roses in a Free Vase by Arabella Bouquets	1	0	1	Expedited	Cheryl Slatton	418 OAKDALE CHURCH RD			JUDSONIA	AR	72081-9145	US		Hope you get feeling better soon. From Love Hal & Julie	false		
112-5307751-5130637	56566700337602	2020-12-30T14:17:49+00:00	2020-12-30T06:17:49-08:00	2020-12-30T14:45:49+00:00	2021-01-05T07:59:59+00:00	-5	t2z7g0t5k5n98w8@marketplace.amazon.com	Jennifer Carter	+1 480-618-5344 ext. 13402	ABM022	Delivery by Tuesday, Jan 5 Purple Extravagance Bouquet by Arabella Bouquets	1	0	1	Expedited	Ms. Verna	3317 BELLE AVE			BALTIMORE	MD	21215-6136	US		A mother is with us always, first in her lifetime, then forever in our memory. From With Sympathy, I’Keisha Reid	false		
114-2059327-0113826	07630580185242	2020-12-30T14:30:00+00:00	2020-12-30T06:30:00-08:00	2020-12-30T15:00:30+00:00	2021-01-05T07:59:59+00:00	-5	pm3sm95h9zv2vjp@marketplace.amazon.com	Mary Yotopoulos	+1 602-671-6610 ext. 68415	ABR0055	Delivery by Tuesday, Jan 5 Dozen Hot Pink Roses in a Free Vase by Arabella Bouquets	1	0	1	Expedited	Mary Yotopoulos	315 HOMER AVE UNIT 101			PALO ALTO	CA	94301-2761	US			false		
114-8214030-9154603	64983197988338	2020-12-30T15:04:38+00:00	2020-12-30T07:04:38-08:00	2020-12-30T15:32:12+00:00	2021-01-05T07:59:59+00:00	-5	wnll6qtj0nmqr2y@marketplace.amazon.com	Nancy Skalinski	+1 415-851-9136 ext. 49104	ABR0055	Delivery by Tuesday, Jan 5 Dozen Hot Pink Roses in a Free Vase by Arabella Bouquets	1	0	1	Expedited	Beth and Jack Didie	627 CHRISTOPHER DR			CLAYTON	NC	27520-5585	US			false		
114-6736786-9896230	28668142714970	2020-12-30T15:04:54+00:00	2020-12-30T07:04:54-08:00	2020-12-30T15:34:05+00:00	2021-01-05T07:59:59+00:00	-5	6vfl391r5tqfkbq@marketplace.amazon.com	Atsushi Narita	+1 415-419-8616 ext. 50251	ABM022	Delivery by Tuesday, January 5 Purple Extravagance Bouquet by Arabella Bouquets	1	0	1	Expedited	Keiko Ishida c/o IACE Travel	535 8TH AVE STE 801			NEW YORK	NY	10018-4305	US		Happy Birthday Kaicho! From Staffs from IACE NYC	false		
114-8825674-6947412	58337790180394	2020-12-30T15:11:49+00:00	2020-12-30T07:11:49-08:00	2020-12-30T15:42:13+00:00	2021-01-05T07:59:59+00:00	-5	m1jbc7xr30r77f5@marketplace.amazon.com	Ziad Haider	+1 602-671-6610 ext. 58652	ABR0022	Delivery by Tuesday, Jan 5 Dozen Pink Roses with a Free Vase by Arabella Bouquets	1	0	1	Expedited	Allen Feliz	22 White Street Place	Unit 3		Sommerville	MA	02144	US			false		
112-7291714-9011444	61501551690778	2020-12-30T15:16:17+00:00	2020-12-30T07:16:17-08:00	2020-12-30T15:44:06+00:00	2021-01-05T07:59:59+00:00	-5	wgbr1pzqz6tt55b@marketplace.amazon.com	Jesnaliz Gipson	+1 619-854-2705 ext. 82132	ABM010	Delivery by Tuesday, Jan 5 Everlasting Fling with a Free Glass Vase by Arabella Bouquets	1	0	1	Expedited	Jessie and Mary Gipson	803 E POPLAR ST			ATMORE	AL	36502-3146	US		Happy Anniversary! We love y’all so much! Thank y’all for everything y’all do for us! We hope to one day reach as many years as y’all. We love y’all! From Your son + Daughter	false		
111-2516574-0725869	31503056590578	2020-12-30T15:15:43+00:00	2020-12-30T07:15:43-08:00	2020-12-30T15:46:21+00:00	2021-01-05T07:59:59+00:00	-5	7h1rj15qfhvppnw@marketplace.amazon.com	Frank Valentich	+1 602-671-6610 ext. 13483	ABC001	Delivery by Tuesday, Jan 5 Seasons Greetings Bouquet by Arabella Bouquets	1	0	1	Expedited	Frank Valentich	270 AMERICAN RIVER CANYON DR			FOLSOM	CA	95630-7147	US			false		
112-9292763-9377015	05376605034706	2020-12-30T15:17:21+00:00	2020-12-30T07:17:21-08:00	2020-12-30T15:48:37+00:00	2021-01-05T07:59:59+00:00	-5	966mz42r9g9zm1n@marketplace.amazon.com	Janice Brabaw	+1 415-851-9136 ext. 49976	ABR0022	Delivery by Tuesday, Jan 5 Dozen Pink Roses with a Free Vase by Arabella Bouquets	1	0	1	Expedited	Gina Brabaw	1700 COUNTY ROUTE 19			RICHVILLE	NY	13681-3125	US		Everyone needs a little cheer during the winter xoxo  Love,  Janice	false		
114-1355636-5672231	45869487001234	2020-12-30T15:19:38+00:00	2020-12-30T07:19:38-08:00	2020-12-30T15:49:03+00:00	2021-01-05T07:59:59+00:00	-5	19j4x06yf7zqbkw@marketplace.amazon.com	Ashley Bauers	+1 415-851-9136 ext. 17397	ABR004	Dozen Yellow Rose	1	0	1	Expedited	Kim Gardner	4400 COBALT DR			HARWOOD	MD	20776-9621	US		Hi Aunt Kim,  We wish you a speedy recovery from your surgery. We love you!   -John, Ashley & Lindsey	false		
112-0596708-6761006	34368250046578	2020-12-30T15:17:21+00:00	2020-12-30T07:17:21-08:00	2020-12-30T15:52:34+00:00	2021-01-05T07:59:59+00:00	-5	966mz42r9g9zm1n@marketplace.amazon.com	Janice Brabaw	+1 415-851-9136 ext. 10236	ABR0033	Delivery by Tuesday, Jan 5 Dozen Orange Roses in a Free Vase by Arabella Bouquets	1	0	1	Expedited	Noreen Stickney	208 WERKLEY RD			TONAWANDA	NY	14150-9221	US		Hi Noreen,  Thank you for thinking of me at Christmas!  Your gifts were lovely. Hope you enjoy the flowers!  Janice	false		
114-5739816-5861007	17082065963882	2020-12-30T15:27:20+00:00	2020-12-30T07:27:20-08:00	2020-12-30T15:55:06+00:00	2021-01-05T07:59:59+00:00	-5	9fry7rzdr4l73yv@marketplace.amazon.com	Alicia Leonard-Stacker	+1 602-671-6610 ext. 92986	ABC001	Delivery by Tuesday, Jan 5 Seasons Greetings Bouquet by Arabella Bouquets	1	0	1	Expedited	Karin Mitchell-Parker	804 E CARL AVE			BALDWIN	NY	11510-1901	US		Happy Birthday Spec!!  Love ya for life.  Enjoy your special day.  xoxo From Alicia Leonard-Stacker	false		
114-1923845-1071437	22741414597978	2020-12-30T15:32:18+00:00	2020-12-30T07:32:18-08:00	2020-12-30T15:59:52+00:00	2021-01-05T07:59:59+00:00	-5	gt3zhc63105kr4y@marketplace.amazon.com	David Holm	+1 619-854-2705 ext. 92270	ABR001	Delivery by Tuesday, Janaury 5<br>DozenRed Roses in a Free Vase b<br> Arabella Bouquets	1	0	1	Expedited	Glendyne Holm	618 CEDAR ST NW			DEMOTTE	IN	46310-9515	US		Happy Birthday Mom Love, David & Mary	false		
112-5956291-7941821	09742462713074	2020-12-30T15:44:17+00:00	2020-12-30T07:44:17-08:00	2020-12-30T16:11:36+00:00	2021-01-05T07:59:59+00:00	-5	nrzvls3yt5vqz7m@marketplace.amazon.com	Karen Hartnagel	+1 602-671-6610 ext. 76283	ABM022	Delivery by Tuesday, January 5 Purple Extravagance Bouquet by Arabella Bouquets	1	0	1	Expedited	Florence Wade	HERITAGE CREEKSIDE	1471 SUNGATE DR APT 1101		KISSIMMEE	FL	34746-8809	US		Keep smiling Aunt Florrie!  We love you! Love Karen, Billy, Diane, Jimmy, Julie and Harold From Karen Hartnagel	false		
111-0918058-6789056	26655927355050	2020-12-30T15:42:57+00:00	2020-12-30T07:42:57-08:00	2020-12-30T16:11:38+00:00	2021-01-05T07:59:59+00:00	-5	dbcdf22x2jxqwm8@marketplace.amazon.com	Emily Comstock	+1 415-851-9136 ext. 35774	ABR0066	Delivery by Tuesday, Jan 5 Dozen White Roses in a Free Vase by Arabella Bouquets	1	0	1	Expedited	jane comstock	120 OLD CLAREMONT RD			CHARLESTOWN	NH	03603-4333	US		Happy 60th and Happy New Year! Love you more than anything! From XO, Emily and Chris	false		
111-4323541-7631451	23829703427962	2020-12-30T15:49:30+00:00	2020-12-30T07:49:30-08:00	2020-12-30T16:18:56+00:00	2021-01-05T07:59:59+00:00	-5	0w0my55kgztwbmr@marketplace.amazon.com	Justin H. Dion	+1 415-419-8616 ext. 77794	ABR001	Delivery by Tuesday, Janaury 5 Dozen Red Roses in a Free Vase by Arabella Bouquets	1	0	1	Expedited	Susan Dion	158 CHESTNUT ST			WILLIMANTIC	CT	06226-2436	US		Happy 25th Birthday!  We love and miss you. From Justin H. Dion	false		
111-2530258-0764208	00033659627530	2020-12-30T15:50:51+00:00	2020-12-30T07:50:51-08:00	2020-12-30T16:20:43+00:00	2021-01-05T07:59:59+00:00	-5	0w0my55kgztwbmr@marketplace.amazon.com	Justin H. Dion	+1 213-442-1463 ext. 79489	ABR001	Delivery by Tuesday, Janaury 5 Dozen Red Roses in a Free Vase by Arabella Bouquets	1	0	1	Expedited	Bonnie Dion	2868 S GREENSIDE PL			GREEN VALLEY	AZ	85614-1145	US		Happy 25th Birthday!   We love and miss you guys! From Justin H. Dion	false		
112-4295588-9141065	14337435628834	2020-12-30T16:04:51+00:00	2020-12-30T08:04:51-08:00	2020-12-30T16:26:51+00:00	2021-01-05T07:59:59+00:00	-5	7h4r42jfwph4v9w@marketplace.amazon.com	Ryan theis	+1 415-851-9136 ext. 19076	ABM020	Delivery by Tuesday, Jan 5 Sunset Bouquet by Arabella Bouquets	1	0	1	Expedited	Anne Bulik	GRANITE FARMS	1343 W BALTIMORE PIKE APT B 414		MEDIA	PA	19063-5561	US		Happy Birthday ❤️ From Jim, Colleen,Ryan & Kira	false		
113-9258624-3285034	61679926191786	2020-12-30T16:06:48+00:00	2020-12-30T08:06:48-08:00	2020-12-30T16:36:19+00:00	2021-01-05T07:59:59+00:00	-5	v90f5vhwcq3xscb@marketplace.amazon.com	Kathryn A Godby	+1 213-442-1463 ext. 13547	ABR0066	Delivery by Tuesday, January 5 Dozen White Roses in a Free Vase by Arabella Bouquets	1	0	1	Expedited	Jan Godby	2909 WOODLAND AVE APT 614			DES MOINES	IA	50312-3873	US		We love you and miss you  Kate, Andy, Amy, Clint, Joshua and Chelsea From Kathryn A Godby	false		
111-1914622-9773856	56144967690106	2020-12-30T16:22:38+00:00	2020-12-30T08:22:38-08:00	2020-12-30T16:51:34+00:00	2021-01-05T07:59:59+00:00	-5	r2yjsql9b51jz60@marketplace.amazon.com	nicole Johnson Phillips	+1 602-671-6610 ext. 90870	ABR0033	Delivery by Tuesday, January 5 Dozen Orange Roses in a Free Vase by Arabella Bouquets	1	0	1	Expedited	Janice Booze	3710 LANDER LN			COLORADO SPRINGS	CO	80909-1523	US			false		
111-6595263-8455427	43654901519306	2020-12-30T16:28:36+00:00	2020-12-30T08:28:36-08:00	2020-12-30T16:58:13+00:00	2021-01-05T07:59:59+00:00	-5	zlkmn0xx3f0px9t@marketplace.amazon.com	Benjamin Budhu	+1 213-442-1463 ext. 61988	ABM026	Delivery by Tuesday, January 5 Amour Bouquet by Arabella Bouquets	1	0	1	Expedited	Dennis and Alana Veges	11911 SE 60TH ST			WHITEWATER	KS	67154-8859	US		Love you guys!! From The Budhu Family	true		
114-1344440-4877011	25285623167122	2020-12-30T16:35:30+00:00	2020-12-30T08:35:30-08:00	2020-12-30T17:03:29+00:00	2021-01-05T07:59:59+00:00	-5	rphtkmsp9kl7rcn@marketplace.amazon.com	Marge H. Sudol	+1 415-419-8616 ext. 99727	ABR0055	Delivery by Tuesday, January 5 Dozen Hot Pink Roses in a Free Vase by Arabella Bouquets	1	0	1	Expedited	John and Genevieve Sudol	35 RIVER LANDING DR			PALM COAST	FL	32137-1531	US		Dear Mom, Wishing you a wonderful birthday! Love you, John & Marge💞	false		
111-1518654-0501068	55548824511354	2020-12-30T16:37:10+00:00	2020-12-30T08:37:10-08:00	2020-12-30T17:05:01+00:00	2021-01-05T07:59:59+00:00	-5	pssy14yrwlkf274@marketplace.amazon.com	Garrett	+1 415-419-8616 ext. 24634	ABR001	Delivery by Tuesday, Janaury 5 Dozen Red Roses in a Free Vase by Arabella Bouquets	1	0	1	Expedited	Arlyn Hixon	214 FREEMAN DR			BILOXI	MS	39531-3212	US		Words cant describe how amazing you are. I love you to the stars and back. ❤ From Garrett	false		
111-9055164-9143419	21457030885018	2020-12-30T16:42:33+00:00	2020-12-30T08:42:33-08:00	2020-12-30T17:12:09+00:00	2021-01-05T07:59:59+00:00	-5	jpzdy8dyxn6fdfx@marketplace.amazon.com	Michael Beck	+1 213-442-1463 ext. 70409	ABR0022	Delivery by Tuesday, January 5 Dozen Pink Roses with a Free Vase by Arabella Bouquets	1	0	1	Expedited	Livia Beck	1110 CEDAR DR W			NEW HYDE PARK	NY	11040-1206	US			false		
113-8189865-4357068	55862233350178	2020-12-30T16:52:29+00:00	2020-12-30T08:52:29-08:00	2020-12-30T17:17:28+00:00	2021-01-05T07:59:59+00:00	-5	04dhv2g14pt5hk3@marketplace.amazon.com	Gloria J. Louris	+1 415-419-8616 ext. 33848	ABR0022	Delivery by Tuesday, January 5 Dozen Pink Roses with a Free Vase by Arabella Bouquets	1	0	1	Expedited	Melanie Bianchi-Rossi	11868 EVERGREEN CIR NW			COON RAPIDS	MN	55448-2475	US		Hi Melanie, I’m sorry for your loss ,  Now he will be with Bella, can you just imagine what trouble they will get in together. You can talk to me any time.🤗😘 Love Mom From Gloria J. Louris	false		
113-9659218-4404260	23793939167882	2020-12-30T16:53:14+00:00	2020-12-30T08:53:14-08:00	2020-12-30T17:20:15+00:00	2021-01-05T07:59:59+00:00	-5	dhq9cht5b2db75v@marketplace.amazon.com	Patricia Crouch	+1 602-671-6610 ext. 84852	ABM010	Delivery by Tuesday, Jan 5 Everlasting Fling with a Free Glass Vase by Arabella Bouquets	1	0	1	Expedited	Maria Litvinova	1146 W. Rangeview Circle			Bloomington	IN	47403	US		With our deepest sympathies on your recent loss. From Dean David Allison & Your School of Public Health Family	true		
113-6664593-4838616	32648069694074	2020-12-30T16:57:29+00:00	2020-12-30T08:57:29-08:00	2020-12-30T17:23:48+00:00	2021-01-05T07:59:59+00:00	-5	c8h6wv0xp2k4v3b@marketplace.amazon.com	Aaron	+1 480-618-5344 ext. 49093	ABR0022	Delivery by Tuesday, January 5 Dozen Pink Roses with a Free Vase by Arabella Bouquets	1	0	1	Expedited	Andie Harclerode	2914 BRINGHURST ST			HOUSTON	TX	77026-5633	US		Congratulations Andie! We can't wait to meet the baby. We love you <3 From Alyssa, Sarah, and Sam	false		
112-0705987-0685803	33763238406194	2020-12-30T16:59:18+00:00	2020-12-30T08:59:18-08:00	2020-12-30T17:24:10+00:00	2021-01-05T07:59:59+00:00	-5	k5p0zycghfpx69n@marketplace.amazon.com	Chandrika Trivedi	+1 415-419-8616 ext. 40994	ABM010	Delivery by Tuesday, Jan 5 Everlasting Fling with a Free Glass Vase by Arabella Bouquets	1	0	1	Expedited	Lisa Westlake	6526 Old Brick Rd suite 102-316			Windermere	FL	34786	US		Dear Lisa, I wish you a very happy birthday. Enjoy your day. From CT	false		
111-8601550-8499434	34418999733946	2020-12-30T17:03:34+00:00	2020-12-30T09:03:34-08:00	2020-12-30T17:31:21+00:00	2021-01-05T07:59:59+00:00	-5	t7xb3ykczlwd7b7@marketplace.amazon.com	Philonda Short	+1 213-442-1463 ext. 83357	ABR0022	Delivery by Tuesday, January 5 Dozen Pink Roses with a Free Vase by Arabella Bouquets	1	0	1	Expedited	Mary Scott	2536 MELLVILLE AVE APT 1111			DECATUR	GA	30032-4178	US			false		
111-0486036-6888222	51573130206474	2020-12-30T17:07:19+00:00	2020-12-30T09:07:19-08:00	2020-12-30T17:34:51+00:00	2021-01-05T07:59:59+00:00	-5	6f10s3d5w3ppn9m@marketplace.amazon.com	Daniel Barreros	+1 213-442-1463 ext. 14428	ABM020	Delivery by Tuesday, January 5 Sunset Bouquet by Arabella Bouquets	1	0	1	Expedited	Gloria Barreros	7423 HOWARD CT			FALLS CHURCH	VA	22043-1338	US		Happy birthday, mom! Wishing you health and happiness on this day and everyday. We love you! From Giannino and Lottie	false		
111-5725018-1583437	53396860509354	2020-12-30T17:05:50+00:00	2020-12-30T09:05:50-08:00	2020-12-30T17:35:05+00:00	2021-01-05T07:59:59+00:00	-5	rs92xr19tgw3786@marketplace.amazon.com	Xavier Olave	+1 213-442-1463 ext. 92675	ABC001	Delivery by Tuesday, January 5 Seasons Greetings Bouquet by Arabella Bouquets	1	0	1	Expedited	Tatyana Werner	323 E 93RD ST APT 2E			NEW YORK	NY	10128-5533	US		Wishing you a very special and happy New Year, Tatyana. Let's leave 2020 behind and have a great 2021. Yours truly and much love,  Xavier From Xavier Olave	false		
111-5074871-9801056	23185515826138	2020-12-30T17:18:17+00:00	2020-12-30T09:18:17-08:00	2020-12-30T17:47:05+00:00	2021-01-05T07:59:59+00:00	-5	f3h96lx1187kmx4@marketplace.amazon.com	Ellen	+1 415-851-9136 ext. 24753	ABM026	Delivery by Tuesday, January 5 Amour Bouquet by Arabella Bouquets	1	0	1	Expedited	David & Nicole Bronson	76 AL HENDERSON BLVD UNIT E-5			SAVANNAH	GA	31419-0004	US		Happy Birthday! From,Ellen,Michael,Tom and the whole Bronson/Pollitt clan. From Ellen	false		
112-6179912-4301012	36193609926722	2020-12-30T17:25:46+00:00	2020-12-30T09:25:46-08:00	2020-12-30T17:47:54+00:00	2021-01-05T07:59:59+00:00	-5	qsbwm3hl9r9166r@marketplace.amazon.com	Gevik Derhovanesian	+1 619-854-2705 ext. 65495	ABR0022	Delivery by Tuesday, January 5 Dozen Pink Roses with a Free Vase by Arabella Bouquets	1	0	1	Expedited	Hanriet babaian	8539 CALLIE AVE UNIT 2			MORTON GROVE	IL	60053-2802	US		HANRIET JAN,  WE WISH YOU HEALTH AND HAPPINESS ON YOUR BIRTHDAY AND FOREVER! LOVE FRANK & GEVIK From Gevik Derhovanesian	false		
111-3639520-6326633	05272886452978	2020-12-30T17:31:40+00:00	2020-12-30T09:31:40-08:00	2020-12-30T17:57:28+00:00	2021-01-05T07:59:59+00:00	-5	c1dkk28q3cvzhz1@marketplace.amazon.com	Nancy Lucero	+1 213-442-1463 ext. 98796	ABR0022	Delivery by Tuesday, January 5 Dozen Pink Roses with a Free Vase by Arabella Bouquets	1	0	1	Expedited	Maria Estela Reyes	980 W HERMISTON AVE APT F-12			HERMISTON	OR	97838-1589	US		Feliz año Nuevo, mamí! Que Dios la bendiga en este nuevo año! La queremos mucho! ~Sus hijos, Nancy, Michael, Lenora y Natalia From Nancy Lucero	false		
113-7898438-7012235	60590534308538	2020-12-30T17:32:29+00:00	2020-12-30T09:32:29-08:00	2020-12-30T17:58:48+00:00	2021-01-05T07:59:59+00:00	-5	rq40njdcd1mfm1v@marketplace.amazon.com	Paul Johnson	+1 415-419-8616 ext. 94138	ABR0022	Delivery by Tuesday, January 5 Dozen Pink Roses with a Free Vase by Arabella Bouquets	1	0	1	Expedited	Sadea Quist	511 E 17TH ST			CHEYENNE	WY	82001-4611	US		Dear Sades, I'm so sorry to hear of the loss of your cat, but I hope your new kitty brings you lots of joy and these flowers brighten your day. I'm sending you lots of love and a million hugs! Xoxo From Desirae Johnson	false		
114-2436023-7790657	28292175255354	2020-12-30T17:40:54+00:00	2020-12-30T09:40:54-08:00	2020-12-30T18:10:04+00:00	2021-01-05T07:59:59+00:00	-5	5v0k2qs8ml1p3mv@marketplace.amazon.com	Dawn R Elliott	+1 415-851-9136 ext. 24478	ABM020	Delivery by Tuesday, January 5 Sunset Bouquet by Arabella Bouquets	1	0	1	Expedited	Vilma Bryan	1001 GEORGE ST			SEBASTIAN	FL	32958-5569	US		Congratulations on your retirement! Could not have come at a better time. From Dawn and Peter Elliott	false		
113-0162117-2317871	44543442541298	2020-12-30T17:44:25+00:00	2020-12-30T09:44:25-08:00	2020-12-30T18:13:18+00:00	2021-01-05T07:59:59+00:00	-5	wcqkqjm3yttgtzk@marketplace.amazon.com	Hannah Collins	0019168774027	ABM026	Delivery by Tuesday, January 5 Amour Bouquet by Arabella Bouquets	1	0	1	Expedited	Richard Collins	26228 114TH LN SE			KENT	WA	98030-8483	US		Welcome to your new home. Lots of love Mum and Rich Xxx From Hannah Collins	false		
111-0241992-1993852	53531459906642	2020-12-30T17:08:44+00:00	2020-12-30T09:08:44-08:00	2020-12-30T18:13:59+00:00	2021-01-05T07:59:59+00:00	-5	kw1j72xghdtv3jx@marketplace.amazon.com	Lauren Toner		ABM022	Delivery by Tuesday, January 5 Purple Extravagance Bouquet by Arabella Bouquets	1	0	1	Expedited	Khan FamilyPOC14720	381 Las Colinas Blvd	Apartment 3002		Irving	TX	75039	US		Congratulations on your new baby girl from your NFI family From NFI	true	C14720	
111-3022285-5522607	01506334718186	2020-12-30T18:03:34+00:00	2020-12-30T10:03:34-08:00	2020-12-30T18:18:01+00:00	2021-01-05T07:59:59+00:00	-5	l73y27xdm6c7krb@marketplace.amazon.com	Matthew Oliverio	+1 213-442-1463 ext. 03524	ABR0022	Delivery by Tuesday, January 5 Dozen Pink Roses with a Free Vase by Arabella Bouquets	1	0	1	Expedited	Dr. Rebecca Merrill	5124 DUXBURY DR			COPLEY	OH	44321-1005	US		Dr. Merrill, You are an extremely caring person and the most supportive program director ever. Sam and I are beyond grateful for your unyielding support and kindness.Thank you so much! From Matt Oliverio	false		
114-0897680-4262652	07853533630850	2020-12-30T17:54:01+00:00	2020-12-30T09:54:01-08:00	2020-12-30T18:22:46+00:00	2021-01-05T07:59:59+00:00	-5	xkyhd5n8w574j2m@marketplace.amazon.com	Mathew McKenna	+1 602-671-6610 ext. 43636	ABR0022	Delivery by Tuesday, January 5 Dozen Pink Roses with a Free Vase by Arabella Bouquets	1	0	1	Expedited	Tom McKenna	403 N 3RD ST			MUSCODA	WI	53573-9297	US		Happy Birthday Mom, miss you and love you.  Your girls in Texas can’t wait to give you hugs. From Mathew McKenna	false		
111-5071791-1474655	59251574043130	2020-12-30T17:59:52+00:00	2020-12-30T09:59:52-08:00	2020-12-30T18:27:40+00:00	2021-01-05T07:59:59+00:00	-5	qs9xmjvbd435lfq@marketplace.amazon.com	Tom Morrissey	+1 415-851-9136 ext. 14689	ABM022	Delivery by Tuesday, January 5 Purple Extravagance Bouquet by Arabella Bouquets	1	0	1	Expedited	Thomas Morrissey	1025 W 20TH ST			SANTA ANA	CA	92706-3523	US		Hi Mom, Enjoy these beautiful flowers on your special day.   Happy Birthday- Much Love, Tom, Karen, Joseph. From Tom Morrissey	false		
114-8286908-8864217	13482890065650	2020-12-30T18:08:26+00:00	2020-12-30T10:08:26-08:00	2020-12-30T18:32:12+00:00	2021-01-05T07:59:59+00:00	-5	y1bcjmvlnkvnylj@marketplace.amazon.com	Richard Gordon	+1 213-442-1463 ext. 62277	ABM020	Delivery by Tuesday, January 5 Sunset Bouquet by Arabella Bouquets	1	0	1	Expedited	Carolyn Anglin	4583 REDFISH POINT RD			MATLACHA	FL	33993-9617	US		Happy Birthday Carolyn,  What a wonderful day to celebrate our 32 years of friendship. What a gift you have been to me. Enjoy your day and the year ahead. From Connie and Rick	false		
111-7099441-0862647	30420857648338	2020-12-30T18:09:14+00:00	2020-12-30T10:09:14-08:00	2020-12-30T18:37:12+00:00	2021-01-05T07:59:59+00:00	-5	r7hywy3tbnlw6nb@marketplace.amazon.com	Gabriela	+1 602-671-6610 ext. 54192	ABM023	Delivery by Tuesday, January 5 Morning Sun Bouquet by Arabella Bouquets	1	0	1	Expedited	Martha Arredondo	1202 W 36TH ST			MONAHANS	TX	79756-9325	US		Dear Ms. Martha: I hope these flowers bring some joy to your day. Muchas bendiciones y salud para el 2021! Con cariño, Gabi, Bogar e Inesita From Gabi Baeza	false		
111-0719229-5179438	56007981703722	2020-12-30T18:17:36+00:00	2020-12-30T10:17:36-08:00	2020-12-30T18:43:49+00:00	2021-01-05T07:59:59+00:00	-5	37t8223l9t4cz40@marketplace.amazon.com	Tiffany Herard	+1 415-419-8616 ext. 34625	ABR0033	Delivery by Tuesday, January 5 Dozen Orange Roses in a Free Vase by Arabella Bouquets	1	0	1	Expedited	Pearl Dowe	107 GEORGE ST			OXFORD	GA	30054-2264	US			false		
113-2285425-3646645	55511715915170	2020-12-30T18:35:27+00:00	2020-12-30T10:35:27-08:00	2020-12-30T19:03:14+00:00	2021-01-05T07:59:59+00:00	-5	4ln6f587mxzybxm@marketplace.amazon.com	Yi Wang	+1 213-442-1463 ext. 18897	ABM010	Delivery by Tuesday, Jan 5 Everlasting Fling with a Free Glass Vase by Arabella Bouquets	1	0	1	Expedited	Bill Nancy Morris	2596 FAIRWAY DR			YORK	PA	17402-7883	US		Hi Nancy Bill, hope you are feeling better today. We love you. From Jing Yi Wang	false		
112-3908053-5187427	43939775884226	2020-12-30T18:39:55+00:00	2020-12-30T10:39:55-08:00	2020-12-30T19:09:56+00:00	2021-01-05T07:59:59+00:00	-5	mz3ttgdkqqjpfkk@marketplace.amazon.com	Andrea Lyon	+1 619-854-2705 ext. 91613	ABR015	Delivery by Tuesday, January 5 Arabella Farm Direct Bouquet of 18 Fresh Cut Orange Roses with a Free Glass Vase	1	0	1	Expedited	Jeanine Naviaux	5623 LA JOLLA HERMOSA AVE			LA JOLLA	CA	92037-7549	US			false		
113-5106348-1094600	34485476098434	2020-12-30T18:42:49+00:00	2020-12-30T10:42:49-08:00	2020-12-30T19:11:28+00:00	2021-01-05T07:59:59+00:00	-5	7mg6kxp0jcnfd26@marketplace.amazon.com	Russell Eagleston	+1 415-851-9136 ext. 25560	ABC001	Delivery by Tuesday, January 5 Seasons Greetings Bouquet by Arabella Bouquets	1	0	1	Expedited	Ruth Goodwin	512 CRESCENT DR RM 103			TROY	OH	45373-2718	US			false		
114-3382762-5644242	24800692837554	2020-12-30T18:42:36+00:00	2020-12-30T10:42:36-08:00	2020-12-30T19:11:36+00:00	2021-01-05T07:59:59+00:00	-5	wx002k8wp224vzb@marketplace.amazon.com	Pam Gilkerson	+1 415-419-8616 ext. 56984	ABC001	Delivery by Tuesday, January 5 Seasons Greetings Bouquet by Arabella Bouquets	1	0	1	Expedited	Judy Upton	397 W HILL RD			NEW LEBANON	NY	12125-2003	US		Happy New Year From Dad and Pam	false		
111-4048968-6716221	52450626194898	2020-12-30T18:57:54+00:00	2020-12-30T10:57:54-08:00	2020-12-30T19:13:20+00:00	2021-01-05T07:59:59+00:00	-5	71zhxgj19x62vfy@marketplace.amazon.com	margaret m. katz	+1 415-419-8616 ext. 68145	ABR0022	Delivery by Tuesday, January 5 Dozen Pink Roses with a Free Vase by Arabella Bouquets	1	0	1	Expedited	Alison Wager	711 WILLOW LAKE RD			CHARLESTON	SC	29412-9192	US		A dozen roses for your 12th birthday, and lots of love and kisses! !  Have a wonderful celebration and a terrific year. From Nana and Pop Pop	false		
111-2533415-4018613	43367155288762	2020-12-30T18:47:32+00:00	2020-12-30T10:47:32-08:00	2020-12-30T19:16:58+00:00	2021-01-05T07:59:59+00:00	-5	319m0jvl3d2bpwx@marketplace.amazon.com	Nikole	+1 415-419-8616 ext. 48626	ABR0022	Delivery by Tuesday, January 5 Dozen Pink Roses with a Free Vase by Arabella Bouquets	1	0	1	Expedited	LESLIE GORDON	536 WESTERLY DR			LIMA	OH	45805-5902	US		We love and miss you!  Love Jeff, Nikole, Hannah & Chance From Nikole	false		
112-2972653-7284217	11335478142074	2020-12-30T18:59:49+00:00	2020-12-30T10:59:49-08:00	2020-12-30T19:21:10+00:00	2021-01-05T07:59:59+00:00	-5	pfnn5m9fs0nz5ng@marketplace.amazon.com	Aspen Skilled Healthcare	+1 213-442-1463 ext. 60434	ABR0066	Delivery by Tuesday, January 5 Dozen White Roses in a Free Vase by Arabella Bouquets	1	0	1	Expedited	Prabjot Kaur	1461 KYLE CT			TRACY	CA	95377-7201	US		Wising you a lifetime of joy, love, and may you both be blessed with lifelong happiness.  From all of us at ASPEN Congratulations on your Engagement! From Jay, Jeff, Ryan and The Aspen Team	false		
113-4736539-5359409	53171804175162	2020-12-30T19:03:43+00:00	2020-12-30T11:03:43-08:00	2020-12-30T19:27:40+00:00	2021-01-05T07:59:59+00:00	-5	rhgqtlfmyn0pwy0@marketplace.amazon.com	Ed McCool	+1 415-851-9136 ext. 22277	ABM021	Delivery by Tuesday, January 5 Joyous Bouquet by Arabella Bouquets	1	0	1	Expedited	Jennifer McCool Isaacson	190 E 72ND ST APT 21C			NEW YORK	NY	10021-4374	US		Hi Jen, Thinking of you on your (Mystery of some number between 49 and 51) Birthday!  Your heart is young and your soul is wise, the rest takes care of itself. All our love to you, From Dad and Vicki	false		
111-4937840-7344269	60958051631538	2020-12-30T19:04:32+00:00	2020-12-30T11:04:32-08:00	2020-12-30T19:30:43+00:00	2021-01-05T07:59:59+00:00	-5	25pjz7hd464j2yf@marketplace.amazon.com	Kay Lyons	00353868146550	ABR0022	Delivery by Tuesday, January 5 Dozen Pink Roses with a Free Vase by Arabella Bouquets	1	0	1	Expedited	Ruth Mauro	7 BAYBERRY CT			HOLTSVILLE	NY	11742-2523	US		To Ruth,  Best wishes for the new year.  Hope 2021 is filled with love, happiness and good health. From Kay Lyons	false		
112-3850119-0809015	21759609026690	2020-12-30T19:20:23+00:00	2020-12-30T11:20:23-08:00	2020-12-30T19:48:07+00:00	2021-01-05T07:59:59+00:00	-5	ch2qmlfhy154ngd@marketplace.amazon.com	Aileen Engel	+1 619-854-2705 ext. 91307	ABR0022	Delivery by Tuesday, January 5 Dozen Pink Roses with a Free Vase by Arabella Bouquets	1	0	1	Expedited	Molly Mcdonough	325College Street			Burlington	Vermont	05401	US		Happy 21 Birthday. From Aileen Engel	false		
111-6694047-2403451	22586568729074	2020-12-30T19:30:21+00:00	2020-12-30T11:30:21-08:00	2020-12-30T19:55:27+00:00	2021-01-05T07:59:59+00:00	-5	20s42fbyx2jg8mg@marketplace.amazon.com	alain wahabi	+1 415-419-8616 ext. 53875	ABC001	Delivery by Tuesday, January 5 Seasons Greetings Bouquet by Arabella Bouquets	1	0	1	Expedited	Ruth Johnson	33276 VIA MAYOR			SAN JUAN CAPISTRANO	CA	92675-4627	US		Happy New Year and      THANK YOU   God bless you From Alain and JoAnn	false		
112-4953679-2017011	48535164976290	2020-12-30T19:39:16+00:00	2020-12-30T11:39:16-08:00	2020-12-30T20:06:25+00:00	2021-01-05T07:59:59+00:00	-5	h3vms53v2ztkc5d@marketplace.amazon.com	Crystal Lee	+1 213-442-1463 ext. 48375	ABR0033	Delivery by Tuesday, January 5 Dozen Orange Roses in a Free Vase by Arabella Bouquets	1	0	1	Expedited	Dana Painter	500 KATHERINE AVE			KINGS MOUNTAIN	NC	28086-2521	US		We have enjoyed our time with you. Best of luck with everything that you do. Love Shelley, Sara, Crystal From Crystal Hicks	false		
112-5793867-1702614	39231566033922	2020-12-30T19:57:36+00:00	2020-12-30T11:57:36-08:00	2020-12-30T20:24:17+00:00	2021-01-05T07:59:59+00:00	-5	tf8672xnx1wbzmx@marketplace.amazon.com	Jonathan McAuley	+1 619-854-2705 ext. 81127	ABR0022	Delivery by Tuesday, January 5 Dozen Pink Roses with a Free Vase by Arabella Bouquets	1	0	1	Expedited	Clare Yates	303 OLIVE HILL LN			WOODSIDE	CA	94062-3669	US			false		
114-4551026-3191452	30637768856186	2020-12-30T20:18:38+00:00	2020-12-30T12:18:38-08:00	2020-12-30T20:47:58+00:00	2021-01-05T07:59:59+00:00	-5	g9mqtwb7g7zxpvm@marketplace.amazon.com	Joel J Reinfeld	+1 602-671-6610 ext. 72162	ABR0066	Delivery by Tuesday, January 5 Dozen White Roses in a Free Vase by Arabella Bouquets	1	0	1	Expedited	Roni Jacobson	PHA 5255 COLLINS AVE			MIAMI BEACH	FL	33140-2572	US		Wishing you a quick recovery! From Stephanie	false		
112-2890903-1496242	67943959380642	2020-12-30T20:19:59+00:00	2020-12-30T12:19:59-08:00	2020-12-30T20:48:47+00:00	2021-01-05T07:59:59+00:00	-5	qhcp1rp04sl9vgt@marketplace.amazon.com	D Walburn	+1 619-854-2705 ext. 04118	ABC002	Delivery by Tuesday, January 5 Warm Wishes Bouquet by Arabella Bouquets	1	0	1	Expedited	Ida Lawson	1025 PARKRIDGE AVE			FAIRFIELD	ALABAMA	35064-1549	US		Happy New Year, Ida!  Lots of love from Lindsay and David From D Walburn	false		
112-6891116-4245040	48633035214010	2020-12-30T20:28:02+00:00	2020-12-30T12:28:02-08:00	2020-12-30T20:53:06+00:00	2021-01-05T07:59:59+00:00	-5	b1ls49m1x03rdk4@marketplace.amazon.com	Ron Seban	+1 415-419-8616 ext. 31202	ABR001	Delivery by Tuesday, Janaury 5 Dozen Red Roses in a Free Vase by Arabella Bouquets	1	0	1	Expedited	Cathleen Cremins	819 BUENA VISTA ST UNIT D-8			DUARTE	CA	91010-1703	US			false		
113-6702414-0645026	47547443195250	2020-12-30T20:24:34+00:00	2020-12-30T12:24:34-08:00	2020-12-30T20:54:29+00:00	2021-01-05T07:59:59+00:00	-5	pfxjr6bshvqf82s@marketplace.amazon.com	Chloe Levy	+1 213-442-1463 ext. 26061	ABR0022	Delivery by Tuesday, January 5 Dozen Pink Roses with a Free Vase by Arabella Bouquets	1	0	1	Expedited	Tom Eaton	9208 TOWN GATE LN			BETHESDA	MD	20817-4115	US		Congratulations Maman and Nicola. Finally sealed the deal! So happy this happened. Love you guys the most. From Chloe Levy	false		
113-7282654-4673034	34930642735794	2020-12-30T20:33:25+00:00	2020-12-30T12:33:25-08:00	2020-12-30T20:55:55+00:00	2021-01-05T07:59:59+00:00	-5	t4zp6sydlw4yp1f@marketplace.amazon.com	Kyle Archibald	+1 619-854-2705 ext. 38136	ABR0033	Delivery by Tuesday, January 5 Dozen Orange Roses in a Free Vase by Arabella Bouquets	1	0	1	Expedited	Paola Loupe	1896 RANKIN DR			CARSON CITY	NV	89701-6855	US		Pao te amamos mucho. Recuperate pronto y veni a visitarnos. De Sol y Camila	false		
113-8630189-6277836	14770981759178	2020-12-30T20:33:18+00:00	2020-12-30T12:33:18-08:00	2020-12-30T21:02:38+00:00	2021-01-05T07:59:59+00:00	-5	763mxdplwrxdhwn@marketplace.amazon.com	Larry Gardner	+1 415-851-9136 ext. 66102	ABR0022	Delivery by Tuesday, January 5 Dozen Pink Roses with a Free Vase by Arabella Bouquets	1	0	1	Expedited	Nancy Werner	118 19TH AVE S			ST PETERSBURG	FL	33705-2751	US		Happy New Year Lover. From Larry Gardner	false		
112-0671692-5700229	21671937541170	2020-12-30T20:47:19+00:00	2020-12-30T12:47:19-08:00	2020-12-30T21:04:17+00:00	2021-01-05T07:59:59+00:00	-5	lsd34f5x9dtdkkb@marketplace.amazon.com	Jane S. Wenger	+1 480-618-5344 ext. 45488	ABR0022	Delivery by Tuesday, January 5 Dozen Pink Roses with a Free Vase by Arabella Bouquets	1	0	1	Expedited	Carrina schindler	4829 NE 26TH AVE			PORTLAND	OR	97211-6318	US			false		
113-7801086-8466604	36685872983842	2020-12-30T20:36:04+00:00	2020-12-30T12:36:04-08:00	2020-12-30T21:05:08+00:00	2021-01-05T07:59:59+00:00	-5	j0r8vh084k2nlg2@marketplace.amazon.com	Karla K. Juarez	+1 213-442-1463 ext. 19953	ABR0066	Delivery by Tuesday, January 5 Dozen White Roses in a Free Vase by Arabella Bouquets	1	0	1	Expedited	Erika Woolsey	10113 PINON PL			LAKESIDE	CA	92040-2736	US		Im sorry for your loss Amiga and just know that I am here for you . May she Rest In Peace. With love Marla Castaneda From Marla Castaneda	false		
113-0002952-6573860	52194527923522	2020-12-30T20:40:58+00:00	2020-12-30T12:40:58-08:00	2020-12-30T21:06:46+00:00	2021-01-05T07:59:59+00:00	-5	1zw5jvhhl1km5w4@marketplace.amazon.com	LaMonica Green	+1 415-419-8616 ext. 85846	ABR0033	Delivery by Tuesday, January 5 Dozen Orange Roses in a Free Vase by Arabella Bouquets	1	0	1	Expedited	Mrs. Rebecca Welch	912 W MONROE ST			BLOOMINGTON	IL	61701-3856	US			false		
111-4176004-1838649	06621121009722	2020-12-30T20:49:01+00:00	2020-12-30T12:49:01-08:00	2020-12-30T21:17:49+00:00	2021-01-05T07:59:59+00:00	-5	cjd984rsltzpc5b@marketplace.amazon.com	Amy C. Biegler	+1 619-854-2705 ext. 09154	ABR0022	Delivery by Tuesday, January 5 Dozen Pink Roses with a Free Vase by Arabella Bouquets	1	0	1	Expedited	Marge Biegler	848 WEDGEWOOD DR			CRYSTAL LAKE	IL	60014-6990	US		Mom.  I love you and I am thinking about your loss at this time.  I am sending you my love during this hard time. XXOO. From Bill	false		
114-7620712-2146655	17023890329370	2020-12-30T20:48:58+00:00	2020-12-30T12:48:58-08:00	2020-12-30T21:18:30+00:00	2021-01-05T07:59:59+00:00	-5	m5kx0lpqpd9fflf@marketplace.amazon.com	Laura F Reiff	+1 602-671-6610 ext. 27996	ABR0022	Delivery by Tuesday, January 5 Dozen Pink Roses with a Free Vase by Arabella Bouquets	1	0	1	Expedited	Ali Berkman c/o Nick Reff	1570 LACOSTA DR W			PEMBROKE PINES	FL	33027-2307	US		Congratulations on the New Job!  We know you will be great!  Love, Laura, Jeff, Anna and the Gang From Laura F Reiff	false		
111-1484458-8093065	14726605638106	2020-12-30T21:00:37+00:00	2020-12-30T13:00:37-08:00	2020-12-30T21:23:30+00:00	2021-01-05T07:59:59+00:00	-5	n1blchchm513kyx@marketplace.amazon.com	LouAnn Vandaveer	+1 415-419-8616 ext. 38049	ABM022	Delivery by Tuesday, January 5 Purple Extravagance Bouquet by Arabella Bouquets	1	0	1	Expedited	Paula Prinzing	146 CANYON OAK LOOP			GEORGETOWN	TX	78633-2049	US		Enjoy your gift! HAPPY BIRTHDAY DEAREST PAULA.  I WISH YOU HEALTH, HAPPINESS & PEACE ON THIS YOUR SPECIAL DAY. XOXOXOXOXOXO From LouAnn Vandaveer	false		
113-0707799-1440215	52854644984730	2020-12-30T21:02:41+00:00	2020-12-30T13:02:41-08:00	2020-12-30T21:29:21+00:00	2021-01-05T07:59:59+00:00	-5	24g3t9bdj1nwdr2@marketplace.amazon.com	Patricia Edwards-Ortega	+1 763-225-9463 ext. 27353	ABR001	Delivery by Tuesday, Janaury 5 Dozen Red Roses in a Free Vase by Arabella Bouquets	1	0	1	Expedited	Rose Edwards	24 AUTUMN DR			EAST NORTHPORT	NY	11731-2602	US		Enjoy your gift! From Patricia Edwards-Ortega	false		
112-6888406-0158609	49309112722458	2020-12-30T20:59:11+00:00	2020-12-30T12:59:11-08:00	2020-12-30T21:29:55+00:00	2021-01-05T07:59:59+00:00	-5	ppqn7w8tvwfnpj4@marketplace.amazon.com	christine	+1 480-618-5344 ext. 08819	ABR0022	Delivery by Tuesday, January 5 Dozen Pink Roses with a Free Vase by Arabella Bouquets	1	0	1	Expedited	Cathleen S. Klupka	C/O PALATINE NURSING AND REHAB FACILITY	154 LAFAYETTE ST		PALATINE BRIDGE	NY	13428-9715	US			false		
112-1000774-4793827	21468733697018	2020-12-30T21:06:03+00:00	2020-12-30T13:06:03-08:00	2020-12-30T21:32:25+00:00	2021-01-05T07:59:59+00:00	-5	08yd3jykcp2xw2q@marketplace.amazon.com	Cathy Sachs	+1 602-671-6610 ext. 06533	ABR0033	Delivery by Tuesday, January 5 Dozen Orange Roses in a Free Vase by Arabella Bouquets	1	0	1	Expedited	Austin Magrini	10813 ROBINCREEK LN			FRISCO	TX	75035-8423	US		Happy Birthday, Austin! We love you! From Mom and Gary	false		
113-3578890-2233867	10460381644698	2020-12-30T21:06:08+00:00	2020-12-30T13:06:08-08:00	2020-12-30T21:34:18+00:00	2021-01-05T07:59:59+00:00	-5	38rlt4zvz7r3nsr@marketplace.amazon.com	MrsQ	+1 213-442-1463 ext. 30406	ABM010	Delivery by Tuesday, Jan 5 Everlasting Fling with a Free Glass Vase by Arabella Bouquets	1	0	1	Expedited	Mrs Estella Williams	510 REDBUD LN			SLIDELL	LA	70460-5267	US		Just wanted you to know we are thinking about you. I know some days arent easy to digest the Passing of your Aunt BUT God! I hope these flowers can bring so.e Joy to you and Gill. We Love You! From Quinton and AJ	false		
111-8296044-3186660	53398549456890	2020-12-30T21:14:13+00:00	2020-12-30T13:14:13-08:00	2020-12-30T21:40:14+00:00	2021-01-05T07:59:59+00:00	-5	v4tg0mjx4l5bcnp@marketplace.amazon.com	Sherry	+1 619-854-2705 ext. 68076	ABR0022	Delivery by Tuesday, January 5 Dozen Pink Roses with a Free Vase by Arabella Bouquets	1	0	1	Expedited	Alina Sara Kurtovic	45 WALDO AVE			EAST ROCKAWAY	NY	11518-1419	US		Welcome to the World From Love tia Sherry	false		
114-0939214-2749818	10704186080402	2020-12-30T21:22:43+00:00	2020-12-30T13:22:43-08:00	2020-12-30T21:53:19+00:00	2021-01-05T07:59:59+00:00	-5	df3k35hq6k1lfjf@marketplace.amazon.com	francesca hawk	+1 213-442-1463 ext. 66511	ABM026	Delivery by Tuesday, January 5 Amour Bouquet by Arabella Bouquets	1	0	1	Expedited	francesca hawk	464 Commonwealth blvd			manchester	NJ	08759	US			false		
112-0482650-5805062	39950757277306	2020-12-30T21:33:11+00:00	2020-12-30T13:33:11-08:00	2020-12-30T22:00:08+00:00	2021-01-05T07:59:59+00:00	-5	6fq5fcxxh99c1bs@marketplace.amazon.com	Alison C. Mullen	+1 929-436-4790 ext. 83751	ABR014	Arabella Bouquets 18 Stems of Fresh Cut White Roses in a Free Designer Glass Vase	1	0	1	Expedited	Frances Arnold	4341 ENCINAS DR			LA CANADA FLINTRIDGE	CA	91011-3147	US		Dear Frances,  Very sorry to hear about your brother Bill.  What a tough year for you & your family. We wish you peace, health, and happiness in 2021! From Chris, Ali, Andrew, Alex, and Cathy	false		
111-7729595-9279431	62891326009226	2020-12-30T22:06:21+00:00	2020-12-30T14:06:21-08:00	2020-12-30T22:08:59+00:00	2021-01-05T07:59:59+00:00	-5	00qypys1f50181s@marketplace.amazon.com	S. Jesrani	+1 415-851-9136 ext. 31235	ABR0033	Delivery by Tuesday, January 5 Dozen Orange Roses in a Free Vase by Arabella Bouquets	1	0	1	Expedited	Mohan Jesrani	1052 SE 54TH AVE			OCALA	FL	34480-5040	US		Happy birthday, Mom and Grandma! Hope you have a nice birthday. Miss you and talk to you soon. Love you, Sona, Diya, Rohan and Naveen From Sona, Naveen, Rohan and Diya	false		
111-2337119-0573026	10288757895770	2020-12-30T21:42:10+00:00	2020-12-30T13:42:10-08:00	2020-12-30T22:11:17+00:00	2021-01-05T07:59:59+00:00	-5	20h2mgkyn9tt77b@marketplace.amazon.com	cory siniard	+1 415-851-9136 ext. 76008	ABM020	Delivery by Tuesday, January 5 Sunset Bouquet by Arabella Bouquets	1	0	1	Expedited	Janice Balcom	4290 N FLINT RD			ROSCOMMON	MI	48653-8560	US		Happy Birthday Mom!!! Love you:) From Charity	false		
113-3997016-1095469	14896298699578	2020-12-30T21:42:49+00:00	2020-12-30T13:42:49-08:00	2020-12-30T22:11:45+00:00	2021-01-05T07:59:59+00:00	-5	j8zg7dnqcbd58wc@marketplace.amazon.com	Celeen Evans	+1 213-442-1463 ext. 45315	ABR001	Delivery by Tuesday, Janaury 5 Dozen Red Roses in a Free Vase by Arabella Bouquets	1	0	1	Expedited	Rose Evans	1583 REGENCY DR			MOBILE	AL	36693-4962	US		We wish we could be there to celebrate your day with you. Happy Birthday! From Celeen Tom and Olivia	false		
111-1997089-3809869	49256948553194	2020-12-30T21:57:09+00:00	2020-12-30T13:57:09-08:00	2020-12-30T22:27:45+00:00	2021-01-05T07:59:59+00:00	-5	nrcwt92b4lpyp6m@marketplace.amazon.com	Kevin alexander	+1 602-671-6610 ext. 88083	ABR0033	Delivery by Tuesday, January 5 Dozen Orange Roses in a Free Vase by Arabella Bouquets	1	0	1	Expedited	Kevin alexander	10880 14TH AVE S			SEATTLE	WA	98168-1703	US			false		
111-6398847-8347438	04013143264402	2020-12-30T22:09:14+00:00	2020-12-30T14:09:14-08:00	2020-12-30T22:38:17+00:00	2021-01-05T07:59:59+00:00	-5	zl7nv68qkk3ls0r@marketplace.amazon.com	Connie Winstead	+1 213-442-1463 ext. 67110	ABR0022	Delivery by Tuesday, January 5 Dozen Pink Roses with a Free Vase by Arabella Bouquets	1	0	1	Expedited	Mary Winstead	411 E CALHOUN ST			MANCELONA	MI	49659-9638	US		We love you very much Mary.  So glad you are home.  All our love, Connie & Jenny From Connie Winstead	false		
111-4862555-9921826	30767954417818	2020-12-30T22:23:21+00:00	2020-12-30T14:23:21-08:00	2020-12-30T22:40:14+00:00	2021-01-05T07:59:59+00:00	-5	x13sv9g4xrrhshp@marketplace.amazon.com	Janet Wold	+1 602-671-6610 ext. 81096	ABR0066	Delivery by Tuesday, January 5 Dozen White Roses in a Free Vase by Arabella Bouquets	1	0	1	Expedited	Judy Inslee	4015 164TH ST SW APT 262			LYNNWOOD	WA	98087-6916	US		We are thinking you during this hard time. From Don & Jan Wold	false		
111-5767507-7568200	55461054572778	2020-12-30T22:47:51+00:00	2020-12-30T14:47:51-08:00	2020-12-30T23:14:44+00:00	2021-01-05T07:59:59+00:00	-5	pb7pqttjz83zq3v@marketplace.amazon.com	elliott schafer	+1 619-854-2705 ext. 58209	ABR0022	Delivery by Tuesday, January 5 Dozen Pink Roses with a Free Vase by Arabella Bouquets	1	0	1	Expedited	Esther Park	16719 59TH PL W			LYNNWOOD	WA	98037-8309	US		Happy birthday baby From elliott schafer	false		
111-1451400-9611469	13809607322282	2020-12-30T22:59:11+00:00	2020-12-30T14:59:11-08:00	2020-12-30T23:28:20+00:00	2021-01-05T07:59:59+00:00	-5	1m0vjv5rvktbyxr@marketplace.amazon.com	Joyce  Carrasco	+1 619-854-2705 ext. 27372	ABM010	Delivery by Tuesday, Jan 5 Everlasting Fling with a Free Glass Vase by Arabella Bouquets	1	0	1	Expedited	Roberto Carrasco	4800 E CHIPMUNK HOLW			RIMROCK	AZ	86335-5708	US		Happy Birthday Carmen!!  Love, Joyce and Marissa. From Joyce  Carrasco	false		
112-6189054-3781016	66583764922498	2020-12-30T23:01:30+00:00	2020-12-30T15:01:30-08:00	2020-12-30T23:32:12+00:00	2021-01-05T07:59:59+00:00	-5	lr8p1f0s55wbc1s@marketplace.amazon.com	Linda S. Hart	+1 929-436-4790 ext. 48699	ABR0055	Delivery by Tuesday, January 5 Dozen Hot Pink Roses in a Free Vase by Arabella Bouquets	1	0	1	Expedited	Piper Do	17846 BLACKBRUSH DR			CANYON COUNTRY	CA	91387-3522	US			false		
113-0087325-4133065	01903081054778	2020-12-30T23:07:47+00:00	2020-12-30T15:07:47-08:00	2020-12-30T23:34:37+00:00	2021-01-05T07:59:59+00:00	-5	17xkxyfz6v1r47y@marketplace.amazon.com	Jung Oh	+1 415-419-8616 ext. 78726	ABR0022	Delivery by Tuesday, January 5 Dozen Pink Roses with a Free Vase by Arabella Bouquets	1	0	1	Expedited	Kye Sun Cho	4959 S UPPER FERRY RD			EDEN	MD	21822-2221	US		어머님 아버님 ♡ 새해 복 많이받으세요 2021♡ 올해도 건강하시고, 아프지마시고, 맛난것 많이해주세요♡ From 막내며느리, 막내아들♡	false		
114-8248449-4991447	10553216483122	2020-12-30T23:13:16+00:00	2020-12-30T15:13:16-08:00	2020-12-30T23:38:09+00:00	2021-01-05T07:59:59+00:00	-5	7v0qh8kz5fk3rjw@marketplace.amazon.com	pam yuzon	+1 619-854-2705 ext. 29177	ABR0033	Delivery by Tuesday, January 5 Dozen Orange Roses in a Free Vase by Arabella Bouquets	1	0	1	Expedited	Bob Bothman & family	7365 SW 87TH AVE			PORTLAND	OR	97223-7103	US			false		
113-9887336-2081021	16586620459954	2020-12-30T23:20:06+00:00	2020-12-30T15:20:06-08:00	2020-12-30T23:47:38+00:00	2021-01-05T07:59:59+00:00	-5	slwn5ryhv27xw1g@marketplace.amazon.com	Nicole Streiff	+1 480-618-5344 ext. 75346	ABR011	Delivery by Tuesday, January 5 Arabella Bouquets 18 Stems of Fresh Cut Red Roses in a Free Glass Vase	1	0	1	Expedited	Flannery Streiff c/o Linn Haralson	2414 E ALOHA ST			SEATTLE	WA	98112-4120	US		Especially for our Sweet 16, Happy Birthday!  We love you!!! From Mom & Dad & Gryff	false		
113-9887336-2081021	51608691415338	2020-12-30T23:20:06+00:00	2020-12-30T15:20:06-08:00	2020-12-30T23:47:38+00:00	2021-01-05T07:59:59+00:00	-5	slwn5ryhv27xw1g@marketplace.amazon.com	Nicole Streiff	+1 480-618-5344 ext. 75346	ABSR004	Delivery by Tuesday, Jan 5 White Spray Roses with a Free Glass Vase by Arabella Bouquets	1	0	1	Expedited	Flannery Streiff c/o Linn Haralson	2414 E ALOHA ST			SEATTLE	WA	98112-4120	US		Happy Sweet 16, Flanis!  You are loved!!! From Mom & Dad & Gryff	false		
112-1690938-0947434	02499450955858	2020-12-30T23:21:29+00:00	2020-12-30T15:21:29-08:00	2020-12-30T23:49:19+00:00	2021-01-05T07:59:59+00:00	-5	tjkh0rd86wgnn1l@marketplace.amazon.com	Courtney	+1 415-851-9136 ext. 70873	ABM022	Delivery by Tuesday, January 5 Purple Extravagance Bouquet by Arabella Bouquets	1	0	1	Expedited	Ashley Wegner	5700 N CHATHAM CT			KANSAS CITY	MO	64151-2600	US		Happy birthday baby Jackson! Congrats mom, dad, and pax! We love you!! Xoxo From Love, cc, cj, & mike seavall From Love, cc, cj, & mike seavall	false		
113-5683448-7240235	15390539714506	2020-12-30T23:33:37+00:00	2020-12-30T15:33:37-08:00	2020-12-30T23:53:26+00:00	2021-01-05T07:59:59+00:00	-5	d9qvn2m6nb0mx8w@marketplace.amazon.com	Larry L. Johnson	+1 415-851-9136 ext. 21386	ABR0022	Delivery by Tuesday, January 5 Dozen Pink Roses with a Free Vase by Arabella Bouquets	1	0	1	Expedited	Ms Vicki Najjar	823 INVERRY DR			OLDSMAR	FL	34677-6339	US			false		
112-1348747-4774630	60872377667946	2020-12-30T23:25:09+00:00	2020-12-30T15:25:09-08:00	2020-12-30T23:55:07+00:00	2021-01-05T07:59:59+00:00	-5	wpt526s6dnlvbm2@marketplace.amazon.com	Jen bedell	+1 213-442-1463 ext. 79087	ABR0022	Delivery by Tuesday, January 5 Dozen Pink Roses with a Free Vase by Arabella Bouquets	1	0	1	Expedited	Cindy McDowell	17 VALLEY BARS RD			POCASSET	MA	02559-1750	US		Happy Birthday Cindy! Enjoy! From Jen and Brian	false		
114-9804328-6157852	17902502782826	2020-12-30T23:32:02+00:00	2020-12-30T15:32:02-08:00	2020-12-31T00:02:43+00:00	2021-01-05T07:59:59+00:00	-5	t24ksnp4jz5ry2p@marketplace.amazon.com	Doug Chenault	+1 763-225-9463 ext. 89745	ABM010	Delivery by Tuesday, Jan 5 Everlasting Fling with a Free Glass Vase by Arabella Bouquets	1	0	1	Expedited	Doug Chenault	1241 telluride circle			Lexington	Ky	40509	US			false		
111-7773162-3847453	35111218307594	2020-12-31T00:01:09+00:00	2020-12-30T16:01:09-08:00	2020-12-31T00:05:58+00:00	2021-01-05T07:59:59+00:00	-5	lq3hn99v01l3wkb@marketplace.amazon.com	mckenzie	+1 415-851-9136 ext. 52250	ABR0022	Delivery by Tuesday, January 5 Dozen Pink Roses with a Free Vase by Arabella Bouquets	1	0	1	Expedited	Bianca ortega	1625 SANTA VENETIA ST APT 4302			CHULA VISTA	CA	91913-3096	US		pink is the color of romance and sweetness, for the sweetest woman I’ve ever met and the one who should always be romanced ❤️❤️ I hope this can put a smile on your face. From Mckenzie	false		
113-1056049-2017032	44874642994738	2020-12-30T23:42:20+00:00	2020-12-30T15:42:20-08:00	2020-12-31T00:09:26+00:00	2021-01-05T07:59:59+00:00	-5	cnnj49v1kbr4hcr@marketplace.amazon.com	Kathy Yarmo	+1 415-419-8616 ext. 83737	ABR0033	Delivery by Tuesday, January 5 Dozen Orange Roses in a Free Vase by Arabella Bouquets	1	0	1	Expedited	Susie Kaplan	3150 TOULOUSE CIR			THOUSAND OAKS	CA	91362-4845	US		Dear Susie,  Thank you for being such a supportive sister during this very difficult time.  I love you! From Kathy	false		
114-4277646-6622637	20651032709594	2020-12-30T23:44:32+00:00	2020-12-30T15:44:32-08:00	2020-12-31T00:09:46+00:00	2021-01-05T07:59:59+00:00	-5	g1wzgwy3q1zrcfq@marketplace.amazon.com	Benjamin Carrillo	+1 619-854-2705 ext. 70610	ABR0022	Delivery by Tuesday, January 5 Dozen Pink Roses with a Free Vase by Arabella Bouquets	1	0	1	Expedited	Kelsey Zapana	30 BRITTANY RD			MONTVILLE	NJ	07045-9576	US		Happy New Year bby!! Thanks for making 2020 amazing. Can’t wait to make more memories with you in 2021! Can’t wait to see you too. Miss u lots ❤️!  Love Ben 💕 From Benjamin Carrillo	false		
114-0383530-3393006	47455187830402	2020-12-30T23:47:58+00:00	2020-12-30T15:47:58-08:00	2020-12-31T00:10:14+00:00	2021-01-05T07:59:59+00:00	-5	6jvlkp0mr7nkhzt@marketplace.amazon.com	Kathleen Powell	+1 415-851-9136 ext. 16864	ABR0022	Delivery by Tuesday, January 5 Dozen Pink Roses with a Free Vase by Arabella Bouquets	1	0	1	Expedited	Lola Quail	38241 N 31ST AVE			PHOENIX	AZ	85086-7291	US			false		
113-5242408-7707404	66796045545946	2020-12-30T23:47:20+00:00	2020-12-30T15:47:20-08:00	2020-12-31T00:12:01+00:00	2021-01-05T07:59:59+00:00	-5	rfnwqbwr6hlwpgq@marketplace.amazon.com	konni potts	+1 619-854-2705 ext. 28570	ABB011	Delivery by Tuesday, Jan 5 Arabella Bouquets 24 Stems of Fresh Cut Hot Pink Roses in a Free Designer Glass Vase	1	0	1	Expedited	Mary Strozak	712 JAMES DR			NEWPORT	NC	28570-9489	US		Happy Birthday!!!!! From Mitch & Konni	false		
113-6489735-8725040	10216203703618	2020-12-30T23:45:44+00:00	2020-12-30T15:45:44-08:00	2020-12-31T00:13:41+00:00	2021-01-05T07:59:59+00:00	-5	cnnj49v1kbr4hcr@marketplace.amazon.com	Kathy Yarmo	+1 602-671-6610 ext. 13914	ABR0033	Delivery by Tuesday, January 5 Dozen Orange Roses in a Free Vase by Arabella Bouquets	1	0	1	Expedited	Melinda Price	5815 DOVERWOOD DR NO 24			CULVER CITY	CA	90230-7242	US		Dear Melinda,  Thank you for being such a supportive sister during this very difficult time.  I love you! From Kathy	false		
113-0382301-5861011	62189415788066	2020-12-30T23:49:29+00:00	2020-12-30T15:49:29-08:00	2020-12-31T00:18:02+00:00	2021-01-05T07:59:59+00:00	-5	cnnj49v1kbr4hcr@marketplace.amazon.com	Kathy Yarmo	+1 619-854-2705 ext. 77706	ABR0033	Delivery by Tuesday, January 5 Dozen Orange Roses in a Free Vase by Arabella Bouquets	1	0	1	Expedited	Kenny Price	2791 W BEDFORD AVE			FRESNO	CA	93711-0346	US		Dear Kenny,  Thank you so much for all of your support during this very difficult time.  I love you. From Kathy	false		
113-9187749-7338604	08448318118578	2020-12-30T23:53:41+00:00	2020-12-30T15:53:41-08:00	2020-12-31T00:20:10+00:00	2021-01-05T07:59:59+00:00	-5	pz0qj4htk0x113v@marketplace.amazon.com	Patrick Weiland	+1 602-671-6610 ext. 07643	ABR0022	Delivery by Tuesday, January 5 Dozen Pink Roses with a Free Vase by Arabella Bouquets	1	0	1	Expedited	Catherine Basile	607 N WASHINGTON AVE			PARK RIDGE	IL	60068-3422	US		CONGRATULATIONS CEE CEE (CC)!!!!  May you enjoy many the precious moments with Kennedy Rose!!!! From Love Jen & San	false		
111-1402599-6557815	53379837735714	2020-12-30T23:52:49+00:00	2020-12-30T15:52:49-08:00	2020-12-31T00:20:15+00:00	2021-01-05T07:59:59+00:00	-5	qtz2msjk5nmgbtg@marketplace.amazon.com	patricia	+1 602-671-6610 ext. 88481	ABR0022	Delivery by Tuesday, January 5 Dozen Pink Roses with a Free Vase by Arabella Bouquets	1	0	1	Expedited	Alan Collison	407 DURANT ST			HARLAN	IA	51537-1728	US		Leslie, we were so sad to hear about your dad. May you find comfort in the memories you shared together. From With Love From, Alan & Patty	false		
111-0610880-8826603	42469500515210	2020-12-30T23:55:32+00:00	2020-12-30T15:55:32-08:00	2020-12-31T00:25:36+00:00	2021-01-05T07:59:59+00:00	-5	wygk6s2wy3n8xd9@marketplace.amazon.com	Maggie Donahue	+1 602-671-6610 ext. 91473	ABM010	Delivery by Tuesday, Jan 5 Everlasting Fling with a Free Glass Vase by Arabella Bouquets	1	0	1	Expedited	Mrs. Meg Brooks	100 Thorndale Drive			San Rafael	CA	94903	US			false		
112-2448221-2136229	19723868341114	2020-12-30T23:59:44+00:00	2020-12-30T15:59:44-08:00	2020-12-31T00:29:48+00:00	2021-01-05T07:59:59+00:00	-5	c53bsws47crfxj1@marketplace.amazon.com	Philip Rocker	+1 415-419-8616 ext. 89140	ABR0022	Delivery by Tuesday, January 5 Dozen Pink Roses with a Free Vase by Arabella Bouquets	1	0	1	Expedited	Philip Rocker	5 BRETT CT APT 210			ESSEX	MD	21221-1418	US			false		
111-4679989-5987441	42399909821250	2020-12-31T00:19:47+00:00	2020-12-30T16:19:47-08:00	2020-12-31T00:44:06+00:00	2021-01-05T07:59:59+00:00	-5	pv80b5xcbvsq3wp@marketplace.amazon.com	Jennifer	+1 415-851-9136 ext. 18608	ABR001	Delivery by Tuesday, Janaury 5 Dozen Red Roses in a Free Vase by Arabella Bouquets	1	0	1	Expedited	LaShawna Rutledge	4 SW 11TH AVE			FORT LAUDERDALE	FL	33312-2665	US		Despite everything we been through... I've always love you. Sill do and always will... From Sincerely Mikel	false		
113-5560526-1419412	16636126593410	2020-12-31T00:21:43+00:00	2020-12-30T16:21:43-08:00	2020-12-31T00:45:58+00:00	2021-01-05T07:59:59+00:00	-5	6k2b5slz7m9kjjd@marketplace.amazon.com	John Scanlon	+1 415-419-8616 ext. 40899	ABR0022	Delivery by Tuesday, January 5 Dozen Pink Roses with a Free Vase by Arabella Bouquets	1	0	1	Expedited	Maryann Brody	5600 CENTRAL GARDENS WAY APT 102			PALM BEACH GARDENS	FL	33418-4099	US		Happy New Year.  With gratitude for all you do for us.  Best wishes for 2021 From 3M Open Team	false		
113-1749289-5102662	21306534715386	2020-12-31T00:27:48+00:00	2020-12-30T16:27:48-08:00	2020-12-31T00:56:05+00:00	2021-01-05T07:59:59+00:00	-5	fp9rl148flxgm74@marketplace.amazon.com	Blake Richards	+1 415-419-8616 ext. 87536	ABR0066	Delivery by Tuesday, January 5 Dozen White Roses in a Free Vase by Arabella Bouquets	1	0	1	Expedited	Rose Mary Espinoza	615 S GRAND AVE			FORT LUPTON	CO	80621-1212	US		Happy Birthday Mama!! Hope you enjoy your flowers!! Love, Cas & Blake From Cas & Blake	false		
112-7280822-4264225	16393598775386	2020-12-31T00:30:45+00:00	2020-12-30T16:30:45-08:00	2020-12-31T00:59:00+00:00	2021-01-05T07:59:59+00:00	-5	h1r10bdmhjjjjbd@marketplace.amazon.com	J	+1 602-671-6610 ext. 96325	ABR0022	Delivery by Tuesday, January 5 Dozen Pink Roses with a Free Vase by Arabella Bouquets	1	0	1	Standard	Shamon H.A. Moss	The Trace Apartments 1100 Vogt Drive (Apt 2034)	2034		Weldon Spring	MO	63304	US			false		
113-9908692-4900219	02524986215034	2020-12-31T00:35:44+00:00	2020-12-30T16:35:44-08:00	2020-12-31T01:05:42+00:00	2021-01-05T07:59:59+00:00	-5	cdl97ts9t939b2f@marketplace.amazon.com	Mike Mignone	+1 619-854-2705 ext. 84464	ABR0022	Delivery by Tuesday, January 5 Dozen Pink Roses with a Free Vase by Arabella Bouquets	1	0	1	Expedited	Michael r mignone	5965 SR 309			MONROE TOWNSHIP	PA	18636-7865	US			false		
113-7052551-2858643	52527710267602	2020-12-31T00:50:56+00:00	2020-12-30T16:50:56-08:00	2020-12-31T01:14:13+00:00	2021-01-05T07:59:59+00:00	-5	gr3ktm5nwvvh2vv@marketplace.amazon.com	Marguerite Sansone	+1 602-671-6610 ext. 33496	ABM022	Delivery by Tuesday, January 5 Purple Extravagance Bouquet by Arabella Bouquets	1	0	1	Expedited	Mr. & Mrs. Gene Isotti	5501 CRYSTAL CT			MCKINNEY	TX	75072-5188	US		Gene & Jo - we are deeply saddened by the loss of your father and mother. Everyone is in our thoughts and prayers. From Bob & Ana	false		
113-5733530-6313814	07164886093418	2020-12-31T00:47:14+00:00	2020-12-30T16:47:14-08:00	2020-12-31T01:15:32+00:00	2021-01-05T07:59:59+00:00	-5	7qk0tv7y2y0g2yg@marketplace.amazon.com	Michael	+1 602-671-6610 ext. 37557	ABM022	Delivery by Tuesday, January 5 Purple Extravagance Bouquet by Arabella Bouquets	1	0	1	Expedited	Grace Esposito	102 FERNWOOD RD			BANGOR	PA	18013-9633	US		Happy birthday Gracie From Love Carol	false		
113-7793097-8326634	31692490937330	2020-12-31T00:56:34+00:00	2020-12-30T16:56:34-08:00	2020-12-31T01:22:14+00:00	2021-01-05T07:59:59+00:00	-5	ds4t65gznzzjp8m@marketplace.amazon.com	Tina Bogiages	+1 602-671-6610 ext. 73102	ABR012	Delivery by Tuesday, January 5 Arabella Farm Direct Bouquet of 18 Fresh Cut Pink Roses with a Free Glass Vase	1	0	1	Expedited	Anne Sheridan	599 RIVERWARD DR			MYRTLE BEACH	SC	29588-6332	US		Thinking of you during the loss of your father.   Love you,  Grammie, Tina and Nick From Tina Bogiages	false		
112-8310069-8289027	37833145047338	2020-12-31T01:02:58+00:00	2020-12-30T17:02:58-08:00	2020-12-31T01:32:33+00:00	2021-01-05T07:59:59+00:00	-5	z685wkr0sg25js3@marketplace.amazon.com	Ruth H Igyarto	884423869	ABM010	Delivery by Tuesday, Jan 5 Everlasting Fling with a Free Glass Vase by Arabella Bouquets	1	0	1	Expedited	Pat Piercy	51 BROOKFIELD LN			OLD FORT	NC	28762-8101	US			false		
114-8511730-2130602	42411975773994	2020-12-31T01:18:19+00:00	2020-12-30T17:18:19-08:00	2020-12-31T01:48:43+00:00	2021-01-05T07:59:59+00:00	-5	gn12l34k7nffvwt@marketplace.amazon.com	jerry johnson	+1 415-851-9136 ext. 26755	ABR001	Delivery by Tuesday, Janaury 5 Dozen Red Roses in a Free Vase by Arabella Bouquets	1	0	1	Expedited	Jerry Johnson	North Central Granite Inc.	1217 hwy 2 east p.o. box 897		Devils Lake	ND	58301	US			false		
114-6113313-9271458	18955990233234	2020-12-31T01:36:45+00:00	2020-12-30T17:36:45-08:00	2020-12-31T01:51:56+00:00	2021-01-05T07:59:59+00:00	-5	j6s9wmdhl8fz0l3@marketplace.amazon.com	Jennifer Huckabee	+1 415-851-9136 ext. 39616	ABR0066	Delivery by Tuesday, January 5 Dozen White Roses in a Free Vase by Arabella Bouquets	1	0	1	Expedited	Debbie Rasoulian	777 HEARD AVE			AUBURN	AL	36830-6023	US		We will all miss Margie. Her heart of gold was taken too soon. I'm so sorry.    All my love now and always,  ~Parnaz From Parnaz	false		
114-8227203-6285863	01632339535074	2020-12-31T01:26:32+00:00	2020-12-30T17:26:32-08:00	2020-12-31T01:55:04+00:00	2021-01-05T07:59:59+00:00	-5	fclp8dqc2jt92cv@marketplace.amazon.com	Charles Wyckoff	+1 619-854-2705 ext. 73198	ABM020	Delivery by Tuesday, January 5 Sunset Bouquet by Arabella Bouquets	1	0	1	Expedited	Glenda Ferguson	7679 BELVEDERE PL			RANCHO CUCAMONGA	CA	91730-6663	US			false		
111-4728663-5413032	07213496007602	2020-12-31T01:35:34+00:00	2020-12-30T17:35:34-08:00	2020-12-31T02:03:37+00:00	2021-01-05T07:59:59+00:00	-5	jylpdh04ngw6cfd@marketplace.amazon.com	Julie	+1 213-442-1463 ext. 23684	ABC002	Delivery by Tuesday, January 5 Warm Wishes Bouquet by Arabella Bouquets	1	0	1	Expedited	Jocelyn King	221 WHIRLAWAY LN	FROM SCOTT & JULIE		RICHMOND	KY	40475-7624	US		Thinking of you! From Love, Scott and Julie	false		
114-0180980-4504279	18452333100074	2020-12-31T01:38:15+00:00	2020-12-30T17:38:15-08:00	2020-12-31T02:05:52+00:00	2021-01-05T07:59:59+00:00	-5	x8qkklj98h5cmxk@marketplace.amazon.com	Deb Daugird	+1 619-854-2705 ext. 12970	ABR0022	Delivery by Tuesday, January 5 Dozen Pink Roses with a Free Vase by Arabella Bouquets	1	0	1	Expedited	Mary Bailey	725 DRY VALLEY RD			TOWNSEND	TN	37882-4437	US		Mom, Hope you have a Happy Birthday! From Love Deb and Al	false		
114-3700763-4164205	34740168835538	2020-12-31T01:41:59+00:00	2020-12-30T17:41:59-08:00	2020-12-31T02:08:54+00:00	2021-01-05T07:59:59+00:00	-5	j6s9wmdhl8fz0l3@marketplace.amazon.com	Jennifer Huckabee	+1 415-419-8616 ext. 37447	ABR0066	Delivery by Tuesday, January 5 Dozen White Roses in a Free Vase by Arabella Bouquets	1	0	1	Expedited	Tony Bedford	165 ASHFORD LN			COMMERCE	GA	30529-2070	US		Dear Tony, Your mom had a heart of gold and was taken too soon. We will all miss her. I'm so sorry.   All my love, ~Parnaz From Parnaz	false		
114-8450478-7865816	00510080444650	2020-12-31T01:53:51+00:00	2020-12-30T17:53:51-08:00	2020-12-31T02:23:14+00:00	2021-01-05T07:59:59+00:00	-5	q0h9yt1n2nrv4zd@marketplace.amazon.com	Amy Belflower	+1 619-854-2705 ext. 52787	ABM010	Delivery by Tuesday, Jan 5 Everlasting Fling with a Free Glass Vase by Arabella Bouquets	1	0	1	Expedited	Gail Belflower	1314 UTE CIR			DERIDDER	LA	70634-2301	US		Happy Birthday Grammie! Sending lots of love from Texas! From Emily, Chris, & Amy	false		
112-7646441-2954648	02782881139506	2020-12-31T02:14:28+00:00	2020-12-30T18:14:28-08:00	2020-12-31T02:40:52+00:00	2021-01-05T07:59:59+00:00	-5	kp6cf3cy2f1swmm@marketplace.amazon.com	JuliaAnne	+1 480-618-5344 ext. 80458	ABR0033	Delivery by Tuesday, January 5 Dozen Orange Roses in a Free Vase by Arabella Bouquets	1	0	1	Expedited	JOSIE KNOWLES	3095 ELM AVE			LONG BEACH	CA	90807-5022	US		JOSIE: WE HOPE YOU FEEL LIKE YOURSELF AGAIN VERY SOON. TAKE CARE AND STAY SAFE! HOPE THESE BRIGHTEN YOUR DAY. From LOVE, JOYCE & JULIA	false		
113-5634593-7629814	23030928393194	2020-12-31T02:20:55+00:00	2020-12-30T18:20:55-08:00	2020-12-31T02:46:46+00:00	2021-01-05T07:59:59+00:00	-5	hr60nbfmkyp6pxg@marketplace.amazon.com	Rasna Defeis	+1 415-419-8616 ext. 39247	ABM010	Delivery by Tuesday, Jan 5 Everlasting Fling with a Free Glass Vase by Arabella Bouquets	1	0	1	Expedited	Tarunbir Singh	9993 RED TAIL HAWK WAY			SACRAMENTO	CA	95829-9604	US		You two are going to make such amazing parents! I can’t wait to watch your family grow. Congratulations & welcome home, sweet baby girl. From The Defeis family	false		
113-6328934-4729019	50204567578722	2020-12-31T02:29:06+00:00	2020-12-30T18:29:06-08:00	2020-12-31T02:49:16+00:00	2021-01-05T07:59:59+00:00	-5	jdjsp0516j7dtlm@marketplace.amazon.com	Mary trinder	+1 763-225-9463 ext. 05575	ABR0066	Delivery by Tuesday, January 5 Dozen White Roses in a Free Vase by Arabella Bouquets	1	0	1	Expedited	Susana Sta Maria	18864 DAMASCO ST			WEST COVINA	CA	91792-3035	US		Dearest Ate Susan and kids, On behalf of all of us, our  prayers and thoughts to you and the rest of the family. From Minda Rasay  Trinder	false		
114-2656177-3483438	53573994562682	2020-12-31T02:31:16+00:00	2020-12-30T18:31:16-08:00	2020-12-31T03:06:14+00:00	2021-01-05T07:59:59+00:00	-5	s0zj1bpcf35vs2d@marketplace.amazon.com	Ryan Paczkowski	+1 602-671-6610 ext. 06490	ABR0066	Delivery by Tuesday, January 5 Dozen White Roses in a Free Vase by Arabella Bouquets	1	0	1	Expedited	Ryan Paczkowski	184 W OAK AVE			WILDWOOD	NJ	08260-6155	US			false		
112-3595873-6486645	69392855471002	2020-12-31T02:43:46+00:00	2020-12-30T18:43:46-08:00	2020-12-31T03:10:33+00:00	2021-01-05T07:59:59+00:00	-5	rvlwrbpj09kf2g4@marketplace.amazon.com	Amy Carbonne	+1 619-854-2705 ext. 52178	ABR0033	Delivery by Tuesday, January 5 Dozen Orange Roses in a Free Vase by Arabella Bouquets	1	0	1	Expedited	The Stimson Family	27488 PAMPLICO DR			VALENCIA	CA	91354-2031	US		Aunt Mary, David, Karen and family -  We are so very sorry to hear of Uncle Ed’s passing. Sending our love and condolences.   Amy & Nick Carbonne From Amy & Nick Carbonne	false		
113-5184372-3176224	54094130932450	2020-12-31T02:47:41+00:00	2020-12-30T18:47:41-08:00	2020-12-31T03:10:37+00:00	2021-01-05T07:59:59+00:00	-5	p70k1n399lxk15f@marketplace.amazon.com	Cindy Van Brackle-Rodriguez	+1 602-671-6610 ext. 98461	ABR0066	Delivery by Tuesday, January 5 Dozen White Roses in a Free Vase by Arabella Bouquets	1	0	1	Expedited	Mario Rodriguez	2340 GRECIAN WAY APT 40			CLEARWATER	FL	33763-3112	US		En memoria de Lolita Rodriguez From Sally Sola y Familia	false		
114-9436141-1949804	03376857149962	2020-12-31T02:50:12+00:00	2020-12-30T18:50:12-08:00	2020-12-31T03:19:52+00:00	2021-01-05T07:59:59+00:00	-5	jbp6gj05cq0cn07@marketplace.amazon.com	Harvey Terban	+1 415-419-8616 ext. 64761	ABM026	Delivery by Tuesday, January 5 Amour Bouquet by Arabella Bouquets	1	0	1	Expedited	Karen Maniscalco	5 BORDER ST			LYNN	MA	01905-2006	US			false		
113-4637785-9744200	39809223333722	2020-12-31T03:04:02+00:00	2020-12-30T19:04:02-08:00	2020-12-31T03:29:11+00:00	2021-01-05T07:59:59+00:00	-5	pjgf1xh02z0r8x8@marketplace.amazon.com	Andrea Ruggieri	+1 415-419-8616 ext. 51973	ABR004	Delivery by Tuesday, January 5 Dozen Yellow Roses in a Free Vase by Arabella Bouquets	1	0	1	Expedited	Catherine Collins	201 NE 1ST AVE PLANTATION OAKS -	RM 147		HIGH SPRINGS	FL	32643-9444	US			false		
112-0707497-9770663	05504943693722	2020-12-31T02:59:17+00:00	2020-12-30T18:59:17-08:00	2020-12-31T03:29:42+00:00	2021-01-05T07:59:59+00:00	-5	7qhc4xcg3x2g220@marketplace.amazon.com	Audra Robb	+1 619-854-2705 ext. 27000	ABR0022	Delivery by Tuesday, January 5 Dozen Pink Roses with a Free Vase by Arabella Bouquets	1	0	1	Expedited	Jill Weaver	3704 MANANA DR			DALLAS	TX	75220-1802	US			false		
113-4225343-5880218	63882306645962	2020-12-31T03:13:30+00:00	2020-12-30T19:13:30-08:00	2020-12-31T03:40:57+00:00	2021-01-05T07:59:59+00:00	-5	0kx6b9nt9byxbbd@marketplace.amazon.com	Donna Meador	+1 415-851-9136 ext. 11906	ABM025	Delivery by Tuesday, January 5 Fell for You Bouquet by Arabella Bouquets	1	0	1	Expedited	Susan Meador	1420 GRANT AVE			DUPONT	WA	98327-7784	US		Happy Birthday! Hope it is great. Love Nana & PopPop	false		
113-5851577-8524225	50880448971714	2020-12-31T03:23:19+00:00	2020-12-30T19:23:19-08:00	2020-12-31T03:42:23+00:00	2021-01-05T07:59:59+00:00	-5	k5lw52wy36g8rv4@marketplace.amazon.com	Arlene Kubit	+1 619-854-2705 ext. 66342	ABR0022	Delivery by Tuesday, January 5 Dozen Pink Roses with a Free Vase by Arabella Bouquets	1	0	1	Expedited	Tessa Amity	4942 MEADOW CREST DR			ALLISON PARK	PA	15101-1079	US			false		
114-5015498-2339469	44701085835602	2020-12-31T03:20:59+00:00	2020-12-30T19:20:59-08:00	2020-12-31T03:50:42+00:00	2021-01-05T07:59:59+00:00	-5	v6g56047rdt7yh7@marketplace.amazon.com	GERALD	+1 213-442-1463 ext. 23449	ABR0022	Delivery by Tuesday, January 5 Dozen Pink Roses with a Free Vase by Arabella Bouquets	1	0	1	Expedited	GERALD AYERS	115 MUIR CT			GEORGETOWN	TX	78633-4990	US			false		
112-1299984-5681059	46046824118314	2020-12-31T03:23:11+00:00	2020-12-30T19:23:11-08:00	2020-12-31T03:51:12+00:00	2021-01-05T07:59:59+00:00	-5	mm73fb0gdvclbl7@marketplace.amazon.com	william custer	+1 602-671-6610 ext. 07606	ABR0033	Delivery by Tuesday, January 5 Dozen Orange Roses in a Free Vase by Arabella Bouquets	1	0	1	Expedited	william custer	234 GARDEN AVE			BROWNS MILLS	NJ	08015-1955	US		Just something to say I love you.   Thank you for all you for done . I couldnt be more happier then I am now.   I love you .  Bill From william custer	false		
111-8857097-2013853	26495783278090	2020-12-31T03:26:44+00:00	2020-12-30T19:26:44-08:00	2020-12-31T03:54:28+00:00	2021-01-05T07:59:59+00:00	-5	91nb82ggf6jkc27@marketplace.amazon.com	Karen L. O'Brien	+1 415-851-9136 ext. 02710	ABR0022	Delivery by Tuesday, January 5 Dozen Pink Roses with a Free Vase by Arabella Bouquets	1	0	1	Expedited	Janet Moeller	203 BOEHM DR			SHINER	TX	77984-6272	US		Happy birthday lady. Love you! From Barry Karen Denise Tracey Summer	false		
113-2120655-4181866	18663061439818	2020-12-31T03:40:42+00:00	2020-12-30T19:40:42-08:00	2020-12-31T04:09:38+00:00	2021-01-05T07:59:59+00:00	-5	vlmnygl7vsz3tgp@marketplace.amazon.com	Dara Pazooki	+1 619-854-2705 ext. 85982	ABR0022	Delivery by Tuesday, January 5 Dozen Pink Roses with a Free Vase by Arabella Bouquets	1	0	1	Expedited	Kristen Gildea	26 COBBLESTONE RD			NORTH EASTON	MA	02356-1301	US		Happy New Year! ❤️ From Gino	false		
111-5527737-8702663	55371599324722	2020-12-31T03:40:05+00:00	2020-12-30T19:40:05-08:00	2020-12-31T04:10:08+00:00	2021-01-05T07:59:59+00:00	-5	6l042nmywyw8p4w@marketplace.amazon.com	Fernando Formelli	+1 619-854-2705 ext. 27612	ABR0022	Delivery by Tuesday, January 5 Dozen Pink Roses with a Free Vase by Arabella Bouquets	1	0	1	Expedited	Carmen Garcia	915 GELLATLY ST UNIT 1			WENATCHEE	WA	98801-3107	US		Pensando en ti. From Fernando Formelli	false		
112-4147360-5003423	67264503765490	2020-12-31T03:47:54+00:00	2020-12-30T19:47:54-08:00	2020-12-31T04:17:14+00:00	2021-01-05T07:59:59+00:00	-5	r94z0xsr86sg0cm@marketplace.amazon.com	Chris	+1 929-436-4790 ext. 29436	ABC002	Delivery by Tuesday, January 5 Warm Wishes Bouquet by Arabella Bouquets	1	0	1	Expedited	Chris VanBuskirk	785 KREISEL RD			KINGSTON	OH	45644-9717	US		Thinking of you & holding you and your family close in prayer. We love you! From Pastors Chris & Kristyn	false		
112-7831820-4839444	56974728534458	2020-12-31T04:04:26+00:00	2020-12-30T20:04:26-08:00	2020-12-31T04:30:03+00:00	2021-01-05T07:59:59+00:00	-5	8ytd77njj02ytbc@marketplace.amazon.com	Tom Garbarini	+1 415-419-8616 ext. 14361	ABM022	Delivery by Tuesday, January 5 Purple Extravagance Bouquet by Arabella Bouquets	1	0	1	Expedited	Carolyn Hutzler	87 IVY LN -REAR DOOR			BRIDGEWATER	NJ	08807-2546	US		Happy Birthday. Hang in there. From Tom Garbarini	false		
112-4516436-7167464	03548781657738	2020-12-31T04:13:16+00:00	2020-12-30T20:13:16-08:00	2020-12-31T04:41:42+00:00	2021-01-05T07:59:59+00:00	-5	8fffknln9kr7tbh@marketplace.amazon.com	Joe	+1 763-225-9463 ext. 22536	ABM020	Delivery by Tuesday, January 5 Sunset Bouquet by Arabella Bouquets	1	0	1	Expedited	Joe Echazarreta	19011 LITTIG RD			ELGIN	TX	78621-4149	US			false		
111-6719980-8362620	61529852136146	2020-12-31T04:31:04+00:00	2020-12-30T20:31:04-08:00	2020-12-31T04:52:17+00:00	2021-01-05T07:59:59+00:00	-5	d7g947z8z5pg7qn@marketplace.amazon.com	Britain Redline	+1 213-442-1463 ext. 22999	ABR0022	Delivery by Tuesday, January 5 Dozen Pink Roses with a Free Vase by Arabella Bouquets	1	0	1	Expedited	Susie Redline	526 RIVERWOODS WAY			BETHLEHEM	PA	18018-6355	US		Dear Susie, Merry Christmas and a Happy New Year! We wish we could had seen you this holiday but look forward to hopefully seeing you in 2021! We are excited for the rocker - thank you! From Love Brit, August & London	false		
111-4892367-4545809	14796264282650	2020-12-31T04:36:26+00:00	2020-12-30T20:36:26-08:00	2020-12-31T05:02:44+00:00	2021-01-05T07:59:59+00:00	-5	d7g947z8z5pg7qn@marketplace.amazon.com	Britain Redline	+1 415-851-9136 ext. 70268	ABR0022	Delivery by Tuesday, January 5 Dozen Pink Roses with a Free Vase by Arabella Bouquets	1	0	1	Expedited	Patty & Rich Redline	504 RIDGE RD			NEWTON	NJ	07860-5230	US		Dear Mom & Dad (Tulip & Papa), Merry Christmas and Happy New Year! Thank you for your generosity this Christmas, and always! We love you and hope to see you soon! From Brit, August & London	false		
112-0202484-2790674	45256820379082	2020-12-31T04:35:26+00:00	2020-12-30T20:35:26-08:00	2020-12-31T05:03:47+00:00	2021-01-05T07:59:59+00:00	-5	8p4zcnh9kb734t5@marketplace.amazon.com	Glovinia Harris	+1 602-671-6610 ext. 56660	ABR0033	Delivery by Tuesday, January 5 Dozen Orange Roses in a Free Vase by Arabella Bouquets	1	0	1	Expedited	Delores Petross	2701 S INDIANA AVE APT 306			CHICAGO	IL	60616-2665	US		HAPPY BIRTHDAY MOTHER, Enjoy your gift! From LOVE ALWAYS, VINNIE	false		
111-1989467-4910637	11271153014874	2020-12-31T04:43:05+00:00	2020-12-30T20:43:05-08:00	2020-12-31T05:08:44+00:00	2021-01-05T07:59:59+00:00	-5	d7g947z8z5pg7qn@marketplace.amazon.com	Britain Redline	+1 619-854-2705 ext. 54585	ABR0022	Delivery by Tuesday, January 5 Dozen Pink Roses with a Free Vase by Arabella Bouquets	1	0	1	Expedited	William Gray	200 BRISTOL GLEN DR APT 260			NEWTON	NJ	07860-2347	US		Dear Grandpa, Merry Christmas and Happy New Year! Thank you so much for your generosity this Christmas, and always. You are the best! We love you and look forward to seeing you soon! From Brit, August & London	false		
112-1146565-9533824	03085148829258	2020-12-31T05:01:47+00:00	2020-12-30T21:01:47-08:00	2020-12-31T05:27:36+00:00	2021-01-05T07:59:59+00:00	-5	bf2580db3j4661g@marketplace.amazon.com	Guan Wang	+1 213-442-1463 ext. 50097	ABM022	Delivery by Tuesday, January 5 Purple Extravagance Bouquet by Arabella Bouquets	1	0	1	Expedited	Jin-Xing Huang	442 LITTLEFIELD AVE			SOUTH SAN FRANCISCO	CA	94080-6105	US		Happy Birthday to You!  Wish you are happiness and healthiness.   Love  Jane From Jane	false		
111-6773450-6449066	41522846894778	2020-12-31T05:16:59+00:00	2020-12-30T21:16:59-08:00	2020-12-31T05:44:41+00:00	2021-01-05T07:59:59+00:00	-5	61hqbyxys25tz9v@marketplace.amazon.com	Jennifer	+1 415-419-8616 ext. 03910	ABR0022	Delivery by Tuesday, January 5 Dozen Pink Roses with a Free Vase by Arabella Bouquets	1	0	1	Expedited	Evie Thomas	6412 EAGLE POINT RD			LAS VEGAS	NV	89108-5346	US		Sorry these were a little later!  Happy Birthday Momma!  Xoxo From Jennifer	false		
114-7895662-4662658	52633756308138	2020-12-31T05:56:23+00:00	2020-12-30T21:56:23-08:00	2020-12-31T06:14:18+00:00	2021-01-05T07:59:59+00:00	-5	hsk7ldtwbtrcqhr@marketplace.amazon.com	Tomoka Howard	+1 763-225-9463 ext. 22443	ABR0022	Delivery by Tuesday, January 5 Dozen Pink Roses with a Free Vase by Arabella Bouquets	1	0	1	Expedited	Chihiro Makio	421 LOUDVILLE RD			EASTHAMPTON	MA	01027-9768	US		Dear Chihiro:  Happy 2021!!!  Celebrating YOU and our friendship with the pink roses! Thank you for being my friend and being YOU! I feel very lucky to get to know you and grow together as moms! Cheers!  xoxoxoxoxo From Tomoka	false		
114-3875850-2409068	34603442830274	2020-12-31T06:02:01+00:00	2020-12-30T22:02:01-08:00	2020-12-31T06:31:18+00:00	2021-01-05T07:59:59+00:00	-5	jw6293mts3bhpv0@marketplace.amazon.com	devin bunge	+1 619-854-2705 ext. 45703	ABR0022	Delivery by Tuesday, January 5 Dozen Pink Roses with a Free Vase by Arabella Bouquets	1	0	1	Expedited	kait	340 HERITAGE AVE			EUGENE	OR	97404-2614	US		Happy birthday! Sorry it’s late. From devin bunge	false		
114-7428731-7593035	53354406655066	2020-12-31T06:16:46+00:00	2020-12-30T22:16:46-08:00	2020-12-31T06:47:25+00:00	2021-01-05T07:59:59+00:00	-5	ql6x6ymz2mlnqtc@marketplace.amazon.com	Nicolas Adiba	+1 602-671-6610 ext. 81777	ABM022	Delivery by Tuesday, January 5 Purple Extravagance Bouquet by Arabella Bouquets	1	0	1	Expedited	Nicolas Adiba	840 HOMER AVE			PALO ALTO	CA	94301-2909	US			false		
112-8383451-6983427	45956937977594	2020-12-31T06:39:04+00:00	2020-12-30T22:39:04-08:00	2020-12-31T07:08:32+00:00	2021-01-05T07:59:59+00:00	-5	r8fwzyj2z2pfh4z@marketplace.amazon.com	LIU Ye	+1 415-851-9136 ext. 92766	ABR0022	Delivery by Tuesday, January 5 Dozen Pink Roses with a Free Vase by Arabella Bouquets	1	0	1	Expedited	Connie Hu	150 W 56TH ST APT 4809			NEW YORK	NY	10019-3846	US			false		
111-6018321-1255437	60366724556538	2020-12-31T06:59:03+00:00	2020-12-30T22:59:03-08:00	2020-12-31T07:28:41+00:00	2021-01-05T07:59:59+00:00	-5	p3ssz4h0h30754t@marketplace.amazon.com	Anthony Keane	+1 763-225-9463 ext. 59380	ABR0022	Delivery by Tuesday, January 5 Dozen Pink Roses with a Free Vase by Arabella Bouquets	1	0	1	Expedited	Anthony Keane	11622 FORT SMITH			SAN ANTONIO	TX	78245-3692	US		Happy birthday sweetie! From Dad	false		
112-1633010-1203422	69237501611586	2020-12-31T07:57:00+00:00	2020-12-30T23:57:00-08:00	2020-12-31T08:27:10+00:00	2021-01-05T07:59:59+00:00	-5	r9dhndyt5kt1xgq@marketplace.amazon.com	Alejandro	+1 602-671-6610 ext. 54963	ABR001	Delivery by Tuesday, Janaury 5 Dozen Red Roses in a Free Vase by Arabella Bouquets	1	0	1	Expedited	Rafaela Sahagún	9350 TWIN OAKS LN DES PLAINES			DES PLAINES	IL	60016-4226	US			false		
111-8081642-5157015	34100609856458	2020-12-31T09:39:12+00:00	2020-12-31T01:39:12-08:00	2020-12-31T10:09:08+00:00	2021-01-06T07:59:59+00:00	-6	d82649ld1zh9xhh@marketplace.amazon.com	Jessica Gibson	+1 346-307-9643 ext. 38357	ABM020	Delivery by Tuesday, January 5 Sunset Bouquet by Arabella Bouquets	1	0	1	Expedited	Marsha England	14925 SPYGLASS ST			ORLANDO	FL	32826-5046	US		Enjoy your gift! From Jessica Gibson	false		
114-3640561-6503461	64752349954650	2020-12-31T11:23:26+00:00	2020-12-31T03:23:26-08:00	2020-12-31T11:50:31+00:00	2021-01-06T07:59:59+00:00	-6	d67b13z5h20l1xz@marketplace.amazon.com	Gyorgy Hajnoczky	+1 619-854-2705 ext. 52596	ABR0022	Delivery by Tuesday, January 5 Dozen Pink Roses with a Free Vase by Arabella Bouquets	1	0	1	Expedited	Janine Santos	100 PRESTON RIDGE CT			CARY	NC	27513-5600	US		Happy New Year My Love! From Gyorgy Hajnoczky	false		
114-3291393-5877864	30195184233922	2020-12-31T11:27:24+00:00	2020-12-31T03:27:24-08:00	2020-12-31T11:56:33+00:00	2021-01-06T07:59:59+00:00	-6	64qy9g6jwd5n4lc@marketplace.amazon.com	Michelle Mosley	+1 213-442-1463 ext. 97077	ABR0022	Delivery by Tuesday, January 5 Dozen Pink Roses with a Free Vase by Arabella Bouquets	1	0	1	Expedited	Theresa Mosley	223 OLIVER ST			WATERLOO	IA	50703-2653	US		Happy New Year🎉❤️💖 Love you From Michelle Mosley	false		
111-7450303-1522614	14535512537234	2020-12-31T12:30:26+00:00	2020-12-31T04:30:26-08:00	2020-12-31T13:00:32+00:00	2021-01-06T07:59:59+00:00	-6	hlrjkk72bsxs6yh@marketplace.amazon.com	Swati Garg	+1 346-307-9643 ext. 47567	ABR001	Delivery by Tuesday, Janaury 5 Dozen Red Roses in a Free Vase by Arabella Bouquets	1	0	1	Expedited	Navneet Gupta	1070 MILANO PT APT 1027			COLORADO SPRINGS	CO	80921-5643	US			false		
113-5312528-7520269	34121948305610	2020-12-31T12:53:14+00:00	2020-12-31T04:53:14-08:00	2020-12-31T13:22:24+00:00	2021-01-06T07:59:59+00:00	-6	m6wtn565nbh9m1x@marketplace.amazon.com	Mallarie Georgen	+1 213-442-1463 ext. 58824	ABR0033	Delivery by Tuesday, January 5 Dozen Orange Roses in a Free Vase by Arabella Bouquets	1	0	1	Expedited	Clyde and Auja Norman	2581 NW 47TH AVE			LAUDERHILL	FL	33313-3548	US		Congratulations on the new addition. See you in a couple weeks!  I love you!! From Mallarie & Dan	false		
112-9612229-7789818	13493780215906	2020-12-31T13:05:39+00:00	2020-12-31T05:05:39-08:00	2020-12-31T13:27:57+00:00	2021-01-06T07:59:59+00:00	-6	39m8stvgbsk2fnx@marketplace.amazon.com	Jennifer Needelman	+1 929-436-4790 ext. 14581	ABM029	Delivery by Tuesday, January 5, Day Dream Bouquet by Arabella Bouquets	1	0	1	Expedited	Jennifer Needelman	91 KINGWOOD PARK			POUGHKEEPSIE	NY	12601-5450	US			false		
111-3467163-3934633	16453612946794	2020-12-31T13:21:20+00:00	2020-12-31T05:21:20-08:00	2020-12-31T13:44:57+00:00	2021-01-06T07:59:59+00:00	-6	t8gk9973tl1qwdw@marketplace.amazon.com	Joeann phipps	+1 619-854-2705 ext. 26586	ABM022	Delivery by Tuesday, January 5 Purple Extravagance Bouquet by Arabella Bouquets	1	0	1	Expedited	Paula Dinovo	5163 PROPRIETORS WAY			DELAWARE	OH	43015-8055	US		Hi Paula, Enjoy your gift! From Joeann phipps	false		
112-2514672-4025057	43778823580570	2020-12-31T13:45:52+00:00	2020-12-31T05:45:52-08:00	2020-12-31T14:09:38+00:00	2021-01-06T07:59:59+00:00	-6	xrg413tjw8yky81@marketplace.amazon.com	Nigel Price	+1 619-854-2705 ext. 39407	ABC001	Delivery by Tuesday, January 5 Seasons Greetings Bouquet by Arabella Bouquets	1	0	1	Expedited	Don & LInda Ellens	6103 S MOREY RD			MC BAIN	MI	49657-9624	US		Dear Don & Linda, Happy new year, and many thanks for the lovely Christmas presents. They are so warm and comfortable! All best wishes for 2021. Much love, Nigel & Catherine From Nigel Price	false		
111-6531350-7268264	01444266175018	2020-12-31T13:51:23+00:00	2020-12-31T05:51:23-08:00	2020-12-31T14:17:27+00:00	2021-01-06T07:59:59+00:00	-6	85dfw2k0t15xzl8@marketplace.amazon.com	Chris moran	+1 763-225-9463 ext. 88656	ABR0022	Delivery by Tuesday, January 5 Dozen Pink Roses with a Free Vase by Arabella Bouquets	1	0	1	Expedited	Helene ives	1037 E ARTESIAN WAY			GILBERT	AZ	85234-6071	US		Enjoy your gift! From Chris moran	false		
113-0308364-2446643	41730802320578	2020-12-31T13:47:47+00:00	2020-12-31T05:47:47-08:00	2020-12-31T14:18:16+00:00	2021-01-06T07:59:59+00:00	-6	1q5vmdyryk7b087@marketplace.amazon.com	len clark	+1 213-442-1463 ext. 00890	ABR0022	Delivery by Tuesday, January 5 Dozen Pink Roses with a Free Vase by Arabella Bouquets	1	0	1	Expedited	Willie Mae Clark	715 24TH AVE			BELLWOOD	IL	60104-1930	US			false		
114-6776743-4421041	56075973782610	2020-12-31T13:54:27+00:00	2020-12-31T05:54:27-08:00	2020-12-31T14:22:59+00:00	2021-01-06T07:59:59+00:00	-6	w5s5sthtf4mnwx3@marketplace.amazon.com	Charlotte Lipson	+1 929-436-4790 ext. 07941	ABR0066	Delivery by Tuesday, January 5 Dozen White Roses in a Free Vase by Arabella Bouquets	1	0	1	Expedited	Geraldine Benson	638 E MAIN ST			LITITZ	PA	17543-2202	US		Happy New Year!  Love,  Charlotte From Charlotte Lipson	false		
114-0647159-5705003	45974512800834	2020-12-31T13:55:07+00:00	2020-12-31T05:55:07-08:00	2020-12-31T14:27:16+00:00	2021-01-06T07:59:59+00:00	-6	92q6jgc0zb15cjw@marketplace.amazon.com	Arletis fernandez	+1 213-442-1463 ext. 69418	ABR0066	Delivery by Tuesday, January 5 Dozen White Roses in a Free Vase by Arabella Bouquets	1	0	1	Expedited	Arletis fernandez	2507 RED MAPLE DR			ABINGDON	MD	21009-2323	US		Wishing you guys a happy new year! From The Future Vegas	false		
113-5092415-0945840	45025030558002	2020-12-31T14:11:00+00:00	2020-12-31T06:11:00-08:00	2020-12-31T14:39:16+00:00	2021-01-06T07:59:59+00:00	-6	glwzlck86d0w0hz@marketplace.amazon.com	Steve Cordovani	+1 602-671-6610 ext. 19384	ABR0055	Delivery by Tuesday, January 5 Dozen Hot Pink Roses in a Free Vase by Arabella Bouquets	1	0	1	Expedited	Hannah Drexler	724 S SAINT ASAPH ST # WB311			ALEXANDRIA	VA	22314-4349	US		Wishing you a happy new year and may all your wishes come true pretty lady!! From XOXO SC	false		
112-1366124-2172224	14003110389090	2020-12-31T14:17:18+00:00	2020-12-31T06:17:18-08:00	2020-12-31T14:46:12+00:00	2021-01-06T07:59:59+00:00	-6	7s6d2phd4122xyp@marketplace.amazon.com	Charlotte Markey	+1 480-618-5344 ext. 16929	ABR0022	Delivery by Tuesday, January 5 Dozen Pink Roses with a Free Vase by Arabella Bouquets	1	0	1	Expedited	Matt, Sayla and Olivia Hart	400 SPRINGFIELD TER			HADDONFIELD	NJ	08033-1333	US		Welcome baby! Good job mom and dad! xoxox Dad (Dan), Charlotte, Grace, and Charlie From Charlotte Markey	false		
111-7775621-3253064	41257235971202	2020-12-31T14:20:42+00:00	2020-12-31T06:20:42-08:00	2020-12-31T14:50:17+00:00	2021-01-06T07:59:59+00:00	-6	92wtmjvx97n2xwy@marketplace.amazon.com	Aisha	+1 619-854-2705 ext. 48479	ABR0033	Delivery by Tuesday, January 5 Dozen Orange Roses in a Free Vase by Arabella Bouquets	1	0	1	Expedited	Aisha Fields	9201 LEIGH CHOICE CT			OWINGS MILLS	MD	21117-6346	US			false		
111-8524562-6936212	04102197190282	2020-12-31T14:25:46+00:00	2020-12-31T06:25:46-08:00	2020-12-31T14:53:14+00:00	2021-01-06T07:59:59+00:00	-6	vmym16hnv8ldhq1@marketplace.amazon.com	Elizabeth L. Heinz	+1 602-671-6610 ext. 28161	ABR0022	Delivery by Tuesday, January 5 Dozen Pink Roses with a Free Vase by Arabella Bouquets	1	0	1	Expedited	Suzanne Tschida	671 BRIDLE RIDGE CIR			EAGAN	MN	55123-1682	US			false		
111-7274585-6222662	24498394817538	2020-12-31T14:29:57+00:00	2020-12-31T06:29:57-08:00	2020-12-31T14:58:51+00:00	2021-01-06T07:59:59+00:00	-6	zmld2683gr206l8@marketplace.amazon.com	Kristin Lonegro	+1 619-854-2705 ext. 67307	ABR0022	Delivery by Tuesday, January 5 Dozen Pink Roses with a Free Vase by Arabella Bouquets	1	0	1	Expedited	Mrs Nancy Reddish	1104 RIVERSIDE DR			SALISBURY	MD	21801-6712	US		Happy Birthday Bay Bay!!! Have a wonderful day and year!! We love you!! Love- Luke, Nick, Mark, Frank and Kris From Kristin Lonegro	false		
114-6992896-4500239	69811216732642	2020-12-31T14:38:57+00:00	2020-12-31T06:38:57-08:00	2020-12-31T15:08:39+00:00	2021-01-06T07:59:59+00:00	-6	krcw32lts4vyd33@marketplace.amazon.com	Conner G.	+1 480-618-5344 ext. 32963	ABM022	Delivery by Tuesday, January 5 Purple Extravagance Bouquet by Arabella Bouquets	1	0	1	Expedited	Robyn Wildman	5660 E GREENWOOD CHURCH RD			LIBERTY	IN	47353-8992	US		Love you forever! From Renee	false		
112-4022018-6839452	64203330362690	2020-12-31T15:06:49+00:00	2020-12-31T07:06:49-08:00	2020-12-31T15:37:21+00:00	2021-01-06T07:59:59+00:00	-6	jgv6d027ltsldhw@marketplace.amazon.com	Rhoda Tanner	+1 415-419-8616 ext. 77424	ABR0022	Delivery by Tuesday, January 5 Dozen Pink Roses with a Free Vase by Arabella Bouquets	1	0	1	Expedited	Rhoda Tanner	3641 BOIES AVE			DAVENPORT	IA	52802-1916	US			false		
112-7494251-4633839	04173224990666	2020-12-31T15:43:37+00:00	2020-12-31T07:43:37-08:00	2020-12-31T16:13:56+00:00	2021-01-06T07:59:59+00:00	-6	jspvmb7n45vym9q@marketplace.amazon.com	mark wood	+1 480-618-5344 ext. 51493	ABR0033	Delivery by Tuesday, January 5 Dozen Orange Roses in a Free Vase by Arabella Bouquets	1	0	1	Expedited	Patricia Wood	2244 Q AVE			NEW CASTLE	IN	47362-2171	US			false		
114-5260785-7773840	69265463543730	2020-12-31T15:58:03+00:00	2020-12-31T07:58:03-08:00	2020-12-31T16:16:30+00:00	2021-01-06T07:59:59+00:00	-6	6fqn45xcqjrrtl6@marketplace.amazon.com	Amber Gowing	+1 480-618-5344 ext. 21475	ABR0022	Delivery by Tuesday, January 5 Dozen Pink Roses with a Free Vase by Arabella Bouquets	1	0	1	Expedited	Jon Short	3355 W ALEXIS RD APT F10			TOLEDO	OH	43623-1445	US		Jon, Happy New Year’s! We should start over. I can see us spending forever together. You would make an amazing forever guy. I want to keep you. I miss you, baby. You make my heart smile. Love, Amber From Amber Gowing	false		
113-0937173-9429864	32333898001018	2020-12-31T15:50:26+00:00	2020-12-31T07:50:26-08:00	2020-12-31T16:18:00+00:00	2021-01-06T07:59:59+00:00	-6	y80snwb4h5w249v@marketplace.amazon.com	John P Heinze	+1 480-618-5344 ext. 84320	ABM022	Delivery by Tuesday, January 5 Purple Extravagance Bouquet by Arabella Bouquets	1	0	1	Expedited	Brigita Heinze	1901 nw newpark ct			Acworth	GEORGIA	30101	US		Love You Mom! Miss you mucho! From John (your 4th child and 3rd son)	false		
114-9589956-8077039	03904521693322	2020-12-31T16:09:54+00:00	2020-12-31T08:09:54-08:00	2020-12-31T16:37:09+00:00	2021-01-06T07:59:59+00:00	-6	vqghzg869nh0s41@marketplace.amazon.com	Jill K. Pomeroy	+1 213-442-1463 ext. 85303	ABR0066	Delivery by Tuesday, January 5 Dozen White Roses in a Free Vase by Arabella Bouquets	1	0	1	Expedited	Sarah Mineiro	606 TRUMAN CIR SW			VIENNA	VA	22180-6422	US		Sarah- Just because you’re an awesome badass!! From Jill and Joe	false		
114-3108867-5385042	66597438646394	2020-12-31T16:11:22+00:00	2020-12-31T08:11:22-08:00	2020-12-31T16:38:36+00:00	2021-01-06T07:59:59+00:00	-6	ytdh3k5s1jv1v2t@marketplace.amazon.com	Walter	+1 415-419-8616 ext. 75359	ABC001	Delivery by Tuesday, January 5 Seasons Greetings Bouquet by Arabella Bouquets	1	0	1	Expedited	Marlene Moore	2518 ORCHARD ST			PHENIX CITY	AL	36869-6460	US			false		
113-0416931-9169857	13916535047922	2020-12-31T16:34:26+00:00	2020-12-31T08:34:26-08:00	2020-12-31T17:03:15+00:00	2021-01-06T07:59:59+00:00	-6	v0m40qzl3hw0mr9@marketplace.amazon.com	theresa antonucci	+1 619-854-2705 ext. 91349	ABR004	Delivery by Tuesday, January 5 Dozen Yellow Roses in a Free Vase by Arabella Bouquets	1	0	1	Expedited	Kathy and Anthony Antonucci	544 SAND RIDGE RD			CONWAY	SC	29526-9050	US			false		
111-7471055-0932218	32409789277898	2020-12-31T16:37:03+00:00	2020-12-31T08:37:03-08:00	2020-12-31T17:04:27+00:00	2021-01-06T07:59:59+00:00	-6	fh5b791gdk7clfc@marketplace.amazon.com	Annette Schaffer	+1 929-436-4790 ext. 89511	ABC002	Delivery by Tuesday, January 5 Warm Wishes Bouquet by Arabella Bouquets	1	0	1	Expedited	Melissa Ackerman	2015 TEAMGEIST WAY			GREENSBURG	PA	15601-7010	US		Melissa,  Thanks so much for helping me navigate what to do with Frank!!  I really appreciate it! From Annette Schaffer	false		
