order-id	order-item-id	purchase-date	payments-date	reporting-date	promise-date	days-past-promise	buyer-email	buyer-name	buyer-phone-number	sku	product-name	quantity-purchased	quantity-shipped	quantity-to-ship	ship-service-level	recipient-name	ship-address-1	ship-address-2	ship-address-3	ship-city	ship-state	ship-postal-code	ship-country	gift-wrap-type	gift-message-text	is-business-order	purchase-order-number	price-designation
113-1445629-3038666	29099633541786	2021-01-02T11:32:53+00:00	2021-01-02T03:32:53-08:00	2021-01-02T12:02:39+00:00	2021-01-06T07:59:59+00:00	-4	h01lzvspshm4vtj@marketplace.amazon.com	Nathan Johnson	+1 480-618-5344 ext. 55688	ABR001	Delivery by Wednesday, Jan 6 Dozen Red Roses in a Free Vase by Arabella Bouquets	1	0	1	Expedited	Sarah Michele	15564 NORTHWIND AVE			FONTANA	CA	92336-4148	US		Just because I LOVE YOU!! From Nathan Johnson	false		
112-5281005-7144250	26890349682938	2021-01-02T12:01:33+00:00	2021-01-02T04:01:33-08:00	2021-01-02T12:29:49+00:00	2021-01-06T07:59:59+00:00	-4	wgrxlbhsvb6qvnq@marketplace.amazon.com	Patrick R OConnor	+1 415-851-9136 ext. 71771	ABR0055	Delivery by Wednesday, Janaury 6 Dozen Hot Pink Roses in a Free Vase by Arabella Bouquets	1	0	1	Expedited	Diane Mundt	95 E BAYARD ST			SENECA FALLS	NY	13148-1622	US		Enjoy your gift! Happy Birthday Mi-Mi! From The O’Connor’s and Mundt’s	false		
114-1982048-3421042	42404998351458	2021-01-02T12:02:30+00:00	2021-01-02T04:02:30-08:00	2021-01-02T12:31:25+00:00	2021-01-06T07:59:59+00:00	-4	pvh4txn8cdwk007@marketplace.amazon.com	Bonnie Brol	+1 929-436-4790 ext. 55901	ABM022	Delivery by Wednesday, Jan 6 Purple Extravagance Bouquet by Arabella Bouquets	1	0	1	Expedited	Ruth Hayes	22 YORK ST			HONEOYE FALLS	NY	14472-1156	US			false		
113-5075886-6211401	49788245804482	2021-01-02T13:02:09+00:00	2021-01-02T05:02:09-08:00	2021-01-02T13:06:34+00:00	2021-01-06T07:59:59+00:00	-4	4pwcxptfks7nt0m@marketplace.amazon.com	Nilofar Siddiqi	+1 415-851-9136 ext. 06950	ABR0022	Delivery by Wednesday, Janaury 6 Dozen Pink Roses with a Free Vase by Arabella Bouquets	1	0	1	Expedited	Ayesha Omar Siddiqi	700 UNIVERSITY BAY DR APT 403			MADISON	WI	53705-2268	US		Enjoy your gift! From Nilofar Siddiqi	false		
113-1226357-4958627	64496017527130	2021-01-02T13:05:46+00:00	2021-01-02T05:05:46-08:00	2021-01-02T13:32:03+00:00	2021-01-06T07:59:59+00:00	-4	nbj0gdqqt1r6txs@marketplace.amazon.com	kim gallo	+1 213-442-1463 ext. 60986	ABR0055	Delivery by Wednesday, Janaury 6 Dozen Hot Pink Roses in a Free Vase by Arabella Bouquets	1	0	1	Expedited	Audrey Saenz	1029 NE 18TH TER			CAPE CORAL	FL	33909-8903	US		Happy Birthday Audrey! My teenage girl that I love so much!! From Grandma Kim and everyone else here who loves you!! Besos	false		
113-3987931-8307432	42208458807314	2021-01-02T13:06:11+00:00	2021-01-02T05:06:11-08:00	2021-01-02T13:34:06+00:00	2021-01-06T07:59:59+00:00	-4	6lsjw1v1pzcy9xv@marketplace.amazon.com	Michael DeCrescenzo	+1 602-671-6610 ext. 61601	ABR001	Delivery by Wednesday, Janaury 6 Dozen Red Roses in a Free Vase by Arabella Bouquets	1	0	1	Expedited	Grace DeCrescenzo	8508 CLARK MILLS RD			WHITESBORO	NY	13492-2700	US		Remembering Grampa on his 40th anniversary and Tommy on his birthday.  Wishing you much peace. From Love, Mary Ann, Rick, Mike and Gina	false		
113-8405196-9505815	44573409467650	2021-01-02T13:10:00+00:00	2021-01-02T05:10:00-08:00	2021-01-02T13:37:29+00:00	2021-01-06T07:59:59+00:00	-4	6lsjw1v1pzcy9xv@marketplace.amazon.com	Michael DeCrescenzo	+1 602-671-6610 ext. 30097	ABR001	Delivery by Wednesday, Janaury 6 Dozen Red Roses in a Free Vase by Arabella Bouquets	1	0	1	Expedited	Marie Wojnas	2209 CENTENNIAL CIR			UTICA	NY	13502-1671	US		Remembering Grampa on his 40th anniversary.  Wishing you much peace. From Love, Mary Ann, Rick, Mike and Gina	false		
113-5601309-4325068	41956294293306	2021-01-02T13:12:43+00:00	2021-01-02T05:12:43-08:00	2021-01-02T13:41:02+00:00	2021-01-06T07:59:59+00:00	-4	6lsjw1v1pzcy9xv@marketplace.amazon.com	Michael DeCrescenzo	+1 602-671-6610 ext. 16626	ABR001	Delivery by Wednesday, Janaury 6 Dozen Red Roses in a Free Vase by Arabella Bouquets	1	0	1	Expedited	Ann Trozzi	1670 CONKLING AVE			UTICA	NY	13501-5120	US		Remembering Grampa on his 40th anniversary.  Wishing you much peace. From Love, Mary Ann, Rick, Mike and Gina	false		
111-6980420-3263428	14443982347610	2021-01-02T13:14:05+00:00	2021-01-02T05:14:05-08:00	2021-01-02T13:42:18+00:00	2021-01-06T07:59:59+00:00	-4	jh2s7nnyfrw8v4q@marketplace.amazon.com	nick	+1 415-419-8616 ext. 99623	ABR0055	Delivery by Wednesday, Janaury 6 Dozen Hot Pink Roses in a Free Vase by Arabella Bouquets	1	0	1	Expedited	Audra Atwood	125 LAMBERT AVE			FARMINGDALE	NY	11735-4010	US		Happy Birthday Audra!! We look forward to seeing you soon! We miss you! Hope you have a great day! From Love, Nicholas & Mia	false		
111-1449975-7298649	69580325980610	2021-01-02T13:25:41+00:00	2021-01-02T05:25:41-08:00	2021-01-02T13:48:21+00:00	2021-01-06T07:59:59+00:00	-4	fqz9wp7djzpt5yk@marketplace.amazon.com	Nicole King	+1 415-419-8616 ext. 15886	ABR0022	Delivery by Wednesday, Janaury 6 Dozen Pink Roses with a Free Vase by Arabella Bouquets	1	0	1	Expedited	Marcy Ravdin	508 NW 101ST AVE			CORAL SPRINGS	FL	33071-8806	US		Happy Birthday to my best friend and soul sister. I love you so much Nicole	false		
112-6572463-6571405	46925784371562	2021-01-02T13:29:41+00:00	2021-01-02T05:29:41-08:00	2021-01-02T13:51:46+00:00	2021-01-06T07:59:59+00:00	-4	nq2l4ggtzd3xj9r@marketplace.amazon.com	Raymond Bantle	+1 619-854-2705 ext. 84314	ABC001	Delivery by Wednesday, January 6 Seasons Greetings Bouquet by Arabella Bouquets	1	0	1	Standard	Rose Cordell	9550 ELLA LEE LN APT 3108			HOUSTON	TX	77063-1257	US		Happy Birthday Rose.  with our love, From Ray & Marge	false		
111-3508172-0318653	54204755199706	2021-01-02T13:50:06+00:00	2021-01-02T05:50:06-08:00	2021-01-02T14:18:27+00:00	2021-01-06T07:59:59+00:00	-4	8rfb542mglj7s7k@marketplace.amazon.com	Scott Alan Yost	+1 619-854-2705 ext. 92204	ABR001	Delivery by Wednesday, Janaury 6 Dozen Red Roses in a Free Vase by Arabella Bouquets	1	0	1	Expedited	Scott Yost	819 ESSLINGER RD SE			HUNTSVILLE	AL	35802-3649	US			false		
112-2520112-8889041	00424968450266	2021-01-02T14:10:18+00:00	2021-01-02T06:10:18-08:00	2021-01-02T14:35:44+00:00	2021-01-06T07:59:59+00:00	-4	hcy6rnj56yp5h17@marketplace.amazon.com	James M. McAlevey	+1 602-671-6610 ext. 50751	ABM020	Delivery by Wednesday, Jan 6 Sunset Bouquet by Arabella Bouquets	1	0	1	Expedited	Kim O’HARA	308 ALTA LN			COSTA MESA	CA	92627-1405	US		CONGRATULATIONS Kim!  Keep on Truckin’ Love From Charlotte & Mike	false		
113-3134095-1797065	05503111958162	2021-01-02T14:29:07+00:00	2021-01-02T06:29:07-08:00	2021-01-02T14:59:21+00:00	2021-01-06T07:59:59+00:00	-4	x7wp4ps2trrrrvm@marketplace.amazon.com	Charles DeNapoli	+1 415-419-8616 ext. 55987	ABR0022	Delivery by Wednesday, Janaury 6 Dozen Pink Roses with a Free Vase by Arabella Bouquets	1	0	1	Expedited	Josephine  DeNapoli	119 EXECUTIVE CENTER DR APT 505			WEST PALM BEACH	FL	33401-5077	US			false		
111-2431216-9121840	41450798321402	2021-01-02T14:31:28+00:00	2021-01-02T06:31:28-08:00	2021-01-02T15:00:58+00:00	2021-01-06T07:59:59+00:00	-4	t9wwyvpt9r2p7dj@marketplace.amazon.com	Eugene Shifrin	+1 415-419-8616 ext. 72738	ABM006	Fresh Cut Yellow Lillies in a Free Designer Glass Vase by Arabella Bouquets	1	0	1	Expedited	Sushil Bolaria	242 GREENFIELD AVE			SAN MATEO	CA	94403-5010	US		Thinking of you Sushil!  Hope you're having a lovely day From Eugene	false		
113-6857028-1346623	31645090550450	2021-01-02T14:44:42+00:00	2021-01-02T06:44:42-08:00	2021-01-02T15:06:27+00:00	2021-01-06T07:59:59+00:00	-4	9vckd8lrcc1ywk0@marketplace.amazon.com	bruce tavel	+1 619-854-2705 ext. 11762	ABR0022	Delivery by Wednesday, Janaury 6 Dozen Pink Roses with a Free Vase by Arabella Bouquets	1	0	1	Expedited	ALEX TAVEL	27 DELWICK LN			SHORT HILLS	NJ	07078-2078	US		Hi Alex Happy Birthday. Love you very very much ! From Safta and Grandpa Bruce	false		
112-3100674-5457869	28169149235450	2021-01-02T14:51:30+00:00	2021-01-02T06:51:30-08:00	2021-01-02T15:19:47+00:00	2021-01-06T07:59:59+00:00	-4	fxpkvsy04wdtj6v@marketplace.amazon.com	Jonathan W Reynard	+1 763-225-9463 ext. 13544	ABM022	Delivery by Wednesday, Jan 6 Purple Extravagance Bouquet by Arabella Bouquets	1	0	1	Expedited	Judy Reynard	94 TONSET RD			ORLEANS	MA	02653-3453	US		Happy Birthday!   Love, Jon, Triest and Bridger From Jonathan W Reynard	false		
111-9665653-8993866	19429945795514	2021-01-02T14:58:10+00:00	2021-01-02T06:58:10-08:00	2021-01-02T15:26:16+00:00	2021-01-06T07:59:59+00:00	-4	0tnqvmz2jx6m7nw@marketplace.amazon.com	Gari Harden	+1 619-854-2705 ext. 75626	ABR0033	Delivery by Wednesday, Janaury 6 Dozen Orange Roses in a Free Vase by Arabella Bouquets	1	0	1	Expedited	Mrs. Mia Barber	3803 WOODROSE CT			SNELLVILLE	GA	30039-8428	US			false		
113-6992159-8406608	32422489326074	2021-01-02T15:01:32+00:00	2021-01-02T07:01:32-08:00	2021-01-02T15:33:23+00:00	2021-01-06T07:59:59+00:00	-4	d4vxp11ckwbm4mq@marketplace.amazon.com	michelle  novitske	+1 602-671-6610 ext. 84597	ABM022	Delivery by Wednesday, Jan 6 Purple Extravagance Bouquet by Arabella Bouquets	1	0	1	Expedited	Maggie Farrer	4188 BATTLE RIDGE RD			MC DONALD	PA	15057-2570	US		Happy birthday and congratulations! Love you both!! From Love, Michelle, billy & Ry	false		
113-3068565-9403421	59073540083866	2021-01-02T15:10:54+00:00	2021-01-02T07:10:54-08:00	2021-01-02T15:39:41+00:00	2021-01-06T07:59:59+00:00	-4	vkdklrbblspyl0l@marketplace.amazon.com	william	+1 415-851-9136 ext. 24459	ABR001	Delivery by Wednesday, Janaury 6 Dozen Red Roses in a Free Vase by Arabella Bouquets	1	0	1	Expedited	MELISSA MCSPADDEN	APARTMENT 102 DOLPHIN DR			BRUNSWICK	GA	31525-2163	US		Sweetheart this came from me to you from the bottom of my heart ❤️ to you , i am the man that has fallen so deeply in love with you when you see this please take away your fear away forever. I love you ❤️ From Adams	false		
112-7808740-3241002	39074065440330	2021-01-02T15:16:28+00:00	2021-01-02T07:16:28-08:00	2021-01-02T15:39:55+00:00	2021-01-06T07:59:59+00:00	-4	5lny5hlrhccx02n@marketplace.amazon.com	Aileen Setren	+1 602-671-6610 ext. 65631	ABR0022	Delivery by Wednesday, Janaury 6 Dozen Pink Roses with a Free Vase by Arabella Bouquets	1	0	1	Expedited	Mrs. Emma M Keslinger	120 ALDRICH ST APT 7F	APT 7F BRONX NY 10475-4526 UNITED STATES		BRONX	NY	10475-4526	US		Have a Happy 102nd Birthday Aunt Emma!!!   We all LOVE and Adore you! Xoxoxo Fays kids, From Melissa, Aileen, Michele, Robert	false		
112-7479521-8856207	35114768614146	2021-01-02T15:11:07+00:00	2021-01-02T07:11:07-08:00	2021-01-02T15:40:01+00:00	2021-01-06T07:59:59+00:00	-4	r4p5lrdjxqlj05t@marketplace.amazon.com	Don Tollefson	+1 602-671-6610 ext. 59247	ABR0022	Delivery by Wednesday, Janaury 6 Dozen Pink Roses with a Free Vase by Arabella Bouquets	1	0	1	Expedited	Barb Froyum	5345 197TH AVE NE			WYOMING	MN	55092-8511	US		Happy Birthday to my BFF BF! Love you Sista!  Cindy From Cindy Tollefson	false		
112-5828022-0221809	30939003459218	2021-01-02T15:16:31+00:00	2021-01-02T07:16:31-08:00	2021-01-02T15:45:14+00:00	2021-01-06T07:59:59+00:00	-4	49444gs9gplpdmf@marketplace.amazon.com	amylynn keiling	+1 619-854-2705 ext. 67816	ABR0022	Delivery by Wednesday, Janaury 6 Dozen Pink Roses with a Free Vase by Arabella Bouquets	1	0	1	Expedited	Tauri Olson	907 W FAIRVIEW AVE			SPOKANE	WA	99205-3322	US			false		
113-9095035-5930644	19073550815162	2021-01-02T15:25:24+00:00	2021-01-02T07:25:24-08:00	2021-01-02T15:54:00+00:00	2021-01-06T07:59:59+00:00	-4	dzk9rn92cqnl46t@marketplace.amazon.com	Virginia Henry	+1 415-851-9136 ext. 70197	ABR0022	Delivery by Wednesday, Janaury 6 Dozen Pink Roses with a Free Vase by Arabella Bouquets	1	0	1	Expedited	Catherine Crabill	61 The Pony Pasture			Irvington	VA	22480	US		We love you and are praying for you! The Henry's in New Mexico, all of them! XOXOXO From Virginia Henry	false		
112-1518255-1128239	61032815115562	2021-01-02T15:34:09+00:00	2021-01-02T07:34:09-08:00	2021-01-02T16:03:40+00:00	2021-01-06T07:59:59+00:00	-4	2c3524lsgjm9l29@marketplace.amazon.com	Edgardo Ramirez	+1 415-419-8616 ext. 37115	ABM020	Delivery by Wednesday, Jan 6 Sunset Bouquet by Arabella Bouquets	1	0	1	Expedited	Edgardo Ramirez	310 N SOLA AVE			BLYTHE	CA	92225-1829	US			false		
111-6753549-0143422	68637623102986	2021-01-02T15:46:03+00:00	2021-01-02T07:46:03-08:00	2021-01-02T16:11:29+00:00	2021-01-06T07:59:59+00:00	-4	kdkf7g7hcdp2bpf@marketplace.amazon.com	Uma Nayak	+1 213-442-1463 ext. 25341	ABR0033	Delivery by Wednesday, Janaury 6 Dozen Orange Roses in a Free Vase by Arabella Bouquets	1	0	1	Expedited	Lidia Propper	26 SEVEN SPRINGS LN APT 101			BURLINGTON	MA	01803-5173	US		Dearest Lidia,  Richard and I are wish you a wonderful Birthday and a great year unlike 2020.  Enjoy your special day.    Love you very much, Uma From Uma Nayak	false		
114-0184486-1583430	33394275092146	2021-01-02T15:47:09+00:00	2021-01-02T07:47:09-08:00	2021-01-02T16:16:09+00:00	2021-01-06T07:59:59+00:00	-4	85k9yydt2zyhfr0@marketplace.amazon.com	Jovito Carino	+1 213-442-1463 ext. 69476	ABR0022	Delivery by Wednesday, Janaury 6 Dozen Pink Roses with a Free Vase by Arabella Bouquets	1	0	1	Expedited	Lourdes Morales-Herr	4612 TELLO PATH			AUSTIN	TX	78749-1132	US			false		
113-6759646-8615437	09735236668730	2021-01-02T15:51:27+00:00	2021-01-02T07:51:27-08:00	2021-01-02T16:17:00+00:00	2021-01-06T07:59:59+00:00	-4	r20bq8bn0n521gx@marketplace.amazon.com	Kelsey	+1 480-618-5344 ext. 12104	ABM022	Delivery by Wednesday, Jan 6 Purple Extravagance Bouquet by Arabella Bouquets	1	0	1	Expedited	Susan Proulx	17 DALE AVE UNIT 6			AUBURN	MA	01501-1253	US		Happy Birthday Sue! - Love Bill and Deb	false		
111-0403529-1501015	51577895817018	2021-01-02T15:55:03+00:00	2021-01-02T07:55:03-08:00	2021-01-02T16:17:02+00:00	2021-01-06T07:59:59+00:00	-4	rdcdk6n6mm9vwh3@marketplace.amazon.com	Akilah Bernard	+1 415-419-8616 ext. 13207	ABR0022	Delivery by Wednesday, Janaury 6 Dozen Pink Roses with a Free Vase by Arabella Bouquets	1	0	1	Expedited	Ann Hill	375 HAWTHORNE TER			MOUNT VERNON	NY	10552-2429	US		Happy Birthday ! From Akilah Bernard	false		
114-1495884-3077847	17332214078378	2021-01-02T16:13:20+00:00	2021-01-02T08:13:20-08:00	2021-01-02T16:43:08+00:00	2021-01-06T07:59:59+00:00	-4	vv2918kkdwzs8c4@marketplace.amazon.com	Sylvia Rodriguez	+1 602-671-6610 ext. 83801	ABR0066	Delivery by Wednesday, Janaury 6 Dozen White Roses in a Free Vase by Arabella Bouquets	1	0	1	Expedited	Kayla Perez	912 LOVVORN RD APT 1333			CARROLLTON	GA	30117-2651	US			false		
113-0687140-6704254	11205691026090	2021-01-02T16:25:33+00:00	2021-01-02T08:25:33-08:00	2021-01-02T16:53:03+00:00	2021-01-05T07:59:59+00:00	-3	wlz1q3jm5fc283x@marketplace.amazon.com	Richard Landon	+1 415-851-9136 ext. 92074	ABR004	Delivery by Wednesday, Janaury 6 Dozen Yellow Roses in a Free Vase by Arabella Bouquets	1	0	1	SecondDay	Kathy Taylor	417 M SANDERS RD			BUCHANAN	GA	30113-3510	US			false		
114-3006262-5297820	00628548420170	2021-01-02T16:24:31+00:00	2021-01-02T08:24:31-08:00	2021-01-02T16:54:05+00:00	2021-01-06T07:59:59+00:00	-4	dhqlnhrjjzqyfpm@marketplace.amazon.com	Marsha E. Stockton	+1 763-225-9463 ext. 67699	ABM002	Delivery by Wednesday, Jan 6 White Calla Lilies in a Free Designer Glass Vase by Arabella Bouquets	1	0	1	Expedited	Beulah Stockton	328 S 600 W			PORTLAND	IN	47371-8569	US			false		
113-9598654-7553067	49826456876506	2021-01-02T16:34:36+00:00	2021-01-02T08:34:36-08:00	2021-01-02T17:02:59+00:00	2021-01-06T07:59:59+00:00	-4	2mk3xgbw7pf5mb2@marketplace.amazon.com	curt rhodes	+1 415-419-8616 ext. 91039	ABR0022	Delivery by Wednesday, Janaury 6 Dozen Pink Roses with a Free Vase by Arabella Bouquets	1	0	1	Expedited	Beverly Behrman	200 BROKEN BOW			BERTRAM	TX	78605-4265	US		Happy Birthday Momma!! From Love, Curt & Barbie	false		
112-9628783-5166621	65292366531842	2021-01-02T16:35:02+00:00	2021-01-02T08:35:02-08:00	2021-01-02T17:04:17+00:00	2021-01-06T07:59:59+00:00	-4	zg4kr4spkhpn8h0@marketplace.amazon.com	Lillian Shaller	+1 415-851-9136 ext. 89647	ABR0055	Delivery by Wednesday, Janaury 6 Dozen Hot Pink Roses in a Free Vase by Arabella Bouquets	1	0	1	Expedited	Meredith Strongin	19 NORTHWAY			HARTSDALE	NY	10530-2108	US		Happy Birthday Aunt Mere Mere!  We love you!! From Nate, Lillian, Max, Zach and Ruby	false		
112-9611521-1566662	12647694286018	2021-01-02T16:36:47+00:00	2021-01-02T08:36:47-08:00	2021-01-02T17:05:18+00:00	2021-01-06T07:59:59+00:00	-4	4vr9s9ll4rn13z6@marketplace.amazon.com	Paula Done	+1 415-851-9136 ext. 18252	ABR004	Delivery by Wednesday, Janaury 6 Dozen Yellow Roses in a Free Vase by Arabella Bouquets	1	0	1	Expedited	Terri Lowe	8809 LEMAS RD			SACRAMENTO	CA	95828-5846	US			false		
113-8311709-6697862	31601393179658	2021-01-02T17:00:13+00:00	2021-01-02T09:00:13-08:00	2021-01-02T17:26:36+00:00	2021-01-06T07:59:59+00:00	-4	7mf51j0w1lqqm3f@marketplace.amazon.com	Susan Berman	+1 213-442-1463 ext. 95737	ABR0022	Delivery by Wednesday, Janaury 6 Dozen Pink Roses with a Free Vase by Arabella Bouquets	1	0	1	Expedited	Sima Wilensky	5238 LAKE CATALINA DR N APT A			BOCA RATON	FL	33496-4407	US		Dear Sima, My deepest condolences to you and the Wilensky family. How can I be of service? Love, Suzi From Susan Berman	false		
113-2057049-4578628	39588874155586	2021-01-02T17:17:10+00:00	2021-01-02T09:17:10-08:00	2021-01-02T17:40:57+00:00	2021-01-06T07:59:59+00:00	-4	98hs87k9lkxygbh@marketplace.amazon.com	Bill Coulbourne	+1 213-442-1463 ext. 76707	ABM022	Delivery by Wednesday, Jan 6 Purple Extravagance Bouquet by Arabella Bouquets	1	0	1	Expedited	Linda Schmalzer	20404 DOWNES RD			PARKTON	MD	21120-9165	US		Linda: Hope you are recovering ok. My thoughts and prayers are with you. Bill From Bill Coulbourne	false		
113-4364947-5365005	43058494770946	2021-01-02T17:28:44+00:00	2021-01-02T09:28:44-08:00	2021-01-02T17:55:27+00:00	2021-01-06T07:59:59+00:00	-4	sj0mf7ypsyjbmtx@marketplace.amazon.com	Esther Brassell	+1 415-419-8616 ext. 25299	ABR001	Delivery by Wednesday, Janaury 6 Dozen Red Roses in a Free Vase by Arabella Bouquets	1	0	1	Expedited	Caroline Lee	3944 HEIDI RD W			JACKSONVILLE	FL	32277-1538	US		Happy birthday! From Uncle John and Bill, Esther, Emily and Eloise	false		
112-8089030-3161822	04108570727610	2021-01-02T17:27:49+00:00	2021-01-02T09:27:49-08:00	2021-01-02T18:00:51+00:00	2021-01-06T07:59:59+00:00	-4	kfj5d4vnw7fm6nd@marketplace.amazon.com	Maria T. Caserta	+1 480-618-5344 ext. 57549	ABC002	Delivery by Wednesday, January 6 Warm Wishes Bouquet by Arabella Bouquets	1	0	1	Expedited	Daniel Segraves	2092 CERRO GORDO ST			LOS ANGELES	CA	90039-3956	US		Happy 40th birthday !! Wish we could celebrate with you .   Love From Mom and Dad	false		
113-1496550-3117044	12115698282562	2021-01-02T17:42:36+00:00	2021-01-02T09:42:36-08:00	2021-01-02T18:12:15+00:00	2021-01-06T07:59:59+00:00	-4	tzhmmmv4b0d5crf@marketplace.amazon.com	Sam Wardle	+1 929-436-4790 ext. 56924	ABR004	Delivery by Wednesday, Janaury 6 Dozen Yellow Roses in a Free Vase by Arabella Bouquets	1	0	1	Expedited	Liz Wardle	22 LANTERN RIDGE RD			OXFORD	OH	45056-9518	US			false		
113-3837213-5851433	01389281952098	2021-01-02T17:46:05+00:00	2021-01-02T09:46:05-08:00	2021-01-02T18:15:53+00:00	2021-01-06T07:59:59+00:00	-4	h8j4yd87vb09vzj@marketplace.amazon.com	Joe Martin	+1 480-618-5344 ext. 61492	ABR0066	Delivery by Wednesday, Janaury 6 Dozen White Roses in a Free Vase by Arabella Bouquets	1	0	1	Expedited	Ms. Kay Johnson	204 Casa Dell Rd			Gaston	SC	29053-9300	US		Happy Birthday Kay! Love Joe and Marky and Max! From Joe Martin	false		
112-3267415-9899404	50149163438938	2021-01-02T18:06:04+00:00	2021-01-02T10:06:04-08:00	2021-01-02T18:34:32+00:00	2021-01-06T07:59:59+00:00	-4	2gcb3h3myqyf8qt@marketplace.amazon.com	Alec Velazquez	+1 415-851-9136 ext. 92602	ABR0066	Delivery by Wednesday, Janaury 6 Dozen White Roses in a Free Vase by Arabella Bouquets	1	0	1	Expedited	Kristen Gonzalez	10362 SAINT CHARLES WAY			SANTA ANA	CA	92705-1448	US		I hope these flowers help you feel a little better. You’re one of the strongest women I know, I love you so much and I’m here for you through anything ❤️ From Mich	false		
111-6481676-7513849	17954645537530	2021-01-02T18:13:01+00:00	2021-01-02T10:13:01-08:00	2021-01-02T18:40:06+00:00	2021-01-06T07:59:59+00:00	-4	kj27ymrw6chg78h@marketplace.amazon.com	Susan Kolb	+1 619-854-2705 ext. 82465	ABR0033	Delivery by Wednesday, Janaury 6 Dozen Orange Roses in a Free Vase by Arabella Bouquets	1	0	1	Expedited	Laura Faber	4371 WHISPERING OAK CIR			GRANITE BAY	CA	95746-9404	US		Thank you for all your help and support with the newsletter, Laura!! From Susan Kolb	false		
113-3951128-4627426	29617351550978	2021-01-02T18:28:18+00:00	2021-01-02T10:28:18-08:00	2021-01-02T18:46:55+00:00	2021-01-06T07:59:59+00:00	-4	z9qskfb575m3098@marketplace.amazon.com	Loretta Hoffman	+1 602-671-6610 ext. 86790	ABR014	Arabella Bouquets 18 Stems of Fresh Cut White Roses in a Free Designer Glass Vase	1	0	1	Expedited	Priscilla Avelino	216 BLUE PINE CT			ROSEVILLE	CA	95747-8870	US		Happy Birthday my beautiful Sis! Sending special  thoughts to you on your very special day.  Miss and love you 💕   Lo From Loretta Hoffman	false		
111-7248811-4777824	30342803539842	2021-01-02T18:20:12+00:00	2021-01-02T10:20:12-08:00	2021-01-02T18:47:37+00:00	2021-01-06T07:59:59+00:00	-4	yv6vlz84mcqx4hb@marketplace.amazon.com	Paul A D'Agostino	+1 415-851-9136 ext. 79690	ABM022	Delivery by Wednesday, Jan 6 Purple Extravagance Bouquet by Arabella Bouquets	1	0	1	Expedited	Janet D'Agostino	AMELIA NURSING & REHABILITATION CENTER	8830 VIRGINIA ST RM 122 B		AMELIA COURT HOUSE	VA	23002-4826	US		Happy New Year Mom!  I hope you are doing well and can get vaccinated soon.  Love Paul From Paul A D'Agostino	false		
112-1411749-3913856	42453062977722	2021-01-02T18:25:19+00:00	2021-01-02T10:25:19-08:00	2021-01-02T18:48:29+00:00	2021-01-06T07:59:59+00:00	-4	xx7d7rs5h9l9mwy@marketplace.amazon.com	Meena Gowda	+1 213-442-1463 ext. 31224	ABR0066	Delivery by Wednesday, Janaury 6 Dozen White Roses in a Free Vase by Arabella Bouquets	1	0	1	Expedited	Tara Sood	6113 STRELOW CT			SAN JOSE	CA	95120-3966	US		Happy Birthday, Tara.  Lots of hugs for many more returns of 39!  Meena auntie From Meena Gowda	false		
112-7584651-5100263	50382539343746	2021-01-02T18:21:20+00:00	2021-01-02T10:21:20-08:00	2021-01-02T18:50:13+00:00	2021-01-06T07:59:59+00:00	-4	7dd64958l1rz0mf@marketplace.amazon.com	Linda Reight	+1 213-442-1463 ext. 34756	ABM010	Delivery by Wednesday, Jan 6 Everlasting Fling with a Free Glass Vase by Arabella Bouquets	1	0	1	Expedited	Carolyn Mosseller	87 ABBOTTSFORD DR			PINEHURST	NC	28374-9757	US		Happy Birthday Mom.  Sorry I can't be with you on your special day.  But please remember you are always in my heart.  I love you, YFD-C2 From Linda Reight	false		
111-0129242-1753008	57136601754202	2021-01-02T18:26:48+00:00	2021-01-02T10:26:48-08:00	2021-01-02T18:57:25+00:00	2021-01-06T07:59:59+00:00	-4	bp2fr5jt2915db8@marketplace.amazon.com	Jackie Rogerson	+1 763-225-9463 ext. 54233	ABR0022	Delivery by Wednesday, Janaury 6 Dozen Pink Roses with a Free Vase by Arabella Bouquets	1	0	1	Expedited	Abby Watson	4720 CAUSEY POND RD			AWENDAW	SC	29429-4962	US			false		
113-5661054-2039415	37567777567874	2021-01-02T18:32:29+00:00	2021-01-02T10:32:29-08:00	2021-01-02T19:01:26+00:00	2021-01-06T07:59:59+00:00	-4	6hr1pkq1l0xgwhr@marketplace.amazon.com	lakesha shorter	+1 929-436-4790 ext. 36498	ABR014	Arabella Bouquets 18 Stems of Fresh Cut White Roses in a Free Designer Glass Vase	1	0	1	Expedited	Lakesha Shorter	1811 SCHLEY AVE			ALBANY	GA	31707-1858	US		Just to make you smile! From Your Future	false		
114-4609988-5695458	21766466989410	2020-12-30T18:18:58+00:00	2020-12-30T10:18:58-08:00	2021-01-02T19:06:29+00:00	2021-01-06T07:59:59+00:00	-4	cr3n4nk4s5ts23p@marketplace.amazon.com	Justin Parkinson	+1 602-671-6610 ext. 86696	ABR0022	Delivery by Tuesday, January 5 Dozen Pink Roses with a Free Vase by Arabella Bouquets	1	0	1	Expedited	Louise Shasgus	WILLIAMSTOWNE SENIOR APARTMENTS	41 WILLIAMSTOWNE CT APT 5		CHEEKTOWAGA	NY	14227-2058	US			false		
112-5322644-3033827	06716909449234	2021-01-02T18:43:37+00:00	2021-01-02T10:43:37-08:00	2021-01-02T19:10:47+00:00	2021-01-06T07:59:59+00:00	-4	ffk82plm6xst00t@marketplace.amazon.com	Karen Elliott	+1 213-442-1463 ext. 19758	ABR013	Delivery by Wednesday, Jan 6 Arabella Farm Direct Bouquet of 18 Fresh Cut Yellow Roses with a Free Glass Vase	1	0	1	Expedited	April Yates	1646 FIRESIDE WAY			LEMOORE	CA	93245-1714	US		Love you, God bless From Karen Elliott	false		
113-3133501-8402651	69340873023434	2021-01-02T18:44:48+00:00	2021-01-02T10:44:48-08:00	2021-01-02T19:12:34+00:00	2021-01-06T07:59:59+00:00	-4	qxtjt6kcml21rxw@marketplace.amazon.com	Darren Grogan	+1 213-442-1463 ext. 97281	ABR0022	Delivery by Wednesday, Janaury 6 Dozen Pink Roses with a Free Vase by Arabella Bouquets	1	0	1	Expedited	Laura Ott-Bowman	1817 COOK CIR			CORONA	CA	92882-5214	US		We are so sorry for your losses to mom and sister.  We are praying for you.  Love   Carmen and Darren From Darren Grogan	false		
113-5421589-7524246	09800295952962	2021-01-02T18:45:00+00:00	2021-01-02T10:45:00-08:00	2021-01-02T19:15:13+00:00	2021-01-06T07:59:59+00:00	-4	tsx6vxzy68gql35@marketplace.amazon.com	Dakota Toth	+1 415-851-9136 ext. 17563	ABR0022	Delivery by Wednesday, Janaury 6 Dozen Pink Roses with a Free Vase by Arabella Bouquets	1	0	1	Expedited	Autumn Robinson	15 EASY ST			SANDYVILLE	WV	25275-9356	US			false		
114-2330413-2569828	49990096117594	2021-01-02T18:48:09+00:00	2021-01-02T10:48:09-08:00	2021-01-02T19:17:02+00:00	2021-01-06T07:59:59+00:00	-4	71pmrwpvqb296fn@marketplace.amazon.com	Loraine Cope	+1 415-419-8616 ext. 47319	ABM0044	Delivery by Wednesday, Jan 6 Blue Hydrangea 5 Stems with a Free Glass Vase by Arabella Bouquets	1	0	1	Expedited	Sandy Cope	7378 CHIPPEWA TRL			YUCCA VALLEY	CA	92284-4711	US		We're sorry about Molly, but wanted to send some cheer your way! We love you so much and can't wait to see you soon :) From Jeff, Loraine, and Heather	false		
111-3809835-0138668	69003484005634	2021-01-02T18:52:59+00:00	2021-01-02T10:52:59-08:00	2021-01-02T19:23:32+00:00	2021-01-06T07:59:59+00:00	-4	xnx60tlcfpjx3dr@marketplace.amazon.com	Marie Hafdahl	+1 415-851-9136 ext. 34986	ABR0022	Delivery by Wednesday, Janaury 6 Dozen Pink Roses with a Free Vase by Arabella Bouquets	1	0	1	Expedited	Nancy Geritano	146 CANNON BLVD			STATEN ISLAND	NY	10306-4202	US			false		
114-5443146-6200225	35882682339850	2021-01-02T19:15:57+00:00	2021-01-02T11:15:57-08:00	2021-01-02T19:44:27+00:00	2021-01-06T07:59:59+00:00	-4	tsth5z3p0nz1wlc@marketplace.amazon.com	William J. Mendell	+1 415-851-9136 ext. 32829	ABM020	Delivery by Wednesday, Jan 6 Sunset Bouquet by Arabella Bouquets	1	0	1	Expedited	Jessica Mendell	4010 GRANDEFIELD CIR			MULBERRY	FL	33860-6566	US			false		
113-1919335-9965816	59204540827530	2021-01-02T19:49:29+00:00	2021-01-02T11:49:29-08:00	2021-01-02T20:04:50+00:00	2021-01-06T07:59:59+00:00	-4	pdnysn6x0cgnml1@marketplace.amazon.com	andrew hermans	+1 415-851-9136 ext. 38667	ABM010	Delivery by Wednesday, Jan 6 Everlasting Fling with a Free Glass Vase by Arabella Bouquets	1	0	1	Expedited	Marie Babbit	11717 BARNARD ST			MINT HILL	NC	28227-8691	US		Thank you Marie,  You always make me feel so welcome! You're cooking and hospitality is second to none! Love you!!! From andrew hermans	false		
113-4594939-9810622	16529818528538	2021-01-02T19:35:46+00:00	2021-01-02T11:35:46-08:00	2021-01-02T20:05:37+00:00	2021-01-05T07:59:59+00:00	-3	q05fnd776gdnydk@marketplace.amazon.com	michelle petrie	+1 213-442-1463 ext. 74419	ABR0022	Delivery by Wednesday, Janaury 6 Dozen Pink Roses with a Free Vase by Arabella Bouquets	1	0	1	SecondDay	Karla Ortiz	300 W BEECH ST UNIT 1508			SAN DIEGO	CA	92101-8450	US			false		
111-7241227-4184266	30477728680242	2021-01-02T19:38:56+00:00	2021-01-02T11:38:56-08:00	2021-01-02T20:05:57+00:00	2021-01-05T07:59:59+00:00	-3	z714bg08mmr8g6r@marketplace.amazon.com	James	+1 602-671-6610 ext. 25959	ABR001	Delivery by Wednesday, Janaury 6 Dozen Red Roses in a Free Vase by Arabella Bouquets	1	0	1	SecondDay	Kayla Duran	3121 N MAIN ST			CLOVIS	NM	88101-3527	US		I'm always thinking about you. I know I screw up at times. But with you it's always a 100% real. Please enjoy this gift since I can't be there to give you the flowers in person. From James	false		
112-2933955-9813059	21610089077618	2021-01-02T19:38:43+00:00	2021-01-02T11:38:43-08:00	2021-01-02T20:09:06+00:00	2021-01-06T07:59:59+00:00	-4	s23h6x5y078b63p@marketplace.amazon.com	John77	+1 213-442-1463 ext. 78750	ABR0022	Delivery by Wednesday, Janaury 6 Dozen Pink Roses with a Free Vase by Arabella Bouquets	1	0	1	Expedited	elizabeth harkins	45 Lockwood Avenue			Old greenwich	Ct	06870-1718	US			false		
113-6914173-7908267	50114342816866	2021-01-02T19:50:57+00:00	2021-01-02T11:50:57-08:00	2021-01-02T20:18:30+00:00	2021-01-06T07:59:59+00:00	-4	48qy9w6spg2ft4r@marketplace.amazon.com	Francis X. Holt	+1 619-854-2705 ext. 93944	ABR0022	Delivery by Wednesday, Janaury 6 Dozen Pink Roses with a Free Vase by Arabella Bouquets	1	0	1	Expedited	Kathleen Elsberry	590 21 1/8 RD			GRAND JUNCTION	CO	81507-1030	US		Happy Birthday!  Love you! From Mom & Dad	false		
114-1481713-4344235	58538792032426	2021-01-02T19:51:02+00:00	2021-01-02T11:51:02-08:00	2021-01-02T20:20:19+00:00	2021-01-06T07:59:59+00:00	-4	rdf2ddpvyqhdgsr@marketplace.amazon.com	A M Mount	+1 602-671-6610 ext. 44415	ABM022	Delivery by Wednesday, Jan 6 Purple Extravagance Bouquet by Arabella Bouquets	1	0	1	Expedited	Katrina Lowstuter	2032 MAYCREST AVE			SOUTH PASADENA	CA	91030-4209	US		Hi Katrina, Thanks for everything  We miss you Love Mum and Dad	false		
114-7751756-8283430	17334561472154	2021-01-02T19:59:40+00:00	2021-01-02T11:59:40-08:00	2021-01-02T20:21:54+00:00	2021-01-06T07:59:59+00:00	-4	348mwc73k0tt7ym@marketplace.amazon.com	Thelma	+1 213-442-1463 ext. 49971	ABR001	Delivery by Wednesday, Janaury 6 Dozen Red Roses in a Free Vase by Arabella Bouquets	1	0	1	Expedited	Kimberly Sanabria	6203 JAMESTOWN LN SE APT D101			LACEY	WA	98503-1381	US		Feliz cumpleaños hija que Dios siga derramando muchas bendiciones en tu vida te mando muchos abrazos te amo hija disfruta cada día que te ofrece Dios 😘 From Thelma	false		
113-8479267-8669028	48564424582122	2021-01-02T20:15:51+00:00	2021-01-02T12:15:51-08:00	2021-01-02T20:29:41+00:00	2021-01-06T07:59:59+00:00	-4	yb7lqym5sd6zsbg@marketplace.amazon.com	Paula Heisler	+1 480-618-5344 ext. 65286	ABM020	Delivery by Wednesday, Jan 6 Sunset Bouquet by Arabella Bouquets	1	0	1	Expedited	Edna Bowen	187 LAKESHORE DR			COLDWATER	MI	49036-9422	US		Happy 90th Birthday, Edna! From Paula Heisler	false		
111-1957800-8555432	34726525547210	2021-01-02T20:15:43+00:00	2021-01-02T12:15:43-08:00	2021-01-02T20:34:42+00:00	2021-01-06T07:59:59+00:00	-4	85tz40xh5vd2w5h@marketplace.amazon.com	Charles Faraci	+1 415-851-9136 ext. 53930	ABR0022	Delivery by Wednesday, Janaury 6 Dozen Pink Roses with a Free Vase by Arabella Bouquets	1	0	1	Expedited	Michelle & Dave Hetzel	33614 SHAMROCK LN			MURRIETA	CA	92563-2470	US		Enjoy your gift! We send our love and we whish you a happy birthday and a better 2021 From Mom & Chuck	false		
112-0645394-6866628	65993509494794	2021-01-02T20:10:30+00:00	2021-01-02T12:10:30-08:00	2021-01-02T20:37:40+00:00	2021-01-06T07:59:59+00:00	-4	zn00w4yctfv7r58@marketplace.amazon.com	Nathaniel Surles	+1 602-671-6610 ext. 86903	ABM022	Delivery by Wednesday, Jan 6 Purple Extravagance Bouquet by Arabella Bouquets	1	0	1	Expedited	Kathy Surles	6009 BRITLYN CT			GLEN ALLEN	VA	23060-2428	US			false		
113-4144370-9849840	52796790883490	2021-01-02T20:33:56+00:00	2021-01-02T12:33:56-08:00	2021-01-02T20:56:19+00:00	2021-01-06T07:59:59+00:00	-4	4p3j6c394jljk5p@marketplace.amazon.com	Blake Edwards	+1 415-419-8616 ext. 10650	ABC002	Delivery by Wednesday, January 6 Warm Wishes Bouquet by Arabella Bouquets	1	0	1	Expedited	Walt and Darby Howard	1602 MOSS CREEK RD			WAYCROSS	GA	31501-4184	US		Congratulations on sweet Barnes he is perfect, we love y'all and can't wait to meet him! Love Uncle Blake, Aunt Jen, Christian, and Caden From Blake Edwards	false		
113-8056339-9617020	61854225744586	2021-01-02T20:34:16+00:00	2021-01-02T12:34:16-08:00	2021-01-02T20:58:35+00:00	2021-01-06T07:59:59+00:00	-4	tx73wn90nxgy9md@marketplace.amazon.com	Josue B. Najera	+1 602-671-6610 ext. 14772	ABR0022	Delivery by Wednesday, Janaury 6 Dozen Pink Roses with a Free Vase by Arabella Bouquets	1	0	1	Expedited	Sonia Galindo	7341 Desierto Rojo			El Paso	TX	79912	US		I am back in El Paso, and I read about your Dad, I'm so sorry for your loss Sonia.  I'm sending you these flowers hoping you will enjoy them. Please let me know you received them at bnajera10 at gmail dot com. - Ben From Ben Najera	false		
113-4021880-8463400	12184832396658	2021-01-02T20:35:41+00:00	2021-01-02T12:35:41-08:00	2021-01-02T20:58:53+00:00	2021-01-06T07:59:59+00:00	-4	7xrfv3nrz0td33n@marketplace.amazon.com	Mike Kelechava	+1 415-419-8616 ext. 54973	ABM026	Delivery by Wednesday, January 6 Amour Bouquet by Arabella Bouquets	1	0	1	Expedited	Larry and Betty Tomsic	1361 SAINT JAMES DR			SAINT HELENA	CA	94574-2053	US		Betty and Larry, Wishing you both a very happy, healthy and safe 2021! love, Gail and Mike From Mike Kelechava	false		
114-3634387-1075427	17468546037602	2021-01-02T20:33:16+00:00	2021-01-02T12:33:16-08:00	2021-01-02T21:02:29+00:00	2021-01-06T07:59:59+00:00	-4	024lr010wm06ypt@marketplace.amazon.com	Sandy Fogarty	+1 415-851-9136 ext. 84499	ABR001	Delivery by Wednesday, Janaury 6 Dozen Red Roses in a Free Vase by Arabella Bouquets	1	0	1	Expedited	Louise Kelts	2627 BIRCH POINT DR			LUPTON	MI	48635-9604	US			false		
111-9142085-6489012	49449870828882	2021-01-02T20:33:20+00:00	2021-01-02T12:33:20-08:00	2021-01-02T21:02:48+00:00	2021-01-05T07:59:59+00:00	-3	9kpskb1z8vfrk2r@marketplace.amazon.com	Melanie Guthrie	+1 415-851-9136 ext. 14683	ABR0022	Delivery by Wednesday, Janaury 6 Dozen Pink Roses with a Free Vase by Arabella Bouquets	1	0	1	SecondDay	John & Darlene Guthrie	4300 COUNTY ROAD 434			THORNDALE	TX	76577-8764	US		Happy Birthday, Darlene! We love you and look forward to celebrating with you! xoxo From Mel and David	false		
111-7436126-6849050	06490124005306	2021-01-02T21:04:50+00:00	2021-01-02T13:04:50-08:00	2021-01-02T21:16:31+00:00	2021-01-06T07:59:59+00:00	-4	5fk59mkz06p2mf2@marketplace.amazon.com	Jeff Simes	+1 415-851-9136 ext. 57663	ABR0022	Delivery by Wednesday, Janaury 6 Dozen Pink Roses with a Free Vase by Arabella Bouquets	1	0	1	Expedited	Lorraine Simes	928 ZACAPA			VENICE	FL	34285-6345	US		Lorraine,  Enjoy your stay in Florida! Love,  Jeff, Shelby, John and Isabelle From Jeff Simes	false		
113-2298791-5353826	52120830549106	2021-01-02T20:54:43+00:00	2021-01-02T12:54:43-08:00	2021-01-02T21:19:40+00:00	2021-01-06T07:59:59+00:00	-4	3mffjpj2wyc2tjk@marketplace.amazon.com	Patrick Kelly	+1 213-442-1463 ext. 21590	ABR0022	Delivery by Wednesday, Janaury 6 Dozen Pink Roses with a Free Vase by Arabella Bouquets	1	0	1	Expedited	Jacqueline E Parker	7501 PEWTER LN			CHARLOTTE	NC	28270-2896	US		Get Well Soon Bugsy and stay Hydrated! Prayiing for you as is BJ! Actually you are getting the rosary! I am down to prayers!    Love, Joanie and Pat From Patrick Kelly	false		
111-0311827-9643407	43770287845946	2021-01-02T20:59:09+00:00	2021-01-02T12:59:09-08:00	2021-01-02T21:24:05+00:00	2021-01-05T07:59:59+00:00	-3	h6wn8lx94cmnzlc@marketplace.amazon.com	Kimberly Craig	+1 602-671-6610 ext. 21878	ABR0033	Delivery by Wednesday, Janaury 6 Dozen Orange Roses in a Free Vase by Arabella Bouquets	1	0	1	SecondDay	Stacy Smith	801 BRICKELL BAY DR APT 1769			MIAMI	FL	33131-2940	US		Just because.... From A friend	false		
111-7878649-9036222	28055502178602	2021-01-02T21:24:07+00:00	2021-01-02T13:24:07-08:00	2021-01-02T21:25:07+00:00	2021-01-06T07:59:59+00:00	-4	85hj351dytntjwp@marketplace.amazon.com	Tanya L. Wilson	+1 346-307-9643 ext. 39735	ABC002	Delivery by Wednesday, January 6 Warm Wishes Bouquet by Arabella Bouquets	1	0	1	Expedited	Billy & Jana Rainwater	572 PLEASANT AVE			EUREKA	CA	95503-6521	US		Jana & Billy,  Sending our love and prayers. We adored Uncle John and he is in our hearts forever.  Hugs and love to you both. From Tanya & Teri and families xoxoxoxoxo From Tanya & Teri and families xoxoxoxoxo	false		
111-6093831-5320230	05824991046402	2021-01-02T21:02:32+00:00	2021-01-02T13:02:32-08:00	2021-01-02T21:32:49+00:00	2021-01-06T07:59:59+00:00	-4	26xx2qgfx4cyk0l@marketplace.amazon.com	Rebecca Moorefield	+1 415-419-8616 ext. 28958	ABR0033	Delivery by Wednesday, Janaury 6 Dozen Orange Roses in a Free Vase by Arabella Bouquets	1	0	1	Expedited	Darlene Paxton	147 BERRY RD			PELZER	SC	29669-9389	US			false		
111-8747507-3116264	64092416128226	2021-01-02T21:06:39+00:00	2021-01-02T13:06:39-08:00	2021-01-02T21:34:57+00:00	2021-01-06T07:59:59+00:00	-4	n3hvzs614fpg90j@marketplace.amazon.com	Carolyn Gerrish	+1 619-854-2705 ext. 42691	ABR0055	Delivery by Wednesday, Janaury 6 Dozen Hot Pink Roses in a Free Vase by Arabella Bouquets	1	0	1	Expedited	Sue Arick	3005 BRAMBLEBUSH LN			LAKELAND	TN	38002-4171	US		Thinking of you and praying for you and Robert...  Sending you both lots of love!❤️❤️ Happy New Year!!!🎉 I love you and I thank God for you!!❤️🙏❤️ From Carolyn	false		
113-4228707-7812229	62713236339546	2021-01-02T21:06:30+00:00	2021-01-02T13:06:30-08:00	2021-01-02T21:36:56+00:00	2021-01-06T07:59:59+00:00	-4	5r40vbkn896z1bh@marketplace.amazon.com	David	+1 415-851-9136 ext. 10263	ABM022	Delivery by Wednesday, Jan 6 Purple Extravagance Bouquet by Arabella Bouquets	1	0	1	Expedited	Samantha Noel Chencharik	224 JEFFERSON ST APT 4R			HOBOKEN	NJ	07030-1909	US			false		
111-4926065-1266650	29958191358218	2021-01-02T21:22:23+00:00	2021-01-02T13:22:23-08:00	2021-01-02T21:49:06+00:00	2021-01-06T07:59:59+00:00	-4	ycfztck70hjs7xv@marketplace.amazon.com	Marcia Howard	+1 763-225-9463 ext. 35586	ABR0022	Delivery by Wednesday, Janaury 6 Dozen Pink Roses with a Free Vase by Arabella Bouquets	1	0	1	Expedited	Sally Burgess	1415 No. Highway A1A	unit 107		Indiatlantic	FL	32931	US		Happy Birthday Sally, hope the year ahead is a healthy and happy one for you.  Love, Marcia From Marcia Howard	false		
113-0074424-4378614	68823169677674	2021-01-02T21:26:16+00:00	2021-01-02T13:26:16-08:00	2021-01-02T21:53:47+00:00	2021-01-06T07:59:59+00:00	-4	fsj4m3zkqnsd70m@marketplace.amazon.com	Katherine Irving	+1 480-618-5344 ext. 18706	ABR0022	Delivery by Wednesday, Janaury 6 Dozen Pink Roses with a Free Vase by Arabella Bouquets	1	0	1	Expedited	Blakely Irving	4201 CARMEL ACRES DR			CHARLOTTE	NC	28226-7812	US		Happy Birthday Blakely.  We hope you enjoy your birthday! Love, Kathy and George	false		
113-4685871-5657861	46277034498122	2021-01-02T21:29:36+00:00	2021-01-02T13:29:36-08:00	2021-01-02T21:56:55+00:00	2021-01-06T07:59:59+00:00	-4	y56xnhgrt94k5yf@marketplace.amazon.com	Kim Halsey	+1 213-442-1463 ext. 09462	ABC002	Delivery by Wednesday, January 6 Warm Wishes Bouquet by Arabella Bouquets	1	0	1	Expedited	Tori Baines	22403 129TH AVENUE CT E			GRAHAM	WA	98338-6702	US		Thank you so much for the love and care you give our grand puppies, grand daughter and grand son and... oh yea....Tom! Hope your day is going well; rest up!  All our love, Kim and Mark From Kim Halsey	false		
111-5948656-3289049	06942372496938	2021-01-02T21:33:24+00:00	2021-01-02T13:33:24-08:00	2021-01-02T21:57:05+00:00	2021-01-06T07:59:59+00:00	-4	85hj351dytntjwp@marketplace.amazon.com	Tanya L. Wilson	+1 213-442-1463 ext. 31751	ABC001	Delivery by Wednesday, January 6 Seasons Greetings Bouquet by Arabella Bouquets	1	0	1	Expedited	John Wilson	1609 FOSTER AVE APT E			ARCATA	CA	95521-5380	US		Johnny!  Sending love and prayers to you and family. Uncle John was a bright light of joy in this world. We are so grateful to have known him as Uncle! Love, From Tanya & Teri and families xoxoxoxoxo	false		
113-9228264-9768265	55722906883490	2021-01-02T21:42:28+00:00	2021-01-02T13:42:28-08:00	2021-01-02T22:12:14+00:00	2021-01-06T07:59:59+00:00	-4	43b2rtrkngf77tf@marketplace.amazon.com	Kelly Simone	+1 415-851-9136 ext. 54541	ABR0066	Delivery by Wednesday, Janaury 6 Dozen White Roses in a Free Vase by Arabella Bouquets	1	0	1	Expedited	Kelly Simone	16 FLYNN RD			PEABODY	MA	01960-3312	US		You are the love of my life! From Joe	false		
111-8177138-0929833	47973480631154	2021-01-02T21:59:00+00:00	2021-01-02T13:59:00-08:00	2021-01-02T22:15:31+00:00	2021-01-05T07:59:59+00:00	-3	fd53pj4x3dcsp1w@marketplace.amazon.com	Karen Redding	+1 346-307-9643 ext. 45440	ABR0066	Delivery by Wednesday, Janaury 6 Dozen White Roses in a Free Vase by Arabella Bouquets	1	0	1	SecondDay	Mrs. Adrienne Silverio	13 DREW ST			NEWBURYPORT	MA	01950-6202	US		Adrienne,  Want you to know we care.   Love you From Karen & Bob	false		
111-4746186-9099467	07178113761858	2021-01-02T21:50:38+00:00	2021-01-02T13:50:38-08:00	2021-01-02T22:19:33+00:00	2021-01-06T07:59:59+00:00	-4	mmccqphtr96r7zw@marketplace.amazon.com	Patrick J. Vizconde	+1 415-851-9136 ext. 26683	ABR0022	Delivery by Wednesday, Janaury 6 Dozen Pink Roses with a Free Vase by Arabella Bouquets	1	0	1	Expedited	Carmen Bonifacio	13148 SAN RAFAEL DR			CHINO HILLS	CA	91709-1026	US		Happy Birthday Meeh! Love you! From Your guardian angel Jojo	false		
114-5784925-4584227	39636858046770	2021-01-02T22:04:23+00:00	2021-01-02T14:04:23-08:00	2021-01-02T22:30:23+00:00	2021-01-06T07:59:59+00:00	-4	pzfmxylymyycgb2@marketplace.amazon.com	Laura E Schwartzman	+1 619-854-2705 ext. 39345	ABR0033	Delivery by Wednesday, Janaury 6 Dozen Orange Roses in a Free Vase by Arabella Bouquets	1	0	1	Expedited	Paula and Stuart Schwartzman	163 KENTUCKY WAY			FREEHOLD	NJ	07728-4631	US		Sending healing wishes to Stella, and also to mom’s fried nerves. The orange color is to counteract the dreary winter weather! From Laura Schwartzman	false		
113-5359446-2007419	66296895719794	2021-01-02T22:08:28+00:00	2021-01-02T14:08:28-08:00	2021-01-02T22:31:27+00:00	2021-01-06T07:59:59+00:00	-4	grw7tycfrp8d414@marketplace.amazon.com	Jason Kuhnle	+1 415-419-8616 ext. 07391	ABR0022	Delivery by Wednesday, Janaury 6 Dozen Pink Roses with a Free Vase by Arabella Bouquets	1	0	1	Expedited	Jody Durica	155 SCRANTON CT			ZIONSVILLE	IN	46077-1059	US		We are so sorry about the loss of your sister. Please know we are thinking of you in the days, weeks and months to come and praying for peace and comfort. Love and hugs! From Jason & Tara Kuhnle	false		
111-0618058-1312222	24573836353074	2021-01-02T22:02:14+00:00	2021-01-02T14:02:14-08:00	2021-01-02T22:32:06+00:00	2021-01-06T07:59:59+00:00	-4	l11c6d7n334jxp2@marketplace.amazon.com	Emmanuel	+1 213-442-1463 ext. 31393	ABM020	Delivery by Wednesday, Jan 6 Sunset Bouquet by Arabella Bouquets	1	0	1	Expedited	Evelin Arriaza	9 JENSEN RD			BAY SHORE	NY	11706-1611	US		I love you.  Evelin Yaneth Vaughns From Emmanuel Vaughns	false		
112-2422234-0119454	32996978724962	2021-01-02T22:28:32+00:00	2021-01-02T14:28:32-08:00	2021-01-02T22:57:15+00:00	2021-01-06T07:59:59+00:00	-4	htx6phrw6pjpb8y@marketplace.amazon.com	Amanda	+1 602-671-6610 ext. 84015	ABR0022	Delivery by Wednesday, Janaury 6 Dozen Pink Roses with a Free Vase by Arabella Bouquets	1	0	1	Expedited	Danielle West	511 CAVALIER DR APT 204			CULVER	IN	46511-1357	US		Happy Birthday, Aunt Dee! We miss you, can't wait to see you in 2021! From Love, Arlie, Haven, Wes, Macy, Thane, Leo &Lena	false		
113-4455507-5024226	61170893056010	2021-01-02T22:42:44+00:00	2021-01-02T14:42:44-08:00	2021-01-02T23:10:31+00:00	2021-01-06T07:59:59+00:00	-4	jbw6rn14bdckg96@marketplace.amazon.com	yvonne t. Waller	+1 602-671-6610 ext. 27467	ABR0055	Delivery by Wednesday, Janaury 6 Dozen Hot Pink Roses in a Free Vase by Arabella Bouquets	1	0	1	Expedited	Kim Rouse	1655 SHORE DR			MERRITT ISLAND	FL	32952-5615	US			false		
111-4846488-0237009	38403115293274	2021-01-02T23:02:02+00:00	2021-01-02T15:02:02-08:00	2021-01-02T23:32:10+00:00	2021-01-05T07:59:59+00:00	-3	nlctghm12d9gcps@marketplace.amazon.com	Linda Brown	+1 415-419-8616 ext. 65949	ABM0044	Delivery by Wednesday, Jan 6 Blue Hydrangea 5 Stems with a Free Glass Vase by Arabella Bouquets	1	0	1	SecondDay	The Krigers	3880 E RIVER RD			GRAND ISLAND	NY	14072-1449	US			false		
114-4639391-6437009	28203993084098	2021-01-02T23:10:13+00:00	2021-01-02T15:10:13-08:00	2021-01-02T23:33:37+00:00	2021-01-06T07:59:59+00:00	-4	mddxby2p8bjtyz8@marketplace.amazon.com	Alison L. Tisaranni	+1 929-436-4790 ext. 28028	ABR0066	Delivery by Wednesday, Janaury 6 Dozen White Roses in a Free Vase by Arabella Bouquets	1	0	1	Expedited	Marguerite Shuster	27418 DIANE MARIE CIR			SAUGUS	CA	91350-1732	US		Marguerite, Sending you a hug during this difficult time.  Your friend, Alison From Alison L. Tisaranni	false		
111-3815763-3515429	26344749966962	2021-01-02T23:15:30+00:00	2021-01-02T15:15:30-08:00	2021-01-02T23:43:04+00:00	2021-01-06T07:59:59+00:00	-4	6ywdqb4ymz2rx6x@marketplace.amazon.com	PAMELA SEYBERT	+1 415-419-8616 ext. 03503	ABR0022	Delivery by Wednesday, Janaury 6 Dozen Pink Roses with a Free Vase by Arabella Bouquets	1	0	1	Expedited	Bunny Kirwin	1200 CYPRESS POINT LN # 208			VENTURA	CA	93003-6037	US		So good chatting with you.....here's to a New Year! May you be richly blessed.  Love, Pam From PAMELA SEYBERT	false		
112-2005053-5219411	24742399122458	2021-01-02T23:21:09+00:00	2021-01-02T15:21:09-08:00	2021-01-02T23:44:27+00:00	2021-01-06T07:59:59+00:00	-4	wnn8txm5mf7r3zp@marketplace.amazon.com	JoEllen Revell	+1 602-671-6610 ext. 39584	ABM022	Delivery by Wednesday, Jan 6 Purple Extravagance Bouquet by Arabella Bouquets	1	0	1	Expedited	Maria Bottone	14740 KIRSTEN CT			FORT LAUDERDALE	FL	33325-3078	US		Maria, Just because you are awesome. Enjoy!  We picked purple as a symbol of elegance, grace & an important transition.   Enjoy! From JoEllen and Mark	false		
114-0145777-4972242	11423817469522	2021-01-02T23:38:32+00:00	2021-01-02T15:38:32-08:00	2021-01-02T23:47:26+00:00	2021-01-06T07:59:59+00:00	-4	y1bcjmvlnkvnylj@marketplace.amazon.com	Richard Gordon	+1 213-442-1463 ext. 78887	ABM020	Delivery by Wednesday, Jan 6 Sunset Bouquet by Arabella Bouquets	1	0	1	Expedited	Jazmyne Arndt Nangle	6334 SPARKLING WAY			WESLEY CHAPEL	FL	33545-4845	US		Dear Jazmyne,  We are so sorry to hear you are not feeling well still!!! Sending you lots of love and strength for a quick recovery. Many blessings for the new year. From Nana and Papa Rick	false		
113-2785120-5280253	70169630149370	2021-01-02T23:24:18+00:00	2021-01-02T15:24:18-08:00	2021-01-02T23:50:20+00:00	2021-01-06T07:59:59+00:00	-4	lz3yjk4nbrvl02m@marketplace.amazon.com	robert hagge	+1 480-618-5344 ext. 59302	ABR0066	Delivery by Wednesday, Janaury 6 Dozen White Roses in a Free Vase by Arabella Bouquets	1	0	1	Expedited	Caroline Alsept	46082 W STARLIGHT DR			MARICOPA	AZ	85139-6923	US			false		
113-1942700-1565865	53268053748586	2021-01-02T23:48:01+00:00	2021-01-02T15:48:01-08:00	2021-01-02T23:58:25+00:00	2021-01-06T07:59:59+00:00	-4	35rjn39hp1swmrc@marketplace.amazon.com	David	+1 213-442-1463 ext. 44224	ABR001	Delivery by Wednesday, Janaury 6 Dozen Red Roses in a Free Vase by Arabella Bouquets	1	0	1	Expedited	Bebie Cole	17050 SAN MARCOS HWY			MARTINDALE	TX	78655-3804	US			false		
111-1906627-4661834	60992775832474	2021-01-02T23:43:01+00:00	2021-01-02T15:43:01-08:00	2021-01-03T00:10:41+00:00	2021-01-06T07:59:59+00:00	-4	ydp660m17y9gns4@marketplace.amazon.com	alma aguilar	+1 415-419-8616 ext. 44300	ABR001	Delivery by Wednesday, Janaury 6 Dozen Red Roses in a Free Vase by Arabella Bouquets	1	0	1	Expedited	Julio Avalos	2419 S 19TH ST UPPR LEVEL			MILWAUKEE	WI	53215-3007	US		Perdón te amo y siempre te amare From alma aguilar	false		
114-3147460-7293033	57130162687058	2021-01-02T23:49:45+00:00	2021-01-02T15:49:45-08:00	2021-01-03T00:18:35+00:00	2021-01-06T07:59:59+00:00	-4	6dyjxtnnx4x10df@marketplace.amazon.com	Lianna Johnson	+1 602-671-6610 ext. 35771	ABR0055	Delivery by Wednesday, Janaury 6 Dozen Hot Pink Roses in a Free Vase by Arabella Bouquets	1	0	1	Expedited	Katie Brooker	9445 RANDAL PARK BLVD			ORLANDO	FL	32832-6287	US		Happy Birthday! We adore you. From Mark & Lianna	false		
113-9897030-0068267	40997788253242	2021-01-03T00:08:15+00:00	2021-01-02T16:08:15-08:00	2021-01-03T00:35:24+00:00	2021-01-06T07:59:59+00:00	-4	9k9q7z96p5kgwx6@marketplace.amazon.com	Mariclare Gudas	+1 763-225-9463 ext. 55880	ABM022	Delivery by Wednesday, Jan 6 Purple Extravagance Bouquet by Arabella Bouquets	1	0	1	Expedited	Claire Wolfram	NEW ENGLAND REHABILITATION HOSPITAL	335 BRIGHTON AVE		PORTLAND	ME	04102-2363	US		We love you mom! Praying for a speedy recovery! Love Mari and Rob From Mariclare Gudas	false		
112-1860473-2313860	43548820231074	2021-01-03T00:10:30+00:00	2021-01-02T16:10:30-08:00	2021-01-03T00:35:56+00:00	2021-01-06T07:59:59+00:00	-4	hxqn4wkdvss2g0c@marketplace.amazon.com	Clutter Bug Books	+1 213-442-1463 ext. 68347	ABM024	Delivery by Tuesday, January 5 Beauty of Color Bouquet by Arabella Bouquets	1	0	1	Expedited	Aunt Millie Taylor	8917 HILLCREST DR			ZEELAND	MI	49464-2104	US		Happy birthday Aunt Millie. Here's to another 94. Love Debbie From Debbie in Arizona	false		
112-4384336-5217840	66598242299882	2021-01-03T00:16:24+00:00	2021-01-02T16:16:24-08:00	2021-01-03T00:42:29+00:00	2021-01-06T07:59:59+00:00	-4	y9g3ttkymlhn172@marketplace.amazon.com	Colleen Morrissey	+1 415-851-9136 ext. 61940	ABR0033	Delivery by Wednesday, Janaury 6 Dozen Orange Roses in a Free Vase by Arabella Bouquets	1	0	1	Expedited	Dr. Lorraine Burio	87 CT-39, New Fairfield, CT 06812			New fairfield	CT	06812	US			false		
111-5194912-8943430	06766339531786	2021-01-03T00:18:03+00:00	2021-01-02T16:18:03-08:00	2021-01-03T00:46:26+00:00	2021-01-06T07:59:59+00:00	-4	vtrjmc9twhn7j92@marketplace.amazon.com	Marion Cox	+1 415-851-9136 ext. 21657	ABR0022	Delivery by Wednesday, Janaury 6 Dozen Pink Roses with a Free Vase by Arabella Bouquets	1	0	1	Expedited	Laura Hecht	16012 WHITE OAKS DR			LAKE OSWEGO	OR	97035-4204	US		Happy Birthday, Laura!  with tons of love,  Marion From Marion Cox	false		
