order-id	order-item-id	purchase-date	payments-date	reporting-date	promise-date	days-past-promise	buyer-email	buyer-name	buyer-phone-number	sku	product-name	quantity-purchased	quantity-shipped	quantity-to-ship	ship-service-level	recipient-name	ship-address-1	ship-address-2	ship-address-3	ship-city	ship-state	ship-postal-code	ship-country	gift-wrap-type	gift-message-text	is-business-order	purchase-order-number	price-designation
111-6174558-2255406	04202528084082	2021-01-04T03:24:29+00:00	2021-01-03T19:24:29-08:00	2021-01-04T03:51:42+00:00	2021-01-06T07:59:59+00:00	-2	b9327dzcrtrb3dr@marketplace.amazon.com	matt park	+1 602-671-6610 ext. 98681	ABR0022	Delivery by Wednesday, Janaury 6 Dozen Pink Roses with a Free Vase by Arabella Bouquets	1	0	1	Expedited	Ke’xin Ye	33 8TH ST APT 220			SAN FRANCISCO	CA	94103-1476	US		<3 =] From matt park	false		
111-5577379-6487448	37736976361266	2021-01-04T15:13:21+00:00	2021-01-04T07:13:21-08:00	2021-01-04T15:40:11+00:00	2021-01-07T07:59:59+00:00	-3	l40ly2t5kgsgsl2@marketplace.amazon.com	Dana	+1 602-671-6610 ext. 96206	ABM0044	Delivery by Thursday, January 7 Blue Hydrangea 5 Stems with a Free Glass Vase by Arabella Bouquets	1	0	1	Expedited	Diane Cumberland	2826 E THOMPSON ST			PHILADELPHIA	PA	19134-4706	US		Happy Birthday, Diane.  Love, Joe From Joe	false		
114-4701569-6397039	32096918776018	2021-01-04T15:22:56+00:00	2021-01-04T07:22:56-08:00	2021-01-04T15:51:32+00:00	2021-01-07T07:59:59+00:00	-3	7474br0fvxr65qc@marketplace.amazon.com	Luke Lockhart	0404 403 2174	ABM010	Delivery by Thursday, January 7 Everlasting Fling with a Free Glass Vase by Arabella Bouquets	1	0	1	Expedited	Natalie Hand	448 LAKESHORE DR			MONROE	GA	30655-7710	US		Happy Birthday Natalie, Lots of Love Anna-Marie, Luke, Hannah, David and Alena xx From the Scotties	false		
113-9569194-5774605	14717125112586	2021-01-04T15:30:07+00:00	2021-01-04T07:30:07-08:00	2021-01-04T15:58:21+00:00	2021-01-07T07:59:59+00:00	-3	snz1qfgd126b795@marketplace.amazon.com	Santiago Portocarrero	+1 213-442-1463 ext. 03352	ABM010	Delivery by Thursday, January 7 Everlasting Fling with a Free Glass Vase by Arabella Bouquets	1	0	1	Expedited	Manuel Roggero	30 MAITLAND GROVES RD			MAITLAND	FL	32751-4819	US		Astrid, Gringo: Hemos pasado unos días espectaculares con ustedes, un millón de gracias por todo!! Los queremos y los vemos pronto. De Los Portocarrero Perez-Egana	false		
112-2507414-6335427	08464575137482	2021-01-04T15:37:32+00:00	2021-01-04T07:37:32-08:00	2021-01-04T16:01:29+00:00	2021-01-07T07:59:59+00:00	-3	t2dvhk4426164tk@marketplace.amazon.com	Jessica McElroy	+1 213-442-1463 ext. 31481	ABM022	Delivery by Thursday, January 7 Purple Extravagance Bouquet by Arabella Bouquets	1	0	1	Expedited	Most Humble and Family	9090 N RANGE LINE RD			MILWAUKEE	WI	53217-1010	US		We are so sorry for your loss. Our thoughts and prayers are with you and your family during this difficult time. From Your A Team ;)	false		
113-5509438-4128248	59884260637818	2021-01-04T15:48:45+00:00	2021-01-04T07:48:45-08:00	2021-01-04T16:12:04+00:00	2021-01-07T07:59:59+00:00	-3	lzxplntfvc14dbd@marketplace.amazon.com	Gregory Stroup	+1 213-442-1463 ext. 54958	ABM026	Delivery by Thursday, January 7 Amour Bouquet by Arabella Bouquets	1	0	1	Expedited	Mrs. Jessica Richards	3834 HIGHLAND BLUFF DR			GROVEPORT	OH	43125-9113	US		Happy Birthday, Jessica! We sure hope these brighten your day and help you feel loved and appreciated. Wish we could be there to hug you, Sweetheart!! You have always been a beautiful and precious gift - Love n miss you  - Love, Dad and Sharon	false		
111-7771986-5376269	01505107429618	2021-01-04T15:59:26+00:00	2021-01-04T07:59:26-08:00	2021-01-04T16:26:28+00:00	2021-01-07T07:59:59+00:00	-3	zrl1gs06v15ksd2@marketplace.amazon.com	Sherrie L Garibay	+1 213-442-1463 ext. 92964	ABM026	Delivery by Thursday, January 7 Amour Bouquet by Arabella Bouquets	1	0	1	Expedited	Kaitlynn Harvey	2911 S SADDLEBROOK LN			KATY	TX	77494-6817	US			false		
112-8043075-2093849	52402161569026	2021-01-04T16:07:30+00:00	2021-01-04T08:07:30-08:00	2021-01-04T16:34:01+00:00	2021-01-07T07:59:59+00:00	-3	0hv8l2ydh7vjgdf@marketplace.amazon.com	Jessica Pruitt	+1 929-436-4790 ext. 26816	ABM029	Delivery by Thursday, January 7 Day Dream Bouquet by Arabella Bouquets	1	0	1	Expedited	Sue Cleveland	4735 LUCERNE LAKES BLVD E APT 101			LAKE WORTH	FL	33467-8902	US		Happy Birthday, Gram! This is going to arrive late, but hopefully they come close to being as beautiful and awe-inspiring as you are ♡♡♡ From Jessica and Matt	false		
111-7848111-2912218	32016079988362	2021-01-04T16:07:02+00:00	2021-01-04T08:07:02-08:00	2021-01-04T16:35:32+00:00	2021-01-07T07:59:59+00:00	-3	myycjs1jmvytkv1@marketplace.amazon.com	anna christean alexanders	+1 415-419-8616 ext. 95978	ABM026	Delivery by Thursday, January 7 Amour Bouquet by Arabella Bouquets	1	0	1	Standard	Sue White	1017 COBB CIR			MURPHY	NC	28906-6035	US		Happy Birthday Mom!! From Christean	false		
114-2791820-9336249	41051352660618	2021-01-04T16:10:52+00:00	2021-01-04T08:10:52-08:00	2021-01-04T16:39:30+00:00	2021-01-07T07:59:59+00:00	-3	vtrcjlm06sv8q9z@marketplace.amazon.com	David French	+1 619-854-2705 ext. 63389	ABM021	Delivery by Thursday, January 7 Joyous Bouquet by Arabella Bouquets	1	0	1	Expedited	Dolores Blackwell	2042 GRANT AVE			SAINT ALBANS	WV	25177-1958	US			false		
112-3151384-6145861	52317415815530	2021-01-04T16:15:24+00:00	2021-01-04T08:15:24-08:00	2021-01-04T16:45:55+00:00	2021-01-07T07:59:59+00:00	-3	pbwss3xnhck8pbf@marketplace.amazon.com	Charles J Ray	+1 480-618-5344 ext. 58358	ABM026	Delivery by Thursday, January 7 Amour Bouquet by Arabella Bouquets	1	0	1	Expedited	Charles  Ray	1929 W. Morning  Vista Lane			Phoenix	AZ	85085	US			false		
111-3323825-6818621	54901853873842	2021-01-04T16:24:33+00:00	2021-01-04T08:24:33-08:00	2021-01-04T16:47:25+00:00	2021-01-07T07:59:59+00:00	-3	0jcvjxcjr4sj2hy@marketplace.amazon.com	Donna M.Trudell	+1 619-854-2705 ext. 62991	ABC001	Delivery by Thursday, January 7 Seasons Greetings Bouquet by Arabella Bouquets	1	0	1	Expedited	Doris Lapointe	8407 PIN OAK DR			PARMA	OH	44130-7650	US		HAPPY BIRTHDAY MOM!    Love you, Donna & Jim From Donna M.Trudell	false		
111-8984053-8848209	27793635406746	2021-01-04T16:21:35+00:00	2021-01-04T08:21:35-08:00	2021-01-04T16:50:15+00:00	2021-01-07T07:59:59+00:00	-3	3d23gp6hd4y8ppj@marketplace.amazon.com	Hans Figueroa	+1 602-671-6610 ext. 25000	ABM022	Delivery by Thursday, January 7 Purple Extravagance Bouquet by Arabella Bouquets	1	0	1	Expedited	Norma Roddy	140 BAKER RD NW			HUNTSVILLE	AL	35806-1602	US		So sorry for your loss. You are in our thoughts and prayers. We take hope in John 14:1-3. Love. Heather, Hans, Liam, & Gabe Figueroa From Hans Figueroa	false		
114-9137422-0078631	05195906895626	2021-01-04T16:30:00+00:00	2021-01-04T08:30:00-08:00	2021-01-04T16:57:29+00:00	2021-01-07T07:59:59+00:00	-3	1p6bwlb3p7r39d1@marketplace.amazon.com	susan fuller	+1 346-307-9643 ext. 84019	ABM022	Delivery by Thursday, January 7 Purple Extravagance Bouquet by Arabella Bouquets	1	0	1	Expedited	Mary Ellyn Humiston	502 JOHNSON RIDGE RD			ELKIN	NC	28621-2420	US		To brighten up your days and keep you smiling til next week.  We are thinking of you From Sue and Bob	false		
113-1817578-3661859	43296976441682	2021-01-04T16:28:01+00:00	2021-01-04T08:28:01-08:00	2021-01-04T16:57:58+00:00	2021-01-07T07:59:59+00:00	-3	88xjzqrqxqk1kld@marketplace.amazon.com	Cassandra J Martin	+1 619-854-2705 ext. 54024	ABM0033	Delivery by Thursday, January 7 White Hydrangea 5 Stems with a Free Glass Vase by Arabella Bouquets	1	0	1	Expedited	Cecilia Fernandez	969 Asilomar Terrace, #2			Sunnyvale	CA	94086	US		Because I love you- Cass From Cassandra J Martin	false		
114-8285840-3410632	60933625188202	2021-01-04T16:31:42+00:00	2021-01-04T08:31:42-08:00	2021-01-04T16:59:59+00:00	2021-01-07T07:59:59+00:00	-3	yq13yr715l08nky@marketplace.amazon.com	Brian Keith Findley	+1 480-618-5344 ext. 92199	ABM020	Delivery by Thursday, January 7 Sunset Bouquet by Arabella Bouquets	1	0	1	Expedited	Jean Findley	4305 FRANKLIN RIDGE CT			RALEIGH	NC	27616-0721	US		Dear Mom, we are so happy you are home and healthy. We hope these flowers bring you some cheer! We love you!  Love Brian, Jessa, Isaac and Everly From Brian Keith Findley	false		
113-2203326-4610655	05804401719922	2021-01-04T16:41:45+00:00	2021-01-04T08:41:45-08:00	2021-01-04T17:11:28+00:00	2021-01-07T07:59:59+00:00	-3	5tksr4d9q8ngckw@marketplace.amazon.com	Margaret Ferry	+1 480-618-5344 ext. 45922	ABM022	Delivery by Thursday, January 7 Purple Extravagance Bouquet by Arabella Bouquets	1	0	1	Expedited	Jessica Saragusa	6 SCOTT CT			DAYTON	NJ	08810-1408	US		Happy birthday Jess! From Love, Marge	false		
112-6676943-3687455	68648497458458	2021-01-04T16:49:28+00:00	2021-01-04T08:49:28-08:00	2021-01-04T17:16:52+00:00	2021-01-07T07:59:59+00:00	-3	cggq1nlzq0mbz1m@marketplace.amazon.com	Bunty Chhatlani	+1 213-442-1463 ext. 02314	ABM022	Delivery by Thursday, January 7 Purple Extravagance Bouquet by Arabella Bouquets	1	0	1	Expedited	JEFF AHLDEN	1292 W STATION ST			KANKAKEE	IL	60901-3368	US		Happy Birthday!! Mr. Jeff.  Have A Great Year Stay Blessed. From Colors Duty Free St Kitts Harry Lakhwani.	false		
111-2921096-6760264	49655101952594	2021-01-04T16:52:56+00:00	2021-01-04T08:52:56-08:00	2021-01-04T17:20:37+00:00	2021-01-07T07:59:59+00:00	-3	gxdrc3yl37n1gvf@marketplace.amazon.com	Amber Powley Naden	+1 213-442-1463 ext. 55978	ABM022	Delivery by Thursday, January 7 Purple Extravagance Bouquet by Arabella Bouquets	1	0	1	Expedited	The Opilla Family	3447 EVERETTE DR			BOWIE	MD	20716-1268	US		Dear Dara and Chris,  We are so sorry about Michael and Jean. We love you guys and are here for anything you need. From Love, Amber and Luke	false		
113-5450721-6731448	54759231839226	2021-01-04T16:51:32+00:00	2021-01-04T08:51:32-08:00	2021-01-04T17:20:57+00:00	2021-01-07T07:59:59+00:00	-3	gxjr4vhnxhm9vm3@marketplace.amazon.com	Rachel Oberlin	+1 619-854-2705 ext. 60865	ABM010	Delivery by Thursday, January 7 Everlasting Fling with a Free Glass Vase by Arabella Bouquets	1	0	1	Expedited	Gwen Lasher	2068 TER VAN DR NE			GRAND RAPIDS	MI	49505-6368	US		Happy Birthday, Mom! We love and miss you! -Rachel, Matt, Kianna, Jace,  and Oreo. From Rachel Oberlin	false		
112-1793975-7244250	10376919228754	2021-01-04T17:01:28+00:00	2021-01-04T09:01:28-08:00	2021-01-04T17:28:33+00:00	2021-01-07T07:59:59+00:00	-3	kc5bnkzgky52bl9@marketplace.amazon.com	Alice	+1 415-419-8616 ext. 31211	ABM025	Delivery by Thursday, January 7 Fell for You Bouquet by Arabella Bouquets	1	0	1	Expedited	Jasmine Everett-Lewis	950 E 3RD ST APT 2610			LOS ANGELES	CA	90013-2694	US		Happy Birthday Jasmine, wishing you a wonderful day 🥳  Love, Madre, Richard and Jade From Madre, Richard and Jade	false		
114-1894954-6631438	63286371863810	2021-01-04T17:06:39+00:00	2021-01-04T09:06:39-08:00	2021-01-04T17:34:49+00:00	2021-01-07T07:59:59+00:00	-3	4xxn0qt4q9h677n@marketplace.amazon.com	Judy Kesterson	+1 619-854-2705 ext. 59741	ABC002	Delivery by Thursday, January 7 Warm Wishes Bouquet by Arabella Bouquets	1	0	1	Expedited	Lisa Riddley	99 MICHAELS CV			TALLADEGA	AL	35160-8563	US			false		
111-2893793-4965067	62844385016730	2021-01-04T17:16:42+00:00	2021-01-04T09:16:42-08:00	2021-01-04T17:42:04+00:00	2021-01-07T07:59:59+00:00	-3	x2rvwg4wchq8mhc@marketplace.amazon.com	Shelly Cooke	+1 602-671-6610 ext. 32881	ABM022	Delivery by Thursday, January 7 Purple Extravagance Bouquet by Arabella Bouquets	1	0	1	Standard	Dorothy Zolandz	3706 COREY PL NW			WASHINGTON	DC	20016-3244	US		Dear Dorothy, Our hearts and thoughts are with you and your family during this time. -from your NRCEO family From Greg, Jim, NRCEO	false		
113-8262749-6214634	14314285479594	2021-01-04T17:18:10+00:00	2021-01-04T09:18:10-08:00	2021-01-04T17:46:12+00:00	2021-01-07T07:59:59+00:00	-3	yvbcd830rv6rgvh@marketplace.amazon.com	Melanie Uzzell	+1 213-442-1463 ext. 64076	ABM022	Delivery by Thursday, January 7 Purple Extravagance Bouquet by Arabella Bouquets	1	0	1	Expedited	Rosa Flores	7306 WILDER ST			SAN ANTONIO	TX	78250-3528	US		Happy Birthday! From Melanie Uzzell	false		
114-2472416-3368229	09585679133626	2021-01-04T17:32:30+00:00	2021-01-04T09:32:30-08:00	2021-01-04T18:00:06+00:00	2021-01-07T07:59:59+00:00	-3	v41kb6ltjzmc6f9@marketplace.amazon.com	Heidee	+1 415-419-8616 ext. 94245	ABM010	Delivery by Thursday, January 7 Everlasting Fling with a Free Glass Vase by Arabella Bouquets	1	0	1	Expedited	Donna Reinke	20235 FREDENBURG RD SW			SOLWAY	MN	56678-4381	US		Happy Birthday Mom!  Hope your day is wonderful. Looking forward to seeing you this weekend.   Love you! From Heidee, Doug & the Boys From Heidee, Doug & the Boys	false		
114-7075832-1761008	33545472225066	2021-01-04T17:37:45+00:00	2021-01-04T09:37:45-08:00	2021-01-04T18:04:16+00:00	2021-01-07T07:59:59+00:00	-3	gy33dnxqxy12j95@marketplace.amazon.com	Sascha Jamall	+1 480-618-5344 ext. 76984	ABM022	Delivery by Thursday, January 7 Purple Extravagance Bouquet by Arabella Bouquets	1	0	1	Expedited	Sascha Jamall	1129 MERLOT DR			SOUTHLAKE	TX	76092-8875	US		Happy Birthday to the best Mom and Wife From Gabby and Sascha	false		
112-5554560-4494626	52778892658258	2021-01-04T17:39:22+00:00	2021-01-04T09:39:22-08:00	2021-01-04T18:04:30+00:00	2021-01-07T07:59:59+00:00	-3	32r7ps8pljyyzs0@marketplace.amazon.com	Holly Calhoun	+1 415-851-9136 ext. 20621	ABM022	Delivery by Thursday, January 7 Purple Extravagance Bouquet by Arabella Bouquets	1	0	1	Expedited	Dee Miller	781 SLAWSON LN			KILLEEN	TX	76542-4260	US		Dee, Thank you for caring for the girls and the house. It was so nice to come home to a clean house after such a rough week!  We couldn't have pulled off this week without you. From Holly and Bryan Calhoun	false		
111-6275365-1645034	01863812936386	2021-01-04T17:52:40+00:00	2021-01-04T09:52:40-08:00	2021-01-04T18:22:24+00:00	2021-01-07T07:59:59+00:00	-3	2mrccfxcrwvhyf5@marketplace.amazon.com	amy hamm	+1 415-851-9136 ext. 33340	ABM020	Delivery by Thursday, January 7 Sunset Bouquet by Arabella Bouquets	1	0	1	Expedited	Jerry Hamm	1503 KAYLA ST			GROVE	OK	74344-4920	US			false		
113-0907636-0349007	53858856940922	2021-01-04T18:00:43+00:00	2021-01-04T10:00:43-08:00	2021-01-04T18:28:41+00:00	2021-01-07T07:59:59+00:00	-3	xwzbk51m4yptpyn@marketplace.amazon.com	alex	+1 602-671-6610 ext. 05827	ABC001	Delivery by Thursday, January 7 Seasons Greetings Bouquet by Arabella Bouquets	1	0	1	Expedited	Lisa McCarter	EAVES FAMILY DENTAL GROUP	355 W MORRIS ST STE 105		BATH	NY	14810-1059	US		I hope this brings you a bit of California sunshine to brighten your day. Love you. From alex	false		
111-4197816-6342629	11340735638602	2021-01-04T18:03:58+00:00	2021-01-04T10:03:58-08:00	2021-01-04T18:33:54+00:00	2021-01-07T07:59:59+00:00	-3	jshdsf6bgbm9t7b@marketplace.amazon.com	Sheila May-Stein	+1 415-851-9136 ext. 18401	ABR0022	Delivery by Wednesday, January 6 Dozen Pink Roses with a Free Vase by Arabella Bouquets	1	0	1	Expedited	Chris and Julie May	213 QUAIL CT			BADEN	PA	15005-2572	US		For Mom from all of your children with love From Sheila May-Stein	false		
113-0317720-9105879	67461173651138	2021-01-04T18:08:11+00:00	2021-01-04T10:08:11-08:00	2021-01-04T18:35:36+00:00	2021-01-07T07:59:59+00:00	-3	tmw2nnmyzn3z1br@marketplace.amazon.com	Heather Anderson	+1 415-419-8616 ext. 03865	ABR001	Delivery by Thursday, January 7 Dozen Red Roses in a Free Vase by Arabella Bouquets	1	0	1	Expedited	Thomas Gibson	5091 BERRYHILL PL			RIVERSIDE	CA	92507-5906	US		Hi Thomas, Enjoy your gift! Happy happy birthday my love!! Wish I was able to spend it with you!! I love you,  Heather	false		
111-7162394-5934636	12300521136058	2021-01-04T18:32:53+00:00	2021-01-04T10:32:53-08:00	2021-01-04T18:35:56+00:00	2021-01-07T07:59:59+00:00	-3	vhp62mjsclb0mt7@marketplace.amazon.com	nader jeri	+1 619-854-2705 ext. 43510	ABM020	Delivery by Thursday, January 7 Sunset Bouquet by Arabella Bouquets	1	0	1	Expedited	Waleska Harvey	8558 BURDEKIN RD			MAGNOLIA	TX	77354-3670	US		Mi Linda y Preciosa Waleska,  Doy gracias a Dios por cuidarte durante este tiempo y siempre. Te quiero MUCHOTE mi  Bella Waleska.  Te envio Amor, Abrazos y Bendiciones cada dia. From Edna	false		
112-1288771-5905050	45152628617866	2021-01-04T18:08:55+00:00	2021-01-04T10:08:55-08:00	2021-01-04T18:36:38+00:00	2021-01-07T07:59:59+00:00	-3	p7rd77j56p0rkzl@marketplace.amazon.com	deborah	+1 415-419-8616 ext. 25970	ABR0055	Delivery by Thursday, January 7 Dozen Hot Pink Roses in a Free Vase by Arabella Bouquets	1	0	1	Expedited	Paige Walker	8424 MONA AVE			NORFOLK	VA	23518-2234	US		Just because I Love You        Always & Forever From Casey Lynn	false		
111-0445440-4716239	21687074786882	2021-01-04T18:13:03+00:00	2021-01-04T10:13:03-08:00	2021-01-04T18:39:18+00:00	2021-01-07T07:59:59+00:00	-3	mq5j288m22mbtvd@marketplace.amazon.com	Sara Vogelsinger	+1 602-671-6610 ext. 81468	ABR0066	Delivery by Thursday, January 7 Dozen White Roses in a Free Vase by Arabella Bouquets	1	0	1	Expedited	Sharon Foster	27072 PERK LN			HARLINGEN	TX	78552-1796	US		Sharon, our hearts go out to you right now. The hope of seeing our loved ones again can give us strength and comfort during this difficult time. John 5:28,29; Rev. 21:3-4 From The Vogelsingers	false		
112-4738618-2698631	48598376757266	2021-01-04T18:20:53+00:00	2021-01-04T10:20:53-08:00	2021-01-04T18:43:29+00:00	2021-01-07T07:59:59+00:00	-3	c8md531vbht5bd4@marketplace.amazon.com	Caren	+1 929-436-4790 ext. 00766	ABC002	Delivery by Thursday, January 7 Warm Wishes Bouquet by Arabella Bouquets	1	0	1	Expedited	Kathie Schultz	100 FORT HILL DR APT 210			UNCASVILLE	CT	06382-1365	US		Happy New Year. Thought you could use these at this time. Hope 2021 brings new happy memories, healing of old memories and much happiness to you and family. Love ya XO From Caren, Carol and a few angels from above	false		
111-8574907-3930621	29514304775794	2021-01-04T18:18:53+00:00	2021-01-04T10:18:53-08:00	2021-01-04T18:46:49+00:00	2021-01-07T07:59:59+00:00	-3	6g5t85r2b3qsj5l@marketplace.amazon.com	maurice king Jr	+1 602-671-6610 ext. 61800	ABR001	Delivery by Thursday, January 7 Dozen Red Roses in a Free Vase by Arabella Bouquets	1	0	1	Expedited	Kennee Hill	2625 E INDIAN SCHOOL RD UNIT 329			PHOENIX	AZ	85016-6746	US			false		
111-1675484-1289848	20612187720266	2021-01-04T18:19:10+00:00	2021-01-04T10:19:10-08:00	2021-01-04T18:46:56+00:00	2021-01-07T07:59:59+00:00	-3	zt16rm1yxvm7mzr@marketplace.amazon.com	Kenny Jandreau	+1 480-618-5344 ext. 74881	ABM010	Delivery by Thursday, January 7 Everlasting Fling with a Free Glass Vase by Arabella Bouquets	1	0	1	Expedited	Chelsea Connolly	3201 COLEY LN			NEW BERN	NC	28562-7090	US		Hey Chelsea You're halfway done! Woohoo! We are so impressed and proud of you for handling everything like the fabulous Boss you are! LYMI Nikki & Kristen From Nikki & Kristen	false		
113-4661997-4343460	46539272103210	2021-01-04T18:36:05+00:00	2021-01-04T10:36:05-08:00	2021-01-04T18:52:23+00:00	2021-01-07T07:59:59+00:00	-3	8fpnskf6qm976wy@marketplace.amazon.com	Marla Davis	+1 619-854-2705 ext. 62677	ABC002	Delivery by Thursday, January 7 Warm Wishes Bouquet by Arabella Bouquets	1	0	1	Expedited	Amy Brenan	3684 E REMINGTON DR			GILBERT	AZ	85297-7811	US		You and yours are in my prayers. I am so sorry for your lost Amy.  ~Isaiah 40:31 From Marla Davis	false		
111-2829243-8150623	42249799143106	2021-01-04T18:36:28+00:00	2021-01-04T10:36:28-08:00	2021-01-04T19:01:19+00:00	2021-01-07T07:59:59+00:00	-3	93l371ph5cz9rnv@marketplace.amazon.com	Rick Marks	+1 619-854-2705 ext. 73142	ABC002	Delivery by Thursday, January 7 Warm Wishes Bouquet by Arabella Bouquets	1	0	1	Expedited	Morgan Rairigh	2 LINDBERGH RD			RINGOES	NJ	08551-1516	US		Morgan, We wish you All the best with your recovery and we are all keeping you in our thoughts and Prayers.  Much Love! From Grandma Dolly and Florida Family	true		
114-7000485-4382644	58718539155714	2021-01-04T18:33:13+00:00	2021-01-04T10:33:13-08:00	2021-01-04T19:02:49+00:00	2021-01-07T07:59:59+00:00	-3	rkzbxldndnrp0xk@marketplace.amazon.com	Kevin A. Oakes	+1 415-419-8616 ext. 84646	ABR0022	Delivery by Thursday, January 7 Dozen Pink Roses with a Free Vase by Arabella Bouquets	1	0	1	Expedited	Kim  Happel	21203 ROYAL ST GEORGES LN			LEESBURG	FL	34748-7547	US		Dear Kim,  We are so very sorry for your loss.  Sending thoughts & prayers. With Love Robin, Kevin & Kailey From Robin A. Oakes	false		
113-6122896-7513034	07463296752610	2021-01-04T18:38:47+00:00	2021-01-04T10:38:47-08:00	2021-01-04T19:06:48+00:00	2021-01-07T07:59:59+00:00	-3	8vtc6nztywny0kh@marketplace.amazon.com	Maritza Dancsecs	+1 213-442-1463 ext. 14724	ABR0022	Delivery by Thursday, January 7 Dozen Pink Roses with a Free Vase by Arabella Bouquets	1	0	1	Expedited	Svetlana Segal	290 174TH ST APT 918			SUNNY ISLES BEACH	FL	33160-3249	US		Happy Birthday Svetlana!  We are looking forward to celebrating with you when you get back to NYC! From THE GIRLS	true		Business Price
111-0881575-0245867	50991654079842	2021-01-04T19:02:45+00:00	2021-01-04T11:02:45-08:00	2021-01-04T19:09:43+00:00	2021-01-07T07:59:59+00:00	-3	t17v4hjkq7ph0yh@marketplace.amazon.com	Shelly Alfieri	+1 602-671-6610 ext. 82082	ABM010	Delivery by Thursday, January 7 Everlasting Fling with a Free Glass Vase by Arabella Bouquets	1	0	1	Expedited	Jennifer Lotano	10 BARRY LN			GLENVILLE	NY	12302-3802	US		Thank you is an understatement for all the gratitude I feel for your inspiring support with my Arbonne business in 2020.  Cheers to constant blooming 2021...and Happy Birthday! From Shelly Bruder	false		
113-7435998-5210635	51283587761994	2021-01-04T18:45:34+00:00	2021-01-04T10:45:34-08:00	2021-01-04T19:10:46+00:00	2021-01-07T07:59:59+00:00	-3	f4cxl9fj5m2xpbj@marketplace.amazon.com	sherry ganoe	+1 619-854-2705 ext. 80195	ABM025	Delivery by Thursday, January 7 Fell for You Bouquet by Arabella Bouquets	1	0	1	Expedited	Brenda Coleman	19029 ALLINGHAM AVE			CERRITOS	CA	90703-6404	US		Happy New Year! Thank you for the candy. From Pat and family	false		
111-5073086-3629835	16684204428194	2021-01-04T18:41:30+00:00	2021-01-04T10:41:30-08:00	2021-01-04T19:10:51+00:00	2021-01-07T07:59:59+00:00	-3	sf714sz720mzylv@marketplace.amazon.com	Jaymie kolb	+1 602-671-6610 ext. 59380	ABM022	Delivery by Thursday, January 7 Purple Extravagance Bouquet by Arabella Bouquets	1	0	1	Expedited	Johnson	300 Midyette	B5 724		Oriental	NC	28571	US		Happy birthday!! We love you!! Lars, Jaymie and Ana From Jaymie kolb	false		
114-0399640-4759408	68426695955322	2021-01-04T18:43:39+00:00	2021-01-04T10:43:39-08:00	2021-01-04T19:11:38+00:00	2021-01-07T07:59:59+00:00	-3	c4k078m96n5mdp2@marketplace.amazon.com	Carmelo Duarte	+1 763-225-9463 ext. 98344	ABM010	Delivery by Thursday, January 7 Everlasting Fling with a Free Glass Vase by Arabella Bouquets	1	0	1	Expedited	Andrea Duarte	227 N WALNUT ST			BENSENVILLE	IL	60106-1929	US		Love you mom. From Carmelo Duarte Jr	false		
113-4860447-7909042	46085943403610	2021-01-04T18:44:04+00:00	2021-01-04T10:44:04-08:00	2021-01-04T19:12:16+00:00	2021-01-07T07:59:59+00:00	-3	5ccg2lpzyzc5swz@marketplace.amazon.com	rose marie monroe	+1 763-225-9463 ext. 31191	ABR0022	Delivery by Thursday, January 7 Dozen Pink Roses with a Free Vase by Arabella Bouquets	1	0	1	Expedited	Peggy and LaVern Marsh	604 KELLY RD			CARTHAGE	NC	28327-7956	US		Happy Anniversary, From Rose Marie and Pete	false		
112-4381427-3856251	41909581678602	2021-01-04T18:44:19+00:00	2021-01-04T10:44:19-08:00	2021-01-04T19:13:55+00:00	2021-01-07T07:59:59+00:00	-3	7ksqll2fv8cx3xx@marketplace.amazon.com	Jennifer Jackson	+1 213-442-1463 ext. 81399	ABM022	Delivery by Thursday, January 7 Purple Extravagance Bouquet by Arabella Bouquets	1	0	1	Expedited	Bob and Paula Yocum	9931 BROOKDALE DR			NEW PORT RICHEY	FL	34655-6000	US		Happy Birthday!!  We miss you and love you and can't wait to see you again soon.  Enjoy your birthday and have a fabulous day. From Jen and Tim Jackson	false		
111-0731165-6563429	51095373358410	2021-01-04T18:49:26+00:00	2021-01-04T10:49:26-08:00	2021-01-04T19:19:25+00:00	2021-01-07T07:59:59+00:00	-3	nnsk39y3hcgcjnn@marketplace.amazon.com	Israel Trujillo	+1 213-442-1463 ext. 11617	ABR0022	Delivery by Thursday, January 7 Dozen Pink Roses with a Free Vase by Arabella Bouquets	1	0	1	Expedited	Brazi Trujillo	5825 102ND ST			LUBBOCK	TX	79424-3884	US			false		
111-5333642-0064200	46404939051210	2021-01-04T18:53:55+00:00	2021-01-04T10:53:55-08:00	2021-01-04T19:22:58+00:00	2021-01-07T07:59:59+00:00	-3	n2dkh84ghjrcd28@marketplace.amazon.com	Lori G	+1 619-854-2705 ext. 50969	ABC001	Delivery by Thursday, January 7 Seasons Greetings Bouquet by Arabella Bouquets	1	0	1	Expedited	Jennifer Szura	THIELSCH ENGINEERING	195 FRANCES AVE		CRANSTON	RI	02910-2211	US		Sorry for your loss!! From Love the Goncalves family	false		
114-3913744-3334648	31611402019970	2021-01-04T19:01:28+00:00	2021-01-04T11:01:28-08:00	2021-01-04T19:30:39+00:00	2021-01-07T07:59:59+00:00	-3	n09tk5jj068tk03@marketplace.amazon.com	ariel garcia	+1 415-419-8616 ext. 18983	ABC002	Delivery by Thursday, January 7 Warm Wishes Bouquet by Arabella Bouquets	1	0	1	Expedited	Pam Smith	4800 TABOR ST			WHEAT RIDGE	CO	80033-2112	US			false		
113-0357580-4553813	58818463098002	2021-01-04T19:10:02+00:00	2021-01-04T11:10:02-08:00	2021-01-04T19:32:39+00:00	2021-01-07T07:59:59+00:00	-3	8fpnskf6qm976wy@marketplace.amazon.com	Marla Davis	+1 480-618-5344 ext. 95669	ABC002	Delivery by Thursday, January 7 Warm Wishes Bouquet by Arabella Bouquets	1	0	1	Expedited	Abigail Esfahaniha	1720 MORNING SUN AVE			WALNUT	CA	91789-3618	US		Dear Abigail,  My Team and I would like to offer our deepest sympathy for your loss.  We pray for your strength for you and your family. Team Porfi - Interactive From Marla Davis	false		
114-1292044-6990612	32737838304962	2021-01-04T19:12:42+00:00	2021-01-04T11:12:42-08:00	2021-01-04T19:33:26+00:00	2021-01-07T07:59:59+00:00	-3	whwc55m7kyt52ln@marketplace.amazon.com	Joanne	+1 415-419-8616 ext. 25677	ABM010	Delivery by Thursday, January 7 Everlasting Fling with a Free Glass Vase by Arabella Bouquets	1	0	1	Expedited	Leslea Kunz	1502 MONA PASSAGE CT			NEW BERN	NC	28560-9025	US		Leslea, so sorry for the loss of your beloved, Jim.  I am praying for you and your family.. Call me if you need anything, even just someone to listen! Love always!!! From Joanne Doughty	false		
114-7316089-6304207	18603671742146	2021-01-04T19:07:17+00:00	2021-01-04T11:07:17-08:00	2021-01-04T19:34:12+00:00	2021-01-07T07:59:59+00:00	-3	fh71r8867x8w356@marketplace.amazon.com	Richard Stram	+1 602-671-6610 ext. 03821	ABM010	Delivery by Thursday, January 7 Everlasting Fling with a Free Glass Vase by Arabella Bouquets	1	0	1	Expedited	Annmarie Keliher	44 WHITEHALL RD			SOUTH HAMPTON	NH	03827-3511	US		Sending get well wishes to you for a speedy recovery!  So sorry to hear about your fall. Warmly,  Rick Stram From Richard Stram	false		
114-4346881-4891438	57310085681402	2021-01-04T19:09:55+00:00	2021-01-04T11:09:55-08:00	2021-01-04T19:36:34+00:00	2021-01-07T07:59:59+00:00	-3	pc663cj889ffdsd@marketplace.amazon.com	George Dupont	+1 619-854-2705 ext. 54085	ABM024	Delivery by Thursday, January 7 Beauty of Color Bouquet by Arabella Bouquets	1	0	1	Expedited	Jamie Fenlon	101 HUMPHREYS WAY			SAINT MARYS	GA	31558-2816	US		Happy Birthday Jamie! We love you! From George, Anna, Liam and Rocket	false		
114-0012450-1519448	15163770618826	2021-01-04T19:10:59+00:00	2021-01-04T11:10:59-08:00	2021-01-04T19:37:32+00:00	2021-01-07T07:59:59+00:00	-3	tqqv5d6v3wbw0sf@marketplace.amazon.com	Jackie Moore	+1 602-671-6610 ext. 38280	ABM022	Delivery by Thursday, January 7 Purple Extravagance Bouquet by Arabella Bouquets	1	0	1	Expedited	Kailah Hudson	1209 JUSTICE LAKE DR			JOLIET	IL	60432-2971	US		We are so sorry for the recent losses in your family. From Your Bridge Diagnostics Family	false		
114-1999158-0704201	18672503657970	2021-01-04T19:10:05+00:00	2021-01-04T11:10:05-08:00	2021-01-04T19:38:25+00:00	2021-01-07T07:59:59+00:00	-3	94hdvz0lh4dnjgk@marketplace.amazon.com	Kevin Jin	+1 602-671-6610 ext. 60675	ABR0022	Delivery by Thursday, January 7 Dozen Pink Roses with a Free Vase by Arabella Bouquets	1	0	1	Expedited	Kevin Jin	77 HUDSON ST APT 2403			JERSEY CITY	NJ	07302-8525	US			false		
114-4156481-1880248	68461948832642	2021-01-04T19:12:45+00:00	2021-01-04T11:12:45-08:00	2021-01-04T19:40:28+00:00	2021-01-07T07:59:59+00:00	-3	mxk17zv91k4m85n@marketplace.amazon.com	Nicole Modafferi	+1 415-851-9136 ext. 00368	ABR011	Delivery by Thursday, January 7 Farm Direct 18 Red Roses in a Free Vase by Arabella Bouquets	1	0	1	Expedited	Lucy Sabbatino	9000 Shore Road	East Building - Apt 9R		Brooklyn	NY	11209	US			false		
111-7683329-8162636	25723985702250	2021-01-04T19:12:46+00:00	2021-01-04T11:12:46-08:00	2021-01-04T19:40:31+00:00	2021-01-07T07:59:59+00:00	-3	0ksnkzf53kft6tr@marketplace.amazon.com	Jenna	+1 346-307-9643 ext. 93454	ABM024	Delivery by Thursday, January 7 Beauty of Color Bouquet by Arabella Bouquets	1	0	1	Expedited	Ruthie Steinman	27240 GRAND CENTRAL PKWY BLDG 2	APT 17A		FLORAL PARK	NY	11005-1342	US		Happy 100th Birthday Ruthie! Sending love your way and missing you! From The Kolker Family	false		
113-7449519-3335402	37059292126290	2021-01-04T19:16:04+00:00	2021-01-04T11:16:04-08:00	2021-01-04T19:43:22+00:00	2021-01-07T07:59:59+00:00	-3	yksb37dlcm8vgkx@marketplace.amazon.com	Daija Qualis	+1 415-851-9136 ext. 36522	ABR0022	Delivery by Thursday, January 7 Dozen Pink Roses with a Free Vase by Arabella Bouquets	1	0	1	Expedited	sophie bisirri	2003 MOUNT HOLLY RD			BURLINGTON	NJ	08016-4721	US		Thank you Sophie for the letter! It means a lot to me! From Daija Qualis	false		
113-3385516-2566632	56267281641378	2021-01-04T19:18:13+00:00	2021-01-04T11:18:13-08:00	2021-01-04T19:43:27+00:00	2021-01-07T07:59:59+00:00	-3	zxsrqp7698cr1rx@marketplace.amazon.com	Kevin Kornoelje	+1 213-442-1463 ext. 67338	ABM010	Delivery by Thursday, January 7 Everlasting Fling with a Free Glass Vase by Arabella Bouquets	1	0	1	Expedited	Sarah Rome	2640 S OAK KNOLL AVE			SAN MARINO	CA	91108-2433	US		Sarah,  Please feel better soon!  Hoping for a fast and safe recovery.  Take care, and see you soon.  Kevin From Kevin Kornoelje	false		
114-3128827-3257020	09610052478050	2021-01-04T19:16:05+00:00	2021-01-04T11:16:05-08:00	2021-01-04T19:44:37+00:00	2021-01-06T07:59:59+00:00	-2	1tn5jd8z33m32fn@marketplace.amazon.com	CHERYL L. LONG	+1 415-851-9136 ext. 40098	ABM022	Delivery by Thursday, January 7 Purple Extravagance Bouquet by Arabella Bouquets	1	0	1	SecondDay	SHIRLEY FORAY	45 SUNSET RD			BLOOMINGDALE	NJ	07403-1941	US		Happy birthday, Mom! Hope you enjoy your day. From Cheryl Lee & Gregory	false		
114-5531217-7315432	00893036787674	2021-01-04T19:26:03+00:00	2021-01-04T11:26:03-08:00	2021-01-04T19:50:50+00:00	2021-01-07T07:59:59+00:00	-3	r9p0yk7h44tfs3p@marketplace.amazon.com	Katherine Youngstrom	+1 619-854-2705 ext. 91011	ABM022	Delivery by Thursday, January 7 Purple Extravagance Bouquet by Arabella Bouquets	1	0	1	Expedited	Becky Brooks	270 NE BIRCH ST			ISSAQUAH	WA	98027-3310	US		Enjoy your gift! From Katherine Youngstrom	false		
111-3975061-0101827	65531829303914	2021-01-04T19:25:20+00:00	2021-01-04T11:25:20-08:00	2021-01-04T19:51:45+00:00	2021-01-07T07:59:59+00:00	-3	wtgr32tw6j62p7k@marketplace.amazon.com	jonathan pruski	+1 213-442-1463 ext. 34202	ABR0033	Delivery by Thursday, January 7 Dozen Orange Roses in a Free Vase by Arabella Bouquets	1	0	1	Expedited	Dr. April & Ron Shin	112 LONGWOOD RD			BALTIMORE	MD	21210-2120	US			false		
111-7074487-0057813	08646341700074	2021-01-04T19:24:36+00:00	2021-01-04T11:24:36-08:00	2021-01-04T19:52:37+00:00	2021-01-07T07:59:59+00:00	-3	l1r6l4mnykkhgjc@marketplace.amazon.com	Xiaoyu Zhou	+1 346-307-9643 ext. 80717	ABR0033	Delivery by Thursday, January 7 Dozen Orange Roses in a Free Vase by Arabella Bouquets	1	0	1	Expedited	Weixiong Zhou	1420 FOREST GLEN DR APT 53			HACIENDA HEIGHTS	CA	91745-7005	US		Happy Birthday, Mom! From Laura Zhou	false		
113-4384785-7003443	63603030861194	2021-01-04T19:23:37+00:00	2021-01-04T11:23:37-08:00	2021-01-04T19:52:47+00:00	2021-01-07T07:59:59+00:00	-3	fg8hcjjrpbxqf0j@marketplace.amazon.com	Gregory Collins	+1 415-419-8616 ext. 17257	ABC001	Delivery by Thursday, January 7 Seasons Greetings Bouquet by Arabella Bouquets	1	0	1	Expedited	Don Collins	1117 HARBORSIDE CT			WILMINGTON	NC	28411-1501	US		Happy Birthday! From Greg, Jen, Anna, Jude, Nathan, Gabby and Rose	false		
113-2107092-4889068	65744819918666	2021-01-04T19:26:30+00:00	2021-01-04T11:26:30-08:00	2021-01-04T19:56:25+00:00	2021-01-06T07:59:59+00:00	-2	3f3ys3hc7nqyt23@marketplace.amazon.com	K. O'CONNOR	+1 619-854-2705 ext. 73047	ABR0022	Delivery by Thursday, January 7 Dozen Pink Roses with a Free Vase by Arabella Bouquets	1	0	1	SecondDay	Nancy Bettini	31407 MILLER RD			CORDOVA	MD	21625-2451	US		Happy birthday! Enjoy your gift! From &#60;3 The O'CONNORs	false		
111-3824713-5373843	54970268102218	2021-01-04T19:30:11+00:00	2021-01-04T11:30:11-08:00	2021-01-04T19:57:48+00:00	2021-01-06T07:59:59+00:00	-2	kxnlv4gh2fsl79z@marketplace.amazon.com	jill lee	+1 763-225-9463 ext. 51431	ABR0022	Delivery by Thursday, January 7 Dozen Pink Roses with a Free Vase by Arabella Bouquets	1	0	1	SecondDay	Suzanne Lee C/O Jeannine Lee	24925 112TH AVE SE APT 4			KENT	WA	98030-6672	US		Happy birthday Mom. We love you and wish you a wonderful birthday with love and joy. I hope your day is amazing and wonderful. From Jimmy, Jill, and the Kids	false		
114-3710867-2758641	59306621220746	2021-01-04T19:30:25+00:00	2021-01-04T11:30:25-08:00	2021-01-04T19:59:12+00:00	2021-01-07T07:59:59+00:00	-3	bdgynp58mp5cts3@marketplace.amazon.com	Lerena Barbe	+1 415-419-8616 ext. 50077	ABR0033	Delivery by Thursday, January 7 Dozen Orange Roses in a Free Vase by Arabella Bouquets	1	0	1	Expedited	MARISA RONIS	4090 FALCON ST APT B1			SAN DIEGO	CA	92103-1896	US		Dear Marisa. Have the happiest of birthdays. May every day be filled with Joy.  Love, Lerena From Lerena Barbe	false		
113-6358267-6573868	12599620780402	2021-01-04T19:31:55+00:00	2021-01-04T11:31:55-08:00	2021-01-04T20:00:23+00:00	2021-01-07T07:59:59+00:00	-3	bjtpgmfxz64wfgg@marketplace.amazon.com	Lauren Davides	+1 619-854-2705 ext. 97000	ABC002	Delivery by Thursday, January 7 Warm Wishes Bouquet by Arabella Bouquets	1	0	1	Expedited	Dawn Gesner	1526 ABERCROMBIE WAY			THE VILLAGES	FL	32162-7704	US		Dawn, thank you so much for taking care of mom! Can you bring the other one over to her pls? Boys loved the Mrs Clause letter too, much appreciated. xo, Lauren From Lauren Davides	false		
113-6358267-6573868	53660699658410	2021-01-04T19:31:55+00:00	2021-01-04T11:31:55-08:00	2021-01-04T20:00:23+00:00	2021-01-07T07:59:59+00:00	-3	bjtpgmfxz64wfgg@marketplace.amazon.com	Lauren Davides	+1 619-854-2705 ext. 97000	ABC002	Delivery by Thursday, January 7 Warm Wishes Bouquet by Arabella Bouquets	1	0	1	Expedited	Dawn Gesner	1526 ABERCROMBIE WAY			THE VILLAGES	FL	32162-7704	US		Grammy, get well soon so we can play together! xo, Stav and HP From Lauren Davides	false		
114-1552909-3821800	23568451667610	2021-01-04T19:31:43+00:00	2021-01-04T11:31:43-08:00	2021-01-04T20:01:19+00:00	2021-01-07T07:59:59+00:00	-3	jyz1frf9ddwrt6g@marketplace.amazon.com	Jay Coleman	+1 213-442-1463 ext. 34772	ABC002	Delivery by Thursday, January 7 Warm Wishes Bouquet by Arabella Bouquets	1	0	1	Expedited	Fay Coleman	6618 WOOD PLACE CT			SPRING	TX	77379-2753	US		Sorry for your loss. We wish we could have been at the funeral with you. From Jay & Marissa	false		
111-2157931-0810637	38094932512682	2021-01-04T19:37:06+00:00	2021-01-04T11:37:06-08:00	2021-01-04T20:06:04+00:00	2021-01-07T07:59:59+00:00	-3	d5dt3yvz45ylvcp@marketplace.amazon.com	SCOTT SEHM	+1 602-671-6610 ext. 59101	ABM010	Delivery by Thursday, January 7 Everlasting Fling with a Free Glass Vase by Arabella Bouquets	1	0	1	Expedited	ANNE SEHM	8307 N CLASSICS AVE			FRESNO	CA	93720-0427	US		Thank you from the bottom of my heart, Anne you have been truly the very best in this last year. Words are inadequate to describe my deep appreciation, mostly the love I feel for you. From Terry	false		
112-5056919-6462648	51499901138202	2021-01-04T19:51:11+00:00	2021-01-04T11:51:11-08:00	2021-01-04T20:07:31+00:00	2021-01-07T07:59:59+00:00	-3	61ygt9bx4bbc2v2@marketplace.amazon.com	Altagracia	+1 480-618-5344 ext. 44602	ABC002	Delivery by Thursday, January 7 Warm Wishes Bouquet by Arabella Bouquets	1	0	1	Expedited	Jean Cartee	8785 LAKE WORTH RD 101			WELLINGTON	FL	33467-2433	US		Please accept our condolences, JT was a wonderful man and the two of you are an inspiration. God holds a special place for good people like JT. God bless you. From the Kay's	false		
113-4245680-7792252	22379854797402	2021-01-04T19:42:26+00:00	2021-01-04T11:42:26-08:00	2021-01-04T20:07:44+00:00	2021-01-07T07:59:59+00:00	-3	xb5kypzpk9sw8n0@marketplace.amazon.com	Thomas A. Ramsey	+1 415-851-9136 ext. 12502	ABR0022	Delivery by Thursday, January 7 Dozen Pink Roses with a Free Vase by Arabella Bouquets	1	0	1	Expedited	Mrs. Irene Barnes	2619 LINKSLAND DR			HUTCHINSON	KS	67502-9260	US		Happy birthday - with lots of love!  We celebrate further at Kip's in July! From Tom & Candy	false		
111-8345015-9640255	29655177605706	2021-01-04T19:42:59+00:00	2021-01-04T11:42:59-08:00	2021-01-04T20:08:06+00:00	2021-01-07T07:59:59+00:00	-3	q7sfh1fstj00fmx@marketplace.amazon.com	ruth schindler	+1 929-436-4790 ext. 11477	ABR0033	Delivery by Thursday, January 7 Dozen Orange Roses in a Free Vase by Arabella Bouquets	1	0	1	Expedited	Sara  Olson	1508 MARITA DR			BOULDER CITY	NV	89005-3619	US		Happy Birthday Sara, Thank you for being you Love Ruth From ruth schindler	false		
114-9002353-4545821	61730239073130	2021-01-04T19:39:15+00:00	2021-01-04T11:39:15-08:00	2021-01-04T20:09:33+00:00	2021-01-07T07:59:59+00:00	-3	p290qndjlx7l51l@marketplace.amazon.com	Caroline Harrod	+1 619-854-2705 ext. 72093	ABR0022	Delivery by Thursday, January 7 Dozen Pink Roses with a Free Vase by Arabella Bouquets	1	0	1	Expedited	Heidi Frampton	1915 RIDGEFIELD DR			ROSWELL	GA	30075-4139	US			false		
114-8399708-6685835	00430100586746	2021-01-04T19:48:27+00:00	2021-01-04T11:48:27-08:00	2021-01-04T20:12:04+00:00	2021-01-07T07:59:59+00:00	-3	14qpqdh054dgq38@marketplace.amazon.com	Gina	+1 929-436-4790 ext. 64496	ABR0055	Delivery by Thursday, January 7 Dozen Hot Pink Roses in a Free Vase by Arabella Bouquets	1	0	1	Expedited	Rosanne and Lee	4621 WILLOW RUN DR			ANNANDALE	VA	22003-6228	US		Happy Birthday!!!  Love, Gina, Gary, and Kyle From Gina	false		
114-8808006-7675453	29700733335706	2021-01-04T19:52:51+00:00	2021-01-04T11:52:51-08:00	2021-01-04T20:12:43+00:00	2021-01-07T07:59:59+00:00	-3	ccfx8v6vpczw6xg@marketplace.amazon.com	reza	+1 619-854-2705 ext. 97409	ABC001	Delivery by Thursday, January 7 Seasons Greetings Bouquet by Arabella Bouquets	1	0	1	Expedited	Dr. Sassan Shahmanesh	800 VILLA FLORENZA DR NAPLES FL			NAPLES	FL	34119-2315	US		Happy birthday Sassan jaan Love, Fereshteh & Rahmat	false		
113-5607810-9665066	31949002023170	2021-01-04T19:47:26+00:00	2021-01-04T11:47:26-08:00	2021-01-04T20:16:09+00:00	2021-01-07T07:59:59+00:00	-3	rqpdjnzdv0klpnj@marketplace.amazon.com	J Miller	+1 619-854-2705 ext. 14122	ABM022	Delivery by Thursday, January 7 Purple Extravagance Bouquet by Arabella Bouquets	1	0	1	Expedited	Virginia Miller	7110 AMANDA DR			JACKSONVILLE	AR	72076-9369	US		Happy Birthday Momma. We love you! From Janet Miller	false		
113-7530901-9060225	54915514078042	2021-01-04T19:53:31+00:00	2021-01-04T11:53:31-08:00	2021-01-04T20:18:38+00:00	2021-01-07T07:59:59+00:00	-3	32r7ps8pljyyzs0@marketplace.amazon.com	Holly Calhoun	+1 213-442-1463 ext. 63057	ABM022	Delivery by Thursday, January 7 Purple Extravagance Bouquet by Arabella Bouquets	1	0	1	Expedited	Susan Bryant	2867 S LAGUNA DAM RD			YUMA	AZ	85365-8793	US		Sue,  We are grateful to you for walking Roger (dad) from this earth to heaven's doors. He needed you and so did Carolyn and I!   With Love, Holly, Carolyn, and Lynda From Holly Calhoun	false		
114-7791531-9574642	03583430557890	2021-01-04T19:53:32+00:00	2021-01-04T11:53:32-08:00	2021-01-04T20:22:49+00:00	2021-01-07T07:59:59+00:00	-3	3fv8x6wyytr766q@marketplace.amazon.com	Ronald E. Zeck	+1 415-419-8616 ext. 41682	ABM010	Delivery by Thursday, January 7 Everlasting Fling with a Free Glass Vase by Arabella Bouquets	1	0	1	Expedited	Sharon Kolakowski	1322 WILLIS AVE			SYRACUSE	NY	13204-1039	US		Happy Anniversary! From Ronald E. Zeck	false		
112-7463947-4904201	15809470812922	2021-01-04T19:55:16+00:00	2021-01-04T11:55:16-08:00	2021-01-04T20:23:58+00:00	2021-01-07T07:59:59+00:00	-3	8j2lk9y0jzfczg3@marketplace.amazon.com	marcia krogseng	+1 602-671-6610 ext. 15375	ABR0033	Delivery by Thursday, January 7 Dozen Orange Roses in a Free Vase by Arabella Bouquets	1	0	1	Expedited	Janelle Earl	2107 VALMONT AVE			EAU CLAIRE	WI	54701-4454	US		Happy birthday, Janelle! We love you and hope you have a wonderful day! ❤️🎂❤️  Marcie & Family From marcia krogseng	false		
113-6227073-8253005	32660841315570	2021-01-04T19:58:40+00:00	2021-01-04T11:58:40-08:00	2021-01-04T20:25:46+00:00	2021-01-07T07:59:59+00:00	-3	tfthzw3spd8fs8f@marketplace.amazon.com	Barbara Swanson	+1 602-671-6610 ext. 13855	ABR0022	Delivery by Thursday, January 7 Dozen Pink Roses with a Free Vase by Arabella Bouquets	1	0	1	Standard	Mrs. Anna Jayne Pentecost	5140 WALDEN LOOP			HELENA	MT	59602-8268	US		Happy birthday Jayne!! I hope you have a wonderful day 💕 Love you. From Barbie Byn	false		
111-7112814-0933041	59716374375762	2021-01-04T20:00:46+00:00	2021-01-04T12:00:46-08:00	2021-01-04T20:25:55+00:00	2021-01-07T07:59:59+00:00	-3	y1kqwrykq5ll4fj@marketplace.amazon.com	Jessica Price	+1 415-851-9136 ext. 18438	ABM020	Delivery by Thursday, January 7 Sunset Bouquet by Arabella Bouquets	1	0	1	Expedited	Yeliz Meryem Simitci	7361 168TH AVE SE			BELLEVUE	WA	98006-6024	US		Best wishes for a speedy recovery. We are thinking of you! - Jess, Michele, & Taishi From Jessica Price	false		
111-6009890-0715467	18823759123018	2021-01-04T20:20:55+00:00	2021-01-04T12:20:55-08:00	2021-01-04T20:32:25+00:00	2021-01-07T07:59:59+00:00	-3	qcf6vpg91dhtlmy@marketplace.amazon.com	Isabel Mateu	+1 415-419-8616 ext. 10060	ABR001	Delivery by Thursday, January 7 Dozen Red Roses in a Free Vase by Arabella Bouquets	1	0	1	Expedited	Olga Cabrera	6274 SEVEN SPRINGS BLVD APT C			LAKE WORTH	FL	33463-1644	US		Para Olga, Espero que este año sea muy bueno para usted y su familia. Un beso, un abrazo y estas rosas son para la pequeña rubia que vive que le tengo mucho cariño, y cualquier cosa pueden contar conmigo. From Renato	false		
114-8293892-8234614	36288975791874	2021-01-04T20:03:41+00:00	2021-01-04T12:03:41-08:00	2021-01-04T20:33:04+00:00	2021-01-07T07:59:59+00:00	-3	zg790zk66g02b0t@marketplace.amazon.com	Angela Pratt	+1 213-442-1463 ext. 92471	ABR0022	Delivery by Thursday, January 7 Dozen Pink Roses with a Free Vase by Arabella Bouquets	1	0	1	Expedited	Kathy Kelly	7152 50TH AVENUE CIR E			PALMETTO	FL	34221-9411	US		Happy Birthday Mom! I love you! From Angie	false		
111-4445323-2176263	19361934184210	2021-01-04T20:27:50+00:00	2021-01-04T12:27:50-08:00	2021-01-04T20:48:03+00:00	2021-01-07T07:59:59+00:00	-3	3b116kw4gcw4vb3@marketplace.amazon.com	Pamela Halpern Chozen	+1 415-419-8616 ext. 47074	ABB001	Delivery by Thursday, January 7 White Hydrangea 12 Stems by Arabella Bouquets	1	0	1	Expedited	Lauren Kerner & the Kerner Family	682 WILD RIVER DR			WEST GLACIER	MT	59936-7732	US		Lauren- Feel better soon! Sending you distanced hugs- Hope these brighten the entire house. Love to all of you!  From Pam & Michael From Pam & Michael	false		
114-0501072-2125028	38214398123058	2021-01-04T20:25:30+00:00	2021-01-04T12:25:30-08:00	2021-01-04T20:50:51+00:00	2021-01-07T07:59:59+00:00	-3	sbmrgtc09wmp7b9@marketplace.amazon.com	Herbert	+1 480-618-5344 ext. 04289	ABM010	Delivery by Thursday, January 7 Everlasting Fling with a Free Glass Vase by Arabella Bouquets	1	0	1	Expedited	Phang Kaleka	1932 CALUMET WAY			OAKDALE	CA	95361-7783	US		From what I have heard you talk about your mother, it sounds like she was a great woman. She did an excellent job raising you. I am sorry for your loss From Trish	false		
113-6148185-9265017	37709843183994	2021-01-04T20:22:01+00:00	2021-01-04T12:22:01-08:00	2021-01-04T20:51:24+00:00	2021-01-07T07:59:59+00:00	-3	sgnpm85f9hlj3vy@marketplace.amazon.com	Jackie Kelley	+1 213-442-1463 ext. 05314	ABM021	Delivery by Thursday, January 7 Joyous Bouquet by Arabella Bouquets	1	0	1	Expedited	Karen Dwire	3535 FORT WORTH HWY			WEATHERFORD	TX	76087-8782	US		HAPPY BIRTHDAY!!  We love you, Mimi! From: Jeff, Jackie, Melissa, and Reed xoxo From Jackie Kelley	false		
113-9506766-8746635	58430655920290	2021-01-04T20:24:19+00:00	2021-01-04T12:24:19-08:00	2021-01-04T20:54:24+00:00	2021-01-06T07:59:59+00:00	-2	8597njg8g7xxqvn@marketplace.amazon.com	naris	+1 619-854-2705 ext. 38851	ABR0022	Delivery by Thursday, January 7 Dozen Pink Roses with a Free Vase by Arabella Bouquets	1	0	1	SecondDay	Maggie Nelson	638 Zimmerwald St.			New Bern	NC	28562	US			false		
113-0452898-9519420	11815939367178	2021-01-04T20:27:39+00:00	2021-01-04T12:27:39-08:00	2021-01-04T20:56:44+00:00	2021-01-07T07:59:59+00:00	-3	kmt5lx6jt2fhg2z@marketplace.amazon.com	Ruth A Vansteen	+1 213-442-1463 ext. 02775	ABR013	Delivery by Thursday, January 7 Farm Direct 18 Yellow Roses in a Free Vase by Arabella Bouquets	1	0	1	Expedited	Anita Hallmark	1013 SAINT LAWRENCE ST			GONZALES	TX	78629-4152	US			false		
113-0452898-9519420	46292415391394	2021-01-04T20:27:39+00:00	2021-01-04T12:27:39-08:00	2021-01-04T20:56:44+00:00	2021-01-07T07:59:59+00:00	-3	kmt5lx6jt2fhg2z@marketplace.amazon.com	Ruth A Vansteen	+1 213-442-1463 ext. 02775	ABR0066	Delivery by Thursday, January 7 Dozen White Roses in a Free Vase by Arabella Bouquets	1	0	1	Expedited	Anita Hallmark	1013 SAINT LAWRENCE ST			GONZALES	TX	78629-4152	US			false		
113-0460029-5445067	28359909218858	2021-01-04T20:32:10+00:00	2021-01-04T12:32:10-08:00	2021-01-04T21:00:37+00:00	2021-01-07T07:59:59+00:00	-3	z0crjrbr7m6jdnk@marketplace.amazon.com	Grant Galloway	+1 213-442-1463 ext. 89850	ABR0022	Delivery by Thursday, January 7 Dozen Pink Roses with a Free Vase by Arabella Bouquets	1	0	1	Expedited	Mabel Galloway	12780 KENWOOD LN APT 244			FORT MYERS	FL	33907-5605	US		Memom, I hope you had a wonderful Christmas and New Years. We will see you soon. Love, Grant From Grant Galloway	false		
112-1549605-9781025	35653690443834	2021-01-04T20:40:43+00:00	2021-01-04T12:40:43-08:00	2021-01-04T21:04:07+00:00	2021-01-07T07:59:59+00:00	-3	6bgzm3bw2yy8ptc@marketplace.amazon.com	Arlene A. Wolff	+1 213-442-1463 ext. 42430	ABR0055	Delivery by Thursday, January 7 Dozen Hot Pink Roses in a Free Vase by Arabella Bouquets	1	0	1	Expedited	Anna Fahling	7213 WIEGAND			CENTER LINE	MI	48015-1444	US		Glad you're feeling better Sis.  Enjoy these flowers and get completely well soon.  Love,  Arlene and Erwin From Arlene A. Wolff	false		
113-8978864-4314651	50873973049970	2021-01-04T20:39:47+00:00	2021-01-04T12:39:47-08:00	2021-01-04T21:08:24+00:00	2021-01-07T07:59:59+00:00	-3	krvl8kggf73lyh2@marketplace.amazon.com	mary propes	+1 415-419-8616 ext. 45993	ABM026	Delivery by Thursday, January 7 Amour Bouquet by Arabella Bouquets	1	0	1	Expedited	Katie Staten	5253 MARYMAN RD			LOUISVILLE	KY	40258-1209	US		Happy New Year! From mary propes	false		
111-8128462-1001858	28670852128138	2021-01-04T20:44:42+00:00	2021-01-04T12:44:42-08:00	2021-01-04T21:13:37+00:00	2021-01-07T07:59:59+00:00	-3	zc2dz9hjzq2csck@marketplace.amazon.com	Philadelphia Academy of School Leaders	+1 415-851-9136 ext. 43368	ABR0033	Delivery by Thursday, January 7 Dozen Orange Roses in a Free Vase by Arabella Bouquets	1	0	1	Expedited	Malarie GracePO6260 Condolence Flowers	925 E WADSWORTH AVE			PHILADELPHIA	PA	19150-3416	US		Malarie -   We are thinking about you.  Sending you hugs and love.    - Philly School Leaders From Philadelphia Academy of School Leaders	true	6260 Condolence Flowers	
111-3254564-1989833	17417341141058	2021-01-04T21:04:35+00:00	2021-01-04T13:04:35-08:00	2021-01-04T21:15:52+00:00	2021-01-07T07:59:59+00:00	-3	lhf290xb99t1pfk@marketplace.amazon.com	sandy klumpp	+1 480-618-5344 ext. 16010	ABR0022	Delivery by Thursday, January 7 Dozen Pink Roses with a Free Vase by Arabella Bouquets	1	0	1	Expedited	eileen Pierson	15 RALPH ST			HIGHLANDS	NJ	07732-1310	US		Get well soon- we love you! From sandy & Karl	false		
112-5741902-4349036	15765771025482	2021-01-04T20:54:14+00:00	2021-01-04T12:54:14-08:00	2021-01-04T21:24:23+00:00	2021-01-07T07:59:59+00:00	-3	9k8w7dzdv55hmy2@marketplace.amazon.com	Josh Riddick	+1 619-854-2705 ext. 13135	ABM024	Delivery by Thursday, January 7 Beauty of Color Bouquet by Arabella Bouquets	1	0	1	Expedited	Cathy Bonko	1080 CANYON VIEW RD			NORTHFIELD	OH	44067-2273	US			false		
111-6080278-0864261	47143564904866	2021-01-04T20:55:43+00:00	2021-01-04T12:55:43-08:00	2021-01-04T21:24:50+00:00	2021-01-06T07:59:59+00:00	-2	x5jgp2lmtlt9cw9@marketplace.amazon.com	Carol Kolar	+1 213-442-1463 ext. 58448	ABR0022	Delivery by Thursday, January 7 Dozen Pink Roses with a Free Vase by Arabella Bouquets	1	0	1	SecondDay	Stella McGuire	17019 MARAVILLAS COVE DR			CYPRESS	TX	77433-6762	US		Enjoy your gift! Happy Birthday Mom! From Love, Roy and Carol	false		
111-0363263-2801029	07926852270378	2021-01-04T21:23:10+00:00	2021-01-04T13:23:10-08:00	2021-01-04T21:27:34+00:00	2021-01-07T07:59:59+00:00	-3	0rrlgm0chl0j8yj@marketplace.amazon.com	dawnbrasch@hotmail.com	+1 213-442-1463 ext. 15368	ABR0033	Delivery by Thursday, January 7 Dozen Orange Roses in a Free Vase by Arabella Bouquets	1	0	1	Expedited	Sky Woffinden	2105 FOXBOROUGH TRL			FLOWER MOUND	TX	75028-4617	US		I hope you have a great first week at your new job!  Love, the Brasch's From The Brasch Family	false		
113-5780480-7670637	24381642990930	2021-01-04T21:08:56+00:00	2021-01-04T13:08:56-08:00	2021-01-04T21:27:42+00:00	2021-01-07T07:59:59+00:00	-3	gy5g6hvd7l8jm92@marketplace.amazon.com	Charles Robert Hines	+1 213-442-1463 ext. 84847	ABM010	Delivery by Thursday, January 7 Everlasting Fling with a Free Glass Vase by Arabella Bouquets	1	0	1	Expedited	Mr. and Mrs. Bobby Masters and family	3068 ORCHARD WALK LN			GREEN COVE SPRINGS	FL	32043-7234	US		We love you, and are asking God to bring comfort as only He can give.  Uncle Bobby and Auntie Inga From Charles Robert Hines	false		
111-2360936-6807443	20122094393554	2021-01-04T21:10:27+00:00	2021-01-04T13:10:27-08:00	2021-01-04T21:28:47+00:00	2021-01-07T07:59:59+00:00	-3	58fkkmzgf77xxll@marketplace.amazon.com	Otto L. Rasmussen	+1 213-442-1463 ext. 48641	ABM021	Delivery by Thursday, January 7 Joyous Bouquet by Arabella Bouquets	1	0	1	Expedited	Dan Rasmussen	415 GOVE ST			STEILACOOM	WA	98388-1115	US		Enjoy your gift! Happy Birthday From Grandpa & Grandma Rasmussen	false		
111-0751079-4451454	41515932071194	2021-01-04T21:08:34+00:00	2021-01-04T13:08:34-08:00	2021-01-04T21:29:58+00:00	2021-01-07T07:59:59+00:00	-3	jbw54nzqpjqdzfw@marketplace.amazon.com	Angela Hopkins	+1 602-671-6610 ext. 45109	ABM010	Delivery by Thursday, January 7 Everlasting Fling with a Free Glass Vase by Arabella Bouquets	1	0	1	Expedited	Jim and Sandy Nugent	18129 WATERSIDE CIR			ORLAND PARK	IL	60467-5213	US		Thank you for your hospitality! From Angela and John Hopkins	false		
112-7199735-3009068	20492478591162	2021-01-04T21:03:25+00:00	2021-01-04T13:03:25-08:00	2021-01-04T21:31:03+00:00	2021-01-07T07:59:59+00:00	-3	sz50nh1zf0w2p35@marketplace.amazon.com	sharon sporn	+1 619-854-2705 ext. 84320	ABR0066	Delivery by Thursday, January 7 Dozen White Roses in a Free Vase by Arabella Bouquets	1	0	1	Expedited	Margaret Cole	463 GLEN VALLEY RD			ATHENS	PA	18810-9202	US		Speedy Recovery! Love,Sharon&Dan From sharon sporn	false		
113-9007428-8918647	31870702401698	2021-01-04T21:31:22+00:00	2021-01-04T13:31:22-08:00	2021-01-04T21:32:14+00:00	2021-01-07T07:59:59+00:00	-3	780gyq3dchyyl4s@marketplace.amazon.com	Robert Kramer	+1 619-854-2705 ext. 29665	ABM010	Delivery by Thursday, January 7 Everlasting Fling with a Free Glass Vase by Arabella Bouquets	1	0	1	Expedited	Doris O'Rourke	104 GRISTMILL TER			MILFORD	PA	18337-4213	US		Happy Birthday, Doris, Congratulations on this special and wonderful occasion.  May you have as much joy as  the joy you give to all of us  who know you.  With love and many fond memories, Robert From Robert Kramer	false		
114-9211412-0975467	17069538701402	2021-01-04T21:06:31+00:00	2021-01-04T13:06:31-08:00	2021-01-04T21:35:34+00:00	2021-01-06T07:59:59+00:00	-2	jyw21n8dnj84230@marketplace.amazon.com	Barbara Bajkowsky	+1 213-442-1463 ext. 13786	ABM010	Delivery by Thursday, January 7 Everlasting Fling with a Free Glass Vase by Arabella Bouquets	1	0	1	SecondDay	Lisa Leight	11376 ADOBE TRL			FRISCO	TX	75033-8395	US		Enjoy your gift!Happy Birthday Love You From Barbara Bajkowsky	false		
111-0777044-1135404	19997282990906	2021-01-04T21:15:33+00:00	2021-01-04T13:15:33-08:00	2021-01-04T21:40:03+00:00	2021-01-07T07:59:59+00:00	-3	sxtr9sv21l34ztl@marketplace.amazon.com	Alejandra Fernandez Diz	+1 415-851-9136 ext. 28798	ABC002	Delivery by Thursday, January 7 Warm Wishes Bouquet by Arabella Bouquets	1	0	1	Expedited	William Brazelton	4613 OWENDALE DR			FORT WORTH	TX	76116-1433	US		Dear Brazelton family,  Our thoughts and prayers are with you and your family. From Boule USA / CDS	false		
113-9234062-4493024	61306143782010	2021-01-04T21:18:48+00:00	2021-01-04T13:18:48-08:00	2021-01-04T21:41:19+00:00	2021-01-07T07:59:59+00:00	-3	yybcsqk9721837k@marketplace.amazon.com	Tami Kokot	+1 213-442-1463 ext. 41741	ABR001	Delivery by Thursday, January 7 Dozen Red Roses in a Free Vase by Arabella Bouquets	1	0	1	Expedited	Isabella Gregorio	463 SCHODERER LN			SURF CITY	NJ	08008-4967	US		Just a little something to brighten up your day <3 From Zack	false		
113-4889037-6077836	01690494174298	2021-01-04T21:21:18+00:00	2021-01-04T13:21:18-08:00	2021-01-04T21:41:40+00:00	2021-01-07T07:59:59+00:00	-3	k4629fsyd4pfphd@marketplace.amazon.com	Stephanie Gilmore	+1 213-442-1463 ext. 78318	ABR0022	Delivery by Thursday, January 7 Dozen Pink Roses with a Free Vase by Arabella Bouquets	1	0	1	Expedited	Maryann Adzentoivich	8836 PINE PITCH DR			LAS VEGAS	NV	89143-4440	US		I love you Mrs. A, I wish I could be there with you. The most important thing in all of this is they are together now.  Love, Stephanie & family From Stephanie Gilmore	false		
114-6205307-3414629	55004961841946	2021-01-04T21:13:16+00:00	2021-01-04T13:13:16-08:00	2021-01-04T21:42:11+00:00	2021-01-07T07:59:59+00:00	-3	hsszmwbn84m80rs@marketplace.amazon.com	isabel	+1 602-671-6610 ext. 69435	ABR0055	Delivery by Thursday, January 7 Dozen Hot Pink Roses in a Free Vase by Arabella Bouquets	1	0	1	Expedited	Lucy Bonita	3356 THRIFT PL			SAN JOSE	CA	95148-2167	US		Happy Birthday :) From Isabel	false		
111-5241734-5418629	39602408000250	2021-01-04T21:23:34+00:00	2021-01-04T13:23:34-08:00	2021-01-04T21:46:47+00:00	2021-01-07T07:59:59+00:00	-3	tw3b4n5pp0czxrh@marketplace.amazon.com	Julie Sickles	+1 602-671-6610 ext. 73336	ABM002	Delivery by Thursday, January 7 White Calla Lilies in a Free Designer Glass Vase by Arabella Bouquets	1	0	1	Expedited	Kristin Jolly	1243 WHISPERING OAKS DR			DANVILLE	CA	94506-5840	US		Hope these flowers take you back 20 years. Happy Anniversary!  Happy Birthday to you both too! :-) From J & Jas	false		
114-2195928-6054618	33428303781722	2021-01-04T21:19:14+00:00	2021-01-04T13:19:14-08:00	2021-01-04T21:47:00+00:00	2021-01-07T07:59:59+00:00	-3	hywdq9pdjl1nbrt@marketplace.amazon.com	lisa robb	+1 619-854-2705 ext. 81696	ABR0022	Delivery by Thursday, January 7 Dozen Pink Roses with a Free Vase by Arabella Bouquets	1	0	1	Expedited	Patricia hart care of white oaks nursing home	8565 JERICHO TPKE 2 NORTH			WOODBURY	NY	11797-1804	US		Mom and grandpa pat   Happy birthday. We love and miss you !!  Lisa michael  Lili and grayden From lisa robb	false		
111-1454109-2741827	32722341579362	2021-01-04T21:25:42+00:00	2021-01-04T13:25:42-08:00	2021-01-04T21:48:40+00:00	2021-01-07T07:59:59+00:00	-3	8434w35xd44pdjg@marketplace.amazon.com	Denise Pileggi	+1 602-671-6610 ext. 14621	ABM010	Delivery by Thursday, January 7 Everlasting Fling with a Free Glass Vase by Arabella Bouquets	1	0	1	Expedited	Marcia Garbutt	1405 PATRICIA DR APT B			YEADON	PA	19050-4059	US		Marcia, I just wanted you to know I was thinking of you.  I enjoyed talking and working with your mom for many years.  I will miss her! I hope you have a Happy 2021.  Denise PIleggi From Denise Pileggi	false		
111-6436795-0861822	14574571256858	2021-01-04T21:29:37+00:00	2021-01-04T13:29:37-08:00	2021-01-04T21:51:33+00:00	2021-01-07T07:59:59+00:00	-3	swr2bmb98m9kbx2@marketplace.amazon.com	Eva LP	+1 480-618-5344 ext. 58882	ABM022	Delivery by Thursday, January 7 Purple Extravagance Bouquet by Arabella Bouquets	1	0	1	Expedited	Lucille Holman	3038 HEATHERGLEN RD			MONTGOMERY	TX	77356-5450	US		Dear Mom, Happy Birthday! Enjoy your gift! From Eva and George	false		
111-5627687-8218649	34067770426874	2021-01-04T21:26:09+00:00	2021-01-04T13:26:09-08:00	2021-01-04T21:54:10+00:00	2021-01-07T07:59:59+00:00	-3	2sgqq53sly71rxw@marketplace.amazon.com	catherine johnson	+1 415-419-8616 ext. 04709	ABR0022	Delivery by Thursday, January 7 Dozen Pink Roses with a Free Vase by Arabella Bouquets	1	0	1	Expedited	Memoe coleman	1439 GARDINER DR			BAY SHORE	NY	11706-3712	US		Happy Birthday Memoe! We love and miss you so much. We wish we were there to celebrate you today! From Love Katie, Eric,Luke,&Audrey	false		
112-8235542-6167443	26780077634602	2021-01-04T21:27:01+00:00	2021-01-04T13:27:01-08:00	2021-01-04T21:56:00+00:00	2021-01-07T07:59:59+00:00	-3	z0t4k9ynw8sw9k0@marketplace.amazon.com	Todd	+1 602-671-6610 ext. 14434	ABM022	Delivery by Thursday, January 7 Purple Extravagance Bouquet by Arabella Bouquets	1	0	1	Expedited	Todd Eberle	8511 235TH AVE			SALEM	WI	53168-9432	US		Happy Birthday Mom!   Love Todd From Todd	false		
112-6137711-0197860	69473520563466	2021-01-04T21:26:01+00:00	2021-01-04T13:26:01-08:00	2021-01-04T21:56:10+00:00	2021-01-07T07:59:59+00:00	-3	pj7xpj5x5ws6cn2@marketplace.amazon.com	Linda Dallas	+1 213-442-1463 ext. 17382	ABC001	Delivery by Thursday, January 7 Seasons Greetings Bouquet by Arabella Bouquets	1	0	1	Expedited	diane tracy	1308 BANEBERRY CT			FLEMINGTON	NJ	08822-2037	US		thank you From Linda Dallas	false		
111-3357610-1979458	68713367682162	2021-01-04T21:46:11+00:00	2021-01-04T13:46:11-08:00	2021-01-04T22:01:04+00:00	2021-01-07T07:59:59+00:00	-3	8434w35xd44pdjg@marketplace.amazon.com	Denise Pileggi	+1 415-851-9136 ext. 93041	ABM020	Delivery by Thursday, January 7 Sunset Bouquet by Arabella Bouquets	1	0	1	Expedited	Joyce Hamill	4092 NEW HOPE RD			FURLONG	PA	18925-1352	US		Joyce  We are saddened to hear of the loss of your father.  We have fond memories of him at your Christmas Parties. You are in our hearts and prayers. Love, Denise & Vince From Denise Pileggi	false		
114-1546898-6593844	59522990391570	2021-01-04T21:36:53+00:00	2021-01-04T13:36:53-08:00	2021-01-04T22:01:07+00:00	2021-01-07T07:59:59+00:00	-3	q9ltjyk93lljb2f@marketplace.amazon.com	Donna Hollingsworth	+1 213-442-1463 ext. 97528	ABR0055	Delivery by Thursday, January 7 Dozen Hot Pink Roses in a Free Vase by Arabella Bouquets	1	0	1	Expedited	Cheryl Stapp	9928 PHOENICIAN WAY			SACRAMENTO	CA	95829-8006	US			false		
114-7503253-6487413	64564591309658	2021-01-04T21:33:27+00:00	2021-01-04T13:33:27-08:00	2021-01-04T22:02:54+00:00	2021-01-07T07:59:59+00:00	-3	k68h0pqrjb5qyc6@marketplace.amazon.com	john d jones	+1 213-442-1463 ext. 49587	ABR0022	Delivery by Thursday, January 7 Dozen Pink Roses with a Free Vase by Arabella Bouquets	1	0	1	Expedited	Sara A Biggs	1 BALTIMORE ST APT 622			CUMBERLAND	MD	21502-2986	US			false		
111-8615189-9297803	67694250882834	2021-01-04T21:44:43+00:00	2021-01-04T13:44:43-08:00	2021-01-04T22:11:30+00:00	2021-01-07T07:59:59+00:00	-3	nlj8lvf276kp65k@marketplace.amazon.com	Alex R. Rebolledo	+1 415-419-8616 ext. 87752	ABM022	Delivery by Thursday, January 7 Purple Extravagance Bouquet by Arabella Bouquets	1	0	1	Expedited	Fany Messen	158 WINDSOR AVE			COLONIAL HEIGHTS	VA	23834-3248	US		Happy birthday. With love, Alex. From Alex R. Rebolledo	false		
112-3704604-6989021	45845869482330	2021-01-04T21:47:46+00:00	2021-01-04T13:47:46-08:00	2021-01-04T22:15:39+00:00	2021-01-07T07:59:59+00:00	-3	348gj8z2tcf0p3q@marketplace.amazon.com	Tom Phelan	+1 602-671-6610 ext. 42880	ABR0055	Delivery by Thursday, January 7 Dozen Hot Pink Roses in a Free Vase by Arabella Bouquets	1	0	1	Expedited	AUNT JOAN FINNEGAN - BIRTHDAY GIRL	426 S 113TH PL			MESA	AZ	85208-5515	US			false		
112-9939529-3405065	51795849542074	2021-01-04T21:56:01+00:00	2021-01-04T13:56:01-08:00	2021-01-04T22:17:47+00:00	2021-01-07T07:59:59+00:00	-3	m9qz37k9255w5wx@marketplace.amazon.com	Dene Janes	+1 415-419-8616 ext. 25469	ABM026	Delivery by Thursday, January 7 Amour Bouquet by Arabella Bouquets	1	0	1	Expedited	Teresa Competelli Jacobson	3081 SLEEPY HOLLOW ST			SIMI VALLEY	CA	93065-5294	US		Dear Tre  You are in my thoughts during these difficult days. I am sending you positive vibrations.....feel them as they are out there for you. Love Dene	false		
113-0197342-8539417	54701321387074	2021-01-04T21:52:04+00:00	2021-01-04T13:52:04-08:00	2021-01-04T22:17:49+00:00	2021-01-07T07:59:59+00:00	-3	5sy5dnldyfm2rhr@marketplace.amazon.com	Amy	+1 602-671-6610 ext. 80466	ABM010	Delivery by Thursday, January 7 Everlasting Fling with a Free Glass Vase by Arabella Bouquets	1	0	1	Expedited	Melva Linda Hernandez	3440 W 62ND ST			CHICAGO	IL	60629-3702	US		Edy & Mel My condolences on your loss.  I am so sorry and pray that God gives you the strength needed to overcome the grief during this time.  I love you both. From Amy	false		
111-9604970-5637048	27275261087794	2021-01-04T21:52:29+00:00	2021-01-04T13:52:29-08:00	2021-01-04T22:20:14+00:00	2021-01-07T07:59:59+00:00	-3	qmvptmmgyskj4vq@marketplace.amazon.com	Debbie Garcia	+1 415-419-8616 ext. 76915	ABM022	Delivery by Thursday, January 7 Purple Extravagance Bouquet by Arabella Bouquets	1	0	1	Expedited	Alice Teresi	2166 PALOMINO WAY			OAKDALE	CA	95361-8267	US		Happy Birthday!!  Wish we could be there. Love, Mike and Debbie From Debbie Garcia	false		
113-1999894-2103450	48010998291138	2021-01-04T21:56:34+00:00	2021-01-04T13:56:34-08:00	2021-01-04T22:21:44+00:00	2021-01-06T07:59:59+00:00	-2	b219tgbhgqjmsll@marketplace.amazon.com	Allison C Smith Childers	+1 619-854-2705 ext. 05222	ABR0022	Delivery by Thursday, January 7 Dozen Pink Roses with a Free Vase by Arabella Bouquets	1	0	1	SecondDay	Allison C Smith Childers	444 E 84TH ST APT 12C			NEW YORK	NY	10028-6242	US			false		
113-3499420-2442653	31310070121610	2021-01-04T21:55:19+00:00	2021-01-04T13:55:19-08:00	2021-01-04T22:24:53+00:00	2021-01-07T07:59:59+00:00	-3	byv6zf8k7nchmdb@marketplace.amazon.com	Ian A Clark	+1 415-851-9136 ext. 04939	ABM020	Delivery by Thursday, January 7 Sunset Bouquet by Arabella Bouquets	1	0	1	Expedited	Ed Noble	3124 HILLIER RD			BARBERTON	OH	44203-4942	US		Happy Birthday Grandma Sherri!  We love you, Ian, Beth, Eli and Addi From Ian A Clark	false		
113-2584969-9734644	47309461995354	2021-01-04T22:00:35+00:00	2021-01-04T14:00:35-08:00	2021-01-04T22:27:38+00:00	2021-01-07T07:59:59+00:00	-3	5f36r3rpvnqnpyh@marketplace.amazon.com	Donna J. Hebein	+1 213-442-1463 ext. 59961	ABR0055	Delivery by Thursday, January 7 Dozen Hot Pink Roses in a Free Vase by Arabella Bouquets	1	0	1	Expedited	Charline Bloss	672 MCKINLEY ST			WALDEN	CO	80480-5099	US		We love you and we are thinking of you!!  Regain your strength quickly!! ~ Sherm and Donna From Donna J. Hebein	false		
111-3860487-3917062	22918078358554	2021-01-04T22:01:23+00:00	2021-01-04T14:01:23-08:00	2021-01-04T22:29:55+00:00	2021-01-07T07:59:59+00:00	-3	tpwphl87bklp3dk@marketplace.amazon.com	Doris Maccarrone	+1 346-307-9643 ext. 26322	ABR0022	Delivery by Thursday, January 7 Dozen Pink Roses with a Free Vase by Arabella Bouquets	1	0	1	Expedited	Anna Maccarrone	14 DAVIS LN			DARIEN	CT	06820-6229	US		Dear Anna,  Happy 15th birthday. Hope you have a great day celebrating you!  Miss you and love you. Nana From Doris Maccarrone	false		
112-9418475-5057843	38389365612346	2021-01-04T22:07:22+00:00	2021-01-04T14:07:22-08:00	2021-01-04T22:31:43+00:00	2021-01-07T07:59:59+00:00	-3	2wrvkvmc87hcdk9@marketplace.amazon.com	Laura Conry	+1 619-854-2705 ext. 69954	ABR0022	Delivery by Thursday, January 7 Dozen Pink Roses with a Free Vase by Arabella Bouquets	1	0	1	Standard	Olivia Weldon	500 E ANDERSON LN APT 150 J			AUSTIN	TX	78752-1241	US		Happy (early) 96th Birthday Aunt Olivia!  Hopefully these flowers are as pretty as they are in the pictures and will brighten up your place! From Laura & Marlin Conry	false		
112-9479740-3882642	42461746927570	2021-01-04T22:11:46+00:00	2021-01-04T14:11:46-08:00	2021-01-04T22:37:30+00:00	2021-01-07T07:59:59+00:00	-3	wgpcz8q2s3xdtw9@marketplace.amazon.com	Mary Alice Wisowaty	+1 619-854-2705 ext. 34108	ABM022	Delivery by Thursday, January 7 Purple Extravagance Bouquet by Arabella Bouquets	1	0	1	Expedited	Patrice Nickerson	43 BETTS RD			ROCHESTER	NH	03867-5140	US		Pat,  Happy birthday.  Wishing you a joyful and happy year! From Mary Alice & Carole	false		
113-4120948-5310645	54788590838330	2021-01-04T22:13:03+00:00	2021-01-04T14:13:03-08:00	2021-01-04T22:41:21+00:00	2021-01-07T07:59:59+00:00	-3	cv11wxxk0973tys@marketplace.amazon.com	Belinda Dufrene	+1 480-618-5344 ext. 93322	ABM010	Delivery by Thursday, January 7 Everlasting Fling with a Free Glass Vase by Arabella Bouquets	1	0	1	Expedited	Debbie Millhouse	58 NORTH ST			FLETCHER	OH	45326-8870	US		Thinking of you. Love & Prayers, Belinda & Emile From Belinda Dufrene	false		
111-7008585-1973022	42903189473186	2021-01-04T22:34:27+00:00	2021-01-04T14:34:27-08:00	2021-01-04T22:56:16+00:00	2021-01-07T07:59:59+00:00	-3	sjtwpmyygwnsrgj@marketplace.amazon.com	Maria Ekedal	+1 763-225-9463 ext. 00855	ABR0066	Delivery by Thursday, January 7 Dozen White Roses in a Free Vase by Arabella Bouquets	1	0	1	Expedited	The Andriesens	12306 CAMINITO GRANATE			SAN DIEGO	CA	92130-2848	US			false		
113-0518732-5659420	17176902260010	2021-01-04T22:29:39+00:00	2021-01-04T14:29:39-08:00	2021-01-04T22:58:27+00:00	2021-01-07T07:59:59+00:00	-3	lbkcxyfzzhmq3v6@marketplace.amazon.com	Amanda Spickard	+1 415-419-8616 ext. 46804	ABM025	Delivery by Thursday, January 7 Fell for You Bouquet by Arabella Bouquets	1	0	1	Expedited	Cornelia Spickard	745 Carbon St			Erie	CO	80516	US			false		
111-0177589-3639427	05160583504066	2021-01-04T22:31:19+00:00	2021-01-04T14:31:19-08:00	2021-01-04T23:00:26+00:00	2021-01-07T07:59:59+00:00	-3	9c4y6f6ptbnzq5p@marketplace.amazon.com	Toby Allen Witt	+1 415-419-8616 ext. 52364	ABR0022	Delivery by Thursday, January 7 Dozen Pink Roses with a Free Vase by Arabella Bouquets	1	0	1	Expedited	Wilma Witt	941 6TH ST APT 200			MOLINE	IL	61265-1162	US		We are sorry to hear about Ruffles.  She was amazing! Love, Toby and Grace From Toby Allen Witt	false		
114-0381340-3353804	50039566494186	2021-01-04T22:31:18+00:00	2021-01-04T14:31:18-08:00	2021-01-04T23:00:47+00:00	2021-01-07T07:59:59+00:00	-3	bj3n1y3tqgwrbbr@marketplace.amazon.com	Charles White	+1 213-442-1463 ext. 74298	ABR0033	Delivery by Thursday, January 7 Dozen Orange Roses in a Free Vase by Arabella Bouquets	1	0	1	Expedited	Stacey Sosa	40 NEPTUNE ST			STATEN ISLAND	NY	10306-5742	US		Enjoy your gift! From Charlene	false		
113-4290112-0637036	14599874616130	2021-01-04T22:31:57+00:00	2021-01-04T14:31:57-08:00	2021-01-04T23:01:59+00:00	2021-01-07T07:59:59+00:00	-3	lbkcxyfzzhmq3v6@marketplace.amazon.com	Amanda Spickard	+1 480-618-5344 ext. 49281	ABM022	Delivery by Thursday, January 7 Purple Extravagance Bouquet by Arabella Bouquets	1	0	1	Expedited	Cathy Spanbauer	3508 APPLE AVE			LOVELAND	CO	80538-8315	US			false		
114-5541238-7909002	26092552143554	2021-01-04T22:38:38+00:00	2021-01-04T14:38:38-08:00	2021-01-04T23:07:52+00:00	2021-01-07T07:59:59+00:00	-3	t6rk8pf443wl9z2@marketplace.amazon.com	Nida Denson	+1 415-851-9136 ext. 92489	ABM022	Delivery by Thursday, January 7 Purple Extravagance Bouquet by Arabella Bouquets	1	0	1	Expedited	Cheryl Denson	7325 S Camino Mirlo			Tucson	AZ	85747-9339	US		Happy anniversary mom and dad!!! Love, Tom and Nida From Nida Denson	false		
114-1432124-3049051	20945778877986	2021-01-04T22:47:23+00:00	2021-01-04T14:47:23-08:00	2021-01-04T23:13:34+00:00	2021-01-07T07:59:59+00:00	-3	265q7wf223yc1b6@marketplace.amazon.com	Shauntay Larkins	+1 619-854-2705 ext. 56218	ABR001	Delivery by Thursday, January 7 Dozen Red Roses in a Free Vase by Arabella Bouquets	1	0	1	Expedited	Betty Larkins	12970 PERRIS BLVD APT 310			MORENO VALLEY	CA	92553-2372	US		Happy 80th birthday, mom! Wishing you a wonderful year ahead!  Love, Shauntay From Shauntay Larkins	false		
112-4698721-1250665	39221929501274	2021-01-04T22:51:34+00:00	2021-01-04T14:51:34-08:00	2021-01-04T23:17:04+00:00	2021-01-07T07:59:59+00:00	-3	g4mc116ftzl23z7@marketplace.amazon.com	Theresa clark	+1 213-442-1463 ext. 35840	ABR0022	Delivery by Thursday, January 7 Dozen Pink Roses with a Free Vase by Arabella Bouquets	1	0	1	Expedited	Peter Pulcini	6 ANITA DR			SOUTHAMPTON	MA	01073-9562	US		To Tisha With sincere sympathy for the loss of your brother. I will pray for him. Peter’s Mother, Antonietta	false		
112-6883955-0005007	22023554411586	2021-01-04T22:55:13+00:00	2021-01-04T14:55:13-08:00	2021-01-04T23:22:30+00:00	2021-01-06T07:59:59+00:00	-2	j75qfs31604hn03@marketplace.amazon.com	Luciana Machado Colli	+1 415-419-8616 ext. 56871	ABM022	Delivery by Thursday, January 7 Purple Extravagance Bouquet by Arabella Bouquets	1	0	1	SecondDay	Joyce Ann VanHook	174 BLACKGOLD CT			WALTON	KY	41094-1215	US			false		
111-0924582-1309063	54186675112618	2021-01-04T22:58:32+00:00	2021-01-04T14:58:32-08:00	2021-01-04T23:26:11+00:00	2021-01-07T07:59:59+00:00	-3	rgmj6c2240cn90z@marketplace.amazon.com	Jillian Koorbusch	+1 213-442-1463 ext. 63870	ABM010	Delivery by Thursday, January 7 Everlasting Fling with a Free Glass Vase by Arabella Bouquets	1	0	1	Expedited	Kathy Alven	4 FIDDLER CRAB CT			BLUFFTON	SC	29910-4758	US		AK,  Wishing you the happiest birthday ever. We wish we could be there to celebrate with you. We all love you so much! Joanne, Ed, Laur, Linda and Sharon	false		
113-2017793-4553801	66170999528034	2021-01-04T22:56:52+00:00	2021-01-04T14:56:52-08:00	2021-01-04T23:27:18+00:00	2021-01-07T07:59:59+00:00	-3	jmckln0w46qh8yt@marketplace.amazon.com	Jenny S S Armenta	+1 415-851-9136 ext. 03012	ABR0022	Delivery by Thursday, January 7 Dozen Pink Roses with a Free Vase by Arabella Bouquets	1	0	1	Expedited	Jocelyn Garcia	1168 TULSA ST			UNIONDALE	NY	11553-1739	US			false		
114-8906658-5003433	17466846867266	2021-01-04T23:01:07+00:00	2021-01-04T15:01:07-08:00	2021-01-04T23:30:29+00:00	2021-01-06T07:59:59+00:00	-2	vy5qkp1cyrl0w4v@marketplace.amazon.com	Susan Lacey	+1 415-851-9136 ext. 83617	ABR001	Delivery by Thursday, January 7 Dozen Red Roses in a Free Vase by Arabella Bouquets	1	0	1	SecondDay	Pamela Moon	7904 BETHLEHEM RD			MANASSAS	VA	20109-2717	US		Dr. Moon Happy Birthday and Get Well Soon! Your friends, From Susan and Mike Lacey	false		
111-6142654-9639415	52574993119554	2021-01-04T23:06:30+00:00	2021-01-04T15:06:30-08:00	2021-01-04T23:33:39+00:00	2021-01-07T07:59:59+00:00	-3	41b8wv3h71dk8q4@marketplace.amazon.com	Elena Carnes	+1 480-618-5344 ext. 47237	ABR0066	Delivery by Thursday, January 7 Dozen White Roses in a Free Vase by Arabella Bouquets	1	0	1	Expedited	Lyndsey Nations	1405 S COUNTRY CLUB CIR			CARLSBAD	NM	88220-4121	US		So sorry for your family's loss. "Death leaves a heartache no one can heal, but love leaves memories no one can steal." From Elena Carnes	false		
113-3354113-4452249	32805835907778	2021-01-04T23:08:22+00:00	2021-01-04T15:08:22-08:00	2021-01-04T23:36:42+00:00	2021-01-07T07:59:59+00:00	-3	nllkjdk2pw2gn0q@marketplace.amazon.com	Abhay R. Redkar	+1 213-442-1463 ext. 75078	ABR0066	Delivery by Thursday, January 7 Dozen White Roses in a Free Vase by Arabella Bouquets	1	0	1	Expedited	Richard Haigh	500 LEES MILL RD			HAMPSTEAD	MD	21074-1939	US		Dear Richard  My sincere condolences- so sorry to hear about your mum! May you find strength in her love and happy memories and know she will always be with you Warmly Abhay Anjali From Abhay R. Redkar	false		
114-8259184-6811454	00296797547298	2021-01-04T23:09:21+00:00	2021-01-04T15:09:21-08:00	2021-01-04T23:37:54+00:00	2021-01-07T07:59:59+00:00	-3	7mys286d8s020yl@marketplace.amazon.com	Nicole Schmid	+1 415-851-9136 ext. 85504	ABR0055	Delivery by Thursday, January 7 Dozen Hot Pink Roses in a Free Vase by Arabella Bouquets	1	0	1	Expedited	Sue Schmid	786 KENT AVE			SAN CARLOS	CA	94070-1505	US			false		
114-4663057-2799406	24020657494834	2021-01-04T23:15:03+00:00	2021-01-04T15:15:03-08:00	2021-01-04T23:38:27+00:00	2021-01-07T07:59:59+00:00	-3	q9mf0hm57mql7bp@marketplace.amazon.com	Steve Todora	+1 415-851-9136 ext. 20776	ABR0033	Delivery by Thursday, January 7 Dozen Orange Roses in a Free Vase by Arabella Bouquets	1	0	1	Expedited	Julie Silagy	1418 AMAPOLA AVE			TORRANCE	CA	90501-2505	US		We love you,  Happy Birthday! From Gus, Mia, Vance, Tails, Greys :)	false		
114-4663057-2799406	57964692707498	2021-01-04T23:15:03+00:00	2021-01-04T15:15:03-08:00	2021-01-04T23:38:27+00:00	2021-01-07T07:59:59+00:00	-3	q9mf0hm57mql7bp@marketplace.amazon.com	Steve Todora	+1 415-851-9136 ext. 20776	ABR0055	Delivery by Thursday, January 7 Dozen Hot Pink Roses in a Free Vase by Arabella Bouquets	1	0	1	Expedited	Julie Silagy	1418 AMAPOLA AVE			TORRANCE	CA	90501-2505	US		Happy Birthday, Julie.  I hope you have had a great week, I will make sure you have a great year.  I love you to the moon and back 100x. Love Steven From Steven and Mila	false		
111-9383556-0848219	48499615550906	2021-01-04T23:07:18+00:00	2021-01-04T15:07:18-08:00	2021-01-04T23:39:04+00:00	2021-01-07T07:59:59+00:00	-3	ypvxqd4mmkc5810@marketplace.amazon.com	Niki Merbler	+1 415-419-8616 ext. 27601	ABM010	Delivery by Thursday, January 7 Everlasting Fling with a Free Glass Vase by Arabella Bouquets	1	0	1	Expedited	Agnes Merbler/Caribbean Reef	306 67TH ST			HOLMES BEACH	FL	34217-1315	US		Enjoy your gift!  HAPPY BIRTHDAY From Minnesota Merbler's	false		
114-8568618-2881862	31495826264458	2021-01-04T23:10:19+00:00	2021-01-04T15:10:19-08:00	2021-01-04T23:39:43+00:00	2021-01-07T07:59:59+00:00	-3	3g52d4m2j49c2k3@marketplace.amazon.com	Andrew Jankowski	+1 619-854-2705 ext. 91019	ABR0033	Delivery by Thursday, January 7 Dozen Orange Roses in a Free Vase by Arabella Bouquets	1	0	1	Expedited	Andrew Jankowski	4019 GALENA HILLS DR			ROUND ROCK	TX	78681-2255	US		I love you so much, you owe me 50 so please get well soon. From Andrew Jankowski	false		
113-4441464-4082636	42046334387962	2021-01-04T23:13:30+00:00	2021-01-04T15:13:30-08:00	2021-01-04T23:41:31+00:00	2021-01-07T07:59:59+00:00	-3	mktff4svq962hn1@marketplace.amazon.com	Porya Jeddi	+1 213-442-1463 ext. 39782	ABR0022	Delivery by Thursday, January 7 Dozen Pink Roses with a Free Vase by Arabella Bouquets	1	0	1	Expedited	Mourin Namvar	28170 RIGGS CT			HAYWARD	CA	94542-2438	US		Happy Birthday  Love, Zeeba, Shawn and Porya From Porya Jeddi	false		
112-5630614-8049068	67632455476786	2021-01-04T23:19:22+00:00	2021-01-04T15:19:22-08:00	2021-01-04T23:45:07+00:00	2021-01-07T07:59:59+00:00	-3	35ct909c15fwg2w@marketplace.amazon.com	sue	+1 213-442-1463 ext. 62126	ABC001	Delivery by Thursday, January 7 Seasons Greetings Bouquet by Arabella Bouquets	1	0	1	Expedited	Christina Bilski	8404 CEDAR FALLS CT			SPRINGFIELD	VA	22153-3852	US		Congratulations at Nikkei - soo proud of you  Love Mammi From Mammi	false		
113-2832002-7772237	07623598496218	2021-01-04T23:23:33+00:00	2021-01-04T15:23:33-08:00	2021-01-04T23:47:07+00:00	2021-01-07T07:59:59+00:00	-3	04b8846jpxs03lt@marketplace.amazon.com	David William Molge	+1 602-671-6610 ext. 00118	ABM022	Delivery by Thursday, January 7 Purple Extravagance Bouquet by Arabella Bouquets	1	0	1	Expedited	Cindi Straumann	228 STRECKER FARMS CT			WILDWOOD	MO	63011-2089	US		Happy Birthday! From Dave and Shelley	false		
113-2215098-2166659	03835851977002	2021-01-04T23:25:17+00:00	2021-01-04T15:25:17-08:00	2021-01-04T23:49:50+00:00	2021-01-07T07:59:59+00:00	-3	l0cfw8ldsslrk88@marketplace.amazon.com	mandee Lewandowski	+1 415-419-8616 ext. 26242	ABM020	Delivery by Thursday, January 7 Sunset Bouquet by Arabella Bouquets	1	0	1	Expedited	Kate Grosland	1017 16TH AVE S			SAINT CLOUD	MN	56301-5235	US		My Darling Wife: I hope you are enjoying sunnier days soon. We love you and miss you and are sending our love.    XoXo  -Big Mama and the child From mandee Lewandowski	false		
112-9946646-1229845	25523432299970	2021-01-04T23:23:08+00:00	2021-01-04T15:23:08-08:00	2021-01-04T23:52:00+00:00	2021-01-07T07:59:59+00:00	-3	91l8vgv9mb4lg49@marketplace.amazon.com	Kim Allain	+1 213-442-1463 ext. 07658	ABR0055	Delivery by Thursday, January 7 Dozen Hot Pink Roses in a Free Vase by Arabella Bouquets	1	0	1	Expedited	Sharla Hayward	1062 S. Kittredge Way			Aurora	Co	80017	US		Sending well wishes! From Kim and Craig	false		
113-8080099-3544266	65235665729370	2021-01-04T23:22:23+00:00	2021-01-04T15:22:23-08:00	2021-01-04T23:52:00+00:00	2021-01-07T07:59:59+00:00	-3	shg19qtdlrrxhyz@marketplace.amazon.com	cindy baker	+1 619-854-2705 ext. 36629	ABR0033	Delivery by Thursday, January 7 Dozen Orange Roses in a Free Vase by Arabella Bouquets	1	0	1	Expedited	GAIL FREGA	572 NW FLORESTA DR			PORT SAINT LUCIE	FL	34983-8615	US			false		
113-5283131-2405039	24229091412810	2021-01-04T23:22:35+00:00	2021-01-04T15:22:35-08:00	2021-01-04T23:52:01+00:00	2021-01-06T07:59:59+00:00	-2	4xr6m09kqp644k4@marketplace.amazon.com	Kimberly Ward	+1 415-851-9136 ext. 60685	ABM0033	Delivery by Thursday, January 7 White Hydrangea 5 Stems with a Free Glass Vase by Arabella Bouquets	1	0	1	SecondDay	Kimberly Ward	104 W Vernon			Normal	IL	61761	US			false		
111-6422386-2501827	11150094606378	2021-01-04T23:28:15+00:00	2021-01-04T15:28:15-08:00	2021-01-04T23:56:29+00:00	2021-01-07T07:59:59+00:00	-3	bgdlpwnqr5sb466@marketplace.amazon.com	Christine	+1 213-442-1463 ext. 58963	ABR0066	Delivery by Thursday, January 7 Dozen White Roses in a Free Vase by Arabella Bouquets	1	0	1	Expedited	Barb May	978 MARGO LN			MILLERSBURG	PA	17061-1226	US		We are so sad to hear of the passing of Pappy. He will be truly missed. Lots of love and prayers. From Jack, Christine, Steve, Stella and Michael	false		
111-8630214-3441837	08750759720010	2021-01-04T23:55:17+00:00	2021-01-04T15:55:17-08:00	2021-01-04T23:57:44+00:00	2021-01-07T07:59:59+00:00	-3	0rrqy01t1txl0y2@marketplace.amazon.com	Peggy Best	+1 415-419-8616 ext. 85575	ABR0022	Delivery by Thursday, January 7 Dozen Pink Roses with a Free Vase by Arabella Bouquets	1	0	1	Expedited	Rebekah Best	2273 E UNION CIR			DELTONA	FL	32725-2719	US		Sorry about your grandmother. We love you.  Love, Peggy and Carney From Peggy Best	false		
114-9446358-6573003	53722751795418	2021-01-04T23:28:58+00:00	2021-01-04T15:28:58-08:00	2021-01-04T23:57:46+00:00	2021-01-07T07:59:59+00:00	-3	lr00ct4qd05y6jr@marketplace.amazon.com	rachel ripley	+1 480-618-5344 ext. 41309	ABM010	Delivery by Thursday, January 7 Everlasting Fling with a Free Glass Vase by Arabella Bouquets	1	0	1	Expedited	Patience Ashey	20 KINGDOM WAY			GRANTHAM	NH	03753-4420	US		Sending hugs and love ! If you need anything please let us know ! Xoxo From BOD	false		
111-3782106-9265045	29714742364490	2021-01-04T23:28:08+00:00	2021-01-04T15:28:08-08:00	2021-01-04T23:58:01+00:00	2021-01-07T07:59:59+00:00	-3	bpdb84jrsgzdkcw@marketplace.amazon.com	Vera Schelling	+1 763-225-9463 ext. 06344	ABM010	Delivery by Thursday, January 7 Everlasting Fling with a Free Glass Vase by Arabella Bouquets	1	0	1	Expedited	R & D Pickerill	12075 W 82ND AVE			ARVADA	CO	80005-1907	US			false		
112-9355084-3412223	69538664839202	2021-01-04T23:45:26+00:00	2021-01-04T15:45:26-08:00	2021-01-05T00:07:43+00:00	2021-01-07T07:59:59+00:00	-3	szw95jncqbphnf8@marketplace.amazon.com	constance marsala	+1 619-854-2705 ext. 50763	ABR0066	Delivery by Thursday, January 7 Dozen White Roses in a Free Vase by Arabella Bouquets	1	0	1	Expedited	Kristina P. Nilsen	840 BUCHANAN BLVD			RED BANK	NJ	07701-5350	US		Happy Birthday to a very special 18 year old. From Aunt Connie with love	false		
114-0624054-6377064	60013210901946	2021-01-04T23:59:15+00:00	2021-01-04T15:59:15-08:00	2021-01-05T00:09:38+00:00	2021-01-07T07:59:59+00:00	-3	t4rnbpv025byzrm@marketplace.amazon.com	Mary Peterson	+1 415-851-9136 ext. 77584	ABR011	Delivery by Thursday, January 7 Farm Direct 18 Red Roses in a Free Vase by Arabella Bouquets	1	0	1	Expedited	Calvin  Peterson	1106 QUINCE ST			DENVER	CO	80220-3107	US			false		
111-1434579-9004251	69925040535298	2021-01-04T23:44:22+00:00	2021-01-04T15:44:22-08:00	2021-01-05T00:14:29+00:00	2021-01-07T07:59:59+00:00	-3	06tpwbw0wgm5qv2@marketplace.amazon.com	jennifer lamarca	+1 213-442-1463 ext. 57491	ABR0022	Delivery by Thursday, January 7 Dozen Pink Roses with a Free Vase by Arabella Bouquets	1	0	1	Expedited	Jennifer LaMarca	4591 SOUTHWESTERN BLVD APT FF8			HAMBURG	NY	14075-7706	US			false		
111-1350884-3100256	38755155392418	2021-01-04T23:50:28+00:00	2021-01-04T15:50:28-08:00	2021-01-05T00:15:58+00:00	2021-01-07T07:59:59+00:00	-3	k8b94fh130pffrp@marketplace.amazon.com	Diane Bobiak	+1 213-442-1463 ext. 58329	ABR0033	Delivery by Thursday, January 7 Dozen Orange Roses in a Free Vase by Arabella Bouquets	1	0	1	Expedited	Mary Lynn Osborne	1179 GOVERNORS WAY			VERO BEACH	FL	32963-3653	US		Thank you so much for your warm hospitality and all the great gifts. Too generous! A little something to welcome you home to FL. Love, Diane From Diane Bobiak	false		
111-7847147-0529801	43509326546410	2021-01-04T23:46:51+00:00	2021-01-04T15:46:51-08:00	2021-01-05T00:16:11+00:00	2021-01-07T07:59:59+00:00	-3	561z5mkkrkygd13@marketplace.amazon.com	Jacob DeLay	+1 213-442-1463 ext. 44017	ABR0022	Delivery by Thursday, January 7 Dozen Pink Roses with a Free Vase by Arabella Bouquets	1	0	1	Expedited	Delilah Kubisak	440 FRANKLIN BLVD			ELGIN	IL	60120-4439	US		Feel better! xoxo From Jacob	false		
112-2267821-7571402	38914810080258	2021-01-04T23:50:17+00:00	2021-01-04T15:50:17-08:00	2021-01-05T00:16:23+00:00	2021-01-07T07:59:59+00:00	-3	kzs1v7jlf79bd92@marketplace.amazon.com	Andres Mur	+1 415-851-9136 ext. 34666	ABR0055	Delivery by Thursday, January 7 Dozen Hot Pink Roses in a Free Vase by Arabella Bouquets	1	0	1	Expedited	Vera Shelton	2550 S ELLSWORTH RD UNIT 357			MESA	AZ	85209-2209	US		Mom, we hope you have a wonderful birthday! Enjoy your day. Love you! From Andres and Karen Mur	false		
113-1645050-3148202	08986204530330	2021-01-04T23:48:15+00:00	2021-01-04T15:48:15-08:00	2021-01-05T00:16:52+00:00	2021-01-07T07:59:59+00:00	-3	q25fvlhbpvn4r5s@marketplace.amazon.com	Faye A. Detry	+1 619-854-2705 ext. 52927	ABM0044	Delivery by Thursday, January 7 Blue Hydrangea 5 Stems with a Free Glass Vase by Arabella Bouquets	1	0	1	Standard	Katie Rulseh Dean Harris	857 SURREY HILL WAY			ROCHESTER	NY	14623-3038	US		Happy Birthday!  Next year will be much better. From Faye and Ron	false		
