order-id	order-item-id	purchase-date	payments-date	reporting-date	promise-date	days-past-promise	buyer-email	buyer-name	buyer-phone-number	sku	product-name	quantity-purchased	quantity-shipped	quantity-to-ship	ship-service-level	recipient-name	ship-address-1	ship-address-2	ship-address-3	ship-city	ship-state	ship-postal-code	ship-country	gift-wrap-type	gift-message-text	is-business-order	purchase-order-number	price-designation
112-8472380-2237819	59943279695642	2021-01-06T06:11:14+00:00	2021-01-05T22:11:14-08:00	2021-01-06T06:37:12+00:00	2021-01-08T07:59:59+00:00	-2	pn8q1v3k9kgvldj@marketplace.amazon.com	cara sawin	+1 619-854-2705 ext. 01554	ABR0066	Delivery by Friday, January 8 Dozen White Roses in a Free Vase by Arabella Bouquets	1	0	1	Expedited	Cara Sawin	94 STONEYBROOK DR			GREENWOOD	IN	46142-2106	US		Shannon,  I am so very sorry to hear about Grandma Gee. She was such a wonderful person and I always loved her very much. You and your family will be in my thoughts and prayers! From Cara and Annabel	false		
113-1723388-1207459	05712515299450	2021-01-06T15:59:20+00:00	2021-01-06T07:59:20-08:00	2021-01-06T16:25:22+00:00	2021-01-09T07:59:59+00:00	-3	400cdc15qnxps6v@marketplace.amazon.com	Janet J Olson	+1 763-225-9463 ext. 46318	ABM030	Delivery by Monday, January 11 Just Because Bouquet by Arabella Bouquets	1	0	1	Expedited	Janet O’Connell	911 GRANITE AVE			HELENA	MT	59601-1306	US		May these brighten your day. You are in our minds and in our hearts. Keep the faith! Love you. From Janet & David	false		
114-6481870-1783422	53773869796570	2021-01-06T16:37:56+00:00	2021-01-06T08:37:56-08:00	2021-01-06T17:06:36+00:00	2021-01-09T07:59:59+00:00	-3	7whxpqd5crfwqjj@marketplace.amazon.com	Kathy Orbinpost	+1 415-851-9136 ext. 18205	ABM022	Delivery by Monday, January 11 Purple Extravagance Bouquet by Arabella Bouquets	1	0	1	Expedited	Harbor House: Frances Post	11 CONDITO RD RM 115			HINGHAM	MA	02043-1746	US		Dear Gram: Happy Birthday!  Love from Kathy, Mike, Elizabeth and Zachary From Kathy Orbinpost	false		
114-2514911-3757855	59003252681594	2021-01-06T16:40:20+00:00	2021-01-06T08:40:20-08:00	2021-01-06T17:09:08+00:00	2021-01-09T07:59:59+00:00	-3	0wyc67x3n6rxkgt@marketplace.amazon.com	a w	+1 415-419-8616 ext. 78377	ABM024	Delivery by Monday, January 11 Beauty of Color Bouquet by Arabella Bouquets	1	0	1	Expedited	Grandma Walters	1806 JACOBS CIR			SAINT PETERS	MO	63376-7869	US		Happy Birthday From Campbell Cris and Adria	false		
113-5567950-4827401	67367118579218	2021-01-06T16:42:05+00:00	2021-01-06T08:42:05-08:00	2021-01-06T17:09:58+00:00	2021-01-09T07:59:59+00:00	-3	s6fkr532q4d4p12@marketplace.amazon.com	Lauren	+1 619-854-2705 ext. 58516	ABM022	Delivery by Monday, January 11 Purple Extravagance Bouquet by Arabella Bouquets	1	0	1	Expedited	Audra Kusinitz	38 HAMLET WOODS DR			SAINT JAMES	NY	11780-3167	US		Happy Birthday to the Queen!! I hope you have a day that’s as fabulous as you!! XO From L Double H  :)	false		
112-6834948-2120205	63502818203370	2021-01-06T17:03:06+00:00	2021-01-06T09:03:06-08:00	2021-01-06T17:32:22+00:00	2021-01-09T07:59:59+00:00	-3	hhq071ws8yr5ybb@marketplace.amazon.com	Hillary Bell Buchanan	+1 619-854-2705 ext. 71976	ABM002	Delivery by Monday, January 11 White Calla Lilies in a Free Designer Glass Vase by Arabella Bouquets	1	0	1	Expedited	Martha Johnston	368 PARKER DR			FOLSOM	CA	95630-7949	US		Happy Birthday Ma! I love you :)  Love Hilly From Hillary Bell Buchanan	false		
111-8290223-5448210	25364369315402	2021-01-06T17:09:04+00:00	2021-01-06T09:09:04-08:00	2021-01-06T17:35:23+00:00	2021-01-09T07:59:59+00:00	-3	nd0ngyptvgd260n@marketplace.amazon.com	CANDICE JOHNSON	+1 346-307-9643 ext. 78642	ABM010	Delivery by Monday, January 11 Everlasting Fling with a Free Glass Vase by Arabella Bouquets	1	0	1	Expedited	ANNA HAWTHORNE	1928 BLUFF OAK ST			APOPKA	FL	32712-3907	US		Hoping you continue to feel better. Wishing you all good things in 2021! We love you, Anna!! From PETER & CANDICE  & PROFESSOR DUMBLEDORE	false		
111-2175548-5606661	47312146887722	2021-01-06T17:18:01+00:00	2021-01-06T09:18:01-08:00	2021-01-06T17:48:17+00:00	2021-01-09T07:59:59+00:00	-3	zbl0bhywby7cp65@marketplace.amazon.com	dcs	+1 213-442-1463 ext. 40358	ABM002	Delivery by Monday, January 11 White Calla Lilies in a Free Designer Glass Vase by Arabella Bouquets	1	0	1	Expedited	SUK SONES	BLENHEIM-NEWPORT 303 VALLEY RD	APT 312		MIDDLETOWN	RI	02842-7217	US			false		
111-2721175-3079467	56198639059042	2021-01-06T17:30:34+00:00	2021-01-06T09:30:34-08:00	2021-01-06T17:56:54+00:00	2021-01-09T07:59:59+00:00	-3	5kgw7f9cwjs0lrq@marketplace.amazon.com	Jessica Rosa	+1 415-851-9136 ext. 94614	ABM022	Delivery by Monday, January 11 Purple Extravagance Bouquet by Arabella Bouquets	1	0	1	Expedited	Shamikia Wiggins Stevens	4420 SANIBEL CIR STE 103			VIRGINIA BEACH	VA	23462-4662	US		My Dearest Shamikia, Take good care of yourself and use this opportunity to watch all the trashy tv you can handle.  I'm only a phone call away if you need anything.  I Love + Miss you! From Jessica Rosa	false		
113-1359808-2254654	13265097897842	2021-01-06T17:44:27+00:00	2021-01-06T09:44:27-08:00	2021-01-06T18:11:10+00:00	2021-01-09T07:59:59+00:00	-3	600hk27wx884ww4@marketplace.amazon.com	Jennifer Rass	+1 415-851-9136 ext. 79650	ABR0022	Delivery by Friday, January 8 Dozen Pink Roses with a Free Vase by Arabella Bouquets	1	0	1	Expedited	Karen Miller	20819 CROWLEY ST			SAINT CLAIR SHORES	MI	48081-2171	US		Karen, Congratulations on your retirement and thank you so much for the amazing gift to JDRF that you recommended in your honor, we appreciate it so much! Love, Eric, Jenn, Ethan and Hannah From Jennifer Rass	false		
113-3492285-0021863	02234454491594	2021-01-06T17:45:30+00:00	2021-01-06T09:45:30-08:00	2021-01-06T18:12:42+00:00	2021-01-09T07:59:59+00:00	-3	b4jz619yt1kjqvw@marketplace.amazon.com	Claudio	+1 213-442-1463 ext. 67362	ABR0033	Delivery by Friday, January 8 Dozen Orange Roses in a Free Vase by Arabella Bouquets	1	0	1	Expedited	Jon and Tina Giannini	65 CHILDERS LN			ALAMO	CA	94507-1480	US		Thank you so much for allowing us to enjoy Guayabito. Hugs, Claudio From Claudio	false		
112-8377222-6415459	61987716552354	2021-01-06T17:49:30+00:00	2021-01-06T09:49:30-08:00	2021-01-06T18:14:46+00:00	2021-01-09T07:59:59+00:00	-3	gn6rk935rwgpxvr@marketplace.amazon.com	Jacquelyn	+1 415-419-8616 ext. 80913	ABR0022	Delivery by Friday, January 8 Dozen Pink Roses with a Free Vase by Arabella Bouquets	1	0	1	Expedited	Trina Hewins	18 ROCHAMBEAU RD			GARRISON	NY	10524-7408	US		Each year when this day comes I think about all the great memories I shared with my brother. Although he may not be here in physical he’s always with us in spirit. Love You Mama Hewins From Quani From Quani	false		
111-1859354-0062606	14400073247498	2021-01-06T17:47:35+00:00	2021-01-06T09:47:35-08:00	2021-01-06T18:16:01+00:00	2021-01-09T07:59:59+00:00	-3	0yh1qx4hn0pp5vz@marketplace.amazon.com	Marg Perelli	+1 619-854-2705 ext. 00772	ABR0022	Delivery by Friday, January 8 Dozen Pink Roses with a Free Vase by Arabella Bouquets	1	0	1	Standard	Laura Streno	504 ORCHID LN			OCEANSIDE	CA	92058-8654	US		Happy Birthday Laura- so very proud of you! From Daddy	false		
113-0920589-0152221	48848592040746	2021-01-06T17:54:23+00:00	2021-01-06T09:54:23-08:00	2021-01-06T18:21:42+00:00	2021-01-09T07:59:59+00:00	-3	zyksx3gkzw8nbns@marketplace.amazon.com	Debra Welch	+1 619-854-2705 ext. 27214	ABR0022	Delivery by Friday, January 8 Dozen Pink Roses with a Free Vase by Arabella Bouquets	1	0	1	Expedited	Wanda Rivera	3610 TREE LINE WAY			SAINT CLOUD	FL	34769-6507	US		Enjoy your gift! Love you 😍 From Debra Welch	false		
113-5987307-2368202	61846646349642	2021-01-06T18:00:31+00:00	2021-01-06T10:00:31-08:00	2021-01-06T18:28:35+00:00	2021-01-09T07:59:59+00:00	-3	kb274tmfw1qchs8@marketplace.amazon.com	Amanda Mason	+1 619-854-2705 ext. 44267	ABM022	Delivery by Monday, January 11 Purple Extravagance Bouquet by Arabella Bouquets	1	0	1	Expedited	Carol Mason	796 W PEAKVIEW AVE			LITTLETON	CO	80120-3474	US		I hope you have an easy recovery, Auntie! Jan, thank your for taking care of her :) From Amanda Mason	false		
113-9071423-3846660	05712057720042	2021-01-06T18:00:38+00:00	2021-01-06T10:00:38-08:00	2021-01-06T18:29:39+00:00	2021-01-09T07:59:59+00:00	-3	kc8s438tth2krbj@marketplace.amazon.com	Patricia Dickinson	+1 346-307-9643 ext. 78465	ABR0022	Delivery by Friday, January 8 Dozen Pink Roses with a Free Vase by Arabella Bouquets	1	0	1	Expedited	Joyce Tabor	4993 HEATHER PL			WAYNE	MI	48184-2550	US		Hope these are nicer than the ones I brought you to the hospital. From Patricia Dickinson	false		
113-4325900-0757055	34724033223146	2021-01-06T18:03:10+00:00	2021-01-06T10:03:10-08:00	2021-01-06T18:30:22+00:00	2021-01-09T07:59:59+00:00	-3	z509fqngck5hpbb@marketplace.amazon.com	Jens Schreier	0018476126015	ABM020	Delivery by Monday, January 11 Sunset Bouquet by Arabella Bouquets	1	0	1	Expedited	Marie Klepper	1193 FALCON RIDGE DR			ELGIN	IL	60124-3122	US		Enjoy your gift! Happy birthday Baby, From Mom & Pa From Jens Schreier	false		
114-9112164-4298619	51919375878458	2021-01-06T18:12:55+00:00	2021-01-06T10:12:55-08:00	2021-01-06T18:35:33+00:00	2021-01-09T07:59:59+00:00	-3	3d576x923xnlyxr@marketplace.amazon.com	Joseph A. Papke	+1 415-419-8616 ext. 91899	ABM021	Delivery by Monday, January 11 Joyous Bouquet by Arabella Bouquets	1	0	1	Standard	Vivian Milligan	501 Thomas avenue			Boaz Alabama	Alabama	35957	US		Dear Miss Vivian, Our best wishes to you on your special day. Happy Birthday and be well! God Bless You,  Joe & Kiki From Joe & Kiki Papke	false		
114-2166878-5338659	32949621021666	2021-01-06T18:12:32+00:00	2021-01-06T10:12:32-08:00	2021-01-06T18:42:32+00:00	2021-01-09T07:59:59+00:00	-3	lhn1rssf9rdcvgv@marketplace.amazon.com	pam detrick	+1 602-671-6610 ext. 29323	ABM021	Delivery by Monday, January 11 Joyous Bouquet by Arabella Bouquets	1	0	1	Expedited	Rex Fisher	15627 CYPRESS POINT AVE			LLANO	CA	93544-1223	US			false		
111-4547650-3741030	17805150702066	2021-01-06T18:28:59+00:00	2021-01-06T10:28:59-08:00	2021-01-06T18:50:16+00:00	2021-01-09T07:59:59+00:00	-3	d9n51b5vpzc77gl@marketplace.amazon.com	Rebecca Horwath	+1 619-854-2705 ext. 22616	ABR0022	Delivery by Monday, January 11 Dozen Pink Roses with a Free Vase by Arabella Bouquets	1	0	1	Expedited	Carol Burris	400 HOXIE CT			ELGIN	IL	60123-3280	US		Happy Birthday  We thank Jesus for the opportunity of having you in our life.   Your so special to us. Love you From Randy and Becky	false		
113-0591144-7294610	62459400135874	2021-01-06T18:30:56+00:00	2021-01-06T10:30:56-08:00	2021-01-06T18:54:46+00:00	2021-01-09T07:59:59+00:00	-3	z94vdvptw0f927b@marketplace.amazon.com	Jackie Rothermel	+1 415-419-8616 ext. 04901	ABR0066	Delivery by Monday, January 11 Dozen White Roses in a Free Vase by Arabella Bouquets	1	0	1	Expedited	Nancy Burkhart	112 W CLIFFWOOD AVE			ANAHEIM	CA	92802-4815	US		Our love and condolences on the loss of your Mother, Jane. She was an amazing person and will be missed. Love, From Jaclyn and Peter (Tesler) Rothermel	false		
113-1999117-7822600	43914127012146	2021-01-06T18:25:07+00:00	2021-01-06T10:25:07-08:00	2021-01-06T18:55:13+00:00	2021-01-09T07:59:59+00:00	-3	8r4jnf2s3zqz5fn@marketplace.amazon.com	Mary Wolf	+1 602-671-6610 ext. 42005	ABM022	Delivery by Monday, January 11 Purple Extravagance Bouquet by Arabella Bouquets	1	0	1	Expedited	Phyllis Ender	1200 TOWN CENTRE DR APT 206			EAGAN	MN	55123-1350	US			false		
114-2782889-2474608	61409908692122	2021-01-06T18:34:32+00:00	2021-01-06T10:34:32-08:00	2021-01-06T18:55:20+00:00	2021-01-09T07:59:59+00:00	-3	smcst20j24qr5rp@marketplace.amazon.com	Hipolito Santiago	+1 602-671-6610 ext. 07636	ABR013	Delivery by Monday, January 11 FarmDirect 18 Yellow Roses in a Free Vase by Arabella Bouquets	1	0	1	Expedited	Julie Santiago	1715 DARLINGTON DR			TAMPA	FL	33619-5711	US		Even when I’m mad ... you will always be my queen bee !!!! From Hipolito Santiago	false		
113-4624470-6903427	09323036999922	2021-01-06T18:38:57+00:00	2021-01-06T10:38:57-08:00	2021-01-06T19:05:17+00:00	2021-01-09T07:59:59+00:00	-3	dbkvrzdqlbtj857@marketplace.amazon.com	andrea husby	+1 602-671-6610 ext. 59299	ABR0022	Delivery by Monday, January 11 Dozen Pink Roses with a Free Vase by Arabella Bouquets	1	0	1	Expedited	Janette Mageras	555 5TH AVE NE STE 732			ST PETERSBURG	FL	33701-2667	US		Espero que estes teniendo un buen día.  Cuidate. Andrea From andrea husby	false		
114-4446997-7276204	12095642874842	2021-01-06T18:43:13+00:00	2021-01-06T10:43:13-08:00	2021-01-06T19:07:43+00:00	2021-01-09T07:59:59+00:00	-3	q834vkslpfj0sb7@marketplace.amazon.com	Erwin	+1 213-442-1463 ext. 90675	ABR0066	Delivery by Monday, January 11 Dozen White Roses in a Free Vase by Arabella Bouquets	1	0	1	Expedited	Mary O Soule	209 COLUMBIA PL W			CHAPEL HILL	NC	27516-2160	US		For a happy Soule. From Erwin	false		
112-3969324-0761822	40782177636658	2021-01-06T18:38:23+00:00	2021-01-06T10:38:23-08:00	2021-01-06T19:07:48+00:00	2021-01-09T07:59:59+00:00	-3	29l90g07vrtrltl@marketplace.amazon.com	J Baer	+1 763-225-9463 ext. 73977	ABR0022	Delivery by Monday, January 11 Dozen Pink Roses with a Free Vase by Arabella Bouquets	1	0	1	Expedited	dorothy swanson	8750 WESTMINSTER TER APT 5330			DALLAS	TX	75243-4141	US		Happy Birthday Mom! We love you! Joy and Dave From J Baer	false		
114-4568409-1935431	15249192551258	2021-01-06T18:42:27+00:00	2021-01-06T10:42:27-08:00	2021-01-06T19:12:34+00:00	2021-01-09T07:59:59+00:00	-3	rc3w5k0jzw05f8j@marketplace.amazon.com	derek rima	+1 415-419-8616 ext. 10963	ABR0022	Delivery by Monday, January 11 Dozen Pink Roses with a Free Vase by Arabella Bouquets	1	0	1	Expedited	Derek Conrad Rima	15 Mojonnier Place			Walla Walla	WA	99362	US			false		
112-8535977-6857828	49701528530058	2021-01-06T18:44:36+00:00	2021-01-06T10:44:36-08:00	2021-01-06T19:12:42+00:00	2021-01-09T07:59:59+00:00	-3	qg2h8rmjvswbslm@marketplace.amazon.com	Reis K McCullough	+1 346-307-9643 ext. 68066	ABM010	Delivery by Monday, January 11 Everlasting Fling with a Free Glass Vase by Arabella Bouquets	1	0	1	Expedited	Gina Grohs	16420 76TH CT NE			KENMORE	WA	98028-4269	US		Happy Birthday from both of us! Hope it brightens up your special day! Love, Reis and Azusa From Reis K McCullough	false		
113-3112293-2152209	03041858440874	2021-01-06T18:45:02+00:00	2021-01-06T10:45:02-08:00	2021-01-06T19:13:34+00:00	2021-01-09T07:59:59+00:00	-3	ndy0b3bbt91yhp7@marketplace.amazon.com	Barbara Smith	+1 415-419-8616 ext. 57453	ABM022	Delivery by Monday, January 11 Purple Extravagance Bouquet by Arabella Bouquets	1	0	1	Expedited	Margie Thompson	15136 KELLY ST			SPRING LAKE	MI	49456-1538	US		We hope you are feeling better. We have been thinking of you over the holidays. From Kasey, Barb and Bob	false		
113-3988038-4712200	36246074073274	2021-01-06T18:51:11+00:00	2021-01-06T10:51:11-08:00	2021-01-06T19:20:59+00:00	2021-01-09T07:59:59+00:00	-3	trdgdqsgnqr1zlp@marketplace.amazon.com	Lorraine Jackson	+1 602-671-6610 ext. 91350	ABR0033	Delivery by Friday, January 8 Dozen Orange Roses in a Free Vase by Arabella Bouquets	1	0	1	Expedited	Willie Pearl Black	922 GARLAND ST			MEMPHIS	TN	38107-4429	US			false		
113-7829095-0405029	54980133488522	2021-01-06T19:03:41+00:00	2021-01-06T11:03:41-08:00	2021-01-06T19:22:53+00:00	2021-01-09T07:59:59+00:00	-3	flkhzmww518z7m7@marketplace.amazon.com	Steve Wilson	+1 346-307-9643 ext. 32415	ABC002	Delivery by Monday, January 11 Warm Wishes Bouquet by Arabella Bouquets	1	0	1	Expedited	Joyce Reznicsek	44437 ROSEBUD SPUR			RONAN	MT	59864-9297	US		Ethel      Get well soon and miss you and Love you more than you will ever know!           Love Lucy From Bev Wilson	false		
113-4257578-3789849	46971135964498	2021-01-06T18:55:06+00:00	2021-01-06T10:55:06-08:00	2021-01-06T19:24:54+00:00	2021-01-09T07:59:59+00:00	-3	664gzs42yd7qhbw@marketplace.amazon.com	Gail	+1 602-671-6610 ext. 46498	ABR0033	Delivery by Friday, January 8 Dozen Orange Roses in a Free Vase by Arabella Bouquets	1	0	1	Expedited	Tracy Mifsud	5 CARL PL			KINNELON	NJ	07405-2931	US			false		
113-5022812-1095463	04954935040354	2021-01-06T19:01:35+00:00	2021-01-06T11:01:35-08:00	2021-01-06T19:31:00+00:00	2021-01-09T07:59:59+00:00	-3	yrg7spbfb6t1hlt@marketplace.amazon.com	jessica pilkey	+1 763-225-9463 ext. 96372	ABR0022	Delivery by Monday, January 11 Dozen Pink Roses with a Free Vase by Arabella Bouquets	1	0	1	Expedited	Randi	7215 32ND STREET CT NW			GIG HARBOR	WA	98335-6430	US		I love you so much. From Jessie	false		
114-5207664-0255416	47453683887154	2021-01-06T19:04:52+00:00	2021-01-06T11:04:52-08:00	2021-01-06T19:35:28+00:00	2021-01-09T07:59:59+00:00	-3	42npvc54w02816h@marketplace.amazon.com	Tyler Steffen	+1 213-442-1463 ext. 79364	ABR0022	Delivery by Monday, January 11 Dozen Pink Roses with a Free Vase by Arabella Bouquets	1	0	1	Expedited	Tyler Steffen	2722 RENICK ST			SAINT JOSEPH	MO	64507-1852	US			false		
111-7865648-5837001	37617748781274	2021-01-06T19:12:17+00:00	2021-01-06T11:12:17-08:00	2021-01-06T19:37:56+00:00	2021-01-09T07:59:59+00:00	-3	lz2djr3wl2nx0mx@marketplace.amazon.com	Michael Kagori	+1 213-442-1463 ext. 76380	ABR001	Delivery by Monday, January 11 Dozen Red Roses in a Free Vase by Arabella Bouquets	1	0	1	Expedited	Faith Kariuki	9232 WOODCREEK CT			PARKVILLE	MD	21234-1544	US		For each day of quarantine, May these Roses bring as much Sunshine and joy as you bring to the office! From MK	false		
112-2766466-3043432	62589692551738	2021-01-06T19:11:03+00:00	2021-01-06T11:11:03-08:00	2021-01-06T19:38:31+00:00	2021-01-09T07:59:59+00:00	-3	3g11ywwkk7jfqs2@marketplace.amazon.com	Sandy Haines	+1 415-419-8616 ext. 17778	ABR0022	Delivery by Monday, January 11 Dozen Pink Roses with a Free Vase by Arabella Bouquets	1	0	1	Expedited	S. A. Milligan-Shelley Milligan	4060 150TH AVENUE CT E STE 102			SUMNER	WA	98390-2177	US		I am so sorry to hear about Cindy Lou. Praying for you and her family.  I will always look at that huge Christmas wreath she made and smile. From Sandy Haines	false		
113-4974303-0561038	47720100861738	2021-01-06T19:14:55+00:00	2021-01-06T11:14:55-08:00	2021-01-06T19:41:23+00:00	2021-01-09T07:59:59+00:00	-3	pftqrnz4gl1r2tk@marketplace.amazon.com	Heather Harper-Troje	+1 602-671-6610 ext. 41912	ABM029	Delivery by Monday, January 11 Day Dream Bouquet by Arabella Bouquets	1	0	1	Expedited	Margaret Troje Meade	43 GREENWAY GABLES			MINNEAPOLIS	MN	55403-2146	US		Thank you so much for your thoughtful Christmas gifts and for helping to make our holiday season beautiful. Can’t wait until we can spend time together! From Heather, Eric, Liam, Aisleen, Ry	false		
113-1215628-3112253	57063287986322	2021-01-06T19:12:48+00:00	2021-01-06T11:12:48-08:00	2021-01-06T19:41:34+00:00	2021-01-09T07:59:59+00:00	-3	lsksrmsyczc2ny1@marketplace.amazon.com	Deanna Wong	+1 346-307-9643 ext. 13865	ABR0033	Delivery by Friday, January 8 Dozen Orange Roses in a Free Vase by Arabella Bouquets	1	0	1	Expedited	Judith Ramel	401 WASHINGTON ST APT 1			BROOKLINE	MA	02446-6118	US		To Judith, Happy 37th Birthday! Lots of love, Deanna & Johnny From Deanna Wong	false		
111-7925705-6860220	53467622223018	2021-01-06T19:13:50+00:00	2021-01-06T11:13:50-08:00	2021-01-06T19:43:47+00:00	2021-01-09T07:59:59+00:00	-3	zfh6b015x0rvchx@marketplace.amazon.com	Jeannie Bandejas	+1 415-851-9136 ext. 56869	ABR014	Delivery by Monday, January 11 FarmDirect 18 White Roses in a Free Vase by Arabella Bouquets	1	0	1	Expedited	Irene Aidasani	90 Letty Ln.			Brentwood	CA	94513	US			false		
113-0287840-3745869	67850419663002	2021-01-06T19:16:02+00:00	2021-01-06T11:16:02-08:00	2021-01-06T19:44:37+00:00	2021-01-09T07:59:59+00:00	-3	rc3j3g0tp76nkdt@marketplace.amazon.com	Nicole LeRoy	+1 763-225-9463 ext. 35928	ABR0055	Delivery by Monday, January 11 Dozen Hot Pink Roses in a Free Vase by Arabella Bouquets	1	0	1	Standard	Julie Smith	27619 N 65TH DR			PHOENIX	AZ	85083-7557	US		To My Beautiful Sister, Happiest Birthday! From Xoxo Sheri	false		
111-3840861-8819430	48558227187858	2021-01-06T19:18:44+00:00	2021-01-06T11:18:44-08:00	2021-01-06T19:45:34+00:00	2021-01-09T07:59:59+00:00	-3	swk951qwrcztbkh@marketplace.amazon.com	Eric J Gehring	+1 602-671-6610 ext. 74950	ABR0022	Delivery by Monday, January 11 Dozen Pink Roses with a Free Vase by Arabella Bouquets	1	0	1	Expedited	Jamie Gehring	109 STAVE MILL RD			BRIDGETON	NJ	08302-3942	US		Happy Birthday! From Eric, Meeghan, Amelia and Gus	false		
112-3287308-4888245	32785229821170	2021-01-06T19:22:32+00:00	2021-01-06T11:22:32-08:00	2021-01-06T19:50:53+00:00	2021-01-09T07:59:59+00:00	-3	lw17wks3t3yvmxj@marketplace.amazon.com	Vicki Marshall	+1 415-851-9136 ext. 40555	ABR0055	Delivery by Monday, January 11 Dozen Hot Pink Roses in a Free Vase by Arabella Bouquets	1	0	1	Expedited	Lauren  Schmitz	29 RADTKE RD			RANDOLPH	NJ	07869-3812	US		Hope you’re feeling much better! And you’ll be bouncing back to your old self in no time! Take care of yourself! From Grandma Marshall	false		
113-6399488-9910610	09321103183530	2021-01-06T19:29:38+00:00	2021-01-06T11:29:38-08:00	2021-01-06T19:55:45+00:00	2021-01-09T07:59:59+00:00	-3	mfnkln4clpndn2r@marketplace.amazon.com	dina miller	+1 213-442-1463 ext. 00876	ABR0022	Delivery by Monday, January 11 Dozen Pink Roses with a Free Vase by Arabella Bouquets	1	0	1	Expedited	Darlene DeSimone / Lutheran Home	800 W OAKTON ST RM 1120			ARLINGTON HEIGHTS	IL	60004-4602	US		Just wanted you to know that we are thinking of you!!  Wishing you a speedy recovery!! Love you! From Theresa And Battaglia Kids	false		
112-0654844-8462665	62526888365058	2021-01-06T19:32:14+00:00	2021-01-06T11:32:14-08:00	2021-01-06T19:58:32+00:00	2021-01-09T07:59:59+00:00	-3	t55292g0b825hj7@marketplace.amazon.com	kindra esterline	+1 602-671-6610 ext. 94044	ABR0022	Delivery by Monday, January 11 Dozen Pink Roses with a Free Vase by Arabella Bouquets	1	0	1	Expedited	Nicole Newbauer	27 HECKATHORN RD			BROOKVILLE	OH	45309-9350	US		Our sympathies and prayers From Love kindra and Janine	false		
114-6583629-0215460	05412948328514	2021-01-06T19:32:49+00:00	2021-01-06T11:32:49-08:00	2021-01-06T19:58:56+00:00	2021-01-09T07:59:59+00:00	-3	vlp0xcj1ls5gxsy@marketplace.amazon.com	Christina	+1 763-225-9463 ext. 71007	ABR0033	Delivery by Monday, January 11 Dozen Orange Roses in a Free Vase by Arabella Bouquets	1	0	1	Expedited	APRIL CORVASCE	2 DEBOW DR			MILLSTONE TWP	NJ	08535-3823	US		We are so sorry to hear about Rich. May he rest in eternal peace.  Praying for your family. From Christina, Marisa and Delaney Prasek	false		
113-4442370-5797008	61404974573218	2021-01-06T19:34:28+00:00	2021-01-06T11:34:28-08:00	2021-01-06T19:59:12+00:00	2021-01-09T07:59:59+00:00	-3	sy2mh8krtl91dhm@marketplace.amazon.com	Fred Dibella	+1 415-851-9136 ext. 39463	ABR0022	Delivery by Monday, January 11 Dozen Pink Roses with a Free Vase by Arabella Bouquets	1	0	1	Standard	Emily DiBella	8509 HITCHING POST LN			ALEXANDRIA	VA	22308-2225	US		This will arrive early because we'll be in the Keys next week and I didn't want to miss the occasion.  Happy Birthday Emily!   Love, Fred From Fred	false		
114-9130839-7601013	53864929997282	2021-01-06T19:34:22+00:00	2021-01-06T11:34:22-08:00	2021-01-06T20:03:06+00:00	2021-01-09T07:59:59+00:00	-3	1tb3bcrv8b4dx53@marketplace.amazon.com	David Szymanski	+1 415-419-8616 ext. 98722	ABM022	Delivery by Monday, January 11 Purple Extravagance Bouquet by Arabella Bouquets	1	0	1	Expedited	Rachael Szymanski	15771 MEADOW DR			SAEGERTOWN	PA	16433-6163	US		Enjoy your colorful plants! From David Szymanski	false		
114-3119922-7975412	44557933100170	2021-01-06T19:38:11+00:00	2021-01-06T11:38:11-08:00	2021-01-06T20:05:44+00:00	2021-01-09T07:59:59+00:00	-3	d9wh7kvhrxm2zpj@marketplace.amazon.com	Olivia Brackins	+1 415-851-9136 ext. 09345	ABR0022	Delivery by Monday, January 11 Dozen Pink Roses with a Free Vase by Arabella Bouquets	1	0	1	Expedited	Beatrice Bryant	2713 MARBLETON RD			UNICOI	TN	37692-6648	US		Dear Mamaw Bea and Papa Harvey, I hope these pink roses brighten your day. I love you both- Livy From Olivia Brackins	false		
113-3907794-4843443	22175052827658	2021-01-06T19:35:46+00:00	2021-01-06T11:35:46-08:00	2021-01-06T20:06:19+00:00	2021-01-09T07:59:59+00:00	-3	xmc1svl206224bw@marketplace.amazon.com	Tulip stewart	+1 415-419-8616 ext. 32831	ABR0055	Delivery by Monday, January 11 Dozen Hot Pink Roses in a Free Vase by Arabella Bouquets	1	0	1	Expedited	Tulip Alfredo	811 PIERCE AVE			SHARPSVILLE	PA	16150-2014	US			false		
111-7928037-8206667	31319561705338	2021-01-06T19:40:39+00:00	2021-01-06T11:40:39-08:00	2021-01-06T20:08:20+00:00	2021-01-09T07:59:59+00:00	-3	zkrxwc2hz958j0d@marketplace.amazon.com	David Wittlich	+1 763-225-9463 ext. 56974	ABM010	Delivery by Monday, January 11 Everlasting Fling with a Free Glass Vase by Arabella Bouquets	1	0	1	Expedited	Elizabeth Draeger	744 RIVER GLEN DR			O FALLON	MO	63368-9645	US		Hi Elizabeth,  I hope these flowers brighten your day! Get well quick. I'm thinking of you often, my friend! Please take care of yourself.  David and Stevie From David Wittlich	false		
111-0395626-9800203	60342580283650	2021-01-06T19:43:06+00:00	2021-01-06T11:43:06-08:00	2021-01-06T20:10:53+00:00	2021-01-09T07:59:59+00:00	-3	4x0kclhfbcjvgsr@marketplace.amazon.com	William M France Jr	+1 415-419-8616 ext. 41086	ABR001	Delivery by Monday, January 11 Dozen Red Roses in a Free Vase by Arabella Bouquets	1	0	1	Expedited	Kathleen Dunn	10495 GREEN CHAPEL RD			JOHNSTOWN	OH	43031-9528	US		Happy Belated Birthday Mom!  The first bouquet I sent you was not deliverable to your address!  UGH! Love, Bill From William M France Jr	false		
112-7263524-8289830	61165632576442	2021-01-06T19:43:15+00:00	2021-01-06T11:43:15-08:00	2021-01-06T20:12:43+00:00	2021-01-09T07:59:59+00:00	-3	qcm2p2zhm2d5rfn@marketplace.amazon.com	Maria Bigham	+1 415-419-8616 ext. 68457	ABR0033	Delivery by Monday, January 11 Dozen Orange Roses in a Free Vase by Arabella Bouquets	1	0	1	Expedited	Kristi Bigham	161 E 500 S			MOUNT PLEASANT	UT	84647-1818	US		Happy Birthday, Mom!! I hope you have a wonderful day. From Maria	false		
114-0022010-5020277	53127930251962	2021-01-06T19:49:34+00:00	2021-01-06T11:49:34-08:00	2021-01-06T20:15:01+00:00	2021-01-09T07:59:59+00:00	-3	sp9zzwf3z6n3f3l@marketplace.amazon.com	LIFT	+1 602-671-6610 ext. 89123	ABR0033	Delivery by Monday, January 11 Dozen Orange Roses in a Free Vase by Arabella Bouquets	1	0	1	Expedited	Tyler Levsen	40 WILLARD AVE			BLOOMFIELD	NJ	07003-4862	US		"Congratulations on your new bundle of joy! We wish you the best of happiness that your baby will bring you. Please enjoy this special time and we hope it's filled with wonderful memories. From Cathy and the LIFT Team	true		
111-1175895-8727436	18033423222498	2021-01-06T19:48:35+00:00	2021-01-06T11:48:35-08:00	2021-01-06T20:18:00+00:00	2021-01-09T07:59:59+00:00	-3	j8cyxnctrdgl8wt@marketplace.amazon.com	serena zamudio	+1 415-419-8616 ext. 20187	ABR0033	Delivery by Monday, January 11 Dozen Orange Roses in a Free Vase by Arabella Bouquets	1	0	1	Expedited	Melissa Boyce	1685 WILLOW AVE			CLOVIS	CA	93612-3222	US		Sending some sunshine your way. We love you! From The Luna Family	false		
114-2252415-1485840	46035738142194	2021-01-06T19:58:39+00:00	2021-01-06T11:58:39-08:00	2021-01-06T20:26:41+00:00	2021-01-09T07:59:59+00:00	-3	5r6dfbtds2dvp9m@marketplace.amazon.com	Deborah Sferlazza	+1 415-419-8616 ext. 40696	ABR0055	Delivery by Monday, January 11 Dozen Hot Pink Roses in a Free Vase by Arabella Bouquets	1	0	1	Expedited	Catherine  Cool Wirtz	1097 OAKBROOK Street			MEDINA	OH	44256-4043	US		We love you.... Mom Dad Debbie Guy Mae Mae and Oonagh From Deborah Sferlazza	false		
111-6339421-3949026	11581801642394	2021-01-06T20:06:17+00:00	2021-01-06T12:06:17-08:00	2021-01-06T20:27:36+00:00	2021-01-09T07:59:59+00:00	-3	rsl7n5bg7trrcq4@marketplace.amazon.com	Yuling Luo	+1 602-671-6610 ext. 05370	ABR0066	Delivery by Monday, January 11 Dozen White Roses in a Free Vase by Arabella Bouquets	1	0	1	Expedited	Katherine Yan	4212 LIMESTONE DR			ANTIOCH	CA	94509-6956	US		Dear Katherine,  I am truly sorry for your loss.  may the soul of your father rest in peace. From Limin	false		
112-0753021-7609015	05887474798650	2021-01-06T19:58:43+00:00	2021-01-06T11:58:43-08:00	2021-01-06T20:27:57+00:00	2021-01-09T07:59:59+00:00	-3	28cfzjkny40dc8w@marketplace.amazon.com	Blake Walker	+1 763-225-9463 ext. 78454	ABR0066	Delivery by Monday, January 11 Dozen White Roses in a Free Vase by Arabella Bouquets	1	0	1	Expedited	Dan and Carolyn Bittner	11 MARYDALE RD			WEST HAVEN	CT	06516-5531	US		We are so very sorry for your loss! Love to you. From Walkers and Hubertys	false		
112-0311700-0894666	19978651279698	2021-01-06T20:00:25+00:00	2021-01-06T12:00:25-08:00	2021-01-06T20:29:03+00:00	2021-01-09T07:59:59+00:00	-3	z21zf3w7tby9qj5@marketplace.amazon.com	Agnes	+1 415-419-8616 ext. 72930	ABM010	Delivery by Monday, January 11 Everlasting Fling with a Free Glass Vase by Arabella Bouquets	1	0	1	Expedited	Ramona Reagan Riconose	1656 PLEMAN PL			SANTA MARIA	CA	93458-1844	US		HAPPY BIRTHDAY! 95 years young! Love, Princessa and John T. From Princessa & John T	false		
114-2571984-6205033	55735771837170	2021-01-06T20:08:53+00:00	2021-01-06T12:08:53-08:00	2021-01-06T20:35:30+00:00	2021-01-09T07:59:59+00:00	-3	qx43bcpngyk4m8y@marketplace.amazon.com	lindadoherty	+1 602-671-6610 ext. 36630	ABM010	Delivery by Monday, January 11 Everlasting Fling with a Free Glass Vase by Arabella Bouquets	1	0	1	Expedited	Margie Gray	647 ARBOLEDA DR			LOS ALTOS	CA	94024-4115	US			false		
113-1714413-4006609	56063887638586	2021-01-06T20:08:51+00:00	2021-01-06T12:08:51-08:00	2021-01-06T20:37:54+00:00	2021-01-09T07:59:59+00:00	-3	7trs8y8l2751tk3@marketplace.amazon.com	Olivia	+1 415-419-8616 ext. 75652	ABM026	Delivery by Monday, January 11 Amour Bouquet by Arabella Bouquets	1	0	1	Expedited	Elizabeth Peterson	5686 LAKE MEAD DR			FAIRFIELD	OH	45014-4416	US		Dear Elizabeth,  Deepest condolences in your time of loss. You are in our thoughts. From AMZL ACES Team	false		
113-3858236-9671444	25060715358634	2021-01-06T20:11:03+00:00	2021-01-06T12:11:03-08:00	2021-01-06T20:40:08+00:00	2021-01-09T07:59:59+00:00	-3	jw4yd2vnylh7w08@marketplace.amazon.com	alan weatherhead	66787723309	ABM0033	Delivery by Monday, January 11 White Hydrangea 5 Stems with a Free Glass Vase by Arabella Bouquets	1	0	1	Expedited	Illona Weatherhead	668 LEEDS PL			THE VILLAGES	FL	32162-1152	US			false		
111-6005262-3395422	04236768909034	2021-01-06T20:17:58+00:00	2021-01-06T12:17:58-08:00	2021-01-06T20:40:47+00:00	2021-01-09T07:59:59+00:00	-3	ghjjy1qy0bfqcqz@marketplace.amazon.com	Ann Ratliff	+1 619-854-2705 ext. 94243	ABB013	Delivery by Monday, January 11 FarmDirect 24 Fresh Cut White Roses in a Free Vase by Arabella Bouquets	1	0	1	Expedited	Cynthia Riggs	2511 W 85TH ST			INGLEWOOD	CA	90305-1817	US		With Deepest Sympathy Our prayers and thoughts are with you during this difficult time. From With Love, Your Friends in OEE	false		
114-3882971-5326612	66999532951346	2021-01-06T20:16:49+00:00	2021-01-06T12:16:49-08:00	2021-01-06T20:42:36+00:00	2021-01-09T07:59:59+00:00	-3	zs7bbjvsgmftx9c@marketplace.amazon.com	Krysta Swanson	+1 763-225-9463 ext. 16277	ABM020	Delivery by Monday, January 11 Sunset Bouquet by Arabella Bouquets	1	0	1	Expedited	Stephanie Bertsch	401 SILVER VALLEY BLVD			MUNROE FALLS	OH	44262-1011	US		Thank you for all of your work on B&N while I was out. I truly appreciate it. I hope your work load gets better with me being back! I enjoy working with you. From Krysta Swanson	false		
114-1252979-2093013	04044896369538	2021-01-06T20:17:01+00:00	2021-01-06T12:17:01-08:00	2021-01-06T20:46:09+00:00	2021-01-09T07:59:59+00:00	-3	rl63fd1qwr0w493@marketplace.amazon.com	Shawn	+1 415-851-9136 ext. 54786	ABR0022	Delivery by Monday, January 11 Dozen Pink Roses with a Free Vase by Arabella Bouquets	1	0	1	Expedited	Mr. and Mrs. John and Helen Prinos	6008-4 INDRIO RD			FORT PIERCE	FL	34951-3213	US		We hope everyday you're feeling better and better. Lots of Love From Mike and Shawn	false		
111-2892877-9462625	62214363046458	2021-01-06T20:04:11+00:00	2021-01-06T12:04:11-08:00	2021-01-06T20:47:03+00:00	2021-01-09T07:59:59+00:00	-3	5jxxm1zxvt2zq2f@marketplace.amazon.com	Vyacheslav Gomon	+1 619-854-2705 ext. 76723	ABR0022	Delivery by Monday, January 11 Dozen Pink Roses with a Free Vase by Arabella Bouquets	1	0	1	Expedited	Vyacheslav Gomon	250 CARLSON PKWY APT 323			MINNETONKA	MN	55305-5321	US			false		
113-5816202-2198657	40208488740954	2021-01-06T20:18:17+00:00	2021-01-06T12:18:17-08:00	2021-01-06T20:48:36+00:00	2021-01-09T07:59:59+00:00	-3	5q9mwsvf04gpgts@marketplace.amazon.com	Rachel Brister	+1 415-419-8616 ext. 59021	ABC002	Delivery by Monday, January 11 Warm Wishes Bouquet by Arabella Bouquets	1	0	1	Expedited	Jane Dupre	26601 LAS TUNAS DR			MISSION VIEJO	CA	92692-3934	US			false		
114-3056334-9870649	10850687791082	2021-01-06T20:27:05+00:00	2021-01-06T12:27:05-08:00	2021-01-06T20:52:53+00:00	2021-01-09T07:59:59+00:00	-3	sl5ml4fkxsqf451@marketplace.amazon.com	Christine Hoover	+1 213-442-1463 ext. 47943	ABR0022	Delivery by Monday, January 11 Dozen Pink Roses with a Free Vase by Arabella Bouquets	1	0	1	Expedited	Bobbie Holliday	1703 Pearlview Ct			Muscatine	IA	52761	US		Happy 50th Birthday! Love, Christy, Brentt, Maddie, Sam and Moose From Christine Hoover	false		
112-1620391-5957832	37409010738506	2021-01-06T20:27:59+00:00	2021-01-06T12:27:59-08:00	2021-01-06T20:57:15+00:00	2021-01-09T07:59:59+00:00	-3	3rt9xwj68fxkdp1@marketplace.amazon.com	Paula Wasson	+1 763-225-9463 ext. 21951	ABR0022	Delivery by Monday, January 11 Dozen Pink Roses with a Free Vase by Arabella Bouquets	1	0	1	Expedited	Paula Wasson	411 HARROLD ST APT 1448			FORT WORTH	TX	76107-3154	US		Happy birthday! From Paula Wasson	false		
