order-id	order-item-id	purchase-date	payments-date	reporting-date	promise-date	days-past-promise	buyer-email	buyer-name	buyer-phone-number	sku	product-name	quantity-purchased	quantity-shipped	quantity-to-ship	ship-service-level	recipient-name	ship-address-1	ship-address-2	ship-address-3	ship-city	ship-state	ship-postal-code	ship-country	gift-wrap-type	gift-message-text	is-business-order	purchase-order-number	price-designation
113-0863884-4460204	06183388728106	2021-01-08T17:22:29+00:00	2021-01-08T09:22:29-08:00	2021-01-08T17:48:04+00:00	2021-01-13T07:59:59+00:00	-4	4ws8tq9x6c945y5@marketplace.amazon.com	Guiying Zhang	+1 213-442-1463 ext. 42482	ABR0022	Delivery by Monday, January 11 Dozen Pink Roses with a Free Vase by Arabella Bouquets	1	0	1	Expedited	Maryetta Golden	2360 WESTBURY CT			TRACY	CA	95376-2461	US		Ms. Golden, I am very sorry for your loss. I wish this brings you some joy in this challenging time. I am here for you all the time. Take care! From Mrs. Bevans	false		
114-9103341-8607442	08949949710266	2021-01-08T18:04:21+00:00	2021-01-08T10:04:21-08:00	2021-01-08T18:30:59+00:00	2021-01-13T07:59:59+00:00	-4	0crm0643d5rlkf0@marketplace.amazon.com	Taniyah Nicole Eyer	+1 480-618-5344 ext. 44054	ABR0022	Delivery by Monday, January 11 Dozen Pink Roses with a Free Vase by Arabella Bouquets	1	0	1	Expedited	Mary Eyer	435 VERA AVE			RIPON	CA	95366-2348	US		Enjoy your gift! From Taniyah Nicole Eyer	false		
111-0019295-1665015	53518239209714	2021-01-08T18:06:43+00:00	2021-01-08T10:06:43-08:00	2021-01-08T18:36:50+00:00	2021-01-13T07:59:59+00:00	-4	s6dd23km9j9mybd@marketplace.amazon.com	Stan Webster	+1 415-851-9136 ext. 91127	ABR0055	Delivery by Monday, January 11 Dozen Hot Pink Roses in a Free Vase by Arabella Bouquets	1	0	1	Expedited	Laura Adams	1222 State House Road 61			Marengo	OH	43334	US			false		
111-8621350-9158618	43810738255866	2021-01-08T18:14:49+00:00	2021-01-08T10:14:49-08:00	2021-01-08T18:38:28+00:00	2021-01-13T07:59:59+00:00	-4	vqztzykb6dchfpx@marketplace.amazon.com	Jerry D Breedlove Jr	+1 602-671-6610 ext. 16561	ABR0055	Delivery by Monday, January 11 Dozen Hot Pink Roses in a Free Vase by Arabella Bouquets	1	0	1	Expedited	Lindsey Breedlove	3233 ATLANTIC RD			PALM BEACH GARDENS	FL	33410-2415	US		Happy Birthday, Lindsey!  Hope you have a GREAT day!  Sending lots of love to you today and always! Let us know when you are ready to come to KC...we'd love to have you! From Your family in Kansas City	false		
111-3530492-5011455	33887921112066	2021-01-08T18:11:01+00:00	2021-01-08T10:11:01-08:00	2021-01-08T18:39:44+00:00	2021-01-13T07:59:59+00:00	-4	s6dd23km9j9mybd@marketplace.amazon.com	Stan Webster	+1 602-671-6610 ext. 97634	ABR0055	Delivery by Monday, January 11 Dozen Hot Pink Roses in a Free Vase by Arabella Bouquets	1	0	1	Expedited	Shannon Chestnut	12790 WILKINS RUN RD NE			NEWARK	OH	43055-8745	US		Have a great year From Stan Webster	false		
111-8453285-1704235	43008099092146	2021-01-08T18:12:48+00:00	2021-01-08T10:12:48-08:00	2021-01-08T18:42:27+00:00	2021-01-13T07:59:59+00:00	-4	s6dd23km9j9mybd@marketplace.amazon.com	Stan Webster	+1 213-442-1463 ext. 80347	ABR0055	Delivery by Monday, January 11 Dozen Hot Pink Roses in a Free Vase by Arabella Bouquets	1	0	1	Expedited	Kim Saur	847 LAKEWAY CT W			WESTERVILLE	OH	43081-4266	US		Have a great year. From Stan Webster	false		
112-8715445-3632237	20517805199242	2021-01-08T18:14:59+00:00	2021-01-08T10:14:59-08:00	2021-01-08T18:43:45+00:00	2021-01-13T07:59:59+00:00	-4	jng7xl2yszvw60h@marketplace.amazon.com	Brian B Frain SJ	+1 602-671-6610 ext. 27055	ABR0022	Delivery by Tuesday, January 12 Dozen Pink Roses with a Free Vase by Arabella Bouquets	1	0	1	Expedited	Michael Frain	807 BAYER AVE			DEPTFORD	NJ	08096-6649	US		Dear Michael And Maria, thank you very much for having me stay with you for three weeks. You were completely hospitable and most kind. Stay safe and have a wonderful new year. Love to Sasha. From Brian	false		
114-3465618-2531423	62584265391874	2021-01-08T18:15:29+00:00	2021-01-08T10:15:29-08:00	2021-01-08T18:45:07+00:00	2021-01-13T07:59:59+00:00	-4	dl57dnckb2b3gf0@marketplace.amazon.com	Victor Flatt	+1 619-854-2705 ext. 25270	ABR0022	Delivery by Tuesday, January 12 Dozen Pink Roses with a Free Vase by Arabella Bouquets	1	0	1	Expedited	Holly Barnard	439 OLD TOWNE DR			BRENTWOOD	TN	37027-4452	US		Happy New Year to my favorite niece.  Though I am thankful for all of the life that we lived in 2020, I look forward to seeing you and a better 2021.  Love you! From Victor Flatt	false		
114-9607027-2338616	17072323493930	2021-01-08T18:18:30+00:00	2021-01-08T10:18:30-08:00	2021-01-08T18:45:08+00:00	2021-01-13T07:59:59+00:00	-4	42gl2dgrhf4l74h@marketplace.amazon.com	ophelia latt	+1 415-419-8616 ext. 86373	ABR0066	Delivery by Tuesday, January 12 Dozen White Roses in a Free Vase by Arabella Bouquets	1	0	1	Expedited	Leigh Latt	15405 DES MOINES MEMORIAL DR S	APT D-302		BURIEN	WA	98148-2531	US		Leigh, Know that we are thinking of you. We’re here if you need us. Please take care of yourself From Love, Pauly, Necee and Braeden	false		
114-5027698-3864214	47949207135682	2021-01-08T18:16:19+00:00	2021-01-08T10:16:19-08:00	2021-01-08T18:46:20+00:00	2021-01-13T07:59:59+00:00	-4	0fzbn65263dzzn7@marketplace.amazon.com	Eugene Henry	+1 619-854-2705 ext. 65647	ABM022	Delivery by Monday, January 11 Purple Extravagance Bouquet by Arabella Bouquets	1	0	1	Expedited	Cynthia Freeman	450 PECK ST			KYLE	TX	78640-4257	US			false		
113-2437482-3271442	17771116253962	2021-01-08T18:22:46+00:00	2021-01-08T10:22:46-08:00	2021-01-08T18:50:04+00:00	2021-01-13T07:59:59+00:00	-4	lcvpkd8fdpxyf42@marketplace.amazon.com	Bill Flere	+1 602-671-6610 ext. 47498	ABM020	Delivery by Monday, January 11 Sunset Bouquet by Arabella Bouquets	1	0	1	Expedited	Lisa Cooke	152 BRADLEY FOSTER DR			HUNTINGTON	WV	25701-9449	US		Time for some flowers, my love! Always thinking of you! From Bill Flere	false		
114-0737167-4171408	65518366541354	2021-01-08T18:27:00+00:00	2021-01-08T10:27:00-08:00	2021-01-08T18:53:19+00:00	2021-01-13T07:59:59+00:00	-4	g6cvpb2jnjb6rvb@marketplace.amazon.com	Karen Owens	+1 213-442-1463 ext. 31844	ABR0055	Delivery by Monday, January 11 Dozen Hot Pink Roses in a Free Vase by Arabella Bouquets	1	0	1	Expedited	Karen Owens	101 CREEK HOUSE			KEY LARGO	FL	33037-5251	US		Mom, Hope you are feeling better!  Love you, Karen & Wayne. XXOO From Karen Owens	false		
112-7549910-5283450	60784826115146	2021-01-08T18:24:13+00:00	2021-01-08T10:24:13-08:00	2021-01-08T18:53:27+00:00	2021-01-12T07:59:59+00:00	-3	sjbr9z64ktyjjdq@marketplace.amazon.com	Crystal	+1 763-225-9463 ext. 73006	ABR004	Delivery by Tuesday, January 12 Dozen Yellow Roses in a Free Vase by Arabella Bouquets	1	0	1	SecondDay	Edith Zuni	15 TRIBAL ROAD 20			BOSQUE FARMS	NM	87068-8136	US			false		
113-4696945-7471410	60557903810234	2021-01-08T18:28:55+00:00	2021-01-08T10:28:55-08:00	2021-01-08T18:58:28+00:00	2021-01-13T07:59:59+00:00	-4	nx5nv8q2w8yd5zg@marketplace.amazon.com	thomas mason	+1 415-419-8616 ext. 31322	ABR0022	Delivery by Tuesday, January 12 Dozen Pink Roses with a Free Vase by Arabella Bouquets	1	0	1	Expedited	thomas mason	2016 ROB RD			HAMPTONVILLE	NC	27020-8156	US		Enjoy your gift!JUST BECAUSE I LOVE YOU 💘 ❤ From thomas mason	false		
114-7078645-7750624	51993356080866	2021-01-08T18:43:01+00:00	2021-01-08T10:43:01-08:00	2021-01-08T19:05:56+00:00	2021-01-13T07:59:59+00:00	-4	vmk4dx77v40f2sj@marketplace.amazon.com	Bibb Strench	+1 602-671-6610 ext. 20940	ABR0022	Delivery by Tuesday, January 12 Dozen Pink Roses with a Free Vase by Arabella Bouquets	1	0	1	Expedited	Chevra and Tammi	3022 SUNRISE BLVD			FORT PIERCE	FL	34982-6113	US		Chevra and Tammi:  Thanks for a great dinner and wonderful stories.  Luv, Dez From Dez	false		
111-3196064-1935405	20253676655634	2021-01-08T18:41:36+00:00	2021-01-08T10:41:36-08:00	2021-01-08T19:10:03+00:00	2021-01-13T07:59:59+00:00	-4	r5dmfr75f2fh807@marketplace.amazon.com	Richard Lohrey	+1 602-671-6610 ext. 74544	ABM020	Delivery by Tuesday, January 12 Sunset Bouquet by Arabella Bouquets	1	0	1	Expedited	Lisa Grassadonia	9481 TRAILBLAZER WAY			GILROY	CA	95020-8106	US		Hey Lee, we wish you a very happy birthday and count you among our many blessings! Also, these flowers are not edible so if you need more fiber in your diet, try something else. From Kate and Richard	false		
111-3839339-2313837	16653318481354	2021-01-08T18:44:02+00:00	2021-01-08T10:44:02-08:00	2021-01-08T19:13:28+00:00	2021-01-13T07:59:59+00:00	-4	h4skczgy2b2y55s@marketplace.amazon.com	Miles Morrow	+1 213-442-1463 ext. 18590	ABR0066	Delivery by Tuesday, January 12 Dozen White Roses in a Free Vase by Arabella Bouquets	1	0	1	Expedited	John and Juliette Morrow	10937 E 26TH AVE			DENVER	CO	80238-3236	US		We hope you are feeling much better every single day!! With Love, Miles, Tricia, and Christian From Miles Morrow	false		
114-7306013-3749065	32807373552378	2021-01-08T18:45:18+00:00	2021-01-08T10:45:18-08:00	2021-01-08T19:14:00+00:00	2021-01-13T07:59:59+00:00	-4	smq04yhx6mw61tv@marketplace.amazon.com	Richard S Thomas	+1 415-851-9136 ext. 36563	ABR0055	Delivery by Tuesday, January 12 Dozen Hot Pink Roses in a Free Vase by Arabella Bouquets	1	0	1	Expedited	Ann Thomas	1116 Jacque Cir			Birmingham	AL	35235-2309	US		Happy Birthday!  Love Scott, Meleigha & Daniel From Richard S Thomas	false		
113-3799399-2640209	61338321327938	2021-01-08T18:45:45+00:00	2021-01-08T10:45:45-08:00	2021-01-08T19:14:00+00:00	2021-01-13T07:59:59+00:00	-4	3xflzjht4k59l2c@marketplace.amazon.com	Elizabeth Brodie	+1 213-442-1463 ext. 67647	ABR0022	Delivery by Tuesday, January 12 Dozen Pink Roses with a Free Vase by Arabella Bouquets	1	0	1	Expedited	Betty Bracy	2306 RINGOLD DR E			MOBILE	AL	36693-3674	US		Happy Birthday!  Here's to a great 2021 and many more birthdays to come!  Love you!                    Damian and Tae Hee From Elizabeth Brodie	false		
114-1161563-2922658	25621876034122	2021-01-08T18:49:53+00:00	2021-01-08T10:49:53-08:00	2021-01-08T19:14:27+00:00	2021-01-13T07:59:59+00:00	-4	d7c4p5z6jld9tc6@marketplace.amazon.com	William Hankins	+1 619-854-2705 ext. 81302	ABR0066	Delivery by Tuesday, January 12 Dozen White Roses in a Free Vase by Arabella Bouquets	1	0	1	Expedited	Liz Hankins	78 DASHER AVE			BEAR	DE	19701-1174	US		Dear Aunt Liz,  So sorry to hear about Uncle Steve.  You and Kathy and John will be in our thoughts and prayers. From Max and Debbie	false		
111-2515399-5966624	45896416156666	2021-01-08T19:07:25+00:00	2021-01-08T11:07:25-08:00	2021-01-08T19:21:11+00:00	2021-01-13T07:59:59+00:00	-4	ld0drls2xfxp8cb@marketplace.amazon.com	Kari Charette	+1 763-225-9463 ext. 19184	ABR0022	Delivery by Tuesday, January 12 Dozen Pink Roses with a Free Vase by Arabella Bouquets	1	0	1	Expedited	Helen Sisco	1257 COUNTY ROUTE 60			ONCHIOTA	NY	12989-1811	US		Sending you positive vibes and virtual hugs!  Wishing you a speedy recovery!   Hope you're feeling better soon! From Kari, Penny, & Tracey	false		
111-0969748-4059458	23410142612114	2021-01-08T18:58:16+00:00	2021-01-08T10:58:16-08:00	2021-01-08T19:24:19+00:00	2021-01-13T07:59:59+00:00	-4	mgs3yg26916tdv5@marketplace.amazon.com	Mark	+1 602-671-6610 ext. 77451	ABM022	Delivery by Tuesday, January 12 Purple Extravagance Bouquet by Arabella Bouquets	1	0	1	Expedited	Mark Libertin and family	6229 N APPLECROSS RD			CLEVELAND	OH	44143-3726	US		We are so sorry for the loss of grandpa Nick. May the lord grant you all comfort and peace during this difficult time. He will be greatly missed! From The Goergy Family	false		
111-7411858-7321017	47848537002450	2021-01-08T18:55:14+00:00	2021-01-08T10:55:14-08:00	2021-01-08T19:25:26+00:00	2021-01-13T07:59:59+00:00	-4	jd89xlz8t8lyf1n@marketplace.amazon.com	Kymberley M. Featherstone	+1 602-671-6610 ext. 38516	ABR0066	Delivery by Tuesday, January 12 Dozen White Roses in a Free Vase by Arabella Bouquets	1	0	1	Expedited	Blake and Ambre Powell	5300 W POINT AVE APT A			COLUMBUS AFB	MS	39705-7535	US			false		
112-2748536-5556218	55939433003970	2021-01-08T18:58:33+00:00	2021-01-08T10:58:33-08:00	2021-01-08T19:26:16+00:00	2021-01-13T07:59:59+00:00	-4	7q0mzhd2rh1stsq@marketplace.amazon.com	Rod Tarter	+1 602-671-6610 ext. 13329	ABR0022	Delivery by Tuesday, January 12 Dozen Pink Roses with a Free Vase by Arabella Bouquets	1	0	1	Expedited	Julie & Kelton Sweeny	3019 LOUISE ST W			UNIVERSITY PLACE	WA	98466-4132	US		Happy Birthday Love Mom& Rod From Rod Tarter	false		
114-8693748-1410635	29320258488802	2021-01-08T18:59:11+00:00	2021-01-08T10:59:11-08:00	2021-01-08T19:28:41+00:00	2021-01-13T07:59:59+00:00	-4	yl5bdtmph5d0vd7@marketplace.amazon.com	kristin harriger	+1 415-851-9136 ext. 58382	ABM022	Delivery by Tuesday, January 12 Purple Extravagance Bouquet by Arabella Bouquets	1	0	1	Expedited	Dana Wetherington	17533 ROCKEY LN			MANSFIELD	AR	72944-3255	US			false		
114-7688131-8360201	47072799898530	2021-01-08T19:11:48+00:00	2021-01-08T11:11:48-08:00	2021-01-08T19:31:33+00:00	2021-01-13T07:59:59+00:00	-4	s7dpyblswbfqdgl@marketplace.amazon.com	Cheryl Stathakis	+1 346-307-9643 ext. 85286	ABM017	Delivery by Tuesday, January 12, Blue Dendrobium Orchids 10 Stems in a Free Designer Glass Vase by Arabella Bouquets	1	0	1	Expedited	Emily Borchardt	6318 HEDGE LANE TER APT 201			SHAWNEE	KS	66226-4839	US		Emily: We hope these purple orchid's bring a smile to your face during this difficult time. The purple color reminded us of Linda.  We will always treasure the memories we shared together. Love & Blessings, From M,C,M,M,M Stathakis	false		
112-0872437-0329063	36229065562842	2021-01-08T19:10:48+00:00	2021-01-08T11:10:48-08:00	2021-01-08T19:35:04+00:00	2021-01-13T07:59:59+00:00	-4	dl9k7j9khck5qdx@marketplace.amazon.com	emily scott	+1 213-442-1463 ext. 74580	ABR015	Delivery by Tuesday, January 12 FarmDirect 18 Orange Roses in a Free Vase by Arabella Bouquets	1	0	1	Standard	Sandi Cox	8332 FISHMAN RD			BURLINGTON	WI	53105-9246	US		Happy Birthday Sandi!  These are arriving early so you can enjoy them on your birthday. Have a wonderful Birthday! Love you, Emily From Emily Scott	false		
112-3441278-3631464	29174447972354	2021-01-08T19:09:12+00:00	2021-01-08T11:09:12-08:00	2021-01-08T19:35:41+00:00	2021-01-13T07:59:59+00:00	-4	wqxrjzgh48qt0cb@marketplace.amazon.com	flynn	+1 415-419-8616 ext. 47860	ABR0022	Delivery by Tuesday, January 12 Dozen Pink Roses with a Free Vase by Arabella Bouquets	1	0	1	Expedited	Alexa Gati	7325 OGELSBY AVE			LOS ANGELES	CA	90045-1356	US		Bunny, Happy Sweet 16! I am so proud of your 4.5 GPA and so jelli of your DD's! Heehee. Hope you had a great B-day. I love you so much, From Flynn xo	false		
113-3961347-2761052	48221375215562	2021-01-08T19:13:51+00:00	2021-01-08T11:13:51-08:00	2021-01-08T19:40:45+00:00	2021-01-13T07:59:59+00:00	-4	zrzlbprdsmvjvk7@marketplace.amazon.com	Martine Foody	+1 602-671-6610 ext. 52893	ABR0022	Delivery by Tuesday, January 12 Dozen Pink Roses with a Free Vase by Arabella Bouquets	1	0	1	Expedited	Deirdre Munnelly	1748 OLD TRAIL DR			CROZET	VA	22932-3362	US		Happy Birthday Deirdre! miss you and John, Marc, Thomas, Hannah & Connor. xxx  have a great day & stay safe,  Love from Martine  xoxoxox From Martine Foody	false		
114-1330487-7998607	15098744809930	2021-01-08T19:19:48+00:00	2021-01-08T11:19:48-08:00	2021-01-08T19:44:52+00:00	2021-01-13T07:59:59+00:00	-4	6t4s56vwtryc4yq@marketplace.amazon.com	Troy Rahner	+1 213-442-1463 ext. 18328	ABM022	Delivery by Tuesday, January 12 Purple Extravagance Bouquet by Arabella Bouquets	1	0	1	Expedited	John Foland	2720 GLEN FOREST LN			PLANO	TX	75023-7906	US		Enjoy your gift! HAPPY BIRTHDAY TO MY BEAUTIFUL AND WONDERFUL MOM!  WE LOVE YOU SO VERY MUCH! From MARK AND LESLIE RAHNER	false		
114-9077800-4395415	58433817235906	2021-01-08T19:23:06+00:00	2021-01-08T11:23:06-08:00	2021-01-08T19:47:13+00:00	2021-01-13T07:59:59+00:00	-4	s7dpyblswbfqdgl@marketplace.amazon.com	Cheryl Stathakis	+1 415-419-8616 ext. 35009	ABM020	Delivery by Tuesday, January 12 Sunset Bouquet by Arabella Bouquets	1	0	1	Expedited	Kerry & Alison Borchardt	6604 HEDGE LANE TER APT 203			SHAWNEE	KS	66226-4890	US		Kerry & Alison: We hope these flowers bring a smile to your face during this time of grieving. Thank you for all you did to assist in clearing out Linda's place and more.        You are a blessing.   Love & Prayers, From M,C,M,M,M Stathakis	false		
114-9735319-3251434	67983416680866	2021-01-08T19:07:36+00:00	2021-01-08T11:07:36-08:00	2021-01-08T19:49:08+00:00	2021-01-13T07:59:59+00:00	-4	mmqnhv6861yy219@marketplace.amazon.com	Selma Olsen	+1 763-225-9463 ext. 71777	ABR0066	Delivery by Tuesday, January 12 Dozen White Roses in a Free Vase by Arabella Bouquets	1	0	1	Expedited	Crystal Schultz	2942 TETON LN			FAIRFIELD	CA	94533-6534	US		Happy Birthday Crystal!  Love you Mom From Selma Olsen	false		
113-6969048-6614653	48927286618154	2021-01-08T19:27:24+00:00	2021-01-08T11:27:24-08:00	2021-01-08T19:52:05+00:00	2021-01-12T07:59:59+00:00	-3	42gmjpps1jq9m68@marketplace.amazon.com	Ramsey Malieswski	+1 213-442-1463 ext. 51465	ABR0022	Delivery by Tuesday, January 12 Dozen Pink Roses with a Free Vase by Arabella Bouquets	1	0	1	SecondDay	Soumaya Mashni	12103 SHADOWHOLLOW DR			HOUSTON	TX	77082-8308	US		Happy Birthday Tata! Wishing you great things. Lots of Love from us to you. From Rima, Mike, Ramsey, Madelyn and Ryan	false		
114-8066397-0142638	22491018339114	2021-01-08T19:32:40+00:00	2021-01-08T11:32:40-08:00	2021-01-08T19:56:39+00:00	2021-01-13T07:59:59+00:00	-4	s7dpyblswbfqdgl@marketplace.amazon.com	Cheryl Stathakis	+1 602-671-6610 ext. 81636	ABM017	Delivery by Tuesday, January 12, Blue Dendrobium Orchids 10 Stems in a Free Designer Glass Vase by Arabella Bouquets	1	0	1	Expedited	Rachel Borchardt	8441 RENNER BLVD APT 5303			LENEXA	KS	66219-8522	US		Rachel: We hope these flowers bring a smile to your face. They reminded us of Linda because they are purple.  We will always treasure the memories we shared with her and your family.  Love & Blessings, From M,C,M,M,M Stathakis	false		
113-6266502-1381010	64578168358458	2021-01-08T19:41:40+00:00	2021-01-08T11:41:40-08:00	2021-01-08T20:02:16+00:00	2021-01-13T07:59:59+00:00	-4	b1xr8qyf7d1m03x@marketplace.amazon.com	Tracy Pleasants	+1 415-851-9136 ext. 35251	ABR0055	Delivery by Tuesday, January 12 Dozen Hot Pink Roses in a Free Vase by Arabella Bouquets	1	0	1	Expedited	Danika Lake	346 NE FIDDLEWOOD AVE			LEES SUMMIT	MO	64086-5837	US		We hope you feel better soon.  We love you!! From Daddy and Tracy	false		
114-2871716-2314608	37861859696410	2021-01-08T19:48:47+00:00	2021-01-08T11:48:47-08:00	2021-01-08T20:04:55+00:00	2021-01-13T07:59:59+00:00	-4	y8sd624zp2q06lm@marketplace.amazon.com	VIDA	+1 602-671-6610 ext. 87927	ABM022	Delivery by Tuesday, January 12 Purple Extravagance Bouquet by Arabella Bouquets	1	0	1	Expedited	Emily Hunteman	5706 WYNONA AVE			AUSTIN	TX	78756-1128	US		Emily,  we're so sorry for your loss. Our condolences are with you and your family. You're in our thoughts. Wishing you love. From VIDA Family	false		
114-0260932-5377842	16475734084730	2021-01-08T19:37:41+00:00	2021-01-08T11:37:41-08:00	2021-01-08T20:08:04+00:00	2021-01-13T07:59:59+00:00	-4	l54cc9yjbktrrw2@marketplace.amazon.com	Toby	+1 763-225-9463 ext. 96859	ABR0022	Delivery by Tuesday, January 12 Dozen Pink Roses with a Free Vase by Arabella Bouquets	1	0	1	Expedited	Izzy Cox	20 VILLAGE GATE RD			CANTON	MA	02021-2432	US			false		
112-7334166-6094620	49724751138954	2021-01-08T19:40:34+00:00	2021-01-08T11:40:34-08:00	2021-01-08T20:08:24+00:00	2021-01-13T07:59:59+00:00	-4	15d4llkqlw05csv@marketplace.amazon.com	Glenn Brodeur	+1 213-442-1463 ext. 77113	ABR0022	Delivery by Tuesday, January 12 Dozen Pink Roses with a Free Vase by Arabella Bouquets	1	0	1	Expedited	Diane Mier	5 AUTUMN ST APT 1			WORCESTER	MA	01603-3104	US		I appreciate your friendship and support over the past year. From Love, Pauline	false		
111-5427543-2933852	21393235684210	2021-01-08T19:41:16+00:00	2021-01-08T11:41:16-08:00	2021-01-08T20:10:44+00:00	2021-01-13T07:59:59+00:00	-4	t6jb4z6kly7s46s@marketplace.amazon.com	Clifford	+1 213-442-1463 ext. 55035	ABM022	Delivery by Tuesday, January 12 Purple Extravagance Bouquet by Arabella Bouquets	1	0	1	Expedited	Ashley Breslin	245 STORMER RD			EBENSBURG	PA	15931-4404	US			false		
111-5427543-2933852	55869988464874	2021-01-08T19:41:16+00:00	2021-01-08T11:41:16-08:00	2021-01-08T20:10:44+00:00	2021-01-13T07:59:59+00:00	-4	t6jb4z6kly7s46s@marketplace.amazon.com	Clifford	+1 213-442-1463 ext. 55035	ABM020	Delivery by Tuesday, January 12 Sunset Bouquet by Arabella Bouquets	1	0	1	Expedited	Ashley Breslin	245 STORMER RD			EBENSBURG	PA	15931-4404	US			false		
113-3648346-8629033	20640798172410	2021-01-08T19:43:43+00:00	2021-01-08T11:43:43-08:00	2021-01-08T20:11:57+00:00	2021-01-13T07:59:59+00:00	-4	td8dv9029502f5g@marketplace.amazon.com	Brian Hathhorn	+1 415-851-9136 ext. 97621	ABM010	Delivery by Tuesday, January 12 Everlasting Fling with a Free Glass Vase by Arabella Bouquets	1	0	1	Expedited	Grace Hathhorn	5404 NE NORTHGATE XING			LEES SUMMIT	MO	64064-1227	US		Grace, we’re thinking of you. Love Brian, Betty, Emily, Ben and Henry From Hathhorns	false		
112-9348083-4500214	64207993496114	2021-01-08T19:47:09+00:00	2021-01-08T11:47:09-08:00	2021-01-08T20:13:16+00:00	2021-01-13T07:59:59+00:00	-4	15d4llkqlw05csv@marketplace.amazon.com	Glenn Brodeur	+1 213-442-1463 ext. 68199	ABR0022	Delivery by Tuesday, January 12 Dozen Pink Roses with a Free Vase by Arabella Bouquets	1	0	1	Expedited	Elizabeth Hanlon	38 QUAIL RUN			HOLDEN	MA	01520-3705	US		I hope 2021 is a great year for you! From Love Paul & Pauline	false		
114-8373565-7288251	05108363478986	2021-01-08T19:43:06+00:00	2021-01-08T11:43:06-08:00	2021-01-08T20:13:19+00:00	2021-01-13T07:59:59+00:00	-4	5gtfwtqgzh84n6s@marketplace.amazon.com	Joseph Garcia	+1 763-225-9463 ext. 51298	ABR0022	Delivery by Tuesday, January 12 Dozen Pink Roses with a Free Vase by Arabella Bouquets	1	0	1	Expedited	Joseph Garcia	2319 ELM FALLS PL			MESQUITE	TX	75181-2146	US			false		
114-8799278-0445869	65346360309770	2021-01-08T19:51:50+00:00	2021-01-08T11:51:50-08:00	2021-01-08T20:18:25+00:00	2021-01-12T07:59:59+00:00	-3	shd71zl49sn7zfm@marketplace.amazon.com	Elaine Mitrano	+1 346-307-9643 ext. 67881	ABR0055	Delivery by Tuesday, January 12 Dozen Hot Pink Roses in a Free Vase by Arabella Bouquets	1	0	1	SecondDay	Jeanine Mitrano	102 FREMONT ST			ARLINGTON	MA	02474-3825	US		Happy 40th Birthday Jeanine!  Sending hugs and kisses!  Enjoy your day!  We’ll celebrate when we return! Love, Mom&Dad xoxo From Elaine &Biagio Mitrano	false		
112-8933373-4608230	56691761117810	2021-01-08T19:58:20+00:00	2021-01-08T11:58:20-08:00	2021-01-08T20:25:11+00:00	2021-01-13T07:59:59+00:00	-4	k3tc6s1lxz79kgj@marketplace.amazon.com	Katie Harlin	+1 763-225-9463 ext. 21984	ABR0033	Delivery by Tuesday, January 12 Dozen Orange Roses in a Free Vase by Arabella Bouquets	1	0	1	Expedited	Caroline Minor	861 FORREST DR			HOMEWOOD	AL	35209-5211	US		Caroline,   Praying for you and your family during this time. Losing a loved one is never easy, but I hope you find comfort in all the years you shared together.  Love you, Katie From Katie Harlin	false		
112-4451796-9142631	06897556030194	2021-01-08T19:55:44+00:00	2021-01-08T11:55:44-08:00	2021-01-08T20:25:15+00:00	2021-01-13T07:59:59+00:00	-4	cc0rg13971nss8f@marketplace.amazon.com	Emily Wilhelm	+1 602-671-6610 ext. 11577	ABM0044	Delivery by Tuesday, January 12 Blue Hydrangea 5 Stems with a Free Glass Vase by Arabella Bouquets	1	0	1	Expedited	Emily D. Wilhelm	--- 16904 HALBROOKE CIR			EDMOND	OK	73012-6864	US		Thank you for being patient with me during my classes!  I love you! From Adam Wilhelm	false		
114-5410879-7012237	56349896219442	2021-01-08T19:57:48+00:00	2021-01-08T11:57:48-08:00	2021-01-08T20:25:16+00:00	2021-01-13T07:59:59+00:00	-4	q3m11t9py7cz9cg@marketplace.amazon.com	Nicole Santangeli	+1 602-671-6610 ext. 27616	ABR0066	Delivery by Tuesday, January 12 Dozen White Roses in a Free Vase by Arabella Bouquets	1	0	1	Expedited	Marilyn Corsi	360 SWITCHGRASS LOOP			LITTLE RIVER	SC	29566-8180	US		Dear Dad and Marilyn, Wishing you comfort and peace in your time of need. Bella was the sweetest dog, always a ray of light.   Love, Nicole, Rob, Lidia and Claudia From Nicole Santangeli	false		
111-5224713-0377033	23687389079506	2021-01-08T20:01:08+00:00	2021-01-08T12:01:08-08:00	2021-01-08T20:29:04+00:00	2021-01-13T07:59:59+00:00	-4	f0f6vvbx4ryjnr7@marketplace.amazon.com	Kevin Cheney	+1 763-225-9463 ext. 61697	ABM002	Delivery by Tuesday, January 12 White Calla Lilies in a Free Designer Glass Vase by Arabella Bouquets	1	0	1	Expedited	John Hoftyzer	158 INVERNESS DR W APT C109			ENGLEWOOD	CO	80112-5019	US		Dear John,  We were so sorry to hear of your loss. Please know we are thinking of you during this extremely difficult time. From CGH Team	false		
112-9075064-4111422	19437559143034	2021-01-08T20:04:10+00:00	2021-01-08T12:04:10-08:00	2021-01-08T20:30:35+00:00	2021-01-13T07:59:59+00:00	-4	qzmj4p49lp1yfd6@marketplace.amazon.com	April	+1 213-442-1463 ext. 83981	ABR0022	Delivery by Tuesday, January 12 Dozen Pink Roses with a Free Vase by Arabella Bouquets	1	0	1	Expedited	Sadie Alligood	4437 WHITE FISH DR			RENO	NV	89511-6090	US		To show you that I love you and that I will do my best to be the best that I can be for you. From Gage	false		
114-2647564-4202658	67590053935522	2021-01-08T20:18:45+00:00	2021-01-08T12:18:45-08:00	2021-01-08T20:37:53+00:00	2021-01-13T07:59:59+00:00	-4	5415kg830g56dmz@marketplace.amazon.com	Juanita Duran	+1 415-851-9136 ext. 84579	ABR001	Delivery by Tuesday, January 12 Dozen Red Roses in a Free Vase by Arabella Bouquets	1	0	1	Expedited	Leonela Mota	5208 PASATIEMPO DR			SALIDA	CA	95368-9612	US			false		
112-1895596-9261837	03712388275090	2021-01-08T20:09:50+00:00	2021-01-08T12:09:50-08:00	2021-01-08T20:39:55+00:00	2021-01-13T07:59:59+00:00	-4	83cmdz6nr66kzw5@marketplace.amazon.com	Bob Johnson	1-951-601-9150 x 295	ABR0022	Delivery by Tuesday, January 12 Dozen Pink Roses with a Free Vase by Arabella Bouquets	1	0	1	Expedited	Helen T. Mingin	14295 NASON ST			MORENO VALLEY	CA	92555-4725	US			false		
111-9849159-7756235	63041898527266	2021-01-08T20:20:56+00:00	2021-01-08T12:20:56-08:00	2021-01-08T20:47:46+00:00	2021-01-13T07:59:59+00:00	-4	2gcb3h3myqyf8qt@marketplace.amazon.com	Alec Velazquez	+1 213-442-1463 ext. 82242	ABR0022	Delivery by Tuesday, January 12 Dozen Pink Roses with a Free Vase by Arabella Bouquets	1	0	1	Expedited	Thalia LeBlanc	350 N SAINT PAUL ST APT 1602			DALLAS	TX	75201-4204	US		Our deepest condolences. May God help you through this difficult time and ease your pain. From Hollywood Production Center	false		
112-0928691-4987430	45214963985418	2021-01-08T20:25:15+00:00	2021-01-08T12:25:15-08:00	2021-01-08T20:50:15+00:00	2021-01-13T07:59:59+00:00	-4	4ffbykhhddwgykh@marketplace.amazon.com	Corey Johnson	+1 602-671-6610 ext. 54464	ABR0022	Delivery by Tuesday, January 12 Dozen Pink Roses with a Free Vase by Arabella Bouquets	1	0	1	Expedited	Nazrah	5887 OLD BILL COOK RD			COLLEGE PARK	GA	30349-3729	US		I hope these flowers bring a smile to your face like the one you gave us when you delivered Heka From Corey and Nubia	false		
112-3748281-8993849	04651264266386	2021-01-08T20:23:13+00:00	2021-01-08T12:23:13-08:00	2021-01-08T20:50:45+00:00	2021-01-13T07:59:59+00:00	-4	ddg8gv78c98d36s@marketplace.amazon.com	Charles R Heath	+1 415-851-9136 ext. 44255	ABR0022	Delivery by Tuesday, January 12 Dozen Pink Roses with a Free Vase by Arabella Bouquets	1	0	1	Expedited	Reg Austin	2010 GREENBRIAR BLVD APT 206			CLEARWATER	FL	33763-1457	US		Was great seeing you at Christmas From Chuck, Gail and Olivia	false		
111-0797050-1847446	34677440760002	2021-01-08T20:22:25+00:00	2021-01-08T12:22:25-08:00	2021-01-08T20:51:27+00:00	2021-01-13T07:59:59+00:00	-4	vgfbfkr48626pmy@marketplace.amazon.com	Tiffany Ritcey	+1 415-419-8616 ext. 68008	ABR0022	Delivery by Tuesday, January 12 Dozen Pink Roses with a Free Vase by Arabella Bouquets	1	0	1	Expedited	Jill Galli	8 LAKEVIEW CT			HUNTINGTON	NY	11743-3944	US		Dear Jill,  Wishing you a speedy recovery! Sending lots of love!  Love, Tiff From Tiffany Ritcey	false		
114-2373699-0202635	69659796869866	2021-01-08T20:28:32+00:00	2021-01-08T12:28:32-08:00	2021-01-08T20:54:17+00:00	2021-01-13T07:59:59+00:00	-4	lhl7lnx9cncs9n7@marketplace.amazon.com	joyce a bivens	+1 602-671-6610 ext. 58912	ABR0033	Delivery by Tuesday, January 12 Dozen Orange Roses in a Free Vase by Arabella Bouquets	1	0	1	Expedited	Marion Werner	2829 CHERRY ST			CANON CITY	CO	81212-7707	US		Dearest Marion Have a blessed Birthday. You are truly one of God's own. Love,Joyce & Gabriel Micheal. From joyce a bivens	false		
111-6725320-6827426	15552342775218	2021-01-08T20:27:20+00:00	2021-01-08T12:27:20-08:00	2021-01-08T20:56:36+00:00	2021-01-13T07:59:59+00:00	-4	z1wg48bm12ypzr1@marketplace.amazon.com	Helana Ross	+1 415-851-9136 ext. 66625	ABM020	Delivery by Tuesday, January 12 Sunset Bouquet by Arabella Bouquets	1	0	1	Expedited	Rose Shuck	8855 SHELBY 484			HUNNEWELL	MO	63443-3021	US		Grammy,  We love you and we are praying for you! From Helana, Donny, David & Lucas	false		
113-7935050-4252206	50813929343378	2021-01-08T20:29:47+00:00	2021-01-08T12:29:47-08:00	2021-01-08T20:58:54+00:00	2021-01-13T07:59:59+00:00	-4	3f0zgcjm8mmy00s@marketplace.amazon.com	Matthew Clark	+1 763-225-9463 ext. 71932	ABM028	Delivery by Tuesday, January 12 Brightened Day Bouquet by Arabella Bouquets	1	0	1	Expedited	Sue Gobetz	492 CENTERVILLE RD			EAST WALLINGFORD	VT	05742-9692	US		Just because we love you! From Kathy & Matt	false		
113-9719916-9920240	66988716523178	2021-01-08T20:35:09+00:00	2021-01-08T12:35:09-08:00	2021-01-08T21:02:04+00:00	2021-01-13T07:59:59+00:00	-4	bykcdjtwp4g55w3@marketplace.amazon.com	Olivia Mitchell	+1 602-671-6610 ext. 30011	ABM010	Delivery by Tuesday, January 12 Everlasting Fling with a Free Glass Vase by Arabella Bouquets	1	0	1	Standard	Auntie Jill Henton	6755 S BELLAIRE WAY			CENTENNIAL	CO	80122-2122	US		Hope you have  FABULOUS Birthday Auntie!! ❤️❤️❤️❤️❤️❤️❤️❤️❤️❤️ I love you ohhhh so much!! From Livy	false		
114-5235511-7057000	43276753596106	2021-01-08T20:42:51+00:00	2021-01-08T12:42:51-08:00	2021-01-08T21:07:16+00:00	2021-01-13T07:59:59+00:00	-4	sp02jx0d7f6655f@marketplace.amazon.com	shawn Kadivar	+1 346-307-9643 ext. 25525	ABR0022	Delivery by Tuesday, January 12 Dozen Pink Roses with a Free Vase by Arabella Bouquets	1	0	1	Expedited	Behgol and Bahram Dabiri	260 1ST ST APT D13			MINEOLA	NY	11501-2373	US			false		
114-8251819-9443463	58506933256666	2021-01-08T20:45:51+00:00	2021-01-08T12:45:51-08:00	2021-01-08T21:08:31+00:00	2021-01-13T07:59:59+00:00	-4	l6pvtryy8sv7snq@marketplace.amazon.com	Pamela D. Olesen	+1 619-854-2705 ext. 90502	ABR0066	Delivery by Tuesday, January 12 Dozen White Roses in a Free Vase by Arabella Bouquets	1	0	1	Standard	Lisa Coppege	72 IRA BLAND APT 9 BUILDING B			SULLIVAN	MO	63080-2375	US		Happy Birthday Daisy!! Much love,  David ( & his sister Pam) From Pam & David	false		
114-5533682-6745839	26459112228906	2021-01-08T20:43:14+00:00	2021-01-08T12:43:14-08:00	2021-01-08T21:10:20+00:00	2021-01-13T07:59:59+00:00	-4	2jf0fqtdk20yb5z@marketplace.amazon.com	jenyfer sherman	+1 602-671-6610 ext. 97272	ABR004	Delivery by Tuesday, January 12 Dozen Yellow Roses in a Free Vase by Arabella Bouquets	1	0	1	Expedited	Carolyn Saylor @ Holly Springs High School	5329 CASS HOLT RD			HOLLY SPRINGS	NC	27540-9720	US			false		
111-1017615-0221046	33435175919874	2021-01-08T20:42:55+00:00	2021-01-08T12:42:55-08:00	2021-01-08T21:13:24+00:00	2021-01-13T07:59:59+00:00	-4	83d6sygql3vvm25@marketplace.amazon.com	Jamie	+1 415-851-9136 ext. 66350	ABSR005	Delivery by Tuesday, January 12 Orange Spray Roses in a Free Glass Vase by Arabella Bouquets	1	0	1	Expedited	Leyla Alizada	5911 FAIRDALE LN			HOUSTON	TX	77057-6306	US			false		
113-3410259-7775427	47315076003250	2021-01-08T20:48:19+00:00	2021-01-08T12:48:19-08:00	2021-01-08T21:13:36+00:00	2021-01-13T07:59:59+00:00	-4	dcprmky15qxx5w2@marketplace.amazon.com	Elizabeth Trousdell	+1 415-851-9136 ext. 01219	ABR0033	Delivery by Tuesday, January 12 Dozen Orange Roses in a Free Vase by Arabella Bouquets	1	0	1	Expedited	Vivian and Bruce Trousdell	41 SOUNDVIEW RD			HUNTINGTON	NY	11743-4106	US		Dear Vivian and Bruce!  A heartfelt congratulations on your Anniversary!  I look forward to seeing you soon!  Love, Bets From Elizabeth Trousdell	false		
113-4050559-2801050	57827938399730	2021-01-08T20:54:09+00:00	2021-01-08T12:54:09-08:00	2021-01-08T21:23:44+00:00	2021-01-13T07:59:59+00:00	-4	sbkmsh0dcvbjgg8@marketplace.amazon.com	margaret richter	+1 619-854-2705 ext. 86570	ABR0022	Delivery by Tuesday, January 12 Dozen Pink Roses with a Free Vase by Arabella Bouquets	1	0	1	Expedited	Harriet Zimmerman	12917 PORTULACA DR APT 326			SAINT LOUIS	MO	63146-4377	US		Enjoy your gift! From Love, Peg	false		
112-0598744-7373027	68801218447026	2021-01-08T21:01:19+00:00	2021-01-08T13:01:19-08:00	2021-01-08T21:24:36+00:00	2021-01-13T07:59:59+00:00	-4	r68nc8zqpwpyxvz@marketplace.amazon.com	Peter shimondle	+1 763-225-9463 ext. 59224	ABR0066	Delivery by Tuesday, January 12 Dozen White Roses in a Free Vase by Arabella Bouquets	1	0	1	Expedited	Mary Ann Grinstead	4044 HAINES AVE			SAN JOSE	CA	95136-1823	US		Dear Mary Ann, Keep healing and getting better and better! We wish we good be there! Love You Always, From Ariel and Peter	false		
112-5353869-7016254	31793435632426	2021-01-08T21:27:33+00:00	2021-01-08T13:27:33-08:00	2021-01-08T21:50:11+00:00	2021-01-13T07:59:59+00:00	-4	xmhctyd31gnw6vx@marketplace.amazon.com	Lily Seredian	+1 602-671-6610 ext. 39191	ABR0022	Delivery by Tuesday, January 12 Dozen Pink Roses with a Free Vase by Arabella Bouquets	1	0	1	Expedited	Lisa Kahn	4200 ALONZO AVE			ENCINO	CA	91316-4304	US		Enjoy your gift! Lisa get well soon my dear.   Love you, Lily From Lily Seredian	false		
111-4177029-1897053	30635518702378	2021-01-08T21:29:28+00:00	2021-01-08T13:29:28-08:00	2021-01-08T21:51:26+00:00	2021-01-13T07:59:59+00:00	-4	4r22wx2md6cxwyl@marketplace.amazon.com	Joan McKnight	+1 619-854-2705 ext. 56319	ABR0022	Delivery by Tuesday, January 12 Dozen Pink Roses with a Free Vase by Arabella Bouquets	1	0	1	Expedited	Donna Nehasil	19634 ASHLEY CT			LIVONIA	MI	48152-4025	US		Hi Donna Happy birthday to my sweet Goddaughter.  Love,  Aunt Joanie	false		
113-9383987-9438629	46458235580594	2021-01-08T21:24:05+00:00	2021-01-08T13:24:05-08:00	2021-01-08T21:51:31+00:00	2021-01-13T07:59:59+00:00	-4	fzlhj49cnt115w3@marketplace.amazon.com	Anne M. Smart	+1 415-851-9136 ext. 94388	ABR0022	Delivery by Tuesday, January 12 Dozen Pink Roses with a Free Vase by Arabella Bouquets	1	0	1	Expedited	Mrs. Nancy J. Waddell	3534 W. 120th Street			Cleveland	Ohio	44111	US		Happy Birthday Mom!  You're getting more beautiful every year ~ keep going! From Love, Annie Brian & Carol	false		
112-5181141-8676229	35672831206314	2021-01-08T21:21:18+00:00	2021-01-08T13:21:18-08:00	2021-01-08T21:51:54+00:00	2021-01-13T07:59:59+00:00	-4	8jwmyzychnq7ylc@marketplace.amazon.com	pbrozenick	+1 763-225-9463 ext. 36650	ABR0022	Delivery by Tuesday, January 12 Dozen Pink Roses with a Free Vase by Arabella Bouquets	1	0	1	Expedited	Asal Pejman	1233 BARRY AVE APT 205			LOS ANGELES	CA	90025-6825	US			false		
112-2246073-5143418	42538834124594	2021-01-08T21:30:08+00:00	2021-01-08T13:30:08-08:00	2021-01-08T21:59:23+00:00	2021-01-13T07:59:59+00:00	-4	mt22z2dp9s5r2x4@marketplace.amazon.com	denise esposito	+1 415-851-9136 ext. 18084	ABR0033	Delivery by Tuesday, January 12 Dozen Orange Roses in a Free Vase by Arabella Bouquets	1	0	1	Expedited	CHERYL GUY	3295 MEADOWS RD			CUMBERLAND FURNACE	TN	37051-8902	US			false		
113-6131236-8119404	07174835783530	2021-01-08T21:31:16+00:00	2021-01-08T13:31:16-08:00	2021-01-08T22:01:46+00:00	2021-01-13T07:59:59+00:00	-4	rx92yyg1mmqgkd5@marketplace.amazon.com	Patricia Wood	+1 763-225-9463 ext. 70019	ABR0022	Delivery by Tuesday, January 12 Dozen Pink Roses with a Free Vase by Arabella Bouquets	1	0	1	Expedited	Patricia  Wood	7030 EVERGREEN WOODS TRAIL	APT A-423		SPRING HILL	FL	34608	US			false		
113-7752338-5975453	21342405806202	2021-01-08T21:38:42+00:00	2021-01-08T13:38:42-08:00	2021-01-08T22:08:24+00:00	2021-01-13T07:59:59+00:00	-4	w7rhr6cx7wrwkmk@marketplace.amazon.com	Edith Chiasson	+1 415-851-9136 ext. 21224	ABB003	Delivery by Tuesday, January 12 Blue Hydrangea 12 Stems by Arabella Bouquets	1	0	1	Expedited	Edith chiasson	72 BOWERS PLACE RD			LUMBERTON	MS	39455-7897	US			false		
113-7752338-5975453	23779611366282	2021-01-08T21:38:42+00:00	2021-01-08T13:38:42-08:00	2021-01-08T22:08:24+00:00	2021-01-13T07:59:59+00:00	-4	w7rhr6cx7wrwkmk@marketplace.amazon.com	Edith Chiasson	+1 415-851-9136 ext. 21224	ABB013	Delivery by Tuesday, January 12 FarmDirect 24 Fresh Cut White Roses in a Free Vase by Arabella Bouquets	1	0	1	Expedited	Edith chiasson	72 BOWERS PLACE RD			LUMBERTON	MS	39455-7897	US			false		
113-4807434-4837039	51419403196834	2021-01-08T21:44:54+00:00	2021-01-08T13:44:54-08:00	2021-01-08T22:13:33+00:00	2021-01-13T07:59:59+00:00	-4	nyxcy8gthlsdnzz@marketplace.amazon.com	Elaine DeRigo	+1 415-419-8616 ext. 67632	ABM022	Delivery by Tuesday, January 12 Purple Extravagance Bouquet by Arabella Bouquets	1	0	1	Expedited	Lucy Jones	245 BLACK HALL RD			EPSOM	NH	03234-4341	US		Dear Mom,  A little something to brighten your day.  We love and miss you! Love, Lainie and Tom From Elaine DeRigo	false		
114-3231148-2372266	51844280436570	2021-01-08T21:53:47+00:00	2021-01-08T13:53:47-08:00	2021-01-08T22:16:23+00:00	2021-01-13T07:59:59+00:00	-4	fz73v0fkrjv3nct@marketplace.amazon.com	Ricardo Emilio Hernández, BM #1-08842	+1 415-419-8616 ext. 30318	ABR001	Delivery by Tuesday, January 12 Dozen Red Roses in a Free Vase by Arabella Bouquets	1	0	1	Expedited	Johanny Lapaix	1406 OGDEN AVE AP 51			BRONX	NY	10452-2337	US		¡Mucha salud y felicidad para ti, desearía estar cerca para poder ayudar en algo, en lo que sea! Ojalá puedas disfrutar de tu cumpleaños a pesar de todo. Besos y abrazos! De Ricardo Emilio Hernández, BM #1-08842	false		
111-8345359-8901045	52901360004874	2021-01-08T22:17:40+00:00	2021-01-08T14:17:40-08:00	2021-01-08T22:18:39+00:00	2021-01-12T07:59:59+00:00	-3	kgc1683xycz955d@marketplace.amazon.com	Nicole Dutcher	+1 763-225-9463 ext. 38591	ABM025	Delivery by Tuesday, January 12 Fell for You Bouquet by Arabella Bouquets	1	0	1	SecondDay	Coreen Lemcke	245 DIABLO AVE			DAVIS	CA	95616-0431	US		Congratulations on beautiful baby Bruce! What a beautiful addition to your family. We are so happy for you guys! Sending our love to you! From Nicole, Jason, Paige and Charlie Dutcher	false		
111-8099273-5161002	09641099611842	2021-01-08T21:51:59+00:00	2021-01-08T13:51:59-08:00	2021-01-08T22:20:46+00:00	2021-01-13T07:59:59+00:00	-4	q5fs11vr6bqcm0j@marketplace.amazon.com	Jennifer Cosgrove	+1 346-307-9643 ext. 26989	ABR0033	Delivery by Tuesday, January 12 Dozen Orange Roses in a Free Vase by Arabella Bouquets	1	0	1	Expedited	Stephen Cosgrove	343 W OVERLOOK MOUNTAIN RD			BUDA	TX	78610-3019	US		Happy Birthday, Celia!  Sending a little bouquet of joy and cheer to brighten your day :-)  Hope it's a magnificent one! Love, Jen & John From Jennifer Cosgrove	false		
111-8082715-5889002	33460227851946	2021-01-08T21:54:13+00:00	2021-01-08T13:54:13-08:00	2021-01-08T22:21:35+00:00	2021-01-13T07:59:59+00:00	-4	xmlhsy4zp4w625m@marketplace.amazon.com	Pam Hollenhorst	+1 415-419-8616 ext. 42342	ABR0022	Delivery by Tuesday, January 12 Dozen Pink Roses with a Free Vase by Arabella Bouquets	1	0	1	Expedited	Mark and Maryellen Barton	1602 ADRIAN ST			PORT CHARLOTTE	FL	33952-4423	US		Dear Mark and MaryEllen, we are very sad to learn of Gert’s passing. She was a lovely lady and we enjoyed seeing at the holidays. The apple didn’t fall too far. Looking forward to a post-vax gathering in 2021. Love, John and Pam	false		
114-4092628-8500204	50154314314578	2021-01-08T22:14:17+00:00	2021-01-08T14:14:17-08:00	2021-01-08T22:42:05+00:00	2021-01-13T07:59:59+00:00	-4	rdf2ddpvyqhdgsr@marketplace.amazon.com	A M Mount	+1 602-671-6610 ext. 28827	ABM022	Delivery by Tuesday, January 12 Purple Extravagance Bouquet by Arabella Bouquets	1	0	1	Expedited	Jane Mount	39 KILLIAN WAY			RANCHO MIRAGE	CA	92270-1639	US		Happy Birthday Jane We are thinking of you Love Miles and Felicity	false		
113-6015168-8783466	58472053872626	2021-01-08T22:20:45+00:00	2021-01-08T14:20:45-08:00	2021-01-08T22:48:11+00:00	2021-01-13T07:59:59+00:00	-4	v7tbs3rg2mt31z9@marketplace.amazon.com	Jenna McCampbell	+1 415-419-8616 ext. 13253	ABR0022	Delivery by Tuesday, January 12 Dozen Pink Roses with a Free Vase by Arabella Bouquets	1	0	1	Expedited	Jamie Chism	4002 RIDGE TRL			ROBSTOWN	TX	78380-6020	US		Jamie, We are thinking of you as you navigate these difficult times. We love you so much! From Jenna and Shelby	false		
111-4399091-9570617	24912889219242	2021-01-08T22:25:23+00:00	2021-01-08T14:25:23-08:00	2021-01-08T22:49:59+00:00	2021-01-13T07:59:59+00:00	-4	2w1452m9ryxvhsj@marketplace.amazon.com	Felicia Lucas	+1 619-854-2705 ext. 12990	ABR0022	Delivery by Tuesday, January 12 Dozen Pink Roses with a Free Vase by Arabella Bouquets	1	0	1	Expedited	Jo-Anne Clemons	3888 IVY RD			GREENVILLE	NC	27858-8286	US		Congratulations on your Retirement!  We are so excited for you! We love you! From Kelvin, Felicia, Isaiah, Kelsey and Silas	false		
112-7020868-5184220	15739782042770	2021-01-08T22:24:07+00:00	2021-01-08T14:24:07-08:00	2021-01-08T22:52:40+00:00	2021-01-13T07:59:59+00:00	-4	fmqv2wmswx4yc48@marketplace.amazon.com	LINDA DELZIO ZOFFER	+1 602-671-6610 ext. 53188	ABR0022	Delivery by Tuesday, January 12 Dozen Pink Roses with a Free Vase by Arabella Bouquets	1	0	1	Expedited	Lynn Cambria	15003 GENESEE RD			APPLE VALLEY	CA	92307-5037	US		We love you! From Linda and David	false		
111-5043796-5139433	05885190743122	2021-01-08T22:27:41+00:00	2021-01-08T14:27:41-08:00	2021-01-08T22:53:47+00:00	2021-01-13T07:59:59+00:00	-4	lnpcjrvbypc64p2@marketplace.amazon.com	Randy Davison	+1 480-618-5344 ext. 64995	ABR0022	Delivery by Tuesday, January 12 Dozen Pink Roses with a Free Vase by Arabella Bouquets	1	0	1	Expedited	Sharlene Davison	1255 N BROADWAY APT 355			ESCONDIDO	CA	92026-2865	US			false		
112-9832371-7393845	06951484375666	2021-01-08T22:28:57+00:00	2021-01-08T14:28:57-08:00	2021-01-08T22:58:06+00:00	2021-01-13T07:59:59+00:00	-4	gvxktxvt7jcnqt0@marketplace.amazon.com	mary hecht	+1 213-442-1463 ext. 11085	ABR0022	Delivery by Tuesday, January 12 Dozen Pink Roses with a Free Vase by Arabella Bouquets	1	0	1	Expedited	Laura Hecht	823 YORK ST			SAN FRANCISCO	CA	94110-2842	US		Happy Birthday Laura Love, Mary From mary hecht	false		
113-3757284-7225811	51489695884026	2021-01-08T22:39:12+00:00	2021-01-08T14:39:12-08:00	2021-01-08T23:01:28+00:00	2021-01-13T07:59:59+00:00	-4	lbvw176kqd022b7@marketplace.amazon.com	Bobbi Stevens	+1 346-307-9643 ext. 63755	ABM020	Delivery by Tuesday, January 12 Sunset Bouquet by Arabella Bouquets	1	0	1	Expedited	Bobbi Stevens	4403 Robinwood Ave			Royal Oak	MI	48073	US		Hi, Feel better soon! From Bobbi & Bill Stevens	false		
111-7002426-3814656	36008798695802	2021-01-08T22:35:49+00:00	2021-01-08T14:35:49-08:00	2021-01-08T23:03:29+00:00	2021-01-13T07:59:59+00:00	-4	z33xc8434y2d67w@marketplace.amazon.com	Keila Crettaz	+1 213-442-1463 ext. 62550	ABM0044	Delivery by Tuesday, January 12 Blue Hydrangea 5 Stems with a Free Glass Vase by Arabella Bouquets	1	0	1	Expedited	Jasmine Taveras	3423 110TH ST			CORONA	NY	11368-1333	US		Happy Birthday Girlie!!!! May these flowers give you a big SMILE! Love you forever!!! From Keila Crettaz	false		
113-0349310-2083433	36437606501338	2021-01-08T22:45:19+00:00	2021-01-08T14:45:19-08:00	2021-01-08T23:05:20+00:00	2021-01-13T07:59:59+00:00	-4	sy3rrl6x0qcpxhk@marketplace.amazon.com	Patricia W. Campbell	+1 415-419-8616 ext. 83340	ABR0033	Delivery by Tuesday, January 12 Dozen Orange Roses in a Free Vase by Arabella Bouquets	1	0	1	Expedited	Maureen Brown	107 HAWLEY AVE			PORT CHESTER	NY	10573-2207	US			false		
111-3682869-9397843	53552964472106	2021-01-08T22:39:24+00:00	2021-01-08T14:39:24-08:00	2021-01-08T23:06:43+00:00	2021-01-13T07:59:59+00:00	-4	jzmqrh868ftlzfr@marketplace.amazon.com	Dewayne Meese	+1 415-419-8616 ext. 70114	ABR0033	Delivery by Tuesday, January 12 Dozen Orange Roses in a Free Vase by Arabella Bouquets	1	0	1	Expedited	Nicole Condon	10727 DEEPBROOK DR			RIVERVIEW	FL	33569-8725	US			false		
112-0085879-0622625	64142199993506	2021-01-08T23:08:00+00:00	2021-01-08T15:08:00-08:00	2021-01-08T23:11:53+00:00	2021-01-13T07:59:59+00:00	-4	6ywfy66hhgm8cgl@marketplace.amazon.com	Leslie Anway	+1 213-442-1463 ext. 74069	ABM022	Delivery by Tuesday, January 12 Purple Extravagance Bouquet by Arabella Bouquets	1	0	1	Expedited	Sharon Stratton	1038 ASPEN ST			LONGMONT	CO	80501-4309	US		Just sending you a little cheer, love, and our best healing thoughts and prayers. Hope you're feeling better very soon. Love you lots, Leslie, Randy, and the whole Anway family (including little Eléa!).	false		
112-0292926-9282605	56587490606962	2021-01-08T22:50:24+00:00	2021-01-08T14:50:24-08:00	2021-01-08T23:13:34+00:00	2021-01-13T07:59:59+00:00	-4	nqqx4z942vr6b1v@marketplace.amazon.com	amelia s. Gewirtz	+1 415-851-9136 ext. 30037	ABM017	Delivery by Tuesday, January 12, Blue Dendrobium Orchids 10 Stems in a Free Designer Glass Vase by Arabella Bouquets	1	0	1	Standard	Arlyne Diamond	1123 LOOKING GLASS BLVD			MONTGOMERY	TX	77356-6001	US		Dear Aunt Arlyne! Enjoy some happy blue on your birthday week! Congratulations on your new home enjoy your special day! xoxoxo sending lots of love Amelia Harold & Adam From Amelia Harold & Adam	false		
114-5356625-8224236	64070175157834	2021-01-08T22:51:50+00:00	2021-01-08T14:51:50-08:00	2021-01-08T23:19:50+00:00	2021-01-13T07:59:59+00:00	-4	s8l92x3rjn378mb@marketplace.amazon.com	Marty Jo Koch	+1 415-419-8616 ext. 44745	ABM020	Delivery by Tuesday, January 12 Sunset Bouquet by Arabella Bouquets	1	0	1	Expedited	Fouzia Syed	107 MATLOCK MEADOW DR			ARLINGTON	TX	76002-3347	US		Fouzia, Your whole family is in our thoughts and prayers. We love you friend. From Lashana, MJ, and Tonya	false		
112-0722276-0433815	41909625709250	2021-01-08T22:51:25+00:00	2021-01-08T14:51:25-08:00	2021-01-08T23:19:57+00:00	2021-01-13T07:59:59+00:00	-4	nbz594tfry64nwc@marketplace.amazon.com	Drew Matthews	+1 602-671-6610 ext. 90713	ABM020	Delivery by Tuesday, January 12 Sunset Bouquet by Arabella Bouquets	1	0	1	Expedited	Shelby Elizabeth Moore	3670 ARMITAGE ST			SAN DIEGO	CA	92117-1014	US		I hope this got there on time. If not, Happy Birthday Shelby! Love, Drew From Drew Matthews	false		
113-3726268-6939408	33943490541162	2021-01-08T23:05:53+00:00	2021-01-08T15:05:53-08:00	2021-01-08T23:35:12+00:00	2021-01-13T07:59:59+00:00	-4	gv3t9yz9rk0qc7z@marketplace.amazon.com	Carol Reinhardt	+1 213-442-1463 ext. 36916	ABR0033	Delivery by Tuesday, January 12 Dozen Orange Roses in a Free Vase by Arabella Bouquets	1	0	1	Expedited	Carol Reinhardt	1720 ASKAM LN			LOS ALTOS	CA	94024-7268	US			false		
111-0476564-9597057	06355738375258	2021-01-08T23:11:03+00:00	2021-01-08T15:11:03-08:00	2021-01-08T23:37:50+00:00	2021-01-13T07:59:59+00:00	-4	55pwpkhnzwrw873@marketplace.amazon.com	Brigid E Hummel	+1 213-442-1463 ext. 82642	ABM024	Delivery by Tuesday, January 12 Beauty of Color Bouquet by Arabella Bouquets	1	0	1	Expedited	Donna DiPietro	6385 FERRY RD			DOYLESTOWN	PA	18902-9315	US		Happy birthday my sweet sister! From Mina	false		
114-4243202-8057824	21189234526178	2021-01-08T23:20:59+00:00	2021-01-08T15:20:59-08:00	2021-01-08T23:44:39+00:00	2021-01-13T07:59:59+00:00	-4	075pp5gswcxp5tp@marketplace.amazon.com	suzie lafontaine	+1 213-442-1463 ext. 34251	ABM026	Delivery by Tuesday, January 12 Amour Bouquet by Arabella Bouquets	1	0	1	Expedited	Sherry Collins	4113 BRIDLE PATH LN			SANGER	TX	76266-1419	US		I hope you feel better soon! I love and miss you!  Suzie From suzie lafontaine	false		
111-3560340-7404202	52873532624490	2021-01-08T23:25:51+00:00	2021-01-08T15:25:51-08:00	2021-01-08T23:53:57+00:00	2021-01-13T07:59:59+00:00	-4	j8j3hp6s1k9ww2y@marketplace.amazon.com	Sarah Heholt	+1 619-854-2705 ext. 39421	ABM031	Delivery by Tuesday, January 12 The Harvest Moon Bouquet by Arabella Bouquets	1	0	1	Expedited	Heidi Robinson	630 E PLEASANT ST			MOUNT VERNON	MO	65712-1235	US		Happt birthday mom. We love you. From Sarah, David, Emily and preston	false		
114-3836062-5897852	01574939204154	2021-01-08T23:27:18+00:00	2021-01-08T15:27:18-08:00	2021-01-08T23:54:39+00:00	2021-01-13T07:59:59+00:00	-4	0g92k83dlb297jl@marketplace.amazon.com	Virginia Calligaris	+1 619-854-2705 ext. 02809	ABM024	Delivery by Tuesday, January 12 Beauty of Color Bouquet by Arabella Bouquets	1	0	1	Standard	Pat and Anthony McElhinney/ Dreamline Ink	6825 TILTON RD STE A1			EGG HARBOR TOWNSHIP	NJ	08234-4491	US		Dear Pat,  Hope you have a wonderful Happy Birthday!! From Aunt Gin and Uncle Al	false		
114-3674904-7936207	53435299627778	2021-01-08T23:33:45+00:00	2021-01-08T15:33:45-08:00	2021-01-08T23:58:25+00:00	2021-01-13T07:59:59+00:00	-4	hkf6dpl47swqk2l@marketplace.amazon.com	marla mandujano	+1 415-851-9136 ext. 48902	ABR0022	Delivery by Tuesday, January 12 Dozen Pink Roses with a Free Vase by Arabella Bouquets	1	0	1	Expedited	Estella Castillo	8338 PARRY PATH			CONVERSE	TX	78109-3281	US			false		
111-5275772-4579443	31716850549538	2021-01-08T23:35:55+00:00	2021-01-08T15:35:55-08:00	2021-01-09T00:05:41+00:00	2021-01-13T07:59:59+00:00	-4	4sm01skt6t7j4tg@marketplace.amazon.com	Linda Kerberg	+1 415-419-8616 ext. 87565	ABM022	Delivery by Tuesday, January 12 Purple Extravagance Bouquet by Arabella Bouquets	1	0	1	Expedited	Betty Wong	425 WHITEHALL RD			ALAMEDA	CA	94501-6141	US			false		
112-9683197-2875463	11434794880146	2021-01-08T23:42:24+00:00	2021-01-08T15:42:24-08:00	2021-01-09T00:10:12+00:00	2021-01-13T07:59:59+00:00	-4	lyrmh7r2wk635g6@marketplace.amazon.com	Rosie	+1 415-851-9136 ext. 98051	ABR0022	Delivery by Tuesday, January 12 Dozen Pink Roses with a Free Vase by Arabella Bouquets	1	0	1	Expedited	Salazar Family	8901 E ROSEWOOD ST			TUCSON	AZ	85710-2657	US		I love you!!! De Rosa Garcia	false		
111-3048490-0988219	56505491678154	2021-01-08T23:43:39+00:00	2021-01-08T15:43:39-08:00	2021-01-09T00:10:47+00:00	2021-01-13T07:59:59+00:00	-4	q12yz7x0fjj8cg0@marketplace.amazon.com	Denise Rousseau	+1 415-851-9136 ext. 74434	ABM010	Delivery by Tuesday, January 12 Everlasting Fling with a Free Glass Vase by Arabella Bouquets	1	0	1	Expedited	Janice Mayer	109 PENROSE LN			TEMPLE	TX	76502-5191	US		Hope you enjoy this little reminder of Spring!! All our love and prayers, Denise and Serge From Denise and Serge Rousseau	false		
113-9440770-8513031	35215017410042	2021-01-08T23:46:22+00:00	2021-01-08T15:46:22-08:00	2021-01-09T00:16:12+00:00	2021-01-13T07:59:59+00:00	-4	m6k1vxg6h36tzhx@marketplace.amazon.com	Anna	+1 415-851-9136 ext. 87529	ABR015	Delivery by Tuesday, January 12 FarmDirect 18 Orange Roses in a Free Vase by Arabella Bouquets	1	0	1	Expedited	Thickums	18812 WINDLESS WAY			PFLUGERVILLE	TX	78660-5535	US			false		
112-6508470-8001856	04300266537738	2021-01-08T23:51:07+00:00	2021-01-08T15:51:07-08:00	2021-01-09T00:17:53+00:00	2021-01-12T07:59:59+00:00	-3	h7p0k3ltmjxxb0v@marketplace.amazon.com	Robin Taylor-Pisci	+1 602-671-6610 ext. 66430	ABR0055	Delivery by Tuesday, January 12 Dozen Hot Pink Roses in a Free Vase by Arabella Bouquets	1	0	1	SecondDay	Hope Wescoatt	107 E VILLAGE TER # 118			WOODLAND PARK	CO	80863-7008	US		Happy birthday!  Hope you have a very special day.  From:  your nieces the “Taylor Girls” From Perri, Robin, Holly, and Lisa	false		
113-6641364-2158644	40518500125490	2021-01-08T23:50:08+00:00	2021-01-08T15:50:08-08:00	2021-01-09T00:20:46+00:00	2021-01-13T07:59:59+00:00	-4	11qn3z2kd1xym62@marketplace.amazon.com	Lynn smith	+1 415-851-9136 ext. 46439	ABM010	Delivery by Tuesday, January 12 Everlasting Fling with a Free Glass Vase by Arabella Bouquets	1	0	1	Expedited	Shelley and Brandon Smith	5920 VERNONS OAK CT			BURKE	VA	22015-2514	US			false		
111-2324485-3944209	01316376177474	2021-01-08T23:52:45+00:00	2021-01-08T15:52:45-08:00	2021-01-09T00:21:34+00:00	2021-01-13T07:59:59+00:00	-4	xgg4mslb4zcgr99@marketplace.amazon.com	al duffy	+1 763-225-9463 ext. 05137	ABM020	Delivery by Tuesday, January 12 Sunset Bouquet by Arabella Bouquets	1	0	1	Expedited	Ainsley Duffy	244 EAGLE RDG			FORNEY	TX	75126-5187	US		Get well soon   Love Cardo From al duffy	false		
113-4537637-2016242	03567902734690	2021-01-08T23:55:32+00:00	2021-01-08T15:55:32-08:00	2021-01-09T00:24:02+00:00	2021-01-13T07:59:59+00:00	-4	fn2sf5yn4l3jzh8@marketplace.amazon.com	Edward DeCarbo	+1 415-851-9136 ext. 27343	ABR0033	Delivery by Tuesday, January 12 Dozen Orange Roses in a Free Vase by Arabella Bouquets	1	0	1	Expedited	Vanessa DeCarbo	314 E 206TH ST APT B			BRONX	NY	10467-4094	US		Happy Birthday From Dad	false		
113-8301965-7421022	67202277571850	2021-01-09T00:02:12+00:00	2021-01-08T16:02:12-08:00	2021-01-09T00:24:29+00:00	2021-01-13T07:59:59+00:00	-4	5hlcznw1x2fvdhf@marketplace.amazon.com	Nicole Ortiz	+1 213-442-1463 ext. 05244	ABM022	Delivery by Tuesday, January 12 Purple Extravagance Bouquet by Arabella Bouquets	1	0	1	Expedited	Gloria Silva	2187 SUNNY VISTA DR			SAN JOSE	CA	95128-1256	US			false		
111-4141601-3793812	28315085689402	2021-01-09T00:17:26+00:00	2021-01-08T16:17:26-08:00	2021-01-09T00:41:18+00:00	2021-01-13T07:59:59+00:00	-4	x0cvbn15z158xv3@marketplace.amazon.com	Bruce Sparrow	+1 213-442-1463 ext. 18296	ABR0022	Delivery by Tuesday, January 12 Dozen Pink Roses with a Free Vase by Arabella Bouquets	1	0	1	Expedited	Samantha Sparrow	5 CHRYSONA LN			SEDONA	AZ	86336-9510	US		Happy 30th Birthday. Lots of love From Dad and Mom	false		
111-8403030-1772210	03364835513914	2021-01-09T00:23:51+00:00	2021-01-08T16:23:51-08:00	2021-01-09T00:42:45+00:00	2021-01-13T07:59:59+00:00	-4	y8vktc6ffz8nq8m@marketplace.amazon.com	Deborah Frey	+1 415-419-8616 ext. 21003	ABM022	Delivery by Tuesday, January 12 Purple Extravagance Bouquet by Arabella Bouquets	1	0	1	Expedited	Susan D. Brungardt	2900 N COUNTRY ROAD 600 W			NORTH VERNON	IN	47265-5814	US		Happy New Year! From Roy & Deb	false		
113-5265742-9891468	14732488111770	2021-01-09T00:14:05+00:00	2021-01-08T16:14:05-08:00	2021-01-09T00:44:37+00:00	2021-01-13T07:59:59+00:00	-4	cp9x22s7srxscrd@marketplace.amazon.com	kenneth M. Vittitow	+1 763-225-9463 ext. 40118	ABR0022	Delivery by Tuesday, January 12 Dozen Pink Roses with a Free Vase by Arabella Bouquets	1	0	1	Expedited	Kenneth M Vittitow	18269 COLONY DR UNIT 601			FAIRHOPE	AL	36532-1150	US			false		
114-4448082-2337059	11490675464338	2021-01-09T00:24:25+00:00	2021-01-08T16:24:25-08:00	2021-01-09T00:51:31+00:00	2021-01-13T07:59:59+00:00	-4	9031m1zxmfthvs7@marketplace.amazon.com	Benedict Lopez	+1 763-225-9463 ext. 84784	ABR0022	Delivery by Tuesday, January 12 Dozen Pink Roses with a Free Vase by Arabella Bouquets	1	0	1	Expedited	Christine Lopez	5021 SOFTWOOD LN			WOODBRIDGE	VA	22192-8319	US		Sending our love and healing thoughts for a hopeful future.   Love,  Beneflogitrevikaki From Benedict Lopez	false		
111-8602759-9125064	37954729510490	2021-01-09T00:34:19+00:00	2021-01-08T16:34:19-08:00	2021-01-09T01:04:51+00:00	2021-01-13T07:59:59+00:00	-4	f4vn58031sgrrq9@marketplace.amazon.com	Kristy Guadagnoli	+1 213-442-1463 ext. 65730	ABR0022	Delivery by Tuesday, January 12 Dozen Pink Roses with a Free Vase by Arabella Bouquets	1	0	1	Expedited	Kristy Guadagnoli	709 gene gunter rd			Deville	La	71328	US			false		
113-7768020-0119464	00485217242826	2021-01-09T00:42:00+00:00	2021-01-08T16:42:00-08:00	2021-01-09T01:07:34+00:00	2021-01-13T07:59:59+00:00	-4	0jvs4hjnnmx4b83@marketplace.amazon.com	Pat Richardson	+1 415-851-9136 ext. 08881	ABR0022	Delivery by Tuesday, January 12 Dozen Pink Roses with a Free Vase by Arabella Bouquets	1	0	1	Expedited	Pat Maddock	801 W LONG LAKE RD APT A2			BLOOMFIELD HILLS	MI	48302-2060	US		Thinking about you and sending warm thoughts and love. Pat and Jerry From Pat Richardson	false		
111-8899736-6677842	57657772863714	2021-01-09T00:51:51+00:00	2021-01-08T16:51:51-08:00	2021-01-09T01:11:05+00:00	2021-01-13T07:59:59+00:00	-4	pfg7ztdbpqqkj27@marketplace.amazon.com	vanessa hardy	+1 763-225-9463 ext. 40602	ABM020	Delivery by Tuesday, January 12 Sunset Bouquet by Arabella Bouquets	1	0	1	Expedited	Michelle Porter	2510 COPPERFIELD DR			SANTA ROSA	CA	95401-4918	US		Message:Edit  Wishing you the happiest birthday this new year 2021. We wish you all the best with all the joy this month brings you. From Your Guam family	false		
113-1706340-0845053	01581348371034	2021-01-09T00:43:15+00:00	2021-01-08T16:43:15-08:00	2021-01-09T01:13:49+00:00	2021-01-13T07:59:59+00:00	-4	y5zkd731b237rcx@marketplace.amazon.com	Francesca Maxime	+1 213-442-1463 ext. 90960	ABR0033	Delivery by Tuesday, January 12 Dozen Orange Roses in a Free Vase by Arabella Bouquets	1	0	1	Expedited	Clara Clemeno	130 GEORGE ST			MEDFORD	MA	02155-5443	US			false		
111-3930753-6537861	65122545810906	2021-01-09T00:46:55+00:00	2021-01-08T16:46:55-08:00	2021-01-09T01:14:33+00:00	2021-01-13T07:59:59+00:00	-4	n0tk3q9btv49vfy@marketplace.amazon.com	Carl Calise	+1 619-854-2705 ext. 98463	ABR0055	Delivery by Tuesday, January 12 Dozen Hot Pink Roses in a Free Vase by Arabella Bouquets	1	0	1	Expedited	Aileen Kurtz	2429 CRISFIELD ST			TOMS RIVER	NJ	08755-2508	US		Hope you like these roses. From Carl Calise	false		
112-7659212-2805857	02543115581106	2021-01-09T00:49:36+00:00	2021-01-08T16:49:36-08:00	2021-01-09T01:18:03+00:00	2021-01-13T07:59:59+00:00	-4	h5ntr8yrd905vcn@marketplace.amazon.com	jamie	+1 415-419-8616 ext. 24867	ABR001	Delivery by Tuesday, January 12 Dozen Red Roses in a Free Vase by Arabella Bouquets	1	0	1	Expedited	Fannie Latham	1027 SIMS AVE NW			ATLANTA	GA	30318-4877	US		My beloved Grandmother.  Words will never be able to justify how much I love you.  I wish I could hug and kiss you.  You mean so much to me.  You are precious to me. You may be my Grandma but you are my baby.  I love you. From jamie	false		
114-5013119-2707415	37349361626426	2021-01-09T00:55:12+00:00	2021-01-08T16:55:12-08:00	2021-01-09T01:22:21+00:00	2021-01-13T07:59:59+00:00	-4	yrgz0qw0vk8n4vv@marketplace.amazon.com	Sarah Eisenhut	+1 763-225-9463 ext. 59719	ABR0066	Delivery by Tuesday, January 12 Dozen White Roses in a Free Vase by Arabella Bouquets	1	0	1	Expedited	Stacey Lanz	5007 W LEWIS AVE			PHOENIX	AZ	85035-2026	US			false		
111-2504396-5657849	20487991716490	2021-01-08T01:05:10+00:00	2021-01-07T17:05:10-08:00	2021-01-09T01:34:59+00:00	2021-01-13T07:59:59+00:00	-4	lf9mqrfvbk93xtc@marketplace.amazon.com	Jane Mi	+1 213-442-1463 ext. 14988	ABM020	Delivery by Monday, January 11 Sunset Bouquet by Arabella Bouquets	1	0	1	Standard	Sophie Xu	509 29TH ST			SAN FRANCISCO	CA	94131-2221	US			false		
111-0954633-0695426	31830150568506	2021-01-09T01:15:15+00:00	2021-01-08T17:15:15-08:00	2021-01-09T01:40:13+00:00	2021-01-13T07:59:59+00:00	-4	xkm1cttvms2nnz7@marketplace.amazon.com	Mike Podrazhansky	+1 602-671-6610 ext. 13407	ABR0066	Delivery by Tuesday, January 12 Dozen White Roses in a Free Vase by Arabella Bouquets	1	0	1	Expedited	Dr and Mrs Charles A Meyer Jr	4275 OWENS RD APT 107			EVANS	GA	30809-3064	US		In loving memory of Liz From Katherine & Mike	false		
111-8807718-3332236	51039969803146	2021-01-09T01:10:10+00:00	2021-01-08T17:10:10-08:00	2021-01-09T01:40:27+00:00	2021-01-13T07:59:59+00:00	-4	1s7jx0q3c3svkn7@marketplace.amazon.com	Jason Gorham	+1 213-442-1463 ext. 66084	ABR0022	Delivery by Tuesday, January 12 Dozen Pink Roses with a Free Vase by Arabella Bouquets	1	0	1	Expedited	Jessica Peterson	9701 FOXHALL WAY UNIT 3			ESTERO	FL	33928-3068	US			false		
111-0343644-8057836	18023025273194	2021-01-09T01:19:09+00:00	2021-01-08T17:19:09-08:00	2021-01-09T01:43:11+00:00	2021-01-13T07:59:59+00:00	-4	kp7df29sw6tl500@marketplace.amazon.com	liz flinders	+1 346-307-9643 ext. 24653	ABR0033	Delivery by Tuesday, January 12 Dozen Orange Roses in a Free Vase by Arabella Bouquets	1	0	1	Expedited	Andrea Flinders	5229 BELLEFONTAINE AVE			KANSAS CITY	MO	64130-2945	US		Happy birthday! From your best sister! From liz flinders	false		
111-1191771-7872254	14748563905818	2021-01-09T01:15:24+00:00	2021-01-08T17:15:24-08:00	2021-01-09T01:44:05+00:00	2021-01-13T07:59:59+00:00	-4	gy2ddd8tr4rdjrl@marketplace.amazon.com	R Smith	+1 763-225-9463 ext. 98233	ABR0055	Delivery by Tuesday, January 12 Dozen Hot Pink Roses in a Free Vase by Arabella Bouquets	1	0	1	Expedited	Roy W Smith	7208 FARADAY LN			MCKINNEY	TEXAS	75071-4786	US			false		
111-5292950-6849864	66668154139994	2021-01-09T01:19:31+00:00	2021-01-08T17:19:31-08:00	2021-01-09T01:50:03+00:00	2021-01-13T07:59:59+00:00	-4	kp7df29sw6tl500@marketplace.amazon.com	liz flinders	+1 213-442-1463 ext. 90086	ABR0033	Delivery by Tuesday, January 12 Dozen Orange Roses in a Free Vase by Arabella Bouquets	1	0	1	Expedited	Elizabeth flinders	135 ASHLEY LN			CORRYTON	TN	37721-5003	US			false		
112-5294497-0842626	36099135512946	2021-01-09T01:24:19+00:00	2021-01-08T17:24:19-08:00	2021-01-09T01:52:41+00:00	2021-01-13T07:59:59+00:00	-4	51gz63y6vbbj5bv@marketplace.amazon.com	Maureen N.	+1 763-225-9463 ext. 58208	ABM026	Delivery by Tuesday, January 12 Amour Bouquet by Arabella Bouquets	1	0	1	Expedited	Kay Dewitt	1012 W APACHE TRL			CAMP VERDE	AZ	86322-7478	US		Hoping each day brings you more strength, thinking of you guys! From Kevin and Mo and the kids	false		
114-5078852-5749009	23512842841410	2021-01-09T01:26:42+00:00	2021-01-08T17:26:42-08:00	2021-01-09T01:54:59+00:00	2021-01-13T07:59:59+00:00	-4	9xtmdlp7ktym7w0@marketplace.amazon.com	carol foley	+1 213-442-1463 ext. 95987	ABR0022	Delivery by Tuesday, January 12 Dozen Pink Roses with a Free Vase by Arabella Bouquets	1	0	1	Expedited	Kathie Dimarco	36 ARTHER ST			GREENWICH	CT	06831-5107	US		Happy 65th ! From Carol and Jack	false		
113-3020557-0993833	51353415279722	2021-01-09T01:33:24+00:00	2021-01-08T17:33:24-08:00	2021-01-09T01:59:04+00:00	2021-01-13T07:59:59+00:00	-4	cfgw2bygjtp4x8s@marketplace.amazon.com	Sharron Frederick	+1 763-225-9463 ext. 09521	ABR0022	Delivery by Tuesday, January 12 Dozen Pink Roses with a Free Vase by Arabella Bouquets	1	0	1	Expedited	Mary Matthews	8411 LUCERNE RD			RANDALLSTOWN	MD	21133-4523	US		How you feel better soon,we all love you and pray for you	false		
113-5227325-7927430	06195135562122	2021-01-09T01:33:53+00:00	2021-01-08T17:33:53-08:00	2021-01-09T01:59:16+00:00	2021-01-13T07:59:59+00:00	-4	y7nj7l8wh049z2c@marketplace.amazon.com	Leslie Anderson	+1 415-851-9136 ext. 61621	ABM020	Delivery by Tuesday, January 12 Sunset Bouquet by Arabella Bouquets	1	0	1	Expedited	Sally Ensign	10248 W MAIN RD			RIPLEY	NY	14775-9534	US		I love you Great Grandma. I miss you!!! From Declan	false		
111-8216363-9041818	37375553804738	2021-01-09T01:39:44+00:00	2021-01-08T17:39:44-08:00	2021-01-09T02:08:07+00:00	2021-01-13T07:59:59+00:00	-4	qq8tn3t81hyqh1k@marketplace.amazon.com	Beena M Shah	+1 602-671-6610 ext. 63283	ABR0055	Delivery by Tuesday, January 12 Dozen Hot Pink Roses in a Free Vase by Arabella Bouquets	1	0	1	Expedited	Premila Oza	1730 HUNTINGTON DR UNIT 326			DUARTE	CA	91010-2559	US		Premila Masi - Hoping you feel better soon. Sending you lots of love and best wishes! Love. Beena & Mitesh From Beena M Shah	false		
112-4226347-2723441	46731472084298	2021-01-09T01:59:59+00:00	2021-01-08T17:59:59-08:00	2021-01-09T02:30:43+00:00	2021-01-13T07:59:59+00:00	-4	0cp2xfxl7xcw9mh@marketplace.amazon.com	Robert	+1 619-854-2705 ext. 07155	ABR0022	Delivery by Tuesday, January 12 Dozen Pink Roses with a Free Vase by Arabella Bouquets	1	0	1	Expedited	Robert	99 HIGH ST			PLATTE CITY	MO	64079-8162	US			false		
114-7448879-1758616	48103470823746	2021-01-09T02:11:43+00:00	2021-01-08T18:11:43-08:00	2021-01-09T02:40:40+00:00	2021-01-13T07:59:59+00:00	-4	5t6gkkr9hkk2p6k@marketplace.amazon.com	Corey Maness	+1 415-851-9136 ext. 51308	ABM022	Delivery by Tuesday, January 12 Purple Extravagance Bouquet by Arabella Bouquets	1	0	1	Expedited	Jackie Sauter	407 E LUTZ RD RM 132			ARCHBOLD	OH	43502-1252	US		Dear Jackie,  Hope you are well! We love you!  Happy New Year! From Love, Amy & Corey Maness	false		
112-4368293-9808252	67980109587522	2021-01-09T02:27:25+00:00	2021-01-08T18:27:25-08:00	2021-01-09T02:49:25+00:00	2021-01-13T07:59:59+00:00	-4	2289nl0jhqqt51j@marketplace.amazon.com	john	+1 213-442-1463 ext. 17994	ABR0022	Delivery by Tuesday, January 12 Dozen Pink Roses with a Free Vase by Arabella Bouquets	1	0	1	Expedited	Stephanie Hilliard	2049 ESTES LN APT 11			LONGMONT	CO	80501-1971	US		And this is a present for the sweet lady who lives here. I miss you and look forward to seeing you soon. I'm thinking of you From John	false		
114-6490833-8858649	36280114789922	2021-01-09T02:37:12+00:00	2021-01-08T18:37:12-08:00	2021-01-09T02:54:46+00:00	2021-01-13T07:59:59+00:00	-4	k1vrzwgvvczc031@marketplace.amazon.com	Carolynn L James	+1 213-442-1463 ext. 89250	ABM025	Delivery by Tuesday, January 12 Fell for You Bouquet by Arabella Bouquets	1	0	1	Expedited	Bonnie Worthington	16 143RD AVE SE			BELLEVUE	WA	98007-5160	US		Enjoy your gift!— Heal Fast— Talk to you soon!!! Carolynn James From Carolynn L James	false		
111-4567214-3164242	13209623101250	2021-01-09T02:40:09+00:00	2021-01-08T18:40:09-08:00	2021-01-09T03:01:28+00:00	2021-01-13T07:59:59+00:00	-4	4k24qc00wvfns0k@marketplace.amazon.com	Marie Hughes-Wabst	+1 415-419-8616 ext. 36715	ABR014	Delivery by Tuesday, January 12 FarmDirect 18 White Roses in a Free Vase by Arabella Bouquets	1	0	1	Expedited	Keryl Kurtz	27131 GRAYSLAKE RD			RANCHO PALOS VERDES	CA	90275-2110	US		Sending you our love and prayers for strength for the days ahead.  Take one hour at time and let us know how to help as we all grieve this loss. From Greg and Marie Wabst	false		
111-9223028-5774650	16660158022370	2021-01-09T02:31:53+00:00	2021-01-08T18:31:53-08:00	2021-01-09T03:04:43+00:00	2021-01-13T07:59:59+00:00	-4	lfhslpcfhxnp8w0@marketplace.amazon.com	Pauline D'Azzo-Caisser	+1 619-854-2705 ext. 05371	ABR0055	Delivery by Tuesday, January 12 Dozen Hot Pink Roses in a Free Vase by Arabella Bouquets	1	0	1	Expedited	Pauline D'Azzo-Caisser	6 MOONEDGE RD			NORTHPORT	NY	11768-3504	US			false		
111-3864291-8456251	59030701302298	2021-01-09T03:07:05+00:00	2021-01-08T19:07:05-08:00	2021-01-09T03:37:41+00:00	2021-01-13T07:59:59+00:00	-4	g02x43kw9v7136f@marketplace.amazon.com	Lindsey Foree	+1 763-225-9463 ext. 93575	ABR0033	Delivery by Tuesday, January 12 Dozen Orange Roses in a Free Vase by Arabella Bouquets	1	0	1	Expedited	Lindsey Foree	22310 Cedar Farm Rd			Edmond	Ok	73025	US			false		
114-6913362-5825001	23135263175546	2021-01-09T03:34:23+00:00	2021-01-08T19:34:23-08:00	2021-01-09T04:02:10+00:00	2021-01-13T07:59:59+00:00	-4	zt49bhqv7lb46sf@marketplace.amazon.com	Kara Marie Danielsen	+1 213-442-1463 ext. 14458	ABM017	Delivery by Tuesday, January 12, Blue Dendrobium Orchids 10 Stems in a Free Designer Glass Vase by Arabella Bouquets	1	0	1	Expedited	Jamie Reid	247 NEVADA ST			REDWOOD CITY	CA	94062-2135	US		Jaime just wanted you to know that Im thinking of you, BFF !!! From Kara Marie Danielsen	false		
114-2629733-0463405	53217764071746	2021-01-09T03:39:07+00:00	2021-01-08T19:39:07-08:00	2021-01-09T04:08:55+00:00	2021-01-13T07:59:59+00:00	-4	bgcdfxz6wnsdj59@marketplace.amazon.com	Liz	+1 619-854-2705 ext. 88860	ABR0055	Delivery by Tuesday, January 12 Dozen Hot Pink Roses in a Free Vase by Arabella Bouquets	1	0	1	Expedited	Sylvia Oliveri	10701 Alton Downs r			Las Vegas	NV	89134	US			false		
112-3538682-6081803	57080225545418	2021-01-09T03:55:49+00:00	2021-01-08T19:55:49-08:00	2021-01-09T04:13:11+00:00	2021-01-13T07:59:59+00:00	-4	793wwl9kw4wzfl5@marketplace.amazon.com	Tirhas Desta	+1 480-618-5344 ext. 21070	ABR0066	Delivery by Tuesday, January 12 Dozen White Roses in a Free Vase by Arabella Bouquets	1	0	1	Expedited	Senait Wube	6274 EDSALL RD APT 107			ALEXANDRIA	VA	22312-2639	US		Dear Senait,  We are sorry for the lost of your loved one, please accept Our deepest condolences and prayers. God be with you. From Tirhas Zeleke and Jason	false		
112-9258144-1716220	54476868262818	2021-01-09T04:01:35+00:00	2021-01-08T20:01:35-08:00	2021-01-09T04:27:53+00:00	2021-01-13T07:59:59+00:00	-4	lyhm4jpm71dv10c@marketplace.amazon.com	Rebecca France	+1 763-225-9463 ext. 89259	ABM0033	Delivery by Tuesday, January 12 White Hydrangea 5 Stems with a Free Glass Vase by Arabella Bouquets	1	0	1	Expedited	Patricia France	8225 HAPPY TRL			KISSIMMEE	FL	34747-1336	US		Happy Birthday! From Rebecca & Zoe	false		
111-7228766-3937064	11974627759810	2021-01-09T04:10:37+00:00	2021-01-08T20:10:37-08:00	2021-01-09T04:39:37+00:00	2021-01-13T07:59:59+00:00	-4	7fb4pndvwczy39j@marketplace.amazon.com	Audrey C. Dyer	+1 602-671-6610 ext. 84575	ABM002	Delivery by Tuesday, January 12 White Calla Lilies in a Free Designer Glass Vase by Arabella Bouquets	1	0	1	Expedited	Audrey C Dyer	1681 SKYLAND DR			WILKESBORO	NC	28697-7396	US			false		
112-6314551-9156219	56557052023874	2021-01-09T04:14:54+00:00	2021-01-08T20:14:54-08:00	2021-01-09T04:42:49+00:00	2021-01-13T07:59:59+00:00	-4	ldrsq19msnqd101@marketplace.amazon.com	Er Li	+1 415-419-8616 ext. 50303	ABR0022	Delivery by Tuesday, January 12 Dozen Pink Roses with a Free Vase by Arabella Bouquets	1	0	1	Expedited	Shelly Cochran	710 BISCAYNE DR			MANSFIELD	TX	76063-3237	US		Hi Shelly, wish you a speedy recovery !!!! Can’t wait to bring Jasmine to meet you once things get well. Take care :) From Eric and Jane	false		
114-8711789-6046655	48672524233418	2021-01-09T04:19:21+00:00	2021-01-08T20:19:21-08:00	2021-01-09T04:43:43+00:00	2021-01-13T07:59:59+00:00	-4	cv2czcqb213m1bd@marketplace.amazon.com	Roy T.Young	+1 763-225-9463 ext. 85935	ABM020	Delivery by Tuesday, January 12 Sunset Bouquet by Arabella Bouquets	1	0	1	Expedited	Doreen Wheelock	3191 PORTER LN			VENTURA	CA	93003-4816	US		Dear Doreen, Sorry to hear the passing of your beloved Bella. She was a Great Dog and wonderful companion. You gave her a good home with lots of love and Care. We have fond memories of her while visiting. Love Roy & Kristen From Roy T.Young	false		
113-9171614-9054619	18268702136610	2021-01-08T16:51:14+00:00	2021-01-08T08:51:14-08:00	2021-01-09T04:46:14+00:00	2021-01-13T07:59:59+00:00	-4	2n5frjr8y2mxv7q@marketplace.amazon.com	Hygens Joka	+1 415-419-8616 ext. 00752	ABR0033	Delivery by Monday, January 11 Dozen Orange Roses in a Free Vase by Arabella Bouquets	1	0	1	Expedited	Alexis Joka	5338 SOLEDAD RANCHO CT			SAN DIEGO	CA	92109-1535	US			false		
114-0398259-2359439	28311324408834	2021-01-09T04:25:13+00:00	2021-01-08T20:25:13-08:00	2021-01-09T04:54:45+00:00	2021-01-13T07:59:59+00:00	-4	9nxbjy8n6vyt85c@marketplace.amazon.com	John Charles McGuire III	+1 415-851-9136 ext. 22799	ABR0022	Delivery by Tuesday, January 12 Dozen Pink Roses with a Free Vase by Arabella Bouquets	1	0	1	Standard	Vision Health Center	3500 PLANK RD STE I			FREDERICKSBURG	VA	22407-6887	US			true		Business Price
111-0497258-6305863	07910722392026	2021-01-09T04:36:45+00:00	2021-01-08T20:36:45-08:00	2021-01-09T05:06:54+00:00	2021-01-13T07:59:59+00:00	-4	mmyddbkv4d5bs50@marketplace.amazon.com	Mike Owens	+1 415-851-9136 ext. 28915	ABM020	Delivery by Tuesday, January 12 Sunset Bouquet by Arabella Bouquets	1	0	1	Expedited	Taylor Mayze Owens	551 East Foxpoint Lane	Apt. 32 A		Salt Lake City	Utah	84107	US			false		
111-8487278-9100212	19948581349690	2021-01-09T04:51:38+00:00	2021-01-08T20:51:38-08:00	2021-01-09T05:21:57+00:00	2021-01-13T07:59:59+00:00	-4	t1lmc7vc9lwdtj0@marketplace.amazon.com	Roy R Cox	+1 415-851-9136 ext. 22704	ABR0022	Delivery by Tuesday, January 12 Dozen Pink Roses with a Free Vase by Arabella Bouquets	1	0	1	Expedited	Charlene Perry	10297 BOULDER RIDGE DR			PEYTON	CO	80831-4002	US			false		
112-3061617-6663453	10643784578402	2021-01-09T04:58:54+00:00	2021-01-08T20:58:54-08:00	2021-01-09T05:22:40+00:00	2021-01-13T07:59:59+00:00	-4	cc9b5tmqdbz175p@marketplace.amazon.com	Fred L Kemp	+1 415-419-8616 ext. 29296	ABM022	Delivery by Tuesday, January 12 Purple Extravagance Bouquet by Arabella Bouquets	1	0	1	Expedited	Don and Joyce Walters	2342 Tavern Road			Alpine	Ca	91901	US		We love you guys and pray that God will give comfort. We are here for you. Love, Joan & Fred From Fred & Joan	false		
112-3717114-0738667	12666671617698	2021-01-09T05:19:04+00:00	2021-01-08T21:19:04-08:00	2021-01-09T05:40:59+00:00	2021-01-13T07:59:59+00:00	-4	cc9b5tmqdbz175p@marketplace.amazon.com	Fred L Kemp	+1 763-225-9463 ext. 03983	ABR0022	Delivery by Tuesday, January 12 Dozen Pink Roses with a Free Vase by Arabella Bouquets	1	0	1	Expedited	Mrs. Pam Boston	2342 TAVERN RD			ALPINE	CA	91901-3134	US		Pam, We are so sorry to hear about Tom.  We will miss his friendship and sense of humor.  We're praying for you and the girls. Love, Joan & Fred From Joan & Fred	false		
112-6945821-7722617	19209493560882	2021-01-09T05:29:26+00:00	2021-01-08T21:29:26-08:00	2021-01-09T05:50:22+00:00	2021-01-13T07:59:59+00:00	-4	2cg4xjl24p112n2@marketplace.amazon.com	justin wolfe	+1 213-442-1463 ext. 33053	ABR013	Delivery by Tuesday, January 12 FarmDirect 18 Yellow Roses in a Free Vase by Arabella Bouquets	1	0	1	Expedited	Kia Hawley	1017 N MARKET PLZ			PUEBLO WEST	CO	81007-1502	US		It’s Tuesday, that’s reason enough. Have a stellar day, Gorgeous! From justin wolfe	false		
111-4189709-9575423	08877578073898	2021-01-09T05:30:46+00:00	2021-01-08T21:30:46-08:00	2021-01-09T06:01:00+00:00	2021-01-13T07:59:59+00:00	-4	vpxs3cf067wt14q@marketplace.amazon.com	Walter E. Merrill	+1 346-307-9643 ext. 87677	ABR0022	Delivery by Tuesday, January 12 Dozen Pink Roses with a Free Vase by Arabella Bouquets	1	0	1	Expedited	Dan & Rana Steinly	29174 PIN OAK WAY			EASTON	MD	21601-4646	US			false		
113-9145118-2016266	34294178109018	2021-01-09T05:37:40+00:00	2021-01-08T21:37:40-08:00	2021-01-09T06:07:22+00:00	2021-01-13T07:59:59+00:00	-4	cdsldqy983s6crc@marketplace.amazon.com	Kim	+1 346-307-9643 ext. 96336	ABR0022	Delivery by Tuesday, January 12 Dozen Pink Roses with a Free Vase by Arabella Bouquets	1	0	1	Standard	Annette Lazar	8711 JACKSON ST			PHILADELPHIA	PA	19136-2131	US		Happy Birthday Mom! From Kim, Sean, ella and Sj	false		
114-3890500-6079456	12928187550938	2021-01-09T05:43:41+00:00	2021-01-08T21:43:41-08:00	2021-01-09T06:09:27+00:00	2021-01-13T07:59:59+00:00	-4	9105mwdhf3z7b15@marketplace.amazon.com	Seta Timbreza	+1 619-854-2705 ext. 40216	ABM010	Delivery by Tuesday, January 12 Everlasting Fling with a Free Glass Vase by Arabella Bouquets	1	0	1	Expedited	Connie Brenner	1317 OAKBURN DR			WALNUT	CA	91789-3433	US		Dear Connie, Sending our love and continuing to keep you in our prayers.  We will always remember Terry in our hearts. Blessings, Seta & Chris From Seta Timbreza	false		
113-8203245-9481844	34743201035090	2021-01-09T05:47:49+00:00	2021-01-08T21:47:49-08:00	2021-01-09T06:15:13+00:00	2021-01-13T07:59:59+00:00	-4	3sy4p6vk8k5b805@marketplace.amazon.com	L. Morris	+1 213-442-1463 ext. 10366	ABR001	Delivery by Tuesday, January 12 Dozen Red Roses in a Free Vase by Arabella Bouquets	1	0	1	Expedited	Mrs. John Morris	51 MACSPAR DR			RANDOLPH	NJ	07869-1313	US		Enjoy your Happy Birthday your gift! From L. Morris	false		
114-6484998-7153808	36620864641618	2021-01-09T05:52:48+00:00	2021-01-08T21:52:48-08:00	2021-01-09T06:20:35+00:00	2021-01-13T07:59:59+00:00	-4	9105mwdhf3z7b15@marketplace.amazon.com	Seta Timbreza	+1 415-851-9136 ext. 29459	ABM026	Delivery by Tuesday, January 12 Amour Bouquet by Arabella Bouquets	1	0	1	Expedited	Brenner Family	767 WINDWOOD DR			WALNUT	CA	91789-3247	US		Dear Brenner family, We are thinking of you and continuing to keep your family in our prayers.  Hugs from all of us. Love, The Timbrezas From Seta Timbreza	false		
111-7697142-6112253	23203314593114	2021-01-09T05:53:46+00:00	2021-01-08T21:53:46-08:00	2021-01-09T06:21:32+00:00	2021-01-13T07:59:59+00:00	-4	6lsds6n2rxq8fmt@marketplace.amazon.com	John M. Sheehy	+1 213-442-1463 ext. 18627	ABR001	Delivery by Tuesday, January 12 Dozen Red Roses in a Free Vase by Arabella Bouquets	1	0	1	Expedited	Paulette and Skip Busam	5479 Bunker Hill Rd.			Milford	Ohio	45150	US		I love you. Henry From John M. Sheehy	false		
114-0005209-5729053	42793144328818	2021-01-09T06:15:06+00:00	2021-01-08T22:15:06-08:00	2021-01-09T06:44:13+00:00	2021-01-12T07:59:59+00:00	-3	ry81byj7m57pz8f@marketplace.amazon.com	Jaramie	+1 415-419-8616 ext. 74191	ABR0022	Delivery by Tuesday, January 12 Dozen Pink Roses with a Free Vase by Arabella Bouquets	1	0	1	SecondDay	Candace Sundine	538 S MANHATTAN PL APT 420			LOS ANGELES	CA	90020-4490	US		I’m proud of you and I love you. No matter what you decide! Plus, everyone smiles when they get flowers and you deserve to smile! <3 love you! From Jaramie	false		
112-3869578-4912231	38780007226930	2021-01-09T06:28:28+00:00	2021-01-08T22:28:28-08:00	2021-01-09T06:57:49+00:00	2021-01-13T07:59:59+00:00	-4	rfjh9gxc4hxld6g@marketplace.amazon.com	Chima Q Manuel	+1 415-851-9136 ext. 42954	ABR0022	Delivery by Tuesday, January 12 Dozen Pink Roses with a Free Vase by Arabella Bouquets	1	0	1	Expedited	Onu Stevens	469 PINE ST			PROVIDENCE	RI	02907-1346	US			false		
112-6083453-6457807	02601278319506	2021-01-09T06:33:28+00:00	2021-01-08T22:33:28-08:00	2021-01-09T07:01:41+00:00	2021-01-13T07:59:59+00:00	-4	kx0wt1kms0dghqg@marketplace.amazon.com	Joe R. Merkley	+1 415-419-8616 ext. 35391	ABM022	Delivery by Tuesday, January 12 Purple Extravagance Bouquet by Arabella Bouquets	1	0	1	Expedited	Scarlett Vera	10563 S SAGE CREEK RD			SOUTH JORDAN	UT	84009-3972	US		I hope you are feeling better! From Jelly	false		
114-7470862-2192234	44166253070146	2021-01-09T06:39:55+00:00	2021-01-08T22:39:55-08:00	2021-01-09T07:06:55+00:00	2021-01-13T07:59:59+00:00	-4	nyt1h77h6ryk2r6@marketplace.amazon.com	John Nadraus	+1 415-419-8616 ext. 54357	ABM010	Delivery by Tuesday, January 12 Everlasting Fling with a Free Glass Vase by Arabella Bouquets	1	0	1	Expedited	Rosemarie Polidora	9 SYLVESTER CT			ROCKY POINT	NY	11778-7902	US		Happy Birthday Roe !! From Love, John and Barbara	false		
111-4500705-2047449	27594758764282	2021-01-09T06:45:39+00:00	2021-01-08T22:45:39-08:00	2021-01-09T07:14:02+00:00	2021-01-13T07:59:59+00:00	-4	66pkl6qmsxn29bj@marketplace.amazon.com	Andrea Fitzsimmons	+1 213-442-1463 ext. 01793	ABR0022	Delivery by Tuesday, January 12 Dozen Pink Roses with a Free Vase by Arabella Bouquets	1	0	1	Expedited	Andrea Fitzsimmons	17350 CASTLE DR			TINLEY PARK	IL	60487-7647	US		Happy Birthday! From Andrea Fitzsimmons	false		
111-5260063-7693831	68236382649706	2021-01-09T07:03:03+00:00	2021-01-08T23:03:03-08:00	2021-01-09T07:29:31+00:00	2021-01-13T07:59:59+00:00	-4	66pkl6qmsxn29bj@marketplace.amazon.com	Andrea Fitzsimmons	+1 602-671-6610 ext. 64077	ABR0022	Delivery by Tuesday, January 12 Dozen Pink Roses with a Free Vase by Arabella Bouquets	1	0	1	Expedited	Judy McLaren	4308 E COLLEGE PEAK RD			DOUGLAS	AZ	85607-5209	US		Happy Birthday! From Andrea Fitzsimmons	false		
112-0363475-5378642	31067512637666	2021-01-09T07:08:53+00:00	2021-01-08T23:08:53-08:00	2021-01-09T07:34:20+00:00	2021-01-13T07:59:59+00:00	-4	p63whlnw55c1w6b@marketplace.amazon.com	katie	+1 763-225-9463 ext. 77346	ABM010	Delivery by Tuesday, January 12 Everlasting Fling with a Free Glass Vase by Arabella Bouquets	1	0	1	Expedited	Judy Thomas	3414 WINDWOOD PL NE			OLYMPIA	WA	98506-3681	US		We love you Grandma, and Andrea. Thank you for the games Grandma, we love them! From Peyton, Piper and Aaliyah	false		
114-3534734-3691446	36100446107194	2021-01-09T07:20:24+00:00	2021-01-08T23:20:24-08:00	2021-01-09T07:49:42+00:00	2021-01-13T07:59:59+00:00	-4	7s663yqgp4q2yqd@marketplace.amazon.com	michael f lebold	+1 415-851-9136 ext. 46442	ABM022	Delivery by Tuesday, January 12 Purple Extravagance Bouquet by Arabella Bouquets	1	0	1	Expedited	Susan Lebold	308 DAVIS MOUNTAIN CIR			GEORGETOWN	TX	78633-5728	US		Happy Birthday From Michael	false		
