order-id	order-item-id	purchase-date	payments-date	reporting-date	promise-date	days-past-promise	buyer-email	buyer-name	buyer-phone-number	sku	product-name	quantity-purchased	quantity-shipped	quantity-to-ship	ship-service-level	recipient-name	ship-address-1	ship-address-2	ship-address-3	ship-city	ship-state	ship-postal-code	ship-country	gift-wrap-type	gift-message-text	is-business-order	purchase-order-number	price-designation
112-8715445-3632237	20517805199242	2021-01-08T18:14:59+00:00	2021-01-08T10:14:59-08:00	2021-01-08T18:43:45+00:00	2021-01-13T07:59:59+00:00	-4	jng7xl2yszvw60h@marketplace.amazon.com	Brian B Frain SJ	+1 602-671-6610 ext. 27055	ABR0022	Delivery by Tuesday, January 12 Dozen Pink Roses with a Free Vase by Arabella Bouquets	1	0	1	Expedited	Michael Frain	807 BAYER AVE			DEPTFORD	NJ	08096-6649	US		Dear Michael And Maria, thank you very much for having me stay with you for three weeks. You were completely hospitable and most kind. Stay safe and have a wonderful new year. Love to Sasha. From Brian	false		
114-3465618-2531423	62584265391874	2021-01-08T18:15:29+00:00	2021-01-08T10:15:29-08:00	2021-01-08T18:45:07+00:00	2021-01-13T07:59:59+00:00	-4	dl57dnckb2b3gf0@marketplace.amazon.com	Victor Flatt	+1 619-854-2705 ext. 25270	ABR0022	Delivery by Tuesday, January 12 Dozen Pink Roses with a Free Vase by Arabella Bouquets	1	0	1	Expedited	Holly Barnard	439 OLD TOWNE DR			BRENTWOOD	TN	37027-4452	US		Happy New Year to my favorite niece.  Though I am thankful for all of the life that we lived in 2020, I look forward to seeing you and a better 2021.  Love you! From Victor Flatt	false		
114-9607027-2338616	17072323493930	2021-01-08T18:18:30+00:00	2021-01-08T10:18:30-08:00	2021-01-08T18:45:08+00:00	2021-01-13T07:59:59+00:00	-4	42gl2dgrhf4l74h@marketplace.amazon.com	ophelia latt	+1 415-419-8616 ext. 86373	ABR0066	Delivery by Tuesday, January 12 Dozen White Roses in a Free Vase by Arabella Bouquets	1	0	1	Expedited	Leigh Latt	15405 DES MOINES MEMORIAL DR S	APT D-302		BURIEN	WA	98148-2531	US		Leigh, Know that we are thinking of you. We’re here if you need us. Please take care of yourself From Love, Pauly, Necee and Braeden	false		
114-5027698-3864214	47949207135682	2021-01-08T18:16:19+00:00	2021-01-08T10:16:19-08:00	2021-01-08T18:46:20+00:00	2021-01-13T07:59:59+00:00	-4	0fzbn65263dzzn7@marketplace.amazon.com	Eugene Henry	+1 619-854-2705 ext. 65647	ABM022	Delivery by Monday, January 11 Purple Extravagance Bouquet by Arabella Bouquets	1	0	1	Expedited	Cynthia Freeman	450 PECK ST			KYLE	TX	78640-4257	US			false		
113-2437482-3271442	17771116253962	2021-01-08T18:22:46+00:00	2021-01-08T10:22:46-08:00	2021-01-08T18:50:04+00:00	2021-01-13T07:59:59+00:00	-4	lcvpkd8fdpxyf42@marketplace.amazon.com	Bill Flere	+1 602-671-6610 ext. 47498	ABM020	Delivery by Monday, January 11 Sunset Bouquet by Arabella Bouquets	1	0	1	Expedited	Lisa Cooke	152 BRADLEY FOSTER DR			HUNTINGTON	WV	25701-9449	US		Time for some flowers, my love! Always thinking of you! From Bill Flere	false		
113-4696945-7471410	60557903810234	2021-01-08T18:28:55+00:00	2021-01-08T10:28:55-08:00	2021-01-08T18:58:28+00:00	2021-01-13T07:59:59+00:00	-4	nx5nv8q2w8yd5zg@marketplace.amazon.com	thomas mason	+1 415-419-8616 ext. 31322	ABR0022	Delivery by Tuesday, January 12 Dozen Pink Roses with a Free Vase by Arabella Bouquets	1	0	1	Expedited	thomas mason	2016 ROB RD			HAMPTONVILLE	NC	27020-8156	US		Enjoy your gift!JUST BECAUSE I LOVE YOU 💘 ❤ From thomas mason	false		
114-7306013-3749065	32807373552378	2021-01-08T18:45:18+00:00	2021-01-08T10:45:18-08:00	2021-01-08T19:14:00+00:00	2021-01-13T07:59:59+00:00	-4	smq04yhx6mw61tv@marketplace.amazon.com	Richard S Thomas	+1 415-851-9136 ext. 36563	ABR0055	Delivery by Tuesday, January 12 Dozen Hot Pink Roses in a Free Vase by Arabella Bouquets	1	0	1	Expedited	Ann Thomas	1116 Jacque Cir			Birmingham	AL	35235-2309	US		Happy Birthday!  Love Scott, Meleigha & Daniel From Richard S Thomas	false		
111-2515399-5966624	45896416156666	2021-01-08T19:07:25+00:00	2021-01-08T11:07:25-08:00	2021-01-08T19:21:11+00:00	2021-01-13T07:59:59+00:00	-4	ld0drls2xfxp8cb@marketplace.amazon.com	Kari Charette	+1 763-225-9463 ext. 19184	ABR0022	Delivery by Tuesday, January 12 Dozen Pink Roses with a Free Vase by Arabella Bouquets	1	0	1	Expedited	Helen Sisco	1257 COUNTY ROUTE 60			ONCHIOTA	NY	12989-1811	US		Sending you positive vibes and virtual hugs!  Wishing you a speedy recovery!   Hope you're feeling better soon! From Kari, Penny, & Tracey	false		
111-0969748-4059458	23410142612114	2021-01-08T18:58:16+00:00	2021-01-08T10:58:16-08:00	2021-01-08T19:24:19+00:00	2021-01-13T07:59:59+00:00	-4	mgs3yg26916tdv5@marketplace.amazon.com	Mark	+1 602-671-6610 ext. 77451	ABM022	Delivery by Tuesday, January 12 Purple Extravagance Bouquet by Arabella Bouquets	1	0	1	Expedited	Mark Libertin and family	6229 N APPLECROSS RD			CLEVELAND	OH	44143-3726	US		We are so sorry for the loss of grandpa Nick. May the lord grant you all comfort and peace during this difficult time. He will be greatly missed! From The Goergy Family	false		
114-7688131-8360201	47072799898530	2021-01-08T19:11:48+00:00	2021-01-08T11:11:48-08:00	2021-01-08T19:31:33+00:00	2021-01-13T07:59:59+00:00	-4	s7dpyblswbfqdgl@marketplace.amazon.com	Cheryl Stathakis	+1 346-307-9643 ext. 85286	ABM017	Delivery by Tuesday, January 12, Blue Dendrobium Orchids 10 Stems in a Free Designer Glass Vase by Arabella Bouquets	1	0	1	Expedited	Emily Borchardt	6318 HEDGE LANE TER APT 201			SHAWNEE	KS	66226-4839	US		Emily: We hope these purple orchid's bring a smile to your face during this difficult time. The purple color reminded us of Linda.  We will always treasure the memories we shared together. Love & Blessings, From M,C,M,M,M Stathakis	false		
114-1330487-7998607	15098744809930	2021-01-08T19:19:48+00:00	2021-01-08T11:19:48-08:00	2021-01-08T19:44:52+00:00	2021-01-13T07:59:59+00:00	-4	6t4s56vwtryc4yq@marketplace.amazon.com	Troy Rahner	+1 213-442-1463 ext. 18328	ABM022	Delivery by Tuesday, January 12 Purple Extravagance Bouquet by Arabella Bouquets	1	0	1	Expedited	John Foland	2720 GLEN FOREST LN			PLANO	TX	75023-7906	US		Enjoy your gift! HAPPY BIRTHDAY TO MY BEAUTIFUL AND WONDERFUL MOM!  WE LOVE YOU SO VERY MUCH! From MARK AND LESLIE RAHNER	false		
113-6969048-6614653	48927286618154	2021-01-08T19:27:24+00:00	2021-01-08T11:27:24-08:00	2021-01-08T19:52:05+00:00	2021-01-12T07:59:59+00:00	-3	42gmjpps1jq9m68@marketplace.amazon.com	Ramsey Malieswski	+1 213-442-1463 ext. 51465	ABR0022	Delivery by Tuesday, January 12 Dozen Pink Roses with a Free Vase by Arabella Bouquets	1	0	1	SecondDay	Soumaya Mashni	12103 SHADOWHOLLOW DR			HOUSTON	TX	77082-8308	US		Happy Birthday Tata! Wishing you great things. Lots of Love from us to you. From Rima, Mike, Ramsey, Madelyn and Ryan	false		
114-8066397-0142638	22491018339114	2021-01-08T19:32:40+00:00	2021-01-08T11:32:40-08:00	2021-01-08T19:56:39+00:00	2021-01-13T07:59:59+00:00	-4	s7dpyblswbfqdgl@marketplace.amazon.com	Cheryl Stathakis	+1 602-671-6610 ext. 81636	ABM017	Delivery by Tuesday, January 12, Blue Dendrobium Orchids 10 Stems in a Free Designer Glass Vase by Arabella Bouquets	1	0	1	Expedited	Rachel Borchardt	8441 RENNER BLVD APT 5303			LENEXA	KS	66219-8522	US		Rachel: We hope these flowers bring a smile to your face. They reminded us of Linda because they are purple.  We will always treasure the memories we shared with her and your family.  Love & Blessings, From M,C,M,M,M Stathakis	false		
114-2871716-2314608	37861859696410	2021-01-08T19:48:47+00:00	2021-01-08T11:48:47-08:00	2021-01-08T20:04:55+00:00	2021-01-13T07:59:59+00:00	-4	y8sd624zp2q06lm@marketplace.amazon.com	VIDA	+1 602-671-6610 ext. 87927	ABM022	Delivery by Tuesday, January 12 Purple Extravagance Bouquet by Arabella Bouquets	1	0	1	Expedited	Emily Hunteman	5706 WYNONA AVE			AUSTIN	TX	78756-1128	US		Emily,  we're so sorry for your loss. Our condolences are with you and your family. You're in our thoughts. Wishing you love. From VIDA Family	false		
114-0260932-5377842	16475734084730	2021-01-08T19:37:41+00:00	2021-01-08T11:37:41-08:00	2021-01-08T20:08:04+00:00	2021-01-13T07:59:59+00:00	-4	l54cc9yjbktrrw2@marketplace.amazon.com	Toby	+1 763-225-9463 ext. 96859	ABR0022	Delivery by Tuesday, January 12 Dozen Pink Roses with a Free Vase by Arabella Bouquets	1	0	1	Expedited	Izzy Cox	20 VILLAGE GATE RD			CANTON	MA	02021-2432	US			false		
112-7334166-6094620	49724751138954	2021-01-08T19:40:34+00:00	2021-01-08T11:40:34-08:00	2021-01-08T20:08:24+00:00	2021-01-13T07:59:59+00:00	-4	15d4llkqlw05csv@marketplace.amazon.com	Glenn Brodeur	+1 213-442-1463 ext. 77113	ABR0022	Delivery by Tuesday, January 12 Dozen Pink Roses with a Free Vase by Arabella Bouquets	1	0	1	Expedited	Diane Mier	5 AUTUMN ST APT 1			WORCESTER	MA	01603-3104	US		I appreciate your friendship and support over the past year. From Love, Pauline	false		
112-9348083-4500214	64207993496114	2021-01-08T19:47:09+00:00	2021-01-08T11:47:09-08:00	2021-01-08T20:13:16+00:00	2021-01-13T07:59:59+00:00	-4	15d4llkqlw05csv@marketplace.amazon.com	Glenn Brodeur	+1 213-442-1463 ext. 68199	ABR0022	Delivery by Tuesday, January 12 Dozen Pink Roses with a Free Vase by Arabella Bouquets	1	0	1	Expedited	Elizabeth Hanlon	38 QUAIL RUN			HOLDEN	MA	01520-3705	US		I hope 2021 is a great year for you! From Love Paul & Pauline	false		
114-8373565-7288251	05108363478986	2021-01-08T19:43:06+00:00	2021-01-08T11:43:06-08:00	2021-01-08T20:13:19+00:00	2021-01-13T07:59:59+00:00	-4	5gtfwtqgzh84n6s@marketplace.amazon.com	Joseph Garcia	+1 763-225-9463 ext. 51298	ABR0022	Delivery by Tuesday, January 12 Dozen Pink Roses with a Free Vase by Arabella Bouquets	1	0	1	Expedited	Joseph Garcia	2319 ELM FALLS PL			MESQUITE	TX	75181-2146	US			false		
114-5410879-7012237	56349896219442	2021-01-08T19:57:48+00:00	2021-01-08T11:57:48-08:00	2021-01-08T20:25:16+00:00	2021-01-13T07:59:59+00:00	-4	q3m11t9py7cz9cg@marketplace.amazon.com	Nicole Santangeli	+1 602-671-6610 ext. 27616	ABR0066	Delivery by Tuesday, January 12 Dozen White Roses in a Free Vase by Arabella Bouquets	1	0	1	Expedited	Marilyn Corsi	360 SWITCHGRASS LOOP			LITTLE RIVER	SC	29566-8180	US		Dear Dad and Marilyn, Wishing you comfort and peace in your time of need. Bella was the sweetest dog, always a ray of light.   Love, Nicole, Rob, Lidia and Claudia From Nicole Santangeli	false		
114-2647564-4202658	67590053935522	2021-01-08T20:18:45+00:00	2021-01-08T12:18:45-08:00	2021-01-08T20:37:53+00:00	2021-01-13T07:59:59+00:00	-4	5415kg830g56dmz@marketplace.amazon.com	Juanita Duran	+1 415-851-9136 ext. 84579	ABR001	Delivery by Tuesday, January 12 Dozen Red Roses in a Free Vase by Arabella Bouquets	1	0	1	Expedited	Leonela Mota	5208 PASATIEMPO DR			SALIDA	CA	95368-9612	US			false		
112-0928691-4987430	45214963985418	2021-01-08T20:25:15+00:00	2021-01-08T12:25:15-08:00	2021-01-08T20:50:15+00:00	2021-01-13T07:59:59+00:00	-4	4ffbykhhddwgykh@marketplace.amazon.com	Corey Johnson	+1 602-671-6610 ext. 54464	ABR0022	Delivery by Tuesday, January 12 Dozen Pink Roses with a Free Vase by Arabella Bouquets	1	0	1	Expedited	Nazrah	5887 OLD BILL COOK RD			COLLEGE PARK	GA	30349-3729	US		I hope these flowers bring a smile to your face like the one you gave us when you delivered Heka From Corey and Nubia	false		
111-0797050-1847446	34677440760002	2021-01-08T20:22:25+00:00	2021-01-08T12:22:25-08:00	2021-01-08T20:51:27+00:00	2021-01-13T07:59:59+00:00	-4	vgfbfkr48626pmy@marketplace.amazon.com	Tiffany Ritcey	+1 415-419-8616 ext. 68008	ABR0022	Delivery by Tuesday, January 12 Dozen Pink Roses with a Free Vase by Arabella Bouquets	1	0	1	Expedited	Jill Galli	8 LAKEVIEW CT			HUNTINGTON	NY	11743-3944	US		Dear Jill,  Wishing you a speedy recovery! Sending lots of love!  Love, Tiff From Tiffany Ritcey	false		
113-9719916-9920240	66988716523178	2021-01-08T20:35:09+00:00	2021-01-08T12:35:09-08:00	2021-01-08T21:02:04+00:00	2021-01-13T07:59:59+00:00	-4	bykcdjtwp4g55w3@marketplace.amazon.com	Olivia Mitchell	+1 602-671-6610 ext. 30011	ABM010	Delivery by Tuesday, January 12 Everlasting Fling with a Free Glass Vase by Arabella Bouquets	1	0	1	Standard	Auntie Jill Henton	6755 S BELLAIRE WAY			CENTENNIAL	CO	80122-2122	US		Hope you have  FABULOUS Birthday Auntie!! ❤️❤️❤️❤️❤️❤️❤️❤️❤️❤️ I love you ohhhh so much!! From Livy	false		
114-5235511-7057000	43276753596106	2021-01-08T20:42:51+00:00	2021-01-08T12:42:51-08:00	2021-01-08T21:07:16+00:00	2021-01-13T07:59:59+00:00	-4	sp02jx0d7f6655f@marketplace.amazon.com	shawn Kadivar	+1 346-307-9643 ext. 25525	ABR0022	Delivery by Tuesday, January 12 Dozen Pink Roses with a Free Vase by Arabella Bouquets	1	0	1	Expedited	Behgol and Bahram Dabiri	260 1ST ST APT D13			MINEOLA	NY	11501-2373	US			false		
114-8251819-9443463	58506933256666	2021-01-08T20:45:51+00:00	2021-01-08T12:45:51-08:00	2021-01-08T21:08:31+00:00	2021-01-13T07:59:59+00:00	-4	l6pvtryy8sv7snq@marketplace.amazon.com	Pamela D. Olesen	+1 619-854-2705 ext. 90502	ABR0066	Delivery by Tuesday, January 12 Dozen White Roses in a Free Vase by Arabella Bouquets	1	0	1	Standard	Lisa Coppege	72 IRA BLAND APT 9 BUILDING B			SULLIVAN	MO	63080-2375	US		Happy Birthday Daisy!! Much love,  David ( & his sister Pam) From Pam & David	false		
113-3410259-7775427	47315076003250	2021-01-08T20:48:19+00:00	2021-01-08T12:48:19-08:00	2021-01-08T21:13:36+00:00	2021-01-13T07:59:59+00:00	-4	dcprmky15qxx5w2@marketplace.amazon.com	Elizabeth Trousdell	+1 415-851-9136 ext. 01219	ABR0033	Delivery by Tuesday, January 12 Dozen Orange Roses in a Free Vase by Arabella Bouquets	1	0	1	Expedited	Vivian and Bruce Trousdell	41 SOUNDVIEW RD			HUNTINGTON	NY	11743-4106	US		Dear Vivian and Bruce!  A heartfelt congratulations on your Anniversary!  I look forward to seeing you soon!  Love, Bets From Elizabeth Trousdell	false		
113-4807434-4837039	51419403196834	2021-01-08T21:44:54+00:00	2021-01-08T13:44:54-08:00	2021-01-08T22:13:33+00:00	2021-01-13T07:59:59+00:00	-4	nyxcy8gthlsdnzz@marketplace.amazon.com	Elaine DeRigo	+1 415-419-8616 ext. 67632	ABM022	Delivery by Tuesday, January 12 Purple Extravagance Bouquet by Arabella Bouquets	1	0	1	Expedited	Lucy Jones	245 BLACK HALL RD			EPSOM	NH	03234-4341	US		Dear Mom,  A little something to brighten your day.  We love and miss you! Love, Lainie and Tom From Elaine DeRigo	false		
114-3231148-2372266	51844280436570	2021-01-08T21:53:47+00:00	2021-01-08T13:53:47-08:00	2021-01-08T22:16:23+00:00	2021-01-13T07:59:59+00:00	-4	fz73v0fkrjv3nct@marketplace.amazon.com	Ricardo Emilio Hernández, BM #1-08842	+1 415-419-8616 ext. 30318	ABR001	Delivery by Tuesday, January 12 Dozen Red Roses in a Free Vase by Arabella Bouquets	1	0	1	Expedited	Johanny Lapaix	1406 OGDEN AVE AP 51			BRONX	NY	10452-2337	US		¡Mucha salud y felicidad para ti, desearía estar cerca para poder ayudar en algo, en lo que sea! Ojalá puedas disfrutar de tu cumpleaños a pesar de todo. Besos y abrazos! De Ricardo Emilio Hernández, BM #1-08842	false		
111-8082715-5889002	33460227851946	2021-01-08T21:54:13+00:00	2021-01-08T13:54:13-08:00	2021-01-08T22:21:35+00:00	2021-01-13T07:59:59+00:00	-4	xmlhsy4zp4w625m@marketplace.amazon.com	Pam Hollenhorst	+1 415-419-8616 ext. 42342	ABR0022	Delivery by Tuesday, January 12 Dozen Pink Roses with a Free Vase by Arabella Bouquets	1	0	1	Expedited	Mark and Maryellen Barton	1602 ADRIAN ST			PORT CHARLOTTE	FL	33952-4423	US		Dear Mark and MaryEllen, we are very sad to learn of Gert’s passing. She was a lovely lady and we enjoyed seeing at the holidays. The apple didn’t fall too far. Looking forward to a post-vax gathering in 2021. Love, John and Pam	false		
114-4092628-8500204	50154314314578	2021-01-08T22:14:17+00:00	2021-01-08T14:14:17-08:00	2021-01-08T22:42:05+00:00	2021-01-13T07:59:59+00:00	-4	rdf2ddpvyqhdgsr@marketplace.amazon.com	A M Mount	+1 602-671-6610 ext. 28827	ABM022	Delivery by Tuesday, January 12 Purple Extravagance Bouquet by Arabella Bouquets	1	0	1	Expedited	Jane Mount	39 KILLIAN WAY			RANCHO MIRAGE	CA	92270-1639	US		Happy Birthday Jane We are thinking of you Love Miles and Felicity	false		
111-4399091-9570617	24912889219242	2021-01-08T22:25:23+00:00	2021-01-08T14:25:23-08:00	2021-01-08T22:49:59+00:00	2021-01-13T07:59:59+00:00	-4	2w1452m9ryxvhsj@marketplace.amazon.com	Felicia Lucas	+1 619-854-2705 ext. 12990	ABR0022	Delivery by Tuesday, January 12 Dozen Pink Roses with a Free Vase by Arabella Bouquets	1	0	1	Expedited	Jo-Anne Clemons	3888 IVY RD			GREENVILLE	NC	27858-8286	US		Congratulations on your Retirement!  We are so excited for you! We love you! From Kelvin, Felicia, Isaiah, Kelsey and Silas	false		
113-3757284-7225811	51489695884026	2021-01-08T22:39:12+00:00	2021-01-08T14:39:12-08:00	2021-01-08T23:01:28+00:00	2021-01-13T07:59:59+00:00	-4	lbvw176kqd022b7@marketplace.amazon.com	Bobbi Stevens	+1 346-307-9643 ext. 63755	ABM020	Delivery by Tuesday, January 12 Sunset Bouquet by Arabella Bouquets	1	0	1	Expedited	Bobbi Stevens	4403 Robinwood Ave			Royal Oak	MI	48073	US		Hi, Feel better soon! From Bobbi & Bill Stevens	false		
113-0349310-2083433	36437606501338	2021-01-08T22:45:19+00:00	2021-01-08T14:45:19-08:00	2021-01-08T23:05:20+00:00	2021-01-13T07:59:59+00:00	-4	sy3rrl6x0qcpxhk@marketplace.amazon.com	Patricia W. Campbell	+1 415-419-8616 ext. 83340	ABR0033	Delivery by Tuesday, January 12 Dozen Orange Roses in a Free Vase by Arabella Bouquets	1	0	1	Expedited	Maureen Brown	107 HAWLEY AVE			PORT CHESTER	NY	10573-2207	US			false		
112-0085879-0622625	64142199993506	2021-01-08T23:08:00+00:00	2021-01-08T15:08:00-08:00	2021-01-08T23:11:53+00:00	2021-01-13T07:59:59+00:00	-4	6ywfy66hhgm8cgl@marketplace.amazon.com	Leslie Anway	+1 213-442-1463 ext. 74069	ABM022	Delivery by Tuesday, January 12 Purple Extravagance Bouquet by Arabella Bouquets	1	0	1	Expedited	Sharon Stratton	1038 ASPEN ST			LONGMONT	CO	80501-4309	US		Just sending you a little cheer, love, and our best healing thoughts and prayers. Hope you're feeling better very soon. Love you lots, Leslie, Randy, and the whole Anway family (including little Eléa!).	false		
112-0292926-9282605	56587490606962	2021-01-08T22:50:24+00:00	2021-01-08T14:50:24-08:00	2021-01-08T23:13:34+00:00	2021-01-13T07:59:59+00:00	-4	nqqx4z942vr6b1v@marketplace.amazon.com	amelia s. Gewirtz	+1 415-851-9136 ext. 30037	ABM017	Delivery by Tuesday, January 12, Blue Dendrobium Orchids 10 Stems in a Free Designer Glass Vase by Arabella Bouquets	1	0	1	Standard	Arlyne Diamond	1123 LOOKING GLASS BLVD			MONTGOMERY	TX	77356-6001	US		Dear Aunt Arlyne! Enjoy some happy blue on your birthday week! Congratulations on your new home enjoy your special day! xoxoxo sending lots of love Amelia Harold & Adam From Amelia Harold & Adam	false		
114-5356625-8224236	64070175157834	2021-01-08T22:51:50+00:00	2021-01-08T14:51:50-08:00	2021-01-08T23:19:50+00:00	2021-01-13T07:59:59+00:00	-4	s8l92x3rjn378mb@marketplace.amazon.com	Marty Jo Koch	+1 415-419-8616 ext. 44745	ABM020	Delivery by Tuesday, January 12 Sunset Bouquet by Arabella Bouquets	1	0	1	Expedited	Fouzia Syed	107 MATLOCK MEADOW DR			ARLINGTON	TX	76002-3347	US		Fouzia, Your whole family is in our thoughts and prayers. We love you friend. From Lashana, MJ, and Tonya	false		
112-0722276-0433815	41909625709250	2021-01-08T22:51:25+00:00	2021-01-08T14:51:25-08:00	2021-01-08T23:19:57+00:00	2021-01-13T07:59:59+00:00	-4	nbz594tfry64nwc@marketplace.amazon.com	Drew Matthews	+1 602-671-6610 ext. 90713	ABM020	Delivery by Tuesday, January 12 Sunset Bouquet by Arabella Bouquets	1	0	1	Expedited	Shelby Elizabeth Moore	3670 ARMITAGE ST			SAN DIEGO	CA	92117-1014	US		I hope this got there on time. If not, Happy Birthday Shelby! Love, Drew From Drew Matthews	false		
113-3726268-6939408	33943490541162	2021-01-08T23:05:53+00:00	2021-01-08T15:05:53-08:00	2021-01-08T23:35:12+00:00	2021-01-13T07:59:59+00:00	-4	gv3t9yz9rk0qc7z@marketplace.amazon.com	Carol Reinhardt	+1 213-442-1463 ext. 36916	ABR0033	Delivery by Tuesday, January 12 Dozen Orange Roses in a Free Vase by Arabella Bouquets	1	0	1	Expedited	Carol Reinhardt	1720 ASKAM LN			LOS ALTOS	CA	94024-7268	US			false		
111-5275772-4579443	31716850549538	2021-01-08T23:35:55+00:00	2021-01-08T15:35:55-08:00	2021-01-09T00:05:41+00:00	2021-01-13T07:59:59+00:00	-4	4sm01skt6t7j4tg@marketplace.amazon.com	Linda Kerberg	+1 415-419-8616 ext. 87565	ABM022	Delivery by Tuesday, January 12 Purple Extravagance Bouquet by Arabella Bouquets	1	0	1	Expedited	Betty Wong	425 WHITEHALL RD			ALAMEDA	CA	94501-6141	US			false		
111-3048490-0988219	56505491678154	2021-01-08T23:43:39+00:00	2021-01-08T15:43:39-08:00	2021-01-09T00:10:47+00:00	2021-01-13T07:59:59+00:00	-4	q12yz7x0fjj8cg0@marketplace.amazon.com	Denise Rousseau	+1 415-851-9136 ext. 74434	ABM010	Delivery by Tuesday, January 12 Everlasting Fling with a Free Glass Vase by Arabella Bouquets	1	0	1	Expedited	Janice Mayer	109 PENROSE LN			TEMPLE	TX	76502-5191	US		Hope you enjoy this little reminder of Spring!! All our love and prayers, Denise and Serge From Denise and Serge Rousseau	false		
112-6508470-8001856	04300266537738	2021-01-08T23:51:07+00:00	2021-01-08T15:51:07-08:00	2021-01-09T00:17:53+00:00	2021-01-12T07:59:59+00:00	-3	h7p0k3ltmjxxb0v@marketplace.amazon.com	Robin Taylor-Pisci	+1 602-671-6610 ext. 66430	ABR0055	Delivery by Tuesday, January 12 Dozen Hot Pink Roses in a Free Vase by Arabella Bouquets	1	0	1	SecondDay	Hope Wescoatt	107 E VILLAGE TER # 118			WOODLAND PARK	CO	80863-7008	US		Happy birthday!  Hope you have a very special day.  From:  your nieces the “Taylor Girls” From Perri, Robin, Holly, and Lisa	false		
111-2324485-3944209	01316376177474	2021-01-08T23:52:45+00:00	2021-01-08T15:52:45-08:00	2021-01-09T00:21:34+00:00	2021-01-13T07:59:59+00:00	-4	xgg4mslb4zcgr99@marketplace.amazon.com	al duffy	+1 763-225-9463 ext. 05137	ABM020	Delivery by Tuesday, January 12 Sunset Bouquet by Arabella Bouquets	1	0	1	Expedited	Ainsley Duffy	244 EAGLE RDG			FORNEY	TX	75126-5187	US		Get well soon   Love Cardo From al duffy	false		
113-4537637-2016242	03567902734690	2021-01-08T23:55:32+00:00	2021-01-08T15:55:32-08:00	2021-01-09T00:24:02+00:00	2021-01-13T07:59:59+00:00	-4	fn2sf5yn4l3jzh8@marketplace.amazon.com	Edward DeCarbo	+1 415-851-9136 ext. 27343	ABR0033	Delivery by Tuesday, January 12 Dozen Orange Roses in a Free Vase by Arabella Bouquets	1	0	1	Expedited	Vanessa DeCarbo	314 E 206TH ST APT B			BRONX	NY	10467-4094	US		Happy Birthday From Dad	false		
113-8301965-7421022	67202277571850	2021-01-09T00:02:12+00:00	2021-01-08T16:02:12-08:00	2021-01-09T00:24:29+00:00	2021-01-13T07:59:59+00:00	-4	5hlcznw1x2fvdhf@marketplace.amazon.com	Nicole Ortiz	+1 213-442-1463 ext. 05244	ABM022	Delivery by Tuesday, January 12 Purple Extravagance Bouquet by Arabella Bouquets	1	0	1	Expedited	Gloria Silva	2187 SUNNY VISTA DR			SAN JOSE	CA	95128-1256	US			false		
111-8403030-1772210	03364835513914	2021-01-09T00:23:51+00:00	2021-01-08T16:23:51-08:00	2021-01-09T00:42:45+00:00	2021-01-13T07:59:59+00:00	-4	y8vktc6ffz8nq8m@marketplace.amazon.com	Deborah Frey	+1 415-419-8616 ext. 21003	ABM022	Delivery by Tuesday, January 12 Purple Extravagance Bouquet by Arabella Bouquets	1	0	1	Expedited	Susan D. Brungardt	2900 N COUNTRY ROAD 600 W			NORTH VERNON	IN	47265-5814	US		Happy New Year! From Roy & Deb	false		
111-8899736-6677842	57657772863714	2021-01-09T00:51:51+00:00	2021-01-08T16:51:51-08:00	2021-01-09T01:11:05+00:00	2021-01-13T07:59:59+00:00	-4	pfg7ztdbpqqkj27@marketplace.amazon.com	vanessa hardy	+1 763-225-9463 ext. 40602	ABM020	Delivery by Tuesday, January 12 Sunset Bouquet by Arabella Bouquets	1	0	1	Expedited	Michelle Porter	2510 COPPERFIELD DR			SANTA ROSA	CA	95401-4918	US		Message:Edit  Wishing you the happiest birthday this new year 2021. We wish you all the best with all the joy this month brings you. From Your Guam family	false		
114-5013119-2707415	37349361626426	2021-01-09T00:55:12+00:00	2021-01-08T16:55:12-08:00	2021-01-09T01:22:21+00:00	2021-01-13T07:59:59+00:00	-4	yrgz0qw0vk8n4vv@marketplace.amazon.com	Sarah Eisenhut	+1 763-225-9463 ext. 59719	ABR0066	Delivery by Tuesday, January 12 Dozen White Roses in a Free Vase by Arabella Bouquets	1	0	1	Expedited	Stacey Lanz	5007 W LEWIS AVE			PHOENIX	AZ	85035-2026	US			false		
111-2504396-5657849	20487991716490	2021-01-08T01:05:10+00:00	2021-01-07T17:05:10-08:00	2021-01-09T01:34:59+00:00	2021-01-13T07:59:59+00:00	-4	lf9mqrfvbk93xtc@marketplace.amazon.com	Jane Mi	+1 213-442-1463 ext. 14988	ABM020	Delivery by Monday, January 11 Sunset Bouquet by Arabella Bouquets	1	0	1	Standard	Sophie Xu	509 29TH ST			SAN FRANCISCO	CA	94131-2221	US			false		
111-0954633-0695426	31830150568506	2021-01-09T01:15:15+00:00	2021-01-08T17:15:15-08:00	2021-01-09T01:40:13+00:00	2021-01-13T07:59:59+00:00	-4	xkm1cttvms2nnz7@marketplace.amazon.com	Mike Podrazhansky	+1 602-671-6610 ext. 13407	ABR0066	Delivery by Tuesday, January 12 Dozen White Roses in a Free Vase by Arabella Bouquets	1	0	1	Expedited	Dr and Mrs Charles A Meyer Jr	4275 OWENS RD APT 107			EVANS	GA	30809-3064	US		In loving memory of Liz From Katherine & Mike	false		
111-5292950-6849864	66668154139994	2021-01-09T01:19:31+00:00	2021-01-08T17:19:31-08:00	2021-01-09T01:50:03+00:00	2021-01-13T07:59:59+00:00	-4	kp7df29sw6tl500@marketplace.amazon.com	liz flinders	+1 213-442-1463 ext. 90086	ABR0033	Delivery by Tuesday, January 12 Dozen Orange Roses in a Free Vase by Arabella Bouquets	1	0	1	Expedited	Elizabeth flinders	135 ASHLEY LN			CORRYTON	TN	37721-5003	US			false		
114-5078852-5749009	23512842841410	2021-01-09T01:26:42+00:00	2021-01-08T17:26:42-08:00	2021-01-09T01:54:59+00:00	2021-01-13T07:59:59+00:00	-4	9xtmdlp7ktym7w0@marketplace.amazon.com	carol foley	+1 213-442-1463 ext. 95987	ABR0022	Delivery by Tuesday, January 12 Dozen Pink Roses with a Free Vase by Arabella Bouquets	1	0	1	Expedited	Kathie Dimarco	36 ARTHER ST			GREENWICH	CT	06831-5107	US		Happy 65th ! From Carol and Jack	false		
112-4368293-9808252	67980109587522	2021-01-09T02:27:25+00:00	2021-01-08T18:27:25-08:00	2021-01-09T02:49:25+00:00	2021-01-13T07:59:59+00:00	-4	2289nl0jhqqt51j@marketplace.amazon.com	john	+1 213-442-1463 ext. 17994	ABR0022	Delivery by Tuesday, January 12 Dozen Pink Roses with a Free Vase by Arabella Bouquets	1	0	1	Expedited	Stephanie Hilliard	2049 ESTES LN APT 11			LONGMONT	CO	80501-1971	US		And this is a present for the sweet lady who lives here. I miss you and look forward to seeing you soon. I'm thinking of you From John	false		
114-6913362-5825001	23135263175546	2021-01-09T03:34:23+00:00	2021-01-08T19:34:23-08:00	2021-01-09T04:02:10+00:00	2021-01-13T07:59:59+00:00	-4	zt49bhqv7lb46sf@marketplace.amazon.com	Kara Marie Danielsen	+1 213-442-1463 ext. 14458	ABM017	Delivery by Tuesday, January 12, Blue Dendrobium Orchids 10 Stems in a Free Designer Glass Vase by Arabella Bouquets	1	0	1	Expedited	Jamie Reid	247 NEVADA ST			REDWOOD CITY	CA	94062-2135	US		Jaime just wanted you to know that Im thinking of you, BFF !!! From Kara Marie Danielsen	false		
114-8711789-6046655	48672524233418	2021-01-09T04:19:21+00:00	2021-01-08T20:19:21-08:00	2021-01-09T04:43:43+00:00	2021-01-13T07:59:59+00:00	-4	cv2czcqb213m1bd@marketplace.amazon.com	Roy T.Young	+1 763-225-9463 ext. 85935	ABM020	Delivery by Tuesday, January 12 Sunset Bouquet by Arabella Bouquets	1	0	1	Expedited	Doreen Wheelock	3191 PORTER LN			VENTURA	CA	93003-4816	US		Dear Doreen, Sorry to hear the passing of your beloved Bella. She was a Great Dog and wonderful companion. You gave her a good home with lots of love and Care. We have fond memories of her while visiting. Love Roy & Kristen From Roy T.Young	false		
112-3061617-6663453	10643784578402	2021-01-09T04:58:54+00:00	2021-01-08T20:58:54-08:00	2021-01-09T05:22:40+00:00	2021-01-13T07:59:59+00:00	-4	cc9b5tmqdbz175p@marketplace.amazon.com	Fred L Kemp	+1 415-419-8616 ext. 29296	ABM022	Delivery by Tuesday, January 12 Purple Extravagance Bouquet by Arabella Bouquets	1	0	1	Expedited	Don and Joyce Walters	2342 Tavern Road			Alpine	Ca	91901	US		We love you guys and pray that God will give comfort. We are here for you. Love, Joan & Fred From Fred & Joan	false		
113-9145118-2016266	34294178109018	2021-01-09T05:37:40+00:00	2021-01-08T21:37:40-08:00	2021-01-09T06:07:22+00:00	2021-01-13T07:59:59+00:00	-4	cdsldqy983s6crc@marketplace.amazon.com	Kim	+1 346-307-9643 ext. 96336	ABR0022	Delivery by Tuesday, January 12 Dozen Pink Roses with a Free Vase by Arabella Bouquets	1	0	1	Standard	Annette Lazar	8711 JACKSON ST			PHILADELPHIA	PA	19136-2131	US		Happy Birthday Mom! From Kim, Sean, ella and Sj	false		
114-3890500-6079456	12928187550938	2021-01-09T05:43:41+00:00	2021-01-08T21:43:41-08:00	2021-01-09T06:09:27+00:00	2021-01-13T07:59:59+00:00	-4	9105mwdhf3z7b15@marketplace.amazon.com	Seta Timbreza	+1 619-854-2705 ext. 40216	ABM010	Delivery by Tuesday, January 12 Everlasting Fling with a Free Glass Vase by Arabella Bouquets	1	0	1	Expedited	Connie Brenner	1317 OAKBURN DR			WALNUT	CA	91789-3433	US		Dear Connie, Sending our love and continuing to keep you in our prayers.  We will always remember Terry in our hearts. Blessings, Seta & Chris From Seta Timbreza	false		
113-8203245-9481844	34743201035090	2021-01-09T05:47:49+00:00	2021-01-08T21:47:49-08:00	2021-01-09T06:15:13+00:00	2021-01-13T07:59:59+00:00	-4	3sy4p6vk8k5b805@marketplace.amazon.com	L. Morris	+1 213-442-1463 ext. 10366	ABR001	Delivery by Tuesday, January 12 Dozen Red Roses in a Free Vase by Arabella Bouquets	1	0	1	Expedited	Mrs. John Morris	51 MACSPAR DR			RANDOLPH	NJ	07869-1313	US		Enjoy your Happy Birthday your gift! From L. Morris	false		
111-7697142-6112253	23203314593114	2021-01-09T05:53:46+00:00	2021-01-08T21:53:46-08:00	2021-01-09T06:21:32+00:00	2021-01-13T07:59:59+00:00	-4	6lsds6n2rxq8fmt@marketplace.amazon.com	John M. Sheehy	+1 213-442-1463 ext. 18627	ABR001	Delivery by Tuesday, January 12 Dozen Red Roses in a Free Vase by Arabella Bouquets	1	0	1	Expedited	Paulette and Skip Busam	5479 Bunker Hill Rd.			Milford	Ohio	45150	US		I love you. Henry From John M. Sheehy	false		
112-3869578-4912231	38780007226930	2021-01-09T06:28:28+00:00	2021-01-08T22:28:28-08:00	2021-01-09T06:57:49+00:00	2021-01-13T07:59:59+00:00	-4	rfjh9gxc4hxld6g@marketplace.amazon.com	Chima Q Manuel	+1 415-851-9136 ext. 42954	ABR0022	Delivery by Tuesday, January 12 Dozen Pink Roses with a Free Vase by Arabella Bouquets	1	0	1	Expedited	Onu Stevens	469 PINE ST			PROVIDENCE	RI	02907-1346	US			false		
114-7470862-2192234	44166253070146	2021-01-09T06:39:55+00:00	2021-01-08T22:39:55-08:00	2021-01-09T07:06:55+00:00	2021-01-13T07:59:59+00:00	-4	nyt1h77h6ryk2r6@marketplace.amazon.com	John Nadraus	+1 415-419-8616 ext. 54357	ABM010	Delivery by Tuesday, January 12 Everlasting Fling with a Free Glass Vase by Arabella Bouquets	1	0	1	Expedited	Rosemarie Polidora	9 SYLVESTER CT			ROCKY POINT	NY	11778-7902	US		Happy Birthday Roe !! From Love, John and Barbara	false		
112-0363475-5378642	31067512637666	2021-01-09T07:08:53+00:00	2021-01-08T23:08:53-08:00	2021-01-09T07:34:20+00:00	2021-01-13T07:59:59+00:00	-4	p63whlnw55c1w6b@marketplace.amazon.com	katie	+1 763-225-9463 ext. 77346	ABM010	Delivery by Tuesday, January 12 Everlasting Fling with a Free Glass Vase by Arabella Bouquets	1	0	1	Expedited	Judy Thomas	3414 WINDWOOD PL NE			OLYMPIA	WA	98506-3681	US		We love you Grandma, and Andrea. Thank you for the games Grandma, we love them! From Peyton, Piper and Aaliyah	false		
111-2020296-7736201	01056373109674	2021-01-09T08:45:52+00:00	2021-01-09T00:45:52-08:00	2021-01-09T09:16:00+00:00	2021-01-13T07:59:59+00:00	-4	hmrvpb1rykxp2lv@marketplace.amazon.com	Frosted Rose	+1 602-671-6610 ext. 51230	ABM020	Delivery by Tuesday, January 12 Sunset Bouquet by Arabella Bouquets	1	0	1	Expedited	Megan Barrett	330 NE AUTUMN ROSE WAY APT F			HILLSBORO	OR	97124-5319	US			false		
112-4943801-6516246	27649147462682	2021-01-09T08:54:05+00:00	2021-01-09T00:54:05-08:00	2021-01-09T09:46:22+00:00	2021-01-13T07:59:59+00:00	-4	rmvnh0vtv1p8gyd@marketplace.amazon.com	demetrius parker	+1 415-851-9136 ext. 90611	ABR0022	Delivery by Tuesday, January 12 Dozen Pink Roses with a Free Vase by Arabella Bouquets	1	0	1	Expedited	Kayla Cabrera	1250 POWDER SPRINGS ST APT 2223			MARIETTA	GA	30064-5271	US			false		
111-7051035-9047451	23230824240330	2021-01-09T09:24:23+00:00	2021-01-09T01:24:23-08:00	2021-01-09T09:51:08+00:00	2021-01-13T07:59:59+00:00	-4	0jv0mpx2g6wnvl6@marketplace.amazon.com	RGL	+1 415-419-8616 ext. 14833	ABM017	Delivery by Tuesday, January 12, Blue Dendrobium Orchids 10 Stems in a Free Designer Glass Vase by Arabella Bouquets	1	0	1	Expedited	Mary Carstens	2403 North Michagan ave			Davenport	Iowa	52804	US		HAPPY BIRTHDAY TO MY FAVORITE MOM. LOVE YOU BUNCHES. From RYan and your favorite daughter.	false		
114-0540324-8652201	28684860284338	2021-01-09T11:01:48+00:00	2021-01-09T03:01:48-08:00	2021-01-09T11:30:38+00:00	2021-01-13T07:59:59+00:00	-4	2p4ysn8tt84fyn0@marketplace.amazon.com	Peter Mackreth	+1 346-307-9643 ext. 87753	ABM029	Delivery by Wednesday, January 13 Day Dream Bouquet by Arabella Bouquets	1	0	1	Expedited	Doug Coupe	56 KERSHAW DR			BLUFFTON	SC	29910-4836	US		Happy Belated Birthday Mimi!  Hope you had a lovely day.  Miss you From Kacy, Pete, Aus & Kenz	false		
114-0759092-9421025	22539496686618	2021-01-09T13:25:25+00:00	2021-01-09T05:25:25-08:00	2021-01-09T13:51:24+00:00	2021-01-13T07:59:59+00:00	-4	jzl1600ytn5q6nr@marketplace.amazon.com	Kimberly Barker	+1 415-851-9136 ext. 48032	ABM022	Delivery by Wednesday, January 13 Purple Extravagance Bouquet by Arabella Bouquets	1	0	1	Expedited	Paula Driscoll	1905 CONNELLY RD			BAYTOWN	TX	77521-9637	US		Happy Birthday!  We love you! From Kim and Michael	false		
112-2058559-8796247	66018293308362	2021-01-09T13:34:50+00:00	2021-01-09T05:34:50-08:00	2021-01-09T13:54:32+00:00	2021-01-13T07:59:59+00:00	-4	d2q2gnymwbkh46z@marketplace.amazon.com	Loretta L Davis	+1 619-854-2705 ext. 41069	ABM0033	Delivery by Wednesday, January 13 White Hydrangea 5 Stems with a Free Glass Vase by Arabella Bouquets	1	0	1	Expedited	Judy Nerbonne Room 401	PEASE INTERNATIONAL TRANSPORT	105 CORPORATE DR		PORTSMOUTH	NH	03801-6825	US		Thinking of you and wishing you a speedy recovery. Even if it is speedy it will seem slow to you. Thinking of you and hope all goes well. Love, Loretta From Loretta L Davis	false		
113-7803100-8733857	47007371013754	2021-01-09T05:39:42+00:00	2021-01-08T21:39:42-08:00	2021-01-09T14:04:42+00:00	2021-01-13T07:59:59+00:00	-4	31zvqs76sxdz4cp@marketplace.amazon.com	Taniya	+1 415-419-8616 ext. 75309	ABR001	Delivery by Tuesday, January 12 Dozen Red Roses in a Free Vase by Arabella Bouquets	1	0	1	Expedited	Taniya	9104 PINEDALE ST APT 4			NORFOLK	VA	23503-3614	US		Happy birthday mommy love you always. From Your daughter Taniya	false		
111-9173127-2313065	02681154069154	2021-01-09T13:49:45+00:00	2021-01-09T05:49:45-08:00	2021-01-09T14:19:31+00:00	2021-01-13T07:59:59+00:00	-4	1nn3dyp40sbdjwk@marketplace.amazon.com	Jay Kyte	+1 415-851-9136 ext. 99279	ABM022	Delivery by Wednesday, January 13 Purple Extravagance Bouquet by Arabella Bouquets	1	0	1	Expedited	Missy Steinke	3796 BRIDLE RIDGE CT			SEVERANCE	CO	80524-8644	US		Happy birthday my wonderful friend! From Katie	false		
111-9577181-5491440	01733527077642	2021-01-09T14:29:18+00:00	2021-01-09T06:29:18-08:00	2021-01-09T14:30:14+00:00	2021-01-12T07:59:59+00:00	-3	l2rq01g2txgbc22@marketplace.amazon.com	PST	+1 619-854-2705 ext. 92333	ABR0055	Delivery by Wednesday, January 13 Dozen Hot Pink Roses in a Free Vase by Arabella Bouquets	1	0	1	SecondDay	Susan Mangano	Suburban Village C-2	Belvidere Avenue		Wanaque	NJ	07465	US		Happy 70th! May your day be filled with love, happiness and great music that makes you want to dance. Love, Phyllis & Conrad From PST	false		
113-0378421-1727436	52086520365578	2021-01-09T14:15:08+00:00	2021-01-09T06:15:08-08:00	2021-01-09T14:43:21+00:00	2021-01-13T07:59:59+00:00	-4	hbyhxdd4wkst3vg@marketplace.amazon.com	Nyla Estrada	+1 415-851-9136 ext. 00986	ABC002	Delivery by Wednesday, January 13 Warm Wishes Bouquet by Arabella Bouquets	1	0	1	Expedited	Vertell Brantley	164 W CALTHROP AVE			SYRACUSE	NY	13205-1733	US		Happy Birthday Mom/2nd Mom/ Nana We love you so much ! Roses for our roses enjoy your day young girl! From Nyla &Nique	false		
112-9664423-9737835	62939038675762	2021-01-09T14:17:50+00:00	2021-01-09T06:17:50-08:00	2021-01-09T14:43:47+00:00	2021-01-12T07:59:59+00:00	-3	qd4n8q88sj81xwy@marketplace.amazon.com	Kathleen Ann Jacobi	+1 763-225-9463 ext. 94251	ABR0022	Delivery by Wednesday, January 13 Dozen Pink Roses with a Free Vase by Arabella Bouquets	1	0	1	SecondDay	Leslie Miller	2444 BLAINE AVE SE			GRAND RAPIDS	MI	49507-3911	US		Happy Birthday, Leslie! Thinking of you on your special day! I have been blessed with our friendship these past 35 years!   I love you so much, Les! From Kathy Jacobi	false		
111-9615373-4933843	35614886985522	2021-01-09T14:16:14+00:00	2021-01-09T06:16:14-08:00	2021-01-09T14:46:27+00:00	2021-01-13T07:59:59+00:00	-4	0rn161hs1f3sc3g@marketplace.amazon.com	Kim Hawkins	+1 213-442-1463 ext. 29123	ABM010	Delivery by Wednesday, January 13 Everlasting Fling with a Free Glass Vase by Arabella Bouquets	1	0	1	Expedited	Kim Hawkins	359 BLOWING SPRINGS RD			HARTSELLE	AL	35640-7811	US			false		
112-4107040-4261802	07052308880098	2021-01-09T14:32:30+00:00	2021-01-09T06:32:30-08:00	2021-01-09T15:00:24+00:00	2021-01-13T07:59:59+00:00	-4	sw8rsjykw212pxg@marketplace.amazon.com	Ray & Maria	+1 213-442-1463 ext. 88831	ABM024	Delivery by Wednesday, January 13 Beauty of Color Bouquet by Arabella Bouquets	1	0	1	Expedited	Karen Grust	21 ADAMS ST			ISELIN	NJ	08830-1323	US		Happy 65th Birthday! Wishing you a wonderful year! Send with love & hopefully on time! From Ray & Maria	false		
114-1172709-9438636	51947552217314	2021-01-09T14:58:35+00:00	2021-01-09T06:58:35-08:00	2021-01-09T15:24:28+00:00	2021-01-13T07:59:59+00:00	-4	l6k4yr2mk3g8576@marketplace.amazon.com	rhonda	+1 415-851-9136 ext. 93552	ABM022	Delivery by Wednesday, January 13 Purple Extravagance Bouquet by Arabella Bouquets	1	0	1	Expedited	Brian and Lindsay Wingate	6077 S IOLA CT			ENGLEWOOD	CO	80111-5707	US		Thinking and praying for you and your family!! From Rhonda Madison Ben & Troy Rogers	false		
111-1339667-7386641	17663221710738	2021-01-09T14:54:26+00:00	2021-01-09T06:54:26-08:00	2021-01-09T15:24:35+00:00	2021-01-13T07:59:59+00:00	-4	cdbt3t762ypg24g@marketplace.amazon.com	Sharon S Cookman	+1 415-851-9136 ext. 45681	ABR001	Delivery by Wednesday, January 13 Dozen Red Roses in a Free Vase by Arabella Bouquets	1	0	1	Expedited	Mary Holmes	1822 RICE MILL DR			KATY	TX	77493-3025	US			false		
112-0088746-9581835	46578226557794	2021-01-09T14:55:25+00:00	2021-01-09T06:55:25-08:00	2021-01-09T15:25:00+00:00	2021-01-13T07:59:59+00:00	-4	z87ggqlff742zzk@marketplace.amazon.com	Stephanie Stephens	+1 619-854-2705 ext. 80180	ABM010	Delivery by Wednesday, January 13 Everlasting Fling with a Free Glass Vase by Arabella Bouquets	1	0	1	Expedited	Wendy Williamson	45 LANG CIR			COVINGTON	GA	30014-6141	US		Happy Birthday!  I love you! From Steph	false		
114-7848767-6881835	20094769881930	2021-01-09T15:36:24+00:00	2021-01-09T07:36:24-08:00	2021-01-09T16:04:46+00:00	2021-01-13T07:59:59+00:00	-4	dk1tr9xzhthsyb8@marketplace.amazon.com	Christina	+1 415-851-9136 ext. 41422	ABR0022	Delivery by Wednesday, January 13 Dozen Pink Roses with a Free Vase by Arabella Bouquets	1	0	1	Expedited	Helga Arthur	101 AUDUBON BLVD			NAPLES	FL	34110-4401	US		Happy happy. Birthday.  Mom.  Xo From Love Chris & Jeff	false		
112-9144686-2192200	10392872930978	2021-01-09T15:41:59+00:00	2021-01-09T07:41:59-08:00	2021-01-09T16:10:43+00:00	2021-01-13T07:59:59+00:00	-4	md98w4sdhqknlmh@marketplace.amazon.com	Nick Zaiser	+1 213-442-1463 ext. 05901	ABR0022	Delivery by Wednesday, January 13 Dozen Pink Roses with a Free Vase by Arabella Bouquets	1	0	1	Expedited	Mary C Zaiser	13596 FRANKLIN ST			THORNTON	CO	80241-1983	US		Happy birthday Mom. Love Nick and Austin From Nick them and Austin	false		
112-7665249-1771452	58949581598346	2021-01-09T15:49:16+00:00	2021-01-09T07:49:16-08:00	2021-01-09T16:15:13+00:00	2021-01-13T07:59:59+00:00	-4	2wzp5n8f6c3cfp2@marketplace.amazon.com	Alice Kelley	+1 619-854-2705 ext. 23809	ABR0066	Delivery by Wednesday, January 13 Dozen White Roses in a Free Vase by Arabella Bouquets	1	0	1	Standard	Casey Kelley	8851 COLONNADES CT W APT 121			BONITA SPRINGS	FL	34135-7879	US		Wishing you a most wonderful 25th Birthday my Sweet Girl, I Love you soo much, enjoy!  Mom From Alice Kelley	false		
112-7197008-5433029	17235377727730	2021-01-09T15:39:35+00:00	2021-01-09T07:39:35-08:00	2021-01-09T16:16:38+00:00	2021-01-13T07:59:59+00:00	-4	msht5vpng4w0wc3@marketplace.amazon.com	Anthony M. DePaoli	+1 602-671-6610 ext. 22855	ABM021	Delivery by Wednesday, January 13 Joyous Bouquet by Arabella Bouquets	1	0	1	Expedited	Debbie Parkins	2045 E INDIGO BRUSH RD			PHOENIX	AZ	85048-4341	US			false		
111-3360401-3713059	48497134938218	2021-01-09T15:51:28+00:00	2021-01-09T07:51:28-08:00	2021-01-09T16:18:52+00:00	2021-01-13T07:59:59+00:00	-4	cl4mbpcksxdp6tz@marketplace.amazon.com	Pamela Stanek	+1 619-854-2705 ext. 21474	ABM017	Delivery by Tuesday, January 12, Blue Dendrobium Orchids 10 Stems in a Free Designer Glass Vase by Arabella Bouquets	1	0	1	Expedited	Aliesa Bowman c/o Bernice Liverett	117 TEAKWOOD LN			MOORESVILLE	NC	28117-7565	US		Happy Birthday Momma 🎂 have a great day!  Love you 💕 From Pamela Stanek	false		
114-4848775-7241003	08841252394258	2021-01-09T16:00:16+00:00	2021-01-09T08:00:16-08:00	2021-01-09T16:29:50+00:00	2021-01-13T07:59:59+00:00	-4	s7pmzpcdssljtf7@marketplace.amazon.com	kara falcone	+1 415-851-9136 ext. 59142	ABR0033	Delivery by Wednesday, January 13 Dozen Orange Roses in a Free Vase by Arabella Bouquets	1	0	1	Expedited	Caileen Tierney	5 CENTRE ST			DOVER	MA	02030-2203	US		Congratulations on your new job!!!Enjoy your gift! From Love, Kara	false		
113-5774368-4377033	57450854507770	2021-01-09T16:10:23+00:00	2021-01-09T08:10:23-08:00	2021-01-09T16:36:42+00:00	2021-01-13T07:59:59+00:00	-4	2g7nqqh79x329ls@marketplace.amazon.com	Craig Carter	+1 415-851-9136 ext. 76590	ABR001	Delivery by Wednesday, January 13 Dozen Red Roses in a Free Vase by Arabella Bouquets	1	0	1	Expedited	Regina White	739 CRESTVIEW CIR BLDG 13 APT 201			IMMOKALEE	FL	34142-2649	US			false		
112-7302424-0135437	25805840069162	2021-01-09T16:25:14+00:00	2021-01-09T08:25:14-08:00	2021-01-09T16:52:12+00:00	2021-01-13T07:59:59+00:00	-4	9x4qvmf8wlmyl4k@marketplace.amazon.com	Harriett Elenniss	+1 602-671-6610 ext. 67310	ABR0033	Delivery by Wednesday, January 13 Dozen Orange Roses in a Free Vase by Arabella Bouquets	1	0	1	Expedited	Linda Folger	10303 KESWICK DR			PARMA HEIGHTS	OH	44130-2052	US		Happy Birthday dear girlfriend LLPF!! Like everything else, I think this will be late😔, but I hope will they will brighten the days following your special day, and show you the love they are intended to! xxxooo From Harriett Elenniss	false		
112-7849275-4553825	40956138521266	2021-01-09T16:30:17+00:00	2021-01-09T08:30:17-08:00	2021-01-09T16:58:05+00:00	2021-01-13T07:59:59+00:00	-4	3jqbxhlvqwcwm09@marketplace.amazon.com	Kathleen A. Schmidt	+1 415-419-8616 ext. 10655	ABR0022	Delivery by Wednesday, January 13 Dozen Pink Roses with a Free Vase by Arabella Bouquets	1	0	1	Expedited	Sarah Schmidt	18266 W INDIGO BRUSH RD			GOODYEAR	AZ	85338-3661	US		Have a Happy, Happy Birthday Sarah! Sending along lots of love to you! From Dad & Mom	false		
112-4915947-3771402	54525811217370	2021-01-09T16:33:39+00:00	2021-01-09T08:33:39-08:00	2021-01-09T17:00:44+00:00	2021-01-13T07:59:59+00:00	-4	jsh076xlffr3cfd@marketplace.amazon.com	constance m cereola	+1 346-307-9643 ext. 39821	ABM010	Delivery by Wednesday, January 13 Everlasting Fling with a Free Glass Vase by Arabella Bouquets	1	0	1	Expedited	Mrs. Dorothy Leahy	26 VALLEYWOOD RD			COMMACK	NY	11725-4309	US		Dorothy; We all hope you feel better real soon so we can go have some lobster rolls! Get Well! We miss you! Love, Connie, Marie and Paula From constance m cereola	false		
114-2937191-6894669	65496867994586	2021-01-09T16:58:49+00:00	2021-01-09T08:58:49-08:00	2021-01-09T17:00:50+00:00	2021-01-12T07:59:59+00:00	-3	346wm1mcxg1hzgr@marketplace.amazon.com	enes cicekci	+1 763-225-9463 ext. 29790	ABR001	Delivery by Wednesday, January 13 Dozen Red Roses in a Free Vase by Arabella Bouquets	1	0	1	SecondDay	Jason Herald	13065 VIRGINIA BLVD APT # 2B-2			CARMEL	IN	46032-5414	US		Miss you princess... This isn't for cherry :) I wish I was there with you, missing you lots here. You’re more than I ever dreamed of and more than I deserve. Hope to make your face smile. Your smile is my paradise... From Enes	false		
114-1865457-0036224	44908888101050	2021-01-09T16:46:02+00:00	2021-01-09T08:46:02-08:00	2021-01-09T17:16:20+00:00	2021-01-13T07:59:59+00:00	-4	80lrmlt7dq74fc7@marketplace.amazon.com	Elizabeth cano	+1 763-225-9463 ext. 26095	ABSR004	Delivery by Wednesday, January 13 White Spray Roses with a Free Glass Vase by Arabella Bouquets	1	0	1	Expedited	Elizabeth cano	1515 E JENSEN AVE APT 207			FRESNO	CA	93706-4955	US			false		
112-5312775-2838651	22741320384770	2021-01-09T17:08:21+00:00	2021-01-09T09:08:21-08:00	2021-01-09T17:37:55+00:00	2021-01-13T07:59:59+00:00	-4	3yc7hd0r5yk0dd9@marketplace.amazon.com	Walter Back	+1 602-671-6610 ext. 30522	ABM024	Delivery by Wednesday, January 13 Beauty of Color Bouquet by Arabella Bouquets	1	0	1	Expedited	Alyssa Steele	305 S ALBERTSON AVE			COVINA	CA	91723-2502	US		A beautiful flower deserves beautiful flowers - wish I could enjoy the fragrance From W	false		
114-7494272-6027418	16874672807026	2021-01-09T17:11:11+00:00	2021-01-09T09:11:11-08:00	2021-01-09T17:39:01+00:00	2021-01-13T07:59:59+00:00	-4	vs7ghfv101vrdcc@marketplace.amazon.com	patricia williams	+1 415-851-9136 ext. 34808	ABR0033	Delivery by Wednesday, January 13 Dozen Orange Roses in a Free Vase by Arabella Bouquets	1	0	1	Expedited	Jocquette blue	288 Blue Creek Dr			Harvest	Alabama	35749-9646	US		Congratulations on you anniversary, Donald and Jocquette From patricia williams	false		
111-0911547-3444257	66323175909866	2021-01-09T17:19:46+00:00	2021-01-09T09:19:46-08:00	2021-01-09T17:48:20+00:00	2021-01-13T07:59:59+00:00	-4	6dj2py04l8b8jj3@marketplace.amazon.com	Stacy Rivard	+1 602-671-6610 ext. 19690	ABR0022	Delivery by Wednesday, January 13 Dozen Pink Roses with a Free Vase by Arabella Bouquets	1	0	1	Expedited	Shirley Knarr	14 BUTTERNUT RIDGE RD			OXFORD	CT	06478-3222	US		Wishing you a very happy birthday! From Stacy and Dennis	true		Business Price
113-9566421-6812204	14349816750626	2021-01-09T17:29:31+00:00	2021-01-09T09:29:31-08:00	2021-01-09T17:53:24+00:00	2021-01-12T07:59:59+00:00	-3	6cktxmxrjn0djr0@marketplace.amazon.com	Michael Sullivan	+1 763-225-9463 ext. 60390	ABM010	Delivery by Wednesday, January 13 Everlasting Fling with a Free Glass Vase by Arabella Bouquets	1	0	1	SecondDay	David Hernandez Jr.	2623 SHADY ACRES LNDG			HOUSTON	TX	77008-7079	US		Dear David Hope you have a wonderful blessing 26th birthday, With lots of strong love and happiness, I Figured I Be the First To Surprise you on your Special Day, I Don’t Wanna Forget, Happy Birthday Sunny, Love you. From Michael Sullivan	false		
113-2416879-4728226	57037559534682	2021-01-09T17:29:45+00:00	2021-01-09T09:29:45-08:00	2021-01-09T17:55:10+00:00	2021-01-13T07:59:59+00:00	-4	x679xlby0j335h0@marketplace.amazon.com	Katherine M. Swan	+1 415-419-8616 ext. 16232	ABR0033	Delivery by Wednesday, January 13 Dozen Orange Roses in a Free Vase by Arabella Bouquets	1	0	1	Expedited	Patty Gravit	1031 THORNBURY PL			HIGHLANDS RANCH	CO	80129-6961	US		Our thoughts and hearts are with you.  We are so sorry for your loss. With love, from, Kate, Bryan, Cooper, and Jacob From Katherine M. Swan	false		
