order-id	order-item-id	purchase-date	payments-date	reporting-date	promise-date	days-past-promise	buyer-email	buyer-name	buyer-phone-number	sku	product-name	quantity-purchased	quantity-shipped	quantity-to-ship	ship-service-level	recipient-name	ship-address-1	ship-address-2	ship-address-3	ship-city	ship-state	ship-postal-code	ship-country	gift-wrap-type	gift-message-text	is-business-order	purchase-order-number	price-designation
112-8715445-3632237	20517805199242	2021-01-08T18:14:59+00:00	2021-01-08T10:14:59-08:00	2021-01-08T18:43:45+00:00	2021-01-13T07:59:59+00:00	-4	jng7xl2yszvw60h@marketplace.amazon.com	Brian B Frain SJ	+1 602-671-6610 ext. 27055	ABR0022	Delivery by Tuesday, January 12 Dozen Pink Roses with a Free Vase by Arabella Bouquets	1	0	1	Expedited	Michael Frain	807 BAYER AVE			DEPTFORD	NJ	08096-6649	US		Dear Michael And Maria, thank you very much for having me stay with you for three weeks. You were completely hospitable and most kind. Stay safe and have a wonderful new year. Love to Sasha. From Brian	false		
114-3465618-2531423	62584265391874	2021-01-08T18:15:29+00:00	2021-01-08T10:15:29-08:00	2021-01-08T18:45:07+00:00	2021-01-13T07:59:59+00:00	-4	dl57dnckb2b3gf0@marketplace.amazon.com	Victor Flatt	+1 619-854-2705 ext. 25270	ABR0022	Delivery by Tuesday, January 12 Dozen Pink Roses with a Free Vase by Arabella Bouquets	1	0	1	Expedited	Holly Barnard	439 OLD TOWNE DR			BRENTWOOD	TN	37027-4452	US		Happy New Year to my favorite niece.  Though I am thankful for all of the life that we lived in 2020, I look forward to seeing you and a better 2021.  Love you! From Victor Flatt	false		
114-9607027-2338616	17072323493930	2021-01-08T18:18:30+00:00	2021-01-08T10:18:30-08:00	2021-01-08T18:45:08+00:00	2021-01-13T07:59:59+00:00	-4	42gl2dgrhf4l74h@marketplace.amazon.com	ophelia latt	+1 415-419-8616 ext. 86373	ABR0066	Delivery by Tuesday, January 12 Dozen White Roses in a Free Vase by Arabella Bouquets	1	0	1	Expedited	Leigh Latt	15405 DES MOINES MEMORIAL DR S	APT D-302		BURIEN	WA	98148-2531	US		Leigh, Know that we are thinking of you. We’re here if you need us. Please take care of yourself From Love, Pauly, Necee and Braeden	false		
114-5027698-3864214	47949207135682	2021-01-08T18:16:19+00:00	2021-01-08T10:16:19-08:00	2021-01-08T18:46:20+00:00	2021-01-13T07:59:59+00:00	-4	0fzbn65263dzzn7@marketplace.amazon.com	Eugene Henry	+1 619-854-2705 ext. 65647	ABM022	Delivery by Monday, January 11 Purple Extravagance Bouquet by Arabella Bouquets	1	0	1	Expedited	Cynthia Freeman	450 PECK ST			KYLE	TX	78640-4257	US			false		
113-2437482-3271442	17771116253962	2021-01-08T18:22:46+00:00	2021-01-08T10:22:46-08:00	2021-01-08T18:50:04+00:00	2021-01-13T07:59:59+00:00	-4	lcvpkd8fdpxyf42@marketplace.amazon.com	Bill Flere	+1 602-671-6610 ext. 47498	ABM020	Delivery by Monday, January 11 Sunset Bouquet by Arabella Bouquets	1	0	1	Expedited	Lisa Cooke	152 BRADLEY FOSTER DR			HUNTINGTON	WV	25701-9449	US		Time for some flowers, my love! Always thinking of you! From Bill Flere	false		
113-4696945-7471410	60557903810234	2021-01-08T18:28:55+00:00	2021-01-08T10:28:55-08:00	2021-01-08T18:58:28+00:00	2021-01-13T07:59:59+00:00	-4	nx5nv8q2w8yd5zg@marketplace.amazon.com	thomas mason	+1 415-419-8616 ext. 31322	ABR0022	Delivery by Tuesday, January 12 Dozen Pink Roses with a Free Vase by Arabella Bouquets	1	0	1	Expedited	thomas mason	2016 ROB RD			HAMPTONVILLE	NC	27020-8156	US		Enjoy your gift!JUST BECAUSE I LOVE YOU 💘 ❤ From thomas mason	false		
114-7306013-3749065	32807373552378	2021-01-08T18:45:18+00:00	2021-01-08T10:45:18-08:00	2021-01-08T19:14:00+00:00	2021-01-13T07:59:59+00:00	-4	smq04yhx6mw61tv@marketplace.amazon.com	Richard S Thomas	+1 415-851-9136 ext. 36563	ABR0055	Delivery by Tuesday, January 12 Dozen Hot Pink Roses in a Free Vase by Arabella Bouquets	1	0	1	Expedited	Ann Thomas	1116 Jacque Cir			Birmingham	AL	35235-2309	US		Happy Birthday!  Love Scott, Meleigha & Daniel From Richard S Thomas	false		
111-2515399-5966624	45896416156666	2021-01-08T19:07:25+00:00	2021-01-08T11:07:25-08:00	2021-01-08T19:21:11+00:00	2021-01-13T07:59:59+00:00	-4	ld0drls2xfxp8cb@marketplace.amazon.com	Kari Charette	+1 763-225-9463 ext. 19184	ABR0022	Delivery by Tuesday, January 12 Dozen Pink Roses with a Free Vase by Arabella Bouquets	1	0	1	Expedited	Helen Sisco	1257 COUNTY ROUTE 60			ONCHIOTA	NY	12989-1811	US		Sending you positive vibes and virtual hugs!  Wishing you a speedy recovery!   Hope you're feeling better soon! From Kari, Penny, & Tracey	false		
111-0969748-4059458	23410142612114	2021-01-08T18:58:16+00:00	2021-01-08T10:58:16-08:00	2021-01-08T19:24:19+00:00	2021-01-13T07:59:59+00:00	-4	mgs3yg26916tdv5@marketplace.amazon.com	Mark	+1 602-671-6610 ext. 77451	ABM022	Delivery by Tuesday, January 12 Purple Extravagance Bouquet by Arabella Bouquets	1	0	1	Expedited	Mark Libertin and family	6229 N APPLECROSS RD			CLEVELAND	OH	44143-3726	US		We are so sorry for the loss of grandpa Nick. May the lord grant you all comfort and peace during this difficult time. He will be greatly missed! From The Goergy Family	false		
114-7688131-8360201	47072799898530	2021-01-08T19:11:48+00:00	2021-01-08T11:11:48-08:00	2021-01-08T19:31:33+00:00	2021-01-13T07:59:59+00:00	-4	s7dpyblswbfqdgl@marketplace.amazon.com	Cheryl Stathakis	+1 346-307-9643 ext. 85286	ABM017	Delivery by Tuesday, January 12, Blue Dendrobium Orchids 10 Stems in a Free Designer Glass Vase by Arabella Bouquets	1	0	1	Expedited	Emily Borchardt	6318 HEDGE LANE TER APT 201			SHAWNEE	KS	66226-4839	US		Emily: We hope these purple orchid's bring a smile to your face during this difficult time. The purple color reminded us of Linda.  We will always treasure the memories we shared together. Love & Blessings, From M,C,M,M,M Stathakis	false		
114-1330487-7998607	15098744809930	2021-01-08T19:19:48+00:00	2021-01-08T11:19:48-08:00	2021-01-08T19:44:52+00:00	2021-01-13T07:59:59+00:00	-4	6t4s56vwtryc4yq@marketplace.amazon.com	Troy Rahner	+1 213-442-1463 ext. 18328	ABM022	Delivery by Tuesday, January 12 Purple Extravagance Bouquet by Arabella Bouquets	1	0	1	Expedited	John Foland	2720 GLEN FOREST LN			PLANO	TX	75023-7906	US		Enjoy your gift! HAPPY BIRTHDAY TO MY BEAUTIFUL AND WONDERFUL MOM!  WE LOVE YOU SO VERY MUCH! From MARK AND LESLIE RAHNER	false		
113-6969048-6614653	48927286618154	2021-01-08T19:27:24+00:00	2021-01-08T11:27:24-08:00	2021-01-08T19:52:05+00:00	2021-01-12T07:59:59+00:00	-3	42gmjpps1jq9m68@marketplace.amazon.com	Ramsey Malieswski	+1 213-442-1463 ext. 51465	ABR0022	Delivery by Tuesday, January 12 Dozen Pink Roses with a Free Vase by Arabella Bouquets	1	0	1	SecondDay	Soumaya Mashni	12103 SHADOWHOLLOW DR			HOUSTON	TX	77082-8308	US		Happy Birthday Tata! Wishing you great things. Lots of Love from us to you. From Rima, Mike, Ramsey, Madelyn and Ryan	false		
114-8066397-0142638	22491018339114	2021-01-08T19:32:40+00:00	2021-01-08T11:32:40-08:00	2021-01-08T19:56:39+00:00	2021-01-13T07:59:59+00:00	-4	s7dpyblswbfqdgl@marketplace.amazon.com	Cheryl Stathakis	+1 602-671-6610 ext. 81636	ABM017	Delivery by Tuesday, January 12, Blue Dendrobium Orchids 10 Stems in a Free Designer Glass Vase by Arabella Bouquets	1	0	1	Expedited	Rachel Borchardt	8441 RENNER BLVD APT 5303			LENEXA	KS	66219-8522	US		Rachel: We hope these flowers bring a smile to your face. They reminded us of Linda because they are purple.  We will always treasure the memories we shared with her and your family.  Love & Blessings, From M,C,M,M,M Stathakis	false		
114-2871716-2314608	37861859696410	2021-01-08T19:48:47+00:00	2021-01-08T11:48:47-08:00	2021-01-08T20:04:55+00:00	2021-01-13T07:59:59+00:00	-4	y8sd624zp2q06lm@marketplace.amazon.com	VIDA	+1 602-671-6610 ext. 87927	ABM022	Delivery by Tuesday, January 12 Purple Extravagance Bouquet by Arabella Bouquets	1	0	1	Expedited	Emily Hunteman	5706 WYNONA AVE			AUSTIN	TX	78756-1128	US		Emily,  we're so sorry for your loss. Our condolences are with you and your family. You're in our thoughts. Wishing you love. From VIDA Family	false		
114-0260932-5377842	16475734084730	2021-01-08T19:37:41+00:00	2021-01-08T11:37:41-08:00	2021-01-08T20:08:04+00:00	2021-01-13T07:59:59+00:00	-4	l54cc9yjbktrrw2@marketplace.amazon.com	Toby	+1 763-225-9463 ext. 96859	ABR0022	Delivery by Tuesday, January 12 Dozen Pink Roses with a Free Vase by Arabella Bouquets	1	0	1	Expedited	Izzy Cox	20 VILLAGE GATE RD			CANTON	MA	02021-2432	US			false		
112-7334166-6094620	49724751138954	2021-01-08T19:40:34+00:00	2021-01-08T11:40:34-08:00	2021-01-08T20:08:24+00:00	2021-01-13T07:59:59+00:00	-4	15d4llkqlw05csv@marketplace.amazon.com	Glenn Brodeur	+1 213-442-1463 ext. 77113	ABR0022	Delivery by Tuesday, January 12 Dozen Pink Roses with a Free Vase by Arabella Bouquets	1	0	1	Expedited	Diane Mier	5 AUTUMN ST APT 1			WORCESTER	MA	01603-3104	US		I appreciate your friendship and support over the past year. From Love, Pauline	false		
112-9348083-4500214	64207993496114	2021-01-08T19:47:09+00:00	2021-01-08T11:47:09-08:00	2021-01-08T20:13:16+00:00	2021-01-13T07:59:59+00:00	-4	15d4llkqlw05csv@marketplace.amazon.com	Glenn Brodeur	+1 213-442-1463 ext. 68199	ABR0022	Delivery by Tuesday, January 12 Dozen Pink Roses with a Free Vase by Arabella Bouquets	1	0	1	Expedited	Elizabeth Hanlon	38 QUAIL RUN			HOLDEN	MA	01520-3705	US		I hope 2021 is a great year for you! From Love Paul & Pauline	false		
114-8373565-7288251	05108363478986	2021-01-08T19:43:06+00:00	2021-01-08T11:43:06-08:00	2021-01-08T20:13:19+00:00	2021-01-13T07:59:59+00:00	-4	5gtfwtqgzh84n6s@marketplace.amazon.com	Joseph Garcia	+1 763-225-9463 ext. 51298	ABR0022	Delivery by Tuesday, January 12 Dozen Pink Roses with a Free Vase by Arabella Bouquets	1	0	1	Expedited	Joseph Garcia	2319 ELM FALLS PL			MESQUITE	TX	75181-2146	US			false		
114-5410879-7012237	56349896219442	2021-01-08T19:57:48+00:00	2021-01-08T11:57:48-08:00	2021-01-08T20:25:16+00:00	2021-01-13T07:59:59+00:00	-4	q3m11t9py7cz9cg@marketplace.amazon.com	Nicole Santangeli	+1 602-671-6610 ext. 27616	ABR0066	Delivery by Tuesday, January 12 Dozen White Roses in a Free Vase by Arabella Bouquets	1	0	1	Expedited	Marilyn Corsi	360 SWITCHGRASS LOOP			LITTLE RIVER	SC	29566-8180	US		Dear Dad and Marilyn, Wishing you comfort and peace in your time of need. Bella was the sweetest dog, always a ray of light.   Love, Nicole, Rob, Lidia and Claudia From Nicole Santangeli	false		
114-2647564-4202658	67590053935522	2021-01-08T20:18:45+00:00	2021-01-08T12:18:45-08:00	2021-01-08T20:37:53+00:00	2021-01-13T07:59:59+00:00	-4	5415kg830g56dmz@marketplace.amazon.com	Juanita Duran	+1 415-851-9136 ext. 84579	ABR001	Delivery by Tuesday, January 12 Dozen Red Roses in a Free Vase by Arabella Bouquets	1	0	1	Expedited	Leonela Mota	5208 PASATIEMPO DR			SALIDA	CA	95368-9612	US			false		
112-0928691-4987430	45214963985418	2021-01-08T20:25:15+00:00	2021-01-08T12:25:15-08:00	2021-01-08T20:50:15+00:00	2021-01-13T07:59:59+00:00	-4	4ffbykhhddwgykh@marketplace.amazon.com	Corey Johnson	+1 602-671-6610 ext. 54464	ABR0022	Delivery by Tuesday, January 12 Dozen Pink Roses with a Free Vase by Arabella Bouquets	1	0	1	Expedited	Nazrah	5887 OLD BILL COOK RD			COLLEGE PARK	GA	30349-3729	US		I hope these flowers bring a smile to your face like the one you gave us when you delivered Heka From Corey and Nubia	false		
111-0797050-1847446	34677440760002	2021-01-08T20:22:25+00:00	2021-01-08T12:22:25-08:00	2021-01-08T20:51:27+00:00	2021-01-13T07:59:59+00:00	-4	vgfbfkr48626pmy@marketplace.amazon.com	Tiffany Ritcey	+1 415-419-8616 ext. 68008	ABR0022	Delivery by Tuesday, January 12 Dozen Pink Roses with a Free Vase by Arabella Bouquets	1	0	1	Expedited	Jill Galli	8 LAKEVIEW CT			HUNTINGTON	NY	11743-3944	US		Dear Jill,  Wishing you a speedy recovery! Sending lots of love!  Love, Tiff From Tiffany Ritcey	false		
113-9719916-9920240	66988716523178	2021-01-08T20:35:09+00:00	2021-01-08T12:35:09-08:00	2021-01-08T21:02:04+00:00	2021-01-13T07:59:59+00:00	-4	bykcdjtwp4g55w3@marketplace.amazon.com	Olivia Mitchell	+1 602-671-6610 ext. 30011	ABM010	Delivery by Tuesday, January 12 Everlasting Fling with a Free Glass Vase by Arabella Bouquets	1	0	1	Standard	Auntie Jill Henton	6755 S BELLAIRE WAY			CENTENNIAL	CO	80122-2122	US		Hope you have  FABULOUS Birthday Auntie!! ❤️❤️❤️❤️❤️❤️❤️❤️❤️❤️ I love you ohhhh so much!! From Livy	false		
114-5235511-7057000	43276753596106	2021-01-08T20:42:51+00:00	2021-01-08T12:42:51-08:00	2021-01-08T21:07:16+00:00	2021-01-13T07:59:59+00:00	-4	sp02jx0d7f6655f@marketplace.amazon.com	shawn Kadivar	+1 346-307-9643 ext. 25525	ABR0022	Delivery by Tuesday, January 12 Dozen Pink Roses with a Free Vase by Arabella Bouquets	1	0	1	Expedited	Behgol and Bahram Dabiri	260 1ST ST APT D13			MINEOLA	NY	11501-2373	US			false		
114-8251819-9443463	58506933256666	2021-01-08T20:45:51+00:00	2021-01-08T12:45:51-08:00	2021-01-08T21:08:31+00:00	2021-01-13T07:59:59+00:00	-4	l6pvtryy8sv7snq@marketplace.amazon.com	Pamela D. Olesen	+1 619-854-2705 ext. 90502	ABR0066	Delivery by Tuesday, January 12 Dozen White Roses in a Free Vase by Arabella Bouquets	1	0	1	Standard	Lisa Coppege	72 IRA BLAND APT 9 BUILDING B			SULLIVAN	MO	63080-2375	US		Happy Birthday Daisy!! Much love,  David ( & his sister Pam) From Pam & David	false		
113-3410259-7775427	47315076003250	2021-01-08T20:48:19+00:00	2021-01-08T12:48:19-08:00	2021-01-08T21:13:36+00:00	2021-01-13T07:59:59+00:00	-4	dcprmky15qxx5w2@marketplace.amazon.com	Elizabeth Trousdell	+1 415-851-9136 ext. 01219	ABR0033	Delivery by Tuesday, January 12 Dozen Orange Roses in a Free Vase by Arabella Bouquets	1	0	1	Expedited	Vivian and Bruce Trousdell	41 SOUNDVIEW RD			HUNTINGTON	NY	11743-4106	US		Dear Vivian and Bruce!  A heartfelt congratulations on your Anniversary!  I look forward to seeing you soon!  Love, Bets From Elizabeth Trousdell	false		
113-4807434-4837039	51419403196834	2021-01-08T21:44:54+00:00	2021-01-08T13:44:54-08:00	2021-01-08T22:13:33+00:00	2021-01-13T07:59:59+00:00	-4	nyxcy8gthlsdnzz@marketplace.amazon.com	Elaine DeRigo	+1 415-419-8616 ext. 67632	ABM022	Delivery by Tuesday, January 12 Purple Extravagance Bouquet by Arabella Bouquets	1	0	1	Expedited	Lucy Jones	245 BLACK HALL RD			EPSOM	NH	03234-4341	US		Dear Mom,  A little something to brighten your day.  We love and miss you! Love, Lainie and Tom From Elaine DeRigo	false		
114-3231148-2372266	51844280436570	2021-01-08T21:53:47+00:00	2021-01-08T13:53:47-08:00	2021-01-08T22:16:23+00:00	2021-01-13T07:59:59+00:00	-4	fz73v0fkrjv3nct@marketplace.amazon.com	Ricardo Emilio Hernández, BM #1-08842	+1 415-419-8616 ext. 30318	ABR001	Delivery by Tuesday, January 12 Dozen Red Roses in a Free Vase by Arabella Bouquets	1	0	1	Expedited	Johanny Lapaix	1406 OGDEN AVE AP 51			BRONX	NY	10452-2337	US		¡Mucha salud y felicidad para ti, desearía estar cerca para poder ayudar en algo, en lo que sea! Ojalá puedas disfrutar de tu cumpleaños a pesar de todo. Besos y abrazos! De Ricardo Emilio Hernández, BM #1-08842	false		
111-8082715-5889002	33460227851946	2021-01-08T21:54:13+00:00	2021-01-08T13:54:13-08:00	2021-01-08T22:21:35+00:00	2021-01-13T07:59:59+00:00	-4	xmlhsy4zp4w625m@marketplace.amazon.com	Pam Hollenhorst	+1 415-419-8616 ext. 42342	ABR0022	Delivery by Tuesday, January 12 Dozen Pink Roses with a Free Vase by Arabella Bouquets	1	0	1	Expedited	Mark and Maryellen Barton	1602 ADRIAN ST			PORT CHARLOTTE	FL	33952-4423	US		Dear Mark and MaryEllen, we are very sad to learn of Gert’s passing. She was a lovely lady and we enjoyed seeing at the holidays. The apple didn’t fall too far. Looking forward to a post-vax gathering in 2021. Love, John and Pam	false		
114-4092628-8500204	50154314314578	2021-01-08T22:14:17+00:00	2021-01-08T14:14:17-08:00	2021-01-08T22:42:05+00:00	2021-01-13T07:59:59+00:00	-4	rdf2ddpvyqhdgsr@marketplace.amazon.com	A M Mount	+1 602-671-6610 ext. 28827	ABM022	Delivery by Tuesday, January 12 Purple Extravagance Bouquet by Arabella Bouquets	1	0	1	Expedited	Jane Mount	39 KILLIAN WAY			RANCHO MIRAGE	CA	92270-1639	US		Happy Birthday Jane We are thinking of you Love Miles and Felicity	false		
111-4399091-9570617	24912889219242	2021-01-08T22:25:23+00:00	2021-01-08T14:25:23-08:00	2021-01-08T22:49:59+00:00	2021-01-13T07:59:59+00:00	-4	2w1452m9ryxvhsj@marketplace.amazon.com	Felicia Lucas	+1 619-854-2705 ext. 12990	ABR0022	Delivery by Tuesday, January 12 Dozen Pink Roses with a Free Vase by Arabella Bouquets	1	0	1	Expedited	Jo-Anne Clemons	3888 IVY RD			GREENVILLE	NC	27858-8286	US		Congratulations on your Retirement!  We are so excited for you! We love you! From Kelvin, Felicia, Isaiah, Kelsey and Silas	false		
113-3757284-7225811	51489695884026	2021-01-08T22:39:12+00:00	2021-01-08T14:39:12-08:00	2021-01-08T23:01:28+00:00	2021-01-13T07:59:59+00:00	-4	lbvw176kqd022b7@marketplace.amazon.com	Bobbi Stevens	+1 346-307-9643 ext. 63755	ABM020	Delivery by Tuesday, January 12 Sunset Bouquet by Arabella Bouquets	1	0	1	Expedited	Bobbi Stevens	4403 Robinwood Ave			Royal Oak	MI	48073	US		Hi, Feel better soon! From Bobbi & Bill Stevens	false		
113-0349310-2083433	36437606501338	2021-01-08T22:45:19+00:00	2021-01-08T14:45:19-08:00	2021-01-08T23:05:20+00:00	2021-01-13T07:59:59+00:00	-4	sy3rrl6x0qcpxhk@marketplace.amazon.com	Patricia W. Campbell	+1 415-419-8616 ext. 83340	ABR0033	Delivery by Tuesday, January 12 Dozen Orange Roses in a Free Vase by Arabella Bouquets	1	0	1	Expedited	Maureen Brown	107 HAWLEY AVE			PORT CHESTER	NY	10573-2207	US			false		
112-0085879-0622625	64142199993506	2021-01-08T23:08:00+00:00	2021-01-08T15:08:00-08:00	2021-01-08T23:11:53+00:00	2021-01-13T07:59:59+00:00	-4	6ywfy66hhgm8cgl@marketplace.amazon.com	Leslie Anway	+1 213-442-1463 ext. 74069	ABM022	Delivery by Tuesday, January 12 Purple Extravagance Bouquet by Arabella Bouquets	1	0	1	Expedited	Sharon Stratton	1038 ASPEN ST			LONGMONT	CO	80501-4309	US		Just sending you a little cheer, love, and our best healing thoughts and prayers. Hope you're feeling better very soon. Love you lots, Leslie, Randy, and the whole Anway family (including little Eléa!).	false		
112-0292926-9282605	56587490606962	2021-01-08T22:50:24+00:00	2021-01-08T14:50:24-08:00	2021-01-08T23:13:34+00:00	2021-01-13T07:59:59+00:00	-4	nqqx4z942vr6b1v@marketplace.amazon.com	amelia s. Gewirtz	+1 415-851-9136 ext. 30037	ABM017	Delivery by Tuesday, January 12, Blue Dendrobium Orchids 10 Stems in a Free Designer Glass Vase by Arabella Bouquets	1	0	1	Standard	Arlyne Diamond	1123 LOOKING GLASS BLVD			MONTGOMERY	TX	77356-6001	US		Dear Aunt Arlyne! Enjoy some happy blue on your birthday week! Congratulations on your new home enjoy your special day! xoxoxo sending lots of love Amelia Harold & Adam From Amelia Harold & Adam	false		
114-5356625-8224236	64070175157834	2021-01-08T22:51:50+00:00	2021-01-08T14:51:50-08:00	2021-01-08T23:19:50+00:00	2021-01-13T07:59:59+00:00	-4	s8l92x3rjn378mb@marketplace.amazon.com	Marty Jo Koch	+1 415-419-8616 ext. 44745	ABM020	Delivery by Tuesday, January 12 Sunset Bouquet by Arabella Bouquets	1	0	1	Expedited	Fouzia Syed	107 MATLOCK MEADOW DR			ARLINGTON	TX	76002-3347	US		Fouzia, Your whole family is in our thoughts and prayers. We love you friend. From Lashana, MJ, and Tonya	false		
112-0722276-0433815	41909625709250	2021-01-08T22:51:25+00:00	2021-01-08T14:51:25-08:00	2021-01-08T23:19:57+00:00	2021-01-13T07:59:59+00:00	-4	nbz594tfry64nwc@marketplace.amazon.com	Drew Matthews	+1 602-671-6610 ext. 90713	ABM020	Delivery by Tuesday, January 12 Sunset Bouquet by Arabella Bouquets	1	0	1	Expedited	Shelby Elizabeth Moore	3670 ARMITAGE ST			SAN DIEGO	CA	92117-1014	US		I hope this got there on time. If not, Happy Birthday Shelby! Love, Drew From Drew Matthews	false		
113-3726268-6939408	33943490541162	2021-01-08T23:05:53+00:00	2021-01-08T15:05:53-08:00	2021-01-08T23:35:12+00:00	2021-01-13T07:59:59+00:00	-4	gv3t9yz9rk0qc7z@marketplace.amazon.com	Carol Reinhardt	+1 213-442-1463 ext. 36916	ABR0033	Delivery by Tuesday, January 12 Dozen Orange Roses in a Free Vase by Arabella Bouquets	1	0	1	Expedited	Carol Reinhardt	1720 ASKAM LN			LOS ALTOS	CA	94024-7268	US			false		
111-5275772-4579443	31716850549538	2021-01-08T23:35:55+00:00	2021-01-08T15:35:55-08:00	2021-01-09T00:05:41+00:00	2021-01-13T07:59:59+00:00	-4	4sm01skt6t7j4tg@marketplace.amazon.com	Linda Kerberg	+1 415-419-8616 ext. 87565	ABM022	Delivery by Tuesday, January 12 Purple Extravagance Bouquet by Arabella Bouquets	1	0	1	Expedited	Betty Wong	425 WHITEHALL RD			ALAMEDA	CA	94501-6141	US			false		
111-3048490-0988219	56505491678154	2021-01-08T23:43:39+00:00	2021-01-08T15:43:39-08:00	2021-01-09T00:10:47+00:00	2021-01-13T07:59:59+00:00	-4	q12yz7x0fjj8cg0@marketplace.amazon.com	Denise Rousseau	+1 415-851-9136 ext. 74434	ABM010	Delivery by Tuesday, January 12 Everlasting Fling with a Free Glass Vase by Arabella Bouquets	1	0	1	Expedited	Janice Mayer	109 PENROSE LN			TEMPLE	TX	76502-5191	US		Hope you enjoy this little reminder of Spring!! All our love and prayers, Denise and Serge From Denise and Serge Rousseau	false		
112-6508470-8001856	04300266537738	2021-01-08T23:51:07+00:00	2021-01-08T15:51:07-08:00	2021-01-09T00:17:53+00:00	2021-01-12T07:59:59+00:00	-3	h7p0k3ltmjxxb0v@marketplace.amazon.com	Robin Taylor-Pisci	+1 602-671-6610 ext. 66430	ABR0055	Delivery by Tuesday, January 12 Dozen Hot Pink Roses in a Free Vase by Arabella Bouquets	1	0	1	SecondDay	Hope Wescoatt	107 E VILLAGE TER # 118			WOODLAND PARK	CO	80863-7008	US		Happy birthday!  Hope you have a very special day.  From:  your nieces the “Taylor Girls” From Perri, Robin, Holly, and Lisa	false		
111-2324485-3944209	01316376177474	2021-01-08T23:52:45+00:00	2021-01-08T15:52:45-08:00	2021-01-09T00:21:34+00:00	2021-01-13T07:59:59+00:00	-4	xgg4mslb4zcgr99@marketplace.amazon.com	al duffy	+1 763-225-9463 ext. 05137	ABM020	Delivery by Tuesday, January 12 Sunset Bouquet by Arabella Bouquets	1	0	1	Expedited	Ainsley Duffy	244 EAGLE RDG			FORNEY	TX	75126-5187	US		Get well soon   Love Cardo From al duffy	false		
113-4537637-2016242	03567902734690	2021-01-08T23:55:32+00:00	2021-01-08T15:55:32-08:00	2021-01-09T00:24:02+00:00	2021-01-13T07:59:59+00:00	-4	fn2sf5yn4l3jzh8@marketplace.amazon.com	Edward DeCarbo	+1 415-851-9136 ext. 27343	ABR0033	Delivery by Tuesday, January 12 Dozen Orange Roses in a Free Vase by Arabella Bouquets	1	0	1	Expedited	Vanessa DeCarbo	314 E 206TH ST APT B			BRONX	NY	10467-4094	US		Happy Birthday From Dad	false		
113-8301965-7421022	67202277571850	2021-01-09T00:02:12+00:00	2021-01-08T16:02:12-08:00	2021-01-09T00:24:29+00:00	2021-01-13T07:59:59+00:00	-4	5hlcznw1x2fvdhf@marketplace.amazon.com	Nicole Ortiz	+1 213-442-1463 ext. 05244	ABM022	Delivery by Tuesday, January 12 Purple Extravagance Bouquet by Arabella Bouquets	1	0	1	Expedited	Gloria Silva	2187 SUNNY VISTA DR			SAN JOSE	CA	95128-1256	US			false		
111-8403030-1772210	03364835513914	2021-01-09T00:23:51+00:00	2021-01-08T16:23:51-08:00	2021-01-09T00:42:45+00:00	2021-01-13T07:59:59+00:00	-4	y8vktc6ffz8nq8m@marketplace.amazon.com	Deborah Frey	+1 415-419-8616 ext. 21003	ABM022	Delivery by Tuesday, January 12 Purple Extravagance Bouquet by Arabella Bouquets	1	0	1	Expedited	Susan D. Brungardt	2900 N COUNTRY ROAD 600 W			NORTH VERNON	IN	47265-5814	US		Happy New Year! From Roy & Deb	false		
111-8899736-6677842	57657772863714	2021-01-09T00:51:51+00:00	2021-01-08T16:51:51-08:00	2021-01-09T01:11:05+00:00	2021-01-13T07:59:59+00:00	-4	pfg7ztdbpqqkj27@marketplace.amazon.com	vanessa hardy	+1 763-225-9463 ext. 40602	ABM020	Delivery by Tuesday, January 12 Sunset Bouquet by Arabella Bouquets	1	0	1	Expedited	Michelle Porter	2510 COPPERFIELD DR			SANTA ROSA	CA	95401-4918	US		Message:Edit  Wishing you the happiest birthday this new year 2021. We wish you all the best with all the joy this month brings you. From Your Guam family	false		
114-5013119-2707415	37349361626426	2021-01-09T00:55:12+00:00	2021-01-08T16:55:12-08:00	2021-01-09T01:22:21+00:00	2021-01-13T07:59:59+00:00	-4	yrgz0qw0vk8n4vv@marketplace.amazon.com	Sarah Eisenhut	+1 763-225-9463 ext. 59719	ABR0066	Delivery by Tuesday, January 12 Dozen White Roses in a Free Vase by Arabella Bouquets	1	0	1	Expedited	Stacey Lanz	5007 W LEWIS AVE			PHOENIX	AZ	85035-2026	US			false		
111-2504396-5657849	20487991716490	2021-01-08T01:05:10+00:00	2021-01-07T17:05:10-08:00	2021-01-09T01:34:59+00:00	2021-01-13T07:59:59+00:00	-4	lf9mqrfvbk93xtc@marketplace.amazon.com	Jane Mi	+1 213-442-1463 ext. 14988	ABM020	Delivery by Monday, January 11 Sunset Bouquet by Arabella Bouquets	1	0	1	Standard	Sophie Xu	509 29TH ST			SAN FRANCISCO	CA	94131-2221	US			false		
111-0954633-0695426	31830150568506	2021-01-09T01:15:15+00:00	2021-01-08T17:15:15-08:00	2021-01-09T01:40:13+00:00	2021-01-13T07:59:59+00:00	-4	xkm1cttvms2nnz7@marketplace.amazon.com	Mike Podrazhansky	+1 602-671-6610 ext. 13407	ABR0066	Delivery by Tuesday, January 12 Dozen White Roses in a Free Vase by Arabella Bouquets	1	0	1	Expedited	Dr and Mrs Charles A Meyer Jr	4275 OWENS RD APT 107			EVANS	GA	30809-3064	US		In loving memory of Liz From Katherine & Mike	false		
111-5292950-6849864	66668154139994	2021-01-09T01:19:31+00:00	2021-01-08T17:19:31-08:00	2021-01-09T01:50:03+00:00	2021-01-13T07:59:59+00:00	-4	kp7df29sw6tl500@marketplace.amazon.com	liz flinders	+1 213-442-1463 ext. 90086	ABR0033	Delivery by Tuesday, January 12 Dozen Orange Roses in a Free Vase by Arabella Bouquets	1	0	1	Expedited	Elizabeth flinders	135 ASHLEY LN			CORRYTON	TN	37721-5003	US			false		
114-5078852-5749009	23512842841410	2021-01-09T01:26:42+00:00	2021-01-08T17:26:42-08:00	2021-01-09T01:54:59+00:00	2021-01-13T07:59:59+00:00	-4	9xtmdlp7ktym7w0@marketplace.amazon.com	carol foley	+1 213-442-1463 ext. 95987	ABR0022	Delivery by Tuesday, January 12 Dozen Pink Roses with a Free Vase by Arabella Bouquets	1	0	1	Expedited	Kathie Dimarco	36 ARTHER ST			GREENWICH	CT	06831-5107	US		Happy 65th ! From Carol and Jack	false		
112-4368293-9808252	67980109587522	2021-01-09T02:27:25+00:00	2021-01-08T18:27:25-08:00	2021-01-09T02:49:25+00:00	2021-01-13T07:59:59+00:00	-4	2289nl0jhqqt51j@marketplace.amazon.com	john	+1 213-442-1463 ext. 17994	ABR0022	Delivery by Tuesday, January 12 Dozen Pink Roses with a Free Vase by Arabella Bouquets	1	0	1	Expedited	Stephanie Hilliard	2049 ESTES LN APT 11			LONGMONT	CO	80501-1971	US		And this is a present for the sweet lady who lives here. I miss you and look forward to seeing you soon. I'm thinking of you From John	false		
114-6913362-5825001	23135263175546	2021-01-09T03:34:23+00:00	2021-01-08T19:34:23-08:00	2021-01-09T04:02:10+00:00	2021-01-13T07:59:59+00:00	-4	zt49bhqv7lb46sf@marketplace.amazon.com	Kara Marie Danielsen	+1 213-442-1463 ext. 14458	ABM017	Delivery by Tuesday, January 12, Blue Dendrobium Orchids 10 Stems in a Free Designer Glass Vase by Arabella Bouquets	1	0	1	Expedited	Jamie Reid	247 NEVADA ST			REDWOOD CITY	CA	94062-2135	US		Jaime just wanted you to know that Im thinking of you, BFF !!! From Kara Marie Danielsen	false		
114-8711789-6046655	48672524233418	2021-01-09T04:19:21+00:00	2021-01-08T20:19:21-08:00	2021-01-09T04:43:43+00:00	2021-01-13T07:59:59+00:00	-4	cv2czcqb213m1bd@marketplace.amazon.com	Roy T.Young	+1 763-225-9463 ext. 85935	ABM020	Delivery by Tuesday, January 12 Sunset Bouquet by Arabella Bouquets	1	0	1	Expedited	Doreen Wheelock	3191 PORTER LN			VENTURA	CA	93003-4816	US		Dear Doreen, Sorry to hear the passing of your beloved Bella. She was a Great Dog and wonderful companion. You gave her a good home with lots of love and Care. We have fond memories of her while visiting. Love Roy & Kristen From Roy T.Young	false		
112-3061617-6663453	10643784578402	2021-01-09T04:58:54+00:00	2021-01-08T20:58:54-08:00	2021-01-09T05:22:40+00:00	2021-01-13T07:59:59+00:00	-4	cc9b5tmqdbz175p@marketplace.amazon.com	Fred L Kemp	+1 415-419-8616 ext. 29296	ABM022	Delivery by Tuesday, January 12 Purple Extravagance Bouquet by Arabella Bouquets	1	0	1	Expedited	Don and Joyce Walters	2342 Tavern Road			Alpine	Ca	91901	US		We love you guys and pray that God will give comfort. We are here for you. Love, Joan & Fred From Fred & Joan	false		
113-9145118-2016266	34294178109018	2021-01-09T05:37:40+00:00	2021-01-08T21:37:40-08:00	2021-01-09T06:07:22+00:00	2021-01-13T07:59:59+00:00	-4	cdsldqy983s6crc@marketplace.amazon.com	Kim	+1 346-307-9643 ext. 96336	ABR0022	Delivery by Tuesday, January 12 Dozen Pink Roses with a Free Vase by Arabella Bouquets	1	0	1	Standard	Annette Lazar	8711 JACKSON ST			PHILADELPHIA	PA	19136-2131	US		Happy Birthday Mom! From Kim, Sean, ella and Sj	false		
114-3890500-6079456	12928187550938	2021-01-09T05:43:41+00:00	2021-01-08T21:43:41-08:00	2021-01-09T06:09:27+00:00	2021-01-13T07:59:59+00:00	-4	9105mwdhf3z7b15@marketplace.amazon.com	Seta Timbreza	+1 619-854-2705 ext. 40216	ABM010	Delivery by Tuesday, January 12 Everlasting Fling with a Free Glass Vase by Arabella Bouquets	1	0	1	Expedited	Connie Brenner	1317 OAKBURN DR			WALNUT	CA	91789-3433	US		Dear Connie, Sending our love and continuing to keep you in our prayers.  We will always remember Terry in our hearts. Blessings, Seta & Chris From Seta Timbreza	false		
113-8203245-9481844	34743201035090	2021-01-09T05:47:49+00:00	2021-01-08T21:47:49-08:00	2021-01-09T06:15:13+00:00	2021-01-13T07:59:59+00:00	-4	3sy4p6vk8k5b805@marketplace.amazon.com	L. Morris	+1 213-442-1463 ext. 10366	ABR001	Delivery by Tuesday, January 12 Dozen Red Roses in a Free Vase by Arabella Bouquets	1	0	1	Expedited	Mrs. John Morris	51 MACSPAR DR			RANDOLPH	NJ	07869-1313	US		Enjoy your Happy Birthday your gift! From L. Morris	false		
111-7697142-6112253	23203314593114	2021-01-09T05:53:46+00:00	2021-01-08T21:53:46-08:00	2021-01-09T06:21:32+00:00	2021-01-13T07:59:59+00:00	-4	6lsds6n2rxq8fmt@marketplace.amazon.com	John M. Sheehy	+1 213-442-1463 ext. 18627	ABR001	Delivery by Tuesday, January 12 Dozen Red Roses in a Free Vase by Arabella Bouquets	1	0	1	Expedited	Paulette and Skip Busam	5479 Bunker Hill Rd.			Milford	Ohio	45150	US		I love you. Henry From John M. Sheehy	false		
112-3869578-4912231	38780007226930	2021-01-09T06:28:28+00:00	2021-01-08T22:28:28-08:00	2021-01-09T06:57:49+00:00	2021-01-13T07:59:59+00:00	-4	rfjh9gxc4hxld6g@marketplace.amazon.com	Chima Q Manuel	+1 415-851-9136 ext. 42954	ABR0022	Delivery by Tuesday, January 12 Dozen Pink Roses with a Free Vase by Arabella Bouquets	1	0	1	Expedited	Onu Stevens	469 PINE ST			PROVIDENCE	RI	02907-1346	US			false		
114-7470862-2192234	44166253070146	2021-01-09T06:39:55+00:00	2021-01-08T22:39:55-08:00	2021-01-09T07:06:55+00:00	2021-01-13T07:59:59+00:00	-4	nyt1h77h6ryk2r6@marketplace.amazon.com	John Nadraus	+1 415-419-8616 ext. 54357	ABM010	Delivery by Tuesday, January 12 Everlasting Fling with a Free Glass Vase by Arabella Bouquets	1	0	1	Expedited	Rosemarie Polidora	9 SYLVESTER CT			ROCKY POINT	NY	11778-7902	US		Happy Birthday Roe !! From Love, John and Barbara	false		
112-0363475-5378642	31067512637666	2021-01-09T07:08:53+00:00	2021-01-08T23:08:53-08:00	2021-01-09T07:34:20+00:00	2021-01-13T07:59:59+00:00	-4	p63whlnw55c1w6b@marketplace.amazon.com	katie	+1 763-225-9463 ext. 77346	ABM010	Delivery by Tuesday, January 12 Everlasting Fling with a Free Glass Vase by Arabella Bouquets	1	0	1	Expedited	Judy Thomas	3414 WINDWOOD PL NE			OLYMPIA	WA	98506-3681	US		We love you Grandma, and Andrea. Thank you for the games Grandma, we love them! From Peyton, Piper and Aaliyah	false		
111-2020296-7736201	01056373109674	2021-01-09T08:45:52+00:00	2021-01-09T00:45:52-08:00	2021-01-09T09:16:00+00:00	2021-01-13T07:59:59+00:00	-4	hmrvpb1rykxp2lv@marketplace.amazon.com	Frosted Rose	+1 602-671-6610 ext. 51230	ABM020	Delivery by Tuesday, January 12 Sunset Bouquet by Arabella Bouquets	1	0	1	Expedited	Megan Barrett	330 NE AUTUMN ROSE WAY APT F			HILLSBORO	OR	97124-5319	US			false		
112-4943801-6516246	27649147462682	2021-01-09T08:54:05+00:00	2021-01-09T00:54:05-08:00	2021-01-09T09:46:22+00:00	2021-01-13T07:59:59+00:00	-4	rmvnh0vtv1p8gyd@marketplace.amazon.com	demetrius parker	+1 415-851-9136 ext. 90611	ABR0022	Delivery by Tuesday, January 12 Dozen Pink Roses with a Free Vase by Arabella Bouquets	1	0	1	Expedited	Kayla Cabrera	1250 POWDER SPRINGS ST APT 2223			MARIETTA	GA	30064-5271	US			false		
111-7051035-9047451	23230824240330	2021-01-09T09:24:23+00:00	2021-01-09T01:24:23-08:00	2021-01-09T09:51:08+00:00	2021-01-13T07:59:59+00:00	-4	0jv0mpx2g6wnvl6@marketplace.amazon.com	RGL	+1 415-419-8616 ext. 14833	ABM017	Delivery by Tuesday, January 12, Blue Dendrobium Orchids 10 Stems in a Free Designer Glass Vase by Arabella Bouquets	1	0	1	Expedited	Mary Carstens	2403 North Michagan ave			Davenport	Iowa	52804	US		HAPPY BIRTHDAY TO MY FAVORITE MOM. LOVE YOU BUNCHES. From RYan and your favorite daughter.	false		
114-0540324-8652201	28684860284338	2021-01-09T11:01:48+00:00	2021-01-09T03:01:48-08:00	2021-01-09T11:30:38+00:00	2021-01-13T07:59:59+00:00	-4	2p4ysn8tt84fyn0@marketplace.amazon.com	Peter Mackreth	+1 346-307-9643 ext. 87753	ABM029	Delivery by Wednesday, January 13 Day Dream Bouquet by Arabella Bouquets	1	0	1	Expedited	Doug Coupe	56 KERSHAW DR			BLUFFTON	SC	29910-4836	US		Happy Belated Birthday Mimi!  Hope you had a lovely day.  Miss you From Kacy, Pete, Aus & Kenz	false		
114-0759092-9421025	22539496686618	2021-01-09T13:25:25+00:00	2021-01-09T05:25:25-08:00	2021-01-09T13:51:24+00:00	2021-01-13T07:59:59+00:00	-4	jzl1600ytn5q6nr@marketplace.amazon.com	Kimberly Barker	+1 415-851-9136 ext. 48032	ABM022	Delivery by Wednesday, January 13 Purple Extravagance Bouquet by Arabella Bouquets	1	0	1	Expedited	Paula Driscoll	1905 CONNELLY RD			BAYTOWN	TX	77521-9637	US		Happy Birthday!  We love you! From Kim and Michael	false		
112-2058559-8796247	66018293308362	2021-01-09T13:34:50+00:00	2021-01-09T05:34:50-08:00	2021-01-09T13:54:32+00:00	2021-01-13T07:59:59+00:00	-4	d2q2gnymwbkh46z@marketplace.amazon.com	Loretta L Davis	+1 619-854-2705 ext. 41069	ABM0033	Delivery by Wednesday, January 13 White Hydrangea 5 Stems with a Free Glass Vase by Arabella Bouquets	1	0	1	Expedited	Judy Nerbonne Room 401	PEASE INTERNATIONAL TRANSPORT	105 CORPORATE DR		PORTSMOUTH	NH	03801-6825	US		Thinking of you and wishing you a speedy recovery. Even if it is speedy it will seem slow to you. Thinking of you and hope all goes well. Love, Loretta From Loretta L Davis	false		
113-7803100-8733857	47007371013754	2021-01-09T05:39:42+00:00	2021-01-08T21:39:42-08:00	2021-01-09T14:04:42+00:00	2021-01-13T07:59:59+00:00	-4	31zvqs76sxdz4cp@marketplace.amazon.com	Taniya	+1 415-419-8616 ext. 75309	ABR001	Delivery by Tuesday, January 12 Dozen Red Roses in a Free Vase by Arabella Bouquets	1	0	1	Expedited	Taniya	9104 PINEDALE ST APT 4			NORFOLK	VA	23503-3614	US		Happy birthday mommy love you always. From Your daughter Taniya	false		
111-9173127-2313065	02681154069154	2021-01-09T13:49:45+00:00	2021-01-09T05:49:45-08:00	2021-01-09T14:19:31+00:00	2021-01-13T07:59:59+00:00	-4	1nn3dyp40sbdjwk@marketplace.amazon.com	Jay Kyte	+1 415-851-9136 ext. 99279	ABM022	Delivery by Wednesday, January 13 Purple Extravagance Bouquet by Arabella Bouquets	1	0	1	Expedited	Missy Steinke	3796 BRIDLE RIDGE CT			SEVERANCE	CO	80524-8644	US		Happy birthday my wonderful friend! From Katie	false		
111-9577181-5491440	01733527077642	2021-01-09T14:29:18+00:00	2021-01-09T06:29:18-08:00	2021-01-09T14:30:14+00:00	2021-01-12T07:59:59+00:00	-3	l2rq01g2txgbc22@marketplace.amazon.com	PST	+1 619-854-2705 ext. 92333	ABR0055	Delivery by Wednesday, January 13 Dozen Hot Pink Roses in a Free Vase by Arabella Bouquets	1	0	1	SecondDay	Susan Mangano	Suburban Village C-2	Belvidere Avenue		Wanaque	NJ	07465	US		Happy 70th! May your day be filled with love, happiness and great music that makes you want to dance. Love, Phyllis & Conrad From PST	false		
113-0378421-1727436	52086520365578	2021-01-09T14:15:08+00:00	2021-01-09T06:15:08-08:00	2021-01-09T14:43:21+00:00	2021-01-13T07:59:59+00:00	-4	hbyhxdd4wkst3vg@marketplace.amazon.com	Nyla Estrada	+1 415-851-9136 ext. 00986	ABC002	Delivery by Wednesday, January 13 Warm Wishes Bouquet by Arabella Bouquets	1	0	1	Expedited	Vertell Brantley	164 W CALTHROP AVE			SYRACUSE	NY	13205-1733	US		Happy Birthday Mom/2nd Mom/ Nana We love you so much ! Roses for our roses enjoy your day young girl! From Nyla &Nique	false		
112-9664423-9737835	62939038675762	2021-01-09T14:17:50+00:00	2021-01-09T06:17:50-08:00	2021-01-09T14:43:47+00:00	2021-01-12T07:59:59+00:00	-3	qd4n8q88sj81xwy@marketplace.amazon.com	Kathleen Ann Jacobi	+1 763-225-9463 ext. 94251	ABR0022	Delivery by Wednesday, January 13 Dozen Pink Roses with a Free Vase by Arabella Bouquets	1	0	1	SecondDay	Leslie Miller	2444 BLAINE AVE SE			GRAND RAPIDS	MI	49507-3911	US		Happy Birthday, Leslie! Thinking of you on your special day! I have been blessed with our friendship these past 35 years!   I love you so much, Les! From Kathy Jacobi	false		
111-9615373-4933843	35614886985522	2021-01-09T14:16:14+00:00	2021-01-09T06:16:14-08:00	2021-01-09T14:46:27+00:00	2021-01-13T07:59:59+00:00	-4	0rn161hs1f3sc3g@marketplace.amazon.com	Kim Hawkins	+1 213-442-1463 ext. 29123	ABM010	Delivery by Wednesday, January 13 Everlasting Fling with a Free Glass Vase by Arabella Bouquets	1	0	1	Expedited	Kim Hawkins	359 BLOWING SPRINGS RD			HARTSELLE	AL	35640-7811	US			false		
112-4107040-4261802	07052308880098	2021-01-09T14:32:30+00:00	2021-01-09T06:32:30-08:00	2021-01-09T15:00:24+00:00	2021-01-13T07:59:59+00:00	-4	sw8rsjykw212pxg@marketplace.amazon.com	Ray & Maria	+1 213-442-1463 ext. 88831	ABM024	Delivery by Wednesday, January 13 Beauty of Color Bouquet by Arabella Bouquets	1	0	1	Expedited	Karen Grust	21 ADAMS ST			ISELIN	NJ	08830-1323	US		Happy 65th Birthday! Wishing you a wonderful year! Send with love & hopefully on time! From Ray & Maria	false		
114-1172709-9438636	51947552217314	2021-01-09T14:58:35+00:00	2021-01-09T06:58:35-08:00	2021-01-09T15:24:28+00:00	2021-01-13T07:59:59+00:00	-4	l6k4yr2mk3g8576@marketplace.amazon.com	rhonda	+1 415-851-9136 ext. 93552	ABM022	Delivery by Wednesday, January 13 Purple Extravagance Bouquet by Arabella Bouquets	1	0	1	Expedited	Brian and Lindsay Wingate	6077 S IOLA CT			ENGLEWOOD	CO	80111-5707	US		Thinking and praying for you and your family!! From Rhonda Madison Ben & Troy Rogers	false		
111-1339667-7386641	17663221710738	2021-01-09T14:54:26+00:00	2021-01-09T06:54:26-08:00	2021-01-09T15:24:35+00:00	2021-01-13T07:59:59+00:00	-4	cdbt3t762ypg24g@marketplace.amazon.com	Sharon S Cookman	+1 415-851-9136 ext. 45681	ABR001	Delivery by Wednesday, January 13 Dozen Red Roses in a Free Vase by Arabella Bouquets	1	0	1	Expedited	Mary Holmes	1822 RICE MILL DR			KATY	TX	77493-3025	US			false		
112-0088746-9581835	46578226557794	2021-01-09T14:55:25+00:00	2021-01-09T06:55:25-08:00	2021-01-09T15:25:00+00:00	2021-01-13T07:59:59+00:00	-4	z87ggqlff742zzk@marketplace.amazon.com	Stephanie Stephens	+1 619-854-2705 ext. 80180	ABM010	Delivery by Wednesday, January 13 Everlasting Fling with a Free Glass Vase by Arabella Bouquets	1	0	1	Expedited	Wendy Williamson	45 LANG CIR			COVINGTON	GA	30014-6141	US		Happy Birthday!  I love you! From Steph	false		
114-7848767-6881835	20094769881930	2021-01-09T15:36:24+00:00	2021-01-09T07:36:24-08:00	2021-01-09T16:04:46+00:00	2021-01-13T07:59:59+00:00	-4	dk1tr9xzhthsyb8@marketplace.amazon.com	Christina	+1 415-851-9136 ext. 41422	ABR0022	Delivery by Wednesday, January 13 Dozen Pink Roses with a Free Vase by Arabella Bouquets	1	0	1	Expedited	Helga Arthur	101 AUDUBON BLVD			NAPLES	FL	34110-4401	US		Happy happy. Birthday.  Mom.  Xo From Love Chris & Jeff	false		
112-9144686-2192200	10392872930978	2021-01-09T15:41:59+00:00	2021-01-09T07:41:59-08:00	2021-01-09T16:10:43+00:00	2021-01-13T07:59:59+00:00	-4	md98w4sdhqknlmh@marketplace.amazon.com	Nick Zaiser	+1 213-442-1463 ext. 05901	ABR0022	Delivery by Wednesday, January 13 Dozen Pink Roses with a Free Vase by Arabella Bouquets	1	0	1	Expedited	Mary C Zaiser	13596 FRANKLIN ST			THORNTON	CO	80241-1983	US		Happy birthday Mom. Love Nick and Austin From Nick them and Austin	false		
112-7665249-1771452	58949581598346	2021-01-09T15:49:16+00:00	2021-01-09T07:49:16-08:00	2021-01-09T16:15:13+00:00	2021-01-13T07:59:59+00:00	-4	2wzp5n8f6c3cfp2@marketplace.amazon.com	Alice Kelley	+1 619-854-2705 ext. 23809	ABR0066	Delivery by Wednesday, January 13 Dozen White Roses in a Free Vase by Arabella Bouquets	1	0	1	Standard	Casey Kelley	8851 COLONNADES CT W APT 121			BONITA SPRINGS	FL	34135-7879	US		Wishing you a most wonderful 25th Birthday my Sweet Girl, I Love you soo much, enjoy!  Mom From Alice Kelley	false		
112-7197008-5433029	17235377727730	2021-01-09T15:39:35+00:00	2021-01-09T07:39:35-08:00	2021-01-09T16:16:38+00:00	2021-01-13T07:59:59+00:00	-4	msht5vpng4w0wc3@marketplace.amazon.com	Anthony M. DePaoli	+1 602-671-6610 ext. 22855	ABM021	Delivery by Wednesday, January 13 Joyous Bouquet by Arabella Bouquets	1	0	1	Expedited	Debbie Parkins	2045 E INDIGO BRUSH RD			PHOENIX	AZ	85048-4341	US			false		
111-3360401-3713059	48497134938218	2021-01-09T15:51:28+00:00	2021-01-09T07:51:28-08:00	2021-01-09T16:18:52+00:00	2021-01-13T07:59:59+00:00	-4	cl4mbpcksxdp6tz@marketplace.amazon.com	Pamela Stanek	+1 619-854-2705 ext. 21474	ABM017	Delivery by Tuesday, January 12, Blue Dendrobium Orchids 10 Stems in a Free Designer Glass Vase by Arabella Bouquets	1	0	1	Expedited	Aliesa Bowman c/o Bernice Liverett	117 TEAKWOOD LN			MOORESVILLE	NC	28117-7565	US		Happy Birthday Momma 🎂 have a great day!  Love you 💕 From Pamela Stanek	false		
114-4848775-7241003	08841252394258	2021-01-09T16:00:16+00:00	2021-01-09T08:00:16-08:00	2021-01-09T16:29:50+00:00	2021-01-13T07:59:59+00:00	-4	s7pmzpcdssljtf7@marketplace.amazon.com	kara falcone	+1 415-851-9136 ext. 59142	ABR0033	Delivery by Wednesday, January 13 Dozen Orange Roses in a Free Vase by Arabella Bouquets	1	0	1	Expedited	Caileen Tierney	5 CENTRE ST			DOVER	MA	02030-2203	US		Congratulations on your new job!!!Enjoy your gift! From Love, Kara	false		
113-5774368-4377033	57450854507770	2021-01-09T16:10:23+00:00	2021-01-09T08:10:23-08:00	2021-01-09T16:36:42+00:00	2021-01-13T07:59:59+00:00	-4	2g7nqqh79x329ls@marketplace.amazon.com	Craig Carter	+1 415-851-9136 ext. 76590	ABR001	Delivery by Wednesday, January 13 Dozen Red Roses in a Free Vase by Arabella Bouquets	1	0	1	Expedited	Regina White	739 CRESTVIEW CIR BLDG 13 APT 201			IMMOKALEE	FL	34142-2649	US			false		
112-7302424-0135437	25805840069162	2021-01-09T16:25:14+00:00	2021-01-09T08:25:14-08:00	2021-01-09T16:52:12+00:00	2021-01-13T07:59:59+00:00	-4	9x4qvmf8wlmyl4k@marketplace.amazon.com	Harriett Elenniss	+1 602-671-6610 ext. 67310	ABR0033	Delivery by Wednesday, January 13 Dozen Orange Roses in a Free Vase by Arabella Bouquets	1	0	1	Expedited	Linda Folger	10303 KESWICK DR			PARMA HEIGHTS	OH	44130-2052	US		Happy Birthday dear girlfriend LLPF!! Like everything else, I think this will be late😔, but I hope will they will brighten the days following your special day, and show you the love they are intended to! xxxooo From Harriett Elenniss	false		
112-7849275-4553825	40956138521266	2021-01-09T16:30:17+00:00	2021-01-09T08:30:17-08:00	2021-01-09T16:58:05+00:00	2021-01-13T07:59:59+00:00	-4	3jqbxhlvqwcwm09@marketplace.amazon.com	Kathleen A. Schmidt	+1 415-419-8616 ext. 10655	ABR0022	Delivery by Wednesday, January 13 Dozen Pink Roses with a Free Vase by Arabella Bouquets	1	0	1	Expedited	Sarah Schmidt	18266 W INDIGO BRUSH RD			GOODYEAR	AZ	85338-3661	US		Have a Happy, Happy Birthday Sarah! Sending along lots of love to you! From Dad & Mom	false		
112-4915947-3771402	54525811217370	2021-01-09T16:33:39+00:00	2021-01-09T08:33:39-08:00	2021-01-09T17:00:44+00:00	2021-01-13T07:59:59+00:00	-4	jsh076xlffr3cfd@marketplace.amazon.com	constance m cereola	+1 346-307-9643 ext. 39821	ABM010	Delivery by Wednesday, January 13 Everlasting Fling with a Free Glass Vase by Arabella Bouquets	1	0	1	Expedited	Mrs. Dorothy Leahy	26 VALLEYWOOD RD			COMMACK	NY	11725-4309	US		Dorothy; We all hope you feel better real soon so we can go have some lobster rolls! Get Well! We miss you! Love, Connie, Marie and Paula From constance m cereola	false		
114-2937191-6894669	65496867994586	2021-01-09T16:58:49+00:00	2021-01-09T08:58:49-08:00	2021-01-09T17:00:50+00:00	2021-01-12T07:59:59+00:00	-3	346wm1mcxg1hzgr@marketplace.amazon.com	enes cicekci	+1 763-225-9463 ext. 29790	ABR001	Delivery by Wednesday, January 13 Dozen Red Roses in a Free Vase by Arabella Bouquets	1	0	1	SecondDay	Jason Herald	13065 VIRGINIA BLVD APT # 2B-2			CARMEL	IN	46032-5414	US		Miss you princess... This isn't for cherry :) I wish I was there with you, missing you lots here. You’re more than I ever dreamed of and more than I deserve. Hope to make your face smile. Your smile is my paradise... From Enes	false		
114-1865457-0036224	44908888101050	2021-01-09T16:46:02+00:00	2021-01-09T08:46:02-08:00	2021-01-09T17:16:20+00:00	2021-01-13T07:59:59+00:00	-4	80lrmlt7dq74fc7@marketplace.amazon.com	Elizabeth cano	+1 763-225-9463 ext. 26095	ABSR004	Delivery by Wednesday, January 13 White Spray Roses with a Free Glass Vase by Arabella Bouquets	1	0	1	Expedited	Elizabeth cano	1515 E JENSEN AVE APT 207			FRESNO	CA	93706-4955	US			false		
112-5312775-2838651	22741320384770	2021-01-09T17:08:21+00:00	2021-01-09T09:08:21-08:00	2021-01-09T17:37:55+00:00	2021-01-13T07:59:59+00:00	-4	3yc7hd0r5yk0dd9@marketplace.amazon.com	Walter Back	+1 602-671-6610 ext. 30522	ABM024	Delivery by Wednesday, January 13 Beauty of Color Bouquet by Arabella Bouquets	1	0	1	Expedited	Alyssa Steele	305 S ALBERTSON AVE			COVINA	CA	91723-2502	US		A beautiful flower deserves beautiful flowers - wish I could enjoy the fragrance From W	false		
114-7494272-6027418	16874672807026	2021-01-09T17:11:11+00:00	2021-01-09T09:11:11-08:00	2021-01-09T17:39:01+00:00	2021-01-13T07:59:59+00:00	-4	vs7ghfv101vrdcc@marketplace.amazon.com	patricia williams	+1 415-851-9136 ext. 34808	ABR0033	Delivery by Wednesday, January 13 Dozen Orange Roses in a Free Vase by Arabella Bouquets	1	0	1	Expedited	Jocquette blue	288 Blue Creek Dr			Harvest	Alabama	35749-9646	US		Congratulations on you anniversary, Donald and Jocquette From patricia williams	false		
111-0911547-3444257	66323175909866	2021-01-09T17:19:46+00:00	2021-01-09T09:19:46-08:00	2021-01-09T17:48:20+00:00	2021-01-13T07:59:59+00:00	-4	6dj2py04l8b8jj3@marketplace.amazon.com	Stacy Rivard	+1 602-671-6610 ext. 19690	ABR0022	Delivery by Wednesday, January 13 Dozen Pink Roses with a Free Vase by Arabella Bouquets	1	0	1	Expedited	Shirley Knarr	14 BUTTERNUT RIDGE RD			OXFORD	CT	06478-3222	US		Wishing you a very happy birthday! From Stacy and Dennis	true		Business Price
113-9566421-6812204	14349816750626	2021-01-09T17:29:31+00:00	2021-01-09T09:29:31-08:00	2021-01-09T17:53:24+00:00	2021-01-12T07:59:59+00:00	-3	6cktxmxrjn0djr0@marketplace.amazon.com	Michael Sullivan	+1 763-225-9463 ext. 60390	ABM010	Delivery by Wednesday, January 13 Everlasting Fling with a Free Glass Vase by Arabella Bouquets	1	0	1	SecondDay	David Hernandez Jr.	2623 SHADY ACRES LNDG			HOUSTON	TX	77008-7079	US		Dear David Hope you have a wonderful blessing 26th birthday, With lots of strong love and happiness, I Figured I Be the First To Surprise you on your Special Day, I Don’t Wanna Forget, Happy Birthday Sunny, Love you. From Michael Sullivan	false		
113-2416879-4728226	57037559534682	2021-01-09T17:29:45+00:00	2021-01-09T09:29:45-08:00	2021-01-09T17:55:10+00:00	2021-01-13T07:59:59+00:00	-4	x679xlby0j335h0@marketplace.amazon.com	Katherine M. Swan	+1 415-419-8616 ext. 16232	ABR0033	Delivery by Wednesday, January 13 Dozen Orange Roses in a Free Vase by Arabella Bouquets	1	0	1	Expedited	Patty Gravit	1031 THORNBURY PL			HIGHLANDS RANCH	CO	80129-6961	US		Our thoughts and hearts are with you.  We are so sorry for your loss. With love, from, Kate, Bryan, Cooper, and Jacob From Katherine M. Swan	false		
114-4752780-6481022	13980086993618	2021-01-09T17:50:00+00:00	2021-01-09T09:50:00-08:00	2021-01-09T18:20:27+00:00	2021-01-13T07:59:59+00:00	-4	0gjn1pvv69r5rdq@marketplace.amazon.com	lagella	+1 346-307-9643 ext. 52141	ABR0066	Delivery by Wednesday, January 13 Dozen White Roses in a Free Vase by Arabella Bouquets	1	0	1	Expedited	Lagella Fede	5 PACELLA PARK DR APT 2203			RANDOLPH	MA	02368-1779	US			false		
114-2531914-6120238	15967112341050	2021-01-09T18:06:01+00:00	2021-01-09T10:06:01-08:00	2021-01-09T18:27:30+00:00	2021-01-13T07:59:59+00:00	-4	9j9lb9z8tp3jvs2@marketplace.amazon.com	Fahim Ghaffari	+1 619-854-2705 ext. 13042	ABB006	Delivery by Wednesday, January 13 FarmDirect 48 Fresh Cut Red Roses by Arabella Bouquets	1	0	1	Expedited	Shirin Amaya	390 HAUSER BLVD APT 4600 MC	APT 4600 MC		LOS ANGELES	CA	90036-5501	US		Happy Birthday Baby ! I really like what you’ve done to me, ain’t afraid to go and see what it tastes like. From Fahim	false		
114-5441866-3913053	39560654830506	2021-01-09T18:05:33+00:00	2021-01-09T10:05:33-08:00	2021-01-09T18:33:10+00:00	2021-01-13T07:59:59+00:00	-4	40nw015g9hlh6fp@marketplace.amazon.com	Ivania	+1 415-419-8616 ext. 60208	ABM017	Delivery by Tuesday, January 12, Blue Dendrobium Orchids 10 Stems in a Free Designer Glass Vase by Arabella Bouquets	1	0	1	Expedited	Jase Cabrera	1225 13TH ST NW APT 707			WASHINGTON	DC	20005-5174	US		For all you do doesn't go unnoticed!  Thank you< From Mom	false		
111-6423563-8296240	60582754523234	2021-01-07T20:01:31+00:00	2021-01-07T12:01:31-08:00	2021-01-09T18:35:38+00:00	2021-01-13T07:59:59+00:00	-4	3zdmzm8czcgjl0j@marketplace.amazon.com	Linda McFeters	+1 346-307-9643 ext. 31069	ABR0022	Delivery by Monday, January 11 Dozen Pink Roses with a Free Vase by Arabella Bouquets	1	0	1	Expedited	Deb Johnson	15303 HERITAGE CIR			THORNTON	CO	80602-9214	US			false		
114-1202903-8344204	01971217102026	2021-01-09T18:09:08+00:00	2021-01-09T10:09:08-08:00	2021-01-09T18:37:34+00:00	2021-01-13T07:59:59+00:00	-4	7rdjcfcnt46l9zb@marketplace.amazon.com	Jan	+1 480-618-5344 ext. 61602	ABR0033	Delivery by Wednesday, January 13 Dozen Orange Roses in a Free Vase by Arabella Bouquets	1	0	1	Expedited	Sandra Palyszeski	141 HELIN DR			NATRONA HEIGHTS	PA	15065-2835	US		Hi Sandra, Enjoy your gift! From Jan	false		
113-5179907-9141056	00868286725522	2021-01-09T18:12:54+00:00	2021-01-09T10:12:54-08:00	2021-01-09T18:40:39+00:00	2021-01-12T07:59:59+00:00	-3	czg2kyykk0xkg5l@marketplace.amazon.com	carolyn b. lorge	+1 213-442-1463 ext. 46018	ABR0066	Delivery by Wednesday, January 13 Dozen White Roses in a Free Vase by Arabella Bouquets	1	0	1	SecondDay	Amy Dufek	2073 MUIRWOOD LN			GREEN BAY	WI	54313-4543	US		Happy Birthday Beautiful Friend..thought seeing we are stuck inside you might like these:) Enjoy your day and I hope to see you soon!  xo, Missy From carolyn b. lorge	false		
114-2864318-9614602	55883962105994	2021-01-09T18:16:44+00:00	2021-01-09T10:16:44-08:00	2021-01-09T18:43:58+00:00	2021-01-13T07:59:59+00:00	-4	40nw015g9hlh6fp@marketplace.amazon.com	Ivania	+1 213-442-1463 ext. 07427	ABM022	Delivery by Wednesday, January 13 Purple Extravagance Bouquet by Arabella Bouquets	1	0	1	Expedited	Ally Martinez	1001 CYPRESS CREEK RD STE 203			CEDAR PARK	TX	78613-4468	US		For all you do doesn't go unnoticed. Love you always, From Mom	false		
112-3546306-9439435	57803039481506	2021-01-09T18:18:48+00:00	2021-01-09T10:18:48-08:00	2021-01-09T18:46:14+00:00	2021-01-13T07:59:59+00:00	-4	2wrvkvmc87hcdk9@marketplace.amazon.com	Laura Conry	+1 763-225-9463 ext. 76891	ABR0022	Delivery by Wednesday, January 13 Dozen Pink Roses with a Free Vase by Arabella Bouquets	1	0	1	Expedited	Martha Morris	1440 RIVER RD	CIBOLO CREEK NURSING CENTER RM 801 A		BOERNE	TX	78006-1958	US		Aunt Fran - Thought you might enjoy some flowers to brighten up your room since you aren't able to see people. From Laura and Marlin Conry	false		
114-6020853-1182608	08236080696970	2021-01-09T18:19:56+00:00	2021-01-09T10:19:56-08:00	2021-01-09T18:48:24+00:00	2021-01-13T07:59:59+00:00	-4	fh5m1jskng7pcwm@marketplace.amazon.com	Jim Haimes	+1 213-442-1463 ext. 41306	ABM020	Delivery by Wednesday, January 13 Sunset Bouquet by Arabella Bouquets	1	0	1	Expedited	Sheila Renzulli	31 REGINA			DANA POINT	CA	92629-4123	US		Thank you for all you do for us as a neighbor and friend! Love, Shendel and Jim From Jim Haimes	false		
114-2540015-9875439	52377478013522	2021-01-09T18:19:55+00:00	2021-01-09T10:19:55-08:00	2021-01-09T18:49:02+00:00	2021-01-13T07:59:59+00:00	-4	40nw015g9hlh6fp@marketplace.amazon.com	Ivania	+1 602-671-6610 ext. 42484	ABM0044	Delivery by Wednesday, January 13 Blue Hydrangea 5 Stems with a Free Glass Vase by Arabella Bouquets	1	0	1	Expedited	Ivy McGinn	402 CASSANDRA DR			HUTTO	TX	78634-5742	US		I love you! From Mom	false		
114-3571510-7300238	41814705198250	2021-01-09T18:22:14+00:00	2021-01-09T10:22:14-08:00	2021-01-09T18:51:21+00:00	2021-01-13T07:59:59+00:00	-4	wsbgnv3tbj3dkw6@marketplace.amazon.com	russell w harrison	+1 213-442-1463 ext. 50161	ABR0033	Delivery by Wednesday, January 13 Dozen Orange Roses in a Free Vase by Arabella Bouquets	1	0	1	Expedited	Elizabeth Ferguson	64061 E 254 LOOP			GROVE	OK	74344-4537	US		Happy Birthday Sister Love, Jeannie From russell w harrison	false		
114-1809899-2948249	65560035630770	2021-01-09T18:34:46+00:00	2021-01-09T10:34:46-08:00	2021-01-09T18:55:49+00:00	2021-01-13T07:59:59+00:00	-4	n41k2lv34wlfny8@marketplace.amazon.com	Connie Cook	+1 415-419-8616 ext. 55299	ABR0022	Delivery by Wednesday, January 13 Dozen Pink Roses with a Free Vase by Arabella Bouquets	1	0	1	Expedited	Selena Samples	72 Galeston			Indianapolis	IN	46229	US		Thinking of you. From Connie Cook	false		
111-9417693-2049014	67367224620266	2021-01-09T18:37:27+00:00	2021-01-09T10:37:27-08:00	2021-01-09T19:07:09+00:00	2021-01-13T07:59:59+00:00	-4	3qt3gnddynm9jb4@marketplace.amazon.com	Brandon Bomeline		ABR0055	Delivery by Wednesday, January 13 Dozen Hot Pink Roses in a Free Vase by Arabella Bouquets	1	0	1	Expedited	Brandon Bomeline	832 Doc Thompson Ln			Inman	SC	29349	US		Happy Anniversary. I love you my sun and stars. From Brandon	false		
113-8556106-2954633	50718325932098	2021-01-09T18:46:05+00:00	2021-01-09T10:46:05-08:00	2021-01-09T19:16:12+00:00	2021-01-13T07:59:59+00:00	-4	7lc9mtwb5bfw3rf@marketplace.amazon.com	Kristin Bravo	+1 763-225-9463 ext. 07455	ABR0066	Delivery by Wednesday, January 13 Dozen White Roses in a Free Vase by Arabella Bouquets	1	0	1	Expedited	Velia Gutierrez	2305 JIM DENT CT			EL PASO	TX	79936-2802	US			false		
114-9107584-5706661	69843097934418	2021-01-09T18:52:57+00:00	2021-01-09T10:52:57-08:00	2021-01-09T19:21:01+00:00	2021-01-13T07:59:59+00:00	-4	xt9sq3gxtlkj9z2@marketplace.amazon.com	Cheryl Titus	+1 415-419-8616 ext. 66160	ABR0066	Delivery by Wednesday, January 13 Dozen White Roses in a Free Vase by Arabella Bouquets	1	0	1	Expedited	Karin Forsman	5816 N ARLISS AVE			MERIDIAN	ID	83646-3935	US		Sharon and Karin, We are so sorry for your loss.  We’re here if you need anything. From Dominique and Isabel	false		
111-9981496-1727459	67289563496170	2021-01-09T18:59:59+00:00	2021-01-09T10:59:59-08:00	2021-01-09T19:24:33+00:00	2021-01-13T07:59:59+00:00	-4	4v7kjdsynlvddt5@marketplace.amazon.com	Sandra Alfaro	+1 213-442-1463 ext. 82258	ABR0022	Delivery by Wednesday, January 13 Dozen Pink Roses with a Free Vase by Arabella Bouquets	1	0	1	Expedited	Guadalupe Pasillas	5807 FOSTORIA ST			BELL GARDENS	CA	90201-6226	US		Esperamos que continúe mejorando con cariño sus hermanos Alfaro From Sandra Alfaro	false		
112-8373827-2709053	59925426423738	2021-01-09T18:59:35+00:00	2021-01-09T10:59:35-08:00	2021-01-09T19:26:02+00:00	2021-01-13T07:59:59+00:00	-4	zmd6bybz479kkjz@marketplace.amazon.com	karen pepe	+1 619-854-2705 ext. 09606	ABR0022	Delivery by Wednesday, January 13 Dozen Pink Roses with a Free Vase by Arabella Bouquets	1	0	1	Expedited	Christina Femia	5900 Hollywood Blvd			Hollywood	FL	33021	US		In my thoughts,  so proud ! much love , Mom From karen pepe	false		
114-2498851-1405856	51265651982890	2021-01-09T19:06:42+00:00	2021-01-09T11:06:42-08:00	2021-01-09T19:35:36+00:00	2021-01-13T07:59:59+00:00	-4	t0gb8zqct5t0r0j@marketplace.amazon.com	nivi	+1 415-419-8616 ext. 52896	ABR0022	Delivery by Wednesday, January 13 Dozen Pink Roses with a Free Vase by Arabella Bouquets	1	0	1	Standard	Sambhu Prasad Tanikella	210 WATERFORD LNDG			MCDONOUGH	GA	30253-7707	US		Happy Birthday Sam! Enjoy your 2021 birthday. From Nivi	false		
114-9483079-6005814	41634933441706	2021-01-09T19:05:40+00:00	2021-01-09T11:05:40-08:00	2021-01-09T19:36:04+00:00	2021-01-13T07:59:59+00:00	-4	r02njhjp32jq91s@marketplace.amazon.com	Kelly Whites	+1 619-854-2705 ext. 91297	ABM020	Delivery by Wednesday, January 13 Sunset Bouquet by Arabella Bouquets	1	0	1	Expedited	Deborah Sylvester	1345 HEIDI DR			PLANO	TX	75025-2808	US			false		
112-7844223-6981061	26742978496634	2021-01-09T19:16:12+00:00	2021-01-09T11:16:12-08:00	2021-01-09T19:39:43+00:00	2021-01-13T07:59:59+00:00	-4	3lmw7rbvsp8q3x4@marketplace.amazon.com	Nancy  Fenton	+1 602-671-6610 ext. 15981	ABM010	Delivery by Wednesday, January 13 Everlasting Fling with a Free Glass Vase by Arabella Bouquets	1	0	1	Expedited	Jan Dorsey	123 Queensway Drive			Avon	IN	46123	US		Get well sister!  We love you!!! From Nancy  Fenton	false		
112-2480232-4771405	08984468290786	2021-01-09T19:18:05+00:00	2021-01-09T11:18:05-08:00	2021-01-09T19:42:12+00:00	2021-01-13T07:59:59+00:00	-4	rd421bpvjzw8ht4@marketplace.amazon.com	Cindy Callahan	+1 415-419-8616 ext. 39795	ABM022	Delivery by Wednesday, January 13 Purple Extravagance Bouquet by Arabella Bouquets	1	0	1	Expedited	Diane Gallagher	7763 DETROIT BLVD			WEST BLOOMFIELD	MI	48323-1023	US		Happy 65th Birthday Mom, Kathy, Cindy, Debbie. We Love you! PS Ariana too! From The Girls	false		
111-9496716-4186665	66907465573738	2021-01-09T19:13:58+00:00	2021-01-09T11:13:58-08:00	2021-01-09T19:44:41+00:00	2021-01-13T07:59:59+00:00	-4	xqsy6mndymsx1n4@marketplace.amazon.com	Melissa Kramer	+1 602-671-6610 ext. 65503	ABR0055	Delivery by Wednesday, January 13 Dozen Hot Pink Roses in a Free Vase by Arabella Bouquets	1	0	1	Expedited	Melissa Kramer	7616 W COURTNEY CAMPBELL CSWY	UNIT 410		TAMPA	FL	33607-1547	US			false		
113-4244061-6701853	69594806032690	2021-01-09T19:35:06+00:00	2021-01-09T11:35:06-08:00	2021-01-09T20:05:27+00:00	2021-01-13T07:59:59+00:00	-4	s1v7slmtmksqtxv@marketplace.amazon.com	Autumn	+1 602-671-6610 ext. 01822	ABR004	Delivery by Wednesday, January 13 Dozen Yellow Roses in a Free Vase by Arabella Bouquets	1	0	1	Expedited	Autumn	11307 N State Highway 7			Climax Springs	Missouri	65324	US			false		
112-0162739-3558606	34218063048258	2021-01-09T19:47:02+00:00	2021-01-09T11:47:02-08:00	2021-01-09T20:09:26+00:00	2021-01-12T07:59:59+00:00	-3	xyk9frn7rz8s3kx@marketplace.amazon.com	Swamy	+1 619-854-2705 ext. 65108	ABR011	Delivery by Wednesday, January 13 FarmDirect 18 Red Roses in a Free Vase by Arabella Bouquets	1	0	1	SecondDay	Swamy K	1308 SW SUMMIT WOODS DR APT 10			TOPEKA	KS	66615-1442	US		Wish You Many More Happy Birthday Dear Swamy !!! God Bless you !!! From Swamy	false		
113-4041168-7686631	62600866781786	2021-01-09T19:40:56+00:00	2021-01-09T11:40:56-08:00	2021-01-09T20:11:17+00:00	2021-01-13T07:59:59+00:00	-4	pvgqzgfbnbsjsxl@marketplace.amazon.com	Paulina Rabczak	+1 763-225-9463 ext. 17991	ABR0033	Delivery by Wednesday, January 13 Dozen Orange Roses in a Free Vase by Arabella Bouquets	1	0	1	Expedited	Teresa Rabczak	2104 W HAVEN ST			MT PROSPECT	IL	60056-3529	US			false		
114-9478616-6257069	43630006334458	2021-01-09T19:53:01+00:00	2021-01-09T11:53:01-08:00	2021-01-09T20:20:00+00:00	2021-01-13T07:59:59+00:00	-4	yqnhxmrcdzh2gft@marketplace.amazon.com	Michael P. Manegold	+1 415-419-8616 ext. 83474	ABR0055	Delivery by Wednesday, January 13 Dozen Hot Pink Roses in a Free Vase by Arabella Bouquets	1	0	1	Expedited	Laurie Breen	8901 CHARLESTON PARK			ORLANDO	FL	32819-4444	US		Hi Laurie, Thinking of you and Enjoy! Love, Mike and Sandy     From Michael P. Ma	false		
111-3415624-3024257	54759728056450	2021-01-09T19:56:53+00:00	2021-01-09T11:56:53-08:00	2021-01-09T20:23:22+00:00	2021-01-13T07:59:59+00:00	-4	yhww81xgbd85m99@marketplace.amazon.com	Kenneth W Keller	+1 602-671-6610 ext. 42485	ABM002	Delivery by Wednesday, January 13 White Calla Lilies in a Free Designer Glass Vase by Arabella Bouquets	1	0	1	Expedited	Kenneth W Keller	58 PREAKNESS DR			CHESTER	WV	26034-1803	US			false		
112-7215929-0086667	21691166042938	2021-01-09T19:56:13+00:00	2021-01-09T11:56:13-08:00	2021-01-09T20:24:31+00:00	2021-01-13T07:59:59+00:00	-4	1dw9hz9r826r6l7@marketplace.amazon.com	chienyenwa Nwaogu	+1 415-419-8616 ext. 99403	ABR004	Delivery by Wednesday, January 13 Dozen Yellow Roses in a Free Vase by Arabella Bouquets	1	0	1	Expedited	Chienyenwa nwaogu	2143 PENTLAND DR			BALTIMORE	MD	21234-7211	US			false		
112-7236854-4541826	16314796773522	2021-01-09T20:03:12+00:00	2021-01-09T12:03:12-08:00	2021-01-09T20:26:38+00:00	2021-01-13T07:59:59+00:00	-4	zmw8rsf79588wry@marketplace.amazon.com	Kristina Halvorson	+1 602-671-6610 ext. 77345	ABR0033	Delivery by Wednesday, January 13 Dozen Orange Roses in a Free Vase by Arabella Bouquets	1	0	1	Expedited	Cheryl Chalek	5845 ABERNATHY DR			LOS ANGELES	CA	90045-1619	US		My sincere condolences.  Love you my friend . Tina From Kristina Halvorson	false		
111-6117513-9844268	17399277214370	2021-01-09T20:07:23+00:00	2021-01-09T12:07:23-08:00	2021-01-09T20:35:00+00:00	2021-01-13T07:59:59+00:00	-4	xwv4059rmnl5wfj@marketplace.amazon.com	Jim Milner	+1 415-419-8616 ext. 36306	ABR0022	Delivery by Wednesday, January 13 Dozen Pink Roses with a Free Vase by Arabella Bouquets	1	0	1	Expedited	Signature Living  Attention: Vivan Dodd (Patient)	6258 WINDING WAY			CARMICHAEL	CA	95608-1173	US		Love you Mombo! From Jim Milner, Parker Luke and Kat your daughter.	false		
112-3906403-2675412	58340844886986	2021-01-09T20:07:22+00:00	2021-01-09T12:07:22-08:00	2021-01-09T20:35:24+00:00	2021-01-13T07:59:59+00:00	-4	70m26b6047qbvq6@marketplace.amazon.com	Monica	+1 415-419-8616 ext. 88220	ABR0055	Delivery by Wednesday, January 13 Dozen Hot Pink Roses in a Free Vase by Arabella Bouquets	1	0	1	Expedited	Melissa Ballentine	6404 FIRE CREEK TRL			FRISCO	TX	75036-1157	US		Hope you're feeling all better soon, baby sis!  Love you. From Monica	false		
112-6681412-2863400	66879016627562	2021-01-09T20:12:03+00:00	2021-01-09T12:12:03-08:00	2021-01-09T20:40:59+00:00	2021-01-13T07:59:59+00:00	-4	kxpllhvc7rvh6xk@marketplace.amazon.com	Daniel	+1 415-851-9136 ext. 52965	ABR0066	Delivery by Wednesday, January 13 Dozen White Roses in a Free Vase by Arabella Bouquets	1	0	1	Expedited	Daniel R Petersen	C/O BETTY PETERSEN	300 S CLINTON ST APT 5D		DENVER	CO	80247-1273	US		Enjoy your gift!  Snacks coming soon.  Love you, From Daniel	false		
114-8925577-7717856	59023600675394	2021-01-09T20:24:00+00:00	2021-01-09T12:24:00-08:00	2021-01-09T20:43:04+00:00	2021-01-13T07:59:59+00:00	-4	fnw8nmyjcs33vmp@marketplace.amazon.com	Dibyendu De	+1 763-225-9463 ext. 51575	ABR0066	Delivery by Wednesday, January 13 Dozen White Roses in a Free Vase by Arabella Bouquets	1	0	1	Standard	Mrs. KIKIBEN PATEL	1706 VIOLET WAY			DALTON	GA	30720-8046	US		Mrs. Kikiben Patel & Family, We miss Manubhai ji. His compassion, kind heart, love for family and friends keep him in our memory lifelong. God's Blessings. With Love, From Dibyendu & Soma De	false		
113-5372860-0834600	19201841565546	2021-01-09T20:37:09+00:00	2021-01-09T12:37:09-08:00	2021-01-09T20:58:18+00:00	2021-01-13T07:59:59+00:00	-4	l5d1ky22k3sr6t9@marketplace.amazon.com	Gabrielle Sturek	+1 415-419-8616 ext. 82526	ABR0055	Delivery by Wednesday, January 13 Dozen Hot Pink Roses in a Free Vase by Arabella Bouquets	1	0	1	Expedited	Hayley Sturek	3149 ALAFAYA BAY LN APT 203			ORLANDO	FL	32817-6525	US		Happy Birthday Baby Girl!  We love you very much! Hope you have a great day. From Love, Mom, Dad & Gabrielle	false		
111-7723165-3517034	59612857462738	2021-01-09T20:32:42+00:00	2021-01-09T12:32:42-08:00	2021-01-09T21:01:05+00:00	2021-01-13T07:59:59+00:00	-4	v0xzfd220mdctnl@marketplace.amazon.com	Hillary M Solowy	+1 415-419-8616 ext. 22533	ABR0066	Delivery by Wednesday, January 13 Dozen White Roses in a Free Vase by Arabella Bouquets	1	0	1	Expedited	Kelly Solowy	20 MARK DR			WINFIELD	PA	17889-9605	US		Dear Kelly-   Happy Birthday!  Wishing you a wonderful 2021.  Keep smiling ;-) We love you- From Drew & Hillary From Drew & Hillary	false		
113-7322628-2579454	32602857145938	2021-01-09T20:36:05+00:00	2021-01-09T12:36:05-08:00	2021-01-09T21:02:58+00:00	2021-01-13T07:59:59+00:00	-4	19l8plzkz7mj22k@marketplace.amazon.com	janet myers'm	+1 213-442-1463 ext. 81247	ABR0033	Delivery by Wednesday, January 13 Dozen Orange Roses in a Free Vase by Arabella Bouquets	1	0	1	Expedited	Shehanna Adams	1807 2ND ST			WAMEGO	KS	66547-1927	US		Enjoy your gift!  We love you. From janet myer	false		
111-6877081-4491401	23408503995314	2021-01-09T20:35:51+00:00	2021-01-09T12:35:51-08:00	2021-01-09T21:04:09+00:00	2021-01-13T07:59:59+00:00	-4	38jwf60by57fpmk@marketplace.amazon.com	Evelyn Seto	+1 619-854-2705 ext. 24635	ABR0066	Delivery by Wednesday, January 13 Dozen White Roses in a Free Vase by Arabella Bouquets	1	0	1	Expedited	Caren Rizzo	6241 AMY AVE			GARDEN GROVE	CA	92845-1807	US		Deepest sympathies for your loss.  We will always remember Patsy. From The Seto Family	false		
113-8531215-8272219	03965539333594	2021-01-09T20:38:27+00:00	2021-01-09T12:38:27-08:00	2021-01-09T21:06:26+00:00	2021-01-13T07:59:59+00:00	-4	sv0tyllkn30mxt5@marketplace.amazon.com	Brooke	+1 415-419-8616 ext. 40863	ABM026	Delivery by Wednesday, January 13 Amour Bouquet by Arabella Bouquets	1	0	1	Expedited	Sandy Piccola	8 PARKVIEW DR			UTICA	NY	13501-4214	US		We are so very sorry for your loss. Sending love and hugs during this difficult time. Xoxo From Christopher DeGrace & Brooke	false		
111-6523968-6447434	56851778774714	2021-01-09T20:44:33+00:00	2021-01-09T12:44:33-08:00	2021-01-09T21:13:53+00:00	2021-01-13T07:59:59+00:00	-4	g3bm9lnkgxpl7g1@marketplace.amazon.com	Joe Isca	+1 602-671-6610 ext. 10450	ABC002	Delivery by Wednesday, January 13 Warm Wishes Bouquet by Arabella Bouquets	1	0	1	Expedited	Kay Lynn Isca	14022 LINDSAY CT			FORT WAYNE	IN	46814-9796	US		I’m so sorry about grandpa. We love you mom and wish we could be there for you. Hang in there. From Joey and Meagan	false		
111-4173850-1897036	03737535813834	2021-01-09T21:03:37+00:00	2021-01-09T13:03:37-08:00	2021-01-09T21:31:19+00:00	2021-01-13T07:59:59+00:00	-4	mqnz0vy1w7cx5l3@marketplace.amazon.com	Teresa Thompson	+1 602-671-6610 ext. 11056	ABC002	Delivery by Wednesday, January 13 Warm Wishes Bouquet by Arabella Bouquets	1	0	1	Expedited	Ann Cusella	507 EL CAPITAN DR			DANVILLE	CA	94526-4923	US			false		
113-3871625-2204244	13871882130162	2021-01-09T21:05:58+00:00	2021-01-09T13:05:58-08:00	2021-01-09T21:34:12+00:00	2021-01-13T07:59:59+00:00	-4	bckzy6sb2cy49h2@marketplace.amazon.com	Sara Bushland	+1 415-419-8616 ext. 07907	ABR0066	Delivery by Wednesday, January 13 Dozen White Roses in a Free Vase by Arabella Bouquets	1	0	1	Expedited	Patty Bushland	3 STILLMEADOW CT			AUSTIN	TX	78738-1474	US		Happy 50th Birthday Mom! Love you so much ❤️ From Sara Bushland	false		
113-8765433-5015448	09697756896810	2021-01-09T21:08:59+00:00	2021-01-09T13:08:59-08:00	2021-01-09T21:37:29+00:00	2021-01-13T07:59:59+00:00	-4	hjf8mvjdrnqwrs4@marketplace.amazon.com	Diane Khalsa	+1 602-671-6610 ext. 02766	ABR0022	Delivery by Wednesday, January 13 Dozen Pink Roses with a Free Vase by Arabella Bouquets	1	0	1	Expedited	Roni Dye	4521 MIDDLETON PARK CIR E			JACKSONVILLE	FL	32224-6607	US		Happy Birthday Grandma/Mom!  We love you! From Diane, Izumi and Katie	false		
114-3700458-1309029	34125239116090	2021-01-09T21:12:37+00:00	2021-01-09T13:12:37-08:00	2021-01-09T21:43:07+00:00	2021-01-13T07:59:59+00:00	-4	24gt31fjxlh3lvw@marketplace.amazon.com	Ardus S. Drewes	+1 602-671-6610 ext. 80283	ABR001	Delivery by Wednesday, January 13 Dozen Red Roses in a Free Vase by Arabella Bouquets	1	0	1	Expedited	Sam Drewes	4515 E. Redfield Rd.			Phoenix	AZ	85032	US			false		
114-8209145-1717017	29321230598530	2021-01-09T21:20:14+00:00	2021-01-09T13:20:14-08:00	2021-01-09T21:49:33+00:00	2021-01-13T07:59:59+00:00	-4	kmx1671zqfbjvbp@marketplace.amazon.com	Pasquale J. Patti	+1 213-442-1463 ext. 12855	ABC001	Delivery by Wednesday, January 13 Seasons Greetings Bouquet by Arabella Bouquets	1	0	1	Expedited	Janice Lacoste	27313 GREGORY LN			PONCHATOULA	LA	70454-8120	US		With our deepest sympathies.. Love, Pasquale and Valentina From Pasquale and Valentina	false		
111-4182193-5246662	44717411855314	2021-01-09T22:01:20+00:00	2021-01-09T14:01:20-08:00	2021-01-09T22:22:50+00:00	2021-01-13T07:59:59+00:00	-4	5lzrflqmxksnr3b@marketplace.amazon.com	Lynda M. Griek	+1 415-851-9136 ext. 73306	ABM024	Delivery by Wednesday, January 13 Beauty of Color Bouquet by Arabella Bouquets	1	0	1	Expedited	Bonnie Clauss	23 SCARLETT CT			NEW CITY	NY	10956-5009	US		We are all sorry for your loss. We will keep you and your family in our thoughts and prayers. From Your Friends at First Dog	false		
111-0241746-8201013	16799419884018	2021-01-09T22:02:49+00:00	2021-01-09T14:02:49-08:00	2021-01-09T22:30:46+00:00	2021-01-13T07:59:59+00:00	-4	h3cxxbwcmr8cyd1@marketplace.amazon.com	Laura M. Bellanca	+1 346-307-9643 ext. 24062	ABM020	Delivery by Wednesday, January 13 Sunset Bouquet by Arabella Bouquets	1	0	1	Expedited	Melissa Harrison Hamel	543 MAVES DR			BATAVIA	IL	60510-4301	US		You have had quite a year my friend! Something to brighten your day as you start 2021! From Laura Bellanca	false		
114-5686904-3173825	32728677124250	2021-01-09T22:03:30+00:00	2021-01-09T14:03:30-08:00	2021-01-09T22:31:47+00:00	2021-01-13T07:59:59+00:00	-4	slch3ysz20zr5sl@marketplace.amazon.com	Shannon Fitzgerald	+1 602-671-6610 ext. 00991	ABR0066	Delivery by Wednesday, January 13 Dozen White Roses in a Free Vase by Arabella Bouquets	1	0	1	Expedited	Jenine Schenk	4090 N CHERRI LYNN DR			PINE	AZ	85544-5140	US		I am sorry to hear about Mark. My prayers are with you and your family. From Shannon Fitzgerald	false		
112-2050832-2341856	39800096686690	2021-01-09T22:07:35+00:00	2021-01-09T14:07:35-08:00	2021-01-09T22:34:28+00:00	2021-01-12T07:59:59+00:00	-3	k32tks6l7tppl2g@marketplace.amazon.com	Christina Matthews	+1 415-419-8616 ext. 17752	ABM022	Delivery by Wednesday, January 13 Purple Extravagance Bouquet by Arabella Bouquets	1	0	1	SecondDay	Karen DeLillo	24 Wilwood Gardens	F1		Port Washington	NY	12050	US		Happy Birthday my friend! I love you! Have a great day! From Love, Christina & Brad	false		
113-2538702-1705823	66813593113074	2021-01-09T22:29:00+00:00	2021-01-09T14:29:00-08:00	2021-01-09T22:55:55+00:00	2021-01-13T07:59:59+00:00	-4	99p5myjddhtlqmg@marketplace.amazon.com	Amy	+1 602-671-6610 ext. 62303	ABM020	Delivery by Wednesday, January 13 Sunset Bouquet by Arabella Bouquets	1	0	1	Expedited	Cassandra Bowen	14 LANSDOWNE LN			PALM COAST	FL	32137-9629	US			false		
113-6628529-9681863	12043070586938	2021-01-09T22:45:29+00:00	2021-01-09T14:45:29-08:00	2021-01-09T22:56:09+00:00	2021-01-13T07:59:59+00:00	-4	ckncpft49yv4z29@marketplace.amazon.com	Juanita E. Petersen	+1 415-851-9136 ext. 19341	ABM022	Delivery by Wednesday, January 13 Purple Extravagance Bouquet by Arabella Bouquets	1	0	1	Expedited	Stacy Darnell	13601 S 44TH ST APT 2024			PHOENIX	AZ	85044-4885	US		Enjoy your gift! We love you to the Moon and Back From Mom and Dad	false		
111-0503708-3224255	20657190303354	2021-01-09T22:34:47+00:00	2021-01-09T14:34:47-08:00	2021-01-09T23:03:26+00:00	2021-01-13T07:59:59+00:00	-4	t2shmcdj80r1sj7@marketplace.amazon.com	Laura Watson	+1 346-307-9643 ext. 23493	ABR0022	Delivery by Wednesday, January 13 Dozen Pink Roses with a Free Vase by Arabella Bouquets	1	0	1	Expedited	Mrs Lynn Kunz	3500 W CHESTER PIKE	DUNWOODY CH 19		NEWTOWN SQUARE	PA	19073-4101	US		Happy  Birthday!   Love, Laurie and Scott From Laura Watson	false		
113-2199276-6297049	05837635182498	2021-01-09T22:42:00+00:00	2021-01-09T14:42:00-08:00	2021-01-09T23:04:06+00:00	2021-01-13T07:59:59+00:00	-4	q1stf4dcyv958yq@marketplace.amazon.com	Melida smith	+1 346-307-9643 ext. 85509	ABR0066	Delivery by Wednesday, January 13 Dozen White Roses in a Free Vase by Arabella Bouquets	1	0	1	Expedited	Irma	81 BAY 40TH ST APT 2			BROOKLYN	NY	11214-4445	US		Happy 80th Birthday Mom, Love Dwight Mely n Ashley From Melida smith	false		
113-3091004-1072205	48581519635050	2021-01-09T22:49:03+00:00	2021-01-09T14:49:03-08:00	2021-01-09T23:16:10+00:00	2021-01-13T07:59:59+00:00	-4	68jbmhpl2p8crf5@marketplace.amazon.com	Rebecca Mendoza	+1 415-851-9136 ext. 09157	ABR0022	Delivery by Wednesday, January 13 Dozen Pink Roses with a Free Vase by Arabella Bouquets	1	0	1	Expedited	Hermilda Mendoza	8301 MOYE DR			EL PASO	TX	79925-4925	US		Happy Birthday Mom!  Have a wonderful day!  Love you very much! From Becky	false		
114-1884133-4888255	61034598151658	2021-01-09T22:55:19+00:00	2021-01-09T14:55:19-08:00	2021-01-09T23:24:51+00:00	2021-01-13T07:59:59+00:00	-4	3dgh9fm4mstf80k@marketplace.amazon.com	Geoff Taylor	+1 415-419-8616 ext. 63592	ABR0033	Delivery by Wednesday, January 13 Dozen Orange Roses in a Free Vase by Arabella Bouquets	1	0	1	Expedited	Nettie Glassman	700 MEASE PLZ APT 942			DUNEDIN	FL	34698-6646	US		Happy birthday, Mom Mom! We love you and hope you enjoy these flowers on your special day. From Alyssa, Brent, MK, & Jesus	false		
113-5369659-3219400	39952374455338	2021-01-09T22:58:46+00:00	2021-01-09T14:58:46-08:00	2021-01-09T23:27:31+00:00	2021-01-13T07:59:59+00:00	-4	q1stf4dcyv958yq@marketplace.amazon.com	Melida smith	+1 415-419-8616 ext. 65828	ABR012	Delivery by Wednesday, January 13 FarmDirect 18 Pink Roses in a Free Vase by Arabella Bouquets	1	0	1	Standard	Irma Trigueno	81 Bay 40th St., Apt#2			Brooklyn	NY	11214	US		Enjoy your giftHappy birth day Mom Mely, Dwight n Ashley From Melida smith	false		
112-8813391-4215421	64111991974378	2021-01-09T23:08:22+00:00	2021-01-09T15:08:22-08:00	2021-01-09T23:34:37+00:00	2021-01-13T07:59:59+00:00	-4	m38kn5dm3cq2qxx@marketplace.amazon.com	Kimberly Marsh	+1 619-854-2705 ext. 58663	ABR0033	Delivery by Wednesday, January 13 Dozen Orange Roses in a Free Vase by Arabella Bouquets	1	0	1	Expedited	Serita Strickland	408 E VICTORIA TRAILS BLVD			DELAND	FL	32724-7992	US		Happy Birthday! We love you & cannot wait to see you! Many hugs and kisses when we get there!! From Kim & Ron	false		
111-3964531-7589059	10887057824794	2021-01-09T23:23:54+00:00	2021-01-09T15:23:54-08:00	2021-01-09T23:50:49+00:00	2021-01-13T07:59:59+00:00	-4	g506yqpzrnzb977@marketplace.amazon.com	Linda McDonald	+1 346-307-9643 ext. 05680	ABM020	Delivery by Wednesday, January 13 Sunset Bouquet by Arabella Bouquets	1	0	1	Expedited	Olivia Barron	1225 STEINER ST APT 506			SAN FRANCISCO	CA	94115-4143	US		Hi Olivia, Have an absolutely beautiful and Happy 80th birthday Your Children	false		
111-0004546-5654610	13664382188018	2021-01-09T23:31:35+00:00	2021-01-09T15:31:35-08:00	2021-01-10T00:01:26+00:00	2021-01-13T07:59:59+00:00	-4	k1fmtmqnq0zjvwy@marketplace.amazon.com	Maxine Baker	+1 213-442-1463 ext. 54763	ABM010	Delivery by Wednesday, January 13 Everlasting Fling with a Free Glass Vase by Arabella Bouquets	1	0	1	Expedited	Maxine Baker	2574 COUNTY ROAD 28			ROBSTOWN	TX	78380-6154	US			false		
112-7684003-3982666	31974039146882	2021-01-10T00:12:24+00:00	2021-01-09T16:12:24-08:00	2021-01-10T00:14:41+00:00	2021-01-13T07:59:59+00:00	-4	1dw9hz9r826r6l7@marketplace.amazon.com	chienyenwa Nwaogu	+1 619-854-2705 ext. 63459	ABR004	Delivery by Wednesday, January 13 Dozen Yellow Roses in a Free Vase by Arabella Bouquets	1	0	1	Expedited	Adaeze iloegbunam	55 HEALEY CT			BUNKER HILL	WV	25413-1132	US			false		
111-5138771-0365031	40459746073090	2021-01-09T23:49:42+00:00	2021-01-09T15:49:42-08:00	2021-01-10T00:19:14+00:00	2021-01-13T07:59:59+00:00	-4	phkvl979yq3vllw@marketplace.amazon.com	Kimberly Finney	264461787	ABR0022	Delivery by Wednesday, January 13 Dozen Pink Roses with a Free Vase by Arabella Bouquets	1	0	1	Expedited	Jill Johns	12818 GRANDE POPLAR CIR			PLAINFIELD	IL	60585-2811	US		Happy Birthday!  Love Kim From Kimberly Finney	false		
114-6005672-6394634	52000032528834	2021-01-09T23:48:20+00:00	2021-01-09T15:48:20-08:00	2021-01-10T00:21:26+00:00	2021-01-13T07:59:59+00:00	-4	r0nwzkfqldwwgg1@marketplace.amazon.com	Pierre Reding	+1 415-851-9136 ext. 96265	ABM020	Delivery by Wednesday, January 13 Sunset Bouquet by Arabella Bouquets	1	0	1	Expedited	Yvette Fournier	1200 BOSTON POST RD			OLD SAYBROOK	CT	06475-4405	US			true		
111-6948211-2100251	24564073750554	2021-01-09T23:56:17+00:00	2021-01-09T15:56:17-08:00	2021-01-10T00:24:15+00:00	2021-01-13T07:59:59+00:00	-4	fpg917ksgy9mt0f@marketplace.amazon.com	martha didion	+1 346-307-9643 ext. 80812	ABR0022	Delivery by Wednesday, January 13 Dozen Pink Roses with a Free Vase by Arabella Bouquets	1	0	1	Expedited	Julie Didion	3610 HUNTERS PIER			SAN ANTONIO	TX	78230-2035	US			false		
111-7734652-6632267	17414819491706	2021-01-10T00:21:24+00:00	2021-01-09T16:21:24-08:00	2021-01-10T00:47:21+00:00	2021-01-13T07:59:59+00:00	-4	6nl7xt49ctnwz00@marketplace.amazon.com	LESLIE J GREENLYSMITH	+1 763-225-9463 ext. 30277	ABM0033	Delivery by Wednesday, January 13 White Hydrangea 5 Stems with a Free Glass Vase by Arabella Bouquets	1	0	1	Expedited	Leigh Lehr	229 SHULTZ RD			DANVILLE	PA	17821-9336	US		Wishing you a wonderful birthday!  I love you! Leslie From Leslie (#4 but really #1)	false		
111-3585883-6481848	31793063827178	2021-01-10T00:26:27+00:00	2021-01-09T16:26:27-08:00	2021-01-10T00:54:01+00:00	2021-01-13T07:59:59+00:00	-4	6t45qrhwcm2bv5b@marketplace.amazon.com	civita	+1 602-671-6610 ext. 40665	ABC001	Delivery by Wednesday, January 13 Seasons Greetings Bouquet by Arabella Bouquets	1	0	1	Expedited	Vince and Maggie Carrasco	8406 N 105TH LN			PEORIA	AZ	85345-7470	US		Dear Vince , Maggie and family.  I’m so sorry for your loss.   This world has lost a sweet angel. Now she is in heaven watching over you!!!! From Civita Iacono	false		
112-3854699-9686660	31660953089794	2021-01-10T00:40:45+00:00	2021-01-09T16:40:45-08:00	2021-01-10T01:08:41+00:00	2021-01-13T07:59:59+00:00	-4	42g9lz4v2ptjgm1@marketplace.amazon.com	Michael J Kastern	+1 763-225-9463 ext. 07163	ABR015	Delivery by Wednesday, January 13 FarmDirect 18 Orange Roses in a Free Vase by Arabella Bouquets	1	0	1	Expedited	Priscilla Ferch	1612 S PALMETTO AVE			MARSHFIELD	WI	54449-5111	US		Love you so much! Hope you have a wonderful birthday! From Heidi, Mike, Luke, Claire, Sara, Alex and Ari	false		
111-0315939-3740233	35611832670730	2021-01-10T00:47:55+00:00	2021-01-09T16:47:55-08:00	2021-01-10T01:16:33+00:00	2021-01-13T07:59:59+00:00	-4	g02x43kw9v7136f@marketplace.amazon.com	Lindsey Foree	+1 602-671-6610 ext. 45928	ABC002	Delivery by Wednesday, January 13 Warm Wishes Bouquet by Arabella Bouquets	1	0	1	Expedited	Shannon Foree	121 NW 6TH ST			OKLAHOMA CITY	OK	73102-6014	US		I love you mommy!!! I found out Amazon delivers flowers and I thought you deserved some. Have a great day! From Lindsey Foree	false		
112-1486510-3391428	27578635217594	2021-01-10T00:57:51+00:00	2021-01-09T16:57:51-08:00	2021-01-10T01:17:57+00:00	2021-01-13T07:59:59+00:00	-4	hjstz57n9gzjys7@marketplace.amazon.com	Patricia Devine	+1 602-671-6610 ext. 29606	ABR0066	Delivery by Wednesday, January 13 Dozen White Roses in a Free Vase by Arabella Bouquets	1	0	1	Expedited	Mickie Hamilton	8139 BENTLEY FARMS PL			INDIANAPOLIS	IN	46259-5708	US		Our thoughts and prayers are with you, Mickie, on the loss of your beloved husband. From Doug and Dawn Devine	false		
113-8907446-2648230	21503827398330	2021-01-10T00:49:37+00:00	2021-01-09T16:49:37-08:00	2021-01-10T01:18:06+00:00	2021-01-13T07:59:59+00:00	-4	2g7x01j8px58fgl@marketplace.amazon.com	Jonathan H D Heathcote	+1 763-225-9463 ext. 16271	ABM022	Delivery by Wednesday, January 13 Purple Extravagance Bouquet by Arabella Bouquets	1	0	1	Expedited	Tonia Flores	3410 VOLTA PL NW			WASHINGTON	DC	20007-2736	US		Con todo de carino de tus amigos en Minnesota. Kendall, Jonathan, Grande y Lucia -- un abrazo fuerte. Hope you feel very much better very soon. we love you. From Jonathan H D Heathcote	false		
113-2763066-0109051	10991726721810	2021-01-10T00:53:33+00:00	2021-01-09T16:53:33-08:00	2021-01-10T01:23:29+00:00	2021-01-13T07:59:59+00:00	-4	54mqj19b97ggs1y@marketplace.amazon.com	Almedin	00138737644497803	ABR0022	Delivery by Wednesday, January 13 Dozen Pink Roses with a Free Vase by Arabella Bouquets	1	0	1	Expedited	Almedin	1200 64TH ST			WINDSOR HEIGHTS	IA	50324-1836	US			false		
111-2154196-9053808	09563964725370	2021-01-10T00:58:53+00:00	2021-01-09T16:58:53-08:00	2021-01-10T01:26:41+00:00	2021-01-13T07:59:59+00:00	-4	84bt2hlbyhyycms@marketplace.amazon.com	Lori Pence	+1 346-307-9643 ext. 75281	ABR0033	Delivery by Wednesday, January 13 Dozen Orange Roses in a Free Vase by Arabella Bouquets	1	0	1	Expedited	Tiffany Coogan	108 N SARGENT AVE			GLENDIVE	MT	59330-2525	US		To a beautiful woman and an amazing mom.  I am happy to call you & your amazing kids family.  We love you all. From Lori Pence	false		
111-7003277-7027431	37567179044898	2021-01-10T00:59:17+00:00	2021-01-09T16:59:17-08:00	2021-01-10T01:27:54+00:00	2021-01-13T07:59:59+00:00	-4	vr8cpfpy99680cz@marketplace.amazon.com	Jason Cheung	+1 213-442-1463 ext. 48119	ABM020	Delivery by Wednesday, January 13 Sunset Bouquet by Arabella Bouquets	1	0	1	Expedited	Kathy Risko	112 STEWARTSVILLE RD			STEWARTSVILLE	NJ	08886-3138	US		Hope you are feeling better soon!  We miss you! From Jason, Shara, Finley, and Lincoln	false		
113-3892035-1193812	20048233942922	2021-01-10T01:09:14+00:00	2021-01-09T17:09:14-08:00	2021-01-10T01:37:10+00:00	2021-01-13T07:59:59+00:00	-4	sdjlwlmwvrzvgsp@marketplace.amazon.com	melissa	+1 213-442-1463 ext. 45604	ABM017	Delivery by Tuesday, January 12, Blue Dendrobium Orchids 10 Stems in a Free Designer Glass Vase by Arabella Bouquets	1	0	1	Expedited	melissa green, service coordinator	2400 29TH ST SERVICE COORDINATOR	# 103		ZION	IL	60099-3083	US		Who loves ya, baby? From melissa	false		
114-8737239-0758654	02689429634650	2021-01-10T01:08:38+00:00	2021-01-09T17:08:38-08:00	2021-01-10T01:37:33+00:00	2021-01-13T07:59:59+00:00	-4	3xqbb90yksgfpp4@marketplace.amazon.com	John A Georges II	+1 213-442-1463 ext. 19038	ABR0033	Delivery by Wednesday, January 13 Dozen Orange Roses in a Free Vase by Arabella Bouquets	1	0	1	Expedited	Amara Kupiec	70 MCINTIRE RD			FITCHBURG	MA	01420-1842	US		Hope your days are better. Love  Dad From John A Georges II	false		
113-6323104-3064257	47428028251650	2021-01-10T01:23:39+00:00	2021-01-09T17:23:39-08:00	2021-01-10T01:49:02+00:00	2021-01-13T07:59:59+00:00	-4	jlv8t4486csrybg@marketplace.amazon.com	Sally Tuttle	+1 602-671-6610 ext. 45939	ABM031	Delivery by Wednesday, January 13 The Harvest Moon Bouquet by Arabella Bouquets	1	0	1	Standard	Dee Smith	10 OLD SCHAUBER RD			BALLSTON LAKE	NY	12019-2308	US		Happy birthday, lovely lady! From Sally Tuttle	false		
112-0663806-2827458	45586118203178	2021-01-10T01:29:13+00:00	2021-01-09T17:29:13-08:00	2021-01-10T01:51:53+00:00	2021-01-13T07:59:59+00:00	-4	xbbp6w7x0f80sf4@marketplace.amazon.com	cynthia rowley	+1 415-419-8616 ext. 87392	ABM022	Delivery by Wednesday, January 13 Purple Extravagance Bouquet by Arabella Bouquets	1	0	1	Expedited	Sandra Ward Cochran	19587 DRUMMOND DR			MILFORD	DE	19963-4290	US		Happy Birthday dear friend! From Love. Sharon, Gracie and Cindi	false		
114-8581403-8529029	34053735973002	2021-01-10T01:30:26+00:00	2021-01-09T17:30:26-08:00	2021-01-10T01:59:36+00:00	2021-01-13T07:59:59+00:00	-4	9vnwwh0lc9zhkd7@marketplace.amazon.com	Shirley Swain	+1 602-671-6610 ext. 11685	ABM020	Delivery by Wednesday, January 13 Sunset Bouquet by Arabella Bouquets	1	0	1	Expedited	Susan Hayter	13621 VAIL DR			MONTGOMERY	TX	77356-8592	US			false		
113-3071306-0969836	18223474053922	2021-01-10T01:40:16+00:00	2021-01-09T17:40:16-08:00	2021-01-10T02:08:33+00:00	2021-01-13T07:59:59+00:00	-4	hvd52hqqy0l5jrx@marketplace.amazon.com	Katie	+1 763-225-9463 ext. 75965	ABM025	Delivery by Wednesday, January 13 Fell for You Bouquet by Arabella Bouquets	1	0	1	Expedited	Heather Hackett	15 JASMINE DR			WEST BOYLSTON	MA	01583-2131	US		Happy Birthday  Here are some flowers  xoxo From Katie	false		
111-7564007-3953846	32939640010186	2021-01-10T01:49:26+00:00	2021-01-09T17:49:26-08:00	2021-01-10T02:08:51+00:00	2021-01-13T07:59:59+00:00	-4	10n1r2xy6k9704l@marketplace.amazon.com	Teena lowe	+1 619-854-2705 ext. 56401	ABR0022	Delivery by Wednesday, January 13 Dozen Pink Roses with a Free Vase by Arabella Bouquets	1	0	1	Expedited	Amanda & kids	33033 MINNEOLA RD			NEWBERRY SPRINGS	CA	92365-9130	US		Enjoy your gift! From Teena lowe	false		
114-9684638-4589015	67937136117234	2021-01-10T01:41:41+00:00	2021-01-09T17:41:41-08:00	2021-01-10T02:08:53+00:00	2021-01-12T07:59:59+00:00	-3	ghm7j19p7hxj3wj@marketplace.amazon.com	Amy L. Stafford	+1 415-419-8616 ext. 57054	ABR0033	Delivery by Wednesday, January 13 Dozen Orange Roses in a Free Vase by Arabella Bouquets	1	0	1	SecondDay	Verna Posey	7808 SOL VISTA LN			EL DORADO HILLS	CA	95762-9481	US		Happy birthday, Mom!!! We love you so much, and wish we could spend your special day with you. Hugs and kisses! Curt & Amy From Curt & Amy Stafford	false		
111-4365935-6172202	35589694131010	2021-01-10T01:53:56+00:00	2021-01-09T17:53:56-08:00	2021-01-10T02:21:05+00:00	2021-01-13T07:59:59+00:00	-4	szzzqndsp9qy59g@marketplace.amazon.com	Brian Mitchell	+1 763-225-9463 ext. 66205	ABSR003	Delivery by Wednesday, January 13 Yellow Spray Roses in a Free Designer Glass Vase by Arabella Bouquets	1	0	1	Expedited	Morgan smith	214 MCQUEEN CIR			SAINT MARYS	GA	31558-2850	US		I saw these right after you told me about the suffragettes used yellow roses to distinguish themselves so i had to get them and also i just love you a lot and felt like you needed flowers i love pretty pretty girl From B	false		
114-5407962-5309804	55763955564450	2021-01-10T02:00:14+00:00	2021-01-09T18:00:14-08:00	2021-01-10T02:29:43+00:00	2021-01-13T07:59:59+00:00	-4	jclxh40x671pwj2@marketplace.amazon.com	earl andre benjamin	+1 415-419-8616 ext. 65439	ABR0022	Delivery by Wednesday, January 13 Dozen Pink Roses with a Free Vase by Arabella Bouquets	1	0	1	Expedited	Michelle Raymundo	851 CHERRY AVE 27/300			SAN BRUNO	CA	94066-2900	US		Been saying you deserve a day to relax. Hope this helps. From  andre benjamin with love	false		
111-2304372-0131426	14958331450330	2021-01-10T02:01:52+00:00	2021-01-09T18:01:52-08:00	2021-01-10T02:32:21+00:00	2021-01-13T07:59:59+00:00	-4	jc8b7y9ybfz68wl@marketplace.amazon.com	Jennifer Chappell	+1 415-419-8616 ext. 58431	ABR0022	Delivery by Wednesday, January 13 Dozen Pink Roses with a Free Vase by Arabella Bouquets	1	0	1	Expedited	Alyssa Chappell	167 ALLIANCE AVE			PORTAGE	PA	15946-8415	US			false		
113-2309668-7182643	29302758270978	2021-01-10T02:12:16+00:00	2021-01-09T18:12:16-08:00	2021-01-10T02:34:39+00:00	2021-01-13T07:59:59+00:00	-4	x8pp39r63r7gwpj@marketplace.amazon.com	Jenny Grigor-Grinshteyn	+1 213-442-1463 ext. 05087	ABR0022	Delivery by Wednesday, January 13 Dozen Pink Roses with a Free Vase by Arabella Bouquets	1	0	1	Expedited	Natasha Zvereva	8011 ROMAINE ST APT 311			WEST HOLLYWOOD	CA	90046-6096	US		Dear Natasha, wishing you a very happy belated birthday!  May 2021 bring you good health, well-being and joy.  We hope this year we can see you!  Best of luck!  Enjoy your gift! From Nikkita, Viktor, Jenny, Boris, Churchill	false		
112-7992394-0348254	65698130272482	2021-01-10T02:17:03+00:00	2021-01-09T18:17:03-08:00	2021-01-10T02:37:12+00:00	2021-01-13T07:59:59+00:00	-4	j5rwn391f17g2zq@marketplace.amazon.com	Cheryl devinney	+1 763-225-9463 ext. 21656	ABR0066	Delivery by Wednesday, January 13 Dozen White Roses in a Free Vase by Arabella Bouquets	1	0	1	Expedited	Dan Miller & family	671 SPRING LAKE DR			PEARL	MS	39208-6667	US		Dear; Dan, Shannen & Dustin,        I’m so sorry for your loss. Valerie was such a wonderful and loving person. I have so many great memories of all of us together and we will miss her very much.  Love Always, Cheryl & Scott Devinney	false		
113-5188347-3912243	55713935155298	2021-01-10T02:12:44+00:00	2021-01-09T18:12:44-08:00	2021-01-10T02:39:02+00:00	2021-01-13T07:59:59+00:00	-4	04vc2zyyt7dtxbj@marketplace.amazon.com	karen beratta	+1 415-419-8616 ext. 97255	ABM020	Delivery by Wednesday, January 13 Sunset Bouquet by Arabella Bouquets	1	0	1	Expedited	Christine Naranjo	876 HEARTLAND DR			MANTECA	CA	95337-8971	US		I am sorry for your loss. Thinking of you and your family. Sending you prayers of love and peace. Love, Karen From karen beratta	false		
111-8022002-5161818	44286847311890	2021-01-10T02:21:26+00:00	2021-01-09T18:21:26-08:00	2021-01-10T02:49:50+00:00	2021-01-12T07:59:59+00:00	-3	9tmz5rj3wf5hb37@marketplace.amazon.com	Taylor	+1 480-618-5344 ext. 80811	ABR0022	Delivery by Wednesday, January 13 Dozen Pink Roses with a Free Vase by Arabella Bouquets	1	0	1	SecondDay	Taylor	101 NNPTC CIR CLASS 2112-A			GOOSE CREEK	SC	29445-6324	US			false		
114-2673380-4912264	51751185604202	2021-01-10T02:34:40+00:00	2021-01-09T18:34:40-08:00	2021-01-10T02:59:03+00:00	2021-01-13T07:59:59+00:00	-4	xq1qtb1b1wmqyw9@marketplace.amazon.com	Phyllis K. Siebert	+1 602-671-6610 ext. 58792	ABM020	Delivery by Wednesday, January 13 Sunset Bouquet by Arabella Bouquets	1	0	1	Expedited	Katie Griffin	50 E TERRA COTTA AVE RTE 176			CRYSTAL LAKE	IL	60014-3622	US		Happy 40th Birthday Katie! Wishing Joy and Happiness Love, Mom From Phyllis Siebert	false		
112-8007690-8001027	43656676177914	2021-01-10T02:47:51+00:00	2021-01-09T18:47:51-08:00	2021-01-10T03:16:08+00:00	2021-01-13T07:59:59+00:00	-4	3rt9xwj68fxkdp1@marketplace.amazon.com	Paula Wasson	+1 415-419-8616 ext. 04386	ABR0055	Delivery by Wednesday, January 13 Dozen Hot Pink Roses in a Free Vase by Arabella Bouquets	1	0	1	Expedited	Ruth Whipkey	244 FAIRCREST DR			WHEELING	WV	26003-7531	US		Hope these flowers make your day!  Happy Birthday Aunt Ruth Ann. From Paula Wasson	false		
113-8264808-2617832	14796011514450	2021-01-10T03:13:41+00:00	2021-01-09T19:13:41-08:00	2021-01-10T03:38:52+00:00	2021-01-13T07:59:59+00:00	-4	53h9qls2yhg9w7c@marketplace.amazon.com	chris boyer	+1 602-671-6610 ext. 85194	ABM020	Delivery by Wednesday, January 13 Sunset Bouquet by Arabella Bouquets	1	0	1	Expedited	Dorothy Boyer (Grandma)	5549 JAMES AVE N			MINNEAPOLIS	MN	55430-3053	US		Happy Birthday Grandma!  I love you so much and think about you all the time, we had so many good times together as a family that I will never forget. Hope your birthday is wonderfull :) From chris boyer	false		
113-4604536-4768204	29163392835074	2021-01-10T03:14:15+00:00	2021-01-09T19:14:15-08:00	2021-01-10T03:44:34+00:00	2021-01-13T07:59:59+00:00	-4	53h9qls2yhg9w7c@marketplace.amazon.com	chris boyer	+1 602-671-6610 ext. 77980	ABM020	Delivery by Wednesday, January 13 Sunset Bouquet by Arabella Bouquets	1	0	1	Expedited	Dorothy Boyer (Grandma)	5549 JAMES AVE N			MINNEAPOLIS	MN	55430-3053	US			false		
114-9800954-0492262	64209907930434	2021-01-10T03:38:27+00:00	2021-01-09T19:38:27-08:00	2021-01-10T04:02:10+00:00	2021-01-13T07:59:59+00:00	-4	6pqw7lrgpjcpv41@marketplace.amazon.com	Satrajit Gupta	+1 415-419-8616 ext. 28758	ABR0066	Delivery by Wednesday, January 13 Dozen White Roses in a Free Vase by Arabella Bouquets	1	0	1	Expedited	Tammie Ness	1095 CHUCKANUT DR			BELLINGHAM	WA	98229-8982	US		Dearest Tammie, We are so sorry to hear about your loss! Wishing you strength and comfort through this difficult time.Thinking of you and wishing you moments of peace and comfort. From Aditi, Satrajit & Nirvaan	false		
114-8781395-1282656	50222015860194	2021-01-10T03:35:41+00:00	2021-01-09T19:35:41-08:00	2021-01-10T04:03:44+00:00	2021-01-13T07:59:59+00:00	-4	rxbwtkct80yqtwk@marketplace.amazon.com	Mike & Michelle Haislip	+1 213-442-1463 ext. 67017	ABC002	Delivery by Wednesday, January 13 Warm Wishes Bouquet by Arabella Bouquets	1	0	1	Expedited	Aaron Haislip	401 N BRACKETT ST			BOKCHITO	OK	74726-1104	US		We love you guys and are praying for you.  Love, Dad and Mom From Mike & Michelle Haislip	false		
114-6985723-4934601	39167300385282	2021-01-10T03:53:03+00:00	2021-01-09T19:53:03-08:00	2021-01-10T04:18:55+00:00	2021-01-13T07:59:59+00:00	-4	pxmg7wcbk7w4ndc@marketplace.amazon.com	Michele	+1 415-851-9136 ext. 07035	ABR0022	Delivery by Wednesday, January 13 Dozen Pink Roses with a Free Vase by Arabella Bouquets	1	0	1	Expedited	Hope Lambert	540 LONGDALE CRES			CHESAPEAKE	VA	23325-4433	US		Happy Birthday! From Michele, Tye’s co-worker	false		
114-2757895-3783452	44554854660762	2021-01-10T03:56:51+00:00	2021-01-09T19:56:51-08:00	2021-01-10T04:27:29+00:00	2021-01-13T07:59:59+00:00	-4	h3c3gz9p7d84sph@marketplace.amazon.com	Terri Schuelein	+1 619-854-2705 ext. 57257	ABR0033	Delivery by Wednesday, January 13 Dozen Orange Roses in a Free Vase by Arabella Bouquets	1	0	1	Expedited	Judy Venzin	311 SE PAYSAGE TRL			STUART	FL	34997-2841	US			false		
111-2494319-8952256	17541454909378	2021-01-10T04:01:33+00:00	2021-01-09T20:01:33-08:00	2021-01-10T04:30:49+00:00	2021-01-13T07:59:59+00:00	-4	8shrb6pvhfql09j@marketplace.amazon.com	Stephen Soley	+1 415-851-9136 ext. 57877	ABR0022	Delivery by Wednesday, January 13 Dozen Pink Roses with a Free Vase by Arabella Bouquets	1	0	1	Expedited	Emma Soley	8800 S 1ST ST APT 133			AUSTIN	TX	78748-6798	US		Happy Birthday! From Big Poppa	false		
114-8673949-5365804	18853920753386	2021-01-10T04:08:50+00:00	2021-01-09T20:08:50-08:00	2021-01-10T04:33:41+00:00	2021-01-13T07:59:59+00:00	-4	rdcdk6n6mm9vwh3@marketplace.amazon.com	Akilah Bernard	+1 415-419-8616 ext. 89870	ABR0022	Delivery by Wednesday, January 13 Dozen Pink Roses with a Free Vase by Arabella Bouquets	1	0	1	Expedited	Joy Malone	4504 BRACADA DR			DURHAM	NC	27705-1653	US		Keeping you and your family lifted in prayer during this time of remembrance of your darling mom.   Love you soror! From Akilah Bernard	false		
114-1871992-2212231	43645112708194	2021-01-10T04:06:05+00:00	2021-01-09T20:06:05-08:00	2021-01-10T04:34:33+00:00	2021-01-13T07:59:59+00:00	-4	8qcl332wf66vwn6@marketplace.amazon.com	tommy wheeler	+1 346-307-9643 ext. 30727	ABR0055	Delivery by Wednesday, January 13 Dozen Hot Pink Roses in a Free Vase by Arabella Bouquets	1	0	1	Expedited	Ibrahim Coker	650 SE 162ND AVE APT 9			PORTLAND	OR	97233-3937	US			false		
114-3804399-0487425	33449365348314	2021-01-10T04:20:17+00:00	2021-01-09T20:20:17-08:00	2021-01-10T04:47:08+00:00	2021-01-12T07:59:59+00:00	-3	rdcdk6n6mm9vwh3@marketplace.amazon.com	Akilah Bernard	+1 602-671-6610 ext. 05868	ABR001	Delivery by Wednesday, January 13 Dozen Red Roses in a Free Vase by Arabella Bouquets	1	0	1	SecondDay	Yolanda Harris	4241 DRAKE CT			WALDORF	MD	20603-4566	US		Thinking of you.  I love you sis!  I am always here for you if you need me . I hope these flowers brighten your day just a little :-) From Akilah Bernard	false		
111-6283849-3633063	37237933917298	2021-01-10T04:32:04+00:00	2021-01-09T20:32:04-08:00	2021-01-10T04:51:36+00:00	2021-01-13T07:59:59+00:00	-4	781g70khrzb8cm0@marketplace.amazon.com	Connor dolan	+1 602-671-6610 ext. 18953	ABM017	Delivery by Tuesday, January 12, Blue Dendrobium Orchids 10 Stems in a Free Designer Glass Vase by Arabella Bouquets	1	0	1	Expedited	Joan Lang	1845 E MELLOW TRL			ORO VALLEY	AZ	85755-8674	US		90 incredible years lived by such a beautiful, extraordinary lady! What a joyous milestone! We are wishing you everlasting happiness, great health, and more beautiful years in the journey of life. Happiest birthday, grandma! From Connor and Janai	false		
113-3762585-5829023	08564375408994	2021-01-10T04:31:00+00:00	2021-01-09T20:31:00-08:00	2021-01-10T05:00:13+00:00	2021-01-13T07:59:59+00:00	-4	qrxbrfksc0wtxhs@marketplace.amazon.com	robbie	+1 213-442-1463 ext. 85006	ABR0022	Delivery by Wednesday, January 13 Dozen Pink Roses with a Free Vase by Arabella Bouquets	1	0	1	Expedited	ana steckley	6860 SW 75TH TER			MIAMI	FL	33143-4427	US		I hope to be able to see you all soon but until then have a great birthday!!!! From robbie	false		
112-1813480-1940217	23913314604082	2021-01-10T04:18:06+00:00	2021-01-09T20:18:06-08:00	2021-01-10T05:04:25+00:00	2021-01-13T07:59:59+00:00	-4	ms8qkx4mkw72d6x@marketplace.amazon.com	Ed Swan	+1 213-442-1463 ext. 57879	ABM0033	Delivery by Wednesday, January 13 White Hydrangea 5 Stems with a Free Glass Vase by Arabella Bouquets	1	0	1	Expedited	Ed Swan and Shirley Swan	3953 WOODMERE LN SE			LACEY	WA	98503-6982	US			false		
114-1414929-6929028	02524858305826	2021-01-10T04:41:53+00:00	2021-01-09T20:41:53-08:00	2021-01-10T05:06:58+00:00	2021-01-12T07:59:59+00:00	-3	dckyn2zthhvzs8z@marketplace.amazon.com	sheba varghese	+1 415-851-9136 ext. 58344	ABR0033	Delivery by Wednesday, January 13 Dozen Orange Roses in a Free Vase by Arabella Bouquets	1	0	1	SecondDay	Jesin Samuel	21 AMAZON CT			STATEN ISLAND	NY	10304-3729	US		Happy Birthday Chakarey!! May God bless you abundantly with everything!!! Love you so much!! From sheba varghese	false		
113-0977347-1557001	01675935551242	2021-01-10T04:51:39+00:00	2021-01-09T20:51:39-08:00	2021-01-10T05:10:59+00:00	2021-01-13T07:59:59+00:00	-4	cp44rlmx76x1xkw@marketplace.amazon.com	Vivian	+1 619-854-2705 ext. 27989	ABR0022	Delivery by Wednesday, January 13 Dozen Pink Roses with a Free Vase by Arabella Bouquets	1	0	1	Expedited	Mrs. George Mallory	267 BURNS CROSSING RD			SEVERN	MD	21144-3420	US		Sorry this is late but when all the people forget your mom will not be forgotten. Let every rose be a memory. From Vivian	false		
