order-id	order-item-id	purchase-date	payments-date	reporting-date	promise-date	days-past-promise	buyer-email	buyer-name	buyer-phone-number	sku	product-name	quantity-purchased	quantity-shipped	quantity-to-ship	ship-service-level	recipient-name	ship-address-1	ship-address-2	ship-address-3	ship-city	ship-state	ship-postal-code	ship-country	gift-wrap-type	gift-message-text	is-business-order	purchase-order-number	price-designation
113-2469047-8962657	09043293902810	2021-01-11T16:26:47+00:00	2021-01-11T08:26:47-08:00	2021-01-11T16:49:01+00:00	2021-01-14T07:59:59+00:00	-1	p1cz726c99ycgxz@marketplace.amazon.com	christi maquillan	+1 415-419-8616 ext. 34165	ABM017	Delivery by Friday, January 15, Blue Dendrobium Orchids 10 Stems in a Free Designer Glass Vase by Arabella Bouquets	1	0	1	Expedited	Charyl Chandler-Stevens	160 SILVER RD			BANGOR	ME	04401-5829	US			false		
113-7104380-5170625	01521423597690	2021-01-11T18:12:04+00:00	2021-01-11T10:12:04-08:00	2021-01-11T18:37:39+00:00	2021-01-14T07:59:59+00:00	-1	2218h6vkqp3t16x@marketplace.amazon.com	gordon scott	+1 619-854-2705 ext. 36350	ABM017	Delivery by Friday, January 15, Blue Dendrobium Orchids 10 Stems in a Free Designer Glass Vase by Arabella Bouquets	1	0	1	Expedited	ST. MARYS HOSPITAL --LYNDA REGAN ROOM 228	2505 MISSION DR			JEFFERSON CITY	MO	65109-9508	US		KEEP GETTING BETTER. LOVE YOU GORDON AND MARCIA From gordon scott	false		
113-1618148-6357817	39837344394546	2021-01-12T16:44:22+00:00	2021-01-12T08:44:22-08:00	2021-01-12T17:12:00+00:00	2021-01-15T07:59:59+00:00	-2	vbrctm4dzy90n8c@marketplace.amazon.com	Connie Hayman	+1 415-419-8616 ext. 83890	ABR0022	Delivery by Wednesday, January 13 Dozen Pink Roses with a Free Vase by Arabella Bouquets	1	0	1	Expedited	Nerreda Cooper	33110 3RD CT SW			FEDERAL WAY	WA	98023-6183	US		Happy birthday enjoy your day, Love you. From Connie Hayman	false		
114-9621925-5908214	21214667181986	2021-01-12T17:08:03+00:00	2021-01-12T09:08:03-08:00	2021-01-12T17:37:45+00:00	2021-01-15T07:59:59+00:00	-2	hvxvzlzn07vs6kb@marketplace.amazon.com	Dmitry Iodko	+1 213-442-1463 ext. 27552	ABR0022	Delivery by Wednesday, January 13 Dozen Pink Roses with a Free Vase by Arabella Bouquets	1	0	1	Expedited	Natasha Barinova	13119 106TH AVENUE CT E			PUYALLUP	WA	98374-3014	US		Have a great day babe!  -Cowboy From Dmitry Iodko	false		
111-4928345-6115417	49554253933114	2021-01-12T18:28:06+00:00	2021-01-12T10:28:06-08:00	2021-01-12T18:58:29+00:00	2021-01-15T07:59:59+00:00	-2	0jbnd1sflgp61x0@marketplace.amazon.com	Lana Staheli	+1 213-442-1463 ext. 39035	ABR0022	Delivery by Thursday, January 14 Dozen Pink Roses with a Free Vase by Arabella Bouquets	1	0	1	Expedited	Demopulos family	6339 77TH AVE SE			MERCER ISLAND	WA	98040-4820	US			false		
113-6222056-2774600	32221444757562	2021-01-12T19:05:14+00:00	2021-01-12T11:05:14-08:00	2021-01-12T19:27:30+00:00	2021-01-15T07:59:59+00:00	-2	fb4qm6wd9f3dmx6@marketplace.amazon.com	Leighanne Rappaport	+1 602-671-6610 ext. 63096	ABM017	Delivery by Friday, January 15, Blue Dendrobium Orchids 10 Stems in a Free Designer Glass Vase by Arabella Bouquets	1	0	1	Expedited	Lee Knapp	7901 BOWERMAN RD			HORTON	MI	49246-9522	US		Enjoy your gift! Happiest of birthdays,  pal! Love ya - From Leighanne Rappaport	false		
112-8274226-6368202	61226210091954	2021-01-12T19:04:47+00:00	2021-01-12T11:04:47-08:00	2021-01-12T19:35:05+00:00	2021-01-15T07:59:59+00:00	-2	2f4jqwy8mjdjt24@marketplace.amazon.com	Victor	+1 415-419-8616 ext. 41253	ABR001	Delivery by Thursday, January 14 Dozen Red Roses in a Free Vase by Arabella Bouquets	1	0	1	Expedited	Sherika T Kimbrough	8389 MEMBERS DR			JONESBORO	GA	30236-4271	US			false		
112-4493855-8421050	17812183926498	2021-01-12T19:10:41+00:00	2021-01-12T11:10:41-08:00	2021-01-12T19:36:44+00:00	2021-01-15T07:59:59+00:00	-2	nmp0zfnvzh690yp@marketplace.amazon.com	john j volkman	+1 763-225-9463 ext. 88361	ABR0022	Delivery by Friday, January 15 Dozen Pink Roses with a Free Vase by Arabella Bouquets	1	0	1	Expedited	john j volkman	2310 SE Paropa Ln 2310 SE Paropa Ln			Gresham	OR	97080	US		Have a beautiful day From jeff volkman	false		
112-3009683-4547412	57418117110962	2021-01-12T19:16:46+00:00	2021-01-12T11:16:46-08:00	2021-01-12T19:41:46+00:00	2021-01-15T07:59:59+00:00	-2	w5qlg0qy62whpnq@marketplace.amazon.com	James blankenship	+1 415-851-9136 ext. 33953	ABM017	Delivery by Friday, January 15, Blue Dendrobium Orchids 10 Stems in a Free Designer Glass Vase by Arabella Bouquets	1	0	1	Expedited	Debra Petersen Daley	454 MINNESOTA CIR			CAROL STREAM	IL	60188-9218	US		Sending our condolences to you and your family during this time.  With love From The Blankenships & Yolanda	false		
112-6499914-8723431	02426473194282	2021-01-12T19:25:13+00:00	2021-01-12T11:25:13-08:00	2021-01-12T19:53:47+00:00	2021-01-15T07:59:59+00:00	-2	0g8zl3qcxhhbxj6@marketplace.amazon.com	Julie Totero	+1 602-671-6610 ext. 82023	ABR0033	Delivery by Thursday, January 14 Dozen Orange Roses in a Free Vase by Arabella Bouquets	1	0	1	Expedited	Lucy Totero	12 WASHINGTON AVE UNIT 234			PLAINVIEW	NY	11803-4052	US		Happy Birthday Mom! From Love, Julie & Chuck	false		
111-6955865-9271442	60913991189562	2021-01-12T20:05:19+00:00	2021-01-12T12:05:19-08:00	2021-01-12T20:34:22+00:00	2021-01-15T07:59:59+00:00	-2	v34qd6szf9j2mt9@marketplace.amazon.com	Ysa Hernandez	+1 415-419-8616 ext. 81496	ABR0033	Delivery by Thursday, January 14 Dozen Orange Roses in a Free Vase by Arabella Bouquets	1	0	1	Expedited	Rachelle Comeau	1543 HAMILTON AVE			SAN JOSE	CA	95125-4540	US		Thank you so much for your support and leading the team. I am able to rest and relax knowing you are here! You are amazing! From Ysa Hernandez	false		
112-7880214-8789827	31958530922818	2021-01-12T20:57:55+00:00	2021-01-12T12:57:55-08:00	2021-01-12T21:27:33+00:00	2021-01-15T07:59:59+00:00	-2	gjlkzjm8ghn6pcl@marketplace.amazon.com	ANNE ACHENBACH	+1 763-225-9463 ext. 33208	ABR0033	Delivery by Thursday, January 14 Dozen Orange Roses in a Free Vase by Arabella Bouquets	1	0	1	Expedited	ELLEN BLACKWOOD	13707 DALLAS DR APT 326 HUDSON	FLORIDA 34667		HUDSON	FL	34667-7179	US			false		
111-2149204-5842664	62141087049954	2021-01-12T21:19:53+00:00	2021-01-12T13:19:53-08:00	2021-01-12T21:47:37+00:00	2021-01-15T07:59:59+00:00	-2	089ynryw5k5q96m@marketplace.amazon.com	Michelle Stout	+1 763-225-9463 ext. 58717	ABR0033	Delivery by Thursday, January 14 Dozen Orange Roses in a Free Vase by Arabella Bouquets	1	0	1	Expedited	Barbara Kleege	6609 CANTON ST			WARNERS	NY	13164-9727	US		Happy Birthday. Hope your day is special. Just like you! All Our Love From Kevin,Michelle,Raylin,Ellis	false		
113-9066292-3622659	55417566862874	2021-01-12T21:28:19+00:00	2021-01-12T13:28:19-08:00	2021-01-12T21:56:58+00:00	2021-01-15T07:59:59+00:00	-2	nl2sdw579gfwtjb@marketplace.amazon.com	Karen S. Stampfle	+1 602-671-6610 ext. 91847	ABR0066	Delivery by Friday, January 15 Dozen White Roses in a Free Vase by Arabella Bouquets	1	0	1	Expedited	Paige mcgaffick	Boss gal beauty bar	1300 grand view avenue		Grand view hts	OH	43212	US		Enjoy your gift! From Grandma and grandpa. Aunt sherry. Stephanie. Aunt pat. Avery and trevor. We love you	false		
111-3027657-0457041	64826731693330	2021-01-12T21:42:22+00:00	2021-01-12T13:42:22-08:00	2021-01-12T22:09:33+00:00	2021-01-15T07:59:59+00:00	-2	12tzlvbmlvn7jlk@marketplace.amazon.com	Gloria Jung Adeboi	+1 213-442-1463 ext. 74501	ABR0055	Delivery by Friday, January 15 Dozen Hot Pink Roses in a Free Vase by Arabella Bouquets	1	0	1	Expedited	Nancy Khut	15621 NW ANDALUSIAN WAY			PORTLAND	OR	97229-8933	US		Happy (belated) Birthday!!!!  We love you for all the light and positivity you bring to everyone around you!  Hope you had a great day!!! From Andrew, Gloria & Hachi	false		
114-2631812-6089056	51726119408106	2021-01-12T21:56:43+00:00	2021-01-12T13:56:43-08:00	2021-01-12T22:23:33+00:00	2021-01-15T07:59:59+00:00	-2	m21c6shf3xm3nlz@marketplace.amazon.com	Alan	+1 346-307-9643 ext. 87682	ABM022	Delivery by Friday, January 15 Purple Extravagance Bouquet by Arabella Bouquets	1	0	1	Expedited	Barb Meyer	209 COUNTRY CLUB DR			LAKE PLACID	FL	33852-9212	US		Happy Birthday Mom! From Jason & Jeannie	false		
113-4331369-2618621	03361218217762	2021-01-12T22:04:41+00:00	2021-01-12T14:04:41-08:00	2021-01-12T22:33:52+00:00	2021-01-15T07:59:59+00:00	-2	l3cdk0868dv2brx@marketplace.amazon.com	Shawn H. Kruitbosch	+1 602-671-6610 ext. 23038	ABR0022	Delivery by Friday, January 15 Dozen Pink Roses with a Free Vase by Arabella Bouquets	1	0	1	Expedited	Karl Pearson	7703 S WINTER HAVEN CIR			MOHAVE VALLEY	AZ	86440-9011	US		We hope you’re feeling better. We love you! Shawn and Rudy. From Shawn H. Kruitbosch	false		
113-8080684-9145056	49095953322410	2021-01-12T22:13:26+00:00	2021-01-12T14:13:26-08:00	2021-01-12T22:40:02+00:00	2021-01-15T07:59:59+00:00	-2	qjhsbt6qsn05cj0@marketplace.amazon.com	Nicole	+1 213-442-1463 ext. 44071	ABM020	Delivery by Friday, January 15 Sunset Bouquet by Arabella Bouquets	1	0	1	Expedited	Natalie Brand	6951 FITCH CT			SAN DIEGO	CA	92111-7509	US		Happy Birthday Natalie  Sweetest 16 love you so much From Mother	false		
114-1840628-6506662	43974331223722	2021-01-12T22:37:53+00:00	2021-01-12T14:37:53-08:00	2021-01-12T23:07:09+00:00	2021-01-15T07:59:59+00:00	-2	m7c8v1jz54lvhy7@marketplace.amazon.com	Lorraine Tseng	+1 213-442-1463 ext. 56915	ABM010	Delivery by Thursday, January 14 Everlasting Fling with a Free Glass Vase by Arabella Bouquets	1	0	1	Expedited	Phuong Vuong	323 BAY RIDGE DR			DALY CITY	CA	94014-1555	US			false		
112-7442479-8182669	68240175265018	2021-01-12T22:55:24+00:00	2021-01-12T14:55:24-08:00	2021-01-12T23:24:24+00:00	2021-01-15T07:59:59+00:00	-2	pqxc3hpx2h530zg@marketplace.amazon.com	Anne Hawkins	+1 415-419-8616 ext. 20154	ABR0033	Delivery by Thursday, January 14 Dozen Orange Roses in a Free Vase by Arabella Bouquets	1	0	1	Expedited	Allison Cochran	4725 PLEASANT WOODS DR			CUMMING	GA	30028-4114	US		Feel better fast! Love you! From Anne Hawkins	false		
113-6214076-1945813	03690032937162	2021-01-12T23:42:41+00:00	2021-01-12T15:42:41-08:00	2021-01-13T00:11:08+00:00	2021-01-15T07:59:59+00:00	-2	kmvrpd7v6034s1z@marketplace.amazon.com	SAM Mann	+1 415-851-9136 ext. 48470	ABC001	Delivery by Thursday, January 14 Seasons Greetings Bouquet by Arabella Bouquets	1	0	1	Expedited	June	5070 SW 122nd Terrace			Cooper City	FL	33330	US		Happy Birthday Mom, hope you have a great one! From Love, Doug & Sharron	false		
113-2822948-6148268	68084019401034	2021-01-12T23:48:45+00:00	2021-01-12T15:48:45-08:00	2021-01-13T00:12:02+00:00	2021-01-15T07:59:59+00:00	-2	lqgsgvvqwt25x60@marketplace.amazon.com	Rashmi Shelat	+8326403386	ABM020	Delivery by Friday, January 15 Sunset Bouquet by Arabella Bouquets	1	0	1	Expedited	Sarjita Shah	7620 E ANN WAY			SCOTTSDALE	AZ	85260-4849	US		Happy 40th birthday Sarjita. Wish you many happy & healthy returns of the day. Enjoy your special day. Lots of love. From Ashok & Rashmi Shelat	false		
114-3047554-3935447	67979545254922	2021-01-12T23:53:37+00:00	2021-01-12T15:53:37-08:00	2021-01-13T00:16:19+00:00	2021-01-15T07:59:59+00:00	-2	1x4s1qgkvf668zk@marketplace.amazon.com	Jamie Gibb	+1 415-419-8616 ext. 74867	ABM020	Delivery by Friday, January 15 Sunset Bouquet by Arabella Bouquets	1	0	1	Expedited	Molly Benson	324 STANFORD DR			CLAREMONT	CA	91711-4633	US		Molly, words can never begin to describe the sadness we feel at the loss of your mother. We pray for you to have strength in your grieving, and take comfort from all the happy memories you carry. All our love, Bob and Jamie From Bob and Jamie	false		
114-9912626-5321061	43683056148146	2021-01-12T23:50:19+00:00	2021-01-12T15:50:19-08:00	2021-01-13T00:20:24+00:00	2021-01-15T07:59:59+00:00	-2	ss10q1y2kyrxrnq@marketplace.amazon.com	stephen f dahlberg	+1 213-442-1463 ext. 77619	ABM010	Delivery by Thursday, January 14 Everlasting Fling with a Free Glass Vase by Arabella Bouquets	1	0	1	Expedited	stephen f dahlberg	1606 HORIZON PL			MUKILTEO	WA	98275-2140	US			false		
113-2680258-3049807	39170245061226	2021-01-13T00:25:00+00:00	2021-01-12T16:25:00-08:00	2021-01-13T00:41:52+00:00	2021-01-15T07:59:59+00:00	-2	3x2h35vxdh612tf@marketplace.amazon.com	susan pedone	+1 415-419-8616 ext. 53440	ABR0066	Delivery by Friday, January 15 Dozen White Roses in a Free Vase by Arabella Bouquets	1	0	1	Expedited	Amber Les	1690 E FIR AVE APT 234			FRESNO	CA	93720-2788	US		Congratulations Amber! So awesome you passed the hardest state bar on your first try! we look forward to watching your career soar over the years! all the best to you !xoxo From love chuck & susan	false		
111-1394735-4696265	41073136148274	2021-01-13T00:15:30+00:00	2021-01-12T16:15:30-08:00	2021-01-13T00:43:17+00:00	2021-01-15T07:59:59+00:00	-2	f1b1t7htvgwfhv3@marketplace.amazon.com	Jackie	+1 619-854-2705 ext. 31356	ABR0033	Delivery by Thursday, January 14 Dozen Orange Roses in a Free Vase by Arabella Bouquets	1	0	1	Expedited	Nina Smith	5035 AVIEMORE DR			YORBA LINDA	CA	92887-2604	US		Happy birthday Nina!!  Hope you have a wonderful day and you are showered in love. From Jackie	false		
111-0631749-8372231	40624033286994	2021-01-13T00:47:42+00:00	2021-01-12T16:47:42-08:00	2021-01-13T01:12:06+00:00	2021-01-15T07:59:59+00:00	-2	s7ttf4f5hck81bj@marketplace.amazon.com	Valdas	+1 415-851-9136 ext. 60463	ABM010	Delivery by Thursday, January 14 Everlasting Fling with a Free Glass Vase by Arabella Bouquets	1	0	1	Standard	Danguole Jurgutis	5842 GLEN EAGLES DR			WEST BLOOMFIELD	MI	48323-2205	US		Miela Danguole, Sirdingai sveikiname Tave grazaus Gimtadienio proga. Laimes, sypsenu, graziu gyvenimo akimirku ir daug, daug sveikateles! Su meile, From Valdas, Danute, Algis, Gintas ir Svajone	false		
113-4431024-4265055	53351863459010	2021-01-13T01:00:34+00:00	2021-01-12T17:00:34-08:00	2021-01-13T01:29:37+00:00	2021-01-15T07:59:59+00:00	-2	xrg93xbvlvxc2q7@marketplace.amazon.com	Scott Harden	+1 415-419-8616 ext. 19670	ABR0033	Delivery by Thursday, January 14 Dozen Orange Roses in a Free Vase by Arabella Bouquets	1	0	1	Expedited	Scott Harden	13634 Glenmere Way			Victorville	CA	92392	US		Happy Birthday! From Scott Harden	false		
112-5233536-3016256	36099497079066	2021-01-13T01:03:40+00:00	2021-01-12T17:03:40-08:00	2021-01-13T01:33:22+00:00	2021-01-15T07:59:59+00:00	-2	1qyyzvxtkt2zcb6@marketplace.amazon.com	Jennifer Cochran Anderson	+1 213-442-1463 ext. 65486	ABR0033	Delivery by Thursday, January 14 Dozen Orange Roses in a Free Vase by Arabella Bouquets	1	0	1	Expedited	Eileen Cochran	714 BRUSH RD			RAVENNA	OH	44266-1412	US		Happy birthday, Mommy! From Jennifer Cochran Anderson	false		
114-4973592-9753059	11983699492450	2021-01-13T01:09:09+00:00	2021-01-12T17:09:09-08:00	2021-01-13T01:50:34+00:00	2021-01-15T07:59:59+00:00	-2	l6rbqr31k0d73h8@marketplace.amazon.com	Anthony T Marra	+1 415-419-8616 ext. 22754	ABM022	Delivery by Friday, January 15 Purple Extravagance Bouquet by Arabella Bouquets	1	0	1	Expedited	Anthony Marra	11742 QUAIL VILLAGE WAY			NAPLES	FL	34119-8910	US			false		
114-2939558-2039465	02629746804042	2021-01-13T02:01:26+00:00	2021-01-12T18:01:26-08:00	2021-01-13T02:11:16+00:00	2021-01-15T07:59:59+00:00	-2	525jsy7tpkw109m@marketplace.amazon.com	Mari Anne Noonan	+1 480-618-5344 ext. 80056	ABR001	Delivery by Thursday, January 14 Dozen Red Roses in a Free Vase by Arabella Bouquets	1	0	1	Expedited	Mrs Josie Cox & Family	27351 Vía Olmo			Mission Viejo	CA	92691	US		So sorry for your loss. My condolences to you & your families. From Mari Anne Noonan	false		
114-5977796-0189869	02938978259002	2021-01-13T02:27:59+00:00	2021-01-12T18:27:59-08:00	2021-01-13T02:55:45+00:00	2021-01-15T07:59:59+00:00	-2	02nm54gvcp13rc2@marketplace.amazon.com	Gabriel Morishige	+1 480-618-5344 ext. 75580	ABR001	Delivery by Thursday, January 14 Dozen Red Roses in a Free Vase by Arabella Bouquets	1	0	1	Expedited	Patirica Morishige	2641 HENRY AVE			PINOLE	CALIFORNIA	94564-1358	US		I love you Mom! Your my rock and my #1!!! Enjoy your Roses!!! From Gabriel Morishige your #1 Son	false		
114-3128906-1082639	48064844654474	2021-01-13T02:57:44+00:00	2021-01-12T18:57:44-08:00	2021-01-13T03:15:08+00:00	2021-01-15T07:59:59+00:00	-2	t2fwnhrnffm5lbc@marketplace.amazon.com	Sara Tierno	+1 213-442-1463 ext. 69613	ABR0055	Delivery by Friday, January 15 Dozen Hot Pink Roses in a Free Vase by Arabella Bouquets	1	0	1	Expedited	Deepali Kapatkar	1104 RIVERSIDE DR			LOS ALTOS	CA	94024-4919	US		Thank you for all your help! Sara From Sara Tierno	false		
114-9704669-1416254	06800392968978	2021-01-13T04:06:19+00:00	2021-01-12T20:06:19-08:00	2021-01-13T04:38:31+00:00	2021-01-15T07:59:59+00:00	-2	sz4rmbc3j45w5zg@marketplace.amazon.com	Sharon Hernandez	+1 213-442-1463 ext. 96112	ABR0033	Delivery by Thursday, January 14 Dozen Orange Roses in a Free Vase by Arabella Bouquets	1	0	1	Expedited	Marjorie H. Domingo	179 PASTO RICO			RANCHO SANTA MARGARITA	CA	92688-2933	US		Happy birthday, Gie! We love you! From All of us	false		
113-0715149-4557014	17980314527938	2021-01-13T06:09:09+00:00	2021-01-12T22:09:09-08:00	2021-01-13T06:39:23+00:00	2021-01-15T07:59:59+00:00	-2	l0rcr8wwx44rl49@marketplace.amazon.com	Xiaojia	+1 415-419-8616 ext. 04732	ABR001	Delivery by Thursday, January 14 Dozen Red Roses in a Free Vase by Arabella Bouquets	1	0	1	Expedited	Alicia CROKER co William CROKER	33214 COVENTRY DR			LEESBURG	FL	34788-3614	US			false		
112-4354205-2202653	37671918436298	2021-01-13T07:01:51+00:00	2021-01-12T23:01:51-08:00	2021-01-13T07:25:36+00:00	2021-01-15T07:59:59+00:00	-2	wghlwsmwxhkq2yt@marketplace.amazon.com	Mark McCleland	+1 415-851-9136 ext. 30769	ABM022	Delivery by Friday, January 15 Purple Extravagance Bouquet by Arabella Bouquets	1	0	1	Expedited	Tiffany Hung	150 RIPLEY ST			SAN FRANCISCO	CA	94110-5227	US		Tiffany and Will! Congrats, you survived 1 month!  We are thinking about you and LOVE getting pictures of Dean to share your joy!  Hope this brightens your day even more.  With love, the IMBFFs (Rupal, Thinh, and Mark) From Mark McCleland	false		
112-9786947-4883408	57538554947602	2021-01-13T07:34:27+00:00	2021-01-12T23:34:27-08:00	2021-01-13T07:35:23+00:00	2021-01-15T07:59:59+00:00	-2	8zsjck0km676hnk@marketplace.amazon.com	Elizabeth	+1 602-671-6610 ext. 58388	ABR001	Delivery by Thursday, January 14 Dozen Red Roses in a Free Vase by Arabella Bouquets	1	0	1	Expedited	Cece Xiao	5695 SOLEDAD MOUNTAIN RD			LA JOLLA	CA	92037-7256	US		Fuck boys — you're golden, baby! From han	false		
112-0944963-8576269	14276944455114	2021-01-13T08:22:07+00:00	2021-01-13T00:22:07-08:00	2021-01-13T08:47:25+00:00	2021-01-16T07:59:59+00:00	-3	1s5j2pn1135p7bj@marketplace.amazon.com	Kim Kaiser	+1 602-671-6610 ext. 47807	ABC001	Delivery by Thursday, January 14 Seasons Greetings Bouquet by Arabella Bouquets	1	0	1	Expedited	Martha Guerard	1860 SW BINFORD AVE			GRESHAM	OR	97080-9760	US		We love you so very much!  God saved the best for last in giving you to our family.  May this year, 2021, be a greatly blessed year for you! From Daddy & Momma | David & Kimmie	false		
112-6853593-5458647	70229226777650	2021-01-13T12:47:54+00:00	2021-01-13T04:47:54-08:00	2021-01-13T13:17:01+00:00	2021-01-16T07:59:59+00:00	-3	lqt2nkkcl3r7p1l@marketplace.amazon.com	Tory Hassenauer	+1 213-442-1463 ext. 59806	ABR0033	Delivery by Thursday, January 14 Dozen Orange Roses in a Free Vase by Arabella Bouquets	1	0	1	Expedited	John Brewster	4379 WAUSAU RD			OKEMOS	MI	48864-2768	US		Get well soon. Love you Tory and Michael From Tory Hassenauer	false		
114-9928019-2619453	53919764919442	2021-01-13T13:40:53+00:00	2021-01-13T05:40:53-08:00	2021-01-13T14:06:34+00:00	2021-01-16T07:59:59+00:00	-3	2hl31mlg9n2hy4z@marketplace.amazon.com	Dave	+1 602-671-6610 ext. 01887	ABM010	Delivery by Thursday, January 14 Everlasting Fling with a Free Glass Vase by Arabella Bouquets	1	0	1	Expedited	Debra Lautner	23890 Copperhill Road	#117		Valencia	CA	91354	US			false		
113-4918111-6805859	03490412538074	2021-01-13T15:06:39+00:00	2021-01-13T07:06:39-08:00	2021-01-13T15:14:53+00:00	2021-01-16T07:59:59+00:00	-3	dh34x2757rmwgg6@marketplace.amazon.com	Patricia Dickerson	+1 213-442-1463 ext. 78969	ABR0033	Delivery by Thursday, January 14 Dozen Orange Roses in a Free Vase by Arabella Bouquets	1	0	1	Expedited	Tommie Lee Phillips	3300 ALCOA RD			BENTON	AR	72015-6032	US		Happy birthday 🎈🎁 I love you ❤️   Your daughter Pat From Patricia Dickerson	false		
113-0649007-3894630	11508574736810	2021-01-13T17:25:03+00:00	2021-01-13T09:25:03-08:00	2021-01-13T17:48:12+00:00	2021-01-16T07:59:59+00:00	-3	rcjfm3wmh21kgtr@marketplace.amazon.com	Leilani Morrison	+1 415-851-9136 ext. 25539	ABM020	Delivery by Friday, January 15 Sunset Bouquet by Arabella Bouquets	1	0	1	Expedited	KELLY Lynch	1733 WHITE MARSH RD			SUFFOLK	VA	23434-8920	US		KELLY, Thank you so much for all you do and have done for me.  You’re so giving and loving.  I am truly blessed.  Love you, Sweetie. From Leilani Morrison	false		
113-1507290-0208262	04935083588058	2021-01-13T17:23:47+00:00	2021-01-13T09:23:47-08:00	2021-01-13T17:53:13+00:00	2021-01-16T07:59:59+00:00	-3	3012vwdkfr99wms@marketplace.amazon.com	Antonietta Jerden	+1 415-419-8616 ext. 54277	ABM010	Delivery by Thursday, January 14 Everlasting Fling with a Free Glass Vase by Arabella Bouquets	1	0	1	Expedited	Maki Jerden	28804 LOMO DR			RANCHO PALOS VERDES	CALIFORNIA	90275-3144	US		Enjoy your gift! Happy, Happy 50th, dear Maki! Love, Toni & Roy From Antonietta Jerden	false		
114-2285976-4174601	48775416044050	2021-01-13T17:27:08+00:00	2021-01-13T09:27:08-08:00	2021-01-13T17:53:20+00:00	2021-01-16T07:59:59+00:00	-3	nb9mvhvbnjxkynv@marketplace.amazon.com	melody mccoy	+1 346-307-9643 ext. 41744	ABM020	Delivery by Friday, January 15 Sunset Bouquet by Arabella Bouquets	1	0	1	Expedited	Sally McCoy	2025 E. 71st St. Apt #206			Tulsa	OK	74136	US		MOM and GRANDMOM, we love you and wish you a happy 95th birthday!! From Melody, Thanh, Sally & Maria	false		
111-7615770-0412262	51056862792226	2021-01-13T18:07:22+00:00	2021-01-13T10:07:22-08:00	2021-01-13T18:37:39+00:00	2021-01-16T07:59:59+00:00	-3	9s8zpjfwb924zvf@marketplace.amazon.com	michael pfaff	+1 602-671-6610 ext. 14764	ABR001	Delivery by Thursday, January 14 Dozen Red Roses in a Free Vase by Arabella Bouquets	1	0	1	Expedited	Mike Pfaff	1577 CALLE AURORA			CAMARILLO	CA	93010-8416	US			false		
111-1269616-4412224	60379978086514	2021-01-13T18:13:52+00:00	2021-01-13T10:13:52-08:00	2021-01-13T18:39:12+00:00	2021-01-16T07:59:59+00:00	-3	2j0w8qbfskyqjmb@marketplace.amazon.com	Nathan Latimer	+1 415-419-8616 ext. 17098	ABM010	Delivery by Thursday, January 14 Everlasting Fling with a Free Glass Vase by Arabella Bouquets	1	0	1	Expedited	Stephen Golder	55 GRASMERE DR			FALMOUTH	MA	02540-2937	US		Congratulations on beginning your dental implant experience. We appreciate you as a patient ! Dr. Silva & Dr. Latimer From Nathan Latimer	false		
111-1055104-8592226	58328763045202	2021-01-13T18:16:17+00:00	2021-01-13T10:16:17-08:00	2021-01-13T18:45:41+00:00	2021-01-16T07:59:59+00:00	-3	46ljmfbvxjc30s1@marketplace.amazon.com	SDS ECR	+1 346-307-9643 ext. 56863	ABM010	Delivery by Thursday, January 14 Everlasting Fling with a Free Glass Vase by Arabella Bouquets	1	0	1	Expedited	Kimberly Jones	13639 UPATOI LN			UPATOI	GA	31829-2111	US		Feel better soon Puffa! From Team Jedi	false		
114-6647929-5713866	02148607222986	2021-01-13T18:22:01+00:00	2021-01-13T10:22:01-08:00	2021-01-13T18:49:26+00:00	2021-01-16T07:59:59+00:00	-3	bc56clx0x40z800@marketplace.amazon.com	Jane Chambers	+1 415-851-9136 ext. 03127	ABR0022	Delivery by Saturday, January 16 Dozen Pink Roses with a Free Vase by Arabella Bouquets	1	0	1	Expedited	Rosemary McIntyre	41 FLEET ST 2ND FLOOR			JERSEY CITY	NJ	07306-1607	US			false		
112-5869791-6113067	22554481709274	2021-01-13T18:23:05+00:00	2021-01-13T10:23:05-08:00	2021-01-13T18:50:53+00:00	2021-01-16T07:59:59+00:00	-3	7k9xmp298557715@marketplace.amazon.com	Zandy Krischer	+1 602-671-6610 ext. 80550	ABR0066	Delivery by Saturday, January 16 Dozen White Roses in a Free Vase by Arabella Bouquets	1	0	1	Expedited	Leeann Steiner	66 SANTA ANA AVE			SAN FRANCISCO	CA	94127-1508	US		Filled with love and good wishes💛💙zandy and al From Zandy Krischer	false		
113-9318949-3345008	41495214409282	2021-01-13T18:34:45+00:00	2021-01-13T10:34:45-08:00	2021-01-13T18:57:50+00:00	2021-01-16T07:59:59+00:00	-3	kzy395l0yz1n9bn@marketplace.amazon.com	MARK KRAMER	+1 415-419-8616 ext. 05107	ABC001	Delivery by Friday, January 15 Seasons Greetings Bouquet by Arabella Bouquets	1	0	1	Expedited	RUTH HUNOLD	12750 GATEWAY PARK RD 115			POWAY	CA	92064-2050	US		Happy Birthday Mom!  Since we can't be together, I wanted you to know that you are special!  Wish we could be celebrating doing what we love to do....Happy 91st Mom. From your daughter XOXOXO	false		
114-5006036-2051458	26284013400882	2021-01-13T18:40:18+00:00	2021-01-13T10:40:18-08:00	2021-01-13T19:08:34+00:00	2021-01-16T07:59:59+00:00	-3	pxvhhw021f00p2r@marketplace.amazon.com	Robert de Jong	+1 415-419-8616 ext. 10220	ABR0055	Delivery by Saturday, January 16 Dozen Hot Pink Roses in a Free Vase by Arabella Bouquets	1	0	1	Expedited	Susan Zhu	2660 ELDERBERRY DR			OKEMOS	MI	48864-4605	US		Happy birthday, Susan! Every day is beautiful, bright and happy when you are in it.  Love, Robert From Robert de Jong	false		
111-6463933-5050629	53404837610186	2021-01-13T18:45:30+00:00	2021-01-13T10:45:30-08:00	2021-01-13T19:15:51+00:00	2021-01-16T07:59:59+00:00	-3	ryyp811jlhkqhsy@marketplace.amazon.com	Hannah Siegrist	+1 415-851-9136 ext. 24881	ABR0022	Delivery by Saturday, January 16 Dozen Pink Roses with a Free Vase by Arabella Bouquets	1	0	1	Expedited	Hannah Regan-Siegrist	18 SPRING ST  206			PORT CHESTER	NY	10573-4510	US			false		
113-5454190-6765053	41176119714594	2021-01-13T19:02:32+00:00	2021-01-13T11:02:32-08:00	2021-01-13T19:21:08+00:00	2021-01-16T07:59:59+00:00	-3	6xdvjv2fsh63lgk@marketplace.amazon.com	Patricia C. Marden	+1 602-671-6610 ext. 38451	ABR0022	Delivery by Saturday, January 16 Dozen Pink Roses with a Free Vase by Arabella Bouquets	1	0	1	Expedited	The Martin Family	110 KARL DR			DOVER	DE	19901-2357	US		As always, remembering with you. Love, Patti From Patricia C. Marden	false		
113-9079704-0402656	00765284132066	2021-01-13T19:09:18+00:00	2021-01-13T11:09:18-08:00	2021-01-13T19:22:52+00:00	2021-01-16T07:59:59+00:00	-3	j8pg820kwwk4y2t@marketplace.amazon.com	stephanie dwyer	+1 213-442-1463 ext. 18553	ABR013	Delivery by Monday, January 18 FarmDirect 18 Yellow Roses in a Free Vase by Arabella Bouquets	1	0	1	Expedited	Carol Steve	1216 N. Tampa Ave			Okmulgee	Oklahoma	74447	US		Hi Sis its Stephanie,sorry I can't come and see you.You know you will always be my sister.I love you and will always remember the good times we had. Take care and I miss you.Prayers From stephanie dwyer	false		
112-3062959-7330621	30523995853266	2021-01-13T18:55:30+00:00	2021-01-13T10:55:30-08:00	2021-01-13T19:25:45+00:00	2021-01-16T07:59:59+00:00	-3	w2c2w1z2b9fbmrt@marketplace.amazon.com	George Riddiford	+1 213-442-1463 ext. 33674	ABR001	Delivery by Friday, January 15 Dozen Red Roses in a Free Vase by Arabella Bouquets	1	0	1	Expedited	George Riddiford	350 S COLLIER BLVD UNIT 1105			MARCO ISLAND	FL	34145-4915	US			false		
114-8472383-3933823	02582770559298	2021-01-13T18:56:49+00:00	2021-01-13T10:56:49-08:00	2021-01-13T19:27:30+00:00	2021-01-16T07:59:59+00:00	-3	fl18y7sxkxf19x3@marketplace.amazon.com	Kevin Backer	+1 763-225-9463 ext. 21262	ABM010	Delivery by Saturday, January 16 Everlasting Fling with a Free Glass Vase by Arabella Bouquets	1	0	1	Expedited	Janette Williams	847 CLARKSVILLE RD			BOGATA	TX	75417-2435	US			false		
113-8760886-8897049	22199420698258	2021-01-13T19:04:59+00:00	2021-01-13T11:04:59-08:00	2021-01-13T19:32:28+00:00	2021-01-16T07:59:59+00:00	-3	k31t8j1x2ymlt5m@marketplace.amazon.com	Rosalene Valentine	+1 415-419-8616 ext. 42349	ABR013	Delivery by Monday, January 18 FarmDirect 18 Yellow Roses in a Free Vase by Arabella Bouquets	1	0	1	Expedited	Cherry Boyd	309 MAIN ST			THERESA	NY	13691-3042	US		Happy Birthday Dai,Wishing you good health,success and happiness in life.Enjoy your gift! From Rose and Joe McMillan	false		
114-2009451-5149864	03706537734610	2021-01-13T19:04:41+00:00	2021-01-13T11:04:41-08:00	2021-01-13T19:32:59+00:00	2021-01-16T07:59:59+00:00	-3	ghd097hk745sddt@marketplace.amazon.com	Francine Jara	+1 415-851-9136 ext. 11978	ABR0055	Delivery by Saturday, January 16 Dozen Hot Pink Roses in a Free Vase by Arabella Bouquets	1	0	1	Expedited	Jody Drozen	6700 BellaWood Drive			Trinity	NC	27370	US		Dear Jody, Happy Birthday! We love you, From Francine Fernando and Ana	false		
111-5370231-4241853	24339774739546	2021-01-13T19:12:52+00:00	2021-01-13T11:12:52-08:00	2021-01-13T19:40:42+00:00	2021-01-16T07:59:59+00:00	-3	jsl84qx224dmpf2@marketplace.amazon.com	Ryan Retz	+1 602-671-6610 ext. 79312	ABM024	Delivery by Monday, January 18 Beauty of Color Bouquet by Arabella Bouquets	1	0	1	Expedited	Joey Retz	182 Rocking Horse Road			Whitefish	mt	59937	US		Happy Birthday,  We hope you have a wonderful day! From Ryan, Angie, Ellie, Jason & Torin	false		
111-7092517-2912217	54744087467410	2021-01-13T19:13:25+00:00	2021-01-13T11:13:25-08:00	2021-01-13T19:42:01+00:00	2021-01-16T07:59:59+00:00	-3	yzdhnzs3br86pz2@marketplace.amazon.com	Alexandria Jones	+1 415-419-8616 ext. 37566	ABR0022	Delivery by Saturday, January 16 Dozen Pink Roses with a Free Vase by Arabella Bouquets	1	0	1	Expedited	Alexandria Jones	4110 TORQUE ST			CAPITOL HEIGHTS	MD	20743-5647	US			false		
114-7773226-2369065	31300705797642	2021-01-13T19:17:44+00:00	2021-01-13T11:17:44-08:00	2021-01-13T19:42:19+00:00	2021-01-16T07:59:59+00:00	-3	7jcmz8nx6jt5f7f@marketplace.amazon.com	Susan F. Sims	+1 602-671-6610 ext. 50729	ABR0022	Delivery by Saturday, January 16 Dozen Pink Roses with a Free Vase by Arabella Bouquets	1	0	1	Expedited	Aleta Cantrell	3773 WALNUT CREEK DR			COLUMBUS	OH	43224-2527	US		Praying for your continued recovery.  Much Love,   Jeff & Sue From Susan F. Sims	false		
113-9836049-4662650	62727752685530	2021-01-13T19:15:45+00:00	2021-01-13T11:15:45-08:00	2021-01-13T19:45:57+00:00	2021-01-16T07:59:59+00:00	-3	brt4zss0rxg0gp2@marketplace.amazon.com	Mary Icho	+1 763-225-9463 ext. 76810	ABR0066	Delivery by Saturday, January 16 Dozen White Roses in a Free Vase by Arabella Bouquets	1	0	1	Expedited	Christian Icho	6256 N Avers			Chicago	IL	60659	US			false		
114-4470268-8225029	21747514167570	2021-01-13T19:23:01+00:00	2021-01-13T11:23:01-08:00	2021-01-13T19:46:44+00:00	2021-01-16T07:59:59+00:00	-3	99k474ksjvk64fn@marketplace.amazon.com	Julie Lee	+1 415-419-8616 ext. 42456	ABR0066	Delivery by Saturday, January 16 Dozen White Roses in a Free Vase by Arabella Bouquets	1	0	1	Expedited	Carol Walker	3501 CANTON DR			KALAMAZOO	MI	49004-9183	US		Dear Carol,  We were saddened to hear of the loss of your father.  We know that he is in the place of Perfect Peace where you will see him one day.  Prayers for you all.  We love you, Gus and Julie From Julie Lee	false		
113-2247346-8768244	23311744178962	2021-01-13T19:26:48+00:00	2021-01-13T11:26:48-08:00	2021-01-13T19:50:17+00:00	2021-01-16T07:59:59+00:00	-3	qlt14vjrj7wqlm2@marketplace.amazon.com	Chelsea Gonzales	+1 415-851-9136 ext. 58909	ABR0055	Delivery by Saturday, January 16 Dozen Hot Pink Roses in a Free Vase by Arabella Bouquets	1	0	1	Expedited	Brynna BadAss Hartneck	3922 E WINDROSE DR			PHOENIX	AZ	85032-7354	US		Pink roses for boobs! Yassss! Lol. Cancer doesn’t stand a chance against you, girlfriend. Keep on keepin on! I love and miss you SO much!   -Chelsea (aka follow BadAss) From Chelsea Gonzales	false		
114-6494082-4002651	57313471258074	2021-01-12T19:44:56+00:00	2021-01-12T11:44:56-08:00	2021-01-13T19:50:48+00:00	2021-01-16T07:59:59+00:00	-3	m77hwqrgszb73kp@marketplace.amazon.com	Melissa D Toney	+1 763-225-9463 ext. 73100	ABM020	Delivery by Friday, January 15 Sunset Bouquet by Arabella Bouquets	1	0	1	Expedited	MRS SHERRY LYNN BAKER	103 E WEDGWOOD DR			YORKTOWN	VA	23693-5506	US		Hi SHERRY, Enjoy your gift! Love you bunches Happy Birthday Ann & Missy	false		
114-9901032-2539457	49215894281498	2021-01-13T19:25:27+00:00	2021-01-13T11:25:27-08:00	2021-01-13T19:53:00+00:00	2021-01-16T07:59:59+00:00	-3	dnxxdkbsj4yd73f@marketplace.amazon.com	manuel sanchez	+1 602-671-6610 ext. 19910	ABR001	Delivery by Friday, January 15 Dozen Red Roses in a Free Vase by Arabella Bouquets	1	0	1	Expedited	Valerie Rosario	15 SAGE DR			LUMBERTON	NJ	08048-4269	US		Happy birthday, Koalita With love Manny From manuel sanchez	false		
112-5803148-1305821	69062782954738	2021-01-13T19:27:58+00:00	2021-01-13T11:27:58-08:00	2021-01-13T19:57:54+00:00	2021-01-16T07:59:59+00:00	-3	l8bcmyvyj5zqs5h@marketplace.amazon.com	Damon Edmond	+1 763-225-9463 ext. 97521	ABR0022	Delivery by Saturday, January 16 Dozen Pink Roses with a Free Vase by Arabella Bouquets	1	0	1	Expedited	Christie Lewis	173 SHELBY DR			AIKEN	SC	29803-7949	US		Happy birthday! Sorry you have to spend it in quarantine. 💜 From Eliza	false		
111-8885902-3272255	44372562720978	2021-01-13T19:28:24+00:00	2021-01-13T11:28:24-08:00	2021-01-13T19:58:56+00:00	2021-01-16T07:59:59+00:00	-3	70gy8ny659hvkq0@marketplace.amazon.com	justin albright	+1 763-225-9463 ext. 00732	ABC002	Delivery by Monday, January 18 Warm Wishes Bouquet by Arabella Bouquets	1	0	1	Expedited	Liz Myers	297 PARK AVE APT # 1			ROCHESTER	NY	14607-2792	US			false		
114-4562376-6229843	41591772322706	2021-01-13T19:33:58+00:00	2021-01-13T11:33:58-08:00	2021-01-13T20:00:16+00:00	2021-01-16T07:59:59+00:00	-3	7ytdhm17h5th8k8@marketplace.amazon.com	Lauren Gandara	+1 213-442-1463 ext. 02424	ABM022	Delivery by Saturday, January 16 Purple Extravagance Bouquet by Arabella Bouquets	1	0	1	Expedited	Jennie Dominguez	8226 SUMMERFIELD AVE			WHITTIER	CA	90606-2927	US		Grandma,  Just a reminder to show how incredibly loved you are. We all miss you very much & we can’t wait until we can be together again. From Lauren	false		
111-8746930-4364258	51155918981714	2021-01-13T19:34:33+00:00	2021-01-13T11:34:33-08:00	2021-01-13T20:00:35+00:00	2021-01-16T07:59:59+00:00	-3	mjxxgkm4clj9ptp@marketplace.amazon.com	Susan Biesterfeld	+1 415-419-8616 ext. 85404	ABM024	Delivery by Monday, January 18 Beauty of Color Bouquet by Arabella Bouquets	1	0	1	Expedited	Emma Marshall	1332 OLD BRICKYARD RD			MOUNT PLEASANT	SC	29466-7901	US		Happy Happy Birthday. Enjoy your special day.  Xoxo Susan and the crew From Susan Biesterfeld	false		
114-5108610-8055413	55151050482026	2021-01-13T19:39:24+00:00	2021-01-13T11:39:24-08:00	2021-01-13T20:08:46+00:00	2021-01-16T07:59:59+00:00	-3	ygl4wf2w8chwvpw@marketplace.amazon.com	Design-Solutions	+1 213-442-1463 ext. 11633	ABR0022	Delivery by Saturday, January 16 Dozen Pink Roses with a Free Vase by Arabella Bouquets	1	0	1	Expedited	Izzie Mooney	12 OLD LOWELL RD			WESTFORD	MA	01886-3614	US		Happy Birthday Aunt Izzie! We Love You! May you have a great year! From Joey, Anita, Jon, and Java	false		
114-8003888-9101867	65564503942922	2021-01-13T19:43:44+00:00	2021-01-13T11:43:44-08:00	2021-01-13T20:09:32+00:00	2021-01-16T07:59:59+00:00	-3	n467x1cr168wpvj@marketplace.amazon.com	Flaviana Myers	+1 415-851-9136 ext. 02301	ABM010	Delivery by Saturday, January 16 Everlasting Fling with a Free Glass Vase by Arabella Bouquets	1	0	1	Expedited	Lewis Broyles	1749 FM 371			GAINESVILLE	TX	76240-1612	US		Dear Sylvia, Happy birthday! We miss you. Love you, From Mike & Flaviana Myers	false		
111-0628741-7772221	61816300922330	2021-01-13T19:41:01+00:00	2021-01-13T11:41:01-08:00	2021-01-13T20:09:41+00:00	2021-01-16T07:59:59+00:00	-3	778r533m0x85dhb@marketplace.amazon.com	Christine Atherton	+1 346-307-9643 ext. 36371	ABR0022	Delivery by Saturday, January 16 Dozen Pink Roses with a Free Vase by Arabella Bouquets	1	0	1	Expedited	Sharon Atherton	4800 FILLMORE AVE APT 1259			ALEXANDRIA	VA	22311-5077	US		Sending some January Joy! Love, Christine & Mike From Christine and Mike	false		
113-7978196-1920257	33671204410970	2021-01-13T19:48:26+00:00	2021-01-13T11:48:26-08:00	2021-01-13T20:15:25+00:00	2021-01-16T07:59:59+00:00	-3	17n0w1m7z2pd59v@marketplace.amazon.com	Harry Smith	+1 619-854-2705 ext. 05906	ABM020	Delivery by Saturday, January 16 Sunset Bouquet by Arabella Bouquets	1	0	1	Expedited	Steve Crum	15610 Australia			Houston	Texas	77040	US		Debbie,  Have a wonderful Birthday! Celebrate, it's YOUR DAY! Wish we could be with you, Love, Kathy and Harry From Kathy and Harry Smith	false		
114-4088560-8933068	61952529010186	2021-01-13T19:49:12+00:00	2021-01-13T11:49:12-08:00	2021-01-13T20:15:37+00:00	2021-01-16T07:59:59+00:00	-3	k45nxt2kfrhwx00@marketplace.amazon.com	Martha Glaze	+1 415-851-9136 ext. 39218	ABR0066	Delivery by Saturday, January 16 Dozen White Roses in a Free Vase by Arabella Bouquets	1	0	1	Expedited	Farah Houshmand	306 BAILEY RD			MULLICA HILL	NJ	08062-2518	US			false		
113-5378847-3673025	28985000807258	2021-01-13T19:48:25+00:00	2021-01-13T11:48:25-08:00	2021-01-13T20:17:51+00:00	2021-01-16T07:59:59+00:00	-3	2ntxn7vc8z8d3n0@marketplace.amazon.com	Jennifer Bapton	+1 602-671-6610 ext. 80832	ABM010	Delivery by Saturday, January 16 Everlasting Fling with a Free Glass Vase by Arabella Bouquets	1	0	1	Expedited	Bloom Family	631 N CATHERINE AVE			LA GRANGE PARK	IL	60526-5601	US		Welcome to the world Caden & Lucas! Sending love and hugs, From The Baptons	false		
114-5300618-4921032	06804567852626	2021-01-13T19:52:37+00:00	2021-01-13T11:52:37-08:00	2021-01-13T20:18:10+00:00	2021-01-16T07:59:59+00:00	-3	kv1ng47fbxr7jy4@marketplace.amazon.com	Dorinda Campbell	+1 213-442-1463 ext. 48025	ABR0022	Delivery by Saturday, January 16 Dozen Pink Roses with a Free Vase by Arabella Bouquets	1	0	1	Expedited	Mary Warren	285 TERRY LN			VILLA PARK	IL	60181-3363	US		Happy Birthday, Mary!  Let’s go someplace!! From Dorinda Campbell	false		
114-5707511-8920236	65933811386242	2021-01-13T19:49:15+00:00	2021-01-13T11:49:15-08:00	2021-01-13T20:19:05+00:00	2021-01-16T07:59:59+00:00	-3	wr9sk94b9vhzf02@marketplace.amazon.com	Rory M Stanley	+1 763-225-9463 ext. 67945	ABR0066	Delivery by Saturday, January 16 Dozen White Roses in a Free Vase by Arabella Bouquets	1	0	1	Expedited	Hernandez	2807 VIA BUENA			PALOS VERDES ESTATES	CA	90274-4417	US			false		
112-9733982-6318638	21331195829666	2021-01-13T19:50:33+00:00	2021-01-13T11:50:33-08:00	2021-01-13T20:19:45+00:00	2021-01-16T07:59:59+00:00	-3	zkn1mlny8qcpm7j@marketplace.amazon.com	kevin autran	+1 415-419-8616 ext. 10772	ABR0022	Delivery by Saturday, January 16 Dozen Pink Roses with a Free Vase by Arabella Bouquets	1	0	1	Expedited	Margo	2405 STILL BROOK DR			CORPUS CHRISTI	TX	78414-2519	US		I know it’s been a tough couple of weeks. I hope these can bring a smile to your face and remind you that you are loved and cared for. I’m praying for you day and day out. I love you and miss you endlessly. From kevin tebin	false		
114-9377557-1576254	23729997125946	2021-01-13T19:53:22+00:00	2021-01-13T11:53:22-08:00	2021-01-13T20:20:15+00:00	2021-01-16T07:59:59+00:00	-3	1pfnrgd36yxfr8b@marketplace.amazon.com	Marshall J. Scarlott	+1 346-307-9643 ext. 40112	ABR001	Delivery by Friday, January 15 Dozen Red Roses in a Free Vase by Arabella Bouquets	1	0	1	Expedited	Phoebe Ming Fen Zhou	5818 PRESTON HWY			LOUISVILLE	KY	40219-1314	US			false		
114-1943636-0008205	63430572545866	2021-01-13T19:54:05+00:00	2021-01-13T11:54:05-08:00	2021-01-13T20:21:21+00:00	2021-01-16T07:59:59+00:00	-3	3b23qymd7ghwg7h@marketplace.amazon.com	Jeffrey Swaim	+1 213-442-1463 ext. 95033	ABR0022	Delivery by Saturday, January 16 Dozen Pink Roses with a Free Vase by Arabella Bouquets	1	0	1	Expedited	Taylor Birthday Azhocar	3009 MAPLE KNOT LN			KNOXVILLE	TN	37931-4181	US		Happy 29th Birthday! May you stay 29 forever....We love you! Dad, Step Mommy, Sister Drew From Jeffrey Swaim and All	false		
114-8971616-3579454	00237502610282	2021-01-13T19:53:42+00:00	2021-01-13T11:53:42-08:00	2021-01-13T20:22:38+00:00	2021-01-16T07:59:59+00:00	-3	cwpqyzzwtd53vwb@marketplace.amazon.com	LATYLER	+1 602-671-6610 ext. 47754	ABM010	Delivery by Saturday, January 16 Everlasting Fling with a Free Glass Vase by Arabella Bouquets	1	0	1	Expedited	mrs j taylor	39503 LAGO DR			MAGNOLIA	TX	77354-4491	US		Happy Birthday Mum Lots of love  The Tyler’s The Smithson’s  & The Carter’s  XxxxxxX From LATYLER	false		
112-4959472-2965023	17213984708178	2021-01-13T19:53:18+00:00	2021-01-13T11:53:18-08:00	2021-01-13T20:23:13+00:00	2021-01-16T07:59:59+00:00	-3	s9bp0w3wymbnfkl@marketplace.amazon.com	Kathy Zane	+1 213-442-1463 ext. 47554	ABM020	Delivery by Saturday, January 16 Sunset Bouquet by Arabella Bouquets	1	0	1	Expedited	Cheryl Gilbert	6917 TOPAZ DR SW			LAKEWOOD	WA	98498-6419	US		Happy birthday sissy! Thanks for the great idea! From Kathy Zane	false		
112-5014505-2153017	66044275788226	2021-01-13T19:54:54+00:00	2021-01-13T11:54:54-08:00	2021-01-13T20:24:11+00:00	2021-01-16T07:59:59+00:00	-3	y8rzf5z6wnfqtbk@marketplace.amazon.com	Christian Madjor	+1 346-307-9643 ext. 97448	ABC002	Delivery by Monday, January 18 Warm Wishes Bouquet by Arabella Bouquets	1	0	1	Expedited	Denise Madjor	104 WINDING WAY			TRENTON	NJ	08620-2608	US		Happy Birthday Denise! Love, Chris, Angie, Cecilia and Luka From Christian Madjor	false		
112-0280314-6374634	57972815510466	2021-01-13T19:59:34+00:00	2021-01-13T11:59:34-08:00	2021-01-13T20:26:51+00:00	2021-01-16T07:59:59+00:00	-3	y46qc4lj7pknz93@marketplace.amazon.com	Tina All	+1 619-854-2705 ext. 52775	ABR0033	Delivery by Saturday, January 16 Dozen Orange Roses in a Free Vase by Arabella Bouquets	1	0	1	Expedited	Susan Cayton	138 CHURCH ST			MC ADENVILLE	NC	28101-9000	US		Susan, wishing you a speedy recovery.  You are missed at CCSS! From CCSS	true		
114-2742473-1049016	54142273688554	2021-01-13T19:58:30+00:00	2021-01-13T11:58:30-08:00	2021-01-13T20:27:19+00:00	2021-01-16T07:59:59+00:00	-3	w6w2h3rnq1m49fd@marketplace.amazon.com	Adrianna Pulver	+1 415-419-8616 ext. 76785	ABR0022	Delivery by Saturday, January 16 Dozen Pink Roses with a Free Vase by Arabella Bouquets	1	0	1	Expedited	Mariah Pulver	301 W FRANKLIN ST APT 501			BALTIMORE	MD	21201-4592	US		Congratulations on your new job! We are so incredibly proud of you!!! From Love Mom and Dad	false		
113-9123552-2918630	12148300598530	2021-01-13T20:13:36+00:00	2021-01-13T12:13:36-08:00	2021-01-13T20:29:57+00:00	2021-01-16T07:59:59+00:00	-3	0y88llj03w3w5gc@marketplace.amazon.com	Mark Marion	+1 763-225-9463 ext. 58357	ABM022	Delivery by Saturday, January 16 Purple Extravagance Bouquet by Arabella Bouquets	1	0	1	Expedited	Charna Lefton	5901 ALTA MONTE AVE NE			ALBUQUERQUE	NM	87110-2515	US		Happy Birthday Charna! Can't wait until we can gather again! From Rick Mead and Mark Marion	false		
114-5317875-7270617	59241527607410	2021-01-13T20:04:12+00:00	2021-01-13T12:04:12-08:00	2021-01-13T20:31:07+00:00	2021-01-16T07:59:59+00:00	-3	blhj36wsxp49863@marketplace.amazon.com	george pierce	+1 415-419-8616 ext. 56080	ABR0022	Delivery by Saturday, January 16 Dozen Pink Roses with a Free Vase by Arabella Bouquets	1	0	1	Expedited	Carol Hall	2732 SHARON HILL RD			DOVER	DE	19904-5340	US		Mom and Dad, I know this is a hard day.  I just wanted you to know I'm thinking of you today and remembering David.   With love,   Carol Ann	false		
114-3365816-3210633	20593652374274	2021-01-13T20:06:24+00:00	2021-01-13T12:06:24-08:00	2021-01-13T20:31:27+00:00	2021-01-16T07:59:59+00:00	-3	q0kv987vb0fbvvb@marketplace.amazon.com	Nancy Maas	09733663209	ABR0022	Delivery by Saturday, January 16 Dozen Pink Roses with a Free Vase by Arabella Bouquets	1	0	1	Expedited	Patrick en Veronique Maas	206 SOUTHFORK LN			BELMONT	NC	28012-7718	US		Happy birthday! From Netty & Jac From Netty & Jac	false		
112-9454410-1436239	25128816957938	2021-01-13T20:01:03+00:00	2021-01-13T12:01:03-08:00	2021-01-13T20:31:41+00:00	2021-01-16T07:59:59+00:00	-3	dd9s6s2klfcprz0@marketplace.amazon.com	Keulon	+1 763-225-9463 ext. 33807	ABR0022	Delivery by Saturday, January 16 Dozen Pink Roses with a Free Vase by Arabella Bouquets	1	0	1	Expedited	Kristal Chrisman	9436 NEWTON AVE APT D			KANSAS CITY	MO	64138-3838	US			false		
113-0383761-4325868	69094139293538	2021-01-13T20:02:11+00:00	2021-01-13T12:02:11-08:00	2021-01-13T20:31:49+00:00	2021-01-16T07:59:59+00:00	-3	1h8h7hxtnmdrqxc@marketplace.amazon.com	Shirley goldberg	+1 213-442-1463 ext. 33720	ABR0022	Delivery by Saturday, January 16 Dozen Pink Roses with a Free Vase by Arabella Bouquets	1	0	1	Expedited	Janis argo	28947 ROCK CANYON DR			SANTA CLARITA	CA	91390-5282	US			false		
114-4276279-3204222	47797163714346	2021-01-13T20:08:30+00:00	2021-01-13T12:08:30-08:00	2021-01-13T20:34:37+00:00	2021-01-16T07:59:59+00:00	-3	w34g6d00lllpy7j@marketplace.amazon.com	Robert J Fatovic	+1 480-618-5344 ext. 15867	ABB013	Delivery by Monday, January 18 FarmDirect 24 Fresh Cut White Roses in a Free Vase by Arabella Bouquets	1	0	1	Expedited	Leila & Don Lockerbie	5025 COLLINS AVE NO 1708			MIAMI BEACH	FL	33140-2700	US		Congratulations to the young Bride & Groom! From Robert J Fatovic	false		
114-9297582-4965838	31213513930762	2021-01-13T20:08:45+00:00	2021-01-13T12:08:45-08:00	2021-01-13T20:37:16+00:00	2021-01-16T07:59:59+00:00	-3	w8vwhg8wkzyx0vl@marketplace.amazon.com	Curtis M. Moore	+1 346-307-9643 ext. 48330	ABM023	Delivery by Monday, January 18 Morning Sun Bouquet by Arabella Bouquets	1	0	1	Expedited	Emogene Kukuk	565 28 1/4 RD # 1B			GRAND JUNCTION	CO	81501-4929	US			false		
113-6702775-5847430	63482874469106	2021-01-13T20:16:13+00:00	2021-01-13T12:16:13-08:00	2021-01-13T20:37:35+00:00	2021-01-16T07:59:59+00:00	-3	hkjg4n2vt2fx3x4@marketplace.amazon.com	Jami	+1 415-851-9136 ext. 42446	ABM020	Delivery by Saturday, January 16 Sunset Bouquet by Arabella Bouquets	1	0	1	Expedited	Mr. & Mrs. Aguirre	26305 Explorer Rd.	Apt.A		Punta Gorda	FL	33883	US		Congratulations on your Wedding!!  We can not wait to meet you Anthony!!  Get well soon Julie And Thank you both for taking in Kendra and making her feel comfortable!  We love you From Jarrod and Jami	false		
111-0474803-7193808	19661673733010	2021-01-13T20:16:39+00:00	2021-01-13T12:16:39-08:00	2021-01-13T20:38:36+00:00	2021-01-16T07:59:59+00:00	-3	9f7h54s386nfn4d@marketplace.amazon.com	Kathleen Hecker	+1 619-854-2705 ext. 24837	ABR0066	Delivery by Saturday, January 16 Dozen White Roses in a Free Vase by Arabella Bouquets	1	0	1	Expedited	Sandra Bogaczyk	8404 HICKORY CREEK DR	GATE CODE 4774		AUSTIN	TX	78735-1529	US		Dear Sandy and family: This comes with my deepest sympathy for your loss of Fran.  Also many prayers for all of you!! love, Kathleen From Kathleen Hecker	false		
114-4599418-7145002	70202317620290	2021-01-13T20:23:41+00:00	2021-01-13T12:23:41-08:00	2021-01-13T20:40:54+00:00	2021-01-16T07:59:59+00:00	-3	whwc55m7kyt52ln@marketplace.amazon.com	Joanne	+1 415-851-9136 ext. 28813	ABM010	Delivery by Saturday, January 16 Everlasting Fling with a Free Glass Vase by Arabella Bouquets	1	0	1	Expedited	Pat Nelson	2513 SADDLERIDGE DR			RALEIGH	NC	27615-1230	US		Sending you love from New Bern!  Love, Pam, Elaine, Clare, Charlotte, Jane and Joanne From NB Book Club	false		
111-8433406-1484268	55201398008738	2021-01-13T20:11:53+00:00	2021-01-13T12:11:53-08:00	2021-01-13T20:41:52+00:00	2021-01-16T07:59:59+00:00	-3	tvsjt6qpvqf757p@marketplace.amazon.com	Manot	+1 415-851-9136 ext. 67357	ABR0022	Delivery by Saturday, January 16 Dozen Pink Roses with a Free Vase by Arabella Bouquets	1	0	1	Expedited	Patti Mutchie	5126 E ROCKLEDGE LN			KANAB	UT	84741-4113	US			false		
111-7494429-6717013	40624094407402	2021-01-13T20:44:19+00:00	2021-01-13T12:44:19-08:00	2021-01-13T20:45:18+00:00	2021-01-16T07:59:59+00:00	-3	jx1wv245h5vfvsp@marketplace.amazon.com	Kathy Comeau	+1 763-225-9463 ext. 50484	ABR0022	Delivery by Saturday, January 16 Dozen Pink Roses with a Free Vase by Arabella Bouquets	1	0	1	Expedited	Maureen Ciesla	22017 N GOLF CLUB DR			SUN CITY WEST	AZ	85375-2077	US		Congratulations!!!  5 years Cancer Free.   So glad you were able to beat it!   Your positivity will always be an inspiration to me.  Love always, Kathy From Kathy Comeau	false		
113-6009960-7166622	18587012706242	2021-01-13T20:20:31+00:00	2021-01-13T12:20:31-08:00	2021-01-13T20:46:08+00:00	2021-01-16T07:59:59+00:00	-3	13zybc2gy8559y6@marketplace.amazon.com	Rochelle Hoch	+1 602-671-6610 ext. 59287	ABM0044	Delivery by Monday, January 18 Blue Hydrangea 5 Stems with a Free Glass Vase by Arabella Bouquets	1	0	1	Standard	Joclyn Schaap	5 PARTRICK RD			WESTPORT	CT	06880-1916	US		To my dear niece Joclyn,  May you have a wonderful birthday! 🌸🌺🌹🎀🥳🎈🎉🌈🌻🎼🔆🎂   Love, Aunt Shelley From Rochelle Hoch	false		
113-0553148-3682658	61486957416658	2021-01-13T20:18:31+00:00	2021-01-13T12:18:31-08:00	2021-01-13T20:47:19+00:00	2021-01-16T07:59:59+00:00	-3	8qp3mb9t2djxdr0@marketplace.amazon.com	Chris Tauriello	+1 415-419-8616 ext. 81911	ABM022	Delivery by Saturday, January 16 Purple Extravagance Bouquet by Arabella Bouquets	1	0	1	Expedited	Nancy Beall 🌸	209 WOODSEDGE LN			FELTON	DE	19943-9531	US		Happy Birthday Mom! Hope you have a great birthday week! Love and miss you!!  Love Chris, Tina, Olivia, Hannah and Q From Chris Tauriello	false		
113-0202247-9053835	32921173091882	2021-01-13T20:20:30+00:00	2021-01-13T12:20:30-08:00	2021-01-13T20:48:42+00:00	2021-01-16T07:59:59+00:00	-3	clbd4lxpgjdkd6x@marketplace.amazon.com	Angela L Chalberg	+1 602-671-6610 ext. 70676	ABM020	Delivery by Saturday, January 16 Sunset Bouquet by Arabella Bouquets	1	0	1	Expedited	Katelyn Belter	27 N MORGAN ST UNIT 2			CHICAGO	IL	60607-2696	US		Katelyn -  I hope these flowers keep you smiling!  We'll all be here to support you, so let me know if you need anything this YE.  Sincerely From Angela Chalberg-Pool	false		
112-7989509-2406603	03779121214138	2021-01-13T20:19:20+00:00	2021-01-13T12:19:20-08:00	2021-01-13T20:49:57+00:00	2021-01-16T07:59:59+00:00	-3	kj0ndkggfwblftm@marketplace.amazon.com	Natalie Spiteri	+1 213-442-1463 ext. 44798	ABM022	Delivery by Saturday, January 16 Purple Extravagance Bouquet by Arabella Bouquets	1	0	1	Expedited	Timmy Chandler	10637 CHESTNUT ST			LOS ALAMITOS	CA	90720-2109	US			false		
114-8258925-9073050	63501318293650	2021-01-13T20:19:28+00:00	2021-01-13T12:19:28-08:00	2021-01-13T20:51:56+00:00	2021-01-16T07:59:59+00:00	-3	fh30q4f3m5zc264@marketplace.amazon.com	Denine Hollow	+1 213-442-1463 ext. 56250	ABR0022	Delivery by Saturday, January 16 Dozen Pink Roses with a Free Vase by Arabella Bouquets	1	0	1	Expedited	Cristen Wise	112 Palencia			Irvine	CA	92618	US		Happy Birthday Grammy! Here’s to many many more birthdays. Love, Denine From Denine Hollow	false		
111-8847468-4206601	67208139937282	2021-01-13T20:29:28+00:00	2021-01-13T12:29:28-08:00	2021-01-13T20:56:30+00:00	2021-01-16T07:59:59+00:00	-3	z5thrf6syh124n0@marketplace.amazon.com	Michelle Jones	+1 602-671-6610 ext. 96778	ABR0022	Delivery by Saturday, January 16 Dozen Pink Roses with a Free Vase by Arabella Bouquets	1	0	1	Expedited	Toni Nicole Thompson	1210 PALMER RD APT 10			FORT WASHINGTON	MD	20744-7138	US		Happiest of birthdays to you! Wishing you many more! From Michelle & the girls	false		
112-9504959-4875456	65792336771274	2021-01-13T20:28:25+00:00	2021-01-13T12:28:25-08:00	2021-01-13T20:58:51+00:00	2021-01-16T07:59:59+00:00	-3	npmz7wv8ffltkrz@marketplace.amazon.com	Molly McGear	+1 415-851-9136 ext. 16592	ABM0033	Delivery by Monday, January 18 White Hydrangea 5 Stems with a Free Glass Vase by Arabella Bouquets	1	0	1	Expedited	Molly McGear	1512 Trace Drive			Aubrey	TX	76227	US			false		
114-9588604-4376237	48984482505058	2021-01-13T20:28:34+00:00	2021-01-13T12:28:34-08:00	2021-01-13T20:59:20+00:00	2021-01-16T07:59:59+00:00	-3	5cypcr2qsndkqzd@marketplace.amazon.com	Karon	+1 346-307-9643 ext. 88421	ABR0022	Delivery by Saturday, January 16 Dozen Pink Roses with a Free Vase by Arabella Bouquets	1	0	1	Expedited	Karon Kiffel	1220 E LOCUST ST APT 206			MILWAUKEE	WI	53212-2682	US			false		
113-9925705-4991442	31700629530362	2021-01-13T20:30:45+00:00	2021-01-13T12:30:45-08:00	2021-01-13T21:00:42+00:00	2021-01-16T07:59:59+00:00	-3	cchwrvc08ljr1rv@marketplace.amazon.com	Daniel Buchalter	+1 763-225-9463 ext. 10696	ABM022	Delivery by Saturday, January 16 Purple Extravagance Bouquet by Arabella Bouquets	1	0	1	Expedited	Lisa Lambert	10573 NW 56TH PL			CORAL SPRINGS	FL	33076-2814	US		Happy Birthday! From Daniel Buchalter	false		
111-4578158-4475435	67417231440266	2021-01-13T20:43:15+00:00	2021-01-13T12:43:15-08:00	2021-01-13T21:03:05+00:00	2021-01-16T07:59:59+00:00	-3	m042yyqdcy43wvs@marketplace.amazon.com	Judi Kimball	+1 763-225-9463 ext. 76843	ABM020	Delivery by Saturday, January 16 Sunset Bouquet by Arabella Bouquets	1	0	1	Expedited	Maranda Condon	36 OAKWOOD RD APT 5			FAIRMONT	WV	26554-2558	US			false		
112-6151889-6697803	24463611951690	2021-01-13T20:35:22+00:00	2021-01-13T12:35:22-08:00	2021-01-13T21:04:33+00:00	2021-01-16T07:59:59+00:00	-3	z2kqvvy80sthdpx@marketplace.amazon.com	juthica reddy	+1 602-671-6610 ext. 41136	ABR0022	Delivery by Saturday, January 16 Dozen Pink Roses with a Free Vase by Arabella Bouquets	1	0	1	Expedited	Margaret Wilson	415 ACACIA CIR APT F			FAYETTEVILLE	NC	28314-2148	US		CONGRATULATIONS!!! Very happy for you! From juthica reddy	false		
111-2385853-9336250	54184265455754	2021-01-13T20:38:01+00:00	2021-01-13T12:38:01-08:00	2021-01-13T21:05:07+00:00	2021-01-16T07:59:59+00:00	-3	cw1cj2f0fxq11qz@marketplace.amazon.com	BILL	+1 415-419-8616 ext. 00675	ABM022	Delivery by Saturday, January 16 Purple Extravagance Bouquet by Arabella Bouquets	1	0	1	Expedited	Meg McNicholas	4640 ECHO GLEN DR			PITTSBURGH	PA	15236-4816	US		I saw these and thought of you my dearest sister. Get better soon but take your time. Miss you alot right now wish I was closer to help you. From beth with love	false		
113-0543706-5697853	36057325943682	2021-01-13T20:43:19+00:00	2021-01-13T12:43:19-08:00	2021-01-13T21:07:35+00:00	2021-01-16T07:59:59+00:00	-3	21tq74gtctvk8d5@marketplace.amazon.com	Prakash Singh	917-929-317	ABR0066	Delivery by Saturday, January 16 Dozen White Roses in a Free Vase by Arabella Bouquets	1	0	1	Expedited	Amy Ramnarine	10321 104TH ST			OZONE PARK	NY	11417-1721	US		We are so sorry for your loss, our deepest condolences to you and the family. From Sabita and Family	false		
114-7660058-7819414	04654806455258	2021-01-13T20:39:13+00:00	2021-01-13T12:39:13-08:00	2021-01-13T21:07:52+00:00	2021-01-16T07:59:59+00:00	-3	r0jp1tnythmx1rf@marketplace.amazon.com	Kristina	+1 763-225-9463 ext. 68215	ABM020	Delivery by Saturday, January 16 Sunset Bouquet by Arabella Bouquets	1	0	1	Expedited	Janet Neilson	11813 DUXBURY PL			MIDLOTHIAN	VA	23114-5305	US		Happy birthday Mom/Grandma!  We LOVE YOU! From The Nashville Cason’s	false		
114-8914040-2562630	54433504926298	2021-01-13T20:46:10+00:00	2021-01-13T12:46:10-08:00	2021-01-13T21:14:27+00:00	2021-01-16T07:59:59+00:00	-3	vf15jy7vwfn5r88@marketplace.amazon.com	kmf	+1 763-225-9463 ext. 32414	ABR0022	Delivery by Saturday, January 16 Dozen Pink Roses with a Free Vase by Arabella Bouquets	1	0	1	Expedited	Linda Buckles	3927 2ND AVE NE			SEATTLE	WA	98105-6806	US		Dear Linda, HAPPY BIRTHDAY!!! Have a wonderful day.  Love, Karen and Bill From Karen	false		
111-0696457-8807450	68006065864330	2021-01-13T20:51:01+00:00	2021-01-13T12:51:01-08:00	2021-01-13T21:18:31+00:00	2021-01-16T07:59:59+00:00	-3	lbl19fcksf1kqjj@marketplace.amazon.com	Paul Nielson	+1 213-442-1463 ext. 28306	ABR0022	Delivery by Saturday, January 16 Dozen Pink Roses with a Free Vase by Arabella Bouquets	1	0	1	Expedited	Ellen Carlson	550 HALEY ST SE			MARIETTA	GA	30060-2237	US		HAPPY  ANNIVERSARY  Ellen & Tom Enjoy your day XO Unc and A. Shirlotta	false		
111-6894919-7827453	56485289440250	2021-01-13T20:50:33+00:00	2021-01-13T12:50:33-08:00	2021-01-13T21:19:46+00:00	2021-01-16T07:59:59+00:00	-3	q1td4rgh16ysvtm@marketplace.amazon.com	Pamela Jo Lewis	+1 415-419-8616 ext. 09443	ABR0022	Delivery by Saturday, January 16 Dozen Pink Roses with a Free Vase by Arabella Bouquets	1	0	1	Expedited	Debbie Kautzman	1360 YOUNG RD			AMELIA	OHIO	45102-1842	US		Spring's coming! From Pamela Jo Lewis	false		
111-5763617-1926602	37978553087946	2021-01-13T20:42:51+00:00	2021-01-13T12:42:51-08:00	2021-01-13T21:21:04+00:00	2021-01-16T07:59:59+00:00	-3	pknzdwd32l21myy@marketplace.amazon.com	Richard Nunez	+1 213-442-1463 ext. 98522	ABR0022	Delivery by Saturday, January 16 Dozen Pink Roses with a Free Vase by Arabella Bouquets	1	0	1	Expedited	C Mein	729 E CHARLES ST			HAMMOND	LA	70401-2720	US			false		
114-3387848-0819453	47565078250418	2021-01-13T21:01:06+00:00	2021-01-13T13:01:06-08:00	2021-01-13T21:28:58+00:00	2021-01-16T07:59:59+00:00	-3	pxq22v9gr5m18h4@marketplace.amazon.com	Pat Bradford	+1 602-671-6610 ext. 91517	ABM026	Delivery by Monday, January 18 Amour Bouquet by Arabella Bouquets	1	0	1	Expedited	Hsiao Chen Worthy	2131 NORTHERN DR			BEAVERCREEK	OH	45431-3124	US			false		
113-5000541-6424265	27666755082186	2021-01-13T21:02:13+00:00	2021-01-13T13:02:13-08:00	2021-01-13T21:30:24+00:00	2021-01-16T07:59:59+00:00	-3	lp4w2v3gy5kzf28@marketplace.amazon.com	Megan Fabel	+1 346-307-9643 ext. 16545	ABM025	Delivery by Monday, January 18 Fell for You Bouquet by Arabella Bouquets	1	0	1	Expedited	Debbie Fabel	N1069 NORTH RD			HORTONVILLE	WI	54944-8706	US		Happy birthday Mom! I love you, and enjoy your day!! From Your favorite daughter, Megan	false		
111-6482273-2827409	05532461975266	2021-01-13T21:11:06+00:00	2021-01-13T13:11:06-08:00	2021-01-13T21:32:48+00:00	2021-01-16T07:59:59+00:00	-3	26s60rybncqfcr4@marketplace.amazon.com	Mary Ann Rangel	+1 619-854-2705 ext. 95694	ABR0022	Delivery by Saturday, January 16 Dozen Pink Roses with a Free Vase by Arabella Bouquets	1	0	1	Expedited	Eric & Crystal Gonzales	11023 VOLLMER LN			SAN ANTONIO	TX	78254-1791	US		Crystal,  We love you. From Dad and Mary Ann	false		
111-8759182-8170637	32114935173386	2021-01-13T21:15:08+00:00	2021-01-13T13:15:08-08:00	2021-01-13T21:35:43+00:00	2021-01-16T07:59:59+00:00	-3	12fbb9ygpxrty0b@marketplace.amazon.com	Philip G. Taylor	+1 415-419-8616 ext. 04207	ABM022	Delivery by Saturday, January 16 Purple Extravagance Bouquet by Arabella Bouquets	1	0	1	Expedited	Joan Taylor	1315 3RD ST S APT 509			JACKSONVILLE BEACH	FL	32250-6411	US		Have a lovely Birthday!! Love, Pat and Phil From Philip G. Taylor	false		
113-6387856-4216216	36685004069610	2021-01-13T21:10:50+00:00	2021-01-13T13:10:50-08:00	2021-01-13T21:36:53+00:00	2021-01-16T07:59:59+00:00	-3	06fxzbs9sj12s6m@marketplace.amazon.com	HALEH NOZARTASH	+1 415-419-8616 ext. 59516	ABM022	Delivery by Saturday, January 16 Purple Extravagance Bouquet by Arabella Bouquets	1	0	1	Expedited	Anahita Abedini	1 CONGRESS ST APT A2			JERSEY CITY	NJ	07307-1037	US		Dear Anahita Happy birthday we love you From Homa and Haleh	false		
113-9787397-6301011	05243354691818	2021-01-13T21:13:30+00:00	2021-01-13T13:13:30-08:00	2021-01-13T21:36:56+00:00	2021-01-16T07:59:59+00:00	-3	ts65bt45k3vy0s5@marketplace.amazon.com	JL	+1 415-851-9136 ext. 16505	ABM020	Delivery by Saturday, January 16 Sunset Bouquet by Arabella Bouquets	1	0	1	Expedited	Jane Howard	9325 QUINN RD			BLOOMINGTON	MN	55437-2077	US		Enjoy your gift!  Happy 20th Anniversary!! From Phil Team	false		
112-3933968-9517007	60174390659538	2021-01-13T21:12:22+00:00	2021-01-13T13:12:22-08:00	2021-01-13T21:40:11+00:00	2021-01-16T07:59:59+00:00	-3	6cnrq3v9fryk5dd@marketplace.amazon.com	Michael	+1 602-671-6610 ext. 70840	ABR001	Delivery by Friday, January 15 Dozen Red Roses in a Free Vase by Arabella Bouquets	1	0	1	Expedited	Charita Persuad	63 TOMPKINS ST			BINGHAMTON	NY	13903-2222	US		HAPPY BIRTHDAY❗️to my beautiful Queen/My headache LOL... love you babe hope u enjoy your birthday 🥳 🎂🎈🎊😘.TURN UPPPPPP 😜 From Michael	false		
113-8264437-5021862	49426693653378	2021-01-13T21:17:40+00:00	2021-01-13T13:17:40-08:00	2021-01-13T21:44:13+00:00	2021-01-16T07:59:59+00:00	-3	zc2dz9hjzq2csck@marketplace.amazon.com	Philadelphia Academy of School Leaders	+1 346-307-9643 ext. 43748	ABR0022	Delivery by Saturday, January 16 Dozen Pink Roses with a Free Vase by Arabella Bouquets	1	0	1	Expedited	Kimberly NewmanPOSympathy Flowers	1420 LOCUST ST APT 22A			PHILADELPHIA	PA	19102-4213	US		Our deepest condolences to you and your loved ones. We are thinking about you and sending love. From Philadelphia Academy of School Leaders	true	Sympathy Flowers	Business Price
111-5362726-7410628	69055958412346	2021-01-13T21:15:03+00:00	2021-01-13T13:15:03-08:00	2021-01-13T21:44:34+00:00	2021-01-16T07:59:59+00:00	-3	l2km80gnxfbgbn4@marketplace.amazon.com	Liselotte Devine	+1 415-851-9136 ext. 71937	ABM022	Delivery by Saturday, January 16 Purple Extravagance Bouquet by Arabella Bouquets	1	0	1	Expedited	Margarita Munoz y Familia	16935 CEDAR CT			SONOMA	CA	95476-3347	US		Nuestras más sinceras condolencias From Liselotte Devine	false		
113-7606338-2753010	14643392731210	2021-01-13T21:20:59+00:00	2021-01-13T13:20:59-08:00	2021-01-13T21:47:14+00:00	2021-01-16T07:59:59+00:00	-3	xmvh2n8tl717730@marketplace.amazon.com	Rosemarie Harrigan	+1 602-671-6610 ext. 23898	ABM022	Delivery by Saturday, January 16 Purple Extravagance Bouquet by Arabella Bouquets	1	0	1	Expedited	Kristi Beck	1660 N SERINA			MESA	AZ	85205-3439	US		Happy 40th Kristi!  Hope you enjoy these flowers and have  wonderful birthday.       Love Grandma, Grandpa and Mom From All of us - including Mickey and Flora	false		
113-5766144-4685862	53364563152802	2021-01-13T21:19:56+00:00	2021-01-13T13:19:56-08:00	2021-01-13T21:47:32+00:00	2021-01-16T07:59:59+00:00	-3	6bktklp2y7b238n@marketplace.amazon.com	Lisa Koltun	+1 415-851-9136 ext. 26608	ABR0022	Delivery by Saturday, January 16 Dozen Pink Roses with a Free Vase by Arabella Bouquets	1	0	1	Expedited	Leah Branch	16881 E 121ST CIRCLE DR			BRIGHTON	CO	80603-6934	US		Wishing you a Happy Birthday & all good things. XOXOXO Lisa & Sam From Lisa & Sam	false		
114-0972275-3512227	36329856102746	2021-01-13T21:19:52+00:00	2021-01-13T13:19:52-08:00	2021-01-13T21:50:05+00:00	2021-01-16T07:59:59+00:00	-3	h7wcmz8p4y8h6bx@marketplace.amazon.com	Cheryl A. Pindale	+1 415-419-8616 ext. 15278	ABR0022	Delivery by Saturday, January 16 Dozen Pink Roses with a Free Vase by Arabella Bouquets	1	0	1	Expedited	Mrs. JoAnn Mumau	414 HEARTHSTONE LN			HENDERSON	KY	42420-3423	US			false		
114-8876468-6541805	00734298671554	2021-01-13T21:20:40+00:00	2021-01-13T13:20:40-08:00	2021-01-13T21:50:22+00:00	2021-01-16T07:59:59+00:00	-3	2ph8gsm20c9qh6t@marketplace.amazon.com	sarah gauthier	+1 602-671-6610 ext. 77040	ABC001	Delivery by Friday, January 15 Seasons Greetings Bouquet by Arabella Bouquets	1	0	1	Expedited	Courtney Powell	515 OLD POST RD			GHENT	NY	12075-3608	US		Courtney,    We are thinking of you. Stay strong. We love you! From Uncle Mark, Aunt Myrt, & Family	false		
111-6324544-3927411	12572125913074	2021-01-13T21:21:29+00:00	2021-01-13T13:21:29-08:00	2021-01-13T21:51:06+00:00	2021-01-16T07:59:59+00:00	-3	t3v8ygh01xpqbsb@marketplace.amazon.com	Lawrence Hannaford	+1 763-225-9463 ext. 76265	ABM020	Delivery by Saturday, January 16 Sunset Bouquet by Arabella Bouquets	1	0	1	Expedited	Tara Jean Holt	240 MEADOW CREST DR			TROY	MO	63379-7214	US			false		
113-1086165-7975462	53742536640818	2021-01-13T21:23:56+00:00	2021-01-13T13:23:56-08:00	2021-01-13T21:54:16+00:00	2021-01-16T07:59:59+00:00	-3	yyn10r4fps0p4cj@marketplace.amazon.com	Kathleen Kabir	+1 763-225-9463 ext. 85033	ABR0022	Delivery by Saturday, January 16 Dozen Pink Roses with a Free Vase by Arabella Bouquets	1	0	1	Expedited	Alice Uhly	1020 W VINE ST			PRINCETON	IN	47670-1164	US			false		
113-6014339-1903417	45602081218466	2021-01-13T21:24:59+00:00	2021-01-13T13:24:59-08:00	2021-01-13T21:55:10+00:00	2021-01-16T07:59:59+00:00	-3	pkxd5l1pyshbrrg@marketplace.amazon.com	Jonathan W. Elswick	+1 415-419-8616 ext. 68164	ABR0055	Delivery by Saturday, January 16 Dozen Hot Pink Roses in a Free Vase by Arabella Bouquets	1	0	1	Expedited	Jonathan W. Elswick c/o Richard Elswick	4142 JOHNS FARM RD APT F261			ROCKFORD	IL	61101-8806	US			false		
111-5933815-5604215	67099532840610	2021-01-13T21:42:19+00:00	2021-01-13T13:42:19-08:00	2021-01-13T22:11:03+00:00	2021-01-16T07:59:59+00:00	-3	0jnvkgx4yd4h08s@marketplace.amazon.com	Kim E. Fuentes	+1 415-851-9136 ext. 74656	ABC002	Delivery by Monday, January 18 Warm Wishes Bouquet by Arabella Bouquets	1	0	1	Expedited	Lorraine Furia	3140 HOLIDAY SPRINGS BLVD BLDG 9	APT 109		MARGATE	FL	33063-5414	US		Happy Birthday, Mom From Kim E. Fuentes	false		
113-3215967-4007407	66196443098066	2021-01-13T21:52:26+00:00	2021-01-13T13:52:26-08:00	2021-01-13T22:12:20+00:00	2021-01-16T07:59:59+00:00	-3	dgbttqhzcffwrtt@marketplace.amazon.com	Briana Luna	+1 415-419-8616 ext. 45863	ABR0066	Delivery by Saturday, January 16 Dozen White Roses in a Free Vase by Arabella Bouquets	1	0	1	Expedited	Lana Rau	13556 N TELLURIDE LOOP			HAYDEN	ID	83835-3338	US		Happy Birthday Mom! Wish we could celebrate with you. Love and miss you. From Jared, Briana, Lukas, Jules	false		
112-6943225-0463402	13905562183682	2021-01-13T21:45:45+00:00	2021-01-13T13:45:45-08:00	2021-01-13T22:13:19+00:00	2021-01-16T07:59:59+00:00	-3	5ly0y3r0j539rpj@marketplace.amazon.com	Gary McGuigan	+1 763-225-9463 ext. 90789	ABR0022	Delivery by Saturday, January 16 Dozen Pink Roses with a Free Vase by Arabella Bouquets	1	0	1	Expedited	Karin Hendry	15346 MONROVIA ST			OVERLAND PARK	KS	66221-2370	US		Karin & Dave Happy Anniversary! Enjoy! From Love Nana Nutt	false		
111-6105597-8388242	34678418503498	2021-01-13T21:43:37+00:00	2021-01-13T13:43:37-08:00	2021-01-13T22:13:38+00:00	2021-01-16T07:59:59+00:00	-3	zytjwcw56csckjz@marketplace.amazon.com	Will	+1 415-851-9136 ext. 89909	ABM022	Delivery by Saturday, January 16 Purple Extravagance Bouquet by Arabella Bouquets	1	0	1	Expedited	Dr. Cody Ching	347 W SPRING ST			CADIZ	OH	43907-1045	US			false		
111-0331902-5171425	54959319798858	2021-01-13T21:52:37+00:00	2021-01-13T13:52:37-08:00	2021-01-13T22:16:18+00:00	2021-01-16T07:59:59+00:00	-3	l49cglbnnvsj02n@marketplace.amazon.com	janis kempster	+1 213-442-1463 ext. 16357	ABM010	Delivery by Saturday, January 16 Everlasting Fling with a Free Glass Vase by Arabella Bouquets	1	0	1	Expedited	Jennie Kempster	5611 DURBIN RD			BETHESDA	MD	20814-1013	US		To. Jennie, Ted, Amy and Lucy Hope you are all better soon. Take care of yourselves. Lots of love ❤️ From Mum and Dad xxxx	false		
111-4886574-9253843	55791457264274	2021-01-13T21:48:20+00:00	2021-01-13T13:48:20-08:00	2021-01-13T22:16:24+00:00	2021-01-16T07:59:59+00:00	-3	82pk7m8dsd443y2@marketplace.amazon.com	Rania Jawad	+1 763-225-9463 ext. 84400	ABC001	Delivery by Friday, January 15 Seasons Greetings Bouquet by Arabella Bouquets	1	0	1	Expedited	Basil Jawad	1196 Carrie Ln			West Chester	PA	19382-7476	US		Love you Jido! From Nala and Seri	false		
114-9003200-0289803	47348269184482	2021-01-13T21:46:03+00:00	2021-01-13T13:46:03-08:00	2021-01-13T22:16:40+00:00	2021-01-16T07:59:59+00:00	-3	kyfbs9p2fjsxyrw@marketplace.amazon.com	Daniel cash	+1 213-442-1463 ext. 14257	ABR0022	Delivery by Saturday, January 16 Dozen Pink Roses with a Free Vase by Arabella Bouquets	1	0	1	Expedited	Liz Hilmas	141 GRANDVIEW ST APT 5			ENCINITAS	CA	92024-1012	US			false		
113-7434996-7422654	21824069055122	2021-01-13T22:02:26+00:00	2021-01-13T14:02:26-08:00	2021-01-13T22:24:51+00:00	2021-01-16T07:59:59+00:00	-3	zqchmnmlm3d913n@marketplace.amazon.com	Perry Clark	+1 346-307-9643 ext. 31386	ABM026	Delivery by Monday, January 18 Amour Bouquet by Arabella Bouquets	1	0	1	Expedited	Charlotte ter Haar	727 W MADISON ST APT 1406			CHICAGO	IL	60661-2409	US		GET WELL SOON!!! From UIC OB/GYN Residency	true		
114-7198017-9541001	64882564375242	2021-01-13T22:04:46+00:00	2021-01-13T14:04:46-08:00	2021-01-13T22:33:21+00:00	2021-01-16T07:59:59+00:00	-3	jsgvkm0k967mdd4@marketplace.amazon.com	John Harless	+1 602-671-6610 ext. 71791	ABM020	Delivery by Saturday, January 16 Sunset Bouquet by Arabella Bouquets	1	0	1	Expedited	Julie Harless 143	9125 DEERPARK LN			CHARLOTTE	NC	28277-9015	US			false		
114-1920497-9524237	23030408460674	2021-01-13T22:05:16+00:00	2021-01-13T14:05:16-08:00	2021-01-13T22:34:54+00:00	2021-01-16T07:59:59+00:00	-3	k9p988ykf62f0ks@marketplace.amazon.com	Marc Darpel	+1 346-307-9643 ext. 02730	ABR0022	Delivery by Saturday, January 16 Dozen Pink Roses with a Free Vase by Arabella Bouquets	1	0	1	Expedited	Betty Cook	1622 SHAW PIKE			INDEPENDENCE	KY	41051-7916	US		Enjoy your gift! From Marc Darpel	false		
114-4242354-1943428	18267365870138	2021-01-13T22:08:16+00:00	2021-01-13T14:08:16-08:00	2021-01-13T22:36:22+00:00	2021-01-16T07:59:59+00:00	-3	gm8scc075v86xxb@marketplace.amazon.com	Tamara Hawkins	+1 763-225-9463 ext. 83092	ABR0033	Delivery by Saturday, January 16 Dozen Orange Roses in a Free Vase by Arabella Bouquets	1	0	1	Expedited	Nicole Wilson	2923 HARVIEW AVE			PARKVILLE	MD	21234-7110	US		Enjoy your gift! Dear Mrs. Wilson , I pray this puts a smile on your face !! From Tamara Hawkins	false		
111-7393324-3374618	16739202507946	2021-01-13T22:11:03+00:00	2021-01-13T14:11:03-08:00	2021-01-13T22:39:10+00:00	2021-01-16T07:59:59+00:00	-3	ss0ks34dk8j5t90@marketplace.amazon.com	Brian Fraley	+1 415-419-8616 ext. 91704	ABM022	Delivery by Saturday, January 16 Purple Extravagance Bouquet by Arabella Bouquets	1	0	1	Expedited	Judy Fraley	712 ASHLAND AVE			NORTH MYRTLE BEACH	SC	29582-3398	US		Happy Birthday Mom (Lolli) :) Love you so much! From Brian, Kristi, Addison, Marley, and Mikey	false		
111-6762178-7491410	49462116771082	2021-01-13T22:15:04+00:00	2021-01-13T14:15:04-08:00	2021-01-13T22:42:41+00:00	2021-01-16T07:59:59+00:00	-3	25n9vsqsyhpz8j1@marketplace.amazon.com	Renee Kania	+1 213-442-1463 ext. 39182	ABM020	Delivery by Saturday, January 16 Sunset Bouquet by Arabella Bouquets	1	0	1	Expedited	Cali Yepiz	6950 W MELINDA LN			GLENDALE	AZ	85308-9591	US		I’m so sorry for the loss of your grandma. Sending hugs and my thoughts of healing to you and your family. From Renee Kania	false		
111-2628606-0482636	57351500099186	2021-01-13T22:18:57+00:00	2021-01-13T14:18:57-08:00	2021-01-13T22:44:21+00:00	2021-01-16T07:59:59+00:00	-3	2gy5tskxln508tf@marketplace.amazon.com	Sarah Y. Krakauer	+1 415-419-8616 ext. 16101	ABR0066	Delivery by Saturday, January 16 Dozen White Roses in a Free Vase by Arabella Bouquets	1	0	1	Expedited	Drs. Maria Krakauer	6342 WILDWOOD DR			BRENTWOOD	TN	37027-4858	US		Happy birthday, big hugs, and much love, Sarah and Henry From Sarah Y. Krakauer	false		
112-1841413-0890609	28591808709178	2021-01-13T22:19:37+00:00	2021-01-13T14:19:37-08:00	2021-01-13T22:45:07+00:00	2021-01-16T07:59:59+00:00	-3	w3x34x861rb57lb@marketplace.amazon.com	Jamie Carrieri	+1 415-851-9136 ext. 20934	ABR0066	Delivery by Saturday, January 16 Dozen White Roses in a Free Vase by Arabella Bouquets	1	0	1	Expedited	Deionna Mathis	4423 RICHARD RD			CONLEY	GA	30288-2212	US		Happy Birthday, Deionna! From Jamie & Enrico	false		
113-3264785-6423416	58042550387738	2021-01-13T22:20:43+00:00	2021-01-13T14:20:43-08:00	2021-01-13T22:47:11+00:00	2021-01-16T07:59:59+00:00	-3	q25fvlhbpvn4r5s@marketplace.amazon.com	Faye A. Detry	+1 415-419-8616 ext. 96070	ABM010	Delivery by Saturday, January 16 Everlasting Fling with a Free Glass Vase by Arabella Bouquets	1	0	1	Expedited	Becky Obannon	19 KISKADEE LN			HOUSTON	TX	77058-4378	US		We are so sad about the loss of your father..He will be missed by many. Faye and Ron Deb and Ken From Faye A. Detry	false		
111-7040351-1309856	70180758206578	2021-01-13T22:21:40+00:00	2021-01-13T14:21:40-08:00	2021-01-13T22:50:24+00:00	2021-01-16T07:59:59+00:00	-3	gfr5p12r7s207mf@marketplace.amazon.com	Sheralyne Rechnagel	+1 602-671-6610 ext. 68785	ABM022	Delivery by Saturday, January 16 Purple Extravagance Bouquet by Arabella Bouquets	1	0	1	Expedited	Allie Schmidt	1058 98TH AVE NE			MINNEAPOLIS	MN	55434-3518	US		Happy belated birthday, my dear friend.   2021 is going to be great!!! I can feel it!!  Sherie From Sheralyne Rechnagel	false		
113-7073659-4163442	57194786325178	2021-01-13T22:24:32+00:00	2021-01-13T14:24:32-08:00	2021-01-13T22:51:14+00:00	2021-01-16T07:59:59+00:00	-3	60qsvvk7mk7zm2m@marketplace.amazon.com	Pramod Jain	+1 415-851-9136 ext. 05185	ABR0033	Delivery by Saturday, January 16 Dozen Orange Roses in a Free Vase by Arabella Bouquets	1	0	1	Expedited	Ishwar Lalwani	26 DAISY DR			EGG HARBOR TOWNSHIP	NJ	08234-6117	US		In loving memory of Dear Lata. May her soul rest in peace. From Kusum and Pramod Jain	false		
114-4143493-3397811	16005426443962	2021-01-13T22:22:12+00:00	2021-01-13T14:22:12-08:00	2021-01-13T22:52:04+00:00	2021-01-16T07:59:59+00:00	-3	hj44djzk41jzprj@marketplace.amazon.com	Beverly Schofield	+1 763-225-9463 ext. 03252	ABM020	Delivery by Saturday, January 16 Sunset Bouquet by Arabella Bouquets	1	0	1	Expedited	Jimmy Schofield	372 S 930 W APT 301			PLEASANT GROVE	UT	84062-2527	US			false		
112-3870856-3733028	14671819993218	2021-01-13T22:32:22+00:00	2021-01-13T14:32:22-08:00	2021-01-13T22:58:31+00:00	2021-01-16T07:59:59+00:00	-3	19wwph86hygqwl0@marketplace.amazon.com	John mccants	+1 763-225-9463 ext. 19222	ABR001	Delivery by Friday, January 15 Dozen Red Roses in a Free Vase by Arabella Bouquets	1	0	1	Expedited	Sterling Rucker	5019 2ND AVE S			MINNEAPOLIS	MN	55419-1409	US			false		
112-4313368-4347444	11389964282290	2021-01-12T08:01:16+00:00	2021-01-12T00:01:16-08:00	2021-01-13T23:00:40+00:00	2021-01-15T07:59:59+00:00	-2	mytx3dn4prmwjdm@marketplace.amazon.com	carlos logsdon	+1 415-419-8616 ext. 34681	ABR0022	Delivery by Wednesday, January 13 Dozen Pink Roses with a Free Vase by Arabella Bouquets	1	0	1	SecondDay	jessica logsdon	1821 HAMILTON AVE			LORAIN	OH	44052-3842	US			false		
113-7972225-5171459	18726962864570	2021-01-13T22:32:04+00:00	2021-01-13T14:32:04-08:00	2021-01-13T23:01:16+00:00	2021-01-16T07:59:59+00:00	-3	qshxfqjqf4713kd@marketplace.amazon.com	Eli	+1 415-851-9136 ext. 05140	ABR004	Delivery by Monday, January 18 Dozen Yellow Roses in a Free Vase by Arabella Bouquets	1	0	1	Standard	Ilia Garcia	924 DEAN AVE APT 2			BRONX	NY	10465-1658	US			false		
112-5207606-4669820	24851246756810	2021-01-13T22:33:42+00:00	2021-01-13T14:33:42-08:00	2021-01-13T23:02:39+00:00	2021-01-16T07:59:59+00:00	-3	8dmvxm2gwd658bn@marketplace.amazon.com	Kathy Profaizer	+1 602-671-6610 ext. 00663	ABM020	Delivery by Saturday, January 16 Sunset Bouquet by Arabella Bouquets	1	0	1	Expedited	Dorothy Cunningham	202 BERNARD AVE			CHURCH HILL	TN	37642-4801	US		Hope this brightens your day !!   Love Ron and Kathy From XO	false		
112-8040135-4266656	35612646915322	2021-01-13T22:37:27+00:00	2021-01-13T14:37:27-08:00	2021-01-13T23:04:40+00:00	2021-01-16T07:59:59+00:00	-3	k2fy8ph2cl6731v@marketplace.amazon.com	Mike Hardin	+1 480-618-5344 ext. 14509	ABC002	Delivery by Monday, January 18 Warm Wishes Bouquet by Arabella Bouquets	1	0	1	Expedited	Brian Hardin	230 WILSON RD			YAKIMA	WA	98901-9370	US		Jen,  We love you and are praying for you. From Mike and Carol	false		
112-6132506-3398632	60878599503618	2021-01-13T22:27:29+00:00	2021-01-13T14:27:29-08:00	2021-01-13T23:04:54+00:00	2021-01-16T07:59:59+00:00	-3	r5msvltrfc6xdq3@marketplace.amazon.com	Joshua	+1 213-442-1463 ext. 51973	ABM020	Delivery by Saturday, January 16 Sunset Bouquet by Arabella Bouquets	1	0	1	Expedited	Joshua Rudy	5952 STATE ROUTE 209			LYKENS	PA	17048-8422	US			false		
112-9420806-9441040	45429812151802	2021-01-13T22:44:04+00:00	2021-01-13T14:44:04-08:00	2021-01-13T23:08:03+00:00	2021-01-16T07:59:59+00:00	-3	nmps97brt18478v@marketplace.amazon.com	camille ryan	+1 415-419-8616 ext. 83074	ABM010	Delivery by Saturday, January 16 Everlasting Fling with a Free Glass Vase by Arabella Bouquets	1	0	1	Expedited	Adrienne Ryan	41W150 CHERYL CT			HUNTLEY	IL	60142-8085	US		Happy Birthday Adrienne, We appreciate you and all the wonderful things that you do all year long.  We miss you and love you very much and hope this year is a spectacular year for you.Have a fantastic birthday! Love , Camille & Dennis	false		
111-3119153-0251420	65460257693634	2021-01-13T22:51:30+00:00	2021-01-13T14:51:30-08:00	2021-01-13T23:15:09+00:00	2021-01-16T07:59:59+00:00	-3	k9vyg21fjh60txp@marketplace.amazon.com	Beth Pingel	+1 415-419-8616 ext. 92501	ABR0033	Delivery by Saturday, January 16 Dozen Orange Roses in a Free Vase by Arabella Bouquets	1	0	1	Expedited	Jolai Michel	2340 W WILSON AVE # 2			CHICAGO	IL	60625-2123	US		A reminder of who you are:  May pieces of you fall to the ground like seeds  and bloom brighter in new growth. From Tess Pingel	false		
114-2208452-5467460	46056341201250	2021-01-13T22:47:01+00:00	2021-01-13T14:47:01-08:00	2021-01-13T23:15:18+00:00	2021-01-16T07:59:59+00:00	-3	cjq5f2mrkxjkdxz@marketplace.amazon.com	Nathan Barnell	+1 619-854-2705 ext. 16457	ABM010	Delivery by Saturday, January 16 Everlasting Fling with a Free Glass Vase by Arabella Bouquets	1	0	1	Expedited	Dorothy Francis	14946 County Highway #1			Lake Park	MN	56554	US		Happy “70th” Birthday! We love you SO much and wish we could be together to celebrate you! So thankful for you and for all that you mean to our family! You are simply the best!! Love you lots !! From Nate, Becca, Blake + Jane, Syd and Abbey	false		
113-3547686-2929834	13649933509882	2021-01-13T23:01:17+00:00	2021-01-13T15:01:17-08:00	2021-01-13T23:16:29+00:00	2021-01-16T07:59:59+00:00	-3	jczfbj4q23w2j1k@marketplace.amazon.com	Jocelyn Stokes-Holt	+1 415-419-8616 ext. 32736	ABM010	Delivery by Saturday, January 16 Everlasting Fling with a Free Glass Vase by Arabella Bouquets	1	0	1	Expedited	Kristen Lyles	1401 PORTER ST			BALTIMORE	MD	21230-5519	US		Happy 30th Birthday Kristen, I’ll never forget this joyous occasion as I was the very 1st person to see you.  I wish you all the happiness & good fortune that you deserve as you enter this new phase of your life. Love Always From Jocelyn Stokes-Holt	false		
113-0694303-9878656	48015296074802	2021-01-13T22:49:58+00:00	2021-01-13T14:49:58-08:00	2021-01-13T23:19:05+00:00	2021-01-16T07:59:59+00:00	-3	xgnvss7q16s71dg@marketplace.amazon.com	Cindy Raba	+1 619-854-2705 ext. 03565	ABR0066	Delivery by Saturday, January 16 Dozen White Roses in a Free Vase by Arabella Bouquets	1	0	1	Expedited	Tonya Herndon	41889 COUNTRY INN TER			ALDIE	VA	20105-5866	US			false		
111-1800569-5749800	30644310434330	2021-01-13T22:50:54+00:00	2021-01-13T14:50:54-08:00	2021-01-13T23:19:27+00:00	2021-01-16T07:59:59+00:00	-3	88flnrmthvw4nxm@marketplace.amazon.com	John Engert	+1 213-442-1463 ext. 84370	ABM010	Delivery by Saturday, January 16 Everlasting Fling with a Free Glass Vase by Arabella Bouquets	1	0	1	Expedited	Catherine Engert	8 RUTHERFORD ST			SAINT JAMES	NY	11780-2831	US		Love you!! From Love, john	false		
112-8153051-2381869	20657506472898	2021-01-13T22:56:22+00:00	2021-01-13T14:56:22-08:00	2021-01-13T23:24:17+00:00	2021-01-16T07:59:59+00:00	-3	gwk3bkl2x4f6c08@marketplace.amazon.com	Jenna Kay Rivers	+1 415-419-8616 ext. 59877	ABR0033	Delivery by Saturday, January 16 Dozen Orange Roses in a Free Vase by Arabella Bouquets	1	0	1	Expedited	Mrs. Helga Struffert	1451 ALBERTA CT			CARSON CITY	NV	89703-8348	US		Wishing we were there again to help you celebrate. Happy Birthday. Love, hugs and kisses! From Rina and the Gang	false		
111-3356464-1006617	42890321217098	2021-01-13T22:59:48+00:00	2021-01-13T14:59:48-08:00	2021-01-13T23:27:28+00:00	2021-01-16T07:59:59+00:00	-3	9sw5pq85r47b8dk@marketplace.amazon.com	Laurie McLellan	+1 415-419-8616 ext. 85531	ABM022	Delivery by Saturday, January 16 Purple Extravagance Bouquet by Arabella Bouquets	1	0	1	Expedited	Lauren McLellan	13809 UVALDE AVE			LUBBOCK	TX	79423-1286	US		Lauren, We are saddened by Faye's passing. She was a special friend who recognized a kindred spirit in you. We wish we could hug you! Love, Mom and Dad From Mom and Dad	false		
112-1561373-2373021	08313919020994	2021-01-13T23:07:48+00:00	2021-01-13T15:07:48-08:00	2021-01-13T23:28:26+00:00	2021-01-16T07:59:59+00:00	-3	plpm3777wmc1bs1@marketplace.amazon.com	Georgia Lockley	+1 619-854-2705 ext. 51027	ABM0044	Delivery by Monday, January 18 Blue Hydrangea 5 Stems with a Free Glass Vase by Arabella Bouquets	1	0	1	Expedited	Brenda Cryer	2333 ANGONI WAY			FORT WORTH	TX	76131-5127	US		Wishing you the happiest 40th birthday 2 times!!!! Lots of love! From Georgia & Kim	false		
114-8049340-0105005	07150624352698	2021-01-13T23:03:33+00:00	2021-01-13T15:03:33-08:00	2021-01-13T23:31:52+00:00	2021-01-16T07:59:59+00:00	-3	6pyjc0zlt3btklg@marketplace.amazon.com	Robyn Laubach	+1 346-307-9643 ext. 70009	ABR0055	Delivery by Saturday, January 16 Dozen Hot Pink Roses in a Free Vase by Arabella Bouquets	1	0	1	Expedited	Sharon Saice	6271 COMET LN NE			FRIDLEY	MN	55432-4902	US		Happy Birthday Mom!  Love you much! From Robyn & Shane	false		
111-6989963-8893845	10153328637898	2021-01-13T23:08:09+00:00	2021-01-13T15:08:09-08:00	2021-01-13T23:33:45+00:00	2021-01-16T07:59:59+00:00	-3	zggkm0126qbnrqk@marketplace.amazon.com	lisa	+1 415-851-9136 ext. 23275	ABM021	Delivery by Monday, January 18 Joyous Bouquet by Arabella Bouquets	1	0	1	Expedited	Diane maunus	6535 SAINT CLAIR RD			WHITESBURG	TN	37891-9217	US		Hi mom, Happy Birthday  Love lisa	false		
111-2384886-8344250	42888758878074	2021-01-13T23:06:28+00:00	2021-01-13T15:06:28-08:00	2021-01-13T23:36:55+00:00	2021-01-16T07:59:59+00:00	-3	z80kv9lxsywm0py@marketplace.amazon.com	Christopher Donato	+1 763-225-9463 ext. 55797	ABR0022	Delivery by Saturday, January 16 Dozen Pink Roses with a Free Vase by Arabella Bouquets	1	0	1	Expedited	Chris Donato	21 4TH AVE			LAVALLETTE	NJ	08735-3429	US			false		
111-0685596-5858663	36695610214714	2021-01-13T23:13:34+00:00	2021-01-13T15:13:34-08:00	2021-01-13T23:42:04+00:00	2021-01-16T07:59:59+00:00	-3	3cwjsxtphlvxtqj@marketplace.amazon.com	Jamie	+1 602-671-6610 ext. 89708	ABR0022	Delivery by Saturday, January 16 Dozen Pink Roses with a Free Vase by Arabella Bouquets	1	0	1	Expedited	Cathy Maitland	23158 US ROUTE 11			WATERTOWN	NY	13601-5127	US			false		
111-6507156-1447431	25542111438402	2021-01-13T23:17:44+00:00	2021-01-13T15:17:44-08:00	2021-01-13T23:42:07+00:00	2021-01-16T07:59:59+00:00	-3	69szgvc16qf8bsv@marketplace.amazon.com	Grace L. Acena	+1 213-442-1463 ext. 42646	ABR0022	Delivery by Saturday, January 16 Dozen Pink Roses with a Free Vase by Arabella Bouquets	1	0	1	Expedited	Joong Nyeo Lee	540 N. Brea Blvd.	15		Brea	Ca	92821	US		Happy birthday mom. We love you! From Jason, Grace, Ted, Shasta	false		
114-1391124-6736244	16317423539634	2021-01-13T23:25:40+00:00	2021-01-13T15:25:40-08:00	2021-01-13T23:46:18+00:00	2021-01-16T07:59:59+00:00	-3	1c7j4fhv82sjc2m@marketplace.amazon.com	Linda Franzen	+1 346-307-9643 ext. 62660	ABM024	Delivery by Monday, January 18 Beauty of Color Bouquet by Arabella Bouquets	1	0	1	Expedited	Allan Mattson	PROVIDENCE SACRED HEART MEDICAL CENTER	101 W 8TH AVE RM 651		SPOKANE	WA	99204-2307	US		Hoping you get well soon. Love you. Lindy,Roger and Rog From Linda Franzen	false		
111-2407986-0944222	45551699149602	2021-01-13T23:18:05+00:00	2021-01-13T15:18:05-08:00	2021-01-13T23:47:13+00:00	2021-01-16T07:59:59+00:00	-3	3cwjsxtphlvxtqj@marketplace.amazon.com	Jamie	+1 763-225-9463 ext. 14754	ABM020	Delivery by Saturday, January 16 Sunset Bouquet by Arabella Bouquets	1	0	1	Expedited	Candy Lawler	202 EDMUND ST EXT			SACKETS HARBOR	NY	13685-2702	US			false		
112-9669321-9289035	46428393817506	2021-01-13T23:17:14+00:00	2021-01-13T15:17:14-08:00	2021-01-13T23:47:14+00:00	2021-01-16T07:59:59+00:00	-3	8bgzlf7zzqlw2w9@marketplace.amazon.com	Tina Allocco	+1 602-671-6610 ext. 54751	ABM026	Delivery by Monday, January 18 Amour Bouquet by Arabella Bouquets	1	0	1	Expedited	Claudia Allocco	724 HOWARD RD			RIDGEWOOD	NJ	07450-2004	US		Hope you feel better soon! From Clea, Chris, and Maria Hoppas	false		
114-7081624-0183448	13735992882770	2021-01-13T23:19:06+00:00	2021-01-13T15:19:06-08:00	2021-01-13T23:47:22+00:00	2021-01-16T07:59:59+00:00	-3	g0zy9hlj8vl8mrq@marketplace.amazon.com	Kenneth E Kohler	+1 763-225-9463 ext. 22973	ABR0033	Delivery by Saturday, January 16 Dozen Orange Roses in a Free Vase by Arabella Bouquets	1	0	1	Expedited	Judy Chang	6132 RUTHLAND RD			OAKLAND	CA	94611-1860	US		Hi Judy!   You are doing great!! From Cindy, Mother, Jiheui, Ken, and Pop	false		
111-4908228-2009803	70312802376434	2021-01-13T23:19:43+00:00	2021-01-13T15:19:43-08:00	2021-01-13T23:49:10+00:00	2021-01-16T07:59:59+00:00	-3	8f96thn2nbk5xs1@marketplace.amazon.com	Kim Burke	+1 415-851-9136 ext. 07587	ABM020	Delivery by Saturday, January 16 Sunset Bouquet by Arabella Bouquets	1	0	1	Expedited	Jennifer Davidson	10211 LAUREL RIDGE LN			CULPEPER	VA	22701-8005	US		We love your family so very much. May God ease the grief you’re feeling. -Your Life Group From Kim Burke	false		
113-3453207-1416221	45743647981450	2021-01-13T22:19:12+00:00	2021-01-13T14:19:12-08:00	2021-01-13T23:50:40+00:00	2021-01-16T07:59:59+00:00	-3	f606ktgr80m7nvh@marketplace.amazon.com	Carol A Caruso	+1 602-671-6610 ext. 19220	ABM0033	Delivery by Monday, January 18 White Hydrangea 5 Stems with a Free Glass Vase by Arabella Bouquets	1	0	1	Expedited	Paul &Sue Gauthier	2853 SAINT BARTS SQ			VERO BEACH	FL	32967-7583	US			false		
112-5253688-6465832	12248605427018	2021-01-13T22:27:03+00:00	2021-01-13T14:27:03-08:00	2021-01-13T23:52:03+00:00	2021-01-16T07:59:59+00:00	-3	hnzkd2pd2pp9fld@marketplace.amazon.com	Bruce Thompson	+1 213-442-1463 ext. 74693	ABM020	Delivery by Saturday, January 16 Sunset Bouquet by Arabella Bouquets	1	0	1	Expedited	Nikki Smith	6907 PENN AVE			PITTSBURGH	PA	15208-2405	US		Glad that you are doing Better! From Bruce Thompson	false		
111-3678786-3902630	29391269967978	2021-01-13T23:29:23+00:00	2021-01-13T15:29:23-08:00	2021-01-13T23:55:34+00:00	2021-01-16T07:59:59+00:00	-3	6h9qmt8mw628y1q@marketplace.amazon.com	R J RUTHERFORD	+1 602-671-6610 ext. 08569	ABM022	Delivery by Saturday, January 16 Purple Extravagance Bouquet by Arabella Bouquets	1	0	1	Expedited	Arabella Gonzalez	4180 NEW MOON CIR			SANTA FE	NM	87507-2577	US		Happy Birthday.  Love Tom, Sam & Bob From R J RUTHERFORD	false		
113-1343967-8769800	03835530567986	2021-01-13T23:28:46+00:00	2021-01-13T15:28:46-08:00	2021-01-13T23:57:24+00:00	2021-01-16T07:59:59+00:00	-3	2g7nqqh79x329ls@marketplace.amazon.com	Craig Carter	+1 619-854-2705 ext. 33324	ABR001	Delivery by Friday, January 15 Dozen Red Roses in a Free Vase by Arabella Bouquets	1	0	1	Standard	Tamia Carter	120 COOPER CT			CLOVIS	NM	88101-4500	US			false		
114-5361070-7481849	23533703022306	2021-01-13T23:30:35+00:00	2021-01-13T15:30:35-08:00	2021-01-13T23:58:27+00:00	2021-01-16T07:59:59+00:00	-3	xhjf30txrqkc34y@marketplace.amazon.com	linda odonnell	+1 213-442-1463 ext. 89965	ABM020	Delivery by Saturday, January 16 Sunset Bouquet by Arabella Bouquets	1	0	1	Expedited	Joyce Reed	4371 DINNER LAKE BLVD			LAKE WALES	FL	33859-2135	US		As you progress through year # 71 may you have good health, stay safe and know you are loved.  Happy, Happy Birthday! From Love, Linda & Paul	false		
112-6110300-9887466	23820940631786	2021-01-13T23:31:15+00:00	2021-01-13T15:31:15-08:00	2021-01-13T23:59:07+00:00	2021-01-16T07:59:59+00:00	-3	nrcvznp1svbmycw@marketplace.amazon.com	Mitch Fields	+1 602-671-6610 ext. 66597	ABM021	Delivery by Monday, January 18 Joyous Bouquet by Arabella Bouquets	1	0	1	Expedited	Camille Johnson	2200 W GOOD HOPE RD UNIT 220			GLENDALE	WI	53209-2763	US		Hope you get to feeling better soon  With all our love, From Emma, Mitch, Helena and Lucas	false		
113-0368648-6092275	25783472401258	2021-01-13T23:38:54+00:00	2021-01-13T15:38:54-08:00	2021-01-14T00:04:52+00:00	2021-01-16T07:59:59+00:00	-3	yjw5xyxmrv44bw1@marketplace.amazon.com	Vilma  Ortega	+1 619-854-2705 ext. 95239	ABR0022	Delivery by Saturday, January 16 Dozen Pink Roses with a Free Vase by Arabella Bouquets	1	0	1	Expedited	Yrma R Loja-Patino	2 WINDSOR TER APT 2C			WHITE PLAINS	NY	10601-3710	US		Happy Birthday My Beautiful Friend! Wishing you lots of health, love and laughter. Sending you many hugs, We miss you! From Vilma, Noah, Mama Vilma & Sal	false		
112-1276879-5389058	23232733108802	2021-01-13T23:35:24+00:00	2021-01-13T15:35:24-08:00	2021-01-14T00:04:56+00:00	2021-01-16T07:59:59+00:00	-3	5yw1ldxvqdd286x@marketplace.amazon.com	Brooke Garner	+1 415-851-9136 ext. 49661	ABM020	Delivery by Saturday, January 16 Sunset Bouquet by Arabella Bouquets	1	0	1	Expedited	Betty Winn	5250 VILLA VERDE DR APT B5			RENO	NV	89523-1554	US			false		
112-0167875-5245008	15642898529106	2021-01-13T23:39:15+00:00	2021-01-13T15:39:15-08:00	2021-01-14T00:05:46+00:00	2021-01-16T07:59:59+00:00	-3	k9jx9yrq1qjg5jr@marketplace.amazon.com	Emily Fox	+1 415-851-9136 ext. 64706	ABR0055	Delivery by Saturday, January 16 Dozen Hot Pink Roses in a Free Vase by Arabella Bouquets	1	0	1	Expedited	Elizabeth Birge	1200 LEGEND RUN			ALPHARETTA	GA	30005-2282	US		Enjoy your gift! From Emily Fox	false		
111-3473125-4431468	36741831622258	2021-01-13T23:41:18+00:00	2021-01-13T15:41:18-08:00	2021-01-14T00:10:28+00:00	2021-01-16T07:59:59+00:00	-3	4sy219w0qrkzryb@marketplace.amazon.com	Octaveya	+1 619-854-2705 ext. 51483	ABM010	Delivery by Saturday, January 16 Everlasting Fling with a Free Glass Vase by Arabella Bouquets	1	0	1	Expedited	Val	427 W JOHNSTOWN RD			COLUMBUS	OH	43230-2735	US		Happy Birthday Val! Love you cousin and wishing you many more!! From Octaveya (oodi)	false		
111-1548333-5174643	39252734604058	2021-01-13T23:49:42+00:00	2021-01-13T15:49:42-08:00	2021-01-14T00:19:21+00:00	2021-01-16T07:59:59+00:00	-3	qcfsyprq8wm7vbw@marketplace.amazon.com	Kathryn L Morici	+1 213-442-1463 ext. 32977	ABR0022	Delivery by Saturday, January 16 Dozen Pink Roses with a Free Vase by Arabella Bouquets	1	0	1	Expedited	Marian Chambers	1752 LEXINGTON AVE			UNIONTOWN	PA	15401-8957	US		Happiest of Birthdays to you, Aunt Marian!!!! I love you, Kathy From Kathryn L Morici	false		
112-2397784-6214662	26436513566010	2021-01-13T23:49:21+00:00	2021-01-13T15:49:21-08:00	2021-01-14T00:19:51+00:00	2021-01-16T07:59:59+00:00	-3	s8yhg4s1s9tqlnc@marketplace.amazon.com	sarah scott davis	+1 415-851-9136 ext. 34057	ABR0022	Delivery by Saturday, January 16 Dozen Pink Roses with a Free Vase by Arabella Bouquets	1	0	1	Expedited	Pat Lent	10400 SE Cook Ct. #13			Milwaukie	OR	97222	US			false		
111-0538669-1126601	03616819969466	2021-01-13T23:54:14+00:00	2021-01-13T15:54:14-08:00	2021-01-14T00:22:16+00:00	2021-01-16T07:59:59+00:00	-3	5v470lrf1jb4q2m@marketplace.amazon.com	Grace Moreno	+1 346-307-9643 ext. 95138	ABR0022	Delivery by Saturday, January 16 Dozen Pink Roses with a Free Vase by Arabella Bouquets	1	0	1	Expedited	Anabelle Amor	8542 FREYMAN DR			CHEVY CHASE	MD	20815-3840	US		Happy Birthday madam. Enjoy your day! We love you -grace and roj From Grace Moreno	false		
112-1778561-0674635	16074974620130	2021-01-14T00:20:42+00:00	2021-01-13T16:20:42-08:00	2021-01-14T00:26:05+00:00	2021-01-16T07:59:59+00:00	-3	kgbv63j1jqyvqc3@marketplace.amazon.com	Crystie Mongiat	+1 213-442-1463 ext. 25268	ABR0055	Delivery by Saturday, January 16 Dozen Hot Pink Roses in a Free Vase by Arabella Bouquets	1	0	1	Expedited	Eleanor Mongiat	16351 ROTUNDA DR			DEARBORN	MI	48120-1170	US			false		
112-7436550-1151445	02049580816994	2021-01-14T00:00:08+00:00	2021-01-13T16:00:08-08:00	2021-01-14T00:26:25+00:00	2021-01-16T07:59:59+00:00	-3	scn9yhgfx90z13b@marketplace.amazon.com	Judith Angle	+1 415-419-8616 ext. 29306	ABR0022	Delivery by Saturday, January 16 Dozen Pink Roses with a Free Vase by Arabella Bouquets	1	0	1	Expedited	Mary Ann Angle	1305 PRIMROSE TRL			MT JULIET	TN	37122-5022	US		Happy birthday, Mary Ann!  Love Larry and Judy From Judith Angle	false		
113-6701346-1173055	59020996579906	2021-01-14T00:01:37+00:00	2021-01-13T16:01:37-08:00	2021-01-14T00:26:54+00:00	2021-01-16T07:59:59+00:00	-3	73d89nh6x3c33t6@marketplace.amazon.com	Brie	+1 763-225-9463 ext. 87541	ABM026	Delivery by Monday, January 18 Amour Bouquet by Arabella Bouquets	1	0	1	Expedited	Nancy jones	1509 MALLARD PL			FRONT ROYAL	VA	22630-4714	US		Happy 50th Birthday Nancy! We will celebrate more when we can get together. Enjoy your day! You still don’t look a day over 25! Love ya xxx From Marg, Eddie, & Brie	false		
114-5700034-6888247	03523380912594	2021-01-14T00:08:22+00:00	2021-01-13T16:08:22-08:00	2021-01-14T00:29:19+00:00	2021-01-16T07:59:59+00:00	-3	fbhp4rxyj12tzhx@marketplace.amazon.com	BOB BORDEN	+1 415-851-9136 ext. 29331	ABM026	Delivery by Monday, January 18 Amour Bouquet by Arabella Bouquets	1	0	1	Expedited	mr and mrs andrew belcher	6060 CAMERONS FERRY DR			HAYMARKET	VA	20169-3332	US			false		
114-8769503-6317044	08711940003722	2021-01-14T00:11:50+00:00	2021-01-13T16:11:50-08:00	2021-01-14T00:36:16+00:00	2021-01-16T07:59:59+00:00	-3	zhkchk02hskcsyp@marketplace.amazon.com	Stacey Gillus	+1 213-442-1463 ext. 72702	ABB013	Delivery by Monday, January 18 FarmDirect 24 Fresh Cut White Roses in a Free Vase by Arabella Bouquets	1	0	1	Expedited	Wes and Petalina Haswell	3406 ELLINGTON DR			SACHSE	TX	75048-4113	US		Sending love and our deepest condolences... From Stacey and Shella Gillus	false		
112-9211925-2712220	55056176346034	2021-01-14T00:09:49+00:00	2021-01-13T16:09:49-08:00	2021-01-14T00:39:16+00:00	2021-01-16T07:59:59+00:00	-3	m9fq2mr1c69402d@marketplace.amazon.com	Susan D.Keeffe	+1 480-618-5344 ext. 61020	ABM010	Delivery by Saturday, January 16 Everlasting Fling with a Free Glass Vase by Arabella Bouquets	1	0	1	Expedited	Kathleen Keeffe Hough	326 CARLYN DR			SEVERNA PARK	MD	21146-2114	US		Dearest Kathy, Happy Birthday! Love, Mom and Darren From Susan D.Keeffe	false		
114-5160094-8943401	51055749001722	2021-01-14T00:10:31+00:00	2021-01-13T16:10:31-08:00	2021-01-14T00:41:13+00:00	2021-01-16T07:59:59+00:00	-3	8qzzbrql553c25v@marketplace.amazon.com	Virginia Chase Elder	+1 602-671-6610 ext. 43441	ABM020	Delivery by Saturday, January 16 Sunset Bouquet by Arabella Bouquets	1	0	1	Expedited	Wanza Brunson	2294  East COMMON	Apt 318		NEW BRAUNFELS	TEXAS	78130-3582	US			false		
111-8202569-2744200	52076716902434	2021-01-14T00:20:12+00:00	2021-01-13T16:20:12-08:00	2021-01-14T00:41:44+00:00	2021-01-16T07:59:59+00:00	-3	9c8fjlh59ck67yj@marketplace.amazon.com	Kathryn Bohenek	+1 763-225-9463 ext. 70485	ABM020	Delivery by Saturday, January 16 Sunset Bouquet by Arabella Bouquets	1	0	1	Expedited	Mary Beth Dvorak	4901 GRAND AVE			WESTERN SPRINGS	IL	60558-1742	US		Don and Mary Beth,  So sorry for your loss. Your Mom was a great women. Thinking about you. Love you From Kathryn Bohenek	false		
114-8596564-5242615	48965186261570	2021-01-14T00:16:40+00:00	2021-01-13T16:16:40-08:00	2021-01-14T00:47:01+00:00	2021-01-16T07:59:59+00:00	-3	kjwkvjjqft30tnx@marketplace.amazon.com	Erika J Myrill	+1 415-851-9136 ext. 14223	ABR0022	Delivery by Saturday, January 16 Dozen Pink Roses with a Free Vase by Arabella Bouquets	1	0	1	Expedited	Rita Mendez	8725 SW 175TH ST			PALMETTO BAY	FL	33157-5838	US			false		
