order-id	order-item-id	purchase-date	payments-date	reporting-date	promise-date	days-past-promise	buyer-email	buyer-name	buyer-phone-number	sku	product-name	quantity-purchased	quantity-shipped	quantity-to-ship	ship-service-level	recipient-name	ship-address-1	ship-address-2	ship-address-3	ship-city	ship-state	ship-postal-code	ship-country	gift-wrap-type	gift-message-text	is-business-order	purchase-order-number	price-designation
114-5210226-7722666	27330855781874	2021-01-14T13:47:08+00:00	2021-01-14T05:47:08-08:00	2021-01-14T14:10:49+00:00	2021-01-20T07:59:59+00:00	-4	djhlhxt5qznxq74@marketplace.amazon.com	Andy Marshall	07593022372	ABR012	Delivery by Monday, January 18 FarmDirect 18 Pink Roses in a Free Vase by Arabella Bouquets	1	0	1	Standard	Sarah J marshall	142 PAVILION ST			SUMMERVILLE	SC	29483-8444	US		Sarah xxx Happy January 23rd xxx Best Day of My Life xxx Love you to the moon and back xxx You are my AlwayS and AlwayS Forever xxxxxx From Love Andy xxxxxx	false		
111-1857798-7221055	55667200820378	2021-01-14T20:07:29+00:00	2021-01-14T12:07:29-08:00	2021-01-14T20:29:31+00:00	2021-01-20T07:59:59+00:00	-4	4vfq3j9b1l91n8p@marketplace.amazon.com	Lydia P	+1 415-419-8616 ext. 10984	ABM022	Delivery by Saturday, January 16 Purple Extravagance Bouquet by Arabella Bouquets	1	0	1	Expedited	Anna and Tommy Sullivan	704 MILLPIKE CT			CHESAPEAKE	VA	23322-7280	US		No matter of sentiments or gifts can express how grateful I am for you both - you are truly angels! It eases my mind greatly to know that you are looking out for my parents and I know they appreciate you so much!! Thank you! From Lydia Powers	false		
113-0769982-2925863	64501744140362	2021-01-14T20:15:07+00:00	2021-01-14T12:15:07-08:00	2021-01-14T20:33:30+00:00	2021-01-20T07:59:59+00:00	-4	c1f17tqkc6l3vkr@marketplace.amazon.com	yusoon kwon	+1 619-854-2705 ext. 89820	ABR0066	Delivery by Saturday, January 16 Dozen White Roses in a Free Vase by Arabella Bouquets	1	0	1	Expedited	Judy Kwon	1742 ANNIN ST			PHILADELPHIA	PA	19146-3008	US		Judy we will miss your mom! From soonie.	false		
112-7592219-6384207	14517350869402	2021-01-14T21:56:38+00:00	2021-01-14T13:56:38-08:00	2021-01-14T22:21:32+00:00	2021-01-20T07:59:59+00:00	-4	6p3psj2r4f6m324@marketplace.amazon.com	Walter H. Ellenberger	+1 480-618-5344 ext. 43672	ABR0022	Delivery by Saturday, January 16 Dozen Pink Roses with a Free Vase by Arabella Bouquets	1	0	1	Expedited	Susan Lasko	221 S FAYETTE ST			ALEXANDRIA	VA	22314-3519	US			false		
114-4491533-7511452	61119631727162	2021-01-14T22:45:40+00:00	2021-01-14T14:45:40-08:00	2021-01-14T23:14:56+00:00	2021-01-20T07:59:59+00:00	-4	6tqtdl7swbw2wgw@marketplace.amazon.com	TOJONIRINA RAMAROLAHY	+1 213-442-1463 ext. 55993	ABR001	Delivery by Friday, January 15th Dozen Red Roses in a Free Vase by Arabella Bouquets	1	0	1	Expedited	NIRINIAVISOA Marceda	AVALON BAY POTOMAC YARD	731 SEATON AVE UNIT 508		ALEXANDRIA	VA	22305-3070	US			false		
112-6572498-5336260	20763430044098	2021-01-14T23:04:29+00:00	2021-01-14T15:04:29-08:00	2021-01-14T23:33:37+00:00	2021-01-20T07:59:59+00:00	-4	3h1myqs74qpcg4s@marketplace.amazon.com	Margaret Suit	+1 213-442-1463 ext. 21167	ABR0055	Delivery by Saturday, January 16 Dozen Hot Pink Roses in a Free Vase by Arabella Bouquets	1	0	1	Expedited	Katherine Bittner	308 BOUNDING HOME CT			HAVRE DE GRACE	MD	21078-2863	US			false		
113-1794951-0815428	04802671895618	2021-01-14T23:45:46+00:00	2021-01-14T15:45:46-08:00	2021-01-15T00:15:40+00:00	2021-01-20T07:59:59+00:00	-4	d3x4g9kfg76t4x1@marketplace.amazon.com	Chris	+1 415-851-9136 ext. 22676	ABR0022	Delivery by Saturday, January 16 Dozen Pink Roses with a Free Vase by Arabella Bouquets	1	0	1	Expedited	Chris Galione	2615 NEW CONCORDE CT			HERNDON	VA	20171-2669	US			false		
114-2114002-7498632	49648558427802	2021-01-15T00:06:56+00:00	2021-01-14T16:06:56-08:00	2021-01-15T00:33:22+00:00	2021-01-20T07:59:59+00:00	-4	8p0sfsgx9zdyc7f@marketplace.amazon.com	Lisa Bergstrom	+1 763-225-9463 ext. 41386	ABR0033	Delivery by Saturday, January 16 Dozen Orange Roses in a Free Vase by Arabella Bouquets	1	0	1	Expedited	Adrienne Birge-Wilson	906 N 25TH ST			RICHMOND	VA	23223-6563	US		If we could hug you in person we would - sending lots of love and healing to you! xoxo Lisa and Beth From Lisa Bergstrom	false		
111-5697205-4833869	06352012816034	2021-01-15T01:35:06+00:00	2021-01-14T17:35:06-08:00	2021-01-15T02:05:32+00:00	2021-01-20T07:59:59+00:00	-4	tyslc84w7zlttf0@marketplace.amazon.com	Anna C. Roosevelt	+1 213-442-1463 ext. 26946	ABM022	Delivery by Saturday, January 16 Purple Extravagance Bouquet by Arabella Bouquets	1	0	1	Expedited	Alexandra Roosevelt Dworkin	103 GOODALE RD			BALTIMORE	MD	21212-3330	US			false		
113-9076552-1112259	57033337345170	2021-01-15T03:06:07+00:00	2021-01-14T19:06:07-08:00	2021-01-15T03:27:30+00:00	2021-01-20T07:59:59+00:00	-4	tq6q4mm8nh3kv9h@marketplace.amazon.com	kristy zickefoose	+1 415-419-8616 ext. 18240	ABR0066	Delivery by Saturday, January 16 Dozen White Roses in a Free Vase by Arabella Bouquets	1	0	1	Expedited	Jean Daniel	2000 E HYCO RD			SOUTH BOSTON	VA	24592-6528	US		Sending lots of love and best of wishes for a special lady! Happy Birthday Granny! May the upcoming year be filled with many blessings. We love you! From kristy & Karina  zickefoose	false		
113-1772721-7126616	68842185642778	2021-01-15T04:00:59+00:00	2021-01-14T20:00:59-08:00	2021-01-15T04:29:58+00:00	2021-01-20T07:59:59+00:00	-4	734j5yk1vrrljfj@marketplace.amazon.com	Angela	+1 415-851-9136 ext. 08739	ABR0022	Delivery by Saturday, January 16 Dozen Pink Roses with a Free Vase by Arabella Bouquets	1	0	1	Expedited	Karen (GK) Bardwell for Memaw	811 LONG POINT RD			GRASONVILLE	MD	21638-1072	US		Happy 95th birthday, Memaw! We love you! From Todd, Angie, Kendall, Kellah, & Kerrianne	false		
113-6260846-4701047	27784799861450	2021-01-15T04:37:23+00:00	2021-01-14T20:37:23-08:00	2021-01-15T05:04:48+00:00	2021-01-20T07:59:59+00:00	-4	d615hx0jgbkcc4f@marketplace.amazon.com	karmareynolds	+1 619-854-2705 ext. 24030	ABR0022	Delivery by Saturday, January 16 Dozen Pink Roses with a Free Vase by Arabella Bouquets	1	0	1	Expedited	Charlotte White	268 N Dogwood trail			Southern Shores	NC	27949	US		Happy Birthday!!!! We love you, hope your day is full of magic! From Karma, Kennis, Abby & Jacob	false		
114-0046351-2999467	42904419701442	2021-01-15T07:34:04+00:00	2021-01-14T23:34:04-08:00	2021-01-15T07:59:06+00:00	2021-01-20T07:59:59+00:00	-4	txkx967gfzssy48@marketplace.amazon.com	Ronald Mark Boronkay	+1 619-854-2705 ext. 49078	ABR0022	Delivery by Saturday, January 16 Dozen Pink Roses with a Free Vase by Arabella Bouquets	1	0	1	Expedited	Rosemary Thomas	202 SENECA WAY			HAVRE DE GRACE	MD	21078-2995	US		Hi Rosemary, I thought these flowers would help brighten your day as you recover from knee surgery! Love, Suzanh P.S. So excited to hear Michael and his wife are having another girl! You must be in heaven!! From Suzanh Boronkay	false		
113-4741657-8963469	05583189085738	2021-01-15T15:09:33+00:00	2021-01-15T07:09:33-08:00	2021-01-15T15:30:47+00:00	2021-01-21T07:59:59+00:00	-5	ft1p0rwh7f14mdq@marketplace.amazon.com	Cameric Wood	+1 415-419-8616 ext. 74597	ABR0033	Delivery by Saturday, January 16 Dozen Orange Roses in a Free Vase by Arabella Bouquets	1	0	1	Standard	Mikala Wood	11812 E JACKSON LN			SPOKANE VALLEY	WA	99206-6138	US		Enjoy your gift! From Cameric Wood	false		
112-8825479-3845857	52634799083610	2021-01-15T17:32:22+00:00	2021-01-15T09:32:22-08:00	2021-01-15T17:58:28+00:00	2021-01-21T07:59:59+00:00	-5	jm43xp6szpzydbl@marketplace.amazon.com	Marianne Hissong	+1 415-419-8616 ext. 10659	ABR0022	Delivery by Saturday, January 16 Dozen Pink Roses with a Free Vase by Arabella Bouquets	1	0	1	Expedited	Tori Lyn Van Berg	5711 MORRISON AVE			LOUISVILLE	KY	40214-1203	US		So sorry you are sick-sending lots of prayers & sunshine & happy thoughts. Love, Marianne From Marianne Hissong	false		
111-2114246-1525861	41913690525234	2021-01-15T18:07:11+00:00	2021-01-15T10:07:11-08:00	2021-01-15T18:36:08+00:00	2021-01-21T07:59:59+00:00	-5	pdgf9gl0p5yqhwm@marketplace.amazon.com	Stephenie Kandes	+1 602-671-6610 ext. 53159	ABR0066	Delivery by Saturday, January 16 Dozen White Roses in a Free Vase by Arabella Bouquets	1	0	1	Expedited	Susan L Kandes	37835 Cedar Drive			New Boston	Michigan	48164	US		Happy Anniversary! Your life and love for each other is a treasure. I couldn't have asked for better parents. Love you both so much! From Stephenie Kandes	false		
112-5906255-8701007	69592476471250	2021-01-15T18:12:32+00:00	2021-01-15T10:12:32-08:00	2021-01-15T18:41:41+00:00	2021-01-21T07:59:59+00:00	-5	xkqxp8cjf8c5hkb@marketplace.amazon.com	Mary Kreeger	+1 415-851-9136 ext. 62061	ABR0066	Delivery by Saturday, January 16 Dozen White Roses in a Free Vase by Arabella Bouquets	1	0	1	Expedited	Kate Kubik	1636 MEYERWOOD CIR			HIGHLANDS RANCH	CO	80129-1822	US		There aren't enough flowers to THANK YOU!!!! From Mom & Dennis	false		
113-8271199-0361062	43041650550810	2021-01-15T18:17:47+00:00	2021-01-15T10:17:47-08:00	2021-01-15T18:42:36+00:00	2021-01-21T07:59:59+00:00	-5	nggl1wnxxjldvfx@marketplace.amazon.com	mary-Alicia McRae	+1 415-419-8616 ext. 95264	ABR0055	Delivery by Saturday, January 16 Dozen Hot Pink Roses in a Free Vase by Arabella Bouquets	1	0	1	Expedited	Marion Joseph	4 POLITZER DR			MENLO PARK	CA	94025-5542	US		Much love! We miss seeing you!  Doug and Mary Alicia From Mary-Alicia McRae	false		
114-1447875-8079439	37045087250530	2021-01-15T18:27:45+00:00	2021-01-15T10:27:45-08:00	2021-01-15T18:56:04+00:00	2021-01-21T07:59:59+00:00	-5	fmg8m4tlj3r8389@marketplace.amazon.com	Rosemary K Sullivan	+1 346-307-9643 ext. 98320	ABR0022	Delivery by Tuesday, January 19 Dozen Pink Roses with a Free Vase by Arabella Bouquets	1	0	1	Expedited	Debbie Kelly	801 YALE AVE APT 807			SWARTHMORE	PA	19081-1822	US		Dear Aunt Debbie, Thank you so much for always making sure that I have the coolest clothes around. You're the sweetest! Love, PJ From Rosemary K Sullivan	false		
112-0776205-2729826	70038955296466	2021-01-15T18:31:13+00:00	2021-01-15T10:31:13-08:00	2021-01-15T18:59:02+00:00	2021-01-21T07:59:59+00:00	-5	tx3krg0mnmggsv7@marketplace.amazon.com	philip berry	+1 415-419-8616 ext. 98823	ABR0033	Delivery by Tuesday, January 19 Dozen Orange Roses in a Free Vase by Arabella Bouquets	1	0	1	Expedited	Shelly Garcia	THE WAVERLY AT SOUTH BEACH CONDOMINIUMS	1330 WEST AVE APT 912		MIAMI BEACH	FL	33139-0904	US		You bring me sunshine when skies are grey! Love you, Philip From philip berry	false		
111-3227173-3545801	47317563565338	2021-01-15T18:33:09+00:00	2021-01-15T10:33:09-08:00	2021-01-15T19:01:14+00:00	2021-01-21T07:59:59+00:00	-5	8npgll1wrv2tgqj@marketplace.amazon.com	HECTOR SOLERO	+1 763-225-9463 ext. 15534	ABR0022	Delivery by Tuesday, January 19 Dozen Pink Roses with a Free Vase by Arabella Bouquets	1	0	1	Expedited	Krissy Coe	4500 MARTIN WAY E SPC 108			OLYMPIA	WA	98516-6320	US			false		
113-9695727-3638635	05483232193034	2021-01-15T18:31:48+00:00	2021-01-15T10:31:48-08:00	2021-01-15T19:01:58+00:00	2021-01-21T07:59:59+00:00	-5	0840b4mz4qtjw8p@marketplace.amazon.com	Charles Taylor	+1 415-419-8616 ext. 36559	ABM010	Delivery by Tuesday, January 19 Everlasting Fling with a Free Glass Vase by Arabella Bouquets	1	0	1	Expedited	Charles Taylor	14734 Harmony Estates Road			Nevada city	California	95959	US			false		
111-7418417-0937834	12816203844482	2021-01-15T18:33:08+00:00	2021-01-15T10:33:08-08:00	2021-01-15T19:03:38+00:00	2021-01-21T07:59:59+00:00	-5	5wgw79xp3b6cv34@marketplace.amazon.com	christina r. mumaugh	+1 763-225-9463 ext. 78925	ABR001	Delivery by Tuesday, January 19 Dozen Red Roses in a Free Vase by Arabella Bouquets	1	0	1	Expedited	Tanya Harris	10537 E CAROL AVE			MESA	AZ	85208-7430	US			false		
111-4662651-8024223	61432434774162	2021-01-15T18:35:59+00:00	2021-01-15T10:35:59-08:00	2021-01-15T19:04:05+00:00	2021-01-21T07:59:59+00:00	-5	sqn02c0qgryykfd@marketplace.amazon.com	Evan Bell	+1 213-442-1463 ext. 39863	ABR0033	Delivery by Tuesday, January 19 Dozen Orange Roses in a Free Vase by Arabella Bouquets	1	0	1	Expedited	emily Natani	24 GARDEN OVAL			SPRINGFIELD	NJ	07081-1804	US		Emily, Feel better!! Just thought this will make you smile. Love, From Kerry &Rita	false		
114-1073935-0005021	57939064457570	2021-01-15T18:38:35+00:00	2021-01-15T10:38:35-08:00	2021-01-15T19:05:55+00:00	2021-01-21T07:59:59+00:00	-5	sgstyf6wl22yw75@marketplace.amazon.com	Angela Tidwell	+1 346-307-9643 ext. 79758	ABM022	Delivery by Tuesday, January 19 Purple Extravagance Bouquet by Arabella Bouquets	1	0	1	Expedited	Lori Gage	403 N TRINITY ST			DECATUR	TEXAS	76234-1443	US		Happy birthday! You are such a wonderful, beautiful person. I hope your birthday is an awesome one. I love you! From Angela Tidwell	false		
113-3671139-9521048	61739528202634	2021-01-15T18:42:41+00:00	2021-01-15T10:42:41-08:00	2021-01-15T19:10:25+00:00	2021-01-21T07:59:59+00:00	-5	6sdq6f7cgh7qp67@marketplace.amazon.com	Kim Ismail	+1 415-851-9136 ext. 44778	ABR0033	Delivery by Tuesday, January 19 Dozen Orange Roses in a Free Vase by Arabella Bouquets	1	0	1	Expedited	Mrs. Terra Hassan	595 MCKINLEY CIR			CANTON	MI	48188-6682	US			false		
114-1892631-9657853	40611710582546	2021-01-15T18:45:00+00:00	2021-01-15T10:45:00-08:00	2021-01-15T19:10:26+00:00	2021-01-21T07:59:59+00:00	-5	xbx3jk87wxgmy5x@marketplace.amazon.com	Jean Guitho	+1 602-671-6610 ext. 48833	ABM020	Delivery by Tuesday, January 19 Sunset Bouquet by Arabella Bouquets	1	0	1	Expedited	Jean Guitho	6445 NW 2ND AVE APT 12			MIAMI	FL	33150-4555	US			false		
112-2718393-6164219	31988502574034	2021-01-15T18:41:55+00:00	2021-01-15T10:41:55-08:00	2021-01-15T19:12:18+00:00	2021-01-21T07:59:59+00:00	-5	7pd52rdrblp6wbt@marketplace.amazon.com	CARL ARCHINIACO	+1 415-851-9136 ext. 48314	ABR0022	Delivery by Tuesday, January 19 Dozen Pink Roses with a Free Vase by Arabella Bouquets	1	0	1	Expedited	Piage L Brown	41 POINTE TER SE			ATLANTA	GA	30339-5783	US			false		
114-6274055-0281031	23750813012562	2021-01-15T18:48:42+00:00	2021-01-15T10:48:42-08:00	2021-01-15T19:18:36+00:00	2021-01-21T07:59:59+00:00	-5	xbx3jk87wxgmy5x@marketplace.amazon.com	Jean Guitho	+1 346-307-9643 ext. 51073	ABM020	Delivery by Tuesday, January 19 Sunset Bouquet by Arabella Bouquets	1	0	1	Expedited	Jean Guitho	6445 NW 2ND AVE APT 18			MIAMI	FL	33150-4556	US			false		
111-1839619-1255463	68669700806354	2021-01-15T18:55:12+00:00	2021-01-15T10:55:12-08:00	2021-01-15T19:21:11+00:00	2021-01-21T07:59:59+00:00	-5	7lw2wkrynckwnbd@marketplace.amazon.com	Benita Amos	+1 415-419-8616 ext. 05381	ABR0022	Delivery by Tuesday, January 19 Dozen Pink Roses with a Free Vase by Arabella Bouquets	1	0	1	Expedited	Jewel Mom Amos	5210 OLD EDGAR RD			SOPHIA	NC	27350-9209	US		I love you Mom! Best GMA and Mom EVER! Thank you for being you because YOU are amazing! From Benita and Crew	false		
114-7582448-4931423	07188258108066	2021-01-15T18:55:40+00:00	2021-01-15T10:55:40-08:00	2021-01-15T19:25:22+00:00	2021-01-21T07:59:59+00:00	-5	fb0slcy6j3f7y8f@marketplace.amazon.com	wendy touhey	+1 415-851-9136 ext. 41923	ABR004	Delivery by Tuesday, January 19 Dozen Yellow Roses in a Free Vase by Arabella Bouquets	1	0	1	Expedited	Margee Monson	10059 N BIGHORN BUTTE DR			ORO VALLEY	AZ	85737-9298	US			false		
112-2394256-9233065	12345504273186	2021-01-15T18:56:31+00:00	2021-01-15T10:56:31-08:00	2021-01-15T19:26:25+00:00	2021-01-21T07:59:59+00:00	-5	7p1rgp2w4dn85d0@marketplace.amazon.com	Tukia Allen	+1 415-851-9136 ext. 41021	ABR0066	Delivery by Tuesday, January 19 Dozen White Roses in a Free Vase by Arabella Bouquets	1	0	1	Expedited	Cassie Cresta	2671 CAMILLE DR NE	BROOKHAVEN GA 30319		BROOKHAVEN	GA	30319-3239	US			false		
112-8101316-8669833	12388490588002	2021-01-15T19:16:14+00:00	2021-01-15T11:16:14-08:00	2021-01-15T19:26:33+00:00	2021-01-21T07:59:59+00:00	-5	748hnstmbl0dg40@marketplace.amazon.com	Karen Joyce	+1 415-419-8616 ext. 32081	ABR0033	Delivery by Tuesday, January 19 Dozen Orange Roses in a Free Vase by Arabella Bouquets	1	0	1	Expedited	Kathy McNeany	12 TURNER RUN			PLYMOUTH	MA	02360-8237	US		Hey Cuz HAPPY BIRTHDAY and We hope you enjoy your gift! From Karen Joyce, Alex Yatzook	false		
112-2235970-4658616	12165830806042	2021-01-15T19:03:02+00:00	2021-01-15T11:03:02-08:00	2021-01-15T19:29:06+00:00	2021-01-21T07:59:59+00:00	-5	xqtdsng998ppztc@marketplace.amazon.com	Larry Houston	+1 346-307-9643 ext. 25249	ABM020	Delivery by Tuesday, January 19 Sunset Bouquet by Arabella Bouquets	1	0	1	Expedited	Willa Alexander	105 E SAINT CATHERINE ST APT 3			LOUISVILLE	KY	40203-3721	US			false		
114-9660428-4054622	37819601817826	2021-01-15T18:59:05+00:00	2021-01-15T10:59:05-08:00	2021-01-15T19:29:27+00:00	2021-01-21T07:59:59+00:00	-5	j6yr982xqx4tlry@marketplace.amazon.com	deborah browne	+1 213-442-1463 ext. 36252	ABM010	Delivery by Tuesday, January 19 Everlasting Fling with a Free Glass Vase by Arabella Bouquets	1	0	1	Expedited	Lucy Ketley	12 CARRIE CT			PLEASANT HILL	CA	94523-4507	US			false		
114-0820465-4070647	19369133072362	2021-01-15T19:03:07+00:00	2021-01-15T11:03:07-08:00	2021-01-15T19:30:57+00:00	2021-01-21T07:59:59+00:00	-5	8tjpbcxyd6s9rlh@marketplace.amazon.com	Tammy Locke	+1 602-671-6610 ext. 33420	ABR0022	Delivery by Tuesday, January 19 Dozen Pink Roses with a Free Vase by Arabella Bouquets	1	0	1	Standard	Peggy Wright	4421 W HENRY ST			PASCO	WA	99301-2813	US		Happy Birthday Rick, Tammy, Alex and William From Rick Locke	false		
113-7319308-8651417	40371637654914	2021-01-15T19:05:46+00:00	2021-01-15T11:05:46-08:00	2021-01-15T19:32:40+00:00	2021-01-21T07:59:59+00:00	-5	9vvb2y6nch22x33@marketplace.amazon.com	Muhammad F. Imam	+1 415-851-9136 ext. 04837	ABR0022	Delivery by Tuesday, January 19 Dozen Pink Roses with a Free Vase by Arabella Bouquets	1	0	1	Expedited	Sarah Khan	3840 LAKERIDGE CANYON DR			SUGAR LAND	TX	77498-7452	US		Is random and we love you!! From Maon	false		
113-1466581-4697850	10857073802106	2021-01-15T19:13:12+00:00	2021-01-15T11:13:12-08:00	2021-01-15T19:42:11+00:00	2021-01-21T07:59:59+00:00	-5	2bfpv5mrzff7vj1@marketplace.amazon.com	David Schmitt	+1 763-225-9463 ext. 77473	ABR0022	Delivery by Tuesday, January 19 Dozen Pink Roses with a Free Vase by Arabella Bouquets	1	0	1	Expedited	Mrs. Thomas J. Schmitt	11014 MARCLIFF RD			NORTH BETHESDA	MD	20852-3628	US		Happy Birthday Mom! Love From Dave	false		
113-4298293-4284248	56991725848914	2021-01-15T19:17:58+00:00	2021-01-15T11:17:58-08:00	2021-01-15T19:43:51+00:00	2021-01-21T07:59:59+00:00	-5	ly95ttjb2b6rnh3@marketplace.amazon.com	Oliver Jackson	+1 602-671-6610 ext. 03200	ABM022	Delivery by Tuesday, January 19 Purple Extravagance Bouquet by Arabella Bouquets	1	0	1	Expedited	Fonda Birgenheier	1331 EVANS ST			STERLING	CO	80751-2109	US		Mom, Wishing you a very Happy and Blessed Birthday.  Love you!  Oliver, Tammy, Lana, Scott, Becky, Greg, Owen and Liam	false		
114-8184463-2591452	07948758630074	2021-01-15T19:25:07+00:00	2021-01-15T11:25:07-08:00	2021-01-15T19:54:10+00:00	2021-01-21T07:59:59+00:00	-5	dhtptjytsynfr3j@marketplace.amazon.com	Kerri	+1 415-851-9136 ext. 63781	ABM010	Delivery by Tuesday, January 19 Everlasting Fling with a Free Glass Vase by Arabella Bouquets	1	0	1	Expedited	Renee Miller	4795 NW 14TH ST			COCONUT CREEK	FL	33063-3958	US		Happy Birthday!  Love you! From Kerri	false		
114-8091790-1771443	16024903547770	2021-01-15T19:31:46+00:00	2021-01-15T11:31:46-08:00	2021-01-15T19:54:46+00:00	2021-01-21T07:59:59+00:00	-5	0dcpncthkk9znl8@marketplace.amazon.com	Bill Reddick	+1 415-419-8616 ext. 45090	ABR001	Delivery by Tuesday, January 19 Dozen Red Roses in a Free Vase by Arabella Bouquets	1	0	1	Expedited	William Reddick	7 Girard St NE			Washington	DC	20002	US			false		
114-1075675-3381828	68805775202042	2021-01-15T20:05:24+00:00	2021-01-15T12:05:24-08:00	2021-01-15T20:13:54+00:00	2021-01-21T07:59:59+00:00	-5	fjq8yqv57nqlrcx@marketplace.amazon.com	Bonnie Esty	+1 763-225-9463 ext. 45176	ABM020	Delivery by Tuesday, January 19 Sunset Bouquet by Arabella Bouquets	1	0	1	Expedited	April Noble	8 CALEB LN			LIMINGTON	ME	04049-3159	US		April,  Our team just wanted to send something to brighten your day! We really appreciate all you are doing to lead us through these trying times. From The Title Team	false		
113-2652858-2298603	56719625292738	2021-01-15T19:47:23+00:00	2021-01-15T11:47:23-08:00	2021-01-15T20:17:18+00:00	2021-01-21T07:59:59+00:00	-5	0ck37cfd27rn431@marketplace.amazon.com	Tomas McCandless	+1 602-671-6610 ext. 68543	ABR012	Delivery by Tuesday, January 19 FarmDirect 18 Pink Roses in a Free Vase by Arabella Bouquets	1	0	1	Expedited	Betty Situ	4080 VIA MARISOL APT 133			LOS ANGELES	CA	90042-5158	US		i love you From Tomas McCandless	false		
111-9987148-6953059	41448521354378	2021-01-15T19:53:47+00:00	2021-01-15T11:53:47-08:00	2021-01-15T20:18:12+00:00	2021-01-21T07:59:59+00:00	-5	cz7r9t1ztj5nmz2@marketplace.amazon.com	Mindy Blaski	+1 763-225-9463 ext. 29293	ABC001	Delivery by Tuesday, January 19 Seasons Greetings Bouquet by Arabella Bouquets	1	0	1	Expedited	Eleanor Blachowski	2987 SENECA ST			BUFFALO	NY	14224-2648	US			false		
113-4123827-8501825	38273684041354	2021-01-15T20:01:36+00:00	2021-01-15T12:01:36-08:00	2021-01-15T20:23:27+00:00	2021-01-21T07:59:59+00:00	-5	xjnd8lg4d1t1jtx@marketplace.amazon.com	lalmba78	+1 415-851-9136 ext. 31451	ABR0066	Delivery by Tuesday, January 19 Dozen White Roses in a Free Vase by Arabella Bouquets	1	0	1	Expedited	lalmba78	1258 KEYS LAKE DR NE			BROOKHAVEN	GA	30319-4164	US		Enjoy your gift! We are so happy and so proud   love you  ❤️ Keren , Keleb, Sila,Yafet  Goitom ,senayt From lalmba78	false		
113-4988617-1208236	28859031965818	2021-01-15T20:01:25+00:00	2021-01-15T12:01:25-08:00	2021-01-15T20:28:33+00:00	2021-01-21T07:59:59+00:00	-5	m2477f8knb9r76z@marketplace.amazon.com	arunkumar	+1 619-854-2705 ext. 85611	ABM010	Delivery by Tuesday, January 19 Everlasting Fling with a Free Glass Vase by Arabella Bouquets	1	0	1	Expedited	Candy Yung	30708 DULCET TER			UNION CITY	CA	94587-2650	US		Happy Birthday 💐🥂 From arunkumar	false		
112-7036739-3957835	64062552659602	2021-01-15T20:06:03+00:00	2021-01-15T12:06:03-08:00	2021-01-15T20:36:15+00:00	2021-01-21T07:59:59+00:00	-5	qwqsygjfbycst6g@marketplace.amazon.com	Luke Snyder	+1 213-442-1463 ext. 47093	ABR0022	Delivery by Tuesday, January 19 Dozen Pink Roses with a Free Vase by Arabella Bouquets	1	0	1	Expedited	Luke Snyder	5301 E 420 RD			OOLOGAH	OK	74053-3603	US			false		
112-5182293-1012218	07743740466090	2021-01-15T20:18:36+00:00	2021-01-15T12:18:36-08:00	2021-01-15T20:41:04+00:00	2021-01-21T07:59:59+00:00	-5	vcy8c78wfg5kffc@marketplace.amazon.com	Connie Jager	+1 763-225-9463 ext. 71424	ABM022	Delivery by Tuesday, January 19 Purple Extravagance Bouquet by Arabella Bouquets	1	0	1	Expedited	Eunice Loyer	5778 E BROADWAY AVE			APACHE JUNCTION	AZ	85119-9352	US		I'm so sorry about Leroy.  I love you and am praying for you.  Love, Connie From Connie Jager	false		
111-0417039-6047430	38544931169714	2021-01-15T20:14:45+00:00	2021-01-15T12:14:45-08:00	2021-01-15T20:41:31+00:00	2021-01-21T07:59:59+00:00	-5	9qy9t207cz88fgw@marketplace.amazon.com	Francine	+1 213-442-1463 ext. 75490	ABM025	Delivery by Tuesday, January 19 Fell for You Bouquet by Arabella Bouquets	1	0	1	Standard	Walter & Brenda Straus	5730 GENE SARAZEN DR			BRASELTON	GA	30517-4060	US		Happy Anniversary!! Another year of happily ever after and our hopes for you to have more love in the coming years. Hebrews 10:24 From Love, Francine and Don	false		
112-4475535-7702602	31981922177386	2021-01-15T20:29:27+00:00	2021-01-15T12:29:27-08:00	2021-01-15T20:57:14+00:00	2021-01-21T07:59:59+00:00	-5	nbhffxt6yt3zzpt@marketplace.amazon.com	QualiTest Group	+1 213-442-1463 ext. 30145	ABM010	Delivery by Tuesday, January 19 Everlasting Fling with a Free Glass Vase by Arabella Bouquets	1	0	1	Expedited	Grace Williamson	2968 LANING RD			SAN DIEGO	CA	92106-6434	US		"We're thinking of you! Wishing you a speedy recovery and looking forward to your return. From Your Fave Team: Einav, Vanessa, Darina, Clarissa, Maggie and Elom	false		
113-6207200-5535457	28158536555610	2021-01-15T20:41:40+00:00	2021-01-15T12:41:40-08:00	2021-01-15T20:59:43+00:00	2021-01-21T07:59:59+00:00	-5	56kdk2pwz5yjq9y@marketplace.amazon.com	krystle singletary	+1 346-307-9643 ext. 46774	ABR0022	Delivery by Tuesday, January 19 Dozen Pink Roses with a Free Vase by Arabella Bouquets	1	0	1	Expedited	Shania Griffin	1544 E 65TH PL UNIT 3			CHICAGO	IL	60637-6459	US		Thank you for being a friend Traveled down a road and back again Your heart is true, you're a pal and a confidant. From Krystle	false		
113-2955247-1015448	56055888221554	2021-01-15T20:34:21+00:00	2021-01-15T12:34:21-08:00	2021-01-15T21:03:35+00:00	2021-01-21T07:59:59+00:00	-5	5rl7knlqfv3g3pl@marketplace.amazon.com	Amanda H Kaldenbaugh	+1 415-419-8616 ext. 55417	ABR0022	Delivery by Tuesday, January 19 Dozen Pink Roses with a Free Vase by Arabella Bouquets	1	0	1	Expedited	Martha Kaldenbaugh	1156 S MCCRACKEN LN			CAMP VERDE	AZ	86322-7130	US		Martha We love you! Happy Birthday! Can't wait to celebrate in person one day soon! Much love - The West Coast K's From Jake, Amanda, Will, Katie, Gavin and Lola	false		
111-3311826-0340268	44843034445882	2021-01-15T20:46:12+00:00	2021-01-15T12:46:12-08:00	2021-01-15T21:15:47+00:00	2021-01-21T07:59:59+00:00	-5	krzfvdb6cs6kf37@marketplace.amazon.com	michael maine	+1 602-671-6610 ext. 84254	ABR0022	Delivery by Tuesday, January 19 Dozen Pink Roses with a Free Vase by Arabella Bouquets	1	0	1	Expedited	CRYSTAL V MAINE	10105 23RD AVE W			EVERETT	WA	98204-3642	US			false		
114-6180704-5037007	03150199494410	2021-01-15T21:09:49+00:00	2021-01-15T13:09:49-08:00	2021-01-15T21:38:04+00:00	2021-01-21T07:59:59+00:00	-5	0mjwn4wbkmnbdbh@marketplace.amazon.com	Linda LoGallo	+1 346-307-9643 ext. 39397	ABM021	Delivery by Tuesday, January 19 Joyous Bouquet by Arabella Bouquets	1	0	1	Expedited	Sarah Lauer	6010 CRESTON AVE UNIT 5			DES MOINES	IA	50321-1257	US		Sarah, Enjoy your gift! Follow doctor's orders.  From all the LoGallo's From Linda LoGallo	false		
114-3403887-8370605	02278792149010	2021-01-15T21:08:49+00:00	2021-01-15T13:08:49-08:00	2021-01-15T21:38:39+00:00	2021-01-21T07:59:59+00:00	-5	rlhb4322td2gxcp@marketplace.amazon.com	Mandy McGowan	+1 415-419-8616 ext. 30865	ABR012	Delivery by Tuesday, January 19 FarmDirect 18 Pink Roses in a Free Vase by Arabella Bouquets	1	0	1	Expedited	Sharon Baird	937 SE SHERIDAN RD APT F104			SHERIDAN	OR	97378-1980	US		Mom, Happy Birthday! I love you so much.   Love, Mandy From Mandy McGowan	false		
112-7753543-7077041	09722262679362	2021-01-15T21:16:12+00:00	2021-01-15T13:16:12-08:00	2021-01-15T21:45:11+00:00	2021-01-21T07:59:59+00:00	-5	z2ddkmsgyvyqs9w@marketplace.amazon.com	Alfred	+1 213-442-1463 ext. 04426	ABR0055	Delivery by Tuesday, January 19 Dozen Hot Pink Roses in a Free Vase by Arabella Bouquets	1	0	1	Expedited	Emilie Anderson	16101 BOTHELL EVERETT HWY	UNIT E205		MILL CREEK	WA	98012-1207	US		I love you beyond words can explain. From Brad	false		
113-3805251-3667458	65859896720898	2021-01-15T21:22:00+00:00	2021-01-15T13:22:00-08:00	2021-01-15T21:50:27+00:00	2021-01-21T07:59:59+00:00	-5	gpplld05kvw9fy8@marketplace.amazon.com	edwin lefkovitz	+1 415-851-9136 ext. 78884	ABC002	Delivery by Tuesday, January 19 Warm Wishes Bouquet by Arabella Bouquets	1	0	1	Expedited	Danyelle Bechar	10258 GARDEN STATE DR			LAS VEGAS	NV	89135-1124	US		Daniella happy 32 hope you have an amazing day and shower with friends and family From edwin lefkovitz	false		
114-8999908-0581834	07274216595810	2021-01-15T21:33:42+00:00	2021-01-15T13:33:42-08:00	2021-01-15T21:57:04+00:00	2021-01-21T07:59:59+00:00	-5	wf0wqx9vy7dk0nq@marketplace.amazon.com	Samantha Bennett	+1 480-618-5344 ext. 54985	ABM020	Delivery by Tuesday, January 19 Sunset Bouquet by Arabella Bouquets	1	0	1	Expedited	Barbara Jones	10301 STATE HIGHWAY 215 S			JENKINSVILLE	SC	29065-9752	US		Dearest Aunt Barbara Here’s to a speedy recovery Get well soon! From Sam & Nicky From Samantha Bennett	false		
113-5486630-7423439	20051878320330	2021-01-15T21:31:57+00:00	2021-01-15T13:31:57-08:00	2021-01-15T22:00:15+00:00	2021-01-21T07:59:59+00:00	-5	hsn3dltkf9dlns6@marketplace.amazon.com	Cheryl Fleming	+1 619-854-2705 ext. 59125	ABR0033	Delivery by Tuesday, January 19 Dozen Orange Roses in a Free Vase by Arabella Bouquets	1	0	1	Expedited	Lisa Landers	1667 PADDLEWHEEL DR			MARIETTA	GA	30062-3855	US		Happy Birthday Aunt Lisa!  💕 Love,  Hannah, Cheryl and Bruce  Enjoy your gift! From Cheryl Fleming	false		
114-6592200-4445004	40428543961562	2021-01-15T21:29:59+00:00	2021-01-15T13:29:59-08:00	2021-01-15T22:00:23+00:00	2021-01-21T07:59:59+00:00	-5	qg4fmvtbbcbn9gz@marketplace.amazon.com	John Abbott	+1 415-419-8616 ext. 76110	ABR0022	Delivery by Tuesday, January 19 Dozen Pink Roses with a Free Vase by Arabella Bouquets	1	0	1	Expedited	Carol Brock	2490 VASSAR DR			BOULDER	CO	80305-5729	US			false		
113-4252840-2361058	03941017388106	2021-01-15T21:32:44+00:00	2021-01-15T13:32:44-08:00	2021-01-15T22:02:31+00:00	2021-01-21T07:59:59+00:00	-5	p32rkrp75p96m8w@marketplace.amazon.com	Mona Norton	+1 213-442-1463 ext. 85483	ABR0022	Delivery by Tuesday, January 19 Dozen Pink Roses with a Free Vase by Arabella Bouquets	1	0	1	Expedited	Lee Espy	64 PACES WEST DR NW			ATLANTA	GA	30327-2740	US			false		
113-0481786-6962618	40826057188834	2021-01-15T21:39:13+00:00	2021-01-15T13:39:13-08:00	2021-01-15T22:07:35+00:00	2021-01-21T07:59:59+00:00	-5	6r4pskfj0p14hwl@marketplace.amazon.com	Angie	+1 602-671-6610 ext. 74860	ABC001	Delivery by Tuesday, January 19 Seasons Greetings Bouquet by Arabella Bouquets	1	0	1	Expedited	Ryan Smith	7173 RIVER BIRCH ST			TIPP CITY	OH	45371-2560	US		Our deepest sympathies From Your friends at Dayton Progress	false		
112-1311934-8447431	13846582848314	2021-01-15T21:42:32+00:00	2021-01-15T13:42:32-08:00	2021-01-15T22:10:12+00:00	2021-01-21T07:59:59+00:00	-5	00b1mml24vvc0hd@marketplace.amazon.com	John Henderson	+1 415-419-8616 ext. 81856	ABM022	Delivery by Tuesday, January 19 Purple Extravagance Bouquet by Arabella Bouquets	1	0	1	Expedited	Anneliese Henderson	14 GERALDINE DR			WELLESLEY	MA	02481-4945	US		Happy 94th Birthday! From The Hendersons	false		
113-2124848-9262666	43745207456522	2021-01-15T21:57:57+00:00	2021-01-15T13:57:57-08:00	2021-01-15T22:24:40+00:00	2021-01-21T07:59:59+00:00	-5	5k153m8w3kvfy9h@marketplace.amazon.com	Deborah Letteney	+1 213-442-1463 ext. 81100	ABR0022	Delivery by Tuesday, January 19 Dozen Pink Roses with a Free Vase by Arabella Bouquets	1	0	1	Expedited	Jackie Nieman	300 E 40TH ST APT 19B			NEW YORK	NY	10016-2012	US		Thank you for your generous stock transfer. We hope you are staying safe & healthy. We hope these roses will brighten your days. Love, From Debbie & John	false		
113-0151856-8728274	19887485796474	2021-01-15T21:59:36+00:00	2021-01-15T13:59:36-08:00	2021-01-15T22:26:17+00:00	2021-01-21T07:59:59+00:00	-5	js5sscxy52z3tgd@marketplace.amazon.com	Anupam	+1 213-442-1463 ext. 90562	ABR0066	Delivery by Tuesday, January 19 Dozen White Roses in a Free Vase by Arabella Bouquets	1	0	1	Expedited	Shital Desai	2006 CALLE ALEGRIA			FULLERTON	CA	92833-1720	US		Prayers for your loss.   With deepest sympathies. From Anu and Shekar	false		
113-1523902-7652204	32231505567466	2021-01-15T21:56:06+00:00	2021-01-15T13:56:06-08:00	2021-01-15T22:26:32+00:00	2021-01-21T07:59:59+00:00	-5	wdbjtrd09fq1ngq@marketplace.amazon.com	Maria Silva	+1 602-671-6610 ext. 82130	ABR0055	Delivery by Tuesday, January 19 Dozen Hot Pink Roses in a Free Vase by Arabella Bouquets	1	0	1	Expedited	Erin McCarty	8510 TIMBER CREEK TRL			STILLWATER	OK	74074-5060	US			false		
113-6945202-7582631	16064959704578	2021-01-15T22:04:04+00:00	2021-01-15T14:04:04-08:00	2021-01-15T22:28:28+00:00	2021-01-21T07:59:59+00:00	-5	t1dnrxw6zpxkw79@marketplace.amazon.com	Sexy Shane	+1 415-851-9136 ext. 44286	ABM025	Delivery by Tuesday, January 19 Fell for You Bouquet by Arabella Bouquets	1	0	1	Expedited	Rhea Foggie	1823 DARVILLE DR			HAMPTON	VA	23663-1914	US			false		
114-2824191-8653818	31673101986746	2021-01-15T22:03:10+00:00	2021-01-15T14:03:10-08:00	2021-01-15T22:30:16+00:00	2021-01-21T07:59:59+00:00	-5	k4v1sbd2ws4s1yp@marketplace.amazon.com	Alight Colleague Engagement	+1 415-419-8616 ext. 65544	ABM020	Delivery by Tuesday, January 19 Sunset Bouquet by Arabella Bouquets	1	0	1	Expedited	Hillary May	35 AVENIDA DESCANSO			OCEANSIDE	CA	92057-6034	US		Hillary, sending you a little cheer during this difficult week. Our thoughts are with you! From Alight Colleague Engagement	false		
111-2327477-3508239	01696115135482	2021-01-15T22:05:17+00:00	2021-01-15T14:05:17-08:00	2021-01-15T22:34:34+00:00	2021-01-21T07:59:59+00:00	-5	2jhnsxhgl65h317@marketplace.amazon.com	Robert Colletta	+1 415-419-8616 ext. 12979	ABR0022	Delivery by Tuesday, January 19 Dozen Pink Roses with a Free Vase by Arabella Bouquets	1	0	1	Expedited	Allison Smith	446 PLANTERS TRACE DR			CHARLESTON	SC	29412-8305	US		To the most beautiful, smartest, and amazing woman I know. I love you hunny! From Rob Colletta	false		
114-4450208-1301868	37289366475586	2021-01-15T22:08:24+00:00	2021-01-15T14:08:24-08:00	2021-01-15T22:35:25+00:00	2021-01-21T07:59:59+00:00	-5	dbmgk7sngzczztt@marketplace.amazon.com	Brenda N Fogle	+1 346-307-9643 ext. 26458	ABM026	Delivery by Tuesday, January 19 Amour Bouquet by Arabella Bouquets	1	0	1	Expedited	Diana Daniels-Maina	179 PEARSALL AVE			JERSEY CITY	NJ	07305-3804	US			false		
112-3176348-4122642	11005327631434	2021-01-15T22:05:17+00:00	2021-01-15T14:05:17-08:00	2021-01-15T22:35:39+00:00	2021-01-21T07:59:59+00:00	-5	y1s3x1n4xkpjzqm@marketplace.amazon.com	Amy Thatcher	+1 415-419-8616 ext. 08037	ABM022	Delivery by Tuesday, January 19 Purple Extravagance Bouquet by Arabella Bouquets	1	0	1	Expedited	Ruthie Bok	330 JULIA ST APT 322			NEW ORLEANS	LA	70130-3682	US			false		
113-5585800-2691424	54680320735050	2021-01-15T22:08:46+00:00	2021-01-15T14:08:46-08:00	2021-01-15T22:35:41+00:00	2021-01-21T07:59:59+00:00	-5	czjwcpbwr8x5kxf@marketplace.amazon.com	sherry baines	+1 415-419-8616 ext. 14066	ABM022	Delivery by Tuesday, January 19 Purple Extravagance Bouquet by Arabella Bouquets	1	0	1	Expedited	Andrea Baines	203 REDLAND BLVD			ROCKVILLE	MD	20850-5765	US			false		
114-2289805-2534634	22574725760162	2021-01-15T22:12:57+00:00	2021-01-15T14:12:57-08:00	2021-01-15T22:36:02+00:00	2021-01-21T07:59:59+00:00	-5	xmj81c3d5w30k2x@marketplace.amazon.com	Issac Williams	+1 213-442-1463 ext. 13097	ABR0055	Delivery by Tuesday, January 19 Dozen Hot Pink Roses in a Free Vase by Arabella Bouquets	1	0	1	Expedited	Angela James	1750 EUREKA RD APT 68			ROSEVILLE	CA	95661-7740	US		Happy 65th Birthday Annie! God bless and Enjoy your gift! From Issac & Doris Williams	false		
114-7067938-4909017	53952798740970	2021-01-15T22:12:53+00:00	2021-01-15T14:12:53-08:00	2021-01-15T22:41:48+00:00	2021-01-21T07:59:59+00:00	-5	dbmgk7sngzczztt@marketplace.amazon.com	Brenda N Fogle	+1 602-671-6610 ext. 34966	ABM026	Delivery by Tuesday, January 19 Amour Bouquet by Arabella Bouquets	1	0	1	Expedited	Diana Daniels-Maina	179 PEARSALL AVE			JERSEY CITY	NJ	07305-3804	US		Happy Birthday Diana! From Brenda N Fogle	false		
112-1429096-7227419	05535013058954	2021-01-15T22:12:23+00:00	2021-01-15T14:12:23-08:00	2021-01-15T22:42:10+00:00	2021-01-21T07:59:59+00:00	-5	5802zp33xrv4fy3@marketplace.amazon.com	Julie Ferguson	+1 346-307-9643 ext. 31884	ABR0022	Delivery by Tuesday, January 19 Dozen Pink Roses with a Free Vase by Arabella Bouquets	1	0	1	Expedited	Joyce Morrison	3971 HOLLADAY PARK LOOP SE			LACEY	WA	98503-6984	US			false		
111-3373997-5527439	20330154448530	2021-01-15T22:13:31+00:00	2021-01-15T14:13:31-08:00	2021-01-15T22:42:21+00:00	2021-01-21T07:59:59+00:00	-5	0vqbl93v9btpfzr@marketplace.amazon.com	Edith  Banks	+1 602-671-6610 ext. 14614	ABR0055	Delivery by Tuesday, January 19 Dozen Hot Pink Roses in a Free Vase by Arabella Bouquets	1	0	1	Expedited	Sharon Mion	8142 WINDOVER WAY			TITUSVILLE	FLORIDA	32780-2514	US		Happy birthday Sis,  Enjoy your gift! Love, DeeDee& Larry	false		
112-1453477-7422647	67683588801138	2021-01-15T22:18:25+00:00	2021-01-15T14:18:25-08:00	2021-01-15T22:43:26+00:00	2021-01-21T07:59:59+00:00	-5	kvwcft8gcxwtvkb@marketplace.amazon.com	mike tjaarda	+1 415-851-9136 ext. 17747	ABC002	Delivery by Tuesday, January 19 Warm Wishes Bouquet by Arabella Bouquets	1	0	1	Expedited	Tante Cindy Lower	12536 YORBA AVE			CHINO	CA	91710-3340	US		Tante Cindy, you and the family are in our prayers! Uncle Jim made an unforgettable impression on me...he will never be forgotten! Believe! From Mike and Lynn Tjaarda	false		
114-3266874-1042651	48342768910650	2021-01-15T22:16:00+00:00	2021-01-15T14:16:00-08:00	2021-01-15T22:45:09+00:00	2021-01-21T07:59:59+00:00	-5	5lycp7c79ftgbh5@marketplace.amazon.com	Jody Griffin	+1 602-671-6610 ext. 89345	ABR0033	Delivery by Tuesday, January 19 Dozen Orange Roses in a Free Vase by Arabella Bouquets	1	0	1	Expedited	Lexington Park East Rehab Unit	1031 SW COTTONWOOD CT	BARBARA HANSON 317A		TOPEKA	KS	66604-1888	US		We Love You! From Jo, Ed and Rich	false		
113-4814726-9073836	02521272658258	2021-01-15T22:22:34+00:00	2021-01-15T14:22:34-08:00	2021-01-15T22:49:05+00:00	2021-01-21T07:59:59+00:00	-5	p5bjx05z156b5jq@marketplace.amazon.com	Eddie Groom	+1 763-225-9463 ext. 89754	ABR0066	Delivery by Tuesday, January 19 Dozen White Roses in a Free Vase by Arabella Bouquets	1	0	1	Expedited	Patricia Beal	3751 EAGLE CLIFF DR APT 1812			NORMAN	OK	73072-8327	US		Happy 79th Birthday! We love you! Nikki and Eddie From Eddie Groom	false		
113-9776658-9053819	17450636504018	2021-01-15T22:36:55+00:00	2021-01-15T14:36:55-08:00	2021-01-15T23:06:13+00:00	2021-01-21T07:59:59+00:00	-5	kt2h8nk9vpgc22s@marketplace.amazon.com	Michael Baranowski	+1 213-442-1463 ext. 65381	ABM020	Delivery by Tuesday, January 19 Sunset Bouquet by Arabella Bouquets	1	0	1	Expedited	Amy Snyder	1321 Ruby Road			Hartsville	SC	29550	US		Best birthday wishes to my very dear sister! Love & hugs to you : ) k From Kimberly : )	false		
111-8250230-4267468	09444577096050	2021-01-15T22:31:26+00:00	2021-01-15T14:31:26-08:00	2021-01-15T23:08:19+00:00	2021-01-21T07:59:59+00:00	-5	kxys0jtz6xq1r6j@marketplace.amazon.com	Alexander Merkurjev	+1 763-225-9463 ext. 62196	ABR0055	Delivery by Tuesday, January 19 Dozen Hot Pink Roses in a Free Vase by Arabella Bouquets	1	0	1	Expedited	Ekaterina Rapinchuk	1801 SHADYWOOD LN			OKEMOS	MI	48864-3803	US			false		
113-6622930-1721064	68781900846818	2021-01-15T22:38:44+00:00	2021-01-15T14:38:44-08:00	2021-01-15T23:08:38+00:00	2021-01-21T07:59:59+00:00	-5	mc1b75tj3wrrxx7@marketplace.amazon.com	Rhys Whitehouse	+1 213-442-1463 ext. 12543	ABC002	Delivery by Tuesday, January 19 Warm Wishes Bouquet by Arabella Bouquets	1	0	1	Expedited	Rhys J Whitehouse	213 LEWIS FARM DR			COCHRANVILLE	PA	19330-9349	US		Happy birthday Mom - love, Rhys From Rhys Whitehouse	false		
114-3926797-5064232	18571103326618	2021-01-15T22:47:59+00:00	2021-01-15T14:47:59-08:00	2021-01-15T23:17:20+00:00	2021-01-21T07:59:59+00:00	-5	kzkwpkf3fsbnz92@marketplace.amazon.com	Tom	+1 415-851-9136 ext. 33278	ABM022	Delivery by Tuesday, January 19 Purple Extravagance Bouquet by Arabella Bouquets	1	0	1	Expedited	Thomas Shearer	5787 Westchester Street			Alexandria	VA	22310	US			false		
113-6023220-2983460	23053318092354	2021-01-15T22:49:36+00:00	2021-01-15T14:49:36-08:00	2021-01-15T23:19:46+00:00	2021-01-21T07:59:59+00:00	-5	t3dtjnqnfzdxt15@marketplace.amazon.com	Kristofer E Creed	+1 602-671-6610 ext. 65462	ABM022	Delivery by Tuesday, January 19 Purple Extravagance Bouquet by Arabella Bouquets	1	0	1	Expedited	Karen Creed	1402 COUNTY ROAD 17 N			LAKE PLACID	FL	33852-5635	US			false		
113-3571007-5873034	45638463389706	2021-01-15T23:01:29+00:00	2021-01-15T15:01:29-08:00	2021-01-15T23:30:47+00:00	2021-01-21T07:59:59+00:00	-5	qyd20nr7ls0knmj@marketplace.amazon.com	Brian Turner	+1 619-854-2705 ext. 48298	ABM022	Delivery by Tuesday, January 19 Purple Extravagance Bouquet by Arabella Bouquets	1	0	1	Expedited	Brian Turner	510 DORSEY RD			HAMPTON	GA	30228-2098	US			false		
112-8213256-3789845	55817041391994	2021-01-15T23:01:56+00:00	2021-01-15T15:01:56-08:00	2021-01-15T23:31:04+00:00	2021-01-21T07:59:59+00:00	-5	qrmckqf1w21m574@marketplace.amazon.com	David Van Dyke	+1 619-854-2705 ext. 26950	ABR0022	Delivery by Tuesday, January 19 Dozen Pink Roses with a Free Vase by Arabella Bouquets	1	0	1	Expedited	Brent Goken	116 N ELM ST			WASHINGTON	IL	61571-2652	US		Thinking of you From David Van Dyke	false		
114-3855171-9414604	49299280662658	2021-01-15T23:01:22+00:00	2021-01-15T15:01:22-08:00	2021-01-15T23:31:15+00:00	2021-01-21T07:59:59+00:00	-5	mtlqlbthmty19cn@marketplace.amazon.com	Kenneth	+1 602-671-6610 ext. 84643	ABM022	Delivery by Tuesday, January 19 Purple Extravagance Bouquet by Arabella Bouquets	1	0	1	Expedited	ashley saari	141 E HARDING AVE			IRONWOOD	MI	49938-1215	US		So sorry for your loss! We are praying for y'all. love you! From Kenny and Maria	false		
111-8496343-9408217	32750410227762	2021-01-15T23:18:39+00:00	2021-01-15T15:18:39-08:00	2021-01-15T23:48:07+00:00	2021-01-21T07:59:59+00:00	-5	zmxjtp9zpbhck88@marketplace.amazon.com	Magda Vela	+1 213-442-1463 ext. 43538	ABR001	Delivery by Tuesday, January 19 Dozen Red Roses in a Free Vase by Arabella Bouquets	1	0	1	Expedited	Hortencia Jones	2518 CREEKWAY CIR			MISSOURI CITY	TX	77459-2128	US		Happy Birthday!!! Love you From Magda Vela	false		
111-4592984-3994614	65233224995938	2021-01-15T23:20:45+00:00	2021-01-15T15:20:45-08:00	2021-01-15T23:50:37+00:00	2021-01-21T07:59:59+00:00	-5	d5b9xc70pf39qql@marketplace.amazon.com	ken monroe	+1 602-671-6610 ext. 90495	ABM010	Delivery by Tuesday, January 19 Everlasting Fling with a Free Glass Vase by Arabella Bouquets	1	0	1	Expedited	Ann Linehan	9274 REFINERY RD			ARDMORE	OK	73401-7685	US			false		
113-2267690-3637046	53306694778362	2021-01-15T23:25:16+00:00	2021-01-15T15:25:16-08:00	2021-01-15T23:52:21+00:00	2021-01-21T07:59:59+00:00	-5	ynpg0dm7nwgj5tr@marketplace.amazon.com	MICHAEL MICALIZZI	+1 602-671-6610 ext. 39932	ABR014	Delivery by Tuesday, January 19 FarmDirect 18 White Roses in a Free Vase by Arabella Bouquets	1	0	1	Expedited	M/M Joseph Mastro	49 WINDMILL LN			NEW CITY	NY	10956-6120	US		Happy Birthday! Wishing you Peace, Health and Happiness! Many more...! All our Love Michael & Paul From MICHAEL MICALIZZI	false		
112-8742149-3816216	19077504819306	2021-01-15T23:35:09+00:00	2021-01-15T15:35:09-08:00	2021-01-16T00:03:20+00:00	2021-01-21T07:59:59+00:00	-5	my4zc9pbchxt2f5@marketplace.amazon.com	Nicholas Suda	+1 213-442-1463 ext. 02038	ABR0033	Delivery by Tuesday, January 19 Dozen Orange Roses in a Free Vase by Arabella Bouquets	1	0	1	Expedited	Karen McPherson	14514 165TH AVE SE			RENTON	WA	98059-7959	US		Sending you my love every day in every way I can. Happy 67th birthday mom, I love you very much. You have one more small gift on the way, but it's being shipped by a home seller in Canada so it might be another week or so! From Nicholas Suda	false		
112-5096033-7361856	42032101550130	2021-01-15T23:39:55+00:00	2021-01-15T15:39:55-08:00	2021-01-16T00:08:29+00:00	2021-01-21T07:59:59+00:00	-5	flw2fzrj6prwrk9@marketplace.amazon.com	Mason Hall	+1 619-854-2705 ext. 18971	ABM010	Delivery by Tuesday, January 19 Everlasting Fling with a Free Glass Vase by Arabella Bouquets	1	0	1	Expedited	Randy Hall	15958 DETROIT ST			THORNTON	CO	80602-7804	US		Thank you for all you do for us! From Love, Mason + Oliver + Maureen	false		
113-6511990-1135426	24666304043218	2021-01-16T00:01:38+00:00	2021-01-15T16:01:38-08:00	2021-01-16T00:27:13+00:00	2021-01-21T07:59:59+00:00	-5	f7nw5cf12vpt7rk@marketplace.amazon.com	Brenda Abdilla	+3037759669	ABR0022	Delivery by Tuesday, January 19 Dozen Pink Roses with a Free Vase by Arabella Bouquets	1	0	1	Expedited	Maci O'Grady	10646 WILDHURST CIR			HIGHLANDS RANCH	CO	80126-7518	US		Maci, we hope you heal quickly and feel fabulous very soon. Love, Brenda & Kevin From Brenda Abdilla	false		
113-8150180-0546614	55701868565802	2021-01-16T00:05:13+00:00	2021-01-15T16:05:13-08:00	2021-01-16T00:31:37+00:00	2021-01-21T07:59:59+00:00	-5	98m58lkxpwjh0r9@marketplace.amazon.com	Amanda Shelton	+1 415-851-9136 ext. 27037	ABR001	Delivery by Tuesday, January 19 Dozen Red Roses in a Free Vase by Arabella Bouquets	1	0	1	Expedited	Diane Shelton	4717 63RD ST			URBANDALE	IA	50322-8211	US		Love and miss you From Amanda Shelton	false		
114-3031760-1867408	04418439683122	2021-01-16T00:13:01+00:00	2021-01-15T16:13:01-08:00	2021-01-16T00:38:27+00:00	2021-01-21T07:59:59+00:00	-5	fkz0ddv9yrky2w5@marketplace.amazon.com	Joan Tirpak	+1 602-671-6610 ext. 61602	ABM010	Delivery by Tuesday, January 19 Everlasting Fling with a Free Glass Vase by Arabella Bouquets	1	0	1	Expedited	Marilyn Tirpak	3528 14TH ST W LOT D15			BRADENTON	FL	34205-6266	US			false		
111-7451486-8995405	02298723742490	2021-01-14T03:13:45+00:00	2021-01-13T19:13:45-08:00	2021-01-16T00:38:35+00:00	2021-01-21T07:59:59+00:00	-5	43n0b7qzvlp0b4d@marketplace.amazon.com	Sandra McNally	+1 415-419-8616 ext. 81986	ABM024	Delivery by Monday, January 18 Beauty of Color Bouquet by Arabella Bouquets	1	0	1	Expedited	Sisters Lett & McNally	4960 SALEM AVE			DAYTON	OH	45416-1718	US		Aunts Eleanor & Katie.  Happy birthday to both of you. Hopefully the chocolates get there soon.  We love you mucho. Love, Sandie, Kevin, Johnny and Jesse XOXOXO From Sandra McNally	false		
111-0580375-0466649	30139549370322	2021-01-16T00:11:46+00:00	2021-01-15T16:11:46-08:00	2021-01-16T00:42:16+00:00	2021-01-21T07:59:59+00:00	-5	yq4wfr4t152c9jd@marketplace.amazon.com	Stacey Lynn Koebach	+1 346-307-9643 ext. 28806	ABR0055	Delivery by Tuesday, January 19 Dozen Hot Pink Roses in a Free Vase by Arabella Bouquets	1	0	1	Expedited	Stacey L Koebach	10434 INDIAN RD			GLOUCESTER	VA	23061-2806	US			false		
113-8224198-8973847	23186030876442	2021-01-16T00:22:48+00:00	2021-01-15T16:22:48-08:00	2021-01-16T00:50:22+00:00	2021-01-21T07:59:59+00:00	-5	zybkqn1c66jpc76@marketplace.amazon.com	Rosalia Chann	+1 415-419-8616 ext. 27671	ABC001	Delivery by Tuesday, January 19 Seasons Greetings Bouquet by Arabella Bouquets	1	0	1	Expedited	Ken and Darlene Chann	855 E GARDEN RD			VINELAND	NJ	08360-1724	US		Happy Anniversary! We wanted to bring the winter wonderland vibe from your wedding day. Hope that you enjoy — We love you! From KC, Allison , Lia + Ish	false		
113-7837293-6441836	39532077161866	2021-01-14T17:13:47+00:00	2021-01-14T09:13:47-08:00	2021-01-16T01:02:54+00:00	2021-01-21T07:59:59+00:00	-5	sq5gv6qz3qbxmkw@marketplace.amazon.com	Pasadena 155	+1 415-419-8616 ext. 69552	ABB013	Delivery by Monday, January 18 FarmDirect 24 Fresh Cut White Roses in a Free Vase by Arabella Bouquets	1	0	1	Expedited	Michael Hakakha	9085 ALTO CEDRO DR			BEVERLY HILLS	CA	90210-1845	US		Mr.& Mama Hakakha, I'm sorry to hear about your loss. I know 2020 had been a horrible year, but I truly hope that the new year brings joy to you both. Please let me know if I could be of any help.  Jason Tang- 818-565-2716 From Pasadena 155	true		
114-4389207-9115414	13947446372930	2021-01-16T00:43:04+00:00	2021-01-15T16:43:04-08:00	2021-01-16T01:13:25+00:00	2021-01-21T07:59:59+00:00	-5	bqjbbrf0rn7djnj@marketplace.amazon.com	casey smith	+1 763-225-9463 ext. 81500	ABR0022	Delivery by Tuesday, January 19 Dozen Pink Roses with a Free Vase by Arabella Bouquets	1	0	1	Expedited	Denise albertson	712 SW 27TH ST			MOORE	OK	73160-5523	US			false		
111-9132493-3293047	16199921252322	2021-01-16T00:56:29+00:00	2021-01-15T16:56:29-08:00	2021-01-16T01:23:52+00:00	2021-01-21T07:59:59+00:00	-5	8p6dlf52bxxxfkx@marketplace.amazon.com	sedat saatcioglu	+1 415-419-8616 ext. 30024	ABM010	Delivery by Tuesday, January 19 Everlasting Fling with a Free Glass Vase by Arabella Bouquets	1	0	1	Expedited	Pinar Tabakci	4688 S ATLANTIC AVE			PORT ORANGE	FL	32127-7004	US		"Güllerim soldu kaldırımlarda Gonca yüklü dallarıma ayaz vurdu Demlerim oldu son akşamlarda Bir nefeslik duraklarda çiçek açtım" Seni seviyorum From sedat saatcioglu	false		
111-0060790-1729011	35625574335594	2021-01-16T00:56:28+00:00	2021-01-15T16:56:28-08:00	2021-01-16T01:27:05+00:00	2021-01-21T07:59:59+00:00	-5	6cpgy9rt6jy4rrj@marketplace.amazon.com	gregory harmer	+1 602-671-6610 ext. 88676	ABR0022	Delivery by Tuesday, January 19 Dozen Pink Roses with a Free Vase by Arabella Bouquets	1	0	1	Expedited	gregory harmer	23233 257TH AVE SE			MAPLE VALLEY	WA	98038-7636	US			false		
114-2481302-0664260	15566577068458	2021-01-16T01:02:17+00:00	2021-01-15T17:02:17-08:00	2021-01-16T01:32:35+00:00	2021-01-21T07:59:59+00:00	-5	nrnd2k9zb2v33q8@marketplace.amazon.com	Kevin Carrico	+1 415-419-8616 ext. 89508	ABR0022	Delivery by Tuesday, January 19 Dozen Pink Roses with a Free Vase by Arabella Bouquets	1	0	1	Expedited	Tracy Raulerson	2291 FALLEN TREE DR E			JACKSONVILLE	FL	32246-1070	US			false		
111-1146227-4129002	15889229202242	2021-01-16T01:22:10+00:00	2021-01-15T17:22:10-08:00	2021-01-16T01:36:56+00:00	2021-01-21T07:59:59+00:00	-5	pjjt6cpc54jq1h4@marketplace.amazon.com	nancy caputo	+1 763-225-9463 ext. 51529	ABB013	Delivery by Tuesday, January 19 FarmDirect 24 Fresh Cut White Roses in a Free Vase by Arabella Bouquets	1	0	1	Expedited	Debbie Williamson	4407 SHADY LN			PUNTA GORDA	FL	33980-3024	US		Our hearts, thoughts and prayers are with you and your family at this difficult time. We are always here for you. From All our love, Nancy and Jack	false		
111-9023188-3756248	26178668140474	2021-01-16T01:14:47+00:00	2021-01-15T17:14:47-08:00	2021-01-16T01:43:50+00:00	2021-01-21T07:59:59+00:00	-5	3g405stq5yq88t5@marketplace.amazon.com	jennifer	+1 602-671-6610 ext. 29549	ABR0033	Delivery by Tuesday, January 19 Dozen Orange Roses in a Free Vase by Arabella Bouquets	1	0	1	Expedited	Michelle Plavchak	574 PLATTEKILL ARDONIA RD			WALLKILL	NY	12589-4638	US			false		
114-8008180-9168216	56293555157082	2021-01-16T01:16:37+00:00	2021-01-15T17:16:37-08:00	2021-01-16T01:46:03+00:00	2021-01-21T07:59:59+00:00	-5	lsp3q3stzsc7b7v@marketplace.amazon.com	Celia J. Kuhlmann	+1 602-671-6610 ext. 31303	ABR0022	Delivery by Tuesday, January 19 Dozen Pink Roses with a Free Vase by Arabella Bouquets	1	0	1	Expedited	Marie Somers	1250 S PINELLAS AVE UNIT 804			TARPON SPRINGS	FL	34689-3750	US		Have a wonderful birthday, Marie! Love, Celia From Celia J. Kuhlmann	false		
114-0122499-5427431	61937015949850	2021-01-16T01:21:12+00:00	2021-01-15T17:21:12-08:00	2021-01-16T01:46:49+00:00	2021-01-21T07:59:59+00:00	-5	3fsly0bz4cm7tl5@marketplace.amazon.com	Luz Orejel	+1 346-307-9643 ext. 27339	ABR0055	Delivery by Tuesday, January 19 Dozen Hot Pink Roses in a Free Vase by Arabella Bouquets	1	0	1	Expedited	Estella Zaragoza	1214 ENTRADA DR			OXNARD	CA	93030-2593	US		Estella these flowers are for our angel Melissa, I’m really sorry for not understanding you, but now I know how it feels to lose a piece of your heart.❤️ From Lucy & Family Martin-Orejel	false		
111-3632963-1436267	41522637636146	2021-01-16T01:22:18+00:00	2021-01-15T17:22:18-08:00	2021-01-16T01:47:43+00:00	2021-01-21T07:59:59+00:00	-5	9t4vl4vyf7tw6ww@marketplace.amazon.com	Ralph J. Bulle	+1 619-854-2705 ext. 90682	ABM010	Delivery by Tuesday, January 19 Everlasting Fling with a Free Glass Vase by Arabella Bouquets	1	0	1	Expedited	Mrs Lan Caslow	107 BUNKER HILL LN			ODENTON	MD	21113-1043	US		Dear Lan, we are so sorry for your loss! You and your daughters are in our prayers! Laura, Ralph, Jama,Joe, Tim, Jon & Sandra From Ralph J. Bulle	false		
111-3162058-0357058	47820438345010	2021-01-16T01:22:20+00:00	2021-01-15T17:22:20-08:00	2021-01-16T01:47:55+00:00	2021-01-21T07:59:59+00:00	-5	dt5kytk9j4plqvs@marketplace.amazon.com	Natasha Guthrie	+1 415-851-9136 ext. 87378	ABC002	Delivery by Tuesday, January 19 Warm Wishes Bouquet by Arabella Bouquets	1	0	1	Expedited	Caroline Paillou	8106 TEASDALE AVE			SAINT LOUIS	MO	63130-3819	US		So sorry for your loss, we love you both. If there’s anything you need please let us know. From Natasha and Tommy	false		
113-4846236-3579417	39182679583674	2021-01-16T01:33:55+00:00	2021-01-15T17:33:55-08:00	2021-01-16T01:56:38+00:00	2021-01-21T07:59:59+00:00	-5	my6tyfqx7dgwqmp@marketplace.amazon.com	Lisa Denhem	+1 480-618-5344 ext. 94844	ABR0022	Delivery by Tuesday, January 19 Dozen Pink Roses with a Free Vase by Arabella Bouquets	1	0	1	Expedited	Bev Casper	7570 E SPEEDWAY BLVD UNIT 329			TUCSON	AZ	85710-8817	US		Happy Birthday Mom!  We love you!!  Love,  Lisa, Alex and Grace From Lisa Denhem	false		
114-9544313-0375465	60683003357386	2021-01-16T01:31:55+00:00	2021-01-15T17:31:55-08:00	2021-01-16T01:58:41+00:00	2021-01-21T07:59:59+00:00	-5	3fsly0bz4cm7tl5@marketplace.amazon.com	Luz Orejel	+1 763-225-9463 ext. 65321	ABM020	Delivery by Tuesday, January 19 Sunset Bouquet by Arabella Bouquets	1	0	1	Expedited	Maria Oregel	112 No.BalsamSt			Oxnard	Ca	93030	US		Para mi hermana que descanse en paz, aquí le mando unas flores mami para le lleven al cementerio a su tumba a mi querida hermana; los quiero mucho❤️🌹 From Lucy & Familia Martin-Orejel From Lucy & Familia Martin-Orejel	false		
112-1401610-9243459	29094783586378	2021-01-16T01:32:22+00:00	2021-01-15T17:32:22-08:00	2021-01-16T02:02:10+00:00	2021-01-21T07:59:59+00:00	-5	180hjvdgr6j5yyl@marketplace.amazon.com	ben Hall	+1 763-225-9463 ext. 57107	ABM020	Delivery by Tuesday, January 19 Sunset Bouquet by Arabella Bouquets	1	0	1	Expedited	Baby Vanasse	87 DIAMOND LN			HOLLIS CENTER	ME	04042-4123	US			false		
112-2051981-0517856	00679239578490	2021-01-16T01:39:50+00:00	2021-01-15T17:39:50-08:00	2021-01-16T02:04:44+00:00	2021-01-21T07:59:59+00:00	-5	npxgvvdrmfk36sb@marketplace.amazon.com	Kathleen Traina	+1 415-851-9136 ext. 03156	ABC002	Delivery by Tuesday, January 19 Warm Wishes Bouquet by Arabella Bouquets	1	0	1	Expedited	Angie Traina	5717 NW 51ST PL			CORAL SPRINGS	FL	33067-4029	US		Enjoy your gift! I love you Aunt Angie.   I will never forget Uncle Jerry.  Love Always Vincent. From Vincent Traina	false		
111-2074990-7145023	24748764832282	2021-01-16T01:42:35+00:00	2021-01-15T17:42:35-08:00	2021-01-16T02:05:42+00:00	2021-01-21T07:59:59+00:00	-5	pdp5dd34r3yqlsp@marketplace.amazon.com	angella nelson	+1 415-419-8616 ext. 92637	ABR0033	Delivery by Tuesday, January 19 Dozen Orange Roses in a Free Vase by Arabella Bouquets	1	0	1	Expedited	Juliette Walfall	4354 ROCK HILL LOOP			APOPKA	FL	32712-4795	US		Thanks for loving us so fiercely. Thanks for your love and kindness to our Mom when she needed it the most. Love, your first grand kids Mikey & Caela From Mike & Caela	false		
113-9883084-2925837	66515304473946	2021-01-16T01:44:14+00:00	2021-01-15T17:44:14-08:00	2021-01-16T02:11:29+00:00	2021-01-21T07:59:59+00:00	-5	qltqcjksfp7n3v2@marketplace.amazon.com	Latoya	+1 213-442-1463 ext. 29613	ABR0055	Delivery by Tuesday, January 19 Dozen Hot Pink Roses in a Free Vase by Arabella Bouquets	1	0	1	Expedited	Devin Johnson	1337 BURLEW BLVD APT B			OWENSBORO	KY	42303-1761	US			false		
111-5939664-5520224	54700266728146	2021-01-16T01:51:33+00:00	2021-01-15T17:51:33-08:00	2021-01-16T02:13:48+00:00	2021-01-21T07:59:59+00:00	-5	pdp5dd34r3yqlsp@marketplace.amazon.com	angella nelson	+1 480-618-5344 ext. 89242	ABR0033	Delivery by Tuesday, January 19 Dozen Orange Roses in a Free Vase by Arabella Bouquets	1	0	1	Standard	Evett Goodwin	504 CORINNE DR			LEHIGH ACRES	FL	33936-7515	US		I know this past year has been lonely, scary and challenging, and you have missed the family.  Hope these make you smile From Ann	false		
111-8806984-0229066	15618425358338	2021-01-16T01:43:59+00:00	2021-01-15T17:43:59-08:00	2021-01-16T02:14:28+00:00	2021-01-21T07:59:59+00:00	-5	czg24lcsgb1qlq5@marketplace.amazon.com	Robert M. Sproul	+1 415-851-9136 ext. 07779	ABM010	Delivery by Tuesday, January 19 Everlasting Fling with a Free Glass Vase by Arabella Bouquets	1	0	1	Expedited	Robert Sproul	1800 FORT PULASKI CT			DUMFRIES	VA	22026-2506	US			false		
114-4139078-6425019	17772070333746	2021-01-16T01:53:56+00:00	2021-01-15T17:53:56-08:00	2021-01-16T02:22:33+00:00	2021-01-21T07:59:59+00:00	-5	m0zhycsrnzrtx30@marketplace.amazon.com	Eichelle Rowsell	+1 763-225-9463 ext. 86917	ABR0033	Delivery by Tuesday, January 19 Dozen Orange Roses in a Free Vase by Arabella Bouquets	1	0	1	Expedited	Steve Jenkins	1583 Pine Needles Ln			Lexington	KY	40513-1503	US		Happy Birthday Mom! Love you From Eichelle Rowsell	false		
113-5795056-2717014	03253966148690	2021-01-16T01:45:21+00:00	2021-01-15T17:45:21-08:00	2021-01-16T02:23:49+00:00	2021-01-21T07:59:59+00:00	-5	3dtg367wqxlktzl@marketplace.amazon.com	Jennifer Ehde	+1 213-442-1463 ext. 61048	ABR0022	Delivery by Tuesday, January 19 Dozen Pink Roses with a Free Vase by Arabella Bouquets	1	0	1	Expedited	Erica Thesenvitz	101 SHY BEAR WAY NW			ISSAQUAH	WA	98027-5696	US		I am so so sorry for your loss... Sending love to you & the whole family <3 miss the kids so much & can’t wait to see you all soon! From Kate Ehde	false		
113-0082529-1611431	09534675643474	2021-01-16T02:17:34+00:00	2021-01-15T18:17:34-08:00	2021-01-16T02:27:52+00:00	2021-01-21T07:59:59+00:00	-5	bzy85xsvb4m8pyw@marketplace.amazon.com	Takashi Noda	+1 415-851-9136 ext. 41967	ABB011	Delivery by Tuesday, January 19 FarmDirect 24 Fresh Cut Hot Pink Roses in a Free Vase by Arabella Bouquets	1	0	1	Expedited	MEGUMI HIRANO	26 BRIGA CIR			HARRISON	NY	10528-3140	US		Dear Kaoru, The 35th wedding anniversary. Let's get along peacefully well each other towards ruby wedding! From Takashi Noda	false		
113-4426866-2448261	64065770923146	2021-01-16T02:07:53+00:00	2021-01-15T18:07:53-08:00	2021-01-16T02:29:53+00:00	2021-01-21T07:59:59+00:00	-5	4hmdff9lz2lbc5v@marketplace.amazon.com	wendy shepherd	+1 602-671-6610 ext. 17530	ABM025	Delivery by Tuesday, January 19 Fell for You Bouquet by Arabella Bouquets	1	0	1	Expedited	Anna Wilson	482 SOUTH ST			HOLLISTER	CA	95023-4615	US		Hope these bring a bit of cheer. We love you! From Wendy and Greg Shepherd	false		
111-9043225-5166619	16487681591458	2021-01-16T02:00:32+00:00	2021-01-15T18:00:32-08:00	2021-01-16T02:31:15+00:00	2021-01-21T07:59:59+00:00	-5	8mwp5xjlfngd673@marketplace.amazon.com	Tom Di Piazza	+1 602-671-6610 ext. 96994	ABR0055	Delivery by Tuesday, January 19 Dozen Hot Pink Roses in a Free Vase by Arabella Bouquets	1	0	1	Expedited	Thomas DiPiazza	14 WILLIAM ST			ROCHELLE PARK	NJ	07662-3920	US			false		
113-4380509-7417039	28405165901754	2021-01-16T02:24:13+00:00	2021-01-15T18:24:13-08:00	2021-01-16T02:54:08+00:00	2021-01-21T07:59:59+00:00	-5	tmm6zsg66d2cbg6@marketplace.amazon.com	Winston Torres	+1 763-225-9463 ext. 27318	ABR0022	Delivery by Tuesday, January 19 Dozen Pink Roses with a Free Vase by Arabella Bouquets	1	0	1	Expedited	Arianna Simko	1100 HOLY GRAIL DR			LEWISVILLE	TX	75056-5744	US			true		Business Price
111-7998420-4384202	30342660170850	2021-01-16T02:30:06+00:00	2021-01-15T18:30:06-08:00	2021-01-16T02:58:54+00:00	2021-01-21T07:59:59+00:00	-5	t8j6bkv72vjshm2@marketplace.amazon.com	AlineBarbeau	+1 763-225-9463 ext. 22133	ABR0055	Delivery by Tuesday, January 19 Dozen Hot Pink Roses in a Free Vase by Arabella Bouquets	1	0	1	Expedited	Linda Hollowell	5035 S JOLLY ST			SALT LAKE CITY	UT	84123-4215	US		Just  gotta have flowers!! From Mom	false		
113-8677818-9652249	28304490288106	2021-01-16T02:44:36+00:00	2021-01-15T18:44:36-08:00	2021-01-16T03:03:00+00:00	2021-01-21T07:59:59+00:00	-5	y30hhtm0tm6rr89@marketplace.amazon.com	britni	+1 619-854-2705 ext. 36382	ABR0033	Delivery by Tuesday, January 19 Dozen Orange Roses in a Free Vase by Arabella Bouquets	1	0	1	Expedited	Stephanie Alger	4303 E CATHEDRAL ROCK DR			PHOENIX	AZ	85044-3725	US		Dear Steph,   My heart goes out to you and your family. I appreciate you so much and I am so very grateful to call you my friend.  Britni From Britni Delgado	false		
111-7981238-7233039	05159303031042	2021-01-16T02:36:12+00:00	2021-01-15T18:36:12-08:00	2021-01-16T03:06:08+00:00	2021-01-21T07:59:59+00:00	-5	ysjrqjxsk3x5q0t@marketplace.amazon.com	Matt Reisinger	+1 602-671-6610 ext. 77224	ABM022	Delivery by Tuesday, January 19 Purple Extravagance Bouquet by Arabella Bouquets	1	0	1	Expedited	Diggity Kieran	343 W WOLF POINT PLZ UNIT 3102			CHICAGO	IL	60654-0165	US			false		
114-8873565-8965820	60532229843154	2021-01-16T02:44:45+00:00	2021-01-15T18:44:45-08:00	2021-01-16T03:14:38+00:00	2021-01-21T07:59:59+00:00	-5	f31l08bbg3qgnb9@marketplace.amazon.com	Anna Homler	+1 602-671-6610 ext. 12523	ABR0033	Delivery by Tuesday, January 19 Dozen Orange Roses in a Free Vase by Arabella Bouquets	1	0	1	Expedited	Anna Homler	110 North Poinsettia Place	LEAVE IN FRONT OF OLD CAR IN DRIVEWAY BY WHITE GATE.		Los Angeles	CA	90036	US			false		
114-8873565-8965820	25189851655754	2021-01-16T02:44:45+00:00	2021-01-15T18:44:45-08:00	2021-01-16T03:14:38+00:00	2021-01-21T07:59:59+00:00	-5	f31l08bbg3qgnb9@marketplace.amazon.com	Anna Homler	+1 602-671-6610 ext. 12523	ABR0066	Delivery by Tuesday, January 19 Dozen White Roses in a Free Vase by Arabella Bouquets	1	0	1	Expedited	Anna Homler	110 North Poinsettia Place	LEAVE IN FRONT OF OLD CAR IN DRIVEWAY BY WHITE GATE.		Los Angeles	CA	90036	US			false		
114-5544166-4885001	58182896051458	2021-01-16T02:53:09+00:00	2021-01-15T18:53:09-08:00	2021-01-16T03:17:32+00:00	2021-01-21T07:59:59+00:00	-5	7y99b3gf34qfftp@marketplace.amazon.com	Theresa Johnson	+1 763-225-9463 ext. 42166	ABR0055	Delivery by Tuesday, January 19 Dozen Hot Pink Roses in a Free Vase by Arabella Bouquets	1	0	1	Expedited	kim washington	3535 BLUFFS LN APT 18110			GRAPEVINE	TX	76051-1262	US		Happy 60th Birthday cousin remember you're not old  you're classic. We Love you Joyce & Dan From Theresa Johnson	false		
111-2773969-7713032	63647145556138	2021-01-16T03:06:14+00:00	2021-01-15T19:06:14-08:00	2021-01-16T03:28:07+00:00	2021-01-21T07:59:59+00:00	-5	jh88p1ffhnv5jtw@marketplace.amazon.com	Jason xu	+1 619-854-2705 ext. 79587	ABM022	Delivery by Tuesday, January 19 Purple Extravagance Bouquet by Arabella Bouquets	1	0	1	Expedited	TINA XU	158 ORCHARD ST APT 5A			NEW YORK	NY	10002-2280	US		Happy Birthday to Dear Tina ! Love You ! From Love from Mom, Dad & Karen.	false		
112-2091238-6330656	41688205869330	2021-01-16T03:00:51+00:00	2021-01-15T19:00:51-08:00	2021-01-16T03:28:51+00:00	2021-01-21T07:59:59+00:00	-5	b4jslpyszk06lg5@marketplace.amazon.com	Erica Bellio	+1 763-225-9463 ext. 79092	ABR0066	Delivery by Tuesday, January 19 Dozen White Roses in a Free Vase by Arabella Bouquets	1	0	1	Expedited	Lauren Hartman	11707 PRATO CV			FORT WAYNE	IN	46845-1384	US		We’re so sorry about the loss of your beloved Grandpa Foster! We hope these put a smile on your face during this sad time. Love you Lo! From Erica, Colton & Beckett	false		
112-3070235-6377041	09313903722066	2021-01-16T03:03:25+00:00	2021-01-15T19:03:25-08:00	2021-01-16T03:29:11+00:00	2021-01-21T07:59:59+00:00	-5	nl628j3jk723mmk@marketplace.amazon.com	Raffi Hulian	+1 763-225-9463 ext. 99988	ABM022	Delivery by Tuesday, January 19 Purple Extravagance Bouquet by Arabella Bouquets	1	0	1	Expedited	Mykenzie Ott	6213 CLOVER WAY S			SAGINAW	MI	48603-1057	US		A little something to adorn your room, te amo! From Raffi Hulian	false		
112-3877452-5288205	17676519774858	2021-01-16T03:01:32+00:00	2021-01-15T19:01:32-08:00	2021-01-16T03:29:54+00:00	2021-01-21T07:59:59+00:00	-5	h7ytxszf7fjft03@marketplace.amazon.com	Benjamin D. Alviar, Jr.	+1 415-851-9136 ext. 72477	ABB013	Delivery by Tuesday, January 19 FarmDirect 24 Fresh Cut White Roses in a Free Vase by Arabella Bouquets	1	0	1	Expedited	Judy Cruz	3898 CRAYTON RD			NAPLES	FL	34103-3529	US		Happy happy birthday Auntie Judy!!!  From your loving family in Manila	false		
114-6800413-9506613	36515990057978	2021-01-16T03:12:50+00:00	2021-01-15T19:12:50-08:00	2021-01-16T03:32:26+00:00	2021-01-21T07:59:59+00:00	-5	w7r0t7zxdxk90gj@marketplace.amazon.com	Carlosflores.hn	+1 619-854-2705 ext. 89698	ABC002	Delivery by Tuesday, January 19 Warm Wishes Bouquet by Arabella Bouquets	1	0	1	Expedited	Mery Rodriguez	901 Central Ave	Apt 4		Ship  Bottom	NJ	08008	US		Que pases un feliz cumpleaños lleno de salud, amor, alegría y bendiciones para este y los años venideros. Para; la mejor madre, la mejor abuela, y la mejor suegra De Carlos, Linda y Sofía. De Carlos, Linda y Sofía.	false		
114-2776297-0198660	02909553565298	2021-01-16T03:05:38+00:00	2021-01-15T19:05:38-08:00	2021-01-16T03:35:02+00:00	2021-01-21T07:59:59+00:00	-5	zdq4n3npffmvdvc@marketplace.amazon.com	Chris Nagano	+1 213-442-1463 ext. 06363	ABM020	Delivery by Tuesday, January 19 Sunset Bouquet by Arabella Bouquets	1	0	1	Expedited	Otome NAGANO	931 CENTINELA AVE			SANTA MONICA	CA	90403-2314	US		Happy 100th Birthday Mom  Chris Charlie And Koni From Chris Nagano	false		
113-6529908-7582605	46659168674786	2021-01-16T03:50:41+00:00	2021-01-15T19:50:41-08:00	2021-01-16T04:18:01+00:00	2021-01-21T07:59:59+00:00	-5	43n80gkg7p2w813@marketplace.amazon.com	Jeff Lamp	+1 602-671-6610 ext. 04709	ABR0022	Delivery by Tuesday, January 19 Dozen Pink Roses with a Free Vase by Arabella Bouquets	1	0	1	Expedited	Heather Smithson	14271 W JENAN DR			SURPRISE	AZ	85379-4907	US			false		
114-3523148-6908223	42131563862626	2021-01-16T03:49:36+00:00	2021-01-15T19:49:36-08:00	2021-01-16T04:18:42+00:00	2021-01-21T07:59:59+00:00	-5	0v1nbybcq25m30h@marketplace.amazon.com	Joshua	+1 763-225-9463 ext. 51966	ABR0033	Delivery by Tuesday, January 19 Dozen Orange Roses in a Free Vase by Arabella Bouquets	1	0	1	Expedited	Tamara Longendyke	58 E CHESTER ST			KINGSTON	NY	12401-5118	US			false		
113-9815778-7160227	03993408100810	2021-01-16T03:56:27+00:00	2021-01-15T19:56:27-08:00	2021-01-16T04:25:37+00:00	2021-01-21T07:59:59+00:00	-5	vvqhf7k5n80wthm@marketplace.amazon.com	Robin	+1 346-307-9643 ext. 72800	ABM0033	Delivery by Tuesday, January 19 White Hydrangea 5 Stems with a Free Glass Vase by Arabella Bouquets	1	0	1	Expedited	Mary Lou Breitenbach	409 CLEARBROOK DR			AVON LAKE	OH	44012-3119	US		Happy Birthday!! From Art	false		
114-5035688-4623464	26716205977890	2021-01-16T04:00:29+00:00	2021-01-15T20:00:29-08:00	2021-01-16T04:27:50+00:00	2021-01-21T07:59:59+00:00	-5	rzmbcltlpwf49db@marketplace.amazon.com	Andrew Horwitz	+1 763-225-9463 ext. 40549	ABR001	Delivery by Tuesday, January 19 Dozen Red Roses in a Free Vase by Arabella Bouquets	1	0	1	Expedited	jill adams	5221 SYLMAR AVE			VAN NUYS	CA	91401-5611	US		My Dear Sister Jill. It's called love. Your Big Brother, Andrew From Your ABQ Family	false		
111-1495275-3164254	52430123713770	2021-01-16T04:14:02+00:00	2021-01-15T20:14:02-08:00	2021-01-16T04:41:08+00:00	2021-01-21T07:59:59+00:00	-5	djwtj4cd4kx7xb2@marketplace.amazon.com	David Hicks	+1 602-671-6610 ext. 36118	ABR0033	Delivery by Tuesday, January 19 Dozen Orange Roses in a Free Vase by Arabella Bouquets	1	0	1	Expedited	Jeanne Hicks	1228 NATIONAL RD APT 118			WHEELING	WV	26003-5787	US		Mom/Jeanne We hope these flowers give you a reason to smile. Hang in there! From Love,    David and Karen	false		
113-9330783-0065865	55132595713466	2021-01-16T04:17:52+00:00	2021-01-15T20:17:52-08:00	2021-01-16T04:44:40+00:00	2021-01-21T07:59:59+00:00	-5	zjh6gl8nh5102kl@marketplace.amazon.com	Mikaela Iracheta-Cruz	+1 415-851-9136 ext. 95648	ABM026	Delivery by Tuesday, January 19 Amour Bouquet by Arabella Bouquets	1	0	1	Expedited	Dolores Arellano	9251 LOBRANO ST			LA MESA	CA	91941-5643	US		HAPPY Birthday!  Love ya Bunches!!! From Becka & the girls	false		
112-6030844-3023446	58459245219786	2021-01-16T04:25:55+00:00	2021-01-15T20:25:55-08:00	2021-01-16T04:47:52+00:00	2021-01-21T07:59:59+00:00	-5	sg3vc8fh25lq1q8@marketplace.amazon.com	John White	+1 763-225-9463 ext. 80846	ABR001	Delivery by Tuesday, January 19 Dozen Red Roses in a Free Vase by Arabella Bouquets	1	0	1	Standard	Jennifer White	40070 WINSAND DR			OSSEO	WI	54758-7512	US		We knew how much these meant to you last year and we know Pops would want you to have them again this year! Happy 70th Birthday Momma! We love and cherish you! Looking forward to celebrating with you in person! Love, Jay & CJ From John White	false		
114-8630897-7264264	44834895162250	2021-01-16T04:25:52+00:00	2021-01-15T20:25:52-08:00	2021-01-16T04:55:35+00:00	2021-01-21T07:59:59+00:00	-5	pr5mld0h7w6wcjm@marketplace.amazon.com	Tabitha	+1 415-419-8616 ext. 65372	ABR0022	Delivery by Tuesday, January 19 Dozen Pink Roses with a Free Vase by Arabella Bouquets	1	0	1	Expedited	Denise Garcia	124 SARAH LN NW			ALBUQUERQUE	NM	87114-1007	US		I hope you feel better soon! I'm glad surgery went well! ♡ From Tabitha	false		
112-2242800-1745857	14691731036754	2021-01-16T04:50:23+00:00	2021-01-15T20:50:23-08:00	2021-01-16T05:08:24+00:00	2021-01-21T07:59:59+00:00	-5	1txnd4cmmdnw7x3@marketplace.amazon.com	Layton McGuire	+1 763-225-9463 ext. 11154	ABM022	Delivery by Tuesday, January 19 Purple Extravagance Bouquet by Arabella Bouquets	1	0	1	Expedited	Amanda Temple	611 ALLEN LN ST CHARLES IL 60174			ST CHARLES	IL	60174-1355	US		I'm so proud of you sugar, enjoy your new journey. From Layton McGuire	false		
111-2988984-9305037	37227428621082	2021-01-16T04:39:54+00:00	2021-01-15T20:39:54-08:00	2021-01-16T05:09:10+00:00	2021-01-21T07:59:59+00:00	-5	xklcrs72c537f2v@marketplace.amazon.com	Stephen Burkhart	+1 602-671-6610 ext. 23506	ABR0022	Delivery by Tuesday, January 19 Dozen Pink Roses with a Free Vase by Arabella Bouquets	1	0	1	Standard	Caitlin Burkhart	1723 NE 56TH AVE			PORTLAND	OR	97213-3510	US			false		
112-3313553-8810664	11933691665082	2021-01-16T04:44:56+00:00	2021-01-15T20:44:56-08:00	2021-01-16T05:11:01+00:00	2021-01-21T07:59:59+00:00	-5	04n579fwh8wdnkr@marketplace.amazon.com	M. Bakri Musa	+1 480-618-5344 ext. 62657	ABC002	Delivery by Tuesday, January 19 Warm Wishes Bouquet by Arabella Bouquets	1	0	1	Expedited	Mrs. Su Pittam	45 W POSADA LN			MOUNTAIN HOUSE	CA	95391-2041	US		Wishing you a very Happy Birthday.  Sending you lots of love. From Dr. Dad and Mother K.	true		
114-2794105-5440226	12130694888906	2021-01-16T04:59:00+00:00	2021-01-15T20:59:00-08:00	2021-01-16T05:22:37+00:00	2021-01-21T07:59:59+00:00	-5	r0ldvsbbbw8pt4c@marketplace.amazon.com	Natalie Lynch	+1 213-442-1463 ext. 01636	ABR0055	Delivery by Tuesday, January 19 Dozen Hot Pink Roses in a Free Vase by Arabella Bouquets	1	0	1	Expedited	Deloris  Lynch	510 N OAKLAND ST COLFAX IN 46035			COLFAX	IN	46035-9132	US			false		
113-1253477-2422601	65320002798138	2021-01-16T04:58:47+00:00	2021-01-15T20:58:47-08:00	2021-01-16T05:27:47+00:00	2021-01-21T07:59:59+00:00	-5	q23k4257ph6l636@marketplace.amazon.com	Sasha B Thompson	+1 602-671-6610 ext. 78775	ABM022	Delivery by Tuesday, January 19 Purple Extravagance Bouquet by Arabella Bouquets	1	0	1	Expedited	Lori Lee Schaal	1937 SOUTHCROSS DR W APT 1104			BURNSVILLE	MN	55306-7919	US		Thank you for being such a loving mother and nana! I wish we could see you every day! From Preston, Sasha and Pia	false		
112-9352927-9070634	60870894137218	2021-01-16T05:30:05+00:00	2021-01-15T21:30:05-08:00	2021-01-16T05:58:34+00:00	2021-01-21T07:59:59+00:00	-5	k8k0hkhrs34h3jl@marketplace.amazon.com	anthony hicks	+1 415-851-9136 ext. 07314	ABR0055	Delivery by Tuesday, January 19 Dozen Hot Pink Roses in a Free Vase by Arabella Bouquets	1	0	1	Expedited	Sarah	4266 E TULSA ST			GILBERT	AZ	85295-6113	US		Don’t forget to smile today beautiful. From Anthony Hicks	false		
114-9181808-2343414	67742355505114	2021-01-16T05:42:01+00:00	2021-01-15T21:42:01-08:00	2021-01-16T06:11:13+00:00	2021-01-21T07:59:59+00:00	-5	33gh43552y5v2l0@marketplace.amazon.com	Hope Romine	+1 602-671-6610 ext. 66624	ABR0022	Delivery by Tuesday, January 19 Dozen Pink Roses with a Free Vase by Arabella Bouquets	1	0	1	Expedited	Connie Boles	1401 N JAMES ST			GUYMON	OK	73942-3239	US		Happy Birthday!! I hope you have an amazing day! Love and miss you. From Hope And Kyle	false		
112-6299985-0697858	46900938413682	2021-01-16T05:49:53+00:00	2021-01-15T21:49:53-08:00	2021-01-16T06:17:39+00:00	2021-01-21T07:59:59+00:00	-5	5l50hkh4t18cbf9@marketplace.amazon.com	andrew fraser	+1 480-618-5344 ext. 47767	ABM002	Delivery by Tuesday, January 19 White Calla Lilies in a Free Designer Glass Vase by Arabella Bouquets	1	0	1	Expedited	Marylyn Tymon	9188 FLINT CT			NAPLES	FL	34120-5226	US		Can't wait to see you! From Love, Erin and Andrew	false		
111-3941224-4049859	67058513304002	2021-01-16T05:54:52+00:00	2021-01-15T21:54:52-08:00	2021-01-16T06:17:49+00:00	2021-01-21T07:59:59+00:00	-5	gj57s67xt6nxl0g@marketplace.amazon.com	LASHAN WILLIAMS	+1 213-442-1463 ext. 54467	ABR001	Delivery by Tuesday, January 19 Dozen Red Roses in a Free Vase by Arabella Bouquets	1	0	1	Expedited	LASHAUN BOUGERE	1202 PAINTED DESERT CT			ARLINGTON	TX	76001-7907	US		Hi LASHAUN, Enjoy your gift! From LASHAN WILLIAMS	false		
111-5914665-4389066	08592075984994	2021-01-16T06:01:19+00:00	2021-01-15T22:01:19-08:00	2021-01-16T06:31:53+00:00	2021-01-21T07:59:59+00:00	-5	jkm57cxmyqtr5dy@marketplace.amazon.com	Mark A Martinez	+1 346-307-9643 ext. 78417	ABR001	Delivery by Tuesday, January 19 Dozen Red Roses in a Free Vase by Arabella Bouquets	1	0	1	Expedited	Mark A Martinez	3701 HERITAGE DR			ANTIOCH	CA	94509-6115	US			false		
112-6433391-4554615	00482346750386	2021-01-16T06:14:57+00:00	2021-01-15T22:14:57-08:00	2021-01-16T06:45:24+00:00	2021-01-21T07:59:59+00:00	-5	z31dv89p03n638k@marketplace.amazon.com	James C Walker III	+1 415-851-9136 ext. 14766	ABR0066	Delivery by Tuesday, January 19 Dozen White Roses in a Free Vase by Arabella Bouquets	1	0	1	Expedited	Sydney Mitchell	5319 W 119TH TER APT 111 KS			OVERLAND PARK	KS	66209-3173	US			false		
111-2143484-7528212	56226255649674	2021-01-16T06:47:20+00:00	2021-01-15T22:47:20-08:00	2021-01-16T07:11:02+00:00	2021-01-21T07:59:59+00:00	-5	8zkpfcqkqhzw219@marketplace.amazon.com	Susan Koerber	+1 763-225-9463 ext. 43342	ABM022	Delivery by Tuesday, January 19 Purple Extravagance Bouquet by Arabella Bouquets	1	0	1	Expedited	Heather Lara	1805 SHAWNEE TRL			NORTHBROOK	IL	60062-5130	US		Heather, Just a way to show my thanks for getting me the Ladybug & Friends account. He is opening his 8th center!!  $$$$$ From Mommy	false		
111-6721834-1131400	14807735367450	2021-01-16T07:25:09+00:00	2021-01-15T23:25:09-08:00	2021-01-16T07:54:37+00:00	2021-01-21T07:59:59+00:00	-5	vmqvr0skckrc5lh@marketplace.amazon.com	Kristin Bizzell	+1 415-419-8616 ext. 57333	ABR0022	Delivery by Tuesday, January 19 Dozen Pink Roses with a Free Vase by Arabella Bouquets	1	0	1	Expedited	Dreama Seliskar	4210 SMOKE RDG			SAN ANTONIO	TX	78217-1733	US		Happy Birthing Day! From Love, Krissy	false		
114-5802643-1601051	64657214880994	2021-01-16T07:34:49+00:00	2021-01-15T23:34:49-08:00	2021-01-16T08:04:22+00:00	2021-01-21T07:59:59+00:00	-5	h5q6pjczhcp1s8h@marketplace.amazon.com	Sung Jun Ye		ABR001	Delivery by Tuesday, January 19 Dozen Red Roses in a Free Vase by Arabella Bouquets	1	0	1	Expedited	Sungjun  Ye	11321 15TH PL SE			LAKE STEVENS	WA	98258-7930	US			false		
114-0166995-4525052	29653165274466	2021-01-16T07:46:47+00:00	2021-01-15T23:46:47-08:00	2021-01-16T08:16:57+00:00	2021-01-21T07:59:59+00:00	-5	whbfs0cpvf69jzn@marketplace.amazon.com	Janet Laracuente	+1 415-419-8616 ext. 15152	ABM025	Delivery by Tuesday, January 19 Fell for You Bouquet by Arabella Bouquets	1	0	1	Expedited	Higinia Rodriguez	757 S ORANGE AVE APT 605			ORLANDO	FL	32801-3767	US			false		
111-1860113-4913815	53448102642826	2021-01-16T08:29:45+00:00	2021-01-16T00:29:45-08:00	2021-01-16T08:56:56+00:00	2021-01-21T07:59:59+00:00	-5	588cyscgf9l9z15@marketplace.amazon.com	Beverly G. Browning	+1 415-419-8616 ext. 67085	ABM022	Delivery by Tuesday, January 19 Purple Extravagance Bouquet by Arabella Bouquets	1	0	1	Expedited	Bob Glass	654 GLENPARK LN			MIDLOTHIAN	VA	23114-3069	US		Happy Birthday, Sis! Love you!	false		
111-2188374-7442644	13595681412314	2021-01-16T08:34:44+00:00	2021-01-16T00:34:44-08:00	2021-01-16T09:05:07+00:00	2021-01-21T07:59:59+00:00	-5	wfdjdnqk1gx6yh1@marketplace.amazon.com	Zachary sanborn	+1 415-851-9136 ext. 84245	ABC001	Delivery by Tuesday, January 19 Seasons Greetings Bouquet by Arabella Bouquets	1	0	1	Expedited	Zach Sanborn	1920 S 8 MILE RD			BRECKENRIDGE	MI	48615-9619	US			false		
112-5275762-5335411	19656071965290	2021-01-16T09:08:31+00:00	2021-01-16T01:08:31-08:00	2021-01-16T09:28:15+00:00	2021-01-21T07:59:59+00:00	-5	4ht0v2hmysdrlgg@marketplace.amazon.com	kathleen Abbey youngsma	+1 346-307-9643 ext. 17284	ABR0066	Delivery by Tuesday, January 19 Dozen White Roses in a Free Vase by Arabella Bouquets	1	0	1	Expedited	Ryan Youngsma	855 N OAKS ST			TULARE	CA	93274-1917	US		So sorry for your loss of sweet & loving Grandpa Willie, who always had a sparkle in his eye and a kind smile on his face. Blessed to have him apart of our lives xoxo Kitty, Stephen, Tammy & Luke From Kitty Abbey Youngsma	false		
